{"photos":{"page":1,"pages":6,"perpage":100,"total":556,"photo":[{"id":"52645131850","owner":"8013969@N03","secret":"db0d223c47","server":"65535","farm":66,"title":"Empidonax virescens DFL phil22","ispublic":1,"isfriend":0,"isfamily":0},{"id":"52580696119","owner":"153973412@N04","secret":"cd873b1068","server":"65535","farm":66,"title":"Acadian Flycatcher-Empidonax virescens, GSM, TN","ispublic":1,"isfriend":0,"isfamily":0},{"id":"52489386193","owner":"56686021@N04","secret":"b9b75b5103","server":"65535","farm":66,"title":"Acadian Flycatcher","ispublic":1,"isfriend":0,"isfamily":0},{"id":"52488834216","owner":"56686021@N04","secret":"78f91c3e2c","server":"65535","farm":66,"title":"Acadian Flycatcher","ispublic":1,"isfriend":0,"isfamily":0},{"id":"52473875370","owner":"84175980@N00","secret":"20d764afda","server":"65535","farm":66,"title":"20220725 Empidonax virescens (Acadian Flycatcher) (2)","ispublic":1,"isfriend":0,"isfamily":0},{"id":"52452676323","owner":"84175980@N00","secret":"39ebb355d1","server":"65535","farm":66,"title":"20220725 Empidonax virescens (Acadian Flycatcher) (1)","ispublic":1,"isfriend":0,"isfamily":0},{"id":"52313267578","owner":"194903193@N03","secret":"0e13314c08","server":"65535","farm":66,"title":"Acadian Fly Catcher (Empidonax virescens)","ispublic":1,"isfriend":0,"isfamily":0},{"id":"52205382926","owner":"185149142@N05","secret":"c408514366","server":"65535","farm":66,"title":"Acadian Flycatcher","ispublic":1,"isfriend":0,"isfamily":0},{"id":"52201098670","owner":"33573751@N04","secret":"1de0bce056","server":"65535","farm":66,"title":"Acadian Flycatcher (Empidonax virescens) - Weston, Connecticut","ispublic":1,"isfriend":0,"isfamily":0},{"id":"52166902742","owner":"33106392@N08","secret":"28b8a5c7bf","server":"65535","farm":66,"title":"Acadian Flycatcher","ispublic":1,"isfriend":0,"isfamily":0},{"id":"52166349165","owner":"59770980@N02","secret":"6b9505e9bd","server":"65535","farm":66,"title":"M\u00fdgreipur-Acadian Flycatcher-Empidonax virescens","ispublic":1,"isfriend":0,"isfamily":0},{"id":"52160557695","owner":"147283349@N08","secret":"8bec78b41d","server":"65535","farm":66,"title":"Empidonax virecens","ispublic":1,"isfriend":0,"isfamily":0},{"id":"52152960337","owner":"28499865@N07","secret":"e79094759e","server":"65535","farm":66,"title":"Acadian Flycatcher - Empidonax virescens","ispublic":1,"isfriend":0,"isfamily":0},{"id":"52153976618","owner":"28499865@N07","secret":"edffdd030e","server":"65535","farm":66,"title":"Acadian Flycatcher - Empidonax virescens","ispublic":1,"isfriend":0,"isfamily":0},{"id":"52154210454","owner":"28499865@N07","secret":"e606a8e04f","server":"65535","farm":66,"title":"Acadian Flycatcher - Empidonax virescens","ispublic":1,"isfriend":0,"isfamily":0},{"id":"52149243698","owner":"129803374@N05","secret":"ba1ff4574c","server":"65535","farm":66,"title":"Acadian Flycatcher (Empidonax virescens)","ispublic":1,"isfriend":0,"isfamily":0},{"id":"52117257875","owner":"76617062@N08","secret":"ae3f53792e","server":"65535","farm":66,"title":"1.14387 Moucherolle vert \/ Empidonax virescens \/ Acadian Flycatcher","ispublic":1,"isfriend":0,"isfamily":0},{"id":"52110682650","owner":"13604536@N02","secret":"7c5d5a4ecf","server":"65535","farm":66,"title":"Acadian Flycatcher","ispublic":1,"isfriend":0,"isfamily":0},{"id":"52106140306","owner":"46367607@N06","secret":"b90db0f703","server":"65535","farm":66,"title":"Acadian flycatcher--Empidonax virescens _D6A4553","ispublic":1,"isfriend":0,"isfamily":0},{"id":"52106140151","owner":"46367607@N06","secret":"16ea2a6d41","server":"65535","farm":66,"title":"Acadian flycatcher--Empidonax virescens _D6A4555","ispublic":1,"isfriend":0,"isfamily":0},{"id":"52105119042","owner":"46367607@N06","secret":"365d89b5d9","server":"65535","farm":66,"title":"Acadian flycatcher--Empidonax virescens _D6A4558","ispublic":1,"isfriend":0,"isfamily":0},{"id":"52094990126","owner":"91110467@N04","secret":"17a6642083","server":"65535","farm":66,"title":"Acadian Flycatcher","ispublic":1,"isfriend":0,"isfamily":0},{"id":"52085253185","owner":"61241315@N00","secret":"8c25a815be","server":"0","farm":0,"title":"Acadian Flycatcher_9261.MP4","ispublic":1,"isfriend":0,"isfamily":0},{"id":"52083723487","owner":"61241315@N00","secret":"b995042f7e","server":"65535","farm":66,"title":"Acadian Flycatcher_N9259","ispublic":1,"isfriend":0,"isfamily":0},{"id":"52083723247","owner":"61241315@N00","secret":"6b66e756a6","server":"65535","farm":66,"title":"Acadian Flycatcher_N9281","ispublic":1,"isfriend":0,"isfamily":0},{"id":"52057550506","owner":"99208129@N08","secret":"8dd76f5586","server":"65535","farm":66,"title":"Empidonax virescens \/ Acadian Flycatcher","ispublic":1,"isfriend":0,"isfamily":0},{"id":"52045581726","owner":"59631194@N06","secret":"c8a5cde7d4","server":"65535","farm":66,"title":"Acadian flycatcher (Empidonax virescens)","ispublic":1,"isfriend":0,"isfamily":0},{"id":"51925114434","owner":"110394983@N04","secret":"46fa8bbbf8","server":"65535","farm":66,"title":"Moucherolle vert\/Acadian flycatcher (Empidonax virescens)","ispublic":1,"isfriend":0,"isfamily":0},{"id":"51896597130","owner":"147283349@N08","secret":"c3de28d70b","server":"65535","farm":66,"title":"Empidonax virescens","ispublic":1,"isfriend":0,"isfamily":0},{"id":"51856906708","owner":"141178418@N05","secret":"49d9178761","server":"65535","farm":66,"title":"Mosquero Verdoso - Empidonax virescens","ispublic":1,"isfriend":0,"isfamily":0},{"id":"51857479010","owner":"141178418@N05","secret":"1a764bbf20","server":"65535","farm":66,"title":"Mosquero Verdoso - Empidonax virescens","ispublic":1,"isfriend":0,"isfamily":0},{"id":"51787093111","owner":"48938938@N04","secret":"e360c1b132","server":"65535","farm":66,"title":"Acadian Flycatcher Empidonax virescens_Ascanio_Andes W Colombia_DZ3A0547","ispublic":1,"isfriend":0,"isfamily":0},{"id":"51787959005","owner":"48938938@N04","secret":"89dd2fd5b6","server":"65535","farm":66,"title":"Acadian Flycatcher Empidonax virescens_Ascanio_Andes W Colombia_DZ3A0538","ispublic":1,"isfriend":0,"isfamily":0},{"id":"51786233537","owner":"48938938@N04","secret":"1e213072b0","server":"65535","farm":66,"title":"Acadian Flycatcher Empidonax virescens_Ascanio_Andes W Colombia_DZ3A0547","ispublic":1,"isfriend":0,"isfamily":0},{"id":"51787051436","owner":"48938938@N04","secret":"a00595a505","server":"65535","farm":66,"title":"Acadian Flycatcher Empidonax virescens_Ascanio_Andes W Colombia_DZ3A0548","ispublic":1,"isfriend":0,"isfamily":0},{"id":"51787656229","owner":"48938938@N04","secret":"5dd896948d","server":"65535","farm":66,"title":"Acadian Flycatcher Empidonax virescens_Ascanio_Andes W Colombia_DZ3A0538","ispublic":1,"isfriend":0,"isfamily":0},{"id":"51671277144","owner":"8013969@N03","secret":"867853c4af","server":"65535","farm":66,"title":"Empidonax virescens","ispublic":1,"isfriend":0,"isfamily":0},{"id":"51671275039","owner":"8013969@N03","secret":"8bd2f8d405","server":"65535","farm":66,"title":"Empidonax virescens","ispublic":1,"isfriend":0,"isfamily":0},{"id":"51555088672","owner":"84175980@N00","secret":"cda86bd5b9","server":"65535","farm":66,"title":"20210802 Acadian Flycatcher (Empidonax virescens) nestling (1)","ispublic":1,"isfriend":0,"isfamily":0},{"id":"51513741715","owner":"84175980@N00","secret":"4147c8a00d","server":"65535","farm":66,"title":"20210802 Acadian Flycatcher (Empidonax virescens) nestling (2)","ispublic":1,"isfriend":0,"isfamily":0},{"id":"51440207739","owner":"166123535@N05","secret":"abc9bbd503","server":"65535","farm":66,"title":"Acadian Flycatcher","ispublic":1,"isfriend":0,"isfamily":0},{"id":"51407603639","owner":"84175980@N00","secret":"c41599cdac","server":"65535","farm":66,"title":"20210724 Acadian Flycatcher (Empidonax virescens) (close 2)","ispublic":1,"isfriend":0,"isfamily":0},{"id":"51403469807","owner":"36267333@N05","secret":"1e724dc961","server":"65535","farm":66,"title":"Acadian flycatcher (Empidonax virescens)","ispublic":1,"isfriend":0,"isfamily":0},{"id":"51404216061","owner":"36267333@N05","secret":"29e51af840","server":"65535","farm":66,"title":"Acadian flycatcher (Empidonax virescens)","ispublic":1,"isfriend":0,"isfamily":0},{"id":"51384743043","owner":"137772040@N07","secret":"db042e330a","server":"65535","farm":66,"title":"Acadian Flycatcher (Empidonax virescens) by Michelle Brosius","ispublic":1,"isfriend":0,"isfamily":0},{"id":"51375517024","owner":"84175980@N00","secret":"a82d0609e8","server":"65535","farm":66,"title":"20210724 Acadian Flycatcher (Empidonax virescens) (close 1)","ispublic":1,"isfriend":0,"isfamily":0},{"id":"51335458953","owner":"33814246@N00","secret":"30c8690e08","server":"65535","farm":66,"title":"IMG_7010-1","ispublic":1,"isfriend":0,"isfamily":0},{"id":"51331769386","owner":"84175980@N00","secret":"17fa83ee86","server":"65535","farm":66,"title":"20210701 Acadian Flycatcher (Empidonax virescens)","ispublic":1,"isfriend":0,"isfamily":0},{"id":"51319080306","owner":"48014585@N00","secret":"cb745d3df4","server":"65535","farm":66,"title":"Acadian Flycatcher","ispublic":1,"isfriend":0,"isfamily":0},{"id":"51304443108","owner":"137772040@N07","secret":"ebb059fdee","server":"65535","farm":66,"title":"Acadian Flyscatcher (Empidonax virescens) by Allen Rand, Saturday, July 10, 2021, Rocky River Reservation, Valley Pkwy, North Olmsted, OH 44070","ispublic":1,"isfriend":0,"isfamily":0},{"id":"51280559749","owner":"90886369@N06","secret":"c8fe866fbd","server":"65535","farm":66,"title":"Acadian Flycatcher (Empidonax virescens)","ispublic":1,"isfriend":0,"isfamily":0},{"id":"51277367393","owner":"61021753@N02","secret":"43d3348515","server":"65535","farm":66,"title":"n624_w1150","ispublic":1,"isfriend":0,"isfamily":0},{"id":"51271750660","owner":"35610936@N03","secret":"085a5fa259","server":"65535","farm":66,"title":"Acadian Flycatcher","ispublic":1,"isfriend":0,"isfamily":0},{"id":"51265131990","owner":"7546739@N08","secret":"99b641492a","server":"65535","farm":66,"title":"Acadian Flycatcher","ispublic":1,"isfriend":0,"isfamily":0},{"id":"51242390952","owner":"21154755@N03","secret":"0c07d55187","server":"65535","farm":66,"title":"_DSC2084-4K","ispublic":1,"isfriend":0,"isfamily":0},{"id":"51243304183","owner":"21154755@N03","secret":"33da343a54","server":"65535","farm":66,"title":"_DSC2047-4K","ispublic":1,"isfriend":0,"isfamily":0},{"id":"51243299683","owner":"135315828@N06","secret":"a5d8ed99d1","server":"65535","farm":66,"title":"IMG_0179","ispublic":1,"isfriend":0,"isfamily":0},{"id":"51223538990","owner":"129803374@N05","secret":"70875d52b9","server":"65535","farm":66,"title":"Acadian Flycatcher Empidonax virescens","ispublic":1,"isfriend":0,"isfamily":0},{"id":"51212635148","owner":"64557331@N04","secret":"0a3fa6cf8c","server":"65535","farm":66,"title":"Acadian Flycatcher - (Empidonax virescens)_05052021","ispublic":1,"isfriend":0,"isfamily":0},{"id":"51199650552","owner":"50264295@N06","secret":"1c956fe550","server":"65535","farm":66,"title":"Acadian Flycatcher (Empidonax virescens)","ispublic":1,"isfriend":0,"isfamily":0},{"id":"51197512972","owner":"28499865@N07","secret":"369b495f4d","server":"65535","farm":66,"title":"Acadian Flycatcher - Empidonax virescens","ispublic":1,"isfriend":0,"isfamily":0},{"id":"51191870838","owner":"21584095@N00","secret":"a79b59d7b7","server":"65535","farm":66,"title":"Acadian Flycatcher (Empidonax virescens)","ispublic":1,"isfriend":0,"isfamily":0},{"id":"51186509041","owner":"36685968@N00","secret":"54d3e317fc","server":"65535","farm":66,"title":"Acadian Flycatcher (Empidonax virescens)","ispublic":1,"isfriend":0,"isfamily":0},{"id":"51178526025","owner":"36685968@N00","secret":"b6f1eb06a8","server":"65535","farm":66,"title":"Acadian Flycatcher (Empidonax virescens)","ispublic":1,"isfriend":0,"isfamily":0},{"id":"51163770275","owner":"135315828@N06","secret":"3f191f0f7f","server":"65535","farm":66,"title":"IMG_7500","ispublic":1,"isfriend":0,"isfamily":0},{"id":"51163770220","owner":"135315828@N06","secret":"a7b1a77b52","server":"65535","farm":66,"title":"IMG_7529","ispublic":1,"isfriend":0,"isfamily":0},{"id":"51162908103","owner":"135315828@N06","secret":"390a86ea16","server":"65535","farm":66,"title":"IMG_7575","ispublic":1,"isfriend":0,"isfamily":0},{"id":"51143356976","owner":"60408271@N08","secret":"081b976d6c","server":"65535","farm":66,"title":"Acadian Flycatcher","ispublic":1,"isfriend":0,"isfamily":0},{"id":"51114379246","owner":"141178418@N05","secret":"093dfdb7ef","server":"65535","farm":66,"title":"Mosquero Verdoso - Empidonax virescens","ispublic":1,"isfriend":0,"isfamily":0},{"id":"51114379051","owner":"141178418@N05","secret":"276b514e95","server":"65535","farm":66,"title":"Mosquero Verdoso - Empidonax virescens","ispublic":1,"isfriend":0,"isfamily":0},{"id":"51023311512","owner":"61021753@N02","secret":"51cc0cf23f","server":"65535","farm":66,"title":"n431_w1150","ispublic":1,"isfriend":0,"isfamily":0},{"id":"50867918951","owner":"21702714@N06","secret":"f83da10a59","server":"65535","farm":66,"title":"Acadian Flycatcher","ispublic":1,"isfriend":0,"isfamily":0},{"id":"50787342597","owner":"146006711@N02","secret":"3c29367fb9","server":"65535","farm":66,"title":"Mosquerito Verdoso \/ Acadian Flycatcher  \/Empidonax virescens","ispublic":1,"isfriend":0,"isfamily":0},{"id":"50563468411","owner":"61021753@N02","secret":"f36c930aae","server":"65535","farm":66,"title":"n19_w1150","ispublic":1,"isfriend":0,"isfamily":0},{"id":"50563058632","owner":"186748160@N02","secret":"c43d52363f","server":"65535","farm":66,"title":"Acadian flycatcher (Empidonax virescens)","ispublic":1,"isfriend":0,"isfamily":0},{"id":"50562925051","owner":"186748160@N02","secret":"0b7b7a1969","server":"65535","farm":66,"title":"Acadian flycatcher (Empidonax virescens)","ispublic":1,"isfriend":0,"isfamily":0},{"id":"50410510357","owner":"48793602@N07","secret":"4801373058","server":"65535","farm":66,"title":"Acadian Flycatcher 09-30-2020","ispublic":1,"isfriend":0,"isfamily":0},{"id":"50380833537","owner":"13451078@N03","secret":"17fd182871","server":"65535","farm":66,"title":"Acadian Flycatcher (Empidonax virescens)","ispublic":1,"isfriend":0,"isfamily":0},{"id":"50373817008","owner":"45681418@N03","secret":"230f6eb83b","server":"65535","farm":66,"title":"Acadian Flycatcher (Empidonax virescens)","ispublic":1,"isfriend":0,"isfamily":0},{"id":"50374515636","owner":"45681418@N03","secret":"14c82d19d0","server":"65535","farm":66,"title":"Acadian Flycatcher (Empidonax virescens)","ispublic":1,"isfriend":0,"isfamily":0},{"id":"50373815773","owner":"45681418@N03","secret":"7ecf4c3446","server":"65535","farm":66,"title":"Acadian Flycatcher (Empidonax virescens)","ispublic":1,"isfriend":0,"isfamily":0},{"id":"50218726452","owner":"137772040@N07","secret":"a0808c90a3","server":"65535","farm":66,"title":"Acadian Flycatcher (Empidonax virescens) by Michelle Brosius","ispublic":1,"isfriend":0,"isfamily":0},{"id":"50145157617","owner":"61021753@N02","secret":"70c8640641","server":"65535","farm":66,"title":"n382_w1150","ispublic":1,"isfriend":0,"isfamily":0},{"id":"50104294156","owner":"187469698@N05","secret":"84d8c1d472","server":"65535","farm":66,"title":"772 Acadian Flycatcher - Andrew Walker 001","ispublic":1,"isfriend":0,"isfamily":0},{"id":"50089064437","owner":"47745688@N05","secret":"4e7f062bc4","server":"65535","farm":66,"title":"Acadian flycatcher, Empidonax virescens","ispublic":1,"isfriend":0,"isfamily":0},{"id":"50050900698","owner":"26803925@N05","secret":"57d6189f1f","server":"65535","farm":66,"title":"Acadian Flycatcher (Empidonax virescens) 6-07-2020 Dan's Mountain WMA--Tom's Hollow Road, Allegany Co. MD","ispublic":1,"isfriend":0,"isfamily":0},{"id":"50040152341","owner":"65788177@N02","secret":"da6ceb6e34","server":"65535","farm":66,"title":"Acadian Flycatcher","ispublic":1,"isfriend":0,"isfamily":0},{"id":"49982807321","owner":"84169650@N07","secret":"a3b50759e3","server":"65535","farm":66,"title":"Acadian Flycatcher","ispublic":1,"isfriend":0,"isfamily":0},{"id":"49894796008","owner":"49114357@N08","secret":"497176a86d","server":"65535","farm":66,"title":"Acadian Flycatcher","ispublic":1,"isfriend":0,"isfamily":0},{"id":"49933038997","owner":"65788177@N02","secret":"e148ee9a73","server":"65535","farm":66,"title":"Acadian Flycatcher","ispublic":1,"isfriend":0,"isfamily":0},{"id":"49921559217","owner":"36685968@N00","secret":"c78210307c","server":"65535","farm":66,"title":"Acadian Flycatcher (Empidonax virescens)","ispublic":1,"isfriend":0,"isfamily":0},{"id":"49919487692","owner":"61241315@N00","secret":"72f71f86d9","server":"0","farm":0,"title":"Acadian Flycatcher_8516,45,81.MP4","ispublic":1,"isfriend":0,"isfamily":0},{"id":"49919488407","owner":"61241315@N00","secret":"8a7ec10061","server":"65535","farm":66,"title":"Acadian Flycatcher_N8460","ispublic":1,"isfriend":0,"isfamily":0},{"id":"49919488322","owner":"61241315@N00","secret":"6f170794ae","server":"65535","farm":66,"title":"Acadian Flycatcher_N8467","ispublic":1,"isfriend":0,"isfamily":0},{"id":"49919190491","owner":"61241315@N00","secret":"9bb01a687b","server":"65535","farm":66,"title":"Acadian Flycatcher_N8541","ispublic":1,"isfriend":0,"isfamily":0},{"id":"49919190526","owner":"61241315@N00","secret":"b0b2f57885","server":"65535","farm":66,"title":"Acadian Flycatcher_N8515","ispublic":1,"isfriend":0,"isfamily":0},{"id":"52493320146","owner":"53048815@N06","secret":"835e553fa0","server":"65535","farm":66,"title":"Acadian Flycatcher (Empidonax virescens)","ispublic":1,"isfriend":0,"isfamily":0},{"id":"52079575407","owner":"13451078@N03","secret":"2599a4c7ef","server":"65535","farm":66,"title":"Acadian Flycatcher (Empidonax virescens)","ispublic":1,"isfriend":0,"isfamily":0},{"id":"51787343653","owner":"48938938@N04","secret":"3f955c6b19","server":"65535","farm":66,"title":"Acadian Flycatcher Empidonax virescens_Ascanio_Andes W Colombia_DZ3A0548","ispublic":1,"isfriend":0,"isfamily":0},{"id":"51162908068","owner":"135315828@N06","secret":"c31fb8c382","server":"65535","farm":66,"title":"IMG_7597","ispublic":1,"isfriend":0,"isfamily":0}]},"stat":"ok"}