{"photos":{"page":1,"pages":175,"perpage":100,"total":17476,"photo":[{"id":"52720641699","owner":"169771858@N03","secret":"a8f2f9ef49","server":"65535","farm":66,"title":"American Robin - 2021-05-01","ispublic":1,"isfriend":0,"isfamily":0},{"id":"52718876352","owner":"62043870@N05","secret":"6835c8d430","server":"65535","farm":66,"title":"American Robin, Turdus migratorius","ispublic":1,"isfriend":0,"isfamily":0},{"id":"52719061945","owner":"197716085@N05","secret":"e429841a5d","server":"65535","farm":66,"title":"American Robin","ispublic":1,"isfriend":0,"isfamily":0},{"id":"52718117572","owner":"197716085@N05","secret":"0784edca39","server":"65535","farm":66,"title":"American Robin","ispublic":1,"isfriend":0,"isfamily":0},{"id":"52718593366","owner":"27931184@N08","secret":"d26ee7e31d","server":"65535","farm":66,"title":"On the rock","ispublic":1,"isfriend":0,"isfamily":0},{"id":"52717976527","owner":"65148649@N04","secret":"4477b7cc50","server":"65535","farm":66,"title":"Bohemian Waxwing and American Robin 02.18.23 Frye","ispublic":1,"isfriend":0,"isfamily":0},{"id":"52718987428","owner":"65148649@N04","secret":"875f631003","server":"65535","farm":66,"title":"American Robin Leucistic 2 02.18.23 Frye","ispublic":1,"isfriend":0,"isfamily":0},{"id":"52718923215","owner":"65148649@N04","secret":"640d83d444","server":"65535","farm":66,"title":"American Robin Leucistic 02.18.23 Frye","ispublic":1,"isfriend":0,"isfamily":0},{"id":"52718987368","owner":"65148649@N04","secret":"f3c4efac3c","server":"65535","farm":66,"title":"American Robin 4 02.18.23 Frye","ispublic":1,"isfriend":0,"isfamily":0},{"id":"52718494616","owner":"65148649@N04","secret":"d85188066f","server":"65535","farm":66,"title":"American Robin 3 02.18.23 Frye","ispublic":1,"isfriend":0,"isfamily":0},{"id":"52718987348","owner":"65148649@N04","secret":"bbf47a34a2","server":"65535","farm":66,"title":"American Robin 2 02.18.23 Frye","ispublic":1,"isfriend":0,"isfamily":0},{"id":"52717976247","owner":"65148649@N04","secret":"09c8d5751a","server":"65535","farm":66,"title":"American Robin 02.18.23 Frye","ispublic":1,"isfriend":0,"isfamily":0},{"id":"52718494346","owner":"65148649@N04","secret":"bf776f263d","server":"65535","farm":66,"title":"Cedar Waxwing and American Robin 02.18.23 Anderson","ispublic":1,"isfriend":0,"isfamily":0},{"id":"52718986938","owner":"65148649@N04","secret":"b2f3c74e1b","server":"65535","farm":66,"title":"American Robins 02.18.23 Anderson","ispublic":1,"isfriend":0,"isfamily":0},{"id":"52717975792","owner":"65148649@N04","secret":"c840d9dc37","server":"65535","farm":66,"title":"American Robin Leucistic 2 02.18.23 Anderson","ispublic":1,"isfriend":0,"isfamily":0},{"id":"52718761929","owner":"65148649@N04","secret":"59d90f8ed7","server":"65535","farm":66,"title":"American Robin Leucistic 02.18.23 Anderson","ispublic":1,"isfriend":0,"isfamily":0},{"id":"52718986913","owner":"65148649@N04","secret":"279fd78204","server":"65535","farm":66,"title":"American Robin 2 02.18.23 Anderson","ispublic":1,"isfriend":0,"isfamily":0},{"id":"52718761919","owner":"65148649@N04","secret":"5a5b153308","server":"65535","farm":66,"title":"American Robin 02.18.23 Anderson","ispublic":1,"isfriend":0,"isfamily":0},{"id":"52716337996","owner":"28764032@N00","secret":"e7865a5aa0","server":"65535","farm":66,"title":"American Robin (Turdus migratorius)","ispublic":1,"isfriend":0,"isfamily":0},{"id":"52716392414","owner":"188352054@N08","secret":"350064aaa1","server":"65535","farm":66,"title":"IMG_7967","ispublic":1,"isfriend":0,"isfamily":0},{"id":"52716392369","owner":"188352054@N08","secret":"f0a52b894c","server":"65535","farm":66,"title":"IMG_7997","ispublic":1,"isfriend":0,"isfamily":0},{"id":"52715996881","owner":"197628215@N07","secret":"57edf07190","server":"65535","farm":66,"title":"American Robin (Turdus migratorius) 02\/07\/2023 #americanrobin #robin #bestbackroad #bestbackroads #natgeoyourshots #natgeo100contest #natgeo #rutlandcountyvt #washingtoncountyny #whitehallny #wildphotography #naturephotography #adventurephotography #wildl","ispublic":1,"isfriend":0,"isfamily":0},{"id":"52714427443","owner":"33610210@N05","secret":"ac57bf82df","server":"65535","farm":66,"title":"American Robin, Turdus migratorius","ispublic":1,"isfriend":0,"isfamily":0},{"id":"52713685205","owner":"197628215@N07","secret":"1370657364","server":"65535","farm":66,"title":"American Robin (Turdus migratorius) 02\/06\/2023 #americanrobin #robin #bestbackroad #bestbackroads #natgeoyourshots #natgeo100contest #natgeo #rutlandcountyvt #washingtoncountyny #whitehallny #wildphotography #naturephotography #adventurephotography #wildl","ispublic":1,"isfriend":0,"isfamily":0},{"id":"52713737053","owner":"46367607@N06","secret":"3179672f63","server":"65535","farm":66,"title":"American robin--Turdus migratorius _D6A0103","ispublic":1,"isfriend":0,"isfamily":0},{"id":"52712716392","owner":"53977003@N00","secret":"8401728dfd","server":"65535","farm":66,"title":"American Robin","ispublic":1,"isfriend":0,"isfamily":0},{"id":"52713714608","owner":"53977003@N00","secret":"af996742a9","server":"65535","farm":66,"title":"American Robin","ispublic":1,"isfriend":0,"isfamily":0},{"id":"52712054951","owner":"27931184@N08","secret":"144043d2f0","server":"65535","farm":66,"title":"Soon be summer","ispublic":1,"isfriend":0,"isfamily":0},{"id":"52711191573","owner":"47533293@N04","secret":"799f216b29","server":"65535","farm":66,"title":"American robin, Turdus migratorius","ispublic":1,"isfriend":0,"isfamily":0},{"id":"52708576012","owner":"90355165@N03","secret":"aa057d340f","server":"65535","farm":66,"title":"American robin","ispublic":1,"isfriend":0,"isfamily":0},{"id":"52708814290","owner":"69002026@N02","secret":"a15b542241","server":"65535","farm":66,"title":"American Robin (Turdus migratorius)","ispublic":1,"isfriend":0,"isfamily":0},{"id":"52708753890","owner":"69002026@N02","secret":"f3dbf726bf","server":"65535","farm":66,"title":"American Robin (Turdus migratorius)","ispublic":1,"isfriend":0,"isfamily":0},{"id":"52708824768","owner":"69002026@N02","secret":"0002a407d6","server":"65535","farm":66,"title":"American Robin (Turdus migratorius)","ispublic":1,"isfriend":0,"isfamily":0},{"id":"52706673292","owner":"197628215@N07","secret":"497f1d03be","server":"65535","farm":66,"title":"American Robin (Turdus migratorius) 02\/07\/2023 #americanrobin #robin #bestbackroad #bestbackroads #natgeoyourshots #natgeo100contest #natgeo #rutlandcountyvt #washingtoncountyny #whitehallny #wildphotography #naturephotography #adventurephotography #wildl","ispublic":1,"isfriend":0,"isfamily":0},{"id":"52706610244","owner":"100108154@N02","secret":"35f4289514","server":"65535","farm":66,"title":"Well, There Goes The Neighborhood","ispublic":1,"isfriend":0,"isfamily":0},{"id":"52705618611","owner":"33610210@N05","secret":"7e899965bc","server":"65535","farm":66,"title":"American Robin, Turdus migratorius","ispublic":1,"isfriend":0,"isfamily":0},{"id":"52705092977","owner":"33610210@N05","secret":"f74fab2b2a","server":"65535","farm":66,"title":"American Robin, Turdus migratorius","ispublic":1,"isfriend":0,"isfamily":0},{"id":"52705242115","owner":"60361833@N03","secret":"22acb57068","server":"65535","farm":66,"title":"American Robin_2","ispublic":1,"isfriend":0,"isfamily":0},{"id":"52702948952","owner":"26631347@N05","secret":"aa5de6968c","server":"65535","farm":66,"title":"P1000121-G9MZ75300SC","ispublic":1,"isfriend":0,"isfamily":0},{"id":"52703696694","owner":"197628215@N07","secret":"caf84ac4a2","server":"65535","farm":66,"title":"American Robin (Turdus migratorius) 02\/09\/2023 #americanrobin #robin #bestbackroad #bestbackroads #natgeoyourshots #natgeo100contest #natgeo #rutlandcountyvt #washingtoncountyny #whitehallny #wildphotography #naturephotography #adventurephotography #wildl","ispublic":1,"isfriend":0,"isfamily":0},{"id":"52701754016","owner":"21558080@N07","secret":"9660f0037a","server":"65535","farm":66,"title":"American Robin (Turdus migratorius)","ispublic":1,"isfriend":0,"isfamily":0},{"id":"52698192312","owner":"197039631@N05","secret":"509e11610f","server":"65535","farm":66,"title":"American Robin Preening by Peppertree","ispublic":1,"isfriend":0,"isfamily":0},{"id":"52698498943","owner":"197628215@N07","secret":"e32d47ffce","server":"65535","farm":66,"title":"American Robin (Turdus migratorius) 02\/09\/2023 #americanrobin #robin #bestbackroad #bestbackroads #natgeoyourshots #natgeo100contest #natgeo #rutlandcountyvt #washingtoncountyny #whitehallny #wildphotography #naturephotography #adventurephotography #wildl","ispublic":1,"isfriend":0,"isfamily":0},{"id":"52697846125","owner":"60030427@N07","secret":"b56f869923","server":"65535","farm":66,"title":"Turdus merula","ispublic":1,"isfriend":0,"isfamily":0},{"id":"52697685089","owner":"60030427@N07","secret":"04b0f9b919","server":"65535","farm":66,"title":"Turdus merula","ispublic":1,"isfriend":0,"isfamily":0},{"id":"52697683494","owner":"60030427@N07","secret":"9394741f20","server":"65535","farm":66,"title":"Turdus merula","ispublic":1,"isfriend":0,"isfamily":0},{"id":"52697425821","owner":"60030427@N07","secret":"7031161fbc","server":"65535","farm":66,"title":"Turdus merula","ispublic":1,"isfriend":0,"isfamily":0},{"id":"52697681959","owner":"60030427@N07","secret":"2d5f79e21d","server":"65535","farm":66,"title":"Turdus merula","ispublic":1,"isfriend":0,"isfamily":0},{"id":"52697681609","owner":"60030427@N07","secret":"07e9bfcdd2","server":"65535","farm":66,"title":"Turdus merula","ispublic":1,"isfriend":0,"isfamily":0},{"id":"52697681329","owner":"60030427@N07","secret":"946aa4c31c","server":"65535","farm":66,"title":"Turdus merula","ispublic":1,"isfriend":0,"isfamily":0},{"id":"52697681129","owner":"60030427@N07","secret":"791e05d710","server":"65535","farm":66,"title":"Turdus merula","ispublic":1,"isfriend":0,"isfamily":0},{"id":"52696460952","owner":"197628215@N07","secret":"83f9ce71cc","server":"65535","farm":66,"title":"American Robin (Turdus migratorius) 02\/09\/2023 #americanrobin #robin #bestbackroad #bestbackroads #natgeoyourshots #natgeo100contest #natgeo #rutlandcountyvt #washingtoncountyny #whitehallny #wildphotography #naturephotography #adventurephotography #wildl","ispublic":1,"isfriend":0,"isfamily":0},{"id":"52695707886","owner":"7489025@N06","secret":"b0e00ec604","server":"65535","farm":66,"title":"Pit-roig. Captura: Camprodon, Vall de Camprodon, Ripoll\u00e8s, Catalunya.","ispublic":1,"isfriend":0,"isfamily":0},{"id":"52693685534","owner":"57126723@N07","secret":"8dac05a9bc","server":"65535","farm":66,"title":"Turdus migratorius\u2014American Robin\u2014Dutch Gap-8863-Edit","ispublic":1,"isfriend":0,"isfamily":0},{"id":"52691421831","owner":"187245476@N05","secret":"7da0e969b7","server":"65535","farm":66,"title":"AMERICAN ROBIN (Turdus migratorius)","ispublic":1,"isfriend":0,"isfamily":0},{"id":"52691173216","owner":"42415395@N07","secret":"3c8d4be52e","server":"65535","farm":66,"title":"American Robin (Turdus migratorius); Santa Fe National Forest, NM, Thompson Ridge [Lou Feltz]","ispublic":1,"isfriend":0,"isfamily":0},{"id":"52690426488","owner":"33610210@N05","secret":"08264c5a24","server":"65535","farm":66,"title":"American Robin, Turdus migratorius","ispublic":1,"isfriend":0,"isfamily":0},{"id":"52689157756","owner":"81058247@N08","secret":"106444ddb7","server":"65535","farm":66,"title":"American Robin (Turdus migratorius)","ispublic":1,"isfriend":0,"isfamily":0},{"id":"52689157761","owner":"81058247@N08","secret":"c9a08c25a3","server":"65535","farm":66,"title":"American Robin (Turdus migratorius)","ispublic":1,"isfriend":0,"isfamily":0},{"id":"52689155551","owner":"81058247@N08","secret":"910e811639","server":"65535","farm":66,"title":"American Robin (Turdus migratorius)","ispublic":1,"isfriend":0,"isfamily":0},{"id":"52689417739","owner":"81058247@N08","secret":"53712bebff","server":"65535","farm":66,"title":"American Robin (Turdus migratorius)","ispublic":1,"isfriend":0,"isfamily":0},{"id":"52689417654","owner":"81058247@N08","secret":"4cae920ac4","server":"65535","farm":66,"title":"American Robin (Turdus migratorius)","ispublic":1,"isfriend":0,"isfamily":0},{"id":"52689415464","owner":"81058247@N08","secret":"2168987871","server":"65535","farm":66,"title":"American Robin (Turdus migratorius)","ispublic":1,"isfriend":0,"isfamily":0},{"id":"52686293512","owner":"151109375@N08","secret":"b7acaf96e5","server":"65535","farm":66,"title":"An American Robin, pauses in its snack of berries","ispublic":1,"isfriend":0,"isfamily":0},{"id":"52686200749","owner":"63093099@N02","secret":"4e60a446b9","server":"65535","farm":66,"title":"American Robin; 20230211; USA-WA-Skagit-Padilla Bay","ispublic":1,"isfriend":0,"isfamily":0},{"id":"52685917481","owner":"63093099@N02","secret":"36d1b2f49d","server":"65535","farm":66,"title":"American Robin; 20230211; USA-WA-Skagit-Padilla Bay","ispublic":1,"isfriend":0,"isfamily":0},{"id":"52685917466","owner":"63093099@N02","secret":"94f0e150dd","server":"65535","farm":66,"title":"American Robin; 20230211; USA-WA-Skagit-Padilla Bay","ispublic":1,"isfriend":0,"isfamily":0},{"id":"52686345060","owner":"63093099@N02","secret":"309d0b47d4","server":"65535","farm":66,"title":"American Robin; 20230211; USA-WA-Skagit-Padilla Bay","ispublic":1,"isfriend":0,"isfamily":0},{"id":"52685312056","owner":"9638954@N07","secret":"faf7216501","server":"65535","farm":66,"title":"American Robin","ispublic":1,"isfriend":0,"isfamily":0},{"id":"52685810718","owner":"9638954@N07","secret":"810b91ce05","server":"65535","farm":66,"title":"American Robin eating toyon berries","ispublic":1,"isfriend":0,"isfamily":0},{"id":"52683469963","owner":"44904157@N04","secret":"cff9fce693","server":"65535","farm":66,"title":"American Robin","ispublic":1,"isfriend":0,"isfamily":0},{"id":"52682882353","owner":"9638954@N07","secret":"15228d4b31","server":"65535","farm":66,"title":"American Robins","ispublic":1,"isfriend":0,"isfamily":0},{"id":"52682882318","owner":"9638954@N07","secret":"4c8ab706a2","server":"65535","farm":66,"title":"American Robins","ispublic":1,"isfriend":0,"isfamily":0},{"id":"52682812470","owner":"9638954@N07","secret":"3f51a33351","server":"65535","farm":66,"title":"American Robin eating toyon berry","ispublic":1,"isfriend":0,"isfamily":0},{"id":"52682882233","owner":"9638954@N07","secret":"c301164869","server":"65535","farm":66,"title":"American Robin","ispublic":1,"isfriend":0,"isfamily":0},{"id":"52679610105","owner":"62907378@N07","secret":"772e0bbe03","server":"65535","farm":66,"title":"American Robin (Turdus migratorius)","ispublic":1,"isfriend":0,"isfamily":0},{"id":"52679172586","owner":"62907378@N07","secret":"55c94afc9f","server":"65535","farm":66,"title":"American Robin (Turdus migratorius)","ispublic":1,"isfriend":0,"isfamily":0},{"id":"52679275385","owner":"27931184@N08","secret":"ff3ccb6cc6","server":"65535","farm":66,"title":"Is this all for me","ispublic":1,"isfriend":0,"isfamily":0},{"id":"52678031109","owner":"33610210@N05","secret":"800e825076","server":"65535","farm":66,"title":"American Robin, Turdus migratorius","ispublic":1,"isfriend":0,"isfamily":0},{"id":"52675348142","owner":"147461293@N05","secret":"9ed857c2f0","server":"65535","farm":66,"title":"It's About the Feathers:  Almost Amorphous Robin, Core Temp. 104F (40C), Ambient Temp. 5F (-15C)","ispublic":1,"isfriend":0,"isfamily":0},{"id":"52672565602","owner":"9731845@N02","secret":"247649bf11","server":"65535","farm":66,"title":"American Robin (Turdus migratorius)","ispublic":1,"isfriend":0,"isfamily":0},{"id":"52673390875","owner":"42415395@N07","secret":"5f7d2491a2","server":"65535","farm":66,"title":"American Robin (Turdus migratorius); Santa Fe  National Forest, NM, Thompson Ridge [Lou Feltz]","ispublic":1,"isfriend":0,"isfamily":0},{"id":"52673157059","owner":"147461293@N05","secret":"87d039efe7","server":"65535","farm":66,"title":"American Robin (Turdus migratorius):  Puffed Up on a Cold Day","ispublic":1,"isfriend":0,"isfamily":0},{"id":"52672201939","owner":"65148649@N04","secret":"b9719d8604","server":"65535","farm":66,"title":"American Robin 01.28.23 Baryames","ispublic":1,"isfriend":0,"isfamily":0},{"id":"52671906921","owner":"65148649@N04","secret":"9ea2e1ced7","server":"65535","farm":66,"title":"American Robin 2 01.28.23 Baryames","ispublic":1,"isfriend":0,"isfamily":0},{"id":"52671406102","owner":"65148649@N04","secret":"08d9c8179a","server":"65535","farm":66,"title":"American Robin 01.28.23 Frye","ispublic":1,"isfriend":0,"isfamily":0},{"id":"52672201719","owner":"65148649@N04","secret":"d4dc26df0b","server":"65535","farm":66,"title":"American Robin 01.28.23 Anderson","ispublic":1,"isfriend":0,"isfamily":0},{"id":"52671695461","owner":"151381692@N04","secret":"903c073494","server":"65535","farm":66,"title":"American Robin (Turdus migratorius)","ispublic":1,"isfriend":0,"isfamily":0},{"id":"52672130695","owner":"151381692@N04","secret":"d9209a9dfd","server":"65535","farm":66,"title":"American Robin (Turdus migratorius)","ispublic":1,"isfriend":0,"isfamily":0},{"id":"52671387275","owner":"185659367@N04","secret":"0ff5388c88","server":"65535","farm":66,"title":"American Robin","ispublic":1,"isfriend":0,"isfamily":0},{"id":"52667580006","owner":"33610210@N05","secret":"1ac9cf4ac2","server":"65535","farm":66,"title":"American Robin, Turdus migratorius","ispublic":1,"isfriend":0,"isfamily":0},{"id":"52668083713","owner":"33610210@N05","secret":"0197ea51fd","server":"65535","farm":66,"title":"American Robin, Turdus migratorius","ispublic":1,"isfriend":0,"isfamily":0},{"id":"52666532181","owner":"34238008@N02","secret":"cafe212f77","server":"65535","farm":66,"title":"American Robin (Turdus migratorius)","ispublic":1,"isfriend":0,"isfamily":0},{"id":"52665799291","owner":"147461293@N05","secret":"baeeb18636","server":"65535","farm":66,"title":"Wintering Male American Robin (Turdus migratorius) at the Birdbath","ispublic":1,"isfriend":0,"isfamily":0},{"id":"52665814129","owner":"143326780@N02","secret":"291696356f","server":"65535","farm":66,"title":"DSCN2850","ispublic":1,"isfriend":0,"isfamily":0},{"id":"52665956545","owner":"143326780@N02","secret":"3f09764a92","server":"65535","farm":66,"title":"DSCN2924","ispublic":1,"isfriend":0,"isfamily":0},{"id":"52664460198","owner":"18353215@N00","secret":"903ded5a40","server":"65535","farm":66,"title":"American Robin","ispublic":1,"isfriend":0,"isfamily":0},{"id":"52663669436","owner":"189723744@N02","secret":"9b3b89ab99","server":"65535","farm":66,"title":"SCENIC","ispublic":1,"isfriend":0,"isfamily":0},{"id":"52663164002","owner":"189723744@N02","secret":"25b36ae37b","server":"65535","farm":66,"title":"AMERICAN ROBIN","ispublic":1,"isfriend":0,"isfamily":0},{"id":"52663163947","owner":"189723744@N02","secret":"da5252bf61","server":"65535","farm":66,"title":"MALLARDS IN FLIGHT","ispublic":1,"isfriend":0,"isfamily":0}]},"stat":"ok"}