{"photos":{"page":1,"pages":11,"perpage":100,"total":1011,"photo":[{"id":"52627148789","owner":"76617062@N08","secret":"d189aa9536","server":"65535","farm":66,"title":"1.03813 B\u00e9casse d'Am\u00e9rique \/ Scolopax minor \/ American Woodcock \/ Chocha Americana","ispublic":1,"isfriend":0,"isfamily":0},{"id":"52618602270","owner":"71418112@N00","secret":"6dc6dc2c93","server":"65535","farm":66,"title":"Snuggled in the snow.","ispublic":1,"isfriend":0,"isfamily":0},{"id":"52595219930","owner":"72262860@N00","secret":"5e6f444170","server":"65535","farm":66,"title":"American Woodcock Chick","ispublic":1,"isfriend":0,"isfamily":0},{"id":"52595217895","owner":"72262860@N00","secret":"67ba0c4778","server":"65535","farm":66,"title":"American Woodcock","ispublic":1,"isfriend":0,"isfamily":0},{"id":"52595217910","owner":"72262860@N00","secret":"7e8a01b1b8","server":"65535","farm":66,"title":"American Woodcock eggs","ispublic":1,"isfriend":0,"isfamily":0},{"id":"52580859593","owner":"153973412@N04","secret":"97c1b96477","server":"65535","farm":66,"title":"American Woodcock-Scolopax minor, Cone Marsh, IA","ispublic":1,"isfriend":0,"isfamily":0},{"id":"52467328461","owner":"71418112@N00","secret":"5703ecb5e7","server":"65535","farm":66,"title":"American woodcock","ispublic":1,"isfriend":0,"isfamily":0},{"id":"52404051156","owner":"76288515@N07","secret":"641a3abc6c","server":"65535","farm":66,"title":"American Woodcock Scolopax minor","ispublic":1,"isfriend":0,"isfamily":0},{"id":"52403523502","owner":"76288515@N07","secret":"fe6663e2c8","server":"65535","farm":66,"title":"American Woodcock Scolopax minor","ispublic":1,"isfriend":0,"isfamily":0},{"id":"52404465770","owner":"76288515@N07","secret":"24852d0bf3","server":"65535","farm":66,"title":"American Woodcock Scolopax minor","ispublic":1,"isfriend":0,"isfamily":0},{"id":"52403523357","owner":"76288515@N07","secret":"1c733c94b9","server":"65535","farm":66,"title":"American Woodcock Scolopax minor","ispublic":1,"isfriend":0,"isfamily":0},{"id":"52404317819","owner":"76288515@N07","secret":"1848f4943d","server":"65535","farm":66,"title":"American Woodcock Scolopax minor","ispublic":1,"isfriend":0,"isfamily":0},{"id":"52404031106","owner":"76288515@N07","secret":"38438b33cd","server":"65535","farm":66,"title":"American Woodcock Scolopax minor","ispublic":1,"isfriend":0,"isfamily":0},{"id":"52404031076","owner":"76288515@N07","secret":"9c529d7c84","server":"65535","farm":66,"title":"American Woodcock Scolopax minor","ispublic":1,"isfriend":0,"isfamily":0},{"id":"52404465475","owner":"76288515@N07","secret":"1f5e30f70d","server":"65535","farm":66,"title":"American Woodcock Scolopax minor","ispublic":1,"isfriend":0,"isfamily":0},{"id":"52404529333","owner":"76288515@N07","secret":"f23c959055","server":"65535","farm":66,"title":"American Woodcock Scolopax minor","ispublic":1,"isfriend":0,"isfamily":0},{"id":"52404317674","owner":"76288515@N07","secret":"dc5fd78a84","server":"65535","farm":66,"title":"American Woodcock Scolopax minor","ispublic":1,"isfriend":0,"isfamily":0},{"id":"52262083311","owner":"74056977@N07","secret":"d5ce9a8f05","server":"65535","farm":66,"title":"American Woodcock (Scolopax minor)","ispublic":1,"isfriend":0,"isfamily":0},{"id":"52262566795","owner":"74056977@N07","secret":"e01ed33970","server":"65535","farm":66,"title":"American Woodcock (Scolopax minor)","ispublic":1,"isfriend":0,"isfamily":0},{"id":"52248204607","owner":"76617062@N08","secret":"e5d68d2dd6","server":"65535","farm":66,"title":"1.03813 B\u00e9casse d'Am\u00e9rique \/ Scolopax minor \/ American Woodcock \/ Chocha Americana","ispublic":1,"isfriend":0,"isfamily":0},{"id":"52194131584","owner":"184155060@N04","secret":"40d2e806f4","server":"65535","farm":66,"title":"05920 B\u00e9casse d'Am\u00e9rique \/ Scolopax minor \/ American Woodcock","ispublic":1,"isfriend":0,"isfamily":0},{"id":"52193888783","owner":"184155060@N04","secret":"f754580f8e","server":"65535","farm":66,"title":"05920 B\u00e9casse d'Am\u00e9rique \/ Scolopax minor \/ American Woodcock","ispublic":1,"isfriend":0,"isfamily":0},{"id":"52152852531","owner":"39177293@N03","secret":"e624918484","server":"65535","farm":66,"title":"American Woodcock","ispublic":1,"isfriend":0,"isfamily":0},{"id":"52148617836","owner":"195673342@N07","secret":"87cc0c5c69","server":"65535","farm":66,"title":"Scolopax minor eggs (1)","ispublic":1,"isfriend":0,"isfamily":0},{"id":"52132703740","owner":"59770980@N02","secret":"1d8d0ef6a0","server":"65535","farm":66,"title":"Kjarrsn\u00edpa-American Woodcock-Scolopax minor","ispublic":1,"isfriend":0,"isfamily":0},{"id":"52109812623","owner":"76617062@N08","secret":"a8930a1ded","server":"65535","farm":66,"title":"1.03813 B\u00e9casse d'Am\u00e9rique \/ Scolopax minor \/ American Woodcock \/ Chocha Americana","ispublic":1,"isfriend":0,"isfamily":0},{"id":"52091430572","owner":"101106007@N04","secret":"f174448008","server":"65535","farm":66,"title":"015A6900 American Woodcock","ispublic":1,"isfriend":0,"isfamily":0},{"id":"52084346473","owner":"79666906@N05","secret":"57621899dc","server":"65535","farm":66,"title":"American Woodcock","ispublic":1,"isfriend":0,"isfamily":0},{"id":"52071452925","owner":"150919437@N06","secret":"51a05a703e","server":"65535","farm":66,"title":"Scolopax minor (American Woodcock) nest at the edge of a wetland, Ashford, CT","ispublic":1,"isfriend":0,"isfamily":0},{"id":"52069968875","owner":"191410957@N03","secret":"caeea7bae8","server":"65535","farm":66,"title":"Timberdoodle!","ispublic":1,"isfriend":0,"isfamily":0},{"id":"52067266816","owner":"39445433@N02","secret":"f8473fa1f6","server":"65535","farm":66,"title":"American Woodcock","ispublic":1,"isfriend":0,"isfamily":0},{"id":"52067279248","owner":"39445433@N02","secret":"c6958394e0","server":"65535","farm":66,"title":"American Woodcock","ispublic":1,"isfriend":0,"isfamily":0},{"id":"52067754125","owner":"39445433@N02","secret":"2a5d808647","server":"65535","farm":66,"title":"American Woodcock","ispublic":1,"isfriend":0,"isfamily":0},{"id":"52067266081","owner":"39445433@N02","secret":"d86e603c78","server":"65535","farm":66,"title":"American Woodcock","ispublic":1,"isfriend":0,"isfamily":0},{"id":"52037780187","owner":"40003624@N06","secret":"f97cb35875","server":"65535","farm":66,"title":"American Woodcock","ispublic":1,"isfriend":0,"isfamily":0},{"id":"52028638262","owner":"168495655@N07","secret":"c891be2b56","server":"65535","farm":66,"title":"B\u00e9casse d'Am\u00e9rique - Scolopax minor - American Woodcock","ispublic":1,"isfriend":0,"isfamily":0},{"id":"52030197310","owner":"168495655@N07","secret":"c1affc5ea9","server":"65535","farm":66,"title":"B\u00e9casse d'Am\u00e9rique - Scolopax minor - American Woodcock","ispublic":1,"isfriend":0,"isfamily":0},{"id":"52027161706","owner":"127461478@N08","secret":"4f2b81be8c","server":"65535","farm":66,"title":"IMG_4298 B\u00e9casse d'Am\u00e9rique, Roberval","ispublic":1,"isfriend":0,"isfamily":0},{"id":"52027677045","owner":"127461478@N08","secret":"7895e715f1","server":"65535","farm":66,"title":"IMG_4277 B\u00e9casse d'Am\u00e9rique, Roberval","ispublic":1,"isfriend":0,"isfamily":0},{"id":"52027201333","owner":"127461478@N08","secret":"4a6b2af37c","server":"65535","farm":66,"title":"IMG_4275 B\u00e9casse d'Am\u00e9rique, Roberval","ispublic":1,"isfriend":0,"isfamily":0},{"id":"52026118337","owner":"127461478@N08","secret":"c78eed01fa","server":"65535","farm":66,"title":"IMG_3958 B\u00e9casse d'Am\u00e9rique, Roberval","ispublic":1,"isfriend":0,"isfamily":0},{"id":"52027200273","owner":"127461478@N08","secret":"eeaa427f8b","server":"65535","farm":66,"title":"IMG_3932 B\u00e9casse d'Am\u00e9rique, Roberval","ispublic":1,"isfriend":0,"isfamily":0},{"id":"52027405509","owner":"127461478@N08","secret":"0b2c2e2701","server":"65535","farm":66,"title":"IMG_3902 B\u00e9casse d'Am\u00e9rique, Roberval","ispublic":1,"isfriend":0,"isfamily":0},{"id":"52027158306","owner":"127461478@N08","secret":"75dc54ef20","server":"65535","farm":66,"title":"IMG_3897 B\u00e9casse d'Am\u00e9rique, Roberval","ispublic":1,"isfriend":0,"isfamily":0},{"id":"52027670255","owner":"127461478@N08","secret":"d5414c333a","server":"65535","farm":66,"title":"IMG_3799 B\u00e9casse d'Am\u00e9rique, Roberval","ispublic":1,"isfriend":0,"isfamily":0},{"id":"52027152316","owner":"127461478@N08","secret":"46a4354b29","server":"65535","farm":66,"title":"IMG_3746 B\u00e9casse d'Am\u00e9rique, Roberval","ispublic":1,"isfriend":0,"isfamily":0},{"id":"52027398004","owner":"127461478@N08","secret":"7a8e98dc5b","server":"65535","farm":66,"title":"IMG_3720 B\u00e9casse d'Am\u00e9rique, Roberval","ispublic":1,"isfriend":0,"isfamily":0},{"id":"52015439687","owner":"71418112@N00","secret":"0cd8c3235b","server":"65535","farm":66,"title":"American woodcock chick","ispublic":1,"isfriend":0,"isfamily":0},{"id":"51999807132","owner":"191038887@N04","secret":"f362f2389b","server":"65535","farm":66,"title":"B\u00e9casse d'Am\u00e9rique - American woodcock - Scolopax minor","ispublic":1,"isfriend":0,"isfamily":0},{"id":"51999806907","owner":"191038887@N04","secret":"46eaebb385","server":"65535","farm":66,"title":"B\u00e9casse d'Am\u00e9rique - American woodcock - Scolopax minor","ispublic":1,"isfriend":0,"isfamily":0},{"id":"52001077894","owner":"191038887@N04","secret":"9ab04f8c3c","server":"65535","farm":66,"title":"B\u00e9casse d'Am\u00e9rique - American woodcock - Scolopax minor","ispublic":1,"isfriend":0,"isfamily":0},{"id":"51998737234","owner":"39445433@N02","secret":"c0a94f09fe","server":"65535","farm":66,"title":"American Woodcock","ispublic":1,"isfriend":0,"isfamily":0},{"id":"51997462517","owner":"39445433@N02","secret":"8d96ff5936","server":"65535","farm":66,"title":"American Woodcock","ispublic":1,"isfriend":0,"isfamily":0},{"id":"51998471046","owner":"39445433@N02","secret":"4378eb1fa0","server":"65535","farm":66,"title":"American Woodcock","ispublic":1,"isfriend":0,"isfamily":0},{"id":"51993802167","owner":"191038887@N04","secret":"d469c3e05f","server":"65535","farm":66,"title":"B\u00e9casse d'Am\u00e9rique - American woodcock - Scolopax minor","ispublic":1,"isfriend":0,"isfamily":0},{"id":"51993801947","owner":"191038887@N04","secret":"5242f9f812","server":"65535","farm":66,"title":"B\u00e9casse d'Am\u00e9rique - American woodcock - Scolopax minor","ispublic":1,"isfriend":0,"isfamily":0},{"id":"51994806436","owner":"191038887@N04","secret":"7f1e8545e6","server":"65535","farm":66,"title":"B\u00e9casse d'Am\u00e9rique - American woodcock - Scolopax minor","ispublic":1,"isfriend":0,"isfamily":0},{"id":"51995077549","owner":"191038887@N04","secret":"f49a701da6","server":"65535","farm":66,"title":"B\u00e9casse d'Am\u00e9rique - American woodcock - Scolopax minor","ispublic":1,"isfriend":0,"isfamily":0},{"id":"51994772916","owner":"76617062@N08","secret":"eaa16634cb","server":"65535","farm":66,"title":"1.03813 B\u00e9casse d'Am\u00e9rique \/ Scolopax minor \/ American Woodcock \/ Chocha Americana","ispublic":1,"isfriend":0,"isfamily":0},{"id":"51994772901","owner":"76617062@N08","secret":"52d2f97495","server":"65535","farm":66,"title":"1.03813 B\u00e9casse d'Am\u00e9rique \/ Scolopax minor \/ American Woodcock \/ Chocha Americana","ispublic":1,"isfriend":0,"isfamily":0},{"id":"51988545328","owner":"184155060@N04","secret":"73c0805eef","server":"65535","farm":66,"title":"05920 B\u00e9casse d'Am\u00e9rique \/ Scolopax minor \/ American Woodcock","ispublic":1,"isfriend":0,"isfamily":0},{"id":"51988472281","owner":"76617062@N08","secret":"4ed04c7e9a","server":"65535","farm":66,"title":"1.03813 B\u00e9casse d'Am\u00e9rique \/ Scolopax minor \/ American Woodcock \/ Chocha Americana","ispublic":1,"isfriend":0,"isfamily":0},{"id":"51988472256","owner":"76617062@N08","secret":"4c74e279e8","server":"65535","farm":66,"title":"1.03813 B\u00e9casse d'Am\u00e9rique \/ Scolopax minor \/ American Woodcock \/ Chocha Americana","ispublic":1,"isfriend":0,"isfamily":0},{"id":"51983294282","owner":"184155060@N04","secret":"15385be4a0","server":"65535","farm":66,"title":"05920 B\u00e9casse d'Am\u00e9rique \/ Scolopax minor \/ American Woodcock","ispublic":1,"isfriend":0,"isfamily":0},{"id":"51984309076","owner":"184155060@N04","secret":"9bdc2bcb01","server":"65535","farm":66,"title":"05920 B\u00e9casse d'Am\u00e9rique \/ Scolopax minor \/ American Woodcock","ispublic":1,"isfriend":0,"isfamily":0},{"id":"51984587059","owner":"184155060@N04","secret":"22625ae91e","server":"65535","farm":66,"title":"05920 B\u00e9casse d'Am\u00e9rique \/ Scolopax minor \/ American Woodcock","ispublic":1,"isfriend":0,"isfamily":0},{"id":"51984404945","owner":"91064752@N03","secret":"14feff754a","server":"65535","farm":66,"title":"American Woodcock","ispublic":1,"isfriend":0,"isfamily":0},{"id":"51970531239","owner":"144309118@N08","secret":"28107452cc","server":"65535","farm":66,"title":"Timberdoodle","ispublic":1,"isfriend":0,"isfamily":0},{"id":"51952396162","owner":"40723658@N05","secret":"1d6a76841d","server":"65535","farm":66,"title":"American Woodcock eggs","ispublic":1,"isfriend":0,"isfamily":0},{"id":"51952394217","owner":"40723658@N05","secret":"18009b3b15","server":"65535","farm":66,"title":"American Woodcock on nest","ispublic":1,"isfriend":0,"isfamily":0},{"id":"51952355027","owner":"53000215@N03","secret":"a4b400a01e","server":"65535","farm":66,"title":"American Woodcock","ispublic":1,"isfriend":0,"isfamily":0},{"id":"51945966747","owner":"190949917@N03","secret":"d7330c8df6","server":"65535","farm":66,"title":"American Woodcock","ispublic":1,"isfriend":0,"isfamily":0},{"id":"51946852778","owner":"140985130@N07","secret":"beaaab02c5","server":"65535","farm":66,"title":"American Woodcock","ispublic":1,"isfriend":0,"isfamily":0},{"id":"51923046769","owner":"130605131@N08","secret":"aeb3e4788e","server":"0","farm":0,"title":"MVI_8284","ispublic":1,"isfriend":0,"isfamily":0},{"id":"51923051574","owner":"130605131@N08","secret":"98a4b788c1","server":"65535","farm":66,"title":"IMG_8273","ispublic":1,"isfriend":0,"isfamily":0},{"id":"51922094616","owner":"17654080@N08","secret":"de363c51c5","server":"65535","farm":66,"title":"American Woodcock (Scolopax minor)","ispublic":1,"isfriend":0,"isfamily":0},{"id":"51912700070","owner":"190949917@N03","secret":"ba4f8d4cc3","server":"65535","farm":66,"title":"American Woodcock","ispublic":1,"isfriend":0,"isfamily":0},{"id":"51831604420","owner":"39138537@N06","secret":"618055a594","server":"65535","farm":66,"title":"American Woodcock (Scolopax minor)","ispublic":1,"isfriend":0,"isfamily":0},{"id":"51802372369","owner":"39138537@N06","secret":"aec9844e05","server":"65535","farm":66,"title":"American Woodcock (Scolopax minor) - peenting","ispublic":1,"isfriend":0,"isfamily":0},{"id":"51802737525","owner":"39138537@N06","secret":"04524352d1","server":"65535","farm":66,"title":"American Woodcock (Scolopax minor)","ispublic":1,"isfriend":0,"isfamily":0},{"id":"51800219256","owner":"190400507@N05","secret":"0709af10ae","server":"65535","farm":66,"title":"Nid et oeufs de B\u00e9casse d'Am\u00e9rique (Scolopax minor)","ispublic":1,"isfriend":0,"isfamily":0},{"id":"51800586094","owner":"190400507@N05","secret":"c3b4d6544d","server":"65535","farm":66,"title":"B\u00e9casse d'Am\u00e9rique (Scolopax minor)","ispublic":1,"isfriend":0,"isfamily":0},{"id":"51753660688","owner":"194341957@N06","secret":"10dbf5776b","server":"65535","farm":66,"title":"american woodcock","ispublic":1,"isfriend":0,"isfamily":0},{"id":"51750724189","owner":"194341957@N06","secret":"30dcd652cc","server":"65535","farm":66,"title":"american woodcock","ispublic":1,"isfriend":0,"isfamily":0},{"id":"51720638057","owner":"71649471@N02","secret":"d35d11cc48","server":"65535","farm":66,"title":"A Forest Phantom","ispublic":1,"isfriend":0,"isfamily":0},{"id":"51688175693","owner":"194341957@N06","secret":"e85f191be1","server":"65535","farm":66,"title":"american woodcock","ispublic":1,"isfriend":0,"isfamily":0},{"id":"51672372367","owner":"76617062@N08","secret":"4ebd59e218","server":"65535","farm":66,"title":"1.03813 B\u00e9casse d'Am\u00e9rique \/ Scolopax minor \/ American Woodcock","ispublic":1,"isfriend":0,"isfamily":0},{"id":"51673179301","owner":"76617062@N08","secret":"61704b397d","server":"65535","farm":66,"title":"1.03813 B\u00e9casse d'Am\u00e9rique \/ Scolopax minor \/ American Woodcock","ispublic":1,"isfriend":0,"isfamily":0},{"id":"51672324612","owner":"76617062@N08","secret":"5a485f49b5","server":"65535","farm":66,"title":"1.03813 B\u00e9casse d'Am\u00e9rique \/ Scolopax minor \/ American Woodcock","ispublic":1,"isfriend":0,"isfamily":0},{"id":"52403523387","owner":"76288515@N07","secret":"8ed8070842","server":"65535","farm":66,"title":"American Woodcock Scolopax minor","ispublic":1,"isfriend":0,"isfamily":0},{"id":"52077657617","owner":"71751551@N00","secret":"74c6b7f5cf","server":"65535","farm":66,"title":"American Woodcock","ispublic":1,"isfriend":0,"isfamily":0},{"id":"52071205909","owner":"150919437@N06","secret":"a4b4430ebe","server":"65535","farm":66,"title":"American Woodcock (Scolopax minor) nest at the edge of a wetland, Ashford, CT","ispublic":1,"isfriend":0,"isfamily":0},{"id":"52011894910","owner":"67306066@N03","secret":"56a14b0d78","server":"65535","farm":66,"title":"American Woodcock (Scolopax minor)","ispublic":1,"isfriend":0,"isfamily":0},{"id":"52002058897","owner":"193835300@N08","secret":"003df0f698","server":"65535","farm":66,"title":"B\u00e9casse d'Am\u00e9rique American woodcock (Scolopax minor) 3","ispublic":1,"isfriend":0,"isfamily":0},{"id":"52003135298","owner":"193835300@N08","secret":"b8c6984b84","server":"65535","farm":66,"title":"B\u00e9casse d'Am\u00e9rique American woodcock (Scolopax minor) 1","ispublic":1,"isfriend":0,"isfamily":0},{"id":"52001077694","owner":"191038887@N04","secret":"b8c16680ae","server":"65535","farm":66,"title":"B\u00e9casse d'Am\u00e9rique - American woodcock - Scolopax minor","ispublic":1,"isfriend":0,"isfamily":0},{"id":"51921740332","owner":"130605131@N08","secret":"366b58f679","server":"0","farm":0,"title":"MVI_8283","ispublic":1,"isfriend":0,"isfamily":0},{"id":"51923344765","owner":"130605131@N08","secret":"6967e0acfd","server":"65535","farm":66,"title":"IMG_8279","ispublic":1,"isfriend":0,"isfamily":0},{"id":"51923052024","owner":"130605131@N08","secret":"5c123295d3","server":"65535","farm":66,"title":"IMG_8276","ispublic":1,"isfriend":0,"isfamily":0},{"id":"51922812483","owner":"130605131@N08","secret":"10c2eff777","server":"65535","farm":66,"title":"IMG_8277","ispublic":1,"isfriend":0,"isfamily":0}]},"stat":"ok"}