{"photos":{"page":1,"pages":90,"perpage":100,"total":8942,"photo":[{"id":"52723919461","owner":"57126723@N07","secret":"e7441493e7","server":"65535","farm":66,"title":"American coot\u2014Fulica americana\u2014Greensprings trail-9432-Edit","ispublic":1,"isfriend":0,"isfamily":0},{"id":"52705317889","owner":"49114357@N08","secret":"0489a23423","server":"65535","farm":66,"title":"American Coot","ispublic":1,"isfriend":0,"isfamily":0},{"id":"52716676978","owner":"79791557@N02","secret":"76e2c1825e","server":"65535","farm":66,"title":"American Coot (Fulica americana)","ispublic":1,"isfriend":0,"isfamily":0},{"id":"52715519260","owner":"100108154@N02","secret":"9e47fb50be","server":"65535","farm":66,"title":"Can You Spot The Duck That Is Not A Mallard?","ispublic":1,"isfriend":0,"isfamily":0},{"id":"52711050147","owner":"144980256@N07","secret":"f0bb4bdf86","server":"65535","farm":66,"title":"American Coot (Fulica americana)","ispublic":1,"isfriend":0,"isfamily":0},{"id":"52711049767","owner":"144980256@N07","secret":"534315cb5a","server":"65535","farm":66,"title":"Walking on thin ice\u2026","ispublic":1,"isfriend":0,"isfamily":0},{"id":"52711877655","owner":"144980256@N07","secret":"47fcf36323","server":"65535","farm":66,"title":"American Coot (Fulica americana)","ispublic":1,"isfriend":0,"isfamily":0},{"id":"52711859245","owner":"144980256@N07","secret":"45e97ee616","server":"65535","farm":66,"title":"American Coot (Fulica americana)","ispublic":1,"isfriend":0,"isfamily":0},{"id":"52708901602","owner":"65788177@N02","secret":"6851762e6f","server":"65535","farm":66,"title":"American Coot","ispublic":1,"isfriend":0,"isfamily":0},{"id":"52709267706","owner":"61396634@N07","secret":"9123c058dc","server":"65535","farm":66,"title":"American Coot","ispublic":1,"isfriend":0,"isfamily":0},{"id":"52708778620","owner":"62907378@N07","secret":"1573782f04","server":"65535","farm":66,"title":"American Coot (Fulica americana)","ispublic":1,"isfriend":0,"isfamily":0},{"id":"52707800477","owner":"36142084@N05","secret":"5abc8e480a","server":"65535","farm":66,"title":"R5_008137","ispublic":1,"isfriend":0,"isfamily":0},{"id":"52701854098","owner":"128537732@N06","secret":"b30420d7cd","server":"65535","farm":66,"title":"American Coot (Fulica americana)","ispublic":1,"isfriend":0,"isfamily":0},{"id":"52700539232","owner":"187292684@N06","secret":"977c4142ff","server":"65535","farm":66,"title":"2018-06-4_Willow Tank _ juvenile coot in RACA WillowTank b_Cochise Co_photo by Audrey Owens","ispublic":1,"isfriend":0,"isfamily":0},{"id":"52701477235","owner":"187292684@N06","secret":"ab12617058","server":"65535","farm":66,"title":"2018-06-4_Willow Tank _ juvenile coot in RACA WillowTank_Cochise Co_photo by Audrey Owens","ispublic":1,"isfriend":0,"isfamily":0},{"id":"52700774683","owner":"131037795@N03","secret":"c1d56ab4af","server":"65535","farm":66,"title":"High stepping American Coot (Fulica americana)","ispublic":1,"isfriend":0,"isfamily":0},{"id":"52695163974","owner":"143326780@N02","secret":"37ecae8a97","server":"65535","farm":66,"title":"DSCN4586","ispublic":1,"isfriend":0,"isfamily":0},{"id":"52695388293","owner":"143326780@N02","secret":"21b4d952ff","server":"65535","farm":66,"title":"DSCN4555","ispublic":1,"isfriend":0,"isfamily":0},{"id":"52695310730","owner":"143326780@N02","secret":"5c7660e2dc","server":"65535","farm":66,"title":"DSCN4663","ispublic":1,"isfriend":0,"isfamily":0},{"id":"52689667451","owner":"63093099@N02","secret":"8905745b71","server":"65535","farm":66,"title":"Canvasbacks (male and females) and American Coot; 20230214; USA-WA-King-Seattle-Union Bay Natural Area","ispublic":1,"isfriend":0,"isfamily":0},{"id":"52690157728","owner":"63093099@N02","secret":"f932100370","server":"65535","farm":66,"title":"Canvasbacks (male and females) and American Coots; 20230214; USA-WA-King-Seattle-Union Bay Natural Area","ispublic":1,"isfriend":0,"isfamily":0},{"id":"52687980044","owner":"98675522@N06","secret":"2da6c8a9ca","server":"65535","farm":66,"title":"Step Up","ispublic":1,"isfriend":0,"isfamily":0},{"id":"52681736624","owner":"145287509@N03","secret":"ee78e043b0","server":"65535","farm":66,"title":"Bald Eagle with Coot","ispublic":1,"isfriend":0,"isfamily":0},{"id":"52679899712","owner":"22163926@N05","secret":"06db515c6e","server":"65535","farm":66,"title":"Gimpy Old Coot","ispublic":1,"isfriend":0,"isfamily":0},{"id":"52679950939","owner":"129849840@N08","secret":"050052d398","server":"65535","farm":66,"title":"Dreamland","ispublic":1,"isfriend":0,"isfamily":0},{"id":"52679672048","owner":"62907378@N07","secret":"c58208810a","server":"65535","farm":66,"title":"American Coots (Fulica americana)","ispublic":1,"isfriend":0,"isfamily":0},{"id":"52679232774","owner":"47533293@N04","secret":"de30f7beab","server":"65535","farm":66,"title":"American coot, Fulica americana","ispublic":1,"isfriend":0,"isfamily":0},{"id":"52677786415","owner":"143326780@N02","secret":"314cfff822","server":"65535","farm":66,"title":"DSCN3389","ispublic":1,"isfriend":0,"isfamily":0},{"id":"52676575470","owner":"195041250@N03","secret":"3df0a8d7a8","server":"65535","farm":66,"title":"American Coot","ispublic":1,"isfriend":0,"isfamily":0},{"id":"52675001297","owner":"128537732@N06","secret":"524d1fe385","server":"65535","farm":66,"title":"American Coot (Fulica americana)","ispublic":1,"isfriend":0,"isfamily":0},{"id":"52675462655","owner":"188352054@N08","secret":"840edff132","server":"65535","farm":66,"title":"IMG_6672","ispublic":1,"isfriend":0,"isfamily":0},{"id":"52674523837","owner":"188352054@N08","secret":"3b6132a9c8","server":"65535","farm":66,"title":"IMG_6886","ispublic":1,"isfriend":0,"isfamily":0},{"id":"52670906905","owner":"181920661@N03","secret":"51b679bb99","server":"65535","farm":66,"title":"20210403-A6304374-Edit","ispublic":1,"isfriend":0,"isfamily":0},{"id":"52670354414","owner":"124995824@N08","secret":"cced94c3f6","server":"65535","farm":66,"title":"American Coot - Fulica americana","ispublic":1,"isfriend":0,"isfamily":0},{"id":"52668881568","owner":"39177293@N03","secret":"c95e7fc6b5","server":"65535","farm":66,"title":"American Coot","ispublic":1,"isfriend":0,"isfamily":0},{"id":"52661871253","owner":"39177293@N03","secret":"52618ab4d0","server":"65535","farm":66,"title":"American Coot","ispublic":1,"isfriend":0,"isfamily":0},{"id":"52661205694","owner":"110624976@N05","secret":"a3252923c1","server":"65535","farm":66,"title":"American Coot swimming in a pond","ispublic":1,"isfriend":0,"isfamily":0},{"id":"52659593321","owner":"100108154@N02","secret":"ee43000cf3","server":"65535","farm":66,"title":"A Gull & Its Minions","ispublic":1,"isfriend":0,"isfamily":0},{"id":"52657894358","owner":"124995824@N08","secret":"d30f052e72","server":"65535","farm":66,"title":"American Coot - Fulica americana","ispublic":1,"isfriend":0,"isfamily":0},{"id":"52656856471","owner":"143326780@N02","secret":"f51ca22a2e","server":"65535","farm":66,"title":"DSCN2753","ispublic":1,"isfriend":0,"isfamily":0},{"id":"52657349473","owner":"143326780@N02","secret":"47667c60de","server":"65535","farm":66,"title":"DSCN2754","ispublic":1,"isfriend":0,"isfamily":0},{"id":"52656177770","owner":"120449047@N06","secret":"4c4c8a4452","server":"65535","farm":66,"title":"American Coot","ispublic":1,"isfriend":0,"isfamily":0},{"id":"52645848949","owner":"8013969@N03","secret":"0740569180","server":"65535","farm":66,"title":"Fulica americana DFL btr22","ispublic":1,"isfriend":0,"isfamily":0},{"id":"52645381994","owner":"62043870@N05","secret":"a6e9ffc3e6","server":"65535","farm":66,"title":"American Coot, Fulica americana","ispublic":1,"isfriend":0,"isfamily":0},{"id":"52639961992","owner":"44034115@N08","secret":"412fa53ef2","server":"65535","farm":66,"title":"Meet the American Coot at Bombay Hook","ispublic":1,"isfriend":0,"isfamily":0},{"id":"52640731398","owner":"40006638@N06","secret":"0844e7c88c","server":"65535","farm":66,"title":"American Coot - 094A8623a3c","ispublic":1,"isfriend":0,"isfamily":0},{"id":"52639424766","owner":"44948457@N07","secret":"da52dc9f83","server":"65535","farm":66,"title":"Focha Americana | American Coot (Fulica Americana)","ispublic":1,"isfriend":0,"isfamily":0},{"id":"52639233353","owner":"67164820@N06","secret":"25922b1f2a","server":"65535","farm":66,"title":"coots","ispublic":1,"isfriend":0,"isfamily":0},{"id":"52634233967","owner":"163667952@N05","secret":"673ab889e3","server":"65535","farm":66,"title":"American Coot","ispublic":1,"isfriend":0,"isfamily":0},{"id":"52632196864","owner":"47533293@N04","secret":"0690bd6fd4","server":"65535","farm":66,"title":"American coot, Fulica americana","ispublic":1,"isfriend":0,"isfamily":0},{"id":"52631352766","owner":"65633503@N02","secret":"a69bdbed2b","server":"65535","farm":66,"title":"American Coot (Fulica americana)","ispublic":1,"isfriend":0,"isfamily":0},{"id":"52630646442","owner":"7546739@N08","secret":"5a816d8ed9","server":"65535","farm":66,"title":"American Coot","ispublic":1,"isfriend":0,"isfamily":0},{"id":"52631498250","owner":"188352054@N08","secret":"ae436436c4","server":"65535","farm":66,"title":"IMG_4695","ispublic":1,"isfriend":0,"isfamily":0},{"id":"52629917708","owner":"152433224@N05","secret":"bf986774fb","server":"65535","farm":66,"title":"DSC_3974","ispublic":1,"isfriend":0,"isfamily":0},{"id":"52629874320","owner":"152433224@N05","secret":"820b0c25a3","server":"65535","farm":66,"title":"","ispublic":1,"isfriend":0,"isfamily":0},{"id":"52627634306","owner":"51928691@N04","secret":"ef3f06c79c","server":"65535","farm":66,"title":"Ross's Goose (Anser rossii) and American Coot (Fulica americana) 1 122722","ispublic":1,"isfriend":0,"isfamily":0},{"id":"52626676170","owner":"70295563@N00","secret":"21669e5b2f","server":"65535","farm":66,"title":"Fancy Feet","ispublic":1,"isfriend":0,"isfamily":0},{"id":"52626008788","owner":"23939795@N04","secret":"09f8fc1367","server":"65535","farm":66,"title":"Turkey Vulture on Carrion 4590","ispublic":1,"isfriend":0,"isfamily":0},{"id":"52623459549","owner":"7856934@N03","secret":"b82ff7de70","server":"65535","farm":66,"title":"American Coot","ispublic":1,"isfriend":0,"isfamily":0},{"id":"52622311218","owner":"145466593@N08","secret":"e10d5a8753","server":"65535","farm":66,"title":"Lotsa Coots and 2 Canvasbacks","ispublic":1,"isfriend":0,"isfamily":0},{"id":"52622265685","owner":"145466593@N08","secret":"b40a271e88","server":"65535","farm":66,"title":"American Coot","ispublic":1,"isfriend":0,"isfamily":0},{"id":"52622311153","owner":"145466593@N08","secret":"b49332f1c1","server":"65535","farm":66,"title":"American Coot","ispublic":1,"isfriend":0,"isfamily":0},{"id":"52621982353","owner":"192406285@N03","secret":"7269373611","server":"65535","farm":66,"title":"Gliding Along","ispublic":1,"isfriend":0,"isfamily":0},{"id":"52618726764","owner":"30888088@N02","secret":"1e3b7591fa","server":"65535","farm":66,"title":"A29C8383","ispublic":1,"isfriend":0,"isfamily":0},{"id":"52617768972","owner":"30888088@N02","secret":"99a7684069","server":"65535","farm":66,"title":"A29C0051","ispublic":1,"isfriend":0,"isfamily":0},{"id":"52618193230","owner":"130605131@N08","secret":"e4c86faa18","server":"65535","farm":66,"title":"IMG_2985","ispublic":1,"isfriend":0,"isfamily":0},{"id":"52618193215","owner":"130605131@N08","secret":"d243f25c2f","server":"65535","farm":66,"title":"IMG_2987","ispublic":1,"isfriend":0,"isfamily":0},{"id":"52617758386","owner":"130605131@N08","secret":"86d0dd7662","server":"65535","farm":66,"title":"IMG_2989","ispublic":1,"isfriend":0,"isfamily":0},{"id":"52617758411","owner":"130605131@N08","secret":"42866696ea","server":"65535","farm":66,"title":"IMG_2988","ispublic":1,"isfriend":0,"isfamily":0},{"id":"52618193155","owner":"130605131@N08","secret":"fae3b1040f","server":"65535","farm":66,"title":"IMG_2990","ispublic":1,"isfriend":0,"isfamily":0},{"id":"52617145429","owner":"70295563@N00","secret":"087aa09e40","server":"65535","farm":66,"title":"Couple a Coots","ispublic":1,"isfriend":0,"isfamily":0},{"id":"52614691296","owner":"52229680@N03","secret":"8a62db7051","server":"65535","farm":66,"title":"American Coot","ispublic":1,"isfriend":0,"isfamily":0},{"id":"52614434101","owner":"124995824@N08","secret":"94cd96668a","server":"65535","farm":66,"title":"American Coot - Fulica americana","ispublic":1,"isfriend":0,"isfamily":0},{"id":"52613307636","owner":"24379925@N08","secret":"7e05d70e06","server":"65535","farm":66,"title":"AMERICAN COOT","ispublic":1,"isfriend":0,"isfamily":0},{"id":"52613570783","owner":"39445433@N02","secret":"726a7b1d45","server":"65535","farm":66,"title":"American Coot","ispublic":1,"isfriend":0,"isfamily":0},{"id":"52613083421","owner":"39445433@N02","secret":"4f7e2e515a","server":"65535","farm":66,"title":"American Coot","ispublic":1,"isfriend":0,"isfamily":0},{"id":"52613343939","owner":"39445433@N02","secret":"4c480f5319","server":"65535","farm":66,"title":"Mallards & American Coots","ispublic":1,"isfriend":0,"isfamily":0},{"id":"52612574302","owner":"39445433@N02","secret":"1ee79eceea","server":"65535","farm":66,"title":"Mallards & American Coots","ispublic":1,"isfriend":0,"isfamily":0},{"id":"52613081061","owner":"39445433@N02","secret":"d97a9bbb2c","server":"65535","farm":66,"title":"American Coot","ispublic":1,"isfriend":0,"isfamily":0},{"id":"52609538951","owner":"132165466@N08","secret":"b6fa9961d3","server":"65535","farm":66,"title":"American Coot","ispublic":1,"isfriend":0,"isfamily":0},{"id":"52610032353","owner":"132165466@N08","secret":"635cdd6316","server":"65535","farm":66,"title":"American Coot","ispublic":1,"isfriend":0,"isfamily":0},{"id":"52609538961","owner":"132165466@N08","secret":"6507dcbcd7","server":"65535","farm":66,"title":"American Coot","ispublic":1,"isfriend":0,"isfamily":0},{"id":"52608769535","owner":"70295563@N00","secret":"02ca5ca759","server":"65535","farm":66,"title":"Eye contact","ispublic":1,"isfriend":0,"isfamily":0},{"id":"52608223553","owner":"26520320@N03","secret":"c4e268f224","server":"65535","farm":66,"title":"Bolsa_Chica_2023-01-02_DSC05161","ispublic":1,"isfriend":0,"isfamily":0},{"id":"52608223048","owner":"26520320@N03","secret":"7395ae1bf0","server":"65535","farm":66,"title":"Bolsa_Chica_2023-01-02_DSC05160","ispublic":1,"isfriend":0,"isfamily":0},{"id":"52694898281","owner":"143326780@N02","secret":"88b586eef9","server":"65535","farm":66,"title":"DSCN4662","ispublic":1,"isfriend":0,"isfamily":0},{"id":"52694898096","owner":"143326780@N02","secret":"7939115643","server":"65535","farm":66,"title":"DSCN4687","ispublic":1,"isfriend":0,"isfamily":0},{"id":"52662263735","owner":"33610210@N05","secret":"eb42d89b56","server":"65535","farm":66,"title":"American Coot, Fulica americana","ispublic":1,"isfriend":0,"isfamily":0},{"id":"52615763391","owner":"7331818@N02","secret":"61f74b8c7b","server":"65535","farm":66,"title":"Mallards in the Middle","ispublic":1,"isfriend":0,"isfamily":0},{"id":"52613568643","owner":"39445433@N02","secret":"a7cc131377","server":"65535","farm":66,"title":"Mallard","ispublic":1,"isfriend":0,"isfamily":0},{"id":"52610188795","owner":"21096258@N05","secret":"fbd64bb4d5","server":"65535","farm":66,"title":"American Coot","ispublic":1,"isfriend":0,"isfamily":0},{"id":"52610188765","owner":"21096258@N05","secret":"608e7e2dc9","server":"65535","farm":66,"title":"American Coot","ispublic":1,"isfriend":0,"isfamily":0},{"id":"52609767776","owner":"21096258@N05","secret":"5da7816cf5","server":"65535","farm":66,"title":"American Coot","ispublic":1,"isfriend":0,"isfamily":0},{"id":"52610026779","owner":"21096258@N05","secret":"0454325d23","server":"65535","farm":66,"title":"American Coot","ispublic":1,"isfriend":0,"isfamily":0},{"id":"52609263662","owner":"21096258@N05","secret":"53848525a0","server":"65535","farm":66,"title":"American Coot","ispublic":1,"isfriend":0,"isfamily":0},{"id":"52610026694","owner":"21096258@N05","secret":"6a8774c05d","server":"65535","farm":66,"title":"American Coot","ispublic":1,"isfriend":0,"isfamily":0},{"id":"52609263607","owner":"21096258@N05","secret":"343e940519","server":"65535","farm":66,"title":"American Coot","ispublic":1,"isfriend":0,"isfamily":0},{"id":"52610258988","owner":"21096258@N05","secret":"8072af05d0","server":"65535","farm":66,"title":"American Coot","ispublic":1,"isfriend":0,"isfamily":0},{"id":"52609263557","owner":"21096258@N05","secret":"11c7f60dd9","server":"65535","farm":66,"title":"American Coot","ispublic":1,"isfriend":0,"isfamily":0},{"id":"52609263552","owner":"21096258@N05","secret":"b6c1bb9451","server":"65535","farm":66,"title":"American Coot","ispublic":1,"isfriend":0,"isfamily":0}]},"stat":"ok"}