{"photos":{"page":1,"pages":41,"perpage":100,"total":4028,"photo":[{"id":"52717613010","owner":"131037795@N03","secret":"156f1a11ee","server":"65535","farm":66,"title":"American Bittern (Botaurus lentiginosus)","ispublic":1,"isfriend":0,"isfamily":0},{"id":"52717606730","owner":"131037795@N03","secret":"638477e1be","server":"65535","farm":66,"title":"American Bittern (Botaurus lentiginosus)","ispublic":1,"isfriend":0,"isfamily":0},{"id":"52717606280","owner":"131037795@N03","secret":"cf3f39a46b","server":"65535","farm":66,"title":"A hidden gem, American Bittern (Botaurus lentiginosus)","ispublic":1,"isfriend":0,"isfamily":0},{"id":"52705764517","owner":"131037795@N03","secret":"ff5f7f65b0","server":"65535","farm":66,"title":"The reeds have eyes! American Bittern (Botaurus lentiginosus)","ispublic":1,"isfriend":0,"isfamily":0},{"id":"52703852972","owner":"131037795@N03","secret":"3300674942","server":"65535","farm":66,"title":"The reeds have eyes! American Bittern (Botaurus lentiginosus)","ispublic":1,"isfriend":0,"isfamily":0},{"id":"52704459184","owner":"39652177@N04","secret":"0a0200c193","server":"65535","farm":66,"title":"American bittern-03771-Edit","ispublic":1,"isfriend":0,"isfamily":0},{"id":"52692813824","owner":"38514062@N03","secret":"89abfba9b4","server":"65535","farm":66,"title":"American Bittern (Botaurus lentiginosus)","ispublic":1,"isfriend":0,"isfamily":0},{"id":"52691624486","owner":"33610210@N05","secret":"b28507e085","server":"65535","farm":66,"title":"American Bittern, Botaurus lentiginosus","ispublic":1,"isfriend":0,"isfamily":0},{"id":"52688673494","owner":"165841515@N03","secret":"064cd0f411","server":"65535","farm":66,"title":"Butor d'Am\u00e9rique \/ American bittern \/ (Botaurus lentiginosus)","ispublic":1,"isfriend":0,"isfamily":0},{"id":"52685591641","owner":"23020855@N03","secret":"2df58350cf","server":"65535","farm":66,"title":"American Bittern - Willband Creek Park, BC","ispublic":1,"isfriend":0,"isfamily":0},{"id":"52678043852","owner":"129803374@N05","secret":"84d2260970","server":"65535","farm":66,"title":"American Bittern (Botaurus lentiginosus)","ispublic":1,"isfriend":0,"isfamily":0},{"id":"52674573075","owner":"103722035@N06","secret":"140af6949a","server":"65535","farm":66,"title":"American Bittern (Botaurus lentiginosus), Oso Flaco, CA","ispublic":1,"isfriend":0,"isfamily":0},{"id":"52674133541","owner":"103722035@N06","secret":"89f718d214","server":"65535","farm":66,"title":"American Bittern (Botaurus lentiginosus), Oso Flaco, CA","ispublic":1,"isfriend":0,"isfamily":0},{"id":"52673638337","owner":"103722035@N06","secret":"ebdc56033c","server":"65535","farm":66,"title":"American Bittern (Botaurus lentiginosus), Oso Flaco, CA","ispublic":1,"isfriend":0,"isfamily":0},{"id":"52674612488","owner":"103722035@N06","secret":"cfe1bb57ed","server":"0","farm":0,"title":"American Bittern (Botaurus lentiginosus), Oso Flaco, CA","ispublic":1,"isfriend":0,"isfamily":0},{"id":"52655243185","owner":"22548183@N06","secret":"a882e55850","server":"65535","farm":66,"title":"American Bittern","ispublic":1,"isfriend":0,"isfamily":0},{"id":"52645783943","owner":"41978378@N08","secret":"58b71f0139","server":"65535","farm":66,"title":"American Bittern (Botaurus lentiginosus)","ispublic":1,"isfriend":0,"isfamily":0},{"id":"52644669006","owner":"51875143@N02","secret":"83ac3deb29","server":"65535","farm":66,"title":"Lake Waco Wetlands 3-23-10 048","ispublic":1,"isfriend":0,"isfamily":0},{"id":"52639192705","owner":"67164820@N06","secret":"0697a278f4","server":"65535","farm":66,"title":"American bittern","ispublic":1,"isfriend":0,"isfamily":0},{"id":"52637795886","owner":"47533293@N04","secret":"defc0b50fc","server":"65535","farm":66,"title":"American bittern, Botaurus lentiginosus","ispublic":1,"isfriend":0,"isfamily":0},{"id":"52632659243","owner":"44801995@N02","secret":"58a6dd9ed9","server":"65535","farm":66,"title":"American Bittern Botaurus lentiginosus","ispublic":1,"isfriend":0,"isfamily":0},{"id":"52629548140","owner":"39138537@N06","secret":"f75dae4d15","server":"65535","farm":66,"title":"American Bittern (Botaurus lentiginosus)","ispublic":1,"isfriend":0,"isfamily":0},{"id":"52628591987","owner":"39138537@N06","secret":"240e737c4f","server":"65535","farm":66,"title":"American Bittern (Botaurus lentiginosus)","ispublic":1,"isfriend":0,"isfamily":0},{"id":"52629112866","owner":"39138537@N06","secret":"35be936a4a","server":"65535","farm":66,"title":"American Bittern (Botaurus lentiginosus)","ispublic":1,"isfriend":0,"isfamily":0},{"id":"52618921987","owner":"186795450@N08","secret":"e7ec1cd1e2","server":"65535","farm":66,"title":"American Bittern","ispublic":1,"isfriend":0,"isfamily":0},{"id":"52604991694","owner":"39177293@N03","secret":"68b35c6388","server":"65535","farm":66,"title":"American Bittern","ispublic":1,"isfriend":0,"isfamily":0},{"id":"52580695544","owner":"153973412@N04","secret":"18f138a4fb","server":"65535","farm":66,"title":"American Bittern-Botaurus lentiginosus, Iowa City, IA","ispublic":1,"isfriend":0,"isfamily":0},{"id":"52569203762","owner":"59619528@N04","secret":"2b71f39f23","server":"65535","farm":66,"title":"American Bittern (Botaurus lentiginosus)","ispublic":1,"isfriend":0,"isfamily":0},{"id":"52569933959","owner":"59619528@N04","secret":"520ebb4730","server":"65535","farm":66,"title":"American Bittern (Botaurus lentiginosus)","ispublic":1,"isfriend":0,"isfamily":0},{"id":"52569660641","owner":"59619528@N04","secret":"ef523311f9","server":"65535","farm":66,"title":"American Bittern (Botaurus lentiginosus)","ispublic":1,"isfriend":0,"isfamily":0},{"id":"52555074659","owner":"143326780@N02","secret":"9cd510d85a","server":"65535","farm":66,"title":"DSCN1623","ispublic":1,"isfriend":0,"isfamily":0},{"id":"52555251745","owner":"143326780@N02","secret":"bb16a7d8d1","server":"65535","farm":66,"title":"DSCN1636","ispublic":1,"isfriend":0,"isfamily":0},{"id":"52555073849","owner":"143326780@N02","secret":"4f4311bc13","server":"65535","farm":66,"title":"DSCN1840","ispublic":1,"isfriend":0,"isfamily":0},{"id":"52554321367","owner":"143326780@N02","secret":"6bf577f92c","server":"65535","farm":66,"title":"DSCN1845","ispublic":1,"isfriend":0,"isfamily":0},{"id":"52555250605","owner":"143326780@N02","secret":"f8f11138cf","server":"65535","farm":66,"title":"DSCN1858","ispublic":1,"isfriend":0,"isfamily":0},{"id":"52555250415","owner":"143326780@N02","secret":"f07c357656","server":"65535","farm":66,"title":"DSCN1864","ispublic":1,"isfriend":0,"isfamily":0},{"id":"52555072874","owner":"143326780@N02","secret":"6af32e8eed","server":"65535","farm":66,"title":"DSCN1884","ispublic":1,"isfriend":0,"isfamily":0},{"id":"52552796415","owner":"124995824@N08","secret":"eec2745b4f","server":"65535","farm":66,"title":"American Bittern - Botaurus lentiginosus","ispublic":1,"isfriend":0,"isfamily":0},{"id":"52546846291","owner":"22304442@N00","secret":"1b81067764","server":"65535","farm":66,"title":"butor d'am\u00e9rique (american bittern)","ispublic":1,"isfriend":0,"isfamily":0},{"id":"52546846231","owner":"22304442@N00","secret":"cc1f05e76f","server":"65535","farm":66,"title":"butor d'am\u00e9rique (american bittern)","ispublic":1,"isfriend":0,"isfamily":0},{"id":"52547393188","owner":"22304442@N00","secret":"06c157ae2b","server":"65535","farm":66,"title":"butor d'am\u00e9rique (american bittern)","ispublic":1,"isfriend":0,"isfamily":0},{"id":"52545906952","owner":"124995824@N08","secret":"9d1272d741","server":"65535","farm":66,"title":"American Bittern - Botaurus lentiginosus","ispublic":1,"isfriend":0,"isfamily":0},{"id":"52534859930","owner":"59619528@N04","secret":"cd3fbe530a","server":"65535","farm":66,"title":"American Bittern (Botaurus lentiginosus)","ispublic":1,"isfriend":0,"isfamily":0},{"id":"52525695161","owner":"78145652@N02","secret":"745b499107","server":"65535","farm":66,"title":"American Bittern - Botaurus lentiginosus","ispublic":1,"isfriend":0,"isfamily":0},{"id":"52513478043","owner":"39445433@N02","secret":"6226c344b4","server":"65535","farm":66,"title":"American Bittern","ispublic":1,"isfriend":0,"isfamily":0},{"id":"52513478023","owner":"39445433@N02","secret":"32ee07e7bb","server":"65535","farm":66,"title":"American Bittern","ispublic":1,"isfriend":0,"isfamily":0},{"id":"52512457947","owner":"39445433@N02","secret":"1be0e5b0e6","server":"65535","farm":66,"title":"American Bittern","ispublic":1,"isfriend":0,"isfamily":0},{"id":"52512570559","owner":"144980256@N07","secret":"f36707e471","server":"65535","farm":66,"title":"American Bittern (Botaurus lentiginosus)","ispublic":1,"isfriend":0,"isfamily":0},{"id":"52512300746","owner":"144980256@N07","secret":"0e467871da","server":"65535","farm":66,"title":"American Bittern (Botaurus lentiginosus)","ispublic":1,"isfriend":0,"isfamily":0},{"id":"52512821578","owner":"144980256@N07","secret":"81c6b1d1f9","server":"65535","farm":66,"title":"American Bittern (Botaurus lentiginosus)","ispublic":1,"isfriend":0,"isfamily":0},{"id":"52512538794","owner":"144980256@N07","secret":"ddbf074626","server":"65535","farm":66,"title":"American Bittern (Botaurus lentiginosus)","ispublic":1,"isfriend":0,"isfamily":0},{"id":"52512268561","owner":"144980256@N07","secret":"dc368edfa9","server":"65535","farm":66,"title":"American Bittern (Botaurus lentiginosus)","ispublic":1,"isfriend":0,"isfamily":0},{"id":"52512740125","owner":"144980256@N07","secret":"fd586099f0","server":"65535","farm":66,"title":"American Bittern (Botaurus lentiginosus)","ispublic":1,"isfriend":0,"isfamily":0},{"id":"52511773657","owner":"144980256@N07","secret":"ebbff26d84","server":"65535","farm":66,"title":"American Bittern (Botaurus lentiginosus)","ispublic":1,"isfriend":0,"isfamily":0},{"id":"52507013686","owner":"9638954@N07","secret":"ef1ae88993","server":"65535","farm":66,"title":"American Bittern","ispublic":1,"isfriend":0,"isfamily":0},{"id":"52507287969","owner":"9638954@N07","secret":"3f4d60ff4a","server":"65535","farm":66,"title":"American Bittern","ispublic":1,"isfriend":0,"isfamily":0},{"id":"52506563834","owner":"44904157@N04","secret":"845ff76719","server":"65535","farm":66,"title":"Still Hanging Around","ispublic":1,"isfriend":0,"isfamily":0},{"id":"52496876094","owner":"22304442@N00","secret":"b284788b6c","server":"65535","farm":66,"title":"butor d'am\u00e9rique (american bittern)","ispublic":1,"isfriend":0,"isfamily":0},{"id":"52496110902","owner":"22304442@N00","secret":"56279cb7d1","server":"65535","farm":66,"title":"butor d'am\u00e9rique (american bittern)","ispublic":1,"isfriend":0,"isfamily":0},{"id":"52496875904","owner":"22304442@N00","secret":"6a20aa0ef6","server":"65535","farm":66,"title":"butor d'am\u00e9rique (american bittern)","ispublic":1,"isfriend":0,"isfamily":0},{"id":"52496589941","owner":"22304442@N00","secret":"5bd206558b","server":"65535","farm":66,"title":"butor d'am\u00e9rique (american bittern)","ispublic":1,"isfriend":0,"isfamily":0},{"id":"52496573550","owner":"53024483@N02","secret":"3f3585a279","server":"65535","farm":66,"title":"American bittern (Botaurus lentiginosus)","ispublic":1,"isfriend":0,"isfamily":0},{"id":"52495445943","owner":"44904157@N04","secret":"72a252de4f","server":"65535","farm":66,"title":"American Bittern","ispublic":1,"isfriend":0,"isfamily":0},{"id":"52495445903","owner":"44904157@N04","secret":"9bb47916b5","server":"65535","farm":66,"title":"American Bittern","ispublic":1,"isfriend":0,"isfamily":0},{"id":"52488433184","owner":"14734088@N02","secret":"a05ecf222e","server":"65535","farm":66,"title":"Butor d'Am\u00e9rique 220918Vc","ispublic":1,"isfriend":0,"isfamily":0},{"id":"52481196400","owner":"14734088@N02","secret":"2f963da2c7","server":"65535","farm":66,"title":"Butor d'Am\u00e9rique 220918H2a","ispublic":1,"isfriend":0,"isfamily":0},{"id":"52479420813","owner":"54059915@N07","secret":"b2173991fd","server":"65535","farm":66,"title":"Very Still","ispublic":1,"isfriend":0,"isfamily":0},{"id":"52475218614","owner":"17654080@N08","secret":"fa0df19599","server":"65535","farm":66,"title":"American Bittern (Botaurus Lentiginosus)","ispublic":1,"isfriend":0,"isfamily":0},{"id":"52475483213","owner":"17654080@N08","secret":"423c2e70ce","server":"65535","farm":66,"title":"American Bittern (Botaurus Lentiginosus)","ispublic":1,"isfriend":0,"isfamily":0},{"id":"52474937911","owner":"17654080@N08","secret":"782e7f811c","server":"65535","farm":66,"title":"American Bittern (Botaurus Lentiginosus)","ispublic":1,"isfriend":0,"isfamily":0},{"id":"52461316642","owner":"54059915@N07","secret":"f7705a8554","server":"65535","farm":66,"title":"I am a weed","ispublic":1,"isfriend":0,"isfamily":0},{"id":"52451251255","owner":"54059915@N07","secret":"59091190fa","server":"65535","farm":66,"title":"Evening","ispublic":1,"isfriend":0,"isfamily":0},{"id":"52451326008","owner":"54059915@N07","secret":"24c6b5f030","server":"65535","farm":66,"title":"Camouflage","ispublic":1,"isfriend":0,"isfamily":0},{"id":"52447258792","owner":"14734088@N02","secret":"ec480b3011","server":"65535","farm":66,"title":"Butor d'Am\u00e9rique 220918H3b","ispublic":1,"isfriend":0,"isfamily":0},{"id":"52435220679","owner":"40723658@N05","secret":"f6d80f628e","server":"65535","farm":66,"title":"American Bittern","ispublic":1,"isfriend":0,"isfamily":0},{"id":"52434058942","owner":"39177293@N03","secret":"f88388b7f9","server":"65535","farm":66,"title":"American Bittern","ispublic":1,"isfriend":0,"isfamily":0},{"id":"52429805632","owner":"38514062@N03","secret":"e72c05567d","server":"65535","farm":66,"title":"American Bittern (Botaurus lentiginosus)","ispublic":1,"isfriend":0,"isfamily":0},{"id":"52407793531","owner":"144980256@N07","secret":"7fa88a45fa","server":"65535","farm":66,"title":"American Bittern (Botaurus lentiginosus)","ispublic":1,"isfriend":0,"isfamily":0},{"id":"52408236110","owner":"144980256@N07","secret":"16d62a0cae","server":"65535","farm":66,"title":"American Bittern (Botaurus lentiginosus)","ispublic":1,"isfriend":0,"isfamily":0},{"id":"52400051444","owner":"165841515@N03","secret":"1eaacc2c01","server":"65535","farm":66,"title":"Butor d'Am\u00e9rique \/ American bittern \/ (Botaurus lentiginosus)","ispublic":1,"isfriend":0,"isfamily":0},{"id":"52398456368","owner":"150317576@N08","secret":"7bcaa3dffa","server":"65535","farm":66,"title":"American Bittern (Butor d'Am\u00e9rique)","ispublic":1,"isfriend":0,"isfamily":0},{"id":"52388980823","owner":"51986662@N05","secret":"7813c5f85f","server":"65535","farm":66,"title":"American Bittern on Raysbe WPA Lake Andes Wetland Management District South Dakota","ispublic":1,"isfriend":0,"isfamily":0},{"id":"52388989514","owner":"51986662@N05","secret":"eb74a28ec1","server":"65535","farm":66,"title":"American Bittern on Broken Arrow WPA Lake Andes Wetland Management District South Dakota","ispublic":1,"isfriend":0,"isfamily":0},{"id":"52388187461","owner":"69812270@N00","secret":"c74af6f5eb","server":"65535","farm":66,"title":"The Truth About Herons Part II","ispublic":1,"isfriend":0,"isfamily":0},{"id":"52388196578","owner":"14734088@N02","secret":"33e37b333b","server":"65535","farm":66,"title":"Butor d'Am\u00e9rique 220918H1a","ispublic":1,"isfriend":0,"isfamily":0},{"id":"52371890206","owner":"51986662@N05","secret":"f8d16c06fb","server":"65535","farm":66,"title":"American Bittern Lake Andes Wetland Management District South Dakota","ispublic":1,"isfriend":0,"isfamily":0},{"id":"52363440823","owner":"39652177@N04","secret":"ee8103d80b","server":"65535","farm":66,"title":"American bittern","ispublic":1,"isfriend":0,"isfamily":0},{"id":"52352263421","owner":"14734088@N02","secret":"fc40cd6035","server":"65535","farm":66,"title":"Butor d'Am\u00e9rique 210908H2b","ispublic":1,"isfriend":0,"isfamily":0},{"id":"52343598010","owner":"8584048@N05","secret":"0cb8a19fe2","server":"65535","farm":66,"title":"American Bittern (Botaurus lentiginosus)","ispublic":1,"isfriend":0,"isfamily":0},{"id":"52343414323","owner":"8584048@N05","secret":"771798828c","server":"65535","farm":66,"title":"American Bittern (Botaurus lentiginosus)","ispublic":1,"isfriend":0,"isfamily":0},{"id":"52342214777","owner":"8584048@N05","secret":"9c43a45b42","server":"65535","farm":66,"title":"American Bittern (Botaurus lentiginosus)","ispublic":1,"isfriend":0,"isfamily":0},{"id":"52342214467","owner":"8584048@N05","secret":"916b26a2f9","server":"65535","farm":66,"title":"American Bittern (Botaurus lentiginosus)","ispublic":1,"isfriend":0,"isfamily":0},{"id":"52343166141","owner":"8584048@N05","secret":"06b2f46198","server":"65535","farm":66,"title":"American Bittern (Botaurus lentiginosus)","ispublic":1,"isfriend":0,"isfamily":0},{"id":"52343165681","owner":"8584048@N05","secret":"f97819447f","server":"65535","farm":66,"title":"American Bittern (Botaurus lentiginosus)","ispublic":1,"isfriend":0,"isfamily":0},{"id":"52343596190","owner":"8584048@N05","secret":"0e2f9dbe33","server":"65535","farm":66,"title":"American Bittern (Botaurus lentiginosus)","ispublic":1,"isfriend":0,"isfamily":0},{"id":"52343412153","owner":"8584048@N05","secret":"bf8ee8dbab","server":"65535","farm":66,"title":"American Bittern (Botaurus lentiginosus)","ispublic":1,"isfriend":0,"isfamily":0},{"id":"52342212627","owner":"8584048@N05","secret":"1c780c8bb3","server":"65535","farm":66,"title":"American Bittern (Botaurus lentiginosus)","ispublic":1,"isfriend":0,"isfamily":0},{"id":"52343594810","owner":"8584048@N05","secret":"d9e112d6c7","server":"65535","farm":66,"title":"American Bittern (Botaurus lentiginosus)","ispublic":1,"isfriend":0,"isfamily":0},{"id":"52343594505","owner":"8584048@N05","secret":"0c30777db6","server":"65535","farm":66,"title":"American Bittern (Botaurus lentiginosus)","ispublic":1,"isfriend":0,"isfamily":0},{"id":"52343593810","owner":"8584048@N05","secret":"ce7c4dccf8","server":"65535","farm":66,"title":"American Bittern (Botaurus lentiginosus)","ispublic":1,"isfriend":0,"isfamily":0}]},"stat":"ok"}