{"photos":{"page":1,"pages":783,"perpage":100,"total":78267,"photo":[{"id":"52724134356","owner":"66144549@N07","secret":"1fa160d777","server":"65535","farm":66,"title":"DCCDAT5850-1a","ispublic":1,"isfriend":0,"isfamily":0},{"id":"52723741436","owner":"11014423@N07","secret":"1cc8e74127","server":"65535","farm":66,"title":"Anhinga","ispublic":1,"isfriend":0,"isfamily":0},{"id":"52723632375","owner":"150738296@N07","secret":"5edf39fa60","server":"65535","farm":66,"title":"ANITA ANHINGA","ispublic":1,"isfriend":0,"isfamily":0},{"id":"52723701748","owner":"150738296@N07","secret":"c2081812ab","server":"65535","farm":66,"title":"ANDY ANHINGA DRYING HIS WINGS","ispublic":1,"isfriend":0,"isfamily":0},{"id":"52723615628","owner":"98765340@N06","secret":"c941e71806","server":"65535","farm":66,"title":"PB292459.jpg","ispublic":1,"isfriend":0,"isfamily":0},{"id":"52722991665","owner":"23946780@N08","secret":"0362192cf4","server":"65535","farm":66,"title":"Spearfishing - Australasian Darter (Anhinga novaehollandiae)","ispublic":1,"isfriend":0,"isfamily":0},{"id":"52721936832","owner":"106089875@N05","secret":"2ecc6df3cf","server":"65535","farm":66,"title":"Anhinga @ Everglades National Park","ispublic":1,"isfriend":0,"isfamily":0},{"id":"52721272295","owner":"197458126@N07","secret":"8b62863d10","server":"65535","farm":66,"title":"Anhinga","ispublic":1,"isfriend":0,"isfamily":0},{"id":"52722076983","owner":"145140862@N04","secret":"4401f5a101","server":"65535","farm":66,"title":"Anhinga","ispublic":1,"isfriend":0,"isfamily":0},{"id":"52720719332","owner":"77128742@N06","secret":"dc4eaf1960","server":"65535","farm":66,"title":"Indischer Schlangenhalsvogel_Anhinga melanogaster-14","ispublic":1,"isfriend":0,"isfamily":0},{"id":"52721240791","owner":"77128742@N06","secret":"3cd4c09f37","server":"65535","farm":66,"title":"Indischer Schlangenhalsvogel_Anhinga melanogaster-13","ispublic":1,"isfriend":0,"isfamily":0},{"id":"52721655990","owner":"77128742@N06","secret":"a5e9902a23","server":"65535","farm":66,"title":"Indischer Schlangenhalsvogel_Anhinga melanogaster-25","ispublic":1,"isfriend":0,"isfamily":0},{"id":"52721504084","owner":"77128742@N06","secret":"330aefd1e5","server":"65535","farm":66,"title":"Indischer Schlangenhalsvogel_Anhinga melanogaster-16","ispublic":1,"isfriend":0,"isfamily":0},{"id":"52721727933","owner":"77128742@N06","secret":"242688b79c","server":"65535","farm":66,"title":"Indischer Schlangenhalsvogel_Anhinga melanogaster-22","ispublic":1,"isfriend":0,"isfamily":0},{"id":"52721240741","owner":"77128742@N06","secret":"4290e3098d","server":"65535","farm":66,"title":"Indischer Schlangenhalsvogel_Anhinga melanogaster-28","ispublic":1,"isfriend":0,"isfamily":0},{"id":"52720741720","owner":"47537819@N03","secret":"e00b6fe77d","server":"65535","farm":66,"title":"Anhinga, Corkscrew Swamp Sanctuary, FL","ispublic":1,"isfriend":0,"isfamily":0},{"id":"52720487964","owner":"95482238@N02","secret":"44cf6047f8","server":"65535","farm":66,"title":"Australian darter (Anhinga novaehollandiae) at Berri, South Australia","ispublic":1,"isfriend":0,"isfamily":0},{"id":"52720378104","owner":"60768800@N00","secret":"2411a7eb50","server":"65535","farm":66,"title":"Anhingas (male on left, female on right)","ispublic":1,"isfriend":0,"isfamily":0},{"id":"52720378039","owner":"60768800@N00","secret":"8673b9b42d","server":"65535","farm":66,"title":"Anhingas","ispublic":1,"isfriend":0,"isfamily":0},{"id":"52719353181","owner":"93282967@N05","secret":"2b92810449","server":"65535","farm":66,"title":"Anhinga","ispublic":1,"isfriend":0,"isfamily":0},{"id":"52719841418","owner":"93282967@N05","secret":"377765d77d","server":"65535","farm":66,"title":"Mating Anhingas","ispublic":1,"isfriend":0,"isfamily":0},{"id":"52719786603","owner":"55592907@N06","secret":"23051ba7e5","server":"65535","farm":66,"title":"african darter  (Anhinga rufa)","ispublic":1,"isfriend":0,"isfamily":0},{"id":"52718519352","owner":"36804699@N00","secret":"35de3d9af7","server":"65535","farm":66,"title":"Airing out","ispublic":1,"isfriend":0,"isfamily":0},{"id":"52718296227","owner":"139268792@N05","secret":"8eedd0a28f","server":"65535","farm":66,"title":"Fast and furious","ispublic":1,"isfriend":0,"isfamily":0},{"id":"52719146498","owner":"15025283@N06","secret":"912651a3cf","server":"65535","farm":66,"title":"Anhinga Catching","ispublic":1,"isfriend":0,"isfamily":0},{"id":"52718788044","owner":"47537819@N03","secret":"419e4086f7","server":"65535","farm":66,"title":"Anhinga on Nest, Corkscrew Swamp Sanctuary, FL","ispublic":1,"isfriend":0,"isfamily":0},{"id":"52718602569","owner":"131564455@N04","secret":"729be07078","server":"65535","farm":66,"title":"2.27.23 CBBR C EOS 80D Anhinga","ispublic":1,"isfriend":0,"isfamily":0},{"id":"52718086411","owner":"95482238@N02","secret":"e5a46d3ea0","server":"65535","farm":66,"title":"Australian darter (Anhinga novaehollandiae) at Hogwash bend, South Australia","ispublic":1,"isfriend":0,"isfamily":0},{"id":"52718020781","owner":"197370131@N05","secret":"54c05225d0","server":"65535","farm":66,"title":"Anhinga","ispublic":1,"isfriend":0,"isfamily":0},{"id":"52717795435","owner":"28549403@N05","secret":"b8c4ccc3ed","server":"65535","farm":66,"title":"Anhinga on Lake Hancock","ispublic":1,"isfriend":0,"isfamily":0},{"id":"52716666242","owner":"94953034@N07","secret":"e1a9e7c786","server":"65535","farm":66,"title":"Anhinga","ispublic":1,"isfriend":0,"isfamily":0},{"id":"52716665892","owner":"94953034@N07","secret":"dcaa630778","server":"65535","farm":66,"title":"Anhinga standing on a turtle","ispublic":1,"isfriend":0,"isfamily":0},{"id":"52717616900","owner":"94953034@N07","secret":"f9315877bd","server":"65535","farm":66,"title":"Anhinga","ispublic":1,"isfriend":0,"isfamily":0},{"id":"52717616880","owner":"94953034@N07","secret":"2b4439749d","server":"65535","farm":66,"title":"Anhinga","ispublic":1,"isfriend":0,"isfamily":0},{"id":"52717647963","owner":"183976776@N05","secret":"5923b865f8","server":"65535","farm":66,"title":"Snakebird","ispublic":1,"isfriend":0,"isfamily":0},{"id":"52716509407","owner":"135725129@N04","secret":"8900976418","server":"65535","farm":66,"title":"Fields","ispublic":1,"isfriend":0,"isfamily":0},{"id":"52716509182","owner":"135725129@N04","secret":"fac3b77e98","server":"65535","farm":66,"title":"Apopka","ispublic":1,"isfriend":0,"isfamily":0},{"id":"52717028566","owner":"135725129@N04","secret":"d52982cfa3","server":"65535","farm":66,"title":"IMGL0131","ispublic":1,"isfriend":0,"isfamily":0},{"id":"52717294049","owner":"135725129@N04","secret":"70c6ab0d2b","server":"65535","farm":66,"title":"IMGL0135","ispublic":1,"isfriend":0,"isfamily":0},{"id":"52716508597","owner":"135725129@N04","secret":"50cfce1635","server":"65535","farm":66,"title":"IMGL0137","ispublic":1,"isfriend":0,"isfamily":0},{"id":"52717459195","owner":"135725129@N04","secret":"4a2f5c2823","server":"65535","farm":66,"title":"IMGL0141","ispublic":1,"isfriend":0,"isfamily":0},{"id":"52717293584","owner":"135725129@N04","secret":"55ca47ce1d","server":"65535","farm":66,"title":"IMGL0143","ispublic":1,"isfriend":0,"isfamily":0},{"id":"52717027806","owner":"135725129@N04","secret":"dafc739946","server":"65535","farm":66,"title":"Fields","ispublic":1,"isfriend":0,"isfamily":0},{"id":"52717027576","owner":"135725129@N04","secret":"dd4789499f","server":"65535","farm":66,"title":"Fields","ispublic":1,"isfriend":0,"isfamily":0},{"id":"52717252289","owner":"135725129@N04","secret":"5dddb49fc1","server":"65535","farm":66,"title":"Red-bellied Woodpecker","ispublic":1,"isfriend":0,"isfamily":0},{"id":"52717474913","owner":"135725129@N04","secret":"27004c1e12","server":"65535","farm":66,"title":"Red-bellied Woodpecker","ispublic":1,"isfriend":0,"isfamily":0},{"id":"52717252074","owner":"135725129@N04","secret":"650b92746e","server":"65535","farm":66,"title":"Red-bellied Woodpecker","ispublic":1,"isfriend":0,"isfamily":0},{"id":"52717474733","owner":"135725129@N04","secret":"d2e0a00645","server":"65535","farm":66,"title":"Lantana","ispublic":1,"isfriend":0,"isfamily":0},{"id":"52716986381","owner":"135725129@N04","secret":"06ae5bba50","server":"65535","farm":66,"title":"Lantana","ispublic":1,"isfriend":0,"isfamily":0},{"id":"52716466302","owner":"135725129@N04","secret":"0496e64af2","server":"65535","farm":66,"title":"IMG_0602","ispublic":1,"isfriend":0,"isfamily":0},{"id":"52716985826","owner":"135725129@N04","secret":"8c67c0d363","server":"65535","farm":66,"title":"IMG_0598","ispublic":1,"isfriend":0,"isfamily":0},{"id":"52716465867","owner":"135725129@N04","secret":"9b37e6138c","server":"65535","farm":66,"title":"Great White Egret","ispublic":1,"isfriend":0,"isfamily":0},{"id":"52717473618","owner":"135725129@N04","secret":"876eec531c","server":"65535","farm":66,"title":"IMG_0578","ispublic":1,"isfriend":0,"isfamily":0},{"id":"52717473383","owner":"135725129@N04","secret":"4e50533fd4","server":"65535","farm":66,"title":"Lantana","ispublic":1,"isfriend":0,"isfamily":0},{"id":"52716465377","owner":"135725129@N04","secret":"f7181c4995","server":"65535","farm":66,"title":"Lantana","ispublic":1,"isfriend":0,"isfamily":0},{"id":"52717250349","owner":"135725129@N04","secret":"164d7352f2","server":"65535","farm":66,"title":"Osprey","ispublic":1,"isfriend":0,"isfamily":0},{"id":"52717250189","owner":"135725129@N04","secret":"45ef3ac7ce","server":"65535","farm":66,"title":"Osprey","ispublic":1,"isfriend":0,"isfamily":0},{"id":"52717472363","owner":"135725129@N04","secret":"3ce275bc61","server":"65535","farm":66,"title":"Osprey","ispublic":1,"isfriend":0,"isfamily":0},{"id":"52716983846","owner":"135725129@N04","secret":"3a610f3fce","server":"65535","farm":66,"title":"Osprey","ispublic":1,"isfriend":0,"isfamily":0},{"id":"52716463862","owner":"135725129@N04","secret":"e2b86bd590","server":"65535","farm":66,"title":"Osprey","ispublic":1,"isfriend":0,"isfamily":0},{"id":"52717414250","owner":"135725129@N04","secret":"d1a6d91fb5","server":"65535","farm":66,"title":"Lantana","ispublic":1,"isfriend":0,"isfamily":0},{"id":"52716463542","owner":"135725129@N04","secret":"d212485843","server":"65535","farm":66,"title":"Lantana","ispublic":1,"isfriend":0,"isfamily":0},{"id":"52717247904","owner":"135725129@N04","secret":"d2a28ae294","server":"65535","farm":66,"title":"IMG_0498","ispublic":1,"isfriend":0,"isfamily":0},{"id":"52717470558","owner":"135725129@N04","secret":"4d7c6d352c","server":"65535","farm":66,"title":"IMG_0496","ispublic":1,"isfriend":0,"isfamily":0},{"id":"52717247574","owner":"135725129@N04","secret":"21f53e6856","server":"65535","farm":66,"title":"IMG_0474","ispublic":1,"isfriend":0,"isfamily":0},{"id":"52716462312","owner":"135725129@N04","secret":"94d7e6fe39","server":"65535","farm":66,"title":"Cormorant","ispublic":1,"isfriend":0,"isfamily":0},{"id":"52717470058","owner":"135725129@N04","secret":"e376d0b376","server":"65535","farm":66,"title":"Cormorant","ispublic":1,"isfriend":0,"isfamily":0},{"id":"52717469923","owner":"135725129@N04","secret":"914e67c6c0","server":"65535","farm":66,"title":"Cormorant","ispublic":1,"isfriend":0,"isfamily":0},{"id":"52717412110","owner":"135725129@N04","secret":"d0b00e4344","server":"65535","farm":66,"title":"Osprey","ispublic":1,"isfriend":0,"isfamily":0},{"id":"52716461472","owner":"135725129@N04","secret":"0998a005ce","server":"65535","farm":66,"title":"Great Blue Heron","ispublic":1,"isfriend":0,"isfamily":0},{"id":"52716981036","owner":"135725129@N04","secret":"7b0ce747c4","server":"65535","farm":66,"title":"Great Blue Heron","ispublic":1,"isfriend":0,"isfamily":0},{"id":"52716980811","owner":"135725129@N04","secret":"e4822bbd45","server":"65535","farm":66,"title":"Great Blue Heron","ispublic":1,"isfriend":0,"isfamily":0},{"id":"52716460612","owner":"135725129@N04","secret":"e554521d17","server":"65535","farm":66,"title":"IMG_0399","ispublic":1,"isfriend":0,"isfamily":0},{"id":"52717245579","owner":"135725129@N04","secret":"4834a6e99b","server":"65535","farm":66,"title":"IMG_0397","ispublic":1,"isfriend":0,"isfamily":0},{"id":"52716459802","owner":"135725129@N04","secret":"3d2dbab7e1","server":"65535","farm":66,"title":"Great White Egret","ispublic":1,"isfriend":0,"isfamily":0},{"id":"52717467643","owner":"135725129@N04","secret":"837bd30464","server":"65535","farm":66,"title":"IMG_0385","ispublic":1,"isfriend":0,"isfamily":0},{"id":"52716459497","owner":"135725129@N04","secret":"7357a01d0c","server":"65535","farm":66,"title":"IMG_0383","ispublic":1,"isfriend":0,"isfamily":0},{"id":"52717467438","owner":"135725129@N04","secret":"5a39e3b142","server":"65535","farm":66,"title":"IMG_0379","ispublic":1,"isfriend":0,"isfamily":0},{"id":"52716978801","owner":"135725129@N04","secret":"e0aa4bd4b6","server":"65535","farm":66,"title":"IMG_0357","ispublic":1,"isfriend":0,"isfamily":0},{"id":"52717409100","owner":"135725129@N04","secret":"e8ebfba17a","server":"65535","farm":66,"title":"IMG_0356","ispublic":1,"isfriend":0,"isfamily":0},{"id":"52716458587","owner":"135725129@N04","secret":"f8840b029b","server":"65535","farm":66,"title":"Osprey","ispublic":1,"isfriend":0,"isfamily":0},{"id":"52716458447","owner":"135725129@N04","secret":"ac284d4ca0","server":"65535","farm":66,"title":"Osprey","ispublic":1,"isfriend":0,"isfamily":0},{"id":"52717243529","owner":"135725129@N04","secret":"39bccfd313","server":"65535","farm":66,"title":"Osprey","ispublic":1,"isfriend":0,"isfamily":0},{"id":"52717408610","owner":"135725129@N04","secret":"86b3b739ba","server":"65535","farm":66,"title":"Osprey","ispublic":1,"isfriend":0,"isfamily":0},{"id":"52717466228","owner":"135725129@N04","secret":"f125d46e4e","server":"65535","farm":66,"title":"Osprey","ispublic":1,"isfriend":0,"isfamily":0},{"id":"52717466118","owner":"135725129@N04","secret":"5e8e8080d1","server":"65535","farm":66,"title":"Osprey","ispublic":1,"isfriend":0,"isfamily":0},{"id":"52716977996","owner":"135725129@N04","secret":"aaaccff25d","server":"65535","farm":66,"title":"IMG_0268","ispublic":1,"isfriend":0,"isfamily":0},{"id":"52717408140","owner":"135725129@N04","secret":"1d3e8fb31a","server":"65535","farm":66,"title":"IMG_0264","ispublic":1,"isfriend":0,"isfamily":0},{"id":"52717242784","owner":"135725129@N04","secret":"d346bd49af","server":"65535","farm":66,"title":"Limpkin","ispublic":1,"isfriend":0,"isfamily":0},{"id":"52717407895","owner":"135725129@N04","secret":"1f1cb5876c","server":"65535","farm":66,"title":"Limpkin","ispublic":1,"isfriend":0,"isfamily":0},{"id":"52717242319","owner":"135725129@N04","secret":"df54482363","server":"65535","farm":66,"title":"Limpkin","ispublic":1,"isfriend":0,"isfamily":0},{"id":"52717465063","owner":"135725129@N04","secret":"15458e446a","server":"65535","farm":66,"title":"Limpkin","ispublic":1,"isfriend":0,"isfamily":0},{"id":"52717407420","owner":"135725129@N04","secret":"154bc7fd09","server":"65535","farm":66,"title":"IMG_0227","ispublic":1,"isfriend":0,"isfamily":0},{"id":"52717241979","owner":"135725129@N04","secret":"7ae67fc8ce","server":"65535","farm":66,"title":"IMG_0223","ispublic":1,"isfriend":0,"isfamily":0},{"id":"52716976721","owner":"135725129@N04","secret":"cf18016587","server":"65535","farm":66,"title":"IMG_0221","ispublic":1,"isfriend":0,"isfamily":0},{"id":"52717407115","owner":"135725129@N04","secret":"096557d914","server":"65535","farm":66,"title":"IMG_0216","ispublic":1,"isfriend":0,"isfamily":0},{"id":"52717407005","owner":"135725129@N04","secret":"ab1e825d21","server":"65535","farm":66,"title":"IMG_0215","ispublic":1,"isfriend":0,"isfamily":0},{"id":"52717241534","owner":"135725129@N04","secret":"01afa539ea","server":"65535","farm":66,"title":"IMG_0212","ispublic":1,"isfriend":0,"isfamily":0},{"id":"52717464028","owner":"135725129@N04","secret":"1344e96fd9","server":"65535","farm":66,"title":"Osprey","ispublic":1,"isfriend":0,"isfamily":0},{"id":"52716455967","owner":"135725129@N04","secret":"0d22dfb950","server":"65535","farm":66,"title":"Osprey","ispublic":1,"isfriend":0,"isfamily":0}]},"stat":"ok"}