{"photos":{"page":1,"pages":22,"perpage":100,"total":2199,"photo":[{"id":"52711234808","owner":"63460511@N03","secret":"4b4b82d205","server":"65535","farm":66,"title":"Pitotoy grande, Greater yellowlegs (Charadriiformes, Scolopacidae: Tringa melanoleuca) [al frente], y Playero de Baird, Baird's sandpiper (Charadriiformes, Scolopacidae: Calidris bairdii) [al fondo]","ispublic":1,"isfriend":0,"isfamily":0},{"id":"52641205199","owner":"48014585@N00","secret":"0225b33aee","server":"65535","farm":66,"title":"Baird's Sandpiper","ispublic":1,"isfriend":0,"isfamily":0},{"id":"52640436497","owner":"48014585@N00","secret":"27cbcecae1","server":"65535","farm":66,"title":"Baird's Sandpiper","ispublic":1,"isfriend":0,"isfamily":0},{"id":"52640436372","owner":"48014585@N00","secret":"0c8797a0da","server":"65535","farm":66,"title":"Baird's Sandpiper","ispublic":1,"isfriend":0,"isfamily":0},{"id":"52641204809","owner":"48014585@N00","secret":"3e75b431df","server":"65535","farm":66,"title":"Baird's Sandpiper","ispublic":1,"isfriend":0,"isfamily":0},{"id":"52640435997","owner":"48014585@N00","secret":"6dcf717dc5","server":"65535","farm":66,"title":"Baird's Sandpiper","ispublic":1,"isfriend":0,"isfamily":0},{"id":"52641385720","owner":"48014585@N00","secret":"5b32730399","server":"65535","farm":66,"title":"Baird's Sandpiper","ispublic":1,"isfriend":0,"isfamily":0},{"id":"52641385620","owner":"48014585@N00","secret":"3dec63a237","server":"65535","farm":66,"title":"Baird's Sandpiper","ispublic":1,"isfriend":0,"isfamily":0},{"id":"52640435437","owner":"48014585@N00","secret":"6a24a25f21","server":"65535","farm":66,"title":"Baird's Sandpiper","ispublic":1,"isfriend":0,"isfamily":0},{"id":"52565304585","owner":"91064752@N03","secret":"c3d224f718","server":"65535","farm":66,"title":"Baird's Sandpiper","ispublic":1,"isfriend":0,"isfamily":0},{"id":"52519175073","owner":"92361032@N05","secret":"854a4c24d6","server":"65535","farm":66,"title":"Baird's Sandpiper \/ B\u00e9casseau de Baird ( Diane )","ispublic":1,"isfriend":0,"isfamily":0},{"id":"52446413620","owner":"127345113@N04","secret":"8517d3fbd1","server":"65535","farm":66,"title":"chorlito unicolor - calidris bairdii - Baird\u00a8s sandpiper","ispublic":1,"isfriend":0,"isfamily":0},{"id":"52446244940","owner":"127954172@N03","secret":"5e517a59d8","server":"65535","farm":66,"title":"playerito-unicolor_NGR0470","ispublic":1,"isfriend":0,"isfamily":0},{"id":"52445275083","owner":"54059915@N07","secret":"020b7ed23f","server":"65535","farm":66,"title":"Baird's Sandpiper","ispublic":1,"isfriend":0,"isfamily":0},{"id":"52432190999","owner":"127954172@N03","secret":"66a4221f0a","server":"65535","farm":66,"title":"playerito-unicolor_NGR9598","ispublic":1,"isfriend":0,"isfamily":0},{"id":"52408399742","owner":"67677583@N00","secret":"d148cf1885","server":"65535","farm":66,"title":"Playero de Baird (Calidris bairdii)","ispublic":1,"isfriend":0,"isfamily":0},{"id":"52393002510","owner":"34238008@N02","secret":"951d2e9983","server":"65535","farm":66,"title":"Baird's Sandpiper, basic (Calidris bairdii)","ispublic":1,"isfriend":0,"isfamily":0},{"id":"52388752847","owner":"123979267@N05","secret":"767d262fce","server":"65535","farm":66,"title":"Baird's Sandpiper","ispublic":1,"isfriend":0,"isfamily":0},{"id":"52375606623","owner":"65148649@N04","secret":"a83fa1f572","server":"65535","farm":66,"title":"Baird's Sandpiper","ispublic":1,"isfriend":0,"isfamily":0},{"id":"52375695259","owner":"65148649@N04","secret":"92a244531c","server":"65535","farm":66,"title":"Baird's Sandpipers","ispublic":1,"isfriend":0,"isfamily":0},{"id":"52368998056","owner":"152675955@N08","secret":"dd2f1c95f5","server":"65535","farm":66,"title":"Magie avec le B\u00e9casseau de Baird \/ Magic with  Baird's Sandpiper","ispublic":1,"isfriend":0,"isfamily":0},{"id":"52355586368","owner":"132638863@N04","secret":"193b21d81e","server":"65535","farm":66,"title":"Baird's Sandpiper \/ B\u00e9casseau de Baird","ispublic":1,"isfriend":0,"isfamily":0},{"id":"52353890269","owner":"85277889@N08","secret":"b4101d6d3d","server":"65535","farm":66,"title":"Baird's Sandpiper (Calidris bairdii) 2022-09-06 (2)","ispublic":1,"isfriend":0,"isfamily":0},{"id":"52346138706","owner":"26096524@N03","secret":"fe01d41438","server":"65535","farm":66,"title":"Baird's Sandpiper (Calidris bairdii)","ispublic":1,"isfriend":0,"isfamily":0},{"id":"52346274283","owner":"90886369@N06","secret":"8694338ee4","server":"65535","farm":66,"title":"Baird's Sandpiper (Calidris bairdii)","ispublic":1,"isfriend":0,"isfamily":0},{"id":"52345465855","owner":"14734088@N02","secret":"0406743f59","server":"65535","farm":66,"title":"B\u00e9casseau de Baird 210909H1d","ispublic":1,"isfriend":0,"isfamily":0},{"id":"52339416493","owner":"39177293@N03","secret":"b29a022bc3","server":"65535","farm":66,"title":"Baird's Sandpiper","ispublic":1,"isfriend":0,"isfamily":0},{"id":"52339180711","owner":"39177293@N03","secret":"7986bb1073","server":"65535","farm":66,"title":"Baird's Sandpiper","ispublic":1,"isfriend":0,"isfamily":0},{"id":"52339608495","owner":"39177293@N03","secret":"1e30a8f765","server":"65535","farm":66,"title":"Baird's Sandpiper","ispublic":1,"isfriend":0,"isfamily":0},{"id":"52332910493","owner":"103722035@N06","secret":"a56cf6609e","server":"0","farm":0,"title":"Baird's Sandpiper (Calidris bairdii), Los Osos, CA","ispublic":1,"isfriend":0,"isfamily":0},{"id":"52327268154","owner":"165841515@N03","secret":"4ff081fbc7","server":"65535","farm":66,"title":"B\u00e9casseau de Baird \/ Baird's Sandpiper \/ (Calidris bairdii)","ispublic":1,"isfriend":0,"isfamily":0},{"id":"52325767530","owner":"48014585@N00","secret":"4a0981c884","server":"65535","farm":66,"title":"Baird's Sandpiper","ispublic":1,"isfriend":0,"isfamily":0},{"id":"52325643283","owner":"48014585@N00","secret":"ffd107da3e","server":"65535","farm":66,"title":"Baird's Sandpiper","ispublic":1,"isfriend":0,"isfamily":0},{"id":"52325395171","owner":"48014585@N00","secret":"de79d5442e","server":"65535","farm":66,"title":"Baird's Sandpiper","ispublic":1,"isfriend":0,"isfamily":0},{"id":"52325512139","owner":"48014585@N00","secret":"3f075fbc9c","server":"65535","farm":66,"title":"Baird's Sandpiper","ispublic":1,"isfriend":0,"isfamily":0},{"id":"52325396888","owner":"48014585@N00","secret":"e3dabf7b0f","server":"65535","farm":66,"title":"Baird's Sandpiper","ispublic":1,"isfriend":0,"isfamily":0},{"id":"52315405492","owner":"120449047@N06","secret":"d6d4754f82","server":"65535","farm":66,"title":"Baird's Sandpiper (lifer) 2 of 2","ispublic":1,"isfriend":0,"isfamily":0},{"id":"52310875387","owner":"103722035@N06","secret":"7808de3d6e","server":"0","farm":0,"title":"Baird's Sandpiper (Calidris bairdii), Estero Bluffs State Park, Cayucos, CA","ispublic":1,"isfriend":0,"isfamily":0},{"id":"52306559821","owner":"196264892@N08","secret":"81c233bfd7","server":"65535","farm":66,"title":"Baird's Sandpiper","ispublic":1,"isfriend":0,"isfamily":0},{"id":"52298205204","owner":"103722035@N06","secret":"5ca5efbfef","server":"65535","farm":66,"title":"Baird's Sandpiper (Calidris bairdii), Estero Bluffs State Park, Cayucos, CA","ispublic":1,"isfriend":0,"isfamily":0},{"id":"52297900861","owner":"103722035@N06","secret":"18b6847751","server":"0","farm":0,"title":"Baird's Sandpiper (Calidris bairdii), Estero Bluffs State Park, Cayucos, CA","ispublic":1,"isfriend":0,"isfamily":0},{"id":"52277594399","owner":"140318147@N08","secret":"9fa093ece5","server":"65535","farm":66,"title":"Baird's sandpiper (Calidris bairdii) L4A9165","ispublic":1,"isfriend":0,"isfamily":0},{"id":"52276347967","owner":"140318147@N08","secret":"2ea22468bc","server":"65535","farm":66,"title":"Baird's sandpiper (Calidris bairdii) L4A9100","ispublic":1,"isfriend":0,"isfamily":0},{"id":"52249644592","owner":"193158112@N03","secret":"08c3349cf3","server":"65535","farm":66,"title":"Playero de Baird (calidris bairdii)","ispublic":1,"isfriend":0,"isfamily":0},{"id":"52645754208","owner":"8013969@N03","secret":"06dc01a017","server":"65535","farm":66,"title":"Calidris bairdii DFL btr22-1","ispublic":1,"isfriend":0,"isfamily":0},{"id":"52645281736","owner":"8013969@N03","secret":"95c62453ac","server":"65535","farm":66,"title":"Calidris bairdii DFL btr22-2","ispublic":1,"isfriend":0,"isfamily":0},{"id":"52645753673","owner":"8013969@N03","secret":"f93f1aa56d","server":"65535","farm":66,"title":"Calidris bairdii DFL btr22-3","ispublic":1,"isfriend":0,"isfamily":0},{"id":"52640946641","owner":"48014585@N00","secret":"00411307f4","server":"65535","farm":66,"title":"Baird's Sandpiper","ispublic":1,"isfriend":0,"isfamily":0},{"id":"52641421163","owner":"48014585@N00","secret":"88e2fe6cb7","server":"65535","farm":66,"title":"Baird's Sandpiper","ispublic":1,"isfriend":0,"isfamily":0},{"id":"52613566396","owner":"42978673@N00","secret":"07400fc49c","server":"65535","farm":66,"title":"Baird's Sandpiper - Calidris bairdii","ispublic":1,"isfriend":0,"isfamily":0},{"id":"52613824294","owner":"42978673@N00","secret":"b85529d6f7","server":"65535","farm":66,"title":"Baird's Sandpiper - Calidris bairdii","ispublic":1,"isfriend":0,"isfamily":0},{"id":"52580858583","owner":"153973412@N04","secret":"688f91ba94","server":"65535","farm":66,"title":"Baird's Sandpiper-Calidris bairdii, AZ","ispublic":1,"isfriend":0,"isfamily":0},{"id":"52535290030","owner":"33610210@N05","secret":"c37716f55a","server":"65535","farm":66,"title":"Baird's Sandpiper, Calidris bairdii","ispublic":1,"isfriend":0,"isfamily":0},{"id":"52534817086","owner":"33610210@N05","secret":"f8c0aeb3fe","server":"65535","farm":66,"title":"Baird's Sandpiper, Calidris bairdii","ispublic":1,"isfriend":0,"isfamily":0},{"id":"52534347277","owner":"33610210@N05","secret":"1bf5e940c9","server":"65535","farm":66,"title":"Baird's Sandpiper, Calidris bairdii","ispublic":1,"isfriend":0,"isfamily":0},{"id":"52535098964","owner":"33610210@N05","secret":"38a7513520","server":"65535","farm":66,"title":"Baird's Sandpiper, Calidris bairdii","ispublic":1,"isfriend":0,"isfamily":0},{"id":"52534347242","owner":"33610210@N05","secret":"3c574f1212","server":"65535","farm":66,"title":"Baird's Sandpiper, Calidris bairdii","ispublic":1,"isfriend":0,"isfamily":0},{"id":"52534816976","owner":"33610210@N05","secret":"4055448a05","server":"65535","farm":66,"title":"Baird's Sandpiper, Calidris bairdii","ispublic":1,"isfriend":0,"isfamily":0},{"id":"52535098849","owner":"33610210@N05","secret":"116e1a79b1","server":"65535","farm":66,"title":"Baird's Sandpiper, Calidris bairdii","ispublic":1,"isfriend":0,"isfamily":0},{"id":"52506054926","owner":"140734051@N08","secret":"402cbe5070","server":"65535","farm":66,"title":"\u0411\u044d\u0440\u0434\u043e\u0432 \u043f\u0435\u0441\u043e\u0447\u043d\u0438\u043a, Calidris bairdii, Baird's Sandpiper","ispublic":1,"isfriend":0,"isfamily":0},{"id":"52436085626","owner":"9243885@N07","secret":"07e06ca375","server":"65535","farm":66,"title":"2022_10_08_5DMk4_81398","ispublic":1,"isfriend":0,"isfamily":0},{"id":"52436588373","owner":"9243885@N07","secret":"661b47a5d1","server":"65535","farm":66,"title":"2022_10_08_5DMk4_81389","ispublic":1,"isfriend":0,"isfamily":0},{"id":"52436522950","owner":"9243885@N07","secret":"6023a9fed3","server":"65535","farm":66,"title":"2022_10_08_5DMk4_81344","ispublic":1,"isfriend":0,"isfamily":0},{"id":"52436347184","owner":"9243885@N07","secret":"f1bfd2a3fd","server":"65535","farm":66,"title":"2022_10_08_5DMk4_81369","ispublic":1,"isfriend":0,"isfamily":0},{"id":"52392818978","owner":"34238008@N02","secret":"11b2d05118","server":"65535","farm":66,"title":"Baird's Sandpiper (Calidris bairdii)","ispublic":1,"isfriend":0,"isfamily":0},{"id":"52392574381","owner":"34238008@N02","secret":"428433737d","server":"65535","farm":66,"title":"Baird's Sandpiper (Calidris bairdii)","ispublic":1,"isfriend":0,"isfamily":0},{"id":"52393002295","owner":"34238008@N02","secret":"2b1a34f0db","server":"65535","farm":66,"title":"Baird's Sandpiper (Calidris bairdii)","ispublic":1,"isfriend":0,"isfamily":0},{"id":"52390103975","owner":"123979267@N05","secret":"92c4300d14","server":"65535","farm":66,"title":"Baird's Sandpiper","ispublic":1,"isfriend":0,"isfamily":0},{"id":"52387490944","owner":"9243885@N07","secret":"30898bbfb7","server":"65535","farm":66,"title":"2022_09_24_5DMk4_78965","ispublic":1,"isfriend":0,"isfamily":0},{"id":"52375800435","owner":"65148649@N04","secret":"9d7e614fbd","server":"65535","farm":66,"title":"Baird's Sandpiper","ispublic":1,"isfriend":0,"isfamily":0},{"id":"52345728715","owner":"12639178@N07","secret":"02c445564b","server":"65535","farm":66,"title":"Bairdstrandl\u00e4ufer (Calidris bairdii)","ispublic":1,"isfriend":0,"isfamily":0},{"id":"52345543223","owner":"12639178@N07","secret":"0d536bff7e","server":"65535","farm":66,"title":"Bairdstrandl\u00e4ufer (Calidris bairdii)","ispublic":1,"isfriend":0,"isfamily":0},{"id":"52345540513","owner":"12639178@N07","secret":"9b5c896bbf","server":"65535","farm":66,"title":"Bairdstrandl\u00e4ufer (Calidris bairdii)","ispublic":1,"isfriend":0,"isfamily":0},{"id":"52345537848","owner":"12639178@N07","secret":"16c7f5ff0d","server":"65535","farm":66,"title":"Bairdstrandl\u00e4ufer (Calidris bairdii)","ispublic":1,"isfriend":0,"isfamily":0},{"id":"52339000764","owner":"12639178@N07","secret":"4c292644e9","server":"65535","farm":66,"title":"Bairdstrandl\u00e4ufer (Calidris bairdii)","ispublic":1,"isfriend":0,"isfamily":0},{"id":"52338997099","owner":"12639178@N07","secret":"3bdd92e106","server":"65535","farm":66,"title":"Bairdstrandl\u00e4ufer (Calidris bairdii)","ispublic":1,"isfriend":0,"isfamily":0},{"id":"52328531248","owner":"144980256@N07","secret":"d5808831f6","server":"65535","farm":66,"title":"Baird's Sandpiper (Calidris bairdii)","ispublic":1,"isfriend":0,"isfamily":0},{"id":"52328530268","owner":"144980256@N07","secret":"7775c9b417","server":"65535","farm":66,"title":"Baird's Sandpiper (Calidris bairdii)","ispublic":1,"isfriend":0,"isfamily":0},{"id":"52325303831","owner":"48014585@N00","secret":"f22b18b3a3","server":"65535","farm":66,"title":"Stilt and Baird's Sandpiper, Red Knot, Semipalmated Plover","ispublic":1,"isfriend":0,"isfamily":0},{"id":"52324346422","owner":"48014585@N00","secret":"0c1eef37aa","server":"65535","farm":66,"title":"Baird's Sandpiper","ispublic":1,"isfriend":0,"isfamily":0},{"id":"52325504865","owner":"48014585@N00","secret":"2b69a5b051","server":"65535","farm":66,"title":"Baird's Sandpiper","ispublic":1,"isfriend":0,"isfamily":0},{"id":"52321273260","owner":"69740770@N05","secret":"2c178fe3ff","server":"65535","farm":66,"title":"Baird's Sandpiper - Calidris bairdii","ispublic":1,"isfriend":0,"isfamily":0},{"id":"52291245973","owner":"134270033@N06","secret":"67559d54ed","server":"65535","farm":66,"title":"Black Legs","ispublic":1,"isfriend":0,"isfamily":0},{"id":"52219212706","owner":"27588142@N06","secret":"633daea2d8","server":"65535","farm":66,"title":"Baird's Sandpiper","ispublic":1,"isfriend":0,"isfamily":0},{"id":"52219226003","owner":"27588142@N06","secret":"0df2144ea7","server":"65535","farm":66,"title":"Baird's Sandpiper","ispublic":1,"isfriend":0,"isfamily":0},{"id":"52219481514","owner":"27588142@N06","secret":"186cd744c8","server":"65535","farm":66,"title":"Baird's Sandpiper","ispublic":1,"isfriend":0,"isfamily":0},{"id":"52219214943","owner":"27588142@N06","secret":"aeea8a51aa","server":"65535","farm":66,"title":"Baird's Sandpiper","ispublic":1,"isfriend":0,"isfamily":0},{"id":"52219201481","owner":"27588142@N06","secret":"dd4a3e787b","server":"65535","farm":66,"title":"Baird's Sandpiper","ispublic":1,"isfriend":0,"isfamily":0},{"id":"52219470474","owner":"27588142@N06","secret":"998d578900","server":"65535","farm":66,"title":"Baird's Sandpiper","ispublic":1,"isfriend":0,"isfamily":0},{"id":"52219201401","owner":"27588142@N06","secret":"a03d12d29c","server":"65535","farm":66,"title":"Baird's Sandpiper","ispublic":1,"isfriend":0,"isfamily":0},{"id":"52219685130","owner":"27588142@N06","secret":"d380a7bb17","server":"65535","farm":66,"title":"Baird's Sandpiper","ispublic":1,"isfriend":0,"isfamily":0},{"id":"52219213763","owner":"27588142@N06","secret":"2da2f9d713","server":"65535","farm":66,"title":"Baird's Sandpiper","ispublic":1,"isfriend":0,"isfamily":0},{"id":"52219213698","owner":"27588142@N06","secret":"74fed6f5ea","server":"65535","farm":66,"title":"Baird's Sandpiper","ispublic":1,"isfriend":0,"isfamily":0},{"id":"52218194102","owner":"27588142@N06","secret":"a7f8dd0a31","server":"65535","farm":66,"title":"Baird's Sandpiper","ispublic":1,"isfriend":0,"isfamily":0},{"id":"52219213598","owner":"27588142@N06","secret":"2d1391e436","server":"65535","farm":66,"title":"Baird's Sandpiper","ispublic":1,"isfriend":0,"isfamily":0},{"id":"52219213528","owner":"27588142@N06","secret":"f37873ef26","server":"65535","farm":66,"title":"Baird's Sandpiper","ispublic":1,"isfriend":0,"isfamily":0},{"id":"52218192527","owner":"27588142@N06","secret":"c9a260da8a","server":"65535","farm":66,"title":"Baird's Sandpiper","ispublic":1,"isfriend":0,"isfamily":0},{"id":"52219680405","owner":"27588142@N06","secret":"3a973cb08c","server":"65535","farm":66,"title":"Baird's Sandpiper","ispublic":1,"isfriend":0,"isfamily":0},{"id":"52219465454","owner":"27588142@N06","secret":"afee33543c","server":"65535","farm":66,"title":"Baird's Sandpiper","ispublic":1,"isfriend":0,"isfamily":0},{"id":"52219209893","owner":"27588142@N06","secret":"995ff27fd1","server":"65535","farm":66,"title":"Baird's Sandpiper","ispublic":1,"isfriend":0,"isfamily":0}]},"stat":"ok"}