{"photos":{"page":1,"pages":70,"perpage":100,"total":6901,"photo":[{"id":"52708766708","owner":"43440320@N04","secret":"25c8e09ce5","server":"65535","farm":66,"title":"Peek-a-boo Oriole","ispublic":1,"isfriend":0,"isfamily":0},{"id":"52706672858","owner":"38514062@N03","secret":"eeb0418a22","server":"65535","farm":66,"title":"Baltimore Oriole (Icterus galbula)","ispublic":1,"isfriend":0,"isfamily":0},{"id":"52703216744","owner":"151109375@N08","secret":"6ca14e024c","server":"65535","farm":66,"title":"An adult Baltimore Oriole (Icterus galbula)","ispublic":1,"isfriend":0,"isfamily":0},{"id":"52698906988","owner":"137931501@N03","secret":"334601d53c","server":"65535","farm":66,"title":"Baltimore Oriole (Icterus galbula) 6091","ispublic":1,"isfriend":0,"isfamily":0},{"id":"52693171939","owner":"12639178@N07","secret":"b3759f7e74","server":"65535","farm":66,"title":"Baltimoretrupial Weibchen","ispublic":1,"isfriend":0,"isfamily":0},{"id":"52687831393","owner":"12639178@N07","secret":"4b51e07b26","server":"65535","farm":66,"title":"sich putzender Baltimoretrupial","ispublic":1,"isfriend":0,"isfamily":0},{"id":"52683581728","owner":"52321838@N05","secret":"63caac3dbb","server":"65535","farm":66,"title":"Baltimore Oriole","ispublic":1,"isfriend":0,"isfamily":0},{"id":"52681902246","owner":"169771858@N03","secret":"1b2dabf63a","server":"65535","farm":66,"title":"Baltimore Oriole #2 - 2020-06-13","ispublic":1,"isfriend":0,"isfamily":0},{"id":"52678948576","owner":"132165466@N08","secret":"d31ab2821f","server":"65535","farm":66,"title":"Baltimore Oriole in winter habitat","ispublic":1,"isfriend":0,"isfamily":0},{"id":"52676228206","owner":"7413414@N02","secret":"1076a3cc73","server":"65535","farm":66,"title":"The Female of the Species","ispublic":1,"isfriend":0,"isfamily":0},{"id":"52672937952","owner":"151680047@N06","secret":"f43dfb72e3","server":"65535","farm":66,"title":"Baltimore Oriole  (Icterus galbula)  Baltimoretrupial","ispublic":1,"isfriend":0,"isfamily":0},{"id":"52673435041","owner":"151680047@N06","secret":"dbdc64d609","server":"65535","farm":66,"title":"Baltimore Oriole  (Icterus galbula)  Baltimoretrupial","ispublic":1,"isfriend":0,"isfamily":0},{"id":"52673434956","owner":"151680047@N06","secret":"3573051b29","server":"65535","farm":66,"title":"Baltimore Oriole  (Icterus galbula)  Baltimoretrupial","ispublic":1,"isfriend":0,"isfamily":0},{"id":"52672812255","owner":"107784905@N04","secret":"36f3fc8a62","server":"65535","farm":66,"title":"Oriole de Baltimore - Rancho Naturalista\/Cartago\/Costa Rica_20211129_009-1","ispublic":1,"isfriend":0,"isfamily":0},{"id":"52657632394","owner":"132165466@N08","secret":"487d9ca512","server":"65535","farm":66,"title":"Baltimore Oriole in winter habitat","ispublic":1,"isfriend":0,"isfamily":0},{"id":"52649754557","owner":"65788177@N02","secret":"fa1e773147","server":"65535","farm":66,"title":"Baltimore Oriole","ispublic":1,"isfriend":0,"isfamily":0},{"id":"52650245529","owner":"91064752@N03","secret":"aa2f8a093b","server":"65535","farm":66,"title":"Male Baltimore Oriole Checking Out the Fountain","ispublic":1,"isfriend":0,"isfamily":0},{"id":"52643863933","owner":"8013969@N03","secret":"ba0ca17b66","server":"65535","farm":66,"title":"Icterus galbula DFL btr22-2","ispublic":1,"isfriend":0,"isfamily":0},{"id":"52643830490","owner":"8013969@N03","secret":"c58850577a","server":"65535","farm":66,"title":"Icterus galbula DFL btr22-3","ispublic":1,"isfriend":0,"isfamily":0},{"id":"52639541900","owner":"97599611@N04","secret":"4f21f058e3","server":"65535","farm":66,"title":"0P7A1540   Baltimore Oriole, Canada","ispublic":1,"isfriend":0,"isfamily":0},{"id":"52635709375","owner":"61062164@N08","secret":"c7152e0bc1","server":"65535","farm":66,"title":"850_4615-NEF_DxO DP2","ispublic":1,"isfriend":0,"isfamily":0},{"id":"52632056437","owner":"91064752@N03","secret":"ef0eb717a8","server":"65535","farm":66,"title":"Baltimore Oriole at the Fountain","ispublic":1,"isfriend":0,"isfamily":0},{"id":"52628359377","owner":"188079237@N04","secret":"e0872cb010","server":"65535","farm":66,"title":"Baltimoretrupial","ispublic":1,"isfriend":0,"isfamily":0},{"id":"52628359317","owner":"188079237@N04","secret":"9549fe62ac","server":"65535","farm":66,"title":"Baltimoretrupial","ispublic":1,"isfriend":0,"isfamily":0},{"id":"52629358978","owner":"188079237@N04","secret":"c7a2548f10","server":"65535","farm":66,"title":"Baltimoretrupial","ispublic":1,"isfriend":0,"isfamily":0},{"id":"52629358953","owner":"188079237@N04","secret":"fe712d0220","server":"65535","farm":66,"title":"Baltimoretrupial","ispublic":1,"isfriend":0,"isfamily":0},{"id":"52628359287","owner":"188079237@N04","secret":"56a32ced26","server":"65535","farm":66,"title":"Baltimoretrupial","ispublic":1,"isfriend":0,"isfamily":0},{"id":"52628880501","owner":"188079237@N04","secret":"9f12cfe96a","server":"65535","farm":66,"title":"Baltimoretrupial","ispublic":1,"isfriend":0,"isfamily":0},{"id":"52619450620","owner":"181824639@N02","secret":"f3189d07d6","server":"65535","farm":66,"title":"Oriole de Baltimore ( Icterus galbula )","ispublic":1,"isfriend":0,"isfamily":0},{"id":"52611031592","owner":"195041250@N03","secret":"8d1cf1bc3b","server":"65535","farm":66,"title":"Baltimore Oriole","ispublic":1,"isfriend":0,"isfamily":0},{"id":"52609000478","owner":"95321878@N03","secret":"8625e57b1d","server":"65535","farm":66,"title":"Baltimore Oriole (Icterus galbula) Baltimore trupial","ispublic":1,"isfriend":0,"isfamily":0},{"id":"52596378909","owner":"119388965@N05","secret":"23ee351ace","server":"65535","farm":66,"title":"Baltimoretrupial, Icterus galbula, Baltimore oriole","ispublic":1,"isfriend":0,"isfamily":0},{"id":"52596536720","owner":"119388965@N05","secret":"6ddba491fe","server":"65535","farm":66,"title":"Baltimoretrupial, Icterus galbula, Baltimore oriole","ispublic":1,"isfriend":0,"isfamily":0},{"id":"52596095456","owner":"119388965@N05","secret":"a5401beff0","server":"65535","farm":66,"title":"Baltimoretrupial, Icterus galbula, Baltimore oriole","ispublic":1,"isfriend":0,"isfamily":0},{"id":"52594751909","owner":"79985280@N06","secret":"927ecaf9ff","server":"65535","farm":66,"title":"Baltimoretrupial, Baltimore Oriole, Icterus galbula","ispublic":1,"isfriend":0,"isfamily":0},{"id":"52594491476","owner":"79985280@N06","secret":"93934c8026","server":"65535","farm":66,"title":"Baltimoretrupial, Baltimore Oriole, Icterus galbula","ispublic":1,"isfriend":0,"isfamily":0},{"id":"52594751864","owner":"79985280@N06","secret":"f79ca4cbb2","server":"65535","farm":66,"title":"Baltimoretrupial, Baltimore Oriole, Icterus galbula","ispublic":1,"isfriend":0,"isfamily":0},{"id":"52592229167","owner":"30979614@N07","secret":"718fb22c7e","server":"65535","farm":66,"title":"2022-05-10 Montrose Point 10","ispublic":1,"isfriend":0,"isfamily":0},{"id":"52584500959","owner":"61062164@N08","secret":"bb762a740d","server":"65535","farm":66,"title":"850_4612-NEF_DxO_DeepPRIME","ispublic":1,"isfriend":0,"isfamily":0},{"id":"52580564017","owner":"7413414@N02","secret":"0435926c72","server":"65535","farm":66,"title":"O for Orange - Male Baltimore Oriole","ispublic":1,"isfriend":0,"isfamily":0},{"id":"52576282535","owner":"151680047@N06","secret":"802c87c1d1","server":"65535","farm":66,"title":"Baltimore Oriole  (Icterus galbula)  Baltimoretrupial","ispublic":1,"isfriend":0,"isfamily":0},{"id":"52576083599","owner":"54724497@N02","secret":"0264e423f3","server":"65535","farm":66,"title":"Baltimortrupial, Icterus galbula, Baltimor oriole","ispublic":1,"isfriend":0,"isfamily":0},{"id":"52576334588","owner":"54724497@N02","secret":"c0cc4de8f5","server":"65535","farm":66,"title":"Baltimortrupial, Icterus galbula, Baltimor oriole","ispublic":1,"isfriend":0,"isfamily":0},{"id":"52576334553","owner":"54724497@N02","secret":"bb722ba96d","server":"65535","farm":66,"title":"Baltimortrupial, Icterus galbula, Baltimor oriole","ispublic":1,"isfriend":0,"isfamily":0},{"id":"52575406658","owner":"94266411@N03","secret":"40b23b5ee7","server":"65535","farm":66,"title":"Baltimoretrupial - Baltimore Oriole (Icterus galbula)","ispublic":1,"isfriend":0,"isfamily":0},{"id":"52575406598","owner":"94266411@N03","secret":"1b1b73960d","server":"65535","farm":66,"title":"Baltimoretrupial - Baltimore Oriole (Icterus galbula)","ispublic":1,"isfriend":0,"isfamily":0},{"id":"52574890539","owner":"189697862@N03","secret":"32e3c2ec5b","server":"65535","farm":66,"title":"Oriole de Baltimore Icterus galbula - Baltimore Oriole pr\u00e8s de Kergadou.","ispublic":1,"isfriend":0,"isfamily":0},{"id":"52574890029","owner":"189697862@N03","secret":"f4329b44f7","server":"65535","farm":66,"title":"Oriole de Baltimore Icterus galbula - Baltimore Oriole pr\u00e8s de Kergadou.","ispublic":1,"isfriend":0,"isfamily":0},{"id":"52573983465","owner":"10629554@N00","secret":"260096f787","server":"65535","farm":66,"title":"Baltimore Oriole (Icterus galbula)","ispublic":1,"isfriend":0,"isfamily":0},{"id":"52571281426","owner":"131480327@N08","secret":"df0b08e6ec","server":"65535","farm":66,"title":"The first Baltimoretrupial , Baltimore Oriole , Icterus galbula, in Sweden","ispublic":1,"isfriend":0,"isfamily":0},{"id":"52568888513","owner":"53919301@N06","secret":"c7c67a53ba","server":"65535","farm":66,"title":"Baltimoretrupial (Icterus galbula)","ispublic":1,"isfriend":0,"isfamily":0},{"id":"52568805615","owner":"53919301@N06","secret":"792c69b81d","server":"65535","farm":66,"title":"Baltimoretrupial (Icterus galbula)","ispublic":1,"isfriend":0,"isfamily":0},{"id":"52546427651","owner":"45445559@N04","secret":"5be7107c74","server":"65535","farm":66,"title":"Baltimore Oriole Female","ispublic":1,"isfriend":0,"isfamily":0},{"id":"52541157128","owner":"97599611@N04","secret":"d0f8cebfb4","server":"65535","farm":66,"title":"0P7A1657   Baltimore Oriole, Canada","ispublic":1,"isfriend":0,"isfamily":0},{"id":"52540327334","owner":"121644485@N06","secret":"dd0fc74af5","server":"65535","farm":66,"title":"Baltimore Oriole","ispublic":1,"isfriend":0,"isfamily":0},{"id":"52535302328","owner":"33610210@N05","secret":"a99eaebc10","server":"65535","farm":66,"title":"Baltimore Oriole, Icterus galbula","ispublic":1,"isfriend":0,"isfamily":0},{"id":"52535043979","owner":"33610210@N05","secret":"07f20c05a5","server":"65535","farm":66,"title":"Baltimore Oriole, Icterus galbula","ispublic":1,"isfriend":0,"isfamily":0},{"id":"52535302233","owner":"33610210@N05","secret":"096c67c7a5","server":"65535","farm":66,"title":"Baltimore Oriole, Icterus galbula","ispublic":1,"isfriend":0,"isfamily":0},{"id":"52534761996","owner":"33610210@N05","secret":"bda2903339","server":"65535","farm":66,"title":"Baltimore Oriole, Icterus galbula","ispublic":1,"isfriend":0,"isfamily":0},{"id":"52535235415","owner":"33610210@N05","secret":"ed877766f9","server":"65535","farm":66,"title":"Baltimore Oriole, Icterus galbula","ispublic":1,"isfriend":0,"isfamily":0},{"id":"52535235235","owner":"33610210@N05","secret":"60144af832","server":"65535","farm":66,"title":"Baltimore Oriole, Icterus galbula","ispublic":1,"isfriend":0,"isfamily":0},{"id":"52535235175","owner":"33610210@N05","secret":"ed1c144fdc","server":"65535","farm":66,"title":"Baltimore Oriole, Icterus galbula","ispublic":1,"isfriend":0,"isfamily":0},{"id":"52534761621","owner":"33610210@N05","secret":"cb41b1cb77","server":"65535","farm":66,"title":"Baltimore Oriole, Icterus galbula (9)","ispublic":1,"isfriend":0,"isfamily":0},{"id":"52535233535","owner":"33610210@N05","secret":"8ee7cccf2c","server":"65535","farm":66,"title":"Baltimore Oriole, Icterus galbula","ispublic":1,"isfriend":0,"isfamily":0},{"id":"52533190155","owner":"33610210@N05","secret":"d575d39e1f","server":"65535","farm":66,"title":"Baltimore Oriole, Icterus galbula","ispublic":1,"isfriend":0,"isfamily":0},{"id":"52532997864","owner":"33610210@N05","secret":"516db6d182","server":"65535","farm":66,"title":"Baltimore Oriole, Icterus galbula","ispublic":1,"isfriend":0,"isfamily":0},{"id":"52533257728","owner":"33610210@N05","secret":"b101d0e6fe","server":"65535","farm":66,"title":"Baltimore Oriole, Icterus galbula","ispublic":1,"isfriend":0,"isfamily":0},{"id":"52532989129","owner":"33610210@N05","secret":"54eeb5a925","server":"65535","farm":66,"title":"Baltimore Oriole, Icterus galbula","ispublic":1,"isfriend":0,"isfamily":0},{"id":"52530848876","owner":"103263246@N06","secret":"7bb318e5ff","server":"65535","farm":66,"title":"Icterus galbula. Bolsero Norte\u00f1o, Cacique Veranero, Cacic\u00f3n, Naranjero. Baltimore Oriole","ispublic":1,"isfriend":0,"isfamily":0},{"id":"52524264639","owner":"103263246@N06","secret":"f6071f5b0d","server":"65535","farm":66,"title":"Icterus galbula. Bolsero Norte\u00f1o, Cacique Veranero, Cacic\u00f3n, Naranjero. Baltimore Oriole","ispublic":1,"isfriend":0,"isfamily":0},{"id":"52509482994","owner":"103263246@N06","secret":"268d719bb6","server":"65535","farm":66,"title":"Icterus galbula","ispublic":1,"isfriend":0,"isfamily":0},{"id":"52508717642","owner":"103263246@N06","secret":"1ecb6baf72","server":"65535","farm":66,"title":"Icterus galbula","ispublic":1,"isfriend":0,"isfamily":0},{"id":"52509198281","owner":"103263246@N06","secret":"4e135f275f","server":"65535","farm":66,"title":"Icterus galbula","ispublic":1,"isfriend":0,"isfamily":0},{"id":"52509470204","owner":"103263246@N06","secret":"a07fd2a846","server":"65535","farm":66,"title":"Icterus galbula","ispublic":1,"isfriend":0,"isfamily":0},{"id":"52509741818","owner":"103263246@N06","secret":"1985f37aae","server":"65535","farm":66,"title":"Icterus galbula","ispublic":1,"isfriend":0,"isfamily":0},{"id":"52509675660","owner":"103263246@N06","secret":"718d5afb30","server":"65535","farm":66,"title":"Icterus galbula","ispublic":1,"isfriend":0,"isfamily":0},{"id":"52496073725","owner":"36274920@N05","secret":"01450be7a5","server":"65535","farm":66,"title":"Panam\u00e1 - Novembre 2022","ispublic":1,"isfriend":0,"isfamily":0},{"id":"52489814627","owner":"196567058@N02","secret":"02d0c2cd3c","server":"65535","farm":66,"title":"Icterus galbula - Turpial de Baltimore","ispublic":1,"isfriend":0,"isfamily":0},{"id":"52488706742","owner":"76617062@N08","secret":"94f02d6a2c","server":"65535","farm":66,"title":"1.30424 Oriole de Baltimore \/ Icterus galbula \/ Baltimore Oriole","ispublic":1,"isfriend":0,"isfamily":0},{"id":"52485048697","owner":"95795254@N02","secret":"24ee0bfcb4","server":"65535","farm":66,"title":"Baltimore Oriole 503_8096.jpg","ispublic":1,"isfriend":0,"isfamily":0},{"id":"52483867857","owner":"45340210@N05","secret":"52e2f32d98","server":"65535","farm":66,"title":"Baltimore Oriole 1 11_7_22","ispublic":1,"isfriend":0,"isfamily":0},{"id":"52480266363","owner":"76617062@N08","secret":"40a0f6bef0","server":"65535","farm":66,"title":"1.30424 Oriole de Baltimore \/ Icterus galbula \/ Baltimore Oriole","ispublic":1,"isfriend":0,"isfamily":0},{"id":"52476824865","owner":"76617062@N08","secret":"178a8dc4d1","server":"65535","farm":66,"title":"1.30424 Oriole de Baltimore \/ Icterus galbula \/ Baltimore Oriole","ispublic":1,"isfriend":0,"isfamily":0},{"id":"52645589996","owner":"8013969@N03","secret":"8cfab2b512","server":"65535","farm":66,"title":"Icterus galbula DFL btr22-6","ispublic":1,"isfriend":0,"isfamily":0},{"id":"52645840824","owner":"8013969@N03","secret":"f735c2361c","server":"65535","farm":66,"title":"Icterus galbula DFL btr22-7","ispublic":1,"isfriend":0,"isfamily":0},{"id":"52643388121","owner":"8013969@N03","secret":"52b3ac44a2","server":"65535","farm":66,"title":"Icterus galbula DFL btr22-5","ispublic":1,"isfriend":0,"isfamily":0},{"id":"52633429367","owner":"39445433@N02","secret":"31ca6b8283","server":"65535","farm":66,"title":"Baltimore Oriole","ispublic":1,"isfriend":0,"isfamily":0},{"id":"52580601069","owner":"153973412@N04","secret":"836cf4e6cf","server":"65535","farm":66,"title":"Baltimore Oriole-Icterus galbula, North English, IA","ispublic":1,"isfriend":0,"isfamily":0},{"id":"52553928768","owner":"62759448@N05","secret":"773277c356","server":"65535","farm":66,"title":"Bullock's \u00d7 Baltimore Oriole Icterus bullockii \u00d7 galbula","ispublic":1,"isfriend":0,"isfamily":0},{"id":"52553863785","owner":"62759448@N05","secret":"8c98b766cc","server":"65535","farm":66,"title":"Bullock's \u00d7 Baltimore Oriole Icterus bullockii \u00d7 galbula","ispublic":1,"isfriend":0,"isfamily":0},{"id":"52552932787","owner":"62759448@N05","secret":"ab314fe5fa","server":"65535","farm":66,"title":"Bullock's \u00d7 Baltimore Oriole Icterus bullockii \u00d7 galbula","ispublic":1,"isfriend":0,"isfamily":0},{"id":"52552932752","owner":"62759448@N05","secret":"3674a4c689","server":"65535","farm":66,"title":"Bullock's \u00d7 Baltimore Oriole Icterus bullockii \u00d7 galbula","ispublic":1,"isfriend":0,"isfamily":0},{"id":"52553863705","owner":"62759448@N05","secret":"b57a8b965a","server":"65535","farm":66,"title":"Bullock's \u00d7 Baltimore Oriole Icterus bullockii \u00d7 galbula","ispublic":1,"isfriend":0,"isfamily":0},{"id":"52553392711","owner":"62759448@N05","secret":"9ca8274efc","server":"65535","farm":66,"title":"Bullock's \u00d7 Baltimore Oriole Icterus bullockii \u00d7 galbula","ispublic":1,"isfriend":0,"isfamily":0},{"id":"52541846844","owner":"48938938@N04","secret":"60ccf5bb13","server":"65535","farm":66,"title":"Baltimore Oriole_Icterus galbula_Ascanio_Costa Rica_DZ3A6272","ispublic":1,"isfriend":0,"isfamily":0},{"id":"52534761671","owner":"33610210@N05","secret":"23ebe063ea","server":"65535","farm":66,"title":"Baltimore Oriole, Icterus galbula (8)","ispublic":1,"isfriend":0,"isfamily":0},{"id":"52509472024","owner":"103263246@N06","secret":"2f1c0d9aaa","server":"65535","farm":66,"title":"Icterus galbula","ispublic":1,"isfriend":0,"isfamily":0},{"id":"52509470439","owner":"103263246@N06","secret":"e48bbdc9e1","server":"65535","farm":66,"title":"Icterus galbula","ispublic":1,"isfriend":0,"isfamily":0},{"id":"52505907898","owner":"29882791@N02","secret":"da1e842611","server":"65535","farm":66,"title":"Icteridae - Icterus galbula","ispublic":1,"isfriend":0,"isfamily":0},{"id":"52475574953","owner":"184155060@N04","secret":"4d6882bc49","server":"65535","farm":66,"title":"32492 Oriole de Baltimore (m\u00e2le) \/ Icterus galbula \/ Baltimore Oriole","ispublic":1,"isfriend":0,"isfamily":0}]},"stat":"ok"}