{"photos":{"page":1,"pages":94,"perpage":100,"total":9348,"photo":[{"id":"52717209261","owner":"186915896@N05","secret":"5cd4066604","server":"65535","farm":66,"title":"Oeverzwaluw (Sand Martin, Uferschwalbe, Avi\u00f3n Zapador, Riparia riparia)","ispublic":1,"isfriend":0,"isfamily":0},{"id":"52693974145","owner":"134727273@N06","secret":"6cfd1f5963","server":"65535","farm":66,"title":"\u30b7\u30aa\u30c7\/Smilax riparia","ispublic":1,"isfriend":0,"isfamily":0},{"id":"52692815971","owner":"194432698@N02","secret":"127b39b0b7","server":"65535","farm":66,"title":"21HAUGOrkney725","ispublic":1,"isfriend":0,"isfamily":0},{"id":"52693082589","owner":"194432698@N02","secret":"9bf45515d3","server":"65535","farm":66,"title":"21HAUGOrkney726","ispublic":1,"isfriend":0,"isfamily":0},{"id":"52681993009","owner":"75568546@N03","secret":"e5a2590661","server":"65535","farm":66,"title":"9Q8A2689  Bois foufou (Palicourea riparia)-SharpenAI-Focus","ispublic":1,"isfriend":0,"isfamily":0},{"id":"52677538847","owner":"40595990@N06","secret":"dc1691a4c6","server":"65535","farm":66,"title":"Iboza riparia  \u30d5\u30d5\u3099\u30ad\u30cf\u3099\u30ca","ispublic":1,"isfriend":0,"isfamily":0},{"id":"52671224808","owner":"58828131@N07","secret":"c9549ae5c0","server":"65535","farm":66,"title":"Cryptocarya triplinervis ssp riparia, Clifton Beach, Cairns, QLD, 28\/12\/22","ispublic":1,"isfriend":0,"isfamily":0},{"id":"52671158320","owner":"58828131@N07","secret":"079f589f0a","server":"65535","farm":66,"title":"Cryptocarya triplinervis ssp riparia, Clifton Beach, Cairns, QLD, 28\/12\/22","ispublic":1,"isfriend":0,"isfamily":0},{"id":"52671015339","owner":"58828131@N07","secret":"a0b376b9ee","server":"65535","farm":66,"title":"Cryptocarya triplinervis ssp riparia, Clifton Beach, Cairns, QLD, 28\/12\/22","ispublic":1,"isfriend":0,"isfamily":0},{"id":"52670722851","owner":"58828131@N07","secret":"b5e7e578c1","server":"65535","farm":66,"title":"Cryptocarya triplinervis ssp riparia, Clifton Beach, Cairns, QLD, 28\/12\/22","ispublic":1,"isfriend":0,"isfamily":0},{"id":"52671015214","owner":"58828131@N07","secret":"ff6aeac766","server":"65535","farm":66,"title":"Cryptocarya triplinervis ssp riparia, Clifton Beach, Cairns, QLD, 28\/12\/22","ispublic":1,"isfriend":0,"isfamily":0},{"id":"52667815149","owner":"28511931@N07","secret":"85740e449d","server":"65535","farm":66,"title":"Grape Leaves","ispublic":1,"isfriend":0,"isfamily":0},{"id":"52665797372","owner":"150142984@N02","secret":"c555984477","server":"65535","farm":66,"title":"Uferschwalbe (Riparia riparia)","ispublic":1,"isfriend":0,"isfamily":0},{"id":"52660190662","owner":"28511931@N07","secret":"9f8e4cf6cc","server":"65535","farm":66,"title":"Vitaceae Fruit Comparison","ispublic":1,"isfriend":0,"isfamily":0},{"id":"52653858926","owner":"150142984@N02","secret":"255728de1f","server":"65535","farm":66,"title":"Uferschwalbe (Riparia riparia)","ispublic":1,"isfriend":0,"isfamily":0},{"id":"52654294680","owner":"150142984@N02","secret":"2ffd39b6c7","server":"65535","farm":66,"title":"Uferschwalbe (Riparia riparia)","ispublic":1,"isfriend":0,"isfamily":0},{"id":"52654144073","owner":"58828131@N07","secret":"ecd193f29c","server":"65535","farm":66,"title":"Cryptocarya triplinervis var riparia, Spring Ck, Mowbray, south of Port Douglas, QLD, 16\/11\/22","ispublic":1,"isfriend":0,"isfamily":0},{"id":"52654144038","owner":"58828131@N07","secret":"01819341cf","server":"65535","farm":66,"title":"Cryptocarya triplinervis var riparia, Spring Ck, Mowbray, south of Port Douglas, QLD, 16\/11\/22","ispublic":1,"isfriend":0,"isfamily":0},{"id":"52654144013","owner":"58828131@N07","secret":"ce2d8567be","server":"65535","farm":66,"title":"Cryptocarya triplinervis var riparia, Spring Ck, Mowbray, south of Port Douglas, QLD, 16\/11\/22","ispublic":1,"isfriend":0,"isfamily":0},{"id":"52639399992","owner":"140734051@N08","secret":"feb036f645","server":"65535","farm":66,"title":"\u0411\u043b\u0435\u0434\u043d\u0430\u044f \u0431\u0435\u0440\u0435\u0433\u043e\u0432\u0443\u0448\u043a\u0430, Riparia diluta gavrilovi, Pale Martin","ispublic":1,"isfriend":0,"isfamily":0},{"id":"52640350660","owner":"140734051@N08","secret":"02cefede27","server":"65535","farm":66,"title":"\u0411\u043b\u0435\u0434\u043d\u0430\u044f \u0431\u0435\u0440\u0435\u0433\u043e\u0432\u0443\u0448\u043a\u0430, Riparia diluta gavrilovi, Pale Martin","ispublic":1,"isfriend":0,"isfamily":0},{"id":"52640170079","owner":"140734051@N08","secret":"a6e450bcc7","server":"65535","farm":66,"title":"\u0411\u043b\u0435\u0434\u043d\u0430\u044f \u0431\u0435\u0440\u0435\u0433\u043e\u0432\u0443\u0448\u043a\u0430, Riparia diluta gavrilovi, Pale Martin","ispublic":1,"isfriend":0,"isfamily":0},{"id":"52633737933","owner":"87297882@N03","secret":"626426d0d5","server":"65535","farm":66,"title":"Vitis riparia, Ruck Dam, Cedarburg","ispublic":1,"isfriend":0,"isfamily":0},{"id":"52623167751","owner":"126693179@N03","secret":"126ca51748","server":"65535","farm":66,"title":"Andorinha-das-barreiras","ispublic":1,"isfriend":0,"isfamily":0},{"id":"52620433173","owner":"56339362@N03","secret":"7229bda7f1","server":"65535","farm":66,"title":"Cuatresia riparia (Kunth) Hunz.","ispublic":1,"isfriend":0,"isfamily":0},{"id":"52606913419","owner":"193737952@N06","secret":"06ded7bc2c","server":"65535","farm":66,"title":"Carex riparia","ispublic":1,"isfriend":0,"isfamily":0},{"id":"52594694642","owner":"31350467@N04","secret":"62d7544460","server":"65535","farm":66,"title":"Crinia riparia","ispublic":1,"isfriend":0,"isfamily":0},{"id":"52587914585","owner":"116506012@N02","secret":"b875169cf8","server":"65535","farm":66,"title":"20190519-Digesvale","ispublic":1,"isfriend":0,"isfamily":0},{"id":"52573091473","owner":"95795254@N02","secret":"1bb3928094","server":"65535","farm":66,"title":"Sand Martin 503_4508.jpg","ispublic":1,"isfriend":0,"isfamily":0},{"id":"52568394118","owner":"68719206@N06","secret":"43f10a1409","server":"65535","farm":66,"title":"PA270559","ispublic":1,"isfriend":0,"isfamily":0},{"id":"52565017643","owner":"26944841@N02","secret":"38281686b3","server":"65535","farm":66,"title":"Carex riparia","ispublic":1,"isfriend":0,"isfamily":0},{"id":"52564027757","owner":"26944841@N02","secret":"814f35e5c5","server":"65535","farm":66,"title":"Carex riparia","ispublic":1,"isfriend":0,"isfamily":0},{"id":"52564027582","owner":"26944841@N02","secret":"89f1a7da54","server":"65535","farm":66,"title":"Carex riparia","ispublic":1,"isfriend":0,"isfamily":0},{"id":"52564486761","owner":"26944841@N02","secret":"938a71da36","server":"65535","farm":66,"title":"Carex riparia","ispublic":1,"isfriend":0,"isfamily":0},{"id":"52564322593","owner":"95482238@N02","secret":"268aff2e0f","server":"65535","farm":66,"title":"bank swallow - Killarney National Park, Ireland","ispublic":1,"isfriend":0,"isfamily":0},{"id":"52564071239","owner":"95482238@N02","secret":"761f22a666","server":"65535","farm":66,"title":"bank swallow - Killarney National Park, Ireland","ispublic":1,"isfriend":0,"isfamily":0},{"id":"52556489712","owner":"181980422@N05","secret":"2f2e698c5f","server":"65535","farm":66,"title":"Andorinha-das-barreiras, European Sand Martin, (Bank Swallow)","ispublic":1,"isfriend":0,"isfamily":0},{"id":"52555468168","owner":"135570747@N04","secret":"fe8515f1c3","server":"65535","farm":66,"title":"Oeverzwaluw - Sand Martin - Riparia riparia","ispublic":1,"isfriend":0,"isfamily":0},{"id":"52548638574","owner":"43272765@N04","secret":"9356588aca","server":"0","farm":0,"title":"Sand Martin (Riparia riparia) nesting","ispublic":1,"isfriend":0,"isfamily":0},{"id":"52548639904","owner":"43272765@N04","secret":"41c7487479","server":"65535","farm":66,"title":"Sand Martin (Riparia riparia) nesting","ispublic":1,"isfriend":0,"isfamily":0},{"id":"52546653056","owner":"94154730@N05","secret":"a630512611","server":"65535","farm":66,"title":"Sand Martins","ispublic":1,"isfriend":0,"isfamily":0},{"id":"52546188592","owner":"94154730@N05","secret":"faa9ae0976","server":"65535","farm":66,"title":"Sand Martin.","ispublic":1,"isfriend":0,"isfamily":0},{"id":"52547198528","owner":"94154730@N05","secret":"863ff928c2","server":"65535","farm":66,"title":"Sand Martin.","ispublic":1,"isfriend":0,"isfamily":0},{"id":"52543189091","owner":"61897811@N00","secret":"70970d5dfd","server":"65535","farm":66,"title":"Iboza (Tetradenia riparia)","ispublic":1,"isfriend":0,"isfamily":0},{"id":"52539336979","owner":"12639178@N07","secret":"9ee0d592e2","server":"65535","farm":66,"title":"Uferschwalben","ispublic":1,"isfriend":0,"isfamily":0},{"id":"52539042776","owner":"12639178@N07","secret":"953ba557c1","server":"65535","farm":66,"title":"Uferschwalben","ispublic":1,"isfriend":0,"isfamily":0},{"id":"52539592368","owner":"12639178@N07","secret":"22e9d4ddda","server":"65535","farm":66,"title":"Uferschwalben","ispublic":1,"isfriend":0,"isfamily":0},{"id":"52530692220","owner":"150142984@N02","secret":"a30f7c59d3","server":"65535","farm":66,"title":"Uferschwalbe (Riparia riparia)","ispublic":1,"isfriend":0,"isfamily":0},{"id":"52530216366","owner":"150142984@N02","secret":"9458a4deed","server":"65535","farm":66,"title":"Uferschwalbe (Riparia riparia)","ispublic":1,"isfriend":0,"isfamily":0},{"id":"52518170880","owner":"7436218@N03","secret":"7a403268fc","server":"65535","farm":66,"title":"Dawn Redwood @ Music Building - Deciduous Mode","ispublic":1,"isfriend":0,"isfamily":0},{"id":"52510746036","owner":"131608149@N02","secret":"95da2b2a6a","server":"65535","farm":66,"title":"Caper White butterfly","ispublic":1,"isfriend":0,"isfamily":0},{"id":"52476164331","owner":"130708126@N02","secret":"3b6212a025","server":"65535","farm":66,"title":"Hirondelle de rivage (Riparia riparia)-3.jpg","ispublic":1,"isfriend":0,"isfamily":0},{"id":"52476164276","owner":"130708126@N02","secret":"ce6329cc93","server":"65535","farm":66,"title":"Hirondelle de rivage (Riparia riparia)-2.jpg","ispublic":1,"isfriend":0,"isfamily":0},{"id":"52476164211","owner":"130708126@N02","secret":"d7b0eb3814","server":"65535","farm":66,"title":"Hirondelle de rivage (Riparia riparia).jpg","ispublic":1,"isfriend":0,"isfamily":0},{"id":"52473047150","owner":"12639178@N07","secret":"8b7ddaa0b4","server":"65535","farm":66,"title":"Verlassene Bruth\u00f6hlen Uferschwalbe","ispublic":1,"isfriend":0,"isfamily":0},{"id":"52468638085","owner":"83439292@N07","secret":"afc40336a2","server":"65535","farm":66,"title":"Juvenile Sand Martin ( riparia  riparia ) - Getting ready for the off !!","ispublic":1,"isfriend":0,"isfamily":0},{"id":"52467759888","owner":"24608578@N00","secret":"404cb4a77d","server":"65535","farm":66,"title":"Bank swallows (Riparia riparia)","ispublic":1,"isfriend":0,"isfamily":0},{"id":"52467759823","owner":"24608578@N00","secret":"ffbb079239","server":"65535","farm":66,"title":"Bank swallows (Riparia riparia)","ispublic":1,"isfriend":0,"isfamily":0},{"id":"52467208366","owner":"24608578@N00","secret":"faacd4e970","server":"65535","farm":66,"title":"Bank swallow (Riparia riparia)","ispublic":1,"isfriend":0,"isfamily":0},{"id":"52466253641","owner":"49930625@N04","secret":"6fa4157227","server":"65535","farm":66,"title":"Hibbertia riparia","ispublic":1,"isfriend":0,"isfamily":0},{"id":"52465754267","owner":"49930625@N04","secret":"e0df45e981","server":"65535","farm":66,"title":"Hibbertia riparia","ispublic":1,"isfriend":0,"isfamily":0},{"id":"52465754137","owner":"49930625@N04","secret":"3ef1cb7ca6","server":"65535","farm":66,"title":"Hibbertia riparia","ispublic":1,"isfriend":0,"isfamily":0},{"id":"52465750987","owner":"49930625@N04","secret":"129ca38000","server":"65535","farm":66,"title":"Hibbertia riparia","ispublic":1,"isfriend":0,"isfamily":0},{"id":"52465750442","owner":"49930625@N04","secret":"25050c6b79","server":"65535","farm":66,"title":"Hibbertia riparia","ispublic":1,"isfriend":0,"isfamily":0},{"id":"52466531039","owner":"49930625@N04","secret":"7a859a4c9c","server":"65535","farm":66,"title":"Hibbertia riparia","ispublic":1,"isfriend":0,"isfamily":0},{"id":"52458244910","owner":"149330876@N08","secret":"6868374d46","server":"65535","farm":66,"title":"Heliozela aesella","ispublic":1,"isfriend":0,"isfamily":0},{"id":"52640350700","owner":"140734051@N08","secret":"238cd6bd5a","server":"65535","farm":66,"title":"\u0411\u043b\u0435\u0434\u043d\u0430\u044f \u0431\u0435\u0440\u0435\u0433\u043e\u0432\u0443\u0448\u043a\u0430, Riparia diluta gavrilovi, Pale Martin","ispublic":1,"isfriend":0,"isfamily":0},{"id":"52640170134","owner":"140734051@N08","secret":"271ac0090d","server":"65535","farm":66,"title":"\u0411\u043b\u0435\u0434\u043d\u0430\u044f \u0431\u0435\u0440\u0435\u0433\u043e\u0432\u0443\u0448\u043a\u0430, Riparia diluta gavrilovi, Pale Martin","ispublic":1,"isfriend":0,"isfamily":0},{"id":"52639399937","owner":"140734051@N08","secret":"9ff18b6296","server":"65535","farm":66,"title":"\u0411\u043b\u0435\u0434\u043d\u0430\u044f \u0431\u0435\u0440\u0435\u0433\u043e\u0432\u0443\u0448\u043a\u0430, Riparia diluta gavrilovi, Pale Martin","ispublic":1,"isfriend":0,"isfamily":0},{"id":"52640170119","owner":"140734051@N08","secret":"293dca2450","server":"65535","farm":66,"title":"\u0411\u043b\u0435\u0434\u043d\u0430\u044f \u0431\u0435\u0440\u0435\u0433\u043e\u0432\u0443\u0448\u043a\u0430, Riparia diluta gavrilovi, Pale Martin","ispublic":1,"isfriend":0,"isfamily":0},{"id":"52640388508","owner":"140734051@N08","secret":"1016f2501e","server":"65535","farm":66,"title":"\u0411\u043b\u0435\u0434\u043d\u0430\u044f \u0431\u0435\u0440\u0435\u0433\u043e\u0432\u0443\u0448\u043a\u0430, Riparia diluta gavrilovi, Pale Martin","ispublic":1,"isfriend":0,"isfamily":0},{"id":"52639286123","owner":"183840266@N08","secret":"46eda2cfbb","server":"65535","farm":66,"title":"Asian Plain Martin (Riparia chinensis tantilla)","ispublic":1,"isfriend":0,"isfamily":0},{"id":"52639286078","owner":"183840266@N08","secret":"5131c3ef38","server":"65535","farm":66,"title":"Asian Plain Martin (Riparia chinensis tantilla)","ispublic":1,"isfriend":0,"isfamily":0},{"id":"52639286043","owner":"183840266@N08","secret":"3706507c70","server":"65535","farm":66,"title":"Asian Plain Martin (Riparia chinensis tantilla)","ispublic":1,"isfriend":0,"isfamily":0},{"id":"52619981431","owner":"56339362@N03","secret":"f272d73d31","server":"65535","farm":66,"title":"Cuatresia riparia (Kunth) Hunz.","ispublic":1,"isfriend":0,"isfamily":0},{"id":"52620458993","owner":"56339362@N03","secret":"69c141dc57","server":"65535","farm":66,"title":"Cuatresia riparia (Kunth) Hunz.","ispublic":1,"isfriend":0,"isfamily":0},{"id":"52620240814","owner":"56339362@N03","secret":"7d9abdbf26","server":"65535","farm":66,"title":"Cuatresia riparia (Kunth) Hunz.","ispublic":1,"isfriend":0,"isfamily":0},{"id":"52620220719","owner":"56339362@N03","secret":"d2e14047ed","server":"65535","farm":66,"title":"Cuatresia riparia (Kunth) Hunz.","ispublic":1,"isfriend":0,"isfamily":0},{"id":"52620390390","owner":"56339362@N03","secret":"9351cde60c","server":"65535","farm":66,"title":"Cuatresia riparia (Kunth) Hunz.","ispublic":1,"isfriend":0,"isfamily":0},{"id":"52620387580","owner":"56339362@N03","secret":"06975441e9","server":"65535","farm":66,"title":"Cuatresia riparia (Kunth) Hunz.","ispublic":1,"isfriend":0,"isfamily":0},{"id":"52620434033","owner":"56339362@N03","secret":"4378486d98","server":"65535","farm":66,"title":"Cuatresia riparia (Kunth) Hunz.","ispublic":1,"isfriend":0,"isfamily":0},{"id":"52619952186","owner":"56339362@N03","secret":"4fb3c19b04","server":"65535","farm":66,"title":"Cuatresia riparia (Kunth) Hunz.","ispublic":1,"isfriend":0,"isfamily":0},{"id":"52619951636","owner":"56339362@N03","secret":"20dd35a614","server":"65535","farm":66,"title":"Cuatresia riparia (Kunth) Hunz.","ispublic":1,"isfriend":0,"isfamily":0},{"id":"52620213594","owner":"56339362@N03","secret":"f162d81803","server":"65535","farm":66,"title":"Cuatresia riparia (Kunth) Hunz.","ispublic":1,"isfriend":0,"isfamily":0},{"id":"52607077670","owner":"193737952@N06","secret":"5bf47ffa88","server":"65535","farm":66,"title":"Carex riparia","ispublic":1,"isfriend":0,"isfamily":0},{"id":"52579869607","owner":"153973412@N04","secret":"973cf62afb","server":"65535","farm":66,"title":"Bank Swallow-Riparia riparia, Iowa City, IA","ispublic":1,"isfriend":0,"isfamily":0},{"id":"52578333650","owner":"12639178@N07","secret":"929a8cf2fc","server":"65535","farm":66,"title":"Riparia riparia, Uferschwalbe","ispublic":1,"isfriend":0,"isfamily":0},{"id":"52563027610","owner":"12639178@N07","secret":"67838d4af6","server":"65535","farm":66,"title":"Carex riparia, 210501","ispublic":1,"isfriend":0,"isfamily":0},{"id":"52534450585","owner":"71989271@N06","secret":"f3664ddba7","server":"65535","farm":66,"title":"Riverbank Grape (Vitis riparia)","ispublic":1,"isfriend":0,"isfamily":0},{"id":"52533505237","owner":"71989271@N06","secret":"08a191bc0e","server":"65535","farm":66,"title":"Riverbank Grape (Vitis riparia)","ispublic":1,"isfriend":0,"isfamily":0},{"id":"52527989850","owner":"12639178@N07","secret":"718be19cbc","server":"65535","farm":66,"title":"Sandohrwurm (Labidura riparia)","ispublic":1,"isfriend":0,"isfamily":0},{"id":"52512269460","owner":"12639178@N07","secret":"62a77fde5d","server":"65535","farm":66,"title":"Futtersuchend und f\u00fctternde Uferschwalben an mehreren Tagen im August","ispublic":1,"isfriend":0,"isfamily":0},{"id":"52507672908","owner":"12639178@N07","secret":"78d38e7f62","server":"65535","farm":66,"title":"Brutwand\/ Brutr\u00f6hren der Uferschwalben","ispublic":1,"isfriend":0,"isfamily":0},{"id":"52499991625","owner":"12639178@N07","secret":"e77e8c598d","server":"65535","farm":66,"title":"Uferseeschwalben im Garten beim Futter\/Insekten fangend und Ihre Jungen f\u00fct","ispublic":1,"isfriend":0,"isfamily":0},{"id":"52493734808","owner":"59539587@N02","secret":"5c0e6af310","server":"65535","farm":66,"title":"T\u00f6rm\u00e4p\u00e4\u00e4sky nousee","ispublic":1,"isfriend":0,"isfamily":0},{"id":"52476483211","owner":"129081014@N03","secret":"b2e0653a37","server":"65535","farm":66,"title":"Common Sand Martin (juveniles) (Riparia riparia)","ispublic":1,"isfriend":0,"isfamily":0},{"id":"52441748192","owner":"58828131@N07","secret":"75a2090860","server":"65535","farm":66,"title":"Cryptocaria triplinervis ssp riparia, near Buchans Pt Beach, Cairns, 21\/08\/22","ispublic":1,"isfriend":0,"isfamily":0},{"id":"52442778538","owner":"58828131@N07","secret":"f9076511f5","server":"65535","farm":66,"title":"Cryptocaria triplinervis ssp riparia, near Buchans Pt Beach, Cairns, 21\/08\/22","ispublic":1,"isfriend":0,"isfamily":0},{"id":"52442529319","owner":"58828131@N07","secret":"c97a59f63f","server":"65535","farm":66,"title":"Cryptocaria triplinervis ssp riparia, near Buchans Pt Beach, Cairns, 21\/08\/22","ispublic":1,"isfriend":0,"isfamily":0},{"id":"52442263465","owner":"194071409@N05","secret":"e21f8644f3","server":"65535","farm":66,"title":"Carex riparia Curtis, 1783","ispublic":1,"isfriend":0,"isfamily":0}]},"stat":"ok"}