{"photos":{"page":1,"pages":254,"perpage":100,"total":25324,"photo":[{"id":"52723804673","owner":"62331146@N03","secret":"1c65a415bc","server":"65535","farm":66,"title":"Barn Owl Tyto alba","ispublic":1,"isfriend":0,"isfamily":0},{"id":"52723585799","owner":"62331146@N03","secret":"08538214a5","server":"65535","farm":66,"title":"Barn Owl Tyto alba","ispublic":1,"isfriend":0,"isfamily":0},{"id":"52722332607","owner":"112292182@N02","secret":"ddccbf2787","server":"65535","farm":66,"title":"Barn Owl","ispublic":1,"isfriend":0,"isfamily":0},{"id":"52720142073","owner":"195066471@N02","secret":"c7c560aacb","server":"65535","farm":66,"title":"Barn owl","ispublic":1,"isfriend":0,"isfamily":0},{"id":"52720050083","owner":"43499552@N03","secret":"8e03c425a5","server":"65535","farm":66,"title":"Barn owl - Tyto alba","ispublic":1,"isfriend":0,"isfamily":0},{"id":"52718925992","owner":"143676854@N08","secret":"8055d44677","server":"65535","farm":66,"title":"Barn owl (Tyto alba) UB2A7807","ispublic":1,"isfriend":0,"isfamily":0},{"id":"52719121121","owner":"126190697@N04","secret":"601171c0b8","server":"65535","farm":66,"title":"Barn Owl (tyto alba)","ispublic":1,"isfriend":0,"isfamily":0},{"id":"52719121151","owner":"126190697@N04","secret":"f70b8f877a","server":"65535","farm":66,"title":"Barn Owl (tyto alba) in flight","ispublic":1,"isfriend":0,"isfamily":0},{"id":"52717313854","owner":"43499552@N03","secret":"4019ba3b31","server":"65535","farm":66,"title":"Barn Owl- Tyto alba","ispublic":1,"isfriend":0,"isfamily":0},{"id":"52715870864","owner":"7413414@N02","secret":"f9131ff91e","server":"65535","farm":66,"title":"Low wing loading","ispublic":1,"isfriend":0,"isfamily":0},{"id":"52715364494","owner":"41636102@N07","secret":"707f8f9c13","server":"65535","farm":66,"title":"Barn Owl","ispublic":1,"isfriend":0,"isfamily":0},{"id":"52715517270","owner":"75992994@N05","secret":"ffb70b1213","server":"65535","farm":66,"title":"A real beauty","ispublic":1,"isfriend":0,"isfamily":0},{"id":"52715569588","owner":"75992994@N05","secret":"8000e86e9b","server":"65535","farm":66,"title":"Silent Assassin","ispublic":1,"isfriend":0,"isfamily":0},{"id":"52715091806","owner":"75992994@N05","secret":"0cefc9b01a","server":"65535","farm":66,"title":"Barn Owl","ispublic":1,"isfriend":0,"isfamily":0},{"id":"52714102492","owner":"168871875@N07","secret":"68ff59bd01","server":"65535","farm":66,"title":"Barn Owl","ispublic":1,"isfriend":0,"isfamily":0},{"id":"52713447583","owner":"35221756@N02","secret":"86dafba683","server":"65535","farm":66,"title":"Barn Owl","ispublic":1,"isfriend":0,"isfamily":0},{"id":"52712719029","owner":"21606110@N08","secret":"17b1e7d5c9","server":"65535","farm":66,"title":"Barn Owl","ispublic":1,"isfriend":0,"isfamily":0},{"id":"52711501018","owner":"79722430@N04","secret":"e19ec6b117","server":"65535","farm":66,"title":"Barn owl (Tyto alba)","ispublic":1,"isfriend":0,"isfamily":0},{"id":"52711439105","owner":"79722430@N04","secret":"70edc9db04","server":"65535","farm":66,"title":"Barn owl (Tyto alba)","ispublic":1,"isfriend":0,"isfamily":0},{"id":"52711283174","owner":"79722430@N04","secret":"7dc29b1746","server":"65535","farm":66,"title":"Barn owl (Tyto alba)","ispublic":1,"isfriend":0,"isfamily":0},{"id":"52711022481","owner":"79722430@N04","secret":"c18f4ce6ba","server":"65535","farm":66,"title":"Barn owl (Tyto alba)","ispublic":1,"isfriend":0,"isfamily":0},{"id":"52711022506","owner":"79722430@N04","secret":"01a479d408","server":"65535","farm":66,"title":"Barn owl (Tyto alba)","ispublic":1,"isfriend":0,"isfamily":0},{"id":"52711283084","owner":"79722430@N04","secret":"72be241478","server":"65535","farm":66,"title":"Barn owl (Tyto alba)","ispublic":1,"isfriend":0,"isfamily":0},{"id":"52710498982","owner":"79722430@N04","secret":"02a14640cf","server":"65535","farm":66,"title":"Barn owl (Tyto alba)","ispublic":1,"isfriend":0,"isfamily":0},{"id":"52711022471","owner":"79722430@N04","secret":"759b1c0c8b","server":"65535","farm":66,"title":"Barn owl (Tyto alba)","ispublic":1,"isfriend":0,"isfamily":0},{"id":"52711022431","owner":"79722430@N04","secret":"bcfd3a3682","server":"65535","farm":66,"title":"Barn owl (Tyto alba)","ispublic":1,"isfriend":0,"isfamily":0},{"id":"52710489242","owner":"79722430@N04","secret":"2e73a3f9af","server":"65535","farm":66,"title":"Barn owl (Tyto alba)","ispublic":1,"isfriend":0,"isfamily":0},{"id":"52710489257","owner":"79722430@N04","secret":"6eecd722c0","server":"65535","farm":66,"title":"Barn owl (Tyto alba)","ispublic":1,"isfriend":0,"isfamily":0},{"id":"52711012546","owner":"79722430@N04","secret":"e9689baee1","server":"65535","farm":66,"title":"Barn owl (Tyto alba)","ispublic":1,"isfriend":0,"isfamily":0},{"id":"52711012491","owner":"79722430@N04","secret":"4eb5ccf51e","server":"65535","farm":66,"title":"Barn owl (Tyto alba)","ispublic":1,"isfriend":0,"isfamily":0},{"id":"52711429095","owner":"79722430@N04","secret":"12c8f7da49","server":"65535","farm":66,"title":"Barn owl (Tyto alba)","ispublic":1,"isfriend":0,"isfamily":0},{"id":"52711490753","owner":"79722430@N04","secret":"a2b3fa4656","server":"65535","farm":66,"title":"Barn owl (Tyto alba)","ispublic":1,"isfriend":0,"isfamily":0},{"id":"52710479887","owner":"79722430@N04","secret":"8e7e723b8a","server":"65535","farm":66,"title":"Barn owl (Tyto alba)","ispublic":1,"isfriend":0,"isfamily":0},{"id":"52710479862","owner":"79722430@N04","secret":"d9e7666274","server":"65535","farm":66,"title":"Barn owl (Tyto alba)","ispublic":1,"isfriend":0,"isfamily":0},{"id":"52711481263","owner":"79722430@N04","secret":"0e1f796f97","server":"65535","farm":66,"title":"Barn owl (Tyto alba)","ispublic":1,"isfriend":0,"isfamily":0},{"id":"52711419865","owner":"79722430@N04","secret":"9dff4eb35e","server":"65535","farm":66,"title":"Barn owl (Tyto alba)","ispublic":1,"isfriend":0,"isfamily":0},{"id":"52711002811","owner":"79722430@N04","secret":"e69bec2a25","server":"65535","farm":66,"title":"Barn owl (Tyto alba)","ispublic":1,"isfriend":0,"isfamily":0},{"id":"52711416615","owner":"79722430@N04","secret":"d10c397ae4","server":"65535","farm":66,"title":"Barn owl (Tyto alba)","ispublic":1,"isfriend":0,"isfamily":0},{"id":"52711416560","owner":"79722430@N04","secret":"7334ee65c6","server":"65535","farm":66,"title":"Barn owl (Tyto alba)","ispublic":1,"isfriend":0,"isfamily":0},{"id":"52711409620","owner":"79722430@N04","secret":"11852f0d0d","server":"65535","farm":66,"title":"Barn owl (Tyto alba)","ispublic":1,"isfriend":0,"isfamily":0},{"id":"52710469502","owner":"79722430@N04","secret":"31c5cdff33","server":"65535","farm":66,"title":"Barn owl (Tyto alba)","ispublic":1,"isfriend":0,"isfamily":0},{"id":"52711409605","owner":"79722430@N04","secret":"a595a069de","server":"65535","farm":66,"title":"Barn owl (Tyto alba)","ispublic":1,"isfriend":0,"isfamily":0},{"id":"52710469437","owner":"79722430@N04","secret":"9bc38e2658","server":"65535","farm":66,"title":"Barn owl (Tyto alba)","ispublic":1,"isfriend":0,"isfamily":0},{"id":"52710992276","owner":"79722430@N04","secret":"74033eab8e","server":"65535","farm":66,"title":"Barn owl (Tyto alba)","ispublic":1,"isfriend":0,"isfamily":0},{"id":"52711409520","owner":"79722430@N04","secret":"6e0ec730f7","server":"65535","farm":66,"title":"Barn owl (Tyto alba)","ispublic":1,"isfriend":0,"isfamily":0},{"id":"52711399450","owner":"79722430@N04","secret":"e0c8d6068c","server":"65535","farm":66,"title":"Barn owl (Tyto alba)","ispublic":1,"isfriend":0,"isfamily":0},{"id":"52711460778","owner":"79722430@N04","secret":"96d2fd1c10","server":"65535","farm":66,"title":"Barn owl (Tyto alba)","ispublic":1,"isfriend":0,"isfamily":0},{"id":"52710459422","owner":"79722430@N04","secret":"a05e146336","server":"65535","farm":66,"title":"Barn owl (Tyto alba)","ispublic":1,"isfriend":0,"isfamily":0},{"id":"52711460713","owner":"79722430@N04","secret":"5099791779","server":"65535","farm":66,"title":"Barn owl (Tyto alba)","ispublic":1,"isfriend":0,"isfamily":0},{"id":"52710982171","owner":"79722430@N04","secret":"83e83e0c99","server":"65535","farm":66,"title":"Barn owl (Tyto alba)","ispublic":1,"isfriend":0,"isfamily":0},{"id":"52710982086","owner":"79722430@N04","secret":"80326c34aa","server":"65535","farm":66,"title":"Barn owl (Tyto alba)","ispublic":1,"isfriend":0,"isfamily":0},{"id":"52711242599","owner":"79722430@N04","secret":"454c842cb8","server":"65535","farm":66,"title":"Barn owl (Tyto alba)","ispublic":1,"isfriend":0,"isfamily":0},{"id":"52710899173","owner":"28773341@N03","secret":"017eb48c34","server":"65535","farm":66,"title":"All rights reserved","ispublic":1,"isfriend":0,"isfamily":0},{"id":"52710805275","owner":"152461355@N03","secret":"e85f5986f1","server":"65535","farm":66,"title":"Western Barn Owl (Tyto alba ssp. alba) - flight","ispublic":1,"isfriend":0,"isfamily":0},{"id":"52709842537","owner":"92610731@N05","secret":"93d227a807","server":"65535","farm":66,"title":"Barn Owl (Tyto alba)","ispublic":1,"isfriend":0,"isfamily":0},{"id":"52710363466","owner":"92610731@N05","secret":"b6efdf10f4","server":"65535","farm":66,"title":"Barn Owl (Tyto alba)","ispublic":1,"isfriend":0,"isfamily":0},{"id":"52709112808","owner":"39627107@N07","secret":"90ca64d426","server":"65535","farm":66,"title":"Barn Owl","ispublic":1,"isfriend":0,"isfamily":0},{"id":"52708051801","owner":"78465328@N04","secret":"9216c1d497","server":"65535","farm":66,"title":"Barn Owl","ispublic":1,"isfriend":0,"isfamily":0},{"id":"52707600753","owner":"92610731@N05","secret":"628814e5b5","server":"65535","farm":66,"title":"Barn Owl (Tyto alba)","ispublic":1,"isfriend":0,"isfamily":0},{"id":"52706836431","owner":"108260302@N02","secret":"7b9f18f37a","server":"65535","farm":66,"title":"Barn Owl","ispublic":1,"isfriend":0,"isfamily":0},{"id":"52706836421","owner":"108260302@N02","secret":"683e723528","server":"65535","farm":66,"title":"Barn Owl","ispublic":1,"isfriend":0,"isfamily":0},{"id":"52706310087","owner":"108260302@N02","secret":"86378bf8ab","server":"65535","farm":66,"title":"Barn Owl","ispublic":1,"isfriend":0,"isfamily":0},{"id":"52705749502","owner":"24506752@N07","secret":"e233b1eb47","server":"65535","farm":66,"title":"Barn Owl","ispublic":1,"isfriend":0,"isfamily":0},{"id":"52703686768","owner":"79722430@N04","secret":"2fd74223cc","server":"65535","farm":66,"title":"Barn owl (Tyto alba)","ispublic":1,"isfriend":0,"isfamily":0},{"id":"52703453259","owner":"79722430@N04","secret":"407cf8b27a","server":"65535","farm":66,"title":"Barn owl (Tyto alba)","ispublic":1,"isfriend":0,"isfamily":0},{"id":"52703199371","owner":"79722430@N04","secret":"fe73b53def","server":"65535","farm":66,"title":"Barn owl (Tyto alba)","ispublic":1,"isfriend":0,"isfamily":0},{"id":"52703686713","owner":"79722430@N04","secret":"eae71df25e","server":"65535","farm":66,"title":"Barn owl (Tyto alba)","ispublic":1,"isfriend":0,"isfamily":0},{"id":"52702677672","owner":"79722430@N04","secret":"86785e03b9","server":"65535","farm":66,"title":"Barn owl (Tyto alba)","ispublic":1,"isfriend":0,"isfamily":0},{"id":"52703617095","owner":"79722430@N04","secret":"e6aeff0788","server":"65535","farm":66,"title":"Barn owl (Tyto alba)","ispublic":1,"isfriend":0,"isfamily":0},{"id":"52703451594","owner":"79722430@N04","secret":"94f2974a26","server":"65535","farm":66,"title":"Barn owl (Tyto alba)","ispublic":1,"isfriend":0,"isfamily":0},{"id":"52703451569","owner":"79722430@N04","secret":"44945a5137","server":"65535","farm":66,"title":"Barn owl (Tyto alba)","ispublic":1,"isfriend":0,"isfamily":0},{"id":"52702677622","owner":"79722430@N04","secret":"58f41624cc","server":"65535","farm":66,"title":"Barn owl (Tyto alba)","ispublic":1,"isfriend":0,"isfamily":0},{"id":"52703617030","owner":"79722430@N04","secret":"cc3c12a16c","server":"65535","farm":66,"title":"Barn owl (Tyto alba)","ispublic":1,"isfriend":0,"isfamily":0},{"id":"52703685058","owner":"79722430@N04","secret":"d70192e484","server":"65535","farm":66,"title":"Barn owl (Tyto alba)","ispublic":1,"isfriend":0,"isfamily":0},{"id":"52703189486","owner":"79722430@N04","secret":"06ff2160ee","server":"65535","farm":66,"title":"Barn owl (Tyto alba)","ispublic":1,"isfriend":0,"isfamily":0},{"id":"52703609320","owner":"79722430@N04","secret":"1e5830cedd","server":"65535","farm":66,"title":"Barn owl (Tyto alba)","ispublic":1,"isfriend":0,"isfamily":0},{"id":"52703609285","owner":"79722430@N04","secret":"2d111f8acc","server":"65535","farm":66,"title":"Barn owl (Tyto alba)","ispublic":1,"isfriend":0,"isfamily":0},{"id":"52703676883","owner":"79722430@N04","secret":"395c866bc3","server":"65535","farm":66,"title":"Barn owl (Tyto alba)","ispublic":1,"isfriend":0,"isfamily":0},{"id":"52703189436","owner":"79722430@N04","secret":"052bfb2de5","server":"65535","farm":66,"title":"Barn owl (Tyto alba)","ispublic":1,"isfriend":0,"isfamily":0},{"id":"52703189381","owner":"79722430@N04","secret":"b35ceb1201","server":"65535","farm":66,"title":"Barn owl (Tyto alba)","ispublic":1,"isfriend":0,"isfamily":0},{"id":"52703609235","owner":"79722430@N04","secret":"5c31e7a01c","server":"65535","farm":66,"title":"Barn owl (Tyto alba)","ispublic":1,"isfriend":0,"isfamily":0},{"id":"52703443354","owner":"79722430@N04","secret":"2f4a5cd5c6","server":"65535","farm":66,"title":"Barn owl (Tyto alba)","ispublic":1,"isfriend":0,"isfamily":0},{"id":"52700856647","owner":"79722430@N04","secret":"bb05284192","server":"65535","farm":66,"title":"Barn owl (Tyto alba)","ispublic":1,"isfriend":0,"isfamily":0},{"id":"52700856432","owner":"79722430@N04","secret":"29ca204697","server":"65535","farm":66,"title":"Barn owl (Tyto alba)","ispublic":1,"isfriend":0,"isfamily":0},{"id":"52701867003","owner":"79722430@N04","secret":"d22fe43524","server":"65535","farm":66,"title":"Barn owl (Tyto alba)","ispublic":1,"isfriend":0,"isfamily":0},{"id":"52701378191","owner":"79722430@N04","secret":"1248fbf78e","server":"65535","farm":66,"title":"Barn owl (Tyto alba)","ispublic":1,"isfriend":0,"isfamily":0},{"id":"52701795810","owner":"79722430@N04","secret":"85a90960b7","server":"65535","farm":66,"title":"Barn owl (Tyto alba)","ispublic":1,"isfriend":0,"isfamily":0},{"id":"52701631844","owner":"79722430@N04","secret":"a38008e938","server":"65535","farm":66,"title":"Barn owl (Tyto alba)","ispublic":1,"isfriend":0,"isfamily":0},{"id":"52701866943","owner":"79722430@N04","secret":"2f51438390","server":"65535","farm":66,"title":"Barn owl (Tyto alba)","ispublic":1,"isfriend":0,"isfamily":0},{"id":"52701795760","owner":"79722430@N04","secret":"023b9f8c54","server":"65535","farm":66,"title":"Barn owl (Tyto alba)","ispublic":1,"isfriend":0,"isfamily":0},{"id":"52700853662","owner":"79722430@N04","secret":"b84365b5db","server":"65535","farm":66,"title":"Barn owl (Tyto alba)","ispublic":1,"isfriend":0,"isfamily":0},{"id":"52701375536","owner":"79722430@N04","secret":"ce303003af","server":"65535","farm":66,"title":"Barn owl (Tyto alba)","ispublic":1,"isfriend":0,"isfamily":0},{"id":"52701375496","owner":"79722430@N04","secret":"8dbbdd1777","server":"65535","farm":66,"title":"Barn owl (Tyto alba)","ispublic":1,"isfriend":0,"isfamily":0},{"id":"52701375416","owner":"79722430@N04","secret":"5c623f829b","server":"65535","farm":66,"title":"Barn owl (Tyto alba)","ispublic":1,"isfriend":0,"isfamily":0},{"id":"52701621874","owner":"79722430@N04","secret":"72a38e3173","server":"65535","farm":66,"title":"Barn owl (Tyto alba)","ispublic":1,"isfriend":0,"isfamily":0},{"id":"52701621879","owner":"79722430@N04","secret":"b1e1e69221","server":"65535","farm":66,"title":"Barn owl (Tyto alba)","ispublic":1,"isfriend":0,"isfamily":0},{"id":"52701368566","owner":"79722430@N04","secret":"979bfe7a03","server":"65535","farm":66,"title":"Barn owl (Tyto alba)","ispublic":1,"isfriend":0,"isfamily":0},{"id":"52701785800","owner":"79722430@N04","secret":"d103c56cab","server":"65535","farm":66,"title":"Barn owl (Tyto alba)","ispublic":1,"isfriend":0,"isfamily":0},{"id":"52701368541","owner":"79722430@N04","secret":"77996e9fce","server":"65535","farm":66,"title":"Barn owl (Tyto alba)","ispublic":1,"isfriend":0,"isfamily":0},{"id":"52701621819","owner":"79722430@N04","secret":"f5e96dd66f","server":"65535","farm":66,"title":"Barn owl (Tyto alba)","ispublic":1,"isfriend":0,"isfamily":0}]},"stat":"ok"}