{"photos":{"page":1,"pages":13,"perpage":100,"total":1234,"photo":[{"id":"52666340670","owner":"136180232@N08","secret":"9cedf42fd9","server":"65535","farm":66,"title":"Bay-breasted Warbler (Setophaga castanea) JTE_2052","ispublic":1,"isfriend":0,"isfamily":0},{"id":"52666404808","owner":"136180232@N08","secret":"b25b9b6667","server":"65535","farm":66,"title":"Bay-breasted Warbler (Setophaga castanea) JTE_2039","ispublic":1,"isfriend":0,"isfamily":0},{"id":"52633679715","owner":"132165466@N08","secret":"d4ea03c8fd","server":"65535","farm":66,"title":"Bay-breasted Warbler, immature","ispublic":1,"isfriend":0,"isfamily":0},{"id":"52564120485","owner":"196786375@N03","secret":"e2b1afec71","server":"65535","farm":66,"title":"Bay-breasted Warbler","ispublic":1,"isfriend":0,"isfamily":0},{"id":"52527342222","owner":"28499865@N07","secret":"d2630e3145","server":"65535","farm":66,"title":"Bay-breasted Warbler - Setophaga castanea","ispublic":1,"isfriend":0,"isfamily":0},{"id":"52520149613","owner":"118311568@N08","secret":"9c6a376595","server":"65535","farm":66,"title":"Bay-breasted Warbler","ispublic":1,"isfriend":0,"isfamily":0},{"id":"52493787355","owner":"53048815@N06","secret":"bb7555ea59","server":"65535","farm":66,"title":"Bay-breasted Warbler (Setophaga castanea)","ispublic":1,"isfriend":0,"isfamily":0},{"id":"52491904303","owner":"39445433@N02","secret":"6c5fd83aaf","server":"65535","farm":66,"title":"Bay-Breasted Warbler","ispublic":1,"isfriend":0,"isfamily":0},{"id":"52483306128","owner":"103263246@N06","secret":"27bf539ea5","server":"65535","farm":66,"title":"Setophaga castanea. Reinita Casta\u00f1a. Bay-breasted Warbler","ispublic":1,"isfriend":0,"isfamily":0},{"id":"52469440523","owner":"142134964@N04","secret":"b72e44065b","server":"65535","farm":66,"title":"273- Reinita casta\u00f1a (Setophaga castanea)","ispublic":1,"isfriend":0,"isfamily":0},{"id":"52465842338","owner":"79254232@N08","secret":"52ee7d8fc4","server":"65535","farm":66,"title":"Bay-breasted Warbler","ispublic":1,"isfriend":0,"isfamily":0},{"id":"52461021942","owner":"99208129@N08","secret":"2a70c97c08","server":"65535","farm":66,"title":"Setophaga castanea \/ Bay-breasted Warbler","ispublic":1,"isfriend":0,"isfamily":0},{"id":"52455631851","owner":"34368269@N04","secret":"ca4252db08","server":"65535","farm":66,"title":"Bay-breasted Warbler","ispublic":1,"isfriend":0,"isfamily":0},{"id":"52444777952","owner":"165841515@N03","secret":"439af19457","server":"65535","farm":66,"title":"Paruline \u00e0 poitrine baie \/ Bay-breasted Warbler \/ (Setophaga Castanea)","ispublic":1,"isfriend":0,"isfamily":0},{"id":"52444777682","owner":"165841515@N03","secret":"7bf445f2bb","server":"65535","farm":66,"title":"Paruline \u00e0 poitrine baie \/ Bay-breasted Warbler \/ (Setophaga Castanea)","ispublic":1,"isfriend":0,"isfamily":0},{"id":"52445300321","owner":"165841515@N03","secret":"237718cb04","server":"65535","farm":66,"title":"Paruline \u00e0 poitrine baie \/ Bay-breasted Warbler \/ (Setophaga Castanea)","ispublic":1,"isfriend":0,"isfamily":0},{"id":"52395696766","owner":"49114357@N08","secret":"dc49b5f902","server":"65535","farm":66,"title":"Bay-breasted Warbler","ispublic":1,"isfriend":0,"isfamily":0},{"id":"52395644569","owner":"25899079@N08","secret":"b8bfbf2d35","server":"65535","farm":66,"title":"Bay-breasted Warbler (9827)","ispublic":1,"isfriend":0,"isfamily":0},{"id":"52386359221","owner":"49563725@N06","secret":"ac039a40f1","server":"65535","farm":66,"title":"Bay-Breasted Warbler","ispublic":1,"isfriend":0,"isfamily":0},{"id":"52368214095","owner":"48311154@N02","secret":"2cfcd0f304","server":"65535","farm":66,"title":"Bay-breasted Warbler showing its best side","ispublic":1,"isfriend":0,"isfamily":0},{"id":"52366085884","owner":"120449047@N06","secret":"b5fbd39696","server":"65535","farm":66,"title":"Wilson's Warbler #34&35 of 35","ispublic":1,"isfriend":0,"isfamily":0},{"id":"52351614482","owner":"76288515@N07","secret":"1ca780cc4a","server":"65535","farm":66,"title":"Bay-breasted Warbler Setophaga castanea","ispublic":1,"isfriend":0,"isfamily":0},{"id":"52352798703","owner":"76288515@N07","secret":"fa2898b27d","server":"65535","farm":66,"title":"Bay-breasted Warbler Setophaga castanea","ispublic":1,"isfriend":0,"isfamily":0},{"id":"52352798653","owner":"76288515@N07","secret":"e58c87f4c6","server":"65535","farm":66,"title":"Bay-breasted Warbler Setophaga castanea","ispublic":1,"isfriend":0,"isfamily":0},{"id":"52352985235","owner":"76288515@N07","secret":"e0e27ff41c","server":"65535","farm":66,"title":"Bay-breasted Warbler Setophaga castanea","ispublic":1,"isfriend":0,"isfamily":0},{"id":"52351614342","owner":"76288515@N07","secret":"04af60903e","server":"65535","farm":66,"title":"Bay-breasted Warbler Setophaga castanea","ispublic":1,"isfriend":0,"isfamily":0},{"id":"52341997197","owner":"119787485@N07","secret":"49b616a3ff","server":"65535","farm":66,"title":"Bay-breasted Warbler (Setophaga castanea) - 20220821-04","ispublic":1,"isfriend":0,"isfamily":0},{"id":"52276934371","owner":"49114357@N08","secret":"83cc746f73","server":"65535","farm":66,"title":"Bay-breasted Warbler","ispublic":1,"isfriend":0,"isfamily":0},{"id":"52320225932","owner":"48311154@N02","secret":"db0f5b7768","server":"65535","farm":66,"title":"This collage took me too long to make, but I didn't give up","ispublic":1,"isfriend":0,"isfamily":0},{"id":"52303889171","owner":"165841515@N03","secret":"44a3182819","server":"65535","farm":66,"title":"Paruline \u00e0 poitrine baie \/ Bay-breasted Warbler \/ (Setophaga Castanea)","ispublic":1,"isfriend":0,"isfamily":0},{"id":"52260567708","owner":"184155060@N04","secret":"b167eb365e","server":"65535","farm":66,"title":"32795 Paruline \u00e0 poitrine baie (m\u00e2le) \/ Setophaga castanea \/ Bay-breasted Warbler","ispublic":1,"isfriend":0,"isfamily":0},{"id":"52249312086","owner":"193265066@N04","secret":"b0939f8ab4","server":"65535","farm":66,"title":"Paruline \u00c0 Poitrine Baie \/ Setophaga castanea \/ Bay-breasted Warbler","ispublic":1,"isfriend":0,"isfamily":0},{"id":"52200706512","owner":"126805965@N03","secret":"5233609a8c","server":"65535","farm":66,"title":"Bay-breasted Warbler (Setophaga castanea) - Cape Breton, NS","ispublic":1,"isfriend":0,"isfamily":0},{"id":"52200706422","owner":"126805965@N03","secret":"76e46e2f76","server":"65535","farm":66,"title":"Bay-breasted Warbler (Setophaga castanea) - Cape Breton, NS","ispublic":1,"isfriend":0,"isfamily":0},{"id":"52170359629","owner":"37566919@N02","secret":"0255d7c7e4","server":"65535","farm":66,"title":"Bay-breasted Warbler, male","ispublic":1,"isfriend":0,"isfamily":0},{"id":"52165105954","owner":"168495655@N07","secret":"db5288946a","server":"65535","farm":66,"title":"Paruline \u00e0 poitrine baie - Setophaga castanea - Bay-breasted Warbler","ispublic":1,"isfriend":0,"isfamily":0},{"id":"52159061537","owner":"92361032@N05","secret":"eacf21793e","server":"65535","farm":66,"title":"Bay-breasted Warbler \/ Paruline \u00e0 poitrine baie ( Richard )","ispublic":1,"isfriend":0,"isfamily":0},{"id":"52110463056","owner":"165841515@N03","secret":"ef3b45ce6a","server":"65535","farm":66,"title":"Paruline \u00e0 poitrine baie \/ Bay-breasted Warbler \/ (Setophaga Castanea)","ispublic":1,"isfriend":0,"isfamily":0},{"id":"52107492304","owner":"42264328@N00","secret":"004cf43abc","server":"65535","farm":66,"title":"More Magee birds","ispublic":1,"isfriend":0,"isfamily":0},{"id":"52104208991","owner":"48311154@N02","secret":"e0256873a4","server":"65535","farm":66,"title":"Bay-breasted Warbler, on its way to the boreal forest to make babies, stops off at the apple tree in my backyard and says hello","ispublic":1,"isfriend":0,"isfamily":0},{"id":"52093646967","owner":"145466593@N08","secret":"e46b4cedc1","server":"65535","farm":66,"title":"Bay-breasted Warbler","ispublic":1,"isfriend":0,"isfamily":0},{"id":"52086473546","owner":"145466593@N08","secret":"16d5095fbc","server":"65535","farm":66,"title":"Bay-breasted Warbler","ispublic":1,"isfriend":0,"isfamily":0},{"id":"52084322556","owner":"128537732@N06","secret":"71f4441491","server":"65535","farm":66,"title":"Bay-breasted Warbler (Setophaga castanea)","ispublic":1,"isfriend":0,"isfamily":0},{"id":"52084565969","owner":"128537732@N06","secret":"e9367289e0","server":"65535","farm":66,"title":"Bay-breasted Warbler (Setophaga castanea)","ispublic":1,"isfriend":0,"isfamily":0},{"id":"52083132787","owner":"147283349@N08","secret":"a69ca7c8b8","server":"65535","farm":66,"title":"Setophaga castanea","ispublic":1,"isfriend":0,"isfamily":0},{"id":"52082450837","owner":"69947563@N07","secret":"3e0577327a","server":"65535","farm":66,"title":"Bay-breasted Warbler - Rondeau Provincial Park, Ontario, Canada","ispublic":1,"isfriend":0,"isfamily":0},{"id":"52081204296","owner":"78145652@N02","secret":"6897212d0a","server":"65535","farm":66,"title":"Bay-breasted Warbler - Setophaga castanea","ispublic":1,"isfriend":0,"isfamily":0},{"id":"52075941321","owner":"90769866@N00","secret":"143a665f28","server":"65535","farm":66,"title":"7707","ispublic":1,"isfriend":0,"isfamily":0},{"id":"52076169659","owner":"90769866@N00","secret":"142c4a31f0","server":"65535","farm":66,"title":"7709","ispublic":1,"isfriend":0,"isfamily":0},{"id":"52075939336","owner":"90769866@N00","secret":"8de1e09bf8","server":"65535","farm":66,"title":"7711","ispublic":1,"isfriend":0,"isfamily":0},{"id":"52075937288","owner":"90769866@N00","secret":"1a877a200e","server":"65535","farm":66,"title":"7726","ispublic":1,"isfriend":0,"isfamily":0},{"id":"52009727574","owner":"72163737@N07","secret":"2b1e681ee1","server":"65535","farm":66,"title":"FOS Black & White Warbler","ispublic":1,"isfriend":0,"isfamily":0},{"id":"51960343697","owner":"71418112@N00","secret":"c8249aa20a","server":"65535","farm":66,"title":"Coming soon .","ispublic":1,"isfriend":0,"isfamily":0},{"id":"51723225397","owner":"9638954@N07","secret":"625eab4974","server":"65535","farm":66,"title":"Bay-breasted Warbler","ispublic":1,"isfriend":0,"isfamily":0},{"id":"52580430956","owner":"153973412@N04","secret":"142d7410f3","server":"65535","farm":66,"title":"Bay-breasted Warbler-Setophaga castanea, Iowa City, IA","ispublic":1,"isfriend":0,"isfamily":0},{"id":"52495251781","owner":"64557331@N04","secret":"8813733b4c","server":"65535","farm":66,"title":"Bay-Breasted Warbler - (Setophaga castanea)_09032022_2","ispublic":1,"isfriend":0,"isfamily":0},{"id":"52491633979","owner":"39445433@N02","secret":"b58ce524e6","server":"65535","farm":66,"title":"Bay-Breasted Warbler","ispublic":1,"isfriend":0,"isfamily":0},{"id":"52491820130","owner":"39445433@N02","secret":"d438a29389","server":"65535","farm":66,"title":"Bay-Breasted Warbler","ispublic":1,"isfriend":0,"isfamily":0},{"id":"52487759559","owner":"39445433@N02","secret":"ed9c8c8efe","server":"65535","farm":66,"title":"Bay-Breasted Warblers","ispublic":1,"isfriend":0,"isfamily":0},{"id":"52371610520","owner":"61241315@N00","secret":"2293f5b67f","server":"65535","farm":66,"title":"Bay-breasted Warbler_N7882","ispublic":1,"isfriend":0,"isfamily":0},{"id":"52371500924","owner":"61241315@N00","secret":"6a0a33349c","server":"65535","farm":66,"title":"Bay-breasted Warbler_N7909","ispublic":1,"isfriend":0,"isfamily":0},{"id":"52370246212","owner":"61241315@N00","secret":"563eea1825","server":"65535","farm":66,"title":"Bay-breasted Warbler_N7886","ispublic":1,"isfriend":0,"isfamily":0},{"id":"52371191836","owner":"61241315@N00","secret":"3ca6bc5def","server":"65535","farm":66,"title":"Bay-breasted Warbler_N7964","ispublic":1,"isfriend":0,"isfamily":0},{"id":"52260826329","owner":"184155060@N04","secret":"dc5a0d82ca","server":"65535","farm":66,"title":"32795 Paruline \u00e0 poitrine baie (m\u00e2le) \/ Setophaga castanea \/ Bay-breasted Warbler","ispublic":1,"isfriend":0,"isfamily":0},{"id":"52247905440","owner":"37493716@N02","secret":"a9bd2779ee","server":"65535","farm":66,"title":"Aves Reserva Tit\u00ed Cabeciblanco","ispublic":1,"isfriend":0,"isfamily":0},{"id":"52247423228","owner":"37493716@N02","secret":"73b67015de","server":"65535","farm":66,"title":"Aves Reserva Tit\u00ed Cabeciblanco","ispublic":1,"isfriend":0,"isfamily":0},{"id":"52247694529","owner":"37493716@N02","secret":"05928e8537","server":"65535","farm":66,"title":"Aves Reserva Tit\u00ed Cabeciblanco","ispublic":1,"isfriend":0,"isfamily":0},{"id":"52247407431","owner":"37493716@N02","secret":"123312dc85","server":"65535","farm":66,"title":"Aves Reserva Tit\u00ed Cabeciblanco","ispublic":1,"isfriend":0,"isfamily":0},{"id":"52247905310","owner":"37493716@N02","secret":"7a93de8ef1","server":"65535","farm":66,"title":"Aves Reserva Tit\u00ed Cabeciblanco","ispublic":1,"isfriend":0,"isfamily":0},{"id":"52247407361","owner":"37493716@N02","secret":"af07c8eb0b","server":"65535","farm":66,"title":"Aves Reserva Tit\u00ed Cabeciblanco","ispublic":1,"isfriend":0,"isfamily":0},{"id":"52244244453","owner":"95747238@N07","secret":"b8d5b0510d","server":"65535","farm":66,"title":"Setophaga castanea","ispublic":1,"isfriend":0,"isfamily":0},{"id":"52207540513","owner":"184155060@N04","secret":"deffea794c","server":"65535","farm":66,"title":"32795 Paruline \u00e0 poitrine baie (femelle) \/ Setophaga castanea \/ Bay-breasted Warbler","ispublic":1,"isfriend":0,"isfamily":0},{"id":"52206509772","owner":"184155060@N04","secret":"79235a7dec","server":"65535","farm":66,"title":"32795 Paruline \u00e0 poitrine baie (m\u00e2le) \/ Setophaga castanea \/ Bay-breasted Warbler","ispublic":1,"isfriend":0,"isfamily":0},{"id":"52163690283","owner":"90769866@N00","secret":"f1165b277a","server":"65535","farm":66,"title":"7727","ispublic":1,"isfriend":0,"isfamily":0},{"id":"52162665297","owner":"90769866@N00","secret":"e8f580b29d","server":"65535","farm":66,"title":"7728","ispublic":1,"isfriend":0,"isfamily":0},{"id":"52153853110","owner":"39177293@N03","secret":"e8a5beecc3","server":"65535","farm":66,"title":"Bay-breasted Warbler","ispublic":1,"isfriend":0,"isfamily":0},{"id":"52153853155","owner":"39177293@N03","secret":"73a60d8cc8","server":"65535","farm":66,"title":"Bay-breasted Warbler","ispublic":1,"isfriend":0,"isfamily":0},{"id":"52153853185","owner":"39177293@N03","secret":"a21c081652","server":"65535","farm":66,"title":"Bay-breasted Warbler","ispublic":1,"isfriend":0,"isfamily":0},{"id":"52153095354","owner":"39177293@N03","secret":"a60e6ab693","server":"65535","farm":66,"title":"Bay-breasted Warbler","ispublic":1,"isfriend":0,"isfamily":0},{"id":"52085517079","owner":"188674693@N07","secret":"db21b7c7de","server":"65535","farm":66,"title":"Bay-breasted Warbler","ispublic":1,"isfriend":0,"isfamily":0},{"id":"52080885164","owner":"13451078@N03","secret":"fb8dbfa4d1","server":"65535","farm":66,"title":"Bay-breasted Warbler (Setophaga castanea)","ispublic":1,"isfriend":0,"isfamily":0},{"id":"52075940821","owner":"90769866@N00","secret":"22600e6e37","server":"65535","farm":66,"title":"7708","ispublic":1,"isfriend":0,"isfamily":0},{"id":"52075942888","owner":"90769866@N00","secret":"cb20199c00","server":"65535","farm":66,"title":"7713","ispublic":1,"isfriend":0,"isfamily":0},{"id":"52075942458","owner":"90769866@N00","secret":"9a459de39c","server":"65535","farm":66,"title":"7714","ispublic":1,"isfriend":0,"isfamily":0},{"id":"52076416625","owner":"90769866@N00","secret":"7f7a69ce7c","server":"65535","farm":66,"title":"7722","ispublic":1,"isfriend":0,"isfamily":0},{"id":"52076415970","owner":"90769866@N00","secret":"155e2ae46a","server":"65535","farm":66,"title":"7724","ispublic":1,"isfriend":0,"isfamily":0},{"id":"52076415520","owner":"90769866@N00","secret":"f8912ec469","server":"65535","farm":66,"title":"7725","ispublic":1,"isfriend":0,"isfamily":0},{"id":"52070304821","owner":"61241315@N00","secret":"b53139c579","server":"65535","farm":66,"title":"Bay-breasted Warbler_N8033","ispublic":1,"isfriend":0,"isfamily":0},{"id":"52070304796","owner":"61241315@N00","secret":"e0625a04dd","server":"65535","farm":66,"title":"Bay-breasted Warbler_N8035","ispublic":1,"isfriend":0,"isfamily":0},{"id":"52067912095","owner":"79666906@N05","secret":"633a8e0c66","server":"65535","farm":66,"title":"Bay-breasted Warbler, male","ispublic":1,"isfriend":0,"isfamily":0},{"id":"52066167806","owner":"126271444@N08","secret":"0c2766a533","server":"65535","farm":66,"title":"Bay-breasted Warbler (Setophaga castanea)","ispublic":1,"isfriend":0,"isfamily":0},{"id":"52066655490","owner":"126271444@N08","secret":"45e341afc2","server":"65535","farm":66,"title":"Bay-breasted Warbler (Setophaga castanea)","ispublic":1,"isfriend":0,"isfamily":0},{"id":"52065125687","owner":"126271444@N08","secret":"940a8c78ae","server":"65535","farm":66,"title":"Bay-breasted Warbler (Setophaga castanea)","ispublic":1,"isfriend":0,"isfamily":0},{"id":"52066181583","owner":"126271444@N08","secret":"035f235e51","server":"65535","farm":66,"title":"Bay-breasted Warbler (Setophaga castanea)","ispublic":1,"isfriend":0,"isfamily":0},{"id":"52058056654","owner":"46367607@N06","secret":"5afcca1ed7","server":"65535","farm":66,"title":"Bay-breasted warbler--Setophaga castanea _D6A0195","ispublic":1,"isfriend":0,"isfamily":0},{"id":"52057851198","owner":"46367607@N06","secret":"f94f6b9f94","server":"65535","farm":66,"title":"Bay-breasted warbler--Setophaga castanea _D6A0194","ispublic":1,"isfriend":0,"isfamily":0},{"id":"52046365439","owner":"13451078@N03","secret":"834c75da26","server":"65535","farm":66,"title":"Bay-breasted Warbler (Setophaga castanea)","ispublic":1,"isfriend":0,"isfamily":0},{"id":"52045062392","owner":"13451078@N03","secret":"a98ea97d7e","server":"65535","farm":66,"title":"Bay-breasted Warbler (Setophaga castanea)","ispublic":1,"isfriend":0,"isfamily":0},{"id":"52009313970","owner":"136180232@N08","secret":"9a7fba9f23","server":"65535","farm":66,"title":"Bay-breasted Warbler (Setophaga castanea) JTD_6983","ispublic":1,"isfriend":0,"isfamily":0},{"id":"51815266428","owner":"146080804@N02","secret":"1d79ac7d0e","server":"65535","farm":66,"title":"Bay-breasted Warbler (Setophaga castanea)","ispublic":1,"isfriend":0,"isfamily":0}]},"stat":"ok"}