{"photos":{"page":1,"pages":91,"perpage":100,"total":9029,"photo":[{"id":"52724155859","owner":"12639178@N07","secret":"56b80da4d3","server":"65535","farm":66,"title":"Rabengeier","ispublic":1,"isfriend":0,"isfamily":0},{"id":"52717758136","owner":"45246060@N03","secret":"e549039f2a","server":"65535","farm":66,"title":"Black vulture","ispublic":1,"isfriend":0,"isfamily":0},{"id":"52715016932","owner":"26631347@N05","secret":"2c43b86a00","server":"65535","farm":66,"title":"P2040016-T500SC","ispublic":1,"isfriend":0,"isfamily":0},{"id":"52713132198","owner":"26631347@N05","secret":"a497188553","server":"65535","farm":66,"title":"P2040036-T500SC","ispublic":1,"isfriend":0,"isfamily":0},{"id":"52711039157","owner":"33610210@N05","secret":"84bc055d3f","server":"65535","farm":66,"title":"Black Vulture, Coragyps atratus","ispublic":1,"isfriend":0,"isfamily":0},{"id":"52708033083","owner":"65632611@N00","secret":"89e93cf840","server":"65535","farm":66,"title":"Alligator Alley: Black Vulture   (3110)","ispublic":1,"isfriend":0,"isfamily":0},{"id":"52705507201","owner":"146378564@N07","secret":"859eb95cbd","server":"65535","farm":66,"title":"Black Vulture (Coragyps atratus)","ispublic":1,"isfriend":0,"isfamily":0},{"id":"52705620134","owner":"31704662@N08","secret":"c87059dcdf","server":"65535","farm":66,"title":"Black Vulture (Coragyps atratus)","ispublic":1,"isfriend":0,"isfamily":0},{"id":"52702112182","owner":"27794127@N07","secret":"6f2db5dc9e","server":"65535","farm":66,"title":"Coragyps atratus","ispublic":1,"isfriend":0,"isfamily":0},{"id":"52701835424","owner":"67164820@N06","secret":"8f522b9e16","server":"65535","farm":66,"title":"black vultures 2","ispublic":1,"isfriend":0,"isfamily":0},{"id":"52701578791","owner":"67164820@N06","secret":"bf1d604ec5","server":"65535","farm":66,"title":"black vultures","ispublic":1,"isfriend":0,"isfamily":0},{"id":"52698284236","owner":"59110473@N04","secret":"f9d4fd9ecb","server":"65535","farm":66,"title":"Coragyps atratus (Black Vulture)","ispublic":1,"isfriend":0,"isfamily":0},{"id":"52697620907","owner":"158105449@N02","secret":"5ea0ff254f","server":"65535","farm":66,"title":"Examining the contents","ispublic":1,"isfriend":0,"isfamily":0},{"id":"52696569128","owner":"158105449@N02","secret":"10f7987275","server":"65535","farm":66,"title":"Black Vulture (Coragyps atratus)","ispublic":1,"isfriend":0,"isfamily":0},{"id":"52692860437","owner":"21584095@N00","secret":"ebfe9b17ce","server":"65535","farm":66,"title":"Black Vulture (Coragyps atratus)","ispublic":1,"isfriend":0,"isfamily":0},{"id":"52687850703","owner":"12639178@N07","secret":"6035ed2e00","server":"65535","farm":66,"title":"Rabengeier","ispublic":1,"isfriend":0,"isfamily":0},{"id":"52687606523","owner":"151109375@N08","secret":"8ec64c6d5d","server":"65535","farm":66,"title":"An adult Yellow-headed Caracara - After vigorous dust bath","ispublic":1,"isfriend":0,"isfamily":0},{"id":"52683648027","owner":"23016207@N05","secret":"0a7146c548","server":"65535","farm":66,"title":"gathering of vultures","ispublic":1,"isfriend":0,"isfamily":0},{"id":"52681967078","owner":"23711298@N07","secret":"48a06bc04d","server":"65535","farm":66,"title":"Vulture- Black Vulture, Florida, Brevard County, Merritt National Wildlife Refuge","ispublic":1,"isfriend":0,"isfamily":0},{"id":"52680951667","owner":"23711298@N07","secret":"001da84e3a","server":"65535","farm":66,"title":"Vulture- Black Vulture, Florida, Brevard County, Merritt National Wildlife Refuge","ispublic":1,"isfriend":0,"isfamily":0},{"id":"52680783998","owner":"68090141@N02","secret":"7830bbaa10","server":"65535","farm":66,"title":"Coragyps atratus","ispublic":1,"isfriend":0,"isfamily":0},{"id":"52678438792","owner":"132165466@N08","secret":"d785ca577d","server":"65535","farm":66,"title":"Black Vulture","ispublic":1,"isfriend":0,"isfamily":0},{"id":"52679235224","owner":"132165466@N08","secret":"097ca52809","server":"65535","farm":66,"title":"Black Vultures","ispublic":1,"isfriend":0,"isfamily":0},{"id":"52677200473","owner":"61361023@N03","secret":"cc8c9fbd36","server":"65535","farm":66,"title":"Coragyps atratus","ispublic":1,"isfriend":0,"isfamily":0},{"id":"52677139840","owner":"61361023@N03","secret":"6f2b071546","server":"65535","farm":66,"title":"Coragyps atratus","ispublic":1,"isfriend":0,"isfamily":0},{"id":"52673983564","owner":"29170368@N03","secret":"2ef0da9672","server":"65535","farm":66,"title":"Black Vulture","ispublic":1,"isfriend":0,"isfamily":0},{"id":"52673828473","owner":"194369048@N02","secret":"feba5027e1","server":"65535","farm":66,"title":"Jote de cabeza negra (Coragyps atratus)","ispublic":1,"isfriend":0,"isfamily":0},{"id":"52670387063","owner":"107784905@N04","secret":"c82bc0e312","server":"65535","farm":66,"title":"Urubu noir - Manuel Antonio\/Puntarenas\/Costa Rica_20211116_006-1","ispublic":1,"isfriend":0,"isfamily":0},{"id":"52669691080","owner":"26631347@N05","secret":"84ab2372de","server":"65535","farm":66,"title":"P2040011-T500SC","ispublic":1,"isfriend":0,"isfamily":0},{"id":"52665782452","owner":"29882791@N02","secret":"4b66f4c678","server":"65535","farm":66,"title":"Cathartidae - Coragyps atratus","ispublic":1,"isfriend":0,"isfamily":0},{"id":"52664795127","owner":"50986723@N02","secret":"a50b28546a","server":"65535","farm":66,"title":"Coragyps Atratus","ispublic":1,"isfriend":0,"isfamily":0},{"id":"52664869073","owner":"120449047@N06","secret":"b6acc4f712","server":"65535","farm":66,"title":"Black Vulture","ispublic":1,"isfriend":0,"isfamily":0},{"id":"52663241459","owner":"71649471@N02","secret":"b1436ed113","server":"65535","farm":66,"title":"Portrait of a Detritivore","ispublic":1,"isfriend":0,"isfamily":0},{"id":"52660216106","owner":"95795254@N02","secret":"021ce464fd","server":"65535","farm":66,"title":"Black Vulture 851_0997.jpg","ispublic":1,"isfriend":0,"isfamily":0},{"id":"52659845314","owner":"122863253@N07","secret":"b853fa215d","server":"65535","farm":66,"title":"Black vulture (Coragyps atratus)","ispublic":1,"isfriend":0,"isfamily":0},{"id":"52659056425","owner":"27739770@N02","secret":"e9819dbc83","server":"65535","farm":66,"title":"Black Vulture","ispublic":1,"isfriend":0,"isfamily":0},{"id":"52656912907","owner":"124995824@N08","secret":"64b65fb44a","server":"65535","farm":66,"title":"Black Vulture - Coragyps atratus","ispublic":1,"isfriend":0,"isfamily":0},{"id":"52657665175","owner":"68635735@N02","secret":"562e51fd8a","server":"65535","farm":66,"title":"Black Vulture (Coragyps atratus)","ispublic":1,"isfriend":0,"isfamily":0},{"id":"52650922110","owner":"37203410@N07","secret":"c3a59ee757","server":"65535","farm":66,"title":"Jote de cabeza negra \/ Coragyps atratus","ispublic":1,"isfriend":0,"isfamily":0},{"id":"52648982534","owner":"7713364@N08","secret":"ac654a0aa1","server":"65535","farm":66,"title":"Golero \/ Buitre Negro \/ Chulo \/ Zopilote.","ispublic":1,"isfriend":0,"isfamily":0},{"id":"52640207171","owner":"12639178@N07","secret":"f7e696104c","server":"65535","farm":66,"title":"Rabengeier","ispublic":1,"isfriend":0,"isfamily":0},{"id":"52640448328","owner":"123174353@N02","secret":"6d19758b04","server":"65535","farm":66,"title":"Coragyps atratus \/ Black Vulture \/ zwarte gier","ispublic":1,"isfriend":0,"isfamily":0},{"id":"52639386032","owner":"84169650@N07","secret":"3fac3d6843","server":"65535","farm":66,"title":"Black Vulture","ispublic":1,"isfriend":0,"isfamily":0},{"id":"52639642745","owner":"32752434@N07","secret":"81fddbbbbb","server":"65535","farm":66,"title":"Black Vulture (Coragyps atratus)","ispublic":1,"isfriend":0,"isfamily":0},{"id":"52637874282","owner":"8904060@N06","secret":"ecc65cbe18","server":"65535","farm":66,"title":"Black Vulture","ispublic":1,"isfriend":0,"isfamily":0},{"id":"52628333952","owner":"26631347@N05","secret":"052946cd43","server":"65535","farm":66,"title":"P1140084-Z300F4.5EXT1.4","ispublic":1,"isfriend":0,"isfamily":0},{"id":"52627622089","owner":"90355165@N03","secret":"bfb0ca2d32","server":"65535","farm":66,"title":"black vulture","ispublic":1,"isfriend":0,"isfamily":0},{"id":"52626859517","owner":"90355165@N03","secret":"e6f804d7c1","server":"65535","farm":66,"title":"black vulture","ispublic":1,"isfriend":0,"isfamily":0},{"id":"52627850963","owner":"90355165@N03","secret":"31449a6b70","server":"65535","farm":66,"title":"black vulture","ispublic":1,"isfriend":0,"isfamily":0},{"id":"52626858462","owner":"90355165@N03","secret":"8030727a4a","server":"65535","farm":66,"title":"black vulture","ispublic":1,"isfriend":0,"isfamily":0},{"id":"52625909257","owner":"74787113@N05","secret":"41d46b9b89","server":"65535","farm":66,"title":"BLACK VULTURE","ispublic":1,"isfriend":0,"isfamily":0},{"id":"52613917662","owner":"154417921@N04","secret":"de8dec9530","server":"65535","farm":66,"title":"DSC07276 kopi\u00ebren 2","ispublic":1,"isfriend":0,"isfamily":0},{"id":"52612768217","owner":"26631347@N05","secret":"05e55b3de5","server":"65535","farm":66,"title":"P1070533-MZ75300SC","ispublic":1,"isfriend":0,"isfamily":0},{"id":"52601720222","owner":"183004597@N05","secret":"9c3d03f842","server":"65535","farm":66,"title":"Black Vulture (Coragyps atratus)","ispublic":1,"isfriend":0,"isfamily":0},{"id":"52601124994","owner":"39838258@N07","secret":"e3d49b4cdc","server":"65535","farm":66,"title":"Black Vulture","ispublic":1,"isfriend":0,"isfamily":0},{"id":"52597094159","owner":"39142968@N00","secret":"dafab71c76","server":"65535","farm":66,"title":"Black vulture","ispublic":1,"isfriend":0,"isfamily":0},{"id":"52588916155","owner":"130674121@N08","secret":"86b02ac9f8","server":"65535","farm":66,"title":"Jaguar - Porto Jofre, Pantanal, Brazil - 28","ispublic":1,"isfriend":0,"isfamily":0},{"id":"52588473956","owner":"130674121@N08","secret":"28d4855258","server":"65535","farm":66,"title":"Vulture (Black) - Porto Jofre, Pantanal, Brazil - 207","ispublic":1,"isfriend":0,"isfamily":0},{"id":"52581987862","owner":"163058217@N06","secret":"52258c58c1","server":"65535","farm":66,"title":"Coragyps atratus. 2018. Montgomery, PA, US. Robert McCabe (3)","ispublic":1,"isfriend":0,"isfamily":0},{"id":"52582966018","owner":"163058217@N06","secret":"01ceb377c9","server":"65535","farm":66,"title":"Coragyps atratus. 2018. Montgomery, PA, US. Robert McCabe (4)","ispublic":1,"isfriend":0,"isfamily":0},{"id":"52580771825","owner":"153973412@N04","secret":"e5de1b8bc4","server":"65535","farm":66,"title":"Black Vulture-Coragyps atratus, Patagonia, AZ","ispublic":1,"isfriend":0,"isfamily":0},{"id":"52575746573","owner":"135315828@N06","secret":"34e703dc1a","server":"65535","farm":66,"title":"black vulture","ispublic":1,"isfriend":0,"isfamily":0},{"id":"52575667185","owner":"135315828@N06","secret":"949e43d273","server":"65535","farm":66,"title":"black vultures mobbed by american crow","ispublic":1,"isfriend":0,"isfamily":0},{"id":"52573813947","owner":"57932062@N02","secret":"4b4cbc41cd","server":"65535","farm":66,"title":"Jote de cabeza negra (Coragyps atratus)","ispublic":1,"isfriend":0,"isfamily":0},{"id":"52571244697","owner":"8654297@N06","secret":"29572466c1","server":"65535","farm":66,"title":"I see you","ispublic":1,"isfriend":0,"isfamily":0},{"id":"52570090581","owner":"10633647@N07","secret":"95c9c00c69","server":"65535","farm":66,"title":"The Shadow of Death","ispublic":1,"isfriend":0,"isfamily":0},{"id":"52568598583","owner":"76617062@N08","secret":"a32f706200","server":"65535","farm":66,"title":"1.02248 Urubu noir \/ Coragyps atratus atratus \/ Black Vulture","ispublic":1,"isfriend":0,"isfamily":0},{"id":"52565609154","owner":"27739770@N02","secret":"0cd40b288d","server":"65535","farm":66,"title":"Black Vulture","ispublic":1,"isfriend":0,"isfamily":0},{"id":"52565858318","owner":"27739770@N02","secret":"e69448a734","server":"65535","farm":66,"title":"Black Vulture","ispublic":1,"isfriend":0,"isfamily":0},{"id":"52565608929","owner":"27739770@N02","secret":"c428ca680f","server":"65535","farm":66,"title":"Black Vulture","ispublic":1,"isfriend":0,"isfamily":0},{"id":"52565858068","owner":"27739770@N02","secret":"d09d3aab9f","server":"65535","farm":66,"title":"Black Vulture","ispublic":1,"isfriend":0,"isfamily":0},{"id":"52564462218","owner":"140318147@N08","secret":"3efb263a24","server":"65535","farm":66,"title":"black vulture, turkey vulture (Coragyps atratus, Cathartes aura) L4A7072","ispublic":1,"isfriend":0,"isfamily":0},{"id":"52556535519","owner":"123597211@N03","secret":"1f00bbbda9","server":"65535","farm":66,"title":"Rabengeier (Coragyps atratus)","ispublic":1,"isfriend":0,"isfamily":0},{"id":"52650749509","owner":"37203410@N07","secret":"d3839ce85d","server":"65535","farm":66,"title":"Jote de cabeza negra \/ Coragyps atratus","ispublic":1,"isfriend":0,"isfamily":0},{"id":"52641442678","owner":"124995824@N08","secret":"86301f47a7","server":"65535","farm":66,"title":"Black Vultures - Coragyps atratus","ispublic":1,"isfriend":0,"isfamily":0},{"id":"52639975491","owner":"123174353@N02","secret":"62bc808990","server":"65535","farm":66,"title":"Coragyps atratus \/ Black Vulture \/ zwarte gier","ispublic":1,"isfriend":0,"isfamily":0},{"id":"52617835131","owner":"123174353@N02","secret":"0a235efb54","server":"65535","farm":66,"title":"Coragyps atratus \/ Black Vulture \/ zwarte gier","ispublic":1,"isfriend":0,"isfamily":0},{"id":"52590952630","owner":"61062164@N08","secret":"cdbf228599","server":"65535","farm":66,"title":"850_5413-NEF_DxO_DeepPRIME","ispublic":1,"isfriend":0,"isfamily":0},{"id":"52589253937","owner":"144217344@N03","secret":"d484212451","server":"65535","farm":66,"title":"Gisela_Nagel-Fl-2290-Rabengeier","ispublic":1,"isfriend":0,"isfamily":0},{"id":"52556538844","owner":"123597211@N03","secret":"d44aa02ee8","server":"65535","farm":66,"title":"Rabengeier (Coragyps atratus)","ispublic":1,"isfriend":0,"isfamily":0},{"id":"52556538499","owner":"123597211@N03","secret":"22e061eddc","server":"65535","farm":66,"title":"Rabengeier (Coragyps atratus)","ispublic":1,"isfriend":0,"isfamily":0},{"id":"52556783333","owner":"123597211@N03","secret":"50752c3f56","server":"65535","farm":66,"title":"Rabengeier (Coragyps atratus)","ispublic":1,"isfriend":0,"isfamily":0},{"id":"52556537969","owner":"123597211@N03","secret":"fddf97e596","server":"65535","farm":66,"title":"Rabengeier (Coragyps atratus)","ispublic":1,"isfriend":0,"isfamily":0},{"id":"52556712105","owner":"123597211@N03","secret":"106655267e","server":"65535","farm":66,"title":"Rabengeier (Coragyps atratus)","ispublic":1,"isfriend":0,"isfamily":0},{"id":"52555789552","owner":"123597211@N03","secret":"30f31d1687","server":"65535","farm":66,"title":"Rabengeier (Coragyps atratus)","ispublic":1,"isfriend":0,"isfamily":0},{"id":"52556238546","owner":"123597211@N03","secret":"ba84292c7d","server":"65535","farm":66,"title":"Rabengeier (Coragyps atratus)","ispublic":1,"isfriend":0,"isfamily":0},{"id":"52556536864","owner":"123597211@N03","secret":"18d695c024","server":"65535","farm":66,"title":"Rabengeier (Coragyps atratus)","ispublic":1,"isfriend":0,"isfamily":0},{"id":"52556711005","owner":"123597211@N03","secret":"f0664bd46c","server":"65535","farm":66,"title":"Rabengeier (Coragyps atratus)","ispublic":1,"isfriend":0,"isfamily":0},{"id":"52556237651","owner":"123597211@N03","secret":"f71d52aac8","server":"65535","farm":66,"title":"Rabengeier (Coragyps atratus)","ispublic":1,"isfriend":0,"isfamily":0},{"id":"52556535849","owner":"123597211@N03","secret":"27b59d8ed4","server":"65535","farm":66,"title":"Rabengeier (Coragyps atratus)","ispublic":1,"isfriend":0,"isfamily":0},{"id":"52556535119","owner":"123597211@N03","secret":"0d373012d0","server":"65535","farm":66,"title":"Rabengeier (Coragyps atratus)","ispublic":1,"isfriend":0,"isfamily":0},{"id":"52556779718","owner":"123597211@N03","secret":"f3d3e274f8","server":"65535","farm":66,"title":"Rabengeier (Coragyps atratus)","ispublic":1,"isfriend":0,"isfamily":0},{"id":"52556779338","owner":"123597211@N03","secret":"0faa0da104","server":"65535","farm":66,"title":"Rabengeier (Coragyps atratus)","ispublic":1,"isfriend":0,"isfamily":0},{"id":"52556534224","owner":"123597211@N03","secret":"0c44526719","server":"65535","farm":66,"title":"Rabengeier (Coragyps atratus)","ispublic":1,"isfriend":0,"isfamily":0},{"id":"52556533914","owner":"123597211@N03","secret":"9a19011064","server":"65535","farm":66,"title":"Rabengeier (Coragyps atratus)","ispublic":1,"isfriend":0,"isfamily":0},{"id":"52556778333","owner":"123597211@N03","secret":"01a338d389","server":"65535","farm":66,"title":"Rabengeier (Coragyps atratus)","ispublic":1,"isfriend":0,"isfamily":0},{"id":"52556777728","owner":"123597211@N03","secret":"ceafea1f2b","server":"65535","farm":66,"title":"Rabengeier (Coragyps atratus)","ispublic":1,"isfriend":0,"isfamily":0},{"id":"52555784657","owner":"123597211@N03","secret":"5bdb227c8a","server":"65535","farm":66,"title":"Rabengeier (Coragyps atratus)","ispublic":1,"isfriend":0,"isfamily":0},{"id":"52556532389","owner":"123597211@N03","secret":"caaac7b179","server":"65535","farm":66,"title":"Rabengeier (Coragyps atratus)","ispublic":1,"isfriend":0,"isfamily":0},{"id":"52556776893","owner":"123597211@N03","secret":"c9dc39eafe","server":"65535","farm":66,"title":"Rabengeier (Coragyps atratus)","ispublic":1,"isfriend":0,"isfamily":0}]},"stat":"ok"}