{"photos":{"page":1,"pages":9,"perpage":100,"total":896,"photo":[{"id":"52718071003","owner":"56747859@N02","secret":"431dc2980d","server":"65535","farm":66,"title":"Black Throated Trogon (Trogon rufus)Female)","ispublic":1,"isfriend":0,"isfamily":0},{"id":"52680611102","owner":"61062164@N08","secret":"0859f1ffc8","server":"65535","farm":66,"title":"850_6015-NEF_DxO_DeepPRIME","ispublic":1,"isfriend":0,"isfamily":0},{"id":"52677689018","owner":"61062164@N08","secret":"493c45a21a","server":"65535","farm":66,"title":"850_6012-NEF_DxO DP2","ispublic":1,"isfriend":0,"isfamily":0},{"id":"52659668640","owner":"61062164@N08","secret":"9e6e47432a","server":"65535","farm":66,"title":"850_5785-NEF_DxO DP2","ispublic":1,"isfriend":0,"isfamily":0},{"id":"52649352318","owner":"61062164@N08","secret":"7f9d32e045","server":"65535","farm":66,"title":"850_5880-NEF_DxO DP2","ispublic":1,"isfriend":0,"isfamily":0},{"id":"52649136294","owner":"61062164@N08","secret":"d752bd2ebf","server":"65535","farm":66,"title":"850_5747-NEF_DxO DP2","ispublic":1,"isfriend":0,"isfamily":0},{"id":"52635535109","owner":"132165466@N08","secret":"ede204feb0","server":"65535","farm":66,"title":"Black-throated Trogon","ispublic":1,"isfriend":0,"isfamily":0},{"id":"52634459457","owner":"65788177@N02","secret":"658e06b316","server":"65535","farm":66,"title":"Black-throated Trogon","ispublic":1,"isfriend":0,"isfamily":0},{"id":"52589573282","owner":"68635735@N02","secret":"a159289c06","server":"65535","farm":66,"title":"Black-throated Trogon (Trogon rufus) female","ispublic":1,"isfriend":0,"isfamily":0},{"id":"52587448417","owner":"68635735@N02","secret":"759c4b7772","server":"65535","farm":66,"title":"Black-throated Trogon (Trogon rufus) male","ispublic":1,"isfriend":0,"isfamily":0},{"id":"52587931001","owner":"68635735@N02","secret":"6882d6a1ab","server":"65535","farm":66,"title":"Black-throated Trogon (Trogon rufus) male","ispublic":1,"isfriend":0,"isfamily":0},{"id":"52508813445","owner":"86585370@N00","secret":"d977f65444","server":"65535","farm":66,"title":"Black-throated Trogon \/\/ Trog\u00f3n cabaciverde \/\/ Trogom-de-garganta-preta","ispublic":1,"isfriend":0,"isfamily":0},{"id":"52505215745","owner":"190911304@N02","secret":"9ce3b97d57","server":"65535","farm":66,"title":"Surucu\u00e1 amarillo (Trogon rufus)","ispublic":1,"isfriend":0,"isfamily":0},{"id":"52497995853","owner":"186211059@N06","secret":"5d95b64584","server":"65535","farm":66,"title":"Black-throated Trogon","ispublic":1,"isfriend":0,"isfamily":0},{"id":"52439639153","owner":"9902508@N03","secret":"b7c78a5e38","server":"65535","farm":66,"title":"22-9053096","ispublic":1,"isfriend":0,"isfamily":0},{"id":"52364023236","owner":"131708321@N02","secret":"b293e6649a","server":"65535","farm":66,"title":"Black-throated Trogon (Trogon rufus), Panama City, Panama","ispublic":1,"isfriend":0,"isfamily":0},{"id":"52361577299","owner":"76335414@N08","secret":"1b0e1f2bc7","server":"65535","farm":66,"title":"Black-throated trogon","ispublic":1,"isfriend":0,"isfamily":0},{"id":"52335285229","owner":"79153825@N08","secret":"99c5b272fc","server":"65535","farm":66,"title":"Fotos aves de Panam\u00e1:Trog\u00f3n amarillo macho.(Trogon rufus.) Black throated trogon male","ispublic":1,"isfriend":0,"isfamily":0},{"id":"52334030897","owner":"79153825@N08","secret":"2f7df3ba04","server":"65535","farm":66,"title":"Fotos aves de Panam\u00e1:Trog\u00f3n amarillo macho.(Trogon rufus.) Black throated trogon male","ispublic":1,"isfriend":0,"isfamily":0},{"id":"52334984286","owner":"79153825@N08","secret":"45e6d5885e","server":"65535","farm":66,"title":"Fotos aves de Panam\u00e1:Trog\u00f3n amarillo macho.(Trogon rufus.) Black throated trogon male","ispublic":1,"isfriend":0,"isfamily":0},{"id":"52335223358","owner":"79153825@N08","secret":"7abf7bf923","server":"65535","farm":66,"title":"Fotos aves de Panam\u00e1:Trog\u00f3n amarillo macho.(Trogon rufus.) Black throated trogon male","ispublic":1,"isfriend":0,"isfamily":0},{"id":"52334028102","owner":"79153825@N08","secret":"1a3312c824","server":"65535","farm":66,"title":"Fotos aves de Panam\u00e1:Trog\u00f3n amarillo macho.(Trogon rufus.) Black throated trogon male","ispublic":1,"isfriend":0,"isfamily":0},{"id":"52334027312","owner":"79153825@N08","secret":"aa88845313","server":"65535","farm":66,"title":"Fotos aves de Panam\u00e1:Trog\u00f3n amarillo macho.(Trogon rufus.) Black throated trogon male","ispublic":1,"isfriend":0,"isfamily":0},{"id":"52335220503","owner":"79153825@N08","secret":"06cbea375e","server":"65535","farm":66,"title":"Fotos aves de Panam\u00e1:Trog\u00f3n amarillo macho.(Trogon rufus.) Black throated trogon male","ispublic":1,"isfriend":0,"isfamily":0},{"id":"52334025177","owner":"79153825@N08","secret":"70c92e3874","server":"65535","farm":66,"title":"Fotos aves de Panam\u00e1:Trog\u00f3n amarillo macho.(Trogon rufus.) Black throated trogon male","ispublic":1,"isfriend":0,"isfamily":0},{"id":"52334978471","owner":"79153825@N08","secret":"91b4e980be","server":"65535","farm":66,"title":"Fotos aves de Panam\u00e1:Trog\u00f3n amarillo macho.(Trogon rufus.) Black throated trogon male","ispublic":1,"isfriend":0,"isfamily":0},{"id":"52320050997","owner":"37493716@N02","secret":"4b31275578","server":"65535","farm":66,"title":"Black throated Trogon - Trogon rufus - Pangan ProAves Reserve - Barbacoas Nari\u00f1o - Nido activo  25 de Agosto 2022 - Juan Carlos Luna (1)","ispublic":1,"isfriend":0,"isfamily":0},{"id":"52295064204","owner":"162016724@N08","secret":"4ce6e869dd","server":"65535","farm":66,"title":"Trogon rufus - Black-throated Trogon","ispublic":1,"isfriend":0,"isfamily":0},{"id":"52294800113","owner":"162016724@N08","secret":"b5e8bf0b87","server":"65535","farm":66,"title":"Trogon rufus - Black-throated Trogon","ispublic":1,"isfriend":0,"isfamily":0},{"id":"52294799273","owner":"162016724@N08","secret":"602c3fbb2d","server":"65535","farm":66,"title":"Trogon rufus - Black-throated Trogon","ispublic":1,"isfriend":0,"isfamily":0},{"id":"52262277270","owner":"95419048@N00","secret":"53132e72ee","server":"65535","farm":66,"title":"Trogon rufus","ispublic":1,"isfriend":0,"isfamily":0},{"id":"52199688363","owner":"95795254@N02","secret":"4c3b0fa814","server":"65535","farm":66,"title":"Black-throated Trogon - Male 503_9551.jpg","ispublic":1,"isfriend":0,"isfamily":0},{"id":"52194043322","owner":"95795254@N02","secret":"5a8641a45f","server":"65535","farm":66,"title":"Black-throated Trogon 503_9291.jpg","ispublic":1,"isfriend":0,"isfamily":0},{"id":"52146282661","owner":"53048815@N06","secret":"122736fff0","server":"65535","farm":66,"title":"Black-throated Trogon (Trogon rufus)","ispublic":1,"isfriend":0,"isfamily":0},{"id":"52146305128","owner":"53048815@N06","secret":"a1bd5519a6","server":"65535","farm":66,"title":"Black-throated Trogon (Trogon rufus)","ispublic":1,"isfriend":0,"isfamily":0},{"id":"52103038079","owner":"93140244@N02","secret":"d6d51cd631","server":"65535","farm":66,"title":"Black-throated Trogon ( m )","ispublic":1,"isfriend":0,"isfamily":0},{"id":"51826819988","owner":"51106497@N03","secret":"9c56d855d9","server":"65535","farm":66,"title":"Black-throated Trogon - female","ispublic":1,"isfriend":0,"isfamily":0},{"id":"51811390673","owner":"40003624@N06","secret":"8e716325c0","server":"65535","farm":66,"title":"Black-throated Trogon, AKA Yellow-bellied Trogon","ispublic":1,"isfriend":0,"isfamily":0},{"id":"51711100459","owner":"16289576@N00","secret":"3cb15b7336","server":"65535","farm":66,"title":"BTTR_fem_PN-Carara_17Nov2021_PHS-9882","ispublic":1,"isfriend":0,"isfamily":0},{"id":"51711305390","owner":"16289576@N00","secret":"855093479f","server":"65535","farm":66,"title":"BTTR_fem_PN-Carara_17Nov2021_PHS-9884","ispublic":1,"isfriend":0,"isfamily":0},{"id":"51711099894","owner":"16289576@N00","secret":"e8e9c86820","server":"65535","farm":66,"title":"BTTR_fem_PN-Carara_17Nov2021_PHS-9885","ispublic":1,"isfriend":0,"isfamily":0},{"id":"51711099604","owner":"16289576@N00","secret":"cd38c03e5f","server":"65535","farm":66,"title":"BTTR_fem_PN-Carara_17Nov2021_PHS-9886","ispublic":1,"isfriend":0,"isfamily":0},{"id":"51687313554","owner":"96568982@N06","secret":"74c19df5a7","server":"65535","farm":66,"title":"TROGON, Black-throated","ispublic":1,"isfriend":0,"isfamily":0},{"id":"51662367522","owner":"61316002@N02","secret":"3d8714c8e7","server":"65535","farm":66,"title":"BLATHRTRO amazonicus 3258","ispublic":1,"isfriend":0,"isfamily":0},{"id":"52639710492","owner":"12639178@N07","secret":"1d40433832","server":"65535","farm":66,"title":"Schwarzkehltrogon","ispublic":1,"isfriend":0,"isfamily":0},{"id":"52635535119","owner":"132165466@N08","secret":"a90a031d9b","server":"65535","farm":66,"title":"Black-throated Trogon","ispublic":1,"isfriend":0,"isfamily":0},{"id":"52635535114","owner":"132165466@N08","secret":"e9ec61d443","server":"65535","farm":66,"title":"Black-throated Trogon","ispublic":1,"isfriend":0,"isfamily":0},{"id":"52598332084","owner":"12639178@N07","secret":"395827b1c0","server":"65535","farm":66,"title":"Schwarzkehltrogon","ispublic":1,"isfriend":0,"isfamily":0},{"id":"52594832484","owner":"61062164@N08","secret":"d26811b152","server":"65535","farm":66,"title":"850_5844-NEF_DxO_DeepPRIME","ispublic":1,"isfriend":0,"isfamily":0},{"id":"52594571731","owner":"61062164@N08","secret":"736939faa2","server":"65535","farm":66,"title":"850_5802-NEF_DxO_DeepPRIME","ispublic":1,"isfriend":0,"isfamily":0},{"id":"52594086532","owner":"61062164@N08","secret":"5a075159ec","server":"65535","farm":66,"title":"850_5775-NEF_DxO_DeepPRIME","ispublic":1,"isfriend":0,"isfamily":0},{"id":"52594830604","owner":"61062164@N08","secret":"e9ed2195ab","server":"65535","farm":66,"title":"850_5740-NEF_DxO_DeepPRIME","ispublic":1,"isfriend":0,"isfamily":0},{"id":"52572901814","owner":"56747859@N02","secret":"9ba6fd9d7b","server":"65535","farm":66,"title":"Black Throated Trogon Male (Trogon rufus)","ispublic":1,"isfriend":0,"isfamily":0},{"id":"52517294406","owner":"123174353@N02","secret":"68c8805423","server":"65535","farm":66,"title":"Trogon rufus \/ Black-throated Trogon \/ zwartkeeltrogon","ispublic":1,"isfriend":0,"isfamily":0},{"id":"52517842333","owner":"123174353@N02","secret":"c3b27ce0bc","server":"65535","farm":66,"title":"Trogon rufus \/ Black-throated Trogon \/ zwartkeeltrogon","ispublic":1,"isfriend":0,"isfamily":0},{"id":"52505058218","owner":"123174353@N02","secret":"c046f8d9d2","server":"65535","farm":66,"title":"Trogon rufus \/ Black-throated Trogon \/ zwartkeeltrogon","ispublic":1,"isfriend":0,"isfamily":0},{"id":"52497928190","owner":"186211059@N06","secret":"92e672f908","server":"65535","farm":66,"title":"Black-throated Trogon","ispublic":1,"isfriend":0,"isfamily":0},{"id":"52492343632","owner":"86666094@N00","secret":"cc5f345d17","server":"65535","farm":66,"title":"Black-throated Trogon","ispublic":1,"isfriend":0,"isfamily":0},{"id":"52435526758","owner":"48938938@N04","secret":"f3b4cd4ac9","server":"65535","farm":66,"title":"Black-throated Trogon_Trogon rufus_Ascanio_Iguacu_Brazil_DZ3A0800","ispublic":1,"isfriend":0,"isfamily":0},{"id":"52435526733","owner":"48938938@N04","secret":"02b36ac189","server":"65535","farm":66,"title":"Black-throated Trogon_Trogon rufus_Ascanio_Iguacu_Brazil_DZ3A0801","ispublic":1,"isfriend":0,"isfamily":0},{"id":"52334987831","owner":"79153825@N08","secret":"bddb4f8291","server":"65535","farm":66,"title":"Fotos aves de Panam\u00e1:Trog\u00f3n amarillo macho.(Trogon rufus.) Black throated trogon male","ispublic":1,"isfriend":0,"isfamily":0},{"id":"52334986946","owner":"79153825@N08","secret":"0d5fcb6bb0","server":"65535","farm":66,"title":"Fotos aves de Panam\u00e1:Trog\u00f3n amarillo macho.(Trogon rufus.) Black throated trogon male","ispublic":1,"isfriend":0,"isfamily":0},{"id":"52321291845","owner":"37493716@N02","secret":"b9cfea2583","server":"65535","farm":66,"title":"Black throated Trogon - Trogon rufus - Pangan ProAves Reserve - Barbacoas Nari\u00f1o - Nido activo  25 de Agosto 2022 - Juan Carlos Luna (2)","ispublic":1,"isfriend":0,"isfamily":0},{"id":"52169477066","owner":"161366754@N07","secret":"264bdb8a3f","server":"65535","farm":66,"title":"Black-throated Trogon (Trogon rufus)","ispublic":1,"isfriend":0,"isfamily":0},{"id":"52117038214","owner":"14299517@N05","secret":"671f8599c2","server":"65535","farm":66,"title":"Birds of Panama - 8\/14","ispublic":1,"isfriend":0,"isfamily":0},{"id":"52117296985","owner":"14299517@N05","secret":"910679279a","server":"65535","farm":66,"title":"Birds of Panama - 8\/14","ispublic":1,"isfriend":0,"isfamily":0},{"id":"52117296955","owner":"14299517@N05","secret":"4e6cc10257","server":"65535","farm":66,"title":"Birds of Panama - 7\/14","ispublic":1,"isfriend":0,"isfamily":0},{"id":"52116787386","owner":"14299517@N05","secret":"a313beaebd","server":"65535","farm":66,"title":"Birds of Panama - 6\/14","ispublic":1,"isfriend":0,"isfamily":0},{"id":"52116787351","owner":"14299517@N05","secret":"ec302502b7","server":"65535","farm":66,"title":"Birds of Panama - 4\/14","ispublic":1,"isfriend":0,"isfamily":0},{"id":"52116826608","owner":"14299517@N05","secret":"92341722aa","server":"65535","farm":66,"title":"Birds of Panama - 4\/14","ispublic":1,"isfriend":0,"isfamily":0},{"id":"52115760997","owner":"14299517@N05","secret":"4b070dc0f6","server":"65535","farm":66,"title":"Birds of Panama - 2\/14","ispublic":1,"isfriend":0,"isfamily":0},{"id":"52115760962","owner":"14299517@N05","secret":"a3c6fdf9da","server":"65535","farm":66,"title":"Birds of Panama - 1\/14","ispublic":1,"isfriend":0,"isfamily":0},{"id":"52115760982","owner":"14299517@N05","secret":"bae9f02206","server":"65535","farm":66,"title":"Birds of Panama - 1\/14","ispublic":1,"isfriend":0,"isfamily":0},{"id":"52117038054","owner":"14299517@N05","secret":"a855a09aa9","server":"65535","farm":66,"title":"Birds of Panama - 9\/14","ispublic":1,"isfriend":0,"isfamily":0},{"id":"52117296775","owner":"14299517@N05","secret":"40497d1fbe","server":"65535","farm":66,"title":"Birds of Panama - 9\/14","ispublic":1,"isfriend":0,"isfamily":0},{"id":"52116787236","owner":"14299517@N05","secret":"661f9ce440","server":"65535","farm":66,"title":"Birds of Panama - 10\/14","ispublic":1,"isfriend":0,"isfamily":0},{"id":"52115760872","owner":"14299517@N05","secret":"4770840055","server":"65535","farm":66,"title":"Birds of Panama - 10\/14","ispublic":1,"isfriend":0,"isfamily":0},{"id":"52117037974","owner":"14299517@N05","secret":"6c8ff418d2","server":"65535","farm":66,"title":"Birds of Panama - 10\/14","ispublic":1,"isfriend":0,"isfamily":0},{"id":"52115760797","owner":"14299517@N05","secret":"dc5ba7b999","server":"65535","farm":66,"title":"Birds of Panama - 12\/14","ispublic":1,"isfriend":0,"isfamily":0},{"id":"52117037959","owner":"14299517@N05","secret":"f8aaf6c2c5","server":"65535","farm":66,"title":"Birds of Panama - 11\/14","ispublic":1,"isfriend":0,"isfamily":0},{"id":"52115760792","owner":"14299517@N05","secret":"79787c604d","server":"65535","farm":66,"title":"Birds of Panama - 13\/14","ispublic":1,"isfriend":0,"isfamily":0},{"id":"52116787076","owner":"14299517@N05","secret":"d33892d0c5","server":"65535","farm":66,"title":"Birds of Panama - 3\/14","ispublic":1,"isfriend":0,"isfamily":0},{"id":"52116787056","owner":"14299517@N05","secret":"6b0b179894","server":"65535","farm":66,"title":"Birds of Panama - 14\/14","ispublic":1,"isfriend":0,"isfamily":0},{"id":"52021053494","owner":"189109845@N04","secret":"a9b22aa399","server":"65535","farm":66,"title":"Black throated Trogon (Trogon rufus)","ispublic":1,"isfriend":0,"isfamily":0},{"id":"51989215547","owner":"126271444@N08","secret":"71d960b271","server":"65535","farm":66,"title":"Black-throated Trogon (Trogon rufus)female","ispublic":1,"isfriend":0,"isfamily":0},{"id":"51990770545","owner":"126271444@N08","secret":"4f881cfa32","server":"65535","farm":66,"title":"Black-throated Trogon (Trogon rufus)female","ispublic":1,"isfriend":0,"isfamily":0},{"id":"51989215202","owner":"126271444@N08","secret":"99f190ef1e","server":"65535","farm":66,"title":"Black-throated Trogon (Trogon rufus)","ispublic":1,"isfriend":0,"isfamily":0},{"id":"51989215052","owner":"126271444@N08","secret":"9344399992","server":"65535","farm":66,"title":"Black-throated Trogon (Trogon rufus)","ispublic":1,"isfriend":0,"isfamily":0},{"id":"51990272813","owner":"126271444@N08","secret":"25d745270e","server":"65535","farm":66,"title":"Black-throated Trogon (Trogon rufus)","ispublic":1,"isfriend":0,"isfamily":0},{"id":"51732133787","owner":"12639178@N07","secret":"0572587d19","server":"65535","farm":66,"title":"Schwarzkehltrogon","ispublic":1,"isfriend":0,"isfamily":0},{"id":"51733845755","owner":"12639178@N07","secret":"735edc6cd4","server":"65535","farm":66,"title":"Schwarzkehltrogon","ispublic":1,"isfriend":0,"isfamily":0},{"id":"51711308195","owner":"16289576@N00","secret":"3bf486d2bd","server":"65535","farm":66,"title":"BTTR_fem_PN-Carara_17Nov2021_PHS-9862","ispublic":1,"isfriend":0,"isfamily":0},{"id":"51711307770","owner":"16289576@N00","secret":"816be60a23","server":"65535","farm":66,"title":"BTTR_fem_PN-Carara_17Nov2021_PHS-9863","ispublic":1,"isfriend":0,"isfamily":0},{"id":"51709639182","owner":"16289576@N00","secret":"1b2fb8e00a","server":"65535","farm":66,"title":"BTTR_fem_PN-Carara_17Nov2021_PHS-9865","ispublic":1,"isfriend":0,"isfamily":0},{"id":"51710423591","owner":"16289576@N00","secret":"e8eb351d1c","server":"65535","farm":66,"title":"BTTR_fem_PN-Carara_17Nov2021_PHS-9871","ispublic":1,"isfriend":0,"isfamily":0},{"id":"51711306825","owner":"16289576@N00","secret":"334031bf07","server":"65535","farm":66,"title":"BTTR_fem_PN-Carara_17Nov2021_PHS-9873","ispublic":1,"isfriend":0,"isfamily":0},{"id":"51710422796","owner":"16289576@N00","secret":"0916d6c3c6","server":"65535","farm":66,"title":"BTTR_fem_PN-Carara_17Nov2021_PHS-9874","ispublic":1,"isfriend":0,"isfamily":0},{"id":"51710701378","owner":"16289576@N00","secret":"269229023a","server":"65535","farm":66,"title":"BTTR_fem_PN-Carara_17Nov2021_PHS-9875","ispublic":1,"isfriend":0,"isfamily":0},{"id":"51709943051","owner":"12639178@N07","secret":"dd8e92b78c","server":"65535","farm":66,"title":"Schwarzkehl-Trogon","ispublic":1,"isfriend":0,"isfamily":0},{"id":"51710827960","owner":"12639178@N07","secret":"2b73148da5","server":"65535","farm":66,"title":"Schwarzkehl-Trogon","ispublic":1,"isfriend":0,"isfamily":0}]},"stat":"ok"}