{"photos":{"page":1,"pages":90,"perpage":100,"total":8925,"photo":[{"id":"52724408983","owner":"63093099@N02","secret":"6bf43a8228","server":"65535","farm":66,"title":"Black-bellied Plover; 20230303; UK-NFK-RSPB Titchwell Marsh","ispublic":1,"isfriend":0,"isfamily":0},{"id":"52724189289","owner":"63093099@N02","secret":"96554215af","server":"65535","farm":66,"title":"Black-bellied Plover; 20230303; UK-NFK-RSPB Titchwell Marsh","ispublic":1,"isfriend":0,"isfamily":0},{"id":"52716992027","owner":"140918411@N06","secret":"e160df1bb4","server":"65535","farm":66,"title":"Escape !!!","ispublic":1,"isfriend":0,"isfamily":0},{"id":"52714287526","owner":"127588226@N08","secret":"1f83a3fbb6","server":"65535","farm":66,"title":"K33P0115c Grey Plover, Titchwell Beach, February 2023","ispublic":1,"isfriend":0,"isfamily":0},{"id":"52712370945","owner":"12639178@N07","secret":"0fc6b251e7","server":"65535","farm":66,"title":"Kiebitzregenpfeifer und Alpenstrandl\u00e4ufer","ispublic":1,"isfriend":0,"isfamily":0},{"id":"52704519868","owner":"99817330@N02","secret":"921ec67f2f","server":"65535","farm":66,"title":"Hoylake Waderfest","ispublic":1,"isfriend":0,"isfamily":0},{"id":"52700002749","owner":"134257219@N04","secret":"fd54a91c89","server":"65535","farm":66,"title":"Tarambola-cinzenta (Pluvialis Squatarola), Grey Plover - Murtosa","ispublic":1,"isfriend":0,"isfamily":0},{"id":"52696843613","owner":"12639178@N07","secret":"a152ff1f84","server":"65535","farm":66,"title":"Kiebitzregenpfeifer, \u2640, auf Futtersuche am Strandsee, Algarve-Westk\u00fcste","ispublic":1,"isfriend":0,"isfamily":0},{"id":"52696617544","owner":"12639178@N07","secret":"fb0a1b7d1f","server":"65535","farm":66,"title":"Kiebitzregenpfeifer, \u2640, auf Futtersuche am Strandsee, Algarve-Westk\u00fcste","ispublic":1,"isfriend":0,"isfamily":0},{"id":"52696598384","owner":"12639178@N07","secret":"f380db1044","server":"65535","farm":66,"title":"Kiebitzregenpfeifer-P\u00e4rchen, auf Futtersuche am Strandsee, Algarve-Westk\u00fcst","ispublic":1,"isfriend":0,"isfamily":0},{"id":"52696824093","owner":"12639178@N07","secret":"de716dcddb","server":"65535","farm":66,"title":"Kiebitzregenpfeifer, \u2642, auf Futtersuche am Strandsee, Algarve-Westk\u00fcste","ispublic":1,"isfriend":0,"isfamily":0},{"id":"52695821392","owner":"12639178@N07","secret":"c573329000","server":"65535","farm":66,"title":"Kiebitzregenpfeifer, \u2642, mit Beute, am Strandsee, Algarve-Westk\u00fcste","ispublic":1,"isfriend":0,"isfamily":0},{"id":"52696597889","owner":"12639178@N07","secret":"5119204ed5","server":"65535","farm":66,"title":"Kiebitzregenpfeifer, \u2642, auf Futtersuche am Strandsee, Algarve-Westk\u00fcste","ispublic":1,"isfriend":0,"isfamily":0},{"id":"52690969881","owner":"54100598@N08","secret":"c2cd58a6d7","server":"65535","farm":66,"title":"Grey \/ Black-bellied Plover (Charadrius hiaticula)","ispublic":1,"isfriend":0,"isfamily":0},{"id":"52691461413","owner":"54100598@N08","secret":"24d435536b","server":"65535","farm":66,"title":"Grey \/ Black-bellied Plover (Charadrius hiaticula)","ispublic":1,"isfriend":0,"isfamily":0},{"id":"52690502952","owner":"197653711@N02","secret":"bd058a7385","server":"65535","farm":66,"title":"Chorlito Gris \/ The grey plover (Pluvialis squatarola)","ispublic":1,"isfriend":0,"isfamily":0},{"id":"52688655096","owner":"187996196@N05","secret":"1505b97f25","server":"65535","farm":66,"title":"Kiebitzregenpfeifer \/ black-bellied plover \/ Pluvialis squatarola","ispublic":1,"isfriend":0,"isfamily":0},{"id":"52688371611","owner":"32998004@N04","secret":"e28c40ef55","server":"65535","farm":66,"title":"Pivieressa - Grey plover","ispublic":1,"isfriend":0,"isfamily":0},{"id":"52685337422","owner":"123529713@N08","secret":"b48f047ba6","server":"65535","farm":66,"title":"Pigre gris - Chorlito gris - Grey plover - Pluvier argent\u00e9 - Pluvialis squatarola","ispublic":1,"isfriend":0,"isfamily":0},{"id":"52685721084","owner":"96060626@N03","secret":"8d1c987a8d","server":"65535","farm":66,"title":"20230205\u7070\u6591\u9d34 (1)","ispublic":1,"isfriend":0,"isfamily":0},{"id":"52680239246","owner":"156274276@N07","secret":"f1b325fe4d","server":"65535","farm":66,"title":"grey plover","ispublic":1,"isfriend":0,"isfamily":0},{"id":"52678704684","owner":"123529713@N08","secret":"bc91bbbcf1","server":"65535","farm":66,"title":"Pigre gris - Chorlito gris - Grey plover - Pluvier argent\u00e9 - Pluvialis squatarola","ispublic":1,"isfriend":0,"isfamily":0},{"id":"52677856737","owner":"124995824@N08","secret":"19125a9caf","server":"65535","farm":66,"title":"Black-bellied Plover - Pluvialis squatarola","ispublic":1,"isfriend":0,"isfamily":0},{"id":"52677853452","owner":"124995824@N08","secret":"50eb3f5239","server":"65535","farm":66,"title":"Black-bellied Plover - Pluvialis squatarola","ispublic":1,"isfriend":0,"isfamily":0},{"id":"52676752542","owner":"197653711@N02","secret":"7640d576ec","server":"65535","farm":66,"title":"Chorlito gris \/ The grey plover (Pluvialis squatarola)","ispublic":1,"isfriend":0,"isfamily":0},{"id":"52674589322","owner":"193852398@N04","secret":"3446d4f21b","server":"65535","farm":66,"title":"_DSC4581","ispublic":1,"isfriend":0,"isfamily":0},{"id":"52671341583","owner":"99817330@N02","secret":"1a994a8c64","server":"65535","farm":66,"title":"Grey Plover","ispublic":1,"isfriend":0,"isfamily":0},{"id":"52669127752","owner":"62043870@N05","secret":"6a8e5781b8","server":"65535","farm":66,"title":"Black-bellied Plover, Pluvialis squatarola","ispublic":1,"isfriend":0,"isfamily":0},{"id":"52668260796","owner":"37180297@N08","secret":"525a6ee38a","server":"65535","farm":66,"title":"_RBD6772 Pluvialis squatarola \u7070\u6591\u9d34","ispublic":1,"isfriend":0,"isfamily":0},{"id":"52668697330","owner":"37180297@N08","secret":"438db3c2bb","server":"65535","farm":66,"title":"_RBD6775 Pluvialis squatarola \u7070\u6591\u9d34","ispublic":1,"isfriend":0,"isfamily":0},{"id":"52666712510","owner":"29882791@N02","secret":"18b62e825e","server":"65535","farm":66,"title":"Charadriidae - Pluvialis squatarola","ispublic":1,"isfriend":0,"isfamily":0},{"id":"52664176807","owner":"14734088@N02","secret":"9acdcae9df","server":"65535","farm":66,"title":"Pluvier argent\u00e9 221023H5","ispublic":1,"isfriend":0,"isfamily":0},{"id":"52661901464","owner":"93512100@N08","secret":"f1d194a855","server":"65535","farm":66,"title":"King Tide [read...]","ispublic":1,"isfriend":0,"isfamily":0},{"id":"52661608683","owner":"12639178@N07","secret":"27a122c1d8","server":"65535","farm":66,"title":"Kiebitzregenpfeifer (Pluvialis squatarola) (1)","ispublic":1,"isfriend":0,"isfamily":0},{"id":"52658960928","owner":"35170601@N06","secret":"db393a8efc","server":"65535","farm":66,"title":"bling","ispublic":1,"isfriend":0,"isfamily":0},{"id":"52656406651","owner":"130021529@N02","secret":"f59ca6e36f","server":"65535","farm":66,"title":"Pluvialis squatarola | Grey Plover | kustpipare","ispublic":1,"isfriend":0,"isfamily":0},{"id":"52654797020","owner":"157220357@N08","secret":"a1d2472bc6","server":"65535","farm":66,"title":"Bar Tailed Godwits and Grey Plover","ispublic":1,"isfriend":0,"isfamily":0},{"id":"52654369414","owner":"32998004@N04","secret":"2323a0f07d","server":"65535","farm":66,"title":"Pivieressa","ispublic":1,"isfriend":0,"isfamily":0},{"id":"52651478107","owner":"19538227@N00","secret":"07949bf4f9","server":"65535","farm":66,"title":"Grey plover","ispublic":1,"isfriend":0,"isfamily":0},{"id":"52652410050","owner":"19538227@N00","secret":"bbb6659d34","server":"65535","farm":66,"title":"Grey plover","ispublic":1,"isfriend":0,"isfamily":0},{"id":"52648222262","owner":"129553350@N02","secret":"8a17c7d666","server":"65535","farm":66,"title":"No Idea..","ispublic":1,"isfriend":0,"isfamily":0},{"id":"52648169779","owner":"99817330@N02","secret":"d95177a6ac","server":"65535","farm":66,"title":"Ringed Plover No-Mates","ispublic":1,"isfriend":0,"isfamily":0},{"id":"52647817914","owner":"62043870@N05","secret":"4d9acaf177","server":"65535","farm":66,"title":"Black-bellied Plover, Pluvialis squatarola","ispublic":1,"isfriend":0,"isfamily":0},{"id":"52646178299","owner":"99817330@N02","secret":"9219a45526","server":"65535","farm":66,"title":"Barwit No-mates","ispublic":1,"isfriend":0,"isfamily":0},{"id":"52643777412","owner":"88932760@N08","secret":"eda54c902b","server":"65535","farm":66,"title":"Sproing!","ispublic":1,"isfriend":0,"isfamily":0},{"id":"52642356271","owner":"81269484@N00","secret":"497c4b179f","server":"65535","farm":66,"title":"Odd one out","ispublic":1,"isfriend":0,"isfamily":0},{"id":"52640351221","owner":"145907835@N07","secret":"8df4452360","server":"65535","farm":66,"title":"Zilverplevier - Pluvialis squatarola","ispublic":1,"isfriend":0,"isfamily":0},{"id":"52639313832","owner":"165841515@N03","secret":"856468b2c2","server":"65535","farm":66,"title":"Pluvier argent\u00e9 \/ Black-bellied Plover \/ (Pluvialis squatarola)","ispublic":1,"isfriend":0,"isfamily":0},{"id":"52640301353","owner":"165841515@N03","secret":"c02b85f5a4","server":"65535","farm":66,"title":"Pluvier argent\u00e9 \/ Black-bellied Plover \/ (Pluvialis squatarola)","ispublic":1,"isfriend":0,"isfamily":0},{"id":"52637800971","owner":"8065544@N08","secret":"b9f5e3836f","server":"65535","farm":66,"title":"Black-bellied Plover (Pluvialis squatarola)","ispublic":1,"isfriend":0,"isfamily":0},{"id":"52634239712","owner":"14734088@N02","secret":"bcc07e29d8","server":"65535","farm":66,"title":"Pluvier argent\u00e9 220918H2","ispublic":1,"isfriend":0,"isfamily":0},{"id":"52635005548","owner":"26371261@N00","secret":"0b6e2a075e","server":"65535","farm":66,"title":"Black-Bellied Plover, Pluvialis squatarola","ispublic":1,"isfriend":0,"isfamily":0},{"id":"52631078926","owner":"127635832@N07","secret":"fbc85f8757","server":"65535","farm":66,"title":"Tarambola-cinzenta | Black-bellied Plover (Pluvialis squatarola)","ispublic":1,"isfriend":0,"isfamily":0},{"id":"52628198826","owner":"110397068@N08","secret":"0ce3fabed4","server":"65535","farm":66,"title":"Strutting GREY PLOVER on the shoreline.","ispublic":1,"isfriend":0,"isfamily":0},{"id":"52627457214","owner":"145466593@N08","secret":"21f3c19afe","server":"65535","farm":66,"title":"Black-bellied Plover","ispublic":1,"isfriend":0,"isfamily":0},{"id":"52626199106","owner":"165841515@N03","secret":"ca69cb6746","server":"65535","farm":66,"title":"Pluvier argent\u00e9 \/ Black-bellied Plover \/ (Pluvialis squatarola)","ispublic":1,"isfriend":0,"isfamily":0},{"id":"52626198856","owner":"165841515@N03","secret":"2ebe0570d5","server":"65535","farm":66,"title":"Pluvier argent\u00e9 \/ Black-bellied Plover \/ (Pluvialis squatarola)","ispublic":1,"isfriend":0,"isfamily":0},{"id":"52622960517","owner":"130021529@N02","secret":"b7f6d4cdbb","server":"65535","farm":66,"title":"Pluvialis squatarola | Grey Plover | kustpipare","ispublic":1,"isfriend":0,"isfamily":0},{"id":"52619509829","owner":"157220357@N08","secret":"e485f8a2f3","server":"65535","farm":66,"title":"Grey Plover Annagassan","ispublic":1,"isfriend":0,"isfamily":0},{"id":"52614867182","owner":"127635832@N07","secret":"3b64eb9786","server":"65535","farm":66,"title":"Tarambola-cinzenta | Black-bellied Plover (Pluvialis squatarola)","ispublic":1,"isfriend":0,"isfamily":0},{"id":"52613087684","owner":"12639178@N07","secret":"b624ddffe2","server":"65535","farm":66,"title":"Unmengen an verschiedenen Lemikolen","ispublic":1,"isfriend":0,"isfamily":0},{"id":"52613087554","owner":"12639178@N07","secret":"fbf4614c45","server":"65535","farm":66,"title":"Kiebitzregenpfeifer","ispublic":1,"isfriend":0,"isfamily":0},{"id":"52612825856","owner":"12639178@N07","secret":"569fa31543","server":"65535","farm":66,"title":"Kiebitzregenpfeifer","ispublic":1,"isfriend":0,"isfamily":0},{"id":"52612796904","owner":"49739666@N00","secret":"2f2a2a4219","server":"65535","farm":66,"title":"Kiebitzregenpfeifer \/ Grey plover","ispublic":1,"isfriend":0,"isfamily":0},{"id":"52608275677","owner":"157220357@N08","secret":"7fb0f82742","server":"65535","farm":66,"title":"Dunlin and Grey Plover","ispublic":1,"isfriend":0,"isfamily":0},{"id":"52606166523","owner":"62043870@N05","secret":"38bb3f5aaf","server":"65535","farm":66,"title":"Black-bellied Plover, Pluvialis squatarola","ispublic":1,"isfriend":0,"isfamily":0},{"id":"52604968519","owner":"157220357@N08","secret":"071618183e","server":"65535","farm":66,"title":"Seabank Grey Plover","ispublic":1,"isfriend":0,"isfamily":0},{"id":"52598449160","owner":"157220357@N08","secret":"f9b87966ab","server":"0","farm":0,"title":"Seabank Grey Plover","ispublic":1,"isfriend":0,"isfamily":0},{"id":"52597737389","owner":"196731654@N02","secret":"168e3be04b","server":"65535","farm":66,"title":"Pluvialis squatarola. Chorlito gris. Fuerteventura.","ispublic":1,"isfriend":0,"isfamily":0},{"id":"52595957313","owner":"186211059@N06","secret":"dde12cde0c","server":"65535","farm":66,"title":"Grey Plover","ispublic":1,"isfriend":0,"isfamily":0},{"id":"52595434406","owner":"186211059@N06","secret":"8c6de6038b","server":"65535","farm":66,"title":"Grey Plover","ispublic":1,"isfriend":0,"isfamily":0},{"id":"52595889473","owner":"99817330@N02","secret":"01d7dbf176","server":"65535","farm":66,"title":"Grey Plover","ispublic":1,"isfriend":0,"isfamily":0},{"id":"52595588884","owner":"127635832@N07","secret":"3ee4aa5263","server":"65535","farm":66,"title":"Tarambola-cinzenta | Black-bellied Plover (Pluvialis squatarola)","ispublic":1,"isfriend":0,"isfamily":0},{"id":"52594623232","owner":"62043870@N05","secret":"fc1b6cc8ec","server":"65535","farm":66,"title":"Black-bellied Plover, Pluvialis squatarola","ispublic":1,"isfriend":0,"isfamily":0},{"id":"52589863025","owner":"12639178@N07","secret":"f8a08cbcc1","server":"65535","farm":66,"title":"Kiebitzregenpfeifer","ispublic":1,"isfriend":0,"isfamily":0},{"id":"52588910449","owner":"12639178@N07","secret":"fbecec0508","server":"65535","farm":66,"title":"Kiebitzregenpfeifer","ispublic":1,"isfriend":0,"isfamily":0},{"id":"52580019609","owner":"157220357@N08","secret":"a37a61447d","server":"0","farm":0,"title":"Annagassan Grey Plover","ispublic":1,"isfriend":0,"isfamily":0},{"id":"52577283181","owner":"14734088@N02","secret":"b718f6468c","server":"65535","farm":66,"title":"Pluvier argent\u00e9 221023H2c","ispublic":1,"isfriend":0,"isfamily":0},{"id":"52571613065","owner":"12639178@N07","secret":"14ee61829a","server":"65535","farm":66,"title":"Kiebitzregenpfeifer (Pluvialis squatarola) (1)","ispublic":1,"isfriend":0,"isfamily":0},{"id":"52570101733","owner":"145907835@N07","secret":"6f3da75c4e","server":"65535","farm":66,"title":"Zilverplevier - Pluvialis squatarola","ispublic":1,"isfriend":0,"isfamily":0},{"id":"52568926266","owner":"23946780@N08","secret":"49488d0a52","server":"65535","farm":66,"title":"Grey Plover (Pluvialis squatarola)","ispublic":1,"isfriend":0,"isfamily":0},{"id":"52569454003","owner":"23946780@N08","secret":"8e699a8ec8","server":"65535","farm":66,"title":"Grey Plover (Pluvialis squatarola)","ispublic":1,"isfriend":0,"isfamily":0},{"id":"52567927365","owner":"7660999@N05","secret":"8cee50bbbf","server":"65535","farm":66,"title":"Grey Plover (Pluvialis squatarola)","ispublic":1,"isfriend":0,"isfamily":0},{"id":"52567904193","owner":"190994358@N05","secret":"70c3123e51","server":"65535","farm":66,"title":"Contra la duna","ispublic":1,"isfriend":0,"isfamily":0},{"id":"52566867161","owner":"14734088@N02","secret":"7b96424d2e","server":"65535","farm":66,"title":"Pluvier argent\u00e9 201013H2","ispublic":1,"isfriend":0,"isfamily":0},{"id":"52565446211","owner":"12639178@N07","secret":"1c38be2bb7","server":"65535","farm":66,"title":"Kiebitzregenpfeifer","ispublic":1,"isfriend":0,"isfamily":0},{"id":"52564348464","owner":"78435122@N05","secret":"eee668bdb7","server":"65535","farm":66,"title":"_F0A6450","ispublic":1,"isfriend":0,"isfamily":0},{"id":"52563610352","owner":"78435122@N05","secret":"c29117d5fb","server":"65535","farm":66,"title":"_F0A6451","ispublic":1,"isfriend":0,"isfamily":0},{"id":"52563978018","owner":"12639178@N07","secret":"6dd5d60573","server":"65535","farm":66,"title":"Kiebitzregenpfeifer, SK, einer von wenigen im Watt","ispublic":1,"isfriend":0,"isfamily":0},{"id":"52563725979","owner":"12639178@N07","secret":"06b8257a34","server":"65535","farm":66,"title":"Kiebitzregenpfeifer, SK, einer von wenigen im Watt","ispublic":1,"isfriend":0,"isfamily":0},{"id":"52632981995","owner":"160038011@N05","secret":"1e95755985","server":"65535","farm":66,"title":"Tarambola-cinzenta \/ Pluvialis squatarola","ispublic":1,"isfriend":0,"isfamily":0},{"id":"52631426782","owner":"47533293@N04","secret":"f9b89395ba","server":"65535","farm":66,"title":"Black-bellied plover, Pluvialis squatarola","ispublic":1,"isfriend":0,"isfamily":0},{"id":"52626283689","owner":"59967518@N04","secret":"cdf83943bc","server":"65535","farm":66,"title":"0S8A0594. Grey Plover (Pluvialis squatarola)","ispublic":1,"isfriend":0,"isfamily":0},{"id":"52612610064","owner":"186211059@N06","secret":"594088e733","server":"65535","farm":66,"title":"Grey Plover","ispublic":1,"isfriend":0,"isfamily":0},{"id":"52595958633","owner":"186211059@N06","secret":"1dc2dba379","server":"65535","farm":66,"title":"Grey Plover","ispublic":1,"isfriend":0,"isfamily":0},{"id":"52594946982","owner":"186211059@N06","secret":"70338349f4","server":"65535","farm":66,"title":"Grey Plover","ispublic":1,"isfriend":0,"isfamily":0},{"id":"52590983557","owner":"79722430@N04","secret":"22f50edc8a","server":"65535","farm":66,"title":"Grey plover (Pluvialis squatarola)","ispublic":1,"isfriend":0,"isfamily":0},{"id":"52588523988","owner":"79722430@N04","secret":"4578a50b57","server":"65535","farm":66,"title":"Black-bellied plover (Pluvialis squatarola)","ispublic":1,"isfriend":0,"isfamily":0},{"id":"52582496676","owner":"132508209@N08","secret":"37ec8491bf","server":"65535","farm":66,"title":"Black-bellied Plover (Pluvialis squatarola)","ispublic":1,"isfriend":0,"isfamily":0},{"id":"52580951593","owner":"153973412@N04","secret":"f3c7c5782b","server":"65535","farm":66,"title":"Black-bellied Plover-Pluvialis squatarola, Sannibel, FL","ispublic":1,"isfriend":0,"isfamily":0}]},"stat":"ok"}