{"photos":{"page":1,"pages":24,"perpage":100,"total":2385,"photo":[{"id":"52669291803","owner":"136180232@N08","secret":"ca9fc4b867","server":"65535","farm":66,"title":"Black-throated Green Warbler (Setophaga virens) JTE_2492","ispublic":1,"isfriend":0,"isfamily":0},{"id":"52667823765","owner":"54249623@N08","secret":"23705ebf2b","server":"65535","farm":66,"title":"Reinita Gorginegra, Black-throated Green Warbler (Setophaga virens) (Dendroica virens)","ispublic":1,"isfriend":0,"isfamily":0},{"id":"52656521960","owner":"78145652@N02","secret":"b44b7f97d3","server":"65535","farm":66,"title":"Black-throated Green Warbler - Setophaga virens -The flower is Hibiscus clypeatus","ispublic":1,"isfriend":0,"isfamily":0},{"id":"52633150555","owner":"76617062@N08","secret":"6188b64517","server":"65535","farm":66,"title":"1.27832 Paruline \u00e0 gorge noire \/ Setophaga virens \/ Black-throated Green Warbler","ispublic":1,"isfriend":0,"isfamily":0},{"id":"52592974249","owner":"30979614@N07","secret":"a378bc68d9","server":"65535","farm":66,"title":"2022-05-10 Montrose Point 12","ispublic":1,"isfriend":0,"isfamily":0},{"id":"52568082251","owner":"196786375@N03","secret":"5efb1cf282","server":"65535","farm":66,"title":"Black-throated Green Warbler (m)","ispublic":1,"isfriend":0,"isfamily":0},{"id":"52562395889","owner":"71418112@N00","secret":"f87a2228c5","server":"65535","farm":66,"title":"Black-throated green warbler","ispublic":1,"isfriend":0,"isfamily":0},{"id":"52537771719","owner":"91064752@N03","secret":"01ce275a4c","server":"65535","farm":66,"title":"Black-throated Green Warbler","ispublic":1,"isfriend":0,"isfamily":0},{"id":"52533551577","owner":"142134964@N04","secret":"34fab3e499","server":"65535","farm":66,"title":"274- Reinita  (Setophaga virens)","ispublic":1,"isfriend":0,"isfamily":0},{"id":"52463147625","owner":"10318424@N07","secret":"e27129e604","server":"65535","farm":66,"title":"Black-throated Green Warbler","ispublic":1,"isfriend":0,"isfamily":0},{"id":"52413987970","owner":"49114357@N08","secret":"9291289d16","server":"65535","farm":66,"title":"Black-throated Green Warbler","ispublic":1,"isfriend":0,"isfamily":0},{"id":"52418616349","owner":"39177293@N03","secret":"af30908b07","server":"65535","farm":66,"title":"Black-throated Green Warbler","ispublic":1,"isfriend":0,"isfamily":0},{"id":"52397821543","owner":"49114357@N08","secret":"75a112e0a0","server":"65535","farm":66,"title":"Black-throated Green Warbler","ispublic":1,"isfriend":0,"isfamily":0},{"id":"52409918738","owner":"45340210@N05","secret":"f8fa188943","server":"65535","farm":66,"title":"Black-throated Green Warbler 5 10_6_22","ispublic":1,"isfriend":0,"isfamily":0},{"id":"52396270932","owner":"70839498@N04","secret":"c56d20417f","server":"65535","farm":66,"title":"Setophaga virens Black-throated Green Warbler NY SEP 220923 3H3A6322","ispublic":1,"isfriend":0,"isfamily":0},{"id":"52392527059","owner":"120449047@N06","secret":"ef752d96d8","server":"65535","farm":66,"title":"Black-throated Green Warbler (1 of 2)","ispublic":1,"isfriend":0,"isfamily":0},{"id":"52386356173","owner":"188156748@N07","secret":"87ea640381","server":"65535","farm":66,"title":"Black-Throated Green Warbler - Paruline \u00e0 gorge noire  7923-SharpenAI-Standard copy","ispublic":1,"isfriend":0,"isfamily":0},{"id":"52383104003","owner":"76288515@N07","secret":"876aa4eef2","server":"65535","farm":66,"title":"Black-throated Green Warbler Setophaga virens","ispublic":1,"isfriend":0,"isfamily":0},{"id":"52383103878","owner":"76288515@N07","secret":"8a223f82b6","server":"65535","farm":66,"title":"Black-throated Green Warbler Setophaga virens","ispublic":1,"isfriend":0,"isfamily":0},{"id":"52383103793","owner":"76288515@N07","secret":"c6f20c5eb4","server":"65535","farm":66,"title":"Black-throated Green Warbler Setophaga virens","ispublic":1,"isfriend":0,"isfamily":0},{"id":"52383103758","owner":"76288515@N07","secret":"c50a305de2","server":"65535","farm":66,"title":"Black-throated Green Warbler Setophaga virens","ispublic":1,"isfriend":0,"isfamily":0},{"id":"52375672240","owner":"45340210@N05","secret":"4ef996d47b","server":"65535","farm":66,"title":"Black-throated Green Warbler 3 9_21_22","ispublic":1,"isfriend":0,"isfamily":0},{"id":"52374160158","owner":"145466593@N08","secret":"67b2fffcf0","server":"65535","farm":66,"title":"Black-throated Green Warbler   (female\/immature)","ispublic":1,"isfriend":0,"isfamily":0},{"id":"52362457740","owner":"61241315@N00","secret":"2a46366f73","server":"0","farm":0,"title":"Female Black-throated Green Warbler_7175.MP4","ispublic":1,"isfriend":0,"isfamily":0},{"id":"52362269713","owner":"61241315@N00","secret":"7a76922504","server":"65535","farm":66,"title":"Female Black-throated Green Warbler_N7173","ispublic":1,"isfriend":0,"isfamily":0},{"id":"52362457825","owner":"61241315@N00","secret":"3c42c39967","server":"65535","farm":66,"title":"Female Black-throated Green Warbler_N7179","ispublic":1,"isfriend":0,"isfamily":0},{"id":"52360406765","owner":"129051288@N05","secret":"98dabee9bb","server":"65535","farm":66,"title":"Paruline \u00e0 gorge noire, Setophaga virens, Black-throated Green Warbler","ispublic":1,"isfriend":0,"isfamily":0},{"id":"52342723641","owner":"91064752@N03","secret":"9b3e114c25","server":"65535","farm":66,"title":"Black-throated Green Warbler","ispublic":1,"isfriend":0,"isfamily":0},{"id":"52315784419","owner":"49114357@N08","secret":"0196b77899","server":"65535","farm":66,"title":"Black-throated Green Warbler","ispublic":1,"isfriend":0,"isfamily":0},{"id":"52309634332","owner":"162163713@N06","secret":"fd847ef701","server":"65535","farm":66,"title":"Paruline \u00e0 gorge noire Setophaga virens - Black-throated Green Warbler","ispublic":1,"isfriend":0,"isfamily":0},{"id":"52302258557","owner":"129051288@N05","secret":"9f76bb6188","server":"65535","farm":66,"title":"Paruline \u00e0 gorge noire, Setophaga virens, Black-throated Green Warbler","ispublic":1,"isfriend":0,"isfamily":0},{"id":"52259303217","owner":"124995824@N08","secret":"9729af9122","server":"65535","farm":66,"title":"Black-throated Green Warbler - Setophaga virens","ispublic":1,"isfriend":0,"isfamily":0},{"id":"52206658847","owner":"184155060@N04","secret":"a1d176e2ec","server":"65535","farm":66,"title":"32906 Paruline \u00e0 gorge noire (m\u00e2le) \/ Setophaga virens \/ Black-throated Green Warbler","ispublic":1,"isfriend":0,"isfamily":0},{"id":"52206658742","owner":"184155060@N04","secret":"281a0e53c4","server":"65535","farm":66,"title":"32906 Paruline \u00e0 gorge noire (m\u00e2le) \/ Setophaga virens \/ Black-throated Green Warbler","ispublic":1,"isfriend":0,"isfamily":0},{"id":"52202647358","owner":"80204659@N04","secret":"c507f8fdcd","server":"65535","farm":66,"title":"Black-throated Green Warbler- Setophaga virens","ispublic":1,"isfriend":0,"isfamily":0},{"id":"52199908831","owner":"168495655@N07","secret":"cce3705b51","server":"65535","farm":66,"title":"Paruline \u00e0 gorge noire - Setophaga virens - Black-throated Green Warbler","ispublic":1,"isfriend":0,"isfamily":0},{"id":"52195476103","owner":"92361032@N05","secret":"8baf5b1333","server":"65535","farm":66,"title":"Black-throated Green Warbler \/ Paruline \u00e0 gorge noire ( Diane )","ispublic":1,"isfriend":0,"isfamily":0},{"id":"52183876360","owner":"107784905@N04","secret":"bd235a8b46","server":"65535","farm":66,"title":"Paruline \u00e0 gorge noire - Savegre\/San Jos\u00e9\/Costa Rica_20211202_015-1","ispublic":1,"isfriend":0,"isfamily":0},{"id":"52172604482","owner":"120449047@N06","secret":"01a3f56767","server":"65535","farm":66,"title":"Black-throated Green Warbler (30\/35)","ispublic":1,"isfriend":0,"isfamily":0},{"id":"52170818779","owner":"95484108@N07","secret":"b68e673404","server":"65535","farm":66,"title":"Paruline \u00e0 gorge noire \/\/ Black-throated Green Warbler","ispublic":1,"isfriend":0,"isfamily":0},{"id":"52166523972","owner":"131708321@N02","secret":"ab7bbd8230","server":"65535","farm":66,"title":"Black-throated Green Warbler (Setophaga virens), Sutton, Quebec, Canada","ispublic":1,"isfriend":0,"isfamily":0},{"id":"52166884480","owner":"39445433@N02","secret":"e2ac223598","server":"65535","farm":66,"title":"Black-Throated Green Warbler","ispublic":1,"isfriend":0,"isfamily":0},{"id":"52165378137","owner":"39445433@N02","secret":"6f31f118b4","server":"65535","farm":66,"title":"Black-Throated Green Warbler","ispublic":1,"isfriend":0,"isfamily":0},{"id":"52166884290","owner":"39445433@N02","secret":"f0583a7862","server":"65535","farm":66,"title":"Black-Throated Green Warbler","ispublic":1,"isfriend":0,"isfamily":0},{"id":"52166406753","owner":"39445433@N02","secret":"27e13aafe5","server":"65535","farm":66,"title":"Black-Throated Green Warbler","ispublic":1,"isfriend":0,"isfamily":0},{"id":"52165377952","owner":"39445433@N02","secret":"457bf8815a","server":"65535","farm":66,"title":"Black-Throated Green Warbler","ispublic":1,"isfriend":0,"isfamily":0},{"id":"52166404981","owner":"39445433@N02","secret":"0af9547f13","server":"65535","farm":66,"title":"Black-Throated Green Warbler","ispublic":1,"isfriend":0,"isfamily":0},{"id":"52165377657","owner":"39445433@N02","secret":"269e5b39df","server":"65535","farm":66,"title":"Black-Throated Green Warbler","ispublic":1,"isfriend":0,"isfamily":0},{"id":"52166404451","owner":"39445433@N02","secret":"11fb6181e2","server":"65535","farm":66,"title":"Black-Throated Green Warbler","ispublic":1,"isfriend":0,"isfamily":0},{"id":"52166405818","owner":"39445433@N02","secret":"d732965606","server":"65535","farm":66,"title":"Black-Throated Green Warbler","ispublic":1,"isfriend":0,"isfamily":0},{"id":"52166639489","owner":"39445433@N02","secret":"4093c9c536","server":"65535","farm":66,"title":"Black-Throated Green Warbler","ispublic":1,"isfriend":0,"isfamily":0},{"id":"52166403881","owner":"39445433@N02","secret":"acaca6b455","server":"65535","farm":66,"title":"Black-Throated Green Warbler","ispublic":1,"isfriend":0,"isfamily":0},{"id":"52166403801","owner":"39445433@N02","secret":"5989c6346e","server":"65535","farm":66,"title":"Northern Parula","ispublic":1,"isfriend":0,"isfamily":0},{"id":"52166882830","owner":"39445433@N02","secret":"1912df9e99","server":"65535","farm":66,"title":"Black-Throated Green Warbler","ispublic":1,"isfriend":0,"isfamily":0},{"id":"52166882620","owner":"39445433@N02","secret":"1d3ac1b77d","server":"65535","farm":66,"title":"Black-Throated Green Warbler","ispublic":1,"isfriend":0,"isfamily":0},{"id":"52164333394","owner":"73654511@N05","secret":"49c440d2d6","server":"65535","farm":66,"title":"L0A8448-Black-throated Green Warbler","ispublic":1,"isfriend":0,"isfamily":0},{"id":"52161819522","owner":"65788177@N02","secret":"e467ced849","server":"65535","farm":66,"title":"Black-throated Green Warbler","ispublic":1,"isfriend":0,"isfamily":0},{"id":"52153938653","owner":"28499865@N07","secret":"fa1f881656","server":"65535","farm":66,"title":"Black-throated Green Warbler - Setophaga virens","ispublic":1,"isfriend":0,"isfamily":0},{"id":"52152921812","owner":"28499865@N07","secret":"13f89355d6","server":"65535","farm":66,"title":"Black-throated Green Warbler - Setophaga virens","ispublic":1,"isfriend":0,"isfamily":0},{"id":"52153931496","owner":"28499865@N07","secret":"35184863c5","server":"65535","farm":66,"title":"Black-throated Green Warbler - Setophaga virens","ispublic":1,"isfriend":0,"isfamily":0},{"id":"52150914467","owner":"66947051@N07","secret":"98a5ec91cd","server":"65535","farm":66,"title":"Black-throated green warbler \/ Paruline \u00e0 gorge noire (Setophaga virens)","ispublic":1,"isfriend":0,"isfamily":0},{"id":"52136137419","owner":"66947051@N07","secret":"e03ce682ef","server":"65535","farm":66,"title":"Black-throated green warbler \/ Paruline \u00e0 gorge noire (Setophaga virens)","ispublic":1,"isfriend":0,"isfamily":0},{"id":"52122942882","owner":"66947051@N07","secret":"2bd1233470","server":"65535","farm":66,"title":"Black-throated green warbler \/ Paruline \u00e0 gorge noire (Setophaga virens)","ispublic":1,"isfriend":0,"isfamily":0},{"id":"52112558797","owner":"185659367@N04","secret":"1449ee6971","server":"65535","farm":66,"title":"Black-throated Green Warbler","ispublic":1,"isfriend":0,"isfamily":0},{"id":"52110698476","owner":"39138537@N06","secret":"06b2913c85","server":"65535","farm":66,"title":"Black-throated Green Warbler (Setophaga virens)","ispublic":1,"isfriend":0,"isfamily":0},{"id":"52109093735","owner":"124995824@N08","secret":"7c12ca67b1","server":"65535","farm":66,"title":"Black-throated Green Warbler - Setophaga virens","ispublic":1,"isfriend":0,"isfamily":0},{"id":"52103924135","owner":"95484108@N07","secret":"df98660653","server":"65535","farm":66,"title":"Paruline \u00e0 gorge noire \/\/ Black-throated Green Warbler","ispublic":1,"isfriend":0,"isfamily":0},{"id":"52089724177","owner":"37566919@N02","secret":"2d09aaeda6","server":"65535","farm":66,"title":"Black-throated Green Warbler, male","ispublic":1,"isfriend":0,"isfamily":0},{"id":"52083503158","owner":"69947563@N07","secret":"cc61cf07ec","server":"65535","farm":66,"title":"Black-throated Green Warbler - Point Pelee National Park, Ontario, Canada","ispublic":1,"isfriend":0,"isfamily":0},{"id":"52081451476","owner":"44075517@N00","secret":"73383b6f28","server":"65535","farm":66,"title":"Black-throated Green Warbler, Setophaga virens (Gmelin, 1789)","ispublic":1,"isfriend":0,"isfamily":0},{"id":"52077879037","owner":"73654511@N05","secret":"435a16ae6c","server":"65535","farm":66,"title":"L0A1936-Black-throated Green Warbler","ispublic":1,"isfriend":0,"isfamily":0},{"id":"52075916084","owner":"139237357@N06","secret":"8294c31dd1","server":"65535","farm":66,"title":"Black-throated Green Warbler","ispublic":1,"isfriend":0,"isfamily":0},{"id":"52068278402","owner":"39138537@N06","secret":"c400a6ec4c","server":"65535","farm":66,"title":"Black-throated Green Warbler (Setophaga virens)","ispublic":1,"isfriend":0,"isfamily":0},{"id":"52068103278","owner":"91064752@N03","secret":"3dd2d16589","server":"65535","farm":66,"title":"Black-throated Green Warbler","ispublic":1,"isfriend":0,"isfamily":0},{"id":"52703739310","owner":"34368269@N04","secret":"10d8721b74","server":"65535","farm":66,"title":"Black-throated Green Warbler","ispublic":1,"isfriend":0,"isfamily":0},{"id":"52580768090","owner":"153973412@N04","secret":"5af63f5a5f","server":"65535","farm":66,"title":"Black-throated Green Warbler-Setophaga virens, GSM, TN","ispublic":1,"isfriend":0,"isfamily":0},{"id":"52540493437","owner":"33610210@N05","secret":"2b32659b36","server":"65535","farm":66,"title":"Black-throated Green Warbler, Setophaga virens","ispublic":1,"isfriend":0,"isfamily":0},{"id":"52495251846","owner":"64557331@N04","secret":"cc85861b77","server":"65535","farm":66,"title":"Black-Throated Green Warbler - (Setophaga virens)_09032022","ispublic":1,"isfriend":0,"isfamily":0},{"id":"52495801538","owner":"64557331@N04","secret":"513b229cee","server":"65535","farm":66,"title":"Black-Throated Green Warbler - (Setophaga virens)_09272022","ispublic":1,"isfriend":0,"isfamily":0},{"id":"52487946920","owner":"39445433@N02","secret":"80c686e39d","server":"65535","farm":66,"title":"Black-Throated Green Warbler","ispublic":1,"isfriend":0,"isfamily":0},{"id":"52438856939","owner":"149819320@N07","secret":"7dab187829","server":"65535","farm":66,"title":"Black-throated Green Warbler (Setophaga virens)","ispublic":1,"isfriend":0,"isfamily":0},{"id":"52396828671","owner":"70839498@N04","secret":"0e755745df","server":"65535","farm":66,"title":"Setophaga virens Black-throated Green Warbler NY SEP 220923 3H3A6319","ispublic":1,"isfriend":0,"isfamily":0},{"id":"52396781006","owner":"70839498@N04","secret":"75740d507b","server":"65535","farm":66,"title":"Setophaga virens Black-throated Green Warbler NY SEP 220923 3H3A6273_1","ispublic":1,"isfriend":0,"isfamily":0},{"id":"52388809041","owner":"48985578@N03","secret":"b7b3e3f011","server":"65535","farm":66,"title":"Colorful Migrant","ispublic":1,"isfriend":0,"isfamily":0},{"id":"52383177334","owner":"76288515@N07","secret":"e969e597c8","server":"65535","farm":66,"title":"Black-throated Green Warbler Setophaga virens","ispublic":1,"isfriend":0,"isfamily":0},{"id":"52383103823","owner":"76288515@N07","secret":"e1fcfc6668","server":"65535","farm":66,"title":"Black-throated Green Warbler Setophaga virens","ispublic":1,"isfriend":0,"isfamily":0},{"id":"52382864431","owner":"76288515@N07","secret":"c741363194","server":"65535","farm":66,"title":"Black-throated Green Warbler Setophaga virens","ispublic":1,"isfriend":0,"isfamily":0},{"id":"52354913959","owner":"91064752@N03","secret":"b36e0ca9bb","server":"65535","farm":66,"title":"Black-throated Green Warbler","ispublic":1,"isfriend":0,"isfamily":0},{"id":"52154909665","owner":"195506649@N05","secret":"38d4114357","server":"65535","farm":66,"title":"Setophaga virens","ispublic":1,"isfriend":0,"isfamily":0},{"id":"52050446683","owner":"49114357@N08","secret":"536d4fd1cf","server":"65535","farm":66,"title":"Black-throated Green Warbler","ispublic":1,"isfriend":0,"isfamily":0},{"id":"52111413185","owner":"187124972@N03","secret":"65b07fbc65","server":"65535","farm":66,"title":"PARULINE VERTE \/ BLACK-THROATED GREEN WARBLER (Setophaga virens)","ispublic":1,"isfriend":0,"isfamily":0},{"id":"52098104151","owner":"165841515@N03","secret":"3360195b46","server":"65535","farm":66,"title":"Paruline \u00e0 gorge noire \/ Black-throated Green Warbler \/ (Setophaga virens)","ispublic":1,"isfriend":0,"isfamily":0},{"id":"52080340288","owner":"13451078@N03","secret":"2a3ebb7a82","server":"65535","farm":66,"title":"Black-throated Green Warbler (Setophaga virens)","ispublic":1,"isfriend":0,"isfamily":0},{"id":"52080817020","owner":"13451078@N03","secret":"73c1d10df0","server":"65535","farm":66,"title":"Black-throated Green Warbler (Setophaga virens)","ispublic":1,"isfriend":0,"isfamily":0},{"id":"52076179905","owner":"7261670@N03","secret":"336a587bac","server":"65535","farm":66,"title":"Black-throated Green Warbler","ispublic":1,"isfriend":0,"isfamily":0},{"id":"52075693138","owner":"139237357@N06","secret":"e15cd40806","server":"65535","farm":66,"title":"Black-throated Green Warbler","ispublic":1,"isfriend":0,"isfamily":0},{"id":"52064422876","owner":"36685968@N00","secret":"3be60a73b8","server":"65535","farm":66,"title":"Black-throated Green Warbler (Setophaga virens)","ispublic":1,"isfriend":0,"isfamily":0},{"id":"52063244558","owner":"184535870@N04","secret":"7b3b9cd40a","server":"65535","farm":66,"title":"Setophaga virens","ispublic":1,"isfriend":0,"isfamily":0},{"id":"52061453039","owner":"128537732@N06","secret":"82837673d7","server":"65535","farm":66,"title":"Black-throated Green Warbler (Setophaga virens)","ispublic":1,"isfriend":0,"isfamily":0},{"id":"52054404333","owner":"195150455@N06","secret":"0f84f432c6","server":"65535","farm":66,"title":"5664 BTGBW May 5 2022 (1 of 1)","ispublic":1,"isfriend":0,"isfamily":0}]},"stat":"ok"}