{"photos":{"page":1,"pages":7,"perpage":100,"total":607,"photo":[{"id":"52555066336","owner":"24608578@N00","secret":"02e66d94a0","server":"65535","farm":66,"title":"Black-billed cuckoo (Coccyzus erythropthalmus)","ispublic":1,"isfriend":0,"isfamily":0},{"id":"52554607777","owner":"24608578@N00","secret":"ca5a83ff3c","server":"65535","farm":66,"title":"Black-billed cuckoo (Coccyzus erythropthalmus)","ispublic":1,"isfriend":0,"isfamily":0},{"id":"52326370661","owner":"92361032@N05","secret":"2162964911","server":"65535","farm":66,"title":"Black-billed Cuckoo \/ Coulicou \u00e0 bec noir ( Richard )","ispublic":1,"isfriend":0,"isfamily":0},{"id":"52318446265","owner":"65158990@N00","secret":"d04b0cc3af","server":"65535","farm":66,"title":"Black-billed Cuckoo","ispublic":1,"isfriend":0,"isfamily":0},{"id":"52204196308","owner":"187124972@N03","secret":"8a6e272785","server":"65535","farm":66,"title":"L'OEIL DU COULICOU \/ THE CUCKOO'S EYE","ispublic":1,"isfriend":0,"isfamily":0},{"id":"52153350825","owner":"39177293@N03","secret":"9f17080b58","server":"65535","farm":66,"title":"Black-billed Cuckoo","ispublic":1,"isfriend":0,"isfamily":0},{"id":"52151845092","owner":"39177293@N03","secret":"952f54522a","server":"65535","farm":66,"title":"Black-billed Cuckoo","ispublic":1,"isfriend":0,"isfamily":0},{"id":"52135191959","owner":"136180232@N08","secret":"c76521ba71","server":"65535","farm":66,"title":"Black-billed Cuckoo (Coccyzus erythropthalmus) JTD_9804","ispublic":1,"isfriend":0,"isfamily":0},{"id":"52131409341","owner":"129051288@N05","secret":"6ecff29168","server":"65535","farm":66,"title":"Coulicou \u00e0 bec noir, Coccyzus erythropthalmus, Black-billed Cuckoo","ispublic":1,"isfriend":0,"isfamily":0},{"id":"52093369126","owner":"119468907@N03","secret":"fe22722377","server":"0","farm":0,"title":"Coulicou a\u0300 bec noir","ispublic":1,"isfriend":0,"isfamily":0},{"id":"52093601794","owner":"119468907@N03","secret":"96e1c99231","server":"65535","farm":66,"title":"Coulicou a\u0300 bec noir_R5DJ2381","ispublic":1,"isfriend":0,"isfamily":0},{"id":"52089537139","owner":"38983646@N06","secret":"2e57817dea","server":"65535","farm":66,"title":"Sand Hill Rd, Putney VT USA","ispublic":1,"isfriend":0,"isfamily":0},{"id":"51936919186","owner":"52071064@N00","secret":"a0ed8262d0","server":"65535","farm":66,"title":"Black-billed Cuckoo","ispublic":1,"isfriend":0,"isfamily":0},{"id":"51626827150","owner":"56902740@N06","secret":"52f86028ed","server":"65535","farm":66,"title":"Black-billed Cuckoo","ispublic":1,"isfriend":0,"isfamily":0},{"id":"51563319854","owner":"69387367@N05","secret":"aba6622aaa","server":"65535","farm":66,"title":"Black-billed_Cuckoo_4327oc","ispublic":1,"isfriend":0,"isfamily":0},{"id":"51537632140","owner":"39177293@N03","secret":"9cfd8b89e6","server":"65535","farm":66,"title":"Black-billed Cuckoo","ispublic":1,"isfriend":0,"isfamily":0},{"id":"51536703081","owner":"39177293@N03","secret":"fa49e01bc7","server":"65535","farm":66,"title":"Black-billed Cuckoo","ispublic":1,"isfriend":0,"isfamily":0},{"id":"51359524898","owner":"37566919@N02","secret":"ba6589994f","server":"65535","farm":66,"title":"Black-billed Cuckoo","ispublic":1,"isfriend":0,"isfamily":0},{"id":"51312792202","owner":"187124972@N03","secret":"230131ca44","server":"65535","farm":66,"title":"COULICOU \u00c0 BEC NOIR \/ BLACK-BILLED CUCKOO (Coccyzus erythropthalmus)","ispublic":1,"isfriend":0,"isfamily":0},{"id":"51314534270","owner":"187124972@N03","secret":"3530562851","server":"65535","farm":66,"title":"COULICOU \u00c0 BEC NOIR \/ BLACK-BILLED CUCKOO (Coccyzus erythropthalmus)","ispublic":1,"isfriend":0,"isfamily":0},{"id":"51278589838","owner":"92361032@N05","secret":"4c6790b943","server":"65535","farm":66,"title":"Black-billed Cuckoo \/Coulicou \u00e0 bec noir ( Diane )","ispublic":1,"isfriend":0,"isfamily":0},{"id":"51273355490","owner":"41465004@N05","secret":"8775467183","server":"65535","farm":66,"title":"Coulicou \u00e0 bec noir - Black-billed Cuckoo - Coccyzus erythropthalmus","ispublic":1,"isfriend":0,"isfamily":0},{"id":"51273057164","owner":"90886369@N06","secret":"c7bc6315bc","server":"65535","farm":66,"title":"Black-billed Cuckoo (Coccyzus erythropthalmus) with hairy caterpillar","ispublic":1,"isfriend":0,"isfamily":0},{"id":"51265063628","owner":"79453007@N00","secret":"073f943cba","server":"65535","farm":66,"title":"Black-billed Cuckoo","ispublic":1,"isfriend":0,"isfamily":0},{"id":"51263684851","owner":"61021753@N02","secret":"bd2498787d","server":"65535","farm":66,"title":"n158_w1150","ispublic":1,"isfriend":0,"isfamily":0},{"id":"51242745343","owner":"48014585@N00","secret":"d5f11be62e","server":"65535","farm":66,"title":"Black-billed Cuckoo","ispublic":1,"isfriend":0,"isfamily":0},{"id":"51242745143","owner":"48014585@N00","secret":"ec93a3dcb6","server":"65535","farm":66,"title":"Black-billed Cuckoo","ispublic":1,"isfriend":0,"isfamily":0},{"id":"51242745068","owner":"48014585@N00","secret":"c9be125789","server":"65535","farm":66,"title":"Black-billed Cuckoo","ispublic":1,"isfriend":0,"isfamily":0},{"id":"51238426491","owner":"48014585@N00","secret":"f5b5a3258a","server":"65535","farm":66,"title":"Black-billed Cuckoo","ispublic":1,"isfriend":0,"isfamily":0},{"id":"51238628628","owner":"48014585@N00","secret":"47b40a7a6e","server":"65535","farm":66,"title":"Black-billed Cuckoo","ispublic":1,"isfriend":0,"isfamily":0},{"id":"51238628398","owner":"48014585@N00","secret":"7ace2cc720","server":"65535","farm":66,"title":"Black-billed Cuckoo","ispublic":1,"isfriend":0,"isfamily":0},{"id":"51239196654","owner":"48014585@N00","secret":"9771cfb655","server":"65535","farm":66,"title":"Black-billed Cuckoo","ispublic":1,"isfriend":0,"isfamily":0},{"id":"51239483590","owner":"48014585@N00","secret":"b58524cec4","server":"65535","farm":66,"title":"Black-billed Cuckoo","ispublic":1,"isfriend":0,"isfamily":0},{"id":"51237712137","owner":"48014585@N00","secret":"7638bee2e4","server":"65535","farm":66,"title":"Black-billed Cuckoo","ispublic":1,"isfriend":0,"isfamily":0},{"id":"51238627793","owner":"48014585@N00","secret":"faf0531ce6","server":"65535","farm":66,"title":"Black-billed Cuckoo","ispublic":1,"isfriend":0,"isfamily":0},{"id":"51239196049","owner":"48014585@N00","secret":"f6218c03a7","server":"65535","farm":66,"title":"Black-billed Cuckoo","ispublic":1,"isfriend":0,"isfamily":0},{"id":"51238425026","owner":"48014585@N00","secret":"3f4f177f29","server":"65535","farm":66,"title":"Black-billed Cuckoo","ispublic":1,"isfriend":0,"isfamily":0},{"id":"51239195649","owner":"48014585@N00","secret":"20467c15d6","server":"65535","farm":66,"title":"Black-billed Cuckoo","ispublic":1,"isfriend":0,"isfamily":0},{"id":"51238605043","owner":"48014585@N00","secret":"acc7fb9c01","server":"65535","farm":66,"title":"Black-billed Cuckoo","ispublic":1,"isfriend":0,"isfamily":0},{"id":"51239173369","owner":"48014585@N00","secret":"f9ac2e0a16","server":"65535","farm":66,"title":"Black-billed Cuckoo","ispublic":1,"isfriend":0,"isfamily":0},{"id":"51237689057","owner":"48014585@N00","secret":"1cfb034b5c","server":"65535","farm":66,"title":"Black-billed Cuckoo","ispublic":1,"isfriend":0,"isfamily":0},{"id":"51239459910","owner":"48014585@N00","secret":"fd9fd7968e","server":"65535","farm":66,"title":"Black-billed Cuckoo","ispublic":1,"isfriend":0,"isfamily":0},{"id":"51239459710","owner":"48014585@N00","secret":"d113479a3f","server":"65535","farm":66,"title":"Black-billed Cuckoo","ispublic":1,"isfriend":0,"isfamily":0},{"id":"51238603743","owner":"48014585@N00","secret":"b95b9b57fb","server":"65535","farm":66,"title":"Black-billed Cuckoo","ispublic":1,"isfriend":0,"isfamily":0},{"id":"51239172184","owner":"48014585@N00","secret":"4de6f37c7a","server":"65535","farm":66,"title":"Black-billed Cuckoo","ispublic":1,"isfriend":0,"isfamily":0},{"id":"51218268136","owner":"90886369@N06","secret":"2212c4ac41","server":"65535","farm":66,"title":"Black-billed Cuckoo (Coccyzus erythropthalmus)","ispublic":1,"isfriend":0,"isfamily":0},{"id":"51216654284","owner":"156369634@N07","secret":"01370522ce","server":"65535","farm":66,"title":"Coulicou \u00e0 bec noir - Black-Billed Cuckoo-28052021","ispublic":1,"isfriend":0,"isfamily":0},{"id":"51213701399","owner":"145993839@N04","secret":"d3dabab0c8","server":"65535","farm":66,"title":"Black-billed Cuckoo","ispublic":1,"isfriend":0,"isfamily":0},{"id":"51205490607","owner":"119468907@N03","secret":"25b34e84da","server":"65535","farm":66,"title":"Coulicou \u00e0 bec noir_R5DJ7597","ispublic":1,"isfriend":0,"isfamily":0},{"id":"51206405828","owner":"119468907@N03","secret":"2976c5149b","server":"65535","farm":66,"title":"Coulicou \u00e0 bec noir_R5DJ7676","ispublic":1,"isfriend":0,"isfamily":0},{"id":"51186298153","owner":"37566919@N02","secret":"71089b8950","server":"65535","farm":66,"title":"Black-billed Cuckoo","ispublic":1,"isfriend":0,"isfamily":0},{"id":"51181873830","owner":"183564486@N05","secret":"9482848ca3","server":"65535","farm":66,"title":"Black-billed Cuckoo","ispublic":1,"isfriend":0,"isfamily":0},{"id":"51169566101","owner":"120449047@N06","secret":"7a3a35cbc7","server":"65535","farm":66,"title":"Black-Billed Cuckoo (lifer)","ispublic":1,"isfriend":0,"isfamily":0},{"id":"51100461375","owner":"61021753@N02","secret":"80949a227a","server":"65535","farm":66,"title":"n133_w1150","ispublic":1,"isfriend":0,"isfamily":0},{"id":"50464502632","owner":"135315828@N06","secret":"66952b96d5","server":"65535","farm":66,"title":"IMG_2795","ispublic":1,"isfriend":0,"isfamily":0},{"id":"50282306318","owner":"139237357@N06","secret":"f34109bf80","server":"65535","farm":66,"title":"Black-billed Cuckoo","ispublic":1,"isfriend":0,"isfamily":0},{"id":"50282949802","owner":"139237357@N06","secret":"3ee75cf052","server":"65535","farm":66,"title":"Black-billed Cuckoo","ispublic":1,"isfriend":0,"isfamily":0},{"id":"50231221928","owner":"54100598@N08","secret":"f042522206","server":"65535","farm":66,"title":"Black-billed Cuckoo (Coccyzus erythropthalmus)","ispublic":1,"isfriend":0,"isfamily":0},{"id":"50231221868","owner":"54100598@N08","secret":"48b018af92","server":"65535","farm":66,"title":"Black-billed Cuckoo (Coccyzus erythropthalmus)","ispublic":1,"isfriend":0,"isfamily":0},{"id":"50159953333","owner":"125645386@N04","secret":"8686ba67a4","server":"65535","farm":66,"title":"Black-billed cuckoo  - Coulicou \u00e0 bec noir - Coccyzus erythropthalmus","ispublic":1,"isfriend":0,"isfamily":0},{"id":"50160747422","owner":"125645386@N04","secret":"106d4cb223","server":"65535","farm":66,"title":"Black-billed cuckoo  - Coulicou \u00e0 bec noir - Coccyzus erythropthalmus","ispublic":1,"isfriend":0,"isfamily":0},{"id":"50137542112","owner":"125645386@N04","secret":"359734bd44","server":"65535","farm":66,"title":"Black-billed cuckoo  - Coulicou \u00e0 bec noir - Coccyzus erythropthalmus","ispublic":1,"isfriend":0,"isfamily":0},{"id":"50137541697","owner":"125645386@N04","secret":"da8c4e737c","server":"65535","farm":66,"title":"Black-billed cuckoo  - Coulicou \u00e0 bec noir - Coccyzus erythropthalmus","ispublic":1,"isfriend":0,"isfamily":0},{"id":"50125121368","owner":"76617062@N08","secret":"74160e7abb","server":"65535","farm":66,"title":"1.05597 Coulicou \u00e0 bec noir \/ Coccyzus erythropthalmus \/ Black-billed Cuckoo","ispublic":1,"isfriend":0,"isfamily":0},{"id":"50125527372","owner":"92361032@N05","secret":"91897c6034","server":"65535","farm":66,"title":"Black-billed Cuckoo-Coulicou \u00e0 bec noir ( Diane )","ispublic":1,"isfriend":0,"isfamily":0},{"id":"50085796123","owner":"76617062@N08","secret":"a41c50a2a4","server":"65535","farm":66,"title":"1.05597 Coulicou \u00e0 bec noir \/ Coccyzus erythropthalmus \/ Black-billed Cuckoo","ispublic":1,"isfriend":0,"isfamily":0},{"id":"50072325913","owner":"189113466@N07","secret":"318f01bac4","server":"65535","farm":66,"title":"Coulicou \u00e0 bec noir - Black-billed Cuckoo - Coccyzus erythropthalmus","ispublic":1,"isfriend":0,"isfamily":0},{"id":"50073126312","owner":"189113466@N07","secret":"75859af8fe","server":"65535","farm":66,"title":"Coulicou a\u0300 bec noir - Black-billed Cuckoo - Coccyzus erythropthalmus","ispublic":1,"isfriend":0,"isfamily":0},{"id":"50068620892","owner":"15656964@N03","secret":"ce0f51f97f","server":"65535","farm":66,"title":"Black-billed Cuckoo (Coccyzus erythropthalmus)","ispublic":1,"isfriend":0,"isfamily":0},{"id":"50044856473","owner":"7385398@N08","secret":"4e9c191cb2","server":"65535","farm":66,"title":"Black-billed Cuckoo (Coccyzus erythropthalmus)","ispublic":1,"isfriend":0,"isfamily":0},{"id":"50022612302","owner":"76617062@N08","secret":"da3cc2044a","server":"65535","farm":66,"title":"1.05597 Coulicou \u00e0 bec noir \/ Coccyzus erythropthalmus \/ Black-billed Cuckoo","ispublic":1,"isfriend":0,"isfamily":0},{"id":"50022612287","owner":"76617062@N08","secret":"b731cfc8c4","server":"65535","farm":66,"title":"1.05597 Coulicou \u00e0 bec noir \/ Coccyzus erythropthalmus \/ Black-billed Cuckoo","ispublic":1,"isfriend":0,"isfamily":0},{"id":"50000162967","owner":"76617062@N08","secret":"b807bf08f6","server":"65535","farm":66,"title":"1.05597 Coulicou \u00e0 bec noir \/ Coccyzus erythropthalmus \/ Black-billed Cuckoo","ispublic":1,"isfriend":0,"isfamily":0},{"id":"49999390313","owner":"76617062@N08","secret":"206bffd910","server":"65535","farm":66,"title":"1.05597 Coulicou \u00e0 bec noir \/ Coccyzus erythropthalmus \/ Black-billed Cuckoo","ispublic":1,"isfriend":0,"isfamily":0},{"id":"49996523316","owner":"39177293@N03","secret":"9c6f1880af","server":"65535","farm":66,"title":"Black-billed Cuckoo","ispublic":1,"isfriend":0,"isfamily":0},{"id":"49995969663","owner":"76617062@N08","secret":"0e2c08f9bc","server":"65535","farm":66,"title":"1.05597 Coulicou \u00e0 bec noir \/ Coccyzus erythropthalmus \/ Black-billed Cuckoo","ispublic":1,"isfriend":0,"isfamily":0},{"id":"49995969638","owner":"76617062@N08","secret":"b5b95d3301","server":"65535","farm":66,"title":"1.05597 Coulicou \u00e0 bec noir \/ Coccyzus erythropthalmus \/ Black-billed Cuckoo","ispublic":1,"isfriend":0,"isfamily":0},{"id":"49994835433","owner":"184155060@N04","secret":"79b2f64287","server":"65535","farm":66,"title":"03142 Coulicou \u00e0 bec noir \/ Coccyzus erythropthalmus \/ Black-billed Cuckoo","ispublic":1,"isfriend":0,"isfamily":0},{"id":"49995606847","owner":"184155060@N04","secret":"512e4a8d14","server":"65535","farm":66,"title":"03142 Coulicou \u00e0 bec noir \/ Coccyzus erythropthalmus \/ Black-billed Cuckoo","ispublic":1,"isfriend":0,"isfamily":0},{"id":"52580332091","owner":"153973412@N04","secret":"71f61e83f6","server":"65535","farm":66,"title":"Black-billed Cuckoo-Coccyzus erythropthalmus, Iowa City, IA","ispublic":1,"isfriend":0,"isfamily":0},{"id":"52152798667","owner":"28499865@N07","secret":"9d310cde93","server":"65535","farm":66,"title":"Black-billed Cuckoo - Coccyzus erythropthalmus","ispublic":1,"isfriend":0,"isfamily":0},{"id":"52142155175","owner":"190773540@N03","secret":"1657992bf9","server":"65535","farm":66,"title":"Black-billed Cuckoo","ispublic":1,"isfriend":0,"isfamily":0},{"id":"51726312465","owner":"194341957@N06","secret":"bbf296310e","server":"65535","farm":66,"title":"black-billed cuckoo","ispublic":1,"isfriend":0,"isfamily":0},{"id":"51647376412","owner":"67306066@N03","secret":"dd24296f26","server":"65535","farm":66,"title":"Black-billed Cuckoo (Coccyzus erythropthalmus)","ispublic":1,"isfriend":0,"isfamily":0},{"id":"51649063480","owner":"67306066@N03","secret":"ec14e05eaf","server":"65535","farm":66,"title":"Black-billed Cuckoo (Coccyzus erythropthalmus)","ispublic":1,"isfriend":0,"isfamily":0},{"id":"51209896339","owner":"128537732@N06","secret":"def667a574","server":"65535","farm":66,"title":"Black-billed Cuckoo - Coccyzus erythropthalmus","ispublic":1,"isfriend":0,"isfamily":0},{"id":"51210201095","owner":"128537732@N06","secret":"fe94f56836","server":"65535","farm":66,"title":"Black-billed Cuckoo - Coccyzus erythropthalmus (calling)","ispublic":1,"isfriend":0,"isfamily":0},{"id":"51208529689","owner":"50264295@N06","secret":"48118abdec","server":"65535","farm":66,"title":"Black-billed Cuckoo (Coccyzus erythropthalmus)","ispublic":1,"isfriend":0,"isfamily":0},{"id":"51198079231","owner":"28499865@N07","secret":"7d7d7f113b","server":"65535","farm":66,"title":"Black-billed Cuckoo - Coccyzus erythropthalmus","ispublic":1,"isfriend":0,"isfamily":0},{"id":"51195140345","owner":"185443397@N07","secret":"d255f83a43","server":"65535","farm":66,"title":"Black-billed Cuckoo (Coccyzus erythropthalmus)","ispublic":1,"isfriend":0,"isfamily":0},{"id":"51132149781","owner":"13451078@N03","secret":"9dd7afc17a","server":"65535","farm":66,"title":"Black-billed Cuckooo ( Coccyzus erythropthalmus)","ispublic":1,"isfriend":0,"isfamily":0},{"id":"51125203150","owner":"13451078@N03","secret":"1f847c0ed4","server":"65535","farm":66,"title":"Black-billed Cuckoo ( Coccyzus erythropthalmus)","ispublic":1,"isfriend":0,"isfamily":0},{"id":"50600813226","owner":"23516965@N00","secret":"048293b895","server":"65535","farm":66,"title":"Black_billed Cuckoo","ispublic":1,"isfriend":0,"isfamily":0},{"id":"50513285742","owner":"189103666@N04","secret":"2815a46cb6","server":"65535","farm":66,"title":"Black-billed Cuckoo","ispublic":1,"isfriend":0,"isfamily":0},{"id":"50374087677","owner":"65632611@N00","secret":"c9f8438cea","server":"65535","farm":66,"title":"Jamaica Bay NWR: Black-billed Cuckoo","ispublic":1,"isfriend":0,"isfamily":0},{"id":"50283145742","owner":"7261670@N03","secret":"ec6d725313","server":"65535","farm":66,"title":"Black-billed Cuckoo","ispublic":1,"isfriend":0,"isfamily":0},{"id":"50282056563","owner":"7261670@N03","secret":"c39d285939","server":"65535","farm":66,"title":"Black-billed Cuckoo","ispublic":1,"isfriend":0,"isfamily":0},{"id":"50129884193","owner":"101227797@N03","secret":"bba3cd2ec1","server":"65535","farm":66,"title":"Black-billed Cuckoo","ispublic":1,"isfriend":0,"isfamily":0},{"id":"50104300001","owner":"187469698@N05","secret":"99e68316c2","server":"65535","farm":66,"title":"178 Black-billed Cuckoo - Andrew Walker 001","ispublic":1,"isfriend":0,"isfamily":0},{"id":"50002924896","owner":"37566919@N02","secret":"65f00a27b8","server":"65535","farm":66,"title":"Black-billed Cuckoo","ispublic":1,"isfriend":0,"isfamily":0}]},"stat":"ok"}