{"photos":{"page":1,"pages":47,"perpage":100,"total":4656,"photo":[{"id":"52696211510","owner":"191391950@N02","secret":"823ffa5ff5","server":"65535","farm":66,"title":"Guifette noire - Chlidonias niger","ispublic":1,"isfriend":0,"isfamily":0},{"id":"52679400293","owner":"191391950@N02","secret":"786089752d","server":"65535","farm":66,"title":"Guifette noire - Chlidonias niger","ispublic":1,"isfriend":0,"isfamily":0},{"id":"52677833806","owner":"7640100@N02","secret":"5a15b9ecc0","server":"65535","farm":66,"title":"Guifette noire \/ Black Tern [Chlidonias niger]","ispublic":1,"isfriend":0,"isfamily":0},{"id":"52651828166","owner":"39087144@N04","secret":"5cba8b3ed4","server":"65535","farm":66,"title":"DSC_0170-AI","ispublic":1,"isfriend":0,"isfamily":0},{"id":"52635867492","owner":"171333438@N08","secret":"c5109e9e9b","server":"65535","farm":66,"title":"Guifette noire (Chlidonias niger)","ispublic":1,"isfriend":0,"isfamily":0},{"id":"52636821890","owner":"171333438@N08","secret":"411643d4c5","server":"65535","farm":66,"title":"Guifettes noires (Chlidonias niger)","ispublic":1,"isfriend":0,"isfamily":0},{"id":"52636640059","owner":"171333438@N08","secret":"80d1f60936","server":"65535","farm":66,"title":"Guifette noire (Chlidonias niger)","ispublic":1,"isfriend":0,"isfamily":0},{"id":"52636377901","owner":"171333438@N08","secret":"3046ce9593","server":"65535","farm":66,"title":"Guifettes noires (Chlidonias niger)","ispublic":1,"isfriend":0,"isfamily":0},{"id":"52635865492","owner":"171333438@N08","secret":"5c084ecab4","server":"65535","farm":66,"title":"Guifette noire (Chlidonias niger)","ispublic":1,"isfriend":0,"isfamily":0},{"id":"52634832171","owner":"191391950@N02","secret":"e6494b75df","server":"65535","farm":66,"title":"Guifette noire - Chlidonias niger","ispublic":1,"isfriend":0,"isfamily":0},{"id":"52634083340","owner":"191391950@N02","secret":"b6668f9a79","server":"65535","farm":66,"title":"Guifette noire - Chlidonias niger","ispublic":1,"isfriend":0,"isfamily":0},{"id":"52604497393","owner":"107784905@N04","secret":"338c1802a5","server":"65535","farm":66,"title":"Guifette noire - Gletterens\/Fribourg\/CH_20220513_111-1","ispublic":1,"isfriend":0,"isfamily":0},{"id":"52551129091","owner":"131407383@N08","secret":"30a3604779","server":"65535","farm":66,"title":"Gaivina-preta","ispublic":1,"isfriend":0,"isfamily":0},{"id":"52543677182","owner":"131708321@N02","secret":"89423c1b75","server":"65535","farm":66,"title":"Black Tern (Chlidonias niger), Bocas del Toro, Panama","ispublic":1,"isfriend":0,"isfamily":0},{"id":"52539446890","owner":"33610210@N05","secret":"ddfab8f71f","server":"65535","farm":66,"title":"Black Tern, Chlidonias niger","ispublic":1,"isfriend":0,"isfamily":0},{"id":"52538505712","owner":"33610210@N05","secret":"b6d36d7b52","server":"65535","farm":66,"title":"Black Tern, Chlidonias niger","ispublic":1,"isfriend":0,"isfamily":0},{"id":"52539263604","owner":"33610210@N05","secret":"b6667c37cc","server":"65535","farm":66,"title":"Black Tern, Chlidonias niger","ispublic":1,"isfriend":0,"isfamily":0},{"id":"52539069299","owner":"33610210@N05","secret":"1b37e0c34e","server":"65535","farm":66,"title":"Black Tern, Chlidonias niger","ispublic":1,"isfriend":0,"isfamily":0},{"id":"52539069239","owner":"33610210@N05","secret":"3520262c83","server":"65535","farm":66,"title":"Black Tern, Chlidonias niger","ispublic":1,"isfriend":0,"isfamily":0},{"id":"52539324598","owner":"33610210@N05","secret":"125931dc03","server":"65535","farm":66,"title":"Black Tern, Chlidonias niger","ispublic":1,"isfriend":0,"isfamily":0},{"id":"52506404132","owner":"196612229@N04","secret":"b98c8a914e","server":"65535","farm":66,"title":"Black Tern in Flight","ispublic":1,"isfriend":0,"isfamily":0},{"id":"52506859326","owner":"196612229@N04","secret":"d37934a8d0","server":"65535","farm":66,"title":"Tern with Fish","ispublic":1,"isfriend":0,"isfamily":0},{"id":"52497479591","owner":"193264646@N06","secret":"d446a24b7b","server":"65535","farm":66,"title":"Black Tern","ispublic":1,"isfriend":0,"isfamily":0},{"id":"52496999687","owner":"193264646@N06","secret":"e1fee47f39","server":"65535","farm":66,"title":"Black Tern","ispublic":1,"isfriend":0,"isfamily":0},{"id":"52497766734","owner":"193264646@N06","secret":"d245aa5453","server":"65535","farm":66,"title":"Black Tern","ispublic":1,"isfriend":0,"isfamily":0},{"id":"52496998222","owner":"193264646@N06","secret":"0eeb3bed96","server":"65535","farm":66,"title":"Black Tern","ispublic":1,"isfriend":0,"isfamily":0},{"id":"52497765909","owner":"193264646@N06","secret":"459caf7494","server":"65535","farm":66,"title":"Black Tern","ispublic":1,"isfriend":0,"isfamily":0},{"id":"52488146654","owner":"155394883@N02","secret":"0b23f82b69","server":"65535","farm":66,"title":"Guifette noire","ispublic":1,"isfriend":0,"isfamily":0},{"id":"52475069644","owner":"107784905@N04","secret":"dff6d8fa8b","server":"65535","farm":66,"title":"Guifette noire - Gletterens\/Fribourg\/CH_20220513_105-1","ispublic":1,"isfriend":0,"isfamily":0},{"id":"52460761466","owner":"155394883@N02","secret":"e9b9fcdc56","server":"65535","farm":66,"title":"guifette noire","ispublic":1,"isfriend":0,"isfamily":0},{"id":"52460107669","owner":"134719435@N07","secret":"58fd9dd5f9","server":"65535","farm":66,"title":"Black Tern (Chlidonias niger)","ispublic":1,"isfriend":0,"isfamily":0},{"id":"52454245623","owner":"155394883@N02","secret":"f6aaa4fba9","server":"65535","farm":66,"title":"Guifette noire","ispublic":1,"isfriend":0,"isfamily":0},{"id":"52439289535","owner":"193112621@N03","secret":"6181389834","server":"65535","farm":66,"title":"Guifette noire \u2013 Chlidonias niger -  Black tern","ispublic":1,"isfriend":0,"isfamily":0},{"id":"52410630413","owner":"51679793@N02","secret":"092e11bbcb","server":"65535","farm":66,"title":"Guifette noire.","ispublic":1,"isfriend":0,"isfamily":0},{"id":"52406572138","owner":"8957439@N03","secret":"01819737bc","server":"65535","farm":66,"title":"Gaivina-preta \/ Fumarel Com\u00fan \/ Black tern","ispublic":1,"isfriend":0,"isfamily":0},{"id":"52406356754","owner":"8957439@N03","secret":"12862c9769","server":"65535","farm":66,"title":"Gaivina-preta A 8790A1-DeNoiseAI-clear","ispublic":1,"isfriend":0,"isfamily":0},{"id":"52406504750","owner":"8957439@N03","secret":"42f8511036","server":"65535","farm":66,"title":"Gaivina-preta \/ Fumarel Com\u00fan \/ Black tern","ispublic":1,"isfriend":0,"isfamily":0},{"id":"52400141489","owner":"127635832@N07","secret":"937218d5c6","server":"65535","farm":66,"title":"Gaivina-preta | Black Tern (Chlidonias niger)","ispublic":1,"isfriend":0,"isfamily":0},{"id":"52382786866","owner":"34238008@N02","secret":"561e9d52bd","server":"65535","farm":66,"title":"Black Tern (Chlidonias niger)","ispublic":1,"isfriend":0,"isfamily":0},{"id":"52383101044","owner":"34238008@N02","secret":"6589aa2d65","server":"65535","farm":66,"title":"Black Tern (Chlidonias niger)","ispublic":1,"isfriend":0,"isfamily":0},{"id":"52381849872","owner":"34238008@N02","secret":"2823a67a7a","server":"65535","farm":66,"title":"Black Tern (Chlidonias niger)","ispublic":1,"isfriend":0,"isfamily":0},{"id":"52383100644","owner":"34238008@N02","secret":"80e7b05bc5","server":"65535","farm":66,"title":"Black Tern, basic adult (Chlidonias niger)","ispublic":1,"isfriend":0,"isfamily":0},{"id":"52378125188","owner":"145824323@N05","secret":"44cabff1de","server":"65535","farm":66,"title":"Black tern (Chlidonias niger)","ispublic":1,"isfriend":0,"isfamily":0},{"id":"52367134301","owner":"131407383@N08","secret":"e4921a55ea","server":"65535","farm":66,"title":"Gaivina-preta  Chlidonias niger","ispublic":1,"isfriend":0,"isfamily":0},{"id":"52358392662","owner":"149351113@N04","secret":"55ea9a15d3","server":"65535","farm":66,"title":"Black Tern (Chlidonias niger) \u2013 rybitwa czarna","ispublic":1,"isfriend":0,"isfamily":0},{"id":"52357972963","owner":"149351113@N04","secret":"1a05c41c5b","server":"65535","farm":66,"title":"Black tern searching for food","ispublic":1,"isfriend":0,"isfamily":0},{"id":"52350848042","owner":"134719435@N07","secret":"c5349b52ec","server":"65535","farm":66,"title":"Black Tern  (Chlidonias niger)","ispublic":1,"isfriend":0,"isfamily":0},{"id":"52351427524","owner":"42034882@N00","secret":"69200e1f44","server":"65535","farm":66,"title":"An Unexpected Tern of Events","ispublic":1,"isfriend":0,"isfamily":0},{"id":"52349569227","owner":"134759303@N04","secret":"234cd46f6d","server":"65535","farm":66,"title":"Sortterne 1 (Chlidonias niger)","ispublic":1,"isfriend":0,"isfamily":0},{"id":"52340658193","owner":"183210910@N04","secret":"cb9d43b5ab","server":"65535","farm":66,"title":"Black Tern juv - Chlidonias niger","ispublic":1,"isfriend":0,"isfamily":0},{"id":"52340657628","owner":"183210910@N04","secret":"cba0ce5acb","server":"65535","farm":66,"title":"Black Tern juv - Chlidonias niger","ispublic":1,"isfriend":0,"isfamily":0},{"id":"52339115775","owner":"127317522@N03","secret":"706dc7fc20","server":"65535","farm":66,"title":"Guifette noire - Chlidonias niger","ispublic":1,"isfriend":0,"isfamily":0},{"id":"52337991116","owner":"120449047@N06","secret":"31821cdb8d","server":"65535","farm":66,"title":"Black Tern (juv) 1 0f 3","ispublic":1,"isfriend":0,"isfamily":0},{"id":"52328330927","owner":"187187061@N07","secret":"599bc60989","server":"65535","farm":66,"title":"Trauerseeschwalbe (Chlidonias niger)","ispublic":1,"isfriend":0,"isfamily":0},{"id":"52328701613","owner":"140734051@N08","secret":"6088882f9b","server":"65535","farm":66,"title":"\u0427\u0451\u0440\u043d\u0430\u044f \u043a\u0440\u0430\u0447\u043a\u0430, Chlidonias niger niger, Black Tern","ispublic":1,"isfriend":0,"isfamily":0},{"id":"52327496567","owner":"140734051@N08","secret":"75d17666a9","server":"65535","farm":66,"title":"\u0427\u0451\u0440\u043d\u0430\u044f \u043a\u0440\u0430\u0447\u043a\u0430, Chlidonias niger niger, Black Tern","ispublic":1,"isfriend":0,"isfamily":0},{"id":"52328748504","owner":"140734051@N08","secret":"d34cb72433","server":"65535","farm":66,"title":"\u0427\u0451\u0440\u043d\u0430\u044f \u043a\u0440\u0430\u0447\u043a\u0430, Chlidonias niger niger, Black Tern","ispublic":1,"isfriend":0,"isfamily":0},{"id":"52328877495","owner":"140734051@N08","secret":"97542c7a16","server":"65535","farm":66,"title":"\u0427\u0451\u0440\u043d\u0430\u044f \u043a\u0440\u0430\u0447\u043a\u0430, Chlidonias niger niger, Black Tern","ispublic":1,"isfriend":0,"isfamily":0},{"id":"52328701498","owner":"140734051@N08","secret":"04fff5f67d","server":"65535","farm":66,"title":"\u0427\u0451\u0440\u043d\u0430\u044f \u043a\u0440\u0430\u0447\u043a\u0430, Chlidonias niger niger, Black Tern","ispublic":1,"isfriend":0,"isfamily":0},{"id":"52328748364","owner":"140734051@N08","secret":"2c3c75019f","server":"65535","farm":66,"title":"\u0427\u0451\u0440\u043d\u0430\u044f \u043a\u0440\u0430\u0447\u043a\u0430, Chlidonias niger niger, Black Tern","ispublic":1,"isfriend":0,"isfamily":0},{"id":"52327496352","owner":"140734051@N08","secret":"75a95fe578","server":"65535","farm":66,"title":"\u0427\u0451\u0440\u043d\u0430\u044f \u043a\u0440\u0430\u0447\u043a\u0430, Chlidonias niger niger, Black Tern","ispublic":1,"isfriend":0,"isfamily":0},{"id":"52327496317","owner":"140734051@N08","secret":"055e2b66d3","server":"65535","farm":66,"title":"\u0427\u0451\u0440\u043d\u0430\u044f \u043a\u0440\u0430\u0447\u043a\u0430, Chlidonias niger niger, Black Tern","ispublic":1,"isfriend":0,"isfamily":0},{"id":"52325546625","owner":"189149566@N04","secret":"df392a9d44","server":"65535","farm":66,"title":"Atterrissage","ispublic":1,"isfriend":0,"isfamily":0},{"id":"52320802324","owner":"148317604@N06","secret":"d04758e2e1","server":"65535","farm":66,"title":"Gaivina D'asa branca","ispublic":1,"isfriend":0,"isfamily":0},{"id":"52315288545","owner":"109043136@N05","secret":"fa538f913e","server":"65535","farm":66,"title":"Gaivina-preta (Chlidonias niger)","ispublic":1,"isfriend":0,"isfamily":0},{"id":"52314048102","owner":"109043136@N05","secret":"d50f50de4a","server":"65535","farm":66,"title":"Gaivina-preta (Chlidonias niger)","ispublic":1,"isfriend":0,"isfamily":0},{"id":"52313566672","owner":"40724294@N04","secret":"a49df43e67","server":"65535","farm":66,"title":"Juvenile Black Tern","ispublic":1,"isfriend":0,"isfamily":0},{"id":"52314484448","owner":"119787485@N07","secret":"ce0ceb733e","server":"65535","farm":66,"title":"Black Tern (Chlidonias niger surinamensis) - 20220610-04","ispublic":1,"isfriend":0,"isfamily":0},{"id":"52312791695","owner":"158967056@N07","secret":"6ddc60183e","server":"65535","farm":66,"title":"Gaivina-preta  (Chlidonias niger)","ispublic":1,"isfriend":0,"isfamily":0},{"id":"52312779015","owner":"130427874@N02","secret":"fc47e060d7","server":"65535","farm":66,"title":"Gaivina-preta  (Chlidonias niger)","ispublic":1,"isfriend":0,"isfamily":0},{"id":"52312568868","owner":"130427874@N02","secret":"1c05f8d3c3","server":"65535","farm":66,"title":"Gaivina-preta (Chlidonias niger)","ispublic":1,"isfriend":0,"isfamily":0},{"id":"52306275561","owner":"41179229@N03","secret":"257778f4eb","server":"65535","farm":66,"title":"Black Tern (Chlidonias niger)","ispublic":1,"isfriend":0,"isfamily":0},{"id":"52303938685","owner":"39177293@N03","secret":"3a8a180e8e","server":"65535","farm":66,"title":"Black Tern","ispublic":1,"isfriend":0,"isfamily":0},{"id":"52303717404","owner":"39177293@N03","secret":"f1d86b2e09","server":"65535","farm":66,"title":"Black Tern","ispublic":1,"isfriend":0,"isfamily":0},{"id":"52303417308","owner":"39177293@N03","secret":"98b0d0563e","server":"65535","farm":66,"title":"Black Tern","ispublic":1,"isfriend":0,"isfamily":0},{"id":"52303898850","owner":"39177293@N03","secret":"5418ae33dc","server":"65535","farm":66,"title":"Black Tern","ispublic":1,"isfriend":0,"isfamily":0},{"id":"52303078878","owner":"124995824@N08","secret":"163d25448e","server":"65535","farm":66,"title":"Black Tern - Chlidonias niger","ispublic":1,"isfriend":0,"isfamily":0},{"id":"52299716657","owner":"125645386@N04","secret":"eec07c3ae6","server":"65535","farm":66,"title":"Black tern -  Guifette noire -  Chlidonias niger","ispublic":1,"isfriend":0,"isfamily":0},{"id":"52293981360","owner":"54059915@N07","secret":"a854548497","server":"65535","farm":66,"title":"Summer","ispublic":1,"isfriend":0,"isfamily":0},{"id":"52389226281","owner":"148258021@N05","secret":"195f1b63fd","server":"65535","farm":66,"title":"Guifette noire ..Chlidonias niger","ispublic":1,"isfriend":0,"isfamily":0},{"id":"52389226221","owner":"148258021@N05","secret":"de1393c5d6","server":"65535","farm":66,"title":"Guifette noire ..Chlidonias niger","ispublic":1,"isfriend":0,"isfamily":0},{"id":"52388303602","owner":"148258021@N05","secret":"ae9dab657b","server":"65535","farm":66,"title":"Guifette noire ..Chlidonias niger","ispublic":1,"isfriend":0,"isfamily":0},{"id":"52692280338","owner":"123979267@N05","secret":"2606b1e8f9","server":"65535","farm":66,"title":"Black Terns on a rainy spring day","ispublic":1,"isfriend":0,"isfamily":0},{"id":"52580598984","owner":"153973412@N04","secret":"c2d62c9801","server":"65535","farm":66,"title":"Black Tern-Chlidonias niger, Iowa City, IA","ispublic":1,"isfriend":0,"isfamily":0},{"id":"52539520068","owner":"33610210@N05","secret":"e1af332259","server":"65535","farm":66,"title":"Black Tern, Chlidonias niger","ispublic":1,"isfriend":0,"isfamily":0},{"id":"52509999100","owner":"12639178@N07","secret":"73a458df52","server":"65535","farm":66,"title":"Trauerseeschwalbe (Chlidonias niger) (1)","ispublic":1,"isfriend":0,"isfamily":0},{"id":"52493172377","owner":"191038887@N04","secret":"0009ee5229","server":"65535","farm":66,"title":"Guifette noire - Black tern - Chlidonias niger","ispublic":1,"isfriend":0,"isfamily":0},{"id":"52494123565","owner":"191038887@N04","secret":"8ebe17fec0","server":"65535","farm":66,"title":"Guifette noire - Black tern - Chlidonias niger","ispublic":1,"isfriend":0,"isfamily":0},{"id":"52424218357","owner":"29882791@N02","secret":"14942a2943","server":"65535","farm":66,"title":"Laridae - Chlidonias niger","ispublic":1,"isfriend":0,"isfamily":0},{"id":"52382935936","owner":"193112621@N03","secret":"9a33461da2","server":"65535","farm":66,"title":"Guifette noire \u2013 Chlidonias niger -  Black tern","ispublic":1,"isfriend":0,"isfamily":0},{"id":"52381849937","owner":"34238008@N02","secret":"6e0fbed379","server":"65535","farm":66,"title":"Black Tern (Chlidonias niger)","ispublic":1,"isfriend":0,"isfamily":0},{"id":"52381849797","owner":"34238008@N02","secret":"7ec12ff4b6","server":"65535","farm":66,"title":"Black Tern (Chlidonias niger)","ispublic":1,"isfriend":0,"isfamily":0},{"id":"52369613079","owner":"100851828@N05","secret":"9bf72bb371","server":"65535","farm":66,"title":"Guifette noire Chlidonias niger 22 1283","ispublic":1,"isfriend":0,"isfamily":0},{"id":"52369299461","owner":"100851828@N05","secret":"bac611b51f","server":"65535","farm":66,"title":"Guifette noire Chlidonias niger 22 1298","ispublic":1,"isfriend":0,"isfamily":0},{"id":"52369299426","owner":"100851828@N05","secret":"fcd157e432","server":"65535","farm":66,"title":"Guifette noire Chlidonias niger 22 1335","ispublic":1,"isfriend":0,"isfamily":0},{"id":"52369299416","owner":"100851828@N05","secret":"b5ecd19e84","server":"65535","farm":66,"title":"Guifette noire Chlidonias niger 22 2871","ispublic":1,"isfriend":0,"isfamily":0},{"id":"52368359692","owner":"100851828@N05","secret":"6761356b64","server":"65535","farm":66,"title":"Guifette noire Chlidonias niger 22 2955b","ispublic":1,"isfriend":0,"isfamily":0},{"id":"52369533723","owner":"100851828@N05","secret":"f2f2db757c","server":"65535","farm":66,"title":"Guifette noire Chlidonias niger 22 2814","ispublic":1,"isfriend":0,"isfamily":0},{"id":"52369612979","owner":"100851828@N05","secret":"870ae62405","server":"65535","farm":66,"title":"Guifette noire Chlidonias niger 22 1261","ispublic":1,"isfriend":0,"isfamily":0},{"id":"52340718579","owner":"183210910@N04","secret":"a7ff4db208","server":"65535","farm":66,"title":"Black Tern juv - Chlidonias niger","ispublic":1,"isfriend":0,"isfamily":0}]},"stat":"ok"}