{"photos":{"page":1,"pages":42,"perpage":100,"total":4137,"photo":[{"id":"52717310133","owner":"188233235@N06","secret":"fd16d6221d","server":"65535","farm":66,"title":"The Black and White Warbler","ispublic":1,"isfriend":0,"isfamily":0},{"id":"52714494618","owner":"134815842@N03","secret":"cde8f055e9","server":"65535","farm":66,"title":"Black-and-white Warbler (Mniotilta varia), Monteverde, Costa Rica 2023","ispublic":1,"isfriend":0,"isfamily":0},{"id":"52686094890","owner":"40723658@N05","secret":"eeafd89774","server":"65535","farm":66,"title":"Black-and-white Warbler","ispublic":1,"isfriend":0,"isfamily":0},{"id":"52685174478","owner":"124995824@N08","secret":"3669659729","server":"65535","farm":66,"title":"Black-and-white Warbler - Mniotilta varia","ispublic":1,"isfriend":0,"isfamily":0},{"id":"52681241796","owner":"13451078@N03","secret":"b9173fffcb","server":"65535","farm":66,"title":"Black-and-white Warbler (Mniotilta varia)","ispublic":1,"isfriend":0,"isfamily":0},{"id":"52669290998","owner":"136180232@N08","secret":"44c88e671b","server":"65535","farm":66,"title":"Black-and-white Warbler (Mniotilta varia) JTE_2434","ispublic":1,"isfriend":0,"isfamily":0},{"id":"52652477775","owner":"38514062@N03","secret":"a84c95e2ae","server":"65535","farm":66,"title":"Black-and-white Warbler (Mniotilta varia)","ispublic":1,"isfriend":0,"isfamily":0},{"id":"52644161457","owner":"8013969@N03","secret":"37f4cf8401","server":"65535","farm":66,"title":"Mniotilta varia DFL lanc22-1","ispublic":1,"isfriend":0,"isfamily":0},{"id":"52589504698","owner":"88932760@N08","secret":"2e2e3d4e83","server":"65535","farm":66,"title":"Look Under the Lichen","ispublic":1,"isfriend":0,"isfamily":0},{"id":"52588758166","owner":"17719035@N00","secret":"1c1806058c","server":"65535","farm":66,"title":"Black-and-white warbler (Mniotilta varia)","ispublic":1,"isfriend":0,"isfamily":0},{"id":"52584937813","owner":"196786375@N03","secret":"31e58c5dbf","server":"65535","farm":66,"title":"Black-and-white Warbler (f)","ispublic":1,"isfriend":0,"isfamily":0},{"id":"52577832529","owner":"88932760@N08","secret":"28e637258d","server":"65535","farm":66,"title":"Curious BAWW","ispublic":1,"isfriend":0,"isfamily":0},{"id":"52564600599","owner":"196786375@N03","secret":"23fe2694fc","server":"65535","farm":66,"title":"Black-and-white Warbler (m)","ispublic":1,"isfriend":0,"isfamily":0},{"id":"52552005219","owner":"10336659@N04","secret":"974235dfbb","server":"65535","farm":66,"title":"Upside Down Acrobat, Black-and-white warbler (Mniotilta varia) at Wakodahatchee Wetlands.","ispublic":1,"isfriend":0,"isfamily":0},{"id":"52549872397","owner":"96671573@N04","secret":"6939b1d9eb","server":"65535","farm":66,"title":"A discovery","ispublic":1,"isfriend":0,"isfamily":0},{"id":"52545312670","owner":"10336659@N04","secret":"c890ba9ed1","server":"65535","farm":66,"title":"Black-and-white warbler (Mniotilta varia) at Wakodahatchee Wetlands.","ispublic":1,"isfriend":0,"isfamily":0},{"id":"52543274355","owner":"94074753@N00","secret":"a687db38e7","server":"65535","farm":66,"title":"Pega Palo\/Black-and-white Warbler\/Mniotilta varia","ispublic":1,"isfriend":0,"isfamily":0},{"id":"52543305018","owner":"94074753@N00","secret":"780c6debf5","server":"65535","farm":66,"title":"Pega Palo\/Black-and-white Warbler\/Mniotilta varia","ispublic":1,"isfriend":0,"isfamily":0},{"id":"52542757886","owner":"94074753@N00","secret":"db0cbd78e5","server":"65535","farm":66,"title":"Pega Palo\/Black-and-white Warbler\/Mniotilta varia","ispublic":1,"isfriend":0,"isfamily":0},{"id":"52542297262","owner":"94074753@N00","secret":"13ed52ef8f","server":"65535","farm":66,"title":"Pega Palo\/Black-and-white Warbler\/Mniotilta varia","ispublic":1,"isfriend":0,"isfamily":0},{"id":"52542297207","owner":"94074753@N00","secret":"152b932829","server":"65535","farm":66,"title":"Pega Palo\/Black-and-white Warbler\/Mniotilta varia","ispublic":1,"isfriend":0,"isfamily":0},{"id":"52543303558","owner":"94074753@N00","secret":"a80dc8c2c0","server":"65535","farm":66,"title":"Pega Palo\/Black-and-white Warbler\/Mniotilta varia","ispublic":1,"isfriend":0,"isfamily":0},{"id":"52543240880","owner":"94074753@N00","secret":"6df6f38067","server":"65535","farm":66,"title":"Pega Palo\/Black-and-white Warbler\/Mniotilta varia","ispublic":1,"isfriend":0,"isfamily":0},{"id":"52543303403","owner":"94074753@N00","secret":"592dd23b6f","server":"65535","farm":66,"title":"Pega Palo\/Black-and-white Warbler\/Mniotilta varia","ispublic":1,"isfriend":0,"isfamily":0},{"id":"52542296862","owner":"94074753@N00","secret":"8dcb0467e9","server":"65535","farm":66,"title":"Pega Palo\/Black-and-white Warbler\/Mniotilta varia","ispublic":1,"isfriend":0,"isfamily":0},{"id":"52543240520","owner":"94074753@N00","secret":"785836d2bd","server":"65535","farm":66,"title":"Pega Palo\/Black-and-white Warbler\/Mniotilta varia","ispublic":1,"isfriend":0,"isfamily":0},{"id":"52543303058","owner":"94074753@N00","secret":"a8730c4c4f","server":"65535","farm":66,"title":"Pega Palo\/Black-and-white Warbler\/Mniotilta varia","ispublic":1,"isfriend":0,"isfamily":0},{"id":"52543240195","owner":"94074753@N00","secret":"ebdc4a5ffb","server":"65535","farm":66,"title":"Pega Palo\/Black-and-white Warbler\/Mniotilta varia","ispublic":1,"isfriend":0,"isfamily":0},{"id":"52543240110","owner":"94074753@N00","secret":"17db3c9d03","server":"65535","farm":66,"title":"Pega Palo\/Black-and-white Warbler\/Mniotilta varia","ispublic":1,"isfriend":0,"isfamily":0},{"id":"52543302428","owner":"94074753@N00","secret":"94be713d02","server":"65535","farm":66,"title":"Pega Palo\/Black-and-white Warbler\/Mniotilta varia","ispublic":1,"isfriend":0,"isfamily":0},{"id":"52539967601","owner":"10336659@N04","secret":"6d512fa1cd","server":"65535","farm":66,"title":"Black-and-white warbler (Mniotilta varia) at Wakodahatchee Wetlands.","ispublic":1,"isfriend":0,"isfamily":0},{"id":"52532246327","owner":"33610210@N05","secret":"ac90a15bc0","server":"65535","farm":66,"title":"Black-and-white Warbler, Mniotilta varia","ispublic":1,"isfriend":0,"isfamily":0},{"id":"52532246167","owner":"33610210@N05","secret":"8cb18ed92b","server":"65535","farm":66,"title":"Black-and-white Warbler, Mniotilta varia","ispublic":1,"isfriend":0,"isfamily":0},{"id":"52530139073","owner":"10336659@N04","secret":"f312dd9766","server":"65535","farm":66,"title":"Upside Down Acrobat, Black-and-white warbler (Mniotilta varia) at Wakodahatchee Wetlands.","ispublic":1,"isfriend":0,"isfamily":0},{"id":"52526059013","owner":"38514062@N03","secret":"30927752a3","server":"65535","farm":66,"title":"Black-and-white Warbler (Mniotilta varia)","ispublic":1,"isfriend":0,"isfamily":0},{"id":"52524872150","owner":"48985578@N03","secret":"c397481736","server":"65535","farm":66,"title":"Headed Up!","ispublic":1,"isfriend":0,"isfamily":0},{"id":"52495720430","owner":"64557331@N04","secret":"f9386a7c74","server":"65535","farm":66,"title":"Black-and-White Warbler - (Mniotilta varia)_09162021_Frame","ispublic":1,"isfriend":0,"isfamily":0},{"id":"52495786763","owner":"64557331@N04","secret":"8b99d8833e","server":"65535","farm":66,"title":"Black-and-White Warbler - (Mniotilta varia)_09162021","ispublic":1,"isfriend":0,"isfamily":0},{"id":"52492836117","owner":"53048815@N06","secret":"b320d0dd1c","server":"65535","farm":66,"title":"Black-and-White Warbler (Mniotilta varia)","ispublic":1,"isfriend":0,"isfamily":0},{"id":"52488571436","owner":"7546739@N08","secret":"ab61286a86","server":"65535","farm":66,"title":"Black-and-white Warbler","ispublic":1,"isfriend":0,"isfamily":0},{"id":"52480412308","owner":"39511843@N07","secret":"92a7a7703f","server":"65535","farm":66,"title":"Black-and-white-Warbler (Mniotilta varia)--3","ispublic":1,"isfriend":0,"isfamily":0},{"id":"52466522759","owner":"94074753@N00","secret":"c219d51848","server":"65535","farm":66,"title":"Pegapalo \/ Mniotilta varia","ispublic":1,"isfriend":0,"isfamily":0},{"id":"52466240266","owner":"94074753@N00","secret":"9fd39e2d55","server":"65535","farm":66,"title":"Pegapalo \/ Mniotilta varia","ispublic":1,"isfriend":0,"isfamily":0},{"id":"52451506790","owner":"38242794@N02","secret":"81bf96dc3f","server":"65535","farm":66,"title":"Klifurskr\u00edkja - Black-and-White Warbler - Mniotilta varia","ispublic":1,"isfriend":0,"isfamily":0},{"id":"52444926072","owner":"34368269@N04","secret":"9e695140e3","server":"65535","farm":66,"title":"Black-and-white Warbler","ispublic":1,"isfriend":0,"isfamily":0},{"id":"52440639594","owner":"33005514@N04","secret":"11c1354196","server":"65535","farm":66,"title":"Pegapalo \/ Black-and-white warbler \/ Mniotilta varia","ispublic":1,"isfriend":0,"isfamily":0},{"id":"52440885178","owner":"33005514@N04","secret":"879a8f9d67","server":"65535","farm":66,"title":"Pegapalo \/ Black-and-white warbler \/ Mniotilta varia","ispublic":1,"isfriend":0,"isfamily":0},{"id":"52440814350","owner":"33005514@N04","secret":"264a278609","server":"65535","farm":66,"title":"Pegapalo \/ Black-and-white warbler \/ Mniotilta varia","ispublic":1,"isfriend":0,"isfamily":0},{"id":"52439859212","owner":"33005514@N04","secret":"6130d0078a","server":"65535","farm":66,"title":"Pegapalo \/ Black-and-white warbler \/ Mniotilta varia","ispublic":1,"isfriend":0,"isfamily":0},{"id":"52438258647","owner":"103722035@N06","secret":"8db29fcc1e","server":"65535","farm":66,"title":"Black-and-white Warbler (Mniotilta varia), Monta\u00f1a de Oro State Park, Los Osos, CA","ispublic":1,"isfriend":0,"isfamily":0},{"id":"52439036494","owner":"103722035@N06","secret":"036a40acb6","server":"65535","farm":66,"title":"Black-and-white Warbler (Mniotilta varia), Monta\u00f1a de Oro State Park, Los Osos, CA","ispublic":1,"isfriend":0,"isfamily":0},{"id":"52439279628","owner":"103722035@N06","secret":"9cbc6ecd0e","server":"0","farm":0,"title":"Black-and-white Warbler (Mniotilta varia), Monta\u00f1a de Oro State Park, Los Osos, CA","ispublic":1,"isfriend":0,"isfamily":0},{"id":"52432405979","owner":"10336659@N04","secret":"0c56d5d48f","server":"65535","farm":66,"title":"Black-and-white Warbler, Mniotilta varia, at Green Cay Nature Preserve.","ispublic":1,"isfriend":0,"isfamily":0},{"id":"52430512494","owner":"10336659@N04","secret":"c3f3347f57","server":"65535","farm":66,"title":"Black-and-white Warbler, Mniotilta varia, at Green Cay Nature Preserve.","ispublic":1,"isfriend":0,"isfamily":0},{"id":"52430372400","owner":"88932760@N08","secret":"b274ed237e","server":"65535","farm":66,"title":"Get Outta My Face!","ispublic":1,"isfriend":0,"isfamily":0},{"id":"52427891631","owner":"39138537@N06","secret":"d3c8b73eb1","server":"65535","farm":66,"title":"Black-and-White Warbler (M. varia) (2), Northern Parula (S. americana) & American Redstart (S. ruticilla)","ispublic":1,"isfriend":0,"isfamily":0},{"id":"52420790882","owner":"39138537@N06","secret":"0e6e4399e5","server":"65535","farm":66,"title":"Black-and-White Warbler (Mniotilta varia) - Flight Sequence","ispublic":1,"isfriend":0,"isfamily":0},{"id":"52417822492","owner":"39177293@N03","secret":"d60e5b01c3","server":"65535","farm":66,"title":"Black-and-White Warbler","ispublic":1,"isfriend":0,"isfamily":0},{"id":"52417116899","owner":"103722035@N06","secret":"9a5e9c7bd5","server":"0","farm":0,"title":"Black-and-white Warbler (Mniotilta varia), Monta\u00f1a de Oro State Park, Los Osos, CA","ispublic":1,"isfriend":0,"isfamily":0},{"id":"52415367101","owner":"129051288@N05","secret":"e7db172183","server":"65535","farm":66,"title":"Paruline noir et blanc, Mniotilta varia, Black-and-white Warbler","ispublic":1,"isfriend":0,"isfamily":0},{"id":"52392029695","owner":"128537732@N06","secret":"43edc53ef9","server":"65535","farm":66,"title":"Black-and-white Warbler (Mniotilta varia)","ispublic":1,"isfriend":0,"isfamily":0},{"id":"52384970744","owner":"42622112@N08","secret":"89b93f3795","server":"65535","farm":66,"title":"Pega Palo \/ Black and white warbler \/ Mniotilta varia","ispublic":1,"isfriend":0,"isfamily":0},{"id":"52377513358","owner":"163930705@N05","secret":"9860ee620b","server":"65535","farm":66,"title":"Black-and-white Warbler \/ Klifurskr\u00edkja (Mniotilta varia)","ispublic":1,"isfriend":0,"isfamily":0},{"id":"52376734930","owner":"38514062@N03","secret":"c41749d9cb","server":"65535","farm":66,"title":"Black-and-white Warbler (Mniotilta varia)","ispublic":1,"isfriend":0,"isfamily":0},{"id":"52374732270","owner":"39511843@N07","secret":"4f3a4f4122","server":"65535","farm":66,"title":"Black-and-white-Warbler (Mniotilta varia)-3-","ispublic":1,"isfriend":0,"isfamily":0},{"id":"52374730140","owner":"39511843@N07","secret":"e2f01c7630","server":"65535","farm":66,"title":"Black-and-white-Warbler (Mniotilta varia)-2-","ispublic":1,"isfriend":0,"isfamily":0},{"id":"52368953362","owner":"129803374@N05","secret":"f3e64b8753","server":"65535","farm":66,"title":"Black-and-white Warbler (Mniotilta varia)","ispublic":1,"isfriend":0,"isfamily":0},{"id":"52361215598","owner":"36685968@N00","secret":"8fcca627d1","server":"65535","farm":66,"title":"Black-and-White Warbler (Mniotilta varia)","ispublic":1,"isfriend":0,"isfamily":0},{"id":"52360714844","owner":"69387367@N05","secret":"dd401e8a3c","server":"65535","farm":66,"title":"Black-and-white_Warbler_3287oe","ispublic":1,"isfriend":0,"isfamily":0},{"id":"52357465082","owner":"195239167@N07","secret":"768c533e57","server":"65535","farm":66,"title":"Black-and-white Warbler","ispublic":1,"isfriend":0,"isfamily":0},{"id":"52358554698","owner":"195239167@N07","secret":"60d564cacc","server":"65535","farm":66,"title":"Black-and-white Warbler","ispublic":1,"isfriend":0,"isfamily":0},{"id":"52350110361","owner":"76288515@N07","secret":"ea00aac8a4","server":"65535","farm":66,"title":"Black-and-White Warbler Mniotilta varia","ispublic":1,"isfriend":0,"isfamily":0},{"id":"52350353238","owner":"76288515@N07","secret":"be0a96571d","server":"65535","farm":66,"title":"Black-and-White Warbler Mniotilta varia","ispublic":1,"isfriend":0,"isfamily":0},{"id":"52350534205","owner":"76288515@N07","secret":"d890561626","server":"65535","farm":66,"title":"Black-and-White Warbler Mniotilta varia","ispublic":1,"isfriend":0,"isfamily":0},{"id":"52350534085","owner":"76288515@N07","secret":"7ec7011826","server":"65535","farm":66,"title":"Black-and-White Warbler Mniotilta varia","ispublic":1,"isfriend":0,"isfamily":0},{"id":"52350110221","owner":"76288515@N07","secret":"c1eb8c2f24","server":"65535","farm":66,"title":"Black-and-White Warbler Mniotilta varia","ispublic":1,"isfriend":0,"isfamily":0},{"id":"52349155912","owner":"76288515@N07","secret":"877949dde4","server":"65535","farm":66,"title":"Black-and-White Warbler Mniotilta varia","ispublic":1,"isfriend":0,"isfamily":0},{"id":"52350353003","owner":"76288515@N07","secret":"09ff7ca86c","server":"65535","farm":66,"title":"Black-and-White Warbler Mniotilta varia","ispublic":1,"isfriend":0,"isfamily":0},{"id":"52350110061","owner":"76288515@N07","secret":"8c7cf1c2e5","server":"65535","farm":66,"title":"Black-and-White Warbler Mniotilta varia","ispublic":1,"isfriend":0,"isfamily":0},{"id":"52347342823","owner":"61241315@N00","secret":"8896ffd46b","server":"0","farm":0,"title":"Black-and-white Warbler_5196.MP4","ispublic":1,"isfriend":0,"isfamily":0},{"id":"52580855453","owner":"153973412@N04","secret":"0c3bbb47b3","server":"65535","farm":66,"title":"Black-and-white Warbler-Mniotilta varia, Estero Llano Grande, TX","ispublic":1,"isfriend":0,"isfamily":0},{"id":"52538807661","owner":"33610210@N05","secret":"8c2fc96bae","server":"65535","farm":66,"title":"Black-and-white Warbler, Mniotilta varia","ispublic":1,"isfriend":0,"isfamily":0},{"id":"52539359293","owner":"33610210@N05","secret":"9ef735a412","server":"65535","farm":66,"title":"Black-and-white Warbler, Mniotilta varia","ispublic":1,"isfriend":0,"isfamily":0},{"id":"52530531331","owner":"33610210@N05","secret":"f0eeb014cc","server":"65535","farm":66,"title":"Black-and-white Warbler, Mniotilta varia","ispublic":1,"isfriend":0,"isfamily":0},{"id":"52504269478","owner":"37493716@N02","secret":"b7b62896d7","server":"65535","farm":66,"title":"Black And White Warbler. Mniotilta varia. Reinita trepadora - cebrita. Reserva Natural El Dorado. 2022","ispublic":1,"isfriend":0,"isfamily":0},{"id":"52503135158","owner":"30638967@N03","secret":"d04497e2d5","server":"65535","farm":66,"title":"Black and White Warbler DSC_3722","ispublic":1,"isfriend":0,"isfamily":0},{"id":"52502091622","owner":"30638967@N03","secret":"15912c3dbc","server":"65535","farm":66,"title":"Black and White Warbler DSC_3736","ispublic":1,"isfriend":0,"isfamily":0},{"id":"52493856713","owner":"39445433@N02","secret":"568a48d926","server":"65535","farm":66,"title":"Black-and-white warbler","ispublic":1,"isfriend":0,"isfamily":0},{"id":"52487480561","owner":"39445433@N02","secret":"538387fae6","server":"65535","farm":66,"title":"Black-and-White Warbler","ispublic":1,"isfriend":0,"isfamily":0},{"id":"52477650821","owner":"84169650@N07","secret":"35d002cc43","server":"65535","farm":66,"title":"Black and White Warbler","ispublic":1,"isfriend":0,"isfamily":0},{"id":"52477814123","owner":"13451078@N03","secret":"fa43f186bd","server":"65535","farm":66,"title":"Black-and-white Warbler (Mniotilta varia)","ispublic":1,"isfriend":0,"isfamily":0},{"id":"52447807849","owner":"56686021@N04","secret":"29828903d6","server":"65535","farm":66,"title":"Black-and-white Warbler. Foggy","ispublic":1,"isfriend":0,"isfamily":0},{"id":"52391846903","owner":"128537732@N06","secret":"f9bb4e5f12","server":"65535","farm":66,"title":"Black-and-white Warbler (Mniotilta varia)","ispublic":1,"isfriend":0,"isfamily":0},{"id":"52391601366","owner":"128537732@N06","secret":"59210e7a0d","server":"65535","farm":66,"title":"Black-and-white Warbler (Mniotilta varia)","ispublic":1,"isfriend":0,"isfamily":0},{"id":"52376632117","owner":"190122705@N03","secret":"0c68b01b4a","server":"65535","farm":66,"title":"Black-and-white warbler","ispublic":1,"isfriend":0,"isfamily":0},{"id":"52350110406","owner":"76288515@N07","secret":"e19cf23b5c","server":"65535","farm":66,"title":"Black-and-White Warbler Mniotilta varia","ispublic":1,"isfriend":0,"isfamily":0},{"id":"52350353193","owner":"76288515@N07","secret":"d38d690a44","server":"65535","farm":66,"title":"Black-and-White Warbler Mniotilta varia","ispublic":1,"isfriend":0,"isfamily":0},{"id":"52346142052","owner":"61241315@N00","secret":"3c59345914","server":"0","farm":0,"title":"Black-and-white Warbler_5197.MP4","ispublic":1,"isfriend":0,"isfamily":0},{"id":"52347342853","owner":"61241315@N00","secret":"ec95a36598","server":"65535","farm":66,"title":"Black-and-white Warbler_N5194","ispublic":1,"isfriend":0,"isfamily":0},{"id":"52346143817","owner":"61241315@N00","secret":"96c1f993dd","server":"65535","farm":66,"title":"Black-and-white Warbler_N5195","ispublic":1,"isfriend":0,"isfamily":0}]},"stat":"ok"}