{"photos":{"page":1,"pages":40,"perpage":100,"total":3926,"photo":[{"id":"52706915689","owner":"185443397@N07","secret":"1fbf004a32","server":"65535","farm":66,"title":"Blue-gray Gnatcatcher (Polioptila caerulea)","ispublic":1,"isfriend":0,"isfamily":0},{"id":"52689620181","owner":"86191812@N07","secret":"c58bc0d0d9","server":"65535","farm":66,"title":"Blue-gray Gnatcatcher (Polioptila caerulea)","ispublic":1,"isfriend":0,"isfamily":0},{"id":"52677745951","owner":"33610210@N05","secret":"b6c26cbbe9","server":"65535","farm":66,"title":"Blue-gray Gnatcatcher, Polioptila caerulea","ispublic":1,"isfriend":0,"isfamily":0},{"id":"52667904654","owner":"33610210@N05","secret":"ac15b15bf6","server":"65535","farm":66,"title":"Blue-gray Gnatcatcher, Polioptila caerulea","ispublic":1,"isfriend":0,"isfamily":0},{"id":"52667904259","owner":"33610210@N05","secret":"df2ee921ba","server":"65535","farm":66,"title":"Blue-gray Gnatcatcher, Polioptila caerulea","ispublic":1,"isfriend":0,"isfamily":0},{"id":"52656489573","owner":"145466593@N08","secret":"1942c93df1","server":"65535","farm":66,"title":"Blue-grey Gnatcatcher","ispublic":1,"isfriend":0,"isfamily":0},{"id":"52641304960","owner":"46837385@N03","secret":"730dce3788","server":"65535","farm":66,"title":"Blue-Gray Gnatcatcher with Spider (1)","ispublic":1,"isfriend":0,"isfamily":0},{"id":"52641125219","owner":"46837385@N03","secret":"2abf4380d2","server":"65535","farm":66,"title":"Blue-Gray Gnatcatcher with Spider (2)","ispublic":1,"isfriend":0,"isfamily":0},{"id":"52641125204","owner":"46837385@N03","secret":"40701d3724","server":"65535","farm":66,"title":"Blue-Gray Gnatcatcher with Spider (3)","ispublic":1,"isfriend":0,"isfamily":0},{"id":"52640416100","owner":"145466593@N08","secret":"6c46892f19","server":"65535","farm":66,"title":"Blue-gray Gnatcatcher","ispublic":1,"isfriend":0,"isfamily":0},{"id":"52632384233","owner":"47533293@N04","secret":"b1bc31e3ae","server":"65535","farm":66,"title":"Blue-grey gnatcatcher, Polioptila caerulea","ispublic":1,"isfriend":0,"isfamily":0},{"id":"52626485372","owner":"168495655@N07","secret":"a6b307fdd5","server":"65535","farm":66,"title":"Gobemoucheron gris-bleu - Polioptila caerulea - Blue-grey Gnatcatcher","ispublic":1,"isfriend":0,"isfamily":0},{"id":"52619225522","owner":"49246330@N00","secret":"9e63ea78a1","server":"65535","farm":66,"title":"Blue-gray Gnatcatcher","ispublic":1,"isfriend":0,"isfamily":0},{"id":"52601608595","owner":"183004597@N05","secret":"622313eb01","server":"65535","farm":66,"title":"Blue-gray Gnatcather (Polioptila caerulea)","ispublic":1,"isfriend":0,"isfamily":0},{"id":"52592972624","owner":"30979614@N07","secret":"a4f871696e","server":"65535","farm":66,"title":"2022-05-10 Montrose Point 8","ispublic":1,"isfriend":0,"isfamily":0},{"id":"52592344480","owner":"144217344@N03","secret":"9cd3c5d5f1","server":"65535","farm":66,"title":"Gisela_Nagel-Fl-2184-Blaum\u00fcckenf\u00e4nger","ispublic":1,"isfriend":0,"isfamily":0},{"id":"52565663810","owner":"9638954@N07","secret":"df01ebd150","server":"65535","farm":66,"title":"Blue-gray Gnatcatcher","ispublic":1,"isfriend":0,"isfamily":0},{"id":"52565663775","owner":"9638954@N07","secret":"b52be5ae38","server":"65535","farm":66,"title":"Blue-gray Gnatcatcher","ispublic":1,"isfriend":0,"isfamily":0},{"id":"52564483183","owner":"140318147@N08","secret":"ca63c1256e","server":"65535","farm":66,"title":"blue-gray gnatcatcher (Polioptila caerulea) L4A8918","ispublic":1,"isfriend":0,"isfamily":0},{"id":"52562603014","owner":"33610210@N05","secret":"c195de0ce6","server":"65535","farm":66,"title":"Blue-gray Gnatcatcher, Polioptila caerulea","ispublic":1,"isfriend":0,"isfamily":0},{"id":"52545904702","owner":"124995824@N08","secret":"c055d19a2f","server":"65535","farm":66,"title":"Blue-gray Gnatcatcher - Polioptila caerulea","ispublic":1,"isfriend":0,"isfamily":0},{"id":"52536924262","owner":"10336659@N04","secret":"9346e1d783","server":"65535","farm":66,"title":"Blue-grey gnatcatcher (Polioptila caerulea) at Green Cay Nature Preserve.","ispublic":1,"isfriend":0,"isfamily":0},{"id":"52531117220","owner":"33610210@N05","secret":"924621875b","server":"65535","farm":66,"title":"Blue-gray Gnatcatcher, Polioptila caerulea","ispublic":1,"isfriend":0,"isfamily":0},{"id":"52530928169","owner":"33610210@N05","secret":"219c7659bc","server":"65535","farm":66,"title":"Blue-gray Gnatcatcher, Polioptila caerulea","ispublic":1,"isfriend":0,"isfamily":0},{"id":"52525633000","owner":"10336659@N04","secret":"a0c13db1d0","server":"65535","farm":66,"title":"Blue-grey gnatcatcher (Polioptila caerulea) branch hopping at Green Cay Nature Preserve.","ispublic":1,"isfriend":0,"isfamily":0},{"id":"52521984339","owner":"28867468@N08","secret":"f395432f89","server":"65535","farm":66,"title":"Blue-gray Gnatcatcher at Liftoff","ispublic":1,"isfriend":0,"isfamily":0},{"id":"52519263352","owner":"151361315@N06","secret":"268097f553","server":"65535","farm":66,"title":"Blue-gray Gnatcatcher, Pleasant Valley Preserve, Marcellus NY","ispublic":1,"isfriend":0,"isfamily":0},{"id":"52517632175","owner":"88932760@N08","secret":"e48790af7c","server":"65535","farm":66,"title":"Curious Gnatcatcher","ispublic":1,"isfriend":0,"isfamily":0},{"id":"52516133074","owner":"51928691@N04","secret":"975130afcc","server":"65535","farm":66,"title":"Blue-gray Gnatcatcher (Polioptila caerulea) 2 112122","ispublic":1,"isfriend":0,"isfamily":0},{"id":"52495119495","owner":"59770980@N02","secret":"0ebca9fa25","server":"65535","farm":66,"title":"M\u00fdhremmir-Blue grey Gnatcatcher-Polioptila caerules","ispublic":1,"isfriend":0,"isfamily":0},{"id":"52491406994","owner":"10336659@N04","secret":"c32172e015","server":"65535","farm":66,"title":"Upside down, as usual. Blue-grey Gnatcatcher (Polioptila caerulea) at Wakodahatchee Wetlands.","ispublic":1,"isfriend":0,"isfamily":0},{"id":"52482786816","owner":"73431753@N00","secret":"15c543700d","server":"65535","farm":66,"title":"Blue Gray Gnatcatcher on a Coyote Brush snag branch","ispublic":1,"isfriend":0,"isfamily":0},{"id":"52459792792","owner":"196212229@N04","secret":"a87f713b5b","server":"65535","farm":66,"title":"Blue-gray Gnatcatcher","ispublic":1,"isfriend":0,"isfamily":0},{"id":"52435679992","owner":"21558080@N07","secret":"8641799407","server":"65535","farm":66,"title":"Blue-gray Gnatcatcher (Polioptila caerulea)","ispublic":1,"isfriend":0,"isfamily":0},{"id":"52435980814","owner":"10336659@N04","secret":"b144a1e773","server":"65535","farm":66,"title":"Blue-grey gnatcatcher (Polioptila caerulea) takes off at Green Cay Nature Preserve.","ispublic":1,"isfriend":0,"isfamily":0},{"id":"52399080061","owner":"49114357@N08","secret":"409c4f6808","server":"65535","farm":66,"title":"Blue-gray Gnatcatcher","ispublic":1,"isfriend":0,"isfamily":0},{"id":"52425737915","owner":"88932760@N08","secret":"f336699446","server":"65535","farm":66,"title":"Bowing Gnatcatcher","ispublic":1,"isfriend":0,"isfamily":0},{"id":"52411107216","owner":"38514062@N03","secret":"0cd1edffbe","server":"65535","farm":66,"title":"Blue-gray Gnatcatcher (Polioptila caerulea)","ispublic":1,"isfriend":0,"isfamily":0},{"id":"52398526670","owner":"79422714@N05","secret":"6decc0efef","server":"65535","farm":66,"title":"Blue-gray Gnatcatcher (Polioptila caerulea)","ispublic":1,"isfriend":0,"isfamily":0},{"id":"52376630284","owner":"38514062@N03","secret":"f80b0e7bb0","server":"65535","farm":66,"title":"Blue-gray Gnatcatcher (Polioptila caerulea)","ispublic":1,"isfriend":0,"isfamily":0},{"id":"52372774985","owner":"88932760@N08","secret":"20f59ddf09","server":"65535","farm":66,"title":"Searching Skyward","ispublic":1,"isfriend":0,"isfamily":0},{"id":"52371834205","owner":"92361032@N05","secret":"9a63f78a1c","server":"65535","farm":66,"title":"Blue-grey Gnatcatcher \/Gobemoucheron gris-bleu ( Diane )","ispublic":1,"isfriend":0,"isfamily":0},{"id":"52366399418","owner":"124995824@N08","secret":"a0e83afd85","server":"65535","farm":66,"title":"Blue-gray Gnatcatcher - Polioptila caerulea","ispublic":1,"isfriend":0,"isfamily":0},{"id":"52365803835","owner":"65788177@N02","secret":"2ed6ceb521","server":"65535","farm":66,"title":"Blue-gray Gnatcatcher","ispublic":1,"isfriend":0,"isfamily":0},{"id":"52316956959","owner":"34368269@N04","secret":"9dbee3ea00","server":"65535","farm":66,"title":"Blue-gray Gnatcatcher","ispublic":1,"isfriend":0,"isfamily":0},{"id":"52305832252","owner":"196264892@N08","secret":"d7ae886679","server":"65535","farm":66,"title":"Blue-gray Gnatcatcher","ispublic":1,"isfriend":0,"isfamily":0},{"id":"52298511457","owner":"187792860@N04","secret":"98c4b3ebb6","server":"65535","farm":66,"title":"Blue-gray Gnatcatcher (Polioptila caerulea)","ispublic":1,"isfriend":0,"isfamily":0},{"id":"52282882708","owner":"26371261@N00","secret":"7b6d3a8a5b","server":"65535","farm":66,"title":"Blue-gray Gnatcatcher, Polioptila caerulea","ispublic":1,"isfriend":0,"isfamily":0},{"id":"52279839498","owner":"61301322@N08","secret":"77199a4547","server":"65535","farm":66,"title":"Blue-gray Gnatcatcher (Green Lane Park)","ispublic":1,"isfriend":0,"isfamily":0},{"id":"52279839508","owner":"61301322@N08","secret":"0cc48c5e7f","server":"65535","farm":66,"title":"Blue-gray Gnatcatcher (Green Lane Park)","ispublic":1,"isfriend":0,"isfamily":0},{"id":"52275398239","owner":"187792860@N04","secret":"b77e1a4aff","server":"65535","farm":66,"title":"Blue-gray Gnatcatcher (Polioptila caerulea)","ispublic":1,"isfriend":0,"isfamily":0},{"id":"52227177978","owner":"49114357@N08","secret":"69cef05d46","server":"65535","farm":66,"title":"Blue-gray Gnatcatcher","ispublic":1,"isfriend":0,"isfamily":0},{"id":"52264178097","owner":"26371261@N00","secret":"41c4694719","server":"65535","farm":66,"title":"Blue-gray Gnatcatcher, Polioptila caerulea","ispublic":1,"isfriend":0,"isfamily":0},{"id":"52265626275","owner":"26371261@N00","secret":"652d78c444","server":"65535","farm":66,"title":"Blue-gray Gnatcatcher, Polioptila caerulea","ispublic":1,"isfriend":0,"isfamily":0},{"id":"52264177912","owner":"26371261@N00","secret":"238e36bed1","server":"65535","farm":66,"title":"Blue-gray Gnatcatcher, Polioptila caerulea","ispublic":1,"isfriend":0,"isfamily":0},{"id":"52253127810","owner":"187792860@N04","secret":"76d419df90","server":"65535","farm":66,"title":"Blue-gray Gnatcatcher (Polioptila caerulea)","ispublic":1,"isfriend":0,"isfamily":0},{"id":"52252904289","owner":"187792860@N04","secret":"c20a33bc35","server":"65535","farm":66,"title":"Blue-gray Gnatcatcher (Polioptila caerulea)","ispublic":1,"isfriend":0,"isfamily":0},{"id":"52250160492","owner":"34368269@N04","secret":"ab02c8bee0","server":"65535","farm":66,"title":"Blue-gray Gnatcatcher","ispublic":1,"isfriend":0,"isfamily":0},{"id":"52248053582","owner":"34238008@N02","secret":"d03c9107c8","server":"65535","farm":66,"title":"Blue-gray Gnatcatcher (Polioptila caerulea)","ispublic":1,"isfriend":0,"isfamily":0},{"id":"52240653061","owner":"99117454@N00","secret":"cdfee3fe07","server":"65535","farm":66,"title":"Blue-gray Gnatcatcher","ispublic":1,"isfriend":0,"isfamily":0},{"id":"52240394779","owner":"196132149@N08","secret":"cc6cd5c91d","server":"65535","farm":66,"title":"Blue-Gray Gnatcatcher","ispublic":1,"isfriend":0,"isfamily":0},{"id":"52235226392","owner":"71989271@N06","secret":"415819118f","server":"65535","farm":66,"title":"Blue-gray Gnatcatcher (Polioptila caerulea)","ispublic":1,"isfriend":0,"isfamily":0},{"id":"52229174226","owner":"42264328@N00","secret":"379dc8daf8","server":"65535","farm":66,"title":"Look up, look down","ispublic":1,"isfriend":0,"isfamily":0},{"id":"52228128022","owner":"42264328@N00","secret":"3c6e59999e","server":"65535","farm":66,"title":"HWW-1","ispublic":1,"isfriend":0,"isfamily":0},{"id":"52227344736","owner":"88932760@N08","secret":"61b92f58c6","server":"65535","farm":66,"title":"Weary Papa","ispublic":1,"isfriend":0,"isfamily":0},{"id":"52221467902","owner":"88932760@N08","secret":"0f8cd229df","server":"65535","farm":66,"title":"Begging Fledgling","ispublic":1,"isfriend":0,"isfamily":0},{"id":"52220795857","owner":"131037795@N03","secret":"4969df0bd8","server":"65535","farm":66,"title":"Blue-gray Gnatcatcher (Polioptila caerulea)","ispublic":1,"isfriend":0,"isfamily":0},{"id":"52209001973","owner":"76617062@N08","secret":"059b26126d","server":"65535","farm":66,"title":"1.21144 Gobemoucheron gris-bleu (m\u00e2le) \/ Polioptila caerulea caerulea \/ Blue-gray Gnatcatcher (male)","ispublic":1,"isfriend":0,"isfamily":0},{"id":"52208713141","owner":"70295563@N00","secret":"7c129c2153","server":"65535","farm":66,"title":"Home Building","ispublic":1,"isfriend":0,"isfamily":0},{"id":"52197397732","owner":"184155060@N04","secret":"60fd9765b0","server":"65535","farm":66,"title":"26031 Gobemoucheron gris-bleu \/ Polioptila caerulea caerulea \/ Blue-gray Gnatcatcher (caerulea)","ispublic":1,"isfriend":0,"isfamily":0},{"id":"52194198461","owner":"76617062@N08","secret":"de4e9ac17d","server":"65535","farm":66,"title":"1.21144 Gobemoucheron gris-bleu (m\u00e2le) \/ Polioptila caerulea caerulea \/ Blue-gray Gnatcatcher (male)","ispublic":1,"isfriend":0,"isfamily":0},{"id":"52189376518","owner":"187792860@N04","secret":"f044a37219","server":"65535","farm":66,"title":"Blue-gray Gnatcatcher (Polioptila caerulea)","ispublic":1,"isfriend":0,"isfamily":0},{"id":"52189289068","owner":"119095828@N03","secret":"eb4cbf929e","server":"65535","farm":66,"title":"Blue-gray Gnatcatcher (Polioptila caerulea)","ispublic":1,"isfriend":0,"isfamily":0},{"id":"52172956090","owner":"34238008@N02","secret":"07959c313f","server":"65535","farm":66,"title":"Blue-gray Gnatcatcher, adult (Polioptila caerulea)","ispublic":1,"isfriend":0,"isfamily":0},{"id":"52167619178","owner":"9638954@N07","secret":"6762f161e1","server":"65535","farm":66,"title":"Blue-Gray Gnatcatcher wrestling down a Funereal Duskywing","ispublic":1,"isfriend":0,"isfamily":0},{"id":"52639869832","owner":"124995824@N08","secret":"6961d85875","server":"65535","farm":66,"title":"Blue-gray Gnatcatcher - Polioptila caerulea","ispublic":1,"isfriend":0,"isfamily":0},{"id":"52639869777","owner":"124995824@N08","secret":"62bfafeaf5","server":"65535","farm":66,"title":"Blue-gray Gnatcatcher - Polioptila caerulea","ispublic":1,"isfriend":0,"isfamily":0},{"id":"52629425759","owner":"124995824@N08","secret":"050aff226d","server":"65535","farm":66,"title":"Blue-gray Gnatcatcher - Polioptila caerulea","ispublic":1,"isfriend":0,"isfamily":0},{"id":"52629425714","owner":"124995824@N08","secret":"45f2124e0d","server":"65535","farm":66,"title":"Blue-gray Gnatcatcher - Polioptila caerulea","ispublic":1,"isfriend":0,"isfamily":0},{"id":"52580692044","owner":"153973412@N04","secret":"dc814801e3","server":"65535","farm":66,"title":"Blue-gray Gnatcatcher-Polioptila caerulea, Capitol Reef NP, UT","ispublic":1,"isfriend":0,"isfamily":0},{"id":"52477272921","owner":"13451078@N03","secret":"ddc7dff196","server":"65535","farm":66,"title":"Blue-gray Gnatcatcher (Polioptila caerulea)","ispublic":1,"isfriend":0,"isfamily":0},{"id":"52455093877","owner":"187792860@N04","secret":"5967570c3c","server":"65535","farm":66,"title":"Blue-gray Gnatcatcher (Polioptila caerulea)","ispublic":1,"isfriend":0,"isfamily":0},{"id":"52446811343","owner":"187792860@N04","secret":"7475d37873","server":"65535","farm":66,"title":"Blue-gray Gnatcatcher (Polioptila caerulea)","ispublic":1,"isfriend":0,"isfamily":0},{"id":"52441013092","owner":"84547312@N00","secret":"01cf64f26a","server":"65535","farm":66,"title":"Gnatcatcher_8799","ispublic":1,"isfriend":0,"isfamily":0},{"id":"52360775625","owner":"61135968@N00","secret":"34e50ae60c","server":"65535","farm":66,"title":"Gnatcatcher","ispublic":1,"isfriend":0,"isfamily":0},{"id":"52353732849","owner":"140318147@N08","secret":"9842215298","server":"65535","farm":66,"title":"blue-gray gnatcatcher (Polioptila caerulea) L4A1766","ispublic":1,"isfriend":0,"isfamily":0},{"id":"52253341496","owner":"187792860@N04","secret":"5c5ccde193","server":"65535","farm":66,"title":"Blue-gray Gnatcatcher (Polioptila caerulea)","ispublic":1,"isfriend":0,"isfamily":0},{"id":"52251715587","owner":"187792860@N04","secret":"67b8b395cb","server":"65535","farm":66,"title":"Blue-gray Gnatcatcher (Polioptila caerulea)","ispublic":1,"isfriend":0,"isfamily":0},{"id":"52248053717","owner":"34238008@N02","secret":"130063b6a4","server":"65535","farm":66,"title":"Blue-gray Gnatcatcher, adult (Polioptila caerulea)","ispublic":1,"isfriend":0,"isfamily":0},{"id":"52218338643","owner":"80648919@N08","secret":"dcbac86612","server":"65535","farm":66,"title":"Blue-gray Gnatcatcher","ispublic":1,"isfriend":0,"isfamily":0},{"id":"52197397667","owner":"184155060@N04","secret":"4d9cfe7f08","server":"65535","farm":66,"title":"26031 Gobemoucheron gris-bleu \/ Polioptila caerulea caerulea \/ Blue-gray Gnatcatcher (caerulea)","ispublic":1,"isfriend":0,"isfamily":0},{"id":"52179100177","owner":"121644485@N06","secret":"2bf571f161","server":"65535","farm":66,"title":"Blue-gray Gnatcatcher","ispublic":1,"isfriend":0,"isfamily":0},{"id":"52171453242","owner":"34238008@N02","secret":"8f0e583d2e","server":"65535","farm":66,"title":"Blue-gray Gnatcatcher (Polioptila caerulea)","ispublic":1,"isfriend":0,"isfamily":0},{"id":"52171453122","owner":"34238008@N02","secret":"418fc6f2ea","server":"65535","farm":66,"title":"Blue-gray Gnatcatcher (Polioptila caerulea)","ispublic":1,"isfriend":0,"isfamily":0},{"id":"52172956535","owner":"34238008@N02","secret":"1783839837","server":"65535","farm":66,"title":"Blue-gray Gnatcatcher (Polioptila caerulea)","ispublic":1,"isfriend":0,"isfamily":0},{"id":"52172481523","owner":"34238008@N02","secret":"672f430816","server":"65535","farm":66,"title":"Blue-gray Gnatcatcher (Polioptila caerulea)","ispublic":1,"isfriend":0,"isfamily":0},{"id":"52172722694","owner":"34238008@N02","secret":"66f8a667f0","server":"65535","farm":66,"title":"Blue-gray Gnatcatcher (Polioptila caerulea)","ispublic":1,"isfriend":0,"isfamily":0},{"id":"52172481108","owner":"34238008@N02","secret":"e03e92a73c","server":"65535","farm":66,"title":"Blue-gray Gnatcatcher (Polioptila caerulea)","ispublic":1,"isfriend":0,"isfamily":0},{"id":"52172474871","owner":"34238008@N02","secret":"cbe57c3574","server":"65535","farm":66,"title":"Blue-gray Gnatcatcher (Polioptila caerulea)","ispublic":1,"isfriend":0,"isfamily":0},{"id":"52171452272","owner":"34238008@N02","secret":"0d714c3c70","server":"65535","farm":66,"title":"Blue-gray Gnatcatcher, immature (Polioptila caerulea)","ispublic":1,"isfriend":0,"isfamily":0}]},"stat":"ok"}