{"photos":{"page":1,"pages":26,"perpage":100,"total":2550,"photo":[{"id":"52652970201","owner":"48014585@N00","secret":"b47f9ac461","server":"65535","farm":66,"title":"Bobolinks","ispublic":1,"isfriend":0,"isfamily":0},{"id":"52653451478","owner":"48014585@N00","secret":"aebcab4dd9","server":"65535","farm":66,"title":"Bobolink in goldenrod","ispublic":1,"isfriend":0,"isfamily":0},{"id":"52653404025","owner":"48014585@N00","secret":"51e2f22426","server":"65535","farm":66,"title":"Bobolink in goldenrod","ispublic":1,"isfriend":0,"isfamily":0},{"id":"52639554788","owner":"39138537@N06","secret":"81a18dba40","server":"65535","farm":66,"title":"Bobolink (Dolichonyx oryzivorus)","ispublic":1,"isfriend":0,"isfamily":0},{"id":"52639554753","owner":"39138537@N06","secret":"c24fbaa8ce","server":"65535","farm":66,"title":"Bobolink (Dolichonyx oryzivorus)","ispublic":1,"isfriend":0,"isfamily":0},{"id":"52639511435","owner":"39138537@N06","secret":"9ea4fab766","server":"65535","farm":66,"title":"Bobolink (Dolichonyx oryzivorus)","ispublic":1,"isfriend":0,"isfamily":0},{"id":"52575276257","owner":"151361315@N06","secret":"651c21d867","server":"65535","farm":66,"title":"Bobolink flying over field \u2022 Lindsay-Parson's Preserve, W Danby, NY \u2022 2022","ispublic":1,"isfriend":0,"isfamily":0},{"id":"52575653649","owner":"39617069@N08","secret":"de48936861","server":"65535","farm":66,"title":"Bobolink","ispublic":1,"isfriend":0,"isfamily":0},{"id":"52550722253","owner":"71833159@N00","secret":"d5a56fb391","server":"65535","farm":66,"title":"Bobolink \/ Dolichonyx oryzivorus, male","ispublic":1,"isfriend":0,"isfamily":0},{"id":"52542923486","owner":"62877922@N08","secret":"514153c6cb","server":"65535","farm":66,"title":"Bobolink (Dolichonyx oryzivorus)","ispublic":1,"isfriend":0,"isfamily":0},{"id":"52525908950","owner":"30979614@N07","secret":"d4c55feb7f","server":"65535","farm":66,"title":"2021-07-18 Ethel's Woods 4","ispublic":1,"isfriend":0,"isfamily":0},{"id":"52524963587","owner":"30979614@N07","secret":"a85cc6d7bf","server":"65535","farm":66,"title":"2021-07-18 Ethel's Woods 5","ispublic":1,"isfriend":0,"isfamily":0},{"id":"52470847537","owner":"30638967@N03","secret":"0e4808a642","server":"65535","farm":66,"title":"Bobolink DSC_9229","ispublic":1,"isfriend":0,"isfamily":0},{"id":"52471805115","owner":"30638967@N03","secret":"73df1097f4","server":"65535","farm":66,"title":"Bobolink DSC_9250","ispublic":1,"isfriend":0,"isfamily":0},{"id":"52452311653","owner":"33573751@N04","secret":"50254ec098","server":"65535","farm":66,"title":"Bobolink (Dolichonyx oryzivorus) - Wilton, Connecticut, USA","ispublic":1,"isfriend":0,"isfamily":0},{"id":"52451183402","owner":"33573751@N04","secret":"db279ed4f1","server":"65535","farm":66,"title":"Bobolink (Dolichonyx oryzivorus) - Wilton, Connecticut, USA","ispublic":1,"isfriend":0,"isfamily":0},{"id":"52451952469","owner":"33573751@N04","secret":"8f9f597c55","server":"65535","farm":66,"title":"Bobolink (Dolichonyx oryzivorus) - Wilton, Connecticut, USA","ispublic":1,"isfriend":0,"isfamily":0},{"id":"52446892091","owner":"39652177@N04","secret":"f911469f66","server":"65535","farm":66,"title":"Bobolink","ispublic":1,"isfriend":0,"isfamily":0},{"id":"52418334776","owner":"39177293@N03","secret":"6bf87b9d2d","server":"65535","farm":66,"title":"Bobolink","ispublic":1,"isfriend":0,"isfamily":0},{"id":"52407837445","owner":"39138537@N06","secret":"695fcf6206","server":"65535","farm":66,"title":"Bobolink (Dolichonyx oryzivorus)","ispublic":1,"isfriend":0,"isfamily":0},{"id":"52390446256","owner":"51986662@N05","secret":"6e1c44884c","server":"65535","farm":66,"title":"Bobolink Lake Andes Wetland Management District South Dakota","ispublic":1,"isfriend":0,"isfamily":0},{"id":"52388452315","owner":"51986662@N05","secret":"f70ea7f3bd","server":"65535","farm":66,"title":"Bobolink on Scott WPA Lake Andes Wetland Management District South Dakota","ispublic":1,"isfriend":0,"isfamily":0},{"id":"52378933746","owner":"51986662@N05","secret":"226b00af32","server":"65535","farm":66,"title":"Bobolink on Broken Arrow WPA Lake Andes Wetland Management District South Dakota","ispublic":1,"isfriend":0,"isfamily":0},{"id":"52378837914","owner":"51986662@N05","secret":"c4587eecd2","server":"65535","farm":66,"title":"Bobolink Lake Andes Wetland Management District South Dakota.","ispublic":1,"isfriend":0,"isfamily":0},{"id":"52378755843","owner":"51986662@N05","secret":"d0b68b67d7","server":"65535","farm":66,"title":"Bobolinks Lake Andes Wetland Management District South Dakota.","ispublic":1,"isfriend":0,"isfamily":0},{"id":"52378836294","owner":"51986662@N05","secret":"fab403330e","server":"65535","farm":66,"title":"Bobolink in Flight Lake Andes Wetland Management District South Dakota.","ispublic":1,"isfriend":0,"isfamily":0},{"id":"52378524766","owner":"51986662@N05","secret":"1bffebdbf0","server":"65535","farm":66,"title":"Bobolink in Flight Lake Andes Wetland Management District South Dakota.","ispublic":1,"isfriend":0,"isfamily":0},{"id":"52378836049","owner":"51986662@N05","secret":"d3c5b520d8","server":"65535","farm":66,"title":"Bobolink in Grassland Lake Andes Wetland Management District South Dakota.","ispublic":1,"isfriend":0,"isfamily":0},{"id":"52375898465","owner":"128537732@N06","secret":"6423568253","server":"65535","farm":66,"title":"Bobolink (Dolichonyx oryzivorus)","ispublic":1,"isfriend":0,"isfamily":0},{"id":"52375896560","owner":"128537732@N06","secret":"559c8be088","server":"65535","farm":66,"title":"Bobolink (Dolichonyx oryzivorus)","ispublic":1,"isfriend":0,"isfamily":0},{"id":"52361805357","owner":"196264892@N08","secret":"cba2e5367e","server":"65535","farm":66,"title":"Bobolink (","ispublic":1,"isfriend":0,"isfamily":0},{"id":"52362745261","owner":"196264892@N08","secret":"2d9b03eacd","server":"65535","farm":66,"title":"Bobolink","ispublic":1,"isfriend":0,"isfamily":0},{"id":"52358992029","owner":"128537732@N06","secret":"0f0990a4f6","server":"65535","farm":66,"title":"Bobolink (Dolichonyx oryzivorus)","ispublic":1,"isfriend":0,"isfamily":0},{"id":"52359099640","owner":"128537732@N06","secret":"0461b091da","server":"65535","farm":66,"title":"Bobolink (Dolichonyx oryzivorus)","ispublic":1,"isfriend":0,"isfamily":0},{"id":"52356312859","owner":"183132100@N02","secret":"e4b38bca6a","server":"65535","farm":66,"title":"Bobolink 9-10-2022","ispublic":1,"isfriend":0,"isfamily":0},{"id":"52319496955","owner":"92361032@N05","secret":"b895d11e7b","server":"65535","farm":66,"title":"Bobolink \/ Goglu des pr\u00e9s Fem ( Diane )","ispublic":1,"isfriend":0,"isfamily":0},{"id":"52310398514","owner":"92361032@N05","secret":"381495049a","server":"65535","farm":66,"title":"Bobolink \/Goglu des pr\u00e9s ( Richard )","ispublic":1,"isfriend":0,"isfamily":0},{"id":"52281825024","owner":"182225716@N07","secret":"94eb8005eb","server":"65535","farm":66,"title":"DSC_4849_00001 Bobolink - Goglu des pr\u00e9s (Dolichonyx oryzivorus)","ispublic":1,"isfriend":0,"isfamily":0},{"id":"52280578007","owner":"182225716@N07","secret":"e8a9a61267","server":"65535","farm":66,"title":"DSC_4841_00001 Bobolink - Goglu des pr\u00e9s (Dolichonyx oryzivorus)","ispublic":1,"isfriend":0,"isfamily":0},{"id":"52282039480","owner":"182225716@N07","secret":"af0aa16262","server":"65535","farm":66,"title":"DSC_4832_00001 Bobolink - Goglu des pr\u00e9s (Dolichonyx oryzivorus)","ispublic":1,"isfriend":0,"isfamily":0},{"id":"52259541517","owner":"184155060@N04","secret":"b2e9c4d14a","server":"65535","farm":66,"title":"32297 Goglu pr\u00e9s \/ Dolichonyx oryzivorus \/ Bobolink","ispublic":1,"isfriend":0,"isfamily":0},{"id":"52256498284","owner":"59770980@N02","secret":"29551b5261","server":"65535","farm":66,"title":"R\u00edsstarli-Bobolink-Dolichonyx oryzivorus","ispublic":1,"isfriend":0,"isfamily":0},{"id":"52226597130","owner":"44880465@N02","secret":"1524437da6","server":"65535","farm":66,"title":"Bobolink","ispublic":1,"isfriend":0,"isfamily":0},{"id":"52225108242","owner":"44880465@N02","secret":"ff67076f22","server":"65535","farm":66,"title":"Bobolink","ispublic":1,"isfriend":0,"isfamily":0},{"id":"52225108137","owner":"44880465@N02","secret":"ac1221d99e","server":"65535","farm":66,"title":"Bobolink","ispublic":1,"isfriend":0,"isfamily":0},{"id":"52203734363","owner":"71833159@N00","secret":"1e90bce0aa","server":"65535","farm":66,"title":"Bobolink \/ Dolichonyx oryzivorus, male, backward glance","ispublic":1,"isfriend":0,"isfamily":0},{"id":"52203400150","owner":"145466593@N08","secret":"ef990257bf","server":"65535","farm":66,"title":"Bobolink  (m)","ispublic":1,"isfriend":0,"isfamily":0},{"id":"52182863742","owner":"25268283@N06","secret":"440374692f","server":"65535","farm":66,"title":"Bobolink","ispublic":1,"isfriend":0,"isfamily":0},{"id":"52178558025","owner":"158105449@N02","secret":"e479a6e4f5","server":"65535","farm":66,"title":"Babolink (Dolichonyx oryzivorus) Garrett County, MD","ispublic":1,"isfriend":0,"isfamily":0},{"id":"52174141366","owner":"183736567@N07","secret":"27b746aaf2","server":"65535","farm":66,"title":"Bobolink (Dolichonyx oryzivorus) flying","ispublic":1,"isfriend":0,"isfamily":0},{"id":"52169494407","owner":"59676118@N06","secret":"ccf1522446","server":"65535","farm":66,"title":"Bobolink Atop a Compass Plant","ispublic":1,"isfriend":0,"isfamily":0},{"id":"52165760148","owner":"195656112@N04","secret":"6c56c2b54a","server":"65535","farm":66,"title":"DSC02454","ispublic":1,"isfriend":0,"isfamily":0},{"id":"52165755046","owner":"195656112@N04","secret":"f39dd93eb8","server":"65535","farm":66,"title":"DSC02446","ispublic":1,"isfriend":0,"isfamily":0},{"id":"52164726652","owner":"195656112@N04","secret":"52b422d408","server":"65535","farm":66,"title":"DSC02383","ispublic":1,"isfriend":0,"isfamily":0},{"id":"52165962629","owner":"90886369@N06","secret":"d7b3ee052e","server":"65535","farm":66,"title":"Bobolink (Dolichonyx oryzivorus)","ispublic":1,"isfriend":0,"isfamily":0},{"id":"52164042467","owner":"76617062@N08","secret":"73462862fb","server":"65535","farm":66,"title":"1.30140 Goglu des pr\u00e9s \/ Dolichonyx oryzivorus \/ Bobolink","ispublic":1,"isfriend":0,"isfamily":0},{"id":"52164071535","owner":"153854281@N07","secret":"c4cbbfaebb","server":"65535","farm":66,"title":"Goglu des pr\u00e9s  Bobolink - Dolichonyx oryzivorus","ispublic":1,"isfriend":0,"isfamily":0},{"id":"52163820784","owner":"153854281@N07","secret":"e4df1140e5","server":"65535","farm":66,"title":"Goglu des pr\u00e9s  Bobolink - Dolichonyx oryzivorus","ispublic":1,"isfriend":0,"isfamily":0},{"id":"52162874844","owner":"159284114@N07","secret":"a7d62fc297","server":"65535","farm":66,"title":"Goglu des pr\u00e9s, Bobolink","ispublic":1,"isfriend":0,"isfamily":0},{"id":"52155794512","owner":"71833159@N00","secret":"4d77bdb38a","server":"65535","farm":66,"title":"Bobolink \/ Dolichonyx oryzivorus, male","ispublic":1,"isfriend":0,"isfamily":0},{"id":"52152596148","owner":"71833159@N00","secret":"c6b91b8219","server":"65535","farm":66,"title":"Bobolink \/ Dolichonyx oryzivorus, male","ispublic":1,"isfriend":0,"isfamily":0},{"id":"52151246584","owner":"40510080@N04","secret":"61d2985597","server":"65535","farm":66,"title":"Male Bobolink","ispublic":1,"isfriend":0,"isfamily":0},{"id":"52150163020","owner":"22304442@N00","secret":"bd822dc6f3","server":"65535","farm":66,"title":"goglu des pr\u00e9s (bobolink)","ispublic":1,"isfriend":0,"isfamily":0},{"id":"52149688253","owner":"22304442@N00","secret":"9ba3afc3da","server":"65535","farm":66,"title":"goglu des pr\u00e9s (bobolink)","ispublic":1,"isfriend":0,"isfamily":0},{"id":"52150162955","owner":"22304442@N00","secret":"8e6a0de2a5","server":"65535","farm":66,"title":"goglu des pr\u00e9s (bobolink)","ispublic":1,"isfriend":0,"isfamily":0},{"id":"52141208741","owner":"32599741@N03","secret":"82296ec4fd","server":"65535","farm":66,"title":"2022 - Day 120:  lifer","ispublic":1,"isfriend":0,"isfamily":0},{"id":"52139284248","owner":"71833159@N00","secret":"78609bbd79","server":"65535","farm":66,"title":"Bobolink \/ Dolichonyx oryzivorus, male","ispublic":1,"isfriend":0,"isfamily":0},{"id":"52139204718","owner":"134081613@N07","secret":"67f147c8d6","server":"65535","farm":66,"title":"Bobolink","ispublic":1,"isfriend":0,"isfamily":0},{"id":"52134372649","owner":"25268283@N06","secret":"030e7ba7a9","server":"65535","farm":66,"title":"Bobolink","ispublic":1,"isfriend":0,"isfamily":0},{"id":"52129696532","owner":"73654511@N05","secret":"ae4409b6b3","server":"65535","farm":66,"title":"L0A7246-Bobolink","ispublic":1,"isfriend":0,"isfamily":0},{"id":"52125829198","owner":"71833159@N00","secret":"7400f927a2","server":"65535","farm":66,"title":"Bobolink \/ Dolichonyx oryzivorus, male","ispublic":1,"isfriend":0,"isfamily":0},{"id":"52121164683","owner":"71833159@N00","secret":"6318743136","server":"65535","farm":66,"title":"Bobolink \/ Dolichonyx oryzivorus, male","ispublic":1,"isfriend":0,"isfamily":0},{"id":"52113336732","owner":"168495655@N07","secret":"ec868b340c","server":"65535","farm":66,"title":"Goglu des pr\u00e9s - Dolichonyx oryzivorus - Bobolink","ispublic":1,"isfriend":0,"isfamily":0},{"id":"52113336572","owner":"168495655@N07","secret":"0ef7128582","server":"65535","farm":66,"title":"Goglu des pr\u00e9s - Dolichonyx oryzivorus - Bobolink","ispublic":1,"isfriend":0,"isfamily":0},{"id":"52104315119","owner":"80987623@N00","secret":"ec42cdfc8c","server":"65535","farm":66,"title":"Thrilled","ispublic":1,"isfriend":0,"isfamily":0},{"id":"52093324794","owner":"162163713@N06","secret":"2398cc3e03","server":"65535","farm":66,"title":"Goglu des pr\u00e9s Dolichonyx oryzivorus - Bobolink","ispublic":1,"isfriend":0,"isfamily":0},{"id":"52092216636","owner":"162163713@N06","secret":"5ccbe6a017","server":"65535","farm":66,"title":"Goglu des pr\u00e9s Dolichonyx oryzivorus - Bobolink","ispublic":1,"isfriend":0,"isfamily":0},{"id":"52085085827","owner":"120449047@N06","secret":"7faea784ba","server":"65535","farm":66,"title":"Bobolink","ispublic":1,"isfriend":0,"isfamily":0},{"id":"52580328331","owner":"153973412@N04","secret":"cfdafb2621","server":"65535","farm":66,"title":"Bobolink-Dolichonyx oryzivorus, Big Wall Lake, IA copy","ispublic":1,"isfriend":0,"isfamily":0},{"id":"52543218604","owner":"62877922@N08","secret":"67b7e5a8cd","server":"65535","farm":66,"title":"Bobolink (Dolichonyx oryzivorus)","ispublic":1,"isfriend":0,"isfamily":0},{"id":"52471347136","owner":"30638967@N03","secret":"4ab708d9f6","server":"65535","farm":66,"title":"Bobolink DSC_9271","ispublic":1,"isfriend":0,"isfamily":0},{"id":"52452014464","owner":"33573751@N04","secret":"6401eee77d","server":"65535","farm":66,"title":"Bobolink (Dolichonyx oryzivorus) - Wilton, Connecticut, USA","ispublic":1,"isfriend":0,"isfamily":0},{"id":"52433437784","owner":"191038887@N04","secret":"dd8f08e269","server":"65535","farm":66,"title":"Goglu des pr\u00e9s - Bobolink - Dolichonyx oryzivorus","ispublic":1,"isfriend":0,"isfamily":0},{"id":"52433617485","owner":"191038887@N04","secret":"b4065a81f8","server":"65535","farm":66,"title":"Goglu des pr\u00e9s - Bobolink - Dolichonyx oryzivorus","ispublic":1,"isfriend":0,"isfamily":0},{"id":"52432655772","owner":"191038887@N04","secret":"9f9527ae10","server":"65535","farm":66,"title":"Goglu des pr\u00e9s - Bobolink - Dolichonyx oryzivorus","ispublic":1,"isfriend":0,"isfamily":0},{"id":"52433616920","owner":"191038887@N04","secret":"8d24063943","server":"65535","farm":66,"title":"Goglu des pr\u00e9s - Bobolink - Dolichonyx oryzivorus","ispublic":1,"isfriend":0,"isfamily":0},{"id":"52433163636","owner":"191038887@N04","secret":"f57d928703","server":"65535","farm":66,"title":"Goglu des pr\u00e9s - Bobolink - Dolichonyx oryzivorus","ispublic":1,"isfriend":0,"isfamily":0},{"id":"52432149715","owner":"17654080@N08","secret":"f80c43c0b1","server":"65535","farm":66,"title":"Bobolink (Dolichonyx oryzivorus)","ispublic":1,"isfriend":0,"isfamily":0},{"id":"52385687148","owner":"130605131@N08","secret":"3c020d3bed","server":"65535","farm":66,"title":"IMG_2199","ispublic":1,"isfriend":0,"isfamily":0},{"id":"52385879050","owner":"130605131@N08","secret":"7edea84eaa","server":"65535","farm":66,"title":"IMG_2200","ispublic":1,"isfriend":0,"isfamily":0},{"id":"52384515672","owner":"130605131@N08","secret":"b0790a94ff","server":"65535","farm":66,"title":"IMG_2201","ispublic":1,"isfriend":0,"isfamily":0},{"id":"52385445596","owner":"130605131@N08","secret":"cfc464068f","server":"65535","farm":66,"title":"IMG_2202","ispublic":1,"isfriend":0,"isfamily":0},{"id":"52375701058","owner":"128537732@N06","secret":"b4e966845e","server":"65535","farm":66,"title":"Bobolink (Dolichonyx oryzivorus)","ispublic":1,"isfriend":0,"isfamily":0},{"id":"52308343945","owner":"193835300@N08","secret":"43772c2c9f","server":"65535","farm":66,"title":"Goglu des pr\u00e9s (Dolichonyx oryzivorus) Bobolink","ispublic":1,"isfriend":0,"isfamily":0},{"id":"52260995960","owner":"184155060@N04","secret":"23a566736b","server":"65535","farm":66,"title":"32297 Goglu pr\u00e9s \/ Dolichonyx oryzivorus \/ Bobolink","ispublic":1,"isfriend":0,"isfamily":0},{"id":"52259541507","owner":"184155060@N04","secret":"d7c8467421","server":"65535","farm":66,"title":"32297 Goglu pr\u00e9s \/ Dolichonyx oryzivorus \/ Bobolink","ispublic":1,"isfriend":0,"isfamily":0},{"id":"52208667600","owner":"65148649@N04","secret":"ab2e78abe9","server":"65535","farm":66,"title":"Bobolink","ispublic":1,"isfriend":0,"isfamily":0},{"id":"52171123461","owner":"192796535@N02","secret":"e8e58d5f6a","server":"65535","farm":66,"title":"Bobolink","ispublic":1,"isfriend":0,"isfamily":0},{"id":"52110932693","owner":"187124972@N03","secret":"3956e511f5","server":"65535","farm":66,"title":"GOGLU DES PR\u00c9S \/ BOBOLINK (Dolichonyx Oryzivorus)","ispublic":1,"isfriend":0,"isfamily":0},{"id":"52108409017","owner":"188962861@N03","secret":"ee91c3a1a9","server":"65535","farm":66,"title":"Goglu des pr\u00e9s - Bobolink - Dolichonyx oryzivorus","ispublic":1,"isfriend":0,"isfamily":0}]},"stat":"ok"}