{"photos":{"page":1,"pages":47,"perpage":100,"total":4682,"photo":[{"id":"52719247532","owner":"18739614@N00","secret":"315f1ce17b","server":"65535","farm":66,"title":"Brown-headed Cowbird","ispublic":1,"isfriend":0,"isfamily":0},{"id":"52700973857","owner":"86191812@N07","secret":"d8e146c845","server":"65535","farm":66,"title":"Brown-headed Cowbird (Molothrus ater)","ispublic":1,"isfriend":0,"isfamily":0},{"id":"52687390886","owner":"18739614@N00","secret":"bc37dab6d3","server":"65535","farm":66,"title":"Brown-headed Cowbird","ispublic":1,"isfriend":0,"isfamily":0},{"id":"52686293512","owner":"151109375@N08","secret":"b7acaf96e5","server":"65535","farm":66,"title":"An American Robin, pauses in its snack of berries","ispublic":1,"isfriend":0,"isfamily":0},{"id":"52685123053","owner":"29367844@N03","secret":"904d8e72c5","server":"65535","farm":66,"title":"A Successful Mother that will Never Build a Nest or Feed its Young","ispublic":1,"isfriend":0,"isfamily":0},{"id":"52678031584","owner":"33610210@N05","secret":"8faeb3e134","server":"65535","farm":66,"title":"Brewer's Blackbird, Euphagus cyanocephalus (right) and Brown-headed Cowbird, Molothrus ater (left)","ispublic":1,"isfriend":0,"isfamily":0},{"id":"52678180825","owner":"33610210@N05","secret":"426201a9a2","server":"65535","farm":66,"title":"Brown-headed Cowbird, Molothrus ater","ispublic":1,"isfriend":0,"isfamily":0},{"id":"52677745051","owner":"33610210@N05","secret":"18ef1fc0fd","server":"65535","farm":66,"title":"Brewer's Blackbird, Euphagus cyanocephalus (right and center) and Brown-headed Cowbird, Molothrus ater (left)","ispublic":1,"isfriend":0,"isfamily":0},{"id":"52665138282","owner":"142605906@N06","secret":"247b279c25","server":"65535","farm":66,"title":"Brown-headed Cowbird (Molothrus ater) Female","ispublic":1,"isfriend":0,"isfamily":0},{"id":"52662939092","owner":"8378957@N02","secret":"fac35393d2","server":"65535","farm":66,"title":"Cowbird","ispublic":1,"isfriend":0,"isfamily":0},{"id":"52647380900","owner":"39617069@N08","secret":"f39fcc6f62","server":"65535","farm":66,"title":"Brown-headed Cowbird","ispublic":1,"isfriend":0,"isfamily":0},{"id":"52644992312","owner":"151381692@N04","secret":"0c6d582385","server":"65535","farm":66,"title":"Mixed Flock (Agelaius phoeniceus, Molothrus ater, Sturnus vulgaris, and Quiscalus quiscula)","ispublic":1,"isfriend":0,"isfamily":0},{"id":"52635810385","owner":"69317752@N02","secret":"70499dc872","server":"65535","farm":66,"title":"Brown-headed Cowbird","ispublic":1,"isfriend":0,"isfamily":0},{"id":"52634406550","owner":"39445433@N02","secret":"8375b4e331","server":"65535","farm":66,"title":"AJ9A6087","ispublic":1,"isfriend":0,"isfamily":0},{"id":"52633455622","owner":"39445433@N02","secret":"6fb7e30da6","server":"65535","farm":66,"title":"Brown-Headed Cowbird","ispublic":1,"isfriend":0,"isfamily":0},{"id":"52628477253","owner":"142142910@N08","secret":"0ab9dbbccc","server":"65535","farm":66,"title":"bruinkopkoevogel","ispublic":1,"isfriend":0,"isfamily":0},{"id":"52626386382","owner":"76617062@N08","secret":"b0583b8091","server":"65535","farm":66,"title":"1.30322 Vacher \u00e0 t\u00eate brune \/ Molothrus ater ater \/ Brown-headed Cowbird","ispublic":1,"isfriend":0,"isfamily":0},{"id":"52597028936","owner":"33610210@N05","secret":"6fd0f7834f","server":"65535","farm":66,"title":"Brown-headed Cowbird, Molothrus ater","ispublic":1,"isfriend":0,"isfamily":0},{"id":"52594793761","owner":"72262860@N00","secret":"728e763e48","server":"65535","farm":66,"title":"Brown-headed Cowbird","ispublic":1,"isfriend":0,"isfamily":0},{"id":"52592973734","owner":"30979614@N07","secret":"9a8b4365d4","server":"65535","farm":66,"title":"2022-05-10 Montrose Point 17","ispublic":1,"isfriend":0,"isfamily":0},{"id":"52584799941","owner":"169771858@N03","secret":"2f3c707907","server":"65535","farm":66,"title":"Brown-Headed Cowbird - 2019-06-30","ispublic":1,"isfriend":0,"isfamily":0},{"id":"52580848058","owner":"153973412@N04","secret":"89705be72a","server":"65535","farm":66,"title":"Brown-headed Cowbird-Molothrus ater, Iowa City, IA","ispublic":1,"isfriend":0,"isfamily":0},{"id":"52576025415","owner":"76288515@N07","secret":"e5c60da362","server":"65535","farm":66,"title":"Brown-headed Cowbird Molothrus ater","ispublic":1,"isfriend":0,"isfamily":0},{"id":"52575114932","owner":"76288515@N07","secret":"c6c7ce6fbf","server":"65535","farm":66,"title":"Brown-headed Cowbird Molothrus ater","ispublic":1,"isfriend":0,"isfamily":0},{"id":"52576025375","owner":"76288515@N07","secret":"359da4958a","server":"65535","farm":66,"title":"Brown-headed Cowbird Molothrus ater","ispublic":1,"isfriend":0,"isfamily":0},{"id":"52576106313","owner":"76288515@N07","secret":"88f164dde8","server":"65535","farm":66,"title":"Brown-headed Cowbird Molothrus ater","ispublic":1,"isfriend":0,"isfamily":0},{"id":"52575114812","owner":"76288515@N07","secret":"1e87143540","server":"65535","farm":66,"title":"Brown-headed Cowbird Molothrus ater","ispublic":1,"isfriend":0,"isfamily":0},{"id":"52575570991","owner":"76288515@N07","secret":"32ddf65b5d","server":"65535","farm":66,"title":"Brown-headed Cowbird Molothrus ater","ispublic":1,"isfriend":0,"isfamily":0},{"id":"52576025220","owner":"76288515@N07","secret":"78fa993ef9","server":"65535","farm":66,"title":"Brown-headed Cowbird Molothrus ater","ispublic":1,"isfriend":0,"isfamily":0},{"id":"52575570916","owner":"76288515@N07","secret":"067b6facb8","server":"65535","farm":66,"title":"Brown-headed Cowbird Molothrus ater","ispublic":1,"isfriend":0,"isfamily":0},{"id":"52576106113","owner":"76288515@N07","secret":"4b9b560043","server":"65535","farm":66,"title":"Brown-headed Cowbird Molothrus ater","ispublic":1,"isfriend":0,"isfamily":0},{"id":"52575114712","owner":"76288515@N07","secret":"c6f0553c5d","server":"65535","farm":66,"title":"Brown-headed Cowbird Molothrus ater","ispublic":1,"isfriend":0,"isfamily":0},{"id":"52576106088","owner":"76288515@N07","secret":"e4ae48f432","server":"65535","farm":66,"title":"Brown-headed Cowbird Molothrus ater","ispublic":1,"isfriend":0,"isfamily":0},{"id":"52560132835","owner":"196840457@N07","secret":"c023053fd1","server":"65535","farm":66,"title":"Cowbird, Brown-headed","ispublic":1,"isfriend":0,"isfamily":0},{"id":"52537772566","owner":"39617069@N08","secret":"884123f70d","server":"65535","farm":66,"title":"Brown-headed Cowbird","ispublic":1,"isfriend":0,"isfamily":0},{"id":"52544186673","owner":"134270033@N06","secret":"068ebf1984","server":"65535","farm":66,"title":"Plumage Study","ispublic":1,"isfriend":0,"isfamily":0},{"id":"52531117145","owner":"33610210@N05","secret":"f2368db077","server":"65535","farm":66,"title":"Brown-headed Cowbird, Molothrus ater","ispublic":1,"isfriend":0,"isfamily":0},{"id":"52530928004","owner":"33610210@N05","secret":"9bcb0ce3f1","server":"65535","farm":66,"title":"Brown-headed Cowbird, Molothrus ater","ispublic":1,"isfriend":0,"isfamily":0},{"id":"52531117105","owner":"33610210@N05","secret":"6dc9acce00","server":"65535","farm":66,"title":"Brown-headed Cowbird, Molothrus ater","ispublic":1,"isfriend":0,"isfamily":0},{"id":"52530531151","owner":"33610210@N05","secret":"73d2444433","server":"65535","farm":66,"title":"Brown-headed Cowbird, Molothrus ater","ispublic":1,"isfriend":0,"isfamily":0},{"id":"52516323318","owner":"39445433@N02","secret":"1924340f42","server":"65535","farm":66,"title":"Brown-Headed Cowbird","ispublic":1,"isfriend":0,"isfamily":0},{"id":"52495094542","owner":"97697339@N05","secret":"640921f141","server":"65535","farm":66,"title":"Brown-headed Cowbird (Molothrus ater)","ispublic":1,"isfriend":0,"isfamily":0},{"id":"49977416067","owner":"134270033@N06","secret":"f1ff832e7c","server":"65535","farm":66,"title":"HFF :: Happy Fence Friday","ispublic":1,"isfriend":0,"isfamily":0},{"id":"52424295029","owner":"53256251@N04","secret":"893dff42f0","server":"65535","farm":66,"title":"Female  brown headed Cowbird","ispublic":1,"isfriend":0,"isfamily":0},{"id":"52401642004","owner":"169771858@N03","secret":"3ba0fa9fd9","server":"65535","farm":66,"title":"Brown-Headed Cowbird - 2021-04-25","ispublic":1,"isfriend":0,"isfamily":0},{"id":"52400786776","owner":"62043870@N05","secret":"00d977964a","server":"65535","farm":66,"title":"Brown-headed Cowbirds, Molothrus ater","ispublic":1,"isfriend":0,"isfamily":0},{"id":"52395902726","owner":"187792860@N04","secret":"345d334628","server":"65535","farm":66,"title":"Brown-headed Cowbird (Molothrus ater)","ispublic":1,"isfriend":0,"isfamily":0},{"id":"52390636227","owner":"196264892@N08","secret":"3d48829419","server":"65535","farm":66,"title":"Brown-headed Cowbird juvenile","ispublic":1,"isfriend":0,"isfamily":0},{"id":"52391870159","owner":"196264892@N08","secret":"65a993c388","server":"65535","farm":66,"title":"Brown-headed Cowbird juvenile","ispublic":1,"isfriend":0,"isfamily":0},{"id":"52390635562","owner":"196264892@N08","secret":"20d6bb4dab","server":"65535","farm":66,"title":"Brown-headed Cowbird juvenile","ispublic":1,"isfriend":0,"isfamily":0},{"id":"52391869549","owner":"196264892@N08","secret":"a287ce321b","server":"65535","farm":66,"title":"Brown-headed Cowbird juvenile","ispublic":1,"isfriend":0,"isfamily":0},{"id":"52376469935","owner":"146479766@N08","secret":"3bacf3a85f","server":"65535","farm":66,"title":"Vacher \u00e0 T\u00eate Brune \u2013 Brown-headed Cowbird \u2013 Molothrus ater","ispublic":1,"isfriend":0,"isfamily":0},{"id":"52374216777","owner":"196264892@N08","secret":"5a6cc327a4","server":"65535","farm":66,"title":"Cowbird on Cow Ear","ispublic":1,"isfriend":0,"isfamily":0},{"id":"52375580245","owner":"196264892@N08","secret":"feb9391a55","server":"65535","farm":66,"title":"Cowbird on Cow Ear","ispublic":1,"isfriend":0,"isfamily":0},{"id":"52367682387","owner":"55216637@N04","secret":"69cc8216ff","server":"65535","farm":66,"title":"Brown-headed Cowbird-22-001","ispublic":1,"isfriend":0,"isfamily":0},{"id":"52368623826","owner":"55216637@N04","secret":"f3d3f37142","server":"65535","farm":66,"title":"Brown-headed Cowbird-22-002","ispublic":1,"isfriend":0,"isfamily":0},{"id":"52367682202","owner":"55216637@N04","secret":"45c3047a4e","server":"65535","farm":66,"title":"Brown-headed Cowbird-22-003","ispublic":1,"isfriend":0,"isfamily":0},{"id":"52361757897","owner":"23711298@N07","secret":"c8e8bd5fac","server":"65535","farm":66,"title":"Brown-headed Cowbird (Fledgling), Minnesota, Anoka County- Fridley, Manomin County Park","ispublic":1,"isfriend":0,"isfamily":0},{"id":"52353517628","owner":"145650218@N03","secret":"ca2bf99de5","server":"65535","farm":66,"title":"Male brown-headed cowbirds (Molothrus ater)","ispublic":1,"isfriend":0,"isfamily":0},{"id":"52351868049","owner":"65148649@N04","secret":"a85109fb8f","server":"65535","farm":66,"title":"Brown-Headed Cowbird","ispublic":1,"isfriend":0,"isfamily":0},{"id":"52347751417","owner":"188214336@N08","secret":"6544ac0917","server":"65535","farm":66,"title":"DSC_9959-2R1 Male Brown-headed Cowbird","ispublic":1,"isfriend":0,"isfamily":0},{"id":"52349128910","owner":"188214336@N08","secret":"2016ace05f","server":"65535","farm":66,"title":"DSC_0443-2R2 Brown-headed Cowbirds","ispublic":1,"isfriend":0,"isfamily":0},{"id":"52327965193","owner":"196264892@N08","secret":"a60cb81ccc","server":"65535","farm":66,"title":"Brown-headed Cowbird","ispublic":1,"isfriend":0,"isfamily":0},{"id":"52326730472","owner":"196264892@N08","secret":"64f55cafce","server":"65535","farm":66,"title":"Horse with Cowbirds","ispublic":1,"isfriend":0,"isfamily":0},{"id":"52327980159","owner":"196264892@N08","secret":"93511fc712","server":"65535","farm":66,"title":"Horse with Cowbirds","ispublic":1,"isfriend":0,"isfamily":0},{"id":"52327926428","owner":"196264892@N08","secret":"bfab7467fa","server":"65535","farm":66,"title":"Horse with Cowbirds","ispublic":1,"isfriend":0,"isfamily":0},{"id":"52322860129","owner":"84152923@N08","secret":"8511493930","server":"65535","farm":66,"title":"bruinkopkoevogel - Molothrus ater - Brown-headed cowbird","ispublic":1,"isfriend":0,"isfamily":0},{"id":"52313300593","owner":"196264892@N08","secret":"c91f6c6df9","server":"65535","farm":66,"title":"Brown-headed Cowbird juv","ispublic":1,"isfriend":0,"isfamily":0},{"id":"52312988401","owner":"196264892@N08","secret":"fe9be5f326","server":"65535","farm":66,"title":"Brown-headed Cowbird juv","ispublic":1,"isfriend":0,"isfamily":0},{"id":"52312899045","owner":"84152923@N08","secret":"6d68834e10","server":"65535","farm":66,"title":"bruinkopkoevogel - Molothrus ater - Brown-headed cowbird","ispublic":1,"isfriend":0,"isfamily":0},{"id":"52312455171","owner":"84152923@N08","secret":"fe90f0416b","server":"65535","farm":66,"title":"bruinkopkoevogel - Molothrus ater - Brown-headed cowbird","ispublic":1,"isfriend":0,"isfamily":0},{"id":"52309417985","owner":"40318098@N05","secret":"b48332e410","server":"65535","farm":66,"title":"JAK_1561","ispublic":1,"isfriend":0,"isfamily":0},{"id":"52308894671","owner":"40318098@N05","secret":"26a325d9d1","server":"65535","farm":66,"title":"JAK_1562","ispublic":1,"isfriend":0,"isfamily":0},{"id":"52304741667","owner":"34238008@N02","secret":"c0f947eb1c","server":"65535","farm":66,"title":"Brown-headed Cowbird (Molothrus ater)","ispublic":1,"isfriend":0,"isfamily":0},{"id":"52305466106","owner":"34238008@N02","secret":"740a9c658b","server":"65535","farm":66,"title":"Brown-headed Cowbird, female (Molothrus ater)","ispublic":1,"isfriend":0,"isfamily":0},{"id":"52305977964","owner":"34238008@N02","secret":"7d4156237d","server":"65535","farm":66,"title":"Brown-headed Cowbird (Molothrus ater)","ispublic":1,"isfriend":0,"isfamily":0},{"id":"52298372488","owner":"34238008@N02","secret":"ed3738e8e3","server":"65535","farm":66,"title":"Brown-headed Cowbird (Molothrus ater)","ispublic":1,"isfriend":0,"isfamily":0},{"id":"52298862065","owner":"34238008@N02","secret":"34b1467aa9","server":"65535","farm":66,"title":"Brown-headed Cowbird (Molothrus ater)","ispublic":1,"isfriend":0,"isfamily":0},{"id":"52294823550","owner":"8666250@N02","secret":"07782e1009","server":"65535","farm":66,"title":"Juvenile female BROC 220707 -03","ispublic":1,"isfriend":0,"isfamily":0},{"id":"52294823400","owner":"8666250@N02","secret":"ff9aed54ff","server":"65535","farm":66,"title":"Shady characters in The Sticks -01","ispublic":1,"isfriend":0,"isfamily":0},{"id":"52294339778","owner":"8666250@N02","secret":"b684ec7722","server":"65535","farm":66,"title":"Shady characters in The Sticks -02","ispublic":1,"isfriend":0,"isfamily":0},{"id":"52292694201","owner":"53977003@N00","secret":"84543106ae","server":"65535","farm":66,"title":"Brown-headed Cowbird","ispublic":1,"isfriend":0,"isfamily":0},{"id":"52288337376","owner":"196264892@N08","secret":"07bbbef736","server":"65535","farm":66,"title":"Brown-headed Cowbird","ispublic":1,"isfriend":0,"isfamily":0},{"id":"52288606164","owner":"196264892@N08","secret":"dd69e6e681","server":"65535","farm":66,"title":"Brown-headed Cowbird","ispublic":1,"isfriend":0,"isfamily":0},{"id":"52282856067","owner":"109544413@N05","secret":"6e645bfb33","server":"65535","farm":66,"title":"Not a singer - just a sitter","ispublic":1,"isfriend":0,"isfamily":0},{"id":"52279659068","owner":"53256251@N04","secret":"3492026e66","server":"65535","farm":66,"title":"Best friends synchro 4","ispublic":1,"isfriend":0,"isfamily":0},{"id":"52279640966","owner":"53256251@N04","secret":"54a9471ae5","server":"65535","farm":66,"title":"Best friends synchro 3","ispublic":1,"isfriend":0,"isfamily":0},{"id":"52280122090","owner":"53256251@N04","secret":"a1d51c8463","server":"65535","farm":66,"title":"Best friends synchro 2","ispublic":1,"isfriend":0,"isfamily":0},{"id":"52278656037","owner":"53256251@N04","secret":"4c9bd65d38","server":"65535","farm":66,"title":"Best friends synchro 1 - American robin and brown headed cowbird fledglings","ispublic":1,"isfriend":0,"isfamily":0},{"id":"52279905664","owner":"53256251@N04","secret":"18a180c05e","server":"65535","farm":66,"title":"Best friends synchro 5","ispublic":1,"isfriend":0,"isfamily":0},{"id":"52276588704","owner":"53256251@N04","secret":"d9e8b1ba94","server":"65535","farm":66,"title":"Fluffy and Soft - fledgling Brown Headed Cowbird","ispublic":1,"isfriend":0,"isfamily":0},{"id":"52270130471","owner":"196264892@N08","secret":"bdf8a4515b","server":"65535","farm":66,"title":"Sheep with Starlings and Cowbirds","ispublic":1,"isfriend":0,"isfamily":0},{"id":"52264652277","owner":"196264892@N08","secret":"539768929d","server":"65535","farm":66,"title":"Brown-headed Cowbird","ispublic":1,"isfriend":0,"isfamily":0},{"id":"52265612096","owner":"196264892@N08","secret":"943330bbd7","server":"65535","farm":66,"title":"Cowbird chick and Junco","ispublic":1,"isfriend":0,"isfamily":0},{"id":"52262623591","owner":"34238008@N02","secret":"f8bd9b1610","server":"65535","farm":66,"title":"Brown-headed Cowbird (Molothrus ater)","ispublic":1,"isfriend":0,"isfamily":0},{"id":"52318027151","owner":"134270033@N06","secret":"26495032f1","server":"65535","farm":66,"title":"brood parasite species","ispublic":1,"isfriend":0,"isfamily":0},{"id":"52256278930","owner":"22475926@N08","secret":"a196826304","server":"65535","farm":66,"title":"Brown-headed Cowbird (Molothrus ater)","ispublic":1,"isfriend":0,"isfamily":0},{"id":"52252691796","owner":"187792860@N04","secret":"51133ace2e","server":"65535","farm":66,"title":"Brown-headed Cowbird (Molothrus ater)","ispublic":1,"isfriend":0,"isfamily":0},{"id":"52414296423","owner":"71989271@N06","secret":"361d0ed626","server":"65535","farm":66,"title":"Brown-headed Cowbird (m)(Molothrus ater)","ispublic":1,"isfriend":0,"isfamily":0},{"id":"52261649347","owner":"34238008@N02","secret":"ebc4f9762d","server":"65535","farm":66,"title":"Brown-headed Cowbird (Molothrus ater)","ispublic":1,"isfriend":0,"isfamily":0}]},"stat":"ok"}