{"photos":{"page":1,"pages":32,"perpage":100,"total":3185,"photo":[{"id":"52720227358","owner":"125605310@N07","secret":"87e0cdf1fc","server":"65535","farm":66,"title":"Brown Creeper, Certhia americana","ispublic":1,"isfriend":0,"isfamily":0},{"id":"52718875047","owner":"62043870@N05","secret":"bfa87d9100","server":"65535","farm":66,"title":"Brown Creeper, Certhia americana","ispublic":1,"isfriend":0,"isfamily":0},{"id":"52719881228","owner":"62043870@N05","secret":"d7148c162e","server":"65535","farm":66,"title":"Brown Creeper, Certhia americana","ispublic":1,"isfriend":0,"isfamily":0},{"id":"52713748145","owner":"11159374@N04","secret":"6901be7e94","server":"65535","farm":66,"title":"Brown Creeper","ispublic":1,"isfriend":0,"isfamily":0},{"id":"52706344844","owner":"168495655@N07","secret":"a20ccfdc26","server":"65535","farm":66,"title":"Grimpereau brun - Certhia americana - Brown Creeper","ispublic":1,"isfriend":0,"isfamily":0},{"id":"52700454287","owner":"145086457@N04","secret":"ca957cc406","server":"65535","farm":66,"title":"Brown Creeper","ispublic":1,"isfriend":0,"isfamily":0},{"id":"52701230554","owner":"145086457@N04","secret":"ce15c71289","server":"65535","farm":66,"title":"Brown Creeper","ispublic":1,"isfriend":0,"isfamily":0},{"id":"52693772613","owner":"197628215@N07","secret":"1809814d6a","server":"65535","farm":66,"title":"Brown Creeper (Certhia americana) 01\/25\/2023 #browncreeper #creeper #bestbackroad #bestbackroads #natgeoyourshots #natgeo100contest #rutlandcountyvermont #rutlandcountyvt #washingtoncountynewyork #washingtoncountyny #whitehallnewyork #wildphotography #nat","ispublic":1,"isfriend":0,"isfamily":0},{"id":"52691859094","owner":"30765416@N06","secret":"da98030e9b","server":"65535","farm":66,"title":"Brown creeper - Certhia americana 1","ispublic":1,"isfriend":0,"isfamily":0},{"id":"52691070877","owner":"30765416@N06","secret":"4a93d97aec","server":"65535","farm":66,"title":"Brown creeper - Certhia americana 2","ispublic":1,"isfriend":0,"isfamily":0},{"id":"52691006689","owner":"82402390@N02","secret":"d9ec9a299e","server":"65535","farm":66,"title":"Grimpereau brun, Brown Creeper.   DSC_9026-1.jpg","ispublic":1,"isfriend":0,"isfamily":0},{"id":"52685616424","owner":"128537732@N06","secret":"d8bc629b58","server":"65535","farm":66,"title":"Brown Creeper (Certhia americana)","ispublic":1,"isfriend":0,"isfamily":0},{"id":"52685831733","owner":"128537732@N06","secret":"20d62eb9ef","server":"65535","farm":66,"title":"Brown Creeper (Certhia americana)","ispublic":1,"isfriend":0,"isfamily":0},{"id":"52684654329","owner":"133972384@N04","secret":"81b22ea6ea","server":"65535","farm":66,"title":"brown creeper","ispublic":1,"isfriend":0,"isfamily":0},{"id":"52677795620","owner":"45340210@N05","secret":"8a5559b5a3","server":"65535","farm":66,"title":"Brown Creeper, aka, American TreeCreeper.","ispublic":1,"isfriend":0,"isfamily":0},{"id":"52676014477","owner":"61241315@N00","secret":"b680be0c78","server":"0","farm":0,"title":"Brown Creeper_7342.MP4","ispublic":1,"isfriend":0,"isfamily":0},{"id":"52676013577","owner":"61241315@N00","secret":"059e7e3a5b","server":"65535","farm":66,"title":"Brown Creeper_00_00_00_400","ispublic":1,"isfriend":0,"isfamily":0},{"id":"52671563992","owner":"144980256@N07","secret":"89ca5e8e84","server":"65535","farm":66,"title":"Brown Creeper (Certhia americana)","ispublic":1,"isfriend":0,"isfamily":0},{"id":"52672062401","owner":"144980256@N07","secret":"feba66eeda","server":"65535","farm":66,"title":"Brown Creeper (Certhia americana)","ispublic":1,"isfriend":0,"isfamily":0},{"id":"52660018061","owner":"136180232@N08","secret":"016036a4c8","server":"65535","farm":66,"title":"Brown Creeper (Certhia americana) JTE_0544","ispublic":1,"isfriend":0,"isfamily":0},{"id":"52660305468","owner":"103722035@N06","secret":"e57460597e","server":"0","farm":0,"title":"Brown Creeper (Certhia americana), Del Mar Park, Morro Bay, CA","ispublic":1,"isfriend":0,"isfamily":0},{"id":"52653069531","owner":"44034115@N08","secret":"b8998fde22","server":"65535","farm":66,"title":"Brown Creeper Doing Creeper Stuff","ispublic":1,"isfriend":0,"isfamily":0},{"id":"52653032614","owner":"13451078@N03","secret":"4abaf59685","server":"65535","farm":66,"title":"Brown Creeper   ( Certhia americana)","ispublic":1,"isfriend":0,"isfamily":0},{"id":"52645553312","owner":"36013467@N07","secret":"64328d4d30","server":"65535","farm":66,"title":"Brown Creeper (Certhia americana)","ispublic":1,"isfriend":0,"isfamily":0},{"id":"52645783564","owner":"47747738@N00","secret":"2dbe1d9b89","server":"65535","farm":66,"title":"Brown Creeper","ispublic":1,"isfriend":0,"isfamily":0},{"id":"52638256397","owner":"44904157@N04","secret":"eb2207ea25","server":"65535","farm":66,"title":"Brown Creeper","ispublic":1,"isfriend":0,"isfamily":0},{"id":"52629479121","owner":"67164820@N06","secret":"f7e3ec4271","server":"65535","farm":66,"title":"creeper 2","ispublic":1,"isfriend":0,"isfamily":0},{"id":"52610282980","owner":"62043870@N05","secret":"b751db93b2","server":"65535","farm":66,"title":"Brown Creeper, Certhia americana","ispublic":1,"isfriend":0,"isfamily":0},{"id":"52605653479","owner":"69812270@N00","secret":"fac25a4dc7","server":"65535","farm":66,"title":"\"Blue-eyed\" Brown Creeper","ispublic":1,"isfriend":0,"isfamily":0},{"id":"52597063845","owner":"11815777@N07","secret":"e41422dd0b","server":"65535","farm":66,"title":"Did that bark move?","ispublic":1,"isfriend":0,"isfamily":0},{"id":"52595851511","owner":"47747738@N00","secret":"a8fed27964","server":"65535","farm":66,"title":"Brown Creeper- Twin Cities Minnesota","ispublic":1,"isfriend":0,"isfamily":0},{"id":"52581247456","owner":"128537732@N06","secret":"82910ed0c8","server":"65535","farm":66,"title":"Brown Creeper (Certhia americana)","ispublic":1,"isfriend":0,"isfamily":0},{"id":"52579861497","owner":"153973412@N04","secret":"878b904ec7","server":"65535","farm":66,"title":"Brown Creeper-Certhia americana, Hawkeye WMA, IA","ispublic":1,"isfriend":0,"isfamily":0},{"id":"52572207096","owner":"99849996@N00","secret":"68d1625499","server":"65535","farm":66,"title":"Brown Creeper 20210110_3640","ispublic":1,"isfriend":0,"isfamily":0},{"id":"52566354850","owner":"44034115@N08","secret":"382ca3ec86","server":"65535","farm":66,"title":"Come for the Eagles, Stay for the Tree Creepers","ispublic":1,"isfriend":0,"isfamily":0},{"id":"52555453541","owner":"24737541@N03","secret":"07644a425d","server":"65535","farm":66,"title":"Brown Creeper Certhia americana","ispublic":1,"isfriend":0,"isfamily":0},{"id":"52553870190","owner":"127392162@N03","secret":"f5be3432ac","server":"65535","farm":66,"title":"Brown Creeper","ispublic":1,"isfriend":0,"isfamily":0},{"id":"52550365587","owner":"24359172@N02","secret":"a1e3a2c617","server":"65535","farm":66,"title":"Brown Creeper Creeping up a Brown Tree","ispublic":1,"isfriend":0,"isfamily":0},{"id":"52519728226","owner":"39897599@N07","secret":"de1c19a998","server":"65535","farm":66,"title":"Brown Creeper  267A0405","ispublic":1,"isfriend":0,"isfamily":0},{"id":"52520204720","owner":"39897599@N07","secret":"3a772e1e00","server":"65535","farm":66,"title":"Brown Creeper  267A0407","ispublic":1,"isfriend":0,"isfamily":0},{"id":"52519254592","owner":"39897599@N07","secret":"0d1ded6d0d","server":"65535","farm":66,"title":"Brown Creeper  267A0408","ispublic":1,"isfriend":0,"isfamily":0},{"id":"52511073538","owner":"144648055@N05","secret":"d1a8564ec1","server":"65535","farm":66,"title":"Not Creepy","ispublic":1,"isfriend":0,"isfamily":0},{"id":"52500540207","owner":"62043870@N05","secret":"e84ff6f07b","server":"65535","farm":66,"title":"Brown Creeper, Certhia americana","ispublic":1,"isfriend":0,"isfamily":0},{"id":"52485273889","owner":"132584522@N08","secret":"9032af7eea","server":"65535","farm":66,"title":"DSC_3920 pan","ispublic":1,"isfriend":0,"isfamily":0},{"id":"52480256540","owner":"71418112@N00","secret":"e10d14d523","server":"65535","farm":66,"title":"Brown creeper.","ispublic":1,"isfriend":0,"isfamily":0},{"id":"52471720281","owner":"120449047@N06","secret":"1fa63dd35f","server":"65535","farm":66,"title":"Brown Creeper","ispublic":1,"isfriend":0,"isfamily":0},{"id":"52454768909","owner":"51928691@N04","secret":"d039ce2334","server":"65535","farm":66,"title":"Brown Creeper (Certhia americana) 1 093022","ispublic":1,"isfriend":0,"isfamily":0},{"id":"52454768854","owner":"51928691@N04","secret":"67a565936b","server":"65535","farm":66,"title":"Brown Creeper (Certhia americana) 2 093022","ispublic":1,"isfriend":0,"isfamily":0},{"id":"52445654987","owner":"196264892@N08","secret":"e4c7777577","server":"65535","farm":66,"title":"Brown Creeper","ispublic":1,"isfriend":0,"isfamily":0},{"id":"52445654882","owner":"196264892@N08","secret":"134218c177","server":"65535","farm":66,"title":"Brown Creeper","ispublic":1,"isfriend":0,"isfamily":0},{"id":"52445334006","owner":"69812270@N00","secret":"88802332d3","server":"65535","farm":66,"title":"Brown Creeper, SLR","ispublic":1,"isfriend":0,"isfamily":0},{"id":"52439114423","owner":"59014103@N07","secret":"596d6f3623","server":"65535","farm":66,"title":"Brown Creeper","ispublic":1,"isfriend":0,"isfamily":0},{"id":"52438865659","owner":"59014103@N07","secret":"08e6ac52fc","server":"65535","farm":66,"title":"Brown Creeper","ispublic":1,"isfriend":0,"isfamily":0},{"id":"52436845701","owner":"99849996@N00","secret":"2f076be022","server":"65535","farm":66,"title":"Brown Creeper 20211031_2810","ispublic":1,"isfriend":0,"isfamily":0},{"id":"52426374113","owner":"14572247@N07","secret":"bb5b38d56d","server":"65535","farm":66,"title":"Brown Creeper (Certhia americana)","ispublic":1,"isfriend":0,"isfamily":0},{"id":"52425827651","owner":"145466593@N08","secret":"b8d3e4c3fe","server":"65535","farm":66,"title":"Brown Creeper","ispublic":1,"isfriend":0,"isfamily":0},{"id":"52418773645","owner":"39177293@N03","secret":"989b1e4981","server":"65535","farm":66,"title":"Brown Creeper","ispublic":1,"isfriend":0,"isfamily":0},{"id":"52413956943","owner":"18378985@N08","secret":"0a81977155","server":"65535","farm":66,"title":"Brown Creeper","ispublic":1,"isfriend":0,"isfamily":0},{"id":"52405896191","owner":"120449047@N06","secret":"8f9368c92f","server":"65535","farm":66,"title":"Brown Creeper","ispublic":1,"isfriend":0,"isfamily":0},{"id":"52404854247","owner":"188156748@N07","secret":"f1ef3791c7","server":"65535","farm":66,"title":"Brown Creeper - Grimpereau Brun  - Certhia americana 9360 (1)-SharpenAI-Standard copy.jpgS","ispublic":1,"isfriend":0,"isfamily":0},{"id":"52405357926","owner":"188156748@N07","secret":"86d67a783a","server":"65535","farm":66,"title":"Brown Creeper - Grimpereau Brun - Certhia americana 9360 (2)-SharpenAI-Standard copy.jpgS","ispublic":1,"isfriend":0,"isfamily":0},{"id":"52405797470","owner":"188156748@N07","secret":"f4dd71b68f","server":"65535","farm":66,"title":"Brown Creeper - Grimpereau Brun -  Certhia americana 9360 (3)-SharpenAI-Standard copy.jpgS","ispublic":1,"isfriend":0,"isfamily":0},{"id":"52426409238","owner":"195656112@N04","secret":"b34d4701b0","server":"65535","farm":66,"title":"Brown Creeper","ispublic":1,"isfriend":0,"isfamily":0},{"id":"52393926031","owner":"62043870@N05","secret":"4203b71a8f","server":"65535","farm":66,"title":"Brown Creeper, Certhia americana","ispublic":1,"isfriend":0,"isfamily":0},{"id":"52388361377","owner":"187792860@N04","secret":"0fc2781d32","server":"65535","farm":66,"title":"Brown Creeper (Certhia americana)","ispublic":1,"isfriend":0,"isfamily":0},{"id":"52366279378","owner":"187792860@N04","secret":"21a950a9bf","server":"65535","farm":66,"title":"Brown Creeper (Certhia americana)","ispublic":1,"isfriend":0,"isfamily":0},{"id":"52342574010","owner":"140318147@N08","secret":"19bb28ab50","server":"65535","farm":66,"title":"brown creeper (Certhia americana) L4A0738","ispublic":1,"isfriend":0,"isfamily":0},{"id":"52328204109","owner":"39445433@N02","secret":"c61a44805b","server":"65535","farm":66,"title":"Brown Creeper","ispublic":1,"isfriend":0,"isfamily":0},{"id":"52327906426","owner":"39445433@N02","secret":"a25b264dfd","server":"65535","farm":66,"title":"Brown Creeper","ispublic":1,"isfriend":0,"isfamily":0},{"id":"52318050415","owner":"196264892@N08","secret":"ca68f0178f","server":"65535","farm":66,"title":"Brown Creeper","ispublic":1,"isfriend":0,"isfamily":0},{"id":"52312989021","owner":"196264892@N08","secret":"9214a04353","server":"65535","farm":66,"title":"Brown Creeper","ispublic":1,"isfriend":0,"isfamily":0},{"id":"52313300878","owner":"196264892@N08","secret":"ccb17a431d","server":"65535","farm":66,"title":"Brown Creeper","ispublic":1,"isfriend":0,"isfamily":0},{"id":"52309764499","owner":"146696747@N03","secret":"5d0ddb60f3","server":"65535","farm":66,"title":"Brown Creeper","ispublic":1,"isfriend":0,"isfamily":0},{"id":"52291787272","owner":"68635735@N02","secret":"2f8bed6a0a","server":"65535","farm":66,"title":"Brown Creeper (Certhia americana)","ispublic":1,"isfriend":0,"isfamily":0},{"id":"52293252430","owner":"68635735@N02","secret":"fe8f7aff1b","server":"65535","farm":66,"title":"Brown Creeper (Certhia americana)","ispublic":1,"isfriend":0,"isfamily":0},{"id":"52291513420","owner":"40006638@N06","secret":"0c591a6b32","server":"65535","farm":66,"title":"Brown Creeper - 094A6256a4c","ispublic":1,"isfriend":0,"isfamily":0},{"id":"52288341398","owner":"196264892@N08","secret":"b237d34ea7","server":"65535","farm":66,"title":"Brown Creeper Az","ispublic":1,"isfriend":0,"isfamily":0},{"id":"52280709043","owner":"39617069@N08","secret":"6842bb5e70","server":"65535","farm":66,"title":"Brown Creeper","ispublic":1,"isfriend":0,"isfamily":0},{"id":"52265634753","owner":"196264892@N08","secret":"74ed545739","server":"65535","farm":66,"title":"Brown Creeper","ispublic":1,"isfriend":0,"isfamily":0},{"id":"52244143541","owner":"62043870@N05","secret":"38314634c0","server":"65535","farm":66,"title":"Brown Creeper, Certhia americana","ispublic":1,"isfriend":0,"isfamily":0},{"id":"52235898597","owner":"67306066@N03","secret":"337078f019","server":"65535","farm":66,"title":"Brown Creeper (Certhia americana)","ispublic":1,"isfriend":0,"isfamily":0},{"id":"52237159174","owner":"67306066@N03","secret":"ce384dedd0","server":"65535","farm":66,"title":"Brown Creeper (Certhia americana)","ispublic":1,"isfriend":0,"isfamily":0},{"id":"52220068489","owner":"34238008@N02","secret":"4678499aaf","server":"65535","farm":66,"title":"Brown Creeper (Certhia americana)","ispublic":1,"isfriend":0,"isfamily":0},{"id":"52219812133","owner":"34238008@N02","secret":"1805064591","server":"65535","farm":66,"title":"Brown Creeper (Certhia americana)","ispublic":1,"isfriend":0,"isfamily":0},{"id":"52218625514","owner":"80648919@N08","secret":"ebfcf7ed5d","server":"65535","farm":66,"title":"Brown Creeper","ispublic":1,"isfriend":0,"isfamily":0},{"id":"52205314248","owner":"144648055@N05","secret":"5996c6d9d8","server":"65535","farm":66,"title":"Hang On Tight!","ispublic":1,"isfriend":0,"isfamily":0},{"id":"52198400562","owner":"62043870@N05","secret":"9b6c7a939a","server":"65535","farm":66,"title":"Brown Creeper, Certhia americana","ispublic":1,"isfriend":0,"isfamily":0},{"id":"52185653454","owner":"51928691@N04","secret":"7b627ef9f5","server":"65535","farm":66,"title":"Brown Creeper (Certhis americana) 3 062322","ispublic":1,"isfriend":0,"isfamily":0},{"id":"52185652539","owner":"51928691@N04","secret":"eabb663dbf","server":"65535","farm":66,"title":"Brown Creeper (Certhis americana) 5 062322","ispublic":1,"isfriend":0,"isfamily":0},{"id":"52169470637","owner":"39445433@N02","secret":"2418233844","server":"65535","farm":66,"title":"Brown Creeper","ispublic":1,"isfriend":0,"isfamily":0},{"id":"52166407733","owner":"39445433@N02","secret":"279f72c9fb","server":"65535","farm":66,"title":"Brown Creeper","ispublic":1,"isfriend":0,"isfamily":0},{"id":"52161540101","owner":"39445433@N02","secret":"1747835bf4","server":"65535","farm":66,"title":"Brown Creeper","ispublic":1,"isfriend":0,"isfamily":0},{"id":"52160516322","owner":"39445433@N02","secret":"9f18562723","server":"65535","farm":66,"title":"Brown Creeper","ispublic":1,"isfriend":0,"isfamily":0},{"id":"52151506201","owner":"28499865@N07","secret":"bdae50cff9","server":"65535","farm":66,"title":"Brown Creeper - Certhia americana","ispublic":1,"isfriend":0,"isfamily":0},{"id":"52151506191","owner":"28499865@N07","secret":"fbb804418d","server":"65535","farm":66,"title":"Brown Creeper - Certhia americana","ispublic":1,"isfriend":0,"isfamily":0},{"id":"52645528376","owner":"47747738@N00","secret":"16568158d1","server":"65535","farm":66,"title":"Brown Creeper","ispublic":1,"isfriend":0,"isfamily":0},{"id":"52438865464","owner":"59014103@N07","secret":"2551b30ba6","server":"65535","farm":66,"title":"Brown Creeper","ispublic":1,"isfriend":0,"isfamily":0},{"id":"52236890373","owner":"67306066@N03","secret":"fc7ce74469","server":"65535","farm":66,"title":"Brown Creeper (Certhia americana)","ispublic":1,"isfriend":0,"isfamily":0},{"id":"52220068394","owner":"34238008@N02","secret":"c2b6c580fc","server":"65535","farm":66,"title":"Brown Creeper (Certhia americana)","ispublic":1,"isfriend":0,"isfamily":0},{"id":"52190830453","owner":"140318147@N08","secret":"b3e5229d85","server":"65535","farm":66,"title":"brown creeper (Certhia americana) L4A4265","ispublic":1,"isfriend":0,"isfamily":0}]},"stat":"ok"}