{"photos":{"page":1,"pages":24,"perpage":100,"total":2321,"photo":[{"id":"52710392451","owner":"41813367@N02","secret":"a07d64f575","server":"65535","farm":66,"title":"Min lilla stora k\u00e4rlek!","ispublic":1,"isfriend":0,"isfamily":0},{"id":"52705492241","owner":"95482238@N02","secret":"0f47cf0654","server":"65535","farm":66,"title":"budgerigar (Melopsittacus undulatus),  at Farina Station, Lyndhurst, South Australia","ispublic":1,"isfriend":0,"isfamily":0},{"id":"52705491131","owner":"95482238@N02","secret":"c458fe4a01","server":"65535","farm":66,"title":"budgerigar (Melopsittacus undulatus),  at Farina Station, Lyndhurst, South Australia","ispublic":1,"isfriend":0,"isfamily":0},{"id":"52705980783","owner":"95482238@N02","secret":"4f4a9708a7","server":"65535","farm":66,"title":"budgerigar (Melopsittacus undulatus),  at Farina Station, Lyndhurst, South Australia","ispublic":1,"isfriend":0,"isfamily":0},{"id":"52705490541","owner":"95482238@N02","secret":"e1ac5cccf3","server":"65535","farm":66,"title":"budgerigar (Melopsittacus undulatus),  at Farina Station, Lyndhurst, South Australia","ispublic":1,"isfriend":0,"isfamily":0},{"id":"52701535984","owner":"95482238@N02","secret":"8014549d61","server":"65535","farm":66,"title":"budgerigar (Melopsittacus undulatus), on Muloorina station, South Australia","ispublic":1,"isfriend":0,"isfamily":0},{"id":"52701692095","owner":"95482238@N02","secret":"d8d8228193","server":"65535","farm":66,"title":"budgerigar (Melopsittacus undulatus), on Muloorina station, South Australia","ispublic":1,"isfriend":0,"isfamily":0},{"id":"52701691445","owner":"95482238@N02","secret":"1e0ba2008e","server":"65535","farm":66,"title":"budgerigar (Melopsittacus undulatus), on Muloorina station, South Australia","ispublic":1,"isfriend":0,"isfamily":0},{"id":"52700751842","owner":"95482238@N02","secret":"cb097c2453","server":"65535","farm":66,"title":"budgerigar (Melopsittacus undulatus), on Muloorina station, South Australia","ispublic":1,"isfriend":0,"isfamily":0},{"id":"52693153826","owner":"95482238@N02","secret":"f47e405220","server":"65535","farm":66,"title":"budgerigar - along the road between Mungeranie and Warburton River, Outback NE South Australia","ispublic":1,"isfriend":0,"isfamily":0},{"id":"52679080574","owner":"181821699@N02","secret":"571ea38205","server":"65535","farm":66,"title":"Visiting Budgie V","ispublic":1,"isfriend":0,"isfamily":0},{"id":"52678795781","owner":"181821699@N02","secret":"8a6b6a41c4","server":"65535","farm":66,"title":"Visiting Budgie IV","ispublic":1,"isfriend":0,"isfamily":0},{"id":"52679228910","owner":"181821699@N02","secret":"3abf145cef","server":"65535","farm":66,"title":"Visiting Budgie III","ispublic":1,"isfriend":0,"isfamily":0},{"id":"52679225500","owner":"181821699@N02","secret":"c7981dced4","server":"65535","farm":66,"title":"Visiting Budgie II","ispublic":1,"isfriend":0,"isfamily":0},{"id":"52679286663","owner":"181821699@N02","secret":"20587675b9","server":"65535","farm":66,"title":"Visiting Budgie I","ispublic":1,"isfriend":0,"isfamily":0},{"id":"52676424810","owner":"95482238@N02","secret":"96387d1bdf","server":"65535","farm":66,"title":"budgerigar (Melopsittacus undulatus), at Lark Quarry Conservation Park, Queensland, Australia","ispublic":1,"isfriend":0,"isfamily":0},{"id":"52669585060","owner":"129269872@N04","secret":"403aeca8bb","server":"65535","farm":66,"title":"Wellensittich","ispublic":1,"isfriend":0,"isfamily":0},{"id":"52634081922","owner":"29007475@N08","secret":"29e23a1cbb","server":"65535","farm":66,"title":"\"A memento of the war year 1915, 30th of August\"","ispublic":1,"isfriend":0,"isfamily":0},{"id":"52625089922","owner":"189211701@N02","secret":"d472fd5b12","server":"65535","farm":66,"title":"Budgerigars (Melopsittacus undulatus)","ispublic":1,"isfriend":0,"isfamily":0},{"id":"52600673196","owner":"197236559@N06","secret":"0c459a1aa9","server":"65535","farm":66,"title":"White Budgy","ispublic":1,"isfriend":0,"isfamily":0},{"id":"52574263104","owner":"186835200@N04","secret":"93accdf500","server":"65535","farm":66,"title":"Parakeet, 2022","ispublic":1,"isfriend":0,"isfamily":0},{"id":"52573522522","owner":"186835200@N04","secret":"85c073109e","server":"65535","farm":66,"title":"Parakeet, 2022","ispublic":1,"isfriend":0,"isfamily":0},{"id":"52574518988","owner":"186835200@N04","secret":"2b865f72ee","server":"65535","farm":66,"title":"Take My Picutre!, 2022","ispublic":1,"isfriend":0,"isfamily":0},{"id":"52573989391","owner":"186835200@N04","secret":"b9631364dd","server":"65535","farm":66,"title":"Budgerigar, 2022","ispublic":1,"isfriend":0,"isfamily":0},{"id":"52574262399","owner":"186835200@N04","secret":"d818738fe3","server":"65535","farm":66,"title":"Budgerigars, 2022","ispublic":1,"isfriend":0,"isfamily":0},{"id":"52559849696","owner":"182959673@N06","secret":"2b9077f8cb","server":"65535","farm":66,"title":"Budgerigars - Bladensberg National Park, Queensland","ispublic":1,"isfriend":0,"isfamily":0},{"id":"52539400574","owner":"25235699@N02","secret":"b422f81a82","server":"65535","farm":66,"title":"Love birds - A pair of Budgerigars or  Common Parakeets","ispublic":1,"isfriend":0,"isfamily":0},{"id":"52535121904","owner":"33610210@N05","secret":"0ea57fc1df","server":"65535","farm":66,"title":"Budgerigar, Melopsittacus undulatus","ispublic":1,"isfriend":0,"isfamily":0},{"id":"52535381453","owner":"33610210@N05","secret":"e2a28831b7","server":"65535","farm":66,"title":"Budgerigar, Melopsittacus undulatus","ispublic":1,"isfriend":0,"isfamily":0},{"id":"52520736289","owner":"75299599@N00","secret":"44d41bee57","server":"65535","farm":66,"title":"Budgerigar Flock (Melopsittacus undulatus)","ispublic":1,"isfriend":0,"isfamily":0},{"id":"52511677185","owner":"28562920@N02","secret":"fa052b1a6a","server":"65535","farm":66,"title":"Budgerigar family","ispublic":1,"isfriend":0,"isfamily":0},{"id":"52510325958","owner":"127247666@N05","secret":"e0bc601c4b","server":"65535","farm":66,"title":"Lovebird and budgerigar","ispublic":1,"isfriend":0,"isfamily":0},{"id":"52476621600","owner":"75299599@N00","secret":"c5d46dddf2","server":"65535","farm":66,"title":"Budgerigar Flock (Melopsittacus undulatus)","ispublic":1,"isfriend":0,"isfamily":0},{"id":"52463741757","owner":"194860397@N03","secret":"b7c517c24f","server":"65535","farm":66,"title":"Budgerigar","ispublic":1,"isfriend":0,"isfamily":0},{"id":"52461961906","owner":"26822473@N06","secret":"41cd2364dd","server":"65535","farm":66,"title":"Budgerigar (Melopsittacus undulatus)","ispublic":1,"isfriend":0,"isfamily":0},{"id":"52432642685","owner":"12639178@N07","secret":"e7ca30bf47","server":"65535","farm":66,"title":"Entflogener Wellensittich in der Feldflur","ispublic":1,"isfriend":0,"isfamily":0},{"id":"52430613151","owner":"129822827@N07","secret":"9256d4d584","server":"65535","farm":66,"title":"Budgerigar (Melopsittacus undulatus)","ispublic":1,"isfriend":0,"isfamily":0},{"id":"52423859136","owner":"37203410@N07","secret":"49e7ef17a0","server":"65535","farm":66,"title":"Catita Australiana \/ Melopsittacus undulatus","ispublic":1,"isfriend":0,"isfamily":0},{"id":"52424378138","owner":"37203410@N07","secret":"623840e52c","server":"65535","farm":66,"title":"Catita Australiana \/ Melopsittacus undulatus","ispublic":1,"isfriend":0,"isfamily":0},{"id":"52417345843","owner":"39343449@N02","secret":"757be82a4a","server":"65535","farm":66,"title":"Budgerigars at Wandina Station 11\/09\/2022","ispublic":1,"isfriend":0,"isfamily":0},{"id":"52408806638","owner":"23594171@N02","secret":"8a9348ef5c","server":"65535","farm":66,"title":"Periquito Azul Australiano (Melopsittacus undulatus)","ispublic":1,"isfriend":0,"isfamily":0},{"id":"52396380922","owner":"12639178@N07","secret":"ca96e55063","server":"65535","farm":66,"title":"Entflogener Wellensittich","ispublic":1,"isfriend":0,"isfamily":0},{"id":"52392422316","owner":"117755141@N02","secret":"f2a8dbdab6","server":"65535","farm":66,"title":"Budgerigar (Melopsittacus undulatus)","ispublic":1,"isfriend":0,"isfamily":0},{"id":"52388041213","owner":"163602656@N03","secret":"5423ed847b","server":"65535","farm":66,"title":"Schopftaube (Ocyphaps lophotes) und Wellensittich (Melopsittacus undulatus)","ispublic":1,"isfriend":0,"isfamily":0},{"id":"52383494491","owner":"9949080@N06","secret":"3a146621a0","server":"65535","farm":66,"title":"A new visit!","ispublic":1,"isfriend":0,"isfamily":0},{"id":"52369149362","owner":"129269872@N04","secret":"c28e07c089","server":"65535","farm":66,"title":"Wellensittich","ispublic":1,"isfriend":0,"isfamily":0},{"id":"52361683466","owner":"163602656@N03","secret":"dd343412de","server":"65535","farm":66,"title":"Wellensittich (Melopsittacus undulatus)","ispublic":1,"isfriend":0,"isfamily":0},{"id":"52360340307","owner":"193082747@N03","secret":"d959aac5d6","server":"65535","farm":66,"title":"Brown Goshawk (Accipiter fasciatus) hunting Budgerigars (Melopsittacus undulatus)","ispublic":1,"isfriend":0,"isfamily":0},{"id":"52355121384","owner":"12639178@N07","secret":"516fe29985","server":"65535","farm":66,"title":"Wellensitich","ispublic":1,"isfriend":0,"isfamily":0},{"id":"52347525105","owner":"84152923@N08","secret":"eb9a3f4a71","server":"65535","farm":66,"title":"grasparkiet - Melopsittacus undulatus - budgerigar","ispublic":1,"isfriend":0,"isfamily":0},{"id":"52327471663","owner":"50054477@N06","secret":"fe7203eafa","server":"65535","farm":66,"title":"Perruche ondul\u00e9e (Melopsittacus undulatus)","ispublic":1,"isfriend":0,"isfamily":0},{"id":"52326027618","owner":"151677249@N08","secret":"3a37ae1e1c","server":"65535","farm":66,"title":"Budgerigar (Melopsittacus undulatus)","ispublic":1,"isfriend":0,"isfamily":0},{"id":"52323029559","owner":"123597211@N03","secret":"30ec0977ea","server":"65535","farm":66,"title":"Wellensittich (Melopsittacus undulatus)","ispublic":1,"isfriend":0,"isfamily":0},{"id":"52322916678","owner":"123597211@N03","secret":"490eb811de","server":"65535","farm":66,"title":"Wellensittich (Melopsittacus undulatus)","ispublic":1,"isfriend":0,"isfamily":0},{"id":"52317243922","owner":"190122705@N03","secret":"19c9e718ff","server":"65535","farm":66,"title":"Budgerigar","ispublic":1,"isfriend":0,"isfamily":0},{"id":"52305514393","owner":"123597211@N03","secret":"a670af8ba0","server":"65535","farm":66,"title":"Wellensittich (Melopsittacus undulatus)","ispublic":1,"isfriend":0,"isfamily":0},{"id":"52304328292","owner":"123597211@N03","secret":"5c8b7e8dc4","server":"65535","farm":66,"title":"Wellensittich (Melopsittacus undulatus)","ispublic":1,"isfriend":0,"isfamily":0},{"id":"52305560984","owner":"123597211@N03","secret":"8df40e2018","server":"65535","farm":66,"title":"Wellensittich (Melopsittacus undulatus)","ispublic":1,"isfriend":0,"isfamily":0},{"id":"52305512778","owner":"123597211@N03","secret":"1dd28be33b","server":"65535","farm":66,"title":"Wellensittich (Melopsittacus undulatus)","ispublic":1,"isfriend":0,"isfamily":0},{"id":"52305511328","owner":"123597211@N03","secret":"c66cf47927","server":"65535","farm":66,"title":"Wellensittich (Melopsittacus undulatus)","ispublic":1,"isfriend":0,"isfamily":0},{"id":"52284944689","owner":"190014189@N06","secret":"1075606792","server":"65535","farm":66,"title":"Budgerigar \/ Melopsittacus undulatus","ispublic":1,"isfriend":0,"isfamily":0},{"id":"52284734570","owner":"28562920@N02","secret":"4823ec7e59","server":"65535","farm":66,"title":"Budgerigar","ispublic":1,"isfriend":0,"isfamily":0},{"id":"52284149718","owner":"28562920@N02","secret":"2a0596d19d","server":"65535","farm":66,"title":"Budgerigar","ispublic":1,"isfriend":0,"isfamily":0},{"id":"52284285489","owner":"57465751@N05","secret":"4500641a08","server":"65535","farm":66,"title":"Budgerigars (Melopsittacus undulatus), s. of Boulia, QLD, Australia","ispublic":1,"isfriend":0,"isfamily":0},{"id":"52283910376","owner":"57465751@N05","secret":"bbce41b114","server":"65535","farm":66,"title":"Budgerigar (Melopsittacus undulatus) flock , Winton, QLD, Australia","ispublic":1,"isfriend":0,"isfamily":0},{"id":"52257225859","owner":"123597211@N03","secret":"785c1be1d3","server":"65535","farm":66,"title":"Wellensittich (Melopsittacus undulatus)","ispublic":1,"isfriend":0,"isfamily":0},{"id":"52256942636","owner":"123597211@N03","secret":"fd8a2b6f85","server":"65535","farm":66,"title":"Wellensittich (Melopsittacus undulatus)","ispublic":1,"isfriend":0,"isfamily":0},{"id":"52257433550","owner":"123597211@N03","secret":"a6d792da55","server":"65535","farm":66,"title":"Wellensittich (Melopsittacus undulatus)","ispublic":1,"isfriend":0,"isfamily":0},{"id":"52257223664","owner":"123597211@N03","secret":"9d984ef6a4","server":"65535","farm":66,"title":"Wellensittich (Melopsittacus undulatus)","ispublic":1,"isfriend":0,"isfamily":0},{"id":"52256965683","owner":"123597211@N03","secret":"eaa902e9e4","server":"65535","farm":66,"title":"Wellensittich (Melopsittacus undulatus)","ispublic":1,"isfriend":0,"isfamily":0},{"id":"52256940561","owner":"123597211@N03","secret":"bbc6e922aa","server":"65535","farm":66,"title":"Wellensittich (Melopsittacus undulatus)","ispublic":1,"isfriend":0,"isfamily":0},{"id":"52257222144","owner":"123597211@N03","secret":"730976fc4b","server":"65535","farm":66,"title":"Wellensittich (Melopsittacus undulatus)","ispublic":1,"isfriend":0,"isfamily":0},{"id":"52256964073","owner":"123597211@N03","secret":"56c519e69a","server":"65535","farm":66,"title":"Wellensittich (Melopsittacus undulatus)","ispublic":1,"isfriend":0,"isfamily":0},{"id":"52255973707","owner":"123597211@N03","secret":"c825a77ddb","server":"65535","farm":66,"title":"Wellensittich (Melopsittacus undulatus)","ispublic":1,"isfriend":0,"isfamily":0},{"id":"52256962803","owner":"123597211@N03","secret":"dc7cc23d6e","server":"65535","farm":66,"title":"Wellensittich (Melopsittacus undulatus)","ispublic":1,"isfriend":0,"isfamily":0},{"id":"52257429160","owner":"123597211@N03","secret":"1040fe6d33","server":"65535","farm":66,"title":"Wellensittich (Melopsittacus undulatus)","ispublic":1,"isfriend":0,"isfamily":0},{"id":"52256961938","owner":"123597211@N03","secret":"c8e1ee22bb","server":"65535","farm":66,"title":"Wellensittich (Melopsittacus undulatus)","ispublic":1,"isfriend":0,"isfamily":0},{"id":"52257219129","owner":"123597211@N03","secret":"9c9e1f24d3","server":"65535","farm":66,"title":"Wellensittich (Melopsittacus undulatus)","ispublic":1,"isfriend":0,"isfamily":0},{"id":"52256960988","owner":"123597211@N03","secret":"c7ba5390c6","server":"65535","farm":66,"title":"Wellensittich (Melopsittacus undulatus)","ispublic":1,"isfriend":0,"isfamily":0},{"id":"52255970552","owner":"123597211@N03","secret":"92a708013a","server":"65535","farm":66,"title":"Wellensittich (Melopsittacus undulatus)","ispublic":1,"isfriend":0,"isfamily":0},{"id":"52256935386","owner":"123597211@N03","secret":"a9d9b369d0","server":"65535","farm":66,"title":"Wellensittich (Melopsittacus undulatus)","ispublic":1,"isfriend":0,"isfamily":0},{"id":"52256934906","owner":"123597211@N03","secret":"04f299157e","server":"65535","farm":66,"title":"Wellensittich (Melopsittacus undulatus)","ispublic":1,"isfriend":0,"isfamily":0},{"id":"52257216944","owner":"123597211@N03","secret":"24cd20c970","server":"65535","farm":66,"title":"Wellensittich (Melopsittacus undulatus)","ispublic":1,"isfriend":0,"isfamily":0},{"id":"52255968342","owner":"123597211@N03","secret":"63d2256bd0","server":"65535","farm":66,"title":"Wellensittich (Melopsittacus undulatus)","ispublic":1,"isfriend":0,"isfamily":0},{"id":"52257424785","owner":"123597211@N03","secret":"669796c818","server":"65535","farm":66,"title":"Wellensittich (Melopsittacus undulatus)","ispublic":1,"isfriend":0,"isfamily":0},{"id":"52256933001","owner":"123597211@N03","secret":"9514426a11","server":"65535","farm":66,"title":"Wellensittich (Melopsittacus undulatus)","ispublic":1,"isfriend":0,"isfamily":0},{"id":"52257214989","owner":"123597211@N03","secret":"cf98963d97","server":"65535","farm":66,"title":"Wellensittich (Melopsittacus undulatus)","ispublic":1,"isfriend":0,"isfamily":0},{"id":"52256956703","owner":"123597211@N03","secret":"28f7aa142a","server":"65535","farm":66,"title":"Wellensittich (Melopsittacus undulatus)","ispublic":1,"isfriend":0,"isfamily":0},{"id":"52257422935","owner":"123597211@N03","secret":"0b4c924200","server":"65535","farm":66,"title":"Wellensittich (Melopsittacus undulatus)","ispublic":1,"isfriend":0,"isfamily":0},{"id":"52256931001","owner":"123597211@N03","secret":"681eaa04b2","server":"65535","farm":66,"title":"Wellensittich (Melopsittacus undulatus)","ispublic":1,"isfriend":0,"isfamily":0},{"id":"52257213299","owner":"123597211@N03","secret":"2392051e39","server":"65535","farm":66,"title":"Wellensittich (Melopsittacus undulatus)","ispublic":1,"isfriend":0,"isfamily":0},{"id":"52256930041","owner":"123597211@N03","secret":"452d752a7a","server":"65535","farm":66,"title":"Wellensittich (Melopsittacus undulatus)","ispublic":1,"isfriend":0,"isfamily":0},{"id":"52255964337","owner":"123597211@N03","secret":"e26b7325ca","server":"65535","farm":66,"title":"Wellensittich (Melopsittacus undulatus)","ispublic":1,"isfriend":0,"isfamily":0},{"id":"52256929041","owner":"123597211@N03","secret":"f5ed76c7f4","server":"65535","farm":66,"title":"Wellensittich (Melopsittacus undulatus)","ispublic":1,"isfriend":0,"isfamily":0},{"id":"52257211314","owner":"123597211@N03","secret":"74d331d45c","server":"65535","farm":66,"title":"Wellensittich (Melopsittacus undulatus)","ispublic":1,"isfriend":0,"isfamily":0},{"id":"52256927826","owner":"123597211@N03","secret":"f63e8948f8","server":"65535","farm":66,"title":"Wellensittich (Melopsittacus undulatus)","ispublic":1,"isfriend":0,"isfamily":0},{"id":"52257419140","owner":"123597211@N03","secret":"abef5cdfee","server":"65535","farm":66,"title":"Wellensittich (Melopsittacus undulatus)","ispublic":1,"isfriend":0,"isfamily":0},{"id":"52257209184","owner":"123597211@N03","secret":"11e0839e38","server":"65535","farm":66,"title":"Wellensittich (Melopsittacus undulatus)","ispublic":1,"isfriend":0,"isfamily":0},{"id":"52257417785","owner":"123597211@N03","secret":"8a3346af58","server":"65535","farm":66,"title":"Wellensittich (Melopsittacus undulatus)","ispublic":1,"isfriend":0,"isfamily":0},{"id":"52257207814","owner":"123597211@N03","secret":"284d2b70c4","server":"65535","farm":66,"title":"Wellensittich (Melopsittacus undulatus)","ispublic":1,"isfriend":0,"isfamily":0}]},"stat":"ok"}