{"photos":{"page":1,"pages":8,"perpage":100,"total":713,"photo":[{"id":"52645524494","owner":"8013969@N03","secret":"e4486e4507","server":"65535","farm":66,"title":"Calidris subruficollis DFL btr22-3","ispublic":1,"isfriend":0,"isfamily":0},{"id":"52645706210","owner":"8013969@N03","secret":"42fa57974f","server":"65535","farm":66,"title":"Calidris subruficollis DFL btr22-4","ispublic":1,"isfriend":0,"isfamily":0},{"id":"52644758092","owner":"8013969@N03","secret":"c46c816367","server":"65535","farm":66,"title":"Calidris subruficollis DFL btr22-5","ispublic":1,"isfriend":0,"isfamily":0},{"id":"52645266856","owner":"8013969@N03","secret":"14dac1fb02","server":"65535","farm":66,"title":"Calidris subruficollis DFL btr22-6","ispublic":1,"isfriend":0,"isfamily":0},{"id":"52645705240","owner":"8013969@N03","secret":"ef4097729d","server":"65535","farm":66,"title":"Calidris subruficollis DFL btr22-7","ispublic":1,"isfriend":0,"isfamily":0},{"id":"52645522549","owner":"8013969@N03","secret":"7bb3a53dc0","server":"65535","farm":66,"title":"Calidris subruficollis DFL btr22-8","ispublic":1,"isfriend":0,"isfamily":0},{"id":"52645738693","owner":"8013969@N03","secret":"152b9e427c","server":"65535","farm":66,"title":"Calidris subruficollis DFL btr22-9","ispublic":1,"isfriend":0,"isfamily":0},{"id":"52645265571","owner":"8013969@N03","secret":"4dfdb00221","server":"65535","farm":66,"title":"Calidris subruficollis DFL btr22-10","ispublic":1,"isfriend":0,"isfamily":0},{"id":"52645265031","owner":"8013969@N03","secret":"ddb0d2db77","server":"65535","farm":66,"title":"Calidris subruficollis DFL btr22-11","ispublic":1,"isfriend":0,"isfamily":0},{"id":"52645519994","owner":"8013969@N03","secret":"4541118f28","server":"65535","farm":66,"title":"Calidris subruficollis DFL btr22-12","ispublic":1,"isfriend":0,"isfamily":0},{"id":"52645735333","owner":"8013969@N03","secret":"8e2b115e55","server":"65535","farm":66,"title":"Calidris subruficollis DFL btr22-14","ispublic":1,"isfriend":0,"isfamily":0},{"id":"52629050225","owner":"29494346@N03","secret":"a8a0336a38","server":"65535","farm":66,"title":"Buff-breasted Sandpiper (Calidris subruficollis)","ispublic":1,"isfriend":0,"isfamily":0},{"id":"52627735701","owner":"151677249@N08","secret":"0d19238f39","server":"65535","farm":66,"title":"Buff-banded Rail (Calidris subruficollis)","ispublic":1,"isfriend":0,"isfamily":0},{"id":"52609411307","owner":"22594349@N08","secret":"1c84934404","server":"65535","farm":66,"title":"Buff-breasted Sandpiper  (Tryngites subruficollis)","ispublic":1,"isfriend":0,"isfamily":0},{"id":"52583993940","owner":"65632611@N00","secret":"2a2381532f","server":"65535","farm":66,"title":"Mecox: Buff-breasted Sandpiper posing (1059)","ispublic":1,"isfriend":0,"isfamily":0},{"id":"52529277617","owner":"193483104@N04","secret":"490a0ee2b9","server":"65535","farm":66,"title":"Buff-breasted Sandpiper (Calidris subruficollis)","ispublic":1,"isfriend":0,"isfamily":0},{"id":"52471756025","owner":"23020855@N03","secret":"b3271c3712","server":"65535","farm":66,"title":"Buff-breasted Sandpiper - Boundary Bay, BC","ispublic":1,"isfriend":0,"isfamily":0},{"id":"52428107254","owner":"196264892@N08","secret":"4bf99d30fb","server":"65535","farm":66,"title":"Buff-breasted Sandpiper","ispublic":1,"isfriend":0,"isfamily":0},{"id":"52427317222","owner":"196264892@N08","secret":"df0071fb16","server":"65535","farm":66,"title":"Buff-breasted Sandpiper","ispublic":1,"isfriend":0,"isfamily":0},{"id":"52428339318","owner":"196264892@N08","secret":"534cdfee3a","server":"65535","farm":66,"title":"Buff-breasted Sandpiper","ispublic":1,"isfriend":0,"isfamily":0},{"id":"52428106764","owner":"196264892@N08","secret":"da6c248614","server":"65535","farm":66,"title":"Buff-breasted Sandpiper","ispublic":1,"isfriend":0,"isfamily":0},{"id":"52382266542","owner":"132638863@N04","secret":"734399697f","server":"65535","farm":66,"title":"Buff-breasted Sandpiper \/ B\u00e9casseau rouss\u00e2tre","ispublic":1,"isfriend":0,"isfamily":0},{"id":"52369800504","owner":"187560275@N08","secret":"750d28d7a8","server":"65535","farm":66,"title":"b\u00e9casseau rousset -Calidris subruficollis - Buff-breasted Sandpiper","ispublic":1,"isfriend":0,"isfamily":0},{"id":"52368547742","owner":"187560275@N08","secret":"449c0a154c","server":"65535","farm":66,"title":"B\u00e9casseau rousset -Calidris subruficollis - Buff-breasted Sandpiper","ispublic":1,"isfriend":0,"isfamily":0},{"id":"52342112931","owner":"32320154@N05","secret":"237a0e5d50","server":"65535","farm":66,"title":"Buff-breasted Sandpiper","ispublic":1,"isfriend":0,"isfamily":0},{"id":"52341158102","owner":"32320154@N05","secret":"99151ef8c0","server":"65535","farm":66,"title":"Buff-breasted Sandpiper","ispublic":1,"isfriend":0,"isfamily":0},{"id":"52337933341","owner":"63678308@N05","secret":"42378d5337","server":"65535","farm":66,"title":"BBSP-8892-j","ispublic":1,"isfriend":0,"isfamily":0},{"id":"52336257486","owner":"144980256@N07","secret":"57cfb69bf8","server":"65535","farm":66,"title":"Buff-breasted Sandpiper (Calidris subruficollis)","ispublic":1,"isfriend":0,"isfamily":0},{"id":"52329095771","owner":"54100598@N08","secret":"0edaee4787","server":"65535","farm":66,"title":"Buff-breasted Sandpiper (Calidris subruficollis)","ispublic":1,"isfriend":0,"isfamily":0},{"id":"52329398844","owner":"54100598@N08","secret":"eb163ff3e2","server":"65535","farm":66,"title":"Buff-breasted Sandpiper (Calidris subruficollis)","ispublic":1,"isfriend":0,"isfamily":0},{"id":"52329095636","owner":"54100598@N08","secret":"c116f79379","server":"65535","farm":66,"title":"Buff-breasted Sandpiper (Calidris subruficollis)","ispublic":1,"isfriend":0,"isfamily":0},{"id":"52329095606","owner":"54100598@N08","secret":"08c3044c9f","server":"65535","farm":66,"title":"Buff-breasted Sandpiper (Calidris subruficollis)","ispublic":1,"isfriend":0,"isfamily":0},{"id":"52329525320","owner":"54100598@N08","secret":"75294927b8","server":"65535","farm":66,"title":"Buff-breasted Sandpiper (Calidris subruficollis)","ispublic":1,"isfriend":0,"isfamily":0},{"id":"52329525295","owner":"54100598@N08","secret":"36c715d12c","server":"65535","farm":66,"title":"Buff-breasted Sandpiper (Calidris subruficollis)","ispublic":1,"isfriend":0,"isfamily":0},{"id":"52329525250","owner":"54100598@N08","secret":"a83a78a349","server":"65535","farm":66,"title":"Buff-breasted Sandpiper (Calidris subruficollis)","ispublic":1,"isfriend":0,"isfamily":0},{"id":"52329346558","owner":"54100598@N08","secret":"09d3301e0a","server":"65535","farm":66,"title":"Buff-breasted Sandpiper (Calidris subruficollis)","ispublic":1,"isfriend":0,"isfamily":0},{"id":"52329398694","owner":"54100598@N08","secret":"ac0022b7b3","server":"65535","farm":66,"title":"Buff-breasted Sandpiper (Calidris subruficollis)","ispublic":1,"isfriend":0,"isfamily":0},{"id":"52329525135","owner":"54100598@N08","secret":"6f1570f3c7","server":"65535","farm":66,"title":"Buff-breasted Sandpiper (Calidris subruficollis)","ispublic":1,"isfriend":0,"isfamily":0},{"id":"52329525080","owner":"54100598@N08","secret":"f45273748a","server":"65535","farm":66,"title":"Buff-breasted Sandpiper (Calidris subruficollis)","ispublic":1,"isfriend":0,"isfamily":0},{"id":"52329525040","owner":"54100598@N08","secret":"1370a5fa72","server":"65535","farm":66,"title":"Buff-breasted Sandpiper (Calidris subruficollis)","ispublic":1,"isfriend":0,"isfamily":0},{"id":"52329398554","owner":"54100598@N08","secret":"97356323b1","server":"65535","farm":66,"title":"Buff-breasted Sandpiper (Calidris subruficollis)","ispublic":1,"isfriend":0,"isfamily":0},{"id":"52329524980","owner":"54100598@N08","secret":"55ab648afe","server":"65535","farm":66,"title":"Buff-breasted Sandpiper (Calidris subruficollis)","ispublic":1,"isfriend":0,"isfamily":0},{"id":"52328142617","owner":"54100598@N08","secret":"55c3fdc34c","server":"65535","farm":66,"title":"Buff-breasted Sandpiper (Calidris subruficollis)","ispublic":1,"isfriend":0,"isfamily":0},{"id":"52329095156","owner":"54100598@N08","secret":"a51facae3b","server":"65535","farm":66,"title":"Buff-breasted Sandpiper (Calidris subruficollis)","ispublic":1,"isfriend":0,"isfamily":0},{"id":"52329398439","owner":"54100598@N08","secret":"aba200736f","server":"65535","farm":66,"title":"Buff-breasted Sandpiper (Calidris subruficollis)","ispublic":1,"isfriend":0,"isfamily":0},{"id":"52329524860","owner":"54100598@N08","secret":"133bb01b4d","server":"65535","farm":66,"title":"Buff-breasted Sandpiper (Calidris subruficollis)","ispublic":1,"isfriend":0,"isfamily":0},{"id":"52154648524","owner":"195506649@N05","secret":"a21099604e","server":"65535","farm":66,"title":"Calidris subruficollis","ispublic":1,"isfriend":0,"isfamily":0},{"id":"52128308428","owner":"32752434@N07","secret":"856f344ab4","server":"65535","farm":66,"title":"Buff-breasted Sandpiper (Calidris subruficollis)","ispublic":1,"isfriend":0,"isfamily":0},{"id":"52068297989","owner":"191829438@N07","secret":"473069e118","server":"65535","farm":66,"title":"Calidris subruficollis","ispublic":1,"isfriend":0,"isfamily":0},{"id":"51979799789","owner":"62501256@N05","secret":"cfd1f94097","server":"65535","farm":66,"title":"Buff-breasted Sandpiper (Calidris subruficollis)","ispublic":1,"isfriend":0,"isfamily":0},{"id":"51979255438","owner":"62501256@N05","secret":"e28a73fd6f","server":"65535","farm":66,"title":"Buff-breasted Sandpiper (Calidris subruficollis)","ispublic":1,"isfriend":0,"isfamily":0},{"id":"51547923389","owner":"132638863@N04","secret":"f546794f46","server":"65535","farm":66,"title":"Buff-breasted Sandpiper \/ B\u00e9casseau rouss\u00e2tre","ispublic":1,"isfriend":0,"isfamily":0},{"id":"51533101245","owner":"190923251@N05","secret":"1e00dc2a14","server":"65535","farm":66,"title":"Buff-breasted Sandpiper","ispublic":1,"isfriend":0,"isfamily":0},{"id":"51512808613","owner":"63678308@N05","secret":"1ea334c467","server":"65535","farm":66,"title":"BBSP-8741-j","ispublic":1,"isfriend":0,"isfamily":0},{"id":"51502749128","owner":"63678308@N05","secret":"1a95359fba","server":"65535","farm":66,"title":"BBSP-8616-j22","ispublic":1,"isfriend":0,"isfamily":0},{"id":"51490171799","owner":"63678308@N05","secret":"61366be590","server":"65535","farm":66,"title":"BuffBreasted-7984-j","ispublic":1,"isfriend":0,"isfamily":0},{"id":"51488600357","owner":"12639178@N07","secret":"f87698fcc2","server":"65535","farm":66,"title":"Grasl\u00e4ufer (Calidris subruficollis) als Irrgast auf dem Gipfel des Aitana (","ispublic":1,"isfriend":0,"isfamily":0},{"id":"52645524784","owner":"8013969@N03","secret":"060cbe1cd1","server":"65535","farm":66,"title":"Calidris subruficollis DFL btr22-2","ispublic":1,"isfriend":0,"isfamily":0},{"id":"52644758802","owner":"8013969@N03","secret":"be411e9057","server":"65535","farm":66,"title":"Calidris subruficollis DFL btr22-1","ispublic":1,"isfriend":0,"isfamily":0},{"id":"52645519524","owner":"8013969@N03","secret":"e938f37afe","server":"65535","farm":66,"title":"Calidris subruficollis DFL btr22-13","ispublic":1,"isfriend":0,"isfamily":0},{"id":"52583817634","owner":"65632611@N00","secret":"d2a3b11d71","server":"65535","farm":66,"title":"Mecox: Buff-breasted Sandpiper  (1059)","ispublic":1,"isfriend":0,"isfamily":0},{"id":"52583994055","owner":"65632611@N00","secret":"44cce39722","server":"65535","farm":66,"title":"Mecox: Buff-breasted Shorebird ruffling feathers (0806)","ispublic":1,"isfriend":0,"isfamily":0},{"id":"52583994005","owner":"65632611@N00","secret":"bbdb9d842a","server":"65535","farm":66,"title":"Mecox: Buff-breasted Sandpiper Gorging (0879)","ispublic":1,"isfriend":0,"isfamily":0},{"id":"52584072588","owner":"65632611@N00","secret":"6914d69c69","server":"65535","farm":66,"title":"Mecox: Buff-breasted Sandpiper  (0929)","ispublic":1,"isfriend":0,"isfamily":0},{"id":"52580847858","owner":"153973412@N04","secret":"1c147c2894","server":"65535","farm":66,"title":"Buff-breasted Sandpiper-Calidris subruficollis, Iowa City, IA","ispublic":1,"isfriend":0,"isfamily":0},{"id":"52451518785","owner":"151680047@N06","secret":"bf5d253f32","server":"65535","farm":66,"title":"Buff-breasted Sandpiper  (Calidris subruficollis)  Pr\u00e4riel\u00f6pare","ispublic":1,"isfriend":0,"isfamily":0},{"id":"52451342734","owner":"151680047@N06","secret":"c987fca684","server":"65535","farm":66,"title":"Buff-breasted Sandpiper  (Calidris subruficollis)  Pr\u00e4riel\u00f6pare","ispublic":1,"isfriend":0,"isfamily":0},{"id":"52451518715","owner":"151680047@N06","secret":"f0e5b3f8ea","server":"65535","farm":66,"title":"Buff-breasted Sandpiper  (Calidris subruficollis)  Pr\u00e4riel\u00f6pare","ispublic":1,"isfriend":0,"isfamily":0},{"id":"52451069356","owner":"151680047@N06","secret":"6f62d03b16","server":"65535","farm":66,"title":"Buff-breasted Sandpiper  (Calidris subruficollis)  Pr\u00e4riel\u00f6pare","ispublic":1,"isfriend":0,"isfamily":0},{"id":"52451069321","owner":"151680047@N06","secret":"b4d303fdc5","server":"65535","farm":66,"title":"Buff-breasted Sandpiper  (Calidris subruficollis)  Pr\u00e4riel\u00f6pare","ispublic":1,"isfriend":0,"isfamily":0},{"id":"52372651883","owner":"56930596@N02","secret":"35a47d8b56","server":"65535","farm":66,"title":"Territ rogenc (Calidris subruficollis)","ispublic":1,"isfriend":0,"isfamily":0},{"id":"52342112586","owner":"32320154@N05","secret":"359e397fc1","server":"65535","farm":66,"title":"Buff-breasted Sandpiper","ispublic":1,"isfriend":0,"isfamily":0},{"id":"52342414034","owner":"32320154@N05","secret":"e1bbf0ed23","server":"65535","farm":66,"title":"Buff-breasted Sandpiper","ispublic":1,"isfriend":0,"isfamily":0},{"id":"52342356978","owner":"32320154@N05","secret":"b2d20dbe5b","server":"65535","farm":66,"title":"Buff-breasted Sandpiper","ispublic":1,"isfriend":0,"isfamily":0},{"id":"52336558119","owner":"144980256@N07","secret":"716919d52e","server":"65535","farm":66,"title":"Buff-breasted Sandpiper (Calidris subruficollis)","ispublic":1,"isfriend":0,"isfamily":0},{"id":"52336553854","owner":"144980256@N07","secret":"41e2c655fd","server":"65535","farm":66,"title":"Buff-breasted Sandpiper (Calidris subruficollis)","ispublic":1,"isfriend":0,"isfamily":0},{"id":"52332560826","owner":"32320154@N05","secret":"5ee412e6e9","server":"65535","farm":66,"title":"Buff-breasted Sandpiper","ispublic":1,"isfriend":0,"isfamily":0},{"id":"52332560651","owner":"32320154@N05","secret":"b056cb1b9e","server":"65535","farm":66,"title":"Buff-breasted Sandpiper","ispublic":1,"isfriend":0,"isfamily":0},{"id":"52328142997","owner":"54100598@N08","secret":"dc681e42fc","server":"65535","farm":66,"title":"Buff-breasted Sandpiper (Calidris subruficollis)","ispublic":1,"isfriend":0,"isfamily":0},{"id":"52328142982","owner":"54100598@N08","secret":"cdb82da790","server":"65535","farm":66,"title":"Buff-breasted Sandpiper (Calidris subruficollis)","ispublic":1,"isfriend":0,"isfamily":0},{"id":"52329095676","owner":"54100598@N08","secret":"9568063620","server":"65535","farm":66,"title":"Buff-breasted Sandpiper (Calidris subruficollis)","ispublic":1,"isfriend":0,"isfamily":0},{"id":"52329525100","owner":"54100598@N08","secret":"b95b1709ae","server":"65535","farm":66,"title":"Buff-breasted Sandpiper (Calidris subruficollis)","ispublic":1,"isfriend":0,"isfamily":0},{"id":"52329095181","owner":"54100598@N08","secret":"0cd96eb678","server":"65535","farm":66,"title":"Buff-breasted Sandpiper (Calidris subruficollis)","ispublic":1,"isfriend":0,"isfamily":0},{"id":"52328142567","owner":"54100598@N08","secret":"e1a98ca5bd","server":"65535","farm":66,"title":"Buff-breasted Sandpiper (Calidris subruficollis)","ispublic":1,"isfriend":0,"isfamily":0},{"id":"52329398359","owner":"54100598@N08","secret":"71abd2242d","server":"65535","farm":66,"title":"Buff-breasted Sandpiper (Calidris subruficollis)","ispublic":1,"isfriend":0,"isfamily":0},{"id":"52005346868","owner":"187346531@N05","secret":"7a893314ff","server":"65535","farm":66,"title":"ma\u00e7arico-acanelado (Calidris subruficollis)","ispublic":1,"isfriend":0,"isfamily":0},{"id":"51911665192","owner":"187346531@N05","secret":"cb073981f0","server":"65535","farm":66,"title":"ma\u00e7arico-acanelado (Calidris subruficollis)","ispublic":1,"isfriend":0,"isfamily":0},{"id":"51874861859","owner":"187346531@N05","secret":"91fff145a9","server":"65535","farm":66,"title":"ma\u00e7arico-acanelado (Calidris subruficollis)","ispublic":1,"isfriend":0,"isfamily":0},{"id":"51714928189","owner":"67306066@N03","secret":"67900eb527","server":"65535","farm":66,"title":"Buff-breasted Sandpiper (Calidris subruficollis)","ispublic":1,"isfriend":0,"isfamily":0},{"id":"51714530223","owner":"67306066@N03","secret":"0814a6c32c","server":"65535","farm":66,"title":"Buff-breasted Sandpiper (Calidris subruficollis)","ispublic":1,"isfriend":0,"isfamily":0},{"id":"51671070778","owner":"8013969@N03","secret":"3009c2ddea","server":"65535","farm":66,"title":"Calidris subruficollis","ispublic":1,"isfriend":0,"isfamily":0},{"id":"51671512844","owner":"8013969@N03","secret":"196209c3b2","server":"65535","farm":66,"title":"Calidris subruficollis","ispublic":1,"isfriend":0,"isfamily":0},{"id":"51671701920","owner":"8013969@N03","secret":"6c4226be98","server":"65535","farm":66,"title":"Calidris subruficollis and fuscicollis","ispublic":1,"isfriend":0,"isfamily":0},{"id":"51671701790","owner":"8013969@N03","secret":"28665421b2","server":"65535","farm":66,"title":"Calidris subruficollis and fuscicollis","ispublic":1,"isfriend":0,"isfamily":0},{"id":"51671572235","owner":"8013969@N03","secret":"b792680313","server":"65535","farm":66,"title":"Calidris subruficollis","ispublic":1,"isfriend":0,"isfamily":0},{"id":"51671571560","owner":"8013969@N03","secret":"c7dce86428","server":"65535","farm":66,"title":"Calidris subruficollis","ispublic":1,"isfriend":0,"isfamily":0},{"id":"51669896972","owner":"8013969@N03","secret":"5d0607c7ce","server":"65535","farm":66,"title":"Calidris subruficollis","ispublic":1,"isfriend":0,"isfamily":0},{"id":"51666185580","owner":"193617639@N07","secret":"8f60665a85","server":"65535","farm":66,"title":"Ma\u00e7arico-acanelado (Calidris subruficollis)","ispublic":1,"isfriend":0,"isfamily":0},{"id":"51633765437","owner":"56930596@N02","secret":"899ef5df79","server":"65535","farm":66,"title":"Territ rogenc (Calidris subruficollis)","ispublic":1,"isfriend":0,"isfamily":0},{"id":"51408536604","owner":"61241315@N00","secret":"be766c74de","server":"65535","farm":66,"title":"DSCN5279","ispublic":1,"isfriend":0,"isfamily":0}]},"stat":"ok"}