{"photos":{"page":1,"pages":2,"perpage":100,"total":109,"photo":[{"id":"52730896777","owner":"28314792@N05","secret":"7f04646ef9","server":"65535","farm":66,"title":"Passer iagoensis - Moineau \u00e0 dos roux (femelle) -  Iago Sparrow - Pardal-de-cabo-verde - Kapverdensperling - \u00cele de Santo Ant\u00e3o - Cap-Vert","ispublic":1,"isfriend":0,"isfamily":0},{"id":"52725264891","owner":"28314792@N05","secret":"9edc05a622","server":"65535","farm":66,"title":"Passer iagoensis - Moineau \u00e0 dos roux (m\u00e2le & femelle) -  Iago Sparrow - Pardal-de-cabo-verde - Kapverdensperling - \u00cele de Santo Ant\u00e3o - Cap-Vert","ispublic":1,"isfriend":0,"isfamily":0},{"id":"52725742288","owner":"28314792@N05","secret":"4c6435878a","server":"65535","farm":66,"title":"Passer iagoensis - Moineau \u00e0 dos roux (femelle & m\u00e2le) -  Iago Sparrow - Pardal-de-cabo-verde - Kapverdensperling - \u00cele de Santo Ant\u00e3o - Cap-Vert","ispublic":1,"isfriend":0,"isfamily":0},{"id":"51998777342","owner":"140544530@N06","secret":"1c3444c714","server":"65535","farm":66,"title":"Iago Sparrow","ispublic":1,"isfriend":0,"isfamily":0},{"id":"50345597703","owner":"142952595@N08","secret":"c0a9ee11a5","server":"65535","farm":66,"title":"Cape Verde (Iago) male","ispublic":1,"isfriend":0,"isfamily":0},{"id":"49648483728","owner":"12639178@N07","secret":"9a6cf55b37","server":"65535","farm":66,"title":"Kapverdensperling w. Boa Vista 200311","ispublic":1,"isfriend":0,"isfamily":0},{"id":"49649296272","owner":"12639178@N07","secret":"2edbcd409f","server":"65535","farm":66,"title":"Kapverdensperling m. Boa Vista 200311","ispublic":1,"isfriend":0,"isfamily":0},{"id":"49642058672","owner":"12639178@N07","secret":"5d997a5bb8","server":"65535","farm":66,"title":"Kapverdensperling Rabil 200304","ispublic":1,"isfriend":0,"isfamily":0},{"id":"49328040266","owner":"12639178@N07","secret":"16e6a15c36","server":"65535","farm":66,"title":"Kapverdensperling (Passer iagoensis)","ispublic":1,"isfriend":0,"isfamily":0},{"id":"48577217902","owner":"124797436@N02","secret":"4cab787c34","server":"65535","farm":66,"title":"Cabo Verde 03\/2019","ispublic":1,"isfriend":0,"isfamily":0},{"id":"46528190495","owner":"55250729@N04","secret":"465ff48639","server":"7853","farm":8,"title":"Female Iago sparrow (Passer iagoensis)","ispublic":1,"isfriend":0,"isfamily":0},{"id":"46528190265","owner":"55250729@N04","secret":"39a660d566","server":"7899","farm":8,"title":"Male Iago sparrow (Passer iagoensis)","ispublic":1,"isfriend":0,"isfamily":0},{"id":"47039778702","owner":"14513067@N00","secret":"28c4e6738b","server":"7885","farm":8,"title":"Iago Sparrow","ispublic":1,"isfriend":0,"isfamily":0},{"id":"47039778822","owner":"14513067@N00","secret":"2c121554c6","server":"7881","farm":8,"title":"Iago Sparrow","ispublic":1,"isfriend":0,"isfamily":0},{"id":"32150181307","owner":"14513067@N00","secret":"f6a0b28300","server":"7824","farm":8,"title":"Iago Sparrow","ispublic":1,"isfriend":0,"isfamily":0},{"id":"47039778592","owner":"14513067@N00","secret":"107a58d02b","server":"7926","farm":8,"title":"Iago Sparrow","ispublic":1,"isfriend":0,"isfamily":0},{"id":"32150181077","owner":"14513067@N00","secret":"183603a9aa","server":"7876","farm":8,"title":"Iago Sparrow","ispublic":1,"isfriend":0,"isfamily":0},{"id":"32097451437","owner":"12639178@N07","secret":"7d4d30b6a9","server":"7838","farm":8,"title":"Kapverdensperling (Passer iagoensis) (4)","ispublic":1,"isfriend":0,"isfamily":0},{"id":"47039069581","owner":"12639178@N07","secret":"7c31821f5d","server":"7899","farm":8,"title":"Kapverdensperling (Passer iagoensis) (3)","ispublic":1,"isfriend":0,"isfamily":0},{"id":"47039068761","owner":"12639178@N07","secret":"c92f5bddff","server":"7817","farm":8,"title":"Kapverdensperling (Passer iagoensis) (2)","ispublic":1,"isfriend":0,"isfamily":0},{"id":"32097446417","owner":"12639178@N07","secret":"f32bb4e2db","server":"7870","farm":8,"title":"Kapverdensperling","ispublic":1,"isfriend":0,"isfamily":0},{"id":"46294591304","owner":"12639178@N07","secret":"da89b0f4cb","server":"7910","farm":8,"title":"Kapverdensperling (Passer iagoensis) (3)","ispublic":1,"isfriend":0,"isfamily":0},{"id":"32077328567","owner":"12639178@N07","secret":"5a399845a1","server":"7893","farm":8,"title":"Kapverdensperling (Passer iagoensis) (2)","ispublic":1,"isfriend":0,"isfamily":0},{"id":"44077741605","owner":"12639178@N07","secret":"14db592c66","server":"1961","farm":2,"title":"Kap-Verde Sperling, Weibchen, Insel Santiago","ispublic":1,"isfriend":0,"isfamily":0},{"id":"44270083304","owner":"12639178@N07","secret":"ffa574169c","server":"1922","farm":2,"title":"Kap-Verde Sperling, Weibchen, Insel Santiago","ispublic":1,"isfriend":0,"isfamily":0},{"id":"44940514252","owner":"12639178@N07","secret":"62182a3c2b","server":"1934","farm":2,"title":"Kap-Verde Sperling, Weibchen, Insel Santiago","ispublic":1,"isfriend":0,"isfamily":0},{"id":"29978853527","owner":"12639178@N07","secret":"400dd2a77c","server":"1958","farm":2,"title":"Kap-Verde-Sperling, M\u00e4nnchen, Insel Sal\/Kapverden","ispublic":1,"isfriend":0,"isfamily":0},{"id":"44002863495","owner":"12639178@N07","secret":"ca7dea9cb7","server":"1948","farm":2,"title":"Kap-Verde-Sperling, M\u00e4nnchen, Insel Sal\/Kapverden","ispublic":1,"isfriend":0,"isfamily":0},{"id":"44187369244","owner":"12639178@N07","secret":"5ac4084845","server":"1935","farm":2,"title":"Kap-Verde-Sperlinge, 2 Weibchen und 2 M\u00e4nnchen, Insel Sal\/Kapverden","ispublic":1,"isfriend":0,"isfamily":0},{"id":"44906670351","owner":"12639178@N07","secret":"85fa80b6dd","server":"1928","farm":2,"title":"Kap-Verde-Sperling, M\u00e4nnchen, Insel Sal\/Kapverden","ispublic":1,"isfriend":0,"isfamily":0},{"id":"44856663702","owner":"12639178@N07","secret":"0b5ef7de1d","server":"1974","farm":2,"title":"Kap-Verde-Sperling, M\u00e4nnchen, Insel Sal\/Kapverden","ispublic":1,"isfriend":0,"isfamily":0},{"id":"44887049681","owner":"12639178@N07","secret":"757ed9791e","server":"1936","farm":2,"title":"Kap-Verde-Sperling, M\u00e4nnchen mit bettelndem Jungvogel","ispublic":1,"isfriend":0,"isfamily":0},{"id":"44887046431","owner":"12639178@N07","secret":"cc5553e21c","server":"1911","farm":2,"title":"Kap-Verde-Sperling, M\u00e4nnchen mit bettelndem Jungvogel","ispublic":1,"isfriend":0,"isfamily":0},{"id":"44836143472","owner":"12639178@N07","secret":"88719f29ff","server":"1911","farm":2,"title":"Kap-Verde-Sperling, M\u00e4nnchen mit bettelndem Jungvogel","ispublic":1,"isfriend":0,"isfamily":0},{"id":"43951730565","owner":"12639178@N07","secret":"87fef1ac9f","server":"1929","farm":2,"title":"Kap-Verde-Sperling, Links Weibchen, rechts Jungvogel, Santo Antao","ispublic":1,"isfriend":0,"isfamily":0},{"id":"43050844670","owner":"12639178@N07","secret":"2772be1a45","server":"1851","farm":2,"title":"Kap-Verde-Sperling, M\u00e4nnchen, Sao Vicente","ispublic":1,"isfriend":0,"isfamily":0},{"id":"44861807291","owner":"12639178@N07","secret":"528aeb7952","server":"1946","farm":2,"title":"Kap-Verde-Sperling, Weibchen f\u00fcttert Jungvogel, Sao Vicente","ispublic":1,"isfriend":0,"isfamily":0},{"id":"44861804641","owner":"12639178@N07","secret":"b948404a01","server":"1858","farm":2,"title":"Kap-Verde-Sperling M\u00e4nnchen, Sao Vicente","ispublic":1,"isfriend":0,"isfamily":0},{"id":"42670653004","owner":"32805478@N03","secret":"a7159ac66f","server":"1787","farm":2,"title":"Gorri\u00f3n de Cabo Verde, Cape Verde Sparrow (Passer iagoensis)","ispublic":1,"isfriend":0,"isfamily":0},{"id":"42483041145","owner":"32805478@N03","secret":"8045a741cf","server":"1802","farm":2,"title":"Gorri\u00f3n de Cabo Verde, Cape Verde Sparrow (Passer iagoensis)","ispublic":1,"isfriend":0,"isfamily":0},{"id":"42483040595","owner":"32805478@N03","secret":"cb594a9d82","server":"1807","farm":2,"title":"Gorri\u00f3n de Cabo Verde, Cape Verde Sparrow (Passer iagoensis)","ispublic":1,"isfriend":0,"isfamily":0},{"id":"43339331072","owner":"32805478@N03","secret":"2d2b1f87db","server":"927","farm":1,"title":"Gorri\u00f3n de Cabo Verde, Cape Verde Sparrow (Passer iagoensis)","ispublic":1,"isfriend":0,"isfamily":0},{"id":"42653937311","owner":"12639178@N07","secret":"393b5e5334","server":"1731","farm":2,"title":"Kap-Verde-Sperling [Passer iagoensis], Weibchen","ispublic":1,"isfriend":0,"isfamily":0},{"id":"42653928361","owner":"12639178@N07","secret":"64271b02bf","server":"1734","farm":2,"title":"Kap-Verde-Sperling [Passer iagoensis], M\u00e4nnchen","ispublic":1,"isfriend":0,"isfamily":0},{"id":"27395929188","owner":"56966335@N02","secret":"22aba13bab","server":"886","farm":1,"title":"Passer iagoensis","ispublic":1,"isfriend":0,"isfamily":0},{"id":"27395929398","owner":"56966335@N02","secret":"7da0c03ffc","server":"791","farm":1,"title":"Passer iagoensis","ispublic":1,"isfriend":0,"isfamily":0},{"id":"41269011681","owner":"56966335@N02","secret":"d81fb788c8","server":"803","farm":1,"title":"Passer iagoensis","ispublic":1,"isfriend":0,"isfamily":0},{"id":"39165708552","owner":"142952595@N08","secret":"9063d5c24c","server":"4726","farm":5,"title":"Cape Verde (Iago) Sparrow imm. male","ispublic":1,"isfriend":0,"isfamily":0},{"id":"34725256694","owner":"132387940@N05","secret":"36c942ea0f","server":"4214","farm":5,"title":"Passer iagoensis (female)","ispublic":1,"isfriend":0,"isfamily":0},{"id":"34357667460","owner":"75908460@N02","secret":"227f3aba29","server":"4167","farm":5,"title":"Yago Sparow","ispublic":1,"isfriend":0,"isfamily":0},{"id":"33538195346","owner":"70521654@N00","secret":"99c5ea7bdc","server":"2806","farm":3,"title":"Headless Sparrow","ispublic":1,"isfriend":0,"isfamily":0},{"id":"17022146591","owner":"79985280@N06","secret":"57c6851e40","server":"7639","farm":8,"title":"Kap Verde sparv, Iago Sparrow, Passer iagoensis","ispublic":1,"isfriend":0,"isfamily":0},{"id":"16821580292","owner":"9970276@N03","secret":"902802e2fd","server":"7641","farm":8,"title":"Pardal de Cap Verd (Passer iagoensis)","ispublic":1,"isfriend":0,"isfamily":0},{"id":"16748148126","owner":"69435459@N04","secret":"0af877ed33","server":"7644","farm":8,"title":"Greater Hoopoe Lark (Alaemon alaudipes) - Povoa\u00e7\u00e3o Velha, Boa Vista, Cape Verde","ispublic":1,"isfriend":0,"isfamily":0},{"id":"15333045084","owner":"21933687@N07","secret":"9c0f8a325b","server":"7491","farm":8,"title":"Iago sparrow (Passer iagoensis)","ispublic":1,"isfriend":0,"isfamily":0},{"id":"15955306455","owner":"21933687@N07","secret":"e3d86a4f78","server":"7541","farm":8,"title":"Iago sparrow (Passer iagoensis)","ispublic":1,"isfriend":0,"isfamily":0},{"id":"15769587557","owner":"21933687@N07","secret":"8d79e80e0a","server":"8657","farm":9,"title":"Iago sparrow (Passer iagoensis)","ispublic":1,"isfriend":0,"isfamily":0},{"id":"11872613955","owner":"92761863@N03","secret":"7e757ddea3","server":"5494","farm":6,"title":"Cabo Verde 24.12-31.12.2013 Canon 245","ispublic":1,"isfriend":0,"isfamily":0},{"id":"8551865430","owner":"12639178@N07","secret":"57b92ac858","server":"8376","farm":9,"title":"Kap-Verde-Sperling 0,1 (Passer iagoensis) - Salinen bei  Santa Maria, Sal, NGID1454988503","ispublic":1,"isfriend":0,"isfamily":0},{"id":"8550759847","owner":"12639178@N07","secret":"792591f635","server":"8523","farm":9,"title":"Kap-Verde-Sperling 1,0 (Passer iagoensis) - Salinen bei  Santa Maria, Sal, NGIDn1669300180","ispublic":1,"isfriend":0,"isfamily":0},{"id":"8528105120","owner":"12639178@N07","secret":"c522bcb3cc","server":"8099","farm":9,"title":"Kapverdensperlinge (Passer iagoensis) - Hotel Crioula, Sal, Kapverden, NGIDn882985818","ispublic":1,"isfriend":0,"isfamily":0},{"id":"8527978382","owner":"12639178@N07","secret":"186c9e05a3","server":"8516","farm":9,"title":"Kapverdensperling 1,0 (Passer iagoensis) - Buracona, Sal, Kapverden, NGIDn2028561693","ispublic":1,"isfriend":0,"isfamily":0},{"id":"8429525253","owner":"61021753@N02","secret":"6c8cdd31b8","server":"8373","farm":9,"title":"n227_w1150","ispublic":1,"isfriend":0,"isfamily":0},{"id":"7293090710","owner":"79476926@N05","secret":"5b1c801491","server":"7219","farm":8,"title":"Passeridae 3","ispublic":1,"isfriend":0,"isfamily":0},{"id":"6823988058","owner":"76971187@N03","secret":"2786338929","server":"7053","farm":8,"title":"iago sparrow","ispublic":1,"isfriend":0,"isfamily":0},{"id":"6970098887","owner":"76971187@N03","secret":"59351d3d94","server":"7065","farm":8,"title":"iago sparrow","ispublic":1,"isfriend":0,"isfamily":0},{"id":"6736365087","owner":"40316996@N04","secret":"66cd7de456","server":"7027","farm":8,"title":"Moineau du Cap-Vert juv\u00e9nile","ispublic":1,"isfriend":0,"isfamily":0},{"id":"6736363353","owner":"40316996@N04","secret":"8bab9530c2","server":"7157","farm":8,"title":"Juvenile Iago sparrow","ispublic":1,"isfriend":0,"isfamily":0},{"id":"6736362023","owner":"40316996@N04","secret":"6472c56432","server":"7158","farm":8,"title":"Juvenile Iago sparrow","ispublic":1,"isfriend":0,"isfamily":0},{"id":"6517664097","owner":"40316996@N04","secret":"ba360161d0","server":"7170","farm":8,"title":"Moineau du Cap-Vert m\u00e2le","ispublic":1,"isfriend":0,"isfamily":0},{"id":"6448293929","owner":"40316996@N04","secret":"477a798b9a","server":"7010","farm":8,"title":"Moineau du Cap-Vert femelle","ispublic":1,"isfriend":0,"isfamily":0},{"id":"6448291869","owner":"40316996@N04","secret":"87d8799eb8","server":"7002","farm":8,"title":"Female iago sparrow","ispublic":1,"isfriend":0,"isfamily":0},{"id":"6448287845","owner":"40316996@N04","secret":"75ea4c2b4f","server":"7151","farm":8,"title":"Moineau du Cap-Vert m\u00e2le","ispublic":1,"isfriend":0,"isfamily":0},{"id":"5229711650","owner":"43436905@N04","secret":"a041393d76","server":"5010","farm":6,"title":"Iago sparrow (Passer iagoensis)","ispublic":1,"isfriend":0,"isfamily":0},{"id":"4410912382","owner":"8724323@N06","secret":"e17a28b3ab","server":"4051","farm":5,"title":"Cape Verd islands \/ Ilhas de Cabo Verde....Former Portuguese Colony","ispublic":1,"isfriend":0,"isfamily":0},{"id":"51998776907","owner":"140544530@N06","secret":"bcd1a0a40b","server":"65535","farm":66,"title":"Iago Sparrow","ispublic":1,"isfriend":0,"isfamily":0},{"id":"50349361307","owner":"142952595@N08","secret":"cba80f485f","server":"65535","farm":66,"title":"Cape Verde (Iago) Sparrow male","ispublic":1,"isfriend":0,"isfamily":0},{"id":"50345597858","owner":"142952595@N08","secret":"564b1fa443","server":"65535","farm":66,"title":"Cape Verde (Iago) Sparrow fem.\/imm.","ispublic":1,"isfriend":0,"isfamily":0},{"id":"50345591397","owner":"142952595@N08","secret":"98363de9e0","server":"65535","farm":66,"title":"Cape Verde Sparrow 'Invasion'","ispublic":1,"isfriend":0,"isfamily":0},{"id":"32150181637","owner":"14513067@N00","secret":"ca387f5836","server":"7851","farm":8,"title":"Iago Sparrow","ispublic":1,"isfriend":0,"isfamily":0},{"id":"32150181267","owner":"14513067@N00","secret":"475ec6bea0","server":"7907","farm":8,"title":"Iago Sparrow","ispublic":1,"isfriend":0,"isfamily":0},{"id":"32150181427","owner":"14513067@N00","secret":"cf9ddbd518","server":"7860","farm":8,"title":"Iago Sparrow","ispublic":1,"isfriend":0,"isfamily":0},{"id":"40054116173","owner":"12639178@N07","secret":"bf0ca3dfb8","server":"4829","farm":5,"title":"Kapverdensperling (Passer iagoensis) (4)","ispublic":1,"isfriend":0,"isfamily":0},{"id":"46966816192","owner":"12639178@N07","secret":"957e1d23a3","server":"7889","farm":8,"title":"Kapverdensperling","ispublic":1,"isfriend":0,"isfamily":0},{"id":"29970753647","owner":"12639178@N07","secret":"9cb88fddb0","server":"1976","farm":2,"title":"Kap-Verde-Sperling, M\u00e4nnchen, Insel Sal\/Kapverden","ispublic":1,"isfriend":0,"isfamily":0},{"id":"43050804240","owner":"12639178@N07","secret":"cdae2934c0","server":"1932","farm":2,"title":"Kap-Verde-Sperling, links Jungvogel, rechts Weibchen, Sao Vicente","ispublic":1,"isfriend":0,"isfamily":0},{"id":"42399884175","owner":"32805478@N03","secret":"7a9ff56895","server":"920","farm":1,"title":"Gorri\u00f3n de Cabo Verde, Cape Verde Sparrow (Passer iagoensis)","ispublic":1,"isfriend":0,"isfamily":0},{"id":"42653934681","owner":"12639178@N07","secret":"743a0aa209","server":"1738","farm":2,"title":"Kap-Verde-Sperling [Passer iagoensis], M\u00e4nnchen","ispublic":1,"isfriend":0,"isfamily":0},{"id":"35398323132","owner":"132387940@N05","secret":"be662d2fda","server":"4256","farm":5,"title":"Passer iagoensis","ispublic":1,"isfriend":0,"isfamily":0},{"id":"34725258874","owner":"132387940@N05","secret":"956d8977e0","server":"4253","farm":5,"title":"Passer iagoensis (male)","ispublic":1,"isfriend":0,"isfamily":0},{"id":"34458920622","owner":"132387940@N05","secret":"d845837593","server":"4190","farm":5,"title":"Passer iagoensis","ispublic":1,"isfriend":0,"isfamily":0},{"id":"16402873753","owner":"79985280@N06","secret":"aa941f1e3d","server":"7631","farm":8,"title":"Kap Verde sparv, Iago Sparrow, Passer iagoensis","ispublic":1,"isfriend":0,"isfamily":0},{"id":"16586341950","owner":"69435459@N04","secret":"2e1739584b","server":"7609","farm":8,"title":"Iago Sparrow (Passer iagoensis) - Sal Rai, Boa Vista, Cape Verde.","ispublic":1,"isfriend":0,"isfamily":0},{"id":"15876119610","owner":"72757517@N02","secret":"92c247fbc0","server":"7528","farm":8,"title":"Iago Sparrow - Passer iagoensis","ispublic":1,"isfriend":0,"isfamily":0},{"id":"15769587717","owner":"21933687@N07","secret":"215d9ab0b3","server":"7512","farm":8,"title":"Iago sparrow (Passer iagoensis)","ispublic":1,"isfriend":0,"isfamily":0},{"id":"15769587477","owner":"21933687@N07","secret":"1498a336a5","server":"7515","farm":8,"title":"Iago sparrow (Passer iagoensis)","ispublic":1,"isfriend":0,"isfamily":0},{"id":"8550759253","owner":"12639178@N07","secret":"95768606d1","server":"8518","farm":9,"title":"Kap-Verde-Sperling 1,0 (Passer iagoensis) - Salinen bei  Santa Maria, Sal, NGIDn1669300180","ispublic":1,"isfriend":0,"isfamily":0},{"id":"6988556533","owner":"38417285@N04","secret":"fba84fcb01","server":"7039","farm":8,"title":"A-0401-Pardal-de-cabo-verde","ispublic":1,"isfriend":0,"isfamily":0},{"id":"6448295505","owner":"40316996@N04","secret":"3b38e78019","server":"7021","farm":8,"title":"Moineau du Cap-Vert femelle","ispublic":1,"isfriend":0,"isfamily":0},{"id":"6448289533","owner":"40316996@N04","secret":"66aa967011","server":"7142","farm":8,"title":"Moineau du Cap-Vert femelle","ispublic":1,"isfriend":0,"isfamily":0}]},"stat":"ok"}