{"photos":{"page":1,"pages":30,"perpage":100,"total":2902,"photo":[{"id":"52713212189","owner":"124995824@N08","secret":"466b7f1057","server":"65535","farm":66,"title":"Carolina Chickadee - Poecile carolinensis","ispublic":1,"isfriend":0,"isfamily":0},{"id":"52711822484","owner":"33610210@N05","secret":"91863ee853","server":"65535","farm":66,"title":"Carolina Chickadee, Poecile carolinensis","ispublic":1,"isfriend":0,"isfamily":0},{"id":"52705871344","owner":"33610210@N05","secret":"3655d8e4ae","server":"65535","farm":66,"title":"Carolina Chickadee, Poecile carolinensis","ispublic":1,"isfriend":0,"isfamily":0},{"id":"52697822308","owner":"10260434@N03","secret":"d2ed93ab39","server":"65535","farm":66,"title":"Carolina Chickadee-2Jan23","ispublic":1,"isfriend":0,"isfamily":0},{"id":"52697326461","owner":"10260434@N03","secret":"7ba666b9a5","server":"65535","farm":66,"title":"Carolina Chickadee-2Jan23","ispublic":1,"isfriend":0,"isfamily":0},{"id":"52697717423","owner":"10260434@N03","secret":"ed41b6b933","server":"65535","farm":66,"title":"Carolina Chickadee-27Dec22","ispublic":1,"isfriend":0,"isfamily":0},{"id":"52696702824","owner":"10260434@N03","secret":"1967cc3468","server":"65535","farm":66,"title":"Carolina Chickadee-24Dec22","ispublic":1,"isfriend":0,"isfamily":0},{"id":"52694959292","owner":"10260434@N03","secret":"bb74bd16b9","server":"65535","farm":66,"title":"C_Chickadee-19Dec22","ispublic":1,"isfriend":0,"isfamily":0},{"id":"52693909498","owner":"57126723@N07","secret":"962719f0da","server":"65535","farm":66,"title":"Poecile carolinensis\u2014Carolina chickadee\u2014Paridae\u2014Dutch Gap-8837-Edit","ispublic":1,"isfriend":0,"isfamily":0},{"id":"52688620072","owner":"81058247@N08","secret":"66cd2095bc","server":"65535","farm":66,"title":"Carolina Chickadee (Poecile carolinensis)","ispublic":1,"isfriend":0,"isfamily":0},{"id":"52689633388","owner":"81058247@N08","secret":"4941829f22","server":"65535","farm":66,"title":"Carolina Chickadee (Poecile carolinensis)","ispublic":1,"isfriend":0,"isfamily":0},{"id":"52682211936","owner":"81058247@N08","secret":"c198524e14","server":"65535","farm":66,"title":"Carolina Chickadee (Poecile carolinensis)","ispublic":1,"isfriend":0,"isfamily":0},{"id":"52682707628","owner":"81058247@N08","secret":"c79751bdc5","server":"65535","farm":66,"title":"Carolina Chickadee (Poecile carolinensis)","ispublic":1,"isfriend":0,"isfamily":0},{"id":"52681691752","owner":"81058247@N08","secret":"0ee7eea4a1","server":"65535","farm":66,"title":"Carolina Chickadee (Poecile carolinensis)","ispublic":1,"isfriend":0,"isfamily":0},{"id":"52675980870","owner":"50554329@N04","secret":"235b0108a6","server":"65535","farm":66,"title":"Carolina Chickadee","ispublic":1,"isfriend":0,"isfamily":0},{"id":"52666210242","owner":"57356301@N06","secret":"19674f1dbe","server":"65535","farm":66,"title":"Carolina Chickadee,  Poecile carolinensis","ispublic":1,"isfriend":0,"isfamily":0},{"id":"52649496271","owner":"81058247@N08","secret":"62b05c5592","server":"65535","farm":66,"title":"Carolina Chickadee (Poecile carolinensis)","ispublic":1,"isfriend":0,"isfamily":0},{"id":"52648266861","owner":"69002026@N02","secret":"c3609ecb7e","server":"65535","farm":66,"title":"Carolina Chickadee (Poecile carolinensis)","ispublic":1,"isfriend":0,"isfamily":0},{"id":"52648534314","owner":"69002026@N02","secret":"cc48fdb003","server":"65535","farm":66,"title":"Carolina Chickadee (Poecile carolinensis)","ispublic":1,"isfriend":0,"isfamily":0},{"id":"52646706509","owner":"124995824@N08","secret":"886ca01159","server":"65535","farm":66,"title":"Carolina Chickadee - Poecile carolinensis","ispublic":1,"isfriend":0,"isfamily":0},{"id":"52643462528","owner":"69002026@N02","secret":"982b54f276","server":"65535","farm":66,"title":"Carolina Chickadee (Poecile carolinensis)","ispublic":1,"isfriend":0,"isfamily":0},{"id":"52640100179","owner":"10260434@N03","secret":"e4741ccb1d","server":"65535","farm":66,"title":"Carolina Chickadee-28Nov22","ispublic":1,"isfriend":0,"isfamily":0},{"id":"52640056539","owner":"10260434@N03","secret":"6d5f78c905","server":"65535","farm":66,"title":"Carolina Chickadee-28Nov22","ispublic":1,"isfriend":0,"isfamily":0},{"id":"52633056674","owner":"93273765@N05","secret":"94cd89f92a","server":"65535","farm":66,"title":"Carolina Chickadee (Poecile carolinensis)","ispublic":1,"isfriend":0,"isfamily":0},{"id":"52614725260","owner":"182515684@N02","secret":"cc1b44ac5a","server":"65535","farm":66,"title":"New Feeder \u2026 OM0508-303","ispublic":1,"isfriend":0,"isfamily":0},{"id":"52608498839","owner":"36013467@N07","secret":"87e15f410f","server":"65535","farm":66,"title":"Carolina Chickadee (Poecile carolinensis)","ispublic":1,"isfriend":0,"isfamily":0},{"id":"52603037668","owner":"100108154@N02","secret":"ac069e2389","server":"65535","farm":66,"title":"Chickadee Going After A Seed","ispublic":1,"isfriend":0,"isfamily":0},{"id":"52599728117","owner":"88932760@N08","secret":"c950d5b4ed","server":"65535","farm":66,"title":"Cautious Chickadee","ispublic":1,"isfriend":0,"isfamily":0},{"id":"52595918998","owner":"120449047@N06","secret":"eb13cd805e","server":"65535","farm":66,"title":"Carolina Chickadee","ispublic":1,"isfriend":0,"isfamily":0},{"id":"52591803692","owner":"8605287@N03","secret":"7b1e3b55d4","server":"65535","farm":66,"title":"Paridae: Poecile carolinensis - Carolina Chickadee","ispublic":1,"isfriend":0,"isfamily":0},{"id":"52557887717","owner":"120449047@N06","secret":"6e0de4e464","server":"65535","farm":66,"title":"Carolina Chickadee","ispublic":1,"isfriend":0,"isfamily":0},{"id":"52544066762","owner":"93273765@N05","secret":"919d1bd320","server":"65535","farm":66,"title":"Carolina Chickadee (Poecile carolinensis)","ispublic":1,"isfriend":0,"isfamily":0},{"id":"52539678443","owner":"10260434@N03","secret":"69a5100cf9","server":"65535","farm":66,"title":"Carolina Chickadee-11_Oct22","ispublic":1,"isfriend":0,"isfamily":0},{"id":"52539313974","owner":"10260434@N03","secret":"f6a8bece40","server":"65535","farm":66,"title":"Carolina Chickadee + seed-15_Oct22","ispublic":1,"isfriend":0,"isfamily":0},{"id":"52534701691","owner":"68948578@N00","secret":"99389b3ecf","server":"65535","farm":66,"title":"Carolina Chickadee","ispublic":1,"isfriend":0,"isfamily":0},{"id":"52527512786","owner":"88932760@N08","secret":"3207ef5ec7","server":"65535","farm":66,"title":"Sprightly Chickadee","ispublic":1,"isfriend":0,"isfamily":0},{"id":"52519422511","owner":"15086926@N08","secret":"d221d81852","server":"65535","farm":66,"title":"It's All a Matter of Perspective...","ispublic":1,"isfriend":0,"isfamily":0},{"id":"52492003871","owner":"120449047@N06","secret":"0586775552","server":"65535","farm":66,"title":"Carolina Chickadee","ispublic":1,"isfriend":0,"isfamily":0},{"id":"52483828662","owner":"88932760@N08","secret":"f9b6b677cd","server":"65535","farm":66,"title":"Curious Chickadee","ispublic":1,"isfriend":0,"isfamily":0},{"id":"52470950035","owner":"97485958@N02","secret":"56995c9b20","server":"65535","farm":66,"title":"Carolina Chickadee (Poecile carolinensis)","ispublic":1,"isfriend":0,"isfamily":0},{"id":"52470949525","owner":"97485958@N02","secret":"7955f59c4d","server":"65535","farm":66,"title":"Carolina Chickadee (Poecile carolinensis)","ispublic":1,"isfriend":0,"isfamily":0},{"id":"52469989292","owner":"97485958@N02","secret":"940318f1bc","server":"65535","farm":66,"title":"Carolina Chickadee (Poecile carolinensis)","ispublic":1,"isfriend":0,"isfamily":0},{"id":"52470486966","owner":"97485958@N02","secret":"1655ec1678","server":"65535","farm":66,"title":"Carolina Chickadee (Poecile carolinensis)","ispublic":1,"isfriend":0,"isfamily":0},{"id":"52461926635","owner":"91620959@N08","secret":"2e7f6fc6ce","server":"65535","farm":66,"title":"Carolina chickadee (Poecile carolinensis)","ispublic":1,"isfriend":0,"isfamily":0},{"id":"52383037013","owner":"49114357@N08","secret":"efe4e0fdb4","server":"65535","farm":66,"title":"Carolina Chickadee","ispublic":1,"isfriend":0,"isfamily":0},{"id":"52427540373","owner":"121644485@N06","secret":"606be28fbe","server":"65535","farm":66,"title":"tiny but mighty","ispublic":1,"isfriend":0,"isfamily":0},{"id":"52418524602","owner":"46367607@N06","secret":"acaab6b298","server":"65535","farm":66,"title":"Carolina chickadee--Poecile carolinensis _D6A0040","ispublic":1,"isfriend":0,"isfamily":0},{"id":"52317975841","owner":"49114357@N08","secret":"8433cabf19","server":"65535","farm":66,"title":"Carolina Chickadee","ispublic":1,"isfriend":0,"isfamily":0},{"id":"52362552778","owner":"79422714@N05","secret":"a8bb8c301c","server":"65535","farm":66,"title":"Carolina Chickadee )Poecile carolinensis)","ispublic":1,"isfriend":0,"isfamily":0},{"id":"52353400915","owner":"88932760@N08","secret":"11b63ab38b","server":"65535","farm":66,"title":"Curious Chickadee","ispublic":1,"isfriend":0,"isfamily":0},{"id":"52346621104","owner":"38514062@N03","secret":"5825d420df","server":"65535","farm":66,"title":"Carolina Chickadee (Poecile carolinensis)","ispublic":1,"isfriend":0,"isfamily":0},{"id":"52344630963","owner":"145650218@N03","secret":"7ebc7bce81","server":"65535","farm":66,"title":"Carolina chickadee (Poecile carolinensis)","ispublic":1,"isfriend":0,"isfamily":0},{"id":"52302191815","owner":"88932760@N08","secret":"ec2185021e","server":"65535","farm":66,"title":"Chickadee in the Moss","ispublic":1,"isfriend":0,"isfamily":0},{"id":"52299622735","owner":"13451078@N03","secret":"76390858d9","server":"65535","farm":66,"title":"Carolina Chickadee (Poecile carolinensis)","ispublic":1,"isfriend":0,"isfamily":0},{"id":"52292496380","owner":"88932760@N08","secret":"22f0809e34","server":"65535","farm":66,"title":"Cute Chickadee","ispublic":1,"isfriend":0,"isfamily":0},{"id":"52288630540","owner":"88932760@N08","secret":"fb79919912","server":"65535","farm":66,"title":"What Did You Say?","ispublic":1,"isfriend":0,"isfamily":0},{"id":"52276698594","owner":"22163926@N05","secret":"0b08584fa0","server":"65535","farm":66,"title":"Peace is Every Step","ispublic":1,"isfriend":0,"isfamily":0},{"id":"52261014695","owner":"88932760@N08","secret":"58b73a56f2","server":"65535","farm":66,"title":"Furious Forager","ispublic":1,"isfriend":0,"isfamily":0},{"id":"52203731812","owner":"47020313@N08","secret":"798463f9a7","server":"65535","farm":66,"title":"Carolina Chickadee_MG_7630 edtsg","ispublic":1,"isfriend":0,"isfamily":0},{"id":"52170191057","owner":"8065544@N08","secret":"798e45d232","server":"65535","farm":66,"title":"Carolina Chickadee (Poecile carolinensis)","ispublic":1,"isfriend":0,"isfamily":0},{"id":"52169209342","owner":"10260434@N03","secret":"bbdbe372ba","server":"65535","farm":66,"title":"Carolina Chickadee-27Mar22","ispublic":1,"isfriend":0,"isfamily":0},{"id":"52169196479","owner":"10260434@N03","secret":"2c0f5afa5a","server":"65535","farm":66,"title":"Carolina Chickadee-14Mar22","ispublic":1,"isfriend":0,"isfamily":0},{"id":"52141872304","owner":"38514062@N03","secret":"3375b16fdc","server":"65535","farm":66,"title":"Carolina Chickadee (Poecile carolinensis)","ispublic":1,"isfriend":0,"isfamily":0},{"id":"52130269692","owner":"45340210@N05","secret":"53a144448e","server":"65535","farm":66,"title":"My Little Chickadee 6_1_22","ispublic":1,"isfriend":0,"isfamily":0},{"id":"52100920292","owner":"67121146@N00","secret":"c41dea6382","server":"65535","farm":66,"title":"Carolina Chickadee","ispublic":1,"isfriend":0,"isfamily":0},{"id":"52102191654","owner":"67121146@N00","secret":"39482c18b3","server":"65535","farm":66,"title":"Carolina Chickadee","ispublic":1,"isfriend":0,"isfamily":0},{"id":"52057275630","owner":"71649471@N02","secret":"879032fa85","server":"65535","farm":66,"title":"Feed Me!","ispublic":1,"isfriend":0,"isfamily":0},{"id":"52056627763","owner":"32665930@N04","secret":"e657d1c558","server":"65535","farm":66,"title":"Carolina Chickadee","ispublic":1,"isfriend":0,"isfamily":0},{"id":"52049611183","owner":"14552479@N00","secret":"4e254e91a4","server":"65535","farm":66,"title":"Poecile carolinensis, Carolina chickadee,","ispublic":1,"isfriend":0,"isfamily":0},{"id":"52032419836","owner":"36267333@N05","secret":"fda919113c","server":"65535","farm":66,"title":"Carolina chickadee (Poecile carolinensis)","ispublic":1,"isfriend":0,"isfamily":0},{"id":"52023859536","owner":"138125336@N04","secret":"91a1bf3598","server":"65535","farm":66,"title":"Carolina Chickadee","ispublic":1,"isfriend":0,"isfamily":0},{"id":"52012070039","owner":"128810613@N02","secret":"2c10d726da","server":"65535","farm":66,"title":"Carolina Chickadee - Poecile carolinensis","ispublic":1,"isfriend":0,"isfamily":0},{"id":"52004472967","owner":"33610210@N05","secret":"217def367a","server":"65535","farm":66,"title":"Carolina Chickadee, Poecile carolinensis","ispublic":1,"isfriend":0,"isfamily":0},{"id":"51996608415","owner":"93273765@N05","secret":"ec0bbff637","server":"65535","farm":66,"title":"Black-capped Chickadee (Poecile atricapillus)","ispublic":1,"isfriend":0,"isfamily":0},{"id":"51995517021","owner":"146625998@N05","secret":"30306244ab","server":"65535","farm":66,"title":"Chipping Sparrow","ispublic":1,"isfriend":0,"isfamily":0},{"id":"52712877129","owner":"81058247@N08","secret":"a61168f14c","server":"65535","farm":66,"title":"Carolina Chickadee (Poecile carolinensis)","ispublic":1,"isfriend":0,"isfamily":0},{"id":"52713029625","owner":"81058247@N08","secret":"4e8efe793b","server":"65535","farm":66,"title":"Carolina Chickadee (Poecile carolinensis)","ispublic":1,"isfriend":0,"isfamily":0},{"id":"52667049492","owner":"33610210@N05","secret":"a7cc26d692","server":"65535","farm":66,"title":"Carolina Chickadee, Poecile carolinensis","ispublic":1,"isfriend":0,"isfamily":0},{"id":"52640005491","owner":"10260434@N03","secret":"23c85828b9","server":"65535","farm":66,"title":"Carolina Chickadee-12Dec22","ispublic":1,"isfriend":0,"isfamily":0},{"id":"52639953841","owner":"10260434@N03","secret":"2969366bb8","server":"65535","farm":66,"title":"Carolina Chickadee-6Dec22","ispublic":1,"isfriend":0,"isfamily":0},{"id":"52592654934","owner":"151381692@N04","secret":"469fb74776","server":"65535","farm":66,"title":"Carolina Chickadee (Poecile carolinensis)","ispublic":1,"isfriend":0,"isfamily":0},{"id":"52582656674","owner":"33610210@N05","secret":"2c8fcf16b4","server":"65535","farm":66,"title":"Carolina Chickadee, Poecile carolinensis","ispublic":1,"isfriend":0,"isfamily":0},{"id":"52580322311","owner":"153973412@N04","secret":"2f5a7fee9a","server":"65535","farm":66,"title":"Carolina chickadee -Poecile carolinensis, TX","ispublic":1,"isfriend":0,"isfamily":0},{"id":"52538668057","owner":"10260434@N03","secret":"56cf30508f","server":"65535","farm":66,"title":"Carolina Chickadee-11_Oct22","ispublic":1,"isfriend":0,"isfamily":0},{"id":"52539659708","owner":"10260434@N03","secret":"f8ec27ed05","server":"65535","farm":66,"title":"Carolina Chickadee + seed-15_Oct22","ispublic":1,"isfriend":0,"isfamily":0},{"id":"52539576593","owner":"10260434@N03","secret":"e9f78381f0","server":"65535","farm":66,"title":"Carolina Chickadee-15_Oct22","ispublic":1,"isfriend":0,"isfamily":0},{"id":"52538394867","owner":"10260434@N03","secret":"b8861298a9","server":"65535","farm":66,"title":"Carolina Chickadee-5Nov22","ispublic":1,"isfriend":0,"isfamily":0},{"id":"52529703474","owner":"194196140@N08","secret":"a8eee1829e","server":"65535","farm":66,"title":"Carolina Chickadee (Poecile carolinensis)","ispublic":1,"isfriend":0,"isfamily":0},{"id":"52419316219","owner":"46367607@N06","secret":"d1f1325c3e","server":"65535","farm":66,"title":"Carolina chickadee--Poecile carolinensis _D6A0041","ispublic":1,"isfriend":0,"isfamily":0},{"id":"52267239982","owner":"183132100@N02","secret":"28b972cd0b","server":"65535","farm":66,"title":"Carolina Chickadee 8-6-2022","ispublic":1,"isfriend":0,"isfamily":0},{"id":"52172082717","owner":"10260434@N03","secret":"5df34a13c1","server":"65535","farm":66,"title":"Carolina Chickadee-10Apr22","ispublic":1,"isfriend":0,"isfamily":0},{"id":"52171169104","owner":"10260434@N03","secret":"cf9c4ec605","server":"65535","farm":66,"title":"C_Chickadee-04Apr22","ispublic":1,"isfriend":0,"isfamily":0},{"id":"52170511583","owner":"10260434@N03","secret":"897193f991","server":"65535","farm":66,"title":"Carolina Chickadee-29Mar22","ispublic":1,"isfriend":0,"isfamily":0},{"id":"52170428568","owner":"10260434@N03","secret":"69254b9722","server":"65535","farm":66,"title":"Carolina Chickadee-29Mar22","ispublic":1,"isfriend":0,"isfamily":0},{"id":"52113844758","owner":"145650218@N03","secret":"82b7c7f66f","server":"65535","farm":66,"title":"Carolina chickadee (Poecile carolinensis)","ispublic":1,"isfriend":0,"isfamily":0},{"id":"52092546675","owner":"46367607@N06","secret":"f4eb0046ae","server":"65535","farm":66,"title":"Carolina chickadee--Poecile carolinensis _D6A3226","ispublic":1,"isfriend":0,"isfamily":0},{"id":"52092041818","owner":"46367607@N06","secret":"9b9312d297","server":"65535","farm":66,"title":"Carolina chickadee--Poecile carolinensis _D6A3216","ispublic":1,"isfriend":0,"isfamily":0},{"id":"52092267629","owner":"46367607@N06","secret":"466d6c8f66","server":"65535","farm":66,"title":"Carolina chickadee--Poecile carolinensis _D6A3218","ispublic":1,"isfriend":0,"isfamily":0},{"id":"52034574566","owner":"40941741@N03","secret":"6c0f227b1d","server":"65535","farm":66,"title":"Carolina Chickadee","ispublic":1,"isfriend":0,"isfamily":0},{"id":"52005748589","owner":"33610210@N05","secret":"6ee6692905","server":"65535","farm":66,"title":"Carolina Chickadee, Poecile carolinensis","ispublic":1,"isfriend":0,"isfamily":0}]},"stat":"ok"}