{"photos":{"page":1,"pages":114,"perpage":100,"total":11306,"photo":[{"id":"52721980756","owner":"25899079@N08","secret":"3d1b144ffa","server":"65535","farm":66,"title":"Cedar Waxwing (9280)","ispublic":1,"isfriend":0,"isfamily":0},{"id":"52718987323","owner":"65148649@N04","secret":"cd789ed191","server":"0","farm":0,"title":"Waxwing Feeding Frenzy Video 02.18.23 Frye","ispublic":1,"isfriend":0,"isfamily":0},{"id":"52718495536","owner":"65148649@N04","secret":"56dfc922a8","server":"65535","farm":66,"title":"Waxwing Feeding Frenzy 2 02.18.23 Frye","ispublic":1,"isfriend":0,"isfamily":0},{"id":"52718988253","owner":"65148649@N04","secret":"ba4d61a2ea","server":"65535","farm":66,"title":"Waxwing Feeding Frenzy 02.18.23 Frye","ispublic":1,"isfriend":0,"isfamily":0},{"id":"52718988043","owner":"65148649@N04","secret":"b6f6049403","server":"65535","farm":66,"title":"Cedar Waxwing 4 02.18.23 Frye","ispublic":1,"isfriend":0,"isfamily":0},{"id":"52718923930","owner":"65148649@N04","secret":"58c2dd109b","server":"65535","farm":66,"title":"Cedar Waxwing 5 02.18.23 Frye","ispublic":1,"isfriend":0,"isfamily":0},{"id":"52718923900","owner":"65148649@N04","secret":"54bf69beb1","server":"65535","farm":66,"title":"Cedar Waxwing 3 02.18.23 Frye","ispublic":1,"isfriend":0,"isfamily":0},{"id":"52718495281","owner":"65148649@N04","secret":"1178108efc","server":"65535","farm":66,"title":"Cedar Waxwing 2 02.18.23 Frye","ispublic":1,"isfriend":0,"isfamily":0},{"id":"52717976932","owner":"65148649@N04","secret":"af9f04fc14","server":"65535","farm":66,"title":"Cedar Waxwing 2 02.18.23 Zaun","ispublic":1,"isfriend":0,"isfamily":0},{"id":"52717976862","owner":"65148649@N04","secret":"e28a70d05c","server":"65535","farm":66,"title":"Cedar Waxwing 02.18.23 Zaun","ispublic":1,"isfriend":0,"isfamily":0},{"id":"52718987908","owner":"65148649@N04","secret":"d64f78ec5b","server":"65535","farm":66,"title":"Cedar Waxwing 02.18.23 Frye","ispublic":1,"isfriend":0,"isfamily":0},{"id":"52718495226","owner":"65148649@N04","secret":"1d6f79fd65","server":"65535","farm":66,"title":"Cedar Waxwing 02.18.23 Hale","ispublic":1,"isfriend":0,"isfamily":0},{"id":"52718494936","owner":"65148649@N04","secret":"292003030c","server":"65535","farm":66,"title":"Bohemian Waxwing and Cedar Waxwing 02.18.23 Frye","ispublic":1,"isfriend":0,"isfamily":0},{"id":"52718494346","owner":"65148649@N04","secret":"bf776f263d","server":"65535","farm":66,"title":"Cedar Waxwing and American Robin 02.18.23 Anderson","ispublic":1,"isfriend":0,"isfamily":0},{"id":"52718762169","owner":"65148649@N04","secret":"153d569c58","server":"65535","farm":66,"title":"Cedar Waxwing 02.18.23 Anderson","ispublic":1,"isfriend":0,"isfamily":0},{"id":"52718494311","owner":"65148649@N04","secret":"2cff5aba89","server":"65535","farm":66,"title":"Cedar Waxwing 02.18.23 Osborn","ispublic":1,"isfriend":0,"isfamily":0},{"id":"52714724116","owner":"24608578@N00","secret":"47df1f6fe6","server":"65535","farm":66,"title":"Cedar waxwing (Bombycilla cedrorum)","ispublic":1,"isfriend":0,"isfamily":0},{"id":"52708081533","owner":"73179441@N02","secret":"71e48f169d","server":"65535","farm":66,"title":"The Raid","ispublic":1,"isfriend":0,"isfamily":0},{"id":"52707705629","owner":"57126723@N07","secret":"6bab6af972","server":"65535","farm":66,"title":"Cedar waxwings\u2014Bombycilla cedrorum\u2014Bombycyllidae-9077-Edit","ispublic":1,"isfriend":0,"isfamily":0},{"id":"52706184491","owner":"38514062@N03","secret":"efa74f3d6f","server":"65535","farm":66,"title":"Cedar Waxwing (Bombycilla cedrorum)","ispublic":1,"isfriend":0,"isfamily":0},{"id":"52702929307","owner":"84169650@N07","secret":"2e36dddd6d","server":"65535","farm":66,"title":"Cedar Waxwing","ispublic":1,"isfriend":0,"isfamily":0},{"id":"52703325571","owner":"61135968@N00","secret":"1c1e9eed00","server":"65535","farm":66,"title":"Waxwing","ispublic":1,"isfriend":0,"isfamily":0},{"id":"52698450278","owner":"88978913@N08","secret":"725b63d472","server":"65535","farm":66,"title":"Cedar Waxwing, Bombycilla cedrorum","ispublic":1,"isfriend":0,"isfamily":0},{"id":"52695469954","owner":"85391626@N07","secret":"ca25369025","server":"65535","farm":66,"title":"Cedar Waxwing and Crabapples","ispublic":1,"isfriend":0,"isfamily":0},{"id":"52691885340","owner":"38513698@N07","secret":"7c7113ee77","server":"65535","farm":66,"title":"Have a Drink","ispublic":1,"isfriend":0,"isfamily":0},{"id":"52686483236","owner":"34238008@N02","secret":"c3bea55937","server":"65535","farm":66,"title":"Cedar Waxwing (Bombycilla cedrorum)","ispublic":1,"isfriend":0,"isfamily":0},{"id":"52686979288","owner":"34238008@N02","secret":"a9eb421dda","server":"65535","farm":66,"title":"Cedar Waxwing (Bombycilla cedrorum)","ispublic":1,"isfriend":0,"isfamily":0},{"id":"52686482716","owner":"34238008@N02","secret":"4397fecd2e","server":"65535","farm":66,"title":"Cedar Waxwing (Bombycilla cedrorum)","ispublic":1,"isfriend":0,"isfamily":0},{"id":"52686978933","owner":"34238008@N02","secret":"9c2e0a400e","server":"65535","farm":66,"title":"Cedar Waxwing (Bombycilla cedrorum)","ispublic":1,"isfriend":0,"isfamily":0},{"id":"52685594639","owner":"9638954@N07","secret":"24e7cfe532","server":"65535","farm":66,"title":"Cedar Waxing eating toyon berries","ispublic":1,"isfriend":0,"isfamily":0},{"id":"52679243512","owner":"65148649@N04","secret":"b2fdd37023","server":"65535","farm":66,"title":"Cedar Waxwing 2 02.04.23 Frye","ispublic":1,"isfriend":0,"isfamily":0},{"id":"52680195540","owner":"65148649@N04","secret":"a9c3ffdd99","server":"65535","farm":66,"title":"Cedar Waxwing 3 02.04.23 Frye","ispublic":1,"isfriend":0,"isfamily":0},{"id":"52679243492","owner":"65148649@N04","secret":"296d964579","server":"65535","farm":66,"title":"Cedar Waxwing 02.04.23 Frye","ispublic":1,"isfriend":0,"isfamily":0},{"id":"52675640775","owner":"187792860@N04","secret":"0cf6e34144","server":"65535","farm":66,"title":"Cedar Waxwing (Bombycilla cedrorum)","ispublic":1,"isfriend":0,"isfamily":0},{"id":"52672671806","owner":"187792860@N04","secret":"db29315546","server":"65535","farm":66,"title":"Cedar Waxwing (Bombycilla cedrorum)","ispublic":1,"isfriend":0,"isfamily":0},{"id":"52672937134","owner":"187792860@N04","secret":"87c4a951c7","server":"65535","farm":66,"title":"Cedar Waxwing (Bombycilla cedrorum)","ispublic":1,"isfriend":0,"isfamily":0},{"id":"52672729699","owner":"187792860@N04","secret":"a229dd9b60","server":"65535","farm":66,"title":"Cedar Waxwing (Bombycilla cedrorum)","ispublic":1,"isfriend":0,"isfamily":0},{"id":"52672888498","owner":"187792860@N04","secret":"80d674830c","server":"65535","farm":66,"title":"Cedar Waxwing (Bombycilla cedrorum)","ispublic":1,"isfriend":0,"isfamily":0},{"id":"52672364571","owner":"187792860@N04","secret":"6f3819d834","server":"65535","farm":66,"title":"Cedar Waxwing (Bombycilla cedrorum)","ispublic":1,"isfriend":0,"isfamily":0},{"id":"52672322951","owner":"187792860@N04","secret":"f92b2711d9","server":"65535","farm":66,"title":"Cedar Waxwing (Bombycilla cedrorum)","ispublic":1,"isfriend":0,"isfamily":0},{"id":"52671377326","owner":"187792860@N04","secret":"b85b25f03d","server":"65535","farm":66,"title":"Cedar Waxwing (Bombycilla cedrorum)","ispublic":1,"isfriend":0,"isfamily":0},{"id":"52671283511","owner":"187792860@N04","secret":"5c889ce3ea","server":"65535","farm":66,"title":"Cedar Waxwing (Bombycilla cedrorum)","ispublic":1,"isfriend":0,"isfamily":0},{"id":"52671266876","owner":"187792860@N04","secret":"d8b458c3c2","server":"65535","farm":66,"title":"Cedar Waxwing (Bombycilla cedrorum)","ispublic":1,"isfriend":0,"isfamily":0},{"id":"52671678720","owner":"187792860@N04","secret":"b7410c34ca","server":"65535","farm":66,"title":"Cedar Waxwing (Bombycilla cedrorum)","ispublic":1,"isfriend":0,"isfamily":0},{"id":"52670721472","owner":"187792860@N04","secret":"688d1377d3","server":"65535","farm":66,"title":"Cedar Waxwing (Bombycilla cedrorum)","ispublic":1,"isfriend":0,"isfamily":0},{"id":"52661780824","owner":"25899079@N08","secret":"e6abebb17f","server":"65535","farm":66,"title":"Cedar Waxwing (7462)","ispublic":1,"isfriend":0,"isfamily":0},{"id":"52660056530","owner":"26929161@N02","secret":"fefb0d5f82","server":"65535","farm":66,"title":"Cedar Waxwings (Bombycilla cedrorum) San Luis Obispo, CA","ispublic":1,"isfriend":0,"isfamily":0},{"id":"52660100478","owner":"26929161@N02","secret":"2c33f0331e","server":"65535","farm":66,"title":"Cedar Waxwings (Bombycilla cedrorum) San Luis Obispo, CA","ispublic":1,"isfriend":0,"isfamily":0},{"id":"52660100463","owner":"26929161@N02","secret":"d0be1201ea","server":"65535","farm":66,"title":"Cedar Waxwings (Bombycilla cedrorum) San Luis Obispo, CA","ispublic":1,"isfriend":0,"isfamily":0},{"id":"52659608251","owner":"26929161@N02","secret":"eaabc6b7e0","server":"65535","farm":66,"title":"Cedar Waxwings (Bombycilla cedrorum) San Luis Obispo, CA","ispublic":1,"isfriend":0,"isfamily":0},{"id":"52657244292","owner":"65148649@N04","secret":"9e4d8455bc","server":"65535","farm":66,"title":"Cedar Waxwings 01.21.23 Frye","ispublic":1,"isfriend":0,"isfamily":0},{"id":"52655785702","owner":"187792860@N04","secret":"e39fa35695","server":"65535","farm":66,"title":"Cedar Waxwing (Bombycilla cedrorum)","ispublic":1,"isfriend":0,"isfamily":0},{"id":"52648374469","owner":"70295563@N00","secret":"959a331569","server":"65535","farm":66,"title":"Feasting on berries","ispublic":1,"isfriend":0,"isfamily":0},{"id":"52646322307","owner":"44034115@N08","secret":"ba1237f423","server":"65535","farm":66,"title":"Down the Hatch of the Cedar Waxwing","ispublic":1,"isfriend":0,"isfamily":0},{"id":"52639123701","owner":"47533293@N04","secret":"806ba47c8c","server":"65535","farm":66,"title":"Cedar waxwings, Bombycilla cedrorum","ispublic":1,"isfriend":0,"isfamily":0},{"id":"52637787448","owner":"61135968@N00","secret":"05848bfd47","server":"65535","farm":66,"title":"Waxwing","ispublic":1,"isfriend":0,"isfamily":0},{"id":"52636641271","owner":"187792860@N04","secret":"5d76fe189d","server":"65535","farm":66,"title":"Cedar Waxwing (Bombycilla cedrorum)","ispublic":1,"isfriend":0,"isfamily":0},{"id":"52629043596","owner":"64606186@N00","secret":"281929bed3","server":"65535","farm":66,"title":"Cedar Waxwings","ispublic":1,"isfriend":0,"isfamily":0},{"id":"52628504631","owner":"131037795@N03","secret":"fd214a29c5","server":"65535","farm":66,"title":"Cedar Waxwing (Bombycilla cedrorum)","ispublic":1,"isfriend":0,"isfamily":0},{"id":"52627808632","owner":"67614740@N07","secret":"14f4394f96","server":"65535","farm":66,"title":"Cedar waxwing (Bombycilla cedrorum)","ispublic":1,"isfriend":0,"isfamily":0},{"id":"52628713533","owner":"70295563@N00","secret":"0c821cd731","server":"65535","farm":66,"title":"Foraging (Explored)","ispublic":1,"isfriend":0,"isfamily":0},{"id":"52627451931","owner":"188352054@N08","secret":"2b0ec234e2","server":"65535","farm":66,"title":"IMG_4651","ispublic":1,"isfriend":0,"isfamily":0},{"id":"52622596108","owner":"36659772@N07","secret":"dc727d4ca8","server":"0","farm":0,"title":"Cedar Waxwings Eating Apple Blossoms","ispublic":1,"isfriend":0,"isfamily":0},{"id":"52618790437","owner":"187792860@N04","secret":"1b1b276183","server":"65535","farm":66,"title":"Cedar Waxwing (Bombycilla cedrorum)","ispublic":1,"isfriend":0,"isfamily":0},{"id":"52619757293","owner":"187792860@N04","secret":"a21934af92","server":"65535","farm":66,"title":"Cedar Waxwing (Bombycilla cedrorum)","ispublic":1,"isfriend":0,"isfamily":0},{"id":"52619100506","owner":"187792860@N04","secret":"46d4737812","server":"65535","farm":66,"title":"Cedar Waxwing (Bombycilla cedrorum)","ispublic":1,"isfriend":0,"isfamily":0},{"id":"52617559657","owner":"187792860@N04","secret":"4140b45b83","server":"65535","farm":66,"title":"Cedar Waxwing (Bombycilla cedrorum)","ispublic":1,"isfriend":0,"isfamily":0},{"id":"52618316179","owner":"187792860@N04","secret":"af333b6b73","server":"65535","farm":66,"title":"Cedar Waxwing (Bombycilla cedrorum)","ispublic":1,"isfriend":0,"isfamily":0},{"id":"52617979695","owner":"8666250@N02","secret":"cdf3c2419a","server":"65535","farm":66,"title":"\"The best ones are always tucked away!\"","ispublic":1,"isfriend":0,"isfamily":0},{"id":"52615401602","owner":"65148649@N04","secret":"a397e14364","server":"65535","farm":66,"title":"Cedar Waxwing 12.24.22 Rutherford E","ispublic":1,"isfriend":0,"isfamily":0},{"id":"52612193287","owner":"53326344@N00","secret":"096a29305d","server":"65535","farm":66,"title":"Cedar Waxwing 7","ispublic":1,"isfriend":0,"isfamily":0},{"id":"52612193277","owner":"53326344@N00","secret":"1842115478","server":"65535","farm":66,"title":"Cedar Waxwing","ispublic":1,"isfriend":0,"isfamily":0},{"id":"52609643271","owner":"119095828@N03","secret":"f1cfdc2df6","server":"65535","farm":66,"title":"Cedar Waxwing (Bombycilla cedrorum)","ispublic":1,"isfriend":0,"isfamily":0},{"id":"52609140392","owner":"119095828@N03","secret":"28d84cf294","server":"65535","farm":66,"title":"Cedar Waxwing (Bombycilla cedrorum)","ispublic":1,"isfriend":0,"isfamily":0},{"id":"52609903609","owner":"119095828@N03","secret":"6c34f1bc3b","server":"65535","farm":66,"title":"Cedar Waxwing (Bombycilla cedrorum)","ispublic":1,"isfriend":0,"isfamily":0},{"id":"52609282800","owner":"45777632@N06","secret":"d4a1a5d137","server":"65535","farm":66,"title":"Eating Upside Down","ispublic":1,"isfriend":0,"isfamily":0},{"id":"52608172450","owner":"11799527@N08","secret":"44a6e4074e","server":"65535","farm":66,"title":"Cedar Waxwing","ispublic":1,"isfriend":0,"isfamily":0},{"id":"52607214682","owner":"145466593@N08","secret":"5019ab753c","server":"65535","farm":66,"title":"Cedar Waxwing","ispublic":1,"isfriend":0,"isfamily":0},{"id":"52607850343","owner":"23711298@N07","secret":"a8eb53dee0","server":"65535","farm":66,"title":"Cedar Waxwing, Minnesota, Hennepin County,- Bloomington, Minnesota Valley Wildlife Refuge","ispublic":1,"isfriend":0,"isfamily":0},{"id":"52606852797","owner":"23711298@N07","secret":"ab3ba31dbc","server":"65535","farm":66,"title":"Cedar Waxwing, Minnesota, Hennepin County,- Bloomington, Minnesota Valley Wildlife Refuge","ispublic":1,"isfriend":0,"isfamily":0},{"id":"52606795217","owner":"23711298@N07","secret":"b6fcde6f70","server":"65535","farm":66,"title":"Cedar Waxwing, Minnesota, Sherburne County, Sherburne National Wildlife Refuge","ispublic":1,"isfriend":0,"isfamily":0},{"id":"52607052964","owner":"45777632@N06","secret":"214744750c","server":"65535","farm":66,"title":"Hungry Cedar Waxwing","ispublic":1,"isfriend":0,"isfamily":0},{"id":"52606466361","owner":"93273765@N05","secret":"7abdd4aa87","server":"65535","farm":66,"title":"Cedar Waxwing","ispublic":1,"isfriend":0,"isfamily":0},{"id":"52598780791","owner":"18378985@N08","secret":"3c251e0302","server":"65535","farm":66,"title":"Cedar Waxwing","ispublic":1,"isfriend":0,"isfamily":0},{"id":"52570787767","owner":"49114357@N08","secret":"edc7ce7c50","server":"65535","farm":66,"title":"Cedar Waxwing","ispublic":1,"isfriend":0,"isfamily":0},{"id":"52596258978","owner":"131037795@N03","secret":"4177a85d4f","server":"65535","farm":66,"title":"Cedar Waxwing (Bombycilla cedrorum)","ispublic":1,"isfriend":0,"isfamily":0},{"id":"52596162205","owner":"131037795@N03","secret":"11e6f06f77","server":"65535","farm":66,"title":"Cedar Waxwing (Bombycilla cedrorum)","ispublic":1,"isfriend":0,"isfamily":0},{"id":"52595248852","owner":"131037795@N03","secret":"715dfeb42d","server":"65535","farm":66,"title":"Cedar Waxwing (Bombycilla cedrorum)","ispublic":1,"isfriend":0,"isfamily":0},{"id":"52593928135","owner":"187792860@N04","secret":"5e486a21ae","server":"65535","farm":66,"title":"Cedar Waxwing (Bombycilla cedrorum)","ispublic":1,"isfriend":0,"isfamily":0},{"id":"52589133952","owner":"187792860@N04","secret":"e2d2fdb757","server":"65535","farm":66,"title":"Cedar Waxwing (Bombycilla cedrorum)","ispublic":1,"isfriend":0,"isfamily":0},{"id":"52673015176","owner":"187792860@N04","secret":"48bcebddb7","server":"65535","farm":66,"title":"Cedar Waxwing (Bombycilla cedrorum)","ispublic":1,"isfriend":0,"isfamily":0},{"id":"52673433035","owner":"187792860@N04","secret":"f4321dc8c0","server":"65535","farm":66,"title":"Cedar Waxwing (Bombycilla cedrorum)","ispublic":1,"isfriend":0,"isfamily":0},{"id":"52673480913","owner":"187792860@N04","secret":"790ccb8f06","server":"65535","farm":66,"title":"Cedar Waxwing (Bombycilla cedrorum)","ispublic":1,"isfriend":0,"isfamily":0},{"id":"52673423408","owner":"187792860@N04","secret":"b00e194daf","server":"65535","farm":66,"title":"Cedar Waxwing (Bombycilla cedrorum)","ispublic":1,"isfriend":0,"isfamily":0},{"id":"52673202004","owner":"187792860@N04","secret":"206be5d96b","server":"65535","farm":66,"title":"Cedar Waxwing (Bombycilla cedrorum)","ispublic":1,"isfriend":0,"isfamily":0},{"id":"52661537042","owner":"62043870@N05","secret":"ec5c264b62","server":"65535","farm":66,"title":"Cedar Waxwing, Bombycilla cedrorum","ispublic":1,"isfriend":0,"isfamily":0},{"id":"52631607839","owner":"65633503@N02","secret":"2ab10c1851","server":"65535","farm":66,"title":"Cedar Waxwing (Bombycilla cedrorum)","ispublic":1,"isfriend":0,"isfamily":0},{"id":"52619604823","owner":"187792860@N04","secret":"b137a3d5c5","server":"65535","farm":66,"title":"Cedar Waxwing (Bombycilla cedrorum)","ispublic":1,"isfriend":0,"isfamily":0},{"id":"52617814924","owner":"8666250@N02","secret":"b1f571aba1","server":"65535","farm":66,"title":"\"Feel free to help yourself! I do!\"","ispublic":1,"isfriend":0,"isfamily":0},{"id":"52590622878","owner":"13451078@N03","secret":"5b3a9d7dbb","server":"65535","farm":66,"title":"Cedar Waxwing ( Bombycilla cedrorum)","ispublic":1,"isfriend":0,"isfamily":0}]},"stat":"ok"}