{"photos":{"page":1,"pages":5,"perpage":100,"total":481,"photo":[{"id":"52692079044","owner":"123979267@N05","secret":"5669007a8b","server":"65535","farm":66,"title":"Cerulean Warblers","ispublic":1,"isfriend":0,"isfamily":0},{"id":"52589003548","owner":"196786375@N03","secret":"5d4c869da1","server":"65535","farm":66,"title":"Cerulean Warbler (m)","ispublic":1,"isfriend":0,"isfamily":0},{"id":"52588919975","owner":"196786375@N03","secret":"d81b4e507e","server":"65535","farm":66,"title":"Cerulean Warbler (m)","ispublic":1,"isfriend":0,"isfamily":0},{"id":"52579855122","owner":"153973412@N04","secret":"a5db265452","server":"65535","farm":66,"title":"Cerulean warbler-Setophaga cerulea, Hawkeye WMA, IA","ispublic":1,"isfriend":0,"isfamily":0},{"id":"52572752926","owner":"190773540@N03","secret":"4c0362e27b","server":"65535","farm":66,"title":"Cerulean Warbler (male)","ispublic":1,"isfriend":0,"isfamily":0},{"id":"52357768619","owner":"196212229@N04","secret":"acf6a89d6c","server":"65535","farm":66,"title":"Cerulean Warbler watching from above","ispublic":1,"isfriend":0,"isfamily":0},{"id":"52316115163","owner":"35259356@N06","secret":"017432e65a","server":"65535","farm":66,"title":"Warbler: Cerulean Warbler","ispublic":1,"isfriend":0,"isfamily":0},{"id":"52153406512","owner":"195506649@N05","secret":"39135c0611","server":"65535","farm":66,"title":"Setophaga cerulea","ispublic":1,"isfriend":0,"isfamily":0},{"id":"52153893218","owner":"28499865@N07","secret":"f0a5cbdd91","server":"65535","farm":66,"title":"Cerulean Warbler - Setophaga cerulea (male)","ispublic":1,"isfriend":0,"isfamily":0},{"id":"52149675171","owner":"188615990@N04","secret":"5d62379699","server":"65535","farm":66,"title":"Cerulean Warbler.","ispublic":1,"isfriend":0,"isfamily":0},{"id":"52147001625","owner":"85277889@N08","secret":"ce482f5848","server":"65535","farm":66,"title":"Cerulean Warbler (Setophaga cerulea) 2022-06-03 (3)","ispublic":1,"isfriend":0,"isfamily":0},{"id":"52137402567","owner":"13604536@N02","secret":"e0a69a1747","server":"65535","farm":66,"title":"Cerulean Warbler","ispublic":1,"isfriend":0,"isfamily":0},{"id":"52108560522","owner":"117307568@N03","secret":"140e3e7c37","server":"65535","farm":66,"title":"Cerulean Warbler (Setophaga cerulea)","ispublic":1,"isfriend":0,"isfamily":0},{"id":"52106167016","owner":"73654511@N05","secret":"42ace33587","server":"65535","farm":66,"title":"L0A0492-Cerulean Warbler","ispublic":1,"isfriend":0,"isfamily":0},{"id":"52095780084","owner":"120449047@N06","secret":"79b023f4b6","server":"65535","farm":66,"title":"Cerulean Warbler (20\/35)","ispublic":1,"isfriend":0,"isfamily":0},{"id":"52066972503","owner":"73654511@N05","secret":"e698be26b2","server":"65535","farm":66,"title":"L0A0428-Cerulean Warbler","ispublic":1,"isfriend":0,"isfamily":0},{"id":"52036324966","owner":"61241315@N00","secret":"9c275008c8","server":"0","farm":0,"title":"Cerulean Warbler_3885.MP4","ispublic":1,"isfriend":0,"isfamily":0},{"id":"52036843310","owner":"61241315@N00","secret":"48b22de488","server":"0","farm":0,"title":"Cerulean Warbler_3886,87 COMPLETE.MP4","ispublic":1,"isfriend":0,"isfamily":0},{"id":"52035286862","owner":"61241315@N00","secret":"8581f83137","server":"0","farm":0,"title":"Cerulean Warbler_3834.MP4","ispublic":1,"isfriend":0,"isfamily":0},{"id":"52035286932","owner":"61241315@N00","secret":"b8fec3ee55","server":"65535","farm":66,"title":"Cerulean Warbler_N3692","ispublic":1,"isfriend":0,"isfamily":0},{"id":"52036326301","owner":"61241315@N00","secret":"0830b9d9a1","server":"65535","farm":66,"title":"Cerulean Warbler_N3849","ispublic":1,"isfriend":0,"isfamily":0},{"id":"52036374808","owner":"61241315@N00","secret":"3fc2d26196","server":"65535","farm":66,"title":"Cerulean Warbler_N3875","ispublic":1,"isfriend":0,"isfamily":0},{"id":"52035286847","owner":"61241315@N00","secret":"21ce1a6bc3","server":"65535","farm":66,"title":"Cerulean Warbler_N3882","ispublic":1,"isfriend":0,"isfamily":0},{"id":"52036372618","owner":"61241315@N00","secret":"997ce7f49d","server":"65535","farm":66,"title":"Cerulean Warbler_N3690","ispublic":1,"isfriend":0,"isfamily":0},{"id":"52036842795","owner":"61241315@N00","secret":"c9f5fb3316","server":"65535","farm":66,"title":"Cerulean Warbler_N3785","ispublic":1,"isfriend":0,"isfamily":0},{"id":"52036372578","owner":"61241315@N00","secret":"629275e510","server":"65535","farm":66,"title":"Cerulean Warbler_N3897","ispublic":1,"isfriend":0,"isfamily":0},{"id":"52026431312","owner":"76581287@N08","secret":"d998a7f07c","server":"65535","farm":66,"title":"Cerulean Warbler","ispublic":1,"isfriend":0,"isfamily":0},{"id":"51839048115","owner":"21147276@N03","secret":"e221061082","server":"65535","farm":66,"title":"Little Blue Boy","ispublic":1,"isfriend":0,"isfamily":0},{"id":"51676805391","owner":"79410107@N08","secret":"24a463542f","server":"65535","farm":66,"title":"Setophaga cerulea - Cerulean Warbler - Reinita Cer\u00falea 02","ispublic":1,"isfriend":0,"isfamily":0},{"id":"51676805036","owner":"79410107@N08","secret":"5a79c7bbf8","server":"65535","farm":66,"title":"Setophaga cerulea - Cerulean Warbler - Reinita Cer\u00falea 03","ispublic":1,"isfriend":0,"isfamily":0},{"id":"51676002062","owner":"79410107@N08","secret":"d09f64e017","server":"65535","farm":66,"title":"Setophaga cerulea - Cerulean Warbler - Reinita Cer\u00falea 01","ispublic":1,"isfriend":0,"isfamily":0},{"id":"51316951301","owner":"151361315@N06","secret":"0b0377d63d","server":"65535","farm":66,"title":"Cerulean Warbler breeding male (rare) \u2022 Sterling Nature Center, Sterling NY \u2022 2021","ispublic":1,"isfriend":0,"isfamily":0},{"id":"51244904623","owner":"49114357@N08","secret":"602b735301","server":"65535","farm":66,"title":"Cerulean Warbler","ispublic":1,"isfriend":0,"isfamily":0},{"id":"51219285459","owner":"33573751@N04","secret":"93c602016c","server":"65535","farm":66,"title":"Inching her way along cautiously...Female Cerulean Warbler (Setophaga cerulea) - Macedonia Brook, Connecticut, USA","ispublic":1,"isfriend":0,"isfamily":0},{"id":"51216592824","owner":"33573751@N04","secret":"a239ee83bb","server":"65535","farm":66,"title":"Female Cerulean Warbler (Setophaga cerulea) - Macedonia Brook, Connecticut, USA","ispublic":1,"isfriend":0,"isfamily":0},{"id":"51193236157","owner":"36685968@N00","secret":"51a21f65e9","server":"65535","farm":66,"title":"Cerulean Warbler (Setophaga cerulea)","ispublic":1,"isfriend":0,"isfamily":0},{"id":"51193228942","owner":"36685968@N00","secret":"c0a4124902","server":"65535","farm":66,"title":"Cerulean Warbler (Setophaga cerulea)","ispublic":1,"isfriend":0,"isfamily":0},{"id":"51192059305","owner":"120449047@N06","secret":"e08782f126","server":"65535","farm":66,"title":"Cerulean Warbler","ispublic":1,"isfriend":0,"isfamily":0},{"id":"51185985096","owner":"132165466@N08","secret":"6987ca3a72","server":"65535","farm":66,"title":"Cerulean Warbler","ispublic":1,"isfriend":0,"isfamily":0},{"id":"51186203563","owner":"132165466@N08","secret":"91d9a02e57","server":"65535","farm":66,"title":"Cerulean Warbler","ispublic":1,"isfriend":0,"isfamily":0},{"id":"51185293237","owner":"132165466@N08","secret":"552c49d9e8","server":"65535","farm":66,"title":"Cerulean Warbler","ispublic":1,"isfriend":0,"isfamily":0},{"id":"51186187708","owner":"132165466@N08","secret":"942378d270","server":"65535","farm":66,"title":"Cerulean Warbler","ispublic":1,"isfriend":0,"isfamily":0},{"id":"51185969396","owner":"132165466@N08","secret":"780fd7ce3f","server":"65535","farm":66,"title":"Cerulean Warbler","ispublic":1,"isfriend":0,"isfamily":0},{"id":"51177009138","owner":"40003624@N06","secret":"c11338412d","server":"65535","farm":66,"title":"Cerulean Warbler","ispublic":1,"isfriend":0,"isfamily":0},{"id":"51175599903","owner":"33573751@N04","secret":"b4b418da42","server":"65535","farm":66,"title":"Cerulean Warbler (Setophaga cerulea) - Kent, Connecticut, USA","ispublic":1,"isfriend":0,"isfamily":0},{"id":"51166541234","owner":"96568982@N06","secret":"6152677bcb","server":"65535","farm":66,"title":"WARBLER, Cerulean","ispublic":1,"isfriend":0,"isfamily":0},{"id":"51147902374","owner":"23438144@N04","secret":"f28e28e19c","server":"65535","farm":66,"title":"Cerulean Warbler","ispublic":1,"isfriend":0,"isfamily":0},{"id":"51146851471","owner":"61241315@N00","secret":"95a7704907","server":"65535","farm":66,"title":"Cerulean Warbler_N9396","ispublic":1,"isfriend":0,"isfamily":0},{"id":"51146175347","owner":"61241315@N00","secret":"f591d9815a","server":"65535","farm":66,"title":"Cerulean Warbler_N9404","ispublic":1,"isfriend":0,"isfamily":0},{"id":"51146175277","owner":"61241315@N00","secret":"876cf3439d","server":"65535","farm":66,"title":"Cerulean Warbler_N9411","ispublic":1,"isfriend":0,"isfamily":0},{"id":"51147635449","owner":"61241315@N00","secret":"ca90f5cba5","server":"65535","farm":66,"title":"Cerulean Warbler_N9417","ispublic":1,"isfriend":0,"isfamily":0},{"id":"51147635404","owner":"61241315@N00","secret":"d95bd188f1","server":"65535","farm":66,"title":"Cerulean Warbler_N9419","ispublic":1,"isfriend":0,"isfamily":0},{"id":"51147962090","owner":"61241315@N00","secret":"b93cf92acc","server":"65535","farm":66,"title":"Cerulean Warbler_N9427","ispublic":1,"isfriend":0,"isfamily":0},{"id":"51147962025","owner":"61241315@N00","secret":"e178b3baf2","server":"65535","farm":66,"title":"Cerulean Warbler_N9434","ispublic":1,"isfriend":0,"isfamily":0},{"id":"51146175032","owner":"61241315@N00","secret":"c1916e61cd","server":"65535","farm":66,"title":"Cerulean Warbler_N9435","ispublic":1,"isfriend":0,"isfamily":0},{"id":"51146174972","owner":"61241315@N00","secret":"a66c980986","server":"65535","farm":66,"title":"Cerulean Warbler_N9437","ispublic":1,"isfriend":0,"isfamily":0},{"id":"51146851121","owner":"61241315@N00","secret":"7379a0fe4b","server":"65535","farm":66,"title":"Cerulean Warbler_N9452","ispublic":1,"isfriend":0,"isfamily":0},{"id":"51147961875","owner":"61241315@N00","secret":"d1ec407b91","server":"65535","farm":66,"title":"Cerulean Warbler_N9460","ispublic":1,"isfriend":0,"isfamily":0},{"id":"51092284718","owner":"23438144@N04","secret":"1491323f45","server":"65535","farm":66,"title":"Cerulean Warbler","ispublic":1,"isfriend":0,"isfamily":0},{"id":"50868017137","owner":"21702714@N06","secret":"688d37e7b1","server":"65535","farm":66,"title":"Cerulean Warbler","ispublic":1,"isfriend":0,"isfamily":0},{"id":"50826780302","owner":"61021753@N02","secret":"0cb7c1586d","server":"65535","farm":66,"title":"n414_w1150","ispublic":1,"isfriend":0,"isfamily":0},{"id":"50773172686","owner":"37493716@N02","secret":"a66aa62536","server":"65535","farm":66,"title":"1.Setophaga cerulea H","ispublic":1,"isfriend":0,"isfamily":0},{"id":"50607773331","owner":"190773540@N03","secret":"ebca79a5bb","server":"65535","farm":66,"title":"Cerulean Warbler (male)","ispublic":1,"isfriend":0,"isfamily":0},{"id":"50424561288","owner":"37493716@N02","secret":"8c273224e0","server":"65535","farm":66,"title":"Reinita Cer\u00falea\/Cerulean Warbler\/Setophaga cerulea","ispublic":1,"isfriend":0,"isfamily":0},{"id":"50275551351","owner":"54100598@N08","secret":"652ccb331c","server":"65535","farm":66,"title":"Cerulean Warbler (Setophaga cerulea)","ispublic":1,"isfriend":0,"isfamily":0},{"id":"50274872053","owner":"54100598@N08","secret":"0d7e350e10","server":"65535","farm":66,"title":"Cerulean Warbler (Setophaga cerulea)","ispublic":1,"isfriend":0,"isfamily":0},{"id":"50275706107","owner":"54100598@N08","secret":"b1890f218e","server":"65535","farm":66,"title":"Cerulean Warbler (Setophaga cerulea)","ispublic":1,"isfriend":0,"isfamily":0},{"id":"50178109612","owner":"22420387@N07","secret":"3abdddb8c3","server":"65535","farm":66,"title":"Cerulean Warbler - DEL_5142-LR-1wm","ispublic":1,"isfriend":0,"isfamily":0},{"id":"50144359238","owner":"61021753@N02","secret":"12f5e4f0b5","server":"65535","farm":66,"title":"n148_w1150","ispublic":1,"isfriend":0,"isfamily":0},{"id":"50129216001","owner":"41515458@N04","secret":"b46eec7330","server":"65535","farm":66,"title":"Cerulean Warbler - Setophaga cerulea","ispublic":1,"isfriend":0,"isfamily":0},{"id":"50129215966","owner":"41515458@N04","secret":"8cf0299d05","server":"65535","farm":66,"title":"Cerulean Warbler - Setophaga cerulea","ispublic":1,"isfriend":0,"isfamily":0},{"id":"50129215911","owner":"41515458@N04","secret":"0677cd484a","server":"65535","farm":66,"title":"Cerulean Warbler - Setophaga cerulea","ispublic":1,"isfriend":0,"isfamily":0},{"id":"50128645568","owner":"41515458@N04","secret":"a461537bc6","server":"65535","farm":66,"title":"Cerulean Warbler - Setophaga cerulea","ispublic":1,"isfriend":0,"isfamily":0},{"id":"50129213156","owner":"41515458@N04","secret":"8b0b9a026e","server":"65535","farm":66,"title":"Cerulean Warbler - Setophaga cerulea","ispublic":1,"isfriend":0,"isfamily":0},{"id":"50129433827","owner":"41515458@N04","secret":"07e7315ea6","server":"65535","farm":66,"title":"DSCerulean Warbler - Setophaga ceruleaC_4790","ispublic":1,"isfriend":0,"isfamily":0},{"id":"49991525073","owner":"33573751@N04","secret":"8b9af96dac","server":"65535","farm":66,"title":"Cerulean Warbler (Setophaga cerulea) - Kent, Connecticut, USA","ispublic":1,"isfriend":0,"isfamily":0},{"id":"49988730747","owner":"48708954@N07","secret":"de1a52657d","server":"65535","farm":66,"title":"","ispublic":1,"isfriend":0,"isfamily":0},{"id":"52167735552","owner":"40723658@N05","secret":"8119e39fb5","server":"65535","farm":66,"title":"Cerulean Warbler","ispublic":1,"isfriend":0,"isfamily":0},{"id":"52153886746","owner":"28499865@N07","secret":"12b2417659","server":"65535","farm":66,"title":"Cerulean Warbler - Setophaga cerulea (male)","ispublic":1,"isfriend":0,"isfamily":0},{"id":"52036326286","owner":"61241315@N00","secret":"abc86a0359","server":"65535","farm":66,"title":"Cerulean Warbler_N3876","ispublic":1,"isfriend":0,"isfamily":0},{"id":"51966169934","owner":"57465751@N05","secret":"ac34c0df51","server":"65535","farm":66,"title":"Cerulean Warbler (Setophaga cerulea), Wyalusing SP, Grant Co., WI","ispublic":1,"isfriend":0,"isfamily":0},{"id":"51182412149","owner":"32406637@N06","secret":"d08aeda8a4","server":"65535","farm":66,"title":"cerulean warbler 2021.5.15 ny doodletown-","ispublic":1,"isfriend":0,"isfamily":0},{"id":"51182710880","owner":"32406637@N06","secret":"4208051975","server":"65535","farm":66,"title":"warblers... cerulean warbler 2021.5.15 ny doodletown-","ispublic":1,"isfriend":0,"isfamily":0},{"id":"51182411569","owner":"32406637@N06","secret":"ff285fe608","server":"65535","farm":66,"title":"cerulean warbler 2021.5.15 ny doodletown-  (2)","ispublic":1,"isfriend":0,"isfamily":0},{"id":"51180936327","owner":"32406637@N06","secret":"e7db88d218","server":"65535","farm":66,"title":"warblers... cerulean warbler female 2021.5.15 ny doodletown-   (1)","ispublic":1,"isfriend":0,"isfamily":0},{"id":"51182709190","owner":"32406637@N06","secret":"e9c045a213","server":"65535","farm":66,"title":"cerulean warbler female 2021.5.15 ny doodletown-   (2)","ispublic":1,"isfriend":0,"isfamily":0},{"id":"51181839178","owner":"32406637@N06","secret":"9ddb1803ae","server":"65535","farm":66,"title":"cerulean warbler female 2021.5.15 ny doodletown-   (3)","ispublic":1,"isfriend":0,"isfamily":0},{"id":"51182709185","owner":"32406637@N06","secret":"1f2480cbf3","server":"65535","farm":66,"title":"cerulean warbler female 2021.5.15 ny doodletown-   (4)","ispublic":1,"isfriend":0,"isfamily":0},{"id":"51181620401","owner":"32406637@N06","secret":"92af42ee41","server":"65535","farm":66,"title":"cerulean warbler female 2021.5.15 ny doodletown-   (5)","ispublic":1,"isfriend":0,"isfamily":0},{"id":"51165092242","owner":"96568982@N06","secret":"250969a7a6","server":"65535","farm":66,"title":"WARBLER, Cerulean","ispublic":1,"isfriend":0,"isfamily":0},{"id":"51166539404","owner":"96568982@N06","secret":"bd04c65a4a","server":"65535","farm":66,"title":"WARBLER, Cerulean","ispublic":1,"isfriend":0,"isfamily":0},{"id":"51066564333","owner":"61550823@N02","secret":"d9693e9938","server":"65535","farm":66,"title":"Snow Covered Galien River - Warren Woods National Nature Landmark ~ Three Oaks, Michigan","ispublic":1,"isfriend":0,"isfamily":0},{"id":"51003253222","owner":"141178418@N05","secret":"a2cfcf81b4","server":"65535","farm":66,"title":"Reinita Cer\u00falea - Setophaga cerulea","ispublic":1,"isfriend":0,"isfamily":0},{"id":"50773172696","owner":"37493716@N02","secret":"c719baa3c7","server":"65535","farm":66,"title":"1.Setophaga cerulea M","ispublic":1,"isfriend":0,"isfamily":0},{"id":"50382333937","owner":"186748160@N02","secret":"53c37f8ff8","server":"65535","farm":66,"title":"Cerulean warbler (Setophaga cerulea)","ispublic":1,"isfriend":0,"isfamily":0},{"id":"50104287206","owner":"187469698@N05","secret":"c5150fe123","server":"65535","farm":66,"title":"1315 Cerulean Warbler - Andrew Walker 001","ispublic":1,"isfriend":0,"isfamily":0},{"id":"50045690067","owner":"26803925@N05","secret":"ba5af57e53","server":"65535","farm":66,"title":"Cerulean Warbler (Setophaga cerulea) 05-31-2020 Woodmont-Sidling Hill WMA--Riser Road, Washington Co. MD 5","ispublic":1,"isfriend":0,"isfamily":0},{"id":"50045690037","owner":"26803925@N05","secret":"bbd1fd0a20","server":"65535","farm":66,"title":"Cerulean Warbler (Setophaga cerulea) 05-31-2020 Woodmont-Sidling Hill WMA--Riser Road, Washington Co. MD 2","ispublic":1,"isfriend":0,"isfamily":0},{"id":"50044988436","owner":"26803925@N05","secret":"6909ee95cd","server":"65535","farm":66,"title":"Cerulean Warbler (Setophaga cerulea) 05-30-2020 Green Ridge SF--Troutman Road, Allegany  Co. MD 6","ispublic":1,"isfriend":0,"isfamily":0},{"id":"50045244852","owner":"26803925@N05","secret":"c28e8207d4","server":"65535","farm":66,"title":"Cerulean Warbler (Setophaga cerulea) 05-30-2020 Green Ridge SF--Troutman Road, Allegany  Co. MD 5","ispublic":1,"isfriend":0,"isfamily":0}]},"stat":"ok"}