{"photos":{"page":1,"pages":3,"perpage":100,"total":222,"photo":[{"id":"52746409166","owner":"31350467@N04","secret":"0b63576589","server":"65535","farm":66,"title":"Thornbill, Chestnut-rumped (Acanthiza uropygialis)","ispublic":1,"isfriend":0,"isfamily":0},{"id":"52730892111","owner":"37934762@N02","secret":"ca78e0d629","server":"65535","farm":66,"title":"Chestnut-rumped Thornbill - Acanthiza uropygialis","ispublic":1,"isfriend":0,"isfamily":0},{"id":"52481304063","owner":"132431122@N05","secret":"4b01f3a138","server":"65535","farm":66,"title":"Chestnut-rumped Thornbill","ispublic":1,"isfriend":0,"isfamily":0},{"id":"52480759691","owner":"132431122@N05","secret":"17548d526e","server":"65535","farm":66,"title":"Chestnut-rumped Thornbill","ispublic":1,"isfriend":0,"isfamily":0},{"id":"52481031759","owner":"132431122@N05","secret":"b9cb341199","server":"65535","farm":66,"title":"Chestnut-rumped Thornbill","ispublic":1,"isfriend":0,"isfamily":0},{"id":"52480029461","owner":"75299599@N00","secret":"73278a7b1f","server":"65535","farm":66,"title":"Chestnut-rumped Thornbill (Acanthiza uropygialis)","ispublic":1,"isfriend":0,"isfamily":0},{"id":"52456189678","owner":"151677249@N08","secret":"06ee3aa699","server":"65535","farm":66,"title":"Chestnut-rumped Thornbill (Acanthiza uropygialis)","ispublic":1,"isfriend":0,"isfamily":0},{"id":"52449337181","owner":"69947563@N07","secret":"886936665b","server":"65535","farm":66,"title":"Chestnut-rumped Thornbill - Flinton, Western Downs, Queensland, Australia","ispublic":1,"isfriend":0,"isfamily":0},{"id":"52392852775","owner":"117755141@N02","secret":"b86465503a","server":"65535","farm":66,"title":"Chestnut-rumped Thornbill (Acanthiza uropygialis)","ispublic":1,"isfriend":0,"isfamily":0},{"id":"52332010602","owner":"151677249@N08","secret":"86b541d629","server":"65535","farm":66,"title":"Chestnut-rumped Thornbill (Acanthiza uropygialis)","ispublic":1,"isfriend":0,"isfamily":0},{"id":"52326152000","owner":"151677249@N08","secret":"5537525c1f","server":"65535","farm":66,"title":"Chestnut-rumped Thornbill (Acanthiza uropygialis)","ispublic":1,"isfriend":0,"isfamily":0},{"id":"52326137379","owner":"151677249@N08","secret":"164a6eb399","server":"65535","farm":66,"title":"Chestnut-rumped Thornbill (Acanthiza uropygialis)","ispublic":1,"isfriend":0,"isfamily":0},{"id":"52266325778","owner":"194860397@N03","secret":"91d4802637","server":"65535","farm":66,"title":"Chestnut-rumped Thornbill (Acanthiza uropygialis)","ispublic":1,"isfriend":0,"isfamily":0},{"id":"52237317300","owner":"151993772@N02","secret":"7677890a68","server":"65535","farm":66,"title":"Chestnut-rumped Thornbill (Acanthiza uropygialis)","ispublic":1,"isfriend":0,"isfamily":0},{"id":"51718708208","owner":"31350467@N04","secret":"4dfc27d2e9","server":"65535","farm":66,"title":"Thornbill, Chestnut-rumped (Acanthiza uropygialis)","ispublic":1,"isfriend":0,"isfamily":0},{"id":"51561352685","owner":"191621302@N03","secret":"1a9b2c0574","server":"65535","farm":66,"title":"Chestnut-rumped (Thornbill Acanthiza uropygialis)","ispublic":1,"isfriend":0,"isfamily":0},{"id":"51355999628","owner":"37934762@N02","secret":"ac07137906","server":"65535","farm":66,"title":"Chestnut-rumped Thornbill - Acanthiza uropygialis","ispublic":1,"isfriend":0,"isfamily":0},{"id":"51189288443","owner":"132431122@N05","secret":"36aaabcbab","server":"65535","farm":66,"title":"Chestnut-rumped Thornbill","ispublic":1,"isfriend":0,"isfamily":0},{"id":"51189839054","owner":"132431122@N05","secret":"cfdc07c7a9","server":"65535","farm":66,"title":"Chestnut-rumped Thornbill","ispublic":1,"isfriend":0,"isfamily":0},{"id":"51146708780","owner":"37934762@N02","secret":"283c2c6892","server":"65535","farm":66,"title":"Chestnut-rumped Thornbill - Acanthiza uropygialis","ispublic":1,"isfriend":0,"isfamily":0},{"id":"50494007531","owner":"63175631@N02","secret":"db662578f7","server":"65535","farm":66,"title":"Chestnut-rumped Thornbill (Acanthiza uropygialis)_19-06-30_6","ispublic":1,"isfriend":0,"isfamily":0},{"id":"50258136977","owner":"40195635@N03","secret":"bd7384e508","server":"65535","farm":66,"title":"Chestnut-rumped Thornbill (Acanthiza uropygialis)","ispublic":1,"isfriend":0,"isfamily":0},{"id":"50247608531","owner":"34877237@N06","secret":"82c412140e","server":"65535","farm":66,"title":"Chestnut-rumped thornbill","ispublic":1,"isfriend":0,"isfamily":0},{"id":"49965691097","owner":"36424218@N00","secret":"527ffcd47b","server":"65535","farm":66,"title":"Chestnut-rumped Thornbill","ispublic":1,"isfriend":0,"isfamily":0},{"id":"49965690497","owner":"36424218@N00","secret":"99fc5a0c35","server":"65535","farm":66,"title":"Chestnut-rumped Thornbill","ispublic":1,"isfriend":0,"isfamily":0},{"id":"49964910038","owner":"36424218@N00","secret":"6e1c7e11e3","server":"65535","farm":66,"title":"Chestnut-rumped Thornbill","ispublic":1,"isfriend":0,"isfamily":0},{"id":"49965409876","owner":"36424218@N00","secret":"c411314829","server":"65535","farm":66,"title":"Chestnut-rumped Thornbill","ispublic":1,"isfriend":0,"isfamily":0},{"id":"48952153237","owner":"132431122@N05","secret":"8c0d0c598e","server":"65535","farm":66,"title":"Chestnut-rumped Thornbill","ispublic":1,"isfriend":0,"isfamily":0},{"id":"48951410398","owner":"132431122@N05","secret":"2f4efbcd46","server":"65535","farm":66,"title":"Chestnut-rumped Thornbill","ispublic":1,"isfriend":0,"isfamily":0},{"id":"48951954231","owner":"132431122@N05","secret":"c89b909266","server":"65535","farm":66,"title":"Chestnut-rumped Thornbill","ispublic":1,"isfriend":0,"isfamily":0},{"id":"48922682191","owner":"75299599@N00","secret":"7a4665b1a0","server":"65535","farm":66,"title":"Chestnut-rumped Thornbill (Acanthiza uropygialis)","ispublic":1,"isfriend":0,"isfamily":0},{"id":"48883938252","owner":"75299599@N00","secret":"03f519916c","server":"65535","farm":66,"title":"Chestnut-rumped Thornbills (Acanthiza uropygialis)","ispublic":1,"isfriend":0,"isfamily":0},{"id":"48868872277","owner":"50295515@N08","secret":"d525bd9cc2","server":"65535","farm":66,"title":"Chestnut-rumped Thornbill and nest","ispublic":1,"isfriend":0,"isfamily":0},{"id":"48772768838","owner":"75299599@N00","secret":"160d7dff39","server":"65535","farm":66,"title":"Chestnut-rumped Thornbill (Acanthiza uropygialis)","ispublic":1,"isfriend":0,"isfamily":0},{"id":"48246620476","owner":"63175631@N02","secret":"457122e009","server":"65535","farm":66,"title":"Chestnut-rumped Thornbill (Acanthiza uropygialis)","ispublic":1,"isfriend":0,"isfamily":0},{"id":"47926592402","owner":"55310085@N06","secret":"bfbc4e2430","server":"65535","farm":66,"title":"Acanthizidae - Chestnut-rumped Thornbill","ispublic":1,"isfriend":0,"isfamily":0},{"id":"46988137605","owner":"71589894@N00","secret":"bff97f7847","server":"65535","farm":66,"title":"Chestnut-rumped Thornbill","ispublic":1,"isfriend":0,"isfamily":0},{"id":"47114850954","owner":"71589894@N00","secret":"89327f7edd","server":"65535","farm":66,"title":"Chestnut-rumped Thornbill","ispublic":1,"isfriend":0,"isfamily":0},{"id":"46988136715","owner":"71589894@N00","secret":"1c53840dce","server":"65535","farm":66,"title":"Chestnut-rumped Thornbill","ispublic":1,"isfriend":0,"isfamily":0},{"id":"47114850634","owner":"71589894@N00","secret":"95bb2b72f1","server":"65535","farm":66,"title":"Chestnut-rumped Thornbill","ispublic":1,"isfriend":0,"isfamily":0},{"id":"47097173794","owner":"55310085@N06","secret":"c7d5c089e2","server":"65535","farm":66,"title":"Acanthizidae - Chestnut-rumped Thornbill","ispublic":1,"isfriend":0,"isfamily":0},{"id":"40700369533","owner":"131222116@N06","secret":"b6007f129e","server":"65535","farm":66,"title":"Chestnut-rumped Thornbill","ispublic":1,"isfriend":0,"isfamily":0},{"id":"47666911771","owner":"131222116@N06","secret":"9bf544b7b2","server":"65535","farm":66,"title":"Chestnut-rumped Thornbill","ispublic":1,"isfriend":0,"isfamily":0},{"id":"47233264442","owner":"14888671@N02","secret":"7b96149b8e","server":"7884","farm":8,"title":"Chestnut-rumped Thornbill","ispublic":1,"isfriend":0,"isfamily":0},{"id":"39767715793","owner":"16520061@N08","secret":"8f19cc0539","server":"4915","farm":5,"title":"Chestnut-rumped Thornbill (Acanthiza uropygialis)","ispublic":1,"isfriend":0,"isfamily":0},{"id":"45567370175","owner":"117755141@N02","secret":"0268e10d10","server":"4839","farm":5,"title":"Chestnut-rumped Thornbill (Acanthiza uropygialis)","ispublic":1,"isfriend":0,"isfamily":0},{"id":"52716265783","owner":"95482238@N02","secret":"d0598e154d","server":"65535","farm":66,"title":"chestnut-rumped thornbill (Acanthiza uropygialis) at Mount Ive Station in the Gawler Ranges, South Australia","ispublic":1,"isfriend":0,"isfamily":0},{"id":"52716265483","owner":"95482238@N02","secret":"e6d52a5b94","server":"65535","farm":66,"title":"chestnut-rumped thornbill (Acanthiza uropygialis) at Mount Ive Station in the Gawler Ranges, South Australia","ispublic":1,"isfriend":0,"isfamily":0},{"id":"52716209140","owner":"95482238@N02","secret":"dec5aa6d30","server":"65535","farm":66,"title":"chestnut-rumped thornbill (Acanthiza uropygialis) at Mount Ive Station in the Gawler Ranges, South Australia","ispublic":1,"isfriend":0,"isfamily":0},{"id":"52715785036","owner":"95482238@N02","secret":"92b69af416","server":"65535","farm":66,"title":"chestnut-rumped thornbill (Acanthiza uropygialis) at Mount Ive Station in the Gawler Ranges, South Australia","ispublic":1,"isfriend":0,"isfamily":0},{"id":"52329206962","owner":"79081908@N02","secret":"642b0ae518","server":"65535","farm":66,"title":"Chestnut-rumped Thornbill (Acanthiza uropygialis)","ispublic":1,"isfriend":0,"isfamily":0},{"id":"51703758140","owner":"68750880@N06","secret":"630c6ab1a2","server":"65535","farm":66,"title":"Chestnut-rumped Thornbill (Acanthiza uropygialis)","ispublic":1,"isfriend":0,"isfamily":0},{"id":"51104182851","owner":"16520061@N08","secret":"2febee5615","server":"65535","farm":66,"title":"Chestnut-rumped Thornbill (Acanthiza uropygialis)","ispublic":1,"isfriend":0,"isfamily":0},{"id":"50975921771","owner":"191389292@N04","secret":"eb60440cbe","server":"65535","farm":66,"title":"Chestnut-rumped thornbill (Acanthiza uropygialis)","ispublic":1,"isfriend":0,"isfamily":0},{"id":"50975916761","owner":"191389292@N04","secret":"d3b8ee2b96","server":"65535","farm":66,"title":"Chestnut-rumped thornbill (Acanthiza uropygialis)","ispublic":1,"isfriend":0,"isfamily":0},{"id":"50975867241","owner":"191621302@N03","secret":"75fb67dd76","server":"65535","farm":66,"title":"Chestnut-rumped Thornbill (Acanthiza uropygialis)","ispublic":1,"isfriend":0,"isfamily":0},{"id":"50776976773","owner":"129013862@N04","secret":"6a23f0352c","server":"65535","farm":66,"title":"Chestnut-rumped Thornbill (Acanthiza uropygialis)","ispublic":1,"isfriend":0,"isfamily":0},{"id":"50777734296","owner":"129013862@N04","secret":"aa4b57d648","server":"65535","farm":66,"title":"Chestnut-rumped Thornbill (Acanthiza uropygialis)","ispublic":1,"isfriend":0,"isfamily":0},{"id":"50413905486","owner":"164980878@N03","secret":"9e02f6dae5","server":"65535","farm":66,"title":"SBAR3202c","ispublic":1,"isfriend":0,"isfamily":0},{"id":"50413890156","owner":"164980878@N03","secret":"c4e74d88a6","server":"65535","farm":66,"title":"SBAR3218c","ispublic":1,"isfriend":0,"isfamily":0},{"id":"50413084373","owner":"164980878@N03","secret":"9c1ec5f682","server":"65535","farm":66,"title":"SBAR9652","ispublic":1,"isfriend":0,"isfamily":0},{"id":"50357562193","owner":"151677249@N08","secret":"c9727c6008","server":"65535","farm":66,"title":"Chestnut-rumped Thornbill (Acanthiza uropygialis)","ispublic":1,"isfriend":0,"isfamily":0},{"id":"50183575591","owner":"153546415@N07","secret":"12d40200aa","server":"65535","farm":66,"title":"Chestnut-rumped Thornbill - Showing Rump!","ispublic":1,"isfriend":0,"isfamily":0},{"id":"50183834622","owner":"153546415@N07","secret":"23402c3e9c","server":"65535","farm":66,"title":"Chestnut-rumped Thornbill - Showing Rump!","ispublic":1,"isfriend":0,"isfamily":0},{"id":"50183575516","owner":"153546415@N07","secret":"b76695a0bb","server":"65535","farm":66,"title":"Chestnut-rumped Thornbill","ispublic":1,"isfriend":0,"isfamily":0},{"id":"50183031393","owner":"153546415@N07","secret":"12e3b30b81","server":"65535","farm":66,"title":"Chestnut-rumped Thornbill","ispublic":1,"isfriend":0,"isfamily":0},{"id":"50183031318","owner":"153546415@N07","secret":"c1d02142bc","server":"65535","farm":66,"title":"Chestnut-rumped Thornbill - Showing Rump!","ispublic":1,"isfriend":0,"isfamily":0},{"id":"50003788651","owner":"187469698@N05","secret":"e219138c46","server":"65535","farm":66,"title":"874 Chestnut-rumped Thornbill - Andrew Walker 001","ispublic":1,"isfriend":0,"isfamily":0},{"id":"49965409511","owner":"36424218@N00","secret":"29b2d218bd","server":"65535","farm":66,"title":"Chestnut-rumped Thornbill","ispublic":1,"isfriend":0,"isfamily":0},{"id":"48850469631","owner":"151677249@N08","secret":"e822acc139","server":"65535","farm":66,"title":"Chestnut-rumped Thornbill (Acanthiza uropygialis)","ispublic":1,"isfriend":0,"isfamily":0},{"id":"48709373371","owner":"136559856@N06","secret":"c874bd5196","server":"65535","farm":66,"title":"Chestnut-rumped Thornbill [Acanthiza uropygialis]: 1","ispublic":1,"isfriend":0,"isfamily":0},{"id":"48709028158","owner":"136559856@N06","secret":"d4cce44cef","server":"65535","farm":66,"title":"Chestnut-rumped Thornbill [Acanthiza uropygialis]: 2","ispublic":1,"isfriend":0,"isfamily":0},{"id":"48709363846","owner":"136559856@N06","secret":"c6a44f5973","server":"65535","farm":66,"title":"Chestnut-rumped Thornbill [Acanthiza uropygialis]: 3","ispublic":1,"isfriend":0,"isfamily":0},{"id":"48709514352","owner":"136559856@N06","secret":"a203fece66","server":"65535","farm":66,"title":"Chestnut-rumped Thornbill [Acanthiza uropygialis]: 4","ispublic":1,"isfriend":0,"isfamily":0},{"id":"48285761581","owner":"131222116@N06","secret":"490e2f493c","server":"65535","farm":66,"title":"_DSC3511","ispublic":1,"isfriend":0,"isfamily":0},{"id":"48285758151","owner":"131222116@N06","secret":"748c6a5bc1","server":"65535","farm":66,"title":"_DSC3514","ispublic":1,"isfriend":0,"isfamily":0},{"id":"48285859012","owner":"131222116@N06","secret":"f2d9f4f786","server":"65535","farm":66,"title":"_DSC3545","ispublic":1,"isfriend":0,"isfamily":0},{"id":"32820781127","owner":"137103568@N04","secret":"df3dfb3a54","server":"65535","farm":66,"title":"Chestnut-rumped Thornbill (Acanthiza uropygialis)","ispublic":1,"isfriend":0,"isfamily":0},{"id":"46247529195","owner":"151677249@N08","secret":"d07739a536","server":"7835","farm":8,"title":"Chestnut-rumped Thornbill (Acanthiza uropygialis)","ispublic":1,"isfriend":0,"isfamily":0},{"id":"46353183894","owner":"146264908@N07","secret":"facaf6a780","server":"7803","farm":8,"title":"Acanthiza uropygialis 1","ispublic":1,"isfriend":0,"isfamily":0},{"id":"33201691398","owner":"146264908@N07","secret":"c7e682f1fd","server":"7850","farm":8,"title":"Acanthiza uropygialis 2","ispublic":1,"isfriend":0,"isfamily":0},{"id":"46353181244","owner":"146264908@N07","secret":"e842bb2d30","server":"7914","farm":8,"title":"Acanthiza uropygialis 3","ispublic":1,"isfriend":0,"isfamily":0},{"id":"33201688458","owner":"146264908@N07","secret":"766817de6c","server":"7831","farm":8,"title":"Acanthiza uropygialis 4","ispublic":1,"isfriend":0,"isfamily":0},{"id":"46353179174","owner":"146264908@N07","secret":"660e1c8d85","server":"7871","farm":8,"title":"Acanthiza uropygialis 5","ispublic":1,"isfriend":0,"isfamily":0},{"id":"46353177774","owner":"146264908@N07","secret":"1b43f9442e","server":"7840","farm":8,"title":"Acanthiza uropygialis 6","ispublic":1,"isfriend":0,"isfamily":0},{"id":"40111904703","owner":"146264908@N07","secret":"769ded2cf2","server":"7830","farm":8,"title":"Acanthiza uropygialis 7","ispublic":1,"isfriend":0,"isfamily":0},{"id":"46353176164","owner":"146264908@N07","secret":"1140bbb457","server":"7909","farm":8,"title":"Acanthiza uropygialis 8","ispublic":1,"isfriend":0,"isfamily":0},{"id":"40111902743","owner":"146264908@N07","secret":"6f1baeaa30","server":"7838","farm":8,"title":"Acanthiza uropygialis 9","ispublic":1,"isfriend":0,"isfamily":0},{"id":"46264683374","owner":"145043535@N02","secret":"4f3ca542b6","server":"7862","farm":8,"title":"Acanthiza uropygialis 2","ispublic":1,"isfriend":0,"isfamily":0},{"id":"46264682524","owner":"145043535@N02","secret":"e9c3760bfb","server":"7840","farm":8,"title":"Acanthiza uropygialis 3","ispublic":1,"isfriend":0,"isfamily":0},{"id":"45981849774","owner":"146264908@N07","secret":"86a76b7c09","server":"4872","farm":5,"title":"Acanthiza uropygialis 1","ispublic":1,"isfriend":0,"isfamily":0},{"id":"46706447591","owner":"146264908@N07","secret":"f701fe6565","server":"4834","farm":5,"title":"Acanthiza uropygialis 2","ispublic":1,"isfriend":0,"isfamily":0},{"id":"31765132177","owner":"146264908@N07","secret":"84585c2151","server":"7871","farm":8,"title":"Acanthiza uropygialis 3","ispublic":1,"isfriend":0,"isfamily":0},{"id":"46706445041","owner":"146264908@N07","secret":"d365d3d4dd","server":"7910","farm":8,"title":"Acanthiza uropygialis 4","ispublic":1,"isfriend":0,"isfamily":0},{"id":"31765128067","owner":"146264908@N07","secret":"7369788493","server":"7823","farm":8,"title":"Acanthiza uropygialis 5","ispublic":1,"isfriend":0,"isfamily":0},{"id":"46706441521","owner":"146264908@N07","secret":"800fd78287","server":"7826","farm":8,"title":"Acanthiza uropygialis 6","ispublic":1,"isfriend":0,"isfamily":0},{"id":"45791148335","owner":"146264908@N07","secret":"ced51809dc","server":"4874","farm":5,"title":"Acanthiza uropygialis 7","ispublic":1,"isfriend":0,"isfamily":0},{"id":"31765118967","owner":"146264908@N07","secret":"0c3be94d76","server":"7848","farm":8,"title":"Acanthiza uropygialis 9","ispublic":1,"isfriend":0,"isfamily":0},{"id":"45680230005","owner":"14888671@N02","secret":"26a87423f3","server":"4842","farm":5,"title":"Chestnut-rumped Thornbill","ispublic":1,"isfriend":0,"isfamily":0},{"id":"43471528340","owner":"95056107@N03","secret":"b990eeb937","server":"1967","farm":2,"title":"Chestnut-rumped thornbill Acanthiza uropygialis","ispublic":1,"isfriend":0,"isfamily":0}]},"stat":"ok"}