{"photos":{"page":1,"pages":24,"perpage":100,"total":2318,"photo":[{"id":"52687366998","owner":"142134964@N04","secret":"4c3e9d547a","server":"65535","farm":66,"title":"221- Reinita ((Dendroica (Setophaga) pensylvanica))","ispublic":1,"isfriend":0,"isfamily":0},{"id":"52684162697","owner":"124995824@N08","secret":"dc8925da9a","server":"65535","farm":66,"title":"Chestnut-sided Warbler - Setophaga pensylvanica","ispublic":1,"isfriend":0,"isfamily":0},{"id":"52685100660","owner":"124995824@N08","secret":"fc74eb34e4","server":"65535","farm":66,"title":"Chestnut-sided Warbler - Setophaga pensylvanica","ispublic":1,"isfriend":0,"isfamily":0},{"id":"52628752123","owner":"76617062@N08","secret":"d2638d5c06","server":"65535","farm":66,"title":"1.27786 Paruline \u00e0 flancs marron \/ Setophaga pensylvanica \/ Chestnut-sided Warbler","ispublic":1,"isfriend":0,"isfamily":0},{"id":"52623222969","owner":"107784905@N04","secret":"2ffb7b1fbb","server":"65535","farm":66,"title":"Paruline \u00e0 flancs marron - Manuel Antonio\/Puntarenas\/Costa Rica_20211117_005-1","ispublic":1,"isfriend":0,"isfamily":0},{"id":"52622340265","owner":"196786375@N03","secret":"241b4c5fbc","server":"65535","farm":66,"title":"Chestnut-sided Warbler","ispublic":1,"isfriend":0,"isfamily":0},{"id":"52622339535","owner":"196786375@N03","secret":"eb2efa96cd","server":"65535","farm":66,"title":"Chestnut-sided Warbler","ispublic":1,"isfriend":0,"isfamily":0},{"id":"52617627712","owner":"196786375@N03","secret":"2e9cd4ecdb","server":"65535","farm":66,"title":"Chestnut-sided Warbler","ispublic":1,"isfriend":0,"isfamily":0},{"id":"52618406624","owner":"196786375@N03","secret":"934a11261a","server":"65535","farm":66,"title":"Chestnut-sided Warbler","ispublic":1,"isfriend":0,"isfamily":0},{"id":"52617627267","owner":"196786375@N03","secret":"82ecef595b","server":"65535","farm":66,"title":"Chestnut-sided Warbler","ispublic":1,"isfriend":0,"isfamily":0},{"id":"52618574220","owner":"196786375@N03","secret":"d7f2175cf9","server":"65535","farm":66,"title":"Chestnut-sided Warbler","ispublic":1,"isfriend":0,"isfamily":0},{"id":"52580320551","owner":"153973412@N04","secret":"ba5407de46","server":"65535","farm":66,"title":"Chestnut-sided Warbler-Setophaga pensylvanica, Iowa City, IA","ispublic":1,"isfriend":0,"isfamily":0},{"id":"52567966631","owner":"71418112@N00","secret":"b7dfdab7c9","server":"65535","farm":66,"title":"Chestnut -sided warbler","ispublic":1,"isfriend":0,"isfamily":0},{"id":"52541780239","owner":"48938938@N04","secret":"222e6a8a87","server":"65535","farm":66,"title":"Chestnut-sided Warbler_Setophaga pensylvanica_AscanioC-sta Rica_DZ3A6485","ispublic":1,"isfriend":0,"isfamily":0},{"id":"52494350025","owner":"107784905@N04","secret":"be61c97d5d","server":"65535","farm":66,"title":"Paruline \u00e0 flancs marron - Rancho Naturalista\/Cartago\/Costa Rica_20211128_002-1","ispublic":1,"isfriend":0,"isfamily":0},{"id":"52444857441","owner":"23020855@N03","secret":"0b5a0a4d1b","server":"65535","farm":66,"title":"Chestnut-sided Warbler - Catbird Slough, BC","ispublic":1,"isfriend":0,"isfamily":0},{"id":"52429562143","owner":"129051288@N05","secret":"1ef9f3ef42","server":"65535","farm":66,"title":"Paruline \u00e0 flanc marron, Setophaga pensylvanica, Chestnut-sided Warbler","ispublic":1,"isfriend":0,"isfamily":0},{"id":"52411950046","owner":"103722035@N06","secret":"6887197193","server":"0","farm":0,"title":"Chestnut-sided Warbler (Setophaga pensylvanica), Oceano, CA","ispublic":1,"isfriend":0,"isfamily":0},{"id":"52381930188","owner":"128537732@N06","secret":"093a255069","server":"65535","farm":66,"title":"Chestnut-sided Warbler (Setophaga pensylvanica)","ispublic":1,"isfriend":0,"isfamily":0},{"id":"52375283941","owner":"71418112@N00","secret":"5194147e6b","server":"65535","farm":66,"title":"Chestnut sided warbler","ispublic":1,"isfriend":0,"isfamily":0},{"id":"52298727816","owner":"49114357@N08","secret":"3ea54eab4f","server":"65535","farm":66,"title":"Chestnut-sided Warbler","ispublic":1,"isfriend":0,"isfamily":0},{"id":"52346585765","owner":"188615990@N04","secret":"12ce2ee16d","server":"65535","farm":66,"title":"Chestnut-sided Warbler (Setophaga pensylvanica).","ispublic":1,"isfriend":0,"isfamily":0},{"id":"52346289680","owner":"24359172@N02","secret":"40bc807ffa","server":"65535","farm":66,"title":"Chestnut-sided Warbler","ispublic":1,"isfriend":0,"isfamily":0},{"id":"52340973795","owner":"119787485@N07","secret":"b1cdb6e033","server":"65535","farm":66,"title":"Chestnut-sided Warbler (Setophaga pensylvanica) - 20220816-01","ispublic":1,"isfriend":0,"isfamily":0},{"id":"52319090113","owner":"120449047@N06","secret":"fdb26785e5","server":"65535","farm":66,"title":"Chestnut-sided Warbler 1 0f 2","ispublic":1,"isfriend":0,"isfamily":0},{"id":"52311546467","owner":"76617062@N08","secret":"173cf16c21","server":"65535","farm":66,"title":"1.27786 Paruline \u00e0 flancs marron (immature) \/ Setophaga pensylvanica \/ Chestnut-sided Warbler","ispublic":1,"isfriend":0,"isfamily":0},{"id":"52311701360","owner":"61241315@N00","secret":"a85b5a0318","server":"65535","farm":66,"title":"Chestnut-sided Warbler_N1647","ispublic":1,"isfriend":0,"isfamily":0},{"id":"52309312455","owner":"7261670@N03","secret":"1b29d0c210","server":"65535","farm":66,"title":"Chestnut-sided Warbler","ispublic":1,"isfriend":0,"isfamily":0},{"id":"52290797133","owner":"49114357@N08","secret":"1d9c883465","server":"65535","farm":66,"title":"Chestnut-sided Warbler","ispublic":1,"isfriend":0,"isfamily":0},{"id":"52293701912","owner":"162016724@N08","secret":"feecd06299","server":"65535","farm":66,"title":"Setophaga pensylvanica - Chestnut-sided Warbler","ispublic":1,"isfriend":0,"isfamily":0},{"id":"52294685346","owner":"162016724@N08","secret":"d29ae1c577","server":"65535","farm":66,"title":"Setophaga pensylvanica - Chestnut-sided Warbler","ispublic":1,"isfriend":0,"isfamily":0},{"id":"52293631600","owner":"36685968@N00","secret":"4f54f1053d","server":"65535","farm":66,"title":"Chestnut-sided Warbler (Setophaga pensylvanica)","ispublic":1,"isfriend":0,"isfamily":0},{"id":"52288933364","owner":"76617062@N08","secret":"c64ee8030b","server":"65535","farm":66,"title":"1.27786 Paruline \u00e0 flancs marron (immature) \/ Setophaga pensylvanica \/ Chestnut-sided Warbler","ispublic":1,"isfriend":0,"isfamily":0},{"id":"52287321403","owner":"184155060@N04","secret":"18909551bd","server":"65535","farm":66,"title":"32839 Paruline \u00e0 flancs marron \/ Setophaga pensylvanica \/ Chestnut-sided Warbler","ispublic":1,"isfriend":0,"isfamily":0},{"id":"52287581014","owner":"184155060@N04","secret":"ba87310015","server":"65535","farm":66,"title":"32839 Paruline \u00e0 flancs marron \/ Setophaga pensylvanica \/ Chestnut-sided Warbler","ispublic":1,"isfriend":0,"isfamily":0},{"id":"52287797730","owner":"184155060@N04","secret":"a0ba82ac48","server":"65535","farm":66,"title":"32839 Paruline \u00e0 flancs marron \/ Setophaga pensylvanica \/ Chestnut-sided Warbler","ispublic":1,"isfriend":0,"isfamily":0},{"id":"52287577149","owner":"184155060@N04","secret":"fdfafa475f","server":"65535","farm":66,"title":"32839 Paruline \u00e0 flancs marron \/ Setophaga pensylvanica \/ Chestnut-sided Warbler","ispublic":1,"isfriend":0,"isfamily":0},{"id":"52277789324","owner":"36685968@N00","secret":"3001f0a7e8","server":"65535","farm":66,"title":"Chestnut-sided Warbler (Setophaga pensylvanica)","ispublic":1,"isfriend":0,"isfamily":0},{"id":"52257261385","owner":"42264328@N00","secret":"61b9786265","server":"65535","farm":66,"title":"One last warbler","ispublic":1,"isfriend":0,"isfamily":0},{"id":"52227562228","owner":"36685968@N00","secret":"275fd7a5b0","server":"65535","farm":66,"title":"Chestnut-sided Warbler (Setophaga pensylvanica)","ispublic":1,"isfriend":0,"isfamily":0},{"id":"52199827728","owner":"92361032@N05","secret":"ed9fa7a112","server":"65535","farm":66,"title":"Chestnut-sided Warbler \/Paruline \u00e0 flancs marron ( Diane )","ispublic":1,"isfriend":0,"isfamily":0},{"id":"52197891171","owner":"129051288@N05","secret":"b0c36e2d88","server":"65535","farm":66,"title":"Paruline \u00e0 flanc marron, Setophaga pensylvanica, Chestnut-sided Warbler","ispublic":1,"isfriend":0,"isfamily":0},{"id":"52194592446","owner":"146597151@N03","secret":"1b22d85dea","server":"65535","farm":66,"title":"Chestnut-sided Warbler \/ Paruline a\u0300 Flancs marron","ispublic":1,"isfriend":0,"isfamily":0},{"id":"52178787010","owner":"146597151@N03","secret":"7c7936600e","server":"65535","farm":66,"title":"Chestnut-sided Warbler \/ Paruline a\u0300 flancs marron","ispublic":1,"isfriend":0,"isfamily":0},{"id":"52171053458","owner":"8561740@N08","secret":"c97f0f80f0","server":"65535","farm":66,"title":"chestnut-sided warblers","ispublic":1,"isfriend":0,"isfamily":0},{"id":"52171529865","owner":"8561740@N08","secret":"824f1ac6ac","server":"65535","farm":66,"title":"chestnut-sided warblers","ispublic":1,"isfriend":0,"isfamily":0},{"id":"52171055755","owner":"95484108@N07","secret":"d0eeb26238","server":"65535","farm":66,"title":"Paruline \u00e0 flancs marron \/\/ Chestnut-sided Warbler","ispublic":1,"isfriend":0,"isfamily":0},{"id":"52169687734","owner":"91064752@N03","secret":"c2c8d3d748","server":"65535","farm":66,"title":"Chestnut-sided Warbler","ispublic":1,"isfriend":0,"isfamily":0},{"id":"52160955635","owner":"130605131@N08","secret":"3db68f219a","server":"65535","farm":66,"title":"IMG_9348","ispublic":1,"isfriend":0,"isfamily":0},{"id":"52159326503","owner":"65788177@N02","secret":"aa0880f72e","server":"65535","farm":66,"title":"Chestnut-sided Warbler","ispublic":1,"isfriend":0,"isfamily":0},{"id":"52157096985","owner":"32752434@N07","secret":"b2ee6db852","server":"65535","farm":66,"title":"Chestnut-sided Warbler (Setophaga pensylvanica)","ispublic":1,"isfriend":0,"isfamily":0},{"id":"52156277528","owner":"151361315@N06","secret":"886b2a9540","server":"65535","farm":66,"title":"Chestnut-sided Warbler breeding male perched up close on twig \u2022 Fair Haven, NY \u2022 2020","ispublic":1,"isfriend":0,"isfamily":0},{"id":"52156212745","owner":"73654511@N05","secret":"a47319299f","server":"65535","farm":66,"title":"L0A5580-Chestnut-sided Warbler","ispublic":1,"isfriend":0,"isfamily":0},{"id":"52146758992","owner":"95484108@N07","secret":"ab271c686a","server":"65535","farm":66,"title":"Paruline \u00e0 flancs marron \/\/ Chestnut-sided Warbler","ispublic":1,"isfriend":0,"isfamily":0},{"id":"52147646768","owner":"61301322@N08","secret":"4e135fe805","server":"65535","farm":66,"title":"Chestnut-sided Warbler (Unami Creek Valley)","ispublic":1,"isfriend":0,"isfamily":0},{"id":"52146988453","owner":"117307568@N03","secret":"ca26fdaab4","server":"65535","farm":66,"title":"Chestnut-sided Warbler (Setophaga pensylvanica)","ispublic":1,"isfriend":0,"isfamily":0},{"id":"52142076988","owner":"76617062@N08","secret":"8912788e1d","server":"65535","farm":66,"title":"1.27786 Paruline \u00e0 flancs marron \/ Setophaga pensylvanica \/ Chestnut-sided Warbler","ispublic":1,"isfriend":0,"isfamily":0},{"id":"52684959919","owner":"124995824@N08","secret":"325ae2652a","server":"65535","farm":66,"title":"Chestnut-sided Warbler - Setophaga pensylvanica","ispublic":1,"isfriend":0,"isfamily":0},{"id":"52666405733","owner":"136180232@N08","secret":"ae3f81cc7e","server":"65535","farm":66,"title":"Chestnut-sided Warbler (Setophaga pensylvanica) JTE_2286","ispublic":1,"isfriend":0,"isfamily":0},{"id":"52656691801","owner":"136180232@N08","secret":"d271f6dc4d","server":"65535","farm":66,"title":"Chestnut-sided Warbler (Setophaga pensylvanica) JTD_9892","ispublic":1,"isfriend":0,"isfamily":0},{"id":"52656562553","owner":"12639178@N07","secret":"7f7174637e","server":"65535","farm":66,"title":"Gelbscheitel-Walds\u00e4nger","ispublic":1,"isfriend":0,"isfamily":0},{"id":"52495538094","owner":"64557331@N04","secret":"637861f7bd","server":"65535","farm":66,"title":"Chestnut-Sided Warbler - (Setophaga pensylvanica)-08282022_3","ispublic":1,"isfriend":0,"isfamily":0},{"id":"52495807618","owner":"64557331@N04","secret":"f077068965","server":"65535","farm":66,"title":"Chestnut-Sided Warbler - (Setophaga pensylvanica)-08282022_2","ispublic":1,"isfriend":0,"isfamily":0},{"id":"52495252651","owner":"64557331@N04","secret":"08837ffec6","server":"65535","farm":66,"title":"Chestnut-Sided Warbler - (Setophaga pensylvanica)-08282022","ispublic":1,"isfriend":0,"isfamily":0},{"id":"52495252171","owner":"64557331@N04","secret":"384d5eb01a","server":"65535","farm":66,"title":"Chestnut-Sided Warbler - (Setophaga pensylvanica)_08312022","ispublic":1,"isfriend":0,"isfamily":0},{"id":"52495721600","owner":"64557331@N04","secret":"ff99408bef","server":"65535","farm":66,"title":"Chestnut-Sided Warbler - (Setophaga pensylvanica)_09272022_4","ispublic":1,"isfriend":0,"isfamily":0},{"id":"52495801903","owner":"64557331@N04","secret":"2c8b531493","server":"65535","farm":66,"title":"Chestnut-Sided Warbler - (Setophaga pensylvanica)_09272022_3","ispublic":1,"isfriend":0,"isfamily":0},{"id":"52495246551","owner":"64557331@N04","secret":"4d862d4120","server":"65535","farm":66,"title":"Chestnut-Sided Warbler - (Setophaga pensylvanica)_09272022","ispublic":1,"isfriend":0,"isfamily":0},{"id":"52486981592","owner":"39445433@N02","secret":"7d5c39d9f7","server":"65535","farm":66,"title":"Chestnut-Sided Warbler","ispublic":1,"isfriend":0,"isfamily":0},{"id":"52442287831","owner":"59619528@N04","secret":"8fea0f5ba8","server":"65535","farm":66,"title":"Chestnut-sided Warbler (Setophaga pensylvanica)","ispublic":1,"isfriend":0,"isfamily":0},{"id":"52441774427","owner":"59619528@N04","secret":"99f1dfecd9","server":"65535","farm":66,"title":"Chestnut-sided Warbler (Setophaga pensylvanica)","ispublic":1,"isfriend":0,"isfamily":0},{"id":"52442555869","owner":"59619528@N04","secret":"ddda2c695f","server":"65535","farm":66,"title":"Chestnut-sided Warbler (Setophaga pensylvanica)","ispublic":1,"isfriend":0,"isfamily":0},{"id":"52441774262","owner":"59619528@N04","secret":"f91eb3c816","server":"65535","farm":66,"title":"Chestnut-sided Warbler (Setophaga pensylvanica)","ispublic":1,"isfriend":0,"isfamily":0},{"id":"52442287026","owner":"59619528@N04","secret":"6ea20bb593","server":"65535","farm":66,"title":"Chestnut-sided Warbler (Setophaga pensylvanica)","ispublic":1,"isfriend":0,"isfamily":0},{"id":"52442731415","owner":"59619528@N04","secret":"aefb56161a","server":"65535","farm":66,"title":"Chestnut-sided Warbler (Setophaga pensylvanica)","ispublic":1,"isfriend":0,"isfamily":0},{"id":"52442803043","owner":"59619528@N04","secret":"80c3e43a97","server":"65535","farm":66,"title":"Chestnut-sided Warbler (Setophaga pensylvanica)","ispublic":1,"isfriend":0,"isfamily":0},{"id":"52442802448","owner":"59619528@N04","secret":"dab065e01a","server":"65535","farm":66,"title":"Chestnut-sided Warbler (Setophaga pensylvanica)","ispublic":1,"isfriend":0,"isfamily":0},{"id":"52417966452","owner":"39177293@N03","secret":"2bb8c67b95","server":"65535","farm":66,"title":"Chestnut-sided Warbler with an Earwig","ispublic":1,"isfriend":0,"isfamily":0},{"id":"52397611806","owner":"71989271@N06","secret":"168ee22e95","server":"65535","farm":66,"title":"Chestnut-sided Warbler (f)(Setophaga pensylvanica)","ispublic":1,"isfriend":0,"isfamily":0},{"id":"52397611816","owner":"71989271@N06","secret":"a1a754ae05","server":"65535","farm":66,"title":"Chestnut-sided Warbler (f)(Setophaga pensylvanica)","ispublic":1,"isfriend":0,"isfamily":0},{"id":"52240449515","owner":"193010058@N08","secret":"ab67e402ef","server":"65535","farm":66,"title":"Chestnut-sided Warbler (Setophaga pensylvanica)","ispublic":1,"isfriend":0,"isfamily":0},{"id":"52239967183","owner":"193010058@N08","secret":"3c20f72b1b","server":"65535","farm":66,"title":"Chestnut-sided Warbler (Setophaga pensylvanica)","ispublic":1,"isfriend":0,"isfamily":0},{"id":"52240439905","owner":"193010058@N08","secret":"4731f51522","server":"65535","farm":66,"title":"Chestnut-sided Warbler (Setophaga pensylvanica)","ispublic":1,"isfriend":0,"isfamily":0},{"id":"52238970707","owner":"193010058@N08","secret":"3b1cc2a4d4","server":"65535","farm":66,"title":"Chestnut-sided Warbler (Setophaga pensylvanica)","ispublic":1,"isfriend":0,"isfamily":0},{"id":"52236650749","owner":"67306066@N03","secret":"cca2b35b2e","server":"65535","farm":66,"title":"Chestnut-sided Warbler (Setophaga pensylvanica)","ispublic":1,"isfriend":0,"isfamily":0},{"id":"52217768477","owner":"48014585@N00","secret":"8690658983","server":"65535","farm":66,"title":"Chestnut-sided Warbler","ispublic":1,"isfriend":0,"isfamily":0},{"id":"52217768322","owner":"48014585@N00","secret":"686747e9fb","server":"65535","farm":66,"title":"Chestnut-sided Warbler","ispublic":1,"isfriend":0,"isfamily":0},{"id":"52217717898","owner":"48014585@N00","secret":"50f8dcd221","server":"65535","farm":66,"title":"Chestnut-sided Warbler","ispublic":1,"isfriend":0,"isfamily":0},{"id":"52217973439","owner":"48014585@N00","secret":"4eb03ec666","server":"65535","farm":66,"title":"Chestnut-sided Warbler","ispublic":1,"isfriend":0,"isfamily":0},{"id":"52218185180","owner":"48014585@N00","secret":"30a2f61632","server":"65535","farm":66,"title":"Chestnut-sided Warbler","ispublic":1,"isfriend":0,"isfamily":0},{"id":"52217973209","owner":"48014585@N00","secret":"0079ba1315","server":"65535","farm":66,"title":"Chestnut-sided Warbler","ispublic":1,"isfriend":0,"isfamily":0},{"id":"52217972909","owner":"48014585@N00","secret":"af81912ab1","server":"65535","farm":66,"title":"Chestnut-sided Warbler","ispublic":1,"isfriend":0,"isfamily":0},{"id":"52210500875","owner":"14233971@N04","secret":"60c1bfa975","server":"65535","farm":66,"title":"Chestnut-sided Warbler","ispublic":1,"isfriend":0,"isfamily":0},{"id":"52207649483","owner":"184155060@N04","secret":"f8ca6fbc06","server":"65535","farm":66,"title":"32839 Paruline \u00e0 flancs marron (m\u00e2le) \/ Setophaga pensylvanica \/ Chestnut-sided Warbler","ispublic":1,"isfriend":0,"isfamily":0},{"id":"52207897259","owner":"184155060@N04","secret":"dfdcda64fc","server":"65535","farm":66,"title":"32839 Paruline \u00e0 flancs marron (m\u00e2le) \/ Setophaga pensylvanica \/ Chestnut-sided Warbler","ispublic":1,"isfriend":0,"isfamily":0},{"id":"52207649473","owner":"184155060@N04","secret":"83e4e1af9b","server":"65535","farm":66,"title":"32839 Paruline \u00e0 flancs marron (m\u00e2le) \/ Setophaga pensylvanica \/ Chestnut-sided Warbler","ispublic":1,"isfriend":0,"isfamily":0},{"id":"52207627741","owner":"184155060@N04","secret":"bd670f4864","server":"65535","farm":66,"title":"32839 Paruline \u00e0 flancs marron (m\u00e2le) \/ Setophaga pensylvanica \/ Chestnut-sided Warbler","ispublic":1,"isfriend":0,"isfamily":0},{"id":"52160466726","owner":"130605131@N08","secret":"f98389fc38","server":"65535","farm":66,"title":"IMG_9349","ispublic":1,"isfriend":0,"isfamily":0},{"id":"52153156209","owner":"39177293@N03","secret":"de070f0245","server":"65535","farm":66,"title":"Chestnut-sided Warbler","ispublic":1,"isfriend":0,"isfamily":0},{"id":"52152913656","owner":"39177293@N03","secret":"51d6062ecb","server":"65535","farm":66,"title":"Chestnut-sided Warbler","ispublic":1,"isfriend":0,"isfamily":0}]},"stat":"ok"}