{"photos":{"page":1,"pages":43,"perpage":100,"total":4279,"photo":[{"id":"52718560015","owner":"38514062@N03","secret":"bd6d5389cb","server":"65535","farm":66,"title":"Chipping Sparrow (Spizella passerina)","ispublic":1,"isfriend":0,"isfamily":0},{"id":"52702968252","owner":"8605287@N03","secret":"acd0f130e5","server":"65535","farm":66,"title":"Passerellidae: Spizella passerina - Chipping Sparrow","ispublic":1,"isfriend":0,"isfamily":0},{"id":"52693901862","owner":"42415395@N07","secret":"297c6d1779","server":"65535","farm":66,"title":"Chipping Sparrow (Spizella passerina); Santa Fe National Forest, NM, Thompson Ridge [Lou Feltz]","ispublic":1,"isfriend":0,"isfamily":0},{"id":"52694486568","owner":"36013467@N07","secret":"af19b24584","server":"65535","farm":66,"title":"Chipping Sparrow (Spizella passerina)","ispublic":1,"isfriend":0,"isfamily":0},{"id":"52691163405","owner":"39511843@N07","secret":"898e1d5f7e","server":"65535","farm":66,"title":"20230215-Chipping Sparrow (Spizella passerina)-2-3-Edit","ispublic":1,"isfriend":0,"isfamily":0},{"id":"52690747876","owner":"39511843@N07","secret":"26b81353ae","server":"65535","farm":66,"title":"20230215-IMG_0004-Edit-Edit","ispublic":1,"isfriend":0,"isfamily":0},{"id":"52689936046","owner":"33610210@N05","secret":"ef113bd41b","server":"65535","farm":66,"title":"Chipping Sparrow, Spizella passerina","ispublic":1,"isfriend":0,"isfamily":0},{"id":"52689344137","owner":"33610210@N05","secret":"ce8a3304b0","server":"65535","farm":66,"title":"Chipping Sparrow, Spizella passerina","ispublic":1,"isfriend":0,"isfamily":0},{"id":"52681888087","owner":"68756708@N04","secret":"ae14bbeeac","server":"65535","farm":66,"title":"Eastern Chipping Sparrow (Spizella passerina passerina)","ispublic":1,"isfriend":0,"isfamily":0},{"id":"52674888845","owner":"165841515@N03","secret":"d88e687748","server":"65535","farm":66,"title":"Bruant familier \/ Chipping Sparrow \/ (Spizella passerina)","ispublic":1,"isfriend":0,"isfamily":0},{"id":"52673950567","owner":"165841515@N03","secret":"1e0d8c77c5","server":"65535","farm":66,"title":"Bruant familier \/ Chipping Sparrow \/ (Spizella passerina)","ispublic":1,"isfriend":0,"isfamily":0},{"id":"52674887845","owner":"165841515@N03","secret":"356eb3af68","server":"65535","farm":66,"title":"Bruant familier \/ Chipping Sparrow \/ (Spizella passerina)","ispublic":1,"isfriend":0,"isfamily":0},{"id":"52674887400","owner":"165841515@N03","secret":"99c3e84413","server":"65535","farm":66,"title":"Bruant familier \/ Chipping Sparrow \/ (Spizella passerina)","ispublic":1,"isfriend":0,"isfamily":0},{"id":"52670667415","owner":"181824639@N02","secret":"14a532d2c2","server":"65535","farm":66,"title":"Bruant familier ( Spizella passerina )","ispublic":1,"isfriend":0,"isfamily":0},{"id":"52667505696","owner":"48014585@N00","secret":"b9f9b5088b","server":"65535","farm":66,"title":"Chipping Sparrow","ispublic":1,"isfriend":0,"isfamily":0},{"id":"52667796974","owner":"48014585@N00","secret":"cf47313783","server":"65535","farm":66,"title":"Chipping Sparrow","ispublic":1,"isfriend":0,"isfamily":0},{"id":"52667796819","owner":"48014585@N00","secret":"3bd1a3912c","server":"65535","farm":66,"title":"Chipping Sparrow","ispublic":1,"isfriend":0,"isfamily":0},{"id":"52662946347","owner":"8378957@N02","secret":"32376018e9","server":"65535","farm":66,"title":"Chipping Sparrow","ispublic":1,"isfriend":0,"isfamily":0},{"id":"52645184018","owner":"8378957@N02","secret":"be2e1266af","server":"65535","farm":66,"title":"Chipping Sparrow","ispublic":1,"isfriend":0,"isfamily":0},{"id":"52634612329","owner":"103722035@N06","secret":"2fa314f88c","server":"0","farm":0,"title":"Chipping Sparrow (Spizella passerina), Laguna Lake, San Luis Obispo, CA","ispublic":1,"isfriend":0,"isfamily":0},{"id":"52626717161","owner":"61135968@N00","secret":"5f82f6d5e3","server":"65535","farm":66,"title":"Sparrow","ispublic":1,"isfriend":0,"isfamily":0},{"id":"52606140198","owner":"33665418@N06","secret":"72425decf8","server":"65535","farm":66,"title":"Little Sparrow","ispublic":1,"isfriend":0,"isfamily":0},{"id":"52597028726","owner":"33610210@N05","secret":"7e43582241","server":"65535","farm":66,"title":"Chipping Sparrow, Spizella passerina","ispublic":1,"isfriend":0,"isfamily":0},{"id":"52588612520","owner":"24379925@N08","secret":"885176c909","server":"65535","farm":66,"title":"CHIPPING SPARROW","ispublic":1,"isfriend":0,"isfamily":0},{"id":"52583223466","owner":"76288515@N07","secret":"bb685aa7e7","server":"65535","farm":66,"title":"Chipping Sparrow Spizella passerina","ispublic":1,"isfriend":0,"isfamily":0},{"id":"52583737748","owner":"76288515@N07","secret":"88aff3881e","server":"65535","farm":66,"title":"Chipping Sparrow Spizella passerina","ispublic":1,"isfriend":0,"isfamily":0},{"id":"52583662295","owner":"76288515@N07","secret":"895be61e47","server":"65535","farm":66,"title":"Chipping Sparrow Spizella passerina","ispublic":1,"isfriend":0,"isfamily":0},{"id":"52582758992","owner":"76288515@N07","secret":"7221207cd2","server":"65535","farm":66,"title":"Chipping Sparrow Spizella passerina","ispublic":1,"isfriend":0,"isfamily":0},{"id":"52582758962","owner":"76288515@N07","secret":"7442c78698","server":"65535","farm":66,"title":"Chipping Sparrow Spizella passerina","ispublic":1,"isfriend":0,"isfamily":0},{"id":"52583485799","owner":"76288515@N07","secret":"7147b2c9f7","server":"65535","farm":66,"title":"Chipping Sparrow Spizella passerina","ispublic":1,"isfriend":0,"isfamily":0},{"id":"52582758907","owner":"76288515@N07","secret":"597357c4ae","server":"65535","farm":66,"title":"Chipping Sparrow Spizella passerina","ispublic":1,"isfriend":0,"isfamily":0},{"id":"52583662135","owner":"76288515@N07","secret":"fc86cfa9b2","server":"65535","farm":66,"title":"Chipping Sparrow Spizella passerina","ispublic":1,"isfriend":0,"isfamily":0},{"id":"52582115813","owner":"28764859@N08","secret":"bb8ca40550","server":"65535","farm":66,"title":"chipping sparrow in snow","ispublic":1,"isfriend":0,"isfamily":0},{"id":"52580842393","owner":"153973412@N04","secret":"15ff00e338","server":"65535","farm":66,"title":"Chipping Sparrow-Spizella passerina, North English, IA","ispublic":1,"isfriend":0,"isfamily":0},{"id":"52454069299","owner":"49114357@N08","secret":"a6e39faa35","server":"65535","farm":66,"title":"Chipping Sparrow","ispublic":1,"isfriend":0,"isfamily":0},{"id":"52556182722","owner":"38514062@N03","secret":"bd3d49209a","server":"65535","farm":66,"title":"Chipping Sparrow (Spizella passerina)","ispublic":1,"isfriend":0,"isfamily":0},{"id":"52555589783","owner":"23711298@N07","secret":"c59ef2aa4c","server":"65535","farm":66,"title":"Chipping Sparrow, Minnesota, Ramsey County- White Bear Lake, Tamarack Nature Center","ispublic":1,"isfriend":0,"isfamily":0},{"id":"52555052216","owner":"23711298@N07","secret":"7a64777150","server":"65535","farm":66,"title":"Chipping Sparrow, Minnesota, Ramsey County- White Bear Lake, Tamarack Nature Center","ispublic":1,"isfriend":0,"isfamily":0},{"id":"52542182918","owner":"124995824@N08","secret":"71f157bd17","server":"65535","farm":66,"title":"Chipping Sparrow - Spizella passerina","ispublic":1,"isfriend":0,"isfamily":0},{"id":"52454046319","owner":"49114357@N08","secret":"db32dc6536","server":"65535","farm":66,"title":"Chipping Sparrow","ispublic":1,"isfriend":0,"isfamily":0},{"id":"52513404955","owner":"39445433@N02","secret":"3399149a57","server":"65535","farm":66,"title":"Chipping Sparrow","ispublic":1,"isfriend":0,"isfamily":0},{"id":"52512801076","owner":"39445433@N02","secret":"56cd0c27fd","server":"65535","farm":66,"title":"Chipping SParrows","ispublic":1,"isfriend":0,"isfamily":0},{"id":"52510929494","owner":"124995824@N08","secret":"94ac0e1812","server":"65535","farm":66,"title":"Chipping Sparrow - Spizella passerina","ispublic":1,"isfriend":0,"isfamily":0},{"id":"52501838654","owner":"45083607@N06","secret":"767e766446","server":"65535","farm":66,"title":"Out of the Nest","ispublic":1,"isfriend":0,"isfamily":0},{"id":"52499901487","owner":"57126723@N07","secret":"aac9fb0802","server":"65535","farm":66,"title":"Chipping Sparrow\u2014Spizella passerina\u2014Emberizidae\u2014York River State Park Williamsburg Virginia-5393","ispublic":1,"isfriend":0,"isfamily":0},{"id":"52499901452","owner":"57126723@N07","secret":"11ce0b00d8","server":"65535","farm":66,"title":"Chipping Sparrow\u2014Spizella passerina\u2014Emberizidae\u2014York River State Park Williamsburg Virginia-5396","ispublic":1,"isfriend":0,"isfamily":0},{"id":"52500390176","owner":"57126723@N07","secret":"f320e2168c","server":"65535","farm":66,"title":"Chipping Sparrow\u2014Spizella passerina\u2014Emberizidae\u2014York River State Park Williamsburg Virginia-5395","ispublic":1,"isfriend":0,"isfamily":0},{"id":"52494890762","owner":"9243885@N07","secret":"4e3eec3165","server":"65535","farm":66,"title":"2022_07_02_5DMk4_70283","ispublic":1,"isfriend":0,"isfamily":0},{"id":"52494326417","owner":"39511843@N07","secret":"6b9bda7b8f","server":"65535","farm":66,"title":"Chipping Sparrow (Spizella passerina)-2-","ispublic":1,"isfriend":0,"isfamily":0},{"id":"52495281965","owner":"39511843@N07","secret":"db84fb0ccf","server":"65535","farm":66,"title":"Chipping Sparrow (Spizella passerina)-3-","ispublic":1,"isfriend":0,"isfamily":0},{"id":"52495362888","owner":"39511843@N07","secret":"efef86b5ba","server":"65535","farm":66,"title":"Chipping Sparrow (Spizella passerina)-4-","ispublic":1,"isfriend":0,"isfamily":0},{"id":"52491329333","owner":"20058054@N00","secret":"4b9ef4cdef","server":"65535","farm":66,"title":"Chipping Sparrow","ispublic":1,"isfriend":0,"isfamily":0},{"id":"52458980679","owner":"130605131@N08","secret":"7ce9b0b490","server":"65535","farm":66,"title":"IMG_2601","ispublic":1,"isfriend":0,"isfamily":0},{"id":"52458718151","owner":"130605131@N08","secret":"6368be6974","server":"65535","farm":66,"title":"IMG_2600","ispublic":1,"isfriend":0,"isfamily":0},{"id":"52457681396","owner":"92361032@N05","secret":"e8f30470f4","server":"65535","farm":66,"title":"Chipping Sparrow \/ Bruant familier  ( Diane )","ispublic":1,"isfriend":0,"isfamily":0},{"id":"52450991652","owner":"188156748@N07","secret":"859d6ef958","server":"65535","farm":66,"title":"Chipping Sparrow - Bruant Familier - Spizella passerina  2265 (1)-SharpenAI-Standard copy.jpgS","ispublic":1,"isfriend":0,"isfamily":0},{"id":"52450991622","owner":"188156748@N07","secret":"1918151799","server":"65535","farm":66,"title":"Chipping Sparrow - Bruant Familier - Spizella passerina  2265 (2)-SharpenAI-Standard copy.jpgS","ispublic":1,"isfriend":0,"isfamily":0},{"id":"52451959500","owner":"188156748@N07","secret":"b67f4f26a9","server":"65535","farm":66,"title":"Chipping Sparrow - Bruant Familier - Spizella passerina  2265 (9)-SharpenAI-Standard copy.jpgS","ispublic":1,"isfriend":0,"isfamily":0},{"id":"52452032528","owner":"188156748@N07","secret":"08259f01e2","server":"65535","farm":66,"title":"Chipping Sparrow - Bruant Familier - Spizella passerina 1147 (2)-SharpenAI-Standard copy.jpgS","ispublic":1,"isfriend":0,"isfamily":0},{"id":"52451959460","owner":"188156748@N07","secret":"4b03deb8c5","server":"65535","farm":66,"title":"Chipping Sparrow - Bruant Familier - Spizella passerina 1147 (1)-SharpenAI-Standard copy.jpgS","ispublic":1,"isfriend":0,"isfamily":0},{"id":"52451784664","owner":"188156748@N07","secret":"b4bd3fe64d","server":"65535","farm":66,"title":"Chipping Sparrow - Bruant Familier - Spizella passerina 1147 (3)-SharpenAI-Standard copy.jpgS","ispublic":1,"isfriend":0,"isfamily":0},{"id":"52418760884","owner":"39177293@N03","secret":"08286a46e4","server":"65535","farm":66,"title":"Chipping Sparrow","ispublic":1,"isfriend":0,"isfamily":0},{"id":"52412824122","owner":"188156748@N07","secret":"878e95f507","server":"65535","farm":66,"title":"Chipping Sparrow - Bruant Familier - Spizella passerina 9606-SharpenAI-Standard copy.jpgS","ispublic":1,"isfriend":0,"isfamily":0},{"id":"52413781360","owner":"188156748@N07","secret":"1f38aabfaf","server":"65535","farm":66,"title":"Chipping Sparrow - Bruant Familier - Spizella passerina 9613 (9)-SharpenAI-Standard copy.jpgS","ispublic":1,"isfriend":0,"isfamily":0},{"id":"52413335871","owner":"188156748@N07","secret":"28fe07611e","server":"65535","farm":66,"title":"Chipping Sparrow - Bruant Familier -Spizella passerina 9613 (7)-SharpenAI-Standard copy.jpgS","ispublic":1,"isfriend":0,"isfamily":0},{"id":"52409303725","owner":"23711298@N07","secret":"245a03ef55","server":"65535","farm":66,"title":"Chipping Sparrow, Minnesota. Ramsey County- White Bear Lake, Tamarack Nature Center","ispublic":1,"isfriend":0,"isfamily":0},{"id":"52401110642","owner":"128958343@N06","secret":"0f76aa1caf","server":"65535","farm":66,"title":"Chipping sparrow (juvenile) - Bruant familier - Spizella passerina","ispublic":1,"isfriend":0,"isfamily":0},{"id":"52400922460","owner":"38489797@N00","secret":"9c658d7363","server":"65535","farm":66,"title":"Chipping sparrow","ispublic":1,"isfriend":0,"isfamily":0},{"id":"52399541513","owner":"181824639@N02","secret":"d00b7cd769","server":"65535","farm":66,"title":"Bruant familier ( Spizella passerina )","ispublic":1,"isfriend":0,"isfamily":0},{"id":"52390481599","owner":"168495655@N07","secret":"c219870002","server":"65535","farm":66,"title":"Bruant familier - Spizella passerina - Chipping Sparrow","ispublic":1,"isfriend":0,"isfamily":0},{"id":"52388425225","owner":"188156748@N07","secret":"8735bef3f3","server":"65535","farm":66,"title":"Chipping Sparrow - Bruant Familier 8046 (16)-SharpenAI-Standard copy.jpgS","ispublic":1,"isfriend":0,"isfamily":0},{"id":"52385651793","owner":"188156748@N07","secret":"69dabdec3f","server":"65535","farm":66,"title":"Chipping Sparrow - Bruant Familier 7660 (1)-SharpenAI-Standard copy.jpgS","ispublic":1,"isfriend":0,"isfamily":0},{"id":"52384479997","owner":"188156748@N07","secret":"574bcfbb34","server":"65535","farm":66,"title":"Chipping Sparrow - Bruant Familier 7660 (2)-SharpenAI-Standard copy.jpgS","ispublic":1,"isfriend":0,"isfamily":0},{"id":"52365617074","owner":"24608578@N00","secret":"c37dbb6a53","server":"65535","farm":66,"title":"Chipping sparrow (Spizella passerina)","ispublic":1,"isfriend":0,"isfamily":0},{"id":"52365617024","owner":"24608578@N00","secret":"15803df50c","server":"65535","farm":66,"title":"Chipping sparrow (Spizella passerina)","ispublic":1,"isfriend":0,"isfamily":0},{"id":"52365728585","owner":"24608578@N00","secret":"d17958fcd0","server":"65535","farm":66,"title":"Chipping sparrow (Spizella passerina)","ispublic":1,"isfriend":0,"isfamily":0},{"id":"52362973498","owner":"196264892@N08","secret":"f49d45b32b","server":"65535","farm":66,"title":"Chipping Sparrow","ispublic":1,"isfriend":0,"isfamily":0},{"id":"52361801332","owner":"196264892@N08","secret":"96800dc877","server":"65535","farm":66,"title":"Chipping Sparrow","ispublic":1,"isfriend":0,"isfamily":0},{"id":"52362741471","owner":"196264892@N08","secret":"4b04339989","server":"65535","farm":66,"title":"Chipping Sparrow","ispublic":1,"isfriend":0,"isfamily":0},{"id":"52357578447","owner":"39445433@N02","secret":"4a94f6f096","server":"65535","farm":66,"title":"Chipping Sparrow","ispublic":1,"isfriend":0,"isfamily":0},{"id":"52337631972","owner":"125645386@N04","secret":"9d13cf3449","server":"65535","farm":66,"title":"Chipping Sparrow - Bruant familier - Spizella passerina","ispublic":1,"isfriend":0,"isfamily":0},{"id":"52338592871","owner":"125645386@N04","secret":"97295c8147","server":"65535","farm":66,"title":"Chipping Sparrow - Bruant familier - Spizella passerina","ispublic":1,"isfriend":0,"isfamily":0},{"id":"52316800722","owner":"196264892@N08","secret":"86dbfd25dd","server":"65535","farm":66,"title":"Chipping Sparrow","ispublic":1,"isfriend":0,"isfamily":0},{"id":"52298530348","owner":"145466593@N08","secret":"0031fc6e32","server":"65535","farm":66,"title":"Chipping Sparrow","ispublic":1,"isfriend":0,"isfamily":0},{"id":"52288335958","owner":"196264892@N08","secret":"f3d6b0b02f","server":"65535","farm":66,"title":"Chipping Sparrow","ispublic":1,"isfriend":0,"isfamily":0},{"id":"52287357622","owner":"196264892@N08","secret":"c9d3a516b1","server":"65535","farm":66,"title":"Chipping Sparrow 2","ispublic":1,"isfriend":0,"isfamily":0},{"id":"52281222620","owner":"128958343@N06","secret":"07a3118cee","server":"65535","farm":66,"title":"Chipping sparrow (juvenile) - Bruant familier - Spizella passerina","ispublic":1,"isfriend":0,"isfamily":0},{"id":"52668011428","owner":"48014585@N00","secret":"1d598bd558","server":"65535","farm":66,"title":"Chipping Sparrow","ispublic":1,"isfriend":0,"isfamily":0},{"id":"52667009187","owner":"48014585@N00","secret":"003e063199","server":"65535","farm":66,"title":"Chipping Sparrow","ispublic":1,"isfriend":0,"isfamily":0},{"id":"52598605873","owner":"109690096@N08","secret":"f03c7da6a6","server":"65535","farm":66,"title":"Chipping Sparrow","ispublic":1,"isfriend":0,"isfamily":0},{"id":"52583662265","owner":"76288515@N07","secret":"1a7b65467b","server":"65535","farm":66,"title":"Chipping Sparrow Spizella passerina","ispublic":1,"isfriend":0,"isfamily":0},{"id":"52583223291","owner":"76288515@N07","secret":"e12bb52cd8","server":"65535","farm":66,"title":"Chipping Sparrow Spizella passerina","ispublic":1,"isfriend":0,"isfamily":0},{"id":"52552912134","owner":"128958343@N06","secret":"3f0a810ba4","server":"65535","farm":66,"title":"Chipping sparrows - Bruants familiers - Spizella passerina","ispublic":1,"isfriend":0,"isfamily":0},{"id":"52514586791","owner":"95721592@N00","secret":"f6384f3aa7","server":"65535","farm":66,"title":"Chipping Sparrow","ispublic":1,"isfriend":0,"isfamily":0},{"id":"52505687716","owner":"181824639@N02","secret":"96905feb1c","server":"65535","farm":66,"title":"Bruant familier juv\u00e9nile ( Spizella passerina )","ispublic":1,"isfriend":0,"isfamily":0},{"id":"52495179590","owner":"39511843@N07","secret":"d89b59af08","server":"65535","farm":66,"title":"Chipping Sparrow (Spizella passerina)-1-","ispublic":1,"isfriend":0,"isfamily":0},{"id":"52395634356","owner":"153952248@N02","secret":"f6d52a8915","server":"65535","farm":66,"title":"20190519134345","ispublic":1,"isfriend":0,"isfamily":0},{"id":"52336280890","owner":"181824639@N02","secret":"61510018d4","server":"65535","farm":66,"title":"Bruant familier ( Spizella passerina )","ispublic":1,"isfriend":0,"isfamily":0},{"id":"52329865905","owner":"132792632@N08","secret":"a5a0897a2a","server":"65535","farm":66,"title":"Bruant familier  Chipping Sparrow - Spizella passerina","ispublic":1,"isfriend":0,"isfamily":0},{"id":"52286380399","owner":"187124972@N03","secret":"d37a613347","server":"65535","farm":66,"title":"BRUANT FAMILIER \/ CHIPPING SPARROW (Spizella passerina)","ispublic":1,"isfriend":0,"isfamily":0}]},"stat":"ok"}