{"photos":{"page":1,"pages":12,"perpage":100,"total":1119,"photo":[{"id":"52689414287","owner":"33610210@N05","secret":"8e748ce582","server":"65535","farm":66,"title":"Clay-colored Sparrow, Spizella pallida","ispublic":1,"isfriend":0,"isfamily":0},{"id":"52647209781","owner":"39617069@N08","secret":"e5eff7d933","server":"65535","farm":66,"title":"Clay-colored Sparrow","ispublic":1,"isfriend":0,"isfamily":0},{"id":"52643867553","owner":"135315828@N06","secret":"5e54e80dd3","server":"65535","farm":66,"title":"clay-colored sparrow and american tree sparrow","ispublic":1,"isfriend":0,"isfamily":0},{"id":"52642889187","owner":"135315828@N06","secret":"6c9bce4b89","server":"65535","farm":66,"title":"clay-colored sparrow and american tree sparrow","ispublic":1,"isfriend":0,"isfamily":0},{"id":"52614575947","owner":"195041250@N03","secret":"a7e2140946","server":"65535","farm":66,"title":"Clay-coloured Sparrow","ispublic":1,"isfriend":0,"isfamily":0},{"id":"52582758832","owner":"76288515@N07","secret":"7c79cc5720","server":"65535","farm":66,"title":"Clay-coloured Sparrow Spizella pallida","ispublic":1,"isfriend":0,"isfamily":0},{"id":"52583223151","owner":"76288515@N07","secret":"9047fe20bd","server":"65535","farm":66,"title":"Clay-coloured Sparrow Spizella pallida","ispublic":1,"isfriend":0,"isfamily":0},{"id":"52582758777","owner":"76288515@N07","secret":"e01e685369","server":"65535","farm":66,"title":"Clay-coloured Sparrow Spizella pallida","ispublic":1,"isfriend":0,"isfamily":0},{"id":"52583485534","owner":"76288515@N07","secret":"1e3e7d5d48","server":"65535","farm":66,"title":"Clay-coloured Sparrow Spizella pallida","ispublic":1,"isfriend":0,"isfamily":0},{"id":"52580757590","owner":"153973412@N04","secret":"0da3960399","server":"65535","farm":66,"title":"Clay-colored Sparrow-Spizella pallida, Iowa City, IA","ispublic":1,"isfriend":0,"isfamily":0},{"id":"52568100768","owner":"17654080@N08","secret":"602d8dd71e","server":"65535","farm":66,"title":"Clay-colored Sparrow (Spizella pallida)","ispublic":1,"isfriend":0,"isfamily":0},{"id":"52568018510","owner":"17654080@N08","secret":"0324ec8c57","server":"65535","farm":66,"title":"Clay-colored Sparrow (Spizella pallida)","ispublic":1,"isfriend":0,"isfamily":0},{"id":"52519582306","owner":"118311568@N08","secret":"7a500719ab","server":"65535","farm":66,"title":"Clay-colored Sparrow","ispublic":1,"isfriend":0,"isfamily":0},{"id":"52454681435","owner":"34368269@N04","secret":"49839c3a1f","server":"65535","farm":66,"title":"Clay-colored Sparrow","ispublic":1,"isfriend":0,"isfamily":0},{"id":"52427464503","owner":"145466593@N08","secret":"83bdacea61","server":"65535","farm":66,"title":"Clay-colored Sparrow","ispublic":1,"isfriend":0,"isfamily":0},{"id":"52392046453","owner":"123979267@N05","secret":"75ed56bf3e","server":"65535","farm":66,"title":"Clay-colored Sparrow","ispublic":1,"isfriend":0,"isfamily":0},{"id":"52385680047","owner":"145466593@N08","secret":"035e2c13c2","server":"65535","farm":66,"title":"Clay-colored Sparrow","ispublic":1,"isfriend":0,"isfamily":0},{"id":"52385686168","owner":"130605131@N08","secret":"ecd8a6c085","server":"65535","farm":66,"title":"IMG_2245","ispublic":1,"isfriend":0,"isfamily":0},{"id":"52385444761","owner":"130605131@N08","secret":"8eb46f3a0c","server":"65535","farm":66,"title":"IMG_2246","ispublic":1,"isfriend":0,"isfamily":0},{"id":"52385444656","owner":"130605131@N08","secret":"2f22b8568b","server":"65535","farm":66,"title":"IMG_2247","ispublic":1,"isfriend":0,"isfamily":0},{"id":"52385685893","owner":"130605131@N08","secret":"122f1ca8d6","server":"65535","farm":66,"title":"IMG_2248","ispublic":1,"isfriend":0,"isfamily":0},{"id":"52384514587","owner":"130605131@N08","secret":"c047f9d7ba","server":"65535","farm":66,"title":"IMG_2249","ispublic":1,"isfriend":0,"isfamily":0},{"id":"52385444521","owner":"130605131@N08","secret":"50c8224417","server":"65535","farm":66,"title":"IMG_2251","ispublic":1,"isfriend":0,"isfamily":0},{"id":"52385877880","owner":"130605131@N08","secret":"78d627922b","server":"65535","farm":66,"title":"IMG_2252","ispublic":1,"isfriend":0,"isfamily":0},{"id":"52385685788","owner":"130605131@N08","secret":"82826bf841","server":"65535","farm":66,"title":"IMG_2253","ispublic":1,"isfriend":0,"isfamily":0},{"id":"52384512737","owner":"130605131@N08","secret":"b4796e2fd0","server":"65535","farm":66,"title":"IMG_2250","ispublic":1,"isfriend":0,"isfamily":0},{"id":"52275474236","owner":"196264892@N08","secret":"3f534de7c6","server":"65535","farm":66,"title":"Clay-colored Sparrow 1","ispublic":1,"isfriend":0,"isfamily":0},{"id":"52268335958","owner":"28631427@N00","secret":"4502c56ff2","server":"65535","farm":66,"title":"Clay-coloured Sparrow","ispublic":1,"isfriend":0,"isfamily":0},{"id":"52214940416","owner":"40724294@N04","secret":"0e551a6bae","server":"65535","farm":66,"title":"Clay-colored Sparrow","ispublic":1,"isfriend":0,"isfamily":0},{"id":"52155103151","owner":"40724294@N04","secret":"e46c56509b","server":"65535","farm":66,"title":"Clay-colored Sparrow","ispublic":1,"isfriend":0,"isfamily":0},{"id":"52153442689","owner":"119787485@N07","secret":"da168bc657","server":"65535","farm":66,"title":"Clay-colored Sparrow (Spizella pallida) - 20220524-08","ispublic":1,"isfriend":0,"isfamily":0},{"id":"52152250860","owner":"54249623@N08","secret":"609dc4e7f7","server":"65535","farm":66,"title":"Clay-colored Sparrow (Spizella pallida)","ispublic":1,"isfriend":0,"isfamily":0},{"id":"52141638308","owner":"168495655@N07","secret":"db8c3e1f95","server":"65535","farm":66,"title":"Chev\u00eache des terriers - Athene cunicularia - Burrowing Owl - Endangered Species - Esp\u00e8ce en voie de disparition","ispublic":1,"isfriend":0,"isfamily":0},{"id":"52121896507","owner":"7236407@N08","secret":"853730af8d","server":"65535","farm":66,"title":"Clay-colored Sparrow (Spizella Pallida), Snowberry (Symphoricarpos spp)","ispublic":1,"isfriend":0,"isfamily":0},{"id":"52072679222","owner":"132165466@N08","secret":"20a6bd7111","server":"65535","farm":66,"title":"Clay-colored Sparrow, bathing","ispublic":1,"isfriend":0,"isfamily":0},{"id":"52065376609","owner":"85277889@N08","secret":"012d86cc88","server":"65535","farm":66,"title":"Clay-colored Sparrow (Spizella pallida) 2022-05-09 (5)","ispublic":1,"isfriend":0,"isfamily":0},{"id":"52065376514","owner":"85277889@N08","secret":"c336f69a19","server":"65535","farm":66,"title":"Clay-colored Sparrow (Spizella pallida) 2022-05-09 (6)","ispublic":1,"isfriend":0,"isfamily":0},{"id":"52065376279","owner":"85277889@N08","secret":"364b3edbd9","server":"65535","farm":66,"title":"Clay-colored Sparrow (Spizella pallida) 2022-05-09 (15)","ispublic":1,"isfriend":0,"isfamily":0},{"id":"52065518375","owner":"48014585@N00","secret":"af1371e0d6","server":"65535","farm":66,"title":"Clay-colored Sparrow","ispublic":1,"isfriend":0,"isfamily":0},{"id":"52041132141","owner":"8378957@N02","secret":"dac7ecc729","server":"65535","farm":66,"title":"Clay-colored Sparrow","ispublic":1,"isfriend":0,"isfamily":0},{"id":"52041179398","owner":"8378957@N02","secret":"db2af13dd0","server":"65535","farm":66,"title":"Clay-colored Sparrow","ispublic":1,"isfriend":0,"isfamily":0},{"id":"52027679452","owner":"8378957@N02","secret":"c590f6b8b1","server":"65535","farm":66,"title":"Clay-colored Sparrow","ispublic":1,"isfriend":0,"isfamily":0},{"id":"52000107177","owner":"33610210@N05","secret":"67b71d4847","server":"65535","farm":66,"title":"Clay-colored Sparrow, Spizella pallida","ispublic":1,"isfriend":0,"isfamily":0},{"id":"52001183733","owner":"33610210@N05","secret":"81ba39b188","server":"65535","farm":66,"title":"Clay-colored Sparrow, Spizella pallida","ispublic":1,"isfriend":0,"isfamily":0},{"id":"52001376269","owner":"33610210@N05","secret":"ea82f07922","server":"65535","farm":66,"title":"Clay-colored Sparrow, Spizella pallida","ispublic":1,"isfriend":0,"isfamily":0},{"id":"51889189512","owner":"23020855@N03","secret":"2caff38850","server":"65535","farm":66,"title":"Clay-colored Sparrow - Spanish Banks Beach, BC","ispublic":1,"isfriend":0,"isfamily":0},{"id":"51886940884","owner":"103722035@N06","secret":"7e53bc6372","server":"0","farm":0,"title":"Clay-colored Sparrow (Spizella pallida), Shandon, CA","ispublic":1,"isfriend":0,"isfamily":0},{"id":"51885648812","owner":"103722035@N06","secret":"942b205448","server":"65535","farm":66,"title":"Clay-colored Sparrow (Spizella pallida), Shandon, CA","ispublic":1,"isfriend":0,"isfamily":0},{"id":"51863175206","owner":"45445559@N04","secret":"df7f09424e","server":"65535","farm":66,"title":"Clay-coloured Sparrow (Spizella pallida)","ispublic":1,"isfriend":0,"isfamily":0},{"id":"51784567457","owner":"39138537@N06","secret":"dfb85af730","server":"65535","farm":66,"title":"Clay-colored Sparrow (Spizella pallida) - Long-Staying","ispublic":1,"isfriend":0,"isfamily":0},{"id":"51786255385","owner":"39138537@N06","secret":"8d1e7c96f5","server":"65535","farm":66,"title":"Clay-colored Sparrow (Spizella pallida)","ispublic":1,"isfriend":0,"isfamily":0},{"id":"51553295123","owner":"69812270@N00","secret":"001d476c3f","server":"65535","farm":66,"title":"Clay-colored Sparrow, Homeless Gardern","ispublic":1,"isfriend":0,"isfamily":0},{"id":"51370776435","owner":"38068802@N00","secret":"b601d3a6d2","server":"65535","farm":66,"title":"DSC_6983","ispublic":1,"isfriend":0,"isfamily":0},{"id":"51356311359","owner":"16289576@N00","secret":"bfd8d519a8","server":"65535","farm":66,"title":"CCSP_DarrowRd_03Jul2021_PHS-2003","ispublic":1,"isfriend":0,"isfamily":0},{"id":"51327191771","owner":"48014585@N00","secret":"cf03d74c17","server":"65535","farm":66,"title":"Clay-colored Sparrow","ispublic":1,"isfriend":0,"isfamily":0},{"id":"51327914819","owner":"48014585@N00","secret":"948b0989ae","server":"65535","farm":66,"title":"Clay-colored Sparrow","ispublic":1,"isfriend":0,"isfamily":0},{"id":"51318433756","owner":"33610210@N05","secret":"9a30e00fa9","server":"65535","farm":66,"title":"Clay-colored Sparrow, Spizella pallida","ispublic":1,"isfriend":0,"isfamily":0},{"id":"52667614016","owner":"33610210@N05","secret":"33da31184d","server":"65535","farm":66,"title":"Clay-colored Sparrow, Spizella pallida","ispublic":1,"isfriend":0,"isfamily":0},{"id":"52667117337","owner":"33610210@N05","secret":"3d25fb0e63","server":"65535","farm":66,"title":"Clay-colored Sparrow, Spizella pallida","ispublic":1,"isfriend":0,"isfamily":0},{"id":"52643834525","owner":"135315828@N06","secret":"3957d1b89e","server":"65535","farm":66,"title":"clay-colored sparrow and american tree sparrow","ispublic":1,"isfriend":0,"isfamily":0},{"id":"52583737513","owner":"76288515@N07","secret":"e815d916ec","server":"65535","farm":66,"title":"Clay-coloured Sparrow Spizella pallida","ispublic":1,"isfriend":0,"isfamily":0},{"id":"52583485654","owner":"76288515@N07","secret":"28174a3083","server":"65535","farm":66,"title":"Clay-coloured Sparrow Spizella pallida","ispublic":1,"isfriend":0,"isfamily":0},{"id":"52583737413","owner":"76288515@N07","secret":"4de26594ef","server":"65535","farm":66,"title":"Clay-coloured Sparrow Spizella pallida","ispublic":1,"isfriend":0,"isfamily":0},{"id":"52543860655","owner":"33610210@N05","secret":"924de733de","server":"65535","farm":66,"title":"Clay-colored Sparrow, Spizella pallida","ispublic":1,"isfriend":0,"isfamily":0},{"id":"52542916342","owner":"33610210@N05","secret":"9a0ab9f0c6","server":"65535","farm":66,"title":"Clay-colored Sparrow, Spizella pallida","ispublic":1,"isfriend":0,"isfamily":0},{"id":"52530927954","owner":"33610210@N05","secret":"5291e56831","server":"65535","farm":66,"title":"Clay-colored Sparrow, Spizella pallida","ispublic":1,"isfriend":0,"isfamily":0},{"id":"52529974657","owner":"33610210@N05","secret":"7d40a337e8","server":"65535","farm":66,"title":"Clay-colored Sparrow, Spizella pallida","ispublic":1,"isfriend":0,"isfamily":0},{"id":"52431697046","owner":"17654080@N08","secret":"04d25bfbc3","server":"65535","farm":66,"title":"Clay-colored Sparrow - Silver Sands SP, CT - 10\/15\/2022","ispublic":1,"isfriend":0,"isfamily":0},{"id":"52431192797","owner":"17654080@N08","secret":"4600a769de","server":"65535","farm":66,"title":"Clay-colored Sparrow - Silver Sands SP, CT - 10\/15\/2022","ispublic":1,"isfriend":0,"isfamily":0},{"id":"52431192837","owner":"17654080@N08","secret":"9779406a0b","server":"65535","farm":66,"title":"Clay-colored Sparrow - Silver Sands SP, CT - 10\/15\/2022","ispublic":1,"isfriend":0,"isfamily":0},{"id":"52398979036","owner":"34368269@N04","secret":"a38a59871b","server":"65535","farm":66,"title":"Clay-colored Sparrow","ispublic":1,"isfriend":0,"isfamily":0},{"id":"52197713230","owner":"131708321@N02","secret":"3cd5e811d8","server":"65535","farm":66,"title":"Clay-colored Sparrow (Spizella pallida), Calgary, Alberta, Canada","ispublic":1,"isfriend":0,"isfamily":0},{"id":"52137608139","owner":"191229626@N05","secret":"77de56b7cc","server":"65535","farm":66,"title":"IMG_1444pp","ispublic":1,"isfriend":0,"isfamily":0},{"id":"52137860240","owner":"191229626@N05","secret":"c8978d7965","server":"65535","farm":66,"title":"IMG_1474pp","ispublic":1,"isfriend":0,"isfamily":0},{"id":"52134321186","owner":"50264295@N06","secret":"f9d98eb127","server":"65535","farm":66,"title":"Clay-colored Sparrow (Spizella pallida)- adult","ispublic":1,"isfriend":0,"isfamily":0},{"id":"52132741418","owner":"53256251@N04","secret":"8b638ff45d","server":"65535","farm":66,"title":"Clay-colored Sparrow bathing in the sun","ispublic":1,"isfriend":0,"isfamily":0},{"id":"52090123388","owner":"48014585@N00","secret":"cf37fa79b0","server":"65535","farm":66,"title":"Clay-colored Sparrow","ispublic":1,"isfriend":0,"isfamily":0},{"id":"52065633610","owner":"85277889@N08","secret":"ef7124687a","server":"65535","farm":66,"title":"Clay-colored Sparrow (Spizella pallida) 2022-05-09 (14)","ispublic":1,"isfriend":0,"isfamily":0},{"id":"52046674844","owner":"36685968@N00","secret":"52f3392ae4","server":"65535","farm":66,"title":"Clay-colored Sparrow (Spizella pallida)","ispublic":1,"isfriend":0,"isfamily":0},{"id":"52005490026","owner":"33610210@N05","secret":"3fcaa828e7","server":"65535","farm":66,"title":"Clay-colored Sparrow, Spizella pallida","ispublic":1,"isfriend":0,"isfamily":0},{"id":"51966475860","owner":"57465751@N05","secret":"9cb26b4d81","server":"65535","farm":66,"title":"Clay-colored Sparrow (Spizella pallida), Frontenac SP, Goodhue Co., MN","ispublic":1,"isfriend":0,"isfamily":0},{"id":"51883132432","owner":"26371261@N00","secret":"2031cda6a4","server":"65535","farm":66,"title":"Clay-colored Sparrow, Spizella pallida","ispublic":1,"isfriend":0,"isfamily":0},{"id":"51815499096","owner":"26096524@N03","secret":"8218fe8eb2","server":"65535","farm":66,"title":"Clay-colored Sparrow (Spizella pallida)","ispublic":1,"isfriend":0,"isfamily":0},{"id":"51671513190","owner":"17654080@N08","secret":"724a5e0f5d","server":"65535","farm":66,"title":"Clay-colored Sparrow - Bridgeport, CT - 11\/08\/2021","ispublic":1,"isfriend":0,"isfamily":0},{"id":"51670880193","owner":"17654080@N08","secret":"7fcc99d91f","server":"65535","farm":66,"title":"Clay-colored Sparrow - Bridgeport, CT - 11\/08\/2021","ispublic":1,"isfriend":0,"isfamily":0},{"id":"51670639676","owner":"17654080@N08","secret":"836a5b8239","server":"65535","farm":66,"title":"Clay-colored Sparrow - Bridgeport, CT - 11\/08\/2021","ispublic":1,"isfriend":0,"isfamily":0},{"id":"51671513110","owner":"17654080@N08","secret":"cb28cb45f9","server":"65535","farm":66,"title":"Clay-colored Sparrow - Bridgeport, CT - 11\/08\/2021","ispublic":1,"isfriend":0,"isfamily":0},{"id":"51637361774","owner":"69812270@N00","secret":"1be784b873","server":"65535","farm":66,"title":"Clay-colored Sparrow","ispublic":1,"isfriend":0,"isfamily":0},{"id":"51626915998","owner":"17654080@N08","secret":"aa0dabb088","server":"65535","farm":66,"title":"Clay-colored Sparrow - Westport, CT - Oct 24,2021","ispublic":1,"isfriend":0,"isfamily":0},{"id":"51555093251","owner":"65158990@N00","secret":"0cf1a85153","server":"65535","farm":66,"title":"Clay-colored","ispublic":1,"isfriend":0,"isfamily":0},{"id":"51537057253","owner":"39177293@N03","secret":"34fdc073b8","server":"65535","farm":66,"title":"Clay-colored Sparrow","ispublic":1,"isfriend":0,"isfamily":0},{"id":"51537738620","owner":"39177293@N03","secret":"d410a613e4","server":"65535","farm":66,"title":"Clay-colored Sparrow","ispublic":1,"isfriend":0,"isfamily":0},{"id":"51381680899","owner":"183736567@N07","secret":"efde5cf0dc","server":"65535","farm":66,"title":"Clay-colored Sparrow ((Spizella pallida) being watchful","ispublic":1,"isfriend":0,"isfamily":0},{"id":"51380054701","owner":"183736567@N07","secret":"5a45fe22a1","server":"65535","farm":66,"title":"Clay-colored Sparrow (Spizella pallida) with a small grasshopper","ispublic":1,"isfriend":0,"isfamily":0},{"id":"51380639819","owner":"26803925@N05","secret":"45d3ae6981","server":"65535","farm":66,"title":"Clay-colored Sparrow (Spizella pallida) 06-13-2021 Lostwood NWR, Burke Co. ND 6","ispublic":1,"isfriend":0,"isfamily":0},{"id":"51380911850","owner":"26803925@N05","secret":"0364981bd2","server":"65535","farm":66,"title":"Clay-colored Sparrow (Spizella pallida) 06-13-2021 Lostwood NWR, Burke Co. ND 7","ispublic":1,"isfriend":0,"isfamily":0},{"id":"51380639804","owner":"26803925@N05","secret":"d222680f07","server":"65535","farm":66,"title":"Clay-colored Sparrow (Spizella pallida) 06-13-2021 Lostwood NWR, Burke Co. ND 5","ispublic":1,"isfriend":0,"isfamily":0},{"id":"51355573661","owner":"16289576@N00","secret":"862afa4a65","server":"65535","farm":66,"title":"CCSP_DarrowRd_03Jul2021_PHS-2014","ispublic":1,"isfriend":0,"isfamily":0},{"id":"51355803043","owner":"16289576@N00","secret":"54bc8f4e67","server":"65535","farm":66,"title":"CCSP_DarrowRd_03Jul2021_PHS-2016","ispublic":1,"isfriend":0,"isfamily":0},{"id":"51319157274","owner":"33610210@N05","secret":"5c0f96177d","server":"65535","farm":66,"title":"Clay-colored Sparrow, Spizella pallida","ispublic":1,"isfriend":0,"isfamily":0}]},"stat":"ok"}