{"photos":{"page":1,"pages":27,"perpage":100,"total":2638,"photo":[{"id":"52724059479","owner":"12639178@N07","secret":"d37df0c4a2","server":"65535","farm":66,"title":"Fahlstirnschwalbe (Petrochelidon pyrrhonota) (2)","ispublic":1,"isfriend":0,"isfamily":0},{"id":"52723277827","owner":"12639178@N07","secret":"1908d0e31d","server":"65535","farm":66,"title":"Fahlstirnschwalbe","ispublic":1,"isfriend":0,"isfamily":0},{"id":"52596992693","owner":"49895734@N05","secret":"67626780f7","server":"65535","farm":66,"title":"Golondrina Grande, American Cliff Swallow, Golondrina Risquera, Golondrina Alfarera. Petrochelidon pyrrhonota.","ispublic":1,"isfriend":0,"isfamily":0},{"id":"52613694508","owner":"54514385@N06","secret":"4ed752bc82","server":"65535","farm":66,"title":"More Cliff Swallows from back in July (2)","ispublic":1,"isfriend":0,"isfamily":0},{"id":"52613466519","owner":"54514385@N06","secret":"a2c73087f0","server":"65535","farm":66,"title":"More Cliff Swallows from back in July (1)","ispublic":1,"isfriend":0,"isfamily":0},{"id":"52580318981","owner":"153973412@N04","secret":"dee77240f9","server":"65535","farm":66,"title":"Cliff Swallow-Petrochelidon pyrrhonota, Iowa City, IA","ispublic":1,"isfriend":0,"isfamily":0},{"id":"52443299685","owner":"190923251@N05","secret":"bfe15b7df0","server":"65535","farm":66,"title":"Cliff Swallow","ispublic":1,"isfriend":0,"isfamily":0},{"id":"52406709968","owner":"34368269@N04","secret":"7a03633065","server":"65535","farm":66,"title":"Cliff Swallows","ispublic":1,"isfriend":0,"isfamily":0},{"id":"52401900824","owner":"96713629@N03","secret":"1616fa55f6","server":"65535","farm":66,"title":"Amerikaanse klifzwaluw - Cliff Swallow (Petrochelidon pyrrhonota)-250_2547","ispublic":1,"isfriend":0,"isfamily":0},{"id":"52402044380","owner":"96713629@N03","secret":"60907388e5","server":"65535","farm":66,"title":"Amerikaanse klifzwaluw - Cliff Swallow (Petrochelidon pyrrhonota)-250_2546","ispublic":1,"isfriend":0,"isfamily":0},{"id":"52402044375","owner":"96713629@N03","secret":"25ac754bc1","server":"65535","farm":66,"title":"Amerikaanse klifzwaluw - Cliff Swallow (Petrochelidon pyrrhonota)-250_2558","ispublic":1,"isfriend":0,"isfamily":0},{"id":"52401900739","owner":"96713629@N03","secret":"ecdfa90648","server":"65535","farm":66,"title":"Amerikaanse klifzwaluw - Cliff Swallow (Petrochelidon pyrrhonota)-250_2560","ispublic":1,"isfriend":0,"isfamily":0},{"id":"52401900709","owner":"96713629@N03","secret":"b8d9b28a5e","server":"65535","farm":66,"title":"Amerikaanse klifzwaluw - Cliff Swallow (Petrochelidon pyrrhonota)-250_2581","ispublic":1,"isfriend":0,"isfamily":0},{"id":"52402044215","owner":"96713629@N03","secret":"9892669134","server":"65535","farm":66,"title":"Amerikaanse klifzwaluw - Cliff Swallow (Petrochelidon pyrrhonota)-250_2545","ispublic":1,"isfriend":0,"isfamily":0},{"id":"52375392478","owner":"196264892@N08","secret":"7ef52ffc0d","server":"65535","farm":66,"title":"Cliff and Tree Swallows","ispublic":1,"isfriend":0,"isfamily":0},{"id":"52375169666","owner":"196264892@N08","secret":"77e0911e47","server":"65535","farm":66,"title":"Cliff Swallow","ispublic":1,"isfriend":0,"isfamily":0},{"id":"52375392133","owner":"196264892@N08","secret":"1bc1f2f4a8","server":"65535","farm":66,"title":"Cliff Swallow","ispublic":1,"isfriend":0,"isfamily":0},{"id":"52375585580","owner":"196264892@N08","secret":"11748ebcb4","server":"65535","farm":66,"title":"Cliff Swallow","ispublic":1,"isfriend":0,"isfamily":0},{"id":"52375169251","owner":"196264892@N08","secret":"4bab2aaf21","server":"65535","farm":66,"title":"Cliff Swallow","ispublic":1,"isfriend":0,"isfamily":0},{"id":"52351288473","owner":"22293205@N05","secret":"ba7d40112c","server":"65535","farm":66,"title":"Cliff Swallow","ispublic":1,"isfriend":0,"isfamily":0},{"id":"52336699363","owner":"7331818@N02","secret":"1bb47ebf40","server":"65535","farm":66,"title":"On the Fence","ispublic":1,"isfriend":0,"isfamily":0},{"id":"52329447648","owner":"53256251@N04","secret":"b1f30cb5b8","server":"65535","farm":66,"title":"Checking out the view - Cliff Swallow family","ispublic":1,"isfriend":0,"isfamily":0},{"id":"52287453629","owner":"92361032@N05","secret":"7bff205230","server":"65535","farm":66,"title":"American Cliff Swallow \/ Hirondelle \u00e0 front blanc ( Diane )","ispublic":1,"isfriend":0,"isfamily":0},{"id":"52287131290","owner":"36437800@N02","secret":"66d092cf3b","server":"65535","farm":66,"title":"17.) American Cliff Swallow (Petrochelidon pyrrhonota) in flight 2","ispublic":1,"isfriend":0,"isfamily":0},{"id":"52287131265","owner":"36437800@N02","secret":"b687e3f26d","server":"65535","farm":66,"title":"16.) American Cliff Swallow (Petrochelidon pyrrhonota) in flight 1","ispublic":1,"isfriend":0,"isfamily":0},{"id":"52284918734","owner":"53256251@N04","secret":"8440cb0236","server":"65535","farm":66,"title":"Sticky hands - Cliff Swallow juvenile","ispublic":1,"isfriend":0,"isfamily":0},{"id":"52275474196","owner":"196264892@N08","secret":"29c418fcc1","server":"65535","farm":66,"title":"Cliff Swallow","ispublic":1,"isfriend":0,"isfamily":0},{"id":"52275473896","owner":"196264892@N08","secret":"59760acc63","server":"65535","farm":66,"title":"Cliff Swallow","ispublic":1,"isfriend":0,"isfamily":0},{"id":"52275735114","owner":"196264892@N08","secret":"093f9957ee","server":"65535","farm":66,"title":"Cliff Swallow","ispublic":1,"isfriend":0,"isfamily":0},{"id":"52274497627","owner":"196264892@N08","secret":"e1b681f228","server":"65535","farm":66,"title":"Cliff Swallow","ispublic":1,"isfriend":0,"isfamily":0},{"id":"52275955685","owner":"196264892@N08","secret":"b724941acc","server":"65535","farm":66,"title":"Cliff Swallow on nest","ispublic":1,"isfriend":0,"isfamily":0},{"id":"52275472616","owner":"196264892@N08","secret":"92711515fe","server":"65535","farm":66,"title":"Cliff Swallow on nest","ispublic":1,"isfriend":0,"isfamily":0},{"id":"52265727304","owner":"22475926@N08","secret":"692eee84e0","server":"65535","farm":66,"title":"Cliff Swallow (Petrochelidon pyrrhonota)","ispublic":1,"isfriend":0,"isfamily":0},{"id":"52258232543","owner":"34238008@N02","secret":"ec4de47a54","server":"65535","farm":66,"title":"Cliff Swallow, adult (Petrochelidon pyrrhonota)","ispublic":1,"isfriend":0,"isfamily":0},{"id":"52258216131","owner":"34238008@N02","secret":"2ef3a42355","server":"65535","farm":66,"title":"Cliff Swallow (Petrochelidon pyrrhonota)","ispublic":1,"isfriend":0,"isfamily":0},{"id":"52255646223","owner":"14734088@N02","secret":"ceb3830130","server":"65535","farm":66,"title":"Hirondelle \u00e0 front blanc 210702H1","ispublic":1,"isfriend":0,"isfamily":0},{"id":"52243695412","owner":"14734088@N02","secret":"ce6ff43fba","server":"65535","farm":66,"title":"Hirondelle \u00e0 front blanc 220611H1","ispublic":1,"isfriend":0,"isfamily":0},{"id":"52224712266","owner":"190764460@N06","secret":"a7faeba075","server":"65535","farm":66,"title":"CLSW#1","ispublic":1,"isfriend":0,"isfamily":0},{"id":"52211992779","owner":"54514385@N06","secret":"ffd4dbe5d0","server":"65535","farm":66,"title":"Cliff Swallows -- Petrochelidon pyrrhonota","ispublic":1,"isfriend":0,"isfamily":0},{"id":"52207786872","owner":"14734088@N02","secret":"e50583c0d1","server":"65535","farm":66,"title":"Hirondelle \u00e0 front blanc 220615H3a","ispublic":1,"isfriend":0,"isfamily":0},{"id":"52199300582","owner":"54514385@N06","secret":"3dc9312aa8","server":"65535","farm":66,"title":"Cliff Swallows -- Petrochelidon pyrrhonota","ispublic":1,"isfriend":0,"isfamily":0},{"id":"52189909482","owner":"140318147@N08","secret":"e8bc0b40dd","server":"65535","farm":66,"title":"cliff swallow (Petrochelidon pyrrhonota) L4A4722","ispublic":1,"isfriend":0,"isfamily":0},{"id":"52189637316","owner":"78067826@N03","secret":"e2543398b8","server":"65535","farm":66,"title":"Feeding Time","ispublic":1,"isfriend":0,"isfamily":0},{"id":"52172029410","owner":"14734088@N02","secret":"6286634ed3","server":"65535","farm":66,"title":"Hirondelle \u00e0 front blanc 220611H5a","ispublic":1,"isfriend":0,"isfamily":0},{"id":"52145050024","owner":"144980256@N07","secret":"6bd11f72fb","server":"65535","farm":66,"title":"Cliff Swallow - (Petrochelidon pyrrhonota)","ispublic":1,"isfriend":0,"isfamily":0},{"id":"52140334522","owner":"59770980@N02","secret":"f80042c071","server":"65535","farm":66,"title":"Klettasvala-Cliff Swallow-Petrochelidon pyrrhonota","ispublic":1,"isfriend":0,"isfamily":0},{"id":"52138976995","owner":"19708855@N00","secret":"e4493d7333","server":"65535","farm":66,"title":"Cliff Swallow Chasing a Bug","ispublic":1,"isfriend":0,"isfamily":0},{"id":"52132207404","owner":"100108154@N02","secret":"0c1b44027c","server":"65535","farm":66,"title":"One Last Close Up","ispublic":1,"isfriend":0,"isfamily":0},{"id":"52129727730","owner":"34238008@N02","secret":"991361fd7c","server":"65535","farm":66,"title":"Cliff Swallow, adult (Petrochelidon pyrrhonota)","ispublic":1,"isfriend":0,"isfamily":0},{"id":"52127868378","owner":"21719302@N07","secret":"1f325a350f","server":"65535","farm":66,"title":"Tu es en retard !","ispublic":1,"isfriend":0,"isfamily":0},{"id":"52125019112","owner":"165841515@N03","secret":"f2daf530ef","server":"65535","farm":66,"title":"Hirondelle \u00e0 front blanc \/ Cliff Swallow \/ (Petrochelidon pyrrhonota)","ispublic":1,"isfriend":0,"isfamily":0},{"id":"52126066548","owner":"165841515@N03","secret":"68864a1181","server":"65535","farm":66,"title":"Hirondelle \u00e0 front blanc \/ Cliff Swallow \/ (Petrochelidon pyrrhonota)","ispublic":1,"isfriend":0,"isfamily":0},{"id":"52126035111","owner":"165841515@N03","secret":"94b4f6e38e","server":"65535","farm":66,"title":"Hirondelle \u00e0 front blanc \/ Cliff Swallow \/ (Petrochelidon pyrrhonota)","ispublic":1,"isfriend":0,"isfamily":0},{"id":"52121460513","owner":"34368269@N04","secret":"b02d437ef4","server":"65535","farm":66,"title":"Cliff Swallow (juvenile)","ispublic":1,"isfriend":0,"isfamily":0},{"id":"52110985357","owner":"91064752@N03","secret":"723d73ddbb","server":"65535","farm":66,"title":"Cliff Swallow","ispublic":1,"isfriend":0,"isfamily":0},{"id":"52108514998","owner":"100108154@N02","secret":"98cdbd3125","server":"65535","farm":66,"title":"My First Cliff Swallow","ispublic":1,"isfriend":0,"isfamily":0},{"id":"52107458027","owner":"100108154@N02","secret":"375c5ae182","server":"65535","farm":66,"title":"Nesting Colony","ispublic":1,"isfriend":0,"isfamily":0},{"id":"52089855627","owner":"49114357@N08","secret":"362d5f5f9e","server":"65535","farm":66,"title":"Cliff Swallow","ispublic":1,"isfriend":0,"isfamily":0},{"id":"52089034180","owner":"33947790@N04","secret":"d46b0900f1","server":"65535","farm":66,"title":"Cliff Swallow","ispublic":1,"isfriend":0,"isfamily":0},{"id":"52083056353","owner":"143326780@N02","secret":"5f4b71d28b","server":"65535","farm":66,"title":"DSCN9589","ispublic":1,"isfriend":0,"isfamily":0},{"id":"52083297649","owner":"39136124@N00","secret":"c85bf8a092","server":"65535","farm":66,"title":"Cliff Swallow Petrochelidon pyrrhonota nests","ispublic":1,"isfriend":0,"isfamily":0},{"id":"52073772970","owner":"143326780@N02","secret":"4d5b256200","server":"65535","farm":66,"title":"DSCN7790","ispublic":1,"isfriend":0,"isfamily":0},{"id":"52072245267","owner":"143326780@N02","secret":"afc1fb102a","server":"65535","farm":66,"title":"DSCN7791","ispublic":1,"isfriend":0,"isfamily":0},{"id":"52073292723","owner":"143326780@N02","secret":"97f9c75f92","server":"65535","farm":66,"title":"DSCN7795","ispublic":1,"isfriend":0,"isfamily":0},{"id":"52073292598","owner":"143326780@N02","secret":"24f1070dc0","server":"65535","farm":66,"title":"DSCN7797","ispublic":1,"isfriend":0,"isfamily":0},{"id":"52073517289","owner":"143326780@N02","secret":"f3ce0e326c","server":"65535","farm":66,"title":"DSCN7802","ispublic":1,"isfriend":0,"isfamily":0},{"id":"52073516704","owner":"143326780@N02","secret":"ecff7ef5e6","server":"65535","farm":66,"title":"DSCN7812","ispublic":1,"isfriend":0,"isfamily":0},{"id":"52073770665","owner":"143326780@N02","secret":"fbf99b51ac","server":"65535","farm":66,"title":"00cliffswallow2_Moment(4)","ispublic":1,"isfriend":0,"isfamily":0},{"id":"52073516439","owner":"143326780@N02","secret":"25845ee26f","server":"65535","farm":66,"title":"00cliffswallow2_Moment(5)","ispublic":1,"isfriend":0,"isfamily":0},{"id":"52073290146","owner":"143326780@N02","secret":"19e04fce07","server":"65535","farm":66,"title":"00cliffswallow2_Moment(6)","ispublic":1,"isfriend":0,"isfamily":0},{"id":"52645588139","owner":"8013969@N03","secret":"90442ce73e","server":"65535","farm":66,"title":"Petrochelidon pyrrhonota DFL la22-1","ispublic":1,"isfriend":0,"isfamily":0},{"id":"52538321713","owner":"39617069@N08","secret":"ede11cb26b","server":"65535","farm":66,"title":"Cliff Swallow","ispublic":1,"isfriend":0,"isfamily":0},{"id":"52495236926","owner":"64557331@N04","secret":"1462f9cf9b","server":"65535","farm":66,"title":"Cliff Swallow - (Petrochelidon pyrrhonota)_06162021","ispublic":1,"isfriend":0,"isfamily":0},{"id":"52455197478","owner":"30638967@N03","secret":"5f3781a494","server":"65535","farm":66,"title":"Cliff Swallow DSC_2265","ispublic":1,"isfriend":0,"isfamily":0},{"id":"52208440589","owner":"65148649@N04","secret":"6a1e00c571","server":"65535","farm":66,"title":"Cliff Swallow","ispublic":1,"isfriend":0,"isfamily":0},{"id":"52205165704","owner":"139237357@N06","secret":"103aa6fd3a","server":"65535","farm":66,"title":"Cliff Swallow","ispublic":1,"isfriend":0,"isfamily":0},{"id":"52205394005","owner":"7261670@N03","secret":"a5c3af1089","server":"65535","farm":66,"title":"Cliff Swallow","ispublic":1,"isfriend":0,"isfamily":0},{"id":"52183264483","owner":"39652177@N04","secret":"09f82acbf6","server":"65535","farm":66,"title":"Cliff swallow-04665-Edit","ispublic":1,"isfriend":0,"isfamily":0},{"id":"52155169081","owner":"34238008@N02","secret":"461b9a30ef","server":"65535","farm":66,"title":"Cliff Swallow (Petrochelidon pyrrhonota)","ispublic":1,"isfriend":0,"isfamily":0},{"id":"52155174578","owner":"34238008@N02","secret":"bd88cb269a","server":"65535","farm":66,"title":"Cliff Swallow (Petrochelidon pyrrhonota)","ispublic":1,"isfriend":0,"isfamily":0},{"id":"52127340846","owner":"61241315@N00","secret":"437ce82aa4","server":"65535","farm":66,"title":"Cliff Swallow_N1710","ispublic":1,"isfriend":0,"isfamily":0},{"id":"52127365998","owner":"61241315@N00","secret":"04240063f5","server":"65535","farm":66,"title":"Cliff Swallow_N1714","ispublic":1,"isfriend":0,"isfamily":0},{"id":"52127366003","owner":"61241315@N00","secret":"7d42d3c2ab","server":"65535","farm":66,"title":"Cliff Swallow_N1716","ispublic":1,"isfriend":0,"isfamily":0},{"id":"52127581969","owner":"61241315@N00","secret":"195e8deee0","server":"65535","farm":66,"title":"Cliff Swallow_N1712","ispublic":1,"isfriend":0,"isfamily":0},{"id":"52127365833","owner":"61241315@N00","secret":"781d0984a9","server":"65535","farm":66,"title":"Cliff Swallow_N1717","ispublic":1,"isfriend":0,"isfamily":0},{"id":"52126035156","owner":"165841515@N03","secret":"4fd82e6c2f","server":"65535","farm":66,"title":"Hirondelle \u00e0 front blanc \/ Cliff Swallow \/ (Petrochelidon pyrrhonota)","ispublic":1,"isfriend":0,"isfamily":0},{"id":"52125018932","owner":"165841515@N03","secret":"0d0721dccd","server":"65535","farm":66,"title":"Hirondelle \u00e0 front blanc \/ Cliff Swallow \/ (Petrochelidon pyrrhonota)","ispublic":1,"isfriend":0,"isfamily":0},{"id":"52097369636","owner":"62043870@N05","secret":"11f3a99cac","server":"65535","farm":66,"title":"Cliff Swallows, Petrochelidon pyrrhonota","ispublic":1,"isfriend":0,"isfamily":0},{"id":"52087978536","owner":"73431753@N00","secret":"e13a7a1f83","server":"65535","farm":66,"title":"Cliff Swallows on the Ballona salt pan","ispublic":1,"isfriend":0,"isfamily":0},{"id":"52083277824","owner":"143326780@N02","secret":"f5b6519f33","server":"65535","farm":66,"title":"DSCN9578","ispublic":1,"isfriend":0,"isfamily":0},{"id":"52078393096","owner":"140318147@N08","secret":"0d7e2e97f6","server":"65535","farm":66,"title":"cliff swallow (Petrochelidon pyrrhonota) L4A0274","ispublic":1,"isfriend":0,"isfamily":0},{"id":"52078392781","owner":"140318147@N08","secret":"156341bbd6","server":"65535","farm":66,"title":"cliff swallow (Petrochelidon pyrrhonota) L4A0271","ispublic":1,"isfriend":0,"isfamily":0},{"id":"52078392526","owner":"140318147@N08","secret":"aa47c54270","server":"65535","farm":66,"title":"cliff swallow (Petrochelidon pyrrhonota) L4A0264","ispublic":1,"isfriend":0,"isfamily":0},{"id":"52078883630","owner":"140318147@N08","secret":"449505d66f","server":"65535","farm":66,"title":"cliff swallow (Petrochelidon pyrrhonota) L4A0210","ispublic":1,"isfriend":0,"isfamily":0},{"id":"52073293318","owner":"143326780@N02","secret":"d43ae385bd","server":"65535","farm":66,"title":"DSCN7779","ispublic":1,"isfriend":0,"isfamily":0},{"id":"52073292871","owner":"143326780@N02","secret":"69bd1a9140","server":"65535","farm":66,"title":"DSCN7780","ispublic":1,"isfriend":0,"isfamily":0},{"id":"52073292701","owner":"143326780@N02","secret":"2ecf3944bf","server":"65535","farm":66,"title":"DSCN7784","ispublic":1,"isfriend":0,"isfamily":0},{"id":"52073518729","owner":"143326780@N02","secret":"b0ca115a23","server":"65535","farm":66,"title":"DSCN7785","ispublic":1,"isfriend":0,"isfamily":0},{"id":"52073516939","owner":"143326780@N02","secret":"b34ed7b5e6","server":"65535","farm":66,"title":"DSCN7805","ispublic":1,"isfriend":0,"isfamily":0},{"id":"52073290431","owner":"143326780@N02","secret":"937a31eaa0","server":"65535","farm":66,"title":"00cliffswallow2_Moment(3)","ispublic":1,"isfriend":0,"isfamily":0}]},"stat":"ok"}