{"photos":{"page":1,"pages":6,"perpage":100,"total":592,"photo":[{"id":"52714061668","owner":"54249623@N08","secret":"0d66284a6d","server":"65535","farm":66,"title":"Trog\u00f3n Collarejo, Collared Trogon (Trogon collaris)","ispublic":1,"isfriend":0,"isfamily":0},{"id":"52682661448","owner":"115008701@N02","secret":"48351e900d","server":"65535","farm":66,"title":"Collared Trogon","ispublic":1,"isfriend":0,"isfamily":0},{"id":"52670187599","owner":"72271115@N02","secret":"9878690d4d","server":"65535","farm":66,"title":"Collared Trogon --- Trogon collaris","ispublic":1,"isfriend":0,"isfamily":0},{"id":"9246448973","owner":"53247049@N07","secret":"1f84cc86c3","server":"2831","farm":3,"title":"COLLARED TROGON Male Trogon collaris with INSECT in BILL near Nest. Mindo, ECUADOR. Trogon Photo by Peter Wendelken.","ispublic":1,"isfriend":0,"isfamily":0},{"id":"52605053017","owner":"32752434@N07","secret":"e808b52e6f","server":"65535","farm":66,"title":"Collared Trogan (Trogon collaris)","ispublic":1,"isfriend":0,"isfamily":0},{"id":"52478438391","owner":"56686021@N04","secret":"a8a2396249","server":"65535","farm":66,"title":"Collared Trogon","ispublic":1,"isfriend":0,"isfamily":0},{"id":"52395475019","owner":"32805478@N03","secret":"6625f86900","server":"65535","farm":66,"title":"Trog\u00f3n acollarado, Trogon collaris, Collared Trogon","ispublic":1,"isfriend":0,"isfamily":0},{"id":"52351074378","owner":"131708321@N02","secret":"e740abfee1","server":"65535","farm":66,"title":"Collared (Orange-bellied) Trogon, Trogon collaris","ispublic":1,"isfriend":0,"isfamily":0},{"id":"52157872843","owner":"51106497@N03","secret":"b4ac942c85","server":"65535","farm":66,"title":"Collared Trogon","ispublic":1,"isfriend":0,"isfamily":0},{"id":"52149172261","owner":"36083098@N02","secret":"45f8bf11a7","server":"65535","farm":66,"title":"Trogon collaris","ispublic":1,"isfriend":0,"isfamily":0},{"id":"52137669002","owner":"11803211@N06","secret":"e0af6e142d","server":"65535","farm":66,"title":"Female collared trogon (Trogon collaris), Cob\u00e1, Yucatan","ispublic":1,"isfriend":0,"isfamily":0},{"id":"52086682568","owner":"29170368@N03","secret":"8b553fe7c5","server":"65535","farm":66,"title":"Collared Trogon","ispublic":1,"isfriend":0,"isfamily":0},{"id":"52079342106","owner":"94293448@N07","secret":"b37ff636e4","server":"65535","farm":66,"title":"Collared Trogon (Orange-bellied) Trogon collaris aurantiiventris","ispublic":1,"isfriend":0,"isfamily":0},{"id":"52042989353","owner":"45681418@N03","secret":"95f7ed7889","server":"65535","farm":66,"title":"Orange-bellied Trogon (Trogon collaris)","ispublic":1,"isfriend":0,"isfamily":0},{"id":"52017207000","owner":"21147276@N03","secret":"72ac715998","server":"65535","farm":66,"title":"Standing out in the Dark","ispublic":1,"isfriend":0,"isfamily":0},{"id":"51756632850","owner":"37493716@N02","secret":"a4775446e2","server":"65535","farm":66,"title":"Fauna RNA Arrierito Antioque\u00f1o","ispublic":1,"isfriend":0,"isfamily":0},{"id":"51698625247","owner":"12639178@N07","secret":"dcc624277f","server":"65535","farm":66,"title":"Jungferntrogon (Collared Trogon)","ispublic":1,"isfriend":0,"isfamily":0},{"id":"51672166897","owner":"65788177@N02","secret":"435c40219a","server":"65535","farm":66,"title":"Collared Trogon","ispublic":1,"isfriend":0,"isfamily":0},{"id":"51593060277","owner":"146474844@N08","secret":"cab6406356","server":"65535","farm":66,"title":"orange-bellied-trogon-trogon-collaris-aurantiiventris_49477094623_o","ispublic":1,"isfriend":0,"isfamily":0},{"id":"51520462307","owner":"48014585@N00","secret":"83d404cc7d","server":"65535","farm":66,"title":"IMG_2241.jpg","ispublic":1,"isfriend":0,"isfamily":0},{"id":"51432184869","owner":"31137609@N08","secret":"123af5fab4","server":"65535","farm":66,"title":"Collared (Trogon collaris) trogon in the forest light","ispublic":1,"isfriend":0,"isfamily":0},{"id":"51394645850","owner":"44948457@N07","secret":"22ce012268","server":"65535","farm":66,"title":"Collared Trogon | Sorocu\u00e1 Acollarado (Trogon collaris)","ispublic":1,"isfriend":0,"isfamily":0},{"id":"51393634711","owner":"44948457@N07","secret":"bb7f5f974f","server":"65535","farm":66,"title":"Collared Trogon | Sorocu\u00e1 Acollarado (Trogon collaris)","ispublic":1,"isfriend":0,"isfamily":0},{"id":"51394363914","owner":"44948457@N07","secret":"7fbe5227eb","server":"65535","farm":66,"title":"Collared Trogon | Sorocu\u00e1 Acollarado (Trogon collaris)","ispublic":1,"isfriend":0,"isfamily":0},{"id":"51393894148","owner":"44948457@N07","secret":"ed411a20d2","server":"65535","farm":66,"title":"Collared Trogon | Sorocu\u00e1 Acollarado (Trogon collaris)","ispublic":1,"isfriend":0,"isfamily":0},{"id":"51264103941","owner":"61021753@N02","secret":"66f7ab0dc7","server":"65535","farm":66,"title":"n155_w1150","ispublic":1,"isfriend":0,"isfamily":0},{"id":"51165338447","owner":"142134964@N04","secret":"81e08ec139","server":"65535","farm":66,"title":"212- Trogo\u0301n collarejo (Trogon collaris)","ispublic":1,"isfriend":0,"isfamily":0},{"id":"51091599970","owner":"37493716@N02","secret":"4bc1a2569b","server":"65535","farm":66,"title":"Collared Trogon - Trogon collaris - El Jaguar ProAves Reserve - Fotos Leonel Silva","ispublic":1,"isfriend":0,"isfamily":0},{"id":"51075498638","owner":"18217058@N04","secret":"f66fcea00d","server":"65535","farm":66,"title":"Collared Trogon (Trogon collaris)","ispublic":1,"isfriend":0,"isfamily":0},{"id":"51007010050","owner":"18217058@N04","secret":"270ba5fb1e","server":"65535","farm":66,"title":"Collared Trogon (Trogon collaris)","ispublic":1,"isfriend":0,"isfamily":0},{"id":"51006992775","owner":"18217058@N04","secret":"fdb77bfb32","server":"65535","farm":66,"title":"Collared Trogon (Trogon collaris)","ispublic":1,"isfriend":0,"isfamily":0},{"id":"51076176451","owner":"18217058@N04","secret":"ce888d003b","server":"65535","farm":66,"title":"Collared Trogon (Trogon collaris)","ispublic":1,"isfriend":0,"isfamily":0},{"id":"51076276372","owner":"18217058@N04","secret":"62227a068b","server":"65535","farm":66,"title":"Collared Trogon (Trogon collaris)","ispublic":1,"isfriend":0,"isfamily":0},{"id":"51006801422","owner":"43935391694@N01","secret":"0a47eb459c","server":"65535","farm":66,"title":"Collared Trogon Yavari Loreto Peru","ispublic":1,"isfriend":0,"isfamily":0},{"id":"50771819558","owner":"37493716@N02","secret":"103dabcae7","server":"65535","farm":66,"title":"Collared Trogon- Trogon Collaris- Reserva ProAves El Dorado","ispublic":1,"isfriend":0,"isfamily":0},{"id":"50514196136","owner":"37493716@N02","secret":"6791dc2c00","server":"65535","farm":66,"title":"Trogon collaris hembra","ispublic":1,"isfriend":0,"isfamily":0},{"id":"50376004861","owner":"61021753@N02","secret":"8522d05547","server":"65535","farm":66,"title":"n76_w1150","ispublic":1,"isfriend":0,"isfamily":0},{"id":"50172970723","owner":"37493716@N02","secret":"36d10ffcf0","server":"65535","farm":66,"title":"Trogon collaris","ispublic":1,"isfriend":0,"isfamily":0},{"id":"50173773007","owner":"37493716@N02","secret":"eccfd6c4b8","server":"65535","farm":66,"title":"Trogon collaris","ispublic":1,"isfriend":0,"isfamily":0},{"id":"50173411251","owner":"37493716@N02","secret":"980caf4c1c","server":"65535","farm":66,"title":"Trogon collaris","ispublic":1,"isfriend":0,"isfamily":0},{"id":"50090931907","owner":"37493716@N02","secret":"aff7c4e320","server":"65535","farm":66,"title":"Trog\u00f3n collarejo\/Collared Trogon\/Trogon collaris.","ispublic":1,"isfriend":0,"isfamily":0},{"id":"50051174341","owner":"42916990@N07","secret":"34e8b5d883","server":"65535","farm":66,"title":"Trog\u00f3n Collarejo","ispublic":1,"isfriend":0,"isfamily":0},{"id":"49810728071","owner":"150986980@N04","secret":"bb2fd4af47","server":"65535","farm":66,"title":"Trog\u00f3n collarejo\/Collared Trogon\/Trogon collaris","ispublic":1,"isfriend":0,"isfamily":0},{"id":"49795676447","owner":"150986980@N04","secret":"2e2151c0dd","server":"65535","farm":66,"title":"Trog\u00f3n collarejo\/Collared Trogon\/Trogon collaris","ispublic":1,"isfriend":0,"isfamily":0},{"id":"9232083202","owner":"53247049@N07","secret":"314813d020","server":"3803","farm":4,"title":"COLLARED TROGON Male Trogon collaris with WALKING STICK in Bill near Nest. Mindo, ECUADOR. Trogon Photo by Peter Wendelken.","ispublic":1,"isfriend":0,"isfamily":0},{"id":"49630029091","owner":"43184676@N08","secret":"1949f199ac","server":"65535","farm":66,"title":"Collared Trogon","ispublic":1,"isfriend":0,"isfamily":0},{"id":"52527661604","owner":"12639178@N07","secret":"24a4cc2031","server":"65535","farm":66,"title":"35832_Collared Trogon Trogon collaris","ispublic":1,"isfriend":0,"isfamily":0},{"id":"52526919562","owner":"12639178@N07","secret":"54f205f36d","server":"65535","farm":66,"title":"35831_Collared Trogon Trogon collaris","ispublic":1,"isfriend":0,"isfamily":0},{"id":"52492829106","owner":"86666094@N00","secret":"f7c604591c","server":"65535","farm":66,"title":"Collared Trogon","ispublic":1,"isfriend":0,"isfamily":0},{"id":"52314469665","owner":"32752434@N07","secret":"f48ae99e82","server":"65535","farm":66,"title":"Collared Trogan (Trogon collaris)","ispublic":1,"isfriend":0,"isfamily":0},{"id":"52289112377","owner":"12639178@N07","secret":"934aa02305","server":"65535","farm":66,"title":"Jungferntrogon (Trogon collaris) M","ispublic":1,"isfriend":0,"isfamily":0},{"id":"52176531136","owner":"32805478@N03","secret":"b78edee8b0","server":"65535","farm":66,"title":"Trog\u00f3n acollarado, Trogon collaris, Collared Trogon","ispublic":1,"isfriend":0,"isfamily":0},{"id":"52149179513","owner":"36083098@N02","secret":"f615e49fe7","server":"65535","farm":66,"title":"Trogon collaris","ispublic":1,"isfriend":0,"isfamily":0},{"id":"52096428893","owner":"96568982@N06","secret":"d326ca8b02","server":"65535","farm":66,"title":"TROGON, Collared","ispublic":1,"isfriend":0,"isfamily":0},{"id":"52041896192","owner":"45681418@N03","secret":"75ef0c3d07","server":"65535","farm":66,"title":"Orange-bellied Trogon (Trogon collaris)","ispublic":1,"isfriend":0,"isfamily":0},{"id":"52043449010","owner":"45681418@N03","secret":"8f359f80c9","server":"65535","farm":66,"title":"Orange-bellied Trogon (Trogon collaris)","ispublic":1,"isfriend":0,"isfamily":0},{"id":"52042935506","owner":"45681418@N03","secret":"1f37646d01","server":"65535","farm":66,"title":"Orange-bellied Trogon (Trogon collaris)","ispublic":1,"isfriend":0,"isfamily":0},{"id":"51983230489","owner":"156457454@N02","secret":"71bdb8c475","server":"65535","farm":66,"title":"Collared Trogon","ispublic":1,"isfriend":0,"isfamily":0},{"id":"51983012538","owner":"156457454@N02","secret":"d0c81f1d82","server":"65535","farm":66,"title":"Collared Trogon","ispublic":1,"isfriend":0,"isfamily":0},{"id":"51974547529","owner":"195311391@N04","secret":"1979fc32c4","server":"65535","farm":66,"title":"Trogon collaris","ispublic":1,"isfriend":0,"isfamily":0},{"id":"51937175821","owner":"45681418@N03","secret":"f250e41aed","server":"65535","farm":66,"title":"Orange-bellied Trogon (Trogon collaris)","ispublic":1,"isfriend":0,"isfamily":0},{"id":"51937787890","owner":"45681418@N03","secret":"3e6209fc5a","server":"65535","farm":66,"title":"Orange-bellied Trogon (Trogon collaris)","ispublic":1,"isfriend":0,"isfamily":0},{"id":"51937492014","owner":"45681418@N03","secret":"ce68c06c9e","server":"65535","farm":66,"title":"Orange-bellied Trogon (Trogon collaris)","ispublic":1,"isfriend":0,"isfamily":0},{"id":"51937787140","owner":"45681418@N03","secret":"7da9ddf429","server":"65535","farm":66,"title":"Orange-bellied Trogon (Trogon collaris)","ispublic":1,"isfriend":0,"isfamily":0},{"id":"51937246393","owner":"45681418@N03","secret":"8dd8692ea4","server":"65535","farm":66,"title":"Orange-bellied Trogon (Trogon collaris)","ispublic":1,"isfriend":0,"isfamily":0},{"id":"51937490489","owner":"45681418@N03","secret":"347d1c7cf1","server":"65535","farm":66,"title":"Orange-bellied Trogon (Trogon collaris)","ispublic":1,"isfriend":0,"isfamily":0},{"id":"51937785885","owner":"45681418@N03","secret":"5a1b6f7dd6","server":"65535","farm":66,"title":"Orange-bellied Trogon (Trogon collaris)","ispublic":1,"isfriend":0,"isfamily":0},{"id":"51780422778","owner":"154261763@N05","secret":"a73664063b","server":"65535","farm":66,"title":"Orange-bellied trogon (Jungferntrogon) - Trogon collaris aurantiiventris","ispublic":1,"isfriend":0,"isfamily":0},{"id":"51775284609","owner":"154261763@N05","secret":"9f3cbbd7a3","server":"65535","farm":66,"title":"Collared trogon (Jungferntrogon) - Trogon collaris","ispublic":1,"isfriend":0,"isfamily":0},{"id":"51773819532","owner":"154261763@N05","secret":"189640d845","server":"65535","farm":66,"title":"Orange-bellied trogon (Jungferntrogon) - Trogon collaris aurantiiventris","ispublic":1,"isfriend":0,"isfamily":0},{"id":"51699697928","owner":"12639178@N07","secret":"5c6436b76e","server":"65535","farm":66,"title":"Jungferntrogon (Collared Trogon)","ispublic":1,"isfriend":0,"isfamily":0},{"id":"51655821433","owner":"189991906@N04","secret":"4bdf27de8d","server":"65535","farm":66,"title":"Trogon collaris","ispublic":1,"isfriend":0,"isfamily":0},{"id":"51653984435","owner":"37493716@N02","secret":"bd238ce238","server":"65535","farm":66,"title":"Collared Trogon Trogon collaris - Reserva ProAves El Jaguar - Foto: Leonel Silva","ispublic":1,"isfriend":0,"isfamily":0},{"id":"51584569497","owner":"145824323@N05","secret":"8cd1c0e46e","server":"65535","farm":66,"title":"Collared trogon (Trogon collaris puella)","ispublic":1,"isfriend":0,"isfamily":0},{"id":"51584566822","owner":"145824323@N05","secret":"0da26a0f5d","server":"65535","farm":66,"title":"Collared trogon (Trogon collaris puella)","ispublic":1,"isfriend":0,"isfamily":0},{"id":"51369577125","owner":"103263246@N06","secret":"d903b2fc8a","server":"65535","farm":66,"title":"Trogon collaris. Viuda Roja. Collared Trogon","ispublic":1,"isfriend":0,"isfamily":0},{"id":"51367808832","owner":"103263246@N06","secret":"09c81aea2f","server":"65535","farm":66,"title":"Trogon collaris. Viuda Roja. Collared Trogon","ispublic":1,"isfriend":0,"isfamily":0},{"id":"51354060223","owner":"153849901@N07","secret":"06ac7cf593","server":"65535","farm":66,"title":"Trog\u00f3n collaris. Valle del Cauca. Colombia","ispublic":1,"isfriend":0,"isfamily":0},{"id":"51323095004","owner":"150986980@N04","secret":"67a6b2394c","server":"65535","farm":66,"title":"Trog\u00f3n Collaris","ispublic":1,"isfriend":0,"isfamily":0},{"id":"51013219090","owner":"37493716@N02","secret":"d8fd1bd868","server":"65535","farm":66,"title":"Collared Trogon - Trogon collaris - El Jaguar ProAves Reserve  - Foto Daniel Villar","ispublic":1,"isfriend":0,"isfamily":0},{"id":"51026717681","owner":"186211059@N06","secret":"82945b6cef","server":"65535","farm":66,"title":"Collared Trogon","ispublic":1,"isfriend":0,"isfamily":0},{"id":"51026715201","owner":"186211059@N06","secret":"269080008f","server":"65535","farm":66,"title":"Collared Trogon","ispublic":1,"isfriend":0,"isfamily":0},{"id":"51013147167","owner":"189223790@N06","secret":"2159e0a6e1","server":"65535","farm":66,"title":"Trogon acollarado  - Trogon collaris. Hembra","ispublic":1,"isfriend":0,"isfamily":0},{"id":"51013145702","owner":"189223790@N06","secret":"8e9c79609d","server":"65535","farm":66,"title":"Trogon acollarado   - Trogon collaris","ispublic":1,"isfriend":0,"isfamily":0},{"id":"51013054451","owner":"189223790@N06","secret":"42ae456bd0","server":"65535","farm":66,"title":"Trogon acollarado  - Trogon collaris","ispublic":1,"isfriend":0,"isfamily":0},{"id":"50963362383","owner":"192190836@N05","secret":"ce679cdef9","server":"65535","farm":66,"title":"Trogon \u00e0 ventre orange - Trogon collaris aurantiiventris - Collared Trogon (aurantiiventris)","ispublic":1,"isfriend":0,"isfamily":0},{"id":"50905052153","owner":"37493716@N02","secret":"ed141420c2","server":"65535","farm":66,"title":"Trogon collaris Hembra","ispublic":1,"isfriend":0,"isfamily":0},{"id":"50905877702","owner":"37493716@N02","secret":"0d1dac4996","server":"65535","farm":66,"title":"Trogon collaris_3","ispublic":1,"isfriend":0,"isfamily":0},{"id":"50905752556","owner":"37493716@N02","secret":"65124724d8","server":"65535","farm":66,"title":"Trogon collaris_1","ispublic":1,"isfriend":0,"isfamily":0},{"id":"50905752181","owner":"37493716@N02","secret":"6080096cbd","server":"65535","farm":66,"title":"Trogon collaris_2","ispublic":1,"isfriend":0,"isfamily":0},{"id":"50735924721","owner":"32805478@N03","secret":"1a93c7073c","server":"65535","farm":66,"title":"Trog\u00f3n acollarado, Trogon collaris, Collared Trogon","ispublic":1,"isfriend":0,"isfamily":0},{"id":"50555829831","owner":"12639178@N07","secret":"025b299bbf","server":"65535","farm":66,"title":"29274_Trogon collaris M\u00e4nnchen","ispublic":1,"isfriend":0,"isfamily":0},{"id":"50555946792","owner":"12639178@N07","secret":"6174471b62","server":"65535","farm":66,"title":"29280_Trogon collaris M\u00e4nnchen","ispublic":1,"isfriend":0,"isfamily":0},{"id":"50547021367","owner":"187917085@N02","secret":"f1b3865ab5","server":"65535","farm":66,"title":"Trogon collaris","ispublic":1,"isfriend":0,"isfamily":0},{"id":"50547019937","owner":"187917085@N02","secret":"b07bd12e95","server":"65535","farm":66,"title":"Trogon collaris","ispublic":1,"isfriend":0,"isfamily":0},{"id":"50514363007","owner":"37493716@N02","secret":"6c9f1c6b8c","server":"65535","farm":66,"title":"Trogon collaris macho","ispublic":1,"isfriend":0,"isfamily":0},{"id":"50217838388","owner":"61021753@N02","secret":"5f09db8a05","server":"65535","farm":66,"title":"n39_w1150","ispublic":1,"isfriend":0,"isfamily":0},{"id":"49709711377","owner":"125723802@N05","secret":"5fca7be75b","server":"65535","farm":66,"title":"Trogon collaris aurantiiventris\/underwoodi - Collared Trogon (Orange-bellied)","ispublic":1,"isfriend":0,"isfamily":0},{"id":"49709388496","owner":"125723802@N05","secret":"c106afcd81","server":"65535","farm":66,"title":"Trogon collaris aurantiiventris\/underwoodi - Collared Trogon (Orange-bellied)","ispublic":1,"isfriend":0,"isfamily":0},{"id":"49652426381","owner":"10577082@N05","secret":"f4a37292e7","server":"65535","farm":66,"title":"_N509597  Collared Trogon","ispublic":1,"isfriend":0,"isfamily":0}]},"stat":"ok"}