{"photos":{"page":1,"pages":46,"perpage":100,"total":4533,"photo":[{"id":"52667315398","owner":"49114357@N08","secret":"6628e04751","server":"65535","farm":66,"title":"Common Grackle","ispublic":1,"isfriend":0,"isfamily":0},{"id":"52700993576","owner":"8904060@N06","secret":"2def24fcf1","server":"65535","farm":66,"title":"Grackle Stare","ispublic":1,"isfriend":0,"isfamily":0},{"id":"52700975711","owner":"36685968@N00","secret":"2fe10bd996","server":"65535","farm":66,"title":"Common Grackle (Quiscalus quiscula)","ispublic":1,"isfriend":0,"isfamily":0},{"id":"52701391130","owner":"36685968@N00","secret":"a1b137c585","server":"65535","farm":66,"title":"Common Grackle (Quiscalus quiscula)","ispublic":1,"isfriend":0,"isfamily":0},{"id":"52696467707","owner":"128537732@N06","secret":"c88fbda236","server":"65535","farm":66,"title":"Common Grackle (Quiscalus quiscula)","ispublic":1,"isfriend":0,"isfamily":0},{"id":"52697244419","owner":"128537732@N06","secret":"1d7ca8c2b9","server":"65535","farm":66,"title":"Common Grackle (Quiscalus quiscula)","ispublic":1,"isfriend":0,"isfamily":0},{"id":"52690429053","owner":"42964440@N08","secret":"c174d52f7b","server":"65535","farm":66,"title":"Juvenile Common Grackle (Quiscalus quiscula)","ispublic":1,"isfriend":0,"isfamily":0},{"id":"52683496715","owner":"189426727@N07","secret":"f04bb0ab88","server":"65535","farm":66,"title":"Common Grackle","ispublic":1,"isfriend":0,"isfamily":0},{"id":"52673781365","owner":"10336659@N04","secret":"4216f085cf","server":"65535","farm":66,"title":"Common Grackle (Quiscalus quiscula) flying in the forest at Green Cay Nature Preserve","ispublic":1,"isfriend":0,"isfamily":0},{"id":"52670665025","owner":"86191812@N07","secret":"238563f068","server":"65535","farm":66,"title":"Common Grackle (Quiscalus quiscula)","ispublic":1,"isfriend":0,"isfamily":0},{"id":"52667833230","owner":"10336659@N04","secret":"92def1cef5","server":"65535","farm":66,"title":"Common Grackle (Quiscalus quiscula) flying in the forest at Green Cay Nature Preserve","ispublic":1,"isfriend":0,"isfamily":0},{"id":"52648827794","owner":"48985578@N03","secret":"916abe1af3","server":"65535","farm":66,"title":"Incoming!","ispublic":1,"isfriend":0,"isfamily":0},{"id":"52644992312","owner":"151381692@N04","secret":"0c6d582385","server":"65535","farm":66,"title":"Mixed Flock (Agelaius phoeniceus, Molothrus ater, Sturnus vulgaris, and Quiscalus quiscula)","ispublic":1,"isfriend":0,"isfamily":0},{"id":"52643703485","owner":"8013969@N03","secret":"cc1c6343ec","server":"65535","farm":66,"title":"Quiscalus quiscula DFL btr22-2","ispublic":1,"isfriend":0,"isfamily":0},{"id":"52643259136","owner":"8013969@N03","secret":"1e9a9df81f","server":"65535","farm":66,"title":"Quiscalus quiscula DFL btr22-3","ispublic":1,"isfriend":0,"isfamily":0},{"id":"52640342079","owner":"196558678@N02","secret":"d5dd6496e7","server":"65535","farm":66,"title":"Common Grackle (Quiscalus quiscula)","ispublic":1,"isfriend":0,"isfamily":0},{"id":"52640342024","owner":"196558678@N02","secret":"af3cfe0ff4","server":"65535","farm":66,"title":"Common Grackle (Quiscalus quiscula)","ispublic":1,"isfriend":0,"isfamily":0},{"id":"52631426832","owner":"47533293@N04","secret":"cac795fba1","server":"65535","farm":66,"title":"Common grackle, Quiscalus quiscula","ispublic":1,"isfriend":0,"isfamily":0},{"id":"52601039480","owner":"84169650@N07","secret":"b2e75fdc29","server":"65535","farm":66,"title":"Common Grackle","ispublic":1,"isfriend":0,"isfamily":0},{"id":"52591237246","owner":"76288515@N07","secret":"426db1d4ae","server":"65535","farm":66,"title":"Common Grackle Quiscalus quiscula","ispublic":1,"isfriend":0,"isfamily":0},{"id":"52591659725","owner":"76288515@N07","secret":"85c1bcc711","server":"65535","farm":66,"title":"Common Grackle Quiscalus quiscula","ispublic":1,"isfriend":0,"isfamily":0},{"id":"52591237206","owner":"76288515@N07","secret":"ffd38f75ec","server":"65535","farm":66,"title":"Common Grackle Quiscalus quiscula","ispublic":1,"isfriend":0,"isfamily":0},{"id":"52591494704","owner":"76288515@N07","secret":"bb30e4d91a","server":"65535","farm":66,"title":"Common Grackle Quiscalus quiscula","ispublic":1,"isfriend":0,"isfamily":0},{"id":"52590749747","owner":"76288515@N07","secret":"a3b04eb809","server":"65535","farm":66,"title":"Common Grackle Quiscalus quiscula","ispublic":1,"isfriend":0,"isfamily":0},{"id":"52590749712","owner":"76288515@N07","secret":"302a0430fa","server":"65535","farm":66,"title":"Common Grackle Quiscalus quiscula","ispublic":1,"isfriend":0,"isfamily":0},{"id":"52590749682","owner":"76288515@N07","secret":"d08ebcc4ed","server":"65535","farm":66,"title":"Common Grackle Quiscalus quiscula","ispublic":1,"isfriend":0,"isfamily":0},{"id":"52590749667","owner":"76288515@N07","secret":"d34b54ec68","server":"65535","farm":66,"title":"Common Grackle Quiscalus quiscula","ispublic":1,"isfriend":0,"isfamily":0},{"id":"52591236981","owner":"76288515@N07","secret":"a26b5e8ce7","server":"65535","farm":66,"title":"Common Grackle Quiscalus quiscula","ispublic":1,"isfriend":0,"isfamily":0},{"id":"52591750458","owner":"76288515@N07","secret":"6c43c8a923","server":"65535","farm":66,"title":"Common Grackle Quiscalus quiscula","ispublic":1,"isfriend":0,"isfamily":0},{"id":"52591750428","owner":"76288515@N07","secret":"26af8216d4","server":"65535","farm":66,"title":"Common Grackle Quiscalus quiscula","ispublic":1,"isfriend":0,"isfamily":0},{"id":"52591750398","owner":"76288515@N07","secret":"60e154cb40","server":"65535","farm":66,"title":"Common Grackle Quiscalus quiscula","ispublic":1,"isfriend":0,"isfamily":0},{"id":"52581912780","owner":"47448228@N07","secret":"ff9eeb7615","server":"65535","farm":66,"title":"DSC_0362","ispublic":1,"isfriend":0,"isfamily":0},{"id":"52581015162","owner":"47448228@N07","secret":"b76d2184cb","server":"65535","farm":66,"title":"DSC_0355","ispublic":1,"isfriend":0,"isfamily":0},{"id":"52581015097","owner":"47448228@N07","secret":"092f6a879b","server":"65535","farm":66,"title":"DSC_0371","ispublic":1,"isfriend":0,"isfamily":0},{"id":"52581912710","owner":"47448228@N07","secret":"795244e49a","server":"65535","farm":66,"title":"DSC_0370","ispublic":1,"isfriend":0,"isfamily":0},{"id":"52581994488","owner":"47448228@N07","secret":"c3e69134fa","server":"65535","farm":66,"title":"DSC_0374","ispublic":1,"isfriend":0,"isfamily":0},{"id":"52581912685","owner":"47448228@N07","secret":"ec1001cc02","server":"65535","farm":66,"title":"DSC_0375","ispublic":1,"isfriend":0,"isfamily":0},{"id":"52581015052","owner":"47448228@N07","secret":"89c335e5a4","server":"65535","farm":66,"title":"DSC_0376","ispublic":1,"isfriend":0,"isfamily":0},{"id":"52581912665","owner":"47448228@N07","secret":"d7c11a1f53","server":"65535","farm":66,"title":"DSC_0378","ispublic":1,"isfriend":0,"isfamily":0},{"id":"52581739874","owner":"47448228@N07","secret":"9f7c8b64f2","server":"65535","farm":66,"title":"DSC_0382","ispublic":1,"isfriend":0,"isfamily":0},{"id":"52581739889","owner":"47448228@N07","secret":"f47dbc8014","server":"65535","farm":66,"title":"DSC_0380","ispublic":1,"isfriend":0,"isfamily":0},{"id":"52581015002","owner":"47448228@N07","secret":"1cc3e46950","server":"65535","farm":66,"title":"DSC_0383","ispublic":1,"isfriend":0,"isfamily":0},{"id":"52581912595","owner":"47448228@N07","secret":"e78666d484","server":"65535","farm":66,"title":"DSC_0387","ispublic":1,"isfriend":0,"isfamily":0},{"id":"52581994293","owner":"47448228@N07","secret":"fd0035855d","server":"65535","farm":66,"title":"DSC_0389","ispublic":1,"isfriend":0,"isfamily":0},{"id":"52581014902","owner":"47448228@N07","secret":"eddba80c2d","server":"65535","farm":66,"title":"DSC_0368","ispublic":1,"isfriend":0,"isfamily":0},{"id":"52581912525","owner":"47448228@N07","secret":"4b73244d96","server":"65535","farm":66,"title":"DSC_0379","ispublic":1,"isfriend":0,"isfamily":0},{"id":"52581994233","owner":"47448228@N07","secret":"a0c641e619","server":"65535","farm":66,"title":"DSC_0354","ispublic":1,"isfriend":0,"isfamily":0},{"id":"52580318476","owner":"153973412@N04","secret":"8ba86c8dd4","server":"65535","farm":66,"title":"Common Grackle-Quiscalus quiscula, Iowa City, IA","ispublic":1,"isfriend":0,"isfamily":0},{"id":"52564673745","owner":"39445433@N02","secret":"c380a74af9","server":"65535","farm":66,"title":"Common Grackle","ispublic":1,"isfriend":0,"isfamily":0},{"id":"52564493334","owner":"39445433@N02","secret":"e53b0a4530","server":"65535","farm":66,"title":"Common Grackle","ispublic":1,"isfriend":0,"isfamily":0},{"id":"52550000941","owner":"42964440@N08","secret":"70387fc969","server":"65535","farm":66,"title":"Female Common Grackle (Quiscalus quiscula)","ispublic":1,"isfriend":0,"isfamily":0},{"id":"52514284866","owner":"8654297@N06","secret":"a860b594a7","server":"65535","farm":66,"title":"Colorful Grackle","ispublic":1,"isfriend":0,"isfamily":0},{"id":"52508026538","owner":"124450184@N05","secret":"6a9be58f25","server":"65535","farm":66,"title":"Grackle","ispublic":1,"isfriend":0,"isfamily":0},{"id":"52495245726","owner":"64557331@N04","secret":"7d38d16b83","server":"65535","farm":66,"title":"Common Grackle - (Quiscalus quiscula)_04292022","ispublic":1,"isfriend":0,"isfamily":0},{"id":"52477785820","owner":"30638967@N03","secret":"0a0fc42d16","server":"65535","farm":66,"title":"Common Grackle DSC_5000","ispublic":1,"isfriend":0,"isfamily":0},{"id":"52390241117","owner":"49114357@N08","secret":"215b6f3953","server":"65535","farm":66,"title":"Common Grackle","ispublic":1,"isfriend":0,"isfamily":0},{"id":"52454270425","owner":"37242840@N07","secret":"5d63a8faa2","server":"65535","farm":66,"title":"Common Grackle, Quiscalus quiscula (1)","ispublic":1,"isfriend":0,"isfamily":0},{"id":"52454086329","owner":"37242840@N07","secret":"561610bde8","server":"65535","farm":66,"title":"Common Grackle, Quiscalus quiscula (2)","ispublic":1,"isfriend":0,"isfamily":0},{"id":"52442529744","owner":"100771227@N08","secret":"c78284054d","server":"65535","farm":66,"title":"Common Grackle","ispublic":1,"isfriend":0,"isfamily":0},{"id":"52427213419","owner":"128369733@N04","secret":"11797f43e0","server":"65535","farm":66,"title":"In Black And White (2)","ispublic":1,"isfriend":0,"isfamily":0},{"id":"52400193040","owner":"165841515@N03","secret":"37c2503279","server":"65535","farm":66,"title":"Quiscale bronz\u00e9 \/ Common Grackle \/ (Quiscalus quiscula)","ispublic":1,"isfriend":0,"isfamily":0},{"id":"52398276569","owner":"98627816@N02","secret":"b049d1682b","server":"65535","farm":66,"title":"Great-tailed Grackle","ispublic":1,"isfriend":0,"isfamily":0},{"id":"52427545113","owner":"134270033@N06","secret":"b74d4cbb5c","server":"65535","farm":66,"title":"HFF :: Happy Fence Friday","ispublic":1,"isfriend":0,"isfamily":0},{"id":"52388112456","owner":"128369733@N04","secret":"d128c247c4","server":"65535","farm":66,"title":"Just A Common Grackle","ispublic":1,"isfriend":0,"isfamily":0},{"id":"52385787304","owner":"128369733@N04","secret":"91589fae1d","server":"65535","farm":66,"title":"Morning At The Birdbath (3)","ispublic":1,"isfriend":0,"isfamily":0},{"id":"52384539717","owner":"128369733@N04","secret":"71674f810d","server":"65535","farm":66,"title":"Morning At The Birdbath (4)","ispublic":1,"isfriend":0,"isfamily":0},{"id":"52385739200","owner":"169771858@N03","secret":"f7a66f3223","server":"65535","farm":66,"title":"Common Grackle #1 - 2022-03-20","ispublic":1,"isfriend":0,"isfamily":0},{"id":"52371541394","owner":"42964440@N08","secret":"4d15483bca","server":"65535","farm":66,"title":"Juvenile Grackle Searching For Food (Quiscalus quiscula)","ispublic":1,"isfriend":0,"isfamily":0},{"id":"52423351717","owner":"195656112@N04","secret":"cd763e4a5c","server":"65535","farm":66,"title":"Common Grackle","ispublic":1,"isfriend":0,"isfamily":0},{"id":"52424312530","owner":"195656112@N04","secret":"e33e49cf6f","server":"65535","farm":66,"title":"Common Grackle","ispublic":1,"isfriend":0,"isfamily":0},{"id":"52424312415","owner":"195656112@N04","secret":"9f266a3b40","server":"65535","farm":66,"title":"Common Grackle","ispublic":1,"isfriend":0,"isfamily":0},{"id":"52336437512","owner":"40724294@N04","secret":"d607daf141","server":"65535","farm":66,"title":"Fledgling Grackle","ispublic":1,"isfriend":0,"isfamily":0},{"id":"52330332403","owner":"73683441@N07","secret":"40c043b467","server":"65535","farm":66,"title":"Common Grackle (Quiscalus quiscula)","ispublic":1,"isfriend":0,"isfamily":0},{"id":"52326951275","owner":"181824639@N02","secret":"288b8fc8ef","server":"65535","farm":66,"title":"Quiscale bronz\u00e9 ( Quiscalus quiscula )","ispublic":1,"isfriend":0,"isfamily":0},{"id":"52313972753","owner":"84152923@N08","secret":"7f18551d91","server":"65535","farm":66,"title":"glanstroepiaal - Quiscalus quiscula - common grackle","ispublic":1,"isfriend":0,"isfamily":0},{"id":"52313972073","owner":"84152923@N08","secret":"ac3299d726","server":"65535","farm":66,"title":"glanstroepiaal - Quiscalus quiscula - common grackle","ispublic":1,"isfriend":0,"isfamily":0},{"id":"52314100685","owner":"84152923@N08","secret":"206cd3e59b","server":"65535","farm":66,"title":"glanstroepiaal - Quiscalus quiscula - common grackle","ispublic":1,"isfriend":0,"isfamily":0},{"id":"52642763322","owner":"8013969@N03","secret":"b7b38fd23c","server":"65535","farm":66,"title":"Quiscalus quiscula DFL btr22-1","ispublic":1,"isfriend":0,"isfamily":0},{"id":"52581015157","owner":"47448228@N07","secret":"fa609efe8b","server":"65535","farm":66,"title":"DSC_0364","ispublic":1,"isfriend":0,"isfamily":0},{"id":"52581912750","owner":"47448228@N07","secret":"9afddd64f3","server":"65535","farm":66,"title":"DSC_0366","ispublic":1,"isfriend":0,"isfamily":0},{"id":"52581740009","owner":"47448228@N07","secret":"a773eafaec","server":"65535","farm":66,"title":"DSC_0365","ispublic":1,"isfriend":0,"isfamily":0},{"id":"52581015137","owner":"47448228@N07","secret":"cdf54d3f96","server":"65535","farm":66,"title":"DSC_0367","ispublic":1,"isfriend":0,"isfamily":0},{"id":"52581477596","owner":"47448228@N07","secret":"f580cc28df","server":"65535","farm":66,"title":"DSC_0369","ispublic":1,"isfriend":0,"isfamily":0},{"id":"52581015092","owner":"47448228@N07","secret":"3aeff29942","server":"65535","farm":66,"title":"DSC_0373","ispublic":1,"isfriend":0,"isfamily":0},{"id":"52581739864","owner":"47448228@N07","secret":"5d5e4fd3dc","server":"65535","farm":66,"title":"DSC_0385","ispublic":1,"isfriend":0,"isfamily":0},{"id":"52581739859","owner":"47448228@N07","secret":"3cc0f9e987","server":"65535","farm":66,"title":"DSC_0386","ispublic":1,"isfriend":0,"isfamily":0},{"id":"52581739794","owner":"47448228@N07","secret":"6767228dfb","server":"65535","farm":66,"title":"DSC_0388","ispublic":1,"isfriend":0,"isfamily":0},{"id":"52581994278","owner":"47448228@N07","secret":"51462b1574","server":"65535","farm":66,"title":"DSC_0361","ispublic":1,"isfriend":0,"isfamily":0},{"id":"52581994288","owner":"47448228@N07","secret":"72aa43368a","server":"65535","farm":66,"title":"DSC_0390","ispublic":1,"isfriend":0,"isfamily":0},{"id":"52581994243","owner":"47448228@N07","secret":"4d7b774a34","server":"65535","farm":66,"title":"DSC_0372","ispublic":1,"isfriend":0,"isfamily":0},{"id":"52564498294","owner":"39445433@N02","secret":"8b24946050","server":"65535","farm":66,"title":"Common Grackle","ispublic":1,"isfriend":0,"isfamily":0},{"id":"52546855665","owner":"165841515@N03","secret":"7fc54d2eb0","server":"65535","farm":66,"title":"Quiscale bronz\u00e9 \/ Common Grackle \/ (Quiscalus quiscula)","ispublic":1,"isfriend":0,"isfamily":0},{"id":"52492822447","owner":"39445433@N02","secret":"705ef74da8","server":"65535","farm":66,"title":"Common Grackle","ispublic":1,"isfriend":0,"isfamily":0},{"id":"52477869568","owner":"30638967@N03","secret":"50fc8d003e","server":"65535","farm":66,"title":"Common Grackle DSC_4975","ispublic":1,"isfriend":0,"isfamily":0},{"id":"52443070765","owner":"36685968@N00","secret":"a7177a9bc7","server":"65535","farm":66,"title":"Common Grackle (Quiscalus quiscula)","ispublic":1,"isfriend":0,"isfamily":0},{"id":"52442625881","owner":"36685968@N00","secret":"802d954dcf","server":"65535","farm":66,"title":"Common Grackle (Quiscalus quiscula)","ispublic":1,"isfriend":0,"isfamily":0},{"id":"52427447753","owner":"128369733@N04","secret":"5927d9b288","server":"65535","farm":66,"title":"In Black And White (1)","ispublic":1,"isfriend":0,"isfamily":0},{"id":"52400554750","owner":"65148649@N04","secret":"1384309970","server":"65535","farm":66,"title":"Common Grackle","ispublic":1,"isfriend":0,"isfamily":0},{"id":"52399610352","owner":"65148649@N04","secret":"36f0dce4c6","server":"65535","farm":66,"title":"Common Grackle","ispublic":1,"isfriend":0,"isfamily":0},{"id":"52346124858","owner":"18739614@N00","secret":"60b6604337","server":"65535","farm":66,"title":"Common Grackle","ispublic":1,"isfriend":0,"isfamily":0}]},"stat":"ok"}