{"photos":{"page":1,"pages":198,"perpage":100,"total":19712,"photo":[{"id":"52723036351","owner":"127588226@N08","secret":"6f334928a7","server":"65535","farm":66,"title":"K33P7222c Common Tern, Woodwalton Fen, July 2022","ispublic":1,"isfriend":0,"isfamily":0},{"id":"52723036271","owner":"127588226@N08","secret":"46dc5c5d3e","server":"65535","farm":66,"title":"K33P7255aa Common Tern, FenDrayton Lakes, May 2022","ispublic":1,"isfriend":0,"isfamily":0},{"id":"52723511473","owner":"127588226@N08","secret":"e5366f01c1","server":"65535","farm":66,"title":"K33P7384aa Common Tern, FenDrayton Lakes, May 2022","ispublic":1,"isfriend":0,"isfamily":0},{"id":"52716327568","owner":"189215888@N05","secret":"a4da083205","server":"65535","farm":66,"title":"Common tern - Sterna hirundo","ispublic":1,"isfriend":0,"isfamily":0},{"id":"52715309672","owner":"126498689@N04","secret":"36c24dcd01","server":"65535","farm":66,"title":"Sterne-pierregarin","ispublic":1,"isfriend":0,"isfamily":0},{"id":"52716088979","owner":"126498689@N04","secret":"fbf4300815","server":"65535","farm":66,"title":"Sterne-pierregarin","ispublic":1,"isfriend":0,"isfamily":0},{"id":"52715831061","owner":"126498689@N04","secret":"3f361fa056","server":"65535","farm":66,"title":"Sterne-pierregarin","ispublic":1,"isfriend":0,"isfamily":0},{"id":"52716254485","owner":"126498689@N04","secret":"9e23e68a8c","server":"65535","farm":66,"title":"Sterne-pierregarin","ispublic":1,"isfriend":0,"isfamily":0},{"id":"52713615786","owner":"76617062@N08","secret":"0206e1b2d1","server":"65535","farm":66,"title":"1.04151 Sterne pierregarin et Sterne voyageuse \/ Common Tern and Lesser Crested Tern","ispublic":1,"isfriend":0,"isfamily":0},{"id":"52711018069","owner":"100887988@N03","secret":"9cfb5c86bc","server":"65535","farm":66,"title":"Sterna hirundo","ispublic":1,"isfriend":0,"isfamily":0},{"id":"52709116881","owner":"145890134@N05","secret":"54774382b2","server":"65535","farm":66,"title":"Tern | Visdiefje | Seeschwalbe, (Sterna hirundo)","ispublic":1,"isfriend":0,"isfamily":0},{"id":"52696497228","owner":"129125399@N04","secret":"b3d8801903","server":"65535","farm":66,"title":"Common Tern, Winter Plumage (Sterna hirundo)","ispublic":1,"isfriend":0,"isfamily":0},{"id":"52696191850","owner":"197745515@N06","secret":"847112eb1f","server":"65535","farm":66,"title":"Sterna hirundo, Chroicocephalus ridibundus","ispublic":1,"isfriend":0,"isfamily":0},{"id":"52694987772","owner":"129125399@N04","secret":"4e22823bfe","server":"65535","farm":66,"title":"Common Tern, Winter Plumage (Sterna hirundo)","ispublic":1,"isfriend":0,"isfamily":0},{"id":"52686651443","owner":"61485851@N06","secret":"7b496c7d4a","server":"65535","farm":66,"title":"Common tern (Lifer #471)","ispublic":1,"isfriend":0,"isfamily":0},{"id":"52678501497","owner":"189076226@N07","secret":"7a1436b07d","server":"65535","farm":66,"title":"Common Tern with fish","ispublic":1,"isfriend":0,"isfamily":0},{"id":"52679443290","owner":"150142984@N02","secret":"8acafedf2c","server":"65535","farm":66,"title":"Graureiher (Ardea cinerea) mit Flussseeschwalbe (Sterna hirundo)","ispublic":1,"isfriend":0,"isfamily":0},{"id":"52679193464","owner":"191391950@N02","secret":"10fa9094ab","server":"65535","farm":66,"title":"Sterne pierregarin - Sterna hirundo","ispublic":1,"isfriend":0,"isfamily":0},{"id":"52670361973","owner":"91248320@N04","secret":"9c6319ef56","server":"65535","farm":66,"title":"Common tern with a smelt catch","ispublic":1,"isfriend":0,"isfamily":0},{"id":"52666293041","owner":"150142984@N02","secret":"c9b177a3db","server":"65535","farm":66,"title":"Lachm\u00f6we (Larus ridibundus) mit Flussseeschwalbe (Sterna hirundo)","ispublic":1,"isfriend":0,"isfamily":0},{"id":"52665174243","owner":"150142984@N02","secret":"4ca9861747","server":"65535","farm":66,"title":"Flussseeschwalbe (Sterna hirundo)","ispublic":1,"isfriend":0,"isfamily":0},{"id":"52664176762","owner":"150142984@N02","secret":"c7ee3684be","server":"65535","farm":66,"title":"Flussseeschwalbe (Sterna hirundo)","ispublic":1,"isfriend":0,"isfamily":0},{"id":"52664055393","owner":"39138537@N06","secret":"4c27a3b57e","server":"65535","farm":66,"title":"Focus","ispublic":1,"isfriend":0,"isfamily":0},{"id":"52663846854","owner":"39138537@N06","secret":"b793a8b0e5","server":"65535","farm":66,"title":"Focus","ispublic":1,"isfriend":0,"isfamily":0},{"id":"52663561216","owner":"39138537@N06","secret":"32506b91ba","server":"65535","farm":66,"title":"Focus","ispublic":1,"isfriend":0,"isfamily":0},{"id":"52663219821","owner":"150142984@N02","secret":"1064daa086","server":"65535","farm":66,"title":"Flussseeschwalbe (Sterna hirundo)","ispublic":1,"isfriend":0,"isfamily":0},{"id":"52660723627","owner":"150142984@N02","secret":"c889d42800","server":"65535","farm":66,"title":"Flussseeschwalbe (Sterna hirundo)","ispublic":1,"isfriend":0,"isfamily":0},{"id":"52659539917","owner":"136180232@N08","secret":"b56605256d","server":"65535","farm":66,"title":"Common Tern (Sterna hirundo) JTE_0581","ispublic":1,"isfriend":0,"isfamily":0},{"id":"52656126032","owner":"194219633@N06","secret":"fa9972496e","server":"65535","farm":66,"title":"Common Tern","ispublic":1,"isfriend":0,"isfamily":0},{"id":"52655881691","owner":"30120110@N02","secret":"92587ca80a","server":"65535","farm":66,"title":"Common Tern","ispublic":1,"isfriend":0,"isfamily":0},{"id":"52656161314","owner":"30120110@N02","secret":"e65b8c3aab","server":"65535","farm":66,"title":"Common Tern","ispublic":1,"isfriend":0,"isfamily":0},{"id":"52652680600","owner":"79122644@N00","secret":"84af1f7905","server":"65535","farm":66,"title":"Sterna hirundo - Gentofte S\u00f8_2022-07-10_80_DxO","ispublic":1,"isfriend":0,"isfamily":0},{"id":"52652174091","owner":"26371261@N00","secret":"8f4a116ca4","server":"65535","farm":66,"title":"Common Tern, Sterna hirundo","ispublic":1,"isfriend":0,"isfamily":0},{"id":"52652191929","owner":"43272765@N04","secret":"cb12cb072e","server":"65535","farm":66,"title":"Common Tern Sterna hirundo","ispublic":1,"isfriend":0,"isfamily":0},{"id":"52649704886","owner":"150142984@N02","secret":"b0fc4675ec","server":"65535","farm":66,"title":"Lachm\u00f6we (Larus ridibundus) mit Flussseeschwalbe (Sterna hirundo)","ispublic":1,"isfriend":0,"isfamily":0},{"id":"52649704781","owner":"150142984@N02","secret":"4a6f8da665","server":"65535","farm":66,"title":"Lachm\u00f6we (Larus ridibundus) mit Flussseeschwalbe (Sterna hirundo)","ispublic":1,"isfriend":0,"isfamily":0},{"id":"52648651348","owner":"150142984@N02","secret":"30b5af9409","server":"65535","farm":66,"title":"Flussseeschwalbe (Sterna hirundo)","ispublic":1,"isfriend":0,"isfamily":0},{"id":"52646546739","owner":"139463919@N08","secret":"620bbc8ee4","server":"65535","farm":66,"title":"EOS 5D Mark III_01078","ispublic":1,"isfriend":0,"isfamily":0},{"id":"52645106953","owner":"8013969@N03","secret":"3136d5281c","server":"65535","farm":66,"title":"Sterna hirundo DFL nj22-1","ispublic":1,"isfriend":0,"isfamily":0},{"id":"52644125257","owner":"8013969@N03","secret":"7ce70a2937","server":"65535","farm":66,"title":"Sterna hirundo DFL nj22-2","ispublic":1,"isfriend":0,"isfamily":0},{"id":"52644889244","owner":"8013969@N03","secret":"48c7019e28","server":"65535","farm":66,"title":"Sterna hirundo DFL nj22-3","ispublic":1,"isfriend":0,"isfamily":0},{"id":"52644123742","owner":"8013969@N03","secret":"3ac5105136","server":"65535","farm":66,"title":"Sterna hirundo DFL nj22-4","ispublic":1,"isfriend":0,"isfamily":0},{"id":"52644932110","owner":"194955224@N03","secret":"aa0504cc38","server":"65535","farm":66,"title":"Sterne pierregarin (Sterna hirundo)","ispublic":1,"isfriend":0,"isfamily":0},{"id":"52641160678","owner":"39138537@N06","secret":"f92f4ba82e","server":"65535","farm":66,"title":"Common Tern (Sterna hirundo)","ispublic":1,"isfriend":0,"isfamily":0},{"id":"52640884260","owner":"12639178@N07","secret":"8de5e17e29","server":"65535","farm":66,"title":"Flussseschwalbe oder doch K\u00fcstenseeschwalbe?","ispublic":1,"isfriend":0,"isfamily":0},{"id":"52640884050","owner":"12639178@N07","secret":"729c4f7d71","server":"65535","farm":66,"title":"Flussseschwalbe oder doch K\u00fcstenseeschwalbe?","ispublic":1,"isfriend":0,"isfamily":0},{"id":"52639148092","owner":"97737456@N07","secret":"dc1ef6a4b4","server":"65535","farm":66,"title":"Common Tern","ispublic":1,"isfriend":0,"isfamily":0},{"id":"52639288750","owner":"171333438@N08","secret":"dd5cebff34","server":"65535","farm":66,"title":"Sterne pierregarin (Sterna hirundo)","ispublic":1,"isfriend":0,"isfamily":0},{"id":"52639123789","owner":"150142984@N02","secret":"4b7d8d61e3","server":"65535","farm":66,"title":"Flussseeschwalbe (Sterna hirundo)","ispublic":1,"isfriend":0,"isfamily":0},{"id":"52638695263","owner":"129125399@N04","secret":"56a421d68b","server":"65535","farm":66,"title":"Common Tern, Winter Plumage (Sterna hirundo)","ispublic":1,"isfriend":0,"isfamily":0},{"id":"52636858558","owner":"171333438@N08","secret":"cb552c83fe","server":"65535","farm":66,"title":"Sterne pierregarin (Sterna hirundo)","ispublic":1,"isfriend":0,"isfamily":0},{"id":"52636637784","owner":"171333438@N08","secret":"35a1853f5e","server":"65535","farm":66,"title":"Sterne pierregarin (Sterna hirundo)","ispublic":1,"isfriend":0,"isfamily":0},{"id":"52634757872","owner":"148158464@N08","secret":"c4e76e6ef9","server":"65535","farm":66,"title":"22WSY073 Common terns, Wolseley","ispublic":1,"isfriend":0,"isfamily":0},{"id":"52635333913","owner":"191391950@N02","secret":"9d3bdf3543","server":"65535","farm":66,"title":"Sterne pierregarin - Sterna hirundo","ispublic":1,"isfriend":0,"isfamily":0},{"id":"52633718946","owner":"191391950@N02","secret":"e600f48169","server":"65535","farm":66,"title":"Sterne pierregarin - Sterna hirundo","ispublic":1,"isfriend":0,"isfamily":0},{"id":"52633695781","owner":"191391950@N02","secret":"8967b814a8","server":"65535","farm":66,"title":"Sterne pierregarin - Sterna hirundo","ispublic":1,"isfriend":0,"isfamily":0},{"id":"52633952364","owner":"191391950@N02","secret":"ff8ec5a1a6","server":"65535","farm":66,"title":"Sterne pierregarin - Sterna hirundo","ispublic":1,"isfriend":0,"isfamily":0},{"id":"52634132118","owner":"191391950@N02","secret":"ccd79a395d","server":"65535","farm":66,"title":"Sterne pierregarin - Sterna hirundo","ispublic":1,"isfriend":0,"isfamily":0},{"id":"52632719430","owner":"140734051@N08","secret":"8ea06e4c77","server":"65535","farm":66,"title":"\u0420\u0435\u0447\u043d\u0430\u044f \u043a\u0440\u0430\u0447\u043a\u0430, Sterna hirundo minussensis, Common Tern","ispublic":1,"isfriend":0,"isfamily":0},{"id":"52631763077","owner":"140734051@N08","secret":"f9bb43993a","server":"65535","farm":66,"title":"\u0420\u0435\u0447\u043d\u0430\u044f \u043a\u0440\u0430\u0447\u043a\u0430, Sterna hirundo minussensis, Common Tern","ispublic":1,"isfriend":0,"isfamily":0},{"id":"52631763067","owner":"140734051@N08","secret":"34554b78e9","server":"65535","farm":66,"title":"\u0420\u0435\u0447\u043d\u0430\u044f \u043a\u0440\u0430\u0447\u043a\u0430, Sterna hirundo minussensis, Common Tern","ispublic":1,"isfriend":0,"isfamily":0},{"id":"52632761278","owner":"140734051@N08","secret":"65a3e73ece","server":"65535","farm":66,"title":"\u0420\u0435\u0447\u043d\u0430\u044f \u043a\u0440\u0430\u0447\u043a\u0430, Sterna hirundo minussensis, Common Tern","ispublic":1,"isfriend":0,"isfamily":0},{"id":"52632531939","owner":"140734051@N08","secret":"fc0af4ec10","server":"65535","farm":66,"title":"\u0420\u0435\u0447\u043d\u0430\u044f \u043a\u0440\u0430\u0447\u043a\u0430, Sterna hirundo minussensis, Common Tern","ispublic":1,"isfriend":0,"isfamily":0},{"id":"52632719400","owner":"140734051@N08","secret":"eb1b91fb31","server":"65535","farm":66,"title":"\u0420\u0435\u0447\u043d\u0430\u044f \u043a\u0440\u0430\u0447\u043a\u0430, Sterna hirundo minussensis, Common Tern","ispublic":1,"isfriend":0,"isfamily":0},{"id":"52632761248","owner":"140734051@N08","secret":"a2cda3d34d","server":"65535","farm":66,"title":"\u0420\u0435\u0447\u043d\u0430\u044f \u043a\u0440\u0430\u0447\u043a\u0430, Sterna hirundo minussensis, Common Tern","ispublic":1,"isfriend":0,"isfamily":0},{"id":"52631663005","owner":"148158464@N08","secret":"c80e304433","server":"65535","farm":66,"title":"22WSY071 Common tern, Wolseley","ispublic":1,"isfriend":0,"isfamily":0},{"id":"52629135562","owner":"12639178@N07","secret":"8fb6065c01","server":"65535","farm":66,"title":"Flussseeschwalbe hat einen Fisch erbeutet","ispublic":1,"isfriend":0,"isfamily":0},{"id":"52629901454","owner":"12639178@N07","secret":"6ce3698a07","server":"65535","farm":66,"title":"Flussseeschwalbe jagt \u00fcber Sandgrubensee","ispublic":1,"isfriend":0,"isfamily":0},{"id":"52625083912","owner":"12639178@N07","secret":"ea8770051e","server":"65535","farm":66,"title":"Fluss(?)seeschwalbe jagt am Bug \/ Polen","ispublic":1,"isfriend":0,"isfamily":0},{"id":"52622767230","owner":"22599889@N05","secret":"7506396dbc","server":"65535","farm":66,"title":"Visdiefje","ispublic":1,"isfriend":0,"isfamily":0},{"id":"52614523445","owner":"25295081@N05","secret":"c9bf4c3ae4","server":"65535","farm":66,"title":"Sterne pierregarin","ispublic":1,"isfriend":0,"isfamily":0},{"id":"52611834648","owner":"12639178@N07","secret":"a1a76244b1","server":"65535","farm":66,"title":"Flussseeschwalbe (Sterna hirundo) (1)","ispublic":1,"isfriend":0,"isfamily":0},{"id":"52608979151","owner":"184960040@N02","secret":"d706324a69","server":"65535","farm":66,"title":"Flussseeschwalbe \/ Common tern","ispublic":1,"isfriend":0,"isfamily":0},{"id":"52609238149","owner":"184960040@N02","secret":"7775c79373","server":"65535","farm":66,"title":"Flussseeschwalbe \/ Common tern","ispublic":1,"isfriend":0,"isfamily":0},{"id":"52608373153","owner":"12639178@N07","secret":"7ea525fa80","server":"65535","farm":66,"title":"Flu\u00dfseeschwalbe","ispublic":1,"isfriend":0,"isfamily":0},{"id":"52602932644","owner":"12639178@N07","secret":"95878efcb7","server":"65535","farm":66,"title":"Flussseeschwalbe, Madeira","ispublic":1,"isfriend":0,"isfamily":0},{"id":"52602181247","owner":"12639178@N07","secret":"9cd0fa4da1","server":"65535","farm":66,"title":"Flussseeschwalbe, Madeira","ispublic":1,"isfriend":0,"isfamily":0},{"id":"52602594358","owner":"12639178@N07","secret":"8177eb8697","server":"65535","farm":66,"title":"Flussseeschwalbe, Winterkleid, Madeira","ispublic":1,"isfriend":0,"isfamily":0},{"id":"52598555463","owner":"107784905@N04","secret":"be25b0ed37","server":"65535","farm":66,"title":"Sterne pierregarin - Gletterens\/Fribourg\/CH_20220513_005-1","ispublic":1,"isfriend":0,"isfamily":0},{"id":"52589529314","owner":"127936451@N02","secret":"82e2a8f481","server":"65535","farm":66,"title":"Sterna hirundo","ispublic":1,"isfriend":0,"isfamily":0},{"id":"52583993575","owner":"65632611@N00","secret":"264c9cfb6b","server":"65535","farm":66,"title":"Mecox: Common Tern Diving (0411)","ispublic":1,"isfriend":0,"isfamily":0},{"id":"52583993460","owner":"65632611@N00","secret":"6aa16f321a","server":"65535","farm":66,"title":"Mecox: Common Tern Kiting (0485)","ispublic":1,"isfriend":0,"isfamily":0},{"id":"52689756409","owner":"65609388@N07","secret":"c4c8ed0920","server":"65535","farm":66,"title":"tern Common Tern Sterna hirundo Visdief  10-2","ispublic":1,"isfriend":0,"isfamily":0},{"id":"52643670810","owner":"8013969@N03","secret":"2582e80a7b","server":"65535","farm":66,"title":"Sterna hirundo DFL cameron22-1","ispublic":1,"isfriend":0,"isfamily":0},{"id":"52643489734","owner":"8013969@N03","secret":"929fede0df","server":"65535","farm":66,"title":"Sterna hirundo DFL cameron22-2","ispublic":1,"isfriend":0,"isfamily":0},{"id":"52639650743","owner":"47533293@N04","secret":"ffaae68921","server":"65535","farm":66,"title":"Common tern, Sterna hirundo","ispublic":1,"isfriend":0,"isfamily":0},{"id":"52637489436","owner":"171333438@N08","secret":"920874a37f","server":"65535","farm":66,"title":"Sternes pierregarin (Sterna hirundo)","ispublic":1,"isfriend":0,"isfamily":0},{"id":"52637483996","owner":"171333438@N08","secret":"7d0cf051e3","server":"65535","farm":66,"title":"Sternes pierregarin (Sterna hirundo)","ispublic":1,"isfriend":0,"isfamily":0},{"id":"52637960923","owner":"171333438@N08","secret":"71a7fd5748","server":"65535","farm":66,"title":"Sterne pierregarin (Sterna hirundo)","ispublic":1,"isfriend":0,"isfamily":0},{"id":"52636968642","owner":"171333438@N08","secret":"e24848c788","server":"65535","farm":66,"title":"Sterne pierregarin (Sterna hirundo)","ispublic":1,"isfriend":0,"isfamily":0},{"id":"52636803994","owner":"171333438@N08","secret":"45d2bdaae5","server":"65535","farm":66,"title":"Sterne pierregarin (Sterna hirundo)","ispublic":1,"isfriend":0,"isfamily":0},{"id":"52636820055","owner":"171333438@N08","secret":"a1b31fac16","server":"65535","farm":66,"title":"Sterne pierregarin (Sterna hirundo)","ispublic":1,"isfriend":0,"isfamily":0},{"id":"52636819745","owner":"171333438@N08","secret":"11abb8d408","server":"65535","farm":66,"title":"Sterne pierregarin (Sterna hirundo)","ispublic":1,"isfriend":0,"isfamily":0},{"id":"52634163220","owner":"171333438@N08","secret":"c163d52946","server":"65535","farm":66,"title":"Sterne pierregarin (Sterna hirundo)","ispublic":1,"isfriend":0,"isfamily":0},{"id":"52633135632","owner":"191391950@N02","secret":"0a84870069","server":"65535","farm":66,"title":"Sterne pierregarin - Sterna hirundo","ispublic":1,"isfriend":0,"isfamily":0},{"id":"52631578315","owner":"171333438@N08","secret":"d1dfc7b70f","server":"65535","farm":66,"title":"Sterne pierregarin (Sterna hirundo)","ispublic":1,"isfriend":0,"isfamily":0},{"id":"52630617032","owner":"171333438@N08","secret":"d9bf4a2b92","server":"65535","farm":66,"title":"Sterne pierregarin (Sterna hirundo)","ispublic":1,"isfriend":0,"isfamily":0},{"id":"52631381514","owner":"171333438@N08","secret":"a7e56f699a","server":"65535","farm":66,"title":"Sterne pierregarin (Sterna hirundo)","ispublic":1,"isfriend":0,"isfamily":0},{"id":"52630606337","owner":"171333438@N08","secret":"beeec2f1f4","server":"65535","farm":66,"title":"Sterne pierregarin (Sterna hirundo)","ispublic":1,"isfriend":0,"isfamily":0},{"id":"52597762233","owner":"167692045@N07","secret":"c3b13fe9c6","server":"65535","farm":66,"title":"sterne pierregarin \/ Sterna hirundo 22D_7627","ispublic":1,"isfriend":0,"isfamily":0}]},"stat":"ok"}