{"photos":{"page":1,"pages":69,"perpage":100,"total":6898,"photo":[{"id":"52690401743","owner":"33610210@N05","secret":"4391d985cf","server":"65535","farm":66,"title":"Common Yellowthroat, Geothlypis trichas","ispublic":1,"isfriend":0,"isfamily":0},{"id":"52690325120","owner":"33610210@N05","secret":"4926cd3007","server":"65535","farm":66,"title":"Common Yellowthroat, Geothlypis trichas","ispublic":1,"isfriend":0,"isfamily":0},{"id":"52678032584","owner":"33610210@N05","secret":"f965d745fc","server":"65535","farm":66,"title":"Common Yellowthroat, Geothlypis trichas","ispublic":1,"isfriend":0,"isfamily":0},{"id":"52678181090","owner":"33610210@N05","secret":"16fbefc809","server":"65535","farm":66,"title":"Common Yellowthroat, Geothlypis trichas","ispublic":1,"isfriend":0,"isfamily":0},{"id":"52677234817","owner":"33610210@N05","secret":"21992ed9b6","server":"65535","farm":66,"title":"Common Yellowthroat, Geothlypis trichas","ispublic":1,"isfriend":0,"isfamily":0},{"id":"52669078184","owner":"136180232@N08","secret":"56a6789a15","server":"65535","farm":66,"title":"Common Yellowthroat (Geothlypis trichas) JTE_2304","ispublic":1,"isfriend":0,"isfamily":0},{"id":"52667082497","owner":"33610210@N05","secret":"86fbe4f5f0","server":"65535","farm":66,"title":"Common Yellowthroat, Geothlypis trichas","ispublic":1,"isfriend":0,"isfamily":0},{"id":"52662029116","owner":"62425933@N04","secret":"75f7f6ff63","server":"65535","farm":66,"title":"Eat A Bug","ispublic":1,"isfriend":0,"isfamily":0},{"id":"52659536626","owner":"122863253@N07","secret":"00333d7776","server":"65535","farm":66,"title":"Common yellowthroat (Geothlypis trichas)","ispublic":1,"isfriend":0,"isfamily":0},{"id":"52658961803","owner":"187792860@N04","secret":"84983c2726","server":"65535","farm":66,"title":"Common Yellowthroat (Geothlypis trichas)","ispublic":1,"isfriend":0,"isfamily":0},{"id":"52655872425","owner":"7640100@N02","secret":"0ff3513ecd","server":"65535","farm":66,"title":"Paruline masqu\u00e9e \/ Common Yellowthroat [Geothlypis trichas]","ispublic":1,"isfriend":0,"isfamily":0},{"id":"52644689241","owner":"8013969@N03","secret":"ff8f745931","server":"65535","farm":66,"title":"Geothlypis trichas DFL phil22-1","ispublic":1,"isfriend":0,"isfamily":0},{"id":"52644180217","owner":"8013969@N03","secret":"13125711db","server":"65535","farm":66,"title":"Geothlypis trichas DFL phil22-2","ispublic":1,"isfriend":0,"isfamily":0},{"id":"52644943719","owner":"8013969@N03","secret":"e1806e1bed","server":"65535","farm":66,"title":"Geothlypis trichas DFL phil22-3","ispublic":1,"isfriend":0,"isfamily":0},{"id":"52641407000","owner":"124995824@N08","secret":"a0f28d010a","server":"65535","farm":66,"title":"Common Yellowthroat - Geothlypis trichas","ispublic":1,"isfriend":0,"isfamily":0},{"id":"52634550239","owner":"44801995@N02","secret":"3718036549","server":"65535","farm":66,"title":"Common Yellowthroat Geothlypis trichas","ispublic":1,"isfriend":0,"isfamily":0},{"id":"52634775093","owner":"44801995@N02","secret":"62c7ee16ef","server":"65535","farm":66,"title":"Common Yellowthroat Geothlypis trichas","ispublic":1,"isfriend":0,"isfamily":0},{"id":"52632202389","owner":"49114357@N08","secret":"c1b3d89562","server":"65535","farm":66,"title":"Common Yellowthroat","ispublic":1,"isfriend":0,"isfamily":0},{"id":"52625271936","owner":"34674638@N05","secret":"b526be3558","server":"65535","farm":66,"title":"Common Yellowthroat","ispublic":1,"isfriend":0,"isfamily":0},{"id":"52625085560","owner":"145466593@N08","secret":"dfce06d63f","server":"65535","farm":66,"title":"Common Yellowthroat","ispublic":1,"isfriend":0,"isfamily":0},{"id":"52623699972","owner":"51433704@N06","secret":"174c634fd2","server":"65535","farm":66,"title":"Juvenile Common Yellowthroat","ispublic":1,"isfriend":0,"isfamily":0},{"id":"52622339770","owner":"196786375@N03","secret":"4c3f8b2f7a","server":"65535","farm":66,"title":"Common Yellowthroat","ispublic":1,"isfriend":0,"isfamily":0},{"id":"52618808507","owner":"38514062@N03","secret":"f1ae158489","server":"65535","farm":66,"title":"Common Yellowthroat (Geothlypis trichas)","ispublic":1,"isfriend":0,"isfamily":0},{"id":"52592439184","owner":"12914838@N00","secret":"a50ba130bf","server":"65535","farm":66,"title":"Common Yellowthroat","ispublic":1,"isfriend":0,"isfamily":0},{"id":"52580838988","owner":"153973412@N04","secret":"2c7033ea44","server":"65535","farm":66,"title":"Common Yellowthroat-Geothlypis trichas, North English, IA","ispublic":1,"isfriend":0,"isfamily":0},{"id":"52559411457","owner":"34674638@N05","secret":"78f42855ac","server":"65535","farm":66,"title":"Common Yellowthroat","ispublic":1,"isfriend":0,"isfamily":0},{"id":"52544102568","owner":"51928691@N04","secret":"55310ae803","server":"65535","farm":66,"title":"Common Yellowthroat (Geothlypis trichas) 1 120422","ispublic":1,"isfriend":0,"isfamily":0},{"id":"52543847599","owner":"51928691@N04","secret":"cca594177c","server":"65535","farm":66,"title":"Common Yellowthroat (Geothlypis trichas) 4 120422","ispublic":1,"isfriend":0,"isfamily":0},{"id":"52540922551","owner":"33610210@N05","secret":"26cf776a61","server":"65535","farm":66,"title":"Common Yellowthroat, Geothlypis trichas","ispublic":1,"isfriend":0,"isfamily":0},{"id":"52541403705","owner":"33610210@N05","secret":"231fcb1e83","server":"65535","farm":66,"title":"Common Yellowthroat, Geothlypis trichas","ispublic":1,"isfriend":0,"isfamily":0},{"id":"52540922436","owner":"33610210@N05","secret":"cb4472b3f0","server":"65535","farm":66,"title":"Common Yellowthroat, Geothlypis trichas","ispublic":1,"isfriend":0,"isfamily":0},{"id":"52538321748","owner":"39617069@N08","secret":"bc35548e37","server":"65535","farm":66,"title":"Common Yellowthroat","ispublic":1,"isfriend":0,"isfamily":0},{"id":"52535714702","owner":"28867468@N08","secret":"0abd583fac","server":"65535","farm":66,"title":"Common Yellowthroat","ispublic":1,"isfriend":0,"isfamily":0},{"id":"52534714756","owner":"44034115@N08","secret":"66d7dc1352","server":"65535","farm":66,"title":"Sticking Your Neck Out at Bombay Hook","ispublic":1,"isfriend":0,"isfamily":0},{"id":"52532356667","owner":"30979614@N07","secret":"6aa5f47c50","server":"65535","farm":66,"title":"2020-06-30 Rollins Savanna 4","ispublic":1,"isfriend":0,"isfamily":0},{"id":"52527989065","owner":"88932760@N08","secret":"81a8938858","server":"65535","farm":66,"title":"Nervous Yellowthroat","ispublic":1,"isfriend":0,"isfamily":0},{"id":"52509004055","owner":"34674638@N05","secret":"059e9d3e0e","server":"65535","farm":66,"title":"Common Yellowthroat","ispublic":1,"isfriend":0,"isfamily":0},{"id":"52495235166","owner":"64557331@N04","secret":"5733a882a0","server":"65535","farm":66,"title":"Common Yellowthroat - (Geothlypis trichas) Female _08032021","ispublic":1,"isfriend":0,"isfamily":0},{"id":"52493585309","owner":"39445433@N02","secret":"2f5191c829","server":"65535","farm":66,"title":"Common Yellowthroat","ispublic":1,"isfriend":0,"isfamily":0},{"id":"52491822745","owner":"39445433@N02","secret":"e973425a83","server":"65535","farm":66,"title":"Common Yellowthroat","ispublic":1,"isfriend":0,"isfamily":0},{"id":"52491822545","owner":"39445433@N02","secret":"4cd16ebc36","server":"65535","farm":66,"title":"Common Yellowthroat","ispublic":1,"isfriend":0,"isfamily":0},{"id":"52491822400","owner":"39445433@N02","secret":"c956d729eb","server":"65535","farm":66,"title":"Common Yellowthroat","ispublic":1,"isfriend":0,"isfamily":0},{"id":"52491822305","owner":"39445433@N02","secret":"86fff76579","server":"65535","farm":66,"title":"Common Yellowthroat","ispublic":1,"isfriend":0,"isfamily":0},{"id":"52491906413","owner":"39445433@N02","secret":"331378bff5","server":"65535","farm":66,"title":"Common Yellowthroat","ispublic":1,"isfriend":0,"isfamily":0},{"id":"52491353081","owner":"39445433@N02","secret":"9ea76be445","server":"65535","farm":66,"title":"Common Yellowthroat","ispublic":1,"isfriend":0,"isfamily":0},{"id":"52491906253","owner":"39445433@N02","secret":"550112b283","server":"65535","farm":66,"title":"Common Yellowthroat","ispublic":1,"isfriend":0,"isfamily":0},{"id":"52491352861","owner":"39445433@N02","secret":"d54de03ae7","server":"65535","farm":66,"title":"Common Yellowthroat","ispublic":1,"isfriend":0,"isfamily":0},{"id":"52491821735","owner":"39445433@N02","secret":"c8decfb77d","server":"65535","farm":66,"title":"Common Yellowthroat","ispublic":1,"isfriend":0,"isfamily":0},{"id":"52491634364","owner":"39445433@N02","secret":"ced0e86896","server":"65535","farm":66,"title":"Common Yellowthroat","ispublic":1,"isfriend":0,"isfamily":0},{"id":"52491351571","owner":"39445433@N02","secret":"df419a6627","server":"65535","farm":66,"title":"Common Yellowthroat","ispublic":1,"isfriend":0,"isfamily":0},{"id":"52488911851","owner":"46837385@N03","secret":"6c0cb823f0","server":"65535","farm":66,"title":"Common Yellowthroat (1)","ispublic":1,"isfriend":0,"isfamily":0},{"id":"52489193384","owner":"46837385@N03","secret":"5fa5f7a037","server":"65535","farm":66,"title":"Common Yellowthroat (2)","ispublic":1,"isfriend":0,"isfamily":0},{"id":"52489463828","owner":"46837385@N03","secret":"4eb84f4c12","server":"65535","farm":66,"title":"Common Yellowthroat (3)","ispublic":1,"isfriend":0,"isfamily":0},{"id":"52485660160","owner":"39445433@N02","secret":"fbf0b6dab1","server":"65535","farm":66,"title":"Common Yellowthroat","ispublic":1,"isfriend":0,"isfamily":0},{"id":"52459796287","owner":"196212229@N04","secret":"51ed158a05","server":"65535","farm":66,"title":"Common Yellowthroat","ispublic":1,"isfriend":0,"isfamily":0},{"id":"52446513344","owner":"71989271@N06","secret":"8e0a515205","server":"65535","farm":66,"title":"Common Yellowthroat (m)(Geothlypis t. trichas)","ispublic":1,"isfriend":0,"isfamily":0},{"id":"52446513354","owner":"71989271@N06","secret":"07dd1d30e6","server":"65535","farm":66,"title":"Common Yellowthroat (m)(Geothlypis t. trichas)","ispublic":1,"isfriend":0,"isfamily":0},{"id":"52440028517","owner":"69387367@N05","secret":"fef9637561","server":"65535","farm":66,"title":"Common_Yellowthroat_5564oe","ispublic":1,"isfriend":0,"isfamily":0},{"id":"52439610961","owner":"59770980@N02","secret":"0d64b1efeb","server":"65535","farm":66,"title":"Gr\u00edmuskr\u00edkja-Common Yellowthroat-Geothlypis trichas","ispublic":1,"isfriend":0,"isfamily":0},{"id":"52439744525","owner":"76288515@N07","secret":"0b66f0ae49","server":"65535","farm":66,"title":"Common Yellowthroat Geothlypis trichas","ispublic":1,"isfriend":0,"isfamily":0},{"id":"52439564209","owner":"76288515@N07","secret":"e9d8bf190f","server":"65535","farm":66,"title":"Common Yellowthroat Geothlypis trichas","ispublic":1,"isfriend":0,"isfamily":0},{"id":"52438788412","owner":"76288515@N07","secret":"7dc6f904d4","server":"65535","farm":66,"title":"Common Yellowthroat Geothlypis trichas","ispublic":1,"isfriend":0,"isfamily":0},{"id":"52439810518","owner":"76288515@N07","secret":"ae2caf64de","server":"65535","farm":66,"title":"Common Yellowthroat Geothlypis trichas","ispublic":1,"isfriend":0,"isfamily":0},{"id":"52438195361","owner":"190122705@N03","secret":"20df1c2846","server":"65535","farm":66,"title":"Common Yellowthroat","ispublic":1,"isfriend":0,"isfamily":0},{"id":"52431757982","owner":"39289133@N07","secret":"cabea8cf45","server":"65535","farm":66,"title":"San Francisco Yellowthroat","ispublic":1,"isfriend":0,"isfamily":0},{"id":"52428226755","owner":"196264892@N08","secret":"502d1a3fc5","server":"65535","farm":66,"title":"Common Yellowthroat juvenile","ispublic":1,"isfriend":0,"isfamily":0},{"id":"52428226465","owner":"196264892@N08","secret":"0e941447c8","server":"65535","farm":66,"title":"Common Yellowthroat juvenile","ispublic":1,"isfriend":0,"isfamily":0},{"id":"52428289728","owner":"196264892@N08","secret":"2f9e5c92c4","server":"65535","farm":66,"title":"Common Yellowthroat juvenile","ispublic":1,"isfriend":0,"isfamily":0},{"id":"52428057599","owner":"196264892@N08","secret":"f9822277c1","server":"65535","farm":66,"title":"Common Yellowthroat juvenile","ispublic":1,"isfriend":0,"isfamily":0},{"id":"52421227794","owner":"88932760@N08","secret":"531a2a3106","server":"65535","farm":66,"title":"Flighty Yellowthroat","ispublic":1,"isfriend":0,"isfamily":0},{"id":"52420800534","owner":"187792860@N04","secret":"47730f60f0","server":"65535","farm":66,"title":"Common Yellowthroat (Geothlypis trichas)","ispublic":1,"isfriend":0,"isfamily":0},{"id":"52419199284","owner":"163930705@N05","secret":"ee867a7051","server":"65535","farm":66,"title":"Common Yellowthroat \/ Gr\u00edmuskr\u00edkja (Geothlypis trichas)","ispublic":1,"isfriend":0,"isfamily":0},{"id":"52418991133","owner":"39177293@N03","secret":"e237f15691","server":"65535","farm":66,"title":"Common Yellowthroat","ispublic":1,"isfriend":0,"isfamily":0},{"id":"52412363180","owner":"128810613@N02","secret":"814ed5de33","server":"65535","farm":66,"title":"Common Yellowthroat - Geothlypis trichas","ispublic":1,"isfriend":0,"isfamily":0},{"id":"52411417272","owner":"128810613@N02","secret":"33a105895e","server":"65535","farm":66,"title":"Common Yellowthroat - Geothlypis trichas","ispublic":1,"isfriend":0,"isfamily":0},{"id":"52409820250","owner":"23711298@N07","secret":"d737ef2c9a","server":"65535","farm":66,"title":"Common Yellowthroat (Female), Minnesota, Ramsey County- White Bear Lake, Tamarack Nature Center","ispublic":1,"isfriend":0,"isfamily":0},{"id":"52397912237","owner":"103722035@N06","secret":"3211e79d2c","server":"65535","farm":66,"title":"Common Yellowthroat (Geothlypis trichas), Monta\u00f1a de Oro State Park, Los Osos, CA","ispublic":1,"isfriend":0,"isfamily":0},{"id":"52394192827","owner":"39511843@N07","secret":"b97d340d6f","server":"65535","farm":66,"title":"Common Yellowthroat (Geothlypis trichas) 1st winter male--3","ispublic":1,"isfriend":0,"isfamily":0},{"id":"52395120843","owner":"39511843@N07","secret":"0cea0719f6","server":"65535","farm":66,"title":"Common Yellowthroat (Geothlypis trichas) 1st winter male,-","ispublic":1,"isfriend":0,"isfamily":0},{"id":"52392758401","owner":"39511843@N07","secret":"ec3b6a04c2","server":"65535","farm":66,"title":"Common Yellowthroat (Geothlypis trichas) 1st winter male-","ispublic":1,"isfriend":0,"isfamily":0},{"id":"52391913054","owner":"128537732@N06","secret":"c8e5525572","server":"65535","farm":66,"title":"Common Yellowthroat (Geothlypis trichas)","ispublic":1,"isfriend":0,"isfamily":0},{"id":"52391552466","owner":"196264892@N08","secret":"cafe9302c3","server":"65535","farm":66,"title":"Common Yellowthroat","ispublic":1,"isfriend":0,"isfamily":0},{"id":"52391552361","owner":"196264892@N08","secret":"ff64d78e90","server":"65535","farm":66,"title":"Common Yellowthroat","ispublic":1,"isfriend":0,"isfamily":0},{"id":"52391797723","owner":"196264892@N08","secret":"c7f380dec5","server":"65535","farm":66,"title":"Common Yellowthroat","ispublic":1,"isfriend":0,"isfamily":0},{"id":"52666341145","owner":"136180232@N08","secret":"9afeb5bd18","server":"65535","farm":66,"title":"Common Yellowthroat (Geothlypis trichas) JTE_2221","ispublic":1,"isfriend":0,"isfamily":0},{"id":"52661318647","owner":"136180232@N08","secret":"90e13f06ef","server":"65535","farm":66,"title":"Common Yellowthroat (Geothlypis trichas) JTE_1394","ispublic":1,"isfriend":0,"isfamily":0},{"id":"52472545425","owner":"34238008@N02","secret":"d21d230fdc","server":"65535","farm":66,"title":"Common Yellowthroat (Geothlypis trichas)","ispublic":1,"isfriend":0,"isfamily":0},{"id":"52472363759","owner":"34238008@N02","secret":"cc87307e3d","server":"65535","farm":66,"title":"Common Yellowthroat (Geothlypis trichas)","ispublic":1,"isfriend":0,"isfamily":0},{"id":"52439744465","owner":"76288515@N07","secret":"1d3102631a","server":"65535","farm":66,"title":"Common Yellowthroat Geothlypis trichas","ispublic":1,"isfriend":0,"isfamily":0},{"id":"52439564109","owner":"76288515@N07","secret":"23ca4ce936","server":"65535","farm":66,"title":"Common Yellowthroat Geothlypis trichas","ispublic":1,"isfriend":0,"isfamily":0},{"id":"52439744355","owner":"76288515@N07","secret":"9ac424c60e","server":"65535","farm":66,"title":"Common Yellowthroat Geothlypis trichas","ispublic":1,"isfriend":0,"isfamily":0},{"id":"52439564089","owner":"76288515@N07","secret":"6c57bb2d50","server":"65535","farm":66,"title":"Common Yellowthroat Geothlypis trichas","ispublic":1,"isfriend":0,"isfamily":0},{"id":"52439744310","owner":"76288515@N07","secret":"944d1beea8","server":"65535","farm":66,"title":"Common Yellowthroat Geothlypis trichas","ispublic":1,"isfriend":0,"isfamily":0},{"id":"52439810453","owner":"76288515@N07","secret":"f681be6473","server":"65535","farm":66,"title":"Common Yellowthroat Geothlypis trichas","ispublic":1,"isfriend":0,"isfamily":0},{"id":"52438788227","owner":"76288515@N07","secret":"822779cfa7","server":"65535","farm":66,"title":"Common Yellowthroat Geothlypis trichas","ispublic":1,"isfriend":0,"isfamily":0},{"id":"52439744210","owner":"76288515@N07","secret":"17827f99a5","server":"65535","farm":66,"title":"Common Yellowthroat Geothlypis trichas","ispublic":1,"isfriend":0,"isfamily":0},{"id":"52438580306","owner":"149819320@N07","secret":"23e3b1023b","server":"65535","farm":66,"title":"Common Yellowthroat (Geothlypis trichas)","ispublic":1,"isfriend":0,"isfamily":0},{"id":"52411444741","owner":"34238008@N02","secret":"f3bea3335d","server":"65535","farm":66,"title":"Common Yellowthroat (Geothlypis trichas)","ispublic":1,"isfriend":0,"isfamily":0},{"id":"52408874307","owner":"23711298@N07","secret":"9a3cfcf30e","server":"65535","farm":66,"title":"Common Yellowthroat (Female), Minnesota, Ramsey County- White Bear Lake, Tamarack Nature Center","ispublic":1,"isfriend":0,"isfamily":0},{"id":"52391913259","owner":"128537732@N06","secret":"19f6246236","server":"65535","farm":66,"title":"Common Yellowthroat (Geothlypis trichas)","ispublic":1,"isfriend":0,"isfamily":0}]},"stat":"ok"}