{"photos":{"page":1,"pages":132,"perpage":100,"total":13108,"photo":[{"id":"52722637768","owner":"52689181@N05","secret":"a653881dca","server":"65535","farm":66,"title":"Great northern diver , Gavia immer (2)","ispublic":1,"isfriend":0,"isfamily":0},{"id":"52722159681","owner":"52689181@N05","secret":"04770e4902","server":"65535","farm":66,"title":"Great northern diver , Gavia immer (4)","ispublic":1,"isfriend":0,"isfamily":0},{"id":"52722159636","owner":"52689181@N05","secret":"a110e07f30","server":"65535","farm":66,"title":"Great northern diver , Gavia immer (7)","ispublic":1,"isfriend":0,"isfamily":0},{"id":"52722159581","owner":"52689181@N05","secret":"f129fe87c3","server":"65535","farm":66,"title":"Great northern diver , Gavia immer (8)","ispublic":1,"isfriend":0,"isfamily":0},{"id":"52721630617","owner":"52689181@N05","secret":"5ff8c61949","server":"65535","farm":66,"title":"Great Northern Diver , Gavia immer_filtered","ispublic":1,"isfriend":0,"isfamily":0},{"id":"52718978675","owner":"47441959@N00","secret":"3eff76a1f4","server":"65535","farm":66,"title":"Loon with prey","ispublic":1,"isfriend":0,"isfamily":0},{"id":"52716258251","owner":"135315828@N06","secret":"9b90e8c95e","server":"65535","farm":66,"title":"common loon","ispublic":1,"isfriend":0,"isfamily":0},{"id":"52715735752","owner":"135315828@N06","secret":"6b8e83cf4c","server":"65535","farm":66,"title":"common loon","ispublic":1,"isfriend":0,"isfamily":0},{"id":"52715735722","owner":"135315828@N06","secret":"aa726740f3","server":"65535","farm":66,"title":"common loon","ispublic":1,"isfriend":0,"isfamily":0},{"id":"52716258111","owner":"135315828@N06","secret":"94ac92dba3","server":"65535","farm":66,"title":"common loon","ispublic":1,"isfriend":0,"isfamily":0},{"id":"52716257121","owner":"135315828@N06","secret":"f3320a4fde","server":"65535","farm":66,"title":"common loon","ispublic":1,"isfriend":0,"isfamily":0},{"id":"52707410756","owner":"61396634@N07","secret":"17650e90f0","server":"65535","farm":66,"title":"Common Loon","ispublic":1,"isfriend":0,"isfamily":0},{"id":"52706884497","owner":"61396634@N07","secret":"5577a13656","server":"65535","farm":66,"title":"Common Loon","ispublic":1,"isfriend":0,"isfamily":0},{"id":"52707659424","owner":"61396634@N07","secret":"656e11f9ca","server":"65535","farm":66,"title":"Common Loon","ispublic":1,"isfriend":0,"isfamily":0},{"id":"52704607300","owner":"18217058@N04","secret":"7253d7279f","server":"65535","farm":66,"title":"Common loon\/Northen Diver \/ Himbrimi (Gavia immer)","ispublic":1,"isfriend":0,"isfamily":0},{"id":"52704187776","owner":"18217058@N04","secret":"2e46381e97","server":"65535","farm":66,"title":"Common loon\/Northen Diver \/ Himbrimi (Gavia immer)","ispublic":1,"isfriend":0,"isfamily":0},{"id":"52702201993","owner":"62043870@N05","secret":"9c852c889c","server":"65535","farm":66,"title":"Common Loon, Gavia immer","ispublic":1,"isfriend":0,"isfamily":0},{"id":"52702061705","owner":"65632611@N00","secret":"ee5ac19bbe","server":"65535","farm":66,"title":"Southampton, N.Y.: Excited Common Loon (2430)","ispublic":1,"isfriend":0,"isfamily":0},{"id":"52696076468","owner":"62043870@N05","secret":"4e07f80899","server":"65535","farm":66,"title":"Common Loon, Gavia immer","ispublic":1,"isfriend":0,"isfamily":0},{"id":"52685326492","owner":"62043870@N05","secret":"22273f5b18","server":"65535","farm":66,"title":"Common Loon, Gavia immer","ispublic":1,"isfriend":0,"isfamily":0},{"id":"52685284375","owner":"52913721@N08","secret":"5f9fda13e3","server":"65535","farm":66,"title":"Great Northern Diver (Gavia immer) 13","ispublic":1,"isfriend":0,"isfamily":0},{"id":"52685114020","owner":"52913721@N08","secret":"5108af3a92","server":"65535","farm":66,"title":"Great Northern Diver (Gavia immer)","ispublic":1,"isfriend":0,"isfamily":0},{"id":"52681473858","owner":"34368269@N04","secret":"ed7b8d70b6","server":"65535","farm":66,"title":"Common Loon","ispublic":1,"isfriend":0,"isfamily":0},{"id":"52678104653","owner":"99849996@N00","secret":"08fd99e644","server":"65535","farm":66,"title":"Common Loon 20211210_2956","ispublic":1,"isfriend":0,"isfamily":0},{"id":"52676454369","owner":"62043870@N05","secret":"4644fe7e28","server":"65535","farm":66,"title":"Northern Elephant Seal () and Common Loon (Gavia immer)","ispublic":1,"isfriend":0,"isfamily":0},{"id":"52672702717","owner":"84169650@N07","secret":"b27f597d00","server":"65535","farm":66,"title":"Common Loon","ispublic":1,"isfriend":0,"isfamily":0},{"id":"52673634030","owner":"84169650@N07","secret":"781318625d","server":"65535","farm":66,"title":"Common Loon","ispublic":1,"isfriend":0,"isfamily":0},{"id":"52672429081","owner":"157107624@N06","secret":"e7688cf4aa","server":"65535","farm":66,"title":"Plongeon imbrin (Gavia immer)","ispublic":1,"isfriend":0,"isfamily":0},{"id":"52668191482","owner":"62907378@N07","secret":"f70e57e185","server":"65535","farm":66,"title":"Common Loon (Gavia immer)","ispublic":1,"isfriend":0,"isfamily":0},{"id":"52664768452","owner":"136180232@N08","secret":"88af3c0e98","server":"65535","farm":66,"title":"Common Loon (Gavia immer) JTE_1879","ispublic":1,"isfriend":0,"isfamily":0},{"id":"52665560709","owner":"136180232@N08","secret":"18e80d5f8a","server":"65535","farm":66,"title":"Common Loon (Gavia immer) JTE_1877","ispublic":1,"isfriend":0,"isfamily":0},{"id":"52665768868","owner":"136180232@N08","secret":"84c3db8ec5","server":"65535","farm":66,"title":"Common Loon (Gavia immer) JTE_1867","ispublic":1,"isfriend":0,"isfamily":0},{"id":"52665269206","owner":"136180232@N08","secret":"600d49453b","server":"65535","farm":66,"title":"Common Loon (Gavia immer) JTE_1859","ispublic":1,"isfriend":0,"isfamily":0},{"id":"52660239807","owner":"18217058@N04","secret":"d1f8d6fd29","server":"65535","farm":66,"title":"Common loon\/Northern diver \/ Himbrimi (Gavia immer)","ispublic":1,"isfriend":0,"isfamily":0},{"id":"52659638573","owner":"197362283@N08","secret":"f655a0378c","server":"65535","farm":66,"title":"Plongeon imbrin","ispublic":1,"isfriend":0,"isfamily":0},{"id":"52659430719","owner":"197362283@N08","secret":"96dbfc4d9c","server":"65535","farm":66,"title":"Plongeon imbrin","ispublic":1,"isfriend":0,"isfamily":0},{"id":"52658652212","owner":"197362283@N08","secret":"758ff4279b","server":"65535","farm":66,"title":"Plongeon imbrin","ispublic":1,"isfriend":0,"isfamily":0},{"id":"52659593990","owner":"197362283@N08","secret":"3908881862","server":"65535","farm":66,"title":"Plongeon imbrin","ispublic":1,"isfriend":0,"isfamily":0},{"id":"52656886570","owner":"62907378@N07","secret":"77c1b74667","server":"65535","farm":66,"title":"Common Loon (Gavia immer)","ispublic":1,"isfriend":0,"isfamily":0},{"id":"52656724759","owner":"62907378@N07","secret":"e760aa6357","server":"65535","farm":66,"title":"Common Loon (Gavia immer)","ispublic":1,"isfriend":0,"isfamily":0},{"id":"52656932788","owner":"62907378@N07","secret":"bf2fa0a206","server":"65535","farm":66,"title":"Common Loon (Gavia immer)","ispublic":1,"isfriend":0,"isfamily":0},{"id":"52656439516","owner":"62907378@N07","secret":"af66c71b32","server":"65535","farm":66,"title":"Common Loon (Gavia immer)","ispublic":1,"isfriend":0,"isfamily":0},{"id":"52653428501","owner":"144980256@N07","secret":"20ab1b81f2","server":"65535","farm":66,"title":"Common Loon (Gavia immer)","ispublic":1,"isfriend":0,"isfamily":0},{"id":"52653425536","owner":"144980256@N07","secret":"f705314ec3","server":"65535","farm":66,"title":"Common Loon (Gavia immer)","ispublic":1,"isfriend":0,"isfamily":0},{"id":"52653695089","owner":"144980256@N07","secret":"0f3fbbecb5","server":"65535","farm":66,"title":"Common Loon (Gavia immer)","ispublic":1,"isfriend":0,"isfamily":0},{"id":"52653903823","owner":"144980256@N07","secret":"af13dc91b6","server":"65535","farm":66,"title":"Common Loon (Gavia immer)","ispublic":1,"isfriend":0,"isfamily":0},{"id":"52652365496","owner":"125515135@N08","secret":"b83dc3486f","server":"65535","farm":66,"title":"Great Northern Divers","ispublic":1,"isfriend":0,"isfamily":0},{"id":"52647998900","owner":"62043870@N05","secret":"fe036a20b0","server":"65535","farm":66,"title":"Common Loon, Gavia immer","ispublic":1,"isfriend":0,"isfamily":0},{"id":"52645631929","owner":"99849996@N00","secret":"4991f88f05","server":"65535","farm":66,"title":"Common Loon 20211210_2826","ispublic":1,"isfriend":0,"isfamily":0},{"id":"52645129740","owner":"8013969@N03","secret":"79fcba15f5","server":"65535","farm":66,"title":"Gavia immer DFL nj22-1","ispublic":1,"isfriend":0,"isfamily":0},{"id":"52644181882","owner":"8013969@N03","secret":"e8c9cfc425","server":"65535","farm":66,"title":"Gavia immer DFL nj22-3","ispublic":1,"isfriend":0,"isfamily":0},{"id":"52645127695","owner":"8013969@N03","secret":"557b67edde","server":"65535","farm":66,"title":"Gavia immer DFL nj22-4","ispublic":1,"isfriend":0,"isfamily":0},{"id":"52641177969","owner":"135315828@N06","secret":"ae639a8b11","server":"65535","farm":66,"title":"common loon","ispublic":1,"isfriend":0,"isfamily":0},{"id":"52640915036","owner":"135315828@N06","secret":"f72604e9d6","server":"65535","farm":66,"title":"common loon","ispublic":1,"isfriend":0,"isfamily":0},{"id":"52641173234","owner":"135315828@N06","secret":"a9d1aa4ef3","server":"65535","farm":66,"title":"common loon","ispublic":1,"isfriend":0,"isfamily":0},{"id":"52641172409","owner":"135315828@N06","secret":"c46c618a77","server":"65535","farm":66,"title":"common loon","ispublic":1,"isfriend":0,"isfamily":0},{"id":"52641387813","owner":"135315828@N06","secret":"0eb3a80503","server":"65535","farm":66,"title":"common loon","ispublic":1,"isfriend":0,"isfamily":0},{"id":"52640401597","owner":"135315828@N06","secret":"68a3f9a84d","server":"65535","farm":66,"title":"common loon","ispublic":1,"isfriend":0,"isfamily":0},{"id":"52641070735","owner":"191391950@N02","secret":"d22c360578","server":"65535","farm":66,"title":"Plongeon imbrin - Gavia immer","ispublic":1,"isfriend":0,"isfamily":0},{"id":"52640812710","owner":"183378762@N05","secret":"94ddb1313b","server":"65535","farm":66,"title":"0J9A1113 Great Northern Diver (Gavia immer)","ispublic":1,"isfriend":0,"isfamily":0},{"id":"52639228481","owner":"152433224@N05","secret":"a961c4225b","server":"65535","farm":66,"title":"DSC_4893","ispublic":1,"isfriend":0,"isfamily":0},{"id":"52639123711","owner":"47533293@N04","secret":"c5bfd4413e","server":"65535","farm":66,"title":"Common loon, Gavia immer","ispublic":1,"isfriend":0,"isfamily":0},{"id":"52639551895","owner":"47533293@N04","secret":"e8c59ea02e","server":"65535","farm":66,"title":"Common loon, Gavia immer","ispublic":1,"isfriend":0,"isfamily":0},{"id":"52638602892","owner":"47533293@N04","secret":"d01fd93501","server":"65535","farm":66,"title":"Common loon, Gavia immer","ispublic":1,"isfriend":0,"isfamily":0},{"id":"52638421537","owner":"47533293@N04","secret":"d3dac6c7f7","server":"65535","farm":66,"title":"Common loon, Gavia immer","ispublic":1,"isfriend":0,"isfamily":0},{"id":"52638937646","owner":"47533293@N04","secret":"ea5d479eb3","server":"65535","farm":66,"title":"Common loon, Gavia immer","ispublic":1,"isfriend":0,"isfamily":0},{"id":"52638053634","owner":"47533293@N04","secret":"ee128f2218","server":"65535","farm":66,"title":"Common loon, Gavia immer","ispublic":1,"isfriend":0,"isfamily":0},{"id":"52635892520","owner":"191391950@N02","secret":"499f060aff","server":"65535","farm":66,"title":"Plongeon imbrin - Gavia immer","ispublic":1,"isfriend":0,"isfamily":0},{"id":"52632370610","owner":"47533293@N04","secret":"71878662ee","server":"65535","farm":66,"title":"Common loon, Gavia immer","ispublic":1,"isfriend":0,"isfamily":0},{"id":"52624457227","owner":"94517588@N03","secret":"e184a89b07","server":"65535","farm":66,"title":"GBAS5339- Plongeon imbrin","ispublic":1,"isfriend":0,"isfamily":0},{"id":"52104792319","owner":"182124861@N08","secret":"15fecf33ea","server":"65535","farm":66,"title":"Great Northern Diver, Gavin immer with its catch of a Dab flat-fish","ispublic":1,"isfriend":0,"isfamily":0},{"id":"52618591232","owner":"8065988@N06","secret":"00942d17bd","server":"65535","farm":66,"title":"Colimbo grande.","ispublic":1,"isfriend":0,"isfamily":0},{"id":"52616282451","owner":"28867468@N08","secret":"8ec74ce92e","server":"65535","farm":66,"title":"Common Loon with Pipefish","ispublic":1,"isfriend":0,"isfamily":0},{"id":"52615506767","owner":"16502322@N03","secret":"e5b77c1eb3","server":"65535","farm":66,"title":"Common Loon, juvenile","ispublic":1,"isfriend":0,"isfamily":0},{"id":"52616013801","owner":"16502322@N03","secret":"812524290c","server":"65535","farm":66,"title":"Juvenile Common Loon","ispublic":1,"isfriend":0,"isfamily":0},{"id":"52609737564","owner":"163930705@N05","secret":"1f1756e44a","server":"65535","farm":66,"title":"Great Northern Diver \/ Himbrimi (Gavia immer)","ispublic":1,"isfriend":0,"isfamily":0},{"id":"52608215568","owner":"84169650@N07","secret":"b196f0040a","server":"65535","farm":66,"title":"Common Loon","ispublic":1,"isfriend":0,"isfamily":0},{"id":"52640795492","owner":"134270033@N06","secret":"5d3b29fb31","server":"65535","farm":66,"title":"Another Gotcha","ispublic":1,"isfriend":0,"isfamily":0},{"id":"52596907431","owner":"62043870@N05","secret":"d8b6f26a28","server":"65535","farm":66,"title":"Common Loon, Gavia immer","ispublic":1,"isfriend":0,"isfamily":0},{"id":"52595449666","owner":"112292182@N02","secret":"23a1e108c2","server":"65535","farm":66,"title":"Great Northern Diver","ispublic":1,"isfriend":0,"isfamily":0},{"id":"52593027151","owner":"129787474@N06","secret":"fffbbfb6f7","server":"65535","farm":66,"title":"Great northern divers (Gavia immer)","ispublic":1,"isfriend":0,"isfamily":0},{"id":"52593546248","owner":"129787474@N06","secret":"51916919bf","server":"65535","farm":66,"title":"Great northern divers (Gavia immer)","ispublic":1,"isfriend":0,"isfamily":0},{"id":"52590847781","owner":"129787474@N06","secret":"a6f7ae85df","server":"65535","farm":66,"title":"Great northern divers (Gavia immer)","ispublic":1,"isfriend":0,"isfamily":0},{"id":"52586992860","owner":"129787474@N06","secret":"909214dedc","server":"65535","farm":66,"title":"Great northern diver (Gavia immer)","ispublic":1,"isfriend":0,"isfamily":0},{"id":"52585018590","owner":"129787474@N06","secret":"f4f1a96730","server":"65535","farm":66,"title":"Great northern diver (Gavia immer)","ispublic":1,"isfriend":0,"isfamily":0},{"id":"52585018365","owner":"129787474@N06","secret":"223ab36c7b","server":"65535","farm":66,"title":"Great northern diver (Gavia immer)","ispublic":1,"isfriend":0,"isfamily":0},{"id":"52583942877","owner":"131779834@N08","secret":"9137dc572b","server":"65535","farm":66,"title":"Ice Water Loon","ispublic":1,"isfriend":0,"isfamily":0},{"id":"52583207003","owner":"103722035@N06","secret":"e4e12aabb8","server":"65535","farm":66,"title":"Common Loon (Gavia immer), Morro Bay, CA","ispublic":1,"isfriend":0,"isfamily":0},{"id":"52582226717","owner":"103722035@N06","secret":"ba826c4d11","server":"65535","farm":66,"title":"Common Loon (Gavia immer), Morro Bay, CA","ispublic":1,"isfriend":0,"isfamily":0},{"id":"52582215782","owner":"103722035@N06","secret":"0860343c8a","server":"0","farm":0,"title":"Common Loon (Gavia immer), Morro Bay, CA","ispublic":1,"isfriend":0,"isfamily":0},{"id":"52581812261","owner":"197200664@N05","secret":"31c9e67969","server":"65535","farm":66,"title":"\u269c\ufe0f Gavia immer \u269c\ufe0f","ispublic":1,"isfriend":0,"isfamily":0},{"id":"52580840343","owner":"153973412@N04","secret":"8ac30aef8d","server":"65535","farm":66,"title":"Common Loon-Gavia immer, Clear Lake, MI","ispublic":1,"isfriend":0,"isfamily":0},{"id":"52571265888","owner":"18217058@N04","secret":"793796f65b","server":"65535","farm":66,"title":"Common loon\/Northern diver \/ Himbrimir (Gavia immer)","ispublic":1,"isfriend":0,"isfamily":0},{"id":"52567762457","owner":"62043870@N05","secret":"a89db42982","server":"65535","farm":66,"title":"Common Loon, Gavia immer","ispublic":1,"isfriend":0,"isfamily":0},{"id":"52703197631","owner":"193911377@N04","secret":"6a2e9e7418","server":"65535","farm":66,"title":"Plongeon imbrin, Gavia immer","ispublic":1,"isfriend":0,"isfamily":0},{"id":"52665269166","owner":"136180232@N08","secret":"4aa4cb6fa7","server":"65535","farm":66,"title":"Common Loon (Gavia immer) JTE_1842","ispublic":1,"isfriend":0,"isfamily":0},{"id":"52653862670","owner":"144980256@N07","secret":"22c01b68db","server":"65535","farm":66,"title":"Common Loon (Gavia immer)","ispublic":1,"isfriend":0,"isfamily":0},{"id":"52624861599","owner":"34238008@N02","secret":"e78527476e","server":"65535","farm":66,"title":"Common Loon (Gavia immer)","ispublic":1,"isfriend":0,"isfamily":0},{"id":"52624612511","owner":"34238008@N02","secret":"0caa75bd51","server":"65535","farm":66,"title":"Common Loon (Gavia immer)","ispublic":1,"isfriend":0,"isfamily":0},{"id":"52615050153","owner":"14734088@N02","secret":"282fca84bc","server":"65535","farm":66,"title":"Plongeon huard 221005Ha","ispublic":1,"isfriend":0,"isfamily":0}]},"stat":"ok"}