{"photos":{"page":1,"pages":3,"perpage":100,"total":293,"photo":[{"id":"52580947578","owner":"153973412@N04","secret":"283a5926b6","server":"65535","farm":66,"title":"Connecticut Warbler-Oporornis agilis, Iowa City, IA","ispublic":1,"isfriend":0,"isfamily":0},{"id":"52380747987","owner":"183132100@N02","secret":"9bf3692ee5","server":"65535","farm":66,"title":"Connecticut Warbler 9-24-2022","ispublic":1,"isfriend":0,"isfamily":0},{"id":"52375071175","owner":"49114357@N08","secret":"677f2c4199","server":"65535","farm":66,"title":"Connecticut Warbler","ispublic":1,"isfriend":0,"isfamily":0},{"id":"52134993607","owner":"65788177@N02","secret":"763f442590","server":"65535","farm":66,"title":"Connecticut Warbler","ispublic":1,"isfriend":0,"isfamily":0},{"id":"52085602256","owner":"36685968@N00","secret":"452fcda2c2","server":"65535","farm":66,"title":"Connecticut Warbler (Oporornis agilis)","ispublic":1,"isfriend":0,"isfamily":0},{"id":"52063997527","owner":"79666906@N05","secret":"016cf261a0","server":"65535","farm":66,"title":"Connecticut Warbler, male","ispublic":1,"isfriend":0,"isfamily":0},{"id":"51720550452","owner":"194467431@N06","secret":"3effac0e90","server":"65535","farm":66,"title":"Connecticut Warbler","ispublic":1,"isfriend":0,"isfamily":0},{"id":"51495469098","owner":"120449047@N06","secret":"9c8377c0e2","server":"65535","farm":66,"title":"Connecticut Warbler (lifer)","ispublic":1,"isfriend":0,"isfamily":0},{"id":"51420818294","owner":"49114357@N08","secret":"fc12170b3e","server":"65535","farm":66,"title":"Connecticut Warbler","ispublic":1,"isfriend":0,"isfamily":0},{"id":"51247347560","owner":"61021753@N02","secret":"9c5a02888c","server":"65535","farm":66,"title":"n21_w1150","ispublic":1,"isfriend":0,"isfamily":0},{"id":"51242543556","owner":"48014585@N00","secret":"f4c2c375e1","server":"65535","farm":66,"title":"Connecticut Warbler","ispublic":1,"isfriend":0,"isfamily":0},{"id":"51242543456","owner":"48014585@N00","secret":"28583c94b2","server":"65535","farm":66,"title":"Connecticut Warbler","ispublic":1,"isfriend":0,"isfamily":0},{"id":"51242543171","owner":"48014585@N00","secret":"d8426aa657","server":"65535","farm":66,"title":"Connecticut Warbler","ispublic":1,"isfriend":0,"isfamily":0},{"id":"51241599167","owner":"48014585@N00","secret":"f9ede88d84","server":"65535","farm":66,"title":"Connecticut Warbler","ispublic":1,"isfriend":0,"isfamily":0},{"id":"51243300870","owner":"48014585@N00","secret":"742de854ba","server":"65535","farm":66,"title":"Connecticut Warbler","ispublic":1,"isfriend":0,"isfamily":0},{"id":"51242246221","owner":"48014585@N00","secret":"6df7d1956b","server":"65535","farm":66,"title":"Connecticut Warbler","ispublic":1,"isfriend":0,"isfamily":0},{"id":"51242246141","owner":"48014585@N00","secret":"9696152584","server":"65535","farm":66,"title":"Connecticut Warbler","ispublic":1,"isfriend":0,"isfamily":0},{"id":"51243300610","owner":"48014585@N00","secret":"fe292b91fd","server":"65535","farm":66,"title":"Connecticut Warbler","ispublic":1,"isfriend":0,"isfamily":0},{"id":"51242245911","owner":"48014585@N00","secret":"ed74e84bb9","server":"65535","farm":66,"title":"Connecticut Warbler","ispublic":1,"isfriend":0,"isfamily":0},{"id":"51242440613","owner":"48014585@N00","secret":"22ef41531e","server":"65535","farm":66,"title":"Connecticut Warbler","ispublic":1,"isfriend":0,"isfamily":0},{"id":"51233101183","owner":"27576221@N03","secret":"d11036c84c","server":"65535","farm":66,"title":"Connecticut Warbler (Oporornis agilis) male","ispublic":1,"isfriend":0,"isfamily":0},{"id":"50759840386","owner":"26803925@N05","secret":"7974622c73","server":"65535","farm":66,"title":"Connecticut Warbler (Oporornis agilis) 09-21-2008 Indian Creek WMA, Charles Co. MD 2","ispublic":1,"isfriend":0,"isfamily":0},{"id":"50410692677","owner":"17654080@N08","secret":"4b5ccf1977","server":"65535","farm":66,"title":"Connecticut Warbler (Oporornis agilis)","ispublic":1,"isfriend":0,"isfamily":0},{"id":"50410541041","owner":"17654080@N08","secret":"a4c8079601","server":"65535","farm":66,"title":"Connecticut Warbler (Oporornis agilis)","ispublic":1,"isfriend":0,"isfamily":0},{"id":"50323320306","owner":"61021753@N02","secret":"a304e25f9a","server":"65535","farm":66,"title":"n338_w1150","ispublic":1,"isfriend":0,"isfamily":0},{"id":"50144906856","owner":"61021753@N02","secret":"a979605fb4","server":"65535","farm":66,"title":"n218_w1150","ispublic":1,"isfriend":0,"isfamily":0},{"id":"49960859563","owner":"28582037@N05","secret":"774c3605ea","server":"65535","farm":66,"title":"Connecticut Warbler, Kleinstuck Preserve, Kalamazoo County","ispublic":1,"isfriend":0,"isfamily":0},{"id":"49919363956","owner":"38514062@N03","secret":"c2f8c5863f","server":"65535","farm":66,"title":"Connecticut Warbler (Oporornis agilis)","ispublic":1,"isfriend":0,"isfamily":0},{"id":"49919363706","owner":"38514062@N03","secret":"93b83e9f55","server":"65535","farm":66,"title":"Connecticut Warbler (Oporornis agilis)","ispublic":1,"isfriend":0,"isfamily":0},{"id":"48776263858","owner":"39138537@N06","secret":"4bf5b92cee","server":"65535","farm":66,"title":"Connecticut Warbler (Oporornis agilis)","ispublic":1,"isfriend":0,"isfamily":0},{"id":"48776613586","owner":"39138537@N06","secret":"955940578b","server":"65535","farm":66,"title":"Connecticut Warbler (Oporornis agilis)","ispublic":1,"isfriend":0,"isfamily":0},{"id":"48776801572","owner":"39138537@N06","secret":"67d17655cf","server":"65535","farm":66,"title":"Connecticut Warbler (Oporornis agilis)","ispublic":1,"isfriend":0,"isfamily":0},{"id":"48776261648","owner":"39138537@N06","secret":"2cf7d6ebae","server":"65535","farm":66,"title":"Connecticut Warbler (Oporornis agilis)","ispublic":1,"isfriend":0,"isfamily":0},{"id":"48776611501","owner":"39138537@N06","secret":"e29310dc10","server":"65535","farm":66,"title":"Connecticut Warbler (Oporornis agilis)","ispublic":1,"isfriend":0,"isfamily":0},{"id":"48776800912","owner":"39138537@N06","secret":"99f044d96a","server":"65535","farm":66,"title":"Connecticut Warbler (Oporornis agilis)","ispublic":1,"isfriend":0,"isfamily":0},{"id":"48776260843","owner":"39138537@N06","secret":"8b6e0b143f","server":"65535","farm":66,"title":"Connecticut Warbler (Oporornis agilis)","ispublic":1,"isfriend":0,"isfamily":0},{"id":"48776260553","owner":"39138537@N06","secret":"777be0457e","server":"65535","farm":66,"title":"Connecticut Warbler (Oporornis agilis)","ispublic":1,"isfriend":0,"isfamily":0},{"id":"48776610356","owner":"39138537@N06","secret":"67b1e6b4d3","server":"65535","farm":66,"title":"Connecticut Warbler (Oporornis agilis)","ispublic":1,"isfriend":0,"isfamily":0},{"id":"48776799882","owner":"39138537@N06","secret":"ed94dbf82c","server":"65535","farm":66,"title":"Connecticut Warbler (Oporornis agilis)","ispublic":1,"isfriend":0,"isfamily":0},{"id":"48751178201","owner":"142292951@N06","secret":"256296a91c","server":"65535","farm":66,"title":"Connecticut Warbler, Oporornis agilis","ispublic":1,"isfriend":0,"isfamily":0},{"id":"48044791617","owner":"126805965@N03","secret":"b07094ae77","server":"65535","farm":66,"title":"Connecticut Warbler (Oporornis agilis) - LaCorey, AB","ispublic":1,"isfriend":0,"isfamily":0},{"id":"48044675981","owner":"126805965@N03","secret":"5d8dfd7abd","server":"65535","farm":66,"title":"Connecticut Warbler (Oporornis agilis) - LaCorey, AB","ispublic":1,"isfriend":0,"isfamily":0},{"id":"48044708568","owner":"126805965@N03","secret":"275bc16d8d","server":"65535","farm":66,"title":"Connecticut Warbler (Oporornis agilis) - LaCorey, AB","ispublic":1,"isfriend":0,"isfamily":0},{"id":"48044675866","owner":"126805965@N03","secret":"5f7e98ca2b","server":"65535","farm":66,"title":"Connecticut Warbler (Oporornis agilis) - LaCorey, AB","ispublic":1,"isfriend":0,"isfamily":0},{"id":"42710414011","owner":"43440320@N04","secret":"21ec316235","server":"1745","farm":2,"title":"Connecticut Warbler","ispublic":1,"isfriend":0,"isfamily":0},{"id":"41655941265","owner":"119468907@N03","secret":"7d6718cac7","server":"1744","farm":2,"title":"Paruline a\u0300 gorge grise_070A5371v2","ispublic":1,"isfriend":0,"isfamily":0},{"id":"41655930625","owner":"119468907@N03","secret":"7c17607103","server":"1723","farm":2,"title":"Paruline a\u0300 gorge grise_070A5397v1","ispublic":1,"isfriend":0,"isfamily":0},{"id":"40981869165","owner":"153584064@N07","secret":"b8abc0700d","server":"947","farm":1,"title":"Connecticut Warbler from Birds of America (1827) by John James Audubon (1785 - 1851), etched by Robert Havell (1793 - 1878). The original Birds of America is the most expensive printed book in the world and a truly awe-inspiring classic.","ispublic":1,"isfriend":0,"isfamily":0},{"id":"37120699281","owner":"74122422@N04","secret":"6bdde735fd","server":"4352","farm":5,"title":"Connecticut Warbler \"Oporornis agilis\"","ispublic":1,"isfriend":0,"isfamily":0},{"id":"35426301050","owner":"119468907@N03","secret":"6a18be594b","server":"4208","farm":5,"title":"Paruline a\u0300 gorge grise_070A3796","ispublic":1,"isfriend":0,"isfamily":0},{"id":"34974832054","owner":"119468907@N03","secret":"43e83e8c48","server":"4237","farm":5,"title":"Paruline a\u0300 gorge grise_070A3824","ispublic":1,"isfriend":0,"isfamily":0},{"id":"35814958835","owner":"119468907@N03","secret":"19abd82278","server":"4217","farm":5,"title":"Paruline a\u0300 gorge grise_070A3834","ispublic":1,"isfriend":0,"isfamily":0},{"id":"35814954785","owner":"119468907@N03","secret":"d0dedd999c","server":"4277","farm":5,"title":"Paruline a\u0300 gorge grise_070A3840","ispublic":1,"isfriend":0,"isfamily":0},{"id":"34974794464","owner":"119468907@N03","secret":"38bd2d9354","server":"4258","farm":5,"title":"Paruline a\u0300 gorge grise_070A3846","ispublic":1,"isfriend":0,"isfamily":0},{"id":"35774016736","owner":"119468907@N03","secret":"a1ed182e74","server":"4208","farm":5,"title":"Paruline a\u0300 gorge grise_070A3857","ispublic":1,"isfriend":0,"isfamily":0},{"id":"52084567342","owner":"36685968@N00","secret":"4d425e3b8d","server":"65535","farm":66,"title":"Connecticut Warbler (Oporornis agilis)","ispublic":1,"isfriend":0,"isfamily":0},{"id":"52085602236","owner":"36685968@N00","secret":"1f8a6cd83c","server":"65535","farm":66,"title":"Connecticut Warbler (Oporornis agilis)","ispublic":1,"isfriend":0,"isfamily":0},{"id":"52053961915","owner":"194934901@N05","secret":"ba64058b1b","server":"65535","farm":66,"title":"Reinita pechigris","ispublic":1,"isfriend":0,"isfamily":0},{"id":"51481099954","owner":"128537732@N06","secret":"f131a5c389","server":"65535","farm":66,"title":"Connecticut Warbler - Oporornis agilis","ispublic":1,"isfriend":0,"isfamily":0},{"id":"51481099514","owner":"128537732@N06","secret":"bd302c032d","server":"65535","farm":66,"title":"Connecticut Warbler - Oporornis agilis","ispublic":1,"isfriend":0,"isfamily":0},{"id":"51442293054","owner":"36685968@N00","secret":"d8df2ffc43","server":"65535","farm":66,"title":"Connecticut Warbler (Oporornis agilis)","ispublic":1,"isfriend":0,"isfamily":0},{"id":"51440796327","owner":"36685968@N00","secret":"c8bfdbeb1f","server":"65535","farm":66,"title":"Connecticut Warbler (Oporornis agilis)","ispublic":1,"isfriend":0,"isfamily":0},{"id":"51441798363","owner":"36685968@N00","secret":"83389af9f6","server":"65535","farm":66,"title":"Connecticut Warbler (Oporornis agilis)","ispublic":1,"isfriend":0,"isfamily":0},{"id":"51427511662","owner":"36685968@N00","secret":"973f742890","server":"65535","farm":66,"title":"Connecticut Warbler (Oporornis agilis)","ispublic":1,"isfriend":0,"isfamily":0},{"id":"51242744943","owner":"48014585@N00","secret":"d13d0c78be","server":"65535","farm":66,"title":"Connecticut Warbler","ispublic":1,"isfriend":0,"isfamily":0},{"id":"51242744653","owner":"48014585@N00","secret":"3ce63311e4","server":"65535","farm":66,"title":"Connecticut Warbler","ispublic":1,"isfriend":0,"isfamily":0},{"id":"51242246501","owner":"48014585@N00","secret":"8c31e55851","server":"65535","farm":66,"title":"Connecticut Warbler","ispublic":1,"isfriend":0,"isfamily":0},{"id":"51242237861","owner":"48014585@N00","secret":"f96c98f381","server":"65535","farm":66,"title":"Connecticut Warbler","ispublic":1,"isfriend":0,"isfamily":0},{"id":"51242440708","owner":"48014585@N00","secret":"e2669976ba","server":"65535","farm":66,"title":"Connecticut Warbler","ispublic":1,"isfriend":0,"isfamily":0},{"id":"51242440008","owner":"48014585@N00","secret":"db570496b5","server":"65535","farm":66,"title":"Connecticut Warbler","ispublic":1,"isfriend":0,"isfamily":0},{"id":"51241526642","owner":"48014585@N00","secret":"96e980eda2","server":"65535","farm":66,"title":"Connecticut Warbler","ispublic":1,"isfriend":0,"isfamily":0},{"id":"51241526467","owner":"48014585@N00","secret":"766c286e6f","server":"65535","farm":66,"title":"Connecticut Warbler","ispublic":1,"isfriend":0,"isfamily":0},{"id":"51241523712","owner":"48014585@N00","secret":"4b09268ae3","server":"65535","farm":66,"title":"Connecticut Warbler","ispublic":1,"isfriend":0,"isfamily":0},{"id":"51243287635","owner":"48014585@N00","secret":"d0102bf003","server":"65535","farm":66,"title":"Connecticut Warbler","ispublic":1,"isfriend":0,"isfamily":0},{"id":"51242436083","owner":"48014585@N00","secret":"1731e64dc1","server":"65535","farm":66,"title":"Connecticut Warbler","ispublic":1,"isfriend":0,"isfamily":0},{"id":"51243287445","owner":"48014585@N00","secret":"1181a49695","server":"65535","farm":66,"title":"Connecticut Warbler","ispublic":1,"isfriend":0,"isfamily":0},{"id":"51237688037","owner":"48014585@N00","secret":"750412a039","server":"65535","farm":66,"title":"Connecticut Warbler","ispublic":1,"isfriend":0,"isfamily":0},{"id":"51238603218","owner":"48014585@N00","secret":"34fed86e23","server":"65535","farm":66,"title":"Connecticut Warbler","ispublic":1,"isfriend":0,"isfamily":0},{"id":"51239458755","owner":"48014585@N00","secret":"ee128f29b4","server":"65535","farm":66,"title":"Connecticut Warbler","ispublic":1,"isfriend":0,"isfamily":0},{"id":"51239171134","owner":"48014585@N00","secret":"5f6b36a801","server":"65535","farm":66,"title":"Connecticut Warbler","ispublic":1,"isfriend":0,"isfamily":0},{"id":"51213186214","owner":"64557331@N04","secret":"4fcf9c3dbd","server":"65535","farm":66,"title":"Connecticut Warbler - (Oporornis agilis)_05182021_3","ispublic":1,"isfriend":0,"isfamily":0},{"id":"51212420591","owner":"64557331@N04","secret":"387827f002","server":"65535","farm":66,"title":"Connecticut Warbler - (Oporornis agilis)_05182021_4","ispublic":1,"isfriend":0,"isfamily":0},{"id":"51213484235","owner":"64557331@N04","secret":"7672d79749","server":"65535","farm":66,"title":"Connecticut Warbler - (Oporornis agilis)_05182021_5","ispublic":1,"isfriend":0,"isfamily":0},{"id":"51211708712","owner":"64557331@N04","secret":"735f0477c8","server":"65535","farm":66,"title":"Connecticut Warbler - (Oporornis agilis)_05182021_2","ispublic":1,"isfriend":0,"isfamily":0},{"id":"51212420511","owner":"64557331@N04","secret":"84dd56e9e3","server":"65535","farm":66,"title":"Connecticut Warbler - (Oporornis agilis)_05182021_1","ispublic":1,"isfriend":0,"isfamily":0},{"id":"50959801442","owner":"9765210@N03","secret":"6c03e920f2","server":"65535","farm":66,"title":"Connecticut Warbler (Oporornis agilis)","ispublic":1,"isfriend":0,"isfamily":0},{"id":"50773287982","owner":"37493716@N02","secret":"56266b0600","server":"65535","farm":66,"title":"9.Oporornis agilis","ispublic":1,"isfriend":0,"isfamily":0},{"id":"50607014326","owner":"190773540@N03","secret":"e1b98ac533","server":"65535","farm":66,"title":"Connecticut Warbler","ispublic":1,"isfriend":0,"isfamily":0},{"id":"50485054366","owner":"65632611@N00","secret":"5eef6e0b92","server":"65535","farm":66,"title":"Willow Lake: Connecticut Warbler look back","ispublic":1,"isfriend":0,"isfamily":0},{"id":"50485054011","owner":"65632611@N00","secret":"fd57ba0f10","server":"65535","farm":66,"title":"Willow Lake: Connecticut Warbler gives me a view","ispublic":1,"isfriend":0,"isfamily":0},{"id":"50409836043","owner":"17654080@N08","secret":"51ed9eef40","server":"65535","farm":66,"title":"Connecticut Warbler (Oporornis agilis)","ispublic":1,"isfriend":0,"isfamily":0},{"id":"50410693752","owner":"17654080@N08","secret":"3ba34a54ab","server":"65535","farm":66,"title":"Connecticut Warbler (Oporornis agilis)","ispublic":1,"isfriend":0,"isfamily":0},{"id":"50409835243","owner":"17654080@N08","secret":"58033ce904","server":"65535","farm":66,"title":"Connecticut Warbler (Oporornis agilis)","ispublic":1,"isfriend":0,"isfamily":0},{"id":"50409833928","owner":"17654080@N08","secret":"89924fa379","server":"65535","farm":66,"title":"Connecticut Warbler (Oporornis agilis)","ispublic":1,"isfriend":0,"isfamily":0},{"id":"48750906223","owner":"142292951@N06","secret":"4b3881e2c1","server":"65535","farm":66,"title":"Connecticut Warbler, Oporornis agilis","ispublic":1,"isfriend":0,"isfamily":0},{"id":"48044760862","owner":"126805965@N03","secret":"807763dac2","server":"65535","farm":66,"title":"Connecticut Warbler (Oporornis agilis) - LaCorey, AB","ispublic":1,"isfriend":0,"isfamily":0},{"id":"28373967368","owner":"92491292@N02","secret":"75f2880bb3","server":"945","farm":1,"title":"Connecticut Warbler-CONW-Oporornis agilis_2018","ispublic":1,"isfriend":0,"isfamily":0},{"id":"40072350302","owner":"90334313@N06","secret":"8d3d835e95","server":"4709","farm":5,"title":"Connecticut Warbler","ispublic":1,"isfriend":0,"isfamily":0},{"id":"40046809131","owner":"90334313@N06","secret":"bbd0e70094","server":"4744","farm":5,"title":"Connecticut Warbler","ispublic":1,"isfriend":0,"isfamily":0},{"id":"39963160812","owner":"63925062@N05","secret":"3c53a22574","server":"4668","farm":5,"title":"Oporornis agilis","ispublic":1,"isfriend":0,"isfamily":0}]},"stat":"ok"}