{"photos":{"page":1,"pages":129,"perpage":100,"total":12880,"photo":[{"id":"52721980626","owner":"25899079@N08","secret":"aac139c50f","server":"65535","farm":66,"title":"Oregon Junco (8675)","ispublic":1,"isfriend":0,"isfamily":0},{"id":"52721296151","owner":"88978913@N08","secret":"38b1ccfaed","server":"65535","farm":66,"title":"Dark-eyed Junco, Junco hyemalis","ispublic":1,"isfriend":0,"isfamily":0},{"id":"52721709585","owner":"88978913@N08","secret":"83320930d6","server":"65535","farm":66,"title":"Leucistic Dark-eyed Junco, Junco hyemalis","ispublic":1,"isfriend":0,"isfamily":0},{"id":"52720590976","owner":"61897811@N00","secret":"0c3a26c5ab","server":"65535","farm":66,"title":"Dark-eyed Junco","ispublic":1,"isfriend":0,"isfamily":0},{"id":"52720056462","owner":"142605906@N06","secret":"72cb6fcb75","server":"65535","farm":66,"title":"Dark-eyed Junco (Junco hyemalis) Oregon Junco","ispublic":1,"isfriend":0,"isfamily":0},{"id":"52715657005","owner":"11159374@N04","secret":"9a2bdf4337","server":"65535","farm":66,"title":"Dark-eyed Junco","ispublic":1,"isfriend":0,"isfamily":0},{"id":"52713426291","owner":"39935474@N03","secret":"8cf5a4d126","server":"65535","farm":66,"title":"Dark-eyed Junco shaking itself in snow","ispublic":1,"isfriend":0,"isfamily":0},{"id":"52713845595","owner":"39935474@N03","secret":"7c0c853537","server":"65535","farm":66,"title":"Dark-eyed Junco in snowy landscape","ispublic":1,"isfriend":0,"isfamily":0},{"id":"52713018543","owner":"36142084@N05","secret":"59ab3cc6ae","server":"65535","farm":66,"title":"R5_009173","ispublic":1,"isfriend":0,"isfamily":0},{"id":"52711995568","owner":"9243885@N07","secret":"6a77bc4766","server":"65535","farm":66,"title":"2023_02_25_093955","ispublic":1,"isfriend":0,"isfamily":0},{"id":"52711971763","owner":"9243885@N07","secret":"29e2d611b4","server":"65535","farm":66,"title":"2023_02_25_093986","ispublic":1,"isfriend":0,"isfamily":0},{"id":"52710653111","owner":"39935474@N03","secret":"4b4412362f","server":"65535","farm":66,"title":"Dark-eyed Junco","ispublic":1,"isfriend":0,"isfamily":0},{"id":"52709546347","owner":"181824639@N02","secret":"0a7d33e762","server":"65535","farm":66,"title":"Junco ardois\u00e9 ( Junco hyemalis )","ispublic":1,"isfriend":0,"isfamily":0},{"id":"52708404197","owner":"188156748@N07","secret":"a5e7b8d083","server":"65535","farm":66,"title":"Dark-Eyed Junko - Junco Ardois\u00e9 - Junco hyemalis 4388 (6) copy.jpgS","ispublic":1,"isfriend":0,"isfamily":0},{"id":"52709412243","owner":"188156748@N07","secret":"f94f1e6117","server":"65535","farm":66,"title":"Dark-Eyed Junko - Junco Ardois\u00e9 - Junco hyemalis 4388 (7) copy.jpgS","ispublic":1,"isfriend":0,"isfamily":0},{"id":"52709342380","owner":"188156748@N07","secret":"8d1e65bcc3","server":"65535","farm":66,"title":"Dark-Eyed Junko - Junco Ardois\u00e9 - Junco hyemalis 4393 copy.jpgS","ispublic":1,"isfriend":0,"isfamily":0},{"id":"52707664992","owner":"29562174@N00","secret":"c2efe1685b","server":"65535","farm":66,"title":"House Finch and Junco","ispublic":1,"isfriend":0,"isfamily":0},{"id":"52706705311","owner":"57126723@N07","secret":"7f89880a90","server":"65535","farm":66,"title":"Dark-eyed Junco\u2014Junco hyemalis\u2014Passerellidae-9049-Edit-Edit","ispublic":1,"isfriend":0,"isfamily":0},{"id":"52704816347","owner":"98675522@N06","secret":"1e3710e616","server":"65535","farm":66,"title":"Natural Food","ispublic":1,"isfriend":0,"isfamily":0},{"id":"52704780840","owner":"34238008@N02","secret":"98159d409f","server":"65535","farm":66,"title":"Dark-eyed Junco, Slate-colored (Junco hyemalis hyemalis\/carolinensis)","ispublic":1,"isfriend":0,"isfamily":0},{"id":"52697664745","owner":"92009354@N00","secret":"d5db3e5cc7","server":"65535","farm":66,"title":"Dark-eyed Junco","ispublic":1,"isfriend":0,"isfamily":0},{"id":"52696957323","owner":"10260434@N03","secret":"48ed0a18cc","server":"65535","farm":66,"title":"Junco male-24Dec22","ispublic":1,"isfriend":0,"isfamily":0},{"id":"52696721554","owner":"10260434@N03","secret":"77f8e1a055","server":"65535","farm":66,"title":"Junco male-24Dec22","ispublic":1,"isfriend":0,"isfamily":0},{"id":"52696920248","owner":"10260434@N03","secret":"697912a73e","server":"65535","farm":66,"title":"Junco male on tray feeder-24Dec22","ispublic":1,"isfriend":0,"isfamily":0},{"id":"52696293336","owner":"10260434@N03","secret":"1903e00814","server":"65535","farm":66,"title":"Junco female-24Dec22","ispublic":1,"isfriend":0,"isfamily":0},{"id":"52695775017","owner":"10260434@N03","secret":"e349464a9a","server":"65535","farm":66,"title":"Junco female-24Dec22","ispublic":1,"isfriend":0,"isfamily":0},{"id":"52696701775","owner":"10260434@N03","secret":"641afaec4f","server":"65535","farm":66,"title":"Junco female-24Dec22","ispublic":1,"isfriend":0,"isfamily":0},{"id":"52696258436","owner":"10260434@N03","secret":"5c534ce979","server":"65535","farm":66,"title":"Junco male-24Dec22","ispublic":1,"isfriend":0,"isfamily":0},{"id":"52696284496","owner":"195041250@N03","secret":"8a5cfe622d","server":"65535","farm":66,"title":"Dark-eyed Junco","ispublic":1,"isfriend":0,"isfamily":0},{"id":"52694383632","owner":"143326780@N02","secret":"8d7534ee37","server":"65535","farm":66,"title":"DSCN4525","ispublic":1,"isfriend":0,"isfamily":0},{"id":"52694537855","owner":"8904060@N06","secret":"c3c562467b","server":"65535","farm":66,"title":"Happy Junco","ispublic":1,"isfriend":0,"isfamily":0},{"id":"52692792490","owner":"34238008@N02","secret":"2d9c4379e5","server":"65535","farm":66,"title":"Dark-eyed Junco, Oregon (Junco hyemalis [oreganus Group])","ispublic":1,"isfriend":0,"isfamily":0},{"id":"52692113783","owner":"33610210@N05","secret":"c8c1cb5537","server":"65535","farm":66,"title":"Dark-eyed Junco, Junco hyemalis","ispublic":1,"isfriend":0,"isfamily":0},{"id":"52690764969","owner":"34238008@N02","secret":"ffe09956ab","server":"65535","farm":66,"title":"Dark-eyed Junco, Slate-colored (Junco hyemalis hyemalis\/carolinensis)","ispublic":1,"isfriend":0,"isfamily":0},{"id":"52690988908","owner":"34238008@N02","secret":"2f7811fba5","server":"65535","farm":66,"title":"Dark-eyed Junco, Slate-colored (Junco hyemalis hyemalis\/carolinensis)","ispublic":1,"isfriend":0,"isfamily":0},{"id":"52690764724","owner":"34238008@N02","secret":"d552d40fc0","server":"65535","farm":66,"title":"Dark-eyed Junco, Slate-colored (Junco hyemalis hyemalis\/carolinensis)","ispublic":1,"isfriend":0,"isfamily":0},{"id":"52689018090","owner":"34238008@N02","secret":"315739679b","server":"65535","farm":66,"title":"Dark-eyed Junco, Pink-sided (Junco hyemalis mearnsi)","ispublic":1,"isfriend":0,"isfamily":0},{"id":"52689086878","owner":"34238008@N02","secret":"7035705140","server":"65535","farm":66,"title":"Dark-eyed Junco, Pink-sided (Junco hyemalis mearnsi)","ispublic":1,"isfriend":0,"isfamily":0},{"id":"52687525891","owner":"184781347@N05","secret":"0a76f155a4","server":"65535","farm":66,"title":"dark eyed junco hanging out @ the pool","ispublic":1,"isfriend":0,"isfamily":0},{"id":"52685898573","owner":"158105449@N02","secret":"dbd5116128","server":"65535","farm":66,"title":"Dark-eyed Junco (Junco hyemalis)","ispublic":1,"isfriend":0,"isfamily":0},{"id":"52684295771","owner":"197628215@N07","secret":"d25802b807","server":"65535","farm":66,"title":"Dark-eyed Junco (Junco hyemalis) 01\/30\/2023 - 01\/31\/2023 #darkeyedjunco #junco #bestbackroad #bestbackroads #natgeoyourshots #natgeo100contest #rutlandcountyvermont #rutlandcountyvt #washingtoncountynewyork #washingtoncountyny #whitehallnewyork #wildphoto","ispublic":1,"isfriend":0,"isfamily":0},{"id":"52684626910","owner":"188156748@N07","secret":"f6a615581b","server":"65535","farm":66,"title":"Dark-Eyed Junko - Junco Ardois\u00e9 - Junco hyemalis  4180 (1)-SharpenAI-Standard copy.jpgS","ispublic":1,"isfriend":0,"isfamily":0},{"id":"52684701638","owner":"188156748@N07","secret":"d72a165982","server":"65535","farm":66,"title":"Dark-Eyed Junko - Junco Ardois\u00e9 - Junco hyemalis 4245 (12) copy.jpgS","ispublic":1,"isfriend":0,"isfamily":0},{"id":"52683686397","owner":"188156748@N07","secret":"9af04a9802","server":"65535","farm":66,"title":"Dark-Eyed Junko - Junco Ardois\u00e9 - Junco hyemalis 4245 (2) copy.jpgS","ispublic":1,"isfriend":0,"isfamily":0},{"id":"52683686422","owner":"188156748@N07","secret":"b3047d23c1","server":"65535","farm":66,"title":"Dark-Eyed Junko - Junco Ardois\u00e9 - Junco hyemalis 4245 (8) copy.jpgS","ispublic":1,"isfriend":0,"isfamily":0},{"id":"52684202351","owner":"188156748@N07","secret":"bd5f9b95c6","server":"65535","farm":66,"title":"Dark-Eyed Junko - Junco Ardois\u00e9 - Junco hyemalis 4292 (2)-SharpenAI-Standard copy.jpgS","ispublic":1,"isfriend":0,"isfamily":0},{"id":"52682752686","owner":"39445433@N02","secret":"d40dd25984","server":"65535","farm":66,"title":"Dark-Eyed Junco","ispublic":1,"isfriend":0,"isfamily":0},{"id":"52683180070","owner":"39445433@N02","secret":"35475a3c77","server":"65535","farm":66,"title":"Dark-Eyed Junco","ispublic":1,"isfriend":0,"isfamily":0},{"id":"52683179695","owner":"39445433@N02","secret":"8081dc9aa7","server":"65535","farm":66,"title":"Dark-Eyed Junco","ispublic":1,"isfriend":0,"isfamily":0},{"id":"52683033099","owner":"39445433@N02","secret":"35b64735b3","server":"65535","farm":66,"title":"Dark-Eyed Junco","ispublic":1,"isfriend":0,"isfamily":0},{"id":"52683246988","owner":"39445433@N02","secret":"0ab3206765","server":"65535","farm":66,"title":"Dark-Eyed Junco","ispublic":1,"isfriend":0,"isfamily":0},{"id":"52683178650","owner":"39445433@N02","secret":"87178d668a","server":"65535","farm":66,"title":"Dark-Eyed Junco","ispublic":1,"isfriend":0,"isfamily":0},{"id":"52682750386","owner":"39445433@N02","secret":"a7836e3ba0","server":"65535","farm":66,"title":"Carolina Wren, Dark-Eyed Junco, Downy Woodpecker","ispublic":1,"isfriend":0,"isfamily":0},{"id":"52682228457","owner":"39445433@N02","secret":"1c726bdf4c","server":"65535","farm":66,"title":"Carolina Wren, Dark-Eyed Junco, Downy Woodpecker","ispublic":1,"isfriend":0,"isfamily":0},{"id":"52683245528","owner":"39445433@N02","secret":"4618408336","server":"65535","farm":66,"title":"Carolina Wren & Dark-Eyed Junco","ispublic":1,"isfriend":0,"isfamily":0},{"id":"52683176995","owner":"39445433@N02","secret":"acf740dc46","server":"65535","farm":66,"title":"Carolina Wren & Dark-Eyed Junco","ispublic":1,"isfriend":0,"isfamily":0},{"id":"52683028659","owner":"39445433@N02","secret":"77fb02cd9e","server":"65535","farm":66,"title":"Dark-Eyed Junco","ispublic":1,"isfriend":0,"isfamily":0},{"id":"52682397759","owner":"22304442@N00","secret":"498d435ba5","server":"65535","farm":66,"title":"junco ardois\u00e9 (dark-eyed junco)","ispublic":1,"isfriend":0,"isfamily":0},{"id":"52680472016","owner":"88978913@N08","secret":"8aefae5ec4","server":"65535","farm":66,"title":"Dark-eyed Junco (Oregon), Junco hyemalis [oreganus Group]","ispublic":1,"isfriend":0,"isfamily":0},{"id":"52680888203","owner":"187792860@N04","secret":"b4296e1872","server":"65535","farm":66,"title":"Dark Eyed Junco (Junco hyemalis)","ispublic":1,"isfriend":0,"isfamily":0},{"id":"52680825518","owner":"34238008@N02","secret":"c5726d0cf7","server":"65535","farm":66,"title":"Dark-eyed Junco, Slate-colored (Junco hyemalis hyemalis\/carolinensis)","ispublic":1,"isfriend":0,"isfamily":0},{"id":"52680825433","owner":"34238008@N02","secret":"aa1d476b34","server":"65535","farm":66,"title":"Dark-eyed Junco, Slate-colored (Junco hyemalis hyemalis\/carolinensis)","ispublic":1,"isfriend":0,"isfamily":0},{"id":"52678874892","owner":"44034115@N08","secret":"e06208f6c2","server":"65535","farm":66,"title":"Dark-eyed Junco About to Strike","ispublic":1,"isfriend":0,"isfamily":0},{"id":"52679670970","owner":"62119764@N08","secret":"a5b3e7388a","server":"65535","farm":66,"title":"Rare Bird | Oregon Junco | Junco hyemalis oreganus | Junco ardois\u00e9 du type \u00e0 t\u00eate noire (oregon)","ispublic":1,"isfriend":0,"isfamily":0},{"id":"52679196374","owner":"47533293@N04","secret":"73de0b663e","server":"65535","farm":66,"title":"Dark-eyed junco, Junco hyemalis","ispublic":1,"isfriend":0,"isfamily":0},{"id":"52677744816","owner":"129849840@N08","secret":"460b028097","server":"65535","farm":66,"title":"luv the setting","ispublic":1,"isfriend":0,"isfamily":0},{"id":"52672464907","owner":"8378957@N02","secret":"ed616f3128","server":"65535","farm":66,"title":"Dark-eyed Junco","ispublic":1,"isfriend":0,"isfamily":0},{"id":"52668932130","owner":"69002026@N02","secret":"20d9443dd3","server":"65535","farm":66,"title":"Dark-eyed Junco (Junco hyemalis)","ispublic":1,"isfriend":0,"isfamily":0},{"id":"52668521659","owner":"34238008@N02","secret":"9a749d8c70","server":"65535","farm":66,"title":"Dark-eyed Junco, Slate-colored (Junco hyemalis hyemalis\/carolinensis)","ispublic":1,"isfriend":0,"isfamily":0},{"id":"52668521609","owner":"34238008@N02","secret":"2e806d028f","server":"65535","farm":66,"title":"Dark-eyed Junco, Slate-colored (Junco hyemalis hyemalis\/carolinensis)","ispublic":1,"isfriend":0,"isfamily":0},{"id":"52668735243","owner":"34238008@N02","secret":"f7da23c984","server":"65535","farm":66,"title":"Dark-eyed Junco, Slate-colored (Junco hyemalis hyemalis\/carolinensis)","ispublic":1,"isfriend":0,"isfamily":0},{"id":"52668232706","owner":"34238008@N02","secret":"ae5e0ae474","server":"65535","farm":66,"title":"Cassiar Junco (Junco hyemalis cismontanus)","ispublic":1,"isfriend":0,"isfamily":0},{"id":"52667736912","owner":"34238008@N02","secret":"21703bc031","server":"65535","farm":66,"title":"Cassiar Junco (Junco hyemalis cismontanus)","ispublic":1,"isfriend":0,"isfamily":0},{"id":"52662935342","owner":"8378957@N02","secret":"5725a2d2ed","server":"65535","farm":66,"title":"Dark-eyed Junco","ispublic":1,"isfriend":0,"isfamily":0},{"id":"52662187277","owner":"34238008@N02","secret":"14a81655a8","server":"65535","farm":66,"title":"Dark-eyed Junco, Oregon (Junco hyemalis [oreganus Group])","ispublic":1,"isfriend":0,"isfamily":0},{"id":"52662973434","owner":"34238008@N02","secret":"2cd40423e6","server":"65535","farm":66,"title":"Dark-eyed Junco, Oregon (Junco hyemalis [oreganus Group])","ispublic":1,"isfriend":0,"isfamily":0},{"id":"52663182608","owner":"34238008@N02","secret":"f31e903e8d","server":"65535","farm":66,"title":"Dark-eyed Junco, Oregon (Junco hyemalis [oreganus Group])","ispublic":1,"isfriend":0,"isfamily":0},{"id":"52663182468","owner":"34238008@N02","secret":"a43f62722e","server":"65535","farm":66,"title":"Dark-eyed Junco, Oregon (Junco hyemalis [oreganus Group])","ispublic":1,"isfriend":0,"isfamily":0},{"id":"52662186732","owner":"34238008@N02","secret":"a019b5eb64","server":"65535","farm":66,"title":"Dark-eyed Junco, Oregon (Junco hyemalis [oreganus Group])","ispublic":1,"isfriend":0,"isfamily":0},{"id":"52662905958","owner":"36013467@N07","secret":"8109ddd0e0","server":"65535","farm":66,"title":"Dark-eyed Junco (Junco hyemalis)","ispublic":1,"isfriend":0,"isfamily":0},{"id":"52661780774","owner":"25899079@N08","secret":"64e2f13ab5","server":"65535","farm":66,"title":"Gray-headed Junco (6739)","ispublic":1,"isfriend":0,"isfamily":0},{"id":"52661986368","owner":"25899079@N08","secret":"c579a6a738","server":"65535","farm":66,"title":"Oregon Junco (5971)","ispublic":1,"isfriend":0,"isfamily":0},{"id":"52661772518","owner":"196127020@N02","secret":"71a2092224","server":"65535","farm":66,"title":"Dark-eyed Junco","ispublic":1,"isfriend":0,"isfamily":0},{"id":"52661772473","owner":"196127020@N02","secret":"a367cdbc1c","server":"65535","farm":66,"title":"Dark-eyed Junco","ispublic":1,"isfriend":0,"isfamily":0},{"id":"52661726385","owner":"196127020@N02","secret":"f1c004e83c","server":"65535","farm":66,"title":"Dark-eyed Junco","ispublic":1,"isfriend":0,"isfamily":0},{"id":"52660781527","owner":"196127020@N02","secret":"d459c71004","server":"65535","farm":66,"title":"Dark-eyed Junco","ispublic":1,"isfriend":0,"isfamily":0},{"id":"52661405335","owner":"100108154@N02","secret":"09cfa46d9d","server":"65535","farm":66,"title":"Birding Through My Window","ispublic":1,"isfriend":0,"isfamily":0},{"id":"52660112742","owner":"34238008@N02","secret":"369aee305e","server":"65535","farm":66,"title":"Cassiar Junco (Junco hyemalis cismontanus)","ispublic":1,"isfriend":0,"isfamily":0},{"id":"52661056275","owner":"34238008@N02","secret":"40a6dcb888","server":"65535","farm":66,"title":"Cassiar Junco (Junco hyemalis cismontanus)","ispublic":1,"isfriend":0,"isfamily":0},{"id":"52660112387","owner":"34238008@N02","secret":"aa63e1b5dc","server":"65535","farm":66,"title":"Cassiar Junco (Junco hyemalis cismontanus)","ispublic":1,"isfriend":0,"isfamily":0},{"id":"52660612176","owner":"34238008@N02","secret":"2770538d4a","server":"65535","farm":66,"title":"Cassiar Junco (Junco hyemalis cismontanus)","ispublic":1,"isfriend":0,"isfamily":0},{"id":"52660674014","owner":"36013467@N07","secret":"d475081528","server":"65535","farm":66,"title":"Dark-eyed Junco (Junco hyemalis)","ispublic":1,"isfriend":0,"isfamily":0},{"id":"52660457303","owner":"49246330@N00","secret":"823d7b434f","server":"65535","farm":66,"title":"Dark-eyed Junco (Slate-colored)","ispublic":1,"isfriend":0,"isfamily":0},{"id":"52656133372","owner":"8378957@N02","secret":"7e6a3f2cbd","server":"65535","farm":66,"title":"Dark-eyed Junco","ispublic":1,"isfriend":0,"isfamily":0},{"id":"52656540636","owner":"8666250@N02","secret":"57e68bdce6","server":"65535","farm":66,"title":"DE Junco 230117 -16","ispublic":1,"isfriend":0,"isfamily":0},{"id":"52711198298","owner":"47533293@N04","secret":"2b46af7cc5","server":"65535","farm":66,"title":"Dark-eyed junco, Junco hyemalis","ispublic":1,"isfriend":0,"isfamily":0},{"id":"52695312425","owner":"143326780@N02","secret":"244951e79f","server":"65535","farm":66,"title":"DSCN4634","ispublic":1,"isfriend":0,"isfamily":0},{"id":"52694383702","owner":"143326780@N02","secret":"5872284e3e","server":"65535","farm":66,"title":"DSCN4522","ispublic":1,"isfriend":0,"isfamily":0},{"id":"52671063140","owner":"81058247@N08","secret":"91c59b9719","server":"65535","farm":66,"title":"Dark-eyed Junco (Junco hyemalis)","ispublic":1,"isfriend":0,"isfamily":0},{"id":"52668866616","owner":"134270033@N06","secret":"dc03e53fc3","server":"0","farm":0,"title":"Singing","ispublic":1,"isfriend":0,"isfamily":0}]},"stat":"ok"}