{"photos":{"page":1,"pages":10,"perpage":100,"total":937,"photo":[{"id":"52738205057","owner":"165373730@N04","secret":"6ef8030cb6","server":"65535","farm":66,"title":"Fauvette pitchou Curruca-undata","ispublic":1,"isfriend":0,"isfamily":0},{"id":"52736380995","owner":"184493196@N07","secret":"bffdc366e9","server":"65535","farm":66,"title":"Sylvia undata","ispublic":1,"isfriend":0,"isfamily":0},{"id":"52735078340","owner":"165373730@N04","secret":"1c534821be","server":"65535","farm":66,"title":"Fauvette pitchou (Curruca undata)","ispublic":1,"isfriend":0,"isfamily":0},{"id":"52708130740","owner":"33319209@N02","secret":"597903dccb","server":"65535","farm":66,"title":"Sylvia undata","ispublic":1,"isfriend":0,"isfamily":0},{"id":"52691438667","owner":"58519338@N08","secret":"bc0353a1ab","server":"65535","farm":66,"title":"Dartford Warbler -  Curruca (Sylvia) undata","ispublic":1,"isfriend":0,"isfamily":0},{"id":"52691019761","owner":"191391950@N02","secret":"637f530a9e","server":"65535","farm":66,"title":"Fauvette pitchou - Curruca undata","ispublic":1,"isfriend":0,"isfamily":0},{"id":"52690502022","owner":"191391950@N02","secret":"b3ec9bca01","server":"65535","farm":66,"title":"Fauvette pitchou - Curruca undata","ispublic":1,"isfriend":0,"isfamily":0},{"id":"52690650804","owner":"14079218@N04","secret":"3b81ee0300","server":"65535","farm":66,"title":"Fauvette pitchou (Curruca undata)","ispublic":1,"isfriend":0,"isfamily":0},{"id":"52690373826","owner":"14079218@N04","secret":"39a01e4bf6","server":"65535","farm":66,"title":"Fauvette pitchou (Curruca undata)","ispublic":1,"isfriend":0,"isfamily":0},{"id":"52690212126","owner":"97122051@N06","secret":"2e6b57ed46","server":"65535","farm":66,"title":"CLG_SR_2784","ispublic":1,"isfriend":0,"isfamily":0},{"id":"52688653095","owner":"97122051@N06","secret":"ab022b8c07","server":"65535","farm":66,"title":"Fauvette_SR_2792","ispublic":1,"isfriend":0,"isfamily":0},{"id":"52688450874","owner":"14079218@N04","secret":"6611679b03","server":"65535","farm":66,"title":"Fauvette pitchou (Curruca undata)","ispublic":1,"isfriend":0,"isfamily":0},{"id":"52688598275","owner":"14079218@N04","secret":"6952326c57","server":"65535","farm":66,"title":"Fauvette pitchou (Curruca undata)","ispublic":1,"isfriend":0,"isfamily":0},{"id":"52687287779","owner":"87356108@N05","secret":"c15bafdeda","server":"65535","farm":66,"title":"CURRUCA RABILARGA (Sylvia undata)","ispublic":1,"isfriend":0,"isfamily":0},{"id":"52687093240","owner":"14079218@N04","secret":"3bd09aac60","server":"65535","farm":66,"title":"Fauvette pitchou (Curruca undata)","ispublic":1,"isfriend":0,"isfamily":0},{"id":"52685406155","owner":"188988983@N05","secret":"e65f113f3c","server":"65535","farm":66,"title":"Fauvette pitchou (Curruca undata)","ispublic":1,"isfriend":0,"isfamily":0},{"id":"52685403880","owner":"188988983@N05","secret":"90af348a98","server":"65535","farm":66,"title":"Fauvette pitchou (Curruca undata)","ispublic":1,"isfriend":0,"isfamily":0},{"id":"52673677506","owner":"191209692@N05","secret":"3f5b279c61","server":"65535","farm":66,"title":"Curruca rabilarga - Dartford warbler - Sylvia undata","ispublic":1,"isfriend":0,"isfamily":0},{"id":"52672585517","owner":"186045137@N03","secret":"c08362e128","server":"65535","farm":66,"title":"Fauvette pitchou - Curruca undata - Dartford Warbler","ispublic":1,"isfriend":0,"isfamily":0},{"id":"52669648953","owner":"61316002@N02","secret":"452f6aceff","server":"65535","farm":66,"title":"DARTWRB toni 9944","ispublic":1,"isfriend":0,"isfamily":0},{"id":"52663002806","owner":"87356108@N05","secret":"27d47e6f2a","server":"65535","farm":66,"title":"CURRUCA RABILARGA (Sylvia undata)","ispublic":1,"isfriend":0,"isfamily":0},{"id":"52660704822","owner":"191209692@N05","secret":"c853ac18a6","server":"65535","farm":66,"title":"Curruca Rabilarga - Dartford Warbler - Sylvia undata","ispublic":1,"isfriend":0,"isfamily":0},{"id":"52657364257","owner":"33319209@N02","secret":"d04e2f5dee","server":"65535","farm":66,"title":"Sylvia undata","ispublic":1,"isfriend":0,"isfamily":0},{"id":"52653341117","owner":"184493196@N07","secret":"827ed6689d","server":"65535","farm":66,"title":"Sylvia undata","ispublic":1,"isfriend":0,"isfamily":0},{"id":"52633651936","owner":"191391950@N02","secret":"b5d96c0af2","server":"65535","farm":66,"title":"Fauvette pitchou - Curruca undata","ispublic":1,"isfriend":0,"isfamily":0},{"id":"52633607405","owner":"87356108@N05","secret":"759756c07f","server":"65535","farm":66,"title":"CURRUCA RABILARGA (Sylvia undata)","ispublic":1,"isfriend":0,"isfamily":0},{"id":"52630798796","owner":"130427874@N02","secret":"dddc0bdb6d","server":"65535","farm":66,"title":"Toutinegra-do-mato \/\/ Curruca undata","ispublic":1,"isfriend":0,"isfamily":0},{"id":"52631032654","owner":"158967056@N07","secret":"254dfb1f41","server":"65535","farm":66,"title":"Toutinegra-do-mato \/\/ Curruca undata","ispublic":1,"isfriend":0,"isfamily":0},{"id":"52627118796","owner":"82352887@N04","secret":"930d375798","server":"65535","farm":66,"title":"Fauvette pitchou (Sylvia undata)","ispublic":1,"isfriend":0,"isfamily":0},{"id":"52625535480","owner":"130427874@N02","secret":"c049474dbf","server":"65535","farm":66,"title":"Toutinegra-do-mato \/\/ Curruca undata","ispublic":1,"isfriend":0,"isfamily":0},{"id":"52617734342","owner":"191209692@N05","secret":"bfcd9967f7","server":"65535","farm":66,"title":"Curruca Rabilarga - Dartford Warbler - Sylvia undata","ispublic":1,"isfriend":0,"isfamily":0},{"id":"52618244561","owner":"191209692@N05","secret":"c7dd69df9b","server":"65535","farm":66,"title":"Curruca Rabilarga - Dartford Warbler - Sylvia undata","ispublic":1,"isfriend":0,"isfamily":0},{"id":"52614457169","owner":"131407383@N08","secret":"f947c4529f","server":"65535","farm":66,"title":"I Miss the Spring","ispublic":1,"isfriend":0,"isfamily":0},{"id":"52577971738","owner":"191209692@N05","secret":"2d4b06e3d0","server":"65535","farm":66,"title":"Curruca Rabilarga - Dartford Warbler - Sylvia undata","ispublic":1,"isfriend":0,"isfamily":0},{"id":"52574888684","owner":"189697862@N03","secret":"8d735a042b","server":"65535","farm":66,"title":"Fauvette pitchou Curruca undata - Dartford Warbler \u00e0 Keranchas.","ispublic":1,"isfriend":0,"isfamily":0},{"id":"52573698004","owner":"129532812@N05","secret":"8f70dccee2","server":"65535","farm":66,"title":"curruca rabilarga (Sylvia undata)","ispublic":1,"isfriend":0,"isfamily":0},{"id":"52521517965","owner":"95005162@N08","secret":"cab889b152","server":"65535","farm":66,"title":"Curruca rabilarga","ispublic":1,"isfriend":0,"isfamily":0},{"id":"52506242514","owner":"128657933@N03","secret":"f164450a37","server":"65535","farm":66,"title":"Fauvette pitchou . Curruca undata - Dartford Warbler","ispublic":1,"isfriend":0,"isfamily":0},{"id":"52497751205","owner":"56747859@N02","secret":"9e9f82345e","server":"65535","farm":66,"title":"Dartford Warbler (Curruca undata)","ispublic":1,"isfriend":0,"isfamily":0},{"id":"52491866361","owner":"160954938@N08","secret":"0143db8ab4","server":"65535","farm":66,"title":"curruca rabilarga (Sylvia undata)","ispublic":1,"isfriend":0,"isfamily":0},{"id":"52486984939","owner":"32805478@N03","secret":"46a6eee1e9","server":"65535","farm":66,"title":"Curruca rabilarga, Curruca undata, Dartford Warbler","ispublic":1,"isfriend":0,"isfamily":0},{"id":"52486984889","owner":"32805478@N03","secret":"5f49feab30","server":"65535","farm":66,"title":"Curruca rabilarga, Curruca undata, Dartford Warbler","ispublic":1,"isfriend":0,"isfamily":0},{"id":"52484861319","owner":"134610359@N02","secret":"edf858083d","server":"65535","farm":66,"title":"Toutinegra-do-mato - DSCF4673","ispublic":1,"isfriend":0,"isfamily":0},{"id":"52484590561","owner":"134610359@N02","secret":"817faae0f2","server":"65535","farm":66,"title":"Toutinegra-do-mato - DSCF4670","ispublic":1,"isfriend":0,"isfamily":0},{"id":"52484861169","owner":"134610359@N02","secret":"1661d9c0cc","server":"65535","farm":66,"title":"Toutinegra-do-mato - DSCF4677","ispublic":1,"isfriend":0,"isfamily":0},{"id":"52480360987","owner":"52799999@N06","secret":"b4bca01e96","server":"65535","farm":66,"title":"Dartford Warbler (Curruca undata)","ispublic":1,"isfriend":0,"isfamily":0},{"id":"52478375421","owner":"191830389@N06","secret":"0f5097748a","server":"65535","farm":66,"title":"IMG_70273s","ispublic":1,"isfriend":0,"isfamily":0},{"id":"52459557749","owner":"79722430@N04","secret":"3c17fdd621","server":"65535","farm":66,"title":"Dartford warbler (Curruca undata)","ispublic":1,"isfriend":0,"isfamily":0},{"id":"52459819938","owner":"79722430@N04","secret":"f50e5eb17d","server":"65535","farm":66,"title":"Dartford warbler (Curruca undata)","ispublic":1,"isfriend":0,"isfamily":0},{"id":"52459293936","owner":"79722430@N04","secret":"3e52975404","server":"65535","farm":66,"title":"Dartford warbler (Curruca undata)","ispublic":1,"isfriend":0,"isfamily":0},{"id":"52442120196","owner":"52799999@N06","secret":"a97b97761e","server":"65535","farm":66,"title":"Dartford Warbler (Curruca undata)","ispublic":1,"isfriend":0,"isfamily":0},{"id":"52441607482","owner":"52799999@N06","secret":"805b89a62d","server":"65535","farm":66,"title":"Dartford Warbler (Curruca undata)","ispublic":1,"isfriend":0,"isfamily":0},{"id":"52442616338","owner":"52799999@N06","secret":"864610d862","server":"65535","farm":66,"title":"Dartford Warbler (Curruca undata)","ispublic":1,"isfriend":0,"isfamily":0},{"id":"52439988274","owner":"128578170@N06","secret":"3ce0b341f9","server":"65535","farm":66,"title":"Dartford Warbler Curruca undata dartfordiensis","ispublic":1,"isfriend":0,"isfamily":0},{"id":"52439988184","owner":"128578170@N06","secret":"904042c43f","server":"65535","farm":66,"title":"Dartford Warbler Curruca undata dartfordiensis","ispublic":1,"isfriend":0,"isfamily":0},{"id":"52439988164","owner":"128578170@N06","secret":"e831782fab","server":"65535","farm":66,"title":"Dartford Warbler Curruca undata dartfordiensis","ispublic":1,"isfriend":0,"isfamily":0},{"id":"52438528738","owner":"79722430@N04","secret":"5a72cf4b92","server":"65535","farm":66,"title":"Dartford warbler (Curruca undata)","ispublic":1,"isfriend":0,"isfamily":0},{"id":"52437501642","owner":"79722430@N04","secret":"bd4aa090ef","server":"65535","farm":66,"title":"Dartford warbler (Curruca undata)","ispublic":1,"isfriend":0,"isfamily":0},{"id":"52438462820","owner":"79722430@N04","secret":"b6a534fd3a","server":"65535","farm":66,"title":"Dartford warbler (Curruca undata)","ispublic":1,"isfriend":0,"isfamily":0},{"id":"52381694630","owner":"62501256@N05","secret":"e6b782fa41","server":"65535","farm":66,"title":"Dartford warbler (Curruca undata), male","ispublic":1,"isfriend":0,"isfamily":0},{"id":"52381503923","owner":"62501256@N05","secret":"50b5a879a8","server":"65535","farm":66,"title":"Dartford warbler (Curruca undata), male worn.","ispublic":1,"isfriend":0,"isfamily":0},{"id":"52381686340","owner":"62501256@N05","secret":"674c1275d2","server":"65535","farm":66,"title":"Dartford warbler (Curruca undata), male","ispublic":1,"isfriend":0,"isfamily":0},{"id":"52381572429","owner":"62501256@N05","secret":"2503d25824","server":"65535","farm":66,"title":"Dartford warbler (Curruca undata), male","ispublic":1,"isfriend":0,"isfamily":0},{"id":"52300685345","owner":"129288636@N02","secret":"b5102780ac","server":"65535","farm":66,"title":"dartford warbler (Curruca undata)","ispublic":1,"isfriend":0,"isfamily":0},{"id":"52293682093","owner":"161072502@N05","secret":"8e4e7b16bb","server":"65535","farm":66,"title":"Fauvette pitchou, Curruca undata","ispublic":1,"isfriend":0,"isfamily":0},{"id":"52287233352","owner":"134610359@N02","secret":"84aa755ba0","server":"65535","farm":66,"title":"Toutinegra-do-mato - DSCF8668","ispublic":1,"isfriend":0,"isfamily":0},{"id":"52206219652","owner":"129540134@N07","secret":"a632ac1af7","server":"65535","farm":66,"title":"SYLVIA UNDATA","ispublic":1,"isfriend":0,"isfamily":0},{"id":"52186406203","owner":"16850442@N06","secret":"2a821144fa","server":"65535","farm":66,"title":"Dartford Warbler","ispublic":1,"isfriend":0,"isfamily":0},{"id":"52168293406","owner":"128578170@N06","secret":"f71e954e7f","server":"65535","farm":66,"title":"Dartford Warbler Curruca undata dartfordiensis","ispublic":1,"isfriend":0,"isfamily":0},{"id":"52168489024","owner":"134610359@N02","secret":"12ab57b5f2","server":"65535","farm":66,"title":"Toutinegra-do-mato - DSCF6993","ispublic":1,"isfriend":0,"isfamily":0},{"id":"52168244766","owner":"134610359@N02","secret":"c49ca01e69","server":"65535","farm":66,"title":"Toutinegra-do-mato - DSCF6998","ispublic":1,"isfriend":0,"isfamily":0},{"id":"52168727410","owner":"134610359@N02","secret":"bc7e7d92a2","server":"65535","farm":66,"title":"Toutinegra-do-mato - DSCF6999","ispublic":1,"isfriend":0,"isfamily":0},{"id":"52168727385","owner":"134610359@N02","secret":"b76819c957","server":"65535","farm":66,"title":"Toutinegra-do-mato - DSCF7001","ispublic":1,"isfriend":0,"isfamily":0},{"id":"52168488869","owner":"134610359@N02","secret":"e13fd75231","server":"65535","farm":66,"title":"Toutinegra-do-mato - DSCF7003","ispublic":1,"isfriend":0,"isfamily":0},{"id":"52156967842","owner":"56930596@N02","secret":"8dc263d34e","server":"65535","farm":66,"title":"Tallareta cuallarga (Curruca undata)","ispublic":1,"isfriend":0,"isfamily":0},{"id":"52138603736","owner":"127635832@N07","secret":"23afd919e2","server":"65535","farm":66,"title":"Toutinegra-do-mato | Dartford Warbler (Curruca undata) \u2642","ispublic":1,"isfriend":0,"isfamily":0},{"id":"52138569239","owner":"191830389@N06","secret":"5ffe60d966","server":"65535","farm":66,"title":"IMG_52190s","ispublic":1,"isfriend":0,"isfamily":0},{"id":"52137084540","owner":"149730384@N06","secret":"d23284099a","server":"65535","farm":66,"title":"Dartford Warbler","ispublic":1,"isfriend":0,"isfamily":0},{"id":"52110400879","owner":"58519338@N08","secret":"dda81a7d42","server":"65535","farm":66,"title":"Dartford Warbler -  Curruca (Sylvia) undata","ispublic":1,"isfriend":0,"isfamily":0},{"id":"52108843537","owner":"62501256@N05","secret":"1f96c4c413","server":"65535","farm":66,"title":"Dartford warbler (Sylvia undata), male","ispublic":1,"isfriend":0,"isfamily":0},{"id":"52093745516","owner":"147304395@N08","secret":"f3e4959d43","server":"65535","farm":66,"title":"La pitchou...","ispublic":1,"isfriend":0,"isfamily":0},{"id":"52055274484","owner":"131407383@N08","secret":"6194fe412f","server":"65535","farm":66,"title":"Felosa-do-mato","ispublic":1,"isfriend":0,"isfamily":0},{"id":"52050159681","owner":"155821457@N08","secret":"a5b1c0c785","server":"65535","farm":66,"title":"Fauvette pitchou - Curruca undata","ispublic":1,"isfriend":0,"isfamily":0},{"id":"52038458884","owner":"155821457@N08","secret":"3d11848ca2","server":"65535","farm":66,"title":"Fauvette pitchou - Curruca undata","ispublic":1,"isfriend":0,"isfamily":0},{"id":"52026168346","owner":"14079218@N04","secret":"5ff91b68f9","server":"65535","farm":66,"title":"Fauvette pitchou (Curruca undata)","ispublic":1,"isfriend":0,"isfamily":0},{"id":"52685475378","owner":"188988983@N05","secret":"98c9158b28","server":"65535","farm":66,"title":"Fauvette pitchou (Curruca undata)","ispublic":1,"isfriend":0,"isfamily":0},{"id":"52611581348","owner":"129532812@N05","secret":"b2528ba723","server":"65535","farm":66,"title":"curruca rabilarga (Sylvia undata)","ispublic":1,"isfriend":0,"isfamily":0},{"id":"52611513300","owner":"129532812@N05","secret":"0250e19a09","server":"65535","farm":66,"title":"curruca rabilarga (Sylvia undata)","ispublic":1,"isfriend":0,"isfamily":0},{"id":"52487327274","owner":"134610359@N02","secret":"7eb50fefbe","server":"65535","farm":66,"title":"Toutinegra-do-mato - DSCF4682","ispublic":1,"isfriend":0,"isfamily":0},{"id":"52484094092","owner":"134610359@N02","secret":"3b4f2dc417","server":"65535","farm":66,"title":"Toutinegra-do-mato - DSCF4692","ispublic":1,"isfriend":0,"isfamily":0},{"id":"52481406263","owner":"52799999@N06","secret":"b0b2e9a6d7","server":"65535","farm":66,"title":"Dartford Warbler (Curruca undata)","ispublic":1,"isfriend":0,"isfamily":0},{"id":"52458768737","owner":"79722430@N04","secret":"7e993bf947","server":"65535","farm":66,"title":"Dartford warbler (Curruca undata)","ispublic":1,"isfriend":0,"isfamily":0},{"id":"52442543630","owner":"52799999@N06","secret":"88c5ff4b76","server":"65535","farm":66,"title":"Dartford Warbler (Curruca undata)","ispublic":1,"isfriend":0,"isfamily":0},{"id":"52438282059","owner":"79722430@N04","secret":"9102b8ca10","server":"65535","farm":66,"title":"Dartford warbler (Curruca undata)","ispublic":1,"isfriend":0,"isfamily":0},{"id":"52299171896","owner":"146299377@N03","secret":"cf29591822","server":"65535","farm":66,"title":"Sylvia undata ( curruca rabilarga )","ispublic":1,"isfriend":0,"isfamily":0},{"id":"52293682248","owner":"161072502@N05","secret":"72b57a9a75","server":"65535","farm":66,"title":"Fauvette pitchou, Curruca undata","ispublic":1,"isfriend":0,"isfamily":0},{"id":"52115769184","owner":"191860779@N08","secret":"f6793b4d6d","server":"65535","farm":66,"title":"Curruca rabilarga (Sylvia undata)-4","ispublic":1,"isfriend":0,"isfamily":0},{"id":"52050158441","owner":"155821457@N08","secret":"d94a73b85f","server":"65535","farm":66,"title":"Fauvette pitchou - Curruca undata","ispublic":1,"isfriend":0,"isfamily":0},{"id":"52037132032","owner":"155821457@N08","secret":"904d3dd535","server":"65535","farm":66,"title":"Fauvette pitchou - Curruca undata","ispublic":1,"isfriend":0,"isfamily":0},{"id":"52021964330","owner":"158967056@N07","secret":"7c0250eca1","server":"65535","farm":66,"title":"Toutinegra-do-mato (Curruca undata)","ispublic":1,"isfriend":0,"isfamily":0}]},"stat":"ok"}