{"photos":{"page":1,"pages":6,"perpage":100,"total":544,"photo":[{"id":"52600129584","owner":"97496243@N06","secret":"5859fc993e","server":"65535","farm":66,"title":"Desert Sparrow (Passer simplex)","ispublic":1,"isfriend":0,"isfamily":0},{"id":"52536940012","owner":"137376421@N08","secret":"aa475a9581","server":"65535","farm":66,"title":"GORRI\u00d3N DEL DESIERTO (G. SAHARIANO) Passer simplex.","ispublic":1,"isfriend":0,"isfamily":0},{"id":"52429125205","owner":"28541561@N04","secret":"4556026865","server":"65535","farm":66,"title":"Green katydid on yellow daisy","ispublic":1,"isfriend":0,"isfamily":0},{"id":"52579470823","owner":"101709991@N06","secret":"bb740b1193","server":"65535","farm":66,"title":"Desert Sparrow - Passer simplex, Erg Chebbi221008-2","ispublic":1,"isfriend":0,"isfamily":0},{"id":"52269417146","owner":"22208323@N03","secret":"ea740e7ef1","server":"65535","farm":66,"title":"Jurassic on the LCLR","ispublic":1,"isfriend":0,"isfamily":0},{"id":"52097047251","owner":"12240837@N08","secret":"4e4648310c","server":"65535","farm":66,"title":"Desert Sparrow (passer simplex)","ispublic":1,"isfriend":0,"isfamily":0},{"id":"52097547725","owner":"12240837@N08","secret":"e83c1583f3","server":"65535","farm":66,"title":"Desert Sparrow (passer simplex)","ispublic":1,"isfriend":0,"isfamily":0},{"id":"52097047241","owner":"12240837@N08","secret":"89edeb09f3","server":"65535","farm":66,"title":"Desert Sparrow (passer simplex)","ispublic":1,"isfriend":0,"isfamily":0},{"id":"51987359855","owner":"193140416@N07","secret":"ee2a8cabe2","server":"65535","farm":66,"title":"O que \u00e9 amigdalite: confira mais a respeito desse problema","ispublic":1,"isfriend":0,"isfamily":0},{"id":"51874176240","owner":"88593217@N04","secret":"3da3c5014c","server":"65535","farm":66,"title":"Desert Sparrow, Erg Chebbi, Morocco, January 2015","ispublic":1,"isfriend":0,"isfamily":0},{"id":"51873609748","owner":"88593217@N04","secret":"e957a70135","server":"65535","farm":66,"title":"Desert Sparrow, Erg Chebbi, Morocco, January 2015","ispublic":1,"isfriend":0,"isfamily":0},{"id":"51873609718","owner":"88593217@N04","secret":"e622f409b0","server":"65535","farm":66,"title":"Desert Sparrow, Erg Chebbi, Morocco, January 2015","ispublic":1,"isfriend":0,"isfamily":0},{"id":"51873852679","owner":"88593217@N04","secret":"0b71fb7111","server":"65535","farm":66,"title":"Desert Sparrow, Erg Chebbi, Morocco, January 2015","ispublic":1,"isfriend":0,"isfamily":0},{"id":"51872571682","owner":"88593217@N04","secret":"48fe33ea27","server":"65535","farm":66,"title":"Desert Sparrow, Erg Chebbi, Morocco, January 2015","ispublic":1,"isfriend":0,"isfamily":0},{"id":"51872571642","owner":"88593217@N04","secret":"f3f2191161","server":"65535","farm":66,"title":"Desert Sparrow, Erg Chebbi, Morocco, January 2015","ispublic":1,"isfriend":0,"isfamily":0},{"id":"51873534776","owner":"88593217@N04","secret":"439917c288","server":"65535","farm":66,"title":"Desert Sparrow, Erg Chebbi, Morocco, January 2015","ispublic":1,"isfriend":0,"isfamily":0},{"id":"51873534716","owner":"88593217@N04","secret":"d856ec409f","server":"65535","farm":66,"title":"Desert Sparrow, Erg Chebbi, Morocco, January 2015","ispublic":1,"isfriend":0,"isfamily":0},{"id":"51874176085","owner":"88593217@N04","secret":"a39c07c3a2","server":"65535","farm":66,"title":"Desert Sparrow, Erg Chebbi, Morocco, January 2015","ispublic":1,"isfriend":0,"isfamily":0},{"id":"51873609553","owner":"88593217@N04","secret":"57626f63b6","server":"65535","farm":66,"title":"Desert Sparrow, Erg Chebbi, Morocco, January 2015","ispublic":1,"isfriend":0,"isfamily":0},{"id":"51872571437","owner":"88593217@N04","secret":"091fbc7a7b","server":"65535","farm":66,"title":"Desert Sparrow, Erg Chebbi, Morocco, January 2015","ispublic":1,"isfriend":0,"isfamily":0},{"id":"51873852234","owner":"88593217@N04","secret":"6920a0e0a0","server":"65535","farm":66,"title":"Desert Sparrow, Erg Chebbi, Morocco, January 2015","ispublic":1,"isfriend":0,"isfamily":0},{"id":"51872142911","owner":"88593217@N04","secret":"7541811373","server":"65535","farm":66,"title":"Desert Sparrow, Erg Chebbi, Morocco, January 2015","ispublic":1,"isfriend":0,"isfamily":0},{"id":"51872788860","owner":"88593217@N04","secret":"6f8771e1d3","server":"65535","farm":66,"title":"Desert Sparrow, Erg Chebbi, Morocco, January 2015","ispublic":1,"isfriend":0,"isfamily":0},{"id":"51872142786","owner":"88593217@N04","secret":"8eb9ef9591","server":"65535","farm":66,"title":"Desert Sparrow, Erg Chebbi, Morocco, January 2015","ispublic":1,"isfriend":0,"isfamily":0},{"id":"51872142726","owner":"88593217@N04","secret":"a1138140fd","server":"65535","farm":66,"title":"Desert Sparrow, Erg Chebbi, Morocco, January 2015","ispublic":1,"isfriend":0,"isfamily":0},{"id":"51872460379","owner":"88593217@N04","secret":"38ecafa745","server":"65535","farm":66,"title":"Desert Sparrow, Erg Chebbi, Morocco, January 2015","ispublic":1,"isfriend":0,"isfamily":0},{"id":"51872143011","owner":"88593217@N04","secret":"0b00a7778c","server":"65535","farm":66,"title":"Desert Sparrow, Erg Chebbi, Morocco, January 2015","ispublic":1,"isfriend":0,"isfamily":0},{"id":"51789338777","owner":"102162703@N02","secret":"d778a3a637","server":"65535","farm":66,"title":"Grice e Bacchin -- anypotheton haploustaton; ovvero, i fondamenti della filosofia del linguaggio -- filosofia italiana -- Luigi Speranza","ispublic":1,"isfriend":0,"isfamily":0},{"id":"51774003435","owner":"102162703@N02","secret":"da1df31b27","server":"65535","farm":66,"title":"Grice e Centi -- Savonarola e compagnia -- filosofia italiana -- Luigi Speranza","ispublic":1,"isfriend":0,"isfamily":0},{"id":"51762247093","owner":"102162703@N02","secret":"f50ac8158d","server":"65535","farm":66,"title":"Grice e Fabri -- i peripatetici -- filosofia italiana -- Luigi Speranza","ispublic":1,"isfriend":0,"isfamily":0},{"id":"51673686930","owner":"102162703@N02","secret":"eb81e1ab57","server":"65535","farm":66,"title":"Lucrezio -- Alma figlia di Giove -- filosofia italiana -- Luigi Speranza","ispublic":1,"isfriend":0,"isfamily":0},{"id":"51228883346","owner":"21261144@N03","secret":"0c41836b53","server":"65535","farm":66,"title":"IMGP3486 -1vibfwlcon","ispublic":1,"isfriend":0,"isfamily":0},{"id":"51160320230","owner":"95032502@N05","secret":"6cce1fe1d3","server":"65535","farm":66,"title":"Verago ATB\/A-RB at Bowland Knotts with view over Three Peaks","ispublic":1,"isfriend":0,"isfamily":0},{"id":"51097976935","owner":"119787485@N07","secret":"c0410d31e8","server":"65535","farm":66,"title":"Desert Sparrow (Passer simplex saharae) - 20190322-06","ispublic":1,"isfriend":0,"isfamily":0},{"id":"51097713543","owner":"119787485@N07","secret":"7862f3118f","server":"65535","farm":66,"title":"Desert Sparrow (Passer simplex saharae) - 20190322-10","ispublic":1,"isfriend":0,"isfamily":0},{"id":"51096244634","owner":"154596801@N04","secret":"849db89e18","server":"65535","farm":66,"title":"Apedale Railway - Military Freight with Kerr Stuart No 3014 passing a wrecked Simplex locomotive in the Country Park on 22nd May 2016","ispublic":1,"isfriend":0,"isfamily":0},{"id":"50884918728","owner":"45109166@N00","secret":"3690f9db64","server":"65535","farm":66,"title":"Passer simplex","ispublic":1,"isfriend":0,"isfamily":0},{"id":"50884850858","owner":"45109166@N00","secret":"601fa995fe","server":"65535","farm":66,"title":"Passer simplex","ispublic":1,"isfriend":0,"isfamily":0},{"id":"16165365231","owner":"90250231@N05","secret":"3e81213b36","server":"65535","farm":66,"title":"Five-dimensional space....collisions of subatomic particles in turn produce new particles as a result of the collision, including a graviton that escapes from the fourth dimension, or brane, leaking off into a five-dimensional bulk","ispublic":1,"isfriend":0,"isfamily":0},{"id":"50835499316","owner":"63255278@N08","secret":"a0057202f6","server":"65535","farm":66,"title":"WDLR Cameo","ispublic":1,"isfriend":0,"isfamily":0},{"id":"50831894288","owner":"38136824@N08","secret":"46da131170","server":"65535","farm":66,"title":"tracks to the trenches","ispublic":1,"isfriend":0,"isfamily":0},{"id":"50128998101","owner":"63255278@N08","secret":"20b7e3b847","server":"65535","farm":66,"title":"60SD712","ispublic":1,"isfriend":0,"isfamily":0},{"id":"50022620681","owner":"33497841@N02","secret":"6f032fe5d0","server":"65535","farm":66,"title":"2020.06.09_15.32.35_IMG_7130","ispublic":1,"isfriend":0,"isfamily":0},{"id":"50022879502","owner":"33497841@N02","secret":"3c5c3a8a10","server":"65535","farm":66,"title":"2020.06.09_15.33.01_IMG_7131","ispublic":1,"isfriend":0,"isfamily":0},{"id":"50022079903","owner":"33497841@N02","secret":"37f77c4662","server":"65535","farm":66,"title":"2020.06.09_15.33.30_IMG_7132","ispublic":1,"isfriend":0,"isfamily":0},{"id":"50022079843","owner":"33497841@N02","secret":"ca5ac664d7","server":"65535","farm":66,"title":"2020.06.09_15.33.44_IMG_7133","ispublic":1,"isfriend":0,"isfamily":0},{"id":"50022879317","owner":"33497841@N02","secret":"59d44f408b","server":"65535","farm":66,"title":"2020.06.09_15.34.01_IMG_7134","ispublic":1,"isfriend":0,"isfamily":0},{"id":"50022879237","owner":"33497841@N02","secret":"9f0129fd73","server":"65535","farm":66,"title":"2020.06.09_15.35.13_IMG_7136","ispublic":1,"isfriend":0,"isfamily":0},{"id":"49701576888","owner":"125857154@N08","secret":"7a66248eac","server":"65535","farm":66,"title":"A busy scene on the plantation!","ispublic":1,"isfriend":0,"isfamily":0},{"id":"49616599596","owner":"127605180@N04","secret":"2f486c5d35","server":"65535","farm":66,"title":"bigseed goosefoot, Chenopodium simplex","ispublic":1,"isfriend":0,"isfamily":0},{"id":"49616083463","owner":"127605180@N04","secret":"8d4ef24db4","server":"65535","farm":66,"title":"bigseed goosefoot, Chenopodium simplex","ispublic":1,"isfriend":0,"isfamily":0},{"id":"49561502097","owner":"186781405@N06","secret":"49234e3591","server":"65535","farm":66,"title":"DBC Class 60 at the old Lock Lane bridge into Cohens Scrapyard - 5879+BFA16208","ispublic":1,"isfriend":0,"isfamily":0},{"id":"49504315936","owner":"123449205@N06","secret":"1c843a03f8","server":"65535","farm":66,"title":"Removing the hub off a 14-foot IBC Geared Simplex windmill","ispublic":1,"isfriend":0,"isfamily":0},{"id":"48936603171","owner":"63255278@N08","secret":"13f2ace0fb","server":"65535","farm":66,"title":"Little & Large","ispublic":1,"isfriend":0,"isfamily":0},{"id":"48714179458","owner":"77318980@N02","secret":"b87168971c","server":"65535","farm":66,"title":"Father and son","ispublic":1,"isfriend":0,"isfamily":0},{"id":"48306224332","owner":"144329121@N08","secret":"b8835e15df","server":"65535","farm":66,"title":"This image is taken from United States Naval Medical Bulletin Vol. 10 Nos. 1-4, 1916","ispublic":1,"isfriend":0,"isfamily":0},{"id":"48306105296","owner":"144329121@N08","secret":"885b865c52","server":"65535","farm":66,"title":"This image is taken from United States Naval Medical Bulletin Vol. 10 Nos. 1-4, 1916","ispublic":1,"isfriend":0,"isfamily":0},{"id":"48306105131","owner":"144329121@N08","secret":"9430fc1f10","server":"65535","farm":66,"title":"This image is taken from United States Naval Medical Bulletin Vol. 10 Nos. 1-4, 1916","ispublic":1,"isfriend":0,"isfamily":0},{"id":"48306104976","owner":"144329121@N08","secret":"dd1018cfc0","server":"65535","farm":66,"title":"This image is taken from United States Naval Medical Bulletin Vol. 10 Nos. 1-4, 1916","ispublic":1,"isfriend":0,"isfamily":0},{"id":"48306104856","owner":"144329121@N08","secret":"235e1c4724","server":"65535","farm":66,"title":"This image is taken from United States Naval Medical Bulletin Vol. 10 Nos. 1-4, 1916","ispublic":1,"isfriend":0,"isfamily":0},{"id":"48306104726","owner":"144329121@N08","secret":"313ac370f5","server":"65535","farm":66,"title":"This image is taken from United States Naval Medical Bulletin Vol. 10 Nos. 1-4, 1916","ispublic":1,"isfriend":0,"isfamily":0},{"id":"48306223427","owner":"144329121@N08","secret":"1829b7d9ca","server":"65535","farm":66,"title":"This image is taken from United States Naval Medical Bulletin Vol. 10 Nos. 1-4, 1916","ispublic":1,"isfriend":0,"isfamily":0},{"id":"48306104451","owner":"144329121@N08","secret":"61a1e71184","server":"65535","farm":66,"title":"This image is taken from United States Naval Medical Bulletin Vol. 10 Nos. 1-4, 1916","ispublic":1,"isfriend":0,"isfamily":0},{"id":"48306104306","owner":"144329121@N08","secret":"6cf5c0fef0","server":"65535","farm":66,"title":"This image is taken from United States Naval Medical Bulletin Vol. 10 Nos. 1-4, 1916","ispublic":1,"isfriend":0,"isfamily":0},{"id":"48306104116","owner":"144329121@N08","secret":"4d971c88ee","server":"65535","farm":66,"title":"This image is taken from United States Naval Medical Bulletin Vol. 10 Nos. 1-4, 1916","ispublic":1,"isfriend":0,"isfamily":0},{"id":"48306103831","owner":"144329121@N08","secret":"b472c01f3b","server":"65535","farm":66,"title":"This image is taken from United States Naval Medical Bulletin Vol. 10 Nos. 1-4, 1916","ispublic":1,"isfriend":0,"isfamily":0},{"id":"48306222462","owner":"144329121@N08","secret":"2d1e8141f2","server":"65535","farm":66,"title":"This image is taken from United States Naval Medical Bulletin Vol. 10 Nos. 1-4, 1916","ispublic":1,"isfriend":0,"isfamily":0},{"id":"48306103546","owner":"144329121@N08","secret":"46383a49b0","server":"65535","farm":66,"title":"This image is taken from United States Naval Medical Bulletin Vol. 10 Nos. 1-4, 1916","ispublic":1,"isfriend":0,"isfamily":0},{"id":"48306222157","owner":"144329121@N08","secret":"937fbbaf77","server":"65535","farm":66,"title":"This image is taken from United States Naval Medical Bulletin Vol. 10 Nos. 1-4, 1916","ispublic":1,"isfriend":0,"isfamily":0},{"id":"48306103266","owner":"144329121@N08","secret":"faa4c80a22","server":"65535","farm":66,"title":"This image is taken from United States Naval Medical Bulletin Vol. 10 Nos. 1-4, 1916","ispublic":1,"isfriend":0,"isfamily":0},{"id":"48306221847","owner":"144329121@N08","secret":"860c33cfa7","server":"65535","farm":66,"title":"This image is taken from United States Naval Medical Bulletin Vol. 10 Nos. 1-4, 1916","ispublic":1,"isfriend":0,"isfamily":0},{"id":"48306221642","owner":"144329121@N08","secret":"1c19213c11","server":"65535","farm":66,"title":"This image is taken from United States Naval Medical Bulletin Vol. 10 Nos. 1-4, 1916","ispublic":1,"isfriend":0,"isfamily":0},{"id":"48306221507","owner":"144329121@N08","secret":"18ff5172f4","server":"65535","farm":66,"title":"This image is taken from United States Naval Medical Bulletin Vol. 10 Nos. 1-4, 1916","ispublic":1,"isfriend":0,"isfamily":0},{"id":"52536815277","owner":"137376421@N08","secret":"3abf4c5322","server":"65535","farm":66,"title":"GORRI\u00d3N DEL DESIERTO (G. SAHARIANO) Passer simplex.","ispublic":1,"isfriend":0,"isfamily":0},{"id":"52537828428","owner":"137376421@N08","secret":"0d887d9bb6","server":"65535","farm":66,"title":"GORRI\u00d3N DEL DESIERTO (G. SAHARIANO) Passer simplex.","ispublic":1,"isfriend":0,"isfamily":0},{"id":"52578944086","owner":"101709991@N06","secret":"7cb256560c","server":"65535","farm":66,"title":"Desert Sparrow - Passer simplex, Erg Chebbi221008","ispublic":1,"isfriend":0,"isfamily":0},{"id":"52181704857","owner":"193140416@N07","secret":"aa390c7491","server":"65535","farm":66,"title":"Confira as 5 principais causas do machucado na boca","ispublic":1,"isfriend":0,"isfamily":0},{"id":"52089420764","owner":"60816620@N03","secret":"c4ce92879e","server":"65535","farm":66,"title":"IMG_6829","ispublic":1,"isfriend":0,"isfamily":0},{"id":"52004493859","owner":"193140416@N07","secret":"1466e22b14","server":"65535","farm":66,"title":"Estomatite em beb\u00ea: saiba as causas e como trata-la","ispublic":1,"isfriend":0,"isfamily":0},{"id":"51856928990","owner":"12639178@N07","secret":"58a77c3f56","server":"65535","farm":66,"title":"W\u00fcstensp\u00fcerling im Erg Chebbi\/Marokko","ispublic":1,"isfriend":0,"isfamily":0},{"id":"51284555897","owner":"49465440@N07","secret":"7945d8042d","server":"65535","farm":66,"title":"Mormon Cricket","ispublic":1,"isfriend":0,"isfamily":0},{"id":"51284555507","owner":"49465440@N07","secret":"4671776c3e","server":"65535","farm":66,"title":"Mormon Cricket","ispublic":1,"isfriend":0,"isfamily":0},{"id":"51285306671","owner":"49465440@N07","secret":"5d191f064d","server":"65535","farm":66,"title":"Mormon Cricket","ispublic":1,"isfriend":0,"isfamily":0},{"id":"51285306426","owner":"49465440@N07","secret":"6bcd37f9b7","server":"65535","farm":66,"title":"Mormon Cricket","ispublic":1,"isfriend":0,"isfamily":0},{"id":"50900219033","owner":"144612409@N08","secret":"dd44c500c9","server":"65535","farm":66,"title":"feb 26 20194-31 p.m.","ispublic":1,"isfriend":0,"isfamily":0},{"id":"50901048282","owner":"144612409@N08","secret":"c56751ec98","server":"65535","farm":66,"title":"feb 26 20194-32 p.m.","ispublic":1,"isfriend":0,"isfamily":0},{"id":"50901048182","owner":"144612409@N08","secret":"99b3900ac4","server":"65535","farm":66,"title":"feb 26 201911-27 a.m.","ispublic":1,"isfriend":0,"isfamily":0},{"id":"50900931966","owner":"144612409@N08","secret":"440e7988a3","server":"65535","farm":66,"title":"feb 26 201911-28 a.m.","ispublic":1,"isfriend":0,"isfamily":0},{"id":"50901047922","owner":"144612409@N08","secret":"e73cfa8e7a","server":"65535","farm":66,"title":"feb 27 20198-10 a.m.","ispublic":1,"isfriend":0,"isfamily":0},{"id":"50901047612","owner":"144612409@N08","secret":"7f2a3938b3","server":"65535","farm":66,"title":"feb 27 20198-28 a.m.","ispublic":1,"isfriend":0,"isfamily":0},{"id":"50900217953","owner":"144612409@N08","secret":"ab615b3032","server":"65535","farm":66,"title":"mar 04 202011-05 a.m.","ispublic":1,"isfriend":0,"isfamily":0},{"id":"50900931346","owner":"144612409@N08","secret":"950eb71fbf","server":"65535","farm":66,"title":"mar 04 202011-05 a.m._1","ispublic":1,"isfriend":0,"isfamily":0},{"id":"50901047342","owner":"144612409@N08","secret":"7b9aa82b36","server":"65535","farm":66,"title":"mar 04 202011-08 a.m.","ispublic":1,"isfriend":0,"isfamily":0},{"id":"50820863048","owner":"123174353@N02","secret":"83c0630bbd","server":"65535","farm":66,"title":"Passer simplex \/ Desert Sparrow \/ woestijnmus","ispublic":1,"isfriend":0,"isfamily":0},{"id":"49887154598","owner":"55968524@N04","secret":"13f2bf4642","server":"65535","farm":66,"title":"3T9P8055 - Desert Sparrow - Passer simplex.jpg","ispublic":1,"isfriend":0,"isfamily":0},{"id":"49661337207","owner":"144612409@N08","secret":"0c05519a41","server":"65535","farm":66,"title":"DSC_8963","ispublic":1,"isfriend":0,"isfamily":0},{"id":"49661337172","owner":"144612409@N08","secret":"cbd71b20a8","server":"65535","farm":66,"title":"DSC_8983","ispublic":1,"isfriend":0,"isfamily":0},{"id":"49503806448","owner":"123449205@N06","secret":"d827e60a51","server":"65535","farm":66,"title":"Removing the hub off a 14-foot IBC Geared Simplex windmill","ispublic":1,"isfriend":0,"isfamily":0},{"id":"48714475466","owner":"77318980@N02","secret":"f20243e3d5","server":"65535","farm":66,"title":"Steaming through the countryside","ispublic":1,"isfriend":0,"isfamily":0}]},"stat":"ok"}