{"photos":{"page":1,"pages":18,"perpage":100,"total":1732,"photo":[{"id":"52692300313","owner":"123979267@N05","secret":"f86ee62a2c","server":"65535","farm":66,"title":"Dickcissel","ispublic":1,"isfriend":0,"isfamily":0},{"id":"52690457491","owner":"24608578@N00","secret":"28b0fdb87d","server":"65535","farm":66,"title":"Dickcissel (Spiza americana)","ispublic":1,"isfriend":0,"isfamily":0},{"id":"52690871195","owner":"24608578@N00","secret":"a13a21c33c","server":"65535","farm":66,"title":"Dickcissel (Spiza americana)","ispublic":1,"isfriend":0,"isfamily":0},{"id":"52690724169","owner":"24608578@N00","secret":"5a3f719058","server":"65535","farm":66,"title":"Dickcissel (Spiza americana)","ispublic":1,"isfriend":0,"isfamily":0},{"id":"52689937432","owner":"24608578@N00","secret":"e878d22ab3","server":"65535","farm":66,"title":"Dickcissel (Spiza americana)","ispublic":1,"isfriend":0,"isfamily":0},{"id":"52690947563","owner":"24608578@N00","secret":"e66832b289","server":"65535","farm":66,"title":"Dickcissel (Spiza americana)","ispublic":1,"isfriend":0,"isfamily":0},{"id":"52690451891","owner":"24608578@N00","secret":"9a0bf72cea","server":"65535","farm":66,"title":"Dickcissel (Spiza americana)","ispublic":1,"isfriend":0,"isfamily":0},{"id":"52680534594","owner":"24608578@N00","secret":"152168028b","server":"65535","farm":66,"title":"Dickcissel (Spiza americana)","ispublic":1,"isfriend":0,"isfamily":0},{"id":"52677017675","owner":"24608578@N00","secret":"1cf33fc36f","server":"65535","farm":66,"title":"Dickcissel (Spiza americana)","ispublic":1,"isfriend":0,"isfamily":0},{"id":"52672020472","owner":"24608578@N00","secret":"65c298e66a","server":"65535","farm":66,"title":"Dickcissel (Spiza americana)","ispublic":1,"isfriend":0,"isfamily":0},{"id":"52672814184","owner":"24608578@N00","secret":"cdf6088635","server":"65535","farm":66,"title":"Dickcissel (Spiza americana)","ispublic":1,"isfriend":0,"isfamily":0},{"id":"52579849492","owner":"153973412@N04","secret":"349b4261b6","server":"65535","farm":66,"title":"Dickcissel-Spiza americana, Hawkeye WMA, IA","ispublic":1,"isfriend":0,"isfamily":0},{"id":"52576033707","owner":"28631427@N00","secret":"a729fec639","server":"65535","farm":66,"title":"Dickcissel 1","ispublic":1,"isfriend":0,"isfamily":0},{"id":"52577022198","owner":"28631427@N00","secret":"5998252626","server":"65535","farm":66,"title":"Dickcissel 2","ispublic":1,"isfriend":0,"isfamily":0},{"id":"52576767424","owner":"28631427@N00","secret":"6c4ee2aeeb","server":"65535","farm":66,"title":"Dickcissel 3","ispublic":1,"isfriend":0,"isfamily":0},{"id":"52576931805","owner":"28631427@N00","secret":"0df963744d","server":"65535","farm":66,"title":"Dickcissel 4","ispublic":1,"isfriend":0,"isfamily":0},{"id":"52562833396","owner":"91064752@N03","secret":"ae0e987670","server":"65535","farm":66,"title":"Dickcissel","ispublic":1,"isfriend":0,"isfamily":0},{"id":"52541351725","owner":"33610210@N05","secret":"69b3afb41d","server":"65535","farm":66,"title":"Dickcissel, Spiza americana","ispublic":1,"isfriend":0,"isfamily":0},{"id":"52540409317","owner":"33610210@N05","secret":"c804d68cde","server":"65535","farm":66,"title":"Dickcissel, Spiza americana","ispublic":1,"isfriend":0,"isfamily":0},{"id":"52532304607","owner":"33610210@N05","secret":"4ac3f2674f","server":"65535","farm":66,"title":"Dickcissel, Spiza americana","ispublic":1,"isfriend":0,"isfamily":0},{"id":"52530522501","owner":"33610210@N05","secret":"7d935297cc","server":"65535","farm":66,"title":"Dickcissel, Spiza americana","ispublic":1,"isfriend":0,"isfamily":0},{"id":"52525908595","owner":"30979614@N07","secret":"c9a4c9b305","server":"65535","farm":66,"title":"2021-07-18 Ethel's Woods 1","ispublic":1,"isfriend":0,"isfamily":0},{"id":"52524074398","owner":"71418112@N00","secret":"907ef923e8","server":"65535","farm":66,"title":"Dickcissel","ispublic":1,"isfriend":0,"isfamily":0},{"id":"52487511712","owner":"165841515@N03","secret":"81e44b6861","server":"65535","farm":66,"title":"Dickcissel d'Am\u00e9rique \/ Dickcissel \/ (Spiza americana)","ispublic":1,"isfriend":0,"isfamily":0},{"id":"52488556968","owner":"165841515@N03","secret":"ca75d3730a","server":"65535","farm":66,"title":"Dickcissel d'Am\u00e9rique \/ Dickcissel \/ (Spiza americana)","ispublic":1,"isfriend":0,"isfamily":0},{"id":"52488556823","owner":"165841515@N03","secret":"7687178223","server":"65535","farm":66,"title":"Dickcissel d'Am\u00e9rique \/ Dickcissel \/ (Spiza americana)","ispublic":1,"isfriend":0,"isfamily":0},{"id":"52480477943","owner":"23859768@N04","secret":"f28c219200","server":"65535","farm":66,"title":"DSC_3787","ispublic":1,"isfriend":0,"isfamily":0},{"id":"52480207799","owner":"23859768@N04","secret":"ce8680f127","server":"65535","farm":66,"title":"DSC_3793","ispublic":1,"isfriend":0,"isfamily":0},{"id":"52480393640","owner":"23859768@N04","secret":"c4e759ab47","server":"65535","farm":66,"title":"DSC_3794","ispublic":1,"isfriend":0,"isfamily":0},{"id":"52463709577","owner":"165841515@N03","secret":"6da4c5d339","server":"65535","farm":66,"title":"Dickcissel d'Am\u00e9rique \/ Dickcissel \/ (Spiza americana)","ispublic":1,"isfriend":0,"isfamily":0},{"id":"52464759698","owner":"165841515@N03","secret":"a8942f1679","server":"65535","farm":66,"title":"Dickcissel d'Am\u00e9rique \/ Dickcissel \/ (Spiza americana)","ispublic":1,"isfriend":0,"isfamily":0},{"id":"52463709207","owner":"165841515@N03","secret":"ee5385623a","server":"65535","farm":66,"title":"Dickcissel d'Am\u00e9rique \/ Dickcissel \/ (Spiza americana)","ispublic":1,"isfriend":0,"isfamily":0},{"id":"52458479762","owner":"23711298@N07","secret":"0dd618ef11","server":"65535","farm":66,"title":"Dickcissel (Female), Minnesota, Sherburne County County, Sherburne National Wildlife Refuge","ispublic":1,"isfriend":0,"isfamily":0},{"id":"52459266654","owner":"23711298@N07","secret":"c0f20cba41","server":"65535","farm":66,"title":"Dickcissel (Female), Minnesota, Sherburne County County, Sherburne National Wildlife Refuge","ispublic":1,"isfriend":0,"isfamily":0},{"id":"52432149455","owner":"17654080@N08","secret":"313f1a3bb9","server":"65535","farm":66,"title":"Dickcissel - Silver Sands SP, CT - 10\/15\/2022","ispublic":1,"isfriend":0,"isfamily":0},{"id":"52418991073","owner":"39177293@N03","secret":"238c69344c","server":"65535","farm":66,"title":"Dickcissel","ispublic":1,"isfriend":0,"isfamily":0},{"id":"52389965732","owner":"51986662@N05","secret":"1fb84cc24b","server":"65535","farm":66,"title":"Dickcissel Singing Out Across Karl E. Mundt National Wildlife Refuge in South Dakota","ispublic":1,"isfriend":0,"isfamily":0},{"id":"52391196959","owner":"51986662@N05","secret":"51f1aebd21","server":"65535","farm":66,"title":"Dickcissel on a Fencepost in Karl E. Mundt National Wildlife Refuge","ispublic":1,"isfriend":0,"isfamily":0},{"id":"52388465095","owner":"51986662@N05","secret":"893226a610","server":"65535","farm":66,"title":"Dickcissel on Trout WPA on Lake Andes Wetland Management District South Dakota","ispublic":1,"isfriend":0,"isfamily":0},{"id":"52387110867","owner":"51986662@N05","secret":"3d4d3e6111","server":"65535","farm":66,"title":"Dickcissel on Lutz WPA Lake Andes Wetland Management District South Dakota","ispublic":1,"isfriend":0,"isfamily":0},{"id":"52388345284","owner":"51986662@N05","secret":"65af7913c9","server":"65535","farm":66,"title":"Dickcissels on Stanley WPA on Lake Andes Wetland Management District South Dakota","ispublic":1,"isfriend":0,"isfamily":0},{"id":"52388464745","owner":"51986662@N05","secret":"61e851e5fe","server":"65535","farm":66,"title":"Dickcissel on Plooster WPA on Lake Andes Wetland Management District South Dakota","ispublic":1,"isfriend":0,"isfamily":0},{"id":"52387110547","owner":"51986662@N05","secret":"1cdf2982a4","server":"65535","farm":66,"title":"Dickcissel on Eldridge WPA on Lake Andes Wetland Management District South Dakota","ispublic":1,"isfriend":0,"isfamily":0},{"id":"52379025131","owner":"51986662@N05","secret":"5ff56eb3b0","server":"65535","farm":66,"title":"Dickcissel on Karl E. Mundt National Wildlife Refuge South Dakota","ispublic":1,"isfriend":0,"isfamily":0},{"id":"52379329884","owner":"51986662@N05","secret":"d5bb621498","server":"65535","farm":66,"title":"Dickcissel on Karl E. Mundt National Wildlife Refuge South Dakota","ispublic":1,"isfriend":0,"isfamily":0},{"id":"52377588936","owner":"124995824@N08","secret":"038103282b","server":"65535","farm":66,"title":"Dickcissel - Spiza americana","ispublic":1,"isfriend":0,"isfamily":0},{"id":"52377899824","owner":"124995824@N08","secret":"6b09ef4f62","server":"65535","farm":66,"title":"Dickcissel - Spiza americana","ispublic":1,"isfriend":0,"isfamily":0},{"id":"52374011283","owner":"124995824@N08","secret":"35cd366449","server":"65535","farm":66,"title":"Dickcissel - Spiza americana","ispublic":1,"isfriend":0,"isfamily":0},{"id":"52323430791","owner":"65148649@N04","secret":"f043e31eba","server":"65535","farm":66,"title":"Dickcissel","ispublic":1,"isfriend":0,"isfamily":0},{"id":"52268631412","owner":"54514385@N06","secret":"8bbff610cb","server":"65535","farm":66,"title":"Dickcissel -- Spiza americana","ispublic":1,"isfriend":0,"isfamily":0},{"id":"52244189423","owner":"23020855@N03","secret":"591b8a68fd","server":"65535","farm":66,"title":"Dickcissel - 10 Mile Pond, MO","ispublic":1,"isfriend":0,"isfamily":0},{"id":"52237071778","owner":"65148649@N04","secret":"c06f975611","server":"0","farm":0,"title":"Dickcissel Video","ispublic":1,"isfriend":0,"isfamily":0},{"id":"52237553810","owner":"65148649@N04","secret":"b90dbf884c","server":"65535","farm":66,"title":"Dickcissel","ispublic":1,"isfriend":0,"isfamily":0},{"id":"52237062551","owner":"65148649@N04","secret":"52b964d2ca","server":"65535","farm":66,"title":"Dickcissel","ispublic":1,"isfriend":0,"isfamily":0},{"id":"52237072058","owner":"65148649@N04","secret":"29f5b20149","server":"65535","farm":66,"title":"Dickcissel","ispublic":1,"isfriend":0,"isfamily":0},{"id":"52237343434","owner":"65148649@N04","secret":"97b5a91793","server":"65535","farm":66,"title":"Dickcissel","ispublic":1,"isfriend":0,"isfamily":0},{"id":"52214206241","owner":"52421717@N00","secret":"c845782441","server":"65535","farm":66,"title":"Dickcissel","ispublic":1,"isfriend":0,"isfamily":0},{"id":"52214033614","owner":"56900328@N05","secret":"150000aca8","server":"65535","farm":66,"title":"Dickcissel","ispublic":1,"isfriend":0,"isfamily":0},{"id":"52207864817","owner":"58656859@N08","secret":"7595dbd4da","server":"65535","farm":66,"title":"Dickcissel","ispublic":1,"isfriend":0,"isfamily":0},{"id":"52179753414","owner":"46939390@N07","secret":"239d8d35ca","server":"65535","farm":66,"title":"Dickcissel -Spiza americana","ispublic":1,"isfriend":0,"isfamily":0},{"id":"52175308595","owner":"42034882@N00","secret":"0c638476ee","server":"65535","farm":66,"title":"Inappropriate-Sounding Bird Names, Part 2","ispublic":1,"isfriend":0,"isfamily":0},{"id":"52163041112","owner":"183132100@N02","secret":"7a1585f692","server":"65535","farm":66,"title":"Dickcissell 6-19-2022","ispublic":1,"isfriend":0,"isfamily":0},{"id":"52163196115","owner":"64606186@N00","secret":"8c0beb8898","server":"65535","farm":66,"title":"Dickcissel","ispublic":1,"isfriend":0,"isfamily":0},{"id":"52157365183","owner":"91064752@N03","secret":"153e304261","server":"65535","farm":66,"title":"I've Been Framed! - Dickcissel","ispublic":1,"isfriend":0,"isfamily":0},{"id":"52135902442","owner":"119468907@N03","secret":"68b80227a8","server":"0","farm":0,"title":"Dickcissel d'Ame\u0301rique_8437","ispublic":1,"isfriend":0,"isfamily":0},{"id":"52135936158","owner":"119468907@N03","secret":"815aa00584","server":"65535","farm":66,"title":"Dickcissel d'Ame\u0301rique_R5DJ8468","ispublic":1,"isfriend":0,"isfamily":0},{"id":"52134871722","owner":"119468907@N03","secret":"ecd872b577","server":"65535","farm":66,"title":"Dickcissel d'Ame\u0301rique_R5DJ8484","ispublic":1,"isfriend":0,"isfamily":0},{"id":"52107536859","owner":"8378957@N02","secret":"47b01dee98","server":"65535","farm":66,"title":"Dickcissel","ispublic":1,"isfriend":0,"isfamily":0},{"id":"52107531584","owner":"8378957@N02","secret":"26dc905510","server":"65535","farm":66,"title":"Dickcissel","ispublic":1,"isfriend":0,"isfamily":0},{"id":"52090732918","owner":"91064752@N03","secret":"998442f5e5","server":"65535","farm":66,"title":"Dickcissel Singing","ispublic":1,"isfriend":0,"isfamily":0},{"id":"51959416737","owner":"36685968@N00","secret":"0a89b10a19","server":"65535","farm":66,"title":"Dickcissel (Spiza americana)","ispublic":1,"isfriend":0,"isfamily":0},{"id":"51884534142","owner":"39617069@N08","secret":"17586f6819","server":"65535","farm":66,"title":"Dickcissel","ispublic":1,"isfriend":0,"isfamily":0},{"id":"51704254942","owner":"24608578@N00","secret":"11e1e83b79","server":"65535","farm":66,"title":"Dickcissel (Spiza americana)","ispublic":1,"isfriend":0,"isfamily":0},{"id":"51668993699","owner":"39445433@N02","secret":"eb4e36a11a","server":"65535","farm":66,"title":"Dickcissel","ispublic":1,"isfriend":0,"isfamily":0},{"id":"51668304376","owner":"39445433@N02","secret":"dde187aeea","server":"65535","farm":66,"title":"Dickcissel","ispublic":1,"isfriend":0,"isfamily":0},{"id":"51668992079","owner":"39445433@N02","secret":"053d456775","server":"65535","farm":66,"title":"Dickcissel","ispublic":1,"isfriend":0,"isfamily":0},{"id":"51668991634","owner":"39445433@N02","secret":"51a8f84606","server":"65535","farm":66,"title":"Dickcissel","ispublic":1,"isfriend":0,"isfamily":0},{"id":"51668991404","owner":"39445433@N02","secret":"10ca49ca1a","server":"65535","farm":66,"title":"Dickcissel","ispublic":1,"isfriend":0,"isfamily":0},{"id":"51668303466","owner":"39445433@N02","secret":"974181beb1","server":"65535","farm":66,"title":"Dickcissel","ispublic":1,"isfriend":0,"isfamily":0},{"id":"51668540188","owner":"39445433@N02","secret":"32677311c9","server":"65535","farm":66,"title":"Dickcissel","ispublic":1,"isfriend":0,"isfamily":0},{"id":"51668302896","owner":"39445433@N02","secret":"89c7c47128","server":"65535","farm":66,"title":"Dickcissel","ispublic":1,"isfriend":0,"isfamily":0},{"id":"51668990514","owner":"39445433@N02","secret":"51088efd58","server":"65535","farm":66,"title":"Dickcissel","ispublic":1,"isfriend":0,"isfamily":0},{"id":"51667504307","owner":"39445433@N02","secret":"1714916cee","server":"65535","farm":66,"title":"Dickcissel","ispublic":1,"isfriend":0,"isfamily":0},{"id":"51668300746","owner":"39445433@N02","secret":"858818ca4e","server":"65535","farm":66,"title":"Dickcissel","ispublic":1,"isfriend":0,"isfamily":0},{"id":"51669177200","owner":"39445433@N02","secret":"0d9ca57d39","server":"65535","farm":66,"title":"Dickcissel","ispublic":1,"isfriend":0,"isfamily":0},{"id":"51667501157","owner":"39445433@N02","secret":"76028eecc3","server":"65535","farm":66,"title":"Dickcissel","ispublic":1,"isfriend":0,"isfamily":0},{"id":"51668299151","owner":"39445433@N02","secret":"b8f1c6c98f","server":"65535","farm":66,"title":"Dickcissel","ispublic":1,"isfriend":0,"isfamily":0},{"id":"51668536343","owner":"39445433@N02","secret":"c6e8cb0f99","server":"65535","farm":66,"title":"Dickcissel","ispublic":1,"isfriend":0,"isfamily":0},{"id":"52561394917","owner":"99357496@N07","secret":"85fb56a918","server":"65535","farm":66,"title":"Dickcissel","ispublic":1,"isfriend":0,"isfamily":0},{"id":"52480387875","owner":"23859768@N04","secret":"25cfd7ebb6","server":"65535","farm":66,"title":"DSC_3795","ispublic":1,"isfriend":0,"isfamily":0},{"id":"52237072048","owner":"65148649@N04","secret":"4ee300c3a8","server":"65535","farm":66,"title":"Dickcissel","ispublic":1,"isfriend":0,"isfamily":0},{"id":"52182184329","owner":"13451078@N03","secret":"f2162b467f","server":"65535","farm":66,"title":"Dickcissels (Spiza americana)","ispublic":1,"isfriend":0,"isfamily":0},{"id":"52115597134","owner":"65632611@N00","secret":"149ebc6ff6","server":"65535","farm":66,"title":"Anahuac NWR, TX: Dickcissel  (3074)","ispublic":1,"isfriend":0,"isfamily":0},{"id":"52113247473","owner":"13451078@N03","secret":"57ab98fe85","server":"65535","farm":66,"title":"Dickcissel (Spiza americana). JPG","ispublic":1,"isfriend":0,"isfamily":0},{"id":"52085571771","owner":"190773540@N03","secret":"af7d0af7dd","server":"65535","farm":66,"title":"Dickcissel","ispublic":1,"isfriend":0,"isfamily":0},{"id":"51965846136","owner":"57465751@N05","secret":"4cc74452b1","server":"65535","farm":66,"title":"Dickcissel (Spiza americana), Hayden Prairie, Howard Co., IA","ispublic":1,"isfriend":0,"isfamily":0},{"id":"51667506737","owner":"39445433@N02","secret":"e20d01d9e7","server":"65535","farm":66,"title":"Dickcissel","ispublic":1,"isfriend":0,"isfamily":0},{"id":"51669181440","owner":"39445433@N02","secret":"af295e711f","server":"65535","farm":66,"title":"Dickcissel","ispublic":1,"isfriend":0,"isfamily":0},{"id":"51668302636","owner":"39445433@N02","secret":"5824774fed","server":"65535","farm":66,"title":"Dickcissel","ispublic":1,"isfriend":0,"isfamily":0},{"id":"51668988504","owner":"39445433@N02","secret":"3fe8e09c8a","server":"65535","farm":66,"title":"Dickcissel","ispublic":1,"isfriend":0,"isfamily":0}]},"stat":"ok"}