{"photos":{"page":1,"pages":29,"perpage":100,"total":2803,"photo":[{"id":"52721786227","owner":"11159374@N04","secret":"22669e2acb","server":"65535","farm":66,"title":"Downy Woodpecker","ispublic":1,"isfriend":0,"isfamily":0},{"id":"52720698277","owner":"93273765@N05","secret":"83431b3259","server":"65535","farm":66,"title":"Male Downy Woodpecker (Dryobates pubescens)","ispublic":1,"isfriend":0,"isfamily":0},{"id":"52713447489","owner":"130140749@N05","secret":"05dc55f6b5","server":"65535","farm":66,"title":"Hold on Tight!","ispublic":1,"isfriend":0,"isfamily":0},{"id":"52712746674","owner":"36142084@N05","secret":"e9426150f1","server":"65535","farm":66,"title":"R5_009280","ispublic":1,"isfriend":0,"isfamily":0},{"id":"52712746469","owner":"36142084@N05","secret":"6fe5f75302","server":"65535","farm":66,"title":"R5_009225","ispublic":1,"isfriend":0,"isfamily":0},{"id":"52711962152","owner":"36142084@N05","secret":"661de12f4b","server":"65535","farm":66,"title":"R5_009233","ispublic":1,"isfriend":0,"isfamily":0},{"id":"52712147653","owner":"160542269@N02","secret":"4d393a5c39","server":"65535","farm":66,"title":"female downy woodpecker (dryobates pubescens)","ispublic":1,"isfriend":0,"isfamily":0},{"id":"52711727528","owner":"196786375@N03","secret":"4e490da5e8","server":"65535","farm":66,"title":"Downy Woodpecker","ispublic":1,"isfriend":0,"isfamily":0},{"id":"52710725902","owner":"196786375@N03","secret":"1cea06d4f2","server":"65535","farm":66,"title":"Downy Woodpecker","ispublic":1,"isfriend":0,"isfamily":0},{"id":"52710023771","owner":"14734088@N02","secret":"19e3737c64","server":"65535","farm":66,"title":"Pic mineur 230103V2","ispublic":1,"isfriend":0,"isfamily":0},{"id":"52710240708","owner":"36013467@N07","secret":"d043fa7e56","server":"65535","farm":66,"title":"Downy Woodpecker (Dryobates pubescens)","ispublic":1,"isfriend":0,"isfamily":0},{"id":"52708862297","owner":"188352054@N08","secret":"dec4db9dc0","server":"65535","farm":66,"title":"IMG_7814","ispublic":1,"isfriend":0,"isfamily":0},{"id":"52704942464","owner":"184781347@N05","secret":"6fe84933da","server":"65535","farm":66,"title":"downy woodpecker @ south meadows trail, east hartford, connecticut","ispublic":1,"isfriend":0,"isfamily":0},{"id":"52703195697","owner":"125356410@N06","secret":"f3122f7db3","server":"65535","farm":66,"title":"Woodpecker Wednesday - The Downy Woodpecker 7611","ispublic":1,"isfriend":0,"isfamily":0},{"id":"52697829093","owner":"10260434@N03","secret":"b854456dfc","server":"65535","farm":66,"title":"Downy fem + gelatin seed cake-24Jan23","ispublic":1,"isfriend":0,"isfamily":0},{"id":"52697444107","owner":"88978913@N08","secret":"c8f9474187","server":"65535","farm":66,"title":"Female Downy Woodpecker, Dryobates pubescens","ispublic":1,"isfriend":0,"isfamily":0},{"id":"52696455287","owner":"30553002@N05","secret":"467166b8ca","server":"65535","farm":66,"title":"downy woodpecker (Dryobates pubescens) . . .","ispublic":1,"isfriend":0,"isfamily":0},{"id":"52697754238","owner":"10260434@N03","secret":"8eaef129b3","server":"65535","farm":66,"title":"Downy Woodpecker fem-13Dec22","ispublic":1,"isfriend":0,"isfamily":0},{"id":"52696566273","owner":"10260434@N03","secret":"92e9fcd22e","server":"65535","farm":66,"title":"Downy Woodpecker fem-19Dec22","ispublic":1,"isfriend":0,"isfamily":0},{"id":"52695875390","owner":"10260434@N03","secret":"6061c903eb","server":"65535","farm":66,"title":"Downy Woodpecker fem-20Dec22","ispublic":1,"isfriend":0,"isfamily":0},{"id":"52695921268","owner":"10260434@N03","secret":"339f43d7db","server":"65535","farm":66,"title":"Downy Woodpecker male-23Dec22","ispublic":1,"isfriend":0,"isfamily":0},{"id":"52696247359","owner":"97485958@N02","secret":"548c954835","server":"65535","farm":66,"title":"Downy Woodpecker (Dryobates pubescens) male","ispublic":1,"isfriend":0,"isfamily":0},{"id":"52695986261","owner":"97485958@N02","secret":"c63908f14e","server":"65535","farm":66,"title":"Downy Woodpecker (Dryobates pubescens) male","ispublic":1,"isfriend":0,"isfamily":0},{"id":"52695471417","owner":"97485958@N02","secret":"916048088e","server":"65535","farm":66,"title":"Downy Woodpecker (Dryobates pubescens) male","ispublic":1,"isfriend":0,"isfamily":0},{"id":"52696401545","owner":"97485958@N02","secret":"1a8afa2333","server":"65535","farm":66,"title":"Downy Woodpecker (Dryobates pubescens) male","ispublic":1,"isfriend":0,"isfamily":0},{"id":"52695986111","owner":"97485958@N02","secret":"4d9421b281","server":"65535","farm":66,"title":"Downy Woodpecker (Dryobates pubescens) male","ispublic":1,"isfriend":0,"isfamily":0},{"id":"52695986096","owner":"97485958@N02","secret":"fc2b046c2a","server":"65535","farm":66,"title":"Downy Woodpecker (Dryobates pubescens) male","ispublic":1,"isfriend":0,"isfamily":0},{"id":"52696401380","owner":"97485958@N02","secret":"21dac59d24","server":"65535","farm":66,"title":"Downy Woodpecker (Dryobates pubescens) male","ispublic":1,"isfriend":0,"isfamily":0},{"id":"52696475643","owner":"97485958@N02","secret":"39a893d4b2","server":"65535","farm":66,"title":"Downy Woodpecker (Dryobates pubescens) male","ispublic":1,"isfriend":0,"isfamily":0},{"id":"52695985901","owner":"97485958@N02","secret":"a42f47d69f","server":"65535","farm":66,"title":"Downy Woodpecker (Dryobates pubescens) male","ispublic":1,"isfriend":0,"isfamily":0},{"id":"52696475493","owner":"97485958@N02","secret":"8e85d22020","server":"65535","farm":66,"title":"Downy Woodpecker (Dryobates pubescens) male","ispublic":1,"isfriend":0,"isfamily":0},{"id":"52695985796","owner":"97485958@N02","secret":"d03ca45502","server":"65535","farm":66,"title":"Downy Woodpecker (Dryobates pubescens) male","ispublic":1,"isfriend":0,"isfamily":0},{"id":"52695985761","owner":"97485958@N02","secret":"1c4bc5466f","server":"65535","farm":66,"title":"Downy Woodpecker (Dryobates pubescens) male","ispublic":1,"isfriend":0,"isfamily":0},{"id":"52694842799","owner":"88978913@N08","secret":"8ba1b3ed72","server":"65535","farm":66,"title":"Downy Woodpecker, Dryobates pubescens","ispublic":1,"isfriend":0,"isfamily":0},{"id":"52633837608","owner":"49114357@N08","secret":"fd7bd75a05","server":"65535","farm":66,"title":"Downy Woodpecker","ispublic":1,"isfriend":0,"isfamily":0},{"id":"52687379616","owner":"196264892@N08","secret":"096716945e","server":"65535","farm":66,"title":"Downy Woodpecker","ispublic":1,"isfriend":0,"isfamily":0},{"id":"52687769395","owner":"86191812@N07","secret":"95a0f1c0cc","server":"65535","farm":66,"title":"Downy Woodpecker (Dryobates pubescens)","ispublic":1,"isfriend":0,"isfamily":0},{"id":"52686180196","owner":"36013467@N07","secret":"9638e3e339","server":"65535","farm":66,"title":"Downy Woodpecker (Dryobates pubescens)","ispublic":1,"isfriend":0,"isfamily":0},{"id":"52685820551","owner":"188156748@N07","secret":"4c9ff39460","server":"65535","farm":66,"title":"Downy Woodpecker (F) - Pic Minure (F) - Dryobates pubescens 4052 (7)-SharpenAI-Standard copy.jpgS","ispublic":1,"isfriend":0,"isfamily":0},{"id":"52685820556","owner":"188156748@N07","secret":"96df7f5ac5","server":"65535","farm":66,"title":"Downy Woodpecker (F) - Pic Minure (F) - Dryobates pubescens 4052 (5)-SharpenAI-Standard copy.jpgS","ispublic":1,"isfriend":0,"isfamily":0},{"id":"52686103359","owner":"188156748@N07","secret":"065ab3757d","server":"65535","farm":66,"title":"Downy Woodpecker (M) - Pic Minure (M) - Dryobates pubescens  4199 (2)-SharpenAI-Standard copy.jpgS","ispublic":1,"isfriend":0,"isfamily":0},{"id":"52686103319","owner":"188156748@N07","secret":"bd44b14123","server":"65535","farm":66,"title":"Downy Woodpecker (F) - Pic Minure (F) - Dryobates pubescens 4052 (3)-SharpenAI-Standard copy.jpgS","ispublic":1,"isfriend":0,"isfamily":0},{"id":"52685820506","owner":"188156748@N07","secret":"0ea8615b31","server":"65535","farm":66,"title":"Downy Woodpecker (M) - Pic Minure (M) - Dryobates pubescens 4063 (2)-SharpenAI-Standard copy.jpgS","ispublic":1,"isfriend":0,"isfamily":0},{"id":"52685820501","owner":"188156748@N07","secret":"734c883066","server":"65535","farm":66,"title":"Downy Woodpecker (M) - Pic Minure (M) - Dryobates pubescens 4063 (9)-SharpenAI-Standard copy.jpgS","ispublic":1,"isfriend":0,"isfamily":0},{"id":"52684754447","owner":"158105449@N02","secret":"3ce02194c4","server":"65535","farm":66,"title":"Downy Woodpecker -female (Dryobates pubescens)","ispublic":1,"isfriend":0,"isfamily":0},{"id":"52685691020","owner":"158105449@N02","secret":"b7a5aa9450","server":"65535","farm":66,"title":"Downy on Hackberry","ispublic":1,"isfriend":0,"isfamily":0},{"id":"52682750386","owner":"39445433@N02","secret":"a7836e3ba0","server":"65535","farm":66,"title":"Carolina Wren, Dark-Eyed Junco, Downy Woodpecker","ispublic":1,"isfriend":0,"isfamily":0},{"id":"52682228767","owner":"39445433@N02","secret":"421be27f3c","server":"65535","farm":66,"title":"Carolina Wren, Dark-Eyed Junco, Downy Woodpecker","ispublic":1,"isfriend":0,"isfamily":0},{"id":"52682228457","owner":"39445433@N02","secret":"1c726bdf4c","server":"65535","farm":66,"title":"Carolina Wren, Dark-Eyed Junco, Downy Woodpecker","ispublic":1,"isfriend":0,"isfamily":0},{"id":"52681413491","owner":"197200664@N05","secret":"21f23d269f","server":"65535","farm":66,"title":"\u269c\ufe0f Dryobates pubescens \u2642\ufe0e & \u2640\ufe0e \u269c\ufe0f","ispublic":1,"isfriend":0,"isfamily":0},{"id":"52680626651","owner":"194196140@N08","secret":"6e6a60ec06","server":"65535","farm":66,"title":"Downy Woodpecker (Dryobates pubescens)","ispublic":1,"isfriend":0,"isfamily":0},{"id":"52680078049","owner":"62043870@N05","secret":"7c2fa46c90","server":"65535","farm":66,"title":"Downy Woodpecker, Dryobates pubescens","ispublic":1,"isfriend":0,"isfamily":0},{"id":"52680230310","owner":"62043870@N05","secret":"c052349b52","server":"65535","farm":66,"title":"Downy Woodpecker, Dryobates pubescens","ispublic":1,"isfriend":0,"isfamily":0},{"id":"52678805932","owner":"44034115@N08","secret":"35cfe862d6","server":"65535","farm":66,"title":"Look at the Downy Woodpecker","ispublic":1,"isfriend":0,"isfamily":0},{"id":"52679350415","owner":"47533293@N04","secret":"e0a349f8bf","server":"65535","farm":66,"title":"Downy woodpecker, Dryobates pubescens","ispublic":1,"isfriend":0,"isfamily":0},{"id":"52672206463","owner":"151381692@N04","secret":"6504c7c772","server":"0","farm":0,"title":"Downy Woodpecker (Dryobates pubescens)","ispublic":1,"isfriend":0,"isfamily":0},{"id":"52671194632","owner":"151381692@N04","secret":"e13d11e24a","server":"65535","farm":66,"title":"Downy Woodpecker (Dryobates pubescens)","ispublic":1,"isfriend":0,"isfamily":0},{"id":"52672196943","owner":"151381692@N04","secret":"6a4cd77d5e","server":"65535","farm":66,"title":"Downy Woodpecker (Dryobates pubescens)","ispublic":1,"isfriend":0,"isfamily":0},{"id":"52672129820","owner":"151381692@N04","secret":"265b9c9a4d","server":"65535","farm":66,"title":"Downy Woodpecker (Dryobates pubescens)","ispublic":1,"isfriend":0,"isfamily":0},{"id":"52671987449","owner":"151381692@N04","secret":"759c707862","server":"65535","farm":66,"title":"Downy Woodpecker (Dryobates pubescens)","ispublic":1,"isfriend":0,"isfamily":0},{"id":"52667757084","owner":"71418112@N00","secret":"f39070b55b","server":"65535","farm":66,"title":"Up close and personal with a Downy Woodpecker.","ispublic":1,"isfriend":0,"isfamily":0},{"id":"52664909327","owner":"188156748@N07","secret":"9d929789ac","server":"65535","farm":66,"title":"Downy Woodpecker (F) - Pic Minure (F) - Dryobates pubescens 3138 (2)-SharpenAI-Standard copy.jpgS","ispublic":1,"isfriend":0,"isfamily":0},{"id":"52662688036","owner":"34238008@N02","secret":"ab1bb5a877","server":"65535","farm":66,"title":"Downy Woodpecker (Dryobates pubescens)","ispublic":1,"isfriend":0,"isfamily":0},{"id":"52662186502","owner":"34238008@N02","secret":"57de710b18","server":"65535","farm":66,"title":"Downy Woodpecker (Dryobates pubescens)","ispublic":1,"isfriend":0,"isfamily":0},{"id":"52659076343","owner":"140386565@N02","secret":"beaeb714a2","server":"65535","farm":66,"title":"Downy Woodpecker (Dryobates pubescens)","ispublic":1,"isfriend":0,"isfamily":0},{"id":"52646729126","owner":"44034115@N08","secret":"c4af8be631","server":"65535","farm":66,"title":"Downy Woodpecker Tales","ispublic":1,"isfriend":0,"isfamily":0},{"id":"52641762050","owner":"63093099@N02","secret":"fdcf327cdb","server":"65535","farm":66,"title":"Downy Woodpecker (male); 20230121; USA-WA-Pierce Co-Nisqually NWR","ispublic":1,"isfriend":0,"isfamily":0},{"id":"52641483655","owner":"71989271@N06","secret":"edd29c2dfb","server":"65535","farm":66,"title":"Downy Woodpecker (f)(Dryobates pubescens medianus)","ispublic":1,"isfriend":0,"isfamily":0},{"id":"52641044066","owner":"71989271@N06","secret":"d7e6a21615","server":"65535","farm":66,"title":"Downy Woodpecker (f)(Dryobates pubescens medianus)","ispublic":1,"isfriend":0,"isfamily":0},{"id":"52640373169","owner":"10260434@N03","secret":"621f250df7","server":"65535","farm":66,"title":"Downy Woodpecker male-5Dec22","ispublic":1,"isfriend":0,"isfamily":0},{"id":"52640449418","owner":"10260434@N03","secret":"2bcd940448","server":"65535","farm":66,"title":"Downy Woodpecker male-6Dec22","ispublic":1,"isfriend":0,"isfamily":0},{"id":"52640108144","owner":"10260434@N03","secret":"71ebc1d79a","server":"65535","farm":66,"title":"Downy male-28Nov22","ispublic":1,"isfriend":0,"isfamily":0},{"id":"52639967349","owner":"10260434@N03","secret":"0f23fa7b02","server":"65535","farm":66,"title":"Downy Woodpecker fem-14Nov22","ispublic":1,"isfriend":0,"isfamily":0},{"id":"52639903891","owner":"70295563@N00","secret":"6502385176","server":"65535","farm":66,"title":"At Alert","ispublic":1,"isfriend":0,"isfamily":0},{"id":"52638864886","owner":"195642998@N04","secret":"17ec164a43","server":"65535","farm":66,"title":"Downey Woodpecker (Dryobates pubescens)   and Tufted Titmouse (Baeolophus bicolor)","ispublic":1,"isfriend":0,"isfamily":0},{"id":"52638187647","owner":"188156748@N07","secret":"7741de2f35","server":"65535","farm":66,"title":"Downy Woodpecker (F) - Pic Minure (F) - Dryobates pubescens 0314 (2)-SharpenAI-Standard copy.jpgS","ispublic":1,"isfriend":0,"isfamily":0},{"id":"52638957224","owner":"188156748@N07","secret":"cc20bec25e","server":"65535","farm":66,"title":"Downy Woodpecker (F) - Pic Minure (F) - Dryobates pubescens 9561 (1)-SharpenAI-Standard (1) copy.jpgS","ispublic":1,"isfriend":0,"isfamily":0},{"id":"52638187602","owner":"188156748@N07","secret":"e901ea3f41","server":"65535","farm":66,"title":"Downy Woodpecker (F) - Pic Minure (F) - Dryobates pubescens 9561 (3)-SharpenAI-Standard copy.jpgS","ispublic":1,"isfriend":0,"isfamily":0},{"id":"52639136405","owner":"188156748@N07","secret":"d7651b42be","server":"65535","farm":66,"title":"Downy Woodpecker (M) - Pic Minure (M) - Dryobates pubescens   1777 (1)-SharpenAI-Standard copy.jpgS","ispublic":1,"isfriend":0,"isfamily":0},{"id":"52638702031","owner":"188156748@N07","secret":"efa26b1d87","server":"65535","farm":66,"title":"Downy Woodpecker (M) - Pic Minure (M) - Dryobates pubescens   1777 (2)-SharpenAI-Standard copy.jpgS","ispublic":1,"isfriend":0,"isfamily":0},{"id":"52638187522","owner":"188156748@N07","secret":"f9e5043b26","server":"65535","farm":66,"title":"Downy Woodpecker (M) - Pic Minure (M) - Dryobates pubescens   1777 (3)-SharpenAI-Standard copy.jpgS","ispublic":1,"isfriend":0,"isfamily":0},{"id":"52639136275","owner":"188156748@N07","secret":"bc5ac1eb01","server":"65535","farm":66,"title":"Downy Woodpecker (M) - Pic Minure (M) - Dryobates pubescens  1768 (4)-SharpenAI-Standard copy.jpgS","ispublic":1,"isfriend":0,"isfamily":0},{"id":"52639178428","owner":"188156748@N07","secret":"2e610d4bfd","server":"65535","farm":66,"title":"Downy Woodpecker (M) - Pic Minure (M) - Dryobates pubescens 0433-SharpenAI-Standard copy.jpgS","ispublic":1,"isfriend":0,"isfamily":0},{"id":"52633058759","owner":"92361032@N05","secret":"52c152070f","server":"65535","farm":66,"title":"Downy Woodpecker \/  Pic mineur ( Diane )","ispublic":1,"isfriend":0,"isfamily":0},{"id":"52625971685","owner":"51928691@N04","secret":"6029252a5f","server":"65535","farm":66,"title":"Downy Woodpecker (Dryobates pubescens) 1 122522","ispublic":1,"isfriend":0,"isfamily":0},{"id":"52623833582","owner":"165841515@N03","secret":"a3ea475c86","server":"65535","farm":66,"title":"Pic mineur \/ Downy Woodpecker \/ (Dryobates pubescens)","ispublic":1,"isfriend":0,"isfamily":0},{"id":"52624584339","owner":"165841515@N03","secret":"421fc06ab4","server":"65535","farm":66,"title":"Pic mineur \/ Downy Woodpecker \/ (Dryobates pubescens)","ispublic":1,"isfriend":0,"isfamily":0},{"id":"52620815304","owner":"97530381@N05","secret":"88d12cf11f","server":"65535","farm":66,"title":"Cute Male Downy Woodpecker","ispublic":1,"isfriend":0,"isfamily":0},{"id":"52619697512","owner":"125356410@N06","secret":"ea415bc186","server":"65535","farm":66,"title":"Downy Woodpecker 6660-11","ispublic":1,"isfriend":0,"isfamily":0},{"id":"52620137996","owner":"11349439@N04","secret":"5f6bab9ab7","server":"65535","farm":66,"title":"Downey Woodpecker (Dryobates pubescens)","ispublic":1,"isfriend":0,"isfamily":0},{"id":"52618784367","owner":"95721592@N00","secret":"cab964e6bd","server":"65535","farm":66,"title":"Downy Woodpecker (Dryobates pubescens)","ispublic":1,"isfriend":0,"isfamily":0},{"id":"52619286399","owner":"34238008@N02","secret":"bcff3486f4","server":"65535","farm":66,"title":"Downy Woodpecker (Dryobates pubescens)","ispublic":1,"isfriend":0,"isfamily":0},{"id":"52619286229","owner":"34238008@N02","secret":"c2d2497432","server":"65535","farm":66,"title":"Downy Woodpecker (Dryobates pubescens)","ispublic":1,"isfriend":0,"isfamily":0},{"id":"52619501888","owner":"34238008@N02","secret":"91ec583579","server":"65535","farm":66,"title":"Downy Woodpecker (Dryobates pubescens)","ispublic":1,"isfriend":0,"isfamily":0},{"id":"52618120950","owner":"184781347@N05","secret":"1a247a21c9","server":"65535","farm":66,"title":"downy woodpecker diptych","ispublic":1,"isfriend":0,"isfamily":0},{"id":"52616093275","owner":"128537732@N06","secret":"783d1f1c4c","server":"65535","farm":66,"title":"Downy Woodpecker (Dryobates pubescens)","ispublic":1,"isfriend":0,"isfamily":0},{"id":"52615892460","owner":"76500089@N03","secret":"0923c80a4c","server":"65535","farm":66,"title":"Downy Woodpecker (Dryobates pubescens)","ispublic":1,"isfriend":0,"isfamily":0},{"id":"52612858375","owner":"181824639@N02","secret":"20b5449784","server":"65535","farm":66,"title":"Pic mineur ( Dryobates pubescens )","ispublic":1,"isfriend":0,"isfamily":0},{"id":"52609871096","owner":"62043870@N05","secret":"7365718ea7","server":"65535","farm":66,"title":"Downy Woodpecker, Dryobates pubescens","ispublic":1,"isfriend":0,"isfamily":0},{"id":"52604090787","owner":"34238008@N02","secret":"e8d5e9fdf3","server":"65535","farm":66,"title":"Downy Woodpecker (Dryobates pubescens)","ispublic":1,"isfriend":0,"isfamily":0}]},"stat":"ok"}