{"photos":{"page":1,"pages":41,"perpage":100,"total":4005,"photo":[{"id":"52724371528","owner":"37566919@N02","secret":"39493dd9b5","server":"65535","farm":66,"title":"Eastern Screech-Owl (Gray morph- McCall's)","ispublic":1,"isfriend":0,"isfamily":0},{"id":"52722234873","owner":"188156748@N07","secret":"f0f777b317","server":"65535","farm":66,"title":"Eastern Screech-Owl (Brown Phase) Petit Duc Macul\u00e9 (Phase Brun)- Megascops asio  5343 (27)-SharpenAI-Standard copy.jpgsS","ispublic":1,"isfriend":0,"isfamily":0},{"id":"52722011714","owner":"188156748@N07","secret":"da7aa19f6e","server":"65535","farm":66,"title":"Eastern Screech-Owl (Brown Phase) Petit Duc Macul\u00e9 (Phase Brun)- Megascops asio  5343 (5)-SharpenAI-Standard copy.jpgs","ispublic":1,"isfriend":0,"isfamily":0},{"id":"52722234868","owner":"188156748@N07","secret":"14d09c0ea7","server":"65535","farm":66,"title":"Eastern Screech-Owl (Brown Phase) Petit Duc Macul\u00e9 (Phase Brun)- Megascops asio  5343 (23)-SharpenAI-Standard copy.jpgs","ispublic":1,"isfriend":0,"isfamily":0},{"id":"52719007083","owner":"136620261@N06","secret":"199ed1ac04","server":"65535","farm":66,"title":"Petit duc macul\u00e9, M\u00e9gascops asio, Eastern Screech-Owl-4569-Edit-2.jpg","ispublic":1,"isfriend":0,"isfamily":0},{"id":"52717573342","owner":"79791557@N02","secret":"6032e027aa","server":"65535","farm":66,"title":"Eastern Screech Owl (Megascops asio)","ispublic":1,"isfriend":0,"isfamily":0},{"id":"52718499940","owner":"79791557@N02","secret":"cd6bb25ee2","server":"65535","farm":66,"title":"Eastern Screech Owl (Megascops asio)","ispublic":1,"isfriend":0,"isfamily":0},{"id":"52718334254","owner":"79791557@N02","secret":"8673791837","server":"65535","farm":66,"title":"Eastern Screech Owl (Megascops asio)","ispublic":1,"isfriend":0,"isfamily":0},{"id":"52716666837","owner":"97303805@N00","secret":"a350ba3c18","server":"65535","farm":66,"title":"Eastern Screech Owl | Megascops asio | 2023 - 11","ispublic":1,"isfriend":0,"isfamily":0},{"id":"52717617865","owner":"97303805@N00","secret":"af10b33b6c","server":"65535","farm":66,"title":"Eastern Screech Owl | Megascops asio | 2023 - 10","ispublic":1,"isfriend":0,"isfamily":0},{"id":"52716320770","owner":"197628215@N07","secret":"6f0d236017","server":"65535","farm":66,"title":"\"Red\" Eastern Screech-Owl (Megascops asio) #easternscreechowl #screechowl #owl #bestbackroad #bestbackroads #natgeoyourshots #natgeo100contest #rutlandcountyvermont #rutlandcountyvt #washingtoncountynewyork #washingtoncountyny #whitehallnewyork #wildphoto","ispublic":1,"isfriend":0,"isfamily":0},{"id":"52713649049","owner":"197628215@N07","secret":"820176b3fb","server":"65535","farm":66,"title":"\"Red\" Eastern Screech-Owl (Megascops asio) #easternscreechowl #screechowl #owl #bestbackroad #bestbackroads #natgeoyourshots #natgeo100contest #rutlandcountyvermont #rutlandcountyvt #washingtoncountynewyork #washingtoncountyny #whitehallnewyork #wildphoto","ispublic":1,"isfriend":0,"isfamily":0},{"id":"52711720268","owner":"126297346@N07","secret":"0a49a00b66","server":"65535","farm":66,"title":"Chroniques d'Angrignon | Petit-duc macul\u00e9 | Parc Angrignon | Arrondissement Sud-Ouest | Montr\u00e9al","ispublic":1,"isfriend":0,"isfamily":0},{"id":"52710979161","owner":"197628215@N07","secret":"72298c46e9","server":"65535","farm":66,"title":"\"Red\" Eastern Screech-Owl (Megascops asio) #easternscreechowl #screechowl #owl #bestbackroad #bestbackroads #natgeoyourshots #natgeo100contest #rutlandcountyvermont #rutlandcountyvt #washingtoncountynewyork #washingtoncountyny #whitehallnewyork #wildphoto","ispublic":1,"isfriend":0,"isfamily":0},{"id":"52709164064","owner":"197628215@N07","secret":"a5e56b3307","server":"65535","farm":66,"title":"\"Red\" Eastern Screech-Owl (Megascops asio) 02\/06\/2023 #easternscreechowl #screechowl #owl #bestbackroad #bestbackroads #natgeoyourshots #natgeo100contest #natgeo #rutlandcountyvt #washingtoncountyny #whitehallny #wildphotography #naturephotography #advent","ispublic":1,"isfriend":0,"isfamily":0},{"id":"52706752982","owner":"126297346@N07","secret":"c9c75d2b0c","server":"65535","farm":66,"title":"Charlotte | Petit-duc macul\u00e9 de forme rousse | Montr\u00e9al","ispublic":1,"isfriend":0,"isfamily":0},{"id":"52705434516","owner":"197628215@N07","secret":"508dca5e48","server":"65535","farm":66,"title":"\"Red\" Eastern Screech-Owl (Megascops asio) 02\/13\/2023 - 02\/14\/2023 #easternscreechowl #screechowl #owl #bestbackroad #bestbackroads #natgeoyourshots #natgeo100contest #natgeo #rutlandcountyvt #washingtoncountyny #whitehallny #wildphotography #naturephotog","ispublic":1,"isfriend":0,"isfamily":0},{"id":"52705396771","owner":"44756587@N03","secret":"fa60064222","server":"65535","farm":66,"title":"Eastern Screech-Owl","ispublic":1,"isfriend":0,"isfamily":0},{"id":"52705773235","owner":"97303805@N00","secret":"ff89c64076","server":"65535","farm":66,"title":"Eastern Screech Owl | Megascops asio | 2023 - 8","ispublic":1,"isfriend":0,"isfamily":0},{"id":"52704506492","owner":"188156748@N07","secret":"d6aa00b145","server":"65535","farm":66,"title":"Eastern Screech-Owl (Brown Phase) Petit Duc Macul\u00e9 (Phase Brun)- Megascops asio 5165 (13)-SharpenAI-Standard copy.jpgS","ispublic":1,"isfriend":0,"isfamily":0},{"id":"52705029051","owner":"188156748@N07","secret":"33331b1c64","server":"65535","farm":66,"title":"Eastern Screech-Owl (Brown Phase) Petit Duc Macul\u00e9 (Phase Brun)- Megascops asio 5181-SharpenAI-Standard copy.jpgS","ispublic":1,"isfriend":0,"isfamily":0},{"id":"52705283114","owner":"188156748@N07","secret":"8105a91a4f","server":"65535","farm":66,"title":"Eastern Screech-Owl (Brown Phase) Petit Duc Macul\u00e9 (Phase Brun)- Megascops asio 5165 (15)-SharpenAI-Standard copy.jpgS","ispublic":1,"isfriend":0,"isfamily":0},{"id":"52703999788","owner":"197628215@N07","secret":"ab1fdd54d9","server":"65535","farm":66,"title":"\"Red\" Eastern Screech-Owl (Megascops asio) 02\/13\/2023 - 02\/14\/2023 #easternscreechowl #screechowl #owl #bestbackroad #bestbackroads #natgeoyourshots #natgeo100contest #natgeo #rutlandcountyvt #washingtoncountyny #whitehallny #wildphotography #naturephotog","ispublic":1,"isfriend":0,"isfamily":0},{"id":"52703786563","owner":"188156748@N07","secret":"3e7a4285cf","server":"65535","farm":66,"title":"Eastern Screech-Owl (Brown Phase) Petit Duc Macul\u00e9 (Phase Brun)- Megascops asio 5075 (4)-SharpenAI-Standard copy.jpgS","ispublic":1,"isfriend":0,"isfamily":0},{"id":"52703299661","owner":"188156748@N07","secret":"d6788a274c","server":"65535","farm":66,"title":"Eastern Screech-Owl (Brown Phase) Petit Duc Macul\u00e9 (Phase Brun)- Megascops asio 5075 (7)-SharpenAI-Standard copy.jpgS","ispublic":1,"isfriend":0,"isfamily":0},{"id":"52703299631","owner":"188156748@N07","secret":"e4d2596112","server":"65535","farm":66,"title":"Eastern Screech-Owl (Brown Phase) Petit Duc Macul\u00e9 (Phase Brun)- Megascops asio 5075 (11)-SharpenAI-Standard copy.jpgS","ispublic":1,"isfriend":0,"isfamily":0},{"id":"52703553974","owner":"188156748@N07","secret":"2e7bdd402c","server":"65535","farm":66,"title":"Eastern Screech-Owl (Brown Phase) Petit Duc Macul\u00e9 (Phase Brun)- Megascops asio 5075 (17)-SharpenAI-Standard copy.jpgS","ispublic":1,"isfriend":0,"isfamily":0},{"id":"52703719025","owner":"188156748@N07","secret":"5046a335de","server":"65535","farm":66,"title":"Eastern Screech-Owl (Brown Phase) Petit Duc Macul\u00e9 (Phase Brun)- Megascops asio 5075 (20)-SharpenAI-Standard copy.jpgS","ispublic":1,"isfriend":0,"isfamily":0},{"id":"52703553944","owner":"188156748@N07","secret":"e846acc372","server":"65535","farm":66,"title":"Eastern Screech-Owl (Brown Phase) Petit Duc Macul\u00e9 (Phase Brun)- Megascops asio 5075 (24)-SharpenAI-Standard copy.jpgS","ispublic":1,"isfriend":0,"isfamily":0},{"id":"52703718970","owner":"188156748@N07","secret":"d08055008a","server":"65535","farm":66,"title":"Eastern Screech-Owl (Brown Phase) Petit Duc Macul\u00e9 (Phase Brun)- Megascops asio 5075 (32)-SharpenAI-Standard copy.jpgS","ispublic":1,"isfriend":0,"isfamily":0},{"id":"52703299536","owner":"188156748@N07","secret":"5304712be0","server":"65535","farm":66,"title":"Eastern Screech-Owl (Brown Phase) Petit Duc Macul\u00e9 (Phase Brun)- Megascops asio 5075 (34)-SharpenAI-Standard copy.jpgS","ispublic":1,"isfriend":0,"isfamily":0},{"id":"52702779677","owner":"188156748@N07","secret":"b00ed021c5","server":"65535","farm":66,"title":"Eastern Screech-Owl (Brown Phase) Petit Duc Macul\u00e9 (Phase Brun)- Megascops asio 5075 (37)-SharpenAI-Standard copy.jpgS","ispublic":1,"isfriend":0,"isfamily":0},{"id":"52701728844","owner":"197628215@N07","secret":"00c03b869a","server":"65535","farm":66,"title":"\"Red\" Eastern Screech-Owl (Megascops asio) 02\/13\/2023 - 02\/14\/2023 #easternscreechowl #screechowl #owl #bestbackroad #bestbackroads #natgeoyourshots #natgeo100contest #natgeo #rutlandcountyvt #washingtoncountyny #whitehallny #wildphotography #naturephotog","ispublic":1,"isfriend":0,"isfamily":0},{"id":"52699797468","owner":"197628215@N07","secret":"9f3150935a","server":"65535","farm":66,"title":"\"Red\" Eastern Screech-Owl (Megascops asio) 02\/13\/2023 - 02\/14\/2023 #easternscreechowl #screechowl #owl #bestbackroad #bestbackroads #natgeoyourshots #natgeo100contest #natgeo #rutlandcountyvt #washingtoncountyny #whitehallny #wildphotography #naturephotog","ispublic":1,"isfriend":0,"isfamily":0},{"id":"52697646929","owner":"65148649@N04","secret":"d91d4d997e","server":"65535","farm":66,"title":"Eastern Screech-Owl 2 02.11.23 Frye","ispublic":1,"isfriend":0,"isfamily":0},{"id":"52697808105","owner":"65148649@N04","secret":"2c62693e35","server":"65535","farm":66,"title":"Eastern Screech-Owl 02.11.23 Rutherford K","ispublic":1,"isfriend":0,"isfamily":0},{"id":"52697389901","owner":"65148649@N04","secret":"46d40b6a5a","server":"65535","farm":66,"title":"Eastern Screech-Owl 02.11.23 Rutherford E","ispublic":1,"isfriend":0,"isfamily":0},{"id":"52697389891","owner":"65148649@N04","secret":"d5098cba73","server":"65535","farm":66,"title":"Eastern Screech-Owl 02.11.23 Frye","ispublic":1,"isfriend":0,"isfamily":0},{"id":"52697806865","owner":"65148649@N04","secret":"4c511fe756","server":"65535","farm":66,"title":"Eastern Screech-Owl 02.11.23 Anderson","ispublic":1,"isfriend":0,"isfamily":0},{"id":"52697878743","owner":"65148649@N04","secret":"bbf09eda7e","server":"65535","farm":66,"title":"Eastern Screech-Owl 4 02.11.23 Frye","ispublic":1,"isfriend":0,"isfamily":0},{"id":"52697878713","owner":"65148649@N04","secret":"946db51521","server":"65535","farm":66,"title":"Eastern Screech-Owl 3 02.11.23 Frye","ispublic":1,"isfriend":0,"isfamily":0},{"id":"52697070459","owner":"197628215@N07","secret":"44e8b315f5","server":"65535","farm":66,"title":"Eastern Screech-Owl (Megascops asio) 02\/07\/2023 #easternscreechowl #screechowl #owl #bestbackroad #bestbackroads #natgeoyourshots #natgeo100contest #natgeo #rutlandcountyvt #washingtoncountyny #whitehallny #wildphotography #naturephotography #adventurepho","ispublic":1,"isfriend":0,"isfamily":0},{"id":"52696429990","owner":"197628215@N07","secret":"04d4384668","server":"65535","farm":66,"title":"Eastern Screech-Owl (Megascops asio) 02\/10\/2023 #easternscreechowl #screechowl #bestbackroad #bestbackroads #natgeoyourshots #natgeo100contest #natgeo #rutlandcountyvt #washingtoncountyny #whitehallny #wildphotography #naturephotography #adventurephotogra","ispublic":1,"isfriend":0,"isfamily":0},{"id":"52695622200","owner":"85277889@N08","secret":"961d59dc78","server":"65535","farm":66,"title":"Eastern Screech-Owl (Megascops asio) 2023-02-13 (15a)","ispublic":1,"isfriend":0,"isfamily":0},{"id":"52695341964","owner":"197628215@N07","secret":"4b8ee1e415","server":"65535","farm":66,"title":"Eastern Screech-Owl (Megascops asio) 01\/27\/2023 - 01\/28\/2023 #easternscreechowl #screechowl #owl #bestbackroad #bestbackroads #natgeoyourshots #natgeo100contest #rutlandcountyvermont #rutlandcountyvt #washingtoncountynewyork #washingtoncountyny #whitehall","ispublic":1,"isfriend":0,"isfamily":0},{"id":"52694564541","owner":"76585534@N06","secret":"47d904e847","server":"0","farm":0,"title":"Petit-duc macul\u00e9 forme rousse","ispublic":1,"isfriend":0,"isfamily":0},{"id":"52693683473","owner":"197628215@N07","secret":"0b57834cd5","server":"65535","farm":66,"title":"Eastern Screech-Owl (Megascops asio) 02\/07\/2023 #easternscreechowl #screechowl #owl #bestbackroad #bestbackroads #natgeoyourshots #natgeo100contest #natgeo #rutlandcountyvt #washingtoncountyny #whitehallny #wildphotography #naturephotography #adventurepho","ispublic":1,"isfriend":0,"isfamily":0},{"id":"52692326992","owner":"188156748@N07","secret":"8e6652f898","server":"65535","farm":66,"title":"Eastern Screech-Owl (Red Phase) Petit Duc Macul\u00e9 (Phase Rousse)- Megascops asio 4468 (7)-SharpenAI-Standard copy.jpgS","ispublic":1,"isfriend":0,"isfamily":0},{"id":"52693258040","owner":"188156748@N07","secret":"6abd15a5ed","server":"65535","farm":66,"title":"Eastern Screech-Owl (Red Phase) Petit Duc Macul\u00e9 (Phase Rousse)- Megascops asio 4468 (13)-SharpenAI-Standard copy.jpgS","ispublic":1,"isfriend":0,"isfamily":0},{"id":"52693258005","owner":"188156748@N07","secret":"288c499dab","server":"65535","farm":66,"title":"Eastern Screech-Owl (Red Phase) Petit Duc Macul\u00e9 (Phase Rousse)- Megascops asio 4468 (22)-SharpenAI-Standard copy.jpgS","ispublic":1,"isfriend":0,"isfamily":0},{"id":"52693257965","owner":"188156748@N07","secret":"ccd237bdb4","server":"65535","farm":66,"title":"Eastern Screech-Owl (Red Phase) Petit Duc Macul\u00e9 (Phase Rousse)- Megascops asio 4468 (25)-SharpenAI-Standard copy.jpgS","ispublic":1,"isfriend":0,"isfamily":0},{"id":"52692326902","owner":"188156748@N07","secret":"5124da0229","server":"65535","farm":66,"title":"Eastern Screech-Owl (Red Phase) Petit Duc Macul\u00e9 (Phase Rousse)- Megascops asio 4468 (27)-SharpenAI-Standard copy.jpgS","ispublic":1,"isfriend":0,"isfamily":0},{"id":"52693113514","owner":"188156748@N07","secret":"5aa1d3cac0","server":"65535","farm":66,"title":"Eastern Screech-Owl (Red Phase) Petit Duc Macul\u00e9 (Phase Rousse)- Megascops asio 4468 (28)-SharpenAI-Standard copy.jpgS","ispublic":1,"isfriend":0,"isfamily":0},{"id":"52693113494","owner":"188156748@N07","secret":"e62ef0fcfe","server":"65535","farm":66,"title":"Eastern Screech-Owl (Red Phase) Petit Duc Macul\u00e9 (Phase Rousse)- Megascops asio 4468 (41)-SharpenAI-Standard copy.jpgS","ispublic":1,"isfriend":0,"isfamily":0},{"id":"52693257840","owner":"188156748@N07","secret":"ea2b676553","server":"65535","farm":66,"title":"Eastern Screech-Owl (Red Phase) Petit Duc Macul\u00e9 (Phase Rousse)- Megascops asio 4468 (43)-SharpenAI-Standard copy.jpgS","ispublic":1,"isfriend":0,"isfamily":0},{"id":"52693337213","owner":"188156748@N07","secret":"415df1c25c","server":"65535","farm":66,"title":"Eastern Screech-Owl (Red Phase) Petit Duc Macul\u00e9 (Phase Rousse)- Megascops asio 4468 (46)-SharpenAI-Standard copy.jpgS","ispublic":1,"isfriend":0,"isfamily":0},{"id":"52693113379","owner":"188156748@N07","secret":"13f2a221ca","server":"65535","farm":66,"title":"Eastern Screech-Owl (Red Phase) Petit Duc Macul\u00e9 (Phase Rousse)- Megascops asio 4468 (57)-SharpenAI-Standard copy.jpgS","ispublic":1,"isfriend":0,"isfamily":0},{"id":"52692846326","owner":"188156748@N07","secret":"feee1fd656","server":"65535","farm":66,"title":"Eastern Screech-Owl (Red Phase) Petit Duc Macul\u00e9 (Phase Rousse)- Megascops asio 4468 (73)-SharpenAI-Standard copy.jpgS","ispublic":1,"isfriend":0,"isfamily":0},{"id":"52693257680","owner":"188156748@N07","secret":"344e07a5c9","server":"65535","farm":66,"title":"Eastern Screech-Owl (Red Phase) Petit Duc Macul\u00e9 (Phase Rousse)- Megascops asio 4468 (81)-SharpenAI-Standard copy.jpgS","ispublic":1,"isfriend":0,"isfamily":0},{"id":"52690236633","owner":"97303805@N00","secret":"37bab44f29","server":"65535","farm":66,"title":"Eastern Screech Owl | Megascops asio | 2023 - 7","ispublic":1,"isfriend":0,"isfamily":0},{"id":"52689067756","owner":"11159374@N04","secret":"885283e110","server":"65535","farm":66,"title":"Eastern Screech Owl","ispublic":1,"isfriend":0,"isfamily":0},{"id":"52687166022","owner":"197628215@N07","secret":"4601e52e12","server":"65535","farm":66,"title":"\"Dorian Gray\" Eastern Screech-Owl (Megascops asio) 02\/06\/2023 #easternscreechowl #screechowl #owl #bestbackroad #bestbackroads #natgeoyourshots #natgeo100contest #natgeo #rutlandcountyvt #washingtoncountyny #whitehallny #wildphotography #naturephotography","ispublic":1,"isfriend":0,"isfamily":0},{"id":"52687526171","owner":"197628215@N07","secret":"19cdc5c33d","server":"65535","farm":66,"title":"Eastern Screech-Owl (Megascops asio) 01\/20\/2023 - 01\/26\/2023 #easternscreechowl #screechowl #owl #bestbackroad #bestbackroads #natgeoyourshots #natgeo100contest #rutlandcountyvermont #rutlandcountyvt #washingtoncountynewyork #washingtoncountyny #whitehall","ispublic":1,"isfriend":0,"isfamily":0},{"id":"52684809692","owner":"197628215@N07","secret":"fd5e766f01","server":"65535","farm":66,"title":"Eastern Screech-Owl (Megascops asio) 01\/20\/2023 - 01\/26\/2023 #easternscreechowl #screechowl #owl #bestbackroad #bestbackroads #natgeoyourshots #natgeo100contest #rutlandcountyvermont #rutlandcountyvt #washingtoncountynewyork #washingtoncountyny #whitehall","ispublic":1,"isfriend":0,"isfamily":0},{"id":"52693976784","owner":"119468907@N03","secret":"c68d5def1b","server":"65535","farm":66,"title":"Petit-duc macule\u0301_5DDJ6951","ispublic":1,"isfriend":0,"isfamily":0},{"id":"52682833323","owner":"120699091@N02","secret":"821ee176e8","server":"65535","farm":66,"title":"Eastern Screech-Owl","ispublic":1,"isfriend":0,"isfamily":0},{"id":"52682830923","owner":"120699091@N02","secret":"2f147ccf6f","server":"65535","farm":66,"title":"Eastern Screech-Owl","ispublic":1,"isfriend":0,"isfamily":0},{"id":"52682332496","owner":"120699091@N02","secret":"6d06d86910","server":"65535","farm":66,"title":"Eastern Screech-Owl","ispublic":1,"isfriend":0,"isfamily":0},{"id":"52681984503","owner":"71418112@N00","secret":"1df148b6dd","server":"65535","farm":66,"title":"He's back","ispublic":1,"isfriend":0,"isfamily":0},{"id":"52677825822","owner":"70295563@N00","secret":"042a54420f","server":"65535","farm":66,"title":"Home sweet home","ispublic":1,"isfriend":0,"isfamily":0},{"id":"52677870749","owner":"97303805@N00","secret":"55d0722d5e","server":"65535","farm":66,"title":"Eastern Screech Owl | Megascops asio | 2023 - 6","ispublic":1,"isfriend":0,"isfamily":0},{"id":"52671755870","owner":"197628215@N07","secret":"f037c8a925","server":"65535","farm":66,"title":"Eastern Screech-Owl (Megascops asio) 01\/10\/2023 #easternscreechowl #screechowl #owl #bestbackroad #bestbackroads #natgeoyourshots #natgeo100contest #rutlandcountyvermont #rutlandcountyvt #washingtoncountynewyork #washingtoncountyny #whitehallnewyork #wild","ispublic":1,"isfriend":0,"isfamily":0},{"id":"52669423328","owner":"120699091@N02","secret":"4a306eba04","server":"65535","farm":66,"title":"Eastern Screech-Owl, Red Morph","ispublic":1,"isfriend":0,"isfamily":0},{"id":"52668422207","owner":"188156748@N07","secret":"0b371d6c29","server":"65535","farm":66,"title":"Eastern Screech Owl - Petit-duc macul\u00e9 - Megascops asio 3338 (13)-SharpenAI-Standard copy.jpgS","ispublic":1,"isfriend":0,"isfamily":0},{"id":"52668921266","owner":"188156748@N07","secret":"005cbc0ef9","server":"65535","farm":66,"title":"Eastern Screech Owl (Brown Phase) - Petit-duc macul\u00e9 (Phase Brun)- Megascops asio 3338 (23)-SharpenAI-Standard copy.jpgS","ispublic":1,"isfriend":0,"isfamily":0},{"id":"52669357070","owner":"188156748@N07","secret":"cb8aa0c250","server":"65535","farm":66,"title":"Eastern Screech Owl (Brown Phase) - Petit-duc macul\u00e9 (Phase Brun) - Megascops asio 3338 (30)-SharpenAI-Standard copy.jpgS","ispublic":1,"isfriend":0,"isfamily":0},{"id":"52669357045","owner":"188156748@N07","secret":"0aa6563f20","server":"65535","farm":66,"title":"Eastern Screech Owl (Brown Phase) - Petit-duc macul\u00e9 (Phase Brun) - Megascops asio 3338 (36)-SharpenAI-Standard copy.jpgS","ispublic":1,"isfriend":0,"isfamily":0},{"id":"52669208214","owner":"188156748@N07","secret":"a371f8cfae","server":"65535","farm":66,"title":"Eastern Screech Owl (Brown Phase) - Petit-duc macul\u00e9 (Phase Brun)- Megascops asio 3338 (41)-SharpenAI-Standard copy.jpgS","ispublic":1,"isfriend":0,"isfamily":0},{"id":"52669418963","owner":"188156748@N07","secret":"0cd938ef6b","server":"65535","farm":66,"title":"Eastern Screech Owl (Brown Phase) - Petit-duc macul\u00e9 (Phase Brun)  - Megascops asio 3338 (43)-SharpenAI-Standard copy.jpgS","ispublic":1,"isfriend":0,"isfamily":0},{"id":"52669418953","owner":"188156748@N07","secret":"9ecfd821e6","server":"65535","farm":66,"title":"Eastern Screech Owl (Brown Phase) - Petit-duc macul\u00e9 (Phase Brun)  - Megascops asio 3338 (47)-SharpenAI-Standard copy.jpgS","ispublic":1,"isfriend":0,"isfamily":0},{"id":"52669208169","owner":"188156748@N07","secret":"d4fc5deaf6","server":"65535","farm":66,"title":"Eastern Screech Owl (Brown Phase) - Petit-duc macul\u00e9 (Phase Brun) - Megascops asio 3338 (49)-SharpenAI-Standard copy.jpgS","ispublic":1,"isfriend":0,"isfamily":0},{"id":"52669418903","owner":"188156748@N07","secret":"c691883725","server":"65535","farm":66,"title":"Eastern Screech Owl (Brown Phase) - Petit-duc macul\u00e9 (Phase Brun)  - Megascops asio 3338 (51)-SharpenAI-Standard copy.jpgS","ispublic":1,"isfriend":0,"isfamily":0},{"id":"52669249600","owner":"196302635@N05","secret":"7cee3a9a7b","server":"65535","farm":66,"title":"Eastern Screech Owl - red morph","ispublic":1,"isfriend":0,"isfamily":0},{"id":"52668891403","owner":"196302635@N05","secret":"561fdd9d2d","server":"65535","farm":66,"title":"Eastern Screech Owl - red morph","ispublic":1,"isfriend":0,"isfamily":0},{"id":"52668008538","owner":"97303805@N00","secret":"11754d99fd","server":"65535","farm":66,"title":"Eastern Screech Owl | Megascops asio | 2023 - 4","ispublic":1,"isfriend":0,"isfamily":0},{"id":"52667006322","owner":"97303805@N00","secret":"b8d8eed753","server":"65535","farm":66,"title":"Eastern Screech Owl | Megascops asio | 2023 - 3","ispublic":1,"isfriend":0,"isfamily":0},{"id":"52667047733","owner":"126297346@N07","secret":"3b58d42faf","server":"65535","farm":66,"title":"La perte d'un grand ami | Loss of a close friend | Petit-duc macul\u00e9 | Parc Angrignon","ispublic":1,"isfriend":0,"isfamily":0},{"id":"52665619821","owner":"97303805@N00","secret":"ddcf667519","server":"65535","farm":66,"title":"Eastern Screech Owl | Megascops asio | 2023 - 1","ispublic":1,"isfriend":0,"isfamily":0},{"id":"52665619756","owner":"97303805@N00","secret":"685d3e16d5","server":"65535","farm":66,"title":"Eastern Screech Owl | Megascops asio | 2023 - 2","ispublic":1,"isfriend":0,"isfamily":0},{"id":"52663033642","owner":"39177293@N03","secret":"423818d4fb","server":"65535","farm":66,"title":"Eastern (McCall's) Screech-Owl","ispublic":1,"isfriend":0,"isfamily":0},{"id":"52663973445","owner":"39177293@N03","secret":"989a76eeaf","server":"65535","farm":66,"title":"Eastern (McCall's) Screech-Owl","ispublic":1,"isfriend":0,"isfamily":0},{"id":"52663431843","owner":"130605131@N08","secret":"89603274b5","server":"65535","farm":66,"title":"IMG_3860","ispublic":1,"isfriend":0,"isfamily":0},{"id":"52662936701","owner":"130605131@N08","secret":"0a79c57fd5","server":"65535","farm":66,"title":"IMG_3859","ispublic":1,"isfriend":0,"isfamily":0},{"id":"52663374360","owner":"130605131@N08","secret":"06ab960b82","server":"65535","farm":66,"title":"IMG_3856","ispublic":1,"isfriend":0,"isfamily":0},{"id":"52662437617","owner":"130605131@N08","secret":"7aee9915ed","server":"65535","farm":66,"title":"IMG_3857","ispublic":1,"isfriend":0,"isfamily":0},{"id":"52663374335","owner":"130605131@N08","secret":"7140fbb140","server":"65535","farm":66,"title":"IMG_3854","ispublic":1,"isfriend":0,"isfamily":0},{"id":"52663220404","owner":"130605131@N08","secret":"01d1d26542","server":"65535","farm":66,"title":"IMG_3830","ispublic":1,"isfriend":0,"isfamily":0},{"id":"52663431698","owner":"130605131@N08","secret":"2b01f4c858","server":"65535","farm":66,"title":"IMG_3825","ispublic":1,"isfriend":0,"isfamily":0},{"id":"52663374325","owner":"130605131@N08","secret":"b978466159","server":"65535","farm":66,"title":"IMG_3829","ispublic":1,"isfriend":0,"isfamily":0},{"id":"52663431678","owner":"130605131@N08","secret":"c2bebace6b","server":"65535","farm":66,"title":"IMG_3824","ispublic":1,"isfriend":0,"isfamily":0}]},"stat":"ok"}