{"photos":{"page":1,"pages":2,"perpage":100,"total":132,"photo":[{"id":"52342952991","owner":"41730704@N03","secret":"71144d7f0d","server":"65535","farm":66,"title":"Warbler eastern Orphean warbler (Curruca crassirostris) Kavaki Lesvos 230422 1.1","ispublic":1,"isfriend":0,"isfamily":0},{"id":"52259053189","owner":"156162545@N07","secret":"063f26c49f","server":"65535","farm":66,"title":"Eastern Orphean Warbler","ispublic":1,"isfriend":0,"isfamily":0},{"id":"52233453031","owner":"134560762@N08","secret":"e18ea745f2","server":"65535","farm":66,"title":"paapje (Saxicola rubetra) & eastern Orphean warbler (Curruca crassirostris) Petras, Lesbos","ispublic":1,"isfriend":0,"isfamily":0},{"id":"52231919365","owner":"134560762@N08","secret":"fa83153be4","server":"65535","farm":66,"title":"oostelijke orpheusgrasmus (Curruca crassirostris synoniem: Sylvia crassirostris), Lesbos Mantamados","ispublic":1,"isfriend":0,"isfamily":0},{"id":"52148026253","owner":"7482089@N04","secret":"db27d3f921","server":"65535","farm":66,"title":"Eastern Orphean Warbler, Curruca crassirostris","ispublic":1,"isfriend":0,"isfamily":0},{"id":"52044820118","owner":"14888671@N02","secret":"ee093c7244","server":"65535","farm":66,"title":"Lesser Whitethroat","ispublic":1,"isfriend":0,"isfamily":0},{"id":"52005049169","owner":"56747859@N02","secret":"72686c3aa2","server":"65535","farm":66,"title":"Eastern Orphean Warbler (Curruca crassirostris)","ispublic":1,"isfriend":0,"isfamily":0},{"id":"46957981474","owner":"66909027@N00","secret":"be152d8550","server":"65535","farm":66,"title":"Eastern Orphean Warbler in Karachi, Pakistan","ispublic":1,"isfriend":0,"isfamily":0},{"id":"27792544954","owner":"61079970@N06","secret":"ef3fba0b4f","server":"7593","farm":8,"title":"Curruca crassirostris-Eastern Orphean Warbler","ispublic":1,"isfriend":0,"isfamily":0},{"id":"28126506380","owner":"61079970@N06","secret":"06b0079bde","server":"7476","farm":8,"title":"Curruca crassirostris-Eastern Orphean Warbler","ispublic":1,"isfriend":0,"isfamily":0},{"id":"21569286340","owner":"89587515@N05","secret":"5234e4becf","server":"569","farm":1,"title":"276A2333. Curruca mirlona occidental. Sylvia crassirostris.","ispublic":1,"isfriend":0,"isfamily":0},{"id":"51367057372","owner":"154417921@N04","secret":"e3d84c6f33","server":"65535","farm":66,"title":"DSC01490","ispublic":1,"isfriend":0,"isfamily":0},{"id":"51367817726","owner":"154417921@N04","secret":"aa54516b1c","server":"65535","farm":66,"title":"DSC01460","ispublic":1,"isfriend":0,"isfamily":0},{"id":"48158971981","owner":"32177968@N06","secret":"d104e635c6","server":"65535","farm":66,"title":"sylvia crassirostris","ispublic":1,"isfriend":0,"isfamily":0},{"id":"48158971946","owner":"32177968@N06","secret":"006e175b2a","server":"65535","farm":66,"title":"sylvia crassirostris","ispublic":1,"isfriend":0,"isfamily":0},{"id":"48158971896","owner":"32177968@N06","secret":"7395c2e12b","server":"65535","farm":66,"title":"sylvia crassirostris","ispublic":1,"isfriend":0,"isfamily":0},{"id":"48159049827","owner":"32177968@N06","secret":"d3d443b5b9","server":"65535","farm":66,"title":"sylvia crassirostris","ispublic":1,"isfriend":0,"isfamily":0},{"id":"48158971861","owner":"32177968@N06","secret":"49cba6d1e2","server":"65535","farm":66,"title":"sylvia crassirostris","ispublic":1,"isfriend":0,"isfamily":0},{"id":"48158971851","owner":"32177968@N06","secret":"a71b65e0d3","server":"65535","farm":66,"title":"sylvia crassirostris","ispublic":1,"isfriend":0,"isfamily":0},{"id":"48159040957","owner":"32177968@N06","secret":"5895abb801","server":"65535","farm":66,"title":"sylvia crassirostris","ispublic":1,"isfriend":0,"isfamily":0},{"id":"48158963261","owner":"32177968@N06","secret":"8f59e312cc","server":"65535","farm":66,"title":"sylvia crassirostris","ispublic":1,"isfriend":0,"isfamily":0},{"id":"42476824712","owner":"80746425@N00","secret":"5e13d6f662","server":"1750","farm":2,"title":"Eastern Orphean Warbler - Curruca crassirostris crassirostris","ispublic":1,"isfriend":0,"isfamily":0},{"id":"28409763885","owner":"61079970@N06","secret":"af7a13db61","server":"8636","farm":9,"title":"Curruca crassirostris-Eastern Orphean Warbler","ispublic":1,"isfriend":0,"isfamily":0},{"id":"28409638185","owner":"61079970@N06","secret":"e4dc42dddf","server":"8571","farm":9,"title":"Curruca crassirostris-Eastern Orphean Warbler","ispublic":1,"isfriend":0,"isfamily":0},{"id":"21766686491","owner":"89587515@N05","secret":"11ee789a00","server":"570","farm":1,"title":"276A2107. Curruca mirlona occidental. Sylvia crassirostris.","ispublic":1,"isfriend":0,"isfamily":0},{"id":"21757279915","owner":"89587515@N05","secret":"cb600bdcc7","server":"5668","farm":6,"title":"276A2833. Curruca mirlona occidental. Sylvia crassirostris.","ispublic":1,"isfriend":0,"isfamily":0},{"id":"21766680851","owner":"89587515@N05","secret":"e6ff8b596f","server":"5761","farm":6,"title":"276A1760. Curruca mirlona occidental. Sylvia crassirostris.","ispublic":1,"isfriend":0,"isfamily":0},{"id":"21745637892","owner":"89587515@N05","secret":"8c166ae2c2","server":"5830","farm":6,"title":"276A2389. Curruca mirlona occidental. Sylvia crassirostris.","ispublic":1,"isfriend":0,"isfamily":0},{"id":"21136268733","owner":"89587515@N05","secret":"ca63db1e11","server":"5793","farm":6,"title":"276A1740. Curruca mirlona occidental. Sylvia crassirostris.","ispublic":1,"isfriend":0,"isfamily":0},{"id":"21766680721","owner":"89587515@N05","secret":"dd5c8f72b2","server":"583","farm":1,"title":"276A1762. Curruca mirlona occidental. Sylvia crassirostris.","ispublic":1,"isfriend":0,"isfamily":0},{"id":"21134574794","owner":"89587515@N05","secret":"185dfaeee3","server":"640","farm":1,"title":"276A1763. Curruca mirlona occidental. Sylvia crassirostris.","ispublic":1,"isfriend":0,"isfamily":0},{"id":"21136267893","owner":"89587515@N05","secret":"762ce3ab3c","server":"702","farm":1,"title":"276A1765. Curruca mirlona occidental. Sylvia crassirostris.","ispublic":1,"isfriend":0,"isfamily":0},{"id":"21136267643","owner":"89587515@N05","secret":"89c2d67951","server":"714","farm":1,"title":"276A1781. Curruca mirlona occidental. Sylvia crassirostris.","ispublic":1,"isfriend":0,"isfamily":0},{"id":"21136267493","owner":"89587515@N05","secret":"e7dc82de84","server":"5765","farm":6,"title":"276A1786. Curruca mirlona occidental. Sylvia crassirostris.","ispublic":1,"isfriend":0,"isfamily":0},{"id":"21745636442","owner":"89587515@N05","secret":"edee5ac9b6","server":"651","farm":1,"title":"276A1791. Curruca mirlona occidental. Sylvia crassirostris.","ispublic":1,"isfriend":0,"isfamily":0},{"id":"21757278095","owner":"89587515@N05","secret":"9dbe52b322","server":"692","farm":1,"title":"276A1798. Curruca mirlona occidental. Sylvia crassirostris.","ispublic":1,"isfriend":0,"isfamily":0},{"id":"21766679111","owner":"89587515@N05","secret":"7d6b20ca1c","server":"688","farm":1,"title":"276A1802. Curruca mirlona occidental. Sylvia crassirostris.","ispublic":1,"isfriend":0,"isfamily":0},{"id":"21569421668","owner":"89587515@N05","secret":"9fc19ea4d6","server":"616","farm":1,"title":"276A1834. Curruca mirlona occidental. Sylvia crassirostris.","ispublic":1,"isfriend":0,"isfamily":0},{"id":"21569293780","owner":"89587515@N05","secret":"7c4bc45d76","server":"659","farm":1,"title":"276A1844. Curruca mirlona occidental. Sylvia crassirostris.","ispublic":1,"isfriend":0,"isfamily":0},{"id":"21766678841","owner":"89587515@N05","secret":"7f65bb27b5","server":"5771","farm":6,"title":"276A1808. Curruca mirlona occidental. Sylvia crassirostris.","ispublic":1,"isfriend":0,"isfamily":0},{"id":"21136265953","owner":"89587515@N05","secret":"e5467d56fa","server":"5720","farm":6,"title":"276A1855. Curruca mirlona occidental. Sylvia crassirostris.","ispublic":1,"isfriend":0,"isfamily":0},{"id":"21136266053","owner":"89587515@N05","secret":"76976d4fef","server":"5694","farm":6,"title":"276A1848. Curruca mirlona occidental. Sylvia crassirostris.","ispublic":1,"isfriend":0,"isfamily":0},{"id":"21136265693","owner":"89587515@N05","secret":"896a5b884f","server":"566","farm":1,"title":"276A1864. Curruca mirlona occidental. Sylvia crassirostris.","ispublic":1,"isfriend":0,"isfamily":0},{"id":"21757276825","owner":"89587515@N05","secret":"93461fd64b","server":"637","farm":1,"title":"276A1874. Curruca mirlona occidental. Sylvia crassirostris.","ispublic":1,"isfriend":0,"isfamily":0},{"id":"21569420588","owner":"89587515@N05","secret":"264cd2e3e3","server":"741","farm":1,"title":"276A1889. Curruca mirlona occidental. Sylvia crassirostris.","ispublic":1,"isfriend":0,"isfamily":0},{"id":"21569292390","owner":"89587515@N05","secret":"5b43c67490","server":"5620","farm":6,"title":"276A1917. Curruca mirlona occidental. Sylvia crassirostris.","ispublic":1,"isfriend":0,"isfamily":0},{"id":"21136265053","owner":"89587515@N05","secret":"4afb82da21","server":"775","farm":1,"title":"276A1907. Curruca mirlona occidental. Sylvia crassirostris.","ispublic":1,"isfriend":0,"isfamily":0},{"id":"21731172976","owner":"89587515@N05","secret":"981b4f9c72","server":"5695","farm":6,"title":"276A1925. Curruca mirlona occidental. Sylvia crassirostris.","ispublic":1,"isfriend":0,"isfamily":0},{"id":"21745633882","owner":"89587515@N05","secret":"516239ba41","server":"5751","farm":6,"title":"276A1959. Curruca mirlona occidental. Sylvia crassirostris.","ispublic":1,"isfriend":0,"isfamily":0},{"id":"21569419708","owner":"89587515@N05","secret":"470a953811","server":"673","farm":1,"title":"276A1945. Curruca mirlona occidental. Sylvia crassirostris.","ispublic":1,"isfriend":0,"isfamily":0},{"id":"21745633942","owner":"89587515@N05","secret":"cd9513dfbe","server":"5820","farm":6,"title":"276A1949. Curruca mirlona occidental. Sylvia crassirostris.","ispublic":1,"isfriend":0,"isfamily":0},{"id":"21570413019","owner":"89587515@N05","secret":"f15b21e242","server":"717","farm":1,"title":"276A1973. Curruca mirlona occidental. Sylvia crassirostris.","ispublic":1,"isfriend":0,"isfamily":0},{"id":"21745633672","owner":"89587515@N05","secret":"2ecee1c493","server":"5787","farm":6,"title":"276A1976. Curruca mirlona occidental. Sylvia crassirostris.","ispublic":1,"isfriend":0,"isfamily":0},{"id":"21731172396","owner":"89587515@N05","secret":"df2c6c7ea4","server":"637","farm":1,"title":"276A1980. Curruca mirlona occidental. Sylvia crassirostris.","ispublic":1,"isfriend":0,"isfamily":0},{"id":"21731172166","owner":"89587515@N05","secret":"4c38be36d1","server":"5698","farm":6,"title":"276A1986. Curruca mirlona occidental. Sylvia crassirostris.","ispublic":1,"isfriend":0,"isfamily":0},{"id":"21569418698","owner":"89587515@N05","secret":"a086ff3f12","server":"5631","farm":6,"title":"276A2010. Curruca mirlona occidental. Sylvia crassirostris.","ispublic":1,"isfriend":0,"isfamily":0},{"id":"21570412159","owner":"89587515@N05","secret":"e0ae082e6c","server":"654","farm":1,"title":"276A2030. Curruca mirlona occidental. Sylvia crassirostris.","ispublic":1,"isfriend":0,"isfamily":0},{"id":"21136263673","owner":"89587515@N05","secret":"a3009c3e45","server":"5779","farm":6,"title":"276A2019. Curruca mirlona occidental. Sylvia crassirostris.","ispublic":1,"isfriend":0,"isfamily":0},{"id":"21745632972","owner":"89587515@N05","secret":"3fb63cd465","server":"5821","farm":6,"title":"276A2016. Curruca mirlona occidental. Sylvia crassirostris.","ispublic":1,"isfriend":0,"isfamily":0},{"id":"21766676011","owner":"89587515@N05","secret":"383233dc4c","server":"5697","farm":6,"title":"276A2022. Curruca mirlona occidental. Sylvia crassirostris.","ispublic":1,"isfriend":0,"isfamily":0},{"id":"21136263343","owner":"89587515@N05","secret":"c906b97b0f","server":"659","farm":1,"title":"276A2057. Curruca mirlona occidental. Sylvia crassirostris.","ispublic":1,"isfriend":0,"isfamily":0},{"id":"21569418168","owner":"89587515@N05","secret":"2f62f6f915","server":"755","farm":1,"title":"276A2054. Curruca mirlona occidental. Sylvia crassirostris.","ispublic":1,"isfriend":0,"isfamily":0},{"id":"21731171416","owner":"89587515@N05","secret":"63141dacc3","server":"5810","farm":6,"title":"276A2063. Curruca mirlona occidental. Sylvia crassirostris.","ispublic":1,"isfriend":0,"isfamily":0},{"id":"21136263453","owner":"89587515@N05","secret":"577845b613","server":"5729","farm":6,"title":"276A2031. Curruca mirlona occidental. Sylvia crassirostris.","ispublic":1,"isfriend":0,"isfamily":0},{"id":"21569290160","owner":"89587515@N05","secret":"a20c473acf","server":"665","farm":1,"title":"276A2093. Curruca mirlona occidental. Sylvia crassirostris.","ispublic":1,"isfriend":0,"isfamily":0},{"id":"21731171336","owner":"89587515@N05","secret":"4f5b696caf","server":"622","farm":1,"title":"276A2068. Curruca mirlona occidental. Sylvia crassirostris.","ispublic":1,"isfriend":0,"isfamily":0},{"id":"21136262893","owner":"89587515@N05","secret":"cb0de6010f","server":"5762","farm":6,"title":"276A2091. Curruca mirlona occidental. Sylvia crassirostris.","ispublic":1,"isfriend":0,"isfamily":0},{"id":"21569290040","owner":"89587515@N05","secret":"d9596fbbb7","server":"649","farm":1,"title":"276A2122. Curruca mirlona occidental. Sylvia crassirostris.","ispublic":1,"isfriend":0,"isfamily":0},{"id":"21569290000","owner":"89587515@N05","secret":"ef0ca25b14","server":"649","farm":1,"title":"276A2100. Curruca mirlona occidental. Sylvia crassirostris.","ispublic":1,"isfriend":0,"isfamily":0},{"id":"21745631502","owner":"89587515@N05","secret":"ded30b6851","server":"5826","farm":6,"title":"276A2126. Curruca mirlona occidental. Sylvia crassirostris.","ispublic":1,"isfriend":0,"isfamily":0},{"id":"21134568964","owner":"89587515@N05","secret":"7f97284b41","server":"5641","farm":6,"title":"276A2121. Curruca mirlona occidental. Sylvia crassirostris.","ispublic":1,"isfriend":0,"isfamily":0},{"id":"21570411209","owner":"89587515@N05","secret":"85e2a3c259","server":"5663","farm":6,"title":"276A2116. Curruca mirlona occidental. Sylvia crassirostris.","ispublic":1,"isfriend":0,"isfamily":0},{"id":"21731170416","owner":"89587515@N05","secret":"8908ffee64","server":"610","farm":1,"title":"276A2141. Curruca mirlona occidental. Sylvia crassirostris.","ispublic":1,"isfriend":0,"isfamily":0},{"id":"21136261983","owner":"89587515@N05","secret":"c409605980","server":"5766","farm":6,"title":"276A2135. Curruca mirlona occidental. Sylvia crassirostris.","ispublic":1,"isfriend":0,"isfamily":0},{"id":"21134568594","owner":"89587515@N05","secret":"b3db54873a","server":"715","farm":1,"title":"276A2133. Curruca mirlona occidental. Sylvia crassirostris.","ispublic":1,"isfriend":0,"isfamily":0},{"id":"21731170006","owner":"89587515@N05","secret":"ae9d6f64d5","server":"719","farm":1,"title":"276A2147. Curruca mirlona occidental. Sylvia crassirostris.","ispublic":1,"isfriend":0,"isfamily":0},{"id":"21570410209","owner":"89587515@N05","secret":"7335a16621","server":"698","farm":1,"title":"276A2148. Curruca mirlona occidental. Sylvia crassirostris.","ispublic":1,"isfriend":0,"isfamily":0},{"id":"21745630592","owner":"89587515@N05","secret":"9d9a9ae3da","server":"5671","farm":6,"title":"276A2169. Curruca mirlona occidental. Sylvia crassirostris.","ispublic":1,"isfriend":0,"isfamily":0},{"id":"21745630522","owner":"89587515@N05","secret":"4f508ac370","server":"5777","farm":6,"title":"276A2252. Curruca mirlona occidental. Sylvia crassirostris.","ispublic":1,"isfriend":0,"isfamily":0},{"id":"21766673121","owner":"89587515@N05","secret":"04e157359c","server":"719","farm":1,"title":"276A2272. Curruca mirlona occidental. Sylvia crassirostris.","ispublic":1,"isfriend":0,"isfamily":0},{"id":"21569288220","owner":"89587515@N05","secret":"f8780f9f41","server":"706","farm":1,"title":"276A2270. Curruca mirlona occidental. Sylvia crassirostris.","ispublic":1,"isfriend":0,"isfamily":0},{"id":"21136261053","owner":"89587515@N05","secret":"40dbba740b","server":"5651","farm":6,"title":"276A2264. Curruca mirlona occidental. Sylvia crassirostris.","ispublic":1,"isfriend":0,"isfamily":0},{"id":"21731169386","owner":"89587515@N05","secret":"2ef52eb2d4","server":"568","farm":1,"title":"276A2258. Curruca mirlona occidental. Sylvia crassirostris.","ispublic":1,"isfriend":0,"isfamily":0},{"id":"21569287780","owner":"89587515@N05","secret":"a903ff4f88","server":"689","farm":1,"title":"276A2281. Curruca mirlona occidental. Sylvia crassirostris.","ispublic":1,"isfriend":0,"isfamily":0},{"id":"21731168726","owner":"89587515@N05","secret":"b6ac2005f5","server":"5817","farm":6,"title":"276A2283. Curruca mirlona occidental. Sylvia crassirostris.","ispublic":1,"isfriend":0,"isfamily":0},{"id":"21569287970","owner":"89587515@N05","secret":"9851a0cff0","server":"682","farm":1,"title":"276A2275. Curruca mirlona occidental. Sylvia crassirostris.","ispublic":1,"isfriend":0,"isfamily":0},{"id":"21569287540","owner":"89587515@N05","secret":"61eaa20106","server":"716","farm":1,"title":"276A2294. Curruca mirlona occidental. Sylvia crassirostris.","ispublic":1,"isfriend":0,"isfamily":0},{"id":"21731168376","owner":"89587515@N05","secret":"85336fa6ce","server":"5678","farm":6,"title":"276A2303. Curruca mirlona occidental. Sylvia crassirostris.","ispublic":1,"isfriend":0,"isfamily":0},{"id":"21134566304","owner":"89587515@N05","secret":"d2deb7ae1b","server":"600","farm":1,"title":"276A2318. Curruca mirlona occidental. Sylvia crassirostris.","ispublic":1,"isfriend":0,"isfamily":0},{"id":"21136259893","owner":"89587515@N05","secret":"b9fcdaca23","server":"639","farm":1,"title":"276A2307. Curruca mirlona occidental. Sylvia crassirostris.","ispublic":1,"isfriend":0,"isfamily":0},{"id":"21766671831","owner":"89587515@N05","secret":"f781f7d3b2","server":"587","farm":1,"title":"276A2321. Curruca mirlona occidental. Sylvia crassirostris.","ispublic":1,"isfriend":0,"isfamily":0},{"id":"21731167966","owner":"89587515@N05","secret":"8bcf63459d","server":"782","farm":1,"title":"276A2314. Curruca mirlona occidental. Sylvia crassirostris.","ispublic":1,"isfriend":0,"isfamily":0},{"id":"21745628562","owner":"89587515@N05","secret":"25565197c9","server":"5630","farm":6,"title":"276A2330. Curruca mirlona occidental. Sylvia crassirostris.","ispublic":1,"isfriend":0,"isfamily":0},{"id":"21134565304","owner":"89587515@N05","secret":"b1f9009a31","server":"700","farm":1,"title":"276A2352. Curruca mirlona occidental. Sylvia crassirostris.","ispublic":1,"isfriend":0,"isfamily":0},{"id":"21570407429","owner":"89587515@N05","secret":"1e8ed8a9fe","server":"5730","farm":6,"title":"276A2343. Curruca mirlona occidental. Sylvia crassirostris.","ispublic":1,"isfriend":0,"isfamily":0},{"id":"21745628062","owner":"89587515@N05","secret":"35b0145660","server":"5783","farm":6,"title":"276A2356. Curruca mirlona occidental. Sylvia crassirostris.","ispublic":1,"isfriend":0,"isfamily":0},{"id":"21136258603","owner":"89587515@N05","secret":"121fb1f32a","server":"590","farm":1,"title":"276A2350. Curruca mirlona occidental. Sylvia crassirostris.","ispublic":1,"isfriend":0,"isfamily":0},{"id":"21570406869","owner":"89587515@N05","secret":"885b45c1ef","server":"5755","farm":6,"title":"276A2383. Curruca mirlona occidental. Sylvia crassirostris.","ispublic":1,"isfriend":0,"isfamily":0},{"id":"21569285810","owner":"89587515@N05","secret":"b255a18712","server":"732","farm":1,"title":"276A2361. Curruca mirlona occidental. Sylvia crassirostris.","ispublic":1,"isfriend":0,"isfamily":0},{"id":"21134564864","owner":"89587515@N05","secret":"ffac489e87","server":"5781","farm":6,"title":"276A2381. Curruca mirlona occidental. Sylvia crassirostris.","ispublic":1,"isfriend":0,"isfamily":0}]},"stat":"ok"}