{"photos":{"page":1,"pages":131,"perpage":100,"total":13017,"photo":[{"id":"52724112001","owner":"140318147@N08","secret":"618e85434d","server":"65535","farm":66,"title":"black phoebe (Sayornis nigricans) L4A6883","ispublic":1,"isfriend":0,"isfamily":0},{"id":"52724586338","owner":"140318147@N08","secret":"0944414e4b","server":"65535","farm":66,"title":"black phoebe (Sayornis nigricans) L4A6880","ispublic":1,"isfriend":0,"isfamily":0},{"id":"52724440635","owner":"143326780@N02","secret":"a685178cc8","server":"65535","farm":66,"title":"DSCN6065","ispublic":1,"isfriend":0,"isfamily":0},{"id":"52724290389","owner":"143326780@N02","secret":"f8b5424cbc","server":"65535","farm":66,"title":"DSCN6066","ispublic":1,"isfriend":0,"isfamily":0},{"id":"52722468084","owner":"143326780@N02","secret":"3cf7a51996","server":"65535","farm":66,"title":"DSCN5688","ispublic":1,"isfriend":0,"isfamily":0},{"id":"52714437727","owner":"47533293@N04","secret":"4e689e40c6","server":"65535","farm":66,"title":"Say's phoebe, Sayornis saya","ispublic":1,"isfriend":0,"isfamily":0},{"id":"52714382516","owner":"120449047@N06","secret":"e4af456a8a","server":"65535","farm":66,"title":"Say's Phoebe (lifer #326)","ispublic":1,"isfriend":0,"isfamily":0},{"id":"52710394742","owner":"34368269@N04","secret":"532537994e","server":"65535","farm":66,"title":"Black Phoebe","ispublic":1,"isfriend":0,"isfamily":0},{"id":"52708645841","owner":"143326780@N02","secret":"4e6f23425b","server":"65535","farm":66,"title":"DSCN5476","ispublic":1,"isfriend":0,"isfamily":0},{"id":"52708902929","owner":"143326780@N02","secret":"10bbc4cc05","server":"65535","farm":66,"title":"DSCN5480","ispublic":1,"isfriend":0,"isfamily":0},{"id":"52708902724","owner":"143326780@N02","secret":"3eaa09e44d","server":"65535","farm":66,"title":"DSCN5483","ispublic":1,"isfriend":0,"isfamily":0},{"id":"52709131733","owner":"143326780@N02","secret":"5f288956e8","server":"65535","farm":66,"title":"DSCN5502","ispublic":1,"isfriend":0,"isfamily":0},{"id":"52707614677","owner":"34238008@N02","secret":"39de22e755","server":"65535","farm":66,"title":"Black Phoebe (Sayornis nigricans)","ispublic":1,"isfriend":0,"isfamily":0},{"id":"52708025303","owner":"62043870@N05","secret":"75c47c16d8","server":"65535","farm":66,"title":"Black Phoebe, Sayornis nigricans","ispublic":1,"isfriend":0,"isfamily":0},{"id":"52708025053","owner":"62043870@N05","secret":"a23385ac83","server":"65535","farm":66,"title":"Say's Phoebe, Sayornis saya","ispublic":1,"isfriend":0,"isfamily":0},{"id":"52706673468","owner":"38514062@N03","secret":"d51fa11d79","server":"65535","farm":66,"title":"Eastern Phoebe (Sayornis phoebe)","ispublic":1,"isfriend":0,"isfamily":0},{"id":"52705871414","owner":"33610210@N05","secret":"977787d7b6","server":"65535","farm":66,"title":"Eastern Phoebe, Sayornis phoebe","ispublic":1,"isfriend":0,"isfamily":0},{"id":"52701445765","owner":"17612257@N00","secret":"959399c4dc","server":"65535","farm":66,"title":"Black Phoebe","ispublic":1,"isfriend":0,"isfamily":0},{"id":"52699479203","owner":"143326780@N02","secret":"8ff1d4f58b","server":"65535","farm":66,"title":"DSCN4974","ispublic":1,"isfriend":0,"isfamily":0},{"id":"52697878908","owner":"65148649@N04","secret":"55438d53a1","server":"65535","farm":66,"title":"Say's Phoebe 3 02.11.23 Frye","ispublic":1,"isfriend":0,"isfamily":0},{"id":"52697808390","owner":"65148649@N04","secret":"651916f3a8","server":"65535","farm":66,"title":"Say's Phoebe 2 02.11.23 Rutherford K","ispublic":1,"isfriend":0,"isfamily":0},{"id":"52697808375","owner":"65148649@N04","secret":"74706a70f4","server":"65535","farm":66,"title":"Say's Phoebe 2 02.11.23 Frye","ispublic":1,"isfriend":0,"isfamily":0},{"id":"52696870852","owner":"65148649@N04","secret":"f976b820c4","server":"65535","farm":66,"title":"Say's Phoebe 02.11.23 Frye","ispublic":1,"isfriend":0,"isfamily":0},{"id":"52696870857","owner":"65148649@N04","secret":"b1dcf6d12a","server":"65535","farm":66,"title":"Say's Phoebe 02.11.23 Rutherford K","ispublic":1,"isfriend":0,"isfamily":0},{"id":"52694895856","owner":"143326780@N02","secret":"e02da36eb6","server":"65535","farm":66,"title":"DSCN4733","ispublic":1,"isfriend":0,"isfamily":0},{"id":"52694030997","owner":"13451078@N03","secret":"650a929070","server":"65535","farm":66,"title":"Say's Phoebe ( Sayornis saya)","ispublic":1,"isfriend":0,"isfamily":0},{"id":"52693750747","owner":"34238008@N02","secret":"d0c45b2545","server":"65535","farm":66,"title":"Black Phoebe (Sayornis nigricans)","ispublic":1,"isfriend":0,"isfamily":0},{"id":"52694531014","owner":"34238008@N02","secret":"5887778b2b","server":"65535","farm":66,"title":"Black Phoebe (Sayornis nigricans)","ispublic":1,"isfriend":0,"isfamily":0},{"id":"52694677635","owner":"34238008@N02","secret":"a4547e4a4a","server":"65535","farm":66,"title":"Black Phoebe (Sayornis nigricans)","ispublic":1,"isfriend":0,"isfamily":0},{"id":"52694677520","owner":"34238008@N02","secret":"30744d01a7","server":"65535","farm":66,"title":"Black Phoebe (Sayornis nigricans)","ispublic":1,"isfriend":0,"isfamily":0},{"id":"52691192067","owner":"140318147@N08","secret":"d73654a435","server":"65535","farm":66,"title":"Say's phoebe (Sayornis saya) L4A6690","ispublic":1,"isfriend":0,"isfamily":0},{"id":"52691873505","owner":"58851625@N08","secret":"20e8ba645a","server":"65535","farm":66,"title":"JAN182023FBWMA 087","ispublic":1,"isfriend":0,"isfamily":0},{"id":"52690754586","owner":"132165466@N08","secret":"7654f86fa9","server":"65535","farm":66,"title":"Black Phoebe In Costa Rica","ispublic":1,"isfriend":0,"isfamily":0},{"id":"52690234422","owner":"132165466@N08","secret":"9f508e171c","server":"65535","farm":66,"title":"Black Phoebe In Costa Rica","ispublic":1,"isfriend":0,"isfamily":0},{"id":"52690234407","owner":"132165466@N08","secret":"9da4904644","server":"65535","farm":66,"title":"Black Phoebe In Costa Rica","ispublic":1,"isfriend":0,"isfamily":0},{"id":"52690189360","owner":"132165466@N08","secret":"66e5c378a7","server":"65535","farm":66,"title":"Black Phoebe In Costa Rica","ispublic":1,"isfriend":0,"isfamily":0},{"id":"52689252072","owner":"132165466@N08","secret":"859904e7ef","server":"65535","farm":66,"title":"Black Phoebe In Costa Rica","ispublic":1,"isfriend":0,"isfamily":0},{"id":"52688870834","owner":"163667952@N05","secret":"fce1aa1c9e","server":"65535","farm":66,"title":"Black Phoebe","ispublic":1,"isfriend":0,"isfamily":0},{"id":"52684873877","owner":"90355165@N03","secret":"04ed38ab24","server":"65535","farm":66,"title":"eastern phoebe","ispublic":1,"isfriend":0,"isfamily":0},{"id":"52685814700","owner":"90355165@N03","secret":"fed370577e","server":"65535","farm":66,"title":"eastern phoebe","ispublic":1,"isfriend":0,"isfamily":0},{"id":"52682666227","owner":"184574435@N02","secret":"cae875fe98","server":"65535","farm":66,"title":"Say's Phoebe","ispublic":1,"isfriend":0,"isfamily":0},{"id":"52682933218","owner":"17612257@N00","secret":"3eed678bf0","server":"65535","farm":66,"title":"Say's Phoebe","ispublic":1,"isfriend":0,"isfamily":0},{"id":"52679234079","owner":"47533293@N04","secret":"ae73e76caa","server":"65535","farm":66,"title":"Black phoebe, Sayornis nigricans","ispublic":1,"isfriend":0,"isfamily":0},{"id":"52679444098","owner":"47533293@N04","secret":"2976f79497","server":"65535","farm":66,"title":"Say's phoebe, Sayornis saya","ispublic":1,"isfriend":0,"isfamily":0},{"id":"52679419798","owner":"47533293@N04","secret":"5eb8304948","server":"65535","farm":66,"title":"Eastern phoebe, Sayornis phoebe","ispublic":1,"isfriend":0,"isfamily":0},{"id":"52677746236","owner":"33610210@N05","secret":"b274f4681c","server":"65535","farm":66,"title":"Black Phoebe, Sayornis nigricans","ispublic":1,"isfriend":0,"isfamily":0},{"id":"52678241828","owner":"33610210@N05","secret":"ab1a6ccea1","server":"65535","farm":66,"title":"Black Phoebe, Sayornis nigricans with prey, Zerene cesonia, Southern Dogface","ispublic":1,"isfriend":0,"isfamily":0},{"id":"52678180980","owner":"33610210@N05","secret":"68abcc686d","server":"65535","farm":66,"title":"Black Phoebe, Sayornis nigricans with prey, Zerene cesonia, Southern Dogface","ispublic":1,"isfriend":0,"isfamily":0},{"id":"52677744886","owner":"33610210@N05","secret":"f7aba028bc","server":"65535","farm":66,"title":"Say's Phoebe, Sayornis saya","ispublic":1,"isfriend":0,"isfamily":0},{"id":"52677849373","owner":"143326780@N02","secret":"6b0aec8e05","server":"65535","farm":66,"title":"DSCN3340","ispublic":1,"isfriend":0,"isfamily":0},{"id":"52677786985","owner":"143326780@N02","secret":"30409c696b","server":"65535","farm":66,"title":"DSCN3344","ispublic":1,"isfriend":0,"isfamily":0},{"id":"52677820778","owner":"143326780@N02","secret":"a8ac8f67d8","server":"65535","farm":66,"title":"DSCN3345","ispublic":1,"isfriend":0,"isfamily":0},{"id":"52676069057","owner":"34368269@N04","secret":"8dd820dda6","server":"65535","farm":66,"title":"Black Phoebe","ispublic":1,"isfriend":0,"isfamily":0},{"id":"52672996035","owner":"34238008@N02","secret":"e22c6074b0","server":"65535","farm":66,"title":"Eastern Phoebe (Sayornis phoebe)","ispublic":1,"isfriend":0,"isfamily":0},{"id":"52673059173","owner":"34238008@N02","secret":"2eac68fc07","server":"65535","farm":66,"title":"Eastern Phoebe (Sayornis phoebe)","ispublic":1,"isfriend":0,"isfamily":0},{"id":"52672995825","owner":"34238008@N02","secret":"2efd8bd620","server":"65535","farm":66,"title":"Eastern Phoebe (Sayornis phoebe)","ispublic":1,"isfriend":0,"isfamily":0},{"id":"52672851679","owner":"34238008@N02","secret":"143e9a2a5b","server":"65535","farm":66,"title":"Eastern Phoebe (Sayornis phoebe)","ispublic":1,"isfriend":0,"isfamily":0},{"id":"52672557556","owner":"34238008@N02","secret":"e92d9c0521","server":"65535","farm":66,"title":"Eastern Phoebe (Sayornis phoebe)","ispublic":1,"isfriend":0,"isfamily":0},{"id":"52672057612","owner":"34238008@N02","secret":"19216959ba","server":"65535","farm":66,"title":"Eastern Phoebe (Sayornis phoebe)","ispublic":1,"isfriend":0,"isfamily":0},{"id":"52672557331","owner":"34238008@N02","secret":"af5c36c228","server":"65535","farm":66,"title":"Eastern Phoebe (Sayornis phoebe)","ispublic":1,"isfriend":0,"isfamily":0},{"id":"52672851159","owner":"34238008@N02","secret":"ef562c34e1","server":"65535","farm":66,"title":"Eastern Phoebe (Sayornis phoebe)","ispublic":1,"isfriend":0,"isfamily":0},{"id":"52672850834","owner":"34238008@N02","secret":"7e74506623","server":"65535","farm":66,"title":"Eastern Phoebe (Sayornis phoebe)","ispublic":1,"isfriend":0,"isfamily":0},{"id":"52669809990","owner":"57060047@N04","secret":"bf4fdc1d05","server":"65535","farm":66,"title":"Z50_8193","ispublic":1,"isfriend":0,"isfamily":0},{"id":"52667614411","owner":"33610210@N05","secret":"8d1cc30821","server":"65535","farm":66,"title":"Say's Phoebe, Sayornis saya","ispublic":1,"isfriend":0,"isfamily":0},{"id":"52667614361","owner":"33610210@N05","secret":"8daa31e106","server":"65535","farm":66,"title":"Eastern Phoebe, Sayornis phoebe","ispublic":1,"isfriend":0,"isfamily":0},{"id":"52667613476","owner":"33610210@N05","secret":"58b7226c56","server":"65535","farm":66,"title":"Say's Phoebe, Sayornis saya","ispublic":1,"isfriend":0,"isfamily":0},{"id":"52668016880","owner":"33610210@N05","secret":"bdbe9a565b","server":"65535","farm":66,"title":"Black Phoebe, Sayornis nigricans","ispublic":1,"isfriend":0,"isfamily":0},{"id":"52668083738","owner":"33610210@N05","secret":"9cc0843770","server":"65535","farm":66,"title":"Black Phoebe, Sayornis nigricans","ispublic":1,"isfriend":0,"isfamily":0},{"id":"52665607942","owner":"62043870@N05","secret":"f4279f8407","server":"65535","farm":66,"title":"Say's Phoebe, Sayornis saya","ispublic":1,"isfriend":0,"isfamily":0},{"id":"52665953255","owner":"143326780@N02","secret":"8d0968a80a","server":"65535","farm":66,"title":"DSCN3066","ispublic":1,"isfriend":0,"isfamily":0},{"id":"52661926591","owner":"33610210@N05","secret":"6dd4d710f0","server":"65535","farm":66,"title":"Say's Phoebe, Sayornis saya","ispublic":1,"isfriend":0,"isfamily":0},{"id":"52661926436","owner":"33610210@N05","secret":"2e02db5dcc","server":"65535","farm":66,"title":"Say's Phoebe, Sayornis saya","ispublic":1,"isfriend":0,"isfamily":0},{"id":"52662418343","owner":"33610210@N05","secret":"03b832b84c","server":"65535","farm":66,"title":"Say's Phoebe, Sayornis saya","ispublic":1,"isfriend":0,"isfamily":0},{"id":"52662384588","owner":"136180232@N08","secret":"aedf131bef","server":"65535","farm":66,"title":"Eastern Phoebe (Sayornis phoebe) JTE_1703","ispublic":1,"isfriend":0,"isfamily":0},{"id":"52662059909","owner":"86191812@N07","secret":"0be77bf2ca","server":"65535","farm":66,"title":"Eastern Phoebe (Sayornis phoebe)","ispublic":1,"isfriend":0,"isfamily":0},{"id":"52660880042","owner":"39177293@N03","secret":"9210bea7f7","server":"65535","farm":66,"title":"Black Phoebe","ispublic":1,"isfriend":0,"isfamily":0},{"id":"52660434262","owner":"74787113@N05","secret":"2e9a57531b","server":"65535","farm":66,"title":"EASTERN PHOEBE","ispublic":1,"isfriend":0,"isfamily":0},{"id":"52657924482","owner":"34238008@N02","secret":"7a58530fb2","server":"65535","farm":66,"title":"Say's Phoebe (Sayornis saya)","ispublic":1,"isfriend":0,"isfamily":0},{"id":"52658861165","owner":"34238008@N02","secret":"fd3e9b0157","server":"65535","farm":66,"title":"Black Phoebe (Sayornis nigricans)","ispublic":1,"isfriend":0,"isfamily":0},{"id":"52658698284","owner":"34238008@N02","secret":"368d3e8973","server":"65535","farm":66,"title":"Black Phoebe (Sayornis nigricans)","ispublic":1,"isfriend":0,"isfamily":0},{"id":"52658907803","owner":"34238008@N02","secret":"7f85d31aba","server":"65535","farm":66,"title":"Black Phoebe (Sayornis nigricans)","ispublic":1,"isfriend":0,"isfamily":0},{"id":"52655151484","owner":"8013969@N03","secret":"ec0d0f28e9","server":"65535","farm":66,"title":"Sayornis nigricansDFL abm22","ispublic":1,"isfriend":0,"isfamily":0},{"id":"52649823602","owner":"62043870@N05","secret":"22488eb6c0","server":"65535","farm":66,"title":"Say's Phoebe, Sayornis saya","ispublic":1,"isfriend":0,"isfamily":0},{"id":"52647408678","owner":"71185522@N00","secret":"3e460bf2bb","server":"65535","farm":66,"title":"Black Phoebe","ispublic":1,"isfriend":0,"isfamily":0},{"id":"52644705727","owner":"97599611@N04","secret":"d8b7b2e4af","server":"65535","farm":66,"title":"0P7A0934   Eastern Phoebe, Canada","ispublic":1,"isfriend":0,"isfamily":0},{"id":"52644759068","owner":"163667952@N05","secret":"2f057f78c5","server":"65535","farm":66,"title":"Black Phoebe","ispublic":1,"isfriend":0,"isfamily":0},{"id":"52640808767","owner":"187792860@N04","secret":"b9538720cd","server":"65535","farm":66,"title":"Say's Phoebe (Sayornis saya)","ispublic":1,"isfriend":0,"isfamily":0},{"id":"52640640114","owner":"124995824@N08","secret":"7e4494f40d","server":"65535","farm":66,"title":"Eastern Phoebe - Sayornis phoebe","ispublic":1,"isfriend":0,"isfamily":0},{"id":"52639816327","owner":"22327116@N03","secret":"516a1af167","server":"65535","farm":66,"title":"Black phoebe (Sayornis nigricans)","ispublic":1,"isfriend":0,"isfamily":0},{"id":"52638519374","owner":"38514062@N03","secret":"f5db860e91","server":"65535","farm":66,"title":"Eastern Phoebe (Sayornis phoebe)","ispublic":1,"isfriend":0,"isfamily":0},{"id":"52635465332","owner":"8378957@N02","secret":"44b63772db","server":"65535","farm":66,"title":"Eastern Phoebe","ispublic":1,"isfriend":0,"isfamily":0},{"id":"52635976856","owner":"8378957@N02","secret":"048107ba86","server":"65535","farm":66,"title":"Eastern Phoebe","ispublic":1,"isfriend":0,"isfamily":0},{"id":"52636232999","owner":"8378957@N02","secret":"d9dff71202","server":"65535","farm":66,"title":"Eastern Phoebe","ispublic":1,"isfriend":0,"isfamily":0},{"id":"52635421095","owner":"61135968@N00","secret":"6518f64a6c","server":"65535","farm":66,"title":"Phoebe","ispublic":1,"isfriend":0,"isfamily":0},{"id":"52691192352","owner":"140318147@N08","secret":"b400035853","server":"65535","farm":66,"title":"Say's phoebe (Sayornis saya) L4A6691","ispublic":1,"isfriend":0,"isfamily":0},{"id":"52689252067","owner":"132165466@N08","secret":"e33a4c362d","server":"65535","farm":66,"title":"Black Phoebe In Costa Rica","ispublic":1,"isfriend":0,"isfamily":0},{"id":"52678970484","owner":"11295713@N00","secret":"9497272f3c","server":"65535","farm":66,"title":"Black Phoebe (Sayornis nigricans) with Wings Spread","ispublic":1,"isfriend":0,"isfamily":0},{"id":"52677745261","owner":"33610210@N05","secret":"c7c03e882f","server":"65535","farm":66,"title":"Black Phoebe, Sayornis nigricans with prey, Zerene cesonia, Southern Dogface","ispublic":1,"isfriend":0,"isfamily":0},{"id":"52672995720","owner":"34238008@N02","secret":"7447ae60fc","server":"65535","farm":66,"title":"Eastern Phoebe (Sayornis phoebe)","ispublic":1,"isfriend":0,"isfamily":0},{"id":"52672057162","owner":"34238008@N02","secret":"9a9f32b934","server":"65535","farm":66,"title":"Eastern Phoebe (Sayornis phoebe)","ispublic":1,"isfriend":0,"isfamily":0}]},"stat":"ok"}