{"photos":{"page":1,"pages":258,"perpage":100,"total":25717,"photo":[{"id":"52724100504","owner":"12639178@N07","secret":"e169428896","server":"65535","farm":66,"title":"Antillenk\u00f6nigstyrann","ispublic":1,"isfriend":0,"isfamily":0},{"id":"52724095618","owner":"12639178@N07","secret":"1545a27a19","server":"65535","farm":66,"title":"Immer aufmerksam","ispublic":1,"isfriend":0,"isfamily":0},{"id":"52724025785","owner":"12639178@N07","secret":"01295ea75b","server":"65535","farm":66,"title":"Auf Ansitz","ispublic":1,"isfriend":0,"isfamily":0},{"id":"52723155956","owner":"14586608@N08","secret":"7a7650b664","server":"65535","farm":66,"title":"EF7A2825_Flycatcher","ispublic":1,"isfriend":0,"isfamily":0},{"id":"52723559620","owner":"14586608@N08","secret":"849b1591da","server":"65535","farm":66,"title":"EF7A2826_Flycatcher","ispublic":1,"isfriend":0,"isfamily":0},{"id":"52723237755","owner":"12639178@N07","secret":"88423edf13","server":"65535","farm":66,"title":"Antillenk\u00f6nigstyrann","ispublic":1,"isfriend":0,"isfamily":0},{"id":"52720807347","owner":"52450054@N04","secret":"fdae31012d","server":"65535","farm":66,"title":"Scissor-tailed Flycatcher - Tyrannus forficatus, Southern Glades Wildlife Management Area, Homestead, Florida, December 3, 2021","ispublic":1,"isfriend":0,"isfamily":0},{"id":"52719874775","owner":"12639178@N07","secret":"63f8421efd","server":"65535","farm":66,"title":"Grauk\u00f6nigstyrann in typischer Pose","ispublic":1,"isfriend":0,"isfamily":0},{"id":"52716957814","owner":"84442428@N07","secret":"1a5b8094fb","server":"65535","farm":66,"title":"D\u00e9part en chasse","ispublic":1,"isfriend":0,"isfamily":0},{"id":"52716132342","owner":"103722035@N06","secret":"ddc73d0470","server":"0","farm":0,"title":"Tropical Kingbird (Tyrannus melancholicus), San Luis Obispo, CA","ispublic":1,"isfriend":0,"isfamily":0},{"id":"52715521769","owner":"54546220@N00","secret":"92c835c2d7","server":"65535","farm":66,"title":"Manuelito, Stolid Flycatcher  (Myiarchus stolidus dominicensis)","ispublic":1,"isfriend":0,"isfamily":0},{"id":"52714648507","owner":"12639178@N07","secret":"98a89236b8","server":"65535","farm":66,"title":"Grauk\u00f6nigstyrann wartet auf Gro\u00dfinsekt","ispublic":1,"isfriend":0,"isfamily":0},{"id":"52715268855","owner":"42543804@N03","secret":"8fbdf64241","server":"65535","farm":66,"title":"Suiriri ( Tyrannus melancholicus )","ispublic":1,"isfriend":0,"isfamily":0},{"id":"52709218059","owner":"195537536@N03","secret":"69ef107547","server":"65535","farm":66,"title":"Tropical Kingbird (Tyrannus melancholicus)","ispublic":1,"isfriend":0,"isfamily":0},{"id":"52705624754","owner":"31704662@N08","secret":"eb6f864963","server":"65535","farm":66,"title":"Tropical Kingbird (Tyrannus melancholicus)","ispublic":1,"isfriend":0,"isfamily":0},{"id":"52705855848","owner":"31704662@N08","secret":"08f2bf8891","server":"65535","farm":66,"title":"Tropical Kingbird (Tyrannus melancholicus)","ispublic":1,"isfriend":0,"isfamily":0},{"id":"52703640181","owner":"9240063@N02","secret":"ab2e853f1c","server":"65535","farm":66,"title":"Spizaetus tyrannus","ispublic":1,"isfriend":0,"isfamily":0},{"id":"52703635911","owner":"9240063@N02","secret":"ea4d1a1e5a","server":"65535","farm":66,"title":"Tyrannus savana","ispublic":1,"isfriend":0,"isfamily":0},{"id":"52703755514","owner":"12639178@N07","secret":"41646d8afb","server":"65535","farm":66,"title":"Grauk\u00f6nigstyrann (Tyrannus dominicensis) (1)","ispublic":1,"isfriend":0,"isfamily":0},{"id":"52702233470","owner":"123979267@N05","secret":"a9a1313e59","server":"65535","farm":66,"title":"Eastern Kingbird","ispublic":1,"isfriend":0,"isfamily":0},{"id":"52701608599","owner":"132165466@N08","secret":"1b32886608","server":"65535","farm":66,"title":"Tropical Kingbird","ispublic":1,"isfriend":0,"isfamily":0},{"id":"52700468218","owner":"124450184@N05","secret":"d02b6c7e64","server":"65535","farm":66,"title":"Grey Kingbird","ispublic":1,"isfriend":0,"isfamily":0},{"id":"52699697954","owner":"54546220@N00","secret":"35f35899e7","server":"65535","farm":66,"title":"Petigre, Gray Kingbird (Tyrannus dominicensis )","ispublic":1,"isfriend":0,"isfamily":0},{"id":"52699850310","owner":"54546220@N00","secret":"5ddfeeecae","server":"65535","farm":66,"title":"Petigre, Gray Kingbird (Tyrannus dominicensis )","ispublic":1,"isfriend":0,"isfamily":0},{"id":"52699850200","owner":"54546220@N00","secret":"d7a4a2272b","server":"65535","farm":66,"title":"Petigre, Gray Kingbird (Tyrannus dominicensis )","ispublic":1,"isfriend":0,"isfamily":0},{"id":"52699668628","owner":"119095828@N03","secret":"a5b11926b5","server":"65535","farm":66,"title":"Tropical Kingbird (Tyrannus melancholicus)","ispublic":1,"isfriend":0,"isfamily":0},{"id":"52698356391","owner":"81058247@N08","secret":"048f202751","server":"65535","farm":66,"title":"Western Kingbird (Tyrannus verticalis)","ispublic":1,"isfriend":0,"isfamily":0},{"id":"52698845088","owner":"81058247@N08","secret":"8f17056fbf","server":"65535","farm":66,"title":"Western Kingbird (Tyrannus verticalis)","ispublic":1,"isfriend":0,"isfamily":0},{"id":"52698771370","owner":"81058247@N08","secret":"561a72df55","server":"65535","farm":66,"title":"Western Kingbird (Tyrannus verticalis)","ispublic":1,"isfriend":0,"isfamily":0},{"id":"52697568061","owner":"107784905@N04","secret":"0246087b37","server":"65535","farm":66,"title":"Tyran m\u00e9lancolique - Hortensias Lodge\/Heredia\/Costa Rica_20211113_009-1","ispublic":1,"isfriend":0,"isfamily":0},{"id":"52696506201","owner":"12639178@N07","secret":"4124f26232","server":"65535","farm":66,"title":"Trauerk\u00f6nigstyrann","ispublic":1,"isfriend":0,"isfamily":0},{"id":"52695058973","owner":"12639178@N07","secret":"3967f7cc9e","server":"65535","farm":66,"title":"Trauerk\u00f6nigstyrann","ispublic":1,"isfriend":0,"isfamily":0},{"id":"52693790807","owner":"12639178@N07","secret":"1dffe2f39a","server":"65535","farm":66,"title":"Grauk\u00f6nigstyrann auf Araucaria","ispublic":1,"isfriend":0,"isfamily":0},{"id":"52693742924","owner":"87128840@N02","secret":"8bdeff3da5","server":"65535","farm":66,"title":"Tropical kingbird","ispublic":1,"isfriend":0,"isfamily":0},{"id":"52692924872","owner":"55527686@N03","secret":"8027011cda","server":"65535","farm":66,"title":"Loggerhead Kingbird (Tyrannus caudifasciatus)","ispublic":1,"isfriend":0,"isfamily":0},{"id":"52690869740","owner":"24608578@N00","secret":"784cb64808","server":"65535","farm":66,"title":"Eastern kingbird (Tyrannus tyrannus)","ispublic":1,"isfriend":0,"isfamily":0},{"id":"52690834618","owner":"69947563@N07","secret":"6b2f9a54b7","server":"65535","farm":66,"title":"Tropical Kingbird - Victoria, Caldas, Colombia","ispublic":1,"isfriend":0,"isfamily":0},{"id":"52689759879","owner":"123979267@N05","secret":"808567166b","server":"65535","farm":66,"title":"Scissor-tailed Flycatcher on a rainy spring morning.","ispublic":1,"isfriend":0,"isfamily":0},{"id":"52689324706","owner":"48938938@N04","secret":"070e294121","server":"65535","farm":66,"title":"Tropical Kingbird_Tyrannus melancholicus_Ascanio_Inirida_DZ3A4288","ispublic":1,"isfriend":0,"isfamily":0},{"id":"52689593609","owner":"48938938@N04","secret":"5388be1fd9","server":"65535","farm":66,"title":"Tropical Kingbird_Tyrannus melancholicus_Ascanio_Inirida_DZ3A4290","ispublic":1,"isfriend":0,"isfamily":0},{"id":"52689593554","owner":"48938938@N04","secret":"edc2795652","server":"65535","farm":66,"title":"Tropical Kingbird_Tyrannus melancholicus_Ascanio_Inirida_DZ3A4293","ispublic":1,"isfriend":0,"isfamily":0},{"id":"52688811053","owner":"52450054@N04","secret":"f5b61a7157","server":"65535","farm":66,"title":"Tropical Kingbird - Tyrannus melancholicus, Southern Glades Wildlife Management Area, Homestead, Florida, December 3, 2021","ispublic":1,"isfriend":0,"isfamily":0},{"id":"52686777382","owner":"12639178@N07","secret":"4acea3de52","server":"65535","farm":66,"title":"Trauerk\u00f6nigstyrann am fr\u00fchen Morgen","ispublic":1,"isfriend":0,"isfamily":0},{"id":"52686950191","owner":"51433704@N06","secret":"565f089352","server":"65535","farm":66,"title":"Eastern Kingbird","ispublic":1,"isfriend":0,"isfamily":0},{"id":"52685762377","owner":"48232993@N00","secret":"e02a61f0f1","server":"65535","farm":66,"title":"shoaling menhaden","ispublic":1,"isfriend":0,"isfamily":0},{"id":"52685762337","owner":"48232993@N00","secret":"4cee16dd41","server":"65535","farm":66,"title":"shoaling menhaden","ispublic":1,"isfriend":0,"isfamily":0},{"id":"52685192163","owner":"132165466@N08","secret":"a2726c56fa","server":"65535","farm":66,"title":"Tropical Kingbird","ispublic":1,"isfriend":0,"isfamily":0},{"id":"52681808757","owner":"26555180@N00","secret":"089bbefffd","server":"65535","farm":66,"title":"Tirano Chibi\u00fa","ispublic":1,"isfriend":0,"isfamily":0},{"id":"52682442610","owner":"152267822@N06","secret":"72fd0a964f","server":"65535","farm":66,"title":"Moth (Eudocima tyrannus)(Erebidae)","ispublic":1,"isfriend":0,"isfamily":0},{"id":"52680891941","owner":"48014585@N00","secret":"47ec2d3b5f","server":"65535","farm":66,"title":"Tropical Kingbird","ispublic":1,"isfriend":0,"isfamily":0},{"id":"52680891801","owner":"48014585@N00","secret":"e037e2ecf3","server":"65535","farm":66,"title":"Tropical Kingbird","ispublic":1,"isfriend":0,"isfamily":0},{"id":"52680375997","owner":"48014585@N00","secret":"885635cdb6","server":"65535","farm":66,"title":"Tropical Kingbird","ispublic":1,"isfriend":0,"isfamily":0},{"id":"52680680476","owner":"60361833@N03","secret":"540055e5fb","server":"65535","farm":66,"title":"Cassin's Kingbird_1","ispublic":1,"isfriend":0,"isfamily":0},{"id":"52676413024","owner":"7640100@N02","secret":"842cc33fc0","server":"65535","farm":66,"title":"Tyran tritri \/ Eastern Kingbird [Tyrannus tyrannus]","ispublic":1,"isfriend":0,"isfamily":0},{"id":"52674654285","owner":"7640100@N02","secret":"c08b4006f7","server":"65535","farm":66,"title":"Tyran tritri \/ Eastern Kingbird [Tyrannus tyrannus]","ispublic":1,"isfriend":0,"isfamily":0},{"id":"52668083658","owner":"33610210@N05","secret":"b31cb9a86e","server":"65535","farm":66,"title":"Couch's Kingbird, Tyrannus couchii","ispublic":1,"isfriend":0,"isfamily":0},{"id":"52668016820","owner":"33610210@N05","secret":"db3c37c4b8","server":"65535","farm":66,"title":"Couch's Kingbird, Tyrannus couchii","ispublic":1,"isfriend":0,"isfamily":0},{"id":"52667137171","owner":"39177293@N03","secret":"68c55aa713","server":"65535","farm":66,"title":"Tropical Kingbird","ispublic":1,"isfriend":0,"isfamily":0},{"id":"52667428849","owner":"39177293@N03","secret":"5c8d6aeed8","server":"65535","farm":66,"title":"Tropical Kingbird","ispublic":1,"isfriend":0,"isfamily":0},{"id":"52667341310","owner":"50264295@N06","secret":"b2030401a8","server":"65535","farm":66,"title":"Western Kingbird (Tyrannus verticalis), ASY, DCA male","ispublic":1,"isfriend":0,"isfamily":0},{"id":"52667338885","owner":"50264295@N06","secret":"81abe87ebf","server":"65535","farm":66,"title":"Western Kingbird (Tyrannus verticalis), ASY, DCA male","ispublic":1,"isfriend":0,"isfamily":0},{"id":"52666898461","owner":"50264295@N06","secret":"7e2af4e26f","server":"65535","farm":66,"title":"Western Kingbird (Tyrannus verticalis), ASY, DCA male","ispublic":1,"isfriend":0,"isfamily":0},{"id":"52667328940","owner":"50264295@N06","secret":"b5aeacdeb2","server":"65535","farm":66,"title":"Western Kingbird (Tyrannus verticalis), ASY, DCA male","ispublic":1,"isfriend":0,"isfamily":0},{"id":"52665279448","owner":"160848625@N08","secret":"322fcd10cd","server":"65535","farm":66,"title":"20210702-DSC_1814 - Eastern Kingbird","ispublic":1,"isfriend":0,"isfamily":0},{"id":"52662911591","owner":"197546226@N05","secret":"dda8d31ff9","server":"65535","farm":66,"title":"Tyrannus melancholicus","ispublic":1,"isfriend":0,"isfamily":0},{"id":"52663256253","owner":"136695268@N03","secret":"076215a743","server":"65535","farm":66,"title":"Tijereta (Tyrannus savana)","ispublic":1,"isfriend":0,"isfamily":0},{"id":"52662258792","owner":"136695268@N03","secret":"e730dde4be","server":"65535","farm":66,"title":"Tijereta (Tyrannus savana)","ispublic":1,"isfriend":0,"isfamily":0},{"id":"52662311563","owner":"33610210@N05","secret":"1ecde7250c","server":"65535","farm":66,"title":"Couch's Kingbird, Tyrannus couchii","ispublic":1,"isfriend":0,"isfamily":0},{"id":"52661820451","owner":"33610210@N05","secret":"12d605d7f6","server":"65535","farm":66,"title":"Couch's Kingbird, Tyrannus couchii","ispublic":1,"isfriend":0,"isfamily":0},{"id":"52661379146","owner":"39177293@N03","secret":"eff69ca0e5","server":"65535","farm":66,"title":"Couch's Kingbird","ispublic":1,"isfriend":0,"isfamily":0},{"id":"52661378976","owner":"39177293@N03","secret":"7811db71e1","server":"65535","farm":66,"title":"Couch's Kingbird","ispublic":1,"isfriend":0,"isfamily":0},{"id":"52658029822","owner":"12639178@N07","secret":"47f66f3ea3","server":"65535","farm":66,"title":"Er wartet geduldig auf ein Gro\u00dfinsekt oder ein Anolis","ispublic":1,"isfriend":0,"isfamily":0},{"id":"52658029627","owner":"12639178@N07","secret":"7fcbf327ec","server":"65535","farm":66,"title":"Grauk\u00f6nigstyrann auf Ansitz","ispublic":1,"isfriend":0,"isfamily":0},{"id":"52656795639","owner":"12639178@N07","secret":"287922fc02","server":"65535","farm":66,"title":"Grauk\u00f6nigstyrann auf Mandelbaum nahe Strand","ispublic":1,"isfriend":0,"isfamily":0},{"id":"52656470316","owner":"21875179@N06","secret":"f912fe10ec","server":"65535","farm":66,"title":"BALD EAGLE WITH EASTERN KINGBIRD RIDER","ispublic":1,"isfriend":0,"isfamily":0},{"id":"52655629908","owner":"109544413@N05","secret":"973b07a707","server":"65535","farm":66,"title":"Yellow & Blue","ispublic":1,"isfriend":0,"isfamily":0},{"id":"52654213980","owner":"12639178@N07","secret":"72798e9b61","server":"65535","farm":66,"title":"Grauk\u00f6nigstyrann ruht  auf Afrikanischem Tulpenbaum","ispublic":1,"isfriend":0,"isfamily":0},{"id":"52652994367","owner":"29494346@N03","secret":"3459c6254a","server":"65535","farm":66,"title":"Eastern Kingbird (Tyrannus tyrannus)","ispublic":1,"isfriend":0,"isfamily":0},{"id":"52653097198","owner":"12639178@N07","secret":"ab4171c161","server":"65535","farm":66,"title":"Auf Ansitz","ispublic":1,"isfriend":0,"isfamily":0},{"id":"52653024543","owner":"188156748@N07","secret":"66541d6694","server":"65535","farm":66,"title":"Eastern Kingbird - Tyran Tritri   - Tyrannus tyrannus 0577 (1)-SharpenAI-Standard copy.jpgS","ispublic":1,"isfriend":0,"isfamily":0},{"id":"52652541346","owner":"188156748@N07","secret":"d22fce28fd","server":"65535","farm":66,"title":"Eastern Kingbird - Tyran Tritri   - Tyrannus tyrannus 0577 (3)-SharpenAI-Standard copy.jpgS","ispublic":1,"isfriend":0,"isfamily":0},{"id":"52652052957","owner":"188156748@N07","secret":"aaa00b0f82","server":"65535","farm":66,"title":"Eastern Kingbird - Tyran Tritri   - Tyrannus tyrannus 0577 (2)-SharpenAI-Standard copy.jpgS","ispublic":1,"isfriend":0,"isfamily":0},{"id":"52650426442","owner":"21875179@N06","secret":"8792087476","server":"65535","farm":66,"title":"BALD EAGLE & EASTERN KINGBIRD","ispublic":1,"isfriend":0,"isfamily":0},{"id":"52651361910","owner":"21875179@N06","secret":"2e29d99003","server":"65535","farm":66,"title":"BALD EAGLE & EASTERN KINGBIRD","ispublic":1,"isfriend":0,"isfamily":0},{"id":"52649519469","owner":"8013969@N03","secret":"21136fc3eb","server":"65535","farm":66,"title":"Tyrannus tyrannusDFL npe22","ispublic":1,"isfriend":0,"isfamily":0},{"id":"52646938072","owner":"54249623@N08","secret":"5453c1b766","server":"65535","farm":66,"title":"Giant Kingbird (Tyrannus cubensis)","ispublic":1,"isfriend":0,"isfamily":0},{"id":"52646937707","owner":"54249623@N08","secret":"72edf23495","server":"65535","farm":66,"title":"Loggerhead Kingbird (Tyrannus caudifasciatus) (Tyrannus caudifasciatus caudifasciatus)","ispublic":1,"isfriend":0,"isfamily":0},{"id":"52646937237","owner":"54249623@N08","secret":"61204c611b","server":"65535","farm":66,"title":"Loggerhead Kingbird (Tyrannus caudifasciatus) (Tyrannus caudifasciatus caudifasciatus)","ispublic":1,"isfriend":0,"isfamily":0},{"id":"52645028742","owner":"8013969@N03","secret":"e46b73d6bb","server":"65535","farm":66,"title":"Tyrannus couchii DFL la22","ispublic":1,"isfriend":0,"isfamily":0},{"id":"52644682802","owner":"182515684@N02","secret":"18c7771695","server":"65535","farm":66,"title":"Couch's Kingbird \u2026 OM4104-314","ispublic":1,"isfriend":0,"isfamily":0},{"id":"52643688042","owner":"52450054@N04","secret":"607de463ef","server":"65535","farm":66,"title":"Tropical Kingbird - Tyrannus melancholicus, Southern Glades Wildlife Management Area, Homestead, Florida, December 3, 2021","ispublic":1,"isfriend":0,"isfamily":0},{"id":"52643698223","owner":"8013969@N03","secret":"3194899764","server":"65535","farm":66,"title":"Tyrannus tyrannus DFL btr22-1","ispublic":1,"isfriend":0,"isfamily":0},{"id":"52643098469","owner":"8013969@N03","secret":"0ea2eb5257","server":"65535","farm":66,"title":"Spizaetus tyrannus (DFL oac22)","ispublic":1,"isfriend":0,"isfamily":0},{"id":"52642917350","owner":"53025731@N05","secret":"ebf341bbe9","server":"65535","farm":66,"title":"Southern Fork-tailed Flycatcher - look noble","ispublic":1,"isfriend":0,"isfamily":0},{"id":"52642586688","owner":"8547178@N05","secret":"e42768777f","server":"65535","farm":66,"title":"Cassin's Kingbird - Tyrannus vociferans","ispublic":1,"isfriend":0,"isfamily":0},{"id":"52640086281","owner":"162501315@N05","secret":"e6f8dd617c","server":"65535","farm":66,"title":"Suiriri (Tyrannus melancholicus)","ispublic":1,"isfriend":0,"isfamily":0},{"id":"52637664357","owner":"169771858@N03","secret":"57fe16c3d1","server":"65535","farm":66,"title":"Eastern Kingbird #1 - 2022-09-01","ispublic":1,"isfriend":0,"isfamily":0},{"id":"52637293376","owner":"61062164@N08","secret":"7e6e40df36","server":"65535","farm":66,"title":"850_6491-NEF_DxO DP2","ispublic":1,"isfriend":0,"isfamily":0},{"id":"52636959061","owner":"100209004@N04","secret":"cfc558f741","server":"65535","farm":66,"title":"Black Hawk-Eagle (Spizaetus tyrannus), El Calafate, Argentina-0404","ispublic":1,"isfriend":0,"isfamily":0},{"id":"52681176119","owner":"48014585@N00","secret":"a474364eeb","server":"65535","farm":66,"title":"Tropical Kingbird","ispublic":1,"isfriend":0,"isfamily":0}]},"stat":"ok"}