{"photos":{"page":1,"pages":160,"perpage":100,"total":15928,"photo":[{"id":"52749464743","owner":"117646794@N07","secret":"9f0e1fde7d","server":"65535","farm":66,"title":"Fauvette \u00e0 t\u00eate noire - Sylvia atricapilla - Eurasian Blackcap - M\u00f6nchsgrasm\u00fccke - Curruca Capirotada - Capinera","ispublic":1,"isfriend":0,"isfamily":0},{"id":"52749077199","owner":"142746075@N06","secret":"ca7ca8af9c","server":"65535","farm":66,"title":"Fauvette \u00e0 t\u00eate noire - Eurasian Blackcap","ispublic":1,"isfriend":0,"isfamily":0},{"id":"52749095493","owner":"129140315@N05","secret":"2bd2bcbd66","server":"65535","farm":66,"title":"Curruca Capirotada (Sylvia Atricapilla)","ispublic":1,"isfriend":0,"isfamily":0},{"id":"52747926290","owner":"95610786@N07","secret":"f4b445fb92","server":"65535","farm":66,"title":"Fauvette \u00e0 t\u00eate noire Sylvia atricapilla - Eurasian Blackcap  8686_DxO","ispublic":1,"isfriend":0,"isfamily":0},{"id":"52747926250","owner":"95610786@N07","secret":"607cbf3afe","server":"65535","farm":66,"title":"Fauvette \u00e0 t\u00eate noire Sylvia atricapilla - Eurasian Blackcap  8574_DxO","ispublic":1,"isfriend":0,"isfamily":0},{"id":"52746980265","owner":"123926271@N05","secret":"a32cdc8df6","server":"65535","farm":66,"title":"Curruca capirotada-0301","ispublic":1,"isfriend":0,"isfamily":0},{"id":"52745409871","owner":"152877605@N05","secret":"fe4b605065","server":"65535","farm":66,"title":"Blackcap; Sylvia atricapilla","ispublic":1,"isfriend":0,"isfamily":0},{"id":"52745465030","owner":"104656857@N06","secret":"4192755c47","server":"65535","farm":66,"title":"Male Blackcap","ispublic":1,"isfriend":0,"isfamily":0},{"id":"52745544553","owner":"104656857@N06","secret":"9d99d7ae3f","server":"65535","farm":66,"title":"Female Blackcap","ispublic":1,"isfriend":0,"isfamily":0},{"id":"52743278546","owner":"12639178@N07","secret":"78d42fb046","server":"65535","farm":66,"title":"M\u00f6nchsgrasm\u00fccke (Sylvia atricapilla) (5)","ispublic":1,"isfriend":0,"isfamily":0},{"id":"52742762732","owner":"12639178@N07","secret":"fdacb597d0","server":"65535","farm":66,"title":"M\u00f6nchsgrasm\u00fccke (Sylvia atricapilla) (4)","ispublic":1,"isfriend":0,"isfamily":0},{"id":"52743530364","owner":"12639178@N07","secret":"db17c28623","server":"65535","farm":66,"title":"M\u00f6nchsgrasm\u00fccke (Sylvia atricapilla) (2)","ispublic":1,"isfriend":0,"isfamily":0},{"id":"52743768873","owner":"12639178@N07","secret":"28793583d3","server":"65535","farm":66,"title":"M\u00f6nchsgrasm\u00fccke (Sylvia atricapilla) (1)","ispublic":1,"isfriend":0,"isfamily":0},{"id":"52742500259","owner":"58897115@N05","secret":"e30faf0062","server":"65535","farm":66,"title":"curruca capirotada \u2640 (Sylvia atricapilla)","ispublic":1,"isfriend":0,"isfamily":0},{"id":"52740783820","owner":"40425732@N04","secret":"3927e7a37e","server":"65535","farm":66,"title":"Viento de Levante...","ispublic":1,"isfriend":0,"isfamily":0},{"id":"52739820114","owner":"152877605@N05","secret":"a7729396d3","server":"65535","farm":66,"title":"Blackcap; Sylvia atricapilla","ispublic":1,"isfriend":0,"isfamily":0},{"id":"52739225670","owner":"40425732@N04","secret":"4bcb0ab568","server":"65535","farm":66,"title":"18 gramos...","ispublic":1,"isfriend":0,"isfamily":0},{"id":"52736788466","owner":"16582147@N07","secret":"65ba47d8de","server":"65535","farm":66,"title":"fbc 540","ispublic":1,"isfriend":0,"isfamily":0},{"id":"52736660260","owner":"38896268@N08","secret":"f2453966c8","server":"65535","farm":66,"title":"Blackcap Sylvia atricapilla","ispublic":1,"isfriend":0,"isfamily":0},{"id":"52736098386","owner":"145489125@N03","secret":"2e97243549","server":"65535","farm":66,"title":"Blackcap ( Sylvia atricapilla ) Male ... Southern Morocco","ispublic":1,"isfriend":0,"isfamily":0},{"id":"52736554453","owner":"145489125@N03","secret":"b5224a15d9","server":"65535","farm":66,"title":"Blackcap ( Sylvia atricapilla ) Female ... Southern Morocco","ispublic":1,"isfriend":0,"isfamily":0},{"id":"52735642070","owner":"67164820@N06","secret":"73657c355d","server":"65535","farm":66,"title":"Eurasian blackcap","ispublic":1,"isfriend":0,"isfamily":0},{"id":"52735226951","owner":"67164820@N06","secret":"80022ce719","server":"65535","farm":66,"title":"Eurasian blackcap 2","ispublic":1,"isfriend":0,"isfamily":0},{"id":"52735472790","owner":"192701427@N07","secret":"267c2e1222","server":"65535","farm":66,"title":"Curruca capirotada","ispublic":1,"isfriend":0,"isfamily":0},{"id":"52734342667","owner":"129140315@N05","secret":"ae54d69508","server":"65535","farm":66,"title":"Curruca Capirotada (Sylvia Atricapilla)","ispublic":1,"isfriend":0,"isfamily":0},{"id":"52732905013","owner":"58897115@N05","secret":"3b33e90618","server":"65535","farm":66,"title":"curruca capirotada \u2640 (Sylvia atricapilla)","ispublic":1,"isfriend":0,"isfamily":0},{"id":"52731898397","owner":"58897115@N05","secret":"66673446e0","server":"65535","farm":66,"title":"curruca capirotada \u2640 (Sylvia atricapilla)","ispublic":1,"isfriend":0,"isfamily":0},{"id":"52732902703","owner":"58897115@N05","secret":"fff8789f32","server":"65535","farm":66,"title":"curruca capirotada \u2640 (Sylvia atricapilla)","ispublic":1,"isfriend":0,"isfamily":0},{"id":"52732417831","owner":"58897115@N05","secret":"384cb4fe09","server":"65535","farm":66,"title":"curruca capirotada \u2640 (Sylvia atricapilla)","ispublic":1,"isfriend":0,"isfamily":0},{"id":"52732051896","owner":"184493196@N07","secret":"5d21a54f57","server":"65535","farm":66,"title":"Sylvia atricapilla","ispublic":1,"isfriend":0,"isfamily":0},{"id":"52730478641","owner":"196921070@N04","secret":"7abd657b77","server":"65535","farm":66,"title":"Curruca capirotada (Sylvia atricapilla)","ispublic":1,"isfriend":0,"isfamily":0},{"id":"52729787199","owner":"59464817@N02","secret":"b0a320fd96","server":"65535","farm":66,"title":"Capinera","ispublic":1,"isfriend":0,"isfamily":0},{"id":"52729492324","owner":"146092138@N05","secret":"83c1f88618","server":"65535","farm":66,"title":"Curruca capirotada (Sylvia atricapilla)","ispublic":1,"isfriend":0,"isfamily":0},{"id":"52729619638","owner":"95005162@N08","secret":"e7047e5555","server":"65535","farm":66,"title":"Curruca capirotada","ispublic":1,"isfriend":0,"isfamily":0},{"id":"52727737293","owner":"99817330@N02","secret":"fefe824492","server":"65535","farm":66,"title":"Blackcap (m)","ispublic":1,"isfriend":0,"isfamily":0},{"id":"52725963050","owner":"129140315@N05","secret":"4de74699e6","server":"65535","farm":66,"title":"Curruca Capirotada (Sylvia Atricapilla)","ispublic":1,"isfriend":0,"isfamily":0},{"id":"52723321965","owner":"105289818@N08","secret":"9d50de0f45","server":"65535","farm":66,"title":"IMG_2973 Blackcap - Sylvia atricapilla","ispublic":1,"isfriend":0,"isfamily":0},{"id":"52723321920","owner":"105289818@N08","secret":"2c83ca836d","server":"65535","farm":66,"title":"IMG_3001 Blackcap - Sylvia atricapilla","ispublic":1,"isfriend":0,"isfamily":0},{"id":"52723393888","owner":"105289818@N08","secret":"25b038fe33","server":"65535","farm":66,"title":"IMG_3002A Blackcap - Sylvia atricapilla","ispublic":1,"isfriend":0,"isfamily":0},{"id":"52721343399","owner":"126827374@N04","secret":"050b5e24db","server":"65535","farm":66,"title":"Blackcap - Male","ispublic":1,"isfriend":0,"isfamily":0},{"id":"52719085321","owner":"92193497@N03","secret":"4f8c96806d","server":"65535","farm":66,"title":"Sylvia atricapilla","ispublic":1,"isfriend":0,"isfamily":0},{"id":"52718066686","owner":"108019618@N06","secret":"a910fd9ffb","server":"65535","farm":66,"title":"2023_02_18_Tallarol de casquet (Sylvia atricapilla)  Curruca capirotada","ispublic":1,"isfriend":0,"isfamily":0},{"id":"52718346533","owner":"147346087@N04","secret":"f446a15fbd","server":"65535","farm":66,"title":"Capinera Sylvia atricapilla","ispublic":1,"isfriend":0,"isfamily":0},{"id":"52717287142","owner":"196341853@N06","secret":"fd71250847","server":"65535","farm":66,"title":"Sylvia atricapilla","ispublic":1,"isfriend":0,"isfamily":0},{"id":"52718194770","owner":"147346087@N04","secret":"36db837b9f","server":"65535","farm":66,"title":"Capinera Sylvia atricapilla","ispublic":1,"isfriend":0,"isfamily":0},{"id":"52717560586","owner":"58897115@N05","secret":"a11cc9bcf1","server":"65535","farm":66,"title":"curruca capirotada \u2640 (Sylvia atricapilla)","ispublic":1,"isfriend":0,"isfamily":0},{"id":"52717751859","owner":"58897115@N05","secret":"f1a6c3c02f","server":"65535","farm":66,"title":"curruca capirotada \u2640 (Sylvia atricapilla)","ispublic":1,"isfriend":0,"isfamily":0},{"id":"52717973573","owner":"58897115@N05","secret":"d5f2e1745c","server":"65535","farm":66,"title":"curruca capirotada \u2640 (Sylvia atricapilla)","ispublic":1,"isfriend":0,"isfamily":0},{"id":"52716056999","owner":"45145908@N08","secret":"75e8208867","server":"65535","farm":66,"title":"Curruca capirotada, Blackcup","ispublic":1,"isfriend":0,"isfamily":0},{"id":"52715047027","owner":"45145908@N08","secret":"d039b1d7ea","server":"65535","farm":66,"title":"Curruca capirotada, Blackcap","ispublic":1,"isfriend":0,"isfamily":0},{"id":"52714554251","owner":"126827374@N04","secret":"06594bba65","server":"65535","farm":66,"title":"Blackcap - Female","ispublic":1,"isfriend":0,"isfamily":0},{"id":"52714020742","owner":"58897115@N05","secret":"ae958c01f3","server":"65535","farm":66,"title":"curruca capirotada \u2640 (Sylvia atricapilla)","ispublic":1,"isfriend":0,"isfamily":0},{"id":"52713851043","owner":"186211059@N06","secret":"5123953737","server":"65535","farm":66,"title":"Eurasian Blackcap","ispublic":1,"isfriend":0,"isfamily":0},{"id":"52712959025","owner":"137371709@N06","secret":"bc8969e5b8","server":"65535","farm":66,"title":"Sylvia atricapilla (Zwartkop) male","ispublic":1,"isfriend":0,"isfamily":0},{"id":"52711182785","owner":"145890134@N05","secret":"846be74961","server":"65535","farm":66,"title":"Zwartkop | Eurasian Blackcap | M\u00f6nchsgrasm\u00fccke, (Sylvia atricapilla)","ispublic":1,"isfriend":0,"isfamily":0},{"id":"52710417514","owner":"147346087@N04","secret":"f20e3f3bda","server":"65535","farm":66,"title":"Capinera Sylvia atricapilla","ispublic":1,"isfriend":0,"isfamily":0},{"id":"52708434836","owner":"181980422@N05","secret":"c28ebfa512","server":"65535","farm":66,"title":"Toutinegra-de-barrete-preto, f\u00eamea, Eurasian Blackcap, female","ispublic":1,"isfriend":0,"isfamily":0},{"id":"52708817065","owner":"181980422@N05","secret":"8debc2ddae","server":"65535","farm":66,"title":"Toutinegra-do-barrete-preto, macho, Eurasian Blackcap, male","ispublic":1,"isfriend":0,"isfamily":0},{"id":"52708331131","owner":"110762674@N07","secret":"f7d63758e3","server":"65535","farm":66,"title":"munk-29","ispublic":1,"isfriend":0,"isfamily":0},{"id":"52708500993","owner":"147346087@N04","secret":"6d36e1fcf5","server":"65535","farm":66,"title":"Capinera Sylvia atricapilla","ispublic":1,"isfriend":0,"isfamily":0},{"id":"52705880132","owner":"141558918@N02","secret":"889e6d4520","server":"65535","farm":66,"title":"Capinera - Sylvia atricapilla","ispublic":1,"isfriend":0,"isfamily":0},{"id":"52706435489","owner":"58897115@N05","secret":"a586e516eb","server":"65535","farm":66,"title":"curruca capirotada \u2640 (Sylvia atricapilla)","ispublic":1,"isfriend":0,"isfamily":0},{"id":"52703958361","owner":"192701427@N07","secret":"50c539d1fc","server":"65535","farm":66,"title":"Curruca capirotada (Sylvia atricapilla)","ispublic":1,"isfriend":0,"isfamily":0},{"id":"52703781493","owner":"49869335@N04","secret":"92c3cb0aa6","server":"65535","farm":66,"title":"Sylvia atricapilla","ispublic":1,"isfriend":0,"isfamily":0},{"id":"52702339537","owner":"125182882@N02","secret":"f7a09beca9","server":"65535","farm":66,"title":"Tallarold de casquet (Sylvia atricapilla)_N4A6177","ispublic":1,"isfriend":0,"isfamily":0},{"id":"52701793182","owner":"193186800@N07","secret":"1cbe78e91b","server":"65535","farm":66,"title":"Sylvia atricapilla Linnaeus, 1758","ispublic":1,"isfriend":0,"isfamily":0},{"id":"52702390958","owner":"192701427@N07","secret":"9d63b84bae","server":"65535","farm":66,"title":"Curruca capirotada (Sylvia atricapilla)","ispublic":1,"isfriend":0,"isfamily":0},{"id":"52701903171","owner":"192701427@N07","secret":"37b5bc4050","server":"65535","farm":66,"title":"Curruca capirotada (Sylvia atricapilla)","ispublic":1,"isfriend":0,"isfamily":0},{"id":"52702320515","owner":"192701427@N07","secret":"9afdc16daa","server":"65535","farm":66,"title":"Curruca capirotada (Sylvia atricapilla)","ispublic":1,"isfriend":0,"isfamily":0},{"id":"52700646907","owner":"125182882@N02","secret":"8aece91f7a","server":"65535","farm":66,"title":"Tallarol de casquet (Sylvia atricapilla)_N4A6541","ispublic":1,"isfriend":0,"isfamily":0},{"id":"52701168896","owner":"125182882@N02","secret":"3e6f2627b5","server":"65535","farm":66,"title":"Tallarol de casquet (Sylvia atricapilla)_N4A6547","ispublic":1,"isfriend":0,"isfamily":0},{"id":"52700332552","owner":"58897115@N05","secret":"989d0f58fc","server":"65535","farm":66,"title":"curruca capirotada \u2640 (Sylvia atricapilla)","ispublic":1,"isfriend":0,"isfamily":0},{"id":"52700470154","owner":"181746748@N05","secret":"f838994b38","server":"65535","farm":66,"title":"Fauvette \u00e0 t\u00eate noire","ispublic":1,"isfriend":0,"isfamily":0},{"id":"52698454774","owner":"186915896@N05","secret":"17c03bfb57","server":"65535","farm":66,"title":"Zwartkop \u2642 (Blackcap, M\u00f6nchs-Grasm\u00fccke, Curruca Capirotada, Sylvia atricapilla heineken?)","ispublic":1,"isfriend":0,"isfamily":0},{"id":"52698198104","owner":"147346087@N04","secret":"d9c4d01cc0","server":"65535","farm":66,"title":"Capinera Sylvia atricapilla","ispublic":1,"isfriend":0,"isfamily":0},{"id":"52697727346","owner":"27797245@N05","secret":"88c07ee11d","server":"65535","farm":66,"title":"Hettus\u00f6ngvari \u2640 (Sylvia atricapilla).","ispublic":1,"isfriend":0,"isfamily":0},{"id":"52696276446","owner":"157220357@N08","secret":"4f4b636b9c","server":"0","farm":0,"title":"Blackcap and apple","ispublic":1,"isfriend":0,"isfamily":0},{"id":"52696573093","owner":"197745515@N06","secret":"1d69e40772","server":"65535","farm":66,"title":"Sylvia atricapilla","ispublic":1,"isfriend":0,"isfamily":0},{"id":"52696213343","owner":"49869335@N04","secret":"2eedeb899a","server":"65535","farm":66,"title":"Sylvia atricapilla","ispublic":1,"isfriend":0,"isfamily":0},{"id":"52695722751","owner":"49869335@N04","secret":"2363cf1ac5","server":"65535","farm":66,"title":"Sylvia atricapilla","ispublic":1,"isfriend":0,"isfamily":0},{"id":"52696213323","owner":"49869335@N04","secret":"63da830c47","server":"65535","farm":66,"title":"Sylvia atricapilla","ispublic":1,"isfriend":0,"isfamily":0},{"id":"52695985794","owner":"49869335@N04","secret":"13d25e735a","server":"65535","farm":66,"title":"Sylvia atricapilla","ispublic":1,"isfriend":0,"isfamily":0},{"id":"52696213288","owner":"49869335@N04","secret":"3ae5ed6611","server":"65535","farm":66,"title":"Sylvia atricapilla","ispublic":1,"isfriend":0,"isfamily":0},{"id":"52695985729","owner":"49869335@N04","secret":"185bc4aea8","server":"65535","farm":66,"title":"Sylvia atricapilla","ispublic":1,"isfriend":0,"isfamily":0},{"id":"52695722681","owner":"49869335@N04","secret":"f5e2f499da","server":"65535","farm":66,"title":"Sylvia atricapilla","ispublic":1,"isfriend":0,"isfamily":0},{"id":"52696213253","owner":"49869335@N04","secret":"50e9b784c5","server":"65535","farm":66,"title":"Sylvia atricapilla","ispublic":1,"isfriend":0,"isfamily":0},{"id":"52737246230","owner":"197854833@N04","secret":"a4f1a8229f","server":"65535","farm":66,"title":"Curruca capirotada (Sylvia atricapilla)","ispublic":1,"isfriend":0,"isfamily":0},{"id":"52713790610","owner":"186211059@N06","secret":"503542358c","server":"65535","farm":66,"title":"Eurasian Blackcap","ispublic":1,"isfriend":0,"isfamily":0},{"id":"52706562471","owner":"188692121@N03","secret":"dfa9b905b5","server":"65535","farm":66,"title":"Curruca Capirotada (Sylvia atricapilla) hembra.","ispublic":1,"isfriend":0,"isfamily":0},{"id":"52705226036","owner":"12639178@N07","secret":"3a7c31fd93","server":"65535","farm":66,"title":"M\u00f6nchsgrasm\u00fccke (Sylvia atricapilla)","ispublic":1,"isfriend":0,"isfamily":0},{"id":"52704702602","owner":"12639178@N07","secret":"b0e13a004d","server":"65535","farm":66,"title":"M\u00f6nchsgrasm\u00fccke (Sylvia atricapilla)","ispublic":1,"isfriend":0,"isfamily":0},{"id":"52704442333","owner":"192701427@N07","secret":"f6beaf7be7","server":"65535","farm":66,"title":"Curruca capirotada (Sylvia atricapilla)","ispublic":1,"isfriend":0,"isfamily":0},{"id":"52703958346","owner":"192701427@N07","secret":"e2dd27b505","server":"65535","farm":66,"title":"Curruca capirotada (Sylvia atricapilla)","ispublic":1,"isfriend":0,"isfamily":0},{"id":"52702860741","owner":"125182882@N02","secret":"9cc4cd8bf1","server":"65535","farm":66,"title":"Tallarol de casquet (Sylvia atricapilla)_N4A6175","ispublic":1,"isfriend":0,"isfamily":0},{"id":"52701381717","owner":"192701427@N07","secret":"97f78c8035","server":"65535","farm":66,"title":"Curruca capirotada (Sylvia atricapilla)","ispublic":1,"isfriend":0,"isfamily":0},{"id":"52702159424","owner":"192701427@N07","secret":"e7d0b18866","server":"65535","farm":66,"title":"Curruca capirotada (Sylvia atricapilla)","ispublic":1,"isfriend":0,"isfamily":0},{"id":"52701381657","owner":"192701427@N07","secret":"ceec8489f7","server":"65535","farm":66,"title":"Curruca capirotada (Sylvia atricapilla)","ispublic":1,"isfriend":0,"isfamily":0},{"id":"52701381622","owner":"192701427@N07","secret":"1de7a3263b","server":"65535","farm":66,"title":"Curruca capirotada (Sylvia atricapilla)","ispublic":1,"isfriend":0,"isfamily":0},{"id":"52701903111","owner":"192701427@N07","secret":"dbffce8ff5","server":"65535","farm":66,"title":"Curruca capirotada (Sylvia atricapilla)","ispublic":1,"isfriend":0,"isfamily":0},{"id":"52701127983","owner":"157220357@N08","secret":"5e8b05a374","server":"65535","farm":66,"title":"Dundalk Blackcap","ispublic":1,"isfriend":0,"isfamily":0}]},"stat":"ok"}