{"photos":{"page":1,"pages":138,"perpage":100,"total":13723,"photo":[{"id":"52723525370","owner":"12639178@N07","secret":"e5315040b3","server":"65535","farm":66,"title":"T\u00fcrkentaube","ispublic":1,"isfriend":0,"isfamily":0},{"id":"52721728673","owner":"77128742@N06","secret":"6918dfce12","server":"65535","farm":66,"title":"Chinesische Tu\u0308rkentaube_Streptopelia decaocto xanthocycla-2","ispublic":1,"isfriend":0,"isfamily":0},{"id":"52719851438","owner":"12639178@N07","secret":"9b51ba6803","server":"65535","farm":66,"title":"T\u00fcrkentaube","ispublic":1,"isfriend":0,"isfamily":0},{"id":"52716842357","owner":"41798562@N07","secret":"e07662d4e3","server":"65535","farm":66,"title":"Collared Dove (Streptopelia decaocto)","ispublic":1,"isfriend":0,"isfamily":0},{"id":"52717332174","owner":"12639178@N07","secret":"d2abf32c2a","server":"65535","farm":66,"title":"T\u00fcrkent\u00e4ubchen","ispublic":1,"isfriend":0,"isfamily":0},{"id":"52716110255","owner":"12639178@N07","secret":"fc9151f4c7","server":"65535","farm":66,"title":"Stacheliger Hocker","ispublic":1,"isfriend":0,"isfamily":0},{"id":"52714265359","owner":"12639178@N07","secret":"2f185cd715","server":"65535","farm":66,"title":"T\u00fcrkentaube - endlich mal wieder gesehen","ispublic":1,"isfriend":0,"isfamily":0},{"id":"52712487667","owner":"14888671@N02","secret":"75a2714698","server":"65535","farm":66,"title":"Eurasian Collared-Dove","ispublic":1,"isfriend":0,"isfamily":0},{"id":"52707805812","owner":"110762674@N07","secret":"b2410d1890","server":"65535","farm":66,"title":"tyrkerdue-9","ispublic":1,"isfriend":0,"isfamily":0},{"id":"52706837335","owner":"195537536@N03","secret":"750b6d0d8d","server":"65535","farm":66,"title":"Eurasian Collared-Dove (Streptopelia decaocto)","ispublic":1,"isfriend":0,"isfamily":0},{"id":"52704568322","owner":"45109166@N00","secret":"2e5c21669f","server":"65535","farm":66,"title":"Streptopelia decaocto","ispublic":1,"isfriend":0,"isfamily":0},{"id":"52705312839","owner":"63907244@N02","secret":"bc15ba6043","server":"65535","farm":66,"title":"Turkentaube - Turkish Pigeon\/Collared Pigeon (Streptopelia decaocto)","ispublic":1,"isfriend":0,"isfamily":0},{"id":"52704676573","owner":"18217058@N04","secret":"a8074d15a9","server":"65535","farm":66,"title":"Eurasian collared dove \/ Tyrkjad\u00fafa (Streptopelia decaocto)","ispublic":1,"isfriend":0,"isfamily":0},{"id":"52703668542","owner":"18217058@N04","secret":"57fdcfc2aa","server":"65535","farm":66,"title":"Eurasian collared dove \/ Tyrkjad\u00fafa (Streptopelia decaocto)","ispublic":1,"isfriend":0,"isfamily":0},{"id":"52703668522","owner":"18217058@N04","secret":"02b368905a","server":"65535","farm":66,"title":"Eurasian collared dove \/ Tyrkjad\u00fafa (Streptopelia decaocto)","ispublic":1,"isfriend":0,"isfamily":0},{"id":"52704676498","owner":"18217058@N04","secret":"65b5c8d581","server":"65535","farm":66,"title":"Eurasian collared dove \/ Tyrkjad\u00fafa (Streptopelia decaocto)","ispublic":1,"isfriend":0,"isfamily":0},{"id":"52698171304","owner":"68466173@N02","secret":"d82ed60ffe","server":"65535","farm":66,"title":"Eurasian Collared Dove (Streptopelia decaocto)","ispublic":1,"isfriend":0,"isfamily":0},{"id":"52698152695","owner":"46262145@N08","secret":"c24783d565","server":"65535","farm":66,"title":"Collared Dove","ispublic":1,"isfriend":0,"isfamily":0},{"id":"52697878753","owner":"65148649@N04","secret":"24a3831395","server":"65535","farm":66,"title":"Eurasian Collared-Dove 02.11.23 Rutherford E","ispublic":1,"isfriend":0,"isfamily":0},{"id":"52696385846","owner":"194178329@N04","secret":"b15ca568b5","server":"65535","farm":66,"title":"Collared dove observing","ispublic":1,"isfriend":0,"isfamily":0},{"id":"52695481787","owner":"197745515@N06","secret":"5f1c8375f3","server":"65535","farm":66,"title":"Streptopelia decaocto","ispublic":1,"isfriend":0,"isfamily":0},{"id":"52696137720","owner":"49869335@N04","secret":"fc6e15ebe3","server":"65535","farm":66,"title":"Streptopelia decaocto","ispublic":1,"isfriend":0,"isfamily":0},{"id":"52695015026","owner":"12639178@N07","secret":"2473ac2875","server":"65535","farm":66,"title":"T\u00fcrkentaube (Streptopelia decaocto)","ispublic":1,"isfriend":0,"isfamily":0},{"id":"52695014636","owner":"12639178@N07","secret":"c9d0e15ba6","server":"65535","farm":66,"title":"Sie warten auf die anderen Zwei T\u00fcrkentauben (Streptopelia decaocto)","ispublic":1,"isfriend":0,"isfamily":0},{"id":"52693995727","owner":"36648230@N03","secret":"420f1c0d43","server":"65535","farm":66,"title":"Eurasian Collared Dove","ispublic":1,"isfriend":0,"isfamily":0},{"id":"52694295501","owner":"12639178@N07","secret":"b9b06d1fd4","server":"65535","farm":66,"title":"T\u00fcrkentaube","ispublic":1,"isfriend":0,"isfamily":0},{"id":"52693597417","owner":"12639178@N07","secret":"7dbed84203","server":"65535","farm":66,"title":"T\u00fcrkentaube","ispublic":1,"isfriend":0,"isfamily":0},{"id":"52694318148","owner":"12639178@N07","secret":"45f5562873","server":"65535","farm":66,"title":"T\u00fcrkentaube","ispublic":1,"isfriend":0,"isfamily":0},{"id":"52693623118","owner":"12639178@N07","secret":"960afb1fa1","server":"65535","farm":66,"title":"T\u00fcrkentaube ruht","ispublic":1,"isfriend":0,"isfamily":0},{"id":"52693400464","owner":"12639178@N07","secret":"8b6b7aaf5d","server":"65535","farm":66,"title":"T\u00fcrkentaube, sehr aufmerksam","ispublic":1,"isfriend":0,"isfamily":0},{"id":"52693507695","owner":"192701427@N07","secret":"15af645dac","server":"65535","farm":66,"title":"T\u00f3rtola turca,  paloma turca de collar,  paloma habanera, t\u00f3rtola de collar. (Streptopelia decaocto)","ispublic":1,"isfriend":0,"isfamily":0},{"id":"52693507650","owner":"192701427@N07","secret":"fc5a69eabd","server":"65535","farm":66,"title":"T\u00f3rtola turca,  paloma turca de collar,  paloma habanera, t\u00f3rtola de collar. (Streptopelia decaocto)","ispublic":1,"isfriend":0,"isfamily":0},{"id":"52692492992","owner":"12639178@N07","secret":"26e41d3d8f","server":"65535","farm":66,"title":"T\u00fcrkentaube auf trockenem Geh\u00f6lz","ispublic":1,"isfriend":0,"isfamily":0},{"id":"52692864591","owner":"12639178@N07","secret":"cbfd7a93d1","server":"65535","farm":66,"title":"T\u00fcrkentaube (Streptopelia decaocto) (2)","ispublic":1,"isfriend":0,"isfamily":0},{"id":"52693355223","owner":"12639178@N07","secret":"a67022f5e1","server":"65535","farm":66,"title":"T\u00fcrkentaube (Streptopelia decaocto) (1)","ispublic":1,"isfriend":0,"isfamily":0},{"id":"52692893364","owner":"12639178@N07","secret":"f531fd2c92","server":"65535","farm":66,"title":"T\u00fcrkentaube","ispublic":1,"isfriend":0,"isfamily":0},{"id":"52692618658","owner":"56750464@N02","secret":"a7fb7fa6a6","server":"65535","farm":66,"title":"Tourterelle turque - Streptopelia decaocto","ispublic":1,"isfriend":0,"isfamily":0},{"id":"52691725903","owner":"136420653@N03","secret":"fa76225738","server":"65535","farm":66,"title":"T\u00fcrkentauben (Collared dove)","ispublic":1,"isfriend":0,"isfamily":0},{"id":"52690931435","owner":"97406694@N00","secret":"37bb91b97f","server":"65535","farm":66,"title":"Sierp\u00f3wka, synogarlica turecka (Streptopelia decaocto)","ispublic":1,"isfriend":0,"isfamily":0},{"id":"52689414262","owner":"33610210@N05","secret":"d1a029aea4","server":"65535","farm":66,"title":"Eurasian Collared-dove, Streptopelia decaocto","ispublic":1,"isfriend":0,"isfamily":0},{"id":"52690350085","owner":"33610210@N05","secret":"0b5fb98a39","server":"65535","farm":66,"title":"Eurasian Collared-dove, Streptopelia decaocto","ispublic":1,"isfriend":0,"isfamily":0},{"id":"52690350095","owner":"33610210@N05","secret":"10d0941f1a","server":"65535","farm":66,"title":"Eurasian Collared-dove, Streptopelia decaocto","ispublic":1,"isfriend":0,"isfamily":0},{"id":"52688330847","owner":"157220357@N08","secret":"5a759609ec","server":"65535","farm":66,"title":"Garden Collared Dove","ispublic":1,"isfriend":0,"isfamily":0},{"id":"52686113546","owner":"155603255@N04","secret":"04cba2be43","server":"65535","farm":66,"title":"Tourterelle turque Streptopelia decaocto - Eurasian Collared Dove","ispublic":1,"isfriend":0,"isfamily":0},{"id":"52685616873","owner":"12639178@N07","secret":"e603e15732","server":"65535","farm":66,"title":"T\u00fcrkentaube","ispublic":1,"isfriend":0,"isfamily":0},{"id":"52685580723","owner":"12639178@N07","secret":"c9190d4d33","server":"65535","farm":66,"title":"T\u00fcrkentaube (Streptopelia decaocto) (2)","ispublic":1,"isfriend":0,"isfamily":0},{"id":"52684567027","owner":"12639178@N07","secret":"5acc3a00e2","server":"65535","farm":66,"title":"unsere Turtelt\u00e4ubchen","ispublic":1,"isfriend":0,"isfamily":0},{"id":"52684254516","owner":"136229414@N08","secret":"dc52759d86","server":"65535","farm":66,"title":"une des Tourterelles turques du Kouvan","ispublic":1,"isfriend":0,"isfamily":0},{"id":"52684753448","owner":"136229414@N08","secret":"9d9c5a4836","server":"65535","farm":66,"title":"une des Tourterelles turques du Kouvan se nourrit sur la pelouse","ispublic":1,"isfriend":0,"isfamily":0},{"id":"52683738367","owner":"136229414@N08","secret":"75ffbc279c","server":"65535","farm":66,"title":"une des Tourterelles turques du Kouvan se nourrit sur la pelouse","ispublic":1,"isfriend":0,"isfamily":0},{"id":"52684753398","owner":"136229414@N08","secret":"2ceee28b8d","server":"65535","farm":66,"title":"une des Tourterelles turques du Kouvan se nourrit sur la pelouse","ispublic":1,"isfriend":0,"isfamily":0},{"id":"52684254366","owner":"136229414@N08","secret":"761e057d48","server":"65535","farm":66,"title":"une des Tourterelles turques du Kouvan se nourrit sur la pelouse","ispublic":1,"isfriend":0,"isfamily":0},{"id":"52682728259","owner":"12639178@N07","secret":"aa7e729fda","server":"65535","farm":66,"title":"T\u00fcrkentaube","ispublic":1,"isfriend":0,"isfamily":0},{"id":"52681353452","owner":"115868643@N04","secret":"04050848df","server":"65535","farm":66,"title":"Eurasian Collard Dove","ispublic":1,"isfriend":0,"isfamily":0},{"id":"52681031465","owner":"12639178@N07","secret":"de5f638d60","server":"65535","farm":66,"title":"Die T\u00fcrkentaube ist recht h\u00e4ufig vertreten","ispublic":1,"isfriend":0,"isfamily":0},{"id":"52680039652","owner":"12639178@N07","secret":"fcf328b2ea","server":"65535","farm":66,"title":"T\u00fcrkentaube in der kolonialen Altstadt","ispublic":1,"isfriend":0,"isfamily":0},{"id":"52678584854","owner":"147799774@N04","secret":"dff4353669","server":"65535","farm":66,"title":"Rola-turca | Streptopelia decaocto","ispublic":1,"isfriend":0,"isfamily":0},{"id":"52677413826","owner":"197653711@N02","secret":"ee6432922e","server":"65535","farm":66,"title":"T\u00f3rtola turca \/ The Eurasian collared dove (Streptopelia decaocto)","ispublic":1,"isfriend":0,"isfamily":0},{"id":"52677730755","owner":"12639178@N07","secret":"1efc49e77c","server":"65535","farm":66,"title":"T\u00fcrkentaube (Streptopelia decaocto) (3)","ispublic":1,"isfriend":0,"isfamily":0},{"id":"52677295391","owner":"12639178@N07","secret":"f98bf858e5","server":"65535","farm":66,"title":"T\u00fcrkentaube (Streptopelia decaocto) (2)","ispublic":1,"isfriend":0,"isfamily":0},{"id":"52675016272","owner":"12639178@N07","secret":"739d08625b","server":"65535","farm":66,"title":"T\u00fcrkentaube in Morro Jable","ispublic":1,"isfriend":0,"isfamily":0},{"id":"52675768994","owner":"83657186@N05","secret":"2cf0f44bef","server":"65535","farm":66,"title":"Tourterelle turque Streptopelia decaocto DSC_6177","ispublic":1,"isfriend":0,"isfamily":0},{"id":"52675913485","owner":"83657186@N05","secret":"2201a61eaf","server":"65535","farm":66,"title":"Tourterelle turque Streptopelia decaocto DSC_6184","ispublic":1,"isfriend":0,"isfamily":0},{"id":"52674239726","owner":"12639178@N07","secret":"ccb7706273","server":"65535","farm":66,"title":"T\u00fcrkentaube","ispublic":1,"isfriend":0,"isfamily":0},{"id":"52674238206","owner":"12639178@N07","secret":"8004b0cc2f","server":"65535","farm":66,"title":"T\u00fcrkentaube","ispublic":1,"isfriend":0,"isfamily":0},{"id":"52673846630","owner":"12639178@N07","secret":"39f647abd7","server":"65535","farm":66,"title":"T\u00fcrkentaube (Streptopelia decaocto)","ispublic":1,"isfriend":0,"isfamily":0},{"id":"52673698394","owner":"12639178@N07","secret":"e048463667","server":"65535","farm":66,"title":"T\u00fcrkentaube (Streptopelia decaocto)","ispublic":1,"isfriend":0,"isfamily":0},{"id":"52673846365","owner":"12639178@N07","secret":"83a9c1f0ee","server":"65535","farm":66,"title":"T\u00fcrkentaube (Streptopelia decaocto)","ispublic":1,"isfriend":0,"isfamily":0},{"id":"52672913032","owner":"12639178@N07","secret":"6639dcb425","server":"65535","farm":66,"title":"T\u00fcrkentaube (Streptopelia decaocto)","ispublic":1,"isfriend":0,"isfamily":0},{"id":"52673688243","owner":"29894834@N05","secret":"63f56b181d","server":"65535","farm":66,"title":"A feathered visitor on my balcony","ispublic":1,"isfriend":0,"isfamily":0},{"id":"52672679557","owner":"29826595@N06","secret":"63d1ee4350","server":"65535","farm":66,"title":"A bath in the sunlight","ispublic":1,"isfriend":0,"isfamily":0},{"id":"52671740857","owner":"12639178@N07","secret":"d9dca83aee","server":"65535","farm":66,"title":"T\u00fcrkentaube (Streptopelia decaocto)","ispublic":1,"isfriend":0,"isfamily":0},{"id":"52672522298","owner":"12639178@N07","secret":"b060c86a03","server":"65535","farm":66,"title":"T\u00fcrkentaube","ispublic":1,"isfriend":0,"isfamily":0},{"id":"52670484047","owner":"12639178@N07","secret":"aafe16089d","server":"65535","farm":66,"title":"T\u00fcrkentaube - inmitten von M\u00f6nchssittichen (2)","ispublic":1,"isfriend":0,"isfamily":0},{"id":"52670483802","owner":"12639178@N07","secret":"f60c7e2e6a","server":"65535","farm":66,"title":"T\u00fcrkentaube - inmitten von M\u00f6nchssittichen (1)","ispublic":1,"isfriend":0,"isfamily":0},{"id":"52671132413","owner":"57224934@N00","secret":"849de34756","server":"65535","farm":66,"title":"Torenvalk - El Paso","ispublic":1,"isfriend":0,"isfamily":0},{"id":"52668345027","owner":"195307604@N06","secret":"e0b8d35e42","server":"65535","farm":66,"title":"Sierp\u00f3wka-Gra\u017cyna","ispublic":1,"isfriend":0,"isfamily":0},{"id":"52668188800","owner":"12639178@N07","secret":"c41bc265cb","server":"65535","farm":66,"title":"T\u00fcrkentaube (Streptopelia decaocto)","ispublic":1,"isfriend":0,"isfamily":0},{"id":"52667877985","owner":"12639178@N07","secret":"b08c1928b1","server":"65535","farm":66,"title":"M\u00fcde - T\u00fcrkentaubenpaar","ispublic":1,"isfriend":0,"isfamily":0},{"id":"52667945883","owner":"12639178@N07","secret":"9df0fd5776","server":"65535","farm":66,"title":"Ruheplatz vor dem Fenster -T\u00fcrkentaubenpaar","ispublic":1,"isfriend":0,"isfamily":0},{"id":"52666522897","owner":"191209692@N05","secret":"41163581c0","server":"65535","farm":66,"title":"T\u00f3rtola Turca - Collared Dove - Streptopelia Decaocto","ispublic":1,"isfriend":0,"isfamily":0},{"id":"52666965065","owner":"34238008@N02","secret":"79d15b87b7","server":"65535","farm":66,"title":"Eurasian Collared Dove (Streptopelia decaocto)","ispublic":1,"isfriend":0,"isfamily":0},{"id":"52666761669","owner":"196341853@N06","secret":"bfbf2d9558","server":"65535","farm":66,"title":"Streptopelia decaocto","ispublic":1,"isfriend":0,"isfamily":0},{"id":"52666761183","owner":"48468275@N06","secret":"f1c50fa54f","server":"65535","farm":66,"title":"Streptopelia decaocto","ispublic":1,"isfriend":0,"isfamily":0},{"id":"52666124301","owner":"12639178@N07","secret":"87a7f7a5d5","server":"65535","farm":66,"title":"T\u00fcrkentaube (Streptopelia decaocto)","ispublic":1,"isfriend":0,"isfamily":0},{"id":"52663715890","owner":"48468275@N06","secret":"5fa1e8a3ff","server":"65535","farm":66,"title":"Streptopelia decaocto","ispublic":1,"isfriend":0,"isfamily":0},{"id":"52723137882","owner":"129733140@N05","secret":"0368e681fe","server":"65535","farm":66,"title":"Collared Dove - Streptopelia decaocto","ispublic":1,"isfriend":0,"isfamily":0},{"id":"52713833470","owner":"12639178@N07","secret":"2c91c03ba2","server":"65535","farm":66,"title":"T\u00fcrkentaube auf den Spitzen der Aloe Vera","ispublic":1,"isfriend":0,"isfamily":0},{"id":"52713135764","owner":"12639178@N07","secret":"1fe1c98101","server":"65535","farm":66,"title":"T\u00fcrkentaube","ispublic":1,"isfriend":0,"isfamily":0},{"id":"52713291550","owner":"12639178@N07","secret":"3cd8ec4c4e","server":"65535","farm":66,"title":"T\u00fcrkentaube","ispublic":1,"isfriend":0,"isfamily":0},{"id":"52710911929","owner":"12639178@N07","secret":"876f1e4985","server":"65535","farm":66,"title":"T\u00fcrkentaube","ispublic":1,"isfriend":0,"isfamily":0},{"id":"52708812798","owner":"110762674@N07","secret":"c7b9413b7b","server":"65535","farm":66,"title":"tyrkerdue-10","ispublic":1,"isfriend":0,"isfamily":0},{"id":"52704900783","owner":"12639178@N07","secret":"810511c332","server":"65535","farm":66,"title":"T\u00fcrkentaube (Streptopelia decaocto)","ispublic":1,"isfriend":0,"isfamily":0},{"id":"52684614451","owner":"132908081@N06","secret":"c71108baa4","server":"65535","farm":66,"title":"ADS_0880_23135","ispublic":1,"isfriend":0,"isfamily":0},{"id":"52677580364","owner":"12639178@N07","secret":"34dab8a1ae","server":"65535","farm":66,"title":"zuverl\u00e4ssige G\u00e4ste im Garten :-)","ispublic":1,"isfriend":0,"isfamily":0},{"id":"52677131606","owner":"197653954@N02","secret":"c27fcc051b","server":"65535","farm":66,"title":"Eurasian collared dove in a cold wind","ispublic":1,"isfriend":0,"isfamily":0},{"id":"52673918948","owner":"12639178@N07","secret":"ec091cc728","server":"65535","farm":66,"title":"T\u00fcrkentaube (Streptopelia decaocto)","ispublic":1,"isfriend":0,"isfamily":0},{"id":"52673708224","owner":"12639178@N07","secret":"e8343c5b38","server":"65535","farm":66,"title":"T\u00fcrkentaube (Streptopelia decaocto)","ispublic":1,"isfriend":0,"isfamily":0},{"id":"52673908898","owner":"12639178@N07","secret":"94ec7a918d","server":"65535","farm":66,"title":"In aller \u00d6ffentlichkeit: T\u00fcrkentaube (Streptopelia decaocto)","ispublic":1,"isfriend":0,"isfamily":0},{"id":"52666559295","owner":"12639178@N07","secret":"514457198c","server":"65535","farm":66,"title":"Ich bin jetzt wirklich sauber! Stell endlich die Dusche ab...","ispublic":1,"isfriend":0,"isfamily":0}]},"stat":"ok"}