{"photos":{"page":1,"pages":351,"perpage":100,"total":35082,"photo":[{"id":"52724120561","owner":"197328390@N08","secret":"5e20d30482","server":"65535","farm":66,"title":"spreeuw \"sturnus vulgaris\"","ispublic":1,"isfriend":0,"isfamily":0},{"id":"52724553283","owner":"12639178@N07","secret":"01c329be53","server":"65535","farm":66,"title":"Was ist das f\u00fcr ein Vogel?","ispublic":1,"isfriend":0,"isfamily":0},{"id":"52723552732","owner":"12639178@N07","secret":"a34a05818d","server":"65535","farm":66,"title":"Stare (Sturnus vulgaris)","ispublic":1,"isfriend":0,"isfamily":0},{"id":"52724077381","owner":"12639178@N07","secret":"a58d563bcb","server":"65535","farm":66,"title":"Stare (Sturnus vulgaris)","ispublic":1,"isfriend":0,"isfamily":0},{"id":"52724483305","owner":"12639178@N07","secret":"920cdd0f00","server":"65535","farm":66,"title":"Stare (Sturnus vulgaris)","ispublic":1,"isfriend":0,"isfamily":0},{"id":"52724257604","owner":"12639178@N07","secret":"0d77fd9505","server":"65535","farm":66,"title":"Starenschwarm","ispublic":1,"isfriend":0,"isfamily":0},{"id":"52724169919","owner":"12639178@N07","secret":"600b2cb525","server":"65535","farm":66,"title":"Star (Sturnus vulgaris) (1)","ispublic":1,"isfriend":0,"isfamily":0},{"id":"52724046233","owner":"78356939@N05","secret":"83603ff338","server":"65535","farm":66,"title":"Sturnus vulgaris","ispublic":1,"isfriend":0,"isfamily":0},{"id":"52720512397","owner":"182124861@N08","secret":"8d437c6cda","server":"0","farm":0,"title":"Starlings Roosting after a Huge Murmeration at Far Ings National Nature Reserve, Far Ings Road, Barton-upon-Humber DN18 5RG, February 15th 2023.","ispublic":1,"isfriend":0,"isfamily":0},{"id":"52723398676","owner":"12639178@N07","secret":"f389025e39","server":"65535","farm":66,"title":"Star (Sturnus vulgaris) (2)","ispublic":1,"isfriend":0,"isfamily":0},{"id":"52722871762","owner":"12639178@N07","secret":"3d71c16daf","server":"65535","farm":66,"title":"Star (Sturnus vulgaris) (1)","ispublic":1,"isfriend":0,"isfamily":0},{"id":"52722802452","owner":"18217058@N04","secret":"de0f022288","server":"65535","farm":66,"title":"Starar \/ Starlings (Sturnus vulgaris)","ispublic":1,"isfriend":0,"isfamily":0},{"id":"52723330281","owner":"18217058@N04","secret":"56ebf590e4","server":"65535","farm":66,"title":"Starar \/ Starlings (Sturnus vulgaris)","ispublic":1,"isfriend":0,"isfamily":0},{"id":"52723517524","owner":"39854996@N00","secret":"817ccd1fbe","server":"65535","farm":66,"title":"Common starling \"Sturnus vulgaris\"","ispublic":1,"isfriend":0,"isfamily":0},{"id":"52721774261","owner":"12639178@N07","secret":"40afc1e5d0","server":"65535","farm":66,"title":"Star","ispublic":1,"isfriend":0,"isfamily":0},{"id":"52721774026","owner":"12639178@N07","secret":"6ddfe63ca3","server":"65535","farm":66,"title":"Star auf altem Streuobstbaum","ispublic":1,"isfriend":0,"isfamily":0},{"id":"52721200917","owner":"12639178@N07","secret":"aa4d2621a0","server":"65535","farm":66,"title":"Star (Sturnus vulgaris) (3)","ispublic":1,"isfriend":0,"isfamily":0},{"id":"52721724651","owner":"12639178@N07","secret":"1027d2b46b","server":"65535","farm":66,"title":"Star (Sturnus vulgaris) (2)","ispublic":1,"isfriend":0,"isfamily":0},{"id":"52722134820","owner":"12639178@N07","secret":"713723b3c6","server":"65535","farm":66,"title":"kreischende Rufe, ca 60 V\u00f6gel landen auf Nussbaum  2.3.2318:00 Vermutung St","ispublic":1,"isfriend":0,"isfamily":0},{"id":"52721000832","owner":"12639178@N07","secret":"67bc5e1e3f","server":"65535","farm":66,"title":"Star","ispublic":1,"isfriend":0,"isfamily":0},{"id":"52721100796","owner":"92193497@N03","secret":"2f7c89219b","server":"65535","farm":66,"title":"Sturnus vulgaris","ispublic":1,"isfriend":0,"isfamily":0},{"id":"52721214024","owner":"12639178@N07","secret":"3b85d61686","server":"65535","farm":66,"title":"Star (Sturnus vulgaris)","ispublic":1,"isfriend":0,"isfamily":0},{"id":"52721213924","owner":"12639178@N07","secret":"67ee7e62b9","server":"65535","farm":66,"title":"Star (Sturnus vulgaris)","ispublic":1,"isfriend":0,"isfamily":0},{"id":"52720109581","owner":"64058203@N05","secret":"ed194c6aa0","server":"65535","farm":66,"title":"Starling","ispublic":1,"isfriend":0,"isfamily":0},{"id":"52719993635","owner":"12639178@N07","secret":"f3265a2ab6","server":"65535","farm":66,"title":"Star","ispublic":1,"isfriend":0,"isfamily":0},{"id":"52719993355","owner":"12639178@N07","secret":"edf9bd7a47","server":"65535","farm":66,"title":"Star","ispublic":1,"isfriend":0,"isfamily":0},{"id":"52720059158","owner":"12639178@N07","secret":"0232f71917","server":"65535","farm":66,"title":"Stare","ispublic":1,"isfriend":0,"isfamily":0},{"id":"52719992965","owner":"12639178@N07","secret":"9f6a84526d","server":"65535","farm":66,"title":"Stare","ispublic":1,"isfriend":0,"isfamily":0},{"id":"52720017423","owner":"64219570@N03","secret":"734b228676","server":"65535","farm":66,"title":"Murmuration of the Starlings-Sturnus vulgaris at  the i360, Brighton Beach, East Sussex, Uk","ispublic":1,"isfriend":0,"isfamily":0},{"id":"52719254054","owner":"125741467@N05","secret":"bd91904a1d","server":"65535","farm":66,"title":"Starling","ispublic":1,"isfriend":0,"isfamily":0},{"id":"52719001849","owner":"12639178@N07","secret":"72a7473b13","server":"65535","farm":66,"title":"Star (Sturnus vulgaris) (2)","ispublic":1,"isfriend":0,"isfamily":0},{"id":"52719001754","owner":"12639178@N07","secret":"3464fa3a3c","server":"65535","farm":66,"title":"Star (Sturnus vulgaris) (1)","ispublic":1,"isfriend":0,"isfamily":0},{"id":"52717889842","owner":"12639178@N07","secret":"d3997ff49f","server":"65535","farm":66,"title":"Star (Sturnus vulgaris)","ispublic":1,"isfriend":0,"isfamily":0},{"id":"52718900498","owner":"12639178@N07","secret":"f38c84974a","server":"65535","farm":66,"title":"Star (Sturnus vulgaris)","ispublic":1,"isfriend":0,"isfamily":0},{"id":"52718836110","owner":"12639178@N07","secret":"42b69720cf","server":"65535","farm":66,"title":"Star (Sturnus vulgaris)","ispublic":1,"isfriend":0,"isfamily":0},{"id":"52718835955","owner":"12639178@N07","secret":"e8cb251df0","server":"65535","farm":66,"title":"Starparade","ispublic":1,"isfriend":0,"isfamily":0},{"id":"52718893483","owner":"12639178@N07","secret":"48af6d9699","server":"65535","farm":66,"title":"Star (Sturnus vulgaris)","ispublic":1,"isfriend":0,"isfamily":0},{"id":"52718893368","owner":"12639178@N07","secret":"d777616bfa","server":"65535","farm":66,"title":"Star (Sturnus vulgaris)","ispublic":1,"isfriend":0,"isfamily":0},{"id":"52718893193","owner":"12639178@N07","secret":"3e2313f77f","server":"65535","farm":66,"title":"Star","ispublic":1,"isfriend":0,"isfamily":0},{"id":"52718068921","owner":"12639178@N07","secret":"2a6c872ecf","server":"65535","farm":66,"title":"nach einer kalten Nacht auf Nachbars Nussbaum","ispublic":1,"isfriend":0,"isfamily":0},{"id":"52717431527","owner":"12639178@N07","secret":"6c135ba5ce","server":"65535","farm":66,"title":"zwei Stare, von weitem sah der untere wie Misteldrossel aus","ispublic":1,"isfriend":0,"isfamily":0},{"id":"52718440508","owner":"12639178@N07","secret":"45f4b4009e","server":"65535","farm":66,"title":"ein Star...","ispublic":1,"isfriend":0,"isfamily":0},{"id":"52717768189","owner":"146359542@N05","secret":"910c7887b4","server":"65535","farm":66,"title":"Etourneau sansonnet 230227-01-RS","ispublic":1,"isfriend":0,"isfamily":0},{"id":"52717720504","owner":"12639178@N07","secret":"a044760c81","server":"65535","farm":66,"title":"Star","ispublic":1,"isfriend":0,"isfamily":0},{"id":"52717455836","owner":"12639178@N07","secret":"9f632ce65a","server":"65535","farm":66,"title":"Star","ispublic":1,"isfriend":0,"isfamily":0},{"id":"52717720239","owner":"12639178@N07","secret":"77947f5dfb","server":"65535","farm":66,"title":"Star","ispublic":1,"isfriend":0,"isfamily":0},{"id":"52715884261","owner":"12639178@N07","secret":"56918fa5e9","server":"65535","farm":66,"title":"Elster und Star - leider sieht man das sch\u00f6ne Gefieder nicht","ispublic":1,"isfriend":0,"isfamily":0},{"id":"52715966054","owner":"12639178@N07","secret":"9805eb4bc5","server":"65535","farm":66,"title":"Bunte Versammlung am Futterhaus: Star (hier selten!), Ringeltaube, T\u00fcrkenta","ispublic":1,"isfriend":0,"isfamily":0},{"id":"52715943385","owner":"84151258@N00","secret":"aef3bedff9","server":"65535","farm":66,"title":"Common Starling\/Druid\/Stare (Sturnus vulgaris)","ispublic":1,"isfriend":0,"isfamily":0},{"id":"52715746438","owner":"12291792@N05","secret":"00c761eeea","server":"65535","farm":66,"title":"Starling looking right","ispublic":1,"isfriend":0,"isfamily":0},{"id":"52714336992","owner":"12639178@N07","secret":"43202d3903","server":"65535","farm":66,"title":"Ein Hin- und ein Herfliegen - Stare (Sturnus vulgaris)","ispublic":1,"isfriend":0,"isfamily":0},{"id":"52715280435","owner":"12639178@N07","secret":"f4f2fec69c","server":"65535","farm":66,"title":"So dicht beieinander (Sturnus vulgaris)","ispublic":1,"isfriend":0,"isfamily":0},{"id":"52714336542","owner":"12639178@N07","secret":"ff7b5e4d58","server":"65535","farm":66,"title":"Jeder findet ein Pl\u00e4tzchen","ispublic":1,"isfriend":0,"isfamily":0},{"id":"52714496334","owner":"144980256@N07","secret":"6c0b0e0451","server":"65535","farm":66,"title":"European Starling (Sturnus vulgaris)","ispublic":1,"isfriend":0,"isfamily":0},{"id":"52713125896","owner":"81058247@N08","secret":"ccf946f15f","server":"65535","farm":66,"title":"European Starlings (Sturnus vulgaris)","ispublic":1,"isfriend":0,"isfamily":0},{"id":"52712978969","owner":"63907244@N02","secret":"6b2ca9dd84","server":"65535","farm":66,"title":"Star - Statling (Sturnus vulgaris)","ispublic":1,"isfriend":0,"isfamily":0},{"id":"52712745699","owner":"195498184@N08","secret":"9bc935665d","server":"65535","farm":66,"title":"\u00c9tourneau sansonnet","ispublic":1,"isfriend":0,"isfamily":0},{"id":"52711960522","owner":"195498184@N08","secret":"7c16ab6fc2","server":"65535","farm":66,"title":"\u00c9tourneau sansonnet","ispublic":1,"isfriend":0,"isfamily":0},{"id":"52712481341","owner":"195498184@N08","secret":"49e9aeee36","server":"65535","farm":66,"title":"\u00c9tourneau sansonnet","ispublic":1,"isfriend":0,"isfamily":0},{"id":"52711694852","owner":"24151359@N04","secret":"08c730d91e","server":"65535","farm":66,"title":"IMG_4889cc","ispublic":1,"isfriend":0,"isfamily":0},{"id":"52712186208","owner":"191137108@N06","secret":"6be9c13ffa","server":"65535","farm":66,"title":"Sturnus vulgaris \u2013 Albaching, Upper Bavaria, Germany","ispublic":1,"isfriend":0,"isfamily":0},{"id":"52711058443","owner":"12639178@N07","secret":"73be7c2cfd","server":"65535","farm":66,"title":"Das Wetter ist hier nicht so toll ...","ispublic":1,"isfriend":0,"isfamily":0},{"id":"52709897697","owner":"12639178@N07","secret":"c968e5ea3c","server":"65535","farm":66,"title":"Common Starling (Sturnus vulgaris), Russell, NZL","ispublic":1,"isfriend":0,"isfamily":0},{"id":"52708272607","owner":"77597999@N02","secret":"737904071e","server":"65535","farm":66,"title":"Storno  \/   Sturnus vulgaris","ispublic":1,"isfriend":0,"isfamily":0},{"id":"52708414005","owner":"146474332@N02","secret":"418b22cd27","server":"65535","farm":66,"title":"Common starling (Sturnus vulgaris)","ispublic":1,"isfriend":0,"isfamily":0},{"id":"52707480548","owner":"12639178@N07","secret":"5b3a6f61de","server":"65535","farm":66,"title":"Star (Sturnus vulgaris)","ispublic":1,"isfriend":0,"isfamily":0},{"id":"52706469942","owner":"12639178@N07","secret":"379476dcfe","server":"65535","farm":66,"title":"Star (Sturnus vulgaris)","ispublic":1,"isfriend":0,"isfamily":0},{"id":"52707243334","owner":"12639178@N07","secret":"9d077925c0","server":"65535","farm":66,"title":"Der macht seinem Namen alle Ehre Star (Sturnus vulgaris)","ispublic":1,"isfriend":0,"isfamily":0},{"id":"52707385768","owner":"12639178@N07","secret":"d3006f51be","server":"65535","farm":66,"title":"es werden t\u00e4glich mehr...","ispublic":1,"isfriend":0,"isfamily":0},{"id":"52707138769","owner":"12639178@N07","secret":"11397a96e3","server":"65535","farm":66,"title":"mit pr\u00e4chtigem Gefieder ...","ispublic":1,"isfriend":0,"isfamily":0},{"id":"52706081642","owner":"12639178@N07","secret":"3ef9513629","server":"65535","farm":66,"title":"Star am Wasser","ispublic":1,"isfriend":0,"isfamily":0},{"id":"52706607031","owner":"12639178@N07","secret":"d30b39319f","server":"65535","farm":66,"title":"Star m\u00f6chte ans Wasser - seit einer guten Woche zur\u00fcck","ispublic":1,"isfriend":0,"isfamily":0},{"id":"52705985392","owner":"188156748@N07","secret":"b5a41bbd55","server":"0","farm":0,"title":"European Starling \u2013 \u00c9tourneau Sansonnet \u2013 Sturnus Vulgaris.mp4","ispublic":1,"isfriend":0,"isfamily":0},{"id":"52706923260","owner":"188156748@N07","secret":"1737432337","server":"65535","farm":66,"title":"European Starling \u2013 \u00c9tourneau Sansonnet \u2013 Sturnus Vulgaris  4588 (36)-SharpenAI-Standard copy.jpgS","ispublic":1,"isfriend":0,"isfamily":0},{"id":"52705985562","owner":"188156748@N07","secret":"670d6d8609","server":"65535","farm":66,"title":"European Starling \u2013 \u00c9tourneau Sansonnet \u2013 Sturnus Vulgaris 3969 (10)-SharpenAI-Standard copy.jpgS","ispublic":1,"isfriend":0,"isfamily":0},{"id":"52706998243","owner":"188156748@N07","secret":"67c878a50b","server":"65535","farm":66,"title":"European Starling \u2013 \u00c9tourneau Sansonnet \u2013 Sturnus Vulgaris  4588 (5)-SharpenAI-Standard copy.jpgS.jpgB","ispublic":1,"isfriend":0,"isfamily":0},{"id":"52706511231","owner":"188156748@N07","secret":"e3afb2f1e1","server":"65535","farm":66,"title":"European Starling \u2013 \u00c9tourneau Sansonnet \u2013 Sturnus Vulgaris 3969 (11)-SharpenAI-Standard copy.jpgS","ispublic":1,"isfriend":0,"isfamily":0},{"id":"52705983722","owner":"188156748@N07","secret":"c30f331911","server":"65535","farm":66,"title":"European Starling \u2013 \u00c9tourneau Sansonnet \u2013 Sturnus Vulgaris 4645 (20)-SharpenAI-Standard copy.jpgS","ispublic":1,"isfriend":0,"isfamily":0},{"id":"52706844545","owner":"12639178@N07","secret":"0c6a9cac49","server":"65535","farm":66,"title":"der erste Star in unserer Stra\u00dfe","ispublic":1,"isfriend":0,"isfamily":0},{"id":"52706836290","owner":"12639178@N07","secret":"8521caaccf","server":"65535","farm":66,"title":"der erste Star in unserer Stra\u00dfe","ispublic":1,"isfriend":0,"isfamily":0},{"id":"52706575918","owner":"12639178@N07","secret":"2f11c63f45","server":"65535","farm":66,"title":"Star","ispublic":1,"isfriend":0,"isfamily":0},{"id":"52705561052","owner":"12639178@N07","secret":"b63c5333f1","server":"65535","farm":66,"title":"Star","ispublic":1,"isfriend":0,"isfamily":0},{"id":"52706575788","owner":"12639178@N07","secret":"79aefafe05","server":"65535","farm":66,"title":"Star","ispublic":1,"isfriend":0,"isfamily":0},{"id":"52706498245","owner":"12639178@N07","secret":"14750aac1d","server":"65535","farm":66,"title":"Star","ispublic":1,"isfriend":0,"isfamily":0},{"id":"52713363246","owner":"186211059@N06","secret":"6e813eddba","server":"65535","farm":66,"title":"Common Starling","ispublic":1,"isfriend":0,"isfamily":0},{"id":"52712837452","owner":"186211059@N06","secret":"d067bb80d1","server":"65535","farm":66,"title":"Common Starling","ispublic":1,"isfriend":0,"isfamily":0},{"id":"52713541718","owner":"12639178@N07","secret":"f1f3397438","server":"65535","farm":66,"title":"ungef\u00e4hr 60 bis 70 Stare im Schwarm","ispublic":1,"isfriend":0,"isfamily":0},{"id":"52713324279","owner":"12639178@N07","secret":"63e8dd135f","server":"65535","farm":66,"title":"ein Schwarm Stare bev\u00f6lkert die Dorfstra\u00dfe  :-))","ispublic":1,"isfriend":0,"isfamily":0},{"id":"52713540948","owner":"12639178@N07","secret":"565ca9e1a1","server":"65535","farm":66,"title":"Stare im Dorf","ispublic":1,"isfriend":0,"isfamily":0},{"id":"52712911621","owner":"12639178@N07","secret":"09265ce2b3","server":"65535","farm":66,"title":"Stare","ispublic":1,"isfriend":0,"isfamily":0},{"id":"52713188105","owner":"12639178@N07","secret":"12540016e4","server":"65535","farm":66,"title":"Wenn die Gro\u00dfen kommen\u2026","ispublic":1,"isfriend":0,"isfamily":0},{"id":"52712902834","owner":"12639178@N07","secret":"1f4a733f92","server":"65535","farm":66,"title":"Star bei der Hypnose","ispublic":1,"isfriend":0,"isfamily":0},{"id":"52712584519","owner":"12639178@N07","secret":"54423713d5","server":"65535","farm":66,"title":"Jungstar wartet auf Futter.","ispublic":1,"isfriend":0,"isfamily":0},{"id":"52712584189","owner":"12639178@N07","secret":"df0e1125f6","server":"65535","farm":66,"title":"Huuuunngggggeeeer","ispublic":1,"isfriend":0,"isfamily":0},{"id":"52711822764","owner":"12639178@N07","secret":"08acfcf71e","server":"65535","farm":66,"title":"Neuer Mieter ist da..","ispublic":1,"isfriend":0,"isfamily":0},{"id":"52711195064","owner":"12639178@N07","secret":"75df4fe716","server":"65535","farm":66,"title":"Star (Sturnus vulgaris)","ispublic":1,"isfriend":0,"isfamily":0},{"id":"52710236302","owner":"12639178@N07","secret":"2255d4d77e","server":"65535","farm":66,"title":"Hochglanzstar (P01)","ispublic":1,"isfriend":0,"isfamily":0},{"id":"52709839754","owner":"12639178@N07","secret":"d3f767dd5a","server":"65535","farm":66,"title":"Ein pr\u00e4chtige Star","ispublic":1,"isfriend":0,"isfamily":0},{"id":"52708672885","owner":"12639178@N07","secret":"cd8b6dc43d","server":"65535","farm":66,"title":"Star (Sturnus vulgaris)","ispublic":1,"isfriend":0,"isfamily":0},{"id":"52705926809","owner":"12639178@N07","secret":"088daf7b0b","server":"65535","farm":66,"title":"Der Nimmersatt an der Futterstelle - Star (Sturnus vulgaris)","ispublic":1,"isfriend":0,"isfamily":0}]},"stat":"ok"}