{"photos":{"page":1,"pages":9,"perpage":100,"total":806,"photo":[{"id":"52675634597","owner":"195041250@N03","secret":"de07c0456d","server":"65535","farm":66,"title":"Fish Crow","ispublic":1,"isfriend":0,"isfamily":0},{"id":"52657613905","owner":"152433224@N05","secret":"226ec0fa64","server":"65535","farm":66,"title":"DSC_6252","ispublic":1,"isfriend":0,"isfamily":0},{"id":"52657613800","owner":"152433224@N05","secret":"14b294e51c","server":"65535","farm":66,"title":"DSC_6253","ispublic":1,"isfriend":0,"isfamily":0},{"id":"52492516871","owner":"32665930@N04","secret":"34566c2236","server":"65535","farm":66,"title":"Fish crow","ispublic":1,"isfriend":0,"isfamily":0},{"id":"52493067523","owner":"32665930@N04","secret":"0e5dca0dd1","server":"65535","farm":66,"title":"Fish crow","ispublic":1,"isfriend":0,"isfamily":0},{"id":"52492981340","owner":"32665930@N04","secret":"498a2b94f4","server":"65535","farm":66,"title":"Fish crow","ispublic":1,"isfriend":0,"isfamily":0},{"id":"52492515846","owner":"32665930@N04","secret":"139f5749f3","server":"65535","farm":66,"title":"Fish crow","ispublic":1,"isfriend":0,"isfamily":0},{"id":"52479889188","owner":"90886369@N06","secret":"8c76c664ef","server":"65535","farm":66,"title":"Fish Crow (Corvus ossifragus)","ispublic":1,"isfriend":0,"isfamily":0},{"id":"52305293534","owner":"67164820@N06","secret":"34663118d6","server":"65535","farm":66,"title":"fish crow","ispublic":1,"isfriend":0,"isfamily":0},{"id":"52304781516","owner":"67164820@N06","secret":"bda4071218","server":"65535","farm":66,"title":"fish crow 2","ispublic":1,"isfriend":0,"isfamily":0},{"id":"52305246063","owner":"67164820@N06","secret":"01058c3704","server":"65535","farm":66,"title":"fish crow 3","ispublic":1,"isfriend":0,"isfamily":0},{"id":"52254131205","owner":"12639178@N07","secret":"ccec529471","server":"65535","farm":66,"title":"Rufende Kr\u00e4he","ispublic":1,"isfriend":0,"isfamily":0},{"id":"52250669329","owner":"28631427@N00","secret":"9b3918a494","server":"65535","farm":66,"title":"Fish Crow 1","ispublic":1,"isfriend":0,"isfamily":0},{"id":"52249405887","owner":"28631427@N00","secret":"e18947af5b","server":"65535","farm":66,"title":"Fish Crow 2","ispublic":1,"isfriend":0,"isfamily":0},{"id":"52250365426","owner":"28631427@N00","secret":"a71a6a3bda","server":"65535","farm":66,"title":"Fish Crow 3","ispublic":1,"isfriend":0,"isfamily":0},{"id":"52258046928","owner":"18331229@N03","secret":"7c617ac0d2","server":"65535","farm":66,"title":"Crow at the Beach","ispublic":1,"isfriend":0,"isfamily":0},{"id":"52258029121","owner":"18331229@N03","secret":"240eeaf7d9","server":"65535","farm":66,"title":"On the Fence","ispublic":1,"isfriend":0,"isfamily":0},{"id":"52258313319","owner":"18331229@N03","secret":"4c33cf26f5","server":"65535","farm":66,"title":"In the Air","ispublic":1,"isfriend":0,"isfamily":0},{"id":"52154226227","owner":"79422714@N05","secret":"834cbbb201","server":"65535","farm":66,"title":"Fish Crow (Corvus ossifragus)","ispublic":1,"isfriend":0,"isfamily":0},{"id":"52148254795","owner":"33726922@N05","secret":"071b711ae1","server":"65535","farm":66,"title":"Fish Crow","ispublic":1,"isfriend":0,"isfamily":0},{"id":"52082137202","owner":"62119764@N08","secret":"c4a88303c7","server":"65535","farm":66,"title":"Rare bird at the Prince Edward Point National Wildlife Area | Fish Crow | Corvus ossifragus | Corneille de rivage","ispublic":1,"isfriend":0,"isfamily":0},{"id":"52055672447","owner":"32665930@N04","secret":"ec04e24805","server":"65535","farm":66,"title":"fish crow","ispublic":1,"isfriend":0,"isfamily":0},{"id":"52039051635","owner":"71989271@N06","secret":"4c3f54e8fc","server":"65535","farm":66,"title":"Fish Crow (Corvus ossifragus)","ispublic":1,"isfriend":0,"isfamily":0},{"id":"52037494992","owner":"71989271@N06","secret":"b62bfd237b","server":"65535","farm":66,"title":"Fish Crow (Corvus ossifragus)","ispublic":1,"isfriend":0,"isfamily":0},{"id":"52038785034","owner":"71989271@N06","secret":"a6cdf28292","server":"65535","farm":66,"title":"Fish Crow (Corvus ossifragus)","ispublic":1,"isfriend":0,"isfamily":0},{"id":"52038588118","owner":"71989271@N06","secret":"43164da74b","server":"65535","farm":66,"title":"Fish Crow (Corvus ossifragus)","ispublic":1,"isfriend":0,"isfamily":0},{"id":"52037494927","owner":"71989271@N06","secret":"45dd5565de","server":"65535","farm":66,"title":"Fish Crow (Corvus ossifragus)","ispublic":1,"isfriend":0,"isfamily":0},{"id":"52032478436","owner":"151381692@N04","secret":"d31cbb9833","server":"65535","farm":66,"title":"Fish Crow (Corvus ossifragus)","ispublic":1,"isfriend":0,"isfamily":0},{"id":"52030960287","owner":"39177293@N03","secret":"3bd0862ca5","server":"65535","farm":66,"title":"Fish Crow","ispublic":1,"isfriend":0,"isfamily":0},{"id":"52032489330","owner":"39177293@N03","secret":"2665fec69b","server":"65535","farm":66,"title":"Fish Crow","ispublic":1,"isfriend":0,"isfamily":0},{"id":"52015486007","owner":"71989271@N06","secret":"9f055bdc42","server":"65535","farm":66,"title":"Fish Crow (Corvus ossifragus)","ispublic":1,"isfriend":0,"isfamily":0},{"id":"52015485977","owner":"71989271@N06","secret":"6dfb77b654","server":"65535","farm":66,"title":"Fish Crow (Corvus ossifragus)","ispublic":1,"isfriend":0,"isfamily":0},{"id":"51986492628","owner":"39177293@N03","secret":"42e7f5cf36","server":"65535","farm":66,"title":"Fish Crow","ispublic":1,"isfriend":0,"isfamily":0},{"id":"51965424794","owner":"81080668@N06","secret":"4aac6f2b61","server":"65535","farm":66,"title":"Mr. Crow","ispublic":1,"isfriend":0,"isfamily":0},{"id":"51964449934","owner":"71989271@N06","secret":"10e6099725","server":"65535","farm":66,"title":"Fish Crow (Corvus ossifragus)","ispublic":1,"isfriend":0,"isfamily":0},{"id":"51964726975","owner":"71989271@N06","secret":"efc33fd401","server":"65535","farm":66,"title":"Fish Crow (Corvus ossifragus)","ispublic":1,"isfriend":0,"isfamily":0},{"id":"51944301076","owner":"39177293@N03","secret":"3e32384080","server":"65535","farm":66,"title":"Fish Crow","ispublic":1,"isfriend":0,"isfamily":0},{"id":"51941216150","owner":"128537732@N06","secret":"ab2faedc13","server":"65535","farm":66,"title":"Fish Crow (Corvus ossifragus)","ispublic":1,"isfriend":0,"isfamily":0},{"id":"51915996664","owner":"39177293@N03","secret":"aa0339b406","server":"65535","farm":66,"title":"Fish Crow","ispublic":1,"isfriend":0,"isfamily":0},{"id":"51915996644","owner":"39177293@N03","secret":"bb5e169410","server":"65535","farm":66,"title":"Fish Crow","ispublic":1,"isfriend":0,"isfamily":0},{"id":"51888479472","owner":"71989271@N06","secret":"67ba3c98b9","server":"65535","farm":66,"title":"Fish Crow (Corvus ossifragus)","ispublic":1,"isfriend":0,"isfamily":0},{"id":"51889532173","owner":"71989271@N06","secret":"cb62d8df4a","server":"65535","farm":66,"title":"Fish Crow (Corvus ossifragus)","ispublic":1,"isfriend":0,"isfamily":0},{"id":"51866645639","owner":"71989271@N06","secret":"849c3011b5","server":"65535","farm":66,"title":"Fish Crow (Corvus ossifragus)","ispublic":1,"isfriend":0,"isfamily":0},{"id":"51866405013","owner":"71989271@N06","secret":"94eb87227b","server":"65535","farm":66,"title":"Fish Crow (Corvus ossifragus)","ispublic":1,"isfriend":0,"isfamily":0},{"id":"51866330141","owner":"71989271@N06","secret":"796081bb71","server":"65535","farm":66,"title":"Fish Crow (Corvus ossifragus)","ispublic":1,"isfriend":0,"isfamily":0},{"id":"51865360032","owner":"71989271@N06","secret":"c293f1f085","server":"65535","farm":66,"title":"Fish Crow (Corvus ossifragus)","ispublic":1,"isfriend":0,"isfamily":0},{"id":"51866404983","owner":"71989271@N06","secret":"7c03bf26ed","server":"65535","farm":66,"title":"Fish Crow (Corvus ossifragus)","ispublic":1,"isfriend":0,"isfamily":0},{"id":"51866979210","owner":"71989271@N06","secret":"112d10f2a3","server":"65535","farm":66,"title":"Fish Crow (Corvus ossifragus)","ispublic":1,"isfriend":0,"isfamily":0},{"id":"51866404903","owner":"71989271@N06","secret":"0afac4546b","server":"65535","farm":66,"title":"Fish Crow (Corvus ossifragus)","ispublic":1,"isfriend":0,"isfamily":0},{"id":"51866645519","owner":"71989271@N06","secret":"6a35af4e76","server":"65535","farm":66,"title":"Fish Crow (Corvus ossifragus)","ispublic":1,"isfriend":0,"isfamily":0},{"id":"51866404863","owner":"71989271@N06","secret":"3244cb09e8","server":"65535","farm":66,"title":"Fish Crow (Corvus ossifragus)","ispublic":1,"isfriend":0,"isfamily":0},{"id":"51866404808","owner":"71989271@N06","secret":"a20813a88b","server":"65535","farm":66,"title":"Fish Crow (Corvus ossifragus)","ispublic":1,"isfriend":0,"isfamily":0},{"id":"51859119349","owner":"67306066@N03","secret":"342f069d2c","server":"65535","farm":66,"title":"Fish Crow (Corvus ossifragus)","ispublic":1,"isfriend":0,"isfamily":0},{"id":"51690470440","owner":"135315828@N06","secret":"8ae6a7bc8e","server":"65535","farm":66,"title":"IMG_4625","ispublic":1,"isfriend":0,"isfamily":0},{"id":"51689581341","owner":"135315828@N06","secret":"986269bff6","server":"65535","farm":66,"title":"IMG_4675","ispublic":1,"isfriend":0,"isfamily":0},{"id":"51689581321","owner":"135315828@N06","secret":"d61b7259a7","server":"65535","farm":66,"title":"IMG_4698","ispublic":1,"isfriend":0,"isfamily":0},{"id":"51689843813","owner":"135315828@N06","secret":"e527ccb538","server":"65535","farm":66,"title":"IMG_4724","ispublic":1,"isfriend":0,"isfamily":0},{"id":"51689581286","owner":"135315828@N06","secret":"03bfb749b6","server":"65535","farm":66,"title":"IMG_4737","ispublic":1,"isfriend":0,"isfamily":0},{"id":"51690470385","owner":"135315828@N06","secret":"23a9347c3d","server":"65535","farm":66,"title":"IMG_4723","ispublic":1,"isfriend":0,"isfamily":0},{"id":"51688786532","owner":"135315828@N06","secret":"b3566df1a0","server":"65535","farm":66,"title":"IMG_4739","ispublic":1,"isfriend":0,"isfamily":0},{"id":"51688786547","owner":"135315828@N06","secret":"07dabb025b","server":"65535","farm":66,"title":"IMG_4738","ispublic":1,"isfriend":0,"isfamily":0},{"id":"51686229389","owner":"194341957@N06","secret":"d503dda7c5","server":"65535","farm":66,"title":"fish crow","ispublic":1,"isfriend":0,"isfamily":0},{"id":"51603621017","owner":"48014585@N00","secret":"0900190240","server":"65535","farm":66,"title":"Fish Crow","ispublic":1,"isfriend":0,"isfamily":0},{"id":"51605322075","owner":"48014585@N00","secret":"2a275df3d0","server":"65535","farm":66,"title":"Fish Crow","ispublic":1,"isfriend":0,"isfamily":0},{"id":"51604657698","owner":"48014585@N00","secret":"2a81519049","server":"65535","farm":66,"title":"Fish Crow","ispublic":1,"isfriend":0,"isfamily":0},{"id":"51604656208","owner":"48014585@N00","secret":"4e5bf9a0ba","server":"65535","farm":66,"title":"Fish Crow","ispublic":1,"isfriend":0,"isfamily":0},{"id":"51595777825","owner":"40941741@N03","secret":"d28b905521","server":"65535","farm":66,"title":"Fish Crow","ispublic":1,"isfriend":0,"isfamily":0},{"id":"51586676030","owner":"48014585@N00","secret":"2fccd5e302","server":"65535","farm":66,"title":"Fish Crow","ispublic":1,"isfriend":0,"isfamily":0},{"id":"51585998518","owner":"48014585@N00","secret":"7e8e8bbea1","server":"65535","farm":66,"title":"Fish Crow","ispublic":1,"isfriend":0,"isfamily":0},{"id":"51586672840","owner":"48014585@N00","secret":"5e6fe6fb1b","server":"65535","farm":66,"title":"Fish Crow","ispublic":1,"isfriend":0,"isfamily":0},{"id":"51585773986","owner":"48014585@N00","secret":"0033617af1","server":"65535","farm":66,"title":"Fish Crow","ispublic":1,"isfriend":0,"isfamily":0},{"id":"51584939242","owner":"48014585@N00","secret":"37d3e74015","server":"65535","farm":66,"title":"Fish Crow","ispublic":1,"isfriend":0,"isfamily":0},{"id":"51586668780","owner":"48014585@N00","secret":"3f49640280","server":"65535","farm":66,"title":"Fish Crow","ispublic":1,"isfriend":0,"isfamily":0},{"id":"51516146293","owner":"119787485@N07","secret":"bf10905fed","server":"65535","farm":66,"title":"Fish Crow (Corvus ossifragus) - 20190929-02","ispublic":1,"isfriend":0,"isfamily":0},{"id":"51386717166","owner":"23859768@N04","secret":"4f1434d2d9","server":"65535","farm":66,"title":"fish crow (Corvus ossifragus)","ispublic":1,"isfriend":0,"isfamily":0},{"id":"51354750720","owner":"54799211@N02","secret":"b7c179af2e","server":"65535","farm":66,"title":"Fish Crow","ispublic":1,"isfriend":0,"isfamily":0},{"id":"51300927551","owner":"136620261@N06","secret":"0034f0a1b8","server":"65535","farm":66,"title":"Corneille de rivage, Corvus ossifragus, Fish Crow-5591-Edit.jpg","ispublic":1,"isfriend":0,"isfamily":0},{"id":"51301425694","owner":"33573751@N04","secret":"576569ab82","server":"65535","farm":66,"title":"Fish Crow (Corvus ossifragus) - Milford Point, Connecticut, USA","ispublic":1,"isfriend":0,"isfamily":0},{"id":"51299953172","owner":"33573751@N04","secret":"0e1141bbc9","server":"65535","farm":66,"title":"Fish Crow (Corvus ossifragus) - Milford Point, Connecticut, USA","ispublic":1,"isfriend":0,"isfamily":0},{"id":"51253599558","owner":"61021753@N02","secret":"2153f17dc4","server":"65535","farm":66,"title":"n412_w1150","ispublic":1,"isfriend":0,"isfamily":0},{"id":"51221571463","owner":"32665930@N04","secret":"f11c53d566","server":"65535","farm":66,"title":"Fish crow","ispublic":1,"isfriend":0,"isfamily":0},{"id":"51181569628","owner":"76617062@N08","secret":"59a9f44aed","server":"65535","farm":66,"title":"1.18938 Corneille de rivage \/ Corvus ossifragus \/ Fish Crow","ispublic":1,"isfriend":0,"isfamily":0},{"id":"51181569608","owner":"76617062@N08","secret":"d05da950fa","server":"65535","farm":66,"title":"1.18938 Corneille de rivage \/ Corvus ossifragus \/ Fish Crow","ispublic":1,"isfriend":0,"isfamily":0},{"id":"51172550903","owner":"184155060@N04","secret":"b2550dd36b","server":"65535","farm":66,"title":"20653 Corneille de rivage \/ Corvus ossifragus \/ Fish Crow","ispublic":1,"isfriend":0,"isfamily":0},{"id":"51170797763","owner":"44075517@N00","secret":"bbfbe0cbe1","server":"65535","farm":66,"title":"Fish Crows, Corvus ossifragus Wilson, 1812","ispublic":1,"isfriend":0,"isfamily":0},{"id":"51150993777","owner":"135315828@N06","secret":"3e0d05dc8f","server":"65535","farm":66,"title":"IMG_5988","ispublic":1,"isfriend":0,"isfamily":0},{"id":"51141148366","owner":"128537732@N06","secret":"c1858b27f0","server":"65535","farm":66,"title":"Fish Crow - Corvus ossifragus","ispublic":1,"isfriend":0,"isfamily":0},{"id":"51139631131","owner":"119468907@N03","secret":"6a6946f3e0","server":"65535","farm":66,"title":"Corneille de rivage_R5DJ7180","ispublic":1,"isfriend":0,"isfamily":0},{"id":"51140731905","owner":"119468907@N03","secret":"dbd4952b81","server":"65535","farm":66,"title":"Corneille de rivage_R5DJ7200","ispublic":1,"isfriend":0,"isfamily":0},{"id":"51139627366","owner":"119468907@N03","secret":"d4757497e9","server":"65535","farm":66,"title":"Corneille de rivage_R5DJ7218","ispublic":1,"isfriend":0,"isfamily":0},{"id":"51138950957","owner":"119468907@N03","secret":"ef3c7c55b4","server":"65535","farm":66,"title":"Corneille de rivage_R5DJ7297","ispublic":1,"isfriend":0,"isfamily":0},{"id":"51138284778","owner":"26803925@N05","secret":"ffb61a69af","server":"65535","farm":66,"title":"Fish Crow (Corvus ossifragus) 03-14-2021 North Beach, Calvert Co. MD","ispublic":1,"isfriend":0,"isfamily":0},{"id":"51860226393","owner":"119468907@N03","secret":"38a14981ab","server":"0","farm":0,"title":"Corneille de rivage","ispublic":1,"isfriend":0,"isfamily":0},{"id":"51133644637","owner":"19623720@N00","secret":"9cd0eb6f2d","server":"65535","farm":66,"title":"Portrait of a Fish Crow","ispublic":1,"isfriend":0,"isfamily":0},{"id":"51134188696","owner":"82402390@N02","secret":"4073e2c843","server":"65535","farm":66,"title":"Corneille de rivage, Fish Crow  DSC_4804","ispublic":1,"isfriend":0,"isfamily":0},{"id":"51132648743","owner":"23859768@N04","secret":"58702ffbf5","server":"65535","farm":66,"title":"fish crow (Corvus ossifragus)","ispublic":1,"isfriend":0,"isfamily":0},{"id":"51859132169","owner":"67306066@N03","secret":"73b8e40e2b","server":"65535","farm":66,"title":"Fish Crow (Corvus ossifragus)","ispublic":1,"isfriend":0,"isfamily":0},{"id":"51858867193","owner":"67306066@N03","secret":"df9461fef8","server":"65535","farm":66,"title":"Fish Crow (Corvus ossifragus)","ispublic":1,"isfriend":0,"isfamily":0},{"id":"51858782731","owner":"67306066@N03","secret":"0c953fc6e0","server":"65535","farm":66,"title":"Fish Crow (Corvus ossifragus)","ispublic":1,"isfriend":0,"isfamily":0},{"id":"51290500104","owner":"99208129@N08","secret":"bbce1f01fc","server":"65535","farm":66,"title":"Corvus ossifragus \/ Fish Crow","ispublic":1,"isfriend":0,"isfamily":0}]},"stat":"ok"}