{"photos":{"page":1,"pages":19,"perpage":100,"total":1894,"photo":[{"id":"52679421845","owner":"191391950@N02","secret":"a5440c80c6","server":"65535","farm":66,"title":"Fauvette des jardins - Sylvia borin","ispublic":1,"isfriend":0,"isfamily":0},{"id":"52673106688","owner":"12639178@N07","secret":"23f3817562","server":"65535","farm":66,"title":"Sylvia borin, Gartengrasm\u00fccke, M\u00e4nnchen","ispublic":1,"isfriend":0,"isfamily":0},{"id":"52635230605","owner":"150142984@N02","secret":"cffc803094","server":"65535","farm":66,"title":"Gartengrasm\u00fccke (Sylvia borin)","ispublic":1,"isfriend":0,"isfamily":0},{"id":"52619683278","owner":"50783922@N06","secret":"eaf252a422","server":"65535","farm":66,"title":"Garden Warbler (Sylvia borin)","ispublic":1,"isfriend":0,"isfamily":0},{"id":"52561422233","owner":"29882791@N02","secret":"8fd681200b","server":"65535","farm":66,"title":"Sylviidae - Sylvia borin","ispublic":1,"isfriend":0,"isfamily":0},{"id":"52558758443","owner":"193492169@N05","secret":"a83921092d","server":"65535","farm":66,"title":"Curruca mosquitera - Garden Warbler - Sylvia borin","ispublic":1,"isfriend":0,"isfamily":0},{"id":"52556854130","owner":"58280154@N07","secret":"aaf06dcf02","server":"65535","farm":66,"title":"Garden Warbler - Fauvette des jardins - Sylvia borin","ispublic":1,"isfriend":0,"isfamily":0},{"id":"52500904133","owner":"29957810@N08","secret":"e959190c31","server":"65535","farm":66,"title":"Toutinegra-das-figueiras Sylvia borin","ispublic":1,"isfriend":0,"isfamily":0},{"id":"52500904143","owner":"29957810@N08","secret":"6bef4f2c96","server":"65535","farm":66,"title":"Toutinegra-das-figueiras Sylvia borin","ispublic":1,"isfriend":0,"isfamily":0},{"id":"52500631224","owner":"29957810@N08","secret":"dd244d338c","server":"65535","farm":66,"title":"Toutinegra-das-figueiras Sylvia borin","ispublic":1,"isfriend":0,"isfamily":0},{"id":"52500631154","owner":"29957810@N08","secret":"9c1a26a9ac","server":"65535","farm":66,"title":"Toutinegra-das-figueiras Sylvia borin","ispublic":1,"isfriend":0,"isfamily":0},{"id":"52497626739","owner":"140840987@N03","secret":"f6a1d0b27a","server":"65535","farm":66,"title":"Curruca mosquitera\u200b (Sylvia borin)","ispublic":1,"isfriend":0,"isfamily":0},{"id":"52493204530","owner":"129081014@N03","secret":"6c4ddfc469","server":"65535","farm":66,"title":"Garden Warbler (Sylvia borin)","ispublic":1,"isfriend":0,"isfamily":0},{"id":"52488598906","owner":"53783366@N04","secret":"7c8cccd33b","server":"65535","farm":66,"title":"Garden Warbler - Gar\u00f0s\u00f6ngvari - Sylvia borin & Common Blackcap - Hettus\u00f6ngvari - Sylvia atricapilla","ispublic":1,"isfriend":0,"isfamily":0},{"id":"52488598871","owner":"53783366@N04","secret":"bea4881207","server":"65535","farm":66,"title":"Garden Warbler - Gar\u00f0s-ngvari - Sylvia borin","ispublic":1,"isfriend":0,"isfamily":0},{"id":"52489069575","owner":"53783366@N04","secret":"7397284ffb","server":"65535","farm":66,"title":"Garden Warbler - Gar\u00f0s-ngvari - Sylvia borin","ispublic":1,"isfriend":0,"isfamily":0},{"id":"52488105987","owner":"53783366@N04","secret":"f03b991952","server":"65535","farm":66,"title":"Garden Warbler - Gar\u00f0s-ngvari - Sylvia borin","ispublic":1,"isfriend":0,"isfamily":0},{"id":"52453416302","owner":"77597999@N02","secret":"c1b1506c4e","server":"65535","farm":66,"title":"Sylvia borin \/ Beccafico \/ Garden warbler","ispublic":1,"isfriend":0,"isfamily":0},{"id":"52447920903","owner":"156090455@N08","secret":"d7c551542c","server":"65535","farm":66,"title":"268\/2022 - Curruca mosquitera (Sylvia borin).","ispublic":1,"isfriend":0,"isfamily":0},{"id":"52409308560","owner":"191720657@N04","secret":"00f8113232","server":"65535","farm":66,"title":"Felosa-das-figueiras","ispublic":1,"isfriend":0,"isfamily":0},{"id":"52375949364","owner":"30793779@N04","secret":"e6572b05ef","server":"65535","farm":66,"title":"CURRUCA MOSQUITERA * Sylvia borin 14 cm.","ispublic":1,"isfriend":0,"isfamily":0},{"id":"52373880180","owner":"112292182@N02","secret":"91ee59a07d","server":"65535","farm":66,"title":"Garden Warbler","ispublic":1,"isfriend":0,"isfamily":0},{"id":"52360941467","owner":"8103700@N04","secret":"007d91b357","server":"65535","farm":66,"title":"Felosa-das-figueiras","ispublic":1,"isfriend":0,"isfamily":0},{"id":"52357565865","owner":"43684069@N05","secret":"aa8c4afd8a","server":"65535","farm":66,"title":"Garden Warbler","ispublic":1,"isfriend":0,"isfamily":0},{"id":"52353309438","owner":"111753457@N03","secret":"3fcc6c98d7","server":"65535","farm":66,"title":"_MG_0840   Curruca mosquitera. Sylvia borin","ispublic":1,"isfriend":0,"isfamily":0},{"id":"52352638126","owner":"111753457@N03","secret":"0db301d2ff","server":"65535","farm":66,"title":"_MG_0932      Curruca mosquitera. Sylvia borin","ispublic":1,"isfriend":0,"isfamily":0},{"id":"52353052275","owner":"77486845@N02","secret":"da932a351e","server":"65535","farm":66,"title":"JMF_4299-Tallarol gros, Sylvia borin","ispublic":1,"isfriend":0,"isfamily":0},{"id":"52351670246","owner":"183819232@N07","secret":"4f50a79b99","server":"65535","farm":66,"title":"Beccafico (Sylvia borin) su sanbuco","ispublic":1,"isfriend":0,"isfamily":0},{"id":"52350471868","owner":"112292182@N02","secret":"cdbff0b915","server":"65535","farm":66,"title":"Garden Warbler","ispublic":1,"isfriend":0,"isfamily":0},{"id":"52350388865","owner":"107133184@N04","secret":"c0428a35e9","server":"65535","farm":66,"title":"Garden Warbler (Sylvia borin)","ispublic":1,"isfriend":0,"isfamily":0},{"id":"52348508932","owner":"128243112@N08","secret":"c1c255a848","server":"65535","farm":66,"title":"Garden Warbler | Tuinfluiter (Sylvia borin)","ispublic":1,"isfriend":0,"isfamily":0},{"id":"52337564957","owner":"141427368@N03","secret":"d3282b3c55","server":"65535","farm":66,"title":"DSC_3057 Cona  beccafico tdn Sylvia borin","ispublic":1,"isfriend":0,"isfamily":0},{"id":"52338757833","owner":"141427368@N03","secret":"59c9ea14d4","server":"65535","farm":66,"title":"DSC_3074  , sylvia borin ,  beccafico","ispublic":1,"isfriend":0,"isfamily":0},{"id":"52306230631","owner":"37016147@N07","secret":"9dae208f3e","server":"65535","farm":66,"title":"Birds Around Me 0098 - Garden Warbler (Sylvia borin)","ispublic":1,"isfriend":0,"isfamily":0},{"id":"52306230566","owner":"37016147@N07","secret":"3e97a531b6","server":"65535","farm":66,"title":"Birds Around Me 0098 - Garden Warbler (Sylvia borin)","ispublic":1,"isfriend":0,"isfamily":0},{"id":"52306747119","owner":"37016147@N07","secret":"afd5df42dc","server":"65535","farm":66,"title":"Birds Around Me 0098 - Garden Warbler (Sylvia borin)","ispublic":1,"isfriend":0,"isfamily":0},{"id":"52306230491","owner":"37016147@N07","secret":"7fd7b2c6f1","server":"65535","farm":66,"title":"Birds Around Me 0098 - Garden Warbler (Sylvia borin)","ispublic":1,"isfriend":0,"isfamily":0},{"id":"52306760025","owner":"37016147@N07","secret":"acf0501e65","server":"65535","farm":66,"title":"Birds Around Me 0098 - Garden Warbler (Sylvia borin)","ispublic":1,"isfriend":0,"isfamily":0},{"id":"52306746934","owner":"37016147@N07","secret":"204c90cd50","server":"65535","farm":66,"title":"Birds Around Me 0098 - Garden Warbler (Sylvia borin)","ispublic":1,"isfriend":0,"isfamily":0},{"id":"52306746879","owner":"37016147@N07","secret":"582927b682","server":"65535","farm":66,"title":"Birds Around Me 0098 - Garden Warbler (Sylvia borin)","ispublic":1,"isfriend":0,"isfamily":0},{"id":"52306746844","owner":"37016147@N07","secret":"b90a94a21e","server":"65535","farm":66,"title":"Birds Around Me 0098 - Garden Warbler (Sylvia borin)","ispublic":1,"isfriend":0,"isfamily":0},{"id":"52306759790","owner":"37016147@N07","secret":"6240ff61b5","server":"65535","farm":66,"title":"Birds Around Me 0098 - Garden Warbler (Sylvia borin)","ispublic":1,"isfriend":0,"isfamily":0},{"id":"52306746744","owner":"37016147@N07","secret":"fef1e6e81f","server":"65535","farm":66,"title":"Birds Around Me 0098 - Garden Warbler (Sylvia borin)","ispublic":1,"isfriend":0,"isfamily":0},{"id":"52306692688","owner":"37016147@N07","secret":"5824afe33f","server":"65535","farm":66,"title":"Birds Around Me 0098 - Garden Warbler (Sylvia borin)","ispublic":1,"isfriend":0,"isfamily":0},{"id":"52306746574","owner":"37016147@N07","secret":"6bc1f24dde","server":"65535","farm":66,"title":"Birds Around Me 0098 - Garden Warbler (Sylvia borin)","ispublic":1,"isfriend":0,"isfamily":0},{"id":"52302961079","owner":"30793779@N04","secret":"ee26a9cde8","server":"65535","farm":66,"title":"CURRUCA MOSQUITERA * Sylvia borin 14 cm.","ispublic":1,"isfriend":0,"isfamily":0},{"id":"52294081916","owner":"97406694@N00","secret":"d1a8fbbcb3","server":"65535","farm":66,"title":"Gaj\u00f3wka, pokrzewka ogrodowa (Sylvia borin)","ispublic":1,"isfriend":0,"isfamily":0},{"id":"52294345019","owner":"97406694@N00","secret":"eb952816df","server":"65535","farm":66,"title":"Gaj\u00f3wka, pokrzewka ogrodowa (Sylvia borin)","ispublic":1,"isfriend":0,"isfamily":0},{"id":"52294344934","owner":"97406694@N00","secret":"040bdcfff9","server":"65535","farm":66,"title":"Gaj\u00f3wka, pokrzewka ogrodowa (Sylvia borin)","ispublic":1,"isfriend":0,"isfamily":0},{"id":"52294344849","owner":"97406694@N00","secret":"df855f32f2","server":"65535","farm":66,"title":"Gaj\u00f3wka, pokrzewka ogrodowa (Sylvia borin)","ispublic":1,"isfriend":0,"isfamily":0},{"id":"52294081546","owner":"97406694@N00","secret":"6cf901bf6b","server":"65535","farm":66,"title":"Gaj\u00f3wka, pokrzewka ogrodowa (Sylvia borin)","ispublic":1,"isfriend":0,"isfamily":0},{"id":"52269377427","owner":"184607861@N05","secret":"b5548596ac","server":"65535","farm":66,"title":"Fauvette des jardins - Sylvia Borin","ispublic":1,"isfriend":0,"isfamily":0},{"id":"52252964596","owner":"127588226@N08","secret":"67da46ba1b","server":"65535","farm":66,"title":"K33P3722c Garden Warbler, Fen Drayton Lakes, June 2022","ispublic":1,"isfriend":0,"isfamily":0},{"id":"52236655494","owner":"12639178@N07","secret":"1f53409c7a","server":"65535","farm":66,"title":"Gartengrasm\u00fccke","ispublic":1,"isfriend":0,"isfamily":0},{"id":"52235389732","owner":"12639178@N07","secret":"30a597f053","server":"65535","farm":66,"title":"Gartengrasm\u00fccke (Sylvia borin)","ispublic":1,"isfriend":0,"isfamily":0},{"id":"52236861865","owner":"12639178@N07","secret":"356ea9213f","server":"65535","farm":66,"title":"Gartengrasm\u00fccke (Sylvia borin)","ispublic":1,"isfriend":0,"isfamily":0},{"id":"52202824638","owner":"189264673@N06","secret":"ec9d3cecb4","server":"65535","farm":66,"title":"Tuinfluiter\/Garden warbler\/Sylvia borin","ispublic":1,"isfriend":0,"isfamily":0},{"id":"52166327347","owner":"33820263@N07","secret":"154f43eccd","server":"65535","farm":66,"title":"Garden Warbler","ispublic":1,"isfriend":0,"isfamily":0},{"id":"52153790004","owner":"149730384@N06","secret":"4aaa328e32","server":"65535","farm":66,"title":"Garden Warbler","ispublic":1,"isfriend":0,"isfamily":0},{"id":"52138027399","owner":"183840266@N08","secret":"30f7660071","server":"65535","farm":66,"title":"Garden Warbler \/ Lehtokerttu (Sylvia borin)","ispublic":1,"isfriend":0,"isfamily":0},{"id":"52599766097","owner":"197303808@N03","secret":"09a34d933e","server":"65535","farm":66,"title":"Garden Warbler (Sylvia borin)","ispublic":1,"isfriend":0,"isfamily":0},{"id":"52556854080","owner":"58280154@N07","secret":"418cf0de11","server":"65535","farm":66,"title":"Garden Warbler - Fauvette des jardins - Sylvia borin","ispublic":1,"isfriend":0,"isfamily":0},{"id":"52515356923","owner":"12639178@N07","secret":"dfeb9e70f2","server":"65535","farm":66,"title":"Gartengrasm\u00fccke","ispublic":1,"isfriend":0,"isfamily":0},{"id":"52512406469","owner":"12639178@N07","secret":"deab427c75","server":"65535","farm":66,"title":"Gartengrasm\u00fccke","ispublic":1,"isfriend":0,"isfamily":0},{"id":"52500631309","owner":"29957810@N08","secret":"01d7bfd3d0","server":"65535","farm":66,"title":"Toutinegra-das-figueiras Sylvia borin","ispublic":1,"isfriend":0,"isfamily":0},{"id":"52500824620","owner":"29957810@N08","secret":"0203c3538e","server":"65535","farm":66,"title":"Toutinegra-das-figueiras Sylvia borin","ispublic":1,"isfriend":0,"isfamily":0},{"id":"52429982703","owner":"12639178@N07","secret":"e280880e2b","server":"65535","farm":66,"title":"Gartengrasm\u00fccke","ispublic":1,"isfriend":0,"isfamily":0},{"id":"52427310444","owner":"12639178@N07","secret":"a66347a782","server":"65535","farm":66,"title":"Welcher Vogel ist das?","ispublic":1,"isfriend":0,"isfamily":0},{"id":"52427024321","owner":"12639178@N07","secret":"91556df326","server":"65535","farm":66,"title":"Welcher Vogel ist das?","ispublic":1,"isfriend":0,"isfamily":0},{"id":"52379781865","owner":"12639178@N07","secret":"b7cc9b7c81","server":"65535","farm":66,"title":"Gartengrasm\u00fccke (P01)","ispublic":1,"isfriend":0,"isfamily":0},{"id":"52377891286","owner":"145824323@N05","secret":"a1d38bbe1d","server":"65535","farm":66,"title":"Garden warbler (Sylvia borin)","ispublic":1,"isfriend":0,"isfamily":0},{"id":"52361463226","owner":"12639178@N07","secret":"db08edf138","server":"65535","farm":66,"title":"Gartengrasm\u00fccke","ispublic":1,"isfriend":0,"isfamily":0},{"id":"52361772624","owner":"12639178@N07","secret":"57d09c7df5","server":"65535","farm":66,"title":"Gartengrasm\u00fccke","ispublic":1,"isfriend":0,"isfamily":0},{"id":"52361463036","owner":"12639178@N07","secret":"1f644d14cf","server":"65535","farm":66,"title":"Gartengrasm\u00fccke","ispublic":1,"isfriend":0,"isfamily":0},{"id":"52355592067","owner":"183819232@N07","secret":"72f757daa0","server":"65535","farm":66,"title":"Beccafico (Sylvia borin) su sorbo","ispublic":1,"isfriend":0,"isfamily":0},{"id":"52352138149","owner":"183819232@N07","secret":"70af4cf8b7","server":"65535","farm":66,"title":"Beccafico (Sylvia borin) su sanbuco","ispublic":1,"isfriend":0,"isfamily":0},{"id":"52352172605","owner":"183819232@N07","secret":"0f42616623","server":"65535","farm":66,"title":"Beccafico (Sylvia borin) su sorbo","ispublic":1,"isfriend":0,"isfamily":0},{"id":"52336872929","owner":"12639178@N07","secret":"44d2df0afe","server":"65535","farm":66,"title":"Gartengrasm\u00fccke?","ispublic":1,"isfriend":0,"isfamily":0},{"id":"52327917067","owner":"154417921@N04","secret":"4866730185","server":"65535","farm":66,"title":"DSC08176 kopi\u00ebren","ispublic":1,"isfriend":0,"isfamily":0},{"id":"52312046502","owner":"12639178@N07","secret":"811993e924","server":"65535","farm":66,"title":"Gartengrasm\u00fccke (J01)","ispublic":1,"isfriend":0,"isfamily":0},{"id":"52293615651","owner":"161072502@N05","secret":"1e9bc7b96f","server":"65535","farm":66,"title":"fauvette des jardins, Sylvia borin","ispublic":1,"isfriend":0,"isfamily":0},{"id":"52258105772","owner":"45759259@N06","secret":"ab4b436abb","server":"65535","farm":66,"title":"Fauvette des jardins Sylvia borin Garden Warbler","ispublic":1,"isfriend":0,"isfamily":0},{"id":"52255852830","owner":"100763406@N04","secret":"3508be6923","server":"65535","farm":66,"title":"Garden warbler (Sylvia borin)","ispublic":1,"isfriend":0,"isfamily":0},{"id":"52251615081","owner":"12639178@N07","secret":"f207ce4868","server":"65535","farm":66,"title":"Gartengrasm\u00fccke (Sylvia borin) (1)","ispublic":1,"isfriend":0,"isfamily":0},{"id":"52201865878","owner":"193569705@N08","secret":"858ed49542","server":"65535","farm":66,"title":"IMG_6312","ispublic":1,"isfriend":0,"isfamily":0},{"id":"52199842319","owner":"12639178@N07","secret":"7b65bd04ff","server":"65535","farm":66,"title":"Gartengrasm\u00fccke","ispublic":1,"isfriend":0,"isfamily":0},{"id":"52192741849","owner":"55140357@N03","secret":"11f159520e","server":"65535","farm":66,"title":"tuinfluiter 2","ispublic":1,"isfriend":0,"isfamily":0},{"id":"52192970640","owner":"55140357@N03","secret":"61bc6e6ac4","server":"65535","farm":66,"title":"tuinfluiter 3","ispublic":1,"isfriend":0,"isfamily":0},{"id":"52191820384","owner":"186211059@N06","secret":"cfea3c81c3","server":"65535","farm":66,"title":"Garden Warbler","ispublic":1,"isfriend":0,"isfamily":0},{"id":"52190549767","owner":"186211059@N06","secret":"c5e70011ac","server":"65535","farm":66,"title":"Garden Warbler","ispublic":1,"isfriend":0,"isfamily":0},{"id":"52169006523","owner":"12639178@N07","secret":"e8ec6928ee","server":"65535","farm":66,"title":"junge Gartengrasm\u00fccke...","ispublic":1,"isfriend":0,"isfamily":0},{"id":"52155748031","owner":"12639178@N07","secret":"7e9e53bfce","server":"65535","farm":66,"title":"Gartengrasm\u00fccke (Sylvia borin) (1)","ispublic":1,"isfriend":0,"isfamily":0},{"id":"52155486053","owner":"12639178@N07","secret":"9e53ecfb02","server":"65535","farm":66,"title":"Gartengrasm\u00fccke (Sylvia borin) (2)","ispublic":1,"isfriend":0,"isfamily":0},{"id":"52154466137","owner":"12639178@N07","secret":"41e82eb846","server":"65535","farm":66,"title":"Im dichten Geb\u00fcsch unterwegs","ispublic":1,"isfriend":0,"isfamily":0},{"id":"52151303046","owner":"12639178@N07","secret":"ab35e3a476","server":"65535","farm":66,"title":"Gartengrasm\u00fccke","ispublic":1,"isfriend":0,"isfamily":0},{"id":"52147716346","owner":"12639178@N07","secret":"820dd7095f","server":"65535","farm":66,"title":"Gartengrasm\u00fccke?","ispublic":1,"isfriend":0,"isfamily":0},{"id":"52147732083","owner":"12639178@N07","secret":"4e4018c846","server":"65535","farm":66,"title":"Gartengrasm\u00fccke?","ispublic":1,"isfriend":0,"isfamily":0},{"id":"52137810128","owner":"183840266@N08","secret":"1be6538015","server":"65535","farm":66,"title":"Garden Warbler \/ Lehtokerttu (Sylvia borin)","ispublic":1,"isfriend":0,"isfamily":0},{"id":"52131953206","owner":"12639178@N07","secret":"34e0e3c43e","server":"65535","farm":66,"title":"Gartengrasm\u00fccke","ispublic":1,"isfriend":0,"isfamily":0},{"id":"52129723366","owner":"52886876@N05","secret":"20c455ca2b","server":"65535","farm":66,"title":"Garden Warbler?, Hagesanger?","ispublic":1,"isfriend":0,"isfamily":0}]},"stat":"ok"}