{"photos":{"page":1,"pages":109,"perpage":100,"total":10880,"photo":[{"id":"52724399368","owner":"45640758@N08","secret":"5d00439a57","server":"65535","farm":66,"title":"Glossy ibis (Plegadis falcinellus)","ispublic":1,"isfriend":0,"isfamily":0},{"id":"52721270862","owner":"135328172@N06","secret":"18352c174e","server":"65535","farm":66,"title":"Plegadis falcinellus - Glossy Ibis","ispublic":1,"isfriend":0,"isfamily":0},{"id":"52722199930","owner":"135328172@N06","secret":"f9a707cc8f","server":"65535","farm":66,"title":"Plegadis falcinellus - Glossy Ibis","ispublic":1,"isfriend":0,"isfamily":0},{"id":"52722048279","owner":"135328172@N06","secret":"475bdac574","server":"65535","farm":66,"title":"Plegadis falcinellus - Glossy Ibis","ispublic":1,"isfriend":0,"isfamily":0},{"id":"52722197585","owner":"135328172@N06","secret":"3f7531c54f","server":"65535","farm":66,"title":"Plegadis falcinellus - Glossy Ibis","ispublic":1,"isfriend":0,"isfamily":0},{"id":"52721053752","owner":"87356108@N05","secret":"4deb824bfb","server":"65535","farm":66,"title":"MORITO COMUN (Plegadis falcinellus)","ispublic":1,"isfriend":0,"isfamily":0},{"id":"52719811499","owner":"164807442@N02","secret":"0d4df9abcd","server":"65535","farm":66,"title":"Morito com\u00fan (Plegadis falcinellus)","ispublic":1,"isfriend":0,"isfamily":0},{"id":"52718838943","owner":"12639178@N07","secret":"51808c881c","server":"65535","farm":66,"title":"La Charca - Sichler","ispublic":1,"isfriend":0,"isfamily":0},{"id":"52718838813","owner":"12639178@N07","secret":"e55b9ec654","server":"65535","farm":66,"title":"La Charca - Sichler","ispublic":1,"isfriend":0,"isfamily":0},{"id":"52716087518","owner":"121021311@N02","secret":"aa0c33bba4","server":"65535","farm":66,"title":"Ibis falcinelle (Plegadis falcinellus) Glossy Ibis","ispublic":1,"isfriend":0,"isfamily":0},{"id":"52715632763","owner":"191720538@N06","secret":"cd4c93865c","server":"65535","farm":66,"title":"Glossy Ibis, 26 February, 2023 Keshopur Chumb lake, Gurdaspur, Punjab  OM1-300f4-MC14  1\/2000, f5.6, ISO640","ispublic":1,"isfriend":0,"isfamily":0},{"id":"52714558257","owner":"192278775@N04","secret":"d9b9a0cc2a","server":"65535","farm":66,"title":"Vol d'Ibis falcinellles","ispublic":1,"isfriend":0,"isfamily":0},{"id":"52714243855","owner":"36685968@N00","secret":"606785b7a7","server":"65535","farm":66,"title":"Glossy Ibis (Plegadis falcinellus)","ispublic":1,"isfriend":0,"isfamily":0},{"id":"52710965676","owner":"121021311@N02","secret":"f37857d328","server":"65535","farm":66,"title":"Ibis falcinelle (Plegadis falcinellus) Glossy Ibis","ispublic":1,"isfriend":0,"isfamily":0},{"id":"52709259031","owner":"145466593@N08","secret":"75e76d2177","server":"65535","farm":66,"title":"Glossy Ibis","ispublic":1,"isfriend":0,"isfamily":0},{"id":"52709462043","owner":"192799741@N08","secret":"ec629a0baf","server":"65535","farm":66,"title":"_P2A3470-Ibis falcinelle - Threskiornithide\u0301s - Plegadis falcinellus_","ispublic":1,"isfriend":0,"isfamily":0},{"id":"52709234109","owner":"192799741@N08","secret":"a908971d71","server":"65535","farm":66,"title":"_P2A3446-Ibis falcinelle - Threskiornithide\u0301s - Plegadis falcinellus","ispublic":1,"isfriend":0,"isfamily":0},{"id":"52709461648","owner":"192799741@N08","secret":"ce3a13c00f","server":"65535","farm":66,"title":"_P2A3439-Ibis falcinelle - Threskiornithide\u0301s - Plegadis falcinellus","ispublic":1,"isfriend":0,"isfamily":0},{"id":"52706636775","owner":"52450054@N04","secret":"d08be3ff41","server":"65535","farm":66,"title":"Glossy Ibis - Plegadis falcinellus, Merritt Island National Wildlife Refuge, Titusville, Florida, February 11, 2022","ispublic":1,"isfriend":0,"isfamily":0},{"id":"52704272543","owner":"123529713@N08","secret":"c5499f3883","server":"65535","farm":66,"title":"Capo reial - Morito comun - Glossy ibis - Ibis falcinelle - Plegadis falcinellus","ispublic":1,"isfriend":0,"isfamily":0},{"id":"52702651970","owner":"45640758@N08","secret":"b3d35da31b","server":"65535","farm":66,"title":"Glossy ibis (Plegadis falcinellus)","ispublic":1,"isfriend":0,"isfamily":0},{"id":"52700166057","owner":"59770980@N02","secret":"89069b8739","server":"65535","farm":66,"title":"Bognefur-Glossy Ibis-Plegadis falcinellus","ispublic":1,"isfriend":0,"isfamily":0},{"id":"52695865388","owner":"112608353@N02","secret":"e82d2cb771","server":"65535","farm":66,"title":"Glossy Standup","ispublic":1,"isfriend":0,"isfamily":0},{"id":"52693034144","owner":"128657933@N03","secret":"fed3cecf89","server":"65535","farm":66,"title":"Ibis facinelle .Plegadis falcinellus - Glossy Ibis .","ispublic":1,"isfriend":0,"isfamily":0},{"id":"52693175260","owner":"143283461@N04","secret":"6f09733451","server":"65535","farm":66,"title":"Morito Comun (Plegadis Falcinellus)","ispublic":1,"isfriend":0,"isfamily":0},{"id":"52689731578","owner":"54100598@N08","secret":"b6f80499b6","server":"65535","farm":66,"title":"Glossy Ibis (Plegadis falcinellus)","ispublic":1,"isfriend":0,"isfamily":0},{"id":"52689731563","owner":"54100598@N08","secret":"fe615cc6ab","server":"65535","farm":66,"title":"Glossy Ibis (Plegadis falcinellus)","ispublic":1,"isfriend":0,"isfamily":0},{"id":"52689241181","owner":"54100598@N08","secret":"3b1b519858","server":"65535","farm":66,"title":"Glossy Ibis (Plegadis falcinellus)","ispublic":1,"isfriend":0,"isfamily":0},{"id":"52689660985","owner":"54100598@N08","secret":"cc3fed0b83","server":"65535","farm":66,"title":"Glossy Ibis (Plegadis falcinellus)","ispublic":1,"isfriend":0,"isfamily":0},{"id":"52689660965","owner":"54100598@N08","secret":"062ab66369","server":"65535","farm":66,"title":"Glossy Ibis (Plegadis falcinellus)","ispublic":1,"isfriend":0,"isfamily":0},{"id":"52688715997","owner":"54100598@N08","secret":"b35c5d8bc5","server":"65535","farm":66,"title":"Glossy Ibis (Plegadis falcinellus)","ispublic":1,"isfriend":0,"isfamily":0},{"id":"52689241081","owner":"54100598@N08","secret":"9c3a26bdf1","server":"65535","farm":66,"title":"Glossy Ibis (Plegadis falcinellus)","ispublic":1,"isfriend":0,"isfamily":0},{"id":"52688715887","owner":"54100598@N08","secret":"7c17e0f487","server":"65535","farm":66,"title":"Glossy Ibis (Plegadis falcinellus)","ispublic":1,"isfriend":0,"isfamily":0},{"id":"52689731363","owner":"54100598@N08","secret":"a229ec1e4c","server":"65535","farm":66,"title":"Glossy Ibis (Plegadis falcinellus)","ispublic":1,"isfriend":0,"isfamily":0},{"id":"52688859949","owner":"145466593@N08","secret":"6ca6d06b81","server":"65535","farm":66,"title":"Glossy Ibis","ispublic":1,"isfriend":0,"isfamily":0},{"id":"52688793384","owner":"121021311@N02","secret":"103efd1e9c","server":"65535","farm":66,"title":"Ibis falcinelle (Plegadis falcinellus) Glossy Ibis","ispublic":1,"isfriend":0,"isfamily":0},{"id":"52687231944","owner":"87453322@N00","secret":"693bf24881","server":"65535","farm":66,"title":"Black in the Canaries. Glossy Ibis, Plegadis falcinellus, Parque Tony Gallardo, Meloneras, Gran Canaria, Spain","ispublic":1,"isfriend":0,"isfamily":0},{"id":"52686518140","owner":"128657933@N03","secret":"c070c4e97e","server":"65535","farm":66,"title":"Ibis facinelle .Plegadis falcinellus - Glossy Ibis .","ispublic":1,"isfriend":0,"isfamily":0},{"id":"52684142268","owner":"49272932@N00","secret":"acbafac5fd","server":"65535","farm":66,"title":"glossy ibis (Plegadis falcinellus), Saulkere, Bangalore","ispublic":1,"isfriend":0,"isfamily":0},{"id":"52683223336","owner":"140318147@N08","secret":"6cb3952210","server":"65535","farm":66,"title":"glossy ibis (Plegadis falcinellus) L4A3614","ispublic":1,"isfriend":0,"isfamily":0},{"id":"52679734351","owner":"65788177@N02","secret":"bcc1ba432f","server":"65535","farm":66,"title":"Glossy Ibis w\/White-faced Ibis in background","ispublic":1,"isfriend":0,"isfamily":0},{"id":"52679330031","owner":"67057396@N02","secret":"e10529084c","server":"65535","farm":66,"title":"Plegadis falcinellus","ispublic":1,"isfriend":0,"isfamily":0},{"id":"52678815727","owner":"67057396@N02","secret":"fed4a70bd9","server":"65535","farm":66,"title":"Plegadis falcinellus","ispublic":1,"isfriend":0,"isfamily":0},{"id":"52678386701","owner":"130708126@N02","secret":"3ecc1e184f","server":"65535","farm":66,"title":"Ibis falcinelle (Plegadis falcinellus).jpg","ispublic":1,"isfriend":0,"isfamily":0},{"id":"52676409323","owner":"86191812@N07","secret":"4e9687ffa6","server":"65535","farm":66,"title":"Glossy Ibis (Plegadis falcinellus)","ispublic":1,"isfriend":0,"isfamily":0},{"id":"52675372650","owner":"155025481@N05","secret":"827f43d457","server":"65535","farm":66,"title":"glossy ibis","ispublic":1,"isfriend":0,"isfamily":0},{"id":"52673331855","owner":"134719435@N07","secret":"f733decb70","server":"65535","farm":66,"title":"Glossy Ibis   (Plegadis falcinellus)","ispublic":1,"isfriend":0,"isfamily":0},{"id":"52669392899","owner":"95482238@N02","secret":"e8e269b71e","server":"65535","farm":66,"title":"glossy ibis  at Lake Moondarra Nth of Mount Isa, Queensland, Australia","ispublic":1,"isfriend":0,"isfamily":0},{"id":"52669273088","owner":"147799774@N04","secret":"2bc6514fc3","server":"65535","farm":66,"title":"Ibis-preto (Plegadis falcinellus)","ispublic":1,"isfriend":0,"isfamily":0},{"id":"52668202582","owner":"34207648@N07","secret":"9dd347c159","server":"65535","farm":66,"title":"Glossy Ibis (Juv) - (Plegadis falcinellus) 2 clicks for large","ispublic":1,"isfriend":0,"isfamily":0},{"id":"52666774069","owner":"52450054@N04","secret":"1625efb924","server":"65535","farm":66,"title":"Glossy Ibis - Plegadis falcinellus, Merritt Island National Wildlife Refuge, Titusville, Florida, February 11, 2022","ispublic":1,"isfriend":0,"isfamily":0},{"id":"52666712275","owner":"29882791@N02","secret":"74b19da6bc","server":"65535","farm":66,"title":"Threskiornithidae - Plegadis falcinellus (Glossy ibis)","ispublic":1,"isfriend":0,"isfamily":0},{"id":"52666457579","owner":"130708126@N02","secret":"ba463800f5","server":"65535","farm":66,"title":"Ibis falcinelle (Plegadis falcinellus).jpg","ispublic":1,"isfriend":0,"isfamily":0},{"id":"52664944095","owner":"130281204@N06","secret":"6bf86a57ff","server":"65535","farm":66,"title":"Glossy Ibis","ispublic":1,"isfriend":0,"isfamily":0},{"id":"52664465404","owner":"186045137@N03","secret":"c4b25398f5","server":"65535","farm":66,"title":"Ibis falcinelle - Plegadis falcinellus - Glossy Ibis","ispublic":1,"isfriend":0,"isfamily":0},{"id":"52662830539","owner":"44307879@N05","secret":"67de0f16d0","server":"65535","farm":66,"title":"Glossy ibis","ispublic":1,"isfriend":0,"isfamily":0},{"id":"52662488860","owner":"30120110@N02","secret":"84afacfe49","server":"65535","farm":66,"title":"Glossy Ibis","ispublic":1,"isfriend":0,"isfamily":0},{"id":"52660684167","owner":"186045137@N03","secret":"3c1ae51486","server":"65535","farm":66,"title":"Ibis falcinelle - Plegadis falcinellus - Glossy Ibis","ispublic":1,"isfriend":0,"isfamily":0},{"id":"52660054349","owner":"187792860@N04","secret":"01c7b4b624","server":"65535","farm":66,"title":"Glossy Ibis (Plegadis falcinellus)","ispublic":1,"isfriend":0,"isfamily":0},{"id":"52655484587","owner":"12508217@N08","secret":"2a219b7d76","server":"65535","farm":66,"title":"Glossy Ibis","ispublic":1,"isfriend":0,"isfamily":0},{"id":"52655934179","owner":"50459684@N08","secret":"77d94e3a87","server":"65535","farm":66,"title":"Plegadis falcinellus - \u00cdbis-pretos","ispublic":1,"isfriend":0,"isfamily":0},{"id":"52653069443","owner":"182008416@N04","secret":"a9faba2fd4","server":"65535","farm":66,"title":"ibis falcinelle (Plegadis falcinellus)  Vaugrenier   27 01 2023 (1 sur 1)-4 (1)","ispublic":1,"isfriend":0,"isfamily":0},{"id":"52652142775","owner":"190774999@N02","secret":"aa920daf7e","server":"65535","farm":66,"title":"Ibis falcinelle","ispublic":1,"isfriend":0,"isfamily":0},{"id":"52650509660","owner":"130708126@N02","secret":"2324ba56be","server":"65535","farm":66,"title":"Ibis falcinelle (Plegadis falcinellus).jpg","ispublic":1,"isfriend":0,"isfamily":0},{"id":"52649111290","owner":"190774999@N02","secret":"eaefdb22da","server":"65535","farm":66,"title":"Ibis falcinelle","ispublic":1,"isfriend":0,"isfamily":0},{"id":"52648650146","owner":"190774999@N02","secret":"7967f28a1b","server":"65535","farm":66,"title":"Ibis falcinelle","ispublic":1,"isfriend":0,"isfamily":0},{"id":"52647344618","owner":"192364387@N05","secret":"9b5f071ce6","server":"65535","farm":66,"title":"Glossy ibis","ispublic":1,"isfriend":0,"isfamily":0},{"id":"52645125273","owner":"8013969@N03","secret":"aa0d7b4253","server":"65535","farm":66,"title":"Plegadis falcinellus DFL nj22-1","ispublic":1,"isfriend":0,"isfamily":0},{"id":"52644907194","owner":"8013969@N03","secret":"b7ee684728","server":"65535","farm":66,"title":"Plegadis falcinellus DFL nj22-2","ispublic":1,"isfriend":0,"isfamily":0},{"id":"52640259050","owner":"21913107@N04","secret":"14e63ef988","server":"65535","farm":66,"title":"Ibis falcinelle - Plegadis falcinellus - Glossy Ibis","ispublic":1,"isfriend":0,"isfamily":0},{"id":"52639215678","owner":"115105674@N04","secret":"d3066a47a6","server":"65535","farm":66,"title":"En balade...","ispublic":1,"isfriend":0,"isfamily":0},{"id":"52638224742","owner":"115105674@N04","secret":"419479979b","server":"65535","farm":66,"title":"En balade...","ispublic":1,"isfriend":0,"isfamily":0},{"id":"52636973707","owner":"171333438@N08","secret":"424bc31a9c","server":"65535","farm":66,"title":"Ibis falcinelle (Plegadis falcinellus) et Glar\u00e9ole \u00e0 collier, en vol","ispublic":1,"isfriend":0,"isfamily":0},{"id":"52637521668","owner":"14888671@N02","secret":"853ba258aa","server":"65535","farm":66,"title":"Glossy Ibis","ispublic":1,"isfriend":0,"isfamily":0},{"id":"52632376246","owner":"192278775@N04","secret":"9422a9003a","server":"65535","farm":66,"title":"Ibis falcinelle","ispublic":1,"isfriend":0,"isfamily":0},{"id":"52632857443","owner":"192278775@N04","secret":"8787f4a066","server":"65535","farm":66,"title":"Ibis falcinelle","ispublic":1,"isfriend":0,"isfamily":0},{"id":"52629537492","owner":"12639178@N07","secret":"2539c66fba","server":"65535","farm":66,"title":"Sichler und L\u00f6ffler","ispublic":1,"isfriend":0,"isfamily":0},{"id":"52628704911","owner":"12639178@N07","secret":"d3a855778d","server":"65535","farm":66,"title":"Ein Trupp Sichler","ispublic":1,"isfriend":0,"isfamily":0},{"id":"52628704756","owner":"12639178@N07","secret":"76f232a310","server":"65535","farm":66,"title":"Ein Trupp Sichler","ispublic":1,"isfriend":0,"isfamily":0},{"id":"52628949674","owner":"12639178@N07","secret":"af2f56e354","server":"65535","farm":66,"title":"Ein Trupp Sichler","ispublic":1,"isfriend":0,"isfamily":0},{"id":"52628094864","owner":"12639178@N07","secret":"9021221ea4","server":"65535","farm":66,"title":"Sichler (Plegadis falcinellus)","ispublic":1,"isfriend":0,"isfamily":0},{"id":"52625536657","owner":"142952595@N08","secret":"b26d4a03cb","server":"65535","farm":66,"title":"Glossy Ibis","ispublic":1,"isfriend":0,"isfamily":0},{"id":"52625536592","owner":"142952595@N08","secret":"4e555c6f9f","server":"65535","farm":66,"title":"Glossy Ibis","ispublic":1,"isfriend":0,"isfamily":0},{"id":"52625408471","owner":"12639178@N07","secret":"d45e5747e7","server":"65535","farm":66,"title":"Sichler (Plegadis falcinellus) (1)","ispublic":1,"isfriend":0,"isfamily":0},{"id":"52622652287","owner":"126693179@N03","secret":"097c6ef6a9","server":"65535","farm":66,"title":"I\u0301bis-preta","ispublic":1,"isfriend":0,"isfamily":0},{"id":"52622100232","owner":"30120110@N02","secret":"49046d7413","server":"65535","farm":66,"title":"Glossy Ibises","ispublic":1,"isfriend":0,"isfamily":0},{"id":"52621775491","owner":"88593217@N04","secret":"3753e42dbd","server":"65535","farm":66,"title":"Glossy Ibis, Massa River north of Massa, Morocco, January 2015","ispublic":1,"isfriend":0,"isfamily":0},{"id":"52622254383","owner":"88593217@N04","secret":"98be42c0b6","server":"65535","farm":66,"title":"Glossy Ibis, Massa River north of Massa, Morocco, January 2015","ispublic":1,"isfriend":0,"isfamily":0},{"id":"52622254193","owner":"88593217@N04","secret":"8ef501d6a3","server":"65535","farm":66,"title":"Glossy Ibis, Massa River north of Massa, Morocco, January 2015","ispublic":1,"isfriend":0,"isfamily":0},{"id":"52621263592","owner":"88593217@N04","secret":"ca5374785d","server":"65535","farm":66,"title":"Glossy Ibis, Massa River north of Massa, Morocco, January 2015","ispublic":1,"isfriend":0,"isfamily":0},{"id":"52620756844","owner":"95579115@N03","secret":"ab4293e1b2","server":"65535","farm":66,"title":"Glossy Ibis (Plegadis falcinellus) \u041a\u0430\u0440\u0430\u0432\u0430\u0439\u043a\u0430","ispublic":1,"isfriend":0,"isfamily":0},{"id":"52616940924","owner":"64045479@N05","secret":"3c51c941d3","server":"65535","farm":66,"title":"Glossy Ibis - Plegadis falcinellus","ispublic":1,"isfriend":0,"isfamily":0},{"id":"52615162166","owner":"8103700@N04","secret":"a6d24b52ea","server":"65535","farm":66,"title":"Ibis-preta","ispublic":1,"isfriend":0,"isfamily":0},{"id":"52610605526","owner":"110624976@N05","secret":"8269f123fd","server":"65535","farm":66,"title":"Glossy Ibis in flight at Altamaha WMA--Butler Island","ispublic":1,"isfriend":0,"isfamily":0},{"id":"52609121892","owner":"36685968@N00","secret":"7e1d82451b","server":"65535","farm":66,"title":"Glossy Ibis (Plegadis falcinellus)","ispublic":1,"isfriend":0,"isfamily":0},{"id":"52608198054","owner":"12639178@N07","secret":"d6b9a87861","server":"65535","farm":66,"title":"Sichler (Plegadis falcinellus) (1)","ispublic":1,"isfriend":0,"isfamily":0},{"id":"52603331401","owner":"131852759@N03","secret":"244387aacd","server":"65535","farm":66,"title":"Plegadis falcinellus. Morito com\u00fan.","ispublic":1,"isfriend":0,"isfamily":0},{"id":"52602764403","owner":"50783922@N06","secret":"bc47110400","server":"65535","farm":66,"title":"Glossy Ibis (Plegadis falcinellus)","ispublic":1,"isfriend":0,"isfamily":0},{"id":"52601210900","owner":"130021529@N02","secret":"d01a9619ed","server":"65535","farm":66,"title":"Plegadis falcinellus | Glossy Ibis | bronsibis","ispublic":1,"isfriend":0,"isfamily":0},{"id":"52599761727","owner":"50307457@N08","secret":"1b9140308a","server":"65535","farm":66,"title":"Chengalpattu Birds-27 - Plegadis falcinellus","ispublic":1,"isfriend":0,"isfamily":0}]},"stat":"ok"}