{"photos":{"page":1,"pages":6,"perpage":100,"total":525,"photo":[{"id":"52695653746","owner":"95795254@N02","secret":"8e46363276","server":"65535","farm":66,"title":"Golden-headed Quetzal 505_1544.jpg","ispublic":1,"isfriend":0,"isfamily":0},{"id":"52690493913","owner":"43935391694@N01","secret":"869a70d7c0","server":"65535","farm":66,"title":"Golden Headed Quetzal La Florida Cali Valle Del Cauca Colombia","ispublic":1,"isfriend":0,"isfamily":0},{"id":"52673312698","owner":"37493716@N02","secret":"4f02cb9a1a","server":"65535","farm":66,"title":"Pharomachrus auriceps - Golden-headed Quetzal","ispublic":1,"isfriend":0,"isfamily":0},{"id":"52646810436","owner":"53529139@N06","secret":"2e891bc7e8","server":"65535","farm":66,"title":"Golden headed Quetzal","ispublic":1,"isfriend":0,"isfamily":0},{"id":"52647291373","owner":"53529139@N06","secret":"9d4b934d5d","server":"65535","farm":66,"title":"Golden headed Quetzal","ispublic":1,"isfriend":0,"isfamily":0},{"id":"52630484789","owner":"124478354@N05","secret":"49e9892ba8","server":"65535","farm":66,"title":"Nice pose","ispublic":1,"isfriend":0,"isfamily":0},{"id":"52550293349","owner":"53358437@N07","secret":"4425daa9c8","server":"65535","farm":66,"title":"Golden-headed Quetzal (Pharomachrus auriceps)","ispublic":1,"isfriend":0,"isfamily":0},{"id":"52549998431","owner":"53358437@N07","secret":"8c170db4bf","server":"65535","farm":66,"title":"Golden-headed Quetzal (Pharomachrus auriceps)","ispublic":1,"isfriend":0,"isfamily":0},{"id":"52462379078","owner":"95795254@N02","secret":"04aacfd4e8","server":"65535","farm":66,"title":"Golden-headed Quetzal 505_1569.jpg","ispublic":1,"isfriend":0,"isfamily":0},{"id":"52461197030","owner":"56686021@N04","secret":"bb4a422997","server":"65535","farm":66,"title":"Golden-headed Quetzal","ispublic":1,"isfriend":0,"isfamily":0},{"id":"52460227372","owner":"56686021@N04","secret":"22a375a4b1","server":"65535","farm":66,"title":"Golden-headed Quetzal","ispublic":1,"isfriend":0,"isfamily":0},{"id":"52461196895","owner":"56686021@N04","secret":"eb4e8fb55e","server":"65535","farm":66,"title":"Golden-headed Quetzal","ispublic":1,"isfriend":0,"isfamily":0},{"id":"52385878147","owner":"124478354@N05","secret":"9063f2c2d8","server":"65535","farm":66,"title":"Unreal","ispublic":1,"isfriend":0,"isfamily":0},{"id":"52267416858","owner":"51106497@N03","secret":"7f487f9bf7","server":"65535","farm":66,"title":"Golden-headed Quetzal","ispublic":1,"isfriend":0,"isfamily":0},{"id":"52265470723","owner":"195584954@N03","secret":"e535849085","server":"65535","farm":66,"title":"Golden-headed Quetzal","ispublic":1,"isfriend":0,"isfamily":0},{"id":"52209975102","owner":"145824323@N05","secret":"e3eb137866","server":"65535","farm":66,"title":"Golden-headed quetzal (Pharomachrus auriceps)","ispublic":1,"isfriend":0,"isfamily":0},{"id":"52200713329","owner":"45109166@N00","secret":"bd083ddde9","server":"65535","farm":66,"title":"Pharomachrus auriceps","ispublic":1,"isfriend":0,"isfamily":0},{"id":"52182803532","owner":"32805478@N03","secret":"32da3e86d8","server":"65535","farm":66,"title":"Quetzal cabecidorado, Pharomachrus auriceps, Golden-headed Quetzal","ispublic":1,"isfriend":0,"isfamily":0},{"id":"52179809193","owner":"140734051@N08","secret":"384beb250e","server":"65535","farm":66,"title":"\u0417\u043b\u0430\u0442\u043e\u0433\u043e\u043b\u043e\u0432\u044b\u0439 \u043a\u0435\u0442\u0446\u0430\u043b\u044c, Pharomachrus auriceps auriceps, Golden-headed Quetzal \u2640\ufe0f","ispublic":1,"isfriend":0,"isfamily":0},{"id":"52180052564","owner":"140734051@N08","secret":"7750442bf2","server":"65535","farm":66,"title":"\u0417\u043b\u0430\u0442\u043e\u0433\u043e\u043b\u043e\u0432\u044b\u0439 \u043a\u0435\u0442\u0446\u0430\u043b\u044c, Pharomachrus auriceps auriceps, Golden-headed Quetzal \u2640\ufe0f","ispublic":1,"isfriend":0,"isfamily":0},{"id":"52178777212","owner":"140734051@N08","secret":"d1757e94e7","server":"65535","farm":66,"title":"\u0417\u043b\u0430\u0442\u043e\u0433\u043e\u043b\u043e\u0432\u044b\u0439 \u043a\u0435\u0442\u0446\u0430\u043b\u044c, Pharomachrus auriceps auriceps, Golden-headed Quetzal \u2640\ufe0f","ispublic":1,"isfriend":0,"isfamily":0},{"id":"52179807938","owner":"140734051@N08","secret":"ac7c4bf4af","server":"65535","farm":66,"title":"\u0417\u043b\u0430\u0442\u043e\u0433\u043e\u043b\u043e\u0432\u044b\u0439 \u043a\u0435\u0442\u0446\u0430\u043b\u044c, Pharomachrus auriceps auriceps, Golden-headed Quetzal \u2642\ufe0f","ispublic":1,"isfriend":0,"isfamily":0},{"id":"52179806953","owner":"140734051@N08","secret":"9df2a70d69","server":"65535","farm":66,"title":"\u0417\u043b\u0430\u0442\u043e\u0433\u043e\u043b\u043e\u0432\u044b\u0439 \u043a\u0435\u0442\u0446\u0430\u043b\u044c, Pharomachrus auriceps auriceps, Golden-headed Quetzal \u2642\ufe0f","ispublic":1,"isfriend":0,"isfamily":0},{"id":"52178774762","owner":"140734051@N08","secret":"c370e5495a","server":"65535","farm":66,"title":"\u0417\u043b\u0430\u0442\u043e\u0433\u043e\u043b\u043e\u0432\u044b\u0439 \u043a\u0435\u0442\u0446\u0430\u043b\u044c, Pharomachrus auriceps auriceps, Golden-headed Quetzal \u2642\ufe0f","ispublic":1,"isfriend":0,"isfamily":0},{"id":"52141804057","owner":"32805478@N03","secret":"dff007b89b","server":"65535","farm":66,"title":"Quetzal cabecidorado, Pharomachrus auriceps, Golden-headed Quetzal","ispublic":1,"isfriend":0,"isfamily":0},{"id":"52141182201","owner":"36083098@N02","secret":"489cfb649e","server":"65535","farm":66,"title":"Pharomachrus auriceps","ispublic":1,"isfriend":0,"isfamily":0},{"id":"52141417744","owner":"36083098@N02","secret":"033018f06b","server":"65535","farm":66,"title":"Pharomachrus auriceps","ispublic":1,"isfriend":0,"isfamily":0},{"id":"51934534580","owner":"86585370@N00","secret":"14fc95f03f","server":"65535","farm":66,"title":"Golden-headed Quetzal \/\/ Quetzal Cabecidorado \/\/ Quetzal-de-cabe\u00e7a-dourada","ispublic":1,"isfriend":0,"isfamily":0},{"id":"51925471085","owner":"187678271@N07","secret":"d34284ae3f","server":"65535","farm":66,"title":"Golden-headed Quetzal \/ Pharomachrus auriceps","ispublic":1,"isfriend":0,"isfamily":0},{"id":"51924835391","owner":"187678271@N07","secret":"3296f59ede","server":"65535","farm":66,"title":"Golden-headed Quetzal \/ Pharomachrus auriceps","ispublic":1,"isfriend":0,"isfamily":0},{"id":"51886168669","owner":"129772911@N04","secret":"d88acf58db","server":"65535","farm":66,"title":"Pharomachrus auriceps","ispublic":1,"isfriend":0,"isfamily":0},{"id":"51855265389","owner":"113235024@N05","secret":"a95293daed","server":"65535","farm":66,"title":"Pharomachrus auriceps","ispublic":1,"isfriend":0,"isfamily":0},{"id":"51855595095","owner":"113235024@N05","secret":"9c0c3fdc22","server":"65535","farm":66,"title":"Pharomachrus auriceps","ispublic":1,"isfriend":0,"isfamily":0},{"id":"51833341101","owner":"145824323@N05","secret":"2d72296f5e","server":"65535","farm":66,"title":"Golden-headed quetzal (Pharomachrus auriceps)","ispublic":1,"isfriend":0,"isfamily":0},{"id":"51833451183","owner":"145824323@N05","secret":"d06e72813b","server":"65535","farm":66,"title":"Golden-headed quetzal (Pharomachrus auriceps)","ispublic":1,"isfriend":0,"isfamily":0},{"id":"51833656434","owner":"145824323@N05","secret":"a1d81ce8e7","server":"65535","farm":66,"title":"Golden-headed quetzal (Pharomachrus auriceps)","ispublic":1,"isfriend":0,"isfamily":0},{"id":"51827134908","owner":"119787485@N07","secret":"4668632b4b","server":"65535","farm":66,"title":"Golden-headed Quetzel (Pharomachrus auriceps auriceps) - 20181015-02","ispublic":1,"isfriend":0,"isfamily":0},{"id":"51805261312","owner":"103228733@N07","secret":"f09a21770e","server":"65535","farm":66,"title":"_O3A8715.jpg","ispublic":1,"isfriend":0,"isfamily":0},{"id":"51776429030","owner":"140734051@N08","secret":"e6d621feed","server":"65535","farm":66,"title":"\u0417\u043b\u0430\u0442\u043e\u0433\u043e\u043b\u043e\u0432\u044b\u0439 \u043a\u0435\u0442\u0446\u0430\u043b\u044c, Pharomachrus auriceps, Golden-headed Quetzal","ispublic":1,"isfriend":0,"isfamily":0},{"id":"51734166505","owner":"81126336@N00","secret":"e7636ca438","server":"65535","farm":66,"title":"Golden-headed Quetzal","ispublic":1,"isfriend":0,"isfamily":0},{"id":"51634128566","owner":"23335641@N04","secret":"4d5e40036e","server":"65535","farm":66,"title":"DSC_8218_DxO-Edit.jpg","ispublic":1,"isfriend":0,"isfamily":0},{"id":"51627236259","owner":"23335641@N04","secret":"f4028eae23","server":"65535","farm":66,"title":"DSC_8218_DxO-Edit.jpg","ispublic":1,"isfriend":0,"isfamily":0},{"id":"51585678758","owner":"145824323@N05","secret":"245262da61","server":"65535","farm":66,"title":"Golden-headed quetzal (Pharomachrus auriceps)","ispublic":1,"isfriend":0,"isfamily":0},{"id":"51585678268","owner":"145824323@N05","secret":"4e5a1332ab","server":"65535","farm":66,"title":"Golden-headed quetzal (Pharomachrus auriceps)","ispublic":1,"isfriend":0,"isfamily":0},{"id":"51316375940","owner":"130406067@N03","secret":"9e23214b51","server":"65535","farm":66,"title":"GHQU_GSV2981","ispublic":1,"isfriend":0,"isfamily":0},{"id":"51298445145","owner":"189898841@N03","secret":"2c2688b9a4","server":"65535","farm":66,"title":"Golden  headed Quetzal (Pharomachrus auriceps)","ispublic":1,"isfriend":0,"isfamily":0},{"id":"51238199073","owner":"61021753@N02","secret":"2c7ab3a277","server":"65535","farm":66,"title":"n746_w1150","ispublic":1,"isfriend":0,"isfamily":0},{"id":"51229833940","owner":"23335641@N04","secret":"a8429d09bb","server":"65535","farm":66,"title":"DSC_4623_DxO-Edit.jpg","ispublic":1,"isfriend":0,"isfamily":0},{"id":"51099604409","owner":"187682764@N06","secret":"2b2af8a8bb","server":"65535","farm":66,"title":"The Queen of Green","ispublic":1,"isfriend":0,"isfamily":0},{"id":"9643076403","owner":"53247049@N07","secret":"ab022c8c38","server":"7288","farm":8,"title":"GOLDEN-HEADED QUETZAL Male Pharomachrus auriceps Perching in the Morning Sun near its Nest. Mindo, ECUADOR. Quetzal Photo by Peter Wendelken.","ispublic":1,"isfriend":0,"isfamily":0},{"id":"50876407981","owner":"187678271@N07","secret":"995714ce5f","server":"65535","farm":66,"title":"Golden-headed Quetzal \/ Pharomachrus auriceps","ispublic":1,"isfriend":0,"isfamily":0},{"id":"50872550002","owner":"190773540@N03","secret":"ef6e15607b","server":"65535","farm":66,"title":"Golden-headed Quetzal (male) in Neotropical Cloudforest, Ecuador","ispublic":1,"isfriend":0,"isfamily":0},{"id":"50860488752","owner":"8086030@N03","secret":"db94e41c3a","server":"65535","farm":66,"title":"Golden-headed Quetzal, Pharomachrus auriceps","ispublic":1,"isfriend":0,"isfamily":0},{"id":"50860488702","owner":"8086030@N03","secret":"64613cf7b9","server":"65535","farm":66,"title":"Golden-headed Quetzal, Pharomachrus auriceps","ispublic":1,"isfriend":0,"isfamily":0},{"id":"16869958232","owner":"53247049@N07","secret":"402b33ceb9","server":"7602","farm":8,"title":"GOLDEN-HEADED QUETZAL Male Pharomachrus auriceps in the Early Morning above Mindo in Northwestern ECUADOR. Quetzal Photo by Peter Wendelken.","ispublic":1,"isfriend":0,"isfamily":0},{"id":"50657823362","owner":"119787485@N07","secret":"5572f4047c","server":"65535","farm":66,"title":"Golden-headed Quetzel (Pharomachrus auriceps auriceps) - 20181015-07","ispublic":1,"isfriend":0,"isfamily":0},{"id":"50595730217","owner":"54249623@N08","secret":"0c0e45d84a","server":"65535","farm":66,"title":"Quetzal Colinegro, Golden-headed Quetzal (Pharomachrus auriceps)","ispublic":1,"isfriend":0,"isfamily":0},{"id":"52527892788","owner":"12639178@N07","secret":"fcbdc816f3","server":"65535","farm":66,"title":"35812_Golden-headed Quetzal Pharomachrus auriceps","ispublic":1,"isfriend":0,"isfamily":0},{"id":"52180290070","owner":"140734051@N08","secret":"93edf3df6a","server":"65535","farm":66,"title":"\u0417\u043b\u0430\u0442\u043e\u0433\u043e\u043b\u043e\u0432\u044b\u0439 \u043a\u0435\u0442\u0446\u0430\u043b\u044c, Pharomachrus auriceps auriceps, Golden-headed Quetzal \u2640\ufe0f","ispublic":1,"isfriend":0,"isfamily":0},{"id":"52179803376","owner":"140734051@N08","secret":"21223d31f6","server":"65535","farm":66,"title":"\u0417\u043b\u0430\u0442\u043e\u0433\u043e\u043b\u043e\u0432\u044b\u0439 \u043a\u0435\u0442\u0446\u0430\u043b\u044c, Pharomachrus auriceps auriceps, Golden-headed Quetzal \u2640\ufe0f","ispublic":1,"isfriend":0,"isfamily":0},{"id":"52180289490","owner":"140734051@N08","secret":"85edd072ba","server":"65535","farm":66,"title":"\u0417\u043b\u0430\u0442\u043e\u0433\u043e\u043b\u043e\u0432\u044b\u0439 \u043a\u0435\u0442\u0446\u0430\u043b\u044c, Pharomachrus auriceps auriceps, Golden-headed Quetzal \u2640\ufe0f","ispublic":1,"isfriend":0,"isfamily":0},{"id":"52180052509","owner":"140734051@N08","secret":"15c6d24abc","server":"65535","farm":66,"title":"\u0417\u043b\u0430\u0442\u043e\u0433\u043e\u043b\u043e\u0432\u044b\u0439 \u043a\u0435\u0442\u0446\u0430\u043b\u044c, Pharomachrus auriceps auriceps, Golden-headed Quetzal \u2640\ufe0f","ispublic":1,"isfriend":0,"isfamily":0},{"id":"52180288645","owner":"140734051@N08","secret":"21869579d0","server":"65535","farm":66,"title":"\u0417\u043b\u0430\u0442\u043e\u0433\u043e\u043b\u043e\u0432\u044b\u0439 \u043a\u0435\u0442\u0446\u0430\u043b\u044c, Pharomachrus auriceps auriceps, Golden-headed Quetzal \u2642\ufe0f","ispublic":1,"isfriend":0,"isfamily":0},{"id":"52178775917","owner":"140734051@N08","secret":"c6649b8e8d","server":"65535","farm":66,"title":"\u0417\u043b\u0430\u0442\u043e\u0433\u043e\u043b\u043e\u0432\u044b\u0439 \u043a\u0435\u0442\u0446\u0430\u043b\u044c, Pharomachrus auriceps auriceps, Golden-headed Quetzal \u2642\ufe0f","ispublic":1,"isfriend":0,"isfamily":0},{"id":"52180048989","owner":"140734051@N08","secret":"e0f54d4ae0","server":"65535","farm":66,"title":"\u0417\u043b\u0430\u0442\u043e\u0433\u043e\u043b\u043e\u0432\u044b\u0439 \u043a\u0435\u0442\u0446\u0430\u043b\u044c, Pharomachrus auriceps auriceps, Golden-headed Quetzal \u2642\ufe0f","ispublic":1,"isfriend":0,"isfamily":0},{"id":"52180285325","owner":"140734051@N08","secret":"af40fbedcc","server":"65535","farm":66,"title":"\u0417\u043b\u0430\u0442\u043e\u0433\u043e\u043b\u043e\u0432\u044b\u0439 \u043a\u0435\u0442\u0446\u0430\u043b\u044c, Pharomachrus auriceps auriceps, Golden-headed Quetzal \u2642\ufe0f","ispublic":1,"isfriend":0,"isfamily":0},{"id":"52151603481","owner":"36083098@N02","secret":"a8616ee3b4","server":"65535","farm":66,"title":"Pharomachrus auriceps","ispublic":1,"isfriend":0,"isfamily":0},{"id":"52141183006","owner":"36083098@N02","secret":"5c59c4be30","server":"65535","farm":66,"title":"Pharomachrus auriceps","ispublic":1,"isfriend":0,"isfamily":0},{"id":"52141179301","owner":"36083098@N02","secret":"6b92ab0bbf","server":"65535","farm":66,"title":"Pharomachrus auriceps","ispublic":1,"isfriend":0,"isfamily":0},{"id":"52141196193","owner":"36083098@N02","secret":"8fd920b0ef","server":"65535","farm":66,"title":"Pharomachrus auriceps","ispublic":1,"isfriend":0,"isfamily":0},{"id":"52141658235","owner":"36083098@N02","secret":"e2b2177636","server":"65535","farm":66,"title":"Pharomachrus auriceps","ispublic":1,"isfriend":0,"isfamily":0},{"id":"52141189203","owner":"36083098@N02","secret":"c4310ae508","server":"65535","farm":66,"title":"Pharomachrus auriceps","ispublic":1,"isfriend":0,"isfamily":0},{"id":"52140149142","owner":"36083098@N02","secret":"8752fd6082","server":"65535","farm":66,"title":"Pharomachrus auriceps","ispublic":1,"isfriend":0,"isfamily":0},{"id":"52129812156","owner":"36083098@N02","secret":"b8492b0e35","server":"65535","farm":66,"title":"Pharomachrus auriceps","ispublic":1,"isfriend":0,"isfamily":0},{"id":"52124685298","owner":"36083098@N02","secret":"b493d1db90","server":"65535","farm":66,"title":"Pharomachrus auriceps","ispublic":1,"isfriend":0,"isfamily":0},{"id":"52124896914","owner":"36083098@N02","secret":"a54f16edf5","server":"65535","farm":66,"title":"Pharomachrus auriceps","ispublic":1,"isfriend":0,"isfamily":0},{"id":"52123582082","owner":"36083098@N02","secret":"2775238b5f","server":"65535","farm":66,"title":"Pharomachrus auriceps","ispublic":1,"isfriend":0,"isfamily":0},{"id":"52050893296","owner":"192656859@N02","secret":"c639c69bec","server":"65535","farm":66,"title":"JPG ED 30-03-21 262","ispublic":1,"isfriend":0,"isfamily":0},{"id":"52049838622","owner":"192656859@N02","secret":"757b3dca4b","server":"65535","farm":66,"title":"JPG ED 30-03-21 264","ispublic":1,"isfriend":0,"isfamily":0},{"id":"52051120879","owner":"192656859@N02","secret":"4b82e51825","server":"65535","farm":66,"title":"JPG ED 8-04-22 92","ispublic":1,"isfriend":0,"isfamily":0},{"id":"52051376615","owner":"192656859@N02","secret":"c826577069","server":"65535","farm":66,"title":"JPG ED 8-04-22 93","ispublic":1,"isfriend":0,"isfamily":0},{"id":"52011110771","owner":"192890745@N03","secret":"7726a550fa","server":"65535","farm":66,"title":"Quetzal Cabecidorado - Hembra (Pharomachrus auriceps) (16)","ispublic":1,"isfriend":0,"isfamily":0},{"id":"52011163823","owner":"192890745@N03","secret":"3197992817","server":"65535","farm":66,"title":"Quetzal Cabecidorado - Hembra (Pharomachrus auriceps) (17)","ispublic":1,"isfriend":0,"isfamily":0},{"id":"52011163763","owner":"192890745@N03","secret":"0fb51fc969","server":"65535","farm":66,"title":"Quetzal Cabecidorado - Macho (Pharomachrus auriceps) (13)","ispublic":1,"isfriend":0,"isfamily":0},{"id":"52010084232","owner":"192890745@N03","secret":"b2c1074c51","server":"65535","farm":66,"title":"Quetzal Cabecidorado - Macho (Pharomachrus auriceps) (17)","ispublic":1,"isfriend":0,"isfamily":0},{"id":"51886169204","owner":"129772911@N04","secret":"720b80cc89","server":"65535","farm":66,"title":"Pharomachrus auriceps","ispublic":1,"isfriend":0,"isfamily":0},{"id":"51584783997","owner":"145824323@N05","secret":"2e6ee7f660","server":"65535","farm":66,"title":"Golden-headed quetzal (Pharomachrus auriceps)","ispublic":1,"isfriend":0,"isfamily":0},{"id":"51586270769","owner":"145824323@N05","secret":"cd10c3f926","server":"65535","farm":66,"title":"Golden-headed quetzal (Pharomachrus auriceps)","ispublic":1,"isfriend":0,"isfamily":0},{"id":"51585836298","owner":"145824323@N05","secret":"ff3966d309","server":"65535","farm":66,"title":"Golden-headed quetzal (Pharomachrus auriceps)","ispublic":1,"isfriend":0,"isfamily":0},{"id":"51586113394","owner":"145824323@N05","secret":"2c71a7e8bb","server":"65535","farm":66,"title":"Golden-headed quetzal (Pharomachrus auriceps)","ispublic":1,"isfriend":0,"isfamily":0},{"id":"51586049114","owner":"145824323@N05","secret":"6cc5c77a14","server":"65535","farm":66,"title":"Golden-headed quetzal (Pharomachrus auriceps)","ispublic":1,"isfriend":0,"isfamily":0},{"id":"51586287765","owner":"145824323@N05","secret":"a0298097b6","server":"65535","farm":66,"title":"Golden-headed quetzal (Pharomachrus auriceps)","ispublic":1,"isfriend":0,"isfamily":0},{"id":"51586045664","owner":"145824323@N05","secret":"7d140f5e34","server":"65535","farm":66,"title":"Golden-headed quetzal (Pharomachrus auriceps)","ispublic":1,"isfriend":0,"isfamily":0},{"id":"51508814880","owner":"154417921@N04","secret":"2a32052e32","server":"65535","farm":66,"title":"DSC00025 kopi\u00ebren 2","ispublic":1,"isfriend":0,"isfamily":0},{"id":"51311767198","owner":"182492939@N08","secret":"2e6fc7bb5e","server":"65535","farm":66,"title":"_5ML1071-1_Pharomachrus auriceps_Golden-headed Quetzal_Quetzal de Cabeza Dorada","ispublic":1,"isfriend":0,"isfamily":0},{"id":"51297432776","owner":"189898841@N03","secret":"a9831e6e21","server":"65535","farm":66,"title":"Golden  headed Quetzal (Pharomachrus auriceps)","ispublic":1,"isfriend":0,"isfamily":0},{"id":"51258554631","owner":"190773540@N03","secret":"998be9f7e8","server":"65535","farm":66,"title":"Golden-headed Quetzal (male)","ispublic":1,"isfriend":0,"isfamily":0},{"id":"51258547946","owner":"190773540@N03","secret":"248796c29e","server":"65535","farm":66,"title":"Golden-headed Quetzal (male)","ispublic":1,"isfriend":0,"isfamily":0},{"id":"50657731416","owner":"119787485@N07","secret":"790698def6","server":"65535","farm":66,"title":"Golden-headed Quetzel (Pharomachrus auriceps auriceps) - 20181015-04","ispublic":1,"isfriend":0,"isfamily":0},{"id":"50594868548","owner":"54249623@N08","secret":"bbabac95bb","server":"65535","farm":66,"title":"Quetzal Colinegro, Golden-headed Quetzal (Pharomachrus auriceps)","ispublic":1,"isfriend":0,"isfamily":0}]},"stat":"ok"}