{"photos":{"page":1,"pages":9,"perpage":100,"total":852,"photo":[{"id":"52555067426","owner":"24608578@N00","secret":"5971316a70","server":"65535","farm":66,"title":"Grasshopper sparrow (Ammodramus savannarum)","ispublic":1,"isfriend":0,"isfamily":0},{"id":"52555536535","owner":"24608578@N00","secret":"c63e4cfbea","server":"65535","farm":66,"title":"Grasshopper sparrow (Ammodramus savannarum)","ispublic":1,"isfriend":0,"isfamily":0},{"id":"52547062208","owner":"22170893@N06","secret":"4a9414f451","server":"65535","farm":66,"title":"Grasshopper Sparrow (Ammodramus savannarum)","ispublic":1,"isfriend":0,"isfamily":0},{"id":"52488624882","owner":"129803374@N05","secret":"9262e9abb7","server":"65535","farm":66,"title":"Grasshopper Sparrow (Ammodramus savannarum)","ispublic":1,"isfriend":0,"isfamily":0},{"id":"52451708779","owner":"33573751@N04","secret":"8d5e759f05","server":"65535","farm":66,"title":"Grasshopper Sparrow (Ammodramus savannarum) - New Caanan, Connecticut, USA","ispublic":1,"isfriend":0,"isfamily":0},{"id":"52258300992","owner":"163667952@N05","secret":"eafd6f8060","server":"65535","farm":66,"title":"Grasshopper Sparrow","ispublic":1,"isfriend":0,"isfamily":0},{"id":"52238231747","owner":"52796122@N06","secret":"00957f4519","server":"65535","farm":66,"title":"Grasshopper Sparrow (Ammodramus savannarum)","ispublic":1,"isfriend":0,"isfamily":0},{"id":"52216929050","owner":"22475926@N08","secret":"33bf0453dd","server":"65535","farm":66,"title":"Grasshopper Sparrow (Ammodramus savannarum)","ispublic":1,"isfriend":0,"isfamily":0},{"id":"52177668595","owner":"39177293@N03","secret":"2411070a9d","server":"65535","farm":66,"title":"Grasshopper Sparrow","ispublic":1,"isfriend":0,"isfamily":0},{"id":"52154888237","owner":"128520554@N03","secret":"cbeee44486","server":"65535","farm":66,"title":"Grasshopper Sparrow (Ammodramus savannarum)","ispublic":1,"isfriend":0,"isfamily":0},{"id":"52154888227","owner":"128520554@N03","secret":"1a3595cbb6","server":"65535","farm":66,"title":"Grasshopper Sparrow (Ammodramus savannarum)","ispublic":1,"isfriend":0,"isfamily":0},{"id":"52155910853","owner":"128520554@N03","secret":"8195f34890","server":"65535","farm":66,"title":"Grasshopper Sparrow (Ammodramus savannarum)","ispublic":1,"isfriend":0,"isfamily":0},{"id":"52154320030","owner":"28499865@N07","secret":"464b792161","server":"65535","farm":66,"title":"Grasshopper Sparrow - Ammodramus savannarum","ispublic":1,"isfriend":0,"isfamily":0},{"id":"52154164220","owner":"28499865@N07","secret":"73b168fc82","server":"65535","farm":66,"title":"Grasshopper Sparrow - Ammodramus savannarum","ispublic":1,"isfriend":0,"isfamily":0},{"id":"52153273801","owner":"39177293@N03","secret":"f58bb87fa1","server":"65535","farm":66,"title":"Grasshopper Sparrow","ispublic":1,"isfriend":0,"isfamily":0},{"id":"52142513843","owner":"103722035@N06","secret":"3eac216c3f","server":"65535","farm":66,"title":"Grasshopper Sparrow (Ammodramus savannarum), Los Osos, CA","ispublic":1,"isfriend":0,"isfamily":0},{"id":"52141205067","owner":"183736567@N07","secret":"7497a0da6b","server":"65535","farm":66,"title":"Grasshopper Sparrow (Ammodramus savannarum)","ispublic":1,"isfriend":0,"isfamily":0},{"id":"52137408007","owner":"135315828@N06","secret":"1429f0a5a6","server":"65535","farm":66,"title":"grasshopper sparrow","ispublic":1,"isfriend":0,"isfamily":0},{"id":"52135806235","owner":"183736567@N07","secret":"393882b4a6","server":"65535","farm":66,"title":"Grasshopper Sparrow (Ammodramus savannarum)","ispublic":1,"isfriend":0,"isfamily":0},{"id":"52128545544","owner":"103722035@N06","secret":"60197766f5","server":"65535","farm":66,"title":"Grasshopper Sparrow (Ammodramus savannarum), Los Osos, CA","ispublic":1,"isfriend":0,"isfamily":0},{"id":"52128545484","owner":"103722035@N06","secret":"8084e1d036","server":"65535","farm":66,"title":"Grasshopper Sparrow (Ammodramus savannarum), Los Osos, CA","ispublic":1,"isfriend":0,"isfamily":0},{"id":"51864470677","owner":"12639178@N07","secret":"6f4fe40d6d","server":"65535","farm":66,"title":"Heuschrecke - Santa Elena (  Icabaru) \/ Venezuela","ispublic":1,"isfriend":0,"isfamily":0},{"id":"51831342890","owner":"32752434@N07","secret":"457df13f9f","server":"65535","farm":66,"title":"Grasshopper Sparrow (Ammodramus savannarum)","ispublic":1,"isfriend":0,"isfamily":0},{"id":"51736903469","owner":"79383179@N03","secret":"c52c979b9d","server":"65535","farm":66,"title":"Grasshopper Sparrow (Ammodramus savannarum)","ispublic":1,"isfriend":0,"isfamily":0},{"id":"51731506239","owner":"194467431@N06","secret":"e89f74fa15","server":"65535","farm":66,"title":"Grasshopper Sparrow","ispublic":1,"isfriend":0,"isfamily":0},{"id":"51605333379","owner":"36685968@N00","secret":"e3369b19c7","server":"65535","farm":66,"title":"Grasshopper Sparrow (Ammodramus savannarum)","ispublic":1,"isfriend":0,"isfamily":0},{"id":"51368690499","owner":"28499865@N07","secret":"c268bd8ffd","server":"65535","farm":66,"title":"Grasshopper Sparrow - Ammodramus savannarum","ispublic":1,"isfriend":0,"isfamily":0},{"id":"51368690429","owner":"28499865@N07","secret":"c433990100","server":"65535","farm":66,"title":"Grasshopper Sparrow - Ammodramus savannarum","ispublic":1,"isfriend":0,"isfamily":0},{"id":"51360984949","owner":"16863429@N00","secret":"41d94d8444","server":"65535","farm":66,"title":"Grasshopper Sparrow (Ammodramus savannarum)","ispublic":1,"isfriend":0,"isfamily":0},{"id":"51361270390","owner":"16863429@N00","secret":"2d29c4d1b0","server":"65535","farm":66,"title":"Grasshopper Sparrow (Ammodramus savannarum)","ispublic":1,"isfriend":0,"isfamily":0},{"id":"51320554531","owner":"67306066@N03","secret":"49ec0e8052","server":"65535","farm":66,"title":"Grasshopper Sparrow (Ammodramus savannarum)","ispublic":1,"isfriend":0,"isfamily":0},{"id":"51319278707","owner":"135315828@N06","secret":"e1ababc723","server":"65535","farm":66,"title":"IMG_6607","ispublic":1,"isfriend":0,"isfamily":0},{"id":"51320219983","owner":"135315828@N06","secret":"0214aaefb3","server":"65535","farm":66,"title":"IMG_6626","ispublic":1,"isfriend":0,"isfamily":0},{"id":"51287157405","owner":"135315828@N06","secret":"2f67f83e14","server":"65535","farm":66,"title":"IMG_4397","ispublic":1,"isfriend":0,"isfamily":0},{"id":"51286309263","owner":"135315828@N06","secret":"40fa988335","server":"65535","farm":66,"title":"IMG_4426","ispublic":1,"isfriend":0,"isfamily":0},{"id":"51286309248","owner":"135315828@N06","secret":"1ab870f42e","server":"65535","farm":66,"title":"IMG_4511","ispublic":1,"isfriend":0,"isfamily":0},{"id":"51285392227","owner":"135315828@N06","secret":"55b3733538","server":"65535","farm":66,"title":"IMG_4516","ispublic":1,"isfriend":0,"isfamily":0},{"id":"51287157285","owner":"135315828@N06","secret":"c34db80803","server":"65535","farm":66,"title":"IMG_4521","ispublic":1,"isfriend":0,"isfamily":0},{"id":"51286140141","owner":"135315828@N06","secret":"a68d465d9f","server":"65535","farm":66,"title":"IMG_4525","ispublic":1,"isfriend":0,"isfamily":0},{"id":"51285392142","owner":"135315828@N06","secret":"b5091304bd","server":"65535","farm":66,"title":"IMG_4632","ispublic":1,"isfriend":0,"isfamily":0},{"id":"51285392072","owner":"135315828@N06","secret":"e81879047d","server":"65535","farm":66,"title":"IMG_4669","ispublic":1,"isfriend":0,"isfamily":0},{"id":"51267954530","owner":"69740770@N05","secret":"ea05cd669d","server":"65535","farm":66,"title":"Grasshopper Sparrow, Ammodramus savannarum","ispublic":1,"isfriend":0,"isfamily":0},{"id":"51159526336","owner":"111003127@N08","secret":"47ba724f02","server":"65535","farm":66,"title":"Exit From Lockdown","ispublic":1,"isfriend":0,"isfamily":0},{"id":"51159404279","owner":"79153825@N08","secret":"803f5dd103","server":"65535","farm":66,"title":"Aves de la Rep\u00fablica Dominicana:Tumbarrocio.(Ammodramus savanarum intricatus.) Grasshopper sparrow.","ispublic":1,"isfriend":0,"isfamily":0},{"id":"51159729175","owner":"79153825@N08","secret":"9305fb01bc","server":"65535","farm":66,"title":"Aves de la Rep\u00fablica Dominicana:Tumbarrocio.(Ammodramus savanarum intricatus.) Grasshopper sparrow.","ispublic":1,"isfriend":0,"isfamily":0},{"id":"51158619351","owner":"79153825@N08","secret":"f40b31d792","server":"65535","farm":66,"title":"Aves de la Rep\u00fablica Dominicana:Tumbarrocio.(Ammodramus savanarum intricatus.) Grasshopper sparrow.","ispublic":1,"isfriend":0,"isfamily":0},{"id":"51157961307","owner":"79153825@N08","secret":"4868ff03ee","server":"65535","farm":66,"title":"Aves de la Rep\u00fablica Dominicana:Tumbarrocio.(Ammodramus savanarum intricatus.) Grasshopper sparrow.","ispublic":1,"isfriend":0,"isfamily":0},{"id":"51159402424","owner":"79153825@N08","secret":"721a3a1155","server":"65535","farm":66,"title":"Aves de la Rep\u00fablica Dominicana:Tumbarrocio.(Ammodramus savanarum intricatus.) Grasshopper sparrow.","ispublic":1,"isfriend":0,"isfamily":0},{"id":"51158859063","owner":"79153825@N08","secret":"b4019a9e39","server":"65535","farm":66,"title":"Aves de la Rep\u00fablica Dominicana:Tumbarrocio.(Ammodramus savanarum intricatus.) Grasshopper sparrow.","ispublic":1,"isfriend":0,"isfamily":0},{"id":"51158858458","owner":"79153825@N08","secret":"fb4c95fa4e","server":"65535","farm":66,"title":"Aves de la Rep\u00fablica Dominicana:Tumbarrocio.(Ammodramus savanarum intricatus.) Grasshopper sparrow.","ispublic":1,"isfriend":0,"isfamily":0},{"id":"51158616766","owner":"79153825@N08","secret":"160a4816b2","server":"65535","farm":66,"title":"Aves de la Rep\u00fablica Dominicana:Tumbarrocio.(Ammodramus savanarum intricatus.) Grasshopper sparrow.","ispublic":1,"isfriend":0,"isfamily":0},{"id":"51159725825","owner":"79153825@N08","secret":"5ddfc24093","server":"65535","farm":66,"title":"Aves de la Rep\u00fablica Dominicana:Tumbarrocio.(Ammodramus savanarum intricatus.) Grasshopper sparrow.","ispublic":1,"isfriend":0,"isfamily":0},{"id":"51159400099","owner":"79153825@N08","secret":"e8f642bba2","server":"65535","farm":66,"title":"Aves de la Rep\u00fablica Dominicana:Tumbarrocio.(Ammodramus savanarum intricatus.) Grasshopper sparrow.","ispublic":1,"isfriend":0,"isfamily":0},{"id":"50787444647","owner":"8065544@N08","secret":"ec01604590","server":"65535","farm":66,"title":"Grasshopper Sparrow (Ammodramus savannarum)","ispublic":1,"isfriend":0,"isfamily":0},{"id":"50724383041","owner":"9383010@N05","secret":"c1a853fae0","server":"65535","farm":66,"title":"Grasshopper Sparrow","ispublic":1,"isfriend":0,"isfamily":0},{"id":"50722263596","owner":"9383010@N05","secret":"4f8495db3e","server":"65535","farm":66,"title":"Grasshopper Sparrow","ispublic":1,"isfriend":0,"isfamily":0},{"id":"50658345887","owner":"48912028@N05","secret":"65bb40a555","server":"65535","farm":66,"title":"Grasshopper Sparrow, Ammodramus savannarum","ispublic":1,"isfriend":0,"isfamily":0},{"id":"50657504178","owner":"48912028@N05","secret":"a49a77fdde","server":"65535","farm":66,"title":"Grasshopper Sparrow, Ammodramus savannarum","ispublic":1,"isfriend":0,"isfamily":0},{"id":"52435610216","owner":"33573751@N04","secret":"fc2eb4aa5b","server":"65535","farm":66,"title":"Grasshopper Sparrow (Ammodramus savannarum) - Griggstown, New Jersey, USA","ispublic":1,"isfriend":0,"isfamily":0},{"id":"52159828985","owner":"103722035@N06","secret":"49efc83c24","server":"0","farm":0,"title":"Grasshopper Sparrow (Ammodramus savannarum), Los Osos, CA","ispublic":1,"isfriend":0,"isfamily":0},{"id":"52142496451","owner":"103722035@N06","secret":"08ffbe091c","server":"65535","farm":66,"title":"Grasshopper Sparrow (Ammodramus savannarum), Los Osos, CA","ispublic":1,"isfriend":0,"isfamily":0},{"id":"52142733009","owner":"103722035@N06","secret":"383d501f59","server":"65535","farm":66,"title":"Grasshopper Sparrow (Ammodramus savannarum), Los Osos, CA","ispublic":1,"isfriend":0,"isfamily":0},{"id":"52141454272","owner":"103722035@N06","secret":"b55fc7f0fd","server":"0","farm":0,"title":"Grasshopper Sparrow (Ammodramus savannarum), Los Osos, CA","ispublic":1,"isfriend":0,"isfamily":0},{"id":"52068382007","owner":"85277889@N08","secret":"fdf22d036c","server":"65535","farm":66,"title":"Grasshopper Sparrow (Ammodramus savannarum) 2022-05-12 (17)","ispublic":1,"isfriend":0,"isfamily":0},{"id":"52069653379","owner":"85277889@N08","secret":"b2fd8ba5e0","server":"65535","farm":66,"title":"Grasshopper Sparrow (Ammodramus savannarum) 2022-05-12 (21)","ispublic":1,"isfriend":0,"isfamily":0},{"id":"51957284712","owner":"36685968@N00","secret":"52d08dd6e3","server":"65535","farm":66,"title":"Grasshopper Sparrow (Ammodramus savannarum)","ispublic":1,"isfriend":0,"isfamily":0},{"id":"51937076401","owner":"36685968@N00","secret":"331f663976","server":"65535","farm":66,"title":"Grasshopper Sparrow (Ammodramus savannarum)","ispublic":1,"isfriend":0,"isfamily":0},{"id":"51751005787","owner":"67306066@N03","secret":"9bf2bd9e34","server":"65535","farm":66,"title":"Grasshopper Sparrow (Ammodramus savannarum)","ispublic":1,"isfriend":0,"isfamily":0},{"id":"51752708080","owner":"67306066@N03","secret":"8b2b564920","server":"65535","farm":66,"title":"Grasshopper Sparrow (Ammodramus savannarum)","ispublic":1,"isfriend":0,"isfamily":0},{"id":"51751833071","owner":"67306066@N03","secret":"a1154b8da9","server":"65535","farm":66,"title":"Grasshopper Sparrow (Ammodramus savannarum)","ispublic":1,"isfriend":0,"isfamily":0},{"id":"51629293149","owner":"119787485@N07","secret":"c14b712601","server":"65535","farm":66,"title":"Grasshopper Sparrow (Ammodramus savannarum pratensis) - 20190612-01","ispublic":1,"isfriend":0,"isfamily":0},{"id":"51415898155","owner":"23016207@N05","secret":"a3e4d76231","server":"65535","farm":66,"title":"one moment","ispublic":1,"isfriend":0,"isfamily":0},{"id":"51320554616","owner":"67306066@N03","secret":"571f0a6fd2","server":"65535","farm":66,"title":"Grasshopper Sparrow (Ammodramus savannarum)","ispublic":1,"isfriend":0,"isfamily":0},{"id":"51321554760","owner":"67306066@N03","secret":"b88fd9e4af","server":"65535","farm":66,"title":"Grasshopper Sparrow (Ammodramus savannarum)","ispublic":1,"isfriend":0,"isfamily":0},{"id":"51319278647","owner":"135315828@N06","secret":"f9833b34a5","server":"65535","farm":66,"title":"IMG_6637","ispublic":1,"isfriend":0,"isfamily":0},{"id":"51305614641","owner":"183736567@N07","secret":"f3ba5321c4","server":"65535","farm":66,"title":"Grasshopper Sparrow (Ammodramus savannarum) 1","ispublic":1,"isfriend":0,"isfamily":0},{"id":"51305807388","owner":"183736567@N07","secret":"856f1656fd","server":"65535","farm":66,"title":"Grasshopper Sparrow (Ammodramus savannarum)","ispublic":1,"isfriend":0,"isfamily":0},{"id":"51286309173","owner":"135315828@N06","secret":"f5379f91e8","server":"65535","farm":66,"title":"IMG_4651","ispublic":1,"isfriend":0,"isfamily":0},{"id":"51250829594","owner":"67306066@N03","secret":"d94e7784d3","server":"65535","farm":66,"title":"Grasshopper Sparrow (Ammodramus savannarum)","ispublic":1,"isfriend":0,"isfamily":0},{"id":"51249353562","owner":"67306066@N03","secret":"aab877269d","server":"65535","farm":66,"title":"Grasshopper Sparrow (Ammodramus savannarum)","ispublic":1,"isfriend":0,"isfamily":0},{"id":"51235968030","owner":"103722035@N06","secret":"733c8cb9af","server":"0","farm":0,"title":"Grasshopper Sparrow (Ammodramus savannarum), Los Osos, CA","ispublic":1,"isfriend":0,"isfamily":0},{"id":"51234903641","owner":"103722035@N06","secret":"ba61aff346","server":"65535","farm":66,"title":"Grasshopper Sparrow (Ammodramus savannarum), Los Osos, CA","ispublic":1,"isfriend":0,"isfamily":0},{"id":"51235112748","owner":"103722035@N06","secret":"2d4586c0cd","server":"65535","farm":66,"title":"Grasshopper Sparrow (Ammodramus savannarum), Los Osos, CA","ispublic":1,"isfriend":0,"isfamily":0},{"id":"51199193314","owner":"182534679@N02","secret":"7b183522c7","server":"65535","farm":66,"title":"Ammodramus savannarum - Grasshopper Sparrow","ispublic":1,"isfriend":0,"isfamily":0},{"id":"51199480690","owner":"182534679@N02","secret":"fb48256848","server":"65535","farm":66,"title":"Ammodramus savannarum - Grasshopper Sparrow","ispublic":1,"isfriend":0,"isfamily":0},{"id":"51199193034","owner":"182534679@N02","secret":"b988023e15","server":"65535","farm":66,"title":"Ammodramus savannarum - Grasshopper Sparrow","ispublic":1,"isfriend":0,"isfamily":0},{"id":"51150491310","owner":"13451078@N03","secret":"61e14540d9","server":"65535","farm":66,"title":"Grasshopper Aparrow (Ammodramus savannarum)","ispublic":1,"isfriend":0,"isfamily":0},{"id":"51056953963","owner":"33610210@N05","secret":"3b32e9c1df","server":"65535","farm":66,"title":"Grasshopper Sparrow, Ammodramus savannarum","ispublic":1,"isfriend":0,"isfamily":0},{"id":"51057759632","owner":"33610210@N05","secret":"dec1b06bec","server":"65535","farm":66,"title":"Grasshopper Sparrow, Ammodramus savannarum","ispublic":1,"isfriend":0,"isfamily":0},{"id":"51057678011","owner":"33610210@N05","secret":"634d32aee5","server":"65535","farm":66,"title":"Grasshopper Sparrow, Ammodramus savannarum","ispublic":1,"isfriend":0,"isfamily":0},{"id":"51057759517","owner":"33610210@N05","secret":"c7ebedd79a","server":"65535","farm":66,"title":"Grasshopper Sparrow, Ammodramus savannarum","ispublic":1,"isfriend":0,"isfamily":0},{"id":"51057677901","owner":"33610210@N05","secret":"6bceeec827","server":"65535","farm":66,"title":"Grasshopper Sparrow, Ammodramus savannarum","ispublic":1,"isfriend":0,"isfamily":0},{"id":"50992992508","owner":"54514385@N06","secret":"efdd8c64e0","server":"65535","farm":66,"title":"Grasshopper Sparrow -- Ammodramus savannarum","ispublic":1,"isfriend":0,"isfamily":0},{"id":"50787341311","owner":"8065544@N08","secret":"47f7ff5f44","server":"65535","farm":66,"title":"Grasshopper Sparrow (Ammodramus savannarum)","ispublic":1,"isfriend":0,"isfamily":0},{"id":"50724535187","owner":"9383010@N05","secret":"22023785c2","server":"65535","farm":66,"title":"Grasshopper Sparrow","ispublic":1,"isfriend":0,"isfamily":0},{"id":"50724503407","owner":"9383010@N05","secret":"f17eb20462","server":"65535","farm":66,"title":"Grasshopper Sparrow, singing","ispublic":1,"isfriend":0,"isfamily":0},{"id":"50658326562","owner":"48912028@N05","secret":"c3e2c91442","server":"65535","farm":66,"title":"Grasshopper Sparrow, Ammodramus savannarum","ispublic":1,"isfriend":0,"isfamily":0},{"id":"50571532887","owner":"130406067@N03","secret":"dec8814ac3","server":"65535","farm":66,"title":"GRSP_MG_6518","ispublic":1,"isfriend":0,"isfamily":0},{"id":"50553137117","owner":"28499865@N07","secret":"d961f11cc7","server":"65535","farm":66,"title":"Grasshopper Sparrow - Ammodramus savannarum","ispublic":1,"isfriend":0,"isfamily":0},{"id":"50505776613","owner":"23859768@N04","secret":"3828dc0d4f","server":"65535","farm":66,"title":"grasshopper sparrow (Ammodramus savannarum)","ispublic":1,"isfriend":0,"isfamily":0}]},"stat":"ok"}