{"photos":{"page":1,"pages":73,"perpage":100,"total":7253,"photo":[{"id":"52711196996","owner":"98627816@N02","secret":"f57c10cb6c","server":"65535","farm":66,"title":"Greater yellowleg (Tringa melanoleuca)","ispublic":1,"isfriend":0,"isfamily":0},{"id":"52711236653","owner":"63460511@N03","secret":"5c56e65335","server":"65535","farm":66,"title":"Pitotoy grande, Greater yellowlegs (Charadriiformes, Scolopacidae: Tringa melanoleuca)","ispublic":1,"isfriend":0,"isfamily":0},{"id":"52711234808","owner":"63460511@N03","secret":"4b4b82d205","server":"65535","farm":66,"title":"Pitotoy grande, Greater yellowlegs (Charadriiformes, Scolopacidae: Tringa melanoleuca) [al frente], y Playero de Baird, Baird's sandpiper (Charadriiformes, Scolopacidae: Calidris bairdii) [al fondo]","ispublic":1,"isfriend":0,"isfamily":0},{"id":"52710754641","owner":"63460511@N03","secret":"7ee21fb8ee","server":"65535","farm":66,"title":"Pitotoy grande, Greater yellowlegs (Charadriiformes, Scolopacidae: Tringa melanoleuca)","ispublic":1,"isfriend":0,"isfamily":0},{"id":"52710748846","owner":"63460511@N03","secret":"03bb8f5aae","server":"65535","farm":66,"title":"Pitotoy grande, Greater yellowlegs (Charadriiformes, Scolopacidae: Tringa melanoleuca)","ispublic":1,"isfriend":0,"isfamily":0},{"id":"52709523834","owner":"61396634@N07","secret":"d0ef5a2e38","server":"65535","farm":66,"title":"Greater Yellowlegs","ispublic":1,"isfriend":0,"isfamily":0},{"id":"52709530495","owner":"59226250@N04","secret":"995d88a307","server":"65535","farm":66,"title":"Pitotoy grande","ispublic":1,"isfriend":0,"isfamily":0},{"id":"52697383743","owner":"52450054@N04","secret":"53bb198399","server":"65535","farm":66,"title":"Greater Yellowlegs - Tringa melanoleuca, Chincoteague National Wildlife Refuge, Chincoteague, Virginia, November 26, 2022","ispublic":1,"isfriend":0,"isfamily":0},{"id":"52694677660","owner":"131037795@N03","secret":"601b4e835c","server":"65535","farm":66,"title":"Greater Yellowlegs (Tringa melanoleuca)","ispublic":1,"isfriend":0,"isfamily":0},{"id":"52694269970","owner":"131779834@N08","secret":"513ef85740","server":"65535","farm":66,"title":"Skipping in the Waves","ispublic":1,"isfriend":0,"isfamily":0},{"id":"52690437167","owner":"54100598@N08","secret":"f776d51a23","server":"65535","farm":66,"title":"Greenshank (Tringa nebularia)","ispublic":1,"isfriend":0,"isfamily":0},{"id":"52691373240","owner":"54100598@N08","secret":"dff495a0b8","server":"65535","farm":66,"title":"Greenshank (Tringa nebularia)","ispublic":1,"isfriend":0,"isfamily":0},{"id":"52691446993","owner":"54100598@N08","secret":"cd548a6670","server":"65535","farm":66,"title":"Greenshank (Tringa nebularia)","ispublic":1,"isfriend":0,"isfamily":0},{"id":"52690954626","owner":"54100598@N08","secret":"2a50a21be8","server":"65535","farm":66,"title":"Greenshank (Tringa nebularia)","ispublic":1,"isfriend":0,"isfamily":0},{"id":"52690436872","owner":"54100598@N08","secret":"0d8a128b5a","server":"65535","farm":66,"title":"Greenshank (Tringa nebularia)","ispublic":1,"isfriend":0,"isfamily":0},{"id":"52689695205","owner":"54100598@N08","secret":"26f3a32e73","server":"65535","farm":66,"title":"Green Sandpiper (Tringa ochropus)  & Greenshank (Tringa nebularia)","ispublic":1,"isfriend":0,"isfamily":0},{"id":"52689275676","owner":"54100598@N08","secret":"10e8230629","server":"65535","farm":66,"title":"Green Sandpiper (Tringa ochropus)  & Greenshank (Tringa nebularia)","ispublic":1,"isfriend":0,"isfamily":0},{"id":"52688750637","owner":"54100598@N08","secret":"34fffb4d8d","server":"65535","farm":66,"title":"Green Sandpiper (Tringa ochropus)  & Greenshank (Tringa nebularia)","ispublic":1,"isfriend":0,"isfamily":0},{"id":"52687648479","owner":"196264892@N08","secret":"f483136b7b","server":"65535","farm":66,"title":"Greater Yellowlegs  Marrowstone Island","ispublic":1,"isfriend":0,"isfamily":0},{"id":"52687648294","owner":"196264892@N08","secret":"f64c321308","server":"65535","farm":66,"title":"Greater Yellowlegs  Marrowstone Island","ispublic":1,"isfriend":0,"isfamily":0},{"id":"52687794555","owner":"196264892@N08","secret":"7e1e0c8276","server":"65535","farm":66,"title":"Greater Yellowlegs  Marrowstone Island","ispublic":1,"isfriend":0,"isfamily":0},{"id":"52687794195","owner":"196264892@N08","secret":"c3cea8d60e","server":"65535","farm":66,"title":"Greater Yellowlegs  Marrowstone Island","ispublic":1,"isfriend":0,"isfamily":0},{"id":"52687647324","owner":"196264892@N08","secret":"99e99e9ab2","server":"65535","farm":66,"title":"Greater Yellowlegs  Marrowstone Island","ispublic":1,"isfriend":0,"isfamily":0},{"id":"52686851372","owner":"196264892@N08","secret":"ba71270c84","server":"65535","farm":66,"title":"Greater Yellowlegs  Marrowstone Island","ispublic":1,"isfriend":0,"isfamily":0},{"id":"52687368906","owner":"196264892@N08","secret":"37dee66fa8","server":"65535","farm":66,"title":"Greater Yellowlegs  Marrowstone Island","ispublic":1,"isfriend":0,"isfamily":0},{"id":"52687792880","owner":"196264892@N08","secret":"f072f61a74","server":"65535","farm":66,"title":"Greater Yellowlegs  Marrowstone Island","ispublic":1,"isfriend":0,"isfamily":0},{"id":"52687864258","owner":"196264892@N08","secret":"18ce37bbd8","server":"65535","farm":66,"title":"Greater Yellowlegs  Marrowstone Island","ispublic":1,"isfriend":0,"isfamily":0},{"id":"52687792135","owner":"196264892@N08","secret":"c6a50dd4e7","server":"65535","farm":66,"title":"Greater Yellowlegs Penn Cove","ispublic":1,"isfriend":0,"isfamily":0},{"id":"52687791845","owner":"196264892@N08","secret":"844b09d6ee","server":"65535","farm":66,"title":"Greater Yellowlegs Penn Cove","ispublic":1,"isfriend":0,"isfamily":0},{"id":"52686849442","owner":"196264892@N08","secret":"ddac1c67a6","server":"65535","farm":66,"title":"Greater Yellowlegs Penn Cove","ispublic":1,"isfriend":0,"isfamily":0},{"id":"52687862943","owner":"196264892@N08","secret":"3c272ae2b6","server":"65535","farm":66,"title":"Greater Yellowlegs Penn Cove","ispublic":1,"isfriend":0,"isfamily":0},{"id":"52683027097","owner":"103722035@N06","secret":"60c5c93350","server":"0","farm":0,"title":"Greater Yellowlegs (Tringa melanoleuca), Bitterwater Road, San Luis Obispo County, CA","ispublic":1,"isfriend":0,"isfamily":0},{"id":"52682676210","owner":"62043870@N05","secret":"a68ff97024","server":"65535","farm":66,"title":"Greater Yellowlegs, Tringa melanoleuca","ispublic":1,"isfriend":0,"isfamily":0},{"id":"52682658775","owner":"31154073@N05","secret":"3733fe1de7","server":"65535","farm":66,"title":"Sunrise Wader","ispublic":1,"isfriend":0,"isfamily":0},{"id":"52679384795","owner":"47533293@N04","secret":"e336a51e61","server":"65535","farm":66,"title":"Greater yellowlegs, Tringa melanoleuca","ispublic":1,"isfriend":0,"isfamily":0},{"id":"52677781555","owner":"143326780@N02","secret":"7983293ebc","server":"65535","farm":66,"title":"DSCN3647","ispublic":1,"isfriend":0,"isfamily":0},{"id":"52677347351","owner":"143326780@N02","secret":"d3f31d1642","server":"65535","farm":66,"title":"DSCN3502","ispublic":1,"isfriend":0,"isfamily":0},{"id":"52662685696","owner":"14734088@N02","secret":"d97588f970","server":"65535","farm":66,"title":"Grand Chevalier 200913H4","ispublic":1,"isfriend":0,"isfamily":0},{"id":"52657606386","owner":"78223721@N03","secret":"7a284a5583","server":"65535","farm":66,"title":"Tringa melanoleuca","ispublic":1,"isfriend":0,"isfamily":0},{"id":"52656923971","owner":"141256983@N04","secret":"dd47214c4f","server":"65535","farm":66,"title":"Greater Yellowlegs (Tringa melanoleuca)","ispublic":1,"isfriend":0,"isfamily":0},{"id":"52656886005","owner":"62907378@N07","secret":"8776874eb4","server":"65535","farm":66,"title":"Greater Yellowlegs (Tringa melanoleuca)","ispublic":1,"isfriend":0,"isfamily":0},{"id":"52656932213","owner":"62907378@N07","secret":"167696da5e","server":"65535","farm":66,"title":"Greater Yellowlegs (Tringa melanoleuca)","ispublic":1,"isfriend":0,"isfamily":0},{"id":"52656885925","owner":"62907378@N07","secret":"a6fe21fe75","server":"65535","farm":66,"title":"Greater Yellowlegs (Tringa melanoleuca)","ispublic":1,"isfriend":0,"isfamily":0},{"id":"52656724109","owner":"62907378@N07","secret":"68cb72f699","server":"65535","farm":66,"title":"Greater Yellowlegs (Tringa melanoleuca)","ispublic":1,"isfriend":0,"isfamily":0},{"id":"52655122682","owner":"8264176@N02","secret":"6b77a8fe42","server":"65535","farm":66,"title":"BirdsofColombia - Greater Yellowlegs  \u00b7  Tringa melanoleuca - 277459","ispublic":1,"isfriend":0,"isfamily":0},{"id":"52653699269","owner":"144980256@N07","secret":"9c643ae73c","server":"65535","farm":66,"title":"Greater Yellowlegs (Tringa melanoleuca)","ispublic":1,"isfriend":0,"isfamily":0},{"id":"52646627938","owner":"104988466@N08","secret":"93f2012b43","server":"65535","farm":66,"title":"12. Chevalier criard - Tringa melanoleuca - Greater Yellowlegs","ispublic":1,"isfriend":0,"isfamily":0},{"id":"52646410589","owner":"104988466@N08","secret":"39becf27df","server":"65535","farm":66,"title":"13. Chevalier criard - Tringa melanoleuca - Greater Yellowlegs","ispublic":1,"isfriend":0,"isfamily":0},{"id":"52646588800","owner":"104988466@N08","secret":"576cee29e9","server":"65535","farm":66,"title":"14. Chevalier criard - Tringa melanoleuca - Greater Yellowlegs","ispublic":1,"isfriend":0,"isfamily":0},{"id":"52640729714","owner":"195968484@N08","secret":"0cefd3a753","server":"65535","farm":66,"title":"Greater Yellowlegs","ispublic":1,"isfriend":0,"isfamily":0},{"id":"52640729284","owner":"195968484@N08","secret":"4e8b541eda","server":"65535","farm":66,"title":"Greater Yellowlegs","ispublic":1,"isfriend":0,"isfamily":0},{"id":"52640454891","owner":"52450054@N04","secret":"831f5a3f6a","server":"65535","farm":66,"title":"Greater Yellowlegs - Tringa melanoleuca, Chincoteague National Wildlife Refuge, Chincoteague, Virginia, November 26, 2022","ispublic":1,"isfriend":0,"isfamily":0},{"id":"52636634866","owner":"37203410@N07","secret":"2ff4eecf5e","server":"65535","farm":66,"title":"Pitotoy grande \/ Tringa melanoleuca","ispublic":1,"isfriend":0,"isfamily":0},{"id":"52627860204","owner":"109544413@N05","secret":"07be244440","server":"65535","farm":66,"title":"Who's got whom?","ispublic":1,"isfriend":0,"isfamily":0},{"id":"52627616266","owner":"109544413@N05","secret":"5609a1e495","server":"65535","farm":66,"title":"Greater Yellowlegs caught a fish","ispublic":1,"isfriend":0,"isfamily":0},{"id":"52628090163","owner":"109544413@N05","secret":"f689ebe604","server":"65535","farm":66,"title":"The dragonfly almost got free","ispublic":1,"isfriend":0,"isfamily":0},{"id":"52628049215","owner":"109544413@N05","secret":"12ba179ab7","server":"65535","farm":66,"title":"The hunter...","ispublic":1,"isfriend":0,"isfamily":0},{"id":"52625625753","owner":"82393004@N02","secret":"35cf6e5205","server":"65535","farm":66,"title":"Greater yellowlegs","ispublic":1,"isfriend":0,"isfamily":0},{"id":"9521499346","owner":"28490798@N03","secret":"44831c9f15","server":"5514","farm":6,"title":"Pitotoy Grande | Tringa melanoleuca","ispublic":1,"isfriend":0,"isfamily":0},{"id":"52622134465","owner":"11815777@N07","secret":"e23ba0598e","server":"65535","farm":66,"title":"Too tall to hide","ispublic":1,"isfriend":0,"isfamily":0},{"id":"52647533206","owner":"134270033@N06","secret":"c2e3650005","server":"65535","farm":66,"title":"HTT :: Happy Tuesday  Twosday","ispublic":1,"isfriend":0,"isfamily":0},{"id":"52601615853","owner":"99849996@N00","secret":"b92c2f7af4","server":"65535","farm":66,"title":"Greater Yellowlegs 20211130_0123","ispublic":1,"isfriend":0,"isfamily":0},{"id":"52599644777","owner":"79878666@N00","secret":"4545d21c43","server":"65535","farm":66,"title":"Yellowlegs","ispublic":1,"isfriend":0,"isfamily":0},{"id":"52583756398","owner":"34238008@N02","secret":"f42330b7f2","server":"65535","farm":66,"title":"Greater Yellowlegs (Tringa melanoleuca)","ispublic":1,"isfriend":0,"isfamily":0},{"id":"52583680660","owner":"34238008@N02","secret":"dc805714bb","server":"65535","farm":66,"title":"Greater Yellowlegs (Tringa melanoleuca)","ispublic":1,"isfriend":0,"isfamily":0},{"id":"52581730660","owner":"34238008@N02","secret":"930359d632","server":"65535","farm":66,"title":"Greater Yellowlegs (Tringa melanoleuca)","ispublic":1,"isfriend":0,"isfamily":0},{"id":"52581813628","owner":"34238008@N02","secret":"a5507756ac","server":"65535","farm":66,"title":"Greater Yellowlegs (Tringa melanoleuca)","ispublic":1,"isfriend":0,"isfamily":0},{"id":"52580828753","owner":"153973412@N04","secret":"d68916c2a3","server":"65535","farm":66,"title":"Greater Yellowlegs-Tringa melanoleuca, Iowa City, IA","ispublic":1,"isfriend":0,"isfamily":0},{"id":"52580741373","owner":"111701633@N07","secret":"e7fae91079","server":"65535","farm":66,"title":"Greater_Yellowlegs","ispublic":1,"isfriend":0,"isfamily":0},{"id":"52572661978","owner":"145287509@N03","secret":"9a70b25425","server":"65535","farm":66,"title":"Greater Yelowlegs (Tringa melanoleuca)","ispublic":1,"isfriend":0,"isfamily":0},{"id":"52569692468","owner":"124995824@N08","secret":"da00ea1fe9","server":"65535","farm":66,"title":"Greater Yellowlegs - Tringa melanoleuca","ispublic":1,"isfriend":0,"isfamily":0},{"id":"52561650644","owner":"7331818@N02","secret":"e2c02e5000","server":"65535","farm":66,"title":"Sepia Reflections","ispublic":1,"isfriend":0,"isfamily":0},{"id":"52294106787","owner":"131779834@N08","secret":"d115eec372","server":"65535","farm":66,"title":"3's A Crowd","ispublic":1,"isfriend":0,"isfamily":0},{"id":"52554633532","owner":"146455226@N02","secret":"0109be3ce9","server":"65535","farm":66,"title":"Greater Yellowlegs #6","ispublic":1,"isfriend":0,"isfamily":0},{"id":"52555317198","owner":"143326780@N02","secret":"c242d90376","server":"65535","farm":66,"title":"DSCN1965","ispublic":1,"isfriend":0,"isfamily":0},{"id":"52546037753","owner":"69947563@N07","secret":"e770fa246b","server":"65535","farm":66,"title":"Greater Yellowlegs - Distrito Capital de Bogot\u00e1, Colombia","ispublic":1,"isfriend":0,"isfamily":0},{"id":"52544042960","owner":"51928691@N04","secret":"65db7aeb98","server":"65535","farm":66,"title":"Greater Yellowlegs (Tringa melanoleuca) 2 120422","ispublic":1,"isfriend":0,"isfamily":0},{"id":"52543860290","owner":"33610210@N05","secret":"8c0182045d","server":"65535","farm":66,"title":"Greater Yellowlegs, Tringa melanoleuca","ispublic":1,"isfriend":0,"isfamily":0},{"id":"52543923348","owner":"33610210@N05","secret":"f3f9c80cd3","server":"65535","farm":66,"title":"Greater Yellowlegs, Tringa melanoleuca","ispublic":1,"isfriend":0,"isfamily":0},{"id":"52543859790","owner":"33610210@N05","secret":"55004e1ab9","server":"65535","farm":66,"title":"Greater Yellowlegs, Tringa melanoleuca","ispublic":1,"isfriend":0,"isfamily":0},{"id":"52538092814","owner":"126271444@N08","secret":"cd3ea79dfd","server":"65535","farm":66,"title":"Greater Yellowlegs (Tringa melanoleuca)","ispublic":1,"isfriend":0,"isfamily":0},{"id":"52538348298","owner":"126271444@N08","secret":"889aa7c85e","server":"65535","farm":66,"title":"Greater Yellowlegs (Tringa melanoleuca)","ispublic":1,"isfriend":0,"isfamily":0},{"id":"52525463385","owner":"60216873@N05","secret":"247cf11c0b","server":"65535","farm":66,"title":"Stick in the Mud","ispublic":1,"isfriend":0,"isfamily":0},{"id":"52521501204","owner":"53256251@N04","secret":"cbc8433fba","server":"65535","farm":66,"title":"Feels so good to stretch - Greater Yellowlegs","ispublic":1,"isfriend":0,"isfamily":0},{"id":"52633233199","owner":"195179412@N07","secret":"272c6b9ef9","server":"65535","farm":66,"title":"PITOTOY GRANDE, Tringa melanoleuca","ispublic":1,"isfriend":0,"isfamily":0},{"id":"52628091463","owner":"109544413@N05","secret":"33b561425d","server":"65535","farm":66,"title":"Is it trying to knock the wings off?","ispublic":1,"isfriend":0,"isfamily":0},{"id":"52593693335","owner":"76288515@N07","secret":"fe0d5d4b5b","server":"65535","farm":66,"title":"Greater Yellowlegs Tringa melanoleuca","ispublic":1,"isfriend":0,"isfamily":0},{"id":"52593527229","owner":"76288515@N07","secret":"25948a30cd","server":"65535","farm":66,"title":"Greater Yellowlegs Tringa melanoleuca","ispublic":1,"isfriend":0,"isfamily":0},{"id":"52593786863","owner":"76288515@N07","secret":"1a0475d22a","server":"65535","farm":66,"title":"Greater Yellowlegs Tringa melanoleuca","ispublic":1,"isfriend":0,"isfamily":0},{"id":"52592784002","owner":"76288515@N07","secret":"0560a7e5ca","server":"65535","farm":66,"title":"Greater Yellowlegs Tringa melanoleuca","ispublic":1,"isfriend":0,"isfamily":0},{"id":"52593265466","owner":"76288515@N07","secret":"bc272a0651","server":"65535","farm":66,"title":"Greater Yellowlegs Tringa melanoleuca","ispublic":1,"isfriend":0,"isfamily":0},{"id":"52593265476","owner":"76288515@N07","secret":"edb3202731","server":"65535","farm":66,"title":"Greater Yellowlegs Tringa melanoleuca","ispublic":1,"isfriend":0,"isfamily":0},{"id":"52583608032","owner":"109544413@N05","secret":"8978904460","server":"65535","farm":66,"title":"Greater Yellowlegs at sunset (8:54p)","ispublic":1,"isfriend":0,"isfamily":0},{"id":"52555249775","owner":"143326780@N02","secret":"6fc91e6c75","server":"65535","farm":66,"title":"DSCN1967","ispublic":1,"isfriend":0,"isfamily":0},{"id":"52543376616","owner":"33610210@N05","secret":"e68a9eb698","server":"65535","farm":66,"title":"Greater Yellowlegs, Tringa melanoleuca","ispublic":1,"isfriend":0,"isfamily":0},{"id":"52537800301","owner":"126271444@N08","secret":"1834b366a5","server":"65535","farm":66,"title":"Greater Yellowlegs (Tringa melanoleuca)","ispublic":1,"isfriend":0,"isfamily":0},{"id":"52537336167","owner":"126271444@N08","secret":"5ef67c1226","server":"65535","farm":66,"title":"Greater Yellowlegs (Tringa melanoleuca)","ispublic":1,"isfriend":0,"isfamily":0},{"id":"52538348498","owner":"126271444@N08","secret":"bd987aed08","server":"65535","farm":66,"title":"Greater Yellowlegs (Tringa melanoleuca)","ispublic":1,"isfriend":0,"isfamily":0},{"id":"52537335932","owner":"126271444@N08","secret":"c8407d5746","server":"65535","farm":66,"title":"Greater Yellowlegs (Tringa melanoleuca)","ispublic":1,"isfriend":0,"isfamily":0},{"id":"52538275490","owner":"126271444@N08","secret":"ea63c6ce61","server":"65535","farm":66,"title":"Greater Yellowlegs (Tringa melanoleuca)","ispublic":1,"isfriend":0,"isfamily":0}]},"stat":"ok"}