{"photos":{"page":1,"pages":493,"perpage":100,"total":49220,"photo":[{"id":"52723997716","owner":"71989271@N06","secret":"24a39fe474","server":"65535","farm":66,"title":"Great Blue Heron (Ardea herodias)","ispublic":1,"isfriend":0,"isfamily":0},{"id":"52723394142","owner":"57126723@N07","secret":"25e2c7a81c","server":"65535","farm":66,"title":"Great Blue Heron\u2014Ardea herodias\u2014Greensprings trail-9354-Edit","ispublic":1,"isfriend":0,"isfamily":0},{"id":"52724326165","owner":"57126723@N07","secret":"5e90980fe4","server":"65535","farm":66,"title":"Great Blue Heron\u2014Ardea herodias\u2014Greensprings trail-9374-Edit","ispublic":1,"isfriend":0,"isfamily":0},{"id":"52723394032","owner":"57126723@N07","secret":"bfa768a03b","server":"65535","farm":66,"title":"Great Blue Heron\u2014Ardea herodias\u2014with a ...seahorse?\u2014Greensprings trail--Edit-Edit","ispublic":1,"isfriend":0,"isfamily":0},{"id":"52722663247","owner":"12639178@N07","secret":"a48baf727b","server":"65535","farm":66,"title":"Kanadareiher","ispublic":1,"isfriend":0,"isfamily":0},{"id":"52723021486","owner":"169771858@N03","secret":"459fe75c7e","server":"65535","farm":66,"title":"Great Blue Heron #2 - 2019-07-04","ispublic":1,"isfriend":0,"isfamily":0},{"id":"52722967498","owner":"68756708@N04","secret":"6503ecb137","server":"65535","farm":66,"title":"Great Blue Heron with Catfish","ispublic":1,"isfriend":0,"isfamily":0},{"id":"52722303481","owner":"161505078@N03","secret":"0f29eb024d","server":"65535","farm":66,"title":"Great Blue Heron (Ardea herodias)","ispublic":1,"isfriend":0,"isfamily":0},{"id":"52722720513","owner":"53977003@N00","secret":"d1cd3f6dbb","server":"65535","farm":66,"title":"Great Blue Heron","ispublic":1,"isfriend":0,"isfamily":0},{"id":"52721444427","owner":"40941741@N03","secret":"995f363632","server":"65535","farm":66,"title":"Gathering","ispublic":1,"isfriend":0,"isfamily":0},{"id":"52722104635","owner":"44904157@N04","secret":"be64d41d11","server":"65535","farm":66,"title":"Heron At Willband Creek","ispublic":1,"isfriend":0,"isfamily":0},{"id":"52720805913","owner":"197628215@N07","secret":"d71d532772","server":"65535","farm":66,"title":"He's making a living in the cold. Good job man!! Great Blue Heron (Ardea herodias) 02\/09\/2023 #gbh #greatblueheron #heron #bestbackroad #bestbackroads #natgeoyourshots #natgeo100contest #natgeo #rutlandcountyvt #washingtoncountyny #whitehallny #wildphotog","ispublic":1,"isfriend":0,"isfamily":0},{"id":"52720233539","owner":"188352054@N08","secret":"29f889855f","server":"65535","farm":66,"title":"IMG_8286","ispublic":1,"isfriend":0,"isfamily":0},{"id":"52720233409","owner":"188352054@N08","secret":"e5822f51b8","server":"65535","farm":66,"title":"IMG_8304","ispublic":1,"isfriend":0,"isfamily":0},{"id":"52719964911","owner":"188352054@N08","secret":"0aea975c48","server":"65535","farm":66,"title":"IMG_8340","ispublic":1,"isfriend":0,"isfamily":0},{"id":"52720452213","owner":"188352054@N08","secret":"fc63640947","server":"65535","farm":66,"title":"IMG_8377","ispublic":1,"isfriend":0,"isfamily":0},{"id":"52719127547","owner":"93273765@N05","secret":"d040ee5f2e","server":"65535","farm":66,"title":"Great Blue Heron (Ardea herodias)","ispublic":1,"isfriend":0,"isfamily":0},{"id":"52719762250","owner":"60611332@N06","secret":"f3edd4426c","server":"65535","farm":66,"title":"Considering His Options","ispublic":1,"isfriend":0,"isfamily":0},{"id":"52719764423","owner":"131037795@N03","secret":"9a2182525d","server":"65535","farm":66,"title":"Great Blue Heron (Ardea herodias)","ispublic":1,"isfriend":0,"isfamily":0},{"id":"52719572638","owner":"169771858@N03","secret":"7ea7facf21","server":"65535","farm":66,"title":"Great Blue Heron #4 - 2019-07-04","ispublic":1,"isfriend":0,"isfamily":0},{"id":"52717286997","owner":"161505078@N03","secret":"2c4d111301","server":"65535","farm":66,"title":"Great Blue Heron (Ardea herodias)","ispublic":1,"isfriend":0,"isfamily":0},{"id":"52716867397","owner":"187292684@N06","secret":"4a04918945","server":"65535","farm":66,"title":"M2E92A1L118-160.9109954-160.9109954","ispublic":1,"isfriend":0,"isfamily":0},{"id":"52717385426","owner":"187292684@N06","secret":"e4104d7d6a","server":"65535","farm":66,"title":"M2E96A1L129-177.421997-177.421997","ispublic":1,"isfriend":0,"isfamily":0},{"id":"52716631892","owner":"151381692@N04","secret":"659f197c03","server":"65535","farm":66,"title":"Great Blue Heron (Ardea herodias)","ispublic":1,"isfriend":0,"isfamily":0},{"id":"52717418209","owner":"151381692@N04","secret":"3df6183b40","server":"65535","farm":66,"title":"Great Blue Heron (Ardea herodias)","ispublic":1,"isfriend":0,"isfamily":0},{"id":"52717106381","owner":"14489732@N00","secret":"af60cd64a0","server":"65535","farm":66,"title":"Juvenile Great Blue Heron","ispublic":1,"isfriend":0,"isfamily":0},{"id":"52717202718","owner":"51433704@N06","secret":"24d2d31e99","server":"65535","farm":66,"title":"Great Blue Heron","ispublic":1,"isfriend":0,"isfamily":0},{"id":"52716472311","owner":"39652177@N04","secret":"7781f21bce","server":"65535","farm":66,"title":"Great blue heron","ispublic":1,"isfriend":0,"isfamily":0},{"id":"52716151371","owner":"79791557@N02","secret":"bdd50fc959","server":"65535","farm":66,"title":"Great Blue Heron (Ardea herodias)","ispublic":1,"isfriend":0,"isfamily":0},{"id":"52716619813","owner":"26520320@N03","secret":"376043efcd","server":"65535","farm":66,"title":"_BAP0403","ispublic":1,"isfriend":0,"isfamily":0},{"id":"52716562145","owner":"26520320@N03","secret":"f827121d5e","server":"65535","farm":66,"title":"_BAP0395","ispublic":1,"isfriend":0,"isfamily":0},{"id":"52716091416","owner":"197628215@N07","secret":"42e439503b","server":"65535","farm":66,"title":"He's making a living in the cold. Good job man!! Great Blue Heron (Ardea herodias) 02\/09\/2023 #gbh #greatblueheron #heron #bestbackroad #bestbackroads #natgeoyourshots #natgeo100contest #natgeo #rutlandcountyvt #washingtoncountyny #whitehallny #wildphotog","ispublic":1,"isfriend":0,"isfamily":0},{"id":"52714676697","owner":"11159374@N04","secret":"2bbed68cd2","server":"65535","farm":66,"title":"Great Blue Heron","ispublic":1,"isfriend":0,"isfamily":0},{"id":"52714934511","owner":"14489732@N00","secret":"30cc6a5a41","server":"65535","farm":66,"title":"Great Blue Heron, Fort Morgan","ispublic":1,"isfriend":0,"isfamily":0},{"id":"52715344013","owner":"7856934@N03","secret":"75d811e1af","server":"65535","farm":66,"title":"Great Blue Heron","ispublic":1,"isfriend":0,"isfamily":0},{"id":"52714268952","owner":"131037795@N03","secret":"c3479d43f7","server":"65535","farm":66,"title":"Great Blue Heron (Ardea herodias) dunking meadow vole 1.","ispublic":1,"isfriend":0,"isfamily":0},{"id":"52715262403","owner":"131037795@N03","secret":"4374e7297e","server":"65535","farm":66,"title":"Great Blue Heron (Ardea herodias) dunking meadow vole 3.","ispublic":1,"isfriend":0,"isfamily":0},{"id":"52714247631","owner":"51433704@N06","secret":"595abb5e94","server":"65535","farm":66,"title":"White Morph Great Blue Heron","ispublic":1,"isfriend":0,"isfamily":0},{"id":"52714134658","owner":"161505078@N03","secret":"9ccf0ac4ec","server":"65535","farm":66,"title":"Great Blue Heron (Ardea herodias)","ispublic":1,"isfriend":0,"isfamily":0},{"id":"52712395192","owner":"161505078@N03","secret":"4ce3f976d3","server":"65535","farm":66,"title":"Great Blue Heron (Ardea herodias)","ispublic":1,"isfriend":0,"isfamily":0},{"id":"52712217941","owner":"93273765@N05","secret":"2a82cb6776","server":"65535","farm":66,"title":"Great Blue Heron (Ardea herodias)","ispublic":1,"isfriend":0,"isfamily":0},{"id":"52712024536","owner":"45246060@N03","secret":"843cce586f","server":"65535","farm":66,"title":"Great blue heron has got fine dinner.","ispublic":1,"isfriend":0,"isfamily":0},{"id":"52711464731","owner":"144980256@N07","secret":"1d28c60d76","server":"65535","farm":66,"title":"Great Blue Heron (Ardea herodias)","ispublic":1,"isfriend":0,"isfamily":0},{"id":"52711751040","owner":"46837385@N03","secret":"914a0af804","server":"65535","farm":66,"title":"Great Blue Heron Eating Armored Catfish (1)","ispublic":1,"isfriend":0,"isfamily":0},{"id":"52710812107","owner":"46837385@N03","secret":"e0bd278927","server":"65535","farm":66,"title":"Great Blue Heron Eating Armored Catfish (2)","ispublic":1,"isfriend":0,"isfamily":0},{"id":"52711595759","owner":"46837385@N03","secret":"7301516178","server":"65535","farm":66,"title":"Great Blue Heron Eating Armored Catfish (3)","ispublic":1,"isfriend":0,"isfamily":0},{"id":"52711425744","owner":"197628215@N07","secret":"da69d32e6a","server":"65535","farm":66,"title":"He's making a living in the cold, good job man!! Great Blue Heron (Ardea herodias) 02\/09\/2023 #gbh #greatblueheron #heron #bestbackroad #bestbackroads #natgeoyourshots #natgeo100contest #natgeo #rutlandcountyvt #washingtoncountyny #whitehallny #wildphotog","ispublic":1,"isfriend":0,"isfamily":0},{"id":"52710719486","owner":"47533293@N04","secret":"88e74bf7a2","server":"65535","farm":66,"title":"Great blue heron, Ardea herodias, with a juvenile common carp, Cyprinus carpio","ispublic":1,"isfriend":0,"isfamily":0},{"id":"52711064098","owner":"152119783@N06","secret":"bd16f94f77","server":"65535","farm":66,"title":"The great blue heron (Ardea herodias)","ispublic":1,"isfriend":0,"isfamily":0},{"id":"52709976221","owner":"45246060@N03","secret":"fc52e83839","server":"65535","farm":66,"title":"Great Blue Heron","ispublic":1,"isfriend":0,"isfamily":0},{"id":"52710124743","owner":"45246060@N03","secret":"dddfee036b","server":"65535","farm":66,"title":"Great Blue Heron with a catch","ispublic":1,"isfriend":0,"isfamily":0},{"id":"52709533450","owner":"90355165@N03","secret":"b147ba63ec","server":"65535","farm":66,"title":"great blue heron","ispublic":1,"isfriend":0,"isfamily":0},{"id":"52709523195","owner":"90355165@N03","secret":"6801eafd65","server":"65535","farm":66,"title":"great blue heron","ispublic":1,"isfriend":0,"isfamily":0},{"id":"52708850548","owner":"62907378@N07","secret":"b63f47b622","server":"65535","farm":66,"title":"Great Blue Heron (Ardea herodias)","ispublic":1,"isfriend":0,"isfamily":0},{"id":"52708620864","owner":"62907378@N07","secret":"060869b0e4","server":"65535","farm":66,"title":"Great Blue Heron (Ardea herodias)","ispublic":1,"isfriend":0,"isfamily":0},{"id":"52708245396","owner":"161505078@N03","secret":"57cba4c464","server":"65535","farm":66,"title":"Great Blue Heron (Ardea herodias)","ispublic":1,"isfriend":0,"isfamily":0},{"id":"52707652062","owner":"74787113@N05","secret":"df5b7e6612","server":"65535","farm":66,"title":"GREAT BLUE HERON SNACK","ispublic":1,"isfriend":0,"isfamily":0},{"id":"52708138816","owner":"181824639@N02","secret":"250bfcaee5","server":"65535","farm":66,"title":"Grand h\u00e9ron ( Ardea herodias )","ispublic":1,"isfriend":0,"isfamily":0},{"id":"52707613957","owner":"34238008@N02","secret":"8b89630aa5","server":"65535","farm":66,"title":"Great Blue Heron (Ardea herodias)","ispublic":1,"isfriend":0,"isfamily":0},{"id":"52707480491","owner":"45340210@N05","secret":"0209e2fcbe","server":"65535","farm":66,"title":"Great Blue Heron Flight","ispublic":1,"isfriend":0,"isfamily":0},{"id":"52706931072","owner":"57126723@N07","secret":"98fb0ee857","server":"65535","farm":66,"title":"Great blue heron\u2014Ardea herodias\u2014Ardeidae-9137-Edit-Edit","ispublic":1,"isfriend":0,"isfamily":0},{"id":"52706494937","owner":"197628215@N07","secret":"0230309477","server":"65535","farm":66,"title":"I was so happy to see this guy after these last few super cold days! He made it!! Great Blue Heron (Ardea herodias) 02\/06\/2023 #greatblueheron #heron #bestbackroad #bestbackroads #natgeoyourshots #natgeo100contest #natgeo #rutlandcountyvt #washingtoncount","ispublic":1,"isfriend":0,"isfamily":0},{"id":"52707002583","owner":"45246060@N03","secret":"96bf634e2b","server":"65535","farm":66,"title":"Great Blue Heron with a catch","ispublic":1,"isfriend":0,"isfamily":0},{"id":"52704440777","owner":"17612257@N00","secret":"992659da6a","server":"65535","farm":66,"title":"Great Blue Heron","ispublic":1,"isfriend":0,"isfamily":0},{"id":"52703466587","owner":"51433704@N06","secret":"b1946eaef4","server":"65535","farm":66,"title":"Great Blue Heron","ispublic":1,"isfriend":0,"isfamily":0},{"id":"52703827801","owner":"51973523@N07","secret":"6cbe35f00f","server":"65535","farm":66,"title":"Great Blue Heron","ispublic":1,"isfriend":0,"isfamily":0},{"id":"52703286402","owner":"30418455@N00","secret":"701a69cce4","server":"65535","farm":66,"title":"GREAT BLUE HERON 48","ispublic":1,"isfriend":0,"isfamily":0},{"id":"52704042880","owner":"188214336@N08","secret":"46575ed6ec","server":"65535","farm":66,"title":"DSC_7068-2R1 Great Blue Heron","ispublic":1,"isfriend":0,"isfamily":0},{"id":"52703686130","owner":"59206851@N00","secret":"a887806159","server":"65535","farm":66,"title":"DSC_1526.jpg","ispublic":1,"isfriend":0,"isfamily":0},{"id":"52703754133","owner":"59206851@N00","secret":"cb4deebc66","server":"65535","farm":66,"title":"DSC_1507.jpg","ispublic":1,"isfriend":0,"isfamily":0},{"id":"52702969715","owner":"161505078@N03","secret":"bb3b799ab4","server":"65535","farm":66,"title":"Great Blue Heron (Ardea herodias)","ispublic":1,"isfriend":0,"isfamily":0},{"id":"52702275489","owner":"197534907@N05","secret":"c71077f211","server":"65535","farm":66,"title":"Garza morena (Ardea herodias)","ispublic":1,"isfriend":0,"isfamily":0},{"id":"52702056475","owner":"54799211@N02","secret":"e30359bbc2","server":"65535","farm":66,"title":"Great Blue Heron","ispublic":1,"isfriend":0,"isfamily":0},{"id":"52701436929","owner":"29411777@N06","secret":"86edf562da","server":"65535","farm":66,"title":"2014-07-11 Great Blue Heron (06) (1024x680)","ispublic":1,"isfriend":0,"isfamily":0},{"id":"52700409267","owner":"46837385@N03","secret":"99d1540f78","server":"65535","farm":66,"title":"GBH with Chick at Venice Rookery","ispublic":1,"isfriend":0,"isfamily":0},{"id":"52700653241","owner":"8666250@N02","secret":"c355f28765","server":"65535","farm":66,"title":"GBHeron at RMarsh 230210 -13","ispublic":1,"isfriend":0,"isfamily":0},{"id":"52701144943","owner":"8666250@N02","secret":"0475021c7a","server":"65535","farm":66,"title":"GBHeron at RMarsh 230210 -10","ispublic":1,"isfriend":0,"isfamily":0},{"id":"52701143173","owner":"8666250@N02","secret":"bd330bb6cf","server":"65535","farm":66,"title":"GBHeron at RMarsh 230210 -07","ispublic":1,"isfriend":0,"isfamily":0},{"id":"52700648211","owner":"8666250@N02","secret":"4ffa72f67f","server":"65535","farm":66,"title":"GBHeron at RMarsh 230210 -03","ispublic":1,"isfriend":0,"isfamily":0},{"id":"52701140103","owner":"8666250@N02","secret":"d5eb22ec9d","server":"65535","farm":66,"title":"GBHeron at RMarsh 230210 -01","ispublic":1,"isfriend":0,"isfamily":0},{"id":"52700123547","owner":"8666250@N02","secret":"df99bd1f84","server":"65535","farm":66,"title":"GBHeron at RMarsh 230210 -17","ispublic":1,"isfriend":0,"isfamily":0},{"id":"52700903019","owner":"8666250@N02","secret":"6081fb3887","server":"65535","farm":66,"title":"Filling the lens....","ispublic":1,"isfriend":0,"isfamily":0},{"id":"52700229091","owner":"161505078@N03","secret":"5cbdb97287","server":"65535","farm":66,"title":"Great Blue Heron (Ardea herodias)","ispublic":1,"isfriend":0,"isfamily":0},{"id":"52698837172","owner":"54546220@N00","secret":"e701775eab","server":"65535","farm":66,"title":"Garza blanca o Garceta grande \/ Great egret  (Ardea alba)","ispublic":1,"isfriend":0,"isfamily":0},{"id":"52698716292","owner":"73683441@N07","secret":"5fae297ced","server":"65535","farm":66,"title":"Great Blue Heron (Ardea herodias)","ispublic":1,"isfriend":0,"isfamily":0},{"id":"52697995163","owner":"45246060@N03","secret":"c161a3aa2b","server":"65535","farm":66,"title":"Great Blue Heron with a catch","ispublic":1,"isfriend":0,"isfamily":0},{"id":"52697872458","owner":"62043870@N05","secret":"0841018188","server":"65535","farm":66,"title":"and Great Blue Heron Ardea herodias","ispublic":1,"isfriend":0,"isfamily":0},{"id":"52696993916","owner":"44034115@N08","secret":"0c7080ecef","server":"65535","farm":66,"title":"If Do Right, No Can Defense","ispublic":1,"isfriend":0,"isfamily":0},{"id":"52697475473","owner":"44034115@N08","secret":"b52c8c5ba6","server":"65535","farm":66,"title":"Live Theatrics at Parson Point","ispublic":1,"isfriend":0,"isfamily":0},{"id":"52696465827","owner":"44034115@N08","secret":"08db32190f","server":"65535","farm":66,"title":"Down the Hatch for the Great Blue Heron","ispublic":1,"isfriend":0,"isfamily":0},{"id":"52697236389","owner":"44034115@N08","secret":"d3afe45127","server":"65535","farm":66,"title":"Big Splash for a Great Blue Heron","ispublic":1,"isfriend":0,"isfamily":0},{"id":"52696703108","owner":"11159374@N04","secret":"3ef7cc8260","server":"65535","farm":66,"title":"Great Blue Heron","ispublic":1,"isfriend":0,"isfamily":0},{"id":"52695270491","owner":"197628215@N07","secret":"f1b8540375","server":"65535","farm":66,"title":"Having his morning sun bath. Gotta warm up and start hunting Great Blue Heron (Ardea herodias) 02\/10\/2023 #greatblueheron #heron #bestbackroad #bestbackroads #natgeoyourshots #natgeo100contest #natgeo #rutlandcountyvt #washingtoncountyny #whitehallny #wil","ispublic":1,"isfriend":0,"isfamily":0},{"id":"52694896316","owner":"143326780@N02","secret":"6682308cd7","server":"65535","farm":66,"title":"DSCN4606","ispublic":1,"isfriend":0,"isfamily":0},{"id":"52694896201","owner":"143326780@N02","secret":"7c59b71e3a","server":"65535","farm":66,"title":"DSCN4650","ispublic":1,"isfriend":0,"isfamily":0},{"id":"52695382388","owner":"143326780@N02","secret":"e27b835675","server":"65535","farm":66,"title":"DSCN4855","ispublic":1,"isfriend":0,"isfamily":0},{"id":"52694892401","owner":"143326780@N02","secret":"0ea3bfa209","server":"65535","farm":66,"title":"DSCN4860","ispublic":1,"isfriend":0,"isfamily":0},{"id":"52694376097","owner":"143326780@N02","secret":"b2d5dce911","server":"65535","farm":66,"title":"DSCN4938","ispublic":1,"isfriend":0,"isfamily":0},{"id":"52695381878","owner":"143326780@N02","secret":"2cb53606d4","server":"65535","farm":66,"title":"DSCN4946","ispublic":1,"isfriend":0,"isfamily":0},{"id":"52694541561","owner":"44034115@N08","secret":"5ea74c7c0d","server":"65535","farm":66,"title":"Coming In for a Great Blue Landing","ispublic":1,"isfriend":0,"isfamily":0}]},"stat":"ok"}