{"photos":{"page":1,"pages":84,"perpage":100,"total":8346,"photo":[{"id":"52716517189","owner":"135315828@N06","secret":"c132292d22","server":"65535","farm":66,"title":"great black-backed gull","ispublic":1,"isfriend":0,"isfamily":0},{"id":"52714566546","owner":"107784905@N04","secret":"5ef865932a","server":"65535","farm":66,"title":"Go\u00e9land marin - Bass Rock\/Scotland\/UK_20220609_001-1","ispublic":1,"isfriend":0,"isfamily":0},{"id":"52709525942","owner":"80186184@N08","secret":"1f9ce6650e","server":"65535","farm":66,"title":"Ferry Watching","ispublic":1,"isfriend":0,"isfamily":0},{"id":"52708524814","owner":"18217058@N04","secret":"9e82ac9bd1","server":"65535","farm":66,"title":"Great black-backed gulls \/ Svartbakar (Larus marinus), Eurasian Curlews \/ Fj\u00f6rusp\u00f3ar (Numenius arquata), Eurasian wigeons \/ Rau\u00f0h\u00f6f\u00f0aendur (Mareca penelope) and Mallards \/ Stokkendur (Anas platyrhynchos)","ispublic":1,"isfriend":0,"isfamily":0},{"id":"52708501699","owner":"18217058@N04","secret":"ceeaab4c63","server":"65535","farm":66,"title":"Great cormorants \/ D\u00edlaskarfar (Phalacrocorax carbo) and Great black-backed gulls \/ Svartbakar (Larus marinus)","ispublic":1,"isfriend":0,"isfamily":0},{"id":"52704625300","owner":"18217058@N04","secret":"2a10c6e327","server":"65535","farm":66,"title":"Great black-backed gull \/ Svartbakur (Larus marinus) flying and Mount Akrafjall seen from Keflavik, West of Iceland","ispublic":1,"isfriend":0,"isfamily":0},{"id":"52704450474","owner":"18217058@N04","secret":"288fb34e03","server":"65535","farm":66,"title":"Great cormorants \/ D\u00edlaskarfar (Phalacrocorax carbo), Great black-backed gulls \/ Svartbakar (Larus marinus) and a Herring gulls \/ Silfurm\u00e1far (Larus argentatus)","ispublic":1,"isfriend":0,"isfamily":0},{"id":"52702081024","owner":"14191740@N08","secret":"8d5030f2da","server":"65535","farm":66,"title":"Great Black-backed Gull (Larus marinus), Loch Tuath, Isle of Mull","ispublic":1,"isfriend":0,"isfamily":0},{"id":"52698416720","owner":"12639178@N07","secret":"b9fab3d66e","server":"65535","farm":66,"title":"Mantelm\u00f6we","ispublic":1,"isfriend":0,"isfamily":0},{"id":"52696336494","owner":"197745515@N06","secret":"e73878e23f","server":"65535","farm":66,"title":"Larus marinus","ispublic":1,"isfriend":0,"isfamily":0},{"id":"52694007048","owner":"128537732@N06","secret":"c72e52a0d0","server":"65535","farm":66,"title":"Great Black-backed Gull (Larus marinus)","ispublic":1,"isfriend":0,"isfamily":0},{"id":"52693533353","owner":"12639178@N07","secret":"79168387b6","server":"65535","farm":66,"title":"Larus marinus, Mantelm\u00f6we,vj. (K2)","ispublic":1,"isfriend":0,"isfamily":0},{"id":"52682900712","owner":"61316002@N02","secret":"56a4ac24fa","server":"65535","farm":66,"title":"GRBLBAGU IM 0233","ispublic":1,"isfriend":0,"isfamily":0},{"id":"52682416443","owner":"12639178@N07","secret":"ede487cb09","server":"65535","farm":66,"title":"U. a. Mantelm\u00f6we (Larus marinus)","ispublic":1,"isfriend":0,"isfamily":0},{"id":"52682269965","owner":"18217058@N04","secret":"59829abc51","server":"65535","farm":66,"title":"Young Great black-backed gull \/ Svartbakur, ungfugl (Larus marinus)","ispublic":1,"isfriend":0,"isfamily":0},{"id":"52681322067","owner":"18217058@N04","secret":"c8ffd100d2","server":"65535","farm":66,"title":"Young Great black-backed gull \/ Svartbakur, ungfugl (Larus marinus)","ispublic":1,"isfriend":0,"isfamily":0},{"id":"52682123084","owner":"18217058@N04","secret":"8075033772","server":"65535","farm":66,"title":"Young Great black-backed gull \/ Svartbakur, ungfugl (Larus marinus)","ispublic":1,"isfriend":0,"isfamily":0},{"id":"52680749027","owner":"28631427@N00","secret":"f535fbed26","server":"65535","farm":66,"title":"Great Black-backed Gull","ispublic":1,"isfriend":0,"isfamily":0},{"id":"52680570947","owner":"12639178@N07","secret":"f90445f670","server":"65535","farm":66,"title":"Mantelm\u00f6we (Larus marinus)","ispublic":1,"isfriend":0,"isfamily":0},{"id":"52680515465","owner":"41798562@N07","secret":"253a477ca1","server":"65535","farm":66,"title":"Winter plumaged Great Black-backed Gull (Larus marinus)","ispublic":1,"isfriend":0,"isfamily":0},{"id":"52678498462","owner":"12639178@N07","secret":"3ca9cfc545","server":"65535","farm":66,"title":"Mantelm\u00f6wen","ispublic":1,"isfriend":0,"isfamily":0},{"id":"52678466782","owner":"191391950@N02","secret":"df839f26fb","server":"65535","farm":66,"title":"Go\u00e9land marin - Larus marinus","ispublic":1,"isfriend":0,"isfamily":0},{"id":"52679390753","owner":"191391950@N02","secret":"137d5f6b61","server":"65535","farm":66,"title":"Go\u00e9land marin - Larus marinus","ispublic":1,"isfriend":0,"isfamily":0},{"id":"52679389623","owner":"191391950@N02","secret":"28ba7a59fe","server":"65535","farm":66,"title":"Go\u00e9land marin - Larus marinus","ispublic":1,"isfriend":0,"isfamily":0},{"id":"52676171607","owner":"8065988@N06","secret":"7a2b667419","server":"65535","farm":66,"title":"Gavi\u00f3n atl\u00e1ntico.","ispublic":1,"isfriend":0,"isfamily":0},{"id":"52672702157","owner":"84169650@N07","secret":"55e0c8c060","server":"65535","farm":66,"title":"Gulls","ispublic":1,"isfriend":0,"isfamily":0},{"id":"52673488249","owner":"84169650@N07","secret":"8982ae769a","server":"65535","farm":66,"title":"Great Black Backed Gull","ispublic":1,"isfriend":0,"isfamily":0},{"id":"52669426502","owner":"14191740@N08","secret":"b7aa5a4c5e","server":"65535","farm":66,"title":"Great Black-backed Gull (Larus marinus), Loch Tuath, Isle of Mull","ispublic":1,"isfriend":0,"isfamily":0},{"id":"52669862241","owner":"79122644@N00","secret":"189d8b4cd7","server":"65535","farm":66,"title":"Larus marinus - Gudhjem2015_07_25_17_33","ispublic":1,"isfriend":0,"isfamily":0},{"id":"52662709456","owner":"80186184@N08","secret":"a38ae043a1","server":"65535","farm":66,"title":"The Beginning Of The Tail","ispublic":1,"isfriend":0,"isfamily":0},{"id":"52660403614","owner":"144736586@N06","secret":"d64915e639","server":"65535","farm":66,"title":"Go\u00e9land marin (Larus marinus)","ispublic":1,"isfriend":0,"isfamily":0},{"id":"52659601062","owner":"12639178@N07","secret":"a7e52a8e9f","server":"65535","farm":66,"title":"Mantelm\u00f6we","ispublic":1,"isfriend":0,"isfamily":0},{"id":"52660378539","owner":"12639178@N07","secret":"89e937357f","server":"65535","farm":66,"title":"Mantelm\u00f6wen","ispublic":1,"isfriend":0,"isfamily":0},{"id":"52659206589","owner":"24412520@N07","secret":"08280116d7","server":"65535","farm":66,"title":"Great Black-backed Gulls (Larus marinus)","ispublic":1,"isfriend":0,"isfamily":0},{"id":"52655969611","owner":"12639178@N07","secret":"a393fccdc7","server":"65535","farm":66,"title":"Seeblick","ispublic":1,"isfriend":0,"isfamily":0},{"id":"52655479912","owner":"12639178@N07","secret":"62496c699f","server":"65535","farm":66,"title":"Mantelm\u00f6we","ispublic":1,"isfriend":0,"isfamily":0},{"id":"52656412040","owner":"12639178@N07","secret":"00bf9b126c","server":"65535","farm":66,"title":"Ist da was?","ispublic":1,"isfriend":0,"isfamily":0},{"id":"52656249984","owner":"12639178@N07","secret":"8ae977c2b9","server":"65535","farm":66,"title":"Patroulierende Mantelm\u00f6we","ispublic":1,"isfriend":0,"isfamily":0},{"id":"52652686453","owner":"80186184@N08","secret":"c038ee1379","server":"65535","farm":66,"title":"Fast Food Takeaway","ispublic":1,"isfriend":0,"isfamily":0},{"id":"52652179520","owner":"144736586@N06","secret":"50cd388548","server":"65535","farm":66,"title":"Go\u00e9land marin (Larus marinus)","ispublic":1,"isfriend":0,"isfamily":0},{"id":"52652007524","owner":"144736586@N06","secret":"94f3eee701","server":"65535","farm":66,"title":"Go\u00e9land marin (Larus marinus)","ispublic":1,"isfriend":0,"isfamily":0},{"id":"52649504158","owner":"12639178@N07","secret":"d3a0f2f7b1","server":"65535","farm":66,"title":"Mantelm\u00f6we, Fischfang bei Hochwasser","ispublic":1,"isfriend":0,"isfamily":0},{"id":"52646829079","owner":"144736586@N06","secret":"0521c1661a","server":"65535","farm":66,"title":"Go\u00e9land marin (Larus marinus)","ispublic":1,"isfriend":0,"isfamily":0},{"id":"52644672996","owner":"8013969@N03","secret":"f261af4a1e","server":"65535","farm":66,"title":"Larus marinus DFL nj22-1","ispublic":1,"isfriend":0,"isfamily":0},{"id":"52644672416","owner":"8013969@N03","secret":"5e4284ea9e","server":"65535","farm":66,"title":"Larus marinus DFL nj22-2","ispublic":1,"isfriend":0,"isfamily":0},{"id":"52640950616","owner":"53280041@N04","secret":"2a3e6e38a0","server":"65535","farm":66,"title":"Greater black-backed gull","ispublic":1,"isfriend":0,"isfamily":0},{"id":"52641175094","owner":"135315828@N06","secret":"2f739fa2a6","server":"65535","farm":66,"title":"great black-backed gull","ispublic":1,"isfriend":0,"isfamily":0},{"id":"52640405157","owner":"135315828@N06","secret":"cf06445c9b","server":"65535","farm":66,"title":"great black-backed gull","ispublic":1,"isfriend":0,"isfamily":0},{"id":"52641174724","owner":"135315828@N06","secret":"e5c370fc85","server":"65535","farm":66,"title":"great black-backed gull","ispublic":1,"isfriend":0,"isfamily":0},{"id":"52641390793","owner":"135315828@N06","secret":"ec2da98f93","server":"65535","farm":66,"title":"great black-backed gull","ispublic":1,"isfriend":0,"isfamily":0},{"id":"52641354735","owner":"135315828@N06","secret":"11c821bcfe","server":"65535","farm":66,"title":"great black-backed gull","ispublic":1,"isfriend":0,"isfamily":0},{"id":"52640404587","owner":"135315828@N06","secret":"1ea73e8ff2","server":"65535","farm":66,"title":"great black-backed gull","ispublic":1,"isfriend":0,"isfamily":0},{"id":"52641174379","owner":"135315828@N06","secret":"72d6f647cd","server":"65535","farm":66,"title":"great black-backed gull","ispublic":1,"isfriend":0,"isfamily":0},{"id":"52641354650","owner":"135315828@N06","secret":"06d6374ea5","server":"65535","farm":66,"title":"great black-backed gull","ispublic":1,"isfriend":0,"isfamily":0},{"id":"52641172509","owner":"135315828@N06","secret":"8c9869fb84","server":"65535","farm":66,"title":"great black-backed gull","ispublic":1,"isfriend":0,"isfamily":0},{"id":"52641352740","owner":"135315828@N06","secret":"36a1791603","server":"65535","farm":66,"title":"great black-backed gull","ispublic":1,"isfriend":0,"isfamily":0},{"id":"52641352355","owner":"135315828@N06","secret":"c8f1f81df5","server":"65535","farm":66,"title":"great black-backed gull","ispublic":1,"isfriend":0,"isfamily":0},{"id":"52640913456","owner":"135315828@N06","secret":"65ce8a4f4e","server":"65535","farm":66,"title":"great black-backed gull","ispublic":1,"isfriend":0,"isfamily":0},{"id":"52638833641","owner":"67164820@N06","secret":"728d117f6c","server":"65535","farm":66,"title":"great black-backed gull","ispublic":1,"isfriend":0,"isfamily":0},{"id":"52639268040","owner":"67164820@N06","secret":"d7584da86e","server":"65535","farm":66,"title":"great black-backed gull 2","ispublic":1,"isfriend":0,"isfamily":0},{"id":"52639002085","owner":"12639178@N07","secret":"3911575cd0","server":"65535","farm":66,"title":"Bitte Bestimmungshilfe f\u00fcr Mantelm\u00f6we","ispublic":1,"isfriend":0,"isfamily":0},{"id":"52634797893","owner":"193492169@N05","secret":"eccf541bfc","server":"65535","farm":66,"title":"Gavi\u00f3n atl\u00e1ntico - Great Black backed Gull - Larus marinus","ispublic":1,"isfriend":0,"isfamily":0},{"id":"52633503735","owner":"78941013@N00","secret":"8f4b95d4f8","server":"65535","farm":66,"title":"Great Black-backed Gull trying to steal a fish (Larus marinus) Grote mantelmeeuw","ispublic":1,"isfriend":0,"isfamily":0},{"id":"52633064496","owner":"78941013@N00","secret":"23be5a6207","server":"65535","farm":66,"title":"Great Black-backed Gull trying to steal a fish (Larus marinus) Grote mantelmeeuw","ispublic":1,"isfriend":0,"isfamily":0},{"id":"52633319239","owner":"78941013@N00","secret":"7f4860d110","server":"65535","farm":66,"title":"Great Black-backed Gull trying to steal a fish (Larus marinus) Grote mantelmeeuw","ispublic":1,"isfriend":0,"isfamily":0},{"id":"52633503415","owner":"78941013@N00","secret":"015b9a6236","server":"65535","farm":66,"title":"Great Black-backed Gull trying to steal a fish (Larus marinus) Grote mantelmeeuw","ispublic":1,"isfriend":0,"isfamily":0},{"id":"52633064940","owner":"187124972@N03","secret":"4dedb0b1ac","server":"65535","farm":66,"title":"GO\u00c9LAND MARIN \/ GREAT BLACK-BACKED GULL (Larus marinus)","ispublic":1,"isfriend":0,"isfamily":0},{"id":"52630406404","owner":"193492169@N05","secret":"31d7fa42d0","server":"65535","farm":66,"title":"Gavi\u00f3n atl\u00e1ntico - Great Black backed Gull - Larus marinus","ispublic":1,"isfriend":0,"isfamily":0},{"id":"52625478822","owner":"14191740@N08","secret":"c5c3623560","server":"65535","farm":66,"title":"Great Black-backed Gull (Larus marinus), Loch Tuath, Isle of Mull","ispublic":1,"isfriend":0,"isfamily":0},{"id":"52619669300","owner":"12639178@N07","secret":"fb798899f2","server":"65535","farm":66,"title":"Mantelm\u00f6we und Nebelkr\u00e4he","ispublic":1,"isfriend":0,"isfamily":0},{"id":"52619654085","owner":"12639178@N07","secret":"1273a88fe4","server":"65535","farm":66,"title":"Mantelm\u00f6we (Larus marinus) (1)","ispublic":1,"isfriend":0,"isfamily":0},{"id":"52617645541","owner":"67164820@N06","secret":"788a93ecfc","server":"65535","farm":66,"title":"great black-backed gulls","ispublic":1,"isfriend":0,"isfamily":0},{"id":"52616637912","owner":"193483104@N04","secret":"95ea652201","server":"65535","farm":66,"title":"Great Black-backed Gull (Larus marinus)","ispublic":1,"isfriend":0,"isfamily":0},{"id":"52617589063","owner":"193483104@N04","secret":"e5139149c7","server":"65535","farm":66,"title":"Great Black-backed Gull (Larus marinus)","ispublic":1,"isfriend":0,"isfamily":0},{"id":"52613567348","owner":"39445433@N02","secret":"89a6f19041","server":"65535","farm":66,"title":"Great Black-Backed Gull","ispublic":1,"isfriend":0,"isfamily":0},{"id":"52613080006","owner":"39445433@N02","secret":"16015ac3f5","server":"65535","farm":66,"title":"Great Black-Backed Gull","ispublic":1,"isfriend":0,"isfamily":0},{"id":"52613302563","owner":"12639178@N07","secret":"879ffb6038","server":"65535","farm":66,"title":"Mantelm\u00f6we","ispublic":1,"isfriend":0,"isfamily":0},{"id":"52613287823","owner":"12639178@N07","secret":"ce2c55345c","server":"65535","farm":66,"title":"Mantelm\u00f6we","ispublic":1,"isfriend":0,"isfamily":0},{"id":"52608499026","owner":"145907835@N07","secret":"ff1aec0fe1","server":"65535","farm":66,"title":"Grote Mantelmeeuw - Larus marinus","ispublic":1,"isfriend":0,"isfamily":0},{"id":"52607719246","owner":"84169650@N07","secret":"c223b66c52","server":"65535","farm":66,"title":"Great Black Backed Gull","ispublic":1,"isfriend":0,"isfamily":0},{"id":"52603667452","owner":"12639178@N07","secret":"66d9170872","server":"65535","farm":66,"title":"Mantelm\u00f6we am Lieblingsplatz","ispublic":1,"isfriend":0,"isfamily":0},{"id":"52602918965","owner":"53280041@N04","secret":"c8073fabb5","server":"65535","farm":66,"title":"Great black-backed gull","ispublic":1,"isfriend":0,"isfamily":0},{"id":"52601662262","owner":"18217058@N04","secret":"706487db7d","server":"65535","farm":66,"title":"Great black-backed gull \/ Svartbakur (Larus marinus)","ispublic":1,"isfriend":0,"isfamily":0},{"id":"52594062010","owner":"194894234@N06","secret":"61ab6760ce","server":"65535","farm":66,"title":"DSC_2488","ispublic":1,"isfriend":0,"isfamily":0},{"id":"52580945273","owner":"153973412@N04","secret":"cc794f3a62","server":"65535","farm":66,"title":"Great Black-backed Gull-Larus marinus, Race Point, MA","ispublic":1,"isfriend":0,"isfamily":0},{"id":"52580216663","owner":"47448228@N07","secret":"9c5bae8d3a","server":"65535","farm":66,"title":"DSC_0463","ispublic":1,"isfriend":0,"isfamily":0},{"id":"52579230657","owner":"47448228@N07","secret":"441f16e0b5","server":"65535","farm":66,"title":"DSC_0464","ispublic":1,"isfriend":0,"isfamily":0},{"id":"52579961129","owner":"47448228@N07","secret":"b8ab6cdc64","server":"65535","farm":66,"title":"DSC_0465","ispublic":1,"isfriend":0,"isfamily":0},{"id":"52579693191","owner":"47448228@N07","secret":"bed81af37d","server":"65535","farm":66,"title":"DSC_0466","ispublic":1,"isfriend":0,"isfamily":0},{"id":"52580216563","owner":"47448228@N07","secret":"6482cb8b02","server":"65535","farm":66,"title":"DSC_0468","ispublic":1,"isfriend":0,"isfamily":0},{"id":"52579230532","owner":"47448228@N07","secret":"a615282612","server":"65535","farm":66,"title":"DSC_0470","ispublic":1,"isfriend":0,"isfamily":0},{"id":"52579961044","owner":"47448228@N07","secret":"a6d85398ea","server":"65535","farm":66,"title":"DSC_0469","ispublic":1,"isfriend":0,"isfamily":0},{"id":"52579693081","owner":"47448228@N07","secret":"66f9b3bd9f","server":"65535","farm":66,"title":"DSC_0471","ispublic":1,"isfriend":0,"isfamily":0},{"id":"52580132910","owner":"47448228@N07","secret":"96f30a7445","server":"65535","farm":66,"title":"DSC_0475","ispublic":1,"isfriend":0,"isfamily":0},{"id":"52648655917","owner":"84169650@N07","secret":"6cf44a6641","server":"65535","farm":66,"title":"Great Black Backed Gull","ispublic":1,"isfriend":0,"isfamily":0},{"id":"52645587245","owner":"131314146@N08","secret":"8535f46a11","server":"65535","farm":66,"title":"K. MacDonald, Great Black-backed Gull, Larus marinus, on the left","ispublic":1,"isfriend":0,"isfamily":0},{"id":"52637797511","owner":"47533293@N04","secret":"545471751f","server":"65535","farm":66,"title":"Great black-backed gull, Larus marinus","ispublic":1,"isfriend":0,"isfamily":0},{"id":"52620470656","owner":"145907835@N07","secret":"daf48d6945","server":"65535","farm":66,"title":"Grote Mantelmeeuw - Larus marinus","ispublic":1,"isfriend":0,"isfamily":0},{"id":"52612716316","owner":"121021311@N02","secret":"df058a47fa","server":"65535","farm":66,"title":"Go\u00e9land marin (Larus marinus) Great Black-backed Gull","ispublic":1,"isfriend":0,"isfamily":0},{"id":"52612713826","owner":"121021311@N02","secret":"2b07da9848","server":"65535","farm":66,"title":"Go\u00e9land marin (Larus marinus) Great Black-backed Gull","ispublic":1,"isfriend":0,"isfamily":0}]},"stat":"ok"}