{"photos":{"page":1,"pages":154,"perpage":100,"total":15304,"photo":[{"id":"52721987021","owner":"9949080@N06","secret":"68425809dd","server":"65535","farm":66,"title":"Green Heron at the lake.","ispublic":1,"isfriend":0,"isfamily":0},{"id":"52714046163","owner":"8987884@N07","secret":"12ce372564","server":"65535","farm":66,"title":"Green Heron (Butorides virescens)_DSC_2942","ispublic":1,"isfriend":0,"isfamily":0},{"id":"52707974350","owner":"37834207@N06","secret":"78eff63661","server":"65535","farm":66,"title":"Butorides virescens ....Green Heron 9128 Legacy Park Malibu   Southern California_","ispublic":1,"isfriend":0,"isfamily":0},{"id":"52702412552","owner":"151109375@N08","secret":"495255e1a0","server":"65535","farm":66,"title":"An adult  Green Heron (Butorides virescens), drying out on tree stump in deep water","ispublic":1,"isfriend":0,"isfamily":0},{"id":"52701640804","owner":"53239956@N06","secret":"607ae50ef4","server":"65535","farm":66,"title":"If you really try","ispublic":1,"isfriend":0,"isfamily":0},{"id":"52698092347","owner":"142134964@N04","secret":"8c82214683","server":"65535","farm":66,"title":"85- Garcilla verde (Butorides virescens)","ispublic":1,"isfriend":0,"isfamily":0},{"id":"52697505816","owner":"45246060@N03","secret":"6928719445","server":"65535","farm":66,"title":"Green heron","ispublic":1,"isfriend":0,"isfamily":0},{"id":"52693487631","owner":"192372687@N03","secret":"e9accf786e","server":"65535","farm":66,"title":"Green heron (Butorides virescens)","ispublic":1,"isfriend":0,"isfamily":0},{"id":"52693832603","owner":"66550674@N06","secret":"d7794bfe6c","server":"65535","farm":66,"title":"Green Heron","ispublic":1,"isfriend":0,"isfamily":0},{"id":"52693726040","owner":"68756708@N04","secret":"416e356acc","server":"65535","farm":66,"title":"Green Heron (Butorides virescens)","ispublic":1,"isfriend":0,"isfamily":0},{"id":"52693309678","owner":"45246060@N03","secret":"f191735fc2","server":"65535","farm":66,"title":"Green heron","ispublic":1,"isfriend":0,"isfamily":0},{"id":"52690383895","owner":"54549270@N03","secret":"8f7a1802db","server":"65535","farm":66,"title":"Green Heron, immature","ispublic":1,"isfriend":0,"isfamily":0},{"id":"52688258637","owner":"52450054@N04","secret":"897e092afb","server":"65535","farm":66,"title":"Green Heron - Butorides virescens, Cypress Wetlands, Port Royal, South Carolina, May 19, 2022","ispublic":1,"isfriend":0,"isfamily":0},{"id":"52687370313","owner":"45246060@N03","secret":"3fc5a54783","server":"65535","farm":66,"title":"Green herons","ispublic":1,"isfriend":0,"isfamily":0},{"id":"52686281517","owner":"45246060@N03","secret":"ce76870d3e","server":"65535","farm":66,"title":"Green heron","ispublic":1,"isfriend":0,"isfamily":0},{"id":"52680874550","owner":"190185506@N04","secret":"0afe4899f5","server":"65535","farm":66,"title":"H\u00e9ron vert immature tr\u00e8s familier \u00e0 San Lucas Tolim\u00e1n","ispublic":1,"isfriend":0,"isfamily":0},{"id":"52678639611","owner":"21584095@N00","secret":"e12f807b16","server":"65535","farm":66,"title":"Green Heron (Butorides virescens)","ispublic":1,"isfriend":0,"isfamily":0},{"id":"52666515158","owner":"36682266@N06","secret":"0b61f38f0d","server":"65535","farm":66,"title":"Green Heron (Butorides virescens)","ispublic":1,"isfriend":0,"isfamily":0},{"id":"52666509928","owner":"36682266@N06","secret":"9e0938f611","server":"65535","farm":66,"title":"Green Heron (Butorides virescens)","ispublic":1,"isfriend":0,"isfamily":0},{"id":"52663938821","owner":"18353215@N00","secret":"1db16812a0","server":"65535","farm":66,"title":"Green Heron","ispublic":1,"isfriend":0,"isfamily":0},{"id":"52663973285","owner":"39177293@N03","secret":"61c2ccd61e","server":"65535","farm":66,"title":"Green Heron","ispublic":1,"isfriend":0,"isfamily":0},{"id":"52662336035","owner":"136180232@N08","secret":"e031740f93","server":"65535","farm":66,"title":"Green Heron (Butorides virescens) JTE_1693","ispublic":1,"isfriend":0,"isfamily":0},{"id":"52661865799","owner":"196127020@N02","secret":"a0cb426014","server":"65535","farm":66,"title":"Green Heron","ispublic":1,"isfriend":0,"isfamily":0},{"id":"52657685659","owner":"124995824@N08","secret":"63e2bb4eef","server":"65535","farm":66,"title":"Green Heron - Butorides virescens","ispublic":1,"isfriend":0,"isfamily":0},{"id":"52656853095","owner":"130021529@N02","secret":"72798b1855","server":"65535","farm":66,"title":"Butorides virescens | Green Heron | gr\u00f6nryggig h\u00e4ger","ispublic":1,"isfriend":0,"isfamily":0},{"id":"52653635948","owner":"23939795@N04","secret":"6a74e0b794","server":"65535","farm":66,"title":"Green Heron 9822","ispublic":1,"isfriend":0,"isfamily":0},{"id":"52647507815","owner":"67164820@N06","secret":"3d81117946","server":"65535","farm":66,"title":"green heron 3","ispublic":1,"isfriend":0,"isfamily":0},{"id":"52647326689","owner":"67164820@N06","secret":"43af4d13b4","server":"65535","farm":66,"title":"tricolored heron","ispublic":1,"isfriend":0,"isfamily":0},{"id":"52647544303","owner":"67164820@N06","secret":"3a3fbb0f2d","server":"65535","farm":66,"title":"green heron 4","ispublic":1,"isfriend":0,"isfamily":0},{"id":"52647496378","owner":"67164820@N06","secret":"5cbca37a96","server":"65535","farm":66,"title":"green heron","ispublic":1,"isfriend":0,"isfamily":0},{"id":"52647276654","owner":"67164820@N06","secret":"e954646eb1","server":"65535","farm":66,"title":"green heron 2","ispublic":1,"isfriend":0,"isfamily":0},{"id":"52645881317","owner":"52450054@N04","secret":"1cdb3993a7","server":"65535","farm":66,"title":"Green Heron - Butorides virescens, Cypress Wetlands, Port Royal, South Carolina, May 19, 2022","ispublic":1,"isfriend":0,"isfamily":0},{"id":"52645625136","owner":"188156748@N07","secret":"0264b42f00","server":"65535","farm":66,"title":"Green Heron \u2013 H\u00e9ron Vert  - Butorides virescens 4447 (21)-SharpenAI-Standard copy.jpgS","ispublic":1,"isfriend":0,"isfamily":0},{"id":"52645113977","owner":"188156748@N07","secret":"afd9e6ca08","server":"65535","farm":66,"title":"Green Heron \u2013 H\u00e9ron Vert  - Butorides virescens 4447 (22)-SharpenAI-Standard copy.jpgS","ispublic":1,"isfriend":0,"isfamily":0},{"id":"52645878509","owner":"188156748@N07","secret":"db640ca726","server":"65535","farm":66,"title":"Green Heron \u2013 H\u00e9ron Vert  - Butorides virescens 4447 (23)-SharpenAI-Standard copy.jpgS","ispublic":1,"isfriend":0,"isfamily":0},{"id":"52644791836","owner":"45246060@N03","secret":"91e15eea16","server":"65535","farm":66,"title":"Green heron","ispublic":1,"isfriend":0,"isfamily":0},{"id":"52644517614","owner":"8654297@N06","secret":"0c8189437a","server":"65535","farm":66,"title":"Being green","ispublic":1,"isfriend":0,"isfamily":0},{"id":"52643688092","owner":"145466593@N08","secret":"bc5bf5f0f8","server":"65535","farm":66,"title":"Green Heron","ispublic":1,"isfriend":0,"isfamily":0},{"id":"52644669798","owner":"145466593@N08","secret":"fc33f868e5","server":"65535","farm":66,"title":"Green Heron","ispublic":1,"isfriend":0,"isfamily":0},{"id":"52644669753","owner":"145466593@N08","secret":"5603e9e61d","server":"65535","farm":66,"title":"Green Heron","ispublic":1,"isfriend":0,"isfamily":0},{"id":"52642058471","owner":"133972384@N04","secret":"552815638a","server":"65535","farm":66,"title":"the green heron","ispublic":1,"isfriend":0,"isfamily":0},{"id":"52642030476","owner":"74787113@N05","secret":"2549ca1605","server":"65535","farm":66,"title":"GREEN HERON","ispublic":1,"isfriend":0,"isfamily":0},{"id":"52640061755","owner":"151313979@N08","secret":"f7669987b1","server":"65535","farm":66,"title":"P1210551 Green Heron,  Butorides virescens","ispublic":1,"isfriend":0,"isfamily":0},{"id":"52640068780","owner":"61062164@N08","secret":"da04ec1e3f","server":"65535","farm":66,"title":"850_6281-NEF_DxO_DeepPRIME","ispublic":1,"isfriend":0,"isfamily":0},{"id":"52639520749","owner":"90355165@N03","secret":"895e2da607","server":"65535","farm":66,"title":"green heron","ispublic":1,"isfriend":0,"isfamily":0},{"id":"52639363290","owner":"67164820@N06","secret":"985614e5c7","server":"65535","farm":66,"title":"green heron 3","ispublic":1,"isfriend":0,"isfamily":0},{"id":"52639375833","owner":"67164820@N06","secret":"d4e11cf463","server":"65535","farm":66,"title":"green heron 2","ispublic":1,"isfriend":0,"isfamily":0},{"id":"52639154949","owner":"67164820@N06","secret":"63eb8e23a3","server":"65535","farm":66,"title":"green heron","ispublic":1,"isfriend":0,"isfamily":0},{"id":"52638220565","owner":"59779711@N05","secret":"a1bc31c6b0","server":"65535","farm":66,"title":"Green Heron","ispublic":1,"isfriend":0,"isfamily":0},{"id":"52636022315","owner":"46618110@N05","secret":"09e7c85c9d","server":"65535","farm":66,"title":"Walking the Line","ispublic":1,"isfriend":0,"isfamily":0},{"id":"52634677493","owner":"47533293@N04","secret":"872bc515b8","server":"65535","farm":66,"title":"Green heron, Butorides virescens","ispublic":1,"isfriend":0,"isfamily":0},{"id":"52633695700","owner":"74787113@N05","secret":"f6f5e72191","server":"65535","farm":66,"title":"GREEN HERON CHICKS","ispublic":1,"isfriend":0,"isfamily":0},{"id":"52631772623","owner":"47533293@N04","secret":"fc4146d60f","server":"65535","farm":66,"title":"Green heron, Butorides virescens","ispublic":1,"isfriend":0,"isfamily":0},{"id":"52622005016","owner":"133972384@N04","secret":"1d90fc7d13","server":"65535","farm":66,"title":"something is up","ispublic":1,"isfriend":0,"isfamily":0},{"id":"52620388388","owner":"39138537@N06","secret":"ed512bbbf9","server":"65535","farm":66,"title":"35mm Slide to Digital - Green Heron (Butorides virescens)","ispublic":1,"isfriend":0,"isfamily":0},{"id":"52617926373","owner":"74787113@N05","secret":"9d7f88ba59","server":"65535","farm":66,"title":"GREEN HERON","ispublic":1,"isfriend":0,"isfamily":0},{"id":"52612887166","owner":"154417921@N04","secret":"6228fe6e00","server":"65535","farm":66,"title":"DSC07715 kopi\u00ebren 2","ispublic":1,"isfriend":0,"isfamily":0},{"id":"52612708253","owner":"92567405@N03","secret":"60c4b9881d","server":"65535","farm":66,"title":"Green Heron (Butorides virescens) 01.04.22","ispublic":1,"isfriend":0,"isfamily":0},{"id":"52608269376","owner":"51433704@N06","secret":"85898dc8b5","server":"65535","farm":66,"title":"Green Heron","ispublic":1,"isfriend":0,"isfamily":0},{"id":"52607993030","owner":"53239956@N06","secret":"0f3993fdf8","server":"65535","farm":66,"title":"His time to shine","ispublic":1,"isfriend":0,"isfamily":0},{"id":"52605792904","owner":"66550674@N06","secret":"27e1810d17","server":"65535","farm":66,"title":"Green Heron","ispublic":1,"isfriend":0,"isfamily":0},{"id":"52591475739","owner":"70295563@N00","secret":"2074d96789","server":"65535","farm":66,"title":"Hiding in plain sight","ispublic":1,"isfriend":0,"isfamily":0},{"id":"52589106745","owner":"21558080@N07","secret":"4de6f2e890","server":"65535","farm":66,"title":"Green Heron (Butorides virescens) (sp. # 409)","ispublic":1,"isfriend":0,"isfamily":0},{"id":"52586433328","owner":"61062164@N08","secret":"7a86b80a58","server":"65535","farm":66,"title":"850_4967-NEF_DxO_DeepPRIME","ispublic":1,"isfriend":0,"isfamily":0},{"id":"52583535646","owner":"151109375@N08","secret":"0bce464bcf","server":"65535","farm":66,"title":"A Green Heron (Butorides virescens), soaking up the sun on a broken tree branch in Costa Rica","ispublic":1,"isfriend":0,"isfamily":0},{"id":"52581377740","owner":"51433704@N06","secret":"7148e5a385","server":"65535","farm":66,"title":"Juvenile Green Heron","ispublic":1,"isfriend":0,"isfamily":0},{"id":"52580571734","owner":"153973412@N04","secret":"8b4b82d1c5","server":"65535","farm":66,"title":"Green Heron-Butorides virescens, Austin, TX","ispublic":1,"isfriend":0,"isfamily":0},{"id":"52577187238","owner":"52450054@N04","secret":"e04d237e06","server":"65535","farm":66,"title":"Green Heron - Butorides virescens, Wakodahatchee Wetlands, Boynton Beach, Florida, April 21, 2021","ispublic":1,"isfriend":0,"isfamily":0},{"id":"52567105721","owner":"22304442@N00","secret":"daf8268f3b","server":"65535","farm":66,"title":"h\u00e9ron vert (green heron)","ispublic":1,"isfriend":0,"isfamily":0},{"id":"52566642112","owner":"22304442@N00","secret":"b2cf23e8de","server":"65535","farm":66,"title":"h\u00e9ron vert (green heron)","ispublic":1,"isfriend":0,"isfamily":0},{"id":"52566642012","owner":"22304442@N00","secret":"413eb8d1da","server":"65535","farm":66,"title":"h\u00e9ron vert (green heron)","ispublic":1,"isfriend":0,"isfamily":0},{"id":"52567105416","owner":"22304442@N00","secret":"31ebba4aae","server":"65535","farm":66,"title":"h\u00e9ron vert (green heron)","ispublic":1,"isfriend":0,"isfamily":0},{"id":"52566620053","owner":"53239956@N06","secret":"43b55d43c6","server":"65535","farm":66,"title":"A Swing and a miss","ispublic":1,"isfriend":0,"isfamily":0},{"id":"52565033298","owner":"7640100@N02","secret":"e83548765a","server":"65535","farm":66,"title":"H\u00e9ron vert \/ Green Heron [Butorides virescens]","ispublic":1,"isfriend":0,"isfamily":0},{"id":"52564476093","owner":"140318147@N08","secret":"7c024e57ab","server":"65535","farm":66,"title":"green heron (Butorides virescens) L4A7785","ispublic":1,"isfriend":0,"isfamily":0},{"id":"52562793756","owner":"42964440@N08","secret":"df0c91d932","server":"65535","farm":66,"title":"Green Heron Portrait (Butorides virescens)","ispublic":1,"isfriend":0,"isfamily":0},{"id":"52559887093","owner":"144217344@N03","secret":"9e345938e9","server":"65535","farm":66,"title":"Gisela_Nagel-Fl-2611-Gr\u00fcnreiher","ispublic":1,"isfriend":0,"isfamily":0},{"id":"52558205427","owner":"10571213@N00","secret":"e193707cee","server":"65535","farm":66,"title":"Butorides virescens","ispublic":1,"isfriend":0,"isfamily":0},{"id":"52559129785","owner":"10571213@N00","secret":"f4726310b3","server":"65535","farm":66,"title":"Butorides virescens","ispublic":1,"isfriend":0,"isfamily":0},{"id":"52559129010","owner":"10571213@N00","secret":"7742ef8c28","server":"65535","farm":66,"title":"Butorides virescens","ispublic":1,"isfriend":0,"isfamily":0},{"id":"52558204007","owner":"10571213@N00","secret":"c1ab0b3f7d","server":"65535","farm":66,"title":"Butorides virescens","ispublic":1,"isfriend":0,"isfamily":0},{"id":"52558657091","owner":"10571213@N00","secret":"af4ba3f418","server":"65535","farm":66,"title":"Butorides virescens","ispublic":1,"isfriend":0,"isfamily":0},{"id":"52558952074","owner":"10571213@N00","secret":"1c8ae50f5d","server":"65535","farm":66,"title":"Butorides virescens","ispublic":1,"isfriend":0,"isfamily":0},{"id":"52558656616","owner":"10571213@N00","secret":"94c0c1e924","server":"65535","farm":66,"title":"Butorides virescens","ispublic":1,"isfriend":0,"isfamily":0},{"id":"52558951509","owner":"10571213@N00","secret":"7659c39329","server":"65535","farm":66,"title":"Butorides virescens","ispublic":1,"isfriend":0,"isfamily":0},{"id":"52558655571","owner":"10571213@N00","secret":"638f6f041c","server":"65535","farm":66,"title":"Butorides virescens","ispublic":1,"isfriend":0,"isfamily":0},{"id":"52559200658","owner":"10571213@N00","secret":"18580946ef","server":"65535","farm":66,"title":"Butorides virescens","ispublic":1,"isfriend":0,"isfamily":0},{"id":"52559200323","owner":"10571213@N00","secret":"fa33b52dcb","server":"65535","farm":66,"title":"Butorides virescens","ispublic":1,"isfriend":0,"isfamily":0},{"id":"52558949874","owner":"10571213@N00","secret":"1c5716087b","server":"65535","farm":66,"title":"Butorides virescens","ispublic":1,"isfriend":0,"isfamily":0},{"id":"52558949554","owner":"10571213@N00","secret":"131622e008","server":"65535","farm":66,"title":"Butorides virescens","ispublic":1,"isfriend":0,"isfamily":0},{"id":"52558058668","owner":"53239956@N06","secret":"aaf506df59","server":"65535","farm":66,"title":"I got this","ispublic":1,"isfriend":0,"isfamily":0},{"id":"52554616104","owner":"7413414@N02","secret":"454c5bf033","server":"65535","farm":66,"title":"Ambush Predator(s)","ispublic":1,"isfriend":0,"isfamily":0},{"id":"52554184253","owner":"182225716@N07","secret":"6c4e46ec2c","server":"65535","farm":66,"title":"DSC_8271_00001 Green Heron - H\u00e9ron vert (Butorides virescens)","ispublic":1,"isfriend":0,"isfamily":0},{"id":"52553187962","owner":"182225716@N07","secret":"d6a4057ba4","server":"65535","farm":66,"title":"DSC_8267_00001 Green Heron - H\u00e9ron vert (Butorides virescens)","ispublic":1,"isfriend":0,"isfamily":0},{"id":"52553187892","owner":"182225716@N07","secret":"afaeaac29d","server":"65535","farm":66,"title":"DSC_7996_00001 Green Heron - H\u00e9ron vert (Butorides virescens)","ispublic":1,"isfriend":0,"isfamily":0},{"id":"52554183898","owner":"182225716@N07","secret":"c37dccc976","server":"65535","farm":66,"title":"DSC_7980_00001 Green Heron - H\u00e9ron vert (Butorides virescens)","ispublic":1,"isfriend":0,"isfamily":0},{"id":"52553187672","owner":"182225716@N07","secret":"eb20c224ac","server":"65535","farm":66,"title":"DSC_7977_00001 Green Heron - H\u00e9ron vert (Butorides virescens)","ispublic":1,"isfriend":0,"isfamily":0},{"id":"52551216605","owner":"88932760@N08","secret":"e1034411fb","server":"65535","farm":66,"title":"A Hair-raising Call","ispublic":1,"isfriend":0,"isfamily":0},{"id":"52550785359","owner":"70295563@N00","secret":"c455825fd0","server":"65535","farm":66,"title":"Focused","ispublic":1,"isfriend":0,"isfamily":0},{"id":"52548187768","owner":"66550674@N06","secret":"ea09422876","server":"65535","farm":66,"title":"Green Heron","ispublic":1,"isfriend":0,"isfamily":0}]},"stat":"ok"}