{"photos":{"page":1,"pages":9,"perpage":100,"total":846,"photo":[{"id":"52713711854","owner":"188156748@N07","secret":"29a3f237cd","server":"65535","farm":66,"title":"Hairy Woodpecker (F) - Pic Chevelu (F) - Dryobates villosus 4440 (1)-SharpenAI-Standard copy.jpgS","ispublic":1,"isfriend":0,"isfamily":0},{"id":"52712927202","owner":"188156748@N07","secret":"89d1fdf43c","server":"65535","farm":66,"title":"Hairy Woodpecker (F) - Pic Chevelu (F) - Dryobates villosus 5654 (5)-SharpenAI-Standard copy.jpgS","ispublic":1,"isfriend":0,"isfamily":0},{"id":"52713450386","owner":"188156748@N07","secret":"fbf7f1f09c","server":"65535","farm":66,"title":"Hairy Woodpecker (F) - Pic Chevelu (F) - Dryobates villosus 4440 (3)-SharpenAI-Standard copy.jpgS","ispublic":1,"isfriend":0,"isfamily":0},{"id":"52713871010","owner":"188156748@N07","secret":"f170a90be7","server":"65535","farm":66,"title":"Hairy Woodpecker (M) - Pic Chevelu (M) - Dryobates villosus 5594 (1)-SharpenAI-Standard copy.jpgS","ispublic":1,"isfriend":0,"isfamily":0},{"id":"52713870985","owner":"188156748@N07","secret":"ed487bfaf1","server":"65535","farm":66,"title":"Hairy Woodpecker (M) - Pic Chevelu (M) - Dryobates villosus 5594 (2)-SharpenAI-Standard copy.jpgS","ispublic":1,"isfriend":0,"isfamily":0},{"id":"52713870965","owner":"188156748@N07","secret":"992fee9762","server":"65535","farm":66,"title":"Hairy Woodpecker (M) - Pic Chevelu (M) - Dryobates villosus 5594 (9)-SharpenAI-Standard copy.jpgS","ispublic":1,"isfriend":0,"isfamily":0},{"id":"52707502470","owner":"68635735@N02","secret":"405181afd8","server":"65535","farm":66,"title":"Hairy Woodpecker (Dryobates villosus) male","ispublic":1,"isfriend":0,"isfamily":0},{"id":"52706567067","owner":"68635735@N02","secret":"6b80585a27","server":"65535","farm":66,"title":"Hairy Woodpecker (Dryobates villosus) male","ispublic":1,"isfriend":0,"isfamily":0},{"id":"52704170668","owner":"71418112@N00","secret":"16dcfee202","server":"65535","farm":66,"title":"Feeding junior.","ispublic":1,"isfriend":0,"isfamily":0},{"id":"52697586453","owner":"85277889@N08","secret":"d730cc4018","server":"65535","farm":66,"title":"Hairy Woodpecker (Dryobates villosus) 2023-02-06 (2a)","ispublic":1,"isfriend":0,"isfamily":0},{"id":"52691181706","owner":"18378985@N08","secret":"a8599b1864","server":"65535","farm":66,"title":"Hairy Woodpecker","ispublic":1,"isfriend":0,"isfamily":0},{"id":"52688557329","owner":"120449047@N06","secret":"56f4388a52","server":"65535","farm":66,"title":"Hairy Woodpecker (explored 2\/15\/23}","ispublic":1,"isfriend":0,"isfamily":0},{"id":"52687447131","owner":"188156748@N07","secret":"f14d9c6c68","server":"65535","farm":66,"title":"Hairy Woodpecker (F) - Pic Chevelu (F) - Dryobates villosus 4149 (17)-SharpenAI-Standard copy.jpgS","ispublic":1,"isfriend":0,"isfamily":0},{"id":"52687723164","owner":"188156748@N07","secret":"5922672bcc","server":"65535","farm":66,"title":"Hairy Woodpecker (M) - Pic Chevelu (M) - Dryobates villosus 4080 (2)-SharpenAI-Standard copy.jpgS","ispublic":1,"isfriend":0,"isfamily":0},{"id":"52687723149","owner":"188156748@N07","secret":"79bab1983f","server":"65535","farm":66,"title":"Hairy Woodpecker (M) - Pic Chevelu (M) - Dryobates villosus 4080 (4)-SharpenAI-Standard copy.jpgS","ispublic":1,"isfriend":0,"isfamily":0},{"id":"52686927862","owner":"188156748@N07","secret":"0478e9c8d1","server":"65535","farm":66,"title":"Hairy Woodpecker (P) - Pic Chevelu (P) - Dryobates villosus 4149 (1)-SharpenAI-Standard copy.jpgS","ispublic":1,"isfriend":0,"isfamily":0},{"id":"52687870105","owner":"188156748@N07","secret":"61d244b098","server":"65535","farm":66,"title":"Hairy Woodpecker (P) - Pic Chevelu (P) - Dryobates villosus 4149 (29)-SharpenAI-Standard copy.jpgS","ispublic":1,"isfriend":0,"isfamily":0},{"id":"52683744173","owner":"62043870@N05","secret":"031113c00d","server":"65535","farm":66,"title":"Hairy Woodpecker, Dryobates villosus","ispublic":1,"isfriend":0,"isfamily":0},{"id":"52680799773","owner":"14734088@N02","secret":"c5884b3ac8","server":"65535","farm":66,"title":"Pic chevelu 230208H","ispublic":1,"isfriend":0,"isfamily":0},{"id":"52676929089","owner":"181824639@N02","secret":"724ce9999c","server":"65535","farm":66,"title":"Pic chevelu ( Dryobates villosus )","ispublic":1,"isfriend":0,"isfamily":0},{"id":"52672885569","owner":"150374485@N05","secret":"2bd1993be7","server":"65535","farm":66,"title":"Pic chevelu m\u00e2le portrait--Hairy Woodpecker male portrait ( Dryobates villosus) (IN EXPLORE no-114)","ispublic":1,"isfriend":0,"isfamily":0},{"id":"52642596893","owner":"188156748@N07","secret":"a0061f3802","server":"65535","farm":66,"title":"Hairy Woodpecker (F) - Pic Chevelu (F) - Dryobates villosus 1366-SharpenAI-Standard copy.jpgS","ispublic":1,"isfriend":0,"isfamily":0},{"id":"52642596883","owner":"188156748@N07","secret":"266140c834","server":"65535","farm":66,"title":"Hairy Woodpecker (F) - Pic Chevelu (F) - Dryobates villosus 1534 (3)-SharpenAI-Standard copy.jpgS","ispublic":1,"isfriend":0,"isfamily":0},{"id":"52641612547","owner":"188156748@N07","secret":"0ea93c741e","server":"65535","farm":66,"title":"Hairy Woodpecker (F) - Pic Chevelu (F) - Dryobates villosus 1534 (4)-SharpenAI-Standard copy.jpgS","ispublic":1,"isfriend":0,"isfamily":0},{"id":"52642596823","owner":"188156748@N07","secret":"64a66dcaa2","server":"65535","farm":66,"title":"Hairy Woodpecker (M) - Pic Chevelu (M) - Dryobates villosus 1264 (1)-SharpenAI-Standard copy.jpgS","ispublic":1,"isfriend":0,"isfamily":0},{"id":"52642560980","owner":"188156748@N07","secret":"f49f912065","server":"65535","farm":66,"title":"Hairy Woodpecker (M) - Pic Chevelu (M) - Dryobates villosus 1264 (32)-SharpenAI-Standard copy.jpgS","ispublic":1,"isfriend":0,"isfamily":0},{"id":"52642596813","owner":"188156748@N07","secret":"e5aac29a00","server":"65535","farm":66,"title":"Hairy Woodpecker (M) - Pic Chevelu (M) - Dryobates villosus 1264 (24)-SharpenAI-Standard copy.jpgS","ispublic":1,"isfriend":0,"isfamily":0},{"id":"52641629349","owner":"62043870@N05","secret":"09d4776c75","server":"65535","farm":66,"title":"Hairy Woodpecker, Dryobates villosus","ispublic":1,"isfriend":0,"isfamily":0},{"id":"52613537855","owner":"41710899@N08","secret":"256f1124a8","server":"65535","farm":66,"title":"Hairy Woodpecker","ispublic":1,"isfriend":0,"isfamily":0},{"id":"52610477837","owner":"188156748@N07","secret":"be19fa9425","server":"65535","farm":66,"title":"Hairy Woodpecker (F) - Pic Chevelu (F) - Dryobates villosus 0095 (6)-SharpenAI-Standard copy.jpgS","ispublic":1,"isfriend":0,"isfamily":0},{"id":"52611246434","owner":"188156748@N07","secret":"8964206b7e","server":"65535","farm":66,"title":"Hairy Woodpecker (F) - Pic Chevelu (F) - Dryobates villosus 0095 (9)-SharpenAI-Standard copy.jpgS","ispublic":1,"isfriend":0,"isfamily":0},{"id":"52610477777","owner":"188156748@N07","secret":"745296f607","server":"65535","farm":66,"title":"Hairy Woodpecker (F) - Pic Chevelu (F) - Dryobates villosus 0769-SharpenAI-Standard copy.jpgS","ispublic":1,"isfriend":0,"isfamily":0},{"id":"52611246394","owner":"188156748@N07","secret":"44d8d59e4b","server":"65535","farm":66,"title":"Hairy Woodpecker (M) - Pic Chevelu (M) - Dryobates villosus 0438 (2)-SharpenAI-Standard copy.jpgS","ispublic":1,"isfriend":0,"isfamily":0},{"id":"52611246324","owner":"188156748@N07","secret":"6a39784f97","server":"65535","farm":66,"title":"Hairy Woodpecker (M) - Pic Chevelu (M) - Dryobates villosus 9812 (1).jpgB-SharpenAI-Standard copy.jpgS","ispublic":1,"isfriend":0,"isfamily":0},{"id":"52611246244","owner":"188156748@N07","secret":"3d013a1b4b","server":"65535","farm":66,"title":"Hairy Woodpecker (M) - Pic Chevelu (M) - Dryobates villosus 9976 (4)-SharpenAI-Standard copy.jpgS","ispublic":1,"isfriend":0,"isfamily":0},{"id":"52605149921","owner":"66709001@N00","secret":"553789c383","server":"65535","farm":66,"title":"Hairy Woodpecker (Dryobates villosus)","ispublic":1,"isfriend":0,"isfamily":0},{"id":"52604112833","owner":"62043870@N05","secret":"fa8e62c675","server":"65535","farm":66,"title":"Hairy Woodpecker, Dryobates villosus","ispublic":1,"isfriend":0,"isfamily":0},{"id":"52604112588","owner":"62043870@N05","secret":"be5a342534","server":"65535","farm":66,"title":"Hairy Woodpecker, Dryobates villosus","ispublic":1,"isfriend":0,"isfamily":0},{"id":"52597112393","owner":"61897811@N00","secret":"ce76c3b09a","server":"65535","farm":66,"title":"Hairy Woodpecker male","ispublic":1,"isfriend":0,"isfamily":0},{"id":"52583834131","owner":"23711298@N07","secret":"47e4577139","server":"65535","farm":66,"title":"Hairy Woodpecker (Female), Minnesota, Ramsey County- White Bear Lake, Tamarack Nature Center","ispublic":1,"isfriend":0,"isfamily":0},{"id":"52579840307","owner":"153973412@N04","secret":"7e67b838bf","server":"65535","farm":66,"title":"Hairy Woodpecker-Dryobates villosus, Sax-Zim, MN","ispublic":1,"isfriend":0,"isfamily":0},{"id":"52571043194","owner":"188156748@N07","secret":"119af92b14","server":"65535","farm":66,"title":"Hairy Woodpecker (F) - Pic Chevelu (F) - Dryobates villosus  8349 (2)-SharpenAI-Standard copy.jpgS","ispublic":1,"isfriend":0,"isfamily":0},{"id":"52571043134","owner":"188156748@N07","secret":"c70ba7cd92","server":"65535","farm":66,"title":"Hairy Woodpecker (F) - Pic Chevelu (F) - Dryobates villosus 7786 (1) copy.jpgS","ispublic":1,"isfriend":0,"isfamily":0},{"id":"52570767621","owner":"188156748@N07","secret":"0713fa9e7a","server":"65535","farm":66,"title":"Hairy Woodpecker (F) - Pic Chevelu (F) - Dryobates villosus 7786 (19)-SharpenAI-Standard copy.jpgS","ispublic":1,"isfriend":0,"isfamily":0},{"id":"52571299088","owner":"188156748@N07","secret":"7d235d2d40","server":"65535","farm":66,"title":"Hairy Woodpecker (M) - Pic Chevelu (M) - Dryobates villosus  8368 (1) copy.jpgS","ispublic":1,"isfriend":0,"isfamily":0},{"id":"52570767546","owner":"188156748@N07","secret":"32eb334dae","server":"65535","farm":66,"title":"Hairy Woodpecker (M) - Pic Chevelu (M) - Dryobates villosus  8368 (8) copy.jpgS","ispublic":1,"isfriend":0,"isfamily":0},{"id":"52570767521","owner":"188156748@N07","secret":"9c96df88e2","server":"65535","farm":66,"title":"Hairy Woodpecker (M) - Pic Chevelu (M) - Dryobates villosus 7814 (10) copy.jpgS","ispublic":1,"isfriend":0,"isfamily":0},{"id":"52570302937","owner":"188156748@N07","secret":"11562c26c1","server":"65535","farm":66,"title":"Hairy Woodpecker (M) - Pic Chevelu (M) - Dryobates villosus 7814 (14) copy.jpgS","ispublic":1,"isfriend":0,"isfamily":0},{"id":"52571042914","owner":"188156748@N07","secret":"f3994395cb","server":"65535","farm":66,"title":"Hairy Woodpecker (M) - Pic Chevelu (M) - Dryobates villosus 8290 (3) copy.jpgS","ispublic":1,"isfriend":0,"isfamily":0},{"id":"52570302862","owner":"188156748@N07","secret":"547930fddd","server":"65535","farm":66,"title":"Hairy Woodpecker (M) - Pic Chevelu (M) - Dryobates villosus 8783 (19) copy.jpgS","ispublic":1,"isfriend":0,"isfamily":0},{"id":"52546955466","owner":"188156748@N07","secret":"d700a26dd8","server":"65535","farm":66,"title":"Hairy Woodpecker (F) - Pic Chevelu (F) - Dryobates villosus 5706 (2)-SharpenAI-Standard copy.jpgS","ispublic":1,"isfriend":0,"isfamily":0},{"id":"52546492627","owner":"188156748@N07","secret":"ae81d050c2","server":"65535","farm":66,"title":"Hairy Woodpecker (F) - Pic Chevelu (F) - Dryobates villosus 5706 (3)-SharpenAI-Standard copy.jpgS","ispublic":1,"isfriend":0,"isfamily":0},{"id":"52547501908","owner":"188156748@N07","secret":"791e6e7f12","server":"65535","farm":66,"title":"Hairy Woodpecker (F) - Pic Chevelu (F) - Dryobates villosus 5706 (5)-SharpenAI-Standard copy.jpgS","ispublic":1,"isfriend":0,"isfamily":0},{"id":"52546492317","owner":"188156748@N07","secret":"91674e51dd","server":"65535","farm":66,"title":"Hairy Woodpecker (M) - Pic Chevelu (M) - Dryobates villosus 5542 (5)-SharpenAI-Standard copy.jpgS","ispublic":1,"isfriend":0,"isfamily":0},{"id":"52547431315","owner":"188156748@N07","secret":"4fce7bff6a","server":"65535","farm":66,"title":"Hairy Woodpecker (M) - Pic Chevelu (M) - Dryobates villosus 5542 (6)-SharpenAI-Standard copy.jpgS","ispublic":1,"isfriend":0,"isfamily":0},{"id":"52547252639","owner":"188156748@N07","secret":"2dfde8d511","server":"65535","farm":66,"title":"Hairy Woodpecker (M) - Pic Chevelu (M) - Dryobates villosus 5542 (7)-SharpenAI-Standard copy.jpgS","ispublic":1,"isfriend":0,"isfamily":0},{"id":"52544981173","owner":"76973714@N06","secret":"ffb412cd8d","server":"65535","farm":66,"title":"Hairy Woodpecker (Female)","ispublic":1,"isfriend":0,"isfamily":0},{"id":"52540443494","owner":"139237357@N06","secret":"fbae2918d2","server":"65535","farm":66,"title":"Hairy Woodpecker","ispublic":1,"isfriend":0,"isfamily":0},{"id":"52535187533","owner":"10937887@N00","secret":"163a6ee248","server":"65535","farm":66,"title":"22November2022F012","ispublic":1,"isfriend":0,"isfamily":0},{"id":"52534175912","owner":"10937887@N00","secret":"05be3eb3e8","server":"65535","farm":66,"title":"22November2022F013","ispublic":1,"isfriend":0,"isfamily":0},{"id":"52534927804","owner":"10937887@N00","secret":"25037f33a3","server":"65535","farm":66,"title":"22November2022F033","ispublic":1,"isfriend":0,"isfamily":0},{"id":"52534646226","owner":"10937887@N00","secret":"90e2a95088","server":"65535","farm":66,"title":"22November2022F037","ispublic":1,"isfriend":0,"isfamily":0},{"id":"52535120680","owner":"10937887@N00","secret":"081d9a6674","server":"65535","farm":66,"title":"22November2022F038","ispublic":1,"isfriend":0,"isfamily":0},{"id":"52534646081","owner":"10937887@N00","secret":"74971331cb","server":"65535","farm":66,"title":"22November2022F059","ispublic":1,"isfriend":0,"isfamily":0},{"id":"52535186948","owner":"10937887@N00","secret":"9e621fd614","server":"65535","farm":66,"title":"22November2022F071","ispublic":1,"isfriend":0,"isfamily":0},{"id":"52534175442","owner":"10937887@N00","secret":"5a4d997e54","server":"65535","farm":66,"title":"22November2022F073","ispublic":1,"isfriend":0,"isfamily":0},{"id":"52534645891","owner":"10937887@N00","secret":"dea90100ca","server":"65535","farm":66,"title":"22November2022F083","ispublic":1,"isfriend":0,"isfamily":0},{"id":"52534645856","owner":"10937887@N00","secret":"033e040152","server":"65535","farm":66,"title":"22November2022F087","ispublic":1,"isfriend":0,"isfamily":0},{"id":"52535186663","owner":"10937887@N00","secret":"12cbd6c3b0","server":"65535","farm":66,"title":"22November2022F091","ispublic":1,"isfriend":0,"isfamily":0},{"id":"52526203800","owner":"69812270@N00","secret":"131a5e09ae","server":"65535","farm":66,"title":"Hairy Woodpecker, SLP","ispublic":1,"isfriend":0,"isfamily":0},{"id":"52502508185","owner":"31898755@N00","secret":"a972de346d","server":"65535","farm":66,"title":"Hairy Woodpecker \u2640","ispublic":1,"isfriend":0,"isfamily":0},{"id":"52502028688","owner":"188156748@N07","secret":"215f19f7b7","server":"65535","farm":66,"title":"Hairy Woodpecker (M) - Pic Chevelu (M) - Dryobates villosus 4479 (2) copy.jpgS","ispublic":1,"isfriend":0,"isfamily":0},{"id":"52501754514","owner":"188156748@N07","secret":"830f75fe50","server":"65535","farm":66,"title":"Hairy Woodpecker (M) - Pic Chevelu (M) - Dryobates villosus 4479 (3) copy.jpgS","ispublic":1,"isfriend":0,"isfamily":0},{"id":"52501754469","owner":"188156748@N07","secret":"8242fc955c","server":"65535","farm":66,"title":"Hairy Woodpecker (M) - Pic Chevelu (M) - Dryobates villosus 4575 (3)-SharpenAI-Standard copy.jpgS","ispublic":1,"isfriend":0,"isfamily":0},{"id":"52499843682","owner":"188156748@N07","secret":"c60b36b9ee","server":"65535","farm":66,"title":"Hairy Woodpecker (F) - Pic Chevelu (F) - Dryobates villosus 4177 (5)-SharpenAI-Standard copy.jpgS","ispublic":1,"isfriend":0,"isfamily":0},{"id":"52499843662","owner":"188156748@N07","secret":"3e9bb67296","server":"65535","farm":66,"title":"Hairy Woodpecker (F) - Pic Chevelu (F) - Dryobates villosus 4177 (7)-SharpenAI-Standard copy.jpgS","ispublic":1,"isfriend":0,"isfamily":0},{"id":"52499843637","owner":"188156748@N07","secret":"d4515fa3ac","server":"65535","farm":66,"title":"Hairy Woodpecker (F) - Pic Chevelu (F) - Dryobates villosus 4177 (16)-SharpenAI-Standard copy.jpgS","ispublic":1,"isfriend":0,"isfamily":0},{"id":"52491845106","owner":"62043870@N05","secret":"58a4dae771","server":"65535","farm":66,"title":"Hairy Woodpecker, Dryobates villosus","ispublic":1,"isfriend":0,"isfamily":0},{"id":"52492397023","owner":"62043870@N05","secret":"4f81a06240","server":"65535","farm":66,"title":"Hairy Woodpecker, Dryobates villosus","ispublic":1,"isfriend":0,"isfamily":0},{"id":"52487318431","owner":"151381692@N04","secret":"52eb8818b4","server":"65535","farm":66,"title":"Hairy Woodpecker (Dryobates villosus)","ispublic":1,"isfriend":0,"isfamily":0},{"id":"52469341204","owner":"188156748@N07","secret":"f5acea3be6","server":"65535","farm":66,"title":"Hairy Woodpecker (F) - Pic Chevelu (F) - Dryobates villosus 3076 (11)-SharpenAI-Standard copy.jpgS","ispublic":1,"isfriend":0,"isfamily":0},{"id":"52469063956","owner":"188156748@N07","secret":"a0b9d9437a","server":"65535","farm":66,"title":"Hairy Woodpecker (F) - Pic Chevelu (F) - Dryobates villosus 3076 (12)-SharpenAI-Standard copy.jpgS","ispublic":1,"isfriend":0,"isfamily":0},{"id":"52469063916","owner":"188156748@N07","secret":"916288a530","server":"65535","farm":66,"title":"Hairy Woodpecker (M) - Pic Chevelu (M) - Dryobates villosus 1798 (200)-SharpenAI-Standard copy.jpgS","ispublic":1,"isfriend":0,"isfamily":0},{"id":"52469526055","owner":"188156748@N07","secret":"826e9be9a3","server":"65535","farm":66,"title":"Hairy Woodpecker (M) - Pic Chevelu (M) - Dryobates villosus 2014 (18)-SharpenAI-Standard copy.jpgS","ispublic":1,"isfriend":0,"isfamily":0},{"id":"52466445539","owner":"24993691@N07","secret":"b24b3f110d","server":"65535","farm":66,"title":"st bruno hairy woodpecker 3 DSC_9935_edited_edited","ispublic":1,"isfriend":0,"isfamily":0},{"id":"52464755498","owner":"45340210@N05","secret":"5e8b64d259","server":"65535","farm":66,"title":"Hairy Woodpecker 2 10_18_22","ispublic":1,"isfriend":0,"isfamily":0},{"id":"52457445859","owner":"196826870@N06","secret":"dcc3daae5e","server":"65535","farm":66,"title":"Hairy Woodpecker","ispublic":1,"isfriend":0,"isfamily":0},{"id":"52445440812","owner":"188156748@N07","secret":"67a9e95df9","server":"65535","farm":66,"title":"Hairy Woodpecker (M) - Pic Chevelu (M)  - Dryobates villosus  1860 (36).jpgR-SharpenAI-Standard copy.jpgS","ispublic":1,"isfriend":0,"isfamily":0},{"id":"52446403855","owner":"188156748@N07","secret":"8689627d25","server":"65535","farm":66,"title":"Hairy Woodpecker (M) - Pic Chevelu (M) - Dryobates villosus   1916 (3).jpgR-SharpenAI-Standard copy.jpgS","ispublic":1,"isfriend":0,"isfamily":0},{"id":"52446477358","owner":"188156748@N07","secret":"b24e36b037","server":"65535","farm":66,"title":"Hairy Woodpecker (M) - Pic Chevelu (M) - Dryobates villosus   1916 (8).jpgR-SharpenAI-Standard copy.jpgS","ispublic":1,"isfriend":0,"isfamily":0},{"id":"52446403780","owner":"188156748@N07","secret":"eaf0b587f1","server":"65535","farm":66,"title":"Hairy Woodpecker (M) - Pic Chevelu (M) - Dryobates villosus  1860 (34).jpgR-SharpenAI-Standard copy.jpgS","ispublic":1,"isfriend":0,"isfamily":0},{"id":"52446477218","owner":"188156748@N07","secret":"1a6ddbcdb3","server":"65535","farm":66,"title":"Hairy Woodpecker (M) - Pic Chevelu (M) - Dryobates villosus  1916 (2).jpgR-SharpenAI-Standard copy.jpgS","ispublic":1,"isfriend":0,"isfamily":0},{"id":"52433144369","owner":"95721592@N00","secret":"7c61be2ab9","server":"65535","farm":66,"title":"Downy and Hairy Woodpeckers","ispublic":1,"isfriend":0,"isfamily":0},{"id":"52426527929","owner":"71418112@N00","secret":"9f4fc5f017","server":"65535","farm":66,"title":"Hairy woodpecker","ispublic":1,"isfriend":0,"isfamily":0},{"id":"52417684416","owner":"188156748@N07","secret":"7d822507b1","server":"65535","farm":66,"title":"Hairy Woodpecker (M) - Pic Chevelu (M)  - Dryobates villosus  0041 (2)-SharpenAI-Standard copy.jpgS","ispublic":1,"isfriend":0,"isfamily":0},{"id":"52417965404","owner":"188156748@N07","secret":"15e5e065e7","server":"65535","farm":66,"title":"Hairy Woodpecker (M) -  - Dryobates villosus  Pic Chevelu (M) 0041 (9)-SharpenAI-Standard copy.jpgS","ispublic":1,"isfriend":0,"isfamily":0},{"id":"52418123320","owner":"188156748@N07","secret":"04f7cc2be5","server":"65535","farm":66,"title":"Hairy Woodpecker (M) - Pic Chevelu (M)  - Dryobates villosus  0041 (3)-SharpenAI-Standard copy.jpgS","ispublic":1,"isfriend":0,"isfamily":0},{"id":"52417900369","owner":"188156748@N07","secret":"4f18889b00","server":"65535","farm":66,"title":"Hairy Woodpecker (F) - Pic Chevelu (F)  - Dryobates villosus 9723 (28)-SharpenAI-Standard copy.jpgS","ispublic":1,"isfriend":0,"isfamily":0},{"id":"52417618601","owner":"188156748@N07","secret":"c04a8e436d","server":"65535","farm":66,"title":"Hairy Woodpecker (F) - Pic Chevelu (F)  - Dryobates villosus 9723 (40)-SharpenAI-Standard copy.jpgS","ispublic":1,"isfriend":0,"isfamily":0},{"id":"52418129283","owner":"188156748@N07","secret":"bffb15b0cb","server":"65535","farm":66,"title":"Hairy Woodpecker (F) - Pic Chevelu (F)  - Dryobates villosus 9723 (44)-SharpenAI-Standard copy.jpgS","ispublic":1,"isfriend":0,"isfamily":0}]},"stat":"ok"}