{"photos":{"page":1,"pages":47,"perpage":100,"total":4628,"photo":[{"id":"52721133809","owner":"103722035@N06","secret":"2ebfd2acdf","server":"65535","farm":66,"title":"Hermit Thrush (Catharus guttatus), Monta\u00f1a de Oro, Los Osos, CA","ispublic":1,"isfriend":0,"isfamily":0},{"id":"52720346892","owner":"103722035@N06","secret":"c66b31aa6c","server":"65535","farm":66,"title":"Hermit Thrush (Catharus guttatus), Monta\u00f1a de Oro, Los Osos, CA","ispublic":1,"isfriend":0,"isfamily":0},{"id":"52720346852","owner":"103722035@N06","secret":"9371b6041f","server":"65535","farm":66,"title":"Hermit Thrush (Catharus guttatus), Monta\u00f1a de Oro, Los Osos, CA","ispublic":1,"isfriend":0,"isfamily":0},{"id":"52721133219","owner":"103722035@N06","secret":"1382b7fe48","server":"65535","farm":66,"title":"Hermit Thrush (Catharus guttatus), Monta\u00f1a de Oro, Los Osos, CA","ispublic":1,"isfriend":0,"isfamily":0},{"id":"52716717586","owner":"103722035@N06","secret":"b49d129e14","server":"0","farm":0,"title":"Hermit Thrush (Catharus guttatus), Monta\u00f1a de Oro, Los Osos, CA","ispublic":1,"isfriend":0,"isfamily":0},{"id":"52712729406","owner":"81058247@N08","secret":"80970a48a2","server":"65535","farm":66,"title":"Hermit Thrush (Catharus guttatus) and Myrtle Yellow-rumped Warblers (Setophaga coronata coronata)","ispublic":1,"isfriend":0,"isfamily":0},{"id":"52710197742","owner":"47533293@N04","secret":"ae1f3307fa","server":"65535","farm":66,"title":"Hermit thrush, Catharus guttatus","ispublic":1,"isfriend":0,"isfamily":0},{"id":"52707982890","owner":"65788177@N02","secret":"71a3327b06","server":"65535","farm":66,"title":"Hermit Thrush","ispublic":1,"isfriend":0,"isfamily":0},{"id":"52706009825","owner":"33610210@N05","secret":"54a3769828","server":"65535","farm":66,"title":"Hermit Thrush, Catharus guttatus","ispublic":1,"isfriend":0,"isfamily":0},{"id":"52698734045","owner":"81058247@N08","secret":"aca3f6b8ce","server":"65535","farm":66,"title":"Hermit Thrush (Catharus guttatus)","ispublic":1,"isfriend":0,"isfamily":0},{"id":"52697798887","owner":"81058247@N08","secret":"887b60cfa8","server":"65535","farm":66,"title":"Hermit Thrush (Catharus guttatus)","ispublic":1,"isfriend":0,"isfamily":0},{"id":"52697798857","owner":"81058247@N08","secret":"d7721f5370","server":"65535","farm":66,"title":"Hermit Thrush (Catharus guttatus)","ispublic":1,"isfriend":0,"isfamily":0},{"id":"52697565129","owner":"10260434@N03","secret":"cb0787420f","server":"65535","farm":66,"title":"Hermit Thrush+snow-13Jan2023","ispublic":1,"isfriend":0,"isfamily":0},{"id":"52697301561","owner":"10260434@N03","secret":"c484682f00","server":"65535","farm":66,"title":"Hermit Thrush-13Jan23","ispublic":1,"isfriend":0,"isfamily":0},{"id":"52697384666","owner":"62043870@N05","secret":"212e9e248a","server":"65535","farm":66,"title":"Hermit Thrush, Catharus guttatus","ispublic":1,"isfriend":0,"isfamily":0},{"id":"52697683355","owner":"65788177@N02","secret":"a7020e3295","server":"65535","farm":66,"title":"Hermit Thrush","ispublic":1,"isfriend":0,"isfamily":0},{"id":"52697005276","owner":"131779834@N08","secret":"bebafcbaa1","server":"65535","farm":66,"title":"One Legged Perch","ispublic":1,"isfriend":0,"isfamily":0},{"id":"52695718977","owner":"10260434@N03","secret":"d017d43558","server":"65535","farm":66,"title":"Hermit Thrush-24Dec22","ispublic":1,"isfriend":0,"isfamily":0},{"id":"52696630665","owner":"124995824@N08","secret":"64860a9743","server":"65535","farm":66,"title":"Hermit Thrush - Catharus guttatus","ispublic":1,"isfriend":0,"isfamily":0},{"id":"52695389993","owner":"143326780@N02","secret":"a0d7165d42","server":"65535","farm":66,"title":"DSCN4506","ispublic":1,"isfriend":0,"isfamily":0},{"id":"52694900116","owner":"143326780@N02","secret":"da867a35af","server":"65535","farm":66,"title":"DSCN4507","ispublic":1,"isfriend":0,"isfamily":0},{"id":"52695389863","owner":"143326780@N02","secret":"7b4ebe4b86","server":"65535","farm":66,"title":"DSCN4510","ispublic":1,"isfriend":0,"isfamily":0},{"id":"52694899971","owner":"143326780@N02","secret":"13de2fff6e","server":"65535","farm":66,"title":"DSCN4513","ispublic":1,"isfriend":0,"isfamily":0},{"id":"52695312460","owner":"143326780@N02","secret":"788bd77101","server":"65535","farm":66,"title":"DSCN4515","ispublic":1,"isfriend":0,"isfamily":0},{"id":"52690372069","owner":"103722035@N06","secret":"5c79d50d4a","server":"0","farm":0,"title":"Hermit Thrush (Catharus guttatus), Cambria, CA","ispublic":1,"isfriend":0,"isfamily":0},{"id":"52689997635","owner":"57126723@N07","secret":"dfafbfd7a7","server":"65535","farm":66,"title":"Catharus guttatus\u2014Hermit thrush\u2014Turdidae\u2014New Quarter Park-","ispublic":1,"isfriend":0,"isfamily":0},{"id":"52690071063","owner":"57126723@N07","secret":"5ba6336836","server":"65535","farm":66,"title":"Catharus guttatus\u2014Hermit thrush\u2014Turdidae\u2014New Quarter Park-8696-Edit","ispublic":1,"isfriend":0,"isfamily":0},{"id":"52689849079","owner":"57126723@N07","secret":"394bd2735f","server":"65535","farm":66,"title":"Catharus guttatus\u2014Hermit thrush\u2014Turdidae\u2014New Quarter Park-8690-Edit","ispublic":1,"isfriend":0,"isfamily":0},{"id":"52688633072","owner":"81058247@N08","secret":"286f54d7d5","server":"65535","farm":66,"title":"Hermit Thrush (Catharus guttatus)","ispublic":1,"isfriend":0,"isfamily":0},{"id":"52688074827","owner":"34238008@N02","secret":"8d03c0c47d","server":"65535","farm":66,"title":"Hermit Thrush (Catharus guttatus)","ispublic":1,"isfriend":0,"isfamily":0},{"id":"52688868729","owner":"34238008@N02","secret":"1268a33b6e","server":"65535","farm":66,"title":"Hermit Thrush (Catharus guttatus)","ispublic":1,"isfriend":0,"isfamily":0},{"id":"52685616969","owner":"128537732@N06","secret":"4f652a0fbd","server":"65535","farm":66,"title":"Hermit Thrush (Catharus guttatus)","ispublic":1,"isfriend":0,"isfamily":0},{"id":"52684465832","owner":"39177293@N03","secret":"5b1737ef3f","server":"65535","farm":66,"title":"Hermit Thrush","ispublic":1,"isfriend":0,"isfamily":0},{"id":"52681359315","owner":"187792860@N04","secret":"e13478504b","server":"65535","farm":66,"title":"Hermit Thrush (Catharus guttatus)","ispublic":1,"isfriend":0,"isfamily":0},{"id":"52678805398","owner":"61241315@N00","secret":"d6f8ec1f7d","server":"0","farm":0,"title":"Hermit Thrush_7476 COMPLETE.MP4","ispublic":1,"isfriend":0,"isfamily":0},{"id":"52678595394","owner":"61241315@N00","secret":"4628d9b22b","server":"0","farm":0,"title":"Hermit Thrush_7462 COMPLETE.MP4","ispublic":1,"isfriend":0,"isfamily":0},{"id":"52678310141","owner":"61241315@N00","secret":"bf8f57992a","server":"65535","farm":66,"title":"Hermit Thrush_N7451","ispublic":1,"isfriend":0,"isfamily":0},{"id":"52678310106","owner":"61241315@N00","secret":"7b6cc7d748","server":"65535","farm":66,"title":"Hermit Thrush_N7456","ispublic":1,"isfriend":0,"isfamily":0},{"id":"52678746090","owner":"61241315@N00","secret":"6c85e73a7d","server":"65535","farm":66,"title":"Hermit Thrush_N7453","ispublic":1,"isfriend":0,"isfamily":0},{"id":"52678806103","owner":"61241315@N00","secret":"3e2294a17c","server":"65535","farm":66,"title":"Hermit Thrush_N7459","ispublic":1,"isfriend":0,"isfamily":0},{"id":"52678806073","owner":"61241315@N00","secret":"0ba41827a2","server":"65535","farm":66,"title":"Hermit Thrush_N7463","ispublic":1,"isfriend":0,"isfamily":0},{"id":"52678746000","owner":"61241315@N00","secret":"cf54640f18","server":"65535","farm":66,"title":"Hermit Thrush_N7467","ispublic":1,"isfriend":0,"isfamily":0},{"id":"52678745985","owner":"61241315@N00","secret":"f313b04527","server":"65535","farm":66,"title":"Hermit Thrush_N7471","ispublic":1,"isfriend":0,"isfamily":0},{"id":"52678745955","owner":"61241315@N00","secret":"7e8271e1f6","server":"65535","farm":66,"title":"Hermit Thrush_N7474","ispublic":1,"isfriend":0,"isfamily":0},{"id":"52675247335","owner":"158105449@N02","secret":"f30931bd0c","server":"65535","farm":66,"title":"Winter visitor","ispublic":1,"isfriend":0,"isfamily":0},{"id":"52669393105","owner":"130819719@N05","secret":"cfb71912dc","server":"65535","farm":66,"title":"Hermit Thrush in the rain","ispublic":1,"isfriend":0,"isfamily":0},{"id":"52665521156","owner":"143326780@N02","secret":"1d88003da1","server":"65535","farm":66,"title":"DSCN2827","ispublic":1,"isfriend":0,"isfamily":0},{"id":"52665521131","owner":"143326780@N02","secret":"f8850322d2","server":"65535","farm":66,"title":"DSCN2829","ispublic":1,"isfriend":0,"isfamily":0},{"id":"52666021793","owner":"143326780@N02","secret":"622e764589","server":"65535","farm":66,"title":"DSCN2831","ispublic":1,"isfriend":0,"isfamily":0},{"id":"52665956985","owner":"143326780@N02","secret":"b7c108f564","server":"65535","farm":66,"title":"DSCN2842","ispublic":1,"isfriend":0,"isfamily":0},{"id":"52665520996","owner":"143326780@N02","secret":"3aee5c17fe","server":"65535","farm":66,"title":"DSCN2847","ispublic":1,"isfriend":0,"isfamily":0},{"id":"52665956780","owner":"143326780@N02","secret":"a3a8e7033f","server":"65535","farm":66,"title":"DSCN3188","ispublic":1,"isfriend":0,"isfamily":0},{"id":"52665814219","owner":"143326780@N02","secret":"59ca9b0711","server":"65535","farm":66,"title":"DSCN3192","ispublic":1,"isfriend":0,"isfamily":0},{"id":"52665520821","owner":"143326780@N02","secret":"42d59d12b6","server":"65535","farm":66,"title":"DSCN3214","ispublic":1,"isfriend":0,"isfamily":0},{"id":"52663438312","owner":"14908898@N08","secret":"c2606f5693","server":"65535","farm":66,"title":"Hermit Thrush 12-19-22","ispublic":1,"isfriend":0,"isfamily":0},{"id":"52663903255","owner":"34368269@N04","secret":"cc77bd8ab9","server":"65535","farm":66,"title":"Hermit Thrush","ispublic":1,"isfriend":0,"isfamily":0},{"id":"52662310958","owner":"33610210@N05","secret":"e2b089dd04","server":"65535","farm":66,"title":"Hermit Thrush, Catharus guttatus","ispublic":1,"isfriend":0,"isfamily":0},{"id":"52662262605","owner":"33610210@N05","secret":"a81c542b96","server":"65535","farm":66,"title":"Hermit Thrush, Catharus guttatus","ispublic":1,"isfriend":0,"isfamily":0},{"id":"52656597833","owner":"23016207@N05","secret":"8800f37e52","server":"65535","farm":66,"title":"in the pine","ispublic":1,"isfriend":0,"isfamily":0},{"id":"52655393257","owner":"39138537@N06","secret":"b80c5ec834","server":"65535","farm":66,"title":"Hermit Thrush (Catharus guttatus)","ispublic":1,"isfriend":0,"isfamily":0},{"id":"52656163699","owner":"39138537@N06","secret":"a04de6f1a3","server":"65535","farm":66,"title":"Hermit Thrush (Catharus guttatus)","ispublic":1,"isfriend":0,"isfamily":0},{"id":"52656163654","owner":"39138537@N06","secret":"18901c4771","server":"65535","farm":66,"title":"Hermit Thrush (Catharus guttatus)","ispublic":1,"isfriend":0,"isfamily":0},{"id":"52653929691","owner":"150374485@N05","secret":"0de67efec1","server":"65535","farm":66,"title":"Grive solitaire--Hermit Trush (Catharus guttatus)","ispublic":1,"isfriend":0,"isfamily":0},{"id":"52652210576","owner":"50264295@N06","secret":"6d642c8e24","server":"65535","farm":66,"title":"Hermit Thrush (Catharus guttatus)- SY, FCF","ispublic":1,"isfriend":0,"isfamily":0},{"id":"52650802687","owner":"62043870@N05","secret":"d15fb82c8a","server":"65535","farm":66,"title":"Hermit Thrush, Catharus guttatus","ispublic":1,"isfriend":0,"isfamily":0},{"id":"52649824507","owner":"62043870@N05","secret":"4bb0f7ef9b","server":"65535","farm":66,"title":"Hermit Thrush, Catharus guttatus","ispublic":1,"isfriend":0,"isfamily":0},{"id":"52646696250","owner":"128537732@N06","secret":"16bdae6e7d","server":"65535","farm":66,"title":"Hermit Thrush (Catharus guttatus)","ispublic":1,"isfriend":0,"isfamily":0},{"id":"52643618835","owner":"8013969@N03","secret":"6790492294","server":"65535","farm":66,"title":"Catharus guttatus DFL btr22-1","ispublic":1,"isfriend":0,"isfamily":0},{"id":"52643615135","owner":"8013969@N03","secret":"0aa2651488","server":"65535","farm":66,"title":"Catharus guttatus DFL btr22-2","ispublic":1,"isfriend":0,"isfamily":0},{"id":"52642667407","owner":"8013969@N03","secret":"4c9f05e7b7","server":"65535","farm":66,"title":"Catharus guttatus DFL btr22-3","ispublic":1,"isfriend":0,"isfamily":0},{"id":"52643641693","owner":"8013969@N03","secret":"ed197150fd","server":"65535","farm":66,"title":"Catharus guttatus DFL btr22-4","ispublic":1,"isfriend":0,"isfamily":0},{"id":"52641639388","owner":"75714412@N00","secret":"784cdb6d64","server":"65535","farm":66,"title":"Winter bird in thicket","ispublic":1,"isfriend":0,"isfamily":0},{"id":"52641328409","owner":"128537732@N06","secret":"f476d65ed9","server":"65535","farm":66,"title":"Hermit Thrush (Catharus guttatus)","ispublic":1,"isfriend":0,"isfamily":0},{"id":"52640560652","owner":"128537732@N06","secret":"3a09381c39","server":"65535","farm":66,"title":"Hermit Thrush (Catharus guttatus)","ispublic":1,"isfriend":0,"isfamily":0},{"id":"52639442837","owner":"10260434@N03","secret":"f478b5bbe3","server":"65535","farm":66,"title":"Hermit Thrush-13Jan2023","ispublic":1,"isfriend":0,"isfamily":0},{"id":"52638135724","owner":"34368269@N04","secret":"fd0ee0b588","server":"65535","farm":66,"title":"Hermit Thrush","ispublic":1,"isfriend":0,"isfamily":0},{"id":"52635357152","owner":"29899010@N00","secret":"db789d1cb0","server":"65535","farm":66,"title":"Hermit Thrush - IMG_9327-2","ispublic":1,"isfriend":0,"isfamily":0},{"id":"52633248538","owner":"34238008@N02","secret":"406db4b436","server":"65535","farm":66,"title":"Hermit Thrush (Catharus guttatus)","ispublic":1,"isfriend":0,"isfamily":0},{"id":"52632762711","owner":"34238008@N02","secret":"df1448728b","server":"65535","farm":66,"title":"Hermit Thrush (Catharus guttatus)","ispublic":1,"isfriend":0,"isfamily":0},{"id":"52633016879","owner":"34238008@N02","secret":"4af61e4aec","server":"65535","farm":66,"title":"Hermit Thrush (Catharus guttatus)","ispublic":1,"isfriend":0,"isfamily":0},{"id":"52629338867","owner":"85277889@N08","secret":"075d0c26c5","server":"65535","farm":66,"title":"Hermit Thrush (Catharus guttatus) 2023-01-01 (2)","ispublic":1,"isfriend":0,"isfamily":0},{"id":"52630295090","owner":"85277889@N08","secret":"04028b1a88","server":"65535","farm":66,"title":"Hermit Thrush (Catharus guttatus) 2023-01-01 (4)","ispublic":1,"isfriend":0,"isfamily":0},{"id":"52624033046","owner":"51928691@N04","secret":"feea29fa6a","server":"65535","farm":66,"title":"Hermit Thrush (Catharus guttatus( 1 122422","ispublic":1,"isfriend":0,"isfamily":0},{"id":"52624039380","owner":"90886369@N06","secret":"e0eb187f1b","server":"65535","farm":66,"title":"Hermit Thrush (Catharus guttatus)","ispublic":1,"isfriend":0,"isfamily":0},{"id":"52622162666","owner":"51928691@N04","secret":"846bf3153b","server":"65535","farm":66,"title":"Hermit Thrush (Catharus guttatus) 2 122322","ispublic":1,"isfriend":0,"isfamily":0},{"id":"52622644273","owner":"51928691@N04","secret":"977ae91628","server":"65535","farm":66,"title":"Hermit Thrush (Catharus guttatus) 3 122322","ispublic":1,"isfriend":0,"isfamily":0},{"id":"52617079477","owner":"140985130@N07","secret":"ddb6c81444","server":"65535","farm":66,"title":"Hermit Thrush","ispublic":1,"isfriend":0,"isfamily":0},{"id":"52617649044","owner":"47448228@N07","secret":"9765956cfb","server":"65535","farm":66,"title":"DSC_0222","ispublic":1,"isfriend":0,"isfamily":0},{"id":"52617815885","owner":"47448228@N07","secret":"25050f5beb","server":"65535","farm":66,"title":"DSC_0206","ispublic":1,"isfriend":0,"isfamily":0},{"id":"52617868628","owner":"47448228@N07","secret":"924f2a305a","server":"65535","farm":66,"title":"DSC_0207","ispublic":1,"isfriend":0,"isfamily":0},{"id":"52617648959","owner":"47448228@N07","secret":"40a1a05b22","server":"65535","farm":66,"title":"DSC_0211","ispublic":1,"isfriend":0,"isfamily":0},{"id":"52617815785","owner":"47448228@N07","secret":"20f8564eaf","server":"65535","farm":66,"title":"DSC_0212","ispublic":1,"isfriend":0,"isfamily":0},{"id":"52617815705","owner":"47448228@N07","secret":"0a06c421cb","server":"65535","farm":66,"title":"DSC_0214","ispublic":1,"isfriend":0,"isfamily":0},{"id":"52617380761","owner":"47448228@N07","secret":"a3fce0bb01","server":"65535","farm":66,"title":"DSC_0213","ispublic":1,"isfriend":0,"isfamily":0},{"id":"52617868443","owner":"47448228@N07","secret":"52ea9a6e83","server":"65535","farm":66,"title":"DSC_0217","ispublic":1,"isfriend":0,"isfamily":0},{"id":"52617868413","owner":"47448228@N07","secret":"ae261ed67f","server":"65535","farm":66,"title":"DSC_0219","ispublic":1,"isfriend":0,"isfamily":0},{"id":"52617380651","owner":"47448228@N07","secret":"469fd584fe","server":"65535","farm":66,"title":"DSC_0221","ispublic":1,"isfriend":0,"isfamily":0},{"id":"52617395609","owner":"150374485@N05","secret":"8d807a55f2","server":"65535","farm":66,"title":"Grive solitaire--Hermit Trush (Catharus guttatus)","ispublic":1,"isfriend":0,"isfamily":0},{"id":"52614791903","owner":"165841515@N03","secret":"3f7670d42d","server":"65535","farm":66,"title":"Grive solitaire \/ Hermit Trush \/ (Catharus guttatus)","ispublic":1,"isfriend":0,"isfamily":0},{"id":"52616696098","owner":"188352054@N08","secret":"a37224d282","server":"65535","farm":66,"title":"IMG_4472","ispublic":1,"isfriend":0,"isfamily":0}]},"stat":"ok"}