{"photos":{"page":1,"pages":329,"perpage":100,"total":32813,"photo":[{"id":"52723200329","owner":"12639178@N07","secret":"acca8195b2","server":"65535","farm":66,"title":"Silberm\u00f6we\/Steppenm\u00f6we\/Mittelmeerm\u00f6we (unbestimmt) (Larus argentatus\/cachin","ispublic":1,"isfriend":0,"isfamily":0},{"id":"52721494795","owner":"65345069@N02","secret":"5f077b0b0c","server":"65535","farm":66,"title":"European Herring Gull (Larus argentatus)","ispublic":1,"isfriend":0,"isfamily":0},{"id":"52719318687","owner":"149839633@N05","secret":"4784f59a55","server":"65535","farm":66,"title":"Gaivota-prateada (Larus argentatus)","ispublic":1,"isfriend":0,"isfamily":0},{"id":"52719248376","owner":"12639178@N07","secret":"010e1bb163","server":"65535","farm":66,"title":"Silberm\u00f6wen an Umschlaghafen-Pier","ispublic":1,"isfriend":0,"isfamily":0},{"id":"52718738188","owner":"141281588@N05","secret":"d85bb79765","server":"65535","farm":66,"title":"European herring gull on Fredsbron in Gothenburg","ispublic":1,"isfriend":0,"isfamily":0},{"id":"52718307690","owner":"67198109@N04","secret":"72c78b766a","server":"65535","farm":66,"title":"PIX_7490","ispublic":1,"isfriend":0,"isfamily":0},{"id":"52716743033","owner":"135315828@N06","secret":"b76b0d4523","server":"65535","farm":66,"title":"harlequin duck","ispublic":1,"isfriend":0,"isfamily":0},{"id":"52715050924","owner":"137249943@N07","secret":"f72baa5151","server":"65535","farm":66,"title":"European herring gull, Go\u00e9land argent\u00e9","ispublic":1,"isfriend":0,"isfamily":0},{"id":"52713457755","owner":"33252899@N00","secret":"0dd36a3767","server":"65535","farm":66,"title":"A juvenile Herring Gull - Larus argentatus - with a razor clam, flying above Findhorn beach","ispublic":1,"isfriend":0,"isfamily":0},{"id":"52712136837","owner":"16498755@N07","secret":"22b48810fa","server":"65535","farm":66,"title":"Herring Gull, Greenmeadow Community Farm, Greenmeadow, Cwmbran 26 February 2023","ispublic":1,"isfriend":0,"isfamily":0},{"id":"52712607235","owner":"44093058@N06","secret":"326a532ce0","server":"65535","farm":66,"title":"European herring gull, Larus argentatus, Gr\u00e5trut","ispublic":1,"isfriend":0,"isfamily":0},{"id":"52711667827","owner":"44093058@N06","secret":"3216a7f5e0","server":"65535","farm":66,"title":"European herring gull, Larus argentatus, Gr\u00e5trut","ispublic":1,"isfriend":0,"isfamily":0},{"id":"52708110522","owner":"197296737@N06","secret":"11bdaf701d","server":"65535","farm":66,"title":"Herring Gull","ispublic":1,"isfriend":0,"isfamily":0},{"id":"52709131528","owner":"143326780@N02","secret":"d151345b0b","server":"65535","farm":66,"title":"DSCN5488","ispublic":1,"isfriend":0,"isfamily":0},{"id":"52708901999","owner":"143326780@N02","secret":"3fc6af5fba","server":"65535","farm":66,"title":"DSCN5490","ispublic":1,"isfriend":0,"isfamily":0},{"id":"52709131008","owner":"143326780@N02","secret":"fee259bdee","server":"65535","farm":66,"title":"DSCN5494","ispublic":1,"isfriend":0,"isfamily":0},{"id":"52708220944","owner":"193259650@N02","secret":"f77fa3582e","server":"65535","farm":66,"title":"Herring Gull - Larus argentatus","ispublic":1,"isfriend":0,"isfamily":0},{"id":"52707256764","owner":"70325089@N05","secret":"a550c1b6d6","server":"65535","farm":66,"title":"In Flight","ispublic":1,"isfriend":0,"isfamily":0},{"id":"52705372127","owner":"193259650@N02","secret":"1f23369a73","server":"65535","farm":66,"title":"Herring Gull - Larus argentatus -immature","ispublic":1,"isfriend":0,"isfamily":0},{"id":"52705062324","owner":"29826595@N06","secret":"44a5ffb1f9","server":"65535","farm":66,"title":"If I stare at you long enough.....","ispublic":1,"isfriend":0,"isfamily":0},{"id":"52704450474","owner":"18217058@N04","secret":"288fb34e03","server":"65535","farm":66,"title":"Great cormorants \/ D\u00edlaskarfar (Phalacrocorax carbo), Great black-backed gulls \/ Svartbakar (Larus marinus) and a Herring gulls \/ Silfurm\u00e1far (Larus argentatus)","ispublic":1,"isfriend":0,"isfamily":0},{"id":"52702904926","owner":"80186184@N08","secret":"5ca1441d25","server":"65535","farm":66,"title":"Stick That In Your Pipe Fish","ispublic":1,"isfriend":0,"isfamily":0},{"id":"52702789834","owner":"42388593@N04","secret":"b3a7eab46e","server":"65535","farm":66,"title":"S\u00f8lvma\u030age, European herring gull, Silbermo\u0308we (Larus argentatus)-9982","ispublic":1,"isfriend":0,"isfamily":0},{"id":"52700505801","owner":"12639178@N07","secret":"8ac6f4489b","server":"65535","farm":66,"title":"Larus a. argentatus, Silberm\u00f6we,ad.","ispublic":1,"isfriend":0,"isfamily":0},{"id":"52697562102","owner":"46017193@N00","secret":"e195a88a95","server":"65535","farm":66,"title":"European herring gull (Larus argentatus)","ispublic":1,"isfriend":0,"isfamily":0},{"id":"52698337929","owner":"46017193@N00","secret":"ba20f5deb1","server":"65535","farm":66,"title":"European herring gull (Larus argentatus)","ispublic":1,"isfriend":0,"isfamily":0},{"id":"52698337894","owner":"46017193@N00","secret":"d98797daf3","server":"65535","farm":66,"title":"European herring gull (Larus argentatus)","ispublic":1,"isfriend":0,"isfamily":0},{"id":"52698337869","owner":"46017193@N00","secret":"37921b1681","server":"65535","farm":66,"title":"European herring gull (Larus argentatus)","ispublic":1,"isfriend":0,"isfamily":0},{"id":"52698337774","owner":"46017193@N00","secret":"04cece0f24","server":"65535","farm":66,"title":"European herring gull (Larus argentatus)","ispublic":1,"isfriend":0,"isfamily":0},{"id":"52698022961","owner":"150919437@N06","secret":"d537023302","server":"65535","farm":66,"title":"Herring Gull (Larus argentatus), Rome Point, North Kingstown, RI","ispublic":1,"isfriend":0,"isfamily":0},{"id":"52696336874","owner":"197745515@N06","secret":"10ac0eb637","server":"65535","farm":66,"title":"Larus argentatus","ispublic":1,"isfriend":0,"isfamily":0},{"id":"52696491235","owner":"197745515@N06","secret":"e8ea999100","server":"65535","farm":66,"title":"Larus argentatus","ispublic":1,"isfriend":0,"isfamily":0},{"id":"52696052111","owner":"197745515@N06","secret":"1ac5dc3e80","server":"65535","farm":66,"title":"Larus argentatus","ispublic":1,"isfriend":0,"isfamily":0},{"id":"52696402563","owner":"197745515@N06","secret":"d5a8e540d6","server":"65535","farm":66,"title":"Larus argentatus","ispublic":1,"isfriend":0,"isfamily":0},{"id":"52695836006","owner":"12639178@N07","secret":"fb28520605","server":"65535","farm":66,"title":"M\u00f6wen auf dem Schluchsee","ispublic":1,"isfriend":0,"isfamily":0},{"id":"52695265757","owner":"197745515@N06","secret":"4df08676fe","server":"65535","farm":66,"title":"Larus argentatus","ispublic":1,"isfriend":0,"isfamily":0},{"id":"52695901180","owner":"12639178@N07","secret":"79baf02d51","server":"65535","farm":66,"title":"Erfolgreich","ispublic":1,"isfriend":0,"isfamily":0},{"id":"52694739454","owner":"16498755@N07","secret":"72d1466c46","server":"65535","farm":66,"title":"Bedale Sheep & Friend, Greenforge Way, Greenmeadow, Cwmbran 17 February 2023","ispublic":1,"isfriend":0,"isfamily":0},{"id":"52693517416","owner":"128537732@N06","secret":"768a5980be","server":"65535","farm":66,"title":"Herring Gull (Larus argentatus)","ispublic":1,"isfriend":0,"isfamily":0},{"id":"52693755500","owner":"51312465@N07","secret":"c3eea164c8","server":"65535","farm":66,"title":"Herring Gull","ispublic":1,"isfriend":0,"isfamily":0},{"id":"52693292819","owner":"12639178@N07","secret":"2ba3d761b6","server":"65535","farm":66,"title":"Larus argentatus subsp. argentatus (2)","ispublic":1,"isfriend":0,"isfamily":0},{"id":"52693025576","owner":"12639178@N07","secret":"eb10d33346","server":"65535","farm":66,"title":"Larus argentatus, Silberm\u00f6we,ad., ssp.argentatus","ispublic":1,"isfriend":0,"isfamily":0},{"id":"52692555495","owner":"65345069@N02","secret":"f3ded26f91","server":"65535","farm":66,"title":"European Herring Gull (Larus argentatus)","ispublic":1,"isfriend":0,"isfamily":0},{"id":"52692555460","owner":"65345069@N02","secret":"f0f48d0fcd","server":"65535","farm":66,"title":"European Herring Gull (Larus argentatus)","ispublic":1,"isfriend":0,"isfamily":0},{"id":"52691178764","owner":"184501776@N07","secret":"6c49c52e94","server":"65535","farm":66,"title":"Viking Gull (Larus hyperboreus\/argentatus)","ispublic":1,"isfriend":0,"isfamily":0},{"id":"52690633720","owner":"187946018@N05","secret":"94aebb6269","server":"65535","farm":66,"title":"Go\u00e9land argent\u00e9","ispublic":1,"isfriend":0,"isfamily":0},{"id":"52689998016","owner":"71393709@N06","secret":"5d35bf9739","server":"65535","farm":66,"title":"Female Corvus corone (Carrion crow) sunning and preening  -  (Published online in the Greece edition of HUFF POST) & (Published by GETTY IMAGES)","ispublic":1,"isfriend":0,"isfamily":0},{"id":"52689493095","owner":"17192217@N00","secret":"54fcc43522","server":"65535","farm":66,"title":"European Herring Gull (2nd Winter) - Larus argentatus","ispublic":1,"isfriend":0,"isfamily":0},{"id":"52689066606","owner":"17192217@N00","secret":"f6d3d9dbb0","server":"65535","farm":66,"title":"European Herring Gull (1st Winter) - Larus argentatus","ispublic":1,"isfriend":0,"isfamily":0},{"id":"52689313043","owner":"186793662@N03","secret":"781db05176","server":"65535","farm":66,"title":"fotoselectie 70103","ispublic":1,"isfriend":0,"isfamily":0},{"id":"52689241510","owner":"186793662@N03","secret":"4709165ca5","server":"65535","farm":66,"title":"fotoselectie 70105","ispublic":1,"isfriend":0,"isfamily":0},{"id":"52688607291","owner":"53477149@N02","secret":"e692e6cfe3","server":"65535","farm":66,"title":"\"Hey, You're Not My Daddy!\"","ispublic":1,"isfriend":0,"isfamily":0},{"id":"52688307714","owner":"71393709@N06","secret":"0d375365ef","server":"65535","farm":66,"title":"The watering hole for Sheryl, a resident adult Carrion crow (Corvus corone)  -  (Published by GETTY IMAGES)","ispublic":1,"isfriend":0,"isfamily":0},{"id":"52687685473","owner":"36917655@N08","secret":"7873af199d","server":"65535","farm":66,"title":"Herring Gull","ispublic":1,"isfriend":0,"isfamily":0},{"id":"52687191046","owner":"36917655@N08","secret":"146576283b","server":"65535","farm":66,"title":"Herring Gull","ispublic":1,"isfriend":0,"isfamily":0},{"id":"52687190941","owner":"36917655@N08","secret":"02c8dd0037","server":"65535","farm":66,"title":"Herring Gull","ispublic":1,"isfriend":0,"isfamily":0},{"id":"52687614970","owner":"36917655@N08","secret":"435e820388","server":"65535","farm":66,"title":"Herring Gull","ispublic":1,"isfriend":0,"isfamily":0},{"id":"52686185066","owner":"65345069@N02","secret":"dd183c1cb3","server":"65535","farm":66,"title":"European Herring Gull {Larus argentatus}","ispublic":1,"isfriend":0,"isfamily":0},{"id":"52685217325","owner":"148978697@N06","secret":"b3fe7f199e","server":"65535","farm":66,"title":"Silberm\u00f6we (Larus argentatus) \/ Silver Gull (Larus argentatus)","ispublic":1,"isfriend":0,"isfamily":0},{"id":"52684944055","owner":"16498755@N07","secret":"da1ef5b1e5","server":"65535","farm":66,"title":"Herring Gull, Monmouthshire-Brecon Canal, Two Locks, Cwmbran 12 February 2023","ispublic":1,"isfriend":0,"isfamily":0},{"id":"52684105254","owner":"51912132@N03","secret":"562fa9423e","server":"65535","farm":66,"title":"Larus argentatus","ispublic":1,"isfriend":0,"isfamily":0},{"id":"52683823511","owner":"51912132@N03","secret":"09d9b27e7c","server":"65535","farm":66,"title":"Larus argentatus","ispublic":1,"isfriend":0,"isfamily":0},{"id":"52683306997","owner":"51912132@N03","secret":"5ab63c2cdd","server":"65535","farm":66,"title":"Larus argentatus","ispublic":1,"isfriend":0,"isfamily":0},{"id":"52684105174","owner":"51912132@N03","secret":"3cf8c91c2a","server":"65535","farm":66,"title":"Larus argentatus","ispublic":1,"isfriend":0,"isfamily":0},{"id":"52684248195","owner":"51912132@N03","secret":"e7d215ea53","server":"65535","farm":66,"title":"Larus argentatus","ispublic":1,"isfriend":0,"isfamily":0},{"id":"52683267067","owner":"7283893@N05","secret":"e96091551e","server":"65535","farm":66,"title":"\"... nur f\u00fcr mich!\" \/ \"... just for me!\"","ispublic":1,"isfriend":0,"isfamily":0},{"id":"52684273498","owner":"7283893@N05","secret":"1f263441e8","server":"65535","farm":66,"title":"\"Guck mal, die Krabbe ist ..,\" \/ \"Look, this crab is ...\"","ispublic":1,"isfriend":0,"isfamily":0},{"id":"52684098345","owner":"95795254@N02","secret":"2e6b6862be","server":"65535","farm":66,"title":"Herring Gull 720_0936.jpg","ispublic":1,"isfriend":0,"isfamily":0},{"id":"52682495638","owner":"195422039@N05","secret":"6fceb295c9","server":"65535","farm":66,"title":"Soaring leap","ispublic":1,"isfriend":0,"isfamily":0},{"id":"52682483913","owner":"187560275@N08","secret":"4301606ec1","server":"65535","farm":66,"title":"Go\u00e9land argent\u00e9--Larus argentatus - European Herring Gull","ispublic":1,"isfriend":0,"isfamily":0},{"id":"52682165949","owner":"63666974@N06","secret":"f5ece234d9","server":"65535","farm":66,"title":"Juvenile Heringg Gull - Larus argentatus","ispublic":1,"isfriend":0,"isfamily":0},{"id":"52681877186","owner":"65345069@N02","secret":"1784ff4806","server":"65535","farm":66,"title":"European Herring Gull {Larus argentatus}","ispublic":1,"isfriend":0,"isfamily":0},{"id":"52682306165","owner":"65345069@N02","secret":"c0ce6dca7a","server":"65535","farm":66,"title":"European Herring Gull {Larus argentatus}","ispublic":1,"isfriend":0,"isfamily":0},{"id":"52682306080","owner":"65345069@N02","secret":"a422aaf802","server":"65535","farm":66,"title":"European Herring Gull {Larus argentatus}","ispublic":1,"isfriend":0,"isfamily":0},{"id":"52681359062","owner":"65345069@N02","secret":"e5725e689b","server":"65535","farm":66,"title":"European Herring Gull {Larus argentatus}","ispublic":1,"isfriend":0,"isfamily":0},{"id":"52681359002","owner":"65345069@N02","secret":"85fbfea4af","server":"65535","farm":66,"title":"European Herring Gull {Larus argentatus}","ispublic":1,"isfriend":0,"isfamily":0},{"id":"52682375753","owner":"65345069@N02","secret":"0295a1a95c","server":"65535","farm":66,"title":"European Herring Gull {Larus argentatus}","ispublic":1,"isfriend":0,"isfamily":0},{"id":"52682375688","owner":"65345069@N02","secret":"6d71f043df","server":"65535","farm":66,"title":"European Herring Gull {Larus argentatus}","ispublic":1,"isfriend":0,"isfamily":0},{"id":"52681358847","owner":"65345069@N02","secret":"7fe0b5d197","server":"65535","farm":66,"title":"European Herring Gull {Larus argentatus}","ispublic":1,"isfriend":0,"isfamily":0},{"id":"52680749027","owner":"28631427@N00","secret":"f535fbed26","server":"65535","farm":66,"title":"Great Black-backed Gull","ispublic":1,"isfriend":0,"isfamily":0},{"id":"52681577858","owner":"12639178@N07","secret":"880b19f72d","server":"65535","farm":66,"title":"Silberm\u00f6we (Larus argentatus)","ispublic":1,"isfriend":0,"isfamily":0},{"id":"52681360674","owner":"12639178@N07","secret":"c449cef842","server":"65535","farm":66,"title":"Silberm\u00f6we (Larus argentatus)","ispublic":1,"isfriend":0,"isfamily":0},{"id":"52680969435","owner":"21584095@N00","secret":"3bce9577a5","server":"65535","farm":66,"title":"Herring Gull (Larus argentatus)","ispublic":1,"isfriend":0,"isfamily":0},{"id":"52679137084","owner":"23882583@N08","secret":"cb8754261e","server":"65535","farm":66,"title":"Juvenile Herring Gull","ispublic":1,"isfriend":0,"isfamily":0},{"id":"52678770948","owner":"23985726@N05","secret":"4d4fe0da44","server":"65535","farm":66,"title":"Larus argentatus","ispublic":1,"isfriend":0,"isfamily":0},{"id":"52678166554","owner":"12639178@N07","secret":"38a724ea93","server":"65535","farm":66,"title":"Silberm\u00f6we","ispublic":1,"isfriend":0,"isfamily":0},{"id":"52677765555","owner":"143326780@N02","secret":"f0139ab6b7","server":"65535","farm":66,"title":"DSCN3857_Moment(3)","ispublic":1,"isfriend":0,"isfamily":0},{"id":"52676819532","owner":"143326780@N02","secret":"53d5fdcbcd","server":"65535","farm":66,"title":"DSCN3857_Moment(4)","ispublic":1,"isfriend":0,"isfamily":0},{"id":"52676819327","owner":"143326780@N02","secret":"361d7241f7","server":"65535","farm":66,"title":"DSCN3857_Moment(5)","ispublic":1,"isfriend":0,"isfamily":0},{"id":"52677827188","owner":"143326780@N02","secret":"5fceedb212","server":"65535","farm":66,"title":"DSCN3857_Moment(6)","ispublic":1,"isfriend":0,"isfamily":0},{"id":"52677764880","owner":"143326780@N02","secret":"525c0f7484","server":"65535","farm":66,"title":"DSCN3857_Moment(7)","ispublic":1,"isfriend":0,"isfamily":0},{"id":"52677330726","owner":"143326780@N02","secret":"e0f27039c6","server":"65535","farm":66,"title":"DSCN3857_Moment","ispublic":1,"isfriend":0,"isfamily":0},{"id":"52712837641","owner":"123521075@N07","secret":"56c917b9e5","server":"65535","farm":66,"title":"Herring Gulls - Larus argentatus","ispublic":1,"isfriend":0,"isfamily":0},{"id":"52712792865","owner":"12639178@N07","secret":"69f32aa2ec","server":"65535","farm":66,"title":"Kurz nachdem die Eisfl\u00e4che nachgegeben hatte","ispublic":1,"isfriend":0,"isfamily":0},{"id":"52712636674","owner":"12639178@N07","secret":"b73e958e61","server":"65535","farm":66,"title":"vermutl. Mittelmeerm\u00f6we auf d\u00fcnn. Eis","ispublic":1,"isfriend":0,"isfamily":0},{"id":"52712374796","owner":"12639178@N07","secret":"061f2c7e0e","server":"65535","farm":66,"title":"vermutl. Mittelmeerm\u00f6we auf d\u00fcnn. Eis","ispublic":1,"isfriend":0,"isfamily":0},{"id":"52712300948","owner":"12639178@N07","secret":"b589cc8fd9","server":"65535","farm":66,"title":"Silverm\u00f6we de Koog 2023-02-20","ispublic":1,"isfriend":0,"isfamily":0},{"id":"52695911541","owner":"197745515@N06","secret":"9a66ab102e","server":"65535","farm":66,"title":"Larus argentatus","ispublic":1,"isfriend":0,"isfamily":0},{"id":"52682501420","owner":"34238008@N02","secret":"5125c4ab75","server":"65535","farm":66,"title":"Herring Gull (Larus argentatus)","ispublic":1,"isfriend":0,"isfamily":0},{"id":"52677827843","owner":"143326780@N02","secret":"af155f3740","server":"65535","farm":66,"title":"DSCN3857_Moment(2)","ispublic":1,"isfriend":0,"isfamily":0}]},"stat":"ok"}