{"photos":{"page":1,"pages":3,"perpage":100,"total":268,"photo":[{"id":"52633190136","owner":"54546220@N00","secret":"93259aeff9","server":"65535","farm":66,"title":"trogPapagayo o Trog\u00f3n de la Espa\u00f1ola, Cotorrita de Sierra, Piragua, Surucu\u00e1 dominicano, Kalson Wouj \/ Hispaniolan Trogon (Priotelus roseigaster )(Temnotrogon roseigaster)on-7503","ispublic":1,"isfriend":0,"isfamily":0},{"id":"52594336342","owner":"31694846@N02","secret":"5e6ebb632b","server":"65535","farm":66,"title":"Trogon de La Espa\u00f1ola (Priotelus roseigaster)","ispublic":1,"isfriend":0,"isfamily":0},{"id":"52595071229","owner":"31694846@N02","secret":"c86c23f7c0","server":"65535","farm":66,"title":"Trogon de La Espa\u00f1ola (Priotelus roseigaster)","ispublic":1,"isfriend":0,"isfamily":0},{"id":"52594317532","owner":"31694846@N02","secret":"68d27458be","server":"65535","farm":66,"title":"Trogon de La Espa\u00f1ola (Priotelus roseigaster)","ispublic":1,"isfriend":0,"isfamily":0},{"id":"52322673852","owner":"54546220@N00","secret":"4f262c3748","server":"65535","farm":66,"title":"Papagayo o trog\u00f3n de la Espa\u00f1ola (Priotelus roseigaster)","ispublic":1,"isfriend":0,"isfamily":0},{"id":"51773223439","owner":"33005514@N04","secret":"9c056b64be","server":"65535","farm":66,"title":"Papagallo \/ Hispabiolan Trogon \/  Priotelus roseigaster (Hembra \/ Female)","ispublic":1,"isfriend":0,"isfamily":0},{"id":"51771754547","owner":"33005514@N04","secret":"b451ae2868","server":"65535","farm":66,"title":"Papagallo \/ Hispabiolan Trogon \/  Priotelus roseigaster (Hembra \/ Female)","ispublic":1,"isfriend":0,"isfamily":0},{"id":"51773223404","owner":"33005514@N04","secret":"ec11885d37","server":"65535","farm":66,"title":"Papagallo \/ Hispabiolan Trogon \/  Priotelus roseigaster (Hembra \/ Female)","ispublic":1,"isfriend":0,"isfamily":0},{"id":"51629743336","owner":"54546220@N00","secret":"010036f345","server":"65535","farm":66,"title":"Papagayo o Trog\u00f3n de la Espa\u00f1ola, Cotorrita de Sierra, Piragua, Surucu\u00e1 dominicano, Kalson Wouj \/ Hispaniolan Trogon (Priotelus roseigaster )","ispublic":1,"isfriend":0,"isfamily":0},{"id":"51628916332","owner":"54546220@N00","secret":"ae86dc47d2","server":"65535","farm":66,"title":"Papagayo o Trog\u00f3n de la Espa\u00f1ola, Cotorrita de Sierra, Piragua, Surucu\u00e1 dominicano, Kalson Wouj \/ Hispaniolan Trogon (Priotelus roseigaster )","ispublic":1,"isfriend":0,"isfamily":0},{"id":"51494916585","owner":"42622112@N08","secret":"dfe7edd5aa","server":"65535","farm":66,"title":"Trogon de la Hispaniola (Priotelus roseigaster)","ispublic":1,"isfriend":0,"isfamily":0},{"id":"51461374115","owner":"42622112@N08","secret":"d835b54433","server":"65535","farm":66,"title":"Trogon de la Hispaniola (Priotelus roseigaster)","ispublic":1,"isfriend":0,"isfamily":0},{"id":"51163196656","owner":"54546220@N00","secret":"a204bdb1ab","server":"65535","farm":66,"title":"Trogon o Papagayo,  Hispaniolan Trogon (Priotelus roseigaster)\/ (Temnotrogon roseigaster)","ispublic":1,"isfriend":0,"isfamily":0},{"id":"51053154948","owner":"79153825@N08","secret":"f37d075b5e","server":"65535","farm":66,"title":"Papagayo hembra.(Priotelus roseigaster.) Hispaniolan trogon female.","ispublic":1,"isfriend":0,"isfamily":0},{"id":"51053964367","owner":"79153825@N08","secret":"c28ff2cdd1","server":"65535","farm":66,"title":"Papagayo hembra.(Priotelus roseigaster.) Hispaniolan trogon female.","ispublic":1,"isfriend":0,"isfamily":0},{"id":"51053882121","owner":"79153825@N08","secret":"8b3534a3bd","server":"65535","farm":66,"title":"Papagayo hembra.(Priotelus roseigaster.) Hispaniolan trogon female.","ispublic":1,"isfriend":0,"isfamily":0},{"id":"51053964122","owner":"79153825@N08","secret":"375fd2b072","server":"65535","farm":66,"title":"Papagayo hembra.(Priotelus roseigaster.) Hispaniolan trogon female.","ispublic":1,"isfriend":0,"isfamily":0},{"id":"51053945322","owner":"79153825@N08","secret":"483caf26b6","server":"65535","farm":66,"title":"Papagayo macho.(Priotelus roseigaster.) Hispaniolan trogon male.","ispublic":1,"isfriend":0,"isfamily":0},{"id":"51053135953","owner":"79153825@N08","secret":"f85fe0f379","server":"65535","farm":66,"title":"Papagayo macho.(Priotelus roseigaster.) Hispaniolan trogon male.","ispublic":1,"isfriend":0,"isfamily":0},{"id":"51053863811","owner":"79153825@N08","secret":"909f5217c7","server":"65535","farm":66,"title":"Papagayo macho.(Priotelus roseigaster.) Hispaniolan trogon male.","ispublic":1,"isfriend":0,"isfamily":0},{"id":"51053135523","owner":"79153825@N08","secret":"212747562b","server":"65535","farm":66,"title":"Papagayo macho.(Priotelus roseigaster.) Hispaniolan trogon male.","ispublic":1,"isfriend":0,"isfamily":0},{"id":"51053944527","owner":"79153825@N08","secret":"3dd46b8156","server":"65535","farm":66,"title":"Papagayo macho.(Priotelus roseigaster.) Hispaniolan trogon male.","ispublic":1,"isfriend":0,"isfamily":0},{"id":"51053135438","owner":"79153825@N08","secret":"b1246e254b","server":"65535","farm":66,"title":"Papagayo macho.(Priotelus roseigaster.) Hispaniolan trogon male.","ispublic":1,"isfriend":0,"isfamily":0},{"id":"51053863376","owner":"79153825@N08","secret":"daaf2f3704","server":"65535","farm":66,"title":"Papagayo macho.(Priotelus roseigaster.) Hispaniolan trogon male.","ispublic":1,"isfriend":0,"isfamily":0},{"id":"51053944367","owner":"79153825@N08","secret":"70822b217f","server":"65535","farm":66,"title":"Papagayo macho.(Priotelus roseigaster.) Hispaniolan trogon male.","ispublic":1,"isfriend":0,"isfamily":0},{"id":"51053944212","owner":"79153825@N08","secret":"91ce25de95","server":"65535","farm":66,"title":"Papagayo macho.(Priotelus roseigaster.) Hispaniolan trogon male.","ispublic":1,"isfriend":0,"isfamily":0},{"id":"50746861663","owner":"54546220@N00","secret":"9961417289","server":"65535","farm":66,"title":"Trogon o Papagayo,  Hispaniolan Trogon (Priotelus roseigaster)\/ (Temnotrogon roseigaster)","ispublic":1,"isfriend":0,"isfamily":0},{"id":"50076745096","owner":"31694846@N02","secret":"9958258fc0","server":"65535","farm":66,"title":"Papagayo, Trogon de La Espa\u00f1ola, Priotelus roseigaster","ispublic":1,"isfriend":0,"isfamily":0},{"id":"50076995667","owner":"31694846@N02","secret":"6906814312","server":"65535","farm":66,"title":"Papagayo, Trogon de La Espa\u00f1ola, Priotelus roseigaster","ispublic":1,"isfriend":0,"isfamily":0},{"id":"50076177503","owner":"31694846@N02","secret":"46bed164e2","server":"65535","farm":66,"title":"Papagayo, Trogon de La Espa\u00f1ola, Priotelus roseigaster","ispublic":1,"isfriend":0,"isfamily":0},{"id":"50076995037","owner":"31694846@N02","secret":"9870dcb9f3","server":"65535","farm":66,"title":"Papagayo, Trogon de La Espa\u00f1ola, Priotelus roseigaster","ispublic":1,"isfriend":0,"isfamily":0},{"id":"49558958718","owner":"54546220@N00","secret":"91fe36c83e","server":"65535","farm":66,"title":"Trog\u00f3n de la Espa\u00f1ola \/ Hispaniolan Trogon (Priotelus roseigaster )","ispublic":1,"isfriend":0,"isfamily":0},{"id":"49559451381","owner":"54546220@N00","secret":"e15b20abc0","server":"65535","farm":66,"title":"Trog\u00f3n de la Espa\u00f1ola \/ Hispaniolan Trogon (Priotelus roseigaster )","ispublic":1,"isfriend":0,"isfamily":0},{"id":"49559691862","owner":"54546220@N00","secret":"0e7d2a89dc","server":"65535","farm":66,"title":"Trog\u00f3n de la Espa\u00f1ola \/ Hispaniolan Trogon (Priotelus roseigaster )","ispublic":1,"isfriend":0,"isfamily":0},{"id":"49536379548","owner":"54546220@N00","secret":"6ba5e8fbd6","server":"65535","farm":66,"title":"Trog\u00f3n de la Espa\u00f1ola","ispublic":1,"isfriend":0,"isfamily":0},{"id":"49536873616","owner":"54546220@N00","secret":"f2d2efd885","server":"65535","farm":66,"title":"Trog\u00f3n de la Espa\u00f1ola","ispublic":1,"isfriend":0,"isfamily":0},{"id":"49536375473","owner":"54546220@N00","secret":"1d9c8a0fa9","server":"65535","farm":66,"title":"Trog\u00f3n de la Espa\u00f1ola","ispublic":1,"isfriend":0,"isfamily":0},{"id":"49536372623","owner":"54546220@N00","secret":"1c028560de","server":"65535","farm":66,"title":"Trog\u00f3n de la Espa\u00f1ola","ispublic":1,"isfriend":0,"isfamily":0},{"id":"49392368712","owner":"54249623@N08","secret":"7633776565","server":"65535","farm":66,"title":"Hispaniolan Trogon (Temnotrogon roseigaster) (Priotelus roseigaster)","ispublic":1,"isfriend":0,"isfamily":0},{"id":"49392368047","owner":"54249623@N08","secret":"4240e9b803","server":"65535","farm":66,"title":"Hispaniolan Trogon (Temnotrogon roseigaster) (Priotelus roseigaster)","ispublic":1,"isfriend":0,"isfamily":0},{"id":"49300463948","owner":"78250819@N07","secret":"39a4ac5850","server":"65535","farm":66,"title":"Trog\u00f3n de la Hispaniola -Priotelus roseigaster- Hispaniolan Trogon","ispublic":1,"isfriend":0,"isfamily":0},{"id":"49301158302","owner":"78250819@N07","secret":"2ce2b819e4","server":"65535","farm":66,"title":"Trog\u00f3n de la Hispaniola -Priotelus roseigaster- Hispaniolan Trogon","ispublic":1,"isfriend":0,"isfamily":0},{"id":"49300463683","owner":"78250819@N07","secret":"e560ec86e8","server":"65535","farm":66,"title":"Trog\u00f3n de la Hispaniola -Priotelus roseigaster- Hispaniolan Trogon","ispublic":1,"isfriend":0,"isfamily":0},{"id":"48755182217","owner":"131708321@N02","secret":"1a809dc0fe","server":"65535","farm":66,"title":"Hispaniolan Trogon (Priotelus roseigaster), Sierra de Bahoruco, Dominican Republic","ispublic":1,"isfriend":0,"isfamily":0},{"id":"48634894407","owner":"183419419@N02","secret":"a7e25689df","server":"65535","farm":66,"title":"68303355_2383106005101876_5085580778448879616_n","ispublic":1,"isfriend":0,"isfamily":0},{"id":"48357819132","owner":"12681463@N05","secret":"41c30f7c5a","server":"65535","farm":66,"title":"Trogon de la Espa\u00f1ola - Priotelus roseigaster","ispublic":1,"isfriend":0,"isfamily":0},{"id":"48096759602","owner":"129673089@N03","secret":"ed42cc9e6e","server":"65535","farm":66,"title":"Hispaniolan Trogon, Priotelus roseigaster","ispublic":1,"isfriend":0,"isfamily":0},{"id":"48095690923","owner":"31694846@N02","secret":"f13cee9ab3","server":"65535","farm":66,"title":"Papagayo, Trogon de La Espa\u00f1ola, Priotelus roseigaster","ispublic":1,"isfriend":0,"isfamily":0},{"id":"48040925186","owner":"31694846@N02","secret":"a2d60661f2","server":"65535","farm":66,"title":"Papagayo, Trogon de La Espa\u00f1ola, Priotelus roseigaster","ispublic":1,"isfriend":0,"isfamily":0},{"id":"47942830011","owner":"117479467@N03","secret":"b94d1396e4","server":"65535","farm":66,"title":"Trog\u00f3n de La Espa\u00f1ola","ispublic":1,"isfriend":0,"isfamily":0},{"id":"47925351337","owner":"117479467@N03","secret":"31c2e47bb8","server":"65535","farm":66,"title":"Trog\u00f3n de La Espa\u00f1ola (Priotelus roseigaster)","ispublic":1,"isfriend":0,"isfamily":0},{"id":"46978519395","owner":"31694846@N02","secret":"2282fe2bdd","server":"65535","farm":66,"title":"Papagayo, Trogon de La Espa\u00f1ola, Priotelus roseigaster","ispublic":1,"isfriend":0,"isfamily":0},{"id":"40928197653","owner":"31694846@N02","secret":"6b3c465dcd","server":"65535","farm":66,"title":"Papagayo, Trogon de La Espa\u00f1ola, Priotelus roseigaster","ispublic":1,"isfriend":0,"isfamily":0},{"id":"46978517925","owner":"31694846@N02","secret":"61ac47e39a","server":"65535","farm":66,"title":"Papagayo, Trogon de La Espa\u00f1ola, Priotelus roseigaster","ispublic":1,"isfriend":0,"isfamily":0},{"id":"40794357063","owner":"141218738@N03","secret":"1bb2f1403c","server":"65535","farm":66,"title":"Papagayo o Trogon de La Espa\u00f1ola (Priotelus roseigaster) Hispaniolan Trogon","ispublic":1,"isfriend":0,"isfamily":0},{"id":"40794355743","owner":"141218738@N03","secret":"f5dafc3d2f","server":"65535","farm":66,"title":"Papagayo o Trogon de La Espa\u00f1ola (Priotelus roseigaster) Hispaniolan Trogon","ispublic":1,"isfriend":0,"isfamily":0},{"id":"40673103463","owner":"31694846@N02","secret":"b703d1e517","server":"65535","farm":66,"title":"Papagayo, Trogon de La Espa\u00f1ola, Priotelus roseigaster","ispublic":1,"isfriend":0,"isfamily":0},{"id":"47586881282","owner":"31694846@N02","secret":"d9a4e66e52","server":"65535","farm":66,"title":"Papagayo, Trogon de La Espa\u00f1ola, Priotelus roseigaster","ispublic":1,"isfriend":0,"isfamily":0},{"id":"46692662145","owner":"54546220@N00","secret":"2357362858","server":"7811","farm":8,"title":"Trogon o Papagayo,  Hispaniolan Trogon (Priotelus roseigaster),","ispublic":1,"isfriend":0,"isfamily":0},{"id":"47367740662","owner":"78250819@N07","secret":"199a5c0499","server":"7855","farm":8,"title":"Trog\u00f3n o Papagayo- Priotelus roseigaster- Hispaniolan Trogon.","ispublic":1,"isfriend":0,"isfamily":0},{"id":"40454718153","owner":"78250819@N07","secret":"94973d1f3d","server":"7836","farm":8,"title":"Trog\u00f3n o Papagayo- Priotelus roseigaster- Hispaniolan Trogon.","ispublic":1,"isfriend":0,"isfamily":0},{"id":"32422367447","owner":"54546220@N00","secret":"724c199a14","server":"7848","farm":8,"title":"Trogon o Papagayo Hembra,  Female Hispaniolan Trogon (Priotelus roseigaster)","ispublic":1,"isfriend":0,"isfamily":0},{"id":"32400605097","owner":"54546220@N00","secret":"6618e6450f","server":"7921","farm":8,"title":"Trogon o Papagayo,  Hispaniolan Trogon (Priotelus roseigaster)","ispublic":1,"isfriend":0,"isfamily":0},{"id":"46434901324","owner":"141218738@N03","secret":"87b0dbebd1","server":"7880","farm":8,"title":"Papagayo o trogon de La Espa\u00f1ola (Priotelus roseigaster) Hispaniolan Trogon","ispublic":1,"isfriend":0,"isfamily":0},{"id":"47158356431","owner":"141218738@N03","secret":"952edcafd7","server":"7815","farm":8,"title":"Papagayo o trogon de La Espa\u00f1ola (Priotelus roseigaster) Hispaniolan Trogon","ispublic":1,"isfriend":0,"isfamily":0},{"id":"46413271174","owner":"78250819@N07","secret":"e79bbfe107","server":"7847","farm":8,"title":"Trog\u00f3n- Priotelus roseigaster- Hispaniolan Trogon","ispublic":1,"isfriend":0,"isfamily":0},{"id":"46222705925","owner":"78250819@N07","secret":"bc01082d5f","server":"7825","farm":8,"title":"Trog\u00f3n- Priotelus roseigaster- Hispaniolan Trogon","ispublic":1,"isfriend":0,"isfamily":0},{"id":"33261361098","owner":"78250819@N07","secret":"97dffa8020","server":"7836","farm":8,"title":"Trog\u00f3n- Priotelus roseigaster- Hispaniolan Trogon","ispublic":1,"isfriend":0,"isfamily":0},{"id":"46284643824","owner":"78250819@N07","secret":"4cba657ceb","server":"4892","farm":5,"title":"Trog\u00f3n- Priotelus roseigaster- Hispaniola Trogon","ispublic":1,"isfriend":0,"isfamily":0},{"id":"46094104575","owner":"78250819@N07","secret":"b6db4b0aaf","server":"4813","farm":5,"title":"Trog\u00f3n- Priotelus roseigaster- Hispaniolan Trogon","ispublic":1,"isfriend":0,"isfamily":0},{"id":"33124603368","owner":"31694846@N02","secret":"ee466167c8","server":"4847","farm":5,"title":"Trogon de La Espa\u00f1ola, Priotelus roseigaster","ispublic":1,"isfriend":0,"isfamily":0},{"id":"39975289863","owner":"78250819@N07","secret":"eed60a6913","server":"7853","farm":8,"title":"Trog\u00f3n- Priotelus roseigaster- Hispaniolan trogon","ispublic":1,"isfriend":0,"isfamily":0},{"id":"46754629521","owner":"31694846@N02","secret":"cc1d17dbb3","server":"7846","farm":8,"title":"Trogon de La Espa\u00f1ola (Priotelus roseigaster)","ispublic":1,"isfriend":0,"isfamily":0},{"id":"46620351892","owner":"141218738@N03","secret":"0fc99259c6","server":"4827","farm":5,"title":"Papagayo (Priotelus roseigaster) Hispaniolan Trogon","ispublic":1,"isfriend":0,"isfamily":0},{"id":"39707994083","owner":"141218738@N03","secret":"3ce35e4825","server":"7842","farm":8,"title":"Papagayo (Priotelus roseigaster) Hispaniolan Trogon","ispublic":1,"isfriend":0,"isfamily":0},{"id":"45947976954","owner":"141218738@N03","secret":"287b43279b","server":"4826","farm":5,"title":"Papagayo (Priotelus roseigaster) Hispaniolan Trogon","ispublic":1,"isfriend":0,"isfamily":0},{"id":"45947976244","owner":"141218738@N03","secret":"03d013d68f","server":"7832","farm":8,"title":"Papagayo (Priotelus roseigaster) Hispaniolan Trogon","ispublic":1,"isfriend":0,"isfamily":0},{"id":"42997933952","owner":"141218738@N03","secret":"bba6d619f6","server":"1801","farm":2,"title":"Papagayo (Priotelus roseigaster) Hispaniolan Trogon","ispublic":1,"isfriend":0,"isfamily":0},{"id":"41779303154","owner":"141218738@N03","secret":"e13fa0b42f","server":"1754","farm":2,"title":"Papagayo (Priotelus roseigaster) Hispaniolan Trogon","ispublic":1,"isfriend":0,"isfamily":0},{"id":"41779300404","owner":"141218738@N03","secret":"015d0a5a1c","server":"1745","farm":2,"title":"Papagayo (Priotelus roseigaster) Hispaniolan Trogon","ispublic":1,"isfriend":0,"isfamily":0},{"id":"42450031162","owner":"141218738@N03","secret":"f46b97008a","server":"1737","farm":2,"title":"Papagayo (Priotelus roseigaster) Hispaniolan Trogon","ispublic":1,"isfriend":0,"isfamily":0},{"id":"42450029512","owner":"141218738@N03","secret":"a8a11dc717","server":"877","farm":1,"title":"Papagayo (Priotelus roseigaster) Hispaniolan Trogon","ispublic":1,"isfriend":0,"isfamily":0},{"id":"40693758880","owner":"141218738@N03","secret":"042bab20d2","server":"889","farm":1,"title":"Papagayo (Priotelus roseigaster) Hispaniolan Trogon","ispublic":1,"isfriend":0,"isfamily":0},{"id":"41779294294","owner":"141218738@N03","secret":"87e6c26081","server":"1759","farm":2,"title":"Papagayo (Priotelus roseigaster) Hispaniolan Trogon","ispublic":1,"isfriend":0,"isfamily":0},{"id":"41779293054","owner":"141218738@N03","secret":"940f048537","server":"1759","farm":2,"title":"Papagayo (Priotelus roseigaster) Hispaniolan Trogon","ispublic":1,"isfriend":0,"isfamily":0},{"id":"41779291934","owner":"141218738@N03","secret":"ebc8508d36","server":"1733","farm":2,"title":"Papagayo (Priotelus roseigaster) Hispaniolan Trogon","ispublic":1,"isfriend":0,"isfamily":0},{"id":"41779285794","owner":"141218738@N03","secret":"a1725752d0","server":"889","farm":1,"title":"Papagayo (Priotelus roseigaster) Hispaniolan Trogon","ispublic":1,"isfriend":0,"isfamily":0},{"id":"40693743950","owner":"141218738@N03","secret":"aa5d471561","server":"893","farm":1,"title":"Papagayo (Priotelus roseigaster) Hispaniolan Trogon","ispublic":1,"isfriend":0,"isfamily":0},{"id":"41598909725","owner":"141218738@N03","secret":"24c273b099","server":"1753","farm":2,"title":"Papagayo (Priotelus roseigaster) Hispaniolan Trogon","ispublic":1,"isfriend":0,"isfamily":0},{"id":"27038020948","owner":"141218738@N03","secret":"bc1b4a31f7","server":"784","farm":1,"title":"Papagayo \/Kalson Wouj\/ Hispaniolan Trogon (Priotelus roseigaster)","ispublic":1,"isfriend":0,"isfamily":0},{"id":"39099106250","owner":"141218738@N03","secret":"2ac57aecb5","server":"805","farm":1,"title":"Papagayo \/Kalson Wouj\/ Hispaniolan Trogon (Priotelus roseigaster)","ispublic":1,"isfriend":0,"isfamily":0},{"id":"46434899154","owner":"141218738@N03","secret":"f4b29ccfde","server":"7917","farm":8,"title":"Papagayo o trogon de La Espa\u00f1ola (Priotelus roseigaster) Hispaniolan Trogon","ispublic":1,"isfriend":0,"isfamily":0},{"id":"32216538937","owner":"141218738@N03","secret":"b1ea50070f","server":"7902","farm":8,"title":"Papagayo o trogon de La Espa\u00f1ola (Priotelus roseigaster) Hispaniolan Trogon","ispublic":1,"isfriend":0,"isfamily":0},{"id":"47158359631","owner":"141218738@N03","secret":"a2cbb30e31","server":"7899","farm":8,"title":"Papagayo o trogon de La Espa\u00f1ola (Priotelus roseigaster) Hispaniolan Trogon","ispublic":1,"isfriend":0,"isfamily":0},{"id":"32216537977","owner":"141218738@N03","secret":"0bdcdda60a","server":"7815","farm":8,"title":"Papagayo o trogon de La Espa\u00f1ola (Priotelus roseigaster) Hispaniolan Trogon","ispublic":1,"isfriend":0,"isfamily":0},{"id":"32216537087","owner":"141218738@N03","secret":"5f5505f7a5","server":"7912","farm":8,"title":"Papagayo o trogon de La Espa\u00f1ola (Priotelus roseigaster) Hispaniolan Trogon","ispublic":1,"isfriend":0,"isfamily":0},{"id":"43047814271","owner":"141218738@N03","secret":"341b467f6c","server":"836","farm":1,"title":"Papagayo (Priotelus roseigaster) Hispaniolan Trogon","ispublic":1,"isfriend":0,"isfamily":0},{"id":"43047810781","owner":"141218738@N03","secret":"10a3ea0b44","server":"1761","farm":2,"title":"Papagayo (Priotelus roseigaster) Hispaniolan Trogon","ispublic":1,"isfriend":0,"isfamily":0},{"id":"43047802121","owner":"141218738@N03","secret":"f1ff59d308","server":"1829","farm":2,"title":"Papagayo (Priotelus roseigaster) Hispaniolan Trogon","ispublic":1,"isfriend":0,"isfamily":0},{"id":"43047791381","owner":"141218738@N03","secret":"6e6415b264","server":"1784","farm":2,"title":"Papagayo (Priotelus roseigaster) Hispaniolan Trogon","ispublic":1,"isfriend":0,"isfamily":0}]},"stat":"ok"}