{"photos":{"page":1,"pages":58,"perpage":100,"total":5701,"photo":[{"id":"52722167730","owner":"188156748@N07","secret":"9b35f58735","server":"65535","farm":66,"title":"Snow Bunting - Plectrophane des neiges - Plectrophenax nivalis +  Horned Lark - Alouette hausse-col - Eremophila alpestris 5320 (2)-SharpenAI-Standard copy.jpgS.jpg","ispublic":1,"isfriend":0,"isfamily":0},{"id":"52719935047","owner":"168495655@N07","secret":"ce4d2e24b0","server":"65535","farm":66,"title":"Alouette hausse-col - Eremophila alpestris - Horned Lark","ispublic":1,"isfriend":0,"isfamily":0},{"id":"52717960961","owner":"130140749@N05","secret":"b4471718c3","server":"65535","farm":66,"title":"Horned lark  (Eremophila alpestris)","ispublic":1,"isfriend":0,"isfamily":0},{"id":"52716740043","owner":"135315828@N06","secret":"d04dc6f8f5","server":"65535","farm":66,"title":"horned lark","ispublic":1,"isfriend":0,"isfamily":0},{"id":"52714810366","owner":"188156748@N07","secret":"d2d959bfe1","server":"65535","farm":66,"title":"Horned Lark - Alouette hausse-col - Eremophila alpestris   5230 (40)-SharpenAI-Standard copy.jpgS","ispublic":1,"isfriend":0,"isfamily":0},{"id":"52715283573","owner":"188156748@N07","secret":"0b94dece74","server":"65535","farm":66,"title":"Horned Lark - Alouette hausse-col - Eremophila alpestris   5230 (42)-SharpenAI-Standard copy.jpgS","ispublic":1,"isfriend":0,"isfamily":0},{"id":"52714810336","owner":"188156748@N07","secret":"cc46c3f20b","server":"65535","farm":66,"title":"Horned Lark - Alouette hausse-col - Eremophila alpestris   5230 (48)-SharpenAI-Standard copy.jpgS","ispublic":1,"isfriend":0,"isfamily":0},{"id":"52715068784","owner":"188156748@N07","secret":"717346ea7f","server":"65535","farm":66,"title":"Horned Lark - Alouette hausse-col - Eremophila alpestris   5230 (51)-SharpenAI-Standard copy.jpgS","ispublic":1,"isfriend":0,"isfamily":0},{"id":"52715231520","owner":"188156748@N07","secret":"c3f4b2bc4c","server":"65535","farm":66,"title":"Horned Lark - Alouette hausse-col - Eremophila alpestris   5230 (49)-SharpenAI-Standard copy.jpgS","ispublic":1,"isfriend":0,"isfamily":0},{"id":"52715283558","owner":"188156748@N07","secret":"c3ceb66d01","server":"65535","farm":66,"title":"Horned Lark - Alouette hausse-col - Eremophila alpestris   5230 (52)-SharpenAI-Standard-SharpenAI-Standard copy.jpgS","ispublic":1,"isfriend":0,"isfamily":0},{"id":"52715068744","owner":"188156748@N07","secret":"e12e8d0bdd","server":"65535","farm":66,"title":"Horned Lark - Alouette hausse-col - Eremophila alpestris   5230 (56)-SharpenAI-Standard copy.jpgS","ispublic":1,"isfriend":0,"isfamily":0},{"id":"52715283508","owner":"188156748@N07","secret":"15939b9c08","server":"65535","farm":66,"title":"Horned Lark - Alouette hausse-col - Eremophila alpestris  5230 (6)-SharpenAI-Standard copy.jpgS","ispublic":1,"isfriend":0,"isfamily":0},{"id":"52715068704","owner":"188156748@N07","secret":"383fe603d2","server":"65535","farm":66,"title":"Horned Lark - Alouette hausse-col - Eremophila alpestris  5230 (17)-SharpenAI-Standard copy.jpgS","ispublic":1,"isfriend":0,"isfamily":0},{"id":"52714826599","owner":"168495655@N07","secret":"fc088f3ee3","server":"65535","farm":66,"title":"Alouette hausse-col - Eremophila alpestris - Horned Lark","ispublic":1,"isfriend":0,"isfamily":0},{"id":"52714144798","owner":"85391626@N07","secret":"f6f58ea5d8","server":"65535","farm":66,"title":"Horned Lark fluffing the feathers","ispublic":1,"isfriend":0,"isfamily":0},{"id":"52713624529","owner":"128208742@N06","secret":"b288237598","server":"65535","farm":66,"title":"Horned Lark (explored)","ispublic":1,"isfriend":0,"isfamily":0},{"id":"52712609931","owner":"89367133@N00","secret":"3b6e873fb4","server":"65535","farm":66,"title":"Alouette hausse-col (Eremophila alpestris).","ispublic":1,"isfriend":0,"isfamily":0},{"id":"52710599202","owner":"85391626@N07","secret":"6fb2c29dd5","server":"65535","farm":66,"title":"Horned Lark","ispublic":1,"isfriend":0,"isfamily":0},{"id":"52711124889","owner":"21606110@N08","secret":"d1b0570b62","server":"65535","farm":66,"title":"Shorelark","ispublic":1,"isfriend":0,"isfamily":0},{"id":"52710865026","owner":"21606110@N08","secret":"044b9c6507","server":"65535","farm":66,"title":"Shorelark","ispublic":1,"isfriend":0,"isfamily":0},{"id":"52708067794","owner":"58519338@N08","secret":"85aef48424","server":"65535","farm":66,"title":"Shore Lark - Eremophila alpestris","ispublic":1,"isfriend":0,"isfamily":0},{"id":"52708226985","owner":"58519338@N08","secret":"ba39284c98","server":"65535","farm":66,"title":"Shore Lark - Eremophila alpestris","ispublic":1,"isfriend":0,"isfamily":0},{"id":"52707815296","owner":"58519338@N08","secret":"2b74073d48","server":"65535","farm":66,"title":"Shore Lark - Eremophila alpestris","ispublic":1,"isfriend":0,"isfamily":0},{"id":"52706010140","owner":"33610210@N05","secret":"179b44b59d","server":"65535","farm":66,"title":"Horned Lark, Eremophila alpestris","ispublic":1,"isfriend":0,"isfamily":0},{"id":"52706010085","owner":"33610210@N05","secret":"1473eb22c4","server":"65535","farm":66,"title":"Horned Lark, Eremophila alpestris","ispublic":1,"isfriend":0,"isfamily":0},{"id":"52705849769","owner":"33610210@N05","secret":"499f416c02","server":"65535","farm":66,"title":"Horned Lark, Eremophila alpestris","ispublic":1,"isfriend":0,"isfamily":0},{"id":"52705597501","owner":"33610210@N05","secret":"c0ed4227ae","server":"65535","farm":66,"title":"Horned Lark, Eremophila alpestris","ispublic":1,"isfriend":0,"isfamily":0},{"id":"52706010000","owner":"33610210@N05","secret":"341a795bf3","server":"65535","farm":66,"title":"Horned Lark, Eremophila alpestris","ispublic":1,"isfriend":0,"isfamily":0},{"id":"52705072117","owner":"33610210@N05","secret":"7e46b0795b","server":"65535","farm":66,"title":"Horned Lark, Eremophila alpestris","ispublic":1,"isfriend":0,"isfamily":0},{"id":"52702293801","owner":"188156748@N07","secret":"11ee8bc5c2","server":"65535","farm":66,"title":"Horned Lark - Alouette hausse-col - Eremophila alpestris 4832 (6)-SharpenAI-Standard copy.jpgS","ispublic":1,"isfriend":0,"isfamily":0},{"id":"52702709785","owner":"188156748@N07","secret":"7b5127df81","server":"65535","farm":66,"title":"Horned Lark - Alouette hausse-col - Eremophila alpestris 4832 (3)-SharpenAI-Standard copy.jpgS","ispublic":1,"isfriend":0,"isfamily":0},{"id":"52701773027","owner":"188156748@N07","secret":"11c5147435","server":"65535","farm":66,"title":"Horned Lark - Alouette hausse-col - Eremophila alpestris 4832 (17)-SharpenAI-Standard copy.jpgS","ispublic":1,"isfriend":0,"isfamily":0},{"id":"52701773012","owner":"188156748@N07","secret":"e2cee33d19","server":"65535","farm":66,"title":"Horned Lark - Alouette hausse-col - Eremophila alpestris 4832 (18)-SharpenAI-Standard copy.jpgS","ispublic":1,"isfriend":0,"isfamily":0},{"id":"52702293726","owner":"188156748@N07","secret":"2fec3220e1","server":"65535","farm":66,"title":"Horned Lark - Alouette hausse-col - Eremophila alpestris 4832 (19)-SharpenAI-Standard copy.jpgS","ispublic":1,"isfriend":0,"isfamily":0},{"id":"52702548374","owner":"188156748@N07","secret":"d865cf504f","server":"65535","farm":66,"title":"Horned Lark - Alouette hausse-col - Eremophila alpestris 4832 (20)-SharpenAI-Standard copy.jpgS","ispublic":1,"isfriend":0,"isfamily":0},{"id":"52702709675","owner":"188156748@N07","secret":"8a643ae089","server":"65535","farm":66,"title":"Horned Lark - Alouette hausse-col - Eremophila alpestris 4832 (23)-SharpenAI-Standard copy.jpgS","ispublic":1,"isfriend":0,"isfamily":0},{"id":"52702548364","owner":"188156748@N07","secret":"7819999bbc","server":"65535","farm":66,"title":"Horned Lark - Alouette hausse-col - Eremophila alpestris 4832 (22)-SharpenAI-Standard copy.jpgS","ispublic":1,"isfriend":0,"isfamily":0},{"id":"52702548324","owner":"188156748@N07","secret":"bf6275b8f1","server":"65535","farm":66,"title":"Horned Lark - Alouette hausse-col - Eremophila alpestris 4832 (24)-SharpenAI-Standard copy.jpgS","ispublic":1,"isfriend":0,"isfamily":0},{"id":"52702548339","owner":"188156748@N07","secret":"e0c8cc1487","server":"65535","farm":66,"title":"Horned Lark - Alouette hausse-col - Eremophila alpestris 4832 (1)-SharpenAI-Standard copy.jpgS","ispublic":1,"isfriend":0,"isfamily":0},{"id":"52702455953","owner":"58519338@N08","secret":"3d15a4af1d","server":"65535","farm":66,"title":"Shore Lark - Eremophila alpestris","ispublic":1,"isfriend":0,"isfamily":0},{"id":"52700720940","owner":"188156748@N07","secret":"716ef5407b","server":"65535","farm":66,"title":"Snow Buntings - Plectrophane des neiges - Plectrophenax nivalis +Horned Lark - Alouette hausse-col - Eremophila alpestris  4885 (17)-SharpenAI-Standard copy.jpgS","ispublic":1,"isfriend":0,"isfamily":0},{"id":"52700793258","owner":"188156748@N07","secret":"3760a83dc7","server":"65535","farm":66,"title":"Snow Buntings - Plectrophane des neiges - Plectrophenax nivalis + Horned Lark - Alouette hausse-col - Eremophila alpestris 4885 (16)-SharpenAI-Standard copy.jpgS","ispublic":1,"isfriend":0,"isfamily":0},{"id":"52700793198","owner":"188156748@N07","secret":"4ef152d7e5","server":"65535","farm":66,"title":"Snow Buntings - Plectrophane des neiges - Plectrophenax nivalis + Horned Lark - Alouette hausse-col - Eremophila alpestris 4885 (18)-SharpenAI-Standard copy.jpgS","ispublic":1,"isfriend":0,"isfamily":0},{"id":"52698086344","owner":"168495655@N07","secret":"f952d83c7a","server":"65535","farm":66,"title":"Alouette hausse-col - Eremophila alpestris - Horned Lark","ispublic":1,"isfriend":0,"isfamily":0},{"id":"52698238695","owner":"168495655@N07","secret":"1d6b1fec40","server":"65535","farm":66,"title":"Alouette hausse-col - Eremophila alpestris - Horned Lark","ispublic":1,"isfriend":0,"isfamily":0},{"id":"52697440225","owner":"17654080@N08","secret":"c6372463c4","server":"65535","farm":66,"title":"Horned Lark (Eremophila alpestris)","ispublic":1,"isfriend":0,"isfamily":0},{"id":"52697509473","owner":"17654080@N08","secret":"fc3d9f6cdc","server":"65535","farm":66,"title":"Horned Lark (Eremophila alpestris)","ispublic":1,"isfriend":0,"isfamily":0},{"id":"52696824624","owner":"188156748@N07","secret":"e6ec27ebf6","server":"65535","farm":66,"title":"Horned Lark - Alouette hausse-col - Eremophila alpestris 4719 (6)-SharpenAI-Standard copy.jpgS","ispublic":1,"isfriend":0,"isfamily":0},{"id":"52696980590","owner":"188156748@N07","secret":"0e69d48cc5","server":"65535","farm":66,"title":"Horned Lark - Alouette hausse-col - Eremophila alpestris 4719 (8)-SharpenAI-Standard copy.jpgS","ispublic":1,"isfriend":0,"isfamily":0},{"id":"52696561351","owner":"188156748@N07","secret":"7b7d26376d","server":"65535","farm":66,"title":"Horned Lark - Alouette hausse-col - Eremophila alpestris 4719 (15)-SharpenAI-Standard copy.jpgS","ispublic":1,"isfriend":0,"isfamily":0},{"id":"52696980580","owner":"188156748@N07","secret":"201f0f8037","server":"65535","farm":66,"title":"Horned Lark - Alouette hausse-col - Eremophila alpestris 4719 (10)-SharpenAI-Standard copy.jpgS","ispublic":1,"isfriend":0,"isfamily":0},{"id":"52696980595","owner":"188156748@N07","secret":"443085e666","server":"65535","farm":66,"title":"Horned Lark - Alouette hausse-col - Eremophila alpestris 4719 (18)-SharpenAI-Standard copy.jpgS","ispublic":1,"isfriend":0,"isfamily":0},{"id":"52696561306","owner":"188156748@N07","secret":"749a18221d","server":"65535","farm":66,"title":"Horned Lark - Alouette hausse-col - Eremophila alpestris 4719 (19)-SharpenAI-Standard copy.jpgS","ispublic":1,"isfriend":0,"isfamily":0},{"id":"52696824539","owner":"188156748@N07","secret":"b0238c141e","server":"65535","farm":66,"title":"Horned Lark - Alouette hausse-col - Eremophila alpestris 4719 (12)-SharpenAI-Standard copy.jpgS","ispublic":1,"isfriend":0,"isfamily":0},{"id":"52696047157","owner":"188156748@N07","secret":"706699f41e","server":"65535","farm":66,"title":"Horned Lark - Alouette hausse-col - Eremophila alpestris 4746 (2)-SharpenAI-Standard copy.jpgS","ispublic":1,"isfriend":0,"isfamily":0},{"id":"52696824524","owner":"188156748@N07","secret":"6e1e8d93f8","server":"65535","farm":66,"title":"Horned Lark - Alouette hausse-col - Eremophila alpestris 4746 (3)-SharpenAI-Standard copy.jpgS","ispublic":1,"isfriend":0,"isfamily":0},{"id":"52693974772","owner":"39177293@N03","secret":"401dbe04f6","server":"65535","farm":66,"title":"Horned Lark","ispublic":1,"isfriend":0,"isfamily":0},{"id":"52693516699","owner":"168495655@N07","secret":"61c8384437","server":"65535","farm":66,"title":"Alouette hausse-col - Eremophila alpestris - Horned Lark","ispublic":1,"isfriend":0,"isfamily":0},{"id":"52692113668","owner":"33610210@N05","secret":"02d3a20e3e","server":"65535","farm":66,"title":"Horned Lark, Eremophila alpestris","ispublic":1,"isfriend":0,"isfamily":0},{"id":"52684771697","owner":"85391626@N07","secret":"5d3fa93fc3","server":"65535","farm":66,"title":"Horned Lark","ispublic":1,"isfriend":0,"isfamily":0},{"id":"52685260683","owner":"136620261@N06","secret":"fa419f1763","server":"65535","farm":66,"title":"Alouette hausse-col, Eremophila alpestris, Horned Lark-4159-Edit.jpg","ispublic":1,"isfriend":0,"isfamily":0},{"id":"52685031388","owner":"144217344@N03","secret":"dc72afeb1b","server":"65535","farm":66,"title":"Gisela_Nagel-Fl-1913-Ohrenlerche","ispublic":1,"isfriend":0,"isfamily":0},{"id":"52682742027","owner":"61241315@N00","secret":"efc0f4b6ba","server":"0","farm":0,"title":"Female Horned Lark_7763.MP4","ispublic":1,"isfriend":0,"isfamily":0},{"id":"52683684560","owner":"61241315@N00","secret":"de469fd3b7","server":"0","farm":0,"title":"Female Horned Lark_7766,71.MP4","ispublic":1,"isfriend":0,"isfamily":0},{"id":"52682742042","owner":"61241315@N00","secret":"f65ebb3d3c","server":"65535","farm":66,"title":"Female Horned Lark_N7759","ispublic":1,"isfriend":0,"isfamily":0},{"id":"52683257941","owner":"61241315@N00","secret":"c06b40192c","server":"65535","farm":66,"title":"Female Horned Lark_N7765","ispublic":1,"isfriend":0,"isfamily":0},{"id":"52682927221","owner":"60361833@N03","secret":"71fc16dd4a","server":"65535","farm":66,"title":"Horned Lark_1","ispublic":1,"isfriend":0,"isfamily":0},{"id":"52683195259","owner":"12238915@N06","secret":"d6d91bc396","server":"65535","farm":66,"title":"Ground Forager","ispublic":1,"isfriend":0,"isfamily":0},{"id":"52682643744","owner":"85391626@N07","secret":"c31b49bc4a","server":"65535","farm":66,"title":"Horned Lark","ispublic":1,"isfriend":0,"isfamily":0},{"id":"52682708583","owner":"197628215@N07","secret":"f8c29dd476","server":"65535","farm":66,"title":"Horned Lark (Eremophila alpestris) 01\/29\/2023 #hornedlark #lark #bestbackroad #bestbackroads #natgeoyourshots #natgeo100contest #rutlandcountyvermont #rutlandcountyvt #washingtoncountynewyork #washingtoncountyny #whitehallnewyork #wildphotography #naturep","ispublic":1,"isfriend":0,"isfamily":0},{"id":"52681010529","owner":"32599741@N03","secret":"81c9cf1525","server":"65535","farm":66,"title":"lark profile","ispublic":1,"isfriend":0,"isfamily":0},{"id":"52678898121","owner":"47533293@N04","secret":"4c915973c7","server":"65535","farm":66,"title":"Horned lark, Eremophila alpestris","ispublic":1,"isfriend":0,"isfamily":0},{"id":"52678277959","owner":"7640100@N02","secret":"8fa5558fa0","server":"65535","farm":66,"title":"Alouette hausse-col \/ Horned Lark [Eremophila alpestris]","ispublic":1,"isfriend":0,"isfamily":0},{"id":"52673416681","owner":"12639178@N07","secret":"df10da08d0","server":"65535","farm":66,"title":"Austernfischer","ispublic":1,"isfriend":0,"isfamily":0},{"id":"52671772238","owner":"139237357@N06","secret":"1bc5a3acaa","server":"65535","farm":66,"title":"Horned Lark","ispublic":1,"isfriend":0,"isfamily":0},{"id":"52670754647","owner":"7261670@N03","secret":"40a801d267","server":"65535","farm":66,"title":"Horned Lark","ispublic":1,"isfriend":0,"isfamily":0},{"id":"52669729909","owner":"74418101@N02","secret":"83bc7d0fe9","server":"65535","farm":66,"title":"Horned Lark (Eremophila alpestris)","ispublic":1,"isfriend":0,"isfamily":0},{"id":"52669729634","owner":"74418101@N02","secret":"146f85fcc0","server":"65535","farm":66,"title":"Horned Lark (Eremophila alpestris)","ispublic":1,"isfriend":0,"isfamily":0},{"id":"52669441931","owner":"74418101@N02","secret":"590f0df415","server":"65535","farm":66,"title":"Horned Lark (Eremophila alpestris)","ispublic":1,"isfriend":0,"isfamily":0},{"id":"52666381896","owner":"91064752@N03","secret":"96fd791703","server":"65535","farm":66,"title":"Horned Lark in the Snow","ispublic":1,"isfriend":0,"isfamily":0},{"id":"52666586168","owner":"12639178@N07","secret":"b8348bfe22","server":"65535","farm":66,"title":"Anflug","ispublic":1,"isfriend":0,"isfamily":0},{"id":"52665587322","owner":"12639178@N07","secret":"6edd404c3f","server":"65535","farm":66,"title":"sie macht sich ganz flach","ispublic":1,"isfriend":0,"isfamily":0},{"id":"52665911603","owner":"119468907@N03","secret":"39b2e1c1a9","server":"65535","farm":66,"title":"Alouette hause-col_R5DJ4469","ispublic":1,"isfriend":0,"isfamily":0},{"id":"52664910877","owner":"119468907@N03","secret":"6383a8dac0","server":"65535","farm":66,"title":"Alouette hause-col_R5DJ4473","ispublic":1,"isfriend":0,"isfamily":0},{"id":"52665410551","owner":"119468907@N03","secret":"8ca1aa3b4a","server":"65535","farm":66,"title":"Alouette hausse-col_R5DJ3611","ispublic":1,"isfriend":0,"isfamily":0},{"id":"52657542490","owner":"12240837@N08","secret":"50fd916a14","server":"65535","farm":66,"title":"Shore Lark (eremophila alpestris)","ispublic":1,"isfriend":0,"isfamily":0},{"id":"52655735278","owner":"49246330@N00","secret":"392fdabd2c","server":"65535","farm":66,"title":"Horned Lark","ispublic":1,"isfriend":0,"isfamily":0},{"id":"52655690420","owner":"49246330@N00","secret":"26ae0ba5e0","server":"65535","farm":66,"title":"Horned Lark","ispublic":1,"isfriend":0,"isfamily":0},{"id":"52655735218","owner":"49246330@N00","secret":"715e3cc02a","server":"65535","farm":66,"title":"Horned Lark","ispublic":1,"isfriend":0,"isfamily":0},{"id":"52651916757","owner":"152461355@N03","secret":"08c29d3851","server":"65535","farm":66,"title":"Shore Lark (Eremophila alpestris ssp. flava)","ispublic":1,"isfriend":0,"isfamily":0},{"id":"52651202176","owner":"119468907@N03","secret":"8a7b6365d2","server":"65535","farm":66,"title":"Alouette hausse-col_R5DJ3440","ispublic":1,"isfriend":0,"isfamily":0},{"id":"52651202116","owner":"119468907@N03","secret":"66f6486b7c","server":"65535","farm":66,"title":"Alouette hausse-col_R5DJ3449","ispublic":1,"isfriend":0,"isfamily":0},{"id":"52651289058","owner":"119468907@N03","secret":"91a90b0c56","server":"65535","farm":66,"title":"Alouette hausse-col_R5DJ3431","ispublic":1,"isfriend":0,"isfamily":0},{"id":"52649634223","owner":"84169650@N07","secret":"9d74ff03c0","server":"65535","farm":66,"title":"Horned Lark","ispublic":1,"isfriend":0,"isfamily":0},{"id":"52647225172","owner":"103722035@N06","secret":"092d44cacf","server":"0","farm":0,"title":"Horned Lark (Eremophila alpestris), Shandon, CA","ispublic":1,"isfriend":0,"isfamily":0},{"id":"52647741714","owner":"128537732@N06","secret":"ed93074373","server":"65535","farm":66,"title":"Horned Lark (Eremophila alpestris)","ispublic":1,"isfriend":0,"isfamily":0},{"id":"52646973912","owner":"128537732@N06","secret":"9ce1643ded","server":"65535","farm":66,"title":"Horned Lark (Eremophila alpestris)","ispublic":1,"isfriend":0,"isfamily":0},{"id":"52673916068","owner":"12639178@N07","secret":"abc9d442a3","server":"65535","farm":66,"title":"Ohrenlerche","ispublic":1,"isfriend":0,"isfamily":0},{"id":"52665587477","owner":"12639178@N07","secret":"1e1867f23a","server":"65535","farm":66,"title":"Nahrungssuche in den Salzwiesen","ispublic":1,"isfriend":0,"isfamily":0},{"id":"52666377379","owner":"12639178@N07","secret":"0a26177a44","server":"65535","farm":66,"title":"Ohrenlerchen","ispublic":1,"isfriend":0,"isfamily":0}]},"stat":"ok"}