{"photos":{"page":1,"pages":395,"perpage":100,"total":39491,"photo":[{"id":"52724518943","owner":"12639178@N07","secret":"b5a578f57e","server":"65535","farm":66,"title":"M\u00e4nnlicher Haussperling","ispublic":1,"isfriend":0,"isfamily":0},{"id":"52723497971","owner":"66875475@N08","secret":"b75c652de3","server":"65535","farm":66,"title":"Moineau domestique - Passer domesticus - House sparrow","ispublic":1,"isfriend":0,"isfamily":0},{"id":"52723400731","owner":"12639178@N07","secret":"a230617f03","server":"65535","farm":66,"title":"beim Nestbau","ispublic":1,"isfriend":0,"isfamily":0},{"id":"52723806870","owner":"12639178@N07","secret":"91a57e1ff0","server":"65535","farm":66,"title":"Haussperling (Passer domesticus) (1)","ispublic":1,"isfriend":0,"isfamily":0},{"id":"52723832003","owner":"147799774@N04","secret":"7dc8341b8e","server":"65535","farm":66,"title":"Pardal (-de-telhado)","ispublic":1,"isfriend":0,"isfamily":0},{"id":"52723118376","owner":"12639178@N07","secret":"0083317211","server":"65535","farm":66,"title":"Haussperling","ispublic":1,"isfriend":0,"isfamily":0},{"id":"52722490202","owner":"53696790@N06","secret":"e720904aba","server":"65535","farm":66,"title":"Haussperlinge - house sparrows   (Passer domesticus)    _DSC9880d23u","ispublic":1,"isfriend":0,"isfamily":0},{"id":"52723224218","owner":"12639178@N07","secret":"8578d415a7","server":"65535","farm":66,"title":"Vorder-. Seiten- und R\u00fcckenansicht","ispublic":1,"isfriend":0,"isfamily":0},{"id":"52722935315","owner":"12639178@N07","secret":"089e2de169","server":"65535","farm":66,"title":"Spatzen an Vogelfutterstelle im Gro\u00df. Garten DD","ispublic":1,"isfriend":0,"isfamily":0},{"id":"52722313290","owner":"12639178@N07","secret":"88d7612ef8","server":"65535","farm":66,"title":"Haussperling Weibchen","ispublic":1,"isfriend":0,"isfamily":0},{"id":"52722162314","owner":"12639178@N07","secret":"eb79395f16","server":"65535","farm":66,"title":"Hausperling M\u00e4nnchen","ispublic":1,"isfriend":0,"isfamily":0},{"id":"52721232967","owner":"188156748@N07","secret":"5efb6272dd","server":"65535","farm":66,"title":"House Sparrow (M) - Moineaux Domestique (M) - Passer domesticus 3787 (4)-SharpenAI-Standard copy.jpgS","ispublic":1,"isfriend":0,"isfamily":0},{"id":"52719279627","owner":"12639178@N07","secret":"2ff30f28cc","server":"65535","farm":66,"title":"Haussperling (Passer domesticus) (1)","ispublic":1,"isfriend":0,"isfamily":0},{"id":"52717540167","owner":"12639178@N07","secret":"b376197b50","server":"65535","farm":66,"title":"Hausspatz, weibl.","ispublic":1,"isfriend":0,"isfamily":0},{"id":"52717900324","owner":"12639178@N07","secret":"e1316da8fe","server":"65535","farm":66,"title":"auch f\u00fcr die Damen","ispublic":1,"isfriend":0,"isfamily":0},{"id":"52717113847","owner":"12639178@N07","secret":"4b62048df7","server":"65535","farm":66,"title":"Ausguck auf dem Busch","ispublic":1,"isfriend":0,"isfamily":0},{"id":"52717946878","owner":"88330064@N07","secret":"296a903d02","server":"65535","farm":66,"title":"Huismus - Passer domesticus. Woudsend","ispublic":1,"isfriend":0,"isfamily":0},{"id":"52717723824","owner":"88330064@N07","secret":"c8bd6dfaae","server":"65535","farm":66,"title":"Huismus - Passer domesticus. Woudsend","ispublic":1,"isfriend":0,"isfamily":0},{"id":"52717889860","owner":"88330064@N07","secret":"78b6de77e7","server":"65535","farm":66,"title":"Huismus - Passer domesticus. Woudsend","ispublic":1,"isfriend":0,"isfamily":0},{"id":"52716720308","owner":"108755156@N05","secret":"e6e0d9103e","server":"65535","farm":66,"title":"Sparra In The Mist","ispublic":1,"isfriend":0,"isfamily":0},{"id":"52716137629","owner":"12639178@N07","secret":"04d8267fe6","server":"65535","farm":66,"title":"Haussperling (Passer domesticus)","ispublic":1,"isfriend":0,"isfamily":0},{"id":"52715880146","owner":"12639178@N07","secret":"782e158787","server":"65535","farm":66,"title":"Haussperling (Passer domesticus)","ispublic":1,"isfriend":0,"isfamily":0},{"id":"52715358957","owner":"12639178@N07","secret":"5a1d6e8abe","server":"65535","farm":66,"title":"aber er legte die Nuss (?) nieder und nahm sie wieder auf Haussperling (Pas","ispublic":1,"isfriend":0,"isfamily":0},{"id":"52715332949","owner":"12639178@N07","secret":"4f1936b836","server":"65535","farm":66,"title":"Durstiger Haussperling","ispublic":1,"isfriend":0,"isfamily":0},{"id":"52714440587","owner":"123926271@N05","secret":"24e8211812","server":"65535","farm":66,"title":"Gorrio\u0301n comu\u0301n-","ispublic":1,"isfriend":0,"isfamily":0},{"id":"52714777941","owner":"133301922@N04","secret":"e314e01909","server":"65535","farm":66,"title":"Male  House Sparrow. Passer domesticus","ispublic":1,"isfriend":0,"isfamily":0},{"id":"52715150210","owner":"125741467@N05","secret":"eedb79a8ff","server":"65535","farm":66,"title":"House sparrow","ispublic":1,"isfriend":0,"isfamily":0},{"id":"52714808029","owner":"45640758@N08","secret":"afe8a7a213","server":"65535","farm":66,"title":"Sparrow (Passer domesticus)","ispublic":1,"isfriend":0,"isfamily":0},{"id":"52714665819","owner":"12639178@N07","secret":"cd7b8b7095","server":"65535","farm":66,"title":"Haussperling (Passer domesticus) (1)","ispublic":1,"isfriend":0,"isfamily":0},{"id":"52710768824","owner":"12639178@N07","secret":"aab0105eef","server":"65535","farm":66,"title":"Haussperling - Schweiz","ispublic":1,"isfriend":0,"isfamily":0},{"id":"52710987953","owner":"12639178@N07","secret":"dc6fca7b7e","server":"65535","farm":66,"title":"Haussperling - Schweiz","ispublic":1,"isfriend":0,"isfamily":0},{"id":"52710800680","owner":"85987121@N00","secret":"22712a05fd","server":"65535","farm":66,"title":"Male House Sparrow","ispublic":1,"isfriend":0,"isfamily":0},{"id":"52709525972","owner":"80186184@N08","secret":"2901e46d17","server":"65535","farm":66,"title":"The Spug","ispublic":1,"isfriend":0,"isfamily":0},{"id":"52709962076","owner":"158940298@N08","secret":"281ffa8068","server":"65535","farm":66,"title":"House sparrow","ispublic":1,"isfriend":0,"isfamily":0},{"id":"52708780215","owner":"62907378@N07","secret":"eb0c94ce6a","server":"65535","farm":66,"title":"House Sparrow - (Passer domesticus)","ispublic":1,"isfriend":0,"isfamily":0},{"id":"52706307566","owner":"19901746@N00","secret":"0225965723","server":"65535","farm":66,"title":"huismus \/ house sparrow","ispublic":1,"isfriend":0,"isfamily":0},{"id":"52706163278","owner":"12639178@N07","secret":"c8b51d6dcc","server":"65535","farm":66,"title":"Hausspatz (Passer domesticus)","ispublic":1,"isfriend":0,"isfamily":0},{"id":"52705924924","owner":"12639178@N07","secret":"7b1031433a","server":"65535","farm":66,"title":"Hausspatz (Passer domesticus)","ispublic":1,"isfriend":0,"isfamily":0},{"id":"52706085820","owner":"12639178@N07","secret":"68f8306105","server":"65535","farm":66,"title":"Hausspatz (Passer domesticus)","ispublic":1,"isfriend":0,"isfamily":0},{"id":"52705450664","owner":"147580042@N02","secret":"110dbb38a1","server":"65535","farm":66,"title":"DSC06977_N - Madagascar Pardal-do-Telhado (Hibrido)","ispublic":1,"isfriend":0,"isfamily":0},{"id":"52705615925","owner":"147580042@N02","secret":"b50db3ef30","server":"65535","farm":66,"title":"DSC07003_N - Madagascar Pardal-do-Telhado (Hibrido)","ispublic":1,"isfriend":0,"isfamily":0},{"id":"52705450614","owner":"147580042@N02","secret":"05df5b6574","server":"65535","farm":66,"title":"DSC07174_N - Madagascar Pardal-do-Telhado","ispublic":1,"isfriend":0,"isfamily":0},{"id":"52703698267","owner":"187000556@N05","secret":"4e06468c90","server":"65535","farm":66,"title":"Peque\u00f1o gorri\u00f3n. (Passer domesticus)","ispublic":1,"isfriend":0,"isfamily":0},{"id":"52704670863","owner":"12639178@N07","secret":"a4deb5ba81","server":"65535","farm":66,"title":"Haussperling","ispublic":1,"isfriend":0,"isfamily":0},{"id":"52703500242","owner":"12639178@N07","secret":"5fd1b42dc6","server":"65535","farm":66,"title":"Da kiekste, wat?","ispublic":1,"isfriend":0,"isfamily":0},{"id":"52700655343","owner":"44710823@N07","secret":"4891170613","server":"65535","farm":66,"title":"Passer domesticus & House Sparrow","ispublic":1,"isfriend":0,"isfamily":0},{"id":"52700618748","owner":"125741467@N05","secret":"02b0264e39","server":"65535","farm":66,"title":"House sparrow","ispublic":1,"isfriend":0,"isfamily":0},{"id":"52700255514","owner":"83427488@N02","secret":"2175e9e84b","server":"65535","farm":66,"title":"Gorri\u00f3n com\u00fan (macho) \/ House sparrow (male) (Passer domesticus)","ispublic":1,"isfriend":0,"isfamily":0},{"id":"52700478978","owner":"65345069@N02","secret":"25499c2fda","server":"65535","farm":66,"title":"House Sparrow (Passer domesticus)","ispublic":1,"isfriend":0,"isfamily":0},{"id":"52699466432","owner":"65345069@N02","secret":"78bfda42c1","server":"65535","farm":66,"title":"House Sparrow (Passer domesticus)","ispublic":1,"isfriend":0,"isfamily":0},{"id":"52700245309","owner":"65345069@N02","secret":"f22dbc01a9","server":"65535","farm":66,"title":"House Sparrow (Passer domesticus)","ispublic":1,"isfriend":0,"isfamily":0},{"id":"52700245229","owner":"65345069@N02","secret":"11877f2768","server":"65535","farm":66,"title":"House Sparrow (Passer domesticus)","ispublic":1,"isfriend":0,"isfamily":0},{"id":"52700245114","owner":"65345069@N02","secret":"6dae7e69af","server":"65535","farm":66,"title":"House Sparrow (Passer domesticus)","ispublic":1,"isfriend":0,"isfamily":0},{"id":"52699983881","owner":"65345069@N02","secret":"c15e67630a","server":"65535","farm":66,"title":"House Sparrow (Passer domesticus)","ispublic":1,"isfriend":0,"isfamily":0},{"id":"52700338703","owner":"197745515@N06","secret":"8312490155","server":"65535","farm":66,"title":"Passer domesticus","ispublic":1,"isfriend":0,"isfamily":0},{"id":"52700286333","owner":"12639178@N07","secret":"623dfbf2d2","server":"65535","farm":66,"title":"Freudentanz","ispublic":1,"isfriend":0,"isfamily":0},{"id":"52699554636","owner":"12639178@N07","secret":"d77d0502e6","server":"65535","farm":66,"title":"Spatzen im Regen...","ispublic":1,"isfriend":0,"isfamily":0},{"id":"52699078250","owner":"14888671@N02","secret":"b567d3d4d3","server":"65535","farm":66,"title":"House Sparrow  - female","ispublic":1,"isfriend":0,"isfamily":0},{"id":"52697837772","owner":"84521904@N05","secret":"a20cc8be8b","server":"65535","farm":66,"title":"Haussperling, abends im Schlosspark Charlottenburg","ispublic":1,"isfriend":0,"isfamily":0},{"id":"52698297231","owner":"12639178@N07","secret":"02f6b45c76","server":"65535","farm":66,"title":"Heckenspatzen","ispublic":1,"isfriend":0,"isfamily":0},{"id":"52697678564","owner":"126576470@N07","secret":"e77995e465","server":"65535","farm":66,"title":"Haussperling (Passer domesticus) P1210775","ispublic":1,"isfriend":0,"isfamily":0},{"id":"52696681875","owner":"126576470@N07","secret":"f91457830b","server":"65535","farm":66,"title":"Haussperling (Passer domesticus) P1210756","ispublic":1,"isfriend":0,"isfamily":0},{"id":"52696239036","owner":"195235238@N06","secret":"97d3e72703","server":"65535","farm":66,"title":"Um passarinho...","ispublic":1,"isfriend":0,"isfamily":0},{"id":"52695365317","owner":"193186800@N07","secret":"af67e39f2e","server":"65535","farm":66,"title":"Passer domesticus Linnaeus, 1758","ispublic":1,"isfriend":0,"isfamily":0},{"id":"52696128969","owner":"193186800@N07","secret":"f56f946569","server":"65535","farm":66,"title":"Passer domesticus Linnaeus, 1758","ispublic":1,"isfriend":0,"isfamily":0},{"id":"52696052775","owner":"60030427@N07","secret":"d8d3d3a8f2","server":"65535","farm":66,"title":"Passer domesticus","ispublic":1,"isfriend":0,"isfamily":0},{"id":"52696041783","owner":"126576470@N07","secret":"c0b085801f","server":"65535","farm":66,"title":"Haussperling (Passer domesticus) P1210755","ispublic":1,"isfriend":0,"isfamily":0},{"id":"52694545003","owner":"7660999@N05","secret":"af2696aa55","server":"65535","farm":66,"title":"Female House sparrow (Passer domesticus)","ispublic":1,"isfriend":0,"isfamily":0},{"id":"52693399182","owner":"8103700@N04","secret":"d7c34965cd","server":"65535","farm":66,"title":"Pardal-comum","ispublic":1,"isfriend":0,"isfamily":0},{"id":"52694204713","owner":"126576470@N07","secret":"44ae52759e","server":"65535","farm":66,"title":"Haussperling (Passer domesticus) P1210748","ispublic":1,"isfriend":0,"isfamily":0},{"id":"52693596023","owner":"84151258@N00","secret":"7388b22aff","server":"65535","farm":66,"title":"House Sparrow\/Gealbhan binne (Passer domesticus)","ispublic":1,"isfriend":0,"isfamily":0},{"id":"52693268095","owner":"44904157@N04","secret":"42ef990e43","server":"65535","farm":66,"title":"The Odd Couple","ispublic":1,"isfriend":0,"isfamily":0},{"id":"52692361940","owner":"12639178@N07","secret":"518d97741f","server":"65535","farm":66,"title":"Haussperling (Passer domesticus), M\u00e4nnchen","ispublic":1,"isfriend":0,"isfamily":0},{"id":"52691911733","owner":"187245476@N05","secret":"28b04fdfa8","server":"65535","farm":66,"title":"HOUSE SPARROW male (Passer domesticus)","ispublic":1,"isfriend":0,"isfamily":0},{"id":"52691421421","owner":"187245476@N05","secret":"8a6b612c4d","server":"65535","farm":66,"title":"HOUSE SPARROW female (Passer domesticus)","ispublic":1,"isfriend":0,"isfamily":0},{"id":"52691693865","owner":"12639178@N07","secret":"124f7f9ea3","server":"65535","farm":66,"title":"Spatzen","ispublic":1,"isfriend":0,"isfamily":0},{"id":"52690923971","owner":"147016234@N03","secret":"47bb393898","server":"65535","farm":66,"title":"Male House sparrow (Passer domesticus)","ispublic":1,"isfriend":0,"isfamily":0},{"id":"52690916211","owner":"126576470@N07","secret":"00c28aedb6","server":"65535","farm":66,"title":"Haussperling (Passer domesticus) P1210735","ispublic":1,"isfriend":0,"isfamily":0},{"id":"52691223738","owner":"126576470@N07","secret":"59629e8c8b","server":"65535","farm":66,"title":"Haussperling (Passer domesticus) P1210728","ispublic":1,"isfriend":0,"isfamily":0},{"id":"52690517154","owner":"12639178@N07","secret":"d9cabdedcd","server":"65535","farm":66,"title":"Haussperling (Passer domesticus), M\u00e4nnchen","ispublic":1,"isfriend":0,"isfamily":0},{"id":"52690248676","owner":"12639178@N07","secret":"4bdb914a46","server":"65535","farm":66,"title":"Haussperling (Passer domesticus), M\u00e4nnchen","ispublic":1,"isfriend":0,"isfamily":0},{"id":"52690516819","owner":"12639178@N07","secret":"76a1079d1f","server":"65535","farm":66,"title":"Haussperling (Passer domesticus), M\u00e4nnchen","ispublic":1,"isfriend":0,"isfamily":0},{"id":"52689362626","owner":"11725219@N05","secret":"2da22bf3f3","server":"65535","farm":66,"title":"House sparrow-10","ispublic":1,"isfriend":0,"isfamily":0},{"id":"52689730235","owner":"43566843@N07","secret":"ef73c975b1","server":"65535","farm":66,"title":"Maurizio le moineau (Passer domesticus)","ispublic":1,"isfriend":0,"isfamily":0},{"id":"52688353033","owner":"48014585@N00","secret":"2bde0e3d0c","server":"65535","farm":66,"title":"House Sparrow","ispublic":1,"isfriend":0,"isfamily":0},{"id":"52713171938","owner":"12639178@N07","secret":"6d24d8f093","server":"65535","farm":66,"title":"Haussperling","ispublic":1,"isfriend":0,"isfamily":0},{"id":"52712174842","owner":"12639178@N07","secret":"ede8bf1a8a","server":"65535","farm":66,"title":"Haussperling","ispublic":1,"isfriend":0,"isfamily":0},{"id":"52712827245","owner":"12639178@N07","secret":"ce394d781a","server":"65535","farm":66,"title":"Haussperling (Passer domesticus) (2)","ispublic":1,"isfriend":0,"isfamily":0},{"id":"52711889397","owner":"12639178@N07","secret":"8ff55569de","server":"65535","farm":66,"title":"Haussperling w, kalt ist es","ispublic":1,"isfriend":0,"isfamily":0},{"id":"52712818715","owner":"12639178@N07","secret":"b8f324a2d5","server":"65535","farm":66,"title":"Haussperling Paar","ispublic":1,"isfriend":0,"isfamily":0},{"id":"52709863086","owner":"12639178@N07","secret":"19058e5649","server":"65535","farm":66,"title":"In luftiger H\u00f6he","ispublic":1,"isfriend":0,"isfamily":0},{"id":"52708268453","owner":"12639178@N07","secret":"1168c88240","server":"65535","farm":66,"title":"Tableau mit Spatzen","ispublic":1,"isfriend":0,"isfamily":0},{"id":"52699009728","owner":"12639178@N07","secret":"5cb384097a","server":"65535","farm":66,"title":"Haussperling","ispublic":1,"isfriend":0,"isfamily":0},{"id":"52696563714","owner":"12639178@N07","secret":"150a23b53d","server":"65535","farm":66,"title":"Haussperling (Passer domesticus), M\u00e4nnchen","ispublic":1,"isfriend":0,"isfamily":0},{"id":"52696718525","owner":"12639178@N07","secret":"39e7483dbc","server":"65535","farm":66,"title":"Haussperling (Passer domesticus), M\u00e4nnchen","ispublic":1,"isfriend":0,"isfamily":0},{"id":"52695965470","owner":"12639178@N07","secret":"cfc9d879bd","server":"65535","farm":66,"title":"Spatzen-Dame","ispublic":1,"isfriend":0,"isfamily":0},{"id":"52692436838","owner":"12639178@N07","secret":"179a59ca09","server":"65535","farm":66,"title":"Haussperling (Passer domesticus), Weibchen","ispublic":1,"isfriend":0,"isfamily":0},{"id":"52692436608","owner":"12639178@N07","secret":"576e381cae","server":"65535","farm":66,"title":"Haussperling (Passer domesticus), M\u00e4nnchen","ispublic":1,"isfriend":0,"isfamily":0},{"id":"52691946346","owner":"12639178@N07","secret":"e1fd0473fd","server":"65535","farm":66,"title":"Haussperling (Passer domesticus), M\u00e4nnchen","ispublic":1,"isfriend":0,"isfamily":0},{"id":"52691341105","owner":"147016234@N03","secret":"0c88223ec1","server":"65535","farm":66,"title":"Male House sparrow (Passer domesticus)","ispublic":1,"isfriend":0,"isfamily":0}]},"stat":"ok"}