{"photos":{"page":1,"pages":80,"perpage":100,"total":7976,"photo":[{"id":"52722650392","owner":"16447555@N02","secret":"1346df0f32","server":"65535","farm":66,"title":"Cassin's and House Finch_IMG_0501_edited-1","ispublic":1,"isfriend":0,"isfamily":0},{"id":"52722208761","owner":"143326780@N02","secret":"06e6eb375b","server":"65535","farm":66,"title":"DSCN5601","ispublic":1,"isfriend":0,"isfamily":0},{"id":"52722465689","owner":"143326780@N02","secret":"ab3e525031","server":"65535","farm":66,"title":"DSCN5604","ispublic":1,"isfriend":0,"isfamily":0},{"id":"52722615930","owner":"143326780@N02","secret":"c466393c2a","server":"65535","farm":66,"title":"DSCN5610","ispublic":1,"isfriend":0,"isfamily":0},{"id":"52722687833","owner":"143326780@N02","secret":"53f9b42a14","server":"65535","farm":66,"title":"DSCN5771","ispublic":1,"isfriend":0,"isfamily":0},{"id":"52722687778","owner":"143326780@N02","secret":"97917987a6","server":"65535","farm":66,"title":"DSCN5777","ispublic":1,"isfriend":0,"isfamily":0},{"id":"52722615785","owner":"143326780@N02","secret":"20c427d53b","server":"65535","farm":66,"title":"DSCN5758","ispublic":1,"isfriend":0,"isfamily":0},{"id":"52722615580","owner":"143326780@N02","secret":"61585593ec","server":"65535","farm":66,"title":"DSCN5765","ispublic":1,"isfriend":0,"isfamily":0},{"id":"52722615475","owner":"143326780@N02","secret":"57f3e38632","server":"65535","farm":66,"title":"DSCN5767","ispublic":1,"isfriend":0,"isfamily":0},{"id":"52721883150","owner":"69002026@N02","secret":"92b31a0cb4","server":"65535","farm":66,"title":"House Finch (Haemorhous mexicanus)","ispublic":1,"isfriend":0,"isfamily":0},{"id":"52721883105","owner":"69002026@N02","secret":"6b8f3fd4ca","server":"65535","farm":66,"title":"House Finch (Haemorhous mexicanus)","ispublic":1,"isfriend":0,"isfamily":0},{"id":"52721365631","owner":"34238008@N02","secret":"ff6582c8e2","server":"65535","farm":66,"title":"House Finch (Haemorhous mexicanus)","ispublic":1,"isfriend":0,"isfamily":0},{"id":"52720134132","owner":"160542269@N02","secret":"95e00550a1","server":"65535","farm":66,"title":"haemorhous mexicanus","ispublic":1,"isfriend":0,"isfamily":0},{"id":"52721044280","owner":"11187987@N00","secret":"4f4fb87ed5","server":"65535","farm":66,"title":"Handsome male House Finch: A frequent visitor (+1)","ispublic":1,"isfriend":0,"isfamily":0},{"id":"52717975777","owner":"65148649@N04","secret":"1a5d13b13f","server":"65535","farm":66,"title":"American Goldfinches and a House Finch 02.18.23 Anderson","ispublic":1,"isfriend":0,"isfamily":0},{"id":"52718299921","owner":"98675522@N06","secret":"4c1cf0aa31","server":"65535","farm":66,"title":"Taste","ispublic":1,"isfriend":0,"isfamily":0},{"id":"52716637798","owner":"26520320@N03","secret":"24e1f66b16","server":"65535","farm":66,"title":"_BAP0589","ispublic":1,"isfriend":0,"isfamily":0},{"id":"52716414209","owner":"26520320@N03","secret":"64912aea48","server":"65535","farm":66,"title":"_BAP0586","ispublic":1,"isfriend":0,"isfamily":0},{"id":"52716407794","owner":"26520320@N03","secret":"e6441ccc74","server":"65535","farm":66,"title":"_BAP0523","ispublic":1,"isfriend":0,"isfamily":0},{"id":"52712612726","owner":"81058247@N08","secret":"3aed6ee87a","server":"65535","farm":66,"title":"House Finch (Haemorhous mexicanus)","ispublic":1,"isfriend":0,"isfamily":0},{"id":"52713522698","owner":"44904157@N04","secret":"29e97c212e","server":"65535","farm":66,"title":"Looking For Lunch","ispublic":1,"isfriend":0,"isfamily":0},{"id":"52712306296","owner":"34238008@N02","secret":"c740203d78","server":"65535","farm":66,"title":"House Finch (Haemorhous mexicanus)","ispublic":1,"isfriend":0,"isfamily":0},{"id":"52711038822","owner":"33610210@N05","secret":"e446b89d8b","server":"65535","farm":66,"title":"House Finch, Haemorhous mexicanus","ispublic":1,"isfriend":0,"isfamily":0},{"id":"52711860180","owner":"144980256@N07","secret":"e99d07ff69","server":"65535","farm":66,"title":"House Finch (Haemorhous mexicanus)","ispublic":1,"isfriend":0,"isfamily":0},{"id":"52710995103","owner":"44904157@N04","secret":"abc462702b","server":"65535","farm":66,"title":"House Finch","ispublic":1,"isfriend":0,"isfamily":0},{"id":"52709545969","owner":"142605906@N06","secret":"553fb35864","server":"65535","farm":66,"title":"Backlit Male House Finch","ispublic":1,"isfriend":0,"isfamily":0},{"id":"52707664992","owner":"29562174@N00","secret":"c2efe1685b","server":"65535","farm":66,"title":"House Finch and Junco","ispublic":1,"isfriend":0,"isfamily":0},{"id":"52706454785","owner":"165841515@N03","secret":"927ab369aa","server":"65535","farm":66,"title":"Roselin familier \/ House finch \/ (Haemorhous mexicanus)","ispublic":1,"isfriend":0,"isfamily":0},{"id":"52706532403","owner":"165841515@N03","secret":"e828237254","server":"65535","farm":66,"title":"Roselin familier \/ House finch \/ (Haemorhous mexicanus)","ispublic":1,"isfriend":0,"isfamily":0},{"id":"52706292594","owner":"165841515@N03","secret":"9ae162f755","server":"65535","farm":66,"title":"Roselin familier \/ House finch \/ (Haemorhous mexicanus)","ispublic":1,"isfriend":0,"isfamily":0},{"id":"52706453945","owner":"165841515@N03","secret":"767ca5bcec","server":"65535","farm":66,"title":"Roselin familier \/ House finch \/ (Haemorhous mexicanus)","ispublic":1,"isfriend":0,"isfamily":0},{"id":"52706031100","owner":"33610210@N05","secret":"a07384a4c5","server":"65535","farm":66,"title":"House Finch, Haemorhous mexicanus","ispublic":1,"isfriend":0,"isfamily":0},{"id":"52706031015","owner":"33610210@N05","secret":"28414d50c4","server":"65535","farm":66,"title":"House Finch, Haemorhous mexicanus","ispublic":1,"isfriend":0,"isfamily":0},{"id":"52702689499","owner":"196786375@N03","secret":"3251de0ae6","server":"65535","farm":66,"title":"House Finch (m)","ispublic":1,"isfriend":0,"isfamily":0},{"id":"52697622034","owner":"10260434@N03","secret":"c440da6fb0","server":"65535","farm":66,"title":"House Finch fem-24Jan23","ispublic":1,"isfriend":0,"isfamily":0},{"id":"52696841687","owner":"10260434@N03","secret":"a65b0b2b96","server":"65535","farm":66,"title":"House Finch female-24Jan23","ispublic":1,"isfriend":0,"isfamily":0},{"id":"52696837007","owner":"10260434@N03","secret":"fbc573fd6a","server":"65535","farm":66,"title":"House  Finch fem-30Jan23","ispublic":1,"isfriend":0,"isfamily":0},{"id":"52697808245","owner":"65148649@N04","secret":"a7ffde807a","server":"65535","farm":66,"title":"House Finch 02.11.23 Frye","ispublic":1,"isfriend":0,"isfamily":0},{"id":"52697380615","owner":"40941741@N03","secret":"0ce9243d6a","server":"65535","farm":66,"title":"House Finch","ispublic":1,"isfriend":0,"isfamily":0},{"id":"52696680619","owner":"10260434@N03","secret":"06087995c7","server":"65535","farm":66,"title":"House Finch male-24Dec22","ispublic":1,"isfriend":0,"isfamily":0},{"id":"52695891007","owner":"10260434@N03","secret":"cae3e221cb","server":"65535","farm":66,"title":"House Finch male-24Dec22","ispublic":1,"isfriend":0,"isfamily":0},{"id":"52695709689","owner":"10260434@N03","secret":"6f01f60f37","server":"65535","farm":66,"title":"House Finch male-23Dec22","ispublic":1,"isfriend":0,"isfamily":0},{"id":"52695441171","owner":"10260434@N03","secret":"c38d444555","server":"65535","farm":66,"title":"House Finch male-23Dec22","ispublic":1,"isfriend":0,"isfamily":0},{"id":"52692832059","owner":"69002026@N02","secret":"a6e6a825bd","server":"65535","farm":66,"title":"House Finch (Haemorhous mexicanus)","ispublic":1,"isfriend":0,"isfamily":0},{"id":"52693053503","owner":"69002026@N02","secret":"f19caa35f4","server":"65535","farm":66,"title":"House Finch (Haemorhous mexicanus)","ispublic":1,"isfriend":0,"isfamily":0},{"id":"52692563426","owner":"69002026@N02","secret":"2ec288e95c","server":"65535","farm":66,"title":"House Finch (Haemorhous mexicanus)","ispublic":1,"isfriend":0,"isfamily":0},{"id":"52692832019","owner":"69002026@N02","secret":"83e9908c5d","server":"65535","farm":66,"title":"House Finch (Haemorhous mexicanus)","ispublic":1,"isfriend":0,"isfamily":0},{"id":"52692541759","owner":"36013467@N07","secret":"2355ba579d","server":"65535","farm":66,"title":"House Finch (Haemorhous mexicanus)","ispublic":1,"isfriend":0,"isfamily":0},{"id":"52690877249","owner":"163667952@N05","secret":"33d927c27d","server":"65535","farm":66,"title":"House Finch","ispublic":1,"isfriend":0,"isfamily":0},{"id":"52690349555","owner":"33610210@N05","secret":"e7db4e8f45","server":"65535","farm":66,"title":"House Finch, Haemorhous mexicanus","ispublic":1,"isfriend":0,"isfamily":0},{"id":"52689388687","owner":"33610210@N05","secret":"d603bbbb3b","server":"65535","farm":66,"title":"House Finch, Haemorhous mexicanus","ispublic":1,"isfriend":0,"isfamily":0},{"id":"52689911101","owner":"33610210@N05","secret":"da057628b9","server":"65535","farm":66,"title":"House Finch, Haemorhous mexicanus","ispublic":1,"isfriend":0,"isfamily":0},{"id":"52686791666","owner":"44904157@N04","secret":"1b0605eb53","server":"65535","farm":66,"title":"House Finch","ispublic":1,"isfriend":0,"isfamily":0},{"id":"52685862780","owner":"82402390@N02","secret":"8e91dfb56e","server":"65535","farm":66,"title":"Roselin familier. House Finch  (Haemorhous mexicanus) DSC_9052-1.jpg","ispublic":1,"isfriend":0,"isfamily":0},{"id":"52680472806","owner":"88978913@N08","secret":"79c56a11f8","server":"65535","farm":66,"title":"Male House Finch. Haemorhous mexicanus","ispublic":1,"isfriend":0,"isfamily":0},{"id":"52678659232","owner":"141176091@N02","secret":"e6cb5d58ae","server":"65535","farm":66,"title":"House Finches","ispublic":1,"isfriend":0,"isfamily":0},{"id":"52678946296","owner":"47533293@N04","secret":"4b3bf50cb0","server":"65535","farm":66,"title":"House finch, Haemorhous mexicanus","ispublic":1,"isfriend":0,"isfamily":0},{"id":"52679424448","owner":"47533293@N04","secret":"e9b64e93e4","server":"65535","farm":66,"title":"House finches, Haemorhous mexicanus","ispublic":1,"isfriend":0,"isfamily":0},{"id":"52677969633","owner":"68635735@N02","secret":"48baf65f71","server":"65535","farm":66,"title":"House Finch (Haemorhous mexicanus) female","ispublic":1,"isfriend":0,"isfamily":0},{"id":"52676960857","owner":"68635735@N02","secret":"b1d044d86b","server":"65535","farm":66,"title":"House Finch (Haemorhous mexicanus) male","ispublic":1,"isfriend":0,"isfamily":0},{"id":"52677627154","owner":"143326780@N02","secret":"ebdec7c8fa","server":"65535","farm":66,"title":"DSCN3553","ispublic":1,"isfriend":0,"isfamily":0},{"id":"52676829897","owner":"143326780@N02","secret":"1201a33f70","server":"65535","farm":66,"title":"DSCN3554","ispublic":1,"isfriend":0,"isfamily":0},{"id":"52677323606","owner":"143326780@N02","secret":"353d2ded15","server":"65535","farm":66,"title":"DSCN3555","ispublic":1,"isfriend":0,"isfamily":0},{"id":"52676738321","owner":"69002026@N02","secret":"b69c619ce5","server":"65535","farm":66,"title":"House Finch (Haemorhous mexicanus)","ispublic":1,"isfriend":0,"isfamily":0},{"id":"52675981100","owner":"50554329@N04","secret":"57d4750e2e","server":"65535","farm":66,"title":"House Finch","ispublic":1,"isfriend":0,"isfamily":0},{"id":"52675836534","owner":"50554329@N04","secret":"54f74dddb7","server":"65535","farm":66,"title":"House Finch","ispublic":1,"isfriend":0,"isfamily":0},{"id":"52675279189","owner":"69002026@N02","secret":"5c80262b76","server":"65535","farm":66,"title":"House Finch (Haemorhous mexicanus)","ispublic":1,"isfriend":0,"isfamily":0},{"id":"52675279089","owner":"69002026@N02","secret":"7f248c68cf","server":"65535","farm":66,"title":"House Finch (Haemorhous mexicanus)","ispublic":1,"isfriend":0,"isfamily":0},{"id":"52674485332","owner":"69002026@N02","secret":"0106090086","server":"65535","farm":66,"title":"House Finch (Haemorhous mexicanus)","ispublic":1,"isfriend":0,"isfamily":0},{"id":"52668753887","owner":"99228543@N04","secret":"b6621aa154","server":"65535","farm":66,"title":"female house finch","ispublic":1,"isfriend":0,"isfamily":0},{"id":"52669540434","owner":"99228543@N04","secret":"6051c24897","server":"65535","farm":66,"title":"male house finch","ispublic":1,"isfriend":0,"isfamily":0},{"id":"52668802951","owner":"8654297@N06","secret":"3401e1ed3a","server":"65535","farm":66,"title":"Finch party","ispublic":1,"isfriend":0,"isfamily":0},{"id":"52668232366","owner":"34238008@N02","secret":"2d8b208786","server":"65535","farm":66,"title":"House Finch (Haemorhous mexicanus) and Lesser Goldfinch","ispublic":1,"isfriend":0,"isfamily":0},{"id":"52667736472","owner":"34238008@N02","secret":"d1aa9852a9","server":"65535","farm":66,"title":"House Finch (Haemorhous mexicanus) and Lesser Goldfinch","ispublic":1,"isfriend":0,"isfamily":0},{"id":"52667736367","owner":"34238008@N02","secret":"2c7652b9d0","server":"65535","farm":66,"title":"House Finch (Haemorhous mexicanus) and Lesser Goldfinch","ispublic":1,"isfriend":0,"isfamily":0},{"id":"52665637815","owner":"195642998@N04","secret":"cbe66e59fa","server":"65535","farm":66,"title":"House Finch (Haemorhous mexicanus)","ispublic":1,"isfriend":0,"isfamily":0},{"id":"52665358089","owner":"9731845@N02","secret":"0f1576d4aa","server":"65535","farm":66,"title":"House Finch (Haemorhous mexicanus)","ispublic":1,"isfriend":0,"isfamily":0},{"id":"52653666190","owner":"74797463@N00","secret":"6b64c11645","server":"65535","farm":66,"title":"Roselins familiers","ispublic":1,"isfriend":0,"isfamily":0},{"id":"52652737452","owner":"74797463@N00","secret":"ed11dc6bdc","server":"65535","farm":66,"title":"Roselin familier","ispublic":1,"isfriend":0,"isfamily":0},{"id":"52652366478","owner":"70295563@N00","secret":"a798df809f","server":"65535","farm":66,"title":"Looking good","ispublic":1,"isfriend":0,"isfamily":0},{"id":"52652300260","owner":"36013467@N07","secret":"eba0428035","server":"65535","farm":66,"title":"House Finch (Haemorhous mexicanus)","ispublic":1,"isfriend":0,"isfamily":0},{"id":"52651641745","owner":"23939795@N04","secret":"d422348d69","server":"65535","farm":66,"title":"House Finch Male 9741","ispublic":1,"isfriend":0,"isfamily":0},{"id":"52648439267","owner":"44034115@N08","secret":"43636de943","server":"65535","farm":66,"title":"Meet the House Finch at Ashland Nature Center","ispublic":1,"isfriend":0,"isfamily":0},{"id":"52646924252","owner":"23939795@N04","secret":"0cfa6dffd8","server":"65535","farm":66,"title":"House Sparrow and Oranges 8553","ispublic":1,"isfriend":0,"isfamily":0},{"id":"52647405988","owner":"69002026@N02","secret":"75bce2cb7d","server":"65535","farm":66,"title":"House Finch (Haemorhous mexicanus)","ispublic":1,"isfriend":0,"isfamily":0},{"id":"52644968547","owner":"40006638@N06","secret":"dd911e5e9b","server":"65535","farm":66,"title":"House Finch - 094A8518a1c","ispublic":1,"isfriend":0,"isfamily":0},{"id":"52644679918","owner":"196840457@N07","secret":"93fb420423","server":"65535","farm":66,"title":"Finch, Purple, Male","ispublic":1,"isfriend":0,"isfamily":0},{"id":"52644205811","owner":"196840457@N07","secret":"268185745d","server":"65535","farm":66,"title":"Finch, Purple, Male","ispublic":1,"isfriend":0,"isfamily":0},{"id":"52643579645","owner":"44034115@N08","secret":"592fced861","server":"65535","farm":66,"title":"Finch in the House at Ashland Nature Center","ispublic":1,"isfriend":0,"isfamily":0},{"id":"52643253109","owner":"69002026@N02","secret":"cd3a1224e2","server":"65535","farm":66,"title":"Preening House Finch (Haemorhous mexicanus)","ispublic":1,"isfriend":0,"isfamily":0},{"id":"52641888572","owner":"195239167@N07","secret":"3b9fbe4764","server":"65535","farm":66,"title":"House Finch","ispublic":1,"isfriend":0,"isfamily":0},{"id":"52642637224","owner":"195239167@N07","secret":"d86983d56e","server":"65535","farm":66,"title":"House Finch","ispublic":1,"isfriend":0,"isfamily":0},{"id":"52642268838","owner":"91064752@N03","secret":"17f4881596","server":"65535","farm":66,"title":"House Finch Checking Things Out","ispublic":1,"isfriend":0,"isfamily":0},{"id":"52641701630","owner":"160542269@N02","secret":"b40993a6f8","server":"65535","farm":66,"title":"male house finch","ispublic":1,"isfriend":0,"isfamily":0},{"id":"52676820337","owner":"143326780@N02","secret":"d44876eb57","server":"65535","farm":66,"title":"DSCN3753","ispublic":1,"isfriend":0,"isfamily":0},{"id":"52676813097","owner":"143326780@N02","secret":"1f3b4eb813","server":"65535","farm":66,"title":"DSCN3986","ispublic":1,"isfriend":0,"isfamily":0},{"id":"52677626724","owner":"143326780@N02","secret":"bcdcf3bd0f","server":"65535","farm":66,"title":"DSCN3559","ispublic":1,"isfriend":0,"isfamily":0},{"id":"52661318492","owner":"33610210@N05","secret":"73110f1d62","server":"65535","farm":66,"title":"House Finch, Haemorhous mexicanus","ispublic":1,"isfriend":0,"isfamily":0},{"id":"52661318447","owner":"33610210@N05","secret":"3547134c9b","server":"65535","farm":66,"title":"House Finch, Haemorhous mexicanus","ispublic":1,"isfriend":0,"isfamily":0},{"id":"52660591833","owner":"44034115@N08","secret":"d2a3c63d60","server":"65535","farm":66,"title":"Her Majesty House Finch","ispublic":1,"isfriend":0,"isfamily":0}]},"stat":"ok"}