{"photos":{"page":1,"pages":3,"perpage":100,"total":249,"photo":[{"id":"52657086729","owner":"35572208@N06","secret":"6e096b6a39","server":"0","farm":0,"title":"Large group of House Sparrow \/ Passer domesticus \/ Huismus","ispublic":1,"isfriend":0,"isfamily":0},{"id":"52648303465","owner":"72434199@N02","secret":"411445a3ce","server":"65535","farm":66,"title":"HOUSE  SPARROW \/\/ PASSER DOMESTICUS (14cm)","ispublic":1,"isfriend":0,"isfamily":0},{"id":"52445777329","owner":"99927961@N06","secret":"2c1c053d19","server":"65535","farm":66,"title":"Rolf Nagel-Fl-22-3878-Passer domesticus","ispublic":1,"isfriend":0,"isfamily":0},{"id":"52041446457","owner":"78590035@N06","secret":"955e20d754","server":"65535","farm":66,"title":"House Sparrow (04). April 2022","ispublic":1,"isfriend":0,"isfamily":0},{"id":"52042739084","owner":"78590035@N06","secret":"5655df78b0","server":"65535","farm":66,"title":"House Sparrow (03). April 2022","ispublic":1,"isfriend":0,"isfamily":0},{"id":"52042737764","owner":"78590035@N06","secret":"8ece79ba06","server":"65535","farm":66,"title":"House Sparrow (02). April 2022","ispublic":1,"isfriend":0,"isfamily":0},{"id":"52042997805","owner":"78590035@N06","secret":"76d54ed88a","server":"65535","farm":66,"title":"House Sparrow (01). April 2022","ispublic":1,"isfriend":0,"isfamily":0},{"id":"52029341404","owner":"64058203@N05","secret":"bef9fc20e5","server":"65535","farm":66,"title":"Spanish Sparrow","ispublic":1,"isfriend":0,"isfamily":0},{"id":"51954098963","owner":"143089966@N07","secret":"b0898f54a6","server":"65535","farm":66,"title":"Gorri\u00f3n Com\u00fan (macho, male) - Passer domesticus","ispublic":1,"isfriend":0,"isfamily":0},{"id":"51841392895","owner":"150856173@N06","secret":"9e53947698","server":"65535","farm":66,"title":"House sparrow ( Passer domesticus)-4820","ispublic":1,"isfriend":0,"isfamily":0},{"id":"51636014813","owner":"137772040@N07","secret":"7b1b564cb5","server":"65535","farm":66,"title":"House Sparrow (Passer domesticus) by Shaun Missig","ispublic":1,"isfriend":0,"isfamily":0},{"id":"51634967267","owner":"137772040@N07","secret":"731d977a6a","server":"65535","farm":66,"title":"House Sparrow (Passer domesticus) by Shaun Missig","ispublic":1,"isfriend":0,"isfamily":0},{"id":"51635796316","owner":"137772040@N07","secret":"eb32d5a2e3","server":"65535","farm":66,"title":"House Sparrow (Passer domesticus) by Shaun Missig","ispublic":1,"isfriend":0,"isfamily":0},{"id":"51635796066","owner":"137772040@N07","secret":"4b2b94cb76","server":"65535","farm":66,"title":"House Sparrow (Passer domesticus) by Shaun Missig","ispublic":1,"isfriend":0,"isfamily":0},{"id":"51634966657","owner":"137772040@N07","secret":"ae0aa07549","server":"65535","farm":66,"title":"House Sparrow (Passer domesticus) by Shaun Missig","ispublic":1,"isfriend":0,"isfamily":0},{"id":"51636441109","owner":"137772040@N07","secret":"4b5b87fcbb","server":"65535","farm":66,"title":"House Sparrow (Passer domesticus) by Shaun Missig","ispublic":1,"isfriend":0,"isfamily":0},{"id":"51634966472","owner":"137772040@N07","secret":"e088d16ccf","server":"65535","farm":66,"title":"House Sparrow (Passer domesticus) by Shaun Missig","ispublic":1,"isfriend":0,"isfamily":0},{"id":"51438932636","owner":"115868643@N04","secret":"551abf2aea","server":"65535","farm":66,"title":"House Sparrow (Passer domesticus)","ispublic":1,"isfriend":0,"isfamily":0},{"id":"51394103195","owner":"78590035@N06","secret":"9000cebfee","server":"65535","farm":66,"title":"Cautious. Aug 2021","ispublic":1,"isfriend":0,"isfamily":0},{"id":"51394103065","owner":"78590035@N06","secret":"d3c6b476c4","server":"65535","farm":66,"title":"Eye Contact. Aug 2021","ispublic":1,"isfriend":0,"isfamily":0},{"id":"51383593692","owner":"78590035@N06","secret":"6013896ae9","server":"65535","farm":66,"title":"Another feeding frenzy. Aug 2021","ispublic":1,"isfriend":0,"isfamily":0},{"id":"51384346101","owner":"78590035@N06","secret":"470b96ec52","server":"65535","farm":66,"title":"Anticipation. Aug 2021","ispublic":1,"isfriend":0,"isfamily":0},{"id":"51370378490","owner":"78590035@N06","secret":"4e2bc69c2d","server":"65535","farm":66,"title":"Feed me! Aug 2021","ispublic":1,"isfriend":0,"isfamily":0},{"id":"51369373811","owner":"78590035@N06","secret":"943266c05b","server":"65535","farm":66,"title":"Feeding frenzy. Aug 2021","ispublic":1,"isfriend":0,"isfamily":0},{"id":"51370108874","owner":"78590035@N06","secret":"79174e3002","server":"65535","farm":66,"title":"Feeding time. Aug 2021","ispublic":1,"isfriend":0,"isfamily":0},{"id":"51370108784","owner":"78590035@N06","secret":"d8507f4da5","server":"65535","farm":66,"title":"Gently does it. Aug 2021","ispublic":1,"isfriend":0,"isfamily":0},{"id":"51369597038","owner":"78590035@N06","secret":"662c6b80d5","server":"65535","farm":66,"title":"Mother & Juvenile. Aug 2021","ispublic":1,"isfriend":0,"isfamily":0},{"id":"51369354856","owner":"78590035@N06","secret":"fb3eea6f48","server":"65535","farm":66,"title":"What you looking at. Aug 2021","ispublic":1,"isfriend":0,"isfamily":0},{"id":"51369891839","owner":"78590035@N06","secret":"dc4b933ccb","server":"65535","farm":66,"title":"Determind. Aug 2021","ispublic":1,"isfriend":0,"isfamily":0},{"id":"51369379478","owner":"78590035@N06","secret":"c88d46cc48","server":"65535","farm":66,"title":"Inquisitive. Aug 2021","ispublic":1,"isfriend":0,"isfamily":0},{"id":"51369379398","owner":"78590035@N06","secret":"aa02eb00b0","server":"65535","farm":66,"title":"Juvenile Sparrow. Aug 2021","ispublic":1,"isfriend":0,"isfamily":0},{"id":"51369156331","owner":"78590035@N06","secret":"36d68ca453","server":"65535","farm":66,"title":"Life on the edge. Aug 2021","ispublic":1,"isfriend":0,"isfamily":0},{"id":"51294869471","owner":"78590035@N06","secret":"5447c9fcdc","server":"65535","farm":66,"title":"House-Sparrow. July 2021","ispublic":1,"isfriend":0,"isfamily":0},{"id":"51293317986","owner":"28845654@N08","secret":"d6e286f01e","server":"65535","farm":66,"title":"HOUSE SPARROW 7","ispublic":1,"isfriend":0,"isfamily":0},{"id":"51291248234","owner":"28845654@N08","secret":"76e81ef195","server":"65535","farm":66,"title":"HOUSE SPARROW 6","ispublic":1,"isfriend":0,"isfamily":0},{"id":"51261434140","owner":"37685136@N06","secret":"df734c1a3c","server":"65535","farm":66,"title":"Sparrow On Top Of Roof - Photo Taken by STEVEN CHATEAUNEUF On June 6, 2021 In Maine - This Photo Was Cropped And Edited On June 20, 2021","ispublic":1,"isfriend":0,"isfamily":0},{"id":"51245755322","owner":"78590035@N06","secret":"299e5b9b27","server":"65535","farm":66,"title":"House Sparrow. June 2021","ispublic":1,"isfriend":0,"isfamily":0},{"id":"51221474324","owner":"150856173@N06","secret":"59d02f7215","server":"65535","farm":66,"title":"House sparrow (Passer domesticus)-6776","ispublic":1,"isfriend":0,"isfamily":0},{"id":"51200834517","owner":"65148649@N04","secret":"641e5a02c6","server":"65535","farm":66,"title":"House Sparrow","ispublic":1,"isfriend":0,"isfamily":0},{"id":"51156237095","owner":"33252899@N00","secret":"47cdca6414","server":"65535","farm":66,"title":"House Sparrow - Passer domesticus","ispublic":1,"isfriend":0,"isfamily":0},{"id":"51152347468","owner":"33252899@N00","secret":"e79c9051ba","server":"65535","farm":66,"title":"House Sparrow - Passer domesticus","ispublic":1,"isfriend":0,"isfamily":0},{"id":"51138423393","owner":"78590035@N06","secret":"09824a9782","server":"65535","farm":66,"title":"House Sparrow. April 2021","ispublic":1,"isfriend":0,"isfamily":0},{"id":"51128471165","owner":"71393709@N06","secret":"27bf9c0404","server":"65535","farm":66,"title":"'' Strangely, five sharing a bath somehow doesn't seem as sexy as I originally thought! ''  -  (Published by GETTY IMAGES)","ispublic":1,"isfriend":0,"isfamily":0},{"id":"51042573772","owner":"19538227@N00","secret":"be5dfa98bd","server":"65535","farm":66,"title":"Sparrow female","ispublic":1,"isfriend":0,"isfamily":0},{"id":"50997421568","owner":"101738578@N08","secret":"da1ba3c3ef","server":"65535","farm":66,"title":"Snow Day Sparrow","ispublic":1,"isfriend":0,"isfamily":0},{"id":"50949573263","owner":"187967017@N03","secret":"abf1dd4114","server":"65535","farm":66,"title":"House Sparrow - Passer Domesticus","ispublic":1,"isfriend":0,"isfamily":0},{"id":"50737453263","owner":"78590035@N06","secret":"031e209c1b","server":"65535","farm":66,"title":"Feeding Time. July 2020","ispublic":1,"isfriend":0,"isfamily":0},{"id":"50692346457","owner":"108242628@N08","secret":"a17fbc7d4d","server":"65535","farm":66,"title":"\u029f\u1d0f\u1d0f\u1d0b\u026a\u0274\u0262 \u0493\u1d0f\u0280 \u0493\u1d0f\u1d0f\u1d05...","ispublic":1,"isfriend":0,"isfamily":0},{"id":"50582637617","owner":"78742710@N08","secret":"025db80280","server":"65535","farm":66,"title":"House Sparrow (f): Portrait","ispublic":1,"isfriend":0,"isfamily":0},{"id":"50389124818","owner":"57712732@N04","secret":"a4a1c92430","server":"0","farm":0,"title":"Love and affection . .","ispublic":1,"isfriend":0,"isfamily":0},{"id":"50288145491","owner":"95020156@N02","secret":"8c25420439","server":"65535","farm":66,"title":"gorri\u00f3n jovenzuelo - young sparrow","ispublic":1,"isfriend":0,"isfamily":0},{"id":"50653427371","owner":"108242628@N08","secret":"19fc3bd3c1","server":"65535","farm":66,"title":"\u1d0d\u1d00\u0274, \u026a\u1d1b's \u1d04\u1d0f\u029f\u1d05!","ispublic":1,"isfriend":0,"isfamily":0},{"id":"50144445458","owner":"150856173@N06","secret":"6890cd5893","server":"65535","farm":66,"title":"Snack-time ... -2153","ispublic":1,"isfriend":0,"isfamily":0},{"id":"50121766463","owner":"58806173@N08","secret":"c743630c39","server":"65535","farm":66,"title":"Spuggy","ispublic":1,"isfriend":0,"isfamily":0},{"id":"49995851407","owner":"130777277@N02","secret":"01ed82e75c","server":"65535","farm":66,"title":"Petite visite sur ma terrasse ;-))  visit on my terrace","ispublic":1,"isfriend":0,"isfamily":0},{"id":"49339188652","owner":"12984605@N05","secret":"29ce2b02c6","server":"65535","farm":66,"title":"Piaf  \u266a\u266b\u266b\u266a\u266a\u266b","ispublic":1,"isfriend":0,"isfamily":0},{"id":"49246876308","owner":"99927961@N06","secret":"5851097e09","server":"65535","farm":66,"title":"Rolf Nagel-Fl-09-0275-Passer domesticus female","ispublic":1,"isfriend":0,"isfamily":0},{"id":"48315401257","owner":"78590035@N06","secret":"bb850e2eef","server":"65535","farm":66,"title":"House Sparrow. July 2019","ispublic":1,"isfriend":0,"isfamily":0},{"id":"47981994057","owner":"134704052@N08","secret":"0376bd74d2","server":"65535","farm":66,"title":"House Sparrow - Sadness","ispublic":1,"isfriend":0,"isfamily":0},{"id":"47882570301","owner":"8324361@N07","secret":"551367176f","server":"65535","farm":66,"title":"Guarding the Fort!","ispublic":1,"isfriend":0,"isfamily":0},{"id":"47407180701","owner":"83067426@N02","secret":"313ca6e726","server":"7926","farm":8,"title":"Passer domesticus \u2642 (1100395)","ispublic":1,"isfriend":0,"isfamily":0},{"id":"46759286671","owner":"14042476@N08","secret":"8ba958f421","server":"7810","farm":8,"title":"House Sparrow","ispublic":1,"isfriend":0,"isfamily":0},{"id":"46027704794","owner":"72434199@N02","secret":"7b312a4af9","server":"4846","farm":5,"title":"HOUSE  SPARROW (f) \/\/  PASSER  DOMESTICUS  (14cm)","ispublic":1,"isfriend":0,"isfamily":0},{"id":"31641432817","owner":"38356169@N07","secret":"1b44baf4d1","server":"7822","farm":8,"title":"House Sparrow (male)","ispublic":1,"isfriend":0,"isfamily":0},{"id":"45400622395","owner":"72434199@N02","secret":"6d7ac179fa","server":"4845","farm":5,"title":"HOUSE  SPARROW (M) \/\/  PASSER  DOMESTICUS (15CM)","ispublic":1,"isfriend":0,"isfamily":0},{"id":"44131589080","owner":"86772257@N00","secret":"bf49e27188","server":"4915","farm":5,"title":"House Sparrow","ispublic":1,"isfriend":0,"isfamily":0},{"id":"32041593478","owner":"135926729@N04","secret":"1a1f9fb388","server":"4804","farm":5,"title":"Focussed","ispublic":1,"isfriend":0,"isfamily":0},{"id":"45199954151","owner":"67627528@N04","secret":"8a0a08db78","server":"1977","farm":2,"title":"\u2642 house sparrow","ispublic":1,"isfriend":0,"isfamily":0},{"id":"42917228990","owner":"108242628@N08","secret":"c2921eb144","server":"1878","farm":2,"title":"Taking a bath...","ispublic":1,"isfriend":0,"isfamily":0},{"id":"28855249677","owner":"125221717@N08","secret":"234427ee03","server":"1816","farm":2,"title":"Dining in our Blackberry bush","ispublic":1,"isfriend":0,"isfamily":0},{"id":"29680690478","owner":"99927961@N06","secret":"c1070e4070","server":"929","farm":1,"title":"Rolf Nagel-Fl-18-3769-Passer domesticus","ispublic":1,"isfriend":0,"isfamily":0},{"id":"42922157321","owner":"144648055@N05","secret":"e910f525ab","server":"1786","farm":2,"title":"Collecting Feathers","ispublic":1,"isfriend":0,"isfamily":0},{"id":"42333745521","owner":"21998518@N08","secret":"70f8d01007","server":"965","farm":1,"title":"20180525_0673_7D2-600 Male House Sparrow feeding (145\/365)","ispublic":1,"isfriend":0,"isfamily":0},{"id":"28261678378","owner":"108575971@N02","secret":"6dcedb9335","server":"965","farm":1,"title":"20180316_224c","ispublic":1,"isfriend":0,"isfamily":0},{"id":"41447043462","owner":"148927944@N08","secret":"6a4c4877d7","server":"866","farm":1,"title":"Koduvarblane (Passer domesticus)","ispublic":1,"isfriend":0,"isfamily":0},{"id":"41447042862","owner":"148927944@N08","secret":"919e5bb653","server":"793","farm":1,"title":"Koduvarblane (Passer domesticus)","ispublic":1,"isfriend":0,"isfamily":0},{"id":"41447037702","owner":"148927944@N08","secret":"f33a64f1f9","server":"784","farm":1,"title":"Koduvarblane (Passer domesticus)","ispublic":1,"isfriend":0,"isfamily":0},{"id":"40595533015","owner":"148927944@N08","secret":"6e3d71f66e","server":"820","farm":1,"title":"Koduvarblane (Passer domesticus)","ispublic":1,"isfriend":0,"isfamily":0},{"id":"27612865058","owner":"48945861@N06","secret":"d6eb066411","server":"866","farm":1,"title":"Female House Sparrow","ispublic":1,"isfriend":0,"isfamily":0},{"id":"38285177936","owner":"76285708@N06","secret":"82a4de1934","server":"4572","farm":5,"title":"House Sparrow (Passer domesticus)","ispublic":1,"isfriend":0,"isfamily":0},{"id":"37619242684","owner":"57594632@N07","secret":"948a215769","server":"4561","farm":5,"title":"Eurasian tree sparrow (Passer montanus)_DSC5189-1","ispublic":1,"isfriend":0,"isfamily":0},{"id":"52282417923","owner":"30722034@N02","secret":"68df3c0f4f","server":"65535","farm":66,"title":"Moineau  domestique\/Passer domesticu,","ispublic":1,"isfriend":0,"isfamily":0},{"id":"52023086151","owner":"65148649@N04","secret":"4d095d08ae","server":"65535","farm":66,"title":"House Sparrow","ispublic":1,"isfriend":0,"isfamily":0},{"id":"51876253078","owner":"65148649@N04","secret":"32b7ea09ca","server":"65535","farm":66,"title":"House Sparrow","ispublic":1,"isfriend":0,"isfamily":0},{"id":"51644072591","owner":"141881298@N04","secret":"8ae3e26039","server":"65535","farm":66,"title":"Three sparrows are eating sunflower seeds.","ispublic":1,"isfriend":0,"isfamily":0},{"id":"51636014533","owner":"137772040@N07","secret":"e1e979446f","server":"65535","farm":66,"title":"House Sparrow (Passer domesticus) by Shaun Missig","ispublic":1,"isfriend":0,"isfamily":0},{"id":"51368613602","owner":"78590035@N06","secret":"a00258331a","server":"65535","farm":66,"title":"Juvenile n Mother. Aug 2021","ispublic":1,"isfriend":0,"isfamily":0},{"id":"51201550231","owner":"65148649@N04","secret":"e4029f1fed","server":"65535","farm":66,"title":"House Sparrow","ispublic":1,"isfriend":0,"isfamily":0},{"id":"51201531861","owner":"65148649@N04","secret":"43d58caba8","server":"65535","farm":66,"title":"House Sparrow in Steve\u2019s Water Garden","ispublic":1,"isfriend":0,"isfamily":0},{"id":"50276580956","owner":"65148649@N04","secret":"d7be2c518f","server":"0","farm":0,"title":"House Finches and Sparrow at the Water Garden Video","ispublic":1,"isfriend":0,"isfamily":0},{"id":"50276745927","owner":"65148649@N04","secret":"6590b7faf7","server":"65535","farm":66,"title":"House Finches and Sparrow at the Water Garden","ispublic":1,"isfriend":0,"isfamily":0},{"id":"49868300527","owner":"65148649@N04","secret":"ca83210d1c","server":"65535","farm":66,"title":"House Sparrow","ispublic":1,"isfriend":0,"isfamily":0},{"id":"49160916258","owner":"65148649@N04","secret":"7c5268e78f","server":"65535","farm":66,"title":"House Sparrow","ispublic":1,"isfriend":0,"isfamily":0},{"id":"48633879078","owner":"65148649@N04","secret":"6c82ec6064","server":"65535","farm":66,"title":"House Sparrows","ispublic":1,"isfriend":0,"isfamily":0},{"id":"48233902267","owner":"11266603@N04","secret":"495d3e77d1","server":"65535","farm":66,"title":"House Sparrow (Passer domesticus)","ispublic":1,"isfriend":0,"isfamily":0},{"id":"47948205963","owner":"143708461@N03","secret":"6a7c5b2dc8","server":"65535","farm":66,"title":"Vogel - Haussperling - Passer Domesticus","ispublic":1,"isfriend":0,"isfamily":0},{"id":"46809521234","owner":"65148649@N04","secret":"7935cc6c3f","server":"7849","farm":8,"title":"House Sparrow","ispublic":1,"isfriend":0,"isfamily":0},{"id":"29888757718","owner":"135926729@N04","secret":"f4cc34947c","server":"859","farm":1,"title":"House Sparrow Investigates...","ispublic":1,"isfriend":0,"isfamily":0},{"id":"29509841308","owner":"135926729@N04","secret":"961d0b453b","server":"1821","farm":2,"title":"Pssst...I want to be a Tree Sparrow","ispublic":1,"isfriend":0,"isfamily":0},{"id":"39139703621","owner":"88978913@N08","secret":"444564bbf6","server":"4633","farm":5,"title":"House Sparrow, Passer domesticus","ispublic":1,"isfriend":0,"isfamily":0}]},"stat":"ok"}