{"photos":{"page":1,"pages":42,"perpage":100,"total":4139,"photo":[{"id":"52717611122","owner":"38514062@N03","secret":"cba0879823","server":"65535","farm":66,"title":"Indigo Bunting (Passerina cyanea)","ispublic":1,"isfriend":0,"isfamily":0},{"id":"52699662327","owner":"145466593@N08","secret":"48fedc7bbe","server":"65535","farm":66,"title":"Indigo Bunting","ispublic":1,"isfriend":0,"isfamily":0},{"id":"52669445349","owner":"50264295@N06","secret":"ed3a843e35","server":"65535","farm":66,"title":"Indigo Bunting (Passerina cyanea)- SY, FCA male","ispublic":1,"isfriend":0,"isfamily":0},{"id":"52669647308","owner":"50264295@N06","secret":"560c03d1eb","server":"65535","farm":66,"title":"Indigo Bunting (Passerina cyanea)- SY, FCA male","ispublic":1,"isfriend":0,"isfamily":0},{"id":"52668683376","owner":"50264295@N06","secret":"e6cfda4b22","server":"65535","farm":66,"title":"Indigo Bunting (Passerina cyanea)- SY, FCA male","ispublic":1,"isfriend":0,"isfamily":0},{"id":"52668676821","owner":"50264295@N06","secret":"f88310cafd","server":"65535","farm":66,"title":"Indigo Bunting (Passerina cyanea)- SY, FCA male","ispublic":1,"isfriend":0,"isfamily":0},{"id":"52668947789","owner":"50264295@N06","secret":"dc0c5bda67","server":"65535","farm":66,"title":"Indigo Bunting (Passerina cyanea)- SY, FCA male","ispublic":1,"isfriend":0,"isfamily":0},{"id":"52669067640","owner":"50264295@N06","secret":"4e4c196c51","server":"65535","farm":66,"title":"Indigo Bunting (Passerina cyanea)- SY, FCA male","ispublic":1,"isfriend":0,"isfamily":0},{"id":"52658381496","owner":"13194817@N00","secret":"04190c759f","server":"65535","farm":66,"title":"Indigo Bunting","ispublic":1,"isfriend":0,"isfamily":0},{"id":"52658663594","owner":"13194817@N00","secret":"08181730e4","server":"65535","farm":66,"title":"Indigo Bunting","ispublic":1,"isfriend":0,"isfamily":0},{"id":"52658873663","owner":"13194817@N00","secret":"76c1c3ac07","server":"65535","farm":66,"title":"Find The Indigo Bunting","ispublic":1,"isfriend":0,"isfamily":0},{"id":"52617519560","owner":"43272765@N04","secret":"f9a5d15bd2","server":"65535","farm":66,"title":"Indigo Bunting. Passerina cyanea","ispublic":1,"isfriend":0,"isfamily":0},{"id":"52598623163","owner":"53247049@N07","secret":"4ed6e5915f","server":"65535","farm":66,"title":"GOLDEN-HOODED TANAGER Flying Stilpnia larvata in Mindo in Northwestern ECUADOR. Photo by Peter Wendelken.","ispublic":1,"isfriend":0,"isfamily":0},{"id":"52580860270","owner":"153973412@N04","secret":"5f9feacdda","server":"65535","farm":66,"title":"Indigo Bunting-Passerina cyanea, Iowa City, IA","ispublic":1,"isfriend":0,"isfamily":0},{"id":"52560121470","owner":"196840457@N07","secret":"18c4b230b0","server":"65535","farm":66,"title":"Bunting, Indigo","ispublic":1,"isfriend":0,"isfamily":0},{"id":"52558671372","owner":"76288515@N07","secret":"4d293bbc22","server":"65535","farm":66,"title":"Indigo Bunting Passerina cyanea","ispublic":1,"isfriend":0,"isfamily":0},{"id":"52559669468","owner":"76288515@N07","secret":"e9ca018a89","server":"65535","farm":66,"title":"Indigo Bunting Passerina cyanea","ispublic":1,"isfriend":0,"isfamily":0},{"id":"52559120711","owner":"76288515@N07","secret":"6c2e142fd2","server":"65535","farm":66,"title":"Indigo Bunting Passerina cyanea","ispublic":1,"isfriend":0,"isfamily":0},{"id":"52559120691","owner":"76288515@N07","secret":"943b9d90ca","server":"65535","farm":66,"title":"Indigo Bunting Passerina cyanea","ispublic":1,"isfriend":0,"isfamily":0},{"id":"52558671227","owner":"76288515@N07","secret":"d495d965c1","server":"65535","farm":66,"title":"Indigo Bunting Passerina cyanea","ispublic":1,"isfriend":0,"isfamily":0},{"id":"52559669323","owner":"76288515@N07","secret":"e1a6a844e3","server":"65535","farm":66,"title":"Indigo Bunting Passerina cyanea","ispublic":1,"isfriend":0,"isfamily":0},{"id":"52559669278","owner":"76288515@N07","secret":"5d866ce9f0","server":"65535","farm":66,"title":"Indigo Bunting Passerina cyanea","ispublic":1,"isfriend":0,"isfamily":0},{"id":"52559416944","owner":"76288515@N07","secret":"3cf9202f25","server":"65535","farm":66,"title":"Indigo Bunting Passerina cyanea","ispublic":1,"isfriend":0,"isfamily":0},{"id":"52559120551","owner":"76288515@N07","secret":"8245bd5e30","server":"65535","farm":66,"title":"Indigo Bunting Passerina cyanea","ispublic":1,"isfriend":0,"isfamily":0},{"id":"52559120536","owner":"76288515@N07","secret":"54afb28fe9","server":"65535","farm":66,"title":"Indigo Bunting Passerina cyanea","ispublic":1,"isfriend":0,"isfamily":0},{"id":"52555365314","owner":"24608578@N00","secret":"8a4f031ec5","server":"65535","farm":66,"title":"Indigo bunting (Passerina cyanea), male","ispublic":1,"isfriend":0,"isfamily":0},{"id":"52555608813","owner":"24608578@N00","secret":"68cbdfc149","server":"65535","farm":66,"title":"Indigo bunting (Passerina cyanea), male","ispublic":1,"isfriend":0,"isfamily":0},{"id":"52555539845","owner":"24608578@N00","secret":"09d6605880","server":"65535","farm":66,"title":"Indigo bunting (Passerina cyanea), male","ispublic":1,"isfriend":0,"isfamily":0},{"id":"52555539815","owner":"24608578@N00","secret":"1ca634b521","server":"65535","farm":66,"title":"Indigo bunting (Passerina cyanea), male","ispublic":1,"isfriend":0,"isfamily":0},{"id":"52542759957","owner":"196840457@N07","secret":"fbae07f782","server":"65535","farm":66,"title":"Bunting, Indigo","ispublic":1,"isfriend":0,"isfamily":0},{"id":"52539285385","owner":"33610210@N05","secret":"1591f98726","server":"65535","farm":66,"title":"Indigo Bunting, Passerina cyanea","ispublic":1,"isfriend":0,"isfamily":0},{"id":"52535301453","owner":"33610210@N05","secret":"1b43e03c1a","server":"65535","farm":66,"title":"Indigo Bunting, Passerina cyanea","ispublic":1,"isfriend":0,"isfamily":0},{"id":"52532995094","owner":"33610210@N05","secret":"2cc605697e","server":"65535","farm":66,"title":"Indigo Bunting, Passerina cyanea","ispublic":1,"isfriend":0,"isfamily":0},{"id":"52532714866","owner":"33610210@N05","secret":"061c508ff0","server":"65535","farm":66,"title":"Indigo Bunting, Passerina cyanea","ispublic":1,"isfriend":0,"isfamily":0},{"id":"52533254478","owner":"33610210@N05","secret":"3dbe2da76f","server":"65535","farm":66,"title":"Indigo Bunting, Passerina cyanea","ispublic":1,"isfriend":0,"isfamily":0},{"id":"52532243467","owner":"33610210@N05","secret":"618f9662a4","server":"65535","farm":66,"title":"Indigo Bunting, Passerina cyanea","ispublic":1,"isfriend":0,"isfamily":0},{"id":"52532714556","owner":"33610210@N05","secret":"e1c3232706","server":"65535","farm":66,"title":"Indigo Bunting, Passerina cyanea","ispublic":1,"isfriend":0,"isfamily":0},{"id":"52533186360","owner":"33610210@N05","secret":"a24021bac3","server":"65535","farm":66,"title":"Indigo Bunting, Passerina cyanea","ispublic":1,"isfriend":0,"isfamily":0},{"id":"52530126337","owner":"33610210@N05","secret":"565d10c4fa","server":"65535","farm":66,"title":"Indigo Bunting, Passerina cyanea","ispublic":1,"isfriend":0,"isfamily":0},{"id":"52530126227","owner":"33610210@N05","secret":"fea596d8b4","server":"65535","farm":66,"title":"Indigo Bunting, Passerina cyanea","ispublic":1,"isfriend":0,"isfamily":0},{"id":"52530724074","owner":"33610210@N05","secret":"2c6993af66","server":"65535","farm":66,"title":"Indigo Bunting, Passerina cyanea","ispublic":1,"isfriend":0,"isfamily":0},{"id":"52530914950","owner":"33610210@N05","secret":"412ca8a632","server":"65535","farm":66,"title":"Indigo Bunting, Passerina cyanea","ispublic":1,"isfriend":0,"isfamily":0},{"id":"52530985418","owner":"33610210@N05","secret":"237c145980","server":"65535","farm":66,"title":"Indigo Bunting, Passerina cyanea","ispublic":1,"isfriend":0,"isfamily":0},{"id":"52516061557","owner":"24608578@N00","secret":"8faa5d6bb8","server":"65535","farm":66,"title":"Indigo bunting (Passerina cyanea), male","ispublic":1,"isfriend":0,"isfamily":0},{"id":"52513342158","owner":"39445433@N02","secret":"0d37639626","server":"65535","farm":66,"title":"Indigo Bunting","ispublic":1,"isfriend":0,"isfamily":0},{"id":"52512323622","owner":"39445433@N02","secret":"d1c65f6659","server":"65535","farm":66,"title":"Indigo Bunting","ispublic":1,"isfriend":0,"isfamily":0},{"id":"52512796831","owner":"39445433@N02","secret":"5a11ae23e9","server":"65535","farm":66,"title":"Indigo Bunting","ispublic":1,"isfriend":0,"isfamily":0},{"id":"52513341733","owner":"39445433@N02","secret":"133923f08c","server":"65535","farm":66,"title":"Indigo Bunting","ispublic":1,"isfriend":0,"isfamily":0},{"id":"52512323097","owner":"39445433@N02","secret":"623cf328bf","server":"65535","farm":66,"title":"Indigo Bunting","ispublic":1,"isfriend":0,"isfamily":0},{"id":"52513341293","owner":"39445433@N02","secret":"3cc0c88a6f","server":"65535","farm":66,"title":"Indigo Bunting","ispublic":1,"isfriend":0,"isfamily":0},{"id":"52509941137","owner":"150374485@N05","secret":"28bc8f7e11","server":"65535","farm":66,"title":"Passerin indigo m\u00e2le--Indigo Bunting male(Passerina cyanea)","ispublic":1,"isfriend":0,"isfamily":0},{"id":"52498513383","owner":"38514062@N03","secret":"190dbf1314","server":"65535","farm":66,"title":"Indigo Bunting (Passerina cyanea)","ispublic":1,"isfriend":0,"isfamily":0},{"id":"52492823757","owner":"39445433@N02","secret":"ba81e3c0a3","server":"65535","farm":66,"title":"Indigo Bunting","ispublic":1,"isfriend":0,"isfamily":0},{"id":"52491467996","owner":"103722035@N06","secret":"afb893336b","server":"0","farm":0,"title":"Indigo Bunting (Passerina cyanea), Monta\u00f1a de Oro State Park, Los Osos, CA","ispublic":1,"isfriend":0,"isfamily":0},{"id":"52471948536","owner":"63695436@N05","secret":"d4cc1195af","server":"65535","farm":66,"title":"Wild Blue Indigo","ispublic":1,"isfriend":0,"isfamily":0},{"id":"52460570367","owner":"140318147@N08","secret":"7e740e3806","server":"65535","farm":66,"title":"indigo bunting (Passerina cyanea) L4A6271","ispublic":1,"isfriend":0,"isfamily":0},{"id":"52460570202","owner":"140318147@N08","secret":"5f5f64c74e","server":"65535","farm":66,"title":"indigo bunting (Passerina cyanea) L4A6287","ispublic":1,"isfriend":0,"isfamily":0},{"id":"52451265205","owner":"39177293@N03","secret":"beb79c8df5","server":"65535","farm":66,"title":"Indigo Bunting","ispublic":1,"isfriend":0,"isfamily":0},{"id":"52420290895","owner":"120449047@N06","secret":"35c053eba9","server":"65535","farm":66,"title":"Indigo Bunting","ispublic":1,"isfriend":0,"isfamily":0},{"id":"52408894712","owner":"40723658@N05","secret":"fddf98b3e9","server":"65535","farm":66,"title":"Indigo Bunting","ispublic":1,"isfriend":0,"isfamily":0},{"id":"52398996007","owner":"181920661@N03","secret":"ba41a03570","server":"65535","farm":66,"title":"20220704-A6300556-Edit","ispublic":1,"isfriend":0,"isfamily":0},{"id":"52384867379","owner":"85277889@N08","secret":"487454c5db","server":"65535","farm":66,"title":"Indigo Bunting (Passerina cyanea) 2022-09-22 (1a)","ispublic":1,"isfriend":0,"isfamily":0},{"id":"52384867334","owner":"85277889@N08","secret":"7e4bb8ebb6","server":"65535","farm":66,"title":"Indigo Bunting (Passerina cyanea) 2022-09-22 (3a)","ispublic":1,"isfriend":0,"isfamily":0},{"id":"52380924707","owner":"135315828@N06","secret":"45b0263996","server":"65535","farm":66,"title":"indigo bunting","ispublic":1,"isfriend":0,"isfamily":0},{"id":"52364148627","owner":"128537732@N06","secret":"f7b0fd53cc","server":"65535","farm":66,"title":"Indigo Bunting (Passerina cyanea)","ispublic":1,"isfriend":0,"isfamily":0},{"id":"52356276736","owner":"28631427@N00","secret":"23176a5351","server":"65535","farm":66,"title":"Indigo Bunting 2","ispublic":1,"isfriend":0,"isfamily":0},{"id":"52354916437","owner":"90886369@N06","secret":"deb1eb3e0d","server":"65535","farm":66,"title":"Indigo Bunting (Passerina cyanea)","ispublic":1,"isfriend":0,"isfamily":0},{"id":"52353759961","owner":"129051288@N05","secret":"6fe6d1f6b3","server":"65535","farm":66,"title":"Passerin indigo, Passerina cyanea, Indigo Bunting","ispublic":1,"isfriend":0,"isfamily":0},{"id":"52336410090","owner":"135315828@N06","secret":"5ca6d12ce1","server":"65535","farm":66,"title":"indigo bunting","ispublic":1,"isfriend":0,"isfamily":0},{"id":"52323868174","owner":"28631427@N00","secret":"6a3cc65bab","server":"65535","farm":66,"title":"Indigo Bunting 1","ispublic":1,"isfriend":0,"isfamily":0},{"id":"52313791305","owner":"84175980@N00","secret":"7a1b5df4ac","server":"65535","farm":66,"title":"20220619 Passerina cyanea (Indigo Bunting)","ispublic":1,"isfriend":0,"isfamily":0},{"id":"52304557160","owner":"81804225@N08","secret":"643af5869a","server":"65535","farm":66,"title":"Indigo Bunting (Passerina cyanea)","ispublic":1,"isfriend":0,"isfamily":0},{"id":"52299477883","owner":"187792860@N04","secret":"335d56892c","server":"65535","farm":66,"title":"Indigo Bunting (Passerina cyanea) Female","ispublic":1,"isfriend":0,"isfamily":0},{"id":"52295905530","owner":"187792860@N04","secret":"030a329ffd","server":"65535","farm":66,"title":"Indigo Bunting (Passerina cyanea) Female","ispublic":1,"isfriend":0,"isfamily":0},{"id":"52665760003","owner":"187792860@N04","secret":"955f670910","server":"65535","farm":66,"title":"Indigo Bunting (Passerina cyanea)","ispublic":1,"isfriend":0,"isfamily":0},{"id":"52665521489","owner":"187792860@N04","secret":"f067290a27","server":"65535","farm":66,"title":"Indigo Bunting (Passerina cyanea) Female","ispublic":1,"isfriend":0,"isfamily":0},{"id":"52662384468","owner":"136180232@N08","secret":"b245a3a586","server":"65535","farm":66,"title":"Indigo Bunting (Passerina cyanea) JTE_1681","ispublic":1,"isfriend":0,"isfamily":0},{"id":"52558671327","owner":"76288515@N07","secret":"e685c86a46","server":"65535","farm":66,"title":"Indigo Bunting Passerina cyanea","ispublic":1,"isfriend":0,"isfamily":0},{"id":"52558671302","owner":"76288515@N07","secret":"98d9d1b9b0","server":"65535","farm":66,"title":"Indigo Bunting Passerina cyanea","ispublic":1,"isfriend":0,"isfamily":0},{"id":"52559591215","owner":"76288515@N07","secret":"8ae9c7b4e6","server":"65535","farm":66,"title":"Indigo Bunting Passerina cyanea","ispublic":1,"isfriend":0,"isfamily":0},{"id":"52535043069","owner":"33610210@N05","secret":"e90e99c8a8","server":"65535","farm":66,"title":"Indigo Bunting, Passerina cyanea","ispublic":1,"isfriend":0,"isfamily":0},{"id":"52532994569","owner":"33610210@N05","secret":"52220b8f37","server":"65535","farm":66,"title":"Indigo Bunting, Passerina cyanea","ispublic":1,"isfriend":0,"isfamily":0},{"id":"52531066250","owner":"33610210@N05","secret":"639b96d802","server":"65535","farm":66,"title":"Indigo Bunting, Passerina cyanea","ispublic":1,"isfriend":0,"isfamily":0},{"id":"52530915000","owner":"33610210@N05","secret":"1bdf53902a","server":"65535","farm":66,"title":"Indigo Bunting, Passerina cyanea","ispublic":1,"isfriend":0,"isfamily":0},{"id":"52530985363","owner":"33610210@N05","secret":"60cd1b9d49","server":"65535","farm":66,"title":"Indigo Bunting, Passerina cyanea","ispublic":1,"isfriend":0,"isfamily":0},{"id":"52474097472","owner":"187792860@N04","secret":"de6ac37cc2","server":"65535","farm":66,"title":"Indigo Bunting (Passerina cyanea)","ispublic":1,"isfriend":0,"isfamily":0},{"id":"52443156272","owner":"7261670@N03","secret":"c0828362d4","server":"65535","farm":66,"title":"Indigo Bunting","ispublic":1,"isfriend":0,"isfamily":0},{"id":"52443156252","owner":"7261670@N03","secret":"eb7e31e3e4","server":"65535","farm":66,"title":"Indigo Bunting","ispublic":1,"isfriend":0,"isfamily":0},{"id":"52443667496","owner":"7261670@N03","secret":"29f6daf619","server":"65535","farm":66,"title":"Indigo Bunting","ispublic":1,"isfriend":0,"isfamily":0},{"id":"52443943319","owner":"7261670@N03","secret":"b7f68d3f64","server":"65535","farm":66,"title":"Indigo Bunting","ispublic":1,"isfriend":0,"isfamily":0},{"id":"52426676242","owner":"39177293@N03","secret":"2d678583b6","server":"65535","farm":66,"title":"Indigo Bunting","ispublic":1,"isfriend":0,"isfamily":0},{"id":"52395213580","owner":"187792860@N04","secret":"5fcc665047","server":"65535","farm":66,"title":"Indigo Bunting (Passerina cyanea)","ispublic":1,"isfriend":0,"isfamily":0},{"id":"52389828374","owner":"128537732@N06","secret":"8679b3d6f6","server":"65535","farm":66,"title":"Indigo Bunting (Passerina cyanea)","ispublic":1,"isfriend":0,"isfamily":0},{"id":"52387203245","owner":"187792860@N04","secret":"02c10eaecf","server":"65535","farm":66,"title":"Indigo Bunting (Passerina cyanea)","ispublic":1,"isfriend":0,"isfamily":0},{"id":"52375900935","owner":"128537732@N06","secret":"ed2ed67436","server":"65535","farm":66,"title":"Indigo Bunting (Passerina cyanea)","ispublic":1,"isfriend":0,"isfamily":0},{"id":"52375480491","owner":"128537732@N06","secret":"9bff3bcd85","server":"65535","farm":66,"title":"Indigo Bunting (Passerina cyanea)","ispublic":1,"isfriend":0,"isfamily":0},{"id":"52375480201","owner":"128537732@N06","secret":"0e7bcab063","server":"65535","farm":66,"title":"Indigo Bunting (Passerina cyanea)","ispublic":1,"isfriend":0,"isfamily":0},{"id":"52375704888","owner":"128537732@N06","secret":"e7e6607807","server":"65535","farm":66,"title":"Indigo Bunting (Passerina cyanea)","ispublic":1,"isfriend":0,"isfamily":0},{"id":"52357729282","owner":"128537732@N06","secret":"4a5c092616","server":"65535","farm":66,"title":"Indigo Bunting (Passerina cyanea)","ispublic":1,"isfriend":0,"isfamily":0},{"id":"52310355597","owner":"93273765@N05","secret":"14d4c227de","server":"65535","farm":66,"title":"Indigo Bunting (Passerina cyanea)","ispublic":1,"isfriend":0,"isfamily":0}]},"stat":"ok"}