{"photos":{"page":1,"pages":3,"perpage":100,"total":231,"photo":[{"id":"52747301898","owner":"132431122@N05","secret":"453c68457b","server":"65535","farm":66,"title":"Inland Thornbill","ispublic":1,"isfriend":0,"isfamily":0},{"id":"52747050454","owner":"132431122@N05","secret":"1ce2244ef3","server":"65535","farm":66,"title":"Inland Thornbill","ispublic":1,"isfriend":0,"isfamily":0},{"id":"52715787796","owner":"95482238@N02","secret":"e7a2fff0ab","server":"65535","farm":66,"title":"inland thornbill (Acanthiza apicalis) at Mount Ive Station in the Gawler Ranges, South Australia","ispublic":1,"isfriend":0,"isfamily":0},{"id":"52707535958","owner":"95482238@N02","secret":"f2f45024e3","server":"65535","farm":66,"title":"inland thornbill (Acanthiza apicalis), at Jarvis Hill Lookout, about 7 km West of Hawker, South Australia","ispublic":1,"isfriend":0,"isfamily":0},{"id":"52707299354","owner":"95482238@N02","secret":"cb38a1cebf","server":"65535","farm":66,"title":"inland thornbill (Acanthiza apicalis), at Jarvis Hill Lookout, about 7 km West of Hawker, South Australia","ispublic":1,"isfriend":0,"isfamily":0},{"id":"52707459705","owner":"95482238@N02","secret":"99aae62230","server":"65535","farm":66,"title":"inland thornbill (Acanthiza apicalis), at Jarvis Hill Lookout, about 7 km West of Hawker, South Australia","ispublic":1,"isfriend":0,"isfamily":0},{"id":"52605190329","owner":"190773540@N03","secret":"0f16f3736a","server":"65535","farm":66,"title":"Inland Thornbill","ispublic":1,"isfriend":0,"isfamily":0},{"id":"52545833920","owner":"18731552@N00","secret":"90c39004df","server":"65535","farm":66,"title":"Inland Thornbill 16A5110.jpg","ispublic":1,"isfriend":0,"isfamily":0},{"id":"52530420789","owner":"190773540@N03","secret":"d20d4bc593","server":"65535","farm":66,"title":"Inland Thornbill","ispublic":1,"isfriend":0,"isfamily":0},{"id":"52487401062","owner":"75299599@N00","secret":"543522d7b4","server":"65535","farm":66,"title":"Inland Thornbill (Acanthiza apicalis apicalis)","ispublic":1,"isfriend":0,"isfamily":0},{"id":"52488160624","owner":"75299599@N00","secret":"8c9b55a036","server":"65535","farm":66,"title":"Inland Thornbill (Acanthiza apicalis apicalis)","ispublic":1,"isfriend":0,"isfamily":0},{"id":"52428547160","owner":"137103568@N04","secret":"040f33cfd0","server":"65535","farm":66,"title":"Inland Thornbill (Acanthiza apicalis)","ispublic":1,"isfriend":0,"isfamily":0},{"id":"52380448174","owner":"132431122@N05","secret":"c8668ecc02","server":"65535","farm":66,"title":"Inland Thornbill","ispublic":1,"isfriend":0,"isfamily":0},{"id":"52333264549","owner":"151677249@N08","secret":"6a55f535d9","server":"65535","farm":66,"title":"Inland Thornbill (Acanthiza apicalis apicalis)","ispublic":1,"isfriend":0,"isfamily":0},{"id":"52321863833","owner":"137103568@N04","secret":"86db39177a","server":"65535","farm":66,"title":"Inland Thornbill (Acanthiza apicalis)","ispublic":1,"isfriend":0,"isfamily":0},{"id":"52321531018","owner":"137103568@N04","secret":"29eb357ef7","server":"65535","farm":66,"title":"Inland Thornbill (Acanthiza apicalis)","ispublic":1,"isfriend":0,"isfamily":0},{"id":"52266480246","owner":"194860397@N03","secret":"34c16dee24","server":"65535","farm":66,"title":"Inland Thornbill (Acanthiza apicalis)","ispublic":1,"isfriend":0,"isfamily":0},{"id":"52112162313","owner":"151677249@N08","secret":"ffba351d56","server":"65535","farm":66,"title":"Inland Thornbill (Acanthiza apicalis apicalis)","ispublic":1,"isfriend":0,"isfamily":0},{"id":"52034852373","owner":"132431122@N05","secret":"a854002627","server":"65535","farm":66,"title":"Inland Thornbill","ispublic":1,"isfriend":0,"isfamily":0},{"id":"52035325980","owner":"132431122@N05","secret":"2bf6a0f0ea","server":"65535","farm":66,"title":"Inland Thornbill","ispublic":1,"isfriend":0,"isfamily":0},{"id":"52019592935","owner":"16520061@N08","secret":"b0cf4ef5ca","server":"65535","farm":66,"title":"Inland Thornbill (Acanthiza apicalis albiventris)","ispublic":1,"isfriend":0,"isfamily":0},{"id":"51943856379","owner":"113679267@N08","secret":"b0264b606f","server":"65535","farm":66,"title":"Inland Thornbill (Acanthiza apicalis)","ispublic":1,"isfriend":0,"isfamily":0},{"id":"51886748153","owner":"46625272@N04","secret":"cc573fa60b","server":"65535","farm":66,"title":"Inland Thornbill Hallowell 17Feb22 (6) nres","ispublic":1,"isfriend":0,"isfamily":0},{"id":"51886991039","owner":"46625272@N04","secret":"a304d714db","server":"65535","farm":66,"title":"Inland Thornbill Hallowell 17Feb22 (18) nres","ispublic":1,"isfriend":0,"isfamily":0},{"id":"51885698197","owner":"46625272@N04","secret":"697fe684ee","server":"65535","farm":66,"title":"Inland Thornbill Hallowell 17Feb22 (22) nres","ispublic":1,"isfriend":0,"isfamily":0},{"id":"51658412941","owner":"31350467@N04","secret":"d0b1e6f7d4","server":"65535","farm":66,"title":"Thornbill, Inland (Acanthiza apicalis apicalis)","ispublic":1,"isfriend":0,"isfamily":0},{"id":"51159366103","owner":"137103568@N04","secret":"ee3762bed8","server":"65535","farm":66,"title":"Inland Thornbill (Acanthiza apicalis)","ispublic":1,"isfriend":0,"isfamily":0},{"id":"51118670466","owner":"46625272@N04","secret":"30f3332542","server":"65535","farm":66,"title":"Inland Thornbill Hallowell 16Apr21 nres","ispublic":1,"isfriend":0,"isfamily":0},{"id":"51089666401","owner":"117755141@N02","secret":"5065cf1029","server":"65535","farm":66,"title":"Inland Thornbill (Acanthiza apicalis Ssp apicalis)","ispublic":1,"isfriend":0,"isfamily":0},{"id":"51027471512","owner":"46625272@N04","secret":"2f8ee1de40","server":"65535","farm":66,"title":"Inland Thornbill Hallowell 11Mar21 (11) hires","ispublic":1,"isfriend":0,"isfamily":0},{"id":"50701221896","owner":"39343449@N02","secret":"7fd7a4be4a","server":"65535","farm":66,"title":"Immature Inland Thornbill at Wongan Hills","ispublic":1,"isfriend":0,"isfamily":0},{"id":"50660407006","owner":"39343449@N02","secret":"fdc30b18be","server":"65535","farm":66,"title":"Inland Thornbill at Stirling Range National Park","ispublic":1,"isfriend":0,"isfamily":0},{"id":"50566349186","owner":"20973373@N08","secret":"36bdded76d","server":"65535","farm":66,"title":"Inland Thornbill","ispublic":1,"isfriend":0,"isfamily":0},{"id":"50566486782","owner":"20973373@N08","secret":"553b2cbdcd","server":"65535","farm":66,"title":"Inland Thornbill","ispublic":1,"isfriend":0,"isfamily":0},{"id":"50566486747","owner":"20973373@N08","secret":"7d4a08273f","server":"65535","farm":66,"title":"Inland Thornbill","ispublic":1,"isfriend":0,"isfamily":0},{"id":"50566486712","owner":"20973373@N08","secret":"b03d2c341f","server":"65535","farm":66,"title":"Inland Thornbill","ispublic":1,"isfriend":0,"isfamily":0},{"id":"50381160203","owner":"38356169@N07","secret":"280166e700","server":"65535","farm":66,"title":"Mystery Bird = Inland Thornbill","ispublic":1,"isfriend":0,"isfamily":0},{"id":"50374128151","owner":"46625272@N04","secret":"037cb46749","server":"65535","farm":66,"title":"Inland Thornbill Hallowell 23Sep20 res","ispublic":1,"isfriend":0,"isfamily":0},{"id":"50256575568","owner":"40195635@N03","secret":"2a306b8983","server":"65535","farm":66,"title":"Inland Thornbill (Acanthiza apicalis)","ispublic":1,"isfriend":0,"isfamily":0},{"id":"50256849356","owner":"40195635@N03","secret":"accfa1749e","server":"65535","farm":66,"title":"Inland Thornbill (Acanthiza apicalis)","ispublic":1,"isfriend":0,"isfamily":0},{"id":"50021970912","owner":"164980878@N03","secret":"b40952cc19","server":"65535","farm":66,"title":"SBAR4276","ispublic":1,"isfriend":0,"isfamily":0},{"id":"50008930677","owner":"113679267@N08","secret":"ae7c52e19c","server":"65535","farm":66,"title":"Inland Thornbill (Acanthiza apicalis)","ispublic":1,"isfriend":0,"isfamily":0},{"id":"49907472641","owner":"137103568@N04","secret":"c1b403dc7d","server":"65535","farm":66,"title":"Inland Thornbill (Acanthiza apicalis)","ispublic":1,"isfriend":0,"isfamily":0},{"id":"49796477607","owner":"113679267@N08","secret":"a8feb3b737","server":"65535","farm":66,"title":"Inland Thornbill - (Acanthiza apicalis)","ispublic":1,"isfriend":0,"isfamily":0},{"id":"49791059893","owner":"46625272@N04","secret":"e145cc4844","server":"65535","farm":66,"title":"Inland Thornbill Hallowell 16Apr20 (1) jpg","ispublic":1,"isfriend":0,"isfamily":0},{"id":"49542452642","owner":"117755141@N02","secret":"3f437a01ca","server":"65535","farm":66,"title":"Inland Thornbill (Acanthiza apicalis Ssp apicalis)","ispublic":1,"isfriend":0,"isfamily":0},{"id":"49358730788","owner":"62897856@N08","secret":"b269829008","server":"65535","farm":66,"title":"Inland Thornbill. Acanthiza apicalis","ispublic":1,"isfriend":0,"isfamily":0},{"id":"49241858171","owner":"12639178@N07","secret":"d8256f79e6","server":"65535","farm":66,"title":"Stellschwanz-Dornschnabel","ispublic":1,"isfriend":0,"isfamily":0},{"id":"49048098476","owner":"75299599@N00","secret":"19f29d97ba","server":"65535","farm":66,"title":"Inland Thornbill ( Acanthiza apicalis whitlocki)","ispublic":1,"isfriend":0,"isfamily":0},{"id":"48835516441","owner":"16520061@N08","secret":"d3b80c8a2e","server":"65535","farm":66,"title":"Inland Thornbill (Acanthiza apicalis)","ispublic":1,"isfriend":0,"isfamily":0},{"id":"48329439566","owner":"151993772@N02","secret":"e6dd06ce55","server":"65535","farm":66,"title":"Inland Thornbill (Acanthiza apicalis)","ispublic":1,"isfriend":0,"isfamily":0},{"id":"48286161446","owner":"131222116@N06","secret":"e3e991f9b9","server":"65535","farm":66,"title":"Inland Thornbill","ispublic":1,"isfriend":0,"isfamily":0},{"id":"48286157246","owner":"131222116@N06","secret":"34f225ccf3","server":"65535","farm":66,"title":"Inland Thornbill","ispublic":1,"isfriend":0,"isfamily":0},{"id":"46860980225","owner":"137103568@N04","secret":"364bd30bbc","server":"65535","farm":66,"title":"Inland Thornbill (Acanthiza apicalis)","ispublic":1,"isfriend":0,"isfamily":0},{"id":"47764592541","owner":"137103568@N04","secret":"82b2f327f7","server":"65535","farm":66,"title":"Inland Thornbill (Acanthiza apicalis)","ispublic":1,"isfriend":0,"isfamily":0},{"id":"47518896712","owner":"117755141@N02","secret":"811621673b","server":"7895","farm":8,"title":"Inland Thornbill (Acanthiza apicalis)","ispublic":1,"isfriend":0,"isfamily":0},{"id":"46572615234","owner":"46625272@N04","secret":"8eb5239506","server":"7925","farm":8,"title":"Inland Thornbill Hallowell 6Mar19 (5) res","ispublic":1,"isfriend":0,"isfamily":0},{"id":"46572612374","owner":"46625272@N04","secret":"c3f452b975","server":"7807","farm":8,"title":"Inland Thornbill Hallowell 6Mar19 (3) res","ispublic":1,"isfriend":0,"isfamily":0},{"id":"47191146712","owner":"14888671@N02","secret":"2b0f18662f","server":"7812","farm":8,"title":"Inland Thornbill","ispublic":1,"isfriend":0,"isfamily":0},{"id":"46289713485","owner":"14888671@N02","secret":"28c854d165","server":"7894","farm":8,"title":"Inland Thornbill","ispublic":1,"isfriend":0,"isfamily":0},{"id":"40091556193","owner":"14888671@N02","secret":"98d1211c0e","server":"7922","farm":8,"title":"Inland Thornbill","ispublic":1,"isfriend":0,"isfamily":0},{"id":"39731727673","owner":"146264908@N07","secret":"2c0e7303fd","server":"4909","farm":5,"title":"Acanthiza apicalis albiventris 1","ispublic":1,"isfriend":0,"isfamily":0},{"id":"45972002474","owner":"146264908@N07","secret":"a5858c12a0","server":"4881","farm":5,"title":"Acanthiza apicalis albiventris 2","ispublic":1,"isfriend":0,"isfamily":0},{"id":"46643851412","owner":"146264908@N07","secret":"fd290df2d9","server":"4849","farm":5,"title":"Acanthiza apicalis albiventris 3","ispublic":1,"isfriend":0,"isfamily":0},{"id":"46696602071","owner":"146264908@N07","secret":"fe4a5e77ed","server":"7898","farm":8,"title":"Acanthiza apicalis albiventris 4","ispublic":1,"isfriend":0,"isfamily":0},{"id":"46643839522","owner":"146264908@N07","secret":"799bf97b3c","server":"7883","farm":8,"title":"Acanthiza apicalis albiventris 5","ispublic":1,"isfriend":0,"isfamily":0},{"id":"52716045869","owner":"95482238@N02","secret":"687471943c","server":"65535","farm":66,"title":"inland thornbill (Acanthiza apicalis) at Mount Ive Station in the Gawler Ranges, South Australia","ispublic":1,"isfriend":0,"isfamily":0},{"id":"52716212145","owner":"95482238@N02","secret":"475b0cd4fe","server":"65535","farm":66,"title":"inland thornbill (Acanthiza apicalis) at Mount Ive Station in the Gawler Ranges, South Australia","ispublic":1,"isfriend":0,"isfamily":0},{"id":"52657281394","owner":"197553197@N02","secret":"7ccf50967b","server":"65535","farm":66,"title":"Inland Thornbill - Acanthiza apicalis","ispublic":1,"isfriend":0,"isfamily":0},{"id":"52161941139","owner":"95482238@N02","secret":"5d26cf3ed7","server":"65535","farm":66,"title":"inland thornbill at Whyalla Conservation Park, South Australia 5","ispublic":1,"isfriend":0,"isfamily":0},{"id":"52160681617","owner":"95482238@N02","secret":"61898fbf25","server":"65535","farm":66,"title":"inland thornbill at Whyalla Conservation Park, South Australia 4","ispublic":1,"isfriend":0,"isfamily":0},{"id":"52160681567","owner":"95482238@N02","secret":"3543a5d3cb","server":"65535","farm":66,"title":"inland thornbill at Whyalla Conservation Park, South Australia 3","ispublic":1,"isfriend":0,"isfamily":0},{"id":"52162191075","owner":"95482238@N02","secret":"f3cdc7e356","server":"65535","farm":66,"title":"inland thornbill at Whyalla Conservation Park, South Australia 2","ispublic":1,"isfriend":0,"isfamily":0},{"id":"52162190520","owner":"95482238@N02","secret":"4f07a6d610","server":"65535","farm":66,"title":"inland thornbill at Whyalla Conservation Park, South Australia","ispublic":1,"isfriend":0,"isfamily":0},{"id":"52098282590","owner":"58356728@N07","secret":"4161d4352c","server":"65535","farm":66,"title":"Inland thornbill - Acanthiza apicalis","ispublic":1,"isfriend":0,"isfamily":0},{"id":"51852639607","owner":"137777647@N07","secret":"a107caf1c5","server":"65535","farm":66,"title":"Inland Thornbill Acanthiza apicalis","ispublic":1,"isfriend":0,"isfamily":0},{"id":"51697387733","owner":"39343449@N02","secret":"7e6fc8aee9","server":"65535","farm":66,"title":"Juvenile Inland Thornbill at Victoria Reservoir","ispublic":1,"isfriend":0,"isfamily":0},{"id":"51428620897","owner":"113679267@N08","secret":"4fb794752d","server":"65535","farm":66,"title":"Thornbills - Inland 2 (Acanthiza apicalis)","ispublic":1,"isfriend":0,"isfamily":0},{"id":"51429620118","owner":"113679267@N08","secret":"ae04d4f318","server":"65535","farm":66,"title":"Thornbills - Inland 1 (Acanthiza apicalis)","ispublic":1,"isfriend":0,"isfamily":0},{"id":"51267911191","owner":"23946780@N08","secret":"6d7ac9c720","server":"65535","farm":66,"title":"Inland Thornbill (Acanthiza apicalis)","ispublic":1,"isfriend":0,"isfamily":0},{"id":"50777733386","owner":"129013862@N04","secret":"6a9f526d8b","server":"65535","farm":66,"title":"Inland Thornbill (Acanthiza apicalis)","ispublic":1,"isfriend":0,"isfamily":0},{"id":"50760892403","owner":"30682253@N00","secret":"121bf1e76a","server":"65535","farm":66,"title":"Inland Thornbill, Acanthiza apicalis.","ispublic":1,"isfriend":0,"isfamily":0},{"id":"50647287066","owner":"39343449@N02","secret":"82d74d1081","server":"65535","farm":66,"title":"Inland Thornbill at Stirling Range Retreat","ispublic":1,"isfriend":0,"isfamily":0},{"id":"50503903231","owner":"90408688@N02","secret":"29ef7955ab","server":"65535","farm":66,"title":"Acanthiza apicalis apicalis - Southern Inland Thornbill","ispublic":1,"isfriend":0,"isfamily":0},{"id":"50503183913","owner":"90408688@N02","secret":"28796a13b7","server":"65535","farm":66,"title":"Acanthiza apicalis apicalis - Southern Inland Thornbill","ispublic":1,"isfriend":0,"isfamily":0},{"id":"50504058767","owner":"90408688@N02","secret":"be816ab3dd","server":"65535","farm":66,"title":"Acanthiza apicalis apicalis - Southern Inland Thornbill","ispublic":1,"isfriend":0,"isfamily":0},{"id":"50257072662","owner":"40195635@N03","secret":"f4ac472653","server":"65535","farm":66,"title":"Inland Thornbill (Acanthiza apicalis)","ispublic":1,"isfriend":0,"isfamily":0},{"id":"50230283341","owner":"40195635@N03","secret":"ca4e9051a5","server":"65535","farm":66,"title":"Inland Thornbill (Acanthiza apicalis)","ispublic":1,"isfriend":0,"isfamily":0},{"id":"50021717241","owner":"164980878@N03","secret":"e26c00f298","server":"65535","farm":66,"title":"SBAR4200","ispublic":1,"isfriend":0,"isfamily":0},{"id":"50021970982","owner":"164980878@N03","secret":"11097dd404","server":"65535","farm":66,"title":"SBAR4223c","ispublic":1,"isfriend":0,"isfamily":0},{"id":"50003268513","owner":"187469698@N05","secret":"4b756916f0","server":"65535","farm":66,"title":"872 Inland Thornbill - Andrew Walker 001","ispublic":1,"isfriend":0,"isfamily":0},{"id":"49332033982","owner":"116829024@N07","secret":"6795b2d855","server":"65535","farm":66,"title":"Inland Thornbill (Acanthiza apicalis)","ispublic":1,"isfriend":0,"isfamily":0},{"id":"48957262826","owner":"46625272@N04","secret":"b91b92db6c","server":"65535","farm":66,"title":"Inland Thornbill Hallowell 25Oct19 (2) res","ispublic":1,"isfriend":0,"isfamily":0},{"id":"48850710682","owner":"151677249@N08","secret":"bc94e1d419","server":"65535","farm":66,"title":"Southern Inland Thornbill (Acanthiza apicalis apicalis)","ispublic":1,"isfriend":0,"isfamily":0},{"id":"48286262427","owner":"131222116@N06","secret":"64edf5e9d0","server":"65535","farm":66,"title":"Inland Thornbill","ispublic":1,"isfriend":0,"isfamily":0},{"id":"48194947532","owner":"152963277@N08","secret":"8b07e2b335","server":"65535","farm":66,"title":"Inland Thornbill ..Acanthiza apicalis Acanthizidae","ispublic":1,"isfriend":0,"isfamily":0},{"id":"47673600081","owner":"29362286@N08","secret":"af238622c4","server":"65535","farm":66,"title":"Inland Thornbill","ispublic":1,"isfriend":0,"isfamily":0},{"id":"40196767153","owner":"151677249@N08","secret":"77bcea3b7e","server":"7822","farm":8,"title":"Inland Thornbill (Acanthiza apicalis)","ispublic":1,"isfriend":0,"isfamily":0},{"id":"46970881092","owner":"14888671@N02","secret":"4f4dae725d","server":"7831","farm":8,"title":"Inland Thornbill","ispublic":1,"isfriend":0,"isfamily":0},{"id":"44941087575","owner":"50809355@N06","secret":"04fbb2a402","server":"1901","farm":2,"title":"Inland Thornbill Acanthiza apicalis Acanthizidae Norman's Beach WA 01","ispublic":1,"isfriend":0,"isfamily":0}]},"stat":"ok"}