{"photos":{"page":1,"pages":94,"perpage":100,"total":9378,"photo":[{"id":"52715379620","owner":"47533293@N04","secret":"1445bef414","server":"65535","farm":66,"title":"Killdeer, Charadrius vociferus","ispublic":1,"isfriend":0,"isfamily":0},{"id":"52713428088","owner":"124995824@N08","secret":"5e0b759709","server":"65535","farm":66,"title":"Killdeer - Charadrius vociferus","ispublic":1,"isfriend":0,"isfamily":0},{"id":"52712166500","owner":"168495655@N07","secret":"77396ff511","server":"65535","farm":66,"title":"Pluvier kildir - Charadrius vociferus - Killdeer","ispublic":1,"isfriend":0,"isfamily":0},{"id":"52709345552","owner":"76782619@N04","secret":"40ac6cd46c","server":"65535","farm":66,"title":"Killdeer","ispublic":1,"isfriend":0,"isfamily":0},{"id":"52706222309","owner":"120449047@N06","secret":"8f411418ed","server":"65535","farm":66,"title":"Killdeer","ispublic":1,"isfriend":0,"isfamily":0},{"id":"52704292638","owner":"67277069@N06","secret":"9af6375be0","server":"65535","farm":66,"title":"Killdeer---Charadrius vociferus","ispublic":1,"isfriend":0,"isfamily":0},{"id":"52702747452","owner":"59206851@N00","secret":"68385e632c","server":"65535","farm":66,"title":"DSC_1568.jpg","ispublic":1,"isfriend":0,"isfamily":0},{"id":"52703692608","owner":"193911377@N04","secret":"2bd2c81013","server":"65535","farm":66,"title":"Gravelot kildir, Charadrius vociferus","ispublic":1,"isfriend":0,"isfamily":0},{"id":"52703459239","owner":"193911377@N04","secret":"9006b17d51","server":"65535","farm":66,"title":"Gravelot kildir, Charadrius vociferus","ispublic":1,"isfriend":0,"isfamily":0},{"id":"52703692563","owner":"193911377@N04","secret":"c42ea25b37","server":"65535","farm":66,"title":"Gravelot kildir, Charadrius vociferus","ispublic":1,"isfriend":0,"isfamily":0},{"id":"52699454795","owner":"130819719@N05","secret":"c38aa305dd","server":"65535","farm":66,"title":"Killdeer (m & f)","ispublic":1,"isfriend":0,"isfamily":0},{"id":"52692913908","owner":"62043870@N05","secret":"4e0b39f22d","server":"65535","farm":66,"title":"Killdeer, Charadrius vociferus","ispublic":1,"isfriend":0,"isfamily":0},{"id":"52691514668","owner":"191391950@N02","secret":"06c857b339","server":"65535","farm":66,"title":"Gravelot kildir - Charadrius vociferus","ispublic":1,"isfriend":0,"isfamily":0},{"id":"52691197049","owner":"170926355@N07","secret":"a1f67d3c28","server":"65535","farm":66,"title":"Gravelot kildir, Charadrius vociferus (Linnaeus, 1758)","ispublic":1,"isfriend":0,"isfamily":0},{"id":"52687931403","owner":"11815777@N07","secret":"5fb85962a5","server":"65535","farm":66,"title":"Before the hail","ispublic":1,"isfriend":0,"isfamily":0},{"id":"52683746805","owner":"90355165@N03","secret":"f4c9137bba","server":"65535","farm":66,"title":"killdeer","ispublic":1,"isfriend":0,"isfamily":0},{"id":"52682241721","owner":"62043870@N05","secret":"d11098e79c","server":"65535","farm":66,"title":"Killdeer, Charadrius vociferus","ispublic":1,"isfriend":0,"isfamily":0},{"id":"52678600807","owner":"93984873@N00","secret":"5753ab7d6d","server":"65535","farm":66,"title":"Kildeer (Charadrius vociferus)","ispublic":1,"isfriend":0,"isfamily":0},{"id":"52678181300","owner":"33610210@N05","secret":"d270ce0a5b","server":"65535","farm":66,"title":"Killdeer, Charadrius vociferus","ispublic":1,"isfriend":0,"isfamily":0},{"id":"52669190098","owner":"62907378@N07","secret":"670c709459","server":"65535","farm":66,"title":"Killdeer (Charadrius vociferus)","ispublic":1,"isfriend":0,"isfamily":0},{"id":"52668978484","owner":"62907378@N07","secret":"c4676f8a1d","server":"65535","farm":66,"title":"Killdeer (Charadrius vociferus)","ispublic":1,"isfriend":0,"isfamily":0},{"id":"52668691406","owner":"62907378@N07","secret":"6fa7c18ba3","server":"65535","farm":66,"title":"Killdeer (Charadrius vociferus)","ispublic":1,"isfriend":0,"isfamily":0},{"id":"52668691351","owner":"62907378@N07","secret":"578746c2af","server":"65535","farm":66,"title":"Killdeer (Charadrius vociferus)","ispublic":1,"isfriend":0,"isfamily":0},{"id":"52668573438","owner":"165841515@N03","secret":"4eec8ca540","server":"65535","farm":66,"title":"Pluvier kildir \/ Killdeer \/ (Charadrius vociferus)","ispublic":1,"isfriend":0,"isfamily":0},{"id":"52668572968","owner":"165841515@N03","secret":"556b99f484","server":"65535","farm":66,"title":"Pluvier kildir \/ Killdeer \/ (Charadrius vociferus)","ispublic":1,"isfriend":0,"isfamily":0},{"id":"52665945453","owner":"191391950@N02","secret":"76cfc2785d","server":"65535","farm":66,"title":"Gravelot kildir - Charadrius vociferus","ispublic":1,"isfriend":0,"isfamily":0},{"id":"52663384159","owner":"188352054@N08","secret":"cca5200ff3","server":"65535","farm":66,"title":"IMG_5959","ispublic":1,"isfriend":0,"isfamily":0},{"id":"52658475504","owner":"165841515@N03","secret":"474769c9e6","server":"65535","farm":66,"title":"Pluvier kildir \/ Killdeer \/ (Charadrius vociferus)","ispublic":1,"isfriend":0,"isfamily":0},{"id":"52657701827","owner":"165841515@N03","secret":"b91524e13a","server":"65535","farm":66,"title":"Pluvier kildir \/ Killdeer \/ (Charadrius vociferus)","ispublic":1,"isfriend":0,"isfamily":0},{"id":"52658684858","owner":"165841515@N03","secret":"4be0d4b991","server":"65535","farm":66,"title":"Pluvier kildir \/ Killdeer \/ (Charadrius vociferus)","ispublic":1,"isfriend":0,"isfamily":0},{"id":"52657895763","owner":"124995824@N08","secret":"a4eb40bc4e","server":"65535","farm":66,"title":"Killdeer - Charadrius vociferus","ispublic":1,"isfriend":0,"isfamily":0},{"id":"52643053701","owner":"22883988@N08","secret":"512e99b5a1","server":"65535","farm":66,"title":"Killdeer Foraging in White Sands National Park","ispublic":1,"isfriend":0,"isfamily":0},{"id":"52638261256","owner":"38514062@N03","secret":"4e52ea3032","server":"65535","farm":66,"title":"Killdeer (Charadrius vociferus)","ispublic":1,"isfriend":0,"isfamily":0},{"id":"52636650569","owner":"165841515@N03","secret":"94fe3aa109","server":"65535","farm":66,"title":"Pluvier kildir \/ Killdeer \/ (Charadrius vociferus)","ispublic":1,"isfriend":0,"isfamily":0},{"id":"52634079221","owner":"54546220@N00","secret":"d9cbf9c5d0","server":"65535","farm":66,"title":"Tiito \/  Killdeer (Charadrius vociferus)","ispublic":1,"isfriend":0,"isfamily":0},{"id":"52613025901","owner":"33665418@N06","secret":"5916bc38d0","server":"65535","farm":66,"title":"Plover\/Killdeer in the mud flat","ispublic":1,"isfriend":0,"isfamily":0},{"id":"52610910825","owner":"7856934@N03","secret":"acd4b8f9a8","server":"65535","farm":66,"title":"Killdeer","ispublic":1,"isfriend":0,"isfamily":0},{"id":"52604399420","owner":"44801995@N02","secret":"bab509935c","server":"65535","farm":66,"title":"Killdeer Charadrius vociferus","ispublic":1,"isfriend":0,"isfamily":0},{"id":"52599154793","owner":"90355165@N03","secret":"1a16513276","server":"65535","farm":66,"title":"killdeer","ispublic":1,"isfriend":0,"isfamily":0},{"id":"52589053032","owner":"28731195@N08","secret":"86e1849633","server":"65535","farm":66,"title":"Juvenile Killdeer (Charadrius vociferus)","ispublic":1,"isfriend":0,"isfamily":0},{"id":"52590052828","owner":"28731195@N08","secret":"88c95becfb","server":"65535","farm":66,"title":"Juvenile Killdeer (Charadrius vociferus)","ispublic":1,"isfriend":0,"isfamily":0},{"id":"52580823533","owner":"153973412@N04","secret":"0fff168101","server":"65535","farm":66,"title":"Killdeer-Charadrius vociferus, Iowa City, IA","ispublic":1,"isfriend":0,"isfamily":0},{"id":"52567162363","owner":"145489125@N03","secret":"4d86185a3a","server":"65535","farm":66,"title":"Killdeer ( Charadrius vociferus ) ... Wyoming , USA","ispublic":1,"isfriend":0,"isfamily":0},{"id":"52566425294","owner":"39445433@N02","secret":"d66516b6ae","server":"65535","farm":66,"title":"Kildeer","ispublic":1,"isfriend":0,"isfamily":0},{"id":"52564544857","owner":"34368269@N04","secret":"c7ba865e1b","server":"65535","farm":66,"title":"Killdeer","ispublic":1,"isfriend":0,"isfamily":0},{"id":"52564077175","owner":"188352054@N08","secret":"fb11eb954e","server":"65535","farm":66,"title":"IMG_3633","ispublic":1,"isfriend":0,"isfamily":0},{"id":"52563162552","owner":"188352054@N08","secret":"3089034624","server":"65535","farm":66,"title":"IMG_3637","ispublic":1,"isfriend":0,"isfamily":0},{"id":"52563162492","owner":"188352054@N08","secret":"92508c82eb","server":"65535","farm":66,"title":"IMG_3664","ispublic":1,"isfriend":0,"isfamily":0},{"id":"52551759536","owner":"145287509@N03","secret":"697f20c7f5","server":"65535","farm":66,"title":"Killdeer (Charadrius vociferus)","ispublic":1,"isfriend":0,"isfamily":0},{"id":"52547313596","owner":"195537536@N03","secret":"e8b75232f4","server":"65535","farm":66,"title":"Killdeer (Charadrius vociferus)","ispublic":1,"isfriend":0,"isfamily":0},{"id":"52545517544","owner":"77931884@N00","secret":"2ba56868cf","server":"65535","farm":66,"title":"Killdeer","ispublic":1,"isfriend":0,"isfamily":0},{"id":"52537364222","owner":"39617069@N08","secret":"3084b387fd","server":"65535","farm":66,"title":"Killdeer","ispublic":1,"isfriend":0,"isfamily":0},{"id":"52537308947","owner":"39617069@N08","secret":"a23af4fddd","server":"65535","farm":66,"title":"Killdeer","ispublic":1,"isfriend":0,"isfamily":0},{"id":"52537177522","owner":"92361032@N05","secret":"b95cbb00d6","server":"65535","farm":66,"title":"Killdeer \/ Pluvier kildir ( Diane )","ispublic":1,"isfriend":0,"isfamily":0},{"id":"52535390801","owner":"36013467@N07","secret":"d2fefe9b9a","server":"65535","farm":66,"title":"Killdeer (Charadrius vociferus)","ispublic":1,"isfriend":0,"isfamily":0},{"id":"52535357663","owner":"33610210@N05","secret":"ab74933272","server":"65535","farm":66,"title":"Charadrius vociferus, Killdeer","ispublic":1,"isfriend":0,"isfamily":0},{"id":"52530341169","owner":"128537732@N06","secret":"e244793b20","server":"65535","farm":66,"title":"Killdeer (Charadrius vociferus)","ispublic":1,"isfriend":0,"isfamily":0},{"id":"52526233689","owner":"62043870@N05","secret":"b1b7d15df7","server":"65535","farm":66,"title":"Killdeer, Charadrius vociferus","ispublic":1,"isfriend":0,"isfamily":0},{"id":"52526436145","owner":"62043870@N05","secret":"a073516837","server":"65535","farm":66,"title":"Pacific Golden-Plover (Pluvialis fulva)  and  Killdeer (Charadrius vociferus)","ispublic":1,"isfriend":0,"isfamily":0},{"id":"52525930299","owner":"9731845@N02","secret":"48f1ba0d44","server":"65535","farm":66,"title":"Killdeer (Charadrius vociferus)","ispublic":1,"isfriend":0,"isfamily":0},{"id":"52524966976","owner":"28867468@N08","secret":"fd221c930d","server":"65535","farm":66,"title":"Killdeer Stepping in the Early Morning Sea Foam","ispublic":1,"isfriend":0,"isfamily":0},{"id":"52524813318","owner":"76288515@N07","secret":"97aeda1523","server":"65535","farm":66,"title":"Killdeer Charadrius vociferus","ispublic":1,"isfriend":0,"isfamily":0},{"id":"52524542569","owner":"76288515@N07","secret":"813ec14140","server":"65535","farm":66,"title":"Killdeer Charadrius vociferus","ispublic":1,"isfriend":0,"isfamily":0},{"id":"52523793257","owner":"76288515@N07","secret":"098be178fd","server":"65535","farm":66,"title":"Killdeer Charadrius vociferus","ispublic":1,"isfriend":0,"isfamily":0},{"id":"52523793197","owner":"76288515@N07","secret":"3f0cac48b2","server":"65535","farm":66,"title":"Killdeer Charadrius vociferus","ispublic":1,"isfriend":0,"isfamily":0},{"id":"52523793152","owner":"76288515@N07","secret":"e9fbcef184","server":"65535","farm":66,"title":"Killdeer Charadrius vociferus","ispublic":1,"isfriend":0,"isfamily":0},{"id":"52524738930","owner":"76288515@N07","secret":"68109be3c8","server":"65535","farm":66,"title":"Killdeer Charadrius vociferus","ispublic":1,"isfriend":0,"isfamily":0},{"id":"52524259011","owner":"76288515@N07","secret":"0e012122d4","server":"65535","farm":66,"title":"Killdeer Charadrius vociferus","ispublic":1,"isfriend":0,"isfamily":0},{"id":"52519902658","owner":"30979614@N07","secret":"c0e19e5e90","server":"65535","farm":66,"title":"2021-08-02 Rollins Savanna 2","ispublic":1,"isfriend":0,"isfamily":0},{"id":"52517300982","owner":"53256251@N04","secret":"57d37a0546","server":"65535","farm":66,"title":"One of my favorite birds - Killdeer","ispublic":1,"isfriend":0,"isfamily":0},{"id":"52516325333","owner":"39445433@N02","secret":"2335b0f8c1","server":"65535","farm":66,"title":"Killdeer","ispublic":1,"isfriend":0,"isfamily":0},{"id":"52514360231","owner":"34238008@N02","secret":"1f2caff09a","server":"65535","farm":66,"title":"Killdeer (Charadrius vociferus)","ispublic":1,"isfriend":0,"isfamily":0},{"id":"52514845570","owner":"34238008@N02","secret":"f400828ac7","server":"65535","farm":66,"title":"Killdeer (Charadrius vociferus)","ispublic":1,"isfriend":0,"isfamily":0},{"id":"52513136298","owner":"111763853@N05","secret":"7a7df21b0e","server":"65535","farm":66,"title":"Killdeer (Charadrius vociferus) at Yellowstone National Park (USA)","ispublic":1,"isfriend":0,"isfamily":0},{"id":"52510462843","owner":"89367133@N00","secret":"868bcf9a66","server":"65535","farm":66,"title":"Pluvier kildir (Charadrius vociferus).","ispublic":1,"isfriend":0,"isfamily":0},{"id":"52505499223","owner":"30638967@N03","secret":"aaa963bd7a","server":"65535","farm":66,"title":"Killdeer DSC_5001","ispublic":1,"isfriend":0,"isfamily":0},{"id":"52495230111","owner":"64557331@N04","secret":"23e8553599","server":"65535","farm":66,"title":"Killdeer-(Charadrius vociferus)_06192022","ispublic":1,"isfriend":0,"isfamily":0},{"id":"52495230076","owner":"64557331@N04","secret":"3c8fc97fbc","server":"65535","farm":66,"title":"Killdeer-(Charadrius vociferus)_06182022","ispublic":1,"isfriend":0,"isfamily":0},{"id":"52494249780","owner":"132638863@N04","secret":"2fa7860d8d","server":"65535","farm":66,"title":"Killdeer \/ Pluvier kildir","ispublic":1,"isfriend":0,"isfamily":0},{"id":"52493995048","owner":"11815777@N07","secret":"36951a5131","server":"65535","farm":66,"title":"A very quiet Killdeer","ispublic":1,"isfriend":0,"isfamily":0},{"id":"52490028562","owner":"84175980@N00","secret":"b80665a5e5","server":"65535","farm":66,"title":"20220826 Charadrius vociferus (Killdeer)","ispublic":1,"isfriend":0,"isfamily":0},{"id":"52487949896","owner":"120449047@N06","secret":"e2d397282e","server":"65535","farm":66,"title":"Killdeer","ispublic":1,"isfriend":0,"isfamily":0},{"id":"52475264836","owner":"11802018@N07","secret":"f9094a5a4d","server":"65535","farm":66,"title":"killdeer eating morsel","ispublic":1,"isfriend":0,"isfamily":0},{"id":"52475264766","owner":"11802018@N07","secret":"0131d18686","server":"65535","farm":66,"title":"killdeer","ispublic":1,"isfriend":0,"isfamily":0},{"id":"52469629047","owner":"14572247@N07","secret":"153ed16000","server":"65535","farm":66,"title":"Killdeer","ispublic":1,"isfriend":0,"isfamily":0},{"id":"52465470351","owner":"75620067@N05","secret":"073cb7d184","server":"65535","farm":66,"title":"Kildeer","ispublic":1,"isfriend":0,"isfamily":0},{"id":"52466021363","owner":"75620067@N05","secret":"67a9ea46d7","server":"65535","farm":66,"title":"Kildeer","ispublic":1,"isfriend":0,"isfamily":0},{"id":"52464973771","owner":"67277069@N06","secret":"21a4ab5c13","server":"65535","farm":66,"title":"Killdeer---Charadrius vociferus","ispublic":1,"isfriend":0,"isfamily":0},{"id":"52457168998","owner":"78143623@N03","secret":"e6a1eca11e","server":"65535","farm":66,"title":"Kildeer (Charadrius vociferus) with worm_Oct 2022","ispublic":1,"isfriend":0,"isfamily":0},{"id":"52703267161","owner":"59206851@N00","secret":"c223a54a07","server":"65535","farm":66,"title":"DSC_1584.jpg","ispublic":1,"isfriend":0,"isfamily":0},{"id":"52703521624","owner":"59206851@N00","secret":"8c12e85dd4","server":"65535","farm":66,"title":"DSC_1550.jpg","ispublic":1,"isfriend":0,"isfamily":0},{"id":"52669125405","owner":"62907378@N07","secret":"7e08469a3c","server":"65535","farm":66,"title":"Killdeer (Charadrius vociferus)","ispublic":1,"isfriend":0,"isfamily":0},{"id":"52523793432","owner":"76288515@N07","secret":"e43b89953b","server":"65535","farm":66,"title":"Killdeer Charadrius vociferus","ispublic":1,"isfriend":0,"isfamily":0},{"id":"52524259321","owner":"76288515@N07","secret":"414e5b0e75","server":"65535","farm":66,"title":"Killdeer Charadrius vociferus","ispublic":1,"isfriend":0,"isfamily":0},{"id":"52524739215","owner":"76288515@N07","secret":"7f5f129c0a","server":"65535","farm":66,"title":"Killdeer Charadrius vociferus","ispublic":1,"isfriend":0,"isfamily":0},{"id":"52523793357","owner":"76288515@N07","secret":"336a3897f8","server":"65535","farm":66,"title":"Killdeer Charadrius vociferus","ispublic":1,"isfriend":0,"isfamily":0},{"id":"52524259156","owner":"76288515@N07","secret":"f3e63d4960","server":"65535","farm":66,"title":"Killdeer Charadrius vociferus","ispublic":1,"isfriend":0,"isfamily":0},{"id":"52523793232","owner":"76288515@N07","secret":"3848b680f7","server":"65535","farm":66,"title":"Killdeer Charadrius vociferus","ispublic":1,"isfriend":0,"isfamily":0},{"id":"52524813093","owner":"76288515@N07","secret":"bbb6bd1390","server":"65535","farm":66,"title":"Killdeer Charadrius vociferus","ispublic":1,"isfriend":0,"isfamily":0},{"id":"52495215982","owner":"51928691@N04","secret":"c08d79b585","server":"65535","farm":66,"title":"Killdeer (Charadrius vociferus) 1 111122","ispublic":1,"isfriend":0,"isfamily":0}]},"stat":"ok"}