{"photos":{"page":1,"pages":44,"perpage":100,"total":4382,"photo":[{"id":"52721444682","owner":"40941741@N03","secret":"126f1ce8ae","server":"65535","farm":66,"title":"Party Time","ispublic":1,"isfriend":0,"isfamily":0},{"id":"52716761857","owner":"65788177@N02","secret":"52fbf4a440","server":"65535","farm":66,"title":"Brown Pelican & Laughing Gull","ispublic":1,"isfriend":0,"isfamily":0},{"id":"52712428312","owner":"124995824@N08","secret":"6475807489","server":"65535","farm":66,"title":"Laughing Gull - Leucophaeus atricilla","ispublic":1,"isfriend":0,"isfamily":0},{"id":"52706788026","owner":"195537536@N03","secret":"ebd7bf89ea","server":"65535","farm":66,"title":"Laughing Gull (Leucophaeus atricilla)","ispublic":1,"isfriend":0,"isfamily":0},{"id":"52682976446","owner":"23711298@N07","secret":"e970564c0e","server":"65535","farm":66,"title":"Gull- Laughing Gull (Second Winter), Florida, Ormond Beach","ispublic":1,"isfriend":0,"isfamily":0},{"id":"52682458087","owner":"23711298@N07","secret":"5aa5669cd9","server":"65535","farm":66,"title":"Gull- Laughing Gull (Second Winter), Florida, Volusia County- Ormond Beach","ispublic":1,"isfriend":0,"isfamily":0},{"id":"52667070031","owner":"11295713@N00","secret":"cd39b8cc2f","server":"65535","farm":66,"title":"Laughing Gull (Leucophaeus atricilla) Admiring the Surf (crop)","ispublic":1,"isfriend":0,"isfamily":0},{"id":"52667572973","owner":"11295713@N00","secret":"e2cc5f5803","server":"65535","farm":66,"title":"Laughing Gull (Leucophaeus atricilla) Admiring the Surf","ispublic":1,"isfriend":0,"isfamily":0},{"id":"52667341379","owner":"11295713@N00","secret":"73dd2df3b7","server":"65535","farm":66,"title":"Laughing Gull (Leucophaeus atricilla) Wading in the Surf","ispublic":1,"isfriend":0,"isfamily":0},{"id":"52667327139","owner":"11295713@N00","secret":"c877b5050e","server":"65535","farm":66,"title":"Laughing Gull (Leucophaeus atricilla) Walking the Beach","ispublic":1,"isfriend":0,"isfamily":0},{"id":"52666940074","owner":"11295713@N00","secret":"b45cb18249","server":"65535","farm":66,"title":"Profile: Laughing Gull (Leucophaeus atricilla)","ispublic":1,"isfriend":0,"isfamily":0},{"id":"52667078825","owner":"11295713@N00","secret":"39bd9c552a","server":"65535","farm":66,"title":"Laughing Gull (Leucophaeus atricilla) Swimming near the Beach","ispublic":1,"isfriend":0,"isfamily":0},{"id":"52667074620","owner":"11295713@N00","secret":"437d2dddbe","server":"65535","farm":66,"title":"Laughing Gull (Leucophaeus atricilla) Drinking on the Beach","ispublic":1,"isfriend":0,"isfamily":0},{"id":"52666926014","owner":"11295713@N00","secret":"6acfc497fa","server":"65535","farm":66,"title":"Laughing Gull (Leucophaeus atricilla) Fishing on the Beach","ispublic":1,"isfriend":0,"isfamily":0},{"id":"52665782362","owner":"29882791@N02","secret":"4914397da3","server":"65535","farm":66,"title":"Laridae - Leucophaeus atricilla","ispublic":1,"isfriend":0,"isfamily":0},{"id":"52647164342","owner":"78223721@N03","secret":"339621ea72","server":"65535","farm":66,"title":"Leucophaeus atricilla","ispublic":1,"isfriend":0,"isfamily":0},{"id":"52647931809","owner":"78223721@N03","secret":"45f0a841d1","server":"65535","farm":66,"title":"Leucophaeus atricilla","ispublic":1,"isfriend":0,"isfamily":0},{"id":"52642170379","owner":"124995824@N08","secret":"5b2197fd53","server":"65535","farm":66,"title":"Laughing Gull - Leucophaeus atricilla","ispublic":1,"isfriend":0,"isfamily":0},{"id":"52640414637","owner":"48793602@N07","secret":"16e6bff027","server":"65535","farm":66,"title":"Terra Ceia Bay Royal Tern and Laughing Gull 01-12-2023","ispublic":1,"isfriend":0,"isfamily":0},{"id":"52641363655","owner":"48793602@N07","secret":"8d31e5614c","server":"65535","farm":66,"title":"Terra Ceia Bay Laughing Gull 01-12-2023","ispublic":1,"isfriend":0,"isfamily":0},{"id":"52639532189","owner":"48793602@N07","secret":"3dcfe084dd","server":"65535","farm":66,"title":"Terra Ceia Bay Royal Tern and Laughing Gull 01-12-2023","ispublic":1,"isfriend":0,"isfamily":0},{"id":"52639450664","owner":"129553350@N02","secret":"329b43a7b1","server":"65535","farm":66,"title":"Laughing Gull","ispublic":1,"isfriend":0,"isfamily":0},{"id":"52638057009","owner":"8065544@N08","secret":"f7b28a970b","server":"65535","farm":66,"title":"California Gulls (Larus californicus) take flight","ispublic":1,"isfriend":0,"isfamily":0},{"id":"52635646358","owner":"129553350@N02","secret":"3fbac649cc","server":"65535","farm":66,"title":"Laughing Gull","ispublic":1,"isfriend":0,"isfamily":0},{"id":"52632185414","owner":"47533293@N04","secret":"e2eeffa80c","server":"65535","farm":66,"title":"Laughing gull, Leucophaeus atricilla","ispublic":1,"isfriend":0,"isfamily":0},{"id":"52631992019","owner":"145466593@N08","secret":"cda226f7a2","server":"65535","farm":66,"title":"Laughing Gull","ispublic":1,"isfriend":0,"isfamily":0},{"id":"52631279779","owner":"51433704@N06","secret":"1e0ac1e65b","server":"65535","farm":66,"title":"Immature Laughing Gull","ispublic":1,"isfriend":0,"isfamily":0},{"id":"52627482057","owner":"142142910@N08","secret":"8495c5424f","server":"65535","farm":66,"title":"lachmeeuwen","ispublic":1,"isfriend":0,"isfamily":0},{"id":"52612915906","owner":"43898512@N07","secret":"50bf06429e","server":"65535","farm":66,"title":"Laughing Gull - Leucophaeus atricilla","ispublic":1,"isfriend":0,"isfamily":0},{"id":"52613337800","owner":"43898512@N07","secret":"b2190db7af","server":"65535","farm":66,"title":"Laughing Gull - Leucophaeus atricilla","ispublic":1,"isfriend":0,"isfamily":0},{"id":"52613172709","owner":"43898512@N07","secret":"c68e37064a","server":"65535","farm":66,"title":"Laughing Gull - Leucophaeus atricilla","ispublic":1,"isfriend":0,"isfamily":0},{"id":"52612403497","owner":"43898512@N07","secret":"954a6c8350","server":"65535","farm":66,"title":"Laughing Gull - Leucophaeus atricilla","ispublic":1,"isfriend":0,"isfamily":0},{"id":"52612911336","owner":"43898512@N07","secret":"9d57e4caf8","server":"65535","farm":66,"title":"Laughing Gull - Leucophaeus atricilla","ispublic":1,"isfriend":0,"isfamily":0},{"id":"52613332915","owner":"43898512@N07","secret":"8737c55d1e","server":"65535","farm":66,"title":"Laughing Gull - Leucophaeus atricilla","ispublic":1,"isfriend":0,"isfamily":0},{"id":"52612400282","owner":"43898512@N07","secret":"ed856b6a4b","server":"65535","farm":66,"title":"Laughing Gull - Leucophaeus atricilla","ispublic":1,"isfriend":0,"isfamily":0},{"id":"52613169114","owner":"43898512@N07","secret":"a4385813ca","server":"65535","farm":66,"title":"Laughing Gull - Leucophaeus atricilla","ispublic":1,"isfriend":0,"isfamily":0},{"id":"52612400052","owner":"43898512@N07","secret":"b2f675b1a6","server":"65535","farm":66,"title":"Laughing Gull - Leucophaeus atricilla","ispublic":1,"isfriend":0,"isfamily":0},{"id":"52612399987","owner":"43898512@N07","secret":"794a925b94","server":"65535","farm":66,"title":"Laughing Gull - Leucophaeus atricilla","ispublic":1,"isfriend":0,"isfamily":0},{"id":"52610414658","owner":"42964440@N08","secret":"8ab3a0b2c4","server":"65535","farm":66,"title":"Laughing Gull (Leucophaeus atricilla)","ispublic":1,"isfriend":0,"isfamily":0},{"id":"52592835951","owner":"194686784@N03","secret":"940b3b80e1","server":"65535","farm":66,"title":"Laughing gull","ispublic":1,"isfriend":0,"isfamily":0},{"id":"52589810042","owner":"24379925@N08","secret":"580e518b30","server":"65535","farm":66,"title":"LAUGHING GULLS","ispublic":1,"isfriend":0,"isfamily":0},{"id":"52579834157","owner":"153973412@N04","secret":"ffff9e5fd1","server":"65535","farm":66,"title":"Laughing Gull-Leucophaeus atricilla, South Padre Island, TX","ispublic":1,"isfriend":0,"isfamily":0},{"id":"52564464968","owner":"140318147@N08","secret":"4f22df9eb8","server":"65535","farm":66,"title":"royal tern, laughing gull (Thalasseus maximus, Leucophaeus atricilla) L4A7507","ispublic":1,"isfriend":0,"isfamily":0},{"id":"52564463923","owner":"140318147@N08","secret":"a5c17516d1","server":"65535","farm":66,"title":"laughing gull (Leucophaeus atricilla) L4A7470","ispublic":1,"isfriend":0,"isfamily":0},{"id":"52563714306","owner":"110624976@N05","secret":"baa1487560","server":"65535","farm":66,"title":"Adult Laughing Gull at Jekyll Island South Beach","ispublic":1,"isfriend":0,"isfamily":0},{"id":"52563148947","owner":"110624976@N05","secret":"aca7c1d6dc","server":"65535","farm":66,"title":"Laughing Gull at Jekyll Island South Beach","ispublic":1,"isfriend":0,"isfamily":0},{"id":"52551371719","owner":"140734051@N08","secret":"f836c7c324","server":"65535","farm":66,"title":"\u0410\u0446\u0442\u0435\u043a\u0441\u043a\u0430\u044f \u0447\u0430\u0439\u043a\u0430, Leucophaeus atricilla megalopterus, Laughing Gull","ispublic":1,"isfriend":0,"isfamily":0},{"id":"52550621802","owner":"140734051@N08","secret":"7baa412848","server":"65535","farm":66,"title":"\u0410\u0446\u0442\u0435\u043a\u0441\u043a\u0430\u044f \u0447\u0430\u0439\u043a\u0430, Leucophaeus atricilla megalopterus, Laughing Gull","ispublic":1,"isfriend":0,"isfamily":0},{"id":"52551370919","owner":"140734051@N08","secret":"8fb65b33fb","server":"65535","farm":66,"title":"\u0410\u0446\u0442\u0435\u043a\u0441\u043a\u0430\u044f \u0447\u0430\u0439\u043a\u0430, Leucophaeus atricilla megalopterus, Laughing Gull","ispublic":1,"isfriend":0,"isfamily":0},{"id":"52551547140","owner":"140734051@N08","secret":"a4e48a4069","server":"65535","farm":66,"title":"\u0410\u0446\u0442\u0435\u043a\u0441\u043a\u0430\u044f \u0447\u0430\u0439\u043a\u0430, Leucophaeus atricilla megalopterus, Laughing Gull","ispublic":1,"isfriend":0,"isfamily":0},{"id":"52550620712","owner":"140734051@N08","secret":"16ce95da47","server":"65535","farm":66,"title":"\u0410\u0446\u0442\u0435\u043a\u0441\u043a\u0430\u044f \u0447\u0430\u0439\u043a\u0430, Leucophaeus atricilla megalopterus, Laughing Gull","ispublic":1,"isfriend":0,"isfamily":0},{"id":"52547011882","owner":"17654080@N08","secret":"7ae2e37d9e","server":"65535","farm":66,"title":"Laughing Gull - Stratford, CT - 12\/6\/2022","ispublic":1,"isfriend":0,"isfamily":0},{"id":"52547011877","owner":"17654080@N08","secret":"2f0a4ac3f7","server":"65535","farm":66,"title":"Laughing Gull - Stratford, CT - 12\/6\/2022","ispublic":1,"isfriend":0,"isfamily":0},{"id":"52530054627","owner":"33610210@N05","secret":"ed2f92f2f4","server":"65535","farm":66,"title":"Laughing Gull, Leucophaeus atricilla","ispublic":1,"isfriend":0,"isfamily":0},{"id":"52513530313","owner":"39445433@N02","secret":"467e2afb75","server":"65535","farm":66,"title":"Laughing Gull","ispublic":1,"isfriend":0,"isfamily":0},{"id":"52512511127","owner":"39445433@N02","secret":"c1333e3b1e","server":"65535","farm":66,"title":"Laughing Gull","ispublic":1,"isfriend":0,"isfamily":0},{"id":"52513463865","owner":"39445433@N02","secret":"0b75cf2474","server":"65535","farm":66,"title":"Laughing Gull","ispublic":1,"isfriend":0,"isfamily":0},{"id":"52511204713","owner":"124995824@N08","secret":"06bb9be74c","server":"65535","farm":66,"title":"Laughing Gulls - Leucophaeus atricilla","ispublic":1,"isfriend":0,"isfamily":0},{"id":"52511204658","owner":"124995824@N08","secret":"b4442524ea","server":"65535","farm":66,"title":"Laughing Gull - Leucophaeus atricilla","ispublic":1,"isfriend":0,"isfamily":0},{"id":"52509803826","owner":"32665930@N04","secret":"427fb8b87a","server":"65535","farm":66,"title":"Laughing Gull","ispublic":1,"isfriend":0,"isfamily":0},{"id":"52496008543","owner":"124995824@N08","secret":"7930860e25","server":"65535","farm":66,"title":"Laughing Gull - Leucophaeus atricilla","ispublic":1,"isfriend":0,"isfamily":0},{"id":"52492035067","owner":"32665930@N04","secret":"03b783d5d6","server":"65535","farm":66,"title":"Laughing Gull","ispublic":1,"isfriend":0,"isfamily":0},{"id":"52493068283","owner":"32665930@N04","secret":"ba0f5b3ab5","server":"65535","farm":66,"title":"Laughing Gull","ispublic":1,"isfriend":0,"isfamily":0},{"id":"52462528695","owner":"84547312@N00","secret":"8e096c653e","server":"65535","farm":66,"title":"Eye to the Ground","ispublic":1,"isfriend":0,"isfamily":0},{"id":"52454433900","owner":"40941741@N03","secret":"3a5f9434d4","server":"65535","farm":66,"title":"Let's all just Get Along","ispublic":1,"isfriend":0,"isfamily":0},{"id":"52451020331","owner":"32665930@N04","secret":"6f96673009","server":"65535","farm":66,"title":"Laughing Gull","ispublic":1,"isfriend":0,"isfamily":0},{"id":"52446451894","owner":"40941741@N03","secret":"5f8df85af3","server":"65535","farm":66,"title":"Laughing Gull","ispublic":1,"isfriend":0,"isfamily":0},{"id":"52439375456","owner":"36611483@N03","secret":"ef0d08b0f9","server":"65535","farm":66,"title":"Caspian Gull","ispublic":1,"isfriend":0,"isfamily":0},{"id":"52436639863","owner":"16943730@N00","secret":"c48d35b945","server":"65535","farm":66,"title":"Laughing gull","ispublic":1,"isfriend":0,"isfamily":0},{"id":"52413269712","owner":"71989271@N06","secret":"7660884116","server":"65535","farm":66,"title":"Laughing Gull (Leucophaeus atricilla)","ispublic":1,"isfriend":0,"isfamily":0},{"id":"52414228910","owner":"71989271@N06","secret":"e534d72850","server":"65535","farm":66,"title":"Laughing Gull (Leucophaeus atricilla)","ispublic":1,"isfriend":0,"isfamily":0},{"id":"52401619066","owner":"96713629@N03","secret":"e7cc1cc54c","server":"65535","farm":66,"title":"Lachmeeuw - Laughing Gull (Leucophaeus atricilla)250_2712","ispublic":1,"isfriend":0,"isfamily":0},{"id":"52400760310","owner":"32665930@N04","secret":"eb3b936b22","server":"65535","farm":66,"title":"Laughing Gull","ispublic":1,"isfriend":0,"isfamily":0},{"id":"52394857379","owner":"163667952@N05","secret":"531a606cc8","server":"65535","farm":66,"title":"Laughing Gull","ispublic":1,"isfriend":0,"isfamily":0},{"id":"52383624534","owner":"124995824@N08","secret":"41111608f5","server":"65535","farm":66,"title":"Laughing Gull - Leucophaeus atricilla","ispublic":1,"isfriend":0,"isfamily":0},{"id":"52367939689","owner":"39445433@N02","secret":"8367b26158","server":"65535","farm":66,"title":"Laughing Gull","ispublic":1,"isfriend":0,"isfamily":0},{"id":"52360010355","owner":"34238008@N02","secret":"e0d2795b9e","server":"65535","farm":66,"title":"Laughing Gull (Leucophaeus atricilla)","ispublic":1,"isfriend":0,"isfamily":0},{"id":"52358764503","owner":"39445433@N02","secret":"e84070b80a","server":"65535","farm":66,"title":"Laughing Gull","ispublic":1,"isfriend":0,"isfamily":0},{"id":"52357580452","owner":"39445433@N02","secret":"2cd1e614c5","server":"65535","farm":66,"title":"Laughing Gull","ispublic":1,"isfriend":0,"isfamily":0},{"id":"52358764363","owner":"39445433@N02","secret":"fc85a4f277","server":"65535","farm":66,"title":"Laughing Gull","ispublic":1,"isfriend":0,"isfamily":0},{"id":"52358840484","owner":"39445433@N02","secret":"3ea63a7b77","server":"65535","farm":66,"title":"Laughing Gull","ispublic":1,"isfriend":0,"isfamily":0},{"id":"52357074276","owner":"34238008@N02","secret":"25d0ba3e81","server":"65535","farm":66,"title":"Laughing Gull (Leucophaeus atricilla)","ispublic":1,"isfriend":0,"isfamily":0},{"id":"52356126712","owner":"34238008@N02","secret":"707c8d4374","server":"65535","farm":66,"title":"Laughing Gull (Leucophaeus atricilla)","ispublic":1,"isfriend":0,"isfamily":0},{"id":"52357391654","owner":"34238008@N02","secret":"c2ec4c9a80","server":"65535","farm":66,"title":"Laughing Gull (Leucophaeus atricilla)","ispublic":1,"isfriend":0,"isfamily":0},{"id":"52642387788","owner":"124995824@N08","secret":"4fa79582fa","server":"65535","farm":66,"title":"Laughing Gull - Leucophaeus atricilla","ispublic":1,"isfriend":0,"isfamily":0},{"id":"52639752098","owner":"48793602@N07","secret":"00646ea713","server":"65535","farm":66,"title":"Terra Ceia Bay Laughing Gull 01-12-2023","ispublic":1,"isfriend":0,"isfamily":0},{"id":"52638043209","owner":"47533293@N04","secret":"6fa530f660","server":"65535","farm":66,"title":"Laughing gull, Leucophaeus atricilla","ispublic":1,"isfriend":0,"isfamily":0},{"id":"52584692247","owner":"144217344@N03","secret":"30b3653030","server":"65535","farm":66,"title":"Gisela_Nagel-Fl-4293-Aztekenm\u00f6we","ispublic":1,"isfriend":0,"isfamily":0},{"id":"52551546355","owner":"140734051@N08","secret":"71e3f78fed","server":"65535","farm":66,"title":"\u0410\u0446\u0442\u0435\u043a\u0441\u043a\u0430\u044f \u0447\u0430\u0439\u043a\u0430, Leucophaeus atricilla megalopterus, Laughing Gull","ispublic":1,"isfriend":0,"isfamily":0},{"id":"52530523381","owner":"33610210@N05","secret":"1f8d295042","server":"65535","farm":66,"title":"Laughing Gull, Leucophaeus atricilla","ispublic":1,"isfriend":0,"isfamily":0},{"id":"52513463820","owner":"39445433@N02","secret":"b9c1661e05","server":"65535","farm":66,"title":"Laughing Gull","ispublic":1,"isfriend":0,"isfamily":0},{"id":"52512361621","owner":"57126723@N07","secret":"b60cbbd9c8","server":"65535","farm":66,"title":"Laughing gull\u2014Leucophaeus atricilla\u2014Williamsburg Virginia-5483","ispublic":1,"isfriend":0,"isfamily":0},{"id":"52510349638","owner":"32665930@N04","secret":"75ec13e8e0","server":"65535","farm":66,"title":"Laughing Gull","ispublic":1,"isfriend":0,"isfamily":0},{"id":"52510076264","owner":"32665930@N04","secret":"b1c6aa610f","server":"65535","farm":66,"title":"Laughing Gull","ispublic":1,"isfriend":0,"isfamily":0},{"id":"52508934091","owner":"84169650@N07","secret":"a3c6a5745b","server":"65535","farm":66,"title":"Laughing Gull","ispublic":1,"isfriend":0,"isfamily":0},{"id":"52413784876","owner":"71989271@N06","secret":"0676dcfb62","server":"65535","farm":66,"title":"Laughing Gull (Leucophaeus atricilla)","ispublic":1,"isfriend":0,"isfamily":0},{"id":"52359903094","owner":"34238008@N02","secret":"af2e3da3d4","server":"65535","farm":66,"title":"Laughing Gull (Leucophaeus atricilla)","ispublic":1,"isfriend":0,"isfamily":0},{"id":"52358638352","owner":"34238008@N02","secret":"a07e271ae8","server":"65535","farm":66,"title":"Laughing Gull, immature (Leucophaeus atricilla)","ispublic":1,"isfriend":0,"isfamily":0},{"id":"52359589721","owner":"34238008@N02","secret":"304ab8748b","server":"65535","farm":66,"title":"Laughing Gull (Leucophaeus atricilla)","ispublic":1,"isfriend":0,"isfamily":0},{"id":"52357317503","owner":"34238008@N02","secret":"6839215373","server":"65535","farm":66,"title":"Laughing Gull (Leucophaeus atricilla)","ispublic":1,"isfriend":0,"isfamily":0}]},"stat":"ok"}