{"photos":{"page":1,"pages":63,"perpage":100,"total":6249,"photo":[{"id":"52720486668","owner":"12639178@N07","secret":"ee4f5c7522","server":"65535","farm":66,"title":"Wiesenstrandlaeufer","ispublic":1,"isfriend":0,"isfamily":0},{"id":"52709267731","owner":"61396634@N07","secret":"78f164891a","server":"65535","farm":66,"title":"Least Sandpiper","ispublic":1,"isfriend":0,"isfamily":0},{"id":"52703519859","owner":"59206851@N00","secret":"469441c4c4","server":"65535","farm":66,"title":"DSC_1458.jpg","ispublic":1,"isfriend":0,"isfamily":0},{"id":"52702233705","owner":"123979267@N05","secret":"6e615ce6c2","server":"65535","farm":66,"title":"High steppin' Least Sandpiper","ispublic":1,"isfriend":0,"isfamily":0},{"id":"52695565913","owner":"54059915@N07","secret":"d4176e1d8b","server":"65535","farm":66,"title":"Testing the water","ispublic":1,"isfriend":0,"isfamily":0},{"id":"52693417514","owner":"130021529@N02","secret":"3991b1acbc","server":"65535","farm":66,"title":"Calidris minutilla | Least Sandpiper | dv\u00e4rgsn\u00e4ppa","ispublic":1,"isfriend":0,"isfamily":0},{"id":"52693560495","owner":"130021529@N02","secret":"5e4dfc9cb6","server":"65535","farm":66,"title":"Calidris minutilla | Least Sandpiper | dv\u00e4rgsn\u00e4ppa","ispublic":1,"isfriend":0,"isfamily":0},{"id":"52692631047","owner":"130021529@N02","secret":"d3536c95ab","server":"65535","farm":66,"title":"Calidris minutilla | Least Sandpiper | dv\u00e4rgsn\u00e4ppa","ispublic":1,"isfriend":0,"isfamily":0},{"id":"52692081790","owner":"33610210@N05","secret":"04ac10a6de","server":"65535","farm":66,"title":"Least Sandpiper, Calidris minutilla","ispublic":1,"isfriend":0,"isfamily":0},{"id":"52691775225","owner":"130021529@N02","secret":"48c5426347","server":"65535","farm":66,"title":"Calidris minutilla | Least Sandpiper | dv\u00e4rgsn\u00e4ppa","ispublic":1,"isfriend":0,"isfamily":0},{"id":"52691390035","owner":"191391950@N02","secret":"2b5f12371f","server":"65535","farm":66,"title":"B\u00e9casseau minuscule - Calidris minutilla","ispublic":1,"isfriend":0,"isfamily":0},{"id":"52684652058","owner":"33005514@N04","secret":"0e46e88a8b","server":"65535","farm":66,"title":"Playerito \/ Calidris minutilla","ispublic":1,"isfriend":0,"isfamily":0},{"id":"52677614029","owner":"143326780@N02","secret":"584dd2d60c","server":"65535","farm":66,"title":"DSCN3927","ispublic":1,"isfriend":0,"isfamily":0},{"id":"52669630711","owner":"62043870@N05","secret":"6ffd0ff9dc","server":"65535","farm":66,"title":"Least Sandpipers, Calidris minutilla","ispublic":1,"isfriend":0,"isfamily":0},{"id":"52664461852","owner":"28867468@N08","secret":"035483b119","server":"65535","farm":66,"title":"Least Sandpipers Out on a Limb, King Tide","ispublic":1,"isfriend":0,"isfamily":0},{"id":"52655631802","owner":"34238008@N02","secret":"2ed2220dd9","server":"65535","farm":66,"title":"Least Sandpiper (Calidris minutilla)","ispublic":1,"isfriend":0,"isfamily":0},{"id":"52656610723","owner":"34238008@N02","secret":"caec3df8b4","server":"65535","farm":66,"title":"Least Sandpiper (Calidris minutilla)","ispublic":1,"isfriend":0,"isfamily":0},{"id":"52656118686","owner":"34238008@N02","secret":"013123484e","server":"65535","farm":66,"title":"Least Sandpiper (Calidris minutilla)","ispublic":1,"isfriend":0,"isfamily":0},{"id":"52656401309","owner":"34238008@N02","secret":"fa0bf549c1","server":"65535","farm":66,"title":"Least Sandpiper (Calidris minutilla)","ispublic":1,"isfriend":0,"isfamily":0},{"id":"52656610288","owner":"34238008@N02","secret":"d39b7fe1af","server":"65535","farm":66,"title":"Least Sandpiper (Calidris minutilla)","ispublic":1,"isfriend":0,"isfamily":0},{"id":"52656401004","owner":"34238008@N02","secret":"0f69c8785a","server":"65535","farm":66,"title":"Least Sandpiper (Calidris minutilla)","ispublic":1,"isfriend":0,"isfamily":0},{"id":"52638311506","owner":"76617062@N08","secret":"340c113e89","server":"65535","farm":66,"title":"1.03731 B\u00e9casseau minuscule \/ Calidris minutilla \/ Least Sandpiper","ispublic":1,"isfriend":0,"isfamily":0},{"id":"52605034848","owner":"23020855@N03","secret":"68b4140a9a","server":"65535","farm":66,"title":"Least Sandpiper - Blackie Spit, BC","ispublic":1,"isfriend":0,"isfamily":0},{"id":"52596448807","owner":"85391626@N07","secret":"e531bb0fdc","server":"65535","farm":66,"title":"Least Sandpiper","ispublic":1,"isfriend":0,"isfamily":0},{"id":"52595532975","owner":"62043870@N05","secret":"148a5a87c0","server":"65535","farm":66,"title":"Least Sandpipers, Calidris minutilla","ispublic":1,"isfriend":0,"isfamily":0},{"id":"52580298821","owner":"153973412@N04","secret":"762acbff19","server":"65535","farm":66,"title":"Least Sandpiper-Calidris minutilla, Iowa City, IA","ispublic":1,"isfriend":0,"isfamily":0},{"id":"52564077175","owner":"188352054@N08","secret":"fb11eb954e","server":"65535","farm":66,"title":"IMG_3633","ispublic":1,"isfriend":0,"isfamily":0},{"id":"52563162552","owner":"188352054@N08","secret":"3089034624","server":"65535","farm":66,"title":"IMG_3637","ispublic":1,"isfriend":0,"isfamily":0},{"id":"52563162492","owner":"188352054@N08","secret":"92508c82eb","server":"65535","farm":66,"title":"IMG_3664","ispublic":1,"isfriend":0,"isfamily":0},{"id":"52561857582","owner":"33610210@N05","secret":"68f9c8432e","server":"65535","farm":66,"title":"Least Sandpiper, Calidris minutilla","ispublic":1,"isfriend":0,"isfamily":0},{"id":"52562779260","owner":"33610210@N05","secret":"4d8a4bd395","server":"65535","farm":66,"title":"Least Sandpiper, Calidris minutilla","ispublic":1,"isfriend":0,"isfamily":0},{"id":"52560904152","owner":"7331818@N02","secret":"2b861c33a3","server":"65535","farm":66,"title":"Least","ispublic":1,"isfriend":0,"isfamily":0},{"id":"52561065658","owner":"28845654@N08","secret":"2dbc2003c7","server":"65535","farm":66,"title":"LEAST SANDPIPER 1","ispublic":1,"isfriend":0,"isfamily":0},{"id":"52553307250","owner":"62501256@N05","secret":"ca46800dda","server":"65535","farm":66,"title":"Least Sandpiper (Calidris minutilla), winter plumage","ispublic":1,"isfriend":0,"isfamily":0},{"id":"52553298540","owner":"62501256@N05","secret":"376e179d3c","server":"65535","farm":66,"title":"Least Sandpiper (Calidris minutilla), winter plumage","ispublic":1,"isfriend":0,"isfamily":0},{"id":"52550556294","owner":"73431753@N00","secret":"267bffe9cb","server":"65535","farm":66,"title":"Lesser Sandpiper \"peeps\" along the Ballona Creek estuary","ispublic":1,"isfriend":0,"isfamily":0},{"id":"52539262429","owner":"33610210@N05","secret":"5e230b0cb8","server":"65535","farm":66,"title":"Least Sandpiper, Calidris minutilla","ispublic":1,"isfriend":0,"isfamily":0},{"id":"52538504552","owner":"33610210@N05","secret":"fc8a939e10","server":"65535","farm":66,"title":"Least Sandpiper, Calidris minutilla","ispublic":1,"isfriend":0,"isfamily":0},{"id":"52538793198","owner":"29170368@N03","secret":"756052525c","server":"65535","farm":66,"title":"Least Sandpiper","ispublic":1,"isfriend":0,"isfamily":0},{"id":"52537954371","owner":"76288515@N07","secret":"3be0cca430","server":"65535","farm":66,"title":"Least Sandpiper Calidris minutilla","ispublic":1,"isfriend":0,"isfamily":0},{"id":"52537951931","owner":"193483104@N04","secret":"f8254027b8","server":"65535","farm":66,"title":"Least Sandpiper (Calidris minutilla)","ispublic":1,"isfriend":0,"isfamily":0},{"id":"52534346807","owner":"33610210@N05","secret":"72f4b0a6d8","server":"65535","farm":66,"title":"Least Sandpiper, Calidris minutilla","ispublic":1,"isfriend":0,"isfamily":0},{"id":"52534038615","owner":"131037795@N03","secret":"6beb2bfebe","server":"65535","farm":66,"title":"Least Sandpiper (Calidris minutilla)","ispublic":1,"isfriend":0,"isfamily":0},{"id":"52531282316","owner":"92361032@N05","secret":"995911625d","server":"65535","farm":66,"title":"Least Sandpiper \/B\u00e9casseau minuscule ( Diane )","ispublic":1,"isfriend":0,"isfamily":0},{"id":"52530028444","owner":"193483104@N04","secret":"95ddd3a677","server":"65535","farm":66,"title":"Least Sandpiper (Calidris minutilla)","ispublic":1,"isfriend":0,"isfamily":0},{"id":"52529391786","owner":"194196140@N08","secret":"942e2720d3","server":"65535","farm":66,"title":"Least Sandpiper (Calidris minutilla)","ispublic":1,"isfriend":0,"isfamily":0},{"id":"52523712657","owner":"11803211@N06","secret":"5b6100efbd","server":"65535","farm":66,"title":"Least sandpiper (Calidris minutilla) portrait, Fort DeSoto, Florida","ispublic":1,"isfriend":0,"isfamily":0},{"id":"52520038237","owner":"70295563@N00","secret":"13cdc939f9","server":"65535","farm":66,"title":"Balance","ispublic":1,"isfriend":0,"isfamily":0},{"id":"52512838245","owner":"7546739@N08","secret":"d28fa2115a","server":"65535","farm":66,"title":"Least Sandpipers","ispublic":1,"isfriend":0,"isfamily":0},{"id":"52510483798","owner":"140734051@N08","secret":"7d68d3b244","server":"65535","farm":66,"title":"\u041f\u0435\u0441\u043e\u0447\u043d\u0438\u043a-\u043a\u0440\u043e\u0448\u043a\u0430, Calidris minutilla, Least Sandpiper","ispublic":1,"isfriend":0,"isfamily":0},{"id":"52510209594","owner":"140734051@N08","secret":"05efcfa725","server":"65535","farm":66,"title":"\u041f\u0435\u0441\u043e\u0447\u043d\u0438\u043a-\u043a\u0440\u043e\u0448\u043a\u0430, Calidris minutilla, Least Sandpiper","ispublic":1,"isfriend":0,"isfamily":0},{"id":"52509458362","owner":"140734051@N08","secret":"0eb67fc2b5","server":"65535","farm":66,"title":"\u041f\u0435\u0441\u043e\u0447\u043d\u0438\u043a-\u043a\u0440\u043e\u0448\u043a\u0430, Calidris minutilla, Least Sandpiper","ispublic":1,"isfriend":0,"isfamily":0},{"id":"52510416345","owner":"140734051@N08","secret":"2ea00b0c60","server":"65535","farm":66,"title":"\u041f\u0435\u0441\u043e\u0447\u043d\u0438\u043a-\u043a\u0440\u043e\u0448\u043a\u0430, Calidris minutilla, Least Sandpiper","ispublic":1,"isfriend":0,"isfamily":0},{"id":"52508419059","owner":"140734051@N08","secret":"5f18375124","server":"65535","farm":66,"title":"\u041f\u0435\u0441\u043e\u0447\u043d\u0438\u043a-\u043a\u0440\u043e\u0448\u043a\u0430, Calidris minutilla, Least Sandpiper","ispublic":1,"isfriend":0,"isfamily":0},{"id":"52508693643","owner":"140734051@N08","secret":"acb2dd066e","server":"65535","farm":66,"title":"\u041f\u0435\u0441\u043e\u0447\u043d\u0438\u043a-\u043a\u0440\u043e\u0448\u043a\u0430, Calidris minutilla, Least Sandpiper","ispublic":1,"isfriend":0,"isfamily":0},{"id":"52508693618","owner":"140734051@N08","secret":"febc7f9e2f","server":"65535","farm":66,"title":"\u041f\u0435\u0441\u043e\u0447\u043d\u0438\u043a-\u043a\u0440\u043e\u0448\u043a\u0430, Calidris minutilla, Least Sandpiper","ispublic":1,"isfriend":0,"isfamily":0},{"id":"52507666377","owner":"140734051@N08","secret":"a037312dac","server":"65535","farm":66,"title":"\u041f\u0435\u0441\u043e\u0447\u043d\u0438\u043a-\u043a\u0440\u043e\u0448\u043a\u0430, Calidris minutilla, Least Sandpiper","ispublic":1,"isfriend":0,"isfamily":0},{"id":"52508692903","owner":"140734051@N08","secret":"a27933fdde","server":"65535","farm":66,"title":"\u041f\u0435\u0441\u043e\u0447\u043d\u0438\u043a-\u043a\u0440\u043e\u0448\u043a\u0430, Calidris minutilla, Least Sandpiper","ispublic":1,"isfriend":0,"isfamily":0},{"id":"52506074626","owner":"28867468@N08","secret":"d5a72b0699","server":"65535","farm":66,"title":"Least Sandpipers Coming Down at Flood Tide","ispublic":1,"isfriend":0,"isfamily":0},{"id":"52506345469","owner":"140734051@N08","secret":"8dce01403c","server":"65535","farm":66,"title":"\u041f\u0435\u0441\u043e\u0447\u043d\u0438\u043a-\u043a\u0440\u043e\u0448\u043a\u0430, Calidris minutilla, Least Sandpiper","ispublic":1,"isfriend":0,"isfamily":0},{"id":"52506345474","owner":"140734051@N08","secret":"b66b477494","server":"65535","farm":66,"title":"\u041f\u0435\u0441\u043e\u0447\u043d\u0438\u043a-\u043a\u0440\u043e\u0448\u043a\u0430, Calidris minutilla, Least Sandpiper","ispublic":1,"isfriend":0,"isfamily":0},{"id":"52506627088","owner":"140734051@N08","secret":"5b927e1616","server":"65535","farm":66,"title":"\u041f\u0435\u0441\u043e\u0447\u043d\u0438\u043a-\u043a\u0440\u043e\u0448\u043a\u0430, Calidris minutilla, Least Sandpiper","ispublic":1,"isfriend":0,"isfamily":0},{"id":"52505589337","owner":"140734051@N08","secret":"fda43a06e8","server":"65535","farm":66,"title":"\u041f\u0435\u0441\u043e\u0447\u043d\u0438\u043a-\u043a\u0440\u043e\u0448\u043a\u0430, Calidris minutilla, Least Sandpiper","ispublic":1,"isfriend":0,"isfamily":0},{"id":"52506072656","owner":"140734051@N08","secret":"3dda8d2484","server":"65535","farm":66,"title":"\u041f\u0435\u0441\u043e\u0447\u043d\u0438\u043a-\u043a\u0440\u043e\u0448\u043a\u0430, Calidris minutilla, Least Sandpiper","ispublic":1,"isfriend":0,"isfamily":0},{"id":"52505589067","owner":"140734051@N08","secret":"1d90224e3e","server":"65535","farm":66,"title":"\u041f\u0435\u0441\u043e\u0447\u043d\u0438\u043a-\u043a\u0440\u043e\u0448\u043a\u0430, Calidris minutilla, Least Sandpiper","ispublic":1,"isfriend":0,"isfamily":0},{"id":"52662262405","owner":"33610210@N05","secret":"95b0f1fe3d","server":"65535","farm":66,"title":"Least Sandpiper, Calidris minutilla","ispublic":1,"isfriend":0,"isfamily":0},{"id":"52647550716","owner":"62043870@N05","secret":"930c06c3cd","server":"65535","farm":66,"title":"Least Sandpiper, Calidris minutilla","ispublic":1,"isfriend":0,"isfamily":0},{"id":"52639608745","owner":"47533293@N04","secret":"8eed18fa3c","server":"65535","farm":66,"title":"Least sandpiper, Calidris minutilla","ispublic":1,"isfriend":0,"isfamily":0},{"id":"52538442267","owner":"62043870@N05","secret":"e7ddd4d8fc","server":"65535","farm":66,"title":"Least Sandpiper, Calidris minutilla","ispublic":1,"isfriend":0,"isfamily":0},{"id":"52537954486","owner":"76288515@N07","secret":"34306e1ff5","server":"65535","farm":66,"title":"Least Sandpiper Calidris minutilla","ispublic":1,"isfriend":0,"isfamily":0},{"id":"52537954451","owner":"76288515@N07","secret":"882b9a566a","server":"65535","farm":66,"title":"Least Sandpiper Calidris minutilla","ispublic":1,"isfriend":0,"isfamily":0},{"id":"52538246914","owner":"76288515@N07","secret":"c54b5a7726","server":"65535","farm":66,"title":"Least Sandpiper Calidris minutilla","ispublic":1,"isfriend":0,"isfamily":0},{"id":"52538246884","owner":"76288515@N07","secret":"8e8c3fbf2a","server":"65535","farm":66,"title":"Least Sandpiper Calidris minutilla","ispublic":1,"isfriend":0,"isfamily":0},{"id":"52537488902","owner":"76288515@N07","secret":"1d03a57eca","server":"65535","farm":66,"title":"Least Sandpiper Calidris minutilla","ispublic":1,"isfriend":0,"isfamily":0},{"id":"52538430715","owner":"76288515@N07","secret":"131d5afa38","server":"65535","farm":66,"title":"Least Sandpiper Calidris minutilla","ispublic":1,"isfriend":0,"isfamily":0},{"id":"52537954311","owner":"76288515@N07","secret":"777123ac1c","server":"65535","farm":66,"title":"Least Sandpiper Calidris minutilla","ispublic":1,"isfriend":0,"isfamily":0},{"id":"52538501638","owner":"76288515@N07","secret":"63c703d648","server":"65535","farm":66,"title":"Least Sandpiper Calidris minutilla","ispublic":1,"isfriend":0,"isfamily":0},{"id":"52537954291","owner":"76288515@N07","secret":"0aafac55b9","server":"65535","farm":66,"title":"Least Sandpiper Calidris minutilla","ispublic":1,"isfriend":0,"isfamily":0},{"id":"52537954256","owner":"76288515@N07","secret":"bc9034c5c5","server":"65535","farm":66,"title":"Least Sandpiper Calidris minutilla","ispublic":1,"isfriend":0,"isfamily":0},{"id":"52538246764","owner":"76288515@N07","secret":"fb64e4eb1a","server":"65535","farm":66,"title":"Least Sandpiper Calidris minutilla","ispublic":1,"isfriend":0,"isfamily":0},{"id":"52538246719","owner":"76288515@N07","secret":"4bb07aba91","server":"65535","farm":66,"title":"Least Sandpiper Calidris minutilla","ispublic":1,"isfriend":0,"isfamily":0},{"id":"52537488767","owner":"76288515@N07","secret":"203065964f","server":"65535","farm":66,"title":"Least Sandpiper Calidris minutilla","ispublic":1,"isfriend":0,"isfamily":0},{"id":"52535098524","owner":"33610210@N05","secret":"a37d063154","server":"65535","farm":66,"title":"Least Sandpiper, Calidris minutilla","ispublic":1,"isfriend":0,"isfamily":0},{"id":"52519507165","owner":"13451078@N03","secret":"a1db4fd8e7","server":"65535","farm":66,"title":"Least Sandpiper (Calidris minutilla)","ispublic":1,"isfriend":0,"isfamily":0},{"id":"52513154775","owner":"48014585@N00","secret":"42fecb6ab6","server":"65535","farm":66,"title":"Least Sandpiper","ispublic":1,"isfriend":0,"isfamily":0},{"id":"52512908678","owner":"7546739@N08","secret":"cf703f6efb","server":"65535","farm":66,"title":"Least Sandpiper","ispublic":1,"isfriend":0,"isfamily":0},{"id":"52510484223","owner":"140734051@N08","secret":"033da7dcd9","server":"65535","farm":66,"title":"\u041f\u0435\u0441\u043e\u0447\u043d\u0438\u043a-\u043a\u0440\u043e\u0448\u043a\u0430, Calidris minutilla, Least Sandpiper","ispublic":1,"isfriend":0,"isfamily":0},{"id":"52509937961","owner":"140734051@N08","secret":"1a85cc64c7","server":"65535","farm":66,"title":"\u041f\u0435\u0441\u043e\u0447\u043d\u0438\u043a-\u043a\u0440\u043e\u0448\u043a\u0430, Calidris minutilla, Least Sandpiper","ispublic":1,"isfriend":0,"isfamily":0},{"id":"52509937686","owner":"140734051@N08","secret":"87d3ca4e16","server":"65535","farm":66,"title":"\u041f\u0435\u0441\u043e\u0447\u043d\u0438\u043a-\u043a\u0440\u043e\u0448\u043a\u0430, Calidris minutilla, Least Sandpiper","ispublic":1,"isfriend":0,"isfamily":0},{"id":"52509458957","owner":"140734051@N08","secret":"8b9f7c1f42","server":"65535","farm":66,"title":"\u041f\u0435\u0441\u043e\u0447\u043d\u0438\u043a-\u043a\u0440\u043e\u0448\u043a\u0430, Calidris minutilla, Least Sandpiper","ispublic":1,"isfriend":0,"isfamily":0},{"id":"52510483153","owner":"140734051@N08","secret":"7ea7986d02","server":"65535","farm":66,"title":"\u041f\u0435\u0441\u043e\u0447\u043d\u0438\u043a-\u043a\u0440\u043e\u0448\u043a\u0430, Calidris minutilla, Least Sandpiper","ispublic":1,"isfriend":0,"isfamily":0},{"id":"52510416520","owner":"140734051@N08","secret":"12c846382c","server":"65535","farm":66,"title":"\u041f\u0435\u0441\u043e\u0447\u043d\u0438\u043a-\u043a\u0440\u043e\u0448\u043a\u0430, Calidris minutilla, Least Sandpiper","ispublic":1,"isfriend":0,"isfamily":0},{"id":"52508419069","owner":"140734051@N08","secret":"b97fdd7512","server":"65535","farm":66,"title":"\u041f\u0435\u0441\u043e\u0447\u043d\u0438\u043a-\u043a\u0440\u043e\u0448\u043a\u0430, Calidris minutilla, Least Sandpiper","ispublic":1,"isfriend":0,"isfamily":0},{"id":"52508693868","owner":"140734051@N08","secret":"6e19690983","server":"65535","farm":66,"title":"\u041f\u0435\u0441\u043e\u0447\u043d\u0438\u043a-\u043a\u0440\u043e\u0448\u043a\u0430, Calidris minutilla, Least Sandpiper","ispublic":1,"isfriend":0,"isfamily":0},{"id":"52508693498","owner":"140734051@N08","secret":"6aeb72d8f9","server":"65535","farm":66,"title":"\u041f\u0435\u0441\u043e\u0447\u043d\u0438\u043a-\u043a\u0440\u043e\u0448\u043a\u0430, Calidris minutilla, Least Sandpiper","ispublic":1,"isfriend":0,"isfamily":0},{"id":"52508146346","owner":"140734051@N08","secret":"e63d74c8e4","server":"65535","farm":66,"title":"\u041f\u0435\u0441\u043e\u0447\u043d\u0438\u043a-\u043a\u0440\u043e\u0448\u043a\u0430, Calidris minutilla, Least Sandpiper","ispublic":1,"isfriend":0,"isfamily":0},{"id":"52507666047","owner":"140734051@N08","secret":"f78243b5d5","server":"65535","farm":66,"title":"\u041f\u0435\u0441\u043e\u0447\u043d\u0438\u043a-\u043a\u0440\u043e\u0448\u043a\u0430, Calidris minutilla, Least Sandpiper","ispublic":1,"isfriend":0,"isfamily":0},{"id":"52506345489","owner":"140734051@N08","secret":"34f094edc5","server":"65535","farm":66,"title":"\u041f\u0435\u0441\u043e\u0447\u043d\u0438\u043a-\u043a\u0440\u043e\u0448\u043a\u0430, Calidris minutilla, Least Sandpiper","ispublic":1,"isfriend":0,"isfamily":0},{"id":"52506627463","owner":"140734051@N08","secret":"30712e171b","server":"65535","farm":66,"title":"\u041f\u0435\u0441\u043e\u0447\u043d\u0438\u043a-\u043a\u0440\u043e\u0448\u043a\u0430, Calidris minutilla, Least Sandpiper","ispublic":1,"isfriend":0,"isfamily":0},{"id":"52506627133","owner":"140734051@N08","secret":"2065422040","server":"65535","farm":66,"title":"\u041f\u0435\u0441\u043e\u0447\u043d\u0438\u043a-\u043a\u0440\u043e\u0448\u043a\u0430, Calidris minutilla, Least Sandpiper","ispublic":1,"isfriend":0,"isfamily":0}]},"stat":"ok"}