{"photos":{"page":1,"pages":23,"perpage":100,"total":2225,"photo":[{"id":"52721683867","owner":"90184981@N00","secret":"3d4c40ec65","server":"65535","farm":66,"title":"on the move.","ispublic":1,"isfriend":0,"isfamily":0},{"id":"52685177838","owner":"124995824@N08","secret":"e8836235f7","server":"65535","farm":66,"title":"Least Bittern - Ixobrychus exilis","ispublic":1,"isfriend":0,"isfamily":0},{"id":"52667456553","owner":"127040333@N07","secret":"a0211d2956","server":"65535","farm":66,"title":"DSC_8421","ispublic":1,"isfriend":0,"isfamily":0},{"id":"52664683148","owner":"122863253@N07","secret":"23171285c8","server":"65535","farm":66,"title":"Least bittern chick (Ixobrychus exilis)","ispublic":1,"isfriend":0,"isfamily":0},{"id":"52656914342","owner":"124995824@N08","secret":"747b29519d","server":"65535","farm":66,"title":"Least Bittern - Ixobrychus exilis","ispublic":1,"isfriend":0,"isfamily":0},{"id":"52642549141","owner":"197490463@N02","secret":"074568d329","server":"65535","farm":66,"title":"Least Bittern (Ixobrychus exilis)","ispublic":1,"isfriend":0,"isfamily":0},{"id":"52580299371","owner":"153973412@N04","secret":"e4f3603ba9","server":"65535","farm":66,"title":"Least Bittern-Ixobrychus exilis, Cone Marsh-IA","ispublic":1,"isfriend":0,"isfamily":0},{"id":"52521897669","owner":"196786375@N03","secret":"2bb1c75979","server":"65535","farm":66,"title":"Least Bittern","ispublic":1,"isfriend":0,"isfamily":0},{"id":"52495152494","owner":"48938938@N04","secret":"d65833ec37","server":"65535","farm":66,"title":"Least Bittern_Ixobrychus exilis_Ascanio_Guyana_DZ3A3110","ispublic":1,"isfriend":0,"isfamily":0},{"id":"52492359241","owner":"181824639@N02","secret":"a41837dbec","server":"65535","farm":66,"title":"Petit blongios ( Ixobrychus exilis )","ispublic":1,"isfriend":0,"isfamily":0},{"id":"52484029170","owner":"59777454@N02","secret":"bd19ca9208","server":"65535","farm":66,"title":"Least Bittern Tekiela TEK7696","ispublic":1,"isfriend":0,"isfamily":0},{"id":"52484114713","owner":"59777454@N02","secret":"6c38c50074","server":"65535","farm":66,"title":"Least Bittern Tekiela TEK7698","ispublic":1,"isfriend":0,"isfamily":0},{"id":"52443826078","owner":"34368269@N04","secret":"31463323b4","server":"65535","farm":66,"title":"Least Bittern","ispublic":1,"isfriend":0,"isfamily":0},{"id":"52442401999","owner":"34368269@N04","secret":"d0070218d5","server":"65535","farm":66,"title":"Least Bittern","ispublic":1,"isfriend":0,"isfamily":0},{"id":"52434865290","owner":"34368269@N04","secret":"0f54fa1782","server":"65535","farm":66,"title":"Least Bitterns","ispublic":1,"isfriend":0,"isfamily":0},{"id":"52427272423","owner":"92361032@N05","secret":"1b310c469c","server":"65535","farm":66,"title":"Least Bittern \/ Petit Blongios ( Richard )","ispublic":1,"isfriend":0,"isfamily":0},{"id":"52423201503","owner":"76617062@N08","secret":"59d33d1b6e","server":"65535","farm":66,"title":"1.02025 Petit Blongios (m\u00e2le) \/ Ixobrychus exilis exilis \/ Least Bittern","ispublic":1,"isfriend":0,"isfamily":0},{"id":"52371919760","owner":"181824639@N02","secret":"530bbf7c4f","server":"65535","farm":66,"title":"Petit Blongios  ( Ixobrychus exilis )","ispublic":1,"isfriend":0,"isfamily":0},{"id":"52364220860","owner":"22304442@N00","secret":"26d57bcb02","server":"65535","farm":66,"title":"petit blongios (last bittern)","ispublic":1,"isfriend":0,"isfamily":0},{"id":"52364107889","owner":"22304442@N00","secret":"218bcbe546","server":"65535","farm":66,"title":"petit blongios (last bittern)","ispublic":1,"isfriend":0,"isfamily":0},{"id":"52364025998","owner":"22304442@N00","secret":"f6cf6c0f4a","server":"65535","farm":66,"title":"petit blongios (last bittern)","ispublic":1,"isfriend":0,"isfamily":0},{"id":"52353485265","owner":"22304442@N00","secret":"626b73316b","server":"65535","farm":66,"title":"petit blongios (last bittern)","ispublic":1,"isfriend":0,"isfamily":0},{"id":"52353485100","owner":"22304442@N00","secret":"3b3b95c5c8","server":"65535","farm":66,"title":"petit blongios (last bittern)","ispublic":1,"isfriend":0,"isfamily":0},{"id":"52353055651","owner":"22304442@N00","secret":"0230a332ee","server":"65535","farm":66,"title":"petit blongios (last bittern)","ispublic":1,"isfriend":0,"isfamily":0},{"id":"52353300483","owner":"22304442@N00","secret":"063e26d51b","server":"65535","farm":66,"title":"petit blongios (last bittern)","ispublic":1,"isfriend":0,"isfamily":0},{"id":"52352351278","owner":"21147276@N03","secret":"aef27f372c","server":"65535","farm":66,"title":"Sneaky","ispublic":1,"isfriend":0,"isfamily":0},{"id":"52342109939","owner":"23939795@N04","secret":"73b36824ed","server":"65535","farm":66,"title":"Least Bittern and Blue-eyed Darner 4884","ispublic":1,"isfriend":0,"isfamily":0},{"id":"52337697165","owner":"24379925@N08","secret":"3cdc1987a8","server":"65535","farm":66,"title":"GREEN HERON","ispublic":1,"isfriend":0,"isfamily":0},{"id":"52331196737","owner":"164600255@N07","secret":"f667a04793","server":"65535","farm":66,"title":"Active Least Bitterns (adult and 3 little ones)","ispublic":1,"isfriend":0,"isfamily":0},{"id":"52332136601","owner":"164600255@N07","secret":"5d5010756e","server":"65535","farm":66,"title":"Are You My Mother?","ispublic":1,"isfriend":0,"isfamily":0},{"id":"52332136481","owner":"164600255@N07","secret":"fe1109c8a3","server":"65535","farm":66,"title":"Active Least Bitterns (adult and 3 little ones)","ispublic":1,"isfriend":0,"isfamily":0},{"id":"52331173392","owner":"164600255@N07","secret":"2a0a28f85f","server":"65535","farm":66,"title":"Active Least Bitterns (adult and 3 little ones)","ispublic":1,"isfriend":0,"isfamily":0},{"id":"52332431349","owner":"164600255@N07","secret":"ee608e4cdf","server":"65535","farm":66,"title":"Active Least Bitterns (adult and 3 little ones)","ispublic":1,"isfriend":0,"isfamily":0},{"id":"52331100967","owner":"188958062@N05","secret":"71cd305914","server":"65535","farm":66,"title":"Least Bittern, Ixobrychus exilis","ispublic":1,"isfriend":0,"isfamily":0},{"id":"52330352938","owner":"23939795@N04","secret":"8943eba1d4","server":"65535","farm":66,"title":"Least Bittern Immature 4700","ispublic":1,"isfriend":0,"isfamily":0},{"id":"52330063836","owner":"8086030@N03","secret":"4fea4e330f","server":"65535","farm":66,"title":"Least Bittern, Ixobrychus exilis, fledglings","ispublic":1,"isfriend":0,"isfamily":0},{"id":"52330456520","owner":"8086030@N03","secret":"14f1e6845f","server":"65535","farm":66,"title":"Least Bittern, Ixobrychus exilis, fledgling","ispublic":1,"isfriend":0,"isfamily":0},{"id":"52330456455","owner":"8086030@N03","secret":"1e45f2639e","server":"65535","farm":66,"title":"Least Bittern, Ixobrychus exilis, fledgling","ispublic":1,"isfriend":0,"isfamily":0},{"id":"52329073642","owner":"8086030@N03","secret":"ebf533a6b9","server":"65535","farm":66,"title":"Least Bittern, Ixobrychus exilis, fledgling","ispublic":1,"isfriend":0,"isfamily":0},{"id":"52330270728","owner":"8086030@N03","secret":"6674d264a7","server":"65535","farm":66,"title":"Least Bittern, Ixobrychus exilis, fledgling","ispublic":1,"isfriend":0,"isfamily":0},{"id":"52330024961","owner":"8086030@N03","secret":"09037c4fc7","server":"65535","farm":66,"title":"Least Bittern, Ixobrychus exilis, fledgling","ispublic":1,"isfriend":0,"isfamily":0},{"id":"52328190901","owner":"23939795@N04","secret":"5cf9bc5f33","server":"65535","farm":66,"title":"Least Bittern 4588","ispublic":1,"isfriend":0,"isfamily":0},{"id":"52323415641","owner":"103722035@N06","secret":"17bb2a142f","server":"65535","farm":66,"title":"Least Bittern (Ixobrychus exilis), juvenile, Oceano, CA","ispublic":1,"isfriend":0,"isfamily":0},{"id":"52323729158","owner":"103722035@N06","secret":"3976667482","server":"65535","farm":66,"title":"Least Bittern (Ixobrychus exilis), juvenile, Oceano, CA","ispublic":1,"isfriend":0,"isfamily":0},{"id":"52323636053","owner":"103722035@N06","secret":"b14e727405","server":"0","farm":0,"title":"Least Bittern (Ixobrychus exilis), juvenile, Oceano, CA","ispublic":1,"isfriend":0,"isfamily":0},{"id":"52316232590","owner":"35259356@N06","secret":"76ac6b1fda","server":"65535","farm":66,"title":"Bittern: Least Bittern","ispublic":1,"isfriend":0,"isfamily":0},{"id":"52314297991","owner":"71418112@N00","secret":"00f5d7162c","server":"65535","farm":66,"title":"Least bittern","ispublic":1,"isfriend":0,"isfamily":0},{"id":"52303919210","owner":"39177293@N03","secret":"3d8f9af69c","server":"65535","farm":66,"title":"Least Bittern","ispublic":1,"isfriend":0,"isfamily":0},{"id":"52303086081","owner":"186193378@N07","secret":"f9a5aee938","server":"65535","farm":66,"title":"Soco\u00ed-vermelho (Ixobrychus exilis) Least Bittern","ispublic":1,"isfriend":0,"isfamily":0},{"id":"52298257958","owner":"61241315@N00","secret":"6dd221742f","server":"0","farm":0,"title":"LEBI_185,191","ispublic":1,"isfriend":0,"isfamily":0},{"id":"52298246151","owner":"61241315@N00","secret":"a20873aa10","server":"0","farm":0,"title":"LEBI_0194","ispublic":1,"isfriend":0,"isfamily":0},{"id":"52298251981","owner":"61241315@N00","secret":"e0151d2df4","server":"65535","farm":66,"title":"DSCN0184","ispublic":1,"isfriend":0,"isfamily":0},{"id":"52298747830","owner":"61241315@N00","secret":"e00324acc6","server":"65535","farm":66,"title":"DSCN0188","ispublic":1,"isfriend":0,"isfamily":0},{"id":"52297263482","owner":"61241315@N00","secret":"868cbc3b9f","server":"65535","farm":66,"title":"DSCN0184","ispublic":1,"isfriend":0,"isfamily":0},{"id":"52298740660","owner":"61241315@N00","secret":"1320e2efcd","server":"65535","farm":66,"title":"DSCN0188","ispublic":1,"isfriend":0,"isfamily":0},{"id":"52298251133","owner":"61241315@N00","secret":"a8b10322c1","server":"65535","farm":66,"title":"DSCN0192","ispublic":1,"isfriend":0,"isfamily":0},{"id":"52294305767","owner":"97303805@N00","secret":"ea952013e0","server":"65535","farm":66,"title":"Least Bittern | Ixobrychus exilis | 2022 - 1","ispublic":1,"isfriend":0,"isfamily":0},{"id":"52295134480","owner":"61241315@N00","secret":"4087eb4148","server":"0","farm":0,"title":"Least Bittern_0433.MP4","ispublic":1,"isfriend":0,"isfamily":0},{"id":"52294914069","owner":"61241315@N00","secret":"514bb3aee2","server":"0","farm":0,"title":"Least Bittern_0430.MP4","ispublic":1,"isfriend":0,"isfamily":0},{"id":"52294656026","owner":"61241315@N00","secret":"662d5b1134","server":"0","farm":0,"title":"Least Bittern_0429.MP4","ispublic":1,"isfriend":0,"isfamily":0},{"id":"52293663582","owner":"61241315@N00","secret":"ba194cbefd","server":"0","farm":0,"title":"Least Bittern_0436.MP4","ispublic":1,"isfriend":0,"isfamily":0},{"id":"52295130800","owner":"61241315@N00","secret":"39dcc21c4a","server":"0","farm":0,"title":"Least Bittern_0439,42.MP4","ispublic":1,"isfriend":0,"isfamily":0},{"id":"52293671332","owner":"61241315@N00","secret":"37e4bfbc60","server":"65535","farm":66,"title":"Least Bittern_N0431","ispublic":1,"isfriend":0,"isfamily":0},{"id":"52293671262","owner":"61241315@N00","secret":"39e76ebaca","server":"65535","farm":66,"title":"Least Bittern_N0440","ispublic":1,"isfriend":0,"isfamily":0},{"id":"52294422835","owner":"92361032@N05","secret":"8d6a5c006f","server":"65535","farm":66,"title":"Least Bittern \/ Petit Blongios ( Richard )","ispublic":1,"isfriend":0,"isfamily":0},{"id":"52256950753","owner":"53239956@N06","secret":"68d8bbb2ac","server":"65535","farm":66,"title":"Difficut to see at times","ispublic":1,"isfriend":0,"isfamily":0},{"id":"52254877486","owner":"135315828@N06","secret":"0a2224a8bf","server":"65535","farm":66,"title":"least bittern","ispublic":1,"isfriend":0,"isfamily":0},{"id":"52247332636","owner":"38514062@N03","secret":"3b0eebf0a2","server":"65535","farm":66,"title":"Least Bittern (Ixobrychus exilis)","ispublic":1,"isfriend":0,"isfamily":0},{"id":"52247830775","owner":"38514062@N03","secret":"a403b9e2da","server":"65535","farm":66,"title":"Least Bittern (Ixobrychus exilis)","ispublic":1,"isfriend":0,"isfamily":0},{"id":"52241910632","owner":"54546220@N00","secret":"312ba7443d","server":"65535","farm":66,"title":"Martinetito, Least Bittern (Ixobrychus exilis)","ispublic":1,"isfriend":0,"isfamily":0},{"id":"52241908002","owner":"54546220@N00","secret":"111fbeb0fb","server":"65535","farm":66,"title":"Martinetito, Least Bittern (Ixobrychus exilis)","ispublic":1,"isfriend":0,"isfamily":0},{"id":"52243093404","owner":"125645386@N04","secret":"ea8736fb8d","server":"65535","farm":66,"title":"Petit blongios - Least bittern - Ixobrychus exilis","ispublic":1,"isfriend":0,"isfamily":0},{"id":"52236722067","owner":"125645386@N04","secret":"585b85c15f","server":"65535","farm":66,"title":"Petit blongios - Least bittern - Ixobrychus exilis","ispublic":1,"isfriend":0,"isfamily":0},{"id":"52236721772","owner":"125645386@N04","secret":"d32f7e5465","server":"65535","farm":66,"title":"Petit blongios - Least bittern - Ixobrychus exilis","ispublic":1,"isfriend":0,"isfamily":0},{"id":"52230716680","owner":"38514062@N03","secret":"82b7a55ede","server":"65535","farm":66,"title":"Least Bittern (Ixobrychus exilis)","ispublic":1,"isfriend":0,"isfamily":0},{"id":"52225481847","owner":"120449047@N06","secret":"393c3b5c6c","server":"65535","farm":66,"title":"Least Bittern","ispublic":1,"isfriend":0,"isfamily":0},{"id":"52219019592","owner":"71418112@N00","secret":"6d73a34478","server":"65535","farm":66,"title":"Dinner.","ispublic":1,"isfriend":0,"isfamily":0},{"id":"52214802721","owner":"53239956@N06","secret":"9261aebf77","server":"65535","farm":66,"title":"Mini Bittern","ispublic":1,"isfriend":0,"isfamily":0},{"id":"52213194317","owner":"165841515@N03","secret":"850dfa0867","server":"65535","farm":66,"title":"Petit Blongios \/ Least Bittern \/ (Ixobrychus exilis)","ispublic":1,"isfriend":0,"isfamily":0},{"id":"52214217923","owner":"165841515@N03","secret":"4ff28deea1","server":"65535","farm":66,"title":"Petit Blongios \/ Least Bittern \/ (Ixobrychus exilis)","ispublic":1,"isfriend":0,"isfamily":0},{"id":"52201922494","owner":"126601468@N05","secret":"cd102fe7a3","server":"65535","farm":66,"title":"Petit Blongios \/ Least bittern \u2642","ispublic":1,"isfriend":0,"isfamily":0},{"id":"52192998156","owner":"34368269@N04","secret":"efb21ac316","server":"65535","farm":66,"title":"Least Bittern","ispublic":1,"isfriend":0,"isfamily":0},{"id":"52184854015","owner":"53239956@N06","secret":"962c1065ec","server":"65535","farm":66,"title":"Missing my buddies","ispublic":1,"isfriend":0,"isfamily":0},{"id":"52184002938","owner":"181824639@N02","secret":"96b8d9ac4c","server":"65535","farm":66,"title":"Petit blongios ( Ixobrychus exilis )","ispublic":1,"isfriend":0,"isfamily":0},{"id":"52174290920","owner":"165841515@N03","secret":"3c5d3a9912","server":"65535","farm":66,"title":"Petit Blongios \/ Least Bittern \/ (Ixobrychus exilis)","ispublic":1,"isfriend":0,"isfamily":0},{"id":"52173816443","owner":"165841515@N03","secret":"c08e5c3b4e","server":"65535","farm":66,"title":"Petit Blongios \/ Least Bittern \/ (Ixobrychus exilis)","ispublic":1,"isfriend":0,"isfamily":0},{"id":"52172781432","owner":"165841515@N03","secret":"51342b3ed7","server":"65535","farm":66,"title":"Petit Blongios \/ Least Bittern \/ (Ixobrychus exilis)","ispublic":1,"isfriend":0,"isfamily":0},{"id":"52173802826","owner":"165841515@N03","secret":"077b52bb99","server":"65535","farm":66,"title":"Petit Blongios \/ Least Bittern \/ (Ixobrychus exilis)","ispublic":1,"isfriend":0,"isfamily":0},{"id":"52153611568","owner":"38514062@N03","secret":"7ee490650a","server":"65535","farm":66,"title":"Least Bittern (Ixobrychus exilis)","ispublic":1,"isfriend":0,"isfamily":0},{"id":"52153760224","owner":"39177293@N03","secret":"7488276e16","server":"65535","farm":66,"title":"Least Bittern","ispublic":1,"isfriend":0,"isfamily":0},{"id":"52154015580","owner":"39177293@N03","secret":"8e086e1401","server":"65535","farm":66,"title":"Least Bittern","ispublic":1,"isfriend":0,"isfamily":0},{"id":"52142199044","owner":"78145652@N02","secret":"77631b8c92","server":"65535","farm":66,"title":"Least Bittern - Ixobrychus exilis 3","ispublic":1,"isfriend":0,"isfamily":0},{"id":"52137237098","owner":"78145652@N02","secret":"98420262c9","server":"65535","farm":66,"title":"Least Bittern - Ixobrychus exilis","ispublic":1,"isfriend":0,"isfamily":0},{"id":"52115859240","owner":"34674638@N05","secret":"afcaa1c573","server":"65535","farm":66,"title":"Least Bittern","ispublic":1,"isfriend":0,"isfamily":0},{"id":"52115859155","owner":"34674638@N05","secret":"f787743b4b","server":"65535","farm":66,"title":"Least Bittern","ispublic":1,"isfriend":0,"isfamily":0},{"id":"52113182246","owner":"34674638@N05","secret":"7f34196b94","server":"65535","farm":66,"title":"Least Bittern","ispublic":1,"isfriend":0,"isfamily":0},{"id":"52113406779","owner":"193265066@N04","secret":"5a829576dd","server":"65535","farm":66,"title":"Petit Blongios, m\u00e2le \/ Ixobrychus exilis \/ Least Bittern, male","ispublic":1,"isfriend":0,"isfamily":0},{"id":"52091900003","owner":"39138537@N06","secret":"654c7f2699","server":"65535","farm":66,"title":"Least Bittern (Ixobrychus exilis)","ispublic":1,"isfriend":0,"isfamily":0},{"id":"52091881481","owner":"39138537@N06","secret":"9888680e71","server":"65535","farm":66,"title":"Least Bittern (Ixobrychus exilis)","ispublic":1,"isfriend":0,"isfamily":0},{"id":"52072138050","owner":"39138537@N06","secret":"ec8c1c63c2","server":"65535","farm":66,"title":"Least Bittern (Ixobrychus exilis)","ispublic":1,"isfriend":0,"isfamily":0}]},"stat":"ok"}