{"photos":{"page":1,"pages":156,"perpage":100,"total":15551,"photo":[{"id":"52713149986","owner":"81058247@N08","secret":"1be11a04cc","server":"65535","farm":66,"title":"Lesser Black-backed Gull (Larus fuscus)","ispublic":1,"isfriend":0,"isfamily":0},{"id":"52713401099","owner":"81058247@N08","secret":"2323fb6f04","server":"65535","farm":66,"title":"Lesser Black-backed Gull (Larus fuscus)","ispublic":1,"isfriend":0,"isfamily":0},{"id":"52713401069","owner":"81058247@N08","secret":"658aaf6934","server":"65535","farm":66,"title":"Lesser Black-backed Gull (Larus fuscus)","ispublic":1,"isfriend":0,"isfamily":0},{"id":"52713140676","owner":"81058247@N08","secret":"d467cc9832","server":"65535","farm":66,"title":"Lesser Black-backed Gull (Larus fuscus)","ispublic":1,"isfriend":0,"isfamily":0},{"id":"52712714668","owner":"128578170@N06","secret":"e670cb1eef","server":"65535","farm":66,"title":"Lesser Black-backed Gull Larus fuscus graellsii-intermedius","ispublic":1,"isfriend":0,"isfamily":0},{"id":"52712654620","owner":"128578170@N06","secret":"06f75ee3fb","server":"65535","farm":66,"title":"Lesser Black-backed Gull Larus fuscus graellsii-intermedius","ispublic":1,"isfriend":0,"isfamily":0},{"id":"52712714608","owner":"128578170@N06","secret":"19a6861039","server":"65535","farm":66,"title":"Lesser Black-backed Gull Larus fuscus graellsii-intermedius","ispublic":1,"isfriend":0,"isfamily":0},{"id":"52712562951","owner":"34238008@N02","secret":"63c3e881a0","server":"65535","farm":66,"title":"Lesser Black-backed Gull, 3rd yr (Larus fuscus)","ispublic":1,"isfriend":0,"isfamily":0},{"id":"52710527838","owner":"34238008@N02","secret":"52e40a6cf3","server":"65535","farm":66,"title":"Lesser Black-backed Gull, 3rd yr (Larus fuscus)","ispublic":1,"isfriend":0,"isfamily":0},{"id":"52710307349","owner":"34238008@N02","secret":"df46fb467a","server":"65535","farm":66,"title":"Lesser Black-backed Gull, 3rd yr (Larus fuscus)","ispublic":1,"isfriend":0,"isfamily":0},{"id":"52710046231","owner":"34238008@N02","secret":"3ec2a299b8","server":"65535","farm":66,"title":"Lesser Black-backed Gull, 3rd yr (Larus fuscus)","ispublic":1,"isfriend":0,"isfamily":0},{"id":"52710046081","owner":"34238008@N02","secret":"92c2837b4c","server":"65535","farm":66,"title":"Lesser Black-backed Gull, 3rd yr (Larus fuscus)","ispublic":1,"isfriend":0,"isfamily":0},{"id":"52710045971","owner":"34238008@N02","secret":"c325cd9bb5","server":"65535","farm":66,"title":"Lesser Black-backed Gull, 3rd yr (Larus fuscus)","ispublic":1,"isfriend":0,"isfamily":0},{"id":"52709283472","owner":"65345069@N02","secret":"bfa9e819fa","server":"65535","farm":66,"title":"Lesser Black-backed Gull (Larus fuscus)","ispublic":1,"isfriend":0,"isfamily":0},{"id":"52705891211","owner":"193259650@N02","secret":"c7e2cb3612","server":"65535","farm":66,"title":"Lesser Black-backed Gull - Larus fuscus","ispublic":1,"isfriend":0,"isfamily":0},{"id":"52697128332","owner":"120449047@N06","secret":"4eb8bda5f7","server":"65535","farm":66,"title":"Lesser Black-backed Gull","ispublic":1,"isfriend":0,"isfamily":0},{"id":"52697044899","owner":"13451078@N03","secret":"f1484ef036","server":"65535","farm":66,"title":"Lesser Black-backed Gull (Larus fuscus)","ispublic":1,"isfriend":0,"isfamily":0},{"id":"52695943576","owner":"197745515@N06","secret":"cd83c7e916","server":"65535","farm":66,"title":"Larus fuscus","ispublic":1,"isfriend":0,"isfamily":0},{"id":"52693974747","owner":"39177293@N03","secret":"3888c542a4","server":"65535","farm":66,"title":"Lesser Black-backed Gull","ispublic":1,"isfriend":0,"isfamily":0},{"id":"52692453684","owner":"65345069@N02","secret":"97b5b444cd","server":"65535","farm":66,"title":"Lesser Black-backed Gull (Larus fuscus)","ispublic":1,"isfriend":0,"isfamily":0},{"id":"52691500478","owner":"191391950@N02","secret":"69245529ab","server":"65535","farm":66,"title":"Go\u00e9land brun - Larus fuscus","ispublic":1,"isfriend":0,"isfamily":0},{"id":"52691499718","owner":"191391950@N02","secret":"e29a0a8203","server":"65535","farm":66,"title":"Go\u00e9land brun - Larus fuscus","ispublic":1,"isfriend":0,"isfamily":0},{"id":"52691499328","owner":"191391950@N02","secret":"4dcdbdfdb9","server":"65535","farm":66,"title":"Go\u00e9land brun - Larus fuscus","ispublic":1,"isfriend":0,"isfamily":0},{"id":"52690502194","owner":"65345069@N02","secret":"8591a23015","server":"65535","farm":66,"title":"Lesser Black-backed Gull (Larus fuscus)","ispublic":1,"isfriend":0,"isfamily":0},{"id":"52689715917","owner":"65345069@N02","secret":"377971b926","server":"65535","farm":66,"title":"Lesser Black-backed Gull (Larus fuscus)","ispublic":1,"isfriend":0,"isfamily":0},{"id":"52688814651","owner":"16498755@N07","secret":"fdcca84f92","server":"65535","farm":66,"title":"Lesser Black Backed Gull, Hafren Road, Thornhill, Cwmbran 14 February 2023","ispublic":1,"isfriend":0,"isfamily":0},{"id":"52686682933","owner":"65345069@N02","secret":"0ba50fb88a","server":"65535","farm":66,"title":"Lesser Black-backed Gull (Larus fuscus)","ispublic":1,"isfriend":0,"isfamily":0},{"id":"52686612225","owner":"65345069@N02","secret":"f7b39028ac","server":"65535","farm":66,"title":"Lesser Black-backed Gull (Larus fuscus)","ispublic":1,"isfriend":0,"isfamily":0},{"id":"52686612195","owner":"65345069@N02","secret":"45286a81af","server":"65535","farm":66,"title":"Lesser Black-backed Gull (Larus fuscus)","ispublic":1,"isfriend":0,"isfamily":0},{"id":"52684256086","owner":"136229414@N08","secret":"8334701dc9","server":"65535","farm":66,"title":"Go\u00e9land brun pr\u00e8s du Ch\u00e2teau de Bois-Himont","ispublic":1,"isfriend":0,"isfamily":0},{"id":"52677300405","owner":"50054477@N06","secret":"7164f81372","server":"65535","farm":66,"title":"Go\u00e9land brun (Larus fuscus)","ispublic":1,"isfriend":0,"isfamily":0},{"id":"52676128867","owner":"34238008@N02","secret":"9196af37f3","server":"65535","farm":66,"title":"Lesser Black-backed Gull, 3rd year (Larus fuscus)","ispublic":1,"isfriend":0,"isfamily":0},{"id":"52675148038","owner":"34238008@N02","secret":"6d22ab5a8c","server":"65535","farm":66,"title":"Lesser Black-backed Gull, 3rd year (Larus fuscus)","ispublic":1,"isfriend":0,"isfamily":0},{"id":"52674646071","owner":"34238008@N02","secret":"81d85485e5","server":"65535","farm":66,"title":"Lesser Black-backed Gull, 3rd year (Larus fuscus)","ispublic":1,"isfriend":0,"isfamily":0},{"id":"52674937199","owner":"34238008@N02","secret":"53865cfdde","server":"65535","farm":66,"title":"Lesser Black-backed Gull, 3rd year (Larus fuscus)","ispublic":1,"isfriend":0,"isfamily":0},{"id":"52675147548","owner":"34238008@N02","secret":"63196a6131","server":"65535","farm":66,"title":"Lesser Black-backed Gull, 3rd year (Larus fuscus)","ispublic":1,"isfriend":0,"isfamily":0},{"id":"52671665616","owner":"90072707@N03","secret":"255a03d89f","server":"65535","farm":66,"title":"Lesser Black-backed Gull (Larus fuscus) Queen Elizabeth NP Uganda","ispublic":1,"isfriend":0,"isfamily":0},{"id":"52670882096","owner":"90072707@N03","secret":"c1b28cb1d2","server":"65535","farm":66,"title":"Lesser Black-backed Gull (Larus fuscus) Queen Elizabeth NP Uganda","ispublic":1,"isfriend":0,"isfamily":0},{"id":"52671318750","owner":"90072707@N03","secret":"7b0f8d4b45","server":"65535","farm":66,"title":"Lesser Black-backed Gull (Larus fuscus) Queen Elizabeth NP Uganda","ispublic":1,"isfriend":0,"isfamily":0},{"id":"52671316705","owner":"90072707@N03","secret":"b5fdbe345b","server":"65535","farm":66,"title":"Lesser Black-backed Gull (Larus fuscus) Queen Elizabeth NP Uganda","ispublic":1,"isfriend":0,"isfamily":0},{"id":"52671313560","owner":"90072707@N03","secret":"2f15f208c8","server":"65535","farm":66,"title":"Lesser Black-backed Gull (Larus fuscus) Queen Elizabeth NP Uganda","ispublic":1,"isfriend":0,"isfamily":0},{"id":"52669522337","owner":"65345069@N02","secret":"ef2f0f13f6","server":"65535","farm":66,"title":"Lesser Black-backed Gull (Larus fuscus)","ispublic":1,"isfriend":0,"isfamily":0},{"id":"52665668887","owner":"130708126@N02","secret":"fe8ef7f118","server":"65535","farm":66,"title":"Goe\u0301land brun (Larus fuscus).jpg","ispublic":1,"isfriend":0,"isfamily":0},{"id":"52663427527","owner":"135315828@N06","secret":"23f3048dc9","server":"65535","farm":66,"title":"lesser black-backed gull","ispublic":1,"isfriend":0,"isfamily":0},{"id":"52661940452","owner":"65345069@N02","secret":"3ef429c0e5","server":"65535","farm":66,"title":"Lesser Black-backed Gull (Larus fuscus)","ispublic":1,"isfriend":0,"isfamily":0},{"id":"52662866450","owner":"94154730@N05","secret":"7f050350a0","server":"65535","farm":66,"title":"Lesser black-backed gull.","ispublic":1,"isfriend":0,"isfamily":0},{"id":"52661304039","owner":"196428382@N08","secret":"4f5da5e8ef","server":"65535","farm":66,"title":"Lesser Black-backed Gull at Redesmere","ispublic":1,"isfriend":0,"isfamily":0},{"id":"52660374006","owner":"65345069@N02","secret":"2cc006f851","server":"65535","farm":66,"title":"Lesser Black-backed Gull (Larus fuscus)","ispublic":1,"isfriend":0,"isfamily":0},{"id":"52656744720","owner":"127058286@N04","secret":"3e3ca89b1f","server":"65535","farm":66,"title":"Go\u00e9land brun - Lesser Black-backed Gull (intermedius) (L.f.intermedius) (Larus fuscus intermedius) - Penol - Les Ecommunaux (Is\u00e8re) France, le 29 janvier 2023","ispublic":1,"isfriend":0,"isfamily":0},{"id":"52654821918","owner":"15340201@N04","secret":"a1da806afc","server":"65535","farm":66,"title":"Lesser black-backed gull","ispublic":1,"isfriend":0,"isfamily":0},{"id":"52648702347","owner":"13451078@N03","secret":"60c7fbdfcb","server":"65535","farm":66,"title":"Lesser Black-backed Gull ( Larus fuscus)","ispublic":1,"isfriend":0,"isfamily":0},{"id":"52647574887","owner":"188480798@N05","secret":"783ef518ff","server":"65535","farm":66,"title":"Lesser Black-backed Gull (Larus Fuscus)","ispublic":1,"isfriend":0,"isfamily":0},{"id":"52647174384","owner":"52913721@N08","secret":"c161c7ed98","server":"65535","farm":66,"title":"Lesser Black-Backed Gull (Larus fuscus)","ispublic":1,"isfriend":0,"isfamily":0},{"id":"52646023455","owner":"8013969@N03","secret":"187e675aa0","server":"65535","farm":66,"title":"Larus fuscus DFL btr22-10","ispublic":1,"isfriend":0,"isfamily":0},{"id":"52646057368","owner":"8013969@N03","secret":"472e766f1b","server":"65535","farm":66,"title":"Larus fuscus DFL btr22-11","ispublic":1,"isfriend":0,"isfamily":0},{"id":"52644833293","owner":"12639178@N07","secret":"eeaf70855b","server":"65535","farm":66,"title":"Bitte Bestimmungshilfe Heringsm\u00f6we (Larus fuscus)","ispublic":1,"isfriend":0,"isfamily":0},{"id":"52643852137","owner":"12639178@N07","secret":"1e271cfa7a","server":"65535","farm":66,"title":"Bitte Bestimmungshilfe Heringsm\u00f6we (Larus fuscus)","ispublic":1,"isfriend":0,"isfamily":0},{"id":"52644355644","owner":"157107624@N06","secret":"6ffe2b5bd4","server":"65535","farm":66,"title":"Go\u00e9land brun (Larus fuscus)","ispublic":1,"isfriend":0,"isfamily":0},{"id":"52641447747","owner":"34238008@N02","secret":"f4c2d6b35b","server":"65535","farm":66,"title":"Lesser Black-backed Gull, 3rd year (Larus fuscus)","ispublic":1,"isfriend":0,"isfamily":0},{"id":"52642215444","owner":"34238008@N02","secret":"138206cac4","server":"65535","farm":66,"title":"Lesser Black-backed Gull, 3rd year (Larus fuscus)","ispublic":1,"isfriend":0,"isfamily":0},{"id":"52641960406","owner":"34238008@N02","secret":"09b78f8d04","server":"65535","farm":66,"title":"Lesser Black-backed Gull, 3rd year (Larus fuscus)","ispublic":1,"isfriend":0,"isfamily":0},{"id":"52641960336","owner":"34238008@N02","secret":"8d84b717c9","server":"65535","farm":66,"title":"Lesser Black-backed Gull, 3rd year (Larus fuscus)","ispublic":1,"isfriend":0,"isfamily":0},{"id":"52642432878","owner":"34238008@N02","secret":"114dba2f5c","server":"65535","farm":66,"title":"Lesser Black-backed Gull, 3rd year (Larus fuscus)","ispublic":1,"isfriend":0,"isfamily":0},{"id":"52641447137","owner":"34238008@N02","secret":"319c21a0a8","server":"65535","farm":66,"title":"Lesser Black-backed Gull, 3rd year (Larus fuscus)","ispublic":1,"isfriend":0,"isfamily":0},{"id":"52642078064","owner":"39854996@N00","secret":"ae80b33c19","server":"65535","farm":66,"title":"Lesser Black-backed Gull \"Larus fuscus\"","ispublic":1,"isfriend":0,"isfamily":0},{"id":"52640531778","owner":"34238008@N02","secret":"3fa5ef4c27","server":"65535","farm":66,"title":"Lesser Black-backed Gull, 3rd year (Larus fuscus)","ispublic":1,"isfriend":0,"isfamily":0},{"id":"52640493660","owner":"34238008@N02","secret":"0c88767632","server":"65535","farm":66,"title":"Lesser Black-backed Gull, 3rd year (Larus fuscus)","ispublic":1,"isfriend":0,"isfamily":0},{"id":"52640493590","owner":"34238008@N02","secret":"578e687811","server":"65535","farm":66,"title":"Lesser Black-backed Gull, 3rd year (Larus fuscus)","ispublic":1,"isfriend":0,"isfamily":0},{"id":"52640531323","owner":"34238008@N02","secret":"2789efe8ff","server":"65535","farm":66,"title":"Lesser Black-backed Gull, 3rd year (Larus fuscus)","ispublic":1,"isfriend":0,"isfamily":0},{"id":"52639385942","owner":"84169650@N07","secret":"64af096f22","server":"65535","farm":66,"title":"Lesser Black Backed Gull","ispublic":1,"isfriend":0,"isfamily":0},{"id":"52639887245","owner":"49694447@N00","secret":"769fec20ef","server":"65535","farm":66,"title":"Lesser black-backed gull (Larus fuscus)","ispublic":1,"isfriend":0,"isfamily":0},{"id":"52637284932","owner":"8065544@N08","secret":"a6d1aef72b","server":"65535","farm":66,"title":"Lesser-black-backed Gull (Larus fuscus)","ispublic":1,"isfriend":0,"isfamily":0},{"id":"52635308455","owner":"86682180@N00","secret":"c00e1a194c","server":"65535","farm":66,"title":"Kleine mantelmeeuw, juv.","ispublic":1,"isfriend":0,"isfamily":0},{"id":"52632282580","owner":"67164820@N06","secret":"e5a5dce728","server":"65535","farm":66,"title":"lesser black backed gull","ispublic":1,"isfriend":0,"isfamily":0},{"id":"52631024700","owner":"130708126@N02","secret":"51b70ce3c9","server":"65535","farm":66,"title":"Goe\u0301land brun (Larus fuscus).jpg","ispublic":1,"isfriend":0,"isfamily":0},{"id":"52628847969","owner":"12639178@N07","secret":"ba3266db27","server":"65535","farm":66,"title":"Heringsm\u00f6we im Abflug","ispublic":1,"isfriend":0,"isfamily":0},{"id":"52622790782","owner":"163623837@N06","secret":"f729e7d2cd","server":"65535","farm":66,"title":"hg_01CY10_dewN139561_MGL9410","ispublic":1,"isfriend":0,"isfamily":0},{"id":"52623786418","owner":"163623837@N06","secret":"cd113c161c","server":"65535","farm":66,"title":"hg_01CY10_dewN139561_MGL9412","ispublic":1,"isfriend":0,"isfamily":0},{"id":"52622415831","owner":"129461956@N02","secret":"f9e57fe742","server":"65535","farm":66,"title":"Heringsm\u00f6we ( Larus fuscus ) Lesser-Black-backed Gull","ispublic":1,"isfriend":0,"isfamily":0},{"id":"52671383788","owner":"90072707@N03","secret":"9fdf489f0d","server":"65535","farm":66,"title":"Lesser Black-backed Gull (Larus fuscus) Queen Elizabeth NP Uganda","ispublic":1,"isfriend":0,"isfamily":0},{"id":"52671319535","owner":"90072707@N03","secret":"314904d2e4","server":"65535","farm":66,"title":"Lesser Black-backed Gull (Larus fuscus) Queen Elizabeth NP Uganda","ispublic":1,"isfriend":0,"isfamily":0},{"id":"52670879256","owner":"90072707@N03","secret":"6d70b7c606","server":"65535","farm":66,"title":"Lesser Black-backed Gull (Larus fuscus) Queen Elizabeth NP Uganda","ispublic":1,"isfriend":0,"isfamily":0},{"id":"52667288501","owner":"12639178@N07","secret":"f5a7c40997","server":"65535","farm":66,"title":"Westliche Heringsm\u00f6we - versch. Alterskleider","ispublic":1,"isfriend":0,"isfamily":0},{"id":"52666793957","owner":"12639178@N07","secret":"886d8d0a26","server":"65535","farm":66,"title":"Westliche Heringsm\u00f6we - versch. Alterskleider","ispublic":1,"isfriend":0,"isfamily":0},{"id":"52666793742","owner":"12639178@N07","secret":"b720a0dc05","server":"65535","farm":66,"title":"Westliche Heringsm\u00f6we - adult, Winter","ispublic":1,"isfriend":0,"isfamily":0},{"id":"52655833122","owner":"12639178@N07","secret":"2d7ca961bd","server":"65535","farm":66,"title":"Heringsm\u00f6we, Playa Las Teresitas","ispublic":1,"isfriend":0,"isfamily":0},{"id":"52649498646","owner":"81058247@N08","secret":"311c5c7662","server":"65535","farm":66,"title":"Lesser Black-backed Gull (Larus fuscus)","ispublic":1,"isfriend":0,"isfamily":0},{"id":"52644930064","owner":"8013969@N03","secret":"2b388ed446","server":"65535","farm":66,"title":"Larus fuscus DFL la22-1","ispublic":1,"isfriend":0,"isfamily":0},{"id":"52644833448","owner":"12639178@N07","secret":"e263c57684","server":"65535","farm":66,"title":"Bitte Bestimmungshilfe Heringsm\u00f6we (Larus fuscus), Jungvogel","ispublic":1,"isfriend":0,"isfamily":0},{"id":"52643386131","owner":"8013969@N03","secret":"5197bddb07","server":"65535","farm":66,"title":"Larus fuscus DFL btr22-7","ispublic":1,"isfriend":0,"isfamily":0},{"id":"52643385866","owner":"8013969@N03","secret":"580346e893","server":"65535","farm":66,"title":"Larus fuscus DFL btr22-8","ispublic":1,"isfriend":0,"isfamily":0},{"id":"52643385516","owner":"8013969@N03","secret":"a7871d645e","server":"65535","farm":66,"title":"Larus fuscus DFL btr22-9","ispublic":1,"isfriend":0,"isfamily":0},{"id":"52643826210","owner":"8013969@N03","secret":"164e8a05cb","server":"65535","farm":66,"title":"Larus fuscus DFL btr22-10","ispublic":1,"isfriend":0,"isfamily":0},{"id":"52643826010","owner":"8013969@N03","secret":"f54822a113","server":"65535","farm":66,"title":"Larus fuscus DFL btr22-11","ispublic":1,"isfriend":0,"isfamily":0},{"id":"52643858898","owner":"8013969@N03","secret":"7db9ec9e23","server":"65535","farm":66,"title":"Larus fuscus DFL btr22-12","ispublic":1,"isfriend":0,"isfamily":0},{"id":"52643858708","owner":"8013969@N03","secret":"255e757eda","server":"65535","farm":66,"title":"Larus fuscus DFL btr22-13","ispublic":1,"isfriend":0,"isfamily":0},{"id":"52642880212","owner":"8013969@N03","secret":"2b42e41bda","server":"65535","farm":66,"title":"Larus fuscus DFL btr22-14","ispublic":1,"isfriend":0,"isfamily":0},{"id":"52642947855","owner":"12639178@N07","secret":"5744771517","server":"65535","farm":66,"title":"bettelnde junge Heringsm\u00f6we","ispublic":1,"isfriend":0,"isfamily":0},{"id":"52629153406","owner":"81058247@N08","secret":"a936cb2a54","server":"65535","farm":66,"title":"Lesser Black-backed Gull (Larus fuscus)","ispublic":1,"isfriend":0,"isfamily":0},{"id":"52628631522","owner":"81058247@N08","secret":"d0d80f6f0c","server":"65535","farm":66,"title":"Lesser Black-backed Gull (Larus fuscus)","ispublic":1,"isfriend":0,"isfamily":0}]},"stat":"ok"}