{"photos":{"page":1,"pages":36,"perpage":100,"total":3577,"photo":[{"id":"52720918129","owner":"196786375@N03","secret":"9188e774e2","server":"65535","farm":66,"title":"Lesser Goldfinch (m)","ispublic":1,"isfriend":0,"isfamily":0},{"id":"52711978085","owner":"33610210@N05","secret":"4f10202244","server":"65535","farm":66,"title":"Lesser Goldfinch, Spinus psaltria","ispublic":1,"isfriend":0,"isfamily":0},{"id":"52711038727","owner":"33610210@N05","secret":"d9f713f5e0","server":"65535","farm":66,"title":"Lesser Goldfinch, Spinus psaltria","ispublic":1,"isfriend":0,"isfamily":0},{"id":"52708145072","owner":"143326780@N02","secret":"051d55006a","server":"65535","farm":66,"title":"DSCN5236_Moment(9)","ispublic":1,"isfriend":0,"isfamily":0},{"id":"52708925509","owner":"143326780@N02","secret":"b7747e5219","server":"65535","farm":66,"title":"DSCN5236_Moment(10)","ispublic":1,"isfriend":0,"isfamily":0},{"id":"52708667571","owner":"143326780@N02","secret":"2e33a02072","server":"65535","farm":66,"title":"DSCN5236_Moment","ispublic":1,"isfriend":0,"isfamily":0},{"id":"52692792365","owner":"34238008@N02","secret":"51aca0470b","server":"65535","farm":66,"title":"Lesser Goldfinch (Spinus psaltria)","ispublic":1,"isfriend":0,"isfamily":0},{"id":"52692647229","owner":"34238008@N02","secret":"44097b490e","server":"65535","farm":66,"title":"Lesser Goldfinch (Spinus psaltria)","ispublic":1,"isfriend":0,"isfamily":0},{"id":"52692869083","owner":"34238008@N02","secret":"fac3212f81","server":"65535","farm":66,"title":"Lesser Goldfinch (Spinus psaltria)","ispublic":1,"isfriend":0,"isfamily":0},{"id":"52692646919","owner":"34238008@N02","secret":"e40700189b","server":"65535","farm":66,"title":"Lesser Goldfinch (Spinus psaltria)","ispublic":1,"isfriend":0,"isfamily":0},{"id":"52690426308","owner":"33610210@N05","secret":"c650d9daa8","server":"65535","farm":66,"title":"Lesser Goldfinch, Spinus psaltria","ispublic":1,"isfriend":0,"isfamily":0},{"id":"52679436258","owner":"151109375@N08","secret":"2eb5353ea5","server":"65535","farm":66,"title":"An adult male Lesser Goldfinch","ispublic":1,"isfriend":0,"isfamily":0},{"id":"52666210467","owner":"57356301@N06","secret":"dac213497f","server":"65535","farm":66,"title":"Lesser Goldfinch, Spinus psaltria","ispublic":1,"isfriend":0,"isfamily":0},{"id":"52666706541","owner":"57356301@N06","secret":"207ee4c650","server":"65535","farm":66,"title":"Lesser Goldfinch, Spinus psaltria","ispublic":1,"isfriend":0,"isfamily":0},{"id":"52666706471","owner":"57356301@N06","secret":"c59dff08b4","server":"65535","farm":66,"title":"Lesser Goldfinch, Spinus psaltria","ispublic":1,"isfriend":0,"isfamily":0},{"id":"52666998094","owner":"57356301@N06","secret":"1661864303","server":"65535","farm":66,"title":"Lesser Goldfinch, Spinus psaltria","ispublic":1,"isfriend":0,"isfamily":0},{"id":"52662972204","owner":"34238008@N02","secret":"7dd9d6979a","server":"65535","farm":66,"title":"Lesser Goldfinch (Spinus psaltria)","ispublic":1,"isfriend":0,"isfamily":0},{"id":"52649548639","owner":"23939795@N04","secret":"a13a41955c","server":"65535","farm":66,"title":"Lesser Goldfinch 8660","ispublic":1,"isfriend":0,"isfamily":0},{"id":"52635178525","owner":"131037795@N03","secret":"60dd583836","server":"65535","farm":66,"title":"Lesser Goldfinch (Spinus psaltria)","ispublic":1,"isfriend":0,"isfamily":0},{"id":"52628984548","owner":"62174414@N04","secret":"5fba5fc707","server":"65535","farm":66,"title":"Female Lesser Goldfinch (Spinus psaltria)","ispublic":1,"isfriend":0,"isfamily":0},{"id":"52622180095","owner":"77056186@N00","secret":"012294baac","server":"65535","farm":66,"title":"Lesser goldfinch","ispublic":1,"isfriend":0,"isfamily":0},{"id":"52622034380","owner":"61135968@N00","secret":"43c560e6bc","server":"65535","farm":66,"title":"Goldfinch","ispublic":1,"isfriend":0,"isfamily":0},{"id":"52617911958","owner":"27739770@N02","secret":"dd713c22d7","server":"65535","farm":66,"title":"Lesser Goldfinch","ispublic":1,"isfriend":0,"isfamily":0},{"id":"52614844304","owner":"34368269@N04","secret":"0040779c55","server":"65535","farm":66,"title":"Lesser Goldfinch","ispublic":1,"isfriend":0,"isfamily":0},{"id":"52597028281","owner":"33610210@N05","secret":"9c9c01f7e6","server":"65535","farm":66,"title":"Lesser Goldfinch, Spinus psaltria","ispublic":1,"isfriend":0,"isfamily":0},{"id":"52596541807","owner":"33610210@N05","secret":"5774c657d9","server":"65535","farm":66,"title":"Lesser Goldfinch, Spinus psaltria","ispublic":1,"isfriend":0,"isfamily":0},{"id":"52592743558","owner":"84175980@N00","secret":"cd2637851c","server":"65535","farm":66,"title":"20221122 Spinus psaltria (Lesser Goldfinch) (2)","ispublic":1,"isfriend":0,"isfamily":0},{"id":"52589672127","owner":"185659367@N04","secret":"3b131a88eb","server":"65535","farm":66,"title":"Thistles for breakfast","ispublic":1,"isfriend":0,"isfamily":0},{"id":"52582399596","owner":"33610210@N05","secret":"0c1f372a0f","server":"65535","farm":66,"title":"Lesser Goldfinch, Spinus psaltria","ispublic":1,"isfriend":0,"isfamily":0},{"id":"52582820608","owner":"65632611@N00","secret":"64da908c96","server":"65535","farm":66,"title":"Hahamongna Watershed Park: Less Goldfinch (9163)","ispublic":1,"isfriend":0,"isfamily":0},{"id":"52579832767","owner":"153973412@N04","secret":"80cd1918a6","server":"65535","farm":66,"title":"Lesser Goldfinch-Spinus psaltria, Monterey, CA","ispublic":1,"isfriend":0,"isfamily":0},{"id":"52561457325","owner":"34368269@N04","secret":"351f111357","server":"65535","farm":66,"title":"Lesser Goldfinch","ispublic":1,"isfriend":0,"isfamily":0},{"id":"52544138136","owner":"131708321@N02","secret":"de817a0b05","server":"65535","farm":66,"title":"Lesser Goldfinch (Spinus psaltria), Chiriqu\u00ed, Panama","ispublic":1,"isfriend":0,"isfamily":0},{"id":"52542140524","owner":"131708321@N02","secret":"08619a38cf","server":"65535","farm":66,"title":"Lesser Goldfinch (Spinus psaltria), Portal, Arizona","ispublic":1,"isfriend":0,"isfamily":0},{"id":"52542203383","owner":"124995824@N08","secret":"e3355869fe","server":"65535","farm":66,"title":"Lesser Goldfinch - Spinus psaltria","ispublic":1,"isfriend":0,"isfamily":0},{"id":"52539304318","owner":"28867468@N08","secret":"0919419c68","server":"65535","farm":66,"title":"Lesser Goldlfinch Feeding on Hooker's Evening Primrose Seeds","ispublic":1,"isfriend":0,"isfamily":0},{"id":"52531116595","owner":"33610210@N05","secret":"5dc4c9003f","server":"65535","farm":66,"title":"Lesser Goldfinch, Spinus psaltria","ispublic":1,"isfriend":0,"isfamily":0},{"id":"52516051339","owner":"145287509@N03","secret":"7a97885e2d","server":"65535","farm":66,"title":"Snappy Dresser All Year Long (See Caption)","ispublic":1,"isfriend":0,"isfamily":0},{"id":"52499305856","owner":"34238008@N02","secret":"19506f5456","server":"65535","farm":66,"title":"Lesser Goldfinch (Spinus psaltria)","ispublic":1,"isfriend":0,"isfamily":0},{"id":"52499588909","owner":"34238008@N02","secret":"ea9b540b40","server":"65535","farm":66,"title":"Lesser Goldfinch (Spinus psaltria)","ispublic":1,"isfriend":0,"isfamily":0},{"id":"52498817342","owner":"34238008@N02","secret":"f802742e7d","server":"65535","farm":66,"title":"Lesser Goldfinch (Spinus psaltria)","ispublic":1,"isfriend":0,"isfamily":0},{"id":"52468484056","owner":"34368269@N04","secret":"3fe22c4c7b","server":"65535","farm":66,"title":"Lesser Goldfinch","ispublic":1,"isfriend":0,"isfamily":0},{"id":"52463995138","owner":"7202153@N03","secret":"db71e81785","server":"65535","farm":66,"title":"Lesser Goldfinch (?) (male) - Desert Botanical Garden","ispublic":1,"isfriend":0,"isfamily":0},{"id":"52437772196","owner":"34368269@N04","secret":"7fa75a4d4d","server":"65535","farm":66,"title":"Lesser Goldfinch","ispublic":1,"isfriend":0,"isfamily":0},{"id":"52411326498","owner":"143326780@N02","secret":"cc124c6c70","server":"65535","farm":66,"title":"DSCN0252","ispublic":1,"isfriend":0,"isfamily":0},{"id":"52383570241","owner":"43898512@N07","secret":"3102e593e6","server":"65535","farm":66,"title":"Lesser Goldfinch - Spinus psaltria","ispublic":1,"isfriend":0,"isfamily":0},{"id":"52383995650","owner":"43898512@N07","secret":"6ce0de028f","server":"65535","farm":66,"title":"Lesser Goldfinch - Spinus psaltria","ispublic":1,"isfriend":0,"isfamily":0},{"id":"52376922432","owner":"12530381@N07","secret":"18f1b7b96f","server":"65535","farm":66,"title":"Lesser Goldfinch (Spinus psaltria) (7\/17\/2022)","ispublic":1,"isfriend":0,"isfamily":0},{"id":"52370216226","owner":"29673297@N08","secret":"f6097de1e3","server":"65535","farm":66,"title":"Solitude","ispublic":1,"isfriend":0,"isfamily":0},{"id":"52370070946","owner":"11815777@N07","secret":"e29453b7cc","server":"65535","farm":66,"title":"Getting into her work","ispublic":1,"isfriend":0,"isfamily":0},{"id":"52368705991","owner":"131037795@N03","secret":"5cebb417d2","server":"65535","farm":66,"title":"Lesser Goldfinch (Spinus psaltria)","ispublic":1,"isfriend":0,"isfamily":0},{"id":"52363985392","owner":"11815777@N07","secret":"90f76d938e","server":"65535","farm":66,"title":"Try getting a thistle seed separated with only your tongue!","ispublic":1,"isfriend":0,"isfamily":0},{"id":"52362877096","owner":"188958062@N05","secret":"44cba77cd9","server":"65535","farm":66,"title":"Lesser Goldfinch, Spinus psaltria","ispublic":1,"isfriend":0,"isfamily":0},{"id":"52708146392","owner":"143326780@N02","secret":"d6a2ff77df","server":"65535","farm":66,"title":"DSCN5232","ispublic":1,"isfriend":0,"isfamily":0},{"id":"52709155428","owner":"143326780@N02","secret":"1020da0da4","server":"65535","farm":66,"title":"DSCN5233","ispublic":1,"isfriend":0,"isfamily":0},{"id":"52709082775","owner":"143326780@N02","secret":"f438f6aefc","server":"65535","farm":66,"title":"DSCN5235","ispublic":1,"isfriend":0,"isfamily":0},{"id":"52709082550","owner":"143326780@N02","secret":"aa36b1db8c","server":"65535","farm":66,"title":"DSCN5236_Moment(2)","ispublic":1,"isfriend":0,"isfamily":0},{"id":"52708668281","owner":"143326780@N02","secret":"c695c57704","server":"65535","farm":66,"title":"DSCN5236_Moment(3)","ispublic":1,"isfriend":0,"isfamily":0},{"id":"52708145607","owner":"143326780@N02","secret":"a0ca440b48","server":"65535","farm":66,"title":"DSCN5236_Moment(4)","ispublic":1,"isfriend":0,"isfamily":0},{"id":"52709154798","owner":"143326780@N02","secret":"b02e549a3f","server":"65535","farm":66,"title":"DSCN5236_Moment(5)","ispublic":1,"isfriend":0,"isfamily":0},{"id":"52708925899","owner":"143326780@N02","secret":"77e283e4ec","server":"65535","farm":66,"title":"DSCN5236_Moment(6)","ispublic":1,"isfriend":0,"isfamily":0},{"id":"52708925809","owner":"143326780@N02","secret":"cd07c34603","server":"65535","farm":66,"title":"DSCN5236_Moment(7)","ispublic":1,"isfriend":0,"isfamily":0},{"id":"52708667841","owner":"143326780@N02","secret":"e374265ce7","server":"65535","farm":66,"title":"DSCN5236_Moment(8)","ispublic":1,"isfriend":0,"isfamily":0},{"id":"52607145137","owner":"84175980@N00","secret":"44fb40256d","server":"65535","farm":66,"title":"20221122 Spinus psaltria (Lesser Goldfinch) (3)","ispublic":1,"isfriend":0,"isfamily":0},{"id":"52581931327","owner":"33610210@N05","secret":"a159465d5b","server":"65535","farm":66,"title":"Lesser Goldfinch, Spinus psaltria","ispublic":1,"isfriend":0,"isfamily":0},{"id":"52574684943","owner":"187792860@N04","secret":"1fd67afb2a","server":"65535","farm":66,"title":"Lesser Goldfinch (Spinus psaltria)","ispublic":1,"isfriend":0,"isfamily":0},{"id":"52572195916","owner":"33610210@N05","secret":"19e2323f14","server":"65535","farm":66,"title":"Lesser Goldfinch, Spinus psaltria","ispublic":1,"isfriend":0,"isfamily":0},{"id":"52568334714","owner":"67306066@N03","secret":"d9163072d5","server":"65535","farm":66,"title":"Lesser Goldfinch (Spinus psaltria)","ispublic":1,"isfriend":0,"isfamily":0},{"id":"52568503150","owner":"67306066@N03","secret":"2cec63ed3d","server":"65535","farm":66,"title":"Lesser Goldfinch (Spinus psaltria)","ispublic":1,"isfriend":0,"isfamily":0},{"id":"52561938209","owner":"61135968@N00","secret":"c9fed97f73","server":"65535","farm":66,"title":"Goldfinch","ispublic":1,"isfriend":0,"isfamily":0},{"id":"52554922567","owner":"187792860@N04","secret":"290ce0ef0c","server":"65535","farm":66,"title":"Lesser Goldfinch (Spinus psaltria) Juv. Male","ispublic":1,"isfriend":0,"isfamily":0},{"id":"52519640358","owner":"24160611@N02","secret":"6d1c138807","server":"65535","farm":66,"title":"lesser goldfinch","ispublic":1,"isfriend":0,"isfamily":0},{"id":"52494559766","owner":"187792860@N04","secret":"74ac99a573","server":"65535","farm":66,"title":"Lesser Goldfinch (Spinus psaltria)","ispublic":1,"isfriend":0,"isfamily":0},{"id":"52485462429","owner":"12530381@N07","secret":"438891ee44","server":"65535","farm":66,"title":"Lesser Goldfinch (Spinus psaltria) (11\/6\/2022)","ispublic":1,"isfriend":0,"isfamily":0},{"id":"52482190426","owner":"187792860@N04","secret":"cce647e5a0","server":"65535","farm":66,"title":"Lesser Goldfinch (Spinus psaltria) Juv. Male","ispublic":1,"isfriend":0,"isfamily":0},{"id":"52410840356","owner":"143326780@N02","secret":"e18e5e2c8c","server":"65535","farm":66,"title":"DSCN0250_Moment(2)","ispublic":1,"isfriend":0,"isfamily":0},{"id":"52410312167","owner":"143326780@N02","secret":"85a1f57804","server":"65535","farm":66,"title":"DSCN0208","ispublic":1,"isfriend":0,"isfamily":0},{"id":"52411328363","owner":"143326780@N02","secret":"322dc1248d","server":"65535","farm":66,"title":"DSCN0214","ispublic":1,"isfriend":0,"isfamily":0},{"id":"52411260215","owner":"143326780@N02","secret":"95b09fc438","server":"65535","farm":66,"title":"DSCN0216","ispublic":1,"isfriend":0,"isfamily":0},{"id":"52411328023","owner":"143326780@N02","secret":"584eec9e33","server":"65535","farm":66,"title":"DSCN0218","ispublic":1,"isfriend":0,"isfamily":0},{"id":"52411259945","owner":"143326780@N02","secret":"886061147a","server":"65535","farm":66,"title":"DSCN0219","ispublic":1,"isfriend":0,"isfamily":0},{"id":"52411327813","owner":"143326780@N02","secret":"1754ddc41f","server":"65535","farm":66,"title":"DSCN0221","ispublic":1,"isfriend":0,"isfamily":0},{"id":"52411327698","owner":"143326780@N02","secret":"d689feb582","server":"65535","farm":66,"title":"DSCN0224","ispublic":1,"isfriend":0,"isfamily":0},{"id":"52410817041","owner":"143326780@N02","secret":"d764a2b68e","server":"65535","farm":66,"title":"DSCN0238","ispublic":1,"isfriend":0,"isfamily":0},{"id":"52410816851","owner":"143326780@N02","secret":"f40a8dc6c6","server":"65535","farm":66,"title":"DSCN0242","ispublic":1,"isfriend":0,"isfamily":0},{"id":"52411327283","owner":"143326780@N02","secret":"8eef8361a8","server":"65535","farm":66,"title":"DSCN0243","ispublic":1,"isfriend":0,"isfamily":0},{"id":"52411327123","owner":"143326780@N02","secret":"5d934f976b","server":"65535","farm":66,"title":"DSCN0244","ispublic":1,"isfriend":0,"isfamily":0},{"id":"52410310782","owner":"143326780@N02","secret":"275fc0d059","server":"65535","farm":66,"title":"DSCN0250_Moment(3)","ispublic":1,"isfriend":0,"isfamily":0},{"id":"52410310677","owner":"143326780@N02","secret":"7fd6204cf1","server":"65535","farm":66,"title":"DSCN0250_Moment(4)","ispublic":1,"isfriend":0,"isfamily":0},{"id":"52411326773","owner":"143326780@N02","secret":"c2c8672989","server":"65535","farm":66,"title":"DSCN0250_Moment(5)","ispublic":1,"isfriend":0,"isfamily":0},{"id":"52411326698","owner":"143326780@N02","secret":"97f5f33c1e","server":"65535","farm":66,"title":"DSCN0250_Moment","ispublic":1,"isfriend":0,"isfamily":0},{"id":"52410816036","owner":"143326780@N02","secret":"182b9bafe0","server":"65535","farm":66,"title":"DSCN0251","ispublic":1,"isfriend":0,"isfamily":0},{"id":"52411077244","owner":"143326780@N02","secret":"8bb88e2673","server":"65535","farm":66,"title":"DSCN0236","ispublic":1,"isfriend":0,"isfamily":0},{"id":"52396241862","owner":"62043870@N05","secret":"5a7a362934","server":"65535","farm":66,"title":"Lesser Goldfinch, Spinus psaltria","ispublic":1,"isfriend":0,"isfamily":0},{"id":"52393810109","owner":"156457454@N02","secret":"f1ca431432","server":"65535","farm":66,"title":"Spinus psaltria 3 (Lesser Goldfinch)","ispublic":1,"isfriend":0,"isfamily":0},{"id":"52393508061","owner":"156457454@N02","secret":"7c321c4dfb","server":"65535","farm":66,"title":"Spinus psaltria 2 (Lesser Goldfinch)","ispublic":1,"isfriend":0,"isfamily":0},{"id":"52390093035","owner":"62043870@N05","secret":"634e1045d5","server":"65535","farm":66,"title":"Lesser Goldfinch, Spinus psaltria","ispublic":1,"isfriend":0,"isfamily":0},{"id":"52387859167","owner":"156457454@N02","secret":"3cfae69279","server":"65535","farm":66,"title":"Spinus psaltria 1 (Lesser Goldfinch)","ispublic":1,"isfriend":0,"isfamily":0},{"id":"52374268522","owner":"140318147@N08","secret":"4de21fd853","server":"65535","farm":66,"title":"lesser goldfinch (Spinus psaltria) L4A2114","ispublic":1,"isfriend":0,"isfamily":0},{"id":"52362497104","owner":"143326780@N02","secret":"c3606c9c5b","server":"65535","farm":66,"title":"DSCN9561","ispublic":1,"isfriend":0,"isfamily":0}]},"stat":"ok"}