{"photos":{"page":1,"pages":27,"perpage":100,"total":2682,"photo":[{"id":"52721453772","owner":"25899079@N08","secret":"95a32286d0","server":"65535","farm":66,"title":"Lincoln's Sparrow (9592)","ispublic":1,"isfriend":0,"isfamily":0},{"id":"52720641130","owner":"14572247@N07","secret":"190b1d8763","server":"65535","farm":66,"title":"Lincoln's Sparrow","ispublic":1,"isfriend":0,"isfamily":0},{"id":"52704142121","owner":"165841515@N03","secret":"50f2a28aa8","server":"65535","farm":66,"title":"Bruant de Lincoln \/ Lincoln's Sparrow \/ (Melospiza lincolnii)","ispublic":1,"isfriend":0,"isfamily":0},{"id":"52690787423","owner":"165841515@N03","secret":"01fffa1681","server":"65535","farm":66,"title":"Bruant de Lincoln \/ Lincoln's Sparrow \/ (Melospiza lincolnii)","ispublic":1,"isfriend":0,"isfamily":0},{"id":"52690786908","owner":"165841515@N03","secret":"9a8cd04cda","server":"65535","farm":66,"title":"Bruant de Lincoln \/ Lincoln's Sparrow \/ (Melospiza lincolnii)","ispublic":1,"isfriend":0,"isfamily":0},{"id":"52690295011","owner":"165841515@N03","secret":"da8b0f390d","server":"65535","farm":66,"title":"Bruant de Lincoln \/ Lincoln's Sparrow \/ (Melospiza lincolnii)","ispublic":1,"isfriend":0,"isfamily":0},{"id":"52690294826","owner":"165841515@N03","secret":"c6ae048fca","server":"65535","farm":66,"title":"Bruant de Lincoln \/ Lincoln's Sparrow \/ (Melospiza lincolnii)","ispublic":1,"isfriend":0,"isfamily":0},{"id":"52689925801","owner":"62174414@N04","secret":"13d8bbaa59","server":"65535","farm":66,"title":"Lincoln's Sparrow (Melospiza lincolnii)","ispublic":1,"isfriend":0,"isfamily":0},{"id":"52690178449","owner":"33610210@N05","secret":"7eed069b63","server":"65535","farm":66,"title":"Lincoln's Sparrow, Melospiza lincolnii","ispublic":1,"isfriend":0,"isfamily":0},{"id":"52688869464","owner":"34238008@N02","secret":"8b4f597234","server":"65535","farm":66,"title":"Lincoln's Sparrow (Melospiza lincolnii)","ispublic":1,"isfriend":0,"isfamily":0},{"id":"52689019475","owner":"34238008@N02","secret":"30465e50d7","server":"65535","farm":66,"title":"Lincoln's Sparrow (Melospiza lincolnii)","ispublic":1,"isfriend":0,"isfamily":0},{"id":"52688595816","owner":"34238008@N02","secret":"90884c643c","server":"65535","farm":66,"title":"Lincoln's Sparrow (Melospiza lincolnii)","ispublic":1,"isfriend":0,"isfamily":0},{"id":"52688595706","owner":"34238008@N02","secret":"2d699b4fe0","server":"65535","farm":66,"title":"Lincoln's Sparrow (Melospiza lincolnii)","ispublic":1,"isfriend":0,"isfamily":0},{"id":"52672674204","owner":"165841515@N03","secret":"a0c4363c05","server":"65535","farm":66,"title":"Bruant de Lincoln \/ Lincoln's Sparrow \/ (Melospiza lincolnii)","ispublic":1,"isfriend":0,"isfamily":0},{"id":"52666040445","owner":"39177293@N03","secret":"8670e3535b","server":"65535","farm":66,"title":"Lincoln's Sparrow","ispublic":1,"isfriend":0,"isfamily":0},{"id":"52665604751","owner":"39177293@N03","secret":"6b9a23977a","server":"65535","farm":66,"title":"Lincoln's Sparrow","ispublic":1,"isfriend":0,"isfamily":0},{"id":"52663495262","owner":"33610210@N05","secret":"98ca4f82b8","server":"65535","farm":66,"title":"Lincoln's Sparrow, Melospiza lincolnii","ispublic":1,"isfriend":0,"isfamily":0},{"id":"52653955145","owner":"103722035@N06","secret":"8cf96458d5","server":"0","farm":0,"title":"Lincoln\u2019s Sparrow (Melospiza lincolnii), Arroyo Grande, CA","ispublic":1,"isfriend":0,"isfamily":0},{"id":"52648511859","owner":"34238008@N02","secret":"e707b13820","server":"65535","farm":66,"title":"Lincoln's Sparrow (Melospiza lincolnii)","ispublic":1,"isfriend":0,"isfamily":0},{"id":"52647745937","owner":"34238008@N02","secret":"b11c2e95e3","server":"65535","farm":66,"title":"Lincoln's Sparrow (Melospiza lincolnii)","ispublic":1,"isfriend":0,"isfamily":0},{"id":"52648511584","owner":"34238008@N02","secret":"c5be027a27","server":"65535","farm":66,"title":"Lincoln's Sparrow (Melospiza lincolnii)","ispublic":1,"isfriend":0,"isfamily":0},{"id":"52648730268","owner":"34238008@N02","secret":"dced84bf6a","server":"65535","farm":66,"title":"Lincoln's Sparrow (Melospiza lincolnii)","ispublic":1,"isfriend":0,"isfamily":0},{"id":"52648244001","owner":"34238008@N02","secret":"b2a8405991","server":"65535","farm":66,"title":"Lincoln's Sparrow (Melospiza lincolnii)","ispublic":1,"isfriend":0,"isfamily":0},{"id":"52648688155","owner":"34238008@N02","secret":"932270cd6d","server":"65535","farm":66,"title":"Lincoln's Sparrow (Melospiza lincolnii)","ispublic":1,"isfriend":0,"isfamily":0},{"id":"52648511039","owner":"34238008@N02","secret":"f66a96b365","server":"65535","farm":66,"title":"Lincoln's Sparrow (Melospiza lincolnii)","ispublic":1,"isfriend":0,"isfamily":0},{"id":"52648729648","owner":"34238008@N02","secret":"8d12796fdf","server":"65535","farm":66,"title":"Lincoln's Sparrow (Melospiza lincolnii)","ispublic":1,"isfriend":0,"isfamily":0},{"id":"52647745047","owner":"34238008@N02","secret":"f837a47ba8","server":"65535","farm":66,"title":"Lincoln's Sparrow (Melospiza lincolnii)","ispublic":1,"isfriend":0,"isfamily":0},{"id":"52647744917","owner":"34238008@N02","secret":"291669fc63","server":"65535","farm":66,"title":"Lincoln's Sparrow (Melospiza lincolnii)","ispublic":1,"isfriend":0,"isfamily":0},{"id":"52648243176","owner":"34238008@N02","secret":"de61ef4edf","server":"65535","farm":66,"title":"Lincoln's Sparrow (Melospiza lincolnii)","ispublic":1,"isfriend":0,"isfamily":0},{"id":"52636426915","owner":"183736567@N07","secret":"334340e59a","server":"65535","farm":66,"title":"Lincoln's Sparrow  (Melospiza lincolnii)","ispublic":1,"isfriend":0,"isfamily":0},{"id":"52610514716","owner":"63695436@N05","secret":"802d62ec3d","server":"65535","farm":66,"title":"Lincoln's Sparrow, a rarity here and a lifer for me","ispublic":1,"isfriend":0,"isfamily":0},{"id":"52602335222","owner":"9638954@N07","secret":"042c715276","server":"65535","farm":66,"title":"Lincoln's Sparrow","ispublic":1,"isfriend":0,"isfamily":0},{"id":"52594340770","owner":"185659367@N04","secret":"0730b65c33","server":"65535","farm":66,"title":"Splish, Splash","ispublic":1,"isfriend":0,"isfamily":0},{"id":"52592972779","owner":"30979614@N07","secret":"75e4e0a2e1","server":"65535","farm":66,"title":"2022-05-10 Montrose Point 7","ispublic":1,"isfriend":0,"isfamily":0},{"id":"52580941318","owner":"153973412@N04","secret":"38eee771a0","server":"65535","farm":66,"title":"Lincoln's Sparrow-Melospiza lincolnii, Hawkeye WMA, IA","ispublic":1,"isfriend":0,"isfamily":0},{"id":"52550285303","owner":"196264892@N08","secret":"f6fc9fce63","server":"65535","farm":66,"title":"Lincoln's Sparrow","ispublic":1,"isfriend":0,"isfamily":0},{"id":"52549740021","owner":"196264892@N08","secret":"45c1babc00","server":"65535","farm":66,"title":"Lincoln's Sparrow","ispublic":1,"isfriend":0,"isfamily":0},{"id":"52549739896","owner":"196264892@N08","secret":"ceafb5cdd5","server":"65535","farm":66,"title":"Lincoln's Sparrow","ispublic":1,"isfriend":0,"isfamily":0},{"id":"52550284958","owner":"196264892@N08","secret":"ff86bd9275","server":"65535","farm":66,"title":"Lincoln's Sparrow","ispublic":1,"isfriend":0,"isfamily":0},{"id":"52544809364","owner":"30979614@N07","secret":"f11941c92c","server":"65535","farm":66,"title":"2020-08-27 Rollins Savanna 1","ispublic":1,"isfriend":0,"isfamily":0},{"id":"52541047996","owner":"33610210@N05","secret":"930329ca10","server":"65535","farm":66,"title":"Lincoln's Sparrow, Melospiza lincolnii","ispublic":1,"isfriend":0,"isfamily":0},{"id":"52540192439","owner":"71649471@N02","secret":"ce117dc87d","server":"65535","farm":66,"title":"Lincoln's Sparrow","ispublic":1,"isfriend":0,"isfamily":0},{"id":"52535599731","owner":"34238008@N02","secret":"7eff0c0b9e","server":"65535","farm":66,"title":"Lincoln's Sparrow (Melospiza lincolnii)","ispublic":1,"isfriend":0,"isfamily":0},{"id":"52535888664","owner":"34238008@N02","secret":"6ffb705e1a","server":"65535","farm":66,"title":"Lincoln's Sparrow (Melospiza lincolnii)","ispublic":1,"isfriend":0,"isfamily":0},{"id":"52535599256","owner":"34238008@N02","secret":"f0dbcfa6b1","server":"65535","farm":66,"title":"Lincoln's Sparrow (Melospiza lincolnii)","ispublic":1,"isfriend":0,"isfamily":0},{"id":"52536143953","owner":"34238008@N02","secret":"1deff83828","server":"65535","farm":66,"title":"Lincoln's Sparrow (Melospiza lincolnii)","ispublic":1,"isfriend":0,"isfamily":0},{"id":"52536072150","owner":"34238008@N02","secret":"b3d6ba41b7","server":"65535","farm":66,"title":"Lincoln's Sparrow (Melospiza lincolnii)","ispublic":1,"isfriend":0,"isfamily":0},{"id":"52534038390","owner":"34238008@N02","secret":"56ea356775","server":"65535","farm":66,"title":"Lincoln's Sparrow (Melospiza lincolnii)","ispublic":1,"isfriend":0,"isfamily":0},{"id":"52520063805","owner":"118311568@N08","secret":"15f30c4bde","server":"65535","farm":66,"title":"Lincoln's Sparrow","ispublic":1,"isfriend":0,"isfamily":0},{"id":"52516323198","owner":"39445433@N02","secret":"6e393a5ed1","server":"65535","farm":66,"title":"Lincoln's Sparrow","ispublic":1,"isfriend":0,"isfamily":0},{"id":"52495522599","owner":"64557331@N04","secret":"11e9e69c33","server":"65535","farm":66,"title":"Lincoln's Sparrow - (Melospiza lincolnii)_08032021","ispublic":1,"isfriend":0,"isfamily":0},{"id":"52490869707","owner":"39445433@N02","secret":"0d352140d1","server":"65535","farm":66,"title":"Lincoln's Sparrow","ispublic":1,"isfriend":0,"isfamily":0},{"id":"52491352056","owner":"39445433@N02","secret":"72b33ea21d","server":"65535","farm":66,"title":"Lincoln's Sparrow","ispublic":1,"isfriend":0,"isfamily":0},{"id":"52481641966","owner":"82143856@N00","secret":"4e62f6501e","server":"65535","farm":66,"title":"Lincoln's Sparrow","ispublic":1,"isfriend":0,"isfamily":0},{"id":"52537375937","owner":"134270033@N06","secret":"c94d954d5f","server":"65535","farm":66,"title":"HFF :: Happy Fence Friday","ispublic":1,"isfriend":0,"isfamily":0},{"id":"52467958882","owner":"68635735@N02","secret":"0f8354b108","server":"65535","farm":66,"title":"Lincoln's Sparrow (Melospiza lincolnii)","ispublic":1,"isfriend":0,"isfamily":0},{"id":"52467752615","owner":"34238008@N02","secret":"f0ba3991c2","server":"65535","farm":66,"title":"Lincoln's Sparrow (Melospiza lincolnii)","ispublic":1,"isfriend":0,"isfamily":0},{"id":"52446604210","owner":"196264892@N08","secret":"f0d16a5b7d","server":"65535","farm":66,"title":"Lincoln's Sparrow","ispublic":1,"isfriend":0,"isfamily":0},{"id":"52446603995","owner":"196264892@N08","secret":"4e9d312e10","server":"65535","farm":66,"title":"Lincoln's Sparrow","ispublic":1,"isfriend":0,"isfamily":0},{"id":"52446434289","owner":"196264892@N08","secret":"fe9fcae95e","server":"65535","farm":66,"title":"Lincoln's Sparrow","ispublic":1,"isfriend":0,"isfamily":0},{"id":"52446677178","owner":"196264892@N08","secret":"117811cd0a","server":"65535","farm":66,"title":"Lincoln's Sparrow","ispublic":1,"isfriend":0,"isfamily":0},{"id":"52446603345","owner":"196264892@N08","secret":"b10688322a","server":"65535","farm":66,"title":"Lincoln's Sparrow","ispublic":1,"isfriend":0,"isfamily":0},{"id":"52446676858","owner":"196264892@N08","secret":"6cca4bd5c8","server":"65535","farm":66,"title":"Lincoln's Sparrow","ispublic":1,"isfriend":0,"isfamily":0},{"id":"52446163806","owner":"196264892@N08","secret":"9b526865b1","server":"65535","farm":66,"title":"Lincoln's Sparrow","ispublic":1,"isfriend":0,"isfamily":0},{"id":"52442667620","owner":"129803374@N05","secret":"ec199c7787","server":"65535","farm":66,"title":"Lincoln's Sparrow (Melospiza lincolnii)","ispublic":1,"isfriend":0,"isfamily":0},{"id":"52440184690","owner":"32599741@N03","secret":"b33f79b2a7","server":"65535","farm":66,"title":"2022 - Day 279:  new yardbird","ispublic":1,"isfriend":0,"isfamily":0},{"id":"52431086067","owner":"34238008@N02","secret":"f7230cd1e3","server":"65535","farm":66,"title":"Lincoln's Sparrow (Melospiza lincolnii)","ispublic":1,"isfriend":0,"isfamily":0},{"id":"52432106398","owner":"34238008@N02","secret":"52897c0cbb","server":"65535","farm":66,"title":"Lincoln's Sparrow (Melospiza lincolnii)","ispublic":1,"isfriend":0,"isfamily":0},{"id":"52427700073","owner":"39177293@N03","secret":"6e6e425aa4","server":"65535","farm":66,"title":"Lincoln's Sparrow","ispublic":1,"isfriend":0,"isfamily":0},{"id":"52411593946","owner":"49114357@N08","secret":"387ee460db","server":"65535","farm":66,"title":"Lincoln's Sparrow","ispublic":1,"isfriend":0,"isfamily":0},{"id":"52410235609","owner":"62174414@N04","secret":"653326a9a5","server":"65535","farm":66,"title":"Lincoln's Sparrow (Melospiza lincolnii)","ispublic":1,"isfriend":0,"isfamily":0},{"id":"52408924043","owner":"34238008@N02","secret":"73d24e6d72","server":"65535","farm":66,"title":"Lincoln's Sparrow (Melospiza lincolnii)","ispublic":1,"isfriend":0,"isfamily":0},{"id":"52408923928","owner":"34238008@N02","secret":"8c3ddcb127","server":"65535","farm":66,"title":"Lincoln's Sparrow (Melospiza lincolnii)","ispublic":1,"isfriend":0,"isfamily":0},{"id":"52400431081","owner":"145466593@N08","secret":"d44d5e51e0","server":"65535","farm":66,"title":"Lincoln's Sparrow","ispublic":1,"isfriend":0,"isfamily":0},{"id":"52399601585","owner":"135315828@N06","secret":"1d5e3ab9ec","server":"65535","farm":66,"title":"lincoln's sparrow","ispublic":1,"isfriend":0,"isfamily":0},{"id":"52399601505","owner":"135315828@N06","secret":"cb1baabe7a","server":"65535","farm":66,"title":"lincoln's sparrow","ispublic":1,"isfriend":0,"isfamily":0},{"id":"52399461699","owner":"135315828@N06","secret":"c64f63ce69","server":"65535","farm":66,"title":"lincoln's sparrow","ispublic":1,"isfriend":0,"isfamily":0},{"id":"52396322224","owner":"103722035@N06","secret":"7ce4c23abd","server":"0","farm":0,"title":"Lincoln\u2019s Sparrow (Melospiza lincolnii), Cayucos, CA","ispublic":1,"isfriend":0,"isfamily":0},{"id":"52388462672","owner":"40006638@N06","secret":"7c4f94e9d4","server":"65535","farm":66,"title":"Lincoln's Sparrow - 094A5893a3c","ispublic":1,"isfriend":0,"isfamily":0},{"id":"52385687348","owner":"130605131@N08","secret":"635db880ec","server":"65535","farm":66,"title":"IMG_2181","ispublic":1,"isfriend":0,"isfamily":0},{"id":"52385879290","owner":"130605131@N08","secret":"9e5895b6cb","server":"65535","farm":66,"title":"IMG_2183","ispublic":1,"isfriend":0,"isfamily":0},{"id":"52384515977","owner":"130605131@N08","secret":"ae7c4b1938","server":"65535","farm":66,"title":"IMG_2184","ispublic":1,"isfriend":0,"isfamily":0},{"id":"52385687188","owner":"130605131@N08","secret":"c9612ba51a","server":"65535","farm":66,"title":"IMG_2190","ispublic":1,"isfriend":0,"isfamily":0},{"id":"52668120048","owner":"33610210@N05","secret":"c16666e263","server":"65535","farm":66,"title":"Lincoln's Sparrow, Melospiza lincolnii","ispublic":1,"isfriend":0,"isfamily":0},{"id":"52667614226","owner":"33610210@N05","secret":"35a2fec3f5","server":"65535","farm":66,"title":"Lincoln's Sparrow, Melospiza lincolnii","ispublic":1,"isfriend":0,"isfamily":0},{"id":"52661318202","owner":"33610210@N05","secret":"07c2ed4449","server":"65535","farm":66,"title":"Lincoln's Sparrow, Melospiza lincolnii","ispublic":1,"isfriend":0,"isfamily":0},{"id":"52610355913","owner":"62043870@N05","secret":"f9b86376f1","server":"65535","farm":66,"title":"Lincoln's Sparrow, Melospiza lincolnii","ispublic":1,"isfriend":0,"isfamily":0},{"id":"52597461715","owner":"33610210@N05","secret":"29ba133780","server":"65535","farm":66,"title":"Lincoln's Sparrow, Melospiza lincolnii","ispublic":1,"isfriend":0,"isfamily":0},{"id":"52585283254","owner":"140318147@N08","secret":"23db039b9c","server":"65535","farm":66,"title":"Lincoln's sparrow (Melospiza lincolnii) L4A9448","ispublic":1,"isfriend":0,"isfamily":0},{"id":"52513342298","owner":"39445433@N02","secret":"87794835a6","server":"65535","farm":66,"title":"Lincoln's Sparrow","ispublic":1,"isfriend":0,"isfamily":0},{"id":"52492817997","owner":"39445433@N02","secret":"e09bf9ab9e","server":"65535","farm":66,"title":"Lincoln's Sparrow","ispublic":1,"isfriend":0,"isfamily":0},{"id":"52491351956","owner":"39445433@N02","secret":"72fe65bd23","server":"65535","farm":66,"title":"Lincoln's Sparrow","ispublic":1,"isfriend":0,"isfamily":0},{"id":"52433827143","owner":"128537732@N06","secret":"e07779fe08","server":"65535","farm":66,"title":"Lincoln's Sparrow (Melospiza lincolnii)","ispublic":1,"isfriend":0,"isfamily":0},{"id":"52419334610","owner":"128537732@N06","secret":"20bd17125a","server":"65535","farm":66,"title":"Lincoln's Sparrow (Melospiza lincolnii)","ispublic":1,"isfriend":0,"isfamily":0},{"id":"52419334255","owner":"128537732@N06","secret":"1c91139f63","server":"65535","farm":66,"title":"Lincoln's Sparrow (Melospiza lincolnii)","ispublic":1,"isfriend":0,"isfamily":0},{"id":"52418387202","owner":"128537732@N06","secret":"aa5a539c3e","server":"65535","farm":66,"title":"Lincoln's Sparrow (Melospiza lincolnii)","ispublic":1,"isfriend":0,"isfamily":0},{"id":"52410397607","owner":"9638954@N07","secret":"00e053f1f6","server":"65535","farm":66,"title":"Lincoln's Sparrow","ispublic":1,"isfriend":0,"isfamily":0},{"id":"52395519731","owner":"18739614@N00","secret":"5738b96428","server":"65535","farm":66,"title":"Lincoln's Sparrow","ispublic":1,"isfriend":0,"isfamily":0},{"id":"52394340317","owner":"187792860@N04","secret":"a02fc56ae0","server":"65535","farm":66,"title":"Lincoln's Sparrow (Melospiza lincolnii)","ispublic":1,"isfriend":0,"isfamily":0},{"id":"52389953115","owner":"128537732@N06","secret":"360ce1a304","server":"65535","farm":66,"title":"Lincoln's Sparrow (Melospiza lincolnii)","ispublic":1,"isfriend":0,"isfamily":0}]},"stat":"ok"}