{"photos":{"page":1,"pages":32,"perpage":100,"total":3135,"photo":[{"id":"52720641100","owner":"14572247@N07","secret":"3e9053635e","server":"65535","farm":66,"title":"Loggerhead Shrike","ispublic":1,"isfriend":0,"isfamily":0},{"id":"52714300002","owner":"47533293@N04","secret":"f158264134","server":"65535","farm":66,"title":"Loggerhead shrike, Lanius ludovicianus","ispublic":1,"isfriend":0,"isfamily":0},{"id":"52707959210","owner":"65632611@N00","secret":"e4d75bb19a","server":"65535","farm":66,"title":"Oriole Road: Loggerhead Shrike (3246)","ispublic":1,"isfriend":0,"isfamily":0},{"id":"52705857613","owner":"23939795@N04","secret":"24ee67058b","server":"65535","farm":66,"title":"Loggerhead Shrike 2101","ispublic":1,"isfriend":0,"isfamily":0},{"id":"52692113648","owner":"33610210@N05","secret":"69bc65791c","server":"65535","farm":66,"title":"Loggerhead Shrike, Lanius ludovicianus","ispublic":1,"isfriend":0,"isfamily":0},{"id":"52686293282","owner":"74056977@N07","secret":"3d94d50acc","server":"65535","farm":66,"title":"Loggerhead Shrike (Lanius ludovicianus)","ispublic":1,"isfriend":0,"isfamily":0},{"id":"52684779510","owner":"86191812@N07","secret":"033db9161c","server":"65535","farm":66,"title":"Loggerhead Shrike (Lanius ludovicianus)","ispublic":1,"isfriend":0,"isfamily":0},{"id":"52680434796","owner":"88932760@N08","secret":"05edc8e1b5","server":"65535","farm":66,"title":"Lurking Loggerhead","ispublic":1,"isfriend":0,"isfamily":0},{"id":"52677767225","owner":"143326780@N02","secret":"5ce4394ba8","server":"65535","farm":66,"title":"DSCN3797","ispublic":1,"isfriend":0,"isfamily":0},{"id":"52677333241","owner":"143326780@N02","secret":"35bd9ae712","server":"65535","farm":66,"title":"DSCN3801","ispublic":1,"isfriend":0,"isfamily":0},{"id":"52658698909","owner":"34238008@N02","secret":"f5ca2542c5","server":"65535","farm":66,"title":"Loggerhead Shrike (Lanius ludovicianus)","ispublic":1,"isfriend":0,"isfamily":0},{"id":"52658416076","owner":"34238008@N02","secret":"6003270679","server":"65535","farm":66,"title":"Loggerhead Shrike (Lanius ludovicianus)","ispublic":1,"isfriend":0,"isfamily":0},{"id":"52656857941","owner":"143326780@N02","secret":"2da352a499","server":"65535","farm":66,"title":"DSCN2670","ispublic":1,"isfriend":0,"isfamily":0},{"id":"52656374472","owner":"143326780@N02","secret":"b227917e56","server":"65535","farm":66,"title":"DSCN2671","ispublic":1,"isfriend":0,"isfamily":0},{"id":"52657350843","owner":"143326780@N02","secret":"2cb34c2833","server":"65535","farm":66,"title":"DSCN2678","ispublic":1,"isfriend":0,"isfamily":0},{"id":"52657141954","owner":"143326780@N02","secret":"ff419fc7d2","server":"65535","farm":66,"title":"DSCN2682","ispublic":1,"isfriend":0,"isfamily":0},{"id":"52657303275","owner":"143326780@N02","secret":"465a4a0c40","server":"65535","farm":66,"title":"DSCN2685","ispublic":1,"isfriend":0,"isfamily":0},{"id":"52653051919","owner":"182515684@N02","secret":"8dc1c068f3","server":"65535","farm":66,"title":"Loggerhead Shrike \u2026 OM6967-205","ispublic":1,"isfriend":0,"isfamily":0},{"id":"52645344771","owner":"8013969@N03","secret":"8718b36c2d","server":"65535","farm":66,"title":"Lanius ludovicianus DFL btr22-1","ispublic":1,"isfriend":0,"isfamily":0},{"id":"52644834382","owner":"8013969@N03","secret":"3502d0252a","server":"65535","farm":66,"title":"Lanius ludovicianus DFL btr22-2","ispublic":1,"isfriend":0,"isfamily":0},{"id":"52645343556","owner":"8013969@N03","secret":"6623d074e4","server":"65535","farm":66,"title":"Lanius ludovicianus DFL btr22-3","ispublic":1,"isfriend":0,"isfamily":0},{"id":"52643337153","owner":"146378564@N07","secret":"2f677ae397","server":"65535","farm":66,"title":"Loggerhead Shrike (Lanius ludovicianus)","ispublic":1,"isfriend":0,"isfamily":0},{"id":"52633963973","owner":"32752434@N07","secret":"7ecb1095cf","server":"65535","farm":66,"title":"Loggerhead Shrike (Lanius ludovicianus)","ispublic":1,"isfriend":0,"isfamily":0},{"id":"52629424805","owner":"146378564@N07","secret":"2e85bf4942","server":"65535","farm":66,"title":"Loggerhead Shrike (Lanius ludovicianus)","ispublic":1,"isfriend":0,"isfamily":0},{"id":"52619748092","owner":"187999217@N04","secret":"df393ec510","server":"65535","farm":66,"title":"Loggerhead Shrike (Lanius ludovicianus)","ispublic":1,"isfriend":0,"isfamily":0},{"id":"52619753675","owner":"38514062@N03","secret":"39f26dbeec","server":"65535","farm":66,"title":"Loggerhead Shrike (Lanius ludovicianus)","ispublic":1,"isfriend":0,"isfamily":0},{"id":"52619319536","owner":"38514062@N03","secret":"aab30b284c","server":"65535","farm":66,"title":"Loggerhead Shrike (Lanius ludovicianus)","ispublic":1,"isfriend":0,"isfamily":0},{"id":"52610972750","owner":"34238008@N02","secret":"98d7ec5237","server":"65535","farm":66,"title":"Loggerhead Shrike (Lanius ludovicianus)","ispublic":1,"isfriend":0,"isfamily":0},{"id":"52610972655","owner":"34238008@N02","secret":"db04e3113e","server":"65535","farm":66,"title":"Loggerhead Shrike (Lanius ludovicianus)","ispublic":1,"isfriend":0,"isfamily":0},{"id":"52611040508","owner":"34238008@N02","secret":"7898146469","server":"65535","farm":66,"title":"Loggerhead Shrike (Lanius ludovicianus)","ispublic":1,"isfriend":0,"isfamily":0},{"id":"52587307987","owner":"88932760@N08","secret":"cbe9c8fd60","server":"65535","farm":66,"title":"Shrike Borb","ispublic":1,"isfriend":0,"isfamily":0},{"id":"52579985763","owner":"34238008@N02","secret":"c8ce661fcb","server":"65535","farm":66,"title":"Loggerhead Shrike (Lanius ludovicianus)","ispublic":1,"isfriend":0,"isfamily":0},{"id":"52579729699","owner":"34238008@N02","secret":"dd494811df","server":"65535","farm":66,"title":"Loggerhead Shrike (Lanius ludovicianus)","ispublic":1,"isfriend":0,"isfamily":0},{"id":"52575274212","owner":"34238008@N02","secret":"c103d77dbb","server":"65535","farm":66,"title":"Loggerhead Shrike (Lanius ludovicianus)","ispublic":1,"isfriend":0,"isfamily":0},{"id":"52576264388","owner":"34238008@N02","secret":"ec648d4d20","server":"65535","farm":66,"title":"Loggerhead Shrike (Lanius ludovicianus)","ispublic":1,"isfriend":0,"isfamily":0},{"id":"52565919659","owner":"140318147@N08","secret":"8575c452b1","server":"65535","farm":66,"title":"loggerhead shrike (Lanius ludovicianus) L4A","ispublic":1,"isfriend":0,"isfamily":0},{"id":"52558474780","owner":"42964440@N08","secret":"af97bb57bd","server":"65535","farm":66,"title":"Loggerhead Shrike (Lanius ludovicianus) _","ispublic":1,"isfriend":0,"isfamily":0},{"id":"52528264512","owner":"188233235@N06","secret":"9ec0bf040a","server":"65535","farm":66,"title":"The Loggerhead Shrike","ispublic":1,"isfriend":0,"isfamily":0},{"id":"52525407658","owner":"187792860@N04","secret":"6802dfa90e","server":"65535","farm":66,"title":"Loggerhead Shrike (Lanius ludovicianus)","ispublic":1,"isfriend":0,"isfamily":0},{"id":"52525318210","owner":"187792860@N04","secret":"dfc303c870","server":"65535","farm":66,"title":"Loggerhead Shrike (Lanius ludovicianus)","ispublic":1,"isfriend":0,"isfamily":0},{"id":"52522981967","owner":"38514062@N03","secret":"a69f176967","server":"65535","farm":66,"title":"Loggerhead Shrike (Lanius ludovicianus)","ispublic":1,"isfriend":0,"isfamily":0},{"id":"52523923505","owner":"38514062@N03","secret":"09d7dbd463","server":"65535","farm":66,"title":"Loggerhead Shrike (Lanius ludovicianus)","ispublic":1,"isfriend":0,"isfamily":0},{"id":"52522421727","owner":"62501682@N00","secret":"f023d90855","server":"65535","farm":66,"title":"Loggerhead shrike next to a spider web in the early morning fog at Babcock Wildlife Management Area near Punta Gorda, Florida.","ispublic":1,"isfriend":0,"isfamily":0},{"id":"52514972392","owner":"74787113@N05","secret":"40759a6fa7","server":"65535","farm":66,"title":"LOGGERHEADSHRIKE","ispublic":1,"isfriend":0,"isfamily":0},{"id":"52515123018","owner":"88932760@N08","secret":"f6d31b137b","server":"65535","farm":66,"title":"Shrill Shrike","ispublic":1,"isfriend":0,"isfamily":0},{"id":"52497531863","owner":"140989509@N06","secret":"695fb3ab5c","server":"65535","farm":66,"title":"2022_9037_Toronto","ispublic":1,"isfriend":0,"isfamily":0},{"id":"52492517646","owner":"32665930@N04","secret":"52bc7f7466","server":"65535","farm":66,"title":"Loggerhead Shrike","ispublic":1,"isfriend":0,"isfamily":0},{"id":"52492982810","owner":"32665930@N04","secret":"5a042af4ba","server":"65535","farm":66,"title":"Loggerhead Shrike","ispublic":1,"isfriend":0,"isfamily":0},{"id":"52455891779","owner":"34238008@N02","secret":"5fbafc3100","server":"65535","farm":66,"title":"Loggerhead Shrike, adult (Lanius ludovicianus)","ispublic":1,"isfriend":0,"isfamily":0},{"id":"52455101422","owner":"34238008@N02","secret":"85ab45ce2b","server":"65535","farm":66,"title":"Loggerhead Shrike (Lanius ludovicianus)","ispublic":1,"isfriend":0,"isfamily":0},{"id":"52425280016","owner":"88932760@N08","secret":"cd93c0e2fb","server":"65535","farm":66,"title":"Hunting Shrike","ispublic":1,"isfriend":0,"isfamily":0},{"id":"52412951799","owner":"34238008@N02","secret":"13bf436d70","server":"65535","farm":66,"title":"Loggerhead Shrike (Lanius ludovicianus)","ispublic":1,"isfriend":0,"isfamily":0},{"id":"52402040150","owner":"34238008@N02","secret":"932012c79e","server":"65535","farm":66,"title":"Loggerhead Shrike (Lanius ludovicianus)","ispublic":1,"isfriend":0,"isfamily":0},{"id":"52353922365","owner":"196264892@N08","secret":"c6e0aa1366","server":"65535","farm":66,"title":"Northern Shrike","ispublic":1,"isfriend":0,"isfamily":0},{"id":"52353493416","owner":"196264892@N08","secret":"c5f33a6de5","server":"65535","farm":66,"title":"Northern Shrike","ispublic":1,"isfriend":0,"isfamily":0},{"id":"52353815704","owner":"196264892@N08","secret":"5692ff588f","server":"65535","farm":66,"title":"Northern Shrike","ispublic":1,"isfriend":0,"isfamily":0},{"id":"52336505261","owner":"190923251@N05","secret":"5ce06b13c3","server":"65535","farm":66,"title":"Loggerhead Shrike","ispublic":1,"isfriend":0,"isfamily":0},{"id":"52332173522","owner":"131037795@N03","secret":"a63f6af155","server":"65535","farm":66,"title":"juvenile Loggerhead Shrike (Lanius ludovicianus)","ispublic":1,"isfriend":0,"isfamily":0},{"id":"52333134896","owner":"131037795@N03","secret":"8bdc2cd687","server":"65535","farm":66,"title":"juvenile Loggerhead Shrike (Lanius ludovicianus)","ispublic":1,"isfriend":0,"isfamily":0},{"id":"52333134691","owner":"131037795@N03","secret":"6f6e2b7635","server":"65535","farm":66,"title":"juvenile Loggerhead Shrike (Lanius ludovicianus)","ispublic":1,"isfriend":0,"isfamily":0},{"id":"52321360464","owner":"24608578@N00","secret":"2db29c6e2f","server":"65535","farm":66,"title":"Loggerhead shrike (Lanius ludovicianus)","ispublic":1,"isfriend":0,"isfamily":0},{"id":"52318412705","owner":"132165466@N08","secret":"f16f83384d","server":"65535","farm":66,"title":"Loggerhead ShrikeSE Arizona, August 2022","ispublic":1,"isfriend":0,"isfamily":0},{"id":"52318412695","owner":"132165466@N08","secret":"d571699ede","server":"65535","farm":66,"title":"Loggerhead ShrikeSE Arizona, August 2022","ispublic":1,"isfriend":0,"isfamily":0},{"id":"52306992123","owner":"196264892@N08","secret":"014908c8c5","server":"65535","farm":66,"title":"Loggerhead Shrike","ispublic":1,"isfriend":0,"isfamily":0},{"id":"52302074096","owner":"74056977@N07","secret":"23a96415f3","server":"65535","farm":66,"title":"Loggerhead Shrike (Lanius ludovicianus)","ispublic":1,"isfriend":0,"isfamily":0},{"id":"52291661229","owner":"33277678@N03","secret":"2b92e6759f","server":"65535","farm":66,"title":"Pensacola '22","ispublic":1,"isfriend":0,"isfamily":0},{"id":"52291887005","owner":"33277678@N03","secret":"bc56dd230b","server":"65535","farm":66,"title":"Pensacola '22","ispublic":1,"isfriend":0,"isfamily":0},{"id":"52291678565","owner":"123979267@N05","secret":"8d995587f7","server":"65535","farm":66,"title":"Loggerhead Shrike","ispublic":1,"isfriend":0,"isfamily":0},{"id":"52275699184","owner":"196264892@N08","secret":"0de783378d","server":"65535","farm":66,"title":"Loggerhead Shrike 1","ispublic":1,"isfriend":0,"isfamily":0},{"id":"52268438427","owner":"74787113@N05","secret":"4abc1d346d","server":"65535","farm":66,"title":"LOGGERHEAD SHRIKE","ispublic":1,"isfriend":0,"isfamily":0},{"id":"52266476829","owner":"124995824@N08","secret":"210234d106","server":"65535","farm":66,"title":"Loggerhead Shrike - Lanius ludovicianus","ispublic":1,"isfriend":0,"isfamily":0},{"id":"52265947115","owner":"130811605@N02","secret":"f1dc920d66","server":"65535","farm":66,"title":"Loggerhead Shrike (Lanius ludovicianus)","ispublic":1,"isfriend":0,"isfamily":0},{"id":"52264497112","owner":"130811605@N02","secret":"5467d4a0e1","server":"65535","farm":66,"title":"Loggerhead Shrike (Lanius ludovicianus)","ispublic":1,"isfriend":0,"isfamily":0},{"id":"52228044469","owner":"134270033@N06","secret":"d117cf8e22","server":"65535","farm":66,"title":"HFF :: Happy Fence Friday","ispublic":1,"isfriend":0,"isfamily":0},{"id":"52251516531","owner":"12639178@N07","secret":"cfcf456785","server":"65535","farm":66,"title":"Mal etwas n\u00e4her","ispublic":1,"isfriend":0,"isfamily":0},{"id":"52677333576","owner":"143326780@N02","secret":"dd1a301ccf","server":"65535","farm":66,"title":"DSCN3788","ispublic":1,"isfriend":0,"isfamily":0},{"id":"52664438525","owner":"33610210@N05","secret":"0613775b45","server":"65535","farm":66,"title":"Loggerhead Shrike, Lanius ludovicianus","ispublic":1,"isfriend":0,"isfamily":0},{"id":"52664438500","owner":"33610210@N05","secret":"8e78be60f2","server":"65535","farm":66,"title":"Loggerhead Shrike, Lanius ludovicianus","ispublic":1,"isfriend":0,"isfamily":0},{"id":"52656857846","owner":"143326780@N02","secret":"3f280bcb54","server":"65535","farm":66,"title":"DSCN2677","ispublic":1,"isfriend":0,"isfamily":0},{"id":"52657304910","owner":"143326780@N02","secret":"8260a5a1e6","server":"65535","farm":66,"title":"DSCN2681","ispublic":1,"isfriend":0,"isfamily":0},{"id":"52655343006","owner":"41694014@N04","secret":"5ac1d68e36","server":"65535","farm":66,"title":"Lanius ludovicianus","ispublic":1,"isfriend":0,"isfamily":0},{"id":"52643503622","owner":"124995824@N08","secret":"bbdc7ce70e","server":"65535","farm":66,"title":"Loggerhead Shrike - Lanius ludovicianus","ispublic":1,"isfriend":0,"isfamily":0},{"id":"52631850558","owner":"119095828@N03","secret":"9283a35426","server":"65535","farm":66,"title":"Loggerhead Shrike (Lanius ludovicianus)","ispublic":1,"isfriend":0,"isfamily":0},{"id":"52611805281","owner":"62043870@N05","secret":"8d2775954d","server":"65535","farm":66,"title":"Loggerhead Shrike, Lanius ludovicianus","ispublic":1,"isfriend":0,"isfamily":0},{"id":"52597028071","owner":"33610210@N05","secret":"c05d8886a6","server":"65535","farm":66,"title":"Loggerhead Shrike, Lanius ludovicianus","ispublic":1,"isfriend":0,"isfamily":0},{"id":"52580683384","owner":"153973412@N04","secret":"6480bebc73","server":"65535","farm":66,"title":"Loggerhead Shrike-Lanius ludovicianus, LGRV, TX","ispublic":1,"isfriend":0,"isfamily":0},{"id":"52557809961","owner":"36845939@N03","secret":"637e45dc2a","server":"65535","farm":66,"title":"Loggerhead Shrike (Lanius ludovicianus)","ispublic":1,"isfriend":0,"isfamily":0},{"id":"52554256765","owner":"62043870@N05","secret":"f4b6779401","server":"65535","farm":66,"title":"Loggerhead Shrike, Lanius ludovicianus","ispublic":1,"isfriend":0,"isfamily":0},{"id":"52471587867","owner":"34238008@N02","secret":"c1d69089e6","server":"65535","farm":66,"title":"Loggerhead Shrike (Lanius ludovicianus)","ispublic":1,"isfriend":0,"isfamily":0},{"id":"52472086086","owner":"34238008@N02","secret":"df63897ca4","server":"65535","farm":66,"title":"Loggerhead Shrike (Lanius ludovicianus)","ispublic":1,"isfriend":0,"isfamily":0},{"id":"52471587682","owner":"34238008@N02","secret":"6179136e33","server":"65535","farm":66,"title":"Loggerhead Shrike (Lanius ludovicianus)","ispublic":1,"isfriend":0,"isfamily":0},{"id":"52456151913","owner":"34238008@N02","secret":"986feda1fa","server":"65535","farm":66,"title":"Loggerhead Shrike (Lanius ludovicianus)","ispublic":1,"isfriend":0,"isfamily":0},{"id":"52455101262","owner":"34238008@N02","secret":"90ddcfd1a9","server":"65535","farm":66,"title":"Loggerhead Shrike (Lanius ludovicianus)","ispublic":1,"isfriend":0,"isfamily":0},{"id":"52419801005","owner":"51928691@N04","secret":"a7c54564c8","server":"65535","farm":66,"title":"Loggerhead Shrike (Lanius ludovicianus) 2 100122","ispublic":1,"isfriend":0,"isfamily":0},{"id":"52413177178","owner":"34238008@N02","secret":"d96c67ee43","server":"65535","farm":66,"title":"Loggerhead Shrike (Lanius ludovicianus)","ispublic":1,"isfriend":0,"isfamily":0},{"id":"52403043329","owner":"140318147@N08","secret":"23b511e29a","server":"65535","farm":66,"title":"loggerhead shrike (Lanius ludovicianus) L4A3122","ispublic":1,"isfriend":0,"isfamily":0},{"id":"52402109568","owner":"34238008@N02","secret":"e774436a77","server":"65535","farm":66,"title":"Loggerhead Shrike (Lanius ludovicianus)","ispublic":1,"isfriend":0,"isfamily":0},{"id":"52391224901","owner":"156457454@N02","secret":"1bbd020cfe","server":"65535","farm":66,"title":"Lanius ludovicianus 1 (Loggerhead Shrike)","ispublic":1,"isfriend":0,"isfamily":0},{"id":"52253498863","owner":"67306066@N03","secret":"3a7be378a4","server":"65535","farm":66,"title":"Loggerhead Shrike (Lanius ludovicianus)","ispublic":1,"isfriend":0,"isfamily":0},{"id":"52251516371","owner":"12639178@N07","secret":"4b35350520","server":"65535","farm":66,"title":"Kleiner W\u00fcrger auf Nahrungssuche","ispublic":1,"isfriend":0,"isfamily":0}]},"stat":"ok"}