{"photos":{"page":1,"pages":36,"perpage":100,"total":3531,"photo":[{"id":"52722214663","owner":"21584095@N00","secret":"e56e182770","server":"65535","farm":66,"title":"Long-billed Dowitcher (Limnodromus scolopaceus)","ispublic":1,"isfriend":0,"isfamily":0},{"id":"52720786574","owner":"44948457@N07","secret":"c1a77ac4f2","server":"65535","farm":66,"title":"Long-billed dowitcher | Costurero Pico Largo (Limnodromus scolopaceus)","ispublic":1,"isfriend":0,"isfamily":0},{"id":"52720001577","owner":"44948457@N07","secret":"cd9e835b6a","server":"65535","farm":66,"title":"Long-billed dowitcher | Costurero Pico Largo (Limnodromus scolopaceus)","ispublic":1,"isfriend":0,"isfamily":0},{"id":"52719035080","owner":"44948457@N07","secret":"e5e49721e5","server":"65535","farm":66,"title":"Long-billed dowitcher | Costurero Pico Largo (Limnodromus scolopaceus)","ispublic":1,"isfriend":0,"isfamily":0},{"id":"52703684885","owner":"59206851@N00","secret":"834ce03066","server":"65535","farm":66,"title":"DSC_1473.jpg","ispublic":1,"isfriend":0,"isfamily":0},{"id":"52697273090","owner":"124995824@N08","secret":"6eee665b81","server":"65535","farm":66,"title":"Long-billed Dowticher - Limnodromus scolopaceus","ispublic":1,"isfriend":0,"isfamily":0},{"id":"52685956951","owner":"91906228@N05","secret":"5b984ac598","server":"65535","farm":66,"title":"long-billed dowitcher","ispublic":1,"isfriend":0,"isfamily":0},{"id":"52662382615","owner":"7640100@N02","secret":"48326da382","server":"65535","farm":66,"title":"B\u00e9cassin \u00e0 long bec \/ Long-Billed Dowitcher [Limnodromus scolopaceus]","ispublic":1,"isfriend":0,"isfamily":0},{"id":"52656273491","owner":"43101857@N06","secret":"d118064c79","server":"65535","farm":66,"title":"Long-Billed Dowitcher (Limnodromus Scolopaceus) - Holkham, Norfolk. Uk. (19.01.23).","ispublic":1,"isfriend":0,"isfamily":0},{"id":"52656558809","owner":"43101857@N06","secret":"a91dffefae","server":"65535","farm":66,"title":"Long-Billed Dowitcher (Limnodromus Scolopaceus) - Holkham, Norfolk. Uk. (19.01.23).","ispublic":1,"isfriend":0,"isfamily":0},{"id":"52656720635","owner":"43101857@N06","secret":"17d2861b99","server":"65535","farm":66,"title":"Long-Billed Dowitcher (Limnodromus Scolopaceus) - Holkham, Norfolk. Uk. (19.01.23).","ispublic":1,"isfriend":0,"isfamily":0},{"id":"52656720580","owner":"43101857@N06","secret":"262fb36f58","server":"65535","farm":66,"title":"Long-Billed Dowitcher (Limnodromus Scolopaceus) - Holkham, Norfolk. Uk. (19.01.23).","ispublic":1,"isfriend":0,"isfamily":0},{"id":"52646676637","owner":"195537536@N03","secret":"5cf9e90e57","server":"65535","farm":66,"title":"Long-billed Dowitcher (Limnodromus scolopaceus)","ispublic":1,"isfriend":0,"isfamily":0},{"id":"52646202078","owner":"73431753@N00","secret":"50f76ba857","server":"65535","farm":66,"title":"Great Egret, Long-billed Dowitchers and Green-winged Teal","ispublic":1,"isfriend":0,"isfamily":0},{"id":"52628050235","owner":"109544413@N05","secret":"fd77554c2b","server":"65535","farm":66,"title":"Long-billed Dowitcher","ispublic":1,"isfriend":0,"isfamily":0},{"id":"52580734215","owner":"153973412@N04","secret":"de04ec27aa","server":"65535","farm":66,"title":"Long-billed Dowitcher-Limnodromus scolopaceus, Estero Llano GHrande, TX","ispublic":1,"isfriend":0,"isfamily":0},{"id":"52523444876","owner":"38514062@N03","secret":"a165f3bcea","server":"65535","farm":66,"title":"Long-billed Dowitcher (Limnodromus scolopaceus)","ispublic":1,"isfriend":0,"isfamily":0},{"id":"52517760227","owner":"60216873@N05","secret":"2bf7b7b62f","server":"65535","farm":66,"title":"Long-billed Dowitcher with Wings Up","ispublic":1,"isfriend":0,"isfamily":0},{"id":"52518332348","owner":"53256251@N04","secret":"a2a3a3f675","server":"65535","farm":66,"title":"Trio of Long - Billed Dowichers","ispublic":1,"isfriend":0,"isfamily":0},{"id":"52504088593","owner":"92361032@N05","secret":"94a83257e9","server":"65535","farm":66,"title":"Long-billed Dowitcher\/ B\u00e9cassin \u00e0 long bec ( Richard )","ispublic":1,"isfriend":0,"isfamily":0},{"id":"52501171726","owner":"54059915@N07","secret":"9880e7cd71","server":"65535","farm":66,"title":"October Flight","ispublic":1,"isfriend":0,"isfamily":0},{"id":"52497874821","owner":"129849840@N08","secret":"8452e720eb","server":"65535","farm":66,"title":"feeling frisky","ispublic":1,"isfriend":0,"isfamily":0},{"id":"52486608869","owner":"46632014@N06","secret":"c401fa526f","server":"65535","farm":66,"title":"After Lunch Nap.","ispublic":1,"isfriend":0,"isfamily":0},{"id":"52468611268","owner":"52200643@N02","secret":"ece4e9e1e7","server":"65535","farm":66,"title":"B\u00e9cassin long bec \/ Long-billed dowitcher  _A4A1296b","ispublic":1,"isfriend":0,"isfamily":0},{"id":"52457849131","owner":"91392297@N02","secret":"9659b53de8","server":"65535","farm":66,"title":"Long-billed Dowitcher. (Limnodromus scolopaceus)","ispublic":1,"isfriend":0,"isfamily":0},{"id":"52457043649","owner":"12240837@N08","secret":"3019baf7eb","server":"65535","farm":66,"title":"Long-billed Dowitcher (limnodromus scolopaceus)","ispublic":1,"isfriend":0,"isfamily":0},{"id":"52452429898","owner":"40006638@N06","secret":"3c620636c4","server":"65535","farm":66,"title":"Long-billed Dowitcher - 094A8868a1a1c1c","ispublic":1,"isfriend":0,"isfamily":0},{"id":"52451389102","owner":"40006638@N06","secret":"378b1a49f0","server":"65535","farm":66,"title":"Long-billed Dowitcher - 094A8869a2c","ispublic":1,"isfriend":0,"isfamily":0},{"id":"52438302726","owner":"65148649@N04","secret":"cdecca68e2","server":"0","farm":0,"title":"Long-Billed Dowitcher Video","ispublic":1,"isfriend":0,"isfamily":0},{"id":"52438757870","owner":"65148649@N04","secret":"f677b33025","server":"65535","farm":66,"title":"Long-Billed Dowitcher","ispublic":1,"isfriend":0,"isfamily":0},{"id":"52437797527","owner":"65148649@N04","secret":"a1dee239db","server":"65535","farm":66,"title":"Long-Billed Dowitcher and Blue-Winged Teal","ispublic":1,"isfriend":0,"isfamily":0},{"id":"52437797502","owner":"65148649@N04","secret":"d514ba1fe4","server":"65535","farm":66,"title":"Long-Billed Dowitcher","ispublic":1,"isfriend":0,"isfamily":0},{"id":"52437797487","owner":"65148649@N04","secret":"3caf51a96c","server":"65535","farm":66,"title":"Long-Billed Dowitcher","ispublic":1,"isfriend":0,"isfamily":0},{"id":"52438825983","owner":"65148649@N04","secret":"4db74feed9","server":"65535","farm":66,"title":"Long-Billed Dowitcher","ispublic":1,"isfriend":0,"isfamily":0},{"id":"52429663389","owner":"36611483@N03","secret":"b24c0b69a0","server":"65535","farm":66,"title":"Three American Waders","ispublic":1,"isfriend":0,"isfamily":0},{"id":"52427351262","owner":"129849840@N08","secret":"cb128084a0","server":"65535","farm":66,"title":"Preening time","ispublic":1,"isfriend":0,"isfamily":0},{"id":"52424430703","owner":"21558080@N07","secret":"3cda0c5b99","server":"65535","farm":66,"title":"Long-billed Dowitcher (Limnodromus scolopaceus)","ispublic":1,"isfriend":0,"isfamily":0},{"id":"52419877778","owner":"51928691@N04","secret":"5ab78be8c1","server":"65535","farm":66,"title":"Long-billed Dowitcher (Limnodromus  scolopaceus) 1 100122","ispublic":1,"isfriend":0,"isfamily":0},{"id":"52409806946","owner":"65148649@N04","secret":"7f5bf3eb6a","server":"65535","farm":66,"title":"Long-Billed Dowitchers","ispublic":1,"isfriend":0,"isfamily":0},{"id":"52409517349","owner":"62907378@N07","secret":"157fa885f4","server":"65535","farm":66,"title":"Green-winged Teal (Anas crecca) & Long-billed Dowitcher (Limnodromus scolopaceus)","ispublic":1,"isfriend":0,"isfamily":0},{"id":"52402325346","owner":"12238915@N06","secret":"97bedd76dd","server":"65535","farm":66,"title":"Reflected Dowitcher","ispublic":1,"isfriend":0,"isfamily":0},{"id":"52397062985","owner":"124995824@N08","secret":"6086a0d870","server":"65535","farm":66,"title":"Long-billed Dowitcher - Limnodromus scolopaceus","ispublic":1,"isfriend":0,"isfamily":0},{"id":"52383095408","owner":"40724294@N04","secret":"a9dec39295","server":"65535","farm":66,"title":"Stretching Long-billed Dowitcher","ispublic":1,"isfriend":0,"isfamily":0},{"id":"52378497446","owner":"51986662@N05","secret":"2d6a623673","server":"65535","farm":66,"title":"Dowitcher in Prairie Pond Lake Andes Wetland Management District South Dakota.","ispublic":1,"isfriend":0,"isfamily":0},{"id":"52378808384","owner":"51986662@N05","secret":"63b2b1d500","server":"65535","farm":66,"title":"Dowitcher Lake Andes Wetland Management District South Dakota.","ispublic":1,"isfriend":0,"isfamily":0},{"id":"52378803419","owner":"51986662@N05","secret":"72899bc3f2","server":"65535","farm":66,"title":"Dowitcher in Prairie Pond Lake Andes Wetland Management District South Dakota.","ispublic":1,"isfriend":0,"isfamily":0},{"id":"52370838861","owner":"103722035@N06","secret":"7a7509dacd","server":"65535","farm":66,"title":"Long-billed Dowitcher (Limnodromus scolopaceus),  Baywood Park, CA","ispublic":1,"isfriend":0,"isfamily":0},{"id":"52369894507","owner":"103722035@N06","secret":"ba8d4386e2","server":"65535","farm":66,"title":"Long-billed Dowitcher (Limnodromus scolopaceus),  Baywood Park, CA","ispublic":1,"isfriend":0,"isfamily":0},{"id":"52369894502","owner":"103722035@N06","secret":"1ace0c1b53","server":"65535","farm":66,"title":"Long-billed Dowitcher (Limnodromus scolopaceus),  Baywood Park, CA","ispublic":1,"isfriend":0,"isfamily":0},{"id":"52371119854","owner":"103722035@N06","secret":"13845c8036","server":"0","farm":0,"title":"Long-billed Dowitcher (Limnodromus scolopaceus),  Baywood Park, CA","ispublic":1,"isfriend":0,"isfamily":0},{"id":"52366497879","owner":"165841515@N03","secret":"15c715f138","server":"65535","farm":66,"title":"B\u00e9cassin \u00e0 long bec \/ Long-billed Dowitcher \/ (Limnodromus scolopaceus)","ispublic":1,"isfriend":0,"isfamily":0},{"id":"52363918907","owner":"165841515@N03","secret":"d63fabd8d3","server":"65535","farm":66,"title":"B\u00e9cassin \u00e0 long bec \/ Long-billed Dowitcher \/ (Limnodromus scolopaceus)","ispublic":1,"isfriend":0,"isfamily":0},{"id":"52365165634","owner":"165841515@N03","secret":"1a20f77010","server":"65535","farm":66,"title":"B\u00e9cassin \u00e0 long bec & Petit Chevalier \/ Long-billed Dowitcher & Lesser Yellowlegs \/ (Limnodromus scolopaceus & Tring Flaviles)","ispublic":1,"isfriend":0,"isfamily":0},{"id":"52361181945","owner":"195537536@N03","secret":"1ba85d5ec1","server":"65535","farm":66,"title":"Long-billed Dowitcher (Limnodromus scolopaceus)","ispublic":1,"isfriend":0,"isfamily":0},{"id":"52359901339","owner":"188958062@N05","secret":"033f5f9d35","server":"65535","farm":66,"title":"Long-billed Dowitcher, Limnodromus scolopaceus","ispublic":1,"isfriend":0,"isfamily":0},{"id":"52350462252","owner":"51928691@N04","secret":"0b68597de5","server":"65535","farm":66,"title":"Long-billed Dowitcher (Limnodromus scolopaceus) 1 091122","ispublic":1,"isfriend":0,"isfamily":0},{"id":"52331977326","owner":"34238008@N02","secret":"11c6214490","server":"65535","farm":66,"title":"Wilson's Phalarope (Phalaropus tricolor) and Long-billed Dowitcher (Limnodromus scolopaceus)","ispublic":1,"isfriend":0,"isfamily":0},{"id":"52324701140","owner":"34238008@N02","secret":"11c5841fc0","server":"65535","farm":66,"title":"Long-billed Dowitcher (Limnodromus scolopaceus)","ispublic":1,"isfriend":0,"isfamily":0},{"id":"52322395352","owner":"99849996@N00","secret":"e183598f3d","server":"65535","farm":66,"title":"Long-billed Dowitcher 20211005_2695","ispublic":1,"isfriend":0,"isfamily":0},{"id":"52312623167","owner":"124995824@N08","secret":"b4d89117d2","server":"65535","farm":66,"title":"Long-billed Dowitcher - Limnodromus scolopaceus","ispublic":1,"isfriend":0,"isfamily":0},{"id":"52309716125","owner":"124995824@N08","secret":"2a3b53510e","server":"65535","farm":66,"title":"Long-billed Dowitchers (Limnodromus scolopaceus) and Green-winged Teals (Anas crecca)","ispublic":1,"isfriend":0,"isfamily":0},{"id":"52289163190","owner":"168495655@N07","secret":"1f74d4982e","server":"65535","farm":66,"title":"B\u00e9cassin \u00e0 long bec - Limnodromus scolopaceus - Long-billed Dowitcher","ispublic":1,"isfriend":0,"isfamily":0},{"id":"52289162915","owner":"168495655@N07","secret":"8c956ecef1","server":"65535","farm":66,"title":"B\u00e9cassin \u00e0 long bec - Limnodromus scolopaceus - Long-billed Dowitcher","ispublic":1,"isfriend":0,"isfamily":0},{"id":"52285665812","owner":"36437800@N02","secret":"ff1f5c2c92","server":"65535","farm":66,"title":"63.) Long-Billed Dowitchers (Limnodromus scolopaceus)","ispublic":1,"isfriend":0,"isfamily":0},{"id":"52287129440","owner":"36437800@N02","secret":"684af39df5","server":"65535","farm":66,"title":"68.) Long-Billed Dowitchers (Limnodromus scolopaceus) in flight 2","ispublic":1,"isfriend":0,"isfamily":0},{"id":"52286906569","owner":"36437800@N02","secret":"dcf767e362","server":"65535","farm":66,"title":"69.) Long-Billed Dowitchers (Limnodromus scolopaceus) in flight 3","ispublic":1,"isfriend":0,"isfamily":0},{"id":"52272260918","owner":"54059915@N07","secret":"775ffde930","server":"65535","farm":66,"title":"Sewing machines","ispublic":1,"isfriend":0,"isfamily":0},{"id":"52271270427","owner":"54059915@N07","secret":"50f331d5c4","server":"65535","farm":66,"title":"Sewing machines","ispublic":1,"isfriend":0,"isfamily":0},{"id":"52262002436","owner":"103722035@N06","secret":"939b329cbe","server":"0","farm":0,"title":"Long-billed Dowitcher (Limnodromus scolopaceus), Whale Rock Reservoir, Cayucos, CA","ispublic":1,"isfriend":0,"isfamily":0},{"id":"52304569974","owner":"134270033@N06","secret":"0188bc4380","server":"65535","farm":66,"title":"HTT :: Happy Tuesday Twosday","ispublic":1,"isfriend":0,"isfamily":0},{"id":"52291239431","owner":"134270033@N06","secret":"bfdcb01237","server":"65535","farm":66,"title":"Transitional Plumage","ispublic":1,"isfriend":0,"isfamily":0},{"id":"52243108372","owner":"21558080@N07","secret":"e6e91337bd","server":"65535","farm":66,"title":"Long-billed Dowitcher (Limnodromus scolopaceus)","ispublic":1,"isfriend":0,"isfamily":0},{"id":"52221556219","owner":"103722035@N06","secret":"e1c3812aec","server":"0","farm":0,"title":"Long-billed Dowitcher (Limnodromus scolopaceus), Oso Flaco, CA","ispublic":1,"isfriend":0,"isfamily":0},{"id":"52219190696","owner":"27588142@N06","secret":"613b567314","server":"65535","farm":66,"title":"Long-billed Dowitcher","ispublic":1,"isfriend":0,"isfamily":0},{"id":"52219674415","owner":"27588142@N06","secret":"53f5ae507c","server":"65535","farm":66,"title":"Long-billed Dowitcher","ispublic":1,"isfriend":0,"isfamily":0},{"id":"52218153802","owner":"27588142@N06","secret":"bd4725c49b","server":"65535","farm":66,"title":"Long-billed Dowitcher","ispublic":1,"isfriend":0,"isfamily":0},{"id":"52219172993","owner":"27588142@N06","secret":"76a9f6cc8f","server":"65535","farm":66,"title":"Long-billed Dowitcher","ispublic":1,"isfriend":0,"isfamily":0},{"id":"52219429024","owner":"27588142@N06","secret":"273671156d","server":"65535","farm":66,"title":"Long-billed Dowitcher","ispublic":1,"isfriend":0,"isfamily":0},{"id":"52703265631","owner":"59206851@N00","secret":"7f50b4a902","server":"65535","farm":66,"title":"DSC_1466.jpg","ispublic":1,"isfriend":0,"isfamily":0},{"id":"52662310563","owner":"33610210@N05","secret":"d05894a7a1","server":"65535","farm":66,"title":"Long-billed Dowitcher, Limnodromus scolopaceus and Northern Shoveler, Spatula clypeata","ispublic":1,"isfriend":0,"isfamily":0},{"id":"52662104009","owner":"33610210@N05","secret":"4117dbc8dc","server":"65535","farm":66,"title":"Long-billed Dowitcher, Limnodromus scolopaceus","ispublic":1,"isfriend":0,"isfamily":0},{"id":"52662310543","owner":"33610210@N05","secret":"df44092730","server":"65535","farm":66,"title":"Long-billed Dowitcher, Limnodromus scolopaceus","ispublic":1,"isfriend":0,"isfamily":0},{"id":"52489814659","owner":"39445433@N02","secret":"7062126825","server":"65535","farm":66,"title":"Long-Billed Dowitcher","ispublic":1,"isfriend":0,"isfamily":0},{"id":"52438826028","owner":"65148649@N04","secret":"bde0a7d237","server":"65535","farm":66,"title":"Long-Billed Dowitcher and Blue-Winged Teal","ispublic":1,"isfriend":0,"isfamily":0},{"id":"52426489828","owner":"62907378@N07","secret":"b4fa5399d5","server":"65535","farm":66,"title":"Long-billed Dowitcher (Limnodromus scolopaceus),","ispublic":1,"isfriend":0,"isfamily":0},{"id":"52410251625","owner":"65148649@N04","secret":"843a4ba8b4","server":"65535","farm":66,"title":"Long-Billed Dowitchers","ispublic":1,"isfriend":0,"isfamily":0},{"id":"52410318358","owner":"65148649@N04","secret":"a3c79e6476","server":"65535","farm":66,"title":"Long-Billed Dowitchers","ispublic":1,"isfriend":0,"isfamily":0},{"id":"52409519159","owner":"62907378@N07","secret":"60475db7a5","server":"65535","farm":66,"title":"Long-billed Dowitcher (Limnodromus scolopaceus)","ispublic":1,"isfriend":0,"isfamily":0},{"id":"52409230666","owner":"62907378@N07","secret":"a08e444252","server":"65535","farm":66,"title":"Long-billed Dowitcher (Limnodromus scolopaceus)","ispublic":1,"isfriend":0,"isfamily":0},{"id":"52409230631","owner":"62907378@N07","secret":"c9849ddb6c","server":"65535","farm":66,"title":"Long-billed Dowitcher (Limnodromus scolopaceus)","ispublic":1,"isfriend":0,"isfamily":0},{"id":"52409739893","owner":"62907378@N07","secret":"fbc1f6d5c9","server":"65535","farm":66,"title":"Long-billed Dowitcher (Limnodromus scolopaceus)","ispublic":1,"isfriend":0,"isfamily":0},{"id":"52409516849","owner":"62907378@N07","secret":"214d12369f","server":"65535","farm":66,"title":"Long-billed Dowitcher (Limnodromus scolopaceus)","ispublic":1,"isfriend":0,"isfamily":0},{"id":"52408728682","owner":"62907378@N07","secret":"1917e55ec2","server":"65535","farm":66,"title":"Long-billed Dowitcher (Limnodromus scolopaceus)","ispublic":1,"isfriend":0,"isfamily":0},{"id":"52409229801","owner":"62907378@N07","secret":"2bd42cfd77","server":"65535","farm":66,"title":"Long-billed Dowitcher (Limnodromus scolopaceus)","ispublic":1,"isfriend":0,"isfamily":0},{"id":"52409739703","owner":"62907378@N07","secret":"fbf1dc3c0c","server":"65535","farm":66,"title":"Long-billed Dowitcher (Limnodromus scolopaceus)","ispublic":1,"isfriend":0,"isfamily":0},{"id":"52403259738","owner":"140318147@N08","secret":"fbb2a89cf6","server":"65535","farm":66,"title":"long-billed dowitcher (Limnodromus scolopaceus) L4A2589","ispublic":1,"isfriend":0,"isfamily":0},{"id":"52442444963","owner":"134270033@N06","secret":"3b6670975f","server":"0","farm":0,"title":"Shorebird Trio","ispublic":1,"isfriend":0,"isfamily":0},{"id":"52364856471","owner":"165841515@N03","secret":"913655dd78","server":"65535","farm":66,"title":"B\u00e9cassin \u00e0 long bec \/ Long-billed Dowitcher \/ (Limnodromus scolopaceus)","ispublic":1,"isfriend":0,"isfamily":0},{"id":"52252015466","owner":"124995824@N08","secret":"920b50f505","server":"65535","farm":66,"title":"Long-billed Dowitcher - Limnodromus scolopaceus","ispublic":1,"isfriend":0,"isfamily":0},{"id":"52248892018","owner":"124995824@N08","secret":"40931d0c90","server":"65535","farm":66,"title":"Long-billed Dowitcher - Limnodromus scolopaceus","ispublic":1,"isfriend":0,"isfamily":0}]},"stat":"ok"}