{"photos":{"page":1,"pages":9,"perpage":100,"total":841,"photo":[{"id":"52684779540","owner":"196786375@N03","secret":"0bd6f082ee","server":"65535","farm":66,"title":"Louisiana Waterthrush","ispublic":1,"isfriend":0,"isfamily":0},{"id":"52647443649","owner":"68635735@N02","secret":"e1b5180951","server":"65535","farm":66,"title":"Louisiana Waterthrush (Parkesia motacilla)","ispublic":1,"isfriend":0,"isfamily":0},{"id":"52580858830","owner":"153973412@N04","secret":"db76f8918c","server":"65535","farm":66,"title":"Louisiana Waterthrush-Parkesia motacilla, Iowa City, IA","ispublic":1,"isfriend":0,"isfamily":0},{"id":"52483391240","owner":"8417651@N08","secret":"4f752d52fc","server":"65535","farm":66,"title":"chipe de agua sure\u00f1o","ispublic":1,"isfriend":0,"isfamily":0},{"id":"52331683060","owner":"32752434@N07","secret":"4ec1e2c5fd","server":"65535","farm":66,"title":"Louisiana Waterthrush (Parkesia motacilla)","ispublic":1,"isfriend":0,"isfamily":0},{"id":"52218504255","owner":"107784905@N04","secret":"774ffe6ff6","server":"65535","farm":66,"title":"Paruline hochequeue - Rancho Naturalista\/Cartago\/Costa Rica_20211129_001-1","ispublic":1,"isfriend":0,"isfamily":0},{"id":"52202509941","owner":"184155060@N04","secret":"94865769ee","server":"65535","farm":66,"title":"32672 Paruline hochequeue \/ Parkesia motacilla \/ Louisiana Waterthrush","ispublic":1,"isfriend":0,"isfamily":0},{"id":"52201510137","owner":"184155060@N04","secret":"196f5fab73","server":"65535","farm":66,"title":"32672 Paruline hochequeue \/ Parkesia motacilla \/ Louisiana Waterthrush","ispublic":1,"isfriend":0,"isfamily":0},{"id":"52194247250","owner":"67164820@N06","secret":"5c09910131","server":"65535","farm":66,"title":"waterthrush","ispublic":1,"isfriend":0,"isfamily":0},{"id":"52182016155","owner":"76617062@N08","secret":"b2dd3cc822","server":"65535","farm":66,"title":"1.27642 Paruline hochequeue \/ Parkesia motacilla \/ Louisiana Waterthrush","ispublic":1,"isfriend":0,"isfamily":0},{"id":"52152560275","owner":"44075517@N00","secret":"146c212d0c","server":"65535","farm":66,"title":"Louisiana Waterthrush, Parkesia motacilla (Vieillot, 1809)","ispublic":1,"isfriend":0,"isfamily":0},{"id":"52151059187","owner":"44075517@N00","secret":"2ebd82c61b","server":"65535","farm":66,"title":"Louisiana Waterthrush, Parkesia motacilla (Vieillot, 1809)","ispublic":1,"isfriend":0,"isfamily":0},{"id":"52141454295","owner":"32599741@N03","secret":"fd1f950de0","server":"65535","farm":66,"title":"living up to its name","ispublic":1,"isfriend":0,"isfamily":0},{"id":"52094732057","owner":"128537732@N06","secret":"64a1ed15af","server":"65535","farm":66,"title":"Louisiana Waterthrush (Parkesia motacilla)","ispublic":1,"isfriend":0,"isfamily":0},{"id":"52095756771","owner":"128537732@N06","secret":"b9caf1a12d","server":"65535","farm":66,"title":"Louisiana Waterthrush (Parkesia motacilla)","ispublic":1,"isfriend":0,"isfamily":0},{"id":"52095994784","owner":"128537732@N06","secret":"4b2aec8e9d","server":"65535","farm":66,"title":"Louisiana Waterthrush (Parkesia motacilla)","ispublic":1,"isfriend":0,"isfamily":0},{"id":"52092146489","owner":"33573751@N04","secret":"909c7c849e","server":"65535","farm":66,"title":"Louisiana Waterthrush (Parkesia motacilla) - Weston, Connecticut","ispublic":1,"isfriend":0,"isfamily":0},{"id":"52090873347","owner":"33573751@N04","secret":"09afc6acf9","server":"65535","farm":66,"title":"Louisiana Waterthrush (Parkesia motacilla) - Weston, Connecticut","ispublic":1,"isfriend":0,"isfamily":0},{"id":"52080745939","owner":"91110467@N04","secret":"9a60f941a0","server":"65535","farm":66,"title":"Louisiana Waterthrush","ispublic":1,"isfriend":0,"isfamily":0},{"id":"52079341370","owner":"33573751@N04","secret":"e3a08a3dcb","server":"65535","farm":66,"title":"Louisiana Waterthrush (Parkesia motacilla) - Weston, Connecticut","ispublic":1,"isfriend":0,"isfamily":0},{"id":"52074198020","owner":"39138537@N06","secret":"bca6edb230","server":"0","farm":0,"title":"Singing Louisiana Waterthrush (Parkesia motacilla)","ispublic":1,"isfriend":0,"isfamily":0},{"id":"52040853024","owner":"49114357@N08","secret":"3642f4a7e2","server":"65535","farm":66,"title":"Louisiana Waterthrush","ispublic":1,"isfriend":0,"isfamily":0},{"id":"52040640720","owner":"22420387@N07","secret":"97bd69bf1c","server":"65535","farm":66,"title":"Louisiana Waterthrush - DEL_1515-LR","ispublic":1,"isfriend":0,"isfamily":0},{"id":"52021590466","owner":"73654511@N05","secret":"2d4706cb8c","server":"65535","farm":66,"title":"L0A0835-Louisiana Waterthrush","ispublic":1,"isfriend":0,"isfamily":0},{"id":"52006626394","owner":"40003624@N06","secret":"08f362639d","server":"65535","farm":66,"title":"Louisiana Waterthrush","ispublic":1,"isfriend":0,"isfamily":0},{"id":"52002276704","owner":"61241315@N00","secret":"a544b1f57f","server":"0","farm":0,"title":"Louisiana Waterthrush_0321.MP4","ispublic":1,"isfriend":0,"isfamily":0},{"id":"52002550545","owner":"61241315@N00","secret":"d4b7a10c1c","server":"0","farm":0,"title":"Louisiana Waterthrush_0334.MP4","ispublic":1,"isfriend":0,"isfamily":0},{"id":"52002084303","owner":"61241315@N00","secret":"8def26abef","server":"65535","farm":66,"title":"Louisiana Waterthrush_N0323","ispublic":1,"isfriend":0,"isfamily":0},{"id":"52002550985","owner":"61241315@N00","secret":"bfbb79afef","server":"65535","farm":66,"title":"Louisiana Waterthrush_N0329","ispublic":1,"isfriend":0,"isfamily":0},{"id":"52002084228","owner":"61241315@N00","secret":"4827132722","server":"65535","farm":66,"title":"Louisiana Waterthrush_N0333","ispublic":1,"isfriend":0,"isfamily":0},{"id":"51991258757","owner":"190949917@N03","secret":"6672b4456f","server":"65535","farm":66,"title":"Louisiana Waterthrush","ispublic":1,"isfriend":0,"isfamily":0},{"id":"51974628924","owner":"17654080@N08","secret":"7039e1c4b9","server":"65535","farm":66,"title":"Louisiana Waterthrush (Parkesia motacilla)","ispublic":1,"isfriend":0,"isfamily":0},{"id":"51974417663","owner":"17654080@N08","secret":"63d310b41c","server":"65535","farm":66,"title":"Louisiana Waterthrush (Parkesia motacilla)","ispublic":1,"isfriend":0,"isfamily":0},{"id":"51964568162","owner":"38514062@N03","secret":"875355b4c3","server":"65535","farm":66,"title":"Louisiana Waterthrush (Parkesia motacilla)","ispublic":1,"isfriend":0,"isfamily":0},{"id":"51966125845","owner":"38514062@N03","secret":"69b38b93e9","server":"65535","farm":66,"title":"Louisiana Waterthrush (Parkesia motacilla)","ispublic":1,"isfriend":0,"isfamily":0},{"id":"51901314345","owner":"35041397@N00","secret":"15269d7d69","server":"65535","farm":66,"title":"Louisiana Waterthrush","ispublic":1,"isfriend":0,"isfamily":0},{"id":"51597119075","owner":"50724234@N02","secret":"e94acbc10a","server":"65535","farm":66,"title":"Louisiana Waterthrush - Buttermilk Falls, Ithaca, New York State, USA (2014)","ispublic":1,"isfriend":0,"isfamily":0},{"id":"51427064369","owner":"190923251@N05","secret":"8b8476f579","server":"65535","farm":66,"title":"Northern Waterthrush","ispublic":1,"isfriend":0,"isfamily":0},{"id":"51298746957","owner":"33610210@N05","secret":"b7020ac078","server":"65535","farm":66,"title":"Louisiana Waterthrush, Parkesia motacilla","ispublic":1,"isfriend":0,"isfamily":0},{"id":"51277364648","owner":"61021753@N02","secret":"2bdda471b4","server":"65535","farm":66,"title":"n274_w1150","ispublic":1,"isfriend":0,"isfamily":0},{"id":"51274511316","owner":"119787485@N07","secret":"b85f390d73","server":"65535","farm":66,"title":"Louisiana Waterthrush (Parkesia motacilla) - 20170508-01","ispublic":1,"isfriend":0,"isfamily":0},{"id":"51234367423","owner":"33573751@N04","secret":"cccb1d590a","server":"65535","farm":66,"title":"Louisiana Waterthrush (Parkesia motacilla) - Southbury, Connecticut","ispublic":1,"isfriend":0,"isfamily":0},{"id":"51187975436","owner":"33573751@N04","secret":"6870cfbbb1","server":"65535","farm":66,"title":"Louisiana Waterthrush (Parkesia motacilla) - Southbury, Connecticut, USA","ispublic":1,"isfriend":0,"isfamily":0},{"id":"51188661359","owner":"33573751@N04","secret":"ecd6b32dd0","server":"65535","farm":66,"title":"Louisiana Waterthrush (Parkesia motacilla) - Southbury, Connecticut, USA","ispublic":1,"isfriend":0,"isfamily":0},{"id":"51148996166","owner":"52631592@N05","secret":"de2c957e87","server":"65535","farm":66,"title":"Louisiana waterthrush (Parkesia motacilla)","ispublic":1,"isfriend":0,"isfamily":0},{"id":"51138005914","owner":"61241315@N00","secret":"ba793551a5","server":"65535","farm":66,"title":"Louisiana Waterthrush_N8576","ispublic":1,"isfriend":0,"isfamily":0},{"id":"51136789255","owner":"61241315@N00","secret":"08c317a707","server":"0","farm":0,"title":"Louisiana Waterthrush_8591 COMPLETE","ispublic":1,"isfriend":0,"isfamily":0},{"id":"51136789425","owner":"61241315@N00","secret":"fe577ff6a9","server":"65535","farm":66,"title":"Louisiana Waterthrush_N8579","ispublic":1,"isfriend":0,"isfamily":0},{"id":"51132200931","owner":"190949917@N03","secret":"7ba549bb48","server":"65535","farm":66,"title":"Louisiana Waterthrush","ispublic":1,"isfriend":0,"isfamily":0},{"id":"51132357804","owner":"28499865@N07","secret":"d391f5fd2f","server":"65535","farm":66,"title":"Louisiana Waterthrush - Parkesia motacilla","ispublic":1,"isfriend":0,"isfamily":0},{"id":"51116959275","owner":"73654511@N05","secret":"fa178f28b5","server":"65535","farm":66,"title":"CA3I2043-Louisiana Waterthrush","ispublic":1,"isfriend":0,"isfamily":0},{"id":"52644149002","owner":"8013969@N03","secret":"15ac8c0336","server":"65535","farm":66,"title":"Parkesia motacilla DFL ny22-1","ispublic":1,"isfriend":0,"isfamily":0},{"id":"52644655716","owner":"8013969@N03","secret":"03ce36aa81","server":"65535","farm":66,"title":"Parkesia motacilla DFL ny22-2","ispublic":1,"isfriend":0,"isfamily":0},{"id":"52592209611","owner":"68635735@N02","secret":"fce2dda614","server":"65535","farm":66,"title":"Louisiana Waterthrush (Parkesia motacilla)","ispublic":1,"isfriend":0,"isfamily":0},{"id":"52541168004","owner":"33610210@N05","secret":"9db99acdd6","server":"65535","farm":66,"title":"Louisiana Waterthrush, Parkesia motacilla","ispublic":1,"isfriend":0,"isfamily":0},{"id":"52541167949","owner":"33610210@N05","secret":"8bb9888fd1","server":"65535","farm":66,"title":"Louisiana Waterthrush, Parkesia motacilla","ispublic":1,"isfriend":0,"isfamily":0},{"id":"52202537928","owner":"184155060@N04","secret":"90740357f6","server":"65535","farm":66,"title":"32672 Paruline hochequeue \/ Parkesia motacilla \/ Louisiana Waterthrush","ispublic":1,"isfriend":0,"isfamily":0},{"id":"52096257660","owner":"128537732@N06","secret":"17bfc5d9ee","server":"65535","farm":66,"title":"Louisiana Waterthrush (Parkesia motacilla)","ispublic":1,"isfriend":0,"isfamily":0},{"id":"52058464287","owner":"165841515@N03","secret":"bb2083a097","server":"65535","farm":66,"title":"Paruline des ruisseaux \/ Northern Watertrush \/ (Parkesia motacilla)","ispublic":1,"isfriend":0,"isfamily":0},{"id":"52059536043","owner":"165841515@N03","secret":"e7db500b00","server":"65535","farm":66,"title":"Paruline des ruisseaux \/ Northern Watertrush \/ (Parkesia motacilla)","ispublic":1,"isfriend":0,"isfamily":0},{"id":"52059988470","owner":"165841515@N03","secret":"3018ea1067","server":"65535","farm":66,"title":"Paruline des ruisseaux \/ Northern Watertrush \/ (Parkesia motacilla)","ispublic":1,"isfriend":0,"isfamily":0},{"id":"52025669490","owner":"128537732@N06","secret":"bf7402bbb9","server":"65535","farm":66,"title":"Louisiana Waterthrush (Parkesia motacilla)","ispublic":1,"isfriend":0,"isfamily":0},{"id":"52010260036","owner":"128537732@N06","secret":"789172bfba","server":"65535","farm":66,"title":"Louisiana Waterthrush (Parkesia motacilla)","ispublic":1,"isfriend":0,"isfamily":0},{"id":"52010772555","owner":"128537732@N06","secret":"4f453b5856","server":"65535","farm":66,"title":"Louisiana Waterthrush (Parkesia motacilla)","ispublic":1,"isfriend":0,"isfamily":0},{"id":"52005506064","owner":"91620959@N08","secret":"75624e01f7","server":"65535","farm":66,"title":"Louisiana waterthrush (Parkesia motacilla)","ispublic":1,"isfriend":0,"isfamily":0},{"id":"51995562414","owner":"13451078@N03","secret":"c25bc74b43","server":"65535","farm":66,"title":"Louisiana Waterthrush (Parkesia motacilla)","ispublic":1,"isfriend":0,"isfamily":0},{"id":"51974343091","owner":"17654080@N08","secret":"97df455b75","server":"65535","farm":66,"title":"Louisiana Waterthrush (Parkesia motacilla)","ispublic":1,"isfriend":0,"isfamily":0},{"id":"51974628864","owner":"17654080@N08","secret":"57f5a4452d","server":"65535","farm":66,"title":"Louisiana Waterthrush (Parkesia motacilla)","ispublic":1,"isfriend":0,"isfamily":0},{"id":"51974343011","owner":"17654080@N08","secret":"0f81c865c2","server":"65535","farm":66,"title":"LouisianaWaterthrushVertFM","ispublic":1,"isfriend":0,"isfamily":0},{"id":"51942664287","owner":"39617069@N08","secret":"a7ffa472a6","server":"65535","farm":66,"title":"Louisiana Waterthrush","ispublic":1,"isfriend":0,"isfamily":0},{"id":"51930201880","owner":"12639178@N07","secret":"0079b008c6","server":"65535","farm":66,"title":"Stelzenwalds\u00e4nger","ispublic":1,"isfriend":0,"isfamily":0},{"id":"51930201770","owner":"12639178@N07","secret":"7d71c64106","server":"65535","farm":66,"title":"Stelzenwalds\u00e4nger","ispublic":1,"isfriend":0,"isfamily":0},{"id":"51930201660","owner":"12639178@N07","secret":"a62a1262f7","server":"65535","farm":66,"title":"Stelzenwalds\u00e4nger","ispublic":1,"isfriend":0,"isfamily":0},{"id":"51879509048","owner":"80648919@N08","secret":"80c3c1bd3a","server":"65535","farm":66,"title":"Louisiana Waterthrush","ispublic":1,"isfriend":0,"isfamily":0},{"id":"51819124818","owner":"146080804@N02","secret":"7d101d47f2","server":"65535","farm":66,"title":"Louisiana Waterthrush (Parkesia motacilla)","ispublic":1,"isfriend":0,"isfamily":0},{"id":"51605743425","owner":"42622112@N08","secret":"2623449cfa","server":"65535","farm":66,"title":"Ciguita del Rio (Parkesia motacilla)","ispublic":1,"isfriend":0,"isfamily":0},{"id":"51382581684","owner":"186907702@N05","secret":"fba9cdfdae","server":"65535","farm":66,"title":"DSC06360.jpg","ispublic":1,"isfriend":0,"isfamily":0},{"id":"51382852600","owner":"186907702@N05","secret":"f27b7d1830","server":"65535","farm":66,"title":"DSC06343.jpg","ispublic":1,"isfriend":0,"isfamily":0},{"id":"51381838881","owner":"186907702@N05","secret":"fc667e8b79","server":"65535","farm":66,"title":"DSC06341.jpg","ispublic":1,"isfriend":0,"isfamily":0},{"id":"51332559213","owner":"49114357@N08","secret":"10b6ea495a","server":"65535","farm":66,"title":"Louisiana Waterthrush","ispublic":1,"isfriend":0,"isfamily":0},{"id":"51187905576","owner":"33573751@N04","secret":"3e4f522e49","server":"65535","farm":66,"title":"Louisiana Waterthrush (Parkesia motacilla) - Southbury, Connecticut, USA","ispublic":1,"isfriend":0,"isfamily":0},{"id":"51165112690","owner":"96568982@N06","secret":"825d17306e","server":"65535","farm":66,"title":"WATERTHRUSH, Louisiana","ispublic":1,"isfriend":0,"isfamily":0},{"id":"51163344987","owner":"96568982@N06","secret":"ff4b0b3927","server":"65535","farm":66,"title":"WATERTHRUSH, Louisiana","ispublic":1,"isfriend":0,"isfamily":0},{"id":"51148235279","owner":"33610210@N05","secret":"136b2453a2","server":"65535","farm":66,"title":"Louisiana Waterthrush, Parkesia motacilla","ispublic":1,"isfriend":0,"isfamily":0},{"id":"51143255286","owner":"192713461@N05","secret":"195e0d1ee5","server":"65535","farm":66,"title":"Louisiana Waterthrush (Parkesia motacilla)","ispublic":1,"isfriend":0,"isfamily":0},{"id":"51139682175","owner":"192713461@N05","secret":"701eacedc9","server":"65535","farm":66,"title":"Louisiana Waterthrush (Parkesia motacilla)","ispublic":1,"isfriend":0,"isfamily":0},{"id":"51135003737","owner":"61241315@N00","secret":"6188fd2dd8","server":"65535","farm":66,"title":"Louisiana Waterthrush_N8596","ispublic":1,"isfriend":0,"isfamily":0},{"id":"51136789295","owner":"61241315@N00","secret":"1e16f99a7f","server":"65535","farm":66,"title":"Louisiana Waterthrush_N8602","ispublic":1,"isfriend":0,"isfamily":0},{"id":"51135081369","owner":"128537732@N06","secret":"c7ac8dae8d","server":"65535","farm":66,"title":"Louisiana Waterthrush - Parkesia motacilla","ispublic":1,"isfriend":0,"isfamily":0},{"id":"51132357829","owner":"28499865@N07","secret":"9d280568cd","server":"65535","farm":66,"title":"Louisiana Waterthrush - Parkesia motacilla","ispublic":1,"isfriend":0,"isfamily":0},{"id":"51131581196","owner":"28499865@N07","secret":"98941b0ba3","server":"65535","farm":66,"title":"Louisiana Waterthrush - Parkesia motacilla","ispublic":1,"isfriend":0,"isfamily":0},{"id":"51131793353","owner":"28499865@N07","secret":"3014fa4255","server":"65535","farm":66,"title":"Louisiana Waterthrush - Parkesia motacilla","ispublic":1,"isfriend":0,"isfamily":0},{"id":"51125113213","owner":"22420387@N07","secret":"6861a395c2","server":"65535","farm":66,"title":"Northern Waterthrush - DEL_4581-LRwm","ispublic":1,"isfriend":0,"isfamily":0},{"id":"51124953044","owner":"22420387@N07","secret":"9798954b87","server":"65535","farm":66,"title":"Northern Waterthrush - DEL_4589-LRwm","ispublic":1,"isfriend":0,"isfamily":0},{"id":"51125113183","owner":"22420387@N07","secret":"32b5d1cc22","server":"65535","farm":66,"title":"Northern Waterthrush - DEL_4596-LRwm","ispublic":1,"isfriend":0,"isfamily":0},{"id":"51124657798","owner":"130605131@N08","secret":"0fbb116a50","server":"0","farm":0,"title":"MVI_4569","ispublic":1,"isfriend":0,"isfamily":0},{"id":"51183280147","owner":"8770851@N02","secret":"886bb27cea","server":"65535","farm":66,"title":"Louisiana Waterthrush -202","ispublic":1,"isfriend":0,"isfamily":0},{"id":"51184745279","owner":"8770851@N02","secret":"70e3e9a836","server":"65535","farm":66,"title":"Louisiana Waterthrush -201","ispublic":1,"isfriend":0,"isfamily":0},{"id":"51183279682","owner":"8770851@N02","secret":"94ba5e5524","server":"65535","farm":66,"title":"Louisiana Waterthrush Singing in the Woods","ispublic":1,"isfriend":0,"isfamily":0},{"id":"51185040200","owner":"8770851@N02","secret":"6cddc0496e","server":"65535","farm":66,"title":"Louisiana Waterthrush Singing","ispublic":1,"isfriend":0,"isfamily":0}]},"stat":"ok"}