{"photos":{"page":1,"pages":325,"perpage":100,"total":32458,"photo":[{"id":"52722424328","owner":"22123535@N00","secret":"c4d3872f06","server":"65535","farm":66,"title":"Cardinal flower","ispublic":1,"isfriend":0,"isfamily":0},{"id":"52721942751","owner":"22123535@N00","secret":"5abaefedcf","server":"65535","farm":66,"title":"Cardinal flower","ispublic":1,"isfriend":0,"isfamily":0},{"id":"52721554940","owner":"11159374@N04","secret":"e5a82d7368","server":"65535","farm":66,"title":"Northern Cardinal","ispublic":1,"isfriend":0,"isfamily":0},{"id":"52719006793","owner":"136620261@N06","secret":"1f08209df9","server":"65535","farm":66,"title":"Cardinal rouge, Cardinalis cardinalis, Northern Cardinal-4435-Edit.jpg","ispublic":1,"isfriend":0,"isfamily":0},{"id":"52717571224","owner":"69002026@N02","secret":"748578a4ab","server":"65535","farm":66,"title":"Northern Cardinal (Cardinalis cardinalis)","ispublic":1,"isfriend":0,"isfamily":0},{"id":"52716516768","owner":"8707485@N04","secret":"95f9848830","server":"65535","farm":66,"title":"Red Bird Above","ispublic":1,"isfriend":0,"isfamily":0},{"id":"52714282623","owner":"65788177@N02","secret":"2798375496","server":"65535","farm":66,"title":"Northern Cardinal","ispublic":1,"isfriend":0,"isfamily":0},{"id":"52713559504","owner":"169771858@N03","secret":"074fb2847d","server":"65535","farm":66,"title":"Northern Cardinal #4 - 2021-05-01","ispublic":1,"isfriend":0,"isfamily":0},{"id":"52713183951","owner":"130140749@N05","secret":"36ed959281","server":"65535","farm":66,"title":"Cardinalis cardinalis","ispublic":1,"isfriend":0,"isfamily":0},{"id":"52713563560","owner":"44128780@N08","secret":"bb9044b567","server":"65535","farm":66,"title":"Northern Cardinal","ispublic":1,"isfriend":0,"isfamily":0},{"id":"52713521513","owner":"188156748@N07","secret":"480f8ab75a","server":"65535","farm":66,"title":"Northern Cardinal (M) - Cardinal Rouge (M) - Cardinalis cardinalis 5557-SharpenAI-Standard copy.jpgS","ispublic":1,"isfriend":0,"isfamily":0},{"id":"52712950646","owner":"124995824@N08","secret":"aaa60d593f","server":"65535","farm":66,"title":"Northern Cardinal - Cardinalis cardinalis","ispublic":1,"isfriend":0,"isfamily":0},{"id":"52712950621","owner":"124995824@N08","secret":"749a7bdc6d","server":"65535","farm":66,"title":"Northern Cardinal - Cardinalis cardinalis","ispublic":1,"isfriend":0,"isfamily":0},{"id":"52713306395","owner":"188156748@N07","secret":"70c019674b","server":"65535","farm":66,"title":"Northern Cardinal (F) - Cardinal Rouge (F) - Cardinalis cardinalis 5462 (1)-SharpenAI-Standard copy.jpgS","ispublic":1,"isfriend":0,"isfamily":0},{"id":"52713150834","owner":"188156748@N07","secret":"862d44c099","server":"65535","farm":66,"title":"Northern Cardinal (F) - Cardinal Rouge (F) - Cardinalis cardinalis 5462 (2)-SharpenAI-Standard copy.jpgS","ispublic":1,"isfriend":0,"isfamily":0},{"id":"52712888701","owner":"188156748@N07","secret":"72aa28f28c","server":"65535","farm":66,"title":"Northern Cardinal (F) - Cardinal Rouge (F) - Cardinalis cardinalis 5462 (13)-SharpenAI-Standard copy.jpgS","ispublic":1,"isfriend":0,"isfamily":0},{"id":"52713306355","owner":"188156748@N07","secret":"54f5a37205","server":"65535","farm":66,"title":"Northern Cardinal (F) - Cardinal Rouge (F) - Cardinalis cardinalis 5462 (12)-SharpenAI-Standard copy.jpgS","ispublic":1,"isfriend":0,"isfamily":0},{"id":"52713366613","owner":"188156748@N07","secret":"50e0af747a","server":"65535","farm":66,"title":"Northern Cardinal (F) - Cardinal Rouge (F) - Cardinalis cardinalis 5462 (16)-SharpenAI-Standard copy.jpgS","ispublic":1,"isfriend":0,"isfamily":0},{"id":"52713306250","owner":"188156748@N07","secret":"c8e33f150f","server":"65535","farm":66,"title":"Northern Cardinal (F) - Cardinal Rouge (F) - Cardinalis cardinalis 5462 (19)-SharpenAI-Standard copy.jpgS","ispublic":1,"isfriend":0,"isfamily":0},{"id":"52712923054","owner":"146153230@N08","secret":"119ece3ba4","server":"65535","farm":66,"title":"\u2640 Northern Cardinal \/ Cardinal Rouge \u2640 (Cardinalis cardinalis)","ispublic":1,"isfriend":0,"isfamily":0},{"id":"52712125792","owner":"146153230@N08","secret":"3c3dd0c51a","server":"65535","farm":66,"title":"\u2642 Northern Cardinal \/ Cardinal Rouge \u2642 (Cardinalis cardinalis)","ispublic":1,"isfriend":0,"isfamily":0},{"id":"52712504101","owner":"36142084@N05","secret":"1324d5935c","server":"65535","farm":66,"title":"R5_009448","ispublic":1,"isfriend":0,"isfamily":0},{"id":"52712765564","owner":"36142084@N05","secret":"614c395303","server":"65535","farm":66,"title":"R5_008705","ispublic":1,"isfriend":0,"isfamily":0},{"id":"52710968766","owner":"61135968@N00","secret":"a902b8cb18","server":"65535","farm":66,"title":"Cardinal","ispublic":1,"isfriend":0,"isfamily":0},{"id":"52710925341","owner":"146378564@N07","secret":"2948d7e337","server":"65535","farm":66,"title":"Northern Cardinal (Cardinalis cardinalis)","ispublic":1,"isfriend":0,"isfamily":0},{"id":"52710812459","owner":"66898813@N06","secret":"c4feef975b","server":"65535","farm":66,"title":"Lobelia cardinalis | 2022 planting","ispublic":1,"isfriend":0,"isfamily":0},{"id":"52709944227","owner":"123597211@N03","secret":"a2a385d3c5","server":"65535","farm":66,"title":"Roter Neon (Paracheirodon axelrodi)","ispublic":1,"isfriend":0,"isfamily":0},{"id":"52710725119","owner":"123597211@N03","secret":"9846988f09","server":"65535","farm":66,"title":"Roter Neon (Paracheirodon axelrodi)","ispublic":1,"isfriend":0,"isfamily":0},{"id":"52710881380","owner":"123597211@N03","secret":"dd3ffe8886","server":"65535","farm":66,"title":"Roter Neon (Paracheirodon axelrodi)","ispublic":1,"isfriend":0,"isfamily":0},{"id":"52710465496","owner":"123597211@N03","secret":"d484156098","server":"65535","farm":66,"title":"Roter Neon (Paracheirodon axelrodi)","ispublic":1,"isfriend":0,"isfamily":0},{"id":"52709815764","owner":"73654511@N05","secret":"e904a6ae5f","server":"65535","farm":66,"title":"L0A5427-Vermilion Cardinal","ispublic":1,"isfriend":0,"isfamily":0},{"id":"52709979823","owner":"187999217@N04","secret":"65dcf0dfee","server":"65535","farm":66,"title":"Northern Cardinal (Cardinalis cardinalis)","ispublic":1,"isfriend":0,"isfamily":0},{"id":"52709194394","owner":"169771858@N03","secret":"f0596b7520","server":"65535","farm":66,"title":"Northern Cardinal #6 - 2021-05-01","ispublic":1,"isfriend":0,"isfamily":0},{"id":"52709147604","owner":"36524915@N05","secret":"b9c2b6955c","server":"65535","farm":66,"title":"Scarlet Monkey Flower (Erythranthe cardinalis)","ispublic":1,"isfriend":0,"isfamily":0},{"id":"52708459665","owner":"70295563@N00","secret":"4b04a36893","server":"65535","farm":66,"title":"Eye to eye","ispublic":1,"isfriend":0,"isfamily":0},{"id":"52707193695","owner":"18739614@N00","secret":"9a7b6745e4","server":"65535","farm":66,"title":"Northern Cardinal","ispublic":1,"isfriend":0,"isfamily":0},{"id":"52706419451","owner":"69002026@N02","secret":"bfa4d3b5fe","server":"65535","farm":66,"title":"Northern Cardinal (Cardinalis cardinalis)","ispublic":1,"isfriend":0,"isfamily":0},{"id":"52705893512","owner":"69002026@N02","secret":"e23da5aff4","server":"65535","farm":66,"title":"Northern Cardinal (Cardinalis cardinalis)","ispublic":1,"isfriend":0,"isfamily":0},{"id":"52706605169","owner":"111701633@N07","secret":"f3266b28af","server":"65535","farm":66,"title":"Northern_Cardinal","ispublic":1,"isfriend":0,"isfamily":0},{"id":"52706108598","owner":"33610210@N05","secret":"3788a758c2","server":"65535","farm":66,"title":"Northern Cardinal, Cardinalis cardinalis","ispublic":1,"isfriend":0,"isfamily":0},{"id":"52704863797","owner":"169771858@N03","secret":"184ecf3626","server":"65535","farm":66,"title":"Northern Cardinal #8 - 2021-05-01","ispublic":1,"isfriend":0,"isfamily":0},{"id":"52703732634","owner":"52450054@N04","secret":"c1605099dd","server":"65535","farm":66,"title":"Northern Cardinal - Cardinalis cardinalis, Leesylvania State Park, Woodbridge, Virginia, January 26, 2023","ispublic":1,"isfriend":0,"isfamily":0},{"id":"52703164838","owner":"8654297@N06","secret":"7e006e814c","server":"65535","farm":66,"title":"Balanced","ispublic":1,"isfriend":0,"isfamily":0},{"id":"52702368666","owner":"11159374@N04","secret":"7d495306ff","server":"65535","farm":66,"title":"Northern Cardinal","ispublic":1,"isfriend":0,"isfamily":0},{"id":"52702346696","owner":"69002026@N02","secret":"7569b89e26","server":"65535","farm":66,"title":"Northern Cardinal (Cardinalis cardinalis)","ispublic":1,"isfriend":0,"isfamily":0},{"id":"52701533190","owner":"169771858@N03","secret":"722c03d3c5","server":"65535","farm":66,"title":"Northern Cardinal #10 - 2021-05-01","ispublic":1,"isfriend":0,"isfamily":0},{"id":"52701141605","owner":"187124972@N03","secret":"12d2537cde","server":"65535","farm":66,"title":"CARDINAL ROUGE \/ NORTHERN CARDINAL (Cardinalis cardinalis)","ispublic":1,"isfriend":0,"isfamily":0},{"id":"52698116435","owner":"165841515@N03","secret":"207e57190e","server":"65535","farm":66,"title":"Cardinal rouge \/ Northern Cardinal \/ (Cardinalis cardinalis)","ispublic":1,"isfriend":0,"isfamily":0},{"id":"52697181607","owner":"165841515@N03","secret":"640357d463","server":"65535","farm":66,"title":"Cardinal rouge \/ Northern Cardinal \/ (Cardinalis cardinalis)","ispublic":1,"isfriend":0,"isfamily":0},{"id":"52697181277","owner":"165841515@N03","secret":"50043373b7","server":"65535","farm":66,"title":"Cardinal rouge \/ Northern Cardinal \/ (Cardinalis cardinalis)","ispublic":1,"isfriend":0,"isfamily":0},{"id":"52697493559","owner":"10260434@N03","secret":"056352476d","server":"65535","farm":66,"title":"Cardinal male-26Dec22","ispublic":1,"isfriend":0,"isfamily":0},{"id":"52696665717","owner":"48311154@N02","secret":"e0c2000942","server":"65535","farm":66,"title":"After another ice storm","ispublic":1,"isfriend":0,"isfamily":0},{"id":"52697273620","owner":"124995824@N08","secret":"ce7504f825","server":"65535","farm":66,"title":"Northern Cardinal - Cardinalis cardinalis","ispublic":1,"isfriend":0,"isfamily":0},{"id":"52695889727","owner":"196786375@N03","secret":"20bcd1d5ab","server":"65535","farm":66,"title":"Northern Cardinal (m)","ispublic":1,"isfriend":0,"isfamily":0},{"id":"52696402361","owner":"196786375@N03","secret":"572b4f4549","server":"65535","farm":66,"title":"Northern Cardinal Pair","ispublic":1,"isfriend":0,"isfamily":0},{"id":"52696402121","owner":"196786375@N03","secret":"ecdd6623c0","server":"65535","farm":66,"title":"Northern Cardinal (f)","ispublic":1,"isfriend":0,"isfamily":0},{"id":"52696008363","owner":"10260434@N03","secret":"583543d777","server":"65535","farm":66,"title":"Cardinal male-19Dec22","ispublic":1,"isfriend":0,"isfamily":0},{"id":"52695656028","owner":"196786375@N03","secret":"59a8a43eed","server":"65535","farm":66,"title":"Pyrrhuloxia (f)","ispublic":1,"isfriend":0,"isfamily":0},{"id":"52695418220","owner":"197628215@N07","secret":"12a36f1fb2","server":"65535","farm":66,"title":"Northern Cardinal (Cardinalis cardinalis) 02\/07\/2023 #northerncardinal #cardinal #bestbackroad #bestbackroads #natgeoyourshots #natgeo100contest #natgeo #rutlandcountyvt #washingtoncountyny #whitehallny #wildphotography #naturephotography #adventurephotog","ispublic":1,"isfriend":0,"isfamily":0},{"id":"52695097090","owner":"8654297@N06","secret":"31fe164569","server":"65535","farm":66,"title":"It's cold out here","ispublic":1,"isfriend":0,"isfamily":0},{"id":"52694969020","owner":"33886308@N03","secret":"31af36c4c0","server":"65535","farm":66,"title":"Pyrrhuloxia","ispublic":1,"isfriend":0,"isfamily":0},{"id":"52693598516","owner":"197000762@N06","secret":"97dcfa8248","server":"65535","farm":66,"title":"Alternanthera Cardinalis Variegata - Aqua Essentials","ispublic":1,"isfriend":0,"isfamily":0},{"id":"52692790722","owner":"138125336@N04","secret":"b61d07a1a4","server":"65535","farm":66,"title":"Northern Cardinal","ispublic":1,"isfriend":0,"isfamily":0},{"id":"52693003476","owner":"195642998@N04","secret":"907cedda8f","server":"65535","farm":66,"title":"Female Northern Cardinal ( Cardinalis cardinalis)","ispublic":1,"isfriend":0,"isfamily":0},{"id":"52692938700","owner":"169771858@N03","secret":"dfc3557939","server":"65535","farm":66,"title":"Northern Cardinal #7 - 2021-05-01","ispublic":1,"isfriend":0,"isfamily":0},{"id":"52691706829","owner":"8904060@N06","secret":"331920547d","server":"65535","farm":66,"title":"Cardinal Contrast","ispublic":1,"isfriend":0,"isfamily":0},{"id":"52691722845","owner":"169771858@N03","secret":"839f8d09fb","server":"65535","farm":66,"title":"Northern Cardinal #1 - 2019-11-03","ispublic":1,"isfriend":0,"isfamily":0},{"id":"52690641479","owner":"70295563@N00","secret":"daafe59cf9","server":"65535","farm":66,"title":"Cardinal portrait","ispublic":1,"isfriend":0,"isfamily":0},{"id":"52689188792","owner":"150163656@N06","secret":"0e38dda1fd","server":"65535","farm":66,"title":"Pyrrhuloxia","ispublic":1,"isfriend":0,"isfamily":0},{"id":"52689710546","owner":"150163656@N06","secret":"9323f89609","server":"65535","farm":66,"title":"Pyrrhuloxia","ispublic":1,"isfriend":0,"isfamily":0},{"id":"52689979439","owner":"150163656@N06","secret":"a6f6364373","server":"65535","farm":66,"title":"Pyrrhuloxia","ispublic":1,"isfriend":0,"isfamily":0},{"id":"52690125985","owner":"150163656@N06","secret":"7babd61484","server":"65535","farm":66,"title":"Pyrrhuloxia","ispublic":1,"isfriend":0,"isfamily":0},{"id":"52689193166","owner":"46837385@N03","secret":"def044e431","server":"65535","farm":66,"title":"Northern Cardinal","ispublic":1,"isfriend":0,"isfamily":0},{"id":"52687978789","owner":"12829388@N04","secret":"9779e63e3b","server":"65535","farm":66,"title":"Northern Cardinal - Cardinalis cardinalis","ispublic":1,"isfriend":0,"isfamily":0},{"id":"52687010672","owner":"127461478@N08","secret":"d32154598e","server":"65535","farm":66,"title":"IMG_8550 Caedinal rouge, Roberval","ispublic":1,"isfriend":0,"isfamily":0},{"id":"52687951910","owner":"127461478@N08","secret":"0a09829eac","server":"65535","farm":66,"title":"IMG_8546 Cardinal rouge, Roberval","ispublic":1,"isfriend":0,"isfamily":0},{"id":"52687010552","owner":"127461478@N08","secret":"c39b5eee55","server":"65535","farm":66,"title":"IMG_8542 Cardinal rouge, Roberval","ispublic":1,"isfriend":0,"isfamily":0},{"id":"52687351476","owner":"169771858@N03","secret":"6a22712f0d","server":"65535","farm":66,"title":"Northern Cardinal #5 - 2021-05-01","ispublic":1,"isfriend":0,"isfamily":0},{"id":"52686220162","owner":"69002026@N02","secret":"ec8c1bc0df","server":"65535","farm":66,"title":"Northern Cardinal (Cardinalis cardinalis)","ispublic":1,"isfriend":0,"isfamily":0},{"id":"52687020419","owner":"69002026@N02","secret":"d715d565a8","server":"65535","farm":66,"title":"Northern Cardinal (Cardinalis cardinalis)","ispublic":1,"isfriend":0,"isfamily":0},{"id":"52684656323","owner":"188156748@N07","secret":"d97cfd2be0","server":"65535","farm":66,"title":"Northern Cardinal (F) - Cardinal Rouge (F) - Cardinalis cardinalis 4211 (9) copy.jpgS","ispublic":1,"isfriend":0,"isfamily":0},{"id":"52684656318","owner":"188156748@N07","secret":"4c9f720efc","server":"65535","farm":66,"title":"Northern Cardinal (F) - Cardinal Rouge (F) - Cardinalis cardinalis 4211 (22) copy.jpgS","ispublic":1,"isfriend":0,"isfamily":0},{"id":"52684656288","owner":"188156748@N07","secret":"1d117b3bb1","server":"65535","farm":66,"title":"Northern Cardinal (F) - Cardinal Rouge (F) - Cardinalis cardinalis 4211 (26) copy.jpgS","ispublic":1,"isfriend":0,"isfamily":0},{"id":"52684515043","owner":"123597211@N03","secret":"fb0bb53883","server":"65535","farm":66,"title":"Roter Kardinal (Cardinalis cardinalis)","ispublic":1,"isfriend":0,"isfamily":0},{"id":"52683471497","owner":"70295563@N00","secret":"27029b5ef8","server":"65535","farm":66,"title":"On the rock","ispublic":1,"isfriend":0,"isfamily":0},{"id":"52683105169","owner":"169771858@N03","secret":"116a4bdd77","server":"65535","farm":66,"title":"Northern Cardinal #3 - 2021-05-01","ispublic":1,"isfriend":0,"isfamily":0},{"id":"52681849592","owner":"76500089@N03","secret":"927904d557","server":"65535","farm":66,"title":"Northern Cardinal (Cardinalis cardinalis)","ispublic":1,"isfriend":0,"isfamily":0},{"id":"52681087581","owner":"107023576@N07","secret":"8f325d7677","server":"65535","farm":66,"title":"Northern Cardinal","ispublic":1,"isfriend":0,"isfamily":0},{"id":"52680466381","owner":"187996196@N05","secret":"dd89703826","server":"65535","farm":66,"title":"Rotkardinal \/ Northern Cardinal \/ Cardinalis cardinalis","ispublic":1,"isfriend":0,"isfamily":0},{"id":"52680419424","owner":"169771858@N03","secret":"d467a0f719","server":"65535","farm":66,"title":"Northern Cardinal #2 - 2019-11-03","ispublic":1,"isfriend":0,"isfamily":0},{"id":"52679934715","owner":"96854611@N02","secret":"998d296a41","server":"65535","farm":66,"title":"Northern Cardinal","ispublic":1,"isfriend":0,"isfamily":0},{"id":"52679846760","owner":"71418112@N00","secret":"b9492a7ca3","server":"65535","farm":66,"title":"Hiding in the bushes.","ispublic":1,"isfriend":0,"isfamily":0},{"id":"52679568473","owner":"196253572@N05","secret":"21eca61169","server":"65535","farm":66,"title":"Secrets of the Swamp, Part 1: Cardinal Flower (Lobelia cardinalis), Indiana Dunes State Park, Indiana, USA","ispublic":1,"isfriend":0,"isfamily":0},{"id":"52679339278","owner":"146153230@N08","secret":"4f3edc94dc","server":"65535","farm":66,"title":"\u2640 Northern Cardinal \/ Cardinal Rouge \u2640 (Cardinalis cardinalis)","ispublic":1,"isfriend":0,"isfamily":0},{"id":"52678330307","owner":"146153230@N08","secret":"29b22fbf65","server":"65535","farm":66,"title":"Northern Cardinal \/ Cardinal Rouge (Cardinalis cardinalis)","ispublic":1,"isfriend":0,"isfamily":0},{"id":"52678326067","owner":"146153230@N08","secret":"c3674bfd19","server":"65535","farm":66,"title":"Northern Cardinal \/ Cardinal Rouge (Cardinalis cardinalis)","ispublic":1,"isfriend":0,"isfamily":0},{"id":"52678839981","owner":"16943730@N00","secret":"a78412e01c","server":"65535","farm":66,"title":"Northern cardinal \u2642\ufe0e","ispublic":1,"isfriend":0,"isfamily":0},{"id":"52678640496","owner":"187996196@N05","secret":"3700244272","server":"65535","farm":66,"title":"Rotkardinal \/ Northern Cardinal \/ Cardinalis cardinalis","ispublic":1,"isfriend":0,"isfamily":0},{"id":"52678986233","owner":"187124972@N03","secret":"6854667c1f","server":"65535","farm":66,"title":"CARDINAL ROUGE \/ NORTHERN CARDINAL (Cardinalis cardinalis)","ispublic":1,"isfriend":0,"isfamily":0},{"id":"52684441870","owner":"123597211@N03","secret":"751c357c04","server":"65535","farm":66,"title":"Roter Kardinal (Cardinalis cardinalis)","ispublic":1,"isfriend":0,"isfamily":0}]},"stat":"ok"}