{"photos":{"page":1,"pages":119,"perpage":100,"total":11846,"photo":[{"id":"52722614665","owner":"143326780@N02","secret":"8d1b5f0ace","server":"65535","farm":66,"title":"DSCN5813","ispublic":1,"isfriend":0,"isfamily":0},{"id":"52722614595","owner":"143326780@N02","secret":"f87afc88dc","server":"65535","farm":66,"title":"DSCN5823","ispublic":1,"isfriend":0,"isfamily":0},{"id":"52722462563","owner":"25899079@N08","secret":"89e0f3eed5","server":"65535","farm":66,"title":"Red-shafted x Yellow-shafted Flicker (9965)","ispublic":1,"isfriend":0,"isfamily":0},{"id":"52721364731","owner":"45340210@N05","secret":"4765911a52","server":"65535","farm":66,"title":"Northern Flicker (male) Flies Off Nest 5_3_22","ispublic":1,"isfriend":0,"isfamily":0},{"id":"52721211641","owner":"39652177@N04","secret":"4f038773a9","server":"65535","farm":66,"title":"Northern flicker","ispublic":1,"isfriend":0,"isfamily":0},{"id":"52718988188","owner":"65148649@N04","secret":"f449ff8c59","server":"65535","farm":66,"title":"Northern Flicker 02.18.23 Frye","ispublic":1,"isfriend":0,"isfamily":0},{"id":"52717297237","owner":"78145652@N02","secret":"17a619f637","server":"65535","farm":66,"title":"Northern Yellow-shafted Flicker - Colaptes auratus ssp. luteus","ispublic":1,"isfriend":0,"isfamily":0},{"id":"52716597644","owner":"28764032@N00","secret":"a9e467eb48","server":"65535","farm":66,"title":"Northern Flicker (Colaptes auratus)","ispublic":1,"isfriend":0,"isfamily":0},{"id":"52716764455","owner":"28764032@N00","secret":"714773ce36","server":"65535","farm":66,"title":"Northern Flicker (Colaptes auratus)","ispublic":1,"isfriend":0,"isfamily":0},{"id":"52714071700","owner":"129849840@N08","secret":"ceae6f62de","server":"65535","farm":66,"title":"Just feed me.....","ispublic":1,"isfriend":0,"isfamily":0},{"id":"52711802405","owner":"142605906@N06","secret":"655d6ccfaf","server":"65535","farm":66,"title":"Coy Flicker","ispublic":1,"isfriend":0,"isfamily":0},{"id":"52710927928","owner":"53217733@N00","secret":"fd3c199587","server":"65535","farm":66,"title":"Flicker Guest","ispublic":1,"isfriend":0,"isfamily":0},{"id":"52710821830","owner":"53217733@N00","secret":"5667462467","server":"65535","farm":66,"title":"Flicker Guest House","ispublic":1,"isfriend":0,"isfamily":0},{"id":"52709129356","owner":"75620067@N05","secret":"d6b53b9b7a","server":"65535","farm":66,"title":"Yellow-shafted Flicker female","ispublic":1,"isfriend":0,"isfamily":0},{"id":"52709365610","owner":"61396634@N07","secret":"71ced700ae","server":"65535","farm":66,"title":"Northern Flicker","ispublic":1,"isfriend":0,"isfamily":0},{"id":"52708934351","owner":"68635735@N02","secret":"3d821cfdfc","server":"65535","farm":66,"title":"Northern Flicker (Colaptes auratus) male","ispublic":1,"isfriend":0,"isfamily":0},{"id":"52709188624","owner":"68635735@N02","secret":"a07bcc791f","server":"65535","farm":66,"title":"Northern Flicker (Colaptes auratus) male","ispublic":1,"isfriend":0,"isfamily":0},{"id":"52666962234","owner":"49114357@N08","secret":"5612a6e10c","server":"65535","farm":66,"title":"Northern Flicker","ispublic":1,"isfriend":0,"isfamily":0},{"id":"52708375851","owner":"168495655@N07","secret":"259df6cbf3","server":"65535","farm":66,"title":"Pic flamboyant - Colaptes auratus - Northern Flicker","ispublic":1,"isfriend":0,"isfamily":0},{"id":"52707456391","owner":"57126723@N07","secret":"488f4283b6","server":"65535","farm":66,"title":"Northern Flicker\u2014Colaptes auratus-9068-Edit","ispublic":1,"isfriend":0,"isfamily":0},{"id":"52707705549","owner":"57126723@N07","secret":"85d8e2291c","server":"65535","farm":66,"title":"Northern Flicker\u2014Colaptes auratus-9073-Edit","ispublic":1,"isfriend":0,"isfamily":0},{"id":"52706261262","owner":"61241315@N00","secret":"df5d56fa47","server":"65535","farm":66,"title":"Northern Flicker_N9101","ispublic":1,"isfriend":0,"isfamily":0},{"id":"52707272713","owner":"61241315@N00","secret":"b397e61f09","server":"65535","farm":66,"title":"Northern Flicker_N9106","ispublic":1,"isfriend":0,"isfamily":0},{"id":"52706786881","owner":"61241315@N00","secret":"5c0d6b5ae9","server":"65535","farm":66,"title":"Northern Flicker_N9128","ispublic":1,"isfriend":0,"isfamily":0},{"id":"52707034884","owner":"61241315@N00","secret":"578a88d0cc","server":"65535","farm":66,"title":"Northern Flicker_N9130","ispublic":1,"isfriend":0,"isfamily":0},{"id":"52706261147","owner":"61241315@N00","secret":"ddaa1076ab","server":"65535","farm":66,"title":"Northern Flicker_N9103","ispublic":1,"isfriend":0,"isfamily":0},{"id":"52707196360","owner":"61241315@N00","secret":"9b28c03659","server":"65535","farm":66,"title":"Northern Flicker_N9142","ispublic":1,"isfriend":0,"isfamily":0},{"id":"52707272573","owner":"61241315@N00","secret":"20864db195","server":"65535","farm":66,"title":"Northern Flicker_N9146","ispublic":1,"isfriend":0,"isfamily":0},{"id":"52707034839","owner":"61241315@N00","secret":"d8ab98b764","server":"65535","farm":66,"title":"Northern Flicker_N9134","ispublic":1,"isfriend":0,"isfamily":0},{"id":"52704745407","owner":"14908898@N08","secret":"8b00093429","server":"65535","farm":66,"title":"Northern Flicker 5-16-17","ispublic":1,"isfriend":0,"isfamily":0},{"id":"52704997016","owner":"11159374@N04","secret":"01db3a4a05","server":"65535","farm":66,"title":"Northern Flicker","ispublic":1,"isfriend":0,"isfamily":0},{"id":"52700788801","owner":"44904157@N04","secret":"c4b6cb41a4","server":"65535","farm":66,"title":"In The Rough","ispublic":1,"isfriend":0,"isfamily":0},{"id":"52697878858","owner":"65148649@N04","secret":"0039b82d5b","server":"65535","farm":66,"title":"Northern Flicker 02.11.23 Rutherford E","ispublic":1,"isfriend":0,"isfamily":0},{"id":"52696338632","owner":"124995824@N08","secret":"ccd5320483","server":"65535","farm":66,"title":"Northern Flicker - Colaptes auratus","ispublic":1,"isfriend":0,"isfamily":0},{"id":"52695545964","owner":"148384995@N05","secret":"ffb0ecde22","server":"65535","farm":66,"title":"Northern Flicker ( Red Shafted )","ispublic":1,"isfriend":0,"isfamily":0},{"id":"52695755038","owner":"148384995@N05","secret":"4ff21a59bd","server":"65535","farm":66,"title":"Northern Flicker ( Yellow Shafted )","ispublic":1,"isfriend":0,"isfamily":0},{"id":"52691862052","owner":"34238008@N02","secret":"3308f5d865","server":"65535","farm":66,"title":"Northern Flicker, Red-shafted (Colaptes auratus [cafer Group])","ispublic":1,"isfriend":0,"isfamily":0},{"id":"52687149157","owner":"98169970@N00","secret":"19ef442160","server":"65535","farm":66,"title":"northern flicker (colaptes auratus)","ispublic":1,"isfriend":0,"isfamily":0},{"id":"52685966702","owner":"34238008@N02","secret":"9845a82c64","server":"65535","farm":66,"title":"Northern Flicker, Red-shafted (Colaptes auratus [cafer Group])","ispublic":1,"isfriend":0,"isfamily":0},{"id":"52686483366","owner":"34238008@N02","secret":"eded92c2df","server":"65535","farm":66,"title":"Northern Flicker, Red-shafted (Colaptes auratus [cafer Group])","ispublic":1,"isfriend":0,"isfamily":0},{"id":"52685018651","owner":"22420387@N07","secret":"197861e58d","server":"65535","farm":66,"title":"Northern Flicker - DEL_7974 - LR","ispublic":1,"isfriend":0,"isfamily":0},{"id":"52685018626","owner":"22420387@N07","secret":"64f773f6fa","server":"65535","farm":66,"title":"Northern Flicker - DEL_7987 - LR","ispublic":1,"isfriend":0,"isfamily":0},{"id":"52680832532","owner":"98627816@N02","secret":"d87cc7332b","server":"65535","farm":66,"title":"Northern Flicker","ispublic":1,"isfriend":0,"isfamily":0},{"id":"52680256173","owner":"65148649@N04","secret":"c51c2a3336","server":"65535","farm":66,"title":"Northern Flicker 02.04.23 Rutherford K","ispublic":1,"isfriend":0,"isfamily":0},{"id":"52679243707","owner":"65148649@N04","secret":"72c4141997","server":"65535","farm":66,"title":"Northern Flicker 02.04.23 Frye","ispublic":1,"isfriend":0,"isfamily":0},{"id":"52680043029","owner":"65148649@N04","secret":"dbf11b76b2","server":"65535","farm":66,"title":"Northern Flicker 2 02.04.23 Frye","ispublic":1,"isfriend":0,"isfamily":0},{"id":"52671406557","owner":"65148649@N04","secret":"4a06218a6a","server":"65535","farm":66,"title":"Northern Flickers 01.28.23 Frye","ispublic":1,"isfriend":0,"isfamily":0},{"id":"52672408948","owner":"65148649@N04","secret":"fbcbfcb300","server":"65535","farm":66,"title":"Northern Flicker 2 01.28.23 Frye","ispublic":1,"isfriend":0,"isfamily":0},{"id":"52671406527","owner":"65148649@N04","secret":"8d276d90f8","server":"65535","farm":66,"title":"Northern Flicker 01.28.23 Frye","ispublic":1,"isfriend":0,"isfamily":0},{"id":"52669914169","owner":"53217733@N00","secret":"c3f1993431","server":"65535","farm":66,"title":"Female Common Flicker","ispublic":1,"isfriend":0,"isfamily":0},{"id":"52669712919","owner":"160542269@N02","secret":"76b40ba167","server":"65535","farm":66,"title":"northern flicker (colaptes auratus)","ispublic":1,"isfriend":0,"isfamily":0},{"id":"52668656174","owner":"129051288@N05","secret":"35eaf7ed06","server":"65535","farm":66,"title":"Pic flamboyant, Colaptes auratus, Northern Flicker","ispublic":1,"isfriend":0,"isfamily":0},{"id":"52668735133","owner":"34238008@N02","secret":"e59980f7e8","server":"65535","farm":66,"title":"Northern Flicker, Red-shafted (Colaptes auratus [cafer Group])","ispublic":1,"isfriend":0,"isfamily":0},{"id":"52661085417","owner":"125356410@N06","secret":"aa875f27ea","server":"65535","farm":66,"title":"Woodpecker Wednesay - Northern Flicker 4230-11","ispublic":1,"isfriend":0,"isfamily":0},{"id":"52662101340","owner":"196127020@N02","secret":"a4804c502b","server":"65535","farm":66,"title":"Northern Flickr","ispublic":1,"isfriend":0,"isfamily":0},{"id":"52662148108","owner":"53217733@N00","secret":"eeddd60198","server":"65535","farm":66,"title":"Male Common Flicker","ispublic":1,"isfriend":0,"isfamily":0},{"id":"52660112062","owner":"34238008@N02","secret":"f0ec897c96","server":"65535","farm":66,"title":"Northern Flicker, Red-shafted (Colaptes auratus [cafer Group])","ispublic":1,"isfriend":0,"isfamily":0},{"id":"52657729956","owner":"65148649@N04","secret":"a260acbe2f","server":"65535","farm":66,"title":"Northern Flicker 01.21.23 Frye","ispublic":1,"isfriend":0,"isfamily":0},{"id":"52655921403","owner":"84175980@N00","secret":"a7b888961b","server":"65535","farm":66,"title":"20221201 Colaptes auratus (Northern Flicker) (4)","ispublic":1,"isfriend":0,"isfamily":0},{"id":"52655358015","owner":"57632817@N00","secret":"d08a9d34b1","server":"65535","farm":66,"title":"Flicker Tongue","ispublic":1,"isfriend":0,"isfamily":0},{"id":"52651953573","owner":"84175980@N00","secret":"3c2461a6ff","server":"65535","farm":66,"title":"20221201 Colaptes auratus (Northern Flicker) (1)","ispublic":1,"isfriend":0,"isfamily":0},{"id":"52646924977","owner":"34238008@N02","secret":"15ca00e98f","server":"65535","farm":66,"title":"Northern Flicker, intergrade (Colaptes auratus luteus x cafer)","ispublic":1,"isfriend":0,"isfamily":0},{"id":"52647910543","owner":"34238008@N02","secret":"705a2b7a88","server":"65535","farm":66,"title":"Northern Flicker, intergrade (Colaptes auratus luteus x cafer)","ispublic":1,"isfriend":0,"isfamily":0},{"id":"52647426541","owner":"34238008@N02","secret":"5c50d6f875","server":"65535","farm":66,"title":"Northern Flicker, intergrade (Colaptes auratus luteus x cafer)","ispublic":1,"isfriend":0,"isfamily":0},{"id":"52646373461","owner":"141176091@N02","secret":"a2e56e3ed8","server":"65535","farm":66,"title":"Red-shafted Northern Flicker","ispublic":1,"isfriend":0,"isfamily":0},{"id":"52644347521","owner":"65633503@N02","secret":"c9362ac55e","server":"65535","farm":66,"title":"Northern flicker (Colaptes auratus) eating snow","ispublic":1,"isfriend":0,"isfamily":0},{"id":"52643695900","owner":"33888451@N07","secret":"2eacb43a2a","server":"65535","farm":66,"title":"Flicker intergrad","ispublic":1,"isfriend":0,"isfamily":0},{"id":"52643119014","owner":"9243885@N07","secret":"51e4da9af5","server":"65535","farm":66,"title":"2023_01_21_5DMk4_90870","ispublic":1,"isfriend":0,"isfamily":0},{"id":"52640445380","owner":"10260434@N03","secret":"aab4d637bb","server":"65535","farm":66,"title":"Northern Flicker fem-13Dec22","ispublic":1,"isfriend":0,"isfamily":0},{"id":"52639450342","owner":"10260434@N03","secret":"a3cd7b60ee","server":"65535","farm":66,"title":"Northern Flicker fem-10Jan2023","ispublic":1,"isfriend":0,"isfamily":0},{"id":"52638625012","owner":"54249623@N08","secret":"42bcb6a94a","server":"65535","farm":66,"title":"Yellow-shafted Flicker, Northern Flicker (Colaptes auratus)","ispublic":1,"isfriend":0,"isfamily":0},{"id":"52639415853","owner":"47533293@N04","secret":"b32244e81d","server":"65535","farm":66,"title":"Northern flicker, Colaptes auratus","ispublic":1,"isfriend":0,"isfamily":0},{"id":"52636343748","owner":"103722035@N06","secret":"4f3cdebaf2","server":"0","farm":0,"title":"Northern Flicker (Yellow-shafted x Red-shafted) (Colaptes auratus luteus x cafer), Santa Margarita, CA","ispublic":1,"isfriend":0,"isfamily":0},{"id":"52633940081","owner":"39445433@N02","secret":"56dc63da5c","server":"65535","farm":66,"title":"Northern Flicker","ispublic":1,"isfriend":0,"isfamily":0},{"id":"52633428622","owner":"39445433@N02","secret":"1e15cda429","server":"65535","farm":66,"title":"Northern Flicker","ispublic":1,"isfriend":0,"isfamily":0},{"id":"52634423398","owner":"39445433@N02","secret":"37d9e96fba","server":"65535","farm":66,"title":"Northern Flicker","ispublic":1,"isfriend":0,"isfamily":0},{"id":"52631194927","owner":"11939829@N00","secret":"22384069ea","server":"65535","farm":66,"title":"Red-shafted Northern Flicker","ispublic":1,"isfriend":0,"isfamily":0},{"id":"52630975466","owner":"66855284@N03","secret":"23231839bd","server":"65535","farm":66,"title":"Norther Flicker 2023 01 14 23","ispublic":1,"isfriend":0,"isfamily":0},{"id":"52630974076","owner":"66855284@N03","secret":"4d7c7cafbb","server":"65535","farm":66,"title":"Norther Flicker 2023 01 14 14","ispublic":1,"isfriend":0,"isfamily":0},{"id":"52631451478","owner":"66855284@N03","secret":"09d39d2d11","server":"65535","farm":66,"title":"Norther Flicker 2023 01 14 19","ispublic":1,"isfriend":0,"isfamily":0},{"id":"52631449913","owner":"66855284@N03","secret":"031dd90f58","server":"65535","farm":66,"title":"Norther Flicker 2023 01 14 13","ispublic":1,"isfriend":0,"isfamily":0},{"id":"52631409195","owner":"66855284@N03","secret":"3360546089","server":"65535","farm":66,"title":"Norther Flicker 2023 01 14 15","ispublic":1,"isfriend":0,"isfamily":0},{"id":"52630451397","owner":"66855284@N03","secret":"44f3e5b265","server":"65535","farm":66,"title":"Norther Flicker 2023 01 14 20","ispublic":1,"isfriend":0,"isfamily":0},{"id":"52631405985","owner":"66855284@N03","secret":"ac8055107f","server":"65535","farm":66,"title":"Norther Flicker 2023 01 14 01","ispublic":1,"isfriend":0,"isfamily":0},{"id":"52631215054","owner":"66855284@N03","secret":"05a9aea9b2","server":"65535","farm":66,"title":"Norther Flicker 2023 01 14 18","ispublic":1,"isfriend":0,"isfamily":0},{"id":"52630446767","owner":"66855284@N03","secret":"b23137a11d","server":"65535","farm":66,"title":"Norther Flicker 2023 01 14 21","ispublic":1,"isfriend":0,"isfamily":0},{"id":"52631401600","owner":"66855284@N03","secret":"c0d5563358","server":"65535","farm":66,"title":"Norther Flicker 2023 01 14 22","ispublic":1,"isfriend":0,"isfamily":0},{"id":"52631439508","owner":"66855284@N03","secret":"8f0489c39e","server":"65535","farm":66,"title":"Norther Flicker 2023 01 14 12","ispublic":1,"isfriend":0,"isfamily":0},{"id":"52631398700","owner":"66855284@N03","secret":"3fb48c56d2","server":"65535","farm":66,"title":"Norther Flicker 2023 01 14 01","ispublic":1,"isfriend":0,"isfamily":0},{"id":"52631436228","owner":"66855284@N03","secret":"b4c9a2326a","server":"65535","farm":66,"title":"Norther Flicker 2023 01 14 01","ispublic":1,"isfriend":0,"isfamily":0},{"id":"52631391345","owner":"66855284@N03","secret":"feea0e3011","server":"65535","farm":66,"title":"Norther Flicker 2023 01 14 07","ispublic":1,"isfriend":0,"isfamily":0},{"id":"52631389770","owner":"66855284@N03","secret":"a0f6984d58","server":"65535","farm":66,"title":"Norther Flicker 2023 01 14 10","ispublic":1,"isfriend":0,"isfamily":0},{"id":"52630948341","owner":"66855284@N03","secret":"26efe6d3dd","server":"65535","farm":66,"title":"Norther Flicker 2023 01 14 09","ispublic":1,"isfriend":0,"isfamily":0},{"id":"52631386710","owner":"66855284@N03","secret":"e95c5444ac","server":"65535","farm":66,"title":"Norther Flicker 2023 01 14 01","ispublic":1,"isfriend":0,"isfamily":0},{"id":"52630429362","owner":"66855284@N03","secret":"f95886c56f","server":"65535","farm":66,"title":"Norther Flicker 2023 01 14 03","ispublic":1,"isfriend":0,"isfamily":0},{"id":"52630427632","owner":"66855284@N03","secret":"726ce18892","server":"65535","farm":66,"title":"Norther Flicker 2023 01 14 04","ispublic":1,"isfriend":0,"isfamily":0},{"id":"52631421938","owner":"66855284@N03","secret":"0e770eeaa5","server":"65535","farm":66,"title":"Norther Flicker 2023 01 14 05","ispublic":1,"isfriend":0,"isfamily":0},{"id":"52631419718","owner":"66855284@N03","secret":"610bdb60ec","server":"65535","farm":66,"title":"Norther Flicker 2023 01 14 01","ispublic":1,"isfriend":0,"isfamily":0},{"id":"52631378480","owner":"66855284@N03","secret":"77ef8966e6","server":"65535","farm":66,"title":"Norther Flicker 2023 01 14 02","ispublic":1,"isfriend":0,"isfamily":0},{"id":"52629411563","owner":"144980256@N07","secret":"54f576b47f","server":"65535","farm":66,"title":"Northern Flicker (Colaptes auratus)","ispublic":1,"isfriend":0,"isfamily":0}]},"stat":"ok"}