{"photos":{"page":1,"pages":10,"perpage":100,"total":983,"photo":[{"id":"52589909941","owner":"60250038@N02","secret":"e6d58d170c","server":"65535","farm":66,"title":"Olive-sided Flycatcher - Strange Behaviour","ispublic":1,"isfriend":0,"isfamily":0},{"id":"52580260556","owner":"153973412@N04","secret":"5efdc7e809","server":"65535","farm":66,"title":"Olive-sided Flycatcher-Contopus cooperi, RMNP, CO","ispublic":1,"isfriend":0,"isfamily":0},{"id":"52511625290","owner":"35259356@N06","secret":"036b38bced","server":"65535","farm":66,"title":"Flycatcher: Olive-sided Flycatcher","ispublic":1,"isfriend":0,"isfamily":0},{"id":"52482543396","owner":"28631427@N00","secret":"95eb6eac1d","server":"65535","farm":66,"title":"Olive-sided Flycatcher","ispublic":1,"isfriend":0,"isfamily":0},{"id":"52422529611","owner":"34238008@N02","secret":"6d58e4db80","server":"65535","farm":66,"title":"Olive-sided Flycatcher (Contopus cooperi)","ispublic":1,"isfriend":0,"isfamily":0},{"id":"52461874927","owner":"134270033@N06","secret":"ff508ac00c","server":"65535","farm":66,"title":"Photo Doc of Nesting","ispublic":1,"isfriend":0,"isfamily":0},{"id":"52391764303","owner":"196264892@N08","secret":"29a006bca4","server":"65535","farm":66,"title":"Olive-sided Flycatcher","ispublic":1,"isfriend":0,"isfamily":0},{"id":"52391764213","owner":"196264892@N08","secret":"85a1fc93da","server":"65535","farm":66,"title":"Olive-sided Flycatcher","ispublic":1,"isfriend":0,"isfamily":0},{"id":"52387882080","owner":"23020855@N03","secret":"731e53692b","server":"65535","farm":66,"title":"Olive-sided Flycatcher - Swaneset Bay Resort, BC","ispublic":1,"isfriend":0,"isfamily":0},{"id":"52387468774","owner":"85277889@N08","secret":"ed2c2d85d1","server":"65535","farm":66,"title":"Olive-sided Flycatcher (Contopus cooperi) 2022-09-04 (2a)","ispublic":1,"isfriend":0,"isfamily":0},{"id":"52387161926","owner":"85277889@N08","secret":"b31372894f","server":"65535","farm":66,"title":"Olive-sided Flycatcher (Contopus cooperi) 2022-09-04 (3a)","ispublic":1,"isfriend":0,"isfamily":0},{"id":"52374355635","owner":"34238008@N02","secret":"51ea9c6f4f","server":"65535","farm":66,"title":"Olive-sided Flycatcher (Contopus cooperi)","ispublic":1,"isfriend":0,"isfamily":0},{"id":"52374160073","owner":"34238008@N02","secret":"66abc68a58","server":"65535","farm":66,"title":"Olive-sided Flycatcher (Contopus cooperi)","ispublic":1,"isfriend":0,"isfamily":0},{"id":"52370804367","owner":"95355208@N04","secret":"39aac5d85e","server":"65535","farm":66,"title":"Olive-sided Flycatcher","ispublic":1,"isfriend":0,"isfamily":0},{"id":"52371749961","owner":"95355208@N04","secret":"b9a82bf255","server":"65535","farm":66,"title":"Olive-sided Flycatcher","ispublic":1,"isfriend":0,"isfamily":0},{"id":"52362712686","owner":"196264892@N08","secret":"17494c4452","server":"65535","farm":66,"title":"Olive-sided Flycatcher","ispublic":1,"isfriend":0,"isfamily":0},{"id":"52353058888","owner":"8378957@N02","secret":"95abff1f18","server":"65535","farm":66,"title":"Olive-sided Flycatcher","ispublic":1,"isfriend":0,"isfamily":0},{"id":"52353242625","owner":"8378957@N02","secret":"3a989973c9","server":"65535","farm":66,"title":"Olive-sided Flycatcher","ispublic":1,"isfriend":0,"isfamily":0},{"id":"52351480749","owner":"85277889@N08","secret":"8611483a77","server":"65535","farm":66,"title":"Olive-sided Flycatcher (Contopus cooperi) 2022-09-09 (2a)","ispublic":1,"isfriend":0,"isfamily":0},{"id":"52345377955","owner":"91064752@N03","secret":"93ef92574c","server":"65535","farm":66,"title":"Olive-sided Flycatcher","ispublic":1,"isfriend":0,"isfamily":0},{"id":"52340916024","owner":"34238008@N02","secret":"780b5a4d22","server":"65535","farm":66,"title":"Olive-sided Flycatcher (Contopus cooperi)","ispublic":1,"isfriend":0,"isfamily":0},{"id":"52341044255","owner":"34238008@N02","secret":"5fee8c013e","server":"65535","farm":66,"title":"Olive-sided Flycatcher (Contopus cooperi)","ispublic":1,"isfriend":0,"isfamily":0},{"id":"52340616306","owner":"34238008@N02","secret":"98e84f3fc4","server":"65535","farm":66,"title":"Olive-sided Flycatcher (Contopus cooperi)","ispublic":1,"isfriend":0,"isfamily":0},{"id":"52288197328","owner":"196264892@N08","secret":"e18421ed7d","server":"65535","farm":66,"title":"Olive-sided Flycatcher 1","ispublic":1,"isfriend":0,"isfamily":0},{"id":"52275936359","owner":"57465751@N05","secret":"a437d4f436","server":"65535","farm":66,"title":"Olive-sided Flycatcher (Contopus cooperi), Hinkle Creek, Folsom, Sacramento Co., CA","ispublic":1,"isfriend":0,"isfamily":0},{"id":"52257560286","owner":"103722035@N06","secret":"9322dfce4c","server":"0","farm":0,"title":"Olive-sided Flycatcher (Contopus cooperi), Cerro Alto, Highway 41, San Luis Obispo County, CA","ispublic":1,"isfriend":0,"isfamily":0},{"id":"52252859941","owner":"103722035@N06","secret":"e9fec1ab70","server":"0","farm":0,"title":"Olive-sided Flycatcher (Contopus cooperi), Cerro Alto, Highway 41, San Luis Obispo County, CA","ispublic":1,"isfriend":0,"isfamily":0},{"id":"52251152728","owner":"34238008@N02","secret":"54774a8835","server":"65535","farm":66,"title":"Olive-sided Flycatcher (Contopus cooperi)","ispublic":1,"isfriend":0,"isfamily":0},{"id":"51024004542","owner":"131779834@N08","secret":"197f3104f4","server":"65535","farm":66,"title":"Bug Lookout","ispublic":1,"isfriend":0,"isfamily":0},{"id":"52221009412","owner":"34238008@N02","secret":"f1e56059b9","server":"65535","farm":66,"title":"Olive-sided Flycatcher (Contopus cooperi)","ispublic":1,"isfriend":0,"isfamily":0},{"id":"52218795461","owner":"189723744@N02","secret":"6f67b054ce","server":"65535","farm":66,"title":"OLIVE SIDED FLYCATCHER","ispublic":1,"isfriend":0,"isfamily":0},{"id":"52219063984","owner":"189723744@N02","secret":"165fa8fd0a","server":"65535","farm":66,"title":"OLIVE SIDED FLYCATCHER","ispublic":1,"isfriend":0,"isfamily":0},{"id":"52209727089","owner":"132165466@N08","secret":"44a742abb3","server":"65535","farm":66,"title":"Olive-sided Flycatcher","ispublic":1,"isfriend":0,"isfamily":0},{"id":"52209480283","owner":"132165466@N08","secret":"a4f8b85029","server":"65535","farm":66,"title":"Olive-sided Flycatcher","ispublic":1,"isfriend":0,"isfamily":0},{"id":"52209480288","owner":"132165466@N08","secret":"29cf36fbf9","server":"65535","farm":66,"title":"Olive-sided Flycatcher","ispublic":1,"isfriend":0,"isfamily":0},{"id":"52208083804","owner":"132165466@N08","secret":"111ce73cee","server":"65535","farm":66,"title":"Olive-sided Flycatcher","ispublic":1,"isfriend":0,"isfamily":0},{"id":"52208311160","owner":"132165466@N08","secret":"85de6e7bca","server":"65535","farm":66,"title":"Olive-sided Flycatcher","ispublic":1,"isfriend":0,"isfamily":0},{"id":"52207814066","owner":"132165466@N08","secret":"8eb26d6104","server":"65535","farm":66,"title":"Olive-sided Flycatcher","ispublic":1,"isfriend":0,"isfamily":0},{"id":"52204485702","owner":"132165466@N08","secret":"459c886ae2","server":"65535","farm":66,"title":"Olive-sided Flycatcher","ispublic":1,"isfriend":0,"isfamily":0},{"id":"52203795640","owner":"132165466@N08","secret":"8a6c7d34cd","server":"65535","farm":66,"title":"Olive-sided Flycatcher","ispublic":1,"isfriend":0,"isfamily":0},{"id":"52203291931","owner":"132165466@N08","secret":"cdff79e7b8","server":"65535","farm":66,"title":"Olive-sided Flycatcher","ispublic":1,"isfriend":0,"isfamily":0},{"id":"52203291921","owner":"132165466@N08","secret":"7047873058","server":"65535","farm":66,"title":"Olive-sided Flycatcher","ispublic":1,"isfriend":0,"isfamily":0},{"id":"52203463239","owner":"132165466@N08","secret":"a9e4fef7b5","server":"65535","farm":66,"title":"Olive-sided Flycatcher","ispublic":1,"isfriend":0,"isfamily":0},{"id":"52203216643","owner":"132165466@N08","secret":"183309441f","server":"65535","farm":66,"title":"Olive-sided Flycatcher","ispublic":1,"isfriend":0,"isfamily":0},{"id":"52202580603","owner":"132165466@N08","secret":"018ca3ee80","server":"65535","farm":66,"title":"Olive-sided Flycatcher","ispublic":1,"isfriend":0,"isfamily":0},{"id":"52202552661","owner":"132165466@N08","secret":"0c0b03712c","server":"65535","farm":66,"title":"Olive-sided Flycatcher","ispublic":1,"isfriend":0,"isfamily":0},{"id":"52198446389","owner":"132165466@N08","secret":"766ded75f5","server":"65535","farm":66,"title":"Olive-sided Flycatcher","ispublic":1,"isfriend":0,"isfamily":0},{"id":"52197175527","owner":"132165466@N08","secret":"8fda34b536","server":"65535","farm":66,"title":"Olive-sided Flycatcher","ispublic":1,"isfriend":0,"isfamily":0},{"id":"52197070929","owner":"132165466@N08","secret":"98e13a947f","server":"65535","farm":66,"title":"Olive-sided Flycatcher","ispublic":1,"isfriend":0,"isfamily":0},{"id":"52197070924","owner":"132165466@N08","secret":"db2152c895","server":"65535","farm":66,"title":"Olive-sided Flycatcher","ispublic":1,"isfriend":0,"isfamily":0},{"id":"52197295745","owner":"132165466@N08","secret":"fdc1548999","server":"65535","farm":66,"title":"Olive-sided Flycatcher","ispublic":1,"isfriend":0,"isfamily":0},{"id":"52196111459","owner":"132165466@N08","secret":"6ce3f2c920","server":"65535","farm":66,"title":"Olive-sided Flycatcher","ispublic":1,"isfriend":0,"isfamily":0},{"id":"52195864238","owner":"132165466@N08","secret":"a93e07e90f","server":"65535","farm":66,"title":"Olive-sided Flycatcher","ispublic":1,"isfriend":0,"isfamily":0},{"id":"52194371406","owner":"132165466@N08","secret":"522a71daa4","server":"65535","farm":66,"title":"Olive-sided Flycatcher","ispublic":1,"isfriend":0,"isfamily":0},{"id":"52194371401","owner":"132165466@N08","secret":"ebdc590926","server":"65535","farm":66,"title":"Olive-sided Flycatcher","ispublic":1,"isfriend":0,"isfamily":0},{"id":"52194371376","owner":"132165466@N08","secret":"1da979cd05","server":"65535","farm":66,"title":"Olive-sided Flycatcher","ispublic":1,"isfriend":0,"isfamily":0},{"id":"52192001639","owner":"132165466@N08","secret":"ffa7cb359d","server":"65535","farm":66,"title":"Olive-sided Flycatcher","ispublic":1,"isfriend":0,"isfamily":0},{"id":"52191742621","owner":"132165466@N08","secret":"761e2a10fc","server":"65535","farm":66,"title":"Olive-sided Flycatcher","ispublic":1,"isfriend":0,"isfamily":0},{"id":"52191759563","owner":"132165466@N08","secret":"653683c743","server":"65535","farm":66,"title":"Olive-sided Flycatcher","ispublic":1,"isfriend":0,"isfamily":0},{"id":"52191914275","owner":"48014585@N00","secret":"7830cfb379","server":"65535","farm":66,"title":"Olive-sided Flycatcher","ispublic":1,"isfriend":0,"isfamily":0},{"id":"52191026336","owner":"132165466@N08","secret":"6104a1c0be","server":"65535","farm":66,"title":"Olive-sided Flycatcher","ispublic":1,"isfriend":0,"isfamily":0},{"id":"52191510250","owner":"132165466@N08","secret":"0282f7de8a","server":"65535","farm":66,"title":"Olive-sided Flycatcher","ispublic":1,"isfriend":0,"isfamily":0},{"id":"52186912190","owner":"132165466@N08","secret":"434755d0c1","server":"65535","farm":66,"title":"Olive-sided Flycatcher","ispublic":1,"isfriend":0,"isfamily":0},{"id":"52152941983","owner":"39177293@N03","secret":"d9afdb0310","server":"65535","farm":66,"title":"Olive-sided Flycatcher","ispublic":1,"isfriend":0,"isfamily":0},{"id":"52132333274","owner":"69740770@N05","secret":"729a102bd2","server":"65535","farm":66,"title":"Olive-sided Flycatcher - Contopus cooperi","ispublic":1,"isfriend":0,"isfamily":0},{"id":"52120894426","owner":"103722035@N06","secret":"05c645be1e","server":"0","farm":0,"title":"Olive-sided Flycatcher (Contopus cooperi), Cerro Alto, Highway 41, San Luis Obispo County, CA","ispublic":1,"isfriend":0,"isfamily":0},{"id":"52107785156","owner":"139237357@N06","secret":"f0416fa2a8","server":"65535","farm":66,"title":"Olive-sided Flycatcher","ispublic":1,"isfriend":0,"isfamily":0},{"id":"52106762357","owner":"139237357@N06","secret":"5cb13df8bc","server":"65535","farm":66,"title":"Olive-sided Flycatcher","ispublic":1,"isfriend":0,"isfamily":0},{"id":"52107824088","owner":"139237357@N06","secret":"dddfc4c29c","server":"65535","farm":66,"title":"Olive-sided Flycatcher","ispublic":1,"isfriend":0,"isfamily":0},{"id":"52107777986","owner":"7261670@N03","secret":"6070ca0332","server":"65535","farm":66,"title":"Olive-sided Flycatcher","ispublic":1,"isfriend":0,"isfamily":0},{"id":"52106755322","owner":"7261670@N03","secret":"6354e84f41","server":"65535","farm":66,"title":"Olive-sided Flycatcher","ispublic":1,"isfriend":0,"isfamily":0},{"id":"52106755312","owner":"7261670@N03","secret":"8b9ed64cd6","server":"65535","farm":66,"title":"Olive-sided Flycatcher","ispublic":1,"isfriend":0,"isfamily":0},{"id":"52105959728","owner":"68635735@N02","secret":"7e36fa5728","server":"65535","farm":66,"title":"Olive-sided Flycatcher (Contopus cooperi)","ispublic":1,"isfriend":0,"isfamily":0},{"id":"52105959708","owner":"68635735@N02","secret":"20f8d43259","server":"65535","farm":66,"title":"Olive-sided Flycatcher (Contopus cooperi)","ispublic":1,"isfriend":0,"isfamily":0},{"id":"52085594588","owner":"32320154@N05","secret":"076b69deb1","server":"65535","farm":66,"title":"Olive-sided flycatcher","ispublic":1,"isfriend":0,"isfamily":0},{"id":"52085573291","owner":"32320154@N05","secret":"0aec021996","server":"65535","farm":66,"title":"Olive-sided flycatcher","ispublic":1,"isfriend":0,"isfamily":0},{"id":"52086069580","owner":"32320154@N05","secret":"ac90b03fbf","server":"65535","farm":66,"title":"Olive-sided flycatcher","ispublic":1,"isfriend":0,"isfamily":0},{"id":"52086069215","owner":"32320154@N05","secret":"05600d4153","server":"65535","farm":66,"title":"Olive-sided flycatcher","ispublic":1,"isfriend":0,"isfamily":0},{"id":"52086069050","owner":"32320154@N05","secret":"4167f8fe8b","server":"65535","farm":66,"title":"Olive-sided flycatcher","ispublic":1,"isfriend":0,"isfamily":0},{"id":"52085180094","owner":"188237033@N06","secret":"828b8bfedf","server":"65535","farm":66,"title":"Contopus cooperi","ispublic":1,"isfriend":0,"isfamily":0},{"id":"52081616194","owner":"32320154@N05","secret":"6e839c4285","server":"65535","farm":66,"title":"Olive-sided flycatcher","ispublic":1,"isfriend":0,"isfamily":0},{"id":"52078199132","owner":"125605310@N07","secret":"be7b116508","server":"65535","farm":66,"title":"Olive-sided Flycatcher, Contopus cooperi","ispublic":1,"isfriend":0,"isfamily":0},{"id":"52076721776","owner":"62043870@N05","secret":"34c0eb8140","server":"65535","farm":66,"title":"Olive-sided Flycatcher, Contopus cooperi","ispublic":1,"isfriend":0,"isfamily":0},{"id":"52073840403","owner":"99849996@N00","secret":"a71c810661","server":"65535","farm":66,"title":"Olive-sided Flycatcher 20210715_3239","ispublic":1,"isfriend":0,"isfamily":0},{"id":"52066782665","owner":"43440320@N04","secret":"7098fd4dd9","server":"65535","farm":66,"title":"Olive-sided Flycatcher","ispublic":1,"isfriend":0,"isfamily":0},{"id":"52060706353","owner":"103722035@N06","secret":"65e220290a","server":"0","farm":0,"title":"Olive-sided Flycatcher (Contopus cooperi), Morro Bay, CA","ispublic":1,"isfriend":0,"isfamily":0},{"id":"52053348621","owner":"103722035@N06","secret":"51b9d7eb86","server":"0","farm":0,"title":"Olive-sided Flycatcher (Contopus cooperi) & Western Wood-Pewee (Contopus sordidulus), Oso Flaco, CA","ispublic":1,"isfriend":0,"isfamily":0},{"id":"52112156745","owner":"134270033@N06","secret":"c95d4aba6e","server":"65535","farm":66,"title":"HTT :: Happy Tuesday Twosday","ispublic":1,"isfriend":0,"isfamily":0},{"id":"52025191346","owner":"28631427@N00","secret":"9051b63ecb","server":"65535","farm":66,"title":"Olive-sided Flycatcher","ispublic":1,"isfriend":0,"isfamily":0},{"id":"51926151142","owner":"99849996@N00","secret":"3837843176","server":"65535","farm":66,"title":"Olive-sided Flycatcher 20210611_4285","ispublic":1,"isfriend":0,"isfamily":0},{"id":"51821096801","owner":"99849996@N00","secret":"321b2aa31d","server":"65535","farm":66,"title":"Olive-sided Flycatcher 20210520_0804","ispublic":1,"isfriend":0,"isfamily":0},{"id":"52361772102","owner":"196264892@N08","secret":"00965b7040","server":"65535","farm":66,"title":"Olive-sided Flycatcher","ispublic":1,"isfriend":0,"isfamily":0},{"id":"52221009297","owner":"34238008@N02","secret":"96409c7bd1","server":"65535","farm":66,"title":"Olive-sided Flycatcher (Contopus cooperi)","ispublic":1,"isfriend":0,"isfamily":0},{"id":"52186438618","owner":"132165466@N08","secret":"f28de0c812","server":"65535","farm":66,"title":"Olive-sided Flycatcher","ispublic":1,"isfriend":0,"isfamily":0},{"id":"52107824128","owner":"139237357@N06","secret":"f7cffc7ac6","server":"65535","farm":66,"title":"Olive-sided Flycatcher","ispublic":1,"isfriend":0,"isfamily":0},{"id":"52031856857","owner":"103722035@N06","secret":"69007ee91c","server":"0","farm":0,"title":"Olive-sided Flycatcher (Contopus cooperi), Cerro Alto, Highway 41, San Luis Obispo County, CA","ispublic":1,"isfriend":0,"isfamily":0},{"id":"52005701419","owner":"136180232@N08","secret":"5b0665e482","server":"65535","farm":66,"title":"Olive-sided Flycatcher (Contopus cooperi) JTD_5291","ispublic":1,"isfriend":0,"isfamily":0},{"id":"51990738048","owner":"195311391@N04","secret":"b2b861a60d","server":"65535","farm":66,"title":"Contopus cooperi","ispublic":1,"isfriend":0,"isfamily":0},{"id":"51846479232","owner":"93639794@N03","secret":"07363d14a9","server":"65535","farm":66,"title":"contopus-cooperi-olive-sided-flycatcher_51637605739_o","ispublic":1,"isfriend":0,"isfamily":0},{"id":"51740174425","owner":"67306066@N03","secret":"97e84638f1","server":"65535","farm":66,"title":"Olive-sided Flycatcher (Contopus cooperi)","ispublic":1,"isfriend":0,"isfamily":0}]},"stat":"ok"}