{"photos":{"page":1,"pages":6,"perpage":100,"total":596,"photo":[{"id":"52670707197","owner":"128537732@N06","secret":"5aa4d29b0d","server":"65535","farm":66,"title":"Orange-crowned Warbler (Leiothlypis celata)","ispublic":1,"isfriend":0,"isfamily":0},{"id":"52668023048","owner":"39838258@N07","secret":"3c7f5d793d","server":"65535","farm":66,"title":"Orange-crowned Warbler","ispublic":1,"isfriend":0,"isfamily":0},{"id":"52654728001","owner":"128537732@N06","secret":"273e4807ed","server":"65535","farm":66,"title":"Orange-crowned Warbler (Leiothlypis celata)","ispublic":1,"isfriend":0,"isfamily":0},{"id":"52654727701","owner":"128537732@N06","secret":"3a426b3a24","server":"65535","farm":66,"title":"Orange-crowned Warbler (Leiothlypis celata)","ispublic":1,"isfriend":0,"isfamily":0},{"id":"52641880147","owner":"38514062@N03","secret":"c1d428d841","server":"65535","farm":66,"title":"Orange-crowned Warbler (Leiothlypis celata)","ispublic":1,"isfriend":0,"isfamily":0},{"id":"52638739913","owner":"38514062@N03","secret":"fbce04c963","server":"65535","farm":66,"title":"Orange-crowned Warbler (Leiothlypis celata)","ispublic":1,"isfriend":0,"isfamily":0},{"id":"52637748662","owner":"38514062@N03","secret":"37f0aa793e","server":"65535","farm":66,"title":"Orange-crowned Warbler (Leiothlypis celata)","ispublic":1,"isfriend":0,"isfamily":0},{"id":"52620763817","owner":"76500089@N03","secret":"c5be674f15","server":"65535","farm":66,"title":"Orange-crowned Warbler (Leiothlypis celata)","ispublic":1,"isfriend":0,"isfamily":0},{"id":"52596930345","owner":"17654080@N08","secret":"8d77015104","server":"65535","farm":66,"title":"Orange-crowned Warbler - Stratford, CT - 12\/26\/2022","ispublic":1,"isfriend":0,"isfamily":0},{"id":"52596763209","owner":"17654080@N08","secret":"8c3ef45da6","server":"65535","farm":66,"title":"Orange-crowned Warbler - Stratford, CT - 12\/26\/2022","ispublic":1,"isfriend":0,"isfamily":0},{"id":"52596712274","owner":"129803374@N05","secret":"91a76ce6b5","server":"65535","farm":66,"title":"Orange-crowned Warbler (Leiothlypis celata)","ispublic":1,"isfriend":0,"isfamily":0},{"id":"52595350182","owner":"129803374@N05","secret":"e4df9c0bb2","server":"65535","farm":66,"title":"Orange-crowned Warbler (Leiothlypis celata)","ispublic":1,"isfriend":0,"isfamily":0},{"id":"52596100569","owner":"129803374@N05","secret":"9f02bf2926","server":"65535","farm":66,"title":"Orange-crowned Warbler (Leiothlypis celata)","ispublic":1,"isfriend":0,"isfamily":0},{"id":"52596263305","owner":"129803374@N05","secret":"0b1eb31553","server":"65535","farm":66,"title":"Orange-crowned Warbler (Leiothlypis celata)","ispublic":1,"isfriend":0,"isfamily":0},{"id":"52596360253","owner":"129803374@N05","secret":"7cff7a6a4b","server":"65535","farm":66,"title":"Orange-crowned Warbler (Leiothlypis celata)","ispublic":1,"isfriend":0,"isfamily":0},{"id":"52596100179","owner":"129803374@N05","secret":"267ea41b38","server":"65535","farm":66,"title":"Orange-crowned Warbler (Leiothlypis celata)","ispublic":1,"isfriend":0,"isfamily":0},{"id":"52579796122","owner":"153973412@N04","secret":"72db91d31a","server":"65535","farm":66,"title":"Orange-crowned Warbler-Leiothlypis celata, Hawkeye WMA, IA","ispublic":1,"isfriend":0,"isfamily":0},{"id":"52579310777","owner":"57356301@N06","secret":"d1a0b03298","server":"65535","farm":66,"title":"Orange-crowned Warbler, Leiothlypis celata","ispublic":1,"isfriend":0,"isfamily":0},{"id":"52569631062","owner":"28867468@N08","secret":"5b5b28a3ff","server":"65535","farm":66,"title":"Orange-crowned Warbler on Crimson Kunzea","ispublic":1,"isfriend":0,"isfamily":0},{"id":"52564977348","owner":"92009354@N00","secret":"dcdae15879","server":"65535","farm":66,"title":"Orange-crowned Warbler","ispublic":1,"isfriend":0,"isfamily":0},{"id":"52538047688","owner":"145466593@N08","secret":"a32551e476","server":"65535","farm":66,"title":"Orange-crowned Warbler","ispublic":1,"isfriend":0,"isfamily":0},{"id":"52537975200","owner":"145466593@N08","secret":"1c46b94944","server":"65535","farm":66,"title":"Orange-crowned Warbler","ispublic":1,"isfriend":0,"isfamily":0},{"id":"52536575793","owner":"197039631@N05","secret":"3000bd3727","server":"65535","farm":66,"title":"Winter Orange-Crowned Warbler","ispublic":1,"isfriend":0,"isfamily":0},{"id":"52523417149","owner":"7261670@N03","secret":"da4624a0c1","server":"65535","farm":66,"title":"Orange-crowned Warbler","ispublic":1,"isfriend":0,"isfamily":0},{"id":"52488114588","owner":"28867468@N08","secret":"b56327c583","server":"65535","farm":66,"title":"Orange-crowned Orange-crowned Warbler","ispublic":1,"isfriend":0,"isfamily":0},{"id":"52487838764","owner":"28867468@N08","secret":"a24340a402","server":"65535","farm":66,"title":"Orange-crowned Orange-crowned Warbler","ispublic":1,"isfriend":0,"isfamily":0},{"id":"52473766288","owner":"79254232@N08","secret":"e467b685f4","server":"65535","farm":66,"title":"Orange-crowned Warbler with snack","ispublic":1,"isfriend":0,"isfamily":0},{"id":"52466151789","owner":"79097894@N04","secret":"38bec7e9b4","server":"65535","farm":66,"title":"Orange-crowned Warbler","ispublic":1,"isfriend":0,"isfamily":0},{"id":"52453112201","owner":"34238008@N02","secret":"5c90b5e7d6","server":"65535","farm":66,"title":"Orange-crowned Warbler (Leiothlypis celata)","ispublic":1,"isfriend":0,"isfamily":0},{"id":"52453378889","owner":"34238008@N02","secret":"7659583b97","server":"65535","farm":66,"title":"Orange-crowned Warbler (Leiothlypis celata)","ispublic":1,"isfriend":0,"isfamily":0},{"id":"52429766652","owner":"49114357@N08","secret":"8b3577cd34","server":"65535","farm":66,"title":"Orange-crowned Warbler","ispublic":1,"isfriend":0,"isfamily":0},{"id":"52419153834","owner":"99613800@N02","secret":"348bf5d188","server":"65535","farm":66,"title":"Leiothlypis celata ssp. lutescens (Orange-crowned Warbler) - Parulidae - Ucluelet Lighthouse loop,  Ucluelet, Vancouver Island, British Columbia","ispublic":1,"isfriend":0,"isfamily":0},{"id":"52402883201","owner":"42034882@N00","secret":"5839b1609f","server":"65535","farm":66,"title":"Orange you glad to see a bird?","ispublic":1,"isfriend":0,"isfamily":0},{"id":"52374022174","owner":"168495655@N07","secret":"3a9e6b518d","server":"65535","farm":66,"title":"Paruline verd\u00e2tre - Leiothlypis celata - Orange-crowned Warbler","ispublic":1,"isfriend":0,"isfamily":0},{"id":"52360936461","owner":"156457454@N02","secret":"c02eeb1c9c","server":"65535","farm":66,"title":"Leiothlypis celata 3 (Orange-crowned Warbler)","ispublic":1,"isfriend":0,"isfamily":0},{"id":"52357980856","owner":"62174414@N04","secret":"8f19104a10","server":"65535","farm":66,"title":"Orange-crowned Warbler (Leiothlypis celata)","ispublic":1,"isfriend":0,"isfamily":0},{"id":"52275677276","owner":"57465751@N05","secret":"52209508b7","server":"65535","farm":66,"title":"Orange-crowned Warbler (Leiothlypis celata), Hinkle Creek, Folsom, Sacramento Co., CA","ispublic":1,"isfriend":0,"isfamily":0},{"id":"52275677709","owner":"196264892@N08","secret":"e27fdce830","server":"65535","farm":66,"title":"Orange-crowned Warbler","ispublic":1,"isfriend":0,"isfamily":0},{"id":"52270443864","owner":"196264892@N08","secret":"a3eedb7475","server":"65535","farm":66,"title":"Orange-crowned Warbler","ispublic":1,"isfriend":0,"isfamily":0},{"id":"52270666715","owner":"196264892@N08","secret":"a906277b96","server":"65535","farm":66,"title":"Orange-crowned Warbler","ispublic":1,"isfriend":0,"isfamily":0},{"id":"52248976438","owner":"131037795@N03","secret":"4ae691fea9","server":"65535","farm":66,"title":"Orange-crowned Warbler (Leiothlypis celata)","ispublic":1,"isfriend":0,"isfamily":0},{"id":"52169339507","owner":"29170368@N03","secret":"fa24561535","server":"65535","farm":66,"title":"Orange-crowned Warbler","ispublic":1,"isfriend":0,"isfamily":0},{"id":"52142875316","owner":"54249623@N08","secret":"02e9855243","server":"65535","farm":66,"title":"Orange-crowned Warbler (Leiothlypis celata) (Oreothlypis celata)","ispublic":1,"isfriend":0,"isfamily":0},{"id":"52125472772","owner":"34238008@N02","secret":"fb17dd424e","server":"65535","farm":66,"title":"Orange-crowned Warbler (Leiothlypis celata)","ispublic":1,"isfriend":0,"isfamily":0},{"id":"52125472392","owner":"34238008@N02","secret":"b7fe96613c","server":"65535","farm":66,"title":"Orange-crowned Warbler (Leiothlypis celata)","ispublic":1,"isfriend":0,"isfamily":0},{"id":"52125472222","owner":"34238008@N02","secret":"1c62f878fe","server":"65535","farm":66,"title":"Orange-crowned Warbler (Leiothlypis celata)","ispublic":1,"isfriend":0,"isfamily":0},{"id":"52126519868","owner":"34238008@N02","secret":"1ccbb581c5","server":"65535","farm":66,"title":"Orange-crowned Warbler (Leiothlypis celata)","ispublic":1,"isfriend":0,"isfamily":0},{"id":"52126519648","owner":"34238008@N02","secret":"1e32542d13","server":"65535","farm":66,"title":"Orange-crowned Warbler (Leiothlypis celata)","ispublic":1,"isfriend":0,"isfamily":0},{"id":"52652828432","owner":"50264295@N06","secret":"14087f72ff","server":"65535","farm":66,"title":"Orange-crowned Warbler (Leiothlypis celata)- ASY, DCA male","ispublic":1,"isfriend":0,"isfamily":0},{"id":"52652819987","owner":"50264295@N06","secret":"c6d6a3cddd","server":"65535","farm":66,"title":"Orange-crowned Warbler (Leiothlypis celata)- ASY, DCA male","ispublic":1,"isfriend":0,"isfamily":0},{"id":"52652748002","owner":"50264295@N06","secret":"5d36e71b8b","server":"65535","farm":66,"title":"Orange-crowned Warbler (Leiothlypis celata)- ASY, DCA male","ispublic":1,"isfriend":0,"isfamily":0},{"id":"52523684523","owner":"7261670@N03","secret":"62e8881969","server":"65535","farm":66,"title":"Orange-crowned Warbler","ispublic":1,"isfriend":0,"isfamily":0},{"id":"52472085871","owner":"34238008@N02","secret":"880349a26d","server":"65535","farm":66,"title":"Orange-crowned Warbler (Leiothlypis celata)","ispublic":1,"isfriend":0,"isfamily":0},{"id":"52453112456","owner":"34238008@N02","secret":"4e6404b596","server":"65535","farm":66,"title":"Orange-crowned Warbler (Leiothlypis celata)","ispublic":1,"isfriend":0,"isfamily":0},{"id":"52432926065","owner":"49114357@N08","secret":"ab972b5187","server":"65535","farm":66,"title":"Orange-crowned Warbler","ispublic":1,"isfriend":0,"isfamily":0},{"id":"52418360982","owner":"99613800@N02","secret":"70a4329905","server":"65535","farm":66,"title":"Leiothlypis celata ssp. lutescens (Orange-crowned Warbler) - Parulidae - Ucluelet Lighthouse loop,  Ucluelet, Vancouver Island, British Columbia-2","ispublic":1,"isfriend":0,"isfamily":0},{"id":"52390596992","owner":"196264892@N08","secret":"dda70a79e9","server":"65535","farm":66,"title":"Orange-crowned Warbler","ispublic":1,"isfriend":0,"isfamily":0},{"id":"52390596902","owner":"196264892@N08","secret":"0d856018f8","server":"65535","farm":66,"title":"Orange-crowned Warbler","ispublic":1,"isfriend":0,"isfamily":0},{"id":"52390596687","owner":"196264892@N08","secret":"7289ae70ab","server":"65535","farm":66,"title":"Orange-crowned Warbler","ispublic":1,"isfriend":0,"isfamily":0},{"id":"52375524090","owner":"196264892@N08","secret":"c6f9f95b59","server":"65535","farm":66,"title":"Orange-crowned Warbler","ispublic":1,"isfriend":0,"isfamily":0},{"id":"52375523680","owner":"196264892@N08","secret":"cb23188cac","server":"65535","farm":66,"title":"Orange-crowned Warbler","ispublic":1,"isfriend":0,"isfamily":0},{"id":"52375330733","owner":"196264892@N08","secret":"962b1e2023","server":"65535","farm":66,"title":"Orange-crowned Warbler","ispublic":1,"isfriend":0,"isfamily":0},{"id":"52375107201","owner":"196264892@N08","secret":"4724b25e0d","server":"65535","farm":66,"title":"Orange-crowned Warbler","ispublic":1,"isfriend":0,"isfamily":0},{"id":"52361771987","owner":"196264892@N08","secret":"2cb9e94482","server":"65535","farm":66,"title":"Orange-crowned Warbler","ispublic":1,"isfriend":0,"isfamily":0},{"id":"52363136625","owner":"196264892@N08","secret":"db573cdf42","server":"65535","farm":66,"title":"Orange-crowned Warbler","ispublic":1,"isfriend":0,"isfamily":0},{"id":"52326698492","owner":"196264892@N08","secret":"40e90f2acf","server":"65535","farm":66,"title":"Orange-crowned Warbler","ispublic":1,"isfriend":0,"isfamily":0},{"id":"52327895268","owner":"196264892@N08","secret":"1fe9d6648f","server":"65535","farm":66,"title":"Orange-crowned Warbler","ispublic":1,"isfriend":0,"isfamily":0},{"id":"52327948479","owner":"196264892@N08","secret":"c194b6e2e0","server":"65535","farm":66,"title":"Orange-crowned Warbler","ispublic":1,"isfriend":0,"isfamily":0},{"id":"52327948184","owner":"196264892@N08","secret":"765bdeea45","server":"65535","farm":66,"title":"Orange-crowned Warbler","ispublic":1,"isfriend":0,"isfamily":0},{"id":"52327947819","owner":"196264892@N08","secret":"d3f4248191","server":"65535","farm":66,"title":"Orange-crowned Warbler.","ispublic":1,"isfriend":0,"isfamily":0},{"id":"52249362807","owner":"41694014@N04","secret":"1f76a8d092","server":"65535","farm":66,"title":"Chipe Olivaceo","ispublic":1,"isfriend":0,"isfamily":0},{"id":"52198116758","owner":"119787485@N07","secret":"b7fac8f002","server":"65535","farm":66,"title":"Orange-crowned Warbler (Leiothlypis celata lutescens) - 20220530-01","ispublic":1,"isfriend":0,"isfamily":0},{"id":"52187939295","owner":"28631427@N00","secret":"bde5c766fa","server":"65535","farm":66,"title":"Orange-crowned Warbler","ispublic":1,"isfriend":0,"isfamily":0},{"id":"52160295002","owner":"143326780@N02","secret":"da276c654d","server":"65535","farm":66,"title":"DSCN3956","ispublic":1,"isfriend":0,"isfamily":0},{"id":"52161317116","owner":"143326780@N02","secret":"c9372611fc","server":"65535","farm":66,"title":"DSCN3957","ispublic":1,"isfriend":0,"isfamily":0},{"id":"52155099195","owner":"44801995@N02","secret":"d695bb6514","server":"65535","farm":66,"title":"Orange-crowned Warbler Leiothlypis celata","ispublic":1,"isfriend":0,"isfamily":0},{"id":"52125472607","owner":"34238008@N02","secret":"e29d28d520","server":"65535","farm":66,"title":"Orange-crowned Warbler (Leiothlypis celata)","ispublic":1,"isfriend":0,"isfamily":0},{"id":"52096564232","owner":"137525873@N08","secret":"467f48f506","server":"65535","farm":66,"title":"Almost!!","ispublic":1,"isfriend":0,"isfamily":0},{"id":"52089485276","owner":"9638954@N07","secret":"8c554ac0a7","server":"65535","farm":66,"title":"Orange-crowned Warbler singing","ispublic":1,"isfriend":0,"isfamily":0},{"id":"52082123790","owner":"39937385@N00","secret":"0ec90aa64d","server":"65535","farm":66,"title":"Orange-crowned Warbler-7055","ispublic":1,"isfriend":0,"isfamily":0},{"id":"52082123780","owner":"39937385@N00","secret":"73e49186a0","server":"65535","farm":66,"title":"Orange-crowned Warbler-7056","ispublic":1,"isfriend":0,"isfamily":0},{"id":"52081633596","owner":"39937385@N00","secret":"6b2ac90dab","server":"65535","farm":66,"title":"Orange-crowned Warbler-7058","ispublic":1,"isfriend":0,"isfamily":0},{"id":"52081870124","owner":"39937385@N00","secret":"7055a9a708","server":"65535","farm":66,"title":"Orange-crowned Warbler-7059","ispublic":1,"isfriend":0,"isfamily":0},{"id":"52082123725","owner":"39937385@N00","secret":"4de0855abf","server":"65535","farm":66,"title":"Orange-crowned Warbler-7069","ispublic":1,"isfriend":0,"isfamily":0},{"id":"52082123735","owner":"39937385@N00","secret":"3da873f5e9","server":"65535","farm":66,"title":"Orange-crowned Warbler-7064","ispublic":1,"isfriend":0,"isfamily":0},{"id":"52081633586","owner":"39937385@N00","secret":"1c1c454161","server":"65535","farm":66,"title":"Orange-crowned Warbler-7068","ispublic":1,"isfriend":0,"isfamily":0},{"id":"52081633566","owner":"39937385@N00","secret":"474bfcf3d4","server":"65535","farm":66,"title":"Orange-crowned Warbler-7070","ispublic":1,"isfriend":0,"isfamily":0},{"id":"52081647888","owner":"39937385@N00","secret":"deff1be4df","server":"65535","farm":66,"title":"Orange-crowned Warbler-7073","ispublic":1,"isfriend":0,"isfamily":0},{"id":"52082123695","owner":"39937385@N00","secret":"e03f505fe7","server":"65535","farm":66,"title":"Orange-crowned Warbler-7074","ispublic":1,"isfriend":0,"isfamily":0},{"id":"52081647843","owner":"39937385@N00","secret":"9c4a236f65","server":"65535","farm":66,"title":"Orange-crowned Warbler-7082","ispublic":1,"isfriend":0,"isfamily":0},{"id":"52081633521","owner":"39937385@N00","secret":"570c38c392","server":"65535","farm":66,"title":"Orange-crowned Warbler-7085","ispublic":1,"isfriend":0,"isfamily":0},{"id":"52081633501","owner":"39937385@N00","secret":"f06bb702f8","server":"65535","farm":66,"title":"Orange-crowned Warbler-7083","ispublic":1,"isfriend":0,"isfamily":0},{"id":"52080597562","owner":"39937385@N00","secret":"22a73bfc89","server":"65535","farm":66,"title":"Orange-crowned Warbler-7091","ispublic":1,"isfriend":0,"isfamily":0},{"id":"52082123660","owner":"39937385@N00","secret":"a7ee1d1d18","server":"65535","farm":66,"title":"Orange-crowned Warbler-7089","ispublic":1,"isfriend":0,"isfamily":0},{"id":"52080597557","owner":"39937385@N00","secret":"75090b201a","server":"65535","farm":66,"title":"Orange-crowned Warbler-7095","ispublic":1,"isfriend":0,"isfamily":0},{"id":"52082123625","owner":"39937385@N00","secret":"e9dffaf9f7","server":"65535","farm":66,"title":"Orange-crowned Warbler-7096","ispublic":1,"isfriend":0,"isfamily":0},{"id":"52081633461","owner":"39937385@N00","secret":"5bc4aa40d3","server":"65535","farm":66,"title":"Orange-crowned Warbler-7098","ispublic":1,"isfriend":0,"isfamily":0},{"id":"52081633451","owner":"39937385@N00","secret":"ee86e6c3d3","server":"65535","farm":66,"title":"Orange-crowned Warbler-7104","ispublic":1,"isfriend":0,"isfamily":0},{"id":"52080597512","owner":"39937385@N00","secret":"4d9445b6df","server":"65535","farm":66,"title":"Orange-crowned Warbler-7105","ispublic":1,"isfriend":0,"isfamily":0},{"id":"52080597482","owner":"39937385@N00","secret":"868c2fb667","server":"65535","farm":66,"title":"Orange-crowned Warbler-7107","ispublic":1,"isfriend":0,"isfamily":0}]},"stat":"ok"}