{"photos":{"page":1,"pages":34,"perpage":100,"total":3392,"photo":[{"id":"52724287173","owner":"12185056@N02","secret":"491447bac5","server":"65535","farm":66,"title":"Painted Bunting (Passerina ciris)","ispublic":1,"isfriend":0,"isfamily":0},{"id":"52721636999","owner":"128369733@N04","secret":"e064bc5b3d","server":"65535","farm":66,"title":"Bunting (1)","ispublic":1,"isfriend":0,"isfamily":0},{"id":"52718560235","owner":"38514062@N03","secret":"6758cc9a5d","server":"65535","farm":66,"title":"Painted Bunting (Passerina ciris)","ispublic":1,"isfriend":0,"isfamily":0},{"id":"52707547701","owner":"65632611@N00","secret":"34d6887b28","server":"65535","farm":66,"title":"Jetty Park, FL: Painted Bunting, female (0541)","ispublic":1,"isfriend":0,"isfamily":0},{"id":"52694981243","owner":"21584095@N00","secret":"3da34d8b4d","server":"65535","farm":66,"title":"Painted Bunting (Passerina ciris)","ispublic":1,"isfriend":0,"isfamily":0},{"id":"52688459646","owner":"128369733@N04","secret":"4b6e212261","server":"65535","farm":66,"title":"Bath Time (1)","ispublic":1,"isfriend":0,"isfamily":0},{"id":"52688459311","owner":"128369733@N04","secret":"1be59fa04d","server":"65535","farm":66,"title":"Bath Time (2)","ispublic":1,"isfriend":0,"isfamily":0},{"id":"52688459031","owner":"128369733@N04","secret":"f854cc9032","server":"65535","farm":66,"title":"Bath Time (3)","ispublic":1,"isfriend":0,"isfamily":0},{"id":"52687749889","owner":"21584095@N00","secret":"b42de63e26","server":"65535","farm":66,"title":"Painted Bunting Female (Passerina ciris)","ispublic":1,"isfriend":0,"isfamily":0},{"id":"52684424590","owner":"123597211@N03","secret":"8860ee051d","server":"65535","farm":66,"title":"Papstfink (Passerina ciris)","ispublic":1,"isfriend":0,"isfamily":0},{"id":"52676004566","owner":"48793602@N07","secret":"cdff3035d9","server":"65535","farm":66,"title":"Circle B Bar Reserve male Painted Bunting 01-17-2023","ispublic":1,"isfriend":0,"isfamily":0},{"id":"52676428010","owner":"48793602@N07","secret":"00f1276acf","server":"65535","farm":66,"title":"Circle B Bar Reserve male Painted Bunting 01-17-2023","ispublic":1,"isfriend":0,"isfamily":0},{"id":"52647074398","owner":"65788177@N02","secret":"d6167043a1","server":"65535","farm":66,"title":"Painted Bunting","ispublic":1,"isfriend":0,"isfamily":0},{"id":"52645775027","owner":"186413274@N08","secret":"285b0b0012","server":"65535","farm":66,"title":"Painted Bunting (Azulillo Sietecolores; Passerin nonpareil)","ispublic":1,"isfriend":0,"isfamily":0},{"id":"52636011546","owner":"112608353@N02","secret":"6687c97a18","server":"65535","farm":66,"title":"Full Spectrum II","ispublic":1,"isfriend":0,"isfamily":0},{"id":"52636493213","owner":"112608353@N02","secret":"4300e28534","server":"65535","farm":66,"title":"Full Spectrum","ispublic":1,"isfriend":0,"isfamily":0},{"id":"52635209950","owner":"128369733@N04","secret":"02b66fa875","server":"65535","farm":66,"title":"Bunting At The Birdbath (1)","ispublic":1,"isfriend":0,"isfamily":0},{"id":"52623434386","owner":"33982546@N05","secret":"2bf409e91e","server":"65535","farm":66,"title":"The Male Painted Bunting at Work (1 of 1)","ispublic":1,"isfriend":0,"isfamily":0},{"id":"52621441057","owner":"33982546@N05","secret":"34a439daff","server":"65535","farm":66,"title":"Painted Bunting Female Approach (1 of 1)","ispublic":1,"isfriend":0,"isfamily":0},{"id":"52609143538","owner":"128369733@N04","secret":"09b68fba65","server":"65535","farm":66,"title":"Sun\u2019s Setting","ispublic":1,"isfriend":0,"isfamily":0},{"id":"52596168070","owner":"128369733@N04","secret":"478d03a38f","server":"65535","farm":66,"title":"A Bunting We Will Go (1)","ispublic":1,"isfriend":0,"isfamily":0},{"id":"52596167655","owner":"128369733@N04","secret":"1ec5fcd508","server":"65535","farm":66,"title":"A Bunting We Will Go (2)","ispublic":1,"isfriend":0,"isfamily":0},{"id":"52595744401","owner":"128369733@N04","secret":"b0c19b89f1","server":"65535","farm":66,"title":"A Bunting We Will Go (3)","ispublic":1,"isfriend":0,"isfamily":0},{"id":"52595253412","owner":"128369733@N04","secret":"b7e2b5893e","server":"65535","farm":66,"title":"A Bunting We Will Go (4)","ispublic":1,"isfriend":0,"isfamily":0},{"id":"52579795312","owner":"153973412@N04","secret":"bcde828e52","server":"65535","farm":66,"title":"Painted Bunting-Passerina ciris, OKC, OK","ispublic":1,"isfriend":0,"isfamily":0},{"id":"52574523534","owner":"197033070@N04","secret":"07c7dc4648","server":"65535","farm":66,"title":"Painted bunting","ispublic":1,"isfriend":0,"isfamily":0},{"id":"52552398068","owner":"190773540@N03","secret":"a5b0d0e3b1","server":"65535","farm":66,"title":"Painted Bunting (female)","ispublic":1,"isfriend":0,"isfamily":0},{"id":"52535300988","owner":"33610210@N05","secret":"af8b1ddcc7","server":"65535","farm":66,"title":"Painted Bunting, Passerina ciris","ispublic":1,"isfriend":0,"isfamily":0},{"id":"52535300918","owner":"33610210@N05","secret":"9eb5616345","server":"65535","farm":66,"title":"Painted Bunting, Passerina ciris","ispublic":1,"isfriend":0,"isfamily":0},{"id":"52534760376","owner":"33610210@N05","secret":"03f1f6f537","server":"65535","farm":66,"title":"Painted Bunting, Passerina ciris","ispublic":1,"isfriend":0,"isfamily":0},{"id":"52532773416","owner":"33610210@N05","secret":"0eaba17633","server":"65535","farm":66,"title":"Painted Bunting, Passerina ciris","ispublic":1,"isfriend":0,"isfamily":0},{"id":"52530176902","owner":"33610210@N05","secret":"211c543dfa","server":"65535","farm":66,"title":"Painted Bunting, Passerina ciris","ispublic":1,"isfriend":0,"isfamily":0},{"id":"52530643396","owner":"33610210@N05","secret":"0758df27d3","server":"65535","farm":66,"title":"Painted Bunting, Passerina ciris","ispublic":1,"isfriend":0,"isfamily":0},{"id":"52531136593","owner":"33610210@N05","secret":"680e802afa","server":"65535","farm":66,"title":"Painted Bunting, Passerina ciris (2)","ispublic":1,"isfriend":0,"isfamily":0},{"id":"52530876004","owner":"33610210@N05","secret":"b34bd31c4e","server":"65535","farm":66,"title":"Painted Bunting, Passerina ciris (4)","ispublic":1,"isfriend":0,"isfamily":0},{"id":"52530125487","owner":"33610210@N05","secret":"9885464995","server":"65535","farm":66,"title":"Painted Bunting, Passerina ciris (5)","ispublic":1,"isfriend":0,"isfamily":0},{"id":"52530592591","owner":"33610210@N05","secret":"c2a761e54b","server":"65535","farm":66,"title":"Painted Bunting, Passerina ciris (6)","ispublic":1,"isfriend":0,"isfamily":0},{"id":"52530125297","owner":"33610210@N05","secret":"b3e62d209b","server":"65535","farm":66,"title":"Painted Bunting, Passerina ciris (7)","ispublic":1,"isfriend":0,"isfamily":0},{"id":"52530875654","owner":"33610210@N05","secret":"c5cee05798","server":"65535","farm":66,"title":"Painted Bunting, Passerina ciris","ispublic":1,"isfriend":0,"isfamily":0},{"id":"52493618628","owner":"12017190@N06","secret":"e759925528","server":"65535","farm":66,"title":"Painted bunting on Salvia 1a","ispublic":1,"isfriend":0,"isfamily":0},{"id":"52493066626","owner":"12017190@N06","secret":"c1c7f2fa7d","server":"65535","farm":66,"title":"Painted bunting on Salvia 1b","ispublic":1,"isfriend":0,"isfamily":0},{"id":"52492581842","owner":"12017190@N06","secret":"6992114ecf","server":"65535","farm":66,"title":"Painted bunting on Salvia 1d","ispublic":1,"isfriend":0,"isfamily":0},{"id":"52493348354","owner":"12017190@N06","secret":"db8745242c","server":"65535","farm":66,"title":"Painted bunting on Salvia 1c","ispublic":1,"isfriend":0,"isfamily":0},{"id":"52484028899","owner":"34674638@N05","secret":"c6ddd52ab0","server":"65535","farm":66,"title":"Male painted bunting with millet","ispublic":1,"isfriend":0,"isfamily":0},{"id":"52484035520","owner":"99572859@N08","secret":"9f9943cdb9","server":"65535","farm":66,"title":"Painted Bunting","ispublic":1,"isfriend":0,"isfamily":0},{"id":"52482785949","owner":"142902404@N08","secret":"91e780acb5","server":"65535","farm":66,"title":"Painted Bunting (Male)","ispublic":1,"isfriend":0,"isfamily":0},{"id":"52477516761","owner":"38514062@N03","secret":"4cafb2a239","server":"65535","farm":66,"title":"Painted Bunting (Passerina ciris)","ispublic":1,"isfriend":0,"isfamily":0},{"id":"52477912748","owner":"34674638@N05","secret":"050cb27ede","server":"65535","farm":66,"title":"Painted Bunting","ispublic":1,"isfriend":0,"isfamily":0},{"id":"52444233031","owner":"34674638@N05","secret":"9033686a51","server":"65535","farm":66,"title":"Male Painted Bunting with millet","ispublic":1,"isfriend":0,"isfamily":0},{"id":"52442672975","owner":"34674638@N05","secret":"8c34be222e","server":"65535","farm":66,"title":"Male Painted Bunting with millet","ispublic":1,"isfriend":0,"isfamily":0},{"id":"52438146473","owner":"46837385@N03","secret":"571f39a558","server":"65535","farm":66,"title":"Painted Bunting (2)","ispublic":1,"isfriend":0,"isfamily":0},{"id":"52437119902","owner":"46837385@N03","secret":"5e58f71ef4","server":"65535","farm":66,"title":"Painted Bunting (1)","ispublic":1,"isfriend":0,"isfamily":0},{"id":"52390161310","owner":"123979267@N05","secret":"79891753ee","server":"65535","farm":66,"title":"Painted Bunting","ispublic":1,"isfriend":0,"isfamily":0},{"id":"52372378896","owner":"39511843@N07","secret":"4fba90ee01","server":"65535","farm":66,"title":"Painted Bunting (Passerina ciris)-","ispublic":1,"isfriend":0,"isfamily":0},{"id":"52323952110","owner":"62174414@N04","secret":"8ca7148548","server":"65535","farm":66,"title":"Immature Painted Bunting (Passerina ciris)","ispublic":1,"isfriend":0,"isfamily":0},{"id":"52295737854","owner":"123979267@N05","secret":"a220247044","server":"65535","farm":66,"title":"Painted Bunting","ispublic":1,"isfriend":0,"isfamily":0},{"id":"52291525792","owner":"39511843@N07","secret":"d04a179791","server":"65535","farm":66,"title":"Painted Bunting (Passerina ciris) morning bath-5-","ispublic":1,"isfriend":0,"isfamily":0},{"id":"52292989555","owner":"39511843@N07","secret":"4314059e5c","server":"65535","farm":66,"title":"Painted Bunting (Passerina ciris) morning bath-2-","ispublic":1,"isfriend":0,"isfamily":0},{"id":"52292505033","owner":"39511843@N07","secret":"b811c84a12","server":"65535","farm":66,"title":"Painted Bunting (Passerina ciris) morning bath-4-","ispublic":1,"isfriend":0,"isfamily":0},{"id":"52292768089","owner":"39511843@N07","secret":"2960948335","server":"65535","farm":66,"title":"Painted Bunting (Passerina ciris) morning bath-6-","ispublic":1,"isfriend":0,"isfamily":0},{"id":"52289831402","owner":"156883594@N08","secret":"9c808eeb44","server":"65535","farm":66,"title":"Passerina ciris","ispublic":1,"isfriend":0,"isfamily":0},{"id":"52288779687","owner":"93273765@N05","secret":"349dbc6b66","server":"65535","farm":66,"title":"Painted Bunting (Passerina ciris)","ispublic":1,"isfriend":0,"isfamily":0},{"id":"52274160052","owner":"39511843@N07","secret":"34112e198a","server":"65535","farm":66,"title":"Painted Bunting (Passerina ciris)-3-","ispublic":1,"isfriend":0,"isfamily":0},{"id":"52275152253","owner":"39511843@N07","secret":"f78357eb50","server":"65535","farm":66,"title":"Painted Bunting (Passerina ciris)-2-8140","ispublic":1,"isfriend":0,"isfamily":0},{"id":"52268906925","owner":"47020313@N08","secret":"baaa4eac59","server":"65535","farm":66,"title":"Painted Bunting_MG_2037 edtsg","ispublic":1,"isfriend":0,"isfamily":0},{"id":"52263001750","owner":"39511843@N07","secret":"78d761d5d5","server":"65535","farm":66,"title":"Painted Bunting (Passerina ciris)-1-8140","ispublic":1,"isfriend":0,"isfamily":0},{"id":"52238689123","owner":"36267333@N05","secret":"98b5470d47","server":"65535","farm":66,"title":"Male Painted Bunting ((Passerina ciris)","ispublic":1,"isfriend":0,"isfamily":0},{"id":"52220489008","owner":"39511843@N07","secret":"457f4b7c87","server":"65535","farm":66,"title":"Painted Bunting (Passerina ciris)-1-","ispublic":1,"isfriend":0,"isfamily":0},{"id":"52220964125","owner":"39511843@N07","secret":"1cae9abb6d","server":"65535","farm":66,"title":"Painted Bunting (Passerina ciris)-4-","ispublic":1,"isfriend":0,"isfamily":0},{"id":"52219469072","owner":"39511843@N07","secret":"fbd228dd44","server":"65535","farm":66,"title":"Painted Bunting (Passerina ciris)-2-","ispublic":1,"isfriend":0,"isfamily":0},{"id":"52220488958","owner":"39511843@N07","secret":"436a85a715","server":"65535","farm":66,"title":"Painted Bunting (Passerina ciris)-3-","ispublic":1,"isfriend":0,"isfamily":0},{"id":"52220742724","owner":"39511843@N07","secret":"77f5e0d9c2","server":"65535","farm":66,"title":"Painted Bunting (Passerina ciris)-5-6409","ispublic":1,"isfriend":0,"isfamily":0},{"id":"52186157972","owner":"119095828@N03","secret":"cca151b686","server":"65535","farm":66,"title":"PaintedBunting (Passerina ciris","ispublic":1,"isfriend":0,"isfamily":0},{"id":"52181281655","owner":"188237033@N06","secret":"b91a2b5bc0","server":"65535","farm":66,"title":"RRR03463.jpg","ispublic":1,"isfriend":0,"isfamily":0},{"id":"52179770797","owner":"188237033@N06","secret":"c360001dcc","server":"65535","farm":66,"title":"RRR03114-Edit.jpg","ispublic":1,"isfriend":0,"isfamily":0},{"id":"52170724091","owner":"132165466@N08","secret":"8a1d3c6558","server":"65535","farm":66,"title":"Painted Bunting, female","ispublic":1,"isfriend":0,"isfamily":0},{"id":"52170724086","owner":"132165466@N08","secret":"e686b794a7","server":"65535","farm":66,"title":"Painted Bunting, male","ispublic":1,"isfriend":0,"isfamily":0},{"id":"52170727698","owner":"132165466@N08","secret":"e701deb7ef","server":"65535","farm":66,"title":"Painted Bunting, male","ispublic":1,"isfriend":0,"isfamily":0},{"id":"52685101210","owner":"124995824@N08","secret":"aa7c367dbc","server":"65535","farm":66,"title":"Painted Bunting - Passerina ciris","ispublic":1,"isfriend":0,"isfamily":0},{"id":"52683486167","owner":"123597211@N03","secret":"2df8bec954","server":"65535","farm":66,"title":"Papstfink (Passerina ciris)","ispublic":1,"isfriend":0,"isfamily":0},{"id":"52684499188","owner":"123597211@N03","secret":"829c5f8f6e","server":"65535","farm":66,"title":"Papstfink (Passerina ciris)","ispublic":1,"isfriend":0,"isfamily":0},{"id":"52684002541","owner":"123597211@N03","secret":"b28c84974d","server":"65535","farm":66,"title":"Papstfink (Passerina ciris)","ispublic":1,"isfriend":0,"isfamily":0},{"id":"52684283144","owner":"123597211@N03","secret":"b38348d557","server":"65535","farm":66,"title":"Papstfink (Passerina ciris)","ispublic":1,"isfriend":0,"isfamily":0},{"id":"52684424200","owner":"123597211@N03","secret":"fee3e6ca21","server":"65535","farm":66,"title":"Papstfink (Passerina ciris)","ispublic":1,"isfriend":0,"isfamily":0},{"id":"52660036588","owner":"122863253@N07","secret":"21b2ae53c9","server":"65535","farm":66,"title":"Painted bunting (Passerina ciris)","ispublic":1,"isfriend":0,"isfamily":0},{"id":"52531188453","owner":"33610210@N05","secret":"a9f87bbc0a","server":"65535","farm":66,"title":"Painted Bunting, Passerina ciris","ispublic":1,"isfriend":0,"isfamily":0},{"id":"52530643501","owner":"33610210@N05","secret":"805328d2d0","server":"65535","farm":66,"title":"Painted Bunting, Passerina ciris (lower) and House Finch, Haemorhous mexicanus (upper)","ispublic":1,"isfriend":0,"isfamily":0},{"id":"52433793399","owner":"67306066@N03","secret":"26ce768f8d","server":"65535","farm":66,"title":"Painted Bunting (Passerina ciris)","ispublic":1,"isfriend":0,"isfamily":0},{"id":"52381625161","owner":"39511843@N07","secret":"1eae21ede6","server":"65535","farm":66,"title":"Painted Bunting (Passerina ciris)-3-","ispublic":1,"isfriend":0,"isfamily":0},{"id":"52381930285","owner":"39511843@N07","secret":"169951ea94","server":"65535","farm":66,"title":"Painted Bunting (Passerina ciris)-2-","ispublic":1,"isfriend":0,"isfamily":0},{"id":"52380567937","owner":"39511843@N07","secret":"e0687fd10d","server":"65535","farm":66,"title":"Painted Bunting (Passerina ciris)--Edit","ispublic":1,"isfriend":0,"isfamily":0},{"id":"52371434392","owner":"39511843@N07","secret":"0455b1e237","server":"65535","farm":66,"title":"Painted Bunting (Passerina ciris)-2-","ispublic":1,"isfriend":0,"isfamily":0},{"id":"52372598018","owner":"39511843@N07","secret":"86f59fc3a2","server":"65535","farm":66,"title":"Painted Bunting (Passerina ciris)-3-","ispublic":1,"isfriend":0,"isfamily":0},{"id":"52372688134","owner":"39511843@N07","secret":"3c52e9dce4","server":"65535","farm":66,"title":"Painted Bunting (Passerina ciris)-8-3861","ispublic":1,"isfriend":0,"isfamily":0},{"id":"52372597963","owner":"39511843@N07","secret":"f3f1e557e7","server":"65535","farm":66,"title":"Painted Bunting (Passerina ciris)-6-","ispublic":1,"isfriend":0,"isfamily":0},{"id":"52372378986","owner":"39511843@N07","secret":"9fb4eaa04c","server":"65535","farm":66,"title":"Painted Bunting (Passerina ciris)-7-","ispublic":1,"isfriend":0,"isfamily":0},{"id":"52372378926","owner":"39511843@N07","secret":"53b4077eb0","server":"65535","farm":66,"title":"Painted Bunting (Passerina ciris)-4-","ispublic":1,"isfriend":0,"isfamily":0},{"id":"52236685417","owner":"36267333@N05","secret":"31f9d6c3a9","server":"65535","farm":66,"title":"Male Painted Bunting ((Passerina ciris)","ispublic":1,"isfriend":0,"isfamily":0},{"id":"52237670558","owner":"36267333@N05","secret":"26cc0be6ea","server":"65535","farm":66,"title":"Male Painted Bunting((Passerina ciris)","ispublic":1,"isfriend":0,"isfamily":0},{"id":"52182198259","owner":"13451078@N03","secret":"aa3b13f60a","server":"65535","farm":66,"title":"Painted Bunting (Passerina ciris)","ispublic":1,"isfriend":0,"isfamily":0}]},"stat":"ok"}