{"photos":{"page":1,"pages":42,"perpage":100,"total":4148,"photo":[{"id":"52723427224","owner":"12639178@N07","secret":"2191ccc0b9","server":"65535","farm":66,"title":"Palmenwalds\u00e4nger (Setophaga palmarum) (1)","ispublic":1,"isfriend":0,"isfamily":0},{"id":"52722040470","owner":"12639178@N07","secret":"87b5d0973c","server":"65535","farm":66,"title":"Palmenwalds\u00e4nger","ispublic":1,"isfriend":0,"isfamily":0},{"id":"52721742224","owner":"12639178@N07","secret":"51d756f40f","server":"65535","farm":66,"title":"Palmenwalds\u00e4nger","ispublic":1,"isfriend":0,"isfamily":0},{"id":"52719853478","owner":"128369733@N04","secret":"26603c2357","server":"65535","farm":66,"title":"Afternoon Shade","ispublic":1,"isfriend":0,"isfamily":0},{"id":"52719363736","owner":"128369733@N04","secret":"0055ce92eb","server":"65535","farm":66,"title":"Morning Light","ispublic":1,"isfriend":0,"isfamily":0},{"id":"52712773853","owner":"128369733@N04","secret":"9b305d835b","server":"65535","farm":66,"title":"Wet Warbler","ispublic":1,"isfriend":0,"isfamily":0},{"id":"52703842011","owner":"55527686@N03","secret":"2c742cc251","server":"65535","farm":66,"title":"Palm Warbler (palmarum) - Setophaga palmarum palmarum","ispublic":1,"isfriend":0,"isfamily":0},{"id":"52700785118","owner":"128369733@N04","secret":"e657a4bbe4","server":"65535","farm":66,"title":"Warbler (1)","ispublic":1,"isfriend":0,"isfamily":0},{"id":"52700291476","owner":"128369733@N04","secret":"663dab00e5","server":"65535","farm":66,"title":"Warbler (2)","ispublic":1,"isfriend":0,"isfamily":0},{"id":"52700290976","owner":"128369733@N04","secret":"820ebb73b0","server":"65535","farm":66,"title":"Warbler (3)","ispublic":1,"isfriend":0,"isfamily":0},{"id":"52696451025","owner":"128369733@N04","secret":"86d7933498","server":"65535","farm":66,"title":"Cloudy White (1)","ispublic":1,"isfriend":0,"isfamily":0},{"id":"52696294989","owner":"128369733@N04","secret":"d1d010c0f7","server":"65535","farm":66,"title":"Cloudy White (2)","ispublic":1,"isfriend":0,"isfamily":0},{"id":"52694788878","owner":"128369733@N04","secret":"c35f04283a","server":"65535","farm":66,"title":"Drying Off","ispublic":1,"isfriend":0,"isfamily":0},{"id":"52694561594","owner":"128369733@N04","secret":"4e9cf37a35","server":"65535","farm":66,"title":"Let\u2019s See What\u2019s In These Flowers","ispublic":1,"isfriend":0,"isfamily":0},{"id":"52686588011","owner":"194196140@N08","secret":"4a7593a7bd","server":"65535","farm":66,"title":"Palm Warbler (Setophaga palmarum)","ispublic":1,"isfriend":0,"isfamily":0},{"id":"52684473785","owner":"128369733@N04","secret":"e5d29047a6","server":"65535","farm":66,"title":"White Sky (2)","ispublic":1,"isfriend":0,"isfamily":0},{"id":"52682629930","owner":"128369733@N04","secret":"5d1d7ac9d2","server":"65535","farm":66,"title":"Dove In\u2026\u2026. Head First","ispublic":1,"isfriend":0,"isfamily":0},{"id":"52682199046","owner":"128369733@N04","secret":"004e4dfb03","server":"65535","farm":66,"title":"Nature Arrives (1)","ispublic":1,"isfriend":0,"isfamily":0},{"id":"52682696318","owner":"128369733@N04","secret":"66ee2ff4b3","server":"65535","farm":66,"title":"Nature Arrives (2)","ispublic":1,"isfriend":0,"isfamily":0},{"id":"52681344860","owner":"39177293@N03","secret":"ac8fdb87ac","server":"65535","farm":66,"title":"Palm Warbler","ispublic":1,"isfriend":0,"isfamily":0},{"id":"52678804686","owner":"49114357@N08","secret":"69550a0bbd","server":"65535","farm":66,"title":"Palm Warbler","ispublic":1,"isfriend":0,"isfamily":0},{"id":"52681054855","owner":"196786375@N03","secret":"725d9b83e7","server":"65535","farm":66,"title":"Palm Warbler","ispublic":1,"isfriend":0,"isfamily":0},{"id":"52680066027","owner":"12639178@N07","secret":"6ea80e49f4","server":"65535","farm":66,"title":"Auf Agavenbl\u00fcte unterwegs","ispublic":1,"isfriend":0,"isfamily":0},{"id":"52680065842","owner":"12639178@N07","secret":"c5872c8e43","server":"65535","farm":66,"title":"Walds\u00e4nger auf Agavenbl\u00fcte","ispublic":1,"isfriend":0,"isfamily":0},{"id":"52681080328","owner":"12639178@N07","secret":"16cfbcc066","server":"65535","farm":66,"title":"Vorsicht, da ist schon jemand!","ispublic":1,"isfriend":0,"isfamily":0},{"id":"52677180506","owner":"40941741@N03","secret":"1ea2f66dc0","server":"65535","farm":66,"title":"Palm Warbler","ispublic":1,"isfriend":0,"isfamily":0},{"id":"52676920994","owner":"150793791@N05","secret":"e345f1ef1d","server":"65535","farm":66,"title":"Cig\u00fcita Palmar (Setophaga palmarum)","ispublic":1,"isfriend":0,"isfamily":0},{"id":"52676879154","owner":"128369733@N04","secret":"ea54a3f72f","server":"65535","farm":66,"title":"In The Jatropha (1)","ispublic":1,"isfriend":0,"isfamily":0},{"id":"52676085717","owner":"128369733@N04","secret":"1147be01cd","server":"65535","farm":66,"title":"In The Jatropha (2)","ispublic":1,"isfriend":0,"isfamily":0},{"id":"52672498368","owner":"48793602@N07","secret":"ba9585b854","server":"65535","farm":66,"title":"Circle B Bar Reserve Palm Warbler 01-17-2023","ispublic":1,"isfriend":0,"isfamily":0},{"id":"52670369858","owner":"54249623@N08","secret":"9535478eb3","server":"65535","farm":66,"title":"Reinita Palmera, Palm Warbler (Setophaga palmarum)","ispublic":1,"isfriend":0,"isfamily":0},{"id":"52670305365","owner":"54249623@N08","secret":"e0a495a872","server":"65535","farm":66,"title":"Reinita Palmera, Palm Warbler (Setophaga palmarum)","ispublic":1,"isfriend":0,"isfamily":0},{"id":"52668849174","owner":"12639178@N07","secret":"17e1b157b0","server":"65535","farm":66,"title":"Palmenwalds\u00e4nger (3)","ispublic":1,"isfriend":0,"isfamily":0},{"id":"52668062962","owner":"12639178@N07","secret":"0b7023aaa2","server":"65535","farm":66,"title":"Palmenwalds\u00e4nger (2)","ispublic":1,"isfriend":0,"isfamily":0},{"id":"52668050077","owner":"12639178@N07","secret":"a052a9d611","server":"65535","farm":66,"title":"Palmenwalds\u00e4nger","ispublic":1,"isfriend":0,"isfamily":0},{"id":"52668835999","owner":"12639178@N07","secret":"e257dca1d2","server":"65535","farm":66,"title":"Palmenwalds\u00e4nger, ein Wintergast aus dem Norden","ispublic":1,"isfriend":0,"isfamily":0},{"id":"52658518161","owner":"128369733@N04","secret":"ee9450e3cc","server":"65535","farm":66,"title":"Down On The Ground (1)","ispublic":1,"isfriend":0,"isfamily":0},{"id":"52658026027","owner":"128369733@N04","secret":"9125edf24f","server":"65535","farm":66,"title":"Down On The Ground (2)","ispublic":1,"isfriend":0,"isfamily":0},{"id":"52656767312","owner":"10336659@N04","secret":"e09b160617","server":"65535","farm":66,"title":"Palm Warbler (Setophaga palmarum), Green Cay Nature Preserve, Delray Beach, Florida","ispublic":1,"isfriend":0,"isfamily":0},{"id":"52657456384","owner":"94074753@N00","secret":"50eb7d37d1","server":"65535","farm":66,"title":"Cig\u00fcita Palmar \/ Setophaga palmarum","ispublic":1,"isfriend":0,"isfamily":0},{"id":"52657666118","owner":"94074753@N00","secret":"04ba354581","server":"65535","farm":66,"title":"Cig\u00fcita Palmar \/ Setophaga palmarum","ispublic":1,"isfriend":0,"isfamily":0},{"id":"52656687472","owner":"94074753@N00","secret":"b56667c6c2","server":"65535","farm":66,"title":"Cig\u00fcita Palmar \/ Setophaga palmarum","ispublic":1,"isfriend":0,"isfamily":0},{"id":"52656048116","owner":"39511843@N07","secret":"1b183b1287","server":"65535","farm":66,"title":"20230125-Palm Warbler (Setophaga palmarum)","ispublic":1,"isfriend":0,"isfamily":0},{"id":"52649216705","owner":"86191812@N07","secret":"39a5fb19d7","server":"65535","farm":66,"title":"Palm Warbler (Setophaga palmarum)","ispublic":1,"isfriend":0,"isfamily":0},{"id":"52649128993","owner":"39511843@N07","secret":"a61e843b67","server":"65535","farm":66,"title":"20230121-Palm Warbler (Setophaga palmarum)","ispublic":1,"isfriend":0,"isfamily":0},{"id":"52647637081","owner":"112608353@N02","secret":"00e9f9b736","server":"65535","farm":66,"title":"Palm Warbler","ispublic":1,"isfriend":0,"isfamily":0},{"id":"52643708639","owner":"52450054@N04","secret":"2d79c0bbc7","server":"65535","farm":66,"title":"Palm Warbler - Setophaga palmarum with Katydid, Everglades National Park, Homestead, Florida, December 1, 2021","ispublic":1,"isfriend":0,"isfamily":0},{"id":"52637018138","owner":"74787113@N05","secret":"805d82d2ae","server":"65535","farm":66,"title":"PALM WARBLER","ispublic":1,"isfriend":0,"isfamily":0},{"id":"52636231595","owner":"34674638@N05","secret":"bfc3741734","server":"65535","farm":66,"title":"Palm Warbler Singing","ispublic":1,"isfriend":0,"isfamily":0},{"id":"52628756059","owner":"128369733@N04","secret":"c2b433ef3f","server":"65535","farm":66,"title":"Little Bird In The Garden (1)","ispublic":1,"isfriend":0,"isfamily":0},{"id":"52627989467","owner":"128369733@N04","secret":"6ce3440fb4","server":"65535","farm":66,"title":"Little Bird In The Garden (2)","ispublic":1,"isfriend":0,"isfamily":0},{"id":"52621302767","owner":"33005514@N04","secret":"20ef1cfeca","server":"65535","farm":66,"title":"Setophaga palmarum \/ Ciguita del Palmar","ispublic":1,"isfriend":0,"isfamily":0},{"id":"52620544692","owner":"10336659@N04","secret":"7df380bd4b","server":"65535","farm":66,"title":"Palm Warbler (Setophaga palmarum), Green Cay Nature Preserve, Delray Beach, Florida","ispublic":1,"isfriend":0,"isfamily":0},{"id":"52617414650","owner":"128369733@N04","secret":"942b556e9d","server":"65535","farm":66,"title":"Morning Warbler","ispublic":1,"isfriend":0,"isfamily":0},{"id":"52613323182","owner":"43758413@N06","secret":"8910a41ab9","server":"65535","farm":66,"title":"Palm warbler","ispublic":1,"isfriend":0,"isfamily":0},{"id":"52614259485","owner":"43758413@N06","secret":"38a7e9eac6","server":"65535","farm":66,"title":"Palm warbler","ispublic":1,"isfriend":0,"isfamily":0},{"id":"52610933223","owner":"129553350@N02","secret":"528874cfac","server":"65535","farm":66,"title":"Palm Warbler","ispublic":1,"isfriend":0,"isfamily":0},{"id":"52604804929","owner":"128369733@N04","secret":"f6343c59c2","server":"65535","farm":66,"title":"Wet Warbler (1)","ispublic":1,"isfriend":0,"isfamily":0},{"id":"52604051912","owner":"128369733@N04","secret":"c81c40e284","server":"65535","farm":66,"title":"Wet Warbler (2)","ispublic":1,"isfriend":0,"isfamily":0},{"id":"52600010461","owner":"128369733@N04","secret":"9a1a322e8d","server":"65535","farm":66,"title":"Drying Off (1)","ispublic":1,"isfriend":0,"isfamily":0},{"id":"52600433120","owner":"128369733@N04","secret":"f06216423a","server":"65535","farm":66,"title":"Drying Off (2)","ispublic":1,"isfriend":0,"isfamily":0},{"id":"52594435891","owner":"33005514@N04","secret":"b71bd46f87","server":"65535","farm":66,"title":"Cguita del Palmar \/ Setophaga palmarum \/ Palm Walbler","ispublic":1,"isfriend":0,"isfamily":0},{"id":"52591599949","owner":"128369733@N04","secret":"3eb717f1f2","server":"65535","farm":66,"title":"A Very Bright Afternoon","ispublic":1,"isfriend":0,"isfamily":0},{"id":"52581655548","owner":"70295563@N00","secret":"1ecf7785f2","server":"65535","farm":66,"title":"On the rail","ispublic":1,"isfriend":0,"isfamily":0},{"id":"52580783073","owner":"153973412@N04","secret":"e0409df0e7","server":"65535","farm":66,"title":"Palm Warbler-Setophaga palmarum, Iowa City, IA","ispublic":1,"isfriend":0,"isfamily":0},{"id":"52573143726","owner":"128369733@N04","secret":"406c2d79d8","server":"65535","farm":66,"title":"","ispublic":1,"isfriend":0,"isfamily":0},{"id":"52571442001","owner":"10336659@N04","secret":"7f62f3beb3","server":"65535","farm":66,"title":"Palm warbler (Setophaga palmarum), Wakodahatchee Wetlands, Delray Beach, Florida.","ispublic":1,"isfriend":0,"isfamily":0},{"id":"52571418275","owner":"128369733@N04","secret":"2f8b36e9d7","server":"65535","farm":66,"title":"Cloudy Morning","ispublic":1,"isfriend":0,"isfamily":0},{"id":"52563715472","owner":"10336659@N04","secret":"67493c5f26","server":"65535","farm":66,"title":"Palm warbler (Setophaga palmarum), Wakodahatchee Wetlands, Delray Beach, Florida.","ispublic":1,"isfriend":0,"isfamily":0},{"id":"52563098236","owner":"128369733@N04","secret":"d95ed3a79a","server":"65535","farm":66,"title":"Palm Warbler (1)","ispublic":1,"isfriend":0,"isfamily":0},{"id":"52563097486","owner":"128369733@N04","secret":"afe7375e11","server":"65535","farm":66,"title":"Palm Warbler (2)","ispublic":1,"isfriend":0,"isfamily":0},{"id":"52549252753","owner":"88932760@N08","secret":"5101738fd6","server":"65535","farm":66,"title":"Soft Palm Warbler","ispublic":1,"isfriend":0,"isfamily":0},{"id":"52548224047","owner":"128369733@N04","secret":"e9bed70626","server":"65535","farm":66,"title":"Silence Is Golden","ispublic":1,"isfriend":0,"isfamily":0},{"id":"52548891619","owner":"10336659@N04","secret":"25db87f0a9","server":"65535","farm":66,"title":"Palm warbler (Setophaga palmarum), Wakodahatchee Wetlands, Delray Beach, Florida.","ispublic":1,"isfriend":0,"isfamily":0},{"id":"52545754338","owner":"146977722@N03","secret":"63acb85bf2","server":"65535","farm":66,"title":"Setophaga palmarum (Paruline \u00e0 couronne rousse) - Ohio - Conrey  Road Bird Sanctuary - 2022 10 249745_DxO_DxO","ispublic":1,"isfriend":0,"isfamily":0},{"id":"52543303908","owner":"94074753@N00","secret":"b22908c7a0","server":"65535","farm":66,"title":"Ciguita Palmar\/Setophaga palmarum\/Palm Warbler","ispublic":1,"isfriend":0,"isfamily":0},{"id":"52542297372","owner":"94074753@N00","secret":"e387cbb836","server":"65535","farm":66,"title":"Ciguita Palmar\/Setophaga palmarum\/Palm Warbler","ispublic":1,"isfriend":0,"isfamily":0},{"id":"52542881743","owner":"185851777@N04","secret":"99e1b25e8e","server":"65535","farm":66,"title":"Palm or Pine  Warbler -setophaga palmarum","ispublic":1,"isfriend":0,"isfamily":0},{"id":"52542045684","owner":"128369733@N04","secret":"cab5b70bc4","server":"65535","farm":66,"title":"Just After Sunrise (1)","ispublic":1,"isfriend":0,"isfamily":0},{"id":"52542227935","owner":"128369733@N04","secret":"75393702dc","server":"65535","farm":66,"title":"Just After Sunrise (2)","ispublic":1,"isfriend":0,"isfamily":0},{"id":"52540316867","owner":"10336659@N04","secret":"5812638ba2","server":"65535","farm":66,"title":"Palm warbler (Setophaga palmarum), Wakodahatchee Wetlands, Delray Beach, Florida.","ispublic":1,"isfriend":0,"isfamily":0},{"id":"52536936998","owner":"128537732@N06","secret":"60c1444589","server":"65535","farm":66,"title":"Palm Warbler (Setophaga palmarum)","ispublic":1,"isfriend":0,"isfamily":0},{"id":"52536264823","owner":"88932760@N08","secret":"f27f8643c6","server":"65535","farm":66,"title":"Palm on Palms","ispublic":1,"isfriend":0,"isfamily":0},{"id":"52531953980","owner":"10336659@N04","secret":"d1ee1237b4","server":"65535","farm":66,"title":"Palm warbler (Setophaga palmarum), Green Cay Nature Preserve, Delray Beach, Florida.","ispublic":1,"isfriend":0,"isfamily":0},{"id":"52526103257","owner":"10336659@N04","secret":"813c82593e","server":"65535","farm":66,"title":"Palm warbler (Setophaga palmarum), Green Cay Nature Preserve, Delray Beach, Florida.","ispublic":1,"isfriend":0,"isfamily":0},{"id":"52524421881","owner":"128369733@N04","secret":"60d17aaa7e","server":"65535","farm":66,"title":"The Day Begins","ispublic":1,"isfriend":0,"isfamily":0},{"id":"52523836209","owner":"103722035@N06","secret":"3fcd1c3835","server":"65535","farm":66,"title":"Palm Warbler (Setophaga palmarum), Cayucos, CA","ispublic":1,"isfriend":0,"isfamily":0},{"id":"52523092017","owner":"103722035@N06","secret":"22f4079e00","server":"65535","farm":66,"title":"Palm Warbler (Setophaga palmarum), Cayucos, CA","ispublic":1,"isfriend":0,"isfamily":0},{"id":"52524032215","owner":"103722035@N06","secret":"122242ab2c","server":"65535","farm":66,"title":"Palm Warbler (Setophaga palmarum), Cayucos, CA","ispublic":1,"isfriend":0,"isfamily":0},{"id":"52523836024","owner":"103722035@N06","secret":"f4385fc4ae","server":"65535","farm":66,"title":"Palm Warbler (Setophaga palmarum), Cayucos, CA","ispublic":1,"isfriend":0,"isfamily":0},{"id":"52523980705","owner":"103722035@N06","secret":"c19d1419ce","server":"0","farm":0,"title":"Palm Warbler (Setophaga palmarum), Cayucos, CA","ispublic":1,"isfriend":0,"isfamily":0},{"id":"52522186709","owner":"103722035@N06","secret":"63b99e661f","server":"0","farm":0,"title":"Palm Warbler (Setophaga palmarum), Cayucos, CA","ispublic":1,"isfriend":0,"isfamily":0},{"id":"52521263578","owner":"128369733@N04","secret":"65556ee6c4","server":"65535","farm":66,"title":"Thanksgiving Day Bird","ispublic":1,"isfriend":0,"isfamily":0},{"id":"52520081680","owner":"118311568@N08","secret":"0fd6d82e5b","server":"65535","farm":66,"title":"Palm Warbler","ispublic":1,"isfriend":0,"isfamily":0},{"id":"52515777641","owner":"39445433@N02","secret":"55cb7b39a6","server":"65535","farm":66,"title":"AJ9A0006","ispublic":1,"isfriend":0,"isfamily":0},{"id":"52514833567","owner":"128537732@N06","secret":"6626177c06","server":"65535","farm":66,"title":"Palm Warbler (Setophaga palmarum)","ispublic":1,"isfriend":0,"isfamily":0},{"id":"52514833217","owner":"128537732@N06","secret":"2926bba98e","server":"65535","farm":66,"title":"Palm Warbler (Setophaga palmarum)","ispublic":1,"isfriend":0,"isfamily":0},{"id":"52513266740","owner":"88932760@N08","secret":"d79f5f7750","server":"65535","farm":66,"title":"At the Crook of the Branch","ispublic":1,"isfriend":0,"isfamily":0},{"id":"52569335452","owner":"128537732@N06","secret":"ca73012cab","server":"65535","farm":66,"title":"Palm Warbler (Setophaga palmarum)","ispublic":1,"isfriend":0,"isfamily":0},{"id":"52519509360","owner":"13451078@N03","secret":"54d4cd7fe2","server":"65535","farm":66,"title":"Palm Warbler   (Setophaga palmarum)","ispublic":1,"isfriend":0,"isfamily":0}]},"stat":"ok"}