{"photos":{"page":1,"pages":38,"perpage":100,"total":3764,"photo":[{"id":"52712150361","owner":"132431122@N05","secret":"14b62ed993","server":"65535","farm":66,"title":"Pectoral Sandpiper","ispublic":1,"isfriend":0,"isfamily":0},{"id":"52712567880","owner":"132431122@N05","secret":"ed4732af48","server":"65535","farm":66,"title":"Pectoral Sandpiper","ispublic":1,"isfriend":0,"isfamily":0},{"id":"52635785326","owner":"191391950@N02","secret":"08cf189a9d","server":"65535","farm":66,"title":"B\u00e9casseau tachet\u00e9 - Calidris melanotos","ispublic":1,"isfriend":0,"isfamily":0},{"id":"52627161609","owner":"123174353@N02","secret":"9f8e62690c","server":"65535","farm":66,"title":"Calidris melanotos \/ Pectoral Sandpiper \/ gestreepte strandloper","ispublic":1,"isfriend":0,"isfamily":0},{"id":"52579794887","owner":"153973412@N04","secret":"ac899aca19","server":"65535","farm":66,"title":"Pectoral Sandpiper-Calidris melanotos, Hawkeye WMA, IA","ispublic":1,"isfriend":0,"isfamily":0},{"id":"52557552772","owner":"22594349@N08","secret":"2181a4556b","server":"65535","farm":66,"title":"Pectoral Sandpiper (Calidris melanotos)","ispublic":1,"isfriend":0,"isfamily":0},{"id":"52537776055","owner":"36013467@N07","secret":"c28fecfb1b","server":"65535","farm":66,"title":"Pectoral Sandpiper (Calidris melanotos)","ispublic":1,"isfriend":0,"isfamily":0},{"id":"52535098489","owner":"33610210@N05","secret":"044b0c84db","server":"65535","farm":66,"title":"Pectoral Sandpiper, Calidris melanotos","ispublic":1,"isfriend":0,"isfamily":0},{"id":"52535357398","owner":"33610210@N05","secret":"937e36dabc","server":"65535","farm":66,"title":"Pectoral Sandpiper, Calidris melanotos","ispublic":1,"isfriend":0,"isfamily":0},{"id":"52535357323","owner":"33610210@N05","secret":"1982e5a622","server":"65535","farm":66,"title":"Pectoral Sandpiper, Calidris melanotos","ispublic":1,"isfriend":0,"isfamily":0},{"id":"52514221666","owner":"92361032@N05","secret":"99c7aedd0e","server":"65535","farm":66,"title":"Pectoral Sandpiper \/ B\u00e9casseau \u00e0 poitrine cendr\u00e9e ( Diane )","ispublic":1,"isfriend":0,"isfamily":0},{"id":"52511137180","owner":"124995824@N08","secret":"e76b80f0f0","server":"65535","farm":66,"title":"Pectoral Sandpiper - Calidris melanotos","ispublic":1,"isfriend":0,"isfamily":0},{"id":"52495522694","owner":"64557331@N04","secret":"34989f18c4","server":"65535","farm":66,"title":"Pectoral Sandpiper- (Calidris melanotos)_08022021","ispublic":1,"isfriend":0,"isfamily":0},{"id":"52494895751","owner":"48938938@N04","secret":"336ceabd3c","server":"65535","farm":66,"title":"Pectoral Sandpiper_Calidris melanotos_Ascanio_Guyana_DZ3A4168","ispublic":1,"isfriend":0,"isfamily":0},{"id":"52495452743","owner":"48938938@N04","secret":"1a9f7dc495","server":"65535","farm":66,"title":"Pectoral Sandpiper_Calidris melanotos_Ascanio_Guyana_DZ3A4184","ispublic":1,"isfriend":0,"isfamily":0},{"id":"52495452493","owner":"48938938@N04","secret":"725377906b","server":"65535","farm":66,"title":"Pectoral Sandpiper_Calidris melanotos_Ascanio_Guyana_DZ3A4288","ispublic":1,"isfriend":0,"isfamily":0},{"id":"52465860570","owner":"65148649@N04","secret":"9b3712fc4b","server":"65535","farm":66,"title":"Pectoral Sandpiper","ispublic":1,"isfriend":0,"isfamily":0},{"id":"52465678179","owner":"65148649@N04","secret":"e494fc978d","server":"65535","farm":66,"title":"Pectoral Sandpiper","ispublic":1,"isfriend":0,"isfamily":0},{"id":"52465678114","owner":"65148649@N04","secret":"448bd85f11","server":"65535","farm":66,"title":"Pectoral Sandpiper","ispublic":1,"isfriend":0,"isfamily":0},{"id":"52465860540","owner":"65148649@N04","secret":"92cfcf10ba","server":"65535","farm":66,"title":"Pectoral Sandpiper","ispublic":1,"isfriend":0,"isfamily":0},{"id":"52465860545","owner":"65148649@N04","secret":"2ac1776d00","server":"65535","farm":66,"title":"Pectoral Sandpiper","ispublic":1,"isfriend":0,"isfamily":0},{"id":"52465393606","owner":"65148649@N04","secret":"ce41136246","server":"65535","farm":66,"title":"Pectoral Sandpiper","ispublic":1,"isfriend":0,"isfamily":0},{"id":"52465678069","owner":"65148649@N04","secret":"95e2c40f95","server":"65535","farm":66,"title":"Pectoral Sandpiper","ispublic":1,"isfriend":0,"isfamily":0},{"id":"52465393641","owner":"65148649@N04","secret":"dfb74ab4fb","server":"65535","farm":66,"title":"Pectoral Sandpiper","ispublic":1,"isfriend":0,"isfamily":0},{"id":"52465946533","owner":"65148649@N04","secret":"a8205a6c61","server":"65535","farm":66,"title":"Pectoral Sandpiper","ispublic":1,"isfriend":0,"isfamily":0},{"id":"52465393596","owner":"65148649@N04","secret":"f63a19f88a","server":"65535","farm":66,"title":"Pectoral Sandpiper","ispublic":1,"isfriend":0,"isfamily":0},{"id":"52465393591","owner":"65148649@N04","secret":"7406c5bedc","server":"65535","farm":66,"title":"Pectoral Sandpiper","ispublic":1,"isfriend":0,"isfamily":0},{"id":"52465943868","owner":"65148649@N04","secret":"75f6c7130e","server":"65535","farm":66,"title":"Pectoral Sandpiper","ispublic":1,"isfriend":0,"isfamily":0},{"id":"52464894077","owner":"65148649@N04","secret":"f6fd55ddb3","server":"65535","farm":66,"title":"Pectoral Sandpiper","ispublic":1,"isfriend":0,"isfamily":0},{"id":"52458169606","owner":"18217058@N04","secret":"dec1740527","server":"65535","farm":66,"title":"Pectoral sandpiper \/ R\u00e1kat\u00edta (Calidris melanotos) and Golden Plovers \/ Hei\u00f0l\u00f3ur (Pluvialis apricaria)","ispublic":1,"isfriend":0,"isfamily":0},{"id":"52455891964","owner":"34238008@N02","secret":"ebabd9863d","server":"65535","farm":66,"title":"Pectoral Sandpiper, basic adult (Calidris melanotos)","ispublic":1,"isfriend":0,"isfamily":0},{"id":"52451332845","owner":"163667952@N05","secret":"2c94af9b7b","server":"65535","farm":66,"title":"Pectoral Sandpiper","ispublic":1,"isfriend":0,"isfamily":0},{"id":"52447831638","owner":"129108168@N08","secret":"47a6b2ca42","server":"65535","farm":66,"title":"Calidris melanotos (Extremely rare in Reunion Island)","ispublic":1,"isfriend":0,"isfamily":0},{"id":"52437840154","owner":"127461478@N08","secret":"fdf57de147","server":"65535","farm":66,"title":"IMG_6053 B\u00e9casseau \u00e0 poitrine cendr\u00e9e, Les Escoumins","ispublic":1,"isfriend":0,"isfamily":0},{"id":"52434019017","owner":"39177293@N03","secret":"aa34417ab0","server":"65535","farm":66,"title":"Pectoral Sandpiper","ispublic":1,"isfriend":0,"isfamily":0},{"id":"52428846294","owner":"128732722@N08","secret":"bfa952ff03","server":"65535","farm":66,"title":"Pectoral Sandpiper (juv) (Calidris melanotos)","ispublic":1,"isfriend":0,"isfamily":0},{"id":"52427235927","owner":"196264892@N08","secret":"33596be47a","server":"65535","farm":66,"title":"Pectoral Sandpiper","ispublic":1,"isfriend":0,"isfamily":0},{"id":"52427235767","owner":"196264892@N08","secret":"6d9648b64c","server":"65535","farm":66,"title":"Pectoral Sandpiper","ispublic":1,"isfriend":0,"isfamily":0},{"id":"52424724980","owner":"103722035@N06","secret":"f1eb8500b2","server":"0","farm":0,"title":"Pectoral Sandpiper (Calidris melanotos), &  Greater White-fronted Goose (Anser albifrons), Cayucos, CA","ispublic":1,"isfriend":0,"isfamily":0},{"id":"52424683008","owner":"103722035@N06","secret":"2177dac63b","server":"0","farm":0,"title":"Pectoral Sandpiper (Calidris melanotos), Cayucos, CA","ispublic":1,"isfriend":0,"isfamily":0},{"id":"52420923445","owner":"69347399@N08","secret":"5e1c61f82f","server":"65535","farm":66,"title":"Calidris melanotos - Pectoral sandpiper -","ispublic":1,"isfriend":0,"isfamily":0},{"id":"52419879948","owner":"51928691@N04","secret":"852917b5b5","server":"65535","farm":66,"title":"Pectoral Sandpiper (Calidirs melanotos) 2 100122","ispublic":1,"isfriend":0,"isfamily":0},{"id":"52417118927","owner":"130605131@N08","secret":"6a5584fc23","server":"65535","farm":66,"title":"IMG_2408","ispublic":1,"isfriend":0,"isfamily":0},{"id":"52417118877","owner":"130605131@N08","secret":"5bd9537e1e","server":"65535","farm":66,"title":"IMG_2409","ispublic":1,"isfriend":0,"isfamily":0},{"id":"52418140883","owner":"130605131@N08","secret":"d49a181850","server":"65535","farm":66,"title":"IMG_2410","ispublic":1,"isfriend":0,"isfamily":0},{"id":"52418140808","owner":"130605131@N08","secret":"52f11e4120","server":"65535","farm":66,"title":"IMG_2412","ispublic":1,"isfriend":0,"isfamily":0},{"id":"52417118592","owner":"130605131@N08","secret":"49e99da7f0","server":"65535","farm":66,"title":"IMG_2413","ispublic":1,"isfriend":0,"isfamily":0},{"id":"52418070040","owner":"130605131@N08","secret":"e39cb4d938","server":"65535","farm":66,"title":"IMG_2414","ispublic":1,"isfriend":0,"isfamily":0},{"id":"52417911559","owner":"130605131@N08","secret":"dcd10808c2","server":"65535","farm":66,"title":"IMG_2415","ispublic":1,"isfriend":0,"isfamily":0},{"id":"52418351648","owner":"28867468@N08","secret":"f173b11c0e","server":"65535","farm":66,"title":"Pectoral Sandpiper Juveniles","ispublic":1,"isfriend":0,"isfamily":0},{"id":"52418275420","owner":"28867468@N08","secret":"714bbfa67e","server":"65535","farm":66,"title":"Pectoral Sandpiper Juvenile with a Morsel","ispublic":1,"isfriend":0,"isfamily":0},{"id":"52401464895","owner":"128732722@N08","secret":"f7ae6c8146","server":"65535","farm":66,"title":"Pectoral Sandpiper (juv) (Calidris melanotos)","ispublic":1,"isfriend":0,"isfamily":0},{"id":"52399764071","owner":"165841515@N03","secret":"3dbe7e7683","server":"65535","farm":66,"title":"B\u00e9casseau \u00e0 poitrine cendr\u00e9e \/ Pectoral Sandpiper \/ (Calidris melanotos)","ispublic":1,"isfriend":0,"isfamily":0},{"id":"52397369155","owner":"95232075@N02","secret":"6907d195f8","server":"65535","farm":66,"title":"Juvenile Pectoral Sandpiper (Calidris melanotos)","ispublic":1,"isfriend":0,"isfamily":0},{"id":"52397218614","owner":"129803374@N05","secret":"8a3fccce4a","server":"65535","farm":66,"title":"Pectoral Sandpiper (Calidris melanotos)","ispublic":1,"isfriend":0,"isfamily":0},{"id":"52397282660","owner":"28867468@N08","secret":"b5475649f1","server":"65535","farm":66,"title":"Pectoral Sandpiper Juvenile Surveying the Seaweed Wrack","ispublic":1,"isfriend":0,"isfamily":0},{"id":"52442444963","owner":"134270033@N06","secret":"3b6670975f","server":"0","farm":0,"title":"Shorebird Trio","ispublic":1,"isfriend":0,"isfamily":0},{"id":"52395654576","owner":"163930705@N05","secret":"3c51ebaf75","server":"65535","farm":66,"title":"Pectoral Sandpiper \/ R\u00e1kat\u00edta (Calidris melanotos)","ispublic":1,"isfriend":0,"isfamily":0},{"id":"52394401697","owner":"195537536@N03","secret":"5875b91549","server":"65535","farm":66,"title":"Pectoral Sandpiper (Calidris melanotos)","ispublic":1,"isfriend":0,"isfamily":0},{"id":"52393663795","owner":"95232075@N02","secret":"3b800bae24","server":"65535","farm":66,"title":"juvenile Pectoral Sandpiper (Calidris melanotos)","ispublic":1,"isfriend":0,"isfamily":0},{"id":"52393733578","owner":"95232075@N02","secret":"5d92ec2dcc","server":"65535","farm":66,"title":"Juvenile Pectoral Sandpiper (Calidris melanotos)","ispublic":1,"isfriend":0,"isfamily":0},{"id":"52393528259","owner":"95232075@N02","secret":"24780c7c2d","server":"65535","farm":66,"title":"Juvenile Pectoral Sandpiper (Calidris melanotos)","ispublic":1,"isfriend":0,"isfamily":0},{"id":"52392761185","owner":"128732722@N08","secret":"8dd5b3b208","server":"65535","farm":66,"title":"Pectoral Sandpiper (juv) (Calidris melanotos)","ispublic":1,"isfriend":0,"isfamily":0},{"id":"52390793120","owner":"12240837@N08","secret":"2357dc0bc7","server":"65535","farm":66,"title":"Ruff (calidris pugnax) and Pectoral Sandpiper (calidris melanotos)","ispublic":1,"isfriend":0,"isfamily":0},{"id":"52389442352","owner":"12240837@N08","secret":"bda092641d","server":"65535","farm":66,"title":"Pectoral Sandpiper (calidris melanotos)","ispublic":1,"isfriend":0,"isfamily":0},{"id":"52390674209","owner":"12240837@N08","secret":"7d66a24a1e","server":"65535","farm":66,"title":"Pectoral Sandpiper (calidris melanotos)","ispublic":1,"isfriend":0,"isfamily":0},{"id":"52390365496","owner":"12240837@N08","secret":"f48d2ce140","server":"65535","farm":66,"title":"Ruff (calidris pugnax) and Pectoral Sandpiper (calidris melanotos)","ispublic":1,"isfriend":0,"isfamily":0},{"id":"52388160821","owner":"159284114@N07","secret":"6dcd8e27f0","server":"65535","farm":66,"title":"B\u00e9casseau \u00e0 poitrine cendr\u00e9e, Pectoral sandpiper","ispublic":1,"isfriend":0,"isfamily":0},{"id":"52385959990","owner":"115212372@N04","secret":"d82e0787e5","server":"65535","farm":66,"title":"Pectoral Sandpiper (Calidris melanotos)","ispublic":1,"isfriend":0,"isfamily":0},{"id":"52384171118","owner":"131708321@N02","secret":"e1be37e996","server":"65535","farm":66,"title":"Pectoral Sandpiper (Calidris melanotos), Stapleford, Cambridgeshire, United Kingdom","ispublic":1,"isfriend":0,"isfamily":0},{"id":"52382769654","owner":"97377331@N07","secret":"b0fbacc135","server":"65535","farm":66,"title":"Pectoral Sandpiper Juvenile. Great to see this rare North American wader locally in county yesterday \ud83d\ude0a","ispublic":1,"isfriend":0,"isfamily":0},{"id":"52627351800","owner":"123174353@N02","secret":"f5b7900464","server":"65535","farm":66,"title":"Calidris melanotos \/ Pectoral Sandpiper \/ gestreepte strandloper","ispublic":1,"isfriend":0,"isfamily":0},{"id":"52627351785","owner":"123174353@N02","secret":"dafaa88d67","server":"65535","farm":66,"title":"Calidris melanotos \/ Pectoral Sandpiper \/ gestreepte strandloper","ispublic":1,"isfriend":0,"isfamily":0},{"id":"52626398882","owner":"123174353@N02","secret":"70746637d3","server":"65535","farm":66,"title":"Calidris melanotos \/ Pectoral Sandpiper \/ gestreepte strandloper","ispublic":1,"isfriend":0,"isfamily":0},{"id":"52626398887","owner":"123174353@N02","secret":"a105614636","server":"65535","farm":66,"title":"Calidris melanotos \/ Pectoral Sandpiper \/ gestreepte strandloper","ispublic":1,"isfriend":0,"isfamily":0},{"id":"52514065470","owner":"113679267@N08","secret":"7b3bff5e53","server":"65535","farm":66,"title":"Pectoral Sandpiper (Calidris melanotos)","ispublic":1,"isfriend":0,"isfamily":0},{"id":"52494413322","owner":"48938938@N04","secret":"9428e8c947","server":"65535","farm":66,"title":"Pectoral Sandpiper_Calidris melanotos_Ascanio_Guyana_DZ3A4170","ispublic":1,"isfriend":0,"isfamily":0},{"id":"52495452693","owner":"48938938@N04","secret":"287fbbb652","server":"65535","farm":66,"title":"Pectoral Sandpiper_Calidris melanotos_Ascanio_Guyana_DZ3A4194","ispublic":1,"isfriend":0,"isfamily":0},{"id":"52494413122","owner":"48938938@N04","secret":"9424c1e255","server":"65535","farm":66,"title":"Pectoral Sandpiper_Calidris melanotos_Ascanio_Guyana_DZ3A4281","ispublic":1,"isfriend":0,"isfamily":0},{"id":"52461954751","owner":"186211059@N06","secret":"f9a1e7246d","server":"65535","farm":66,"title":"Pectoral Sandpiper","ispublic":1,"isfriend":0,"isfamily":0},{"id":"52460529122","owner":"186211059@N06","secret":"3119a6efa1","server":"65535","farm":66,"title":"Pectoral Sandpiper","ispublic":1,"isfriend":0,"isfamily":0},{"id":"52461374658","owner":"129108168@N08","secret":"72104e48d2","server":"65535","farm":66,"title":"Calidris melanotos","ispublic":1,"isfriend":0,"isfamily":0},{"id":"52447726815","owner":"129108168@N08","secret":"d9aa9aca03","server":"65535","farm":66,"title":"Calidris melanotos (Extremely rare in Reunion Island)","ispublic":1,"isfriend":0,"isfamily":0},{"id":"52438020055","owner":"127461478@N08","secret":"d3c7159df8","server":"65535","farm":66,"title":"IMG_6051 B\u00e9casseau \u00e0 poitrine cendr\u00e9e, Les Escoumins","ispublic":1,"isfriend":0,"isfamily":0},{"id":"52437562381","owner":"127461478@N08","secret":"92063c96a5","server":"65535","farm":66,"title":"IMG_6043 B\u00e9casseau \u00e0 poitrine cendr\u00e9e, Les Escoumins","ispublic":1,"isfriend":0,"isfamily":0},{"id":"52438018890","owner":"127461478@N08","secret":"3db1a0a4d6","server":"65535","farm":66,"title":"IMG_6041 B\u00e9casseau \u00e0 poitrine cendr\u00e9e, Les Escoumins","ispublic":1,"isfriend":0,"isfamily":0},{"id":"52438081548","owner":"127461478@N08","secret":"58db71b187","server":"65535","farm":66,"title":"IMG_6035 B\u00e9casseau \u00e0 poitrine cendr\u00e9e, Les Escoumins","ispublic":1,"isfriend":0,"isfamily":0},{"id":"52417119042","owner":"130605131@N08","secret":"d524840056","server":"65535","farm":66,"title":"IMG_2404","ispublic":1,"isfriend":0,"isfamily":0},{"id":"52417630196","owner":"130605131@N08","secret":"007afef2c9","server":"65535","farm":66,"title":"IMG_2405","ispublic":1,"isfriend":0,"isfamily":0},{"id":"52417630161","owner":"130605131@N08","secret":"d9a646cdc2","server":"65535","farm":66,"title":"IMG_2406","ispublic":1,"isfriend":0,"isfamily":0},{"id":"52403190430","owner":"140318147@N08","secret":"7c06e213b5","server":"65535","farm":66,"title":"pectoral sandpiper (Calidris melanotos) L4A3180","ispublic":1,"isfriend":0,"isfamily":0},{"id":"52402622109","owner":"155161815@N04","secret":"dcee745a72","server":"65535","farm":66,"title":"B\u00e9casseau tachet\u00e9 Calidris melanotos - Pectoral Sandpiper_IMG_2425","ispublic":1,"isfriend":0,"isfamily":0},{"id":"52401824312","owner":"155161815@N04","secret":"53cb426777","server":"65535","farm":66,"title":"B\u00e9casseaux tachet\u00e9 Calidris melanotos - Pectoral SandpiperIMG_4099","ispublic":1,"isfriend":0,"isfamily":0},{"id":"52402622049","owner":"155161815@N04","secret":"12b01a11c0","server":"65535","farm":66,"title":"B\u00e9casseau tachet\u00e9 Calidris melanotos - Pectoral Sandpiper_IMG_4175","ispublic":1,"isfriend":0,"isfamily":0},{"id":"52396603827","owner":"48938938@N04","secret":"942b011b4f","server":"65535","farm":66,"title":"Pectoral Sandpiper_Calidris melanotos_Ascanio_Pantanal_Brazil_DZ3A5746","ispublic":1,"isfriend":0,"isfamily":0},{"id":"52397612373","owner":"48938938@N04","secret":"60d42efefc","server":"65535","farm":66,"title":"Pectoral Sandpiper_Calidris melanotos_Ascanio_Pantanal_Brazil_DZ3A5755","ispublic":1,"isfriend":0,"isfamily":0},{"id":"52397612093","owner":"48938938@N04","secret":"8a7bc598aa","server":"65535","farm":66,"title":"Pectoral Sandpiper_Calidris melanotos_Ascanio_Pantanal_Brazil_DZ3A5774","ispublic":1,"isfriend":0,"isfamily":0},{"id":"52397545920","owner":"48938938@N04","secret":"edaf14de8b","server":"65535","farm":66,"title":"Pectoral Sandpiper 2_Calidris melanotos_Ascanio_Pantanal_Brazil_DZ3A5738","ispublic":1,"isfriend":0,"isfamily":0},{"id":"52389581193","owner":"42034882@N00","secret":"7d44bfa816","server":"65535","farm":66,"title":"Wade a Second","ispublic":1,"isfriend":0,"isfamily":0},{"id":"52388406228","owner":"159284114@N07","secret":"5283166b32","server":"65535","farm":66,"title":"B\u00e9casseau \u00e0 poitrine cendr\u00e9e, Pectoral sandpiper","ispublic":1,"isfriend":0,"isfamily":0}]},"stat":"ok"}