{"photos":{"page":1,"pages":9,"perpage":100,"total":806,"photo":[{"id":"52720504581","owner":"44207637@N03","secret":"e0cb791caf","server":"65535","farm":66,"title":"Philadelphia Vireo  (Vireo Philadelphicus)","ispublic":1,"isfriend":0,"isfamily":0},{"id":"52644861523","owner":"65788177@N02","secret":"3a8ab023ef","server":"65535","farm":66,"title":"Philadelphia Vireo","ispublic":1,"isfriend":0,"isfamily":0},{"id":"52580855525","owner":"153973412@N04","secret":"cc2f838ddc","server":"65535","farm":66,"title":"Philadelphia Vireo-Vireo philadelphicus, Iowa City, IA","ispublic":1,"isfriend":0,"isfamily":0},{"id":"52550715931","owner":"30979614@N07","secret":"2167823cee","server":"65535","farm":66,"title":"2022-05-13 Montrose Point 8","ispublic":1,"isfriend":0,"isfamily":0},{"id":"52526300097","owner":"36274920@N05","secret":"56ea12fb46","server":"65535","farm":66,"title":"Panam\u00e1 - Novembre 2022","ispublic":1,"isfriend":0,"isfamily":0},{"id":"52507540042","owner":"9638954@N07","secret":"9cb96eeabf","server":"65535","farm":66,"title":"Philadelphia Vireo","ispublic":1,"isfriend":0,"isfamily":0},{"id":"52507540017","owner":"9638954@N07","secret":"e3f00203fa","server":"65535","farm":66,"title":"Philadelphia Vireo","ispublic":1,"isfriend":0,"isfamily":0},{"id":"52507539997","owner":"9638954@N07","secret":"62d94f5387","server":"65535","farm":66,"title":"Philadelphia Vireo","ispublic":1,"isfriend":0,"isfamily":0},{"id":"52507540002","owner":"9638954@N07","secret":"7f7ec5e1bb","server":"65535","farm":66,"title":"Philadelphia Vireo","ispublic":1,"isfriend":0,"isfamily":0},{"id":"52508292004","owner":"9638954@N07","secret":"5029046464","server":"65535","farm":66,"title":"Philadelphia Vireo","ispublic":1,"isfriend":0,"isfamily":0},{"id":"52507201388","owner":"32674493@N04","secret":"cde2447b2e","server":"65535","farm":66,"title":"Vireo Amarillento (Vireo philadelphicus)","ispublic":1,"isfriend":0,"isfamily":0},{"id":"52495247136","owner":"64557331@N04","secret":"fa1006e1e1","server":"65535","farm":66,"title":"Philadelphia Vireo - (Vireo philadelphicus)_09272022","ispublic":1,"isfriend":0,"isfamily":0},{"id":"52495787368","owner":"64557331@N04","secret":"8e5d5f3b1f","server":"65535","farm":66,"title":"Philadelphia Vireo - (Vireo philadelphicus)_09162021_2","ispublic":1,"isfriend":0,"isfamily":0},{"id":"52477905805","owner":"97599611@N04","secret":"5c8eacea38","server":"65535","farm":66,"title":"0P7A8407  Philadelphia Vireo, Canada","ispublic":1,"isfriend":0,"isfamily":0},{"id":"52427862565","owner":"39177293@N03","secret":"2378a602ca","server":"65535","farm":66,"title":"Philadelphia Vireo","ispublic":1,"isfriend":0,"isfamily":0},{"id":"52383430532","owner":"49114357@N08","secret":"a63e96af65","server":"65535","farm":66,"title":"Philadelphia Vireo","ispublic":1,"isfriend":0,"isfamily":0},{"id":"52378755556","owner":"49114357@N08","secret":"3fc74f75e7","server":"65535","farm":66,"title":"Philadelphia Vireo","ispublic":1,"isfriend":0,"isfamily":0},{"id":"52408931483","owner":"37566919@N02","secret":"e1622a386f","server":"65535","farm":66,"title":"Philadelphia Vireo","ispublic":1,"isfriend":0,"isfamily":0},{"id":"52396076312","owner":"145466593@N08","secret":"89f970a9a4","server":"65535","farm":66,"title":"Philadelphia Vireo","ispublic":1,"isfriend":0,"isfamily":0},{"id":"52395090671","owner":"59770980@N02","secret":"3ec5132781","server":"65535","farm":66,"title":"Kollgr\u00e6ningi-Philadelphia Vireo-Vireo philadelphicus","ispublic":1,"isfriend":0,"isfamily":0},{"id":"52370847962","owner":"126271444@N08","secret":"3c05a3194f","server":"65535","farm":66,"title":"Philadelphia Vireo (Vireo philadelphicus)","ispublic":1,"isfriend":0,"isfamily":0},{"id":"52371655376","owner":"76617062@N08","secret":"d5bf967c74","server":"65535","farm":66,"title":"1.17681 Vir\u00e9o de Philadelphie \/ Vireo philadelphicus \/ Philadelphia Vireo","ispublic":1,"isfriend":0,"isfamily":0},{"id":"52369576312","owner":"97599611@N04","secret":"72540e45af","server":"65535","farm":66,"title":"0P7A8406   Philadelphia Vireo, Canada","ispublic":1,"isfriend":0,"isfamily":0},{"id":"52362299378","owner":"61241315@N00","secret":"8d683e4bed","server":"65535","farm":66,"title":"Philadelphia Vireo_N7305","ispublic":1,"isfriend":0,"isfamily":0},{"id":"52362066316","owner":"61241315@N00","secret":"06a2dc4626","server":"65535","farm":66,"title":"Philadelphia Vireo_N7308","ispublic":1,"isfriend":0,"isfamily":0},{"id":"52362488415","owner":"61241315@N00","secret":"0f06e97c39","server":"65535","farm":66,"title":"Philadelphia Vireo_N7335","ispublic":1,"isfriend":0,"isfamily":0},{"id":"52361125232","owner":"61241315@N00","secret":"76033e06e4","server":"65535","farm":66,"title":"Philadelphia Vireo_N7318","ispublic":1,"isfriend":0,"isfamily":0},{"id":"52359131785","owner":"188156748@N07","secret":"8da9fd39d3","server":"65535","farm":66,"title":"Philadelphia Vireo  - Vir\u00e9o de Philadelphie 6186 (2)-SharpenAI-Standard copy.jpgS","ispublic":1,"isfriend":0,"isfamily":0},{"id":"52358946863","owner":"188156748@N07","secret":"18f39ac601","server":"65535","farm":66,"title":"Philadelphia Vireo  - Vir\u00e9o de Philadelphie 6186 (3)-SharpenAI-Standard copy.jpgS","ispublic":1,"isfriend":0,"isfamily":0},{"id":"52347129567","owner":"129803374@N05","secret":"6eee359c48","server":"65535","farm":66,"title":"Philadelphia Vireo (Vireo philadelphicus)","ispublic":1,"isfriend":0,"isfamily":0},{"id":"52348400714","owner":"129803374@N05","secret":"290512a5cf","server":"65535","farm":66,"title":"Philadelphia Vireo (Vireo philadelphicus)","ispublic":1,"isfriend":0,"isfamily":0},{"id":"52348083806","owner":"129803374@N05","secret":"170b79004e","server":"65535","farm":66,"title":"Philadelphia Vireo (Vireo philadelphicus)","ispublic":1,"isfriend":0,"isfamily":0},{"id":"52335948106","owner":"71418112@N00","secret":"6540cf0328","server":"65535","farm":66,"title":"Philadelphia vireo","ispublic":1,"isfriend":0,"isfamily":0},{"id":"52335055514","owner":"40723658@N05","secret":"8be3a5225b","server":"65535","farm":66,"title":"Philadelphia vireo fledgling","ispublic":1,"isfriend":0,"isfamily":0},{"id":"52208312750","owner":"76617062@N08","secret":"4b9638c7fd","server":"65535","farm":66,"title":"1.17681 Vir\u00e9o de Philadelphie \/ Vireo philadelphicus \/ Philadelphia Vireo","ispublic":1,"isfriend":0,"isfamily":0},{"id":"52203731257","owner":"47020313@N08","secret":"5a8011573a","server":"65535","farm":66,"title":"Philadelphia Vireo_MG_8623 edtsg","ispublic":1,"isfriend":0,"isfamily":0},{"id":"52171796953","owner":"76617062@N08","secret":"dfe68310e0","server":"65535","farm":66,"title":"1.17681 Vir\u00e9o de Philadelphie \/ Vireo philadelphicus \/ Philadelphia Vireo","ispublic":1,"isfriend":0,"isfamily":0},{"id":"52160414948","owner":"42264328@N00","secret":"5141d58fcc","server":"65535","farm":66,"title":"One last PV-2","ispublic":1,"isfriend":0,"isfamily":0},{"id":"52160768400","owner":"42264328@N00","secret":"5b721a9ef2","server":"65535","farm":66,"title":"PV-2 (composite)","ispublic":1,"isfriend":0,"isfamily":0},{"id":"52152933851","owner":"39177293@N03","secret":"1cf14b09a2","server":"65535","farm":66,"title":"Philadelphia Vireo","ispublic":1,"isfriend":0,"isfamily":0},{"id":"52142765672","owner":"185659367@N04","secret":"a4c08831de","server":"65535","farm":66,"title":"Philadelphia Vireo","ispublic":1,"isfriend":0,"isfamily":0},{"id":"52137395357","owner":"86191812@N07","secret":"9aa1dc114d","server":"65535","farm":66,"title":"Philidelphia Vireo (Vireo philadelphicus)","ispublic":1,"isfriend":0,"isfamily":0},{"id":"52135168025","owner":"42264328@N00","secret":"802ec83dc6","server":"65535","farm":66,"title":"More PV-2","ispublic":1,"isfriend":0,"isfamily":0},{"id":"52134697268","owner":"42264328@N00","secret":"35f70c014b","server":"65535","farm":66,"title":"More PV-2","ispublic":1,"isfriend":0,"isfamily":0},{"id":"52134676140","owner":"42264328@N00","secret":"b75f1b16e4","server":"65535","farm":66,"title":"PV-2","ispublic":1,"isfriend":0,"isfamily":0},{"id":"52121662715","owner":"165841515@N03","secret":"53437fc9f0","server":"65535","farm":66,"title":"Vid\u00e9o de Philadelphie \/ Philadelphia Vireo \/ (Vireo philadelphicus)","ispublic":1,"isfriend":0,"isfamily":0},{"id":"52121662645","owner":"165841515@N03","secret":"38abf98511","server":"65535","farm":66,"title":"Vid\u00e9o de Philadelphie \/ Philadelphia Vireo \/ (Vireo philadelphicus)","ispublic":1,"isfriend":0,"isfamily":0},{"id":"52119985736","owner":"42264328@N00","secret":"e98d5fc444","server":"65535","farm":66,"title":"PV-1","ispublic":1,"isfriend":0,"isfamily":0},{"id":"52118954977","owner":"42264328@N00","secret":"963758be37","server":"65535","farm":66,"title":"PV-1","ispublic":1,"isfriend":0,"isfamily":0},{"id":"52107763731","owner":"48014585@N00","secret":"07b0ac8ea3","server":"65535","farm":66,"title":"Philadelphia Vireo","ispublic":1,"isfriend":0,"isfamily":0},{"id":"52108276195","owner":"48014585@N00","secret":"3342d9337b","server":"65535","farm":66,"title":"Philadelphia Vireo","ispublic":1,"isfriend":0,"isfamily":0},{"id":"52108275800","owner":"48014585@N00","secret":"d99c9b5300","server":"65535","farm":66,"title":"Philadelphia Vireo","ispublic":1,"isfriend":0,"isfamily":0},{"id":"52108012359","owner":"48014585@N00","secret":"c0e46ca172","server":"65535","farm":66,"title":"Philadelphia Vireo","ispublic":1,"isfriend":0,"isfamily":0},{"id":"52107773658","owner":"48014585@N00","secret":"aae81b52d2","server":"65535","farm":66,"title":"Philadelphia Vireo","ispublic":1,"isfriend":0,"isfamily":0},{"id":"52097539141","owner":"136180232@N08","secret":"2c8099d62a","server":"65535","farm":66,"title":"Philadelphia Vireo (Vireo philadelphicus) JTD_9457","ispublic":1,"isfriend":0,"isfamily":0},{"id":"52096378666","owner":"32752434@N07","secret":"3f247b1acc","server":"65535","farm":66,"title":"Philadelphia Vireo (Vireo philadelphicus)","ispublic":1,"isfriend":0,"isfamily":0},{"id":"52093616603","owner":"48084395@N03","secret":"4702b8389d","server":"65535","farm":66,"title":"Philadelphia Vireo (Vireo philadelphicus) - _5AC7543","ispublic":1,"isfriend":0,"isfamily":0},{"id":"52091849360","owner":"107784905@N04","secret":"8d3419ef6c","server":"65535","farm":66,"title":"Vir\u00e9o de Philadelphie - Savegre\/San Jos\u00e9\/Costa Rica_20211201_012-1","ispublic":1,"isfriend":0,"isfamily":0},{"id":"52084020326","owner":"120449047@N06","secret":"126db290f9","server":"65535","farm":66,"title":"Philadelphia Vireo (18\/35)","ispublic":1,"isfriend":0,"isfamily":0},{"id":"52082537167","owner":"112608353@N02","secret":"4613dffb37","server":"65535","farm":66,"title":"Philadelphia Vireo","ispublic":1,"isfriend":0,"isfamily":0},{"id":"52031254900","owner":"94293448@N07","secret":"31e77b391f","server":"65535","farm":66,"title":"Philadelphia Vireo Vireo philadelphicus","ispublic":1,"isfriend":0,"isfamily":0},{"id":"52006199363","owner":"126271444@N08","secret":"c56028684d","server":"65535","farm":66,"title":"Philadelphia Vireo (Vireo philadelphicus)","ispublic":1,"isfriend":0,"isfamily":0},{"id":"52005040020","owner":"136180232@N08","secret":"6f64c9b7d1","server":"65535","farm":66,"title":"Philadelphia Vireo (Vireo philadelphicus) JTD_5052","ispublic":1,"isfriend":0,"isfamily":0},{"id":"51871868292","owner":"101227797@N03","secret":"cbb2c38100","server":"65535","farm":66,"title":"Philadelphia Vireo","ispublic":1,"isfriend":0,"isfamily":0},{"id":"51806997665","owner":"119787485@N07","secret":"c465e40c52","server":"65535","farm":66,"title":"Philadelphia Vireo (Vireo philadelphicus) - 20140522-04","ispublic":1,"isfriend":0,"isfamily":0},{"id":"51799920431","owner":"28764032@N00","secret":"b43c3b18a1","server":"65535","farm":66,"title":"Philadelphia Vireo (Vireo philadelphicus), Pleasantview Marsh, Boulder, Colorado","ispublic":1,"isfriend":0,"isfamily":0},{"id":"51800652955","owner":"28764032@N00","secret":"bacc6cc61a","server":"65535","farm":66,"title":"Philadelphia Vireo (Vireo philadelphicus), Pleasantview Marsh, Boulder, Colorado","ispublic":1,"isfriend":0,"isfamily":0},{"id":"51799920386","owner":"28764032@N00","secret":"fb670f9830","server":"65535","farm":66,"title":"Philadelphia Vireo (Vireo philadelphicus), Pleasantview Marsh, Boulder, Colorado","ispublic":1,"isfriend":0,"isfamily":0},{"id":"51798976167","owner":"28764032@N00","secret":"8ecb16d4e4","server":"65535","farm":66,"title":"Philadelphia Vireo (Vireo philadelphicus), Pleasantview Marsh, Boulder, Colorado","ispublic":1,"isfriend":0,"isfamily":0},{"id":"51792922099","owner":"186498599@N02","secret":"ac80b6fe05","server":"65535","farm":66,"title":"Philadephia Vireo - Vireo Philadelphicus","ispublic":1,"isfriend":0,"isfamily":0},{"id":"51647403222","owner":"67306066@N03","secret":"e1f8b24282","server":"65535","farm":66,"title":"Philadelphia Vireo (Vireo philadelphicus)","ispublic":1,"isfriend":0,"isfamily":0},{"id":"51583616790","owner":"61241315@N00","secret":"810b3192ea","server":"0","farm":0,"title":"Philadelphia Vireo_5127.mp4","ispublic":1,"isfriend":0,"isfamily":0},{"id":"51583381789","owner":"61241315@N00","secret":"d31eb9fde3","server":"65535","farm":66,"title":"Philadelphia Vireo_N5117","ispublic":1,"isfriend":0,"isfamily":0},{"id":"51525167759","owner":"49114357@N08","secret":"03946dc196","server":"65535","farm":66,"title":"Philadelphia Vireo","ispublic":1,"isfriend":0,"isfamily":0},{"id":"51570834874","owner":"143491327@N08","secret":"2c9ff221e4","server":"65535","farm":66,"title":"Vireo philadelphicus Vireo Amarillento","ispublic":1,"isfriend":0,"isfamily":0},{"id":"51562524600","owner":"192569143@N06","secret":"ddc0969a33","server":"65535","farm":66,"title":"Philadelphia Vireo","ispublic":1,"isfriend":0,"isfamily":0},{"id":"51547816948","owner":"39177293@N03","secret":"21b682c88b","server":"65535","farm":66,"title":"Philadelphia Vireo","ispublic":1,"isfriend":0,"isfamily":0},{"id":"51547816923","owner":"39177293@N03","secret":"9f516580ed","server":"65535","farm":66,"title":"Philadelphia Vireo","ispublic":1,"isfriend":0,"isfamily":0},{"id":"51490047462","owner":"71418112@N00","secret":"72af0b7442","server":"65535","farm":66,"title":"Two more vireos","ispublic":1,"isfriend":0,"isfamily":0},{"id":"51444586754","owner":"39138537@N06","secret":"ced625faf9","server":"65535","farm":66,"title":"Philadelphia Vireo (Vireo philadelphicus)","ispublic":1,"isfriend":0,"isfamily":0},{"id":"51443844471","owner":"39138537@N06","secret":"524ac6bcd5","server":"65535","farm":66,"title":"Philadelphia Vireo (Vireo philadelphicus)","ispublic":1,"isfriend":0,"isfamily":0},{"id":"51444804505","owner":"39138537@N06","secret":"b1deced6b4","server":"65535","farm":66,"title":"Philadelphia Vireo (Vireo philadelphicus)","ispublic":1,"isfriend":0,"isfamily":0},{"id":"51443844446","owner":"39138537@N06","secret":"cf99effb69","server":"65535","farm":66,"title":"Philadelphia Vireo (Vireo philadelphicus)","ispublic":1,"isfriend":0,"isfamily":0},{"id":"51444804480","owner":"39138537@N06","secret":"a0b595b22e","server":"65535","farm":66,"title":"Philadelphia Vireo (Vireo philadelphicus)","ispublic":1,"isfriend":0,"isfamily":0},{"id":"51443083757","owner":"39138537@N06","secret":"8d7c51a72d","server":"65535","farm":66,"title":"Philadelphia Vireo (Vireo philadelphicus)","ispublic":1,"isfriend":0,"isfamily":0},{"id":"51444804450","owner":"39138537@N06","secret":"9d7693a997","server":"65535","farm":66,"title":"Philadelphia Vireo (Vireo philadelphicus)","ispublic":1,"isfriend":0,"isfamily":0},{"id":"51444583909","owner":"39138537@N06","secret":"8557a775de","server":"65535","farm":66,"title":"Philadelphia Vireo (Vireo philadelphicus)","ispublic":1,"isfriend":0,"isfamily":0},{"id":"51444804420","owner":"39138537@N06","secret":"0c878b8f05","server":"65535","farm":66,"title":"Philadelphia Vireo (Vireo philadelphicus)","ispublic":1,"isfriend":0,"isfamily":0},{"id":"51444089823","owner":"39138537@N06","secret":"d6b5863353","server":"65535","farm":66,"title":"Philadelphia Vireo (Vireo philadelphicus)","ispublic":1,"isfriend":0,"isfamily":0},{"id":"51444088998","owner":"39138537@N06","secret":"00d7948d4b","server":"65535","farm":66,"title":"Philadelphia Vireo (Vireo philadelphicus)","ispublic":1,"isfriend":0,"isfamily":0},{"id":"51440105122","owner":"190923251@N05","secret":"a4c809e139","server":"65535","farm":66,"title":"Philadelphia Vireo with berry","ispublic":1,"isfriend":0,"isfamily":0},{"id":"51427785325","owner":"129803374@N05","secret":"3d5690f647","server":"65535","farm":66,"title":"Philadelphia Vireo (Vireo philadelphicus)","ispublic":1,"isfriend":0,"isfamily":0},{"id":"51421446180","owner":"61241315@N00","secret":"7ab824d1e6","server":"65535","farm":66,"title":"Philadelphia Vireo_N6091","ispublic":1,"isfriend":0,"isfamily":0},{"id":"51419716572","owner":"61241315@N00","secret":"6be4c8e8f3","server":"65535","farm":66,"title":"Philadelphia Vireo_N6093","ispublic":1,"isfriend":0,"isfamily":0},{"id":"51420717373","owner":"61241315@N00","secret":"e5672f5508","server":"65535","farm":66,"title":"Philadelphia Vireo_N6096","ispublic":1,"isfriend":0,"isfamily":0},{"id":"51246293781","owner":"61021753@N02","secret":"56091250a5","server":"65535","farm":66,"title":"n17_w1150","ispublic":1,"isfriend":0,"isfamily":0},{"id":"51235364966","owner":"71833159@N00","secret":"4762287af3","server":"0","farm":0,"title":"Video for song, no bird: Philadelphia Vireo \/ Vireo philadelphicus, just for the record","ispublic":1,"isfriend":0,"isfamily":0},{"id":"51234779866","owner":"39177293@N03","secret":"0dddfd1a1b","server":"65535","farm":66,"title":"Philadelphia Vireo","ispublic":1,"isfriend":0,"isfamily":0},{"id":"51520042401","owner":"101106007@N04","secret":"d64e8114bf","server":"65535","farm":66,"title":"015A0900 Philadelphia Vireo","ispublic":1,"isfriend":0,"isfamily":0},{"id":"51252057203","owner":"76617062@N08","secret":"313276efde","server":"65535","farm":66,"title":"1.17681 Vir\u00e9o de Philadelphie \/ Vireo philadelphicus \/ Philadelphia Vireo","ispublic":1,"isfriend":0,"isfamily":0}]},"stat":"ok"}