{"photos":{"page":1,"pages":80,"perpage":100,"total":7962,"photo":[{"id":"52723918936","owner":"57126723@N07","secret":"be8288a9a4","server":"65535","farm":66,"title":"Pied-billed Grebe\u2014Podilymbus podiceps\u2014Threatened native\u2014Greensprings trail-9312-Edit","ispublic":1,"isfriend":0,"isfamily":0},{"id":"52716364744","owner":"26520320@N03","secret":"3f842162d5","server":"65535","farm":66,"title":"_BAP0217","ispublic":1,"isfriend":0,"isfamily":0},{"id":"52714439907","owner":"47533293@N04","secret":"2e0f7344f7","server":"65535","farm":66,"title":"Pied-billed grebe, Podilymbus podiceps","ispublic":1,"isfriend":0,"isfamily":0},{"id":"52715379695","owner":"47533293@N04","secret":"c4436c4928","server":"65535","farm":66,"title":"Pied-billed grebe, Podilymbus podiceps","ispublic":1,"isfriend":0,"isfamily":0},{"id":"52712277567","owner":"49465440@N07","secret":"aea30b3745","server":"65535","farm":66,"title":"Pied-billed Grebe","ispublic":1,"isfriend":0,"isfamily":0},{"id":"52710752538","owner":"93273765@N05","secret":"6c984b1b2e","server":"65535","farm":66,"title":"Pied-billed grebe (Podilymbus podiceps)","ispublic":1,"isfriend":0,"isfamily":0},{"id":"52708426807","owner":"61396634@N07","secret":"ddb07b52ee","server":"65535","farm":66,"title":"Pied-billed Grebe","ispublic":1,"isfriend":0,"isfamily":0},{"id":"52708620784","owner":"62907378@N07","secret":"c40ede4723","server":"65535","farm":66,"title":"Pied-billed Grebe (Podilymbus podiceps)","ispublic":1,"isfriend":0,"isfamily":0},{"id":"52706884562","owner":"61396634@N07","secret":"f203891270","server":"65535","farm":66,"title":"Pied-billed Grebe","ispublic":1,"isfriend":0,"isfamily":0},{"id":"52706432662","owner":"60377564@N08","secret":"23f25d2a17","server":"65535","farm":66,"title":"Pied-billed Grebe (Podilymbus podiceps)","ispublic":1,"isfriend":0,"isfamily":0},{"id":"52700570976","owner":"194196140@N08","secret":"bf8ea8cd36","server":"65535","farm":66,"title":"Pied-billed Grebe (Podilymbus podiceps)","ispublic":1,"isfriend":0,"isfamily":0},{"id":"52699504593","owner":"8987884@N07","secret":"dd8bcac790","server":"65535","farm":66,"title":"Pied-billed Grebe (Podilymbus podiceps)_DDZ_2121","ispublic":1,"isfriend":0,"isfamily":0},{"id":"52698884456","owner":"23711298@N07","secret":"40dcff11d7","server":"65535","farm":66,"title":"Pied-billed Grebe, Florida, Palm Beach County, Green Cay Wetland and Natural Area","ispublic":1,"isfriend":0,"isfamily":0},{"id":"52698215424","owner":"34368269@N04","secret":"68fdc145e5","server":"65535","farm":66,"title":"Pied-billed Grebe","ispublic":1,"isfriend":0,"isfamily":0},{"id":"52697934589","owner":"52450054@N04","secret":"8afb770629","server":"65535","farm":66,"title":"Pied-billed Grebe - Podilymbus podiceps, Everglades National Park, Homestead, Florida, January 31, 2022","ispublic":1,"isfriend":0,"isfamily":0},{"id":"52697014071","owner":"90355165@N03","secret":"1150772c7b","server":"65535","farm":66,"title":"pied-billed grebe","ispublic":1,"isfriend":0,"isfamily":0},{"id":"52695160229","owner":"143326780@N02","secret":"79bbd43cf6","server":"65535","farm":66,"title":"DSCN4805","ispublic":1,"isfriend":0,"isfamily":0},{"id":"52695160194","owner":"143326780@N02","secret":"b51ee51e96","server":"65535","farm":66,"title":"DSCN4806","ispublic":1,"isfriend":0,"isfamily":0},{"id":"52690073158","owner":"49501800@N00","secret":"516b0ec25f","server":"65535","farm":66,"title":"Pied-billed Grebe Podilymbus podiceps","ispublic":1,"isfriend":0,"isfamily":0},{"id":"52689463594","owner":"17612257@N00","secret":"697178813b","server":"65535","farm":66,"title":"Pilled-billed Grebe","ispublic":1,"isfriend":0,"isfamily":0},{"id":"52689659238","owner":"124995824@N08","secret":"136ac2a7fa","server":"65535","farm":66,"title":"Pied-billed Grebe - Podilymbus podiceps","ispublic":1,"isfriend":0,"isfamily":0},{"id":"52689039163","owner":"131037795@N03","secret":"150c792d41","server":"65535","farm":66,"title":"Pied-billed Grebe (Podilymbus podiceps)","ispublic":1,"isfriend":0,"isfamily":0},{"id":"52688542051","owner":"131037795@N03","secret":"3d5656b56b","server":"65535","farm":66,"title":"Pied-billed Grebe (Podilymbus podiceps) belly landing","ispublic":1,"isfriend":0,"isfamily":0},{"id":"52686173002","owner":"14908898@N08","secret":"c4559aa477","server":"65535","farm":66,"title":"Pied-billed Grebe 1-25-23","ispublic":1,"isfriend":0,"isfamily":0},{"id":"52685837261","owner":"62043870@N05","secret":"5a10000d7a","server":"65535","farm":66,"title":"Pied-billed Grebe, Podilymbus podiceps","ispublic":1,"isfriend":0,"isfamily":0},{"id":"52682300177","owner":"28867468@N08","secret":"1594abae56","server":"65535","farm":66,"title":"Pied-billed Grebe Sinking Down","ispublic":1,"isfriend":0,"isfamily":0},{"id":"52680681783","owner":"7856934@N03","secret":"0db1c043f0","server":"65535","farm":66,"title":"Pied-billed Grebe","ispublic":1,"isfriend":0,"isfamily":0},{"id":"52679424503","owner":"47533293@N04","secret":"8084aaacab","server":"65535","farm":66,"title":"Pied-billed grebe, Podilymbus podiceps","ispublic":1,"isfriend":0,"isfamily":0},{"id":"52671994011","owner":"48793602@N07","secret":"90ab6650b7","server":"65535","farm":66,"title":"Circle B Bar Reserve Pied-billed Grebe 01-17-2023","ispublic":1,"isfriend":0,"isfamily":0},{"id":"52670873860","owner":"144416460@N08","secret":"0e8200ec02","server":"65535","farm":66,"title":"_Q2A9003-2","ispublic":1,"isfriend":0,"isfamily":0},{"id":"52670135148","owner":"62043870@N05","secret":"70ed6f2cfa","server":"65535","farm":66,"title":"Pied-billed Grebe, Podilymbus podiceps","ispublic":1,"isfriend":0,"isfamily":0},{"id":"52667079741","owner":"39177293@N03","secret":"3408e035b2","server":"65535","farm":66,"title":"Pied-billed Grebe","ispublic":1,"isfriend":0,"isfamily":0},{"id":"52665016962","owner":"143326780@N02","secret":"9b5db53169","server":"65535","farm":66,"title":"DSCN3126","ispublic":1,"isfriend":0,"isfamily":0},{"id":"52662448290","owner":"112608353@N02","secret":"67ac763796","server":"65535","farm":66,"title":"Mirror Mirror","ispublic":1,"isfriend":0,"isfamily":0},{"id":"52662384258","owner":"136180232@N08","secret":"03ca0566ef","server":"65535","farm":66,"title":"Pied-billed Grebe (Podilymbus podiceps) JTE_1662","ispublic":1,"isfriend":0,"isfamily":0},{"id":"52662260120","owner":"33610210@N05","secret":"1c6edd2937","server":"65535","farm":66,"title":"Pied-billed Grebe, Podilymbus podiceps","ispublic":1,"isfriend":0,"isfamily":0},{"id":"52657938367","owner":"93273765@N05","secret":"2111805056","server":"65535","farm":66,"title":"Pied-billed grebe (Podilymbus podiceps) at Golden Hour","ispublic":1,"isfriend":0,"isfamily":0},{"id":"52658921678","owner":"93273765@N05","secret":"78d28c03f0","server":"65535","farm":66,"title":"Pied-billed grebe (Podilymbus podiceps)","ispublic":1,"isfriend":0,"isfamily":0},{"id":"52649646865","owner":"22798231@N00","secret":"1d3495f080","server":"65535","farm":66,"title":"Portrait by the Pond","ispublic":1,"isfriend":0,"isfamily":0},{"id":"52648432964","owner":"188156748@N07","secret":"56cd4ee664","server":"65535","farm":66,"title":"Pied-billed Grebe  - Gr\u00e8be \u00e0 bec Bigarr\u00e9 - Podilymbus podiceps  6785 (46)-SharpenAI-Standard copy.jpgS","ispublic":1,"isfriend":0,"isfamily":0},{"id":"52648432944","owner":"188156748@N07","secret":"537e1e02a8","server":"65535","farm":66,"title":"Pied-billed Grebe  - Gr\u00e8be \u00e0 bec Bigarr\u00e9 - Podilymbus podiceps  6785 (49)-SharpenAI-Standard copy.jpgS","ispublic":1,"isfriend":0,"isfamily":0},{"id":"52648164631","owner":"188156748@N07","secret":"26c73e1d9e","server":"65535","farm":66,"title":"Pied-billed Grebe (Juvenile) - Gr\u00e8be \u00e0 bec Bigarr\u00e9 (Juv\u00e9nile) - Podilymbus podiceps  5228 (7)-SharpenAI-Standard copy.jpgS","ispublic":1,"isfriend":0,"isfamily":0},{"id":"52643058050","owner":"61135968@N00","secret":"48f6095fc1","server":"65535","farm":66,"title":"Grebe","ispublic":1,"isfriend":0,"isfamily":0},{"id":"52638789764","owner":"194903193@N03","secret":"9722b46e4d","server":"65535","farm":66,"title":"Pied-billed Grebe","ispublic":1,"isfriend":0,"isfamily":0},{"id":"52636510538","owner":"39456348@N08","secret":"36758bab13","server":"65535","farm":66,"title":"","ispublic":1,"isfriend":0,"isfamily":0},{"id":"52635985570","owner":"27794127@N07","secret":"a3dbafd8c3","server":"65535","farm":66,"title":"Podilymbus podiceps","ispublic":1,"isfriend":0,"isfamily":0},{"id":"52635434099","owner":"7856934@N03","secret":"b1cb497cba","server":"65535","farm":66,"title":"Pied-billed Grebe","ispublic":1,"isfriend":0,"isfamily":0},{"id":"52632424658","owner":"47533293@N04","secret":"25bd2e235c","server":"65535","farm":66,"title":"Pied-billed grebe, Podilymbus podiceps","ispublic":1,"isfriend":0,"isfamily":0},{"id":"52631399211","owner":"188214336@N08","secret":"e1fdab3093","server":"65535","farm":66,"title":"DSC_6538-2R1 Pie-Billed Grebe","ispublic":1,"isfriend":0,"isfamily":0},{"id":"52631729630","owner":"47533293@N04","secret":"4aacfd0dca","server":"65535","farm":66,"title":"Pied-billed grebe, Podilymbus podiceps","ispublic":1,"isfriend":0,"isfamily":0},{"id":"52631599335","owner":"7546739@N08","secret":"ec3d52f53e","server":"65535","farm":66,"title":"Pied-billed Grebe","ispublic":1,"isfriend":0,"isfamily":0},{"id":"52630605541","owner":"53020117@N05","secret":"4946fff02c","server":"65535","farm":66,"title":"Pie-billed Grebe","ispublic":1,"isfriend":0,"isfamily":0},{"id":"52630298175","owner":"139524005@N03","secret":"bfc0804fa3","server":"65535","farm":66,"title":"Pied-billed Grebe (Podilymbus podiceps)","ispublic":1,"isfriend":0,"isfamily":0},{"id":"52629225398","owner":"7856934@N03","secret":"6efec488c1","server":"65535","farm":66,"title":"Pied-billed Grebes","ispublic":1,"isfriend":0,"isfamily":0},{"id":"52626847892","owner":"90355165@N03","secret":"966ab6b620","server":"65535","farm":66,"title":"pied-billed grebe","ispublic":1,"isfriend":0,"isfamily":0},{"id":"52627609354","owner":"90355165@N03","secret":"22a170b8db","server":"65535","farm":66,"title":"pied-billed grebe","ispublic":1,"isfriend":0,"isfamily":0},{"id":"52627364211","owner":"90355165@N03","secret":"9a27812778","server":"65535","farm":66,"title":"pied-billed grebe","ispublic":1,"isfriend":0,"isfamily":0},{"id":"52627609189","owner":"90355165@N03","secret":"ab9f6d49c5","server":"65535","farm":66,"title":"pied-billed grebe","ispublic":1,"isfriend":0,"isfamily":0},{"id":"52625536151","owner":"51928691@N04","secret":"200cc7ff35","server":"65535","farm":66,"title":"Pied-billed Grebe (Podilymbus podiceps) 1 122522","ispublic":1,"isfriend":0,"isfamily":0},{"id":"52625092423","owner":"34238008@N02","secret":"a62cde44f7","server":"65535","farm":66,"title":"Pied-billed Grebe (Podilymbus podiceps)","ispublic":1,"isfriend":0,"isfamily":0},{"id":"52624612451","owner":"34238008@N02","secret":"d1d9525d50","server":"65535","farm":66,"title":"Pied-billed Grebe (Podilymbus podiceps)","ispublic":1,"isfriend":0,"isfamily":0},{"id":"52623688448","owner":"7856934@N03","secret":"f37f35a77d","server":"65535","farm":66,"title":"Pied-billed Grebe","ispublic":1,"isfriend":0,"isfamily":0},{"id":"52623207486","owner":"7856934@N03","secret":"1754ffd05d","server":"65535","farm":66,"title":"Pied-billed Grebe","ispublic":1,"isfriend":0,"isfamily":0},{"id":"52620405352","owner":"145466593@N08","secret":"fe7b0aa6b0","server":"65535","farm":66,"title":"Pied-billed Grebe","ispublic":1,"isfriend":0,"isfamily":0},{"id":"52620295017","owner":"69947563@N07","secret":"a7e2c20608","server":"65535","farm":66,"title":"Pied-billed Grebe - Cota, Cundinamarca, Colombia","ispublic":1,"isfriend":0,"isfamily":0},{"id":"52613344419","owner":"39445433@N02","secret":"593660f9fc","server":"65535","farm":66,"title":"Pied-Bill Grebe","ispublic":1,"isfriend":0,"isfamily":0},{"id":"52611854171","owner":"30888088@N02","secret":"3646a50d3a","server":"65535","farm":66,"title":"579a Pied-billed Grebe","ispublic":1,"isfriend":0,"isfamily":0},{"id":"52611854176","owner":"30888088@N02","secret":"30c2df8aa4","server":"65535","farm":66,"title":"A29C0022.CR2 Pied-billed Grebe flight","ispublic":1,"isfriend":0,"isfamily":0},{"id":"52611854151","owner":"30888088@N02","secret":"e370cac042","server":"65535","farm":66,"title":"581a Pied-billed Grebe","ispublic":1,"isfriend":0,"isfamily":0},{"id":"52610979498","owner":"7856934@N03","secret":"2bdc09bdc8","server":"65535","farm":66,"title":"Pied-billed Grebe","ispublic":1,"isfriend":0,"isfamily":0},{"id":"52610136233","owner":"119095828@N03","secret":"d9f949bb9c","server":"65535","farm":66,"title":"Pied-billed Grebe (Podilymbus podiceps)","ispublic":1,"isfriend":0,"isfamily":0},{"id":"52606183863","owner":"99849996@N00","secret":"822c195309","server":"65535","farm":66,"title":"Pied-bill Grebe 20211130_0441","ispublic":1,"isfriend":0,"isfamily":0},{"id":"52605918839","owner":"62043870@N05","secret":"c8dc4b4df6","server":"65535","farm":66,"title":"Pied-billed Grebe, Podilymbus podiceps","ispublic":1,"isfriend":0,"isfamily":0},{"id":"52605582833","owner":"7856934@N03","secret":"fbf6869c9d","server":"65535","farm":66,"title":"Pied-billed Grebe","ispublic":1,"isfriend":0,"isfamily":0},{"id":"52602239929","owner":"43758413@N06","secret":"32c418cb44","server":"65535","farm":66,"title":"Pied-billed grebe in ripples","ispublic":1,"isfriend":0,"isfamily":0},{"id":"52601597875","owner":"119095828@N03","secret":"8080fbe2fd","server":"65535","farm":66,"title":"Pied-billed Grebe (Podilymbus podiceps)","ispublic":1,"isfriend":0,"isfamily":0},{"id":"52599247299","owner":"62043870@N05","secret":"c3515ce3a1","server":"65535","farm":66,"title":"Pied-billed Grebe, Podilymbus podiceps","ispublic":1,"isfriend":0,"isfamily":0},{"id":"52597946512","owner":"57356301@N06","secret":"cbb5366d85","server":"65535","farm":66,"title":"Pied-billed Grebe, Podilymbus podiceps, immature and parent","ispublic":1,"isfriend":0,"isfamily":0},{"id":"52596797791","owner":"61897811@N00","secret":"9fa6dff1ab","server":"65535","farm":66,"title":"Pied-billed Grebe","ispublic":1,"isfriend":0,"isfamily":0},{"id":"52595025214","owner":"22420387@N07","secret":"d60e3b04ec","server":"65535","farm":66,"title":"Pied-billed Grebe - DEL_7490 - LR","ispublic":1,"isfriend":0,"isfamily":0},{"id":"52591435602","owner":"7856934@N03","secret":"70294b87a3","server":"65535","farm":66,"title":"Pied-billed Grebe","ispublic":1,"isfriend":0,"isfamily":0},{"id":"52592181459","owner":"7856934@N03","secret":"3d26fd9ebb","server":"65535","farm":66,"title":"Pied-billed Grebe","ispublic":1,"isfriend":0,"isfamily":0},{"id":"52586369763","owner":"140318147@N08","secret":"8520a6dac2","server":"65535","farm":66,"title":"first catch your crayfish L4A9852","ispublic":1,"isfriend":0,"isfamily":0},{"id":"52586288025","owner":"140318147@N08","secret":"6d063445a1","server":"65535","farm":66,"title":"keep working at it...  L4A9867","ispublic":1,"isfriend":0,"isfamily":0},{"id":"52586369453","owner":"140318147@N08","secret":"f3e30108b4","server":"65535","farm":66,"title":"almost there  L4A9881","ispublic":1,"isfriend":0,"isfamily":0},{"id":"52585852411","owner":"140318147@N08","secret":"60f61e54b4","server":"65535","farm":66,"title":"et voila  L4A9885","ispublic":1,"isfriend":0,"isfamily":0},{"id":"52583763487","owner":"12530381@N07","secret":"edaa544708","server":"65535","farm":66,"title":"Pied-billed Grebe (Podilymbus podiceps) at Buena Vista Audubon Nature Center (12\/18\/2022)","ispublic":1,"isfriend":0,"isfamily":0},{"id":"52581752451","owner":"52450054@N04","secret":"8ddff6d762","server":"65535","farm":66,"title":"Pied-billed Grebe - Podilymbus podiceps, Chincoteague National Wildlife Refuge, Chincoteague, Virginia, November 26, 2022","ispublic":1,"isfriend":0,"isfamily":0},{"id":"52580782133","owner":"153973412@N04","secret":"e96f384da6","server":"65535","farm":66,"title":"Pied-billed Grebe-Podilymbus podiceps, Bolsa Chica, CA","ispublic":1,"isfriend":0,"isfamily":0},{"id":"52580181454","owner":"51433704@N06","secret":"6138033c50","server":"65535","farm":66,"title":"Pied-billed Grebe","ispublic":1,"isfriend":0,"isfamily":0},{"id":"52574587315","owner":"38514062@N03","secret":"eda570c1de","server":"65535","farm":66,"title":"Pied-billed Grebe (Podilymbus podiceps)-IMG_2250","ispublic":1,"isfriend":0,"isfamily":0},{"id":"52572463664","owner":"12530381@N07","secret":"f66ca3226d","server":"65535","farm":66,"title":"Shake It Up, Baby, Twist and Shout - Pied-billed Grebe (Podilymbus podiceps) at Buena Vista Audubon Nature Center (12\/18\/2022)","ispublic":1,"isfriend":0,"isfamily":0},{"id":"52565685247","owner":"39445433@N02","secret":"b9b797059b","server":"65535","farm":66,"title":"Pied-Bill Grebe","ispublic":1,"isfriend":0,"isfamily":0},{"id":"52562612007","owner":"22798231@N00","secret":"d85306c97e","server":"65535","farm":66,"title":"Sunday Parade","ispublic":1,"isfriend":0,"isfamily":0},{"id":"52557778857","owner":"144980256@N07","secret":"af7c8495d0","server":"65535","farm":66,"title":"Pied-billed Grebe (Podilymbus podiceps)","ispublic":1,"isfriend":0,"isfamily":0},{"id":"52558252413","owner":"135315828@N06","secret":"120a5a91c6","server":"65535","farm":66,"title":"pied-billed grebe","ispublic":1,"isfriend":0,"isfamily":0},{"id":"52558179735","owner":"135315828@N06","secret":"4b7570ec0a","server":"65535","farm":66,"title":"pied-billed grebe","ispublic":1,"isfriend":0,"isfamily":0},{"id":"52557760508","owner":"88932760@N08","secret":"370b328f49","server":"65535","farm":66,"title":"Grebe and Lilypads","ispublic":1,"isfriend":0,"isfamily":0},{"id":"52555542025","owner":"48912028@N05","secret":"4ec2f212a3","server":"65535","farm":66,"title":"Pied-billed Grebe, Podilymbus podiceps","ispublic":1,"isfriend":0,"isfamily":0},{"id":"52555610668","owner":"48912028@N05","secret":"93fe85e246","server":"65535","farm":66,"title":"Pied-billed Grebe, Podilymbus podiceps","ispublic":1,"isfriend":0,"isfamily":0}]},"stat":"ok"}