{"photos":{"page":1,"pages":22,"perpage":100,"total":2168,"photo":[{"id":"52723295322","owner":"12639178@N07","secret":"b9daa493fc","server":"65535","farm":66,"title":"Kiefernwalds\u00e4nger","ispublic":1,"isfriend":0,"isfamily":0},{"id":"52720507622","owner":"12639178@N07","secret":"a89fa2332f","server":"65535","farm":66,"title":"Kiefernwalds\u00e4nger","ispublic":1,"isfriend":0,"isfamily":0},{"id":"52720163391","owner":"40003624@N06","secret":"398e329c28","server":"65535","farm":66,"title":"Pine Warbler","ispublic":1,"isfriend":0,"isfamily":0},{"id":"52717691839","owner":"71649471@N02","secret":"c0de7c2dda","server":"65535","farm":66,"title":"A Penchant for Spring","ispublic":1,"isfriend":0,"isfamily":0},{"id":"52703598199","owner":"38943236@N03","secret":"5107fc5a91","server":"65535","farm":66,"title":"Kirtland's Warbler (male)","ispublic":1,"isfriend":0,"isfamily":0},{"id":"52681244463","owner":"57126723@N07","secret":"a7157de3bf","server":"65535","farm":66,"title":"Setophaga pinus\u2014Pine warbler\u2014Greensprings-8426","ispublic":1,"isfriend":0,"isfamily":0},{"id":"52667806120","owner":"100108154@N02","secret":"a2bb710e87","server":"65535","farm":66,"title":"Pine Warbler Enjoying Suet In A Sleet Storm","ispublic":1,"isfriend":0,"isfamily":0},{"id":"52664171770","owner":"100108154@N02","secret":"22c0e70903","server":"65535","farm":66,"title":"Fluffy Butt Of A Pine Warbler","ispublic":1,"isfriend":0,"isfamily":0},{"id":"52663223409","owner":"57126723@N07","secret":"9425579cd8","server":"65535","farm":66,"title":"Pine warbler\u2014Setophaga pinus-8075","ispublic":1,"isfriend":0,"isfamily":0},{"id":"52654698046","owner":"13451078@N03","secret":"69e9fb30af","server":"65535","farm":66,"title":"Pine Warbler 3 (Setophaga pinus)","ispublic":1,"isfriend":0,"isfamily":0},{"id":"52654970154","owner":"13451078@N03","secret":"631788091e","server":"65535","farm":66,"title":"Pine Warbler 2 (Setophaga pinus)","ispublic":1,"isfriend":0,"isfamily":0},{"id":"52652788124","owner":"91782578@N00","secret":"189033c20f","server":"65535","farm":66,"title":"Pine Warbler (m): Setophaga pinus","ispublic":1,"isfriend":0,"isfamily":0},{"id":"52642644269","owner":"38514062@N03","secret":"09e825221a","server":"65535","farm":66,"title":"Pine Warbler (Setophaga pinus)","ispublic":1,"isfriend":0,"isfamily":0},{"id":"52640438959","owner":"10336659@N04","secret":"1fb88c99a2","server":"65535","farm":66,"title":"Pine Warbler (Setophaga pinus) working the pines at Green Cay Nature Preserve","ispublic":1,"isfriend":0,"isfamily":0},{"id":"52638828059","owner":"38514062@N03","secret":"843b886dab","server":"65535","farm":66,"title":"Pine Warbler (Setophaga pinus)","ispublic":1,"isfriend":0,"isfamily":0},{"id":"52623852243","owner":"13451078@N03","secret":"e981737d6b","server":"65535","farm":66,"title":"Pine Warbler  (Setophaga pinus)","ispublic":1,"isfriend":0,"isfamily":0},{"id":"52617452074","owner":"88932760@N08","secret":"43f53707ff","server":"65535","farm":66,"title":"Pine on Palm #2","ispublic":1,"isfriend":0,"isfamily":0},{"id":"52617443879","owner":"88932760@N08","secret":"92a162b208","server":"65535","farm":66,"title":"Pine on Palm #1","ispublic":1,"isfriend":0,"isfamily":0},{"id":"52607689823","owner":"94074753@N00","secret":"a37ba2c714","server":"65535","farm":66,"title":"Cig\u00fcita del Pinar \/ Pine Warbler (Setophaga pinus chrysoleuca)","ispublic":1,"isfriend":0,"isfamily":0},{"id":"52607452369","owner":"94074753@N00","secret":"d9174e43b0","server":"65535","farm":66,"title":"Cig\u00fcita del Pinar \/ Pine Warbler (Setophaga pinus chrysoleuca)","ispublic":1,"isfriend":0,"isfamily":0},{"id":"52597330794","owner":"101738578@N08","secret":"00c0f94683","server":"65535","farm":66,"title":"Male Pine Warbler","ispublic":1,"isfriend":0,"isfamily":0},{"id":"52587952538","owner":"7261670@N03","secret":"1b7d138f7f","server":"65535","farm":66,"title":"Pine Warbler","ispublic":1,"isfriend":0,"isfamily":0},{"id":"52586959842","owner":"7261670@N03","secret":"f4b206b3a3","server":"65535","farm":66,"title":"Pine Warbler","ispublic":1,"isfriend":0,"isfamily":0},{"id":"52580523709","owner":"153973412@N04","secret":"830abc1954","server":"65535","farm":66,"title":"Pine Warbler-Setophaga pinus, Shimek, IA","ispublic":1,"isfriend":0,"isfamily":0},{"id":"52571777201","owner":"88932760@N08","secret":"2c51ab995e","server":"65535","farm":66,"title":"The Upside Down","ispublic":1,"isfriend":0,"isfamily":0},{"id":"52538615494","owner":"13451078@N03","secret":"df89aa31a9","server":"65535","farm":66,"title":"Pine Warbler  (Setophaga pinus)","ispublic":1,"isfriend":0,"isfamily":0},{"id":"52514572061","owner":"88932760@N08","secret":"8677fe23f5","server":"65535","farm":66,"title":"Pine Warbler in a Pine","ispublic":1,"isfriend":0,"isfamily":0},{"id":"52459516954","owner":"52321838@N05","secret":"4d76683292","server":"65535","farm":66,"title":"Pine Warbler","ispublic":1,"isfriend":0,"isfamily":0},{"id":"52457491502","owner":"38514062@N03","secret":"bcf55069f4","server":"65535","farm":66,"title":"Pine Warbler (Setophaga pinus)","ispublic":1,"isfriend":0,"isfamily":0},{"id":"52451215315","owner":"45340210@N05","secret":"4f2f9188a5","server":"65535","farm":66,"title":"Pine Warbler 2 10_20_22","ispublic":1,"isfriend":0,"isfamily":0},{"id":"52444719459","owner":"38514062@N03","secret":"ff056628f7","server":"65535","farm":66,"title":"Pine Warbler (Setophaga pinus)","ispublic":1,"isfriend":0,"isfamily":0},{"id":"52426901897","owner":"39177293@N03","secret":"66aa4e470b","server":"65535","farm":66,"title":"Pine Warbler","ispublic":1,"isfriend":0,"isfamily":0},{"id":"52412955908","owner":"76782619@N04","secret":"31ac7f5a08","server":"65535","farm":66,"title":"Pine Warbler","ispublic":1,"isfriend":0,"isfamily":0},{"id":"52409715864","owner":"71418112@N00","secret":"72d052fa39","server":"65535","farm":66,"title":"Warbler baths.","ispublic":1,"isfriend":0,"isfamily":0},{"id":"52396598937","owner":"128537732@N06","secret":"636057c4b8","server":"65535","farm":66,"title":"Pine Warbler (Setophaga pinus)","ispublic":1,"isfriend":0,"isfamily":0},{"id":"52378899986","owner":"49114357@N08","secret":"1925528212","server":"65535","farm":66,"title":"Pine Warbler","ispublic":1,"isfriend":0,"isfamily":0},{"id":"52375705883","owner":"128537732@N06","secret":"058d2f44f4","server":"65535","farm":66,"title":"Pine Warbler (Setophaga pinus)","ispublic":1,"isfriend":0,"isfamily":0},{"id":"52322580960","owner":"163667952@N05","secret":"ba06048d1d","server":"65535","farm":66,"title":"Pine Warbler","ispublic":1,"isfriend":0,"isfamily":0},{"id":"52260903669","owner":"71649471@N02","secret":"c09ede2eab","server":"65535","farm":66,"title":"Pine Warbler Portrait","ispublic":1,"isfriend":0,"isfamily":0},{"id":"52219063396","owner":"146597151@N03","secret":"b262acd6ee","server":"65535","farm":66,"title":"Pine Warbler \/ Paruline des pins","ispublic":1,"isfriend":0,"isfamily":0},{"id":"52201986093","owner":"168495655@N07","secret":"692c6875a2","server":"65535","farm":66,"title":"Paruline des pins - Setophaga pinus - Pine Warbler","ispublic":1,"isfriend":0,"isfamily":0},{"id":"52202462565","owner":"168495655@N07","secret":"2c50956b16","server":"65535","farm":66,"title":"Paruline des pins - Setophaga pinus - Pine Warbler","ispublic":1,"isfriend":0,"isfamily":0},{"id":"52155563366","owner":"49114357@N08","secret":"0a517d3bfa","server":"65535","farm":66,"title":"Pine Warbler","ispublic":1,"isfriend":0,"isfamily":0},{"id":"52163634952","owner":"20624344@N08","secret":"4087a1e902","server":"65535","farm":66,"title":"pine warbler (Setophaga pinus) gathering nest material","ispublic":1,"isfriend":0,"isfamily":0},{"id":"52161544171","owner":"39445433@N02","secret":"540218c07b","server":"65535","farm":66,"title":"Pine Warbler","ispublic":1,"isfriend":0,"isfamily":0},{"id":"52160469253","owner":"130605131@N08","secret":"def8125f1d","server":"65535","farm":66,"title":"IMG_9372","ispublic":1,"isfriend":0,"isfamily":0},{"id":"52160467271","owner":"130605131@N08","secret":"be3dda0807","server":"65535","farm":66,"title":"IMG_9369","ispublic":1,"isfriend":0,"isfamily":0},{"id":"52160706814","owner":"130605131@N08","secret":"4fd3b3e049","server":"65535","farm":66,"title":"IMG_9368","ispublic":1,"isfriend":0,"isfamily":0},{"id":"52160956250","owner":"130605131@N08","secret":"d13a16a6fb","server":"65535","farm":66,"title":"IMG_9366","ispublic":1,"isfriend":0,"isfamily":0},{"id":"52159042724","owner":"195827315@N02","secret":"ae2e21da94","server":"65535","farm":66,"title":"Pine Warbler","ispublic":1,"isfriend":0,"isfamily":0},{"id":"52156898317","owner":"71649471@N02","secret":"20d0891666","server":"65535","farm":66,"title":"Bringing Home the Bacon","ispublic":1,"isfriend":0,"isfamily":0},{"id":"52152924382","owner":"28499865@N07","secret":"49a448e5d2","server":"65535","farm":66,"title":"Pine Warbler - Setophaga pinus","ispublic":1,"isfriend":0,"isfamily":0},{"id":"52153934256","owner":"28499865@N07","secret":"c5fcc8a169","server":"65535","farm":66,"title":"Pine Warbler - Setophaga pinus","ispublic":1,"isfriend":0,"isfamily":0},{"id":"52153941238","owner":"28499865@N07","secret":"ecef173318","server":"65535","farm":66,"title":"Pine Warbler - Setophaga pinus","ispublic":1,"isfriend":0,"isfamily":0},{"id":"52154067840","owner":"28499865@N07","secret":"105726b679","server":"65535","farm":66,"title":"Pine Warbler - Setophaga pinus","ispublic":1,"isfriend":0,"isfamily":0},{"id":"52151385813","owner":"95484108@N07","secret":"44590d460a","server":"65535","farm":66,"title":"Paruline des pins \/\/ Pine Warbler","ispublic":1,"isfriend":0,"isfamily":0},{"id":"52151326744","owner":"128520554@N03","secret":"519f89e1a1","server":"65535","farm":66,"title":"Pine Warbler (Setophaga pinus)","ispublic":1,"isfriend":0,"isfamily":0},{"id":"52151090261","owner":"128520554@N03","secret":"f66890fca5","server":"65535","farm":66,"title":"Pine Warbler (Setophaga pinus)","ispublic":1,"isfriend":0,"isfamily":0},{"id":"52151326734","owner":"128520554@N03","secret":"89e63877a1","server":"65535","farm":66,"title":"Pine Warbler (Setophaga pinus)","ispublic":1,"isfriend":0,"isfamily":0},{"id":"52150076862","owner":"128520554@N03","secret":"f66890fca5","server":"65535","farm":66,"title":"Pine Warbler (Setophaga pinus)","ispublic":1,"isfriend":0,"isfamily":0},{"id":"52151090271","owner":"128520554@N03","secret":"099629fe9b","server":"65535","farm":66,"title":"Pine Warbler (Setophaga pinus)","ispublic":1,"isfriend":0,"isfamily":0},{"id":"52150076852","owner":"128520554@N03","secret":"0eab208291","server":"65535","farm":66,"title":"Pine Warbler (Setophaga pinus)","ispublic":1,"isfriend":0,"isfamily":0},{"id":"52150076847","owner":"128520554@N03","secret":"97fbdfd417","server":"65535","farm":66,"title":"Pine Warbler (Setophaga pinus)","ispublic":1,"isfriend":0,"isfamily":0},{"id":"52151097063","owner":"128520554@N03","secret":"e41c56cb02","server":"65535","farm":66,"title":"Pine Warbler (Setophaga pinus)","ispublic":1,"isfriend":0,"isfamily":0},{"id":"52148872774","owner":"71649471@N02","secret":"08c7a54e5a","server":"65535","farm":66,"title":"Pine Warbler","ispublic":1,"isfriend":0,"isfamily":0},{"id":"52129302860","owner":"92361032@N05","secret":"36f0be14b5","server":"65535","farm":66,"title":"Pine Warbler \/Paruline des pins ( Diane )","ispublic":1,"isfriend":0,"isfamily":0},{"id":"52128404605","owner":"73654511@N05","secret":"40b177bc59","server":"65535","farm":66,"title":"L0A5690-Pine Warbler","ispublic":1,"isfriend":0,"isfamily":0},{"id":"52113615831","owner":"21154755@N03","secret":"0d12ac92e6","server":"65535","farm":66,"title":"_DSC2990-4K-4K Resolution-2","ispublic":1,"isfriend":0,"isfamily":0},{"id":"52112589572","owner":"21154755@N03","secret":"32eb8389df","server":"65535","farm":66,"title":"_DSC3090-4K-NW","ispublic":1,"isfriend":0,"isfamily":0},{"id":"52113855569","owner":"21154755@N03","secret":"bdbedacc29","server":"65535","farm":66,"title":"_DSC3367-4KDCI","ispublic":1,"isfriend":0,"isfamily":0},{"id":"52114115800","owner":"21154755@N03","secret":"3691fc6b0e","server":"65535","farm":66,"title":"_DSC3238-4KDCI","ispublic":1,"isfriend":0,"isfamily":0},{"id":"52109189602","owner":"95484108@N07","secret":"10e92045ac","server":"65535","farm":66,"title":"Paruline des pins \/\/ Pine Warbler","ispublic":1,"isfriend":0,"isfamily":0},{"id":"52108529520","owner":"22475926@N08","secret":"744e3d2d92","server":"65535","farm":66,"title":"Pine Warbler (Setophaga pinus)","ispublic":1,"isfriend":0,"isfamily":0},{"id":"52088409582","owner":"67164820@N06","secret":"26c4a3875b","server":"65535","farm":66,"title":"pine 1","ispublic":1,"isfriend":0,"isfamily":0},{"id":"52089462213","owner":"67164820@N06","secret":"f75b24657a","server":"65535","farm":66,"title":"pine 3","ispublic":1,"isfriend":0,"isfamily":0},{"id":"52089942160","owner":"67164820@N06","secret":"8e5f429455","server":"65535","farm":66,"title":"pine 4","ispublic":1,"isfriend":0,"isfamily":0},{"id":"52089685464","owner":"67164820@N06","secret":"3efed294e1","server":"65535","farm":66,"title":"pine 5","ispublic":1,"isfriend":0,"isfamily":0},{"id":"52089941305","owner":"67164820@N06","secret":"ece7a13dcc","server":"65535","farm":66,"title":"pine 6","ispublic":1,"isfriend":0,"isfamily":0},{"id":"52087286036","owner":"71989271@N06","secret":"c2fbcbf5a6","server":"65535","farm":66,"title":"Pine Warbler (m)(Setophaga pinus)","ispublic":1,"isfriend":0,"isfamily":0},{"id":"52087312348","owner":"71989271@N06","secret":"5a93b4dc30","server":"65535","farm":66,"title":"Pine Warbler (f)(Setophaga pinus)","ispublic":1,"isfriend":0,"isfamily":0},{"id":"52086252917","owner":"71989271@N06","secret":"95d53c7795","server":"65535","farm":66,"title":"Pine Warbler (m)(Setophaga pinus)","ispublic":1,"isfriend":0,"isfamily":0},{"id":"52087312308","owner":"71989271@N06","secret":"35d5caeba5","server":"65535","farm":66,"title":"Pine Warbler (m)(Setophaga pinus)","ispublic":1,"isfriend":0,"isfamily":0},{"id":"52087312278","owner":"71989271@N06","secret":"7fbb0977c6","server":"65535","farm":66,"title":"Pine Warbler (m)(Setophaga pinus)","ispublic":1,"isfriend":0,"isfamily":0},{"id":"52087312248","owner":"71989271@N06","secret":"9dd5f3de1f","server":"65535","farm":66,"title":"Pine Warbler (m)(Setophaga pinus)","ispublic":1,"isfriend":0,"isfamily":0},{"id":"52086252827","owner":"71989271@N06","secret":"62873f868e","server":"65535","farm":66,"title":"Pine Warbler (m)(Setophaga pinus)","ispublic":1,"isfriend":0,"isfamily":0},{"id":"52083535608","owner":"76617062@N08","secret":"e2132907ab","server":"65535","farm":66,"title":"1.27796 Paruline des pins \/ Setophaga pinus pinus \/ Pine Warbler","ispublic":1,"isfriend":0,"isfamily":0},{"id":"52077792032","owner":"33573751@N04","secret":"3418848804","server":"65535","farm":66,"title":"Pine Warbler (Setophaga pinus) - Weston, Connecticut","ispublic":1,"isfriend":0,"isfamily":0},{"id":"52078754104","owner":"33573751@N04","secret":"a2f266a532","server":"65535","farm":66,"title":"Pine Warbler (Setophaga pinus) - Weston, Connecticut","ispublic":1,"isfriend":0,"isfamily":0},{"id":"52078754004","owner":"33573751@N04","secret":"cea622c796","server":"65535","farm":66,"title":"Pine Warbler (Setophaga pinus) - Weston, Connecticut","ispublic":1,"isfriend":0,"isfamily":0},{"id":"52077498891","owner":"71649471@N02","secret":"aab23cb947","server":"65535","farm":66,"title":"Eight-legged Snack","ispublic":1,"isfriend":0,"isfamily":0},{"id":"52075094606","owner":"71649471@N02","secret":"72e07e3150","server":"65535","farm":66,"title":"Pine Warbler","ispublic":1,"isfriend":0,"isfamily":0},{"id":"52066352950","owner":"128958343@N06","secret":"6f4c6dfa8b","server":"65535","farm":66,"title":"Pine warbler - Paruline des pins - Setophaga pinus","ispublic":1,"isfriend":0,"isfamily":0},{"id":"52640456942","owner":"124995824@N08","secret":"d587e5baa3","server":"65535","farm":66,"title":"Pine Warbler - Setophaga pinus","ispublic":1,"isfriend":0,"isfamily":0},{"id":"52541218978","owner":"13451078@N03","secret":"986b0f8e1e","server":"65535","farm":66,"title":"Pine Warbler (Setophaga pinus)","ispublic":1,"isfriend":0,"isfamily":0},{"id":"52537859997","owner":"13451078@N03","secret":"6668208b29","server":"65535","farm":66,"title":"Pine Warbler (Setophaga pinus)","ispublic":1,"isfriend":0,"isfamily":0},{"id":"52491745034","owner":"67306066@N03","secret":"002d4602ef","server":"65535","farm":66,"title":"Pine Warbler (Setophaga pinus)","ispublic":1,"isfriend":0,"isfamily":0},{"id":"52477543594","owner":"13451078@N03","secret":"c4586f9469","server":"65535","farm":66,"title":"Pine Warbler  (Setophaga pinus)","ispublic":1,"isfriend":0,"isfamily":0},{"id":"52397112411","owner":"128537732@N06","secret":"3a828498b3","server":"65535","farm":66,"title":"Pine Warbler (Setophaga pinus)","ispublic":1,"isfriend":0,"isfamily":0},{"id":"52392841747","owner":"32665930@N04","secret":"300ab6021e","server":"65535","farm":66,"title":"Pine Warbler","ispublic":1,"isfriend":0,"isfamily":0},{"id":"52393347651","owner":"32665930@N04","secret":"192db4e296","server":"65535","farm":66,"title":"Pine Warbler","ispublic":1,"isfriend":0,"isfamily":0}]},"stat":"ok"}