{"photos":{"page":1,"pages":4,"perpage":100,"total":350,"photo":[{"id":"52545477084","owner":"125057668@N02","secret":"8951bb30c6","server":"65535","farm":66,"title":"Ibis de Ridgway (Plegadis ridgwayi)","ispublic":1,"isfriend":0,"isfamily":0},{"id":"52373055951","owner":"11928454@N04","secret":"221f3e3479","server":"65535","farm":66,"title":"Puna ibis","ispublic":1,"isfriend":0,"isfamily":0},{"id":"52293073855","owner":"125057668@N02","secret":"0c529d0ae4","server":"65535","farm":66,"title":"Ibis de Ridgway (Plegadis ridgwayi)","ispublic":1,"isfriend":0,"isfamily":0},{"id":"52293073740","owner":"125057668@N02","secret":"8f08ca0b50","server":"65535","farm":66,"title":"Ibis de Ridgway (Plegadis ridgwayi)","ispublic":1,"isfriend":0,"isfamily":0},{"id":"52274315723","owner":"125057668@N02","secret":"844599e3aa","server":"65535","farm":66,"title":"Ibis de Ridgway (Plegadis ridgwayi)","ispublic":1,"isfriend":0,"isfamily":0},{"id":"52185351097","owner":"27739770@N02","secret":"4c8b3fe269","server":"65535","farm":66,"title":"Puna Ibis","ispublic":1,"isfriend":0,"isfamily":0},{"id":"52131537286","owner":"125057668@N02","secret":"bd6f544d7a","server":"65535","farm":66,"title":"Ibis de Ridgway (Plegadis ridgwayi)","ispublic":1,"isfriend":0,"isfamily":0},{"id":"52022807247","owner":"94121720@N02","secret":"6885e8b9db","server":"65535","farm":66,"title":"The Puna ibis (Plegadis ridgwayi) is a species of bird in the family Threskiornithidae. It is found in Argentina, Bolivia, Chile, and Peru.","ispublic":1,"isfriend":0,"isfamily":0},{"id":"51958577083","owner":"27739770@N02","secret":"78deb01c7d","server":"65535","farm":66,"title":"Puna Ibis","ispublic":1,"isfriend":0,"isfamily":0},{"id":"51958808534","owner":"27739770@N02","secret":"e1503a22a3","server":"65535","farm":66,"title":"Puna Ibis","ispublic":1,"isfriend":0,"isfamily":0},{"id":"51956677706","owner":"27739770@N02","secret":"8e1b35ff20","server":"65535","farm":66,"title":"Puna ibis","ispublic":1,"isfriend":0,"isfamily":0},{"id":"51550287133","owner":"125057668@N02","secret":"8257188491","server":"65535","farm":66,"title":"Ibis de Ridgway (Plegadis ridgwayi)","ispublic":1,"isfriend":0,"isfamily":0},{"id":"51420518474","owner":"101195208@N04","secret":"e9be4a57fc","server":"65535","farm":66,"title":"Plegadis ridgwayi (yanavico, ibis de la puna)","ispublic":1,"isfriend":0,"isfamily":0},{"id":"51419750606","owner":"101195208@N04","secret":"e2ef994745","server":"65535","farm":66,"title":"Plegadis ridgwayi (yanavico, ibis de la puna)","ispublic":1,"isfriend":0,"isfamily":0},{"id":"51420005778","owner":"101195208@N04","secret":"fcf771845f","server":"65535","farm":66,"title":"Plegadis ridgwayi (yanavico, ibis de la puna)","ispublic":1,"isfriend":0,"isfamily":0},{"id":"51230951877","owner":"125057668@N02","secret":"1e9571ac54","server":"65535","farm":66,"title":"Ibis de Ridgway (Plegadis ridgwayi)","ispublic":1,"isfriend":0,"isfamily":0},{"id":"51227396616","owner":"27739770@N02","secret":"202c7abac7","server":"65535","farm":66,"title":"Puna ibis","ispublic":1,"isfriend":0,"isfamily":0},{"id":"51218277697","owner":"27739770@N02","secret":"b0b69cbb5e","server":"65535","farm":66,"title":"Puna ibis","ispublic":1,"isfriend":0,"isfamily":0},{"id":"50862869877","owner":"131798845@N07","secret":"f113db4f61","server":"65535","farm":66,"title":"Parrot World - Plegadis ridgwayi (33)","ispublic":1,"isfriend":0,"isfamily":0},{"id":"50862046998","owner":"131798845@N07","secret":"3601a64000","server":"65535","farm":66,"title":"Parrot World - Plegadis ridgwayi (23)","ispublic":1,"isfriend":0,"isfamily":0},{"id":"50444863942","owner":"24067417@N03","secret":"f59b5fb012","server":"65535","farm":66,"title":"Plegadis ridgwayi - Puna Ibis","ispublic":1,"isfriend":0,"isfamily":0},{"id":"50310720723","owner":"45505361@N08","secret":"3be4965c00","server":"65535","farm":66,"title":"Plegadis ridgwayi","ispublic":1,"isfriend":0,"isfamily":0},{"id":"50205473543","owner":"71393709@N06","secret":"21eaca03a9","server":"65535","farm":66,"title":"'' Spike '' (Female Puna Ibis - Plegadis ridgwayi) 1989- January 2014","ispublic":1,"isfriend":0,"isfamily":0},{"id":"50054586527","owner":"167301228@N08","secret":"3118312a21","server":"65535","farm":66,"title":"Morito Plegadis ridgwayi","ispublic":1,"isfriend":0,"isfamily":0},{"id":"49977407361","owner":"125057668@N02","secret":"15745b789f","server":"65535","farm":66,"title":"Ibis de Ridgway (Plegadis ridgwayi)","ispublic":1,"isfriend":0,"isfamily":0},{"id":"49898951616","owner":"188451439@N02","secret":"eccaecd573","server":"65535","farm":66,"title":"Puna Ibis (Plegadis ridgwayi)","ispublic":1,"isfriend":0,"isfamily":0},{"id":"49788624871","owner":"184523789@N08","secret":"478096e3ae","server":"65535","farm":66,"title":"Ibis de Ridgway - Puna Ibis - Plegadis ridgwayi","ispublic":1,"isfriend":0,"isfamily":0},{"id":"39935562725","owner":"28490798@N03","secret":"4c7d67d8dc","server":"792","farm":1,"title":"Cuervo del Pantano de la Puna. Plegadis ridgwayi. Puna Ibis","ispublic":1,"isfriend":0,"isfamily":0},{"id":"49235928622","owner":"99208129@N08","secret":"e63bd45694","server":"65535","farm":66,"title":"Plegadis ridgwayi \/ Puna Ibis","ispublic":1,"isfriend":0,"isfamily":0},{"id":"48886257317","owner":"124523841@N04","secret":"6396c1e5f0","server":"65535","farm":66,"title":"puna ibis","ispublic":1,"isfriend":0,"isfamily":0},{"id":"48774338872","owner":"33820263@N07","secret":"dc5448d54e","server":"65535","farm":66,"title":"Puna Ibis","ispublic":1,"isfriend":0,"isfamily":0},{"id":"48773815628","owner":"33820263@N07","secret":"81fab83c06","server":"65535","farm":66,"title":"Puna Ibis","ispublic":1,"isfriend":0,"isfamily":0},{"id":"48739179642","owner":"101195208@N04","secret":"a6bc26ee10","server":"65535","farm":66,"title":"Plegadis ridgwayi, en Orconcocha.","ispublic":1,"isfriend":0,"isfamily":0},{"id":"48610888791","owner":"125057668@N02","secret":"edcf12220c","server":"65535","farm":66,"title":"Ibis de Ridgway (Plegadis ridgwayi)","ispublic":1,"isfriend":0,"isfamily":0},{"id":"48417924271","owner":"98169970@N00","secret":"2f86af3dc5","server":"65535","farm":66,"title":"puna ibis (plegadis ridgwayi)","ispublic":1,"isfriend":0,"isfamily":0},{"id":"48409278041","owner":"98169970@N00","secret":"0736e3ae12","server":"65535","farm":66,"title":"puna ibis (plegadis ridgwayi)","ispublic":1,"isfriend":0,"isfamily":0},{"id":"48100168678","owner":"106859390@N03","secret":"790c27b67d","server":"65535","farm":66,"title":"Cuervo del pantano de la puna, Puna Ibis, Plegadis ridgwayi","ispublic":1,"isfriend":0,"isfamily":0},{"id":"47048422244","owner":"128921159@N05","secret":"f652c1d4c7","server":"65535","farm":66,"title":"Plegadis ridgwayi","ispublic":1,"isfriend":0,"isfamily":0},{"id":"32695835337","owner":"109780337@N03","secret":"e38ab940cc","server":"65535","farm":66,"title":"Schmalschnabelsichler - Punaibis - Plegadis ridgwayi","ispublic":1,"isfriend":0,"isfamily":0},{"id":"32250864437","owner":"96071696@N02","secret":"4891195b97","server":"7803","farm":8,"title":"Plegadis ridgwayi, Jauja, 2015","ispublic":1,"isfriend":0,"isfamily":0},{"id":"32374939718","owner":"33820263@N07","secret":"c14a9f75e7","server":"65535","farm":66,"title":"Puna Ibis","ispublic":1,"isfriend":0,"isfamily":0},{"id":"30634109227","owner":"61897811@N00","secret":"949f864921","server":"1957","farm":2,"title":"Puna Ibis","ispublic":1,"isfriend":0,"isfamily":0},{"id":"44849118184","owner":"158952020@N04","secret":"01ff3a2703","server":"1935","farm":2,"title":"Puna Ibis,Plegadis ridgwayi, Puna Ibis-7868","ispublic":1,"isfriend":0,"isfamily":0},{"id":"44635628732","owner":"14888671@N02","secret":"6b48f12cc2","server":"1880","farm":2,"title":"Puna Ibis","ispublic":1,"isfriend":0,"isfamily":0},{"id":"43582935915","owner":"146006711@N02","secret":"39f62c30c1","server":"1888","farm":2,"title":"Ibis de la Puna - Puna ibis - Plegadis ridgwayi","ispublic":1,"isfriend":0,"isfamily":0},{"id":"52364087481","owner":"12639178@N07","secret":"76a3e052db","server":"65535","farm":66,"title":"Punaibis (Plegadis ridgwayi)","ispublic":1,"isfriend":0,"isfamily":0},{"id":"52352835399","owner":"12639178@N07","secret":"677b08debc","server":"65535","farm":66,"title":"Punaibis (Plegadis ridgwayi)","ispublic":1,"isfriend":0,"isfamily":0},{"id":"52352508661","owner":"12639178@N07","secret":"ac99dc2d6a","server":"65535","farm":66,"title":"Punaibis (Plegadis ridgwayi)","ispublic":1,"isfriend":0,"isfamily":0},{"id":"52352823374","owner":"12639178@N07","secret":"9c3e92d41a","server":"65535","farm":66,"title":"Punaibis (Plegadis ridgwayi)","ispublic":1,"isfriend":0,"isfamily":0},{"id":"52297451939","owner":"123597211@N03","secret":"8a7f293b5d","server":"65535","farm":66,"title":"Punaibis (Plegadis ridgwayi)","ispublic":1,"isfriend":0,"isfamily":0},{"id":"52296199122","owner":"123597211@N03","secret":"43d5fa86c2","server":"65535","farm":66,"title":"Punaibis (Plegadis ridgwayi)","ispublic":1,"isfriend":0,"isfamily":0},{"id":"52297449859","owner":"123597211@N03","secret":"8228f1de1a","server":"65535","farm":66,"title":"Punaibis (Plegadis ridgwayi)","ispublic":1,"isfriend":0,"isfamily":0},{"id":"52250405874","owner":"123597211@N03","secret":"068fc3b2e0","server":"65535","farm":66,"title":"Punaibis (Plegadis ridgwayi)","ispublic":1,"isfriend":0,"isfamily":0},{"id":"52250118996","owner":"123597211@N03","secret":"4db999b8a8","server":"65535","farm":66,"title":"Punaibis (Plegadis ridgwayi)","ispublic":1,"isfriend":0,"isfamily":0},{"id":"52249145177","owner":"123597211@N03","secret":"4095e41c4c","server":"65535","farm":66,"title":"Punaibis (Plegadis ridgwayi)","ispublic":1,"isfriend":0,"isfamily":0},{"id":"52250623825","owner":"123597211@N03","secret":"11d9d5cff3","server":"65535","farm":66,"title":"Punaibis (Plegadis ridgwayi)","ispublic":1,"isfriend":0,"isfamily":0},{"id":"52250118096","owner":"123597211@N03","secret":"e3a19debc0","server":"65535","farm":66,"title":"Punaibis (Plegadis ridgwayi)","ispublic":1,"isfriend":0,"isfamily":0},{"id":"52131399999","owner":"125057668@N02","secret":"81f48092b4","server":"65535","farm":66,"title":"Ibis de Ridgway (Plegadis ridgwayi)","ispublic":1,"isfriend":0,"isfamily":0},{"id":"52034615945","owner":"167145575@N05","secret":"39ba42aa39","server":"65535","farm":66,"title":"Puna Ibis - Plegadis ridgwayi","ispublic":1,"isfriend":0,"isfamily":0},{"id":"51420736520","owner":"101195208@N04","secret":"3c58d2dd6d","server":"65535","farm":66,"title":"Plegadis ridgwayi (yanavico, ibis de la puna)","ispublic":1,"isfriend":0,"isfamily":0},{"id":"51420735830","owner":"101195208@N04","secret":"8d99ab7d64","server":"65535","farm":66,"title":"Plegadis ridgwayi (yanavico, ibis de la puna)","ispublic":1,"isfriend":0,"isfamily":0},{"id":"51419747581","owner":"101195208@N04","secret":"7aab3ec08d","server":"65535","farm":66,"title":"Plegadis ridgwayi (yanavico, ibis de la puna)","ispublic":1,"isfriend":0,"isfamily":0},{"id":"51242894301","owner":"21013862@N08","secret":"9b58a81fe3","server":"65535","farm":66,"title":"Spatula cyanoptera y Plegadis ridgwayi, R\u00edo Alota","ispublic":1,"isfriend":0,"isfamily":0},{"id":"51243660224","owner":"21013862@N08","secret":"802b785419","server":"65535","farm":66,"title":"Spatula cyanoptera y Plegadis ridgwayi, R\u00edo Alota","ispublic":1,"isfriend":0,"isfamily":0},{"id":"51087430956","owner":"75259331@N02","secret":"0b207043a5","server":"65535","farm":66,"title":"Ibis","ispublic":1,"isfriend":0,"isfamily":0},{"id":"49898433188","owner":"188451439@N02","secret":"501f634b10","server":"65535","farm":66,"title":"Puna Ibis (Plegadis ridgwayi)","ispublic":1,"isfriend":0,"isfamily":0},{"id":"49605946876","owner":"117307568@N03","secret":"0bc81909f5","server":"65535","farm":66,"title":"Puna Ibis (Plegadis ridgwayi)","ispublic":1,"isfriend":0,"isfamily":0},{"id":"49556298646","owner":"107784905@N04","secret":"0711dc7647","server":"65535","farm":66,"title":"Ibis de Ridgway - Laguna de Pozuelos\/Jujuy\/Argentina_20171121_021-1","ispublic":1,"isfriend":0,"isfamily":0},{"id":"49555329606","owner":"60395108@N02","secret":"0a4c385c5a","server":"65535","farm":66,"title":"DSC_6182","ispublic":1,"isfriend":0,"isfamily":0},{"id":"49555568812","owner":"60395108@N02","secret":"174fa8d271","server":"65535","farm":66,"title":"DSC_6186","ispublic":1,"isfriend":0,"isfamily":0},{"id":"49554831653","owner":"60395108@N02","secret":"599c46164a","server":"65535","farm":66,"title":"DSC_6187","ispublic":1,"isfriend":0,"isfamily":0},{"id":"49555329516","owner":"60395108@N02","secret":"1253936314","server":"65535","farm":66,"title":"DSC_6190","ispublic":1,"isfriend":0,"isfamily":0},{"id":"49555568702","owner":"60395108@N02","secret":"6cdd7f6128","server":"65535","farm":66,"title":"DSC_6189","ispublic":1,"isfriend":0,"isfamily":0},{"id":"49554831528","owner":"60395108@N02","secret":"900751d0b6","server":"65535","farm":66,"title":"DSC_6194","ispublic":1,"isfriend":0,"isfamily":0},{"id":"49554831478","owner":"60395108@N02","secret":"04b5de2462","server":"65535","farm":66,"title":"","ispublic":1,"isfriend":0,"isfamily":0},{"id":"49554831453","owner":"60395108@N02","secret":"b1f2b0cbc9","server":"65535","farm":66,"title":"DSC_6197","ispublic":1,"isfriend":0,"isfamily":0},{"id":"49554831433","owner":"60395108@N02","secret":"8da15872a9","server":"65535","farm":66,"title":"DSC_6199","ispublic":1,"isfriend":0,"isfamily":0},{"id":"49555568167","owner":"60395108@N02","secret":"260037c9c9","server":"65535","farm":66,"title":"DSC_6184","ispublic":1,"isfriend":0,"isfamily":0},{"id":"49555328836","owner":"60395108@N02","secret":"ecfeb45e4e","server":"65535","farm":66,"title":"DSC_6198","ispublic":1,"isfriend":0,"isfamily":0},{"id":"49364872403","owner":"26096524@N03","secret":"4d3957d07b","server":"65535","farm":66,"title":"Puna Ibis (Plegadis ridgwayi)","ispublic":1,"isfriend":0,"isfamily":0},{"id":"49342885051","owner":"26096524@N03","secret":"b5aef565d8","server":"65535","farm":66,"title":"Puna Ibis (Plegadis ridgwayi)","ispublic":1,"isfriend":0,"isfamily":0},{"id":"49235237958","owner":"99208129@N08","secret":"c7cc78e55d","server":"65535","farm":66,"title":"Plegadis ridgwayi \/ Puna Ibis","ispublic":1,"isfriend":0,"isfamily":0},{"id":"49019715307","owner":"132638863@N04","secret":"7dfcdeb097","server":"65535","farm":66,"title":"Puna Ibis \/ Ibis de Ridgway","ispublic":1,"isfriend":0,"isfamily":0},{"id":"49007455833","owner":"12639178@N07","secret":"4fe69d0e75","server":"65535","farm":66,"title":"Puna Ibis","ispublic":1,"isfriend":0,"isfamily":0},{"id":"48964335958","owner":"95482238@N02","secret":"7220837cdd","server":"65535","farm":66,"title":"Puna ibis (Plegadis ridgwayi) Laguna del Humedal , arica northern chile","ispublic":1,"isfriend":0,"isfamily":0},{"id":"48958347476","owner":"12639178@N07","secret":"6a3c3665de","server":"65535","farm":66,"title":"Punaibis im Habitat","ispublic":1,"isfriend":0,"isfamily":0},{"id":"48958529657","owner":"12639178@N07","secret":"6bc7e066ec","server":"65535","farm":66,"title":"Punaibis","ispublic":1,"isfriend":0,"isfamily":0},{"id":"48409422327","owner":"98169970@N00","secret":"caf41d4f84","server":"65535","farm":66,"title":"puna ibis (plegadis ridgwayi)","ispublic":1,"isfriend":0,"isfamily":0},{"id":"48150955182","owner":"33820263@N07","secret":"d4bd1f1653","server":"65535","farm":66,"title":"Puna Ibis","ispublic":1,"isfriend":0,"isfamily":0},{"id":"48150954897","owner":"33820263@N07","secret":"9ef5e5bdde","server":"65535","farm":66,"title":"Puna Ibis","ispublic":1,"isfriend":0,"isfamily":0},{"id":"48150953947","owner":"33820263@N07","secret":"fe1aedd148","server":"65535","farm":66,"title":"Puna Ibis","ispublic":1,"isfriend":0,"isfamily":0},{"id":"44511648520","owner":"33820263@N07","secret":"042d1b1a17","server":"65535","farm":66,"title":"Puna Ibis","ispublic":1,"isfriend":0,"isfamily":0},{"id":"45391690045","owner":"106859390@N03","secret":"947d53d4d8","server":"4908","farm":5,"title":"Cuervo del pantano de la puna, Puna Ibis, Plegadis ridgwayi","ispublic":1,"isfriend":0,"isfamily":0},{"id":"46194786902","owner":"13978985@N05","secret":"5ef49200ec","server":"1941","farm":2,"title":"Puna Ibis","ispublic":1,"isfriend":0,"isfamily":0},{"id":"45454262054","owner":"13978985@N05","secret":"0771d5b22e","server":"4902","farm":5,"title":"Puna Ibis","ispublic":1,"isfriend":0,"isfamily":0},{"id":"46017758371","owner":"120531517@N08","secret":"51cbdb86fe","server":"4830","farm":5,"title":"Ibis de la puna (Plegadis ridgwayi)","ispublic":1,"isfriend":0,"isfamily":0},{"id":"45562623062","owner":"77017456@N03","secret":"eaa1e80730","server":"1960","farm":2,"title":"Small flock of Puna Ibis (plegadis ridgwayi) beside Lake Huacarpay","ispublic":1,"isfriend":0,"isfamily":0},{"id":"30273929447","owner":"146991180@N03","secret":"c4db215e66","server":"1921","farm":2,"title":"Yanavico (Plegadis ridgwayi)","ispublic":1,"isfriend":0,"isfamily":0},{"id":"43583196245","owner":"146006711@N02","secret":"a36cf35d09","server":"1849","farm":2,"title":"Ibis de la Puna - Puna ibis - Plegadis ridgwayi","ispublic":1,"isfriend":0,"isfamily":0},{"id":"44492596791","owner":"146006711@N02","secret":"9c7257f7c6","server":"1887","farm":2,"title":"Ibis de la Puna - Puna ibis - Plegadis ridgwayi","ispublic":1,"isfriend":0,"isfamily":0}]},"stat":"ok"}