{"photos":{"page":1,"pages":70,"perpage":100,"total":6947,"photo":[{"id":"52721476590","owner":"165841515@N03","secret":"b9ddd8121c","server":"65535","farm":66,"title":"Gr\u00e8be jougris \/ Red-necked Grebe \/ (Podiceps grisegena)","ispublic":1,"isfriend":0,"isfamily":0},{"id":"52721475925","owner":"165841515@N03","secret":"184ef92b12","server":"65535","farm":66,"title":"Gr\u00e8be jougris \/ Red-necked Grebe \/ (Podiceps grisegena)","ispublic":1,"isfriend":0,"isfamily":0},{"id":"52721475445","owner":"165841515@N03","secret":"7b65a70729","server":"65535","farm":66,"title":"Gr\u00e8be jougris \/ Red-necked Grebe \/ (Podiceps grisegena)","ispublic":1,"isfriend":0,"isfamily":0},{"id":"52716927033","owner":"140989509@N06","secret":"02a9348df0","server":"65535","farm":66,"title":"2023_2191-Red-Necked _grebe","ispublic":1,"isfriend":0,"isfamily":0},{"id":"52707818770","owner":"61396634@N07","secret":"921868ce25","server":"65535","farm":66,"title":"Red-necked Grebe","ispublic":1,"isfriend":0,"isfamily":0},{"id":"52695059772","owner":"62043870@N05","secret":"21bdd3842b","server":"65535","farm":66,"title":"Red-necked Grebe, Podiceps grisegena","ispublic":1,"isfriend":0,"isfamily":0},{"id":"52691519303","owner":"191391950@N02","secret":"e653774763","server":"65535","farm":66,"title":"Gr\u00e8be jougris - Podiceps grisegena","ispublic":1,"isfriend":0,"isfamily":0},{"id":"52673990489","owner":"12639178@N07","secret":"a9cd43998e","server":"65535","farm":66,"title":"Rothalstaucher","ispublic":1,"isfriend":0,"isfamily":0},{"id":"52673698941","owner":"12639178@N07","secret":"f64144d04d","server":"65535","farm":66,"title":"Rothalstaucher sch\u00fcttelt sich","ispublic":1,"isfriend":0,"isfamily":0},{"id":"52673698766","owner":"12639178@N07","secret":"a04f5b33da","server":"65535","farm":66,"title":"Rothalstaucher","ispublic":1,"isfriend":0,"isfamily":0},{"id":"52673176632","owner":"12639178@N07","secret":"86a125c317","server":"65535","farm":66,"title":"Rothalstaucher (Podiceps grisegena) (1)","ispublic":1,"isfriend":0,"isfamily":0},{"id":"52670450108","owner":"158492326@N05","secret":"bba91af026","server":"65535","farm":66,"title":"Red-necked Grebe \/ Rothalstaucher  (Podiceps grisegena)","ispublic":1,"isfriend":0,"isfamily":0},{"id":"52660035351","owner":"136180232@N08","secret":"17995615ee","server":"65535","farm":66,"title":"Red-necked Grebe (Podiceps grisegena) JTE_0619","ispublic":1,"isfriend":0,"isfamily":0},{"id":"52659540247","owner":"136180232@N08","secret":"15145763d2","server":"65535","farm":66,"title":"Red-necked Grebe (Podiceps grisegena) JTE_0615","ispublic":1,"isfriend":0,"isfamily":0},{"id":"52660482425","owner":"136180232@N08","secret":"6be2cfd26a","server":"65535","farm":66,"title":"Red-necked Grebe (Podiceps grisegena) JTE_0610","ispublic":1,"isfriend":0,"isfamily":0},{"id":"52655938599","owner":"131779834@N08","secret":"53ce5c8756","server":"65535","farm":66,"title":"Parental Discussion","ispublic":1,"isfriend":0,"isfamily":0},{"id":"52656119038","owner":"131779834@N08","secret":"d2467b08fa","server":"65535","farm":66,"title":"Fishing Success","ispublic":1,"isfriend":0,"isfamily":0},{"id":"52653994779","owner":"131779834@N08","secret":"c1e79880fb","server":"65535","farm":66,"title":"The Grub Handoff","ispublic":1,"isfriend":0,"isfamily":0},{"id":"52637416975","owner":"24379925@N08","secret":"4628f60379","server":"65535","farm":66,"title":"RED-NECKED GREBE","ispublic":1,"isfriend":0,"isfamily":0},{"id":"52636968705","owner":"171333438@N08","secret":"a36492c52c","server":"65535","farm":66,"title":"Gr\u00e8be jougris (Podiceps grisegena)","ispublic":1,"isfriend":0,"isfamily":0},{"id":"52636524511","owner":"171333438@N08","secret":"ee6e2b87a5","server":"65535","farm":66,"title":"Gr\u00e8be jougris (Podiceps grisegena)","ispublic":1,"isfriend":0,"isfamily":0},{"id":"52636524176","owner":"171333438@N08","secret":"a136db2395","server":"65535","farm":66,"title":"Gr\u00e8be jougris (Podiceps grisegena)","ispublic":1,"isfriend":0,"isfamily":0},{"id":"52636967375","owner":"171333438@N08","secret":"e040b76247","server":"65535","farm":66,"title":"Gr\u00e8bes jougris (Podiceps grisegena)","ispublic":1,"isfriend":0,"isfamily":0},{"id":"52636523381","owner":"171333438@N08","secret":"49eaa26c0d","server":"65535","farm":66,"title":"Gr\u00e8be jougris (Podiceps grisegena)","ispublic":1,"isfriend":0,"isfamily":0},{"id":"52636784529","owner":"171333438@N08","secret":"52500b1077","server":"65535","farm":66,"title":"Gr\u00e8be jougris (Podiceps grisegena)","ispublic":1,"isfriend":0,"isfamily":0},{"id":"52636784094","owner":"171333438@N08","secret":"09d7d47590","server":"65535","farm":66,"title":"Gr\u00e8be jougris (Podiceps grisegena)","ispublic":1,"isfriend":0,"isfamily":0},{"id":"52636522376","owner":"171333438@N08","secret":"73e464ee2a","server":"65535","farm":66,"title":"Gr\u00e8be jougris (Podiceps grisegena)","ispublic":1,"isfriend":0,"isfamily":0},{"id":"52636965490","owner":"171333438@N08","secret":"856ea597de","server":"65535","farm":66,"title":"Gr\u00e8bes jougris (Podiceps grisegena)","ispublic":1,"isfriend":0,"isfamily":0},{"id":"52636010022","owner":"171333438@N08","secret":"38f5d2d641","server":"65535","farm":66,"title":"Gr\u00e8be jougris (Podiceps grisegena)","ispublic":1,"isfriend":0,"isfamily":0},{"id":"52637004278","owner":"171333438@N08","secret":"51ecba2515","server":"65535","farm":66,"title":"Gr\u00e8be jougris (Podiceps grisegena)","ispublic":1,"isfriend":0,"isfamily":0},{"id":"52632658698","owner":"44801995@N02","secret":"6cb1374df3","server":"65535","farm":66,"title":"Red-necked Grebe Podiceps grisegena","ispublic":1,"isfriend":0,"isfamily":0},{"id":"52630696157","owner":"171333438@N08","secret":"466094759d","server":"65535","farm":66,"title":"Gr\u00e8be jougris (Podiceps grisegena)","ispublic":1,"isfriend":0,"isfamily":0},{"id":"52631134386","owner":"171333438@N08","secret":"b0f38df48c","server":"65535","farm":66,"title":"Gr\u00e8be jougris (Podiceps grisegena)","ispublic":1,"isfriend":0,"isfamily":0},{"id":"52631133771","owner":"171333438@N08","secret":"a991042c74","server":"65535","farm":66,"title":"Gr\u00e8be jougris (Podiceps grisegena)","ispublic":1,"isfriend":0,"isfamily":0},{"id":"52631133081","owner":"171333438@N08","secret":"06aeef0afb","server":"65535","farm":66,"title":"Gr\u00e8bes jougris (Podiceps grisegena)","ispublic":1,"isfriend":0,"isfamily":0},{"id":"52628049910","owner":"109544413@N05","secret":"3cbd5a7114","server":"65535","farm":66,"title":"Proper swallowing position","ispublic":1,"isfriend":0,"isfamily":0},{"id":"52627615921","owner":"109544413@N05","secret":"fef977e586","server":"65535","farm":66,"title":"Fish almost wiggled free","ispublic":1,"isfriend":0,"isfamily":0},{"id":"52627859619","owner":"109544413@N05","secret":"724890238a","server":"65535","farm":66,"title":"\"Grab it!\"","ispublic":1,"isfriend":0,"isfamily":0},{"id":"52628090858","owner":"109544413@N05","secret":"705f54c511","server":"65535","farm":66,"title":"\"Hey kid! I got one for you.\"","ispublic":1,"isfriend":0,"isfamily":0},{"id":"52628049760","owner":"109544413@N05","secret":"b652e5e68d","server":"65535","farm":66,"title":"Parent with a nice catch","ispublic":1,"isfriend":0,"isfamily":0},{"id":"52628090748","owner":"109544413@N05","secret":"ac32ed2aff","server":"65535","farm":66,"title":"Juvi not catching anything","ispublic":1,"isfriend":0,"isfamily":0},{"id":"52627859414","owner":"109544413@N05","secret":"503a1dea78","server":"65535","farm":66,"title":"Glimpse of its developing wing feathers","ispublic":1,"isfriend":0,"isfamily":0},{"id":"52628049550","owner":"109544413@N05","secret":"22801af76b","server":"65535","farm":66,"title":"Juvenile Red-necked Grebe","ispublic":1,"isfriend":0,"isfamily":0},{"id":"52618788019","owner":"131779834@N08","secret":"808aa6182d","server":"65535","farm":66,"title":"Growing Up Grebe","ispublic":1,"isfriend":0,"isfamily":0},{"id":"52607195913","owner":"195353428@N06","secret":"53732fde99","server":"65535","farm":66,"title":"Red Necked Grebe - Podiceps grisegena","ispublic":1,"isfriend":0,"isfamily":0},{"id":"52178789775","owner":"131779834@N08","secret":"d1b46f1263","server":"65535","farm":66,"title":"Grebe Bath","ispublic":1,"isfriend":0,"isfamily":0},{"id":"52601984096","owner":"12639178@N07","secret":"8b4f94566e","server":"65535","farm":66,"title":"Rothalstaucher","ispublic":1,"isfriend":0,"isfamily":0},{"id":"52597339565","owner":"62043870@N05","secret":"20dce34542","server":"65535","farm":66,"title":"Red-necked Grebe, Podiceps grisegena","ispublic":1,"isfriend":0,"isfamily":0},{"id":"52582221726","owner":"9243885@N07","secret":"a7e8eac1ab","server":"65535","farm":66,"title":"2022_12_20_5DMk4_85109","ispublic":1,"isfriend":0,"isfamily":0},{"id":"52581744172","owner":"9243885@N07","secret":"451c6ce61d","server":"65535","farm":66,"title":"2022_12_20_5DMk4_85186","ispublic":1,"isfriend":0,"isfamily":0},{"id":"52581217567","owner":"9243885@N07","secret":"632dfdcdcc","server":"65535","farm":66,"title":"2022_12_20_5DMk4_85496","ispublic":1,"isfriend":0,"isfamily":0},{"id":"52581678931","owner":"9243885@N07","secret":"9154a3c0a5","server":"65535","farm":66,"title":"2022_12_20_5DMk4_85537","ispublic":1,"isfriend":0,"isfamily":0},{"id":"52581600976","owner":"9243885@N07","secret":"a88e13ab27","server":"65535","farm":66,"title":"2022_12_20_5DMk4_85465","ispublic":1,"isfriend":0,"isfamily":0},{"id":"52579789762","owner":"153973412@N04","secret":"5a7494cb7b","server":"65535","farm":66,"title":"Red-Necked Grebe-Podiceps grisegena, Pleasant Creek SRA, IA","ispublic":1,"isfriend":0,"isfamily":0},{"id":"52560389139","owner":"12639178@N07","secret":"66467447fa","server":"65535","farm":66,"title":"Sucht einen m\u00f6wenfreien Platz","ispublic":1,"isfriend":0,"isfamily":0},{"id":"52560090586","owner":"12639178@N07","secret":"d9cf995d7e","server":"65535","farm":66,"title":"\u00b0v\u00b0","ispublic":1,"isfriend":0,"isfamily":0},{"id":"52560388869","owner":"12639178@N07","secret":"131ef4d6a9","server":"65535","farm":66,"title":"Rothalstaucher mit \"wei\u00dfem Schatten\"","ispublic":1,"isfriend":0,"isfamily":0},{"id":"52553598212","owner":"78941013@N00","secret":"660be68b63","server":"65535","farm":66,"title":"Red-necked grebe (Podiceps grisegena) Roodhalsfuut","ispublic":1,"isfriend":0,"isfamily":0},{"id":"52554057306","owner":"78941013@N00","secret":"83e3a0d390","server":"65535","farm":66,"title":"Red-necked grebe (Podiceps grisegena) Roodhalsfuut","ispublic":1,"isfriend":0,"isfamily":0},{"id":"52554528555","owner":"78941013@N00","secret":"7ff9a32640","server":"65535","farm":66,"title":"Red-necked grebe (Podiceps grisegena) Roodhalsfuut","ispublic":1,"isfriend":0,"isfamily":0},{"id":"52554595838","owner":"78941013@N00","secret":"9f5c70cc9f","server":"65535","farm":66,"title":"Red-necked grebe (Podiceps grisegena) Roodhalsfuut","ispublic":1,"isfriend":0,"isfamily":0},{"id":"52554528500","owner":"78941013@N00","secret":"406541b115","server":"65535","farm":66,"title":"Red-necked grebe (Podiceps grisegena) Roodhalsfuut","ispublic":1,"isfriend":0,"isfamily":0},{"id":"52554528460","owner":"78941013@N00","secret":"490c54fb33","server":"65535","farm":66,"title":"Red-necked grebe (Podiceps grisegena) Roodhalsfuut","ispublic":1,"isfriend":0,"isfamily":0},{"id":"52541850776","owner":"126271444@N08","secret":"0ceacc8ba8","server":"65535","farm":66,"title":"Red-necked Grebe (Podiceps grisegena)","ispublic":1,"isfriend":0,"isfamily":0},{"id":"52542394053","owner":"126271444@N08","secret":"fe44fe30fc","server":"65535","farm":66,"title":"Red-necked Grebe (Podiceps grisegena)","ispublic":1,"isfriend":0,"isfamily":0},{"id":"52542393963","owner":"126271444@N08","secret":"4f424f164d","server":"65535","farm":66,"title":"Red-necked Grebe (Podiceps grisegena)","ispublic":1,"isfriend":0,"isfamily":0},{"id":"52541385922","owner":"126271444@N08","secret":"737bd97eba","server":"65535","farm":66,"title":"Red-necked Grebe (Podiceps grisegena)","ispublic":1,"isfriend":0,"isfamily":0},{"id":"52542393743","owner":"126271444@N08","secret":"c07028c243","server":"65535","farm":66,"title":"Red-necked Grebe (Podiceps grisegena)","ispublic":1,"isfriend":0,"isfamily":0},{"id":"52542325505","owner":"126271444@N08","secret":"870a7c3658","server":"65535","farm":66,"title":"Red-necked Grebe (Podiceps grisegena)","ispublic":1,"isfriend":0,"isfamily":0},{"id":"52541390129","owner":"33610210@N05","secret":"51e267d96f","server":"65535","farm":66,"title":"Red-necked Grebe, Podiceps grisegena","ispublic":1,"isfriend":0,"isfamily":0},{"id":"52541390099","owner":"33610210@N05","secret":"0880302a44","server":"65535","farm":66,"title":"Red-necked Grebe, Podiceps grisegena","ispublic":1,"isfriend":0,"isfamily":0},{"id":"52541573900","owner":"33610210@N05","secret":"a1e5532754","server":"65535","farm":66,"title":"Red-necked Grebe, Podiceps grisegena","ispublic":1,"isfriend":0,"isfamily":0},{"id":"52541573880","owner":"33610210@N05","secret":"53d876de43","server":"65535","farm":66,"title":"Red-necked Grebe, Podiceps grisegena","ispublic":1,"isfriend":0,"isfamily":0},{"id":"52541573895","owner":"33610210@N05","secret":"b158718ca6","server":"65535","farm":66,"title":"Red-necked Grebe, Podiceps grisegena","ispublic":1,"isfriend":0,"isfamily":0},{"id":"52541390069","owner":"33610210@N05","secret":"036bd5d979","server":"65535","farm":66,"title":"Red-necked Grebe, Podiceps grisegena","ispublic":1,"isfriend":0,"isfamily":0},{"id":"52541573875","owner":"33610210@N05","secret":"51d7a4f5bf","server":"65535","farm":66,"title":"Red-necked Grebe, Podiceps grisegena","ispublic":1,"isfriend":0,"isfamily":0},{"id":"52540720256","owner":"90886369@N06","secret":"3625aefc81","server":"65535","farm":66,"title":"Red-necked Grebe with chick (Podiceps grisegena)","ispublic":1,"isfriend":0,"isfamily":0},{"id":"52540529836","owner":"81397674@N07","secret":"92596cea5d","server":"65535","farm":66,"title":"Feeding time. Red-necked Grebes (Podiceps grisegena) from the Living Waters boardwalk, Astotin Lake, Elk Island National Park, Alberta","ispublic":1,"isfriend":0,"isfamily":0},{"id":"52540529821","owner":"18835161@N02","secret":"971494cf7b","server":"65535","farm":66,"title":"Feeding time. Red-necked Grebes (Podiceps grisegena) from the Living Waters boardwalk, Astotin Lake, Elk Island National Park, Alberta","ispublic":1,"isfriend":0,"isfamily":0},{"id":"52524281322","owner":"12639178@N07","secret":"08270b4945","server":"65535","farm":66,"title":"Rothalstaucher findet den Gast auch so toll wie ich","ispublic":1,"isfriend":0,"isfamily":0},{"id":"52521152052","owner":"129051288@N05","secret":"754a597aaa","server":"65535","farm":66,"title":"Gr\u00e8be jougris, Podiceps grisegena, Red-necked Grebe","ispublic":1,"isfriend":0,"isfamily":0},{"id":"52519382829","owner":"39617069@N08","secret":"a7a650cfdd","server":"65535","farm":66,"title":"Red-necked Grebe","ispublic":1,"isfriend":0,"isfamily":0},{"id":"52517718626","owner":"85277889@N08","secret":"d5778f6d8b","server":"0","farm":0,"title":"Red-necked Grebe (Podiceps grisegena) Video 2022-11-21 (2)","ispublic":1,"isfriend":0,"isfamily":0},{"id":"52516340298","owner":"85277889@N08","secret":"dd39e2a0d2","server":"65535","farm":66,"title":"Red-necked Grebe (Podiceps grisegena) 2022-11-21 (1)","ispublic":1,"isfriend":0,"isfamily":0},{"id":"52515794321","owner":"85277889@N08","secret":"a7abbde6f8","server":"65535","farm":66,"title":"Red-necked Grebe (Podiceps grisegena) 2022-11-21 (2)","ispublic":1,"isfriend":0,"isfamily":0},{"id":"52510499711","owner":"196612229@N04","secret":"bb3b2eb595","server":"65535","farm":66,"title":"Red-necked Grebe Family","ispublic":1,"isfriend":0,"isfamily":0},{"id":"52507888362","owner":"196595638@N04","secret":"e7f781e89b","server":"65535","farm":66,"title":"Great crested grebe (Podiceps cristatus) on nest","ispublic":1,"isfriend":0,"isfamily":0},{"id":"52506621284","owner":"44801995@N02","secret":"d91f6dceda","server":"65535","farm":66,"title":"Red-necked Grebe Podiceps grisegena","ispublic":1,"isfriend":0,"isfamily":0},{"id":"52506901923","owner":"44801995@N02","secret":"cc93aa0957","server":"65535","farm":66,"title":"Red-necked Grebe Podiceps grisegena","ispublic":1,"isfriend":0,"isfamily":0},{"id":"52505864202","owner":"44801995@N02","secret":"c59c322697","server":"65535","farm":66,"title":"Red-necked Grebe Podiceps grisegena","ispublic":1,"isfriend":0,"isfamily":0},{"id":"52506900873","owner":"44801995@N02","secret":"0e5f5d3aef","server":"65535","farm":66,"title":"Red-necked Grebe Podiceps grisegena","ispublic":1,"isfriend":0,"isfamily":0},{"id":"52504185947","owner":"196612229@N04","secret":"b0afe95921","server":"65535","farm":66,"title":"10 out of 10 for the Dismount!","ispublic":1,"isfriend":0,"isfamily":0},{"id":"52486257371","owner":"12639178@N07","secret":"d68720befd","server":"65535","farm":66,"title":"Rothalstaucher","ispublic":1,"isfriend":0,"isfamily":0},{"id":"52486533114","owner":"12639178@N07","secret":"fbeb8d8c60","server":"65535","farm":66,"title":"Rothalstaucher","ispublic":1,"isfriend":0,"isfamily":0},{"id":"52484035410","owner":"59777454@N02","secret":"554c1c54b7","server":"65535","farm":66,"title":"Red-necked Grebe adult with chick Tekiela TEK6143","ispublic":1,"isfriend":0,"isfamily":0},{"id":"52483069492","owner":"59777454@N02","secret":"6dbbaa78ed","server":"65535","farm":66,"title":"Red-necked Grebe adult feeding young fish Tekiela TEK6506","ispublic":1,"isfriend":0,"isfamily":0},{"id":"52484111233","owner":"59777454@N02","secret":"374a096d5f","server":"65535","farm":66,"title":"Red-necked Grebe adult with young riding on back","ispublic":1,"isfriend":0,"isfamily":0},{"id":"52483834139","owner":"59777454@N02","secret":"03e336df39","server":"65535","farm":66,"title":"Red-necked Grebe adult with chick Tekiela TEK5931","ispublic":1,"isfriend":0,"isfamily":0},{"id":"52479987443","owner":"30638967@N03","secret":"f1e98a9f04","server":"65535","farm":66,"title":"Red-necked Grebe DSC_6981","ispublic":1,"isfriend":0,"isfamily":0},{"id":"52471888168","owner":"30638967@N03","secret":"35b000f922","server":"65535","farm":66,"title":"Red-necked Grebe DSC_9389","ispublic":1,"isfriend":0,"isfamily":0}]},"stat":"ok"}