{"photos":{"page":1,"pages":6,"perpage":100,"total":533,"photo":[{"id":"52741970150","owner":"61316002@N02","secret":"55fb31bd82","server":"65535","farm":66,"title":"REDHEATRO helenae 1363","ispublic":1,"isfriend":0,"isfamily":0},{"id":"52707583949","owner":"101409655@N07","secret":"80357bbe06","server":"65535","farm":66,"title":"Red-headed Trogon (Female)","ispublic":1,"isfriend":0,"isfamily":0},{"id":"52694802728","owner":"76617062@N08","secret":"2acc4100b7","server":"65535","farm":66,"title":"1.08149 Trogon \u00e0 t\u00eate rouge \/ Harpactes erythrocephalus erythrocephalus \/ Red-headed Trogon","ispublic":1,"isfriend":0,"isfamily":0},{"id":"52682194825","owner":"101409655@N07","secret":"81aa591a06","server":"65535","farm":66,"title":"Red-headed Trogon (Male) - 1","ispublic":1,"isfriend":0,"isfamily":0},{"id":"52570134209","owner":"55937456@N06","secret":"1338b014a7","server":"65535","farm":66,"title":"Red Headed Trogon (Male)","ispublic":1,"isfriend":0,"isfamily":0},{"id":"52450199661","owner":"61485851@N06","secret":"46f29a270a","server":"65535","farm":66,"title":"Red-headed trogon","ispublic":1,"isfriend":0,"isfamily":0},{"id":"52376514200","owner":"64074416@N06","secret":"b7810c0935","server":"65535","farm":66,"title":"Female Red-headed Trogon (Harpactes erythrocephalus \u7ea2\u5934\u54ac\u9e43)","ispublic":1,"isfriend":0,"isfamily":0},{"id":"52235194696","owner":"142422788@N06","secret":"2a68ea9328","server":"65535","farm":66,"title":"red headed trogon (harpactes erythrocephalus) - female","ispublic":1,"isfriend":0,"isfamily":0},{"id":"52209334463","owner":"142422788@N06","secret":"5fedb2001b","server":"65535","farm":66,"title":"red headed trogon (harpactes erythrocephalus) - juvenile male","ispublic":1,"isfriend":0,"isfamily":0},{"id":"52200956527","owner":"96579902@N04","secret":"d8a32b28eb","server":"65535","farm":66,"title":"Male Red-headed Trogon (Harpactes erythrocephalus) \u7ea2\u5934\u54ac\u9e43 (\u96c4)","ispublic":1,"isfriend":0,"isfamily":0},{"id":"52147855988","owner":"61485851@N06","secret":"b1975d9d71","server":"65535","farm":66,"title":"Red-headed trogon","ispublic":1,"isfriend":0,"isfamily":0},{"id":"52148332245","owner":"61485851@N06","secret":"46487b0b64","server":"65535","farm":66,"title":"Red-headed trogon","ispublic":1,"isfriend":0,"isfamily":0},{"id":"52138087186","owner":"7200351@N08","secret":"df99ed9e6e","server":"65535","farm":66,"title":"Harpactes erythrocephalus erythrocephalus","ispublic":1,"isfriend":0,"isfamily":0},{"id":"52074555680","owner":"56891930@N05","secret":"f479f8676a","server":"65535","farm":66,"title":"Male Red-headed Trogon (Harpactes erythrocephalus) \u7ea2\u5934\u54ac\u9e43 (\u96c4) - Fraser's Hill \u798f\u9686\u6e2f, Mukim Tras \u90fd\u8d56\u5deb\u91d1, Daerah Raub \u52b3\u52ff\u53bf, Pahang \u5f6d\u4ea8\u5dde, Malaysia \u9a6c\u6765\u897f\u4e9a (5K)","ispublic":1,"isfriend":0,"isfamily":0},{"id":"52010428284","owner":"28859910@N02","secret":"f8a402279a","server":"65535","farm":66,"title":"Red-headed Trogon \u2640","ispublic":1,"isfriend":0,"isfamily":0},{"id":"51724275304","owner":"61485851@N06","secret":"fc43b0d490","server":"65535","farm":66,"title":"Red-headed trogon","ispublic":1,"isfriend":0,"isfamily":0},{"id":"51679825360","owner":"61485851@N06","secret":"25cfac6672","server":"65535","farm":66,"title":"Red-headed trogon","ispublic":1,"isfriend":0,"isfamily":0},{"id":"51678820736","owner":"61485851@N06","secret":"a0321b916b","server":"65535","farm":66,"title":"Red-headed trogon","ispublic":1,"isfriend":0,"isfamily":0},{"id":"51679074323","owner":"61485851@N06","secret":"6f63f9d82e","server":"65535","farm":66,"title":"Red-headed trogon","ispublic":1,"isfriend":0,"isfamily":0},{"id":"51678017552","owner":"61485851@N06","secret":"d6b7e97016","server":"65535","farm":66,"title":"Red-headed trogon","ispublic":1,"isfriend":0,"isfamily":0},{"id":"51679491939","owner":"61485851@N06","secret":"64589fa454","server":"65535","farm":66,"title":"Red-headed trogon","ispublic":1,"isfriend":0,"isfamily":0},{"id":"51678997233","owner":"61485851@N06","secret":"51c21c8a7c","server":"65535","farm":66,"title":"Red-headed trogon","ispublic":1,"isfriend":0,"isfamily":0},{"id":"51631203354","owner":"61485851@N06","secret":"efe3b7a6af","server":"65535","farm":66,"title":"Red-headed trogon","ispublic":1,"isfriend":0,"isfamily":0},{"id":"51630659763","owner":"61485851@N06","secret":"e7bbf608c4","server":"65535","farm":66,"title":"Red-headed trogon","ispublic":1,"isfriend":0,"isfamily":0},{"id":"51627566356","owner":"61485851@N06","secret":"2a232afaa6","server":"65535","farm":66,"title":"Red-headed trogon","ispublic":1,"isfriend":0,"isfamily":0},{"id":"51624040562","owner":"61485851@N06","secret":"1ae8183a22","server":"65535","farm":66,"title":"Red-headed trogon","ispublic":1,"isfriend":0,"isfamily":0},{"id":"51355912731","owner":"61485851@N06","secret":"66c12618b9","server":"65535","farm":66,"title":"Red-headed trogon","ispublic":1,"isfriend":0,"isfamily":0},{"id":"51124367683","owner":"28859910@N02","secret":"181b3eb961","server":"65535","farm":66,"title":"The Red-headed Trogon  \u2640","ispublic":1,"isfriend":0,"isfamily":0},{"id":"51029048222","owner":"142422788@N06","secret":"a8ba56dd0b","server":"65535","farm":66,"title":"red headed trogon (harpactes erythrocephalus) - male","ispublic":1,"isfriend":0,"isfamily":0},{"id":"51015444513","owner":"142422788@N06","secret":"9ccdaeae33","server":"65535","farm":66,"title":"red headed trogon (harpactes erythrocephalus) - male","ispublic":1,"isfriend":0,"isfamily":0},{"id":"50991936166","owner":"32136583@N04","secret":"2a9f2deed7","server":"65535","farm":66,"title":"Red Headed Trogon","ispublic":1,"isfriend":0,"isfamily":0},{"id":"50337215851","owner":"39066307@N03","secret":"f9161710cc","server":"65535","farm":66,"title":"Red-headed Trogon","ispublic":1,"isfriend":0,"isfamily":0},{"id":"50332879337","owner":"61485851@N06","secret":"3f8e7553a1","server":"65535","farm":66,"title":"Red-headed trogon","ispublic":1,"isfriend":0,"isfamily":0},{"id":"50225431442","owner":"61485851@N06","secret":"d7d43a0761","server":"65535","farm":66,"title":"Red-headed trogon","ispublic":1,"isfriend":0,"isfamily":0},{"id":"50225085116","owner":"61485851@N06","secret":"5b9f1449c1","server":"65535","farm":66,"title":"Red-headed trogon","ispublic":1,"isfriend":0,"isfamily":0},{"id":"50218719287","owner":"61021753@N02","secret":"4decb068fa","server":"65535","farm":66,"title":"n153_w1150","ispublic":1,"isfriend":0,"isfamily":0},{"id":"50178899871","owner":"39066307@N03","secret":"8fece0fc5a","server":"65535","farm":66,"title":"Red-headed Trogon","ispublic":1,"isfriend":0,"isfamily":0},{"id":"50153857492","owner":"45919374@N08","secret":"8cf517d56d","server":"65535","farm":66,"title":"Red-headed trogon","ispublic":1,"isfriend":0,"isfamily":0},{"id":"50093343262","owner":"61485851@N06","secret":"d8cdebf2e4","server":"65535","farm":66,"title":"Red-headed trogon","ispublic":1,"isfriend":0,"isfamily":0},{"id":"50092688682","owner":"61485851@N06","secret":"c520be385a","server":"65535","farm":66,"title":"Red-headed trogon","ispublic":1,"isfriend":0,"isfamily":0},{"id":"50092587422","owner":"61485851@N06","secret":"0d38ab3f6f","server":"65535","farm":66,"title":"Red-headed trogon","ispublic":1,"isfriend":0,"isfamily":0},{"id":"50092326196","owner":"61485851@N06","secret":"5d2618680c","server":"65535","farm":66,"title":"Red-headed trogon","ispublic":1,"isfriend":0,"isfamily":0},{"id":"50089974513","owner":"61485851@N06","secret":"1c26497d63","server":"65535","farm":66,"title":"Red-headed trogon","ispublic":1,"isfriend":0,"isfamily":0},{"id":"50089937793","owner":"61485851@N06","secret":"0cdbb7cf8b","server":"65535","farm":66,"title":"Red-headed trogon","ispublic":1,"isfriend":0,"isfamily":0},{"id":"50089908228","owner":"61485851@N06","secret":"ae15a887e3","server":"65535","farm":66,"title":"Red-headed trogon","ispublic":1,"isfriend":0,"isfamily":0},{"id":"50089898463","owner":"61485851@N06","secret":"803dc3d6eb","server":"65535","farm":66,"title":"Red-headed trogon","ispublic":1,"isfriend":0,"isfamily":0},{"id":"50089866363","owner":"61485851@N06","secret":"96f2acc12b","server":"65535","farm":66,"title":"Red-headed trogon","ispublic":1,"isfriend":0,"isfamily":0},{"id":"50089816343","owner":"61485851@N06","secret":"a200d93cbd","server":"65535","farm":66,"title":"Red-headed trogon","ispublic":1,"isfriend":0,"isfamily":0},{"id":"50087926633","owner":"61485851@N06","secret":"fcdd455790","server":"65535","farm":66,"title":"Red-headed trogon","ispublic":1,"isfriend":0,"isfamily":0},{"id":"50088491566","owner":"61485851@N06","secret":"30523a9ff3","server":"65535","farm":66,"title":"Red-headed trogon","ispublic":1,"isfriend":0,"isfamily":0},{"id":"50084949648","owner":"187469698@N05","secret":"36375810ab","server":"65535","farm":66,"title":"497 Red-headed Trogon - Andrew Walker 001","ispublic":1,"isfriend":0,"isfamily":0},{"id":"50082318333","owner":"61485851@N06","secret":"b4d28e539e","server":"65535","farm":66,"title":"Red-headed trogon","ispublic":1,"isfriend":0,"isfamily":0},{"id":"50078863901","owner":"61485851@N06","secret":"6f5b8fbd30","server":"65535","farm":66,"title":"Red-headed trogon","ispublic":1,"isfriend":0,"isfamily":0},{"id":"50077908753","owner":"61485851@N06","secret":"19a346a45c","server":"65535","farm":66,"title":"Red-headed trogon (Lifer #15)","ispublic":1,"isfriend":0,"isfamily":0},{"id":"49910896381","owner":"55527686@N03","secret":"69c34a10fe","server":"65535","farm":66,"title":"Red-headed Trogon (annamensis) - Harpactes erythrocephalus annamensis","ispublic":1,"isfriend":0,"isfamily":0},{"id":"49911192817","owner":"55527686@N03","secret":"cddc734126","server":"65535","farm":66,"title":"Red-headed Trogon (annamensis) - Harpactes erythrocephalus annamensis","ispublic":1,"isfriend":0,"isfamily":0},{"id":"49910896261","owner":"55527686@N03","secret":"3a205b400b","server":"65535","farm":66,"title":"Red-headed Trogon (annamensis) - Harpactes erythrocephalus annamensis","ispublic":1,"isfriend":0,"isfamily":0},{"id":"49782665587","owner":"76617062@N08","secret":"1236bfeebd","server":"65535","farm":66,"title":"1.08153 Trogon \u00e0 t\u00eate rouge \/ Harpactes erythrocephalus annamensis \/ Red-headed Trogon","ispublic":1,"isfriend":0,"isfamily":0},{"id":"49778530572","owner":"184155060@N04","secret":"f82013b4de","server":"65535","farm":66,"title":"09067 Trogon \u00e0 t\u00eate rouge femelle \/ Harpactes erythrocephalus annamensis \/ Red-headed Trogon female","ispublic":1,"isfriend":0,"isfamily":0},{"id":"49704045806","owner":"72271115@N02","secret":"b03688d015","server":"65535","farm":66,"title":"Female Red-headed Trogon  --- Harpactes erythrocephalus","ispublic":1,"isfriend":0,"isfamily":0},{"id":"49689662423","owner":"28786551@N04","secret":"4e3a6264fa","server":"65535","farm":66,"title":"Red-headed Trogon","ispublic":1,"isfriend":0,"isfamily":0},{"id":"52716418520","owner":"76617062@N08","secret":"12ef359bc5","server":"65535","farm":66,"title":"1.08149 Trogon \u00e0 t\u00eate rouge \/ Harpactes erythrocephalus erythrocephalus \/ Red-headed Trogon","ispublic":1,"isfriend":0,"isfamily":0},{"id":"52662702047","owner":"86585370@N00","secret":"77404a96a9","server":"65535","farm":66,"title":"Red-headed Trogon \/\/ Republicano-de-cabe\u00e7a-vermelha","ispublic":1,"isfriend":0,"isfamily":0},{"id":"52138086976","owner":"7200351@N08","secret":"9e36e78d99","server":"65535","farm":66,"title":"Harpactes erythrocephalus erythrocephalus","ispublic":1,"isfriend":0,"isfamily":0},{"id":"51679626915","owner":"61485851@N06","secret":"b2f3733be0","server":"65535","farm":66,"title":"Red-headed trogon","ispublic":1,"isfriend":0,"isfamily":0},{"id":"51646689255","owner":"154417921@N04","secret":"197dc57050","server":"65535","farm":66,"title":"harpactes erythrocephalus roodkoptrogon 2","ispublic":1,"isfriend":0,"isfamily":0},{"id":"51645830276","owner":"154417921@N04","secret":"6eb790d926","server":"65535","farm":66,"title":"harpactes erythrocephalus roodkoptrogon 3","ispublic":1,"isfriend":0,"isfamily":0},{"id":"51646688800","owner":"154417921@N04","secret":"053ee11692","server":"65535","farm":66,"title":"harpactes erythrocephalus roodkoptrogon","ispublic":1,"isfriend":0,"isfamily":0},{"id":"51628209879","owner":"61485851@N06","secret":"bede00d97e","server":"65535","farm":66,"title":"Red-headed trogon","ispublic":1,"isfriend":0,"isfamily":0},{"id":"51192210019","owner":"10537200@N00","secret":"d3502ebb81","server":"65535","farm":66,"title":"red-headed trogon","ispublic":1,"isfriend":0,"isfamily":0},{"id":"51191439961","owner":"10537200@N00","secret":"991ed7e2be","server":"65535","farm":66,"title":"red-headed trogon","ispublic":1,"isfriend":0,"isfamily":0},{"id":"51190709497","owner":"10537200@N00","secret":"06cd4680ee","server":"65535","farm":66,"title":"red-headed trogon","ispublic":1,"isfriend":0,"isfamily":0},{"id":"51192188644","owner":"10537200@N00","secret":"66cb9d66d7","server":"65535","farm":66,"title":"red-headed trogon","ispublic":1,"isfriend":0,"isfamily":0},{"id":"51192183664","owner":"10537200@N00","secret":"e8b05829bc","server":"65535","farm":66,"title":"red-headed trogon","ispublic":1,"isfriend":0,"isfamily":0},{"id":"51192170919","owner":"10537200@N00","secret":"bc99696c71","server":"65535","farm":66,"title":"red-headed trogon","ispublic":1,"isfriend":0,"isfamily":0},{"id":"51067858417","owner":"142422788@N06","secret":"e3f124e975","server":"65535","farm":66,"title":"red headed trogon (harpactes erythrocephalus) - male","ispublic":1,"isfriend":0,"isfamily":0},{"id":"51042836868","owner":"142422788@N06","secret":"0cf3b7b13d","server":"65535","farm":66,"title":"red headed trogon (harpactes erythrocephalus) - female","ispublic":1,"isfriend":0,"isfamily":0},{"id":"50861867838","owner":"10537200@N00","secret":"177b3056d7","server":"65535","farm":66,"title":"red-headed trogon (female)","ispublic":1,"isfriend":0,"isfamily":0},{"id":"50545793776","owner":"149764685@N06","secret":"75c91410b9","server":"65535","farm":66,"title":"_DSC3363_edited","ispublic":1,"isfriend":0,"isfamily":0},{"id":"50180074477","owner":"39066307@N03","secret":"5e944d71ea","server":"65535","farm":66,"title":"Red-headed Trogon","ispublic":1,"isfriend":0,"isfamily":0},{"id":"50091925218","owner":"61485851@N06","secret":"b6fab56947","server":"65535","farm":66,"title":"Red-headed trogon","ispublic":1,"isfriend":0,"isfamily":0},{"id":"50091901208","owner":"61485851@N06","secret":"a5625bf706","server":"65535","farm":66,"title":"Red-headed trogon","ispublic":1,"isfriend":0,"isfamily":0},{"id":"50082246908","owner":"61485851@N06","secret":"f19e6fb5d3","server":"65535","farm":66,"title":"Red-headed trogon","ispublic":1,"isfriend":0,"isfamily":0},{"id":"49951426567","owner":"53968435@N00","secret":"4911fff51d","server":"65535","farm":66,"title":"409 Red-headed Trogon, Harpactes erythrocephalus","ispublic":1,"isfriend":0,"isfamily":0},{"id":"49684324036","owner":"131708321@N02","secret":"65771cbcfe","server":"65535","farm":66,"title":"Red-headed Trogon (Harpactes erythrocephalus), Bukit Fraser, Pahang, Malaysia","ispublic":1,"isfriend":0,"isfamily":0},{"id":"49643042028","owner":"8142488@N07","secret":"f4b19386f7","server":"65535","farm":66,"title":"red-headed trogon (Harpactes erythrocephalus)","ispublic":1,"isfriend":0,"isfamily":0},{"id":"49643041598","owner":"8142488@N07","secret":"320802c1fd","server":"65535","farm":66,"title":"red-headed trogon (Harpactes erythrocephalus)","ispublic":1,"isfriend":0,"isfamily":0},{"id":"49643843812","owner":"8142488@N07","secret":"a4a3ac2a29","server":"65535","farm":66,"title":"red-headed trogon (Harpactes erythrocephalus)","ispublic":1,"isfriend":0,"isfamily":0},{"id":"49643040668","owner":"8142488@N07","secret":"91f0754ea6","server":"65535","farm":66,"title":"red-headed trogon (Harpactes erythrocephalus)","ispublic":1,"isfriend":0,"isfamily":0},{"id":"49643566821","owner":"8142488@N07","secret":"93e7dda3b7","server":"65535","farm":66,"title":"red-headed trogon (Harpactes erythrocephalus)","ispublic":1,"isfriend":0,"isfamily":0},{"id":"49643566031","owner":"8142488@N07","secret":"e28df4ef35","server":"65535","farm":66,"title":"red-headed trogon (Harpactes erythrocephalus)","ispublic":1,"isfriend":0,"isfamily":0},{"id":"49643038898","owner":"8142488@N07","secret":"1650ec7371","server":"65535","farm":66,"title":"red-headed trogon (Harpactes erythrocephalus)","ispublic":1,"isfriend":0,"isfamily":0},{"id":"49643038428","owner":"8142488@N07","secret":"be4ce3471a","server":"65535","farm":66,"title":"red-headed trogon (Harpactes erythrocephalus)","ispublic":1,"isfriend":0,"isfamily":0},{"id":"49643564836","owner":"8142488@N07","secret":"d02aff018a","server":"65535","farm":66,"title":"red-headed trogon (Harpactes erythrocephalus)","ispublic":1,"isfriend":0,"isfamily":0},{"id":"49643037478","owner":"8142488@N07","secret":"44e8862dbf","server":"65535","farm":66,"title":"red-headed trogon (Harpactes erythrocephalus)","ispublic":1,"isfriend":0,"isfamily":0},{"id":"49643563886","owner":"8142488@N07","secret":"2bc3e0fbdf","server":"65535","farm":66,"title":"red-headed trogon (Harpactes erythrocephalus)","ispublic":1,"isfriend":0,"isfamily":0},{"id":"49643563506","owner":"8142488@N07","secret":"2cef292b13","server":"65535","farm":66,"title":"red-headed trogon (Harpactes erythrocephalus)","ispublic":1,"isfriend":0,"isfamily":0},{"id":"49643838952","owner":"8142488@N07","secret":"dd3b0ed10f","server":"65535","farm":66,"title":"red-headed trogon (Harpactes erythrocephalus)","ispublic":1,"isfriend":0,"isfamily":0},{"id":"49643838212","owner":"8142488@N07","secret":"8897e222be","server":"65535","farm":66,"title":"red-headed trogon (Harpactes erythrocephalus)","ispublic":1,"isfriend":0,"isfamily":0},{"id":"49643837927","owner":"8142488@N07","secret":"e4b7abb619","server":"65535","farm":66,"title":"red-headed trogon (Harpactes erythrocephalus)","ispublic":1,"isfriend":0,"isfamily":0}]},"stat":"ok"}