{"photos":{"page":1,"pages":31,"perpage":100,"total":3081,"photo":[{"id":"52720789220","owner":"145466593@N08","secret":"34e23f1fed","server":"65535","farm":66,"title":"Red-headed Woodpecker","ispublic":1,"isfriend":0,"isfamily":0},{"id":"52717975297","owner":"28764032@N00","secret":"b03cb53feb","server":"65535","farm":66,"title":"Red-headed Woodpecker, Boulder, Colorado","ispublic":1,"isfriend":0,"isfamily":0},{"id":"52718493626","owner":"28764032@N00","secret":"1a41cd97aa","server":"65535","farm":66,"title":"Red-headed Woodpecker, Boulder, Colorado","ispublic":1,"isfriend":0,"isfamily":0},{"id":"52718922240","owner":"28764032@N00","secret":"4bcc7b3a0e","server":"65535","farm":66,"title":"Red-headed Woodpecker, Boulder, Colorado","ispublic":1,"isfriend":0,"isfamily":0},{"id":"52717975262","owner":"28764032@N00","secret":"cd45ff8853","server":"65535","farm":66,"title":"Red-headed Woodpecker, Boulder, Colorado","ispublic":1,"isfriend":0,"isfamily":0},{"id":"52718986378","owner":"28764032@N00","secret":"0e72512db1","server":"65535","farm":66,"title":"Red-headed Woodpecker, Boulder, Colorado","ispublic":1,"isfriend":0,"isfamily":0},{"id":"52717975217","owner":"28764032@N00","secret":"7b6098daed","server":"65535","farm":66,"title":"Red-headed Woodpecker, Boulder, Colorado","ispublic":1,"isfriend":0,"isfamily":0},{"id":"52718493546","owner":"28764032@N00","secret":"4141c5574d","server":"65535","farm":66,"title":"Red-headed Woodpecker, Boulder, Colorado","ispublic":1,"isfriend":0,"isfamily":0},{"id":"52718761204","owner":"28764032@N00","secret":"1ca6e6eaa1","server":"65535","farm":66,"title":"Red-headed Woodpecker, Boulder, Colorado","ispublic":1,"isfriend":0,"isfamily":0},{"id":"52718707178","owner":"84169650@N07","secret":"8cc350c7c2","server":"65535","farm":66,"title":"Red Headed Woodpecker","ispublic":1,"isfriend":0,"isfamily":0},{"id":"52706912756","owner":"39177293@N03","secret":"49cb775c44","server":"65535","farm":66,"title":"Red-headed Woodpecker","ispublic":1,"isfriend":0,"isfamily":0},{"id":"52703050517","owner":"11159374@N04","secret":"5c9d12698b","server":"65535","farm":66,"title":"Red-headed Woodpecker","ispublic":1,"isfriend":0,"isfamily":0},{"id":"52700996746","owner":"51875143@N02","secret":"85b50b2145","server":"65535","farm":66,"title":"Mission Tejas SP Houston Co, TX 2013","ispublic":1,"isfriend":0,"isfamily":0},{"id":"52701252044","owner":"51875143@N02","secret":"3c0b8c3a67","server":"65535","farm":66,"title":"Mission Tejas SP Houston Co. TX 2013","ispublic":1,"isfriend":0,"isfamily":0},{"id":"52682783145","owner":"24608578@N00","secret":"c3f548a8a6","server":"65535","farm":66,"title":"Red-headed woodpecker (Melanerpes erythrocephalus)","ispublic":1,"isfriend":0,"isfamily":0},{"id":"52682783000","owner":"24608578@N00","secret":"a05c796ff4","server":"65535","farm":66,"title":"Red-headed woodpecker (Melanerpes erythrocephalus)","ispublic":1,"isfriend":0,"isfamily":0},{"id":"52682852883","owner":"24608578@N00","secret":"11ac07d5b3","server":"65535","farm":66,"title":"Red-headed woodpecker (Melanerpes erythrocephalus)","ispublic":1,"isfriend":0,"isfamily":0},{"id":"52679219544","owner":"47533293@N04","secret":"8695534a35","server":"65535","farm":66,"title":"Red-headed woodpecker, Melanerpes erythrocephalus","ispublic":1,"isfriend":0,"isfamily":0},{"id":"52675312780","owner":"64974304@N04","secret":"d8e36a9940","server":"65535","farm":66,"title":"Red-headed Woodpecker","ispublic":1,"isfriend":0,"isfamily":0},{"id":"52668017748","owner":"32599741@N03","secret":"11dd2bfc91","server":"65535","farm":66,"title":"hanging on","ispublic":1,"isfriend":0,"isfamily":0},{"id":"52662267463","owner":"196127020@N02","secret":"846b18e9f1","server":"65535","farm":66,"title":"Red-headed Woodpecker","ispublic":1,"isfriend":0,"isfamily":0},{"id":"52662267428","owner":"196127020@N02","secret":"4b512bdd40","server":"65535","farm":66,"title":"Red-headed Woodpecker","ispublic":1,"isfriend":0,"isfamily":0},{"id":"52662061529","owner":"196127020@N02","secret":"79f1343d97","server":"65535","farm":66,"title":"Red-headed Woodpecker","ispublic":1,"isfriend":0,"isfamily":0},{"id":"52661776121","owner":"196127020@N02","secret":"68d30cba99","server":"65535","farm":66,"title":"Red-headed Woodpecker","ispublic":1,"isfriend":0,"isfamily":0},{"id":"52662218705","owner":"196127020@N02","secret":"7797fcd919","server":"65535","farm":66,"title":"Red-headed Woodpecker","ispublic":1,"isfriend":0,"isfamily":0},{"id":"52662267223","owner":"196127020@N02","secret":"34623d2a39","server":"65535","farm":66,"title":"Red-headed Woodpecker","ispublic":1,"isfriend":0,"isfamily":0},{"id":"52656075916","owner":"93273765@N05","secret":"690f3d962c","server":"65535","farm":66,"title":"Immature Red-headed Woodpecker (Melanerpes erythrocephalus)","ispublic":1,"isfriend":0,"isfamily":0},{"id":"52652725373","owner":"64974304@N04","secret":"a961730406","server":"65535","farm":66,"title":"Red-headed Woodpecker","ispublic":1,"isfriend":0,"isfamily":0},{"id":"52632192939","owner":"61241315@N00","secret":"c349183f5b","server":"0","farm":0,"title":"Red-headed Woodpecker_4922,23.MP4","ispublic":1,"isfriend":0,"isfamily":0},{"id":"52631932486","owner":"61241315@N00","secret":"866722367e","server":"65535","farm":66,"title":"Red-headed Woodpecker_Blue Jay_N5010","ispublic":1,"isfriend":0,"isfamily":0},{"id":"52632187719","owner":"61241315@N00","secret":"dd49a41ec8","server":"65535","farm":66,"title":"Red-headed Woodpecker_N5024","ispublic":1,"isfriend":0,"isfamily":0},{"id":"52631417387","owner":"61241315@N00","secret":"42eda12f76","server":"65535","farm":66,"title":"Red-headed Woodpecker_N5028","ispublic":1,"isfriend":0,"isfamily":0},{"id":"52631417372","owner":"61241315@N00","secret":"7942e63411","server":"65535","farm":66,"title":"Red-headed Woodpecker_Blue Jay_N5039","ispublic":1,"isfriend":0,"isfamily":0},{"id":"52632415423","owner":"61241315@N00","secret":"153f75e455","server":"65535","farm":66,"title":"Red-headed Woodpecker_Blue Jay_N5041","ispublic":1,"isfriend":0,"isfamily":0},{"id":"52632415398","owner":"61241315@N00","secret":"e730858107","server":"65535","farm":66,"title":"Red-headed Woodpecker_N4918","ispublic":1,"isfriend":0,"isfamily":0},{"id":"52630690724","owner":"169771858@N03","secret":"4996e2b0a9","server":"65535","farm":66,"title":"Red-Headed Woodpecker - 2021-11-07","ispublic":1,"isfriend":0,"isfamily":0},{"id":"52629914065","owner":"67164820@N06","secret":"ab4f127b07","server":"65535","farm":66,"title":"red-headed woodpecker A","ispublic":1,"isfriend":0,"isfamily":0},{"id":"52628956867","owner":"67164820@N06","secret":"ee6caf7f07","server":"65535","farm":66,"title":"red-headed woodpecker B","ispublic":1,"isfriend":0,"isfamily":0},{"id":"52628956612","owner":"67164820@N06","secret":"fa00dbf5f8","server":"65535","farm":66,"title":"red-headed woodpecker C","ispublic":1,"isfriend":0,"isfamily":0},{"id":"52629913515","owner":"67164820@N06","secret":"eda35ff7fa","server":"65535","farm":66,"title":"red-headed woodpecker D","ispublic":1,"isfriend":0,"isfamily":0},{"id":"52620976826","owner":"89367133@N00","secret":"f9ca04d169","server":"65535","farm":66,"title":"Pic glandivore (Melanerpes erythrocephalus).","ispublic":1,"isfriend":0,"isfamily":0},{"id":"52618805202","owner":"38514062@N03","secret":"b295b514ed","server":"65535","farm":66,"title":"Red-headed Woodpecker (Melanerpes erythrocephalus)","ispublic":1,"isfriend":0,"isfamily":0},{"id":"52619586764","owner":"38514062@N03","secret":"8dc88cc49b","server":"65535","farm":66,"title":"Red-headed Woodpecker (Melanerpes erythrocephalus)","ispublic":1,"isfriend":0,"isfamily":0},{"id":"52618244330","owner":"130605131@N08","secret":"19cb71afe4","server":"65535","farm":66,"title":"IMG_3049","ispublic":1,"isfriend":0,"isfamily":0},{"id":"52618296653","owner":"130605131@N08","secret":"9e84d6c99c","server":"65535","farm":66,"title":"IMG_3048","ispublic":1,"isfriend":0,"isfamily":0},{"id":"52617809586","owner":"130605131@N08","secret":"8fc1e210d3","server":"65535","farm":66,"title":"IMG_3047","ispublic":1,"isfriend":0,"isfamily":0},{"id":"52618296623","owner":"130605131@N08","secret":"46bdea6853","server":"65535","farm":66,"title":"IMG_3045","ispublic":1,"isfriend":0,"isfamily":0},{"id":"52617809546","owner":"130605131@N08","secret":"98e0bb8650","server":"65535","farm":66,"title":"IMG_3044","ispublic":1,"isfriend":0,"isfamily":0},{"id":"52618244225","owner":"130605131@N08","secret":"17671582a9","server":"65535","farm":66,"title":"IMG_3042","ispublic":1,"isfriend":0,"isfamily":0},{"id":"52617809526","owner":"130605131@N08","secret":"1f76a8267f","server":"65535","farm":66,"title":"IMG_3043","ispublic":1,"isfriend":0,"isfamily":0},{"id":"52616402623","owner":"128537732@N06","secret":"098ba7195e","server":"65535","farm":66,"title":"Red-headed Woodpecker (Melanerpes erythrocephalus)","ispublic":1,"isfriend":0,"isfamily":0},{"id":"52616402378","owner":"128537732@N06","secret":"e5dc7c2f4f","server":"65535","farm":66,"title":"Red-headed Woodpecker (Melanerpes erythrocephalus)","ispublic":1,"isfriend":0,"isfamily":0},{"id":"52616401973","owner":"128537732@N06","secret":"938c55669f","server":"65535","farm":66,"title":"Red-headed Woodpecker (Melanerpes erythrocephalus)","ispublic":1,"isfriend":0,"isfamily":0},{"id":"52616344730","owner":"128537732@N06","secret":"5aa184bb3a","server":"65535","farm":66,"title":"Red-headed Woodpecker (Melanerpes erythrocephalus)","ispublic":1,"isfriend":0,"isfamily":0},{"id":"52615306910","owner":"93273765@N05","secret":"3b8bdc0645","server":"65535","farm":66,"title":"Red-headed Woodpecker (Melanerpes erythrocephalus)","ispublic":1,"isfriend":0,"isfamily":0},{"id":"52612572167","owner":"39445433@N02","secret":"aed68eb896","server":"65535","farm":66,"title":"Red-Headed Woodpecker","ispublic":1,"isfriend":0,"isfamily":0},{"id":"52613339454","owner":"39445433@N02","secret":"60c80073e4","server":"65535","farm":66,"title":"Red-Headed Woodpecker","ispublic":1,"isfriend":0,"isfamily":0},{"id":"52612571907","owner":"39445433@N02","secret":"51f1afa546","server":"65535","farm":66,"title":"Red-Headed Woodpecker","ispublic":1,"isfriend":0,"isfamily":0},{"id":"52612571812","owner":"39445433@N02","secret":"2476927bd3","server":"65535","farm":66,"title":"Red-Headed Woodpecker","ispublic":1,"isfriend":0,"isfamily":0},{"id":"52613500710","owner":"39445433@N02","secret":"af1957dd0d","server":"65535","farm":66,"title":"Red-Headed Woodpecker","ispublic":1,"isfriend":0,"isfamily":0},{"id":"52613339189","owner":"39445433@N02","secret":"41c79b7b5f","server":"65535","farm":66,"title":"Red-Headed Woodpecker","ispublic":1,"isfriend":0,"isfamily":0},{"id":"52595168850","owner":"22420387@N07","secret":"943c0ba0f6","server":"65535","farm":66,"title":"Red-headed Woodpecker - DEL_7376 - LR","ispublic":1,"isfriend":0,"isfamily":0},{"id":"52581816124","owner":"76288515@N07","secret":"d57c2f081e","server":"65535","farm":66,"title":"Red-headed Woodpecker Melanerpes erythrocephalus","ispublic":1,"isfriend":0,"isfamily":0},{"id":"52581988800","owner":"76288515@N07","secret":"5cbae62824","server":"65535","farm":66,"title":"Red-headed Woodpecker Melanerpes erythrocephalus","ispublic":1,"isfriend":0,"isfamily":0},{"id":"52581553706","owner":"76288515@N07","secret":"1ff3cc4fc8","server":"65535","farm":66,"title":"Red-headed Woodpecker Melanerpes erythrocephalus","ispublic":1,"isfriend":0,"isfamily":0},{"id":"52581090627","owner":"76288515@N07","secret":"aeb5d13c8c","server":"65535","farm":66,"title":"Red-headed Woodpecker Melanerpes erythrocephalus","ispublic":1,"isfriend":0,"isfamily":0},{"id":"52581553681","owner":"76288515@N07","secret":"99ca051a2f","server":"65535","farm":66,"title":"Red-headed Woodpecker Melanerpes erythrocephalus","ispublic":1,"isfriend":0,"isfamily":0},{"id":"52581090607","owner":"76288515@N07","secret":"91768562d6","server":"65535","farm":66,"title":"Red-headed Woodpecker Melanerpes erythrocephalus","ispublic":1,"isfriend":0,"isfamily":0},{"id":"52582069543","owner":"76288515@N07","secret":"0de38e4444","server":"65535","farm":66,"title":"Red-headed Woodpecker Melanerpes erythrocephalus","ispublic":1,"isfriend":0,"isfamily":0},{"id":"52581988710","owner":"76288515@N07","secret":"fb2dc20055","server":"65535","farm":66,"title":"Red-headed Woodpecker Melanerpes erythrocephalus","ispublic":1,"isfriend":0,"isfamily":0},{"id":"52557313685","owner":"64974304@N04","secret":"af8ae7a4c5","server":"65535","farm":66,"title":"Red-headed Woodpecker (immature)","ispublic":1,"isfriend":0,"isfamily":0},{"id":"52553845540","owner":"169771858@N03","secret":"b914f18e57","server":"65535","farm":66,"title":"Red-Headed Woodpecker #2 - 2022-03-20","ispublic":1,"isfriend":0,"isfamily":0},{"id":"52544618775","owner":"131708321@N02","secret":"e5a41ccf9f","server":"65535","farm":66,"title":"Red-headed Woodpecker (Melanerpes erythrocephalus), Croatan National Forest, North Carolina","ispublic":1,"isfriend":0,"isfamily":0},{"id":"52533113923","owner":"119095828@N03","secret":"045bd51b67","server":"65535","farm":66,"title":"Red-headed Woodpecker (Melanerpes erythrocephalus)","ispublic":1,"isfriend":0,"isfamily":0},{"id":"52516063610","owner":"168495655@N07","secret":"de0fbbfeaf","server":"65535","farm":66,"title":"Pic \u00e0 t\u00eate rouge - Melanerpes erythrocephalus - Red-headed Woodpecker","ispublic":1,"isfriend":0,"isfamily":0},{"id":"52508812521","owner":"169771858@N03","secret":"9d64e5fe9f","server":"65535","farm":66,"title":"Red-Headed Woodpecker (2022-03-20 #1).","ispublic":1,"isfriend":0,"isfamily":0},{"id":"52495515624","owner":"64557331@N04","secret":"ec19d5fcca","server":"65535","farm":66,"title":"Rred-Headed Woodpecker - (Melanerpes erythrocephalus)_05292022.","ispublic":1,"isfriend":0,"isfamily":0},{"id":"52491403481","owner":"36685968@N00","secret":"e7f361f241","server":"65535","farm":66,"title":"Red-headed Woodpecker (Melanerpes erythrocephalus)","ispublic":1,"isfriend":0,"isfamily":0},{"id":"52484037670","owner":"59777454@N02","secret":"082c8d06d2","server":"65535","farm":66,"title":"Red-headed Woodpecker adult at cavity Tekiela TEK5182","ispublic":1,"isfriend":0,"isfamily":0},{"id":"52438230941","owner":"145466593@N08","secret":"a90db57795","server":"65535","farm":66,"title":"Red-headed Woodpecker","ispublic":1,"isfriend":0,"isfamily":0},{"id":"52427926493","owner":"39177293@N03","secret":"06e45b464a","server":"65535","farm":66,"title":"Red-headed Woodpecker","ispublic":1,"isfriend":0,"isfamily":0},{"id":"52414062949","owner":"71989271@N06","secret":"bb9dc09508","server":"65535","farm":66,"title":"Red-headed Woodpecker (Melanerpes erythrocephalus)","ispublic":1,"isfriend":0,"isfamily":0},{"id":"52409731266","owner":"32599741@N03","secret":"e284211eeb","server":"65535","farm":66,"title":"mouthfull","ispublic":1,"isfriend":0,"isfamily":0},{"id":"52398166749","owner":"33982546@N05","secret":"6c2ef60101","server":"65535","farm":66,"title":"Red-headed Leaving Nest","ispublic":1,"isfriend":0,"isfamily":0},{"id":"52369106555","owner":"169771858@N03","secret":"ef55c5856f","server":"65535","farm":66,"title":"Red-Headed Woodpecker #9 - 2021-11-19","ispublic":1,"isfriend":0,"isfamily":0},{"id":"52364435718","owner":"169771858@N03","secret":"b359babcb7","server":"65535","farm":66,"title":"Red-Headed Woodpecker #7 - 2021-11-19","ispublic":1,"isfriend":0,"isfamily":0},{"id":"52360738383","owner":"10105106@N07","secret":"ecdb8aa335","server":"65535","farm":66,"title":"Red-headed Woodpecker (juvenile)","ispublic":1,"isfriend":0,"isfamily":0},{"id":"52359704124","owner":"169771858@N03","secret":"4c29a22558","server":"65535","farm":66,"title":"Red-Headed Woodpecker #5 - 2021-11-19","ispublic":1,"isfriend":0,"isfamily":0},{"id":"52355020686","owner":"169771858@N03","secret":"0ac258ee1e","server":"65535","farm":66,"title":"Red-Headed Woodpecker #3 - 2021-11-19","ispublic":1,"isfriend":0,"isfamily":0},{"id":"52350009645","owner":"169771858@N03","secret":"5308815008","server":"65535","farm":66,"title":"Red-Headed Woodpecker #1 - 2021-11-19","ispublic":1,"isfriend":0,"isfamily":0},{"id":"52349022409","owner":"188214336@N08","secret":"29ce8ed27e","server":"65535","farm":66,"title":"DSC_0506-2 Red-Headed Woodpecker and Blue Jay","ispublic":1,"isfriend":0,"isfamily":0},{"id":"52348703831","owner":"188214336@N08","secret":"69ce23bd38","server":"65535","farm":66,"title":"DSC_0523-2R2 Red-Headed Woodpecker","ispublic":1,"isfriend":0,"isfamily":0},{"id":"52347750022","owner":"188214336@N08","secret":"16a7ab768d","server":"65535","farm":66,"title":"DSC_0571-2R2 Red-Headed Woodpecker","ispublic":1,"isfriend":0,"isfamily":0},{"id":"52347540845","owner":"92361032@N05","secret":"152b5994f1","server":"65535","farm":66,"title":"Red-headed Woodpecker \/ Pic \u00e0 t\u00eate rouge ( Richard )","ispublic":1,"isfriend":0,"isfamily":0},{"id":"52329329059","owner":"86521802@N00","secret":"9408f62a7d","server":"65535","farm":66,"title":"Red-headed Woodpecker (Melanerpes erythrocephalus)","ispublic":1,"isfriend":0,"isfamily":0},{"id":"52309590331","owner":"169771858@N03","secret":"f369896429","server":"65535","farm":66,"title":"Red-Headed Woodpecker #2 - 2021-11-19","ispublic":1,"isfriend":0,"isfamily":0},{"id":"52306654104","owner":"10260434@N03","secret":"bd97f03614","server":"65535","farm":66,"title":"Red-head-25May22","ispublic":1,"isfriend":0,"isfamily":0},{"id":"52304621147","owner":"169771858@N03","secret":"db19c624ce","server":"65535","farm":66,"title":"Red-Headed Woodpecker #4 - 2021-11-19","ispublic":1,"isfriend":0,"isfamily":0},{"id":"52301005210","owner":"169771858@N03","secret":"0b013ddf82","server":"65535","farm":66,"title":"Red-Headed Woodpecker #6 - 2021-11-19","ispublic":1,"isfriend":0,"isfamily":0},{"id":"52295691055","owner":"169771858@N03","secret":"b676a6c273","server":"65535","farm":66,"title":"Red-Headed Woodpecker #8 - 2021-11-19","ispublic":1,"isfriend":0,"isfamily":0}]},"stat":"ok"}