{"photos":{"page":1,"pages":23,"perpage":100,"total":2291,"photo":[{"id":"52710789234","owner":"7413414@N02","secret":"13dae04790","server":"65535","farm":66,"title":"Taking a break","ispublic":1,"isfriend":0,"isfamily":0},{"id":"52706351997","owner":"12639178@N07","secret":"4d3a364513","server":"65535","farm":66,"title":"Quetzal (Pharomachrus moccinno)","ispublic":1,"isfriend":0,"isfamily":0},{"id":"52705504472","owner":"27566485@N02","secret":"cc4615caaa","server":"65535","farm":66,"title":"The resplendent quetzal (Pharomachrus mocinno)","ispublic":1,"isfriend":0,"isfamily":0},{"id":"52683456021","owner":"190773540@N03","secret":"23239dda42","server":"65535","farm":66,"title":"Resplendent Quetzal (male) Costa Rica","ispublic":1,"isfriend":0,"isfamily":0},{"id":"52682941713","owner":"131074378@N04","secret":"961f8ce1b3","server":"65535","farm":66,"title":"original","ispublic":1,"isfriend":0,"isfamily":0},{"id":"52671291321","owner":"48945861@N06","secret":"381eba4bb6","server":"65535","farm":66,"title":"Resplendent quetzal","ispublic":1,"isfriend":0,"isfamily":0},{"id":"52654280449","owner":"27566485@N02","secret":"cc728e68c2","server":"65535","farm":66,"title":"The resplendent quetzal (Pharomachrus mocinno)","ispublic":1,"isfriend":0,"isfamily":0},{"id":"52651696219","owner":"65788177@N02","secret":"7c7722d6e4","server":"65535","farm":66,"title":"Resplendent Quetzal","ispublic":1,"isfriend":0,"isfamily":0},{"id":"52651777516","owner":"33982546@N05","secret":"7b6ffbb342","server":"65535","farm":66,"title":"Resplendent Quetzal Flight (1 of 1)","ispublic":1,"isfriend":0,"isfamily":0},{"id":"52651548298","owner":"52321838@N05","secret":"e30f6b56b7","server":"65535","farm":66,"title":"Reverse Q","ispublic":1,"isfriend":0,"isfamily":0},{"id":"52650501812","owner":"52321838@N05","secret":"451425ed00","server":"65535","farm":66,"title":"Reclaiming the letter Q","ispublic":1,"isfriend":0,"isfamily":0},{"id":"52644866374","owner":"7413414@N02","secret":"154e194fd0","server":"65535","farm":66,"title":"Diamond in the rough","ispublic":1,"isfriend":0,"isfamily":0},{"id":"52632632032","owner":"7413414@N02","secret":"2cf986307a","server":"65535","farm":66,"title":"Eye Spy","ispublic":1,"isfriend":0,"isfamily":0},{"id":"52608629445","owner":"50124355@N02","secret":"3273b1c0e6","server":"65535","farm":66,"title":"Quetzal (Pharomachrus mocinno), Savegre-Tal, Costa Rica","ispublic":1,"isfriend":0,"isfamily":0},{"id":"52608468479","owner":"50124355@N02","secret":"3705310855","server":"65535","farm":66,"title":"Quetzal (Pharomachrus mocinno), Savegre-Tal, Costa Rica","ispublic":1,"isfriend":0,"isfamily":0},{"id":"52607707077","owner":"50124355@N02","secret":"174eeaa4b2","server":"65535","farm":66,"title":"Quetzal (Pharomachrus mocinno), Savegre-Tal, Costa Rica","ispublic":1,"isfriend":0,"isfamily":0},{"id":"52608704393","owner":"50124355@N02","secret":"56c2b9a177","server":"65535","farm":66,"title":"Quetzal (Pharomachrus mocinno), Savegre-Tal, Costa Rica","ispublic":1,"isfriend":0,"isfamily":0},{"id":"52608210566","owner":"50124355@N02","secret":"6f2ede815a","server":"65535","farm":66,"title":"Quetzal (Pharomachrus mocinno), Savegre-Tal, Costa Rica","ispublic":1,"isfriend":0,"isfamily":0},{"id":"52608468289","owner":"50124355@N02","secret":"bde6d6facd","server":"65535","farm":66,"title":"Quetzal (Pharomachrus mocinno), Savegre-Tal, Costa Rica","ispublic":1,"isfriend":0,"isfamily":0},{"id":"52608468234","owner":"50124355@N02","secret":"866c0b1115","server":"65535","farm":66,"title":"Quetzal (Pharomachrus mocinno), Savegre-Tal, Costa Rica","ispublic":1,"isfriend":0,"isfamily":0},{"id":"52608629100","owner":"50124355@N02","secret":"1346c78600","server":"65535","farm":66,"title":"Quetzal (Pharomachrus mocinno), Savegre-Tal, Costa Rica","ispublic":1,"isfriend":0,"isfamily":0},{"id":"52608468074","owner":"50124355@N02","secret":"56bfaea3cb","server":"65535","farm":66,"title":"Quetzal (Pharomachrus mocinno), Savegre-Tal, Costa Rica","ispublic":1,"isfriend":0,"isfamily":0},{"id":"52607706712","owner":"50124355@N02","secret":"5ff2a38c01","server":"65535","farm":66,"title":"Quetzal (Pharomachrus mocinno), Savegre-Tal, Costa Rica","ispublic":1,"isfriend":0,"isfamily":0},{"id":"52608467959","owner":"50124355@N02","secret":"08afe6e052","server":"65535","farm":66,"title":"Quetzal (Pharomachrus mocinno), Savegre-Tal, Costa Rica","ispublic":1,"isfriend":0,"isfamily":0},{"id":"52608703943","owner":"50124355@N02","secret":"70f4af8098","server":"65535","farm":66,"title":"Quetzal (Pharomachrus mocinno), Savegre-Tal, Costa Rica","ispublic":1,"isfriend":0,"isfamily":0},{"id":"52608210051","owner":"50124355@N02","secret":"72812a60a6","server":"65535","farm":66,"title":"Quetzal (Pharomachrus mocinno), Savegre-Tal, Costa Rica","ispublic":1,"isfriend":0,"isfamily":0},{"id":"52608627080","owner":"50124355@N02","secret":"7d5143b2f1","server":"65535","farm":66,"title":"Quetzal (Pharomachrus mocinno), Savegre-Tal, Costa Rica","ispublic":1,"isfriend":0,"isfamily":0},{"id":"52608465939","owner":"50124355@N02","secret":"4bed3f8b14","server":"65535","farm":66,"title":"Quetzal (Pharomachrus mocinno), Savegre-Tal, Costa Rica","ispublic":1,"isfriend":0,"isfamily":0},{"id":"52608702043","owner":"50124355@N02","secret":"a3a9a9ecf9","server":"65535","farm":66,"title":"Quetzal (Pharomachrus mocinno), Savegre-Tal, Costa Rica","ispublic":1,"isfriend":0,"isfamily":0},{"id":"52607704447","owner":"50124355@N02","secret":"a120da9cbd","server":"65535","farm":66,"title":"Quetzal (Pharomachrus mocinno), Savegre-Tal, Costa Rica","ispublic":1,"isfriend":0,"isfamily":0},{"id":"52607704402","owner":"50124355@N02","secret":"ac1a7d711b","server":"65535","farm":66,"title":"Quetzal (Pharomachrus mocinno), Savegre-Tal, Costa Rica","ispublic":1,"isfriend":0,"isfamily":0},{"id":"52608626750","owner":"50124355@N02","secret":"ff594c2b7e","server":"65535","farm":66,"title":"Quetzal (Pharomachrus mocinno), Savegre-Tal, Costa Rica","ispublic":1,"isfriend":0,"isfamily":0},{"id":"52608465454","owner":"50124355@N02","secret":"c5ab33561a","server":"65535","farm":66,"title":"Quetzal (Pharomachrus mocinno), Savegre-Tal, Costa Rica","ispublic":1,"isfriend":0,"isfamily":0},{"id":"52595812027","owner":"149433238@N03","secret":"2293bbf017","server":"65535","farm":66,"title":"Front view of Male Resplendent QuetzalBird - Costa Rica.","ispublic":1,"isfriend":0,"isfamily":0},{"id":"52580076569","owner":"7413414@N02","secret":"d4dbd648bb","server":"65535","farm":66,"title":"Resplendent","ispublic":1,"isfriend":0,"isfamily":0},{"id":"52550511732","owner":"7413414@N02","secret":"472f5c0dd8","server":"65535","farm":66,"title":"The most beautiful bird in the world","ispublic":1,"isfriend":0,"isfamily":0},{"id":"52541150234","owner":"48938938@N04","secret":"ab82a4e5f7","server":"65535","farm":66,"title":"Resplendet Quetzal_Pharomachrus mocinno_Ascanio_Costa Rica_DZ3A6938","ispublic":1,"isfriend":0,"isfamily":0},{"id":"52541331415","owner":"48938938@N04","secret":"3a665a3a8d","server":"65535","farm":66,"title":"Resplendet Quetzal_Pharomachrus mocinno_Ascanio_Costa Rica_DZ3A6951","ispublic":1,"isfriend":0,"isfamily":0},{"id":"52541147944","owner":"48938938@N04","secret":"eb7dc58fbb","server":"65535","farm":66,"title":"Resplendet Quetzal_Pharomachrus mocinno_Ascanio_Costa Rica_DZ3A6952","ispublic":1,"isfriend":0,"isfamily":0},{"id":"52540846916","owner":"48938938@N04","secret":"7446c95f8d","server":"65535","farm":66,"title":"Resplendet Quetzal_Pharomachrus mocinno_Ascanio_Costa Rica_DZ3A6959","ispublic":1,"isfriend":0,"isfamily":0},{"id":"52540844576","owner":"48938938@N04","secret":"8be718d19f","server":"65535","farm":66,"title":"Resplendet Quetzal_Pharomachrus mocinno_Ascanio_Costa Rica_DZ3A6986","ispublic":1,"isfriend":0,"isfamily":0},{"id":"52527335063","owner":"36274920@N05","secret":"a1cb02bd00","server":"65535","farm":66,"title":"Panam\u00e1 - Novembre 2022","ispublic":1,"isfriend":0,"isfamily":0},{"id":"52492696857","owner":"61062164@N08","secret":"5152e551c0","server":"65535","farm":66,"title":"DSC_0582-NEF_DxO DP2","ispublic":1,"isfriend":0,"isfamily":0},{"id":"52474281619","owner":"131708321@N02","secret":"8681fb1dfb","server":"65535","farm":66,"title":"Resplendent Quetzal (Pharomachrus mocinno), Bar\u00fa, Panama","ispublic":1,"isfriend":0,"isfamily":0},{"id":"52463330888","owner":"61062164@N08","secret":"66967bb2b8","server":"65535","farm":66,"title":"DSC_0568-NEF_DxO DP2","ispublic":1,"isfriend":0,"isfamily":0},{"id":"52459021138","owner":"146357337@N08","secret":"9a9460be89","server":"65535","farm":66,"title":"Quetzal Resplandeciente [Pharomachrus mocinno] Panam\u00e1","ispublic":1,"isfriend":0,"isfamily":0},{"id":"52428632615","owner":"65788177@N02","secret":"eb0fe02a04","server":"65535","farm":66,"title":"Resplendent Quetzal","ispublic":1,"isfriend":0,"isfamily":0},{"id":"52380152759","owner":"65788177@N02","secret":"48251ffd26","server":"65535","farm":66,"title":"Resplendent Quetzal","ispublic":1,"isfriend":0,"isfamily":0},{"id":"52297638917","owner":"54100598@N08","secret":"225d64baa0","server":"0","farm":0,"title":"Resplendent Quetzal (Pharomachrus mocinno)","ispublic":1,"isfriend":0,"isfamily":0},{"id":"52293223943","owner":"58798926@N07","secret":"9d73558292","server":"65535","farm":66,"title":"The mysterious cloud forest hosts an infinite number of species which evolved by adapting to often dark, cold and very humid conditions. Since my first visit in this ecosystem in 1996, I felled and stayed in love ! Pic taken in Colombia with the cellphone","ispublic":1,"isfriend":0,"isfamily":0},{"id":"52277276174","owner":"103806413@N07","secret":"506292fca2","server":"65535","farm":66,"title":"20220419_5461_Los Quetzales_Quetzal resplendissant","ispublic":1,"isfriend":0,"isfamily":0},{"id":"52277028043","owner":"103806413@N07","secret":"cb8a1ab0f5","server":"65535","farm":66,"title":"20220419_5659_Los Quetzales_Quetzal resplendissant","ispublic":1,"isfriend":0,"isfamily":0},{"id":"52277275599","owner":"103806413@N07","secret":"bbea1d0e00","server":"65535","farm":66,"title":"20220419_5644_Los Quetzales_Quetzal resplendissant","ispublic":1,"isfriend":0,"isfamily":0},{"id":"52276032792","owner":"103806413@N07","secret":"bc53305ef1","server":"65535","farm":66,"title":"20220419_5526_Los Quetzales_Quetzal resplendissant","ispublic":1,"isfriend":0,"isfamily":0},{"id":"52277490255","owner":"103806413@N07","secret":"c80c60de7d","server":"65535","farm":66,"title":"20220419_5494_Los Quetzales_Quetzal resplendissant","ispublic":1,"isfriend":0,"isfamily":0},{"id":"52272397936","owner":"103806413@N07","secret":"8d2a57b436","server":"65535","farm":66,"title":"20220418_4853_Los Quetzales_Quetzal resplendissant","ispublic":1,"isfriend":0,"isfamily":0},{"id":"52272658479","owner":"103806413@N07","secret":"d7fe6baef9","server":"65535","farm":66,"title":"20220418_4718_Los Quetzales_Quetzal resplendissant","ispublic":1,"isfriend":0,"isfamily":0},{"id":"52271428322","owner":"103806413@N07","secret":"7bf349df5b","server":"65535","farm":66,"title":"20220418_4715_Los Quetzales_Quetzal resplendissant","ispublic":1,"isfriend":0,"isfamily":0},{"id":"52272657624","owner":"103806413@N07","secret":"493215f47f","server":"65535","farm":66,"title":"20220419_5448_Los Quetzales_Quetzal resplendissant","ispublic":1,"isfriend":0,"isfamily":0},{"id":"52241448846","owner":"193142500@N08","secret":"12921f7c1f","server":"65535","farm":66,"title":"Resplendent quetzal (male)","ispublic":1,"isfriend":0,"isfamily":0},{"id":"52241940170","owner":"193142500@N08","secret":"b7081a884d","server":"65535","farm":66,"title":"Male resplendent quetzal","ispublic":1,"isfriend":0,"isfamily":0},{"id":"52707306160","owner":"12639178@N07","secret":"9f74820a03","server":"65535","farm":66,"title":"Quetzal (Pharomachrus mocinno)","ispublic":1,"isfriend":0,"isfamily":0},{"id":"52597910231","owner":"12639178@N07","secret":"54f69e0bc0","server":"65535","farm":66,"title":"Quetzal M","ispublic":1,"isfriend":0,"isfamily":0},{"id":"52541325805","owner":"48938938@N04","secret":"af4f706317","server":"65535","farm":66,"title":"Resplendet Quetzal_Pharomachrus mocinno_Ascanio_Costa Rica_DZ3A6966","ispublic":1,"isfriend":0,"isfamily":0},{"id":"52351793239","owner":"131708321@N02","secret":"0b87af45f1","server":"65535","farm":66,"title":"Resplendent Quetzal (Pharomachrus mocinno), Chiriqu\u00ed, Panama","ispublic":1,"isfriend":0,"isfamily":0},{"id":"52299978401","owner":"145824323@N05","secret":"8f728ee3db","server":"65535","farm":66,"title":"Resplendent quetzal (Pharomachrus mocinno)","ispublic":1,"isfriend":0,"isfamily":0},{"id":"52290091891","owner":"12639178@N07","secret":"9b78f2e413","server":"65535","farm":66,"title":"Quetzal (Pharomachrus mocinno) M","ispublic":1,"isfriend":0,"isfamily":0},{"id":"52290350274","owner":"12639178@N07","secret":"5490c896df","server":"65535","farm":66,"title":"Quetzal (Pharomachrus mocinno) M (Belegfoto)","ispublic":1,"isfriend":0,"isfamily":0},{"id":"52272420488","owner":"103806413@N07","secret":"5a22f37911","server":"65535","farm":66,"title":"20220419_5403_Los Quetzales_Quetzal resplendissant","ispublic":1,"isfriend":0,"isfamily":0},{"id":"52271430487","owner":"103806413@N07","secret":"aca1f22bc7","server":"65535","farm":66,"title":"20220419_5390_Los Quetzales_Quetzal resplendissant","ispublic":1,"isfriend":0,"isfamily":0},{"id":"52272398531","owner":"103806413@N07","secret":"6e1bedb317","server":"65535","farm":66,"title":"20220418_4871_Los Quetzales_Quetzal resplendissant","ispublic":1,"isfriend":0,"isfamily":0},{"id":"52271430117","owner":"103806413@N07","secret":"28b2fc47dc","server":"65535","farm":66,"title":"20220418_4865_Los Quetzales_Quetzal resplendissant","ispublic":1,"isfriend":0,"isfamily":0},{"id":"52271429892","owner":"103806413@N07","secret":"81627aefe5","server":"65535","farm":66,"title":"20220418_4854_Los Quetzales_Quetzal resplendissant","ispublic":1,"isfriend":0,"isfamily":0},{"id":"52272397761","owner":"103806413@N07","secret":"5b0c6bb596","server":"65535","farm":66,"title":"20220418_4852_Los Quetzales_Quetzal resplendissant","ispublic":1,"isfriend":0,"isfamily":0},{"id":"52272659464","owner":"103806413@N07","secret":"5f30f5eabb","server":"65535","farm":66,"title":"20220418_4833_Los Quetzales_Quetzal resplendissant","ispublic":1,"isfriend":0,"isfamily":0},{"id":"52272419263","owner":"103806413@N07","secret":"d720b1e15d","server":"65535","farm":66,"title":"20220418_4822_Los Quetzales_Quetzal resplendissant","ispublic":1,"isfriend":0,"isfamily":0},{"id":"52271429162","owner":"103806413@N07","secret":"9d43fed4b4","server":"65535","farm":66,"title":"20220418_4819_Los Quetzales_Quetzal resplendissant","ispublic":1,"isfriend":0,"isfamily":0},{"id":"52272887220","owner":"103806413@N07","secret":"5b440ed1bf","server":"65535","farm":66,"title":"20220418_4753_Los Quetzales_Quetzal resplendissant","ispublic":1,"isfriend":0,"isfamily":0},{"id":"52272886970","owner":"103806413@N07","secret":"6810a08986","server":"65535","farm":66,"title":"20220418_4743_Los Quetzales_Quetzal resplendissant","ispublic":1,"isfriend":0,"isfamily":0},{"id":"52272658649","owner":"103806413@N07","secret":"3ebd7e1cf4","server":"65535","farm":66,"title":"20220418_4728_Los Quetzales_Quetzal resplendissant","ispublic":1,"isfriend":0,"isfamily":0},{"id":"52272396241","owner":"103806413@N07","secret":"0b2742f215","server":"65535","farm":66,"title":"20220418_4697_Los Quetzales_Quetzal resplendissant","ispublic":1,"isfriend":0,"isfamily":0},{"id":"52272657934","owner":"103806413@N07","secret":"bb12e4d4ac","server":"65535","farm":66,"title":"20220418_4667_Los Quetzales_Quetzal resplendissant","ispublic":1,"isfriend":0,"isfamily":0},{"id":"52272417588","owner":"103806413@N07","secret":"f34e29cf55","server":"65535","farm":66,"title":"20220419_5460_Los Quetzales_Quetzal resplendissant","ispublic":1,"isfriend":0,"isfamily":0},{"id":"52272885810","owner":"103806413@N07","secret":"6e48a206cd","server":"65535","farm":66,"title":"20220419_5444_Los Quetzales_Quetzal resplendissant","ispublic":1,"isfriend":0,"isfamily":0},{"id":"52272657314","owner":"103806413@N07","secret":"c0ed0a2176","server":"65535","farm":66,"title":"20220419_5439_Los Quetzales_Quetzal resplendissant","ispublic":1,"isfriend":0,"isfamily":0},{"id":"52272395211","owner":"103806413@N07","secret":"dc42731084","server":"65535","farm":66,"title":"20220419_5423_Los Quetzales_Quetzal resplendissant","ispublic":1,"isfriend":0,"isfamily":0},{"id":"52272395011","owner":"103806413@N07","secret":"769a23b3f4","server":"65535","farm":66,"title":"20220419_5416_Los Quetzales_Quetzal resplendissant","ispublic":1,"isfriend":0,"isfamily":0},{"id":"52272394821","owner":"103806413@N07","secret":"00722d958a","server":"65535","farm":66,"title":"20220419_5413_Los Quetzales_Quetzal resplendissant","ispublic":1,"isfriend":0,"isfamily":0},{"id":"52271426577","owner":"103806413@N07","secret":"6591571fdb","server":"65535","farm":66,"title":"20220419_5406_Los Quetzales_Quetzal resplendissant","ispublic":1,"isfriend":0,"isfamily":0},{"id":"52261125588","owner":"103806413@N07","secret":"c6c53d676a","server":"65535","farm":66,"title":"20220419_5470_Los Quetzales_Quetzal resplendissant","ispublic":1,"isfriend":0,"isfamily":0},{"id":"52261106261","owner":"103806413@N07","secret":"c12c73272f","server":"65535","farm":66,"title":"20220419_5638_Los Quetzales_Quetzal resplendissant","ispublic":1,"isfriend":0,"isfamily":0},{"id":"52261591120","owner":"103806413@N07","secret":"0886f3fdd0","server":"65535","farm":66,"title":"20220419_5634_Los Quetzales_Quetzal resplendissant","ispublic":1,"isfriend":0,"isfamily":0},{"id":"52261590320","owner":"103806413@N07","secret":"e6fca0fbb5","server":"65535","farm":66,"title":"20220419_5477_Los Quetzales_Quetzal resplendissant","ispublic":1,"isfriend":0,"isfamily":0},{"id":"52256576676","owner":"103806413@N07","secret":"559cbc1cbb","server":"65535","farm":66,"title":"20220418_4802_Los Quetzales_Quetzal resplendissant","ispublic":1,"isfriend":0,"isfamily":0},{"id":"52257069570","owner":"103806413@N07","secret":"eef9c0bc35","server":"65535","farm":66,"title":"20220418_4683_Los Quetzales_Quetzal resplendissant","ispublic":1,"isfriend":0,"isfamily":0},{"id":"52255612082","owner":"103806413@N07","secret":"26949776dd","server":"65535","farm":66,"title":"20220418_4675_Los Quetzales_Quetzal resplendissant","ispublic":1,"isfriend":0,"isfamily":0},{"id":"52241448346","owner":"193142500@N08","secret":"536c5333d8","server":"65535","farm":66,"title":"Female resplendent quetzal","ispublic":1,"isfriend":0,"isfamily":0},{"id":"52239997224","owner":"193010058@N08","secret":"ba1bb94726","server":"65535","farm":66,"title":"Resplendent Quetzal (Pharomachrus mocinno)","ispublic":1,"isfriend":0,"isfamily":0},{"id":"52238733042","owner":"193010058@N08","secret":"50471837cd","server":"65535","farm":66,"title":"Resplendent Quetzal (Pharomachrus mocinno)","ispublic":1,"isfriend":0,"isfamily":0},{"id":"52238732987","owner":"193010058@N08","secret":"eb9ca4fa93","server":"65535","farm":66,"title":"Resplendent Quetzal (Pharomachrus mocinno)","ispublic":1,"isfriend":0,"isfamily":0}]},"stat":"ok"}