{"photos":{"page":1,"pages":124,"perpage":100,"total":12349,"photo":[{"id":"52723839955","owner":"50307457@N08","secret":"c9deca1b25","server":"65535","farm":66,"title":"Bangalore Birds-10 - Columba livia","ispublic":1,"isfriend":0,"isfamily":0},{"id":"52720574535","owner":"12639178@N07","secret":"fdebdbb3b1","server":"65535","farm":66,"title":"Selbstbewuste Stra\u00dfentaube","ispublic":1,"isfriend":0,"isfamily":0},{"id":"52720536705","owner":"12639178@N07","secret":"93f6b8c86b","server":"65535","farm":66,"title":"\"Br\u00fcckentaube\"","ispublic":1,"isfriend":0,"isfamily":0},{"id":"52720601068","owner":"12639178@N07","secret":"d24a922f0e","server":"65535","farm":66,"title":"eine der h\u00fcbschen Tauben auf der Br\u00fccke","ispublic":1,"isfriend":0,"isfamily":0},{"id":"52717253587","owner":"12639178@N07","secret":"748892c37d","server":"65535","farm":66,"title":"Domestic Pigeon (Columba livia var. domestica), Hamilton, Australien","ispublic":1,"isfriend":0,"isfamily":0},{"id":"52715967803","owner":"197357511@N06","secret":"fc56a1a56d","server":"65535","farm":66,"title":"Rock Dove","ispublic":1,"isfriend":0,"isfamily":0},{"id":"52712667763","owner":"44093058@N06","secret":"daf1179b28","server":"65535","farm":66,"title":"Feral pigeon, Columba livia domestica, Tamduva","ispublic":1,"isfriend":0,"isfamily":0},{"id":"52712607555","owner":"44093058@N06","secret":"634cc87960","server":"65535","farm":66,"title":"Feral pigeon, Columba livia domestica, Tamduva","ispublic":1,"isfriend":0,"isfamily":0},{"id":"52712322989","owner":"124450184@N05","secret":"4081773b56","server":"65535","farm":66,"title":"Ahem!......","ispublic":1,"isfriend":0,"isfamily":0},{"id":"52709525732","owner":"34238008@N02","secret":"af93b3000f","server":"65535","farm":66,"title":"Rock Pigeon, Feral Pigeon (Columba livia, Feral Pigeon)","ispublic":1,"isfriend":0,"isfamily":0},{"id":"52708806752","owner":"12639178@N07","secret":"5af6761a4d","server":"65535","farm":66,"title":"Tauben machen ein Sonnenbad","ispublic":1,"isfriend":0,"isfamily":0},{"id":"52709265289","owner":"67164820@N06","secret":"1c761cd8e2","server":"65535","farm":66,"title":"white dove","ispublic":1,"isfriend":0,"isfamily":0},{"id":"52704533526","owner":"69740770@N05","secret":"50f3a82c98","server":"65535","farm":66,"title":"Columba livia standing out in the shadows of Canada Geese","ispublic":1,"isfriend":0,"isfamily":0},{"id":"52704808058","owner":"127247666@N05","secret":"241de1858e","server":"65535","farm":66,"title":"Rock dove","ispublic":1,"isfriend":0,"isfamily":0},{"id":"52703919104","owner":"71393709@N06","secret":"bf58472785","server":"65535","farm":66,"title":"The misunderstood (Columba livia)  -  (Published by GETTY IMAGES)","ispublic":1,"isfriend":0,"isfamily":0},{"id":"52697539421","owner":"50307457@N08","secret":"17358ac535","server":"65535","farm":66,"title":"Vizianagaram Birds-41 - Columba livia","ispublic":1,"isfriend":0,"isfamily":0},{"id":"52695112180","owner":"145489125@N03","secret":"8720ed284a","server":"65535","farm":66,"title":"Rock Dove ( Columba livia ) ... Redcar Station , Yorkshire","ispublic":1,"isfriend":0,"isfamily":0},{"id":"52694559866","owner":"194653030@N04","secret":"e0de8c9302","server":"65535","farm":66,"title":"\u0421\u0438\u0437\u044b\u0439 \u0433\u043e\u043b\u0443\u0431\u044c\/Columba livia","ispublic":1,"isfriend":0,"isfamily":0},{"id":"52692711303","owner":"76009930@N07","secret":"46dd2d1479","server":"65535","farm":66,"title":"338A8481","ispublic":1,"isfriend":0,"isfamily":0},{"id":"52692711278","owner":"76009930@N07","secret":"0034d5d745","server":"65535","farm":66,"title":"338A8503","ispublic":1,"isfriend":0,"isfamily":0},{"id":"52689109569","owner":"17270214@N05","secret":"8f30f3cd9f","server":"65535","farm":66,"title":"Pigeon Swarm!","ispublic":1,"isfriend":0,"isfamily":0},{"id":"52687740622","owner":"12639178@N07","secret":"d2c7e1e940","server":"65535","farm":66,"title":"Stra\u00dfentauben - Augen zu und durch? ;o)","ispublic":1,"isfriend":0,"isfamily":0},{"id":"52687740462","owner":"12639178@N07","secret":"eea296b615","server":"65535","farm":66,"title":"Happy Valentinstag! Stra\u00dfentauben","ispublic":1,"isfriend":0,"isfamily":0},{"id":"52685437363","owner":"30203631@N04","secret":"cf4e09260d","server":"65535","farm":66,"title":"Paloma brav\u00eda (Columba livia)","ispublic":1,"isfriend":0,"isfamily":0},{"id":"52683587637","owner":"65345069@N02","secret":"7ee169f2bb","server":"65535","farm":66,"title":"Feral Pigeon (Columba livia)","ispublic":1,"isfriend":0,"isfamily":0},{"id":"52682952720","owner":"197449176@N08","secret":"1d4561cc36","server":"65535","farm":66,"title":"Pigeon biset  Columba livia","ispublic":1,"isfriend":0,"isfamily":0},{"id":"52681831257","owner":"76009930@N07","secret":"0de134f45f","server":"65535","farm":66,"title":"338A8066","ispublic":1,"isfriend":0,"isfamily":0},{"id":"52682737735","owner":"76009930@N07","secret":"ca5bb39b21","server":"65535","farm":66,"title":"DSC00011","ispublic":1,"isfriend":0,"isfamily":0},{"id":"52682181426","owner":"76009930@N07","secret":"04794e4b2d","server":"65535","farm":66,"title":"DSC01474","ispublic":1,"isfriend":0,"isfamily":0},{"id":"52682610285","owner":"76009930@N07","secret":"f9e18e43d0","server":"65535","farm":66,"title":"DSC01610","ispublic":1,"isfriend":0,"isfamily":0},{"id":"52682447259","owner":"76009930@N07","secret":"c553f625ca","server":"65535","farm":66,"title":"P2110042","ispublic":1,"isfriend":0,"isfamily":0},{"id":"52682662063","owner":"76009930@N07","secret":"cdeef49f78","server":"65535","farm":66,"title":"P2110090","ispublic":1,"isfriend":0,"isfamily":0},{"id":"52682333584","owner":"197357511@N06","secret":"41f61b50c3","server":"65535","farm":66,"title":"Columba livia","ispublic":1,"isfriend":0,"isfamily":0},{"id":"52681142405","owner":"194178329@N04","secret":"f6bc5995f2","server":"65535","farm":66,"title":"Rock dove digging","ispublic":1,"isfriend":0,"isfamily":0},{"id":"52680898380","owner":"12639178@N07","secret":"b99e5abe11","server":"65535","farm":66,"title":"Selten so viele gesehen!","ispublic":1,"isfriend":0,"isfamily":0},{"id":"52680864223","owner":"12639178@N07","secret":"09098211d6","server":"65535","farm":66,"title":"Stra\u00dfentaube (Columba livia var. domestica)","ispublic":1,"isfriend":0,"isfamily":0},{"id":"52677453796","owner":"185671185@N06","secret":"55c7dc13ee","server":"65535","farm":66,"title":"Paloma Dom\u00e9stica- Rock Dove","ispublic":1,"isfriend":0,"isfamily":0},{"id":"52677117989","owner":"145489125@N03","secret":"63034086f6","server":"65535","farm":66,"title":"Rock Dove ( Columba livia ) ... Redcar Station , Yorkshire","ispublic":1,"isfriend":0,"isfamily":0},{"id":"52677308163","owner":"145489125@N03","secret":"f2fdcaee7f","server":"65535","farm":66,"title":"Feral Pigeon ( Columba livia ) ... Redcar Train Station , Yorkshire","ispublic":1,"isfriend":0,"isfamily":0},{"id":"52675918712","owner":"12639178@N07","secret":"d3c0f85ee7","server":"65535","farm":66,"title":"Stra\u00dfentaube","ispublic":1,"isfriend":0,"isfamily":0},{"id":"52674007322","owner":"95713135@N04","secret":"073ed9b1b4","server":"65535","farm":66,"title":"Feral Pigeon - Columba livia 190123 (1)","ispublic":1,"isfriend":0,"isfamily":0},{"id":"52671132413","owner":"57224934@N00","secret":"849de34756","server":"65535","farm":66,"title":"Torenvalk - El Paso","ispublic":1,"isfriend":0,"isfamily":0},{"id":"52668691671","owner":"62907378@N07","secret":"63ae9f29fa","server":"65535","farm":66,"title":"Rock Pigeon (Columba livia)","ispublic":1,"isfriend":0,"isfamily":0},{"id":"52668046052","owner":"141875401@N08","secret":"dbc81e81dc","server":"65535","farm":66,"title":"\u0421\u0438\u0437\u044b\u0439 \u0433\u043e\u043b\u0443\u0431\u044c (\u043b\u0430\u0442. Columba livia)","ispublic":1,"isfriend":0,"isfamily":0},{"id":"52668545071","owner":"141875401@N08","secret":"5c0d01a157","server":"65535","farm":66,"title":"\u0421\u0438\u0437\u044b\u0439 \u0433\u043e\u043b\u0443\u0431\u044c (\u043b\u0430\u0442. Columba livia)","ispublic":1,"isfriend":0,"isfamily":0},{"id":"52668046042","owner":"141875401@N08","secret":"cc7e673f6e","server":"65535","farm":66,"title":"\u0421\u0438\u0437\u044b\u0439 \u0433\u043e\u043b\u0443\u0431\u044c (\u043b\u0430\u0442. Columba livia)","ispublic":1,"isfriend":0,"isfamily":0},{"id":"52668233441","owner":"34238008@N02","secret":"f100bb73cc","server":"65535","farm":66,"title":"Rock Pigeon, dark (Columba livia)","ispublic":1,"isfriend":0,"isfamily":0},{"id":"52668233301","owner":"34238008@N02","secret":"d51fce8083","server":"65535","farm":66,"title":"Rock Pigeon, dark (Columba livia)","ispublic":1,"isfriend":0,"isfamily":0},{"id":"52667463909","owner":"11295713@N00","secret":"916e69a74b","server":"65535","farm":66,"title":"Rock Pigeon (Columba livia) on White Beach Sand","ispublic":1,"isfriend":0,"isfamily":0},{"id":"52666570256","owner":"181824639@N02","secret":"29f795c138","server":"65535","farm":66,"title":"Pigeon biset ( Columba livia )","ispublic":1,"isfriend":0,"isfamily":0},{"id":"52666254974","owner":"123525746@N05","secret":"c02f6566ab","server":"65535","farm":66,"title":"gradski golub","ispublic":1,"isfriend":0,"isfamily":0},{"id":"52665898464","owner":"12639178@N07","secret":"1125282ea0","server":"65535","farm":66,"title":"\u00dcbergewicht? Na und!","ispublic":1,"isfriend":0,"isfamily":0},{"id":"52662689208","owner":"195687643@N08","secret":"673da84550","server":"65535","farm":66,"title":"0016 - Hora de acicalarse \/ It's time for cleaning","ispublic":1,"isfriend":0,"isfamily":0},{"id":"52661693917","owner":"195687643@N08","secret":"37d80efb79","server":"65535","farm":66,"title":"0017 - Hora de acicalarse \/ It's time for cleaning","ispublic":1,"isfriend":0,"isfamily":0},{"id":"52662195576","owner":"195687643@N08","secret":"bf499e23e4","server":"65535","farm":66,"title":"0015 - Hora de acicalarse \/ It's time for cleaning","ispublic":1,"isfriend":0,"isfamily":0},{"id":"52662195536","owner":"195687643@N08","secret":"6762edc48d","server":"65535","farm":66,"title":"0014 - Hora de acicalarse \/ It's time for cleaning","ispublic":1,"isfriend":0,"isfamily":0},{"id":"52661693852","owner":"195687643@N08","secret":"c8f945b0f1","server":"65535","farm":66,"title":"0013 - Hora de acicalarse \/ It's time for cleaning","ispublic":1,"isfriend":0,"isfamily":0},{"id":"52662347794","owner":"124295012@N08","secret":"a8f6993012","server":"65535","farm":66,"title":"Pigeon biset ( Columba Livia - Rock Dove )","ispublic":1,"isfriend":0,"isfamily":0},{"id":"52662369805","owner":"33610210@N05","secret":"3f60ff1f56","server":"65535","farm":66,"title":"Rock Dove (Feral Pigeon), Columba livia","ispublic":1,"isfriend":0,"isfamily":0},{"id":"52658515065","owner":"47046427@N03","secret":"5f42e10d46","server":"65535","farm":66,"title":"Feral Pigeon by the Boating Lake","ispublic":1,"isfriend":0,"isfamily":0},{"id":"52658016459","owner":"65148649@N04","secret":"e56a7bff2c","server":"65535","farm":66,"title":"Rock Pigeon 01.21.23 Frye","ispublic":1,"isfriend":0,"isfamily":0},{"id":"52655892154","owner":"65345069@N02","secret":"224bf983b3","server":"65535","farm":66,"title":"Feral Pigeon (Columba livia)","ispublic":1,"isfriend":0,"isfamily":0},{"id":"52655612341","owner":"65345069@N02","secret":"b2df27e40e","server":"65535","farm":66,"title":"Feral Pigeon (Columba livia)","ispublic":1,"isfriend":0,"isfamily":0},{"id":"52655891934","owner":"65345069@N02","secret":"4e759f03cc","server":"65535","farm":66,"title":"Feral Pigeon (Columba livia)","ispublic":1,"isfriend":0,"isfamily":0},{"id":"52655612056","owner":"65345069@N02","secret":"e4e797780f","server":"65535","farm":66,"title":"Feral Pigeon (Columba livia)","ispublic":1,"isfriend":0,"isfamily":0},{"id":"52655891624","owner":"65345069@N02","secret":"af979a7ee9","server":"65535","farm":66,"title":"Feral Pigeon (Columba livia)","ispublic":1,"isfriend":0,"isfamily":0},{"id":"52655121552","owner":"65345069@N02","secret":"d01c4b7369","server":"65535","farm":66,"title":"Feral Pigeon (Columba livia)","ispublic":1,"isfriend":0,"isfamily":0},{"id":"52655891389","owner":"65345069@N02","secret":"c0c1efa15f","server":"65535","farm":66,"title":"Feral Pigeon (Columba livia)","ispublic":1,"isfriend":0,"isfamily":0},{"id":"52656099068","owner":"65345069@N02","secret":"252bee0c02","server":"65535","farm":66,"title":"Feral Pigeon (Columba livia)","ispublic":1,"isfriend":0,"isfamily":0},{"id":"52655878494","owner":"12639178@N07","secret":"55935c1233","server":"65535","farm":66,"title":"Stra\u00dfentaube","ispublic":1,"isfriend":0,"isfamily":0},{"id":"52655721649","owner":"12639178@N07","secret":"776d3e1511","server":"65535","farm":66,"title":"Stra\u00dfentaube","ispublic":1,"isfriend":0,"isfamily":0},{"id":"52654810980","owner":"23545965@N02","secret":"213109fbe1","server":"65535","farm":66,"title":"Feral pigeon (20230128 1132)","ispublic":1,"isfriend":0,"isfamily":0},{"id":"52654023399","owner":"12639178@N07","secret":"0f7019bae6","server":"65535","farm":66,"title":"Stra\u00dfentaube (Columba livia var. domestica) (1)","ispublic":1,"isfriend":0,"isfamily":0},{"id":"52652435732","owner":"12639178@N07","secret":"c35f688688","server":"65535","farm":66,"title":"schon \u00f6fter an der Futterstelle","ispublic":1,"isfriend":0,"isfamily":0},{"id":"52653364840","owner":"12639178@N07","secret":"559f7d11be","server":"65535","farm":66,"title":"verletzt","ispublic":1,"isfriend":0,"isfamily":0},{"id":"52652217892","owner":"28160081@N05","secret":"8a6344e6e2","server":"65535","farm":66,"title":"EOS 90D_Peter Harriman_12_41_35_88232_columbaLivia_dpp","ispublic":1,"isfriend":0,"isfamily":0},{"id":"52650954737","owner":"12639178@N07","secret":"a0b79ba1e9","server":"65535","farm":66,"title":"Stra\u00dfentaube","ispublic":1,"isfriend":0,"isfamily":0},{"id":"52650954587","owner":"12639178@N07","secret":"1f3021cd81","server":"65535","farm":66,"title":"Stra\u00dfentaube","ispublic":1,"isfriend":0,"isfamily":0},{"id":"52651719154","owner":"12639178@N07","secret":"10b113b090","server":"65535","farm":66,"title":"Stra\u00dfentaube","ispublic":1,"isfriend":0,"isfamily":0},{"id":"52647953357","owner":"141875401@N08","secret":"198d5bbdba","server":"65535","farm":66,"title":"\u0421\u0438\u0437\u044b\u0439 \u0433\u043e\u043b\u0443\u0431\u044c (\u043b\u0430\u0442. Columba livia)","ispublic":1,"isfriend":0,"isfamily":0},{"id":"52648717089","owner":"141875401@N08","secret":"c56af69444","server":"65535","farm":66,"title":"\u0421\u0438\u0437\u044b\u0439 \u0433\u043e\u043b\u0443\u0431\u044c (\u043b\u0430\u0442. Columba livia)","ispublic":1,"isfriend":0,"isfamily":0},{"id":"52648451056","owner":"141875401@N08","secret":"c478aaca84","server":"65535","farm":66,"title":"\u0421\u0438\u0437\u044b\u0439 \u0433\u043e\u043b\u0443\u0431\u044c (\u043b\u0430\u0442. Columba livia)","ispublic":1,"isfriend":0,"isfamily":0},{"id":"52648894055","owner":"141875401@N08","secret":"4a5a39d87b","server":"65535","farm":66,"title":"\u0421\u0438\u0437\u044b\u0439 \u0433\u043e\u043b\u0443\u0431\u044c (\u043b\u0430\u0442. Columba livia)","ispublic":1,"isfriend":0,"isfamily":0},{"id":"52648717029","owner":"141875401@N08","secret":"cd2bf0baeb","server":"65535","farm":66,"title":"\u0421\u0438\u0437\u044b\u0439 \u0433\u043e\u043b\u0443\u0431\u044c (\u043b\u0430\u0442. Columba livia)","ispublic":1,"isfriend":0,"isfamily":0},{"id":"52647659753","owner":"195537536@N03","secret":"85a67c0226","server":"65535","farm":66,"title":"Rock Pigeon (Columba livia) : feral variety","ispublic":1,"isfriend":0,"isfamily":0},{"id":"52646899563","owner":"12639178@N07","secret":"abf1ef42e2","server":"65535","farm":66,"title":"Jesuskind mit Stra\u00dfentaube auf dem Handr\u00fccken","ispublic":1,"isfriend":0,"isfamily":0},{"id":"52646259454","owner":"47046427@N03","secret":"7d76bc3ec9","server":"65535","farm":66,"title":"Woodpigeon (white neck) and Feral Pigeon by the Boating Lake","ispublic":1,"isfriend":0,"isfamily":0},{"id":"52645474546","owner":"40195635@N03","secret":"458bfd2efd","server":"65535","farm":66,"title":"Domestic Pigeon (Columba livia domestica)","ispublic":1,"isfriend":0,"isfamily":0},{"id":"52645945023","owner":"40195635@N03","secret":"81f2c45934","server":"65535","farm":66,"title":"Domestic Pigeon (Columba livia domestica)","ispublic":1,"isfriend":0,"isfamily":0},{"id":"52710082776","owner":"157525415@N06","secret":"483a9c55d4","server":"65535","farm":66,"title":"Tamduva - Columba livia","ispublic":1,"isfriend":0,"isfamily":0},{"id":"52709589624","owner":"12639178@N07","secret":"495c06320d","server":"65535","farm":66,"title":"Tauben beim Sonne tanken","ispublic":1,"isfriend":0,"isfamily":0},{"id":"52708806907","owner":"12639178@N07","secret":"6f7c28e1f6","server":"65535","farm":66,"title":"Tauben beim Sonne tanken","ispublic":1,"isfriend":0,"isfamily":0},{"id":"52709075484","owner":"12639178@N07","secret":"e7ee40db7a","server":"65535","farm":66,"title":"...bis eine siegt","ispublic":1,"isfriend":0,"isfamily":0},{"id":"52709075319","owner":"12639178@N07","secret":"fc33b3d3af","server":"65535","farm":66,"title":"da wird mit harten Bandagen(spitzen Schn\u00e4beln) gek\u00e4mpft","ispublic":1,"isfriend":0,"isfamily":0},{"id":"52708820556","owner":"12639178@N07","secret":"d9f99b1149","server":"65535","farm":66,"title":"Randale am Futterhaus","ispublic":1,"isfriend":0,"isfamily":0},{"id":"52702763852","owner":"12639178@N07","secret":"81f78737af","server":"65535","farm":66,"title":"Kanaren-Felsentaube (Columba livia subsp. canariensis)","ispublic":1,"isfriend":0,"isfamily":0},{"id":"52689758944","owner":"65609388@N07","secret":"237ac92143","server":"65535","farm":66,"title":"dove Rock Dove Columba livia Rotsduif","ispublic":1,"isfriend":0,"isfamily":0},{"id":"52676859805","owner":"12639178@N07","secret":"a0d80611bd","server":"65535","farm":66,"title":"Stra\u00dfentaube","ispublic":1,"isfriend":0,"isfamily":0},{"id":"52652029596","owner":"12639178@N07","secret":"950802dbdc","server":"65535","farm":66,"title":"Fast h\u00e4tte ich sie f\u00fcr eine Felsentaube gehalten","ispublic":1,"isfriend":0,"isfamily":0},{"id":"52651889165","owner":"12639178@N07","secret":"8764f092da","server":"65535","farm":66,"title":"Stra\u00dfentaube","ispublic":1,"isfriend":0,"isfamily":0}]},"stat":"ok"}