{"photos":{"page":1,"pages":51,"perpage":100,"total":5048,"photo":[{"id":"52690160332","owner":"11295713@N00","secret":"f7225ae25f","server":"65535","farm":66,"title":"Rose-breasted Grosbeak (Pheucticus ludovicianus) (m) on Poplar","ispublic":1,"isfriend":0,"isfamily":0},{"id":"52672553520","owner":"95795254@N02","secret":"0cb43fdef2","server":"65535","farm":66,"title":"Rose-breasted Grosbeak - Female 851_0486.jpg","ispublic":1,"isfriend":0,"isfamily":0},{"id":"52658478999","owner":"169771858@N03","secret":"bfe1b22ec5","server":"65535","farm":66,"title":"Rose-Breasted Grosbeak - 2022-09-03","ispublic":1,"isfriend":0,"isfamily":0},{"id":"52646616068","owner":"91064752@N03","secret":"3e3dce1f17","server":"65535","farm":66,"title":"Rose-breasted Grosbeak Female at the Feeder","ispublic":1,"isfriend":0,"isfamily":0},{"id":"52642852577","owner":"8013969@N03","secret":"8295ced326","server":"65535","farm":66,"title":"Pheucticus ludovicianus DFL btr22-2","ispublic":1,"isfriend":0,"isfamily":0},{"id":"52643793945","owner":"8013969@N03","secret":"69cefa99bf","server":"65535","farm":66,"title":"Pheucticus ludovicianus DFL btr22-3","ispublic":1,"isfriend":0,"isfamily":0},{"id":"52642841327","owner":"8013969@N03","secret":"4d99f021db","server":"65535","farm":66,"title":"Pheucticus ludovicianus DFL btr22-5","ispublic":1,"isfriend":0,"isfamily":0},{"id":"52642837862","owner":"8013969@N03","secret":"25fbb6cc51","server":"65535","farm":66,"title":"Pheucticus ludovicianus DFL btr22-6","ispublic":1,"isfriend":0,"isfamily":0},{"id":"52643811473","owner":"8013969@N03","secret":"bbac49f487","server":"65535","farm":66,"title":"Pheucticus ludovicianus DFL btr22-7","ispublic":1,"isfriend":0,"isfamily":0},{"id":"52643807143","owner":"8013969@N03","secret":"cf0b7553c9","server":"65535","farm":66,"title":"Pheucticus ludovicianus DFL btr22-8","ispublic":1,"isfriend":0,"isfamily":0},{"id":"52643587389","owner":"8013969@N03","secret":"8aa3404c75","server":"65535","farm":66,"title":"Pheucticus ludovicianus DFL btr22-11","ispublic":1,"isfriend":0,"isfamily":0},{"id":"52643580144","owner":"8013969@N03","secret":"c339a792f1","server":"65535","farm":66,"title":"Pheucticus ludovicianus DFL btr22-13","ispublic":1,"isfriend":0,"isfamily":0},{"id":"52643761980","owner":"8013969@N03","secret":"831ec8224d","server":"65535","farm":66,"title":"Pheucticus ludovicianus DFL btr22-14","ispublic":1,"isfriend":0,"isfamily":0},{"id":"52643576439","owner":"8013969@N03","secret":"3302709db1","server":"65535","farm":66,"title":"Pheucticus ludovicianus DFL btr22-15","ispublic":1,"isfriend":0,"isfamily":0},{"id":"52643572854","owner":"8013969@N03","secret":"ea79ed916d","server":"65535","farm":66,"title":"Pheucticus ludovicianus DFL btr22-17","ispublic":1,"isfriend":0,"isfamily":0},{"id":"52643787558","owner":"8013969@N03","secret":"0aa848bda2","server":"65535","farm":66,"title":"Pheucticus ludovicianus DFL btr22-18","ispublic":1,"isfriend":0,"isfamily":0},{"id":"52580651232","owner":"91064752@N03","secret":"d0fddcf5e6","server":"65535","farm":66,"title":"Rose-breasted Grosbeak Female","ispublic":1,"isfriend":0,"isfamily":0},{"id":"52564411460","owner":"169771858@N03","secret":"b48a857719","server":"65535","farm":66,"title":"Rose-Breasted Groesbeck - 2019-06-30","ispublic":1,"isfriend":0,"isfamily":0},{"id":"52561783199","owner":"56686021@N04","secret":"f8cc98364e","server":"65535","farm":66,"title":"Rose-breasted Grosbeak","ispublic":1,"isfriend":0,"isfamily":0},{"id":"52561237614","owner":"196840457@N07","secret":"0b5a6a74f2","server":"65535","farm":66,"title":"Grosbeak, Rose-breasted, Male Profile","ispublic":1,"isfriend":0,"isfamily":0},{"id":"52561236494","owner":"196840457@N07","secret":"519912606c","server":"65535","farm":66,"title":"Grosbeak, Rose-breasted, Male","ispublic":1,"isfriend":0,"isfamily":0},{"id":"52561233564","owner":"196840457@N07","secret":"699dcc6ba8","server":"65535","farm":66,"title":"Grosbeak, Rose-breasted, Female, Profile","ispublic":1,"isfriend":0,"isfamily":0},{"id":"52554603819","owner":"66394910@N02","secret":"0d0776e8a1","server":"65535","farm":66,"title":"T\u00edgult\u00e1ti - Rose breasted Grosbeak - Pheucticus ludovicianus","ispublic":1,"isfriend":0,"isfamily":0},{"id":"52542679402","owner":"23711298@N07","secret":"6dde65997c","server":"65535","farm":66,"title":"Grosbeak- Rose-breasted Grosbeak (Female), Minnesota, Hennepin County- Bloomington, Minnesota Valley Wildlife Refuge","ispublic":1,"isfriend":0,"isfamily":0},{"id":"52543433414","owner":"23711298@N07","secret":"66fed8ab48","server":"65535","farm":66,"title":"Grosbeak- Rose-breasted Grosbeak (Female), Minnesota, Hennepin County- Bloomington, Minnesota Valley Wildlife Refuge","ispublic":1,"isfriend":0,"isfamily":0},{"id":"52539440714","owner":"10260434@N03","secret":"b8bc8fd7b0","server":"65535","farm":66,"title":"1st Autumn Rose-breasted Grosbeak male-09oct22","ispublic":1,"isfriend":0,"isfamily":0},{"id":"52539417854","owner":"10260434@N03","secret":"24dffc49bd","server":"65535","farm":66,"title":"248c4-two male Rose-breasted Grosbeaks-13_Oct22","ispublic":1,"isfriend":0,"isfamily":0},{"id":"52539183484","owner":"10260434@N03","secret":"823c14c937","server":"65535","farm":66,"title":"two male Rose-breasted Grosbeaks-13_Oct22","ispublic":1,"isfriend":0,"isfamily":0},{"id":"52535313650","owner":"33610210@N05","secret":"fd6906bba4","server":"65535","farm":66,"title":"Rose-breasted Grosbeak, Pheucticus ludovicianus","ispublic":1,"isfriend":0,"isfamily":0},{"id":"52534765534","owner":"104268816@N06","secret":"46d4e04fc6","server":"65535","farm":66,"title":"Pheucticus ludovicianus","ispublic":1,"isfriend":0,"isfamily":0},{"id":"52516238198","owner":"124995824@N08","secret":"64c901d9df","server":"65535","farm":66,"title":"Rose-breasted Grosbeak - Pheucticus ludovicianus","ispublic":1,"isfriend":0,"isfamily":0},{"id":"52515691366","owner":"124995824@N08","secret":"c9606a15c7","server":"65535","farm":66,"title":"Rose-breasted Grosbeak - Pheucticus ludovicianus","ispublic":1,"isfriend":0,"isfamily":0},{"id":"52510180078","owner":"169771858@N03","secret":"45e3249ba3","server":"65535","farm":66,"title":"Female Rose-Breasted Grosbeak (2022-07-09 #4)","ispublic":1,"isfriend":0,"isfamily":0},{"id":"52503498737","owner":"76288515@N07","secret":"326e02c0f7","server":"65535","farm":66,"title":"Rose-breasted Grosbeak Pheucticus ludovicianus","ispublic":1,"isfriend":0,"isfamily":0},{"id":"52503498572","owner":"76288515@N07","secret":"7de2584b66","server":"65535","farm":66,"title":"Rose-breasted Grosbeak Pheucticus ludovicianus","ispublic":1,"isfriend":0,"isfamily":0},{"id":"52495792598","owner":"64557331@N04","secret":"a3b7bd8e84","server":"65535","farm":66,"title":"Rose-Breasted Grosbeak - (Pheucticus ludovicianus)_2022.jpg","ispublic":1,"isfriend":0,"isfamily":0},{"id":"52495522779","owner":"64557331@N04","secret":"4e28c9e618","server":"65535","farm":66,"title":"Rose-Breasted Grosbeak - (Pheucticus ludovicianus)_2021","ispublic":1,"isfriend":0,"isfamily":0},{"id":"52495792548","owner":"64557331@N04","secret":"4212ecbfac","server":"65535","farm":66,"title":"Rose-Breasted Grosbeak - (Pheucticus ludovicianus)_08032021","ispublic":1,"isfriend":0,"isfamily":0},{"id":"52486982797","owner":"39445433@N02","secret":"e298673641","server":"65535","farm":66,"title":"Rose-Breasted Grosbeak","ispublic":1,"isfriend":0,"isfamily":0},{"id":"52479905325","owner":"30638967@N03","secret":"9119d216b3","server":"65535","farm":66,"title":"Rose-breasted Grosbeak DSC_6868","ispublic":1,"isfriend":0,"isfamily":0},{"id":"52473530151","owner":"101106007@N04","secret":"2d37269773","server":"65535","farm":66,"title":"015A8053 Rose-breasted Grosbeak","ispublic":1,"isfriend":0,"isfamily":0},{"id":"52445716330","owner":"70295563@N00","secret":"b857b43a73","server":"65535","farm":66,"title":"Big mouth","ispublic":1,"isfriend":0,"isfamily":0},{"id":"52430300129","owner":"36267333@N05","secret":"a2ab420f0c","server":"65535","farm":66,"title":"Male Rose-breasted grosbeak (Pheucticus ludovicianus","ispublic":1,"isfriend":0,"isfamily":0},{"id":"52430532713","owner":"36267333@N05","secret":"218c9fe348","server":"65535","farm":66,"title":"Male Rose-breasted grosbeak (","ispublic":1,"isfriend":0,"isfamily":0},{"id":"52427862660","owner":"39177293@N03","secret":"be20ed2913","server":"65535","farm":66,"title":"Rose-breasted Grosbeak","ispublic":1,"isfriend":0,"isfamily":0},{"id":"52425762012","owner":"30638967@N03","secret":"b0c98e5d45","server":"65535","farm":66,"title":"Rose-breasted Grosbeak DSC_6227","ispublic":1,"isfriend":0,"isfamily":0},{"id":"52426723430","owner":"30638967@N03","secret":"e8903261f1","server":"65535","farm":66,"title":"Rose-breasted Grosbeak DSC_6243","ispublic":1,"isfriend":0,"isfamily":0},{"id":"52422090353","owner":"32665930@N04","secret":"27d073fd45","server":"65535","farm":66,"title":"Rose-breasted Grosbeak - female","ispublic":1,"isfriend":0,"isfamily":0},{"id":"52421065432","owner":"32665930@N04","secret":"7dd780e7f6","server":"65535","farm":66,"title":"Rose-breasted Grosbeak - female","ispublic":1,"isfriend":0,"isfamily":0},{"id":"52410397602","owner":"9638954@N07","secret":"ba5cc8395b","server":"65535","farm":66,"title":"Rose-breasted Grosbeak","ispublic":1,"isfriend":0,"isfamily":0},{"id":"52404689889","owner":"59770980@N02","secret":"73e4e692e1","server":"65535","farm":66,"title":"T\u00edgult\u00e1ti-Rose breasted Grosbeak-Pheucticus ludovicianus","ispublic":1,"isfriend":0,"isfamily":0},{"id":"52386576558","owner":"49563725@N06","secret":"cb2dcdeb61","server":"65535","farm":66,"title":"Rose-breasted Grosbeak","ispublic":1,"isfriend":0,"isfamily":0},{"id":"52372585958","owner":"34368269@N04","secret":"93d8e50502","server":"65535","farm":66,"title":"Rose-breasted Grosbeak","ispublic":1,"isfriend":0,"isfamily":0},{"id":"52372079759","owner":"7232133@N08","secret":"424266d9e8","server":"65535","farm":66,"title":"","ispublic":1,"isfriend":0,"isfamily":0},{"id":"52371963229","owner":"76617062@N08","secret":"424d19a898","server":"65535","farm":66,"title":"1.30080 Cardinal \u00e0 poitrine rose (immature) \/ Pheucticus ludovicianus \/ Rose-breasted Grosbeak","ispublic":1,"isfriend":0,"isfamily":0},{"id":"52369715548","owner":"91620959@N08","secret":"58a821886a","server":"65535","farm":66,"title":"Rose-breasted grosbeak (Pheucticus ludovicianus)","ispublic":1,"isfriend":0,"isfamily":0},{"id":"52369793479","owner":"91620959@N08","secret":"e60703f01c","server":"65535","farm":66,"title":"Rose-breasted grosbeak (Pheucticus ludovicianus)","ispublic":1,"isfriend":0,"isfamily":0},{"id":"52368050615","owner":"39445433@N02","secret":"c7731d2249","server":"65535","farm":66,"title":"Rose-Breasted Grosbeak","ispublic":1,"isfriend":0,"isfamily":0},{"id":"52357585023","owner":"76617062@N08","secret":"f38d13e8f3","server":"65535","farm":66,"title":"1.30080 Cardinal \u00e0 poitrine rose (immature) \/ Pheucticus ludovicianus \/ Rose-breasted Grosbeak","ispublic":1,"isfriend":0,"isfamily":0},{"id":"52354412222","owner":"184155060@N04","secret":"6848f26f5f","server":"65535","farm":66,"title":"33236 Cardinal \u00e0 poitrine rose (immature) \/ Pheucticus ludovicianus \/ Rose-breasted Grosbeak","ispublic":1,"isfriend":0,"isfamily":0},{"id":"52353854552","owner":"92361032@N05","secret":"44ed6bd5d0","server":"65535","farm":66,"title":"Mother and daughter\/ M\u00e8re et Fille ( Richard )","ispublic":1,"isfriend":0,"isfamily":0},{"id":"52352629157","owner":"85277889@N08","secret":"2c2b7659f3","server":"65535","farm":66,"title":"Rose-breasted Grosbeak (Pheucticus ludovicianus) 2022-09-06 (2)","ispublic":1,"isfriend":0,"isfamily":0},{"id":"52344605585","owner":"61241315@N00","secret":"08a3a9c737","server":"0","farm":0,"title":"RBGR_4810","ispublic":1,"isfriend":0,"isfamily":0},{"id":"52344417303","owner":"61241315@N00","secret":"770ea8368d","server":"0","farm":0,"title":"Male Rose-breasted Grosbeak_4924.MP4","ispublic":1,"isfriend":0,"isfamily":0},{"id":"52343219787","owner":"61241315@N00","secret":"a66b3c0fd3","server":"0","farm":0,"title":"Male Rose-breasted Grosbeak_4927.MP4","ispublic":1,"isfriend":0,"isfamily":0},{"id":"52344605795","owner":"61241315@N00","secret":"2e0002d768","server":"65535","farm":66,"title":"Female Rose-breasted Grosbeak_N4733","ispublic":1,"isfriend":0,"isfamily":0},{"id":"52344418883","owner":"61241315@N00","secret":"0cc37abe8e","server":"65535","farm":66,"title":"Female Rose-breasted Grosbeak_N4735","ispublic":1,"isfriend":0,"isfamily":0},{"id":"52344482624","owner":"61241315@N00","secret":"8cf592dea0","server":"65535","farm":66,"title":"Female Rose-breasted Grosbeak_N4736","ispublic":1,"isfriend":0,"isfamily":0},{"id":"52344605615","owner":"61241315@N00","secret":"0c4ae0e17c","server":"65535","farm":66,"title":"Male Rose-breasted Grosbeak_N4926","ispublic":1,"isfriend":0,"isfamily":0},{"id":"52335086332","owner":"56902740@N06","secret":"ab152860e2","server":"65535","farm":66,"title":"Rose-breasted Grosbeak","ispublic":1,"isfriend":0,"isfamily":0},{"id":"52334008779","owner":"90886369@N06","secret":"a6d7cb2ebd","server":"65535","farm":66,"title":"Rose-breasted Grosbeak (Pheucticus ludovicianus)","ispublic":1,"isfriend":0,"isfamily":0},{"id":"52329871895","owner":"59770980@N02","secret":"bdfb31bde3","server":"65535","farm":66,"title":"T\u00edgult\u00e1ti-Rose breasted Grosbeak-Pheucticus ludovicianus","ispublic":1,"isfriend":0,"isfamily":0},{"id":"52318784857","owner":"95721592@N00","secret":"f58f68ded8","server":"65535","farm":66,"title":"Rose-breasted Grosbeak","ispublic":1,"isfriend":0,"isfamily":0},{"id":"52643357486","owner":"8013969@N03","secret":"5323e474ff","server":"65535","farm":66,"title":"Pheucticus ludovicianus DFL btr22-1","ispublic":1,"isfriend":0,"isfamily":0},{"id":"52642829232","owner":"8013969@N03","secret":"7d64496a22","server":"65535","farm":66,"title":"Pheucticus ludovicianus DFL btr22-9","ispublic":1,"isfriend":0,"isfamily":0},{"id":"52643805693","owner":"8013969@N03","secret":"f41b58eb20","server":"65535","farm":66,"title":"Pheucticus ludovicianus DFL btr22-10","ispublic":1,"isfriend":0,"isfamily":0},{"id":"52642821482","owner":"8013969@N03","secret":"0e4f95dae7","server":"65535","farm":66,"title":"Pheucticus ludovicianus DFL btr22-12","ispublic":1,"isfriend":0,"isfamily":0},{"id":"52642810922","owner":"8013969@N03","secret":"dc5bcfabca","server":"65535","farm":66,"title":"Pheucticus ludovicianus DFL btr22-16","ispublic":1,"isfriend":0,"isfamily":0},{"id":"52580251591","owner":"153973412@N04","secret":"f50837d081","server":"65535","farm":66,"title":"Rose-breasted Grosbeak-Pheucticus ludovicianus, Iowa City, IA","ispublic":1,"isfriend":0,"isfamily":0},{"id":"52504546688","owner":"76288515@N07","secret":"cb2731b883","server":"65535","farm":66,"title":"Rose-breasted Grosbeak Pheucticus ludovicianus","ispublic":1,"isfriend":0,"isfamily":0},{"id":"52503994561","owner":"76288515@N07","secret":"c53493b3ea","server":"65535","farm":66,"title":"Rose-breasted Grosbeak Pheucticus ludovicianus","ispublic":1,"isfriend":0,"isfamily":0},{"id":"52504546643","owner":"76288515@N07","secret":"e71ffe008a","server":"65535","farm":66,"title":"Rose-breasted Grosbeak Pheucticus ludovicianus","ispublic":1,"isfriend":0,"isfamily":0},{"id":"52503994521","owner":"76288515@N07","secret":"89e577d7f2","server":"65535","farm":66,"title":"Rose-breasted Grosbeak Pheucticus ludovicianus","ispublic":1,"isfriend":0,"isfamily":0},{"id":"52503498797","owner":"76288515@N07","secret":"e41e2b927a","server":"65535","farm":66,"title":"Rose-breasted Grosbeak Pheucticus ludovicianus","ispublic":1,"isfriend":0,"isfamily":0},{"id":"52503498782","owner":"76288515@N07","secret":"d4e77d0f5f","server":"65535","farm":66,"title":"Rose-breasted Grosbeak Pheucticus ludovicianus","ispublic":1,"isfriend":0,"isfamily":0},{"id":"52504264069","owner":"76288515@N07","secret":"c678df4fd2","server":"65535","farm":66,"title":"Rose-breasted Grosbeak Pheucticus ludovicianus","ispublic":1,"isfriend":0,"isfamily":0},{"id":"52504469475","owner":"76288515@N07","secret":"4e9ed55115","server":"65535","farm":66,"title":"Rose-breasted Grosbeak Pheucticus ludovicianus","ispublic":1,"isfriend":0,"isfamily":0},{"id":"52504469395","owner":"76288515@N07","secret":"022381f9cb","server":"65535","farm":66,"title":"Rose-breasted Grosbeak Pheucticus ludovicianus","ispublic":1,"isfriend":0,"isfamily":0},{"id":"52503498652","owner":"76288515@N07","secret":"17d14895a1","server":"65535","farm":66,"title":"Rose-breasted Grosbeak Pheucticus ludovicianus","ispublic":1,"isfriend":0,"isfamily":0},{"id":"52504263944","owner":"76288515@N07","secret":"8868d04460","server":"65535","farm":66,"title":"Rose-breasted Grosbeak Pheucticus ludovicianus","ispublic":1,"isfriend":0,"isfamily":0},{"id":"52504469300","owner":"76288515@N07","secret":"41c20f6d66","server":"65535","farm":66,"title":"Rose-breasted Grosbeak Pheucticus ludovicianus","ispublic":1,"isfriend":0,"isfamily":0},{"id":"52504469265","owner":"76288515@N07","secret":"a3ef259192","server":"65535","farm":66,"title":"Rose-breasted Grosbeak Pheucticus ludovicianus","ispublic":1,"isfriend":0,"isfamily":0},{"id":"52495801028","owner":"64557331@N04","secret":"b1f79ccbbb","server":"65535","farm":66,"title":"Rose-Breasted Grosbeak (Male) - (Pheucticus ludovicianus)_04302022_2_","ispublic":1,"isfriend":0,"isfamily":0},{"id":"52479718309","owner":"30638967@N03","secret":"312a411ab4","server":"65535","farm":66,"title":"Rose-breasted Grosbeak DSC_6854","ispublic":1,"isfriend":0,"isfamily":0},{"id":"52425761987","owner":"30638967@N03","secret":"6835d44133","server":"65535","farm":66,"title":"Rose-breasted Grosbeak DSC_6233","ispublic":1,"isfriend":0,"isfamily":0},{"id":"52411186714","owner":"9638954@N07","secret":"9d6e30b225","server":"65535","farm":66,"title":"Rose-breasted Grosbeak","ispublic":1,"isfriend":0,"isfamily":0},{"id":"52396124299","owner":"9638954@N07","secret":"e6b71337f1","server":"65535","farm":66,"title":"Rose-breasted Grosbeak","ispublic":1,"isfriend":0,"isfamily":0},{"id":"52395828416","owner":"9638954@N07","secret":"6c3ac6360a","server":"65535","farm":66,"title":"Rose-breasted Grosbeak","ispublic":1,"isfriend":0,"isfamily":0},{"id":"52378042260","owner":"190122705@N03","secret":"9a916bc21a","server":"65535","farm":66,"title":"Rose-Breasted Grosbeak","ispublic":1,"isfriend":0,"isfamily":0},{"id":"52344605155","owner":"61241315@N00","secret":"6d7662f949","server":"0","farm":0,"title":"Male Rose-breasted Grosbeak_4919.MP4","ispublic":1,"isfriend":0,"isfamily":0}]},"stat":"ok"}