{"photos":{"page":1,"pages":41,"perpage":100,"total":4055,"photo":[{"id":"52713807023","owner":"71751551@N00","secret":"1dab7b6b05","server":"65535","farm":66,"title":"Royal tern","ispublic":1,"isfriend":0,"isfamily":0},{"id":"52712106857","owner":"82393004@N02","secret":"171a72f18f","server":"65535","farm":66,"title":"Florida Bird Pictures","ispublic":1,"isfriend":0,"isfamily":0},{"id":"52711216587","owner":"103722035@N06","secret":"7a6935e1a2","server":"65535","farm":66,"title":"Royal Tern (Thalasseus maximus), Morro Bay, CA","ispublic":1,"isfriend":0,"isfamily":0},{"id":"52706733274","owner":"195537536@N03","secret":"99647fc783","server":"65535","farm":66,"title":"Royal Tern (Thalasseus maximus)","ispublic":1,"isfriend":0,"isfamily":0},{"id":"52697115539","owner":"124995824@N08","secret":"cd0946f72a","server":"65535","farm":66,"title":"Royal Tern - Thalasseus maximus","ispublic":1,"isfriend":0,"isfamily":0},{"id":"52695699387","owner":"124995824@N08","secret":"bd59c27fff","server":"65535","farm":66,"title":"Royal Tern - Thalasseus maximus","ispublic":1,"isfriend":0,"isfamily":0},{"id":"52692796585","owner":"124450184@N05","secret":"fbc6366f7b","server":"65535","farm":66,"title":"Royal Tern","ispublic":1,"isfriend":0,"isfamily":0},{"id":"52682010728","owner":"23711298@N07","secret":"4aae798c8f","server":"65535","farm":66,"title":"Tern- Royal Tern, Florida, Volusia County- Ormond Beach","ispublic":1,"isfriend":0,"isfamily":0},{"id":"52681512376","owner":"23711298@N07","secret":"c636b5d4bc","server":"65535","farm":66,"title":"Tern- Royal Tern, Florida, Volusia County- Ormond Beach","ispublic":1,"isfriend":0,"isfamily":0},{"id":"52668912823","owner":"110624976@N05","secret":"8ed108b2e2","server":"65535","farm":66,"title":"Royal Tern watches Ring-billed Gull stick the landing","ispublic":1,"isfriend":0,"isfamily":0},{"id":"52667516615","owner":"39177293@N03","secret":"234423a738","server":"65535","farm":66,"title":"Royal Tern","ispublic":1,"isfriend":0,"isfamily":0},{"id":"52661665684","owner":"39177293@N03","secret":"879ef33b57","server":"65535","farm":66,"title":"Black Skimmer, Royal Tern and Laughing Gulls","ispublic":1,"isfriend":0,"isfamily":0},{"id":"52651203251","owner":"132165466@N08","secret":"57c30ebf0a","server":"65535","farm":66,"title":"Royal Terns","ispublic":1,"isfriend":0,"isfamily":0},{"id":"52640414637","owner":"48793602@N07","secret":"16e6bff027","server":"65535","farm":66,"title":"Terra Ceia Bay Royal Tern and Laughing Gull 01-12-2023","ispublic":1,"isfriend":0,"isfamily":0},{"id":"52641400033","owner":"48793602@N07","secret":"0cd5cda794","server":"65535","farm":66,"title":"Terra Ceia Bay Royal Tern 01-12-2023","ispublic":1,"isfriend":0,"isfamily":0},{"id":"52634337664","owner":"54546220@N00","secret":"93fc199f92","server":"65535","farm":66,"title":"Charr\u00e1n Real, Royal Tern (Thalasseus maximus)","ispublic":1,"isfriend":0,"isfamily":0},{"id":"52634200844","owner":"54546220@N00","secret":"0a735fdba1","server":"65535","farm":66,"title":"Charr\u00e1n Real, Royal Tern (Thalasseus maximus)","ispublic":1,"isfriend":0,"isfamily":0},{"id":"52632711567","owner":"54546220@N00","secret":"ec691bdfe2","server":"65535","farm":66,"title":"Charr\u00e1n Real, Royal Tern (Thalasseus maximus) El charr\u00e1n real (Thalasseus maximus)","ispublic":1,"isfriend":0,"isfamily":0},{"id":"52633480329","owner":"54546220@N00","secret":"3601570853","server":"65535","farm":66,"title":"Charr\u00e1n Real, Royal Tern (Thalasseus maximus) El charr\u00e1n real (Thalasseus maximus)","ispublic":1,"isfriend":0,"isfamily":0},{"id":"52632710687","owner":"54546220@N00","secret":"a4149a3a16","server":"65535","farm":66,"title":"Charr\u00e1n Real, Royal Tern (Thalasseus maximus) El charr\u00e1n real (Thalasseus maximus)","ispublic":1,"isfriend":0,"isfamily":0},{"id":"52633660560","owner":"54546220@N00","secret":"767061cc5d","server":"65535","farm":66,"title":"Charr\u00e1n Real, Royal Tern (Thalasseus maximus) El charr\u00e1n real (Thalasseus maximus)","ispublic":1,"isfriend":0,"isfamily":0},{"id":"52633479549","owner":"54546220@N00","secret":"8f756e01b4","server":"65535","farm":66,"title":"Charr\u00e1n Real, Royal Tern (Thalasseus maximus) El charr\u00e1n real (Thalasseus maximus)","ispublic":1,"isfriend":0,"isfamily":0},{"id":"52632710102","owner":"54546220@N00","secret":"ccd6f96877","server":"65535","farm":66,"title":"Charr\u00e1n Real, Royal Tern (Thalasseus maximus) El charr\u00e1n real (Thalasseus maximus)","ispublic":1,"isfriend":0,"isfamily":0},{"id":"52632219103","owner":"145466593@N08","secret":"cddd9cb092","server":"65535","farm":66,"title":"Royal Tern","ispublic":1,"isfriend":0,"isfamily":0},{"id":"52631774813","owner":"47533293@N04","secret":"af27cd742f","server":"65535","farm":66,"title":"Royal terns, Thalasseus maximus","ispublic":1,"isfriend":0,"isfamily":0},{"id":"52631774748","owner":"47533293@N04","secret":"37a10b6c49","server":"65535","farm":66,"title":"Royal tern, Thalasseus maximus","ispublic":1,"isfriend":0,"isfamily":0},{"id":"52630893141","owner":"54546220@N00","secret":"9a477a3187","server":"65535","farm":66,"title":"Charr\u00e1n Real, Royal Tern (Thalasseus maximus)","ispublic":1,"isfriend":0,"isfamily":0},{"id":"52630893106","owner":"54546220@N00","secret":"776c8ccbc2","server":"65535","farm":66,"title":"Charr\u00e1n Real, Royal Tern (Thalasseus maximus)","ispublic":1,"isfriend":0,"isfamily":0},{"id":"52630893061","owner":"54546220@N00","secret":"70fac1a5e6","server":"65535","farm":66,"title":"Charr\u00e1n Real, Royal Tern (Thalasseus maximus)","ispublic":1,"isfriend":0,"isfamily":0},{"id":"52627534704","owner":"161267911@N07","secret":"fb71942716","server":"65535","farm":66,"title":"Royal Terns \/sea breez\/Southern California Shore","ispublic":1,"isfriend":0,"isfamily":0},{"id":"52621765916","owner":"32674493@N04","secret":"ef81b8d3da","server":"65535","farm":66,"title":"Trinta-r\u00e9is-real (Thalasseus maximus)","ispublic":1,"isfriend":0,"isfamily":0},{"id":"52605072556","owner":"11295713@N00","secret":"3a4ae16b7a","server":"65535","farm":66,"title":"Royal Terns (Thalasseus maximus) on Pylon","ispublic":1,"isfriend":0,"isfamily":0},{"id":"52603492944","owner":"150793791@N05","secret":"c7a857eb48","server":"65535","farm":66,"title":"Charr\u00e1n Real o Gaviota Real (Thalasseus maximus )","ispublic":1,"isfriend":0,"isfamily":0},{"id":"52603226156","owner":"150793791@N05","secret":"7d070daf05","server":"65535","farm":66,"title":"Charr\u00e1n Real o Gaviota Real (Thalasseus maximus )","ispublic":1,"isfriend":0,"isfamily":0},{"id":"52603221786","owner":"150793791@N05","secret":"6f39739641","server":"65535","farm":66,"title":"Charr\u00e1n Real o Gaviota Real (Thalasseus maximus )","ispublic":1,"isfriend":0,"isfamily":0},{"id":"52603475894","owner":"150793791@N05","secret":"a9d45e246d","server":"65535","farm":66,"title":"Charr\u00e1n Real o Gaviota Real (Thalasseus maximus )","ispublic":1,"isfriend":0,"isfamily":0},{"id":"52603211996","owner":"150793791@N05","secret":"cb2a6f045a","server":"65535","farm":66,"title":"Charr\u00e1n Real o Gaviota Real (Thalasseus maximus )","ispublic":1,"isfriend":0,"isfamily":0},{"id":"52601442461","owner":"75129988@N00","secret":"d752ed54eb","server":"65535","farm":66,"title":"Royal Tern (2836)","ispublic":1,"isfriend":0,"isfamily":0},{"id":"52598178779","owner":"159284114@N07","secret":"b5dedc94c3","server":"65535","farm":66,"title":"Sterne royale, Royal tern","ispublic":1,"isfriend":0,"isfamily":0},{"id":"52593071475","owner":"78223721@N03","secret":"5d009732c3","server":"65535","farm":66,"title":"Thalasseus maximus","ispublic":1,"isfriend":0,"isfamily":0},{"id":"52586719554","owner":"107784905@N04","secret":"529cc645be","server":"65535","farm":66,"title":"Sterne royale - Puntarenas\/Puntarenas\/Costa Rica_20211118_015-1","ispublic":1,"isfriend":0,"isfamily":0},{"id":"52582335745","owner":"62848917@N07","secret":"3b12763203","server":"65535","farm":66,"title":"Royal Tern - Thalasseus maximus","ispublic":1,"isfriend":0,"isfamily":0},{"id":"52581709494","owner":"11295713@N00","secret":"2727f173ee","server":"65535","farm":66,"title":"Royal Tern (Thalasseus maximus) on the Rocks","ispublic":1,"isfriend":0,"isfamily":0},{"id":"52580687790","owner":"153973412@N04","secret":"f8723ac568","server":"65535","farm":66,"title":"Royal Tern-Thalasseus maximus, Galveston Island, TX","ispublic":1,"isfriend":0,"isfamily":0},{"id":"52569987937","owner":"17719035@N00","secret":"e77937febc","server":"65535","farm":66,"title":"Royal tern (Thalasseus maximus)","ispublic":1,"isfriend":0,"isfamily":0},{"id":"52565463396","owner":"28867468@N08","secret":"71e24bf304","server":"65535","farm":66,"title":"Royal Terns Taking Off","ispublic":1,"isfriend":0,"isfamily":0},{"id":"52563933986","owner":"140318147@N08","secret":"13ac500e68","server":"65535","farm":66,"title":"royal tern (Thalasseus maximus) L4A7476","ispublic":1,"isfriend":0,"isfamily":0},{"id":"52564219455","owner":"110624976@N05","secret":"485cb36337","server":"65535","farm":66,"title":"Royal Tern comes in for a landing with a minnow on at Jekyll Island South Beach","ispublic":1,"isfriend":0,"isfamily":0},{"id":"52563730906","owner":"110624976@N05","secret":"df246f1bc3","server":"65535","farm":66,"title":"Royal Tern with minnow at Jekyll Island South Beach","ispublic":1,"isfriend":0,"isfamily":0},{"id":"52561642165","owner":"28867468@N08","secret":"098accbe68","server":"65535","farm":66,"title":"Royal Terns & The Big, Ugly Splash That Got Them Moving","ispublic":1,"isfriend":0,"isfamily":0},{"id":"52561461169","owner":"28867468@N08","secret":"5fdf8ee453","server":"65535","farm":66,"title":"Royal Tern Juvenile","ispublic":1,"isfriend":0,"isfamily":0},{"id":"52560074451","owner":"34318245@N08","secret":"84035b6ca4","server":"65535","farm":66,"title":"0149814","ispublic":1,"isfriend":0,"isfamily":0},{"id":"52559258139","owner":"140734051@N08","secret":"8e9fca2ce8","server":"65535","farm":66,"title":"\u041a\u043e\u0440\u043e\u043b\u0435\u0432\u0441\u043a\u0430\u044f \u043a\u0440\u0430\u0447\u043a\u0430, Thalasseus maximus maximus, Royal Tern","ispublic":1,"isfriend":0,"isfamily":0},{"id":"52559258119","owner":"140734051@N08","secret":"931e997304","server":"65535","farm":66,"title":"\u041a\u043e\u0440\u043e\u043b\u0435\u0432\u0441\u043a\u0430\u044f \u043a\u0440\u0430\u0447\u043a\u0430, Thalasseus maximus maximus, Royal Tern","ispublic":1,"isfriend":0,"isfamily":0},{"id":"52558511357","owner":"140734051@N08","secret":"bca3c7e65e","server":"65535","farm":66,"title":"\u041a\u043e\u0440\u043e\u043b\u0435\u0432\u0441\u043a\u0430\u044f \u043a\u0440\u0430\u0447\u043a\u0430, Thalasseus maximus maximus, Royal Tern","ispublic":1,"isfriend":0,"isfamily":0},{"id":"52558207307","owner":"10571213@N00","secret":"eb7a03556b","server":"65535","farm":66,"title":"Thalasseus maximus","ispublic":1,"isfriend":0,"isfamily":0},{"id":"52559131940","owner":"10571213@N00","secret":"467a701551","server":"65535","farm":66,"title":"Thalasseus maximus","ispublic":1,"isfriend":0,"isfamily":0},{"id":"52559206028","owner":"10571213@N00","secret":"763e8483a2","server":"65535","farm":66,"title":"Thalasseus maximus","ispublic":1,"isfriend":0,"isfamily":0},{"id":"52559177948","owner":"129553350@N02","secret":"6ca6054cc7","server":"65535","farm":66,"title":"Royal Tern","ispublic":1,"isfriend":0,"isfamily":0},{"id":"52555764565","owner":"71418112@N00","secret":"7ba8558a9d","server":"65535","farm":66,"title":"Twins.","ispublic":1,"isfriend":0,"isfamily":0},{"id":"52541471043","owner":"33610210@N05","secret":"3477e8e2ee","server":"65535","farm":66,"title":"Royal Tern, Thalasseus maximus (lower) and Forster's Tern, Sterna forsteri (upper)","ispublic":1,"isfriend":0,"isfamily":0},{"id":"52541470578","owner":"33610210@N05","secret":"131e50de97","server":"65535","farm":66,"title":"Royal Tern, Thalasseus maximus","ispublic":1,"isfriend":0,"isfamily":0},{"id":"52541219099","owner":"33610210@N05","secret":"afae331fd3","server":"65535","farm":66,"title":"Royal Tern, Thalasseus maximus","ispublic":1,"isfriend":0,"isfamily":0},{"id":"52540459277","owner":"33610210@N05","secret":"4f94bbee90","server":"65535","farm":66,"title":"Royal Tern, Thalasseus maximus","ispublic":1,"isfriend":0,"isfamily":0},{"id":"52541402495","owner":"33610210@N05","secret":"5e907431d1","server":"65535","farm":66,"title":"Royal Tern, Thalasseus maximus","ispublic":1,"isfriend":0,"isfamily":0},{"id":"52541402395","owner":"33610210@N05","secret":"edc336e8a7","server":"65535","farm":66,"title":"Royal Tern, Thalasseus maximus","ispublic":1,"isfriend":0,"isfamily":0},{"id":"52541218504","owner":"33610210@N05","secret":"fab3aca21b","server":"65535","farm":66,"title":"Royal Tern, Thalasseus maximus","ispublic":1,"isfriend":0,"isfamily":0},{"id":"52531441937","owner":"76617062@N08","secret":"ff040a3e84","server":"65535","farm":66,"title":"1.04170 Sterne royale \/ Thalasseus maximus maximus \/ Royal Tern","ispublic":1,"isfriend":0,"isfamily":0},{"id":"52530048854","owner":"88932760@N08","secret":"2945044396","server":"65535","farm":66,"title":"I'm HUNGRY!!!","ispublic":1,"isfriend":0,"isfamily":0},{"id":"52522251017","owner":"192278775@N04","secret":"46e9fa1d67","server":"65535","farm":66,"title":"Sterne royale (Thalasseus maximus)","ispublic":1,"isfriend":0,"isfamily":0},{"id":"52511907747","owner":"7546739@N08","secret":"5023409c92","server":"65535","farm":66,"title":"Storm-tossed terns","ispublic":1,"isfriend":0,"isfamily":0},{"id":"52512609178","owner":"84547312@N00","secret":"89ba750c63","server":"65535","farm":66,"title":"With Purpose","ispublic":1,"isfriend":0,"isfamily":0},{"id":"52508513557","owner":"192278775@N04","secret":"7fbbe9e20c","server":"65535","farm":66,"title":"Sterne royale (Thalasseus maximus","ispublic":1,"isfriend":0,"isfamily":0},{"id":"52506447946","owner":"84547312@N00","secret":"133b682ea9","server":"65535","farm":66,"title":"Ruddy Turnstone","ispublic":1,"isfriend":0,"isfamily":0},{"id":"52493414822","owner":"182515684@N02","secret":"21f82a3e9c","server":"65535","farm":66,"title":"Ooops!   ...  P7543-280","ispublic":1,"isfriend":0,"isfamily":0},{"id":"52487993100","owner":"77671375@N04","secret":"cb709e567a","server":"65535","farm":66,"title":"Royal Tern","ispublic":1,"isfriend":0,"isfamily":0},{"id":"52487028132","owner":"77671375@N04","secret":"73cbcba39b","server":"65535","farm":66,"title":"Royal Tern","ispublic":1,"isfriend":0,"isfamily":0},{"id":"52487991095","owner":"77671375@N04","secret":"17c9a16a9d","server":"65535","farm":66,"title":"Royal Tern","ispublic":1,"isfriend":0,"isfamily":0},{"id":"52487026192","owner":"77671375@N04","secret":"d98956554a","server":"65535","farm":66,"title":"Royal Tern","ispublic":1,"isfriend":0,"isfamily":0},{"id":"52487522371","owner":"77671375@N04","secret":"a5ba227a39","server":"65535","farm":66,"title":"Royal Tern","ispublic":1,"isfriend":0,"isfamily":0},{"id":"52487522296","owner":"77671375@N04","secret":"34ec41807b","server":"65535","farm":66,"title":"Royal Tern","ispublic":1,"isfriend":0,"isfamily":0},{"id":"52477251046","owner":"19525575@N00","secret":"daa6ea978e","server":"65535","farm":66,"title":"Royal Tern","ispublic":1,"isfriend":0,"isfamily":0},{"id":"52684210991","owner":"191127565@N03","secret":"1979d05401","server":"65535","farm":66,"title":"Sterne royale -  Thalasseus maximus - Royal Tern","ispublic":1,"isfriend":0,"isfamily":0},{"id":"52658103433","owner":"78223721@N03","secret":"aac5f5ece0","server":"65535","farm":66,"title":"Thalasseus maximus","ispublic":1,"isfriend":0,"isfamily":0},{"id":"52658059005","owner":"78223721@N03","secret":"411b9e7c1c","server":"65535","farm":66,"title":"Thalasseus maximus","ispublic":1,"isfriend":0,"isfamily":0},{"id":"52639711175","owner":"48793602@N07","secret":"1c6bb92f4e","server":"65535","farm":66,"title":"Terra Ceia Bay Royal Tern 01-12-2023","ispublic":1,"isfriend":0,"isfamily":0},{"id":"52633434972","owner":"54546220@N00","secret":"36e90b3de7","server":"65535","farm":66,"title":"Charr\u00e1n Real, Royal Tern (Thalasseus maximus)","ispublic":1,"isfriend":0,"isfamily":0},{"id":"52633660900","owner":"54546220@N00","secret":"776992e915","server":"65535","farm":66,"title":"Charr\u00e1n Real, Royal Tern (Thalasseus maximus) El charr\u00e1n real (Thalasseus maximus)","ispublic":1,"isfriend":0,"isfamily":0},{"id":"52633223046","owner":"54546220@N00","secret":"84782d3d28","server":"65535","farm":66,"title":"Charr\u00e1n Real, Royal Tern (Thalasseus maximus) El charr\u00e1n real (Thalasseus maximus)","ispublic":1,"isfriend":0,"isfamily":0},{"id":"52603492694","owner":"150793791@N05","secret":"8c7ede3afc","server":"65535","farm":66,"title":"Charr\u00e1n Real o Gaviota Real (Thalasseus maximus )","ispublic":1,"isfriend":0,"isfamily":0},{"id":"52603660700","owner":"150793791@N05","secret":"e9b8b76d45","server":"65535","farm":66,"title":"Charr\u00e1n Real o Gaviota Real (Thalasseus maximus )","ispublic":1,"isfriend":0,"isfamily":0},{"id":"52603228721","owner":"150793791@N05","secret":"e2bcddfb26","server":"65535","farm":66,"title":"Charr\u00e1n Real o Gaviota Real (Thalasseus maximus )","ispublic":1,"isfriend":0,"isfamily":0},{"id":"52603733543","owner":"150793791@N05","secret":"3d53066a00","server":"65535","farm":66,"title":"Charr\u00e1n Real o Gaviota Real (Thalasseus maximus )","ispublic":1,"isfriend":0,"isfamily":0},{"id":"52603643025","owner":"150793791@N05","secret":"343c73a44c","server":"65535","farm":66,"title":"Charr\u00e1n Real o Gaviota Real (Thalasseus maximus )","ispublic":1,"isfriend":0,"isfamily":0},{"id":"52603639920","owner":"150793791@N05","secret":"a50a806acd","server":"65535","farm":66,"title":"Charr\u00e1n Real o Gaviota Real (Thalasseus maximus )","ispublic":1,"isfriend":0,"isfamily":0},{"id":"52603464394","owner":"150793791@N05","secret":"684cc25576","server":"65535","farm":66,"title":"Charr\u00e1n Real o Gaviota Real (Thalasseus maximus )","ispublic":1,"isfriend":0,"isfamily":0},{"id":"52603207961","owner":"150793791@N05","secret":"d6f44be0f4","server":"65535","farm":66,"title":"Charr\u00e1n Real o Gaviota Real (Thalasseus maximus )","ispublic":1,"isfriend":0,"isfamily":0},{"id":"52602715932","owner":"150793791@N05","secret":"0be1031161","server":"65535","farm":66,"title":"Charr\u00e1n Real o Gaviota Real (Thalasseus maximus )","ispublic":1,"isfriend":0,"isfamily":0},{"id":"52555807410","owner":"103722035@N06","secret":"dda85b11a8","server":"0","farm":0,"title":"Royal Tern (Thalasseus maximus), Northern Elephant Seal Colony, Piedras Blancas, Highway One, CA","ispublic":1,"isfriend":0,"isfamily":0},{"id":"52487216601","owner":"59619528@N04","secret":"7b524e398a","server":"65535","farm":66,"title":"Royal Tern (Thalasseus maximus)","ispublic":1,"isfriend":0,"isfamily":0}]},"stat":"ok"}