{"photos":{"page":1,"pages":146,"perpage":100,"total":14526,"photo":[{"id":"52720854877","owner":"128369733@N04","secret":"bf82f94ed5","server":"65535","farm":66,"title":"Heading For The Feeder","ispublic":1,"isfriend":0,"isfamily":0},{"id":"52721377401","owner":"128369733@N04","secret":"d36f162390","server":"65535","farm":66,"title":"Almost There","ispublic":1,"isfriend":0,"isfamily":0},{"id":"52719785070","owner":"128369733@N04","secret":"df7222ed44","server":"65535","farm":66,"title":"Off In The Distance","ispublic":1,"isfriend":0,"isfamily":0},{"id":"52711780697","owner":"128369733@N04","secret":"6d0ca4a8ed","server":"65535","farm":66,"title":"Another Flyby Shooting","ispublic":1,"isfriend":0,"isfamily":0},{"id":"52710070766","owner":"128369733@N04","secret":"d2834b6522","server":"65535","farm":66,"title":"Biding One\u2019s Time (1)","ispublic":1,"isfriend":0,"isfamily":0},{"id":"52710485200","owner":"128369733@N04","secret":"05626e1790","server":"65535","farm":66,"title":"Biding One\u2019s Time (2)","ispublic":1,"isfriend":0,"isfamily":0},{"id":"52708865207","owner":"195537536@N03","secret":"bb91e4c4f6","server":"65535","farm":66,"title":"Ruby-throated Hummingbird (Archilochus colubris)  Male","ispublic":1,"isfriend":0,"isfamily":0},{"id":"52704401346","owner":"128369733@N04","secret":"5df71b8f80","server":"65535","farm":66,"title":"Just One Little Moment In Time (1)","ispublic":1,"isfriend":0,"isfamily":0},{"id":"52704400871","owner":"128369733@N04","secret":"f69f9697ff","server":"65535","farm":66,"title":"Just One Little Moment In Time (2)","ispublic":1,"isfriend":0,"isfamily":0},{"id":"52701723434","owner":"38943236@N03","secret":"f6070f392d","server":"65535","farm":66,"title":"Ruby-throated Hummingbird (female)","ispublic":1,"isfriend":0,"isfamily":0},{"id":"52701595639","owner":"132165466@N08","secret":"5a6073901c","server":"65535","farm":66,"title":"Common Basilisk","ispublic":1,"isfriend":0,"isfamily":0},{"id":"52700547014","owner":"128369733@N04","secret":"1c085423a6","server":"65535","farm":66,"title":"Resting","ispublic":1,"isfriend":0,"isfamily":0},{"id":"52695522307","owner":"128369733@N04","secret":"73e6430481","server":"65535","farm":66,"title":"Seeing Red (1)","ispublic":1,"isfriend":0,"isfamily":0},{"id":"52695521897","owner":"128369733@N04","secret":"fc018808dc","server":"65535","farm":66,"title":"Seeing Red (2)","ispublic":1,"isfriend":0,"isfamily":0},{"id":"52692844345","owner":"128369733@N04","secret":"91eee1de0a","server":"65535","farm":66,"title":"Feeder Time","ispublic":1,"isfriend":0,"isfamily":0},{"id":"52692842945","owner":"128369733@N04","secret":"f4fdd2579e","server":"65535","farm":66,"title":"Hummingbird Above (1)","ispublic":1,"isfriend":0,"isfamily":0},{"id":"52692842635","owner":"128369733@N04","secret":"360c1231d2","server":"65535","farm":66,"title":"Hummingbird Above (2)","ispublic":1,"isfriend":0,"isfamily":0},{"id":"52690919971","owner":"128369733@N04","secret":"20f2ec42f2","server":"65535","farm":66,"title":"Another Cloudy Afternoon (1)","ispublic":1,"isfriend":0,"isfamily":0},{"id":"52691410593","owner":"128369733@N04","secret":"2c31a94d61","server":"65535","farm":66,"title":"Another Cloudy Afternoon (2)","ispublic":1,"isfriend":0,"isfamily":0},{"id":"52690559456","owner":"128369733@N04","secret":"a9c96a2939","server":"65535","farm":66,"title":"Today\u2019s Observation Post (1)","ispublic":1,"isfriend":0,"isfamily":0},{"id":"52690826274","owner":"128369733@N04","secret":"c93973b32f","server":"65535","farm":66,"title":"Today\u2019s Observation Post (2)","ispublic":1,"isfriend":0,"isfamily":0},{"id":"52690558226","owner":"128369733@N04","secret":"c5eecc0908","server":"65535","farm":66,"title":"Today\u2019s Observation Post (3)","ispublic":1,"isfriend":0,"isfamily":0},{"id":"52684939228","owner":"128369733@N04","secret":"9224d57b55","server":"65535","farm":66,"title":"Flight To The Feeder\u2026\u2026..Again","ispublic":1,"isfriend":0,"isfamily":0},{"id":"52682486669","owner":"128369733@N04","secret":"b55e43d586","server":"65535","farm":66,"title":"At The Very Tip (2)","ispublic":1,"isfriend":0,"isfamily":0},{"id":"52681436959","owner":"97599611@N04","secret":"bd89439ce4","server":"65535","farm":66,"title":"0P7A6115   Ruby-throated Hummingbird, Canada","ispublic":1,"isfriend":0,"isfamily":0},{"id":"52678948576","owner":"132165466@N08","secret":"d31ab2821f","server":"65535","farm":66,"title":"Baltimore Oriole in winter habitat","ispublic":1,"isfriend":0,"isfamily":0},{"id":"52679446413","owner":"132165466@N08","secret":"8cf923f858","server":"65535","farm":66,"title":"Baltimore Oriole in winter habitat","ispublic":1,"isfriend":0,"isfamily":0},{"id":"52678054547","owner":"128369733@N04","secret":"1e7fc39867","server":"65535","farm":66,"title":"Off He Goes","ispublic":1,"isfriend":0,"isfamily":0},{"id":"52677565524","owner":"97599611@N04","secret":"1062690a47","server":"65535","farm":66,"title":"0P7A7475   Ruby-throated Hummingbird, Canada","ispublic":1,"isfriend":0,"isfamily":0},{"id":"52675555168","owner":"136180232@N08","secret":"2b0f05036a","server":"65535","farm":66,"title":"Ruby-throated Hummingbird (Archilochus colubris) JTE_2756","ispublic":1,"isfriend":0,"isfamily":0},{"id":"52675344929","owner":"136180232@N08","secret":"f1f4428572","server":"65535","farm":66,"title":"Ruby-throated Hummingbird (Archilochus colubris) JTE_2752","ispublic":1,"isfriend":0,"isfamily":0},{"id":"52674551092","owner":"136180232@N08","secret":"6344ee4c1d","server":"65535","farm":66,"title":"Ruby-throated Hummingbird (Archilochus colubris) JTE_2744","ispublic":1,"isfriend":0,"isfamily":0},{"id":"52675554833","owner":"136180232@N08","secret":"8431639f81","server":"65535","farm":66,"title":"Ruby-throated Hummingbird (Archilochus colubris) JTE_2738","ispublic":1,"isfriend":0,"isfamily":0},{"id":"52675554718","owner":"136180232@N08","secret":"caf2c5bbf2","server":"65535","farm":66,"title":"Ruby-throated Hummingbird (Archilochus colubris) JTE_2735","ispublic":1,"isfriend":0,"isfamily":0},{"id":"52674550847","owner":"136180232@N08","secret":"bcd33d6bcb","server":"65535","farm":66,"title":"Ruby-throated Hummingbird (Archilochus colubris) JTE_2733","ispublic":1,"isfriend":0,"isfamily":0},{"id":"52674550737","owner":"136180232@N08","secret":"f9a1e93ff6","server":"65535","farm":66,"title":"Ruby-throated Hummingbird (Archilochus colubris) JTE_2729","ispublic":1,"isfriend":0,"isfamily":0},{"id":"52675489225","owner":"136180232@N08","secret":"0621cfb77a","server":"65535","farm":66,"title":"Ruby-throated Hummingbird (Archilochus colubris) JTE_2723","ispublic":1,"isfriend":0,"isfamily":0},{"id":"52675554288","owner":"136180232@N08","secret":"ddb90a2893","server":"65535","farm":66,"title":"Ruby-throated Hummingbird (Archilochus colubris) JTE_2719","ispublic":1,"isfriend":0,"isfamily":0},{"id":"52675554078","owner":"136180232@N08","secret":"3d9b2d03a3","server":"65535","farm":66,"title":"Ruby-throated Hummingbird (Archilochus colubris) JTE_2711","ispublic":1,"isfriend":0,"isfamily":0},{"id":"52675055886","owner":"136180232@N08","secret":"3874aee054","server":"65535","farm":66,"title":"Ruby-throated Hummingbird (Archilochus colubris) JTE_2709","ispublic":1,"isfriend":0,"isfamily":0},{"id":"52675055681","owner":"136180232@N08","secret":"13b60115eb","server":"65535","farm":66,"title":"Ruby-throated Hummingbird (Archilochus colubris) JTE_2706","ispublic":1,"isfriend":0,"isfamily":0},{"id":"52675488560","owner":"136180232@N08","secret":"33f2876ab5","server":"65535","farm":66,"title":"Ruby-throated Hummingbird (Archilochus colubris) JTE_2694","ispublic":1,"isfriend":0,"isfamily":0},{"id":"52675343604","owner":"136180232@N08","secret":"43d747c4a9","server":"65535","farm":66,"title":"Ruby-throated Hummingbird (Archilochus colubris) JTE_2687","ispublic":1,"isfriend":0,"isfamily":0},{"id":"52674549612","owner":"136180232@N08","secret":"4c265932df","server":"65535","farm":66,"title":"Ruby-throated Hummingbird (Archilochus colubris) JTE_2668","ispublic":1,"isfriend":0,"isfamily":0},{"id":"52674548297","owner":"136180232@N08","secret":"2d9c988922","server":"65535","farm":66,"title":"Ruby-throated Hummingbird (Archilochus colubris) JTE_2624","ispublic":1,"isfriend":0,"isfamily":0},{"id":"52674548202","owner":"136180232@N08","secret":"88db34f1f6","server":"65535","farm":66,"title":"Ruby-throated Hummingbird (Archilochus colubris) JTE_2623","ispublic":1,"isfriend":0,"isfamily":0},{"id":"52675551463","owner":"136180232@N08","secret":"1c3a8094a6","server":"65535","farm":66,"title":"Ruby-throated Hummingbird (Archilochus colubris) JTE_2622","ispublic":1,"isfriend":0,"isfamily":0},{"id":"52675341504","owner":"136180232@N08","secret":"94378c27f5","server":"65535","farm":66,"title":"Ruby-throated Hummingbird (Archilochus colubris) JTE_2618","ispublic":1,"isfriend":0,"isfamily":0},{"id":"52675551363","owner":"136180232@N08","secret":"71318ec150","server":"65535","farm":66,"title":"Ruby-throated Hummingbird (Archilochus colubris) JTE_2612","ispublic":1,"isfriend":0,"isfamily":0},{"id":"52675551293","owner":"136180232@N08","secret":"2dec800724","server":"65535","farm":66,"title":"Ruby-throated Hummingbird (Archilochus colubris) JTE_2604","ispublic":1,"isfriend":0,"isfamily":0},{"id":"52673556546","owner":"97599611@N04","secret":"0a66f17425","server":"65535","farm":66,"title":"0P7A7501   Ruby-throated Hummingbird, Canada","ispublic":1,"isfriend":0,"isfamily":0},{"id":"52671715008","owner":"97599611@N04","secret":"d13ddd83a3","server":"65535","farm":66,"title":"0P7A7443   Ruby-throated Hummingbird, Canada","ispublic":1,"isfriend":0,"isfamily":0},{"id":"52670772270","owner":"128369733@N04","secret":"a199eefa6b","server":"65535","farm":66,"title":"Lofty Lookout (1)","ispublic":1,"isfriend":0,"isfamily":0},{"id":"52670835418","owner":"128369733@N04","secret":"cc243c3d1c","server":"65535","farm":66,"title":"Lofty Lookout (3)","ispublic":1,"isfriend":0,"isfamily":0},{"id":"52670332761","owner":"128369733@N04","secret":"f78e65da62","server":"65535","farm":66,"title":"Lofty Lookout (4)","ispublic":1,"isfriend":0,"isfamily":0},{"id":"52669289833","owner":"136180232@N08","secret":"ae81e1ab85","server":"65535","farm":66,"title":"Ruby-throated Hummingbird (Archilochus colubris) JTE_2385","ispublic":1,"isfriend":0,"isfamily":0},{"id":"52667773802","owner":"128369733@N04","secret":"9ce78657b0","server":"65535","farm":66,"title":"Hovering Around","ispublic":1,"isfriend":0,"isfamily":0},{"id":"52666839202","owner":"97599611@N04","secret":"987da2c0db","server":"65535","farm":66,"title":"0P7A7716   Ruby-throated Hummingbird, Canada","ispublic":1,"isfriend":0,"isfamily":0},{"id":"52664175912","owner":"128369733@N04","secret":"58db4118d4","server":"65535","farm":66,"title":"Fleeting Glimpse","ispublic":1,"isfriend":0,"isfamily":0},{"id":"52663068079","owner":"128369733@N04","secret":"55e12ce609","server":"65535","farm":66,"title":"Iridescent Wings","ispublic":1,"isfriend":0,"isfamily":0},{"id":"52662104909","owner":"136180232@N08","secret":"684e619cc0","server":"65535","farm":66,"title":"Ruby-throated Hummingbird (Archilochus colubris) JTE_1433","ispublic":1,"isfriend":0,"isfamily":0},{"id":"52662240585","owner":"132165466@N08","secret":"41a13f9cbf","server":"65535","farm":66,"title":"Bare-throated Tiger Heron","ispublic":1,"isfriend":0,"isfamily":0},{"id":"52662257843","owner":"132165466@N08","secret":"4335c47474","server":"65535","farm":66,"title":"Bare-throated Tiger Heron","ispublic":1,"isfriend":0,"isfamily":0},{"id":"52662257848","owner":"132165466@N08","secret":"15dd576b3c","server":"65535","farm":66,"title":"Bare-throated Tiger Heron","ispublic":1,"isfriend":0,"isfamily":0},{"id":"52662209420","owner":"132165466@N08","secret":"3d55abb11a","server":"65535","farm":66,"title":"Bare-throated Tiger Heron","ispublic":1,"isfriend":0,"isfamily":0},{"id":"52661593531","owner":"97599611@N04","secret":"ae76e7fff8","server":"65535","farm":66,"title":"0P7A2672    Ruby-throated Hummingbird, Canada","ispublic":1,"isfriend":0,"isfamily":0},{"id":"52661244423","owner":"128369733@N04","secret":"bdcd98b387","server":"65535","farm":66,"title":"Hurry Sundown","ispublic":1,"isfriend":0,"isfamily":0},{"id":"52659230447","owner":"132165466@N08","secret":"0985b8383b","server":"65535","farm":66,"title":"Brown-hooded Parrot","ispublic":1,"isfriend":0,"isfamily":0},{"id":"52659230452","owner":"132165466@N08","secret":"3267d65555","server":"65535","farm":66,"title":"Brown-hooded Parrot","ispublic":1,"isfriend":0,"isfamily":0},{"id":"52659230442","owner":"132165466@N08","secret":"7684e91ccd","server":"65535","farm":66,"title":"Brown-hooded Parrot","ispublic":1,"isfriend":0,"isfamily":0},{"id":"52658012802","owner":"128369733@N04","secret":"a6d0d95cd1","server":"65535","farm":66,"title":"Wary Of His Surroundings (1)","ispublic":1,"isfriend":0,"isfamily":0},{"id":"52658949035","owner":"128369733@N04","secret":"f2119b97ce","server":"65535","farm":66,"title":"Wary Of His Surroundings (2)","ispublic":1,"isfriend":0,"isfamily":0},{"id":"52658948530","owner":"128369733@N04","secret":"9022f2a02e","server":"65535","farm":66,"title":"Wary Of His Surroundings (3)","ispublic":1,"isfriend":0,"isfamily":0},{"id":"52657806350","owner":"132165466@N08","secret":"7e271e4d98","server":"65535","farm":66,"title":"Bare-throated Tiger Heron","ispublic":1,"isfriend":0,"isfamily":0},{"id":"52657357651","owner":"132165466@N08","secret":"acd916389a","server":"65535","farm":66,"title":"Bare-throated Tiger Heron","ispublic":1,"isfriend":0,"isfamily":0},{"id":"52657851303","owner":"132165466@N08","secret":"9826715249","server":"65535","farm":66,"title":"Bare-throated Tiger Heron","ispublic":1,"isfriend":0,"isfamily":0},{"id":"52657790850","owner":"132165466@N08","secret":"da9c7e27b7","server":"65535","farm":66,"title":"Spectacled Caiman","ispublic":1,"isfriend":0,"isfamily":0},{"id":"52657790830","owner":"132165466@N08","secret":"2b0ab6c7de","server":"65535","farm":66,"title":"Spectacled Caiman","ispublic":1,"isfriend":0,"isfamily":0},{"id":"52655760177","owner":"128369733@N04","secret":"ae61f27742","server":"65535","farm":66,"title":"DSC_0004","ispublic":1,"isfriend":0,"isfamily":0},{"id":"52656267094","owner":"13194817@N00","secret":"ec4954f67c","server":"65535","farm":66,"title":"Brunch","ispublic":1,"isfriend":0,"isfamily":0},{"id":"52656267079","owner":"13194817@N00","secret":"42dd110914","server":"65535","farm":66,"title":"Are You Here for Breakfast","ispublic":1,"isfriend":0,"isfamily":0},{"id":"52655970951","owner":"13194817@N00","secret":"20d677809b","server":"0","farm":0,"title":"Slowly Humming","ispublic":1,"isfriend":0,"isfamily":0},{"id":"52655442458","owner":"97599611@N04","secret":"c4f7455002","server":"65535","farm":66,"title":"0P7A1886   Ruby-throated Hummingbird , Canada","ispublic":1,"isfriend":0,"isfamily":0},{"id":"52654028906","owner":"128369733@N04","secret":"7f174ef356","server":"65535","farm":66,"title":"Morning Flight (1)","ispublic":1,"isfriend":0,"isfamily":0},{"id":"52654028566","owner":"128369733@N04","secret":"12bfc17d27","server":"65535","farm":66,"title":"Morning Flight (2)","ispublic":1,"isfriend":0,"isfamily":0},{"id":"52654300394","owner":"128369733@N04","secret":"1c184e4191","server":"65535","farm":66,"title":"A Root To Perch On","ispublic":1,"isfriend":0,"isfamily":0},{"id":"52652574195","owner":"128369733@N04","secret":"15b6d31c92","server":"65535","farm":66,"title":"Diving In","ispublic":1,"isfriend":0,"isfamily":0},{"id":"52651684223","owner":"132165466@N08","secret":"df9a808d11","server":"65535","farm":66,"title":"Whimbrel","ispublic":1,"isfriend":0,"isfamily":0},{"id":"52650704777","owner":"132165466@N08","secret":"002f40eae3","server":"65535","farm":66,"title":"Brown Pelican","ispublic":1,"isfriend":0,"isfamily":0},{"id":"52651501138","owner":"97599611@N04","secret":"0c444a16b7","server":"65535","farm":66,"title":"0P7A2871   Ruby-throated Hummingbird, Canada","ispublic":1,"isfriend":0,"isfamily":0},{"id":"52649656277","owner":"128369733@N04","secret":"4b9af0ab80","server":"65535","farm":66,"title":"Always Vigilant (1)","ispublic":1,"isfriend":0,"isfamily":0},{"id":"52649655902","owner":"128369733@N04","secret":"8a3632b336","server":"65535","farm":66,"title":"Always Vigilant (2)","ispublic":1,"isfriend":0,"isfamily":0},{"id":"52648636091","owner":"184781347@N05","secret":"674affa8cb","server":"65535","farm":66,"title":"male ruby throated hummingbird, taken this past summer","ispublic":1,"isfriend":0,"isfamily":0},{"id":"52646633164","owner":"128369733@N04","secret":"e477a4c2e6","server":"65535","farm":66,"title":"Far And In Between","ispublic":1,"isfriend":0,"isfamily":0},{"id":"52645862712","owner":"128369733@N04","secret":"b93a127e7d","server":"65535","farm":66,"title":"A Moment\u2019s Rest","ispublic":1,"isfriend":0,"isfamily":0},{"id":"52667038467","owner":"48014585@N00","secret":"e733a03d44","server":"65535","farm":66,"title":"Ruby-throated Hummingbird","ispublic":1,"isfriend":0,"isfamily":0},{"id":"52667973435","owner":"48014585@N00","secret":"8949c44bfb","server":"65535","farm":66,"title":"Ruby-throated Hummingbird","ispublic":1,"isfriend":0,"isfamily":0},{"id":"52668011493","owner":"48014585@N00","secret":"60e6553527","server":"65535","farm":66,"title":"Ruby-throated Hummingbird","ispublic":1,"isfriend":0,"isfamily":0},{"id":"52662311348","owner":"136180232@N08","secret":"1c2e9c321d","server":"65535","farm":66,"title":"Ruby-throated Hummingbird (Archilochus colubris) JTE_1410","ispublic":1,"isfriend":0,"isfamily":0},{"id":"52661820136","owner":"136180232@N08","secret":"e2e8e9fcda","server":"65535","farm":66,"title":"Ruby-throated Hummingbird (Archilochus colubris) JTE_1409","ispublic":1,"isfriend":0,"isfamily":0}]},"stat":"ok"}