{"photos":{"page":1,"pages":4,"perpage":100,"total":358,"photo":[{"id":"52721792725","owner":"62043870@N05","secret":"e779b7c527","server":"65535","farm":66,"title":"Ruby-crowned Kinglet, Corthylio calendula","ispublic":1,"isfriend":0,"isfamily":0},{"id":"52720401312","owner":"54059915@N07","secret":"e2b48bf89e","server":"65535","farm":66,"title":"Front and back","ispublic":1,"isfriend":0,"isfamily":0},{"id":"52720401302","owner":"54059915@N07","secret":"0d8722eea6","server":"65535","farm":66,"title":"Front and back","ispublic":1,"isfriend":0,"isfamily":0},{"id":"52717672437","owner":"11815777@N07","secret":"7af4bd792b","server":"65535","farm":66,"title":"Butterball","ispublic":1,"isfriend":0,"isfamily":0},{"id":"52697177775","owner":"11815777@N07","secret":"32e5f7cfdc","server":"65535","farm":66,"title":"Peeking between the branches","ispublic":1,"isfriend":0,"isfamily":0},{"id":"52694677425","owner":"34238008@N02","secret":"38f4788bd7","server":"65535","farm":66,"title":"Ruby-crowned Kinglet (Corthylio calendula)","ispublic":1,"isfriend":0,"isfamily":0},{"id":"52694757578","owner":"34238008@N02","secret":"c52f8f7ccb","server":"65535","farm":66,"title":"Ruby-crowned Kinglet (Corthylio calendula)","ispublic":1,"isfriend":0,"isfamily":0},{"id":"52694266091","owner":"34238008@N02","secret":"8087830548","server":"65535","farm":66,"title":"Ruby-crowned Kinglet (Corthylio calendula)","ispublic":1,"isfriend":0,"isfamily":0},{"id":"52694677125","owner":"34238008@N02","secret":"4a857749d1","server":"65535","farm":66,"title":"Ruby-crowned Kinglet (Corthylio calendula)","ispublic":1,"isfriend":0,"isfamily":0},{"id":"52694265896","owner":"34238008@N02","secret":"5022868aaf","server":"65535","farm":66,"title":"Ruby-crowned Kinglet (Corthylio calendula)","ispublic":1,"isfriend":0,"isfamily":0},{"id":"52694530009","owner":"34238008@N02","secret":"93b71d5466","server":"65535","farm":66,"title":"Ruby-crowned Kinglet (Corthylio calendula)","ispublic":1,"isfriend":0,"isfamily":0},{"id":"52694265666","owner":"34238008@N02","secret":"727586eba5","server":"65535","farm":66,"title":"Ruby-crowned Kinglet (Corthylio calendula)","ispublic":1,"isfriend":0,"isfamily":0},{"id":"52694756878","owner":"34238008@N02","secret":"8145e47f77","server":"65535","farm":66,"title":"Ruby-crowned Kinglet (Corthylio calendula)","ispublic":1,"isfriend":0,"isfamily":0},{"id":"52694529649","owner":"34238008@N02","secret":"80bcb07b70","server":"65535","farm":66,"title":"Ruby-crowned Kinglet (Corthylio calendula)","ispublic":1,"isfriend":0,"isfamily":0},{"id":"52694529509","owner":"34238008@N02","secret":"538e6589df","server":"65535","farm":66,"title":"Ruby-crowned Kinglet (Corthylio calendula)","ispublic":1,"isfriend":0,"isfamily":0},{"id":"52694676280","owner":"34238008@N02","secret":"f155fdc090","server":"65535","farm":66,"title":"Ruby-crowned Kinglet (Corthylio calendula)","ispublic":1,"isfriend":0,"isfamily":0},{"id":"52692103529","owner":"45790314@N04","secret":"777ca420c4","server":"65535","farm":66,"title":"Ruby-crowned kinglet","ispublic":1,"isfriend":0,"isfamily":0},{"id":"52681339041","owner":"158105449@N02","secret":"62a1539fc7","server":"65535","farm":66,"title":"Ruby-crowned Kinglet (Corthylio calendula)","ispublic":1,"isfriend":0,"isfamily":0},{"id":"52657414960","owner":"47200218@N02","secret":"d514b6ed06","server":"65535","farm":66,"title":"Ruby-crowned Kinglet \"Corthylio calendula\"","ispublic":1,"isfriend":0,"isfamily":0},{"id":"52651990481","owner":"195968484@N08","secret":"dd00e8332d","server":"65535","farm":66,"title":"Ruby-crowned kinglet","ispublic":1,"isfriend":0,"isfamily":0},{"id":"52640813247","owner":"63093099@N02","secret":"d6041161b4","server":"65535","farm":66,"title":"Ruby-crowned Kinglet; 20230121; USA-WA-Pierce Co-Nisqually NWR","ispublic":1,"isfriend":0,"isfamily":0},{"id":"52641581624","owner":"63093099@N02","secret":"3c8d35296a","server":"65535","farm":66,"title":"Ruby-crowned Kinglet; 20230121; USA-WA-Pierce Co-Nisqually NWR","ispublic":1,"isfriend":0,"isfamily":0},{"id":"52634874129","owner":"70295563@N00","secret":"1772519d97","server":"65535","farm":66,"title":"In the bushes","ispublic":1,"isfriend":0,"isfamily":0},{"id":"52627182407","owner":"51928691@N04","secret":"e18506f4c3","server":"65535","farm":66,"title":"Ruby-crowned Kinglet (Corthylio calendula) 1 122822","ispublic":1,"isfriend":0,"isfamily":0},{"id":"52617054096","owner":"34238008@N02","secret":"661b958b91","server":"65535","farm":66,"title":"Ruby-crowned Kinglet (Corthylio calendula)","ispublic":1,"isfriend":0,"isfamily":0},{"id":"52617319844","owner":"34238008@N02","secret":"8c28f5a641","server":"65535","farm":66,"title":"Ruby-crowned Kinglet (Corthylio calendula)","ispublic":1,"isfriend":0,"isfamily":0},{"id":"52616479984","owner":"188352054@N08","secret":"11480bd922","server":"65535","farm":66,"title":"IMG_4483","ispublic":1,"isfriend":0,"isfamily":0},{"id":"52607541951","owner":"196264892@N08","secret":"81beb2e760","server":"65535","farm":66,"title":"Ruby-crowned Kinglet","ispublic":1,"isfriend":0,"isfamily":0},{"id":"52607039662","owner":"196264892@N08","secret":"923170ed8a","server":"65535","farm":66,"title":"Ruby-crowned Kinglet","ispublic":1,"isfriend":0,"isfamily":0},{"id":"52608037748","owner":"196264892@N08","secret":"af127e0692","server":"65535","farm":66,"title":"Ruby-crowned Kinglet","ispublic":1,"isfriend":0,"isfamily":0},{"id":"52607964260","owner":"196264892@N08","secret":"9ee6e5e2bc","server":"65535","farm":66,"title":"Ruby-crowned Kinglet","ispublic":1,"isfriend":0,"isfamily":0},{"id":"52607039287","owner":"196264892@N08","secret":"942458f36e","server":"65535","farm":66,"title":"Ruby-crowned Kinglet","ispublic":1,"isfriend":0,"isfamily":0},{"id":"52607801129","owner":"196264892@N08","secret":"04a0206f28","server":"65535","farm":66,"title":"Ruby-crowned Kinglet","ispublic":1,"isfriend":0,"isfamily":0},{"id":"52607800854","owner":"196264892@N08","secret":"bdfa1c36df","server":"65535","farm":66,"title":"Ruby-crowned Kinglet","ispublic":1,"isfriend":0,"isfamily":0},{"id":"52607800684","owner":"196264892@N08","secret":"78b2ceb2c9","server":"65535","farm":66,"title":"Ruby-crowned Kinglet","ispublic":1,"isfriend":0,"isfamily":0},{"id":"52607963340","owner":"196264892@N08","secret":"9c05853533","server":"65535","farm":66,"title":"Ruby-crowned Kinglet","ispublic":1,"isfriend":0,"isfamily":0},{"id":"52607963155","owner":"196264892@N08","secret":"77b125259c","server":"65535","farm":66,"title":"Ruby-crowned Kinglet","ispublic":1,"isfriend":0,"isfamily":0},{"id":"52606934960","owner":"34238008@N02","secret":"0848855216","server":"65535","farm":66,"title":"Ruby-crowned Kinglet (Corthylio calendula)","ispublic":1,"isfriend":0,"isfamily":0},{"id":"52598719296","owner":"40941741@N03","secret":"4b74ecbb82","server":"65535","farm":66,"title":"Ruby-crowned Kinglet","ispublic":1,"isfriend":0,"isfamily":0},{"id":"52588706682","owner":"34238008@N02","secret":"c1692b9aba","server":"65535","farm":66,"title":"Ruby-crowned Kinglet (Corthylio calendula)","ispublic":1,"isfriend":0,"isfamily":0},{"id":"52589703463","owner":"34238008@N02","secret":"5222ef152f","server":"65535","farm":66,"title":"Ruby-crowned Kinglet (Corthylio calendula)","ispublic":1,"isfriend":0,"isfamily":0},{"id":"52589186956","owner":"34238008@N02","secret":"396cfcb1df","server":"65535","farm":66,"title":"Ruby-crowned Kinglet (Corthylio calendula)","ispublic":1,"isfriend":0,"isfamily":0},{"id":"52587203079","owner":"34238008@N02","secret":"8c5c8d4e10","server":"65535","farm":66,"title":"Ruby-crowned Kinglet (Corthylio calendula)","ispublic":1,"isfriend":0,"isfamily":0},{"id":"52586943736","owner":"34238008@N02","secret":"a34567997d","server":"65535","farm":66,"title":"Ruby-crowned Kinglet (Corthylio calendula)","ispublic":1,"isfriend":0,"isfamily":0},{"id":"52586465802","owner":"34238008@N02","secret":"9edbfd9db8","server":"65535","farm":66,"title":"Ruby-crowned Kinglet (Corthylio calendula)","ispublic":1,"isfriend":0,"isfamily":0},{"id":"52584372150","owner":"38514062@N03","secret":"8833a94840","server":"65535","farm":66,"title":"Ruby-crowned Kinglet (Corthylio calendula)","ispublic":1,"isfriend":0,"isfamily":0},{"id":"52566236784","owner":"156694969@N03","secret":"2bb7dcc684","server":"65535","farm":66,"title":"Ruby-crowned Kinglet","ispublic":1,"isfriend":0,"isfamily":0},{"id":"52566486753","owner":"156694969@N03","secret":"18af4e9ea2","server":"65535","farm":66,"title":"Ruby-crowned Kinglet","ispublic":1,"isfriend":0,"isfamily":0},{"id":"52565494802","owner":"156694969@N03","secret":"aa7a9decff","server":"65535","farm":66,"title":"Ruby-crowned Kinglet","ispublic":1,"isfriend":0,"isfamily":0},{"id":"52552094917","owner":"34238008@N02","secret":"27d32cc033","server":"65535","farm":66,"title":"Ruby-crowned Kinglet (Corthylio calendula)","ispublic":1,"isfriend":0,"isfamily":0},{"id":"52552555726","owner":"34238008@N02","secret":"1d25f7477f","server":"65535","farm":66,"title":"Ruby-crowned Kinglet (Corthylio calendula)","ispublic":1,"isfriend":0,"isfamily":0},{"id":"52550024359","owner":"196264892@N08","secret":"577b2c4660","server":"65535","farm":66,"title":"Ruby-crowned Kinglet","ispublic":1,"isfriend":0,"isfamily":0},{"id":"52549107515","owner":"34238008@N02","secret":"4cc4a3dc0b","server":"65535","farm":66,"title":"Ruby-crowned Kinglet (Corthylio calendula)","ispublic":1,"isfriend":0,"isfamily":0},{"id":"52548633801","owner":"34238008@N02","secret":"30dc66b88e","server":"65535","farm":66,"title":"Ruby-crowned Kinglet (Corthylio calendula)","ispublic":1,"isfriend":0,"isfamily":0},{"id":"52548633641","owner":"34238008@N02","secret":"f58052e706","server":"65535","farm":66,"title":"Ruby-crowned Kinglet (Corthylio calendula)","ispublic":1,"isfriend":0,"isfamily":0},{"id":"52548929319","owner":"34238008@N02","secret":"5e6f4d4655","server":"65535","farm":66,"title":"Ruby-crowned Kinglet (Corthylio calendula)","ispublic":1,"isfriend":0,"isfamily":0},{"id":"52549106880","owner":"34238008@N02","secret":"7779be894d","server":"65535","farm":66,"title":"Ruby-crowned Kinglet (Corthylio calendula)","ispublic":1,"isfriend":0,"isfamily":0},{"id":"52548633236","owner":"34238008@N02","secret":"bfaaaa650f","server":"65535","farm":66,"title":"Ruby-crowned Kinglet (Corthylio calendula)","ispublic":1,"isfriend":0,"isfamily":0},{"id":"52529741041","owner":"193483104@N04","secret":"4022307afd","server":"65535","farm":66,"title":"Ruby-crowned Kinglet (Corthylio calendula)","ispublic":1,"isfriend":0,"isfamily":0},{"id":"52517146495","owner":"29170368@N03","secret":"f54c5a3a70","server":"65535","farm":66,"title":"Ruby-crowned Kinglet","ispublic":1,"isfriend":0,"isfamily":0},{"id":"52516917059","owner":"34238008@N02","secret":"fb81df8cd0","server":"65535","farm":66,"title":"Ruby-crowned Kinglet (Corthylio calendula)","ispublic":1,"isfriend":0,"isfamily":0},{"id":"52517126910","owner":"34238008@N02","secret":"ba7f7657c0","server":"65535","farm":66,"title":"Ruby-crowned Kinglet (Corthylio calendula)","ispublic":1,"isfriend":0,"isfamily":0},{"id":"52516916644","owner":"34238008@N02","secret":"5cb03f7009","server":"65535","farm":66,"title":"Ruby-crowned Kinglet (Corthylio calendula)","ispublic":1,"isfriend":0,"isfamily":0},{"id":"52512838520","owner":"32665930@N04","secret":"0c2ba3d560","server":"65535","farm":66,"title":"Ruby-crowned Kinglet","ispublic":1,"isfriend":0,"isfamily":0},{"id":"52511889057","owner":"32665930@N04","secret":"70e3e9b983","server":"65535","farm":66,"title":"Ruby-crowned Kinglet","ispublic":1,"isfriend":0,"isfamily":0},{"id":"52497017624","owner":"34238008@N02","secret":"edae4660c1","server":"65535","farm":66,"title":"Ruby-crowned Kinglet (Corthylio calendula)","ispublic":1,"isfriend":0,"isfamily":0},{"id":"52496254272","owner":"34238008@N02","secret":"e2f844866b","server":"65535","farm":66,"title":"Ruby-crowned Kinglet (Corthylio calendula)","ispublic":1,"isfriend":0,"isfamily":0},{"id":"52496732401","owner":"34238008@N02","secret":"3dbdce1681","server":"65535","farm":66,"title":"Ruby-crowned Kinglet (Corthylio calendula)","ispublic":1,"isfriend":0,"isfamily":0},{"id":"52491275455","owner":"71418112@N00","secret":"aa129087d8","server":"65535","farm":66,"title":"The ruby of the ruby-crowned kinglet.","ispublic":1,"isfriend":0,"isfamily":0},{"id":"52475997447","owner":"38242794@N02","secret":"41273f2faa","server":"65535","farm":66,"title":"Rau\u00f0kollur - Ruby-crowned Kinglet - Corthylio calendula","ispublic":1,"isfriend":0,"isfamily":0},{"id":"52477042063","owner":"38242794@N02","secret":"8470812969","server":"65535","farm":66,"title":"Rau\u00f0kollur - Ruby-crowned Kinglet - Corthylio calendula","ispublic":1,"isfriend":0,"isfamily":0},{"id":"52476348099","owner":"120449047@N06","secret":"f9610b8f79","server":"65535","farm":66,"title":"Ruby-crowned Kinglet","ispublic":1,"isfriend":0,"isfamily":0},{"id":"52473371299","owner":"76617062@N08","secret":"353f997b42","server":"65535","farm":66,"title":"1.21687 Roitelet \u00e0 couronne rubis \/ Corthylio calendula calendula \/ Ruby-crowned Kinglet","ispublic":1,"isfriend":0,"isfamily":0},{"id":"52472367370","owner":"190122705@N03","secret":"6e7a77f6c0","server":"65535","farm":66,"title":"Ruby-Crowned Kinglet","ispublic":1,"isfriend":0,"isfamily":0},{"id":"52460399373","owner":"120449047@N06","secret":"771fff7d1c","server":"65535","farm":66,"title":"A touch of Ruby","ispublic":1,"isfriend":0,"isfamily":0},{"id":"52456248731","owner":"129803374@N05","secret":"8fd98a2a03","server":"65535","farm":66,"title":"Ruby-crowned Kinglet (Corthylio calendula)","ispublic":1,"isfriend":0,"isfamily":0},{"id":"52454741574","owner":"86191812@N07","secret":"94fbb6cfe2","server":"65535","farm":66,"title":"Ruby-crowned Kinglet (Corthylio calendula)","ispublic":1,"isfriend":0,"isfamily":0},{"id":"52440772221","owner":"11327854@N00","secret":"dac3509844","server":"65535","farm":66,"title":"Ruby-crowned Kinglet","ispublic":1,"isfriend":0,"isfamily":0},{"id":"52427727216","owner":"129803374@N05","secret":"083c51e510","server":"65535","farm":66,"title":"Ruby-crowned Kinglet (Corthylio calendula)","ispublic":1,"isfriend":0,"isfamily":0},{"id":"52424798016","owner":"34238008@N02","secret":"50f5975095","server":"65535","farm":66,"title":"Ruby-crowned Kinglet (Corthylio calendula)","ispublic":1,"isfriend":0,"isfamily":0},{"id":"52425318073","owner":"34238008@N02","secret":"28e4a5648c","server":"65535","farm":66,"title":"Ruby-crowned Kinglet (Corthylio calendula)","ispublic":1,"isfriend":0,"isfamily":0},{"id":"52424296357","owner":"34238008@N02","secret":"fde225f32d","server":"65535","farm":66,"title":"Ruby-crowned Kinglet (Corthylio calendula)","ispublic":1,"isfriend":0,"isfamily":0},{"id":"52425317783","owner":"34238008@N02","secret":"bfeca47863","server":"65535","farm":66,"title":"Ruby-crowned Kinglet (Corthylio calendula)","ispublic":1,"isfriend":0,"isfamily":0},{"id":"52423218216","owner":"53783366@N04","secret":"54faf973de","server":"65535","farm":66,"title":"Ruby Crowned Kinglet-Rau\u00f0kollur-Corthylio calendula","ispublic":1,"isfriend":0,"isfamily":0},{"id":"52423218181","owner":"53783366@N04","secret":"904450e7d7","server":"65535","farm":66,"title":"Ruby Crowned Kinglet-Rau\u00f0kollur-Corthylio calendula","ispublic":1,"isfriend":0,"isfamily":0},{"id":"52422712182","owner":"53783366@N04","secret":"5e94e3a302","server":"65535","farm":66,"title":"Ruby Crowned Kinglet-Rau\u00f0kollur-Corthylio calendula","ispublic":1,"isfriend":0,"isfamily":0},{"id":"52409817678","owner":"95355208@N04","secret":"374c71da9c","server":"65535","farm":66,"title":"Ruby-crowned Kinglet","ispublic":1,"isfriend":0,"isfamily":0},{"id":"52405935885","owner":"188156748@N07","secret":"c7f873b53a","server":"65535","farm":66,"title":"Ruby-Crowned Kinglet-Roitelet \u00e0 couronne rubis Corthylio calendula 9119 (2)-SharpenAI-Standard copy.jpgS","ispublic":1,"isfriend":0,"isfamily":0},{"id":"52405935795","owner":"188156748@N07","secret":"44fc50057b","server":"65535","farm":66,"title":"Ruby-Crowned Kinglet-Roitelet \u00e0 couronne rubis Corthylio calendula 9119 (3)-SharpenAI-Standard copy.jpgS","ispublic":1,"isfriend":0,"isfamily":0},{"id":"52404991547","owner":"188156748@N07","secret":"030f019a8e","server":"65535","farm":66,"title":"Ruby-Crowned Kinglet-Roitelet \u00e0 couronne rubis Corthylio calendula 9119 (4)-SharpenAI-Standard copy.jpgS","ispublic":1,"isfriend":0,"isfamily":0},{"id":"52580247491","owner":"153973412@N04","secret":"d51e7b89dd","server":"65535","farm":66,"title":"Ruby Crowned Kinglet-Corthylio calendula, Iowa City, IA","ispublic":1,"isfriend":0,"isfamily":0},{"id":"52511889567","owner":"32665930@N04","secret":"78bfa371ab","server":"65535","farm":66,"title":"Ruby-crowned Kinglet","ispublic":1,"isfriend":0,"isfamily":0},{"id":"52512908358","owner":"32665930@N04","secret":"e5ddb6da3b","server":"65535","farm":66,"title":"Ruby-crowned Kinglet","ispublic":1,"isfriend":0,"isfamily":0},{"id":"52512908118","owner":"32665930@N04","secret":"e7043f60b2","server":"65535","farm":66,"title":"Ruby-crowned Kinglet","ispublic":1,"isfriend":0,"isfamily":0},{"id":"52512907908","owner":"32665930@N04","secret":"cb7b5a7d9d","server":"65535","farm":66,"title":"Ruby-crowned Kinglet","ispublic":1,"isfriend":0,"isfamily":0},{"id":"52511888227","owner":"32665930@N04","secret":"05c962fda6","server":"65535","farm":66,"title":"Ruby-crowned Kinglet","ispublic":1,"isfriend":0,"isfamily":0},{"id":"52449813935","owner":"135315828@N06","secret":"315a078f8b","server":"65535","farm":66,"title":"ruby-crowned kinglet","ispublic":1,"isfriend":0,"isfamily":0},{"id":"52442405814","owner":"90886369@N06","secret":"c63d97a860","server":"65535","farm":66,"title":"Ruby-crowned Kinglet (Corthylio calendula)","ispublic":1,"isfriend":0,"isfamily":0},{"id":"52422122801","owner":"44801995@N02","secret":"6394c04085","server":"65535","farm":66,"title":"Ruby-crowned Kinglet Corthylio calendula","ispublic":1,"isfriend":0,"isfamily":0},{"id":"52415595147","owner":"139237357@N06","secret":"9903157590","server":"65535","farm":66,"title":"Ruby-crowned Kinglet","ispublic":1,"isfriend":0,"isfamily":0}]},"stat":"ok"}