{"photos":{"page":1,"pages":183,"perpage":100,"total":18250,"photo":[{"id":"52723419857","owner":"38824602@N07","secret":"6d663c1f45","server":"65535","farm":66,"title":"Turnstone","ispublic":1,"isfriend":0,"isfamily":0},{"id":"52723595946","owner":"190774999@N02","secret":"59fbe77c50","server":"65535","farm":66,"title":"Tournepierre \u00e0 collier","ispublic":1,"isfriend":0,"isfamily":0},{"id":"52723102776","owner":"110148017@N06","secret":"bc0f6c25f5","server":"65535","farm":66,"title":"\u7ffb\u77f3\u9df8 Arenaria interpres","ispublic":1,"isfriend":0,"isfamily":0},{"id":"52723507170","owner":"110148017@N06","secret":"3115841334","server":"65535","farm":66,"title":"\u7ffb\u77f3\u9df8 Arenaria interpres","ispublic":1,"isfriend":0,"isfamily":0},{"id":"52722190149","owner":"83631655@N00","secret":"4f78a198de","server":"65535","farm":66,"title":"Turnstone - Arenaria interpres","ispublic":1,"isfriend":0,"isfamily":0},{"id":"52722327725","owner":"149730384@N06","secret":"227c76d1fc","server":"65535","farm":66,"title":"Turnstone","ispublic":1,"isfriend":0,"isfamily":0},{"id":"52722146540","owner":"144217344@N03","secret":"a6a6f8518d","server":"65535","farm":66,"title":"Gisela_Nagel-Fl-2065-Steinw\u00e4lzer","ispublic":1,"isfriend":0,"isfamily":0},{"id":"52720578101","owner":"73683441@N07","secret":"74627dacd0","server":"65535","farm":66,"title":"Ruddy Turnstone (Arenaria interpres)","ispublic":1,"isfriend":0,"isfamily":0},{"id":"52718722891","owner":"110148017@N06","secret":"3a41deb82d","server":"65535","farm":66,"title":"\u7ffb\u77f3\u9df8 Arenaria interpres","ispublic":1,"isfriend":0,"isfamily":0},{"id":"52718991054","owner":"110148017@N06","secret":"bf70369c51","server":"65535","farm":66,"title":"\u7ffb\u77f3\u9df8 Arenaria interpres","ispublic":1,"isfriend":0,"isfamily":0},{"id":"52718990989","owner":"110148017@N06","secret":"308e9facd5","server":"65535","farm":66,"title":"\u7ffb\u77f3\u9df8 Arenaria interpres","ispublic":1,"isfriend":0,"isfamily":0},{"id":"52718449463","owner":"130140749@N05","secret":"37c903e5d7","server":"65535","farm":66,"title":"Just taking a stroll","ispublic":1,"isfriend":0,"isfamily":0},{"id":"52717015337","owner":"80186184@N08","secret":"41994a5073","server":"65535","farm":66,"title":"You Looking At Me?","ispublic":1,"isfriend":0,"isfamily":0},{"id":"52716259756","owner":"135315828@N06","secret":"914a2ef27f","server":"65535","farm":66,"title":"ruddy turnstone","ispublic":1,"isfriend":0,"isfamily":0},{"id":"52715736477","owner":"135315828@N06","secret":"960034956a","server":"65535","farm":66,"title":"ruddy turnstone","ispublic":1,"isfriend":0,"isfamily":0},{"id":"52716740748","owner":"135315828@N06","secret":"4d637ea073","server":"65535","farm":66,"title":"ruddy turnstone and purple sandpiper","ispublic":1,"isfriend":0,"isfamily":0},{"id":"52716258871","owner":"135315828@N06","secret":"a06497a750","server":"65535","farm":66,"title":"ruddy turnstone","ispublic":1,"isfriend":0,"isfamily":0},{"id":"52715736437","owner":"135315828@N06","secret":"68119065b5","server":"65535","farm":66,"title":"ruddy turnstone and purple sandpiper","ispublic":1,"isfriend":0,"isfamily":0},{"id":"52716518009","owner":"135315828@N06","secret":"bbaaa1f3b6","server":"65535","farm":66,"title":"ruddy turnstone and purple sandpiper","ispublic":1,"isfriend":0,"isfamily":0},{"id":"52716685550","owner":"135315828@N06","secret":"5c526f8896","server":"65535","farm":66,"title":"ruddy turnstone and purple sandpiper","ispublic":1,"isfriend":0,"isfamily":0},{"id":"52715736292","owner":"135315828@N06","secret":"2c2c036f78","server":"65535","farm":66,"title":"ruddy turnstone","ispublic":1,"isfriend":0,"isfamily":0},{"id":"52716186489","owner":"11815270@N05","secret":"d6a28f1d63","server":"65535","farm":66,"title":"VUELVEPIEDRAS","ispublic":1,"isfriend":0,"isfamily":0},{"id":"52715325012","owner":"86191812@N07","secret":"bdcccd9607","server":"65535","farm":66,"title":"Ruddy Turnstone (Arenaria interpres)","ispublic":1,"isfriend":0,"isfamily":0},{"id":"52716076858","owner":"29894834@N05","secret":"ef03aef41f","server":"65535","farm":66,"title":"Ruddy turnstones and sanderling","ispublic":1,"isfriend":0,"isfamily":0},{"id":"52715508793","owner":"157220357@N08","secret":"844b67dd4b","server":"65535","farm":66,"title":"Turnstones","ispublic":1,"isfriend":0,"isfamily":0},{"id":"52713546108","owner":"47046427@N03","secret":"0678c24d7a","server":"65535","farm":66,"title":"Turnstones - Hill Head","ispublic":1,"isfriend":0,"isfamily":0},{"id":"52712583970","owner":"188490851@N05","secret":"05af8ea201","server":"65535","farm":66,"title":"Winter Visitors","ispublic":1,"isfriend":0,"isfamily":0},{"id":"52707818287","owner":"157220357@N08","secret":"dd6aa8c94f","server":"0","farm":0,"title":"Turnstones","ispublic":1,"isfriend":0,"isfamily":0},{"id":"52705521309","owner":"7355469@N04","secret":"27200d87bf","server":"65535","farm":66,"title":"Ruddy Turnstone (Arenaria interpres)","ispublic":1,"isfriend":0,"isfamily":0},{"id":"52703883577","owner":"80186184@N08","secret":"0329c291ea","server":"65535","farm":66,"title":"The Right Blend","ispublic":1,"isfriend":0,"isfamily":0},{"id":"52700809050","owner":"117307568@N03","secret":"6462b625b4","server":"65535","farm":66,"title":"Ruddy Turnstone (Arenaria interpres)","ispublic":1,"isfriend":0,"isfamily":0},{"id":"52700694728","owner":"39627107@N07","secret":"f7c9d3d0b4","server":"65535","farm":66,"title":"Turnstone","ispublic":1,"isfriend":0,"isfamily":0},{"id":"52699802423","owner":"60325150@N07","secret":"b79a4d172e","server":"65535","farm":66,"title":"\u7ffb\u77f3\u9df8 Arenaria interpres interpres (Linnaeus, 1758)","ispublic":1,"isfriend":0,"isfamily":0},{"id":"52698436547","owner":"12639178@N07","secret":"71bfab5e00","server":"65535","farm":66,"title":"Arenaria interpres, Steinw\u00e4lzer,dj.","ispublic":1,"isfriend":0,"isfamily":0},{"id":"52698953091","owner":"12639178@N07","secret":"41da7c6e40","server":"65535","farm":66,"title":"Arenaria interpres, Steinw\u00e4lzer,dj.","ispublic":1,"isfriend":0,"isfamily":0},{"id":"52698435852","owner":"12639178@N07","secret":"7e12aa0b04","server":"65535","farm":66,"title":"Arenaria interpres, Steinw\u00e4lzer,dj.","ispublic":1,"isfriend":0,"isfamily":0},{"id":"52696400186","owner":"145907835@N07","secret":"1987fce91a","server":"65535","farm":66,"title":"Steenloper - Arenaria interpres","ispublic":1,"isfriend":0,"isfamily":0},{"id":"52695229835","owner":"149730384@N06","secret":"d3e8c19fc6","server":"65535","farm":66,"title":"A Flock of Turnstones","ispublic":1,"isfriend":0,"isfamily":0},{"id":"52692303152","owner":"190994358@N05","secret":"328662c559","server":"65535","farm":66,"title":"Vulnerable","ispublic":1,"isfriend":0,"isfamily":0},{"id":"52691487800","owner":"11295713@N00","secret":"7e015e935e","server":"65535","farm":66,"title":"Ruddy Turnstone (Arenaria interpres) on the Beach 2","ispublic":1,"isfriend":0,"isfamily":0},{"id":"52687399205","owner":"43898512@N07","secret":"65b9d66733","server":"65535","farm":66,"title":"Turnstone - Arenaria interpres","ispublic":1,"isfriend":0,"isfamily":0},{"id":"52686452477","owner":"43898512@N07","secret":"c167cf8b7d","server":"65535","farm":66,"title":"Turnstone - Arenaria interpres","ispublic":1,"isfriend":0,"isfamily":0},{"id":"52684075282","owner":"19538227@N00","secret":"82f2b5504b","server":"65535","farm":66,"title":"Sanderling and Turnstone","ispublic":1,"isfriend":0,"isfamily":0},{"id":"52673627576","owner":"47078197@N04","secret":"754b360e7b","server":"65535","farm":66,"title":"Arenaria interpres morinella (Ruddy Turnstone)","ispublic":1,"isfriend":0,"isfamily":0},{"id":"52673914919","owner":"47078197@N04","secret":"4320800338","server":"65535","farm":66,"title":"Arenaria interpres morinella (Ruddy Turnstone)","ispublic":1,"isfriend":0,"isfamily":0},{"id":"52674121913","owner":"47078197@N04","secret":"e3f3a2f94e","server":"65535","farm":66,"title":"Arenaria interpres morinella (Ruddy Turnstone)","ispublic":1,"isfriend":0,"isfamily":0},{"id":"52682496840","owner":"11159374@N04","secret":"bb3889b5be","server":"65535","farm":66,"title":"Ruddy Turnstone","ispublic":1,"isfriend":0,"isfamily":0},{"id":"52680386776","owner":"34207648@N07","secret":"1185238550","server":"65535","farm":66,"title":"Turnstone  - (Arenaria interpres)  2 clicks for close up","ispublic":1,"isfriend":0,"isfamily":0},{"id":"52680524313","owner":"62283880@N04","secret":"dbf9cd17d7","server":"65535","farm":66,"title":"Ruddy turnstone in flight","ispublic":1,"isfriend":0,"isfamily":0},{"id":"52680524308","owner":"62283880@N04","secret":"490d3af3b4","server":"65535","farm":66,"title":"Turnstone on seaweed-covered rocks (2)","ispublic":1,"isfriend":0,"isfamily":0},{"id":"52680463535","owner":"62283880@N04","secret":"487fa7d501","server":"65535","farm":66,"title":"Turnstone on seaweed-covered rocks (3)","ispublic":1,"isfriend":0,"isfamily":0},{"id":"52679509872","owner":"62283880@N04","secret":"7c478ea0aa","server":"65535","farm":66,"title":"Turnstone on seaweed-covered rocks (1)","ispublic":1,"isfriend":0,"isfamily":0},{"id":"52680384608","owner":"69008291@N02","secret":"7f268a5ea8","server":"65535","farm":66,"title":"Lunchtime Companion!","ispublic":1,"isfriend":0,"isfamily":0},{"id":"52679130899","owner":"23882583@N08","secret":"b4ab728502","server":"65535","farm":66,"title":"Turnstone","ispublic":1,"isfriend":0,"isfamily":0},{"id":"52678758606","owner":"39627107@N07","secret":"6f0a3bbe11","server":"65535","farm":66,"title":"Turnstone","ispublic":1,"isfriend":0,"isfamily":0},{"id":"52679098653","owner":"18217058@N04","secret":"84ce15b5f4","server":"65535","farm":66,"title":"Ruddy turnstone \/ Tildra (Arenaria interpres)","ispublic":1,"isfriend":0,"isfamily":0},{"id":"52679036445","owner":"18217058@N04","secret":"01792f21be","server":"65535","farm":66,"title":"Ruddy turnstone \/ Tildra (Arenaria interpres)","ispublic":1,"isfriend":0,"isfamily":0},{"id":"52679036390","owner":"18217058@N04","secret":"12423203da","server":"65535","farm":66,"title":"Ruddy turnstone \/ Tildra (Arenaria interpres)","ispublic":1,"isfriend":0,"isfamily":0},{"id":"52678563366","owner":"8065988@N06","secret":"d79132c85f","server":"65535","farm":66,"title":"Vuelvepiedras com\u00fan.","ispublic":1,"isfriend":0,"isfamily":0},{"id":"52678992560","owner":"129803374@N05","secret":"04dbff2fc5","server":"65535","farm":66,"title":"Ruddy Turnstone (Arenaria interpres)","ispublic":1,"isfriend":0,"isfamily":0},{"id":"52678581810","owner":"43308910@N02","secret":"e3e0691713","server":"65535","farm":66,"title":"Sidmouth Turnstone","ispublic":1,"isfriend":0,"isfamily":0},{"id":"52677576797","owner":"145489125@N03","secret":"607ba373f3","server":"65535","farm":66,"title":"Turnstone ( Arenaria interpres ) ad.winter ... Redcar Rocks , Yorkshire","ispublic":1,"isfriend":0,"isfamily":0},{"id":"52677562357","owner":"145489125@N03","secret":"66df42f8eb","server":"65535","farm":66,"title":"Turnstone ( Arenaria interpres ) ad.winter ... Redcar Rocks , Yorkshire","ispublic":1,"isfriend":0,"isfamily":0},{"id":"52676905337","owner":"197653711@N02","secret":"45d14fc710","server":"65535","farm":66,"title":"El vuelvepiedras com\u00fan\u200b o rojizo\u200b \/ The ruddy turnstone (Arenaria interpres)","ispublic":1,"isfriend":0,"isfamily":0},{"id":"52677050673","owner":"18217058@N04","secret":"65e870066f","server":"65535","farm":66,"title":"Ruddy turnstone \/ Tildra (Arenaria interpres)","ispublic":1,"isfriend":0,"isfamily":0},{"id":"52677030573","owner":"18217058@N04","secret":"e2c76b757a","server":"65535","farm":66,"title":"Ruddy turnstone \/ Tildra (Arenaria interpres)","ispublic":1,"isfriend":0,"isfamily":0},{"id":"52676883120","owner":"80598453@N08","secret":"d9eeb50a6b","server":"65535","farm":66,"title":"Turnstone(Arenaria interpres)","ispublic":1,"isfriend":0,"isfamily":0},{"id":"52670617021","owner":"145907835@N07","secret":"4c9a774762","server":"65535","farm":66,"title":"Steenloper - Arenaria interpres","ispublic":1,"isfriend":0,"isfamily":0},{"id":"52670177011","owner":"14734088@N02","secret":"cc68c40ac7","server":"65535","farm":66,"title":"Tournepierre \u00e0 collier 191013H2b","ispublic":1,"isfriend":0,"isfamily":0},{"id":"52668229914","owner":"39627107@N07","secret":"2f80cf8762","server":"65535","farm":66,"title":"Turnstone","ispublic":1,"isfriend":0,"isfamily":0},{"id":"52667371794","owner":"39177293@N03","secret":"2ef408f7ae","server":"65535","farm":66,"title":"Ruddy Turnstone","ispublic":1,"isfriend":0,"isfamily":0},{"id":"52666923006","owner":"29894834@N05","secret":"fba25abb1d","server":"65535","farm":66,"title":"Time for a snack","ispublic":1,"isfriend":0,"isfamily":0},{"id":"52665839130","owner":"11295713@N00","secret":"b50c80a1cb","server":"65535","farm":66,"title":"Ruddy Turnstone (Arenaria interpres) Strutting By","ispublic":1,"isfriend":0,"isfamily":0},{"id":"52664902562","owner":"11295713@N00","secret":"405663e540","server":"65535","farm":66,"title":"Ruddy Turnstone (Arenaria interpres) with Snack 2","ispublic":1,"isfriend":0,"isfamily":0},{"id":"52665838835","owner":"11295713@N00","secret":"d36f2e4793","server":"65535","farm":66,"title":"Ruddy Turnstone (Arenaria interpres) with Snack","ispublic":1,"isfriend":0,"isfamily":0},{"id":"52665062236","owner":"11295713@N00","secret":"38e358e1fc","server":"65535","farm":66,"title":"Ruddy Turnstone (Arenaria interpres) Approaching","ispublic":1,"isfriend":0,"isfamily":0},{"id":"52665355049","owner":"11295713@N00","secret":"b9eb5a20a2","server":"65535","farm":66,"title":"Ruddy Turnstone (Arenaria interpres) Catching a Snack","ispublic":1,"isfriend":0,"isfamily":0},{"id":"52664561157","owner":"11295713@N00","secret":"a30056c01f","server":"65535","farm":66,"title":"Ruddy Turnstone (Arenaria interpres) Eyeing a Meal","ispublic":1,"isfriend":0,"isfamily":0},{"id":"52665354769","owner":"11295713@N00","secret":"c226094813","server":"65535","farm":66,"title":"Ruddy Turnstone (Arenaria interpres) in the Water","ispublic":1,"isfriend":0,"isfamily":0},{"id":"52664560887","owner":"11295713@N00","secret":"676453d438","server":"65535","farm":66,"title":"Ruddy Turnstone (Arenaria interpres) on the Beach","ispublic":1,"isfriend":0,"isfamily":0},{"id":"52664560727","owner":"11295713@N00","secret":"f081c6f3ac","server":"65535","farm":66,"title":"Ruddy Turnstone (Arenaria interpres) on the Move","ispublic":1,"isfriend":0,"isfamily":0},{"id":"52665497680","owner":"11295713@N00","secret":"a7ee519048","server":"65535","farm":66,"title":"Ruddy Turnstone (Arenaria interpres) Passing By","ispublic":1,"isfriend":0,"isfamily":0},{"id":"52665497580","owner":"11295713@N00","secret":"1782efbd46","server":"65535","farm":66,"title":"Ruddy Turnstone (Arenaria interpres) Seeking a Meal","ispublic":1,"isfriend":0,"isfamily":0},{"id":"52665497380","owner":"11295713@N00","secret":"1c204738ca","server":"65535","farm":66,"title":"Ruddy Turnstone (Arenaria interpres) Seeking a Snack","ispublic":1,"isfriend":0,"isfamily":0},{"id":"52665060961","owner":"11295713@N00","secret":"d1b974eece","server":"65535","farm":66,"title":"Ruddy Turnstone (Arenaria interpres) Strolling By 5","ispublic":1,"isfriend":0,"isfamily":0},{"id":"52665561913","owner":"11295713@N00","secret":"2e4cc8d6fc","server":"65535","farm":66,"title":"Ruddy Turnstone (Arenaria interpres) Strolling By 3","ispublic":1,"isfriend":0,"isfamily":0},{"id":"52665060681","owner":"11295713@N00","secret":"cf9d81c5ca","server":"65535","farm":66,"title":"Ruddy Turnstone (Arenaria interpres) Strolling By 2","ispublic":1,"isfriend":0,"isfamily":0},{"id":"52665561743","owner":"11295713@N00","secret":"a1e8c382fc","server":"65535","farm":66,"title":"Ruddy Turnstone (Arenaria interpres) Strolling By","ispublic":1,"isfriend":0,"isfamily":0},{"id":"52664559577","owner":"11295713@N00","secret":"c692b036d0","server":"65535","farm":66,"title":"Ruddy Turnstone (Arenaria interpres) Walking By","ispublic":1,"isfriend":0,"isfamily":0},{"id":"52713818363","owner":"186211059@N06","secret":"24ee0e6440","server":"65535","farm":66,"title":"Ruddy Turnstone","ispublic":1,"isfriend":0,"isfamily":0},{"id":"52713601039","owner":"186211059@N06","secret":"dc80264d22","server":"65535","farm":66,"title":"Ruddy Turnstone","ispublic":1,"isfriend":0,"isfamily":0},{"id":"52712427249","owner":"188490851@N05","secret":"03ea75957d","server":"65535","farm":66,"title":"Winter Visitor","ispublic":1,"isfriend":0,"isfamily":0},{"id":"52710965541","owner":"121021311@N02","secret":"b04a27e01d","server":"65535","farm":66,"title":"Tournepierre \u00e0 collier (Arenaria interpres interpres) Ruddy Turnstone","ispublic":1,"isfriend":0,"isfamily":0},{"id":"52699215929","owner":"12639178@N07","secret":"cf50da1b95","server":"65535","farm":66,"title":"Arenaria interpres, Steinw\u00e4lzer,dj.","ispublic":1,"isfriend":0,"isfamily":0},{"id":"52697445352","owner":"197745515@N06","secret":"526197d2a6","server":"65535","farm":66,"title":"Arenaria interpres","ispublic":1,"isfriend":0,"isfamily":0},{"id":"52683223507","owner":"99817330@N02","secret":"b49290213c","server":"65535","farm":66,"title":"Turnstone","ispublic":1,"isfriend":0,"isfamily":0},{"id":"52678102326","owner":"145489125@N03","secret":"6f023c831b","server":"65535","farm":66,"title":"Turnstone ( Arenaria interpres ) ad.winter ... Redcar Rocks , Yorkshire","ispublic":1,"isfriend":0,"isfamily":0},{"id":"52671116908","owner":"145907835@N07","secret":"df26eb615e","server":"65535","farm":66,"title":"Steenloper - Arenaria interpres","ispublic":1,"isfriend":0,"isfamily":0},{"id":"52671116768","owner":"145907835@N07","secret":"3eb0e20b2c","server":"65535","farm":66,"title":"Steenloper - Arenaria interpres","ispublic":1,"isfriend":0,"isfamily":0},{"id":"52666585092","owner":"39177293@N03","secret":"77fb84240c","server":"65535","farm":66,"title":"Ruddy Turnstone","ispublic":1,"isfriend":0,"isfamily":0}]},"stat":"ok"}