{"photos":{"page":1,"pages":20,"perpage":100,"total":1936,"photo":[{"id":"52707823182","owner":"9360144@N07","secret":"6fb9385aca","server":"65535","farm":66,"title":"Ruffed grouse","ispublic":1,"isfriend":0,"isfamily":0},{"id":"52698819736","owner":"38943236@N03","secret":"21bed7f504","server":"65535","farm":66,"title":"Ruffed Grouse","ispublic":1,"isfriend":0,"isfamily":0},{"id":"52647007136","owner":"30638967@N03","secret":"a348bac9d6","server":"65535","farm":66,"title":"Ruffed Grouse DSC_4729","ispublic":1,"isfriend":0,"isfamily":0},{"id":"52647489268","owner":"30638967@N03","secret":"8f251cede0","server":"65535","farm":66,"title":"Ruffed Grouse DSC_4732","ispublic":1,"isfriend":0,"isfamily":0},{"id":"52646501357","owner":"30638967@N03","secret":"2c63da0519","server":"65535","farm":66,"title":"Ruffed Grouse DSC_4735","ispublic":1,"isfriend":0,"isfamily":0},{"id":"52638035388","owner":"187245476@N05","secret":"bdf95d2c6f","server":"65535","farm":66,"title":"RUFFED GROUSE red phase (Bonasa umbellus)","ispublic":1,"isfriend":0,"isfamily":0},{"id":"52623663880","owner":"62710153@N03","secret":"513c4035d7","server":"65535","farm":66,"title":"Elizabeth Bateman, Ruffed Grouse (Bonasa Umbellus), Pigma Micron Pen on Board","ispublic":1,"isfriend":0,"isfamily":0},{"id":"52619299332","owner":"73683441@N07","secret":"73e6190094","server":"65535","farm":66,"title":"Ruffed Grouse (Bonasa umbellus)","ispublic":1,"isfriend":0,"isfamily":0},{"id":"52616918262","owner":"76617062@N08","secret":"293530d9bf","server":"65535","farm":66,"title":"1.01383 G\u00e9linotte hupp\u00e9e \/ Bonasa umbellus togata \/ Ruffed Grouse","ispublic":1,"isfriend":0,"isfamily":0},{"id":"52609864902","owner":"187245476@N05","secret":"3a03305669","server":"65535","farm":66,"title":"RUFFED GROUSE red phase (Bonasa umbellus)","ispublic":1,"isfriend":0,"isfamily":0},{"id":"52609446835","owner":"76617062@N08","secret":"e60bf8171a","server":"65535","farm":66,"title":"1.01383 G\u00e9linotte hupp\u00e9e \/ Bonasa umbellus togata \/ Ruffed Grouse","ispublic":1,"isfriend":0,"isfamily":0},{"id":"52606921891","owner":"76617062@N08","secret":"7440c35787","server":"65535","farm":66,"title":"1.01383 G\u00e9linotte hupp\u00e9e \/ Bonasa umbellus togata \/ Ruffed Grouse","ispublic":1,"isfriend":0,"isfamily":0},{"id":"52579786332","owner":"153973412@N04","secret":"6df5a77e29","server":"65535","farm":66,"title":"Ruffed Grouse-Bonasa umbellus, Sax-Zim Bog, MN","ispublic":1,"isfriend":0,"isfamily":0},{"id":"52567640991","owner":"191185807@N07","secret":"90abf11bde","server":"65535","farm":66,"title":"Ruffed Grouse","ispublic":1,"isfriend":0,"isfamily":0},{"id":"52567178492","owner":"191185807@N07","secret":"081cf0ef8c","server":"65535","farm":66,"title":"Ruffed Grouse","ispublic":1,"isfriend":0,"isfamily":0},{"id":"52567915339","owner":"191185807@N07","secret":"9545f30f71","server":"65535","farm":66,"title":"Ruffed Grouse","ispublic":1,"isfriend":0,"isfamily":0},{"id":"52567637336","owner":"191185807@N07","secret":"c71b0e18aa","server":"65535","farm":66,"title":"Ruffed Grouse","ispublic":1,"isfriend":0,"isfamily":0},{"id":"52568039680","owner":"191185807@N07","secret":"4dd2b53728","server":"65535","farm":66,"title":"Ruffed Grouse","ispublic":1,"isfriend":0,"isfamily":0},{"id":"52534530438","owner":"15656964@N03","secret":"6580157998","server":"65535","farm":66,"title":"Ruffed Grouse (Bonasa umbellus)","ispublic":1,"isfriend":0,"isfamily":0},{"id":"52531569559","owner":"187341427@N04","secret":"9af75fb3b3","server":"65535","farm":66,"title":"Morning Grouse","ispublic":1,"isfriend":0,"isfamily":0},{"id":"52510928222","owner":"30638967@N03","secret":"d6738a4c60","server":"65535","farm":66,"title":"Ruffed Grouse DSC_5617","ispublic":1,"isfriend":0,"isfamily":0},{"id":"52511673154","owner":"30638967@N03","secret":"ab11d1682e","server":"65535","farm":66,"title":"Ruffed Grouse DSC_5629","ispublic":1,"isfriend":0,"isfamily":0},{"id":"52483577361","owner":"59777454@N02","secret":"a4533219a7","server":"65535","farm":66,"title":"Ruffed Grouse Tekiela K0A6065","ispublic":1,"isfriend":0,"isfamily":0},{"id":"52484020745","owner":"59777454@N02","secret":"2134d35be1","server":"65535","farm":66,"title":"Ruffed Grouse male drumming Tekiela TEK4446","ispublic":1,"isfriend":0,"isfamily":0},{"id":"52484106093","owner":"59777454@N02","secret":"8e771fb7d1","server":"65535","farm":66,"title":"Ruffed Grouse male drumming on log Tekiela TEK4663","ispublic":1,"isfriend":0,"isfamily":0},{"id":"52483557376","owner":"59777454@N02","secret":"51fb66bb45","server":"65535","farm":66,"title":"Ruffed Grouse male drumming on log Tekiela TEK5251","ispublic":1,"isfriend":0,"isfamily":0},{"id":"52483062992","owner":"59777454@N02","secret":"59d7520ca8","server":"65535","farm":66,"title":"Ruffed Grouse drumming on log Tekiela TEK5436","ispublic":1,"isfriend":0,"isfamily":0},{"id":"52483057312","owner":"59777454@N02","secret":"d947edb973","server":"65535","farm":66,"title":"Ruffed Grouse male on log TEK9961-Edit","ispublic":1,"isfriend":0,"isfamily":0},{"id":"52483822694","owner":"59777454@N02","secret":"2a946bc5fd","server":"65535","farm":66,"title":"Ruffed Grouse drumming Tekiela TEK7400","ispublic":1,"isfriend":0,"isfamily":0},{"id":"52483822409","owner":"59777454@N02","secret":"e955123ac5","server":"65535","farm":66,"title":"Ruffed Grouse male drumming Tekiela TEK7316","ispublic":1,"isfriend":0,"isfamily":0},{"id":"52406817069","owner":"80987623@N00","secret":"c359cc5785","server":"65535","farm":66,"title":"Sonic Boom","ispublic":1,"isfriend":0,"isfamily":0},{"id":"52387026622","owner":"14734088@N02","secret":"e6aff9d9ae","server":"65535","farm":66,"title":"G\u00e9linotte hupp\u00e9e220913H","ispublic":1,"isfriend":0,"isfamily":0},{"id":"52335114309","owner":"40723658@N05","secret":"e8c928ba04","server":"65535","farm":66,"title":"Ruffed grouse","ispublic":1,"isfriend":0,"isfamily":0},{"id":"52318696079","owner":"40723658@N05","secret":"ba6ed88f9e","server":"65535","farm":66,"title":"Ruffed Grouse","ispublic":1,"isfriend":0,"isfamily":0},{"id":"52283229273","owner":"196264892@N08","secret":"72fd4b86b2","server":"65535","farm":66,"title":"Ruffed Grouse 1","ispublic":1,"isfriend":0,"isfamily":0},{"id":"52282236497","owner":"196264892@N08","secret":"5c85475696","server":"65535","farm":66,"title":"Ruffed Grouse 2","ispublic":1,"isfriend":0,"isfamily":0},{"id":"52282236097","owner":"196264892@N08","secret":"9a6d6a2a24","server":"65535","farm":66,"title":"Ruffed Grouse 3","ispublic":1,"isfriend":0,"isfamily":0},{"id":"52253261197","owner":"187245476@N05","secret":"cdd5b2cbf1","server":"65535","farm":66,"title":"RUFFED GROUSE grey phase female (Bonasa umbellus)","ispublic":1,"isfriend":0,"isfamily":0},{"id":"52216596089","owner":"93576565@N05","secret":"d0d2b7a60e","server":"65535","farm":66,"title":"Ruffed Grouse DSC07926","ispublic":1,"isfriend":0,"isfamily":0},{"id":"52214547967","owner":"14734088@N02","secret":"9f08eec943","server":"65535","farm":66,"title":"G\u00e9linotte hupp\u00e9e 220707H","ispublic":1,"isfriend":0,"isfamily":0},{"id":"52173074223","owner":"99849996@N00","secret":"8bba3b37da","server":"65535","farm":66,"title":"Ruffed Grouse 20210825_7707","ispublic":1,"isfriend":0,"isfamily":0},{"id":"52168486231","owner":"30638967@N03","secret":"fe886c2f05","server":"65535","farm":66,"title":"Ruffed Grouse DSC_7627","ispublic":1,"isfriend":0,"isfamily":0},{"id":"52103448263","owner":"95484108@N07","secret":"46bc8372db","server":"65535","farm":66,"title":"G\u00e9linotte hupp\u00e9e \/\/ Ruffed Grouse","ispublic":1,"isfriend":0,"isfamily":0},{"id":"52097778574","owner":"136180232@N08","secret":"79bb998690","server":"65535","farm":66,"title":"Ruffed Grouse (Bonasa umbellus) JTD_9057","ispublic":1,"isfriend":0,"isfamily":0},{"id":"52092757978","owner":"30638967@N03","secret":"40986fb1fe","server":"65535","farm":66,"title":"Ruffed Grouse DSC_4264","ispublic":1,"isfriend":0,"isfamily":0},{"id":"52092739761","owner":"30638967@N03","secret":"3d8952a06a","server":"65535","farm":66,"title":"Male Ruffed Grouse DSC_4336","ispublic":1,"isfriend":0,"isfamily":0},{"id":"52092757793","owner":"30638967@N03","secret":"af5e792bfe","server":"65535","farm":66,"title":"Male Ruffed Grouse DSC_4343","ispublic":1,"isfriend":0,"isfamily":0},{"id":"52092980149","owner":"30638967@N03","secret":"5f508a9ac6","server":"65535","farm":66,"title":"Female Ruffed Grouse DSC_4402","ispublic":1,"isfriend":0,"isfamily":0},{"id":"52092757638","owner":"30638967@N03","secret":"501f366648","server":"65535","farm":66,"title":"Female Ruffed Grouse DSC_4412","ispublic":1,"isfriend":0,"isfamily":0},{"id":"52052468426","owner":"95484108@N07","secret":"ae50fcc131","server":"65535","farm":66,"title":"G\u00e9linotte hupp\u00e9e \/\/ Ruffed Grouse","ispublic":1,"isfriend":0,"isfamily":0},{"id":"52050000077","owner":"99849996@N00","secret":"d40a79082a","server":"65535","farm":66,"title":"Ruffed Grouse 20210710_8875","ispublic":1,"isfriend":0,"isfamily":0},{"id":"52048853241","owner":"136180232@N08","secret":"492cdf2541","server":"65535","farm":66,"title":"Ruffed Grouse (Bonasa umbellus) JTD_8698","ispublic":1,"isfriend":0,"isfamily":0},{"id":"52049353840","owner":"136180232@N08","secret":"90d00d11b3","server":"65535","farm":66,"title":"Ruffed Grouse (Bonasa umbellus) JTD_8697","ispublic":1,"isfriend":0,"isfamily":0},{"id":"52035185983","owner":"168495655@N07","secret":"bbee0c81cc","server":"65535","farm":66,"title":"G\u00e9linotte hupp\u00e9e - Bonasa umbellus - Ruffed Grouse","ispublic":1,"isfriend":0,"isfamily":0},{"id":"52034233154","owner":"95484108@N07","secret":"cfb9bd8c84","server":"65535","farm":66,"title":"G\u00e9linotte hupp\u00e9e \/\/ Ruffed Grouse","ispublic":1,"isfriend":0,"isfamily":0},{"id":"52013102393","owner":"119787485@N07","secret":"36716d07e9","server":"65535","farm":66,"title":"Ruffed Grouse (Bonasa umbellus togata) - 20210111-20","ispublic":1,"isfriend":0,"isfamily":0},{"id":"52009667798","owner":"136180232@N08","secret":"9e3a792e20","server":"65535","farm":66,"title":"Spruce Grouse (Falcipennis canadensis) Ruffed Grouse (Bonasa umbellus) JTD_7596","ispublic":1,"isfriend":0,"isfamily":0},{"id":"52004430217","owner":"136180232@N08","secret":"a174a8a7e0","server":"65535","farm":66,"title":"Ruffed Grouse (Bonasa umbellus) JTD_5497","ispublic":1,"isfriend":0,"isfamily":0},{"id":"51966690763","owner":"76617062@N08","secret":"92834ec15b","server":"65535","farm":66,"title":"1.01383 G\u00e9linotte hupp\u00e9e \/ Bonasa umbellus togata \/ Ruffed Grouse","ispublic":1,"isfriend":0,"isfamily":0},{"id":"51961771277","owner":"76617062@N08","secret":"13d872e4ab","server":"65535","farm":66,"title":"1.01383 G\u00e9linotte hupp\u00e9e \/ Bonasa umbellus togata \/ Ruffed Grouse","ispublic":1,"isfriend":0,"isfamily":0},{"id":"51960596289","owner":"184155060@N04","secret":"8d38880478","server":"65535","farm":66,"title":"01592 G\u00e9linotte hupp\u00e9e 1 \/ Bonasa umbellus umbelloides \/ Ruffed Grouse","ispublic":1,"isfriend":0,"isfamily":0},{"id":"51960301156","owner":"184155060@N04","secret":"dc5da7e3a3","server":"65535","farm":66,"title":"01592 G\u00e9linotte hupp\u00e9e 2 \/ Bonasa umbellus umbelloides \/ Ruffed Grouse","ispublic":1,"isfriend":0,"isfamily":0},{"id":"51938049438","owner":"95484108@N07","secret":"d917b7bc2b","server":"65535","farm":66,"title":"G\u00e9linotte hupp\u00e9e \/\/ Ruffed Grouse","ispublic":1,"isfriend":0,"isfamily":0},{"id":"51936918578","owner":"52071064@N00","secret":"e084bf543c","server":"65535","farm":66,"title":"Ruffed Grouse","ispublic":1,"isfriend":0,"isfamily":0},{"id":"51936659248","owner":"52071064@N00","secret":"c945fdb3a5","server":"65535","farm":66,"title":"Ruffed Grouse","ispublic":1,"isfriend":0,"isfamily":0},{"id":"51893695274","owner":"159284114@N07","secret":"e8ddf2bc08","server":"65535","farm":66,"title":"G\u00e9linotte hupp\u00e9e, Ruffed grouse","ispublic":1,"isfriend":0,"isfamily":0},{"id":"51892026743","owner":"14028010@N00","secret":"0bf8c701d0","server":"65535","farm":66,"title":"Ruffed Grouse","ispublic":1,"isfriend":0,"isfamily":0},{"id":"51882534915","owner":"73683441@N07","secret":"5503d6d9e4","server":"65535","farm":66,"title":"Ruffed Grouse (Bonasa umbellus)","ispublic":1,"isfriend":0,"isfamily":0},{"id":"51869848347","owner":"108950228@N06","secret":"8662f503b1","server":"65535","farm":66,"title":"En qu\u00eate de bourgeons","ispublic":1,"isfriend":0,"isfamily":0},{"id":"51867447327","owner":"73683441@N07","secret":"053e234d0c","server":"65535","farm":66,"title":"Ruffed Grouse (Bonasa umbellus)(Female)","ispublic":1,"isfriend":0,"isfamily":0},{"id":"51843835382","owner":"73683441@N07","secret":"645822f046","server":"65535","farm":66,"title":"Ruffed Grouse (Bonasa umbellus)","ispublic":1,"isfriend":0,"isfamily":0},{"id":"51840116917","owner":"189462231@N07","secret":"c3e915a4ab","server":"65535","farm":66,"title":"Ruffed Grouse - Slocan, British Columbia","ispublic":1,"isfriend":0,"isfamily":0},{"id":"51831691902","owner":"73683441@N07","secret":"dbe03731c5","server":"65535","farm":66,"title":"Ruffed Grouse (Bonasa umbellus)","ispublic":1,"isfriend":0,"isfamily":0},{"id":"51823116319","owner":"15656964@N03","secret":"7d8f21747d","server":"65535","farm":66,"title":"Ruffed Grouse (Bonasa unbellus)","ispublic":1,"isfriend":0,"isfamily":0},{"id":"51748832626","owner":"7261670@N03","secret":"29718392bf","server":"65535","farm":66,"title":"Ruffed Grouse","ispublic":1,"isfriend":0,"isfamily":0},{"id":"51733233087","owner":"182225716@N07","secret":"d644f83c84","server":"65535","farm":66,"title":"DSC_5266_00001 Ruffed Grouse - G\u00e9linotte hupp\u00e9e","ispublic":1,"isfriend":0,"isfamily":0},{"id":"51733233012","owner":"182225716@N07","secret":"5eb146a4e5","server":"65535","farm":66,"title":"DSC_5079_00001 Ruffed Grouse - G\u00e9linotte hupp\u00e9e","ispublic":1,"isfriend":0,"isfamily":0},{"id":"51734056191","owner":"182225716@N07","secret":"b858f9bdec","server":"65535","farm":66,"title":"DSC_5049_00001 Ruffed Grouse - G\u00e9linotte hupp\u00e9e","ispublic":1,"isfriend":0,"isfamily":0},{"id":"51713330155","owner":"61456446@N06","secret":"603cd5492a","server":"65535","farm":66,"title":"FOU06647.jpg","ispublic":1,"isfriend":0,"isfamily":0},{"id":"51712602938","owner":"61456446@N06","secret":"b4274bae28","server":"65535","farm":66,"title":"FOU06535-Pano.jpg","ispublic":1,"isfriend":0,"isfamily":0},{"id":"52595630391","owner":"64557331@N04","secret":"5a62c335e1","server":"65535","farm":66,"title":"Ruffed Grouse - (Bonasa umbellus)_11272022","ispublic":1,"isfriend":0,"isfamily":0},{"id":"52457631930","owner":"196826870@N06","secret":"5c3fbecdd7","server":"65535","farm":66,"title":"Ruffed Grouse","ispublic":1,"isfriend":0,"isfamily":0},{"id":"52098044570","owner":"136180232@N08","secret":"3f6aa88dd0","server":"65535","farm":66,"title":"Ruffed Grouse (Bonasa umbellus) JTD_9062","ispublic":1,"isfriend":0,"isfamily":0},{"id":"52096516172","owner":"136180232@N08","secret":"d4eaa6fb35","server":"65535","farm":66,"title":"Ruffed Grouse (Bonasa umbellus) JTD_9064","ispublic":1,"isfriend":0,"isfamily":0},{"id":"52096516132","owner":"136180232@N08","secret":"a0648f1d61","server":"65535","farm":66,"title":"Ruffed Grouse (Bonasa umbellus) JTD_9066","ispublic":1,"isfriend":0,"isfamily":0},{"id":"52097570148","owner":"136180232@N08","secret":"10eb6bae3f","server":"65535","farm":66,"title":"Ruffed Grouse (Bonasa umbellus) JTD_9185","ispublic":1,"isfriend":0,"isfamily":0},{"id":"52097539081","owner":"136180232@N08","secret":"8574871b85","server":"65535","farm":66,"title":"Ruffed Grouse (Bonasa umbellus) JTD_9038","ispublic":1,"isfriend":0,"isfamily":0},{"id":"52092739936","owner":"30638967@N03","secret":"dbf45f34c7","server":"65535","farm":66,"title":"Ruffed Grouse DSC_4260","ispublic":1,"isfriend":0,"isfamily":0},{"id":"52034690273","owner":"127662287@N06","secret":"93a1ba3b47","server":"65535","farm":66,"title":"G\u00e9linotte hupp\u00e9e \/ Ruffed Grouse - Bonasa umbellus","ispublic":1,"isfriend":0,"isfamily":0},{"id":"52009668073","owner":"136180232@N08","secret":"4b2ce4b299","server":"65535","farm":66,"title":"Ruffed Grouse (Bonasa umbellus) JTD_7752","ispublic":1,"isfriend":0,"isfamily":0},{"id":"52004430142","owner":"136180232@N08","secret":"6cdb5b68ff","server":"65535","farm":66,"title":"Ruffed Grouse (Bonasa umbellus) JTD_5494","ispublic":1,"isfriend":0,"isfamily":0},{"id":"52004430057","owner":"136180232@N08","secret":"c31119854a","server":"65535","farm":66,"title":"Ruffed Grouse (Bonasa umbellus) JTD_5491","ispublic":1,"isfriend":0,"isfamily":0},{"id":"52004515681","owner":"136180232@N08","secret":"361fb28360","server":"65535","farm":66,"title":"Ruffed Grouse (Bonasa umbellus) JTD_4770","ispublic":1,"isfriend":0,"isfamily":0},{"id":"52003216147","owner":"136180232@N08","secret":"92ca89f6b3","server":"65535","farm":66,"title":"Ruffed Grouse (Bonasa umbellus) JTD_4125","ispublic":1,"isfriend":0,"isfamily":0},{"id":"52003216132","owner":"136180232@N08","secret":"26d8790505","server":"65535","farm":66,"title":"Ruffed Grouse (Bonasa umbellus) JTD_4128","ispublic":1,"isfriend":0,"isfamily":0},{"id":"51961771267","owner":"76617062@N08","secret":"5ca48ebe20","server":"65535","farm":66,"title":"1.01383 G\u00e9linotte hupp\u00e9e \/ Bonasa umbellus togata \/ Ruffed Grouse","ispublic":1,"isfriend":0,"isfamily":0},{"id":"51856423715","owner":"44801995@N02","secret":"bf2b02ea6e","server":"65535","farm":66,"title":"ruffed grouse Bonasa umbellus","ispublic":1,"isfriend":0,"isfamily":0},{"id":"51703458814","owner":"127461478@N08","secret":"7425dac68d","server":"65535","farm":66,"title":"IMG_1086 G\u00e9linotte hupp\u00e9e, Roberval","ispublic":1,"isfriend":0,"isfamily":0},{"id":"51679649031","owner":"125723802@N05","secret":"4728931ed9","server":"65535","farm":66,"title":"Bonasa umbellus - Ruffed Grouse","ispublic":1,"isfriend":0,"isfamily":0},{"id":"51680322259","owner":"125723802@N05","secret":"23134e769b","server":"65535","farm":66,"title":"Bonasa umbellus - Ruffed Grouse","ispublic":1,"isfriend":0,"isfamily":0}]},"stat":"ok"}