{"photos":{"page":1,"pages":72,"perpage":100,"total":7199,"photo":[{"id":"52718934968","owner":"98627816@N02","secret":"98764179aa","server":"65535","farm":66,"title":"Rufus Hummingbird (Selasphorus rufus)","ispublic":1,"isfriend":0,"isfamily":0},{"id":"52715613312","owner":"26520320@N03","secret":"5a0661840f","server":"65535","farm":66,"title":"_BAP0390","ispublic":1,"isfriend":0,"isfamily":0},{"id":"52716134486","owner":"26520320@N03","secret":"f173e94232","server":"65535","farm":66,"title":"_BAP0388","ispublic":1,"isfriend":0,"isfamily":0},{"id":"52716560635","owner":"26520320@N03","secret":"57cd69a276","server":"65535","farm":66,"title":"_BAP0383","ispublic":1,"isfriend":0,"isfamily":0},{"id":"52715612492","owner":"26520320@N03","secret":"426612ef7f","server":"65535","farm":66,"title":"_BAP0380","ispublic":1,"isfriend":0,"isfamily":0},{"id":"52716559985","owner":"26520320@N03","secret":"1832e5a27c","server":"65535","farm":66,"title":"_BAP0374","ispublic":1,"isfriend":0,"isfamily":0},{"id":"52689866341","owner":"33610210@N05","secret":"9d54be5b95","server":"65535","farm":66,"title":"Rufous Hummingbird, Selasphorus rufus","ispublic":1,"isfriend":0,"isfamily":0},{"id":"52677903261","owner":"39652177@N04","secret":"e89870a03e","server":"65535","farm":66,"title":"Lilies and hummingbirds","ispublic":1,"isfriend":0,"isfamily":0},{"id":"52671623436","owner":"28631427@N00","secret":"3406c428c8","server":"65535","farm":66,"title":"Rufous Hummingbird 1","ispublic":1,"isfriend":0,"isfamily":0},{"id":"52672124858","owner":"28631427@N00","secret":"9e39cc4d3d","server":"65535","farm":66,"title":"Rufous Hummingbird 2","ispublic":1,"isfriend":0,"isfamily":0},{"id":"52671618796","owner":"28631427@N00","secret":"7d5e29048b","server":"65535","farm":66,"title":"Rufous Hummingbird 3","ispublic":1,"isfriend":0,"isfamily":0},{"id":"52643514524","owner":"8013969@N03","secret":"d9e9a01808","server":"65535","farm":66,"title":"Selasphorus rufus DFL btr22-2","ispublic":1,"isfriend":0,"isfamily":0},{"id":"52643694440","owner":"8013969@N03","secret":"cfea9f9375","server":"65535","farm":66,"title":"Selasphorus rufus DFL btr22-4","ispublic":1,"isfriend":0,"isfamily":0},{"id":"52643693915","owner":"8013969@N03","secret":"7acf8b8eb5","server":"65535","farm":66,"title":"Selasphorus rufus DFL btr22-5","ispublic":1,"isfriend":0,"isfamily":0},{"id":"52612289940","owner":"39652177@N04","secret":"92d94526a8","server":"65535","farm":66,"title":"Quarrelsome","ispublic":1,"isfriend":0,"isfamily":0},{"id":"52609698759","owner":"86061498@N07","secret":"879a96b681","server":"65535","farm":66,"title":"Rufous Hummingbird","ispublic":1,"isfriend":0,"isfamily":0},{"id":"52604104208","owner":"39652177@N04","secret":"69aa19315b","server":"65535","farm":66,"title":"I've Looked at Birds From the Flip Side Now","ispublic":1,"isfriend":0,"isfamily":0},{"id":"52603596296","owner":"39652177@N04","secret":"6998dfebee","server":"65535","farm":66,"title":"I've Looked at Birds From Both Sides now","ispublic":1,"isfriend":0,"isfamily":0},{"id":"52602625711","owner":"186305695@N02","secret":"863a718c4c","server":"65535","farm":66,"title":"\"Sitting Pretty\"","ispublic":1,"isfriend":0,"isfamily":0},{"id":"52597216336","owner":"12530381@N07","secret":"870b7b4ac6","server":"65535","farm":66,"title":"Female Rufous Hummingbird (Selasphorus rufus) at Deadhorse Ranch State Park, AZ (4\/29\/2018)","ispublic":1,"isfriend":0,"isfamily":0},{"id":"52597292439","owner":"33610210@N05","secret":"babc524bdc","server":"65535","farm":66,"title":"Rufous Hummingbird, Selasphorus rufus","ispublic":1,"isfriend":0,"isfamily":0},{"id":"52597549383","owner":"33610210@N05","secret":"b64c3cd072","server":"65535","farm":66,"title":"Rufous Hummingbird, Selasphorus rufus","ispublic":1,"isfriend":0,"isfamily":0},{"id":"52597292394","owner":"33610210@N05","secret":"1f86e78f26","server":"65535","farm":66,"title":"Rufous Hummingbird, Selasphorus rufus","ispublic":1,"isfriend":0,"isfamily":0},{"id":"52594618466","owner":"34689777@N08","secret":"bb7e5936a5","server":"65535","farm":66,"title":"Rufous hummingbird (Selasphorus rufus).  Albuquerque, New Mexico, USA.","ispublic":1,"isfriend":0,"isfamily":0},{"id":"52581931462","owner":"33610210@N05","secret":"c002099a45","server":"65535","farm":66,"title":"Rufous Hummingbird, Selasphorus rufus (2)","ispublic":1,"isfriend":0,"isfamily":0},{"id":"52582832870","owner":"33610210@N05","secret":"9aea5fc7fc","server":"65535","farm":66,"title":"Rufous Hummingbird, Selasphorus rufus (3)","ispublic":1,"isfriend":0,"isfamily":0},{"id":"52582656749","owner":"33610210@N05","secret":"951e5fa4bc","server":"65535","farm":66,"title":"Rufous Hummingbird, Selasphorus rufus (4)","ispublic":1,"isfriend":0,"isfamily":0},{"id":"52582832825","owner":"33610210@N05","secret":"2ac3b0169c","server":"65535","farm":66,"title":"Rufous Hummingbird, Selasphorus rufus (5)","ispublic":1,"isfriend":0,"isfamily":0},{"id":"52582656074","owner":"33610210@N05","secret":"88b0e62902","server":"65535","farm":66,"title":"Rufous Hummingbird, Selasphorus rufus","ispublic":1,"isfriend":0,"isfamily":0},{"id":"52582908703","owner":"33610210@N05","secret":"6146dc4ed4","server":"65535","farm":66,"title":"Rufous Hummingbird, Selasphorus rufus","ispublic":1,"isfriend":0,"isfamily":0},{"id":"52580246831","owner":"153973412@N04","secret":"4099176f03","server":"65535","farm":66,"title":"Rufous Hummingbird-Selasphorus rufus, Rippey, IA","ispublic":1,"isfriend":0,"isfamily":0},{"id":"52572469994","owner":"33610210@N05","secret":"fd67bbc640","server":"65535","farm":66,"title":"Rufous Hummingbird, Selasphorus rufus","ispublic":1,"isfriend":0,"isfamily":0},{"id":"52572725273","owner":"33610210@N05","secret":"ecfe9b34f0","server":"65535","farm":66,"title":"Rufous Hummingbird, Selasphorus rufus","ispublic":1,"isfriend":0,"isfamily":0},{"id":"52554025255","owner":"132165466@N08","secret":"43dec038c5","server":"65535","farm":66,"title":"Rufous-tailed Hummingbird","ispublic":1,"isfriend":0,"isfamily":0},{"id":"52552057658","owner":"132165466@N08","secret":"6c5015f254","server":"65535","farm":66,"title":"Rufous-tailed Hummingbird","ispublic":1,"isfriend":0,"isfamily":0},{"id":"52551515311","owner":"132165466@N08","secret":"7427f7359b","server":"65535","farm":66,"title":"Rufous-tailed Hummingbird","ispublic":1,"isfriend":0,"isfamily":0},{"id":"52551986780","owner":"132165466@N08","secret":"020d6084ca","server":"65535","farm":66,"title":"Rufous-tailed Hummingbird","ispublic":1,"isfriend":0,"isfamily":0},{"id":"52549069867","owner":"132165466@N08","secret":"44ed244af7","server":"65535","farm":66,"title":"Rufous-tailed Hummingbird","ispublic":1,"isfriend":0,"isfamily":0},{"id":"52550071283","owner":"132165466@N08","secret":"f74cc864d6","server":"65535","farm":66,"title":"Rufous-tailed Hummingbird","ispublic":1,"isfriend":0,"isfamily":0},{"id":"52549999550","owner":"132165466@N08","secret":"6975516cc5","server":"65535","farm":66,"title":"Rufous-tailed Hummingbird","ispublic":1,"isfriend":0,"isfamily":0},{"id":"52541471872","owner":"132165466@N08","secret":"101668a411","server":"65535","farm":66,"title":"Rufous-tailed Hummingbird","ispublic":1,"isfriend":0,"isfamily":0},{"id":"52542479803","owner":"132165466@N08","secret":"182e7ee9cf","server":"65535","farm":66,"title":"Rufous-tailed Hummingbird","ispublic":1,"isfriend":0,"isfamily":0},{"id":"52541108016","owner":"33610210@N05","secret":"43266260c3","server":"65535","farm":66,"title":"Rufous Hummingbird, Selasphorus rufus","ispublic":1,"isfriend":0,"isfamily":0},{"id":"52541291645","owner":"132165466@N08","secret":"ccc543ac2f","server":"65535","farm":66,"title":"Rufous-tailed Hummingbird","ispublic":1,"isfriend":0,"isfamily":0},{"id":"52540810541","owner":"132165466@N08","secret":"97a93e6c26","server":"65535","farm":66,"title":"Rufous-tailed Hummingbird","ispublic":1,"isfriend":0,"isfamily":0},{"id":"52541291655","owner":"132165466@N08","secret":"2cdd108226","server":"65535","farm":66,"title":"Rufous-tailed Hummingbird","ispublic":1,"isfriend":0,"isfamily":0},{"id":"52539675837","owner":"132165466@N08","secret":"d5a254de38","server":"65535","farm":66,"title":"Rufous-tailed Hummingbird","ispublic":1,"isfriend":0,"isfamily":0},{"id":"52540690823","owner":"132165466@N08","secret":"14df40f67c","server":"65535","farm":66,"title":"Rufous-tailed Hummingbird","ispublic":1,"isfriend":0,"isfamily":0},{"id":"52539520188","owner":"33610210@N05","secret":"366f211ec0","server":"65535","farm":66,"title":"Rufous Hummingbird, Selasphorus rufus","ispublic":1,"isfriend":0,"isfamily":0},{"id":"52539520218","owner":"33610210@N05","secret":"c94602644d","server":"65535","farm":66,"title":"Rufous Hummingbird, Selasphorus rufus","ispublic":1,"isfriend":0,"isfamily":0},{"id":"52539444220","owner":"33610210@N05","secret":"c9cdd3fa6e","server":"65535","farm":66,"title":"Rufous Hummingbird, Selasphorus rufus","ispublic":1,"isfriend":0,"isfamily":0},{"id":"52538968054","owner":"132165466@N08","secret":"aa4cc1ce02","server":"65535","farm":66,"title":"Rufous-tailed Hummingbird","ispublic":1,"isfriend":0,"isfamily":0},{"id":"52518394637","owner":"8904060@N06","secret":"69020568e2","server":"65535","farm":66,"title":"Crocosmia Perch","ispublic":1,"isfriend":0,"isfamily":0},{"id":"52513721834","owner":"39652177@N04","secret":"bbf59a429c","server":"65535","farm":66,"title":"Rufous hummingbird","ispublic":1,"isfriend":0,"isfamily":0},{"id":"52500089790","owner":"8904060@N06","secret":"b4fd30470d","server":"65535","farm":66,"title":"Things are lookin' Up!","ispublic":1,"isfriend":0,"isfamily":0},{"id":"52481728296","owner":"61241315@N00","secret":"ae9b54c335","server":"0","farm":0,"title":"Rufous Hummingbird_8050.MP4","ispublic":1,"isfriend":0,"isfamily":0},{"id":"52481728316","owner":"61241315@N00","secret":"fd207178d0","server":"65535","farm":66,"title":"Rufous Hummingbird_N8019","ispublic":1,"isfriend":0,"isfamily":0},{"id":"52482270808","owner":"61241315@N00","secret":"3f1e5591d3","server":"65535","farm":66,"title":"Rufous Hummingbird_N8045","ispublic":1,"isfriend":0,"isfamily":0},{"id":"52481727586","owner":"61241315@N00","secret":"3736da8772","server":"65535","farm":66,"title":"Rufous Hummingbird_N8034","ispublic":1,"isfriend":0,"isfamily":0},{"id":"52481226577","owner":"61241315@N00","secret":"204ed4b977","server":"65535","farm":66,"title":"Rufous Hummingbird_00_00_45_395","ispublic":1,"isfriend":0,"isfamily":0},{"id":"52479208426","owner":"8904060@N06","secret":"d9f04a354a","server":"65535","farm":66,"title":"Rufous Flare","ispublic":1,"isfriend":0,"isfamily":0},{"id":"52479131079","owner":"8904060@N06","secret":"48dc417698","server":"65535","farm":66,"title":"Big Hug","ispublic":1,"isfriend":0,"isfamily":0},{"id":"52453646564","owner":"26096524@N03","secret":"ee401106cf","server":"65535","farm":66,"title":"Rufous Hummingbird (Selasphorus rufus)","ispublic":1,"isfriend":0,"isfamily":0},{"id":"52440606464","owner":"99613800@N02","secret":"102cd1aff0","server":"65535","farm":66,"title":"Selasphorus rufus (Rufous Hummingbird) female - Trochilidae - George C. Reifel Migratory Bird Sanctuary, Vancouver, British Columbia, Canada","ispublic":1,"isfriend":0,"isfamily":0},{"id":"52440327861","owner":"99613800@N02","secret":"12154383b0","server":"65535","farm":66,"title":"Selasphorus rufus (Rufous Hummingbird) female - Trochilidae - George C. Reifel Migratory Bird Sanctuary, Vancouver, British Columbia, Canada-2","ispublic":1,"isfriend":0,"isfamily":0},{"id":"52440327706","owner":"99613800@N02","secret":"47ce795f54","server":"65535","farm":66,"title":"Selasphorus rufus (Rufous Hummingbird) female - Trochilidae - George C. Reifel Migratory Bird Sanctuary, Vancouver, British Columbia, Canada-3","ispublic":1,"isfriend":0,"isfamily":0},{"id":"52415209632","owner":"132165466@N08","secret":"e491cc20cd","server":"65535","farm":66,"title":"Rufous Hummingbird","ispublic":1,"isfriend":0,"isfamily":0},{"id":"52416234773","owner":"132165466@N08","secret":"09661f7963","server":"65535","farm":66,"title":"Rufous Hummingbird","ispublic":1,"isfriend":0,"isfamily":0},{"id":"52403315169","owner":"39652177@N04","secret":"53142fc8a4","server":"65535","farm":66,"title":"Rufous hummingbirds","ispublic":1,"isfriend":0,"isfamily":0},{"id":"52400338294","owner":"135315828@N06","secret":"240ea1f43a","server":"65535","farm":66,"title":"rufous hummingbird","ispublic":1,"isfriend":0,"isfamily":0},{"id":"52400338319","owner":"135315828@N06","secret":"6959e09360","server":"65535","farm":66,"title":"rufous hummingbird","ispublic":1,"isfriend":0,"isfamily":0},{"id":"52400481060","owner":"135315828@N06","secret":"9a37a735a2","server":"65535","farm":66,"title":"rufous hummingbird","ispublic":1,"isfriend":0,"isfamily":0},{"id":"52400481035","owner":"135315828@N06","secret":"ce1bc3f937","server":"65535","farm":66,"title":"rufous hummingbird","ispublic":1,"isfriend":0,"isfamily":0},{"id":"52399419018","owner":"33573751@N04","secret":"cd6afc8856","server":"65535","farm":66,"title":"Rufous Hummingbird (Selasphorus rufus) - Glen Eyrie, Colorado, USA","ispublic":1,"isfriend":0,"isfamily":0},{"id":"52395757421","owner":"132165466@N08","secret":"500a812d1b","server":"65535","farm":66,"title":"Rufous Hummingbird","ispublic":1,"isfriend":0,"isfamily":0},{"id":"52396259493","owner":"132165466@N08","secret":"36d6b1f085","server":"65535","farm":66,"title":"Rufous Hummingbird","ispublic":1,"isfriend":0,"isfamily":0},{"id":"52396259478","owner":"132165466@N08","secret":"7f7d611857","server":"65535","farm":66,"title":"Rufous Hummingbird","ispublic":1,"isfriend":0,"isfamily":0},{"id":"52390844002","owner":"39652177@N04","secret":"4974328698","server":"65535","farm":66,"title":"Reviewing the Situation","ispublic":1,"isfriend":0,"isfamily":0},{"id":"52380836045","owner":"131037795@N03","secret":"f9db2e5abc","server":"65535","farm":66,"title":"Rufous Hummingbird (Selasphorus rufus)","ispublic":1,"isfriend":0,"isfamily":0},{"id":"52380835865","owner":"131037795@N03","secret":"1e663a0aea","server":"65535","farm":66,"title":"Rufous Hummingbird (Selasphorus rufus)","ispublic":1,"isfriend":0,"isfamily":0},{"id":"52380651078","owner":"131037795@N03","secret":"1421feb47b","server":"65535","farm":66,"title":"Rufous Hummingbird (Selasphorus rufus)","ispublic":1,"isfriend":0,"isfamily":0},{"id":"52380101155","owner":"90132363@N00","secret":"d94be2d4f7","server":"65535","farm":66,"title":"Rufous Hummingbird","ispublic":1,"isfriend":0,"isfamily":0},{"id":"52368548700","owner":"39652177@N04","secret":"6c410ee1f4","server":"65535","farm":66,"title":"Yeah, them's fighting words.","ispublic":1,"isfriend":0,"isfamily":0},{"id":"52347874733","owner":"132165466@N08","secret":"cab45b8d43","server":"65535","farm":66,"title":"Rufous Hummingbird, immature male","ispublic":1,"isfriend":0,"isfamily":0},{"id":"52347874743","owner":"132165466@N08","secret":"2a4a0c4117","server":"65535","farm":66,"title":"Rufous Hummingbird, immature male","ispublic":1,"isfriend":0,"isfamily":0},{"id":"52348052010","owner":"132165466@N08","secret":"7cd6fd748c","server":"65535","farm":66,"title":"Rufous Hummingbird, immature male","ispublic":1,"isfriend":0,"isfamily":0},{"id":"52643513634","owner":"8013969@N03","secret":"0a412a3cc4","server":"65535","farm":66,"title":"Selasphorus rufus DFL btr22-3","ispublic":1,"isfriend":0,"isfamily":0},{"id":"52495250801","owner":"64557331@N04","secret":"25597a563f","server":"65535","farm":66,"title":"Rufous Hummingbird - (Selasphorus rufus)_091120222","ispublic":1,"isfriend":0,"isfamily":0},{"id":"52481996889","owner":"61241315@N00","secret":"b6a10bdf76","server":"65535","farm":66,"title":"Rufous Hummingbird_N8020","ispublic":1,"isfriend":0,"isfamily":0},{"id":"52481226697","owner":"61241315@N00","secret":"cd5867336d","server":"65535","farm":66,"title":"Rufous Hummingbird_N8028","ispublic":1,"isfriend":0,"isfamily":0},{"id":"52461045857","owner":"62043870@N05","secret":"8fa200e673","server":"65535","farm":66,"title":"Rufous Hummingbird, Selasphorus rufus","ispublic":1,"isfriend":0,"isfamily":0},{"id":"52461826744","owner":"62043870@N05","secret":"5603472d06","server":"65535","farm":66,"title":"Rufous Hummingbird, Selasphorus rufus","ispublic":1,"isfriend":0,"isfamily":0},{"id":"52403447248","owner":"181847212@N05","secret":"4920304bd2","server":"65535","farm":66,"title":"Rufous Hummingbird (Selasphorus rufus)","ispublic":1,"isfriend":0,"isfamily":0},{"id":"52391500876","owner":"196264892@N08","secret":"65aa935b08","server":"65535","farm":66,"title":"Rufous Hummingbird juvenile male","ispublic":1,"isfriend":0,"isfamily":0},{"id":"52364084653","owner":"34238008@N02","secret":"7987cd10fb","server":"65535","farm":66,"title":"Rufous Hummingbird (Selasphorus rufus)","ispublic":1,"isfriend":0,"isfamily":0},{"id":"52364165644","owner":"34238008@N02","secret":"576a2d858d","server":"65535","farm":66,"title":"Rufous Hummingbird (Selasphorus rufus)","ispublic":1,"isfriend":0,"isfamily":0},{"id":"52362918922","owner":"34238008@N02","secret":"d85bf09deb","server":"65535","farm":66,"title":"Rufous Hummingbird (Selasphorus rufus)","ispublic":1,"isfriend":0,"isfamily":0},{"id":"52364084313","owner":"34238008@N02","secret":"c0aa094a8e","server":"65535","farm":66,"title":"Rufous Hummingbird (Selasphorus rufus)","ispublic":1,"isfriend":0,"isfamily":0},{"id":"52363855381","owner":"34238008@N02","secret":"4a3afcab2b","server":"65535","farm":66,"title":"Rufous Hummingbird (Selasphorus rufus)","ispublic":1,"isfriend":0,"isfamily":0},{"id":"52363855256","owner":"34238008@N02","secret":"f221acbf41","server":"65535","farm":66,"title":"Rufous Hummingbird (Selasphorus rufus)","ispublic":1,"isfriend":0,"isfamily":0}]},"stat":"ok"}