{"photos":{"page":1,"pages":16,"perpage":100,"total":1552,"photo":[{"id":"52693476143","owner":"14908898@N08","secret":"a36d148d53","server":"65535","farm":66,"title":"Rusty Blackbird 1-31-23","ispublic":1,"isfriend":0,"isfamily":0},{"id":"52644835133","owner":"65633503@N02","secret":"348ed8e81e","server":"65535","farm":66,"title":"Rusty blackbird female (Euphagus carolinus).","ispublic":1,"isfriend":0,"isfamily":0},{"id":"52644355471","owner":"65633503@N02","secret":"f59d916b17","server":"65535","farm":66,"title":"Rusty blackbird male (Euphagus carolinus).","ispublic":1,"isfriend":0,"isfamily":0},{"id":"52622481055","owner":"10665268@N04","secret":"da3112f274","server":"65535","farm":66,"title":"Rusty Blackbird, Clatsop Co., OR_6787(1)","ispublic":1,"isfriend":0,"isfamily":0},{"id":"52622481025","owner":"10665268@N04","secret":"d852b38f5d","server":"65535","farm":66,"title":"Rusty Blackbird, Clatsop Co., OR_6796(1)","ispublic":1,"isfriend":0,"isfamily":0},{"id":"52603984534","owner":"56983940@N06","secret":"c09f71ff47","server":"65535","farm":66,"title":"Rusty Blackbird","ispublic":1,"isfriend":0,"isfamily":0},{"id":"52580246421","owner":"153973412@N04","secret":"1d6c2de04f","server":"65535","farm":66,"title":"Rusty Blackbird-Euphagus carolinus, Amana, IA","ispublic":1,"isfriend":0,"isfamily":0},{"id":"52570325148","owner":"128537732@N06","secret":"70b06745df","server":"65535","farm":66,"title":"Rusty Blackbird (Euphagus carolinus)","ispublic":1,"isfriend":0,"isfamily":0},{"id":"52538105374","owner":"126271444@N08","secret":"8f4b73288c","server":"65535","farm":66,"title":"Rusty Blackbird (Euphagus carolinus)female","ispublic":1,"isfriend":0,"isfamily":0},{"id":"52537812356","owner":"126271444@N08","secret":"7d2a3e5fd6","server":"65535","farm":66,"title":"Rusty Blackbird (Euphagus carolinus)female","ispublic":1,"isfriend":0,"isfamily":0},{"id":"52532225511","owner":"69812270@N00","secret":"c4bbe3f2c9","server":"65535","farm":66,"title":"Rusty Blackbird, Female","ispublic":1,"isfriend":0,"isfamily":0},{"id":"52527060378","owner":"61241315@N00","secret":"a40ce3ccd7","server":"0","farm":0,"title":"Female Rusty Blackbird_0385.MP4","ispublic":1,"isfriend":0,"isfamily":0},{"id":"52526518736","owner":"61241315@N00","secret":"95d61554d3","server":"0","farm":0,"title":"Female Rusty Blackbird_0376.MP4","ispublic":1,"isfriend":0,"isfamily":0},{"id":"52526988060","owner":"61241315@N00","secret":"9113122262","server":"0","farm":0,"title":"Female Rusty Blackbird_0395.MP4","ispublic":1,"isfriend":0,"isfamily":0},{"id":"52526994670","owner":"61241315@N00","secret":"b66b4e2832","server":"65535","farm":66,"title":"Female Rusty Blackbird_N0396","ispublic":1,"isfriend":0,"isfamily":0},{"id":"52526518766","owner":"61241315@N00","secret":"bbd84140af","server":"65535","farm":66,"title":"Female Rusty Blackbird_N0392","ispublic":1,"isfriend":0,"isfamily":0},{"id":"52526518711","owner":"61241315@N00","secret":"08b4eebb21","server":"65535","farm":66,"title":"Female Rusty Blackbird_N0403","ispublic":1,"isfriend":0,"isfamily":0},{"id":"52516050314","owner":"39445433@N02","secret":"0aa56fb440","server":"65535","farm":66,"title":"Rusty Blackbird","ispublic":1,"isfriend":0,"isfamily":0},{"id":"52515778616","owner":"39445433@N02","secret":"5c9d2a6293","server":"65535","farm":66,"title":"Rusty Blackbird","ispublic":1,"isfriend":0,"isfamily":0},{"id":"52516259160","owner":"39445433@N02","secret":"025806712a","server":"65535","farm":66,"title":"Rusty Blackbird","ispublic":1,"isfriend":0,"isfamily":0},{"id":"52516050064","owner":"39445433@N02","secret":"03598c472f","server":"65535","farm":66,"title":"Rusty Blackbird","ispublic":1,"isfriend":0,"isfamily":0},{"id":"52515304342","owner":"39445433@N02","secret":"87b1063655","server":"65535","farm":66,"title":"Rusty Blackbird","ispublic":1,"isfriend":0,"isfamily":0},{"id":"52516048854","owner":"39445433@N02","secret":"0063a37ba1","server":"65535","farm":66,"title":"Palm Warbler","ispublic":1,"isfriend":0,"isfamily":0},{"id":"52516325223","owner":"39445433@N02","secret":"f8cd75c2a1","server":"65535","farm":66,"title":"Rusty Blackbird","ispublic":1,"isfriend":0,"isfamily":0},{"id":"52515302702","owner":"39445433@N02","secret":"58229f2d6d","server":"65535","farm":66,"title":"Rusty Blackbird","ispublic":1,"isfriend":0,"isfamily":0},{"id":"52516324783","owner":"39445433@N02","secret":"19b3c60665","server":"65535","farm":66,"title":"Rusty Blackbird","ispublic":1,"isfriend":0,"isfamily":0},{"id":"52516324643","owner":"39445433@N02","secret":"c33c84f72b","server":"65535","farm":66,"title":"Rusty Blackbird","ispublic":1,"isfriend":0,"isfamily":0},{"id":"52512739537","owner":"128537732@N06","secret":"f3bb6754a7","server":"65535","farm":66,"title":"Rusty Blackbird (Euphagus carolinus)","ispublic":1,"isfriend":0,"isfamily":0},{"id":"52512739247","owner":"128537732@N06","secret":"32d373d208","server":"65535","farm":66,"title":"Rusty Blackbird (Euphagus carolinus)","ispublic":1,"isfriend":0,"isfamily":0},{"id":"52513209986","owner":"128537732@N06","secret":"e464388463","server":"65535","farm":66,"title":"Rusty Blackbird (Euphagus carolinus)","ispublic":1,"isfriend":0,"isfamily":0},{"id":"52512737912","owner":"128537732@N06","secret":"b723f9b7f1","server":"65535","farm":66,"title":"Rusty Blackbird (Euphagus carolinus)","ispublic":1,"isfriend":0,"isfamily":0},{"id":"52512737372","owner":"128537732@N06","secret":"0427aa1451","server":"65535","farm":66,"title":"Rusty Blackbird (Euphagus carolinus)","ispublic":1,"isfriend":0,"isfamily":0},{"id":"52499690485","owner":"128537732@N06","secret":"584cae476f","server":"65535","farm":66,"title":"Rusty Blackbird (Euphagus carolinus)","ispublic":1,"isfriend":0,"isfamily":0},{"id":"52470211034","owner":"128537732@N06","secret":"5a93de2b62","server":"65535","farm":66,"title":"Rusty Blackbird (Euphagus carolinus)","ispublic":1,"isfriend":0,"isfamily":0},{"id":"52465813987","owner":"151381692@N04","secret":"f8692e9221","server":"65535","farm":66,"title":"Rusty Blackbird (Euphagus carolinus)","ispublic":1,"isfriend":0,"isfamily":0},{"id":"52451654026","owner":"131314146@N08","secret":"26c911dbfb","server":"65535","farm":66,"title":"K. MacDonald, Rusty Blackbird, Euphagus carolinus, Hogg Bay, 102322 PA230077 (2)","ispublic":1,"isfriend":0,"isfamily":0},{"id":"52451134342","owner":"131314146@N08","secret":"757420a504","server":"65535","farm":66,"title":"K. MacDonald, Rusty Blackbird, Euphagus carolinus, Hogg Bay, 102322 PA230085 (2)","ispublic":1,"isfriend":0,"isfamily":0},{"id":"52451925724","owner":"131314146@N08","secret":"3cdcfcdb5a","server":"65535","farm":66,"title":"K. MacDonald, Rusty Blackbird, Euphagus carolinus, Hogg Bay, 102322 PA230222 (2)","ispublic":1,"isfriend":0,"isfamily":0},{"id":"52451925554","owner":"131314146@N08","secret":"a3c80763ab","server":"65535","farm":66,"title":"K. MacDonald, Rusty Blackbird, Euphagus carolinus, Hogg Bay, 102322 PA230070 (2)","ispublic":1,"isfriend":0,"isfamily":0},{"id":"52449222576","owner":"128537732@N06","secret":"1262bbac95","server":"65535","farm":66,"title":"Rusty Blackbird (Euphagus carolinus)","ispublic":1,"isfriend":0,"isfamily":0},{"id":"52446983541","owner":"128537732@N06","secret":"1f9baa7544","server":"65535","farm":66,"title":"Rusty Blackbird (Euphagus carolinus)","ispublic":1,"isfriend":0,"isfamily":0},{"id":"52446458747","owner":"128537732@N06","secret":"0eed89fc23","server":"65535","farm":66,"title":"Rusty Blackbird (Euphagus carolinus)","ispublic":1,"isfriend":0,"isfamily":0},{"id":"52447423345","owner":"128537732@N06","secret":"2990469462","server":"65535","farm":66,"title":"Rusty Blackbird (Euphagus carolinus)","ispublic":1,"isfriend":0,"isfamily":0},{"id":"52442857828","owner":"145466593@N08","secret":"a6e3678a3a","server":"65535","farm":66,"title":"Rusty Blackbird","ispublic":1,"isfriend":0,"isfamily":0},{"id":"52432803447","owner":"128537732@N06","secret":"19283c7a0f","server":"65535","farm":66,"title":"Rusty Blackbird (Euphagus carolinus)","ispublic":1,"isfriend":0,"isfamily":0},{"id":"52418070750","owner":"130605131@N08","secret":"27302c148f","server":"65535","farm":66,"title":"IMG_2395","ispublic":1,"isfriend":0,"isfamily":0},{"id":"52417912344","owner":"130605131@N08","secret":"9f0b5f134d","server":"65535","farm":66,"title":"IMG_2400","ispublic":1,"isfriend":0,"isfamily":0},{"id":"52418070680","owner":"130605131@N08","secret":"dfdb7c74e6","server":"65535","farm":66,"title":"IMG_2401","ispublic":1,"isfriend":0,"isfamily":0},{"id":"52417630316","owner":"130605131@N08","secret":"8286ac71dd","server":"65535","farm":66,"title":"IMG_2402","ispublic":1,"isfriend":0,"isfamily":0},{"id":"52417912209","owner":"130605131@N08","secret":"733b0186df","server":"65535","farm":66,"title":"IMG_2403","ispublic":1,"isfriend":0,"isfamily":0},{"id":"52414974287","owner":"90886369@N06","secret":"850f1f0899","server":"65535","farm":66,"title":"Rusty Blackbird (Euphagus carolinus)","ispublic":1,"isfriend":0,"isfamily":0},{"id":"52414526050","owner":"27576221@N03","secret":"f7d8c73ae1","server":"65535","farm":66,"title":"Rusty Balckbird (Euphagus carolinus) male, fall","ispublic":1,"isfriend":0,"isfamily":0},{"id":"52403467574","owner":"128537732@N06","secret":"f319ea2e90","server":"65535","farm":66,"title":"Rusty Blackbirds (Euphagus carolinus)","ispublic":1,"isfriend":0,"isfamily":0},{"id":"52425879271","owner":"195656112@N04","secret":"a4c4c50f79","server":"65535","farm":66,"title":"Rusty Blackbird","ispublic":1,"isfriend":0,"isfamily":0},{"id":"52382006899","owner":"128537732@N06","secret":"ab57545a2b","server":"65535","farm":66,"title":"Rusty Blackbird (Euphagus carolinus)","ispublic":1,"isfriend":0,"isfamily":0},{"id":"52381509245","owner":"48014585@N00","secret":"53a1f6d0b4","server":"65535","farm":66,"title":"Rusty Blackbird","ispublic":1,"isfriend":0,"isfamily":0},{"id":"52381398429","owner":"48014585@N00","secret":"6219bfdc59","server":"65535","farm":66,"title":"Rusty Blackbird","ispublic":1,"isfriend":0,"isfamily":0},{"id":"52275793021","owner":"25531047@N00","secret":"f7fd2c24e6","server":"65535","farm":66,"title":"Rusty Blackbird","ispublic":1,"isfriend":0,"isfamily":0},{"id":"52190830423","owner":"29170368@N03","secret":"c716f64884","server":"65535","farm":66,"title":"Rusty Blackbird","ispublic":1,"isfriend":0,"isfamily":0},{"id":"52152666672","owner":"28499865@N07","secret":"3cc864997d","server":"65535","farm":66,"title":"Rusty Blackbird - Euphagus carolinus","ispublic":1,"isfriend":0,"isfamily":0},{"id":"52153676466","owner":"28499865@N07","secret":"7fbc900d6c","server":"65535","farm":66,"title":"Rusty Blackbird - Euphagus carolinus","ispublic":1,"isfriend":0,"isfamily":0},{"id":"52152666637","owner":"28499865@N07","secret":"daf9a9c6b9","server":"65535","farm":66,"title":"Rusty Blackbird - Euphagus carolinus","ispublic":1,"isfriend":0,"isfamily":0},{"id":"52151630701","owner":"28499865@N07","secret":"e9cfdcd770","server":"65535","farm":66,"title":"Rusty Blackbird - Euphagus carolinus","ispublic":1,"isfriend":0,"isfamily":0},{"id":"52151634853","owner":"28499865@N07","secret":"3cb2bf3c46","server":"65535","farm":66,"title":"Rusty Blackbird - Euphagus carolinus","ispublic":1,"isfriend":0,"isfamily":0},{"id":"52083734109","owner":"69947563@N07","secret":"c45af17c5a","server":"65535","farm":66,"title":"Rusty Blackbird - Point Pelee National Park, Ontario, Canada","ispublic":1,"isfriend":0,"isfamily":0},{"id":"52072427701","owner":"150374485@N05","secret":"3110e993b1","server":"65535","farm":66,"title":"Quiscale rouilleux m\u00e2le plumage nuptial--Rusty Blackbird in breeding plumage (Euphagus carolinus)","ispublic":1,"isfriend":0,"isfamily":0},{"id":"52051054926","owner":"67164820@N06","secret":"51e3c990d5","server":"65535","farm":66,"title":"rusty blackbird","ispublic":1,"isfriend":0,"isfamily":0},{"id":"52040286424","owner":"22420387@N07","secret":"7854968c88","server":"65535","farm":66,"title":"Rusty Blackbird - DEL_0940-LRwm","ispublic":1,"isfriend":0,"isfamily":0},{"id":"52040084123","owner":"22420387@N07","secret":"006d312885","server":"65535","farm":66,"title":"Rusty Blackbird - DEL_1062-LRwm","ispublic":1,"isfriend":0,"isfamily":0},{"id":"52040286394","owner":"22420387@N07","secret":"bc9e4a6b79","server":"65535","farm":66,"title":"Rusty Blackbirds - DEL_1025-LRwm","ispublic":1,"isfriend":0,"isfamily":0},{"id":"52037130675","owner":"128537732@N06","secret":"220c8b88b1","server":"65535","farm":66,"title":"Rusty Blackbird (Euphagus carolinus)","ispublic":1,"isfriend":0,"isfamily":0},{"id":"52024650671","owner":"10105106@N07","secret":"f473e1dd19","server":"65535","farm":66,"title":"Rusty Blackbird","ispublic":1,"isfriend":0,"isfamily":0},{"id":"52020494831","owner":"190949917@N03","secret":"205090bd82","server":"65535","farm":66,"title":"Rusty Blackbird","ispublic":1,"isfriend":0,"isfamily":0},{"id":"51998745383","owner":"23415372@N02","secret":"13b77fec2b","server":"65535","farm":66,"title":"Rusty Blackbird","ispublic":1,"isfriend":0,"isfamily":0},{"id":"51990101502","owner":"69387367@N05","secret":"d3d10e4aed","server":"65535","farm":66,"title":"Rusty_Blackbird_6266od","ispublic":1,"isfriend":0,"isfamily":0},{"id":"51980913296","owner":"151381692@N04","secret":"678b0a5a3f","server":"65535","farm":66,"title":"Rusty Blackbird (Euphagus carolinus)","ispublic":1,"isfriend":0,"isfamily":0},{"id":"51933574533","owner":"23016207@N05","secret":"64d4aba4b5","server":"65535","farm":66,"title":"shy","ispublic":1,"isfriend":0,"isfamily":0},{"id":"51932985825","owner":"61241315@N00","secret":"952bff91e9","server":"0","farm":0,"title":"Rusty Blackbird_7531.MP4","ispublic":1,"isfriend":0,"isfamily":0},{"id":"51932446393","owner":"61241315@N00","secret":"e7b93e2214","server":"0","farm":0,"title":"Rusty Blackbird_7478.MP4","ispublic":1,"isfriend":0,"isfamily":0},{"id":"51932452838","owner":"61241315@N00","secret":"577596be17","server":"0","farm":0,"title":"Rusty Blackbird_7391.MP4","ispublic":1,"isfriend":0,"isfamily":0},{"id":"51931388347","owner":"61241315@N00","secret":"9bf79172c9","server":"0","farm":0,"title":"Rusty Blackbird_7518.MP4","ispublic":1,"isfriend":0,"isfamily":0},{"id":"51932697744","owner":"61241315@N00","secret":"32e998dba7","server":"0","farm":0,"title":"Rusty Blackbird_7526.MP4","ispublic":1,"isfriend":0,"isfamily":0},{"id":"51932990495","owner":"61241315@N00","secret":"c9d5ab8e4a","server":"0","farm":0,"title":"Rusty Blackbird_7470.MP4","ispublic":1,"isfriend":0,"isfamily":0},{"id":"51932451898","owner":"61241315@N00","secret":"e839c92e56","server":"0","farm":0,"title":"Rusty Blackbird_7431,32.MP4","ispublic":1,"isfriend":0,"isfamily":0},{"id":"51932706589","owner":"61241315@N00","secret":"b83f1721dc","server":"65535","farm":66,"title":"Rusty Blackbird_N7344","ispublic":1,"isfriend":0,"isfamily":0},{"id":"51932376936","owner":"61241315@N00","secret":"86466c72d1","server":"65535","farm":66,"title":"Rusty Blackbird_N7345","ispublic":1,"isfriend":0,"isfamily":0},{"id":"51932995280","owner":"61241315@N00","secret":"6ba3bca878","server":"65535","farm":66,"title":"Rusty Blackbird_N7354","ispublic":1,"isfriend":0,"isfamily":0},{"id":"51931396012","owner":"61241315@N00","secret":"57d346e77f","server":"65535","farm":66,"title":"Rusty Blackbird_N7363","ispublic":1,"isfriend":0,"isfamily":0},{"id":"51932453368","owner":"61241315@N00","secret":"ff37b41cfc","server":"65535","farm":66,"title":"Rusty Blackbird_N7367","ispublic":1,"isfriend":0,"isfamily":0},{"id":"51932376786","owner":"61241315@N00","secret":"3859a36dea","server":"65535","farm":66,"title":"Rusty Blackbird_N7388","ispublic":1,"isfriend":0,"isfamily":0},{"id":"51932376741","owner":"61241315@N00","secret":"0d5c608d72","server":"65535","farm":66,"title":"Rusty Blackbird_N7402","ispublic":1,"isfriend":0,"isfamily":0},{"id":"52451653951","owner":"131314146@N08","secret":"760fba30f5","server":"65535","farm":66,"title":"K. MacDonald, Rusty Blackbirds, Euphagus carolinus, and Red-winged Blackbird, Hogg Bay, 102322 PA230218 (2)","ispublic":1,"isfriend":0,"isfamily":0},{"id":"52371895916","owner":"126271444@N08","secret":"05b4dbc6a9","server":"65535","farm":66,"title":"Rusty Blackbird (Euphagus carolinus)","ispublic":1,"isfriend":0,"isfamily":0},{"id":"52372119033","owner":"126271444@N08","secret":"bd03b2ee3a","server":"65535","farm":66,"title":"Rusty Blackbird (Euphagus carolinus)","ispublic":1,"isfriend":0,"isfamily":0},{"id":"52372313135","owner":"126271444@N08","secret":"6a26bf7090","server":"65535","farm":66,"title":"Rusty Blackbird (Euphagus carolinus)","ispublic":1,"isfriend":0,"isfamily":0},{"id":"52371895551","owner":"126271444@N08","secret":"dd57a048ba","server":"65535","farm":66,"title":"Rusty Blackbird (Euphagus carolinus)","ispublic":1,"isfriend":0,"isfamily":0},{"id":"52236817443","owner":"67306066@N03","secret":"2df42082c7","server":"65535","farm":66,"title":"Rusty Blackbird (Euphagus carolinus)","ispublic":1,"isfriend":0,"isfamily":0},{"id":"52003247953","owner":"67164820@N06","secret":"c6a8d5f650","server":"65535","farm":66,"title":"rusty blackbird","ispublic":1,"isfriend":0,"isfamily":0},{"id":"52003713315","owner":"67164820@N06","secret":"ec02a7db0d","server":"65535","farm":66,"title":"rusty blackbird 2","ispublic":1,"isfriend":0,"isfamily":0},{"id":"51932373321","owner":"61241315@N00","secret":"5b162e6081","server":"0","farm":0,"title":"Rusty Blackbird_7449.MP4","ispublic":1,"isfriend":0,"isfamily":0}]},"stat":"ok"}