{"photos":{"page":1,"pages":23,"perpage":100,"total":2240,"photo":[{"id":"52751245825","owner":"130427874@N02","secret":"823793f851","server":"65535","farm":66,"title":"Toutinegra-de-cabe\u00e7a-preta \/\/ Curruca melanocephala","ispublic":1,"isfriend":0,"isfamily":0},{"id":"52750031588","owner":"37206078@N04","secret":"587a909e69","server":"65535","farm":66,"title":"Curruca cabecinegra  201122-5577","ispublic":1,"isfriend":0,"isfamily":0},{"id":"52749248326","owner":"130427874@N02","secret":"1144a0a116","server":"65535","farm":66,"title":"Toutinegra-de-cabe\u00e7a-preta \/\/ Curruca melanocephala","ispublic":1,"isfriend":0,"isfamily":0},{"id":"52743109539","owner":"38334412@N00","secret":"63ed9a9e1b","server":"65535","farm":66,"title":"Curruca melanocephala","ispublic":1,"isfriend":0,"isfamily":0},{"id":"52736782831","owner":"191209692@N05","secret":"6aeda2ffe6","server":"65535","farm":66,"title":"Curruca Cabecinegra (hembra) - Sardinian warbler (female) - Sylvia melanocephala","ispublic":1,"isfriend":0,"isfamily":0},{"id":"52736255692","owner":"191209692@N05","secret":"abeb1419bd","server":"65535","farm":66,"title":"Curruca Cabecinegra (hembra) - Sardinian warbler (female) - Sylvia melanocephala","ispublic":1,"isfriend":0,"isfamily":0},{"id":"52737259643","owner":"191209692@N05","secret":"49feaa12fc","server":"65535","farm":66,"title":"Curruca Cabecinegra (hembra) - Sardinian warbler (female) - Sylvia melanocephala","ispublic":1,"isfriend":0,"isfamily":0},{"id":"52731918563","owner":"132469770@N02","secret":"63f005db1e","server":"65535","farm":66,"title":"Sylvia melanocephala","ispublic":1,"isfriend":0,"isfamily":0},{"id":"52729078962","owner":"45853144@N02","secret":"4924a1c35c","server":"65535","farm":66,"title":"Curruca cabecinegra (Sylvia melanocephala) macho","ispublic":1,"isfriend":0,"isfamily":0},{"id":"52727331741","owner":"181746748@N05","secret":"2e1a83346a","server":"65535","farm":66,"title":"Fauvette m\u00e9lanoc\u00e9phale","ispublic":1,"isfriend":0,"isfamily":0},{"id":"52702528633","owner":"194163709@N08","secret":"f99358fe44","server":"65535","farm":66,"title":"CURRUCA CABECINEGRA","ispublic":1,"isfriend":0,"isfamily":0},{"id":"52719693911","owner":"58897115@N05","secret":"8177e9d25a","server":"65535","farm":66,"title":"curruca cabecinegra\u200b \u2642 (Sylvia melanocephala)","ispublic":1,"isfriend":0,"isfamily":0},{"id":"52717045247","owner":"58897115@N05","secret":"16417bc937","server":"65535","farm":66,"title":"curruca cabecinegra\u200b \u2642 (Sylvia melanocephala)","ispublic":1,"isfriend":0,"isfamily":0},{"id":"52716258168","owner":"63633802@N00","secret":"53a3567996","server":"65535","farm":66,"title":"Tallarol capnegre","ispublic":1,"isfriend":0,"isfamily":0},{"id":"52714148302","owner":"58897115@N05","secret":"359a567af5","server":"65535","farm":66,"title":"curruca cabecinegra\u200b \u2642 (Sylvia melanocephala)","ispublic":1,"isfriend":0,"isfamily":0},{"id":"52713269779","owner":"14888671@N02","secret":"10138d08ab","server":"65535","farm":66,"title":"Sardinian Warbler","ispublic":1,"isfriend":0,"isfamily":0},{"id":"52710315493","owner":"75757912@N06","secret":"f884b319b1","server":"65535","farm":66,"title":"Touitinegra de Cabe\u00e7a Preta (Curruca melanocephala)","ispublic":1,"isfriend":0,"isfamily":0},{"id":"52706204486","owner":"58897115@N05","secret":"6409c8c249","server":"65535","farm":66,"title":"curruca cabecinegra\u200b \u2640 (Sylvia melanocephala)","ispublic":1,"isfriend":0,"isfamily":0},{"id":"52701316710","owner":"125782398@N03","secret":"08e1b4f35e","server":"65535","farm":66,"title":"Curruca cabecinegra (Sylvia melanocephala)","ispublic":1,"isfriend":0,"isfamily":0},{"id":"52700813021","owner":"58897115@N05","secret":"a564cf67f5","server":"65535","farm":66,"title":"curruca cabecinegra\u200b \u2642 (Sylvia melanocephala)","ispublic":1,"isfriend":0,"isfamily":0},{"id":"32355778220","owner":"18823724@N02","secret":"1f63a7f27b","server":"767","farm":1,"title":"Curruca cabecinegra hembra - Sylvia melanocephala","ispublic":1,"isfriend":0,"isfamily":0},{"id":"52695824471","owner":"58897115@N05","secret":"beb34ce8b3","server":"65535","farm":66,"title":"curruca cabecinegra\u200b \u2640 (Sylvia melanocephala)","ispublic":1,"isfriend":0,"isfamily":0},{"id":"52696314068","owner":"58897115@N05","secret":"6dcb25ffb3","server":"65535","farm":66,"title":"curruca cabecinegra\u200b \u2642 (Sylvia melanocephala)","ispublic":1,"isfriend":0,"isfamily":0},{"id":"52695308032","owner":"58897115@N05","secret":"c2e44bcefa","server":"65535","farm":66,"title":"curruca cabecinegra\u200b \u2640 (Sylvia melanocephala)","ispublic":1,"isfriend":0,"isfamily":0},{"id":"52694908705","owner":"58897115@N05","secret":"ebfa4d4aa2","server":"65535","farm":66,"title":"curruca cabecinegra\u200b \u2642 (Sylvia melanocephala)","ispublic":1,"isfriend":0,"isfamily":0},{"id":"52688730697","owner":"45853144@N02","secret":"1beb2e8284","server":"65535","farm":66,"title":"Curruca cabecinegra (Sylvia melanocephala) hembra","ispublic":1,"isfriend":0,"isfamily":0},{"id":"52684404647","owner":"194163709@N08","secret":"0b9e3abdcc","server":"65535","farm":66,"title":"CURRUCA CABECINEGRA","ispublic":1,"isfriend":0,"isfamily":0},{"id":"52685296883","owner":"14888671@N02","secret":"9638113fa3","server":"65535","farm":66,"title":"Sardinian Warbler","ispublic":1,"isfriend":0,"isfamily":0},{"id":"52680675843","owner":"88593217@N04","secret":"3740f621d4","server":"65535","farm":66,"title":"Sardinian Warbler, Souss-River, Agadir, Morocco, January 2015","ispublic":1,"isfriend":0,"isfamily":0},{"id":"52680614270","owner":"88593217@N04","secret":"9cfdea02a6","server":"65535","farm":66,"title":"Sardinian Warbler, Souss-River, Agadir, Morocco, January 2015","ispublic":1,"isfriend":0,"isfamily":0},{"id":"52675891067","owner":"147799774@N04","secret":"5a9df9edf8","server":"65535","farm":66,"title":"Toutinegra-de-cabe\u00e7a-preta | Curruca melanocephala","ispublic":1,"isfriend":0,"isfamily":0},{"id":"52674291987","owner":"184493196@N07","secret":"8d69cc0e23","server":"65535","farm":66,"title":"Sylvia melanocephala","ispublic":1,"isfriend":0,"isfamily":0},{"id":"52673326966","owner":"58897115@N05","secret":"be2cc3a42f","server":"65535","farm":66,"title":"curruca cabecinegra\u200b \u2640 (Sylvia melanocephala)","ispublic":1,"isfriend":0,"isfamily":0},{"id":"52668349503","owner":"146092138@N05","secret":"d24fa27ee8","server":"65535","farm":66,"title":"Curruca cabecinegra (Curruca melanocephala)","ispublic":1,"isfriend":0,"isfamily":0},{"id":"52667422760","owner":"194163709@N08","secret":"ebca97d1a4","server":"65535","farm":66,"title":"CURRUCA CABECINEGRA","ispublic":1,"isfriend":0,"isfamily":0},{"id":"52666985981","owner":"194163709@N08","secret":"93f60ae8f5","server":"65535","farm":66,"title":"CURRUCA CABECINEGRA","ispublic":1,"isfriend":0,"isfamily":0},{"id":"52667058900","owner":"58897115@N05","secret":"e3617094e7","server":"65535","farm":66,"title":"curruca cabecinegra\u200b \u2640 (Sylvia melanocephala)","ispublic":1,"isfriend":0,"isfamily":0},{"id":"52667057080","owner":"58897115@N05","secret":"b55046c650","server":"65535","farm":66,"title":"curruca cabecinegra\u200b \u2640 (Sylvia melanocephala)","ispublic":1,"isfriend":0,"isfamily":0},{"id":"52663603215","owner":"144217344@N03","secret":"ba38c9cb62","server":"65535","farm":66,"title":"Gisela_Nagel-Fl-8824-Samtkopfgrasm\u00fccke","ispublic":1,"isfriend":0,"isfamily":0},{"id":"52661153346","owner":"148317604@N06","secret":"ed66565b78","server":"65535","farm":66,"title":"Toutinegra de cabe\u00e7a preta","ispublic":1,"isfriend":0,"isfamily":0},{"id":"52656525547","owner":"136402571@N06","secret":"2baf5a8a87","server":"65535","farm":66,"title":"Curruca cabecinegra (Sylvia melanocephala)","ispublic":1,"isfriend":0,"isfamily":0},{"id":"52653460633","owner":"194163709@N08","secret":"3ba039d7ea","server":"65535","farm":66,"title":"CURRUCA CABECINEGRA","ispublic":1,"isfriend":0,"isfamily":0},{"id":"52652486787","owner":"194163709@N08","secret":"eea77a21d4","server":"65535","farm":66,"title":"CURRUCA CABECINEGRA","ispublic":1,"isfriend":0,"isfamily":0},{"id":"52651428627","owner":"58897115@N05","secret":"440baa6b7f","server":"65535","farm":66,"title":"curruca cabecinegra\u200b \u2640 (Sylvia melanocephala)","ispublic":1,"isfriend":0,"isfamily":0},{"id":"52647591822","owner":"130427874@N02","secret":"430691da18","server":"65535","farm":66,"title":"Toutinegra-de-cabe\u00e7a-preta \/\/ Curruca melanocephala","ispublic":1,"isfriend":0,"isfamily":0},{"id":"52643749172","owner":"131301995@N02","secret":"f5e6481c1e","server":"65535","farm":66,"title":"Curruca cabecinegra macho (Sylvia melanocephala)","ispublic":1,"isfriend":0,"isfamily":0},{"id":"52642280180","owner":"58897115@N05","secret":"9b3bd546ed","server":"65535","farm":66,"title":"curruca cabecinegra\u200b \u2642 (Sylvia melanocephala)","ispublic":1,"isfriend":0,"isfamily":0},{"id":"52639803926","owner":"37206078@N04","secret":"b9c14a7d3a","server":"65535","farm":66,"title":"Curruca cabecinegra  200123-0690","ispublic":1,"isfriend":0,"isfamily":0},{"id":"52637245440","owner":"108996677@N03","secret":"e8e667d244","server":"65535","farm":66,"title":"Manolo","ispublic":1,"isfriend":0,"isfamily":0},{"id":"52635573643","owner":"188692121@N03","secret":"010e4f7a9f","server":"65535","farm":66,"title":"Curruca Cabecinegra (Sylvia melanocephala),hembra.","ispublic":1,"isfriend":0,"isfamily":0},{"id":"52635107198","owner":"193593478@N02","secret":"dc31077b04","server":"65535","farm":66,"title":"Buscaret de cap negre (m)","ispublic":1,"isfriend":0,"isfamily":0},{"id":"52634622871","owner":"193593478@N02","secret":"27351fe386","server":"65535","farm":66,"title":"Buscaret de cap negre (f)","ispublic":1,"isfriend":0,"isfamily":0},{"id":"52632474151","owner":"58897115@N05","secret":"c81b8e8883","server":"65535","farm":66,"title":"curruca cabecinegra\u200b \u2642 (Sylvia melanocephala)","ispublic":1,"isfriend":0,"isfamily":0},{"id":"52627629122","owner":"58897115@N05","secret":"0a369067b1","server":"65535","farm":66,"title":"curruca cabecinegra\u200b \u2642 (Sylvia melanocephala)","ispublic":1,"isfriend":0,"isfamily":0},{"id":"52626657420","owner":"58897115@N05","secret":"702513925a","server":"65535","farm":66,"title":"curruca cabecinegra\u200b \u2642 (Sylvia melanocephala)","ispublic":1,"isfriend":0,"isfamily":0},{"id":"52619735959","owner":"14888671@N02","secret":"ee69832aec","server":"65535","farm":66,"title":"Sardinian Warbler","ispublic":1,"isfriend":0,"isfamily":0},{"id":"52618230342","owner":"131708321@N02","secret":"c477449729","server":"65535","farm":66,"title":"Sardinian Warbler (Curruca melanocephala), Mallorca, Spain","ispublic":1,"isfriend":0,"isfamily":0},{"id":"52613271595","owner":"128657933@N03","secret":"8f1e0c79c3","server":"65535","farm":66,"title":"Fauvette m\u00e9lanoc\u00e9phale .Curruca melanocephala - Sardinian Warbler","ispublic":1,"isfriend":0,"isfamily":0},{"id":"52602927830","owner":"7200351@N08","secret":"a71e24cd7e","server":"65535","farm":66,"title":"Curruca melanocephala melanocephala","ispublic":1,"isfriend":0,"isfamily":0},{"id":"52596052411","owner":"37206078@N04","secret":"3eeca9591d","server":"65535","farm":66,"title":"Curruca cabecinegra  201122-5687","ispublic":1,"isfriend":0,"isfamily":0},{"id":"52593692205","owner":"58897115@N05","secret":"882bf21d44","server":"65535","farm":66,"title":"curruca cabecinegra\u200b \u2640 (Sylvia melanocephala)","ispublic":1,"isfriend":0,"isfamily":0},{"id":"52592683898","owner":"134562141@N06","secret":"9114f51335","server":"65535","farm":66,"title":"Sorthovedet Sanger, Sardinian Warbler, Pla de Gates","ispublic":1,"isfriend":0,"isfamily":0},{"id":"52574178625","owner":"188311302@N05","secret":"4195c925d4","server":"65535","farm":66,"title":"Fauvette m\u00e9lanoc\u00e9phale","ispublic":1,"isfriend":0,"isfamily":0},{"id":"52574007444","owner":"188311302@N05","secret":"9b170823da","server":"65535","farm":66,"title":"Fauvette m\u00e9lanoc\u00e9phale","ispublic":1,"isfriend":0,"isfamily":0},{"id":"52573734291","owner":"188311302@N05","secret":"bb04aac26a","server":"65535","farm":66,"title":"Fauvette m\u00e9lanoc\u00e9phale","ispublic":1,"isfriend":0,"isfamily":0},{"id":"52564858457","owner":"164807442@N02","secret":"57e653bba2","server":"65535","farm":66,"title":"Curruca cabeinegra (Sylvia melanocephala)","ispublic":1,"isfriend":0,"isfamily":0},{"id":"52555329959","owner":"115105674@N04","secret":"54dc8d9dc9","server":"65535","farm":66,"title":"Fauvette m\u00e9lanoc\u00e9phale \u2640","ispublic":1,"isfriend":0,"isfamily":0},{"id":"52555036431","owner":"115105674@N04","secret":"7ccdb4f8a6","server":"65535","farm":66,"title":"Fauvette m\u00e9lanoc\u00e9phale \u2640","ispublic":1,"isfriend":0,"isfamily":0},{"id":"52553508822","owner":"84151258@N00","secret":"fa35c3e365","server":"65535","farm":66,"title":"Sardinian Warbler (Sylvia melanocephala)","ispublic":1,"isfriend":0,"isfamily":0},{"id":"52553300878","owner":"123926271@N05","secret":"774759e574","server":"65535","farm":66,"title":"Curruca cabecinegra-Sardinian warbler- Sylvia melanocefala","ispublic":1,"isfriend":0,"isfamily":0},{"id":"52528746252","owner":"130427874@N02","secret":"2616340667","server":"65535","farm":66,"title":"Toutinegra-de-cabe\u00e7a-preta \/\/ Curruca melanocephala","ispublic":1,"isfriend":0,"isfamily":0},{"id":"52528731202","owner":"130427874@N02","secret":"2ba4d20040","server":"65535","farm":66,"title":"Toutinegra-de-cabe\u00e7a-preta \/\/ Curruca melanocephala","ispublic":1,"isfriend":0,"isfamily":0},{"id":"52526957166","owner":"37206078@N04","secret":"4702360c0b","server":"65535","farm":66,"title":"Curruca cabecinegra  201122-5410","ispublic":1,"isfriend":0,"isfamily":0},{"id":"52524223356","owner":"37206078@N04","secret":"13f64f5057","server":"65535","farm":66,"title":"Curruca cabecinegra  201122-5586","ispublic":1,"isfriend":0,"isfamily":0},{"id":"52524642198","owner":"99817330@N02","secret":"bccf854d5d","server":"65535","farm":66,"title":"Sardinian Warbler (f)","ispublic":1,"isfriend":0,"isfamily":0},{"id":"52523182083","owner":"99817330@N02","secret":"a2a7da6e73","server":"65535","farm":66,"title":"Sardinian Warbler (m)","ispublic":1,"isfriend":0,"isfamily":0},{"id":"52519157112","owner":"99015883@N08","secret":"1eab0758be","server":"65535","farm":66,"title":"Sylvia melanocephala","ispublic":1,"isfriend":0,"isfamily":0},{"id":"52512381736","owner":"37206078@N04","secret":"13bf6b09d8","server":"65535","farm":66,"title":"Curruca cabecinegra  201122-5396","ispublic":1,"isfriend":0,"isfamily":0},{"id":"52506497959","owner":"8103700@N04","secret":"4ab87d3c10","server":"65535","farm":66,"title":"Toutinegra-dos-valados (F)","ispublic":1,"isfriend":0,"isfamily":0},{"id":"52505740942","owner":"8103700@N04","secret":"4d8f98cac8","server":"65535","farm":66,"title":"Toutinegra-dos-valados (M)","ispublic":1,"isfriend":0,"isfamily":0},{"id":"52506225521","owner":"8103700@N04","secret":"1201042b83","server":"65535","farm":66,"title":"Toutinegra-dos-valados (M)","ispublic":1,"isfriend":0,"isfamily":0},{"id":"52496629872","owner":"196921070@N04","secret":"22e751d639","server":"65535","farm":66,"title":"Curruca cabecinegra (Sylvia melanocephala)","ispublic":1,"isfriend":0,"isfamily":0},{"id":"52492917491","owner":"130427874@N02","secret":"7dd8cf5568","server":"65535","farm":66,"title":"Toutinegra-de-cabe\u00e7a-preta \/\/ Curruca melanocephala","ispublic":1,"isfriend":0,"isfamily":0},{"id":"52493357375","owner":"144217344@N03","secret":"9b2c456962","server":"65535","farm":66,"title":"Gisela_Nagel-Fl8749-Samtkopfgrasm\u00fccke","ispublic":1,"isfriend":0,"isfamily":0},{"id":"52716086903","owner":"121021311@N02","secret":"4c2afa01c1","server":"65535","farm":66,"title":"Fauvette m\u00e9lanoc\u00e9phale (Curruca melanocephala melanocephala) Sardinian Warbler","ispublic":1,"isfriend":0,"isfamily":0},{"id":"52699076940","owner":"14888671@N02","secret":"c71302751e","server":"65535","farm":66,"title":"Sardinian Warbler","ispublic":1,"isfriend":0,"isfamily":0},{"id":"52684404592","owner":"194163709@N08","secret":"60668cda47","server":"65535","farm":66,"title":"CURRUCA CABECINEGRA","ispublic":1,"isfriend":0,"isfamily":0},{"id":"52677285496","owner":"197653711@N02","secret":"9600830200","server":"65535","farm":66,"title":"La curruca cabecinegra \/ The Sardinian warbler (Sylvia melanocephala)","ispublic":1,"isfriend":0,"isfamily":0},{"id":"52626517284","owner":"88593217@N04","secret":"43b0485211","server":"65535","farm":66,"title":"Sardinian Warbler, Massa River north of Massa, Morocco, January 2015","ispublic":1,"isfriend":0,"isfamily":0},{"id":"52626706495","owner":"88593217@N04","secret":"79d686df8b","server":"65535","farm":66,"title":"Sardinian Warbler, Massa River north of Massa, Morocco, January 2015","ispublic":1,"isfriend":0,"isfamily":0},{"id":"52626658265","owner":"58897115@N05","secret":"5b5d1f6cf1","server":"65535","farm":66,"title":"curruca cabecinegra\u200b \u2640 (Sylvia melanocephala)","ispublic":1,"isfriend":0,"isfamily":0},{"id":"52624776599","owner":"64209314@N08","secret":"945c2b0ef2","server":"65535","farm":66,"title":"Fauvette m\u00e9lanoc\u00e9phale - Curruca melanocephala - Sardinian Warbler","ispublic":1,"isfriend":0,"isfamily":0},{"id":"52622208550","owner":"88593217@N04","secret":"5821198597","server":"65535","farm":66,"title":"Sardinian Warbler, Massa River north of Massa, Morocco, January 2015","ispublic":1,"isfriend":0,"isfamily":0},{"id":"52618742196","owner":"131708321@N02","secret":"f90bd5a745","server":"65535","farm":66,"title":"Sardinian Warbler (Curruca melanocephala), Mallorca, Spain","ispublic":1,"isfriend":0,"isfamily":0},{"id":"52604848686","owner":"7200351@N08","secret":"0b87f542fe","server":"65535","farm":66,"title":"Curruca melanocephala melanocephala","ispublic":1,"isfriend":0,"isfamily":0},{"id":"52583673218","owner":"58897115@N05","secret":"acb787c6fc","server":"65535","farm":66,"title":"curruca cabecinegra\u200b \u2642unos (Sylvia melanocephala)","ispublic":1,"isfriend":0,"isfamily":0},{"id":"52583417834","owner":"58897115@N05","secret":"ce88561830","server":"65535","farm":66,"title":"curruca cabecinegra\u200b \u2640 (Sylvia melanocephala)","ispublic":1,"isfriend":0,"isfamily":0},{"id":"52550899480","owner":"58897115@N05","secret":"33eb6e38be","server":"65535","farm":66,"title":"curruca cabecinegra\u200b \u2642 (Sylvia melanocephala)","ispublic":1,"isfriend":0,"isfamily":0},{"id":"52509713641","owner":"156090455@N08","secret":"2bd188ba64","server":"65535","farm":66,"title":"298\/2022 - Curruca cabecinegra hembra, (Sylvia melanocephala).","ispublic":1,"isfriend":0,"isfamily":0},{"id":"52496620635","owner":"158967056@N07","secret":"6396aa4466","server":"65535","farm":66,"title":"Toutinegra-de-cabe\u00e7a-preta \/\/ Curruca melanocephala (f\u00eamea)","ispublic":1,"isfriend":0,"isfamily":0}]},"stat":"ok"}