{"photos":{"page":1,"pages":5,"perpage":100,"total":415,"photo":[{"id":"52486970404","owner":"56686021@N04","secret":"14cbff03f0","server":"65535","farm":66,"title":"Scarlet-rumped Trogon","ispublic":1,"isfriend":0,"isfamily":0},{"id":"52238074910","owner":"61485851@N06","secret":"1052a11348","server":"65535","farm":66,"title":"Scarlet-rumped trogon","ispublic":1,"isfriend":0,"isfamily":0},{"id":"52234555047","owner":"61485851@N06","secret":"dc21e7d6ca","server":"65535","farm":66,"title":"Scarlet-rumped trogon","ispublic":1,"isfriend":0,"isfamily":0},{"id":"50779586457","owner":"145183414@N05","secret":"ec2af89bf3","server":"65535","farm":66,"title":"Scarlet-rumped Trogon - Harpactes duvaucelii","ispublic":1,"isfriend":0,"isfamily":0},{"id":"50376987752","owner":"61485851@N06","secret":"342f47e89f","server":"65535","farm":66,"title":"Scarlet-rumped trogon","ispublic":1,"isfriend":0,"isfamily":0},{"id":"50376987297","owner":"61485851@N06","secret":"b9cd790730","server":"65535","farm":66,"title":"Scarlet-rumped trogon","ispublic":1,"isfriend":0,"isfamily":0},{"id":"50376115883","owner":"61485851@N06","secret":"b97c65690a","server":"65535","farm":66,"title":"Scarlet-rumped trogon","ispublic":1,"isfriend":0,"isfamily":0},{"id":"50376815016","owner":"61485851@N06","secret":"90ab46bf73","server":"65535","farm":66,"title":"Scarlet-rumped trogon","ispublic":1,"isfriend":0,"isfamily":0},{"id":"50376986797","owner":"61485851@N06","secret":"9a944ba0ab","server":"65535","farm":66,"title":"Scarlet-rumped trogon","ispublic":1,"isfriend":0,"isfamily":0},{"id":"50376115453","owner":"61485851@N06","secret":"7a5a7a0f33","server":"65535","farm":66,"title":"Scarlet-rumped trogon","ispublic":1,"isfriend":0,"isfamily":0},{"id":"50376986517","owner":"61485851@N06","secret":"f4d9583427","server":"65535","farm":66,"title":"Scarlet-rumped trogon","ispublic":1,"isfriend":0,"isfamily":0},{"id":"50349084706","owner":"163890741@N05","secret":"2e091869d8","server":"65535","farm":66,"title":"SCARLET-RUMPED TROGON","ispublic":1,"isfriend":0,"isfamily":0},{"id":"50217844333","owner":"61021753@N02","secret":"6aca5edbae","server":"65535","farm":66,"title":"n149_w1150","ispublic":1,"isfriend":0,"isfamily":0},{"id":"50108372241","owner":"61485851@N06","secret":"fa20be41c8","server":"65535","farm":66,"title":"Scarlet-rumped trogon","ispublic":1,"isfriend":0,"isfamily":0},{"id":"50107762343","owner":"61485851@N06","secret":"d2ff502825","server":"65535","farm":66,"title":"Scarlet-rumped trogon","ispublic":1,"isfriend":0,"isfamily":0},{"id":"50104457956","owner":"61485851@N06","secret":"6c824d9d85","server":"65535","farm":66,"title":"Scarlet-rumped trogon","ispublic":1,"isfriend":0,"isfamily":0},{"id":"50104445336","owner":"61485851@N06","secret":"89d6c3aaa1","server":"65535","farm":66,"title":"Scarlet-rumped trogon","ispublic":1,"isfriend":0,"isfamily":0},{"id":"50104616427","owner":"61485851@N06","secret":"ecdc278d20","server":"65535","farm":66,"title":"Scarlet-rumped trogon","ispublic":1,"isfriend":0,"isfamily":0},{"id":"50103771123","owner":"61485851@N06","secret":"73cea23740","server":"65535","farm":66,"title":"Scarlet-rumped trogon","ispublic":1,"isfriend":0,"isfamily":0},{"id":"49959207402","owner":"52413877@N02","secret":"e2056577b6","server":"65535","farm":66,"title":"0815AM_Scarlet-rumped trogon - Harpactes duvaucelii","ispublic":1,"isfriend":0,"isfamily":0},{"id":"49461664961","owner":"37934762@N02","secret":"9b1d5ed3c6","server":"65535","farm":66,"title":"Scarlet-rumped Trogon - Harpactes duvaucelii","ispublic":1,"isfriend":0,"isfamily":0},{"id":"49272276243","owner":"148263603@N06","secret":"170b6c316a","server":"65535","farm":66,"title":"Scarlet-rumped Trogon (Harpactes duvaucelii)","ispublic":1,"isfriend":0,"isfamily":0},{"id":"49150674851","owner":"61485851@N06","secret":"9bf006e32a","server":"65535","farm":66,"title":"Scarlet-rumped trogon (female)","ispublic":1,"isfriend":0,"isfamily":0},{"id":"49039970387","owner":"8773601@N03","secret":"58984a939b","server":"65535","farm":66,"title":"PA020692 (2) Scarlet-rumped Trogon (Harpactes duvaucelii)","ispublic":1,"isfriend":0,"isfamily":0},{"id":"49169557181","owner":"101709991@N06","secret":"21b33c40a4","server":"65535","farm":66,"title":"Scarlet-rumped Trogon - Harpactes duvaucelii, Way Kambas-2","ispublic":1,"isfriend":0,"isfamily":0},{"id":"48818463513","owner":"57465751@N05","secret":"e1ecb9fc36","server":"65535","farm":66,"title":"Scarlet-rumped Trogon (Harpactes duvaucelii), Way Kambas NP, Sumatra, Indonesia","ispublic":1,"isfriend":0,"isfamily":0},{"id":"48575204671","owner":"183276295@N04","secret":"0907c07263","server":"65535","farm":66,"title":"15.Scarlet-rumped Trogon (Harpactes duvaucelii) male","ispublic":1,"isfriend":0,"isfamily":0},{"id":"48575302207","owner":"183276295@N04","secret":"570a276d55","server":"65535","farm":66,"title":"15.Scarlet-rumped Trogon (Harpactes duvaucelii) male","ispublic":1,"isfriend":0,"isfamily":0},{"id":"48511667291","owner":"183276295@N04","secret":"620ceb5083","server":"65535","farm":66,"title":"15.Scarlet-rumped Trogon (Harpactes duvaucelii)","ispublic":1,"isfriend":0,"isfamily":0},{"id":"48206866481","owner":"152845304@N05","secret":"29a807bf75","server":"65535","farm":66,"title":"017-_00A4736-2","ispublic":1,"isfriend":0,"isfamily":0},{"id":"40691107243","owner":"7200351@N08","secret":"525ba30a5e","server":"65535","farm":66,"title":"Harpactes duvaucelii - female","ispublic":1,"isfriend":0,"isfamily":0},{"id":"46238845295","owner":"32136583@N04","secret":"83b27d52c5","server":"7869","farm":8,"title":"Scarlet Rumped Trogon","ispublic":1,"isfriend":0,"isfamily":0},{"id":"40169529323","owner":"148263603@N06","secret":"5244a5c8f1","server":"7844","farm":8,"title":"Scarlet-rumped Trogon (Harpactes duvaucelii)","ispublic":1,"isfriend":0,"isfamily":0},{"id":"45419894812","owner":"133058108@N05","secret":"c3b740264b","server":"1944","farm":2,"title":"15.Scarlet-rumped Trogon (Harpactes duvaucelii) female","ispublic":1,"isfriend":0,"isfamily":0},{"id":"45273111051","owner":"21606110@N08","secret":"843e0b7e24","server":"1911","farm":2,"title":"Scarlet-rumped Trogon","ispublic":1,"isfriend":0,"isfamily":0},{"id":"43009990410","owner":"56891930@N05","secret":"a412a236f8","server":"1922","farm":2,"title":"Male Scarlet-rumped Trogon (Harpactes duvaucelii) \u7ea2\u8170\u54ac\u9e43 (\u96c4) - Pitta Path, Sepilok Rainforest Discovery Centre (RDC) \u897f\u5fc5\u6d1b\u70ed\u5e26\u96e8\u6797\u63a2\u7d22\u4e2d\u5fc3, Sandakan Division \u5c71\u6253\u6839\u7701, Sabah \u6c99\u5df4\u5dde, Malaysia \u9a6c\u6765\u897f\u4e9a","ispublic":1,"isfriend":0,"isfamily":0},{"id":"29883307337","owner":"56891930@N05","secret":"99cb8c7f5b","server":"1870","farm":2,"title":"Male Scarlet-rumped Trogon (Harpactes duvaucelii) \u7ea2\u8170\u54ac\u9e43 (\u96c4) - Pitta Path, Sepilok Rainforest Discovery Centre (RDC) \u897f\u5fc5\u6d1b\u70ed\u5e26\u96e8\u6797\u63a2\u7d22\u4e2d\u5fc3, Sandakan Division \u5c71\u6253\u6839\u7701, Sabah \u6c99\u5df4\u5dde, Malaysia \u9a6c\u6765\u897f\u4e9a","ispublic":1,"isfriend":0,"isfamily":0},{"id":"52243029962","owner":"61485851@N06","secret":"0cb2665627","server":"65535","farm":66,"title":"Scarlet-rumped trogon","ispublic":1,"isfriend":0,"isfamily":0},{"id":"52237792248","owner":"61485851@N06","secret":"8c4e13fd62","server":"65535","farm":66,"title":"Scarlet-rumped trogon","ispublic":1,"isfriend":0,"isfamily":0},{"id":"52236791187","owner":"61485851@N06","secret":"ae1a45dee5","server":"65535","farm":66,"title":"Scarlet-rumped trogon","ispublic":1,"isfriend":0,"isfamily":0},{"id":"52237641038","owner":"61485851@N06","secret":"4c71b807b8","server":"65535","farm":66,"title":"Scarlet-rumped trogon","ispublic":1,"isfriend":0,"isfamily":0},{"id":"52238087190","owner":"61485851@N06","secret":"7457484ebf","server":"65535","farm":66,"title":"Scarlet-rumped trogon","ispublic":1,"isfriend":0,"isfamily":0},{"id":"52237597298","owner":"61485851@N06","secret":"9022f6c819","server":"65535","farm":66,"title":"Scarlet-rumped trogon","ispublic":1,"isfriend":0,"isfamily":0},{"id":"52236276667","owner":"61485851@N06","secret":"fa1559f3c1","server":"65535","farm":66,"title":"Scarlet-rumped trogon","ispublic":1,"isfriend":0,"isfamily":0},{"id":"52234922497","owner":"61485851@N06","secret":"6b7d6a0933","server":"65535","farm":66,"title":"Scarlet-rumped trogon","ispublic":1,"isfriend":0,"isfamily":0},{"id":"52236022040","owner":"61485851@N06","secret":"f1c7ba0f85","server":"65535","farm":66,"title":"Scarlet-rumped trogon","ispublic":1,"isfriend":0,"isfamily":0},{"id":"50376987982","owner":"61485851@N06","secret":"870d9d875e","server":"65535","farm":66,"title":"Scarlet-rumped trogon","ispublic":1,"isfriend":0,"isfamily":0},{"id":"50376116498","owner":"61485851@N06","secret":"54667b3af7","server":"65535","farm":66,"title":"Scarlet-rumped trogon","ispublic":1,"isfriend":0,"isfamily":0},{"id":"50376116273","owner":"61485851@N06","secret":"14867780c0","server":"65535","farm":66,"title":"Scarlet-rumped trogon","ispublic":1,"isfriend":0,"isfamily":0},{"id":"50376986407","owner":"61485851@N06","secret":"322038ac40","server":"65535","farm":66,"title":"Scarlet-rumped trogon","ispublic":1,"isfriend":0,"isfamily":0},{"id":"50362798428","owner":"61485851@N06","secret":"087febf734","server":"65535","farm":66,"title":"Scarlet-rumped trogon","ispublic":1,"isfriend":0,"isfamily":0},{"id":"50122615837","owner":"61485851@N06","secret":"f3768fce0e","server":"65535","farm":66,"title":"Scarlet-rumped trogon","ispublic":1,"isfriend":0,"isfamily":0},{"id":"50107781588","owner":"61485851@N06","secret":"71b7c5b61e","server":"65535","farm":66,"title":"Scarlet-rumped trogon al","ispublic":1,"isfriend":0,"isfamily":0},{"id":"50103955553","owner":"61485851@N06","secret":"cd49ff8676","server":"65535","farm":66,"title":"Scarlet-rumped trogon","ispublic":1,"isfriend":0,"isfamily":0},{"id":"50104359541","owner":"61485851@N06","secret":"c76ab584eb","server":"65535","farm":66,"title":"Scarlet-rumped trogon","ispublic":1,"isfriend":0,"isfamily":0},{"id":"50084950068","owner":"187469698@N05","secret":"379ca17de2","server":"65535","farm":66,"title":"495 Scarlet-rumped Trogon - Andrew Walker 001","ispublic":1,"isfriend":0,"isfamily":0},{"id":"49959207842","owner":"52413877@N02","secret":"4742b0bcf2","server":"65535","farm":66,"title":"0813AM_Scarlet-rumped trogon - Harpactes duvaucelii_1","ispublic":1,"isfriend":0,"isfamily":0},{"id":"49958924496","owner":"52413877@N02","secret":"dc8c1dbf76","server":"65535","farm":66,"title":"0813AM_Scarlet-rumped trogon - Harpactes duvaucelii_2","ispublic":1,"isfriend":0,"isfamily":0},{"id":"49958427143","owner":"52413877@N02","secret":"38bdd84c26","server":"65535","farm":66,"title":"0813AM_Scarlet-rumped trogon - Harpactes duvaucelii_3","ispublic":1,"isfriend":0,"isfamily":0},{"id":"49958924156","owner":"52413877@N02","secret":"6a7928cdff","server":"65535","farm":66,"title":"0814AM_Scarlet-rumped trogon - Harpactes duvaucelii_4","ispublic":1,"isfriend":0,"isfamily":0},{"id":"49821252753","owner":"52413877@N02","secret":"3bfce31344","server":"65535","farm":66,"title":"Scarlet-rumped Trogon - Harpactes duvaucelii_2","ispublic":1,"isfriend":0,"isfamily":0},{"id":"49617387272","owner":"8142488@N07","secret":"afb7e31a9f","server":"65535","farm":66,"title":"104A7001","ispublic":1,"isfriend":0,"isfamily":0},{"id":"49616610803","owner":"8142488@N07","secret":"9ca9866b75","server":"65535","farm":66,"title":"104A7003 (2)","ispublic":1,"isfriend":0,"isfamily":0},{"id":"49616610698","owner":"8142488@N07","secret":"7a0da482f8","server":"65535","farm":66,"title":"104A7011","ispublic":1,"isfriend":0,"isfamily":0},{"id":"49616610583","owner":"8142488@N07","secret":"e612af49bb","server":"65535","farm":66,"title":"104A7025","ispublic":1,"isfriend":0,"isfamily":0},{"id":"49616610463","owner":"8142488@N07","secret":"46eda72f12","server":"65535","farm":66,"title":"104A7028","ispublic":1,"isfriend":0,"isfamily":0},{"id":"49617126986","owner":"8142488@N07","secret":"7f80761dfd","server":"65535","farm":66,"title":"104A7044","ispublic":1,"isfriend":0,"isfamily":0},{"id":"49616609988","owner":"8142488@N07","secret":"5e1700bce5","server":"65535","farm":66,"title":"104A7047","ispublic":1,"isfriend":0,"isfamily":0},{"id":"49617126581","owner":"8142488@N07","secret":"21890ccf48","server":"65535","farm":66,"title":"104A7059","ispublic":1,"isfriend":0,"isfamily":0},{"id":"49616609483","owner":"8142488@N07","secret":"5f3b3e334a","server":"65535","farm":66,"title":"104A7077","ispublic":1,"isfriend":0,"isfamily":0},{"id":"49594478018","owner":"14888671@N02","secret":"64ccde5343","server":"65535","farm":66,"title":"Scarlet-rumped Trogon","ispublic":1,"isfriend":0,"isfamily":0},{"id":"49150707906","owner":"61485851@N06","secret":"fa69364417","server":"65535","farm":66,"title":"Scarlet-rumped trogon (Lifer #13)","ispublic":1,"isfriend":0,"isfamily":0},{"id":"49150122503","owner":"61485851@N06","secret":"c68fb84ba5","server":"65535","farm":66,"title":"Scarlet-rumped trogon (female)","ispublic":1,"isfriend":0,"isfamily":0},{"id":"49146361913","owner":"61485851@N06","secret":"7b2d3cd7b4","server":"65535","farm":66,"title":"Scarlet-rumped trogon","ispublic":1,"isfriend":0,"isfamily":0},{"id":"49069934506","owner":"8773601@N03","secret":"4af517b9f6","server":"65535","farm":66,"title":"PA110293 Scarlet-rumped Trogon (Harpactes duvaucelii)","ispublic":1,"isfriend":0,"isfamily":0},{"id":"49069387443","owner":"8773601@N03","secret":"f0403024d2","server":"65535","farm":66,"title":"PA110318 Scarlet-rumped Trogon (Harpactes duvaucelii)","ispublic":1,"isfriend":0,"isfamily":0},{"id":"49169081643","owner":"101709991@N06","secret":"840f8d5de7","server":"65535","farm":66,"title":"Scarlet-rumped Trogon - Harpactes duvaucelii, Way Kambas-3","ispublic":1,"isfriend":0,"isfamily":0},{"id":"49169555951","owner":"101709991@N06","secret":"725f1654f6","server":"65535","farm":66,"title":"Scarlet-rumped Trogon - Harpactes duvaucelii, Way Kambas","ispublic":1,"isfriend":0,"isfamily":0},{"id":"48575339597","owner":"183276295@N04","secret":"161006e9d3","server":"65535","farm":66,"title":"15.Scarlet-rumped Trogon (Harpactes duvaucelii) male","ispublic":1,"isfriend":0,"isfamily":0},{"id":"48575114111","owner":"183276295@N04","secret":"070d3bda98","server":"65535","farm":66,"title":"15.Scarlet-rumped Trogon (Harpactes duvaucelii) male","ispublic":1,"isfriend":0,"isfamily":0},{"id":"48574972426","owner":"183276295@N04","secret":"6771e59768","server":"65535","farm":66,"title":"15.Scarlet-rumped Trogon (Harpactes duvaucelii) male","ispublic":1,"isfriend":0,"isfamily":0},{"id":"48574926026","owner":"183276295@N04","secret":"97462e5cdc","server":"65535","farm":66,"title":"15.Scarlet-rumped Trogon (Harpactes duvaucelii) male","ispublic":1,"isfriend":0,"isfamily":0},{"id":"48575063882","owner":"183276295@N04","secret":"5360c73e97","server":"65535","farm":66,"title":"15.Scarlet-rumped Trogon (Harpactes duvaucelii) male","ispublic":1,"isfriend":0,"isfamily":0},{"id":"48574882801","owner":"183276295@N04","secret":"c11db66961","server":"65535","farm":66,"title":"15.Scarlet-rumped Trogon (Harpactes duvaucelii) male","ispublic":1,"isfriend":0,"isfamily":0},{"id":"48575013652","owner":"183276295@N04","secret":"205f4fd1a6","server":"65535","farm":66,"title":"15.Scarlet-rumped Trogon (Harpactes duvaucelii) male","ispublic":1,"isfriend":0,"isfamily":0},{"id":"48574837651","owner":"183276295@N04","secret":"cf508d2156","server":"65535","farm":66,"title":"15.Scarlet-rumped Trogon (Harpactes duvaucelii) male","ispublic":1,"isfriend":0,"isfamily":0},{"id":"48574822786","owner":"183276295@N04","secret":"b217f32995","server":"65535","farm":66,"title":"15.Scarlet-rumped Trogon (Harpactes duvaucelii) male","ispublic":1,"isfriend":0,"isfamily":0},{"id":"48574823297","owner":"183276295@N04","secret":"8fb82a9ea9","server":"65535","farm":66,"title":"15.Scarlet-rumped Trogon (Harpactes duvaucelii) male","ispublic":1,"isfriend":0,"isfamily":0},{"id":"48574647891","owner":"183276295@N04","secret":"012b4548a1","server":"65535","farm":66,"title":"15.Scarlet-rumped Trogon (Harpactes duvaucelii) female","ispublic":1,"isfriend":0,"isfamily":0},{"id":"48574784087","owner":"183276295@N04","secret":"0284099439","server":"65535","farm":66,"title":"15.Scarlet-rumped Trogon (Harpactes duvaucelii) female","ispublic":1,"isfriend":0,"isfamily":0},{"id":"48558783442","owner":"183276295@N04","secret":"6f9dd4be0b","server":"65535","farm":66,"title":"15.Scarlet-rumped Trogon (Harpactes duvaucelii) female","ispublic":1,"isfriend":0,"isfamily":0},{"id":"48558604792","owner":"183276295@N04","secret":"a75d48a16f","server":"65535","farm":66,"title":"15.Scarlet-rumped Trogon (Harpactes duvaucelii) female","ispublic":1,"isfriend":0,"isfamily":0},{"id":"48532145342","owner":"183276295@N04","secret":"ce6e94f206","server":"65535","farm":66,"title":"15.Scarlet-rumped Trogon (Harpactes duvaucelii) female","ispublic":1,"isfriend":0,"isfamily":0},{"id":"48528690457","owner":"183276295@N04","secret":"c27fd29eed","server":"65535","farm":66,"title":"15.Scarlet-rumped Trogon (Harpactes duvaucelii) female","ispublic":1,"isfriend":0,"isfamily":0},{"id":"48496175391","owner":"183276295@N04","secret":"22b8fbb658","server":"65535","farm":66,"title":"15.Scarlet-rumped Trogon (Harpactes duvaucelii) female","ispublic":1,"isfriend":0,"isfamily":0},{"id":"48494793687","owner":"183276295@N04","secret":"cf6e7d2346","server":"65535","farm":66,"title":"15.Scarlet-rumped Trogon (Harpactes duvaucelii) male","ispublic":1,"isfriend":0,"isfamily":0},{"id":"42450733850","owner":"46848480@N00","secret":"549bc90881","server":"1841","farm":2,"title":"20180818-0I7A9263","ispublic":1,"isfriend":0,"isfamily":0},{"id":"43541179634","owner":"46848480@N00","secret":"9869387a15","server":"1883","farm":2,"title":"20180818-0I7A9265","ispublic":1,"isfriend":0,"isfamily":0},{"id":"43541177084","owner":"46848480@N00","secret":"1b09312f3a","server":"1886","farm":2,"title":"20180818-0I7A9272","ispublic":1,"isfriend":0,"isfamily":0},{"id":"43352686785","owner":"46848480@N00","secret":"846d3f14f4","server":"1858","farm":2,"title":"20180818-0I7A9279","ispublic":1,"isfriend":0,"isfamily":0}]},"stat":"ok"}