{"photos":{"page":1,"pages":2,"perpage":100,"total":149,"photo":[{"id":"52720056942","owner":"28764032@N00","secret":"7b6d11711d","server":"65535","farm":66,"title":"Sedge Wren (Cistothorus stellaris), Boulder, Colorado","ispublic":1,"isfriend":0,"isfamily":0},{"id":"52720994220","owner":"28764032@N00","secret":"ec33f261f6","server":"65535","farm":66,"title":"Sedge Wren (Cistothorus stellaris), Boulder, Colorado","ispublic":1,"isfriend":0,"isfamily":0},{"id":"52720573061","owner":"28764032@N00","secret":"31ae6bc241","server":"65535","farm":66,"title":"Sedge Wren (Cistothorus stellaris), Boulder, Colorado","ispublic":1,"isfriend":0,"isfamily":0},{"id":"52720840384","owner":"28764032@N00","secret":"523b9bee8d","server":"65535","farm":66,"title":"Sedge Wren (Cistothorus stellaris), Boulder, Colorado","ispublic":1,"isfriend":0,"isfamily":0},{"id":"52720572641","owner":"28764032@N00","secret":"4c50c24781","server":"65535","farm":66,"title":"Sedge Wren (Cistothorus stellaris), Boulder, Colorado","ispublic":1,"isfriend":0,"isfamily":0},{"id":"52580244041","owner":"153973412@N04","secret":"f855ceb96a","server":"65535","farm":66,"title":"Sedge Wren-Cistothorus stellaris, Indiangrass Hills, IA","ispublic":1,"isfriend":0,"isfamily":0},{"id":"52532573291","owner":"119095828@N03","secret":"5fb9a175fd","server":"65535","farm":66,"title":"Sedge Wren (Cistothorus stellaris)","ispublic":1,"isfriend":0,"isfamily":0},{"id":"52532102167","owner":"119095828@N03","secret":"f5fca54844","server":"65535","farm":66,"title":"Sedge Wren (Cistothorus stellaris)","ispublic":1,"isfriend":0,"isfamily":0},{"id":"52533046030","owner":"119095828@N03","secret":"50b8c26e49","server":"65535","farm":66,"title":"Sedge Wren (Cistothorus stellaris)","ispublic":1,"isfriend":0,"isfamily":0},{"id":"52504526124","owner":"33573751@N04","secret":"92d4928492","server":"65535","farm":66,"title":"Sedge Wren (Cistothorus stellaris) - Westport, Connecticut, USA","ispublic":1,"isfriend":0,"isfamily":0},{"id":"52497706300","owner":"88932760@N08","secret":"2a8d3fdc30","server":"65535","farm":66,"title":"Wren on Low","ispublic":1,"isfriend":0,"isfamily":0},{"id":"52495700880","owner":"64557331@N04","secret":"ca2e8f3563","server":"65535","farm":66,"title":"Sedge Wren - (Cistothorus stellaris)_07172022","ispublic":1,"isfriend":0,"isfamily":0},{"id":"52482035283","owner":"13451078@N03","secret":"1547c8e659","server":"65535","farm":66,"title":"Sedge Wren  (Cistothorus stellaris)","ispublic":1,"isfriend":0,"isfamily":0},{"id":"52476834667","owner":"33573751@N04","secret":"2cd085b1b5","server":"65535","farm":66,"title":"Sedge Wren (Cistothorus stellaris) - Westport, Connecticut","ispublic":1,"isfriend":0,"isfamily":0},{"id":"52418862365","owner":"97737456@N07","secret":"d49c27dc6c","server":"65535","farm":66,"title":"Sedge Wren","ispublic":1,"isfriend":0,"isfamily":0},{"id":"52388982739","owner":"51986662@N05","secret":"f8ae207326","server":"65535","farm":66,"title":"Sedge Wren on Trout WPA Lake Andes Wetland Management District South Dakota","ispublic":1,"isfriend":0,"isfamily":0},{"id":"52388982489","owner":"51986662@N05","secret":"82bd5ff06d","server":"65535","farm":66,"title":"Sedge Wren on Lake Andes Wetland Management District South Dakota","ispublic":1,"isfriend":0,"isfamily":0},{"id":"52322019766","owner":"130605131@N08","secret":"a1e24a4a98","server":"65535","farm":66,"title":"IMG_1592","ispublic":1,"isfriend":0,"isfamily":0},{"id":"52321218007","owner":"130605131@N08","secret":"5c3f49a955","server":"65535","farm":66,"title":"IMG_1594","ispublic":1,"isfriend":0,"isfamily":0},{"id":"52321218017","owner":"130605131@N08","secret":"af9a7bb547","server":"65535","farm":66,"title":"IMG_1593","ispublic":1,"isfriend":0,"isfamily":0},{"id":"51898921820","owner":"21182099@N05","secret":"86254ee9af","server":"65535","farm":66,"title":"Grass Wren (Cistothorus platensis polyglottus)","ispublic":1,"isfriend":0,"isfamily":0},{"id":"51733864603","owner":"79383179@N03","secret":"5b874c4403","server":"65535","farm":66,"title":"Sedge Wren (Cistothorus stellaris)","ispublic":1,"isfriend":0,"isfamily":0},{"id":"51718509090","owner":"79383179@N03","secret":"470f3fae0d","server":"65535","farm":66,"title":"Sedge Wren (Cistothorus stellaris)","ispublic":1,"isfriend":0,"isfamily":0},{"id":"51664492926","owner":"13451078@N03","secret":"7104c4fa18","server":"65535","farm":66,"title":"Sedge Wren ( Cistothorus stellaris)","ispublic":1,"isfriend":0,"isfamily":0},{"id":"51633413532","owner":"21182099@N05","secret":"fe8871796a","server":"65535","farm":66,"title":"Grass Wren (Cistothorus platensis polyglottus)","ispublic":1,"isfriend":0,"isfamily":0},{"id":"51540059559","owner":"61241315@N00","secret":"4940ef004a","server":"0","farm":0,"title":"Sedge Wren_3361","ispublic":1,"isfriend":0,"isfamily":0},{"id":"51539583733","owner":"61241315@N00","secret":"b9dd09525f","server":"0","farm":0,"title":"Sedge Wren_3360","ispublic":1,"isfriend":0,"isfamily":0},{"id":"51540058199","owner":"61241315@N00","secret":"3228c3ba01","server":"65535","farm":66,"title":"Sedge Wren_1","ispublic":1,"isfriend":0,"isfamily":0},{"id":"51538552792","owner":"61241315@N00","secret":"0d91f93bc5","server":"65535","farm":66,"title":"Sedge Wren_4","ispublic":1,"isfriend":0,"isfamily":0},{"id":"51540058189","owner":"61241315@N00","secret":"b2d4d64e2f","server":"65535","farm":66,"title":"Sedge Wren_3","ispublic":1,"isfriend":0,"isfamily":0},{"id":"51540058159","owner":"61241315@N00","secret":"3db99a1590","server":"65535","farm":66,"title":"Sedge Wren_5","ispublic":1,"isfriend":0,"isfamily":0},{"id":"51540265400","owner":"61241315@N00","secret":"d58c855e94","server":"65535","farm":66,"title":"Sedge Wren_6","ispublic":1,"isfriend":0,"isfamily":0},{"id":"51459346933","owner":"93576565@N05","secret":"456894b427","server":"65535","farm":66,"title":"Sedge Wren 20210912-DSC02282","ispublic":1,"isfriend":0,"isfamily":0},{"id":"51399695475","owner":"23335641@N04","secret":"f9be50f0f9","server":"65535","farm":66,"title":"DSC_9796_DxO-Edit-2.jpg","ispublic":1,"isfriend":0,"isfamily":0},{"id":"51357291933","owner":"130605131@N08","secret":"0a192a9119","server":"65535","farm":66,"title":"IMG_6885","ispublic":1,"isfriend":0,"isfamily":0},{"id":"51357065106","owner":"130605131@N08","secret":"ef1e86c764","server":"65535","farm":66,"title":"IMG_6886","ispublic":1,"isfriend":0,"isfamily":0},{"id":"51356323017","owner":"130605131@N08","secret":"e78937f510","server":"65535","farm":66,"title":"IMG_6887","ispublic":1,"isfriend":0,"isfamily":0},{"id":"51357064956","owner":"130605131@N08","secret":"b783f20d88","server":"65535","farm":66,"title":"IMG_6888","ispublic":1,"isfriend":0,"isfamily":0},{"id":"51356322877","owner":"130605131@N08","secret":"f39efc0177","server":"65535","farm":66,"title":"IMG_6889","ispublic":1,"isfriend":0,"isfamily":0},{"id":"51357291628","owner":"130605131@N08","secret":"e753f59362","server":"65535","farm":66,"title":"IMG_6890","ispublic":1,"isfriend":0,"isfamily":0},{"id":"51358079695","owner":"130605131@N08","secret":"2eef707631","server":"65535","farm":66,"title":"IMG_6891","ispublic":1,"isfriend":0,"isfamily":0},{"id":"51357800349","owner":"130605131@N08","secret":"6ac4b375f9","server":"65535","farm":66,"title":"IMG_6892","ispublic":1,"isfriend":0,"isfamily":0},{"id":"51358079565","owner":"130605131@N08","secret":"a1120160b8","server":"65535","farm":66,"title":"Sedge Wren","ispublic":1,"isfriend":0,"isfamily":0},{"id":"51357291353","owner":"130605131@N08","secret":"8cf45fe71d","server":"65535","farm":66,"title":"Headcocked Wren","ispublic":1,"isfriend":0,"isfamily":0},{"id":"51319513488","owner":"132165466@N08","secret":"a5a42dd8b9","server":"65535","farm":66,"title":"Sedge Wren","ispublic":1,"isfriend":0,"isfamily":0},{"id":"51320312675","owner":"132165466@N08","secret":"25d2f1c109","server":"65535","farm":66,"title":"Sedge Wren","ispublic":1,"isfriend":0,"isfamily":0},{"id":"51318549602","owner":"132165466@N08","secret":"bc916aeab4","server":"65535","farm":66,"title":"Sedge Wren","ispublic":1,"isfriend":0,"isfamily":0},{"id":"51318549607","owner":"132165466@N08","secret":"8dc4439123","server":"65535","farm":66,"title":"Sedge Wren","ispublic":1,"isfriend":0,"isfamily":0},{"id":"51319272376","owner":"132165466@N08","secret":"00c131dc7e","server":"65535","farm":66,"title":"Sedge Wren","ispublic":1,"isfriend":0,"isfamily":0},{"id":"51320280920","owner":"132165466@N08","secret":"281055b4c8","server":"65535","farm":66,"title":"Sedge Wren","ispublic":1,"isfriend":0,"isfamily":0},{"id":"51320280905","owner":"132165466@N08","secret":"5928459655","server":"65535","farm":66,"title":"Sedge Wren","ispublic":1,"isfriend":0,"isfamily":0},{"id":"51318193225","owner":"132165466@N08","secret":"de911111fd","server":"65535","farm":66,"title":"Sedge Wren","ispublic":1,"isfriend":0,"isfamily":0},{"id":"51317912099","owner":"132165466@N08","secret":"c7aa31751a","server":"65535","farm":66,"title":"Sedge Wren","ispublic":1,"isfriend":0,"isfamily":0},{"id":"51317187396","owner":"132165466@N08","secret":"2f1b818bc1","server":"65535","farm":66,"title":"Sedge Wren","ispublic":1,"isfriend":0,"isfamily":0},{"id":"51316833159","owner":"132165466@N08","secret":"5d03c6d669","server":"65535","farm":66,"title":"Sedge Wren","ispublic":1,"isfriend":0,"isfamily":0},{"id":"51315368312","owner":"132165466@N08","secret":"6565fa8598","server":"65535","farm":66,"title":"Sedge Wren","ispublic":1,"isfriend":0,"isfamily":0},{"id":"51316833154","owner":"132165466@N08","secret":"cc4479daa6","server":"65535","farm":66,"title":"Sedge Wren","ispublic":1,"isfriend":0,"isfamily":0},{"id":"51301223121","owner":"9243885@N07","secret":"083ac156d3","server":"65535","farm":66,"title":"2021_06_13_5DMk4_42346","ispublic":1,"isfriend":0,"isfamily":0},{"id":"51299647253","owner":"9243885@N07","secret":"20d627667e","server":"65535","farm":66,"title":"2021_06_13_5DMk4_42382","ispublic":1,"isfriend":0,"isfamily":0},{"id":"51246294466","owner":"61021753@N02","secret":"c7796b7259","server":"65535","farm":66,"title":"n22_w1150","ispublic":1,"isfriend":0,"isfamily":0},{"id":"51037698496","owner":"40003624@N06","secret":"f93912d2c4","server":"65535","farm":66,"title":"Sedge Wren","ispublic":1,"isfriend":0,"isfamily":0},{"id":"50888159111","owner":"13451078@N03","secret":"1de6d66c25","server":"65535","farm":66,"title":"Sedge Wren (Cistothorus stellaris)","ispublic":1,"isfriend":0,"isfamily":0},{"id":"50874979898","owner":"33573751@N04","secret":"d411214c7e","server":"65535","farm":66,"title":"Sedge Wren (Cistothorus stellaris) - Sebastian, Florida","ispublic":1,"isfriend":0,"isfamily":0},{"id":"50875541951","owner":"33573751@N04","secret":"a47e34dfd6","server":"65535","farm":66,"title":"Sedge Wren (Cistothorus stellaris) - Sebastian, Florida","ispublic":1,"isfriend":0,"isfamily":0},{"id":"50874775378","owner":"33573751@N04","secret":"6bc3b65b57","server":"65535","farm":66,"title":"Sedge Wren (Cistothorus stellaris) - Sebastian, Florida, USA","ispublic":1,"isfriend":0,"isfamily":0},{"id":"50849386498","owner":"33573751@N04","secret":"001a18f1d0","server":"65535","farm":66,"title":"Sedge Wren (Cistothorus stellaris) - St. Sebastian River Preserve South, Sebastian, Florida, USA","ispublic":1,"isfriend":0,"isfamily":0},{"id":"50849748446","owner":"33573751@N04","secret":"f9fc2d1535","server":"65535","farm":66,"title":"Sedge Wren (Cistothorus stellaris) - St. Sebastian River Preserve South, Sebastian, Florida, USA","ispublic":1,"isfriend":0,"isfamily":0},{"id":"50772465501","owner":"190773540@N03","secret":"8b2b0fed38","server":"65535","farm":66,"title":"Sedge Wren","ispublic":1,"isfriend":0,"isfamily":0},{"id":"50474211297","owner":"13451078@N03","secret":"f9e6419a02","server":"65535","farm":66,"title":"Sedge Wren (Cistothorus stellaris)","ispublic":1,"isfriend":0,"isfamily":0},{"id":"50454302236","owner":"135315828@N06","secret":"d29c0305e4","server":"65535","farm":66,"title":"IMG_3539","ispublic":1,"isfriend":0,"isfamily":0},{"id":"50453592133","owner":"135315828@N06","secret":"668b5c9c29","server":"65535","farm":66,"title":"IMG_3555","ispublic":1,"isfriend":0,"isfamily":0},{"id":"50285229183","owner":"165841515@N03","secret":"e69d11c34d","server":"65535","farm":66,"title":"Troglodyte a\u0300 bec court \/ Sedge Wren \/ (Cistothorus stellaris)","ispublic":1,"isfriend":0,"isfamily":0},{"id":"50285905011","owner":"165841515@N03","secret":"33b9d6b825","server":"65535","farm":66,"title":"Troglodyte \u00e0 bec court \/ Sedge Wren \/ (Cistothorus stellaris)","ispublic":1,"isfriend":0,"isfamily":0},{"id":"50145146987","owner":"61021753@N02","secret":"dba43080d0","server":"65535","farm":66,"title":"n232_w1150","ispublic":1,"isfriend":0,"isfamily":0},{"id":"50112890057","owner":"78276199@N04","secret":"a835328862","server":"65535","farm":66,"title":"Fae G\u00e6rdesmutte - Sedge Wren - Cistothorus (p.) stellaris*   Mykines","ispublic":1,"isfriend":0,"isfamily":0},{"id":"50112639191","owner":"78276199@N04","secret":"10762a4c17","server":"65535","farm":66,"title":"Fae G\u00e6rdesmutte - Sedge Wren - Cistothorus (p.) stellaris*   Mykines","ispublic":1,"isfriend":0,"isfamily":0},{"id":"49938275237","owner":"119468907@N03","secret":"477350b2b7","server":"65535","farm":66,"title":"Troglodyte \u00e0 bec court_2A5A7790","ispublic":1,"isfriend":0,"isfamily":0},{"id":"49938271512","owner":"119468907@N03","secret":"42f1189dd5","server":"65535","farm":66,"title":"Troglodyte \u00e0 bec court_2A5A7785","ispublic":1,"isfriend":0,"isfamily":0},{"id":"49937953611","owner":"119468907@N03","secret":"f9a5aa4b31","server":"65535","farm":66,"title":"Troglodyte \u00e0 bec court_2A5A7814","ispublic":1,"isfriend":0,"isfamily":0},{"id":"49814923216","owner":"13451078@N03","secret":"09b12db1ca","server":"65535","farm":66,"title":"Sedge Wren (Cistothorus stellaris)","ispublic":1,"isfriend":0,"isfamily":0},{"id":"49663970598","owner":"182131131@N07","secret":"a2802c8d97","server":"65535","farm":66,"title":"Sedge Wren","ispublic":1,"isfriend":0,"isfamily":0},{"id":"49635867737","owner":"150719316@N03","secret":"24f50d6b40","server":"65535","farm":66,"title":"Sedge Wren","ispublic":1,"isfriend":0,"isfamily":0},{"id":"49478052087","owner":"186748160@N02","secret":"daf4d2334c","server":"65535","farm":66,"title":"Sedge wren (Cistothorus stellaris)","ispublic":1,"isfriend":0,"isfamily":0},{"id":"48661765211","owner":"25486180@N07","secret":"877673f07c","server":"65535","farm":66,"title":"Sedge Wren, Cistothorus stellaris","ispublic":1,"isfriend":0,"isfamily":0},{"id":"48583866326","owner":"78276199@N04","secret":"6ed6898ec7","server":"65535","farm":66,"title":"300628","ispublic":1,"isfriend":0,"isfamily":0},{"id":"48583858596","owner":"78276199@N04","secret":"d912059a79","server":"65535","farm":66,"title":"300627","ispublic":1,"isfriend":0,"isfamily":0},{"id":"48584007822","owner":"78276199@N04","secret":"c516374683","server":"65535","farm":66,"title":"300626","ispublic":1,"isfriend":0,"isfamily":0},{"id":"48583923832","owner":"78276199@N04","secret":"60d832e270","server":"65535","farm":66,"title":"Fae G\u00e6rdesmutte - Sedge Wren - Cistothorus (p.) stellaris*","ispublic":1,"isfriend":0,"isfamily":0},{"id":"48583765111","owner":"78276199@N04","secret":"19b6ae0035","server":"65535","farm":66,"title":"Fae G\u00e6rdesmutte - Sedge Wren - Cistothorus (p.) stellaris*","ispublic":1,"isfriend":0,"isfamily":0},{"id":"48583764816","owner":"78276199@N04","secret":"02a04db8ae","server":"65535","farm":66,"title":"Fae G\u00e6rdesmutte - Sedge Wren - Cistothorus (p.) stellaris*","ispublic":1,"isfriend":0,"isfamily":0},{"id":"46709492404","owner":"36611483@N03","secret":"685aea8dc1","server":"7804","farm":8,"title":"Falklands Grass Wren","ispublic":1,"isfriend":0,"isfamily":0},{"id":"47338148541","owner":"12639178@N07","secret":"a3907be5d7","server":"7815","farm":8,"title":"Falkland Inseln, Seggenzaunk\u00f6nig","ispublic":1,"isfriend":0,"isfamily":0},{"id":"47285634992","owner":"12639178@N07","secret":"ac08fce045","server":"7861","farm":8,"title":"Falkland Inseln, Seggenzaunk\u00f6nig","ispublic":1,"isfriend":0,"isfamily":0},{"id":"47173544062","owner":"36611483@N03","secret":"5ff862ff5a","server":"7857","farm":8,"title":"Falkland Grass Wren","ispublic":1,"isfriend":0,"isfamily":0},{"id":"47107283882","owner":"23335641@N04","secret":"49a061eebd","server":"7848","farm":8,"title":"DSC_9793.jpg","ispublic":1,"isfriend":0,"isfamily":0},{"id":"33284251248","owner":"23335641@N04","secret":"102e108096","server":"7911","farm":8,"title":"DSC_9796.jpg","ispublic":1,"isfriend":0,"isfamily":0},{"id":"46957840172","owner":"13451078@N03","secret":"c89b9e0bb5","server":"7873","farm":8,"title":"Sedge Wren (Cistothorus stellaris)","ispublic":1,"isfriend":0,"isfamily":0},{"id":"52533113693","owner":"119095828@N03","secret":"1a8844a62b","server":"65535","farm":66,"title":"Sedge Wren (Cistothorus stellaris)","ispublic":1,"isfriend":0,"isfamily":0},{"id":"51540265450","owner":"61241315@N00","secret":"8385954cb8","server":"65535","farm":66,"title":"Sedge Wren_2","ispublic":1,"isfriend":0,"isfamily":0},{"id":"51357800904","owner":"130605131@N08","secret":"d22bbc0878","server":"65535","farm":66,"title":"IMG_6884","ispublic":1,"isfriend":0,"isfamily":0}]},"stat":"ok"}