{"photos":{"page":1,"pages":36,"perpage":100,"total":3579,"photo":[{"id":"52702747742","owner":"59206851@N00","secret":"462cce18ae","server":"65535","farm":66,"title":"DSC_1594.jpg","ispublic":1,"isfriend":0,"isfamily":0},{"id":"52682447702","owner":"23711298@N07","secret":"b28cceaed6","server":"65535","farm":66,"title":"Semipalmated Sandpiper, Volusia County- Ormond Beach, Michael Crotty Bicentennial Park","ispublic":1,"isfriend":0,"isfamily":0},{"id":"52683462843","owner":"23711298@N07","secret":"0561ac4246","server":"65535","farm":66,"title":"Semipalmated Sandpiper, Florida-Volusia County- Ormond Beach, Michael Crothy Bicentennial Park","ispublic":1,"isfriend":0,"isfamily":0},{"id":"52645179060","owner":"8013969@N03","secret":"3935a849b2","server":"65535","farm":66,"title":"Calidris pusilla DFL nj22-1","ispublic":1,"isfriend":0,"isfamily":0},{"id":"52644736046","owner":"8013969@N03","secret":"179bacf897","server":"65535","farm":66,"title":"Calidris pusilla DFL nj22-2","ispublic":1,"isfriend":0,"isfamily":0},{"id":"52644985304","owner":"8013969@N03","secret":"be5291c465","server":"65535","farm":66,"title":"Calidris pusilla DFL nj22-4","ispublic":1,"isfriend":0,"isfamily":0},{"id":"52638658712","owner":"47533293@N04","secret":"26653f5515","server":"65535","farm":66,"title":"Semipalmated sandpiper, Calidris pusilla","ispublic":1,"isfriend":0,"isfamily":0},{"id":"52580767958","owner":"153973412@N04","secret":"4f15ed9449","server":"65535","farm":66,"title":"Semipalmated Sandpiper-Calidris pusilla, Iowa City, IA","ispublic":1,"isfriend":0,"isfamily":0},{"id":"52578102690","owner":"184061118@N05","secret":"b5f14cec87","server":"65535","farm":66,"title":"Correlimos semipalmeado (calidris pusilla)","ispublic":1,"isfriend":0,"isfamily":0},{"id":"52570064833","owner":"39138537@N06","secret":"b7cc32b8cb","server":"65535","farm":66,"title":"Semipalmated Sandpiper (Calidris pusilla)","ispublic":1,"isfriend":0,"isfamily":0},{"id":"52564164465","owner":"110624976@N05","secret":"5f4ddfa0fb","server":"65535","farm":66,"title":"Semipalmated Sandpiper at Jekyll Island South Beach","ispublic":1,"isfriend":0,"isfamily":0},{"id":"52540408116","owner":"62501256@N05","secret":"fc538d0597","server":"65535","farm":66,"title":"Semipalmated Sandpiper (Calidris pusilla) winter","ispublic":1,"isfriend":0,"isfamily":0},{"id":"52535993778","owner":"92361032@N05","secret":"e828b15c37","server":"65535","farm":66,"title":"Semipalmated Sandpiper \/B\u00e9casseau semipalm\u00e9 ( Richard )","ispublic":1,"isfriend":0,"isfamily":0},{"id":"52512342172","owner":"62501256@N05","secret":"15215c4c86","server":"65535","farm":66,"title":"Semipalmated Sandpiper (Calidris pusilla) winter","ispublic":1,"isfriend":0,"isfamily":0},{"id":"52513288155","owner":"62501256@N05","secret":"7c41c19230","server":"65535","farm":66,"title":"Semipalmated Sandpiper (Calidris pusilla) winter","ispublic":1,"isfriend":0,"isfamily":0},{"id":"52512805380","owner":"140734051@N08","secret":"ce03e9790b","server":"65535","farm":66,"title":"\u041c\u0430\u043b\u044b\u0439 \u043f\u0435\u0441\u043e\u0447\u043d\u0438\u043a, Calidris pusilla, Semipalmated Sandpiper","ispublic":1,"isfriend":0,"isfamily":0},{"id":"52511856112","owner":"140734051@N08","secret":"d7ddf85d9d","server":"65535","farm":66,"title":"\u041c\u0430\u043b\u044b\u0439 \u043f\u0435\u0441\u043e\u0447\u043d\u0438\u043a, Calidris pusilla, Semipalmated Sandpiper","ispublic":1,"isfriend":0,"isfamily":0},{"id":"52512874833","owner":"140734051@N08","secret":"ce735ab56b","server":"65535","farm":66,"title":"\u041c\u0430\u043b\u044b\u0439 \u043f\u0435\u0441\u043e\u0447\u043d\u0438\u043a, Calidris pusilla, Semipalmated Sandpiper","ispublic":1,"isfriend":0,"isfamily":0},{"id":"52512872958","owner":"140734051@N08","secret":"b0d6527e01","server":"65535","farm":66,"title":"\u041c\u0430\u043b\u044b\u0439 \u043f\u0435\u0441\u043e\u0447\u043d\u0438\u043a, Calidris pusilla, Semipalmated Sandpiper","ispublic":1,"isfriend":0,"isfamily":0},{"id":"52509400613","owner":"62501256@N05","secret":"2e7d523384","server":"65535","farm":66,"title":"Semipalmated Sandpiper (Calidris pusilla) winter","ispublic":1,"isfriend":0,"isfamily":0},{"id":"52505720711","owner":"92361032@N05","secret":"8177838ba7","server":"65535","farm":66,"title":"Semipalmated Sandpiper \/ B\u00e9casseau semipalm\u00e9 ( Diane )","ispublic":1,"isfriend":0,"isfamily":0},{"id":"52400873703","owner":"33573751@N04","secret":"4853da96df","server":"65535","farm":66,"title":"Semipalmated Sandpiper (Calidris pusilla) - Stewart B. McKinney NWR, Stratford, Connecticut, USA","ispublic":1,"isfriend":0,"isfamily":0},{"id":"52400358681","owner":"33573751@N04","secret":"fdc0765795","server":"65535","farm":66,"title":"Semipalmated Sandpiper (Calidris pusilla) - Stewart B. McKinney NWR, Stratford, Connecticut, USA","ispublic":1,"isfriend":0,"isfamily":0},{"id":"52389947890","owner":"156369634@N07","secret":"9c5f463fd8","server":"65535","farm":66,"title":"B\u00e9casseau Semipalm\u00e9-Semipalted Sandpiper-07092022","ispublic":1,"isfriend":0,"isfamily":0},{"id":"52367632586","owner":"39445433@N02","secret":"39f58596f2","server":"65535","farm":66,"title":"Semipalmated Sandpiper","ispublic":1,"isfriend":0,"isfamily":0},{"id":"52368050925","owner":"39445433@N02","secret":"c82ff78188","server":"65535","farm":66,"title":"American Avocet, Egrets, Yellowlegs, Cormorant","ispublic":1,"isfriend":0,"isfamily":0},{"id":"52342870161","owner":"150374485@N05","secret":"c82128458e","server":"65535","farm":66,"title":"B\u00e9casseau semipalm\u00e9 plumage automnale--Semipalmated Sandpiper in fall plumage(Calidris pusilla)","ispublic":1,"isfriend":0,"isfamily":0},{"id":"52337465196","owner":"85277889@N08","secret":"3f1d9b72ce","server":"65535","farm":66,"title":"Semipalmated Sandpiper (Calidris pusilla) 2022-09-05 (1a)","ispublic":1,"isfriend":0,"isfamily":0},{"id":"52336726829","owner":"152675955@N08","secret":"b6dd99946d","server":"65535","farm":66,"title":"Coquetterie apr\u00e8s le bain \\ Coquetry after a bath","ispublic":1,"isfriend":0,"isfamily":0},{"id":"52333406987","owner":"7261670@N03","secret":"4fb071f6b7","server":"65535","farm":66,"title":"Semipalmated Sandpiper","ispublic":1,"isfriend":0,"isfamily":0},{"id":"52298202828","owner":"92211588@N08","secret":"449c6200e9","server":"65535","farm":66,"title":"Western semipalmated sandpiper Calidris pusilla mauri Guyane 17112021 PD 5.JPG","ispublic":1,"isfriend":0,"isfamily":0},{"id":"52277594279","owner":"140318147@N08","secret":"0fc8f1bd87","server":"65535","farm":66,"title":"semi-palmated sandpiper (Calidris pusilla) L4A9262","ispublic":1,"isfriend":0,"isfamily":0},{"id":"52276348392","owner":"140318147@N08","secret":"6aa70b5ae8","server":"65535","farm":66,"title":"semi-palmated sandpiper (Calidris pusilla) L4A9327","ispublic":1,"isfriend":0,"isfamily":0},{"id":"52230436686","owner":"54546220@N00","secret":"8caa27cc04","server":"65535","farm":66,"title":"* Playerito Menudo, Least Sandpiper (Calidris minutilla)","ispublic":1,"isfriend":0,"isfamily":0},{"id":"52227132757","owner":"17654080@N08","secret":"780a895be4","server":"65535","farm":66,"title":"Curlew Sandpiper (Calidris ferruginea)","ispublic":1,"isfriend":0,"isfamily":0},{"id":"52219483474","owner":"27588142@N06","secret":"2c22d101f1","server":"65535","farm":66,"title":"Semipalmated Sandpiper","ispublic":1,"isfriend":0,"isfamily":0},{"id":"52702747452","owner":"59206851@N00","secret":"68385e632c","server":"65535","farm":66,"title":"DSC_1568.jpg","ispublic":1,"isfriend":0,"isfamily":0},{"id":"52645280741","owner":"8013969@N03","secret":"d6ab9bb286","server":"65535","farm":66,"title":"Calidris pusilla DFL btr22-1","ispublic":1,"isfriend":0,"isfamily":0},{"id":"52645718715","owner":"8013969@N03","secret":"cfa2825fc5","server":"65535","farm":66,"title":"Calidris pusilla DFL btr22-3","ispublic":1,"isfriend":0,"isfamily":0},{"id":"52645749973","owner":"8013969@N03","secret":"ca668d0320","server":"65535","farm":66,"title":"Calidris pusilla DFL btr22-4","ispublic":1,"isfriend":0,"isfamily":0},{"id":"52645526889","owner":"8013969@N03","secret":"364895f012","server":"65535","farm":66,"title":"Calidris pusilla DFL btr22-5","ispublic":1,"isfriend":0,"isfamily":0},{"id":"52645168845","owner":"8013969@N03","secret":"4ba03c7151","server":"65535","farm":66,"title":"Calidris pusilla DFL nj22-3","ispublic":1,"isfriend":0,"isfamily":0},{"id":"52512874808","owner":"140734051@N08","secret":"810f60bdf8","server":"65535","farm":66,"title":"\u041c\u0430\u043b\u044b\u0439 \u043f\u0435\u0441\u043e\u0447\u043d\u0438\u043a, Calidris pusilla, Semipalmated Sandpiper","ispublic":1,"isfriend":0,"isfamily":0},{"id":"52511854822","owner":"140734051@N08","secret":"b1747078c9","server":"65535","farm":66,"title":"\u041c\u0430\u043b\u044b\u0439 \u043f\u0435\u0441\u043e\u0447\u043d\u0438\u043a, Calidris pusilla, Semipalmated Sandpiper","ispublic":1,"isfriend":0,"isfamily":0},{"id":"52512327206","owner":"140734051@N08","secret":"a1e367ab95","server":"65535","farm":66,"title":"\u041c\u0430\u043b\u044b\u0439 \u043f\u0435\u0441\u043e\u0447\u043d\u0438\u043a, Calidris pusilla, Semipalmated Sandpiper","ispublic":1,"isfriend":0,"isfamily":0},{"id":"52511853757","owner":"140734051@N08","secret":"dd42583710","server":"65535","farm":66,"title":"\u041c\u0430\u043b\u044b\u0439 \u043f\u0435\u0441\u043e\u0447\u043d\u0438\u043a, Calidris pusilla, Semipalmated Sandpiper","ispublic":1,"isfriend":0,"isfamily":0},{"id":"52496105841","owner":"186211059@N06","secret":"62ca3331ee","server":"65535","farm":66,"title":"Semipalmated Sandpiper","ispublic":1,"isfriend":0,"isfamily":0},{"id":"52496581495","owner":"186211059@N06","secret":"6a96b2ecab","server":"65535","farm":66,"title":"Semipalmated Sandpiper","ispublic":1,"isfriend":0,"isfamily":0},{"id":"52496659068","owner":"186211059@N06","secret":"5955d42707","server":"65535","farm":66,"title":"Semipalmated Sandpiper","ispublic":1,"isfriend":0,"isfamily":0},{"id":"52368053520","owner":"39445433@N02","secret":"fbb86c30b8","server":"65535","farm":66,"title":"Semipalmated Sandpiper","ispublic":1,"isfriend":0,"isfamily":0},{"id":"52368053460","owner":"39445433@N02","secret":"20eab3e716","server":"65535","farm":66,"title":"Semipalmated Sandpiper","ispublic":1,"isfriend":0,"isfamily":0},{"id":"52366688562","owner":"39445433@N02","secret":"cdd898315b","server":"65535","farm":66,"title":"Semipalmated Sandpiper","ispublic":1,"isfriend":0,"isfamily":0},{"id":"52367862408","owner":"39445433@N02","secret":"a48e350751","server":"65535","farm":66,"title":"Semipalmated Sandpiper","ispublic":1,"isfriend":0,"isfamily":0},{"id":"52366688362","owner":"39445433@N02","secret":"1f2929924b","server":"65535","farm":66,"title":"Semipalmated Sandpiper","ispublic":1,"isfriend":0,"isfamily":0},{"id":"52366688242","owner":"39445433@N02","secret":"76cc7e7314","server":"65535","farm":66,"title":"Semipalmated Sandpiper","ispublic":1,"isfriend":0,"isfamily":0},{"id":"52368052600","owner":"39445433@N02","secret":"4b0a85219b","server":"65535","farm":66,"title":"Semipalmated Sandpiper","ispublic":1,"isfriend":0,"isfamily":0},{"id":"52359963661","owner":"188906290@N06","secret":"16e08b261c","server":"65535","farm":66,"title":"B\u00e9casseau semipalm\u00e9 (Semipalmated Sandpiper - Calidris pusilla","ispublic":1,"isfriend":0,"isfamily":0},{"id":"52358532141","owner":"39445433@N02","secret":"6f443a7303","server":"65535","farm":66,"title":"Semipalmated Sandpipers","ispublic":1,"isfriend":0,"isfamily":0},{"id":"52358766218","owner":"39445433@N02","secret":"7379425fd5","server":"65535","farm":66,"title":"Semipalmated Sandpipers","ispublic":1,"isfriend":0,"isfamily":0},{"id":"52358765848","owner":"39445433@N02","secret":"85aa0fed8f","server":"65535","farm":66,"title":"Semipalmated Sandpipers","ispublic":1,"isfriend":0,"isfamily":0},{"id":"52358951880","owner":"39445433@N02","secret":"ac17cf628a","server":"65535","farm":66,"title":"Semipalmated Sandpipers","ispublic":1,"isfriend":0,"isfamily":0},{"id":"52354443610","owner":"192760465@N05","secret":"13f7a99702","server":"65535","farm":66,"title":"Playero semipalmado  (Calidris pusilla)","ispublic":1,"isfriend":0,"isfamily":0},{"id":"52354334894","owner":"192760465@N05","secret":"dec595735d","server":"65535","farm":66,"title":"Playero semipalmado  (Calidris pusilla)","ispublic":1,"isfriend":0,"isfamily":0},{"id":"52354433890","owner":"192760465@N05","secret":"c070b3dbc1","server":"65535","farm":66,"title":"Playero semipalmado  (Calidris pusilla)","ispublic":1,"isfriend":0,"isfamily":0},{"id":"52354432245","owner":"192760465@N05","secret":"fd107a03f2","server":"65535","farm":66,"title":"Playero semipalmado  (Calidris pusilla)","ispublic":1,"isfriend":0,"isfamily":0},{"id":"52353735436","owner":"192760465@N05","secret":"94d0218076","server":"65535","farm":66,"title":"Playero semipalmado  (Calidris pusilla)","ispublic":1,"isfriend":0,"isfamily":0},{"id":"52354058384","owner":"192760465@N05","secret":"269b9a41a1","server":"65535","farm":66,"title":"Playero semipalmado  (Calidris pusilla)","ispublic":1,"isfriend":0,"isfamily":0},{"id":"52352794512","owner":"192760465@N05","secret":"acd927745d","server":"65535","farm":66,"title":"Playero semipalmado  (Calidris pusilla)","ispublic":1,"isfriend":0,"isfamily":0},{"id":"52352793557","owner":"192760465@N05","secret":"ece0046733","server":"65535","farm":66,"title":"Playero semipalmado  (Calidris pusilla)","ispublic":1,"isfriend":0,"isfamily":0},{"id":"52353977448","owner":"192760465@N05","secret":"a53fd14cca","server":"65535","farm":66,"title":"Playero semipalmado  (Calidris pusilla)","ispublic":1,"isfriend":0,"isfamily":0},{"id":"52322441537","owner":"190122705@N03","secret":"5f71cfdf9a","server":"65535","farm":66,"title":"Semipalmated Sandpiper","ispublic":1,"isfriend":0,"isfamily":0},{"id":"52258729059","owner":"144980256@N07","secret":"1ce35df8d2","server":"65535","farm":66,"title":"Semipalmated Sandpiper (Calidris pusilla)","ispublic":1,"isfriend":0,"isfamily":0},{"id":"52228620600","owner":"17654080@N08","secret":"8e8a36879e","server":"65535","farm":66,"title":"Curlew Sandpiper (Calidris ferruginea)","ispublic":1,"isfriend":0,"isfamily":0},{"id":"52219714854","owner":"27588142@N06","secret":"e0dee121d5","server":"65535","farm":66,"title":"Semipalmated Sandpiper","ispublic":1,"isfriend":0,"isfamily":0},{"id":"52219459678","owner":"27588142@N06","secret":"ff198e33c4","server":"65535","farm":66,"title":"Semipalmated Sandpiper","ispublic":1,"isfriend":0,"isfamily":0},{"id":"52219714774","owner":"27588142@N06","secret":"54c3c2a562","server":"65535","farm":66,"title":"Semipalmated Sandpiper","ispublic":1,"isfriend":0,"isfamily":0},{"id":"52219214606","owner":"27588142@N06","secret":"0c5d1c2b0d","server":"65535","farm":66,"title":"Semipalmated Sandpiper","ispublic":1,"isfriend":0,"isfamily":0},{"id":"52219228088","owner":"27588142@N06","secret":"9a8388d3a9","server":"65535","farm":66,"title":"Semipalmated Sandpiper","ispublic":1,"isfriend":0,"isfamily":0},{"id":"52219483334","owner":"27588142@N06","secret":"45ab29fb5a","server":"65535","farm":66,"title":"Semipalmated Sandpiper","ispublic":1,"isfriend":0,"isfamily":0},{"id":"52219214441","owner":"27588142@N06","secret":"ab46d81020","server":"65535","farm":66,"title":"Semipalmated Sandpiper","ispublic":1,"isfriend":0,"isfamily":0},{"id":"52219227863","owner":"27588142@N06","secret":"2c263b1989","server":"65535","farm":66,"title":"Semipalmated Sandpiper","ispublic":1,"isfriend":0,"isfamily":0},{"id":"52219214366","owner":"27588142@N06","secret":"20546e13de","server":"65535","farm":66,"title":"Semipalmated Sandpiper","ispublic":1,"isfriend":0,"isfamily":0},{"id":"52219483189","owner":"27588142@N06","secret":"6d89595b23","server":"65535","farm":66,"title":"Semipalmated Sandpiper","ispublic":1,"isfriend":0,"isfamily":0},{"id":"52219212031","owner":"27588142@N06","secret":"024532b2ec","server":"65535","farm":66,"title":"Semipalmated Sandpiper","ispublic":1,"isfriend":0,"isfamily":0},{"id":"52218205327","owner":"27588142@N06","secret":"101548d1c5","server":"65535","farm":66,"title":"Semipalmated Sandpiper","ispublic":1,"isfriend":0,"isfamily":0},{"id":"52218205282","owner":"27588142@N06","secret":"88829d6e7d","server":"65535","farm":66,"title":"Semipalmated Sandpiper","ispublic":1,"isfriend":0,"isfamily":0},{"id":"52219687060","owner":"27588142@N06","secret":"599cb001a2","server":"65535","farm":66,"title":"Semipalmated Sandpiper","ispublic":1,"isfriend":0,"isfamily":0},{"id":"52219215848","owner":"27588142@N06","secret":"8abc724d75","server":"65535","farm":66,"title":"Semipalmated Sandpiper","ispublic":1,"isfriend":0,"isfamily":0},{"id":"52219471259","owner":"27588142@N06","secret":"f0bee2ed55","server":"65535","farm":66,"title":"Semipalmated Sandpiper","ispublic":1,"isfriend":0,"isfamily":0},{"id":"52219202226","owner":"27588142@N06","secret":"9370088de5","server":"65535","farm":66,"title":"Semipalmated Sandpiper","ispublic":1,"isfriend":0,"isfamily":0},{"id":"52219215593","owner":"27588142@N06","secret":"7930db82ed","server":"65535","farm":66,"title":"Semipalmated Sandpiper","ispublic":1,"isfriend":0,"isfamily":0},{"id":"52219202116","owner":"27588142@N06","secret":"bd5e245e17","server":"65535","farm":66,"title":"Semipalmated Sandpiper","ispublic":1,"isfriend":0,"isfamily":0},{"id":"52218189237","owner":"27588142@N06","secret":"f25bdbe461","server":"65535","farm":66,"title":"Semipalmated Sandpiper","ispublic":1,"isfriend":0,"isfamily":0},{"id":"52219464134","owner":"27588142@N06","secret":"d2efbffe17","server":"65535","farm":66,"title":"Semipalmated Sandpiper","ispublic":1,"isfriend":0,"isfamily":0},{"id":"52218189132","owner":"27588142@N06","secret":"85c5b14616","server":"65535","farm":66,"title":"Semipalmated Sandpiper","ispublic":1,"isfriend":0,"isfamily":0},{"id":"52219679095","owner":"27588142@N06","secret":"cb620ecdd6","server":"65535","farm":66,"title":"Semipalmated Sandpiper","ispublic":1,"isfriend":0,"isfamily":0},{"id":"52219679045","owner":"27588142@N06","secret":"cd5cda9965","server":"65535","farm":66,"title":"Semipalmated Sandpiper","ispublic":1,"isfriend":0,"isfamily":0},{"id":"52219206448","owner":"27588142@N06","secret":"4ce8ea4fe4","server":"65535","farm":66,"title":"Semipalmated Sandpiper","ispublic":1,"isfriend":0,"isfamily":0},{"id":"52219205208","owner":"27588142@N06","secret":"2a8f1cf869","server":"65535","farm":66,"title":"Semipalmated Sandpiper","ispublic":1,"isfriend":0,"isfamily":0},{"id":"52219191361","owner":"27588142@N06","secret":"a915019804","server":"65535","farm":66,"title":"Semipalmated Sandpiper","ispublic":1,"isfriend":0,"isfamily":0}]},"stat":"ok"}