{"photos":{"page":1,"pages":10,"perpage":100,"total":942,"photo":[{"id":"52746610317","owner":"196535172@N04","secret":"cfa0a00916","server":"65535","farm":66,"title":"","ispublic":1,"isfriend":0,"isfamily":0},{"id":"52746609932","owner":"196535172@N04","secret":"eeff56b5a2","server":"65535","farm":66,"title":"","ispublic":1,"isfriend":0,"isfamily":0},{"id":"52701848718","owner":"132165466@N08","secret":"43c67f13d4","server":"65535","farm":66,"title":"Slaty-tailed Trogon","ispublic":1,"isfriend":0,"isfamily":0},{"id":"52673269135","owner":"132165466@N08","secret":"c6fa0367cf","server":"65535","farm":66,"title":"Slaty-tailed Trogon","ispublic":1,"isfriend":0,"isfamily":0},{"id":"52673125829","owner":"132165466@N08","secret":"d9d0e98634","server":"65535","farm":66,"title":"Slaty-tailed Trogon - shaky ID","ispublic":1,"isfriend":0,"isfamily":0},{"id":"52600864456","owner":"39838258@N07","secret":"c6122067da","server":"65535","farm":66,"title":"Slaty-tailed Trogon","ispublic":1,"isfriend":0,"isfamily":0},{"id":"52596842375","owner":"159284114@N07","secret":"d6557331a2","server":"65535","farm":66,"title":"Trogon de mass\u00e9na, Slaty-tailed trogon","ispublic":1,"isfriend":0,"isfamily":0},{"id":"52595906252","owner":"159284114@N07","secret":"f84dd0a41f","server":"65535","farm":66,"title":"Trogon de mass\u00e9na, Slaty-tailed trogon","ispublic":1,"isfriend":0,"isfamily":0},{"id":"52593098414","owner":"124868083@N03","secret":"ebda48a927","server":"65535","farm":66,"title":"IMG_6421","ispublic":1,"isfriend":0,"isfamily":0},{"id":"52585715023","owner":"156369634@N07","secret":"71cb1fdae2","server":"65535","farm":66,"title":"Trogon de Mass\u00e9na -Slaty-Tailed Trogon--08122022","ispublic":1,"isfriend":0,"isfamily":0},{"id":"52585714893","owner":"156369634@N07","secret":"87d4f82a88","server":"65535","farm":66,"title":"Trogon de Mass\u00e9na -Slaty-Tailed Trogon-12122022","ispublic":1,"isfriend":0,"isfamily":0},{"id":"52580512171","owner":"109245443@N04","secret":"1e48e154b8","server":"65535","farm":66,"title":"Trogon de Mass\u00e9na - Slaty-tailed Trogon DSC6347-Mod.jpg","ispublic":1,"isfriend":0,"isfamily":0},{"id":"52580934675","owner":"109245443@N04","secret":"10e8e790c9","server":"65535","farm":66,"title":"Trogon de Mass\u00e9na - Slaty-tailed Trogon DSC2733-Mod.jpg","ispublic":1,"isfriend":0,"isfamily":0},{"id":"52580469146","owner":"109245443@N04","secret":"7546990f8a","server":"65535","farm":66,"title":"Trogon de Mass\u00e9na - Slaty-tailed Trogon DSC2676-Mod.-jpg","ispublic":1,"isfriend":0,"isfamily":0},{"id":"52550942413","owner":"131708321@N02","secret":"7eb35e1c32","server":"65535","farm":66,"title":"Slaty-tailed Trogon (Trogon massena), Gamboa, Panama","ispublic":1,"isfriend":0,"isfamily":0},{"id":"52526959261","owner":"29170368@N03","secret":"266bd6b882","server":"65535","farm":66,"title":"Slaty-tailed Trogon","ispublic":1,"isfriend":0,"isfamily":0},{"id":"52462438820","owner":"76454790@N02","secret":"42f430b2a9","server":"65535","farm":66,"title":"Slaty-tailed Trogon (Trogon massena)","ispublic":1,"isfriend":0,"isfamily":0},{"id":"52423543242","owner":"65788177@N02","secret":"6aa378de4a","server":"65535","farm":66,"title":"Slaty-tailed Trogon","ispublic":1,"isfriend":0,"isfamily":0},{"id":"52305602852","owner":"154417921@N04","secret":"fc68af8e1a","server":"65535","farm":66,"title":"DSC06615 kopi\u00ebren 2","ispublic":1,"isfriend":0,"isfamily":0},{"id":"52208340999","owner":"94293448@N07","secret":"cba9a1389a","server":"65535","farm":66,"title":"Slaty-tailed Trogon ( Trogon massena )","ispublic":1,"isfriend":0,"isfamily":0},{"id":"52208092793","owner":"94293448@N07","secret":"853ea302fb","server":"65535","farm":66,"title":"Slaty-tailed Trogon ( Trogon massena )","ispublic":1,"isfriend":0,"isfamily":0},{"id":"52159249900","owner":"54525206@N05","secret":"361ab5f503","server":"65535","farm":66,"title":"Schieferschwanztrogon","ispublic":1,"isfriend":0,"isfamily":0},{"id":"51982919567","owner":"24110087@N05","secret":"df785f859d","server":"65535","farm":66,"title":"Slaty-tailed Trogon - Trogon massena","ispublic":1,"isfriend":0,"isfamily":0},{"id":"51983933901","owner":"24110087@N05","secret":"f16aeaaf1d","server":"65535","farm":66,"title":"Slaty-tailed Trogon - Trogon massena","ispublic":1,"isfriend":0,"isfamily":0},{"id":"51895390583","owner":"65788177@N02","secret":"c5aa460916","server":"65535","farm":66,"title":"Slaty-tailed Trogon","ispublic":1,"isfriend":0,"isfamily":0},{"id":"51894608570","owner":"189109845@N04","secret":"931b3f6ed5","server":"65535","farm":66,"title":"Slaty-tailed_Trogon","ispublic":1,"isfriend":0,"isfamily":0},{"id":"51893994140","owner":"142134964@N04","secret":"abe4130c9a","server":"65535","farm":66,"title":"234- Trog\u00f3n coliplomiso Hembra (Trogon massena)","ispublic":1,"isfriend":0,"isfamily":0},{"id":"51882279164","owner":"56686021@N04","secret":"a868acf6f7","server":"65535","farm":66,"title":"Slaty-tailed Trogon","ispublic":1,"isfriend":0,"isfamily":0},{"id":"51881958746","owner":"56686021@N04","secret":"133c7bed46","server":"65535","farm":66,"title":"Slaty-tailed Trogon","ispublic":1,"isfriend":0,"isfamily":0},{"id":"51864748886","owner":"167624523@N02","secret":"3935245917","server":"65535","farm":66,"title":"Slaty-tailed Trogon   Trog\u00f3n Coliplomizo  \ud83c\udd94 Trogon massena. TICO RAINFOREST B&B, Sarapiqu\u00ed, Heredia, Costa Rica","ispublic":1,"isfriend":0,"isfamily":0},{"id":"51781300203","owner":"8065544@N08","secret":"7ce61561d2","server":"65535","farm":66,"title":"Slaty-tailed Trogon (Trogon massena)","ispublic":1,"isfriend":0,"isfamily":0},{"id":"51547880121","owner":"65788177@N02","secret":"a6a6582998","server":"65535","farm":66,"title":"Slaty-tailed Trogon","ispublic":1,"isfriend":0,"isfamily":0},{"id":"51477017261","owner":"48014585@N00","secret":"c0bf3d91ef","server":"65535","farm":66,"title":"Slaty-tailed Trogon","ispublic":1,"isfriend":0,"isfamily":0},{"id":"51477016786","owner":"48014585@N00","secret":"29fe1ceda3","server":"65535","farm":66,"title":"Slaty-tailed Trogon","ispublic":1,"isfriend":0,"isfamily":0},{"id":"51477016276","owner":"48014585@N00","secret":"8ff0859a8e","server":"65535","farm":66,"title":"Slaty-tailed Trogon","ispublic":1,"isfriend":0,"isfamily":0},{"id":"51444494419","owner":"12639178@N07","secret":"bd5ae7c241","server":"65535","farm":66,"title":"8250_Trogon massena Weibchen","ispublic":1,"isfriend":0,"isfamily":0},{"id":"51442988922","owner":"12639178@N07","secret":"d1736f1f0b","server":"65535","farm":66,"title":"8248_Trogon massena Weibchen","ispublic":1,"isfriend":0,"isfamily":0},{"id":"51359737795","owner":"45759259@N06","secret":"b8fdda8a8e","server":"65535","farm":66,"title":"Trogon de Mass\u00e9na Trogon massena Slaty-tailed Trogon","ispublic":1,"isfriend":0,"isfamily":0},{"id":"51316536470","owner":"54525206@N05","secret":"1d3d0b01e2","server":"65535","farm":66,"title":"Schieferschwanztrogon m.","ispublic":1,"isfriend":0,"isfamily":0},{"id":"51279037817","owner":"10318424@N07","secret":"e2b83a1feb","server":"65535","farm":66,"title":"Slaty-tailed Trogon (Trogon massena)","ispublic":1,"isfriend":0,"isfamily":0},{"id":"51259981410","owner":"101244975@N08","secret":"9e7ac0ea2c","server":"65535","farm":66,"title":"Slaty-tailed trogon (Trogon massena)","ispublic":1,"isfriend":0,"isfamily":0},{"id":"51163528176","owner":"189542651@N03","secret":"22dfec6d0a","server":"65535","farm":66,"title":"Slaty-tailed Trogon (Massena) Trogon massena","ispublic":1,"isfriend":0,"isfamily":0},{"id":"50905861636","owner":"32805478@N03","secret":"e470e77703","server":"65535","farm":66,"title":"Trog\u00f3n grande, Trogon massena, Slaty-tailed Trogon","ispublic":1,"isfriend":0,"isfamily":0},{"id":"50890336021","owner":"32805478@N03","secret":"0442a9d4b1","server":"65535","farm":66,"title":"Trog\u00f3n grande, Trogon massena, Slaty-tailed Trogon","ispublic":1,"isfriend":0,"isfamily":0},{"id":"50866190293","owner":"18217058@N04","secret":"ce00c20d20","server":"65535","farm":66,"title":"Slaty-tailed trogon \/ Dramb\u00fer\u00fagi (Trogon massena)","ispublic":1,"isfriend":0,"isfamily":0},{"id":"50866905831","owner":"18217058@N04","secret":"145bbd1560","server":"65535","farm":66,"title":"Slaty-tailed trogon \/ Dramb\u00fer\u00fagi (Trogon massena)","ispublic":1,"isfriend":0,"isfamily":0},{"id":"50849922058","owner":"99208129@N08","secret":"8475ca754c","server":"65535","farm":66,"title":"Trogon massena \/ Slaty-tailed Trogon","ispublic":1,"isfriend":0,"isfamily":0},{"id":"50751064198","owner":"64478645@N03","secret":"a7cfe31d34","server":"65535","farm":66,"title":"Schieferschwanztrogon","ispublic":1,"isfriend":0,"isfamily":0},{"id":"50673051772","owner":"119787485@N07","secret":"0ba93c05e6","server":"65535","farm":66,"title":"Slaty-tailed Trogon (Trogon massena hoffmanni) - 20140126-01","ispublic":1,"isfriend":0,"isfamily":0},{"id":"50669421587","owner":"119787485@N07","secret":"3837f80a36","server":"65535","farm":66,"title":"Slaty-tailed Trogon (Trogon massena hoffmanni) - 20110118-03","ispublic":1,"isfriend":0,"isfamily":0},{"id":"50487923492","owner":"26822473@N06","secret":"99600c5170","server":"65535","farm":66,"title":"female Slaty-tailed Trogon (Trogon massena)","ispublic":1,"isfriend":0,"isfamily":0},{"id":"50445467371","owner":"56339362@N03","secret":"4fb299cd7c","server":"0","farm":0,"title":"Trogon massena, slaty-tailed trogon","ispublic":1,"isfriend":0,"isfamily":0},{"id":"50444778403","owner":"56339362@N03","secret":"540e7815c8","server":"65535","farm":66,"title":"Trogon massena, slaty-tailed trogon","ispublic":1,"isfriend":0,"isfamily":0},{"id":"50128424766","owner":"97737456@N07","secret":"7e4c7b71b4","server":"65535","farm":66,"title":"Slaty-tailed Trogon","ispublic":1,"isfriend":0,"isfamily":0},{"id":"50037042258","owner":"140734051@N08","secret":"18bdedbca9","server":"65535","farm":66,"title":"\u0410\u0441\u043f\u0438\u0434\u043d\u043e\u0445\u0432\u043e\u0441\u0442\u044b\u0439 \u0442\u0440\u043e\u0433\u043e\u043d, Trogon massena massena, Slaty-tailed Trogon","ispublic":1,"isfriend":0,"isfamily":0},{"id":"50037584261","owner":"140734051@N08","secret":"70d6c39123","server":"65535","farm":66,"title":"\u0410\u0441\u043f\u0438\u0434\u043d\u043e\u0445\u0432\u043e\u0441\u0442\u044b\u0439 \u0442\u0440\u043e\u0433\u043e\u043d, Trogon massena massena, Slaty-tailed Trogon","ispublic":1,"isfriend":0,"isfamily":0},{"id":"50037584176","owner":"140734051@N08","secret":"3b75100d09","server":"65535","farm":66,"title":"\u0410\u0441\u043f\u0438\u0434\u043d\u043e\u0445\u0432\u043e\u0441\u0442\u044b\u0439 \u0442\u0440\u043e\u0433\u043e\u043d, Trogon massena massena, Slaty-tailed Trogon","ispublic":1,"isfriend":0,"isfamily":0},{"id":"52701848748","owner":"132165466@N08","secret":"481463c8ab","server":"65535","farm":66,"title":"Slaty-tailed Trogon","ispublic":1,"isfriend":0,"isfamily":0},{"id":"52692583489","owner":"12639178@N07","secret":"e2946b47d3","server":"65535","farm":66,"title":"Schieferschwanztrogon","ispublic":1,"isfriend":0,"isfamily":0},{"id":"52692574469","owner":"12639178@N07","secret":"338d3fae3a","server":"65535","farm":66,"title":"Schieferschwanztrogon","ispublic":1,"isfriend":0,"isfamily":0},{"id":"52585459749","owner":"156369634@N07","secret":"6eed5dd412","server":"65535","farm":66,"title":"Trogon de Mass\u00e9na -Slaty-Tailed Trogon-12122022 -YSBAnimals22","ispublic":1,"isfriend":0,"isfamily":0},{"id":"52527840095","owner":"12639178@N07","secret":"ff9d53e815","server":"65535","farm":66,"title":"35814_Slaty-tailed Trogon Trogon massena","ispublic":1,"isfriend":0,"isfamily":0},{"id":"52527364046","owner":"12639178@N07","secret":"7993d612c2","server":"65535","farm":66,"title":"35818_Slaty-tailed Trogon Trogon massena","ispublic":1,"isfriend":0,"isfamily":0},{"id":"52320969405","owner":"32752434@N07","secret":"097cbb2b83","server":"65535","farm":66,"title":"Slaty-tailed Trogon (Trogon massena)","ispublic":1,"isfriend":0,"isfamily":0},{"id":"52240796754","owner":"80648919@N08","secret":"b4b55cd5ed","server":"65535","farm":66,"title":"Slaty-tailed Trogon","ispublic":1,"isfriend":0,"isfamily":0},{"id":"52158983419","owner":"54525206@N05","secret":"27d0fbc23e","server":"65535","farm":66,"title":"Schieferschwanztrogon","ispublic":1,"isfriend":0,"isfamily":0},{"id":"52084072599","owner":"42978673@N00","secret":"1797a6daef","server":"65535","farm":66,"title":"Slaty-tailed Trogon - Trogon massena","ispublic":1,"isfriend":0,"isfamily":0},{"id":"52084072564","owner":"42978673@N00","secret":"47bb9ce206","server":"65535","farm":66,"title":"Slaty-tailed Trogon - Trogon massena","ispublic":1,"isfriend":0,"isfamily":0},{"id":"51984212099","owner":"24110087@N05","secret":"9c40b7f702","server":"65535","farm":66,"title":"Slaty-tailed Trogon - Trogon massena","ispublic":1,"isfriend":0,"isfamily":0},{"id":"51983170660","owner":"24110087@N05","secret":"60a20ec6e0","server":"65535","farm":66,"title":"Slaty-tailed Trogon (Massena) - Trogon massena massena","ispublic":1,"isfriend":0,"isfamily":0},{"id":"51981612177","owner":"24110087@N05","secret":"a8a2c6f02d","server":"65535","farm":66,"title":"Slaty-tailed Trogon (Massena) - Trogon massena massena","ispublic":1,"isfriend":0,"isfamily":0},{"id":"51936810985","owner":"12639178@N07","secret":"88f6d463da","server":"65535","farm":66,"title":"Schieferschwanztrogon (female) (Trogon massena)","ispublic":1,"isfriend":0,"isfamily":0},{"id":"51880988327","owner":"56686021@N04","secret":"44bc0bdaf1","server":"65535","farm":66,"title":"Slaty-tailed Trogon","ispublic":1,"isfriend":0,"isfamily":0},{"id":"51864741170","owner":"193010058@N08","secret":"47019d727a","server":"65535","farm":66,"title":"Slaty-tailed Trogon (Trogon massena)","ispublic":1,"isfriend":0,"isfamily":0},{"id":"51742786882","owner":"12639178@N07","secret":"1c4c81caab","server":"65535","farm":66,"title":"Schieferschwanz-Trogon","ispublic":1,"isfriend":0,"isfamily":0},{"id":"51467034352","owner":"61062164@N08","secret":"d942b98656","server":"65535","farm":66,"title":"850_6579","ispublic":1,"isfriend":0,"isfamily":0},{"id":"51468526144","owner":"61062164@N08","secret":"5234db3bda","server":"65535","farm":66,"title":"850_6506","ispublic":1,"isfriend":0,"isfamily":0},{"id":"51345005838","owner":"27480477@N07","secret":"d55b49c6d6","server":"65535","farm":66,"title":"DSC07719 Slaty-Tailed Trogon, Trogon massena.","ispublic":1,"isfriend":0,"isfamily":0},{"id":"51292779864","owner":"41643989@N04","secret":"0aa039885d","server":"65535","farm":66,"title":"Slaty-tailed Trogon - Trogon massena - Soberan\u00eda National Park, Col\u00f3n, Panama - June 12, 2021","ispublic":1,"isfriend":0,"isfamily":0},{"id":"51240635123","owner":"127862075@N07","secret":"ec84663eaf","server":"65535","farm":66,"title":"Slaty-tailed (Massena) Trogon","ispublic":1,"isfriend":0,"isfamily":0},{"id":"51241488890","owner":"127862075@N07","secret":"35c4d0a276","server":"65535","farm":66,"title":"Slaty-tailed (Massena) Trogon","ispublic":1,"isfriend":0,"isfamily":0},{"id":"51107327609","owner":"148072293@N05","secret":"f531da006e","server":"65535","farm":66,"title":"20190124_070420 Slaty-tailed trogon, Trogon massena.","ispublic":1,"isfriend":0,"isfamily":0},{"id":"51108327245","owner":"148072293@N05","secret":"190de38650","server":"65535","farm":66,"title":"DSC_1107 Slaty-tailed trogon, male, Trogon massena.","ispublic":1,"isfriend":0,"isfamily":0},{"id":"51107448573","owner":"148072293@N05","secret":"605dfa2b36","server":"65535","farm":66,"title":"DSC_1113 Slaty-tailed trogon, male, Trogon massena.","ispublic":1,"isfriend":0,"isfamily":0},{"id":"50888449751","owner":"32805478@N03","secret":"7ab89cc53a","server":"65535","farm":66,"title":"Trog\u00f3n grande, Trogon massena, Slaty-tailed Trogon","ispublic":1,"isfriend":0,"isfamily":0},{"id":"50831385681","owner":"54249623@N08","secret":"0ccd359d07","server":"65535","farm":66,"title":"Trog\u00f3n Piquirrojo, Slaty-tailed Trogon (Trogon massena)","ispublic":1,"isfriend":0,"isfamily":0},{"id":"50814170473","owner":"185659367@N04","secret":"22f9acb6ff","server":"65535","farm":66,"title":"Slaty-tailed Trogon","ispublic":1,"isfriend":0,"isfamily":0},{"id":"50772666351","owner":"190773540@N03","secret":"413593a8bc","server":"65535","farm":66,"title":"Slaty-tailed Trogon (male)","ispublic":1,"isfriend":0,"isfamily":0},{"id":"50751065118","owner":"64478645@N03","secret":"3280acd36c","server":"65535","farm":66,"title":"Schieferschwanztrogon2","ispublic":1,"isfriend":0,"isfamily":0},{"id":"50560071763","owner":"129772911@N04","secret":"c4d56defb2","server":"65535","farm":66,"title":"Trogon massena","ispublic":1,"isfriend":0,"isfamily":0},{"id":"50560940672","owner":"129772911@N04","secret":"ca12d9c09f","server":"65535","farm":66,"title":"Trogon massena","ispublic":1,"isfriend":0,"isfamily":0},{"id":"50505880447","owner":"138918201@N04","secret":"11fdd1c626","server":"65535","farm":66,"title":"Slaty-tailed Trogon - Trogon de Mass\u00e9na","ispublic":1,"isfriend":0,"isfamily":0},{"id":"50444777683","owner":"56339362@N03","secret":"0bf0cdbdb4","server":"65535","farm":66,"title":"Trogon massena, slaty-tailed trogon","ispublic":1,"isfriend":0,"isfamily":0},{"id":"50399626371","owner":"190371075@N04","secret":"dd1d833f88","server":"65535","farm":66,"title":"Trogon massena","ispublic":1,"isfriend":0,"isfamily":0},{"id":"50337821581","owner":"189542651@N03","secret":"b2159a75ef","server":"65535","farm":66,"title":"slaty-tailed trogon (Trogon massena)","ispublic":1,"isfriend":0,"isfamily":0},{"id":"50042118893","owner":"101227797@N03","secret":"70136a861e","server":"65535","farm":66,"title":"Slaty-tailed Trogon","ispublic":1,"isfriend":0,"isfamily":0},{"id":"50037846602","owner":"140734051@N08","secret":"665aa936ce","server":"65535","farm":66,"title":"\u0410\u0441\u043f\u0438\u0434\u043d\u043e\u0445\u0432\u043e\u0441\u0442\u044b\u0439 \u0442\u0440\u043e\u0433\u043e\u043d, Trogon massena massena, Slaty-tailed Trogon","ispublic":1,"isfriend":0,"isfamily":0},{"id":"49921926486","owner":"128003162@N08","secret":"cb4c5b4d97","server":"65535","farm":66,"title":"Slaty-tailed Trogon","ispublic":1,"isfriend":0,"isfamily":0},{"id":"49893560631","owner":"95579115@N03","secret":"2378d1e22f","server":"65535","farm":66,"title":"Slaty-tailed Trogon (Trogon massena) \u0410\u0441\u043f\u0438\u0434\u043d\u043e\u0445\u0432\u043e\u0441\u0442\u044b\u0439 \u0442\u0440\u043e\u0433\u043e\u043d","ispublic":1,"isfriend":0,"isfamily":0},{"id":"49879362096","owner":"158227412@N05","secret":"5006e6f382","server":"65535","farm":66,"title":"Slaty-tailed Trogon","ispublic":1,"isfriend":0,"isfamily":0}]},"stat":"ok"}