{"photos":{"page":1,"pages":205,"perpage":100,"total":20478,"photo":[{"id":"52723403702","owner":"12639178@N07","secret":"baefc0ed50","server":"65535","farm":66,"title":"Schmuckreiher","ispublic":1,"isfriend":0,"isfamily":0},{"id":"52721930093","owner":"161505078@N03","secret":"94681da5d5","server":"65535","farm":66,"title":"snowy egret (Egretta thula)","ispublic":1,"isfriend":0,"isfamily":0},{"id":"52719657322","owner":"23117403@N06","secret":"ae4c490684","server":"65535","farm":66,"title":"Snowy egret - Aigrette neigeuse - Garceta n\u00edvea - Egretta thula","ispublic":1,"isfriend":0,"isfamily":0},{"id":"52718868853","owner":"22163926@N05","secret":"64a8fd21e7","server":"65535","farm":66,"title":"Into the Light","ispublic":1,"isfriend":0,"isfamily":0},{"id":"52717644290","owner":"62043870@N05","secret":"a7edf5d07a","server":"65535","farm":66,"title":"Snowy Egrets, Egretta thula","ispublic":1,"isfriend":0,"isfamily":0},{"id":"52716859730","owner":"52450054@N04","secret":"935ec3ab20","server":"65535","farm":66,"title":"Snowy Egret - Egretta thula, Cypress Wetlands, Port Royal, South Carolina, May 19, 2022","ispublic":1,"isfriend":0,"isfamily":0},{"id":"52716665783","owner":"12639178@N07","secret":"c00d241197","server":"65535","farm":66,"title":"Schmuckreiher und K\u00f6nigseeschwalben","ispublic":1,"isfriend":0,"isfamily":0},{"id":"52716152691","owner":"26520320@N03","secret":"088e3cb86e","server":"65535","farm":66,"title":"_BAP0559","ispublic":1,"isfriend":0,"isfamily":0},{"id":"52716150956","owner":"26520320@N03","secret":"08779dd6ce","server":"65535","farm":66,"title":"_BAP0545","ispublic":1,"isfriend":0,"isfamily":0},{"id":"52716632313","owner":"26520320@N03","secret":"e402a8b8c6","server":"65535","farm":66,"title":"_BAP0533","ispublic":1,"isfriend":0,"isfamily":0},{"id":"52715627362","owner":"26520320@N03","secret":"aa60340f8d","server":"65535","farm":66,"title":"_BAP0531","ispublic":1,"isfriend":0,"isfamily":0},{"id":"52716146556","owner":"26520320@N03","secret":"984574aa2c","server":"65535","farm":66,"title":"_BAP0500","ispublic":1,"isfriend":0,"isfamily":0},{"id":"52715622177","owner":"26520320@N03","secret":"98a0f27fb8","server":"65535","farm":66,"title":"_BAP0464","ispublic":1,"isfriend":0,"isfamily":0},{"id":"52716143221","owner":"26520320@N03","secret":"9beaf60448","server":"65535","farm":66,"title":"_BAP0463","ispublic":1,"isfriend":0,"isfamily":0},{"id":"52716569255","owner":"26520320@N03","secret":"2b4f7eed2e","server":"65535","farm":66,"title":"_BAP0461","ispublic":1,"isfriend":0,"isfamily":0},{"id":"52716568805","owner":"26520320@N03","secret":"9efe85a2ae","server":"65535","farm":66,"title":"_BAP0460","ispublic":1,"isfriend":0,"isfamily":0},{"id":"52716624978","owner":"26520320@N03","secret":"29f688aec5","server":"65535","farm":66,"title":"_BAP0455","ispublic":1,"isfriend":0,"isfamily":0},{"id":"52716567945","owner":"26520320@N03","secret":"1b1897dcf0","server":"65535","farm":66,"title":"_BAP0450","ispublic":1,"isfriend":0,"isfamily":0},{"id":"52716548955","owner":"26520320@N03","secret":"9a83ba4579","server":"65535","farm":66,"title":"_BAP0310","ispublic":1,"isfriend":0,"isfamily":0},{"id":"52716381604","owner":"26520320@N03","secret":"923d69f22d","server":"65535","farm":66,"title":"_BAP0306","ispublic":1,"isfriend":0,"isfamily":0},{"id":"52716598483","owner":"26520320@N03","secret":"164e2a5f2e","server":"65535","farm":66,"title":"_BAP0272","ispublic":1,"isfriend":0,"isfamily":0},{"id":"52716533930","owner":"26520320@N03","secret":"66dd6e6169","server":"65535","farm":66,"title":"_BAP0225","ispublic":1,"isfriend":0,"isfamily":0},{"id":"52716363989","owner":"44207637@N03","secret":"a4788f00f9","server":"65535","farm":66,"title":"Snowy Egret (Egretta thula)","ispublic":1,"isfriend":0,"isfamily":0},{"id":"52716360094","owner":"26520320@N03","secret":"7133cc6ef1","server":"65535","farm":66,"title":"_BAP0178","ispublic":1,"isfriend":0,"isfamily":0},{"id":"52715578797","owner":"26520320@N03","secret":"ee5e8235f1","server":"65535","farm":66,"title":"_BAP0174","ispublic":1,"isfriend":0,"isfamily":0},{"id":"52716099476","owner":"26520320@N03","secret":"b5ccb1b81d","server":"65535","farm":66,"title":"_BAP0172","ispublic":1,"isfriend":0,"isfamily":0},{"id":"52714968482","owner":"151109375@N08","secret":"a01d9cdf16","server":"65535","farm":66,"title":"A Snowy Egret, fishing in the shallows - One little fish gone, but more on the menu","ispublic":1,"isfriend":0,"isfamily":0},{"id":"52713465003","owner":"161505078@N03","secret":"6728b5b4b9","server":"65535","farm":66,"title":"snowy egret (Egretta thula)","ispublic":1,"isfriend":0,"isfamily":0},{"id":"52711830443","owner":"73431753@N00","secret":"6ff04031ec","server":"65535","farm":66,"title":"IMG_6409","ispublic":1,"isfriend":0,"isfamily":0},{"id":"52709675132","owner":"51433704@N06","secret":"55998a258e","server":"65535","farm":66,"title":"Snowy Egret","ispublic":1,"isfriend":0,"isfamily":0},{"id":"52708880824","owner":"26128697@N07","secret":"ffb2df4d71","server":"65535","farm":66,"title":"gar\u00e7a-branca-pequena (Egretta thula)","ispublic":1,"isfriend":0,"isfamily":0},{"id":"52708101557","owner":"26128697@N07","secret":"65cfe643be","server":"65535","farm":66,"title":"gar\u00e7a-branca-pequena (Egretta thula)","ispublic":1,"isfriend":0,"isfamily":0},{"id":"52708101532","owner":"26128697@N07","secret":"7694e34e8f","server":"65535","farm":66,"title":"gar\u00e7a-branca-pequena (Egretta thula)","ispublic":1,"isfriend":0,"isfamily":0},{"id":"52708101487","owner":"26128697@N07","secret":"4b2bcde9b7","server":"65535","farm":66,"title":"gar\u00e7a-branca-pequena (Egretta thula)","ispublic":1,"isfriend":0,"isfamily":0},{"id":"52708623766","owner":"26128697@N07","secret":"a2fea5566b","server":"65535","farm":66,"title":"gar\u00e7a-branca-pequena (Egretta thula)","ispublic":1,"isfriend":0,"isfamily":0},{"id":"52708101437","owner":"26128697@N07","secret":"67d5786385","server":"65535","farm":66,"title":"gar\u00e7a-branca-pequena (Egretta thula)","ispublic":1,"isfriend":0,"isfamily":0},{"id":"52708623706","owner":"26128697@N07","secret":"9350def51b","server":"65535","farm":66,"title":"gar\u00e7a-branca-pequena (Egretta thula)","ispublic":1,"isfriend":0,"isfamily":0},{"id":"52709038495","owner":"26128697@N07","secret":"b5ec9759d4","server":"65535","farm":66,"title":"gar\u00e7a-branca-pequena (Egretta thula)","ispublic":1,"isfriend":0,"isfamily":0},{"id":"52708880524","owner":"26128697@N07","secret":"76eb13673f","server":"65535","farm":66,"title":"gar\u00e7a-branca-pequena (Egretta thula)","ispublic":1,"isfriend":0,"isfamily":0},{"id":"52708881039","owner":"26128697@N07","secret":"381ea1816f","server":"65535","farm":66,"title":"gar\u00e7a-branca-pequena (Egretta thula)","ispublic":1,"isfriend":0,"isfamily":0},{"id":"52709038835","owner":"26128697@N07","secret":"b33410b49a","server":"65535","farm":66,"title":"gar\u00e7a-branca-pequena (Egretta thula)","ispublic":1,"isfriend":0,"isfamily":0},{"id":"52708880894","owner":"26128697@N07","secret":"ef15e8c51e","server":"65535","farm":66,"title":"gar\u00e7a-branca-pequena (Egretta thula)","ispublic":1,"isfriend":0,"isfamily":0},{"id":"52708100902","owner":"26128697@N07","secret":"0535bdb4ed","server":"65535","farm":66,"title":"gar\u00e7a-branca-pequena (Egretta thula)","ispublic":1,"isfriend":0,"isfamily":0},{"id":"52705867074","owner":"59779711@N05","secret":"9e9d6b3bc4","server":"65535","farm":66,"title":"Portrait of a Snowy","ispublic":1,"isfriend":0,"isfamily":0},{"id":"52703670776","owner":"65788177@N02","secret":"421f58ce63","server":"65535","farm":66,"title":"Snowy Egret","ispublic":1,"isfriend":0,"isfamily":0},{"id":"52704036470","owner":"9240063@N02","secret":"4b5f6120dd","server":"65535","farm":66,"title":"Egretta thula","ispublic":1,"isfriend":0,"isfamily":0},{"id":"52700628721","owner":"161505078@N03","secret":"9d253765ec","server":"65535","farm":66,"title":"snowy egret (Egretta thula)","ispublic":1,"isfriend":0,"isfamily":0},{"id":"52700588478","owner":"161505078@N03","secret":"36921bb8f6","server":"65535","farm":66,"title":"snowy egret (Egretta thula)","ispublic":1,"isfriend":0,"isfamily":0},{"id":"52700371415","owner":"195409487@N05","secret":"507a762f2e","server":"65535","farm":66,"title":"Sn\u00f8hegre - Snowy Egret - Egretta thula","ispublic":1,"isfriend":0,"isfamily":0},{"id":"52697519887","owner":"51433704@N06","secret":"bf210dba08","server":"65535","farm":66,"title":"Snowy Egret","ispublic":1,"isfriend":0,"isfamily":0},{"id":"52698294159","owner":"128369733@N04","secret":"b3d644bf0e","server":"65535","farm":66,"title":"On A Sunday Morning Walk (4)","ispublic":1,"isfriend":0,"isfamily":0},{"id":"52698291769","owner":"128369733@N04","secret":"6e0b3f3bc5","server":"65535","farm":66,"title":"On A Sunday Morning Walk ((6)","ispublic":1,"isfriend":0,"isfamily":0},{"id":"52697449265","owner":"90355165@N03","secret":"0281481c7d","server":"65535","farm":66,"title":"snowy egret","ispublic":1,"isfriend":0,"isfamily":0},{"id":"52696513587","owner":"90355165@N03","secret":"e01f43bf1f","server":"65535","farm":66,"title":"snowy egret","ispublic":1,"isfriend":0,"isfamily":0},{"id":"52697114859","owner":"124995824@N08","secret":"53c32c11a3","server":"65535","farm":66,"title":"Snowy Egret - Egretta thula","ispublic":1,"isfriend":0,"isfamily":0},{"id":"52695884585","owner":"23939795@N04","secret":"800d154230","server":"65535","farm":66,"title":"Snow White 0185","ispublic":1,"isfriend":0,"isfamily":0},{"id":"52695728864","owner":"8561740@N08","secret":"c1f80f7318","server":"65535","farm":66,"title":"Egret Morning","ispublic":1,"isfriend":0,"isfamily":0},{"id":"52694382927","owner":"143326780@N02","secret":"52f9460722","server":"65535","farm":66,"title":"DSCN4551","ispublic":1,"isfriend":0,"isfamily":0},{"id":"52695099544","owner":"168495655@N07","secret":"b21d372251","server":"65535","farm":66,"title":"Aigrette neigeuse - Egretta thula - Snowy Egret","ispublic":1,"isfriend":0,"isfamily":0},{"id":"52690628644","owner":"69347399@N08","secret":"7938b679cd","server":"65535","farm":66,"title":"Egretta thula Snowy egret -garza dedos dorados","ispublic":1,"isfriend":0,"isfamily":0},{"id":"52688926064","owner":"21584095@N00","secret":"80213fb141","server":"65535","farm":66,"title":"Snowy Egret (Egretta thula)","ispublic":1,"isfriend":0,"isfamily":0},{"id":"52684780209","owner":"44828133@N02","secret":"606221002c","server":"65535","farm":66,"title":"Esp\u00e1tula rosada y garcita blanca","ispublic":1,"isfriend":0,"isfamily":0},{"id":"52684691044","owner":"12639178@N07","secret":"a7b71e34c2","server":"65535","farm":66,"title":"Schmckreiher, ruhend","ispublic":1,"isfriend":0,"isfamily":0},{"id":"52684407671","owner":"12639178@N07","secret":"75b01068a9","server":"65535","farm":66,"title":"Schmuckreiher am meist schattigen Bachufer","ispublic":1,"isfriend":0,"isfamily":0},{"id":"52684897158","owner":"52450054@N04","secret":"55021f3e35","server":"65535","farm":66,"title":"Snowy Egret - Egretta thula, Cypress Wetlands, Port Royal, South Carolina, May 18, 2022","ispublic":1,"isfriend":0,"isfamily":0},{"id":"52681685981","owner":"60216873@N05","secret":"66f81c97ed","server":"65535","farm":66,"title":"Snowy Egret","ispublic":1,"isfriend":0,"isfamily":0},{"id":"52677949768","owner":"11295713@N00","secret":"538768c6c9","server":"65535","farm":66,"title":"Snowy Egret (Egretta thula) on Moss-covered Rock","ispublic":1,"isfriend":0,"isfamily":0},{"id":"52676173961","owner":"62043870@N05","secret":"8bac143daf","server":"65535","farm":66,"title":"Snowy Egret, Egretta thula","ispublic":1,"isfriend":0,"isfamily":0},{"id":"52675625260","owner":"61361023@N03","secret":"6a8785dfb4","server":"65535","farm":66,"title":"Egretta thula","ispublic":1,"isfriend":0,"isfamily":0},{"id":"52673293987","owner":"12530381@N07","secret":"a7e7114ff7","server":"65535","farm":66,"title":"Snowy Egret (Egretta thula) at Whelan Lake, Oceanside, CA (2\/4\/2023)","ispublic":1,"isfriend":0,"isfamily":0},{"id":"52671756208","owner":"50846495@N04","secret":"bc45fda778","server":"65535","farm":66,"title":"Snowy aigret \/ aigrette neigeuse \/ Egretta thula","ispublic":1,"isfriend":0,"isfamily":0},{"id":"52670130153","owner":"62043870@N05","secret":"014307dc97","server":"65535","farm":66,"title":"Snowy Egret, Egretta thula","ispublic":1,"isfriend":0,"isfamily":0},{"id":"52668976641","owner":"50846495@N04","secret":"f2734a1cfe","server":"65535","farm":66,"title":"Snowy aigret \/ aigrette neigeuse \/ Egretta thula","ispublic":1,"isfriend":0,"isfamily":0},{"id":"52668739561","owner":"39935474@N03","secret":"8ae63147b6","server":"65535","farm":66,"title":"Snowy Egret","ispublic":1,"isfriend":0,"isfamily":0},{"id":"52666234387","owner":"74787113@N05","secret":"a6d712737f","server":"65535","farm":66,"title":"SNOWY EGRET","ispublic":1,"isfriend":0,"isfamily":0},{"id":"52666035157","owner":"34368269@N04","secret":"27266210ce","server":"65535","farm":66,"title":"Snowy Egret","ispublic":1,"isfriend":0,"isfamily":0},{"id":"52661418936","owner":"196127020@N02","secret":"a516df6ca1","server":"65535","farm":66,"title":"Great White Egret","ispublic":1,"isfriend":0,"isfamily":0},{"id":"52661862025","owner":"196127020@N02","secret":"30e84f99af","server":"65535","farm":66,"title":"Snowy Egret","ispublic":1,"isfriend":0,"isfamily":0},{"id":"52661908298","owner":"196127020@N02","secret":"5f4c3db97a","server":"65535","farm":66,"title":"20190903-03-SONY-ILCE-7-1-2000 @ f-8-500-560 mm","ispublic":1,"isfriend":0,"isfamily":0},{"id":"52661908253","owner":"196127020@N02","secret":"3d97054a01","server":"65535","farm":66,"title":"20190903-04-SONY-ILCE-7-1-2000 @ f-8-500-560 mm","ispublic":1,"isfriend":0,"isfamily":0},{"id":"52660175177","owner":"39511843@N07","secret":"39dc4a82cb","server":"65535","farm":66,"title":"20230129-Snowy Egret  (Egretta thula)-5","ispublic":1,"isfriend":0,"isfamily":0},{"id":"52660674321","owner":"39511843@N07","secret":"e890219d47","server":"65535","farm":66,"title":"20230129-Snowy Egret  (Egretta thula)-4","ispublic":1,"isfriend":0,"isfamily":0},{"id":"52661118985","owner":"39511843@N07","secret":"b6212ba9c1","server":"65535","farm":66,"title":"20230129-Snowy Egret (Egretta thula) with fisherman's lure in throat!","ispublic":1,"isfriend":0,"isfamily":0},{"id":"52660674011","owner":"39511843@N07","secret":"9c5e460d8d","server":"65535","farm":66,"title":"20230129-Snowy Egret (Egretta thula)-3","ispublic":1,"isfriend":0,"isfamily":0},{"id":"52659338997","owner":"7633518@N08","secret":"8f007e8d9e","server":"65535","farm":66,"title":"Snowy egret (Egretta thula)","ispublic":1,"isfriend":0,"isfamily":0},{"id":"52658806364","owner":"12639178@N07","secret":"21f1bf787a","server":"65535","farm":66,"title":"Schmuckreiher auf Nahrungssuche","ispublic":1,"isfriend":0,"isfamily":0},{"id":"52658058700","owner":"78223721@N03","secret":"4f0592e1af","server":"65535","farm":66,"title":"Egretta thula feet","ispublic":1,"isfriend":0,"isfamily":0},{"id":"52658058510","owner":"78223721@N03","secret":"49471d012f","server":"65535","farm":66,"title":"Egretta thula","ispublic":1,"isfriend":0,"isfamily":0},{"id":"52657534874","owner":"187025836@N04","secret":"ce811d6c37","server":"65535","farm":66,"title":"Bad Hair Day - Snowy Egret","ispublic":1,"isfriend":0,"isfamily":0},{"id":"52657683055","owner":"187025836@N04","secret":"306ab8cb4d","server":"65535","farm":66,"title":"Scratching an Itch","ispublic":1,"isfriend":0,"isfamily":0},{"id":"52656377067","owner":"143326780@N02","secret":"f355c6c6ed","server":"65535","farm":66,"title":"DSCN2571","ispublic":1,"isfriend":0,"isfamily":0},{"id":"52657307720","owner":"143326780@N02","secret":"88cbc70507","server":"65535","farm":66,"title":"DSCN2574","ispublic":1,"isfriend":0,"isfamily":0},{"id":"52657144719","owner":"143326780@N02","secret":"cd16c18c5a","server":"65535","farm":66,"title":"DSCN2584","ispublic":1,"isfriend":0,"isfamily":0},{"id":"52657144639","owner":"143326780@N02","secret":"c114f46edb","server":"65535","farm":66,"title":"DSCN2587","ispublic":1,"isfriend":0,"isfamily":0},{"id":"52657219018","owner":"60361833@N03","secret":"a9712b9e4e","server":"65535","farm":66,"title":"Snowy Egret_44","ispublic":1,"isfriend":0,"isfamily":0},{"id":"52657065250","owner":"39511843@N07","secret":"24d7ae0eaa","server":"65535","farm":66,"title":"20230125-Snowy Egret (Egretta thula)-2","ispublic":1,"isfriend":0,"isfamily":0},{"id":"52656984928","owner":"12639178@N07","secret":"0b6cfdc670","server":"65535","farm":66,"title":"Sucht nach Nahrung","ispublic":1,"isfriend":0,"isfamily":0},{"id":"52656938275","owner":"12639178@N07","secret":"fcde8eea80","server":"65535","farm":66,"title":"Auf Nahrungssuche","ispublic":1,"isfriend":0,"isfamily":0},{"id":"52655923232","owner":"7331818@N02","secret":"6470d08343","server":"65535","farm":66,"title":"Petaluma River","ispublic":1,"isfriend":0,"isfamily":0},{"id":"52656571405","owner":"39511843@N07","secret":"ce870c827b","server":"65535","farm":66,"title":"20230125-Snowy Egret (Egretta thula)","ispublic":1,"isfriend":0,"isfamily":0}]},"stat":"ok"}