{"photos":{"page":1,"pages":29,"perpage":100,"total":2833,"photo":[{"id":"52720160894","owner":"12639178@N07","secret":"2b08599999","server":"65535","farm":66,"title":"Einsamer Wasserl\u00e4ufer","ispublic":1,"isfriend":0,"isfamily":0},{"id":"52715144926","owner":"12639178@N07","secret":"14b582d424","server":"65535","farm":66,"title":"Am Gew\u00e4sserufer","ispublic":1,"isfriend":0,"isfamily":0},{"id":"52714623602","owner":"12639178@N07","secret":"4602ce6a2f","server":"65535","farm":66,"title":"Einsamer Wasserl\u00e4ufer und Teichhuhn","ispublic":1,"isfriend":0,"isfamily":0},{"id":"52686767099","owner":"33005514@N04","secret":"ced088ff97","server":"65535","farm":66,"title":"Tringa solitaria","ispublic":1,"isfriend":0,"isfamily":0},{"id":"52685969722","owner":"33005514@N04","secret":"61ece5150c","server":"65535","farm":66,"title":"Tringa solitaria","ispublic":1,"isfriend":0,"isfamily":0},{"id":"52601447064","owner":"183004597@N05","secret":"a1b23f0dfb","server":"65535","farm":66,"title":"Solitary Sandpiper (Tringa solitaria)","ispublic":1,"isfriend":0,"isfamily":0},{"id":"52566028136","owner":"66550674@N06","secret":"a520a74518","server":"65535","farm":66,"title":"Solitary Sandpiper","ispublic":1,"isfriend":0,"isfamily":0},{"id":"52547781859","owner":"10318424@N07","secret":"c1a39a0ba7","server":"65535","farm":66,"title":"Solitary Sandpiper (Tringa solitaria)","ispublic":1,"isfriend":0,"isfamily":0},{"id":"52541965383","owner":"76288515@N07","secret":"bcf60e831e","server":"65535","farm":66,"title":"Solitary Sandpiper Tringa solitaria","ispublic":1,"isfriend":0,"isfamily":0},{"id":"52541419831","owner":"76288515@N07","secret":"d041cd5129","server":"65535","farm":66,"title":"Solitary Sandpiper Tringa solitaria","ispublic":1,"isfriend":0,"isfamily":0},{"id":"52541965323","owner":"76288515@N07","secret":"49a89e94d4","server":"65535","farm":66,"title":"Solitary Sandpiper Tringa solitaria","ispublic":1,"isfriend":0,"isfamily":0},{"id":"52541965228","owner":"76288515@N07","secret":"5860cf81da","server":"65535","farm":66,"title":"Solitary Sandpiper Tringa solitaria","ispublic":1,"isfriend":0,"isfamily":0},{"id":"52538966806","owner":"33610210@N05","secret":"dd32d5b316","server":"65535","farm":66,"title":"Solitary Sandpiper, Tringa solitaria","ispublic":1,"isfriend":0,"isfamily":0},{"id":"52539412765","owner":"33610210@N05","secret":"82bccdf5c8","server":"65535","farm":66,"title":"Solitary Sandpiper, Tringa solitaria","ispublic":1,"isfriend":0,"isfamily":0},{"id":"52538349168","owner":"126271444@N08","secret":"77f63ef88c","server":"65535","farm":66,"title":"Solitary Sandpiper (Tringa solitaria)","ispublic":1,"isfriend":0,"isfamily":0},{"id":"52534346462","owner":"33610210@N05","secret":"83db0413ba","server":"65535","farm":66,"title":"Solitary Sandpiper, Tringa solitaria","ispublic":1,"isfriend":0,"isfamily":0},{"id":"52535357078","owner":"33610210@N05","secret":"2b514ba0c2","server":"65535","farm":66,"title":"Solitary Sandpiper, Tringa solitaria","ispublic":1,"isfriend":0,"isfamily":0},{"id":"52516259200","owner":"39445433@N02","secret":"a148ff9a11","server":"65535","farm":66,"title":"Solitary Sandpiper","ispublic":1,"isfriend":0,"isfamily":0},{"id":"52514137858","owner":"81397674@N07","secret":"d0ee3f8999","server":"65535","farm":66,"title":"Solitary Sandpipers (Tringa solitaria), Astotin Lake, Elk Island National Park, Alberta","ispublic":1,"isfriend":0,"isfamily":0},{"id":"52513568611","owner":"81397674@N07","secret":"e84f23bd69","server":"65535","farm":66,"title":"Solitary Sandpipers (Tringa solitaria), Astotin Lake, Elk Island National Park, Alberta","ispublic":1,"isfriend":0,"isfamily":0},{"id":"52507946799","owner":"70295563@N00","secret":"2412056fd1","server":"65535","farm":66,"title":"Looking for lunch","ispublic":1,"isfriend":0,"isfamily":0},{"id":"52474125091","owner":"70295563@N00","secret":"aacca71bfe","server":"65535","farm":66,"title":"Wading in the muck","ispublic":1,"isfriend":0,"isfamily":0},{"id":"52471597520","owner":"28631427@N00","secret":"7a9254b38e","server":"65535","farm":66,"title":"Solitary Sandpipers","ispublic":1,"isfriend":0,"isfamily":0},{"id":"52466646207","owner":"70295563@N00","secret":"34c9294d0e","server":"65535","farm":66,"title":"Nice catch","ispublic":1,"isfriend":0,"isfamily":0},{"id":"52431647044","owner":"20624344@N08","secret":"35518b1ecb","server":"65535","farm":66,"title":"solitary sandpiper (Tringa solitaria)","ispublic":1,"isfriend":0,"isfamily":0},{"id":"52426972357","owner":"39177293@N03","secret":"d97c29181a","server":"65535","farm":66,"title":"Solitary Sandpiper","ispublic":1,"isfriend":0,"isfamily":0},{"id":"52427378534","owner":"194903193@N03","secret":"5a3c6aab72","server":"65535","farm":66,"title":"Solitary Sandpiper migrating in North Carolina","ispublic":1,"isfriend":0,"isfamily":0},{"id":"52401833377","owner":"23614358@N03","secret":"cd4d88fdeb","server":"65535","farm":66,"title":"Tibibi-400","ispublic":1,"isfriend":0,"isfamily":0},{"id":"52400555195","owner":"65148649@N04","secret":"5b87b04847","server":"65535","farm":66,"title":"Solitary Sandpiper","ispublic":1,"isfriend":0,"isfamily":0},{"id":"52400621493","owner":"65148649@N04","secret":"a698a2c838","server":"65535","farm":66,"title":"Solitary Sandpiper","ispublic":1,"isfriend":0,"isfamily":0},{"id":"52399610767","owner":"65148649@N04","secret":"7dae1a8e11","server":"65535","farm":66,"title":"Solitary Sandpiper","ispublic":1,"isfriend":0,"isfamily":0},{"id":"52400413114","owner":"65148649@N04","secret":"e6a0c6516d","server":"65535","farm":66,"title":"Solitary Sandpiper","ispublic":1,"isfriend":0,"isfamily":0},{"id":"52381939414","owner":"14572247@N07","secret":"a5e9d5a046","server":"65535","farm":66,"title":"Solitary Sandpiper","ispublic":1,"isfriend":0,"isfamily":0},{"id":"52379271361","owner":"140318147@N08","secret":"689e678dec","server":"65535","farm":66,"title":"solitary sandpiper (Tringa solitaria) L4A2199","ispublic":1,"isfriend":0,"isfamily":0},{"id":"52363729361","owner":"14734088@N02","secret":"ff266a0c1a","server":"65535","farm":66,"title":"Chevalier solitaire 200917H","ispublic":1,"isfriend":0,"isfamily":0},{"id":"52339060704","owner":"26371261@N00","secret":"c923a65fdc","server":"65535","farm":66,"title":"Solitary Sandpiper, Tringa solitaria","ispublic":1,"isfriend":0,"isfamily":0},{"id":"52337702038","owner":"85277889@N08","secret":"1681984b37","server":"65535","farm":66,"title":"Solitary Sandpiper (Tringa solitaria) 2022-09-05 (3a)","ispublic":1,"isfriend":0,"isfamily":0},{"id":"52337701993","owner":"85277889@N08","secret":"f495a46ddc","server":"65535","farm":66,"title":"Solitary Sandpiper (Tringa solitaria) 2022-09-05 (6a)","ispublic":1,"isfriend":0,"isfamily":0},{"id":"52333840798","owner":"10336659@N04","secret":"b24db7c580","server":"65535","farm":66,"title":"Solitary Sandpiper (Tringa solitaria), Green Cay Nature Preserve.","ispublic":1,"isfriend":0,"isfamily":0},{"id":"52330300736","owner":"128537732@N06","secret":"354ca0980f","server":"65535","farm":66,"title":"Solitary Sandpiper (Tringa solitaria)","ispublic":1,"isfriend":0,"isfamily":0},{"id":"52330544663","owner":"128537732@N06","secret":"23ab941d85","server":"65535","farm":66,"title":"Solitary Sandpiper (Tringa solitaria)","ispublic":1,"isfriend":0,"isfamily":0},{"id":"52330300361","owner":"128537732@N06","secret":"df5800c6fd","server":"65535","farm":66,"title":"Solitary Sandpiper (Tringa solitaria)","ispublic":1,"isfriend":0,"isfamily":0},{"id":"52327890250","owner":"119468907@N03","secret":"5cd7f32f3d","server":"65535","farm":66,"title":"Chevalier solitaire_R5DJ0118","ispublic":1,"isfriend":0,"isfamily":0},{"id":"52327713178","owner":"119468907@N03","secret":"30983f628d","server":"65535","farm":66,"title":"Chevalier solitaire_R5DJ0121","ispublic":1,"isfriend":0,"isfamily":0},{"id":"52327417651","owner":"119468907@N03","secret":"787720f1b1","server":"65535","farm":66,"title":"Chevalier solitaire_R5DJ9996","ispublic":1,"isfriend":0,"isfamily":0},{"id":"52322056092","owner":"141956378@N08","secret":"77c39e823f","server":"65535","farm":66,"title":"Solitary Sandpiper (Tringa solitaria)","ispublic":1,"isfriend":0,"isfamily":0},{"id":"52323175698","owner":"141956378@N08","secret":"01a9472286","server":"65535","farm":66,"title":"Solitary Sandpiper (Tringa solitaria)","ispublic":1,"isfriend":0,"isfamily":0},{"id":"52322532556","owner":"126993030@N06","secret":"2994f1a27c","server":"65535","farm":66,"title":"Solitary Sandpiper","ispublic":1,"isfriend":0,"isfamily":0},{"id":"52320893117","owner":"14734088@N02","secret":"e18f2ae5ca","server":"65535","farm":66,"title":"Chevalier solitaire 210904H2b","ispublic":1,"isfriend":0,"isfamily":0},{"id":"52317564971","owner":"168422493@N02","secret":"e042802119","server":"65535","farm":66,"title":"Our Daily Challenge - Reflections","ispublic":1,"isfriend":0,"isfamily":0},{"id":"52316123758","owner":"9638954@N07","secret":"fe3f3cf494","server":"65535","farm":66,"title":"Solitary Sandpipers","ispublic":1,"isfriend":0,"isfamily":0},{"id":"52316017934","owner":"54549270@N03","secret":"f9bc0cf070","server":"65535","farm":66,"title":"Solitary Sandpiper (Tringa solitaria)","ispublic":1,"isfriend":0,"isfamily":0},{"id":"52315919544","owner":"135315828@N06","secret":"f9ac95f269","server":"65535","farm":66,"title":"solitary sandpiper","ispublic":1,"isfriend":0,"isfamily":0},{"id":"52309216648","owner":"130819719@N05","secret":"4247f22749","server":"65535","farm":66,"title":"Solitary Sandpiper","ispublic":1,"isfriend":0,"isfamily":0},{"id":"52309215493","owner":"130819719@N05","secret":"4decc2fb29","server":"65535","farm":66,"title":"Solitary Sandpiper","ispublic":1,"isfriend":0,"isfamily":0},{"id":"52306788201","owner":"21182099@N05","secret":"424ae5c338","server":"65535","farm":66,"title":"Solitary Sandpiper (Tringa solitaria)","ispublic":1,"isfriend":0,"isfamily":0},{"id":"52305018810","owner":"57852199@N03","secret":"278edb29ff","server":"65535","farm":66,"title":"Solitary Sandpiper (Tringa solitaria)","ispublic":1,"isfriend":0,"isfamily":0},{"id":"52298889116","owner":"71989271@N06","secret":"bd359387ed","server":"65535","farm":66,"title":"Solitary Sandpiper (Tringa solitaria)","ispublic":1,"isfriend":0,"isfamily":0},{"id":"52298202883","owner":"92211588@N08","secret":"eda4246781","server":"65535","farm":66,"title":"Solitary sandpiper Tringa solitaria Guyane 11112021 PD 1","ispublic":1,"isfriend":0,"isfamily":0},{"id":"52298202848","owner":"92211588@N08","secret":"0d5bae7df5","server":"65535","farm":66,"title":"Solitary sandpiper Tringa solitaria Guyane 11112021 PD 5","ispublic":1,"isfriend":0,"isfamily":0},{"id":"52295362130","owner":"186193378@N07","secret":"c4bdfa4004","server":"65535","farm":66,"title":"Ma\u00e7arico-solit\u00e1rio (Tringa solitaria) Solitary Sandpiper","ispublic":1,"isfriend":0,"isfamily":0},{"id":"52291505320","owner":"61135968@N00","secret":"185a1009fc","server":"65535","farm":66,"title":"Sandpiper","ispublic":1,"isfriend":0,"isfamily":0},{"id":"52281854656","owner":"28631427@N00","secret":"6b6dbcc2f2","server":"65535","farm":66,"title":"Solitary Sandpiper","ispublic":1,"isfriend":0,"isfamily":0},{"id":"52274426442","owner":"196264892@N08","secret":"d9d8bce895","server":"65535","farm":66,"title":"Solitary Sandpiper 1","ispublic":1,"isfriend":0,"isfamily":0},{"id":"52266406369","owner":"193835300@N08","secret":"c1d82b307b","server":"65535","farm":66,"title":"Chevalier solitaire et grivel\u00e9 - Tringa solitaria et Actitis macularius -Solitary and spotted sandpipers","ispublic":1,"isfriend":0,"isfamily":0},{"id":"52253032432","owner":"69947563@N07","secret":"71a6e4ace6","server":"65535","farm":66,"title":"Lesser Yellowlegs and Solitary Sandpiper - Cambridge, Waterloo Region, Ontario, Canada","ispublic":1,"isfriend":0,"isfamily":0},{"id":"52252839545","owner":"189426727@N07","secret":"f1e2175f19","server":"65535","farm":66,"title":"Solitary Sandpiper","ispublic":1,"isfriend":0,"isfamily":0},{"id":"52241888581","owner":"23020855@N03","secret":"37a33f93e2","server":"65535","farm":66,"title":"Solitary Sandpiper - Blue Spring, KY","ispublic":1,"isfriend":0,"isfamily":0},{"id":"52235987627","owner":"37566919@N02","secret":"65b1a0e62d","server":"65535","farm":66,"title":"Solitary Sandpiper","ispublic":1,"isfriend":0,"isfamily":0},{"id":"52692093017","owner":"60482730@N07","secret":"5eae3d7e4b","server":"65535","farm":66,"title":"Andarr\u00edos solitario - Solitary Sandpiper (Tringa solitaria). R\u00edo Loretoyacu, Puerto Nari\u00f1o, Amazonas.","ispublic":1,"isfriend":0,"isfamily":0},{"id":"52642722277","owner":"8013969@N03","secret":"356bbb885f","server":"65535","farm":66,"title":"Tringa solitaria DFL btr22","ispublic":1,"isfriend":0,"isfamily":0},{"id":"52541714599","owner":"76288515@N07","secret":"397c8d8323","server":"65535","farm":66,"title":"Solitary Sandpiper Tringa solitaria","ispublic":1,"isfriend":0,"isfamily":0},{"id":"52541714579","owner":"76288515@N07","secret":"bc825f9752","server":"65535","farm":66,"title":"Solitary Sandpiper Tringa solitaria","ispublic":1,"isfriend":0,"isfamily":0},{"id":"52540955117","owner":"76288515@N07","secret":"4631c9189f","server":"65535","farm":66,"title":"Solitary Sandpiper Tringa solitaria","ispublic":1,"isfriend":0,"isfamily":0},{"id":"52541897480","owner":"76288515@N07","secret":"6897d1147f","server":"65535","farm":66,"title":"Solitary Sandpiper Tringa solitaria","ispublic":1,"isfriend":0,"isfamily":0},{"id":"52537336942","owner":"126271444@N08","secret":"6973e3ab59","server":"65535","farm":66,"title":"Solitary Sandpiper (Tringa solitaria)","ispublic":1,"isfriend":0,"isfamily":0},{"id":"52537336787","owner":"126271444@N08","secret":"a85ba2c14f","server":"65535","farm":66,"title":"Solitary Sandpiper (Tringa solitaria)","ispublic":1,"isfriend":0,"isfamily":0},{"id":"52513860974","owner":"18835161@N02","secret":"d359a91ce8","server":"65535","farm":66,"title":"Solitary Sandpipers (Tringa solitaria), Astotin Lake, Elk Island National Park, Alberta","ispublic":1,"isfriend":0,"isfamily":0},{"id":"52514052800","owner":"18835161@N02","secret":"ea21fdcf61","server":"65535","farm":66,"title":"Solitary Sandpipers (Tringa solitaria), Astotin Lake, Elk Island National Park, Alberta","ispublic":1,"isfriend":0,"isfamily":0},{"id":"52495183979","owner":"48938938@N04","secret":"2b33f9743a","server":"65535","farm":66,"title":"Solitary Sandpiper_Tringa solitaria_Ascanio_Guyana_DZ3A4218","ispublic":1,"isfriend":0,"isfamily":0},{"id":"52495178659","owner":"48938938@N04","secret":"33bab83d90","server":"65535","farm":66,"title":"Solitary Sandpiper_Tringa solitaria_Ascanio_Guyana_DZ3A4217","ispublic":1,"isfriend":0,"isfamily":0},{"id":"52444309367","owner":"192760465@N05","secret":"1e1a2b549b","server":"65535","farm":66,"title":"Playerito solitario  (Tringa solitaria)","ispublic":1,"isfriend":0,"isfamily":0},{"id":"52445099214","owner":"192760465@N05","secret":"6116c65349","server":"65535","farm":66,"title":"Playerito solitario  (Tringa solitaria)","ispublic":1,"isfriend":0,"isfamily":0},{"id":"52437147975","owner":"192760465@N05","secret":"960b35834c","server":"65535","farm":66,"title":"Playerito solitario  (Tringa solitaria)","ispublic":1,"isfriend":0,"isfamily":0},{"id":"52436968324","owner":"192760465@N05","secret":"64c2463059","server":"65535","farm":66,"title":"Playerito solitario  (Tringa solitaria)","ispublic":1,"isfriend":0,"isfamily":0},{"id":"52437147670","owner":"192760465@N05","secret":"e8a2b7649f","server":"65535","farm":66,"title":"Playerito solitario  (Tringa solitaria)","ispublic":1,"isfriend":0,"isfamily":0},{"id":"52394003704","owner":"134270033@N06","secret":"569c762149","server":"0","farm":0,"title":"HTT :: Happy Tuesday Twosday","ispublic":1,"isfriend":0,"isfamily":0},{"id":"52378330377","owner":"140318147@N08","secret":"88f7690625","server":"65535","farm":66,"title":"solitary sandpiper (Tringa solitaria) L4A2183","ispublic":1,"isfriend":0,"isfamily":0},{"id":"52362406851","owner":"48232993@N00","secret":"01148e89a3","server":"65535","farm":66,"title":"solitary sandpiper","ispublic":1,"isfriend":0,"isfamily":0},{"id":"52361466477","owner":"48232993@N00","secret":"cd07c7e063","server":"65535","farm":66,"title":"solitary sandpiper","ispublic":1,"isfriend":0,"isfamily":0},{"id":"52346115761","owner":"26096524@N03","secret":"9e43c2e458","server":"65535","farm":66,"title":"Solitary Sandpiper (Tringa solitaria)","ispublic":1,"isfriend":0,"isfamily":0},{"id":"52338932613","owner":"8666250@N02","secret":"2bcaa05856","server":"65535","farm":66,"title":"Solitary Sandpiper!","ispublic":1,"isfriend":0,"isfamily":0},{"id":"52348398750","owner":"134270033@N06","secret":"a15d2e39fc","server":"0","farm":0,"title":"2 for 2  ... shorebird foraging mannerisms","ispublic":1,"isfriend":0,"isfamily":0},{"id":"52295406560","owner":"39422575@N02","secret":"4d44ae9728","server":"65535","farm":66,"title":"Solitary Sandpiper, Tringa solitaria. Kirk Spring, East Fork Salt Creek 6000', Canyonlands National Park, UT. 08 August 2022. Robb Hannawacker","ispublic":1,"isfriend":0,"isfamily":0},{"id":"52246528757","owner":"37493716@N02","secret":"fa2347748e","server":"65535","farm":66,"title":"Aves Reserva Tit\u00ed Cabeciblanco","ispublic":1,"isfriend":0,"isfamily":0},{"id":"52247789764","owner":"37493716@N02","secret":"9faac84c37","server":"65535","farm":66,"title":"Aves Reserva Tit\u00ed Cabeciblanco","ispublic":1,"isfriend":0,"isfamily":0},{"id":"52247789734","owner":"37493716@N02","secret":"25c690b652","server":"65535","farm":66,"title":"Aves Reserva Tit\u00ed Cabeciblanco","ispublic":1,"isfriend":0,"isfamily":0},{"id":"52247517763","owner":"37493716@N02","secret":"b25ab57530","server":"65535","farm":66,"title":"Aves Reserva Tit\u00ed Cabeciblanco","ispublic":1,"isfriend":0,"isfamily":0},{"id":"52235898807","owner":"67306066@N03","secret":"bf2fc520ba","server":"65535","farm":66,"title":"Solitary Sandpiper (Tringa solitaria)","ispublic":1,"isfriend":0,"isfamily":0},{"id":"52236890518","owner":"67306066@N03","secret":"f22c447a52","server":"65535","farm":66,"title":"Solitary Sandpiper (Tringa solitaria)","ispublic":1,"isfriend":0,"isfamily":0}]},"stat":"ok"}