{"photos":{"page":1,"pages":32,"perpage":100,"total":3141,"photo":[{"id":"52720292109","owner":"194101922@N04","secret":"5ee6063ba4","server":"65535","farm":66,"title":"Porzana carolina \/ Sora","ispublic":1,"isfriend":0,"isfamily":0},{"id":"52717195678","owner":"103722035@N06","secret":"8ca1863445","server":"0","farm":0,"title":"Sora (Porzana carolina), Morro Bay, CA","ispublic":1,"isfriend":0,"isfamily":0},{"id":"52678567191","owner":"38514062@N03","secret":"cc91db3c09","server":"65535","farm":66,"title":"Sora (Porzana carolina)","ispublic":1,"isfriend":0,"isfamily":0},{"id":"52678566131","owner":"38514062@N03","secret":"8627f99378","server":"65535","farm":66,"title":"Sora (Porzana carolina)","ispublic":1,"isfriend":0,"isfamily":0},{"id":"52678999810","owner":"38514062@N03","secret":"42ec96d0fa","server":"65535","farm":66,"title":"Sora (Porzana carolina)","ispublic":1,"isfriend":0,"isfamily":0},{"id":"52677625144","owner":"143326780@N02","secret":"d4488752c8","server":"65535","farm":66,"title":"DSCN3657","ispublic":1,"isfriend":0,"isfamily":0},{"id":"52676827882","owner":"143326780@N02","secret":"7f6ea190cd","server":"65535","farm":66,"title":"DSCN3662","ispublic":1,"isfriend":0,"isfamily":0},{"id":"52677339756","owner":"143326780@N02","secret":"05e9a1a1f5","server":"65535","farm":66,"title":"DSCN3664","ispublic":1,"isfriend":0,"isfamily":0},{"id":"52677339471","owner":"143326780@N02","secret":"c64537613f","server":"65535","farm":66,"title":"DSCN3667","ispublic":1,"isfriend":0,"isfamily":0},{"id":"52677624194","owner":"143326780@N02","secret":"1a0af0ba2b","server":"65535","farm":66,"title":"DSCN3669","ispublic":1,"isfriend":0,"isfamily":0},{"id":"52677623814","owner":"143326780@N02","secret":"d941fbc5eb","server":"65535","farm":66,"title":"DSCN3672","ispublic":1,"isfriend":0,"isfamily":0},{"id":"52676826432","owner":"143326780@N02","secret":"7d39b163ce","server":"65535","farm":66,"title":"DSCN3675","ispublic":1,"isfriend":0,"isfamily":0},{"id":"52676825912","owner":"143326780@N02","secret":"62f82750b7","server":"65535","farm":66,"title":"DSCN3701","ispublic":1,"isfriend":0,"isfamily":0},{"id":"52676825652","owner":"143326780@N02","secret":"b6532c0e65","server":"65535","farm":66,"title":"DSCN3712","ispublic":1,"isfriend":0,"isfamily":0},{"id":"52676825507","owner":"143326780@N02","secret":"70f4e447a1","server":"65535","farm":66,"title":"DSCN3718","ispublic":1,"isfriend":0,"isfamily":0},{"id":"52677833378","owner":"143326780@N02","secret":"3d88b25ff8","server":"65535","farm":66,"title":"DSCN3719","ispublic":1,"isfriend":0,"isfamily":0},{"id":"52677336946","owner":"143326780@N02","secret":"18dae84d85","server":"65535","farm":66,"title":"DSCN3731","ispublic":1,"isfriend":0,"isfamily":0},{"id":"52677832883","owner":"143326780@N02","secret":"60f2e00434","server":"65535","farm":66,"title":"DSCN3734","ispublic":1,"isfriend":0,"isfamily":0},{"id":"52667778593","owner":"32320154@N05","secret":"9bf0246cb1","server":"65535","farm":66,"title":"Sora","ispublic":1,"isfriend":0,"isfamily":0},{"id":"52666779512","owner":"32320154@N05","secret":"2c6a534a4a","server":"65535","farm":66,"title":"Sora","ispublic":1,"isfriend":0,"isfamily":0},{"id":"52665513737","owner":"32320154@N05","secret":"ffc623ed32","server":"65535","farm":66,"title":"Sora","ispublic":1,"isfriend":0,"isfamily":0},{"id":"52662087548","owner":"32320154@N05","secret":"ae50ec9386","server":"65535","farm":66,"title":"Sora","ispublic":1,"isfriend":0,"isfamily":0},{"id":"52661095702","owner":"32320154@N05","secret":"203b9eaa9b","server":"65535","farm":66,"title":"Sora","ispublic":1,"isfriend":0,"isfamily":0},{"id":"52661596316","owner":"32320154@N05","secret":"313612e3c5","server":"65535","farm":66,"title":"Sora","ispublic":1,"isfriend":0,"isfamily":0},{"id":"52662087138","owner":"32320154@N05","secret":"81bf212af6","server":"65535","farm":66,"title":"Sora","ispublic":1,"isfriend":0,"isfamily":0},{"id":"52661095312","owner":"32320154@N05","secret":"9084dd1c4a","server":"65535","farm":66,"title":"Sora","ispublic":1,"isfriend":0,"isfamily":0},{"id":"52641561430","owner":"26453158@N00","secret":"a3e6b38336","server":"65535","farm":66,"title":"Sora Rail !","ispublic":1,"isfriend":0,"isfamily":0},{"id":"52620712878","owner":"80204659@N04","secret":"1ff1e97aa3","server":"65535","farm":66,"title":"Sora- Porzana carolina","ispublic":1,"isfriend":0,"isfamily":0},{"id":"52599640168","owner":"88932760@N08","secret":"72e7346607","server":"65535","farm":66,"title":"Sora on the Water","ispublic":1,"isfriend":0,"isfamily":0},{"id":"52582785673","owner":"32320154@N05","secret":"f95e06f559","server":"65535","farm":66,"title":"Sora","ispublic":1,"isfriend":0,"isfamily":0},{"id":"52580765563","owner":"153973412@N04","secret":"7b84cc6db3","server":"65535","farm":66,"title":"Sora-Porzana carolina, Iowa City, IA","ispublic":1,"isfriend":0,"isfamily":0},{"id":"52556780837","owner":"90886369@N06","secret":"9e96306df4","server":"65535","farm":66,"title":"Sora (Porzana carolina)","ispublic":1,"isfriend":0,"isfamily":0},{"id":"52534579304","owner":"34368269@N04","secret":"14caa9d38e","server":"65535","farm":66,"title":"Sora","ispublic":1,"isfriend":0,"isfamily":0},{"id":"52527647811","owner":"68635735@N02","secret":"18092ca024","server":"65535","farm":66,"title":"Sora (Porzana carolina)","ispublic":1,"isfriend":0,"isfamily":0},{"id":"52502047569","owner":"194156364@N07","secret":"424a7e3df5","server":"65535","farm":66,"title":"Sora (Porzana carolina)","ispublic":1,"isfriend":0,"isfamily":0},{"id":"52479441531","owner":"30638967@N03","secret":"affd89262e","server":"65535","farm":66,"title":"Sora DSC_6792","ispublic":1,"isfriend":0,"isfamily":0},{"id":"52471000291","owner":"30638967@N03","secret":"63d7928e9b","server":"65535","farm":66,"title":"Sora DSC_5438","ispublic":1,"isfriend":0,"isfamily":0},{"id":"52471276349","owner":"30638967@N03","secret":"96e9149413","server":"65535","farm":66,"title":"Sora DSC_5455","ispublic":1,"isfriend":0,"isfamily":0},{"id":"52471541698","owner":"30638967@N03","secret":"196255a70d","server":"65535","farm":66,"title":"Sora DSC_5491","ispublic":1,"isfriend":0,"isfamily":0},{"id":"52454342331","owner":"51928691@N04","secret":"703b98c6fd","server":"65535","farm":66,"title":"Sora (Porzana carolina) 1 092922","ispublic":1,"isfriend":0,"isfamily":0},{"id":"52453817027","owner":"51928691@N04","secret":"85866f05c0","server":"65535","farm":66,"title":"Sora (Porzana carolina) 2 092922","ispublic":1,"isfriend":0,"isfamily":0},{"id":"52454342216","owner":"51928691@N04","secret":"7c072b31ea","server":"65535","farm":66,"title":"Sora (Porzana carolina) 3 092922","ispublic":1,"isfriend":0,"isfamily":0},{"id":"52450141781","owner":"120449047@N06","secret":"3f9be9959f","server":"65535","farm":66,"title":"Sora","ispublic":1,"isfriend":0,"isfamily":0},{"id":"52436796533","owner":"97737456@N07","secret":"756aea395f","server":"65535","farm":66,"title":"Sora","ispublic":1,"isfriend":0,"isfamily":0},{"id":"52422095803","owner":"58681764@N00","secret":"b779733d0b","server":"0","farm":0,"title":"Juvenile Sora 2022","ispublic":1,"isfriend":0,"isfamily":0},{"id":"52421587651","owner":"58681764@N00","secret":"4bab432a91","server":"65535","farm":66,"title":"Sora (Juvenile)","ispublic":1,"isfriend":0,"isfamily":0},{"id":"52416760273","owner":"35034352186@N01","secret":"0598b4c4fc","server":"65535","farm":66,"title":"Sora","ispublic":1,"isfriend":0,"isfamily":0},{"id":"52416526074","owner":"100108154@N02","secret":"44333cff75","server":"65535","farm":66,"title":"Final Sora Shot","ispublic":1,"isfriend":0,"isfamily":0},{"id":"52413141952","owner":"100108154@N02","secret":"b49910e3e0","server":"65535","farm":66,"title":"Typical View Of A Sora","ispublic":1,"isfriend":0,"isfamily":0},{"id":"52412525610","owner":"103722035@N06","secret":"32f7872526","server":"0","farm":0,"title":"Sora (Porzana carolina), Oso Flaco, CA","ispublic":1,"isfriend":0,"isfamily":0},{"id":"52409105117","owner":"100108154@N02","secret":"482f031593","server":"65535","farm":66,"title":"Soras Have Red Eyes","ispublic":1,"isfriend":0,"isfamily":0},{"id":"52409668139","owner":"79097894@N04","secret":"2d57e9dcb9","server":"65535","farm":66,"title":"Sora","ispublic":1,"isfriend":0,"isfamily":0},{"id":"52407616144","owner":"100108154@N02","secret":"1fd3fbfbee","server":"65535","farm":66,"title":"My First Sora!","ispublic":1,"isfriend":0,"isfamily":0},{"id":"52402247072","owner":"140318147@N08","secret":"97158e64cb","server":"65535","farm":66,"title":"sora (Porzana carolina) L4A2609","ispublic":1,"isfriend":0,"isfamily":0},{"id":"52400987271","owner":"103722035@N06","secret":"4027f07b66","server":"0","farm":0,"title":"Sora (Porzana carolina), Oceano, CA","ispublic":1,"isfriend":0,"isfamily":0},{"id":"52391926800","owner":"196264892@N08","secret":"5e67a194c9","server":"65535","farm":66,"title":"Sora","ispublic":1,"isfriend":0,"isfamily":0},{"id":"52390576722","owner":"196264892@N08","secret":"8d93392693","server":"65535","farm":66,"title":"Sora","ispublic":1,"isfriend":0,"isfamily":0},{"id":"52391926335","owner":"196264892@N08","secret":"25ca9662dc","server":"65535","farm":66,"title":"Sora","ispublic":1,"isfriend":0,"isfamily":0},{"id":"52390576357","owner":"196264892@N08","secret":"6a042eebb3","server":"65535","farm":66,"title":"Sora","ispublic":1,"isfriend":0,"isfamily":0},{"id":"52390576217","owner":"196264892@N08","secret":"158e73f9f1","server":"65535","farm":66,"title":"Sora","ispublic":1,"isfriend":0,"isfamily":0},{"id":"52390575872","owner":"196264892@N08","secret":"f2ff953486","server":"65535","farm":66,"title":"Sora","ispublic":1,"isfriend":0,"isfamily":0},{"id":"52391497131","owner":"196264892@N08","secret":"e2ab2b4b56","server":"65535","farm":66,"title":"Sora","ispublic":1,"isfriend":0,"isfamily":0},{"id":"52391742928","owner":"196264892@N08","secret":"5fcc460cd7","server":"65535","farm":66,"title":"Sora","ispublic":1,"isfriend":0,"isfamily":0},{"id":"52391809064","owner":"196264892@N08","secret":"b4a7a0f46f","server":"65535","farm":66,"title":"Sora","ispublic":1,"isfriend":0,"isfamily":0},{"id":"52391496551","owner":"196264892@N08","secret":"29dd0075da","server":"65535","farm":66,"title":"Sora","ispublic":1,"isfriend":0,"isfamily":0},{"id":"52391496431","owner":"196264892@N08","secret":"80545b93d3","server":"65535","farm":66,"title":"Sora","ispublic":1,"isfriend":0,"isfamily":0},{"id":"52390574577","owner":"196264892@N08","secret":"a0c62a0d25","server":"65535","farm":66,"title":"Sora","ispublic":1,"isfriend":0,"isfamily":0},{"id":"52391741958","owner":"196264892@N08","secret":"e9436215a6","server":"65535","farm":66,"title":"Sora","ispublic":1,"isfriend":0,"isfamily":0},{"id":"52391924145","owner":"196264892@N08","secret":"f705dcccdd","server":"65535","farm":66,"title":"Sora","ispublic":1,"isfriend":0,"isfamily":0},{"id":"52391807819","owner":"196264892@N08","secret":"f319009fd6","server":"65535","farm":66,"title":"Sora","ispublic":1,"isfriend":0,"isfamily":0},{"id":"52391923640","owner":"196264892@N08","secret":"4c150e1baa","server":"65535","farm":66,"title":"Sora","ispublic":1,"isfriend":0,"isfamily":0},{"id":"52391494646","owner":"196264892@N08","secret":"359d74b664","server":"65535","farm":66,"title":"Sora","ispublic":1,"isfriend":0,"isfamily":0},{"id":"52391922935","owner":"196264892@N08","secret":"4d4e90241b","server":"65535","farm":66,"title":"Sora","ispublic":1,"isfriend":0,"isfamily":0},{"id":"52391740218","owner":"196264892@N08","secret":"e26f0c43ce","server":"65535","farm":66,"title":"Sora","ispublic":1,"isfriend":0,"isfamily":0},{"id":"52391739903","owner":"196264892@N08","secret":"79a94f97b5","server":"65535","farm":66,"title":"Sora","ispublic":1,"isfriend":0,"isfamily":0},{"id":"52391922035","owner":"196264892@N08","secret":"4372a258b2","server":"65535","farm":66,"title":"Sora","ispublic":1,"isfriend":0,"isfamily":0},{"id":"52390571812","owner":"196264892@N08","secret":"147f552384","server":"65535","farm":66,"title":"Sora","ispublic":1,"isfriend":0,"isfamily":0},{"id":"52377917824","owner":"190122705@N03","secret":"c2ca0ca616","server":"65535","farm":66,"title":"Sora","ispublic":1,"isfriend":0,"isfamily":0},{"id":"52357450693","owner":"88886389@N02","secret":"547fe061bc","server":"65535","farm":66,"title":"5849 Foraging","ispublic":1,"isfriend":0,"isfamily":0},{"id":"52357228004","owner":"131037795@N03","secret":"905af0ab3c","server":"65535","farm":66,"title":"Sora (Porzana carolina)","ispublic":1,"isfriend":0,"isfamily":0},{"id":"52354542879","owner":"103722035@N06","secret":"cd3aedbca1","server":"0","farm":0,"title":"Sora (Porzana carolina), Oso Flaco, CA","ispublic":1,"isfriend":0,"isfamily":0},{"id":"52349025790","owner":"71418112@N00","secret":"c56afa2c0c","server":"65535","farm":66,"title":"Bathing sora.","ispublic":1,"isfriend":0,"isfamily":0},{"id":"52331333810","owner":"150374485@N05","secret":"755bdb2509","server":"65535","farm":66,"title":"Marouette de Caroline juv\u00e9nile--Sora juvenile(Porzana carolina)","ispublic":1,"isfriend":0,"isfamily":0},{"id":"52330906201","owner":"150374485@N05","secret":"dcee226ba8","server":"65535","farm":66,"title":"Marouette de Caroline mature--Sora mature(Porzana carolina)","ispublic":1,"isfriend":0,"isfamily":0},{"id":"52323498780","owner":"124995824@N08","secret":"8534f755ff","server":"65535","farm":66,"title":"Sora - Porzana carolina","ispublic":1,"isfriend":0,"isfamily":0},{"id":"52323498760","owner":"124995824@N08","secret":"ff9ac7b220","server":"65535","farm":66,"title":"Sora - Porzana carolina","ispublic":1,"isfriend":0,"isfamily":0},{"id":"52316239603","owner":"103722035@N06","secret":"a9b4b08ab1","server":"0","farm":0,"title":"Sora (Porzana carolina), juvenile, Santa Margarita, CA","ispublic":1,"isfriend":0,"isfamily":0},{"id":"52312108787","owner":"34368269@N04","secret":"f2d86c69af","server":"65535","farm":66,"title":"Sora","ispublic":1,"isfriend":0,"isfamily":0},{"id":"52310511362","owner":"188884572@N03","secret":"a65925d308","server":"65535","farm":66,"title":"Marouette de caroline --- Sora --- Porzana carolina","ispublic":1,"isfriend":0,"isfamily":0},{"id":"52306304227","owner":"166393723@N02","secret":"9cf32ca642","server":"65535","farm":66,"title":"Sora Porzana carolina (Juvenile)","ispublic":1,"isfriend":0,"isfamily":0},{"id":"52302767548","owner":"103722035@N06","secret":"87859fe86c","server":"0","farm":0,"title":"Sora (Porzana carolina), Atascadero, CA","ispublic":1,"isfriend":0,"isfamily":0},{"id":"52661881919","owner":"32320154@N05","secret":"4067d71f36","server":"65535","farm":66,"title":"Sora","ispublic":1,"isfriend":0,"isfamily":0},{"id":"52662087228","owner":"32320154@N05","secret":"dc69c87c32","server":"65535","farm":66,"title":"Sora","ispublic":1,"isfriend":0,"isfamily":0},{"id":"52643761348","owner":"8013969@N03","secret":"da88bb28b9","server":"65535","farm":66,"title":"Porzana carolina DFL btr22-1","ispublic":1,"isfriend":0,"isfamily":0},{"id":"52459788462","owner":"196212229@N04","secret":"f5eb9e259c","server":"65535","farm":66,"title":"Sora and Blue-winged Teal","ispublic":1,"isfriend":0,"isfamily":0},{"id":"52390573362","owner":"196264892@N08","secret":"1448999b79","server":"65535","farm":66,"title":"Sora","ispublic":1,"isfriend":0,"isfamily":0},{"id":"52375526714","owner":"140318147@N08","secret":"d49bbdf701","server":"65535","farm":66,"title":"sora (Porzana carolina) L4A2080","ispublic":1,"isfriend":0,"isfamily":0},{"id":"52375436978","owner":"140318147@N08","secret":"73693a4ee7","server":"65535","farm":66,"title":"sora (Porzana carolina) L4A2071","ispublic":1,"isfriend":0,"isfamily":0},{"id":"52332009121","owner":"188958062@N05","secret":"f51c6df4be","server":"65535","farm":66,"title":"Sora, Porzana carolina","ispublic":1,"isfriend":0,"isfamily":0},{"id":"52322159470","owner":"187792860@N04","secret":"c0f82989f0","server":"65535","farm":66,"title":"Sora (Porzana carolina)","ispublic":1,"isfriend":0,"isfamily":0}]},"stat":"ok"}