{"photos":{"page":1,"pages":3,"perpage":100,"total":264,"photo":[{"id":"52717398883","owner":"117755141@N02","secret":"b85bbdc166","server":"65535","farm":66,"title":"Southern Whiteface (Aphelocephala leucopsis Ssp castaneiventris)","ispublic":1,"isfriend":0,"isfamily":0},{"id":"52715268012","owner":"95482238@N02","secret":"e0b1ea01d2","server":"65535","farm":66,"title":"southern whiteface (Aphelocephala leucopsis) at Mount Ive Station in the Gawler Ranges, South Australia","ispublic":1,"isfriend":0,"isfamily":0},{"id":"52715267952","owner":"95482238@N02","secret":"8ee9e3a63b","server":"65535","farm":66,"title":"southern whiteface (Aphelocephala leucopsis) at Mount Ive Station in the Gawler Ranges, South Australia","ispublic":1,"isfriend":0,"isfamily":0},{"id":"52711272910","owner":"95482238@N02","secret":"ac03c51b44","server":"65535","farm":66,"title":"southern whiteface (Aphelocephala leucopsis) in Whyal-la Con-ser-va-tion Park, South Australia","ispublic":1,"isfriend":0,"isfamily":0},{"id":"52595604175","owner":"31350467@N04","secret":"1b26503399","server":"65535","farm":66,"title":"Whiteface, Southern (Aphelocephala leucopsis leucopsis)","ispublic":1,"isfriend":0,"isfamily":0},{"id":"52537824415","owner":"132431122@N05","secret":"c162636707","server":"65535","farm":66,"title":"Southern Whiteface","ispublic":1,"isfriend":0,"isfamily":0},{"id":"52537641369","owner":"132431122@N05","secret":"ab3c37d4e2","server":"65535","farm":66,"title":"Southern Whiteface","ispublic":1,"isfriend":0,"isfamily":0},{"id":"52483441065","owner":"75299599@N00","secret":"9b10e7fa0b","server":"65535","farm":66,"title":"Southern Whiteface (Aphelocephala leucopsis)","ispublic":1,"isfriend":0,"isfamily":0},{"id":"52480628986","owner":"75299599@N00","secret":"de822ef3f4","server":"65535","farm":66,"title":"Southern Whiteface (Aphelocephala leucopsis)","ispublic":1,"isfriend":0,"isfamily":0},{"id":"52481110923","owner":"75299599@N00","secret":"51f0ef96d4","server":"65535","farm":66,"title":"Southern Whiteface (Aphelocephala leucopsis)","ispublic":1,"isfriend":0,"isfamily":0},{"id":"52480040342","owner":"132431122@N05","secret":"1939f83d81","server":"65535","farm":66,"title":"Southern Whiteface","ispublic":1,"isfriend":0,"isfamily":0},{"id":"52481088258","owner":"132431122@N05","secret":"2f55ba62b3","server":"65535","farm":66,"title":"Southern Whiteface","ispublic":1,"isfriend":0,"isfamily":0},{"id":"52480816209","owner":"132431122@N05","secret":"aac22835bb","server":"65535","farm":66,"title":"Southern Whiteface","ispublic":1,"isfriend":0,"isfamily":0},{"id":"52478038711","owner":"39343449@N02","secret":"c2fa8f573e","server":"65535","farm":66,"title":"Southern Whiteface at Mellenbye Station 16\/9\/2022","ispublic":1,"isfriend":0,"isfamily":0},{"id":"52448103049","owner":"26822473@N06","secret":"95c4f641a0","server":"65535","farm":66,"title":"Southern Whiteface (Aphelocephala leucopsis)","ispublic":1,"isfriend":0,"isfamily":0},{"id":"52434504023","owner":"26822473@N06","secret":"b22d671e3c","server":"65535","farm":66,"title":"Southern Whiteface (Aphelocephala leucopsis)","ispublic":1,"isfriend":0,"isfamily":0},{"id":"52405862617","owner":"117755141@N02","secret":"261e0e1607","server":"65535","farm":66,"title":"Southern Whiteface (Aphelocephala leucopsis Ssp castaneiventris)","ispublic":1,"isfriend":0,"isfamily":0},{"id":"52265338412","owner":"194860397@N03","secret":"3b6d8453a7","server":"65535","farm":66,"title":"Southern Whiteface (Aphelocephala leucopsis)","ispublic":1,"isfriend":0,"isfamily":0},{"id":"52053468055","owner":"190014189@N06","secret":"45abc2c918","server":"65535","farm":66,"title":"Southern Whiteface \/ Aphelocephala leucopsis","ispublic":1,"isfriend":0,"isfamily":0},{"id":"51719686062","owner":"31350467@N04","secret":"9d7760cd7d","server":"65535","farm":66,"title":"Whiteface, Southern (Aphelocephala leucopsis leucopsis)","ispublic":1,"isfriend":0,"isfamily":0},{"id":"51681728550","owner":"31350467@N04","secret":"c159348dd1","server":"65535","farm":66,"title":"Whiteface, Southern (Aphelocephala leucopsis leucopsis)","ispublic":1,"isfriend":0,"isfamily":0},{"id":"51674360923","owner":"31350467@N04","secret":"e37759f039","server":"65535","farm":66,"title":"Whiteface, Southern (Aphelocephala leucopsis leucopsis)","ispublic":1,"isfriend":0,"isfamily":0},{"id":"51626641112","owner":"191621302@N03","secret":"fb5f0ed5e2","server":"65535","farm":66,"title":"Southern Whiteface (Aphelocephala leucopsis)","ispublic":1,"isfriend":0,"isfamily":0},{"id":"51565072550","owner":"14867000@N00","secret":"11802d5065","server":"65535","farm":66,"title":"Southern Whiteface","ispublic":1,"isfriend":0,"isfamily":0},{"id":"51519162303","owner":"190014189@N06","secret":"54a43a3056","server":"65535","farm":66,"title":"Southern Whiteface \/ Aphelocephala leucopsis","ispublic":1,"isfriend":0,"isfamily":0},{"id":"51400183965","owner":"132431122@N05","secret":"76d31aaaf1","server":"65535","farm":66,"title":"Southern Whiteface F - Carwarp VIC","ispublic":1,"isfriend":0,"isfamily":0},{"id":"51385079605","owner":"132431122@N05","secret":"2e8b282be5","server":"65535","farm":66,"title":"Southern Whiteface - Carwarp VIC","ispublic":1,"isfriend":0,"isfamily":0},{"id":"51269323471","owner":"55310085@N06","secret":"ca3111f6b1","server":"65535","farm":66,"title":"Acanthizidae - Southern Whiteface","ispublic":1,"isfriend":0,"isfamily":0},{"id":"51218387024","owner":"132431122@N05","secret":"478b8a6ca7","server":"65535","farm":66,"title":"Southern Whiteface","ispublic":1,"isfriend":0,"isfamily":0},{"id":"51218694150","owner":"132431122@N05","secret":"b50497f5e9","server":"65535","farm":66,"title":"Southern Whiteface","ispublic":1,"isfriend":0,"isfamily":0},{"id":"51210183311","owner":"132431122@N05","secret":"f7cd5a8054","server":"65535","farm":66,"title":"Southern Whiteface, Terrick Terrick Natioinal Park","ispublic":1,"isfriend":0,"isfamily":0},{"id":"51210944534","owner":"132431122@N05","secret":"f251422928","server":"65535","farm":66,"title":"Southern Whiteface, Terrick Terrick Natioinal Park","ispublic":1,"isfriend":0,"isfamily":0},{"id":"51210183276","owner":"132431122@N05","secret":"6f66108d87","server":"65535","farm":66,"title":"Southern Whiteface, Terrick Terrick Natioinal Park","ispublic":1,"isfriend":0,"isfamily":0},{"id":"51115093721","owner":"36320080@N04","secret":"93f8c5680e","server":"65535","farm":66,"title":"Southern Whiteface","ispublic":1,"isfriend":0,"isfamily":0},{"id":"50623385138","owner":"63175631@N02","secret":"b2e87bdc63","server":"65535","farm":66,"title":"Southern Whiteface (Aphelocephala leucopsis)","ispublic":1,"isfriend":0,"isfamily":0},{"id":"50314405707","owner":"55310085@N06","secret":"7acd5af964","server":"65535","farm":66,"title":"Acanthizidae - Southern Whiteface","ispublic":1,"isfriend":0,"isfamily":0},{"id":"50310815408","owner":"151677249@N08","secret":"19e963b816","server":"65535","farm":66,"title":"South-west Southern Whiteface (Aphelocephala leucopsis castaneiventris)","ispublic":1,"isfriend":0,"isfamily":0},{"id":"50230933601","owner":"75299599@N00","secret":"7dd259eb3f","server":"65535","farm":66,"title":"Southern Whiteface (Aphelocephala leucopsis)","ispublic":1,"isfriend":0,"isfamily":0},{"id":"50230924421","owner":"75299599@N00","secret":"ebd48f4893","server":"65535","farm":66,"title":"Southern Whiteface (Aphelocephala leucopsis)","ispublic":1,"isfriend":0,"isfamily":0},{"id":"50138941811","owner":"40195635@N03","secret":"7dc057a1d0","server":"65535","farm":66,"title":"Southern Whiteface (Aphelocephala leucopsis leucopsis)","ispublic":1,"isfriend":0,"isfamily":0},{"id":"50118680977","owner":"40195635@N03","secret":"0d90db547d","server":"65535","farm":66,"title":"Southern Whiteface (Aphelocephala leucopsis leucopsis)","ispublic":1,"isfriend":0,"isfamily":0},{"id":"49972296176","owner":"143650114@N08","secret":"6101f98957","server":"65535","farm":66,"title":"Southern Whiteface","ispublic":1,"isfriend":0,"isfamily":0},{"id":"49853704023","owner":"33277678@N03","secret":"40e5e7e33d","server":"65535","farm":66,"title":"South Australia '19","ispublic":1,"isfriend":0,"isfamily":0},{"id":"49359041951","owner":"63175631@N02","secret":"794df957a0","server":"65535","farm":66,"title":"Southern Whiteface (Aphelocephala leucopsis","ispublic":1,"isfriend":0,"isfamily":0},{"id":"49094667242","owner":"117755141@N02","secret":"06e300a9f4","server":"65535","farm":66,"title":"Southern Whiteface (Aphelocephala leucopsis)","ispublic":1,"isfriend":0,"isfamily":0},{"id":"48906074301","owner":"38356169@N07","secret":"b36f3dbe8d","server":"65535","farm":66,"title":"Southern Whiteface","ispublic":1,"isfriend":0,"isfamily":0},{"id":"48906281577","owner":"38356169@N07","secret":"fe359358b2","server":"65535","farm":66,"title":"Southern Whiteface","ispublic":1,"isfriend":0,"isfamily":0},{"id":"49063257292","owner":"139954624@N05","secret":"c3dc1c33c5","server":"65535","farm":66,"title":"Southern Whiteface Aphelocephala leucopsis","ispublic":1,"isfriend":0,"isfamily":0},{"id":"48820257493","owner":"132431122@N05","secret":"e970159c82","server":"65535","farm":66,"title":"Southern Whiteface","ispublic":1,"isfriend":0,"isfamily":0},{"id":"48708865718","owner":"132431122@N05","secret":"dacc20f7c3","server":"65535","farm":66,"title":"Southern Whiteface","ispublic":1,"isfriend":0,"isfamily":0},{"id":"48247472511","owner":"57594632@N07","secret":"fb415ae6ea","server":"65535","farm":66,"title":"Australian Magpie (Gymnorhina tibicen)_DSC0445","ispublic":1,"isfriend":0,"isfamily":0},{"id":"48247472311","owner":"57594632@N07","secret":"88f3aa52e3","server":"65535","farm":66,"title":"Australian Magpie (Gymnorhina tibicen)_DSC0480","ispublic":1,"isfriend":0,"isfamily":0},{"id":"48247472116","owner":"57594632@N07","secret":"18afe881b4","server":"65535","farm":66,"title":"Australian Magpie (Gymnorhina tibicen)_DSC0940","ispublic":1,"isfriend":0,"isfamily":0},{"id":"47852141862","owner":"71589894@N00","secret":"c40f9f4b4a","server":"65535","farm":66,"title":"Southern Whiteface","ispublic":1,"isfriend":0,"isfamily":0},{"id":"47852141782","owner":"71589894@N00","secret":"546f31eb22","server":"65535","farm":66,"title":"Southern Whiteface","ispublic":1,"isfriend":0,"isfamily":0},{"id":"47114847464","owner":"71589894@N00","secret":"9b6f14ae2a","server":"65535","farm":66,"title":"Southern Whiteface","ispublic":1,"isfriend":0,"isfamily":0},{"id":"32841835217","owner":"14867000@N00","secret":"02efaeaaa2","server":"65535","farm":66,"title":"Southern Whiteface and record shots","ispublic":1,"isfriend":0,"isfamily":0},{"id":"32810916557","owner":"14867000@N00","secret":"e347b10ffa","server":"65535","farm":66,"title":"Hooded Robin nearly loses a meal 3","ispublic":1,"isfriend":0,"isfamily":0},{"id":"47754380631","owner":"14867000@N00","secret":"d3263464df","server":"65535","farm":66,"title":"Hooded Robin nearly loses a meal 2","ispublic":1,"isfriend":0,"isfamily":0},{"id":"32189506317","owner":"63872681@N03","secret":"f224f27561","server":"7862","farm":8,"title":"Southern Whiteface (Aphelocephala leucopsis)","ispublic":1,"isfriend":0,"isfamily":0},{"id":"32897230808","owner":"16520061@N08","secret":"ba8a8bc8b9","server":"7899","farm":8,"title":"Southern Whiteface (Aphelocephala leucopsis)","ispublic":1,"isfriend":0,"isfamily":0},{"id":"31698429267","owner":"14888671@N02","secret":"1fb850f106","server":"4877","farm":5,"title":"Southern Whiteface","ispublic":1,"isfriend":0,"isfamily":0},{"id":"30865791577","owner":"29261553@N08","secret":"fbea098097","server":"4851","farm":5,"title":"Southern Whiteface","ispublic":1,"isfriend":0,"isfamily":0},{"id":"43150134690","owner":"28562920@N02","secret":"e51e2d6cb2","server":"65535","farm":66,"title":"Southern Whiteface","ispublic":1,"isfriend":0,"isfamily":0},{"id":"52711272980","owner":"95482238@N02","secret":"e1db664790","server":"65535","farm":66,"title":"southern whiteface (Aphelocephala leucopsis) in Whyal-la Con-ser-va-tion Park, South Australia","ispublic":1,"isfriend":0,"isfamily":0},{"id":"52656993986","owner":"197553197@N02","secret":"aa3e3e22fd","server":"65535","farm":66,"title":"Southern Whiteface - Aphelocephala leucopsis","ispublic":1,"isfriend":0,"isfamily":0},{"id":"52591732397","owner":"195156299@N04","secret":"a8564f2202","server":"65535","farm":66,"title":"Aphelocephala leucopsis","ispublic":1,"isfriend":0,"isfamily":0},{"id":"52182341442","owner":"146833745@N04","secret":"84a00290cc","server":"65535","farm":66,"title":"Southern Whiteface (Aphelocephala leucopsis)","ispublic":1,"isfriend":0,"isfamily":0},{"id":"52183611029","owner":"146833745@N04","secret":"a6ab1c459e","server":"65535","farm":66,"title":"Southern Whiteface (Aphelocephala leucopsis)","ispublic":1,"isfriend":0,"isfamily":0},{"id":"52157526545","owner":"146833745@N04","secret":"9dd6ea0543","server":"65535","farm":66,"title":"Southern Whiteface (Aphelocephala leucopsis)","ispublic":1,"isfriend":0,"isfamily":0},{"id":"52157272509","owner":"146833745@N04","secret":"d9c86fc792","server":"65535","farm":66,"title":"Southern Whiteface (Aphelocephala leucopsis)","ispublic":1,"isfriend":0,"isfamily":0},{"id":"52030270253","owner":"79861098@N06","secret":"0c0369eca3","server":"65535","farm":66,"title":"Southern whiteface","ispublic":1,"isfriend":0,"isfamily":0},{"id":"51661032155","owner":"151993772@N02","secret":"d9fb0122a5","server":"65535","farm":66,"title":"Southern Whiteface","ispublic":1,"isfriend":0,"isfamily":0},{"id":"51564140151","owner":"14867000@N00","secret":"b96036abed","server":"65535","farm":66,"title":"Southern Whiteface","ispublic":1,"isfriend":0,"isfamily":0},{"id":"51564827539","owner":"14867000@N00","secret":"12dd6455a2","server":"65535","farm":66,"title":"Southern Whiteface","ispublic":1,"isfriend":0,"isfamily":0},{"id":"51389617862","owner":"39343449@N02","secret":"3d44659ac8","server":"65535","farm":66,"title":"Southern Whiteface at Nallan","ispublic":1,"isfriend":0,"isfamily":0},{"id":"51384812309","owner":"132431122@N05","secret":"72d87a3d30","server":"65535","farm":66,"title":"Southern Whiteface - Carwarp VIC","ispublic":1,"isfriend":0,"isfamily":0},{"id":"51214566623","owner":"146833745@N04","secret":"21444e7a74","server":"65535","farm":66,"title":"Southern Whiteface (Aphelocephala leucopsis)","ispublic":1,"isfriend":0,"isfamily":0},{"id":"50827822692","owner":"191211373@N05","secret":"6ed9b45d05","server":"65535","farm":66,"title":"Southern Whiteface (Aphelocephala leucopsis leucopsis) 4633 CT","ispublic":1,"isfriend":0,"isfamily":0},{"id":"50503945481","owner":"90408688@N02","secret":"bb82794394","server":"65535","farm":66,"title":"Aphelocephala leucopsis leucopsis - South-east Southern Whiteface","ispublic":1,"isfriend":0,"isfamily":0},{"id":"50503226393","owner":"90408688@N02","secret":"514bd73936","server":"65535","farm":66,"title":"Aphelocephala leucopsis leucopsis - South-east Southern Whiteface","ispublic":1,"isfriend":0,"isfamily":0},{"id":"50503939556","owner":"90408688@N02","secret":"8c54a8604a","server":"65535","farm":66,"title":"Aphelocephala leucopsis leucopsis - South-east Southern Whiteface","ispublic":1,"isfriend":0,"isfamily":0},{"id":"50313557888","owner":"55310085@N06","secret":"6c0e806db1","server":"65535","farm":66,"title":"Acanthizidae - Southern Whiteface","ispublic":1,"isfriend":0,"isfamily":0},{"id":"50314228016","owner":"55310085@N06","secret":"134f44bed4","server":"65535","farm":66,"title":"Acanthizidae - Southern Whiteface","ispublic":1,"isfriend":0,"isfamily":0},{"id":"50208802318","owner":"16520061@N08","secret":"8bd9c05d05","server":"65535","farm":66,"title":"Southern Whiteface (Aphelocephala leucopsis leucopsis)","ispublic":1,"isfriend":0,"isfamily":0},{"id":"50028096038","owner":"16520061@N08","secret":"228f98e3bb","server":"65535","farm":66,"title":"Southern Whiteface (Aphelocephala leucopsis leucopsis)","ispublic":1,"isfriend":0,"isfamily":0},{"id":"50003787886","owner":"187469698@N05","secret":"d47c928174","server":"65535","farm":66,"title":"882 Southern Whiteface - Andrew Walker 001","ispublic":1,"isfriend":0,"isfamily":0},{"id":"49854543527","owner":"33277678@N03","secret":"6f98203ba4","server":"65535","farm":66,"title":"South Australia '19","ispublic":1,"isfriend":0,"isfamily":0},{"id":"49800608486","owner":"31350467@N04","secret":"33be1480dd","server":"65535","farm":66,"title":"Whiteface, Southern (Aphelocephala leucopsis leucopsis)","ispublic":1,"isfriend":0,"isfamily":0},{"id":"49332036197","owner":"116829024@N07","secret":"035c15a507","server":"65535","farm":66,"title":"Southern Whiteface (Aphelocephala leucopsis)","ispublic":1,"isfriend":0,"isfamily":0},{"id":"48901404531","owner":"151993772@N02","secret":"a8a8bba2e6","server":"65535","farm":66,"title":"Southern Whiteface (Aphelocephala leucopsis)","ispublic":1,"isfriend":0,"isfamily":0},{"id":"48901610992","owner":"151993772@N02","secret":"07dd193f42","server":"65535","farm":66,"title":"Southern Whiteface (Aphelocephala leucopsis)","ispublic":1,"isfriend":0,"isfamily":0},{"id":"48862306316","owner":"129013862@N04","secret":"00bd59d45b","server":"65535","farm":66,"title":"Southern Whiteface (Aphelocephala leucopsis)","ispublic":1,"isfriend":0,"isfamily":0},{"id":"48850476846","owner":"151677249@N08","secret":"9a8597dfeb","server":"65535","farm":66,"title":"South-west Southern Whiteface (Aphelocephala leucopsis castaneiventris)","ispublic":1,"isfriend":0,"isfamily":0},{"id":"48709206036","owner":"132431122@N05","secret":"01835ee2e6","server":"65535","farm":66,"title":"Southern Whiteface","ispublic":1,"isfriend":0,"isfamily":0},{"id":"48708865608","owner":"132431122@N05","secret":"ed4e7556da","server":"65535","farm":66,"title":"Southern Whiteface","ispublic":1,"isfriend":0,"isfamily":0},{"id":"31755171497","owner":"146264908@N07","secret":"647d22680d","server":"4864","farm":5,"title":"Aphelocephala leucopsis 2","ispublic":1,"isfriend":0,"isfamily":0},{"id":"39731658403","owner":"146264908@N07","secret":"280575882a","server":"7818","farm":8,"title":"Aphelocephala leucopsis 1","ispublic":1,"isfriend":0,"isfamily":0},{"id":"31755138277","owner":"146264908@N07","secret":"c7465ca533","server":"4858","farm":5,"title":"Aphelocephala leucopsis 3","ispublic":1,"isfriend":0,"isfamily":0},{"id":"45781325975","owner":"146264908@N07","secret":"ba45014f47","server":"7918","farm":8,"title":"Aphelocephala leucopsis 5","ispublic":1,"isfriend":0,"isfamily":0}]},"stat":"ok"}