{"photos":{"page":1,"pages":4,"perpage":100,"total":376,"photo":[{"id":"52736058266","owner":"145489125@N03","secret":"0184b6e95f","server":"65535","farm":66,"title":"Spectacled Warbler ( Curruca conspicillata ) Female ... Southern Morocco","ispublic":1,"isfriend":0,"isfamily":0},{"id":"52732677238","owner":"137371709@N06","secret":"342ce991c5","server":"65535","farm":66,"title":"Curruca conspicillata (Brilgrasmus) (2)","ispublic":1,"isfriend":0,"isfamily":0},{"id":"52732443149","owner":"137371709@N06","secret":"4a26a39d06","server":"65535","farm":66,"title":"Curruca conspicillata (Brilgrasmus)","ispublic":1,"isfriend":0,"isfamily":0},{"id":"52721288312","owner":"137371709@N06","secret":"eb36ba77ff","server":"65535","farm":66,"title":"Curruca conspicillata (Brilgrasmus)","ispublic":1,"isfriend":0,"isfamily":0},{"id":"52658462427","owner":"144217344@N03","secret":"3220561fc2","server":"65535","farm":66,"title":"Gisela_Nagel-Fl-4283-Brillengrasm\u00fccke","ispublic":1,"isfriend":0,"isfamily":0},{"id":"52614100026","owner":"101130108@N06","secret":"930a1f2e07","server":"65535","farm":66,"title":"Spectacled Warbler (Curruca conspicillata)_92A2041a","ispublic":1,"isfriend":0,"isfamily":0},{"id":"52594363354","owner":"134562141@N06","secret":"52c8a6ffd6","server":"65535","farm":66,"title":"Brillesanger, Spectacled Warbler, Pla de Gates","ispublic":1,"isfriend":0,"isfamily":0},{"id":"52593556292","owner":"134562141@N06","secret":"104a2f9f95","server":"65535","farm":66,"title":"Brillesanger, Spectacled Warbler, Pla de Gates","ispublic":1,"isfriend":0,"isfamily":0},{"id":"52552609800","owner":"112292182@N02","secret":"7c0cf16f9d","server":"65535","farm":66,"title":"Spectacled Warbler","ispublic":1,"isfriend":0,"isfamily":0},{"id":"52542490813","owner":"196731654@N02","secret":"b06984e3d5","server":"65535","farm":66,"title":"Sylvia conspicillata. Curruca tomillera","ispublic":1,"isfriend":0,"isfamily":0},{"id":"52468051247","owner":"84151258@N00","secret":"0e4ace9ed3","server":"65535","farm":66,"title":"Spectacled Warbler (Curruca conspicillata orbitalis\/bella)","ispublic":1,"isfriend":0,"isfamily":0},{"id":"52141899784","owner":"61066110@N00","secret":"05c6fb6dcc","server":"65535","farm":66,"title":"_2060502","ispublic":1,"isfriend":0,"isfamily":0},{"id":"52141574249","owner":"61066110@N00","secret":"55debbed6c","server":"65535","farm":66,"title":"_2060239","ispublic":1,"isfriend":0,"isfamily":0},{"id":"52115563003","owner":"191860779@N08","secret":"b654df2695","server":"65535","farm":66,"title":"Curruca tomillera ( Sylvia conspicillata)","ispublic":1,"isfriend":0,"isfamily":0},{"id":"52042735619","owner":"127058286@N04","secret":"51f7844c6a","server":"65535","farm":66,"title":"Fauvette \u00e0 lunettes - Spectacled Warbler (Curruca conspicillata) - Saintes-Maries-de-la-Mer - Digue d'Amphise (Bouches-du-Rh\u00f4ne) France, le 29 avril 2022","ispublic":1,"isfriend":0,"isfamily":0},{"id":"52011192086","owner":"57035272@N07","secret":"5e387e375e","server":"65535","farm":66,"title":"DSC_4149","ispublic":1,"isfriend":0,"isfamily":0},{"id":"51858372237","owner":"33319209@N02","secret":"71e923f2c7","server":"65535","farm":66,"title":"Sylvia conspicillata","ispublic":1,"isfriend":0,"isfamily":0},{"id":"51721788191","owner":"140840987@N03","secret":"749c39b5ce","server":"65535","farm":66,"title":"Curruca tomillera. (Sylvia conspicillata).","ispublic":1,"isfriend":0,"isfamily":0},{"id":"51721182523","owner":"146637507@N05","secret":"ca0de5070e","server":"65535","farm":66,"title":"Strpazola di Sardegna -Curruca conspicillata- Spectacled warbler","ispublic":1,"isfriend":0,"isfamily":0},{"id":"51664530913","owner":"144397253@N02","secret":"31830cf4c6","server":"65535","farm":66,"title":"Fauvette \u00e0 lunettes - Spectacled Warbler","ispublic":1,"isfriend":0,"isfamily":0},{"id":"51633273086","owner":"56930596@N02","secret":"19c0429fe1","server":"65535","farm":66,"title":"Tallarol trencamates (Curruca conspicillata)","ispublic":1,"isfriend":0,"isfamily":0},{"id":"51613989635","owner":"33319209@N02","secret":"ded49d226f","server":"65535","farm":66,"title":"Sylvia conspicillata","ispublic":1,"isfriend":0,"isfamily":0},{"id":"51195767637","owner":"25572396@N04","secret":"d1dfe1eed7","server":"65535","farm":66,"title":"Toutinegra-tomilheira | Spectacled Warbler (Curruca conspicillata)","ispublic":1,"isfriend":0,"isfamily":0},{"id":"51372283082","owner":"120559894@N05","secret":"a8a0d5ea87","server":"65535","farm":66,"title":"Curruca tomillera \/ Spectacled warbler (Sylvia conspicillata)","ispublic":1,"isfriend":0,"isfamily":0},{"id":"51276960609","owner":"61021753@N02","secret":"42cd7e242f","server":"65535","farm":66,"title":"n90_w1150","ispublic":1,"isfriend":0,"isfamily":0},{"id":"51151465153","owner":"23794796@N06","secret":"c3f1c8cd27","server":"65535","farm":66,"title":"Toutinegra-tomilheira","ispublic":1,"isfriend":0,"isfamily":0},{"id":"51051662938","owner":"140840987@N03","secret":"746f46e5af","server":"65535","farm":66,"title":"Curruca tomillera. (Sylvia conspicillata).","ispublic":1,"isfriend":0,"isfamily":0},{"id":"51015381702","owner":"32805478@N03","secret":"1ae43dc4b7","server":"65535","farm":66,"title":"Curruca tomillera, Sylvia conspicillata, Spectacled Warbler","ispublic":1,"isfriend":0,"isfamily":0},{"id":"51011097803","owner":"32805478@N03","secret":"c1e2f3bbb8","server":"65535","farm":66,"title":"Curruca tomillera, Sylvia conspicillata, Spectacled Warbler","ispublic":1,"isfriend":0,"isfamily":0},{"id":"50996473002","owner":"144217344@N03","secret":"c4c10a609a","server":"65535","farm":66,"title":"Gisela_Nagel-Fl-1842-Brillengrasm\u00fccke","ispublic":1,"isfriend":0,"isfamily":0},{"id":"50945680703","owner":"128578170@N06","secret":"5599c70c8d","server":"65535","farm":66,"title":"Spectacled Warbler Curruca c. conspicillata","ispublic":1,"isfriend":0,"isfamily":0},{"id":"50946372711","owner":"128578170@N06","secret":"351c9252b4","server":"65535","farm":66,"title":"Spectacled Warbler Curruca c. conspicillata","ispublic":1,"isfriend":0,"isfamily":0},{"id":"50863785036","owner":"7836790@N07","secret":"91213d2026","server":"65535","farm":66,"title":"Fauvette \u00e0 lunettes ssp orbitalis (Curruca conspicillata orbitalis)","ispublic":1,"isfriend":0,"isfamily":0},{"id":"50752118076","owner":"10328641@N08","secret":"9b2f110d65","server":"65535","farm":66,"title":"Curruca tomillera(Sylvia conspicillata)","ispublic":1,"isfriend":0,"isfamily":0},{"id":"50702969313","owner":"10328641@N08","secret":"7a67cb02da","server":"65535","farm":66,"title":"Curruca tomillera(Sylvia conspicillata)","ispublic":1,"isfriend":0,"isfamily":0},{"id":"50622013411","owner":"62501256@N05","secret":"457e4f3e7a","server":"65535","farm":66,"title":"Spectacled Warbler (Curruca conspicillata orbitalis), male","ispublic":1,"isfriend":0,"isfamily":0},{"id":"50622006436","owner":"62501256@N05","secret":"fbc97442c9","server":"65535","farm":66,"title":"Spectacled Warbler (Curruca conspicillata orbitalis), male","ispublic":1,"isfriend":0,"isfamily":0},{"id":"50619622923","owner":"62501256@N05","secret":"2a992dfe5f","server":"65535","farm":66,"title":"Spectacled Warbler (Curruca conspicillata orbitalis), male","ispublic":1,"isfriend":0,"isfamily":0},{"id":"50587136923","owner":"144217344@N03","secret":"47b556c953","server":"65535","farm":66,"title":"Gisela_Nagel-Fl-1737-Brillengrasm\u00fccke","ispublic":1,"isfriend":0,"isfamily":0},{"id":"50281269636","owner":"95005162@N08","secret":"7222c77848","server":"65535","farm":66,"title":"Curruca carrasque\u00f1a","ispublic":1,"isfriend":0,"isfamily":0},{"id":"50253744113","owner":"95005162@N08","secret":"c2dcab205a","server":"65535","farm":66,"title":"Curruca tomillera","ispublic":1,"isfriend":0,"isfamily":0},{"id":"49930708223","owner":"10328641@N08","secret":"4d961f680e","server":"65535","farm":66,"title":"Curruca tomillera (Sylvia conspicillata)","ispublic":1,"isfriend":0,"isfamily":0},{"id":"49941839137","owner":"144217344@N03","secret":"ccd8ea8945","server":"65535","farm":66,"title":"Gisela_Nagel-Fl-1994-Brillengrasm\u00fccke","ispublic":1,"isfriend":0,"isfamily":0},{"id":"49894785493","owner":"10328641@N08","secret":"ba62ef1f0b","server":"65535","farm":66,"title":"Curruca tomillera (Sylvia conspicillata)","ispublic":1,"isfriend":0,"isfamily":0},{"id":"49767908353","owner":"140840987@N03","secret":"940a12e003","server":"65535","farm":66,"title":"Curruca tomillera. (Sylvia conspicillata).","ispublic":1,"isfriend":0,"isfamily":0},{"id":"49709596797","owner":"140840987@N03","secret":"c3e020a850","server":"65535","farm":66,"title":"Curruca tomillera. (Sylvia conspicillata).","ispublic":1,"isfriend":0,"isfamily":0},{"id":"48438313232","owner":"86034181@N08","secret":"32f2d35fd3","server":"65535","farm":66,"title":"Curruca tomillera macho ( Sylvia conspicillata)","ispublic":1,"isfriend":0,"isfamily":0},{"id":"48389184097","owner":"86034181@N08","secret":"7369321b26","server":"65535","farm":66,"title":"Curruca tomillera hembra (Sylvia conspicillata )","ispublic":1,"isfriend":0,"isfamily":0},{"id":"48270691882","owner":"8957439@N03","secret":"77b81618c5","server":"65535","farm":66,"title":"Toutinegra-tomilheira \/ Curruca tomillera \/ Spectacled Warbler","ispublic":1,"isfriend":0,"isfamily":0},{"id":"48068199258","owner":"144217344@N03","secret":"bb4ee98160","server":"65535","farm":66,"title":"Gisela_Nagel-Fl-6348-Brillengrasm\u00fccke","ispublic":1,"isfriend":0,"isfamily":0},{"id":"48063884753","owner":"86585370@N00","secret":"3c68d89f30","server":"65535","farm":66,"title":"Spectacled Warbler \/\/ Toutinegra-tomilheira","ispublic":1,"isfriend":0,"isfamily":0},{"id":"48057897163","owner":"86585370@N00","secret":"c4a0b426aa","server":"65535","farm":66,"title":"Toutinegra-tomilheira \/\/Spectacled Warbler","ispublic":1,"isfriend":0,"isfamily":0},{"id":"46973567945","owner":"29882791@N02","secret":"0bbb2cfe0f","server":"65535","farm":66,"title":"Sylviidae - Curruca conspicillata","ispublic":1,"isfriend":0,"isfamily":0},{"id":"47073099874","owner":"127198237@N05","secret":"d760feeb38","server":"65535","farm":66,"title":"Curruca tomillera - Tallarol trencamates - Sylvia conspicillata - Spectacled warbler","ispublic":1,"isfriend":0,"isfamily":0},{"id":"40891776863","owner":"144217344@N03","secret":"f58688f7d1","server":"65535","farm":66,"title":"Gisela_Nagel-Fl-6265-Brillengrasm\u00fccke","ispublic":1,"isfriend":0,"isfamily":0},{"id":"47467624061","owner":"144217344@N03","secret":"38d22581ef","server":"7808","farm":8,"title":"Gisela_Nagel-Fl-6386-Brillengrasm\u00fccke","ispublic":1,"isfriend":0,"isfamily":0},{"id":"33560745298","owner":"140840987@N03","secret":"a68754f7c4","server":"7811","farm":8,"title":"Curruca tomillera. (Sylvia conspicillata).","ispublic":1,"isfriend":0,"isfamily":0},{"id":"45864470445","owner":"144217344@N03","secret":"0123d8999d","server":"7901","farm":8,"title":"Gisela_Nagel-Fl-4277-Brillengrasm\u00fccke","ispublic":1,"isfriend":0,"isfamily":0},{"id":"45736574612","owner":"144217344@N03","secret":"8b4bdc19d2","server":"1914","farm":2,"title":"Gisela_Nagel-Fl1785-Brillengrasm\u00fccke","ispublic":1,"isfriend":0,"isfamily":0},{"id":"43091008534","owner":"16426117@N06","secret":"dba413799f","server":"862","farm":1,"title":"Curruca tomillera (Sylvia conspicillata) (1)","ispublic":1,"isfriend":0,"isfamily":0},{"id":"41998394120","owner":"16426117@N06","secret":"46c504b061","server":"1771","farm":2,"title":"Curruca tomillera (Sylvia conspicillata) (4)","ispublic":1,"isfriend":0,"isfamily":0},{"id":"43297049571","owner":"140840987@N03","secret":"cd6c1a7740","server":"1828","farm":2,"title":"Curruca tomillera (Sylvia conspicillata)","ispublic":1,"isfriend":0,"isfamily":0},{"id":"27408053427","owner":"78205930@N08","secret":"dc69e8beb9","server":"902","farm":1,"title":"Curruca Tomillera, Sylvia conspicillata, Spectacled Warbler","ispublic":1,"isfriend":0,"isfamily":0},{"id":"40952958625","owner":"124901761@N04","secret":"7964da1c8d","server":"829","farm":1,"title":"Toutinegra-tomilheira | Spectacled Warbler | Curruca tomillera | Fauvette \u00e0 lunettes (Sylvia conspicillata)","ispublic":1,"isfriend":0,"isfamily":0},{"id":"39651011281","owner":"144217344@N03","secret":"5e3ace9e00","server":"4743","farm":5,"title":"Gisela_Nagel-Fl-3221-Brillengrasm\u00fccke","ispublic":1,"isfriend":0,"isfamily":0},{"id":"35843295220","owner":"111753457@N03","secret":"2df9b0ab6e","server":"4293","farm":5,"title":"IMG Curruca tomillera ( macho ) , Sylvia conspicillata","ispublic":1,"isfriend":0,"isfamily":0},{"id":"34923908584","owner":"124901761@N04","secret":"94dfd8e9d5","server":"4282","farm":5,"title":"Toutinegra-tomilheira | Spectacled Warbler | Curruca tomillera | Fauvette \u00e0 lunettes (Sylvia conspicillata)","ispublic":1,"isfriend":0,"isfamily":0},{"id":"52593618852","owner":"134562141@N06","secret":"d5837a54f4","server":"65535","farm":66,"title":"Brillesanger, Spectacled Warbler, Pla de Gates","ispublic":1,"isfriend":0,"isfamily":0},{"id":"52594557168","owner":"134562141@N06","secret":"5b1b8ef8da","server":"65535","farm":66,"title":"Brillesanger, Spectacled Warbler, Pla de Gates","ispublic":1,"isfriend":0,"isfamily":0},{"id":"52081478918","owner":"193443384@N07","secret":"c32881bc4b","server":"65535","farm":66,"title":"Spectacled Warbler (Curruca conspicillata) 174A6413","ispublic":1,"isfriend":0,"isfamily":0},{"id":"52081953370","owner":"193443384@N07","secret":"c2f2f89242","server":"65535","farm":66,"title":"Spectacled Warbler (Curruca conspicillata) 174A6439","ispublic":1,"isfriend":0,"isfamily":0},{"id":"52081953270","owner":"193443384@N07","secret":"ba3c06bd49","server":"65535","farm":66,"title":"Spectacled Warbler (Curruca conspicillata) 174A7476","ispublic":1,"isfriend":0,"isfamily":0},{"id":"52081464351","owner":"193443384@N07","secret":"b7cc7a4083","server":"65535","farm":66,"title":"Spectacled Warbler (Curruca conspicillata) 174A7483","ispublic":1,"isfriend":0,"isfamily":0},{"id":"52081478503","owner":"193443384@N07","secret":"289b948870","server":"65535","farm":66,"title":"Spectacled Warbler (Curruca conspicillata) 174A7533","ispublic":1,"isfriend":0,"isfamily":0},{"id":"52081478433","owner":"193443384@N07","secret":"3baa18540c","server":"65535","farm":66,"title":"Spectacled Warbler (Curruca conspicillata) 174A7542","ispublic":1,"isfriend":0,"isfamily":0},{"id":"52081464196","owner":"193443384@N07","secret":"e0ff425f93","server":"65535","farm":66,"title":"Spectacled Warbler (Curruca conspicillata) 174A7543","ispublic":1,"isfriend":0,"isfamily":0},{"id":"52081464116","owner":"193443384@N07","secret":"d6cbb90ced","server":"65535","farm":66,"title":"Spectacled Warbler (Curruca conspicillata) 174A7547","ispublic":1,"isfriend":0,"isfamily":0},{"id":"52038993910","owner":"127058286@N04","secret":"dd7d580b2e","server":"65535","farm":66,"title":"Fauvette \u00e0 lunettes - Spectacled Warbler (Curruca conspicillata) - Saintes-Maries-de-la-Mer - Digue d'Amphise (Bouches-du-Rh\u00f4ne) France, le 29 avril 2022","ispublic":1,"isfriend":0,"isfamily":0},{"id":"51650110966","owner":"144217344@N03","secret":"4391f077cb","server":"65535","farm":66,"title":"Gisela_Nagel.Fl-6436-Brillengrasm\u00fccke","ispublic":1,"isfriend":0,"isfamily":0},{"id":"51322193244","owner":"56930596@N02","secret":"f4c98d881e","server":"65535","farm":66,"title":"Curruca tomillera (Sylvia conspicillata)","ispublic":1,"isfriend":0,"isfamily":0},{"id":"51126126204","owner":"61066110@N00","secret":"04e455ebfc","server":"65535","farm":66,"title":"_DSC5189","ispublic":1,"isfriend":0,"isfamily":0},{"id":"51125739215","owner":"183132139@N08","secret":"34af092747","server":"65535","farm":66,"title":"Curruca tomillera","ispublic":1,"isfriend":0,"isfamily":0},{"id":"51124930321","owner":"183132139@N08","secret":"e91a4b1f03","server":"65535","farm":66,"title":"Curruca tomillera","ispublic":1,"isfriend":0,"isfamily":0},{"id":"51125739190","owner":"183132139@N08","secret":"93a12dcd8a","server":"65535","farm":66,"title":"Curruca tomillera","ispublic":1,"isfriend":0,"isfamily":0},{"id":"51124367962","owner":"183132139@N08","secret":"cb94ac1999","server":"65535","farm":66,"title":"Curruca tomillera","ispublic":1,"isfriend":0,"isfamily":0},{"id":"50566167682","owner":"131852759@N03","secret":"fe52b5bea1","server":"65535","farm":66,"title":"Sylvia conspicillata. Curruca tomillera.","ispublic":1,"isfriend":0,"isfamily":0},{"id":"49731692538","owner":"10328641@N08","secret":"1a9168afb7","server":"65535","farm":66,"title":"Curruca tomillera (Sylvia conspicillata)","ispublic":1,"isfriend":0,"isfamily":0},{"id":"49269114877","owner":"144217344@N03","secret":"2495b5180e","server":"65535","farm":66,"title":"Gisela_Nagel-Fl-2622-Brillengrasm\u00fccke","ispublic":1,"isfriend":0,"isfamily":0},{"id":"48748585362","owner":"131852759@N03","secret":"db63903ebf","server":"65535","farm":66,"title":"Curruca tomillera. Sylvia  conspicillata. Lanzarote.","ispublic":1,"isfriend":0,"isfamily":0},{"id":"48694491907","owner":"32177968@N06","secret":"dc42b295ab","server":"65535","farm":66,"title":"sylvia conspicillata","ispublic":1,"isfriend":0,"isfamily":0},{"id":"47585915472","owner":"10328641@N08","secret":"3a8570d312","server":"65535","farm":66,"title":"Curruca tomillera Sylvia conspicillata","ispublic":1,"isfriend":0,"isfamily":0},{"id":"46578380612","owner":"137599224@N05","secret":"7911f395dd","server":"7901","farm":8,"title":"Curruca tomillera. Sylvia conspicillata. Fuerteventura","ispublic":1,"isfriend":0,"isfamily":0},{"id":"43164398164","owner":"11815270@N05","secret":"6d7978312e","server":"1800","farm":2,"title":"CURRUCA TOMILLERA","ispublic":1,"isfriend":0,"isfamily":0},{"id":"42503495005","owner":"32805478@N03","secret":"de65441a3c","server":"1804","farm":2,"title":"Curruca Tomillera, Spectacled Warbler (Sylvia conspicillata orbitalis)","ispublic":1,"isfriend":0,"isfamily":0},{"id":"29536127978","owner":"32805478@N03","secret":"083a0268ff","server":"1766","farm":2,"title":"Curruca Tomillera, Spectacled Warbler (Sylvia conspicillata orbitalis)","ispublic":1,"isfriend":0,"isfamily":0},{"id":"26774231277","owner":"56966335@N02","secret":"6863a5468f","server":"849","farm":1,"title":"Sylvia conspicillata","ispublic":1,"isfriend":0,"isfamily":0},{"id":"24377514668","owner":"144217344@N03","secret":"2fbc36010d","server":"4461","farm":5,"title":"Gisela_Nagel-Fl-2376-Brillengrasm\u00fccke","ispublic":1,"isfriend":0,"isfamily":0},{"id":"36607884685","owner":"25874365@N03","secret":"25233be7f2","server":"4418","farm":5,"title":"Curruca tomillera","ispublic":1,"isfriend":0,"isfamily":0},{"id":"36607884435","owner":"25874365@N03","secret":"2e481423e7","server":"4365","farm":5,"title":"Curruca tomillera","ispublic":1,"isfriend":0,"isfamily":0},{"id":"35694929583","owner":"144217344@N03","secret":"67b21841cd","server":"4348","farm":5,"title":"Gisela_Nagel-Fl-1788-Brillengrasm\u00fccke","ispublic":1,"isfriend":0,"isfamily":0}]},"stat":"ok"}