{"photos":{"page":1,"pages":15,"perpage":100,"total":1423,"photo":[{"id":"52686767129","owner":"33005514@N04","secret":"1fa023382b","server":"65535","farm":66,"title":"Agujetas piquicortas\/short-billed dowitchers- Limnodromus griseus. Playeritos zancudos\/stilt sandpipers (Calidris himantopus)","ispublic":1,"isfriend":0,"isfamily":0},{"id":"52634413643","owner":"54546220@N00","secret":"1a68be1c52","server":"65535","farm":66,"title":"Playeros","ispublic":1,"isfriend":0,"isfamily":0},{"id":"52634413598","owner":"54546220@N00","secret":"f3e6365c67","server":"65535","farm":66,"title":"Playeros","ispublic":1,"isfriend":0,"isfamily":0},{"id":"52619770221","owner":"80648919@N08","secret":"c5242aaca0","server":"65535","farm":66,"title":"Stilt Sandpiper","ispublic":1,"isfriend":0,"isfamily":0},{"id":"52612680634","owner":"74787113@N05","secret":"51e3d6b7d5","server":"65535","farm":66,"title":"STILT SANDPIPERS","ispublic":1,"isfriend":0,"isfamily":0},{"id":"52601602310","owner":"119095828@N03","secret":"cfa5e10aa6","server":"65535","farm":66,"title":"Stilt Sandpiper (Calidris himantopus)","ispublic":1,"isfriend":0,"isfamily":0},{"id":"52543226523","owner":"52321838@N05","secret":"d9d939163e","server":"0","farm":0,"title":"Stilt Sandpiper","ispublic":1,"isfriend":0,"isfamily":0},{"id":"52499118037","owner":"140734051@N08","secret":"14af087dd9","server":"65535","farm":66,"title":"\u0425\u043e\u0434\u0443\u043b\u043e\u0447\u043d\u0438\u043a\u043e\u0432\u044b\u0439 \u043f\u0435\u0441\u043e\u0447\u043d\u0438\u043a, Calidris himantopus, Stilt Sandpiper","ispublic":1,"isfriend":0,"isfamily":0},{"id":"52500082640","owner":"140734051@N08","secret":"746c3b4dcf","server":"65535","farm":66,"title":"\u0425\u043e\u0434\u0443\u043b\u043e\u0447\u043d\u0438\u043a\u043e\u0432\u044b\u0439 \u043f\u0435\u0441\u043e\u0447\u043d\u0438\u043a, Calidris himantopus, Stilt Sandpiper","ispublic":1,"isfriend":0,"isfamily":0},{"id":"52500159373","owner":"140734051@N08","secret":"45a1621f4b","server":"65535","farm":66,"title":"\u0425\u043e\u0434\u0443\u043b\u043e\u0447\u043d\u0438\u043a\u043e\u0432\u044b\u0439 \u043f\u0435\u0441\u043e\u0447\u043d\u0438\u043a, Calidris himantopus, Stilt Sandpiper","ispublic":1,"isfriend":0,"isfamily":0},{"id":"52500082015","owner":"140734051@N08","secret":"7a62cac98e","server":"65535","farm":66,"title":"\u0425\u043e\u0434\u0443\u043b\u043e\u0447\u043d\u0438\u043a\u043e\u0432\u044b\u0439 \u043f\u0435\u0441\u043e\u0447\u043d\u0438\u043a, Calidris himantopus, Stilt Sandpiper","ispublic":1,"isfriend":0,"isfamily":0},{"id":"52499603071","owner":"140734051@N08","secret":"52284a3daf","server":"65535","farm":66,"title":"\u0425\u043e\u0434\u0443\u043b\u043e\u0447\u043d\u0438\u043a\u043e\u0432\u044b\u0439 \u043f\u0435\u0441\u043e\u0447\u043d\u0438\u043a, Calidris himantopus, Stilt Sandpiper","ispublic":1,"isfriend":0,"isfamily":0},{"id":"52499116827","owner":"140734051@N08","secret":"2c07b87160","server":"65535","farm":66,"title":"\u0425\u043e\u0434\u0443\u043b\u043e\u0447\u043d\u0438\u043a\u043e\u0432\u044b\u0439 \u043f\u0435\u0441\u043e\u0447\u043d\u0438\u043a, Calidris himantopus, Stilt Sandpiper","ispublic":1,"isfriend":0,"isfamily":0},{"id":"52493910622","owner":"39177293@N03","secret":"0f81bed037","server":"65535","farm":66,"title":"Stilt Sandpiper","ispublic":1,"isfriend":0,"isfamily":0},{"id":"52469317482","owner":"39177293@N03","secret":"5be7a4e493","server":"65535","farm":66,"title":"Stilt Sandpiper","ispublic":1,"isfriend":0,"isfamily":0},{"id":"52470281160","owner":"39177293@N03","secret":"d145197a8e","server":"65535","farm":66,"title":"Stilt Sandpiper","ispublic":1,"isfriend":0,"isfamily":0},{"id":"52442886865","owner":"91620959@N08","secret":"551ae024fd","server":"65535","farm":66,"title":"Stilt sandpiper (Calidris himantopus)","ispublic":1,"isfriend":0,"isfamily":0},{"id":"52440883604","owner":"28631427@N00","secret":"63dc324a32","server":"65535","farm":66,"title":"Stilt Sandpiper","ispublic":1,"isfriend":0,"isfamily":0},{"id":"52439628103","owner":"14734088@N02","secret":"3d53c24a2d","server":"65535","farm":66,"title":"B\u00e9casseau \u00e0 \u00e9chasses 211010H2","ispublic":1,"isfriend":0,"isfamily":0},{"id":"52419474203","owner":"21558080@N07","secret":"746a8cd228","server":"65535","farm":66,"title":"Stilt Sandpiper (Calidris himantopus)","ispublic":1,"isfriend":0,"isfamily":0},{"id":"52390623052","owner":"78250819@N07","secret":"0c9565baeb","server":"65535","farm":66,"title":"PLayero Zancudo-Calidris himantopus- Stilt Sandpiper","ispublic":1,"isfriend":0,"isfamily":0},{"id":"52391972200","owner":"78250819@N07","secret":"674eedd96c","server":"65535","farm":66,"title":"PLayero Zancudo-Calidris himantopus- Stilt Sandpiper","ispublic":1,"isfriend":0,"isfamily":0},{"id":"52388594752","owner":"156369634@N07","secret":"4a3ab947d2","server":"65535","farm":66,"title":"B\u00e9casseau \u00e0 \u00c9chasse- Stilt Sandpiper","ispublic":1,"isfriend":0,"isfamily":0},{"id":"52388864213","owner":"7856934@N03","secret":"9702cdd3fa","server":"65535","farm":66,"title":"Stilt Sandpiper","ispublic":1,"isfriend":0,"isfamily":0},{"id":"52382374452","owner":"124995824@N08","secret":"1467220d38","server":"65535","farm":66,"title":"Stilt Sandpipers - Calidris himantopus","ispublic":1,"isfriend":0,"isfamily":0},{"id":"52383624574","owner":"124995824@N08","secret":"f1249de4c6","server":"65535","farm":66,"title":"Stilt Sandpiper - Calidris himantopus","ispublic":1,"isfriend":0,"isfamily":0},{"id":"52381816277","owner":"152675955@N08","secret":"4d03cdfc55","server":"65535","farm":66,"title":"R\u00e9flexion de rivage \/ Shore reflection","ispublic":1,"isfriend":0,"isfamily":0},{"id":"52380562723","owner":"124995824@N08","secret":"07b1478a52","server":"65535","farm":66,"title":"Phalarope & Sandpiper","ispublic":1,"isfriend":0,"isfamily":0},{"id":"52357937649","owner":"126297346@N07","secret":"229ac51fb9","server":"65535","farm":66,"title":"B\u00e9casseau \u00e0 \u00e9chasses | Baie Missisquoi | Venise-en-Qu\u00e9bec, Qu\u00e9bec","ispublic":1,"isfriend":0,"isfamily":0},{"id":"52353812218","owner":"85277889@N08","secret":"9fd46dbd60","server":"65535","farm":66,"title":"Stilt Sandpiper (Calidris himantopus) 2022-09-06 (3)","ispublic":1,"isfriend":0,"isfamily":0},{"id":"52339213936","owner":"39177293@N03","secret":"41dceae5e3","server":"65535","farm":66,"title":"Stilt Sandpipers","ispublic":1,"isfriend":0,"isfamily":0},{"id":"52328246985","owner":"48014585@N00","secret":"88b6d1846e","server":"65535","farm":66,"title":"Snoozing Stilt Sandpiper","ispublic":1,"isfriend":0,"isfamily":0},{"id":"52324452097","owner":"48014585@N00","secret":"849f40b90b","server":"65535","farm":66,"title":"Stilt Sandpiper","ispublic":1,"isfriend":0,"isfamily":0},{"id":"52325644583","owner":"48014585@N00","secret":"5192887e53","server":"65535","farm":66,"title":"Stilt Sandpiper","ispublic":1,"isfriend":0,"isfamily":0},{"id":"52324448882","owner":"48014585@N00","secret":"1fe227a53c","server":"65535","farm":66,"title":"Stilt Sandpiper","ispublic":1,"isfriend":0,"isfamily":0},{"id":"52325644198","owner":"48014585@N00","secret":"b5345ee8b1","server":"65535","farm":66,"title":"Stilt Sandpiper","ispublic":1,"isfriend":0,"isfamily":0},{"id":"52324438232","owner":"48014585@N00","secret":"a24509c249","server":"65535","farm":66,"title":"Stilt Sandpiper","ispublic":1,"isfriend":0,"isfamily":0},{"id":"52325303831","owner":"48014585@N00","secret":"f22b18b3a3","server":"65535","farm":66,"title":"Stilt and Baird's Sandpiper, Red Knot, Semipalmated Plover","ispublic":1,"isfriend":0,"isfamily":0},{"id":"52325664885","owner":"48014585@N00","secret":"da7745354e","server":"65535","farm":66,"title":"Stilt Sandpiper","ispublic":1,"isfriend":0,"isfamily":0},{"id":"52325660285","owner":"48014585@N00","secret":"ceb8ca5e20","server":"65535","farm":66,"title":"Stilt Sandpiper","ispublic":1,"isfriend":0,"isfamily":0},{"id":"52325659960","owner":"48014585@N00","secret":"2cc75cdd1f","server":"65535","farm":66,"title":"Stilt Sandpiper","ispublic":1,"isfriend":0,"isfamily":0},{"id":"52324340962","owner":"48014585@N00","secret":"33b7fc6c0f","server":"65535","farm":66,"title":"Stilt Sandpiper","ispublic":1,"isfriend":0,"isfamily":0},{"id":"52325537428","owner":"48014585@N00","secret":"8d68e55aed","server":"65535","farm":66,"title":"Stilt Sandpiper","ispublic":1,"isfriend":0,"isfamily":0},{"id":"52325659285","owner":"48014585@N00","secret":"477e8891c5","server":"65535","farm":66,"title":"Stilt Sandpiper","ispublic":1,"isfriend":0,"isfamily":0},{"id":"52325653480","owner":"48014585@N00","secret":"3f06dfa0d4","server":"65535","farm":66,"title":"Stilt Sandpiper","ispublic":1,"isfriend":0,"isfamily":0},{"id":"52324326547","owner":"48014585@N00","secret":"9c6a07bc20","server":"65535","farm":66,"title":"Stilt Sandpiper","ispublic":1,"isfriend":0,"isfamily":0},{"id":"52323529453","owner":"61241315@N00","secret":"a469632415","server":"65535","farm":66,"title":"Stilt Sandpiper_N3095","ispublic":1,"isfriend":0,"isfamily":0},{"id":"52322410027","owner":"61241315@N00","secret":"09a98da9d4","server":"65535","farm":66,"title":"Stilt Sandpiper_N3118","ispublic":1,"isfriend":0,"isfamily":0},{"id":"52309048212","owner":"159284114@N07","secret":"027d45ebe7","server":"65535","farm":66,"title":"B\u00e9casseau \u00e0 \u00e9chasses, Stilt Sandpiper","ispublic":1,"isfriend":0,"isfamily":0},{"id":"52305882123","owner":"61241315@N00","secret":"08a23cc922","server":"0","farm":0,"title":"Stilt Sandpiper_1014,15.MP4","ispublic":1,"isfriend":0,"isfamily":0},{"id":"52305830403","owner":"61241315@N00","secret":"c8934c27e7","server":"0","farm":0,"title":"Stilt Sandpiper_0940.MP4","ispublic":1,"isfriend":0,"isfamily":0},{"id":"52305825743","owner":"61241315@N00","secret":"503873d494","server":"0","farm":0,"title":"Stilt Sandpiper_0948,35.MP4","ispublic":1,"isfriend":0,"isfamily":0},{"id":"52305878764","owner":"61241315@N00","secret":"6fb4cab27e","server":"0","farm":0,"title":"Stilt Sandpiper_0946.MP4","ispublic":1,"isfriend":0,"isfamily":0},{"id":"52305829133","owner":"61241315@N00","secret":"5c8c9038aa","server":"0","farm":0,"title":"Stilt Sandpiper_0943.MP4","ispublic":1,"isfriend":0,"isfamily":0},{"id":"52305360691","owner":"61241315@N00","secret":"7c4d075678","server":"0","farm":0,"title":"Stilt Sandpiper_0974.MP4","ispublic":1,"isfriend":0,"isfamily":0},{"id":"52305871484","owner":"61241315@N00","secret":"8987f33732","server":"0","farm":0,"title":"Stilt Sandpiper_0994.MP4","ispublic":1,"isfriend":0,"isfamily":0},{"id":"52305885915","owner":"61241315@N00","secret":"8ca5019ddd","server":"0","farm":0,"title":"Stilt Sandpiper_0955.MP4","ispublic":1,"isfriend":0,"isfamily":0},{"id":"52305361741","owner":"61241315@N00","secret":"69ee78444a","server":"0","farm":0,"title":"Stilt Sandpiper_0966.MP4","ispublic":1,"isfriend":0,"isfamily":0},{"id":"52305830543","owner":"61241315@N00","secret":"09562def33","server":"65535","farm":66,"title":"Stilt Sandpiper_N1023","ispublic":1,"isfriend":0,"isfamily":0},{"id":"52305881479","owner":"61241315@N00","secret":"927fe2f84b","server":"65535","farm":66,"title":"Stilt Sandpiper_N1024","ispublic":1,"isfriend":0,"isfamily":0},{"id":"52305830448","owner":"61241315@N00","secret":"8d39e1acbb","server":"65535","farm":66,"title":"Stilt Sandpiper_N1029","ispublic":1,"isfriend":0,"isfamily":0},{"id":"52305830423","owner":"61241315@N00","secret":"e7b3ab7393","server":"65535","farm":66,"title":"Stilt Sandpiper_N1030","ispublic":1,"isfriend":0,"isfamily":0},{"id":"52303512203","owner":"126297346@N07","secret":"0ae9b8f671","server":"65535","farm":66,"title":"B\u00e9casseau \u00e0 \u00e9chasses | Baie Missisquoi | Saint-Armand, Qu\u00e9bec  [Explore | 2022-08-22 | 28]","ispublic":1,"isfriend":0,"isfamily":0},{"id":"52277546167","owner":"7856934@N03","secret":"d50567eb4b","server":"65535","farm":66,"title":"Greater\/Lesser Yellowlegs and a Stilt Sandpiper","ispublic":1,"isfriend":0,"isfamily":0},{"id":"52277221183","owner":"21606110@N08","secret":"6813a16d3f","server":"65535","farm":66,"title":"Stilt Sandpiper","ispublic":1,"isfriend":0,"isfamily":0},{"id":"52239337300","owner":"67306066@N03","secret":"be4a8d8a89","server":"65535","farm":66,"title":"Stilt Sandpiper (Calidris himantopus)","ispublic":1,"isfriend":0,"isfamily":0},{"id":"52214560161","owner":"10577082@N05","secret":"bcabcbc96e","server":"65535","farm":66,"title":"Stilt Sandpiper","ispublic":1,"isfriend":0,"isfamily":0},{"id":"52214577723","owner":"10577082@N05","secret":"97d4916bc2","server":"65535","farm":66,"title":"Stilt Sandpiper and Lesser Yellowlegs","ispublic":1,"isfriend":0,"isfamily":0},{"id":"52202289024","owner":"91064752@N03","secret":"1c439a7cae","server":"65535","farm":66,"title":"Shorebird Lunch Hour","ispublic":1,"isfriend":0,"isfamily":0},{"id":"52201589545","owner":"22420387@N07","secret":"f2edf15077","server":"65535","farm":66,"title":"Stilt Sandpipers - DEL_4516-LR","ispublic":1,"isfriend":0,"isfamily":0},{"id":"52200092157","owner":"22420387@N07","secret":"fd7305630a","server":"65535","farm":66,"title":"Stilt Sandpiper - DEL_4535-LR","ispublic":1,"isfriend":0,"isfamily":0},{"id":"52200092162","owner":"22420387@N07","secret":"16a45af128","server":"65535","farm":66,"title":"Stilt Sandpipers - DEL_4524-LR","ispublic":1,"isfriend":0,"isfamily":0},{"id":"52197077194","owner":"22420387@N07","secret":"4447b1ca0d","server":"65535","farm":66,"title":"Stilt Sandpiper - DEL_4082-LR","ispublic":1,"isfriend":0,"isfamily":0},{"id":"52195805007","owner":"22420387@N07","secret":"56fd5ca160","server":"65535","farm":66,"title":"Stilt Sandpiper - DEL_4084-LR","ispublic":1,"isfriend":0,"isfamily":0},{"id":"52172794427","owner":"91064752@N03","secret":"c3b22fabb7","server":"65535","farm":66,"title":"Stilt Sandpiper","ispublic":1,"isfriend":0,"isfamily":0},{"id":"52155798620","owner":"54546220@N00","secret":"f07870c993","server":"65535","farm":66,"title":"Playero Zancudo, Stilt Sandpiper (Calidris himantopus)","ispublic":1,"isfriend":0,"isfamily":0},{"id":"52155538339","owner":"54546220@N00","secret":"7bdaef14de","server":"65535","farm":66,"title":"Playero Zancudo, Stilt Sandpiper (Calidris himantopus)","ispublic":1,"isfriend":0,"isfamily":0},{"id":"52155294176","owner":"54546220@N00","secret":"68772e3514","server":"65535","farm":66,"title":"Playero Zancudo, Stilt Sandpiper (Calidris himantopus)","ispublic":1,"isfriend":0,"isfamily":0},{"id":"52155783650","owner":"54546220@N00","secret":"8f76e30b31","server":"65535","farm":66,"title":"Playero Zancudo, Stilt Sandpiper (Calidris himantopus)","ispublic":1,"isfriend":0,"isfamily":0},{"id":"52155777740","owner":"54546220@N00","secret":"f5a83ae08e","server":"65535","farm":66,"title":"Playero Zancudo, Stilt Sandpiper (Calidris himantopus)","ispublic":1,"isfriend":0,"isfamily":0},{"id":"52155287533","owner":"54546220@N00","secret":"9a1bf09b87","server":"65535","farm":66,"title":"Playero Zancudo, Stilt Sandpiper (Calidris himantopus)","ispublic":1,"isfriend":0,"isfamily":0},{"id":"52155771215","owner":"54546220@N00","secret":"34b600f320","server":"65535","farm":66,"title":"Playero Zancudo, Stilt Sandpiper (Calidris himantopus)","ispublic":1,"isfriend":0,"isfamily":0},{"id":"52155275326","owner":"54546220@N00","secret":"1642d13fd4","server":"65535","farm":66,"title":"Playero Zancudo, Stilt Sandpiper (Calidris himantopus)","ispublic":1,"isfriend":0,"isfamily":0},{"id":"52580507159","owner":"153973412@N04","secret":"6897d37c94","server":"65535","farm":66,"title":"Stilt Sandpiper-Calidris himantopus, Iowa City, IA","ispublic":1,"isfriend":0,"isfamily":0},{"id":"52444378869","owner":"32805478@N03","secret":"f4744ec92b","server":"65535","farm":66,"title":"Combatiente, Calidris pugnax, Ruff","ispublic":1,"isfriend":0,"isfamily":0},{"id":"52383627128","owner":"7856934@N03","secret":"9cabcfeecc","server":"65535","farm":66,"title":"Stilt Sandpiper","ispublic":1,"isfriend":0,"isfamily":0},{"id":"52344642394","owner":"17654080@N08","secret":"2ba58bf743","server":"65535","farm":66,"title":"Stilt Sandpiper, juvenile (Calidris himantopus)","ispublic":1,"isfriend":0,"isfamily":0},{"id":"52344642374","owner":"17654080@N08","secret":"52e7c414c5","server":"65535","farm":66,"title":"Stilt Sandpiper, juvenile (Calidris himantopus)","ispublic":1,"isfriend":0,"isfamily":0},{"id":"52344764825","owner":"17654080@N08","secret":"87f3e17f32","server":"65535","farm":66,"title":"Stilt Sandpiper, juvenile (Calidris himantopus)","ispublic":1,"isfriend":0,"isfamily":0},{"id":"52344764800","owner":"17654080@N08","secret":"6e2fa098e4","server":"65535","farm":66,"title":"Stilt Sandpiper, juvenile (Calidris himantopus)","ispublic":1,"isfriend":0,"isfamily":0},{"id":"52344336201","owner":"17654080@N08","secret":"c045925946","server":"65535","farm":66,"title":"Stilt Sandpiper, juvenile (Calidris himantopus)","ispublic":1,"isfriend":0,"isfamily":0},{"id":"52323653875","owner":"61241315@N00","secret":"152023d329","server":"0","farm":0,"title":"Stilt Sandpiper_3141.MP4","ispublic":1,"isfriend":0,"isfamily":0},{"id":"52323653065","owner":"61241315@N00","secret":"844ef1c49f","server":"0","farm":0,"title":"Stilt Sandpiper_3106.MP4","ispublic":1,"isfriend":0,"isfamily":0},{"id":"52323652790","owner":"61241315@N00","secret":"4eaeb4ab14","server":"0","farm":0,"title":"Stilt Sandpiper_3119.MP4","ispublic":1,"isfriend":0,"isfamily":0},{"id":"52322410037","owner":"61241315@N00","secret":"827f6f156e","server":"65535","farm":66,"title":"Stilt Sandpiper_N3099","ispublic":1,"isfriend":0,"isfamily":0},{"id":"52323529423","owner":"61241315@N00","secret":"7fa28fecee","server":"65535","farm":66,"title":"Stilt Sandpiper_N3097","ispublic":1,"isfriend":0,"isfamily":0},{"id":"52323529388","owner":"61241315@N00","secret":"921c3c824a","server":"65535","farm":66,"title":"Stilt Sandpiper_N3153","ispublic":1,"isfriend":0,"isfamily":0},{"id":"52197077139","owner":"22420387@N07","secret":"215e7b0c39","server":"65535","farm":66,"title":"Stilt Sandpiper - DEL_4115-LR","ispublic":1,"isfriend":0,"isfamily":0},{"id":"52155540909","owner":"54546220@N00","secret":"e11b2fba10","server":"65535","farm":66,"title":"Playero Zancudo, Stilt Sandpiper (Calidris himantopus)","ispublic":1,"isfriend":0,"isfamily":0},{"id":"52133066853","owner":"195506649@N05","secret":"b6ecd1e129","server":"65535","farm":66,"title":"Calidris himantopus","ispublic":1,"isfriend":0,"isfamily":0}]},"stat":"ok"}