{"photos":{"page":1,"pages":41,"perpage":100,"total":4003,"photo":[{"id":"52723465246","owner":"33610758@N08","secret":"19df89a86b","server":"65535","farm":66,"title":"Summer Tanager (Piranga rubra) (1 of 1)","ispublic":1,"isfriend":0,"isfamily":0},{"id":"52723575150","owner":"31704662@N08","secret":"f299c32b9f","server":"65535","farm":66,"title":"Summer Tanager (Piranga rubra)","ispublic":1,"isfriend":0,"isfamily":0},{"id":"52716764745","owner":"54249623@N08","secret":"12bf33173d","server":"65535","farm":66,"title":"Piranga Roja, Summer Tanager (Piranga rubra)","ispublic":1,"isfriend":0,"isfamily":0},{"id":"52701744415","owner":"27794127@N07","secret":"0b2806af63","server":"65535","farm":66,"title":"Piranga Rubra 01","ispublic":1,"isfriend":0,"isfamily":0},{"id":"52701744370","owner":"27794127@N07","secret":"b675d50db1","server":"65535","farm":66,"title":"Piranga Rubra 02","ispublic":1,"isfriend":0,"isfamily":0},{"id":"52701611365","owner":"28754568@N02","secret":"b4d2de07f6","server":"65535","farm":66,"title":"Piranga rubra","ispublic":1,"isfriend":0,"isfamily":0},{"id":"52701683713","owner":"28754568@N02","secret":"7e48affc60","server":"65535","farm":66,"title":"Piranga rubra","ispublic":1,"isfriend":0,"isfamily":0},{"id":"52698974029","owner":"33573751@N04","secret":"e4206624a0","server":"65535","farm":66,"title":"Summer Tanager (Piranga rubra) - San Antonio, Costa Rica","ispublic":1,"isfriend":0,"isfamily":0},{"id":"52693910432","owner":"33091694@N07","secret":"f7b11dc5a3","server":"65535","farm":66,"title":"Serie: Aves de Mi Jard\u00edn 2023 - Piranga rubra (Male)","ispublic":1,"isfriend":0,"isfamily":0},{"id":"52688983480","owner":"145988764@N06","secret":"9b9d26e655","server":"65535","farm":66,"title":"Piranga Roja Piranga rubra","ispublic":1,"isfriend":0,"isfamily":0},{"id":"52686824277","owner":"12639178@N07","secret":"74816fd363","server":"65535","farm":66,"title":"weibliche Sommertangare","ispublic":1,"isfriend":0,"isfamily":0},{"id":"52681808450","owner":"52321838@N05","secret":"7fffdf6920","server":"65535","farm":66,"title":"Summer tanager","ispublic":1,"isfriend":0,"isfamily":0},{"id":"52679788572","owner":"104988466@N08","secret":"f44b783fc2","server":"65535","farm":66,"title":"01. Tangara vermillon - Piranga rubra - Summer Tanager","ispublic":1,"isfriend":0,"isfamily":0},{"id":"52673428976","owner":"145988764@N06","secret":"d5b557b34f","server":"65535","farm":66,"title":"Piranga Roja Piranga rubra-juvenil al parecer hembra","ispublic":1,"isfriend":0,"isfamily":0},{"id":"52673264288","owner":"37493716@N02","secret":"5c1b3f4b10","server":"65535","farm":66,"title":"Piranga rubra - Summer tanager","ispublic":1,"isfriend":0,"isfamily":0},{"id":"52671627027","owner":"72271115@N02","secret":"f9d7733344","server":"65535","farm":66,"title":"Female Summer Tanager --- Piranga rubra","ispublic":1,"isfriend":0,"isfamily":0},{"id":"52671585926","owner":"145988764@N06","secret":"abd496c861","server":"65535","farm":66,"title":"Piranga Roja Piranga rubra-macho","ispublic":1,"isfriend":0,"isfamily":0},{"id":"52671506556","owner":"132165466@N08","secret":"93724251f1","server":"65535","farm":66,"title":"Summer Tanager, female","ispublic":1,"isfriend":0,"isfamily":0},{"id":"52670879682","owner":"23335641@N04","secret":"35fba93751","server":"65535","farm":66,"title":"_DSC2532.jpg","ispublic":1,"isfriend":0,"isfamily":0},{"id":"52668739950","owner":"23335641@N04","secret":"7eb65efe14","server":"65535","farm":66,"title":"_DSC3147.jpg","ispublic":1,"isfriend":0,"isfamily":0},{"id":"52668590694","owner":"23335641@N04","secret":"e35e7d2709","server":"65535","farm":66,"title":"_DSC2363.jpg","ispublic":1,"isfriend":0,"isfamily":0},{"id":"52668302346","owner":"23335641@N04","secret":"8f304b9498","server":"65535","farm":66,"title":"_DSC3153.jpg","ispublic":1,"isfriend":0,"isfamily":0},{"id":"52667161142","owner":"23335641@N04","secret":"d147323220","server":"65535","farm":66,"title":"_DSC2323-Edit-Edit-Edit.jpg","ispublic":1,"isfriend":0,"isfamily":0},{"id":"52668050555","owner":"23335641@N04","secret":"0ebebae3ea","server":"65535","farm":66,"title":"_DSC2305.jpg","ispublic":1,"isfriend":0,"isfamily":0},{"id":"52664885870","owner":"8264176@N02","secret":"10a5a34077","server":"65535","farm":66,"title":"BirdsofColombia - Summer Tanager  \u00b7  Piranga rubra - 233660","ispublic":1,"isfriend":0,"isfamily":0},{"id":"52664452886","owner":"8264176@N02","secret":"0f44029a13","server":"65535","farm":66,"title":"BirdsofColombia - Summer Tanager  \u00b7  Piranga rubra - 233665","ispublic":1,"isfriend":0,"isfamily":0},{"id":"52650396140","owner":"147283349@N08","secret":"65e2f22956","server":"65535","farm":66,"title":"Piranga rubra. \u2640","ispublic":1,"isfriend":0,"isfamily":0},{"id":"52633123266","owner":"72271115@N02","secret":"42a89dd447","server":"65535","farm":66,"title":"Summer Tanager --- Piranga rubra","ispublic":1,"isfriend":0,"isfamily":0},{"id":"52627117396","owner":"61062164@N08","secret":"d54cd53458","server":"65535","farm":66,"title":"850_4184-NEF_DxO DP2","ispublic":1,"isfriend":0,"isfamily":0},{"id":"52619713279","owner":"110459348@N03","secret":"1cd24cb212","server":"65535","farm":66,"title":"Tangara vermillon perch\u00e9","ispublic":1,"isfriend":0,"isfamily":0},{"id":"52619567603","owner":"12639178@N07","secret":"6a5e25257b","server":"65535","farm":66,"title":"Sommerkardinal","ispublic":1,"isfriend":0,"isfamily":0},{"id":"52611863039","owner":"10665268@N04","secret":"3fd4b780cd","server":"65535","farm":66,"title":"Summer Tanager, Multnomah Co.,OR_6288(1)","ispublic":1,"isfriend":0,"isfamily":0},{"id":"52611097467","owner":"10665268@N04","secret":"3c1dcbd34e","server":"65535","farm":66,"title":"Summer Tanager, Multnomah Co.,OR_6293(1)","ispublic":1,"isfriend":0,"isfamily":0},{"id":"52611601791","owner":"10665268@N04","secret":"4faa38d285","server":"65535","farm":66,"title":"Summer Tanager, Multnomah Co.,OR_6301(1)","ispublic":1,"isfriend":0,"isfamily":0},{"id":"52611805983","owner":"68635735@N02","secret":"dca76a07ac","server":"65535","farm":66,"title":"Summer Tanager (Piranga rubra) male","ispublic":1,"isfriend":0,"isfamily":0},{"id":"52602770728","owner":"12185056@N02","secret":"1de345cbbd","server":"65535","farm":66,"title":"Male Summer Tanager (Piranga rubra)","ispublic":1,"isfriend":0,"isfamily":0},{"id":"22976844154","owner":"53247049@N07","secret":"b369af8591","server":"710","farm":1,"title":"SUMMER TANAGER MALE Piranga rubra Eating a Pico Pico Fruit in a Pico Pico Tree in Mindo in Northwestern ECUADOR. Tanager Photo by Peter Wendelken.","ispublic":1,"isfriend":0,"isfamily":0},{"id":"52584831455","owner":"103263246@N06","secret":"567e47bc8b","server":"65535","farm":66,"title":"Piranga rubra. Tangara Veranera. Cardenal Veranero. Pan de Achiiote. Sangre de Toro. Summer Tanager. Macho \/ Male","ispublic":1,"isfriend":0,"isfamily":0},{"id":"52583685175","owner":"132001260@N04","secret":"8512d02170","server":"65535","farm":66,"title":"Tangara vermillon","ispublic":1,"isfriend":0,"isfamily":0},{"id":"52567970351","owner":"54249623@N08","secret":"76ed982836","server":"65535","farm":66,"title":"Piranga Roja, Summer Tanager (Piranga rubra)","ispublic":1,"isfriend":0,"isfamily":0},{"id":"52563350184","owner":"137931501@N03","secret":"798570b6b4","server":"65535","farm":66,"title":"Summer Tanager (Piranga rubra) in Costa Rica IMG_5359","ispublic":1,"isfriend":0,"isfamily":0},{"id":"52552434499","owner":"95795254@N02","secret":"7ea36ebb39","server":"65535","farm":66,"title":"Summer Tanager 851_1536.jpg","ispublic":1,"isfriend":0,"isfamily":0},{"id":"52539358973","owner":"33610210@N05","secret":"198f382e8d","server":"65535","farm":66,"title":"Summer Tanager, Piranga rubra","ispublic":1,"isfriend":0,"isfamily":0},{"id":"52538497396","owner":"145988764@N06","secret":"5781a74f4c","server":"65535","farm":66,"title":"Piranga Roja- Piranga rubra hembra","ispublic":1,"isfriend":0,"isfamily":0},{"id":"52538013377","owner":"145988764@N06","secret":"018017a524","server":"65535","farm":66,"title":"Piranga Roja Piranga rubra-macho","ispublic":1,"isfriend":0,"isfamily":0},{"id":"52536342357","owner":"103263246@N06","secret":"1255ffbbd9","server":"65535","farm":66,"title":"Piranga rubra. Tangara Veranera. Cardenal Veranero. Pan de Achiiote. Sangre de Toro. Summer Tanager. Hembra \/ Female","ispublic":1,"isfriend":0,"isfamily":0},{"id":"52537098219","owner":"103263246@N06","secret":"825bf6a4ae","server":"65535","farm":66,"title":"Piranga rubra. Tangara Veranera. Cardenal Veranero. Pan de Achiiote. Sangre de Toro. Summer Tanager. Macho \/ Male","ispublic":1,"isfriend":0,"isfamily":0},{"id":"52534401222","owner":"196567058@N02","secret":"89bfc82833","server":"65535","farm":66,"title":"Piranga rubra - Piranga bermeja.","ispublic":1,"isfriend":0,"isfamily":0},{"id":"52527273255","owner":"36274920@N05","secret":"e3d2853767","server":"65535","farm":66,"title":"Panam\u00e1 - Novembre 2022","ispublic":1,"isfriend":0,"isfamily":0},{"id":"52509922459","owner":"124995824@N08","secret":"60d4752b91","server":"65535","farm":66,"title":"Summer Tanager - Piranga rubra","ispublic":1,"isfriend":0,"isfamily":0},{"id":"52497840762","owner":"103263246@N06","secret":"2bcb143aa0","server":"65535","farm":66,"title":"Piranga rubra. Tangara Veranera. Cardenal Veranero. Pan de Achiiote. Sangre de Toro. Summer Tanager. Hembra\/ Female","ispublic":1,"isfriend":0,"isfamily":0},{"id":"52497597824","owner":"56686021@N04","secret":"3eaef11c12","server":"65535","farm":66,"title":"Summer Tanager","ispublic":1,"isfriend":0,"isfamily":0},{"id":"52495272261","owner":"86666094@N00","secret":"73d61ed752","server":"65535","farm":66,"title":"Summer Tanager m","ispublic":1,"isfriend":0,"isfamily":0},{"id":"52495476080","owner":"191127565@N03","secret":"5bbda78456","server":"65535","farm":66,"title":"Tangara vermillon ou Piranga vermillon -  Piranga rubra - Summer Tanager","ispublic":1,"isfriend":0,"isfamily":0},{"id":"52458462985","owner":"38514062@N03","secret":"771d6fba16","server":"65535","farm":66,"title":"Summer Tanager (Piranga rubra)","ispublic":1,"isfriend":0,"isfamily":0},{"id":"52443701020","owner":"91827451@N06","secret":"20bec9cd12","server":"65535","farm":66,"title":"DSC_3943","ispublic":1,"isfriend":0,"isfamily":0},{"id":"52443531279","owner":"91827451@N06","secret":"e3df0a8548","server":"65535","farm":66,"title":"DSC_3952","ispublic":1,"isfriend":0,"isfamily":0},{"id":"52407772426","owner":"8065544@N08","secret":"159dde8ab2","server":"65535","farm":66,"title":"Summer Tanager (Piranga rubra)","ispublic":1,"isfriend":0,"isfamily":0},{"id":"52403656445","owner":"8065544@N08","secret":"9a712a09a2","server":"65535","farm":66,"title":"Summer Tanager (Piranga rubra)","ispublic":1,"isfriend":0,"isfamily":0},{"id":"52393712043","owner":"32665930@N04","secret":"4057e55bdb","server":"65535","farm":66,"title":"Summer Tanager","ispublic":1,"isfriend":0,"isfamily":0},{"id":"52392629137","owner":"32665930@N04","secret":"ec2fcb07a7","server":"65535","farm":66,"title":"Summer Tanager","ispublic":1,"isfriend":0,"isfamily":0},{"id":"52392627837","owner":"32665930@N04","secret":"99409a649e","server":"65535","farm":66,"title":"Summer Tanager","ispublic":1,"isfriend":0,"isfamily":0},{"id":"52393505709","owner":"32665930@N04","secret":"3ae927e018","server":"65535","farm":66,"title":"Summer Tanager","ispublic":1,"isfriend":0,"isfamily":0},{"id":"52392626817","owner":"32665930@N04","secret":"8595b8a4e4","server":"65535","farm":66,"title":"Summer Tanager","ispublic":1,"isfriend":0,"isfamily":0},{"id":"52392626312","owner":"32665930@N04","secret":"602c78feb5","server":"65535","farm":66,"title":"Summer Tanager","ispublic":1,"isfriend":0,"isfamily":0},{"id":"52334438099","owner":"38514062@N03","secret":"2950c6f9a6","server":"65535","farm":66,"title":"Summer Tanager (Piranga rubra)","ispublic":1,"isfriend":0,"isfamily":0},{"id":"52308433255","owner":"124995824@N08","secret":"0b39526e77","server":"65535","farm":66,"title":"Summer Tanager - Piranga rubra","ispublic":1,"isfriend":0,"isfamily":0},{"id":"52305791777","owner":"196264892@N08","secret":"85b877ff8b","server":"65535","farm":66,"title":"Summer Tanager","ispublic":1,"isfriend":0,"isfamily":0},{"id":"52296599700","owner":"124995824@N08","secret":"6afb51dd69","server":"65535","farm":66,"title":"Summer Tanager - Piranga rubra","ispublic":1,"isfriend":0,"isfamily":0},{"id":"52283673275","owner":"59770980@N02","secret":"1fc9e4aa85","server":"65535","farm":66,"title":"Sumart\u00e1ni-Summer Tanager-Piranga rubra","ispublic":1,"isfriend":0,"isfamily":0},{"id":"52265392254","owner":"140734051@N08","secret":"8f312c63bd","server":"65535","farm":66,"title":"\u0410\u043b\u0430\u044f \u043f\u0438\u0440\u0430\u043d\u0433\u0430, Piranga rubra, Summer Tanager \u2640\ufe0f","ispublic":1,"isfriend":0,"isfamily":0},{"id":"52680587099","owner":"104988466@N08","secret":"b3eff81a25","server":"65535","farm":66,"title":"02. Tangara vermillon - Piranga rubra - Summer Tanager","ispublic":1,"isfriend":0,"isfamily":0},{"id":"52680586904","owner":"104988466@N08","secret":"359dd3f469","server":"65535","farm":66,"title":"03. Tangara vermillon - Piranga rubra - Summer Tanager","ispublic":1,"isfriend":0,"isfamily":0},{"id":"52656343329","owner":"12639178@N07","secret":"bc25ac6ced","server":"65535","farm":66,"title":"Sommerkardinal W","ispublic":1,"isfriend":0,"isfamily":0},{"id":"52656340819","owner":"12639178@N07","secret":"9ff2bcdf7d","server":"65535","farm":66,"title":"Sommerkardinal","ispublic":1,"isfriend":0,"isfamily":0},{"id":"52654563317","owner":"192563127@N05","secret":"84f565885f","server":"65535","farm":66,"title":"Summer Tanager_Male_Piranga rubra_Piranga Roja_22 Ene_2023 (7)","ispublic":1,"isfriend":0,"isfamily":0},{"id":"52655330224","owner":"192563127@N05","secret":"87d03b049c","server":"65535","farm":66,"title":"Summer Tanager_Male_Piranga rubra_Piranga Roja_22 Ene_2023 (8)","ispublic":1,"isfriend":0,"isfamily":0},{"id":"52655535058","owner":"192563127@N05","secret":"0258f1b2a8","server":"65535","farm":66,"title":"Summer Tanager_Female_Piranga rubra_Piranga Roja_22 Ene_2023 (2)","ispublic":1,"isfriend":0,"isfamily":0},{"id":"52655534323","owner":"192563127@N05","secret":"39838b2839","server":"65535","farm":66,"title":"Summer Tanager_Female_Piranga rubra_Piranga Roja_22 Ene_2023 (3)","ispublic":1,"isfriend":0,"isfamily":0},{"id":"52655533883","owner":"192563127@N05","secret":"28c3d6926a","server":"65535","farm":66,"title":"Summer Tanager_Male_Piranga rubra_Piranga Roja_22 Ene_2023 (4)","ispublic":1,"isfriend":0,"isfamily":0},{"id":"52655489830","owner":"192563127@N05","secret":"bef7d2e7cd","server":"65535","farm":66,"title":"Summer Tanager_Male_Piranga rubra_Piranga Roja_22 Ene_2023 (5)","ispublic":1,"isfriend":0,"isfamily":0},{"id":"52642809077","owner":"8013969@N03","secret":"5737b307b7","server":"65535","farm":66,"title":"Piranga rubra DFL btr22-1","ispublic":1,"isfriend":0,"isfamily":0},{"id":"52643310706","owner":"8013969@N03","secret":"6114be7f89","server":"65535","farm":66,"title":"Piranga rubra DFL btr22-2","ispublic":1,"isfriend":0,"isfamily":0},{"id":"52643779178","owner":"8013969@N03","secret":"1a68b1082d","server":"65535","farm":66,"title":"Piranga rubra DFL btr22-4","ispublic":1,"isfriend":0,"isfamily":0},{"id":"52642798377","owner":"8013969@N03","secret":"9375b48203","server":"65535","farm":66,"title":"Piranga rubra DFL btr22-5","ispublic":1,"isfriend":0,"isfamily":0},{"id":"52643558029","owner":"8013969@N03","secret":"993bd39115","server":"65535","farm":66,"title":"Piranga rubra DFL btr22-6","ispublic":1,"isfriend":0,"isfamily":0},{"id":"52643295891","owner":"8013969@N03","secret":"2b7bb3bafa","server":"65535","farm":66,"title":"Piranga rubra DFL btr22-7","ispublic":1,"isfriend":0,"isfamily":0},{"id":"52617637388","owner":"153849901@N07","secret":"80451f71d7","server":"65535","farm":66,"title":"Fotos: Diego Jaramillo Rebolledo","ispublic":1,"isfriend":0,"isfamily":0},{"id":"52580506919","owner":"153973412@N04","secret":"17695a82e6","server":"65535","farm":66,"title":"Summer Tanager-Piranga rubra, Squire, IA","ispublic":1,"isfriend":0,"isfamily":0},{"id":"52537099254","owner":"103263246@N06","secret":"c08090126b","server":"65535","farm":66,"title":"Piranga rubra. Tangara Veranera. Cardenal Veranero. Pan de Achiiote. Sangre de Toro. Summer Tanager. I\/L: Hembra \/ Female. D\/R: Macho \/ Male","ispublic":1,"isfriend":0,"isfamily":0},{"id":"52495038156","owner":"86666094@N00","secret":"086bef0cda","server":"65535","farm":66,"title":"Summer Tanager","ispublic":1,"isfriend":0,"isfamily":0},{"id":"52444819278","owner":"13451078@N03","secret":"4aa71b8714","server":"65535","farm":66,"title":"Summer Tanager ( Piranga rubra)","ispublic":1,"isfriend":0,"isfamily":0},{"id":"52393642150","owner":"32665930@N04","secret":"09a35d76cb","server":"65535","farm":66,"title":"Summer Tanager","ispublic":1,"isfriend":0,"isfamily":0},{"id":"52393710088","owner":"32665930@N04","secret":"cee7f979f0","server":"65535","farm":66,"title":"Summer Tanager","ispublic":1,"isfriend":0,"isfamily":0},{"id":"52247145536","owner":"37493716@N02","secret":"080d7cc197","server":"65535","farm":66,"title":"Aves Reserva Tit\u00ed Cabeciblanco","ispublic":1,"isfriend":0,"isfamily":0},{"id":"52247644920","owner":"37493716@N02","secret":"36a3f53f7d","server":"65535","farm":66,"title":"Aves Reserva Tit\u00ed Cabeciblanco","ispublic":1,"isfriend":0,"isfamily":0},{"id":"52247644890","owner":"37493716@N02","secret":"db18eb78c9","server":"65535","farm":66,"title":"Aves Reserva Tit\u00ed Cabeciblanco","ispublic":1,"isfriend":0,"isfamily":0},{"id":"52236383011","owner":"67306066@N03","secret":"c1bcd7e457","server":"65535","farm":66,"title":"Summer Tanager, Male (Piranga rubra)","ispublic":1,"isfriend":0,"isfamily":0},{"id":"52236872100","owner":"67306066@N03","secret":"2151a90f10","server":"65535","farm":66,"title":"Summer Tanager, Female (Piranga rubra)","ispublic":1,"isfriend":0,"isfamily":0},{"id":"52236381351","owner":"67306066@N03","secret":"4e3295b0c1","server":"65535","farm":66,"title":"Summer Tanager, Male (Piranga rubra)","ispublic":1,"isfriend":0,"isfamily":0}]},"stat":"ok"}