{"photos":{"page":1,"pages":10,"perpage":100,"total":940,"photo":[{"id":"52700285512","owner":"21182099@N05","secret":"4e8ebeb9e6","server":"65535","farm":66,"title":"Surucua Trogon (Trogon surrucura), male","ispublic":1,"isfriend":0,"isfamily":0},{"id":"52637472313","owner":"195947115@N04","secret":"0f17cfa52a","server":"65535","farm":66,"title":"Surucu\u00e1 Variado","ispublic":1,"isfriend":0,"isfamily":0},{"id":"52504739356","owner":"190911304@N02","secret":"fba9c7d951","server":"65535","farm":66,"title":"Surucu\u00e1 cola blanca (Trogon surrucura)","ispublic":1,"isfriend":0,"isfamily":0},{"id":"52461908453","owner":"123247621@N02","secret":"b1d19afc3c","server":"65535","farm":66,"title":"7R407889_DxO","ispublic":1,"isfriend":0,"isfamily":0},{"id":"52461906508","owner":"123247621@N02","secret":"053e2418f1","server":"65535","farm":66,"title":"7R407883_DxO","ispublic":1,"isfriend":0,"isfamily":0},{"id":"52349528775","owner":"129593667@N03","secret":"d6e85dac22","server":"65535","farm":66,"title":"Surucua Trogon \u2642","ispublic":1,"isfriend":0,"isfamily":0},{"id":"52313063886","owner":"185287246@N04","secret":"68fa64e749","server":"65535","farm":66,"title":"Surucua Trogon-Trogon surrucura aurantius (female)","ispublic":1,"isfriend":0,"isfamily":0},{"id":"52297146044","owner":"186193378@N07","secret":"6b8306af8d","server":"65535","farm":66,"title":"Surucu\u00e1-variado macho (Trogon surrucura) Surucua Trogon male","ispublic":1,"isfriend":0,"isfamily":0},{"id":"52259215451","owner":"32674493@N04","secret":"deae2d8c7a","server":"65535","farm":66,"title":"Surucu\u00e1-variado (Trogon surrucura aurantius) macho","ispublic":1,"isfriend":0,"isfamily":0},{"id":"51942824600","owner":"193617639@N07","secret":"7069a6cf69","server":"65535","farm":66,"title":"Surucu\u00e1-variado (Trogon surrucura)","ispublic":1,"isfriend":0,"isfamily":0},{"id":"51804123234","owner":"61316002@N02","secret":"f8ef7e07d8","server":"65535","farm":66,"title":"SURUTROG M aurantius 4828","ispublic":1,"isfriend":0,"isfamily":0},{"id":"51735045315","owner":"73162295@N00","secret":"c7393d7fe3","server":"65535","farm":66,"title":"Surucu\u00e1-variado (Trogon surrucura)","ispublic":1,"isfriend":0,"isfamily":0},{"id":"51722450974","owner":"87325282@N00","secret":"1afed08c4d","server":"65535","farm":66,"title":"Surucu\u00e1 Variado \/ Surrucura Trogon","ispublic":1,"isfriend":0,"isfamily":0},{"id":"51595613717","owner":"185853379@N08","secret":"09f5e626c7","server":"65535","farm":66,"title":"Surucu\u00e1-variado _ Trogon surrucura","ispublic":1,"isfriend":0,"isfamily":0},{"id":"51539735922","owner":"21182099@N05","secret":"80a621a562","server":"65535","farm":66,"title":"Surucua Trogon (Trogon surrucura), male","ispublic":1,"isfriend":0,"isfamily":0},{"id":"51385707964","owner":"136354582@N02","secret":"8dc1783ea1","server":"65535","farm":66,"title":"Trogon surrucura","ispublic":1,"isfriend":0,"isfamily":0},{"id":"51266905397","owner":"61021753@N02","secret":"9754db0ea6","server":"65535","farm":66,"title":"n73_w1150","ispublic":1,"isfriend":0,"isfamily":0},{"id":"51163107154","owner":"136354582@N02","secret":"fb62b9b909","server":"65535","farm":66,"title":"Trogon surrucura","ispublic":1,"isfriend":0,"isfamily":0},{"id":"51102567070","owner":"81126336@N00","secret":"9cb79558d2","server":"65535","farm":66,"title":"Surucu\u00e1-variado \/ Surucua Trogon","ispublic":1,"isfriend":0,"isfamily":0},{"id":"50919537821","owner":"190428291@N08","secret":"6a6fc9466e","server":"65535","farm":66,"title":"Trogon surrucura","ispublic":1,"isfriend":0,"isfamily":0},{"id":"50893615038","owner":"47835705@N04","secret":"5b4628b220","server":"65535","farm":66,"title":"Surucu\u00e1 - Surucua Trogon (Trogon surrucura) Paso Centuri\u00f3n, Uruguay","ispublic":1,"isfriend":0,"isfamily":0},{"id":"50731505302","owner":"190428291@N08","secret":"0d619acc4e","server":"65535","farm":66,"title":"Trogon surrucura","ispublic":1,"isfriend":0,"isfamily":0},{"id":"50716197448","owner":"190428291@N08","secret":"f2a3d04e62","server":"65535","farm":66,"title":"Trogon surrucura","ispublic":1,"isfriend":0,"isfamily":0},{"id":"50544574078","owner":"87325282@N00","secret":"a259897515","server":"65535","farm":66,"title":"Trogon surrucura","ispublic":1,"isfriend":0,"isfamily":0},{"id":"50496508692","owner":"37934762@N02","secret":"b99fc93b2a","server":"65535","farm":66,"title":"Surucua Trogon - Trogon surrucura","ispublic":1,"isfriend":0,"isfamily":0},{"id":"50444057206","owner":"187469698@N05","secret":"b5d88fb6eb","server":"65535","farm":66,"title":"698 Surucua Trogon - Andrew Walker 001","ispublic":1,"isfriend":0,"isfamily":0},{"id":"50376172942","owner":"61021753@N02","secret":"9f14a4837b","server":"65535","farm":66,"title":"n74_w1150","ispublic":1,"isfriend":0,"isfamily":0},{"id":"50174446936","owner":"87727332@N08","secret":"44e08474b1","server":"65535","farm":66,"title":"Surucocota","ispublic":1,"isfriend":0,"isfamily":0},{"id":"50148818126","owner":"185779820@N03","secret":"1c2bc54a48","server":"65535","farm":66,"title":"Trogon surrucura","ispublic":1,"isfriend":0,"isfamily":0},{"id":"50031668792","owner":"86585370@N00","secret":"9352392a14","server":"65535","farm":66,"title":"Surucua Trogon \/\/ Surucu\u00e1-variado \/\/ Trogom-variado","ispublic":1,"isfriend":0,"isfamily":0},{"id":"49994202923","owner":"47450553@N06","secret":"24b1f6dd32","server":"65535","farm":66,"title":"surucu\u00e1-variado (Trogon surrucura) \u2642","ispublic":1,"isfriend":0,"isfamily":0},{"id":"49982386322","owner":"59754388@N00","secret":"570ed99d53","server":"65535","farm":66,"title":"SURUCU\u00c1-VARIADO Trogon surrucura","ispublic":1,"isfriend":0,"isfamily":0},{"id":"49901987166","owner":"183862955@N08","secret":"4bfd6169c8","server":"65535","farm":66,"title":"\"Trogon surrucura\" Surucua Trogon, S\u00fcdlicher Surucu\u00e1trogon. Surucu\u00e1-variado","ispublic":1,"isfriend":0,"isfamily":0},{"id":"49818546491","owner":"56686021@N04","secret":"7009d9ac65","server":"65535","farm":66,"title":"Surucua Trogon","ispublic":1,"isfriend":0,"isfamily":0},{"id":"49775074832","owner":"9765210@N03","secret":"efba10ab40","server":"65535","farm":66,"title":"Surucua Trogon (Trogon surrucura)","ispublic":1,"isfriend":0,"isfamily":0},{"id":"49679984762","owner":"50241576@N03","secret":"359da72d0c","server":"65535","farm":66,"title":"Surucua Trogon (Trogon surrucura)","ispublic":1,"isfriend":0,"isfamily":0},{"id":"49562997137","owner":"124970579@N03","secret":"cb115544d6","server":"65535","farm":66,"title":"Colores de la selva","ispublic":1,"isfriend":0,"isfamily":0},{"id":"49449802152","owner":"58747226@N02","secret":"f4e9a2cfb7","server":"65535","farm":66,"title":"Surucu\u00e1-variado - Trogon surrucura","ispublic":1,"isfriend":0,"isfamily":0},{"id":"49335182177","owner":"56686021@N04","secret":"b81ea960e3","server":"65535","farm":66,"title":"Surucua Trogon (male)","ispublic":1,"isfriend":0,"isfamily":0},{"id":"49334498313","owner":"56686021@N04","secret":"3db67eb568","server":"65535","farm":66,"title":"Surucua Trogon (female)","ispublic":1,"isfriend":0,"isfamily":0},{"id":"49278708057","owner":"138975203@N02","secret":"87bfcd75d9","server":"65535","farm":66,"title":"Surucua Trogon","ispublic":1,"isfriend":0,"isfamily":0},{"id":"49194475182","owner":"59770980@N02","secret":"068f29e509","server":"65535","farm":66,"title":"Surucua Trogon-Trogon surrucura","ispublic":1,"isfriend":0,"isfamily":0},{"id":"49076450082","owner":"81126336@N00","secret":"46bc6ff4fa","server":"65535","farm":66,"title":"Surucu\u00e1-variado \/ Surucua Trogon","ispublic":1,"isfriend":0,"isfamily":0},{"id":"49031199812","owner":"81126336@N00","secret":"323abf9b25","server":"65535","farm":66,"title":"Surucu\u00e1-variado \/ Surucua Trogon","ispublic":1,"isfriend":0,"isfamily":0},{"id":"49020564953","owner":"29170368@N03","secret":"c58579a7e9","server":"65535","farm":66,"title":"Surucua Trogon","ispublic":1,"isfriend":0,"isfamily":0},{"id":"51936672551","owner":"187346531@N05","secret":"e095957f2c","server":"65535","farm":66,"title":"surucu\u00e1-variado (Trogon surrucura) f\u00eamea","ispublic":1,"isfriend":0,"isfamily":0},{"id":"51844044220","owner":"194879118@N07","secret":"da2e9c4922","server":"65535","farm":66,"title":"Copia 2 de DSC_5723","ispublic":1,"isfriend":0,"isfamily":0},{"id":"51824003501","owner":"12639178@N07","secret":"a191193e6c","server":"65535","farm":66,"title":"Surucuatrogon, Cascata das Orquideas","ispublic":1,"isfriend":0,"isfamily":0},{"id":"51721726016","owner":"87325282@N00","secret":"7a1b8a8000","server":"65535","farm":66,"title":"Surucu\u00e1 Variado \/ Surrucura Trogon","ispublic":1,"isfriend":0,"isfamily":0},{"id":"51722545355","owner":"87325282@N00","secret":"ca7ff1df51","server":"65535","farm":66,"title":"Surucu\u00e1 Variado \/ Surrucura Trogon","ispublic":1,"isfriend":0,"isfamily":0},{"id":"51721669876","owner":"87325282@N00","secret":"4c4c9131c6","server":"65535","farm":66,"title":"Surucu\u00e1 Variado \/ Surrucura Trogon","ispublic":1,"isfriend":0,"isfamily":0},{"id":"51720859732","owner":"87325282@N00","secret":"77b3fa85dc","server":"65535","farm":66,"title":"Surucu\u00e1 Variado \/ Surrucura Trogon","ispublic":1,"isfriend":0,"isfamily":0},{"id":"51721669036","owner":"87325282@N00","secret":"3cf8024646","server":"65535","farm":66,"title":"Surucu\u00e1 Variado \/ Surrucura Trogon","ispublic":1,"isfriend":0,"isfamily":0},{"id":"51657871954","owner":"87325282@N00","secret":"0974d59c2c","server":"65535","farm":66,"title":"Trogon surrucura","ispublic":1,"isfriend":0,"isfamily":0},{"id":"51656389187","owner":"87325282@N00","secret":"02516af353","server":"65535","farm":66,"title":"Trogon surrucura","ispublic":1,"isfriend":0,"isfamily":0},{"id":"51478990532","owner":"186193378@N07","secret":"6c3969b841","server":"65535","farm":66,"title":"Surucu\u00e1-variado (f\u00eamea) (Trogon surrucura) Surucua Trogon","ispublic":1,"isfriend":0,"isfamily":0},{"id":"51400222574","owner":"87325282@N00","secret":"6336f43945","server":"65535","farm":66,"title":"Trogon surrucura","ispublic":1,"isfriend":0,"isfamily":0},{"id":"51384210192","owner":"136354582@N02","secret":"3cf8b4e77e","server":"65535","farm":66,"title":"Trogon surrucura","ispublic":1,"isfriend":0,"isfamily":0},{"id":"51281282336","owner":"190051159@N08","secret":"66105bef3e","server":"65535","farm":66,"title":"Surucu\u00e1-variado","ispublic":1,"isfriend":0,"isfamily":0},{"id":"51256219160","owner":"87325282@N00","secret":"ccfe205a80","server":"65535","farm":66,"title":"Trogon surrucura","ispublic":1,"isfriend":0,"isfamily":0},{"id":"51020229537","owner":"185718539@N08","secret":"c9d775ce8b","server":"65535","farm":66,"title":"Surucu\u00e1-variado (Trogon surrucura)","ispublic":1,"isfriend":0,"isfamily":0},{"id":"50973847676","owner":"12639178@N07","secret":"19ece302ce","server":"65535","farm":66,"title":"Surucuatrogon ruhend auf einem Ast","ispublic":1,"isfriend":0,"isfamily":0},{"id":"50968869633","owner":"87325282@N00","secret":"deea92fd3c","server":"65535","farm":66,"title":"Trogon surrucura","ispublic":1,"isfriend":0,"isfamily":0},{"id":"50925472818","owner":"185287246@N04","secret":"6f2ffbf08d","server":"65535","farm":66,"title":"Surucua Trogon (male) - Trogon surrucura aurantius","ispublic":1,"isfriend":0,"isfamily":0},{"id":"50661597433","owner":"185287246@N04","secret":"da349b3d73","server":"65535","farm":66,"title":"Trogon surrucura aurantius - Surucua Trogon (male)","ispublic":1,"isfriend":0,"isfamily":0},{"id":"50544575133","owner":"87325282@N00","secret":"a1a9a53119","server":"65535","farm":66,"title":"Trogon surrucura","ispublic":1,"isfriend":0,"isfamily":0},{"id":"50545303631","owner":"87325282@N00","secret":"d13490446e","server":"65535","farm":66,"title":"Trogon surrucura","ispublic":1,"isfriend":0,"isfamily":0},{"id":"50544571698","owner":"87325282@N00","secret":"9565138d34","server":"65535","farm":66,"title":"Trogon surrucura","ispublic":1,"isfriend":0,"isfamily":0},{"id":"50271538601","owner":"87325282@N00","secret":"17d795d0a3","server":"65535","farm":66,"title":"Trogon surrucura","ispublic":1,"isfriend":0,"isfamily":0},{"id":"50170629758","owner":"185287246@N04","secret":"37a26bec6b","server":"65535","farm":66,"title":"Surucua Trogon - Trogon surrucura aurantius - female","ispublic":1,"isfriend":0,"isfamily":0},{"id":"50155362418","owner":"136354582@N02","secret":"800f2c219e","server":"65535","farm":66,"title":"Trogon surrucura","ispublic":1,"isfriend":0,"isfamily":0},{"id":"49971092288","owner":"136354582@N02","secret":"a47353abc2","server":"65535","farm":66,"title":"Trogon surrucura surrucura, female","ispublic":1,"isfriend":0,"isfamily":0},{"id":"49898218256","owner":"7389964@N02","secret":"0e6b4e6b7e","server":"65535","farm":66,"title":"Surucu\u00e1-variado (Trogon surrucura)","ispublic":1,"isfriend":0,"isfamily":0},{"id":"49898523957","owner":"7389964@N02","secret":"24e160f409","server":"65535","farm":66,"title":"Surucu\u00e1-variado (Trogon surrucura)","ispublic":1,"isfriend":0,"isfamily":0},{"id":"49897699368","owner":"7389964@N02","secret":"16b7064be9","server":"65535","farm":66,"title":"Surucu\u00e1-variado (Trogon surrucura)","ispublic":1,"isfriend":0,"isfamily":0},{"id":"49898517782","owner":"7389964@N02","secret":"e4e01d0afc","server":"65535","farm":66,"title":"Surucu\u00e1-variado (Trogon surrucura)","ispublic":1,"isfriend":0,"isfamily":0},{"id":"49894814907","owner":"38249385@N02","secret":"981a6bc67d","server":"65535","farm":66,"title":"Surucu\u00e1-variado (Trogon surrucura) - Surucua Trogon","ispublic":1,"isfriend":0,"isfamily":0},{"id":"49894814882","owner":"38249385@N02","secret":"f223029c7e","server":"65535","farm":66,"title":"Surucu\u00e1-variado (Trogon surrucura) - Surucua Trogon","ispublic":1,"isfriend":0,"isfamily":0},{"id":"49825080607","owner":"186211059@N06","secret":"9eceeef1ac","server":"65535","farm":66,"title":"Surucua Trogon","ispublic":1,"isfriend":0,"isfamily":0},{"id":"49824755461","owner":"186211059@N06","secret":"71a9112bd0","server":"65535","farm":66,"title":"Surucua Trogon","ispublic":1,"isfriend":0,"isfamily":0},{"id":"49822344356","owner":"38249385@N02","secret":"4ca2825295","server":"65535","farm":66,"title":"Surucu\u00e1-variado (Trogon surrucura) - Surucua Trogon","ispublic":1,"isfriend":0,"isfamily":0},{"id":"49818546246","owner":"56686021@N04","secret":"d77dab6e2b","server":"65535","farm":66,"title":"Surucua Trogon","ispublic":1,"isfriend":0,"isfamily":0},{"id":"49679463888","owner":"87325282@N00","secret":"3e01d75e98","server":"65535","farm":66,"title":"Trogon surrucura","ispublic":1,"isfriend":0,"isfamily":0},{"id":"49680282332","owner":"87325282@N00","secret":"9016699516","server":"65535","farm":66,"title":"Trogon surrucura","ispublic":1,"isfriend":0,"isfamily":0},{"id":"49680281867","owner":"87325282@N00","secret":"7be6d9745e","server":"65535","farm":66,"title":"Trogon surrucura","ispublic":1,"isfriend":0,"isfamily":0},{"id":"49679991851","owner":"87325282@N00","secret":"89a6969fca","server":"65535","farm":66,"title":"Trogon surrucura","ispublic":1,"isfriend":0,"isfamily":0},{"id":"49679694471","owner":"50241576@N03","secret":"2bbbae43e3","server":"65535","farm":66,"title":"Surucua Trogon (Trogon surrucura)","ispublic":1,"isfriend":0,"isfamily":0},{"id":"49606615932","owner":"187302019@N08","secret":"4e1a84f8a5","server":"65535","farm":66,"title":"Surucu\u00e1 variado - Trogon surrucura","ispublic":1,"isfriend":0,"isfamily":0},{"id":"49566716103","owner":"87325282@N00","secret":"0a261a24d4","server":"65535","farm":66,"title":"Trogon surrucura","ispublic":1,"isfriend":0,"isfamily":0},{"id":"49567446597","owner":"87325282@N00","secret":"4f3ccfd78e","server":"65535","farm":66,"title":"Trogon surrucura","ispublic":1,"isfriend":0,"isfamily":0},{"id":"49483543112","owner":"185287246@N04","secret":"8d9344d877","server":"65535","farm":66,"title":"Surucua Trogon-Trogon surrucura aurantius","ispublic":1,"isfriend":0,"isfamily":0},{"id":"49449802737","owner":"58747226@N02","secret":"629981bfd5","server":"65535","farm":66,"title":"Surucu\u00e1-variado - Trogon surrucura","ispublic":1,"isfriend":0,"isfamily":0},{"id":"49449571261","owner":"58747226@N02","secret":"0f0c0842bf","server":"65535","farm":66,"title":"Surucu\u00e1-variado - Trogon surrucura","ispublic":1,"isfriend":0,"isfamily":0},{"id":"49387001521","owner":"87325282@N00","secret":"9f64b6261a","server":"65535","farm":66,"title":"Trogon surrucura","ispublic":1,"isfriend":0,"isfamily":0},{"id":"49387000811","owner":"87325282@N00","secret":"694b3e4f80","server":"65535","farm":66,"title":"Trogon surrucura","ispublic":1,"isfriend":0,"isfamily":0},{"id":"49386527108","owner":"87325282@N00","secret":"5478821865","server":"65535","farm":66,"title":"Trogon surrucura","ispublic":1,"isfriend":0,"isfamily":0},{"id":"49334498608","owner":"56686021@N04","secret":"e40c31e019","server":"65535","farm":66,"title":"Surucua Trogon (male)","ispublic":1,"isfriend":0,"isfamily":0},{"id":"49267273192","owner":"185647511@N05","secret":"2e3394b46b","server":"65535","farm":66,"title":"trogon surrucura","ispublic":1,"isfriend":0,"isfamily":0},{"id":"49235652751","owner":"186066477@N07","secret":"11abcb620f","server":"65535","farm":66,"title":"","ispublic":1,"isfriend":0,"isfamily":0},{"id":"49021289862","owner":"29170368@N03","secret":"e5dc971aed","server":"65535","farm":66,"title":"Surucua Trogon","ispublic":1,"isfriend":0,"isfamily":0}]},"stat":"ok"}