{"photos":{"page":1,"pages":3,"perpage":100,"total":297,"photo":[{"id":"52643380286","owner":"8013969@N03","secret":"d1e067c5d6","server":"65535","farm":66,"title":"Limnothlypis swainsonii DFL btr22-3","ispublic":1,"isfriend":0,"isfamily":0},{"id":"52643636324","owner":"8013969@N03","secret":"966f48b392","server":"65535","farm":66,"title":"Limnothlypis swainsonii DFL btr22-4","ispublic":1,"isfriend":0,"isfamily":0},{"id":"52643849058","owner":"8013969@N03","secret":"1f378cbbc8","server":"65535","farm":66,"title":"Limnothlypis swainsonii DFL btr22-5","ispublic":1,"isfriend":0,"isfamily":0},{"id":"52643813675","owner":"8013969@N03","secret":"dfece4103c","server":"65535","farm":66,"title":"Limnothlypis swainsonii DFL btr22-6","ispublic":1,"isfriend":0,"isfamily":0},{"id":"52580506109","owner":"153973412@N04","secret":"1154be3e64","server":"65535","farm":66,"title":"Swainson's warbler-Limnothlypis swainsonii, GSM, TN","ispublic":1,"isfriend":0,"isfamily":0},{"id":"52089864025","owner":"87782155@N04","secret":"d2acfa97af","server":"65535","farm":66,"title":"Swainson's Warbler","ispublic":1,"isfriend":0,"isfamily":0},{"id":"52050001352","owner":"67164820@N06","secret":"232d2c10c3","server":"65535","farm":66,"title":"Swainson's warbler 2","ispublic":1,"isfriend":0,"isfamily":0},{"id":"52051291949","owner":"67164820@N06","secret":"4f2802943d","server":"65535","farm":66,"title":"Swainson's warbler 3","ispublic":1,"isfriend":0,"isfamily":0},{"id":"52051291699","owner":"67164820@N06","secret":"7527e20a62","server":"65535","farm":66,"title":"Swainson's warbler 4","ispublic":1,"isfriend":0,"isfamily":0},{"id":"52051546550","owner":"67164820@N06","secret":"3d2b1e135f","server":"65535","farm":66,"title":"Swainson's warbler 6","ispublic":1,"isfriend":0,"isfamily":0},{"id":"52051055251","owner":"67164820@N06","secret":"dc1b61be42","server":"65535","farm":66,"title":"Swainson's warbler","ispublic":1,"isfriend":0,"isfamily":0},{"id":"51238539063","owner":"59946862@N07","secret":"ecf7f8d2e3","server":"65535","farm":66,"title":"Swainson's Warbler after release - swwa","ispublic":1,"isfriend":0,"isfamily":0},{"id":"51238538208","owner":"59946862@N07","secret":"d837c8daba","server":"65535","farm":66,"title":"Swainson's Warbler ready for release with geolocator- swwa","ispublic":1,"isfriend":0,"isfamily":0},{"id":"51239105039","owner":"59946862@N07","secret":"72bcdf8777","server":"65535","farm":66,"title":"Swainson's Warbler bill measurement - swwa","ispublic":1,"isfriend":0,"isfamily":0},{"id":"51238329951","owner":"59946862@N07","secret":"36abcced66","server":"65535","farm":66,"title":"Swainson's Warbler with geolocator - swwa","ispublic":1,"isfriend":0,"isfamily":0},{"id":"51238532733","owner":"59946862@N07","secret":"2ff0dab6f0","server":"65535","farm":66,"title":"Swainson's Warbler bill measurement - swwa","ispublic":1,"isfriend":0,"isfamily":0},{"id":"51238327791","owner":"59946862@N07","secret":"c37b89e0c3","server":"65535","farm":66,"title":"Swainson's Warbler with geolocator - swwa","ispublic":1,"isfriend":0,"isfamily":0},{"id":"51237615357","owner":"59946862@N07","secret":"a8dbf1be61","server":"65535","farm":66,"title":"Swainson's Warbler banding - swwa","ispublic":1,"isfriend":0,"isfamily":0},{"id":"51239101129","owner":"59946862@N07","secret":"29385dcef2","server":"65535","farm":66,"title":"Swainson's Warbler banding - swwa","ispublic":1,"isfriend":0,"isfamily":0},{"id":"51238529988","owner":"59946862@N07","secret":"bd9ee017d7","server":"65535","farm":66,"title":"Swainson's Warbler banding - swwa","ispublic":1,"isfriend":0,"isfamily":0},{"id":"51238529728","owner":"59946862@N07","secret":"436fdd0db0","server":"65535","farm":66,"title":"Swainson's Warbler banding - swwa","ispublic":1,"isfriend":0,"isfamily":0},{"id":"51238325841","owner":"59946862@N07","secret":"bd4029dfd1","server":"65535","farm":66,"title":"Swainson's Warbler in the hand - swwa","ispublic":1,"isfriend":0,"isfamily":0},{"id":"51237613037","owner":"59946862@N07","secret":"3362602398","server":"65535","farm":66,"title":"Swainson's Warbler banding- Garrett extracts","ispublic":1,"isfriend":0,"isfamily":0},{"id":"51237612762","owner":"59946862@N07","secret":"ef2a9c0c43","server":"65535","farm":66,"title":"Swainson's Warbler - swwa","ispublic":1,"isfriend":0,"isfamily":0},{"id":"51239382175","owner":"59946862@N07","secret":"e7337e0efb","server":"65535","farm":66,"title":"Swainson's Warbler banding - swwa","ispublic":1,"isfriend":0,"isfamily":0},{"id":"51238045216","owner":"59946862@N07","secret":"fcf44f83b3","server":"65535","farm":66,"title":"Swainson's Warbler in the hand - swwa","ispublic":1,"isfriend":0,"isfamily":0},{"id":"51239092195","owner":"59946862@N07","secret":"455f50a8c3","server":"65535","farm":66,"title":"Swainson's Warbler in the net - swwa","ispublic":1,"isfriend":0,"isfamily":0},{"id":"51238806494","owner":"59946862@N07","secret":"4f1ec625e6","server":"65535","farm":66,"title":"Swainson's Warbler breast muscle measurement - swwa","ispublic":1,"isfriend":0,"isfamily":0},{"id":"51239091210","owner":"59946862@N07","secret":"1aa84774a6","server":"65535","farm":66,"title":"Swainson's Warbler spread wing - swwa","ispublic":1,"isfriend":0,"isfamily":0},{"id":"51239090900","owner":"59946862@N07","secret":"93beb7c93c","server":"65535","farm":66,"title":"Swainson's Warbler tail - swwa","ispublic":1,"isfriend":0,"isfamily":0},{"id":"51208478347","owner":"40928097@N07","secret":"c2b9b45092","server":"65535","farm":66,"title":"Swainson's Warbler","ispublic":1,"isfriend":0,"isfamily":0},{"id":"51202873377","owner":"135315828@N06","secret":"def935f543","server":"65535","farm":66,"title":"IMG_6868","ispublic":1,"isfriend":0,"isfamily":0},{"id":"51203794463","owner":"135315828@N06","secret":"91ab6746ab","server":"65535","farm":66,"title":"IMG_7089","ispublic":1,"isfriend":0,"isfamily":0},{"id":"51203590441","owner":"135315828@N06","secret":"d160008e72","server":"65535","farm":66,"title":"IMG_7120","ispublic":1,"isfriend":0,"isfamily":0},{"id":"51204656735","owner":"135315828@N06","secret":"fbb0acf367","server":"65535","farm":66,"title":"IMG_7186","ispublic":1,"isfriend":0,"isfamily":0},{"id":"51203793843","owner":"135315828@N06","secret":"ac83a82274","server":"65535","farm":66,"title":"IMG_7215","ispublic":1,"isfriend":0,"isfamily":0},{"id":"51204363724","owner":"135315828@N06","secret":"6c5fae4854","server":"65535","farm":66,"title":"IMG_7248","ispublic":1,"isfriend":0,"isfamily":0},{"id":"51023215581","owner":"61021753@N02","secret":"0b974eb531","server":"65535","farm":66,"title":"n535_w1150","ispublic":1,"isfriend":0,"isfamily":0},{"id":"50868079796","owner":"21702714@N06","secret":"75bbd7f58a","server":"65535","farm":66,"title":"Swainson's Warbler","ispublic":1,"isfriend":0,"isfamily":0},{"id":"50868177892","owner":"21702714@N06","secret":"79978c5d1c","server":"65535","farm":66,"title":"Swainson's Warbler","ispublic":1,"isfriend":0,"isfamily":0},{"id":"50867359178","owner":"21702714@N06","secret":"e65f28c215","server":"65535","farm":66,"title":"Swainson's Warbler","ispublic":1,"isfriend":0,"isfamily":0},{"id":"50144910821","owner":"61021753@N02","secret":"6c73273177","server":"65535","farm":66,"title":"n262_w1150","ispublic":1,"isfriend":0,"isfamily":0},{"id":"49976130827","owner":"65788177@N02","secret":"a02b561e6a","server":"65535","farm":66,"title":"Swainson's Warbler","ispublic":1,"isfriend":0,"isfamily":0},{"id":"49943547571","owner":"71649471@N02","secret":"69e1fa3b86","server":"65535","farm":66,"title":"Swainson's Warbler","ispublic":1,"isfriend":0,"isfamily":0},{"id":"49931272361","owner":"74969937@N02","secret":"9905f81d40","server":"65535","farm":66,"title":"Swainson's Warbler (Limnothlypis swainsonii)","ispublic":1,"isfriend":0,"isfamily":0},{"id":"49234632431","owner":"131385771@N04","secret":"362c53a083","server":"65535","farm":66,"title":"Limnothlypis swainsonii","ispublic":1,"isfriend":0,"isfamily":0},{"id":"48376500342","owner":"46459046@N05","secret":"138102c18e","server":"65535","farm":66,"title":"Swainson's Warbler","ispublic":1,"isfriend":0,"isfamily":0},{"id":"48014226022","owner":"65788177@N02","secret":"08f722e63e","server":"65535","farm":66,"title":"Swainson's Warbler","ispublic":1,"isfriend":0,"isfamily":0},{"id":"47954918167","owner":"34238008@N02","secret":"2d8ea28631","server":"65535","farm":66,"title":"Swainson's Warbler (Limnothlypis swainsonii)","ispublic":1,"isfriend":0,"isfamily":0},{"id":"47954955131","owner":"34238008@N02","secret":"f6b490d37c","server":"65535","farm":66,"title":"Swainson's Warbler (Limnothlypis swainsonii)","ispublic":1,"isfriend":0,"isfamily":0},{"id":"46883201934","owner":"47745688@N05","secret":"3a211c576c","server":"7817","farm":8,"title":"Swainson's warbler, Limnothlypis swainsonii","ispublic":1,"isfriend":0,"isfamily":0},{"id":"43875600092","owner":"65788177@N02","secret":"9d8c126f67","server":"1794","farm":2,"title":"Swainson's Warbler","ispublic":1,"isfriend":0,"isfamily":0},{"id":"42380882914","owner":"61241315@N00","secret":"6f8c60c70b","server":"1803","farm":2,"title":"Swainson's Warbler_8252.mp4","ispublic":1,"isfriend":0,"isfamily":0},{"id":"42380884644","owner":"61241315@N00","secret":"a1b8fb9209","server":"843","farm":1,"title":"Swainson's Warbler_N8210","ispublic":1,"isfriend":0,"isfamily":0},{"id":"52643643014","owner":"8013969@N03","secret":"91132ea6ed","server":"65535","farm":66,"title":"Limnothlypis swainsonii DFL btr22-1","ispublic":1,"isfriend":0,"isfamily":0},{"id":"52643642489","owner":"8013969@N03","secret":"ab5117e81c","server":"65535","farm":66,"title":"Limnothlypis swainsonii DFL btr22-2","ispublic":1,"isfriend":0,"isfamily":0},{"id":"52643382786","owner":"8013969@N03","secret":"d48a330b87","server":"65535","farm":66,"title":"Limnothlypis swainsonii DFL btr22-7","ispublic":1,"isfriend":0,"isfamily":0},{"id":"52168625264","owner":"8065544@N08","secret":"1a0a17fbb8","server":"65535","farm":66,"title":"Swainson's Warbler (Limnothlypis swainsonii)","ispublic":1,"isfriend":0,"isfamily":0},{"id":"52168625244","owner":"8065544@N08","secret":"540bb5861a","server":"65535","farm":66,"title":"Swainson's Warbler (Limnothlypis swainsonii)","ispublic":1,"isfriend":0,"isfamily":0},{"id":"52061983831","owner":"59770980@N02","secret":"8e5d33a068","server":"65535","farm":66,"title":"Reyrskr\u00edkja-Swainson's Warbler-Limnothlypis swainsonii","ispublic":1,"isfriend":0,"isfamily":0},{"id":"52034965359","owner":"13451078@N03","secret":"4ac663135f","server":"65535","farm":66,"title":"Swainson's Warbler (Limnothlypis swainsonii)","ispublic":1,"isfriend":0,"isfamily":0},{"id":"52025117903","owner":"59619528@N04","secret":"946f5b901c","server":"65535","farm":66,"title":"Swainson's Warbler (Limnothlypis swainsonii)","ispublic":1,"isfriend":0,"isfamily":0},{"id":"51843937409","owner":"57465751@N05","secret":"dea8b88072","server":"65535","farm":66,"title":"Swainson's warbler (Limnothlypis swainsonii), Stock island, Monroe Co., FL","ispublic":1,"isfriend":0,"isfamily":0},{"id":"51725467256","owner":"194341957@N06","secret":"225d3a81f2","server":"65535","farm":66,"title":"swainson's warbler","ispublic":1,"isfriend":0,"isfamily":0},{"id":"51670589071","owner":"8013969@N03","secret":"c9b3795517","server":"65535","farm":66,"title":"Limnothlypis swainsonii","ispublic":1,"isfriend":0,"isfamily":0},{"id":"51292304702","owner":"33610210@N05","secret":"7d21081864","server":"65535","farm":66,"title":"Swainson's Warbler, Limnothlypis swainsonii","ispublic":1,"isfriend":0,"isfamily":0},{"id":"51268511683","owner":"142077783@N06","secret":"18a1469b80","server":"65535","farm":66,"title":"Swainson's Warbler","ispublic":1,"isfriend":0,"isfamily":0},{"id":"51215918387","owner":"50264295@N06","secret":"8abf9fcf23","server":"65535","farm":66,"title":"Swainson's Warbler (Limnothlypis swainsonii)","ispublic":1,"isfriend":0,"isfamily":0},{"id":"51216602246","owner":"50264295@N06","secret":"664a0509d0","server":"65535","farm":66,"title":"Swainson's Warbler (Limnothlypis swainsonii)","ispublic":1,"isfriend":0,"isfamily":0},{"id":"51203795108","owner":"135315828@N06","secret":"cd3dae40dd","server":"65535","farm":66,"title":"IMG_6898","ispublic":1,"isfriend":0,"isfamily":0},{"id":"51204657590","owner":"135315828@N06","secret":"75be88e6d4","server":"65535","farm":66,"title":"IMG_6914","ispublic":1,"isfriend":0,"isfamily":0},{"id":"51203590836","owner":"135315828@N06","secret":"cda0e9b9e6","server":"65535","farm":66,"title":"IMG_6999","ispublic":1,"isfriend":0,"isfamily":0},{"id":"51202872997","owner":"135315828@N06","secret":"73e17c28b4","server":"65535","farm":66,"title":"IMG_7012","ispublic":1,"isfriend":0,"isfamily":0},{"id":"51202872802","owner":"135315828@N06","secret":"a088ef046e","server":"65535","farm":66,"title":"IMG_7049","ispublic":1,"isfriend":0,"isfamily":0},{"id":"51204364464","owner":"135315828@N06","secret":"4e2e4b2f94","server":"65535","farm":66,"title":"IMG_7055","ispublic":1,"isfriend":0,"isfamily":0},{"id":"51203590241","owner":"135315828@N06","secret":"03e88b1726","server":"65535","farm":66,"title":"IMG_7180","ispublic":1,"isfriend":0,"isfamily":0},{"id":"51203590006","owner":"135315828@N06","secret":"2fcd73e0d8","server":"65535","farm":66,"title":"IMG_7194","ispublic":1,"isfriend":0,"isfamily":0},{"id":"51203589871","owner":"135315828@N06","secret":"c0a25f4706","server":"65535","farm":66,"title":"IMG_7235","ispublic":1,"isfriend":0,"isfamily":0},{"id":"51201742992","owner":"135315828@N06","secret":"168e6bc944","server":"0","farm":0,"title":"IMG_7094","ispublic":1,"isfriend":0,"isfamily":0},{"id":"51101683821","owner":"13451078@N03","secret":"86c5440647","server":"65535","farm":66,"title":"Swainson's Warbler (Limnothlypis swainsonii)","ispublic":1,"isfriend":0,"isfamily":0},{"id":"50103709208","owner":"187469698@N05","secret":"bb4244cfa1","server":"65535","farm":66,"title":"1297 Swainson's Warbler - Andrew Walker 001","ispublic":1,"isfriend":0,"isfamily":0},{"id":"49955606111","owner":"56983940@N06","secret":"3e9a9626e8","server":"65535","farm":66,"title":"Swainson's Warbler","ispublic":1,"isfriend":0,"isfamily":0},{"id":"49955103313","owner":"56983940@N06","secret":"e747258abf","server":"65535","farm":66,"title":"Swainson's Warbler","ispublic":1,"isfriend":0,"isfamily":0},{"id":"49904513628","owner":"50264295@N06","secret":"349746b54e","server":"0","farm":0,"title":"Swainson's Warbler (Limnothlypis swainsonii) singing","ispublic":1,"isfriend":0,"isfamily":0},{"id":"49810263972","owner":"13451078@N03","secret":"3443830e04","server":"65535","farm":66,"title":"Swainson's Warbler (Limnothlypis swainsonii)","ispublic":1,"isfriend":0,"isfamily":0},{"id":"49760742421","owner":"187646166@N04","secret":"40d5341557","server":"65535","farm":66,"title":"Swainson's Warbler (Limnothlypis swainsonii)","ispublic":1,"isfriend":0,"isfamily":0},{"id":"48033631846","owner":"181847212@N05","secret":"2b4d225bef","server":"65535","farm":66,"title":"Swainson's Warbler (Limnothlypis swainsonii)","ispublic":1,"isfriend":0,"isfamily":0},{"id":"48033631576","owner":"181847212@N05","secret":"698728971b","server":"65535","farm":66,"title":"Swainson's Warbler (Limnothlypis swainsonii)","ispublic":1,"isfriend":0,"isfamily":0},{"id":"48033631381","owner":"181847212@N05","secret":"f9f9325d7f","server":"65535","farm":66,"title":"Swainson's Warbler (Limnothlypis swainsonii)","ispublic":1,"isfriend":0,"isfamily":0},{"id":"48033675453","owner":"181847212@N05","secret":"5cc20c0497","server":"65535","farm":66,"title":"Swainson's Warbler (Limnothlypis swainsonii)","ispublic":1,"isfriend":0,"isfamily":0},{"id":"48033742097","owner":"181847212@N05","secret":"b506589960","server":"65535","farm":66,"title":"Swainson's Warbler (Limnothlypis swainsonii)","ispublic":1,"isfriend":0,"isfamily":0},{"id":"48033630841","owner":"181847212@N05","secret":"56d517182e","server":"65535","farm":66,"title":"Swainson's Warbler (Limnothlypis swainsonii)","ispublic":1,"isfriend":0,"isfamily":0},{"id":"48033630786","owner":"181847212@N05","secret":"c6d3344217","server":"65535","farm":66,"title":"Swainson's Warbler (Limnothlypis swainsonii)","ispublic":1,"isfriend":0,"isfamily":0},{"id":"48033630606","owner":"181847212@N05","secret":"0b2421433a","server":"65535","farm":66,"title":"Swainson's Warbler (Limnothlypis swainsonii)","ispublic":1,"isfriend":0,"isfamily":0},{"id":"48033674533","owner":"181847212@N05","secret":"0980f23130","server":"65535","farm":66,"title":"Swainson's Warbler (Limnothlypis swainsonii)","ispublic":1,"isfriend":0,"isfamily":0},{"id":"48033630201","owner":"181847212@N05","secret":"1c4edc759c","server":"65535","farm":66,"title":"Swainson's Warbler (Limnothlypis swainsonii)","ispublic":1,"isfriend":0,"isfamily":0},{"id":"48033630096","owner":"181847212@N05","secret":"cc08d5b9d7","server":"65535","farm":66,"title":"Swainson's Warbler (Limnothlypis swainsonii)","ispublic":1,"isfriend":0,"isfamily":0},{"id":"48033740952","owner":"181847212@N05","secret":"b9c807716b","server":"65535","farm":66,"title":"Swainson's Warbler (Limnothlypis swainsonii)","ispublic":1,"isfriend":0,"isfamily":0},{"id":"48033629816","owner":"181847212@N05","secret":"96fd616d27","server":"65535","farm":66,"title":"Swainson's Warbler (Limnothlypis swainsonii)","ispublic":1,"isfriend":0,"isfamily":0},{"id":"32683595927","owner":"65788177@N02","secret":"643ed3b6fa","server":"65535","farm":66,"title":"Swainson's Warbler","ispublic":1,"isfriend":0,"isfamily":0}]},"stat":"ok"}