{"photos":{"page":1,"pages":20,"perpage":100,"total":1909,"photo":[{"id":"52684218769","owner":"99927961@N06","secret":"006d36bf5b","server":"65535","farm":66,"title":"Rolf Nagel-Fl-17-9323-Elanoides forficatus","ispublic":1,"isfriend":0,"isfamily":0},{"id":"52635819145","owner":"21875179@N06","secret":"488829035b","server":"65535","farm":66,"title":"SWALLOW-TAILED KITE","ispublic":1,"isfriend":0,"isfamily":0},{"id":"52580679495","owner":"153973412@N04","secret":"d11318546a","server":"65535","farm":66,"title":"Swallow-tailed Kite-Elanoides forficatus, Estero Llano Grande, TX","ispublic":1,"isfriend":0,"isfamily":0},{"id":"52504980840","owner":"123174353@N02","secret":"07364e908e","server":"65535","farm":66,"title":"Elanoides forficatus \/ Swallow-tailed Kite \/ zwaluwstaartwouw","ispublic":1,"isfriend":0,"isfamily":0},{"id":"52504774109","owner":"123174353@N02","secret":"a8b04cfe53","server":"65535","farm":66,"title":"Elanoides forficatus \/ Swallow-tailed Kite \/ zwaluwstaartwouw","ispublic":1,"isfriend":0,"isfamily":0},{"id":"52504504201","owner":"123174353@N02","secret":"8b42ae126a","server":"65535","farm":66,"title":"Elanoides forficatus \/ Swallow-tailed Kite \/ zwaluwstaartwouw","ispublic":1,"isfriend":0,"isfamily":0},{"id":"52504774079","owner":"123174353@N02","secret":"fe2d6e542b","server":"65535","farm":66,"title":"Elanoides forficatus \/ Swallow-tailed Kite \/ zwaluwstaartwouw","ispublic":1,"isfriend":0,"isfamily":0},{"id":"52429133059","owner":"77128742@N06","secret":"5b31a8e2dc","server":"65535","farm":66,"title":"Yetapa-Schwalbenweih_Elanoides forficatus yetapa-19","ispublic":1,"isfriend":0,"isfamily":0},{"id":"52429306820","owner":"77128742@N06","secret":"2396232eb9","server":"65535","farm":66,"title":"Yetapa-Schwalbenweih_Elanoides forficatus yetapa-17","ispublic":1,"isfriend":0,"isfamily":0},{"id":"52409155545","owner":"161505078@N03","secret":"9b9c200016","server":"65535","farm":66,"title":"Swallow-Tailed Kite (Elanoides forficatus)","ispublic":1,"isfriend":0,"isfamily":0},{"id":"52395618985","owner":"32805478@N03","secret":"0fb52a15ca","server":"65535","farm":66,"title":"Elanio tijereta, Elanoides forficatus, Swallow-tailed Kite","ispublic":1,"isfriend":0,"isfamily":0},{"id":"52331733825","owner":"24309230@N03","secret":"f34b15b7cb","server":"65535","farm":66,"title":"Swallow-tailed Kite","ispublic":1,"isfriend":0,"isfamily":0},{"id":"52312495966","owner":"33982546@N05","secret":"1bd3d20742","server":"65535","farm":66,"title":"Slurp","ispublic":1,"isfriend":0,"isfamily":0},{"id":"52305475544","owner":"189423275@N04","secret":"8e4c3be31b","server":"65535","farm":66,"title":"Swallow-tailed Kite in Flight","ispublic":1,"isfriend":0,"isfamily":0},{"id":"52265786277","owner":"88932760@N08","secret":"9758f9ccbe","server":"65535","farm":66,"title":"Ruffled Feathers","ispublic":1,"isfriend":0,"isfamily":0},{"id":"52259156159","owner":"33982546@N05","secret":"6964d2c4ce","server":"65535","farm":66,"title":"On the Upswing","ispublic":1,"isfriend":0,"isfamily":0},{"id":"52251121503","owner":"22822540@N03","secret":"9fc12735d4","server":"65535","farm":66,"title":"Elanoides forficatus","ispublic":1,"isfriend":0,"isfamily":0},{"id":"52240679407","owner":"37493716@N02","secret":"09328e8d78","server":"65535","farm":66,"title":"Elanoides forficatus, Swallow-tailed Kite","ispublic":1,"isfriend":0,"isfamily":0},{"id":"52240443315","owner":"193010058@N08","secret":"271db26150","server":"65535","farm":66,"title":"Swallow-tailed Kite (Elanoides forficatus)","ispublic":1,"isfriend":0,"isfamily":0},{"id":"52239951256","owner":"193010058@N08","secret":"fe877a7d20","server":"65535","farm":66,"title":"Swallow-tailed Kite (Elanoides forficatus)","ispublic":1,"isfriend":0,"isfamily":0},{"id":"52239959528","owner":"193010058@N08","secret":"57ebdf4cf0","server":"65535","farm":66,"title":"swallow-tailed kite (Elanoides forficatus)","ispublic":1,"isfriend":0,"isfamily":0},{"id":"52218795489","owner":"33982546@N05","secret":"3664dbc4ce","server":"65535","farm":66,"title":"Swallow-tail Wake","ispublic":1,"isfriend":0,"isfamily":0},{"id":"52216885431","owner":"38514062@N03","secret":"3c45d48cf9","server":"65535","farm":66,"title":"Swallow-tailed Kite (Elanoides forficatus)","ispublic":1,"isfriend":0,"isfamily":0},{"id":"52191493263","owner":"33982546@N05","secret":"f5a6b111e1","server":"65535","farm":66,"title":"Swallow-tailed Kite","ispublic":1,"isfriend":0,"isfamily":0},{"id":"52191418968","owner":"38514062@N03","secret":"e7f23bcffc","server":"65535","farm":66,"title":"Swallow-tailed Kite (Elanoides forficatus)","ispublic":1,"isfriend":0,"isfamily":0},{"id":"52184721673","owner":"88932760@N08","secret":"825fc06552","server":"65535","farm":66,"title":"They Land?!","ispublic":1,"isfriend":0,"isfamily":0},{"id":"52161209855","owner":"33982546@N05","secret":"ca15d5f22e","server":"65535","farm":66,"title":"Gotta Bug","ispublic":1,"isfriend":0,"isfamily":0},{"id":"52108399328","owner":"38514062@N03","secret":"9ba5658ce9","server":"65535","farm":66,"title":"Swallow-tailed Kite (Elanoides forficatus)","ispublic":1,"isfriend":0,"isfamily":0},{"id":"52098343099","owner":"158736579@N02","secret":"df5abd80dd","server":"65535","farm":66,"title":"Elanoides forficatus (Swallow-tailed kite)","ispublic":1,"isfriend":0,"isfamily":0},{"id":"52098131563","owner":"158736579@N02","secret":"22630d7298","server":"65535","farm":66,"title":"Elanoides forficatus (Swallow-tailed kite)","ispublic":1,"isfriend":0,"isfamily":0},{"id":"52089626077","owner":"124450184@N05","secret":"e6b2664927","server":"65535","farm":66,"title":"Swallow Tailed Kite","ispublic":1,"isfriend":0,"isfamily":0},{"id":"52080825626","owner":"61062164@N08","secret":"1d66d023bd","server":"65535","farm":66,"title":"850_0614-NEF_DxO_DeepPRIME","ispublic":1,"isfriend":0,"isfamily":0},{"id":"52200566896","owner":"101709991@N06","secret":"2c9ea85174","server":"65535","farm":66,"title":"Swallow-tailed Kite - Elanoides forficatus, Tukana County220504-2","ispublic":1,"isfriend":0,"isfamily":0},{"id":"52200839229","owner":"101709991@N06","secret":"4d63478a3b","server":"65535","farm":66,"title":"Swallow-tailed Kite - Elanoides forficatus, Tukana County220504","ispublic":1,"isfriend":0,"isfamily":0},{"id":"52035233590","owner":"13451078@N03","secret":"9f6e691aa4","server":"65535","farm":66,"title":"Swallow-tailed Kite  (Elanoides forficatus)","ispublic":1,"isfriend":0,"isfamily":0},{"id":"52034714546","owner":"13451078@N03","secret":"d77a18717d","server":"65535","farm":66,"title":"Swallow-tailed Kite (Elanoides forficatus)","ispublic":1,"isfriend":0,"isfamily":0},{"id":"52032998655","owner":"151381692@N04","secret":"d501923bb2","server":"65535","farm":66,"title":"Swallow-tailed Kite (Elanoides forficatus)","ispublic":1,"isfriend":0,"isfamily":0},{"id":"52022662360","owner":"60361833@N03","secret":"6995d4e449","server":"65535","farm":66,"title":"Swallow-tailed Kite_1","ispublic":1,"isfriend":0,"isfamily":0},{"id":"52016351995","owner":"88932760@N08","secret":"139f5d7c2f","server":"65535","farm":66,"title":"Lunch on the Go","ispublic":1,"isfriend":0,"isfamily":0},{"id":"52013369661","owner":"43433637@N03","secret":"2a8465ed5c","server":"65535","farm":66,"title":"Swallow-tailed Kite (Elanoides forficatus)","ispublic":1,"isfriend":0,"isfamily":0},{"id":"52013889290","owner":"43433637@N03","secret":"ac8eff57de","server":"65535","farm":66,"title":"Swallow-tailed Kite (Elanoides forficatus)","ispublic":1,"isfriend":0,"isfamily":0},{"id":"52012342057","owner":"43433637@N03","secret":"071ac98dce","server":"65535","farm":66,"title":"Swallow-tailed Kite (Elanoides forficatus)","ispublic":1,"isfriend":0,"isfamily":0},{"id":"52013369636","owner":"43433637@N03","secret":"46c7299905","server":"65535","farm":66,"title":"Swallow-tailed Kite (Elanoides forficatus)","ispublic":1,"isfriend":0,"isfamily":0},{"id":"52013367466","owner":"43433637@N03","secret":"aae74f4fc3","server":"65535","farm":66,"title":"Swallow-tailed Kite (Elanoides forficatus)","ispublic":1,"isfriend":0,"isfamily":0},{"id":"52013615354","owner":"43433637@N03","secret":"a33dd74c29","server":"65535","farm":66,"title":"Swallow-tailed Kite (Elanoides forficatus)","ispublic":1,"isfriend":0,"isfamily":0},{"id":"52011971036","owner":"59777454@N02","secret":"6ccd1df0c3","server":"65535","farm":66,"title":"Swallow-tailed Kite Tekiela TEK8564","ispublic":1,"isfriend":0,"isfamily":0},{"id":"52012482620","owner":"59777454@N02","secret":"310e1a6654","server":"65535","farm":66,"title":"Swallow-tailed Kite adult in flight Tekiela K0A5783","ispublic":1,"isfriend":0,"isfamily":0},{"id":"51973308182","owner":"24110087@N05","secret":"2fb52904f6","server":"65535","farm":66,"title":"Swallow-tailed Kite - Elanoides forficatus","ispublic":1,"isfriend":0,"isfamily":0},{"id":"51958466138","owner":"88932760@N08","secret":"fe69ae28f6","server":"65535","farm":66,"title":"Fast Food","ispublic":1,"isfriend":0,"isfamily":0},{"id":"51940866407","owner":"21412620@N00","secret":"360fedb73e","server":"65535","farm":66,"title":"Swallow-tailed Kite","ispublic":1,"isfriend":0,"isfamily":0},{"id":"51940852302","owner":"145466593@N08","secret":"d9e1ab59d7","server":"65535","farm":66,"title":"Swallow-tailed Kite","ispublic":1,"isfriend":0,"isfamily":0},{"id":"51936536036","owner":"151381692@N04","secret":"b4bdf34c91","server":"65535","farm":66,"title":"Swallow-tailed Kite (Elanoides forficatus)","ispublic":1,"isfriend":0,"isfamily":0},{"id":"51922378010","owner":"71158024@N00","secret":"45a6911743","server":"65535","farm":66,"title":"Downtown Surveillance","ispublic":1,"isfriend":0,"isfamily":0},{"id":"51917772806","owner":"39617069@N08","secret":"aba460f6c7","server":"65535","farm":66,"title":"Swallow-tailed Kite","ispublic":1,"isfriend":0,"isfamily":0},{"id":"51864405414","owner":"193010058@N08","secret":"d50facc0a3","server":"65535","farm":66,"title":"Swallow-tailed Kite (Elanoides forficatus)","ispublic":1,"isfriend":0,"isfamily":0},{"id":"51864405299","owner":"193010058@N08","secret":"6371d7884c","server":"65535","farm":66,"title":"Swallow-tailed Kite (Elanoides forficatus)","ispublic":1,"isfriend":0,"isfamily":0},{"id":"51863578859","owner":"193010058@N08","secret":"fa1237931c","server":"65535","farm":66,"title":"Swallow-tailed Kite (Elanoides forficatus)","ispublic":1,"isfriend":0,"isfamily":0},{"id":"51862204677","owner":"193010058@N08","secret":"0b903fd3d3","server":"65535","farm":66,"title":"Swallow-tailed Kite (Elanoides forficatus)","ispublic":1,"isfriend":0,"isfamily":0},{"id":"51862184042","owner":"193010058@N08","secret":"117793358f","server":"65535","farm":66,"title":"Swallow-tailed Kite (Elanoides forficatus)","ispublic":1,"isfriend":0,"isfamily":0},{"id":"51844266199","owner":"12639178@N07","secret":"462f5dec1f","server":"65535","farm":66,"title":"Flugshow eines Schwalbenweih","ispublic":1,"isfriend":0,"isfamily":0},{"id":"51842966622","owner":"12639178@N07","secret":"1ec10a597b","server":"65535","farm":66,"title":"Flugshow eines Schwalbenweih","ispublic":1,"isfriend":0,"isfamily":0},{"id":"51839301615","owner":"18581013@N04","secret":"e8906c11dc","server":"65535","farm":66,"title":"Swallow-tailed Kite","ispublic":1,"isfriend":0,"isfamily":0},{"id":"51821585770","owner":"97087315@N03","secret":"5140af1029","server":"65535","farm":66,"title":"Swallow-tailed Kite (Elanoides forficatus)","ispublic":1,"isfriend":0,"isfamily":0},{"id":"51797689402","owner":"12639178@N07","secret":"ca7ab5589b","server":"65535","farm":66,"title":"Schwalbenweih","ispublic":1,"isfriend":0,"isfamily":0},{"id":"51798760718","owner":"12639178@N07","secret":"55dda4798a","server":"65535","farm":66,"title":"Schwalbenweih","ispublic":1,"isfriend":0,"isfamily":0},{"id":"51797689207","owner":"12639178@N07","secret":"94bd9d6970","server":"65535","farm":66,"title":"Schwalbenweih","ispublic":1,"isfriend":0,"isfamily":0},{"id":"8416004209","owner":"53247049@N07","secret":"f62d5e285b","server":"8513","farm":9,"title":"SWALLOW-TAILED KITE SEEN FROM ABOVE Gliding High Above the R\u00edo Blanco near Los Bancos in Northwestern ECUADOR. Elanoides forficatus. Kite Photo by Peter Wendelken.","ispublic":1,"isfriend":0,"isfamily":0},{"id":"51717405138","owner":"11014423@N07","secret":"a777ab2781","server":"65535","farm":66,"title":"Swallow-tailed Kite","ispublic":1,"isfriend":0,"isfamily":0},{"id":"51589764245","owner":"53247049@N07","secret":"c743cd2a1f","server":"65535","farm":66,"title":"SWALLOW-TAILED KITE Eats Fruit in Flight. Elanoides forficatus in Mindo in Northwestern ECUADOR. Kite Photo by Peter Wendelken.","ispublic":1,"isfriend":0,"isfamily":0},{"id":"51570190791","owner":"143491327@N08","secret":"e1b4bc60cb","server":"65535","farm":66,"title":"Elanoides forficatus Gavil\u00e1n Tijereta","ispublic":1,"isfriend":0,"isfamily":0},{"id":"51563259529","owner":"136354582@N02","secret":"5f75ddd7e9","server":"65535","farm":66,"title":"Elanoides forficatus","ispublic":1,"isfriend":0,"isfamily":0},{"id":"51519984197","owner":"61062164@N08","secret":"8e8ec38f75","server":"65535","farm":66,"title":"850_7488","ispublic":1,"isfriend":0,"isfamily":0},{"id":"51520799666","owner":"61062164@N08","secret":"069ddb0582","server":"65535","farm":66,"title":"850_7486","ispublic":1,"isfriend":0,"isfamily":0},{"id":"51521020348","owner":"61062164@N08","secret":"289fa37e3e","server":"65535","farm":66,"title":"850_7493","ispublic":1,"isfriend":0,"isfamily":0},{"id":"51497368082","owner":"31759539@N03","secret":"19661f7094","server":"65535","farm":66,"title":"Swallow-Tailed Kite","ispublic":1,"isfriend":0,"isfamily":0},{"id":"51469301526","owner":"71418112@N00","secret":"156827021b","server":"65535","farm":66,"title":"Swallow-tailed kite","ispublic":1,"isfriend":0,"isfamily":0},{"id":"51412450069","owner":"65632611@N00","secret":"5d72bc2624","server":"65535","farm":66,"title":"NY: Swallow-tailed Kite Perched","ispublic":1,"isfriend":0,"isfamily":0},{"id":"51411955188","owner":"65632611@N00","secret":"bbe2c526bd","server":"65535","farm":66,"title":"NY: Swallow-tailed Kite Flying over Treeline","ispublic":1,"isfriend":0,"isfamily":0},{"id":"51412674735","owner":"65632611@N00","secret":"9c38ac03ab","server":"65535","farm":66,"title":"NY: Swallow-tailed Kite Eating on the Wing 2","ispublic":1,"isfriend":0,"isfamily":0},{"id":"51411689581","owner":"65632611@N00","secret":"49210aef4a","server":"65535","farm":66,"title":"NY: Swallow-tailed Kite Post-Preening","ispublic":1,"isfriend":0,"isfamily":0},{"id":"51412674580","owner":"65632611@N00","secret":"eb7899faf6","server":"65535","farm":66,"title":"NY: Swallow-tailed Kite Preening Feathers (vertical)","ispublic":1,"isfriend":0,"isfamily":0},{"id":"51410947382","owner":"65632611@N00","secret":"8365723615","server":"65535","farm":66,"title":"NY: Swallow-tailed Kite Eating on the Wing","ispublic":1,"isfriend":0,"isfamily":0},{"id":"51412449679","owner":"65632611@N00","secret":"dc023944c7","server":"65535","farm":66,"title":"NY: Swallow-tailed Kite Over My Head","ispublic":1,"isfriend":0,"isfamily":0},{"id":"51409426725","owner":"132508209@N08","secret":"1fbb1936f1","server":"65535","farm":66,"title":"Swallow-tailed Kite (Elanoides forficatus)","ispublic":1,"isfriend":0,"isfamily":0},{"id":"51408719328","owner":"132508209@N08","secret":"f19be93506","server":"65535","farm":66,"title":"Swallow-tailed Kite (Elanoides forficatus)","ispublic":1,"isfriend":0,"isfamily":0},{"id":"51408208354","owner":"120449047@N06","secret":"3f9b5511c3","server":"65535","farm":66,"title":"Swallow-Tailed Kite","ispublic":1,"isfriend":0,"isfamily":0},{"id":"51388492090","owner":"65788177@N02","secret":"068e828c1d","server":"65535","farm":66,"title":"Swallow-tailed Kite","ispublic":1,"isfriend":0,"isfamily":0},{"id":"51382551470","owner":"120449047@N06","secret":"509f10cec8","server":"65535","farm":66,"title":"Swallow-Tailed Kite","ispublic":1,"isfriend":0,"isfamily":0},{"id":"51379481652","owner":"61062164@N08","secret":"38c1f7e1ed","server":"65535","farm":66,"title":"850_5149","ispublic":1,"isfriend":0,"isfamily":0},{"id":"51371454574","owner":"65632611@N00","secret":"a13ba5ac83","server":"65535","farm":66,"title":"Everglades N.P.: Swallow-tailed Kite in Flight Face Forward! (5416)","ispublic":1,"isfriend":0,"isfamily":0},{"id":"51371729060","owner":"65632611@N00","secret":"71971fc581","server":"65535","farm":66,"title":"Everglades N.P.: Swallow-tailed Kite in Flight from underneath (5570)","ispublic":1,"isfriend":0,"isfamily":0},{"id":"51371729045","owner":"65632611@N00","secret":"47c7c52c8a","server":"65535","farm":66,"title":"Everglades N.P.: Swallow-tailed Kite in Flight closeup  (1038)","ispublic":1,"isfriend":0,"isfamily":0},{"id":"51369731367","owner":"69947563@N07","secret":"d384b3e3e5","server":"65535","farm":66,"title":"Swallow-tailed Kite - Collier County, Florida, United States","ispublic":1,"isfriend":0,"isfamily":0},{"id":"51356033838","owner":"69947563@N07","secret":"171985dcd9","server":"65535","farm":66,"title":"Swallow-tailed Kite - Dufferin County, Ontario, Canada","ispublic":1,"isfriend":0,"isfamily":0},{"id":"51342995816","owner":"22778339@N02","secret":"ec89385988","server":"65535","farm":66,"title":"Swallow-tailed Kite","ispublic":1,"isfriend":0,"isfamily":0},{"id":"51343175740","owner":"65788177@N02","secret":"28b1bbb8a8","server":"65535","farm":66,"title":"Swallow-tailed Kite","ispublic":1,"isfriend":0,"isfamily":0},{"id":"51330853994","owner":"65788177@N02","secret":"5255cef141","server":"65535","farm":66,"title":"Swallow-tailed Kite","ispublic":1,"isfriend":0,"isfamily":0},{"id":"51295760683","owner":"45759259@N06","secret":"5442a4077d","server":"65535","farm":66,"title":"Naucler \u00e0 queue fourchue Elanoides forficatus Swallow-tailed Kite","ispublic":1,"isfriend":0,"isfamily":0},{"id":"51268373139","owner":"61021753@N02","secret":"82901e037c","server":"65535","farm":66,"title":"n53_w1150","ispublic":1,"isfriend":0,"isfamily":0},{"id":"51264717310","owner":"61021753@N02","secret":"c4ec71eb61","server":"65535","farm":66,"title":"n36_w1150","ispublic":1,"isfriend":0,"isfamily":0}]},"stat":"ok"}