{"photos":{"page":1,"pages":24,"perpage":100,"total":2368,"photo":[{"id":"52712582357","owner":"38514062@N03","secret":"f0bb930bb8","server":"65535","farm":66,"title":"Swamp Sparrow (Melospiza georgiana)","ispublic":1,"isfriend":0,"isfamily":0},{"id":"52709446006","owner":"65788177@N02","secret":"2c4a7c0c03","server":"65535","farm":66,"title":"Swamp Sparrow","ispublic":1,"isfriend":0,"isfamily":0},{"id":"52709526450","owner":"168495655@N07","secret":"e16e89a7de","server":"65535","farm":66,"title":"Bruant des marais - Melospiza georgiana - Swamp Sparrow","ispublic":1,"isfriend":0,"isfamily":0},{"id":"52704628953","owner":"165841515@N03","secret":"b60b6fb188","server":"65535","farm":66,"title":"Bruant des marais \/ Swamp Sparrow \/ (Melospiza georgiana)","ispublic":1,"isfriend":0,"isfamily":0},{"id":"52703620222","owner":"165841515@N03","secret":"a87f561e7f","server":"65535","farm":66,"title":"Bruant des marais \/ Swamp Sparrow \/ (Melospiza georgiana)","ispublic":1,"isfriend":0,"isfamily":0},{"id":"52691229560","owner":"100108154@N02","secret":"3fcd7d947f","server":"65535","farm":66,"title":"1 I Spy Something In The Water!","ispublic":1,"isfriend":0,"isfamily":0},{"id":"52691229550","owner":"100108154@N02","secret":"b7f24834b7","server":"65535","farm":66,"title":"2 Let Me Take A Closer Look","ispublic":1,"isfriend":0,"isfamily":0},{"id":"52691081984","owner":"100108154@N02","secret":"4e93eb4b57","server":"65535","farm":66,"title":"3 Did You See Where It Went?","ispublic":1,"isfriend":0,"isfamily":0},{"id":"52691081959","owner":"100108154@N02","secret":"0fa6e405be","server":"65535","farm":66,"title":"4 Found It!","ispublic":1,"isfriend":0,"isfamily":0},{"id":"52678927201","owner":"47533293@N04","secret":"4cac078f17","server":"65535","farm":66,"title":"Swamp sparrow, Melospiza georgiana","ispublic":1,"isfriend":0,"isfamily":0},{"id":"52654709984","owner":"93273765@N05","secret":"aac8c7f495","server":"65535","farm":66,"title":"Swamp sparrow (Melospiza georgiana)","ispublic":1,"isfriend":0,"isfamily":0},{"id":"52638689436","owner":"71649471@N02","secret":"0026d3930c","server":"65535","farm":66,"title":"Mirror Mirror","ispublic":1,"isfriend":0,"isfamily":0},{"id":"52621660203","owner":"9638954@N07","secret":"ff3029ebaa","server":"65535","farm":66,"title":"Swamp Sparrow","ispublic":1,"isfriend":0,"isfamily":0},{"id":"52621439634","owner":"9638954@N07","secret":"bb8d58994e","server":"65535","farm":66,"title":"Swamp Sparrow","ispublic":1,"isfriend":0,"isfamily":0},{"id":"52494630272","owner":"49114357@N08","secret":"111ccff37f","server":"65535","farm":66,"title":"Swamp Sparrow","ispublic":1,"isfriend":0,"isfamily":0},{"id":"52605785356","owner":"183736567@N07","secret":"f773daaef5","server":"65535","farm":66,"title":"Swamp Sparrow (Melospiza georgiana)","ispublic":1,"isfriend":0,"isfamily":0},{"id":"52606261068","owner":"183736567@N07","secret":"a8bedba38b","server":"65535","farm":66,"title":"Swamp Sparrow (Melospiza georgiana)","ispublic":1,"isfriend":0,"isfamily":0},{"id":"52603389526","owner":"18581013@N04","secret":"837da4c024","server":"65535","farm":66,"title":"Swamp Sparrow","ispublic":1,"isfriend":0,"isfamily":0},{"id":"52600579071","owner":"151381692@N04","secret":"6d942a4206","server":"65535","farm":66,"title":"Swamp Sparrow (Melospiza georgiana)","ispublic":1,"isfriend":0,"isfamily":0},{"id":"52583660985","owner":"76288515@N07","secret":"3f18c1e332","server":"65535","farm":66,"title":"Swamp Sparrow Melospiza georgiana","ispublic":1,"isfriend":0,"isfamily":0},{"id":"52583222296","owner":"76288515@N07","secret":"f4a5df2103","server":"65535","farm":66,"title":"Swamp Sparrow Melospiza georgiana","ispublic":1,"isfriend":0,"isfamily":0},{"id":"52583736543","owner":"76288515@N07","secret":"c9b299828d","server":"65535","farm":66,"title":"Swamp Sparrow Melospiza georgiana","ispublic":1,"isfriend":0,"isfamily":0},{"id":"52583736528","owner":"76288515@N07","secret":"7c838e6c31","server":"65535","farm":66,"title":"Swamp Sparrow Melospiza georgiana","ispublic":1,"isfriend":0,"isfamily":0},{"id":"52582757837","owner":"76288515@N07","secret":"7309745d6d","server":"65535","farm":66,"title":"Swamp Sparrow Melospiza georgiana","ispublic":1,"isfriend":0,"isfamily":0},{"id":"52583484549","owner":"76288515@N07","secret":"241992b8a9","server":"65535","farm":66,"title":"Swamp Sparrow Melospiza georgiana","ispublic":1,"isfriend":0,"isfamily":0},{"id":"52547557689","owner":"62877922@N08","secret":"c59c661aa7","server":"65535","farm":66,"title":"Swamp Sparrow (Melospiza georgiana)","ispublic":1,"isfriend":0,"isfamily":0},{"id":"52547557644","owner":"62877922@N08","secret":"558a3f8d23","server":"65535","farm":66,"title":"Swamp Sparrow (Melospiza georgiana)","ispublic":1,"isfriend":0,"isfamily":0},{"id":"52536521277","owner":"103722035@N06","secret":"650c32f6d7","server":"0","farm":0,"title":"Swamp Sparrow (Melospiza georgiana), Morro Bay, CA","ispublic":1,"isfriend":0,"isfamily":0},{"id":"52535131557","owner":"34238008@N02","secret":"34acf100de","server":"65535","farm":66,"title":"Swamp Sparrow (Melospiza georgiana)","ispublic":1,"isfriend":0,"isfamily":0},{"id":"52535889424","owner":"34238008@N02","secret":"f6e4272b07","server":"65535","farm":66,"title":"Swamp Sparrow (Melospiza georgiana)","ispublic":1,"isfriend":0,"isfamily":0},{"id":"52536073270","owner":"34238008@N02","secret":"8d6a462802","server":"65535","farm":66,"title":"Swamp Sparrow (Melospiza georgiana)","ispublic":1,"isfriend":0,"isfamily":0},{"id":"52536143523","owner":"34238008@N02","secret":"4d8281bae1","server":"65535","farm":66,"title":"Swamp Sparrow (Melospiza georgiana)","ispublic":1,"isfriend":0,"isfamily":0},{"id":"52533563186","owner":"34238008@N02","secret":"529659ae43","server":"65535","farm":66,"title":"Swamp Sparrow (Melospiza georgiana)","ispublic":1,"isfriend":0,"isfamily":0},{"id":"52534106913","owner":"34238008@N02","secret":"09a486304f","server":"65535","farm":66,"title":"Swamp Sparrow (Melospiza georgiana)","ispublic":1,"isfriend":0,"isfamily":0},{"id":"52533562886","owner":"34238008@N02","secret":"c3cfd3a15d","server":"65535","farm":66,"title":"Swamp Sparrow (Melospiza georgiana)","ispublic":1,"isfriend":0,"isfamily":0},{"id":"52533562701","owner":"34238008@N02","secret":"f61ca4c8b9","server":"65535","farm":66,"title":"Swamp Sparrow (Melospiza georgiana)","ispublic":1,"isfriend":0,"isfamily":0},{"id":"52533094677","owner":"34238008@N02","secret":"58b9cc714d","server":"65535","farm":66,"title":"Swamp Sparrow (Melospiza georgiana)","ispublic":1,"isfriend":0,"isfamily":0},{"id":"52533845079","owner":"34238008@N02","secret":"75353c5646","server":"65535","farm":66,"title":"Swamp Sparrow (Melospiza georgiana)","ispublic":1,"isfriend":0,"isfamily":0},{"id":"52533562196","owner":"34238008@N02","secret":"c478a2fd24","server":"65535","farm":66,"title":"Swamp Sparrow (Melospiza georgiana)","ispublic":1,"isfriend":0,"isfamily":0},{"id":"52533560511","owner":"34238008@N02","secret":"f896dc1f16","server":"65535","farm":66,"title":"Swamp Sparrow (Melospiza georgiana)","ispublic":1,"isfriend":0,"isfamily":0},{"id":"52529819999","owner":"28499865@N07","secret":"e70fba1e5b","server":"65535","farm":66,"title":"Swamp Sparrow - Melospiza georgiana","ispublic":1,"isfriend":0,"isfamily":0},{"id":"52526205314","owner":"103722035@N06","secret":"b2560a0c45","server":"65535","farm":66,"title":"Swamp Sparrow (Melospiza georgiana),  Santa Margarita, CA","ispublic":1,"isfriend":0,"isfamily":0},{"id":"52526408970","owner":"103722035@N06","secret":"98424ec966","server":"65535","farm":66,"title":"Swamp Sparrow (Melospiza georgiana),  Santa Margarita, CA","ispublic":1,"isfriend":0,"isfamily":0},{"id":"52525462012","owner":"103722035@N06","secret":"62c34bd905","server":"65535","farm":66,"title":"Swamp Sparrow (Melospiza georgiana),  Santa Margarita, CA","ispublic":1,"isfriend":0,"isfamily":0},{"id":"52525461977","owner":"103722035@N06","secret":"a4f695c5ff","server":"65535","farm":66,"title":"Swamp Sparrow (Melospiza georgiana),  Santa Margarita, CA","ispublic":1,"isfriend":0,"isfamily":0},{"id":"52526477723","owner":"103722035@N06","secret":"d507732354","server":"65535","farm":66,"title":"Swamp Sparrow (Melospiza georgiana),  Santa Margarita, CA","ispublic":1,"isfriend":0,"isfamily":0},{"id":"52525461817","owner":"103722035@N06","secret":"50babdfd5c","server":"65535","farm":66,"title":"Swamp Sparrow (Melospiza georgiana),  Santa Margarita, CA","ispublic":1,"isfriend":0,"isfamily":0},{"id":"52525771775","owner":"88932760@N08","secret":"7edbca7b44","server":"65535","farm":66,"title":"Swamp Sparrow","ispublic":1,"isfriend":0,"isfamily":0},{"id":"52504438249","owner":"49114357@N08","secret":"efd5e772d0","server":"65535","farm":66,"title":"Swamp Sparrow","ispublic":1,"isfriend":0,"isfamily":0},{"id":"52523259725","owner":"38514062@N03","secret":"96f47640f1","server":"65535","farm":66,"title":"Swamp Sparrow (Melospiza georgiana)","ispublic":1,"isfriend":0,"isfamily":0},{"id":"52523147285","owner":"84169650@N07","secret":"615072d807","server":"65535","farm":66,"title":"Swamp Sparrow","ispublic":1,"isfriend":0,"isfamily":0},{"id":"52520063805","owner":"118311568@N08","secret":"15f30c4bde","server":"65535","farm":66,"title":"Lincoln's Sparrow","ispublic":1,"isfriend":0,"isfamily":0},{"id":"52519111537","owner":"118311568@N08","secret":"f4b1d4bf5e","server":"65535","farm":66,"title":"Swamp Sparrow","ispublic":1,"isfriend":0,"isfamily":0},{"id":"52519860899","owner":"118311568@N08","secret":"f301303dd7","server":"65535","farm":66,"title":"Tennessee Warber and Swamp Sparrow","ispublic":1,"isfriend":0,"isfamily":0},{"id":"52516323118","owner":"39445433@N02","secret":"a6d9c622d1","server":"65535","farm":66,"title":"Swamp Sparrow","ispublic":1,"isfriend":0,"isfamily":0},{"id":"52515777226","owner":"39445433@N02","secret":"59a8945aaf","server":"65535","farm":66,"title":"Swamp Sparrow","ispublic":1,"isfriend":0,"isfamily":0},{"id":"52513070394","owner":"39445433@N02","secret":"0f531380bd","server":"65535","farm":66,"title":"Swamp Sparrow","ispublic":1,"isfriend":0,"isfamily":0},{"id":"52513342378","owner":"39445433@N02","secret":"d4b7937840","server":"65535","farm":66,"title":"Swamp Sparrow","ispublic":1,"isfriend":0,"isfamily":0},{"id":"52511940073","owner":"10665268@N04","secret":"62239522dc","server":"65535","farm":66,"title":"Swamp Sparrow, Lincoln Co., OR_4331(1)","ispublic":1,"isfriend":0,"isfamily":0},{"id":"52511940018","owner":"10665268@N04","secret":"c6f6dd72c2","server":"65535","farm":66,"title":"Swamp Sparrow, Lincoln Co., OR_4420(4)","ispublic":1,"isfriend":0,"isfamily":0},{"id":"52511871820","owner":"10665268@N04","secret":"28bbf74a85","server":"65535","farm":66,"title":"Swamp Sparrow, Lincoln Co., OR_4426(1)","ispublic":1,"isfriend":0,"isfamily":0},{"id":"52511871790","owner":"10665268@N04","secret":"227a0edfe2","server":"65535","farm":66,"title":"Swamp Sparrow, Lincoln Co., OR_4306(1)","ispublic":1,"isfriend":0,"isfamily":0},{"id":"52504839711","owner":"11799527@N08","secret":"a940ebb058","server":"65535","farm":66,"title":"Swamp Sparrow","ispublic":1,"isfriend":0,"isfamily":0},{"id":"52502270508","owner":"88932760@N08","secret":"df7536bcba","server":"65535","farm":66,"title":"Swamp Sparrow on a Reed","ispublic":1,"isfriend":0,"isfamily":0},{"id":"52500798240","owner":"98768841@N05","secret":"4240579456","server":"65535","farm":66,"title":"Swamp Sparrow","ispublic":1,"isfriend":0,"isfamily":0},{"id":"52494708949","owner":"39177293@N03","secret":"23fd378521","server":"65535","farm":66,"title":"Swamp Sparrow","ispublic":1,"isfriend":0,"isfamily":0},{"id":"52475072575","owner":"134270033@N06","secret":"c1b3c09d1e","server":"65535","farm":66,"title":"a mellow fellow","ispublic":1,"isfriend":0,"isfamily":0},{"id":"52468877171","owner":"57852199@N03","secret":"4fe15543c5","server":"65535","farm":66,"title":"Swamp Sparrow  (Melospiza georgiana)","ispublic":1,"isfriend":0,"isfamily":0},{"id":"52469155254","owner":"57852199@N03","secret":"9c0250d3ab","server":"65535","farm":66,"title":"Swamp Sparrow (Melospiza georgiana)","ispublic":1,"isfriend":0,"isfamily":0},{"id":"52467568714","owner":"34238008@N02","secret":"eeae46d33b","server":"65535","farm":66,"title":"Swamp Sparrow (Melospiza georgiana)","ispublic":1,"isfriend":0,"isfamily":0},{"id":"52466863793","owner":"151381692@N04","secret":"3ba4e8f5dc","server":"65535","farm":66,"title":"Swamp Sparrow (Melospiza georgiana)","ispublic":1,"isfriend":0,"isfamily":0},{"id":"52465814122","owner":"151381692@N04","secret":"a7d47efc8d","server":"65535","farm":66,"title":"Swamp Sparrow (Melospiza georgiana)","ispublic":1,"isfriend":0,"isfamily":0},{"id":"52466312636","owner":"151381692@N04","secret":"8ca3782dbd","server":"65535","farm":66,"title":"Swamp Sparrow (Melospiza georgiana)","ispublic":1,"isfriend":0,"isfamily":0},{"id":"52466774630","owner":"151381692@N04","secret":"c3185781e4","server":"65535","farm":66,"title":"Swamp Sparrow (Melospiza georgiana)","ispublic":1,"isfriend":0,"isfamily":0},{"id":"52463990757","owner":"34238008@N02","secret":"4f1875882e","server":"65535","farm":66,"title":"Swamp Sparrow (Melospiza georgiana)","ispublic":1,"isfriend":0,"isfamily":0},{"id":"52465040078","owner":"34238008@N02","secret":"043322e08e","server":"65535","farm":66,"title":"Swamp Sparrow (Melospiza georgiana)","ispublic":1,"isfriend":0,"isfamily":0},{"id":"52464955770","owner":"34238008@N02","secret":"552813634c","server":"65535","farm":66,"title":"Swamp Sparrow (Melospiza georgiana)","ispublic":1,"isfriend":0,"isfamily":0},{"id":"52460969762","owner":"48311154@N02","secret":"c4851e86bd","server":"65535","farm":66,"title":"Swamp Sparrow","ispublic":1,"isfriend":0,"isfamily":0},{"id":"52458534036","owner":"59770980@N02","secret":"a92749d6d4","server":"65535","farm":66,"title":"Fenjatitlingur-Swamp Sparrow-Melospiza georgiana","ispublic":1,"isfriend":0,"isfamily":0},{"id":"52456249456","owner":"129803374@N05","secret":"82053bb9b6","server":"65535","farm":66,"title":"Swamp Sparrow (Melospiza georgiana)","ispublic":1,"isfriend":0,"isfamily":0},{"id":"52455066545","owner":"18731552@N00","secret":"1d404c8ff2","server":"65535","farm":66,"title":"Swamp Sparrow 16A0325-Edit.jpg","ispublic":1,"isfriend":0,"isfamily":0},{"id":"52451374417","owner":"18739614@N00","secret":"eb3eab4646","server":"65535","farm":66,"title":"Swamp Sparrow","ispublic":1,"isfriend":0,"isfamily":0},{"id":"52450302752","owner":"39177293@N03","secret":"ebd4f898e4","server":"65535","farm":66,"title":"Swamp Sparrow","ispublic":1,"isfriend":0,"isfamily":0},{"id":"52448643084","owner":"70839498@N04","secret":"797ca5c0ae","server":"65535","farm":66,"title":"Melospiza georgiana Swamp Sparrow NY OCT 221022 3H3A9880","ispublic":1,"isfriend":0,"isfamily":0},{"id":"52447440497","owner":"190122705@N03","secret":"86a3fb63ea","server":"65535","farm":66,"title":"Swamp Sparrow","ispublic":1,"isfriend":0,"isfamily":0},{"id":"52447256609","owner":"128537732@N06","secret":"940cc1d9e7","server":"65535","farm":66,"title":"Swamp Sparrow (Melospiza georgiana)","ispublic":1,"isfriend":0,"isfamily":0},{"id":"52446563026","owner":"145466593@N08","secret":"79b18b1abd","server":"65535","farm":66,"title":"Swamp Sparrow","ispublic":1,"isfriend":0,"isfamily":0},{"id":"52440142084","owner":"130605131@N08","secret":"10daeee4f9","server":"65535","farm":66,"title":"IMG_2483","ispublic":1,"isfriend":0,"isfamily":0},{"id":"52440385568","owner":"130605131@N08","secret":"f26bd12f47","server":"65535","farm":66,"title":"IMG_2484","ispublic":1,"isfriend":0,"isfamily":0},{"id":"52439361917","owner":"130605131@N08","secret":"2fe7c191b4","server":"65535","farm":66,"title":"IMG_2489","ispublic":1,"isfriend":0,"isfamily":0},{"id":"52440317445","owner":"130605131@N08","secret":"8422776105","server":"65535","farm":66,"title":"IMG_2491","ispublic":1,"isfriend":0,"isfamily":0},{"id":"52440141934","owner":"130605131@N08","secret":"0a883dbb71","server":"65535","farm":66,"title":"IMG_2500","ispublic":1,"isfriend":0,"isfamily":0},{"id":"52440141909","owner":"130605131@N08","secret":"18811ff89d","server":"65535","farm":66,"title":"IMG_2501","ispublic":1,"isfriend":0,"isfamily":0},{"id":"52439863206","owner":"130605131@N08","secret":"55eacc9674","server":"65535","farm":66,"title":"IMG_2503","ispublic":1,"isfriend":0,"isfamily":0},{"id":"52439863146","owner":"130605131@N08","secret":"6a8ae9bc90","server":"65535","farm":66,"title":"IMG_2504","ispublic":1,"isfriend":0,"isfamily":0},{"id":"52621660168","owner":"9638954@N07","secret":"a673ecd57c","server":"65535","farm":66,"title":"Swamp Sparrow","ispublic":1,"isfriend":0,"isfamily":0},{"id":"52621615300","owner":"9638954@N07","secret":"2ab705d268","server":"65535","farm":66,"title":"Swamp Sparrow","ispublic":1,"isfriend":0,"isfamily":0},{"id":"52580609304","owner":"153973412@N04","secret":"aaaf96d8aa","server":"65535","farm":66,"title":"Swamp Sparrow-Melospiza georgiana, Cone Marsh, IA","ispublic":1,"isfriend":0,"isfamily":0},{"id":"52563445558","owner":"128537732@N06","secret":"3cf0884413","server":"65535","farm":66,"title":"Swamp Sparrow (Melospiza georgiana)","ispublic":1,"isfriend":0,"isfamily":0},{"id":"52537812156","owner":"126271444@N08","secret":"8384655049","server":"65535","farm":66,"title":"Swamp Sparrow (Melospiza georgiana)","ispublic":1,"isfriend":0,"isfamily":0}]},"stat":"ok"}