{"photos":{"page":1,"pages":97,"perpage":100,"total":9693,"photo":[{"id":"52721508900","owner":"169771858@N03","secret":"c12689f013","server":"65535","farm":66,"title":"Tree Swallow #2 - 2021-05-01","ispublic":1,"isfriend":0,"isfamily":0},{"id":"52717441407","owner":"130140749@N05","secret":"a3c630c9ac","server":"65535","farm":66,"title":"Plushy","ispublic":1,"isfriend":0,"isfamily":0},{"id":"52716407359","owner":"26520320@N03","secret":"2a449ecda5","server":"65535","farm":66,"title":"_BAP0516","ispublic":1,"isfriend":0,"isfamily":0},{"id":"52716147466","owner":"26520320@N03","secret":"8a61f95473","server":"65535","farm":66,"title":"_BAP0512","ispublic":1,"isfriend":0,"isfamily":0},{"id":"52716573645","owner":"26520320@N03","secret":"a4a3b50d2b","server":"65535","farm":66,"title":"_BAP0508","ispublic":1,"isfriend":0,"isfamily":0},{"id":"52708725695","owner":"36142084@N05","secret":"a8c58e717b","server":"65535","farm":66,"title":"R5_008115","ispublic":1,"isfriend":0,"isfamily":0},{"id":"52707789137","owner":"36142084@N05","secret":"603b60d018","server":"65535","farm":66,"title":"R5_008026","ispublic":1,"isfriend":0,"isfamily":0},{"id":"52702435584","owner":"165841515@N03","secret":"d3b322739b","server":"65535","farm":66,"title":"Hirondelle bicolore \/ Tree Swallow \/ (Tachycineta bicolor)","ispublic":1,"isfriend":0,"isfamily":0},{"id":"52702435034","owner":"165841515@N03","secret":"305489dcf1","server":"65535","farm":66,"title":"Hirondelle bicolore \/ Tree Swallow \/ (Tachycineta bicolor)","ispublic":1,"isfriend":0,"isfamily":0},{"id":"52702667083","owner":"165841515@N03","secret":"3f58512895","server":"65535","farm":66,"title":"Hirondelle bicolore \/ Tree Swallow \/ (Tachycineta bicolor)","ispublic":1,"isfriend":0,"isfamily":0},{"id":"52698127974","owner":"195041250@N03","secret":"e2275fb745","server":"65535","farm":66,"title":"Tree Swallow","ispublic":1,"isfriend":0,"isfamily":0},{"id":"52685893135","owner":"169771858@N03","secret":"e7e126bd7c","server":"65535","farm":66,"title":"Tree Swallow #1 - 2021-05-01","ispublic":1,"isfriend":0,"isfamily":0},{"id":"52685221750","owner":"91064752@N03","secret":"d6745de84f","server":"0","farm":0,"title":"Tree Swallows at the Nest Box","ispublic":1,"isfriend":0,"isfamily":0},{"id":"52677236027","owner":"7640100@N02","secret":"c5d62cbcf2","server":"65535","farm":66,"title":"Hirondelle bicolore \/ Tree Swallow [Tachycineta bicolor]","ispublic":1,"isfriend":0,"isfamily":0},{"id":"52675955267","owner":"181920661@N03","secret":"028f5eb79a","server":"65535","farm":66,"title":"Tree Swallow","ispublic":1,"isfriend":0,"isfamily":0},{"id":"52673456016","owner":"46837385@N03","secret":"d5de3d123a","server":"65535","farm":66,"title":"Tree Swallow in Flight","ispublic":1,"isfriend":0,"isfamily":0},{"id":"52670749845","owner":"64862335@N02","secret":"2a48037b57","server":"65535","farm":66,"title":"_MG_5137.jpg","ispublic":1,"isfriend":0,"isfamily":0},{"id":"52669001836","owner":"59898141@N06","secret":"8a1c878b12","server":"65535","farm":66,"title":"Bug Hunting","ispublic":1,"isfriend":0,"isfamily":0},{"id":"52666770091","owner":"99927961@N06","secret":"a684719b8f","server":"65535","farm":66,"title":"Rolf Nagel-Fl-14-2406-Tachycineta bicolor","ispublic":1,"isfriend":0,"isfamily":0},{"id":"52658658741","owner":"169771858@N03","secret":"d1fdb53dc5","server":"65535","farm":66,"title":"Tree Swallow #2 - 2020-06-07","ispublic":1,"isfriend":0,"isfamily":0},{"id":"52650790390","owner":"169771858@N03","secret":"8661fd755a","server":"65535","farm":66,"title":"Tree Swallow #6 - 2020-06-07","ispublic":1,"isfriend":0,"isfamily":0},{"id":"52645538851","owner":"8013969@N03","secret":"fd4e2d624b","server":"65535","farm":66,"title":"Tachycineta bicolor DFL btr22-1","ispublic":1,"isfriend":0,"isfamily":0},{"id":"52644122232","owner":"8013969@N03","secret":"4e456889b1","server":"65535","farm":66,"title":"Tachycineta bicolor DFL PA22-2","ispublic":1,"isfriend":0,"isfamily":0},{"id":"52623274358","owner":"38514062@N03","secret":"a361c89cf4","server":"65535","farm":66,"title":"Tree Swallow (Tachycineta bicolor)","ispublic":1,"isfriend":0,"isfamily":0},{"id":"52621446197","owner":"25335774@N03","secret":"36e47172c9","server":"65535","farm":66,"title":"San Joaquin Marsh-9","ispublic":1,"isfriend":0,"isfamily":0},{"id":"52622435678","owner":"25335774@N03","secret":"efc4758e90","server":"65535","farm":66,"title":"San Joaquin Marsh-10","ispublic":1,"isfriend":0,"isfamily":0},{"id":"52622435633","owner":"25335774@N03","secret":"4d449e3e66","server":"65535","farm":66,"title":"San Joaquin Marsh-11","ispublic":1,"isfriend":0,"isfamily":0},{"id":"52612710637","owner":"64509062@N08","secret":"f6f43c1b38","server":"65535","farm":66,"title":"Tree Swallow","ispublic":1,"isfriend":0,"isfamily":0},{"id":"52609342666","owner":"38514062@N03","secret":"3d21c745d0","server":"65535","farm":66,"title":"Tree Swallow (Tachycineta bicolor)","ispublic":1,"isfriend":0,"isfamily":0},{"id":"52608839332","owner":"38514062@N03","secret":"fa7daa3899","server":"65535","farm":66,"title":"Tree Swallow (Tachycineta bicolor)","ispublic":1,"isfriend":0,"isfamily":0},{"id":"52609763750","owner":"38514062@N03","secret":"1c98b56bab","server":"65535","farm":66,"title":"Tree Swallow (Tachycineta bicolor)","ispublic":1,"isfriend":0,"isfamily":0},{"id":"52607987355","owner":"42034882@N00","secret":"2efa2d3038","server":"65535","farm":66,"title":"Spring, Please","ispublic":1,"isfriend":0,"isfamily":0},{"id":"52602179061","owner":"22798231@N00","secret":"b04c8da6ae","server":"65535","farm":66,"title":"Chicane de cabane","ispublic":1,"isfriend":0,"isfamily":0},{"id":"52593921130","owner":"38514062@N03","secret":"5b8ed27f1e","server":"65535","farm":66,"title":"Tree Swallow (Tachycineta bicolor)","ispublic":1,"isfriend":0,"isfamily":0},{"id":"52592836853","owner":"169771858@N03","secret":"da704227bd","server":"65535","farm":66,"title":"Tree Swallow #9 - 2020-06-07","ispublic":1,"isfriend":0,"isfamily":0},{"id":"52591658885","owner":"76288515@N07","secret":"e91cc49583","server":"65535","farm":66,"title":"Tree Swallow Tachycineta bicolor","ispublic":1,"isfriend":0,"isfamily":0},{"id":"52591493834","owner":"76288515@N07","secret":"f7c139374d","server":"65535","farm":66,"title":"Tree Swallow Tachycineta bicolor","ispublic":1,"isfriend":0,"isfamily":0},{"id":"52591493799","owner":"76288515@N07","secret":"557e172e5e","server":"65535","farm":66,"title":"Tree Swallow Tachycineta bicolor","ispublic":1,"isfriend":0,"isfamily":0},{"id":"52590748847","owner":"76288515@N07","secret":"77dc72d7f5","server":"65535","farm":66,"title":"Tree Swallow Tachycineta bicolor","ispublic":1,"isfriend":0,"isfamily":0},{"id":"52591658770","owner":"76288515@N07","secret":"fd4d44709a","server":"65535","farm":66,"title":"Tree Swallow Tachycineta bicolor","ispublic":1,"isfriend":0,"isfamily":0},{"id":"52590748807","owner":"76288515@N07","secret":"75b49e2d68","server":"65535","farm":66,"title":"Tree Swallow Tachycineta bicolor","ispublic":1,"isfriend":0,"isfamily":0},{"id":"52591493724","owner":"76288515@N07","secret":"c8d6f5b3a5","server":"65535","farm":66,"title":"Tree Swallow Tachycineta bicolor","ispublic":1,"isfriend":0,"isfamily":0},{"id":"52591749543","owner":"76288515@N07","secret":"498640754b","server":"65535","farm":66,"title":"Tree Swallow Tachycineta bicolor","ispublic":1,"isfriend":0,"isfamily":0},{"id":"52591493669","owner":"76288515@N07","secret":"5c77c2860b","server":"65535","farm":66,"title":"Tree Swallow Tachycineta bicolor","ispublic":1,"isfriend":0,"isfamily":0},{"id":"52591236101","owner":"76288515@N07","secret":"0fe9d3da22","server":"65535","farm":66,"title":"Tree Swallow Tachycineta bicolor","ispublic":1,"isfriend":0,"isfamily":0},{"id":"52590748692","owner":"76288515@N07","secret":"21239452b0","server":"65535","farm":66,"title":"Tree Swallow Tachycineta bicolor","ispublic":1,"isfriend":0,"isfamily":0},{"id":"52591078263","owner":"145287509@N03","secret":"4a2accb86e","server":"65535","farm":66,"title":"Tree Swallow (Tachycineta bicolor)","ispublic":1,"isfriend":0,"isfamily":0},{"id":"52588946677","owner":"169771858@N03","secret":"fd6e444716","server":"65535","farm":66,"title":"Tree Swallow #7 - 2020-06-07.","ispublic":1,"isfriend":0,"isfamily":0},{"id":"52585061399","owner":"169771858@N03","secret":"ff3e2712c2","server":"65535","farm":66,"title":"Tree Swallow #5 - 2020-06-07","ispublic":1,"isfriend":0,"isfamily":0},{"id":"52581973678","owner":"169771858@N03","secret":"6bb95d2e31","server":"65535","farm":66,"title":"Tree Swallow #3 - 2020-06-07","ispublic":1,"isfriend":0,"isfamily":0},{"id":"52579736970","owner":"91064752@N03","secret":"802e93c34a","server":"65535","farm":66,"title":"Tree Swallow","ispublic":1,"isfriend":0,"isfamily":0},{"id":"52568450521","owner":"145489125@N03","secret":"119e726bdf","server":"65535","farm":66,"title":"Tree Swallow ( Tachycineta bicolor ) ... Wyoming , USA","ispublic":1,"isfriend":0,"isfamily":0},{"id":"52563614333","owner":"40724294@N04","secret":"6c62895d7c","server":"65535","farm":66,"title":"Tree Swallow","ispublic":1,"isfriend":0,"isfamily":0},{"id":"52539554501","owner":"159284114@N07","secret":"43043c5714","server":"65535","farm":66,"title":"Hirondelle bicolore, Tree swallow","ispublic":1,"isfriend":0,"isfamily":0},{"id":"52538357718","owner":"39617069@N08","secret":"37b7b6fc8c","server":"65535","farm":66,"title":"Tree Swallow","ispublic":1,"isfriend":0,"isfamily":0},{"id":"52480581688","owner":"30638967@N03","secret":"8bca798f68","server":"65535","farm":66,"title":"Tree Swallow DSC_1906","ispublic":1,"isfriend":0,"isfamily":0},{"id":"52479717889","owner":"30638967@N03","secret":"bf575dc3df","server":"65535","farm":66,"title":"Tree Swallow DSC_6950","ispublic":1,"isfriend":0,"isfamily":0},{"id":"52479440901","owner":"30638967@N03","secret":"81aa1381d5","server":"65535","farm":66,"title":"Tree Swallow DSC_6966","ispublic":1,"isfriend":0,"isfamily":0},{"id":"52434848334","owner":"40723658@N05","secret":"5a4d286246","server":"65535","farm":66,"title":"Tree Swallows","ispublic":1,"isfriend":0,"isfamily":0},{"id":"52435010340","owner":"40723658@N05","secret":"a069c3599d","server":"65535","farm":66,"title":"Tree Swallows","ispublic":1,"isfriend":0,"isfamily":0},{"id":"52407861820","owner":"169771858@N03","secret":"703d5924e1","server":"65535","farm":66,"title":"Tree Swallow #1 - 2020-06-07.","ispublic":1,"isfriend":0,"isfamily":0},{"id":"52391030521","owner":"51986662@N05","secret":"09946f1d29","server":"65535","farm":66,"title":"Tree Swallow Karl E Mundt National Wildlife Refuge","ispublic":1,"isfriend":0,"isfamily":0},{"id":"52386986578","owner":"187792860@N04","secret":"1091a4d504","server":"65535","farm":66,"title":"Tree Swallow (Tachycineta bicolor)","ispublic":1,"isfriend":0,"isfamily":0},{"id":"52384635189","owner":"98675522@N06","secret":"8b9c37c8d3","server":"65535","farm":66,"title":"Blustery","ispublic":1,"isfriend":0,"isfamily":0},{"id":"52375392478","owner":"196264892@N08","secret":"7ef52ffc0d","server":"65535","farm":66,"title":"Cliff and Tree Swallows","ispublic":1,"isfriend":0,"isfamily":0},{"id":"52370351452","owner":"135315828@N06","secret":"f31ae905d6","server":"65535","farm":66,"title":"tree swallow","ispublic":1,"isfriend":0,"isfamily":0},{"id":"52366686707","owner":"39445433@N02","secret":"33d3e7bebc","server":"65535","farm":66,"title":"Tree Swallow","ispublic":1,"isfriend":0,"isfamily":0},{"id":"52368051175","owner":"39445433@N02","secret":"727c6975f6","server":"65535","farm":66,"title":"Tree Swallow","ispublic":1,"isfriend":0,"isfamily":0},{"id":"52366686567","owner":"39445433@N02","secret":"fd18161037","server":"65535","farm":66,"title":"Tree Swallow","ispublic":1,"isfriend":0,"isfamily":0},{"id":"52368050735","owner":"39445433@N02","secret":"a217fa8c3c","server":"65535","farm":66,"title":"Tree Swallow","ispublic":1,"isfriend":0,"isfamily":0},{"id":"52366686087","owner":"39445433@N02","secret":"6e3588667c","server":"65535","farm":66,"title":"AJ9A5109","ispublic":1,"isfriend":0,"isfamily":0},{"id":"52368050680","owner":"39445433@N02","secret":"5e8c9058e7","server":"65535","farm":66,"title":"Tree Swallow","ispublic":1,"isfriend":0,"isfamily":0},{"id":"52367860108","owner":"39445433@N02","secret":"ed5c07941c","server":"65535","farm":66,"title":"Tree Swallow","ispublic":1,"isfriend":0,"isfamily":0},{"id":"52368050145","owner":"39445433@N02","secret":"6d8c9c751d","server":"65535","farm":66,"title":"Tree Swallow","ispublic":1,"isfriend":0,"isfamily":0},{"id":"52368050005","owner":"39445433@N02","secret":"68b9198213","server":"65535","farm":66,"title":"Tree Swallow","ispublic":1,"isfriend":0,"isfamily":0},{"id":"52366685212","owner":"39445433@N02","secret":"409abc5d70","server":"65535","farm":66,"title":"Tree Swallow","ispublic":1,"isfriend":0,"isfamily":0},{"id":"52367936689","owner":"39445433@N02","secret":"4a3d146301","server":"65535","farm":66,"title":"Tree Swallow","ispublic":1,"isfriend":0,"isfamily":0},{"id":"52368049560","owner":"39445433@N02","secret":"2238ee368a","server":"65535","farm":66,"title":"Tree Swallow","ispublic":1,"isfriend":0,"isfamily":0},{"id":"52367629421","owner":"39445433@N02","secret":"efcb30ac86","server":"65535","farm":66,"title":"Tree Swallow","ispublic":1,"isfriend":0,"isfamily":0},{"id":"52367936419","owner":"39445433@N02","secret":"5704bb9ca1","server":"65535","farm":66,"title":"Tree Swallow","ispublic":1,"isfriend":0,"isfamily":0},{"id":"52367628746","owner":"39445433@N02","secret":"5428afee86","server":"65535","farm":66,"title":"Tree Swallow","ispublic":1,"isfriend":0,"isfamily":0},{"id":"52363121605","owner":"196264892@N08","secret":"1d202dd1d7","server":"65535","farm":66,"title":"Tree Swallow","ispublic":1,"isfriend":0,"isfamily":0},{"id":"52362697291","owner":"196264892@N08","secret":"46a785cfd8","server":"65535","farm":66,"title":"Tree Swallow","ispublic":1,"isfriend":0,"isfamily":0},{"id":"52363007234","owner":"196264892@N08","secret":"e1d1b8347a","server":"65535","farm":66,"title":"Tree Swallow","ispublic":1,"isfriend":0,"isfamily":0},{"id":"52361759637","owner":"23711298@N07","secret":"5fddd78528","server":"65535","farm":66,"title":"Swallows, Minnesota, Ramsey County- White Bear Lake, Tamarack Nature Center","ispublic":1,"isfriend":0,"isfamily":0},{"id":"52346898558","owner":"125356410@N06","secret":"8fcaffe423","server":"65535","farm":66,"title":"Tree Swallow 2418-12","ispublic":1,"isfriend":0,"isfamily":0},{"id":"52328330980","owner":"39445433@N02","secret":"8f32862a7c","server":"65535","farm":66,"title":"Tree Swallow","ispublic":1,"isfriend":0,"isfamily":0},{"id":"52328191529","owner":"28631427@N00","secret":"fe5fe5f9f7","server":"65535","farm":66,"title":"Tree Swallow 1","ispublic":1,"isfriend":0,"isfamily":0},{"id":"52327894281","owner":"28631427@N00","secret":"1dc5a1d2c3","server":"65535","farm":66,"title":"Tree Swallow 2","ispublic":1,"isfriend":0,"isfamily":0},{"id":"52324090196","owner":"119787485@N07","secret":"95938eb868","server":"65535","farm":66,"title":"Tree Swallow (Tachycineta bicolor) - 20220610-01","ispublic":1,"isfriend":0,"isfamily":0},{"id":"52316945305","owner":"181920661@N03","secret":"8748c806ed","server":"65535","farm":66,"title":"Snack time","ispublic":1,"isfriend":0,"isfamily":0},{"id":"52707789127","owner":"36142084@N05","secret":"00cc3c8625","server":"65535","farm":66,"title":"R5_008113","ispublic":1,"isfriend":0,"isfamily":0},{"id":"52622217564","owner":"25335774@N03","secret":"482f703940","server":"65535","farm":66,"title":"San Joaquin Marsh-8","ispublic":1,"isfriend":0,"isfamily":0},{"id":"52580767883","owner":"153973412@N04","secret":"6037c2c9f2","server":"65535","farm":66,"title":"Tree Swallow-Tachycineta bicolor, Iowa City, IA","ispublic":1,"isfriend":0,"isfamily":0},{"id":"52561254094","owner":"196840457@N07","secret":"a6ed986f4a","server":"65535","farm":66,"title":"Swallow, Tree","ispublic":1,"isfriend":0,"isfamily":0},{"id":"52513975990","owner":"44801995@N02","secret":"85a2e7352c","server":"65535","farm":66,"title":"Tree Swallow Tachycineta bicolor","ispublic":1,"isfriend":0,"isfamily":0},{"id":"52393819602","owner":"28372328@N00","secret":"9e7b0b7433","server":"65535","farm":66,"title":"tree swallows","ispublic":1,"isfriend":0,"isfamily":0},{"id":"52394621184","owner":"28372328@N00","secret":"33ac4155b6","server":"65535","farm":66,"title":"tree swallows over marsh","ispublic":1,"isfriend":0,"isfamily":0},{"id":"52339344759","owner":"39177293@N03","secret":"b0131250c1","server":"65535","farm":66,"title":"Tree Swallow","ispublic":1,"isfriend":0,"isfamily":0},{"id":"52329503321","owner":"39445433@N02","secret":"e64381e5df","server":"65535","farm":66,"title":"Barn Swallow & Tree Swallow","ispublic":1,"isfriend":0,"isfamily":0}]},"stat":"ok"}