{"photos":{"page":1,"pages":64,"perpage":100,"total":6373,"photo":[{"id":"52723355212","owner":"51433704@N06","secret":"fb837cf49d","server":"65535","farm":66,"title":"Tricolored Heron","ispublic":1,"isfriend":0,"isfamily":0},{"id":"52718207271","owner":"121644485@N06","secret":"e464366298","server":"65535","farm":66,"title":"Tri-colored Heron","ispublic":1,"isfriend":0,"isfamily":0},{"id":"52715396675","owner":"51433704@N06","secret":"3ff1cf08b0","server":"65535","farm":66,"title":"Tricolored Heron","ispublic":1,"isfriend":0,"isfamily":0},{"id":"52712775941","owner":"161505078@N03","secret":"deeb34543c","server":"65535","farm":66,"title":"Tricolored Heron (Egretta tricolor)","ispublic":1,"isfriend":0,"isfamily":0},{"id":"52709603037","owner":"184303926@N04","secret":"256203998b","server":"65535","farm":66,"title":"Tricolored Heron","ispublic":1,"isfriend":0,"isfamily":0},{"id":"52706443409","owner":"38514062@N03","secret":"cdbf184cd4","server":"65535","farm":66,"title":"Tricolored Heron (Egretta tricolor)","ispublic":1,"isfriend":0,"isfamily":0},{"id":"52705906998","owner":"53239956@N06","secret":"cf3d472776","server":"65535","farm":66,"title":"Posing pretty","ispublic":1,"isfriend":0,"isfamily":0},{"id":"52702054443","owner":"66635017@N02","secret":"d538ca8efa","server":"65535","farm":66,"title":"Success!  DSC_1833Feb 20 2023","ispublic":1,"isfriend":0,"isfamily":0},{"id":"52697516592","owner":"128369733@N04","secret":"ce6a1db0b6","server":"65535","farm":66,"title":"On A Sunday Morning Walk (5)","ispublic":1,"isfriend":0,"isfamily":0},{"id":"52697344103","owner":"124995824@N08","secret":"70bb864da5","server":"65535","farm":66,"title":"Tricolored Heron - Egretta tricolor","ispublic":1,"isfriend":0,"isfamily":0},{"id":"52695767656","owner":"95608863@N05","secret":"35db1609bb","server":"65535","farm":66,"title":"Tricolored Heron-1","ispublic":1,"isfriend":0,"isfamily":0},{"id":"52694810155","owner":"74787113@N05","secret":"a0a64b0885","server":"65535","farm":66,"title":"TRICOLORED HERON NESTING","ispublic":1,"isfriend":0,"isfamily":0},{"id":"52694709110","owner":"51433704@N06","secret":"d644945c08","server":"65535","farm":66,"title":"Tricolored Heron","ispublic":1,"isfriend":0,"isfamily":0},{"id":"52689066727","owner":"66550674@N06","secret":"542205ea95","server":"65535","farm":66,"title":"Tricolored Heron","ispublic":1,"isfriend":0,"isfamily":0},{"id":"52689440369","owner":"124995824@N08","secret":"1fed1a9505","server":"65535","farm":66,"title":"Tricolored Heron - Egretta tricolor","ispublic":1,"isfriend":0,"isfamily":0},{"id":"52689637743","owner":"88932760@N08","secret":"3757d394ff","server":"65535","farm":66,"title":"Backlit Tricolor","ispublic":1,"isfriend":0,"isfamily":0},{"id":"52682075989","owner":"51433704@N06","secret":"897d2cc153","server":"65535","farm":66,"title":"Tricolored Heron","ispublic":1,"isfriend":0,"isfamily":0},{"id":"52678569617","owner":"88932760@N08","secret":"8410a8e8c1","server":"65535","farm":66,"title":"Sunny Disposition","ispublic":1,"isfriend":0,"isfamily":0},{"id":"52678569197","owner":"88932760@N08","secret":"267c82fac4","server":"65535","farm":66,"title":"Shady","ispublic":1,"isfriend":0,"isfamily":0},{"id":"52676809731","owner":"187996196@N05","secret":"3ceb9d1ae9","server":"65535","farm":66,"title":"Dreifarbenreiher \/ Tricolored heron \/ Egretta tricolor","ispublic":1,"isfriend":0,"isfamily":0},{"id":"52676504343","owner":"8561740@N08","secret":"ed04de2a63","server":"65535","farm":66,"title":"Poised for action","ispublic":1,"isfriend":0,"isfamily":0},{"id":"52676011676","owner":"8561740@N08","secret":"4864e65d61","server":"65535","farm":66,"title":"Making a splash","ispublic":1,"isfriend":0,"isfamily":0},{"id":"52674897206","owner":"52450054@N04","secret":"c1f58be4d5","server":"65535","farm":66,"title":"Tricolored Heron - Egretta tricolor, Cypress Wetlands, Port Royal, South Carolina, May 18, 2022","ispublic":1,"isfriend":0,"isfamily":0},{"id":"52665295312","owner":"21584095@N00","secret":"3b14a1122a","server":"65535","farm":66,"title":"Tri-colored Heron (Egretta tricolor)","ispublic":1,"isfriend":0,"isfamily":0},{"id":"52665148512","owner":"66550674@N06","secret":"d9591befef","server":"65535","farm":66,"title":"Tricolored Heron","ispublic":1,"isfriend":0,"isfamily":0},{"id":"52659054163","owner":"12639178@N07","secret":"a03c02205d","server":"65535","farm":66,"title":"Dreifarbenreiher hinter Ast-und Bl\u00e4ttergewirr","ispublic":1,"isfriend":0,"isfamily":0},{"id":"52657850345","owner":"124995824@N08","secret":"27644303d7","server":"65535","farm":66,"title":"Tricolored Heron - Egretta tricolor","ispublic":1,"isfriend":0,"isfamily":0},{"id":"52656274242","owner":"35170601@N06","secret":"da19477b4a","server":"65535","farm":66,"title":"wading deep","ispublic":1,"isfriend":0,"isfamily":0},{"id":"52650601344","owner":"88932760@N08","secret":"90a275cb6f","server":"65535","farm":66,"title":"Strike Force","ispublic":1,"isfriend":0,"isfamily":0},{"id":"52650094936","owner":"124995824@N08","secret":"42a8bfee2b","server":"65535","farm":66,"title":"Tricolored Heron - Egretta tricolor","ispublic":1,"isfriend":0,"isfamily":0},{"id":"52647065521","owner":"67164820@N06","secret":"ba7ee9afba","server":"65535","farm":66,"title":"tricolored heron 2","ispublic":1,"isfriend":0,"isfamily":0},{"id":"52646560057","owner":"67164820@N06","secret":"d84ee922bb","server":"65535","farm":66,"title":"tricolored heron 4","ispublic":1,"isfriend":0,"isfamily":0},{"id":"52647545668","owner":"67164820@N06","secret":"1bc039a119","server":"65535","farm":66,"title":"tricolored heron and fish","ispublic":1,"isfriend":0,"isfamily":0},{"id":"52646724073","owner":"145466593@N08","secret":"0688287f3a","server":"65535","farm":66,"title":"Tricolored Heron","ispublic":1,"isfriend":0,"isfamily":0},{"id":"52644805207","owner":"161505078@N03","secret":"87fa32d170","server":"65535","farm":66,"title":"Tricolored Heron Juvenile (Egretta tricolor)","ispublic":1,"isfriend":0,"isfamily":0},{"id":"52645085059","owner":"161505078@N03","secret":"99f36f0312","server":"65535","farm":66,"title":"Tricolored Heron Juvenile (Egretta tricolor)","ispublic":1,"isfriend":0,"isfamily":0},{"id":"52644702371","owner":"8013969@N03","secret":"07aeb3749e","server":"65535","farm":66,"title":"Egretta tricolor DFL nj22","ispublic":1,"isfriend":0,"isfamily":0},{"id":"52640962081","owner":"189423275@N04","secret":"bb7faf0965","server":"65535","farm":66,"title":"Tricolored Heron Ready to Take Flight","ispublic":1,"isfriend":0,"isfamily":0},{"id":"52640170726","owner":"106859390@N03","secret":"ba56eb0a14","server":"65535","farm":66,"title":"Garza tricolor, Tricolored heron, Egretta tricolor","ispublic":1,"isfriend":0,"isfamily":0},{"id":"52638051999","owner":"47533293@N04","secret":"999eff32c9","server":"65535","farm":66,"title":"Tricolored heron, Egretta tricolor","ispublic":1,"isfriend":0,"isfamily":0},{"id":"52628747596","owner":"7856934@N03","secret":"873afce0e4","server":"65535","farm":66,"title":"Tricolored Heron","ispublic":1,"isfriend":0,"isfamily":0},{"id":"52625048624","owner":"33814246@N00","secret":"6a5f0d2006","server":"65535","farm":66,"title":"IMG_9724-1","ispublic":1,"isfriend":0,"isfamily":0},{"id":"52619395572","owner":"39138537@N06","secret":"31b7db8083","server":"65535","farm":66,"title":"35mm Slide to Digital - Tricolored Heron (Egretta tricolor)","ispublic":1,"isfriend":0,"isfamily":0},{"id":"52619577704","owner":"145466593@N08","secret":"7d46b787b8","server":"65535","farm":66,"title":"Tri-colored Heron","ispublic":1,"isfriend":0,"isfamily":0},{"id":"52619628173","owner":"88932760@N08","secret":"74eabf25ab","server":"65535","farm":66,"title":"Deep Reflections","ispublic":1,"isfriend":0,"isfamily":0},{"id":"52613671888","owner":"90355165@N03","secret":"e525b4a80c","server":"65535","farm":66,"title":"tricolored heron","ispublic":1,"isfriend":0,"isfamily":0},{"id":"52613182656","owner":"90355165@N03","secret":"3933a08ef6","server":"65535","farm":66,"title":"tricolored heron","ispublic":1,"isfriend":0,"isfamily":0},{"id":"52609985612","owner":"7856934@N03","secret":"4a702f6936","server":"65535","farm":66,"title":"Tricolored Heron","ispublic":1,"isfriend":0,"isfamily":0},{"id":"52609064537","owner":"53239956@N06","secret":"461dc939be","server":"65535","farm":66,"title":"Don't bother me I'm thinking","ispublic":1,"isfriend":0,"isfamily":0},{"id":"52606709975","owner":"124450184@N05","secret":"eed58010ff","server":"65535","farm":66,"title":"I'm so pretty.........","ispublic":1,"isfriend":0,"isfamily":0},{"id":"52586857641","owner":"51433704@N06","secret":"948040d692","server":"65535","farm":66,"title":"Tricolored Heron","ispublic":1,"isfriend":0,"isfamily":0},{"id":"52579598258","owner":"161505078@N03","secret":"d734f7f9f9","server":"65535","farm":66,"title":"Tricolored Heron (Egretta tricolor)","ispublic":1,"isfriend":0,"isfamily":0},{"id":"52579574778","owner":"161505078@N03","secret":"7f8227e6dd","server":"65535","farm":66,"title":"Tricolored Heron (Egretta tricolor)","ispublic":1,"isfriend":0,"isfamily":0},{"id":"52573219706","owner":"53239956@N06","secret":"99c998d96d","server":"65535","farm":66,"title":"Not sure why","ispublic":1,"isfriend":0,"isfamily":0},{"id":"52569053212","owner":"88932760@N08","secret":"974340b229","server":"65535","farm":66,"title":"The Proudest Bird Around","ispublic":1,"isfriend":0,"isfamily":0},{"id":"52568944634","owner":"92567405@N03","secret":"6c3a80a208","server":"65535","farm":66,"title":"Tricolored Heron (Egreta tricolor) 12.11.22","ispublic":1,"isfriend":0,"isfamily":0},{"id":"52567857921","owner":"53239956@N06","secret":"a09f265aa1","server":"65535","farm":66,"title":"He's got styyyyle!!!","ispublic":1,"isfriend":0,"isfamily":0},{"id":"52561111404","owner":"52450054@N04","secret":"a34e2d5073","server":"65535","farm":66,"title":"Tricolored Heron - Egretta tricolor, Wakodahatchee Wetlands, Boynton Beach, Florida, February 7, 2022","ispublic":1,"isfriend":0,"isfamily":0},{"id":"51007241512","owner":"131779834@N08","secret":"a5686a3049","server":"65535","farm":66,"title":"Getting a Leg Up","ispublic":1,"isfriend":0,"isfamily":0},{"id":"52547565710","owner":"88932760@N08","secret":"5e277a57d3","server":"65535","farm":66,"title":"Tricolor Monochrome Silhouette","ispublic":1,"isfriend":0,"isfamily":0},{"id":"52546149918","owner":"53239956@N06","secret":"852bfa385a","server":"65535","farm":66,"title":"But it was there this morning","ispublic":1,"isfriend":0,"isfamily":0},{"id":"52541298674","owner":"33610210@N05","secret":"776041729c","server":"65535","farm":66,"title":"Tricolored Heron, Egretta tricolor","ispublic":1,"isfriend":0,"isfamily":0},{"id":"52538385497","owner":"33610210@N05","secret":"b1f177c961","server":"65535","farm":66,"title":"Tri-colored Heron, Egretta tricolor","ispublic":1,"isfriend":0,"isfamily":0},{"id":"52538094454","owner":"88932760@N08","secret":"2c7df21a12","server":"65535","farm":66,"title":"Coy Tricolor","ispublic":1,"isfriend":0,"isfamily":0},{"id":"52534320453","owner":"88932760@N08","secret":"f049b5a406","server":"65535","farm":66,"title":"A Surprising Experience","ispublic":1,"isfriend":0,"isfamily":0},{"id":"52532743541","owner":"196786375@N03","secret":"db9c3567e7","server":"65535","farm":66,"title":"Tricolored Heron","ispublic":1,"isfriend":0,"isfamily":0},{"id":"52530821223","owner":"53239956@N06","secret":"4f5d937769","server":"65535","farm":66,"title":"Sir Lance A Lot pursues his next meal","ispublic":1,"isfriend":0,"isfamily":0},{"id":"52521478425","owner":"65788177@N02","secret":"2af7c9df37","server":"65535","farm":66,"title":"Tricolored Heron","ispublic":1,"isfriend":0,"isfamily":0},{"id":"52515691566","owner":"124995824@N08","secret":"56ec7ccd00","server":"65535","farm":66,"title":"Tricolored Heron - Egretta tricolor","ispublic":1,"isfriend":0,"isfamily":0},{"id":"52510701561","owner":"88932760@N08","secret":"97407586b5","server":"65535","farm":66,"title":"Knee-deep","ispublic":1,"isfriend":0,"isfamily":0},{"id":"52508373397","owner":"93273765@N05","secret":"e4f06bee31","server":"65535","farm":66,"title":"Tricolored Heron (Egretta tricolor)","ispublic":1,"isfriend":0,"isfamily":0},{"id":"52503268649","owner":"42964440@N08","secret":"a8f9e018e6","server":"65535","farm":66,"title":"Reddish Egret In Mating Plumage (Egretta rufescens)","ispublic":1,"isfriend":0,"isfamily":0},{"id":"52499024048","owner":"42964440@N08","secret":"1251a82f70","server":"65535","farm":66,"title":"Tri-colored Heron (Egretta tricolor)","ispublic":1,"isfriend":0,"isfamily":0},{"id":"52497583116","owner":"44034115@N08","secret":"a1cf052589","server":"65535","farm":66,"title":"Walking on Water Lettuce on the Ichetucknee","ispublic":1,"isfriend":0,"isfamily":0},{"id":"52495552440","owner":"40941741@N03","secret":"1dd9ffa293","server":"65535","farm":66,"title":"Tricolored Heron","ispublic":1,"isfriend":0,"isfamily":0},{"id":"52494297166","owner":"52450054@N04","secret":"009ff00b0d","server":"65535","farm":66,"title":"Tricolored Heron - Egretta tricolor, Wakodahatchee Wetlands, Boynton Beach, Florida, February 7, 2022","ispublic":1,"isfriend":0,"isfamily":0},{"id":"52490077457","owner":"7856934@N03","secret":"b5019ef17b","server":"65535","farm":66,"title":"Tricolored Heron","ispublic":1,"isfriend":0,"isfamily":0},{"id":"52488070528","owner":"77671375@N04","secret":"795f7030c6","server":"65535","farm":66,"title":"Tricolored Heron","ispublic":1,"isfriend":0,"isfamily":0},{"id":"52487990000","owner":"77671375@N04","secret":"102cf3f0d8","server":"65535","farm":66,"title":"Tricolored Heron","ispublic":1,"isfriend":0,"isfamily":0},{"id":"52484568840","owner":"7856934@N03","secret":"7c2b2f4e90","server":"65535","farm":66,"title":"Tricolored Heron","ispublic":1,"isfriend":0,"isfamily":0},{"id":"52482168973","owner":"29380771@N06","secret":"9250e170da","server":"65535","farm":66,"title":"Tricolored Heron with Moon at Dusk","ispublic":1,"isfriend":0,"isfamily":0},{"id":"52480712686","owner":"182515684@N02","secret":"2fd3b2e316","server":"65535","farm":66,"title":"Juvenile Tricolored Heron \u2026 P6761-276","ispublic":1,"isfriend":0,"isfamily":0},{"id":"52474421702","owner":"7856934@N03","secret":"e3e9002862","server":"65535","farm":66,"title":"Foot Race!","ispublic":1,"isfriend":0,"isfamily":0},{"id":"52470020962","owner":"7856934@N03","secret":"e271d9b3b7","server":"65535","farm":66,"title":"Tricolored Heron","ispublic":1,"isfriend":0,"isfamily":0},{"id":"52468278594","owner":"40941741@N03","secret":"a47f3d8fd6","server":"65535","farm":66,"title":"Juvenile Tricolored Heron","ispublic":1,"isfriend":0,"isfamily":0},{"id":"52457783222","owner":"88932760@N08","secret":"59020a3c21","server":"65535","farm":66,"title":"Tricolored Heron Portrait","ispublic":1,"isfriend":0,"isfamily":0},{"id":"52457347750","owner":"66550674@N06","secret":"052e86f88b","server":"65535","farm":66,"title":"Tricolored Heron","ispublic":1,"isfriend":0,"isfamily":0},{"id":"52454433900","owner":"40941741@N03","secret":"3a5f9434d4","server":"65535","farm":66,"title":"Let's all just Get Along","ispublic":1,"isfriend":0,"isfamily":0},{"id":"52438252707","owner":"51433704@N06","secret":"c5b66b123a","server":"65535","farm":66,"title":"Tricolored Heron","ispublic":1,"isfriend":0,"isfamily":0},{"id":"52435701216","owner":"45856030@N08","secret":"bb26b18a97","server":"65535","farm":66,"title":"Tricolor Heron","ispublic":1,"isfriend":0,"isfamily":0},{"id":"52424421729","owner":"42964440@N08","secret":"3b3c00acb2","server":"65535","farm":66,"title":"Juvenile Tri-colored Heron Portrait (Egretta tricolor)","ispublic":1,"isfriend":0,"isfamily":0},{"id":"52418849030","owner":"106859390@N03","secret":"6dc43f88a3","server":"65535","farm":66,"title":"Garza tricolor, Tricolored heron, Egretta tricolor","ispublic":1,"isfriend":0,"isfamily":0},{"id":"52415114174","owner":"91936841@N08","secret":"f5b949b218","server":"65535","farm":66,"title":"Young Tricoloured Heron hunting at Arthur R Marshall Loxahatchee National Wildlife Refuge FL .","ispublic":1,"isfriend":0,"isfamily":0},{"id":"52414829081","owner":"91936841@N08","secret":"308999be79","server":"65535","farm":66,"title":"Young Tricoloured Heron hunting at Arthur R Marshall Loxahatchee National Wildlife Refuge FL .","ispublic":1,"isfriend":0,"isfamily":0},{"id":"52415272200","owner":"91936841@N08","secret":"3cc09e6b7d","server":"65535","farm":66,"title":"Young Tricoloured Heron hunting at Arthur R Marshall Loxahatchee National Wildlife Refuge FL .","ispublic":1,"isfriend":0,"isfamily":0},{"id":"52405250083","owner":"62848917@N07","secret":"6cd006e602","server":"65535","farm":66,"title":"Tricolored Heron - Egretta tricolor","ispublic":1,"isfriend":0,"isfamily":0},{"id":"52405198753","owner":"88932760@N08","secret":"f8cf9e6aa3","server":"65535","farm":66,"title":"Intent #1","ispublic":1,"isfriend":0,"isfamily":0},{"id":"52399614401","owner":"51433704@N06","secret":"6fab613c5a","server":"65535","farm":66,"title":"Tricolored Heron","ispublic":1,"isfriend":0,"isfamily":0},{"id":"52397072382","owner":"88932760@N08","secret":"f86e1869fa","server":"65535","farm":66,"title":"Sunlit Tricolored Portrait","ispublic":1,"isfriend":0,"isfamily":0},{"id":"52417896667","owner":"106859390@N03","secret":"c6cc360c36","server":"65535","farm":66,"title":"Garza tricolor, Tricolored heron, Egretta tricolor","ispublic":1,"isfriend":0,"isfamily":0}]},"stat":"ok"}