{"photos":{"page":1,"pages":57,"perpage":100,"total":5693,"photo":[{"id":"52723426099","owner":"8654297@N06","secret":"3b61d5a3b2","server":"65535","farm":66,"title":"On the edge","ispublic":1,"isfriend":0,"isfamily":0},{"id":"52718213431","owner":"84169650@N07","secret":"9f35edf570","server":"65535","farm":66,"title":"Tufted Titmouse","ispublic":1,"isfriend":0,"isfamily":0},{"id":"52715931152","owner":"160542269@N02","secret":"8f05ff170b","server":"65535","farm":66,"title":"a cute angle","ispublic":1,"isfriend":0,"isfamily":0},{"id":"52712664702","owner":"130140749@N05","secret":"08e1bfb3fd","server":"65535","farm":66,"title":"Waiting Its Turn","ispublic":1,"isfriend":0,"isfamily":0},{"id":"52712877154","owner":"81058247@N08","secret":"f9048dbff6","server":"65535","farm":66,"title":"Tufted Titmouse (Baeolophus bicolor)","ispublic":1,"isfriend":0,"isfamily":0},{"id":"52712428472","owner":"124995824@N08","secret":"26a4648d22","server":"65535","farm":66,"title":"Tufted Titmouse - Baeolophus bicolor","ispublic":1,"isfriend":0,"isfamily":0},{"id":"52708715913","owner":"37242840@N07","secret":"718217c092","server":"65535","farm":66,"title":"Tufted Titmouse, Baeolophus bicolor (1)","ispublic":1,"isfriend":0,"isfamily":0},{"id":"52708644495","owner":"37242840@N07","secret":"575547ac0b","server":"65535","farm":66,"title":"Tufted Titmouse, Baeolophus bicolor (5)","ispublic":1,"isfriend":0,"isfamily":0},{"id":"52707708562","owner":"37242840@N07","secret":"4aac2a75a4","server":"65535","farm":66,"title":"Tufted Titmouse, Baeolophus bicolor (14)","ispublic":1,"isfriend":0,"isfamily":0},{"id":"52708644360","owner":"37242840@N07","secret":"28d2e1d0c6","server":"65535","farm":66,"title":"Tufted Titmouse, Baeolophus bicolor (16)","ispublic":1,"isfriend":0,"isfamily":0},{"id":"52708224556","owner":"161505078@N03","secret":"18d413c364","server":"65535","farm":66,"title":"Tufted Titmouse (Baeolophus bicolor)","ispublic":1,"isfriend":0,"isfamily":0},{"id":"52708210151","owner":"161505078@N03","secret":"283ef62aa5","server":"65535","farm":66,"title":"Tufted Titmouse (Baeolophus bicolor)","ispublic":1,"isfriend":0,"isfamily":0},{"id":"52708476475","owner":"187124972@N03","secret":"19ba668e3d","server":"65535","farm":66,"title":"M\u00c9SANGE BICOLORE \/ TUFTED TITMOUSE (Baeolophus bicolor)","ispublic":1,"isfriend":0,"isfamily":0},{"id":"52708548623","owner":"187124972@N03","secret":"02a4fe98d6","server":"65535","farm":66,"title":"M\u00c9SANGE BICOLORE \/ TUFTED TITMOUSE (Baeolophus bicolor)","ispublic":1,"isfriend":0,"isfamily":0},{"id":"52707456266","owner":"57126723@N07","secret":"c3062d18f3","server":"65535","farm":66,"title":"Tufted titmouse\u2014Baeolophus bicolor\u2014Paridae-","ispublic":1,"isfriend":0,"isfamily":0},{"id":"52706930907","owner":"57126723@N07","secret":"899a269482","server":"65535","farm":66,"title":"Tufted titmouse\u2014Baeolophus bicolor\u2014Paridae-9113-Edit","ispublic":1,"isfriend":0,"isfamily":0},{"id":"52707456221","owner":"57126723@N07","secret":"9a66f767f7","server":"65535","farm":66,"title":"Tufted titmouse\u2014Baeolophus bicolor\u2014Paridae-9119-Edit","ispublic":1,"isfriend":0,"isfamily":0},{"id":"52707705434","owner":"57126723@N07","secret":"531e79ec3c","server":"65535","farm":66,"title":"Tufted titmouse\u2014Baeolophus bicolor\u2014Paridae-9114-Edit","ispublic":1,"isfriend":0,"isfamily":0},{"id":"52707939328","owner":"57126723@N07","secret":"a90fd4ce18","server":"65535","farm":66,"title":"Tufted titmouse\u2014Baeolophus bicolor\u2014Paridae-9115-Edit","ispublic":1,"isfriend":0,"isfamily":0},{"id":"52706127256","owner":"70295563@N00","secret":"ebdaba3bed","server":"65535","farm":66,"title":"Hang on tight","ispublic":1,"isfriend":0,"isfamily":0},{"id":"52703703929","owner":"84169650@N07","secret":"1d6baefe14","server":"65535","farm":66,"title":"Tufted Titmouse","ispublic":1,"isfriend":0,"isfamily":0},{"id":"52701784579","owner":"165072144@N05","secret":"c595f4f6d6","server":"65535","farm":66,"title":"Tufted Titmouse (Baeolophus bicolor)","ispublic":1,"isfriend":0,"isfamily":0},{"id":"52700664621","owner":"84169650@N07","secret":"078112e327","server":"65535","farm":66,"title":"Tufted Titmouse","ispublic":1,"isfriend":0,"isfamily":0},{"id":"52700921814","owner":"84169650@N07","secret":"87b121e25d","server":"65535","farm":66,"title":"Tufted Titmouse","ispublic":1,"isfriend":0,"isfamily":0},{"id":"52698512312","owner":"99228543@N04","secret":"87d73950d3","server":"65535","farm":66,"title":"tufted titmouse (Baeolophus bicolor)","ispublic":1,"isfriend":0,"isfamily":0},{"id":"52698678310","owner":"8654297@N06","secret":"57b840d3bd","server":"65535","farm":66,"title":"Straight on","ispublic":1,"isfriend":0,"isfamily":0},{"id":"52697792965","owner":"10260434@N03","secret":"b0df9e4cab","server":"65535","farm":66,"title":"Titmouse in pine-13Jan23","ispublic":1,"isfriend":0,"isfamily":0},{"id":"52696832627","owner":"10260434@N03","secret":"23ed065bb9","server":"65535","farm":66,"title":"Tufted Titmouse-10Jan23","ispublic":1,"isfriend":0,"isfamily":0},{"id":"52697764235","owner":"10260434@N03","secret":"664237aae9","server":"65535","farm":66,"title":"Titmouse in pine-14Jan23","ispublic":1,"isfriend":0,"isfamily":0},{"id":"52696711524","owner":"10260434@N03","secret":"9cc7655684","server":"65535","farm":66,"title":"Tufted Titmouse-24Dec22","ispublic":1,"isfriend":0,"isfamily":0},{"id":"52696843535","owner":"10260434@N03","secret":"27c6fc83d5","server":"65535","farm":66,"title":"Tufted Titmouse-24Dec22","ispublic":1,"isfriend":0,"isfamily":0},{"id":"52695868520","owner":"10260434@N03","secret":"b22d93a93d","server":"65535","farm":66,"title":"Tufted Titmouse-20Dec22","ispublic":1,"isfriend":0,"isfamily":0},{"id":"52695789554","owner":"10260434@N03","secret":"52a05a5f5d","server":"65535","farm":66,"title":"Tufted Titmouse-19Dec22","ispublic":1,"isfriend":0,"isfamily":0},{"id":"52689869528","owner":"160542269@N02","secret":"987357160c","server":"65535","farm":66,"title":"tufted titmouse crest detail","ispublic":1,"isfriend":0,"isfamily":0},{"id":"52689415824","owner":"81058247@N08","secret":"e1c6ecddf3","server":"65535","farm":66,"title":"Tufted Titmouse (Baeolophus bicolor)","ispublic":1,"isfriend":0,"isfamily":0},{"id":"52688619472","owner":"81058247@N08","secret":"8116cec795","server":"65535","farm":66,"title":"Tufted Titmouse (Baeolophus bicolor)","ispublic":1,"isfriend":0,"isfamily":0},{"id":"52689210938","owner":"100108154@N02","secret":"342b0a7f14","server":"65535","farm":66,"title":"Look Who Stopped By My Feeder Yesterday","ispublic":1,"isfriend":0,"isfamily":0},{"id":"52687924757","owner":"70295563@N00","secret":"3e6a1bd58e","server":"65535","farm":66,"title":"Angry bird","ispublic":1,"isfriend":0,"isfamily":0},{"id":"52685260798","owner":"136620261@N06","secret":"a07c69a179","server":"65535","farm":66,"title":"M\u00e9sange bicolore, Baeolophus bicolor, Tufted Titmouse-4301-Edit.jpg","ispublic":1,"isfriend":0,"isfamily":0},{"id":"52683034554","owner":"39445433@N02","secret":"8895b05826","server":"65535","farm":66,"title":"024A1282","ispublic":1,"isfriend":0,"isfamily":0},{"id":"52680286767","owner":"111701633@N07","secret":"7344f3fb09","server":"65535","farm":66,"title":"MAS IRWS Tufted_Titmouse","ispublic":1,"isfriend":0,"isfamily":0},{"id":"52679437165","owner":"85391626@N07","secret":"9c153c1b4b","server":"65535","farm":66,"title":"Tufted Titmouse","ispublic":1,"isfriend":0,"isfamily":0},{"id":"52679326213","owner":"130140749@N05","secret":"45767052d8","server":"65535","farm":66,"title":"Tufted Titmouse (Baeolophus bicolor)","ispublic":1,"isfriend":0,"isfamily":0},{"id":"52678995198","owner":"187124972@N03","secret":"8eda7321c4","server":"65535","farm":66,"title":"M\u00c9SANGE BICOLORE \/ TUFTED TITMOUSE (Baeolophus bicolor)","ispublic":1,"isfriend":0,"isfamily":0},{"id":"52677666128","owner":"195642998@N04","secret":"92fb12abc1","server":"65535","farm":66,"title":"Tufted Titmouse (Baeolophus bicolor)","ispublic":1,"isfriend":0,"isfamily":0},{"id":"52676042983","owner":"50554329@N04","secret":"96a95e50ab","server":"65535","farm":66,"title":"Tufted Titmouse","ispublic":1,"isfriend":0,"isfamily":0},{"id":"52675783715","owner":"85391626@N07","secret":"d3f2122679","server":"65535","farm":66,"title":"Tufted Titmouse","ispublic":1,"isfriend":0,"isfamily":0},{"id":"52675232469","owner":"21584095@N00","secret":"2dcfd145f8","server":"65535","farm":66,"title":"Tufted Titmouse (Baeolophus bicolor)","ispublic":1,"isfriend":0,"isfamily":0},{"id":"52674827213","owner":"146625998@N05","secret":"d8a58acdfa","server":"65535","farm":66,"title":"Tufted Titmouse","ispublic":1,"isfriend":0,"isfamily":0},{"id":"52671036717","owner":"197628215@N07","secret":"9c62ff374c","server":"65535","farm":66,"title":"Tufted Titmouse (Baeolophus bicolor) 01\/26\/2023 #tuftedtitmouse #bestbackroad #bestbackroads #natgeoyourshots #natgeo100contest #rutlandcountyvermont #rutlandcountyvt #washingtoncountynewyork #washingtoncountyny #whitehallnewyork #wildphotography #naturep","ispublic":1,"isfriend":0,"isfamily":0},{"id":"52670671558","owner":"22463805@N04","secret":"5421042e0b","server":"65535","farm":66,"title":"Tufted Titmouse","ispublic":1,"isfriend":0,"isfamily":0},{"id":"52670050815","owner":"44034115@N08","secret":"7010448029","server":"65535","farm":66,"title":"Look at the Tufted Titmouse","ispublic":1,"isfriend":0,"isfamily":0},{"id":"52666735725","owner":"45340210@N05","secret":"4b5fc75e90","server":"65535","farm":66,"title":"Tufted Titmouse In the Rain 1_31_23","ispublic":1,"isfriend":0,"isfamily":0},{"id":"52663205372","owner":"8605287@N03","secret":"77ca3eb81b","server":"65535","farm":66,"title":"Paridae: Baeolophus bicolor - Tufted Titmouse","ispublic":1,"isfriend":0,"isfamily":0},{"id":"52661555623","owner":"8654297@N06","secret":"db6944cd54","server":"65535","farm":66,"title":"Winter titmouse","ispublic":1,"isfriend":0,"isfamily":0},{"id":"52660632293","owner":"44034115@N08","secret":"0219bd4c42","server":"65535","farm":66,"title":"Tough Nut to Crack Tufted Titmouse","ispublic":1,"isfriend":0,"isfamily":0},{"id":"52659562179","owner":"195642998@N04","secret":"5da3c45a4e","server":"65535","farm":66,"title":"Tufted Titmouse (Baeolophus bicolor)","ispublic":1,"isfriend":0,"isfamily":0},{"id":"52656689470","owner":"22385343@N04","secret":"e78be1bd41","server":"65535","farm":66,"title":"24 JANUARY 2023 - Tufted Titmouse - Baeolophus bicolor","ispublic":1,"isfriend":0,"isfamily":0},{"id":"52653556108","owner":"44034115@N08","secret":"6e68e5d512","server":"65535","farm":66,"title":"Meet the Tufted Titmouse at Ashland Nature Center","ispublic":1,"isfriend":0,"isfamily":0},{"id":"52646806601","owner":"44034115@N08","secret":"af92281512","server":"65535","farm":66,"title":"Enter the Tufted Titmouse","ispublic":1,"isfriend":0,"isfamily":0},{"id":"52645938237","owner":"124995824@N08","secret":"4fac7c968a","server":"65535","farm":66,"title":"Tufted Titmouse - Baeolophus bicolor","ispublic":1,"isfriend":0,"isfamily":0},{"id":"52639476372","owner":"10260434@N03","secret":"6f1593eec6","server":"65535","farm":66,"title":"Tufted Titmouse-12Dec22","ispublic":1,"isfriend":0,"isfamily":0},{"id":"52640395033","owner":"10260434@N03","secret":"7569b094a3","server":"65535","farm":66,"title":"Tufted Titmouse-5Dec22","ispublic":1,"isfriend":0,"isfamily":0},{"id":"52639355102","owner":"10260434@N03","secret":"888eba4f0b","server":"65535","farm":66,"title":"Tufted Titmouse-29Nov22","ispublic":1,"isfriend":0,"isfamily":0},{"id":"52640112224","owner":"10260434@N03","secret":"28f26b94f9","server":"65535","farm":66,"title":"Tufted Titmouse-29Nov22","ispublic":1,"isfriend":0,"isfamily":0},{"id":"52640299203","owner":"10260434@N03","secret":"a3be06b835","server":"65535","farm":66,"title":"Tufted Titmouse-19Dec22","ispublic":1,"isfriend":0,"isfamily":0},{"id":"52639272927","owner":"10260434@N03","secret":"dc2d431477","server":"65535","farm":66,"title":"Tufted Titmouse-28Nov22","ispublic":1,"isfriend":0,"isfamily":0},{"id":"52639261657","owner":"10260434@N03","secret":"6604635700","server":"65535","farm":66,"title":"Tufted Titmouse-27Nov22","ispublic":1,"isfriend":0,"isfamily":0},{"id":"52640231893","owner":"10260434@N03","secret":"1fa9c9e981","server":"65535","farm":66,"title":"Tufted Titmouse-22Nov22","ispublic":1,"isfriend":0,"isfamily":0},{"id":"52639993329","owner":"10260434@N03","secret":"8196279b57","server":"65535","farm":66,"title":"Tufted Titmouse-22Nov22","ispublic":1,"isfriend":0,"isfamily":0},{"id":"52640196803","owner":"10260434@N03","secret":"cdcffa5f51","server":"65535","farm":66,"title":"Tufted Titmouse-22Nov22","ispublic":1,"isfriend":0,"isfamily":0},{"id":"52640336145","owner":"84169650@N07","secret":"0b42655742","server":"65535","farm":66,"title":"Tufted Titmouse","ispublic":1,"isfriend":0,"isfamily":0},{"id":"52638899851","owner":"8605287@N03","secret":"cca11db723","server":"65535","farm":66,"title":"Paridae: Baeolophus bicolor - Tufted Titmouse","ispublic":1,"isfriend":0,"isfamily":0},{"id":"52638864886","owner":"195642998@N04","secret":"17ec164a43","server":"65535","farm":66,"title":"Downey Woodpecker (Dryobates pubescens)   and Tufted Titmouse (Baeolophus bicolor)","ispublic":1,"isfriend":0,"isfamily":0},{"id":"52635144577","owner":"100108154@N02","secret":"a899fa323c","server":"65535","farm":66,"title":"Cute Enough To Ignore The Sticks","ispublic":1,"isfriend":0,"isfamily":0},{"id":"52634584878","owner":"160542269@N02","secret":"65a43784e8","server":"65535","farm":66,"title":"tufted titmouse","ispublic":1,"isfriend":0,"isfamily":0},{"id":"52628200627","owner":"24359172@N02","secret":"003f55ef2b","server":"65535","farm":66,"title":"Peek-a-Boo Tufted Titmouse","ispublic":1,"isfriend":0,"isfamily":0},{"id":"52625442211","owner":"100108154@N02","secret":"174e285fdb","server":"65535","farm":66,"title":"Cuteness","ispublic":1,"isfriend":0,"isfamily":0},{"id":"52624951139","owner":"69002026@N02","secret":"8fd7c46f13","server":"65535","farm":66,"title":"Tufted Titmouse (Baeolophus bicolor)","ispublic":1,"isfriend":0,"isfamily":0},{"id":"52625134140","owner":"69002026@N02","secret":"edb1234133","server":"65535","farm":66,"title":"Tufted Titmouse (Baeolophus bicolor)","ispublic":1,"isfriend":0,"isfamily":0},{"id":"52623924143","owner":"32599741@N03","secret":"7fd978df5f","server":"65535","farm":66,"title":"2022 - Day 306:  afternoon snack","ispublic":1,"isfriend":0,"isfamily":0},{"id":"52622173642","owner":"8605287@N03","secret":"5850a8f5c8","server":"65535","farm":66,"title":"Paridae: Baeolophus bicolor - Tufted Titmouse","ispublic":1,"isfriend":0,"isfamily":0},{"id":"52619653284","owner":"95721592@N00","secret":"2891ac7114","server":"65535","farm":66,"title":"Tufted Titmouse (Baeolophus bicolor)","ispublic":1,"isfriend":0,"isfamily":0},{"id":"52619354071","owner":"161505078@N03","secret":"87a2a0e1bb","server":"65535","farm":66,"title":"Tufted Titmouse (Baeolophus bicolor)","ispublic":1,"isfriend":0,"isfamily":0},{"id":"52617363137","owner":"37242840@N07","secret":"bdf8d78e00","server":"65535","farm":66,"title":"Tufted Titmouse, Baeolophus bicolor (7)","ispublic":1,"isfriend":0,"isfamily":0},{"id":"52618360898","owner":"37242840@N07","secret":"a565897b3c","server":"65535","farm":66,"title":"Tufted Titmouse, Baeolophus bicolor (10)","ispublic":1,"isfriend":0,"isfamily":0},{"id":"52617363017","owner":"37242840@N07","secret":"535becd9e4","server":"65535","farm":66,"title":"Tufted Titmouse, Baeolophus bicolor (20)","ispublic":1,"isfriend":0,"isfamily":0},{"id":"52617696771","owner":"184781347@N05","secret":"7b96de76e1","server":"65535","farm":66,"title":"house finch and tufted titmouse maneuver for seed @ chez sprezzatura","ispublic":1,"isfriend":0,"isfamily":0},{"id":"52617169477","owner":"184781347@N05","secret":"775aa713e5","server":"65535","farm":66,"title":"tufted titmouse with a weight problem","ispublic":1,"isfriend":0,"isfamily":0},{"id":"52609683795","owner":"125645386@N04","secret":"1f85921fc5","server":"65535","farm":66,"title":"M\u00e9sange bicolore - Tufted titmouse - Baeolophus bicolor","ispublic":1,"isfriend":0,"isfamily":0},{"id":"52603808766","owner":"65832984@N06","secret":"2239292a8a","server":"65535","farm":66,"title":"Buffy Flanks","ispublic":1,"isfriend":0,"isfamily":0},{"id":"52603088808","owner":"28144779@N06","secret":"ddef1a7e32","server":"65535","farm":66,"title":"Tufted Titmouse Baeolophus bicolor","ispublic":1,"isfriend":0,"isfamily":0},{"id":"52600395568","owner":"85391626@N07","secret":"97445799be","server":"65535","farm":66,"title":"Tufted Titmouse","ispublic":1,"isfriend":0,"isfamily":0},{"id":"52600135869","owner":"85391626@N07","secret":"ca6ff210d3","server":"65535","farm":66,"title":"Tufted Titmouse","ispublic":1,"isfriend":0,"isfamily":0},{"id":"52596767896","owner":"67121146@N00","secret":"80432b3303","server":"65535","farm":66,"title":"Tufted Titmouse","ispublic":1,"isfriend":0,"isfamily":0},{"id":"52642587331","owner":"195642998@N04","secret":"a1fe3e1fdb","server":"65535","farm":66,"title":"Tufted Titmouse  (Baeolophus bicolor)","ispublic":1,"isfriend":0,"isfamily":0},{"id":"52640244973","owner":"10260434@N03","secret":"b5bc8a0a46","server":"65535","farm":66,"title":"Tufted Titmouse-22Nov22","ispublic":1,"isfriend":0,"isfamily":0},{"id":"52617362967","owner":"37242840@N07","secret":"9db29f7dc2","server":"65535","farm":66,"title":"Tufted Titmouse, Baeolophus bicolor (26)","ispublic":1,"isfriend":0,"isfamily":0},{"id":"52608280852","owner":"197181561@N02","secret":"caea451ce0","server":"65535","farm":66,"title":"Tufted Titmouse (Baeolophus bicolor) in Flight with Food","ispublic":1,"isfriend":0,"isfamily":0},{"id":"52603088778","owner":"28144779@N06","secret":"fc04a86362","server":"65535","farm":66,"title":"Tufted Titmouse Baeolophus bicolor","ispublic":1,"isfriend":0,"isfamily":0}]},"stat":"ok"}