{"photos":{"page":1,"pages":12,"perpage":100,"total":1151,"photo":[{"id":"52580760273","owner":"153973412@N04","secret":"919b4a4e3a","server":"65535","farm":66,"title":"Veery-Catharus fuscescens, Iowa City, IA","ispublic":1,"isfriend":0,"isfamily":0},{"id":"52540121613","owner":"159284114@N07","secret":"f3a721873d","server":"65535","farm":66,"title":"Grive fauve, Veery","ispublic":1,"isfriend":0,"isfamily":0},{"id":"52534066298","owner":"181824639@N02","secret":"b0dd32b444","server":"65535","farm":66,"title":"Grive fauve ( Catharus fuscescens )","ispublic":1,"isfriend":0,"isfamily":0},{"id":"52495590838","owner":"22304442@N00","secret":"de4922222d","server":"65535","farm":66,"title":"grive fauve (veery)","ispublic":1,"isfriend":0,"isfamily":0},{"id":"52495590658","owner":"22304442@N00","secret":"11bc4103f5","server":"65535","farm":66,"title":"grive fauve (veery)","ispublic":1,"isfriend":0,"isfamily":0},{"id":"52495590548","owner":"22304442@N00","secret":"4d65a62e1b","server":"65535","farm":66,"title":"grive fauve (veery)","ispublic":1,"isfriend":0,"isfamily":0},{"id":"52477602274","owner":"128537732@N06","secret":"2f206a1b0d","server":"65535","farm":66,"title":"Veery (Catharus fuscescens)","ispublic":1,"isfriend":0,"isfamily":0},{"id":"52453643668","owner":"181824639@N02","secret":"9bb3dbd49f","server":"65535","farm":66,"title":"Grive fauve ( Catharus fuscescens )","ispublic":1,"isfriend":0,"isfamily":0},{"id":"52403386422","owner":"22304442@N00","secret":"a9b6bc65c1","server":"65535","farm":66,"title":"grive fauve (veery)","ispublic":1,"isfriend":0,"isfamily":0},{"id":"52403386282","owner":"22304442@N00","secret":"c9e7a91a39","server":"65535","farm":66,"title":"grive fauve (veery)","ispublic":1,"isfriend":0,"isfamily":0},{"id":"52404181689","owner":"22304442@N00","secret":"743f9d43fb","server":"65535","farm":66,"title":"grive fauve (veery)","ispublic":1,"isfriend":0,"isfamily":0},{"id":"52369492996","owner":"59631194@N06","secret":"84d4c01e04","server":"65535","farm":66,"title":"Veery (Catharus fuscescens)","ispublic":1,"isfriend":0,"isfamily":0},{"id":"52343990167","owner":"76288515@N07","secret":"65903235b1","server":"65535","farm":66,"title":"Veery Catharus fuscescens","ispublic":1,"isfriend":0,"isfamily":0},{"id":"52345373985","owner":"76288515@N07","secret":"fe82fc8eee","server":"65535","farm":66,"title":"Veery Catharus fuscescens","ispublic":1,"isfriend":0,"isfamily":0},{"id":"52344946176","owner":"76288515@N07","secret":"9a894ecd8c","server":"65535","farm":66,"title":"Veery Catharus fuscescens","ispublic":1,"isfriend":0,"isfamily":0},{"id":"52345190263","owner":"76288515@N07","secret":"b8dd14d318","server":"65535","farm":66,"title":"Veery Catharus fuscescens","ispublic":1,"isfriend":0,"isfamily":0},{"id":"52345190233","owner":"76288515@N07","secret":"aa486d1b6e","server":"65535","farm":66,"title":"Veery Catharus fuscescens","ispublic":1,"isfriend":0,"isfamily":0},{"id":"52345254694","owner":"76288515@N07","secret":"f3f89a78b4","server":"65535","farm":66,"title":"Veery Catharus fuscescens","ispublic":1,"isfriend":0,"isfamily":0},{"id":"52345254619","owner":"76288515@N07","secret":"5aef8790c6","server":"65535","farm":66,"title":"Veery Catharus fuscescens","ispublic":1,"isfriend":0,"isfamily":0},{"id":"52344946046","owner":"76288515@N07","secret":"8fe356b313","server":"65535","farm":66,"title":"Veery Catharus fuscescens","ispublic":1,"isfriend":0,"isfamily":0},{"id":"52343990012","owner":"76288515@N07","secret":"0b5c8d91b5","server":"65535","farm":66,"title":"Veery Catharus fuscescens","ispublic":1,"isfriend":0,"isfamily":0},{"id":"52343989972","owner":"76288515@N07","secret":"0f07437bb6","server":"65535","farm":66,"title":"Veery Catharus fuscescens","ispublic":1,"isfriend":0,"isfamily":0},{"id":"52318248995","owner":"49114357@N08","secret":"4ff3232b7c","server":"65535","farm":66,"title":"Veery","ispublic":1,"isfriend":0,"isfamily":0},{"id":"52338589550","owner":"92361032@N05","secret":"60f4ee30d2","server":"65535","farm":66,"title":"Veery \/Grive fauve ( Richard )","ispublic":1,"isfriend":0,"isfamily":0},{"id":"52334437624","owner":"38514062@N03","secret":"228a3013b2","server":"65535","farm":66,"title":"Veery (Catharus fuscescens)","ispublic":1,"isfriend":0,"isfamily":0},{"id":"52332319822","owner":"190122705@N03","secret":"1f90ea3354","server":"65535","farm":66,"title":"Veery","ispublic":1,"isfriend":0,"isfamily":0},{"id":"52318954277","owner":"59770980@N02","secret":"ae62dcee56","server":"65535","farm":66,"title":"H\u00fam\u00fer\u00f6stur-Veery-Catharus fuscescens","ispublic":1,"isfriend":0,"isfamily":0},{"id":"52308373608","owner":"124995824@N08","secret":"960a5afdbb","server":"65535","farm":66,"title":"Veery - Catharus fuscescens","ispublic":1,"isfriend":0,"isfamily":0},{"id":"52275877880","owner":"196264892@N08","secret":"1a3980a92a","server":"65535","farm":66,"title":"Veery 1","ispublic":1,"isfriend":0,"isfamily":0},{"id":"52257018889","owner":"71989271@N06","secret":"a9306dbff8","server":"65535","farm":66,"title":"Veery (Catharus f. fuscescens)","ispublic":1,"isfriend":0,"isfamily":0},{"id":"52257018854","owner":"71989271@N06","secret":"9fe49253de","server":"65535","farm":66,"title":"Veery (Catharus f. fuscescens)","ispublic":1,"isfriend":0,"isfamily":0},{"id":"52235525141","owner":"191038887@N04","secret":"efb9a467b9","server":"65535","farm":66,"title":"Grive fauve - Veery - Catharus fuscescens","ispublic":1,"isfriend":0,"isfamily":0},{"id":"52235519081","owner":"191038887@N04","secret":"501d59b831","server":"65535","farm":66,"title":"Grive fauve - Veery - Catharus fuscescens","ispublic":1,"isfriend":0,"isfamily":0},{"id":"52235518926","owner":"191038887@N04","secret":"1a21a4b7c1","server":"65535","farm":66,"title":"Grive fauve - Veery - Catharus fuscescens","ispublic":1,"isfriend":0,"isfamily":0},{"id":"52214601228","owner":"76617062@N08","secret":"6362241803","server":"65535","farm":66,"title":"1.25848 Grive fauve \/ Catharus fuscescens fuscescens \/ Veery","ispublic":1,"isfriend":0,"isfamily":0},{"id":"52198934225","owner":"184155060@N04","secret":"2f0bfd2002","server":"65535","farm":66,"title":"27216 Grive fauve \/ Catharus fuscescens fuscescens \/ Veery","ispublic":1,"isfriend":0,"isfamily":0},{"id":"52192283538","owner":"131708321@N02","secret":"0780edcddd","server":"65535","farm":66,"title":"Veery (Catharus fuscescens), Calgary, Alberta, Canada","ispublic":1,"isfriend":0,"isfamily":0},{"id":"52186611354","owner":"76617062@N08","secret":"1a078672c3","server":"65535","farm":66,"title":"1.25848 Grive fauve \/ Catharus fuscescens fuscescens \/ Veery","ispublic":1,"isfriend":0,"isfamily":0},{"id":"52166983239","owner":"8561740@N08","secret":"517a89e17e","server":"65535","farm":66,"title":"Veery, the pan-pipe bird","ispublic":1,"isfriend":0,"isfamily":0},{"id":"52163205762","owner":"39445433@N02","secret":"c699501705","server":"65535","farm":66,"title":"Veery","ispublic":1,"isfriend":0,"isfamily":0},{"id":"52161728972","owner":"97183171@N04","secret":"7015aa4873","server":"65535","farm":66,"title":"grive fauve - Veery","ispublic":1,"isfriend":0,"isfamily":0},{"id":"52161505371","owner":"195827315@N02","secret":"d0f9a50ed8","server":"65535","farm":66,"title":"Veery","ispublic":1,"isfriend":0,"isfamily":0},{"id":"52144448813","owner":"55216637@N04","secret":"7530c17256","server":"65535","farm":66,"title":"Veery-22-002","ispublic":1,"isfriend":0,"isfamily":0},{"id":"52144665104","owner":"55216637@N04","secret":"2377ae298a","server":"65535","farm":66,"title":"Veery-22-001","ispublic":1,"isfriend":0,"isfamily":0},{"id":"52143405682","owner":"55216637@N04","secret":"7ef0fe0abc","server":"65535","farm":66,"title":"Veery-22-003","ispublic":1,"isfriend":0,"isfamily":0},{"id":"52144577194","owner":"32599741@N03","secret":"5a2b54d8b8","server":"65535","farm":66,"title":"they'll never find me in here","ispublic":1,"isfriend":0,"isfamily":0},{"id":"52129197150","owner":"120449047@N06","secret":"297cfdbdac","server":"65535","farm":66,"title":"Veery","ispublic":1,"isfriend":0,"isfamily":0},{"id":"52128224446","owner":"183736567@N07","secret":"c33dbb218b","server":"65535","farm":66,"title":"Veery (Catharus fuscescens)","ispublic":1,"isfriend":0,"isfamily":0},{"id":"52120372954","owner":"21584095@N00","secret":"819ab8413c","server":"65535","farm":66,"title":"Veery (Catharus fuscescens)","ispublic":1,"isfriend":0,"isfamily":0},{"id":"52106396349","owner":"57644048@N00","secret":"457e89f228","server":"65535","farm":66,"title":"vrdi vrreed vreed vreer vreer","ispublic":1,"isfriend":0,"isfamily":0},{"id":"52090021898","owner":"65632611@N00","secret":"bdf3cc6a2c","server":"65535","farm":66,"title":"Alley Pond Park: Veery (3598)","ispublic":1,"isfriend":0,"isfamily":0},{"id":"52080233812","owner":"17654080@N08","secret":"1a93ea419a","server":"65535","farm":66,"title":"Veery (Catharus fuscescens)","ispublic":1,"isfriend":0,"isfamily":0},{"id":"52081505179","owner":"17654080@N08","secret":"f8b0abc029","server":"65535","farm":66,"title":"Veery (Catharus fuscescens)","ispublic":1,"isfriend":0,"isfamily":0},{"id":"52081505189","owner":"17654080@N08","secret":"9d034ccb23","server":"65535","farm":66,"title":"Veery (Catharus fuscescens)","ispublic":1,"isfriend":0,"isfamily":0},{"id":"52080233752","owner":"17654080@N08","secret":"bd16ba72c9","server":"65535","farm":66,"title":"Veery (Catharus fuscescens)","ispublic":1,"isfriend":0,"isfamily":0},{"id":"52081269021","owner":"17654080@N08","secret":"74b29c40e8","server":"65535","farm":66,"title":"Veery (Catharus fuscescens)","ispublic":1,"isfriend":0,"isfamily":0},{"id":"52080326574","owner":"159284114@N07","secret":"20482cdfed","server":"65535","farm":66,"title":"Grive fauve, Veery","ispublic":1,"isfriend":0,"isfamily":0},{"id":"52076667118","owner":"140386565@N02","secret":"d7a745b091","server":"65535","farm":66,"title":"A Veery (Catharus fuscescens), 5-4-22","ispublic":1,"isfriend":0,"isfamily":0},{"id":"52073439031","owner":"152894743@N08","secret":"063643cfe1","server":"65535","farm":66,"title":"Veery","ispublic":1,"isfriend":0,"isfamily":0},{"id":"52050024576","owner":"49114357@N08","secret":"c55c34c97d","server":"65535","farm":66,"title":"Veery","ispublic":1,"isfriend":0,"isfamily":0},{"id":"52070796692","owner":"135315828@N06","secret":"3f1f8ac526","server":"65535","farm":66,"title":"veery","ispublic":1,"isfriend":0,"isfamily":0},{"id":"52064252417","owner":"18378985@N08","secret":"4537bdc651","server":"65535","farm":66,"title":"Veery","ispublic":1,"isfriend":0,"isfamily":0},{"id":"52059001395","owner":"128537732@N06","secret":"67fde27007","server":"65535","farm":66,"title":"Veery (Catharus fuscescens)","ispublic":1,"isfriend":0,"isfamily":0},{"id":"52051969687","owner":"182534679@N02","secret":"17b1293506","server":"65535","farm":66,"title":"Catharus fuscescens - Veery","ispublic":1,"isfriend":0,"isfamily":0},{"id":"52050211170","owner":"36013467@N07","secret":"c72e743ca9","server":"65535","farm":66,"title":"Veery (Catharus fuscescens)","ispublic":1,"isfriend":0,"isfamily":0},{"id":"52047828022","owner":"46367607@N06","secret":"4315c3815f","server":"65535","farm":66,"title":"Veery--Catharus fuscescens _D6A0145","ispublic":1,"isfriend":0,"isfamily":0},{"id":"52048916903","owner":"46367607@N06","secret":"3df5dd8f38","server":"65535","farm":66,"title":"Veery--Catharus fuscescens _D6A0148","ispublic":1,"isfriend":0,"isfamily":0},{"id":"52047822497","owner":"46367607@N06","secret":"0a80288b54","server":"65535","farm":66,"title":"Veery--Catharus fuscescens _D6A0148-2","ispublic":1,"isfriend":0,"isfamily":0},{"id":"52047822227","owner":"46367607@N06","secret":"3fe3e2b2dd","server":"65535","farm":66,"title":"Veery--Catharus fuscescens _D6A0151","ispublic":1,"isfriend":0,"isfamily":0},{"id":"52046097976","owner":"13451078@N03","secret":"9458843b05","server":"65535","farm":66,"title":"Veery (Catharus fuscescens)","ispublic":1,"isfriend":0,"isfamily":0},{"id":"52041332943","owner":"18378985@N08","secret":"8aa87d0aca","server":"65535","farm":66,"title":"Veery at the Forest Exploration Center","ispublic":1,"isfriend":0,"isfamily":0},{"id":"51993172716","owner":"161160566@N03","secret":"bdd596037e","server":"65535","farm":66,"title":"259595 - Grive Fauve - Veery ( Catharus Fuscescens ) - Crop","ispublic":1,"isfriend":0,"isfamily":0},{"id":"51918169684","owner":"76617062@N08","secret":"1c1233bf3c","server":"65535","farm":66,"title":"1.25848 Grive fauve \/ Catharus fuscescens fuscescens \/ Veery","ispublic":1,"isfriend":0,"isfamily":0},{"id":"51737183576","owner":"119468907@N03","secret":"c6890247e6","server":"0","farm":0,"title":"Grive fauve","ispublic":1,"isfriend":0,"isfamily":0},{"id":"51717921316","owner":"71989271@N06","secret":"1c1c450f07","server":"65535","farm":66,"title":"Veery (Catharus f. fuscescens)","ispublic":1,"isfriend":0,"isfamily":0},{"id":"51703350286","owner":"194341957@N06","secret":"5f389a030a","server":"65535","farm":66,"title":"veery","ispublic":1,"isfriend":0,"isfamily":0},{"id":"51700753614","owner":"95484108@N07","secret":"1beb89e472","server":"65535","farm":66,"title":"Grive fauve \/\/ Veery","ispublic":1,"isfriend":0,"isfamily":0},{"id":"51693221364","owner":"39138537@N06","secret":"bc68479b0e","server":"65535","farm":66,"title":"Veery (Catharus fuscescens)","ispublic":1,"isfriend":0,"isfamily":0},{"id":"51692543821","owner":"39138537@N06","secret":"618ea9c222","server":"65535","farm":66,"title":"Veery (Catharus fuscescens)","ispublic":1,"isfriend":0,"isfamily":0},{"id":"51670595646","owner":"8013969@N03","secret":"a1cb00ff01","server":"65535","farm":66,"title":"Catharus fuscescens","ispublic":1,"isfriend":0,"isfamily":0},{"id":"51670835568","owner":"8013969@N03","secret":"2313f97e85","server":"65535","farm":66,"title":"Catharus fuscescens","ispublic":1,"isfriend":0,"isfamily":0},{"id":"51644155327","owner":"76617062@N08","secret":"76b732f6e7","server":"65535","farm":66,"title":"1.25848 Grive fauve (immature) \/ Catharus fuscescens fuscescens \/ Veery","ispublic":1,"isfriend":0,"isfamily":0},{"id":"51398634899","owner":"49114357@N08","secret":"1acc013c86","server":"65535","farm":66,"title":"Veery","ispublic":1,"isfriend":0,"isfamily":0},{"id":"51608496952","owner":"193264646@N06","secret":"1e6e140299","server":"65535","farm":66,"title":"Veery","ispublic":1,"isfriend":0,"isfamily":0},{"id":"51610200505","owner":"193264646@N06","secret":"686bb26b2f","server":"65535","farm":66,"title":"Veery","ispublic":1,"isfriend":0,"isfamily":0},{"id":"51610200440","owner":"193264646@N06","secret":"192d00de63","server":"65535","farm":66,"title":"Veery","ispublic":1,"isfriend":0,"isfamily":0},{"id":"51609540958","owner":"193264646@N06","secret":"5e1da8e4cb","server":"65535","farm":66,"title":"Veery","ispublic":1,"isfriend":0,"isfamily":0},{"id":"51610200370","owner":"193264646@N06","secret":"f39b80882c","server":"65535","farm":66,"title":"Veery","ispublic":1,"isfriend":0,"isfamily":0},{"id":"51537186359","owner":"38514062@N03","secret":"05a26aca43","server":"65535","farm":66,"title":"Veery (Catharus fuscescens)","ispublic":1,"isfriend":0,"isfamily":0},{"id":"51536462061","owner":"38514062@N03","secret":"aa9897eb2e","server":"65535","farm":66,"title":"Veery (Catharus fuscescens)","ispublic":1,"isfriend":0,"isfamily":0},{"id":"51491679356","owner":"120449047@N06","secret":"e729b78efc","server":"65535","farm":66,"title":"Veery","ispublic":1,"isfriend":0,"isfamily":0},{"id":"51427006396","owner":"190949917@N03","secret":"af197cf537","server":"65535","farm":66,"title":"Veery","ispublic":1,"isfriend":0,"isfamily":0},{"id":"51411311280","owner":"76617062@N08","secret":"e5db67fe6f","server":"65535","farm":66,"title":"1.25848 Grive fauve (immature) \/ Catharus fuscescens fuscescens \/ Veery","ispublic":1,"isfriend":0,"isfamily":0},{"id":"51396702010","owner":"67306066@N03","secret":"607cc795c8","server":"65535","farm":66,"title":"Veery (Catharus fuscescens)","ispublic":1,"isfriend":0,"isfamily":0},{"id":"51395951388","owner":"67306066@N03","secret":"4455c9420d","server":"65535","farm":66,"title":"Veery (Catharus fuscescens)","ispublic":1,"isfriend":0,"isfamily":0},{"id":"51386972859","owner":"163667952@N05","secret":"88bdfffb1a","server":"65535","farm":66,"title":"Veery","ispublic":1,"isfriend":0,"isfamily":0},{"id":"51348858270","owner":"76617062@N08","secret":"cf517ca9a6","server":"65535","farm":66,"title":"1.25848 Grive fauve (immature) \/ Catharus fuscescens fuscescens \/ Veery","ispublic":1,"isfriend":0,"isfamily":0},{"id":"51320488777","owner":"46197304@N04","secret":"6676cf1cc3","server":"65535","farm":66,"title":"Veery in the Woodland","ispublic":1,"isfriend":0,"isfamily":0},{"id":"51317301525","owner":"48014585@N00","secret":"d9083ec6a9","server":"65535","farm":66,"title":"Veery","ispublic":1,"isfriend":0,"isfamily":0},{"id":"51292974101","owner":"25899079@N08","secret":"ded1d2540e","server":"65535","farm":66,"title":"Veery (9965)","ispublic":1,"isfriend":0,"isfamily":0}]},"stat":"ok"}