{"photos":{"page":1,"pages":17,"perpage":100,"total":1685,"photo":[{"id":"52711038592","owner":"33610210@N05","secret":"c7eab83d67","server":"65535","farm":66,"title":"Vesper Sparrow, Pooecetes gramineus","ispublic":1,"isfriend":0,"isfamily":0},{"id":"52711560981","owner":"33610210@N05","secret":"7c4966a013","server":"65535","farm":66,"title":"Vesper Sparrow, Pooecetes gramineus","ispublic":1,"isfriend":0,"isfamily":0},{"id":"52711977865","owner":"33610210@N05","secret":"02b9a2c0d3","server":"65535","farm":66,"title":"Vesper Sparrow, Pooecetes gramineus","ispublic":1,"isfriend":0,"isfamily":0},{"id":"52711560926","owner":"33610210@N05","secret":"fbfc048dd9","server":"65535","farm":66,"title":"Vesper Sparrow, Pooecetes gramineus","ispublic":1,"isfriend":0,"isfamily":0},{"id":"52691103352","owner":"33610210@N05","secret":"1c028db472","server":"65535","farm":66,"title":"Vesper Sparrow, Pooecetes gramineus","ispublic":1,"isfriend":0,"isfamily":0},{"id":"52692112038","owner":"33610210@N05","secret":"5c30444c38","server":"65535","farm":66,"title":"Vesper Sparrow, Pooecetes gramineus","ispublic":1,"isfriend":0,"isfamily":0},{"id":"52692112003","owner":"33610210@N05","secret":"36ca566c11","server":"65535","farm":66,"title":"Vesper Sparrow, Pooecetes gramineus","ispublic":1,"isfriend":0,"isfamily":0},{"id":"52691891804","owner":"33610210@N05","secret":"897c8535ce","server":"65535","farm":66,"title":"Vesper Sparrow, Pooecetes gramineus","ispublic":1,"isfriend":0,"isfamily":0},{"id":"52692038505","owner":"33610210@N05","secret":"eee52416c7","server":"65535","farm":66,"title":"Vesper Sparrow, Pooecetes gramineus","ispublic":1,"isfriend":0,"isfamily":0},{"id":"52692038475","owner":"33610210@N05","secret":"f269b621f6","server":"65535","farm":66,"title":"Vesper Sparrow, Pooecetes gramineus","ispublic":1,"isfriend":0,"isfamily":0},{"id":"52691891734","owner":"33610210@N05","secret":"5e3ea330c5","server":"65535","farm":66,"title":"Vesper Sparrow, Pooecetes gramineus","ispublic":1,"isfriend":0,"isfamily":0},{"id":"52692038450","owner":"33610210@N05","secret":"072318b6de","server":"65535","farm":66,"title":"Vesper Sparrow, Pooecetes gramineus","ispublic":1,"isfriend":0,"isfamily":0},{"id":"52691103142","owner":"33610210@N05","secret":"d6e5d9bfa2","server":"65535","farm":66,"title":"Vesper Sparrow, Pooecetes gramineus","ispublic":1,"isfriend":0,"isfamily":0},{"id":"52690324010","owner":"33610210@N05","secret":"8b28a5444c","server":"65535","farm":66,"title":"Vesper Sparrow, Pooecetes gramineus","ispublic":1,"isfriend":0,"isfamily":0},{"id":"52681086397","owner":"103722035@N06","secret":"fbe00c6e08","server":"65535","farm":66,"title":"Vesper Sparrow (Pooecetes gramineus), Shandon, CA","ispublic":1,"isfriend":0,"isfamily":0},{"id":"52682036915","owner":"103722035@N06","secret":"f4ee28f996","server":"65535","farm":66,"title":"Vesper Sparrow (Pooecetes gramineus), Shandon, CA","ispublic":1,"isfriend":0,"isfamily":0},{"id":"52681604816","owner":"103722035@N06","secret":"64b180972e","server":"65535","farm":66,"title":"Vesper Sparrow (Pooecetes gramineus), Shandon, CA","ispublic":1,"isfriend":0,"isfamily":0},{"id":"52682103408","owner":"103722035@N06","secret":"86f94f9c8b","server":"65535","farm":66,"title":"Vesper Sparrow (Pooecetes gramineus), Shandon, CA","ispublic":1,"isfriend":0,"isfamily":0},{"id":"52682054058","owner":"103722035@N06","secret":"f47abaf480","server":"0","farm":0,"title":"Vesper Sparrow (Pooecetes gramineus), Shandon, CA","ispublic":1,"isfriend":0,"isfamily":0},{"id":"52678180510","owner":"33610210@N05","secret":"9ea56abddf","server":"65535","farm":66,"title":"Vesper Sparrow, Pooecetes gramineus","ispublic":1,"isfriend":0,"isfamily":0},{"id":"52655827683","owner":"56983940@N06","secret":"7677a839e9","server":"65535","farm":66,"title":"Vesper Sparrow","ispublic":1,"isfriend":0,"isfamily":0},{"id":"52655594878","owner":"13451078@N03","secret":"88fc002374","server":"65535","farm":66,"title":"Vesper Sparrow (2   Pooecetes gramineus)","ispublic":1,"isfriend":0,"isfamily":0},{"id":"52653970253","owner":"103722035@N06","secret":"1518991661","server":"0","farm":0,"title":"Vesper Sparrow (Pooecetes gramineus) & Savannah Sparrow (Passerculus sandwichensis), Shandon, CA","ispublic":1,"isfriend":0,"isfamily":0},{"id":"52642969223","owner":"29494346@N03","secret":"3f927f1a39","server":"65535","farm":66,"title":"Vesper Sparrow (Pooecetes gramineus)","ispublic":1,"isfriend":0,"isfamily":0},{"id":"52505420465","owner":"30638967@N03","secret":"d30a6b6451","server":"65535","farm":66,"title":"Vesper Sparrow DSC_5167","ispublic":1,"isfriend":0,"isfamily":0},{"id":"52504944336","owner":"30638967@N03","secret":"4978165b22","server":"65535","farm":66,"title":"Vesper Sparrow DSC_5184","ispublic":1,"isfriend":0,"isfamily":0},{"id":"52495495642","owner":"103722035@N06","secret":"d40012554e","server":"65535","farm":66,"title":"Vesper Sparrow (Pooecetes gramineus) & Savannah Sparrow (Passerculus sandwichensis), Highway 58, San Luis Obispo County, CA","ispublic":1,"isfriend":0,"isfamily":0},{"id":"52496533643","owner":"103722035@N06","secret":"8f8c5e9898","server":"65535","farm":66,"title":"Vesper Sparrow (Pooecetes gramineus), Highway 58, San Luis Obispo County, CA","ispublic":1,"isfriend":0,"isfamily":0},{"id":"52495976406","owner":"103722035@N06","secret":"d2b1d1df23","server":"65535","farm":66,"title":"Vesper Sparrow (Pooecetes gramineus), Highway 58, San Luis Obispo County, CA","ispublic":1,"isfriend":0,"isfamily":0},{"id":"52495976356","owner":"103722035@N06","secret":"09895a7a96","server":"65535","farm":66,"title":"Vesper Sparrow (Pooecetes gramineus), Highway 58, San Luis Obispo County, CA","ispublic":1,"isfriend":0,"isfamily":0},{"id":"52496441560","owner":"103722035@N06","secret":"48ec817b82","server":"0","farm":0,"title":"Vesper Sparrow (Pooecetes gramineus), Highway 58, San Luis Obispo County, CA","ispublic":1,"isfriend":0,"isfamily":0},{"id":"52471804489","owner":"103722035@N06","secret":"e772a2fb6d","server":"0","farm":0,"title":"Vesper Sparrow (Pooecetes gramineus), Shandon, CA","ispublic":1,"isfriend":0,"isfamily":0},{"id":"52471631470","owner":"33573751@N04","secret":"211a298803","server":"65535","farm":66,"title":"Vesper Sparrow (Pooecetes gramineus) - Wilton, Connecticut","ispublic":1,"isfriend":0,"isfamily":0},{"id":"52470105479","owner":"39177293@N03","secret":"6c52dda178","server":"65535","farm":66,"title":"Vesper Sparrow","ispublic":1,"isfriend":0,"isfamily":0},{"id":"52464071898","owner":"151381692@N04","secret":"768b9ac834","server":"65535","farm":66,"title":"Vesper Sparrow (Pooecetes gramineus)","ispublic":1,"isfriend":0,"isfamily":0},{"id":"52462038045","owner":"57729348@N02","secret":"46c4ed0d85","server":"65535","farm":66,"title":"Dark-eyed Junco (Junco hyemalis)","ispublic":1,"isfriend":0,"isfamily":0},{"id":"52461429215","owner":"69387367@N05","secret":"540f9172d4","server":"65535","farm":66,"title":"Vesper_Sparrow_5897oe","ispublic":1,"isfriend":0,"isfamily":0},{"id":"52439451147","owner":"193163318@N05","secret":"fa57f6e6b1","server":"65535","farm":66,"title":"050A3483 Vesper Sparrow Pooecetes gramineus Prospect Park 20221019","ispublic":1,"isfriend":0,"isfamily":0},{"id":"52435378543","owner":"17654080@N08","secret":"cb521c2137","server":"65535","farm":66,"title":"Vesper Sparrow (Pooecetes gramineus)","ispublic":1,"isfriend":0,"isfamily":0},{"id":"52423896076","owner":"13788974@N02","secret":"f6869d78f6","server":"65535","farm":66,"title":"Vesper Sparrow","ispublic":1,"isfriend":0,"isfamily":0},{"id":"52423821655","owner":"57729348@N02","secret":"00b3846ba5","server":"65535","farm":66,"title":"Dark-eyed Junco (Junco hyemalis)","ispublic":1,"isfriend":0,"isfamily":0},{"id":"52416312915","owner":"33573751@N04","secret":"eb943ef102","server":"65535","farm":66,"title":"Vesper Sparrow (Pooecetes gramineus) - Allen's Meadow, Wilton, Connecticut, USA","ispublic":1,"isfriend":0,"isfamily":0},{"id":"52415749561","owner":"33573751@N04","secret":"0e55ffa45f","server":"65535","farm":66,"title":"Vesper Sparrow (Pooecetes gramineus) - Allen's Meadow, Wilton, Connecticut, USA","ispublic":1,"isfriend":0,"isfamily":0},{"id":"52387259629","owner":"54549270@N03","secret":"24b985e85a","server":"65535","farm":66,"title":"Vesper Sparrow","ispublic":1,"isfriend":0,"isfamily":0},{"id":"52375382511","owner":"65148649@N04","secret":"5c2478fdd8","server":"65535","farm":66,"title":"Vesper Sparrow","ispublic":1,"isfriend":0,"isfamily":0},{"id":"52375607103","owner":"65148649@N04","secret":"42abfbf365","server":"65535","farm":66,"title":"Vesper Sparrow","ispublic":1,"isfriend":0,"isfamily":0},{"id":"52363003249","owner":"196264892@N08","secret":"8e75c4e9cc","server":"65535","farm":66,"title":"Vesper Sparrow","ispublic":1,"isfriend":0,"isfamily":0},{"id":"52328324705","owner":"28631427@N00","secret":"e8a5d752c1","server":"65535","farm":66,"title":"Vesper Sparrow","ispublic":1,"isfriend":0,"isfamily":0},{"id":"52328038850","owner":"196264892@N08","secret":"3b94536dba","server":"65535","farm":66,"title":"Vesper Sparrow","ispublic":1,"isfriend":0,"isfamily":0},{"id":"52323890550","owner":"123979267@N05","secret":"db95d7c471","server":"65535","farm":66,"title":"Vesper Sparrow","ispublic":1,"isfriend":0,"isfamily":0},{"id":"52299558716","owner":"187792860@N04","secret":"c44a1a5b42","server":"65535","farm":66,"title":"Vesper Sparrow (Pooecetes gramineus)","ispublic":1,"isfriend":0,"isfamily":0},{"id":"52282028007","owner":"124995824@N08","secret":"8940e9d025","server":"65535","farm":66,"title":"Vesper Sparrow - Pooecetes gramineus","ispublic":1,"isfriend":0,"isfamily":0},{"id":"52276015455","owner":"65148649@N04","secret":"3613477d3f","server":"65535","farm":66,"title":"Vesper Sparrow","ispublic":1,"isfriend":0,"isfamily":0},{"id":"52275394771","owner":"196264892@N08","secret":"500b44ca3e","server":"65535","farm":66,"title":"Vesper Sparrow 1","ispublic":1,"isfriend":0,"isfamily":0},{"id":"52261022582","owner":"65148649@N04","secret":"1316bdb9b9","server":"65535","farm":66,"title":"Vesper Sparrow","ispublic":1,"isfriend":0,"isfamily":0},{"id":"52262267444","owner":"65148649@N04","secret":"87696eed3e","server":"65535","farm":66,"title":"Vesper Sparrow","ispublic":1,"isfriend":0,"isfamily":0},{"id":"52262267424","owner":"65148649@N04","secret":"7cd300c29d","server":"65535","farm":66,"title":"Vesper Sparrow","ispublic":1,"isfriend":0,"isfamily":0},{"id":"52262267434","owner":"65148649@N04","secret":"6eb3fa7f0d","server":"65535","farm":66,"title":"Vesper Sparrow","ispublic":1,"isfriend":0,"isfamily":0},{"id":"52241967171","owner":"39652177@N04","secret":"fb0b1e5132","server":"65535","farm":66,"title":"Love is a musical jumble","ispublic":1,"isfriend":0,"isfamily":0},{"id":"52240203828","owner":"195537536@N03","secret":"887aa0ebc1","server":"65535","farm":66,"title":"Vesper Sparrow (Pooecetes gramineus)","ispublic":1,"isfriend":0,"isfamily":0},{"id":"52240323679","owner":"34238008@N02","secret":"57c91f9b19","server":"65535","farm":66,"title":"Vesper Sparrow (Pooecetes gramineus)","ispublic":1,"isfriend":0,"isfamily":0},{"id":"52240037496","owner":"34238008@N02","secret":"88b69a5530","server":"65535","farm":66,"title":"Vesper Sparrow (Pooecetes gramineus)","ispublic":1,"isfriend":0,"isfamily":0},{"id":"52201636166","owner":"71833159@N00","secret":"92bb100d0c","server":"65535","farm":66,"title":"Vesper Sparrow \/ Pooecetes gramineus, singing its little song","ispublic":1,"isfriend":0,"isfamily":0},{"id":"52189968494","owner":"32320154@N05","secret":"29dd72d858","server":"65535","farm":66,"title":"Vesper Sparrow","ispublic":1,"isfriend":0,"isfamily":0},{"id":"52174746329","owner":"124995824@N08","secret":"6f314811ae","server":"65535","farm":66,"title":"Vesper Sparrow - Pooecetes gramineus","ispublic":1,"isfriend":0,"isfamily":0},{"id":"52165797258","owner":"64509062@N08","secret":"e85a37d80a","server":"65535","farm":66,"title":"Vesper Sparrow, Mammoth Springs","ispublic":1,"isfriend":0,"isfamily":0},{"id":"52165791706","owner":"64509062@N08","secret":"ffece6d3b1","server":"65535","farm":66,"title":"Vesper Sparrow, Mammoth Springs","ispublic":1,"isfriend":0,"isfamily":0},{"id":"52155910848","owner":"128520554@N03","secret":"eaae097ba6","server":"65535","farm":66,"title":"Vesper Sparrow (Pooecetes gramineus)","ispublic":1,"isfriend":0,"isfamily":0},{"id":"52154045850","owner":"28499865@N07","secret":"8d6897b1de","server":"65535","farm":66,"title":"Vesper Sparrow - Pooecetes gramineus","ispublic":1,"isfriend":0,"isfamily":0},{"id":"52678180485","owner":"33610210@N05","secret":"2382cc74ba","server":"65535","farm":66,"title":"Vesper Sparrow, Pooecetes gramineus","ispublic":1,"isfriend":0,"isfamily":0},{"id":"52668119528","owner":"33610210@N05","secret":"216699095d","server":"65535","farm":66,"title":"Vesper Sparrow, Pooecetes gramineus","ispublic":1,"isfriend":0,"isfamily":0},{"id":"52663494907","owner":"33610210@N05","secret":"c655b895a0","server":"65535","farm":66,"title":"Vesper Sparrow, Pooecetes gramineus","ispublic":1,"isfriend":0,"isfamily":0},{"id":"52661926266","owner":"33610210@N05","secret":"c42d0c97d0","server":"65535","farm":66,"title":"Vesper Sparrow, Pooecetes gramineus","ispublic":1,"isfriend":0,"isfamily":0},{"id":"52583222171","owner":"76288515@N07","secret":"a38758c431","server":"65535","farm":66,"title":"Vesper Sparrow Pooecetes gramineus","ispublic":1,"isfriend":0,"isfamily":0},{"id":"52583222141","owner":"76288515@N07","secret":"8b5769143d","server":"65535","farm":66,"title":"Vesper Sparrow Pooecetes gramineus","ispublic":1,"isfriend":0,"isfamily":0},{"id":"52583222121","owner":"76288515@N07","secret":"afdc4aa0a7","server":"65535","farm":66,"title":"Vesper Sparrow Pooecetes gramineus","ispublic":1,"isfriend":0,"isfamily":0},{"id":"52583222086","owner":"76288515@N07","secret":"32233d66fb","server":"65535","farm":66,"title":"Vesper Sparrow Pooecetes gramineus","ispublic":1,"isfriend":0,"isfamily":0},{"id":"52583660715","owner":"76288515@N07","secret":"e6a5822b95","server":"65535","farm":66,"title":"Vesper Sparrow Pooecetes gramineus","ispublic":1,"isfriend":0,"isfamily":0},{"id":"52580235416","owner":"153973412@N04","secret":"8fdf5c9ca6","server":"65535","farm":66,"title":"Vesper Sparrow-Pooecetes gramineus, IA","ispublic":1,"isfriend":0,"isfamily":0},{"id":"52504457972","owner":"30638967@N03","secret":"0ebce934be","server":"65535","farm":66,"title":"Vesper Sparrow DSC_5180","ispublic":1,"isfriend":0,"isfamily":0},{"id":"52432149415","owner":"17654080@N08","secret":"7522ae3fdc","server":"65535","farm":66,"title":"Vesper Sparrow (Pooecetes gramineus)","ispublic":1,"isfriend":0,"isfamily":0},{"id":"52403494563","owner":"181847212@N05","secret":"f0924a95a2","server":"65535","farm":66,"title":"Vesper Sparrow (Pooecetes gramineus)","ispublic":1,"isfriend":0,"isfamily":0},{"id":"52403275914","owner":"181847212@N05","secret":"bffcdb6496","server":"65535","farm":66,"title":"Vesper Sparrow (Pooecetes gramineus)","ispublic":1,"isfriend":0,"isfamily":0},{"id":"52403274689","owner":"181847212@N05","secret":"d8e6dde49b","server":"65535","farm":66,"title":"Vesper Sparrow (Pooecetes gramineus)","ispublic":1,"isfriend":0,"isfamily":0},{"id":"52398972978","owner":"8666250@N02","secret":"eb561223ec","server":"65535","farm":66,"title":"Vesper Sparrow near Minnie Lake, BC. -04","ispublic":1,"isfriend":0,"isfamily":0},{"id":"52398904585","owner":"8666250@N02","secret":"926787d010","server":"65535","farm":66,"title":"Vesper Sparrow near Minnie Lake, BC. -01","ispublic":1,"isfriend":0,"isfamily":0},{"id":"52375606573","owner":"65148649@N04","secret":"02c1cfd5b4","server":"65535","farm":66,"title":"Vesper Sparrow","ispublic":1,"isfriend":0,"isfamily":0},{"id":"52315806238","owner":"9243885@N07","secret":"b056a4afa0","server":"65535","farm":66,"title":"2022_08_26_5DMk4_73991","ispublic":1,"isfriend":0,"isfamily":0},{"id":"52264258882","owner":"8666250@N02","secret":"42968fb237","server":"65535","farm":66,"title":"Morning Vesper -01","ispublic":1,"isfriend":0,"isfamily":0},{"id":"52265491994","owner":"8666250@N02","secret":"9482de15e0","server":"65535","farm":66,"title":"Morning Vesper -02","ispublic":1,"isfriend":0,"isfamily":0},{"id":"52259965298","owner":"8666250@N02","secret":"578bd4f651","server":"65535","farm":66,"title":"Vesper on a post with pastels -01","ispublic":1,"isfriend":0,"isfamily":0},{"id":"52295746332","owner":"134270033@N06","secret":"7381bfa86e","server":"65535","farm":66,"title":"HFF :: Happy Fence Friday","ispublic":1,"isfriend":0,"isfamily":0},{"id":"52253208735","owner":"187792860@N04","secret":"a32300ef98","server":"65535","farm":66,"title":"Vesper Sparrow (Pooecetes gramineus)","ispublic":1,"isfriend":0,"isfamily":0},{"id":"52246022270","owner":"8666250@N02","secret":"367086334c","server":"65535","farm":66,"title":"Vesper Sparrow 220620 -03","ispublic":1,"isfriend":0,"isfamily":0},{"id":"52229546799","owner":"8666250@N02","secret":"75eda69970","server":"65535","farm":66,"title":"Jus' little ol' me!","ispublic":1,"isfriend":0,"isfamily":0},{"id":"52229546654","owner":"8666250@N02","secret":"bb78027556","server":"65535","farm":66,"title":"\"I'm also a singer!\"","ispublic":1,"isfriend":0,"isfamily":0},{"id":"52200593504","owner":"26096524@N03","secret":"b74962dd88","server":"65535","farm":66,"title":"Vesper Sparrow (Pooecetes gramineus)","ispublic":1,"isfriend":0,"isfamily":0},{"id":"52198067743","owner":"8666250@N02","secret":"9d83ba3df2","server":"65535","farm":66,"title":"Vesper Sparrow (Pooecetes gramineus)","ispublic":1,"isfriend":0,"isfamily":0},{"id":"52198052546","owner":"8666250@N02","secret":"03ca6f16f2","server":"65535","farm":66,"title":"Vesper Sparrow in branches","ispublic":1,"isfriend":0,"isfamily":0},{"id":"52172628329","owner":"7261670@N03","secret":"2d1bdf8884","server":"65535","farm":66,"title":"Vesper Sparrow","ispublic":1,"isfriend":0,"isfamily":0}]},"stat":"ok"}