{"photos":{"page":1,"pages":3,"perpage":100,"total":269,"photo":[{"id":"52717301692","owner":"23856345@N06","secret":"a664189927","server":"65535","farm":66,"title":"Vinous-throated Parrotbill (Sinosuthora webbiana)","ispublic":1,"isfriend":0,"isfamily":0},{"id":"52249379738","owner":"9638954@N07","secret":"21176708bb","server":"65535","farm":66,"title":"Vinous-throated parrotbill","ispublic":1,"isfriend":0,"isfamily":0},{"id":"52219081369","owner":"9638954@N07","secret":"d3f4257bb8","server":"65535","farm":66,"title":"Vinous-throated Parrotbill","ispublic":1,"isfriend":0,"isfamily":0},{"id":"52218822093","owner":"9638954@N07","secret":"2bc9454885","server":"65535","farm":66,"title":"Vinous-throated Parrotbill","ispublic":1,"isfriend":0,"isfamily":0},{"id":"52219291805","owner":"9638954@N07","secret":"53628c3e0f","server":"65535","farm":66,"title":"Vinous-throated Parrotbill","ispublic":1,"isfriend":0,"isfamily":0},{"id":"52205723416","owner":"9638954@N07","secret":"ab2a4b198e","server":"65535","farm":66,"title":"Vinous-throated Parrotbill","ispublic":1,"isfriend":0,"isfamily":0},{"id":"52205723326","owner":"9638954@N07","secret":"670c358515","server":"65535","farm":66,"title":"Vinous-throated Parrotbill","ispublic":1,"isfriend":0,"isfamily":0},{"id":"52161885683","owner":"195164158@N04","secret":"1ec0221195","server":"65535","farm":66,"title":"DSC_2800-2021-03-04-Nikon D5-Nikkor 400mm F2.8-Ching Wei Chang \u5f35\u6176\u7dad \u7dad\u54e5","ispublic":1,"isfriend":0,"isfamily":0},{"id":"52161885143","owner":"195164158@N04","secret":"9385035a9f","server":"65535","farm":66,"title":"DSC_2803-2021-03-04-Nikon D5-Nikkor 400mm F2.8-Ching Wei Chang \u5f35\u6176\u7dad \u7dad\u54e5","ispublic":1,"isfriend":0,"isfamily":0},{"id":"52162368960","owner":"195164158@N04","secret":"c4f7343b26","server":"65535","farm":66,"title":"DSC_0128-2021-02-06-Nikon D5-Nikkor 400mm F2.8-Ching Wei Chang \u5f35\u6176\u7dad \u7dad\u54e5","ispublic":1,"isfriend":0,"isfamily":0},{"id":"52162116934","owner":"195164158@N04","secret":"443e02fea4","server":"65535","farm":66,"title":"DSC_0014-2021-04-06-Nikon D5-Nikkor 400mm F2.8-Ching Wei Chang \u5f35\u6176\u7dad \u7dad\u54e5","ispublic":1,"isfriend":0,"isfamily":0},{"id":"52162360960","owner":"195164158@N04","secret":"abaff549e4","server":"65535","farm":66,"title":"DSC_0789-2020-03-11-Nikon D5-Nikkor 400mm F2.8-Ching Wei Chang \u5f35\u6176\u7dad \u7dad\u54e5","ispublic":1,"isfriend":0,"isfamily":0},{"id":"52162110914","owner":"195164158@N04","secret":"4b660f965b","server":"65535","farm":66,"title":"DSC_0884-2020-03-11-Nikon D5-Nikkor 400mm F2.8-Ching Wei Chang \u5f35\u6176\u7dad \u7dad\u54e5","ispublic":1,"isfriend":0,"isfamily":0},{"id":"52162110259","owner":"195164158@N04","secret":"43c8ffd502","server":"65535","farm":66,"title":"DSC_6593-2021-04-06-Nikon D5-Nikkor 400mm F2.8-Ching Wei Chang \u5f35\u6176\u7dad \u7dad\u54e5","ispublic":1,"isfriend":0,"isfamily":0},{"id":"52161870781","owner":"195164158@N04","secret":"5c00d336dc","server":"65535","farm":66,"title":"DSC_6369-2021-04-06-Nikon D5-Nikkor 400mm F2.8-Ching Wei Chang \u5f35\u6176\u7dad \u7dad\u54e5","ispublic":1,"isfriend":0,"isfamily":0},{"id":"52161870301","owner":"195164158@N04","secret":"79f8f3c669","server":"65535","farm":66,"title":"DSC_6340-2021-04-06-Nikon D5-Nikkor 400mm F2.8-Ching Wei Chang \u5f35\u6176\u7dad \u7dad\u54e5","ispublic":1,"isfriend":0,"isfamily":0},{"id":"52161866601","owner":"195164158@N04","secret":"d0f40f5d80","server":"65535","farm":66,"title":"DSC_7138-2021-04-06-Nikon D5-Nikkor 400mm F2.8-Ching Wei Chang \u5f35\u6176\u7dad \u7dad\u54e5","ispublic":1,"isfriend":0,"isfamily":0},{"id":"52162104439","owner":"195164158@N04","secret":"636d5471fd","server":"65535","farm":66,"title":"DSC_7200-2021-04-06-Nikon D5-Nikkor 400mm F2.8-Ching Wei Chang \u5f35\u6176\u7dad \u7dad\u54e5","ispublic":1,"isfriend":0,"isfamily":0},{"id":"52161865808","owner":"195164158@N04","secret":"193467ffdf","server":"65535","farm":66,"title":"DSC_8981-2021-04-06-Nikon D5-Nikkor 400mm F2.8-Ching Wei Chang \u5f35\u6176\u7dad \u7dad\u54e5","ispublic":1,"isfriend":0,"isfamily":0},{"id":"52162101259","owner":"195164158@N04","secret":"87583121b5","server":"65535","farm":66,"title":"DSC_8933-2021-04-06-Nikon D5-Nikkor 400mm F2.8-Ching Wei Chang \u5f35\u6176\u7dad \u7dad\u54e5","ispublic":1,"isfriend":0,"isfamily":0},{"id":"52161861488","owner":"195164158@N04","secret":"daf2e8b73c","server":"65535","farm":66,"title":"DSC_8909-2021-04-06-Nikon D5-Nikkor 400mm F2.8-Ching Wei Chang \u5f35\u6176\u7dad \u7dad\u54e5","ispublic":1,"isfriend":0,"isfamily":0},{"id":"52150985901","owner":"140466761@N08","secret":"9f5b0ab410","server":"65535","farm":66,"title":"\u68d5\u5934\u9e26\u96c0(Sinosuthora webbiana)-A9_06852","ispublic":1,"isfriend":0,"isfamily":0},{"id":"52071385927","owner":"195164158@N04","secret":"4386783091","server":"65535","farm":66,"title":"DSC_6886-2022-05-10-Nikon Z9-Nikkor 400mm F2.8-Ching Wei Chang-\u5f35\u6176\u7dad-\u7dad\u54e5","ispublic":1,"isfriend":0,"isfamily":0},{"id":"52072422906","owner":"195164158@N04","secret":"f04736f998","server":"65535","farm":66,"title":"DSC_6973-2022-05-10-Nikon Z9-Nikkor 400mm F2.8-Ching Wei Chang-\u5f35\u6176\u7dad-\u7dad\u54e5","ispublic":1,"isfriend":0,"isfamily":0},{"id":"51925653780","owner":"195164158@N04","secret":"8951726c99","server":"65535","farm":66,"title":"DSC_xxxx-2019-12-27-Nikon D5-Nikkor 400mm F2.8-Ching Wei Chang-\u5f35\u6176\u7dad-\u7dad\u54e5","ispublic":1,"isfriend":0,"isfamily":0},{"id":"51049345833","owner":"188846271@N03","secret":"d137ae6de7","server":"65535","farm":66,"title":"Sinosuthora webbiana","ispublic":1,"isfriend":0,"isfamily":0},{"id":"49314194953","owner":"36611483@N03","secret":"ae7bd1ec7b","server":"65535","farm":66,"title":"Vinous-throated Parrotbill","ispublic":1,"isfriend":0,"isfamily":0},{"id":"49242468181","owner":"67989740@N04","secret":"293f073d50","server":"65535","farm":66,"title":"DSC_6781-1  Sinosuthora webbiana","ispublic":1,"isfriend":0,"isfamily":0},{"id":"49228162306","owner":"127542576@N05","secret":"6ee52d82e4","server":"65535","farm":66,"title":"\u7c89\u7d05\u9e1a\u5634\u3014\u68d5\u982d\u9d09\u96c0\u3015 (Sinosuthora webbiana#Vinous-throated Parrotbill)","ispublic":1,"isfriend":0,"isfamily":0},{"id":"49176524073","owner":"140466761@N08","secret":"18e8d1e95f","server":"65535","farm":66,"title":"P1688519","ispublic":1,"isfriend":0,"isfamily":0},{"id":"49127354766","owner":"7200351@N08","secret":"e79063abec","server":"65535","farm":66,"title":"Sinosuthora webbiana webbiana","ispublic":1,"isfriend":0,"isfamily":0},{"id":"49126863053","owner":"7200351@N08","secret":"9f58d94588","server":"65535","farm":66,"title":"Sinosuthora webbiana webbiana","ispublic":1,"isfriend":0,"isfamily":0},{"id":"49127541342","owner":"7200351@N08","secret":"bcbdce8d9c","server":"65535","farm":66,"title":"Sinosuthora webbiana webbiana","ispublic":1,"isfriend":0,"isfamily":0},{"id":"49127354266","owner":"7200351@N08","secret":"331bbb25a7","server":"65535","farm":66,"title":"Sinosuthora webbiana webbiana","ispublic":1,"isfriend":0,"isfamily":0},{"id":"49127354106","owner":"7200351@N08","secret":"4f6a9c26dd","server":"65535","farm":66,"title":"Sinosuthora webbiana webbiana","ispublic":1,"isfriend":0,"isfamily":0},{"id":"49127540912","owner":"7200351@N08","secret":"4a05416d8a","server":"65535","farm":66,"title":"Sinosuthora webbiana webbiana","ispublic":1,"isfriend":0,"isfamily":0},{"id":"48884062856","owner":"43184676@N08","secret":"21586f45d5","server":"65535","farm":66,"title":"Vinous-throated Parrotbill","ispublic":1,"isfriend":0,"isfamily":0},{"id":"48630193856","owner":"61021753@N02","secret":"78e32049a9","server":"65535","farm":66,"title":"n295_w1150","ispublic":1,"isfriend":0,"isfamily":0},{"id":"47946974441","owner":"69947563@N07","secret":"fdf7943ea3","server":"65535","farm":66,"title":"Vinous-throated Parrotbill - Henan Province, China","ispublic":1,"isfriend":0,"isfamily":0},{"id":"47880268411","owner":"29170368@N03","secret":"0773fcef74","server":"65535","farm":66,"title":"Vinous-throated Parrotbill","ispublic":1,"isfriend":0,"isfamily":0},{"id":"32845150627","owner":"12639178@N07","secret":"98ba49b5b6","server":"65535","farm":66,"title":"Sinosuthora webbiana (5)","ispublic":1,"isfriend":0,"isfamily":0},{"id":"40822310753","owner":"12639178@N07","secret":"8bba3d1e5f","server":"65535","farm":66,"title":"Sinosuthora webbiana (4)","ispublic":1,"isfriend":0,"isfamily":0},{"id":"40822309373","owner":"12639178@N07","secret":"c6e4eb6566","server":"65535","farm":66,"title":"Sinosuthora webbiana (3)","ispublic":1,"isfriend":0,"isfamily":0},{"id":"33911628428","owner":"12639178@N07","secret":"9c1ef12a42","server":"65535","farm":66,"title":"Sinosuthora webbiana (2)","ispublic":1,"isfriend":0,"isfamily":0},{"id":"32845149137","owner":"12639178@N07","secret":"a5ef49eb50","server":"65535","farm":66,"title":"halt doch bitte \u00b4mal still","ispublic":1,"isfriend":0,"isfamily":0},{"id":"33359951868","owner":"159830675@N05","secret":"57ed8ac1b2","server":"7907","farm":8,"title":"Vinous-throated parrotbill  \/Sinosuthora webbiana\/","ispublic":1,"isfriend":0,"isfamily":0},{"id":"47017942311","owner":"89502739@N07","secret":"c822358750","server":"7801","farm":8,"title":"Panuri di webb \/ The vinous-throated parrotbill (Sinosuthora webbiana)","ispublic":1,"isfriend":0,"isfamily":0},{"id":"47017930271","owner":"89502739@N07","secret":"d0c614a031","server":"7807","farm":8,"title":"Panuri di Webb","ispublic":1,"isfriend":0,"isfamily":0},{"id":"45475602274","owner":"88593217@N04","secret":"f8a0b89766","server":"4861","farm":5,"title":"Vinous-throated Parrotbill, Botanical Garden, Beijing, China October 2018","ispublic":1,"isfriend":0,"isfamily":0},{"id":"45403383594","owner":"88593217@N04","secret":"34fa3aa65a","server":"4857","farm":5,"title":"Vinous-throated Parrotbill, Olympic Forest Park, Beijing, China October 2018","ispublic":1,"isfriend":0,"isfamily":0},{"id":"45403383024","owner":"88593217@N04","secret":"ee215abc19","server":"4804","farm":5,"title":"Vinous-throated Parrotbill, Olympic Forest Park, Beijing, China October 2018","ispublic":1,"isfriend":0,"isfamily":0},{"id":"32256177978","owner":"88593217@N04","secret":"b5e55e4c36","server":"4881","farm":5,"title":"Vinous-throated Parrotbill, Olympic Forest Park, Beijing, China October 2018","ispublic":1,"isfriend":0,"isfamily":0},{"id":"32256177738","owner":"88593217@N04","secret":"5e1c4e52af","server":"4842","farm":5,"title":"Vinous-throated Parrotbill, Olympic Forest Park, Beijing, China October 2018","ispublic":1,"isfriend":0,"isfamily":0},{"id":"32256177268","owner":"88593217@N04","secret":"e16f549217","server":"4811","farm":5,"title":"Vinous-throated Parrotbill, Olympic Forest Park, Beijing, China October 2018","ispublic":1,"isfriend":0,"isfamily":0},{"id":"45215795625","owner":"88593217@N04","secret":"c3148b2533","server":"4824","farm":5,"title":"Vinous-throated Parrotbill, Olympic Forest Park, Beijing, China October 2018","ispublic":1,"isfriend":0,"isfamily":0},{"id":"32050298128","owner":"29170368@N03","secret":"a4b43aa012","server":"65535","farm":66,"title":"Vinous-throated Parrotbill","ispublic":1,"isfriend":0,"isfamily":0},{"id":"42076245024","owner":"41710899@N08","secret":"cfc6a58fba","server":"1738","farm":2,"title":"Vinous-throated Parrotbill","ispublic":1,"isfriend":0,"isfamily":0},{"id":"42793511951","owner":"41710899@N08","secret":"d139ddd0fb","server":"884","farm":1,"title":"Vinous-throated Parrotbill","ispublic":1,"isfriend":0,"isfamily":0},{"id":"42076241764","owner":"41710899@N08","secret":"4cd00c8bf1","server":"1741","farm":2,"title":"Vinous-throated Parrotbill","ispublic":1,"isfriend":0,"isfamily":0},{"id":"25846039947","owner":"16520061@N08","secret":"992c008e8d","server":"4802","farm":5,"title":"Vinous-throated Parrotbill (Sinosuthora webbiana)","ispublic":1,"isfriend":0,"isfamily":0},{"id":"39815115455","owner":"98682992@N00","secret":"ac6d547c60","server":"4790","farm":5,"title":"147A2607","ispublic":1,"isfriend":0,"isfamily":0},{"id":"25801547368","owner":"28499865@N07","secret":"c94e78eb23","server":"4704","farm":5,"title":"Vinuous-throated Parrotbill - Sinosuthora webbiana","ispublic":1,"isfriend":0,"isfamily":0},{"id":"24411668407","owner":"110148017@N06","secret":"6c1350787a","server":"4634","farm":5,"title":"\u7c89\u7d05\u9e1a\u5634 Sinosuthora webbiana","ispublic":1,"isfriend":0,"isfamily":0},{"id":"37558637032","owner":"98682992@N00","secret":"31048b111d","server":"4456","farm":5,"title":"3B6A3477","ispublic":1,"isfriend":0,"isfamily":0},{"id":"52422310362","owner":"193032256@N07","secret":"c263b0e307","server":"65535","farm":66,"title":"20211215 \u68d5\u5934\u9e26\u96c0 Sinosuthora webbiana (1)","ispublic":1,"isfriend":0,"isfamily":0},{"id":"52248389512","owner":"9638954@N07","secret":"df79241865","server":"65535","farm":66,"title":"Vinous-throated parrotbill","ispublic":1,"isfriend":0,"isfamily":0},{"id":"52205988699","owner":"9638954@N07","secret":"3ec690b3a5","server":"65535","farm":66,"title":"Vinous-throated Parrotbill","ispublic":1,"isfriend":0,"isfamily":0},{"id":"52150985746","owner":"140466761@N08","secret":"19a2aa11d4","server":"65535","farm":66,"title":"\u68d5\u5934\u9e26\u96c0(Sinosuthora webbiana)-A9_06855","ispublic":1,"isfriend":0,"isfamily":0},{"id":"51887484384","owner":"194512123@N02","secret":"fd3b587981","server":"65535","farm":66,"title":"Vinous-throated Parrotbill (Sinosuthora webbiana)","ispublic":1,"isfriend":0,"isfamily":0},{"id":"51822305952","owner":"56512052@N04","secret":"08b1574c28","server":"65535","farm":66,"title":"20170102\u5927\u5712\u8a31\u539d\u6e2f \u7c89\u7d05\u9daf\u5634 \u5b78\u540d\uff1a Sinosuthora webbiana","ispublic":1,"isfriend":0,"isfamily":0},{"id":"51035193167","owner":"188846271@N03","secret":"f1329da2df","server":"65535","farm":66,"title":"Sinosuthora webbiana","ispublic":1,"isfriend":0,"isfamily":0},{"id":"50804583758","owner":"60325150@N07","secret":"3ea45e7669","server":"65535","farm":66,"title":"\u7c89\u7d05\u9e1a\u5634 Sinosuthora webbiana bulomacha (Swinhoe, 1866)","ispublic":1,"isfriend":0,"isfamily":0},{"id":"49871506212","owner":"55968524@N04","secret":"fa3bdf0c69","server":"65535","farm":66,"title":"3T9P8606 - Vinous-throated Parrotbill - Sinosuthora webbiana.jpg","ispublic":1,"isfriend":0,"isfamily":0},{"id":"49809081527","owner":"98682992@N00","secret":"24e993da7e","server":"65535","farm":66,"title":"3B6A3477b","ispublic":1,"isfriend":0,"isfamily":0},{"id":"49808737296","owner":"98682992@N00","secret":"dfbd57beab","server":"65535","farm":66,"title":"147A7254","ispublic":1,"isfriend":0,"isfamily":0},{"id":"49394021403","owner":"60325150@N07","secret":"35960ff66f","server":"65535","farm":66,"title":"\u7c89\u7d05\u9e1a\u5634 Sinosuthora webbiana bulomacha (Swinhoe, 1866)","ispublic":1,"isfriend":0,"isfamily":0},{"id":"49394444741","owner":"186211059@N06","secret":"5f2db749d0","server":"65535","farm":66,"title":"Vinous-throated Parrotbill","ispublic":1,"isfriend":0,"isfamily":0},{"id":"49393968773","owner":"186211059@N06","secret":"686669b7d4","server":"65535","farm":66,"title":"Vinous-throated Parrotbill","ispublic":1,"isfriend":0,"isfamily":0},{"id":"49394444181","owner":"186211059@N06","secret":"997bb20847","server":"65535","farm":66,"title":"Vinous-throated Parrotbill","ispublic":1,"isfriend":0,"isfamily":0},{"id":"49232734803","owner":"67989740@N04","secret":"a75dbb4b1a","server":"65535","farm":66,"title":"DSC_6744  Sinosuthora webbiana","ispublic":1,"isfriend":0,"isfamily":0},{"id":"49228162331","owner":"127542576@N05","secret":"abc6fd4d45","server":"65535","farm":66,"title":"\u7c89\u7d05\u9e1a\u5634\u3014\u68d5\u982d\u9d09\u96c0\u3015 (Sinosuthora webbiana#Vinous-throated Parrotbill)","ispublic":1,"isfriend":0,"isfamily":0},{"id":"32707250057","owner":"67102216@N00","secret":"c1bfc3f640","server":"65535","farm":66,"title":"JTH_3603_Sinosuthora_webbiana","ispublic":1,"isfriend":0,"isfamily":0},{"id":"46822543751","owner":"154347912@N05","secret":"37c53d9ea6","server":"4904","farm":5,"title":"Vinous-throated parrotbill (Sinosuthora webbiana)","ispublic":1,"isfriend":0,"isfamily":0},{"id":"32892340808","owner":"14513067@N00","secret":"a75c73f0d5","server":"7882","farm":8,"title":"Vinous-throated Parrotbill","ispublic":1,"isfriend":0,"isfamily":0},{"id":"32892340728","owner":"14513067@N00","secret":"1d383df5ac","server":"7868","farm":8,"title":"Vinous-throated Parrotbill","ispublic":1,"isfriend":0,"isfamily":0},{"id":"45475602074","owner":"88593217@N04","secret":"46d98d4852","server":"4812","farm":5,"title":"Vinous-throated Parrotbill, Botanical Garden, Beijing, China October 2018","ispublic":1,"isfriend":0,"isfamily":0},{"id":"45403384214","owner":"88593217@N04","secret":"a70345664c","server":"4898","farm":5,"title":"Vinous-throated Parrotbill, Olympic Forest Park, Beijing, China October 2018","ispublic":1,"isfriend":0,"isfamily":0},{"id":"32256178328","owner":"88593217@N04","secret":"e25d52acaa","server":"4909","farm":5,"title":"Vinous-throated Parrotbill, Olympic Forest Park, Beijing, China October 2018","ispublic":1,"isfriend":0,"isfamily":0},{"id":"32256177008","owner":"88593217@N04","secret":"a828179bb1","server":"4850","farm":5,"title":"Vinous-throated Parrotbill, Olympic Forest Park, Beijing, China October 2018","ispublic":1,"isfriend":0,"isfamily":0},{"id":"29258058727","owner":"66716461@N04","secret":"f5f069872f","server":"1900","farm":2,"title":"vinous-throated parrotbill (Sinosuthora webbiana)","ispublic":1,"isfriend":0,"isfamily":0},{"id":"39357306572","owner":"110072188@N06","secret":"a129c1663f","server":"4595","farm":5,"title":"DSC_7811_7454a1","ispublic":1,"isfriend":0,"isfamily":0},{"id":"39387371131","owner":"110072188@N06","secret":"0d0f4ba39d","server":"4735","farm":5,"title":"DSC_7829_7456a1","ispublic":1,"isfriend":0,"isfamily":0},{"id":"24411666987","owner":"110148017@N06","secret":"122114c8f6","server":"4732","farm":5,"title":"\u7c89\u7d05\u9e1a\u5634 Sinosuthora webbiana","ispublic":1,"isfriend":0,"isfamily":0},{"id":"24411664917","owner":"110148017@N06","secret":"1a10faab07","server":"4689","farm":5,"title":"\u7c89\u7d05\u9e1a\u5634 Sinosuthora webbiana","ispublic":1,"isfriend":0,"isfamily":0},{"id":"37518438222","owner":"98682992@N00","secret":"76d42cb707","server":"4501","farm":5,"title":"147A7242","ispublic":1,"isfriend":0,"isfamily":0},{"id":"36517040140","owner":"142952595@N08","secret":"3d81a42836","server":"4424","farm":5,"title":"Vinous-throated Parrotbill","ispublic":1,"isfriend":0,"isfamily":0},{"id":"36264707085","owner":"96060626@N03","secret":"b3f755c465","server":"4319","farm":5,"title":"20170416 (2)","ispublic":1,"isfriend":0,"isfamily":0},{"id":"36097842792","owner":"96060626@N03","secret":"8451757dbc","server":"4314","farm":5,"title":"20170416 (3)","ispublic":1,"isfriend":0,"isfamily":0},{"id":"36264706755","owner":"96060626@N03","secret":"b8867c1bf0","server":"4302","farm":5,"title":"20170416 (4)","ispublic":1,"isfriend":0,"isfamily":0},{"id":"36264706565","owner":"96060626@N03","secret":"65f63a5edc","server":"4329","farm":5,"title":"20170416 (6)","ispublic":1,"isfriend":0,"isfamily":0}]},"stat":"ok"}