{"photos":{"page":1,"pages":22,"perpage":100,"total":2109,"photo":[{"id":"52700699720","owner":"8783241@N08","secret":"f9fbed0174","server":"65535","farm":66,"title":"Rallus limicola - Virginia Rail","ispublic":1,"isfriend":0,"isfamily":0},{"id":"52645079040","owner":"8013969@N03","secret":"b11eaf8945","server":"65535","farm":66,"title":"Rallus limicola DFL ny22-1","ispublic":1,"isfriend":0,"isfamily":0},{"id":"52644895874","owner":"8013969@N03","secret":"d696b0c977","server":"65535","farm":66,"title":"Rallus limicola DFL ny22-12","ispublic":1,"isfriend":0,"isfamily":0},{"id":"52638776372","owner":"33888451@N07","secret":"de979e03df","server":"65535","farm":66,"title":"Virginia Rail (Rallus limicola)","ispublic":1,"isfriend":0,"isfamily":0},{"id":"52527181777","owner":"68635735@N02","secret":"4e299b4ab2","server":"65535","farm":66,"title":"Virginia Rail (Rallus limicola)","ispublic":1,"isfriend":0,"isfamily":0},{"id":"52513429119","owner":"189426727@N07","secret":"9384667f2d","server":"65535","farm":66,"title":"Virginia Rail","ispublic":1,"isfriend":0,"isfamily":0},{"id":"52509203868","owner":"39138537@N06","secret":"c27a851f36","server":"65535","farm":66,"title":"Virginia Rail (Rallus limicola)","ispublic":1,"isfriend":0,"isfamily":0},{"id":"52508177177","owner":"39138537@N06","secret":"1644336db6","server":"65535","farm":66,"title":"Virginia Rail (Rallus limicola)","ispublic":1,"isfriend":0,"isfamily":0},{"id":"52508931084","owner":"39138537@N06","secret":"dc7cf462ee","server":"65535","farm":66,"title":"Virginia Rail (Rallus limicola)","ispublic":1,"isfriend":0,"isfamily":0},{"id":"52417197370","owner":"21558080@N07","secret":"51d0164a66","server":"65535","farm":66,"title":"Virginia Rail (Rallus limicola) (sp. # 401)","ispublic":1,"isfriend":0,"isfamily":0},{"id":"52390604527","owner":"196264892@N08","secret":"9a7c429ddb","server":"65535","farm":66,"title":"Lummi Island Virginia Rail","ispublic":1,"isfriend":0,"isfamily":0},{"id":"52391525636","owner":"196264892@N08","secret":"492fc0d1cb","server":"65535","farm":66,"title":"Lummi Island Virginia Rail","ispublic":1,"isfriend":0,"isfamily":0},{"id":"52391525061","owner":"196264892@N08","secret":"3efc151127","server":"65535","farm":66,"title":"Lummi Island Virginia Rail","ispublic":1,"isfriend":0,"isfamily":0},{"id":"52391524726","owner":"196264892@N08","secret":"b6fe853682","server":"65535","farm":66,"title":"Lummi Island Virginia Rail","ispublic":1,"isfriend":0,"isfamily":0},{"id":"52390603212","owner":"196264892@N08","secret":"a8c4f0c5f1","server":"65535","farm":66,"title":"Lummi Island Virginia Rail","ispublic":1,"isfriend":0,"isfamily":0},{"id":"52391524066","owner":"196264892@N08","secret":"3a36c07a20","server":"65535","farm":66,"title":"Lummi Island Virginia Rail","ispublic":1,"isfriend":0,"isfamily":0},{"id":"52391734928","owner":"196264892@N08","secret":"d0c94a744c","server":"65535","farm":66,"title":"Virginia Rail","ispublic":1,"isfriend":0,"isfamily":0},{"id":"52391917245","owner":"196264892@N08","secret":"358f525941","server":"65535","farm":66,"title":"Virginia Rail","ispublic":1,"isfriend":0,"isfamily":0},{"id":"52391800994","owner":"196264892@N08","secret":"d47f3c9dd8","server":"65535","farm":66,"title":"Virginia Rail","ispublic":1,"isfriend":0,"isfamily":0},{"id":"52391734388","owner":"196264892@N08","secret":"4345dea58c","server":"65535","farm":66,"title":"Virginia Rail","ispublic":1,"isfriend":0,"isfamily":0},{"id":"52391488241","owner":"196264892@N08","secret":"dc4c8fab96","server":"65535","farm":66,"title":"Virginia Rail","ispublic":1,"isfriend":0,"isfamily":0},{"id":"52355516302","owner":"89318362@N05","secret":"646543493a","server":"65535","farm":66,"title":"Virginia Rail","ispublic":1,"isfriend":0,"isfamily":0},{"id":"52329175678","owner":"34368269@N04","secret":"4563c3ae79","server":"65535","farm":66,"title":"Virginia Rail","ispublic":1,"isfriend":0,"isfamily":0},{"id":"52326954702","owner":"39445433@N02","secret":"f7c1b62957","server":"65535","farm":66,"title":"Virginia Rail","ispublic":1,"isfriend":0,"isfamily":0},{"id":"52291231428","owner":"32320154@N05","secret":"3717ec17a5","server":"65535","farm":66,"title":"Virginia Rail","ispublic":1,"isfriend":0,"isfamily":0},{"id":"52276015485","owner":"65148649@N04","secret":"e101544ca0","server":"65535","farm":66,"title":"Virginia Rail","ispublic":1,"isfriend":0,"isfamily":0},{"id":"52275532121","owner":"65148649@N04","secret":"4c98a39d84","server":"65535","farm":66,"title":"Virginia Rail","ispublic":1,"isfriend":0,"isfamily":0},{"id":"52275794024","owner":"65148649@N04","secret":"7260cfaab5","server":"65535","farm":66,"title":"Virginia Rail","ispublic":1,"isfriend":0,"isfamily":0},{"id":"52273874466","owner":"165841515@N03","secret":"616c2d5e8e","server":"65535","farm":66,"title":"R\u00e2le de Virginie \/ Virginia Rail \/ (Rallus limicola)","ispublic":1,"isfriend":0,"isfamily":0},{"id":"52274133759","owner":"165841515@N03","secret":"39eab026ee","server":"65535","farm":66,"title":"R\u00e2le de Virginie \/ Virginia Rail \/ (Rallus limicola)","ispublic":1,"isfriend":0,"isfamily":0},{"id":"52273890448","owner":"165841515@N03","secret":"175da55151","server":"65535","farm":66,"title":"R\u00e2le de Virginie \/ Virginia Rail \/ (Rallus limicola)","ispublic":1,"isfriend":0,"isfamily":0},{"id":"52273890288","owner":"165841515@N03","secret":"a4816ec1f1","server":"65535","farm":66,"title":"R\u00e2le de Virginie \/ Virginia Rail \/ (Rallus limicola)","ispublic":1,"isfriend":0,"isfamily":0},{"id":"52270098086","owner":"196264892@N08","secret":"6c44765cc3","server":"65535","farm":66,"title":"Virginia Rail","ispublic":1,"isfriend":0,"isfamily":0},{"id":"52270367494","owner":"196264892@N08","secret":"4634e6e127","server":"65535","farm":66,"title":"Virginia Rail","ispublic":1,"isfriend":0,"isfamily":0},{"id":"52270117603","owner":"196264892@N08","secret":"9c0c2be83b","server":"65535","farm":66,"title":"Virginia Rail","ispublic":1,"isfriend":0,"isfamily":0},{"id":"52257088294","owner":"41978378@N08","secret":"1ab8a739f6","server":"65535","farm":66,"title":"Virginia Rail (Rallus limicola)","ispublic":1,"isfriend":0,"isfamily":0},{"id":"52251693434","owner":"71418112@N00","secret":"7416ca6488","server":"65535","farm":66,"title":"Virginia rail","ispublic":1,"isfriend":0,"isfamily":0},{"id":"52236224618","owner":"165841515@N03","secret":"1ed0d22c37","server":"65535","farm":66,"title":"R\u00e2le de Virginie \/ Virginia Rail \/ (Rallus limicola)","ispublic":1,"isfriend":0,"isfamily":0},{"id":"52234906631","owner":"67306066@N03","secret":"4f98974bbf","server":"65535","farm":66,"title":"Virginia Rail (Rallus limicola)","ispublic":1,"isfriend":0,"isfamily":0},{"id":"52232195856","owner":"165841515@N03","secret":"216f2a622c","server":"65535","farm":66,"title":"R\u00e2le de Virginie \/ Virginia Rail \/ (Rallus limicola)","ispublic":1,"isfriend":0,"isfamily":0},{"id":"52232204258","owner":"165841515@N03","secret":"ea8250acc7","server":"65535","farm":66,"title":"R\u00e2le de Virginie \/ Virginia Rail \/ (Rallus limicola)","ispublic":1,"isfriend":0,"isfamily":0},{"id":"52232468989","owner":"165841515@N03","secret":"2fa0d50a7c","server":"65535","farm":66,"title":"R\u00e2le de Virginie \/ Virginia Rail \/ (Rallus limicola)","ispublic":1,"isfriend":0,"isfamily":0},{"id":"52232195431","owner":"165841515@N03","secret":"568f340f6b","server":"65535","farm":66,"title":"R\u00e2le de Virginie \/ Virginia Rail \/ (Rallus limicola)","ispublic":1,"isfriend":0,"isfamily":0},{"id":"52229515491","owner":"165841515@N03","secret":"b1206e48fc","server":"65535","farm":66,"title":"R\u00e2le de Virginie \/ Virginia Rail \/ (Rallus limicola)","ispublic":1,"isfriend":0,"isfamily":0},{"id":"52228511172","owner":"165841515@N03","secret":"084d4efa3b","server":"65535","farm":66,"title":"R\u00e2le de Virginie \/ Virginia Rail \/ (Rallus limicola)","ispublic":1,"isfriend":0,"isfamily":0},{"id":"52229785129","owner":"165841515@N03","secret":"cbaa3e1e05","server":"65535","farm":66,"title":"R\u00e2le de Virginie \/ Virginia Rail \/ (Rallus limicola)","ispublic":1,"isfriend":0,"isfamily":0},{"id":"52229784894","owner":"165841515@N03","secret":"86f84d49e9","server":"65535","farm":66,"title":"R\u00e2le de Virginie \/ Virginia Rail \/ (Rallus limicola)","ispublic":1,"isfriend":0,"isfamily":0},{"id":"52210826565","owner":"81804225@N08","secret":"2368a05f91","server":"65535","farm":66,"title":"Virginia Rail (Rallus limicola)","ispublic":1,"isfriend":0,"isfamily":0},{"id":"52207695832","owner":"92361032@N05","secret":"645ba3f985","server":"65535","farm":66,"title":"Virginia Rail\/ R\u00e2le de Virginie ( Diane )","ispublic":1,"isfriend":0,"isfamily":0},{"id":"52198454804","owner":"132165466@N08","secret":"c5bcf8aa35","server":"65535","farm":66,"title":"Virgina Rail","ispublic":1,"isfriend":0,"isfamily":0},{"id":"52198454784","owner":"132165466@N08","secret":"20ea71991c","server":"65535","farm":66,"title":"Virgina Rail","ispublic":1,"isfriend":0,"isfamily":0},{"id":"52196830878","owner":"132165466@N08","secret":"5bd0cd0788","server":"65535","farm":66,"title":"Virgina Rail","ispublic":1,"isfriend":0,"isfamily":0},{"id":"52197076309","owner":"132165466@N08","secret":"b156983721","server":"65535","farm":66,"title":"Virgina Rail","ispublic":1,"isfriend":0,"isfamily":0},{"id":"52196830873","owner":"132165466@N08","secret":"0ed4fbcbae","server":"65535","farm":66,"title":"Virgina Rail","ispublic":1,"isfriend":0,"isfamily":0},{"id":"52195872438","owner":"132165466@N08","secret":"7b1edc345a","server":"65535","farm":66,"title":"Virgina Rail","ispublic":1,"isfriend":0,"isfamily":0},{"id":"52195872448","owner":"132165466@N08","secret":"94751ef977","server":"65535","farm":66,"title":"Virgina Rail","ispublic":1,"isfriend":0,"isfamily":0},{"id":"52196119504","owner":"132165466@N08","secret":"a6accceb88","server":"65535","farm":66,"title":"Virgina Rail","ispublic":1,"isfriend":0,"isfamily":0},{"id":"52188676842","owner":"129561527@N06","secret":"df04341ca3","server":"65535","farm":66,"title":"Virginia Rail 2022-001","ispublic":1,"isfriend":0,"isfamily":0},{"id":"52141055897","owner":"78145652@N02","secret":"d3a4601c90","server":"65535","farm":66,"title":"Virginia Rail - Rallus limicola","ispublic":1,"isfriend":0,"isfamily":0},{"id":"52141540206","owner":"140985130@N07","secret":"e7e0723f6c","server":"65535","farm":66,"title":"Virginia Rail","ispublic":1,"isfriend":0,"isfamily":0},{"id":"52131512351","owner":"77931884@N00","secret":"3350f6cb08","server":"65535","farm":66,"title":"Virginia Rail","ispublic":1,"isfriend":0,"isfamily":0},{"id":"52123523276","owner":"165841515@N03","secret":"73e302abb8","server":"65535","farm":66,"title":"R\u00e2le de Virginie \/ Virginia Rail \/ (Rallus limicola)","ispublic":1,"isfriend":0,"isfamily":0},{"id":"52121565446","owner":"39138537@N06","secret":"b5bc410d26","server":"65535","farm":66,"title":"Virginia Rail (Rallus limicola)","ispublic":1,"isfriend":0,"isfamily":0},{"id":"52110291361","owner":"93244858@N00","secret":"2ecea539fe","server":"65535","farm":66,"title":"Virginia rail, juvenile (Rallus limicola)","ispublic":1,"isfriend":0,"isfamily":0},{"id":"52099991739","owner":"8561740@N08","secret":"e601154323","server":"65535","farm":66,"title":"Virginia rail (again)","ispublic":1,"isfriend":0,"isfamily":0},{"id":"52099780628","owner":"8561740@N08","secret":"69fdd13b18","server":"65535","farm":66,"title":"Virginia rail (again)","ispublic":1,"isfriend":0,"isfamily":0},{"id":"52099780528","owner":"8561740@N08","secret":"068ac79ecb","server":"65535","farm":66,"title":"Virginia rail (again)","ispublic":1,"isfriend":0,"isfamily":0},{"id":"52095210944","owner":"36685968@N00","secret":"12b67da571","server":"65535","farm":66,"title":"Virginia Rail (Rallus limicola)","ispublic":1,"isfriend":0,"isfamily":0},{"id":"52094991733","owner":"36685968@N00","secret":"de2f91bf78","server":"65535","farm":66,"title":"Virginia Rail (Rallus limicola)","ispublic":1,"isfriend":0,"isfamily":0},{"id":"52094963339","owner":"78919200@N08","secret":"0c513a9da3","server":"65535","farm":66,"title":"Virginia Rail (Rallus limicola)","ispublic":1,"isfriend":0,"isfamily":0},{"id":"52092385290","owner":"39138537@N06","secret":"71505910ed","server":"65535","farm":66,"title":"Virginia Rail (Rallus limicola)","ispublic":1,"isfriend":0,"isfamily":0},{"id":"52088167569","owner":"8561740@N08","secret":"3484c32aff","server":"65535","farm":66,"title":"Virginia rail","ispublic":1,"isfriend":0,"isfamily":0},{"id":"52088038645","owner":"150374485@N05","secret":"a0dd050bbf","server":"65535","farm":66,"title":"R\u00e2le de Virginie--Virginia Rail (Rallus limicola) (IN EXPLORE no-98)","ispublic":1,"isfriend":0,"isfamily":0},{"id":"52085610094","owner":"150374485@N05","secret":"3b7fa1ca95","server":"65535","farm":66,"title":"R\u00e2le de Virginie--Virginia Rail (Rallus Limicola)","ispublic":1,"isfriend":0,"isfamily":0},{"id":"52085210573","owner":"36667121@N06","secret":"f9dc4afbe0","server":"65535","farm":66,"title":"virginia rail \/ rallus limicola","ispublic":1,"isfriend":0,"isfamily":0},{"id":"52065543099","owner":"78919200@N08","secret":"39ed4046e5","server":"65535","farm":66,"title":"Virginia Rail (Rallus limicola)","ispublic":1,"isfriend":0,"isfamily":0},{"id":"52061432538","owner":"77931884@N00","secret":"c277a8cffb","server":"65535","farm":66,"title":"Virginia Rail Family","ispublic":1,"isfriend":0,"isfamily":0},{"id":"52060638008","owner":"77931884@N00","secret":"829d3b063b","server":"65535","farm":66,"title":"Virginia Rail and Chick","ispublic":1,"isfriend":0,"isfamily":0},{"id":"52057642177","owner":"22475926@N08","secret":"a79d834ae1","server":"65535","farm":66,"title":"Virginia rail (Rallus limicola)","ispublic":1,"isfriend":0,"isfamily":0},{"id":"52057559819","owner":"156369634@N07","secret":"4fcc239bba","server":"65535","farm":66,"title":"R\u00e2le de Virginie-Virginia Rail-01052022","ispublic":1,"isfriend":0,"isfamily":0},{"id":"52053815895","owner":"85277889@N08","secret":"2f3089f201","server":"65535","farm":66,"title":"Virginia Rail (Rallus limicola) 2022-05-05 (7)","ispublic":1,"isfriend":0,"isfamily":0},{"id":"52036913704","owner":"39138537@N06","secret":"840bb31bac","server":"65535","farm":66,"title":"Virginia Rail (Rallus limicola)","ispublic":1,"isfriend":0,"isfamily":0},{"id":"52033572003","owner":"131037795@N03","secret":"215dbc4deb","server":"65535","farm":66,"title":"Virginia Rail (Rallus limicola)","ispublic":1,"isfriend":0,"isfamily":0},{"id":"52032477757","owner":"131037795@N03","secret":"4e99dc6012","server":"65535","farm":66,"title":"Virginia Rail (Rallus limicola)","ispublic":1,"isfriend":0,"isfamily":0},{"id":"52023689219","owner":"8666250@N02","secret":"18402c3eae","server":"65535","farm":66,"title":"Ginny Rail comes out for a visit....-03","ispublic":1,"isfriend":0,"isfamily":0},{"id":"52013305196","owner":"8666250@N02","secret":"a8b60e0d44","server":"65535","farm":66,"title":"Railstep!","ispublic":1,"isfriend":0,"isfamily":0},{"id":"52261873807","owner":"58426132@N03","secret":"a32cf6cfbb","server":"65535","farm":66,"title":"Virginia Rail (Rallus limicola)","ispublic":1,"isfriend":0,"isfamily":0},{"id":"52263328560","owner":"58426132@N03","secret":"dd9b4cdc42","server":"65535","farm":66,"title":"Virginia Rail (Rallus limicola)","ispublic":1,"isfriend":0,"isfamily":0},{"id":"52263325120","owner":"58426132@N03","secret":"fc44998c43","server":"65535","farm":66,"title":"Virginia Rail (Rallus limicola)","ispublic":1,"isfriend":0,"isfamily":0},{"id":"52214977705","owner":"193265066@N04","secret":"87444b32e6","server":"65535","farm":66,"title":"R\u00e2le De Virginie \/ Rallus limicola \/ Virginia Rail","ispublic":1,"isfriend":0,"isfamily":0},{"id":"52152933721","owner":"39177293@N03","secret":"ececb8cfe7","server":"65535","farm":66,"title":"Virginia Rail","ispublic":1,"isfriend":0,"isfamily":0},{"id":"52122493717","owner":"165841515@N03","secret":"b5464bac58","server":"65535","farm":66,"title":"R\u00e2le de Virginie \/ Virginia Rail \/ (Rallus limicola)","ispublic":1,"isfriend":0,"isfamily":0},{"id":"52089949443","owner":"77931884@N00","secret":"995334e7b6","server":"0","farm":0,"title":"The Early Bird Gets The Worm","ispublic":1,"isfriend":0,"isfamily":0},{"id":"52023442786","owner":"8666250@N02","secret":"4d12727d87","server":"65535","farm":66,"title":"Ginny Rail comes out for a visit....-16","ispublic":1,"isfriend":0,"isfamily":0},{"id":"52023476288","owner":"8666250@N02","secret":"35ce9e12c9","server":"65535","farm":66,"title":"Ginny Rail comes out for a visit....-08","ispublic":1,"isfriend":0,"isfamily":0},{"id":"52023951450","owner":"8666250@N02","secret":"cbc859824e","server":"65535","farm":66,"title":"Ginny Rail comes out for a visit....-07","ispublic":1,"isfriend":0,"isfamily":0},{"id":"52022398572","owner":"8666250@N02","secret":"a696bd819c","server":"65535","farm":66,"title":"Ginny Rail comes out for a visit....-06","ispublic":1,"isfriend":0,"isfamily":0},{"id":"52023475948","owner":"8666250@N02","secret":"be820f1f79","server":"65535","farm":66,"title":"Ginny Rail comes out for a visit....-05","ispublic":1,"isfriend":0,"isfamily":0},{"id":"52023475853","owner":"8666250@N02","secret":"ff7aacc7a2","server":"65535","farm":66,"title":"Ginny Rail comes out for a visit....-04","ispublic":1,"isfriend":0,"isfamily":0},{"id":"52023441991","owner":"8666250@N02","secret":"a2c2656f34","server":"65535","farm":66,"title":"Ginny Rail comes out for a visit....-02","ispublic":1,"isfriend":0,"isfamily":0}]},"stat":"ok"}