{"photos":{"page":1,"pages":25,"perpage":100,"total":2476,"photo":[{"id":"52671749329","owner":"50264295@N06","secret":"043d73cdf7","server":"65535","farm":66,"title":"Warbling Vireo (Vireo gilvus)- SY, FCA male","ispublic":1,"isfriend":0,"isfamily":0},{"id":"52671886880","owner":"50264295@N06","secret":"ea09da020b","server":"65535","farm":66,"title":"Warbling Vireo (Vireo gilvus)- SY, FCA male","ispublic":1,"isfriend":0,"isfamily":0},{"id":"52671295441","owner":"50264295@N06","secret":"cace13724c","server":"65535","farm":66,"title":"Warbling Vireo (Vireo gilvus)- ASY, DCA male","ispublic":1,"isfriend":0,"isfamily":0},{"id":"52671289116","owner":"50264295@N06","secret":"41392c9207","server":"65535","farm":66,"title":"Warbling Vireo (Vireo gilvus)- ASY, DCA male","ispublic":1,"isfriend":0,"isfamily":0},{"id":"52632321604","owner":"97599611@N04","secret":"ffa6499dc9","server":"65535","farm":66,"title":"0P7A1494   Warbling Vireo, Canada","ispublic":1,"isfriend":0,"isfamily":0},{"id":"52137933685","owner":"134270033@N06","secret":"aed9c1c6c0","server":"0","farm":0,"title":"short Vid Doc for Audio","ispublic":1,"isfriend":0,"isfamily":0},{"id":"52585222203","owner":"76288515@N07","secret":"91522bafd6","server":"65535","farm":66,"title":"Warbling Vireo Vireo gilvus","ispublic":1,"isfriend":0,"isfamily":0},{"id":"52584702361","owner":"76288515@N07","secret":"f95a87150c","server":"65535","farm":66,"title":"Warbling Vireo Vireo gilvus","ispublic":1,"isfriend":0,"isfamily":0},{"id":"52584965934","owner":"76288515@N07","secret":"da79ab9233","server":"65535","farm":66,"title":"Warbling Vireo Vireo gilvus","ispublic":1,"isfriend":0,"isfamily":0},{"id":"52585222043","owner":"76288515@N07","secret":"61ccac1419","server":"65535","farm":66,"title":"Warbling Vireo Vireo gilvus","ispublic":1,"isfriend":0,"isfamily":0},{"id":"52585221983","owner":"76288515@N07","secret":"6d9f27251f","server":"65535","farm":66,"title":"Warbling Vireo Vireo gilvus","ispublic":1,"isfriend":0,"isfamily":0},{"id":"52584965824","owner":"76288515@N07","secret":"5e5b404ca9","server":"65535","farm":66,"title":"Warbling Vireo Vireo gilvus","ispublic":1,"isfriend":0,"isfamily":0},{"id":"52584233232","owner":"76288515@N07","secret":"22f82b5ebb","server":"65535","farm":66,"title":"Warbling Vireo Vireo gilvus","ispublic":1,"isfriend":0,"isfamily":0},{"id":"52584233162","owner":"76288515@N07","secret":"ff7cb61ca1","server":"65535","farm":66,"title":"Warbling Vireo Vireo gilvus","ispublic":1,"isfriend":0,"isfamily":0},{"id":"52580234531","owner":"153973412@N04","secret":"d7ebc886b7","server":"65535","farm":66,"title":"Warbling Vireo-Vireo gilvus, Iowa City, IA","ispublic":1,"isfriend":0,"isfamily":0},{"id":"52502091862","owner":"30638967@N03","secret":"7ddb7d3c2f","server":"65535","farm":66,"title":"Warbling Vireo DSC_3702","ispublic":1,"isfriend":0,"isfamily":0},{"id":"52494751477","owner":"64557331@N04","secret":"d2d04d1c96","server":"65535","farm":66,"title":"Warbling Vireo - (Vireo gilvus)_09162021","ispublic":1,"isfriend":0,"isfamily":0},{"id":"52493024551","owner":"22304442@N00","secret":"c7d10bef77","server":"65535","farm":66,"title":"vireo m\u00e9lodieux (warbling vireo)","ispublic":1,"isfriend":0,"isfamily":0},{"id":"52492539877","owner":"22304442@N00","secret":"3b75756f5b","server":"65535","farm":66,"title":"vireo m\u00e9lodieux (warbling vireo)","ispublic":1,"isfriend":0,"isfamily":0},{"id":"52491438453","owner":"187792860@N04","secret":"46b16d20be","server":"65535","farm":66,"title":"Warbling Vireo (Western) (Vireo gilvus)","ispublic":1,"isfriend":0,"isfamily":0},{"id":"52458545614","owner":"187792860@N04","secret":"075737ca2e","server":"65535","farm":66,"title":"Warbling Vireo (Western) (Vireo gilvus)","ispublic":1,"isfriend":0,"isfamily":0},{"id":"52448572078","owner":"187792860@N04","secret":"1f74b4f5a0","server":"65535","farm":66,"title":"Warbling Vireo (Vireo gilvus)","ispublic":1,"isfriend":0,"isfamily":0},{"id":"52444825415","owner":"97599611@N04","secret":"1a8d0f8aa7","server":"65535","farm":66,"title":"OP7A1460  Warbling Vireo, Canada","ispublic":1,"isfriend":0,"isfamily":0},{"id":"52444566179","owner":"8666250@N02","secret":"4781b9ca8e","server":"65535","farm":66,"title":"Warbling Vireo -05","ispublic":1,"isfriend":0,"isfamily":0},{"id":"52434101672","owner":"187792860@N04","secret":"c0b8d23f69","server":"65535","farm":66,"title":"Warbling Vireo (Vireo gilvus)","ispublic":1,"isfriend":0,"isfamily":0},{"id":"52434626599","owner":"131037795@N03","secret":"4d55a69fe4","server":"65535","farm":66,"title":"Warbling Vireo (Vireo gilvus)","ispublic":1,"isfriend":0,"isfamily":0},{"id":"52432155648","owner":"187792860@N04","secret":"75aabea59b","server":"65535","farm":66,"title":"Warbling Vireo (Vireo gilvus)","ispublic":1,"isfriend":0,"isfamily":0},{"id":"52427476926","owner":"39177293@N03","secret":"7fe6324fa8","server":"65535","farm":66,"title":"Warbling Vireo","ispublic":1,"isfriend":0,"isfamily":0},{"id":"52427418688","owner":"34238008@N02","secret":"c0aa64ee52","server":"65535","farm":66,"title":"Warbling Vireo (Vireo gilvus)","ispublic":1,"isfriend":0,"isfamily":0},{"id":"52427353795","owner":"34238008@N02","secret":"b0fdacf085","server":"65535","farm":66,"title":"Warbling Vireo (Vireo gilvus)","ispublic":1,"isfriend":0,"isfamily":0},{"id":"52425319258","owner":"34238008@N02","secret":"50825980be","server":"65535","farm":66,"title":"Warbling Vireo, adult (Vireo gilvus)","ispublic":1,"isfriend":0,"isfamily":0},{"id":"52425257205","owner":"34238008@N02","secret":"f5ac24fe21","server":"65535","farm":66,"title":"Warbling Vireo (Vireo gilvus)","ispublic":1,"isfriend":0,"isfamily":0},{"id":"52425318898","owner":"34238008@N02","secret":"e770e2b26c","server":"65535","farm":66,"title":"Warbling Vireo (Vireo gilvus)","ispublic":1,"isfriend":0,"isfamily":0},{"id":"52392532386","owner":"34368269@N04","secret":"06f780dbf5","server":"65535","farm":66,"title":"Warbling Vireo","ispublic":1,"isfriend":0,"isfamily":0},{"id":"52391488051","owner":"196264892@N08","secret":"7be567074f","server":"65535","farm":66,"title":"Warbling Vireo","ispublic":1,"isfriend":0,"isfamily":0},{"id":"52388663041","owner":"71418112@N00","secret":"ce6800148a","server":"65535","farm":66,"title":"Warbling vireo.","ispublic":1,"isfriend":0,"isfamily":0},{"id":"52388016180","owner":"8666250@N02","secret":"d50da909b8","server":"65535","farm":66,"title":"Warbling Vireo -01","ispublic":1,"isfriend":0,"isfamily":0},{"id":"52379303887","owner":"43898512@N07","secret":"217dc82d79","server":"65535","farm":66,"title":"Warbling Vireo - Vireo gilvus","ispublic":1,"isfriend":0,"isfamily":0},{"id":"52373933686","owner":"34238008@N02","secret":"fe09d16a07","server":"65535","farm":66,"title":"Warbling Vireo (Vireo gilvus)","ispublic":1,"isfriend":0,"isfamily":0},{"id":"52372135531","owner":"59770980@N02","secret":"8e99c0e19c","server":"65535","farm":66,"title":"S\u00f6ngvagr\u00e6ningi-Warbling Vireo-Vireo gilvus","ispublic":1,"isfriend":0,"isfamily":0},{"id":"52364568946","owner":"13451078@N03","secret":"127070cbd6","server":"65535","farm":66,"title":"Warbling Vireo (Vireo gilvus)","ispublic":1,"isfriend":0,"isfamily":0},{"id":"52361752737","owner":"196264892@N08","secret":"97729a0bf6","server":"65535","farm":66,"title":"Warbling Vireo","ispublic":1,"isfriend":0,"isfamily":0},{"id":"52353147813","owner":"188156748@N07","secret":"ed54a4d034","server":"65535","farm":66,"title":"Warbling Vireo -  Vir\u00e9o M\u00e9lodieux  5621 (1)-SharpenAI-Standard copy.jpgS","ispublic":1,"isfriend":0,"isfamily":0},{"id":"52351962842","owner":"188156748@N07","secret":"c5a498fd84","server":"65535","farm":66,"title":"Warbling Vireo -  Vir\u00e9o M\u00e9lodieux 5621 (2)-SharpenAI-Standard copy.jpgS","ispublic":1,"isfriend":0,"isfamily":0},{"id":"52353226084","owner":"188156748@N07","secret":"211e2df3f5","server":"65535","farm":66,"title":"Warbling Vireo -  Vir\u00e9o M\u00e9lodieux 5621 (3)-SharpenAI-Standard","ispublic":1,"isfriend":0,"isfamily":0},{"id":"52349317282","owner":"187792860@N04","secret":"49ee72dfd5","server":"65535","farm":66,"title":"Warbling Vireo (Vireo gilvus)","ispublic":1,"isfriend":0,"isfamily":0},{"id":"52346320790","owner":"45340210@N05","secret":"2a2df4c89d","server":"65535","farm":66,"title":"Warbling Vireo 2 9_9_22","ispublic":1,"isfriend":0,"isfamily":0},{"id":"52339542141","owner":"13451078@N03","secret":"15acc42f30","server":"65535","farm":66,"title":"Warbling  (Vireo (Vireo gilvus)","ispublic":1,"isfriend":0,"isfamily":0},{"id":"52331565732","owner":"62043870@N05","secret":"279b281348","server":"65535","farm":66,"title":"Warbling Vireo, Vireo gilvus","ispublic":1,"isfriend":0,"isfamily":0},{"id":"52330157376","owner":"54549270@N03","secret":"9188d51f7a","server":"65535","farm":66,"title":"Warbling Vireo ~ \u2018Vireo gilvus'","ispublic":1,"isfriend":0,"isfamily":0},{"id":"52327616966","owner":"196264892@N08","secret":"9c3a060760","server":"65535","farm":66,"title":"Vireo bites head off Dragonfly","ispublic":1,"isfriend":0,"isfamily":0},{"id":"52328037160","owner":"196264892@N08","secret":"e0a1a0c0c6","server":"65535","farm":66,"title":"Warbling Vireo with dragonfly","ispublic":1,"isfriend":0,"isfamily":0},{"id":"52326661632","owner":"196264892@N08","secret":"c81a6c8d2a","server":"65535","farm":66,"title":"Warbling Vireo eats dragonfly","ispublic":1,"isfriend":0,"isfamily":0},{"id":"52328036830","owner":"196264892@N08","secret":"9b604823ac","server":"65535","farm":66,"title":"Warbling Vireo eats dragonfly","ispublic":1,"isfriend":0,"isfamily":0},{"id":"52327911174","owner":"196264892@N08","secret":"c290b9f50d","server":"65535","farm":66,"title":"Warbling Vireo","ispublic":1,"isfriend":0,"isfamily":0},{"id":"52317801953","owner":"53977003@N00","secret":"d5bfc9fbbd","server":"65535","farm":66,"title":"Warbling Vireo","ispublic":1,"isfriend":0,"isfamily":0},{"id":"52300478140","owner":"145824323@N05","secret":"4c40338e3e","server":"65535","farm":66,"title":"Warbling vireo (Vireo gilvus)","ispublic":1,"isfriend":0,"isfamily":0},{"id":"52274419917","owner":"196264892@N08","secret":"6e3d0e2b7b","server":"65535","farm":66,"title":"Warbling Vireo","ispublic":1,"isfriend":0,"isfamily":0},{"id":"52270096856","owner":"196264892@N08","secret":"82e2c61a15","server":"65535","farm":66,"title":"Warbling Vireo","ispublic":1,"isfriend":0,"isfamily":0},{"id":"52269132872","owner":"196264892@N08","secret":"9cf48bc166","server":"65535","farm":66,"title":"Warbling Vireo","ispublic":1,"isfriend":0,"isfamily":0},{"id":"52269736315","owner":"34238008@N02","secret":"816726d936","server":"65535","farm":66,"title":"Warbling Vireo (Vireo gilvus)","ispublic":1,"isfriend":0,"isfamily":0},{"id":"52269736230","owner":"34238008@N02","secret":"d3767bb71f","server":"65535","farm":66,"title":"Warbling Vireo (Vireo gilvus)","ispublic":1,"isfriend":0,"isfamily":0},{"id":"52269516019","owner":"34238008@N02","secret":"eb5df885f9","server":"65535","farm":66,"title":"Warbling Vireo (Vireo gilvus)","ispublic":1,"isfriend":0,"isfamily":0},{"id":"52269515864","owner":"34238008@N02","secret":"a599fdedcc","server":"65535","farm":66,"title":"Warbling Vireo (Vireo gilvus)","ispublic":1,"isfriend":0,"isfamily":0},{"id":"52266138096","owner":"146696747@N03","secret":"120d34aca4","server":"65535","farm":66,"title":"Warbling Vireo","ispublic":1,"isfriend":0,"isfamily":0},{"id":"52260253910","owner":"103722035@N06","secret":"95324e1691","server":"0","farm":0,"title":"Warbling Vireo (Vireo gilvus), Laguna Lake, San Luis Obispo, CA","ispublic":1,"isfriend":0,"isfamily":0},{"id":"52259439519","owner":"184155060@N04","secret":"97bf354415","server":"65535","farm":66,"title":"18397 Vir\u00e9o m\u00e9lodieux \/ Vireo gilvus gilvus \/ Warbling Vireo (Eastern)","ispublic":1,"isfriend":0,"isfamily":0},{"id":"52259439424","owner":"184155060@N04","secret":"f30ab41832","server":"65535","farm":66,"title":"18397 Vir\u00e9o m\u00e9lodieux \/ Vireo gilvus gilvus \/ Warbling Vireo (Eastern)","ispublic":1,"isfriend":0,"isfamily":0},{"id":"52258192017","owner":"184155060@N04","secret":"3d8e83446b","server":"65535","farm":66,"title":"18397 Vir\u00e9o m\u00e9lodieux \/ Vireo gilvus gilvus \/ Warbling Vireo (Eastern)","ispublic":1,"isfriend":0,"isfamily":0},{"id":"52253877459","owner":"34238008@N02","secret":"5ea5320ef3","server":"65535","farm":66,"title":"Warbling Vireo, adult (Vireo gilvus)","ispublic":1,"isfriend":0,"isfamily":0},{"id":"52252622162","owner":"34238008@N02","secret":"f9b01aca02","server":"65535","farm":66,"title":"Warbling Vireo (Vireo gilvus)","ispublic":1,"isfriend":0,"isfamily":0},{"id":"52252997369","owner":"187792860@N04","secret":"25474c4ea0","server":"65535","farm":66,"title":"Warbling Vireo (Vireo gilvus)","ispublic":1,"isfriend":0,"isfamily":0},{"id":"52252677733","owner":"187792860@N04","secret":"bf9e54ce9b","server":"65535","farm":66,"title":"Warbling Vireo (Vireo gilvus)","ispublic":1,"isfriend":0,"isfamily":0},{"id":"52253157465","owner":"187792860@N04","secret":"2097f7d028","server":"65535","farm":66,"title":"Warbling Vireo (Vireo gilvus)","ispublic":1,"isfriend":0,"isfamily":0},{"id":"52241230827","owner":"120449047@N06","secret":"61041e9b48","server":"65535","farm":66,"title":"Warbling Vireo","ispublic":1,"isfriend":0,"isfamily":0},{"id":"52240324339","owner":"34238008@N02","secret":"8dbb735b99","server":"65535","farm":66,"title":"Warbling Vireo (Vireo gilvus)","ispublic":1,"isfriend":0,"isfamily":0},{"id":"52240324214","owner":"34238008@N02","secret":"f6242e7d7f","server":"65535","farm":66,"title":"Warbling Vireo (Vireo gilvus)","ispublic":1,"isfriend":0,"isfamily":0},{"id":"52240324114","owner":"34238008@N02","secret":"f7063b1e0f","server":"65535","farm":66,"title":"Warbling Vireo (Vireo gilvus)","ispublic":1,"isfriend":0,"isfamily":0},{"id":"52240324004","owner":"34238008@N02","secret":"06e9af59a0","server":"65535","farm":66,"title":"Warbling Vireo (Vireo gilvus)","ispublic":1,"isfriend":0,"isfamily":0},{"id":"52234473115","owner":"94222177@N06","secret":"02b8818237","server":"65535","farm":66,"title":"Vireo Vendredi #2","ispublic":1,"isfriend":0,"isfamily":0},{"id":"52230727005","owner":"71418112@N00","secret":"856237daa9","server":"65535","farm":66,"title":"Faster than a speeding bullet.","ispublic":1,"isfriend":0,"isfamily":0},{"id":"52215055886","owner":"150163656@N06","secret":"4ebf6955e3","server":"65535","farm":66,"title":"Warbling vireo on nest","ispublic":1,"isfriend":0,"isfamily":0},{"id":"52215331534","owner":"150163656@N06","secret":"81f32b583c","server":"65535","farm":66,"title":"Warbling vireo","ispublic":1,"isfriend":0,"isfamily":0},{"id":"52215537310","owner":"150163656@N06","secret":"f67901e6c9","server":"65535","farm":66,"title":"Warbling vireo","ispublic":1,"isfriend":0,"isfamily":0},{"id":"52205499161","owner":"132165466@N08","secret":"3f32649766","server":"65535","farm":66,"title":"Warbling Vireo","ispublic":1,"isfriend":0,"isfamily":0},{"id":"52205764244","owner":"132165466@N08","secret":"0884fa9617","server":"65535","farm":66,"title":"Warbling Vireo","ispublic":1,"isfriend":0,"isfamily":0},{"id":"52205499166","owner":"132165466@N08","secret":"4b4ae41e33","server":"65535","farm":66,"title":"Warbling Vireo","ispublic":1,"isfriend":0,"isfamily":0},{"id":"52204126643","owner":"14734088@N02","secret":"faccef82d2","server":"65535","farm":66,"title":"Vir\u00e9o m\u00e9lodieux 220603H1b","ispublic":1,"isfriend":0,"isfamily":0},{"id":"52199341083","owner":"65148649@N04","secret":"200c8b5f40","server":"65535","farm":66,"title":"Warbling Vireo","ispublic":1,"isfriend":0,"isfamily":0},{"id":"52198179164","owner":"184155060@N04","secret":"e50ecd4349","server":"65535","farm":66,"title":"18397 Vir\u00e9o m\u00e9lodieux \/ Vireo gilvus gilvus \/ Warbling Vireo (Eastern)","ispublic":1,"isfriend":0,"isfamily":0},{"id":"52189760090","owner":"119095828@N03","secret":"98f8d2c0f1","server":"65535","farm":66,"title":"Warbling Vireo (Vireo gilvus)","ispublic":1,"isfriend":0,"isfamily":0},{"id":"52189287773","owner":"119095828@N03","secret":"2306dccce0","server":"65535","farm":66,"title":"Warbling Vireo (Vireo gilvus)","ispublic":1,"isfriend":0,"isfamily":0},{"id":"52186406287","owner":"99849996@N00","secret":"b40124f49a","server":"65535","farm":66,"title":"Warbling Vireo 20210828_8462","ispublic":1,"isfriend":0,"isfamily":0},{"id":"52187177271","owner":"119095828@N03","secret":"05a3b10cec","server":"65535","farm":66,"title":"Warbling Vireo (Vireo gilvus)","ispublic":1,"isfriend":0,"isfamily":0},{"id":"52187000609","owner":"35702041@N00","secret":"9c01cb9fb2","server":"65535","farm":66,"title":"Warbling Vireo","ispublic":1,"isfriend":0,"isfamily":0},{"id":"52184445290","owner":"131037795@N03","secret":"1ca615dc9d","server":"65535","farm":66,"title":"Warbling Vireo (Vireo gilvus)","ispublic":1,"isfriend":0,"isfamily":0},{"id":"52182430674","owner":"63093099@N02","secret":"ba6611b68d","server":"65535","farm":66,"title":"Warbling Vireo; 20220629; USA-OH-Cleveland","ispublic":1,"isfriend":0,"isfamily":0},{"id":"52168893815","owner":"97599611@N04","secret":"b248d23741","server":"65535","farm":66,"title":"0P7A1485   Warbling Vireo , Canada","ispublic":1,"isfriend":0,"isfamily":0},{"id":"52162751736","owner":"14734088@N02","secret":"fcd2e91205","server":"65535","farm":66,"title":"Vir\u00e9o melodieux 220603H1a","ispublic":1,"isfriend":0,"isfamily":0},{"id":"52160456114","owner":"54249623@N08","secret":"a0c30a5a9c","server":"65535","farm":66,"title":"Warbling Vireo (Vireo gilvus)","ispublic":1,"isfriend":0,"isfamily":0}]},"stat":"ok"}