{"photos":{"page":1,"pages":37,"perpage":100,"total":3656,"photo":[{"id":"52707653444","owner":"98627816@N02","secret":"5991a856d6","server":"65535","farm":66,"title":"Western Sandpiper","ispublic":1,"isfriend":0,"isfamily":0},{"id":"52680028327","owner":"124995824@N08","secret":"cb6931c77f","server":"65535","farm":66,"title":"Western Sandpiper - Calidris mauri","ispublic":1,"isfriend":0,"isfamily":0},{"id":"52680545356","owner":"124995824@N08","secret":"9bdff08bf2","server":"65535","farm":66,"title":"Western Sandpiper - Calidris mauri","ispublic":1,"isfriend":0,"isfamily":0},{"id":"52677705269","owner":"130021529@N02","secret":"502a511460","server":"65535","farm":66,"title":"Calidris mauri | Western Sandpiper | tundrasn\u00e4ppa","ispublic":1,"isfriend":0,"isfamily":0},{"id":"52666612640","owner":"131779834@N08","secret":"822bb87649","server":"65535","farm":66,"title":"Stepping through Mud","ispublic":1,"isfriend":0,"isfamily":0},{"id":"52641048882","owner":"131779834@N08","secret":"a5e1b50c39","server":"65535","farm":66,"title":"Sandpiper and the Fly","ispublic":1,"isfriend":0,"isfamily":0},{"id":"52606164033","owner":"62043870@N05","secret":"23b33111d4","server":"65535","farm":66,"title":"Western Sandpipers, Calidris mauri","ispublic":1,"isfriend":0,"isfamily":0},{"id":"52601764998","owner":"162361914@N07","secret":"b19fbe16fb","server":"65535","farm":66,"title":"Western Sandpiper at the Lodge","ispublic":1,"isfriend":0,"isfamily":0},{"id":"52496434192","owner":"54059915@N07","secret":"324ab89dc9","server":"65535","farm":66,"title":"I vant to be alone","ispublic":1,"isfriend":0,"isfamily":0},{"id":"52453524807","owner":"11803211@N06","secret":"1cab8a91ce","server":"65535","farm":66,"title":"Western sandpiper (Calidris mauri), Fort De Soto, Florida","ispublic":1,"isfriend":0,"isfamily":0},{"id":"52452817749","owner":"36611483@N03","secret":"6111f24fab","server":"65535","farm":66,"title":"Western Sandpiper","ispublic":1,"isfriend":0,"isfamily":0},{"id":"52436162134","owner":"78223721@N03","secret":"2eef5f1ecf","server":"65535","farm":66,"title":"Western Sandpiper (Calidris mauri)","ispublic":1,"isfriend":0,"isfamily":0},{"id":"52436162124","owner":"78223721@N03","secret":"487c701447","server":"65535","farm":66,"title":"Western Sandpiper (Calidris mauri)","ispublic":1,"isfriend":0,"isfamily":0},{"id":"52435380817","owner":"78223721@N03","secret":"054c3e56c9","server":"65535","farm":66,"title":"Western Sandpiper (Calidris mauri)","ispublic":1,"isfriend":0,"isfamily":0},{"id":"52427231572","owner":"196264892@N08","secret":"245108d4d1","server":"65535","farm":66,"title":"Red Knot","ispublic":1,"isfriend":0,"isfamily":0},{"id":"52428238443","owner":"196264892@N08","secret":"cec9066002","server":"65535","farm":66,"title":"Western Sandpipers","ispublic":1,"isfriend":0,"isfamily":0},{"id":"52428238253","owner":"196264892@N08","secret":"c72c7800da","server":"65535","farm":66,"title":"Western Sandpipers, Ocean Shores","ispublic":1,"isfriend":0,"isfamily":0},{"id":"52427720361","owner":"196264892@N08","secret":"4d397f253b","server":"65535","farm":66,"title":"Western Sandpipers, Ocean Shores","ispublic":1,"isfriend":0,"isfamily":0},{"id":"52400899793","owner":"92009354@N00","secret":"6edae320ae","server":"65535","farm":66,"title":"Western Sandpiper","ispublic":1,"isfriend":0,"isfamily":0},{"id":"52394312548","owner":"59631194@N06","secret":"44b01ee75f","server":"65535","farm":66,"title":"Western sandpiper (Calidris mauri)","ispublic":1,"isfriend":0,"isfamily":0},{"id":"52392883994","owner":"34238008@N02","secret":"e0f88c891c","server":"65535","farm":66,"title":"Western Sandpiper, basic (Calidris mauri)","ispublic":1,"isfriend":0,"isfamily":0},{"id":"52390160767","owner":"62907378@N07","secret":"88cdfe8aa1","server":"65535","farm":66,"title":"Western Sandpiper (Calidris mauri)","ispublic":1,"isfriend":0,"isfamily":0},{"id":"52391393024","owner":"62907378@N07","secret":"a88d509b65","server":"65535","farm":66,"title":"Western Sandpiper (Calidris mauri)","ispublic":1,"isfriend":0,"isfamily":0},{"id":"52391392974","owner":"62907378@N07","secret":"503980914a","server":"65535","farm":66,"title":"Western Sandpiper (Calidris mauri)","ispublic":1,"isfriend":0,"isfamily":0},{"id":"52390678614","owner":"34238008@N02","secret":"9340a510b3","server":"65535","farm":66,"title":"Western Sandpiper (Calidris mauri)","ispublic":1,"isfriend":0,"isfamily":0},{"id":"52384361045","owner":"131708321@N02","secret":"7e09da9c3a","server":"65535","farm":66,"title":"Western Sandpiper (Calidris mauri), Bocas del Toro, Panama","ispublic":1,"isfriend":0,"isfamily":0},{"id":"52358457600","owner":"196264892@N08","secret":"95d510f606","server":"65535","farm":66,"title":"Dunlin and Western Sandpipers","ispublic":1,"isfriend":0,"isfamily":0},{"id":"52358349439","owner":"196264892@N08","secret":"87c63e8d53","server":"65535","farm":66,"title":"Dunlin and Western Sandpipers","ispublic":1,"isfriend":0,"isfamily":0},{"id":"52358455460","owner":"196264892@N08","secret":"3378668af0","server":"65535","farm":66,"title":"Dunlin and Western Sandpiper","ispublic":1,"isfriend":0,"isfamily":0},{"id":"52332404275","owner":"34238008@N02","secret":"3cc96a754f","server":"65535","farm":66,"title":"Western Sandpiper (Calidris mauri)","ispublic":1,"isfriend":0,"isfamily":0},{"id":"52332212938","owner":"34238008@N02","secret":"ebed71a042","server":"65535","farm":66,"title":"Western Sandpiper (Calidris mauri)","ispublic":1,"isfriend":0,"isfamily":0},{"id":"52328647049","owner":"103722035@N06","secret":"8f9cc34fee","server":"65535","farm":66,"title":"Western Sandpiper (Calidris mauri) & Least Sandpiper (Calidris minutilla), Estero Bluffs State Park, Cayucos, CA","ispublic":1,"isfriend":0,"isfamily":0},{"id":"52314274355","owner":"103722035@N06","secret":"4f9ffb892a","server":"0","farm":0,"title":"Western Sandpiper (Calidris mauri), Turri Road, Los Osos, CA","ispublic":1,"isfriend":0,"isfamily":0},{"id":"52309142243","owner":"195537536@N03","secret":"23a91b7a9d","server":"65535","farm":66,"title":"Western Sandpiper (Calidris mauri)","ispublic":1,"isfriend":0,"isfamily":0},{"id":"52309141353","owner":"195537536@N03","secret":"ca323196fc","server":"65535","farm":66,"title":"Western Sandpipers (Calidris mauri): Adventures in Migration","ispublic":1,"isfriend":0,"isfamily":0},{"id":"52300356650","owner":"9638954@N07","secret":"3bd3d5d0cb","server":"65535","farm":66,"title":"Western Sandpipers","ispublic":1,"isfriend":0,"isfamily":0},{"id":"52299291013","owner":"53977003@N00","secret":"92f02a17e8","server":"65535","farm":66,"title":"Western Sandpiper","ispublic":1,"isfriend":0,"isfamily":0},{"id":"52298303432","owner":"53977003@N00","secret":"6e01abc54a","server":"65535","farm":66,"title":"Western Sandpiper","ispublic":1,"isfriend":0,"isfamily":0},{"id":"52298202828","owner":"92211588@N08","secret":"449c6200e9","server":"65535","farm":66,"title":"Western semipalmated sandpiper Calidris pusilla mauri Guyane 17112021 PD 5.JPG","ispublic":1,"isfriend":0,"isfamily":0},{"id":"52293741474","owner":"165373730@N04","secret":"210d3fb7f8","server":"65535","farm":66,"title":"B\u00e9casseau sanderling Calidris mauri","ispublic":1,"isfriend":0,"isfamily":0},{"id":"52288820421","owner":"190923251@N05","secret":"d58bd00800","server":"65535","farm":66,"title":"Three sandpiper species together in small area of beach","ispublic":1,"isfriend":0,"isfamily":0},{"id":"52276272835","owner":"190923251@N05","secret":"e9b8363848","server":"65535","farm":66,"title":"Western Sandpiper with food","ispublic":1,"isfriend":0,"isfamily":0},{"id":"52274693897","owner":"145287509@N03","secret":"7b5448ef33","server":"65535","farm":66,"title":"Breeding Western Sandpiper (Calidris mauri)","ispublic":1,"isfriend":0,"isfamily":0},{"id":"52268482150","owner":"21558080@N07","secret":"bc1b03f72a","server":"65535","farm":66,"title":"Western Sandpiper (Calidris mauri)","ispublic":1,"isfriend":0,"isfamily":0},{"id":"52265870319","owner":"196264892@N08","secret":"525b639266","server":"65535","farm":66,"title":"Dunlin 1","ispublic":1,"isfriend":0,"isfamily":0},{"id":"52265603431","owner":"196264892@N08","secret":"2f62a73cee","server":"65535","farm":66,"title":"Dunlin etc at Ocean Shores 2","ispublic":1,"isfriend":0,"isfamily":0},{"id":"52265867334","owner":"196264892@N08","secret":"97c4af454f","server":"65535","farm":66,"title":"Dunlin etc at Ocean Shores 3","ispublic":1,"isfriend":0,"isfamily":0},{"id":"52264634457","owner":"196264892@N08","secret":"e6c5a146e7","server":"65535","farm":66,"title":"Dunlin etc at Ocean Shores 4","ispublic":1,"isfriend":0,"isfamily":0},{"id":"52264633332","owner":"196264892@N08","secret":"e78c0cd3dc","server":"65535","farm":66,"title":"Dunlin etc at Ocean Shores 5","ispublic":1,"isfriend":0,"isfamily":0},{"id":"52266082070","owner":"196264892@N08","secret":"d6089a5137","server":"65535","farm":66,"title":"Dunlin etc at Ocean Shores 6","ispublic":1,"isfriend":0,"isfamily":0},{"id":"52265863434","owner":"196264892@N08","secret":"1894d23e97","server":"65535","farm":66,"title":"Dunlin etc at Ocean Shores 7","ispublic":1,"isfriend":0,"isfamily":0},{"id":"52260038705","owner":"99849996@N00","secret":"243d80950a","server":"65535","farm":66,"title":"Western Sandpiper 20210920_2354","ispublic":1,"isfriend":0,"isfamily":0},{"id":"52317224907","owner":"134270033@N06","secret":"a2afd80d2f","server":"65535","farm":66,"title":"the West  Coast Peep","ispublic":1,"isfriend":0,"isfamily":0},{"id":"52241903939","owner":"103722035@N06","secret":"a310e0eb4b","server":"65535","farm":66,"title":"Western Sandpiper (Calidris mauri), Estero Bluffs State Park, Cayucos, CA","ispublic":1,"isfriend":0,"isfamily":0},{"id":"52241612931","owner":"103722035@N06","secret":"237fdc5477","server":"65535","farm":66,"title":"Western Sandpiper (Calidris mauri), Estero Bluffs State Park, Cayucos, CA","ispublic":1,"isfriend":0,"isfamily":0},{"id":"52240612757","owner":"103722035@N06","secret":"2b72a18f63","server":"0","farm":0,"title":"Western Sandpiper (Calidris mauri), Estero Bluffs State Park, Cayucos, CA","ispublic":1,"isfriend":0,"isfamily":0},{"id":"52240494894","owner":"41978378@N08","secret":"969ec5edde","server":"65535","farm":66,"title":"Western sandpiper (Calidris mauri)","ispublic":1,"isfriend":0,"isfamily":0},{"id":"52235808559","owner":"119787485@N07","secret":"5a14da36c3","server":"65535","farm":66,"title":"Western Sandpiper (Calidris mauri) - 20220529-08","ispublic":1,"isfriend":0,"isfamily":0},{"id":"52233959112","owner":"21558080@N07","secret":"0fa5b6de98","server":"65535","farm":66,"title":"Western Sandpiper (Calidris mauri)","ispublic":1,"isfriend":0,"isfamily":0},{"id":"52223651313","owner":"103722035@N06","secret":"65b4f8dc5b","server":"65535","farm":66,"title":"Western Sandpiper (Calidris mauri), Arroyo Laguna, Hearst San Simeon State Park, CA","ispublic":1,"isfriend":0,"isfamily":0},{"id":"52223903214","owner":"103722035@N06","secret":"ce6b429ba5","server":"65535","farm":66,"title":"Western Sandpiper (Calidris mauri), Arroyo Laguna, Hearst San Simeon State Park, CA","ispublic":1,"isfriend":0,"isfamily":0},{"id":"52223650218","owner":"103722035@N06","secret":"d8d0ce7461","server":"65535","farm":66,"title":"Western Sandpiper (Calidris mauri) & Least Sandpiper (Calidris minutilla), Arroyo Laguna, Hearst San Simeon State Park, CA","ispublic":1,"isfriend":0,"isfamily":0},{"id":"52222384747","owner":"103722035@N06","secret":"60a1f524fa","server":"0","farm":0,"title":"Western Sandpiper (Calidris mauri) & Least Sandpiper (Calidris minutilla), Arroyo Laguna, Hearst San Simeon State Park, CA","ispublic":1,"isfriend":0,"isfamily":0},{"id":"52580673420","owner":"153973412@N04","secret":"72224f8017","server":"65535","farm":66,"title":"Western Sandpiper-Calidris mauri, Elkhorn Slough, CA","ispublic":1,"isfriend":0,"isfamily":0},{"id":"52537723266","owner":"39617069@N08","secret":"846f434abc","server":"65535","farm":66,"title":"Western Sandpiper","ispublic":1,"isfriend":0,"isfamily":0},{"id":"52515273465","owner":"140734051@N08","secret":"f6cc6b71a1","server":"65535","farm":66,"title":"\u041f\u0435\u0440\u0435\u043f\u043e\u043d\u0447\u0430\u0442\u043e\u043f\u0430\u043b\u044b\u0439 \u043f\u0435\u0441\u043e\u0447\u043d\u0438\u043a, Calidris mauri, Western Sandpiper","ispublic":1,"isfriend":0,"isfamily":0},{"id":"52514789571","owner":"140734051@N08","secret":"8f9ff4d79e","server":"65535","farm":66,"title":"\u041f\u0435\u0440\u0435\u043f\u043e\u043d\u0447\u0430\u0442\u043e\u043f\u0430\u043b\u044b\u0439 \u043f\u0435\u0441\u043e\u0447\u043d\u0438\u043a, Calidris mauri, Western Sandpiper","ispublic":1,"isfriend":0,"isfamily":0},{"id":"52515337323","owner":"140734051@N08","secret":"2ee01508b0","server":"65535","farm":66,"title":"\u041f\u0435\u0440\u0435\u043f\u043e\u043d\u0447\u0430\u0442\u043e\u043f\u0430\u043b\u044b\u0439 \u043f\u0435\u0441\u043e\u0447\u043d\u0438\u043a, Calidris mauri, Western Sandpiper","ispublic":1,"isfriend":0,"isfamily":0},{"id":"52514316762","owner":"140734051@N08","secret":"bf09eaab54","server":"65535","farm":66,"title":"\u041f\u0435\u0440\u0435\u043f\u043e\u043d\u0447\u0430\u0442\u043e\u043f\u0430\u043b\u044b\u0439 \u043f\u0435\u0441\u043e\u0447\u043d\u0438\u043a, Calidris mauri, Western Sandpiper","ispublic":1,"isfriend":0,"isfamily":0},{"id":"52514788206","owner":"140734051@N08","secret":"50d6f8c54e","server":"65535","farm":66,"title":"\u041f\u0435\u0440\u0435\u043f\u043e\u043d\u0447\u0430\u0442\u043e\u043f\u0430\u043b\u044b\u0439 \u043f\u0435\u0441\u043e\u0447\u043d\u0438\u043a, Calidris mauri, Western Sandpiper","ispublic":1,"isfriend":0,"isfamily":0},{"id":"52515336023","owner":"140734051@N08","secret":"0e98b79e66","server":"65535","farm":66,"title":"\u041f\u0435\u0440\u0435\u043f\u043e\u043d\u0447\u0430\u0442\u043e\u043f\u0430\u043b\u044b\u0439 \u043f\u0435\u0441\u043e\u0447\u043d\u0438\u043a, Calidris mauri, Western Sandpiper","ispublic":1,"isfriend":0,"isfamily":0},{"id":"52515335708","owner":"140734051@N08","secret":"56b38eaec7","server":"65535","farm":66,"title":"\u041f\u0435\u0440\u0435\u043f\u043e\u043d\u0447\u0430\u0442\u043e\u043f\u0430\u043b\u044b\u0439 \u043f\u0435\u0441\u043e\u0447\u043d\u0438\u043a, Calidris mauri, Western Sandpiper","ispublic":1,"isfriend":0,"isfamily":0},{"id":"52514315122","owner":"140734051@N08","secret":"09eaf382ba","server":"65535","farm":66,"title":"\u041f\u0435\u0440\u0435\u043f\u043e\u043d\u0447\u0430\u0442\u043e\u043f\u0430\u043b\u044b\u0439 \u043f\u0435\u0441\u043e\u0447\u043d\u0438\u043a, Calidris mauri, Western Sandpiper","ispublic":1,"isfriend":0,"isfamily":0},{"id":"52515334153","owner":"140734051@N08","secret":"79fcddda1d","server":"65535","farm":66,"title":"\u041f\u0435\u0440\u0435\u043f\u043e\u043d\u0447\u0430\u0442\u043e\u043f\u0430\u043b\u044b\u0439 \u043f\u0435\u0441\u043e\u0447\u043d\u0438\u043a, Calidris mauri, Western Sandpiper","ispublic":1,"isfriend":0,"isfamily":0},{"id":"52514313647","owner":"140734051@N08","secret":"980f9290a3","server":"65535","farm":66,"title":"\u041f\u0435\u0440\u0435\u043f\u043e\u043d\u0447\u0430\u0442\u043e\u043f\u0430\u043b\u044b\u0439 \u043f\u0435\u0441\u043e\u0447\u043d\u0438\u043a, Calidris mauri, Western Sandpiper","ispublic":1,"isfriend":0,"isfamily":0},{"id":"52515059074","owner":"140734051@N08","secret":"be2094bb28","server":"65535","farm":66,"title":"\u041f\u0435\u0440\u0435\u043f\u043e\u043d\u0447\u0430\u0442\u043e\u043f\u0430\u043b\u044b\u0439 \u043f\u0435\u0441\u043e\u0447\u043d\u0438\u043a, Calidris mauri, Western Sandpiper","ispublic":1,"isfriend":0,"isfamily":0},{"id":"52436162099","owner":"78223721@N03","secret":"fb804cd331","server":"65535","farm":66,"title":"Western Sandpiper (Calidris mauri)","ispublic":1,"isfriend":0,"isfamily":0},{"id":"52428007359","owner":"196264892@N08","secret":"05d8f19532","server":"65535","farm":66,"title":"Western Sandpiper","ispublic":1,"isfriend":0,"isfamily":0},{"id":"52392573966","owner":"34238008@N02","secret":"51f330e25e","server":"65535","farm":66,"title":"Western Sandpiper, basic adult (Calidris mauri)","ispublic":1,"isfriend":0,"isfamily":0},{"id":"52392573046","owner":"34238008@N02","secret":"ef0636d93e","server":"65535","farm":66,"title":"Western Sandpiper (Calidris mauri)","ispublic":1,"isfriend":0,"isfamily":0},{"id":"52390796685","owner":"34238008@N02","secret":"a5772b429f","server":"65535","farm":66,"title":"Western Sandpiper (Calidris mauri)","ispublic":1,"isfriend":0,"isfamily":0},{"id":"52343071882","owner":"39177293@N03","secret":"1b4faf00b8","server":"65535","farm":66,"title":"Western Sandpiper","ispublic":1,"isfriend":0,"isfamily":0},{"id":"52339344749","owner":"39177293@N03","secret":"09f2554c75","server":"65535","farm":66,"title":"Western Sandpiper","ispublic":1,"isfriend":0,"isfamily":0},{"id":"52338354946","owner":"34238008@N02","secret":"3ab9e5e08e","server":"65535","farm":66,"title":"Western Sandpiper, alt (Calidris mauri)","ispublic":1,"isfriend":0,"isfamily":0},{"id":"52331977501","owner":"34238008@N02","secret":"0aa16ab0c3","server":"65535","farm":66,"title":"Western Sandpiper (Calidris mauri)","ispublic":1,"isfriend":0,"isfamily":0},{"id":"52324262711","owner":"34238008@N02","secret":"2038b333da","server":"65535","farm":66,"title":"Least Sandpiper (Calidris minutilla) and Western Sandpiper (Calidris mauri)","ispublic":1,"isfriend":0,"isfamily":0},{"id":"52315937986","owner":"144980256@N07","secret":"d10ea62041","server":"65535","farm":66,"title":"Western Sandpiper (Calidris mauri) & Geater Yellowlegs","ispublic":1,"isfriend":0,"isfamily":0},{"id":"52316377670","owner":"144980256@N07","secret":"66a8d22ecb","server":"65535","farm":66,"title":"Western Sandpiper (Calidris mauri)","ispublic":1,"isfriend":0,"isfamily":0},{"id":"52316194468","owner":"144980256@N07","secret":"8048e4dec9","server":"65535","farm":66,"title":"Western Sandpiper (Calidris mauri)","ispublic":1,"isfriend":0,"isfamily":0},{"id":"52315875771","owner":"144980256@N07","secret":"f6c1c12a2e","server":"65535","farm":66,"title":"Western Sandpiper (Calidris mauri)","ispublic":1,"isfriend":0,"isfamily":0},{"id":"52310594407","owner":"192234661@N07","secret":"08d7768af0","server":"65535","farm":66,"title":"Weather sandpiper (Calidris mauri)","ispublic":1,"isfriend":0,"isfamily":0},{"id":"52266665927","owner":"13451078@N03","secret":"967bbacba9","server":"65535","farm":66,"title":"Western Sandpiper (Calidris mauri)","ispublic":1,"isfriend":0,"isfamily":0},{"id":"52265604686","owner":"196264892@N08","secret":"df4a2e9fdd","server":"65535","farm":66,"title":"Dunlin etc at Ocean Shores 1","ispublic":1,"isfriend":0,"isfamily":0},{"id":"52261709851","owner":"140318147@N08","secret":"18f208411d","server":"65535","farm":66,"title":"western sandpiper (Calidris mauri) L4A8269-","ispublic":1,"isfriend":0,"isfamily":0},{"id":"52231461154","owner":"124995824@N08","secret":"e2d3e8519f","server":"65535","farm":66,"title":"Western Sandpiper - Calidris mauri","ispublic":1,"isfriend":0,"isfamily":0},{"id":"52229032578","owner":"34238008@N02","secret":"a530c3d79e","server":"65535","farm":66,"title":"Western Sandpiper (Calidris mauri)","ispublic":1,"isfriend":0,"isfamily":0},{"id":"52229032503","owner":"34238008@N02","secret":"a9889dea8b","server":"65535","farm":66,"title":"Western Sandpiper (Calidris mauri)","ispublic":1,"isfriend":0,"isfamily":0},{"id":"52229032288","owner":"34238008@N02","secret":"974a6f3244","server":"65535","farm":66,"title":"Western Sandpiper (Calidris mauri)","ispublic":1,"isfriend":0,"isfamily":0},{"id":"52223632196","owner":"103722035@N06","secret":"76a12e3586","server":"65535","farm":66,"title":"Western Sandpiper (Calidris mauri) & Least Sandpiper (Calidris minutilla), Arroyo Laguna, Hearst San Simeon State Park, CA","ispublic":1,"isfriend":0,"isfamily":0},{"id":"52218437422","owner":"27588142@N06","secret":"f5ec7ba8b2","server":"65535","farm":66,"title":"Western Sandpiper","ispublic":1,"isfriend":0,"isfamily":0}]},"stat":"ok"}