{"photos":{"page":1,"pages":18,"perpage":100,"total":1774,"photo":[{"id":"52705124980","owner":"161596692@N07","secret":"32d08c5a7f","server":"65535","farm":66,"title":"White-rumped Sandpiper (Calidris fuscicollis)","ispublic":1,"isfriend":0,"isfamily":0},{"id":"52704696636","owner":"161596692@N07","secret":"bff83eeaba","server":"65535","farm":66,"title":"White-rumped Sandpiper (Calidris fuscicollis)","ispublic":1,"isfriend":0,"isfamily":0},{"id":"52704658781","owner":"161596692@N07","secret":"386578fdac","server":"65535","farm":66,"title":"White-rumped Sandpiper (Calidris fuscicollis)","ispublic":1,"isfriend":0,"isfamily":0},{"id":"52701121413","owner":"183210910@N04","secret":"ef14f72771","server":"65535","farm":66,"title":"White-rumped Sandpiper - Calidris fuscicollis","ispublic":1,"isfriend":0,"isfamily":0},{"id":"52700627576","owner":"183210910@N04","secret":"ab3e083eb0","server":"65535","farm":66,"title":"White-rumped Sandpiper - Calidris fuscicollis","ispublic":1,"isfriend":0,"isfamily":0},{"id":"52699019148","owner":"43898512@N07","secret":"d9ab35b83c","server":"65535","farm":66,"title":"White Rumped Sandpiper - Calidris fuscicollis","ispublic":1,"isfriend":0,"isfamily":0},{"id":"52698007602","owner":"43898512@N07","secret":"1c12638f41","server":"65535","farm":66,"title":"White Rumped Sandpiper - Calidris fuscicollis","ispublic":1,"isfriend":0,"isfamily":0},{"id":"52698780809","owner":"43898512@N07","secret":"112d23e81b","server":"65535","farm":66,"title":"White Rumped Sandpiper - Calidris fuscicollis","ispublic":1,"isfriend":0,"isfamily":0},{"id":"52698519971","owner":"43898512@N07","secret":"8f500f39c0","server":"65535","farm":66,"title":"White Rumped Sandpiper - Calidris fuscicollis","ispublic":1,"isfriend":0,"isfamily":0},{"id":"52698935915","owner":"43898512@N07","secret":"fe1e4ea790","server":"65535","farm":66,"title":"White Rumped Sandpiper - Calidris fuscicollis","ispublic":1,"isfriend":0,"isfamily":0},{"id":"52699010668","owner":"43898512@N07","secret":"e2cb6637e8","server":"65535","farm":66,"title":"White Rumped Sandpiper - Calidris fuscicollis","ispublic":1,"isfriend":0,"isfamily":0},{"id":"52698519386","owner":"43898512@N07","secret":"105f3d2d88","server":"65535","farm":66,"title":"White Rumped Sandpiper - Calidris fuscicollis","ispublic":1,"isfriend":0,"isfamily":0},{"id":"52696060526","owner":"97377331@N07","secret":"e7f67235be","server":"65535","farm":66,"title":"White Rumped Sandpiper","ispublic":1,"isfriend":0,"isfamily":0},{"id":"52696215058","owner":"183210910@N04","secret":"27455c5eff","server":"65535","farm":66,"title":"White-rumped Sandpiper - Calidris fuscicollis","ispublic":1,"isfriend":0,"isfamily":0},{"id":"52694521403","owner":"183210910@N04","secret":"68546459e3","server":"65535","farm":66,"title":"White-rumped Sandpiper - Calidris fuscicollis","ispublic":1,"isfriend":0,"isfamily":0},{"id":"52694356763","owner":"183210910@N04","secret":"ebe2727386","server":"65535","farm":66,"title":"White-rumped Sandpiper - Calidris fuscicollis","ispublic":1,"isfriend":0,"isfamily":0},{"id":"52694356443","owner":"183210910@N04","secret":"f73e6e9453","server":"65535","farm":66,"title":"White-rumped Sandpiper - Calidris fuscicollis","ispublic":1,"isfriend":0,"isfamily":0},{"id":"52692790073","owner":"183210910@N04","secret":"009fb96ae8","server":"65535","farm":66,"title":"White-rumped Sandpiper - Calidris fuscicollis","ispublic":1,"isfriend":0,"isfamily":0},{"id":"52647339389","owner":"130674121@N08","secret":"a22b629648","server":"65535","farm":66,"title":"Sandpiper (White-Rumped) - Cristalino River, Brazil - 70","ispublic":1,"isfriend":0,"isfamily":0},{"id":"52640410680","owner":"123174353@N02","secret":"6c6cfb4250","server":"65535","farm":66,"title":"Calidris fuscicollis \/ White-rumped Sandpiper \/ Bonapartes strandloper","ispublic":1,"isfriend":0,"isfamily":0},{"id":"52639975651","owner":"123174353@N02","secret":"7488f57d1c","server":"65535","farm":66,"title":"Calidris fuscicollis \/ White-rumped Sandpiper \/ Bonapartes strandloper","ispublic":1,"isfriend":0,"isfamily":0},{"id":"52640229909","owner":"123174353@N02","secret":"5d42f36f27","server":"65535","farm":66,"title":"Calidris fuscicollis \/ White-rumped Sandpiper \/ Bonapartes strandloper","ispublic":1,"isfriend":0,"isfamily":0},{"id":"52640229894","owner":"123174353@N02","secret":"45ce1143d0","server":"65535","farm":66,"title":"Calidris fuscicollis \/ White-rumped Sandpiper \/ Bonapartes strandloper","ispublic":1,"isfriend":0,"isfamily":0},{"id":"52640410650","owner":"123174353@N02","secret":"9195a3cafa","server":"65535","farm":66,"title":"Calidris fuscicollis \/ White-rumped Sandpiper \/ Bonapartes strandloper","ispublic":1,"isfriend":0,"isfamily":0},{"id":"52640448413","owner":"123174353@N02","secret":"638d0fab0d","server":"65535","farm":66,"title":"Calidris fuscicollis \/ White-rumped Sandpiper \/ Bonapartes strandloper","ispublic":1,"isfriend":0,"isfamily":0},{"id":"52589648513","owner":"14734088@N02","secret":"b7accc9f1d","server":"65535","farm":66,"title":"B\u00e9casseau \u00e0 croupion blanc 221104H4b","ispublic":1,"isfriend":0,"isfamily":0},{"id":"52542292783","owner":"14734088@N02","secret":"b0d08830fe","server":"65535","farm":66,"title":"B\u00e9casseau \u00e0 croupion blanc 221104H3a","ispublic":1,"isfriend":0,"isfamily":0},{"id":"52530286913","owner":"193483104@N04","secret":"1a2082b0bb","server":"65535","farm":66,"title":"White-rumped Sandpiper (Calidris fuscicollis)","ispublic":1,"isfriend":0,"isfamily":0},{"id":"52526022117","owner":"14734088@N02","secret":"fb6be5d442","server":"65535","farm":66,"title":"B\u00e9casseau \u00e0 croupion blanc 221104H3b","ispublic":1,"isfriend":0,"isfamily":0},{"id":"52521123320","owner":"92361032@N05","secret":"d8070570c6","server":"65535","farm":66,"title":"White-rumped Sandpiper \/B\u00e9casseau \u00e0 croupion blanc ( Richard )","ispublic":1,"isfriend":0,"isfamily":0},{"id":"52514800997","owner":"39177293@N03","secret":"9d205899cf","server":"65535","farm":66,"title":"White-rumped Sandpiper","ispublic":1,"isfriend":0,"isfamily":0},{"id":"52514452254","owner":"14734088@N02","secret":"c8a8691bb5","server":"65535","farm":66,"title":"B\u00e9casseau \u00e0 croupion blanc 221104H2","ispublic":1,"isfriend":0,"isfamily":0},{"id":"52510390750","owner":"150486191@N05","secret":"8dd0fdea06","server":"65535","farm":66,"title":"Be\u0301casseau a\u0300 croupion blanc PM 2022.11.19-2B","ispublic":1,"isfriend":0,"isfamily":0},{"id":"52509801853","owner":"65405856@N04","secret":"7251104b0f","server":"65535","farm":66,"title":"Reflecting","ispublic":1,"isfriend":0,"isfamily":0},{"id":"52494353511","owner":"14734088@N02","secret":"381f3dfa31","server":"65535","farm":66,"title":"B\u00e9casseau \u00e0 croupion blanc 221104H1","ispublic":1,"isfriend":0,"isfamily":0},{"id":"52472951437","owner":"165841515@N03","secret":"84c1f8e9d0","server":"65535","farm":66,"title":"B\u00e9casseau \u00e0 croupion blanc \/ White-rumped Sandpiper \/ (Calidris fuscicollis)","ispublic":1,"isfriend":0,"isfamily":0},{"id":"52473730544","owner":"165841515@N03","secret":"2075cee574","server":"65535","farm":66,"title":"B\u00e9casseau \u00e0 croupion blanc \/ White-rumped Sandpiper \/ (Calidris fuscicollis)","ispublic":1,"isfriend":0,"isfamily":0},{"id":"52473911495","owner":"165841515@N03","secret":"60dec2bb66","server":"65535","farm":66,"title":"B\u00e9casseau \u00e0 croupion blanc \/ White-rumped Sandpiper \/ (Calidris fuscicollis)","ispublic":1,"isfriend":0,"isfamily":0},{"id":"52473992618","owner":"165841515@N03","secret":"912fce1aea","server":"65535","farm":66,"title":"B\u00e9casseau \u00e0 croupion blanc \/ White-rumped Sandpiper \/ (Calidris fuscicollis)","ispublic":1,"isfriend":0,"isfamily":0},{"id":"52469794162","owner":"109043136@N05","secret":"fbe340d8a9","server":"65535","farm":66,"title":"Pilrito-de-urop\u00edgio-branco (Calidris fuscicollis)","ispublic":1,"isfriend":0,"isfamily":0},{"id":"52470568289","owner":"109043136@N05","secret":"cd48371520","server":"65535","farm":66,"title":"Pilrito-de-urop\u00edgio-branco (Calidris fuscicollis)","ispublic":1,"isfriend":0,"isfamily":0},{"id":"52467320446","owner":"109043136@N05","secret":"a0a5f0506f","server":"65535","farm":66,"title":"Pilrito-de-urop\u00edgio-branco (Calidris fuscicollis)","ispublic":1,"isfriend":0,"isfamily":0},{"id":"52454225394","owner":"85391626@N07","secret":"8e24b39f09","server":"65535","farm":66,"title":"White-rumped Sandpiper","ispublic":1,"isfriend":0,"isfamily":0},{"id":"52426429434","owner":"126297346@N07","secret":"ff1aeb0e9f","server":"65535","farm":66,"title":"B\u00e9casseau \u00e0 croupion blanc | R\u00e9serve naturelle de Pointe-Yamachiche | Yamachiche, Qu\u00e9bec","ispublic":1,"isfriend":0,"isfamily":0},{"id":"52424856447","owner":"59631194@N06","secret":"5480f3e2d3","server":"65535","farm":66,"title":"White-rumped sandpiper (Calidris fuscicollis)","ispublic":1,"isfriend":0,"isfamily":0},{"id":"52424260072","owner":"85391626@N07","secret":"a068541285","server":"65535","farm":66,"title":"White-rumped Sandpiper","ispublic":1,"isfriend":0,"isfamily":0},{"id":"52411415557","owner":"62119764@N08","secret":"b2f9e28365","server":"65535","farm":66,"title":"White-rumped Sandpiper | Calidris fuscicollis | B\u00e9casseau \u00e0 croupion blanc","ispublic":1,"isfriend":0,"isfamily":0},{"id":"52409393854","owner":"191829438@N07","secret":"eed46e8c3a","server":"65535","farm":66,"title":"Calidris fuscicollis","ispublic":1,"isfriend":0,"isfamily":0},{"id":"52406970107","owner":"61241315@N00","secret":"07845ff65b","server":"65535","farm":66,"title":"White-rumped Sandpiper_6110_01-001","ispublic":1,"isfriend":0,"isfamily":0},{"id":"52406970037","owner":"61241315@N00","secret":"f7ef9f283e","server":"65535","farm":66,"title":"White-rumped Sandpiper_6133_01-001","ispublic":1,"isfriend":0,"isfamily":0},{"id":"52407688939","owner":"61241315@N00","secret":"3461cc2d59","server":"0","farm":0,"title":"White-rumped Sandpiper_1850.MP4","ispublic":1,"isfriend":0,"isfamily":0},{"id":"52407399786","owner":"61241315@N00","secret":"2c0291dd4d","server":"0","farm":0,"title":"White-rumped Sandpiper_1828,29.MP4","ispublic":1,"isfriend":0,"isfamily":0},{"id":"52407840965","owner":"61241315@N00","secret":"6c230d1e4f","server":"0","farm":0,"title":"White-rumped Sandpiper_1839.MP4","ispublic":1,"isfriend":0,"isfamily":0},{"id":"52407837940","owner":"61241315@N00","secret":"eab046a124","server":"0","farm":0,"title":"White-rumped Sandpiper_1885.MP4","ispublic":1,"isfriend":0,"isfamily":0},{"id":"52406899372","owner":"61241315@N00","secret":"f346d6dff9","server":"0","farm":0,"title":"White-rumped Sandpiper_1874.MP4","ispublic":1,"isfriend":0,"isfamily":0},{"id":"52407404026","owner":"61241315@N00","secret":"833c4f3bf7","server":"65535","farm":66,"title":"White-rumped Sandpiper_N1901","ispublic":1,"isfriend":0,"isfamily":0},{"id":"52406904112","owner":"61241315@N00","secret":"a5b6734f0d","server":"65535","farm":66,"title":"White-rumped Sandpiper_N1878","ispublic":1,"isfriend":0,"isfamily":0},{"id":"52407693394","owner":"61241315@N00","secret":"9cc3ae8aa7","server":"65535","farm":66,"title":"White-rumped Sandpiper_N1904","ispublic":1,"isfriend":0,"isfamily":0},{"id":"52406903762","owner":"61241315@N00","secret":"1ce3f0d50b","server":"65535","farm":66,"title":"White-rumped Sandpiper_N1907","ispublic":1,"isfriend":0,"isfamily":0},{"id":"52407399861","owner":"61241315@N00","secret":"effdbc4877","server":"65535","farm":66,"title":"White-rumped Sandpiper_N1916","ispublic":1,"isfriend":0,"isfamily":0},{"id":"52396590367","owner":"48938938@N04","secret":"4dcee82876","server":"65535","farm":66,"title":"White-rumped Sandpiper_Calidris fuscicollis_Ascanio_Pantanal_Brazil_DZ3A5710","ispublic":1,"isfriend":0,"isfamily":0},{"id":"52397599163","owner":"48938938@N04","secret":"d21d079e5a","server":"65535","farm":66,"title":"White-rumped Sandpiper_Calidris fuscicollis_Ascanio_Pantanal_Brazil_DZ3A5718","ispublic":1,"isfriend":0,"isfamily":0},{"id":"52396589662","owner":"48938938@N04","secret":"edf09708a8","server":"65535","farm":66,"title":"White-rumped Sandpiper_Calidris fuscicollis_Ascanio_Pantanal_Brazil_DZ3A5723","ispublic":1,"isfriend":0,"isfamily":0},{"id":"52357382965","owner":"168495655@N07","secret":"46d25def3d","server":"65535","farm":66,"title":"B\u00e9casseau \u00e0 croupion blanc - Calidris fuscicollis - White-rumped Sandpiper","ispublic":1,"isfriend":0,"isfamily":0},{"id":"52355169244","owner":"39177293@N03","secret":"5f77249997","server":"65535","farm":66,"title":"White-rumped Sandpiper","ispublic":1,"isfriend":0,"isfamily":0},{"id":"52354154659","owner":"40723658@N05","secret":"0b034c8424","server":"65535","farm":66,"title":"White-rumped Sandpiper","ispublic":1,"isfriend":0,"isfamily":0},{"id":"52345037836","owner":"14734088@N02","secret":"cabc22719b","server":"65535","farm":66,"title":"B\u00e9casseau \u00e0 croupion blanc 210909H2a","ispublic":1,"isfriend":0,"isfamily":0},{"id":"52315505971","owner":"119468907@N03","secret":"995b84d2ce","server":"65535","farm":66,"title":"Be\u0301casseau a\u0300 croupion blanc_R5DJ2699v2","ispublic":1,"isfriend":0,"isfamily":0},{"id":"52315807288","owner":"119468907@N03","secret":"3996b7b397","server":"65535","farm":66,"title":"Be\u0301casseau a\u0300 croupion blanc_R5DJ2622","ispublic":1,"isfriend":0,"isfamily":0},{"id":"52303660794","owner":"39177293@N03","secret":"e32c05893e","server":"65535","farm":66,"title":"White-rumped Sandpiper","ispublic":1,"isfriend":0,"isfamily":0},{"id":"52303230646","owner":"186193378@N07","secret":"58b8fc3261","server":"65535","farm":66,"title":"Ma\u00e7arico-de-sobre-branco (Calidris fuscicollis) White-rumped Sandpiper","ispublic":1,"isfriend":0,"isfamily":0},{"id":"52271921462","owner":"163930705@N05","secret":"701f964a7f","server":"65535","farm":66,"title":"White-rumped Sandpiper and Dunlin \/ Va\u00f0lat\u00edta og l\u00f3u\u00fer\u00e6ll (Calidris fuscicollis and Calidris alpina)","ispublic":1,"isfriend":0,"isfamily":0},{"id":"52653864451","owner":"52363379@N07","secret":"4346300cd5","server":"65535","farm":66,"title":"Calidris fuscicollis","ispublic":1,"isfriend":0,"isfamily":0},{"id":"52639975666","owner":"123174353@N02","secret":"1e1bbbe8c2","server":"65535","farm":66,"title":"Calidris fuscicollis \/ White-rumped Sandpiper \/ Bonapartes strandloper","ispublic":1,"isfriend":0,"isfamily":0},{"id":"52640229694","owner":"123174353@N02","secret":"ab8b53610e","server":"65535","farm":66,"title":"Calidris fuscicollis \/ White-rumped Sandpiper \/ Bonapartes strandloper","ispublic":1,"isfriend":0,"isfamily":0},{"id":"52580755043","owner":"153973412@N04","secret":"5d3845b1a0","server":"65535","farm":66,"title":"White-rumped Sandpiper-Calidris fuscicollis, Iowa City, IA","ispublic":1,"isfriend":0,"isfamily":0},{"id":"52513366680","owner":"191038887@N04","secret":"460d08114d","server":"65535","farm":66,"title":"B\u00e9casseau \u00e0 croupion blanc - White-rumped sandpiper - Calidris fuscicollis","ispublic":1,"isfriend":0,"isfamily":0},{"id":"52513434173","owner":"191038887@N04","secret":"5f6938c97c","server":"65535","farm":66,"title":"B\u00e9casseau \u00e0 croupion blanc - White-rumped sandpiper - Calidris fuscicollis","ispublic":1,"isfriend":0,"isfamily":0},{"id":"52513365735","owner":"191038887@N04","secret":"d2e59b2406","server":"65535","farm":66,"title":"B\u00e9casseau \u00e0 croupion blanc - White-rumped sandpiper - Calidris fuscicollis","ispublic":1,"isfriend":0,"isfamily":0},{"id":"52512413977","owner":"191038887@N04","secret":"89cabc5a94","server":"65535","farm":66,"title":"B\u00e9casseau \u00e0 croupion blanc - White-rumped sandpiper - Calidris fuscicollis","ispublic":1,"isfriend":0,"isfamily":0},{"id":"52510450705","owner":"150486191@N05","secret":"617d133c1e","server":"65535","farm":66,"title":"Be\u0301casseau a\u0300 croupion blanc PM 2022.11.19-4","ispublic":1,"isfriend":0,"isfamily":0},{"id":"52489531376","owner":"39445433@N02","secret":"e3ce775762","server":"65535","farm":66,"title":"White-Rumped Sandpiper","ispublic":1,"isfriend":0,"isfamily":0},{"id":"52455676996","owner":"193724050@N06","secret":"77ed02e951","server":"65535","farm":66,"title":"Playero de Rabadilla Blanca Nombre en ingl\u00e9s: White-rumped Sandpiper Nombre cient\u00edfico: Calidris fuscicollis Familia taxon\u00f3mica: Scolopacidae","ispublic":1,"isfriend":0,"isfamily":0},{"id":"52434806234","owner":"39177293@N03","secret":"a581ebf19c","server":"65535","farm":66,"title":"White-rumped Sandpiper","ispublic":1,"isfriend":0,"isfamily":0},{"id":"52407467471","owner":"61241315@N00","secret":"1cfc9860c8","server":"65535","farm":66,"title":"White-rumped Sandpiper_6108_01-001","ispublic":1,"isfriend":0,"isfamily":0},{"id":"52406970092","owner":"61241315@N00","secret":"f61499c321","server":"65535","farm":66,"title":"White-rumped Sandpiper_6116_01-001","ispublic":1,"isfriend":0,"isfamily":0},{"id":"52406970087","owner":"61241315@N00","secret":"52b0ec0434","server":"65535","farm":66,"title":"White-rumped Sandpiper_6130_01-001","ispublic":1,"isfriend":0,"isfamily":0},{"id":"52407912953","owner":"61241315@N00","secret":"9b1ab0846f","server":"0","farm":0,"title":"White-rumped Sandpiper_1832,33.MP4","ispublic":1,"isfriend":0,"isfamily":0},{"id":"52407918338","owner":"61241315@N00","secret":"7b1302e6f8","server":"65535","farm":66,"title":"White-rumped Sandpiper_N1900","ispublic":1,"isfriend":0,"isfamily":0},{"id":"52407400456","owner":"61241315@N00","secret":"25e9ec57f4","server":"65535","farm":66,"title":"White-rumped Sandpiper_N1838","ispublic":1,"isfriend":0,"isfamily":0},{"id":"52407914948","owner":"61241315@N00","secret":"a6fb40843f","server":"65535","farm":66,"title":"White-rumped Sandpiper_N1873","ispublic":1,"isfriend":0,"isfamily":0},{"id":"52407914893","owner":"61241315@N00","secret":"7c3fa73e61","server":"65535","farm":66,"title":"White-rumped Sandpiper_N1875","ispublic":1,"isfriend":0,"isfamily":0},{"id":"52406904152","owner":"61241315@N00","secret":"480543000e","server":"65535","farm":66,"title":"White-rumped Sandpiper_N1877","ispublic":1,"isfriend":0,"isfamily":0},{"id":"52407400266","owner":"61241315@N00","secret":"11c1ddd3ef","server":"65535","farm":66,"title":"White-rumped Sandpiper_N1892","ispublic":1,"isfriend":0,"isfamily":0},{"id":"52407914483","owner":"61241315@N00","secret":"06e8391717","server":"65535","farm":66,"title":"White-rumped Sandpiper_N1910","ispublic":1,"isfriend":0,"isfamily":0},{"id":"52406903682","owner":"61241315@N00","secret":"1cae0946ba","server":"65535","farm":66,"title":"White-rumped Sandpiper_N1917","ispublic":1,"isfriend":0,"isfamily":0},{"id":"52407399791","owner":"61241315@N00","secret":"e4d8919087","server":"65535","farm":66,"title":"White-rumped Sandpiper_N1933","ispublic":1,"isfriend":0,"isfamily":0},{"id":"52357198683","owner":"168495655@N07","secret":"7bb28e9d66","server":"65535","farm":66,"title":"B\u00e9casseau \u00e0 croupion blanc - Calidris fuscicollis - White-rumped Sandpiper","ispublic":1,"isfriend":0,"isfamily":0},{"id":"52328642357","owner":"52363379@N07","secret":"7fc42f3463","server":"65535","farm":66,"title":"Calidris fuscicollis","ispublic":1,"isfriend":0,"isfamily":0},{"id":"52315766198","owner":"7261670@N03","secret":"9321486a1a","server":"65535","farm":66,"title":"White-rumped Sandpiper","ispublic":1,"isfriend":0,"isfamily":0}]},"stat":"ok"}