{"photos":{"page":1,"pages":68,"perpage":100,"total":6704,"photo":[{"id":"52721956658","owner":"69002026@N02","secret":"19a6566541","server":"65535","farm":66,"title":"White-throated Sparrow (Zonotrichia albicollis)","ispublic":1,"isfriend":0,"isfamily":0},{"id":"52717761513","owner":"69002026@N02","secret":"9c6925c7ce","server":"65535","farm":66,"title":"White-throated Sparrow (Zonotrichia albicollis)","ispublic":1,"isfriend":0,"isfamily":0},{"id":"52716422662","owner":"169771858@N03","secret":"2eb7bc1559","server":"65535","farm":66,"title":"White-Throated Sparrow - 2022-10-22","ispublic":1,"isfriend":0,"isfamily":0},{"id":"52714343954","owner":"103722035@N06","secret":"419166d980","server":"0","farm":0,"title":"White-throated Sparrow (Zonotrichia albicollis), Cerro Alto, Highway 41, San Luis Obispo County, CA","ispublic":1,"isfriend":0,"isfamily":0},{"id":"52713690173","owner":"195642998@N04","secret":"cd649f86e5","server":"65535","farm":66,"title":"White-Throated Sparrow (Zonotrichia albicollis)","ispublic":1,"isfriend":0,"isfamily":0},{"id":"52712876474","owner":"81058247@N08","secret":"8d6fa10401","server":"65535","farm":66,"title":"White-throated Sparrow (Zonotrichia albicollis)","ispublic":1,"isfriend":0,"isfamily":0},{"id":"52712612471","owner":"81058247@N08","secret":"40dd667503","server":"65535","farm":66,"title":"White-throated Sparrow (Zonotrichia albicollis)","ispublic":1,"isfriend":0,"isfamily":0},{"id":"52711995112","owner":"36142084@N05","secret":"719281894e","server":"65535","farm":66,"title":"R5_008819","ispublic":1,"isfriend":0,"isfamily":0},{"id":"52712517476","owner":"36142084@N05","secret":"3ce1a1e5af","server":"65535","farm":66,"title":"R5_008813","ispublic":1,"isfriend":0,"isfamily":0},{"id":"52711994942","owner":"36142084@N05","secret":"c42c62c5aa","server":"65535","farm":66,"title":"R5_008816","ispublic":1,"isfriend":0,"isfamily":0},{"id":"52711514027","owner":"165841515@N03","secret":"0b5a9921e7","server":"65535","farm":66,"title":"Bruant \u00e0 couronne blanche \/ White-throated Sparrow \/ (Zonotrichia albicollis)","ispublic":1,"isfriend":0,"isfamily":0},{"id":"52712296954","owner":"165841515@N03","secret":"3f464acecb","server":"65535","farm":66,"title":"Bruant \u00e0 couronne blanche \/ White-throated Sparrow \/ (Zonotrichia albicollis)","ispublic":1,"isfriend":0,"isfamily":0},{"id":"52711784233","owner":"34398645@N08","secret":"0edde1d068","server":"65535","farm":66,"title":"White Throated Sparrow, John Heinz Wildlife Refuge (zonotrichia albicollis)","ispublic":1,"isfriend":0,"isfamily":0},{"id":"52709207624","owner":"61396634@N07","secret":"1cbce4823d","server":"65535","farm":66,"title":"Mourning Doves","ispublic":1,"isfriend":0,"isfamily":0},{"id":"52708426827","owner":"61396634@N07","secret":"fa89d56118","server":"65535","farm":66,"title":"White-throated Sparrow","ispublic":1,"isfriend":0,"isfamily":0},{"id":"52706540473","owner":"187124972@N03","secret":"20fefe1e26","server":"65535","farm":66,"title":"P2180250 Bruant \u00e0 gorge blanche-4","ispublic":1,"isfriend":0,"isfamily":0},{"id":"52705524147","owner":"187124972@N03","secret":"502386eb6a","server":"65535","farm":66,"title":"BRUANT \u00c0 GORGE BLANCHE \/ WHITE-THROATED SPARROW (Zonotrichia albicollis)","ispublic":1,"isfriend":0,"isfamily":0},{"id":"50792455083","owner":"124442817@N02","secret":"b8b0aff1c0","server":"65535","farm":66,"title":"White-throated Sparrow - Zonotrichia albicollis","ispublic":1,"isfriend":0,"isfamily":0},{"id":"52704898359","owner":"184781347@N05","secret":"306f801eae","server":"65535","farm":66,"title":"chomp","ispublic":1,"isfriend":0,"isfamily":0},{"id":"52702917857","owner":"13451078@N03","secret":"cbdbf43c1c","server":"65535","farm":66,"title":"White-throated Sparrow  (Zonotrichia albicollis)","ispublic":1,"isfriend":0,"isfamily":0},{"id":"52698731507","owner":"62043870@N05","secret":"7cbb6bc92a","server":"65535","farm":66,"title":"White-throated Sparrow, Zonotrichia albicollis","ispublic":1,"isfriend":0,"isfamily":0},{"id":"52699598240","owner":"168495655@N07","secret":"4b6eeea6a6","server":"65535","farm":66,"title":"Bruant \u00e0 gorge blanche - Zonotrichia albicollis - White-throated Sparrow","ispublic":1,"isfriend":0,"isfamily":0},{"id":"52698760450","owner":"81058247@N08","secret":"bd377d133c","server":"65535","farm":66,"title":"White-throated Sparrow (Zonotrichia albicollis)","ispublic":1,"isfriend":0,"isfamily":0},{"id":"52698601699","owner":"81058247@N08","secret":"7152da2716","server":"65535","farm":66,"title":"White-throated Sparrow (Zonotrichia albicollis)","ispublic":1,"isfriend":0,"isfamily":0},{"id":"52698325103","owner":"70295563@N00","secret":"fbb714d9ce","server":"65535","farm":66,"title":"Sharp fellow","ispublic":1,"isfriend":0,"isfamily":0},{"id":"52697356759","owner":"85277889@N08","secret":"3a7db054e6","server":"65535","farm":66,"title":"White-throated Sparrow (Zonotrichia albicollis) 2023-02-06 (8a)","ispublic":1,"isfriend":0,"isfamily":0},{"id":"52696224890","owner":"36013467@N07","secret":"f625aa14e8","server":"65535","farm":66,"title":"White-throated Sparrow (Zonotrichia albicollis)","ispublic":1,"isfriend":0,"isfamily":0},{"id":"52692701030","owner":"8904060@N06","secret":"e1d2b872b7","server":"65535","farm":66,"title":"Blending","ispublic":1,"isfriend":0,"isfamily":0},{"id":"52689580026","owner":"57126723@N07","secret":"dc6a81086d","server":"65535","farm":66,"title":"Zonotrichia albicollis\u2014White-throated sparrow\u2014New Quarter Park--4","ispublic":1,"isfriend":0,"isfamily":0},{"id":"52690070938","owner":"57126723@N07","secret":"a030f2cebf","server":"65535","farm":66,"title":"Zonotrichia albicollis\u2014White-throated sparrow\u2014New Quarter Park-8637-Edit","ispublic":1,"isfriend":0,"isfamily":0},{"id":"52689848914","owner":"57126723@N07","secret":"e5359d3dc6","server":"65535","farm":66,"title":"Zonotrichia albicollis\u2014White-throated sparrow\u2014New Quarter Park--2","ispublic":1,"isfriend":0,"isfamily":0},{"id":"52688400221","owner":"165841515@N03","secret":"203f84ebca","server":"65535","farm":66,"title":"Bruant \u00e0 couronne blanche \/ White-throated Sparrow \/ (Zonotrichia albicollis)","ispublic":1,"isfriend":0,"isfamily":0},{"id":"52686802552","owner":"13451078@N03","secret":"0b5b77e939","server":"65535","farm":66,"title":"White-throated Sparrow (Zonotrichia albicollis)","ispublic":1,"isfriend":0,"isfamily":0},{"id":"52686073268","owner":"150919437@N06","secret":"029fa4248f","server":"65535","farm":66,"title":"White-Throated Sparrow (Zonotrichia albicollis), Barn Island Wildlife Management Area, Stonington, CT","ispublic":1,"isfriend":0,"isfamily":0},{"id":"52683965859","owner":"103722035@N06","secret":"436f66e154","server":"0","farm":0,"title":"White-throated Sparrow (Zonotrichia albicollis), Cerro Alto, Highway 41, San Luis Obispo County, CA","ispublic":1,"isfriend":0,"isfamily":0},{"id":"52683251273","owner":"39445433@N02","secret":"392382b634","server":"65535","farm":66,"title":"White-Throated Sparrow","ispublic":1,"isfriend":0,"isfamily":0},{"id":"52682233592","owner":"39445433@N02","secret":"a9dbdd41b6","server":"65535","farm":66,"title":"White-Throated Sparrow","ispublic":1,"isfriend":0,"isfamily":0},{"id":"52683036054","owner":"39445433@N02","secret":"d2e6015d70","server":"65535","farm":66,"title":"White-Throated Sparrow","ispublic":1,"isfriend":0,"isfamily":0},{"id":"52682232942","owner":"39445433@N02","secret":"e23b0764ac","server":"65535","farm":66,"title":"White-Throated Sparrow","ispublic":1,"isfriend":0,"isfamily":0},{"id":"52681950839","owner":"103722035@N06","secret":"96124bc4b2","server":"0","farm":0,"title":"White-throated Sparrow (Zonotrichia albicollis), Santa Margarita, CA","ispublic":1,"isfriend":0,"isfamily":0},{"id":"52680072885","owner":"33610210@N05","secret":"e2433399a8","server":"65535","farm":66,"title":"White-throated Sparrow, Zonotrichia albicollis","ispublic":1,"isfriend":0,"isfamily":0},{"id":"52679219539","owner":"47533293@N04","secret":"20279289ef","server":"65535","farm":66,"title":"White-throated sparrow, Zonotrichia albicollis","ispublic":1,"isfriend":0,"isfamily":0},{"id":"52679262055","owner":"130140749@N05","secret":"4595734828","server":"65535","farm":66,"title":"white-throated sparrow (Zonotrichia albicollis)","ispublic":1,"isfriend":0,"isfamily":0},{"id":"52679323158","owner":"130140749@N05","secret":"a3f156677f","server":"65535","farm":66,"title":"white-throated sparrow (Zonotrichia albicollis)   _DSC9115_01","ispublic":1,"isfriend":0,"isfamily":0},{"id":"52676905019","owner":"188156748@N07","secret":"b8f31ee0c2","server":"65535","farm":66,"title":"White-Throated Sparrow - Bruant \u00e0 gorge blanche - Zonotrichia albicollis  9804 (2)-SharpenAI-Standard copy.jpgS","ispublic":1,"isfriend":0,"isfamily":0},{"id":"52676112267","owner":"188156748@N07","secret":"e665998c9a","server":"65535","farm":66,"title":"White-Throated Sparrow - Bruant \u00e0 gorge blanche - Zonotrichia albicollis  9996 (2)-SharpenAI-Standard copy","ispublic":1,"isfriend":0,"isfamily":0},{"id":"52676112257","owner":"188156748@N07","secret":"96532a568b","server":"65535","farm":66,"title":"White-Throated Sparrow - Bruant \u00e0 gorge blanche - Zonotrichia albicollis 1798 (75)-SharpenAI-Standard copy.jpgS","ispublic":1,"isfriend":0,"isfamily":0},{"id":"52673800170","owner":"81058247@N08","secret":"f8c347ef17","server":"65535","farm":66,"title":"White-throated Sparrow (Zonotrichia albicollis)","ispublic":1,"isfriend":0,"isfamily":0},{"id":"52673862963","owner":"81058247@N08","secret":"0f0ea83ee6","server":"65535","farm":66,"title":"White-throated Sparrow (Zonotrichia albicollis)","ispublic":1,"isfriend":0,"isfamily":0},{"id":"52670651721","owner":"81058247@N08","secret":"82295d1a07","server":"65535","farm":66,"title":"White-throated Sparrow (Zonotrichia albicollis)","ispublic":1,"isfriend":0,"isfamily":0},{"id":"52670126952","owner":"81058247@N08","secret":"4513d4490e","server":"65535","farm":66,"title":"White-throated Sparrow (Zonotrichia albicollis)","ispublic":1,"isfriend":0,"isfamily":0},{"id":"52669412835","owner":"196046919@N07","secret":"9fabe3820d","server":"65535","farm":66,"title":"Sleeping White-throated Sparrow (Zonotrichia albicollis)","ispublic":1,"isfriend":0,"isfamily":0},{"id":"52667984320","owner":"33610210@N05","secret":"1b81f05ce7","server":"65535","farm":66,"title":"White-throated Sparrow, Zonotrichia albicollis","ispublic":1,"isfriend":0,"isfamily":0},{"id":"52668051373","owner":"33610210@N05","secret":"a816dc6a43","server":"65535","farm":66,"title":"White-throated Sparrow, Zonotrichia albicollis","ispublic":1,"isfriend":0,"isfamily":0},{"id":"52665909953","owner":"188156748@N07","secret":"2017fd788f","server":"65535","farm":66,"title":"White-Throated Sparrow - Bruant \u00e0 gorge blanche - Zonotrichia albicollis 1798 (74)-SharpenAI-Standard copy.jpgS","ispublic":1,"isfriend":0,"isfamily":0},{"id":"52664824641","owner":"69002026@N02","secret":"d053aee97e","server":"65535","farm":66,"title":"White-throated Sparrow (Zonotrichia albicollis)","ispublic":1,"isfriend":0,"isfamily":0},{"id":"52664164032","owner":"8654297@N06","secret":"17212ecc1b","server":"65535","farm":66,"title":"Cold punk sparrow","ispublic":1,"isfriend":0,"isfamily":0},{"id":"52664655765","owner":"62043870@N05","secret":"dd35e87f87","server":"65535","farm":66,"title":"White-throated Sparrow, Zonotrichia albicollis","ispublic":1,"isfriend":0,"isfamily":0},{"id":"52661203838","owner":"8783241@N08","secret":"573093f309","server":"65535","farm":66,"title":"Zonotrichia albicollis - White-throated Sparrow","ispublic":1,"isfriend":0,"isfamily":0},{"id":"52660643183","owner":"44034115@N08","secret":"d9b9964c8e","server":"65535","farm":66,"title":"Enter the White-throated Sparrow","ispublic":1,"isfriend":0,"isfamily":0},{"id":"52659538358","owner":"136180232@N08","secret":"c70a777b09","server":"65535","farm":66,"title":"White-throated Sparrow (Zonotrichia albicollis) JTE_0394","ispublic":1,"isfriend":0,"isfamily":0},{"id":"52657045864","owner":"11159374@N04","secret":"3e7237605e","server":"65535","farm":66,"title":"White-throated Sparrow","ispublic":1,"isfriend":0,"isfamily":0},{"id":"52654555306","owner":"84169650@N07","secret":"e25f4094c6","server":"65535","farm":66,"title":"White Throated Sparrow","ispublic":1,"isfriend":0,"isfamily":0},{"id":"52655035133","owner":"84169650@N07","secret":"baaf4d83e5","server":"65535","farm":66,"title":"White Throated Sparrow","ispublic":1,"isfriend":0,"isfamily":0},{"id":"52653753736","owner":"36013467@N07","secret":"c233ba0e07","server":"65535","farm":66,"title":"White-throated Sparrow (Zonotrichia albicollis)","ispublic":1,"isfriend":0,"isfamily":0},{"id":"52641360431","owner":"9243885@N07","secret":"24f32a590a","server":"65535","farm":66,"title":"2023_01_21_5DMk4_90737","ispublic":1,"isfriend":0,"isfamily":0},{"id":"52641470995","owner":"158105449@N02","secret":"6fa0904718","server":"65535","farm":66,"title":"It's cold outside","ispublic":1,"isfriend":0,"isfamily":0},{"id":"52639837836","owner":"10260434@N03","secret":"b7a032225d","server":"65535","farm":66,"title":"White-throated Sparrow-25Dec22","ispublic":1,"isfriend":0,"isfamily":0},{"id":"52640267685","owner":"10260434@N03","secret":"247dbf5bff","server":"65535","farm":66,"title":"White-throated Sparrow-25Dec22","ispublic":1,"isfriend":0,"isfamily":0},{"id":"52638838687","owner":"31379783@N02","secret":"8cd12a83e0","server":"65535","farm":66,"title":"Bruant \u00e0 gorge blanche - Zonotrichia albicollis - White-throated Sparrow","ispublic":1,"isfriend":0,"isfamily":0},{"id":"52639356381","owner":"31379783@N02","secret":"5b6a3bbd11","server":"65535","farm":66,"title":"Bruant \u00e0 gorge blanche - Zonotrichia albicollis - White-throated Sparrow","ispublic":1,"isfriend":0,"isfamily":0},{"id":"52634231778","owner":"57126723@N07","secret":"d345eb6515","server":"65535","farm":66,"title":"White-throated sparrow\u2014Zonotrichia albicollis-7316","ispublic":1,"isfriend":0,"isfamily":0},{"id":"52633644029","owner":"8605287@N03","secret":"57123a813b","server":"65535","farm":66,"title":"Emberizidae : Zonotrichia albicollis - male White-throated Sparrow","ispublic":1,"isfriend":0,"isfamily":0},{"id":"52629573926","owner":"45083607@N06","secret":"8c26de14c3","server":"65535","farm":66,"title":"A Spot of Yellow","ispublic":1,"isfriend":0,"isfamily":0},{"id":"52629995640","owner":"45083607@N06","secret":"66a539a7eb","server":"65535","farm":66,"title":"White-throated Sparrow","ispublic":1,"isfriend":0,"isfamily":0},{"id":"52627857827","owner":"22798231@N00","secret":"7c7ba10e8d","server":"65535","farm":66,"title":"White-throated sparrow","ispublic":1,"isfriend":0,"isfamily":0},{"id":"52627920620","owner":"37456450@N04","secret":"12fc48e359","server":"65535","farm":66,"title":"White-throated Sparrow","ispublic":1,"isfriend":0,"isfamily":0},{"id":"52627960033","owner":"37456450@N04","secret":"51ff7fd62e","server":"65535","farm":66,"title":"White-throated Sparrow","ispublic":1,"isfriend":0,"isfamily":0},{"id":"52617873107","owner":"110883534@N05","secret":"23f9f693a2","server":"65535","farm":66,"title":"White-throated Sparrow","ispublic":1,"isfriend":0,"isfamily":0},{"id":"52616368050","owner":"48232993@N00","secret":"a2ccc9e964","server":"65535","farm":66,"title":"white-throated sparrow","ispublic":1,"isfriend":0,"isfamily":0},{"id":"52574838817","owner":"49114357@N08","secret":"4022c90600","server":"65535","farm":66,"title":"White-throated Sparrow","ispublic":1,"isfriend":0,"isfamily":0},{"id":"52611565895","owner":"44904157@N04","secret":"f43eb06ce7","server":"65535","farm":66,"title":"White-throated Sparrow","ispublic":1,"isfriend":0,"isfamily":0},{"id":"52639129623","owner":"134270033@N06","secret":"8e75893b3e","server":"65535","farm":66,"title":"HFF :: Happy Fence Friday","ispublic":1,"isfriend":0,"isfamily":0},{"id":"52601597010","owner":"119095828@N03","secret":"da657ce4ae","server":"65535","farm":66,"title":"White-throated Sparrow (Zonotrichia albicollis)","ispublic":1,"isfriend":0,"isfamily":0},{"id":"52598382617","owner":"195642998@N04","secret":"36a782ec4a","server":"65535","farm":66,"title":"White-throated Sparrow (Zonotrichia albicollis)","ispublic":1,"isfriend":0,"isfamily":0},{"id":"52599302153","owner":"18378985@N08","secret":"6f18906f7b","server":"65535","farm":66,"title":"White-throated Sparrow","ispublic":1,"isfriend":0,"isfamily":0},{"id":"52597549193","owner":"33610210@N05","secret":"755527d16d","server":"65535","farm":66,"title":"White-throated Sparrow, Zonotrichia albicollis","ispublic":1,"isfriend":0,"isfamily":0},{"id":"52597549083","owner":"33610210@N05","secret":"a0902cf268","server":"65535","farm":66,"title":"White-throated Sparrow, Zonotrichia albicollis","ispublic":1,"isfriend":0,"isfamily":0},{"id":"52594087557","owner":"97599611@N04","secret":"7c92b99ceb","server":"65535","farm":66,"title":"0P7A0574   White-throated Sparrow, Canada","ispublic":1,"isfriend":0,"isfamily":0},{"id":"52594777584","owner":"144980256@N07","secret":"843204504c","server":"65535","farm":66,"title":"White-throated Sparrow (Zonotrichia albicollis)","ispublic":1,"isfriend":0,"isfamily":0},{"id":"52593108383","owner":"128537732@N06","secret":"9cdb7f6f63","server":"65535","farm":66,"title":"White-throated Sparrow (Zonotrichia albicollis)","ispublic":1,"isfriend":0,"isfamily":0},{"id":"52592949665","owner":"140318147@N08","secret":"45b78ae8e0","server":"65535","farm":66,"title":"white-throated sparrow (Zonotrichia albicollis) L4A9903","ispublic":1,"isfriend":0,"isfamily":0},{"id":"52592654899","owner":"151381692@N04","secret":"bd143ce3aa","server":"65535","farm":66,"title":"White-throated Sparrow (Zonotrichia albicollis)","ispublic":1,"isfriend":0,"isfamily":0},{"id":"52591719208","owner":"91064752@N03","secret":"011284b3ed","server":"65535","farm":66,"title":"White-throated Sparrow Foraging on the Ground","ispublic":1,"isfriend":0,"isfamily":0},{"id":"52591609550","owner":"45340210@N05","secret":"4feab3a429","server":"65535","farm":66,"title":"Portrait of a White-throat 12_27_22","ispublic":1,"isfriend":0,"isfamily":0},{"id":"52590587782","owner":"36013467@N07","secret":"c2d1a9bd80","server":"65535","farm":66,"title":"White-throated Sparrow (Zonotrichia albicollis)","ispublic":1,"isfriend":0,"isfamily":0},{"id":"52590658120","owner":"39138537@N06","secret":"6c9de54158","server":"65535","farm":66,"title":"White-throated Sparrow (Zonotrichia albicollis)","ispublic":1,"isfriend":0,"isfamily":0},{"id":"52590035835","owner":"128537732@N06","secret":"3ccc9efa95","server":"65535","farm":66,"title":"White-throated Sparrow (Zonotrichia albicollis)","ispublic":1,"isfriend":0,"isfamily":0},{"id":"52583818534","owner":"65632611@N00","secret":"5e60b91755","server":"65535","farm":66,"title":"Forest Park: White-throated Sparrow gobbling seed (6797_","ispublic":1,"isfriend":0,"isfamily":0},{"id":"52584008478","owner":"188156748@N07","secret":"82de1a74f4","server":"65535","farm":66,"title":"White-Throated Sparrow - Bruant \u00e0 gorge blanche - Zonotrichia albicollis 9086-SharpenAI-Standard copy.jpgS","ispublic":1,"isfriend":0,"isfamily":0}]},"stat":"ok"}