{"photos":{"page":1,"pages":3,"perpage":100,"total":236,"photo":[{"id":"52666486831","owner":"190773540@N03","secret":"ceefe918b6","server":"65535","farm":66,"title":"White-tailed Trogon (male) Ecuador","ispublic":1,"isfriend":0,"isfamily":0},{"id":"52666314649","owner":"190773540@N03","secret":"fa289c350e","server":"65535","farm":66,"title":"White-tailed Trogon (female) Ecuador","ispublic":1,"isfriend":0,"isfamily":0},{"id":"52666310194","owner":"190773540@N03","secret":"db895b2653","server":"65535","farm":66,"title":"White-tailed Trogon (male) Ecuador","ispublic":1,"isfriend":0,"isfamily":0},{"id":"52650683790","owner":"197491724@N07","secret":"d83f3e0026","server":"65535","farm":66,"title":"Mi primer trog\u00f3n \ud83d\udc99","ispublic":1,"isfriend":0,"isfamily":0},{"id":"52554114627","owner":"69947563@N07","secret":"dbc200658e","server":"65535","farm":66,"title":"White-tailed Trogon - San Francisco, Antioquia, Colombia","ispublic":1,"isfriend":0,"isfamily":0},{"id":"52527977389","owner":"29170368@N03","secret":"263d0a26c9","server":"65535","farm":66,"title":"White-tailed Trogon","ispublic":1,"isfriend":0,"isfamily":0},{"id":"52495306679","owner":"86666094@N00","secret":"afcde98668","server":"65535","farm":66,"title":"White-tailed Trogon 1","ispublic":1,"isfriend":0,"isfamily":0},{"id":"52494540202","owner":"86666094@N00","secret":"cf8dcd5f51","server":"65535","farm":66,"title":"White-tailed Trogon","ispublic":1,"isfriend":0,"isfamily":0},{"id":"52406943003","owner":"187682764@N06","secret":"536893fc7f","server":"65535","farm":66,"title":"White-tailed Trogon (f)","ispublic":1,"isfriend":0,"isfamily":0},{"id":"52394576414","owner":"59558842@N05","secret":"62fcedef86","server":"65535","farm":66,"title":"Trogon chionurus - Trogon Coliblanco; Trogon de Sclater; White-tailed Trogon -","ispublic":1,"isfriend":0,"isfamily":0},{"id":"52260072918","owner":"59558842@N05","secret":"fbdb8daa9e","server":"65535","farm":66,"title":"Torgon chionurus - Trog\u00f3n coliblanco; Trogon \u00e0 queue blanche; Trogon de Sclater; White-tailed Trogon -","ispublic":1,"isfriend":0,"isfamily":0},{"id":"52248094940","owner":"37493716@N02","secret":"325ae9e14f","server":"65535","farm":66,"title":"Aves Reserva Tit\u00ed Cabeciblanco","ispublic":1,"isfriend":0,"isfamily":0},{"id":"51988525417","owner":"189542651@N03","secret":"40f12382ec","server":"65535","farm":66,"title":"white-tailed trogon (Trogon chionurus)","ispublic":1,"isfriend":0,"isfamily":0},{"id":"51126253007","owner":"187510707@N05","secret":"7a64c49e04","server":"65535","farm":66,"title":"trogon coliblanco (Trogon chionurus)","ispublic":1,"isfriend":0,"isfamily":0},{"id":"50673039211","owner":"119787485@N07","secret":"5b99da1db8","server":"65535","farm":66,"title":"White-tailed Trogon (Trogon chionurus) - 20140126-02","ispublic":1,"isfriend":0,"isfamily":0},{"id":"50558701067","owner":"27480477@N07","secret":"c51ce40065","server":"65535","farm":66,"title":"D38K5253 Witstaarttrogon, Western White-Tailed Trogon, Trogon chionurus","ispublic":1,"isfriend":0,"isfamily":0},{"id":"50011362961","owner":"154347279@N04","secret":"5f3a5b30db","server":"65535","farm":66,"title":"Trogon chionurus","ispublic":1,"isfriend":0,"isfamily":0},{"id":"50011362926","owner":"154347279@N04","secret":"f1e96f00ec","server":"65535","farm":66,"title":"Trogon chionurus","ispublic":1,"isfriend":0,"isfamily":0},{"id":"50011362856","owner":"154347279@N04","secret":"99164cd92e","server":"65535","farm":66,"title":"Trogon chionurus","ispublic":1,"isfriend":0,"isfamily":0},{"id":"50011622482","owner":"154347279@N04","secret":"2a46992fbe","server":"65535","farm":66,"title":"Trogon chionurus","ispublic":1,"isfriend":0,"isfamily":0},{"id":"50010828883","owner":"154347279@N04","secret":"bfdc83e02c","server":"65535","farm":66,"title":"Trogon chionurus","ispublic":1,"isfriend":0,"isfamily":0},{"id":"49773842626","owner":"142664467@N04","secret":"d1e5b0de21","server":"65535","farm":66,"title":"White-tailed Trogon (Trogon chionurus)","ispublic":1,"isfriend":0,"isfamily":0},{"id":"49575000412","owner":"101130369@N06","secret":"8a708a06f4","server":"65535","farm":66,"title":"Panama 2019 Dari\u00e9n - White-tailed Trogon, valkopyrst\u00f6trogoni","ispublic":1,"isfriend":0,"isfamily":0},{"id":"49574263393","owner":"101130369@N06","secret":"90c790f096","server":"65535","farm":66,"title":"Panama 2019 Dari\u00e9n - White-tailed Trogon, valkopyrst\u00f6trogoni","ispublic":1,"isfriend":0,"isfamily":0},{"id":"49574262823","owner":"101130369@N06","secret":"d6894a1ea9","server":"65535","farm":66,"title":"Panama 2019 Dari\u00e9n - Female White-tailed Trogon, valkopyrst\u00f6trogoni (naaras)","ispublic":1,"isfriend":0,"isfamily":0},{"id":"49574256123","owner":"101130369@N06","secret":"9336fa8615","server":"65535","farm":66,"title":"Panama 2019 Dari\u00e9n - White-tailed Trogon, valkopyrst\u00f6trogoni","ispublic":1,"isfriend":0,"isfamily":0},{"id":"49574256003","owner":"101130369@N06","secret":"c658584dbf","server":"65535","farm":66,"title":"Panama 2019 Dari\u00e9n - White-tailed Trogon, valkopyrst\u00f6trogoni","ispublic":1,"isfriend":0,"isfamily":0},{"id":"49574255848","owner":"101130369@N06","secret":"bf3383b613","server":"65535","farm":66,"title":"Panama 2019 Dari\u00e9n - White-tailed Trogon, valkopyrst\u00f6trogoni","ispublic":1,"isfriend":0,"isfamily":0},{"id":"49570990711","owner":"11014423@N07","secret":"02ac0d19ff","server":"65535","farm":66,"title":"White-tailed trogon (Trogon chionurus)","ispublic":1,"isfriend":0,"isfamily":0},{"id":"49478048922","owner":"186748160@N02","secret":"ba40bfcfd9","server":"65535","farm":66,"title":"White-tailed trogon (Trogon chionurus)","ispublic":1,"isfriend":0,"isfamily":0},{"id":"49438841573","owner":"12185056@N02","secret":"3bb10324de","server":"65535","farm":66,"title":"White-tailed Trogan  (Trogon chionurus)","ispublic":1,"isfriend":0,"isfamily":0},{"id":"49353621717","owner":"152845304@N05","secret":"d4113017cb","server":"65535","farm":66,"title":"15_J4I4125-","ispublic":1,"isfriend":0,"isfamily":0},{"id":"49336939598","owner":"130641506@N04","secret":"4202caac17","server":"65535","farm":66,"title":"White-tailed Trogon  -  Trogon chionurus","ispublic":1,"isfriend":0,"isfamily":0},{"id":"49261837052","owner":"130641506@N04","secret":"331bd4f07a","server":"65535","farm":66,"title":"Female White-tailed Trogon  -  Trogon chionurus","ispublic":1,"isfriend":0,"isfamily":0},{"id":"49261167823","owner":"130641506@N04","secret":"5162d57b4b","server":"65535","farm":66,"title":"White-tailed Trogon  -  Trogon chionurus","ispublic":1,"isfriend":0,"isfamily":0},{"id":"49261638121","owner":"130641506@N04","secret":"539fa25b9f","server":"65535","farm":66,"title":"Male White-tailed Trogon  -  Trogon chionurus","ispublic":1,"isfriend":0,"isfamily":0},{"id":"49261167363","owner":"130641506@N04","secret":"63f064bd9c","server":"65535","farm":66,"title":"Female White-tailed Trogon  -  Trogon chionurus","ispublic":1,"isfriend":0,"isfamily":0},{"id":"48951890391","owner":"30679992@N06","secret":"555d540249","server":"65535","farm":66,"title":"White-tailed Trogon","ispublic":1,"isfriend":0,"isfamily":0},{"id":"48382828431","owner":"155928864@N08","secret":"d4d6a7c1a8","server":"65535","farm":66,"title":"Trog\u00f3n Coliblanco Transandino, Trogon chionurus, Western White-tailed Trogon. Silanche, Pedro Vicente Maldonado, Ecuador","ispublic":1,"isfriend":0,"isfamily":0},{"id":"47844377711","owner":"146006711@N02","secret":"1c15d75f9c","server":"65535","farm":66,"title":"Trogon Coliblanco\/White-tailed Trogon \/Trogon chionurus","ispublic":1,"isfriend":0,"isfamily":0},{"id":"46796000985","owner":"70295563@N00","secret":"800bc23d6f","server":"65535","farm":66,"title":"White-tailed Trogon [Trogon chionurus]","ispublic":1,"isfriend":0,"isfamily":0},{"id":"40659817703","owner":"7531046@N07","secret":"2a99b494e9","server":"65535","farm":66,"title":"White-tailed Trogon","ispublic":1,"isfriend":0,"isfamily":0},{"id":"47137572131","owner":"12943049@N07","secret":"9a37b85a77","server":"7899","farm":8,"title":"Trogon chionurus - Trog\u00f3n coliblanco  - White-tailed Trogon","ispublic":1,"isfriend":0,"isfamily":0},{"id":"32419278093","owner":"145890709@N08","secret":"f585748a76","server":"2907","farm":3,"title":"White-tailed Trogon","ispublic":1,"isfriend":0,"isfamily":0},{"id":"45303247785","owner":"96568982@N06","secret":"3de5127bbb","server":"4863","farm":5,"title":"TROGON, White-tailed","ispublic":1,"isfriend":0,"isfamily":0},{"id":"31132822077","owner":"101244975@N08","secret":"c70823ccbc","server":"4907","farm":5,"title":"White-tailed trogon (Trogon chionurus)","ispublic":1,"isfriend":0,"isfamily":0},{"id":"44970027055","owner":"99613800@N02","secret":"e1c797fefb","server":"4894","farm":5,"title":"Trogon chionurus (White-tailed Trogon) - male - Trogonidae - Pipeline Road, Soberiana NP, Panama","ispublic":1,"isfriend":0,"isfamily":0},{"id":"30944104597","owner":"99613800@N02","secret":"9cbdde70ec","server":"4862","farm":5,"title":"Trogon chionurus (White-tailed Trogon) - male - Trogonidae - Pipeline Road, Soberiana NP, Panama-2","ispublic":1,"isfriend":0,"isfamily":0},{"id":"29352444608","owner":"23117403@N06","secret":"24a18f31c3","server":"1829","farm":2,"title":"White-tailed trogon - Trogon de Sclater - Trogo\u0301n Coliblanco - Trogon chionurus","ispublic":1,"isfriend":0,"isfamily":0},{"id":"41484092472","owner":"107406354@N02","secret":"9ec81b23d8","server":"937","farm":1,"title":"Sites of Trinidad and Tobago","ispublic":1,"isfriend":0,"isfamily":0},{"id":"41114697601","owner":"55663585@N00","secret":"47a7226ac5","server":"784","farm":1,"title":"White-tailed Trogon","ispublic":1,"isfriend":0,"isfamily":0},{"id":"38573696200","owner":"7330431@N08","secret":"318a92148b","server":"4720","farm":5,"title":"White-tailed Trogon Trogon chionurus","ispublic":1,"isfriend":0,"isfamily":0},{"id":"25512001347","owner":"7330431@N08","secret":"45b07d153e","server":"4626","farm":5,"title":"White-tailed Trogon Trogon chionurus","ispublic":1,"isfriend":0,"isfamily":0},{"id":"38386827264","owner":"76617062@N08","secret":"338ea4eab2","server":"4588","farm":5,"title":"1.08049 Trogon de Sclater (femelle) \/ Trogon chionurus \/ White-tailed Trogon","ispublic":1,"isfriend":0,"isfamily":0},{"id":"37084588692","owner":"154261763@N05","secret":"9d434f2a36","server":"4353","farm":5,"title":"White-tailed trogon - Trogon chionurus","ispublic":1,"isfriend":0,"isfamily":0},{"id":"37062496195","owner":"61827574@N03","secret":"6b332d6c15","server":"4357","farm":5,"title":"White-tailed Trogon - Trogon chionurus","ispublic":1,"isfriend":0,"isfamily":0},{"id":"35329486764","owner":"29170368@N03","secret":"5c6650957e","server":"65535","farm":66,"title":"White-tailed Trogon","ispublic":1,"isfriend":0,"isfamily":0},{"id":"35329485224","owner":"29170368@N03","secret":"6d6c734608","server":"65535","farm":66,"title":"White-tailed Trogon","ispublic":1,"isfriend":0,"isfamily":0},{"id":"34129103706","owner":"124364870@N05","secret":"07682f6dcb","server":"2852","farm":3,"title":"Trogon chionurus - White-tailed Trogon","ispublic":1,"isfriend":0,"isfamily":0},{"id":"33875206122","owner":"126761410@N03","secret":"e0a3807c83","server":"2925","farm":3,"title":"White-tailed Trogon \/ Trog\u00f3n Coliblanca","ispublic":1,"isfriend":0,"isfamily":0},{"id":"31716059934","owner":"143238396@N03","secret":"ac0c50fafb","server":"376","farm":1,"title":"White-Tailed Trogon (Trogon chionurus)","ispublic":1,"isfriend":0,"isfamily":0},{"id":"31855884076","owner":"38744803@N06","secret":"86c83fa995","server":"494","farm":1,"title":"White-tailed Trogon (Trogon chionurus)","ispublic":1,"isfriend":0,"isfamily":0},{"id":"30305296240","owner":"95610786@N07","secret":"c638886dcf","server":"5643","farm":6,"title":"Trogon de Panama - Trogon chionurus-White-tailed Trogon 6264.jpg","ispublic":1,"isfriend":0,"isfamily":0},{"id":"29429174140","owner":"99584469@N03","secret":"9812ce7877","server":"8485","farm":9,"title":"Trogon chionurus","ispublic":1,"isfriend":0,"isfamily":0},{"id":"28773872996","owner":"12966396@N04","secret":"f6c595c0f5","server":"8203","farm":9,"title":"Trog\u00f3n coliblanco - Trogon chionurus - White-tailed Trogon","ispublic":1,"isfriend":0,"isfamily":0},{"id":"28699364062","owner":"12966396@N04","secret":"8fe5f29502","server":"8832","farm":9,"title":"Trog\u00f3n coliblanco - Trogon chionurus - White-tailed Trogon","ispublic":1,"isfriend":0,"isfamily":0},{"id":"52247883299","owner":"37493716@N02","secret":"5931efd8cd","server":"65535","farm":66,"title":"Aves Reserva Tit\u00ed Cabeciblanco","ispublic":1,"isfriend":0,"isfamily":0},{"id":"52247612538","owner":"37493716@N02","secret":"704815a201","server":"65535","farm":66,"title":"Aves Reserva Tit\u00ed Cabeciblanco","ispublic":1,"isfriend":0,"isfamily":0},{"id":"51861508097","owner":"36847319@N07","secret":"f74570fd6e","server":"65535","farm":66,"title":"White-tailed Trogon - Trogon chionurus","ispublic":1,"isfriend":0,"isfamily":0},{"id":"50831471447","owner":"54249623@N08","secret":"e57cb4dd31","server":"65535","farm":66,"title":"Trog\u00f3n Coliblanco, White-tailed Trogon (Trogon chionurus)","ispublic":1,"isfriend":0,"isfamily":0},{"id":"50557808683","owner":"27480477@N07","secret":"95757d9f84","server":"65535","farm":66,"title":"D38K5222 Witstaarttrogon, Western White-Tailed Trogon, Trogon chionurus.","ispublic":1,"isfriend":0,"isfamily":0},{"id":"50011362766","owner":"154347279@N04","secret":"4dcb53371d","server":"65535","farm":66,"title":"Trogon chionurus","ispublic":1,"isfriend":0,"isfamily":0},{"id":"49502806963","owner":"100682706@N06","secret":"227d74af4e","server":"65535","farm":66,"title":"White-tailed Trogon - Trogon chionurus","ispublic":1,"isfriend":0,"isfamily":0},{"id":"49474033108","owner":"61062164@N08","secret":"a68da7f09a","server":"65535","farm":66,"title":"028 JFC ECU 2019 049 JFC_9791","ispublic":1,"isfriend":0,"isfamily":0},{"id":"47486923731","owner":"67614740@N07","secret":"d85e24d5ed","server":"7806","farm":8,"title":"White-tailed Trogon (Trogon chionurus)","ispublic":1,"isfriend":0,"isfamily":0},{"id":"32445791268","owner":"154261763@N05","secret":"477108f468","server":"4866","farm":5,"title":"White-tailed trogon - Trogon chionurus","ispublic":1,"isfriend":0,"isfamily":0},{"id":"29613013787","owner":"14113765@N00","secret":"e4a94f7dfe","server":"1891","farm":2,"title":"White-tailed Trogon","ispublic":1,"isfriend":0,"isfamily":0},{"id":"29762190718","owner":"48943348@N04","secret":"5c7aeba4e5","server":"849","farm":1,"title":"Trog\u00f3n Coliblanco \/ White-tailed Trogon (Trogon chionurus)","ispublic":1,"isfriend":0,"isfamily":0},{"id":"41824243610","owner":"48943348@N04","secret":"f235d98cb4","server":"940","farm":1,"title":"Trog\u00f3n Coliblanco \/ White-tailed Trogon (Trogon chionurus)","ispublic":1,"isfriend":0,"isfamily":0},{"id":"42747046301","owner":"14115261@N05","secret":"e845744d82","server":"899","farm":1,"title":"IMG_1772","ispublic":1,"isfriend":0,"isfamily":0},{"id":"41323722684","owner":"152995459@N03","secret":"4d7eed34cd","server":"968","farm":1,"title":"White-tailed Trogon (Trogon chionurus)","ispublic":1,"isfriend":0,"isfamily":0},{"id":"41832347741","owner":"76121755@N03","secret":"a4217655b7","server":"910","farm":1,"title":"White Tailed Trogon (Trogon chionurus) Trog\u00f3n Coliblanco Occidental","ispublic":1,"isfriend":0,"isfamily":0},{"id":"38647087980","owner":"120741004@N04","secret":"fc6b68f313","server":"4716","farm":5,"title":"Trogon chionurus","ispublic":1,"isfriend":0,"isfamily":0},{"id":"40457550281","owner":"120741004@N04","secret":"2b918fc668","server":"4760","farm":5,"title":"Trogon chionurus","ispublic":1,"isfriend":0,"isfamily":0},{"id":"38647085970","owner":"120741004@N04","secret":"066ff8fb46","server":"4669","farm":5,"title":"Trogon chionurus","ispublic":1,"isfriend":0,"isfamily":0},{"id":"40457549121","owner":"120741004@N04","secret":"3264bd1204","server":"4770","farm":5,"title":"Trogon chionurus","ispublic":1,"isfriend":0,"isfamily":0},{"id":"39204718081","owner":"125236336@N05","secret":"d650a42c92","server":"4728","farm":5,"title":"Trogon chionurus","ispublic":1,"isfriend":0,"isfamily":0},{"id":"26471377949","owner":"152995459@N03","secret":"d0ff3a33f2","server":"4463","farm":5,"title":"White-tailed Trogon (Trogon chionurus)","ispublic":1,"isfriend":0,"isfamily":0},{"id":"36322482245","owner":"152845304@N05","secret":"078e89854e","server":"4316","farm":5,"title":"025-_MG_9216","ispublic":1,"isfriend":0,"isfamily":0},{"id":"34937196154","owner":"156320246@N05","secret":"84590a185a","server":"4281","farm":5,"title":"Trogon_viridis chionurus 12 \u767d\u5c3e\u7f8e\u6d32\u54ac\u9e43 immature male White-tailed Trogon","ispublic":1,"isfriend":0,"isfamily":0},{"id":"35539018456","owner":"141407785@N05","secret":"04e3d0a66b","server":"4281","farm":5,"title":"Trogon chionurus hembra","ispublic":1,"isfriend":0,"isfamily":0},{"id":"35447222711","owner":"141407785@N05","secret":"b546900a91","server":"4216","farm":5,"title":"Trogon chionurus","ispublic":1,"isfriend":0,"isfamily":0},{"id":"34029013790","owner":"120741004@N04","secret":"1bfbe4a0f6","server":"4166","farm":5,"title":"Trogon chionurus","ispublic":1,"isfriend":0,"isfamily":0},{"id":"34372404506","owner":"120741004@N04","secret":"2ff1f346c4","server":"4178","farm":5,"title":"Trogon chionurus","ispublic":1,"isfriend":0,"isfamily":0},{"id":"31900157510","owner":"41643989@N04","secret":"6e9412c84b","server":"312","farm":1,"title":"White-tailed Trogon - Trogon chionurus - Pichincha, Ecuador - January 15, 2006","ispublic":1,"isfriend":0,"isfamily":0},{"id":"31976096475","owner":"52799999@N06","secret":"c9a919dd69","server":"392","farm":1,"title":"White-tailed Trogon (Trogon chionurus)","ispublic":1,"isfriend":0,"isfamily":0},{"id":"31083903153","owner":"38744803@N06","secret":"4bd82ac613","server":"659","farm":1,"title":"White-tailed Trogon (Trogon chionurus)","ispublic":1,"isfriend":0,"isfamily":0},{"id":"30767380754","owner":"135134997@N06","secret":"0ee17e3c32","server":"234","farm":1,"title":"Trogon chionurus (White-tailed Trogon)","ispublic":1,"isfriend":0,"isfamily":0},{"id":"30490931862","owner":"120741004@N04","secret":"87c29be29f","server":"5548","farm":6,"title":"Trogon chionurus","ispublic":1,"isfriend":0,"isfamily":0},{"id":"29974128603","owner":"120741004@N04","secret":"bc072137ce","server":"5537","farm":6,"title":"Trogon chionurus","ispublic":1,"isfriend":0,"isfamily":0}]},"stat":"ok"}