{"photos":{"page":1,"pages":90,"perpage":100,"total":8926,"photo":[{"id":"52723648798","owner":"16447555@N02","secret":"1c667de59d","server":"65535","farm":66,"title":"White-breasted Nuthatch_IMG_0441_edited-1","ispublic":1,"isfriend":0,"isfamily":0},{"id":"52722840885","owner":"157360061@N02","secret":"eb0c87d362","server":"65535","farm":66,"title":"White-Breasted Nuthatch","ispublic":1,"isfriend":0,"isfamily":0},{"id":"52720347300","owner":"130140749@N05","secret":"1d84fd5557","server":"65535","farm":66,"title":"Sitting Sitta","ispublic":1,"isfriend":0,"isfamily":0},{"id":"52718988293","owner":"65148649@N04","secret":"9fe643da34","server":"65535","farm":66,"title":"White-Breasted Nuthatch 02.18.23 Frye","ispublic":1,"isfriend":0,"isfamily":0},{"id":"52718739860","owner":"42034882@N00","secret":"636a38af94","server":"65535","farm":66,"title":"Well one of us is upside-down.","ispublic":1,"isfriend":0,"isfamily":0},{"id":"52714808066","owner":"34238008@N02","secret":"b6d917a384","server":"65535","farm":66,"title":"White-breasted Nuthatch (Sitta carolinensis)","ispublic":1,"isfriend":0,"isfamily":0},{"id":"52713748499","owner":"42034882@N00","secret":"eae90c4d82","server":"65535","farm":66,"title":"Triumphant","ispublic":1,"isfriend":0,"isfamily":0},{"id":"52712757854","owner":"36142084@N05","secret":"5d4718fb44","server":"65535","farm":66,"title":"R5_009154","ispublic":1,"isfriend":0,"isfamily":0},{"id":"52711973207","owner":"36142084@N05","secret":"fff1d40562","server":"65535","farm":66,"title":"R5_009023","ispublic":1,"isfriend":0,"isfamily":0},{"id":"52712972108","owner":"36142084@N05","secret":"b6e4a54ce2","server":"65535","farm":66,"title":"R5_009143","ispublic":1,"isfriend":0,"isfamily":0},{"id":"52710191362","owner":"47533293@N04","secret":"726848f06a","server":"65535","farm":66,"title":"White-breasted nuthatch, Sitta carolinensis","ispublic":1,"isfriend":0,"isfamily":0},{"id":"52713730638","owner":"195656112@N04","secret":"ac90178914","server":"65535","farm":66,"title":"20230225-MDV06244","ispublic":1,"isfriend":0,"isfamily":0},{"id":"52708684197","owner":"57126723@N07","secret":"822a59f4b0","server":"65535","farm":66,"title":"White-breasted nuthatch\u2014Sitta carolinensis\u2014Sittidae\u2014Williamsburg, Virginia-","ispublic":1,"isfriend":0,"isfamily":0},{"id":"52709465384","owner":"57126723@N07","secret":"92fb937825","server":"65535","farm":66,"title":"White-breasted nuthatch\u2014Sitta carolinensis\u2014Sittidae\u2014Williamsburg, Virginia-7","ispublic":1,"isfriend":0,"isfamily":0},{"id":"52708684037","owner":"57126723@N07","secret":"6a46309cae","server":"65535","farm":66,"title":"White-breasted nuthatch\u2014Sitta carolinensis\u2014Sittidae\u2014Williamsburg, Virginia-8","ispublic":1,"isfriend":0,"isfamily":0},{"id":"52709690543","owner":"57126723@N07","secret":"616f957035","server":"65535","farm":66,"title":"White-breasted nuthatch\u2014Sitta carolinensis\u2014Sittidae\u2014Williamsburg, Virginia-9","ispublic":1,"isfriend":0,"isfamily":0},{"id":"52709690523","owner":"57126723@N07","secret":"2905c86168","server":"65535","farm":66,"title":"White-breasted nuthatch\u2014Sitta carolinensis\u2014Sittidae\u2014Williamsburg, Virginia-10","ispublic":1,"isfriend":0,"isfamily":0},{"id":"52708720245","owner":"163667952@N05","secret":"9e2e94f01a","server":"65535","farm":66,"title":"White-breasted Nuthatch","ispublic":1,"isfriend":0,"isfamily":0},{"id":"52708230071","owner":"37242840@N07","secret":"7d5b4eb3d8","server":"65535","farm":66,"title":"White-breasted Nuthatch, Sitta carolinensis (2)","ispublic":1,"isfriend":0,"isfamily":0},{"id":"52708715638","owner":"37242840@N07","secret":"60dde11700","server":"65535","farm":66,"title":"White-breasted Nuthatch, Sitta carolinensis (12)","ispublic":1,"isfriend":0,"isfamily":0},{"id":"52707708257","owner":"37242840@N07","secret":"25ea86431f","server":"65535","farm":66,"title":"White-breasted Nuthatch, Sitta carolinensis (14)","ispublic":1,"isfriend":0,"isfamily":0},{"id":"52707708162","owner":"37242840@N07","secret":"0643f653b6","server":"65535","farm":66,"title":"White-breasted Nuthatch, Sitta carolinensis (16)","ispublic":1,"isfriend":0,"isfamily":0},{"id":"52703788554","owner":"54549270@N03","secret":"edb99a4152","server":"65535","farm":66,"title":"White-breasted Nuthatch, male","ispublic":1,"isfriend":0,"isfamily":0},{"id":"52703448916","owner":"84169650@N07","secret":"7a2c3784f1","server":"65535","farm":66,"title":"White Breasted Nuthatch","ispublic":1,"isfriend":0,"isfamily":0},{"id":"52700024021","owner":"45445559@N04","secret":"d021e81924","server":"65535","farm":66,"title":"White-breasted Nuthatch","ispublic":1,"isfriend":0,"isfamily":0},{"id":"52699562603","owner":"165072144@N05","secret":"a2285c5020","server":"65535","farm":66,"title":"White-breasted Nuthatch (Sitta carolinensis)","ispublic":1,"isfriend":0,"isfamily":0},{"id":"52699243254","owner":"136620261@N06","secret":"67ac877d59","server":"65535","farm":66,"title":"Sittelle \u00e0 poitrine blanche, Sitta carolinensis, White-breasted Nuthatch-4221-Edit.jpg","ispublic":1,"isfriend":0,"isfamily":0},{"id":"52699243184","owner":"136620261@N06","secret":"78f6618d4f","server":"65535","farm":66,"title":"Sittelle \u00e0 poitrine blanche, Sitta carolinensis, White-breasted Nuthatch-4231.jpg","ispublic":1,"isfriend":0,"isfamily":0},{"id":"52698464307","owner":"136620261@N06","secret":"fcaafc0a19","server":"65535","farm":66,"title":"Sittelle \u00e0 poitrine blanche, Sitta carolinensis, White-breasted Nuthatch-4359-Edit.jpg","ispublic":1,"isfriend":0,"isfamily":0},{"id":"52699338023","owner":"187124972@N03","secret":"e8040c5b5f","server":"65535","farm":66,"title":"SITTELLE \u00c0 POITRINE BLANCHE\/ WHITE-BREASTED NUTHATCH (Sitta carolinensis)","ispublic":1,"isfriend":0,"isfamily":0},{"id":"52698326197","owner":"187124972@N03","secret":"1a88650b1d","server":"65535","farm":66,"title":"SITTELLE \u00c0 POITRINE BLANCHE\/ WHITE-BREASTED NUTHATCH (Sitta carolinensis)","ispublic":1,"isfriend":0,"isfamily":0},{"id":"52698210060","owner":"91064752@N03","secret":"95090313ce","server":"65535","farm":66,"title":"White-breasted Nuthatch","ispublic":1,"isfriend":0,"isfamily":0},{"id":"52696448998","owner":"181824639@N02","secret":"c539c574ca","server":"65535","farm":66,"title":"Sittelle \u00e0 poitrine blanche ( Sitta carolinensis )","ispublic":1,"isfriend":0,"isfamily":0},{"id":"52694727509","owner":"188156748@N07","secret":"b48728d3bc","server":"65535","farm":66,"title":"White-Breasted Nuthatch - Sitelle \u00e0 Poitrine Blanche - Sitta carolinensis 4411 (2)-SharpenAI-Standard copy.jpgS","ispublic":1,"isfriend":0,"isfamily":0},{"id":"52694954188","owner":"188156748@N07","secret":"5dc3efdbb8","server":"65535","farm":66,"title":"White-Breasted Nuthatch - Sitelle \u00e0 Poitrine Blanche - Sitta carolinensis 4411 (6)-SharpenAI-Standard copy.jpgS","ispublic":1,"isfriend":0,"isfamily":0},{"id":"52693947142","owner":"188156748@N07","secret":"9164e9f6b7","server":"65535","farm":66,"title":"White-Breasted Nuthatch - Sitelle \u00e0 Poitrine Blanche - Sitta carolinensis  4147-SharpenAI-Standard copy.jpgS2","ispublic":1,"isfriend":0,"isfamily":0},{"id":"52694954183","owner":"188156748@N07","secret":"36b20fe12e","server":"65535","farm":66,"title":"White-Breasted Nuthatch - Sitelle \u00e0 Poitrine Blanche - Sitta carolinensis 4411 (7)-SharpenAI-Standard copy.jpgS","ispublic":1,"isfriend":0,"isfamily":0},{"id":"52694146056","owner":"158105449@N02","secret":"fcc72b1605","server":"65535","farm":66,"title":"White-breasted Nuthatch (Sitta carolinensis)","ispublic":1,"isfriend":0,"isfamily":0},{"id":"52690900632","owner":"187245476@N05","secret":"1c4aeabf7e","server":"65535","farm":66,"title":"WHITE-BREASTED NUTHATCH (Sitta carolinensis)","ispublic":1,"isfriend":0,"isfamily":0},{"id":"52687185403","owner":"188156748@N07","secret":"09ecd7ccca","server":"65535","farm":66,"title":"White-Breasted Nuthatch - Sitelle \u00e0 Poitrine Blanche - Sitta carolinensis 4207 (4)-SharpenAI-Standard copy.jpgS","ispublic":1,"isfriend":0,"isfamily":0},{"id":"52687116505","owner":"188156748@N07","secret":"cbba06a381","server":"65535","farm":66,"title":"White-Breasted Nuthatch - Sitelle \u00e0 Poitrine Blanche - Sitta carolinensis  4147-SharpenAI-Standard copy.jpgS","ispublic":1,"isfriend":0,"isfamily":0},{"id":"52687185378","owner":"188156748@N07","secret":"804f319cb8","server":"65535","farm":66,"title":"White-Breasted Nuthatch - Sitelle \u00e0 Poitrine Blanche - Sitta carolinensis 4281 (2)-SharpenAI-Standard copy.jpgS","ispublic":1,"isfriend":0,"isfamily":0},{"id":"52625155500","owner":"49114357@N08","secret":"3ca5676c71","server":"65535","farm":66,"title":"White-breasted Nuthatch","ispublic":1,"isfriend":0,"isfamily":0},{"id":"52684577505","owner":"133972384@N04","secret":"31038b3a92","server":"65535","farm":66,"title":"nuthatch","ispublic":1,"isfriend":0,"isfamily":0},{"id":"52684356750","owner":"186604745@N03","secret":"8c4e6085ae","server":"65535","farm":66,"title":"Sittelle \u00e0 poitrine blanche \\ White-breasted Nuthatch","ispublic":1,"isfriend":0,"isfamily":0},{"id":"52683427938","owner":"146153230@N08","secret":"c64e3c91de","server":"65535","farm":66,"title":"White-breasted Nuthatch \/ Sittelle \u00e0 Poitrine Blanche (Sitta carolinensis)","ispublic":1,"isfriend":0,"isfamily":0},{"id":"52683427968","owner":"146153230@N08","secret":"dae46d0e3c","server":"65535","farm":66,"title":"White-breasted Nuthatch \/ Sittelle \u00e0 Poitrine Blanche (Sitta carolinensis)","ispublic":1,"isfriend":0,"isfamily":0},{"id":"52683427918","owner":"146153230@N08","secret":"1988f5d9f9","server":"65535","farm":66,"title":"White-breasted Nuthatch \/ Sittelle \u00e0 Poitrine Blanche (Sitta carolinensis)","ispublic":1,"isfriend":0,"isfamily":0},{"id":"52683177165","owner":"39445433@N02","secret":"1a3007e903","server":"65535","farm":66,"title":"White-Breasted Nuthatch","ispublic":1,"isfriend":0,"isfamily":0},{"id":"52682748781","owner":"39445433@N02","secret":"fa2aa72b52","server":"65535","farm":66,"title":"White-Breasted Nuthatch","ispublic":1,"isfriend":0,"isfamily":0},{"id":"52680803676","owner":"111701633@N07","secret":"2bded6ccca","server":"65535","farm":66,"title":"White-breasted_Nuthatch","ispublic":1,"isfriend":0,"isfamily":0},{"id":"52680092102","owner":"194196140@N08","secret":"f3b8a8c992","server":"65535","farm":66,"title":"White-breasted Nuthatch (Sitta carolinensis)","ispublic":1,"isfriend":0,"isfamily":0},{"id":"52680573843","owner":"120449047@N06","secret":"a0a50f17c7","server":"65535","farm":66,"title":"White-breasted Nuthatch","ispublic":1,"isfriend":0,"isfamily":0},{"id":"52679243837","owner":"65148649@N04","secret":"c2eb7e5f7d","server":"65535","farm":66,"title":"White-Breasted Nuthatch Bill Swiping 02.04.23 Frye","ispublic":1,"isfriend":0,"isfamily":0},{"id":"52679757716","owner":"65148649@N04","secret":"2422e58fd7","server":"65535","farm":66,"title":"White-Breasted Nuthatch 2 02.04.23 Frye","ispublic":1,"isfriend":0,"isfamily":0},{"id":"52680256243","owner":"65148649@N04","secret":"2cfecd9369","server":"65535","farm":66,"title":"White-Breasted Nuthatch 02.04.23 Frye","ispublic":1,"isfriend":0,"isfamily":0},{"id":"52680195910","owner":"65148649@N04","secret":"4b6d1e5d53","server":"65535","farm":66,"title":"White-Breasted Nuthatch 3 02.04.23 Frye","ispublic":1,"isfriend":0,"isfamily":0},{"id":"52680195890","owner":"65148649@N04","secret":"07b5407eeb","server":"65535","farm":66,"title":"White-Breasted Nuthatch 02.04.23 Rutherford K","ispublic":1,"isfriend":0,"isfamily":0},{"id":"52680042784","owner":"65148649@N04","secret":"0a3375bcba","server":"65535","farm":66,"title":"White-Breasted Nuthatch 02.04.23 Anderson","ispublic":1,"isfriend":0,"isfamily":0},{"id":"52677096832","owner":"71418112@N00","secret":"837e0d887e","server":"65535","farm":66,"title":"Hand fed.","ispublic":1,"isfriend":0,"isfamily":0},{"id":"52675080976","owner":"71833159@N00","secret":"d2f75ffaaa","server":"65535","farm":66,"title":"White-breasted Nuthatch \/ Sitta carolinensis","ispublic":1,"isfriend":0,"isfamily":0},{"id":"52671885137","owner":"45445559@N04","secret":"aeb42c8a9e","server":"65535","farm":66,"title":"White-breasted Nuthatch (Sitta carolinensis)","ispublic":1,"isfriend":0,"isfamily":0},{"id":"52671737033","owner":"41710899@N08","secret":"5d1e092370","server":"65535","farm":66,"title":"White-breasted Nuthatch","ispublic":1,"isfriend":0,"isfamily":0},{"id":"52663779152","owner":"103722035@N06","secret":"c8325d06a8","server":"65535","farm":66,"title":"White-breasted Nuthatch (Sitta carolinensis), Atascadero, CA","ispublic":1,"isfriend":0,"isfamily":0},{"id":"52664572739","owner":"103722035@N06","secret":"dee7903bb8","server":"65535","farm":66,"title":"White-breasted Nuthatch (Sitta carolinensis), Atascadero, CA","ispublic":1,"isfriend":0,"isfamily":0},{"id":"52664719560","owner":"103722035@N06","secret":"cf1003c60e","server":"65535","farm":66,"title":"White-breasted Nuthatch (Sitta carolinensis), Atascadero, CA","ispublic":1,"isfriend":0,"isfamily":0},{"id":"52664285686","owner":"103722035@N06","secret":"9ff9646916","server":"65535","farm":66,"title":"White-breasted Nuthatch (Sitta carolinensis), Atascadero, CA","ispublic":1,"isfriend":0,"isfamily":0},{"id":"52664719455","owner":"103722035@N06","secret":"7b795a57d3","server":"65535","farm":66,"title":"White-breasted Nuthatch (Sitta carolinensis), Atascadero, CA","ispublic":1,"isfriend":0,"isfamily":0},{"id":"52664570509","owner":"103722035@N06","secret":"1a42204657","server":"0","farm":0,"title":"White-breasted Nuthatch (Sitta carolinensis), Atascadero, CA","ispublic":1,"isfriend":0,"isfamily":0},{"id":"52662939766","owner":"57126723@N07","secret":"1c6680cc0c","server":"65535","farm":66,"title":"White-breasted nuthatch\u2014Sitta carolinensis-8081","ispublic":1,"isfriend":0,"isfamily":0},{"id":"52661496131","owner":"25899079@N08","secret":"4344b42dcf","server":"65535","farm":66,"title":"White-breasted Nuthatch (5955)","ispublic":1,"isfriend":0,"isfamily":0},{"id":"52660318649","owner":"136180232@N08","secret":"68e0bfd328","server":"65535","farm":66,"title":"White-breasted Nuthatch (Sitta carolinensis) JTE_0670","ispublic":1,"isfriend":0,"isfamily":0},{"id":"52659113002","owner":"91064752@N03","secret":"557caeb502","server":"65535","farm":66,"title":"White-breasted Nuthatch Closeup","ispublic":1,"isfriend":0,"isfamily":0},{"id":"52655427610","owner":"52495017@N00","secret":"1319500946","server":"65535","farm":66,"title":"A male white-breasted nuthatch at the Fletcher Wildlife Garden in Ottawa, Ontario","ispublic":1,"isfriend":0,"isfamily":0},{"id":"52655255319","owner":"52495017@N00","secret":"ff9b3dc80a","server":"65535","farm":66,"title":"A male white-breasted nuthatch at the Fletcher Wildlife Garden in Ottawa, Ontario","ispublic":1,"isfriend":0,"isfamily":0},{"id":"52654977611","owner":"52495017@N00","secret":"af50e0fdc5","server":"65535","farm":66,"title":"A male white-breasted nuthatch at the Fletcher Wildlife Garden in Ottawa, Ontario","ispublic":1,"isfriend":0,"isfamily":0},{"id":"52653808464","owner":"10289395@N05","secret":"bafbf765f3","server":"65535","farm":66,"title":"Agripp\u00e9e","ispublic":1,"isfriend":0,"isfamily":0},{"id":"52652131650","owner":"103722035@N06","secret":"72ecd9b0f3","server":"0","farm":0,"title":"White-breasted Nuthatch (Sitta carolinensis), Atascadero, CA","ispublic":1,"isfriend":0,"isfamily":0},{"id":"52649046921","owner":"32599741@N03","secret":"90184966f0","server":"65535","farm":66,"title":"bottoms up","ispublic":1,"isfriend":0,"isfamily":0},{"id":"52646410694","owner":"70295563@N00","secret":"74f8685e03","server":"65535","farm":66,"title":"Looking up","ispublic":1,"isfriend":0,"isfamily":0},{"id":"52643652149","owner":"135315828@N06","secret":"18126e0b6f","server":"65535","farm":66,"title":"white-breasted nuthatch","ispublic":1,"isfriend":0,"isfamily":0},{"id":"52643834985","owner":"135315828@N06","secret":"2c2b33f766","server":"65535","farm":66,"title":"white-breasted nuthatch","ispublic":1,"isfriend":0,"isfamily":0},{"id":"52640714144","owner":"44034115@N08","secret":"f7ca048046","server":"65535","farm":66,"title":"Watching the White-breasted Nuthatch","ispublic":1,"isfriend":0,"isfamily":0},{"id":"52640258218","owner":"10260434@N03","secret":"dd86f3a127","server":"65535","farm":66,"title":"WB Nuthatch male-28Nov22","ispublic":1,"isfriend":0,"isfamily":0},{"id":"52639234447","owner":"10260434@N03","secret":"53295c8832","server":"65535","farm":66,"title":"White-breasted Nuthatch male-22Nov22","ispublic":1,"isfriend":0,"isfamily":0},{"id":"52639203152","owner":"10260434@N03","secret":"7d6920b487","server":"65535","farm":66,"title":"White-breasted Nuthatch male-22Nov22","ispublic":1,"isfriend":0,"isfamily":0},{"id":"52640132519","owner":"91064752@N03","secret":"450d715dd5","server":"65535","farm":66,"title":"White-breasted Nuthatch on a Rock","ispublic":1,"isfriend":0,"isfamily":0},{"id":"52639789020","owner":"31379783@N02","secret":"e5ae6e47bc","server":"65535","farm":66,"title":"Sittelle \u00e0 poitrine blanche - Sitta carolinensis - White-breasted Nuthatch","ispublic":1,"isfriend":0,"isfamily":0},{"id":"52639422654","owner":"71418112@N00","secret":"7b8f82144d","server":"65535","farm":66,"title":"White-breasted nuthatch","ispublic":1,"isfriend":0,"isfamily":0},{"id":"52636086625","owner":"97599611@N04","secret":"edb602905a","server":"65535","farm":66,"title":"0P7A3394    White-breasted Nuthatch. Canada","ispublic":1,"isfriend":0,"isfamily":0},{"id":"52632693191","owner":"39983970@N08","secret":"5819d1fa01","server":"65535","farm":66,"title":"Self-confident --- Selbstsicher","ispublic":1,"isfriend":0,"isfamily":0},{"id":"52632849729","owner":"70295563@N00","secret":"a5c2f31c58","server":"65535","farm":66,"title":"Classic pose","ispublic":1,"isfriend":0,"isfamily":0},{"id":"52629907418","owner":"196046919@N07","secret":"d023c9706b","server":"65535","farm":66,"title":"Peeking White-Breasted Nuthatch (Sitta carolinensis)","ispublic":1,"isfriend":0,"isfamily":0},{"id":"52628846522","owner":"145086457@N04","secret":"edcc8a5cd2","server":"65535","farm":66,"title":"White-breasted Nuthatch","ispublic":1,"isfriend":0,"isfamily":0},{"id":"52629841123","owner":"48014585@N00","secret":"ced21bbde2","server":"65535","farm":66,"title":"White-breasted Nuthatch","ispublic":1,"isfriend":0,"isfamily":0},{"id":"52629361341","owner":"48014585@N00","secret":"51d845d65b","server":"65535","farm":66,"title":"White-breasted Nuthatch","ispublic":1,"isfriend":0,"isfamily":0},{"id":"52691689989","owner":"187245476@N05","secret":"13efe37d64","server":"65535","farm":66,"title":"WHITE-BREASTED NUTHATCH (Sitta carolinensis)","ispublic":1,"isfriend":0,"isfamily":0},{"id":"52691689954","owner":"187245476@N05","secret":"b58f9cf863","server":"65535","farm":66,"title":"WHITE-BREASTED NUTHATCH (Sitta carolinensis)","ispublic":1,"isfriend":0,"isfamily":0},{"id":"52668184905","owner":"44034115@N08","secret":"4569e3c865","server":"65535","farm":66,"title":"White-breasted Nuthatch Between Two Limbs","ispublic":1,"isfriend":0,"isfamily":0},{"id":"52667360619","owner":"52048986@N05","secret":"d1255042dd","server":"65535","farm":66,"title":"A7401720","ispublic":1,"isfriend":0,"isfamily":0}]},"stat":"ok"}