{"photos":{"page":1,"pages":99,"perpage":100,"total":9888,"photo":[{"id":"52724446115","owner":"143326780@N02","secret":"e5249252d1","server":"65535","farm":66,"title":"DSCN5919","ispublic":1,"isfriend":0,"isfamily":0},{"id":"52724445955","owner":"143326780@N02","secret":"07737541cf","server":"65535","farm":66,"title":"DSCN5923","ispublic":1,"isfriend":0,"isfamily":0},{"id":"52723515752","owner":"143326780@N02","secret":"4ed2698ab4","server":"65535","farm":66,"title":"DSCN5924","ispublic":1,"isfriend":0,"isfamily":0},{"id":"52724295174","owner":"143326780@N02","secret":"d559771053","server":"65535","farm":66,"title":"DSCN5929","ispublic":1,"isfriend":0,"isfamily":0},{"id":"52724295089","owner":"143326780@N02","secret":"134804f76f","server":"65535","farm":66,"title":"DSCN5932","ispublic":1,"isfriend":0,"isfamily":0},{"id":"52718288444","owner":"47020313@N08","secret":"ef79308ab4","server":"65535","farm":66,"title":"Wild Turkey IMG_9110edtsg","ispublic":1,"isfriend":0,"isfamily":0},{"id":"52717318124","owner":"123597211@N03","secret":"affce437fc","server":"65535","farm":66,"title":"Bronzepute (Meleagris gallopavo f. domestica)","ispublic":1,"isfriend":0,"isfamily":0},{"id":"52717483005","owner":"123597211@N03","secret":"efd7ebff4f","server":"65535","farm":66,"title":"Bronzepute (Meleagris gallopavo f. domestica)","ispublic":1,"isfriend":0,"isfamily":0},{"id":"52717051901","owner":"123597211@N03","secret":"2f872a63f4","server":"65535","farm":66,"title":"Bronzepute (Meleagris gallopavo f. domestica)","ispublic":1,"isfriend":0,"isfamily":0},{"id":"52716532007","owner":"123597211@N03","secret":"33a96749b5","server":"65535","farm":66,"title":"Bronzepute (Meleagris gallopavo f. domestica)","ispublic":1,"isfriend":0,"isfamily":0},{"id":"52716531452","owner":"123597211@N03","secret":"53b498b064","server":"65535","farm":66,"title":"Bronzepute (Meleagris gallopavo f. domestica)","ispublic":1,"isfriend":0,"isfamily":0},{"id":"52717315594","owner":"123597211@N03","secret":"56271a308b","server":"65535","farm":66,"title":"Bronzepute (Meleagris gallopavo f. domestica)","ispublic":1,"isfriend":0,"isfamily":0},{"id":"52717537913","owner":"123597211@N03","secret":"06f6b9335b","server":"65535","farm":66,"title":"Bronzepute (Meleagris gallopavo f. domestica)","ispublic":1,"isfriend":0,"isfamily":0},{"id":"52713484294","owner":"142605906@N06","secret":"fe47fe704c","server":"0","farm":0,"title":"Wild Turkey Encounter on a Winters Afternoon","ispublic":1,"isfriend":0,"isfamily":0},{"id":"52710456055","owner":"98104727@N00","secret":"1f0d64bb51","server":"65535","farm":66,"title":"Posing","ispublic":1,"isfriend":0,"isfamily":0},{"id":"52709341459","owner":"197628215@N07","secret":"a27f4a103a","server":"65535","farm":66,"title":"Wild Turkey (Meleagris gallopavo)  02\/07\/2023 #wildturkey #turkey #bestbackroad #bestbackroads #natgeoyourshots #natgeo100contest #natgeo #rutlandcountyvt #washingtoncountyny #whitehallny #wildphotography #naturephotography #adventurephotography #wildlife","ispublic":1,"isfriend":0,"isfamily":0},{"id":"52709149273","owner":"143326780@N02","secret":"06b90aa79c","server":"65535","farm":66,"title":"DSCN5309","ispublic":1,"isfriend":0,"isfamily":0},{"id":"52708139632","owner":"143326780@N02","secret":"d66f2a1126","server":"65535","farm":66,"title":"DSCN5310","ispublic":1,"isfriend":0,"isfamily":0},{"id":"52708919914","owner":"143326780@N02","secret":"9507883fcd","server":"65535","farm":66,"title":"DSCN5311","ispublic":1,"isfriend":0,"isfamily":0},{"id":"52708662021","owner":"143326780@N02","secret":"94364bf0d4","server":"65535","farm":66,"title":"DSCN5312","ispublic":1,"isfriend":0,"isfamily":0},{"id":"52708661871","owner":"143326780@N02","secret":"2a8dc637b2","server":"65535","farm":66,"title":"DSCN5316","ispublic":1,"isfriend":0,"isfamily":0},{"id":"52709075805","owner":"143326780@N02","secret":"cf79954cc5","server":"65535","farm":66,"title":"DSCN5317","ispublic":1,"isfriend":0,"isfamily":0},{"id":"52709075465","owner":"143326780@N02","secret":"1f85ed55e1","server":"65535","farm":66,"title":"DSCN5322","ispublic":1,"isfriend":0,"isfamily":0},{"id":"52705092702","owner":"33610210@N05","secret":"e0c5c8805d","server":"65535","farm":66,"title":"Rio Grande Wild Turkey, Meleagris gallopavo intermedia","ispublic":1,"isfriend":0,"isfamily":0},{"id":"52705813515","owner":"44756587@N03","secret":"f7fab2069b","server":"65535","farm":66,"title":"Rio Grande Wild Turkey","ispublic":1,"isfriend":0,"isfamily":0},{"id":"52705650059","owner":"44756587@N03","secret":"f6d1ca3358","server":"65535","farm":66,"title":"Rio Grande Wild Turkey","ispublic":1,"isfriend":0,"isfamily":0},{"id":"52705569964","owner":"197628215@N07","secret":"a8491dacc1","server":"65535","farm":66,"title":"Wild Turkey (Meleagris gallopavo)  02\/07\/2023 #wildturkey #turkey #bestbackroad #bestbackroads #natgeoyourshots #natgeo100contest #natgeo #rutlandcountyvt #washingtoncountyny #whitehallny #wildphotography #naturephotography #adventurephotography #wildlife","ispublic":1,"isfriend":0,"isfamily":0},{"id":"52705804743","owner":"197628215@N07","secret":"3b0986aec4","server":"65535","farm":66,"title":"Wild Turkey (Meleagris gallopavo)  02\/06\/2023 #wildturkey #turkey #bestbackroad #bestbackroads #natgeoyourshots #natgeo100contest #natgeo #rutlandcountyvt #washingtoncountyny #whitehallny #wildphotography #naturephotography #adventurephotography #wildlife","ispublic":1,"isfriend":0,"isfamily":0},{"id":"52703643657","owner":"76782619@N04","secret":"793187d762","server":"65535","farm":66,"title":"Two-headed Four-legged Turkey","ispublic":1,"isfriend":0,"isfamily":0},{"id":"52698983936","owner":"143326780@N02","secret":"9299ee2db2","server":"65535","farm":66,"title":"DSCN5016","ispublic":1,"isfriend":0,"isfamily":0},{"id":"52699401805","owner":"143326780@N02","secret":"1e7ac05a8b","server":"65535","farm":66,"title":"DSCN5020","ispublic":1,"isfriend":0,"isfamily":0},{"id":"52698983656","owner":"143326780@N02","secret":"e99bc28a9c","server":"65535","farm":66,"title":"DSCN5035","ispublic":1,"isfriend":0,"isfamily":0},{"id":"52699399760","owner":"143326780@N02","secret":"937ca0acd9","server":"65535","farm":66,"title":"DSCN5078","ispublic":1,"isfriend":0,"isfamily":0},{"id":"52694741492","owner":"142605906@N06","secret":"eea8a38289","server":"65535","farm":66,"title":"Pretty Boy","ispublic":1,"isfriend":0,"isfamily":0},{"id":"52694822555","owner":"45340210@N05","secret":"1327675717","server":"65535","farm":66,"title":"Wild Turkeys 2_15_23","ispublic":1,"isfriend":0,"isfamily":0},{"id":"52693515881","owner":"7420909@N08","secret":"a7eca637a6","server":"65535","farm":66,"title":"The Flock","ispublic":1,"isfriend":0,"isfamily":0},{"id":"52692997547","owner":"7420909@N08","secret":"d4a258fe2e","server":"65535","farm":66,"title":"The Flock","ispublic":1,"isfriend":0,"isfamily":0},{"id":"52693925460","owner":"7420909@N08","secret":"279349a9d2","server":"65535","farm":66,"title":"The Flock","ispublic":1,"isfriend":0,"isfamily":0},{"id":"52692997042","owner":"7420909@N08","secret":"500843d69e","server":"65535","farm":66,"title":"The Flock","ispublic":1,"isfriend":0,"isfamily":0},{"id":"52692563855","owner":"168495655@N07","secret":"06522086b4","server":"65535","farm":66,"title":"Dindon sauvage - Meleagris gallopavo - Wild Turkey","ispublic":1,"isfriend":0,"isfamily":0},{"id":"52692563455","owner":"168495655@N07","secret":"e71b2468eb","server":"65535","farm":66,"title":"Dindon sauvage - Meleagris gallopavo - Wild Turkey","ispublic":1,"isfriend":0,"isfamily":0},{"id":"52689387697","owner":"33610210@N05","secret":"88a4d119be","server":"65535","farm":66,"title":"Rio Grande Wild Turkey, Gallopavo meleagris intermedia","ispublic":1,"isfriend":0,"isfamily":0},{"id":"52688370985","owner":"62043870@N05","secret":"54a7b3f72f","server":"65535","farm":66,"title":"Wild Turkey, Meleagris gallopavo","ispublic":1,"isfriend":0,"isfamily":0},{"id":"52686769657","owner":"76617062@N08","secret":"04bcd52563","server":"65535","farm":66,"title":"1.01478 Dindon sauvage \/ Meleagris gallopavo silvestris \/ Wild Turkey","ispublic":1,"isfriend":0,"isfamily":0},{"id":"52687234630","owner":"188352054@N08","secret":"f7ab16d912","server":"65535","farm":66,"title":"IMG_7608","ispublic":1,"isfriend":0,"isfamily":0},{"id":"52685856463","owner":"48014585@N00","secret":"219382339b","server":"65535","farm":66,"title":"Wild Turkey","ispublic":1,"isfriend":0,"isfamily":0},{"id":"52683428053","owner":"146153230@N08","secret":"d643632634","server":"65535","farm":66,"title":"Wild Turkey \/ Dindon Sauvage (Meleagris gallopavo)","ispublic":1,"isfriend":0,"isfamily":0},{"id":"52682041397","owner":"90355165@N03","secret":"0386943d28","server":"65535","farm":66,"title":"Narragansett turkey","ispublic":1,"isfriend":0,"isfamily":0},{"id":"52682987350","owner":"90355165@N03","secret":"c340783223","server":"65535","farm":66,"title":"Narragansett turkey","ispublic":1,"isfriend":0,"isfamily":0},{"id":"52679041722","owner":"142605906@N06","secret":"121c10044c","server":"65535","farm":66,"title":"Displaying Tom","ispublic":1,"isfriend":0,"isfamily":0},{"id":"52677745426","owner":"33610210@N05","secret":"9aa5b311f0","server":"65535","farm":66,"title":"Rio Grande Wild Turkey, Meleagris gallopavo intermedia","ispublic":1,"isfriend":0,"isfamily":0},{"id":"52677234877","owner":"33610210@N05","secret":"8331909f34","server":"65535","farm":66,"title":"Rio Grande Wild Turkey, Meleagris gallopavo intermedia","ispublic":1,"isfriend":0,"isfamily":0},{"id":"52673909178","owner":"169771858@N03","secret":"4977bdafc5","server":"65535","farm":66,"title":"Wild Turkey #2 - 2021-05-01","ispublic":1,"isfriend":0,"isfamily":0},{"id":"52670937357","owner":"197628215@N07","secret":"8e86f324ba","server":"65535","farm":66,"title":"Wild Turkey (Meleagris gallopavo)  01\/26\/2023 #turkey #wildturkey #bestbackroad #bestbackroads #natgeoyourshots #natgeo100contest #rutlandcountyvermont #rutlandcountyvt #washingtoncountynewyork #washingtoncountyny #whitehallnewyork #wildphotography #natur","ispublic":1,"isfriend":0,"isfamily":0},{"id":"52667428944","owner":"39177293@N03","secret":"b6ca08afd9","server":"65535","farm":66,"title":"Wild Turkey","ispublic":1,"isfriend":0,"isfamily":0},{"id":"52663772654","owner":"193035499@N04","secret":"da44fa52c9","server":"65535","farm":66,"title":"Wild Turkeys","ispublic":1,"isfriend":0,"isfamily":0},{"id":"52662765047","owner":"196127020@N02","secret":"fee27e232a","server":"65535","farm":66,"title":"Wild Turkey","ispublic":1,"isfriend":0,"isfamily":0},{"id":"52663547529","owner":"196127020@N02","secret":"f1df24f20d","server":"65535","farm":66,"title":"Wild Turkey","ispublic":1,"isfriend":0,"isfamily":0},{"id":"52663700645","owner":"196127020@N02","secret":"5286e208a8","server":"65535","farm":66,"title":"Wild Turkey","ispublic":1,"isfriend":0,"isfamily":0},{"id":"52662369915","owner":"33610210@N05","secret":"75902bc0af","server":"65535","farm":66,"title":"Rio Grande Wild Turkey, Meleagris gallopavo intermedia","ispublic":1,"isfriend":0,"isfamily":0},{"id":"52662212729","owner":"33610210@N05","secret":"f162510117","server":"65535","farm":66,"title":"Rio Grande Wild Turkey, Meleagris gallopavo intermedia","ispublic":1,"isfriend":0,"isfamily":0},{"id":"52660590875","owner":"62043870@N05","secret":"9f15c5f0fb","server":"65535","farm":66,"title":"Wild Turkey, Meleagris gallopavo","ispublic":1,"isfriend":0,"isfamily":0},{"id":"52651420046","owner":"65148649@N04","secret":"982dd3d563","server":"65535","farm":66,"title":"Wild Turkeys 01.14.23 Zaun","ispublic":1,"isfriend":0,"isfamily":0},{"id":"52650929137","owner":"65148649@N04","secret":"c23489747d","server":"65535","farm":66,"title":"Wild Turkey 01.14.23 Zaun","ispublic":1,"isfriend":0,"isfamily":0},{"id":"52650929097","owner":"65148649@N04","secret":"410cba78c9","server":"65535","farm":66,"title":"Wild Turkeys 3 01.14.23 Anderson","ispublic":1,"isfriend":0,"isfamily":0},{"id":"52651693384","owner":"65148649@N04","secret":"b1c33f01ed","server":"65535","farm":66,"title":"Wild Turkeys 2 01.14.23 Anderson","ispublic":1,"isfriend":0,"isfamily":0},{"id":"52651862880","owner":"65148649@N04","secret":"d9c53d0e3c","server":"65535","farm":66,"title":"Wild Turkeys 01.14.23 Anderson_edited","ispublic":1,"isfriend":0,"isfamily":0},{"id":"52651257686","owner":"142605906@N06","secret":"a15eb41fe1","server":"65535","farm":66,"title":"Nap Time","ispublic":1,"isfriend":0,"isfamily":0},{"id":"52650022599","owner":"123597211@N03","secret":"c4969e4d9c","server":"65535","farm":66,"title":"Cr\u00f6llwitzer Pute (Meleagris gallopavo f. domestica)","ispublic":1,"isfriend":0,"isfamily":0},{"id":"52650022359","owner":"123597211@N03","secret":"df3a2f1db8","server":"65535","farm":66,"title":"Cr\u00f6llwitzer Pute (Meleagris gallopavo f. domestica)","ispublic":1,"isfriend":0,"isfamily":0},{"id":"52650022189","owner":"123597211@N03","secret":"7d59487f84","server":"65535","farm":66,"title":"Cr\u00f6llwitzer Pute (Meleagris gallopavo f. domestica)","ispublic":1,"isfriend":0,"isfamily":0},{"id":"52649752476","owner":"123597211@N03","secret":"00d4f51631","server":"65535","farm":66,"title":"Cr\u00f6llwitzer Pute (Meleagris gallopavo f. domestica)","ispublic":1,"isfriend":0,"isfamily":0},{"id":"52650231303","owner":"123597211@N03","secret":"4bb4c7a18c","server":"65535","farm":66,"title":"Cr\u00f6llwitzer Pute (Meleagris gallopavo f. domestica)","ispublic":1,"isfriend":0,"isfamily":0},{"id":"52650194595","owner":"123597211@N03","secret":"f60033b215","server":"65535","farm":66,"title":"Cr\u00f6llwitzer Pute (Meleagris gallopavo f. domestica)","ispublic":1,"isfriend":0,"isfamily":0},{"id":"52650194105","owner":"123597211@N03","secret":"756e73720c","server":"65535","farm":66,"title":"Cr\u00f6llwitzer Pute (Meleagris gallopavo f. domestica)","ispublic":1,"isfriend":0,"isfamily":0},{"id":"52650229998","owner":"123597211@N03","secret":"d53841b70c","server":"65535","farm":66,"title":"Cr\u00f6llwitzer Pute (Meleagris gallopavo f. domestica)","ispublic":1,"isfriend":0,"isfamily":0},{"id":"52650229863","owner":"123597211@N03","secret":"51573bc3c4","server":"65535","farm":66,"title":"Cr\u00f6llwitzer Pute (Meleagris gallopavo f. domestica)","ispublic":1,"isfriend":0,"isfamily":0},{"id":"52649750676","owner":"123597211@N03","secret":"06b393ef5a","server":"65535","farm":66,"title":"Cr\u00f6llwitzer Pute (Meleagris gallopavo f. domestica)","ispublic":1,"isfriend":0,"isfamily":0},{"id":"52649750536","owner":"123597211@N03","secret":"1572b6d955","server":"65535","farm":66,"title":"Cr\u00f6llwitzer Pute (Meleagris gallopavo f. domestica)","ispublic":1,"isfriend":0,"isfamily":0},{"id":"52650192880","owner":"123597211@N03","secret":"31482fac04","server":"65535","farm":66,"title":"Cr\u00f6llwitzer Pute (Meleagris gallopavo f. domestica)","ispublic":1,"isfriend":0,"isfamily":0},{"id":"52650019319","owner":"123597211@N03","secret":"1937844ccd","server":"65535","farm":66,"title":"Cr\u00f6llwitzer Pute (Meleagris gallopavo f. domestica)","ispublic":1,"isfriend":0,"isfamily":0},{"id":"52649255047","owner":"123597211@N03","secret":"3b3ba78673","server":"65535","farm":66,"title":"Cr\u00f6llwitzer Pute (Meleagris gallopavo f. domestica)","ispublic":1,"isfriend":0,"isfamily":0},{"id":"52650228303","owner":"123597211@N03","secret":"d394e4a09c","server":"65535","farm":66,"title":"Cr\u00f6llwitzer Pute (Meleagris gallopavo f. domestica)","ispublic":1,"isfriend":0,"isfamily":0},{"id":"52650018609","owner":"123597211@N03","secret":"93ea9dce98","server":"65535","farm":66,"title":"Cr\u00f6llwitzer Pute (Meleagris gallopavo f. domestica)","ispublic":1,"isfriend":0,"isfamily":0},{"id":"52711337219","owner":"197628215@N07","secret":"1995fbcb56","server":"65535","farm":66,"title":"Wild Turkey (Meleagris gallopavo)  02\/07\/2023 #wildturkey #turkey #bestbackroad #bestbackroads #natgeoyourshots #natgeo100contest #natgeo #rutlandcountyvt #washingtoncountyny #whitehallny #wildphotography #naturephotography #adventurephotography #wildlife","ispublic":1,"isfriend":0,"isfamily":0},{"id":"52699401760","owner":"143326780@N02","secret":"3ed1fe2f5d","server":"65535","farm":66,"title":"DSCN5021","ispublic":1,"isfriend":0,"isfamily":0},{"id":"52699400020","owner":"143326780@N02","secret":"8143c21d4a","server":"65535","farm":66,"title":"DSCN5076","ispublic":1,"isfriend":0,"isfamily":0},{"id":"52698981956","owner":"143326780@N02","secret":"bd861e1318","server":"65535","farm":66,"title":"DSCN5077","ispublic":1,"isfriend":0,"isfamily":0},{"id":"52698975726","owner":"143326780@N02","secret":"f77b10163d","server":"65535","farm":66,"title":"DSCN5174","ispublic":1,"isfriend":0,"isfamily":0},{"id":"52699236159","owner":"143326780@N02","secret":"5438815e1f","server":"65535","farm":66,"title":"DSCN5036","ispublic":1,"isfriend":0,"isfamily":0},{"id":"52699467268","owner":"143326780@N02","secret":"39d1e588a6","server":"65535","farm":66,"title":"DSCN5044","ispublic":1,"isfriend":0,"isfamily":0},{"id":"52697139375","owner":"197628215@N07","secret":"c429424501","server":"65535","farm":66,"title":"Wild Turkey (Meleagris gallopavo)  02\/06\/2023 #wildturkey #turkey #bestbackroad #bestbackroads #natgeoyourshots #natgeo100contest #natgeo #rutlandcountyvt #washingtoncountyny #whitehallny #wildphotography #naturephotography #adventurephotography #wildlife","ispublic":1,"isfriend":0,"isfamily":0},{"id":"52684817931","owner":"197628215@N07","secret":"5325ecc607","server":"65535","farm":66,"title":"Wild Turkey (Meleagris gallopavo)  02\/01\/2023 - 02\/02\/2023 #wildturkey #turkey #gallopavo #bestbackroad #bestbackroads #natgeoyourshots #natgeo100contest #rutlandcountyvermont #rutlandcountyvt #washingtoncountynewyork #washingtoncountyny #whitehallnewyork","ispublic":1,"isfriend":0,"isfamily":0},{"id":"52651903143","owner":"65148649@N04","secret":"8594583c10","server":"65535","farm":66,"title":"Wild Turkeys 01.14.23 Baryames","ispublic":1,"isfriend":0,"isfamily":0},{"id":"52649752131","owner":"123597211@N03","secret":"40f7e53c0b","server":"65535","farm":66,"title":"Cr\u00f6llwitzer Pute (Meleagris gallopavo f. domestica)","ispublic":1,"isfriend":0,"isfamily":0},{"id":"52650193875","owner":"123597211@N03","secret":"fc839b1ec6","server":"65535","farm":66,"title":"Cr\u00f6llwitzer Pute (Meleagris gallopavo f. domestica)","ispublic":1,"isfriend":0,"isfamily":0},{"id":"52649750201","owner":"123597211@N03","secret":"da6724923c","server":"65535","farm":66,"title":"Cr\u00f6llwitzer Pute (Meleagris gallopavo f. domestica)","ispublic":1,"isfriend":0,"isfamily":0},{"id":"52650192590","owner":"123597211@N03","secret":"3f3da01001","server":"65535","farm":66,"title":"Cr\u00f6llwitzer Pute (Meleagris gallopavo f. domestica)","ispublic":1,"isfriend":0,"isfamily":0},{"id":"52650019224","owner":"123597211@N03","secret":"00277deb11","server":"65535","farm":66,"title":"Cr\u00f6llwitzer Pute (Meleagris gallopavo f. domestica)","ispublic":1,"isfriend":0,"isfamily":0},{"id":"52650228108","owner":"123597211@N03","secret":"033480b844","server":"65535","farm":66,"title":"Cr\u00f6llwitzer Pute (Meleagris gallopavo f. domestica)","ispublic":1,"isfriend":0,"isfamily":0}]},"stat":"ok"}