{"photos":{"page":1,"pages":28,"perpage":100,"total":2706,"photo":[{"id":"52711313062","owner":"155018023@N05","secret":"e9c0948d1a","server":"65535","farm":66,"title":"Falaropo","ispublic":1,"isfriend":0,"isfamily":0},{"id":"52652678501","owner":"195179412@N07","secret":"d3d49b13b2","server":"65535","farm":66,"title":"POLLLITO DE MAR TRICOLOR, Phalaropus tricolor","ispublic":1,"isfriend":0,"isfamily":0},{"id":"52640171041","owner":"106859390@N03","secret":"49616e0c70","server":"65535","farm":66,"title":"Pollito de mar tricolor, Wilson's Phalarope, Phalaropus tricolor","ispublic":1,"isfriend":0,"isfamily":0},{"id":"52632847174","owner":"191213614@N06","secret":"bc5ea9b0ed","server":"65535","farm":66,"title":"Falaropo com\u00fan.    Wilson's phalarope.    -Steganopus (Phalaropus) tricolor-","ispublic":1,"isfriend":0,"isfamily":0},{"id":"52622965811","owner":"129553350@N02","secret":"78d4eae663","server":"65535","farm":66,"title":"Wilson's Phalarope","ispublic":1,"isfriend":0,"isfamily":0},{"id":"52599953651","owner":"127345113@N04","secret":"e180dd1f4e","server":"65535","farm":66,"title":"falaropo - Phalaropus tricolor (Wilson\u00a8s phalarope","ispublic":1,"isfriend":0,"isfamily":0},{"id":"52582634449","owner":"124995824@N08","secret":"874f5af2fc","server":"65535","farm":66,"title":"Wilson's Phalarope - Phalaropus tricolor","ispublic":1,"isfriend":0,"isfamily":0},{"id":"52574276207","owner":"23020855@N03","secret":"18780ae7ac","server":"65535","farm":66,"title":"Wilson's Phalarope - Reifel Bird Sanctuary, BC","ispublic":1,"isfriend":0,"isfamily":0},{"id":"52535098384","owner":"33610210@N05","secret":"51150bdf84","server":"65535","farm":66,"title":"Phalaropus tricolor, Wilson's Phalarope","ispublic":1,"isfriend":0,"isfamily":0},{"id":"52512799421","owner":"48014585@N00","secret":"70a0a00f12","server":"65535","farm":66,"title":"Wilson's Phalarope","ispublic":1,"isfriend":0,"isfamily":0},{"id":"52512203682","owner":"48014585@N00","secret":"4d804b9528","server":"65535","farm":66,"title":"Wilson's Phalarope","ispublic":1,"isfriend":0,"isfamily":0},{"id":"52512203587","owner":"48014585@N00","secret":"67259d81b7","server":"65535","farm":66,"title":"Wilson's Phalarope","ispublic":1,"isfriend":0,"isfamily":0},{"id":"52512677066","owner":"48014585@N00","secret":"8c73a196e0","server":"65535","farm":66,"title":"Wilson's Phalarope","ispublic":1,"isfriend":0,"isfamily":0},{"id":"52512203387","owner":"48014585@N00","secret":"be78ee388d","server":"65535","farm":66,"title":"Wilson's Phalarope","ispublic":1,"isfriend":0,"isfamily":0},{"id":"52502236412","owner":"127345113@N04","secret":"64e9fe521f","server":"65535","farm":66,"title":"Falaropo - Phalaropus tricolor - ( Wilson\u00b4s phalarope)","ispublic":1,"isfriend":0,"isfamily":0},{"id":"52499790641","owner":"190923251@N05","secret":"de4512069c","server":"65535","farm":66,"title":"Chilean Flamingo (and Wilson's Phalarope)","ispublic":1,"isfriend":0,"isfamily":0},{"id":"52499547043","owner":"127345113@N04","secret":"5886e8f24e","server":"65535","farm":66,"title":"Falaropo - Phalaropus tricolor (Wilson^s Phalarope","ispublic":1,"isfriend":0,"isfamily":0},{"id":"52499273764","owner":"127345113@N04","secret":"dfb7ce5ddc","server":"65535","farm":66,"title":"Falaropo - Phalaropus tricolor (Wilson^s Phalarope","ispublic":1,"isfriend":0,"isfamily":0},{"id":"52499468255","owner":"127345113@N04","secret":"251b4a47e6","server":"65535","farm":66,"title":"Falaropo - Phalaropus tricolor (Wilson^s Phalarope","ispublic":1,"isfriend":0,"isfamily":0},{"id":"52497901735","owner":"62017291@N03","secret":"af2c45af34","server":"65535","farm":66,"title":"Falaropo Com\u00fan (Phalaropus tricolor)","ispublic":1,"isfriend":0,"isfamily":0},{"id":"52485949916","owner":"20127130@N02","secret":"838f44e7c1","server":"65535","farm":66,"title":"Chilean Flamingos","ispublic":1,"isfriend":0,"isfamily":0},{"id":"52476069320","owner":"71833159@N00","secret":"f40491462b","server":"65535","farm":66,"title":"Wilson's Phalarope \/ Phalaropus tricolor, female","ispublic":1,"isfriend":0,"isfamily":0},{"id":"52491032721","owner":"195656112@N04","secret":"0179293453","server":"65535","farm":66,"title":"Wilson's Phalarope, Charadriiformes","ispublic":1,"isfriend":0,"isfamily":0},{"id":"52491032486","owner":"195656112@N04","secret":"4a62fe8d9a","server":"65535","farm":66,"title":"Wilson's Phalarope, Charadriiformes","ispublic":1,"isfriend":0,"isfamily":0},{"id":"52491585713","owner":"195656112@N04","secret":"7fa737a3de","server":"65535","farm":66,"title":"Wilson's Phalarope, Charadriiformes","ispublic":1,"isfriend":0,"isfamily":0},{"id":"52442363512","owner":"190923251@N05","secret":"4e9eb32865","server":"65535","farm":66,"title":"Wilson's Phalarope female in rain","ispublic":1,"isfriend":0,"isfamily":0},{"id":"52438570160","owner":"191213614@N06","secret":"3e362bf0fb","server":"65535","farm":66,"title":"Falaropo com\u00fan.     -Phalaropus tricolor-","ispublic":1,"isfriend":0,"isfamily":0},{"id":"52435718548","owner":"126210667@N05","secret":"42b32b67d9","server":"65535","farm":66,"title":"RDB05019","ispublic":1,"isfriend":0,"isfamily":0},{"id":"52429663389","owner":"36611483@N03","secret":"b24c0b69a0","server":"65535","farm":66,"title":"Three American Waders","ispublic":1,"isfriend":0,"isfamily":0},{"id":"52423485122","owner":"28631427@N00","secret":"14028718eb","server":"65535","farm":66,"title":"Red-necked Phalaropes and Wilson\u2019s Phalarope 1","ispublic":1,"isfriend":0,"isfamily":0},{"id":"52416885405","owner":"32320154@N05","secret":"fb374b392a","server":"65535","farm":66,"title":"Wilson's Phalarope","ispublic":1,"isfriend":0,"isfamily":0},{"id":"52426322190","owner":"195656112@N04","secret":"3e3005ea81","server":"65535","farm":66,"title":"Wilson's Phalarope, Charadriiformes","ispublic":1,"isfriend":0,"isfamily":0},{"id":"52396622945","owner":"36611483@N03","secret":"8b6eb9ea63","server":"65535","farm":66,"title":"Wilson's Phalarope","ispublic":1,"isfriend":0,"isfamily":0},{"id":"52390614098","owner":"34238008@N02","secret":"9110cd18f1","server":"65535","farm":66,"title":"Wilson's Phalarope (Phalaropus tricolor)","ispublic":1,"isfriend":0,"isfamily":0},{"id":"52386504721","owner":"34368269@N04","secret":"8c533658b9","server":"65535","farm":66,"title":"Wilson's Phalaropes","ispublic":1,"isfriend":0,"isfamily":0},{"id":"52386818475","owner":"51986662@N05","secret":"f18046a048","server":"65535","farm":66,"title":"Wilson's Phalarope in a Pond Lake Andes Wetland Management District South Dakota","ispublic":1,"isfriend":0,"isfamily":0},{"id":"52383737435","owner":"124995824@N08","secret":"b174761529","server":"65535","farm":66,"title":"Wilson's Phalarope - Phalaropus tricolor","ispublic":1,"isfriend":0,"isfamily":0},{"id":"52380562723","owner":"124995824@N08","secret":"07b1478a52","server":"65535","farm":66,"title":"Phalarope & Sandpiper","ispublic":1,"isfriend":0,"isfamily":0},{"id":"52378926610","owner":"51986662@N05","secret":"8cc63abb76","server":"65535","farm":66,"title":"Wilson's Phalarope Lake Andes Wetland Managemetn District South Dakota.","ispublic":1,"isfriend":0,"isfamily":0},{"id":"52378276646","owner":"124995824@N08","secret":"f526b45779","server":"65535","farm":66,"title":"Wilson's Phalarope - Phalaropus tricolor","ispublic":1,"isfriend":0,"isfamily":0},{"id":"52358905586","owner":"103722035@N06","secret":"de026ec756","server":"65535","farm":66,"title":"Wilson's Phalarope (Phalaropus tricolor), Estero Bluffs State Park, Cayucos, CA","ispublic":1,"isfriend":0,"isfamily":0},{"id":"52359215474","owner":"103722035@N06","secret":"463bf52f92","server":"65535","farm":66,"title":"Wilson's Phalarope (Phalaropus tricolor), Estero Bluffs State Park, Cayucos, CA","ispublic":1,"isfriend":0,"isfamily":0},{"id":"52359137963","owner":"103722035@N06","secret":"e479cc12d5","server":"65535","farm":66,"title":"Wilson's Phalarope (Phalaropus tricolor), Estero Bluffs State Park, Cayucos, CA","ispublic":1,"isfriend":0,"isfamily":0},{"id":"52358905481","owner":"103722035@N06","secret":"7125935c91","server":"65535","farm":66,"title":"Wilson's Phalarope (Phalaropus tricolor), Estero Bluffs State Park, Cayucos, CA","ispublic":1,"isfriend":0,"isfamily":0},{"id":"52359324415","owner":"103722035@N06","secret":"8c0a0ed5f3","server":"65535","farm":66,"title":"Wilson's Phalarope (Phalaropus tricolor) & Red-necked Phalarope (Phalaropus lobatus), Estero Bluffs State Park, Cayucos, CA","ispublic":1,"isfriend":0,"isfamily":0},{"id":"52358905411","owner":"103722035@N06","secret":"9f7954c828","server":"65535","farm":66,"title":"Wilson's Phalarope (Phalaropus tricolor) & Red-necked Phalarope (Phalaropus lobatus), Estero Bluffs State Park, Cayucos, CA","ispublic":1,"isfriend":0,"isfamily":0},{"id":"52359054235","owner":"103722035@N06","secret":"f57d8b910d","server":"0","farm":0,"title":"Wilson's Phalarope (Phalaropus tricolor) & Red-necked Phalarope (Phalaropus lobatus), Estero Bluffs State Park, Cayucos, CA","ispublic":1,"isfriend":0,"isfamily":0},{"id":"52342122420","owner":"67677583@N00","secret":"fecaf8d7dc","server":"65535","farm":66,"title":"Pollito de mar tricolor (Phalaropus tricolor)","ispublic":1,"isfriend":0,"isfamily":0},{"id":"52337466816","owner":"85277889@N08","secret":"949cbb0844","server":"65535","farm":66,"title":"Wilson's Phalarope (Phalaropus tricolor) 2022-09-05 (9a)","ispublic":1,"isfriend":0,"isfamily":0},{"id":"52336510027","owner":"85277889@N08","secret":"4ac797de9f","server":"65535","farm":66,"title":"Wilson's Phalarope (Phalaropus tricolor) 2022-09-05 (5a)","ispublic":1,"isfriend":0,"isfamily":0},{"id":"52332274044","owner":"34238008@N02","secret":"f96c307a87","server":"65535","farm":66,"title":"Wilson's Phalarope (Phalaropus tricolor)","ispublic":1,"isfriend":0,"isfamily":0},{"id":"52332403835","owner":"34238008@N02","secret":"8495c3066a","server":"65535","farm":66,"title":"Wilson's Phalarope (Phalaropus tricolor)","ispublic":1,"isfriend":0,"isfamily":0},{"id":"52324090101","owner":"119787485@N07","secret":"b5a8021f42","server":"65535","farm":66,"title":"Wilson's Phalarope (Phalaropus tricolor) - 20220611-02","ispublic":1,"isfriend":0,"isfamily":0},{"id":"52303227690","owner":"103722035@N06","secret":"ebc21d4f4b","server":"0","farm":0,"title":"Wilson's Phalarope (Phalaropus tricolor), Atascadero, CA","ispublic":1,"isfriend":0,"isfamily":0},{"id":"52270705291","owner":"168495655@N07","secret":"65c27f6573","server":"65535","farm":66,"title":"Phalarope de Wilson - Phalaropus tricolor - Wilson's Phalarope","ispublic":1,"isfriend":0,"isfamily":0},{"id":"52268209739","owner":"34368269@N04","secret":"2a3d363924","server":"65535","farm":66,"title":"Wilson's Phalarope","ispublic":1,"isfriend":0,"isfamily":0},{"id":"52212868747","owner":"24608578@N00","secret":"7a4a7caafd","server":"65535","farm":66,"title":"Wilson's phalarope (Phalaropus tricolor)","ispublic":1,"isfriend":0,"isfamily":0},{"id":"52213876666","owner":"24608578@N00","secret":"4d32bb4fee","server":"65535","farm":66,"title":"Wilson's phalarope (Phalaropus tricolor)","ispublic":1,"isfriend":0,"isfamily":0},{"id":"52212868612","owner":"24608578@N00","secret":"5a80f30491","server":"65535","farm":66,"title":"Wilson's phalarope (Phalaropus tricolor)","ispublic":1,"isfriend":0,"isfamily":0},{"id":"52212868492","owner":"24608578@N00","secret":"e78292e75e","server":"65535","farm":66,"title":"Wilson's phalarope (Phalaropus tricolor)","ispublic":1,"isfriend":0,"isfamily":0},{"id":"52213890028","owner":"24608578@N00","secret":"d7a209270e","server":"65535","farm":66,"title":"Wilson's phalaropes (Phalaropus tricolor)","ispublic":1,"isfriend":0,"isfamily":0},{"id":"52208999201","owner":"24608578@N00","secret":"eb57ff6fd0","server":"65535","farm":66,"title":"Wilson's phalarope (Phalaropus tricolor)","ispublic":1,"isfriend":0,"isfamily":0},{"id":"52208999131","owner":"24608578@N00","secret":"b25ee7e9a1","server":"65535","farm":66,"title":"Wilson's phalarope (Phalaropus tricolor)","ispublic":1,"isfriend":0,"isfamily":0},{"id":"52208999041","owner":"24608578@N00","secret":"266f94ec80","server":"65535","farm":66,"title":"Wilson's phalarope (Phalaropus tricolor)","ispublic":1,"isfriend":0,"isfamily":0},{"id":"52207989012","owner":"24608578@N00","secret":"65c63807b7","server":"65535","farm":66,"title":"Wilson's phalarope (Phalaropus tricolor)","ispublic":1,"isfriend":0,"isfamily":0},{"id":"52208997016","owner":"24608578@N00","secret":"43a9af653a","server":"65535","farm":66,"title":"Wilson's phalaropes (Phalaropus tricolor)","ispublic":1,"isfriend":0,"isfamily":0},{"id":"52209015903","owner":"24608578@N00","secret":"325ec082c6","server":"65535","farm":66,"title":"Wilson's phalarope (Phalaropus tricolor)","ispublic":1,"isfriend":0,"isfamily":0},{"id":"52209262164","owner":"24608578@N00","secret":"67731c3e90","server":"65535","farm":66,"title":"Wilson's phalarope (Phalaropus tricolor)","ispublic":1,"isfriend":0,"isfamily":0},{"id":"52209484095","owner":"24608578@N00","secret":"2d8d26414d","server":"65535","farm":66,"title":"Wilson's phalarope (Phalaropus tricolor)","ispublic":1,"isfriend":0,"isfamily":0},{"id":"52209479025","owner":"24608578@N00","secret":"f7b68746b2","server":"65535","farm":66,"title":"Wilson's phalaropes (Phalaropus tricolor)","ispublic":1,"isfriend":0,"isfamily":0},{"id":"52200721444","owner":"132165466@N08","secret":"c59c803038","server":"65535","farm":66,"title":"Wilson's Snipe","ispublic":1,"isfriend":0,"isfamily":0},{"id":"52199450762","owner":"132165466@N08","secret":"c15d66de34","server":"65535","farm":66,"title":"Wilson's Snipe","ispublic":1,"isfriend":0,"isfamily":0},{"id":"52198463604","owner":"132165466@N08","secret":"53706651b8","server":"65535","farm":66,"title":"Wilson's Snipe","ispublic":1,"isfriend":0,"isfamily":0},{"id":"52193482679","owner":"24608578@N00","secret":"82dc6acc81","server":"65535","farm":66,"title":"Wilson's phalarope (Phalaropus tricolor)","ispublic":1,"isfriend":0,"isfamily":0},{"id":"52193222226","owner":"24608578@N00","secret":"9af9ffd4a5","server":"65535","farm":66,"title":"Wilson's phalarope (Phalaropus tricolor)","ispublic":1,"isfriend":0,"isfamily":0},{"id":"52193482584","owner":"24608578@N00","secret":"079dfbefcb","server":"65535","farm":66,"title":"Wilson's phalarope (Phalaropus tricolor)","ispublic":1,"isfriend":0,"isfamily":0},{"id":"52193482554","owner":"24608578@N00","secret":"65e3893d4f","server":"65535","farm":66,"title":"Wilson's phalarope (Phalaropus tricolor)","ispublic":1,"isfriend":0,"isfamily":0},{"id":"52645565244","owner":"8013969@N03","secret":"43594c6c01","server":"65535","farm":66,"title":"Phalaropus tricolor DFL btr22-1","ispublic":1,"isfriend":0,"isfamily":0},{"id":"52645748315","owner":"8013969@N03","secret":"c47588fe98","server":"65535","farm":66,"title":"Phalaropus tricolor DFL btr22-2","ispublic":1,"isfriend":0,"isfamily":0},{"id":"52645309506","owner":"8013969@N03","secret":"2ae1e0bd6a","server":"65535","farm":66,"title":"Phalaropus tricolor DFL btr22-3","ispublic":1,"isfriend":0,"isfamily":0},{"id":"52580228286","owner":"153973412@N04","secret":"7175c93ed0","server":"65535","farm":66,"title":"Wilson's Phalarope-Phalaropus tricolor, Iowa City, IA","ispublic":1,"isfriend":0,"isfamily":0},{"id":"52535098334","owner":"33610210@N05","secret":"630e8c71c7","server":"65535","farm":66,"title":"Phalaropus tricolor, Wilson's Phalarope","ispublic":1,"isfriend":0,"isfamily":0},{"id":"52530878019","owner":"33610210@N05","secret":"e9b5b1cce6","server":"65535","farm":66,"title":"American Avocet, Recurvirostra americana and Wilson's Phalarope, Phalaropus tricolor","ispublic":1,"isfriend":0,"isfamily":0},{"id":"52530594791","owner":"33610210@N05","secret":"b7bd1f38c5","server":"65535","farm":66,"title":"American Avocet, Recurvirostra americana and Wilson's Phalarope, Phalaropus tricolor","ispublic":1,"isfriend":0,"isfamily":0},{"id":"52530594816","owner":"33610210@N05","secret":"8d73112979","server":"65535","farm":66,"title":"American Avocet, Recurvirostra americana and Wilson's Phalarope, Phalaropus tricolor","ispublic":1,"isfriend":0,"isfamily":0},{"id":"52512676691","owner":"48014585@N00","secret":"8cdb023624","server":"65535","farm":66,"title":"Wilson's Phalarope","ispublic":1,"isfriend":0,"isfamily":0},{"id":"52494761712","owner":"64557331@N04","secret":"a8ab1a0687","server":"65535","farm":66,"title":"Wilson's Phalarope  - (Phalaropus tricolor)_0606021_5","ispublic":1,"isfriend":0,"isfamily":0},{"id":"52495529149","owner":"64557331@N04","secret":"2c22828493","server":"65535","farm":66,"title":"Wilson's Phalarope  - (Phalaropus tricolor)_0606021_4","ispublic":1,"isfriend":0,"isfamily":0},{"id":"52494761652","owner":"64557331@N04","secret":"541e2889da","server":"65535","farm":66,"title":"Wilson's Phalarope  - (Phalaropus tricolor)_0606021_3","ispublic":1,"isfriend":0,"isfamily":0},{"id":"52494761607","owner":"64557331@N04","secret":"02bb3b6d3e","server":"65535","farm":66,"title":"Wilson's Phalarope  - (Phalaropus tricolor)_0606021_2","ispublic":1,"isfriend":0,"isfamily":0},{"id":"52495718220","owner":"64557331@N04","secret":"91e27989ca","server":"65535","farm":66,"title":"Wilson's Phalarope  - (Phalaropus tricolor)_0606021","ispublic":1,"isfriend":0,"isfamily":0},{"id":"52381155803","owner":"169335348@N08","secret":"978f6152df","server":"65535","farm":66,"title":"Wilsons Phalarope-12","ispublic":1,"isfriend":0,"isfamily":0},{"id":"52381155773","owner":"169335348@N08","secret":"2c9bd72cd1","server":"65535","farm":66,"title":"Wilsons Phalarope-13","ispublic":1,"isfriend":0,"isfamily":0},{"id":"52349675403","owner":"144980256@N07","secret":"65a3c8c111","server":"65535","farm":66,"title":"Wilson's Phalarope Phalaropus tricolor","ispublic":1,"isfriend":0,"isfamily":0},{"id":"52349856370","owner":"144980256@N07","secret":"523e650f66","server":"65535","farm":66,"title":"Wilson's Phalarope Phalaropus tricolor","ispublic":1,"isfriend":0,"isfamily":0},{"id":"52349734119","owner":"144980256@N07","secret":"04478b5b43","server":"65535","farm":66,"title":"Wilson's Phalarope (Phalaropus tricolor)","ispublic":1,"isfriend":0,"isfamily":0},{"id":"52336039277","owner":"190122705@N03","secret":"a078fe0a09","server":"65535","farm":66,"title":"Wilson's Phalarope","ispublic":1,"isfriend":0,"isfamily":0},{"id":"52245576431","owner":"28490798@N03","secret":"92502ab2eb","server":"65535","farm":66,"title":"Pollito de Mar Tricolor. Phalaropus tricolor. Wilson's Phalarope","ispublic":1,"isfriend":0,"isfamily":0},{"id":"52198210563","owner":"132165466@N08","secret":"4687de88f2","server":"65535","farm":66,"title":"Wilson's Snipe","ispublic":1,"isfriend":0,"isfamily":0},{"id":"52198692115","owner":"132165466@N08","secret":"b4ce49f273","server":"65535","farm":66,"title":"Wilson's Snipe","ispublic":1,"isfriend":0,"isfamily":0}]},"stat":"ok"}