{"photos":{"page":1,"pages":29,"perpage":100,"total":2829,"photo":[{"id":"52722613299","owner":"48949874@N08","secret":"36536c4361","server":"65535","farm":66,"title":"Wilson\u2019s Snipe Foraging at Merritt Island NWR, Florida","ispublic":1,"isfriend":0,"isfamily":0},{"id":"52722587904","owner":"38514062@N03","secret":"2da0707c48","server":"65535","farm":66,"title":"Wilson's Snipe (Gallinago delicata)","ispublic":1,"isfriend":0,"isfamily":0},{"id":"52711431851","owner":"94293448@N07","secret":"c02bba4069","server":"65535","farm":66,"title":"Wilson's Snipe (Gallinago delicata)","ispublic":1,"isfriend":0,"isfamily":0},{"id":"52711908378","owner":"94293448@N07","secret":"73f0ac286b","server":"65535","farm":66,"title":"Wilson's Snipe (Gallinago delicata)","ispublic":1,"isfriend":0,"isfamily":0},{"id":"52711908353","owner":"94293448@N07","secret":"5d7f825700","server":"65535","farm":66,"title":"Wilson's Snipe (Gallinago delicata)","ispublic":1,"isfriend":0,"isfamily":0},{"id":"52711693079","owner":"94293448@N07","secret":"b627db2578","server":"65535","farm":66,"title":"Wilson's Snipe (Gallinago delicata)","ispublic":1,"isfriend":0,"isfamily":0},{"id":"52708699647","owner":"34689777@N08","secret":"fc6a4ac1ab","server":"65535","farm":66,"title":"Wilson's Snipes (Gallinago delicata).  San Antonio, Socorro Co., New Mexico, USA.","ispublic":1,"isfriend":0,"isfamily":0},{"id":"52707115124","owner":"17654080@N08","secret":"1db707de89","server":"65535","farm":66,"title":"Wilson's Snipe (Gallinago delicata)","ispublic":1,"isfriend":0,"isfamily":0},{"id":"52707352568","owner":"17654080@N08","secret":"941a7ae1ed","server":"65535","farm":66,"title":"Wilson's Snipe (Gallinago delicata)","ispublic":1,"isfriend":0,"isfamily":0},{"id":"52707352533","owner":"17654080@N08","secret":"08d43186f8","server":"65535","farm":66,"title":"Wilson's Snipe (Gallinago delicata)","ispublic":1,"isfriend":0,"isfamily":0},{"id":"52707276730","owner":"17654080@N08","secret":"5af34fc5e2","server":"65535","farm":66,"title":"Wilson's Snipe (Gallinago delicata)","ispublic":1,"isfriend":0,"isfamily":0},{"id":"52700498730","owner":"88932760@N08","secret":"a2e57ebab5","server":"65535","farm":66,"title":"Wesley the Snipe","ispublic":1,"isfriend":0,"isfamily":0},{"id":"52698981957","owner":"94293448@N07","secret":"83bb07453d","server":"65535","farm":66,"title":"Wilson's Snipe (Gallinago delicata)","ispublic":1,"isfriend":0,"isfamily":0},{"id":"52699996043","owner":"94293448@N07","secret":"69a4422edf","server":"65535","farm":66,"title":"Wilson's Snipe (Gallinago delicata)","ispublic":1,"isfriend":0,"isfamily":0},{"id":"52698981842","owner":"94293448@N07","secret":"a9306ec2b1","server":"65535","farm":66,"title":"Wilson's Snipe (Gallinago delicata)","ispublic":1,"isfriend":0,"isfamily":0},{"id":"52697115469","owner":"124995824@N08","secret":"ebebe8b37a","server":"65535","farm":66,"title":"Wilson's Snipe - Gallinago delicata","ispublic":1,"isfriend":0,"isfamily":0},{"id":"52695951162","owner":"36685968@N00","secret":"394aa393fa","server":"65535","farm":66,"title":"Wilson's Snipe (Gallinago delicata)","ispublic":1,"isfriend":0,"isfamily":0},{"id":"52696953568","owner":"36685968@N00","secret":"3bc9ea3166","server":"65535","farm":66,"title":"Wilson's Snipe (Gallinago delicata)","ispublic":1,"isfriend":0,"isfamily":0},{"id":"52695949937","owner":"36685968@N00","secret":"6b56e5018c","server":"65535","farm":66,"title":"Wilson's Snipe (Gallinago delicata)","ispublic":1,"isfriend":0,"isfamily":0},{"id":"52696020453","owner":"73431753@N00","secret":"547910ccce","server":"65535","farm":66,"title":"Wilson's Snipe visiting seasonal non-tidal wetland","ispublic":1,"isfriend":0,"isfamily":0},{"id":"52690349625","owner":"33610210@N05","secret":"042d09870e","server":"65535","farm":66,"title":"Wilson's Snipe, Gallinago delicata","ispublic":1,"isfriend":0,"isfamily":0},{"id":"52680010277","owner":"145466593@N08","secret":"cd9a6e5f11","server":"65535","farm":66,"title":"Wilson's Snipe","ispublic":1,"isfriend":0,"isfamily":0},{"id":"52674408990","owner":"36685968@N00","secret":"04ea1156d5","server":"65535","farm":66,"title":"Wilson's Snipe (Gallinago delicata)","ispublic":1,"isfriend":0,"isfamily":0},{"id":"52672985327","owner":"36685968@N00","secret":"fdcc015919","server":"65535","farm":66,"title":"Wilson's Snipe (Gallinago delicata)","ispublic":1,"isfriend":0,"isfamily":0},{"id":"52672984302","owner":"36685968@N00","secret":"0709d84c13","server":"65535","farm":66,"title":"Wilson's Snipe (Gallinago delicata)","ispublic":1,"isfriend":0,"isfamily":0},{"id":"52673769049","owner":"36685968@N00","secret":"28667cd42e","server":"65535","farm":66,"title":"Wilson's Snipe (Gallinago delicata)","ispublic":1,"isfriend":0,"isfamily":0},{"id":"52668911461","owner":"88932760@N08","secret":"15aef4d5d6","server":"65535","farm":66,"title":"Sniping the Snipe","ispublic":1,"isfriend":0,"isfamily":0},{"id":"52667640478","owner":"39177293@N03","secret":"347c0aa6d9","server":"65535","farm":66,"title":"Wilson's Snipe","ispublic":1,"isfriend":0,"isfamily":0},{"id":"52646478712","owner":"32599741@N03","secret":"7b6fc2c8f0","server":"65535","farm":66,"title":"2022 - Day 340:  what am I doing here?","ispublic":1,"isfriend":0,"isfamily":0},{"id":"52646146355","owner":"73431753@N00","secret":"0d0fb23429","server":"65535","farm":66,"title":"Wilson's Snipe on Ballona non-tidal wetland","ispublic":1,"isfriend":0,"isfamily":0},{"id":"52642367538","owner":"39652177@N04","secret":"0e0731c570","server":"65535","farm":66,"title":"Wilson's snipe","ispublic":1,"isfriend":0,"isfamily":0},{"id":"52641289595","owner":"33888451@N07","secret":"0751be9c31","server":"65535","farm":66,"title":"Wilson's Snipe (Gallinago delicata)","ispublic":1,"isfriend":0,"isfamily":0},{"id":"52633150570","owner":"76617062@N08","secret":"b48f9131c8","server":"65535","farm":66,"title":"1.03783 B\u00e9cassine de Wilson \/ Gallinago delicata \/ Wilson's Snipe","ispublic":1,"isfriend":0,"isfamily":0},{"id":"52631918136","owner":"47533293@N04","secret":"a55ca431d4","server":"65535","farm":66,"title":"Wilson's snipe, Gallinago delicata","ispublic":1,"isfriend":0,"isfamily":0},{"id":"52628944444","owner":"42264328@N00","secret":"6367d217c4","server":"65535","farm":66,"title":"Urban snipe (distant)","ispublic":1,"isfriend":0,"isfamily":0},{"id":"52626900996","owner":"76617062@N08","secret":"38a124d187","server":"65535","farm":66,"title":"1.03783 B\u00e9cassine de Wilson \/ Gallinago delicata \/ Wilson's Snipe","ispublic":1,"isfriend":0,"isfamily":0},{"id":"52612681882","owner":"90355165@N03","secret":"60db2daccd","server":"65535","farm":66,"title":"Wilson's snipe","ispublic":1,"isfriend":0,"isfamily":0},{"id":"52607033177","owner":"196264892@N08","secret":"2d620e2bb5","server":"65535","farm":66,"title":"Wilson's Snipe","ispublic":1,"isfriend":0,"isfamily":0},{"id":"52608030818","owner":"196264892@N08","secret":"3ba8182476","server":"65535","farm":66,"title":"Wilson's Snipe","ispublic":1,"isfriend":0,"isfamily":0},{"id":"52608030638","owner":"196264892@N08","secret":"63de0cc89b","server":"65535","farm":66,"title":"Wilson's Snipe","ispublic":1,"isfriend":0,"isfamily":0},{"id":"52606831639","owner":"77931884@N00","secret":"0fa49be09c","server":"65535","farm":66,"title":"Wilson's Snipes","ispublic":1,"isfriend":0,"isfamily":0},{"id":"52604374848","owner":"67277069@N06","secret":"bcd05de8d6","server":"65535","farm":66,"title":"Wilson's Snipe---Gallinago delicata","ispublic":1,"isfriend":0,"isfamily":0},{"id":"52601438269","owner":"36685968@N00","secret":"4b29e70051","server":"65535","farm":66,"title":"Wilson's Snipe (Gallinago delicata)","ispublic":1,"isfriend":0,"isfamily":0},{"id":"52598349374","owner":"38179496@N05","secret":"aba14f9d04","server":"65535","farm":66,"title":"Becacina com\u00fan (Becada) - Wilson's Snipe - (Gallinago delicata)","ispublic":1,"isfriend":0,"isfamily":0},{"id":"52598606793","owner":"38179496@N05","secret":"7335e396e0","server":"65535","farm":66,"title":"Becacina com\u00fan (Becada) - Wilson's Snipe - (Gallinago delicata)","ispublic":1,"isfriend":0,"isfamily":0},{"id":"52594744096","owner":"22420387@N07","secret":"42142d9b79","server":"65535","farm":66,"title":"Wilson's Snipe - DEL_7436 - LR","ispublic":1,"isfriend":0,"isfamily":0},{"id":"52595265233","owner":"22420387@N07","secret":"189c865811","server":"65535","farm":66,"title":"Wilson's Snipe - DEL_7460 - LR","ispublic":1,"isfriend":0,"isfamily":0},{"id":"52572195331","owner":"33610210@N05","secret":"3c99df0f26","server":"65535","farm":66,"title":"Wilson's Snipe, Gallinago delicata","ispublic":1,"isfriend":0,"isfamily":0},{"id":"52567369185","owner":"150374485@N05","secret":"bd33ef7cb8","server":"65535","farm":66,"title":"B\u00e9cassine de Wilson--Wilson's Snipe (Gallinago delicata)","ispublic":1,"isfriend":0,"isfamily":0},{"id":"52564357510","owner":"196264892@N08","secret":"3bb9a6e3ff","server":"65535","farm":66,"title":"Wilson's Snipe","ispublic":1,"isfriend":0,"isfamily":0},{"id":"52564178519","owner":"196264892@N08","secret":"ebe7bbec3c","server":"65535","farm":66,"title":"Wilson's Snipe","ispublic":1,"isfriend":0,"isfamily":0},{"id":"52563439927","owner":"196264892@N08","secret":"5076e29860","server":"65535","farm":66,"title":"Wilson's Snipe","ispublic":1,"isfriend":0,"isfamily":0},{"id":"52557981994","owner":"135315828@N06","secret":"33381f9276","server":"65535","farm":66,"title":"wilson's snipe","ispublic":1,"isfriend":0,"isfamily":0},{"id":"52558155705","owner":"135315828@N06","secret":"cecfd8359b","server":"65535","farm":66,"title":"wilson's snipe","ispublic":1,"isfriend":0,"isfamily":0},{"id":"52551455977","owner":"73431753@N00","secret":"455e0486f4","server":"65535","farm":66,"title":"Wilson's Snipe visiting Ballona non-tidal Wetland","ispublic":1,"isfriend":0,"isfamily":0},{"id":"52550212166","owner":"73431753@N00","secret":"4bc3cbfcce","server":"65535","farm":66,"title":"Willet and Wilsons Snipes on seasonal wetland non-tidal water","ispublic":1,"isfriend":0,"isfamily":0},{"id":"52549555857","owner":"36685968@N00","secret":"f0a85ff2f8","server":"65535","farm":66,"title":"Wilson's Snipe (Gallinago delicata)","ispublic":1,"isfriend":0,"isfamily":0},{"id":"52546792315","owner":"145489125@N03","secret":"5cc313392e","server":"65535","farm":66,"title":"Wilson's Snipe ( Gallinago delicata ) ... Wyoming , USA","ispublic":1,"isfriend":0,"isfamily":0},{"id":"52545196801","owner":"146977722@N03","secret":"388d19dbbb","server":"65535","farm":66,"title":"Gallinago delicata (B\u00e9cassine de Wilson) -  Ohio - Fernald Preverve ((Hamilton countee) Conrey  - 2022 10 249897_DxO_DxO_DxO","ispublic":1,"isfriend":0,"isfamily":0},{"id":"52542338989","owner":"77931884@N00","secret":"f8b9773dfa","server":"0","farm":0,"title":"Dancing Snipe","ispublic":1,"isfriend":0,"isfamily":0},{"id":"52541009561","owner":"77931884@N00","secret":"1ff90a14f7","server":"65535","farm":66,"title":"Wilson's Snipe","ispublic":1,"isfriend":0,"isfamily":0},{"id":"52537772506","owner":"39617069@N08","secret":"2289e47648","server":"65535","farm":66,"title":"Wilson's Snipe","ispublic":1,"isfriend":0,"isfamily":0},{"id":"52535221249","owner":"103722035@N06","secret":"9b539cdf1b","server":"65535","farm":66,"title":"Wilson's Snipe (Gallinago delicata), Baywood Park, CA","ispublic":1,"isfriend":0,"isfamily":0},{"id":"52535414000","owner":"103722035@N06","secret":"3e97c86c52","server":"65535","farm":66,"title":"Wilson's Snipe (Gallinago delicata), Baywood Park, CA","ispublic":1,"isfriend":0,"isfamily":0},{"id":"52533385114","owner":"103722035@N06","secret":"9873aac5b4","server":"0","farm":0,"title":"Wilson's Snipe (Gallinago delicata), Baywood Park, CA","ispublic":1,"isfriend":0,"isfamily":0},{"id":"52529552337","owner":"34368269@N04","secret":"09bdf4e70b","server":"65535","farm":66,"title":"Wilson's Snipe","ispublic":1,"isfriend":0,"isfamily":0},{"id":"52525275957","owner":"39652177@N04","secret":"8201ba06e6","server":"65535","farm":66,"title":"Wilson's snipe-09592","ispublic":1,"isfriend":0,"isfamily":0},{"id":"52524418096","owner":"131037795@N03","secret":"0bb13ce58a","server":"65535","farm":66,"title":"Wilson's Snipe (Gallinago delicata)","ispublic":1,"isfriend":0,"isfamily":0},{"id":"52523178177","owner":"187792860@N04","secret":"86dc1a06dd","server":"65535","farm":66,"title":"Wilson's snipe (Gallinago delicata)","ispublic":1,"isfriend":0,"isfamily":0},{"id":"52524035758","owner":"151381692@N04","secret":"71d0319c8b","server":"65535","farm":66,"title":"Wilson's Snipe (Gallinago delicata)","ispublic":1,"isfriend":0,"isfamily":0},{"id":"52522658081","owner":"195537536@N03","secret":"cd162f5b2e","server":"65535","farm":66,"title":"Wilson's Snipe (Gallinago delicata)","ispublic":1,"isfriend":0,"isfamily":0},{"id":"52510709117","owner":"151381692@N04","secret":"49d6bdc0bc","server":"65535","farm":66,"title":"Wilson's Snipe (Gallinago delicata)","ispublic":1,"isfriend":0,"isfamily":0},{"id":"52500313836","owner":"98768841@N05","secret":"fdc3fb819b","server":"65535","farm":66,"title":"Wilson's Snipe","ispublic":1,"isfriend":0,"isfamily":0},{"id":"52500788180","owner":"98768841@N05","secret":"d066e50039","server":"65535","farm":66,"title":"Wilson's Snipe","ispublic":1,"isfriend":0,"isfamily":0},{"id":"52488377674","owner":"45340210@N05","secret":"5223236bb0","server":"65535","farm":66,"title":"Wilson's Snipe 2 11_08_22","ispublic":1,"isfriend":0,"isfamily":0},{"id":"52484022605","owner":"59777454@N02","secret":"7a06eec029","server":"65535","farm":66,"title":"Wilson's Snipe Tekiela K0A1410","ispublic":1,"isfriend":0,"isfamily":0},{"id":"52484015570","owner":"59777454@N02","secret":"a96682b15d","server":"65535","farm":66,"title":"Wilson's Snipe Tekiela K0A1321","ispublic":1,"isfriend":0,"isfamily":0},{"id":"52479536402","owner":"30638967@N03","secret":"1963d529fd","server":"65535","farm":66,"title":"Wilson's Snipe DSC_1871","ispublic":1,"isfriend":0,"isfamily":0},{"id":"52478981512","owner":"30638967@N03","secret":"c89f02a36f","server":"65535","farm":66,"title":"Wilson's Snipe DSC_7239","ispublic":1,"isfriend":0,"isfamily":0},{"id":"52479976463","owner":"30638967@N03","secret":"b2a6874648","server":"65535","farm":66,"title":"Wilson's Snipe DSC_5963","ispublic":1,"isfriend":0,"isfamily":0},{"id":"52478119432","owner":"150374485@N05","secret":"645667bdf5","server":"65535","farm":66,"title":"B\u00e9cassine de Wilson--Wilson's Snipe (Gallinago delicata)","ispublic":1,"isfriend":0,"isfamily":0},{"id":"52468997183","owner":"140318147@N08","secret":"70a093a5b1","server":"65535","farm":66,"title":"Wilson's snipe (Gallinago delicata) L4A6421","ispublic":1,"isfriend":0,"isfamily":0},{"id":"52454298892","owner":"40724294@N04","secret":"5c73528ed2","server":"65535","farm":66,"title":"Wilson's Snipes In The Snow","ispublic":1,"isfriend":0,"isfamily":0},{"id":"52452549356","owner":"54059915@N07","secret":"03aeeec172","server":"0","farm":0,"title":"Startle Reflex","ispublic":1,"isfriend":0,"isfamily":0},{"id":"52447246406","owner":"54100598@N08","secret":"6c485da190","server":"0","farm":0,"title":"Common Snipe (Gallinago gallinago) VIDEO","ispublic":1,"isfriend":0,"isfamily":0},{"id":"52445377509","owner":"120449047@N06","secret":"ddb2f1cc46","server":"65535","farm":66,"title":"Wilson's Snipe (1 0f 2)","ispublic":1,"isfriend":0,"isfamily":0},{"id":"52444558331","owner":"40006638@N06","secret":"db4796b350","server":"65535","farm":66,"title":"Wilson's Snipe - 094A9701a4c","ispublic":1,"isfriend":0,"isfamily":0},{"id":"52444872180","owner":"145466593@N08","secret":"90cb85f1bd","server":"65535","farm":66,"title":"Wilson's Snipe","ispublic":1,"isfriend":0,"isfamily":0},{"id":"52442895624","owner":"40006638@N06","secret":"413534089f","server":"65535","farm":66,"title":"Wilson's Snipe - 094A9668a2c","ispublic":1,"isfriend":0,"isfamily":0},{"id":"52428014349","owner":"196264892@N08","secret":"efb7c79fd5","server":"65535","farm":66,"title":"Snipe, Yellowlegs, and Killdeer","ispublic":1,"isfriend":0,"isfamily":0},{"id":"52417912344","owner":"130605131@N08","secret":"9f0b5f134d","server":"65535","farm":66,"title":"IMG_2400","ispublic":1,"isfriend":0,"isfamily":0},{"id":"52418070680","owner":"130605131@N08","secret":"dfdb7c74e6","server":"65535","farm":66,"title":"IMG_2401","ispublic":1,"isfriend":0,"isfamily":0},{"id":"52417630316","owner":"130605131@N08","secret":"8286ac71dd","server":"65535","farm":66,"title":"IMG_2402","ispublic":1,"isfriend":0,"isfamily":0},{"id":"52417912209","owner":"130605131@N08","secret":"733b0186df","server":"65535","farm":66,"title":"IMG_2403","ispublic":1,"isfriend":0,"isfamily":0},{"id":"52417118927","owner":"130605131@N08","secret":"6a5584fc23","server":"65535","farm":66,"title":"IMG_2408","ispublic":1,"isfriend":0,"isfamily":0},{"id":"52417118877","owner":"130605131@N08","secret":"5bd9537e1e","server":"65535","farm":66,"title":"IMG_2409","ispublic":1,"isfriend":0,"isfamily":0},{"id":"52662418103","owner":"33610210@N05","secret":"cda30806e3","server":"65535","farm":66,"title":"Wilson's Snipe, Gallinago delicata","ispublic":1,"isfriend":0,"isfamily":0},{"id":"52598606973","owner":"38179496@N05","secret":"a86d1da1d1","server":"65535","farm":66,"title":"Becacina com\u00fan (Becada) - Wilson's Snipe - (Gallinago delicata)","ispublic":1,"isfriend":0,"isfamily":0},{"id":"52592643862","owner":"73431753@N00","secret":"2e55d05995","server":"65535","farm":66,"title":"Wilson's Snipe, Gallinago delicata","ispublic":1,"isfriend":0,"isfamily":0},{"id":"52579764007","owner":"153973412@N04","secret":"42b33b95dc","server":"65535","farm":66,"title":"Wilson's Snipe-Gallinago delicata, Hawkeye WMA, IA","ispublic":1,"isfriend":0,"isfamily":0}]},"stat":"ok"}