{"photos":{"page":1,"pages":7,"perpage":100,"total":684,"photo":[{"id":"52750337256","owner":"9731845@N02","secret":"b46a4c4a70","server":"65535","farm":66,"title":"Wrentit (Chamaea fasciata)","ispublic":1,"isfriend":0,"isfamily":0},{"id":"52675094695","owner":"163667952@N05","secret":"4c11caab86","server":"65535","farm":66,"title":"Wrentit","ispublic":1,"isfriend":0,"isfamily":0},{"id":"52580779705","owner":"153973412@N04","secret":"b2162182dd","server":"65535","farm":66,"title":"Wrentit-Chamaea fasciata, Carmel, CA","ispublic":1,"isfriend":0,"isfamily":0},{"id":"52552911396","owner":"151109375@N08","secret":"d1e20d4985","server":"65535","farm":66,"title":"A wrentit (Chamaea fasciata) emerges from deep cover to take a quick look","ispublic":1,"isfriend":0,"isfamily":0},{"id":"52542060276","owner":"62877922@N08","secret":"a057dbe016","server":"65535","farm":66,"title":"Wrentit (Chamaea fasciata)","ispublic":1,"isfriend":0,"isfamily":0},{"id":"52495370970","owner":"79254232@N08","secret":"9ca4c99d36","server":"65535","farm":66,"title":"Wrentit","ispublic":1,"isfriend":0,"isfamily":0},{"id":"52232318310","owner":"80648919@N08","secret":"e2e3a148d8","server":"65535","farm":66,"title":"Wrentit","ispublic":1,"isfriend":0,"isfamily":0},{"id":"52160360287","owner":"10665268@N04","secret":"28e432dee3","server":"65535","farm":66,"title":"Wrentit, Tillamook Co., OR_8572(1)","ispublic":1,"isfriend":0,"isfamily":0},{"id":"52125365164","owner":"69812270@N00","secret":"e89c31ed33","server":"65535","farm":66,"title":"Wrentit, Rancho Del Oso","ispublic":1,"isfriend":0,"isfamily":0},{"id":"51995360262","owner":"101789078@N06","secret":"39df9e23e8","server":"65535","farm":66,"title":"Wrentit","ispublic":1,"isfriend":0,"isfamily":0},{"id":"51996365911","owner":"101789078@N06","secret":"825794baa7","server":"65535","farm":66,"title":"Wrentit","ispublic":1,"isfriend":0,"isfamily":0},{"id":"51971175872","owner":"130819719@N05","secret":"79111428ab","server":"65535","farm":66,"title":"Wrentit","ispublic":1,"isfriend":0,"isfamily":0},{"id":"51881334116","owner":"8783241@N08","secret":"ea5c88fa36","server":"65535","farm":66,"title":"Chamaea fasciata - Wrentit","ispublic":1,"isfriend":0,"isfamily":0},{"id":"51713404322","owner":"140318147@N08","secret":"bdbcbd4a0e","server":"65535","farm":66,"title":"wrentit (Chamaea fasciata) L4A0975","ispublic":1,"isfriend":0,"isfamily":0},{"id":"51680560471","owner":"183736567@N07","secret":"7e0fff2a48","server":"65535","farm":66,"title":"Wrentit (Chamaea fasciata)","ispublic":1,"isfriend":0,"isfamily":0},{"id":"51657269490","owner":"22170893@N06","secret":"2ba6bedb9a","server":"65535","farm":66,"title":"California Thrasher - Toxostoma redivivum & Wrentit - Chamaea fasciata","ispublic":1,"isfriend":0,"isfamily":0},{"id":"51624688720","owner":"23939795@N04","secret":"e49626dc2f","server":"65535","farm":66,"title":"Wrentit 2424","ispublic":1,"isfriend":0,"isfamily":0},{"id":"51376043996","owner":"185659367@N04","secret":"ec1d7e03b4","server":"65535","farm":66,"title":"Wrentit (Chamaea fasciata)","ispublic":1,"isfriend":0,"isfamily":0},{"id":"51367934847","owner":"48014585@N00","secret":"28e2ac98a6","server":"65535","farm":66,"title":"Wrentit","ispublic":1,"isfriend":0,"isfamily":0},{"id":"51368694186","owner":"48014585@N00","secret":"45c7203a91","server":"65535","farm":66,"title":"Wrentit","ispublic":1,"isfriend":0,"isfamily":0},{"id":"51239210671","owner":"9731845@N02","secret":"8de06c5ced","server":"65535","farm":66,"title":"Wrentit (Chamaea fasciata)","ispublic":1,"isfriend":0,"isfamily":0},{"id":"51238498577","owner":"9731845@N02","secret":"80ef286fcf","server":"65535","farm":66,"title":"Wrentit (Chamaea fasciata)","ispublic":1,"isfriend":0,"isfamily":0},{"id":"51231104212","owner":"8086030@N03","secret":"c2f08c9105","server":"65535","farm":66,"title":"Wrentit (Chamaea fasciata), Hermit Thrush and Fox Sparrow","ispublic":1,"isfriend":0,"isfamily":0},{"id":"51222844747","owner":"64718763@N04","secret":"3f2d1b9c29","server":"65535","farm":66,"title":"Twitter","ispublic":1,"isfriend":0,"isfamily":0},{"id":"51172239499","owner":"21558080@N07","secret":"3268fb36b1","server":"65535","farm":66,"title":"Wrentit (Chamaea fasciata)","ispublic":1,"isfriend":0,"isfamily":0},{"id":"51105698467","owner":"64718763@N04","secret":"85fffc8abe","server":"65535","farm":66,"title":"Tweedler","ispublic":1,"isfriend":0,"isfamily":0},{"id":"51022842287","owner":"9638954@N07","secret":"4462c1dc91","server":"65535","farm":66,"title":"Wrentit","ispublic":1,"isfriend":0,"isfamily":0},{"id":"51015187052","owner":"21558080@N07","secret":"894e2198b8","server":"65535","farm":66,"title":"Wrentit (Chamaea fasciata)","ispublic":1,"isfriend":0,"isfamily":0},{"id":"51007316803","owner":"85277889@N08","secret":"cbee1891ab","server":"65535","farm":66,"title":"Wrentit (Chamaea fasciata) 2021-03-02 (1)","ispublic":1,"isfriend":0,"isfamily":0},{"id":"51007311563","owner":"85277889@N08","secret":"3acb028d69","server":"65535","farm":66,"title":"Wrentit (Chamaea fasciata) 2021-03-02 (4)","ispublic":1,"isfriend":0,"isfamily":0},{"id":"50986464018","owner":"134081613@N07","secret":"d483747126","server":"65535","farm":66,"title":"Wrentit","ispublic":1,"isfriend":0,"isfamily":0},{"id":"50972776543","owner":"9638954@N07","secret":"08b32a6501","server":"65535","farm":66,"title":"Wrentit","ispublic":1,"isfriend":0,"isfamily":0},{"id":"50973569717","owner":"9638954@N07","secret":"0bdcfac0f7","server":"65535","farm":66,"title":"Wrentit","ispublic":1,"isfriend":0,"isfamily":0},{"id":"50972776338","owner":"9638954@N07","secret":"796e7d2fd1","server":"65535","farm":66,"title":"Wrentit","ispublic":1,"isfriend":0,"isfamily":0},{"id":"50900534016","owner":"67277069@N06","secret":"edbcf384c7","server":"65535","farm":66,"title":"Wrentit---Chamaea fasciata","ispublic":1,"isfriend":0,"isfamily":0},{"id":"50892182066","owner":"33573751@N04","secret":"6fee48144b","server":"65535","farm":66,"title":"Wrentit (Chamaea fasciata) - Torrey Pines, California","ispublic":1,"isfriend":0,"isfamily":0},{"id":"50890422343","owner":"33573751@N04","secret":"52bbaecdf3","server":"65535","farm":66,"title":"How Wrentits blend in - Wrentit (Chamaea fasciata) - Torrey Pines, California","ispublic":1,"isfriend":0,"isfamily":0},{"id":"50752305042","owner":"119787485@N07","secret":"0d9de2cc1e","server":"65535","farm":66,"title":"Wrentit (Chamaea fasciata henshawi) - 20120116-03","ispublic":1,"isfriend":0,"isfamily":0},{"id":"50670967596","owner":"19708855@N00","secret":"749abca67e","server":"65535","farm":66,"title":"Wrentit","ispublic":1,"isfriend":0,"isfamily":0},{"id":"50669627878","owner":"88537019@N00","secret":"c9a36482af","server":"65535","farm":66,"title":"Wrentit (Chamaea fasciata)","ispublic":1,"isfriend":0,"isfamily":0},{"id":"50653117537","owner":"131708321@N02","secret":"a0e257f1ee","server":"65535","farm":66,"title":"Wrentit (Chamaea fasciata), San Diego, California, United States","ispublic":1,"isfriend":0,"isfamily":0},{"id":"50644091313","owner":"117307568@N03","secret":"ef63f977d6","server":"65535","farm":66,"title":"Wrentit (Chamaea fasciata)","ispublic":1,"isfriend":0,"isfamily":0},{"id":"50443283576","owner":"125605310@N07","secret":"83e4fdd26c","server":"65535","farm":66,"title":"Wrentit, Chamaea fasciata","ispublic":1,"isfriend":0,"isfamily":0},{"id":"50428014037","owner":"85277889@N08","secret":"d78c3a89c2","server":"65535","farm":66,"title":"Wrentit (Chamaea fasciata) 2020-10-05 (3)","ispublic":1,"isfriend":0,"isfamily":0},{"id":"50144373563","owner":"61021753@N02","secret":"a98406e26f","server":"65535","farm":66,"title":"n334_w1150","ispublic":1,"isfriend":0,"isfamily":0},{"id":"50113815311","owner":"85277889@N08","secret":"77bdd81824","server":"65535","farm":66,"title":"Wrentit (Chamaea fasciata) 2020-07-06 (1)","ispublic":1,"isfriend":0,"isfamily":0},{"id":"52709567409","owner":"62043870@N05","secret":"c5791e317b","server":"65535","farm":66,"title":"Wrentit, Chamaea fasciata","ispublic":1,"isfriend":0,"isfamily":0},{"id":"52568471275","owner":"67306066@N03","secret":"1c102a7bc1","server":"65535","farm":66,"title":"Wrentit (Chamaea fasciata)","ispublic":1,"isfriend":0,"isfamily":0},{"id":"52568470970","owner":"67306066@N03","secret":"d34f47f432","server":"65535","farm":66,"title":"Wrentit (Chamaea fasciata)","ispublic":1,"isfriend":0,"isfamily":0},{"id":"52568027016","owner":"67306066@N03","secret":"4d12a9092a","server":"65535","farm":66,"title":"Wrentit (Chamaea fasciata)","ispublic":1,"isfriend":0,"isfamily":0},{"id":"52568554723","owner":"67306066@N03","secret":"c63c64220b","server":"65535","farm":66,"title":"Wrentit (Chamaea fasciata)","ispublic":1,"isfriend":0,"isfamily":0},{"id":"52568302419","owner":"67306066@N03","secret":"484cf11b74","server":"65535","farm":66,"title":"Wrentit (Chamaea fasciata)","ispublic":1,"isfriend":0,"isfamily":0},{"id":"52568353763","owner":"67306066@N03","secret":"99e1270c02","server":"65535","farm":66,"title":"Wrentit (Chamaea fasciata)","ispublic":1,"isfriend":0,"isfamily":0},{"id":"52542060211","owner":"62877922@N08","secret":"f8a1e9a79e","server":"65535","farm":66,"title":"Wrentit (Chamaea fasciata)","ispublic":1,"isfriend":0,"isfamily":0},{"id":"52341372257","owner":"62043870@N05","secret":"83233ae493","server":"65535","farm":66,"title":"Wrentit, Chamaea fasciata","ispublic":1,"isfriend":0,"isfamily":0},{"id":"52250906169","owner":"103722035@N06","secret":"60ed9acd5e","server":"0","farm":0,"title":"Wrentit (Chamaea fasciata), Cerro Alto, Highway 41, San Luis Obispo County, CA","ispublic":1,"isfriend":0,"isfamily":0},{"id":"52213791437","owner":"103722035@N06","secret":"693dd3a540","server":"65535","farm":66,"title":"Wrentit (Chamaea fasciata), Morro Bay, CA","ispublic":1,"isfriend":0,"isfamily":0},{"id":"52215281905","owner":"103722035@N06","secret":"9b856a820e","server":"65535","farm":66,"title":"Wrentit (Chamaea fasciata), Morro Bay, CA","ispublic":1,"isfriend":0,"isfamily":0},{"id":"52215074944","owner":"103722035@N06","secret":"00baa84dce","server":"65535","farm":66,"title":"Wrentit (Chamaea fasciata), Morro Bay, CA","ispublic":1,"isfriend":0,"isfamily":0},{"id":"52213791257","owner":"103722035@N06","secret":"c758ddd882","server":"65535","farm":66,"title":"Wrentit (Chamaea fasciata), Morro Bay, CA","ispublic":1,"isfriend":0,"isfamily":0},{"id":"52047030045","owner":"51928691@N04","secret":"2ac9dc8e58","server":"65535","farm":66,"title":"Wrentit (Chamaea fasciata) 1 042922","ispublic":1,"isfriend":0,"isfamily":0},{"id":"52003509798","owner":"62043870@N05","secret":"2993d05c2a","server":"65535","farm":66,"title":"Wrentit, Chamaea fasciata","ispublic":1,"isfriend":0,"isfamily":0},{"id":"51981793758","owner":"8783241@N08","secret":"af59b71e90","server":"65535","farm":66,"title":"Chamaea fasciata - Wrentit","ispublic":1,"isfriend":0,"isfamily":0},{"id":"51912934184","owner":"103722035@N06","secret":"2cacfa8510","server":"65535","farm":66,"title":"Wrentit (Chamaea fasciata), Monta\u00f1a de Oro, Los Osos, CA","ispublic":1,"isfriend":0,"isfamily":0},{"id":"51906186419","owner":"48014585@N00","secret":"57107f1519","server":"65535","farm":66,"title":"Wrentit","ispublic":1,"isfriend":0,"isfamily":0},{"id":"51906504475","owner":"48014585@N00","secret":"78420a01ee","server":"65535","farm":66,"title":"Wrentit","ispublic":1,"isfriend":0,"isfamily":0},{"id":"51874808876","owner":"62043870@N05","secret":"bb32fd59a1","server":"65535","farm":66,"title":"Wrentit, Chamaea fasciata","ispublic":1,"isfriend":0,"isfamily":0},{"id":"51845986100","owner":"9731845@N02","secret":"3b580eb1a6","server":"0","farm":0,"title":"Wrentit (Chamaea fasciata)","ispublic":1,"isfriend":0,"isfamily":0},{"id":"51845988620","owner":"9731845@N02","secret":"26d9838eab","server":"65535","farm":66,"title":"Wrentit (Chamaea fasciata)","ispublic":1,"isfriend":0,"isfamily":0},{"id":"51807080858","owner":"194341957@N06","secret":"778d785699","server":"65535","farm":66,"title":"wrentit","ispublic":1,"isfriend":0,"isfamily":0},{"id":"51807693860","owner":"194341957@N06","secret":"06fa5ea3c8","server":"65535","farm":66,"title":"wrentit","ispublic":1,"isfriend":0,"isfamily":0},{"id":"51806009967","owner":"194341957@N06","secret":"01fbdc2b1f","server":"65535","farm":66,"title":"wrentit","ispublic":1,"isfriend":0,"isfamily":0},{"id":"51582641711","owner":"150163656@N06","secret":"34f38555d6","server":"65535","farm":66,"title":"Wrentit","ispublic":1,"isfriend":0,"isfamily":0},{"id":"51466516168","owner":"140318147@N08","secret":"23cd281975","server":"65535","farm":66,"title":"wrentit* (Chamaea fasciata) L4A6423","ispublic":1,"isfriend":0,"isfamily":0},{"id":"51369703815","owner":"48014585@N00","secret":"f36054331f","server":"65535","farm":66,"title":"Wrentit","ispublic":1,"isfriend":0,"isfamily":0},{"id":"51325622178","owner":"103722035@N06","secret":"026a97b4f3","server":"0","farm":0,"title":"Wrentit (Chamaea fasciata), Cerro Alto, Highway 41, San Luis Obispo County, CA","ispublic":1,"isfriend":0,"isfamily":0},{"id":"51306797105","owner":"62043870@N05","secret":"e10bb9c81a","server":"65535","farm":66,"title":"Wrentit, Chamaea fasciata","ispublic":1,"isfriend":0,"isfamily":0},{"id":"51232911372","owner":"125605310@N07","secret":"8a99da2c06","server":"65535","farm":66,"title":"Wrentit, Chamaea fasciata","ispublic":1,"isfriend":0,"isfamily":0},{"id":"51125760050","owner":"62043870@N05","secret":"07cefae597","server":"65535","farm":66,"title":"Wrentit, Chamaea fasciata","ispublic":1,"isfriend":0,"isfamily":0},{"id":"51084604153","owner":"10122691@N08","secret":"4e422db9bc","server":"65535","farm":66,"title":"Wrentit","ispublic":1,"isfriend":0,"isfamily":0},{"id":"50963751203","owner":"62043870@N05","secret":"2a5fdc21dd","server":"65535","farm":66,"title":"Wrentit, Chamaea fasciata","ispublic":1,"isfriend":0,"isfamily":0},{"id":"50952009001","owner":"62043870@N05","secret":"85a8a28bbb","server":"65535","farm":66,"title":"Wrentit, Chamaea fasciata","ispublic":1,"isfriend":0,"isfamily":0},{"id":"50930142563","owner":"47862125@N03","secret":"7aa2c9fc99","server":"65535","farm":66,"title":"02-10-2021 Wrentit Laguna Niguel CA 0M3A5625 (2)","ispublic":1,"isfriend":0,"isfamily":0},{"id":"50903658562","owner":"33106392@N08","secret":"2ac129ed9e","server":"65535","farm":66,"title":"Wrentit","ispublic":1,"isfriend":0,"isfamily":0},{"id":"50779736688","owner":"117307568@N03","secret":"2051ec5bdc","server":"65535","farm":66,"title":"Wrentit (Chamaea fasciata)","ispublic":1,"isfriend":0,"isfamily":0},{"id":"50670225578","owner":"19708855@N00","secret":"75220eee28","server":"65535","farm":66,"title":"Wrentit","ispublic":1,"isfriend":0,"isfamily":0},{"id":"50542131778","owner":"62043870@N05","secret":"2ced4f9da5","server":"65535","farm":66,"title":"Wrentit, Chamaea fasciata","ispublic":1,"isfriend":0,"isfamily":0},{"id":"50511076498","owner":"62043870@N05","secret":"9a6798db8d","server":"65535","farm":66,"title":"Wrentit, Chamaea fasciata","ispublic":1,"isfriend":0,"isfamily":0},{"id":"50511951442","owner":"62043870@N05","secret":"e47eaa757e","server":"65535","farm":66,"title":"Wrentit, Chamaea fasciata","ispublic":1,"isfriend":0,"isfamily":0},{"id":"50511075228","owner":"62043870@N05","secret":"5c0761b357","server":"65535","farm":66,"title":"Wrentit, Chamaea fasciata","ispublic":1,"isfriend":0,"isfamily":0},{"id":"50511074543","owner":"62043870@N05","secret":"fed1b19481","server":"65535","farm":66,"title":"Wrentit, Chamaea fasciata","ispublic":1,"isfriend":0,"isfamily":0},{"id":"50504765661","owner":"103722035@N06","secret":"62192f057f","server":"65535","farm":66,"title":"Wrentit (Chamaea fasciata), Monta\u00f1a de Oro, Los Osos, CA","ispublic":1,"isfriend":0,"isfamily":0},{"id":"50504924382","owner":"103722035@N06","secret":"94c3d302e4","server":"65535","farm":66,"title":"Wrentit (Chamaea fasciata), Monta\u00f1a de Oro, Los Osos, CA","ispublic":1,"isfriend":0,"isfamily":0},{"id":"50504051043","owner":"103722035@N06","secret":"25b6d04f2f","server":"65535","farm":66,"title":"Wrentit (Chamaea fasciata), Monta\u00f1a de Oro, Los Osos, CA","ispublic":1,"isfriend":0,"isfamily":0},{"id":"50443093726","owner":"62043870@N05","secret":"d13e69e971","server":"65535","farm":66,"title":"Wrentit, Chamaea fasciata","ispublic":1,"isfriend":0,"isfamily":0},{"id":"50443093041","owner":"62043870@N05","secret":"e05c02789f","server":"65535","farm":66,"title":"Wrentit, Chamaea fasciata","ispublic":1,"isfriend":0,"isfamily":0},{"id":"50285738348","owner":"9638954@N07","secret":"dcb5273cf7","server":"65535","farm":66,"title":"Wrentit","ispublic":1,"isfriend":0,"isfamily":0},{"id":"50112638761","owner":"78276199@N04","secret":"8e24cee59b","server":"65535","farm":66,"title":"Fae G\u00e6rdesmutte - Wrentit - Chamaea fasciata","ispublic":1,"isfriend":0,"isfamily":0},{"id":"50088732388","owner":"125605310@N07","secret":"d4955c5b45","server":"65535","farm":66,"title":"Wrentit, Chamaea fasciata","ispublic":1,"isfriend":0,"isfamily":0},{"id":"50089165657","owner":"62043870@N05","secret":"8a9bdbc3b0","server":"65535","farm":66,"title":"Wrentit, Chamaea fasciata","ispublic":1,"isfriend":0,"isfamily":0}]},"stat":"ok"}