{"photos":{"page":1,"pages":9,"perpage":100,"total":838,"photo":[{"id":"52674861546","owner":"129553350@N02","secret":"2069e54d99","server":"65535","farm":66,"title":"Cardenilla","ispublic":1,"isfriend":0,"isfamily":0},{"id":"52633227242","owner":"127954172@N03","secret":"7b3f77a80c","server":"65535","farm":66,"title":"cardenilla_NGR8902","ispublic":1,"isfriend":0,"isfamily":0},{"id":"52619020420","owner":"62043870@N05","secret":"719b9687ea","server":"65535","farm":66,"title":"Yellow-billed Cardinal, Paroaria capitata","ispublic":1,"isfriend":0,"isfamily":0},{"id":"52580750933","owner":"153973412@N04","secret":"5f99cdec0e","server":"65535","farm":66,"title":"Yellow-billed Cardinal-Paroaria capitata, Hawaii, HI","ispublic":1,"isfriend":0,"isfamily":0},{"id":"52443760809","owner":"27480477@N07","secret":"b9a3900d36","server":"65535","farm":66,"title":"9K0A4014 Yellow-Billed Cardinal, Paroaria capitata.","ispublic":1,"isfriend":0,"isfamily":0},{"id":"52423002099","owner":"27480477@N07","secret":"60d5c4a987","server":"65535","farm":66,"title":"9K0A4019 Yellow-Billed Cardinal, Paroaria capitata.","ispublic":1,"isfriend":0,"isfamily":0},{"id":"52398089807","owner":"48938938@N04","secret":"3e4026ef9f","server":"65535","farm":66,"title":"Yellow-billed Cardinal_Paroaria capitata_Ascanio_Pantanal_Mato Grosso_Brazil_DZ3A6404","ispublic":1,"isfriend":0,"isfamily":0},{"id":"52374621671","owner":"21182099@N05","secret":"6f5cfd969d","server":"65535","farm":66,"title":"Yellow-billed Cardinal (Paroaria capitata)","ispublic":1,"isfriend":0,"isfamily":0},{"id":"52366285490","owner":"132734449@N05","secret":"31ed18e1ca","server":"65535","farm":66,"title":"Yellow-billed Cardinal, bathing.","ispublic":1,"isfriend":0,"isfamily":0},{"id":"52333461776","owner":"132734449@N05","secret":"78727334db","server":"65535","farm":66,"title":"Juvenile, Yellow-billed cardina","ispublic":1,"isfriend":0,"isfamily":0},{"id":"52311291897","owner":"132734449@N05","secret":"f16e96ee57","server":"65535","farm":66,"title":"Yellow-billed Cardinal","ispublic":1,"isfriend":0,"isfamily":0},{"id":"52159933148","owner":"42964440@N08","secret":"1b1a2fc6f0","server":"65535","farm":66,"title":"Yellow-billed Cardinal (Paroaria capitata)","ispublic":1,"isfriend":0,"isfamily":0},{"id":"52034595978","owner":"129553350@N02","secret":"e77af696a0","server":"65535","farm":66,"title":"Cardenilla","ispublic":1,"isfriend":0,"isfamily":0},{"id":"51965445336","owner":"129553350@N02","secret":"190fd4a876","server":"65535","farm":66,"title":"Cardenilla","ispublic":1,"isfriend":0,"isfamily":0},{"id":"51963512054","owner":"129553350@N02","secret":"7e993439c8","server":"65535","farm":66,"title":"Cardenilla","ispublic":1,"isfriend":0,"isfamily":0},{"id":"51946625028","owner":"192240624@N08","secret":"f5f5fa8256","server":"65535","farm":66,"title":"Red-headed stranger","ispublic":1,"isfriend":0,"isfamily":0},{"id":"51905657230","owner":"18581013@N04","secret":"83e8becd65","server":"65535","farm":66,"title":"Yellow-billed Cardinal","ispublic":1,"isfriend":0,"isfamily":0},{"id":"51902722169","owner":"18581013@N04","secret":"cdedf7d31b","server":"65535","farm":66,"title":"Yellow-billed Cardinal","ispublic":1,"isfriend":0,"isfamily":0},{"id":"51858955453","owner":"56983940@N06","secret":"bfa409c092","server":"65535","farm":66,"title":"Yellow-billed Cardinal","ispublic":1,"isfriend":0,"isfamily":0},{"id":"51830741253","owner":"82972631@N04","secret":"faa9651868","server":"65535","farm":66,"title":"Yellow-billed Cardinal \/ Cavalaria \/ Paroaria capitata","ispublic":1,"isfriend":0,"isfamily":0},{"id":"51732082004","owner":"55286571@N00","secret":"c2a9a7352f","server":"65535","farm":66,"title":"Yellow-billed Cardinal","ispublic":1,"isfriend":0,"isfamily":0},{"id":"51684545881","owner":"27480477@N07","secret":"e3358093fe","server":"65535","farm":66,"title":"9K0A4026 Yellow-Billed Cardinal, Paroaria capitata.","ispublic":1,"isfriend":0,"isfamily":0},{"id":"51520585727","owner":"61316002@N02","secret":"d14f98355d","server":"65535","farm":66,"title":"YELBILCAR fuscipes 1092","ispublic":1,"isfriend":0,"isfamily":0},{"id":"51389762609","owner":"165841515@N03","secret":"0b2048b8fd","server":"65535","farm":66,"title":"Paroare a\u0300 bec jaune \/ Yellow-billed Cardinal \/ (Paroaria capitata)","ispublic":1,"isfriend":0,"isfamily":0},{"id":"51201197522","owner":"32805478@N03","secret":"0c8458daa6","server":"65535","farm":66,"title":"Cardenilla piquigualda, Paroaria capitata, Yellow-billed Cardinal","ispublic":1,"isfriend":0,"isfamily":0},{"id":"51187448046","owner":"189304108@N05","secret":"d402cc4624","server":"65535","farm":66,"title":"Pajaritos del Iber\u00e1: Cardenilla","ispublic":1,"isfriend":0,"isfamily":0},{"id":"51154937234","owner":"190911304@N02","secret":"be24c736bd","server":"65535","farm":66,"title":"Cardenalilla (Paroaria capitata).jpg","ispublic":1,"isfriend":0,"isfamily":0},{"id":"51116952258","owner":"32805478@N03","secret":"95de2538d0","server":"65535","farm":66,"title":"Cardenilla piquigualda, Paroaria capitata, Yellow-billed Cardinal","ispublic":1,"isfriend":0,"isfamily":0},{"id":"50996991035","owner":"149080177@N06","secret":"29510a031d","server":"65535","farm":66,"title":"Time to go","ispublic":1,"isfriend":0,"isfamily":0},{"id":"51042919323","owner":"137249943@N07","secret":"2a248055f1","server":"65535","farm":66,"title":"Yellow-billed cardinal, Paroare \u00e0 bec jaune (perch\u00e9)","ispublic":1,"isfriend":0,"isfamily":0},{"id":"50788574798","owner":"21182099@N05","secret":"af8bc8bce5","server":"65535","farm":66,"title":"Yellow-billed Cardinal (Paroaria capitata)","ispublic":1,"isfriend":0,"isfamily":0},{"id":"50717421893","owner":"155025481@N05","secret":"43ac2c9abf","server":"65535","farm":66,"title":"Yellow billed cardinal","ispublic":1,"isfriend":0,"isfamily":0},{"id":"50704357308","owner":"25531047@N00","secret":"3a41b689f5","server":"65535","farm":66,"title":"Yellow-billed cardinal","ispublic":1,"isfriend":0,"isfamily":0},{"id":"50537112823","owner":"56686021@N04","secret":"5a7d8bdcb2","server":"65535","farm":66,"title":"Yellow-billed Cardinal","ispublic":1,"isfriend":0,"isfamily":0},{"id":"50405098158","owner":"84237742@N00","secret":"45697b505b","server":"65535","farm":66,"title":"- CARDENILLA  - ( Paroaria capitata - Yellow-billed Cardinal )  toma en RESERVA ecologica COSTANERA SUR  RECS.! Buenos Aires.","ispublic":1,"isfriend":0,"isfamily":0},{"id":"50405949167","owner":"84237742@N00","secret":"0e625104d0","server":"65535","farm":66,"title":"- CONTRALUZ DE CARDENILLA con Reflejos solares (flare) -( Paroaria capitata - Yellow-billed Cardinal )  toma en RESERVA ecologica COSTANERA SUR  RECS.! Buenos Aires.","ispublic":1,"isfriend":0,"isfamily":0},{"id":"50241181282","owner":"137249943@N07","secret":"d8ca982cef","server":"65535","farm":66,"title":"Yellow-billed cardinal, Paroare \u00e0 bec jaune","ispublic":1,"isfriend":0,"isfamily":0},{"id":"50149350296","owner":"81126336@N00","secret":"41b72b6031","server":"65535","farm":66,"title":"Cavalaria \/ Yellow-billed Cardinal","ispublic":1,"isfriend":0,"isfamily":0},{"id":"50093816967","owner":"42964440@N08","secret":"d09cf7c968","server":"65535","farm":66,"title":"Yellow-billed Cardinal (Paroaria capitata)","ispublic":1,"isfriend":0,"isfamily":0},{"id":"49806551088","owner":"9765210@N03","secret":"290f6dfbea","server":"65535","farm":66,"title":"Yellow-billed Cardinal (Paroaria capitata)","ispublic":1,"isfriend":0,"isfamily":0},{"id":"49710972422","owner":"75129988@N00","secret":"eb17df97ac","server":"65535","farm":66,"title":"Yellow-billed Cardinal (4302)","ispublic":1,"isfriend":0,"isfamily":0},{"id":"49700580898","owner":"52796122@N06","secret":"2ba47492e6","server":"65535","farm":66,"title":"Yellow-billed Cardinal (Paroaria capitata)","ispublic":1,"isfriend":0,"isfamily":0},{"id":"49622059472","owner":"61827574@N03","secret":"7ce0459058","server":"65535","farm":66,"title":"Yellow-billed Cardinal Paroaria capitata","ispublic":1,"isfriend":0,"isfamily":0},{"id":"49608448026","owner":"77762547@N00","secret":"f877082a70","server":"65535","farm":66,"title":"Yellow-billed cardinal with juvenile - Geelsnavelkardinaal metr jong (Paroaria capitata) ...","ispublic":1,"isfriend":0,"isfamily":0},{"id":"49566723076","owner":"25560465@N08","secret":"41b007b27a","server":"65535","farm":66,"title":"Cardenilla","ispublic":1,"isfriend":0,"isfamily":0},{"id":"49418181532","owner":"16854222@N05","secret":"99625a72d9","server":"65535","farm":66,"title":"A Posing Beauty","ispublic":1,"isfriend":0,"isfamily":0},{"id":"49102382352","owner":"145157152@N06","secret":"d30136cb8d","server":"65535","farm":66,"title":"D50_7440.jpg","ispublic":1,"isfriend":0,"isfamily":0},{"id":"52625037595","owner":"154657265@N08","secret":"a5892f261b","server":"65535","farm":66,"title":"Yellow-billed Cardinal - Paroaria capitata","ispublic":1,"isfriend":0,"isfamily":0},{"id":"52621953492","owner":"62043870@N05","secret":"9ff02c6d20","server":"65535","farm":66,"title":"Yellow-billed Cardinal, Paroaria capitata","ispublic":1,"isfriend":0,"isfamily":0},{"id":"52540872000","owner":"50124355@N02","secret":"4a95a34476","server":"65535","farm":66,"title":"Yellow-billed cardinal | Mantelkardinal (Paroaria capitata), Brasilien 2010","ispublic":1,"isfriend":0,"isfamily":0},{"id":"52540683994","owner":"50124355@N02","secret":"f01bcc414e","server":"65535","farm":66,"title":"Yellow-billed cardinal | Mantelkardinal (Paroaria capitata), Brasilien 2010","ispublic":1,"isfriend":0,"isfamily":0},{"id":"52506605111","owner":"182381287@N07","secret":"963daea795","server":"65535","farm":66,"title":"Cavalaria (Paroaria capitata)","ispublic":1,"isfriend":0,"isfamily":0},{"id":"52493669872","owner":"38032433@N07","secret":"42d072579f","server":"65535","farm":66,"title":"BG4R0175.jpg","ispublic":1,"isfriend":0,"isfamily":0},{"id":"52421096300","owner":"124732887@N02","secret":"94b93f1d5e","server":"65535","farm":66,"title":"Yellow-billed Cardinal","ispublic":1,"isfriend":0,"isfamily":0},{"id":"52420932359","owner":"124732887@N02","secret":"3f8fb5e6b6","server":"65535","farm":66,"title":"Yellow-billed Cardinal","ispublic":1,"isfriend":0,"isfamily":0},{"id":"52419393006","owner":"124732887@N02","secret":"10d34413bd","server":"65535","farm":66,"title":"Yellow-billed Cardinal","ispublic":1,"isfriend":0,"isfamily":0},{"id":"52418879482","owner":"124732887@N02","secret":"522730ecd3","server":"65535","farm":66,"title":"Yellow-billed Cardinal","ispublic":1,"isfriend":0,"isfamily":0},{"id":"52419831415","owner":"124732887@N02","secret":"cbae17002f","server":"65535","farm":66,"title":"Yellow-billed Cardinal","ispublic":1,"isfriend":0,"isfamily":0},{"id":"52419831200","owner":"124732887@N02","secret":"a271a6b20c","server":"65535","farm":66,"title":"Yellow-billed Cardinal","ispublic":1,"isfriend":0,"isfamily":0},{"id":"52395501573","owner":"188958062@N05","secret":"fb30315db1","server":"65535","farm":66,"title":"Yellow-Billed Cardinal, Paroaria capitata","ispublic":1,"isfriend":0,"isfamily":0},{"id":"52351246461","owner":"190911304@N02","secret":"c30f80af1d","server":"65535","farm":66,"title":"Cardenilla - Paroaria capitata.jpg","ispublic":1,"isfriend":0,"isfamily":0},{"id":"52318421613","owner":"93244858@N00","secret":"5d21938ff4","server":"65535","farm":66,"title":"Yellow-billed Cardinal (Paroaria capitata)","ispublic":1,"isfriend":0,"isfamily":0},{"id":"52210805660","owner":"187346531@N05","secret":"3994def39c","server":"65535","farm":66,"title":"cavalaria (Paroaria capitata) leuc\u00edstico","ispublic":1,"isfriend":0,"isfamily":0},{"id":"52210339998","owner":"187346531@N05","secret":"7d880dce0a","server":"65535","farm":66,"title":"cavalaria (Paroaria capitata)","ispublic":1,"isfriend":0,"isfamily":0},{"id":"52210805320","owner":"187346531@N05","secret":"1bf1c502fb","server":"65535","farm":66,"title":"cavalaria (Paroaria capitata)","ispublic":1,"isfriend":0,"isfamily":0},{"id":"52080255657","owner":"187346531@N05","secret":"f97d2c8b73","server":"65535","farm":66,"title":"cavalaria (Paroaria capitata)","ispublic":1,"isfriend":0,"isfamily":0},{"id":"51963783885","owner":"129553350@N02","secret":"8c5e287b2e","server":"65535","farm":66,"title":"Cardenilla","ispublic":1,"isfriend":0,"isfamily":0},{"id":"51920295481","owner":"195124911@N06","secret":"b1e8ca2b39","server":"65535","farm":66,"title":"cardenilla","ispublic":1,"isfriend":0,"isfamily":0},{"id":"51739167560","owner":"19145980@N00","secret":"8d6572ceaf","server":"65535","farm":66,"title":"Yellow-billed Cardinal","ispublic":1,"isfriend":0,"isfamily":0},{"id":"51524768161","owner":"187140181@N05","secret":"22bc646d3c","server":"65535","farm":66,"title":"Paroaria capitata","ispublic":1,"isfriend":0,"isfamily":0},{"id":"51523954387","owner":"187140181@N05","secret":"16c22cda90","server":"65535","farm":66,"title":"Paroaria capitata","ispublic":1,"isfriend":0,"isfamily":0},{"id":"51525470389","owner":"187140181@N05","secret":"8320cb484a","server":"65535","farm":66,"title":"Paroaria capitata","ispublic":1,"isfriend":0,"isfamily":0},{"id":"51523950987","owner":"187140181@N05","secret":"8317c5b325","server":"65535","farm":66,"title":"Paroaria capitata","ispublic":1,"isfriend":0,"isfamily":0},{"id":"51389279768","owner":"165841515@N03","secret":"d74f64e5bc","server":"65535","farm":66,"title":"Paroare a\u0300 bec jaune \/ Yellow-billed Cardinal \/ (Paroaria capitata)","ispublic":1,"isfriend":0,"isfamily":0},{"id":"51356937905","owner":"192919667@N08","secret":"16e07de4d6","server":"65535","farm":66,"title":"Paroaria capitata","ispublic":1,"isfriend":0,"isfamily":0},{"id":"51283775775","owner":"32805478@N03","secret":"7a1cd75740","server":"65535","farm":66,"title":"Cardenilla piquigualda, Paroaria capitata, Yellow-billed Cardinal","ispublic":1,"isfriend":0,"isfamily":0},{"id":"51178454680","owner":"31704662@N08","secret":"3d204c2e1f","server":"65535","farm":66,"title":"Yellow-billed Cardinal (Paroaria capitata)","ispublic":1,"isfriend":0,"isfamily":0},{"id":"51177364806","owner":"31704662@N08","secret":"9657cd581d","server":"65535","farm":66,"title":"Yellow-billed Cardinal (Paroaria capitata)","ispublic":1,"isfriend":0,"isfamily":0},{"id":"51010735296","owner":"21326038@N03","secret":"9ab626fed3","server":"65535","farm":66,"title":"CJ9A2725 Yellow-billed Cardinal Paroaria capitata","ispublic":1,"isfriend":0,"isfamily":0},{"id":"50679528613","owner":"190734746@N07","secret":"22a48e0a99","server":"65535","farm":66,"title":"Cardenilla (Paroaria capitata)","ispublic":1,"isfriend":0,"isfamily":0},{"id":"50419382073","owner":"84237742@N00","secret":"5b21c6b292","server":"65535","farm":66,"title":"- CARDENILLA  - ( Paroaria capitata - Yellow-billed Cardinal )  toma en RESERVA ecologica COSTANERA SUR  RECS.! Buenos Aires.","ispublic":1,"isfriend":0,"isfamily":0},{"id":"50212779462","owner":"188451439@N02","secret":"53a221a1d1","server":"65535","farm":66,"title":"Yellow-billed Cardinal (Paroaria capitata)","ispublic":1,"isfriend":0,"isfamily":0},{"id":"50125887632","owner":"183047776@N07","secret":"9739a46b48","server":"65535","farm":66,"title":"Cardenilla, juvenil. Paroaria capitata. Yellow-billed Cardinal, juvenile.","ispublic":1,"isfriend":0,"isfamily":0},{"id":"50113519111","owner":"183047776@N07","secret":"46c0b11da8","server":"65535","farm":66,"title":"Cardenilla. Paroaria capitata. Yellow-billed Cardinal.","ispublic":1,"isfriend":0,"isfamily":0},{"id":"49916145746","owner":"55968524@N04","secret":"0b326eb53d","server":"65535","farm":66,"title":"3T9P7791 - Yellow-billed Cardinal - Paroaria capitata.jpg","ispublic":1,"isfriend":0,"isfamily":0},{"id":"49898760728","owner":"188451439@N02","secret":"1165e655c4","server":"65535","farm":66,"title":"Yellow-billed Cardinal (Paroaria capitata)","ispublic":1,"isfriend":0,"isfamily":0},{"id":"49832550461","owner":"56966335@N02","secret":"76e0266dd2","server":"65535","farm":66,"title":"Paroaria capitata","ispublic":1,"isfriend":0,"isfamily":0},{"id":"49719117687","owner":"75129988@N00","secret":"7bc4fa236f","server":"65535","farm":66,"title":"Yellow-billed Cardinal (4342)","ispublic":1,"isfriend":0,"isfamily":0},{"id":"49701548093","owner":"183047776@N07","secret":"62a374da7f","server":"65535","farm":66,"title":"Cardenilla -Paroaria capitata- (Yellow-billed Cardinal)","ispublic":1,"isfriend":0,"isfamily":0},{"id":"49544497547","owner":"131892009@N03","secret":"650b132d79","server":"65535","farm":66,"title":"Cardenilla (Paroaria capitata)","ispublic":1,"isfriend":0,"isfamily":0},{"id":"49535225136","owner":"36996580@N07","secret":"d022aae701","server":"65535","farm":66,"title":"Paroaria capitata 1","ispublic":1,"isfriend":0,"isfamily":0},{"id":"49494941257","owner":"156457454@N02","secret":"e040011dba","server":"65535","farm":66,"title":"Yellow-billed Cardinal","ispublic":1,"isfriend":0,"isfamily":0},{"id":"49494894902","owner":"156457454@N02","secret":"ae92bf47c2","server":"65535","farm":66,"title":"Yellow-billed Cardinal","ispublic":1,"isfriend":0,"isfamily":0},{"id":"49477240013","owner":"186748160@N02","secret":"99353b1c49","server":"65535","farm":66,"title":"Yellow-billed (Paroaria capitata)","ispublic":1,"isfriend":0,"isfamily":0},{"id":"49455243723","owner":"129419861@N06","secret":"735b5fe851","server":"65535","farm":66,"title":"Geelsnavelkardinaal","ispublic":1,"isfriend":0,"isfamily":0},{"id":"49455231163","owner":"129419861@N06","secret":"f4d35dc584","server":"65535","farm":66,"title":"Geelsnavelkardinaal","ispublic":1,"isfriend":0,"isfamily":0},{"id":"49408732436","owner":"12639178@N07","secret":"4c1f5c9c23","server":"65535","farm":66,"title":"Gelbschnabeltangare - Pousada Aguape","ispublic":1,"isfriend":0,"isfamily":0},{"id":"49195733518","owner":"61301322@N08","secret":"671333b70e","server":"65535","farm":66,"title":"Yellow-billed Cardinal (Hotel Pantanal Mato Grosso)","ispublic":1,"isfriend":0,"isfamily":0},{"id":"49102181481","owner":"145157152@N06","secret":"dae8414844","server":"65535","farm":66,"title":"D50_6584.jpg","ispublic":1,"isfriend":0,"isfamily":0},{"id":"49102363982","owner":"145157152@N06","secret":"7576a961be","server":"65535","farm":66,"title":"D50_4481.jpg","ispublic":1,"isfriend":0,"isfamily":0}]},"stat":"ok"}