{"photos":{"page":1,"pages":63,"perpage":100,"total":6239,"photo":[{"id":"52716463735","owner":"8677091@N08","secret":"187cb3eec5","server":"65535","farm":66,"title":"Canario cantando","ispublic":1,"isfriend":0,"isfamily":0},{"id":"52716296649","owner":"8677091@N08","secret":"bee3412451","server":"65535","farm":66,"title":"Canario de Salinas","ispublic":1,"isfriend":0,"isfamily":0},{"id":"52716036581","owner":"8677091@N08","secret":"161ede9c4d","server":"65535","farm":66,"title":"Canario del Manglar","ispublic":1,"isfriend":0,"isfamily":0},{"id":"52716036206","owner":"8677091@N08","secret":"d90b68b5ed","server":"65535","farm":66,"title":"Canario en Punta Salinas","ispublic":1,"isfriend":0,"isfamily":0},{"id":"52715037754","owner":"181824639@N02","secret":"2006a4e823","server":"65535","farm":66,"title":"Paruline jaune ( Setophaga petechia )","ispublic":1,"isfriend":0,"isfamily":0},{"id":"52708442147","owner":"195537536@N03","secret":"30cbb0a7ab","server":"65535","farm":66,"title":"Yellow Warbler (Setophaga petechia): Male (Northern subspecies)","ispublic":1,"isfriend":0,"isfamily":0},{"id":"52705294001","owner":"197742102@N05","secret":"f80a775c16","server":"65535","farm":66,"title":"Paruline jaune - Setophaga petechia - Retenue d\u2019eau Gaschet - Guadeloupe","ispublic":1,"isfriend":0,"isfamily":0},{"id":"52704771607","owner":"197742102@N05","secret":"1a878bab8b","server":"65535","farm":66,"title":"Paruline jaune - Setophaga petechia - Retenue d\u2019eau Gaschet - Guadeloupe","ispublic":1,"isfriend":0,"isfamily":0},{"id":"52675361242","owner":"47078197@N04","secret":"99ab5d5b94","server":"65535","farm":66,"title":"Setophaga petechia aureola (Mangrove Warbler or American Yellow Warbler)","ispublic":1,"isfriend":0,"isfamily":0},{"id":"52676296290","owner":"47078197@N04","secret":"fc583073fb","server":"65535","farm":66,"title":"Setophaga petechia aureola (Mangrove Warbler or American Yellow Warbler)","ispublic":1,"isfriend":0,"isfamily":0},{"id":"52693753075","owner":"71418112@N00","secret":"7d2c2e9b24","server":"65535","farm":66,"title":"Something touched my foot!!","ispublic":1,"isfriend":0,"isfamily":0},{"id":"52691442556","owner":"196786375@N03","secret":"b5bb2edd8e","server":"65535","farm":66,"title":"\"Mangrove\" (Yellow) Warbler","ispublic":1,"isfriend":0,"isfamily":0},{"id":"52691858700","owner":"196786375@N03","secret":"6b6ed43ef1","server":"65535","farm":66,"title":"\"Mangrove\" (Yellow) Warbler","ispublic":1,"isfriend":0,"isfamily":0},{"id":"52690044207","owner":"12185056@N02","secret":"ce81a78f17","server":"65535","farm":66,"title":"Yellow Warbler (Setophaga petechia)","ispublic":1,"isfriend":0,"isfamily":0},{"id":"52689801683","owner":"196786375@N03","secret":"9e8a263c5e","server":"65535","farm":66,"title":"Yellow Warbler (f)","ispublic":1,"isfriend":0,"isfamily":0},{"id":"52686769642","owner":"76617062@N08","secret":"3c570da4b8","server":"65535","farm":66,"title":"1.27751 Paruline jaune (m\u00e2le) \/ Setophaga petechia amnicola \/ Yellow Warbler","ispublic":1,"isfriend":0,"isfamily":0},{"id":"52681144698","owner":"12639178@N07","secret":"cf734c750b","server":"65535","farm":66,"title":"Goldwalds\u00e4nger (?)","ispublic":1,"isfriend":0,"isfamily":0},{"id":"52671142884","owner":"50264295@N06","secret":"3854e9b4ba","server":"65535","farm":66,"title":"Yellow Warbler (Setophaga petechia)- SY, FCA male","ispublic":1,"isfriend":0,"isfamily":0},{"id":"52668725990","owner":"181824639@N02","secret":"5eabd22e19","server":"65535","farm":66,"title":"Paruline jaune ( Setophaga petechia )","ispublic":1,"isfriend":0,"isfamily":0},{"id":"52664279923","owner":"79383179@N03","secret":"ccb9ed1291","server":"65535","farm":66,"title":"Yellow Warbler (Setophaga petechia)","ispublic":1,"isfriend":0,"isfamily":0},{"id":"52650049247","owner":"61062164@N08","secret":"65308464d6","server":"65535","farm":66,"title":"850_6674-NEF_DxO DP2","ispublic":1,"isfriend":0,"isfamily":0},{"id":"52646666498","owner":"187792860@N04","secret":"bedff5777d","server":"65535","farm":66,"title":"Yellow Warbler (Setophaga petechia)","ispublic":1,"isfriend":0,"isfamily":0},{"id":"52637066800","owner":"52450054@N04","secret":"564ee9c836","server":"65535","farm":66,"title":"Yellow Warbler - Setophaga petechia, Galapagos, Ecuador, July 9, 2021","ispublic":1,"isfriend":0,"isfamily":0},{"id":"52625715025","owner":"61062164@N08","secret":"4777533428","server":"65535","farm":66,"title":"850_6681-NEF_DxO DP2","ispublic":1,"isfriend":0,"isfamily":0},{"id":"52595346112","owner":"107784905@N04","secret":"3944539223","server":"65535","farm":66,"title":"Paruline jaune - Hotel Heliconias\/Alajuela\/Costa Rica_20211122_003-1","ispublic":1,"isfriend":0,"isfamily":0},{"id":"52591187492","owner":"29380771@N06","secret":"edf9d5741d","server":"65535","farm":66,"title":"Yellow Warbler Flight in Yellow Tree","ispublic":1,"isfriend":0,"isfamily":0},{"id":"52583020577","owner":"140734051@N08","secret":"a1539cce36","server":"65535","farm":66,"title":"\u041c\u0430\u043d\u0433\u0440\u043e\u0432\u0430\u044f \u0434\u0440\u0435\u0432\u0435\u0441\u043d\u0438\u0446\u0430, Setophaga petechia aureola, Mangrove Warbler \u2640\ufe0f","ispublic":1,"isfriend":0,"isfamily":0},{"id":"52583747564","owner":"140734051@N08","secret":"b5fe98c3f4","server":"65535","farm":66,"title":"\u041c\u0430\u043d\u0433\u0440\u043e\u0432\u0430\u044f \u0434\u0440\u0435\u0432\u0435\u0441\u043d\u0438\u0446\u0430, Setophaga petechia aureola, Mangrove Warbler \u2642\ufe0f","ispublic":1,"isfriend":0,"isfamily":0},{"id":"52583020572","owner":"140734051@N08","secret":"db6aed2a4b","server":"65535","farm":66,"title":"\u041c\u0430\u043d\u0433\u0440\u043e\u0432\u0430\u044f \u0434\u0440\u0435\u0432\u0435\u0441\u043d\u0438\u0446\u0430, Setophaga petechia aureola, Mangrove Warbler \u2642\ufe0f","ispublic":1,"isfriend":0,"isfamily":0},{"id":"52583923130","owner":"140734051@N08","secret":"13eecf9e22","server":"65535","farm":66,"title":"\u041c\u0430\u043d\u0433\u0440\u043e\u0432\u0430\u044f \u0434\u0440\u0435\u0432\u0435\u0441\u043d\u0438\u0446\u0430, Setophaga petechia aureola, Mangrove Warbler \u2642\ufe0f","ispublic":1,"isfriend":0,"isfamily":0},{"id":"52583746954","owner":"140734051@N08","secret":"1c49b4aabf","server":"65535","farm":66,"title":"\u041c\u0430\u043d\u0433\u0440\u043e\u0432\u0430\u044f \u0434\u0440\u0435\u0432\u0435\u0441\u043d\u0438\u0446\u0430, Setophaga petechia aureola, Mangrove Warbler \u2642\ufe0f","ispublic":1,"isfriend":0,"isfamily":0},{"id":"52584001363","owner":"140734051@N08","secret":"a9d479d7aa","server":"65535","farm":66,"title":"\u041c\u0430\u043d\u0433\u0440\u043e\u0432\u0430\u044f \u0434\u0440\u0435\u0432\u0435\u0441\u043d\u0438\u0446\u0430, Setophaga petechia aureola, Mangrove Warbler \u2642\ufe0f","ispublic":1,"isfriend":0,"isfamily":0},{"id":"52583746769","owner":"140734051@N08","secret":"3453580c41","server":"65535","farm":66,"title":"\u041c\u0430\u043d\u0433\u0440\u043e\u0432\u0430\u044f \u0434\u0440\u0435\u0432\u0435\u0441\u043d\u0438\u0446\u0430, Setophaga petechia aureola, Mangrove Warbler \u2642\ufe0f","ispublic":1,"isfriend":0,"isfamily":0},{"id":"52583484051","owner":"140734051@N08","secret":"f8f1d4512a","server":"65535","farm":66,"title":"\u041c\u0430\u043d\u0433\u0440\u043e\u0432\u0430\u044f \u0434\u0440\u0435\u0432\u0435\u0441\u043d\u0438\u0446\u0430, Setophaga petechia aureola, Mangrove Warbler \u2642\ufe0f","ispublic":1,"isfriend":0,"isfamily":0},{"id":"52581473751","owner":"140734051@N08","secret":"6d41f80d76","server":"65535","farm":66,"title":"\u041c\u0430\u043d\u0433\u0440\u043e\u0432\u0430\u044f \u0434\u0440\u0435\u0432\u0435\u0441\u043d\u0438\u0446\u0430, Setophaga petechia aureola, Mangrove Warbler \u2642\ufe0f","ispublic":1,"isfriend":0,"isfamily":0},{"id":"52581736019","owner":"140734051@N08","secret":"1b1f89ac3c","server":"65535","farm":66,"title":"\u041c\u0430\u043d\u0433\u0440\u043e\u0432\u0430\u044f \u0434\u0440\u0435\u0432\u0435\u0441\u043d\u0438\u0446\u0430, Setophaga petechia aureola, Mangrove Warbler \u2642\ufe0f","ispublic":1,"isfriend":0,"isfamily":0},{"id":"52581909005","owner":"140734051@N08","secret":"6336a7e445","server":"65535","farm":66,"title":"\u041c\u0430\u043d\u0433\u0440\u043e\u0432\u0430\u044f \u0434\u0440\u0435\u0432\u0435\u0441\u043d\u0438\u0446\u0430, Setophaga petechia aureola, Mangrove Warbler \u2642\ufe0f","ispublic":1,"isfriend":0,"isfamily":0},{"id":"52581908945","owner":"140734051@N08","secret":"25f35b0c5b","server":"65535","farm":66,"title":"\u041c\u0430\u043d\u0433\u0440\u043e\u0432\u0430\u044f \u0434\u0440\u0435\u0432\u0435\u0441\u043d\u0438\u0446\u0430, Setophaga petechia aureola, Mangrove Warbler \u2642\ufe0f","ispublic":1,"isfriend":0,"isfamily":0},{"id":"52581908900","owner":"140734051@N08","secret":"9ea5025a85","server":"65535","farm":66,"title":"\u041c\u0430\u043d\u0433\u0440\u043e\u0432\u0430\u044f \u0434\u0440\u0435\u0432\u0435\u0441\u043d\u0438\u0446\u0430, Setophaga petechia aureola, Mangrove Warbler \u2640\ufe0f","ispublic":1,"isfriend":0,"isfamily":0},{"id":"52581735739","owner":"140734051@N08","secret":"723fb14592","server":"65535","farm":66,"title":"\u041c\u0430\u043d\u0433\u0440\u043e\u0432\u0430\u044f \u0434\u0440\u0435\u0432\u0435\u0441\u043d\u0438\u0446\u0430, Setophaga petechia aureola, Mangrove Warbler \u2640\ufe0f","ispublic":1,"isfriend":0,"isfamily":0},{"id":"52581908730","owner":"140734051@N08","secret":"203346038c","server":"65535","farm":66,"title":"\u041c\u0430\u043d\u0433\u0440\u043e\u0432\u0430\u044f \u0434\u0440\u0435\u0432\u0435\u0441\u043d\u0438\u0446\u0430, Setophaga petechia aureola, Mangrove Warbler \u2642\ufe0f","ispublic":1,"isfriend":0,"isfamily":0},{"id":"52581735599","owner":"140734051@N08","secret":"91200cb1ca","server":"65535","farm":66,"title":"\u041c\u0430\u043d\u0433\u0440\u043e\u0432\u0430\u044f \u0434\u0440\u0435\u0432\u0435\u0441\u043d\u0438\u0446\u0430, Setophaga petechia aureola, Mangrove Warbler \u2642\ufe0f","ispublic":1,"isfriend":0,"isfamily":0},{"id":"52581989973","owner":"140734051@N08","secret":"2003a08e1d","server":"65535","farm":66,"title":"\u041c\u0430\u043d\u0433\u0440\u043e\u0432\u0430\u044f \u0434\u0440\u0435\u0432\u0435\u0441\u043d\u0438\u0446\u0430, Setophaga petechia aureola, Mangrove Warbler \u2642\ufe0f","ispublic":1,"isfriend":0,"isfamily":0},{"id":"52580181333","owner":"140734051@N08","secret":"b3c10e6e47","server":"65535","farm":66,"title":"\u041c\u0430\u043d\u0433\u0440\u043e\u0432\u0430\u044f \u0434\u0440\u0435\u0432\u0435\u0441\u043d\u0438\u0446\u0430, Setophaga petechia aureola, Mangrove Warbler \u2640\ufe0f","ispublic":1,"isfriend":0,"isfamily":0},{"id":"52579194072","owner":"140734051@N08","secret":"7ee446cbe1","server":"65535","farm":66,"title":"\u041c\u0430\u043d\u0433\u0440\u043e\u0432\u0430\u044f \u0434\u0440\u0435\u0432\u0435\u0441\u043d\u0438\u0446\u0430, Setophaga petechia aureola, Mangrove Warbler \u2640\ufe0f","ispublic":1,"isfriend":0,"isfamily":0},{"id":"52580180868","owner":"140734051@N08","secret":"0053c4e901","server":"65535","farm":66,"title":"\u041c\u0430\u043d\u0433\u0440\u043e\u0432\u0430\u044f \u0434\u0440\u0435\u0432\u0435\u0441\u043d\u0438\u0446\u0430, Setophaga petechia aureola, Mangrove Warbler \u2642\ufe0f","ispublic":1,"isfriend":0,"isfamily":0},{"id":"52579925144","owner":"140734051@N08","secret":"69b08afa7c","server":"65535","farm":66,"title":"\u041c\u0430\u043d\u0433\u0440\u043e\u0432\u0430\u044f \u0434\u0440\u0435\u0432\u0435\u0441\u043d\u0438\u0446\u0430, Setophaga petechia aureola, Mangrove Warbler \u2642\ufe0f","ispublic":1,"isfriend":0,"isfamily":0},{"id":"52579924909","owner":"140734051@N08","secret":"b0e06e22ef","server":"65535","farm":66,"title":"\u041c\u0430\u043d\u0433\u0440\u043e\u0432\u0430\u044f \u0434\u0440\u0435\u0432\u0435\u0441\u043d\u0438\u0446\u0430, Setophaga petechia aureola, Mangrove Warbler \u2642\ufe0f","ispublic":1,"isfriend":0,"isfamily":0},{"id":"52580096370","owner":"140734051@N08","secret":"42663d514b","server":"65535","farm":66,"title":"\u041c\u0430\u043d\u0433\u0440\u043e\u0432\u0430\u044f \u0434\u0440\u0435\u0432\u0435\u0441\u043d\u0438\u0446\u0430, Setophaga petechia aureola, Mangrove Warbler \u2640\ufe0f","ispublic":1,"isfriend":0,"isfamily":0},{"id":"52579656301","owner":"140734051@N08","secret":"ef4517bd64","server":"65535","farm":66,"title":"\u041c\u0430\u043d\u0433\u0440\u043e\u0432\u0430\u044f \u0434\u0440\u0435\u0432\u0435\u0441\u043d\u0438\u0446\u0430, Setophaga petechia aureola, Mangrove Warbler \u2642\ufe0f","ispublic":1,"isfriend":0,"isfamily":0},{"id":"52579924399","owner":"140734051@N08","secret":"56c20088d8","server":"65535","farm":66,"title":"\u041c\u0430\u043d\u0433\u0440\u043e\u0432\u0430\u044f \u0434\u0440\u0435\u0432\u0435\u0441\u043d\u0438\u0446\u0430, Setophaga petechia aureola, Mangrove Warbler \u2642\ufe0f","ispublic":1,"isfriend":0,"isfamily":0},{"id":"52580179783","owner":"140734051@N08","secret":"05b9db4b0a","server":"65535","farm":66,"title":"\u041c\u0430\u043d\u0433\u0440\u043e\u0432\u0430\u044f \u0434\u0440\u0435\u0432\u0435\u0441\u043d\u0438\u0446\u0430, Setophaga petechia aureola, Mangrove Warbler \u2642\ufe0f","ispublic":1,"isfriend":0,"isfamily":0},{"id":"52562312726","owner":"33610210@N05","secret":"e569cebf93","server":"65535","farm":66,"title":"Yellow Warbler, Setophaga petechia","ispublic":1,"isfriend":0,"isfamily":0},{"id":"52553993647","owner":"99572859@N08","secret":"3f032c3644","server":"65535","farm":66,"title":"Yellow warbler","ispublic":1,"isfriend":0,"isfamily":0},{"id":"52550774508","owner":"28845654@N08","secret":"3b48a63a6f","server":"65535","farm":66,"title":"GIANT TORTOISE 1","ispublic":1,"isfriend":0,"isfamily":0},{"id":"52520534827","owner":"65788177@N02","secret":"93df33176c","server":"65535","farm":66,"title":"Yellow Warbler (Mangrove)","ispublic":1,"isfriend":0,"isfamily":0},{"id":"52494334161","owner":"181824639@N02","secret":"26391b98bd","server":"65535","farm":66,"title":"Paruline jaune ( Setophaga petechia )","ispublic":1,"isfriend":0,"isfamily":0},{"id":"52489755062","owner":"187792860@N04","secret":"7ce1091a39","server":"65535","farm":66,"title":"Yellow Warbler (Setophaga petechia)","ispublic":1,"isfriend":0,"isfamily":0},{"id":"52454471584","owner":"51928691@N04","secret":"b1ac1d2d65","server":"65535","farm":66,"title":"Yellow Warbler (Setophaga petechia) 1 092822","ispublic":1,"isfriend":0,"isfamily":0},{"id":"52453679327","owner":"51928691@N04","secret":"ee7f26c96a","server":"65535","farm":66,"title":"Yellow Warbler (Setophaga petechia) 2 092822","ispublic":1,"isfriend":0,"isfamily":0},{"id":"52447948651","owner":"187792860@N04","secret":"21c6f98c9b","server":"65535","farm":66,"title":"Yellow Warbler (Setophaga petechia)","ispublic":1,"isfriend":0,"isfamily":0},{"id":"52446195244","owner":"187792860@N04","secret":"4b373df8f0","server":"65535","farm":66,"title":"Yellow Warbler (Setophaga petechia)","ispublic":1,"isfriend":0,"isfamily":0},{"id":"52435832626","owner":"98675522@N06","secret":"6633e8eb75","server":"65535","farm":66,"title":"Close Encounter","ispublic":1,"isfriend":0,"isfamily":0},{"id":"52435614771","owner":"187792860@N04","secret":"4b85a55b71","server":"65535","farm":66,"title":"Yellow Warbler (Setophaga petechia)","ispublic":1,"isfriend":0,"isfamily":0},{"id":"52429993649","owner":"107784905@N04","secret":"d8cc585ff4","server":"65535","farm":66,"title":"Paruline jaune - Manuel Antonio\/Puntarenas\/Costa Rica_20211116_002-1","ispublic":1,"isfriend":0,"isfamily":0},{"id":"52429460844","owner":"187792860@N04","secret":"7b4abb745d","server":"65535","farm":66,"title":"Yellow Warbler (Setophaga petechia)","ispublic":1,"isfriend":0,"isfamily":0},{"id":"52427933385","owner":"39177293@N03","secret":"f3f149d179","server":"65535","farm":66,"title":"Yellow Warbler","ispublic":1,"isfriend":0,"isfamily":0},{"id":"52425217860","owner":"129051288@N05","secret":"f673bb2e0a","server":"65535","farm":66,"title":"Paruline jaune, Setophaga petechia Setophaga, Yellow Warbler","ispublic":1,"isfriend":0,"isfamily":0},{"id":"52423136100","owner":"187792860@N04","secret":"30dcb14076","server":"65535","farm":66,"title":"Yellow Warbler (Setophaga petechia)","ispublic":1,"isfriend":0,"isfamily":0},{"id":"52414867753","owner":"103722035@N06","secret":"fb736fc0d7","server":"0","farm":0,"title":"Yellow Warbler (Setophaga petechia), Arroyo Laguna, Hearst San Simeon State Park, CA","ispublic":1,"isfriend":0,"isfamily":0},{"id":"52414252506","owner":"103263246@N06","secret":"72e8886d53","server":"65535","farm":66,"title":"Reinita Amarilla, Cazadora, Cazadorcilla. Setophaga petechia. Yellow Warbler. Hembra","ispublic":1,"isfriend":0,"isfamily":0},{"id":"52411955098","owner":"34238008@N02","secret":"8d9ec33f41","server":"65535","farm":66,"title":"Yellow Warbler (Setophaga petechia)","ispublic":1,"isfriend":0,"isfamily":0},{"id":"52411726934","owner":"34238008@N02","secret":"a25f2a6e88","server":"65535","farm":66,"title":"Yellow Warbler (Setophaga petechia)","ispublic":1,"isfriend":0,"isfamily":0},{"id":"52407631965","owner":"69812270@N00","secret":"1715765962","server":"65535","farm":66,"title":"Yellow Warbler, San Lorenzo River, Santa Cruz","ispublic":1,"isfriend":0,"isfamily":0},{"id":"52397246018","owner":"62043870@N05","secret":"6cd1fe14b6","server":"65535","farm":66,"title":"Yellow Warbler, Setophaga petechia","ispublic":1,"isfriend":0,"isfamily":0},{"id":"52391231509","owner":"51986662@N05","secret":"d6a7d38770","server":"65535","farm":66,"title":"Yellow Warbler Lake Andes Wetland Management District South Dakota","ispublic":1,"isfriend":0,"isfamily":0},{"id":"52379900578","owner":"103722035@N06","secret":"04fe41474b","server":"0","farm":0,"title":"Yellow Warbler (Setophaga petechia), Morro Bay, CA","ispublic":1,"isfriend":0,"isfamily":0},{"id":"52379156410","owner":"76288515@N07","secret":"d29800e06f","server":"65535","farm":66,"title":"Yellow Warbler Setophaga petechia","ispublic":1,"isfriend":0,"isfamily":0},{"id":"52375375019","owner":"196264892@N08","secret":"282bf9e054","server":"65535","farm":66,"title":"Yellow Warbler","ispublic":1,"isfriend":0,"isfamily":0},{"id":"52372184922","owner":"42622112@N08","secret":"5e621f7390","server":"65535","farm":66,"title":"Canario del Manglar \/ American Yellow Warbler \/ Setophaga petechia","ispublic":1,"isfriend":0,"isfamily":0},{"id":"52371171444","owner":"62043870@N05","secret":"09021b630b","server":"65535","farm":66,"title":"Yellow Warbler, Setophaga petechia","ispublic":1,"isfriend":0,"isfamily":0},{"id":"52583485121","owner":"140734051@N08","secret":"b7945a15ce","server":"65535","farm":66,"title":"\u041c\u0430\u043d\u0433\u0440\u043e\u0432\u0430\u044f \u0434\u0440\u0435\u0432\u0435\u0441\u043d\u0438\u0446\u0430, Setophaga petechia aureola, Mangrove Warbler \u2642\ufe0f","ispublic":1,"isfriend":0,"isfamily":0},{"id":"52581473621","owner":"140734051@N08","secret":"2a7009808f","server":"65535","farm":66,"title":"\u041c\u0430\u043d\u0433\u0440\u043e\u0432\u0430\u044f \u0434\u0440\u0435\u0432\u0435\u0441\u043d\u0438\u0446\u0430, Setophaga petechia aureola, Mangrove Warbler \u2642\ufe0f","ispublic":1,"isfriend":0,"isfamily":0},{"id":"52580606009","owner":"153973412@N04","secret":"7e472dcd5b","server":"65535","farm":66,"title":"Yellow Warbler-Setophaga petechia, Iowa City, IA","ispublic":1,"isfriend":0,"isfamily":0},{"id":"52553994662","owner":"99572859@N08","secret":"43ba24950f","server":"65535","farm":66,"title":"Yellow warbler","ispublic":1,"isfriend":0,"isfamily":0},{"id":"52553392856","owner":"62759448@N05","secret":"6d524fcc01","server":"65535","farm":66,"title":"Yellow Warbler Setophaga petechia","ispublic":1,"isfriend":0,"isfamily":0},{"id":"52530053707","owner":"33610210@N05","secret":"07f78b1c38","server":"65535","farm":66,"title":"Yellow Warbler, Setophaga petechia","ispublic":1,"isfriend":0,"isfamily":0},{"id":"52439988444","owner":"131772930@N05","secret":"8fea5726ba","server":"65535","farm":66,"title":"Chipe amarillo (Setophaga petechia)","ispublic":1,"isfriend":0,"isfamily":0},{"id":"52402859067","owner":"65695019@N07","secret":"385b99c11e","server":"65535","farm":66,"title":"Yellow Warbler (Setophaga petechia)","ispublic":1,"isfriend":0,"isfamily":0},{"id":"52426378962","owner":"181824639@N02","secret":"e5ae29e3d2","server":"65535","farm":66,"title":"Paruline jaune ( Setophaga petechia )","ispublic":1,"isfriend":0,"isfamily":0},{"id":"52411168287","owner":"103263246@N06","secret":"7de23f45b5","server":"65535","farm":66,"title":"Reinita Amarilla, Cazadora, Cazadorcilla. Setophaga petechia. Yellow Warbler. Hembra","ispublic":1,"isfriend":0,"isfamily":0},{"id":"52411954323","owner":"34238008@N02","secret":"c4c92727ee","server":"65535","farm":66,"title":"Yellow Warbler (Setophaga petechia)","ispublic":1,"isfriend":0,"isfamily":0},{"id":"52411885510","owner":"34238008@N02","secret":"22c1c51f6a","server":"65535","farm":66,"title":"Yellow Warbler (Setophaga petechia)","ispublic":1,"isfriend":0,"isfamily":0},{"id":"52388783526","owner":"156457454@N02","secret":"f67124d73a","server":"65535","farm":66,"title":"Setophaga petechia 1 (Yellow Warbler)","ispublic":1,"isfriend":0,"isfamily":0},{"id":"52378966903","owner":"76288515@N07","secret":"34ddb71355","server":"65535","farm":66,"title":"Yellow Warbler Setophaga petechia","ispublic":1,"isfriend":0,"isfamily":0},{"id":"52378966838","owner":"76288515@N07","secret":"7d527b0576","server":"65535","farm":66,"title":"Yellow Warbler Setophaga petechia","ispublic":1,"isfriend":0,"isfamily":0},{"id":"52373499599","owner":"42622112@N08","secret":"7d132bfed3","server":"65535","farm":66,"title":"Canario del Manglar \/ American Yellow Warbler \/ Setophaga petechia","ispublic":1,"isfriend":0,"isfamily":0},{"id":"52373475424","owner":"42622112@N08","secret":"bd41df7380","server":"65535","farm":66,"title":"Canario del Manglar \/ American Yellow Warbler \/ Setophaga petechia","ispublic":1,"isfriend":0,"isfamily":0},{"id":"52373151871","owner":"42622112@N08","secret":"769c683e4a","server":"65535","farm":66,"title":"Canario del Manglar \/ American Yellow Warbler \/ Setophaga petechia","ispublic":1,"isfriend":0,"isfamily":0},{"id":"52373115811","owner":"42622112@N08","secret":"c74c2fc84b","server":"65535","farm":66,"title":"Canario del Manglar \/ American Yellow Warbler \/ Setophaga petechia","ispublic":1,"isfriend":0,"isfamily":0}]},"stat":"ok"}