{"photos":{"page":1,"pages":39,"perpage":100,"total":3859,"photo":[{"id":"52719779880","owner":"12639178@N07","secret":"a760b2a522","server":"65535","farm":66,"title":"Gelbbauch-Saftlecker","ispublic":1,"isfriend":0,"isfamily":0},{"id":"52714151272","owner":"93273765@N05","secret":"42ac93b984","server":"65535","farm":66,"title":"Yellow-bellied Sapsucker (Sphyrapicus varius)","ispublic":1,"isfriend":0,"isfamily":0},{"id":"52711974993","owner":"183736567@N07","secret":"f1a2728a74","server":"65535","farm":66,"title":"Yellow-bellied Sapsucker (Sphyrapicus varius) immature male working on a sap well","ispublic":1,"isfriend":0,"isfamily":0},{"id":"52711914255","owner":"183736567@N07","secret":"a7475c8ed7","server":"65535","farm":66,"title":"Yellow-bellied Sapsucker (Sphyrapicus varius) immature male resting after working on a sap well","ispublic":1,"isfriend":0,"isfamily":0},{"id":"52705617496","owner":"33610210@N05","secret":"b6551f36a2","server":"65535","farm":66,"title":"Yellow-bellied Sapsucker, Sphyrapicus varius","ispublic":1,"isfriend":0,"isfamily":0},{"id":"52706030090","owner":"33610210@N05","secret":"b65bd36e10","server":"65535","farm":66,"title":"Yellow-bellied Sapsucker, Sphyrapicus varius","ispublic":1,"isfriend":0,"isfamily":0},{"id":"52706107418","owner":"33610210@N05","secret":"2b067dfeea","server":"65535","farm":66,"title":"Yellow-bellied Sapsucker, Sphyrapicus varius","ispublic":1,"isfriend":0,"isfamily":0},{"id":"52693032318","owner":"89536386@N08","secret":"5f0e5e0823","server":"65535","farm":66,"title":"Yellow-bellied Sapsucker (Sphyrapicus varius)","ispublic":1,"isfriend":0,"isfamily":0},{"id":"52688373455","owner":"62043870@N05","secret":"020abd1748","server":"65535","farm":66,"title":"Yellow-bellied Sapsucker, Sphyrapicus varius","ispublic":1,"isfriend":0,"isfamily":0},{"id":"52688372435","owner":"62043870@N05","secret":"b2e7219989","server":"65535","farm":66,"title":"Yellow-bellied Sapsucker, Sphyrapicus varius","ispublic":1,"isfriend":0,"isfamily":0},{"id":"52687951356","owner":"62043870@N05","secret":"90a0ae35fb","server":"65535","farm":66,"title":"Yellow-bellied Sapsucker, Sphyrapicus varius","ispublic":1,"isfriend":0,"isfamily":0},{"id":"52678412322","owner":"47533293@N04","secret":"f0819a14f9","server":"65535","farm":66,"title":"Yellow-bellied sapsucker, Sphyrapicus varius","ispublic":1,"isfriend":0,"isfamily":0},{"id":"52671764338","owner":"10336659@N04","secret":"91839a0f19","server":"65535","farm":66,"title":"Forest Jewel. Yellow-bellied Sapsucker (Sphyrapicus varius) at Green Cay Nature Preserve.","ispublic":1,"isfriend":0,"isfamily":0},{"id":"52670132798","owner":"44034115@N08","secret":"dc5fc0f75f","server":"65535","farm":66,"title":"Yellow-bellied Sapsucker Senses All","ispublic":1,"isfriend":0,"isfamily":0},{"id":"52667797419","owner":"48014585@N00","secret":"8f3ab2eeeb","server":"65535","farm":66,"title":"Yellow-bellied Sapsucker","ispublic":1,"isfriend":0,"isfamily":0},{"id":"52667797389","owner":"48014585@N00","secret":"6f92b9e17b","server":"65535","farm":66,"title":"Yellow-bellied Sapsucker","ispublic":1,"isfriend":0,"isfamily":0},{"id":"52667797314","owner":"48014585@N00","secret":"f1cd905eeb","server":"65535","farm":66,"title":"Yellow-bellied Sapsucker","ispublic":1,"isfriend":0,"isfamily":0},{"id":"52666197664","owner":"136180232@N08","secret":"7029571b63","server":"65535","farm":66,"title":"Yellow-bellied Sapsucker (Sphyrapicus varius) JTE_2021","ispublic":1,"isfriend":0,"isfamily":0},{"id":"52663423452","owner":"18378985@N08","secret":"d85f606206","server":"65535","farm":66,"title":"Yellow-bellied Sapsucker at the Grant Park feeder","ispublic":1,"isfriend":0,"isfamily":0},{"id":"52657023503","owner":"8378957@N02","secret":"d243027749","server":"65535","farm":66,"title":"Yellow-bellied Sapsucker","ispublic":1,"isfriend":0,"isfamily":0},{"id":"52656035197","owner":"8378957@N02","secret":"c5dc0dc684","server":"65535","farm":66,"title":"Yellow-bellied Sapsucker","ispublic":1,"isfriend":0,"isfamily":0},{"id":"52657005168","owner":"8378957@N02","secret":"54a0155ef9","server":"65535","farm":66,"title":"Yellow-bellied Sapsucker","ispublic":1,"isfriend":0,"isfamily":0},{"id":"52654762802","owner":"8378957@N02","secret":"9d162a1b8b","server":"65535","farm":66,"title":"Yellow-bellied Sapsucker","ispublic":1,"isfriend":0,"isfamily":0},{"id":"52653836865","owner":"103722035@N06","secret":"78e995676c","server":"65535","farm":66,"title":"Yellow-bellied Sapsucker (Sphyrapicus varius), juvenile, Arroyo Grande, CA","ispublic":1,"isfriend":0,"isfamily":0},{"id":"52653880838","owner":"103722035@N06","secret":"bd4cd471db","server":"65535","farm":66,"title":"Yellow-bellied Sapsucker (Sphyrapicus varius), juvenile, Arroyo Grande, CA","ispublic":1,"isfriend":0,"isfamily":0},{"id":"52653273881","owner":"103722035@N06","secret":"e15e17b252","server":"0","farm":0,"title":"Yellow-bellied Sapsucker (Sphyrapicus varius), juvenile, Arroyo Grande, CA","ispublic":1,"isfriend":0,"isfamily":0},{"id":"52650964146","owner":"39511843@N07","secret":"e46e87410b","server":"65535","farm":66,"title":"20230125-Yellow-bellied Sapsucker (Sphyrapicus varius) on Live Oak","ispublic":1,"isfriend":0,"isfamily":0},{"id":"52615577359","owner":"49114357@N08","secret":"be5e9fbe55","server":"65535","farm":66,"title":"Yellow-bellied Sapsucker","ispublic":1,"isfriend":0,"isfamily":0},{"id":"52646765779","owner":"71649471@N02","secret":"7e73e470c8","server":"65535","farm":66,"title":"Yellow-bellied Sapsucker","ispublic":1,"isfriend":0,"isfamily":0},{"id":"52645075865","owner":"8013969@N03","secret":"c43ea620a5","server":"65535","farm":66,"title":"Sphyrapicus varius DFL ny22-1","ispublic":1,"isfriend":0,"isfamily":0},{"id":"52644892964","owner":"8013969@N03","secret":"f1d8496984","server":"65535","farm":66,"title":"Sphyrapicus varius DFL ny22-2","ispublic":1,"isfriend":0,"isfamily":0},{"id":"52642690821","owner":"69812270@N00","secret":"6b63a14959","server":"65535","farm":66,"title":"Yellow-bellied Sapsucker","ispublic":1,"isfriend":0,"isfamily":0},{"id":"52640504688","owner":"36013467@N07","secret":"9880973f7c","server":"65535","farm":66,"title":"Yellow-bellied Sapsucker (Sphyrapicus varius)","ispublic":1,"isfriend":0,"isfamily":0},{"id":"52639147766","owner":"54249623@N08","secret":"2c93a32a1a","server":"65535","farm":66,"title":"Carpintero Chupasavia, Yellow-bellied Sapsucker (Sphyrapicus varius)","ispublic":1,"isfriend":0,"isfamily":0},{"id":"52637845559","owner":"33573751@N04","secret":"8b73ce2366","server":"65535","farm":66,"title":"Yellow-bellied Sapsucker (Sphyrapicus varius) - Yeehaw Junction, Florida","ispublic":1,"isfriend":0,"isfamily":0},{"id":"52636656187","owner":"33573751@N04","secret":"5ab385788f","server":"65535","farm":66,"title":"Yellow-bellied Sapsucker (Sphyrapicus varius) - Yeehaw Junction, Florida","ispublic":1,"isfriend":0,"isfamily":0},{"id":"52636430482","owner":"33573751@N04","secret":"d9cc7d6f89","server":"65535","farm":66,"title":"Yellow-bellied Sapsucker (Sphyrapicus varius) - Yeehaw Junction, Florida","ispublic":1,"isfriend":0,"isfamily":0},{"id":"52633732934","owner":"32752434@N07","secret":"5f8101b3a3","server":"65535","farm":66,"title":"Yellow-bellied Sapsucker (Sphyrapicus varius)","ispublic":1,"isfriend":0,"isfamily":0},{"id":"52631767826","owner":"44034115@N08","secret":"eb1865ae1b","server":"65535","farm":66,"title":"Sapsucker Doubling Down","ispublic":1,"isfriend":0,"isfamily":0},{"id":"52628109168","owner":"85277889@N08","secret":"65c6f32d12","server":"65535","farm":66,"title":"Yellow-bellied Sapsucker (Sphyrapicus varius) 2023-01-14 (2a)","ispublic":1,"isfriend":0,"isfamily":0},{"id":"52627634281","owner":"85277889@N08","secret":"8519644864","server":"65535","farm":66,"title":"Yellow-bellied Sapsucker (Sphyrapicus varius) 2023-01-14 (5a)","ispublic":1,"isfriend":0,"isfamily":0},{"id":"52627105159","owner":"188966103@N06","secret":"ea37a29c67","server":"65535","farm":66,"title":"Yellow-bellied Sapsucker","ispublic":1,"isfriend":0,"isfamily":0},{"id":"52626994284","owner":"10336659@N04","secret":"febfff4ef0","server":"65535","farm":66,"title":"Forest Jewel. Yellow-bellied Sapsucker (Sphyrapicus varius) at Green Cay Nature Preserve","ispublic":1,"isfriend":0,"isfamily":0},{"id":"52625854221","owner":"71833159@N00","secret":"6114a7800d","server":"65535","farm":66,"title":"Yellow-bellied Sapsucker \/ Sphyrapicus varius, adult male","ispublic":1,"isfriend":0,"isfamily":0},{"id":"52625787034","owner":"51928691@N04","secret":"46e8038f2f","server":"65535","farm":66,"title":"Yellow-bellied Sapsucker (Sphyrapicus varius) 1 122522","ispublic":1,"isfriend":0,"isfamily":0},{"id":"52625539211","owner":"51928691@N04","secret":"27ffb90e46","server":"65535","farm":66,"title":"Yellow-bellied Sapsucker (Sphyrapicus varius) 2 122522","ispublic":1,"isfriend":0,"isfamily":0},{"id":"52595548192","owner":"49114357@N08","secret":"e83478224e","server":"65535","farm":66,"title":"Yellow-bellied Sapsucker","ispublic":1,"isfriend":0,"isfamily":0},{"id":"52623592516","owner":"99746790@N05","secret":"9184b1fc75","server":"65535","farm":66,"title":"Yellow-Bellied Sapsucker","ispublic":1,"isfriend":0,"isfamily":0},{"id":"52624071293","owner":"99746790@N05","secret":"6bde69cc41","server":"65535","farm":66,"title":"Yellow-Bellied Sapsucker","ispublic":1,"isfriend":0,"isfamily":0},{"id":"52624025935","owner":"99746790@N05","secret":"29b0c09b9c","server":"65535","farm":66,"title":"Yellow-Bellied Sapsucker","ispublic":1,"isfriend":0,"isfamily":0},{"id":"52623382293","owner":"10336659@N04","secret":"d5e42f23f3","server":"65535","farm":66,"title":"Yellow-bellied Sapsucker (Sphyrapicus varius) at Green Cay Nature Preserve.","ispublic":1,"isfriend":0,"isfamily":0},{"id":"52621653817","owner":"51928691@N04","secret":"4f3087f862","server":"65535","farm":66,"title":"Yellow-bellied Sapsucker (Sphyrapicus varius) 1 122322","ispublic":1,"isfriend":0,"isfamily":0},{"id":"52622165236","owner":"51928691@N04","secret":"b9a1971dd0","server":"65535","farm":66,"title":"Yellow-bellied Sapsucker (Sphyrapicus varius) 2 122322","ispublic":1,"isfriend":0,"isfamily":0},{"id":"52622600345","owner":"51928691@N04","secret":"d62e27a566","server":"65535","farm":66,"title":"Yellow-bellied Sapsucker (Sphyrapicus varius) 4 122322","ispublic":1,"isfriend":0,"isfamily":0},{"id":"52622422419","owner":"51928691@N04","secret":"119a996ccf","server":"65535","farm":66,"title":"Yellow-bellied Sapsucker (Sphyrapicus varius) 3 122322","ispublic":1,"isfriend":0,"isfamily":0},{"id":"52622087613","owner":"44034115@N08","secret":"e1bdf58209","server":"65535","farm":66,"title":"Sneaking Up on a Sapsucker","ispublic":1,"isfriend":0,"isfamily":0},{"id":"52619316556","owner":"38514062@N03","secret":"20b2336985","server":"65535","farm":66,"title":"Yellow-bellied Sapsucker (Sphyrapicus varius)","ispublic":1,"isfriend":0,"isfamily":0},{"id":"52612984703","owner":"10336659@N04","secret":"4a6cb4bb18","server":"65535","farm":66,"title":"Forest Jewel. Yellow-bellied Sapsucker (Sphyrapicus varius) at Green Cay Nature Preserve.","ispublic":1,"isfriend":0,"isfamily":0},{"id":"52609381879","owner":"35170601@N06","secret":"9b9ae333ef","server":"65535","farm":66,"title":"Yellow-bellied sapsucker (Sphyrapicus varius)","ispublic":1,"isfriend":0,"isfamily":0},{"id":"52601539559","owner":"103722035@N06","secret":"ec07f228e1","server":"0","farm":0,"title":"Yellow-bellied Sapsucker (Sphyrapicus varius), San Luis Obispo, CA","ispublic":1,"isfriend":0,"isfamily":0},{"id":"52601600820","owner":"128537732@N06","secret":"190ba445d6","server":"65535","farm":66,"title":"Yellow-bellied Sapsucker (Sphyrapicus varius)","ispublic":1,"isfriend":0,"isfamily":0},{"id":"52593688044","owner":"128537732@N06","secret":"6191de4852","server":"65535","farm":66,"title":"Yellow-bellied Sapsucker (Sphyrapicus varius)","ispublic":1,"isfriend":0,"isfamily":0},{"id":"52593852835","owner":"128537732@N06","secret":"7dab76d234","server":"65535","farm":66,"title":"Yellow-bellied Sapsucker (Sphyrapicus varius)","ispublic":1,"isfriend":0,"isfamily":0},{"id":"52593687349","owner":"128537732@N06","secret":"0aac3c8fcf","server":"65535","farm":66,"title":"Yellow-bellied Sapsucker (Sphyrapicus varius)","ispublic":1,"isfriend":0,"isfamily":0},{"id":"52592943347","owner":"128537732@N06","secret":"a7842d5e8b","server":"65535","farm":66,"title":"Yellow-bellied Sapsucker (Sphyrapicus varius)","ispublic":1,"isfriend":0,"isfamily":0},{"id":"52587573307","owner":"133972384@N04","secret":"e4e46ae524","server":"65535","farm":66,"title":"yellow-bellied sapsucker  [explored]","ispublic":1,"isfriend":0,"isfamily":0},{"id":"52585379137","owner":"140318147@N08","secret":"55dcc5016e","server":"65535","farm":66,"title":"yellow-bellied sapsucker (Sphyrapicus varius) L4A9819","ispublic":1,"isfriend":0,"isfamily":0},{"id":"52583672560","owner":"10336659@N04","secret":"a73b467d70","server":"65535","farm":66,"title":"Christmas Ornament. Yellow-bellied Sapsucker (Sphyrapicus varius) at Green Cay Nature Preserve.","ispublic":1,"isfriend":0,"isfamily":0},{"id":"52581090767","owner":"76288515@N07","secret":"0085859816","server":"65535","farm":66,"title":"Yellow-bellied Sapsucker Sphyrapicus varius","ispublic":1,"isfriend":0,"isfamily":0},{"id":"52582069728","owner":"76288515@N07","secret":"ab7ce074fc","server":"65535","farm":66,"title":"Yellow-bellied Sapsucker Sphyrapicus varius","ispublic":1,"isfriend":0,"isfamily":0},{"id":"52581553811","owner":"76288515@N07","secret":"ccaf516126","server":"65535","farm":66,"title":"Yellow-bellied Sapsucker Sphyrapicus varius","ispublic":1,"isfriend":0,"isfamily":0},{"id":"52579762817","owner":"153973412@N04","secret":"e250ae8d42","server":"65535","farm":66,"title":"Yellow-bellied Sapsucker-Sphyrapicus varius, Tiffin, IA","ispublic":1,"isfriend":0,"isfamily":0},{"id":"52578494322","owner":"103722035@N06","secret":"5c3980f621","server":"0","farm":0,"title":"Yellow-bellied Sapsucker (Sphyrapicus varius), San Luis Obispo, CA","ispublic":1,"isfriend":0,"isfamily":0},{"id":"52578485765","owner":"18731552@N00","secret":"844a63b7d1","server":"65535","farm":66,"title":"Yellow-bellied Sapsucker 16A6124-Edit.jpg","ispublic":1,"isfriend":0,"isfamily":0},{"id":"52575666955","owner":"135315828@N06","secret":"1475180be6","server":"65535","farm":66,"title":"yellow-bellied sapsucker","ispublic":1,"isfriend":0,"isfamily":0},{"id":"52575666905","owner":"135315828@N06","secret":"e671843174","server":"65535","farm":66,"title":"yellow-bellied sapsucker","ispublic":1,"isfriend":0,"isfamily":0},{"id":"52575496004","owner":"135315828@N06","secret":"d808739e53","server":"65535","farm":66,"title":"yellow-bellied sapsucker","ispublic":1,"isfriend":0,"isfamily":0},{"id":"52575666755","owner":"135315828@N06","secret":"3a930ca5a2","server":"65535","farm":66,"title":"yellow-bellied sapsucker","ispublic":1,"isfriend":0,"isfamily":0},{"id":"52575213161","owner":"135315828@N06","secret":"9018d5fa8f","server":"65535","farm":66,"title":"yellow-bellied sapsucker","ispublic":1,"isfriend":0,"isfamily":0},{"id":"52574751912","owner":"135315828@N06","secret":"52ca42d2fb","server":"65535","farm":66,"title":"yellow-bellied sapsucker","ispublic":1,"isfriend":0,"isfamily":0},{"id":"52574751832","owner":"135315828@N06","secret":"1bfd84a444","server":"65535","farm":66,"title":"yellow-bellied sapsucker","ispublic":1,"isfriend":0,"isfamily":0},{"id":"52573116217","owner":"144217344@N03","secret":"e5c877beb8","server":"65535","farm":66,"title":"Gisela_Nagel-Fl-5098-Gelbbauch-Saftlecker","ispublic":1,"isfriend":0,"isfamily":0},{"id":"52572725293","owner":"33610210@N05","secret":"9abc6eb9da","server":"65535","farm":66,"title":"Yellow-bellied Sapsucker, Sphyrapicus varius","ispublic":1,"isfriend":0,"isfamily":0},{"id":"52571727877","owner":"33610210@N05","secret":"461a0ec46a","server":"65535","farm":66,"title":"Yellow-bellied Sapsucker, Sphyrapicus varius","ispublic":1,"isfriend":0,"isfamily":0},{"id":"52572177338","owner":"48084395@N03","secret":"0cf7bc60cd","server":"65535","farm":66,"title":"Yellow-bellied Sapsucker_5AC6053","ispublic":1,"isfriend":0,"isfamily":0},{"id":"52567701773","owner":"100108154@N02","secret":"d5e87fa0d1","server":"65535","farm":66,"title":"Found A Sapsucker","ispublic":1,"isfriend":0,"isfamily":0},{"id":"52566597545","owner":"39445433@N02","secret":"94166da0be","server":"65535","farm":66,"title":"Yellow-Bellied Sapsucker","ispublic":1,"isfriend":0,"isfamily":0},{"id":"52565783131","owner":"44034115@N08","secret":"8f82fbebc6","server":"65535","farm":66,"title":"Meet the Yellow-bellied Sapsucker on the Susquehanna","ispublic":1,"isfriend":0,"isfamily":0},{"id":"52552897621","owner":"188156748@N07","secret":"8bb2964d28","server":"65535","farm":66,"title":"Yellow-bellied Sapsucker (Juvenile) Pic Macul\u00e9 (Juv\u00e9nile) Sphyrapicus varius 8136 (6)-SharpenAI-Standard copy.jpgS","ispublic":1,"isfriend":0,"isfamily":0},{"id":"52552897581","owner":"188156748@N07","secret":"349a87eb15","server":"65535","farm":66,"title":"Yellow-bellied Sapsucker (Juvenile) Pic Macul\u00e9 (Juv\u00e9nile) Sphyrapicus varius 8136 (7)-SharpenAI-Standard copy.jpgS","ispublic":1,"isfriend":0,"isfamily":0},{"id":"52553434778","owner":"188156748@N07","secret":"419bf9265c","server":"65535","farm":66,"title":"Yellow-bellied Sapsucker (Juvenile) Pic Macul\u00e9 (Juv\u00e9nile) Sphyrapicus varius 8136 (11)-SharpenAI-Standard copy.jpgS","ispublic":1,"isfriend":0,"isfamily":0},{"id":"52553435003","owner":"188156748@N07","secret":"c38844f96e","server":"65535","farm":66,"title":"Yellow-bellied Sapsucker (Juvenile) Pic Macul\u00e9 (Juv\u00e9nile) Sphyrapicus varius  8121-SharpenAI-Standard copy.jpgS","ispublic":1,"isfriend":0,"isfamily":0},{"id":"52553190419","owner":"188156748@N07","secret":"d48f1a3340","server":"65535","farm":66,"title":"Yellow-bellied Sapsucker (Juvenile) Pic Macul\u00e9 (Juv\u00e9nile) Sphyrapicus varius 8136 (2)-SharpenAI-Standard copy.jpgS","ispublic":1,"isfriend":0,"isfamily":0},{"id":"52552434647","owner":"188156748@N07","secret":"d9c921931c","server":"65535","farm":66,"title":"Yellow-bellied Sapsucker (Juvenile) Pic Macul\u00e9 (Juv\u00e9nile) Sphyrapicus varius 8136 (5)-SharpenAI-Standard copy.jpgS","ispublic":1,"isfriend":0,"isfamily":0},{"id":"52553333713","owner":"34689777@N08","secret":"ff632b0ec0","server":"65535","farm":66,"title":"Yellow-bellied Sapsucker (Sphyrapicus varius) adult male. See the yellow belly? :)  Albuquerque, New Mexico, USA.","ispublic":1,"isfriend":0,"isfamily":0},{"id":"52551381191","owner":"34689777@N08","secret":"14c9bda9a7","server":"65535","farm":66,"title":"Yellow-bellied Sapsucker (Sphyrapicus varius) adult male. Albuquerque, New Mexico, USA.","ispublic":1,"isfriend":0,"isfamily":0},{"id":"52551920678","owner":"34689777@N08","secret":"9481e77286","server":"65535","farm":66,"title":"Yellow-bellied Sapsucker (Sphyrapicus varius) adult male. Albuquerque, New Mexico, USA.","ispublic":1,"isfriend":0,"isfamily":0},{"id":"52548589863","owner":"44034115@N08","secret":"41f48101ff","server":"65535","farm":66,"title":"Drilling Decisions for the Yellow-bellied Sapsucker","ispublic":1,"isfriend":0,"isfamily":0},{"id":"52542637526","owner":"194903193@N03","secret":"2f4c6ea214","server":"65535","farm":66,"title":"Yellow-bellied Sapsucker","ispublic":1,"isfriend":0,"isfamily":0},{"id":"52541503373","owner":"33610210@N05","secret":"9840531fe4","server":"65535","farm":66,"title":"Yellow-bellied Sapsucker, Sphyrapicus varius","ispublic":1,"isfriend":0,"isfamily":0}]},"stat":"ok"}