{"photos":{"page":1,"pages":77,"perpage":100,"total":7667,"photo":[{"id":"52707531034","owner":"53239956@N06","secret":"7994a8d598","server":"65535","farm":66,"title":"I consulted the sage of Horsepen Bayou","ispublic":1,"isfriend":0,"isfamily":0},{"id":"52706915609","owner":"185443397@N07","secret":"b3bbb92d1b","server":"65535","farm":66,"title":"Yellow-crowned Night-Heron (Nyctanassa violacea)","ispublic":1,"isfriend":0,"isfamily":0},{"id":"52706915579","owner":"185443397@N07","secret":"3022cdfdb8","server":"65535","farm":66,"title":"Yellow-crowned Night-Heron (Nyctanassa violacea)","ispublic":1,"isfriend":0,"isfamily":0},{"id":"52706918513","owner":"195537536@N03","secret":"e561b98535","server":"65535","farm":66,"title":"Yellow-crowned Night Heron (Nyctanassa violacea):  Immature","ispublic":1,"isfriend":0,"isfamily":0},{"id":"52706430561","owner":"195537536@N03","secret":"d0e66eb26f","server":"65535","farm":66,"title":"Yellow-crowned Night Heron (Nyctanassa violacea)","ispublic":1,"isfriend":0,"isfamily":0},{"id":"52703128754","owner":"161505078@N03","secret":"361f502f23","server":"65535","farm":66,"title":"Yellow-crowned Night Heron (Nyctanassa violacea","ispublic":1,"isfriend":0,"isfamily":0},{"id":"52687020982","owner":"142372582@N06","secret":"28b3a7283e","server":"65535","farm":66,"title":"Grey Heron","ispublic":1,"isfriend":0,"isfamily":0},{"id":"52687501896","owner":"142372582@N06","secret":"b177c35a73","server":"65535","farm":66,"title":"Grey Heron","ispublic":1,"isfriend":0,"isfamily":0},{"id":"52686436430","owner":"132001260@N04","secret":"f07b36486e","server":"65535","farm":66,"title":"Bihoreau violac\u00e9 immature","ispublic":1,"isfriend":0,"isfamily":0},{"id":"52676315270","owner":"40381319@N06","secret":"fa6b8a1422","server":"65535","farm":66,"title":"Yellow-Crowned Night Heron","ispublic":1,"isfriend":0,"isfamily":0},{"id":"52675137214","owner":"110459348@N03","secret":"8657cdc5b4","server":"65535","farm":66,"title":"Portrait du Bihoreau violac\u00e9","ispublic":1,"isfriend":0,"isfamily":0},{"id":"52667640423","owner":"39177293@N03","secret":"d161217746","server":"65535","farm":66,"title":"Yellow-crowned Night-Heron","ispublic":1,"isfriend":0,"isfamily":0},{"id":"52664753470","owner":"51433704@N06","secret":"ca9abd9a9f","server":"65535","farm":66,"title":"Yellow-crowned Night Heron","ispublic":1,"isfriend":0,"isfamily":0},{"id":"52662637022","owner":"61062164@N08","secret":"43be04429c","server":"65535","farm":66,"title":"850_4997-NEF_DxO DP2","ispublic":1,"isfriend":0,"isfamily":0},{"id":"52660601021","owner":"65788177@N02","secret":"c2e0d4da8c","server":"65535","farm":66,"title":"Yellow-crowned Night Heron","ispublic":1,"isfriend":0,"isfamily":0},{"id":"52658544406","owner":"12639178@N07","secret":"0f96f64b45","server":"65535","farm":66,"title":"Krabbenreiher im Doppelpack","ispublic":1,"isfriend":0,"isfamily":0},{"id":"52658989770","owner":"12639178@N07","secret":"3bb93343b1","server":"65535","farm":66,"title":"In luftiger H\u00f6he","ispublic":1,"isfriend":0,"isfamily":0},{"id":"52658052737","owner":"12639178@N07","secret":"bea725cb4e","server":"65535","farm":66,"title":"Krabbenreiher meist sehr heimlich unterwegs","ispublic":1,"isfriend":0,"isfamily":0},{"id":"52657028253","owner":"12639178@N07","secret":"c65d85dfbe","server":"65535","farm":66,"title":"Gut versteckt im Bl\u00e4tterwald","ispublic":1,"isfriend":0,"isfamily":0},{"id":"52656820164","owner":"12639178@N07","secret":"994cbded12","server":"65535","farm":66,"title":"Juveniler Krabbenreiher schwer zu entdecken","ispublic":1,"isfriend":0,"isfamily":0},{"id":"52656150673","owner":"51433704@N06","secret":"6ba9fcf084","server":"65535","farm":66,"title":"Yellow-crowned Night Heron","ispublic":1,"isfriend":0,"isfamily":0},{"id":"52641330347","owner":"99927961@N06","secret":"6f3c9a4f45","server":"65535","farm":66,"title":"Rolf Nagel-Fl-17-16912-Nyctanassa violacea","ispublic":1,"isfriend":0,"isfamily":0},{"id":"52640503394","owner":"107784905@N04","secret":"3941c5f857","server":"65535","farm":66,"title":"Bihoreau violac\u00e9 - Tortuguero\/Lim\u00f3n\/Costa Rica_20211124_008-1","ispublic":1,"isfriend":0,"isfamily":0},{"id":"52640533615","owner":"12639178@N07","secret":"da0db093bd","server":"65535","farm":66,"title":"Krabbenreiher","ispublic":1,"isfriend":0,"isfamily":0},{"id":"52638699030","owner":"38514062@N03","secret":"3da58dfdbd","server":"65535","farm":66,"title":"Yellow-crowned Night-Heron (Nyctanassa violacea)","ispublic":1,"isfriend":0,"isfamily":0},{"id":"52635545174","owner":"61062164@N08","secret":"586aae5456","server":"65535","farm":66,"title":"850_5036-NEF_DxO DP2","ispublic":1,"isfriend":0,"isfamily":0},{"id":"52624273712","owner":"132001260@N04","secret":"cc1d2d783d","server":"65535","farm":66,"title":"Bihoreau violac\u00e9","ispublic":1,"isfriend":0,"isfamily":0},{"id":"52615167251","owner":"122194508@N08","secret":"8d8541fab7","server":"65535","farm":66,"title":"Buccaneer Cove - yellow-crowned night heron Nyctanassa violacea (1)","ispublic":1,"isfriend":0,"isfamily":0},{"id":"52594014483","owner":"38514062@N03","secret":"3b14285dba","server":"65535","farm":66,"title":"Yellow-crowned Night-Heron (Nyctanassa violacea)","ispublic":1,"isfriend":0,"isfamily":0},{"id":"52585683055","owner":"75336751@N07","secret":"9436ec3500","server":"65535","farm":66,"title":"Savacu-de-coroa","ispublic":1,"isfriend":0,"isfamily":0},{"id":"52582810195","owner":"124995824@N08","secret":"c9cf8fe39e","server":"65535","farm":66,"title":"Yellow-crowned Night-herons - Nyctanassa violacea","ispublic":1,"isfriend":0,"isfamily":0},{"id":"52574110802","owner":"51928691@N04","secret":"f7a69574f4","server":"65535","farm":66,"title":"Yellow-crowned Night-Heron (Nyctanassa violacea) 1 121922","ispublic":1,"isfriend":0,"isfamily":0},{"id":"52575026175","owner":"51928691@N04","secret":"52912d6928","server":"65535","farm":66,"title":"Yellow-crowned Night-Heron (Nyctanassa violacea) 2 121922","ispublic":1,"isfriend":0,"isfamily":0},{"id":"52564454100","owner":"68635735@N02","secret":"f7a21697d8","server":"65535","farm":66,"title":"Yellow-crowned Night Heron (Nyctanassa violacea)","ispublic":1,"isfriend":0,"isfamily":0},{"id":"52564454075","owner":"68635735@N02","secret":"dfd010f435","server":"65535","farm":66,"title":"Yellow-crowned Night Heron (Nyctanassa violacea)","ispublic":1,"isfriend":0,"isfamily":0},{"id":"52549996111","owner":"53358437@N07","secret":"1dd1ea9ea7","server":"65535","farm":66,"title":"Yellow-crowned Night-heron (Nyctanassa violacea)","ispublic":1,"isfriend":0,"isfamily":0},{"id":"52538966441","owner":"33610210@N05","secret":"374582dbc9","server":"65535","farm":66,"title":"Yellow-crowned Night Heron, Nyctanassa violacea","ispublic":1,"isfriend":0,"isfamily":0},{"id":"52536704370","owner":"196786375@N03","secret":"3e2fb0e6b6","server":"65535","farm":66,"title":"Yellow-crowned Night Heron","ispublic":1,"isfriend":0,"isfamily":0},{"id":"49741036736","owner":"28490798@N03","secret":"1a26bc8346","server":"65535","farm":66,"title":"Yellow-crowned Night-heron. Huairavo de Corona Amarilla. Nyctanassa violacea","ispublic":1,"isfriend":0,"isfamily":0},{"id":"52533184366","owner":"189423275@N04","secret":"f55749912a","server":"65535","farm":66,"title":"Yellow-night Crowned Stalking Prey","ispublic":1,"isfriend":0,"isfamily":0},{"id":"52533036705","owner":"119095828@N03","secret":"748ededd32","server":"65535","farm":66,"title":"Yellow-crowned Night heron  (Nyctanassa violacea)","ispublic":1,"isfriend":0,"isfamily":0},{"id":"52531563878","owner":"190274181@N03","secret":"0b581c9af1","server":"65535","farm":66,"title":"Garza nocturna coroniamarilla,  Yellow-crowned night heron,  Nyctanassa violacea","ispublic":1,"isfriend":0,"isfamily":0},{"id":"52531322613","owner":"12639178@N07","secret":"beb324465f","server":"65535","farm":66,"title":"Krabbenreiher (Nyctanassa violacea) (1)","ispublic":1,"isfriend":0,"isfamily":0},{"id":"52530540896","owner":"78739715@N04","secret":"63b6e1c563","server":"65535","farm":66,"title":"Juvenile Yellow-crowned Night Heron","ispublic":1,"isfriend":0,"isfamily":0},{"id":"52530027809","owner":"193483104@N04","secret":"93282e892d","server":"65535","farm":66,"title":"Yellow-crowned Night-Heron (Nyctanassa violacea) in flight","ispublic":1,"isfriend":0,"isfamily":0},{"id":"52527879441","owner":"53239956@N06","secret":"dfc90a7076","server":"65535","farm":66,"title":"At ease....with my presence","ispublic":1,"isfriend":0,"isfamily":0},{"id":"52520435399","owner":"71833159@N00","secret":"3c0ac785e2","server":"65535","farm":66,"title":"Day 6, Yellow-crowned Night-Heron \/ Nyctanassa violacea","ispublic":1,"isfriend":0,"isfamily":0},{"id":"52519292961","owner":"76617062@N08","secret":"d3be02c335","server":"65535","farm":66,"title":"1.02170 Bihoreau violac\u00e9 \/ Nyctanassa violacea bancrofti \/ Yellow-crowned Night-Heron","ispublic":1,"isfriend":0,"isfamily":0},{"id":"52516951314","owner":"80648919@N08","secret":"28b8015913","server":"65535","farm":66,"title":"Yellow-crowned Night Heron","ispublic":1,"isfriend":0,"isfamily":0},{"id":"52514162087","owner":"107784905@N04","secret":"de85980fb9","server":"65535","farm":66,"title":"Bihoreau violac\u00e9 - Manuel Antonio\/Puntarenas\/Costa Rica_20211115_005-1","ispublic":1,"isfriend":0,"isfamily":0},{"id":"52513986262","owner":"53239956@N06","secret":"c9985479b5","server":"65535","farm":66,"title":"Horsepen Bayou Zen Master","ispublic":1,"isfriend":0,"isfamily":0},{"id":"52509001274","owner":"76617062@N08","secret":"6fd3c68851","server":"65535","farm":66,"title":"1.02170 Bihoreau violac\u00e9 \/ Nyctanassa violacea bancrofti \/ Yellow-crowned Night-Heron","ispublic":1,"isfriend":0,"isfamily":0},{"id":"52501883758","owner":"130467767@N03","secret":"07b78e908e","server":"65535","farm":66,"title":"Bihoreau violac\u00e9 - Nyctanassa violacea - Yellow-crowned Night-Heron","ispublic":1,"isfriend":0,"isfamily":0},{"id":"52499901707","owner":"143629656@N04","secret":"4540a425d1","server":"65535","farm":66,"title":"Yellow-crowned Night Heron","ispublic":1,"isfriend":0,"isfamily":0},{"id":"52495778403","owner":"36274920@N05","secret":"0e18d60213","server":"65535","farm":66,"title":"Panam\u00e1 - Novembre 2022","ispublic":1,"isfriend":0,"isfamily":0},{"id":"52475398650","owner":"17654080@N08","secret":"2e0247cff3","server":"65535","farm":66,"title":"Yellow-crowned Night-Heron, adult (Nyctanassa violacea)","ispublic":1,"isfriend":0,"isfamily":0},{"id":"52474933631","owner":"17654080@N08","secret":"108e94b79d","server":"65535","farm":66,"title":"Yellow-crowned Night-Heron, immature (Nyctanassa violacea)","ispublic":1,"isfriend":0,"isfamily":0},{"id":"52448769040","owner":"125892278@N06","secret":"48f9a6b887","server":"65535","farm":66,"title":"Bihoreau violac\u00e9 - Nyctanassa violacea - Yellow-crowned Night Heron \/ Ordre : P\u00e9l\u00e9caniformes - Famille : Ard\u00e9id\u00e9s","ispublic":1,"isfriend":0,"isfamily":0},{"id":"52442302772","owner":"8417651@N08","secret":"ced50d0af5","server":"65535","farm":66,"title":"garza nocturna","ispublic":1,"isfriend":0,"isfamily":0},{"id":"52431176742","owner":"65695019@N07","secret":"cced4153b6","server":"65535","farm":66,"title":"Yellow-crowned Night-Heron (Nyctanassa violacea) immature ...","ispublic":1,"isfriend":0,"isfamily":0},{"id":"52429372958","owner":"77128742@N06","secret":"fc6c9d7da9","server":"65535","farm":66,"title":"Kolumbien-Krabbenreiher_Nyctanassa violacea caliginis-27","ispublic":1,"isfriend":0,"isfamily":0},{"id":"52411954118","owner":"9731845@N02","secret":"a5bdf3ff54","server":"0","farm":0,"title":"Yellow-Crowned Night-Heron (Nyctanassa violacea)","ispublic":1,"isfriend":0,"isfamily":0},{"id":"52403484748","owner":"22163926@N05","secret":"ef211309be","server":"65535","farm":66,"title":"Motherless Child","ispublic":1,"isfriend":0,"isfamily":0},{"id":"52402115378","owner":"96713629@N03","secret":"db69b65af8","server":"65535","farm":66,"title":"Geelkruinkwak-Yellow-crowned Night Heron (Nyctanassa violacea jamaicensis)-250_2748","ispublic":1,"isfriend":0,"isfamily":0},{"id":"52402115348","owner":"96713629@N03","secret":"6ca9bce39f","server":"65535","farm":66,"title":"Geelkruinkwak-Yellow-crowned Night Heron (Nyctanassa violacea jamaicensis)-250_2751","ispublic":1,"isfriend":0,"isfamily":0},{"id":"52402115293","owner":"96713629@N03","secret":"ee20d2b65b","server":"65535","farm":66,"title":"Geelkruinkwak-Yellow-crowned Night Heron (Nyctanassa violacea jamaicensis)-250_3090","ispublic":1,"isfriend":0,"isfamily":0},{"id":"52401103257","owner":"96713629@N03","secret":"e91ae7d4a7","server":"65535","farm":66,"title":"Geelkruinkwak-Yellow-crowned Night Heron (Nyctanassa violacea jamaicensis)-250_2752","ispublic":1,"isfriend":0,"isfamily":0},{"id":"52401618731","owner":"96713629@N03","secret":"cb0653963b","server":"65535","farm":66,"title":"Geelkruinkwak-Yellow-crowned Night Heron (Nyctanassa violacea jamaicensis)-250_2727","ispublic":1,"isfriend":0,"isfamily":0},{"id":"52400542817","owner":"62848917@N07","secret":"539787c8f6","server":"65535","farm":66,"title":"Yellow-crowned Night-Heron - Nyctanassa violacea","ispublic":1,"isfriend":0,"isfamily":0},{"id":"52401342364","owner":"62848917@N07","secret":"c59635c18c","server":"65535","farm":66,"title":"Yellow-crowned Night-Heron - Nyctanassa violacea","ispublic":1,"isfriend":0,"isfamily":0},{"id":"52401551503","owner":"62848917@N07","secret":"59962fb8b6","server":"65535","farm":66,"title":"Yellow-crowned Night-Heron - Nyctanassa violacea","ispublic":1,"isfriend":0,"isfamily":0},{"id":"52400564361","owner":"183004597@N05","secret":"9ce70e4422","server":"65535","farm":66,"title":"On the Trail","ispublic":1,"isfriend":0,"isfamily":0},{"id":"52389871427","owner":"7856934@N03","secret":"b51ee34c36","server":"65535","farm":66,"title":"Yellow-crowned Night Heron","ispublic":1,"isfriend":0,"isfamily":0},{"id":"52381418166","owner":"22778339@N02","secret":"9891ea0327","server":"65535","farm":66,"title":"Yellow-crowned Night-Heron","ispublic":1,"isfriend":0,"isfamily":0},{"id":"52374667876","owner":"140734051@N08","secret":"89c196bfd4","server":"65535","farm":66,"title":"\u041a\u0440\u0430\u0431\u043e\u0432\u0430\u044f \u043a\u0432\u0430\u043a\u0432\u0430, Nyctanassa violacea pauper, Yellow-crowned Night Heron","ispublic":1,"isfriend":0,"isfamily":0},{"id":"52375082845","owner":"140734051@N08","secret":"f52d209476","server":"65535","farm":66,"title":"\u041a\u0440\u0430\u0431\u043e\u0432\u0430\u044f \u043a\u0432\u0430\u043a\u0432\u0430, Nyctanassa violacea pauper, Yellow-crowned Night Heron","ispublic":1,"isfriend":0,"isfamily":0},{"id":"52374979049","owner":"140734051@N08","secret":"6977194523","server":"65535","farm":66,"title":"\u041a\u0440\u0430\u0431\u043e\u0432\u0430\u044f \u043a\u0432\u0430\u043a\u0432\u0430, Nyctanassa violacea pauper, Yellow-crowned Night Heron","ispublic":1,"isfriend":0,"isfamily":0},{"id":"52375081900","owner":"140734051@N08","secret":"772b75cdc0","server":"65535","farm":66,"title":"\u041a\u0440\u0430\u0431\u043e\u0432\u0430\u044f \u043a\u0432\u0430\u043a\u0432\u0430, Nyctanassa violacea pauper, Yellow-crowned Night Heron","ispublic":1,"isfriend":0,"isfamily":0},{"id":"52374666326","owner":"140734051@N08","secret":"838d7a0533","server":"65535","farm":66,"title":"\u041a\u0440\u0430\u0431\u043e\u0432\u0430\u044f \u043a\u0432\u0430\u043a\u0432\u0430, Nyctanassa violacea pauper, Yellow-crowned Night Heron","ispublic":1,"isfriend":0,"isfamily":0},{"id":"52374666106","owner":"140734051@N08","secret":"06af31eb10","server":"65535","farm":66,"title":"\u041a\u0440\u0430\u0431\u043e\u0432\u0430\u044f \u043a\u0432\u0430\u043a\u0432\u0430, Nyctanassa violacea pauper, Yellow-crowned Night Heron","ispublic":1,"isfriend":0,"isfamily":0},{"id":"52374977059","owner":"140734051@N08","secret":"11f4a38c5b","server":"65535","farm":66,"title":"\u041a\u0440\u0430\u0431\u043e\u0432\u0430\u044f \u043a\u0432\u0430\u043a\u0432\u0430, Nyctanassa violacea pauper, Yellow-crowned Night Heron","ispublic":1,"isfriend":0,"isfamily":0},{"id":"52373719107","owner":"140734051@N08","secret":"610c8d1d68","server":"65535","farm":66,"title":"\u041a\u0440\u0430\u0431\u043e\u0432\u0430\u044f \u043a\u0432\u0430\u043a\u0432\u0430, Nyctanassa violacea pauper, Yellow-crowned Night Heron","ispublic":1,"isfriend":0,"isfamily":0},{"id":"52373718757","owner":"140734051@N08","secret":"a5bef291d8","server":"65535","farm":66,"title":"\u041a\u0440\u0430\u0431\u043e\u0432\u0430\u044f \u043a\u0432\u0430\u043a\u0432\u0430, Nyctanassa violacea pauper, Yellow-crowned Night Heron","ispublic":1,"isfriend":0,"isfamily":0},{"id":"52374889078","owner":"140734051@N08","secret":"1963bc3b56","server":"65535","farm":66,"title":"\u041a\u0440\u0430\u0431\u043e\u0432\u0430\u044f \u043a\u0432\u0430\u043a\u0432\u0430, Nyctanassa violacea pauper, Yellow-crowned Night Heron","ispublic":1,"isfriend":0,"isfamily":0},{"id":"52372524603","owner":"140734051@N08","secret":"4e42f3260b","server":"65535","farm":66,"title":"\u041a\u0440\u0430\u0431\u043e\u0432\u0430\u044f \u043a\u0432\u0430\u043a\u0432\u0430, Nyctanassa violacea pauper, Yellow-crowned Night Heron, juv","ispublic":1,"isfriend":0,"isfamily":0},{"id":"52372524023","owner":"140734051@N08","secret":"cb2ba4ccc9","server":"65535","farm":66,"title":"\u041a\u0440\u0430\u0431\u043e\u0432\u0430\u044f \u043a\u0432\u0430\u043a\u0432\u0430, Nyctanassa violacea pauper, Yellow-crowned Night Heron, juv","ispublic":1,"isfriend":0,"isfamily":0},{"id":"52372611809","owner":"140734051@N08","secret":"8a82148be6","server":"65535","farm":66,"title":"\u041a\u0440\u0430\u0431\u043e\u0432\u0430\u044f \u043a\u0432\u0430\u043a\u0432\u0430, Nyctanassa violacea pauper, Yellow-crowned Night Heron, juv","ispublic":1,"isfriend":0,"isfamily":0},{"id":"52372302691","owner":"140734051@N08","secret":"e366d6cc08","server":"65535","farm":66,"title":"\u041a\u0440\u0430\u0431\u043e\u0432\u0430\u044f \u043a\u0432\u0430\u043a\u0432\u0430, Nyctanassa violacea pauper, Yellow-crowned Night Heron, juv","ispublic":1,"isfriend":0,"isfamily":0},{"id":"52372716300","owner":"140734051@N08","secret":"a88afcd76c","server":"65535","farm":66,"title":"\u041a\u0440\u0430\u0431\u043e\u0432\u0430\u044f \u043a\u0432\u0430\u043a\u0432\u0430, Nyctanassa violacea pauper, Yellow-crowned Night Heron, juv","ispublic":1,"isfriend":0,"isfamily":0},{"id":"52372609689","owner":"140734051@N08","secret":"a0e30d18c6","server":"65535","farm":66,"title":"\u041a\u0440\u0430\u0431\u043e\u0432\u0430\u044f \u043a\u0432\u0430\u043a\u0432\u0430, Nyctanassa violacea pauper, Yellow-crowned Night Heron, juv","ispublic":1,"isfriend":0,"isfamily":0},{"id":"52372608964","owner":"140734051@N08","secret":"65d296b4d3","server":"65535","farm":66,"title":"\u041a\u0440\u0430\u0431\u043e\u0432\u0430\u044f \u043a\u0432\u0430\u043a\u0432\u0430, Nyctanassa violacea pauper, Yellow-crowned Night Heron, juv","ispublic":1,"isfriend":0,"isfamily":0},{"id":"52372299581","owner":"140734051@N08","secret":"4f56b47a94","server":"65535","farm":66,"title":"\u041a\u0440\u0430\u0431\u043e\u0432\u0430\u044f \u043a\u0432\u0430\u043a\u0432\u0430, Nyctanassa violacea pauper, Yellow-crowned Night Heron, juv","ispublic":1,"isfriend":0,"isfamily":0},{"id":"52372193885","owner":"107784905@N04","secret":"3706ba5b06","server":"65535","farm":66,"title":"Bihoreau violac\u00e9 - Manuel Antonio\/Puntarenas\/Costa Rica_20211115_013-1","ispublic":1,"isfriend":0,"isfamily":0},{"id":"52364241677","owner":"28631427@N00","secret":"f7ff702322","server":"65535","farm":66,"title":"Yellow-crowned Night Heron 1","ispublic":1,"isfriend":0,"isfamily":0},{"id":"52365601300","owner":"28631427@N00","secret":"834970c163","server":"65535","farm":66,"title":"Yellow-crowned Night Heron 2","ispublic":1,"isfriend":0,"isfamily":0},{"id":"52364635064","owner":"7856934@N03","secret":"8a7d6b5943","server":"65535","farm":66,"title":"Yellow-crowned Night Heron","ispublic":1,"isfriend":0,"isfamily":0},{"id":"52350135376","owner":"51433704@N06","secret":"297a3f72a5","server":"65535","farm":66,"title":"Yellow-crowned Night Heron","ispublic":1,"isfriend":0,"isfamily":0},{"id":"52345407217","owner":"90355165@N03","secret":"7408c7dffd","server":"65535","farm":66,"title":"yellow-crowned night heron","ispublic":1,"isfriend":0,"isfamily":0},{"id":"52346362951","owner":"90355165@N03","secret":"6e250bddec","server":"65535","farm":66,"title":"yellow-crowned night heron","ispublic":1,"isfriend":0,"isfamily":0},{"id":"52346670754","owner":"90355165@N03","secret":"331d25f99a","server":"65535","farm":66,"title":"yellow-crowned night heron","ispublic":1,"isfriend":0,"isfamily":0}]},"stat":"ok"}