{"photos":{"page":1,"pages":41,"perpage":100,"total":4065,"photo":[{"id":"52717787994","owner":"18158503@N00","secret":"be23c8c2e7","server":"65535","farm":66,"title":"Yellow Headed Blackbird surrounded by Red Winged Blackbirds","ispublic":1,"isfriend":0,"isfamily":0},{"id":"52701360601","owner":"137364640@N08","secret":"278779a737","server":"65535","farm":66,"title":"Yellow-headed Blackbird","ispublic":1,"isfriend":0,"isfamily":0},{"id":"52701777530","owner":"137364640@N08","secret":"29ddbf1305","server":"65535","farm":66,"title":"Yellow-headed Blackbird","ispublic":1,"isfriend":0,"isfamily":0},{"id":"52684745613","owner":"65695019@N07","secret":"73225441c5","server":"65535","farm":66,"title":"Yellowhead Butterflyfish (Chaetodon xanthocephalus)","ispublic":1,"isfriend":0,"isfamily":0},{"id":"52673496063","owner":"129108168@N08","secret":"5611a9c8f6","server":"65535","farm":66,"title":"Chaetodon xanthocephalus","ispublic":1,"isfriend":0,"isfamily":0},{"id":"52645712457","owner":"137364640@N08","secret":"6a96daa993","server":"65535","farm":66,"title":"Yellow-headed Blackbird","ispublic":1,"isfriend":0,"isfamily":0},{"id":"52646657675","owner":"137364640@N08","secret":"59c3c080e2","server":"65535","farm":66,"title":"Yellow-headed Blackbird","ispublic":1,"isfriend":0,"isfamily":0},{"id":"52641274780","owner":"187792860@N04","secret":"2ff3a4d641","server":"65535","farm":66,"title":"Yellow-headed Blackbird (Xanthocephalus xanthocephalus)","ispublic":1,"isfriend":0,"isfamily":0},{"id":"52635494427","owner":"131779834@N08","secret":"51e3d74ff1","server":"65535","farm":66,"title":"Gathering Cobwebs","ispublic":1,"isfriend":0,"isfamily":0},{"id":"52634868553","owner":"131779834@N08","secret":"9dfb02bb45","server":"65535","farm":66,"title":"Looks Golden To Me","ispublic":1,"isfriend":0,"isfamily":0},{"id":"52586626937","owner":"137364640@N08","secret":"950bf6b170","server":"65535","farm":66,"title":"Yellow-headed Blackbird","ispublic":1,"isfriend":0,"isfamily":0},{"id":"52587362439","owner":"137364640@N08","secret":"7d652d5ed5","server":"65535","farm":66,"title":"Yellow-headed Blackbird","ispublic":1,"isfriend":0,"isfamily":0},{"id":"52572063190","owner":"12639178@N07","secret":"ac11dfa17d","server":"65535","farm":66,"title":"Gelbkopf-Falterfisch","ispublic":1,"isfriend":0,"isfamily":0},{"id":"52570034011","owner":"60009324@N08","secret":"794b6f3252","server":"65535","farm":66,"title":"Xanthocephalus","ispublic":1,"isfriend":0,"isfamily":0},{"id":"52570562558","owner":"60009324@N08","secret":"24d85a0027","server":"65535","farm":66,"title":"Xanthocephalus","ispublic":1,"isfriend":0,"isfamily":0},{"id":"52546860648","owner":"145489125@N03","secret":"0e69893d42","server":"65535","farm":66,"title":"Yellow-headed Blackbird ( Xanthocephalus x 2 ) ... Wyoming , USA","ispublic":1,"isfriend":0,"isfamily":0},{"id":"52538015704","owner":"39617069@N08","secret":"ab5fa6e8d2","server":"65535","farm":66,"title":"Yellow-headed Blackbird","ispublic":1,"isfriend":0,"isfamily":0},{"id":"52535381468","owner":"33610210@N05","secret":"c0036fee82","server":"65535","farm":66,"title":"Yellow-headed Blackbird, Xanthocephalus xanthocephalus","ispublic":1,"isfriend":0,"isfamily":0},{"id":"52530913790","owner":"33610210@N05","secret":"93d6589974","server":"65535","farm":66,"title":"Yellow-headed Blackbird, Xanthocephalus xanthocephalus","ispublic":1,"isfriend":0,"isfamily":0},{"id":"52530984318","owner":"33610210@N05","secret":"1b1ffca1ee","server":"65535","farm":66,"title":"Yellow-headed Blackbird, Xanthocephalus xanthocephalus","ispublic":1,"isfriend":0,"isfamily":0},{"id":"52530913620","owner":"33610210@N05","secret":"7893d1dfd1","server":"65535","farm":66,"title":"Yellow-headed Blackbird, Xanthocephalus xanthocephalus","ispublic":1,"isfriend":0,"isfamily":0},{"id":"52526140449","owner":"137364640@N08","secret":"d83c7f0b3a","server":"65535","farm":66,"title":"Yellow-headed Blackbird","ispublic":1,"isfriend":0,"isfamily":0},{"id":"52513068584","owner":"48014585@N00","secret":"415e61667c","server":"65535","farm":66,"title":"Yellow-headed Blackbird","ispublic":1,"isfriend":0,"isfamily":0},{"id":"52513277880","owner":"48014585@N00","secret":"705cc630b2","server":"65535","farm":66,"title":"Yellow-headed Blackbird","ispublic":1,"isfriend":0,"isfamily":0},{"id":"52507160769","owner":"196612229@N04","secret":"2cfea23b9a","server":"65535","farm":66,"title":"YHBB","ispublic":1,"isfriend":0,"isfamily":0},{"id":"52490076504","owner":"54059915@N07","secret":"c51dddb4a5","server":"65535","farm":66,"title":"Yellow-headed Blackbirds","ispublic":1,"isfriend":0,"isfamily":0},{"id":"52490346378","owner":"54059915@N07","secret":"b5e25f35b1","server":"65535","farm":66,"title":"Yellow-headed Blackbirds","ispublic":1,"isfriend":0,"isfamily":0},{"id":"52489606846","owner":"78143623@N03","secret":"c2dd28a1fb","server":"65535","farm":66,"title":"Yellow-headed Blackbird (Xanthocephalus xanthocephalus) 2_Whitewater Draw_Nov 2022","ispublic":1,"isfriend":0,"isfamily":0},{"id":"52484117923","owner":"59777454@N02","secret":"c84ab2e478","server":"65535","farm":66,"title":"Yellow-headed Blackbird male in fight Tekiela TEK4605","ispublic":1,"isfriend":0,"isfamily":0},{"id":"52484030285","owner":"59777454@N02","secret":"f228c46332","server":"65535","farm":66,"title":"Yellow-headed Blackbird male displaying Tekiela TEK9897","ispublic":1,"isfriend":0,"isfamily":0},{"id":"52483836014","owner":"59777454@N02","secret":"fb951bbf43","server":"65535","farm":66,"title":"Yellow-headed Blackbird male in flight Tekiela TEK4752","ispublic":1,"isfriend":0,"isfamily":0},{"id":"52484026735","owner":"59777454@N02","secret":"37bcba3637","server":"65535","farm":66,"title":"Yellow-headed Blackbird male in flight Tekiela TEK4850","ispublic":1,"isfriend":0,"isfamily":0},{"id":"52466593635","owner":"137364640@N08","secret":"6af352c69a","server":"65535","farm":66,"title":"Yellow-headed Blackbird","ispublic":1,"isfriend":0,"isfamily":0},{"id":"52466410094","owner":"137364640@N08","secret":"a85a2d50ac","server":"65535","farm":66,"title":"Yellow-headed Blackbird","ispublic":1,"isfriend":0,"isfamily":0},{"id":"52417510542","owner":"181862901@N03","secret":"e309250b8e","server":"65535","farm":66,"title":"Clavariadelphus xanthocephalus (Kyj \u017elutotemenn\u00fd), mykorhiza, Corylus, Ji\u017en\u00ed \u010cechy(DD)","ispublic":1,"isfriend":0,"isfamily":0},{"id":"52408732319","owner":"34368269@N04","secret":"6a08fcee09","server":"65535","farm":66,"title":"Yellow-headed Blackbird","ispublic":1,"isfriend":0,"isfamily":0},{"id":"52392705979","owner":"137364640@N08","secret":"5fcc130db3","server":"65535","farm":66,"title":"Yellow-headed Blackbird","ispublic":1,"isfriend":0,"isfamily":0},{"id":"52392705534","owner":"137364640@N08","secret":"43e41ddb1b","server":"65535","farm":66,"title":"Yellow-headed Blackbird","ispublic":1,"isfriend":0,"isfamily":0},{"id":"52389995577","owner":"51986662@N05","secret":"3f1e1ccaa8","server":"65535","farm":66,"title":"Yellow-headed Blackbird Lake Andes Wetland Management District South Dakota","ispublic":1,"isfriend":0,"isfamily":0},{"id":"52391336955","owner":"51986662@N05","secret":"5711ac19fe","server":"65535","farm":66,"title":"Yellow-headed Blackbird Lake Andes Wetland Management District South Dakota","ispublic":1,"isfriend":0,"isfamily":0},{"id":"52387564884","owner":"129849840@N08","secret":"c5ba32a79c","server":"65535","farm":66,"title":"A yellow headed blackbird","ispublic":1,"isfriend":0,"isfamily":0},{"id":"52378751343","owner":"51986662@N05","secret":"c67a9d3d9a","server":"65535","farm":66,"title":"Yellow-headed Blackbird Lake Andes Wetland Management District South Dakota.","ispublic":1,"isfriend":0,"isfamily":0},{"id":"52378745723","owner":"51986662@N05","secret":"7fe33e650b","server":"65535","farm":66,"title":"Yellow-headed Blackbird Lake Andes Wetland Management District South Dakota.","ispublic":1,"isfriend":0,"isfamily":0},{"id":"52363051044","owner":"196264892@N08","secret":"ff57fddf15","server":"65535","farm":66,"title":"Cinnamon Teal and YH Blackbird","ispublic":1,"isfriend":0,"isfamily":0},{"id":"52362917693","owner":"196264892@N08","secret":"0437be3903","server":"65535","farm":66,"title":"Yellow-headed Blackbird","ispublic":1,"isfriend":0,"isfamily":0},{"id":"52363110375","owner":"196264892@N08","secret":"c8b562d89b","server":"65535","farm":66,"title":"Yellow-headed Blackbird","ispublic":1,"isfriend":0,"isfamily":0},{"id":"52362995544","owner":"196264892@N08","secret":"d2158fe7a1","server":"65535","farm":66,"title":"Yellow-headed Blackbird","ispublic":1,"isfriend":0,"isfamily":0},{"id":"52361745107","owner":"196264892@N08","secret":"8e1c76b7a3","server":"65535","farm":66,"title":"Yellow-headed Blackbird","ispublic":1,"isfriend":0,"isfamily":0},{"id":"52362685626","owner":"196264892@N08","secret":"fcc651ff5b","server":"65535","farm":66,"title":"Yellow-headed Blackbird","ispublic":1,"isfriend":0,"isfamily":0},{"id":"52362685461","owner":"196264892@N08","secret":"37284987f9","server":"65535","farm":66,"title":"Yellow-headed Blackbird","ispublic":1,"isfriend":0,"isfamily":0},{"id":"52362916073","owner":"196264892@N08","secret":"9ca0f10849","server":"65535","farm":66,"title":"Yellow-headed Blackbird","ispublic":1,"isfriend":0,"isfamily":0},{"id":"52362684536","owner":"196264892@N08","secret":"e87a060230","server":"65535","farm":66,"title":"Yellow-headed Blackbird","ispublic":1,"isfriend":0,"isfamily":0},{"id":"52362915343","owner":"196264892@N08","secret":"2934272276","server":"65535","farm":66,"title":"Yellow-headed Blackbird","ispublic":1,"isfriend":0,"isfamily":0},{"id":"52362684186","owner":"196264892@N08","secret":"564b628def","server":"65535","farm":66,"title":"Yellow-headed Blackbird","ispublic":1,"isfriend":0,"isfamily":0},{"id":"52362914758","owner":"196264892@N08","secret":"44a93006a8","server":"65535","farm":66,"title":"Yellow-headed Blackbird","ispublic":1,"isfriend":0,"isfamily":0},{"id":"52362063364","owner":"40724294@N04","secret":"11b369a33e","server":"65535","farm":66,"title":"Yellow-headed Blackbird Welcomes The Morning","ispublic":1,"isfriend":0,"isfamily":0},{"id":"52350372930","owner":"119787485@N07","secret":"37f690da7f","server":"65535","farm":66,"title":"Yellow-headed Blackbird (Xanthocephalus xanthocephalus) - 20220610-02","ispublic":1,"isfriend":0,"isfamily":0},{"id":"52337741620","owner":"137364640@N08","secret":"6dec99c263","server":"65535","farm":66,"title":"Yellow-headed Blackbird","ispublic":1,"isfriend":0,"isfamily":0},{"id":"52337312841","owner":"137364640@N08","secret":"1ab38e8765","server":"65535","farm":66,"title":"Yellow-headed Blackbird","ispublic":1,"isfriend":0,"isfamily":0},{"id":"52334560131","owner":"53256251@N04","secret":"678d8ef296","server":"65535","farm":66,"title":"Peeking Out - Juvenile Yellow Headed Blackbird","ispublic":1,"isfriend":0,"isfamily":0},{"id":"52327867203","owner":"35607158@N06","secret":"322c4ecd4b","server":"65535","farm":66,"title":"Yellow headed blackbird","ispublic":1,"isfriend":0,"isfamily":0},{"id":"52325327936","owner":"36685968@N00","secret":"f7cc986fdc","server":"65535","farm":66,"title":"Yellow-headed Blackbird (Xanthocephalus xanthocephalus)","ispublic":1,"isfriend":0,"isfamily":0},{"id":"52325689050","owner":"36685968@N00","secret":"9a2dfa60a9","server":"65535","farm":66,"title":"Yellow-headed Blackbird (Xanthocephalus xanthocephalus)","ispublic":1,"isfriend":0,"isfamily":0},{"id":"52299253236","owner":"22475926@N08","secret":"6b4ca3d131","server":"65535","farm":66,"title":"Too Much Lens","ispublic":1,"isfriend":0,"isfamily":0},{"id":"52286854129","owner":"39652177@N04","secret":"262d53edda","server":"65535","farm":66,"title":"Yellow-headed blackbird","ispublic":1,"isfriend":0,"isfamily":0},{"id":"52284775105","owner":"8666250@N02","secret":"20f6f3840d","server":"65535","farm":66,"title":"Female YH Blackbird","ispublic":1,"isfriend":0,"isfamily":0},{"id":"52278749009","owner":"34238008@N02","secret":"103d19c722","server":"65535","farm":66,"title":"Yellow-headed Blackbird (Xanthocephalus xanthocephalus)","ispublic":1,"isfriend":0,"isfamily":0},{"id":"52277873084","owner":"29610556@N02","secret":"4b4e41b53d","server":"65535","farm":66,"title":"Yellow-headed Blackbird (Xanthocephalus xanthocephalus)","ispublic":1,"isfriend":0,"isfamily":0},{"id":"52275405803","owner":"196264892@N08","secret":"f3018e25cb","server":"65535","farm":66,"title":"Yellow-headed Blackbird 1","ispublic":1,"isfriend":0,"isfamily":0},{"id":"52275869580","owner":"196264892@N08","secret":"0926883cf1","server":"65535","farm":66,"title":"Yellow-headed Blackbird 3","ispublic":1,"isfriend":0,"isfamily":0},{"id":"52275404608","owner":"196264892@N08","secret":"7a77a7fe66","server":"65535","farm":66,"title":"Yellow-headed Blackbird 4","ispublic":1,"isfriend":0,"isfamily":0},{"id":"52270705191","owner":"168495655@N07","secret":"bfbba793ce","server":"65535","farm":66,"title":"Carouge \u00e0 t\u00eate jaune - femelle - Xanthocephalus xanthocephalus - - female - Yellow-headed Blackbird","ispublic":1,"isfriend":0,"isfamily":0},{"id":"52268350636","owner":"53256251@N04","secret":"9c26f27a75","server":"65535","farm":66,"title":"Yellow headed Black Bird Juvenile","ispublic":1,"isfriend":0,"isfamily":0},{"id":"52262334534","owner":"25531047@N00","secret":"5329359372","server":"65535","farm":66,"title":"Yellow-headed blackbird","ispublic":1,"isfriend":0,"isfamily":0},{"id":"52257096973","owner":"35607158@N06","secret":"7e7f3007df","server":"65535","farm":66,"title":"Yellow-headed blackbird","ispublic":1,"isfriend":0,"isfamily":0},{"id":"52253770529","owner":"22475926@N08","secret":"170565e079","server":"65535","farm":66,"title":"Yellow-headed Blackbird (Xanthocephalus xanthocephalus)","ispublic":1,"isfriend":0,"isfamily":0},{"id":"52253160254","owner":"71833159@N00","secret":"2a3e33fe2f","server":"65535","farm":66,"title":"Yellow-headed Blackbird \/ Xanthocephalus xanthocephalus","ispublic":1,"isfriend":0,"isfamily":0},{"id":"52250078896","owner":"34689777@N08","secret":"057668994f","server":"65535","farm":66,"title":"Yellow-headed Blackbirds (Xanthocephalus xanthocephalus) and Brown-headed Cowbirds (Molothrus ater).  San Antonio, Socorro Co., New Mexico, USA.","ispublic":1,"isfriend":0,"isfamily":0},{"id":"52246652585","owner":"53256251@N04","secret":"62a9539608","server":"65535","farm":66,"title":"I love yellow in flight - Yellow headed blackbird","ispublic":1,"isfriend":0,"isfamily":0},{"id":"52246561510","owner":"40724294@N04","secret":"0f9baf1f4f","server":"65535","farm":66,"title":"Yellow-headed Blackbird","ispublic":1,"isfriend":0,"isfamily":0},{"id":"52246048806","owner":"137364640@N08","secret":"c0ddf46155","server":"65535","farm":66,"title":"Yellow-headed Blackbird","ispublic":1,"isfriend":0,"isfamily":0},{"id":"52246545045","owner":"137364640@N08","secret":"7e2f0163f8","server":"65535","farm":66,"title":"Yellow-headed Blackbird","ispublic":1,"isfriend":0,"isfamily":0},{"id":"52580225626","owner":"153973412@N04","secret":"a6a1d02367","server":"65535","farm":66,"title":"Yellow-headed Blackbird-Xanthocephalus xanthocephalus, Trumbull Lake, IA","ispublic":1,"isfriend":0,"isfamily":0},{"id":"52513345723","owner":"48014585@N00","secret":"0f5b9fcaac","server":"65535","farm":66,"title":"Yellow-headed Blackbird","ispublic":1,"isfriend":0,"isfamily":0},{"id":"52512326707","owner":"48014585@N00","secret":"17455a733e","server":"65535","farm":66,"title":"Yellow-headed Blackbird","ispublic":1,"isfriend":0,"isfamily":0},{"id":"52512799856","owner":"48014585@N00","secret":"8cfd79b5b9","server":"65535","farm":66,"title":"Yellow-headed Blackbird","ispublic":1,"isfriend":0,"isfamily":0},{"id":"52512326192","owner":"48014585@N00","secret":"ce23783e42","server":"65535","farm":66,"title":"Yellow-headed Blackbird","ispublic":1,"isfriend":0,"isfamily":0},{"id":"52513277390","owner":"48014585@N00","secret":"f1c9656ec2","server":"65535","farm":66,"title":"Yellow-headed Blackbird","ispublic":1,"isfriend":0,"isfamily":0},{"id":"52513343688","owner":"48014585@N00","secret":"18b535a35e","server":"65535","farm":66,"title":"Yellow-headed Blackbird","ispublic":1,"isfriend":0,"isfamily":0},{"id":"52512324892","owner":"48014585@N00","secret":"69faef82c2","server":"65535","farm":66,"title":"Yellow-headed Blackbird","ispublic":1,"isfriend":0,"isfamily":0},{"id":"52494755377","owner":"64557331@N04","secret":"a266b9f191","server":"65535","farm":66,"title":"Yellow-Headed Blackbird - (Xanthocephalus xanthocephalus)_06172021","ispublic":1,"isfriend":0,"isfamily":0},{"id":"52494755352","owner":"64557331@N04","secret":"c9367a12f5","server":"65535","farm":66,"title":"Yellow-Headed Blackbird - (Xanthocephalus xanthocephalus)_06162021","ispublic":1,"isfriend":0,"isfamily":0},{"id":"52390069625","owner":"9243885@N07","secret":"ae39e8195a","server":"65535","farm":66,"title":"2022_09_24_5DMk4_79071","ispublic":1,"isfriend":0,"isfamily":0},{"id":"52363109400","owner":"196264892@N08","secret":"882b2966a0","server":"65535","farm":66,"title":"Yellow-headed Blackbird","ispublic":1,"isfriend":0,"isfamily":0},{"id":"52363109000","owner":"196264892@N08","secret":"3676897c16","server":"65535","farm":66,"title":"Yellow-headed Blackbird","ispublic":1,"isfriend":0,"isfamily":0},{"id":"52362684721","owner":"196264892@N08","secret":"1110e91883","server":"65535","farm":66,"title":"Yellow-headed Blackbird","ispublic":1,"isfriend":0,"isfamily":0},{"id":"52281097540","owner":"34238008@N02","secret":"845f7c57a0","server":"65535","farm":66,"title":"Yellow-headed Blackbird (Xanthocephalus xanthocephalus)","ispublic":1,"isfriend":0,"isfamily":0},{"id":"52265530994","owner":"8666250@N02","secret":"1f5b2507fe","server":"65535","farm":66,"title":"\"Givin' m'self a shake!\"","ispublic":1,"isfriend":0,"isfamily":0},{"id":"52265745685","owner":"8666250@N02","secret":"e317c4c270","server":"65535","farm":66,"title":"\"I'll be glad to get rid of my spring coat!\"","ispublic":1,"isfriend":0,"isfamily":0},{"id":"52265530694","owner":"8666250@N02","secret":"51a0fbf6b3","server":"65535","farm":66,"title":"Warden of the Wire!","ispublic":1,"isfriend":0,"isfamily":0}]},"stat":"ok"}