{"photos":{"page":1,"pages":7,"perpage":100,"total":617,"photo":[{"id":"52580605209","owner":"153973412@N04","secret":"5e8a1face5","server":"65535","farm":66,"title":"Alder Flycatcher-Empidonax alnorum, Iowa City, IA","ispublic":1,"isfriend":0,"isfamily":0},{"id":"52461420534","owner":"23711298@N07","secret":"e6624223e0","server":"65535","farm":66,"title":"Flycatcher- Alder Flycatcher, Minnesota, Anoka County, Carlos Avery Wildlife Management Area","ispublic":1,"isfriend":0,"isfamily":0},{"id":"52451579818","owner":"38242794@N02","secret":"55cd119b0e","server":"65535","farm":66,"title":"Elrigreipur - Alder Flycatcher - Empidonax alnorum","ispublic":1,"isfriend":0,"isfamily":0},{"id":"52438078237","owner":"149819320@N07","secret":"26daae0bdc","server":"65535","farm":66,"title":"Alder Flycatcher (Empidonax alnorum)","ispublic":1,"isfriend":0,"isfamily":0},{"id":"52435842554","owner":"18217058@N04","secret":"3c8b4ae14e","server":"65535","farm":66,"title":"Alder Flycatcher \/ Elrigreipur (Empidonax alnorum)","ispublic":1,"isfriend":0,"isfamily":0},{"id":"52435569196","owner":"18217058@N04","secret":"f85acd97ed","server":"65535","farm":66,"title":"Alder Flycatcher \/ Elrigreipur (Empidonax alnorum) released by S\u00f6lvi R.Vignisson, ornithologist","ispublic":1,"isfriend":0,"isfamily":0},{"id":"52435569161","owner":"18217058@N04","secret":"b0ff942492","server":"65535","farm":66,"title":"Alder Flycatcher \/ Elrigreipur (Empidonax alnorum) in the hands of S\u00f6lvi R.Vignisson, ornithologist","ispublic":1,"isfriend":0,"isfamily":0},{"id":"52435062732","owner":"18217058@N04","secret":"7b754f6b58","server":"65535","farm":66,"title":"Alder Flycatcher \/ Elrigreipur (Empidonax alnorum) in the hand of S\u00f6lvi R.Vignisson, ornithologist","ispublic":1,"isfriend":0,"isfamily":0},{"id":"52436019705","owner":"18217058@N04","secret":"5d7d4dec43","server":"65535","farm":66,"title":"Alder Flycatcher \/ Elrigreipur (Empidonax alnorum) in the hands of S\u00f6lvi R.Vignisson, ornithologist","ispublic":1,"isfriend":0,"isfamily":0},{"id":"52435833679","owner":"18217058@N04","secret":"22af145d3f","server":"65535","farm":66,"title":"Alder Flycatcher \/ Elrigreipur (Empidonax alnorum)","ispublic":1,"isfriend":0,"isfamily":0},{"id":"52436075378","owner":"18217058@N04","secret":"ae74de48a6","server":"65535","farm":66,"title":"Alder Flycatcher \/ Elrigreipur (Empidonax alnorum)","ispublic":1,"isfriend":0,"isfamily":0},{"id":"52436010545","owner":"18217058@N04","secret":"946cb3ba2a","server":"65535","farm":66,"title":"Alder Flycatcher \/ Elrigreipur (Empidonax alnorum)","ispublic":1,"isfriend":0,"isfamily":0},{"id":"52436010480","owner":"18217058@N04","secret":"af347110b0","server":"65535","farm":66,"title":"Alder Flycatcher \/ Elrigreipur (Empidonax alnorum)","ispublic":1,"isfriend":0,"isfamily":0},{"id":"52436075293","owner":"18217058@N04","secret":"89bf760122","server":"65535","farm":66,"title":"Alder Flycatcher \/ Elrigreipur (Empidonax alnorum)","ispublic":1,"isfriend":0,"isfamily":0},{"id":"52435818674","owner":"18217058@N04","secret":"51a2bd0d97","server":"65535","farm":66,"title":"Alder Flycatcher \/ Elrigreipur (Empidonax alnorum)","ispublic":1,"isfriend":0,"isfamily":0},{"id":"52436060368","owner":"18217058@N04","secret":"868de9e8ac","server":"65535","farm":66,"title":"Alder Flycatcher \/ Elrigreipur (Empidonax alnorum)","ispublic":1,"isfriend":0,"isfamily":0},{"id":"52436060348","owner":"18217058@N04","secret":"dc8b6fff06","server":"65535","farm":66,"title":"Alder Flycatcher \/ Elrigreipur (Empidonax alnorum)","ispublic":1,"isfriend":0,"isfamily":0},{"id":"52432789775","owner":"18217058@N04","secret":"6631b3f368","server":"65535","farm":66,"title":"Alder Flycatcher \/ Elrigreipur (Empidonax alnorum)","ispublic":1,"isfriend":0,"isfamily":0},{"id":"52362929903","owner":"23711298@N07","secret":"b49baacf03","server":"65535","farm":66,"title":"Flycatcher- Alder Flycatcher, Minnesota, Anoka County, Fish Lake Nature Trail","ispublic":1,"isfriend":0,"isfamily":0},{"id":"52267141224","owner":"132226280@N04","secret":"aea644c8a8","server":"65535","farm":66,"title":"Alder Flycatcher","ispublic":1,"isfriend":0,"isfamily":0},{"id":"52259177013","owner":"184155060@N04","secret":"e4cf621b17","server":"65535","farm":66,"title":"16178 Moucherolle des aulnes \/ Empidonax alnorum \/ Alder Flycatcher","ispublic":1,"isfriend":0,"isfamily":0},{"id":"52255683491","owner":"92361032@N05","secret":"fe4f1f1827","server":"65535","farm":66,"title":"Alder Flycatcher \/ Moucherolle des aulnes ( Richard )","ispublic":1,"isfriend":0,"isfamily":0},{"id":"52219155318","owner":"27588142@N06","secret":"6a5372de43","server":"65535","farm":66,"title":"Alder Flycatcher","ispublic":1,"isfriend":0,"isfamily":0},{"id":"52219626225","owner":"27588142@N06","secret":"fec62baba7","server":"65535","farm":66,"title":"Alder Flycatcher","ispublic":1,"isfriend":0,"isfamily":0},{"id":"52219142471","owner":"27588142@N06","secret":"e93d793b16","server":"65535","farm":66,"title":"Alder Flycatcher","ispublic":1,"isfriend":0,"isfamily":0},{"id":"52219154918","owner":"27588142@N06","secret":"ce27a6f449","server":"65535","farm":66,"title":"Alder Flycatcher","ispublic":1,"isfriend":0,"isfamily":0},{"id":"52219625745","owner":"27588142@N06","secret":"d092d534f5","server":"65535","farm":66,"title":"Alder Flycatcher","ispublic":1,"isfriend":0,"isfamily":0},{"id":"52219154578","owner":"27588142@N06","secret":"ea5968695a","server":"65535","farm":66,"title":"Alder Flycatcher","ispublic":1,"isfriend":0,"isfamily":0},{"id":"52204916868","owner":"139237357@N06","secret":"a27c3f18ba","server":"65535","farm":66,"title":"Alder Flycatcher","ispublic":1,"isfriend":0,"isfamily":0},{"id":"52194538787","owner":"65788177@N02","secret":"dbb4367b96","server":"65535","farm":66,"title":"Alder Flycatcher","ispublic":1,"isfriend":0,"isfamily":0},{"id":"52174304472","owner":"48014585@N00","secret":"346162eee0","server":"65535","farm":66,"title":"Alder Flycatcher","ispublic":1,"isfriend":0,"isfamily":0},{"id":"52174304292","owner":"48014585@N00","secret":"f1137afc0f","server":"65535","farm":66,"title":"Alder Flycatcher","ispublic":1,"isfriend":0,"isfamily":0},{"id":"52163216069","owner":"29170368@N03","secret":"e2a934ddfc","server":"65535","farm":66,"title":"Alder Flycatcher","ispublic":1,"isfriend":0,"isfamily":0},{"id":"52143836482","owner":"78919200@N08","secret":"987a222af7","server":"65535","farm":66,"title":"Alder Flycatcher (Empidonax alnorum)","ispublic":1,"isfriend":0,"isfamily":0},{"id":"52123758029","owner":"165841515@N03","secret":"d52d55cd70","server":"65535","farm":66,"title":"Moucherolle des aulnes \/ Alder Flycatcher \/ (Empidonax alnorum)","ispublic":1,"isfriend":0,"isfamily":0},{"id":"52118339669","owner":"150486191@N05","secret":"d0ba480d69","server":"65535","farm":66,"title":"Moucherolle des aulnes DM 2022.06.02","ispublic":1,"isfriend":0,"isfamily":0},{"id":"52109825467","owner":"135315828@N06","secret":"3373857f90","server":"65535","farm":66,"title":"alder flycatcher","ispublic":1,"isfriend":0,"isfamily":0},{"id":"52096218707","owner":"13451078@N03","secret":"9434ef2787","server":"65535","farm":66,"title":"Alder Flycatcher ( Empidonax alnorum)","ispublic":1,"isfriend":0,"isfamily":0},{"id":"52095190354","owner":"61241315@N00","secret":"23af33b3a1","server":"0","farm":0,"title":"Alder Flycatcher_9772 COMPLETE","ispublic":1,"isfriend":0,"isfamily":0},{"id":"52094950806","owner":"61241315@N00","secret":"2d8bef72ed","server":"0","farm":0,"title":"Alder Flycatcher_VOCAL_9751","ispublic":1,"isfriend":0,"isfamily":0},{"id":"52094970993","owner":"61241315@N00","secret":"172b31c872","server":"65535","farm":66,"title":"Alder Flycatcher_N9773","ispublic":1,"isfriend":0,"isfamily":0},{"id":"52094947281","owner":"61241315@N00","secret":"67ce33255b","server":"65535","farm":66,"title":"Alder Flycatcher_N9774","ispublic":1,"isfriend":0,"isfamily":0},{"id":"52087818196","owner":"17654080@N08","secret":"d4f3a4a08a","server":"65535","farm":66,"title":"Alder Flycatcher (Empidonax alnorum)","ispublic":1,"isfriend":0,"isfamily":0},{"id":"52087843378","owner":"17654080@N08","secret":"05996928d9","server":"65535","farm":66,"title":"Alder Flycatcher (Empidonax alnorum)","ispublic":1,"isfriend":0,"isfamily":0},{"id":"52082037507","owner":"129803374@N05","secret":"cd13a9933a","server":"65535","farm":66,"title":"Alder Flycatcher (Empidonax alnorum)","ispublic":1,"isfriend":0,"isfamily":0},{"id":"52007664074","owner":"136180232@N08","secret":"becf08cc38","server":"65535","farm":66,"title":"Alder Flycatcher (Empidonax alnorum) JTD_6436","ispublic":1,"isfriend":0,"isfamily":0},{"id":"51911927658","owner":"76617062@N08","secret":"9ea20b14ca","server":"65535","farm":66,"title":"1.14388 Moucherolle des aulnes \/ Empidonax alnorum \/ Alder Flycatcher","ispublic":1,"isfriend":0,"isfamily":0},{"id":"51785575764","owner":"192502021@N07","secret":"232a536c03","server":"65535","farm":66,"title":"Atrapamoscas            Alisero            Alder Flycatcher Empidonax alnorum","ispublic":1,"isfriend":0,"isfamily":0},{"id":"51649285554","owner":"132508209@N08","secret":"d4247bb96a","server":"65535","farm":66,"title":"Alder Flycatcher (Empidonax alnorum)","ispublic":1,"isfriend":0,"isfamily":0},{"id":"51649478220","owner":"132508209@N08","secret":"fb27ec8004","server":"65535","farm":66,"title":"Alder Flycatcher (Empidonax alnorum)","ispublic":1,"isfriend":0,"isfamily":0},{"id":"51647790617","owner":"132508209@N08","secret":"472a2d0115","server":"65535","farm":66,"title":"Alder Flycatcher (Empidonax alnorum)","ispublic":1,"isfriend":0,"isfamily":0},{"id":"51648521818","owner":"67306066@N03","secret":"555837181f","server":"65535","farm":66,"title":"Alder Flycatcher (Empidonax alnorum)","ispublic":1,"isfriend":0,"isfamily":0},{"id":"51603307491","owner":"48938938@N04","secret":"cfa95d93e2","server":"65535","farm":66,"title":"Alder_Willow Flycatcher_Empidonax alnorum_traillii_Ascanio_Costa Rica_Ascanio_DZ3A2347","ispublic":1,"isfriend":0,"isfamily":0},{"id":"51604189810","owner":"48938938@N04","secret":"aea13895bd","server":"65535","farm":66,"title":"Alder_Willow Flycatcher_Empidonax alnorum_traillii_Ascanio_Costa Rica_Ascanio_DZ3A2349","ispublic":1,"isfriend":0,"isfamily":0},{"id":"51417173969","owner":"65148649@N04","secret":"c66750d35a","server":"65535","farm":66,"title":"Alder Flycatcher","ispublic":1,"isfriend":0,"isfamily":0},{"id":"51416677863","owner":"65148649@N04","secret":"26b103220d","server":"65535","farm":66,"title":"Alder Flycatcher","ispublic":1,"isfriend":0,"isfamily":0},{"id":"51415665702","owner":"65148649@N04","secret":"20e8754bb8","server":"65535","farm":66,"title":"Alder Flycatcher","ispublic":1,"isfriend":0,"isfamily":0},{"id":"51387413436","owner":"123979267@N05","secret":"dcb543553b","server":"65535","farm":66,"title":"Alder Flycatcher","ispublic":1,"isfriend":0,"isfamily":0},{"id":"51386651522","owner":"123979267@N05","secret":"60621a34ef","server":"65535","farm":66,"title":"Alder Flycatcher","ispublic":1,"isfriend":0,"isfamily":0},{"id":"51335429681","owner":"131779834@N08","secret":"4fd23563dc","server":"65535","farm":66,"title":"Alder Flycatcher","ispublic":1,"isfriend":0,"isfamily":0},{"id":"51340009705","owner":"139237357@N06","secret":"45b60a3107","server":"65535","farm":66,"title":"Alder Flycatcher","ispublic":1,"isfriend":0,"isfamily":0},{"id":"51338981486","owner":"7261670@N03","secret":"6d5e38ddc1","server":"65535","farm":66,"title":"Alder Flycatcher","ispublic":1,"isfriend":0,"isfamily":0},{"id":"51334286128","owner":"165841515@N03","secret":"7dd10423ca","server":"65535","farm":66,"title":"Moucherolle des aulnes \/ Alder Flycatcher \/ (Empidonax alnorum)","ispublic":1,"isfriend":0,"isfamily":0},{"id":"51335068870","owner":"165841515@N03","secret":"ae19ac6319","server":"65535","farm":66,"title":"Moucherolle des aulnes \/ Alder Flycatcher \/ (Empidonax alnorum)","ispublic":1,"isfriend":0,"isfamily":0},{"id":"51315504599","owner":"168495655@N07","secret":"8fea61f08a","server":"65535","farm":66,"title":"Moucherolle des aulnes - Empidonax alnorum - Alder Flycatcher","ispublic":1,"isfriend":0,"isfamily":0},{"id":"51307765492","owner":"162163713@N06","secret":"9652afc20d","server":"65535","farm":66,"title":"Moucherolle des aulnes","ispublic":1,"isfriend":0,"isfamily":0},{"id":"51305034728","owner":"162163713@N06","secret":"92549a1e11","server":"65535","farm":66,"title":"Moucherolle des aulnes","ispublic":1,"isfriend":0,"isfamily":0},{"id":"51299537742","owner":"76617062@N08","secret":"30c9a79f35","server":"65535","farm":66,"title":"1.14388 Moucherolle des aulnes \/ Empidonax alnorum \/ Alder Flycatcher","ispublic":1,"isfriend":0,"isfamily":0},{"id":"51266879577","owner":"92361032@N05","secret":"9aa651e059","server":"65535","farm":66,"title":"Alder Flycatcher \/ Moucherolle des aulnes ( Diane )","ispublic":1,"isfriend":0,"isfamily":0},{"id":"51249576805","owner":"162163713@N06","secret":"571207c629","server":"65535","farm":66,"title":"Moucherolle des aulnes","ispublic":1,"isfriend":0,"isfamily":0},{"id":"51235458470","owner":"139237357@N06","secret":"167c15881e","server":"65535","farm":66,"title":"Alder Flycatcher","ispublic":1,"isfriend":0,"isfamily":0},{"id":"51233622185","owner":"146597151@N03","secret":"2163baa90d","server":"65535","farm":66,"title":"Alder Flycatcher \/ Moucherolle des Aulnes","ispublic":1,"isfriend":0,"isfamily":0},{"id":"51232521288","owner":"39138537@N06","secret":"a8a349c08f","server":"0","farm":0,"title":"Alder Flycatcher (Empidonax alnorum)","ispublic":1,"isfriend":0,"isfamily":0},{"id":"51230570330","owner":"46939390@N07","secret":"ebea5a4536","server":"65535","farm":66,"title":"Alder Flycatcher - Empidonax alnorum","ispublic":1,"isfriend":0,"isfamily":0},{"id":"51222043832","owner":"184155060@N04","secret":"87c4169bf5","server":"65535","farm":66,"title":"16178 Moucherolle des aulnes \/ Empidonax alnorum \/ Alder Flycatcher","ispublic":1,"isfriend":0,"isfamily":0},{"id":"51222750381","owner":"184155060@N04","secret":"106c1ee17a","server":"65535","farm":66,"title":"16178 Moucherolle des aulnes \/ Empidonax alnorum \/ Alder Flycatcher","ispublic":1,"isfriend":0,"isfamily":0},{"id":"51206399785","owner":"7261670@N03","secret":"fc7026d316","server":"65535","farm":66,"title":"Alder Flycatcher","ispublic":1,"isfriend":0,"isfamily":0},{"id":"51205541193","owner":"7261670@N03","secret":"3bc32e691d","server":"65535","farm":66,"title":"Alder Flycatcher","ispublic":1,"isfriend":0,"isfamily":0},{"id":"51203342254","owner":"82402390@N02","secret":"d56f7d664c","server":"65535","farm":66,"title":"Moucherolle des aulnes, Alder Flycatcher.  DSC_8244","ispublic":1,"isfriend":0,"isfamily":0},{"id":"51186701879","owner":"100108154@N02","secret":"a42cf3f3eb","server":"65535","farm":66,"title":"Traill's Flycatcher","ispublic":1,"isfriend":0,"isfamily":0},{"id":"51186701904","owner":"100108154@N02","secret":"2edf1ce8a7","server":"65535","farm":66,"title":"Got The Other Side Too","ispublic":1,"isfriend":0,"isfamily":0},{"id":"51023311512","owner":"61021753@N02","secret":"51cc0cf23f","server":"65535","farm":66,"title":"n431_w1150","ispublic":1,"isfriend":0,"isfamily":0},{"id":"50794115642","owner":"32752434@N07","secret":"1ac019d5e4","server":"65535","farm":66,"title":"Alder Flycatcher  (Empidonax alnorum)","ispublic":1,"isfriend":0,"isfamily":0},{"id":"50721838297","owner":"187678271@N07","secret":"3c43269a35","server":"65535","farm":66,"title":"Alder Flycatcher \/ Empidonax alnorum","ispublic":1,"isfriend":0,"isfamily":0},{"id":"50695881138","owner":"23711298@N07","secret":"6b5f31bd23","server":"65535","farm":66,"title":"Flycatcher- Alder Flycatcher, Minnesota, Hennepin County- Richfield, Wood Lake Nature Center","ispublic":1,"isfriend":0,"isfamily":0},{"id":"50685058868","owner":"90072707@N03","secret":"460618b472","server":"65535","farm":66,"title":"juvenile Alder Flycatcher (Empidonax alnorum) at TLBO YT","ispublic":1,"isfriend":0,"isfamily":0},{"id":"50513632553","owner":"26803925@N05","secret":"e927201367","server":"65535","farm":66,"title":"Alder Flycatcher Empidonax alnorum) 08-30-2020 Broadford Reservoir, Garrett Co. MD 4","ispublic":1,"isfriend":0,"isfamily":0},{"id":"50513632538","owner":"26803925@N05","secret":"0ef40c8384","server":"65535","farm":66,"title":"Alder Flycatcher Empidonax alnorum) 08-30-2020 Broadford Reservoir, Garrett Co. MD 3","ispublic":1,"isfriend":0,"isfamily":0},{"id":"50514345331","owner":"26803925@N05","secret":"4f91d038c1","server":"65535","farm":66,"title":"Alder Flycatcher Empidonax alnorum) 08-30-2020 Broadford Reservoir, Garrett Co. MD 2","ispublic":1,"isfriend":0,"isfamily":0},{"id":"50514345296","owner":"26803925@N05","secret":"9d428a57d3","server":"65535","farm":66,"title":"Alder Flycatcher Empidonax alnorum) 08-30-2020 Broadford Reservoir, Garrett Co. MD 1","ispublic":1,"isfriend":0,"isfamily":0},{"id":"50491014838","owner":"59770980@N02","secret":"41dcdcc5c6","server":"65535","farm":66,"title":"Elrigreipur-Alder Flycatcher-Empidonax alnorum","ispublic":1,"isfriend":0,"isfamily":0},{"id":"50431894508","owner":"99208129@N08","secret":"3e9c169e57","server":"65535","farm":66,"title":"Empidonax alnorum \/ Alder Flycatcher","ispublic":1,"isfriend":0,"isfamily":0},{"id":"50395802157","owner":"163930705@N05","secret":"1c6e43e643","server":"65535","farm":66,"title":"Alder Flycatcher \/ Elrigreipur (Empidonax alnorum)","ispublic":1,"isfriend":0,"isfamily":0},{"id":"50391726262","owner":"55584551@N04","secret":"aa9c1e6c69","server":"65535","farm":66,"title":"Elrigreipur Alder Flycatcher - Empidonax alnorum","ispublic":1,"isfriend":0,"isfamily":0},{"id":"50379070208","owner":"59631194@N06","secret":"b15516e8ca","server":"65535","farm":66,"title":"Alder flycatcher (Empidonax alnorum)","ispublic":1,"isfriend":0,"isfamily":0},{"id":"50376070368","owner":"53783366@N04","secret":"089cdfbedc","server":"65535","farm":66,"title":"Alder Flycatcher - Elrigreipur -  Empidonax alnorum   -","ispublic":1,"isfriend":0,"isfamily":0},{"id":"52435818609","owner":"18217058@N04","secret":"aa15947a8a","server":"65535","farm":66,"title":"Alder Flycatcher \/ Elrigreipur (Empidonax alnorum)","ispublic":1,"isfriend":0,"isfamily":0},{"id":"52219411674","owner":"27588142@N06","secret":"107189b20d","server":"65535","farm":66,"title":"Alder Flycatcher","ispublic":1,"isfriend":0,"isfamily":0},{"id":"52094951776","owner":"61241315@N00","secret":"85f774fbbe","server":"0","farm":0,"title":"Alder Flycatcher_9772","ispublic":1,"isfriend":0,"isfamily":0},{"id":"51884256332","owner":"119468907@N03","secret":"43b64b8d88","server":"0","farm":0,"title":"Moucherolle des aulnes","ispublic":1,"isfriend":0,"isfamily":0}]},"stat":"ok"}