{"photos":{"page":1,"pages":2,"perpage":100,"total":113,"photo":[{"id":"52519329751","owner":"48014585@N00","secret":"819291b6f5","server":"65535","farm":66,"title":"Bar-tailed Godwit","ispublic":1,"isfriend":0,"isfamily":0},{"id":"52178692500","owner":"48014585@N00","secret":"34f6e1e0a1","server":"65535","farm":66,"title":"Aleutian Tern","ispublic":1,"isfriend":0,"isfamily":0},{"id":"52177173537","owner":"48014585@N00","secret":"fa172c5d8c","server":"65535","farm":66,"title":"Aleutian Tern","ispublic":1,"isfriend":0,"isfamily":0},{"id":"52178029558","owner":"48014585@N00","secret":"b5b0facea2","server":"65535","farm":66,"title":"Aleutian Tern","ispublic":1,"isfriend":0,"isfamily":0},{"id":"52178026111","owner":"48014585@N00","secret":"0e2369c48d","server":"65535","farm":66,"title":"Aleutian Tern","ispublic":1,"isfriend":0,"isfamily":0},{"id":"52178273039","owner":"48014585@N00","secret":"21fc7dcd09","server":"65535","farm":66,"title":"Aleutian Tern","ispublic":1,"isfriend":0,"isfamily":0},{"id":"52178023703","owner":"48014585@N00","secret":"eced7b36ac","server":"65535","farm":66,"title":"Aleutian Tern","ispublic":1,"isfriend":0,"isfamily":0},{"id":"52178268124","owner":"48014585@N00","secret":"dd43eb97ef","server":"65535","farm":66,"title":"Aleutian Tern","ispublic":1,"isfriend":0,"isfamily":0},{"id":"52178511135","owner":"48014585@N00","secret":"b8ea242860","server":"65535","farm":66,"title":"Aleutian Tern","ispublic":1,"isfriend":0,"isfamily":0},{"id":"52176992947","owner":"48014585@N00","secret":"ecb0afd55e","server":"65535","farm":66,"title":"Bar-tailed Godwit, Black-legged Kittiwake, Arctic Tern","ispublic":1,"isfriend":0,"isfamily":0},{"id":"52176946112","owner":"48014585@N00","secret":"f0110ca20b","server":"65535","farm":66,"title":"Aleutian Tern and two Arctic Terns","ispublic":1,"isfriend":0,"isfamily":0},{"id":"52178215809","owner":"48014585@N00","secret":"e7004bfeab","server":"65535","farm":66,"title":"Aleutian Tern offering a fish","ispublic":1,"isfriend":0,"isfamily":0},{"id":"52177970808","owner":"48014585@N00","secret":"00acffb7b3","server":"65535","farm":66,"title":"Bar-tailed Godwit with Arctic and Aleutian Terns","ispublic":1,"isfriend":0,"isfamily":0},{"id":"52176913167","owner":"48014585@N00","secret":"e4a8d94463","server":"65535","farm":66,"title":"Aleutian Tern (LIFER!)","ispublic":1,"isfriend":0,"isfamily":0},{"id":"51283711311","owner":"29170368@N03","secret":"809c7bb194","server":"65535","farm":66,"title":"Aleutian Tern","ispublic":1,"isfriend":0,"isfamily":0},{"id":"51269657532","owner":"21702714@N06","secret":"4315513b1b","server":"65535","farm":66,"title":"Aleutian Tern","ispublic":1,"isfriend":0,"isfamily":0},{"id":"49479710532","owner":"40195635@N03","secret":"4e5d239e2a","server":"65535","farm":66,"title":"Aleutian Tern (Onychoprion aleuticus)","ispublic":1,"isfriend":0,"isfamily":0},{"id":"49416364933","owner":"77109890@N00","secret":"d9d73b7980","server":"65535","farm":66,"title":"Aleutian Tern","ispublic":1,"isfriend":0,"isfamily":0},{"id":"49113124663","owner":"66709001@N00","secret":"7e06aafe94","server":"65535","farm":66,"title":"Aleutian Tern (Onychoprion aleuticus)","ispublic":1,"isfriend":0,"isfamily":0},{"id":"49113633611","owner":"66709001@N00","secret":"d987c9e447","server":"65535","farm":66,"title":"Aleutian Tern (Onychoprion aleuticus)","ispublic":1,"isfriend":0,"isfamily":0},{"id":"48516814302","owner":"132638863@N04","secret":"fabaf147fd","server":"65535","farm":66,"title":"Aleutian Tern \/ Sterne des Al\u00e9outiennes","ispublic":1,"isfriend":0,"isfamily":0},{"id":"48279612207","owner":"111949217@N08","secret":"246dcb341f","server":"65535","farm":66,"title":"Charr\u00e1n aleutiano, aleutian tern(onychoprion aleuticus)","ispublic":1,"isfriend":0,"isfamily":0},{"id":"33325335268","owner":"26803925@N05","secret":"f57a36cc78","server":"7882","farm":8,"title":"Aleutian Tern (Onychoprion Aleuticus) 06-11-2017 Nome River Mouth, Nome Co. Ak-1","ispublic":1,"isfriend":0,"isfamily":0},{"id":"30256995888","owner":"53358437@N07","secret":"7d7766e88b","server":"1811","farm":2,"title":"Aleutian Tern (Onychoprion aleuticus)","ispublic":1,"isfriend":0,"isfamily":0},{"id":"38485801320","owner":"31350467@N04","secret":"13c8aa3e53","server":"4602","farm":5,"title":"Tern, Aleutian (Onychoprion aleuticus)","ispublic":1,"isfriend":0,"isfamily":0},{"id":"40251950751","owner":"31350467@N04","secret":"5bc46cf799","server":"4621","farm":5,"title":"Tern, Aleutian (Onychoprion aleuticus)","ispublic":1,"isfriend":0,"isfamily":0},{"id":"38952295864","owner":"79861098@N06","secret":"a9cf6b722a","server":"4612","farm":5,"title":"Aleutian Terns","ispublic":1,"isfriend":0,"isfamily":0},{"id":"39230805501","owner":"129013862@N04","secret":"006ec0f4d5","server":"4680","farm":5,"title":"Aleutian Tern (Onychoprion aleuticus)","ispublic":1,"isfriend":0,"isfamily":0},{"id":"39230804851","owner":"129013862@N04","secret":"b7e142808f","server":"4597","farm":5,"title":"Aleutian Tern (Onychoprion aleuticus)","ispublic":1,"isfriend":0,"isfamily":0},{"id":"39021023741","owner":"21331264@N04","secret":"e0b143ca4d","server":"4732","farm":5,"title":"Onychoprion aleuticus 1","ispublic":1,"isfriend":0,"isfamily":0},{"id":"38134483135","owner":"21331264@N04","secret":"1be31be5ca","server":"4739","farm":5,"title":"Onychoprion aleuticus 2","ispublic":1,"isfriend":0,"isfamily":0},{"id":"38304890414","owner":"21331264@N04","secret":"85f0bdef3f","server":"4587","farm":5,"title":"Onychoprion aleuticus 3","ispublic":1,"isfriend":0,"isfamily":0},{"id":"35565866595","owner":"46459046@N05","secret":"e88412395e","server":"4260","farm":5,"title":"Aleutian Tern","ispublic":1,"isfriend":0,"isfamily":0},{"id":"30280547523","owner":"64074416@N06","secret":"84852c8b48","server":"5463","farm":6,"title":"\"Surf's up!\"","ispublic":1,"isfriend":0,"isfamily":0},{"id":"29731818214","owner":"64074416@N06","secret":"a9592217be","server":"8547","farm":9,"title":"Aleutian Tern (Onychoprion aleuticus \u767d\u8170\u71d5\u9e25)","ispublic":1,"isfriend":0,"isfamily":0},{"id":"29704198553","owner":"28786551@N04","secret":"fb7bf8f76a","server":"8269","farm":9,"title":"Aleutian Tern","ispublic":1,"isfriend":0,"isfamily":0},{"id":"27930082394","owner":"130021529@N02","secret":"fc044f55aa","server":"8562","farm":9,"title":"Aleutian Tern | beringt\u00e4rna | Onychoprion aleuticus","ispublic":1,"isfriend":0,"isfamily":0},{"id":"27378807034","owner":"75129988@N00","secret":"7c6caa2a69","server":"7421","farm":8,"title":"Arctic Tern (5107)","ispublic":1,"isfriend":0,"isfamily":0},{"id":"27338243973","owner":"22170893@N06","secret":"85e1509414","server":"7401","farm":8,"title":"Aleutian Tern (Onychoprion aleuticus)","ispublic":1,"isfriend":0,"isfamily":0},{"id":"23910346210","owner":"14191740@N08","secret":"ba783d8142","server":"1478","farm":2,"title":"Aleutian Tern, Nome Safety Lagoon, Alaska","ispublic":1,"isfriend":0,"isfamily":0},{"id":"14449138218","owner":"42474454@N02","secret":"b322b91a90","server":"2907","farm":3,"title":"Aleutian Terns","ispublic":1,"isfriend":0,"isfamily":0},{"id":"14449089690","owner":"42474454@N02","secret":"4d0ddb78a5","server":"2913","farm":3,"title":"Aleutian Tern head-scratch","ispublic":1,"isfriend":0,"isfamily":0},{"id":"14352549679","owner":"42474454@N02","secret":"fbc6e74ca2","server":"2914","farm":3,"title":"Aleutian Tern","ispublic":1,"isfriend":0,"isfamily":0},{"id":"9359502595","owner":"58650784@N08","secret":"d70f2cdefc","server":"3747","farm":4,"title":"Aleutian Tern Pair","ispublic":1,"isfriend":0,"isfamily":0},{"id":"52183675230","owner":"189723744@N02","secret":"8bd5142fbc","server":"65535","farm":66,"title":"ALUTIAN TERN","ispublic":1,"isfriend":0,"isfamily":0},{"id":"52183189361","owner":"189723744@N02","secret":"13b9308620","server":"65535","farm":66,"title":"ALUTIAN TERN","ispublic":1,"isfriend":0,"isfamily":0},{"id":"52178023233","owner":"48014585@N00","secret":"055a611fd7","server":"65535","farm":66,"title":"Bar-tailed Godwit","ispublic":1,"isfriend":0,"isfamily":0},{"id":"51388945662","owner":"8065544@N08","secret":"bba9f9545f","server":"65535","farm":66,"title":"Aleutian Tern (Onychoprion aleuticus)","ispublic":1,"isfriend":0,"isfamily":0},{"id":"51389961333","owner":"8065544@N08","secret":"6c418baa0d","server":"65535","farm":66,"title":"Aleutian Tern (Onychoprion aleuticus)","ispublic":1,"isfriend":0,"isfamily":0},{"id":"51286219579","owner":"96568982@N06","secret":"d5b43d43a7","server":"65535","farm":66,"title":"TERN, Aleutian","ispublic":1,"isfriend":0,"isfamily":0},{"id":"51270582713","owner":"21702714@N06","secret":"929c6d6251","server":"65535","farm":66,"title":"Aleutian Tern","ispublic":1,"isfriend":0,"isfamily":0},{"id":"50393644642","owner":"90764954@N07","secret":"afcec86ff9","server":"65535","farm":66,"title":"Aleutian tern (Onychoprion aleuticus) \u767d\u8170\u71d5\u9e25","ispublic":1,"isfriend":0,"isfamily":0},{"id":"49689842193","owner":"106773832@N02","secret":"29c68d85b6","server":"65535","farm":66,"title":"Aleutian Tern (Onychoprion aleuticus)-3770","ispublic":1,"isfriend":0,"isfamily":0},{"id":"49690687737","owner":"106773832@N02","secret":"b5ed1edb2c","server":"65535","farm":66,"title":"Aleutian Tern (Onychoprion aleuticus)-3765","ispublic":1,"isfriend":0,"isfamily":0},{"id":"49113847047","owner":"66709001@N00","secret":"f3a3fea557","server":"65535","farm":66,"title":"Aleutian Tern (Onychoprion aleuticus)","ispublic":1,"isfriend":0,"isfamily":0},{"id":"49113842862","owner":"66709001@N00","secret":"87efdef696","server":"65535","farm":66,"title":"Aleutian Tern (Onychoprion aleuticus)","ispublic":1,"isfriend":0,"isfamily":0},{"id":"49113651066","owner":"66709001@N00","secret":"f07292c2b9","server":"65535","farm":66,"title":"Aleutian Tern (Onychoprion aleuticus)","ispublic":1,"isfriend":0,"isfamily":0},{"id":"48867005761","owner":"171125683@N02","secret":"c0ce6205ab","server":"65535","farm":66,"title":"Onychoprion aleuticus 4","ispublic":1,"isfriend":0,"isfamily":0},{"id":"48867203372","owner":"171125683@N02","secret":"85cdb215e3","server":"65535","farm":66,"title":"Onychoprion aleuticus 5","ispublic":1,"isfriend":0,"isfamily":0},{"id":"48867004631","owner":"171125683@N02","secret":"9afe38b6e5","server":"65535","farm":66,"title":"Onychoprion aleuticus 7","ispublic":1,"isfriend":0,"isfamily":0},{"id":"48867178652","owner":"171125683@N02","secret":"7654f341eb","server":"65535","farm":66,"title":"Onychoprion aleuticus 1","ispublic":1,"isfriend":0,"isfamily":0},{"id":"48866979516","owner":"171125683@N02","secret":"c8a4ff2b7d","server":"65535","farm":66,"title":"Onychoprion aleuticus 2","ispublic":1,"isfriend":0,"isfamily":0},{"id":"48866978801","owner":"171125683@N02","secret":"d798c834f3","server":"65535","farm":66,"title":"Onychoprion aleuticus 3","ispublic":1,"isfriend":0,"isfamily":0},{"id":"48866459108","owner":"171125683@N02","secret":"4d52aa6f77","server":"65535","farm":66,"title":"Onychoprion aleuticus 6","ispublic":1,"isfriend":0,"isfamily":0},{"id":"48866458823","owner":"171125683@N02","secret":"2cc80d16b8","server":"65535","farm":66,"title":"Onychoprion aleuticus 8","ispublic":1,"isfriend":0,"isfamily":0},{"id":"48456972126","owner":"12639178@N07","secret":"afa0ff0362","server":"65535","farm":66,"title":"Aleutenseeschwalbe (Onychoprion aleuticus)","ispublic":1,"isfriend":0,"isfamily":0},{"id":"48456971351","owner":"12639178@N07","secret":"0d084f166b","server":"65535","farm":66,"title":"Aleutenseeschwalbe (Onychoprion aleuticus)","ispublic":1,"isfriend":0,"isfamily":0},{"id":"45709274914","owner":"12639178@N07","secret":"50e0fab5f2","server":"4861","farm":5,"title":"Kamtschatka, Aleutenseeschwalbe","ispublic":1,"isfriend":0,"isfamily":0},{"id":"45519698795","owner":"12639178@N07","secret":"0bf026bbe6","server":"4871","farm":5,"title":"Kamtschatka, Aleutenseeschwalbe","ispublic":1,"isfriend":0,"isfamily":0},{"id":"30373805137","owner":"64074416@N06","secret":"1feaedb233","server":"1953","farm":2,"title":"Aleutian Tern (Onychoprion aleuticus \u767d\u8170\u71d5\u9e25)","ispublic":1,"isfriend":0,"isfamily":0},{"id":"41852368100","owner":"132165466@N08","secret":"840b0a195a","server":"931","farm":1,"title":"Aleutian Tern","ispublic":1,"isfriend":0,"isfamily":0},{"id":"42943697014","owner":"132165466@N08","secret":"880576566e","server":"935","farm":1,"title":"Aleutian Tern","ispublic":1,"isfriend":0,"isfamily":0},{"id":"42161446665","owner":"50763319@N04","secret":"ea5db5cf3b","server":"1807","farm":2,"title":"aleutian tern","ispublic":1,"isfriend":0,"isfamily":0},{"id":"41790939394","owner":"26803925@N05","secret":"0606ee8be3","server":"1727","farm":2,"title":"Aleutian Tern (Onychoprion aleuticus) 06-10-2017 Nome River mouth, Nome Co. AK 4","ispublic":1,"isfriend":0,"isfamily":0},{"id":"27088864568","owner":"26803925@N05","secret":"1b67365dc3","server":"4778","farm":5,"title":"Aleutian Tern (Onychoprion aleuticus) 06-08-2017 Nome River mouth, Nome Co. AK 2","ispublic":1,"isfriend":0,"isfamily":0},{"id":"27088864678","owner":"26803925@N05","secret":"4ce1fe5bb3","server":"4779","farm":5,"title":"Aleutian Tern (Onychoprion aleuticus) 06-08-2017 Nome River mouth, Nome Co. AK 4","ispublic":1,"isfriend":0,"isfamily":0},{"id":"39038375330","owner":"76664823@N02","secret":"d93bf05ee3","server":"797","farm":1,"title":"Aleutian Tern  ( Onychoprion aleuticus )-5000","ispublic":1,"isfriend":0,"isfamily":0},{"id":"26977936408","owner":"76664823@N02","secret":"8ee58b5847","server":"812","farm":1,"title":"Aleutian Tern \u00b7 Onychoprion aleuticus -5461","ispublic":1,"isfriend":0,"isfamily":0},{"id":"25947672537","owner":"76664823@N02","secret":"fa6202d4dc","server":"790","farm":1,"title":"Aleutian Tern.  Onychoprion aleuticus-5493","ispublic":1,"isfriend":0,"isfamily":0},{"id":"26943614968","owner":"26803925@N05","secret":"69acff4472","server":"805","farm":1,"title":"Aleutian Tern (Onychoprion aleuticus) 06-05-2017 Kachemak Bay (NE of Homer Spit), Kenai Peninsula Co. AK","ispublic":1,"isfriend":0,"isfamily":0},{"id":"39031272734","owner":"124792033@N04","secret":"15537d7603","server":"4749","farm":5,"title":"Onychoprion aleuticus","ispublic":1,"isfriend":0,"isfamily":0},{"id":"25756562798","owner":"79861098@N06","secret":"4737beb8fa","server":"4626","farm":5,"title":"Aleutian Tern","ispublic":1,"isfriend":0,"isfamily":0},{"id":"38580501665","owner":"23031163@N03","secret":"88753e41f1","server":"4691","farm":5,"title":"Aleutian Tern (Onychoprion aleuticus)","ispublic":1,"isfriend":0,"isfamily":0},{"id":"25212621468","owner":"21331264@N04","secret":"6c44027ccd","server":"4553","farm":5,"title":"Onychoprion aleuticus 4","ispublic":1,"isfriend":0,"isfamily":0},{"id":"39048451912","owner":"21331264@N04","secret":"08e698f6ce","server":"4583","farm":5,"title":"Onychoprion aleuticus 7","ispublic":1,"isfriend":0,"isfamily":0},{"id":"38197425815","owner":"90408688@N02","secret":"3d5f2db68b","server":"4548","farm":5,"title":"Onychoprion aleuticus - Aleutian Tern","ispublic":1,"isfriend":0,"isfamily":0},{"id":"39057986441","owner":"22517893@N00","secret":"657fedec6d","server":"4538","farm":5,"title":"Aleutian Tern","ispublic":1,"isfriend":0,"isfamily":0},{"id":"39022314211","owner":"90408688@N02","secret":"37cdc9b5ab","server":"4736","farm":5,"title":"Onychoprion aleuticus - Aleutian Tern","ispublic":1,"isfriend":0,"isfamily":0},{"id":"38985744212","owner":"90408688@N02","secret":"b8145b02da","server":"4528","farm":5,"title":"Onychoprion aleuticus - Aleutian Tern","ispublic":1,"isfriend":0,"isfamily":0},{"id":"38985740072","owner":"90408688@N02","secret":"d76c520a8e","server":"4733","farm":5,"title":"Onychoprion aleuticus - Aleutian Tern","ispublic":1,"isfriend":0,"isfamily":0},{"id":"36543188104","owner":"23836012@N02","secret":"09bffc0283","server":"4418","farm":5,"title":"Aleutian Tern (Onychoprion aleuticus)","ispublic":1,"isfriend":0,"isfamily":0},{"id":"35798631073","owner":"24110087@N05","secret":"d83c53b5bf","server":"4356","farm":5,"title":"Aleutian Tern (Onychoprion aleuticus)","ispublic":1,"isfriend":0,"isfamily":0},{"id":"36608070915","owner":"24110087@N05","secret":"7da19b707f","server":"4338","farm":5,"title":"Aleutian Tern (Onychoprion aleuticus)","ispublic":1,"isfriend":0,"isfamily":0},{"id":"36608070775","owner":"24110087@N05","secret":"f213e15d0b","server":"4418","farm":5,"title":"Aleutian Tern (Onychoprion aleuticus)","ispublic":1,"isfriend":0,"isfamily":0},{"id":"34017221610","owner":"64074416@N06","secret":"e884119557","server":"4164","farm":5,"title":"Aleutian Tern (Onychoprion aleuticus \u767d\u8170\u71d5\u9e25)","ispublic":1,"isfriend":0,"isfamily":0},{"id":"28283398141","owner":"130021529@N02","secret":"5eaea94bb1","server":"8355","farm":9,"title":"Aleutian Tern | beringt\u00e4rna | Onychoprion aleuticus","ispublic":1,"isfriend":0,"isfamily":0},{"id":"28238035662","owner":"130021529@N02","secret":"dc817c7955","server":"8683","farm":9,"title":"Aleutian Tern | beringt\u00e4rna | Onychoprion aleuticus","ispublic":1,"isfriend":0,"isfamily":0},{"id":"27001532854","owner":"130021529@N02","secret":"f93efe3947","server":"7301","farm":8,"title":"Aleutian Tern | beringt\u00e4rna | Onychoprion aleuticus","ispublic":1,"isfriend":0,"isfamily":0},{"id":"27562578776","owner":"130021529@N02","secret":"14344a317f","server":"7366","farm":8,"title":"Aleutian Tern | beringt\u00e4rna | Onychoprion aleuticus","ispublic":1,"isfriend":0,"isfamily":0},{"id":"14889814272","owner":"96687572@N03","secret":"3ba502aef0","server":"3884","farm":4,"title":"Aleutian Tern","ispublic":1,"isfriend":0,"isfamily":0}]},"stat":"ok"}