{"photos":{"page":1,"pages":140,"perpage":100,"total":13910,"photo":[{"id":"52724079173","owner":"62877922@N08","secret":"f454cd12c0","server":"65535","farm":66,"title":"American Kestrel (Falco sparverius)","ispublic":1,"isfriend":0,"isfamily":0},{"id":"52723153964","owner":"12639178@N07","secret":"ea392f0f7b","server":"65535","farm":66,"title":"Buntfalke","ispublic":1,"isfriend":0,"isfamily":0},{"id":"52720662974","owner":"197628215@N07","secret":"337c3d0728","server":"65535","farm":66,"title":"American Kestrel (Falco sparverius)  02\/19\/2023 #americankestrel #kestrel #falcon #bestbackroad #bestbackroads #natgeoyourshots #natgeo100contest #natgeo #rutlandcountyvt #washingtoncountyny #whitehallny #wildphotography #naturephotography #adventurephoto","ispublic":1,"isfriend":0,"isfamily":0},{"id":"52719501474","owner":"197628215@N07","secret":"4aef393f7d","server":"65535","farm":66,"title":"American Kestrel (Falco sparverius)  02\/19\/2023 #americankestrel #kestrel #falcon #bestbackroad #bestbackroads #natgeoyourshots #natgeo100contest #natgeo #rutlandcountyvt #washingtoncountyny #whitehallny #wildphotography #naturephotography #adventurephoto","ispublic":1,"isfriend":0,"isfamily":0},{"id":"52719102174","owner":"8666250@N02","secret":"bca0be5453","server":"65535","farm":66,"title":"Kessie in the little oak -11","ispublic":1,"isfriend":0,"isfamily":0},{"id":"52719325388","owner":"8666250@N02","secret":"0d3b86ab6d","server":"65535","farm":66,"title":"Kessie in the little oak -09","ispublic":1,"isfriend":0,"isfamily":0},{"id":"52719260570","owner":"8666250@N02","secret":"9da3942ef1","server":"65535","farm":66,"title":"Kessie in the little oak -07","ispublic":1,"isfriend":0,"isfamily":0},{"id":"52719102009","owner":"8666250@N02","secret":"c994501fbd","server":"65535","farm":66,"title":"Kessie in the little oak -04","ispublic":1,"isfriend":0,"isfamily":0},{"id":"52718836351","owner":"8666250@N02","secret":"ce224af0e7","server":"65535","farm":66,"title":"Kessie in the little oak -05","ispublic":1,"isfriend":0,"isfamily":0},{"id":"52718836266","owner":"8666250@N02","secret":"899c802fd7","server":"65535","farm":66,"title":"Kessie in the little oak -01","ispublic":1,"isfriend":0,"isfamily":0},{"id":"52719101774","owner":"8666250@N02","secret":"0ba924cfc0","server":"65535","farm":66,"title":"Kessie in The Tree of Heaven -01","ispublic":1,"isfriend":0,"isfamily":0},{"id":"52719260245","owner":"8666250@N02","secret":"f362a41f42","server":"65535","farm":66,"title":"Kessie in the little oak -14","ispublic":1,"isfriend":0,"isfamily":0},{"id":"52719260150","owner":"8666250@N02","secret":"f6f5652a08","server":"65535","farm":66,"title":"Kessie in the little oak -08","ispublic":1,"isfriend":0,"isfamily":0},{"id":"52719101569","owner":"8666250@N02","secret":"24e6a6e84e","server":"65535","farm":66,"title":"Kessie in the little oak -13","ispublic":1,"isfriend":0,"isfamily":0},{"id":"52718831635","owner":"197628215@N07","secret":"d40fc1b367","server":"65535","farm":66,"title":"American Kestrel (Falco sparverius)  02\/19\/2023 #americankestrel #kestrel #falcon #bestbackroad #bestbackroads #natgeoyourshots #natgeo100contest #natgeo #rutlandcountyvt #washingtoncountyny #whitehallny #wildphotography #naturephotography #adventurephoto","ispublic":1,"isfriend":0,"isfamily":0},{"id":"52715244062","owner":"42543804@N03","secret":"e3232286e1","server":"65535","farm":66,"title":"Quiriquiri (Falco sparverius)F\u00eamea 10-7-2016","ispublic":1,"isfriend":0,"isfamily":0},{"id":"52712789682","owner":"145466593@N08","secret":"52e2786e78","server":"65535","farm":66,"title":"American Kestrel (f)","ispublic":1,"isfriend":0,"isfamily":0},{"id":"52711196898","owner":"47533293@N04","secret":"7cb555994f","server":"65535","farm":66,"title":"American kestrel, Falco sparverius","ispublic":1,"isfriend":0,"isfamily":0},{"id":"52710600430","owner":"193617639@N07","secret":"7c3962bbed","server":"65535","farm":66,"title":"Quiriquiri (Falco sparverius)","ispublic":1,"isfriend":0,"isfamily":0},{"id":"52708952916","owner":"61396634@N07","secret":"e760be49ba","server":"65535","farm":66,"title":"American Kestrel","ispublic":1,"isfriend":0,"isfamily":0},{"id":"52707410731","owner":"61396634@N07","secret":"11bcd639ac","server":"65535","farm":66,"title":"American Kestrel","ispublic":1,"isfriend":0,"isfamily":0},{"id":"52707628023","owner":"187792860@N04","secret":"2789de202a","server":"65535","farm":66,"title":"American Kestrel (Falco sparverius)","ispublic":1,"isfriend":0,"isfamily":0},{"id":"52706031525","owner":"33610210@N05","secret":"de69502541","server":"65535","farm":66,"title":"American Kestrel, Falco sparverius","ispublic":1,"isfriend":0,"isfamily":0},{"id":"52705072257","owner":"33610210@N05","secret":"49132d87d9","server":"65535","farm":66,"title":"American Kestrel, Falco sparverius","ispublic":1,"isfriend":0,"isfamily":0},{"id":"52705372079","owner":"91906228@N05","secret":"1d6d691a4c","server":"65535","farm":66,"title":"downthrust","ispublic":1,"isfriend":0,"isfamily":0},{"id":"52705360819","owner":"91906228@N05","secret":"33aa0104c1","server":"65535","farm":66,"title":"faux eyes on the back of its head","ispublic":1,"isfriend":0,"isfamily":0},{"id":"52705499545","owner":"187792860@N04","secret":"f767c92998","server":"65535","farm":66,"title":"American Kestrel (Falco sparverius)","ispublic":1,"isfriend":0,"isfamily":0},{"id":"52704249316","owner":"70295563@N00","secret":"fd160230ea","server":"65535","farm":66,"title":"Turning the other cheek","ispublic":1,"isfriend":0,"isfamily":0},{"id":"52702981447","owner":"12639178@N07","secret":"c841306250","server":"65535","farm":66,"title":"Buntfalke (Falco sparverius) (1)","ispublic":1,"isfriend":0,"isfamily":0},{"id":"52702404382","owner":"8987884@N07","secret":"c604b40d8e","server":"65535","farm":66,"title":"American Kestrel (Falco sparverius)_DDZ_2515","ispublic":1,"isfriend":0,"isfamily":0},{"id":"52701967196","owner":"8666250@N02","secret":"eb77d0a3a8","server":"65535","farm":66,"title":"Kessie in the Maple -13","ispublic":1,"isfriend":0,"isfamily":0},{"id":"52702384100","owner":"8666250@N02","secret":"62ca603257","server":"65535","farm":66,"title":"Kessie in the Maple -12","ispublic":1,"isfriend":0,"isfamily":0},{"id":"52701445722","owner":"8666250@N02","secret":"6c3b752472","server":"65535","farm":66,"title":"Kessie in the Maple -01","ispublic":1,"isfriend":0,"isfamily":0},{"id":"52701445617","owner":"8666250@N02","secret":"a015f3c7d8","server":"65535","farm":66,"title":"Kessie in the Maple -14","ispublic":1,"isfriend":0,"isfamily":0},{"id":"52702223084","owner":"8666250@N02","secret":"e9db1eeb91","server":"65535","farm":66,"title":"Kessie in the Maple -07","ispublic":1,"isfriend":0,"isfamily":0},{"id":"52701445507","owner":"8666250@N02","secret":"82e1b567bf","server":"65535","farm":66,"title":"Kessie in the Maple -04","ispublic":1,"isfriend":0,"isfamily":0},{"id":"52701445442","owner":"8666250@N02","secret":"15e0be826d","server":"65535","farm":66,"title":"Kessie in the Maple -18","ispublic":1,"isfriend":0,"isfamily":0},{"id":"52701445392","owner":"8666250@N02","secret":"1ceea89a40","server":"65535","farm":66,"title":"Kessie in the Maple -19","ispublic":1,"isfriend":0,"isfamily":0},{"id":"52701450806","owner":"79097894@N04","secret":"b6885f18b1","server":"65535","farm":66,"title":"American Kestrel","ispublic":1,"isfriend":0,"isfamily":0},{"id":"52700925862","owner":"91906228@N05","secret":"645413cd1d","server":"65535","farm":66,"title":"le petit chasseur --the little hunter","ispublic":1,"isfriend":0,"isfamily":0},{"id":"52701863035","owner":"91906228@N05","secret":"8369cf7c53","server":"65535","farm":66,"title":"Falco sparverius","ispublic":1,"isfriend":0,"isfamily":0},{"id":"52701850100","owner":"91906228@N05","secret":"85883ccecd","server":"65535","farm":66,"title":"Kestrel with Beetle Grub","ispublic":1,"isfriend":0,"isfamily":0},{"id":"52699311297","owner":"91906228@N05","secret":"4770aaf69b","server":"65535","farm":66,"title":"let's race","ispublic":1,"isfriend":0,"isfamily":0},{"id":"52697614900","owner":"137525873@N08","secret":"375a72594b","server":"65535","farm":66,"title":"Watching you","ispublic":1,"isfriend":0,"isfamily":0},{"id":"52696644017","owner":"8666250@N02","secret":"c793b24852","server":"65535","farm":66,"title":"Kessie in the Gum Tree -03","ispublic":1,"isfriend":0,"isfamily":0},{"id":"52697578610","owner":"8666250@N02","secret":"814cef7375","server":"65535","farm":66,"title":"Kessie in the Gum Tree -02","ispublic":1,"isfriend":0,"isfamily":0},{"id":"52696643832","owner":"8666250@N02","secret":"8a34b2a90e","server":"65535","farm":66,"title":"Kessie in the Alder -02","ispublic":1,"isfriend":0,"isfamily":0},{"id":"52696630720","owner":"124995824@N08","secret":"ea4a94b033","server":"65535","farm":66,"title":"American Kestrel - Falco sparverius","ispublic":1,"isfriend":0,"isfamily":0},{"id":"52694559031","owner":"33886308@N03","secret":"41de12352e","server":"65535","farm":66,"title":"Surly Kestrel","ispublic":1,"isfriend":0,"isfamily":0},{"id":"52693964361","owner":"120449047@N06","secret":"1cbdd21338","server":"65535","farm":66,"title":"No boating today","ispublic":1,"isfriend":0,"isfamily":0},{"id":"52692738801","owner":"8666250@N02","secret":"5999ce65f2","server":"65535","farm":66,"title":"Kessie stretching on the lamppost","ispublic":1,"isfriend":0,"isfamily":0},{"id":"52693149950","owner":"8666250@N02","secret":"d248becd51","server":"65535","farm":66,"title":"Kessie basking on the lamppost","ispublic":1,"isfriend":0,"isfamily":0},{"id":"52690001208","owner":"185851777@N04","secret":"073e00b2ec","server":"65535","farm":66,"title":"American Kestrel-Falco sparverius","ispublic":1,"isfriend":0,"isfamily":0},{"id":"52688513056","owner":"24608578@N00","secret":"1bc4653201","server":"65535","farm":66,"title":"American kestrel (Falco sparverius)","ispublic":1,"isfriend":0,"isfamily":0},{"id":"52689006003","owner":"24608578@N00","secret":"aef9eb9ea5","server":"65535","farm":66,"title":"American kestrel (Falco sparverius)","ispublic":1,"isfriend":0,"isfamily":0},{"id":"52688830623","owner":"45340210@N05","secret":"ee717a6638","server":"65535","farm":66,"title":"Off Again 2 2_13_23","ispublic":1,"isfriend":0,"isfamily":0},{"id":"52687367367","owner":"54683012@N04","secret":"f238d0f5d0","server":"65535","farm":66,"title":"Birds of a feather...","ispublic":1,"isfriend":0,"isfamily":0},{"id":"52686873982","owner":"196264892@N08","secret":"718157a124","server":"65535","farm":66,"title":"American Kestrel on post","ispublic":1,"isfriend":0,"isfamily":0},{"id":"52687285753","owner":"45340210@N05","secret":"48a8a15c0b","server":"65535","farm":66,"title":"Changing Branches 2 2_13_23","ispublic":1,"isfriend":0,"isfamily":0},{"id":"52685907742","owner":"24608578@N00","secret":"3ac93aa4ea","server":"65535","farm":66,"title":"American kestrel (Falco sparverius)","ispublic":1,"isfriend":0,"isfamily":0},{"id":"52686200539","owner":"63093099@N02","secret":"80fd9fc344","server":"65535","farm":66,"title":"American Kestrel (male); 20230211; USA-WA-Skagit-Padilla Bay","ispublic":1,"isfriend":0,"isfamily":0},{"id":"52686345180","owner":"63093099@N02","secret":"8a133b094e","server":"65535","farm":66,"title":"American Kestrel (male); 20230211; USA-WA-Skagit-Padilla Bay","ispublic":1,"isfriend":0,"isfamily":0},{"id":"52685891134","owner":"61241315@N00","secret":"c643cbcd0f","server":"65535","farm":66,"title":"Male American Kestrel_N8008","ispublic":1,"isfriend":0,"isfamily":0},{"id":"52686034765","owner":"61241315@N00","secret":"7f3a06665d","server":"65535","farm":66,"title":"Male American Kestrel_N8017","ispublic":1,"isfriend":0,"isfamily":0},{"id":"52685608736","owner":"61241315@N00","secret":"3b5440a27f","server":"65535","farm":66,"title":"Male American Kestrel_N8018","ispublic":1,"isfriend":0,"isfamily":0},{"id":"52686034730","owner":"61241315@N00","secret":"a7ba36a03c","server":"65535","farm":66,"title":"Male American Kestrel_N8019","ispublic":1,"isfriend":0,"isfamily":0},{"id":"52685891074","owner":"61241315@N00","secret":"8d99cfe68d","server":"65535","farm":66,"title":"Male American Kestrel_N8020","ispublic":1,"isfriend":0,"isfamily":0},{"id":"52683463844","owner":"184574435@N02","secret":"69aba496ff","server":"65535","farm":66,"title":"American Kestrel","ispublic":1,"isfriend":0,"isfamily":0},{"id":"52683189511","owner":"32320154@N05","secret":"e0627642b0","server":"65535","farm":66,"title":"American Kestrels","ispublic":1,"isfriend":0,"isfamily":0},{"id":"52682242354","owner":"70295563@N00","secret":"cc43b4f345","server":"65535","farm":66,"title":"Mighty Hunter strikes again","ispublic":1,"isfriend":0,"isfamily":0},{"id":"52680137712","owner":"12639178@N07","secret":"484994e3d7","server":"65535","farm":66,"title":"Auf der Schie\u00dfanlage","ispublic":1,"isfriend":0,"isfamily":0},{"id":"52680655296","owner":"12639178@N07","secret":"b2fb0f3d30","server":"65535","farm":66,"title":"Buntfalke auf Bogenschie\u00dfanlage","ispublic":1,"isfriend":0,"isfamily":0},{"id":"52680853224","owner":"12639178@N07","secret":"a6d4c7d1ff","server":"65535","farm":66,"title":"Buntfalke auf Ansitz","ispublic":1,"isfriend":0,"isfamily":0},{"id":"52679739947","owner":"24608578@N00","secret":"85beb4eaf4","server":"65535","farm":66,"title":"American kestrel (Falco sparverius)","ispublic":1,"isfriend":0,"isfamily":0},{"id":"52680753323","owner":"24608578@N00","secret":"2fc7719a0b","server":"65535","farm":66,"title":"American kestrel (Falco sparverius)","ispublic":1,"isfriend":0,"isfamily":0},{"id":"52680539199","owner":"24608578@N00","secret":"c5d6b9a315","server":"65535","farm":66,"title":"American kestrel (Falco sparverius)","ispublic":1,"isfriend":0,"isfamily":0},{"id":"52680753283","owner":"24608578@N00","secret":"55e5bdea61","server":"65535","farm":66,"title":"American kestrel (Falco sparverius)","ispublic":1,"isfriend":0,"isfamily":0},{"id":"52679758640","owner":"60361833@N03","secret":"af7b7871c7","server":"65535","farm":66,"title":"American Kestrel_6","ispublic":1,"isfriend":0,"isfamily":0},{"id":"52678181306","owner":"120449047@N06","secret":"9716025941","server":"65535","farm":66,"title":"American Kestrel","ispublic":1,"isfriend":0,"isfamily":0},{"id":"52678181975","owner":"33610210@N05","secret":"b097d02c76","server":"65535","farm":66,"title":"American Kestrel, Falco sparverius","ispublic":1,"isfriend":0,"isfamily":0},{"id":"52677829028","owner":"143326780@N02","secret":"459b8bbd46","server":"65535","farm":66,"title":"DSCN3829","ispublic":1,"isfriend":0,"isfamily":0},{"id":"52677332876","owner":"143326780@N02","secret":"3543caedd4","server":"65535","farm":66,"title":"DSCN3831","ispublic":1,"isfriend":0,"isfamily":0},{"id":"52677823038","owner":"143326780@N02","secret":"0652c8d153","server":"65535","farm":66,"title":"DSCN3957","ispublic":1,"isfriend":0,"isfamily":0},{"id":"52677322976","owner":"143326780@N02","secret":"6b80207575","server":"65535","farm":66,"title":"DSCN3835","ispublic":1,"isfriend":0,"isfamily":0},{"id":"52677690583","owner":"17612257@N00","secret":"fd867668ea","server":"65535","farm":66,"title":"American Kestrel","ispublic":1,"isfriend":0,"isfamily":0},{"id":"52675907184","owner":"162501315@N05","secret":"b34f8f5588","server":"65535","farm":66,"title":"Peneireiro-americano (Falco sparverius)","ispublic":1,"isfriend":0,"isfamily":0},{"id":"52672065695","owner":"99849996@N00","secret":"cbb7e65c58","server":"65535","farm":66,"title":"American Kestrel 20211217_4241","ispublic":1,"isfriend":0,"isfamily":0},{"id":"52670444622","owner":"37566919@N02","secret":"e40ddc6d6b","server":"65535","farm":66,"title":"American Kestrels","ispublic":1,"isfriend":0,"isfamily":0},{"id":"52670333574","owner":"91064752@N03","secret":"7f0930567c","server":"65535","farm":66,"title":"American Kestrel","ispublic":1,"isfriend":0,"isfamily":0},{"id":"52669513804","owner":"42034882@N00","secret":"7b051f0b63","server":"65535","farm":66,"title":"Colorado State Tree with Bonus Bird","ispublic":1,"isfriend":0,"isfamily":0},{"id":"52669686503","owner":"11815777@N07","secret":"d756ea07f0","server":"65535","farm":66,"title":"That dog looks like a rat","ispublic":1,"isfriend":0,"isfamily":0},{"id":"52669032630","owner":"8666250@N02","secret":"82e96612eb","server":"65535","farm":66,"title":"Kessie's evening meal 230123 -08","ispublic":1,"isfriend":0,"isfamily":0},{"id":"52668883954","owner":"8666250@N02","secret":"18b3d55b26","server":"65535","farm":66,"title":"Kessie's evening meal 230123 -06","ispublic":1,"isfriend":0,"isfamily":0},{"id":"52668596281","owner":"8666250@N02","secret":"2b9b8405ff","server":"65535","farm":66,"title":"Kessie's evening meal 230123 -03","ispublic":1,"isfriend":0,"isfamily":0},{"id":"52669096283","owner":"8666250@N02","secret":"72eb8c3907","server":"65535","farm":66,"title":"Kessie's evening meal 230123 -02","ispublic":1,"isfriend":0,"isfamily":0},{"id":"52669095903","owner":"8666250@N02","secret":"65ab6959ba","server":"65535","farm":66,"title":"Kessie's evening meal 230123 -01","ispublic":1,"isfriend":0,"isfamily":0},{"id":"52678406837","owner":"47533293@N04","secret":"4fba69a99e","server":"65535","farm":66,"title":"American kestrel, Falco sparverius","ispublic":1,"isfriend":0,"isfamily":0},{"id":"52677766570","owner":"143326780@N02","secret":"132f3f4afa","server":"65535","farm":66,"title":"DSCN3838","ispublic":1,"isfriend":0,"isfamily":0},{"id":"52673930579","owner":"165072144@N05","secret":"c463e74c25","server":"65535","farm":66,"title":"American Kestrel (Falco sparverius)","ispublic":1,"isfriend":0,"isfamily":0},{"id":"52669648099","owner":"124995824@N08","secret":"421c6b4ea5","server":"65535","farm":66,"title":"American Kestrel - Falco sparverius","ispublic":1,"isfriend":0,"isfamily":0}]},"stat":"ok"}