{"photos":{"page":1,"pages":18,"perpage":100,"total":1788,"photo":[{"id":"52770272935","owner":"187124972@N03","secret":"a3ea62dd98","server":"65535","farm":66,"title":"CANARD NOIR \/ BLACK DUCK (Anas rubripes)","ispublic":1,"isfriend":0,"isfamily":0},{"id":"52752519408","owner":"44904157@N04","secret":"0d695392be","server":"65535","farm":66,"title":"American Black Duck","ispublic":1,"isfriend":0,"isfamily":0},{"id":"52747682196","owner":"27042546@N00","secret":"7c40591f80","server":"65535","farm":66,"title":"let's play Ring 'round the Rosy mommy!  V.2","ispublic":1,"isfriend":0,"isfamily":0},{"id":"52735794822","owner":"29494346@N03","secret":"ce2b5e0082","server":"65535","farm":66,"title":"American Black Duck (Anas rubripes)","ispublic":1,"isfriend":0,"isfamily":0},{"id":"52735064404","owner":"21719302@N07","secret":"b24dd7c416","server":"65535","farm":66,"title":"En duo","ispublic":1,"isfriend":0,"isfamily":0},{"id":"52729281170","owner":"136180232@N08","secret":"c680b382fa","server":"65535","farm":66,"title":"American Black Duck (Anas rubripes) JTE_3650","ispublic":1,"isfriend":0,"isfamily":0},{"id":"52728348307","owner":"136180232@N08","secret":"e9c6297fde","server":"65535","farm":66,"title":"American Black Duck (Anas rubripes) JTE_3649","ispublic":1,"isfriend":0,"isfamily":0},{"id":"52716304111","owner":"30765416@N06","secret":"d6b83cf76b","server":"65535","farm":66,"title":"American Black Duck - anas rubripes 1","ispublic":1,"isfriend":0,"isfamily":0},{"id":"52716563064","owner":"30765416@N06","secret":"3603fd2f90","server":"65535","farm":66,"title":"American Black Duck - anas rubripes 2","ispublic":1,"isfriend":0,"isfamily":0},{"id":"52715781852","owner":"30765416@N06","secret":"0970e318d0","server":"65535","farm":66,"title":"American Black Duck - anas rubripes 3","ispublic":1,"isfriend":0,"isfamily":0},{"id":"52716785608","owner":"30765416@N06","secret":"9f069904ea","server":"65535","farm":66,"title":"American Black Duck - anas rubripes 4","ispublic":1,"isfriend":0,"isfamily":0},{"id":"52699301110","owner":"21719302@N07","secret":"afcef96cca","server":"65535","farm":66,"title":"Seule sur ma banquise","ispublic":1,"isfriend":0,"isfamily":0},{"id":"52698314722","owner":"187124972@N03","secret":"1416a699e0","server":"65535","farm":66,"title":"CANARD NOIR \/ BLACK DUCK (Anas rubripes)","ispublic":1,"isfriend":0,"isfamily":0},{"id":"52693985652","owner":"71933035@N00","secret":"ea888239f7","server":"65535","farm":66,"title":"Male American Black Duck (Anas rubripes) at Sullivan's Pond Dartmouth Nova Scotia","ispublic":1,"isfriend":0,"isfamily":0},{"id":"52686808926","owner":"48232993@N00","secret":"011328762f","server":"65535","farm":66,"title":"male black duck","ispublic":1,"isfriend":0,"isfamily":0},{"id":"52655525837","owner":"128537732@N06","secret":"a0e4a1f511","server":"65535","farm":66,"title":"American Black Ducks (Anas rubripes)","ispublic":1,"isfriend":0,"isfamily":0},{"id":"52654329552","owner":"18378985@N08","secret":"58ba63de41","server":"65535","farm":66,"title":"American Black Ducks at the Mill Pond on a rainy day","ispublic":1,"isfriend":0,"isfamily":0},{"id":"52655036563","owner":"84169650@N07","secret":"aa76a5a08a","server":"65535","farm":66,"title":"American Black Duck","ispublic":1,"isfriend":0,"isfamily":0},{"id":"52650777144","owner":"196154111@N05","secret":"ceec0e276e","server":"65535","farm":66,"title":"American black duck | Canard noir | Anas rubripes","ispublic":1,"isfriend":0,"isfamily":0},{"id":"52649633198","owner":"84169650@N07","secret":"a0b78788c9","server":"65535","farm":66,"title":"American Black Duck","ispublic":1,"isfriend":0,"isfamily":0},{"id":"52646509944","owner":"181824639@N02","secret":"6bf740ff44","server":"65535","farm":66,"title":"Canard noir ( Anas rubripes )","ispublic":1,"isfriend":0,"isfamily":0},{"id":"52644640482","owner":"131314146@N08","secret":"d3ec1c8fd7","server":"65535","farm":66,"title":"K. MacDonald, American Black Duck \u00d7 Mallard hybrid,  Anas rubripes \u00d7 platyrhynchos","ispublic":1,"isfriend":0,"isfamily":0},{"id":"52644640472","owner":"131314146@N08","secret":"c0619f4a03","server":"65535","farm":66,"title":"K. MacDonald, American Black Duck, Anas rubripes, female in front, male behind","ispublic":1,"isfriend":0,"isfamily":0},{"id":"52644267212","owner":"8013969@N03","secret":"b43fd854af","server":"65535","farm":66,"title":"Anas rubripes DFL nj22-1","ispublic":1,"isfriend":0,"isfamily":0},{"id":"52644265982","owner":"8013969@N03","secret":"69121272be","server":"65535","farm":66,"title":"Anas rubripes DFL nj22-2","ispublic":1,"isfriend":0,"isfamily":0},{"id":"52620954450","owner":"126601468@N05","secret":"266fefef86","server":"65535","farm":66,"title":"Canard noir sur neige blanche  \/ Black duck on white snow","ispublic":1,"isfriend":0,"isfamily":0},{"id":"52618403749","owner":"71933035@N00","secret":"ba346db8fe","server":"65535","farm":66,"title":"Male American Wigeon (Anas americana) and Male American Black Duck (Anas rubripes) at Sullivan's Pond, Dartmouth Nova Scotia","ispublic":1,"isfriend":0,"isfamily":0},{"id":"52617623257","owner":"71933035@N00","secret":"6b769f10b6","server":"65535","farm":66,"title":"Male American Wigeon (Anas americana) Preening Beside American Black Ducks (Anas rubripes) at Sullivan's Pond, Dartmouth Nova Scotia","ispublic":1,"isfriend":0,"isfamily":0},{"id":"52604584037","owner":"151381692@N04","secret":"506fec2532","server":"65535","farm":66,"title":"Mallard x American Black Duck Hybrid (Anas platyrhynchos x rubripes)","ispublic":1,"isfriend":0,"isfamily":0},{"id":"52603196054","owner":"135315828@N06","secret":"b3fbbb7893","server":"65535","farm":66,"title":"american black duck","ispublic":1,"isfriend":0,"isfamily":0},{"id":"52602447667","owner":"135315828@N06","secret":"69416b3cb9","server":"65535","farm":66,"title":"american black duck","ispublic":1,"isfriend":0,"isfamily":0},{"id":"52602938351","owner":"135315828@N06","secret":"c805b0d1d0","server":"65535","farm":66,"title":"american black duck","ispublic":1,"isfriend":0,"isfamily":0},{"id":"52602446847","owner":"135315828@N06","secret":"e4385db345","server":"65535","farm":66,"title":"american black duck","ispublic":1,"isfriend":0,"isfamily":0},{"id":"52602446602","owner":"135315828@N06","secret":"6c2032353e","server":"65535","farm":66,"title":"american black duck","ispublic":1,"isfriend":0,"isfamily":0},{"id":"52585830258","owner":"84169650@N07","secret":"8043155626","server":"65535","farm":66,"title":"American Black Duck","ispublic":1,"isfriend":0,"isfamily":0},{"id":"52585574579","owner":"84169650@N07","secret":"4d856fe01c","server":"65535","farm":66,"title":"American Black Duck","ispublic":1,"isfriend":0,"isfamily":0},{"id":"52582492153","owner":"156694969@N03","secret":"7ba165c983","server":"65535","farm":66,"title":"American Black Duck","ispublic":1,"isfriend":0,"isfamily":0},{"id":"52579873182","owner":"153973412@N04","secret":"ab9860a6e0","server":"65535","farm":66,"title":"American Black Duck-Anas rubripes, Iowa City, IA","ispublic":1,"isfriend":0,"isfamily":0},{"id":"52553088418","owner":"39177293@N03","secret":"7bfe44b543","server":"65535","farm":66,"title":"American Black Duck","ispublic":1,"isfriend":0,"isfamily":0},{"id":"52756562470","owner":"195656112@N04","secret":"ee1f7ed0a2","server":"65535","farm":66,"title":"American Black Duck","ispublic":1,"isfriend":0,"isfamily":0},{"id":"52541850091","owner":"126271444@N08","secret":"e7fc411395","server":"65535","farm":66,"title":"American Black Duck (Anas rubripes)","ispublic":1,"isfriend":0,"isfamily":0},{"id":"52542328770","owner":"126271444@N08","secret":"f5c2b50e20","server":"65535","farm":66,"title":"American Black Duck (Anas rubripes)","ispublic":1,"isfriend":0,"isfamily":0},{"id":"52542144184","owner":"126271444@N08","secret":"9d030f7189","server":"65535","farm":66,"title":"American Black Duck (Anas rubripes)","ispublic":1,"isfriend":0,"isfamily":0},{"id":"52542328620","owner":"126271444@N08","secret":"3affa255f9","server":"65535","farm":66,"title":"American Black Duck (Anas rubripes)","ispublic":1,"isfriend":0,"isfamily":0},{"id":"52518829834","owner":"61241315@N00","secret":"47ef2019e6","server":"0","farm":0,"title":"American Black Duck_9657","ispublic":1,"isfriend":0,"isfamily":0},{"id":"52519028550","owner":"61241315@N00","secret":"898d73ef08","server":"65535","farm":66,"title":"American Black Duck_N9656","ispublic":1,"isfriend":0,"isfamily":0},{"id":"52512452342","owner":"39445433@N02","secret":"f26b5b4d02","server":"65535","farm":66,"title":"American Black Ducks","ispublic":1,"isfriend":0,"isfamily":0},{"id":"52501205648","owner":"84169650@N07","secret":"85400f4c6c","server":"65535","farm":66,"title":"American Black Duck","ispublic":1,"isfriend":0,"isfamily":0},{"id":"52494911555","owner":"50525634@N00","secret":"64da809396","server":"65535","farm":66,"title":"Canard noir - Anas rubripes - American Black Duck DSB_8138 copie","ispublic":1,"isfriend":0,"isfamily":0},{"id":"52478407596","owner":"33573751@N04","secret":"5e3aacb621","server":"65535","farm":66,"title":"American Black Ducks (Anas rubripes) - Westport, Connecticut","ispublic":1,"isfriend":0,"isfamily":0},{"id":"52470877606","owner":"71933035@N00","secret":"06a2a0b091","server":"65535","farm":66,"title":"American Black Ducks (Anas rubripes) and a Male Northern Pintail (Anas acuta) at Hartlen Point Nova Scotia","ispublic":1,"isfriend":0,"isfamily":0},{"id":"52470343001","owner":"50525634@N00","secret":"c606e0087b","server":"65535","farm":66,"title":"Canard noir - Anas rubripes - American Black Duck, Ragueneau, QC DSB_6730 copie","ispublic":1,"isfriend":0,"isfamily":0},{"id":"52464927790","owner":"14734088@N02","secret":"e030a83311","server":"65535","farm":66,"title":"Canard noir 221020H","ispublic":1,"isfriend":0,"isfamily":0},{"id":"52458091492","owner":"136620261@N06","secret":"c93ba45469","server":"65535","farm":66,"title":"Canard noir, Anas rubripes, American Black Duck-2206.jpg","ispublic":1,"isfriend":0,"isfamily":0},{"id":"52457016083","owner":"196447214@N05","secret":"9355def4d5","server":"65535","farm":66,"title":"American_Black_Duck","ispublic":1,"isfriend":0,"isfamily":0},{"id":"52417822742","owner":"39177293@N03","secret":"d59ca8acf8","server":"65535","farm":66,"title":"American Black Duck","ispublic":1,"isfriend":0,"isfamily":0},{"id":"52417037608","owner":"84175980@N00","secret":"ff59a036bb","server":"65535","farm":66,"title":"20220926 Anas rubripes (american black duck) (2)","ispublic":1,"isfriend":0,"isfamily":0},{"id":"52396591252","owner":"45908178@N03","secret":"6344e91a5f","server":"65535","farm":66,"title":"_DSC0086-Canards-noirs","ispublic":1,"isfriend":0,"isfamily":0},{"id":"52376721626","owner":"54100598@N08","secret":"5d40fc1482","server":"65535","farm":66,"title":"American Black Duck (Anas rubripes)","ispublic":1,"isfriend":0,"isfamily":0},{"id":"52342661307","owner":"129803374@N05","secret":"17405c0bca","server":"65535","farm":66,"title":"American Black Duck (Anas rubripes)","ispublic":1,"isfriend":0,"isfamily":0},{"id":"52323255082","owner":"195308037@N05","secret":"3488075629","server":"65535","farm":66,"title":"Dunkelente (Anas rubripes)","ispublic":1,"isfriend":0,"isfamily":0},{"id":"52315334614","owner":"165841515@N03","secret":"0c5fdd7e7b","server":"65535","farm":66,"title":"Canard noir \/ American Black Duck \/ (Anas rubripes)","ispublic":1,"isfriend":0,"isfamily":0},{"id":"52298263047","owner":"50292744@N00","secret":"301c03609b","server":"65535","farm":66,"title":"Black Ducks","ispublic":1,"isfriend":0,"isfamily":0},{"id":"52298889161","owner":"71989271@N06","secret":"5933d62d79","server":"65535","farm":66,"title":"Mallard\/American Black Duck hybrid (m)(Anas p. platyrhynchos x A. rubripes)","ispublic":1,"isfriend":0,"isfamily":0},{"id":"52284126905","owner":"18739614@N00","secret":"dbd6168e6d","server":"65535","farm":66,"title":"American Black Duck","ispublic":1,"isfriend":0,"isfamily":0},{"id":"52240988080","owner":"39177293@N03","secret":"14882dd6ba","server":"65535","farm":66,"title":"American Black Duck","ispublic":1,"isfriend":0,"isfamily":0},{"id":"52233915382","owner":"67306066@N03","secret":"ee3e724706","server":"65535","farm":66,"title":"American Black Duck (Anas rubripes)","ispublic":1,"isfriend":0,"isfamily":0},{"id":"52234896436","owner":"67306066@N03","secret":"197152e9d3","server":"65535","farm":66,"title":"American Black Duck (Anas rubripes)","ispublic":1,"isfriend":0,"isfamily":0},{"id":"52227988980","owner":"32665930@N04","secret":"9e36d9cb5b","server":"65535","farm":66,"title":"American Black Duck","ispublic":1,"isfriend":0,"isfamily":0},{"id":"52227504956","owner":"32665930@N04","secret":"081e036982","server":"65535","farm":66,"title":"Mallard x American Black Duck (hybrid)","ispublic":1,"isfriend":0,"isfamily":0},{"id":"52222181253","owner":"186116085@N08","secret":"ac74d1f255","server":"65535","farm":66,"title":"Canard noir 17T3791","ispublic":1,"isfriend":0,"isfamily":0},{"id":"52214836338","owner":"183132100@N02","secret":"80499d758e","server":"65535","farm":66,"title":"American Black Duck 2-5-2022","ispublic":1,"isfriend":0,"isfamily":0},{"id":"52195951912","owner":"24926605@N02","secret":"0118571bdf","server":"65535","farm":66,"title":"Mallard x American Black Duck (Anas platyrhynchos x rubripes)","ispublic":1,"isfriend":0,"isfamily":0},{"id":"52187720166","owner":"30418455@N00","secret":"94c090c164","server":"65535","farm":66,"title":"AMERICAN BLACK DUCK 1","ispublic":1,"isfriend":0,"isfamily":0},{"id":"52180454807","owner":"165841515@N03","secret":"fed32d74ed","server":"65535","farm":66,"title":"Canard noir \/ American Black Duck \/ (Anas rubripes)","ispublic":1,"isfriend":0,"isfamily":0},{"id":"52181481803","owner":"165841515@N03","secret":"8fd57a4fd7","server":"65535","farm":66,"title":"Canard noir \/ American Black Duck \/ (Anas rubripes)","ispublic":1,"isfriend":0,"isfamily":0},{"id":"52181481663","owner":"165841515@N03","secret":"6250f24e11","server":"65535","farm":66,"title":"Canard noir \/ American Black Duck \/ (Anas rubripes)","ispublic":1,"isfriend":0,"isfamily":0},{"id":"52153350935","owner":"39177293@N03","secret":"7cb71ef2e3","server":"65535","farm":66,"title":"American Black Ducks","ispublic":1,"isfriend":0,"isfamily":0},{"id":"52136005163","owner":"181824639@N02","secret":"9291a0f5f0","server":"65535","farm":66,"title":"Canard noir ( Anas rubripes )","ispublic":1,"isfriend":0,"isfamily":0},{"id":"52105318034","owner":"7261670@N03","secret":"ce10fc42cf","server":"65535","farm":66,"title":"American Black Duck and Wood Duck","ispublic":1,"isfriend":0,"isfamily":0},{"id":"52055513655","owner":"139237357@N06","secret":"4b3f1eb256","server":"65535","farm":66,"title":"American Black Duck","ispublic":1,"isfriend":0,"isfamily":0},{"id":"52042536449","owner":"81224802@N03","secret":"3650e5f759","server":"65535","farm":66,"title":"_G0W9125-Edit","ispublic":1,"isfriend":0,"isfamily":0},{"id":"52038015529","owner":"181824639@N02","secret":"f4e6cbd06f","server":"65535","farm":66,"title":"Canard Noir ( Anas rubripes )","ispublic":1,"isfriend":0,"isfamily":0},{"id":"52000787048","owner":"71933035@N00","secret":"55a8e9312d","server":"65535","farm":66,"title":"American Black Ducks (Anas rubripes) off Point Pleasant Park, Halifax Nova Scotia","ispublic":1,"isfriend":0,"isfamily":0},{"id":"52000722941","owner":"71933035@N00","secret":"d540b42614","server":"65535","farm":66,"title":"American Black Ducks (Anas rubripes) off Point Pleasant Park, Halifax Nova Scotia","ispublic":1,"isfriend":0,"isfamily":0},{"id":"51984568375","owner":"181824639@N02","secret":"5e219d09bf","server":"65535","farm":66,"title":"Canard Noir ( Anas rubripes )","ispublic":1,"isfriend":0,"isfamily":0},{"id":"51980588584","owner":"84169650@N07","secret":"31e7581c07","server":"65535","farm":66,"title":"American Black Duck","ispublic":1,"isfriend":0,"isfamily":0},{"id":"51980380583","owner":"84169650@N07","secret":"04e1a72fe9","server":"65535","farm":66,"title":"American Black Duck","ispublic":1,"isfriend":0,"isfamily":0},{"id":"51978360852","owner":"119787485@N07","secret":"e3b28a6933","server":"65535","farm":66,"title":"American Black Duck (Anas rubripes) - 20220208-01","ispublic":1,"isfriend":0,"isfamily":0},{"id":"51973394698","owner":"39177293@N03","secret":"4c5d670a94","server":"65535","farm":66,"title":"American Black Duck x Mallard Hybrid","ispublic":1,"isfriend":0,"isfamily":0},{"id":"51963280986","owner":"57465751@N05","secret":"eb48d2017c","server":"65535","farm":66,"title":"Mallard X Black Duck hybrid (Anas platyrhynchos X rubripes), Coonskin Park, Kanawha Co., WV","ispublic":1,"isfriend":0,"isfamily":0},{"id":"51935925594","owner":"181824639@N02","secret":"a207c1bff0","server":"65535","farm":66,"title":"Canard Noir ( Anas rubripes )","ispublic":1,"isfriend":0,"isfamily":0},{"id":"51926747138","owner":"71989271@N06","secret":"c86de330e7","server":"65535","farm":66,"title":"American Black Duck (f)(Anas rubripes)","ispublic":1,"isfriend":0,"isfamily":0},{"id":"51907914856","owner":"84169650@N07","secret":"7a1355f78d","server":"65535","farm":66,"title":"American Black Duck","ispublic":1,"isfriend":0,"isfamily":0},{"id":"51898022649","owner":"91044419@N08","secret":"493855cb18","server":"65535","farm":66,"title":"\u00c0NEC NEGR\u00d3S O \u00c0NEC COLLVERD AMERIC\u00c0 (ANAS RUBRIPES)","ispublic":1,"isfriend":0,"isfamily":0},{"id":"52469848142","owner":"50525634@N00","secret":"f07d4d57cc","server":"65535","farm":66,"title":"Canard noir - Anas rubripes - American black duck, DSB_6081 copie","ispublic":1,"isfriend":0,"isfamily":0},{"id":"52413810160","owner":"18378985@N08","secret":"8df933a41c","server":"65535","farm":66,"title":"American Black Duck","ispublic":1,"isfriend":0,"isfamily":0},{"id":"52389110965","owner":"71989271@N06","secret":"3d6f291da7","server":"65535","farm":66,"title":"Mallard\/American Black Duck (Anas platyrhynchos or A. rubripes)","ispublic":1,"isfriend":0,"isfamily":0},{"id":"51926747093","owner":"71989271@N06","secret":"ea2dc7891b","server":"65535","farm":66,"title":"American Black Duck (m)(Anas rubripes)","ispublic":1,"isfriend":0,"isfamily":0},{"id":"51920557187","owner":"182534679@N02","secret":"dda752ff9b","server":"65535","farm":66,"title":"Anas rubripes - American Black Duck","ispublic":1,"isfriend":0,"isfamily":0}]},"stat":"ok"}