{"photos":{"page":1,"pages":19,"perpage":100,"total":1828,"photo":[{"id":"52789753695","owner":"132508209@N08","secret":"92ca64fd4d","server":"65535","farm":66,"title":"American Wigeon (Mareca americana)","ispublic":1,"isfriend":0,"isfamily":0},{"id":"52788584776","owner":"188352054@N08","secret":"bb57f31287","server":"65535","farm":66,"title":"9M2A7914","ispublic":1,"isfriend":0,"isfamily":0},{"id":"52788977455","owner":"188352054@N08","secret":"49aefa4c03","server":"65535","farm":66,"title":"9M2A8027","ispublic":1,"isfriend":0,"isfamily":0},{"id":"52787161357","owner":"144980256@N07","secret":"058f7bf14e","server":"65535","farm":66,"title":"American Wigeon (Mareca americana)","ispublic":1,"isfriend":0,"isfamily":0},{"id":"52785351421","owner":"76585534@N06","secret":"7dc04b51e0","server":"65535","farm":66,"title":"Canard d'Am\u00e9rique, 31 mars 2023","ispublic":1,"isfriend":0,"isfamily":0},{"id":"52785112005","owner":"67306066@N03","secret":"9e9780ec7c","server":"65535","farm":66,"title":"American Wigeon (Mareca americana)","ispublic":1,"isfriend":0,"isfamily":0},{"id":"52784954869","owner":"67306066@N03","secret":"7211dfb745","server":"65535","farm":66,"title":"American Wigeons (Mareca americana)","ispublic":1,"isfriend":0,"isfamily":0},{"id":"52784164037","owner":"67306066@N03","secret":"f39b6e3a56","server":"65535","farm":66,"title":"American Wigeons (Mareca americana)","ispublic":1,"isfriend":0,"isfamily":0},{"id":"52777885312","owner":"12530381@N07","secret":"86032f2a9c","server":"65535","farm":66,"title":"Female American Wigeon (Mareca americana) at Buena Vista Park (3\/26\/2023)","ispublic":1,"isfriend":0,"isfamily":0},{"id":"52778758507","owner":"120699091@N02","secret":"1fbdb6a49c","server":"65535","farm":66,"title":"American Wigeon","ispublic":1,"isfriend":0,"isfamily":0},{"id":"52778287023","owner":"154261763@N05","secret":"44ab237f8f","server":"65535","farm":66,"title":"American wigeon (Mareca americana) - Nordamerikanische Pfeifente","ispublic":1,"isfriend":0,"isfamily":0},{"id":"52773042817","owner":"12530381@N07","secret":"e1e44b1c48","server":"65535","farm":66,"title":"American Wigeon (Mareca americana) at Buena Vista Park (3\/26\/2023)","ispublic":1,"isfriend":0,"isfamily":0},{"id":"52763189654","owner":"56930596@N02","secret":"9d3d149410","server":"65535","farm":66,"title":"\u00c0nec xiulaire americ\u00e0 (Mareca americana)","ispublic":1,"isfriend":0,"isfamily":0},{"id":"52759515727","owner":"12240837@N08","secret":"322d450789","server":"65535","farm":66,"title":"American Wigeon (anas \/ mareca americana)","ispublic":1,"isfriend":0,"isfamily":0},{"id":"52757696760","owner":"81058247@N08","secret":"77fe339aa3","server":"65535","farm":66,"title":"American Wigeon (Mareca americana)","ispublic":1,"isfriend":0,"isfamily":0},{"id":"52757696600","owner":"81058247@N08","secret":"bd5886aa18","server":"65535","farm":66,"title":"American Wigeon (Mareca americana)","ispublic":1,"isfriend":0,"isfamily":0},{"id":"52757696450","owner":"81058247@N08","secret":"063b47e1cc","server":"65535","farm":66,"title":"American Wigeon (Mareca americana)","ispublic":1,"isfriend":0,"isfamily":0},{"id":"52756751062","owner":"81058247@N08","secret":"56a7f36b9d","server":"65535","farm":66,"title":"American Wigeon (Mareca americana)","ispublic":1,"isfriend":0,"isfamily":0},{"id":"52757770258","owner":"81058247@N08","secret":"e1177ea832","server":"65535","farm":66,"title":"American Wigeon (Mareca americana)","ispublic":1,"isfriend":0,"isfamily":0},{"id":"52757535324","owner":"81058247@N08","secret":"427a970431","server":"65535","farm":66,"title":"DSC_6785 (2)American Wigeon (Mareca americana)","ispublic":1,"isfriend":0,"isfamily":0},{"id":"52754270861","owner":"66855284@N03","secret":"79113db366","server":"65535","farm":66,"title":"American Wigeon 2023 03 17 04","ispublic":1,"isfriend":0,"isfamily":0},{"id":"52754244636","owner":"66855284@N03","secret":"c9382944fb","server":"65535","farm":66,"title":"American Wigeon 2023 03 17 05","ispublic":1,"isfriend":0,"isfamily":0},{"id":"52754730683","owner":"66855284@N03","secret":"d6bc2d5114","server":"65535","farm":66,"title":"American Wigeon 2023 03 17 06","ispublic":1,"isfriend":0,"isfamily":0},{"id":"52754638730","owner":"66855284@N03","secret":"2724211bcd","server":"65535","farm":66,"title":"American Wigeon 2023 03 17 09","ispublic":1,"isfriend":0,"isfamily":0},{"id":"52754207826","owner":"66855284@N03","secret":"85054985d3","server":"65535","farm":66,"title":"American Wigeon 2023 03 17 02","ispublic":1,"isfriend":0,"isfamily":0},{"id":"52754072856","owner":"66855284@N03","secret":"8f61dd3ed7","server":"65535","farm":66,"title":"American Wigeon 2023 03 17 07","ispublic":1,"isfriend":0,"isfamily":0},{"id":"52754478775","owner":"66855284@N03","secret":"e24734a551","server":"65535","farm":66,"title":"American Wigeon 2023 03 17 08","ispublic":1,"isfriend":0,"isfamily":0},{"id":"52754558713","owner":"66855284@N03","secret":"2fa77b97f7","server":"65535","farm":66,"title":"American Wigeon 2023 03 17 03","ispublic":1,"isfriend":0,"isfamily":0},{"id":"52754067441","owner":"66855284@N03","secret":"7377ba05ee","server":"65535","farm":66,"title":"American Wigeon 2023 03 17 01","ispublic":1,"isfriend":0,"isfamily":0},{"id":"52750081675","owner":"71989271@N06","secret":"61f90d8d65","server":"65535","farm":66,"title":"American Wigeon (m)(Mareca americana)","ispublic":1,"isfriend":0,"isfamily":0},{"id":"52750165818","owner":"71989271@N06","secret":"ed5ce449ca","server":"65535","farm":66,"title":"American Wigeon (m)(Mareca americana)","ispublic":1,"isfriend":0,"isfamily":0},{"id":"52750081635","owner":"71989271@N06","secret":"8830719afa","server":"65535","farm":66,"title":"American Wigeon (m)(Mareca americana)","ispublic":1,"isfriend":0,"isfamily":0},{"id":"52749138822","owner":"71989271@N06","secret":"bfa8c8bb2e","server":"65535","farm":66,"title":"American Wigeon (m)(Mareca americana)","ispublic":1,"isfriend":0,"isfamily":0},{"id":"52750165733","owner":"71989271@N06","secret":"358793ea00","server":"65535","farm":66,"title":"American Wigeon (m)(Mareca americana)","ispublic":1,"isfriend":0,"isfamily":0},{"id":"52745704607","owner":"32121198@N00","secret":"8a22c8eb8c","server":"65535","farm":66,"title":"Tifft Nature preserve - American Wigeons - Mar 2023","ispublic":1,"isfriend":0,"isfamily":0},{"id":"52746723978","owner":"32121198@N00","secret":"6436b8cd12","server":"65535","farm":66,"title":"Tifft Nature preserve - American Wigeons - Mar 2023","ispublic":1,"isfriend":0,"isfamily":0},{"id":"52745703812","owner":"32121198@N00","secret":"365e5d2331","server":"65535","farm":66,"title":"Tifft Nature preserve - American Wigeons - Mar 2023","ispublic":1,"isfriend":0,"isfamily":0},{"id":"52746227851","owner":"32121198@N00","secret":"715a918393","server":"65535","farm":66,"title":"Tifft Nature preserve - American Wigeons - Mar 2023","ispublic":1,"isfriend":0,"isfamily":0},{"id":"52746723478","owner":"32121198@N00","secret":"fb13727e42","server":"65535","farm":66,"title":"Tifft Nature preserve - American Wigeons - Mar 2023","ispublic":1,"isfriend":0,"isfamily":0},{"id":"52746368939","owner":"188352054@N08","secret":"b7e937730c","server":"65535","farm":66,"title":"9M2A1624","ispublic":1,"isfriend":0,"isfamily":0},{"id":"52742100612","owner":"81058247@N08","secret":"c4916f37a1","server":"65535","farm":66,"title":"American Wigeon (Mareca americana)","ispublic":1,"isfriend":0,"isfamily":0},{"id":"52739038279","owner":"150275643@N07","secret":"436cce46e1","server":"65535","farm":66,"title":"IMG_9617","ispublic":1,"isfriend":0,"isfamily":0},{"id":"52739199105","owner":"150275643@N07","secret":"166c01533f","server":"65535","farm":66,"title":"IMG_9619","ispublic":1,"isfriend":0,"isfamily":0},{"id":"52734682357","owner":"71418112@N00","secret":"e25e1c7893","server":"65535","farm":66,"title":"The baldpate","ispublic":1,"isfriend":0,"isfamily":0},{"id":"52727702099","owner":"62043870@N05","secret":"c8854a4298","server":"65535","farm":66,"title":"American Wigeon, Mareca americana","ispublic":1,"isfriend":0,"isfamily":0},{"id":"52727923968","owner":"62043870@N05","secret":"228ba4b4fe","server":"65535","farm":66,"title":"Greater White-fronted Geese (Anser albifrons) with Mallards (Anas platyrhynchos) and American Wigeons (Mareca americana)","ispublic":1,"isfriend":0,"isfamily":0},{"id":"52721649859","owner":"139463919@N08","secret":"9507155ebb","server":"65535","farm":66,"title":"EOS R5_153961_C","ispublic":1,"isfriend":0,"isfamily":0},{"id":"52721484438","owner":"120449047@N06","secret":"3e7483e417","server":"65535","farm":66,"title":"American Wigeon","ispublic":1,"isfriend":0,"isfamily":0},{"id":"52709267716","owner":"61396634@N07","secret":"f2fd3d5c93","server":"65535","farm":66,"title":"American Wigeon","ispublic":1,"isfriend":0,"isfamily":0},{"id":"52708366081","owner":"62907378@N07","secret":"61c34341b6","server":"65535","farm":66,"title":"American Wigeon (Mareca americana)","ispublic":1,"isfriend":0,"isfamily":0},{"id":"52707843162","owner":"62907378@N07","secret":"1944501b2e","server":"65535","farm":66,"title":"American Wigeon (Mareca americana)","ispublic":1,"isfriend":0,"isfamily":0},{"id":"52708620134","owner":"62907378@N07","secret":"b277c1a9bc","server":"65535","farm":66,"title":"American Wigeon (Mareca americana)","ispublic":1,"isfriend":0,"isfamily":0},{"id":"52707842227","owner":"62907378@N07","secret":"92182a38f3","server":"65535","farm":66,"title":"American Wigeon (Mareca americana)","ispublic":1,"isfriend":0,"isfamily":0},{"id":"52707938084","owner":"66855284@N03","secret":"9b719ff177","server":"65535","farm":66,"title":"American Wigeon 2023 02 23 01","ispublic":1,"isfriend":0,"isfamily":0},{"id":"52708095610","owner":"66855284@N03","secret":"25b6fb45aa","server":"65535","farm":66,"title":"American Wigeon 2023 02 23 02","ispublic":1,"isfriend":0,"isfamily":0},{"id":"52707252761","owner":"66855284@N03","secret":"aa56f83d6d","server":"65535","farm":66,"title":"American Wigeon 2023 01 14 02","ispublic":1,"isfriend":0,"isfamily":0},{"id":"52707734993","owner":"66855284@N03","secret":"cc2daa9c83","server":"65535","farm":66,"title":"American Wigeon 2023 01 14 01","ispublic":1,"isfriend":0,"isfamily":0},{"id":"52701742246","owner":"62043870@N05","secret":"a6a418a2a0","server":"65535","farm":66,"title":"American Wigeon, Mareca americana","ispublic":1,"isfriend":0,"isfamily":0},{"id":"52700391406","owner":"194196140@N08","secret":"c1452834ca","server":"65535","farm":66,"title":"American Wigeon (Mareca americana)","ispublic":1,"isfriend":0,"isfamily":0},{"id":"52693250839","owner":"187792860@N04","secret":"e481ae290b","server":"65535","farm":66,"title":"American Wigeon (Mareca americana)","ispublic":1,"isfriend":0,"isfamily":0},{"id":"52692354958","owner":"92009354@N00","secret":"b4961d0b20","server":"65535","farm":66,"title":"American Wigeon","ispublic":1,"isfriend":0,"isfamily":0},{"id":"52687798260","owner":"196264892@N08","secret":"8e53dcd46d","server":"65535","farm":66,"title":"Eurasian Wigeons in flock of American Wigeons","ispublic":1,"isfriend":0,"isfamily":0},{"id":"52687373261","owner":"196264892@N08","secret":"046b45afd0","server":"65535","farm":66,"title":"Eurasian Wigeons in flock of American Wigeons","ispublic":1,"isfriend":0,"isfamily":0},{"id":"52687650119","owner":"196264892@N08","secret":"8a767cae19","server":"65535","farm":66,"title":"Eurasian Wigeons in flock of American Wigeons","ispublic":1,"isfriend":0,"isfamily":0},{"id":"52687644099","owner":"196264892@N08","secret":"60d9320076","server":"65535","farm":66,"title":"Hybrid Wigeon","ispublic":1,"isfriend":0,"isfamily":0},{"id":"52687366216","owner":"196264892@N08","secret":"193e80827c","server":"65535","farm":66,"title":"Hybrid Wigeon","ispublic":1,"isfriend":0,"isfamily":0},{"id":"52687861903","owner":"196264892@N08","secret":"b4ba1dc950","server":"65535","farm":66,"title":"Hybrid Wigeon","ispublic":1,"isfriend":0,"isfamily":0},{"id":"52686824692","owner":"196264892@N08","secret":"8f6615c4cc","server":"65535","farm":66,"title":"Storm Wigeon","ispublic":1,"isfriend":0,"isfamily":0},{"id":"52687342486","owner":"196264892@N08","secret":"6f03557627","server":"65535","farm":66,"title":"Storm Wigeon","ispublic":1,"isfriend":0,"isfamily":0},{"id":"52687619709","owner":"196264892@N08","secret":"20edc8ea0b","server":"65535","farm":66,"title":"Storm Wigeon and typical Am. Wigeon","ispublic":1,"isfriend":0,"isfamily":0},{"id":"52687766095","owner":"196264892@N08","secret":"7535dac21f","server":"65535","farm":66,"title":"Storm Wigeon","ispublic":1,"isfriend":0,"isfamily":0},{"id":"52687837393","owner":"196264892@N08","secret":"04394de65f","server":"65535","farm":66,"title":"Storm Wigeon","ispublic":1,"isfriend":0,"isfamily":0},{"id":"52686822287","owner":"196264892@N08","secret":"8ff7d46d98","server":"65535","farm":66,"title":"Storm Wigeon","ispublic":1,"isfriend":0,"isfamily":0},{"id":"52686817972","owner":"196264892@N08","secret":"86048bde49","server":"65535","farm":66,"title":"Storm Wigeon","ispublic":1,"isfriend":0,"isfamily":0},{"id":"52682735857","owner":"135315828@N06","secret":"27433acd80","server":"65535","farm":66,"title":"eurasian wigeon with american wigeon","ispublic":1,"isfriend":0,"isfamily":0},{"id":"52683678890","owner":"135315828@N06","secret":"ea6e04e88a","server":"65535","farm":66,"title":"eurasian wigeon with american wigeon","ispublic":1,"isfriend":0,"isfamily":0},{"id":"52683678850","owner":"135315828@N06","secret":"0a2483425c","server":"65535","farm":66,"title":"eurasian wigeon with american wigeon","ispublic":1,"isfriend":0,"isfamily":0},{"id":"52683678865","owner":"135315828@N06","secret":"e98132a6b7","server":"65535","farm":66,"title":"eurasian wigeon with american wigeon","ispublic":1,"isfriend":0,"isfamily":0},{"id":"52683749913","owner":"135315828@N06","secret":"eb4c108586","server":"65535","farm":66,"title":"eurasian wigeon with american wigeon","ispublic":1,"isfriend":0,"isfamily":0},{"id":"52673779344","owner":"187792860@N04","secret":"fc9d5ce69f","server":"65535","farm":66,"title":"American Wigeon (Mareca americana)","ispublic":1,"isfriend":0,"isfamily":0},{"id":"52673911725","owner":"187792860@N04","secret":"2ab88166ab","server":"65535","farm":66,"title":"American Wigeon (Mareca americana)","ispublic":1,"isfriend":0,"isfamily":0},{"id":"52672758267","owner":"187792860@N04","secret":"a66123848b","server":"65535","farm":66,"title":"American Wigeon (Mareca americana)","ispublic":1,"isfriend":0,"isfamily":0},{"id":"52669426425","owner":"68635735@N02","secret":"a50741f833","server":"65535","farm":66,"title":"American Wigeon (Mareca americana) female","ispublic":1,"isfriend":0,"isfamily":0},{"id":"52669426380","owner":"68635735@N02","secret":"a906814c15","server":"65535","farm":66,"title":"American Wigeon (Mareca americana) male","ispublic":1,"isfriend":0,"isfamily":0},{"id":"52669463228","owner":"66855284@N03","secret":"a84051c033","server":"65535","farm":66,"title":"American Wigeon 2020 03 25 01","ispublic":1,"isfriend":0,"isfamily":0},{"id":"52669244144","owner":"66855284@N03","secret":"bed80aef5b","server":"65535","farm":66,"title":"American Wigeon 2020 03 25 02","ispublic":1,"isfriend":0,"isfamily":0},{"id":"52668935521","owner":"66855284@N03","secret":"162101b3df","server":"65535","farm":66,"title":"American Wigeon 2020 03 25 03","ispublic":1,"isfriend":0,"isfamily":0},{"id":"52668924706","owner":"66855284@N03","secret":"e32f1079d7","server":"65535","farm":66,"title":"American Wigeon 2020 03 25 04","ispublic":1,"isfriend":0,"isfamily":0},{"id":"52746480674","owner":"32121198@N00","secret":"1d59848699","server":"65535","farm":66,"title":"Tifft Nature preserve - American Wigeons - Mar 2023","ispublic":1,"isfriend":0,"isfamily":0},{"id":"52745704452","owner":"32121198@N00","secret":"c67e1aa8f1","server":"65535","farm":66,"title":"Tifft Nature preserve - American Wigeons - Mar 2023","ispublic":1,"isfriend":0,"isfamily":0},{"id":"52746724233","owner":"32121198@N00","secret":"ecf21d1236","server":"65535","farm":66,"title":"Tifft Nature preserve - American Wigeons - Mar 2023","ispublic":1,"isfriend":0,"isfamily":0},{"id":"52746480194","owner":"32121198@N00","secret":"9b55b4c19d","server":"65535","farm":66,"title":"Tifft Nature preserve - American Wigeons - Mar 2023","ispublic":1,"isfriend":0,"isfamily":0},{"id":"52746227436","owner":"32121198@N00","secret":"ff68d5fdc7","server":"65535","farm":66,"title":"Tifft Nature preserve - American Wigeons - Mar 2023","ispublic":1,"isfriend":0,"isfamily":0},{"id":"52746479054","owner":"32121198@N00","secret":"1eced51265","server":"65535","farm":66,"title":"Tifft Nature preserve - American Wigeons - Mar 2023","ispublic":1,"isfriend":0,"isfamily":0},{"id":"52746643900","owner":"32121198@N00","secret":"19a2519f93","server":"65535","farm":66,"title":"Tifft Nature preserve - American Wigeons - Mar 2023","ispublic":1,"isfriend":0,"isfamily":0},{"id":"52746226801","owner":"32121198@N00","secret":"905e2ba06a","server":"65535","farm":66,"title":"Tifft Nature preserve - American Wigeons - Mar 2023","ispublic":1,"isfriend":0,"isfamily":0},{"id":"52745702537","owner":"32121198@N00","secret":"e5b337f827","server":"65535","farm":66,"title":"Tifft Nature preserve - American Wigeons - Mar 2023","ispublic":1,"isfriend":0,"isfamily":0},{"id":"52685104257","owner":"188352054@N08","secret":"261f777d0e","server":"65535","farm":66,"title":"IMG_7345","ispublic":1,"isfriend":0,"isfamily":0},{"id":"52679383460","owner":"47533293@N04","secret":"fc7c61e4a7","server":"65535","farm":66,"title":"American wigeon, Mareca americana","ispublic":1,"isfriend":0,"isfamily":0},{"id":"52672461312","owner":"187792860@N04","secret":"654218b1e0","server":"65535","farm":66,"title":"American Wigeon (Mareca americana)","ispublic":1,"isfriend":0,"isfamily":0}]},"stat":"ok"}