{"photos":{"page":1,"pages":82,"perpage":100,"total":8113,"photo":[{"id":"52722203287","owner":"66855284@N03","secret":"835b9fc96a","server":"65535","farm":66,"title":"Zeroing In","ispublic":1,"isfriend":0,"isfamily":0},{"id":"52722983374","owner":"66855284@N03","secret":"ae5c30a26c","server":"65535","farm":66,"title":"San Juan Capistrano 2016 02 04 17","ispublic":1,"isfriend":0,"isfamily":0},{"id":"52722935369","owner":"66855284@N03","secret":"f76e21bb3e","server":"65535","farm":66,"title":"San Juan Capistrano 2016 02 04 15","ispublic":1,"isfriend":0,"isfamily":0},{"id":"52722933249","owner":"66855284@N03","secret":"0d4e90214e","server":"65535","farm":66,"title":"San Juan Capistrano 2016 02 04 16","ispublic":1,"isfriend":0,"isfamily":0},{"id":"52722661676","owner":"66855284@N03","secret":"b6128581d1","server":"65535","farm":66,"title":"San Juan Capistrano 2016 02 04 13","ispublic":1,"isfriend":0,"isfamily":0},{"id":"52722132857","owner":"66855284@N03","secret":"e5970550ae","server":"65535","farm":66,"title":"San Juan Capistrano 2016 02 04 14","ispublic":1,"isfriend":0,"isfamily":0},{"id":"52721955894","owner":"188156748@N07","secret":"e98e9fcf89","server":"65535","farm":66,"title":"American Crow-Corneille d'Amerique - Corvus brachyrhynchos 5484 (11)-SharpenAI-Standard copy.jpgS","ispublic":1,"isfriend":0,"isfamily":0},{"id":"52722180598","owner":"188156748@N07","secret":"56536ec08b","server":"65535","farm":66,"title":"American Crow-Corneille d'Amerique - Corvus brachyrhynchos 5484 (13)-SharpenAI-Standard copy.jpgS","ispublic":1,"isfriend":0,"isfamily":0},{"id":"52721696651","owner":"188156748@N07","secret":"945939711f","server":"65535","farm":66,"title":"American Crow-Corneille d'Amerique - Corvus brachyrhynchos 5484 (14)-SharpenAI-Standard copy","ispublic":1,"isfriend":0,"isfamily":0},{"id":"52721696626","owner":"188156748@N07","secret":"a67c3e17c4","server":"65535","farm":66,"title":"American Crow-Corneille d'Amerique - Corvus brachyrhynchos 5484 (15)-SharpenAI-Standard copy.jpgS","ispublic":1,"isfriend":0,"isfamily":0},{"id":"52722180523","owner":"188156748@N07","secret":"d16daa5d4d","server":"65535","farm":66,"title":"American Crow-Corneille d'Amerique - Corvus brachyrhynchos 5484 (18)-SharpenAI-Standard copy.jpgS","ispublic":1,"isfriend":0,"isfamily":0},{"id":"52722180528","owner":"188156748@N07","secret":"468a7ba414","server":"65535","farm":66,"title":"American Crow-Corneille d'Amerique - Corvus brachyrhynchos 5484 (16)-SharpenAI-Standard copy.jpgS","ispublic":1,"isfriend":0,"isfamily":0},{"id":"52722106980","owner":"188156748@N07","secret":"5cb5d36491","server":"65535","farm":66,"title":"American Crow-Corneille d'Amerique - Corvus brachyrhynchos 5484 (19)-SharpenAI-Standard copy.jpgS","ispublic":1,"isfriend":0,"isfamily":0},{"id":"52721955744","owner":"188156748@N07","secret":"8fd54bf742","server":"65535","farm":66,"title":"American Crow-Corneille d'Amerique - Corvus brachyrhynchos 5515 (9)-SharpenAI-Standard copy.jpgS","ispublic":1,"isfriend":0,"isfamily":0},{"id":"52721172492","owner":"188156748@N07","secret":"2b82613956","server":"65535","farm":66,"title":"American Crow-Corneille d'Amerique - Corvus brachyrhynchos 5515 (6)-SharpenAI-Standard copy.jpgS","ispublic":1,"isfriend":0,"isfamily":0},{"id":"52722106940","owner":"188156748@N07","secret":"7cee53f885","server":"65535","farm":66,"title":"American Crow-Corneille d'Amerique - Corvus brachyrhynchos 5515 (15)-SharpenAI-Standard copy.jpgS","ispublic":1,"isfriend":0,"isfamily":0},{"id":"52722180423","owner":"188156748@N07","secret":"8c034fa0c7","server":"65535","farm":66,"title":"American Crow-Corneille d'Amerique - Corvus brachyrhynchos 5515 (16)-SharpenAI-Standard copy.jpgS","ispublic":1,"isfriend":0,"isfamily":0},{"id":"52721696521","owner":"188156748@N07","secret":"1b9d315c08","server":"65535","farm":66,"title":"American Crow-Corneille d'Amerique - Corvus brachyrhynchos 5515 (28)-SharpenAI-Standard copy.jpgS","ispublic":1,"isfriend":0,"isfamily":0},{"id":"52717914482","owner":"37645348@N00","secret":"90b4500ee3","server":"65535","farm":66,"title":"crow with guts-5173","ispublic":1,"isfriend":0,"isfamily":0},{"id":"52717325486","owner":"195642998@N04","secret":"b36cdaa944","server":"65535","farm":66,"title":"American Crow (Corvus brachyrhynchos)","ispublic":1,"isfriend":0,"isfamily":0},{"id":"52711916341","owner":"120449047@N06","secret":"cc69c0d1ed","server":"65535","farm":66,"title":"My name ain't Sheryl","ispublic":1,"isfriend":0,"isfamily":0},{"id":"52709127328","owner":"143326780@N02","secret":"45aaae9879","server":"65535","farm":66,"title":"DSCN5536","ispublic":1,"isfriend":0,"isfamily":0},{"id":"52709055240","owner":"143326780@N02","secret":"cf66ee6de9","server":"65535","farm":66,"title":"DSCN5537","ispublic":1,"isfriend":0,"isfamily":0},{"id":"52707915644","owner":"66855284@N03","secret":"c56caed987","server":"65535","farm":66,"title":"Crow 2023 02 08 01","ispublic":1,"isfriend":0,"isfamily":0},{"id":"52705494240","owner":"71933035@N00","secret":"0fbd04ef9b","server":"65535","farm":66,"title":"American Crow (Corvus brachyrhynchos) at Shubie Park Port Wallace, Dartmouth Nova Scotia","ispublic":1,"isfriend":0,"isfamily":0},{"id":"52705493800","owner":"71933035@N00","secret":"7a13fc6431","server":"65535","farm":66,"title":"American Crow (Corvus brachyrhynchos) Crowing, Shubie Park Port Wallace, Dartmouth Nova Scotia","ispublic":1,"isfriend":0,"isfamily":0},{"id":"52703449150","owner":"188156748@N07","secret":"0d5809bb95","server":"65535","farm":66,"title":"American Crow-Corneille d'Amerique - Corvus brachyrhynchos 4983 (4)-SharpenAI-Standard copy.jpgS","ispublic":1,"isfriend":0,"isfamily":0},{"id":"52703030376","owner":"188156748@N07","secret":"50fdd9ed13","server":"65535","farm":66,"title":"American Crow-Corneille d'Amerique - Corvus brachyrhynchos 4983 (11)-SharpenAI-Standard copy.jpgS","ispublic":1,"isfriend":0,"isfamily":0},{"id":"52702508992","owner":"188156748@N07","secret":"9212483208","server":"65535","farm":66,"title":"American Crow-Corneille d'Amerique - Corvus brachyrhynchos 4983 (13)-SharpenAI-Standard copy.jpgS","ispublic":1,"isfriend":0,"isfamily":0},{"id":"52703030326","owner":"188156748@N07","secret":"074c13a1ca","server":"65535","farm":66,"title":"American Crow-Corneille d'Amerique - Corvus brachyrhynchos 4983 (18)-SharpenAI-Standard copy.jpgS","ispublic":1,"isfriend":0,"isfamily":0},{"id":"52702508982","owner":"188156748@N07","secret":"37695111da","server":"65535","farm":66,"title":"American Crow-Corneille d'Amerique - Corvus brachyrhynchos 4983 (16)-SharpenAI-Standard copy.jpgS","ispublic":1,"isfriend":0,"isfamily":0},{"id":"52703030336","owner":"188156748@N07","secret":"4a3c41b9c5","server":"65535","farm":66,"title":"American Crow-Corneille d'Amerique - Corvus brachyrhynchos 4983 (15)-SharpenAI-Standard copy.jpgS","ispublic":1,"isfriend":0,"isfamily":0},{"id":"52702352262","owner":"32599741@N03","secret":"eaede0ef90","server":"65535","farm":66,"title":"2023 - Day 43:  pondering something","ispublic":1,"isfriend":0,"isfamily":0},{"id":"52702091531","owner":"60377564@N08","secret":"c14bff00f3","server":"65535","farm":66,"title":"American Crow (Corvus brachyrhynchos)","ispublic":1,"isfriend":0,"isfamily":0},{"id":"52702091511","owner":"60377564@N08","secret":"7649983c15","server":"65535","farm":66,"title":"American Crow (Corvus brachyrhynchos)","ispublic":1,"isfriend":0,"isfamily":0},{"id":"52702578803","owner":"60377564@N08","secret":"4470563d58","server":"65535","farm":66,"title":"American Crow (Corvus brachyrhynchos)","ispublic":1,"isfriend":0,"isfamily":0},{"id":"52702507910","owner":"60377564@N08","secret":"f86d5a8035","server":"65535","farm":66,"title":"American Crow (Corvus brachyrhynchos)","ispublic":1,"isfriend":0,"isfamily":0},{"id":"52702091171","owner":"60377564@N08","secret":"dd62981fea","server":"65535","farm":66,"title":"American Crow (Corvus brachyrhynchos) over the GWB","ispublic":1,"isfriend":0,"isfamily":0},{"id":"52688800856","owner":"8654297@N06","secret":"2971a1f1a4","server":"65535","farm":66,"title":"The pursuit","ispublic":1,"isfriend":0,"isfamily":0},{"id":"52686769657","owner":"76617062@N08","secret":"04bcd52563","server":"65535","farm":66,"title":"1.01478 Dindon sauvage \/ Meleagris gallopavo silvestris \/ Wild Turkey","ispublic":1,"isfriend":0,"isfamily":0},{"id":"52687074013","owner":"8654297@N06","secret":"1e3c0b4ce1","server":"65535","farm":66,"title":"Outflanked","ispublic":1,"isfriend":0,"isfamily":0},{"id":"52684811451","owner":"17654080@N08","secret":"6182784075","server":"65535","farm":66,"title":"Short-eared Owl & American Crow","ispublic":1,"isfriend":0,"isfamily":0},{"id":"52685309993","owner":"17654080@N08","secret":"81c5859ece","server":"65535","farm":66,"title":"Short-eared Owl & American Crow","ispublic":1,"isfriend":0,"isfamily":0},{"id":"52684297292","owner":"17654080@N08","secret":"e8d100401e","server":"65535","farm":66,"title":"Short-eared Owl & American Crows","ispublic":1,"isfriend":0,"isfamily":0},{"id":"52684811421","owner":"17654080@N08","secret":"5fce8ed4af","server":"65535","farm":66,"title":"Short-eared Owl & American Crow","ispublic":1,"isfriend":0,"isfamily":0},{"id":"52685234935","owner":"17654080@N08","secret":"6ecf0ba347","server":"65535","farm":66,"title":"Short-eared Owl & American Crows","ispublic":1,"isfriend":0,"isfamily":0},{"id":"52685309943","owner":"17654080@N08","secret":"4af02b0e60","server":"65535","farm":66,"title":"Short-eared Owl & American Crow","ispublic":1,"isfriend":0,"isfamily":0},{"id":"52685093649","owner":"17654080@N08","secret":"aab20eb80c","server":"65535","farm":66,"title":"Short-eared Owl in flight","ispublic":1,"isfriend":0,"isfamily":0},{"id":"52684073036","owner":"8654297@N06","secret":"0fded41a04","server":"65535","farm":66,"title":"Everyone's a critic","ispublic":1,"isfriend":0,"isfamily":0},{"id":"52683144049","owner":"68635735@N02","secret":"367e9c8f37","server":"65535","farm":66,"title":"American Crow (Corvus brachyrhynchos)","ispublic":1,"isfriend":0,"isfamily":0},{"id":"52682851386","owner":"188156748@N07","secret":"abc6e61254","server":"65535","farm":66,"title":"American Crow-Corneille d'Amerique - Corvus brachyrhynchos 4021 (1) copy.jpgS","ispublic":1,"isfriend":0,"isfamily":0},{"id":"52682330852","owner":"188156748@N07","secret":"ae547deb72","server":"65535","farm":66,"title":"American Crow-Corneille d'Amerique - Corvus brachyrhynchos 4021 (5) copy","ispublic":1,"isfriend":0,"isfamily":0},{"id":"52683347248","owner":"188156748@N07","secret":"fba5e17d27","server":"65535","farm":66,"title":"American Crow-Corneille d'Amerique - Corvus brachyrhynchos 4021 (3) copy.jpgS","ispublic":1,"isfriend":0,"isfamily":0},{"id":"52683347208","owner":"188156748@N07","secret":"4dece60831","server":"65535","farm":66,"title":"American Crow-Corneille d'Amerique - Corvus brachyrhynchos 4021 (4) copy.jpgS","ispublic":1,"isfriend":0,"isfamily":0},{"id":"52682851346","owner":"188156748@N07","secret":"693dc4c9a7","server":"65535","farm":66,"title":"American Crow-Corneille d'Amerique - Corvus brachyrhynchos 4021 (2) copy.jpgS","ispublic":1,"isfriend":0,"isfamily":0},{"id":"52683279690","owner":"188156748@N07","secret":"0912080db4","server":"65535","farm":66,"title":"American Crow-Corneille d'Amerique - Corvus brachyrhynchos 4021 (6) copy.jpgS","ispublic":1,"isfriend":0,"isfamily":0},{"id":"52681344880","owner":"39177293@N03","secret":"093242936e","server":"65535","farm":66,"title":"American Crow","ispublic":1,"isfriend":0,"isfamily":0},{"id":"52676684660","owner":"51433704@N06","secret":"2368c08750","server":"65535","farm":66,"title":"American Crow","ispublic":1,"isfriend":0,"isfamily":0},{"id":"52675799254","owner":"128537732@N06","secret":"f1bf580356","server":"65535","farm":66,"title":"American Crow (Corvus brachyrhynchos)","ispublic":1,"isfriend":0,"isfamily":0},{"id":"52675114768","owner":"188156748@N07","secret":"983bde4ae1","server":"65535","farm":66,"title":"American Crow-Corneille d'Amerique - Corvus brachyrhynchos 3897-SharpenAI-Standard copy.jpgS","ispublic":1,"isfriend":0,"isfamily":0},{"id":"52674111972","owner":"188156748@N07","secret":"0f4007da6c","server":"65535","farm":66,"title":"American Crow-Corneille d'Amerique - Corvus brachyrhynchos 3899 copy.jpgS","ispublic":1,"isfriend":0,"isfamily":0},{"id":"52673987634","owner":"128537732@N06","secret":"39b6a4506d","server":"65535","farm":66,"title":"American Crow (Corvus brachyrhynchos)","ispublic":1,"isfriend":0,"isfamily":0},{"id":"52674180603","owner":"196716417@N05","secret":"a849c74eb4","server":"65535","farm":66,"title":"American Crow","ispublic":1,"isfriend":0,"isfamily":0},{"id":"52682839793","owner":"18331229@N03","secret":"8cd38bbb26","server":"65535","farm":66,"title":"Crow on the Sitting Rock","ispublic":1,"isfriend":0,"isfamily":0},{"id":"52682769930","owner":"18331229@N03","secret":"90708e0041","server":"65535","farm":66,"title":"Crow on the Sitting Rock","ispublic":1,"isfriend":0,"isfamily":0},{"id":"52681823292","owner":"18331229@N03","secret":"bf3107c8a1","server":"65535","farm":66,"title":"Crow on the Sitting Rock","ispublic":1,"isfriend":0,"isfamily":0},{"id":"52682340816","owner":"18331229@N03","secret":"2c3320de5f","server":"65535","farm":66,"title":"Crow on the Sitting Rock","ispublic":1,"isfriend":0,"isfamily":0},{"id":"52682838768","owner":"18331229@N03","secret":"acf66d9c3b","server":"65535","farm":66,"title":"Crow on the Sitting Rock","ispublic":1,"isfriend":0,"isfamily":0},{"id":"52672571813","owner":"144980256@N07","secret":"d1855918b5","server":"65535","farm":66,"title":"American Crow (Corvus brachyrhynchos)","ispublic":1,"isfriend":0,"isfamily":0},{"id":"52672569038","owner":"144980256@N07","secret":"7974bc110f","server":"65535","farm":66,"title":"American Crow (Corvus brachyrhynchos)","ispublic":1,"isfriend":0,"isfamily":0},{"id":"52668691141","owner":"62907378@N07","secret":"4dd5402f17","server":"65535","farm":66,"title":"American Crow (Corvus brachyrhynchos)","ispublic":1,"isfriend":0,"isfamily":0},{"id":"52666191697","owner":"66855284@N03","secret":"49bc00d11c","server":"65535","farm":66,"title":"Crow 2020 03 20 03","ispublic":1,"isfriend":0,"isfamily":0},{"id":"52667188238","owner":"66855284@N03","secret":"c79c532e28","server":"65535","farm":66,"title":"Crow 2020 03 20 04","ispublic":1,"isfriend":0,"isfamily":0},{"id":"52666685726","owner":"66855284@N03","secret":"b6bfcb2156","server":"65535","farm":66,"title":"Crow 2020 03 20 02","ispublic":1,"isfriend":0,"isfamily":0},{"id":"52666684666","owner":"66855284@N03","secret":"7afde50968","server":"65535","farm":66,"title":"Crow 2020 03 20 05","ispublic":1,"isfriend":0,"isfamily":0},{"id":"52667118645","owner":"66855284@N03","secret":"bd14cab052","server":"65535","farm":66,"title":"Crow 2020 03 20 06","ispublic":1,"isfriend":0,"isfamily":0},{"id":"52666975024","owner":"66855284@N03","secret":"0fa6f847ac","server":"65535","farm":66,"title":"Crow 2020 03 20 01","ispublic":1,"isfriend":0,"isfamily":0},{"id":"52664347293","owner":"8378957@N02","secret":"b686661f92","server":"65535","farm":66,"title":"American Crow","ispublic":1,"isfriend":0,"isfamily":0},{"id":"52663742751","owner":"63093099@N02","secret":"61a3c43c7c","server":"65535","farm":66,"title":"American Crow; 20230201; USA-WA-King-Green Lake","ispublic":1,"isfriend":0,"isfamily":0},{"id":"52663742666","owner":"63093099@N02","secret":"16d9b7b7b6","server":"65535","farm":66,"title":"American Crow; 20230201; USA-WA-King-Green Lake","ispublic":1,"isfriend":0,"isfamily":0},{"id":"52663149709","owner":"130605131@N08","secret":"f18c4393de","server":"65535","farm":66,"title":"IMG_3701","ispublic":1,"isfriend":0,"isfamily":0},{"id":"52662910619","owner":"24608578@N00","secret":"856e4fccf5","server":"65535","farm":66,"title":"American crows (Corvus brachyrhynchos)","ispublic":1,"isfriend":0,"isfamily":0},{"id":"52660258234","owner":"11815777@N07","secret":"f142e4e8cd","server":"65535","farm":66,"title":"American Crow","ispublic":1,"isfriend":0,"isfamily":0},{"id":"52656921541","owner":"8378957@N02","secret":"37b18df714","server":"65535","farm":66,"title":"American Crow","ispublic":1,"isfriend":0,"isfamily":0},{"id":"52655191789","owner":"52450054@N04","secret":"9918a383af","server":"65535","farm":66,"title":"American Crow - Corvus brachyrhynchos, Leesylvania State Park, Woodbridge, Virginia, January 1, 2023","ispublic":1,"isfriend":0,"isfamily":0},{"id":"52650643030","owner":"76617062@N08","secret":"5c77710d0b","server":"65535","farm":66,"title":"1.18926 Corneille d'Am\u00e9rique \/ Corvus brachyrhynchos brachyrhynchos \/ American Crow","ispublic":1,"isfriend":0,"isfamily":0},{"id":"52649047660","owner":"139237357@N06","secret":"8cd7dddfe5","server":"65535","farm":66,"title":"Red-tailed Hawk and American Crow","ispublic":1,"isfriend":0,"isfamily":0},{"id":"52645055587","owner":"144980256@N07","secret":"6f110faa5a","server":"65535","farm":66,"title":"American Crow (Corvus brachyrhynchos)","ispublic":1,"isfriend":0,"isfamily":0},{"id":"52640541307","owner":"66855284@N03","secret":"dc9762f59c","server":"65535","farm":66,"title":"Shopping Center 20200 03 14 01","ispublic":1,"isfriend":0,"isfamily":0},{"id":"52638311481","owner":"76617062@N08","secret":"c5d734dd2f","server":"65535","farm":66,"title":"1.01478 Dindon sauvage \/ Meleagris gallopavo silvestris \/ Wild Turkey","ispublic":1,"isfriend":0,"isfamily":0},{"id":"52638363263","owner":"71393709@N06","secret":"fc9f271cc6","server":"65535","farm":66,"title":"American crow (Corvus brachyrhynchos), Fraser lake in Northern BC  -  (Published online in BIRDS&BLOOMS) &(Published by GETTY IMAGES)","ispublic":1,"isfriend":0,"isfamily":0},{"id":"52636488702","owner":"33888451@N07","secret":"076e59465a","server":"65535","farm":66,"title":"American Crow (Corvus brachyrhynchos) in the rain","ispublic":1,"isfriend":0,"isfamily":0},{"id":"52635339924","owner":"188156748@N07","secret":"ed0285fa98","server":"65535","farm":66,"title":"American Crow-Corneille d'Amerique - Corvus brachyrhynchos 2260 (2)-SharpenAI-Standard copy.jpgS","ispublic":1,"isfriend":0,"isfamily":0},{"id":"52635080176","owner":"188156748@N07","secret":"a0ce3fed15","server":"65535","farm":66,"title":"American Crow-Corneille d'Amerique - Corvus brachyrhynchos 2260 (4)-SharpenAI-Standard copy.jpgS","ispublic":1,"isfriend":0,"isfamily":0},{"id":"52635563003","owner":"188156748@N07","secret":"f04e6a0d25","server":"65535","farm":66,"title":"American Crow-Corneille d'Amerique - Corvus brachyrhynchos 2284-SharpenAI-Standard copy.jpgS","ispublic":1,"isfriend":0,"isfamily":0},{"id":"52631058446","owner":"188352054@N08","secret":"1ef94f5201","server":"65535","farm":66,"title":"IMG_4764","ispublic":1,"isfriend":0,"isfamily":0},{"id":"52631536398","owner":"188352054@N08","secret":"958f0dfc54","server":"65535","farm":66,"title":"IMG_4782","ispublic":1,"isfriend":0,"isfamily":0},{"id":"52629524656","owner":"135744476@N02","secret":"4f65b2d7cc","server":"65535","farm":66,"title":"Leucistic Carrion Crow","ispublic":1,"isfriend":0,"isfamily":0},{"id":"52627068590","owner":"188156748@N07","secret":"7a7e2ce286","server":"65535","farm":66,"title":"American Crow-Corneille d'Amerique - Corvus brachyrhynchos  7864 (6)-SharpenAI-Standard copy.jpgS","ispublic":1,"isfriend":0,"isfamily":0},{"id":"52627068535","owner":"188156748@N07","secret":"c6e9dc191d","server":"65535","farm":66,"title":"American Crow-Corneille d'Amerique - Corvus brachyrhynchos 4234 (6)-SharpenAI-Standard copy.jpgS","ispublic":1,"isfriend":0,"isfamily":0}]},"stat":"ok"}