{"photos":{"page":1,"pages":44,"perpage":100,"total":4305,"photo":[{"id":"52720374100","owner":"12639178@N07","secret":"f7c5f3166c","server":"65535","farm":66,"title":"Rotschwanz-Walds\u00e4nger","ispublic":1,"isfriend":0,"isfamily":0},{"id":"52719761750","owner":"12639178@N07","secret":"f594726ce3","server":"65535","farm":66,"title":"Schn\u00e4pperwalds\u00e4nger (Setophaga ruticilla) (1)","ispublic":1,"isfriend":0,"isfamily":0},{"id":"52710925771","owner":"86191812@N07","secret":"082f7fd1db","server":"65535","farm":66,"title":"American Redstart (Setophaga ruticilla)","ispublic":1,"isfriend":0,"isfamily":0},{"id":"52692813553","owner":"181824639@N02","secret":"eb5767a058","server":"65535","farm":66,"title":"Paruline flamboyante  ( Setophaga ruticilla )","ispublic":1,"isfriend":0,"isfamily":0},{"id":"52680261141","owner":"24608578@N00","secret":"7e6a340b7c","server":"65535","farm":66,"title":"American redstart (Setophaga ruticilla), female","ispublic":1,"isfriend":0,"isfamily":0},{"id":"52667824685","owner":"54249623@N08","secret":"2864bdc699","server":"65535","farm":66,"title":"Reinita Norte\u00f1a, American Redstart (Setophaga ruticilla)","ispublic":1,"isfriend":0,"isfamily":0},{"id":"52662124192","owner":"24608578@N00","secret":"2694ec7673","server":"65535","farm":66,"title":"American redstart (Setophaga ruticilla), male","ispublic":1,"isfriend":0,"isfamily":0},{"id":"52663118963","owner":"24608578@N00","secret":"df1b6efda0","server":"65535","farm":66,"title":"American redstart (Setophaga ruticilla), male","ispublic":1,"isfriend":0,"isfamily":0},{"id":"52643038641","owner":"97599611@N04","secret":"6e2fe58427","server":"65535","farm":66,"title":"0P7A8739   female American Redstart Warbler, Canada","ispublic":1,"isfriend":0,"isfamily":0},{"id":"52637522106","owner":"31694846@N02","secret":"c1bb043119","server":"65535","farm":66,"title":"Candelita, Setophaga ruticilla, American Redstar","ispublic":1,"isfriend":0,"isfamily":0},{"id":"52603750320","owner":"8677091@N08","secret":"66fd737bdd","server":"65535","farm":66,"title":"Candelita y Coccolobas","ispublic":1,"isfriend":0,"isfamily":0},{"id":"52603832963","owner":"8677091@N08","secret":"9ef6c7b8c8","server":"65535","farm":66,"title":"Candela y Tamarindo","ispublic":1,"isfriend":0,"isfamily":0},{"id":"52593229138","owner":"30979614@N07","secret":"c0422e5b33","server":"65535","farm":66,"title":"2022-05-10 Montrose Point 13","ispublic":1,"isfriend":0,"isfamily":0},{"id":"52584703431","owner":"76288515@N07","secret":"72cdded130","server":"65535","farm":66,"title":"American Redstart Setophaga ruticilla","ispublic":1,"isfriend":0,"isfamily":0},{"id":"52584966929","owner":"76288515@N07","secret":"4885a2d9a3","server":"65535","farm":66,"title":"American Redstart Setophaga ruticilla","ispublic":1,"isfriend":0,"isfamily":0},{"id":"52585138460","owner":"76288515@N07","secret":"ae0f921fe7","server":"65535","farm":66,"title":"American Redstart Setophaga ruticilla","ispublic":1,"isfriend":0,"isfamily":0},{"id":"52584703331","owner":"76288515@N07","secret":"46c86f22f7","server":"65535","farm":66,"title":"American Redstart Setophaga ruticilla","ispublic":1,"isfriend":0,"isfamily":0},{"id":"52585138335","owner":"76288515@N07","secret":"f225094a7e","server":"65535","farm":66,"title":"American Redstart Setophaga ruticilla","ispublic":1,"isfriend":0,"isfamily":0},{"id":"52584252099","owner":"97599611@N04","secret":"6fa83e24a7","server":"65535","farm":66,"title":"0P7A8961   female American Redstart Warbler, Canada","ispublic":1,"isfriend":0,"isfamily":0},{"id":"52575774773","owner":"181824639@N02","secret":"f087aed7a3","server":"65535","farm":66,"title":"Paruline flamboyante ( Setophaga ruticilla )","ispublic":1,"isfriend":0,"isfamily":0},{"id":"52570380883","owner":"71418112@N00","secret":"02d09027c1","server":"65535","farm":66,"title":"American redstart","ispublic":1,"isfriend":0,"isfamily":0},{"id":"52563980776","owner":"97599611@N04","secret":"27f8ba57ff","server":"65535","farm":66,"title":"0P7A1039   American Redstart Warbler, Canada","ispublic":1,"isfriend":0,"isfamily":0},{"id":"52562335560","owner":"196786375@N03","secret":"c637260d79","server":"65535","farm":66,"title":"American Redstart","ispublic":1,"isfriend":0,"isfamily":0},{"id":"52554696470","owner":"70295563@N00","secret":"b5d75f6d7a","server":"65535","farm":66,"title":"Migrant","ispublic":1,"isfriend":0,"isfamily":0},{"id":"52553659701","owner":"182225716@N07","secret":"612161a16a","server":"65535","farm":66,"title":"DSC_9323_00001 American redstart - Paruline flamboyante (Setophaga ruticilla)","ispublic":1,"isfriend":0,"isfamily":0},{"id":"52551317740","owner":"147450357@N08","secret":"e21e82757d","server":"65535","farm":66,"title":"Paruline flamboyante m\u00e2le","ispublic":1,"isfriend":0,"isfamily":0},{"id":"52540573220","owner":"10336659@N04","secret":"f5dcc9ab9e","server":"65535","farm":66,"title":"American Redstart (Setophaga ruticilla) at Wakodahatchee Wetlands.","ispublic":1,"isfriend":0,"isfamily":0},{"id":"52534762921","owner":"33610210@N05","secret":"a6716e5b16","server":"65535","farm":66,"title":"American Redstart, Setophaga ruticilla","ispublic":1,"isfriend":0,"isfamily":0},{"id":"52534762876","owner":"33610210@N05","secret":"07972909bb","server":"65535","farm":66,"title":"American Redstart, Setophaga ruticilla","ispublic":1,"isfriend":0,"isfamily":0},{"id":"52533190200","owner":"33610210@N05","secret":"6e23d947f1","server":"65535","farm":66,"title":"American Redstart, Setophaga ruticilla","ispublic":1,"isfriend":0,"isfamily":0},{"id":"52526424141","owner":"33982546@N05","secret":"d09e90df63","server":"65535","farm":66,"title":"American Redstart Singing","ispublic":1,"isfriend":0,"isfamily":0},{"id":"52525698355","owner":"10336659@N04","secret":"e09c623f61","server":"65535","farm":66,"title":"American Redstart (Setophaga ruticilla) at Wakodahatchee Wetlands.","ispublic":1,"isfriend":0,"isfamily":0},{"id":"52494461372","owner":"10336659@N04","secret":"5d550b73c9","server":"65535","farm":66,"title":"American Redstart (Setophaga ruticilla) at Wakodahatchee Wetlands.","ispublic":1,"isfriend":0,"isfamily":0},{"id":"52493879540","owner":"10336659@N04","secret":"f48eb5e843","server":"65535","farm":66,"title":"American Redstart (Setophaga ruticilla) at Wakodahatchee Wetlands.","ispublic":1,"isfriend":0,"isfamily":0},{"id":"52491738729","owner":"10336659@N04","secret":"27f4c8d7ac","server":"65535","farm":66,"title":"American Redstart (Setophaga ruticilla) at Wakodahatchee Wetlands.","ispublic":1,"isfriend":0,"isfamily":0},{"id":"52488026218","owner":"39445433@N02","secret":"2e4aeb73a0","server":"65535","farm":66,"title":"American Redstart","ispublic":1,"isfriend":0,"isfamily":0},{"id":"52486506398","owner":"181824639@N02","secret":"7afa2103b0","server":"65535","farm":66,"title":"Paruline flamboyante ( Setophaga ruticilla )","ispublic":1,"isfriend":0,"isfamily":0},{"id":"52484781173","owner":"10336659@N04","secret":"61077c7ab8","server":"65535","farm":66,"title":"American Redstart (Setophaga ruticilla) at Wakodahatchee Wetlands.","ispublic":1,"isfriend":0,"isfamily":0},{"id":"52483064802","owner":"59777454@N02","secret":"aec6b25ae5","server":"65535","farm":66,"title":"American Redstart female constructing nest Tekiela K0A3518","ispublic":1,"isfriend":0,"isfamily":0},{"id":"52477651831","owner":"84169650@N07","secret":"9af1cc122f","server":"65535","farm":66,"title":"American Redstart","ispublic":1,"isfriend":0,"isfamily":0},{"id":"52476502687","owner":"59770980@N02","secret":"e6c776a181","server":"65535","farm":66,"title":"H\u00famskr\u00edkja-American Redstart-Setophaga ruticilla","ispublic":1,"isfriend":0,"isfamily":0},{"id":"52474103382","owner":"193970152@N04","secret":"28934da2d7","server":"65535","farm":66,"title":"Setophaga","ispublic":1,"isfriend":0,"isfamily":0},{"id":"52471191410","owner":"34674638@N05","secret":"5d2be19a1d","server":"65535","farm":66,"title":"American Redstart","ispublic":1,"isfriend":0,"isfamily":0},{"id":"52466702200","owner":"94074753@N00","secret":"1ce973b356","server":"65535","farm":66,"title":"Candelita - American Redstar (Setophaga ruticilla)","ispublic":1,"isfriend":0,"isfamily":0},{"id":"52463738800","owner":"97599611@N04","secret":"129eb491cf","server":"65535","farm":66,"title":"0P7A8726  female American Redstart Warbler, Canada","ispublic":1,"isfriend":0,"isfamily":0},{"id":"52459720862","owner":"24608578@N00","secret":"abeaee0023","server":"65535","farm":66,"title":"American redstart (Setophaga ruticilla), male","ispublic":1,"isfriend":0,"isfamily":0},{"id":"52451331059","owner":"38242794@N02","secret":"72401e4237","server":"65535","farm":66,"title":"H\u00famskr\u00edkja - American Redstart - Setophaga ruticilla","ispublic":1,"isfriend":0,"isfamily":0},{"id":"52450511161","owner":"24608578@N00","secret":"630b4708ba","server":"65535","farm":66,"title":"American redstart (Setophaga ruticilla), male","ispublic":1,"isfriend":0,"isfamily":0},{"id":"52450957500","owner":"24608578@N00","secret":"b44293bb5b","server":"65535","farm":66,"title":"American redstart (Setophaga ruticilla), male","ispublic":1,"isfriend":0,"isfamily":0},{"id":"52450511061","owner":"24608578@N00","secret":"7b1878713d","server":"65535","farm":66,"title":"American redstart (Setophaga ruticilla), male","ispublic":1,"isfriend":0,"isfamily":0},{"id":"52450948275","owner":"24608578@N00","secret":"9bce949764","server":"65535","farm":66,"title":"American redstart (Setophaga ruticilla), male","ispublic":1,"isfriend":0,"isfamily":0},{"id":"52436575148","owner":"45340210@N05","secret":"69a419518f","server":"65535","farm":66,"title":"American Redstart 2 9_19_22","ispublic":1,"isfriend":0,"isfamily":0},{"id":"52404500923","owner":"49114357@N08","secret":"bbb0b3bd25","server":"65535","farm":66,"title":"American Redstart","ispublic":1,"isfriend":0,"isfamily":0},{"id":"52427891631","owner":"39138537@N06","secret":"d3c8b73eb1","server":"65535","farm":66,"title":"Black-and-White Warbler (M. varia) (2), Northern Parula (S. americana) & American Redstart (S. ruticilla)","ispublic":1,"isfriend":0,"isfamily":0},{"id":"52428403863","owner":"39138537@N06","secret":"c1f699e38d","server":"65535","farm":66,"title":"American Redstart (Setophaga ruticilla)","ispublic":1,"isfriend":0,"isfamily":0},{"id":"52427382357","owner":"39138537@N06","secret":"43c121b2db","server":"65535","farm":66,"title":"American Redstart (Setophaga ruticilla)","ispublic":1,"isfriend":0,"isfamily":0},{"id":"52427382327","owner":"39138537@N06","secret":"aab68b478f","server":"65535","farm":66,"title":"American Redstart (Setophaga ruticilla)","ispublic":1,"isfriend":0,"isfamily":0},{"id":"52428341075","owner":"39138537@N06","secret":"0181317e8d","server":"65535","farm":66,"title":"American Redstart (Setophaga ruticilla)","ispublic":1,"isfriend":0,"isfamily":0},{"id":"52418335006","owner":"39177293@N03","secret":"5bf73b111b","server":"65535","farm":66,"title":"American Redstart","ispublic":1,"isfriend":0,"isfamily":0},{"id":"52414495190","owner":"101106007@N04","secret":"9e8c4255e5","server":"65535","farm":66,"title":"015A6936 American Redstart","ispublic":1,"isfriend":0,"isfamily":0},{"id":"52412239466","owner":"23020855@N03","secret":"a75e41c978","server":"65535","farm":66,"title":"American Redstart - Pitt River, BC","ispublic":1,"isfriend":0,"isfamily":0},{"id":"52410133599","owner":"48311154@N02","secret":"e5a95b94ef","server":"65535","farm":66,"title":"American Redstart in the apple tree","ispublic":1,"isfriend":0,"isfamily":0},{"id":"52409847146","owner":"48311154@N02","secret":"81dd6cfe6b","server":"65535","farm":66,"title":"Redstart got lucky","ispublic":1,"isfriend":0,"isfamily":0},{"id":"52407535080","owner":"39511843@N07","secret":"3863978dd5","server":"65535","farm":66,"title":"American Redstart (Setophaga ruticilla)-4-","ispublic":1,"isfriend":0,"isfamily":0},{"id":"52407535095","owner":"39511843@N07","secret":"8ab78a7954","server":"65535","farm":66,"title":"American Redstart (Setophaga ruticilla)-3-4","ispublic":1,"isfriend":0,"isfamily":0},{"id":"52407385809","owner":"39511843@N07","secret":"3a587f7feb","server":"65535","farm":66,"title":"American Redstart (Setophaga ruticilla)-5-2-Edit","ispublic":1,"isfriend":0,"isfamily":0},{"id":"52396439857","owner":"49114357@N08","secret":"29d9dbabc1","server":"65535","farm":66,"title":"American Redstart","ispublic":1,"isfriend":0,"isfamily":0},{"id":"52398131010","owner":"94074753@N00","secret":"db49962f41","server":"65535","farm":66,"title":"Candelita - American Redstar (Setophaga ruticilla)","ispublic":1,"isfriend":0,"isfamily":0},{"id":"52397191212","owner":"94074753@N00","secret":"f6262f2892","server":"65535","farm":66,"title":"Candelita - American Redstar (Setophaga ruticilla)","ispublic":1,"isfriend":0,"isfamily":0},{"id":"52397704431","owner":"94074753@N00","secret":"9b8f0d9a0e","server":"65535","farm":66,"title":"Candelita - American Redstar (Setophaga ruticilla)","ispublic":1,"isfriend":0,"isfamily":0},{"id":"52398130685","owner":"94074753@N00","secret":"eedbd64b4b","server":"65535","farm":66,"title":"Candelita - American Redstar (Setophaga ruticilla)","ispublic":1,"isfriend":0,"isfamily":0},{"id":"52394555615","owner":"103722035@N06","secret":"283334914c","server":"0","farm":0,"title":"American Redstart (Setophaga ruticilla), Monta\u00f1a de Oro, Los Osos, CA","ispublic":1,"isfriend":0,"isfamily":0},{"id":"52391230908","owner":"187792860@N04","secret":"0de22ef2e3","server":"65535","farm":66,"title":"American Rdstart (Setophaga ruticilla)","ispublic":1,"isfriend":0,"isfamily":0},{"id":"52389540243","owner":"38514062@N03","secret":"71b150bb48","server":"65535","farm":66,"title":"American Redstart (Setophaga ruticilla)","ispublic":1,"isfriend":0,"isfamily":0},{"id":"52386120332","owner":"48311154@N02","secret":"a844e37d96","server":"65535","farm":66,"title":"American Redstart - Recognize this warbler by its tail","ispublic":1,"isfriend":0,"isfamily":0},{"id":"52381501933","owner":"188156748@N07","secret":"581efd36a6","server":"65535","farm":66,"title":"American Redstart - Paruline flamboyante 7748 (13)-SharpenAI-Standard copy.jpgS","ispublic":1,"isfriend":0,"isfamily":0},{"id":"52381265641","owner":"188156748@N07","secret":"5a32972c2e","server":"65535","farm":66,"title":"American Redstart - Paruline flamboyante 7748 (2)-SharpenAI-Standard copy.jpgS","ispublic":1,"isfriend":0,"isfamily":0},{"id":"52381265571","owner":"188156748@N07","secret":"833d4cd38e","server":"65535","farm":66,"title":"American Redstart - Paruline flamboyante 7748 (19)-SharpenAI-Standard copy.jpgS","ispublic":1,"isfriend":0,"isfamily":0},{"id":"52381501873","owner":"188156748@N07","secret":"8e3f36b318","server":"65535","farm":66,"title":"American Redstart - Paruline flamboyante 7748 (18)-SharpenAI-Standard copy.jpgS","ispublic":1,"isfriend":0,"isfamily":0},{"id":"52381575304","owner":"188156748@N07","secret":"d63b2cb386","server":"65535","farm":66,"title":"American Redstart - Paruline flamboyante 7748 (4)-SharpenAI-Standard copy.jpgS","ispublic":1,"isfriend":0,"isfamily":0},{"id":"52381688730","owner":"188156748@N07","secret":"aea0bb1009","server":"65535","farm":66,"title":"American Redstart - Paruline flamboyante 7748 (20)-SharpenAI-Standard copy.jpgS","ispublic":1,"isfriend":0,"isfamily":0},{"id":"52584703416","owner":"76288515@N07","secret":"c23d67df5e","server":"65535","farm":66,"title":"American Redstart Setophaga ruticilla","ispublic":1,"isfriend":0,"isfamily":0},{"id":"52584703346","owner":"76288515@N07","secret":"75f154962a","server":"65535","farm":66,"title":"American Redstart Setophaga ruticilla","ispublic":1,"isfriend":0,"isfamily":0},{"id":"52585223033","owner":"76288515@N07","secret":"dd73124c47","server":"65535","farm":66,"title":"American Redstart Setophaga ruticilla","ispublic":1,"isfriend":0,"isfamily":0},{"id":"52580953143","owner":"153973412@N04","secret":"9698066b5a","server":"65535","farm":66,"title":"American Redstart-Setophaga ruticilla, Iowa City, IA","ispublic":1,"isfriend":0,"isfamily":0},{"id":"52498381124","owner":"42622112@N08","secret":"ee244a3615","server":"65535","farm":66,"title":"Candelita Norte\u00f1a \/ Setophaga ruticilla (macho)","ispublic":1,"isfriend":0,"isfamily":0},{"id":"52498543580","owner":"42622112@N08","secret":"eb9fd72b2b","server":"65535","farm":66,"title":"Candelita Norte\u00f1a \/ Setophaga ruticilla (macho)","ispublic":1,"isfriend":0,"isfamily":0},{"id":"52495537439","owner":"64557331@N04","secret":"52a308d506","server":"65535","farm":66,"title":"American redstart - (Setophaga ruticilla)_08312022_2","ispublic":1,"isfriend":0,"isfamily":0},{"id":"52495805468","owner":"64557331@N04","secret":"cb6fd19a4a","server":"65535","farm":66,"title":"American Redstart - (Setophaga ruticilla)_09142022","ispublic":1,"isfriend":0,"isfamily":0},{"id":"52495786728","owner":"64557331@N04","secret":"30af62254d","server":"65535","farm":66,"title":"American Redstart - (Setophaga ruticilla)_09162021","ispublic":1,"isfriend":0,"isfamily":0},{"id":"52493783305","owner":"97599611@N04","secret":"638f69c326","server":"65535","farm":66,"title":"0P7A8729   female American Redsart Warbler, Canada","ispublic":1,"isfriend":0,"isfamily":0},{"id":"52424083354","owner":"140318147@N08","secret":"1ce7ef2b37","server":"65535","farm":66,"title":"American redstart (Setophaga ruticilla) L4A4490","ispublic":1,"isfriend":0,"isfamily":0},{"id":"52423288217","owner":"140318147@N08","secret":"6126c2d3d9","server":"65535","farm":66,"title":"American redstart (Setophaga ruticilla) L4A4494","ispublic":1,"isfriend":0,"isfamily":0},{"id":"52407165211","owner":"97599611@N04","secret":"ff505dfa43","server":"65535","farm":66,"title":"0P7A8965   female American Redstart Warbler, Canada","ispublic":1,"isfriend":0,"isfamily":0},{"id":"52406601657","owner":"39511843@N07","secret":"e44848e083","server":"65535","farm":66,"title":"American Redstart (Setophaga ruticilla)-7-","ispublic":1,"isfriend":0,"isfamily":0},{"id":"52400462044","owner":"67306066@N03","secret":"133a862721","server":"65535","farm":66,"title":"American Redstart (Setophaga ruticilla)","ispublic":1,"isfriend":0,"isfamily":0},{"id":"52400670078","owner":"67306066@N03","secret":"8b9f3ab25a","server":"65535","farm":66,"title":"American Redstart (Setophaga ruticilla)","ispublic":1,"isfriend":0,"isfamily":0},{"id":"52400670023","owner":"67306066@N03","secret":"744248f0ae","server":"65535","farm":66,"title":"American Redstart (Setophaga ruticilla)","ispublic":1,"isfriend":0,"isfamily":0},{"id":"52396617767","owner":"39511843@N07","secret":"a408291418","server":"65535","farm":66,"title":"American Redstart (Setophaga ruticilla) female-","ispublic":1,"isfriend":0,"isfamily":0},{"id":"52385143400","owner":"42622112@N08","secret":"614cae364f","server":"65535","farm":66,"title":"Candelita Norte\u00f1a \/ Setophaga ruticilla (macho)","ispublic":1,"isfriend":0,"isfamily":0}]},"stat":"ok"}