{"photos":{"page":1,"pages":24,"perpage":100,"total":2351,"photo":[{"id":"52703900138","owner":"48014585@N00","secret":"9796fa321f","server":"65535","farm":66,"title":"American Goldfinch","ispublic":1,"isfriend":0,"isfamily":0},{"id":"52703598179","owner":"38943236@N03","secret":"c3842bf8d9","server":"65535","farm":66,"title":"American Golden Plover","ispublic":1,"isfriend":0,"isfamily":0},{"id":"52702337226","owner":"48014585@N00","secret":"baf59271b4","server":"65535","farm":66,"title":"Pine Grosbeak, goldfinch approaching","ispublic":1,"isfriend":0,"isfamily":0},{"id":"52702813708","owner":"48014585@N00","secret":"4198825a1f","server":"65535","farm":66,"title":"American Goldfinch","ispublic":1,"isfriend":0,"isfamily":0},{"id":"52701804967","owner":"48014585@N00","secret":"e39f3fb9ef","server":"65535","farm":66,"title":"American Goldfinch","ispublic":1,"isfriend":0,"isfamily":0},{"id":"52678974806","owner":"191391950@N02","secret":"2660669ba9","server":"65535","farm":66,"title":"Pluvier bronz\u00e9 - Pluvialis dominica","ispublic":1,"isfriend":0,"isfamily":0},{"id":"52664677226","owner":"14734088@N02","secret":"d69fa38e68","server":"65535","farm":66,"title":"Pluvier bronz\u00e9 221023H7","ispublic":1,"isfriend":0,"isfamily":0},{"id":"52658723669","owner":"14734088@N02","secret":"b3c2e84191","server":"65535","farm":66,"title":"Pluvier bronz\u00e9  220925H2a","ispublic":1,"isfriend":0,"isfamily":0},{"id":"52635234523","owner":"14734088@N02","secret":"1a1f2038d0","server":"65535","farm":66,"title":"Pluvier bronz\u00e9 220925H1","ispublic":1,"isfriend":0,"isfamily":0},{"id":"52628098022","owner":"29494346@N03","secret":"018e1aff65","server":"65535","farm":66,"title":"American Golden Plover (Pluvialis dominica)","ispublic":1,"isfriend":0,"isfamily":0},{"id":"52618450508","owner":"163930705@N05","secret":"342fa7fb78","server":"65535","farm":66,"title":"American Golden Plover \/ Gulll\u00f3a (Pluvialis dominica)","ispublic":1,"isfriend":0,"isfamily":0},{"id":"52601499614","owner":"48014585@N00","secret":"1eb8d4d52a","server":"65535","farm":66,"title":"American Goldfinch","ispublic":1,"isfriend":0,"isfamily":0},{"id":"52576820897","owner":"14734088@N02","secret":"5dd8e172b0","server":"65535","farm":66,"title":"Pluvier bronz\u00e9 221023H5c","ispublic":1,"isfriend":0,"isfamily":0},{"id":"52573219244","owner":"14734088@N02","secret":"7bca05f81b","server":"65535","farm":66,"title":"Pluvier bronz\u00e9 191016H","ispublic":1,"isfriend":0,"isfamily":0},{"id":"52547051738","owner":"14734088@N02","secret":"a99905d4e3","server":"65535","farm":66,"title":"Pluvier bronz\u00e9 221023H5b","ispublic":1,"isfriend":0,"isfamily":0},{"id":"52542551029","owner":"49375245@N07","secret":"8e19b39257","server":"65535","farm":66,"title":"Chorlito dorado americano (Pluvialis dominica)","ispublic":1,"isfriend":0,"isfamily":0},{"id":"52539695046","owner":"48014585@N00","secret":"5ae3187683","server":"65535","farm":66,"title":"American Goldfinch","ispublic":1,"isfriend":0,"isfamily":0},{"id":"52539234327","owner":"48014585@N00","secret":"20c2103760","server":"65535","farm":66,"title":"American Goldfinch","ispublic":1,"isfriend":0,"isfamily":0},{"id":"52539996804","owner":"48014585@N00","secret":"a29019d94c","server":"65535","farm":66,"title":"American Goldfinch","ispublic":1,"isfriend":0,"isfamily":0},{"id":"52539426200","owner":"48014585@N00","secret":"59e85efa57","server":"65535","farm":66,"title":"American Goldfinch","ispublic":1,"isfriend":0,"isfamily":0},{"id":"52539426115","owner":"48014585@N00","secret":"44723d73eb","server":"65535","farm":66,"title":"American Goldfinch","ispublic":1,"isfriend":0,"isfamily":0},{"id":"52539425965","owner":"48014585@N00","secret":"7e66b0803c","server":"65535","farm":66,"title":"American Goldfinch","ispublic":1,"isfriend":0,"isfamily":0},{"id":"52539241619","owner":"48014585@N00","secret":"beed42eb94","server":"65535","farm":66,"title":"American Goldfinch","ispublic":1,"isfriend":0,"isfamily":0},{"id":"52539425155","owner":"48014585@N00","secret":"7766925ef6","server":"65535","farm":66,"title":"American Goldfinch","ispublic":1,"isfriend":0,"isfamily":0},{"id":"52535358133","owner":"33610210@N05","secret":"0c19afa95c","server":"65535","farm":66,"title":"American Golden-plover, Pluvialis dominica","ispublic":1,"isfriend":0,"isfamily":0},{"id":"52534817166","owner":"33610210@N05","secret":"258688d65b","server":"65535","farm":66,"title":"American Golden-plover, Pluvialis dominica","ispublic":1,"isfriend":0,"isfamily":0},{"id":"52517447196","owner":"131852759@N03","secret":"38b96b660a","server":"65535","farm":66,"title":"Pluvialis dominica. Chorlito dorado americano","ispublic":1,"isfriend":0,"isfamily":0},{"id":"52517926020","owner":"131852759@N03","secret":"5104d7f372","server":"65535","farm":66,"title":"Pluvialis dominica. Chorlito dorado americano.","ispublic":1,"isfriend":0,"isfamily":0},{"id":"52498476872","owner":"155823967@N08","secret":"c72739cc04","server":"65535","farm":66,"title":"Pluvier fauve - Pacific Golden Plover","ispublic":1,"isfriend":0,"isfamily":0},{"id":"52496112867","owner":"14734088@N02","secret":"7391183af8","server":"65535","farm":66,"title":"Pluvier bronz\u00e9 221023H6","ispublic":1,"isfriend":0,"isfamily":0},{"id":"52495452943","owner":"48938938@N04","secret":"eaca713077","server":"65535","farm":66,"title":"American Golden Plover_Pluvialis dominica_Ascanio_Guyana_DZ3A4246","ispublic":1,"isfriend":0,"isfamily":0},{"id":"52482234968","owner":"184155060@N04","secret":"228cbdba23","server":"65535","farm":66,"title":"05619 Pluvier bronz\u00e9 \/ Pluvialis dominica \/ American Golden-Plover","ispublic":1,"isfriend":0,"isfamily":0},{"id":"52438948143","owner":"17654080@N08","secret":"f1a48595f8","server":"65535","farm":66,"title":"American Golden-Plover, immature (Pluvialis dominica)","ispublic":1,"isfriend":0,"isfamily":0},{"id":"52433381900","owner":"191213614@N06","secret":"74b4d58887","server":"65535","farm":66,"title":"Chorlo pampa.    -Pluvialis dominica-","ispublic":1,"isfriend":0,"isfamily":0},{"id":"52432004933","owner":"14734088@N02","secret":"f67bf98043","server":"65535","farm":66,"title":"Pluvier bronz\u00e9 211010H2b","ispublic":1,"isfriend":0,"isfamily":0},{"id":"52428355613","owner":"196264892@N08","secret":"de6a5a0e2c","server":"65535","farm":66,"title":"American Golden and Black-bellied Plovers","ispublic":1,"isfriend":0,"isfamily":0},{"id":"52428292780","owner":"196264892@N08","secret":"f23c2ffd70","server":"65535","farm":66,"title":"American Golden and Black-bellied Plovers","ispublic":1,"isfriend":0,"isfamily":0},{"id":"52427333277","owner":"196264892@N08","secret":"0fb5bb49ba","server":"65535","farm":66,"title":"American Golden and Black-bellied Plovers","ispublic":1,"isfriend":0,"isfamily":0},{"id":"52427837246","owner":"196264892@N08","secret":"15ec6a73a1","server":"65535","farm":66,"title":"American Golden and Black-bellied Plovers","ispublic":1,"isfriend":0,"isfamily":0},{"id":"52427837036","owner":"196264892@N08","secret":"f928ce0d5e","server":"65535","farm":66,"title":"American Golden Plover","ispublic":1,"isfriend":0,"isfamily":0},{"id":"52428354498","owner":"196264892@N08","secret":"3f7352c871","server":"65535","farm":66,"title":"American Golden Plover","ispublic":1,"isfriend":0,"isfamily":0},{"id":"52428121579","owner":"196264892@N08","secret":"bcce535648","server":"65535","farm":66,"title":"American Golden Plover","ispublic":1,"isfriend":0,"isfamily":0},{"id":"52428291215","owner":"196264892@N08","secret":"9b0b2f1eff","server":"65535","farm":66,"title":"American Golden Plover","ispublic":1,"isfriend":0,"isfamily":0},{"id":"52427331727","owner":"196264892@N08","secret":"b95d6ddf03","server":"65535","farm":66,"title":"American Golden Plover","ispublic":1,"isfriend":0,"isfamily":0},{"id":"52427835716","owner":"196264892@N08","secret":"84f43f1a65","server":"65535","farm":66,"title":"American Golden Plover juvenile","ispublic":1,"isfriend":0,"isfamily":0},{"id":"52420392854","owner":"14734088@N02","secret":"9714e22ac4","server":"65535","farm":66,"title":"Pluvier bronz\u00e9 220925H3b","ispublic":1,"isfriend":0,"isfamily":0},{"id":"52419396595","owner":"18217058@N04","secret":"df6b767319","server":"65535","farm":66,"title":"American Golden plover \/ Gulll\u00f3a (Pluvialis dominica) and Golden Plovers \/ Hei\u00f0l\u00f3ur (Pluvialis apricaria)","ispublic":1,"isfriend":0,"isfamily":0},{"id":"52417664821","owner":"18217058@N04","secret":"de9d964a87","server":"65535","farm":66,"title":"American Golden plover \/ Gulll\u00f3a (Pluvialis dominica)","ispublic":1,"isfriend":0,"isfamily":0},{"id":"52417664741","owner":"18217058@N04","secret":"1ff6ace833","server":"65535","farm":66,"title":"American Golden plover \/ Gulll\u00f3a (Pluvialis dominica) and Golden Plovers \/ Hei\u00f0l\u00f3ur (Pluvialis apricaria)","ispublic":1,"isfriend":0,"isfamily":0},{"id":"52418174963","owner":"18217058@N04","secret":"2ebea5b2ce","server":"65535","farm":66,"title":"American Golden plover \/ Gulll\u00f3a (Pluvialis dominica)","ispublic":1,"isfriend":0,"isfamily":0},{"id":"52417153052","owner":"18217058@N04","secret":"0c16dc3308","server":"65535","farm":66,"title":"American Golden plover \/ Gulll\u00f3a (Pluvialis dominica)","ispublic":1,"isfriend":0,"isfamily":0},{"id":"52417664616","owner":"18217058@N04","secret":"430a0061b2","server":"65535","farm":66,"title":"American Golden plover \/ Gulll\u00f3a (Pluvialis dominica) and Golden Plovers \/ Hei\u00f0l\u00f3ur (Pluvialis apricaria)","ispublic":1,"isfriend":0,"isfamily":0},{"id":"52417933009","owner":"18217058@N04","secret":"149d1f0e32","server":"65535","farm":66,"title":"American Golden plover \/ Gulll\u00f3a (Pluvialis dominica)","ispublic":1,"isfriend":0,"isfamily":0},{"id":"52417140077","owner":"18217058@N04","secret":"a5005f1e2c","server":"65535","farm":66,"title":"American Golden plover \/ Gulll\u00f3a (Pluvialis dominica)","ispublic":1,"isfriend":0,"isfamily":0},{"id":"52418091575","owner":"18217058@N04","secret":"91d8a304af","server":"65535","farm":66,"title":"American Golden plover \/ Gulll\u00f3a (Pluvialis dominica)","ispublic":1,"isfriend":0,"isfamily":0},{"id":"52418091520","owner":"18217058@N04","secret":"728ce0979c","server":"65535","farm":66,"title":"American Golden plover \/ Gulll\u00f3a (Pluvialis dominica) and Golden Plovers \/ Hei\u00f0l\u00f3ur (Pluvialis apricaria)","ispublic":1,"isfriend":0,"isfamily":0},{"id":"52418150088","owner":"18217058@N04","secret":"bc8282f07b","server":"65535","farm":66,"title":"American Golden plover \/ Gulll\u00f3a (Pluvialis dominica) and Golden Plovers \/ Hei\u00f0l\u00f3ur (Pluvialis apricaria)","ispublic":1,"isfriend":0,"isfamily":0},{"id":"52417639096","owner":"18217058@N04","secret":"56dcd92791","server":"65535","farm":66,"title":"American Golden plover \/ Gulll\u00f3a (Pluvialis dominica) and Golden Plovers \/ Hei\u00f0l\u00f3ur (Pluvialis apricaria)","ispublic":1,"isfriend":0,"isfamily":0},{"id":"52418149968","owner":"18217058@N04","secret":"2659439a20","server":"65535","farm":66,"title":"American Golden plover \/ Gulll\u00f3a (Pluvialis dominica) and Golden Plovers \/ Hei\u00f0l\u00f3ur (Pluvialis apricaria)","ispublic":1,"isfriend":0,"isfamily":0},{"id":"52417638991","owner":"18217058@N04","secret":"6bcd009930","server":"65535","farm":66,"title":"American Golden plover \/ Gulll\u00f3a (Pluvialis dominica) and Golden Plovers \/ Hei\u00f0l\u00f3ur (Pluvialis apricaria)","ispublic":1,"isfriend":0,"isfamily":0},{"id":"52418079210","owner":"18217058@N04","secret":"62d8131151","server":"65535","farm":66,"title":"American Golden plover \/ Gulll\u00f3a (Pluvialis dominica) and Golden Plovers \/ Hei\u00f0l\u00f3ur (Pluvialis apricaria)","ispublic":1,"isfriend":0,"isfamily":0},{"id":"52417127387","owner":"18217058@N04","secret":"5739d3d683","server":"65535","farm":66,"title":"American Golden plover \/ Gulll\u00f3a (Pluvialis dominica) and Golden Plover \/ Hei\u00f0l\u00f3a (Pluvialis apricaria)","ispublic":1,"isfriend":0,"isfamily":0},{"id":"52418079065","owner":"18217058@N04","secret":"e3d79a4c57","server":"65535","farm":66,"title":"American Golden plover \/ Gulll\u00f3a (Pluvialis dominica) and Golden Plover \/ Hei\u00f0l\u00f3a (Pluvialis apricaria)","ispublic":1,"isfriend":0,"isfamily":0},{"id":"52417118102","owner":"18217058@N04","secret":"b83805f08c","server":"65535","farm":66,"title":"Golden Plover \/ Hei\u00f0l\u00f3a (Pluvialis apricaria)","ispublic":1,"isfriend":0,"isfamily":0},{"id":"52418140163","owner":"18217058@N04","secret":"934695aa0d","server":"65535","farm":66,"title":"American Golden plover \/ Gulll\u00f3a (Pluvialis dominica) and Golden Plovers \/ Hei\u00f0l\u00f3ur (Pluvialis apricaria)","ispublic":1,"isfriend":0,"isfamily":0},{"id":"52418140103","owner":"18217058@N04","secret":"6a28824311","server":"65535","farm":66,"title":"American Golden plover \/ Gulll\u00f3a (Pluvialis dominica) and Golden Plovers \/ Hei\u00f0l\u00f3ur (Pluvialis apricaria)","ispublic":1,"isfriend":0,"isfamily":0},{"id":"52417911049","owner":"18217058@N04","secret":"e6ecaafc2b","server":"65535","farm":66,"title":"American Golden plover \/ Gulll\u00f3a (Pluvialis dominica) and Golden Plovers \/ Hei\u00f0l\u00f3ur (Pluvialis apricaria)","ispublic":1,"isfriend":0,"isfamily":0},{"id":"52417900789","owner":"18217058@N04","secret":"435519cc9a","server":"65535","farm":66,"title":"American Golden plover \/ Gulll\u00f3a (Pluvialis dominica) and Golden Plovers \/ Hei\u00f0l\u00f3ur (Pluvialis apricaria)","ispublic":1,"isfriend":0,"isfamily":0},{"id":"52417619036","owner":"18217058@N04","secret":"51733c5619","server":"65535","farm":66,"title":"American Golden plover \/ Gulll\u00f3a (Pluvialis dominica) and Golden Plovers \/ Hei\u00f0l\u00f3ur (Pluvialis apricaria)","ispublic":1,"isfriend":0,"isfamily":0},{"id":"52418129723","owner":"18217058@N04","secret":"a370fb882d","server":"65535","farm":66,"title":"American Golden plover \/ Gulll\u00f3a (Pluvialis dominica) and Golden Plovers \/ Hei\u00f0l\u00f3ur (Pluvialis apricaria)","ispublic":1,"isfriend":0,"isfamily":0},{"id":"52410364304","owner":"103722035@N06","secret":"ca257b6119","server":"0","farm":0,"title":"American Golden Plover (Pluvialis dominica), Arroyo Laguna, Hearst San Simeon State Park, CA","ispublic":1,"isfriend":0,"isfamily":0},{"id":"52401460806","owner":"14734088@N02","secret":"00f29f09e4","server":"65535","farm":66,"title":"Pluvier bronz\u00e9 220925H2b","ispublic":1,"isfriend":0,"isfamily":0},{"id":"52399592775","owner":"71418112@N00","secret":"2df74c7d61","server":"65535","farm":66,"title":"A tale of two plovers.","ispublic":1,"isfriend":0,"isfamily":0},{"id":"52393210825","owner":"143189289@N02","secret":"7e3fd220f5","server":"65535","farm":66,"title":"Chorlo Pampa, American Golden Plover (Pluvialis dominica)","ispublic":1,"isfriend":0,"isfamily":0},{"id":"52381329473","owner":"48014585@N00","secret":"e233a0b162","server":"65535","farm":66,"title":"American Golden-Plover","ispublic":1,"isfriend":0,"isfamily":0},{"id":"52380152857","owner":"124995824@N08","secret":"224df23653","server":"65535","farm":66,"title":"American Golden-plover - Pluvialis dominica","ispublic":1,"isfriend":0,"isfamily":0},{"id":"52381398964","owner":"48014585@N00","secret":"631b29922b","server":"65535","farm":66,"title":"American Golden-Plover","ispublic":1,"isfriend":0,"isfamily":0},{"id":"52380149957","owner":"48014585@N00","secret":"db2fbe3cb5","server":"65535","farm":66,"title":"American Golden-Plover","ispublic":1,"isfriend":0,"isfamily":0},{"id":"52377304755","owner":"33573751@N04","secret":"592e45e67a","server":"65535","farm":66,"title":"American Golden Plover (Pluvialis dominica) - Hammonassett State Park, Madison, Connecticut, USA","ispublic":1,"isfriend":0,"isfamily":0},{"id":"52365220027","owner":"126601468@N05","secret":"63e570d50f","server":"65535","farm":66,"title":"Pluvier bronz\u00e9 - American golden plover","ispublic":1,"isfriend":0,"isfamily":0},{"id":"52344648829","owner":"17654080@N08","secret":"cc982d09bb","server":"65535","farm":66,"title":"American Golden-Plover, juvenile (Pluvialis dominica)","ispublic":1,"isfriend":0,"isfamily":0},{"id":"52344584828","owner":"17654080@N08","secret":"e1e38bfc03","server":"65535","farm":66,"title":"American Golden-Plover, juvenile (Pluvialis dominica)","ispublic":1,"isfriend":0,"isfamily":0},{"id":"52344648819","owner":"17654080@N08","secret":"b8cb7086ea","server":"65535","farm":66,"title":"American Golden-Plover, juvenile (Pluvialis dominica)","ispublic":1,"isfriend":0,"isfamily":0},{"id":"52343388597","owner":"17654080@N08","secret":"a3f5140068","server":"65535","farm":66,"title":"American Golden-Plover, juvenile (Pluvialis dominica)","ispublic":1,"isfriend":0,"isfamily":0},{"id":"52338268892","owner":"39177293@N03","secret":"0911e13ce3","server":"65535","farm":66,"title":"American Golden-Plover","ispublic":1,"isfriend":0,"isfamily":0},{"id":"52338268902","owner":"39177293@N03","secret":"89d385e308","server":"65535","farm":66,"title":"American Golden-Plover","ispublic":1,"isfriend":0,"isfamily":0},{"id":"52339530379","owner":"39177293@N03","secret":"54a286208a","server":"65535","farm":66,"title":"American Golden-Plover","ispublic":1,"isfriend":0,"isfamily":0},{"id":"52339656490","owner":"39177293@N03","secret":"8d3efc42de","server":"65535","farm":66,"title":"American Golden-Plover","ispublic":1,"isfriend":0,"isfamily":0},{"id":"52338256002","owner":"39177293@N03","secret":"4c9b4ce7ab","server":"65535","farm":66,"title":"American Golden-Plover","ispublic":1,"isfriend":0,"isfamily":0},{"id":"52579872527","owner":"153973412@N04","secret":"8511a512c9","server":"65535","farm":66,"title":"American Golden Plover-Pluvialis dominica, Iowa City, IA","ispublic":1,"isfriend":0,"isfamily":0},{"id":"52538483667","owner":"48014585@N00","secret":"a1677859df","server":"65535","farm":66,"title":"American Goldfinch","ispublic":1,"isfriend":0,"isfamily":0},{"id":"52477223977","owner":"36667121@N06","secret":"e49f017811","server":"65535","farm":66,"title":"American golden plover \/ Pluvialis dominica","ispublic":1,"isfriend":0,"isfamily":0},{"id":"52428354683","owner":"196264892@N08","secret":"bdbe4d9dae","server":"65535","farm":66,"title":"American Golden Plover","ispublic":1,"isfriend":0,"isfamily":0},{"id":"52428291430","owner":"196264892@N08","secret":"937d07a927","server":"65535","farm":66,"title":"American Golden Plover","ispublic":1,"isfriend":0,"isfamily":0},{"id":"52360951885","owner":"191038887@N04","secret":"b9299e9a48","server":"65535","farm":66,"title":"Pluvier bronz\u00e9 - American golden plover - Pluvialis dominica","ispublic":1,"isfriend":0,"isfamily":0},{"id":"52359583152","owner":"191038887@N04","secret":"f76543707e","server":"65535","farm":66,"title":"Pluvier bronz\u00e9 - American golden plover - Pluvialis dominica","ispublic":1,"isfriend":0,"isfamily":0},{"id":"52360951600","owner":"191038887@N04","secret":"8576402b8c","server":"65535","farm":66,"title":"Pluvier bronz\u00e9 - American golden plover - Pluvialis dominica","ispublic":1,"isfriend":0,"isfamily":0},{"id":"52359582852","owner":"191038887@N04","secret":"a80af7d8ba","server":"65535","farm":66,"title":"Pluvier bronz\u00e9 - American golden plover - Pluvialis dominica","ispublic":1,"isfriend":0,"isfamily":0},{"id":"52360951335","owner":"191038887@N04","secret":"c4a000bb03","server":"65535","farm":66,"title":"Pluvier bronz\u00e9 - American golden plover - Pluvialis dominica","ispublic":1,"isfriend":0,"isfamily":0},{"id":"52336603595","owner":"144980256@N07","secret":"70c9d4d09c","server":"65535","farm":66,"title":"American Golden-Plover (Pluvialis dominica)","ispublic":1,"isfriend":0,"isfamily":0}]},"stat":"ok"}