{"photos":{"page":1,"pages":29,"perpage":100,"total":2817,"photo":[{"id":"52724015245","owner":"92374457@N07","secret":"c04cd623d7","server":"65535","farm":66,"title":"Siberian Buff-bellied Pipit (Anthus rubescens japonicus)","ispublic":1,"isfriend":0,"isfamily":0},{"id":"52722292602","owner":"103722035@N06","secret":"3159a7dcec","server":"0","farm":0,"title":"American Pipit (Anthus rubescens), Shandon, CA","ispublic":1,"isfriend":0,"isfamily":0},{"id":"52715434143","owner":"47533293@N04","secret":"14f084c6a4","server":"65535","farm":66,"title":"American pipit, Anthus rubescens","ispublic":1,"isfriend":0,"isfamily":0},{"id":"52678241788","owner":"33610210@N05","secret":"0ec17c43a9","server":"65535","farm":66,"title":"American Pipit, Anthus rubescens","ispublic":1,"isfriend":0,"isfamily":0},{"id":"52676837947","owner":"143326780@N02","secret":"308aab9781","server":"65535","farm":66,"title":"DSCN3414_Moment(2)","ispublic":1,"isfriend":0,"isfamily":0},{"id":"52677783555","owner":"143326780@N02","secret":"f8ee19e07d","server":"65535","farm":66,"title":"DSCN3414_Moment(3)","ispublic":1,"isfriend":0,"isfamily":0},{"id":"52677635224","owner":"143326780@N02","secret":"64771f7a30","server":"65535","farm":66,"title":"DSCN3414_Moment","ispublic":1,"isfriend":0,"isfamily":0},{"id":"52677634764","owner":"143326780@N02","secret":"3909c805e9","server":"65535","farm":66,"title":"DSCN3468","ispublic":1,"isfriend":0,"isfamily":0},{"id":"52677782720","owner":"143326780@N02","secret":"5c80bb2960","server":"65535","farm":66,"title":"DSCN3469","ispublic":1,"isfriend":0,"isfamily":0},{"id":"52675662560","owner":"17612257@N00","secret":"0e37e06473","server":"65535","farm":66,"title":"Buff-bellied Pipit or American Pipit","ispublic":1,"isfriend":0,"isfamily":0},{"id":"52670095220","owner":"71833159@N00","secret":"d3b737b923","server":"65535","farm":66,"title":"American Pipit \/ Anthus rubescens","ispublic":1,"isfriend":0,"isfamily":0},{"id":"52669639571","owner":"62043870@N05","secret":"bde2d741b2","server":"65535","farm":66,"title":"American Pipit, Anthus rubescens","ispublic":1,"isfriend":0,"isfamily":0},{"id":"52666337084","owner":"103722035@N06","secret":"8c6118246c","server":"0","farm":0,"title":"American Pipit (Anthus rubescens), Carrizo Plain National Monument, CA","ispublic":1,"isfriend":0,"isfamily":0},{"id":"52661071250","owner":"131037795@N03","secret":"13b25859e0","server":"65535","farm":66,"title":"American Pipit (Anthus rubescens)","ispublic":1,"isfriend":0,"isfamily":0},{"id":"52657933772","owner":"131037795@N03","secret":"fb64b2e259","server":"65535","farm":66,"title":"American Pipit (Anthus rubescens)","ispublic":1,"isfriend":0,"isfamily":0},{"id":"52657924622","owner":"34238008@N02","secret":"c534cb6e67","server":"65535","farm":66,"title":"American Pipit (Anthus rubescens)","ispublic":1,"isfriend":0,"isfamily":0},{"id":"52658698519","owner":"34238008@N02","secret":"77377e28be","server":"65535","farm":66,"title":"American Pipit (Anthus rubescens)","ispublic":1,"isfriend":0,"isfamily":0},{"id":"52643677518","owner":"8013969@N03","secret":"a34329b2ed","server":"65535","farm":66,"title":"Anthus rubescens DFL btr22-3","ispublic":1,"isfriend":0,"isfamily":0},{"id":"52641402107","owner":"124995824@N08","secret":"509915f7fe","server":"65535","farm":66,"title":"American Pipit - Anthus rubescens","ispublic":1,"isfriend":0,"isfamily":0},{"id":"52641225544","owner":"124995824@N08","secret":"fb5696791e","server":"65535","farm":66,"title":"American Pipit - Anthus rubescens","ispublic":1,"isfriend":0,"isfamily":0},{"id":"52629050625","owner":"29494346@N03","secret":"8531788653","server":"65535","farm":66,"title":"American Pipit (Anthus rubescens)","ispublic":1,"isfriend":0,"isfamily":0},{"id":"52621517986","owner":"185659367@N04","secret":"0d1af00ebc","server":"65535","farm":66,"title":"American Pipit","ispublic":1,"isfriend":0,"isfamily":0},{"id":"52595629176","owner":"64557331@N04","secret":"3c2a3862d7","server":"65535","farm":66,"title":"American Pipit - (Anthus rubescens)_11132022_3","ispublic":1,"isfriend":0,"isfamily":0},{"id":"52595137847","owner":"64557331@N04","secret":"7bd46489e1","server":"65535","farm":66,"title":"American Pipit - (Anthus rubescens)_11132022_","ispublic":1,"isfriend":0,"isfamily":0},{"id":"52596147968","owner":"64557331@N04","secret":"076da24338","server":"65535","farm":66,"title":"American Pipit - (Anthus rubescens)_11132022_2","ispublic":1,"isfriend":0,"isfamily":0},{"id":"52582636323","owner":"13451078@N03","secret":"85729fa12a","server":"65535","farm":66,"title":"American Pipit  (Anthus rubescens)","ispublic":1,"isfriend":0,"isfamily":0},{"id":"52580870845","owner":"153973412@N04","secret":"a952abc4da","server":"65535","farm":66,"title":"American Pipit-Anthus rubescens, RMNP, CO","ispublic":1,"isfriend":0,"isfamily":0},{"id":"52563384000","owner":"34238008@N02","secret":"ae35271da7","server":"65535","farm":66,"title":"American Pipit (Anthus rubescens)","ispublic":1,"isfriend":0,"isfamily":0},{"id":"52562919466","owner":"34238008@N02","secret":"8b7e00868d","server":"65535","farm":66,"title":"American Pipit (Anthus rubescens)","ispublic":1,"isfriend":0,"isfamily":0},{"id":"52563203574","owner":"34238008@N02","secret":"c56ee02cd3","server":"65535","farm":66,"title":"American Pipit (Anthus rubescens)","ispublic":1,"isfriend":0,"isfamily":0},{"id":"52563383640","owner":"34238008@N02","secret":"8d3f8f5c97","server":"65535","farm":66,"title":"American Pipit (Anthus rubescens)","ispublic":1,"isfriend":0,"isfamily":0},{"id":"52563203359","owner":"34238008@N02","secret":"6d12f4cc32","server":"65535","farm":66,"title":"American Pipit, basic (Anthus rubescens)","ispublic":1,"isfriend":0,"isfamily":0},{"id":"52562918811","owner":"34238008@N02","secret":"097802a66a","server":"65535","farm":66,"title":"American Pipit (Anthus rubescens)","ispublic":1,"isfriend":0,"isfamily":0},{"id":"52562913335","owner":"103722035@N06","secret":"3ae2127d08","server":"65535","farm":66,"title":"American Pipit (Anthus rubescens), Grover Beach, CA","ispublic":1,"isfriend":0,"isfamily":0},{"id":"52562447156","owner":"103722035@N06","secret":"843cbc132e","server":"65535","farm":66,"title":"American Pipit (Anthus rubescens), Grover Beach, CA","ispublic":1,"isfriend":0,"isfamily":0},{"id":"52561990852","owner":"103722035@N06","secret":"f5b6131f9d","server":"65535","farm":66,"title":"American Pipit (Anthus rubescens), Grover Beach, CA","ispublic":1,"isfriend":0,"isfamily":0},{"id":"52561990802","owner":"103722035@N06","secret":"02f1aaf392","server":"65535","farm":66,"title":"American Pipit (Anthus rubescens), Grover Beach, CA","ispublic":1,"isfriend":0,"isfamily":0},{"id":"52562383336","owner":"103722035@N06","secret":"61566df468","server":"0","farm":0,"title":"American Pipit (Anthus rubescens), Grover Beach, CA","ispublic":1,"isfriend":0,"isfamily":0},{"id":"52550491719","owner":"78842503@N05","secret":"f9ee683623","server":"65535","farm":66,"title":"Anthus rubescens japonicus","ispublic":1,"isfriend":0,"isfamily":0},{"id":"52550741698","owner":"78842503@N05","secret":"de4212274a","server":"65535","farm":66,"title":"Anthus rubescens japonicus","ispublic":1,"isfriend":0,"isfamily":0},{"id":"52548649076","owner":"39177293@N03","secret":"863aeda352","server":"65535","farm":66,"title":"American Pipit","ispublic":1,"isfriend":0,"isfamily":0},{"id":"52543923768","owner":"33610210@N05","secret":"bce1b40b01","server":"65535","farm":66,"title":"American Pipit, Anthus rubescens","ispublic":1,"isfriend":0,"isfamily":0},{"id":"52538460112","owner":"62043870@N05","secret":"3a1b83645d","server":"65535","farm":66,"title":"American Pipit, Anthus rubescens","ispublic":1,"isfriend":0,"isfamily":0},{"id":"52527334366","owner":"9243885@N07","secret":"62416d3f01","server":"65535","farm":66,"title":"2022_01_12_5DMk4_53260","ispublic":1,"isfriend":0,"isfamily":0},{"id":"52495305757","owner":"62043870@N05","secret":"f42cdd6b69","server":"65535","farm":66,"title":"American Pipit, Anthus rubescens","ispublic":1,"isfriend":0,"isfamily":0},{"id":"52496340613","owner":"62043870@N05","secret":"189ce86133","server":"65535","farm":66,"title":"American Pipit, Anthus rubescens","ispublic":1,"isfriend":0,"isfamily":0},{"id":"52496080589","owner":"151381692@N04","secret":"34dbe4b3d4","server":"65535","farm":66,"title":"American Pipit (Anthus rubescens)","ispublic":1,"isfriend":0,"isfamily":0},{"id":"52481010469","owner":"61241315@N00","secret":"886c03f1bf","server":"65535","farm":66,"title":"DSCN7153","ispublic":1,"isfriend":0,"isfamily":0},{"id":"52481010409","owner":"61241315@N00","secret":"c8b52cd99f","server":"65535","farm":66,"title":"DSCN7166","ispublic":1,"isfriend":0,"isfamily":0},{"id":"52480235887","owner":"61241315@N00","secret":"3ce961c88f","server":"65535","farm":66,"title":"DSCN7162","ispublic":1,"isfriend":0,"isfamily":0},{"id":"52480737666","owner":"61241315@N00","secret":"324ebeb937","server":"65535","farm":66,"title":"DSCN7167","ispublic":1,"isfriend":0,"isfamily":0},{"id":"52481196830","owner":"61241315@N00","secret":"289f7db8da","server":"65535","farm":66,"title":"DSCN7174","ispublic":1,"isfriend":0,"isfamily":0},{"id":"52480716446","owner":"61241315@N00","secret":"7ff7d54898","server":"0","farm":0,"title":"AMPI_7841,44","ispublic":1,"isfriend":0,"isfamily":0},{"id":"52481261708","owner":"61241315@N00","secret":"0f93bef916","server":"65535","farm":66,"title":"DSCN7838","ispublic":1,"isfriend":0,"isfamily":0},{"id":"52480990029","owner":"61241315@N00","secret":"f25ab36a1a","server":"65535","farm":66,"title":"DSCN7843","ispublic":1,"isfriend":0,"isfamily":0},{"id":"52481178805","owner":"61241315@N00","secret":"7dd0a50bce","server":"65535","farm":66,"title":"DSCN7845","ispublic":1,"isfriend":0,"isfamily":0},{"id":"52480989994","owner":"61241315@N00","secret":"f4fdbe693f","server":"65535","farm":66,"title":"DSCN7847","ispublic":1,"isfriend":0,"isfamily":0},{"id":"52481178755","owner":"61241315@N00","secret":"b923fb3c13","server":"65535","farm":66,"title":"DSCN7849","ispublic":1,"isfriend":0,"isfamily":0},{"id":"52480214727","owner":"61241315@N00","secret":"75f3177928","server":"65535","farm":66,"title":"DSCN7851","ispublic":1,"isfriend":0,"isfamily":0},{"id":"52481259823","owner":"61241315@N00","secret":"7a14bb2817","server":"65535","farm":66,"title":"DSCN7857","ispublic":1,"isfriend":0,"isfamily":0},{"id":"52465704716","owner":"169335348@N08","secret":"d251e186ca","server":"65535","farm":66,"title":"American Pipit-9","ispublic":1,"isfriend":0,"isfamily":0},{"id":"52465203782","owner":"169335348@N08","secret":"2036ec9b23","server":"65535","farm":66,"title":"American Pipit-10","ispublic":1,"isfriend":0,"isfamily":0},{"id":"52459460407","owner":"61241315@N00","secret":"2b82948f61","server":"0","farm":0,"title":"American Pipit_6241.MP4","ispublic":1,"isfriend":0,"isfamily":0},{"id":"52460250329","owner":"61241315@N00","secret":"c9e5153100","server":"0","farm":0,"title":"American Pipit_6228.MP4","ispublic":1,"isfriend":0,"isfamily":0},{"id":"52460243354","owner":"61241315@N00","secret":"b774dddf92","server":"0","farm":0,"title":"American Pipit_6300.MP4","ispublic":1,"isfriend":0,"isfamily":0},{"id":"52460241754","owner":"61241315@N00","secret":"eccea3337f","server":"0","farm":0,"title":"American Pipit_N6243","ispublic":1,"isfriend":0,"isfamily":0},{"id":"52460508173","owner":"61241315@N00","secret":"7af063e2b1","server":"0","farm":0,"title":"American Pipit_6243.MP4","ispublic":1,"isfriend":0,"isfamily":0},{"id":"52460430710","owner":"61241315@N00","secret":"103e907739","server":"65535","farm":66,"title":"American Pipit_N6233","ispublic":1,"isfriend":0,"isfamily":0},{"id":"52459984411","owner":"61241315@N00","secret":"3a4058a2e1","server":"65535","farm":66,"title":"American Pipit_N6237","ispublic":1,"isfriend":0,"isfamily":0},{"id":"52460419555","owner":"61241315@N00","secret":"984a4ebb68","server":"65535","farm":66,"title":"American Pipit_N6298","ispublic":1,"isfriend":0,"isfamily":0},{"id":"52451331174","owner":"38242794@N02","secret":"c063096a55","server":"65535","farm":66,"title":"Hei\u00f0atittlingur - Buff-bellied Pipit - Anthus rubescens","ispublic":1,"isfriend":0,"isfamily":0},{"id":"52445760249","owner":"144980256@N07","secret":"9ee09d5815","server":"65535","farm":66,"title":"American Pipit (Anthus rubescens)","ispublic":1,"isfriend":0,"isfamily":0},{"id":"52445491621","owner":"144980256@N07","secret":"b6baa51cc6","server":"65535","farm":66,"title":"American Pipit (Anthus rubescens)","ispublic":1,"isfriend":0,"isfamily":0},{"id":"52443165350","owner":"103722035@N06","secret":"568e4b851d","server":"0","farm":0,"title":"American Pipit (Anthus rubescens), Estero Bluffs State Park, CA","ispublic":1,"isfriend":0,"isfamily":0},{"id":"52437979559","owner":"22475926@N08","secret":"ea4ce9e991","server":"65535","farm":66,"title":"American Pipit (Anthus rubescens)","ispublic":1,"isfriend":0,"isfamily":0},{"id":"52429273188","owner":"18217058@N04","secret":"2873f9f02b","server":"65535","farm":66,"title":"Buff-bellied Pipit \/ Hei\u00f0atittlingur (Anthus rubescens)","ispublic":1,"isfriend":0,"isfamily":0},{"id":"52428251957","owner":"18217058@N04","secret":"60ac13c08d","server":"65535","farm":66,"title":"Buff-bellied Pipit \/ Hei\u00f0atittlingur (Anthus rubescens)","ispublic":1,"isfriend":0,"isfamily":0},{"id":"52429208220","owner":"18217058@N04","secret":"2e76eaa25d","server":"65535","farm":66,"title":"Buff-bellied Pipit \/ Hei\u00f0atittlingur (Anthus rubescens)","ispublic":1,"isfriend":0,"isfamily":0},{"id":"52428748851","owner":"18217058@N04","secret":"c15ca04dd1","server":"65535","farm":66,"title":"Buff-bellied Pipit \/ Hei\u00f0atittlingur (Anthus rubescens)","ispublic":1,"isfriend":0,"isfamily":0},{"id":"52429204760","owner":"18217058@N04","secret":"41fee26092","server":"65535","farm":66,"title":"Buff-bellied Pipit \/ Hei\u00f0atittlingur (Anthus rubescens)","ispublic":1,"isfriend":0,"isfamily":0},{"id":"52428248552","owner":"18217058@N04","secret":"b8a325495b","server":"65535","farm":66,"title":"Buff-bellied Pipit \/ Hei\u00f0atittlingur (Anthus rubescens)","ispublic":1,"isfriend":0,"isfamily":0},{"id":"52428748761","owner":"18217058@N04","secret":"e59556f83e","server":"65535","farm":66,"title":"Buff-bellied Pipit \/ Hei\u00f0atittlingur (Anthus rubescens)","ispublic":1,"isfriend":0,"isfamily":0},{"id":"52428248522","owner":"18217058@N04","secret":"4f3ea861b1","server":"65535","farm":66,"title":"Buff-bellied Pipit \/ Hei\u00f0atittlingur (Anthus rubescens)","ispublic":1,"isfriend":0,"isfamily":0},{"id":"52428742166","owner":"18217058@N04","secret":"b25c3435d4","server":"65535","farm":66,"title":"Buff-bellied Pipit \/ Hei\u00f0atittlingur (Anthus rubescens)","ispublic":1,"isfriend":0,"isfamily":0},{"id":"52429263138","owner":"18217058@N04","secret":"e47c74a0a3","server":"65535","farm":66,"title":"Buff-bellied Pipit \/ Hei\u00f0atittlingur (Anthus rubescens)","ispublic":1,"isfriend":0,"isfamily":0},{"id":"52428241932","owner":"18217058@N04","secret":"b461db2a5b","server":"65535","farm":66,"title":"Buff-bellied Pipit \/ Hei\u00f0atittlingur (Anthus rubescens)","ispublic":1,"isfriend":0,"isfamily":0},{"id":"52428742076","owner":"18217058@N04","secret":"c6b04f367b","server":"65535","farm":66,"title":"Buff-bellied Pipit \/ Hei\u00f0atittlingur (Anthus rubescens)","ispublic":1,"isfriend":0,"isfamily":0},{"id":"52429025014","owner":"18217058@N04","secret":"03be4db0c0","server":"65535","farm":66,"title":"Buff-bellied Pipit \/ Hei\u00f0atittlingur (Anthus rubescens)","ispublic":1,"isfriend":0,"isfamily":0},{"id":"52428241902","owner":"18217058@N04","secret":"f6ef0e9d8d","server":"65535","farm":66,"title":"Buff-bellied Pipit \/ Hei\u00f0atittlingur (Anthus rubescens)","ispublic":1,"isfriend":0,"isfamily":0},{"id":"52428737276","owner":"18217058@N04","secret":"dd96eee833","server":"65535","farm":66,"title":"Buff-bellied Pipit \/ Hei\u00f0atittlingur (Anthus rubescens)","ispublic":1,"isfriend":0,"isfamily":0},{"id":"52428731146","owner":"18217058@N04","secret":"d3bab81d56","server":"65535","farm":66,"title":"Buff-bellied Pipit \/ Hei\u00f0atittlingur (Anthus rubescens)","ispublic":1,"isfriend":0,"isfamily":0},{"id":"52429251913","owner":"18217058@N04","secret":"c1c1da2462","server":"65535","farm":66,"title":"Buff-bellied Pipit \/ Hei\u00f0atittlingur (Anthus rubescens)","ispublic":1,"isfriend":0,"isfamily":0},{"id":"52427374837","owner":"196264892@N08","secret":"0ca9ae459d","server":"65535","farm":66,"title":"American Pipit","ispublic":1,"isfriend":0,"isfamily":0},{"id":"52677349991","owner":"143326780@N02","secret":"117217d956","server":"65535","farm":66,"title":"DSCN3414_Moment(4)","ispublic":1,"isfriend":0,"isfamily":0},{"id":"52676837832","owner":"143326780@N02","secret":"b638b0e2fd","server":"65535","farm":66,"title":"DSCN3414_Moment(5)","ispublic":1,"isfriend":0,"isfamily":0},{"id":"52642349365","owner":"124995824@N08","secret":"cd3bc62ca8","server":"65535","farm":66,"title":"American Pipit - Anthus rubescens","ispublic":1,"isfriend":0,"isfamily":0},{"id":"52536041924","owner":"39617069@N08","secret":"bb72f4350a","server":"65535","farm":66,"title":"American Pipit","ispublic":1,"isfriend":0,"isfamily":0},{"id":"52465392666","owner":"65148649@N04","secret":"6f3f76d8c4","server":"65535","farm":66,"title":"American Pipit","ispublic":1,"isfriend":0,"isfamily":0},{"id":"52465859520","owner":"65148649@N04","secret":"a8d64f8214","server":"65535","farm":66,"title":"American Pipit","ispublic":1,"isfriend":0,"isfamily":0},{"id":"52464895842","owner":"65148649@N04","secret":"0fe4c6b17a","server":"65535","farm":66,"title":"American Pipit","ispublic":1,"isfriend":0,"isfamily":0}]},"stat":"ok"}