{"photos":{"page":1,"pages":67,"perpage":100,"total":6605,"photo":[{"id":"52716580755","owner":"26520320@N03","secret":"c028827783","server":"65535","farm":66,"title":"_BAP0580","ispublic":1,"isfriend":0,"isfamily":0},{"id":"52715632312","owner":"26520320@N03","secret":"1f7e7f3200","server":"65535","farm":66,"title":"_BAP0578","ispublic":1,"isfriend":0,"isfamily":0},{"id":"52716397944","owner":"26520320@N03","secret":"20bdb96c5c","server":"65535","farm":66,"title":"_BAP0418","ispublic":1,"isfriend":0,"isfamily":0},{"id":"52716621138","owner":"26520320@N03","secret":"5d44a0feb9","server":"65535","farm":66,"title":"_BAP0411","ispublic":1,"isfriend":0,"isfamily":0},{"id":"52715616402","owner":"26520320@N03","secret":"1622ae6ef6","server":"65535","farm":66,"title":"_BAP0410","ispublic":1,"isfriend":0,"isfamily":0},{"id":"52716137351","owner":"26520320@N03","secret":"66fdcc4894","server":"65535","farm":66,"title":"_BAP0409","ispublic":1,"isfriend":0,"isfamily":0},{"id":"52715615732","owner":"26520320@N03","secret":"8131895e97","server":"65535","farm":66,"title":"_BAP0408","ispublic":1,"isfriend":0,"isfamily":0},{"id":"52712997524","owner":"81058247@N08","secret":"2e8e974100","server":"65535","farm":66,"title":"American Avocets (Recurvirostra americana)","ispublic":1,"isfriend":0,"isfamily":0},{"id":"52712734196","owner":"81058247@N08","secret":"d6da7c1b39","server":"65535","farm":66,"title":"American Avocets (Recurvirostra americana)","ispublic":1,"isfriend":0,"isfamily":0},{"id":"52713303965","owner":"21584095@N00","secret":"72ce8843ae","server":"65535","farm":66,"title":"American Avocet (Recurvirostra americana)","ispublic":1,"isfriend":0,"isfamily":0},{"id":"52714273661","owner":"73431753@N00","secret":"1e180cbc90","server":"65535","farm":66,"title":"IMG_6565","ispublic":1,"isfriend":0,"isfamily":0},{"id":"52712220249","owner":"73431753@N00","secret":"80ebf331b5","server":"65535","farm":66,"title":"IMG_6561","ispublic":1,"isfriend":0,"isfamily":0},{"id":"52710033672","owner":"36682266@N06","secret":"0379ee328a","server":"65535","farm":66,"title":"American Avocet (Recurvirostra americana)","ispublic":1,"isfriend":0,"isfamily":0},{"id":"52709671734","owner":"28867468@N08","secret":"83e5ec8cc2","server":"65535","farm":66,"title":"American Avocets Incoming","ispublic":1,"isfriend":0,"isfamily":0},{"id":"52703267584","owner":"28867468@N08","secret":"0deaa2250b","server":"65535","farm":66,"title":"American Avocets Flying In","ispublic":1,"isfriend":0,"isfamily":0},{"id":"52687146717","owner":"33497841@N02","secret":"96c8b39f41","server":"65535","farm":66,"title":"2022.07.08_10.31.44_IMG_7403","ispublic":1,"isfriend":0,"isfamily":0},{"id":"52688159953","owner":"33497841@N02","secret":"9df40b6a21","server":"65535","farm":66,"title":"2022.07.08_10.32.20_IMG_7404","ispublic":1,"isfriend":0,"isfamily":0},{"id":"52687146602","owner":"33497841@N02","secret":"16d15214e0","server":"65535","farm":66,"title":"2022.07.08_10.32.23_IMG_7405","ispublic":1,"isfriend":0,"isfamily":0},{"id":"52685236793","owner":"91064752@N03","secret":"a14cc6ef6a","server":"0","farm":0,"title":"American Avocet at Cheyenne Bottoms","ispublic":1,"isfriend":0,"isfamily":0},{"id":"52678652854","owner":"124995824@N08","secret":"96eb26aace","server":"65535","farm":66,"title":"American Avocet - Recurvirostra americana","ispublic":1,"isfriend":0,"isfamily":0},{"id":"52669476696","owner":"67277069@N06","secret":"2599ec9905","server":"65535","farm":66,"title":"American Avocet---Recurvirostra americana","ispublic":1,"isfriend":0,"isfamily":0},{"id":"52660436617","owner":"110624976@N05","secret":"70c0cc3b4f","server":"65535","farm":66,"title":"Three American Avocets advance towards a duck","ispublic":1,"isfriend":0,"isfamily":0},{"id":"52650104446","owner":"24608578@N00","secret":"a6a750bbd9","server":"65535","farm":66,"title":"American avocet (Recurvirostra americana)","ispublic":1,"isfriend":0,"isfamily":0},{"id":"52650104341","owner":"24608578@N00","secret":"3350fa4278","server":"65535","farm":66,"title":"American avocet (Recurvirostra americana)","ispublic":1,"isfriend":0,"isfamily":0},{"id":"52649260203","owner":"28867468@N08","secret":"882ca606a1","server":"65535","farm":66,"title":"American Avocets Flying to Higher Ground, King Tide (4th in a series of 4)","ispublic":1,"isfriend":0,"isfamily":0},{"id":"52648771216","owner":"28867468@N08","secret":"aeb9986fd3","server":"65535","farm":66,"title":"American Avocets Leaving the Others for Higher Ground, King Tide (3rd in a series of 4)","ispublic":1,"isfriend":0,"isfamily":0},{"id":"52649210795","owner":"28867468@N08","secret":"44593063e8","server":"65535","farm":66,"title":"American Avocets Leaving the Others for Higher Ground, King Tide (2nd in a series of 4)","ispublic":1,"isfriend":0,"isfamily":0},{"id":"52648762861","owner":"28867468@N08","secret":"9a2b1dd83d","server":"65535","farm":66,"title":"Two More American Avocets Joining the Others at King Tide (1st in a series of 4)","ispublic":1,"isfriend":0,"isfamily":0},{"id":"52631403072","owner":"47533293@N04","secret":"85d023d1a4","server":"65535","farm":66,"title":"American avocet, Recurvirostra americana","ispublic":1,"isfriend":0,"isfamily":0},{"id":"52631545139","owner":"47533293@N04","secret":"7fe3167ecb","server":"65535","farm":66,"title":"American avocet, Recurvirostra americana","ispublic":1,"isfriend":0,"isfamily":0},{"id":"52630637291","owner":"131037795@N03","secret":"6c21025589","server":"65535","farm":66,"title":"American Avocet (Recurvirostra americana) flock in flight","ispublic":1,"isfriend":0,"isfamily":0},{"id":"52630117922","owner":"131037795@N03","secret":"ddee412f6a","server":"65535","farm":66,"title":"American Avocet (Recurvirostra americana) flock in flight","ispublic":1,"isfriend":0,"isfamily":0},{"id":"52617195704","owner":"124995824@N08","secret":"504f19363c","server":"65535","farm":66,"title":"American Avocet - Recurvirostra americana","ispublic":1,"isfriend":0,"isfamily":0},{"id":"52612540114","owner":"124995824@N08","secret":"db93e885bf","server":"65535","farm":66,"title":"American Avocet - Recurvirostra americana","ispublic":1,"isfriend":0,"isfamily":0},{"id":"52608022339","owner":"26520320@N03","secret":"2eb011bfe6","server":"65535","farm":66,"title":"Bolsa_Chica_2023-01-02_DSC05867","ispublic":1,"isfriend":0,"isfamily":0},{"id":"52607985819","owner":"26520320@N03","secret":"5a5c0a83f8","server":"65535","farm":66,"title":"Bolsa_Chica_2023-01-02_DSC05146","ispublic":1,"isfriend":0,"isfamily":0},{"id":"52605917059","owner":"62043870@N05","secret":"c6934eb06a","server":"65535","farm":66,"title":"American Avocet (Recurvirostra americana) and Northern Pintails (Anas acuta)","ispublic":1,"isfriend":0,"isfamily":0},{"id":"52603369882","owner":"67277069@N06","secret":"57e54f6855","server":"65535","farm":66,"title":"American Avocet---Recurvirostra americana","ispublic":1,"isfriend":0,"isfamily":0},{"id":"52591111443","owner":"28867468@N08","secret":"ea639c01b1","server":"65535","farm":66,"title":"American Avocets & Cohorts at Extreme Tide","ispublic":1,"isfriend":0,"isfamily":0},{"id":"52589119468","owner":"67277069@N06","secret":"a507a8c5cd","server":"65535","farm":66,"title":"American Avocet---Recurvirostra americana","ispublic":1,"isfriend":0,"isfamily":0},{"id":"52584073248","owner":"65632611@N00","secret":"bd8300d717","server":"65535","farm":66,"title":"ny.mecox.avocet.9014.W","ispublic":1,"isfriend":0,"isfamily":0},{"id":"52566315637","owner":"91064752@N03","secret":"432f9bb8ff","server":"65535","farm":66,"title":"American Avocet Portrait","ispublic":1,"isfriend":0,"isfamily":0},{"id":"52554257869","owner":"44034115@N08","secret":"45acde49ee","server":"65535","farm":66,"title":"Bogged Down on Both Ends Avocet","ispublic":1,"isfriend":0,"isfamily":0},{"id":"52545783529","owner":"44034115@N08","secret":"e3d12ffb4b","server":"65535","farm":66,"title":"Siphoning Through the Slop at Bombay Hook","ispublic":1,"isfriend":0,"isfamily":0},{"id":"52539211344","owner":"62043870@N05","secret":"5d2b2045ef","server":"65535","farm":66,"title":"Canvasbacks (Aythya valisineria) with Green-winged Teal (Anas crecca), Northern Shovelers (Spatula clypeata) and American Avocet (Recurvirostra americana)","ispublic":1,"isfriend":0,"isfamily":0},{"id":"52533669390","owner":"189423275@N04","secret":"1c3e832a7a","server":"65535","farm":66,"title":"American Avocet with Muddy Water Drop","ispublic":1,"isfriend":0,"isfamily":0},{"id":"52530878019","owner":"33610210@N05","secret":"e9b5b1cce6","server":"65535","farm":66,"title":"American Avocet, Recurvirostra americana and Wilson's Phalarope, Phalaropus tricolor","ispublic":1,"isfriend":0,"isfamily":0},{"id":"52530594791","owner":"33610210@N05","secret":"b7bd1f38c5","server":"65535","farm":66,"title":"American Avocet, Recurvirostra americana and Wilson's Phalarope, Phalaropus tricolor","ispublic":1,"isfriend":0,"isfamily":0},{"id":"52530594816","owner":"33610210@N05","secret":"8d73112979","server":"65535","farm":66,"title":"American Avocet, Recurvirostra americana and Wilson's Phalarope, Phalaropus tricolor","ispublic":1,"isfriend":0,"isfamily":0},{"id":"52521705086","owner":"28867468@N08","secret":"0a4623e3fc","server":"65535","farm":66,"title":"American Avocet with Fish Prey","ispublic":1,"isfriend":0,"isfamily":0},{"id":"52513502025","owner":"34368269@N04","secret":"6597f41298","server":"65535","farm":66,"title":"American Avocets","ispublic":1,"isfriend":0,"isfamily":0},{"id":"52513154915","owner":"48014585@N00","secret":"d52b5520f7","server":"65535","farm":66,"title":"American Avocet","ispublic":1,"isfriend":0,"isfamily":0},{"id":"52512945144","owner":"48014585@N00","secret":"082d4732b4","server":"65535","farm":66,"title":"American Avocet","ispublic":1,"isfriend":0,"isfamily":0},{"id":"52510513107","owner":"60216873@N05","secret":"2bf44f7d8f","server":"65535","farm":66,"title":"Destined to Meet","ispublic":1,"isfriend":0,"isfamily":0},{"id":"52505905684","owner":"131037795@N03","secret":"52df43f624","server":"65535","farm":66,"title":"American Avocet (Recurvirostra americana) flock in flight","ispublic":1,"isfriend":0,"isfamily":0},{"id":"52494608737","owner":"88932760@N08","secret":"04de386b5a","server":"65535","farm":66,"title":"Blue Avocet","ispublic":1,"isfriend":0,"isfamily":0},{"id":"52491178472","owner":"44801995@N02","secret":"cb9803833d","server":"65535","farm":66,"title":"American Avocet Recurvirostra americana","ispublic":1,"isfriend":0,"isfamily":0},{"id":"52687208305","owner":"44034115@N08","secret":"10cbc79432","server":"65535","farm":66,"title":"Down in the Muck with the American Avocet","ispublic":1,"isfriend":0,"isfamily":0},{"id":"52678802525","owner":"124995824@N08","secret":"98cd0c31e1","server":"65535","farm":66,"title":"American Avocet - Recurvirostra americana","ispublic":1,"isfriend":0,"isfamily":0},{"id":"52671117698","owner":"81058247@N08","secret":"a6e2ec636a","server":"65535","farm":66,"title":"Marbled Godwit (Limosa fedoa) and American Avocets (Recurvirostra americana)","ispublic":1,"isfriend":0,"isfamily":0},{"id":"52670907719","owner":"81058247@N08","secret":"05a945d842","server":"65535","farm":66,"title":"American Avocets (Recurvirostra americana) and Marbled Godwit (Limosa fedoa)","ispublic":1,"isfriend":0,"isfamily":0},{"id":"52667970297","owner":"81058247@N08","secret":"44bf1cee14","server":"65535","farm":66,"title":"Blue-winged Teal (Anas discors) and American Avocets (Recurvirostra americana)","ispublic":1,"isfriend":0,"isfamily":0},{"id":"52668733539","owner":"81058247@N08","secret":"c364b006ec","server":"65535","farm":66,"title":"Marbled Godwit (Limosa fedoa) and American Avocets (Recurvirostra americana)","ispublic":1,"isfriend":0,"isfamily":0},{"id":"52668945603","owner":"81058247@N08","secret":"d8b474faea","server":"65535","farm":66,"title":"Marbled Godwit (Limosa fedoa) and American Avocets (Recurvirostra americana)","ispublic":1,"isfriend":0,"isfamily":0},{"id":"52668441786","owner":"81058247@N08","secret":"cdcfcab9e6","server":"65535","farm":66,"title":"American Avocets (Recurvirostra americana)","ispublic":1,"isfriend":0,"isfamily":0},{"id":"52668938873","owner":"81058247@N08","secret":"2f1861ceef","server":"65535","farm":66,"title":"Marbled Godwit (Limosa fedoa) and American Avocets (Recurvirostra americana)","ispublic":1,"isfriend":0,"isfamily":0},{"id":"52666341574","owner":"81058247@N08","secret":"e6cbd8a840","server":"65535","farm":66,"title":"Marbled Godwit (Limosa fedoa) and American Avocets (Recurvirostra americana)","ispublic":1,"isfriend":0,"isfamily":0},{"id":"52666340344","owner":"81058247@N08","secret":"4a7533114a","server":"65535","farm":66,"title":"American Avocets (Recurvirostra americana)","ispublic":1,"isfriend":0,"isfamily":0},{"id":"52666483215","owner":"81058247@N08","secret":"1a23b616e0","server":"65535","farm":66,"title":"American Avocets (Recurvirostra americana)","ispublic":1,"isfriend":0,"isfamily":0},{"id":"52666336024","owner":"81058247@N08","secret":"f4b7fc7fc9","server":"65535","farm":66,"title":"American Avocet (Recurvirostra americana)","ispublic":1,"isfriend":0,"isfamily":0},{"id":"52663119937","owner":"124995824@N08","secret":"54e3c6f552","server":"65535","farm":66,"title":"American Avocet - Recurvirostra americana","ispublic":1,"isfriend":0,"isfamily":0},{"id":"52661230959","owner":"110624976@N05","secret":"06885279dc","server":"65535","farm":66,"title":"Two American Avocets in profile","ispublic":1,"isfriend":0,"isfamily":0},{"id":"52645564066","owner":"8013969@N03","secret":"49362a8afb","server":"65535","farm":66,"title":"Recurvirostra americana DFL la22-2","ispublic":1,"isfriend":0,"isfamily":0},{"id":"52645053022","owner":"8013969@N03","secret":"ea46647c71","server":"65535","farm":66,"title":"Recurvirostra americana DFL la22-3","ispublic":1,"isfriend":0,"isfamily":0},{"id":"52645563081","owner":"8013969@N03","secret":"932c0ac26b","server":"65535","farm":66,"title":"Recurvirostra americana DFL la22-4","ispublic":1,"isfriend":0,"isfamily":0},{"id":"52646034783","owner":"8013969@N03","secret":"cefbd38f88","server":"65535","farm":66,"title":"Recurvirostra americana DFL la22-5","ispublic":1,"isfriend":0,"isfamily":0},{"id":"52631960785","owner":"13451078@N03","secret":"30a3b0fddf","server":"65535","farm":66,"title":"American Avocets (Recurvirostra americana)","ispublic":1,"isfriend":0,"isfamily":0},{"id":"52615254087","owner":"7331818@N02","secret":"c9b1f431e6","server":"65535","farm":66,"title":"Standing Pretty","ispublic":1,"isfriend":0,"isfamily":0},{"id":"52583817924","owner":"65632611@N00","secret":"536b0b4ab3","server":"65535","farm":66,"title":"ny.mecox.avocet.8968.W","ispublic":1,"isfriend":0,"isfamily":0},{"id":"52583818364","owner":"65632611@N00","secret":"c7b2fbd01d","server":"65535","farm":66,"title":"ny.mecox.avocet bowing wings.W.0004","ispublic":1,"isfriend":0,"isfamily":0},{"id":"52584073648","owner":"65632611@N00","secret":"7016c627f7","server":"65535","farm":66,"title":"ny.mecox.avocet flying boat.W.9468","ispublic":1,"isfriend":0,"isfamily":0},{"id":"52583091462","owner":"65632611@N00","secret":"cf55687d67","server":"65535","farm":66,"title":"ny.mecox.avocet flying past boat.W.9469","ispublic":1,"isfriend":0,"isfamily":0},{"id":"52583091437","owner":"65632611@N00","secret":"9b4f88e41c","server":"65535","farm":66,"title":"ny.mecox.avocet long view.9811.W","ispublic":1,"isfriend":0,"isfamily":0},{"id":"52583091312","owner":"65632611@N00","secret":"45afe5c498","server":"65535","farm":66,"title":"ny.mecox.avocet spreading wings.W.0003","ispublic":1,"isfriend":0,"isfamily":0},{"id":"52584073463","owner":"65632611@N00","secret":"3a1e147e74","server":"65535","farm":66,"title":"ny.mecox.avocet upright.W.9830","ispublic":1,"isfriend":0,"isfamily":0},{"id":"52580861828","owner":"153973412@N04","secret":"a1a58a3250","server":"65535","farm":66,"title":"American Avocet-Recurvirostra americana, Iowa City, IA","ispublic":1,"isfriend":0,"isfamily":0},{"id":"52563490720","owner":"34368269@N04","secret":"64fc6dccd4","server":"65535","farm":66,"title":"American Avocets","ispublic":1,"isfriend":0,"isfamily":0},{"id":"52538375703","owner":"39617069@N08","secret":"c7bb02ed49","server":"65535","farm":66,"title":"American Avocet","ispublic":1,"isfriend":0,"isfamily":0},{"id":"52531942582","owner":"197033070@N04","secret":"64a0af06ae","server":"65535","farm":66,"title":"American Avocet (Recurvirostra americana)","ispublic":1,"isfriend":0,"isfamily":0},{"id":"52531942107","owner":"197033070@N04","secret":"1a86c77113","server":"65535","farm":66,"title":"American Avocet (Recurvirostra americana)","ispublic":1,"isfriend":0,"isfamily":0},{"id":"52512675966","owner":"48014585@N00","secret":"ab422cc751","server":"65535","farm":66,"title":"American Avocet","ispublic":1,"isfriend":0,"isfamily":0},{"id":"52495254031","owner":"64557331@N04","secret":"5dc8f243a3","server":"65535","farm":66,"title":"American Avocet - (Recurvirostra americana)_08202022_2","ispublic":1,"isfriend":0,"isfamily":0},{"id":"52495808958","owner":"64557331@N04","secret":"5406f65145","server":"65535","farm":66,"title":"American Avocet - (Recurvirostra americana)_08202022","ispublic":1,"isfriend":0,"isfamily":0},{"id":"52495245076","owner":"64557331@N04","secret":"fd484b9b41","server":"65535","farm":66,"title":"American Avocet - (Recurvirostra americana)_06062021","ispublic":1,"isfriend":0,"isfamily":0},{"id":"52495522434","owner":"64557331@N04","secret":"61299b7b8d","server":"65535","farm":66,"title":"American Avocet - (Recurvirostra americana)_06172021","ispublic":1,"isfriend":0,"isfamily":0},{"id":"52491659481","owner":"44801995@N02","secret":"411cdf5206","server":"65535","farm":66,"title":"American Avocet Recurvirostra americana","ispublic":1,"isfriend":0,"isfamily":0},{"id":"52491177462","owner":"44801995@N02","secret":"7295626197","server":"65535","farm":66,"title":"American Avocet Recurvirostra americana","ispublic":1,"isfriend":0,"isfamily":0},{"id":"52489813004","owner":"39445433@N02","secret":"255c242772","server":"65535","farm":66,"title":"American Avocet","ispublic":1,"isfriend":0,"isfamily":0},{"id":"52490084683","owner":"39445433@N02","secret":"209fa8bbe0","server":"65535","farm":66,"title":"American Avocet","ispublic":1,"isfriend":0,"isfamily":0},{"id":"52490084623","owner":"39445433@N02","secret":"97e22cff0e","server":"65535","farm":66,"title":"American Avocet","ispublic":1,"isfriend":0,"isfamily":0}]},"stat":"ok"}