{"photos":{"page":1,"pages":86,"perpage":100,"total":8589,"photo":[{"id":"52724598048","owner":"69002026@N02","secret":"36bd1222b7","server":"65535","farm":66,"title":"American goldfinch (Spinus tristis)","ispublic":1,"isfriend":0,"isfamily":0},{"id":"52724530800","owner":"69002026@N02","secret":"62be4d8181","server":"65535","farm":66,"title":"American goldfinch (Spinus tristis)","ispublic":1,"isfriend":0,"isfamily":0},{"id":"52724123351","owner":"69002026@N02","secret":"571ea88b0d","server":"65535","farm":66,"title":"American goldfinch (Spinus tristis)","ispublic":1,"isfriend":0,"isfamily":0},{"id":"52724597808","owner":"69002026@N02","secret":"d65e9fc9ed","server":"65535","farm":66,"title":"American goldfinch (Spinus tristis)","ispublic":1,"isfriend":0,"isfamily":0},{"id":"52719708895","owner":"34238008@N02","secret":"d4d58c2872","server":"65535","farm":66,"title":"American Goldfinch (Spinus tristis)","ispublic":1,"isfriend":0,"isfamily":0},{"id":"52719708705","owner":"34238008@N02","secret":"deaed29b08","server":"65535","farm":66,"title":"American Goldfinch (Spinus tristis)","ispublic":1,"isfriend":0,"isfamily":0},{"id":"52717975777","owner":"65148649@N04","secret":"1a5d13b13f","server":"65535","farm":66,"title":"American Goldfinches and a House Finch 02.18.23 Anderson","ispublic":1,"isfriend":0,"isfamily":0},{"id":"52714281377","owner":"14734088@N02","secret":"f0ae82cb9d","server":"65535","farm":66,"title":"Chardonneret jaune 230208H5b","ispublic":1,"isfriend":0,"isfamily":0},{"id":"52712567779","owner":"34238008@N02","secret":"75855a111f","server":"65535","farm":66,"title":"American Goldfinch (Spinus tristis)","ispublic":1,"isfriend":0,"isfamily":0},{"id":"52707865555","owner":"57126723@N07","secret":"4c212b44cd","server":"65535","farm":66,"title":"American goldfinch\u2014Spinus tristis\u2014Fringillidae-9196-Edit","ispublic":1,"isfriend":0,"isfamily":0},{"id":"52705618491","owner":"33610210@N05","secret":"0d7e3b646b","server":"65535","farm":66,"title":"American Goldfinch, Spinus tristis","ispublic":1,"isfriend":0,"isfamily":0},{"id":"52705871059","owner":"33610210@N05","secret":"5ce6315339","server":"65535","farm":66,"title":"American Goldfinch, Spinus tristis","ispublic":1,"isfriend":0,"isfamily":0},{"id":"52704174267","owner":"44904157@N04","secret":"ac492df56e","server":"65535","farm":66,"title":"Goldfinch (crop)","ispublic":1,"isfriend":0,"isfamily":0},{"id":"52703416051","owner":"48014585@N00","secret":"b3df430215","server":"65535","farm":66,"title":"American Goldfinch","ispublic":1,"isfriend":0,"isfamily":0},{"id":"52703900138","owner":"48014585@N00","secret":"9796fa321f","server":"65535","farm":66,"title":"American Goldfinch","ispublic":1,"isfriend":0,"isfamily":0},{"id":"52703712063","owner":"8605287@N03","secret":"dbbdf3982a","server":"65535","farm":66,"title":"Fringillidae: Spinus tristis - female American Goldfinch","ispublic":1,"isfriend":0,"isfamily":0},{"id":"52702435541","owner":"196786375@N03","secret":"7b351a63b5","server":"65535","farm":66,"title":"American Goldfinch pair","ispublic":1,"isfriend":0,"isfamily":0},{"id":"52702337226","owner":"48014585@N00","secret":"baf59271b4","server":"65535","farm":66,"title":"Pine Grosbeak, goldfinch approaching","ispublic":1,"isfriend":0,"isfamily":0},{"id":"52702813708","owner":"48014585@N00","secret":"4198825a1f","server":"65535","farm":66,"title":"American Goldfinch","ispublic":1,"isfriend":0,"isfamily":0},{"id":"52701804967","owner":"48014585@N00","secret":"e39f3fb9ef","server":"65535","farm":66,"title":"American Goldfinch","ispublic":1,"isfriend":0,"isfamily":0},{"id":"52701781222","owner":"14734088@N02","secret":"67a2999604","server":"65535","farm":66,"title":"Chardonneret jaune 230208H3c","ispublic":1,"isfriend":0,"isfamily":0},{"id":"52699500130","owner":"147461293@N05","secret":"b8eb549673","server":"65535","farm":66,"title":"Male American Goldfinch (Spinus tristis):  Sharing the Same Tree with the House Finches (Seen in the Previous Series)","ispublic":1,"isfriend":0,"isfamily":0},{"id":"52698730135","owner":"29380771@N06","secret":"69af42bb0f","server":"65535","farm":66,"title":"Goldfinch Portrait with Texture","ispublic":1,"isfriend":0,"isfamily":0},{"id":"52697873898","owner":"62043870@N05","secret":"1ce31ef28d","server":"65535","farm":66,"title":"American Goldfinch, Spinus tristis","ispublic":1,"isfriend":0,"isfamily":0},{"id":"52697232481","owner":"10260434@N03","secret":"b0b147f083","server":"65535","farm":66,"title":"American Goldfinch-26Dec22","ispublic":1,"isfriend":0,"isfamily":0},{"id":"52696735260","owner":"10260434@N03","secret":"0440873a9e","server":"65535","farm":66,"title":"American Goldfinch-24Dec22","ispublic":1,"isfriend":0,"isfamily":0},{"id":"52696794263","owner":"10260434@N03","secret":"97970b5e93","server":"65535","farm":66,"title":"American Goldfinch-24Dec22","ispublic":1,"isfriend":0,"isfamily":0},{"id":"52695701177","owner":"10260434@N03","secret":"3fe302c876","server":"65535","farm":66,"title":"Winter Goldfinch-24Dec22","ispublic":1,"isfriend":0,"isfamily":0},{"id":"52694980077","owner":"10260434@N03","secret":"35193439cc","server":"65535","farm":66,"title":"American Goldfinch-19Dec22","ispublic":1,"isfriend":0,"isfamily":0},{"id":"52695751019","owner":"10260434@N03","secret":"f35a02c1fb","server":"65535","farm":66,"title":"American Goldfinch female-19Dec22","ispublic":1,"isfriend":0,"isfamily":0},{"id":"52695969663","owner":"10260434@N03","secret":"ed090c0098","server":"65535","farm":66,"title":"American Goldfinch female-19Dec22","ispublic":1,"isfriend":0,"isfamily":0},{"id":"52695449941","owner":"10260434@N03","secret":"286b1abd8e","server":"65535","farm":66,"title":"American Goldfinch-20Dec22","ispublic":1,"isfriend":0,"isfamily":0},{"id":"52695924463","owner":"10260434@N03","secret":"a1cc3c2607","server":"65535","farm":66,"title":"Clingers-23Dec22","ispublic":1,"isfriend":0,"isfamily":0},{"id":"52694913852","owner":"10260434@N03","secret":"42e56b806a","server":"65535","farm":66,"title":"American Goldfinch fem-23Dec22","ispublic":1,"isfriend":0,"isfamily":0},{"id":"52695425736","owner":"10260434@N03","secret":"3d20d49b70","server":"65535","farm":66,"title":"American Goldfinch male-19Dec22","ispublic":1,"isfriend":0,"isfamily":0},{"id":"52696337595","owner":"14734088@N02","secret":"92bbbfb777","server":"65535","farm":66,"title":"Chardonneret jaune 230208H2","ispublic":1,"isfriend":0,"isfamily":0},{"id":"52692030563","owner":"71418112@N00","secret":"63508b0e52","server":"65535","farm":66,"title":"Showing some colour.","ispublic":1,"isfriend":0,"isfamily":0},{"id":"52690350160","owner":"33610210@N05","secret":"afb7b18bc8","server":"65535","farm":66,"title":"American Goldfinch, Spinus tristis","ispublic":1,"isfriend":0,"isfamily":0},{"id":"52690158073","owner":"63093099@N02","secret":"ee97bb9f02","server":"65535","farm":66,"title":"American Goldfinch; 20230214; USA-WA-King-Seattle-Union Bay Natural Area","ispublic":1,"isfriend":0,"isfamily":0},{"id":"52687391746","owner":"196264892@N08","secret":"abe71d4db1","server":"65535","farm":66,"title":"American Goldfinch, winter","ispublic":1,"isfriend":0,"isfamily":0},{"id":"52686858395","owner":"14734088@N02","secret":"b21627983c","server":"65535","farm":66,"title":"Chardonneret jaune 230208H3a","ispublic":1,"isfriend":0,"isfamily":0},{"id":"52682563778","owner":"14734088@N02","secret":"e63f05b5c8","server":"65535","farm":66,"title":"Chardonneret jaune 230208H4","ispublic":1,"isfriend":0,"isfamily":0},{"id":"52680948131","owner":"187792860@N04","secret":"3036c03ea3","server":"65535","farm":66,"title":"American Goldfinch (Spinus tristis)","ispublic":1,"isfriend":0,"isfamily":0},{"id":"52680753719","owner":"88978913@N08","secret":"f2c6aa4392","server":"65535","farm":66,"title":"American Goldfinch, Spinus tristis","ispublic":1,"isfriend":0,"isfamily":0},{"id":"52679371050","owner":"82402390@N02","secret":"6a7e6c6f34","server":"65535","farm":66,"title":"Chardonneret jaune, American Goldfinch  DSC_8181-1-jpg Spinus  tristis.","ispublic":1,"isfriend":0,"isfamily":0},{"id":"52678991003","owner":"14734088@N02","secret":"1fcdd522ed","server":"65535","farm":66,"title":"Chardonneret jaune 230208H1","ispublic":1,"isfriend":0,"isfamily":0},{"id":"52678198448","owner":"62043870@N05","secret":"1db4acf533","server":"65535","farm":66,"title":"American Goldfinch, Spinus tristis","ispublic":1,"isfriend":0,"isfamily":0},{"id":"52673004886","owner":"18739614@N00","secret":"ebf938ba0e","server":"65535","farm":66,"title":"American Goldfinch","ispublic":1,"isfriend":0,"isfamily":0},{"id":"52671406082","owner":"65148649@N04","secret":"5543a62282","server":"65535","farm":66,"title":"American Goldfinch 01.28.23 Frye","ispublic":1,"isfriend":0,"isfamily":0},{"id":"52667764472","owner":"150374485@N05","secret":"7a06b6433b","server":"65535","farm":66,"title":"Chardonneret jaune m\u00e2le plumage d'hiver--American Goldfinch male in winter plumage (Spinus tristis)","ispublic":1,"isfriend":0,"isfamily":0},{"id":"52664368280","owner":"142605906@N06","secret":"f057057ac4","server":"65535","farm":66,"title":"American Goldfinch (Spinus tristis)  Female","ispublic":1,"isfriend":0,"isfamily":0},{"id":"52663435008","owner":"57126723@N07","secret":"2d7562e202","server":"65535","farm":66,"title":"American goldfinch\u2014Spinus tristis-8077","ispublic":1,"isfriend":0,"isfamily":0},{"id":"52661710801","owner":"91064752@N03","secret":"5bdfd0be07","server":"65535","farm":66,"title":"American Goldfinch in a Willow Bush","ispublic":1,"isfriend":0,"isfamily":0},{"id":"52655672734","owner":"144980256@N07","secret":"2ed2a23418","server":"65535","farm":66,"title":"American Goldfinch (Spinus tristis)","ispublic":1,"isfriend":0,"isfamily":0},{"id":"52655005584","owner":"181920661@N03","secret":"82bac7d5f4","server":"65535","farm":66,"title":"20201003-A6309212-Edit","ispublic":1,"isfriend":0,"isfamily":0},{"id":"52651081806","owner":"45714184@N07","secret":"c037a4cd99","server":"65535","farm":66,"title":"Feathered Friends","ispublic":1,"isfriend":0,"isfamily":0},{"id":"52650492106","owner":"105894626@N06","secret":"46de6aa73f","server":"65535","farm":66,"title":"American Goldfinch","ispublic":1,"isfriend":0,"isfamily":0},{"id":"52647487181","owner":"71833159@N00","secret":"af74fed805","server":"65535","farm":66,"title":"American Goldfinch \/ Spinus tristis, female","ispublic":1,"isfriend":0,"isfamily":0},{"id":"52647485496","owner":"71833159@N00","secret":"a6e8fdda3b","server":"65535","farm":66,"title":"American Goldfinch \/ Spinus tristis, female","ispublic":1,"isfriend":0,"isfamily":0},{"id":"52647746008","owner":"91064752@N03","secret":"ab6bbaf272","server":"65535","farm":66,"title":"American Goldfinch on a Spent Tithonia Flower","ispublic":1,"isfriend":0,"isfamily":0},{"id":"52647332644","owner":"105894626@N06","secret":"675a87b8ff","server":"65535","farm":66,"title":"American Goldfinch","ispublic":1,"isfriend":0,"isfamily":0},{"id":"52598910948","owner":"49114357@N08","secret":"f239f74a86","server":"65535","farm":66,"title":"American Goldfinch","ispublic":1,"isfriend":0,"isfamily":0},{"id":"52645108553","owner":"8013969@N03","secret":"7bfd5194fb","server":"65535","farm":66,"title":"Spinus tristis DFL lanc22-1","ispublic":1,"isfriend":0,"isfamily":0},{"id":"52640252284","owner":"10260434@N03","secret":"9e8461495d","server":"65535","farm":66,"title":"American Goldfinch fem-12Dec22","ispublic":1,"isfriend":0,"isfamily":0},{"id":"52640115859","owner":"10260434@N03","secret":"6d9a68a2c4","server":"65535","farm":66,"title":"American Goldfinch-29Nov22","ispublic":1,"isfriend":0,"isfamily":0},{"id":"52640096359","owner":"10260434@N03","secret":"0f551755cd","server":"65535","farm":66,"title":"American Goldfinches-26Dec22","ispublic":1,"isfriend":0,"isfamily":0},{"id":"52640240670","owner":"10260434@N03","secret":"241f9dabdd","server":"65535","farm":66,"title":"Goldfinch female-28Nov22","ispublic":1,"isfriend":0,"isfamily":0},{"id":"52640049634","owner":"10260434@N03","secret":"78b2c8b05d","server":"65535","farm":66,"title":"American Goldfinch-28Nov22","ispublic":1,"isfriend":0,"isfamily":0},{"id":"52639769276","owner":"10260434@N03","secret":"e3f878f1a9","server":"65535","farm":66,"title":"American Goldfinch female-13Dec22","ispublic":1,"isfriend":0,"isfamily":0},{"id":"52640020389","owner":"10260434@N03","secret":"c6daf379f8","server":"65535","farm":66,"title":"American Goldfinch male-12Dec22","ispublic":1,"isfriend":0,"isfamily":0},{"id":"52631092971","owner":"188156748@N07","secret":"46ca054265","server":"65535","farm":66,"title":"American Goldfinch - Chardonneret Jaune - Spinus tristis 1979 (4)-SharpenAI-Standard copy.jpgS","ispublic":1,"isfriend":0,"isfamily":0},{"id":"52631342444","owner":"188156748@N07","secret":"e8d6606e20","server":"65535","farm":66,"title":"American Goldfinch - Chardonneret Jaune - Spinus tristis 1979 (13)-SharpenAI-Standard copy.jpgS","ispublic":1,"isfriend":0,"isfamily":0},{"id":"52631342394","owner":"188156748@N07","secret":"20199a781f","server":"65535","farm":66,"title":"American Goldfinch - Chardonneret Jaune - Spinus tristis 2013 (3)-SharpenAI-Standard copy.jpgS","ispublic":1,"isfriend":0,"isfamily":0},{"id":"52631342329","owner":"188156748@N07","secret":"e04b6bab13","server":"65535","farm":66,"title":"American Goldfinch - Chardonneret Jaune - Spinus tristis 2021 (11)-SharpenAI-Standard copy.jpgS","ispublic":1,"isfriend":0,"isfamily":0},{"id":"52631092806","owner":"188156748@N07","secret":"93e7041de2","server":"65535","farm":66,"title":"American Goldfinch - Chardonneret Jaune - Spinus tristis 2021 (13)-SharpenAI-Standard copy.jpgS","ispublic":1,"isfriend":0,"isfamily":0},{"id":"52631092741","owner":"188156748@N07","secret":"1ce40d4305","server":"65535","farm":66,"title":"American Goldfinch - Chardonneret Jaune - Spinus tristis 2021 (17)-SharpenAI-Standard copy.jpgS","ispublic":1,"isfriend":0,"isfamily":0},{"id":"52629359236","owner":"128537732@N06","secret":"dd98260b09","server":"65535","farm":66,"title":"American Goldfinch (Spinus tristis)","ispublic":1,"isfriend":0,"isfamily":0},{"id":"52627214569","owner":"188966103@N06","secret":"5d5fdcfc65","server":"65535","farm":66,"title":"A male American goldfinch","ispublic":1,"isfriend":0,"isfamily":0},{"id":"52627104859","owner":"188966103@N06","secret":"056a2e87e9","server":"65535","farm":66,"title":"Male American goldfinch eating field thistle","ispublic":1,"isfriend":0,"isfamily":0},{"id":"52626869525","owner":"69002026@N02","secret":"745cddcea0","server":"65535","farm":66,"title":"American goldfinch (Spinus tristis)","ispublic":1,"isfriend":0,"isfamily":0},{"id":"52621509167","owner":"28867468@N08","secret":"6648f88f95","server":"65535","farm":66,"title":"American Goldlfinch with Sycamore Seeds & Seed Heads","ispublic":1,"isfriend":0,"isfamily":0},{"id":"52621105060","owner":"45340210@N05","secret":"8b61458dfe","server":"65535","farm":66,"title":"American Goldfinch 1_10_23","ispublic":1,"isfriend":0,"isfamily":0},{"id":"52620174848","owner":"18739614@N00","secret":"d0fe536fe6","server":"65535","farm":66,"title":"American Goldfinch","ispublic":1,"isfriend":0,"isfamily":0},{"id":"52613126490","owner":"195239167@N07","secret":"6a70606bb2","server":"65535","farm":66,"title":"American Goldfinch","ispublic":1,"isfriend":0,"isfamily":0},{"id":"52610633396","owner":"88978913@N08","secret":"d06aa10a64","server":"65535","farm":66,"title":"American Goldfinch, Spinus tristis","ispublic":1,"isfriend":0,"isfamily":0},{"id":"52607373276","owner":"23711298@N07","secret":"d051df03da","server":"65535","farm":66,"title":"American Goldfinch (Male), Minnesota, New Brighton","ispublic":1,"isfriend":0,"isfamily":0},{"id":"52607871188","owner":"23711298@N07","secret":"8deb44f2fc","server":"65535","farm":66,"title":"American Goldfinch (Male), Minnesota, Sherburne County Sherburne National Wildlife Refuge","ispublic":1,"isfriend":0,"isfamily":0},{"id":"52603837397","owner":"91064752@N03","secret":"77b5fa8352","server":"65535","farm":66,"title":"American Goldfinch","ispublic":1,"isfriend":0,"isfamily":0},{"id":"52603007945","owner":"28144779@N06","secret":"453b0a082c","server":"65535","farm":66,"title":"American Goldfinch Spinus tristis","ispublic":1,"isfriend":0,"isfamily":0},{"id":"52602803423","owner":"88978913@N08","secret":"273cef4d66","server":"65535","farm":66,"title":"American Goldfinch, Spinus tristis","ispublic":1,"isfriend":0,"isfamily":0},{"id":"52601499614","owner":"48014585@N00","secret":"1eb8d4d52a","server":"65535","farm":66,"title":"American Goldfinch","ispublic":1,"isfriend":0,"isfamily":0},{"id":"52598241368","owner":"181920661@N03","secret":"863e9c8e51","server":"65535","farm":66,"title":"American goldfinch","ispublic":1,"isfriend":0,"isfamily":0},{"id":"52597717686","owner":"187792860@N04","secret":"7745ef9e1f","server":"65535","farm":66,"title":"American Goldfinch (Spinus tristis)","ispublic":1,"isfriend":0,"isfamily":0},{"id":"52597585358","owner":"183736567@N07","secret":"c1e65ea3ec","server":"65535","farm":66,"title":"American Goldfinch (Spinus tristis) feeding on a dried sunflower","ispublic":1,"isfriend":0,"isfamily":0},{"id":"52597551168","owner":"33610210@N05","secret":"e8cac39139","server":"65535","farm":66,"title":"American Goldfinch, Spinus tristis","ispublic":1,"isfriend":0,"isfamily":0},{"id":"52596262833","owner":"34238008@N02","secret":"6cc76c3116","server":"65535","farm":66,"title":"American Goldfinch, basic male (Spinus tristis)","ispublic":1,"isfriend":0,"isfamily":0},{"id":"52596165975","owner":"34238008@N02","secret":"6cf5d47179","server":"65535","farm":66,"title":"American Goldfinch (Spinus tristis)","ispublic":1,"isfriend":0,"isfamily":0},{"id":"52675836364","owner":"50554329@N04","secret":"2c29f23153","server":"65535","farm":66,"title":"American Goldfinch","ispublic":1,"isfriend":0,"isfamily":0},{"id":"52660080106","owner":"44034115@N08","secret":"80a2f5c6eb","server":"65535","farm":66,"title":"Meet the American Goldfinch at Bombay Hook","ispublic":1,"isfriend":0,"isfamily":0},{"id":"52602065047","owner":"195239167@N07","secret":"da9c284f59","server":"65535","farm":66,"title":"American Goldfinch","ispublic":1,"isfriend":0,"isfamily":0}]},"stat":"ok"}