{"photos":{"page":1,"pages":21,"perpage":100,"total":2056,"photo":[{"id":"52716106022","owner":"67277069@N06","secret":"ee13b21002","server":"65535","farm":66,"title":"Ash-throated Flycatcher---Myiarchus cinerascens","ispublic":1,"isfriend":0,"isfamily":0},{"id":"52704229335","owner":"67277069@N06","secret":"65f1f601fb","server":"65535","farm":66,"title":"Ash-throated Flycatcher---Myiarchus cinerascens","ispublic":1,"isfriend":0,"isfamily":0},{"id":"52704063614","owner":"67277069@N06","secret":"24163df2b5","server":"65535","farm":66,"title":"Ash-throated Flycatcher---Myiarchus cinerascens","ispublic":1,"isfriend":0,"isfamily":0},{"id":"52689389192","owner":"33610210@N05","secret":"710182de13","server":"65535","farm":66,"title":"Ash-throated Flycatcher, Myiarchus cinerascens","ispublic":1,"isfriend":0,"isfamily":0},{"id":"52670592307","owner":"71989271@N06","secret":"7e712d0711","server":"65535","farm":66,"title":"Ash-throated Flycatcher (Myiarchus c. cinerascens)","ispublic":1,"isfriend":0,"isfamily":0},{"id":"52671596368","owner":"71989271@N06","secret":"62c5de61cd","server":"65535","farm":66,"title":"Ash-throated Flycatcher (Myiarchus c. cinerascens)","ispublic":1,"isfriend":0,"isfamily":0},{"id":"52671388229","owner":"71989271@N06","secret":"5e7ce0d667","server":"65535","farm":66,"title":"Ash-throated Flycatcher (Myiarchus c. cinerascens)","ispublic":1,"isfriend":0,"isfamily":0},{"id":"52671531895","owner":"71989271@N06","secret":"0624edaa65","server":"65535","farm":66,"title":"Ash-throated Flycatcher (Myiarchus c. cinerascens)","ispublic":1,"isfriend":0,"isfamily":0},{"id":"52671388179","owner":"71989271@N06","secret":"941d06848d","server":"65535","farm":66,"title":"Ash-throated Flycatcher (Myiarchus c. cinerascens)","ispublic":1,"isfriend":0,"isfamily":0},{"id":"52668119563","owner":"33610210@N05","secret":"9b26c1ec14","server":"65535","farm":66,"title":"Ash-throated Flycatcher, Myiarchus cinerascens","ispublic":1,"isfriend":0,"isfamily":0},{"id":"52667615071","owner":"33610210@N05","secret":"b5ff1b0415","server":"65535","farm":66,"title":"Ash-throated Flycatcher, Myiarchus cinerascens","ispublic":1,"isfriend":0,"isfamily":0},{"id":"52667118092","owner":"33610210@N05","secret":"60bfbc5b51","server":"65535","farm":66,"title":"Ash-throated Flycatcher, Myiarchus cinerascens","ispublic":1,"isfriend":0,"isfamily":0},{"id":"52640519431","owner":"33573751@N04","secret":"aa6c7c2b12","server":"65535","farm":66,"title":"Ash-throated Flycatcher (Myiarchus cinerascens) - Indian River County, Florida","ispublic":1,"isfriend":0,"isfamily":0},{"id":"52640953903","owner":"33573751@N04","secret":"816ceafde7","server":"65535","farm":66,"title":"Ash-throated Flycatcher (Myiarchus cinerascens) - Indian River County, Florida","ispublic":1,"isfriend":0,"isfamily":0},{"id":"52624347538","owner":"91620959@N08","secret":"b16b5489bc","server":"65535","farm":66,"title":"Ash-throated flycatcher (Myiarchus cinerascens)","ispublic":1,"isfriend":0,"isfamily":0},{"id":"52603012319","owner":"46406990@N08","secret":"e15444e0db","server":"65535","farm":66,"title":"Ash-throated Flycatcher","ispublic":1,"isfriend":0,"isfamily":0},{"id":"52585701139","owner":"73654511@N05","secret":"5b0e852d3b","server":"65535","farm":66,"title":"L0A6312-Ash-throated Flycatcher (documentation shot)","ispublic":1,"isfriend":0,"isfamily":0},{"id":"52579870577","owner":"153973412@N04","secret":"0c6a119664","server":"65535","farm":66,"title":"Ash-throated Flycatcher-Myiarchus cinerascens, Canyonlands NP, UT","ispublic":1,"isfriend":0,"isfamily":0},{"id":"52572196906","owner":"33610210@N05","secret":"968c1ed27e","server":"65535","farm":66,"title":"Ash-throated Flycatcher, Myiarchus cinerascens","ispublic":1,"isfriend":0,"isfamily":0},{"id":"52572195246","owner":"33610210@N05","secret":"a39dcdf484","server":"65535","farm":66,"title":"Ash-throated Flycatcher, Myiarchus cinerascens","ispublic":1,"isfriend":0,"isfamily":0},{"id":"52562778400","owner":"33610210@N05","secret":"f4639a30ba","server":"65535","farm":66,"title":"Ash-throated Flycatcher, Myiarchus cinerascens","ispublic":1,"isfriend":0,"isfamily":0},{"id":"52562600669","owner":"33610210@N05","secret":"29d2d4ab24","server":"65535","farm":66,"title":"Ash-throated Flycatcher, Myiarchus cinerascens","ispublic":1,"isfriend":0,"isfamily":0},{"id":"52560292503","owner":"91620959@N08","secret":"8f1a781bd6","server":"65535","farm":66,"title":"Ash-throated flycatcher (Myiarchus cinerascens)","ispublic":1,"isfriend":0,"isfamily":0},{"id":"52543614005","owner":"33573751@N04","secret":"9782b16795","server":"65535","farm":66,"title":"Ash-throated Flycatcher (Myiarchus cinerascens) - Oslo, Florida","ispublic":1,"isfriend":0,"isfamily":0},{"id":"52542667402","owner":"33573751@N04","secret":"2cf118cbce","server":"65535","farm":66,"title":"Ash-throated Flycatcher (Myiarchus cinerascens) - Oslo, Florida","ispublic":1,"isfriend":0,"isfamily":0},{"id":"52542601047","owner":"33573751@N04","secret":"cedbf939a7","server":"65535","farm":66,"title":"Ash-throated Flycatcher (Myiarchus cinerascens) - Oslo, Florida","ispublic":1,"isfriend":0,"isfamily":0},{"id":"52530108340","owner":"28499865@N07","secret":"5ec80d1aa1","server":"65535","farm":66,"title":"Ash-throated Flycatcher - Myiarchus cinerascens","ispublic":1,"isfriend":0,"isfamily":0},{"id":"52530175783","owner":"28499865@N07","secret":"86203bc71b","server":"65535","farm":66,"title":"Ash-throated Flycatcher - Myiarchus cinerascens","ispublic":1,"isfriend":0,"isfamily":0},{"id":"52530108385","owner":"28499865@N07","secret":"6edf1c6e78","server":"65535","farm":66,"title":"Ash-throated Flycatcher - Myiarchus cinerascens","ispublic":1,"isfriend":0,"isfamily":0},{"id":"52529914754","owner":"28499865@N07","secret":"3e7244cc42","server":"65535","farm":66,"title":"Ash-throated Flycatcher - Myiarchus cinerascens","ispublic":1,"isfriend":0,"isfamily":0},{"id":"52530175688","owner":"28499865@N07","secret":"6ef8fdf278","server":"65535","farm":66,"title":"Ash-throated Flycatcher - Myiarchus cinerascens","ispublic":1,"isfriend":0,"isfamily":0},{"id":"52530175678","owner":"28499865@N07","secret":"dc0b0a2de9","server":"65535","farm":66,"title":"Ash-throated Flycatcher - Myiarchus cinerascens","ispublic":1,"isfriend":0,"isfamily":0},{"id":"52530175658","owner":"28499865@N07","secret":"6b57f7e50e","server":"65535","farm":66,"title":"Ash-throated Flycatcher - Myiarchus cinerascens","ispublic":1,"isfriend":0,"isfamily":0},{"id":"52530175618","owner":"28499865@N07","secret":"7e4d13304b","server":"65535","farm":66,"title":"Ash-throated Flycatcher - Myiarchus cinerascens","ispublic":1,"isfriend":0,"isfamily":0},{"id":"52529914614","owner":"28499865@N07","secret":"805f0cde66","server":"65535","farm":66,"title":"Ash-throated Flycatcher - Myiarchus cinerascens","ispublic":1,"isfriend":0,"isfamily":0},{"id":"52407703408","owner":"125356410@N06","secret":"6a33b5e46a","server":"65535","farm":66,"title":"Ash-throated Flycatcher 1161-11","ispublic":1,"isfriend":0,"isfamily":0},{"id":"52382467754","owner":"67277069@N06","secret":"644917cc5b","server":"65535","farm":66,"title":"Ash-throated Flycatcher--- Myiarchus cinerascens","ispublic":1,"isfriend":0,"isfamily":0},{"id":"52363694695","owner":"67277069@N06","secret":"d0b34c0559","server":"65535","farm":66,"title":"Ash-throated Flycatcher---Myiarchus cinerascens","ispublic":1,"isfriend":0,"isfamily":0},{"id":"52339654877","owner":"34238008@N02","secret":"d3fa199c00","server":"65535","farm":66,"title":"Ash-throated Flycatcher, adult (Myiarchus cinerascens)","ispublic":1,"isfriend":0,"isfamily":0},{"id":"52340856843","owner":"34238008@N02","secret":"51c5e412e5","server":"65535","farm":66,"title":"Ash-throated Flycatcher (Myiarchus cinerascens)","ispublic":1,"isfriend":0,"isfamily":0},{"id":"52340856763","owner":"34238008@N02","secret":"25dc9442fa","server":"65535","farm":66,"title":"Ash-throated Flycatcher (Myiarchus cinerascens)","ispublic":1,"isfriend":0,"isfamily":0},{"id":"52340915499","owner":"34238008@N02","secret":"95ec9c7581","server":"65535","farm":66,"title":"Ash-throated Flycatcher (Myiarchus cinerascens)","ispublic":1,"isfriend":0,"isfamily":0},{"id":"52340615766","owner":"34238008@N02","secret":"983c3efd92","server":"65535","farm":66,"title":"Ash-throated Flycatcher (Myiarchus cinerascens)","ispublic":1,"isfriend":0,"isfamily":0},{"id":"52340915269","owner":"34238008@N02","secret":"394c6bf94c","server":"65535","farm":66,"title":"Ash-throated Flycatcher (Myiarchus cinerascens)","ispublic":1,"isfriend":0,"isfamily":0},{"id":"52341043550","owner":"34238008@N02","secret":"9242ab86a5","server":"65535","farm":66,"title":"Ash-throated Flycatcher (Myiarchus cinerascens)","ispublic":1,"isfriend":0,"isfamily":0},{"id":"52341043425","owner":"34238008@N02","secret":"a492e723e1","server":"65535","farm":66,"title":"Ash-throated Flycatcher (Myiarchus cinerascens)","ispublic":1,"isfriend":0,"isfamily":0},{"id":"52307150490","owner":"40318098@N05","secret":"6e8fecb2bf","server":"65535","farm":66,"title":"JAK_1545","ispublic":1,"isfriend":0,"isfamily":0},{"id":"52304961024","owner":"40318098@N05","secret":"f98e214fa3","server":"65535","farm":66,"title":"JAK_1545","ispublic":1,"isfriend":0,"isfamily":0},{"id":"52292440092","owner":"21558080@N07","secret":"cb24bdba1f","server":"65535","farm":66,"title":"Ash-throated Flycatcher (Myiarchus cinerascens)","ispublic":1,"isfriend":0,"isfamily":0},{"id":"52292248075","owner":"124995824@N08","secret":"b995e2979f","server":"65535","farm":66,"title":"Ash-throated Flycatcher - Myiarchus cinerascens","ispublic":1,"isfriend":0,"isfamily":0},{"id":"52282856522","owner":"109544413@N05","secret":"6035f15037","server":"65535","farm":66,"title":"Looking for another bug","ispublic":1,"isfriend":0,"isfamily":0},{"id":"52284318130","owner":"109544413@N05","secret":"24cedd0e79","server":"65535","farm":66,"title":"Down it goes!","ispublic":1,"isfriend":0,"isfamily":0},{"id":"52282856462","owner":"109544413@N05","secret":"7a176b590e","server":"65535","farm":66,"title":"Positioning toss","ispublic":1,"isfriend":0,"isfamily":0},{"id":"52283846983","owner":"109544413@N05","secret":"3d2344dc1c","server":"65535","farm":66,"title":"Ash-throated Flycatcher caught a bug","ispublic":1,"isfriend":0,"isfamily":0},{"id":"52283846933","owner":"109544413@N05","secret":"39e5ce51d6","server":"65535","farm":66,"title":"Hooked Beak & Sharp Claws","ispublic":1,"isfriend":0,"isfamily":0},{"id":"52276348882","owner":"140318147@N08","secret":"907b3f5677","server":"65535","farm":66,"title":"ash-throated flycatcher (Myiarchus cinerascens) L4A9032","ispublic":1,"isfriend":0,"isfamily":0},{"id":"52272554036","owner":"143326780@N02","secret":"e63501e926","server":"65535","farm":66,"title":"DSCN7823","ispublic":1,"isfriend":0,"isfamily":0},{"id":"52271584602","owner":"143326780@N02","secret":"4af0015533","server":"65535","farm":66,"title":"DSCN7825","ispublic":1,"isfriend":0,"isfamily":0},{"id":"52273045765","owner":"143326780@N02","secret":"06666a513c","server":"65535","farm":66,"title":"DSCN7836","ispublic":1,"isfriend":0,"isfamily":0},{"id":"52273045585","owner":"143326780@N02","secret":"4742a105d4","server":"65535","farm":66,"title":"DSCN7844","ispublic":1,"isfriend":0,"isfamily":0},{"id":"52271584262","owner":"143326780@N02","secret":"8d82644f40","server":"65535","farm":66,"title":"DSCN7847","ispublic":1,"isfriend":0,"isfamily":0},{"id":"52273045420","owner":"143326780@N02","secret":"0c32f8a620","server":"65535","farm":66,"title":"DSCN7853","ispublic":1,"isfriend":0,"isfamily":0},{"id":"52272815494","owner":"143326780@N02","secret":"f8582aacb8","server":"65535","farm":66,"title":"DSCN7855","ispublic":1,"isfriend":0,"isfamily":0},{"id":"52272815384","owner":"143326780@N02","secret":"4440c24051","server":"65535","farm":66,"title":"DSCN7857","ispublic":1,"isfriend":0,"isfamily":0},{"id":"52273045125","owner":"143326780@N02","secret":"8350cb1974","server":"65535","farm":66,"title":"DSCN7858","ispublic":1,"isfriend":0,"isfamily":0},{"id":"52272573713","owner":"143326780@N02","secret":"3330ce3d47","server":"65535","farm":66,"title":"DSCN7859","ispublic":1,"isfriend":0,"isfamily":0},{"id":"52222387089","owner":"29170368@N03","secret":"a059254984","server":"65535","farm":66,"title":"Ash-throated Flycatcher","ispublic":1,"isfriend":0,"isfamily":0},{"id":"52222119761","owner":"29170368@N03","secret":"d98ab8a599","server":"65535","farm":66,"title":"Ash-throated Flycatcher","ispublic":1,"isfriend":0,"isfamily":0},{"id":"52215167411","owner":"67277069@N06","secret":"0c73b7bc85","server":"65535","farm":66,"title":"Ash-throated Flycatcher---Myiarchus cinerascens","ispublic":1,"isfriend":0,"isfamily":0},{"id":"52213531946","owner":"34238008@N02","secret":"c083e7b67b","server":"65535","farm":66,"title":"Ash-throated Flycatcher (Myiarchus cinerascens)","ispublic":1,"isfriend":0,"isfamily":0},{"id":"52213807214","owner":"34238008@N02","secret":"12c9dbbbe6","server":"65535","farm":66,"title":"Ash-throated Flycatcher (Myiarchus cinerascens)","ispublic":1,"isfriend":0,"isfamily":0},{"id":"52214012300","owner":"34238008@N02","secret":"a85d521f5b","server":"65535","farm":66,"title":"Ash-throated Flycatcher (Myiarchus cinerascens)","ispublic":1,"isfriend":0,"isfamily":0},{"id":"52213547388","owner":"34238008@N02","secret":"284a0a2b6d","server":"65535","farm":66,"title":"Ash-throated Flycatcher (Myiarchus cinerascens)","ispublic":1,"isfriend":0,"isfamily":0},{"id":"52213806824","owner":"34238008@N02","secret":"002d1c024c","server":"65535","farm":66,"title":"Ash-throated Flycatcher (Myiarchus cinerascens)","ispublic":1,"isfriend":0,"isfamily":0},{"id":"52213547043","owner":"34238008@N02","secret":"11e0e8552d","server":"65535","farm":66,"title":"Ash-throated Flycatcher (Myiarchus cinerascens)","ispublic":1,"isfriend":0,"isfamily":0},{"id":"52208906668","owner":"34238008@N02","secret":"8018f7bb0c","server":"65535","farm":66,"title":"Ash-throated Flycatcher (Myiarchus cinerascens)","ispublic":1,"isfriend":0,"isfamily":0},{"id":"52209375180","owner":"34238008@N02","secret":"2cd5d22c00","server":"65535","farm":66,"title":"Ash-throated Flycatcher (Myiarchus cinerascens)","ispublic":1,"isfriend":0,"isfamily":0},{"id":"52208886101","owner":"34238008@N02","secret":"098c46ef12","server":"65535","farm":66,"title":"Ash-throated Flycatcher (Myiarchus cinerascens)","ispublic":1,"isfriend":0,"isfamily":0},{"id":"52209374985","owner":"34238008@N02","secret":"a4bdb12d56","server":"65535","farm":66,"title":"Ash-throated Flycatcher, adult (Myiarchus cinerascens)","ispublic":1,"isfriend":0,"isfamily":0},{"id":"52209374855","owner":"34238008@N02","secret":"6b43352979","server":"65535","farm":66,"title":"Ash-throated Flycatcher (Myiarchus cinerascens)","ispublic":1,"isfriend":0,"isfamily":0},{"id":"52208906033","owner":"34238008@N02","secret":"90b1a74e6f","server":"65535","farm":66,"title":"Ash-throated Flycatcher (Myiarchus cinerascens)","ispublic":1,"isfriend":0,"isfamily":0},{"id":"52205666217","owner":"62037969@N08","secret":"2852a54207","server":"65535","farm":66,"title":"Portrait Of A Perched Ash-throated Flycatcher","ispublic":1,"isfriend":0,"isfamily":0},{"id":"52187182845","owner":"67277069@N06","secret":"072f7918d6","server":"65535","farm":66,"title":"Ash-throated Flycatcher---Myiarchus cinerascens","ispublic":1,"isfriend":0,"isfamily":0},{"id":"52181064903","owner":"67277069@N06","secret":"a0bb881aab","server":"65535","farm":66,"title":"Ash-throated Flycatcher---Myiarchus cinerascens","ispublic":1,"isfriend":0,"isfamily":0},{"id":"52169557342","owner":"67277069@N06","secret":"b46f7273d5","server":"65535","farm":66,"title":"Ash-throated Flycatcher---Myiarchus cinerascens","ispublic":1,"isfriend":0,"isfamily":0},{"id":"52168131754","owner":"143326780@N02","secret":"7b49545caf","server":"65535","farm":66,"title":"DSCN4270","ispublic":1,"isfriend":0,"isfamily":0},{"id":"52168371750","owner":"143326780@N02","secret":"2658942c57","server":"65535","farm":66,"title":"DSCN4276","ispublic":1,"isfriend":0,"isfamily":0},{"id":"52166525868","owner":"54249623@N08","secret":"2d72a3d238","server":"65535","farm":66,"title":"Ash-throated Flycatcher (Myiarchus cinerascens)","ispublic":1,"isfriend":0,"isfamily":0},{"id":"52165400143","owner":"67277069@N06","secret":"4faac8cd3e","server":"65535","farm":66,"title":"Ash-throated Flycatcher---Myiarchus cinerascens","ispublic":1,"isfriend":0,"isfamily":0},{"id":"52161803330","owner":"143326780@N02","secret":"229f1ed608","server":"65535","farm":66,"title":"DSCN3975","ispublic":1,"isfriend":0,"isfamily":0},{"id":"52158488587","owner":"103722035@N06","secret":"f361965253","server":"0","farm":0,"title":"Ash-throated Flycatcher (Myiarchus cinerascens), juvenile, Cayucos, CA juvenile, Cayucos, CA","ispublic":1,"isfriend":0,"isfamily":0},{"id":"52158488722","owner":"103722035@N06","secret":"21eab9778a","server":"65535","farm":66,"title":"Ash-throated Flycatcher (Myiarchus cinerascens), juvenile, Cayucos, CA","ispublic":1,"isfriend":0,"isfamily":0},{"id":"52159830535","owner":"195819210@N03","secret":"7584532686","server":"65535","farm":66,"title":"(35) Ash-throated Flycatcher","ispublic":1,"isfriend":0,"isfamily":0},{"id":"52158180770","owner":"67277069@N06","secret":"5fabceba1c","server":"65535","farm":66,"title":"Ash-throated Flycatcher---Myiarchus cinerascens","ispublic":1,"isfriend":0,"isfamily":0},{"id":"52155629478","owner":"67277069@N06","secret":"b2a6ec8fc3","server":"65535","farm":66,"title":"Ash-throated Flycatcher---Myiarchus cinerascens","ispublic":1,"isfriend":0,"isfamily":0},{"id":"52283835731","owner":"109544413@N05","secret":"298c219146","server":"65535","farm":66,"title":"Knocking the wings off it","ispublic":1,"isfriend":0,"isfamily":0},{"id":"52250893300","owner":"143326780@N02","secret":"21c5827dbe","server":"65535","farm":66,"title":"DSCN7581","ispublic":1,"isfriend":0,"isfamily":0},{"id":"52180917371","owner":"62043870@N05","secret":"4f9209d5e0","server":"65535","farm":66,"title":"Ash-throated Flycatcher, Myiarchus cinerascens","ispublic":1,"isfriend":0,"isfamily":0},{"id":"52168371920","owner":"143326780@N02","secret":"3dd207a4f7","server":"65535","farm":66,"title":"DSCN4095","ispublic":1,"isfriend":0,"isfamily":0},{"id":"52168371865","owner":"143326780@N02","secret":"3e1686d635","server":"65535","farm":66,"title":"DSCN4096","ispublic":1,"isfriend":0,"isfamily":0}]},"stat":"ok"}