{"photos":{"page":1,"pages":5,"perpage":100,"total":441,"photo":[{"id":"52791089440","owner":"64045479@N05","secret":"d0d08eb837","server":"65535","farm":66,"title":"Ashy-headed Goose - Chloephaga poliocephala","ispublic":1,"isfriend":0,"isfamily":0},{"id":"52784838777","owner":"23882583@N08","secret":"a8a230eca9","server":"65535","farm":66,"title":"Ashy-headed Goose","ispublic":1,"isfriend":0,"isfamily":0},{"id":"52765670709","owner":"61316002@N02","secret":"fbca62d900","server":"65535","farm":66,"title":"ASHHEAGOO 0189","ispublic":1,"isfriend":0,"isfamily":0},{"id":"52763035532","owner":"12639178@N07","secret":"bbd7da5a41","server":"65535","farm":66,"title":"Graukopfgans","ispublic":1,"isfriend":0,"isfamily":0},{"id":"52712923555","owner":"160629162@N02","secret":"a3ce291635","server":"65535","farm":66,"title":"Ashy-headed Goose - \u0421\u0435\u0440\u043e\u0433\u043e\u043b\u043e\u0432\u044b\u0439 \u0433\u0443\u0441\u044c (Chloephaga poliocephala)","ispublic":1,"isfriend":0,"isfamily":0},{"id":"52711984777","owner":"160629162@N02","secret":"b251d279cb","server":"65535","farm":66,"title":"Ashy-headed Goose - \u0421\u0435\u0440\u043e\u0433\u043e\u043b\u043e\u0432\u044b\u0439 \u0433\u0443\u0441\u044c (Chloephaga poliocephala)","ispublic":1,"isfriend":0,"isfamily":0},{"id":"52711983782","owner":"160629162@N02","secret":"2acdcd0d9f","server":"65535","farm":66,"title":"Ashy-headed Goose - \u0421\u0435\u0440\u043e\u0433\u043e\u043b\u043e\u0432\u044b\u0439 \u0433\u0443\u0441\u044c (Chloephaga poliocephala)","ispublic":1,"isfriend":0,"isfamily":0},{"id":"52711974987","owner":"160629162@N02","secret":"7186f2f323","server":"65535","farm":66,"title":"Ashy-headed Goose - \u0421\u0435\u0440\u043e\u0433\u043e\u043b\u043e\u0432\u044b\u0439 \u0433\u0443\u0441\u044c (Chloephaga poliocephala)","ispublic":1,"isfriend":0,"isfamily":0},{"id":"52686441871","owner":"41111966@N04","secret":"d99d19e59a","server":"65535","farm":66,"title":"Ashy-headed geese, Nahuel Huapi Lake, San Carlos de Bariloche at 770 m (2,526 ft) MSL, Argentina.","ispublic":1,"isfriend":0,"isfamily":0},{"id":"52557567050","owner":"33106392@N08","secret":"b53c0fb1d7","server":"65535","farm":66,"title":"Ashy-headed Goose","ispublic":1,"isfriend":0,"isfamily":0},{"id":"52517832873","owner":"79024073@N06","secret":"c0b5e81e49","server":"65535","farm":66,"title":"Canqu\u00e9n (Chloephaga poliocephala) 003","ispublic":1,"isfriend":0,"isfamily":0},{"id":"52503200935","owner":"127345113@N04","secret":"55b575ddff","server":"65535","farm":66,"title":"Cauquen real - Chloephaga poliocephala (Ashy-Headed goose)","ispublic":1,"isfriend":0,"isfamily":0},{"id":"52499547253","owner":"127345113@N04","secret":"3a42b84db7","server":"65535","farm":66,"title":"Cauquen real - Chloephaga poliocephala (Ashy-Headed goose)","ispublic":1,"isfriend":0,"isfamily":0},{"id":"52441219502","owner":"79024073@N06","secret":"bf6c6f8b0c","server":"65535","farm":66,"title":"Canqu\u00e9n (Chloephaga poliocephala) 001","ispublic":1,"isfriend":0,"isfamily":0},{"id":"52326125370","owner":"124995824@N08","secret":"eef9c94606","server":"65535","farm":66,"title":"Ashy-headed Goose - Chloephaga poliocephala","ispublic":1,"isfriend":0,"isfamily":0},{"id":"52008607553","owner":"24580998@N08","secret":"e33df4c845","server":"65535","farm":66,"title":"Chloephaga poliocephala - Ashy-headed goose  - Ouette \u00e0 t\u00eate grise - 14\/02\/22","ispublic":1,"isfriend":0,"isfamily":0},{"id":"51877857136","owner":"187909285@N08","secret":"8cdab4e6dd","server":"65535","farm":66,"title":"Chloephaga poliocephala - Cauqu\u00e9n real - Ashy-headed goose","ispublic":1,"isfriend":0,"isfamily":0},{"id":"51799637200","owner":"55828927@N02","secret":"ff218261a6","server":"65535","farm":66,"title":"Cauqu\u00e9n real - Chloephaga poliocephala","ispublic":1,"isfriend":0,"isfamily":0},{"id":"51730034251","owner":"184921031@N02","secret":"2ea3f107f5","server":"65535","farm":66,"title":"Chlo\u00ebphaga poliocephala, Canqu\u00e9n.","ispublic":1,"isfriend":0,"isfamily":0},{"id":"51652653745","owner":"164742237@N06","secret":"996dcc8a98","server":"65535","farm":66,"title":"Canqu\u00e9n com\u00fan (Chloephaga poliocephala) en Changr\u00eda, RN \u00d1uble","ispublic":1,"isfriend":0,"isfamily":0},{"id":"51224276770","owner":"79024073@N06","secret":"762ec1e75b","server":"65535","farm":66,"title":"Canqu\u00e9n (Chloephaga poliocephala) 002","ispublic":1,"isfriend":0,"isfamily":0},{"id":"51209405511","owner":"61316002@N02","secret":"c941c1c338","server":"65535","farm":66,"title":"ASHHEAGOO 0176","ispublic":1,"isfriend":0,"isfamily":0},{"id":"51070944552","owner":"130819462@N04","secret":"87e77a4d4f","server":"65535","farm":66,"title":"Getting her goslings in a row","ispublic":1,"isfriend":0,"isfamily":0},{"id":"51068560527","owner":"130819462@N04","secret":"b9be5b2574","server":"65535","farm":66,"title":"Ashy-headed geese","ispublic":1,"isfriend":0,"isfamily":0},{"id":"50320206573","owner":"108014784@N04","secret":"c2642fd1c9","server":"65535","farm":66,"title":"Chloephaga poliocephala","ispublic":1,"isfriend":0,"isfamily":0},{"id":"50308895896","owner":"108014784@N04","secret":"d271cbae79","server":"65535","farm":66,"title":"Chloephaga poliocephala","ispublic":1,"isfriend":0,"isfamily":0},{"id":"50142861758","owner":"37934762@N02","secret":"ae31195409","server":"65535","farm":66,"title":"Ashy-headed Goose - Chloephaga poliocephala","ispublic":1,"isfriend":0,"isfamily":0},{"id":"50142740836","owner":"93181941@N06","secret":"f73e7ec9e5","server":"65535","farm":66,"title":"Canqu\u00e9n (Chlo\u00ebphaga poliocephala)","ispublic":1,"isfriend":0,"isfamily":0},{"id":"49966168347","owner":"61316002@N02","secret":"02f0e23333","server":"65535","farm":66,"title":"ASHHEAGOO vs RUDHEA 0209","ispublic":1,"isfriend":0,"isfamily":0},{"id":"49660240977","owner":"99033010@N04","secret":"e2c944c116","server":"65535","farm":66,"title":"101-DSCF1052 (2)","ispublic":1,"isfriend":0,"isfamily":0},{"id":"49573037693","owner":"107784905@N04","secret":"d96a3c5b12","server":"65535","farm":66,"title":"Ouette \u00e0 t\u00eate grise - Ushuaia\/Tierra del Fuego\/Argentina_20171201_004-1","ispublic":1,"isfriend":0,"isfamily":0},{"id":"49157438513","owner":"154657265@N08","secret":"88dee8d5c1","server":"65535","farm":66,"title":"Ashy-headed Geese (Chloephaga poliocephala) - Patagonia, Chile","ispublic":1,"isfriend":0,"isfamily":0},{"id":"49157923106","owner":"154657265@N08","secret":"41191b678c","server":"65535","farm":66,"title":"Ashy-headed Geese (Chloephaga poliocephala) with Crested Duck - Patagonia, Chile","ispublic":1,"isfriend":0,"isfamily":0},{"id":"49052157847","owner":"44904157@N04","secret":"2cf4f7529d","server":"65535","farm":66,"title":"Ashy-headed Goose - San Diego Zoo","ispublic":1,"isfriend":0,"isfamily":0},{"id":"48862434427","owner":"7415198@N04","secret":"71206a0cf3","server":"65535","farm":66,"title":"Cauquen real (Chloephaga poliocephala)","ispublic":1,"isfriend":0,"isfamily":0},{"id":"48765429042","owner":"79024073@N06","secret":"d1bc73c619","server":"65535","farm":66,"title":"Canqu\u00e9n (Chloephaga poliocephala) 003","ispublic":1,"isfriend":0,"isfamily":0},{"id":"48613479883","owner":"44510888@N05","secret":"352ccc9a89","server":"65535","farm":66,"title":"Ashy-headed Goose","ispublic":1,"isfriend":0,"isfamily":0},{"id":"47135458592","owner":"66492065@N05","secret":"3bffa04f53","server":"7827","farm":8,"title":"Ganso-de-cabe\u00e7a-cinzenta (Chloephaga poliocephala)","ispublic":1,"isfriend":0,"isfamily":0},{"id":"46239152394","owner":"7415198@N04","secret":"fb02ce7430","server":"4813","farm":5,"title":"Cauquen real (Chloephaga poliocephala)","ispublic":1,"isfriend":0,"isfamily":0},{"id":"46090067074","owner":"158952020@N04","secret":"471e066c2d","server":"4892","farm":5,"title":"Ashy-headed Goose Chloephaga poliocephala, Canquen Comun-8457","ispublic":1,"isfriend":0,"isfamily":0},{"id":"28222239463","owner":"145890709@N08","secret":"08a07b1953","server":"8884","farm":9,"title":"Ashy-headed Geese","ispublic":1,"isfriend":0,"isfamily":0},{"id":"44307821860","owner":"130021529@N02","secret":"91e9bbcb6a","server":"4887","farm":5,"title":"Ashy-headed Goose | gr\u00e5huvad g\u00e5s | Chloephaga poliocephala","ispublic":1,"isfriend":0,"isfamily":0},{"id":"46008940462","owner":"130021529@N02","secret":"74f81a7c15","server":"4865","farm":5,"title":"Ashy-headed Goose | gr\u00e5huvad g\u00e5s | Chloephaga poliocephala","ispublic":1,"isfriend":0,"isfamily":0},{"id":"45250156854","owner":"79024073@N06","secret":"3e811a0b45","server":"4869","farm":5,"title":"Canqu\u00e9n (Chloephaga poliocephala) 001","ispublic":1,"isfriend":0,"isfamily":0},{"id":"41317045110","owner":"107784905@N04","secret":"50022ae726","server":"913","farm":1,"title":"Ouette \u00e0 t\u00eate grise - San Sebastian\/Tierra del Fuego\/Argentina_20171205_001-1","ispublic":1,"isfriend":0,"isfamily":0},{"id":"39677017450","owner":"54249623@N08","secret":"79bd6ea9eb","server":"898","farm":1,"title":"Ashy-headed Goose (Chloephaga poliocephala)","ispublic":1,"isfriend":0,"isfamily":0},{"id":"27818629449","owner":"126214395@N05","secret":"9a93b758dc","server":"4719","farm":5,"title":"Canqu\u00e9n (Chlo\u00ebphaga poliocephala)","ispublic":1,"isfriend":0,"isfamily":0},{"id":"38140125394","owner":"52799999@N06","secret":"d11b44bc40","server":"4586","farm":5,"title":"Ashy-headed Goose (Chloephaga poliocephala)","ispublic":1,"isfriend":0,"isfamily":0},{"id":"24964994938","owner":"123534937@N08","secret":"b8d16f02c9","server":"4565","farm":5,"title":"Cauquen Real - Chloephaga poliocephala - Ashy-headed Goose","ispublic":1,"isfriend":0,"isfamily":0},{"id":"24297805898","owner":"77562516@N00","secret":"ba1d0d9cfc","server":"4468","farm":5,"title":"Canque\u0301n comu\u0301n (Chloephaga poliocephala)","ispublic":1,"isfriend":0,"isfamily":0},{"id":"52682154515","owner":"93140244@N02","secret":"e165392627","server":"65535","farm":66,"title":"Upland Geese with some Ashy-headed Geese (1)","ispublic":1,"isfriend":0,"isfamily":0},{"id":"52515089483","owner":"51429555@N00","secret":"729570d989","server":"65535","farm":66,"title":"Kangke\u00f1 - Canqu\u00e9n - Cauqu\u00e9n","ispublic":1,"isfriend":0,"isfamily":0},{"id":"52514520646","owner":"51429555@N00","secret":"2f1a80c71f","server":"65535","farm":66,"title":"Kangke\u00f1 Family","ispublic":1,"isfriend":0,"isfamily":0},{"id":"52452575973","owner":"79024073@N06","secret":"9bfa428c3c","server":"65535","farm":66,"title":"Canqu\u00e9n (Chloephaga poliocephala) 002","ispublic":1,"isfriend":0,"isfamily":0},{"id":"51984027865","owner":"123597211@N03","secret":"7c3b2551af","server":"65535","farm":66,"title":"Graukopfgans (Chloephaga poliocephala)","ispublic":1,"isfriend":0,"isfamily":0},{"id":"51983477171","owner":"123597211@N03","secret":"11590f3607","server":"65535","farm":66,"title":"Graukopfgans (Chloephaga poliocephala)","ispublic":1,"isfriend":0,"isfamily":0},{"id":"51983758509","owner":"123597211@N03","secret":"68fe2d3e83","server":"65535","farm":66,"title":"Graukopfgans (Chloephaga poliocephala)","ispublic":1,"isfriend":0,"isfamily":0},{"id":"51729214317","owner":"184921031@N02","secret":"760364b467","server":"65535","farm":66,"title":"Chlo\u00ebphaga poliocephala, Canqu\u00e9n.","ispublic":1,"isfriend":0,"isfamily":0},{"id":"51730668119","owner":"184921031@N02","secret":"dbddbb15f3","server":"65535","farm":66,"title":"Chlo\u00ebphaga poliocephala, Canqu\u00e9n.","ispublic":1,"isfriend":0,"isfamily":0},{"id":"51574242414","owner":"79024073@N06","secret":"6ca60e332e","server":"65535","farm":66,"title":"Canqu\u00e9n (Chloephaga poliocephala) 007","ispublic":1,"isfriend":0,"isfamily":0},{"id":"51540045999","owner":"79024073@N06","secret":"75669e2b6d","server":"65535","farm":66,"title":"Canqu\u00e9n (Chloephaga poliocephala)006","ispublic":1,"isfriend":0,"isfamily":0},{"id":"51434523683","owner":"79024073@N06","secret":"07704887f7","server":"65535","farm":66,"title":"Canqu\u00e9n (Chloephaga poliocephala) 005","ispublic":1,"isfriend":0,"isfamily":0},{"id":"51433351597","owner":"50241576@N03","secret":"4a52c6baed","server":"65535","farm":66,"title":"Ashy-headed Goose (Chloephaga poliocephala)","ispublic":1,"isfriend":0,"isfamily":0},{"id":"51263961632","owner":"79024073@N06","secret":"fb0870d1f1","server":"65535","farm":66,"title":"Canqu\u00e9n (Chloephaga poliocephala) 004","ispublic":1,"isfriend":0,"isfamily":0},{"id":"51236679019","owner":"79024073@N06","secret":"1f6848a23d","server":"65535","farm":66,"title":"Canqu\u00e9n (Chloephaga poliocephala) 003","ispublic":1,"isfriend":0,"isfamily":0},{"id":"51152614032","owner":"79024073@N06","secret":"8cd0b6efa4","server":"65535","farm":66,"title":"Canqu\u00e9n (Chloephaga poliocephala) 001","ispublic":1,"isfriend":0,"isfamily":0},{"id":"50403784098","owner":"40976883@N04","secret":"cc9a4ced38","server":"65535","farm":66,"title":"Cauqu\u00e9n - Chloephaga poliocephala","ispublic":1,"isfriend":0,"isfamily":0},{"id":"49699225242","owner":"154130070@N04","secret":"b6a33a3659","server":"65535","farm":66,"title":"Ashy-headed Goose, Chloephaga poliocephala","ispublic":1,"isfriend":0,"isfamily":0},{"id":"49698385563","owner":"154130070@N04","secret":"567afa1f61","server":"65535","farm":66,"title":"Ashy-headed Goose, Chloephaga poliocephala","ispublic":1,"isfriend":0,"isfamily":0},{"id":"49698385508","owner":"154130070@N04","secret":"a87d4420ae","server":"65535","farm":66,"title":"Ashy-headed Goose, Chloephaga poliocephala","ispublic":1,"isfriend":0,"isfamily":0},{"id":"49558654106","owner":"149956226@N06","secret":"ddff93795a","server":"65535","farm":66,"title":"Cauqu\u00e9n Real (Ashy-Headed Goose)","ispublic":1,"isfriend":0,"isfamily":0},{"id":"49426295602","owner":"21606110@N08","secret":"3a1d9d53d1","server":"65535","farm":66,"title":"Ashy-headed Goose with Upland Geese","ispublic":1,"isfriend":0,"isfamily":0},{"id":"49217752631","owner":"142952595@N08","secret":"d693c919af","server":"65535","farm":66,"title":"Ashy-headed Goose","ispublic":1,"isfriend":0,"isfamily":0},{"id":"48588010137","owner":"128993418@N04","secret":"4bb4a9b56e","server":"65535","farm":66,"title":"Canquen (Chloephaga poliocephala)","ispublic":1,"isfriend":0,"isfamily":0},{"id":"48506576677","owner":"79024073@N06","secret":"f982f02770","server":"65535","farm":66,"title":"Canqu\u00e9n (Chloephaga poliocephala) 002","ispublic":1,"isfriend":0,"isfamily":0},{"id":"48242878231","owner":"104031939@N08","secret":"2044ce4381","server":"65535","farm":66,"title":"Cauqu\u00e9n Real (Chloephaga poliocephala)","ispublic":1,"isfriend":0,"isfamily":0},{"id":"46573406425","owner":"132165466@N08","secret":"0af248c66f","server":"7832","farm":8,"title":"Ashy-headed Goose","ispublic":1,"isfriend":0,"isfamily":0},{"id":"33467126408","owner":"101563641@N03","secret":"53e040a079","server":"7883","farm":8,"title":"Chloephaga poliocephala - CEG_6865","ispublic":1,"isfriend":0,"isfamily":0},{"id":"40254625853","owner":"79024073@N06","secret":"872b23ca94","server":"7916","farm":8,"title":"Canqu\u00e9n (Chloephaga poliocephala) 001","ispublic":1,"isfriend":0,"isfamily":0},{"id":"47187356251","owner":"66492065@N05","secret":"1317340b88","server":"7896","farm":8,"title":"Ganso-de-cabe\u00e7a-cinzenta (Chloephaga poliocephala)","ispublic":1,"isfriend":0,"isfamily":0},{"id":"45900036635","owner":"158952020@N04","secret":"0c3ee2c0d0","server":"4868","farm":5,"title":"Ashy-headed Goose Chloephaga poliocephala, Canquen Comun-8011","ispublic":1,"isfriend":0,"isfamily":0},{"id":"45900036395","owner":"158952020@N04","secret":"d8ca7dfcc2","server":"4861","farm":5,"title":"Ashy-headed Goose Chloephaga poliocephala, Canquen Comun-8028","ispublic":1,"isfriend":0,"isfamily":0},{"id":"45900036035","owner":"158952020@N04","secret":"ddd5b869ed","server":"7852","farm":8,"title":"Ashy-headed Goose Chloephaga poliocephala, Canquen Comun-8051","ispublic":1,"isfriend":0,"isfamily":0},{"id":"46090068064","owner":"158952020@N04","secret":"c96a7c0af7","server":"7852","farm":8,"title":"Ashy-headed Goose Chloephaga poliocephala, Canquen Comun-8454","ispublic":1,"isfriend":0,"isfamily":0},{"id":"45900035615","owner":"158952020@N04","secret":"ae725ec376","server":"7870","farm":8,"title":"Ashy-headed Goose Chloephaga poliocephala, Canquen Comun-8455","ispublic":1,"isfriend":0,"isfamily":0},{"id":"45900035195","owner":"158952020@N04","secret":"057d67b43e","server":"4873","farm":5,"title":"Ashy-headed Goose Chloephaga poliocephala, Canquen Comun-8456","ispublic":1,"isfriend":0,"isfamily":0},{"id":"45900034835","owner":"158952020@N04","secret":"29c18c4ae7","server":"4871","farm":5,"title":"Ashy-headed Goose Chloephaga poliocephala, Canquen Comun-8461","ispublic":1,"isfriend":0,"isfamily":0},{"id":"44593423140","owner":"79024073@N06","secret":"6d19c00de4","server":"4825","farm":5,"title":"Canqu\u00e9n (Chloephaga poliocephala) 002a","ispublic":1,"isfriend":0,"isfamily":0},{"id":"31470751297","owner":"79024073@N06","secret":"0b02fbba07","server":"4852","farm":5,"title":"Canqu\u00e9n (Chloephaga poliocephala) 002","ispublic":1,"isfriend":0,"isfamily":0},{"id":"45188508644","owner":"166051474@N07","secret":"09e1d78ff5","server":"4866","farm":5,"title":"wazo_0481_001","ispublic":1,"isfriend":0,"isfamily":0},{"id":"43899778150","owner":"143364480@N06","secret":"e2840b677f","server":"1950","farm":2,"title":"Caiquenes (Chloephaga poliocephala)","ispublic":1,"isfriend":0,"isfamily":0},{"id":"44589651284","owner":"127345113@N04","secret":"a4801a1c22","server":"1976","farm":2,"title":"Cauquen real - Chloephaga poliocephala","ispublic":1,"isfriend":0,"isfamily":0},{"id":"30879709688","owner":"153183066@N08","secret":"ceb840ede9","server":"1850","farm":2,"title":"Canqu\u00e9n _ Chloephaga poliocephala","ispublic":1,"isfriend":0,"isfamily":0},{"id":"40772082904","owner":"54249623@N08","secret":"dc9f78edf4","server":"891","farm":1,"title":"Ashy-headed Goose (Chloephaga poliocephala)","ispublic":1,"isfriend":0,"isfamily":0},{"id":"39127894390","owner":"145675310@N03","secret":"463d313c83","server":"4788","farm":5,"title":"Canqu\u00e9n","ispublic":1,"isfriend":0,"isfamily":0},{"id":"39127863010","owner":"145675310@N03","secret":"c1d0187a7e","server":"801","farm":1,"title":"Canqu\u00e9n","ispublic":1,"isfriend":0,"isfamily":0},{"id":"40487773821","owner":"145625526@N08","secret":"aa8ae80ca0","server":"4608","farm":5,"title":"Chloephaga poliocephala - canquen comun","ispublic":1,"isfriend":0,"isfamily":0},{"id":"39049286045","owner":"151328407@N03","secret":"35ecdb6100","server":"4621","farm":5,"title":"Chile-Przyl\u0105dek Horn Magelanka siwog\u0142owa (Chloephaga poliocephala)","ispublic":1,"isfriend":0,"isfamily":0},{"id":"39904320372","owner":"61316002@N02","secret":"f9d1fe8df1","server":"4664","farm":5,"title":"ASHHEAGOO 0210","ispublic":1,"isfriend":0,"isfamily":0},{"id":"39512069612","owner":"141716616@N03","secret":"85d5a154a1","server":"4641","farm":5,"title":"Caiquenes (Chloephaga picta) y Canqu\u00e9n com\u00fan (Chloephaga poliocephala)","ispublic":1,"isfriend":0,"isfamily":0}]},"stat":"ok"}