{"photos":{"page":1,"pages":7,"perpage":100,"total":634,"photo":[{"id":"52790806227","owner":"68466173@N02","secret":"6d6e1e6bf8","server":"65535","farm":66,"title":"Tufted Duck (Aythya fuligula)","ispublic":1,"isfriend":0,"isfamily":0},{"id":"52786272749","owner":"68466173@N02","secret":"9a5c11597f","server":"65535","farm":66,"title":"Common Pochard (Aythya ferina)","ispublic":1,"isfriend":0,"isfamily":0},{"id":"52767568740","owner":"68466173@N02","secret":"c30da144f9","server":"65535","farm":66,"title":"Common Pochard (Aythya ferina)","ispublic":1,"isfriend":0,"isfamily":0},{"id":"52767405744","owner":"68466173@N02","secret":"92ab46fbae","server":"65535","farm":66,"title":"Common Pochard (Aythya ferina)","ispublic":1,"isfriend":0,"isfamily":0},{"id":"52734756746","owner":"68466173@N02","secret":"3c9f94edf3","server":"65535","farm":66,"title":"Ferruginous Pochard (Aythya nyroca)","ispublic":1,"isfriend":0,"isfamily":0},{"id":"52735234233","owner":"68466173@N02","secret":"2076837291","server":"65535","farm":66,"title":"Tufted Duck (Aythya fuligula)","ispublic":1,"isfriend":0,"isfamily":0},{"id":"52734751596","owner":"68466173@N02","secret":"26c3ee2776","server":"65535","farm":66,"title":"Common Pochard (Aythya ferina)","ispublic":1,"isfriend":0,"isfamily":0},{"id":"52695098504","owner":"68466173@N02","secret":"d147b4d39e","server":"65535","farm":66,"title":"Common Pochard (Aythya ferina)","ispublic":1,"isfriend":0,"isfamily":0},{"id":"52669723388","owner":"68466173@N02","secret":"6722d4a657","server":"65535","farm":66,"title":"Tufted Duck (Aythya fuligula)","ispublic":1,"isfriend":0,"isfamily":0},{"id":"52668158550","owner":"68466173@N02","secret":"6d57a54dcf","server":"65535","farm":66,"title":"Common Pochard (Aythya ferina)","ispublic":1,"isfriend":0,"isfamily":0},{"id":"52653038518","owner":"68466173@N02","secret":"68472fa9da","server":"65535","farm":66,"title":"Tufted Duck (Aythya fuligula)","ispublic":1,"isfriend":0,"isfamily":0},{"id":"52622034186","owner":"71393709@N06","secret":"ab5bac93b6","server":"65535","farm":66,"title":"Bath time for a male Tufted duck (Aythya fuligula)  -  (Published by GETTY IMAGES)","ispublic":1,"isfriend":0,"isfamily":0},{"id":"52621161713","owner":"68466173@N02","secret":"3accd8affd","server":"65535","farm":66,"title":"Tufted Duck (Aythya fuligula)","ispublic":1,"isfriend":0,"isfamily":0},{"id":"52615582514","owner":"68466173@N02","secret":"5234620c1e","server":"65535","farm":66,"title":"Common Pochard (Aythya ferina)","ispublic":1,"isfriend":0,"isfamily":0},{"id":"52615618565","owner":"197304485@N07","secret":"c898bfebf2","server":"65535","farm":66,"title":"Redhead Duck ( Aythya sp.)","ispublic":1,"isfriend":0,"isfamily":0},{"id":"52611331898","owner":"39511843@N07","secret":"a38382a0c4","server":"65535","farm":66,"title":"20221230-Greater Scaup (Arthya marila) female-1-","ispublic":1,"isfriend":0,"isfamily":0},{"id":"52611262880","owner":"39511843@N07","secret":"aafcccfeea","server":"65535","farm":66,"title":"20221230-Greater Scaup (Arthya marila) female-4-5638","ispublic":1,"isfriend":0,"isfamily":0},{"id":"52610336752","owner":"39511843@N07","secret":"92c77e59c7","server":"65535","farm":66,"title":"20221230-Greater Scaup (Arthya marila) female-3-","ispublic":1,"isfriend":0,"isfamily":0},{"id":"52610841406","owner":"39511843@N07","secret":"9e1ac6ecca","server":"65535","farm":66,"title":"20221230-Greater Scaup (Arthya marila) female-5-","ispublic":1,"isfriend":0,"isfamily":0},{"id":"52611331893","owner":"39511843@N07","secret":"53bc6eeca1","server":"65535","farm":66,"title":"20221230-Greater Scaup (Arthya marila) female-2-","ispublic":1,"isfriend":0,"isfamily":0},{"id":"52593029347","owner":"68466173@N02","secret":"97ca9d7b52","server":"65535","farm":66,"title":"Tufted Duck (Aythya fuligula)","ispublic":1,"isfriend":0,"isfamily":0},{"id":"52571179885","owner":"68466173@N02","secret":"b5d70e153e","server":"65535","farm":66,"title":"Common Pochard (Aythya ferina)","ispublic":1,"isfriend":0,"isfamily":0},{"id":"52571176540","owner":"68466173@N02","secret":"b5f9352861","server":"65535","farm":66,"title":"Ferruginous Pochard (Aythya nyroca)","ispublic":1,"isfriend":0,"isfamily":0},{"id":"52560508975","owner":"68466173@N02","secret":"71c13d26b0","server":"65535","farm":66,"title":"Common Pochard (Aythya ferina)","ispublic":1,"isfriend":0,"isfamily":0},{"id":"52567040713","owner":"68466173@N02","secret":"c2b992fc32","server":"65535","farm":66,"title":"Tufted Duck (Aythya fuligula)","ispublic":1,"isfriend":0,"isfamily":0},{"id":"52551039025","owner":"68466173@N02","secret":"d7eda904ff","server":"65535","farm":66,"title":"Tufted Duck (Aythya fuligula)","ispublic":1,"isfriend":0,"isfamily":0},{"id":"52550566006","owner":"68466173@N02","secret":"eb232377c9","server":"65535","farm":66,"title":"Common Pochard (Aythya ferina)","ispublic":1,"isfriend":0,"isfamily":0},{"id":"52534253175","owner":"68466173@N02","secret":"a2d38ce606","server":"65535","farm":66,"title":"Tufted Duck (Aythya fuligula)","ispublic":1,"isfriend":0,"isfamily":0},{"id":"52519188059","owner":"68466173@N02","secret":"d3c6bd2108","server":"65535","farm":66,"title":"Common Pochard (Aythya ferina)","ispublic":1,"isfriend":0,"isfamily":0},{"id":"52516161317","owner":"68466173@N02","secret":"eaf70972d4","server":"65535","farm":66,"title":"Common Pochard (Aythya ferina)","ispublic":1,"isfriend":0,"isfamily":0},{"id":"52506519465","owner":"68466173@N02","secret":"9307229432","server":"65535","farm":66,"title":"Tufted Duck (Aythya fuligula)","ispublic":1,"isfriend":0,"isfamily":0},{"id":"52447892816","owner":"94814431@N02","secret":"4b148050f3","server":"65535","farm":66,"title":"Porr\u00f3n bastardo (Aythya marila). Greater scaup.","ispublic":1,"isfriend":0,"isfamily":0},{"id":"52447826449","owner":"94814431@N02","secret":"11de667b29","server":"65535","farm":66,"title":"Porr\u00f3n bastardo (Aythya marila). Greater scaup.","ispublic":1,"isfriend":0,"isfamily":0},{"id":"52442489579","owner":"68466173@N02","secret":"4cd3f2604b","server":"65535","farm":66,"title":"Common Pochard (Aythya ferina)","ispublic":1,"isfriend":0,"isfamily":0},{"id":"52377375416","owner":"68466173@N02","secret":"647ba51000","server":"65535","farm":66,"title":"Red-crested Pochard (Netta rufina) & Tufted Duck (Aythya fuligula)","ispublic":1,"isfriend":0,"isfamily":0},{"id":"52350731922","owner":"71393709@N06","secret":"07a18d92be","server":"65535","farm":66,"title":"Male Tufted duck (Aythya fuligula)  -  (Published by GETTY IMAGES)","ispublic":1,"isfriend":0,"isfamily":0},{"id":"52316580228","owner":"68466173@N02","secret":"12fc15de4c","server":"65535","farm":66,"title":"Common Pochard (Aythya ferina)","ispublic":1,"isfriend":0,"isfamily":0},{"id":"52286080867","owner":"68466173@N02","secret":"23a36785a8","server":"65535","farm":66,"title":"Eurasian Wigeon (Anas penelope), Common Pochard (Aythya ferina) & Gadwall (Anas strepera)","ispublic":1,"isfriend":0,"isfamily":0},{"id":"52270306743","owner":"68466173@N02","secret":"87e109e0cc","server":"65535","farm":66,"title":"Tufted Duck (Aythya fuligula)","ispublic":1,"isfriend":0,"isfamily":0},{"id":"52223453754","owner":"68466173@N02","secret":"ecc6f9d44b","server":"65535","farm":66,"title":"Common Pochard (Aythya ferina)","ispublic":1,"isfriend":0,"isfamily":0},{"id":"52212717525","owner":"68466173@N02","secret":"2ca60b378a","server":"65535","farm":66,"title":"Common Pochard (Aythya ferina)","ispublic":1,"isfriend":0,"isfamily":0},{"id":"52149400169","owner":"68466173@N02","secret":"ba1db5c3ab","server":"65535","farm":66,"title":"Tufted Duck (Aythya fuligula)","ispublic":1,"isfriend":0,"isfamily":0},{"id":"52149159216","owner":"68466173@N02","secret":"b699cbf16a","server":"65535","farm":66,"title":"Common Pochard (Aythya ferina)","ispublic":1,"isfriend":0,"isfamily":0},{"id":"52129727000","owner":"34238008@N02","secret":"dbb830dd06","server":"65535","farm":66,"title":"Ring-necked Duck (Aythya collaris)","ispublic":1,"isfriend":0,"isfamily":0},{"id":"52115598379","owner":"68466173@N02","secret":"941085c2da","server":"65535","farm":66,"title":"Common Pochard (Aythya ferina)","ispublic":1,"isfriend":0,"isfamily":0},{"id":"52115393168","owner":"68466173@N02","secret":"ab90e98f33","server":"65535","farm":66,"title":"Tufted Duck (Aythya fuligula)","ispublic":1,"isfriend":0,"isfamily":0},{"id":"52100841321","owner":"68466173@N02","secret":"4bfbe1c79b","server":"65535","farm":66,"title":"Ferruginous Pochard (Aythya nyroca)","ispublic":1,"isfriend":0,"isfamily":0},{"id":"52100871003","owner":"68466173@N02","secret":"74067ec54b","server":"65535","farm":66,"title":"Common Pochard (Aythya ferina)","ispublic":1,"isfriend":0,"isfamily":0},{"id":"52099810187","owner":"68466173@N02","secret":"2c0165ba9a","server":"65535","farm":66,"title":"Tufted Duck (Aythya fuligula)","ispublic":1,"isfriend":0,"isfamily":0},{"id":"52081050668","owner":"68466173@N02","secret":"087f624461","server":"65535","farm":66,"title":"Ferruginous Pochard (Aythya nyroca)","ispublic":1,"isfriend":0,"isfamily":0},{"id":"52081268939","owner":"68466173@N02","secret":"5804ba5869","server":"65535","farm":66,"title":"Common Pochard (Aythya ferina)","ispublic":1,"isfriend":0,"isfamily":0},{"id":"52079984462","owner":"68466173@N02","secret":"98b456eb8d","server":"65535","farm":66,"title":"Tufted Duck (Aythya fuligula)","ispublic":1,"isfriend":0,"isfamily":0},{"id":"52055819531","owner":"68466173@N02","secret":"b328d56dc5","server":"65535","farm":66,"title":"Tufted Duck (Aythya fuligula)","ispublic":1,"isfriend":0,"isfamily":0},{"id":"52056305010","owner":"68466173@N02","secret":"79f19091cf","server":"65535","farm":66,"title":"Northern Pintail (Anas acuta) & Common Pochard (Aythya ferina)","ispublic":1,"isfriend":0,"isfamily":0},{"id":"52045459490","owner":"145373566@N06","secret":"fbe3c095ab","server":"65535","farm":66,"title":"Je l'aurais avant toi !","ispublic":1,"isfriend":0,"isfamily":0},{"id":"52032667556","owner":"68466173@N02","secret":"c7fdf307c0","server":"65535","farm":66,"title":"Common Pochard (Aythya ferina)","ispublic":1,"isfriend":0,"isfamily":0},{"id":"52033187060","owner":"68466173@N02","secret":"c07199f416","server":"65535","farm":66,"title":"Tufted Duck (Aythya fuligula)","ispublic":1,"isfriend":0,"isfamily":0},{"id":"51998907389","owner":"68466173@N02","secret":"68edbd4c2b","server":"65535","farm":66,"title":"Tufted Duck (Aythya fuligula)","ispublic":1,"isfriend":0,"isfamily":0},{"id":"51989175884","owner":"68466173@N02","secret":"3786c50b7a","server":"65535","farm":66,"title":"Common Pochard (Aythya ferina)","ispublic":1,"isfriend":0,"isfamily":0},{"id":"51933725973","owner":"68466173@N02","secret":"301d819e7a","server":"65535","farm":66,"title":"Common Pochard (Aythya ferina)","ispublic":1,"isfriend":0,"isfamily":0},{"id":"51916461563","owner":"68466173@N02","secret":"2c6789158e","server":"65535","farm":66,"title":"Tufted Duck (Aythya fuligula)","ispublic":1,"isfriend":0,"isfamily":0},{"id":"51912938995","owner":"68466173@N02","secret":"5ae49351f7","server":"65535","farm":66,"title":"Common Pochard (Aythya ferina)","ispublic":1,"isfriend":0,"isfamily":0},{"id":"51893518510","owner":"68466173@N02","secret":"9092dbe2ed","server":"65535","farm":66,"title":"Tufted Duck (Aythya fuligula)","ispublic":1,"isfriend":0,"isfamily":0},{"id":"51891908357","owner":"68466173@N02","secret":"a703c7d546","server":"65535","farm":66,"title":"Common Pochard (Aythya ferina)","ispublic":1,"isfriend":0,"isfamily":0},{"id":"51875326186","owner":"68466173@N02","secret":"a1a2d75956","server":"65535","farm":66,"title":"Tufted Duck (Aythya fuligula)","ispublic":1,"isfriend":0,"isfamily":0},{"id":"51868032238","owner":"68466173@N02","secret":"78447e87c5","server":"65535","farm":66,"title":"Eurasian Wigeon (Anas penelope), Eurasian Coot (Fulica atra), Common Pochard (Aythya ferina) & Gadwall (Anas strepera)","ispublic":1,"isfriend":0,"isfamily":0},{"id":"51868266289","owner":"68466173@N02","secret":"4731a78dca","server":"65535","farm":66,"title":"Common Pochard (Aythya ferina) & Tufted Duck (Aythya fuligula)","ispublic":1,"isfriend":0,"isfamily":0},{"id":"51862973343","owner":"68466173@N02","secret":"8b0ce71faa","server":"65535","farm":66,"title":"Tufted Duck (Aythya fuligula)","ispublic":1,"isfriend":0,"isfamily":0},{"id":"51862973283","owner":"68466173@N02","secret":"8399b80913","server":"65535","farm":66,"title":"Common Pochard (Aythya ferina)","ispublic":1,"isfriend":0,"isfamily":0},{"id":"51851255708","owner":"28867468@N08","secret":"419b7e0c8a","server":"65535","farm":66,"title":"Scaup in the Surf","ispublic":1,"isfriend":0,"isfamily":0},{"id":"51838962548","owner":"68466173@N02","secret":"b6472d5f4a","server":"65535","farm":66,"title":"Tufted Duck (Aythya fuligula)","ispublic":1,"isfriend":0,"isfamily":0},{"id":"51832543516","owner":"68466173@N02","secret":"db0f982ca1","server":"65535","farm":66,"title":"Common Pochard (Aythya ferina) & Tufted Duck (Aythya fuligula)","ispublic":1,"isfriend":0,"isfamily":0},{"id":"51831595187","owner":"68466173@N02","secret":"f3a478acef","server":"65535","farm":66,"title":"Eurasian Wigeon (Anas penelope), Eurasian Coot (Fulica atra), Common Pochard (Aythya ferina) & Gadwall (Anas strepera)","ispublic":1,"isfriend":0,"isfamily":0},{"id":"51828980848","owner":"68466173@N02","secret":"b5dd1c495b","server":"65535","farm":66,"title":"Common Pochard (Aythya ferina)","ispublic":1,"isfriend":0,"isfamily":0},{"id":"51828980668","owner":"68466173@N02","secret":"e0617c783c","server":"65535","farm":66,"title":"Tufted Duck (Aythya fuligula) & Common Pochard (Aythya ferina)","ispublic":1,"isfriend":0,"isfamily":0},{"id":"51816019285","owner":"68466173@N02","secret":"b880c0e62f","server":"65535","farm":66,"title":"Tufted Duck (Aythya fuligula)","ispublic":1,"isfriend":0,"isfamily":0},{"id":"51815645079","owner":"68466173@N02","secret":"ef3959960e","server":"65535","farm":66,"title":"Common Pochard (Aythya ferina)","ispublic":1,"isfriend":0,"isfamily":0},{"id":"51808287710","owner":"68466173@N02","secret":"581fd80df3","server":"65535","farm":66,"title":"Tufted Duck (Aythya fuligula)","ispublic":1,"isfriend":0,"isfamily":0},{"id":"51800085375","owner":"68466173@N02","secret":"c7eb24c1ac","server":"65535","farm":66,"title":"Red-crested Pochard (Netta rufina), Common Pochard (Aythya ferina) & Tufted Duck (Aythya fuligula)","ispublic":1,"isfriend":0,"isfamily":0},{"id":"51795380441","owner":"68466173@N02","secret":"6a2d1c198c","server":"65535","farm":66,"title":"Ferruginous Pochard (Aythya nyroca)","ispublic":1,"isfriend":0,"isfamily":0},{"id":"51795749144","owner":"68466173@N02","secret":"d5ec1e4608","server":"65535","farm":66,"title":"Tufted Duck (Aythya fuligula) & Eurasian Coot (Fulica atra)","ispublic":1,"isfriend":0,"isfamily":0},{"id":"51793334269","owner":"68466173@N02","secret":"9b37a1940b","server":"65535","farm":66,"title":"Common Pochard (Aythya ferina)","ispublic":1,"isfriend":0,"isfamily":0},{"id":"51707006191","owner":"68466173@N02","secret":"5db4dd8df1","server":"65535","farm":66,"title":"Common Pochard (Aythya ferina)","ispublic":1,"isfriend":0,"isfamily":0},{"id":"51707005341","owner":"68466173@N02","secret":"88c315e538","server":"65535","farm":66,"title":"Tufted Duck (Aythya fuligula)","ispublic":1,"isfriend":0,"isfamily":0},{"id":"51681527457","owner":"68466173@N02","secret":"8baafff091","server":"65535","farm":66,"title":"Common Pochard (Aythya ferina) & Tufted Duck (Aythya fuligula)","ispublic":1,"isfriend":0,"isfamily":0},{"id":"51681526707","owner":"68466173@N02","secret":"affcc84f0c","server":"65535","farm":66,"title":"Tufted Duck (Aythya fuligula), Eurasian Coot (Fulica atra) & Eurasian Wigeon (Anas penelope)","ispublic":1,"isfriend":0,"isfamily":0},{"id":"51670235000","owner":"68466173@N02","secret":"6760fd5d67","server":"65535","farm":66,"title":"Tufted Duck (Aythya fuligula)","ispublic":1,"isfriend":0,"isfamily":0},{"id":"51669355236","owner":"68466173@N02","secret":"8d5d83a33e","server":"65535","farm":66,"title":"Mallard (Anas platyrhynchos) & Tufted Duck (Aythya fuligula)","ispublic":1,"isfriend":0,"isfamily":0},{"id":"51670234715","owner":"68466173@N02","secret":"f045ed683c","server":"65535","farm":66,"title":"Gadwall (Anas strepera), Eurasian Wigeon (Anas penelope) & Common Pochard (Aythya ferina)","ispublic":1,"isfriend":0,"isfamily":0},{"id":"51669353991","owner":"68466173@N02","secret":"892a188cde","server":"65535","farm":66,"title":"Common Pochard (Aythya ferina)","ispublic":1,"isfriend":0,"isfamily":0},{"id":"51669593983","owner":"68466173@N02","secret":"e99a4071ec","server":"65535","farm":66,"title":"Bar-headed Goose (Anser indicus) & Tufted Duck (Aythya fuligula)","ispublic":1,"isfriend":0,"isfamily":0},{"id":"51658900480","owner":"68466173@N02","secret":"9344aa857c","server":"65535","farm":66,"title":"Tufted Duck (Aythya fuligula)","ispublic":1,"isfriend":0,"isfamily":0},{"id":"51658899870","owner":"68466173@N02","secret":"cdb039b5d8","server":"65535","farm":66,"title":"Common Pochard (Aythya ferina) & Tufted Duck (Aythya fuligula)","ispublic":1,"isfriend":0,"isfamily":0},{"id":"52610841416","owner":"39511843@N07","secret":"f96d589327","server":"65535","farm":66,"title":"20221230-Greater Scaup (Arthya marila)-","ispublic":1,"isfriend":0,"isfamily":0},{"id":"51894720354","owner":"134270033@N06","secret":"6e5c6506d7","server":"0","farm":0,"title":"Vid.Doc. :: Behaviour.Displays & Audio","ispublic":1,"isfriend":0,"isfamily":0},{"id":"52532208743","owner":"38021841@N08","secret":"0aa71ca2f6","server":"65535","farm":66,"title":"DSCN0156 2022.11.21 Aythya sp. SagQuarries, Cook Cty, IL","ispublic":1,"isfriend":0,"isfamily":0},{"id":"52530780700","owner":"38021841@N08","secret":"9be45271e3","server":"0","farm":0,"title":"DSCN0190 2022.11.21 VIDEO Aythya sp size compared to Shovelers n Mallards SagQuarries","ispublic":1,"isfriend":0,"isfamily":0},{"id":"52245144574","owner":"112710795@N04","secret":"5ac342bd53","server":"65535","farm":66,"title":"Aythya sp.","ispublic":1,"isfriend":0,"isfamily":0},{"id":"52129726170","owner":"34238008@N02","secret":"8d1b8fe9d6","server":"65535","farm":66,"title":"Redhead (Aythya americana)","ispublic":1,"isfriend":0,"isfamily":0},{"id":"52044946501","owner":"145373566@N06","secret":"3fb443ef7c","server":"65535","farm":66,"title":"Casse toi elle est \u00e0 moi!","ispublic":1,"isfriend":0,"isfamily":0}]},"stat":"ok"}