{"photos":{"page":1,"pages":2,"perpage":100,"total":183,"photo":[{"id":"52638830754","owner":"38514062@N03","secret":"25d7708f95","server":"65535","farm":66,"title":"Bachman's Sparrow (Peucaea aestivalis)","ispublic":1,"isfriend":0,"isfamily":0},{"id":"52432581750","owner":"38514062@N03","secret":"c021040056","server":"65535","farm":66,"title":"Bachman's Sparrow (Peucaea aestivalis) on Coastalplain Staggerbush","ispublic":1,"isfriend":0,"isfamily":0},{"id":"52232025696","owner":"8065544@N08","secret":"3b6237a560","server":"65535","farm":66,"title":"Bachman's Sparrow (Peucaea aestivalis)","ispublic":1,"isfriend":0,"isfamily":0},{"id":"52225968327","owner":"71649471@N02","secret":"cf470175d9","server":"65535","farm":66,"title":"Bachman's Sparrow","ispublic":1,"isfriend":0,"isfamily":0},{"id":"50992312542","owner":"131779834@N08","secret":"6177b42488","server":"65535","farm":66,"title":"Looking for friends...","ispublic":1,"isfriend":0,"isfamily":0},{"id":"51908811669","owner":"33573751@N04","secret":"70db220c1e","server":"65535","farm":66,"title":"Bachman's Sparrow (Peucaea aestivalis) - Indian River County, Florida","ispublic":1,"isfriend":0,"isfamily":0},{"id":"51906983457","owner":"33573751@N04","secret":"1cf521b332","server":"65535","farm":66,"title":"Bachman's Sparrow (Peucaea aestivalis) - Indian River County, Florida","ispublic":1,"isfriend":0,"isfamily":0},{"id":"51907129606","owner":"33573751@N04","secret":"4ef46f44c3","server":"65535","farm":66,"title":"Bachman's Sparrow (Peucaea aestivalis) - Indian River County, Florida","ispublic":1,"isfriend":0,"isfamily":0},{"id":"51906120449","owner":"33573751@N04","secret":"2394d4f11b","server":"65535","farm":66,"title":"Bachman's Sparrow (Peucaea aestivalis) - Indian River County, Florida","ispublic":1,"isfriend":0,"isfamily":0},{"id":"51358009061","owner":"65788177@N02","secret":"eedc856359","server":"65535","farm":66,"title":"Bachman's Sparrow","ispublic":1,"isfriend":0,"isfamily":0},{"id":"51277922504","owner":"61021753@N02","secret":"4410543da1","server":"65535","farm":66,"title":"n442_w1150","ispublic":1,"isfriend":0,"isfamily":0},{"id":"51148583453","owner":"79383179@N03","secret":"e0b4b98e07","server":"65535","farm":66,"title":"Bachman's Sparrow (Peucaea aestivalis)","ispublic":1,"isfriend":0,"isfamily":0},{"id":"51144251766","owner":"79383179@N03","secret":"573e60521d","server":"65535","farm":66,"title":"Bachman's Sparrow (Peucaea aestivalis)","ispublic":1,"isfriend":0,"isfamily":0},{"id":"51055966061","owner":"8086030@N03","secret":"98062ae2ed","server":"65535","farm":66,"title":"Bachman's Sparrow, Peucaea aestivalis","ispublic":1,"isfriend":0,"isfamily":0},{"id":"51056043422","owner":"8086030@N03","secret":"f6abe7e00c","server":"65535","farm":66,"title":"Bachman's Sparrow, Peucaea aestivalis","ispublic":1,"isfriend":0,"isfamily":0},{"id":"51020753066","owner":"33573751@N04","secret":"478d227899","server":"65535","farm":66,"title":"Bachman's Sparrow Portrait - Final crop, St. Sebastian River Preserve, Florida, USA","ispublic":1,"isfriend":0,"isfamily":0},{"id":"51020752141","owner":"33573751@N04","secret":"d3d094e4f5","server":"65535","farm":66,"title":"Bachman's Sparrow - Cropped, St. Sebastian River Preserve, Florida, USA","ispublic":1,"isfriend":0,"isfamily":0},{"id":"51020834777","owner":"33573751@N04","secret":"00fd6babf1","server":"65535","farm":66,"title":"Bachman's Sparrow - Original Photo, St. Sebastian River Preserve, Florida, USA","ispublic":1,"isfriend":0,"isfamily":0},{"id":"50994440087","owner":"131779834@N08","secret":"3b2e168bc7","server":"65535","farm":66,"title":"Bachman's Sparrow","ispublic":1,"isfriend":0,"isfamily":0},{"id":"51005116276","owner":"33573751@N04","secret":"afd9fdbcc5","server":"65535","farm":66,"title":"Bachman's Sparrow (Peucaea aestivalis) - South Sebastian River State Preserve, Florida, USA","ispublic":1,"isfriend":0,"isfamily":0},{"id":"51004383003","owner":"33573751@N04","secret":"4c83541194","server":"65535","farm":66,"title":"Bachman's Sparrow (Peucaea aestivalis) - South Sebastian River State Preserve, Florida, USA","ispublic":1,"isfriend":0,"isfamily":0},{"id":"51005170922","owner":"33573751@N04","secret":"218e14f029","server":"65535","farm":66,"title":"Bachman's Sparrow (Peucaea aestivalis) - South Sebastian River State Preserve, Florida, USA","ispublic":1,"isfriend":0,"isfamily":0},{"id":"51004340713","owner":"33573751@N04","secret":"93e1332d1b","server":"65535","farm":66,"title":"Bachman's Sparrow (Peucaea aestivalis) - South Sebastian River State Preserve, Florida, USA","ispublic":1,"isfriend":0,"isfamily":0},{"id":"50903792791","owner":"123979267@N05","secret":"922effa291","server":"65535","farm":66,"title":"Bachman's Sparrow","ispublic":1,"isfriend":0,"isfamily":0},{"id":"50402781077","owner":"38514062@N03","secret":"fc0bbed7cd","server":"65535","farm":66,"title":"Bachman's Sparrow (Peucaea aestivalis)","ispublic":1,"isfriend":0,"isfamily":0},{"id":"50145157827","owner":"61021753@N02","secret":"8458826165","server":"65535","farm":66,"title":"n388_w1150","ispublic":1,"isfriend":0,"isfamily":0},{"id":"50144909721","owner":"61021753@N02","secret":"8252048118","server":"65535","farm":66,"title":"n250_w1150","ispublic":1,"isfriend":0,"isfamily":0},{"id":"50103713918","owner":"187469698@N05","secret":"146e319d45","server":"65535","farm":66,"title":"1240 Bachman's Sparrow - Andrew Walker 001","ispublic":1,"isfriend":0,"isfamily":0},{"id":"49973184346","owner":"65788177@N02","secret":"134971c7fa","server":"65535","farm":66,"title":"Bachman's Sparrow","ispublic":1,"isfriend":0,"isfamily":0},{"id":"49725870901","owner":"90816109@N04","secret":"bc28c1eb47","server":"65535","farm":66,"title":"Bachman's Sparrow","ispublic":1,"isfriend":0,"isfamily":0},{"id":"49699089981","owner":"131779834@N08","secret":"a1a1c11935","server":"65535","farm":66,"title":"Bachman's Sparrow","ispublic":1,"isfriend":0,"isfamily":0},{"id":"49613707472","owner":"65788177@N02","secret":"b87ab6c07c","server":"65535","farm":66,"title":"Bachman's Sparrow","ispublic":1,"isfriend":0,"isfamily":0},{"id":"49590468642","owner":"22163926@N05","secret":"76031c9fa7","server":"65535","farm":66,"title":"Bachman's Sparrow?","ispublic":1,"isfriend":0,"isfamily":0},{"id":"48987451477","owner":"39908764@N05","secret":"98c9ac65dd","server":"65535","farm":66,"title":"Historic (purple) and current (red) range of the longleaf pine forests.","ispublic":1,"isfriend":0,"isfamily":0},{"id":"48429995017","owner":"65788177@N02","secret":"00232165c4","server":"65535","farm":66,"title":"Bachman's Sparrow","ispublic":1,"isfriend":0,"isfamily":0},{"id":"48390260321","owner":"46459046@N05","secret":"7747345af0","server":"65535","farm":66,"title":"Bachman's Sparrow","ispublic":1,"isfriend":0,"isfamily":0},{"id":"48349613266","owner":"38514062@N03","secret":"13ef250839","server":"65535","farm":66,"title":"Bachman's Sparrow (Peucaea aestivalis)","ispublic":1,"isfriend":0,"isfamily":0},{"id":"33881926168","owner":"48014585@N00","secret":"1ee220b5a1","server":"65535","farm":66,"title":"Bachman's Sparrow","ispublic":1,"isfriend":0,"isfamily":0},{"id":"43214469914","owner":"48793602@N07","secret":"93379c7a0e","server":"849","farm":1,"title":"Croom WMA Bachman's Sparrow 08-05-2018","ispublic":1,"isfriend":0,"isfamily":0},{"id":"42437076004","owner":"11090004@N05","secret":"c9d256987a","server":"1805","farm":2,"title":"Bachman's Sparrow","ispublic":1,"isfriend":0,"isfamily":0},{"id":"41663065094","owner":"65788177@N02","secret":"d46586129b","server":"1741","farm":2,"title":"Bachman's Sparrow","ispublic":1,"isfriend":0,"isfamily":0},{"id":"40981850275","owner":"153584064@N07","secret":"1429e49541","server":"824","farm":1,"title":"Bachman's Finch from Birds of America (1827) by John James Audubon (1785 - 1851), etched by Robert Havell (1793 - 1878). The original Birds of America is the most expensive printed book in the world and a truly awe-inspiring classic.","ispublic":1,"isfriend":0,"isfamily":0},{"id":"38915393894","owner":"33573751@N04","secret":"d45c54fbb6","server":"4699","farm":5,"title":"Ver 2 - Bachman's Sparrow (Peucaea aestivalis) - Sebastian, Florida","ispublic":1,"isfriend":0,"isfamily":0},{"id":"27845958249","owner":"33573751@N04","secret":"60facecbfb","server":"4672","farm":5,"title":"Bachman's Sparrow (Peucaea aestivalis) - Sebastian, Florida","ispublic":1,"isfriend":0,"isfamily":0},{"id":"24170281178","owner":"156513724@N05","secret":"8d089d6157","server":"4460","farm":5,"title":"Bachman's Sparrow","ispublic":1,"isfriend":0,"isfamily":0},{"id":"36950846345","owner":"40928097@N07","secret":"a8829c5f30","server":"4382","farm":5,"title":"Bachman's Sparrow","ispublic":1,"isfriend":0,"isfamily":0},{"id":"36779612712","owner":"40928097@N07","secret":"52dd9e0179","server":"4370","farm":5,"title":"Bachman's Sparrow","ispublic":1,"isfriend":0,"isfamily":0},{"id":"36116277714","owner":"40928097@N07","secret":"a3a41e4188","server":"4360","farm":5,"title":"Bachman's Sparrow","ispublic":1,"isfriend":0,"isfamily":0},{"id":"36855740665","owner":"89953135@N07","secret":"a077ae551a","server":"4385","farm":5,"title":"Bachman's Sparrow","ispublic":1,"isfriend":0,"isfamily":0},{"id":"34470779226","owner":"104269801@N02","secret":"d7045bfe85","server":"4168","farm":5,"title":"Bachman's Sparrow (Peucaea aestivalis)","ispublic":1,"isfriend":0,"isfamily":0},{"id":"34351167942","owner":"104269801@N02","secret":"09ded98f6a","server":"4173","farm":5,"title":"Bachman's Sparrow (Peucaea aestivalis)","ispublic":1,"isfriend":0,"isfamily":0},{"id":"34279020325","owner":"50520319@N04","secret":"c320d5b730","server":"2805","farm":3,"title":"Bachman's Sparrow (Adult)","ispublic":1,"isfriend":0,"isfamily":0},{"id":"33210552033","owner":"45681418@N03","secret":"bd022e6ac9","server":"2946","farm":3,"title":"Bachman's Sparrow (Peucaea aestivalis)","ispublic":1,"isfriend":0,"isfamily":0},{"id":"33179803634","owner":"45681418@N03","secret":"dc4a04fc7b","server":"2927","farm":3,"title":"Bachman's Sparrow (Peucaea aestivalis)","ispublic":1,"isfriend":0,"isfamily":0},{"id":"33087697791","owner":"65788177@N02","secret":"283cfda099","server":"3907","farm":4,"title":"Bachman's Sparrow","ispublic":1,"isfriend":0,"isfamily":0},{"id":"31854436435","owner":"60295555@N06","secret":"cba85b2b23","server":"495","farm":1,"title":"Bachman's Sparrow (Peucaea aestivalis)","ispublic":1,"isfriend":0,"isfamily":0},{"id":"28191851041","owner":"50520319@N04","secret":"99bdb26080","server":"8622","farm":9,"title":"Bachman's Sparrow (Adult Male)","ispublic":1,"isfriend":0,"isfamily":0},{"id":"52580774490","owner":"153973412@N04","secret":"a054e87778","server":"65535","farm":66,"title":"Bachmann's Sparrow-Peucaea aestivalis, Jonathan Dickinson, FL","ispublic":1,"isfriend":0,"isfamily":0},{"id":"52329277158","owner":"86521802@N00","secret":"3456e2b29b","server":"65535","farm":66,"title":"Bachman's Sparrow (Peucaea aestivalis)","ispublic":1,"isfriend":0,"isfamily":0},{"id":"52026948871","owner":"38514062@N03","secret":"f176613597","server":"65535","farm":66,"title":"Bachman's Sparrow (Peucaea aestivalis)","ispublic":1,"isfriend":0,"isfamily":0},{"id":"51916064768","owner":"39617069@N08","secret":"5a7fc19a3c","server":"65535","farm":66,"title":"Bachman's Sparrow","ispublic":1,"isfriend":0,"isfamily":0},{"id":"51893153498","owner":"79666906@N05","secret":"b41f689e4c","server":"65535","farm":66,"title":"Bachman's Sparrow","ispublic":1,"isfriend":0,"isfamily":0},{"id":"48329126052","owner":"69947563@N07","secret":"dd9f915ec0","server":"65535","farm":66,"title":"Bachman's Sparrow - South Florida","ispublic":1,"isfriend":0,"isfamily":0},{"id":"33921193958","owner":"48014585@N00","secret":"6e4f37abed","server":"65535","farm":66,"title":"Bachman's Sparrow","ispublic":1,"isfriend":0,"isfamily":0},{"id":"33921192608","owner":"48014585@N00","secret":"d51c4ce93a","server":"65535","farm":66,"title":"P1020068.jpg","ispublic":1,"isfriend":0,"isfamily":0},{"id":"32854734777","owner":"48014585@N00","secret":"6b2db63f7a","server":"65535","farm":66,"title":"Bachman's Sparrow","ispublic":1,"isfriend":0,"isfamily":0},{"id":"47745937802","owner":"48014585@N00","secret":"c8681b1aab","server":"65535","farm":66,"title":"Bachman's Sparrow","ispublic":1,"isfriend":0,"isfamily":0},{"id":"47745937282","owner":"48014585@N00","secret":"65db3d467a","server":"65535","farm":66,"title":"Bachman's Sparrow","ispublic":1,"isfriend":0,"isfamily":0},{"id":"46881903535","owner":"48014585@N00","secret":"ae6293d811","server":"65535","farm":66,"title":"Bachman's Sparrow","ispublic":1,"isfriend":0,"isfamily":0},{"id":"32854728657","owner":"48014585@N00","secret":"2f526ea58a","server":"65535","farm":66,"title":"P1020065.jpg","ispublic":1,"isfriend":0,"isfamily":0},{"id":"33881929558","owner":"48014585@N00","secret":"b51c02023a","server":"65535","farm":66,"title":"Bachman's Sparrow","ispublic":1,"isfriend":0,"isfamily":0},{"id":"47706363612","owner":"48014585@N00","secret":"96453807a0","server":"65535","farm":66,"title":"Bachman's Sparrow","ispublic":1,"isfriend":0,"isfamily":0},{"id":"32815398217","owner":"48014585@N00","secret":"44ebf369a2","server":"65535","farm":66,"title":"Bachman's Sparrow","ispublic":1,"isfriend":0,"isfamily":0},{"id":"46969720564","owner":"48014585@N00","secret":"5f335edc75","server":"65535","farm":66,"title":"Bachman's Sparrow","ispublic":1,"isfriend":0,"isfamily":0},{"id":"40792510073","owner":"48014585@N00","secret":"1da26e3c16","server":"65535","farm":66,"title":"Bachman's Sparrow","ispublic":1,"isfriend":0,"isfamily":0},{"id":"32815397617","owner":"48014585@N00","secret":"af9e4d9670","server":"65535","farm":66,"title":"Bachman's Sparrow","ispublic":1,"isfriend":0,"isfamily":0},{"id":"40792508033","owner":"48014585@N00","secret":"4873582998","server":"65535","farm":66,"title":"Bachman's Sparrow","ispublic":1,"isfriend":0,"isfamily":0},{"id":"47759033631","owner":"48014585@N00","secret":"69e40341bb","server":"65535","farm":66,"title":"Bachman's Sparrow","ispublic":1,"isfriend":0,"isfamily":0},{"id":"46969715734","owner":"48014585@N00","secret":"7ee6ea5a86","server":"65535","farm":66,"title":"Bachman's Sparrow","ispublic":1,"isfriend":0,"isfamily":0},{"id":"46969412434","owner":"48014585@N00","secret":"dddba9d912","server":"65535","farm":66,"title":"Bachman's Sparrow","ispublic":1,"isfriend":0,"isfamily":0},{"id":"47758721461","owner":"48014585@N00","secret":"53963db940","server":"65535","farm":66,"title":"Bachman's Sparrow","ispublic":1,"isfriend":0,"isfamily":0},{"id":"47758720991","owner":"48014585@N00","secret":"2a4af694fd","server":"65535","farm":66,"title":"Bachman's Sparrow","ispublic":1,"isfriend":0,"isfamily":0},{"id":"46969410684","owner":"48014585@N00","secret":"a7ee61733b","server":"65535","farm":66,"title":"Bachman's Sparrow","ispublic":1,"isfriend":0,"isfamily":0},{"id":"46911950912","owner":"46546816@N04","secret":"e8df44e79f","server":"4875","farm":5,"title":"Bachman's Sparrow","ispublic":1,"isfriend":0,"isfamily":0},{"id":"43214475474","owner":"48793602@N07","secret":"edc7320ef3","server":"1778","farm":2,"title":"Croom WMA Bachman's Sparrow 08-05-2018","ispublic":1,"isfriend":0,"isfamily":0},{"id":"43933070191","owner":"48793602@N07","secret":"cf0bac7319","server":"938","farm":1,"title":"Croom WMA Bachman's Sparrow 08-05-2018","ispublic":1,"isfriend":0,"isfamily":0},{"id":"41724281814","owner":"92958335@N03","secret":"0bc9cc1631","server":"1748","farm":2,"title":"Bachman's Sparrow, Babcock-Webb, 070518","ispublic":1,"isfriend":0,"isfamily":0},{"id":"27195221947","owner":"144305930@N07","secret":"c05beea654","server":"957","farm":1,"title":"Bachman's Sparrow (Peucaea aestivalis)","ispublic":1,"isfriend":0,"isfamily":0},{"id":"41913312762","owner":"21796065@N03","secret":"74833864e1","server":"962","farm":1,"title":"Bachman's Sparrow","ispublic":1,"isfriend":0,"isfamily":0},{"id":"36950841745","owner":"40928097@N07","secret":"ecbb4722a1","server":"4346","farm":5,"title":"Bachman's Sparrow","ispublic":1,"isfriend":0,"isfamily":0},{"id":"35578898255","owner":"19623720@N00","secret":"49c281000f","server":"4216","farm":5,"title":"Hark! A Lifer Sings","ispublic":1,"isfriend":0,"isfamily":0},{"id":"33502099513","owner":"134018738@N05","secret":"543ba53563","server":"4178","farm":5,"title":"Bachmans Sparrow (Peucaea aestivalis)","ispublic":1,"isfriend":0,"isfamily":0},{"id":"33416847263","owner":"7531046@N07","secret":"aefe80af1e","server":"2824","farm":3,"title":"Bachman's Sparrow","ispublic":1,"isfriend":0,"isfamily":0},{"id":"33316911045","owner":"48793602@N07","secret":"869e04e665","server":"630","farm":1,"title":"Croom WMA Bachman's Sparrow 03-04-2017","ispublic":1,"isfriend":0,"isfamily":0},{"id":"33273805085","owner":"48793602@N07","secret":"1821640b95","server":"3739","farm":4,"title":"Croom WMA Bachman's Sparrow 03-04-2017","ispublic":1,"isfriend":0,"isfamily":0},{"id":"33145630551","owner":"48793602@N07","secret":"67ce1340b8","server":"2858","farm":3,"title":"Croom WMA Bachman's Sparrow 03-04-2017 (34 of 38)","ispublic":1,"isfriend":0,"isfamily":0},{"id":"31854429255","owner":"60295555@N06","secret":"b570af7b8c","server":"272","farm":1,"title":"Bachman's Sparrow (Peucaea aestivalis)","ispublic":1,"isfriend":0,"isfamily":0},{"id":"30807502101","owner":"43440320@N04","secret":"586a1c5184","server":"5659","farm":6,"title":"Bachman's Sparrow","ispublic":1,"isfriend":0,"isfamily":0},{"id":"29304383762","owner":"28571815@N06","secret":"d87cf9f700","server":"8276","farm":9,"title":"Bachman's Sparrow","ispublic":1,"isfriend":0,"isfamily":0},{"id":"27661830050","owner":"131708321@N02","secret":"8eae2f5b52","server":"7241","farm":8,"title":"Bachman's Sparrow (Peucaea aestivalis), Croatan National Forest, North Carolina","ispublic":1,"isfriend":0,"isfamily":0}]},"stat":"ok"}