{"photos":{"page":1,"pages":526,"perpage":100,"total":52528,"photo":[{"id":"52792885308","owner":"33982546@N05","secret":"570ec7708e","server":"65535","farm":66,"title":"This is How to Fly (1 of 1)","ispublic":1,"isfriend":0,"isfamily":0},{"id":"52792824738","owner":"197628215@N07","secret":"ea70e2ca71","server":"65535","farm":66,"title":"Jim is one handsome fellow \ud83d\ude0a Bald Eagle (Haliaeetus leucocephalus)  03\/10\/2023 - 03\/12\/2023 #baldeagle #eagle #bestbackroad #bestbackroads #natgeoyourshots #natgeo100contest #natgeo #rutlandcountyvt #washingtoncountyny #whitehallny #wildphotography","ispublic":1,"isfriend":0,"isfamily":0},{"id":"52791977896","owner":"51819896@N04","secret":"3efc1b18bc","server":"65535","farm":66,"title":"Resident bald eagle on patrol - Mt. Loretto Pond, Staten Island, New York","ispublic":1,"isfriend":0,"isfamily":0},{"id":"52792193485","owner":"23859768@N04","secret":"7999fe5f6b","server":"65535","farm":66,"title":"bald eagle (Haliaeetus leucocephalus)","ispublic":1,"isfriend":0,"isfamily":0},{"id":"52792247118","owner":"23859768@N04","secret":"e40d0993e4","server":"65535","farm":66,"title":"bald eagle (Haliaeetus leucocephalus)","ispublic":1,"isfriend":0,"isfamily":0},{"id":"52792193205","owner":"23859768@N04","secret":"a1990c768b","server":"65535","farm":66,"title":"bald eagle (Haliaeetus leucocephalus), immature","ispublic":1,"isfriend":0,"isfamily":0},{"id":"52791242957","owner":"23859768@N04","secret":"320f25cda8","server":"65535","farm":66,"title":"bald eagle (Haliaeetus leucocephalus), immature","ispublic":1,"isfriend":0,"isfamily":0},{"id":"52792032989","owner":"85277889@N08","secret":"51e77f2005","server":"65535","farm":66,"title":"Bald Eagle (Haliaeetus leucocephalus) 2023-04-03 (4)","ispublic":1,"isfriend":0,"isfamily":0},{"id":"52792190060","owner":"85277889@N08","secret":"30da0a383e","server":"65535","farm":66,"title":"Bald Eagle (Haliaeetus leucocephalus) 2023-04-03 (7)","ispublic":1,"isfriend":0,"isfamily":0},{"id":"52792032764","owner":"85277889@N08","secret":"5451d4c4cf","server":"65535","farm":66,"title":"Bald Eagle (Haliaeetus leucocephalus) 2023-04-03 (10)","ispublic":1,"isfriend":0,"isfamily":0},{"id":"52791616246","owner":"23859768@N04","secret":"db4fc3d3f5","server":"65535","farm":66,"title":"bald eagle (Haliaeetus leucocephalus)","ispublic":1,"isfriend":0,"isfamily":0},{"id":"52791418653","owner":"46837385@N03","secret":"b69077e3d0","server":"65535","farm":66,"title":"Bald Eagle","ispublic":1,"isfriend":0,"isfamily":0},{"id":"52791062558","owner":"44904157@N04","secret":"6ec80b0cec","server":"65535","farm":66,"title":"Conehead","ispublic":1,"isfriend":0,"isfamily":0},{"id":"52790461118","owner":"68679361@N05","secret":"b0f5915e51","server":"65535","farm":66,"title":"20230402-DSC_9057.jpg","ispublic":1,"isfriend":0,"isfamily":0},{"id":"52790244224","owner":"68679361@N05","secret":"b830ce1baa","server":"65535","farm":66,"title":"20230402-DSC_9054.jpg","ispublic":1,"isfriend":0,"isfamily":0},{"id":"52790460808","owner":"68679361@N05","secret":"cba3eb69b6","server":"65535","farm":66,"title":"20230402-DSC_9048.jpg","ispublic":1,"isfriend":0,"isfamily":0},{"id":"52789452407","owner":"68679361@N05","secret":"c4afbeb056","server":"65535","farm":66,"title":"20230402-DSC_9020.jpg","ispublic":1,"isfriend":0,"isfamily":0},{"id":"52790401205","owner":"68679361@N05","secret":"184836fe21","server":"65535","farm":66,"title":"20230402-DSC_8871.jpg","ispublic":1,"isfriend":0,"isfamily":0},{"id":"52789449002","owner":"68679361@N05","secret":"4d17466491","server":"65535","farm":66,"title":"20230402-DSC_8866.jpg","ispublic":1,"isfriend":0,"isfamily":0},{"id":"52790456833","owner":"68679361@N05","secret":"d9ecb6ca95","server":"65535","farm":66,"title":"20230402-DSC_8848.jpg","ispublic":1,"isfriend":0,"isfamily":0},{"id":"52789448767","owner":"68679361@N05","secret":"b945b651af","server":"65535","farm":66,"title":"20230402-DSC_8834.jpg","ispublic":1,"isfriend":0,"isfamily":0},{"id":"52789448667","owner":"68679361@N05","secret":"2dc7122fa0","server":"65535","farm":66,"title":"20230402-DSC_8827.jpg","ispublic":1,"isfriend":0,"isfamily":0},{"id":"52790456493","owner":"68679361@N05","secret":"5802a67793","server":"65535","farm":66,"title":"20230402-DSC_8823.jpg","ispublic":1,"isfriend":0,"isfamily":0},{"id":"52790400530","owner":"68679361@N05","secret":"99672ab169","server":"65535","farm":66,"title":"20230402-DSC_8820.jpg","ispublic":1,"isfriend":0,"isfamily":0},{"id":"52790400405","owner":"68679361@N05","secret":"09c321512a","server":"65535","farm":66,"title":"20230402-DSC_8815.jpg","ispublic":1,"isfriend":0,"isfamily":0},{"id":"52789448232","owner":"68679361@N05","secret":"b4a5345735","server":"65535","farm":66,"title":"20230402-DSC_8811.jpg","ispublic":1,"isfriend":0,"isfamily":0},{"id":"52789448092","owner":"68679361@N05","secret":"388215d351","server":"65535","farm":66,"title":"20230402-DSC_8807.jpg","ispublic":1,"isfriend":0,"isfamily":0},{"id":"52790400045","owner":"68679361@N05","secret":"1d4975df3d","server":"65535","farm":66,"title":"20230402-DSC_8806.jpg","ispublic":1,"isfriend":0,"isfamily":0},{"id":"52790455668","owner":"68679361@N05","secret":"4c676bf2e6","server":"65535","farm":66,"title":"20230402-DSC_8805.jpg","ispublic":1,"isfriend":0,"isfamily":0},{"id":"52790238789","owner":"68679361@N05","secret":"84493283ce","server":"65535","farm":66,"title":"20230402-DSC_8804.jpg","ispublic":1,"isfriend":0,"isfamily":0},{"id":"52790455283","owner":"68679361@N05","secret":"56d714ca0a","server":"65535","farm":66,"title":"20230402-DSC_8803.jpg","ispublic":1,"isfriend":0,"isfamily":0},{"id":"52790005156","owner":"68679361@N05","secret":"56b2235e70","server":"65535","farm":66,"title":"20230402-DSC_8802.jpg","ispublic":1,"isfriend":0,"isfamily":0},{"id":"52790455048","owner":"68679361@N05","secret":"b174a3c454","server":"65535","farm":66,"title":"20230402-DSC_8801.jpg","ispublic":1,"isfriend":0,"isfamily":0},{"id":"52790399225","owner":"68679361@N05","secret":"ab1baa5a84","server":"65535","farm":66,"title":"20230402-DSC_8797.jpg","ispublic":1,"isfriend":0,"isfamily":0},{"id":"52789446982","owner":"68679361@N05","secret":"aa36492773","server":"65535","farm":66,"title":"20230402-DSC_8795.jpg","ispublic":1,"isfriend":0,"isfamily":0},{"id":"52789446872","owner":"68679361@N05","secret":"34d9956735","server":"65535","farm":66,"title":"20230402-DSC_8793.jpg","ispublic":1,"isfriend":0,"isfamily":0},{"id":"52790454368","owner":"68679361@N05","secret":"d38372fc00","server":"65535","farm":66,"title":"20230402-DSC_8789.jpg","ispublic":1,"isfriend":0,"isfamily":0},{"id":"52790236484","owner":"68679361@N05","secret":"529632fafd","server":"65535","farm":66,"title":"20230401-DSC_8676.jpg","ispublic":1,"isfriend":0,"isfamily":0},{"id":"52790205774","owner":"16943730@N00","secret":"3422062fb2","server":"65535","farm":66,"title":"Bald Eagle","ispublic":1,"isfriend":0,"isfamily":0},{"id":"52789444550","owner":"198024963@N07","secret":"24bf2abb49","server":"65535","farm":66,"title":"Bald Eagle","ispublic":1,"isfriend":0,"isfamily":0},{"id":"52789281159","owner":"198024963@N07","secret":"e203fcb6c9","server":"65535","farm":66,"title":"Bald Eagle","ispublic":1,"isfriend":0,"isfamily":0},{"id":"52789440505","owner":"198024963@N07","secret":"8c5f02a690","server":"65535","farm":66,"title":"Bald Eagle","ispublic":1,"isfriend":0,"isfamily":0},{"id":"52788319797","owner":"198024963@N07","secret":"0c886a2db3","server":"65535","farm":66,"title":"Bald Eagle","ispublic":1,"isfriend":0,"isfamily":0},{"id":"52789321613","owner":"198024963@N07","secret":"c4ed1488fe","server":"65535","farm":66,"title":"Bald Eagle","ispublic":1,"isfriend":0,"isfamily":0},{"id":"52788867966","owner":"198024963@N07","secret":"71f0d3596e","server":"65535","farm":66,"title":"Bald Eagle","ispublic":1,"isfriend":0,"isfamily":0},{"id":"52788787996","owner":"198024963@N07","secret":"ba57cf4052","server":"65535","farm":66,"title":"Bald Eagle","ispublic":1,"isfriend":0,"isfamily":0},{"id":"52789019979","owner":"198024963@N07","secret":"fe4fede5b8","server":"65535","farm":66,"title":"Bald Eagle","ispublic":1,"isfriend":0,"isfamily":0},{"id":"52788787561","owner":"198024963@N07","secret":"771dfc9ec1","server":"65535","farm":66,"title":"Bald Eagle","ispublic":1,"isfriend":0,"isfamily":0},{"id":"52789080090","owner":"30638967@N03","secret":"0bb2e93fe1","server":"65535","farm":66,"title":"Bald Eagles DSC_6305","ispublic":1,"isfriend":0,"isfamily":0},{"id":"52789139598","owner":"30638967@N03","secret":"5053d161a9","server":"65535","farm":66,"title":"Bald Eagle DSC_6319","ispublic":1,"isfriend":0,"isfamily":0},{"id":"52788686416","owner":"30638967@N03","secret":"42a16fde94","server":"65535","farm":66,"title":"Bald Eagle DSC_6329","ispublic":1,"isfriend":0,"isfamily":0},{"id":"52789079155","owner":"30638967@N03","secret":"daf4aaa0a9","server":"65535","farm":66,"title":"Bald Eagle DSC_6337","ispublic":1,"isfriend":0,"isfamily":0},{"id":"52788132462","owner":"30638967@N03","secret":"97469c13b3","server":"65535","farm":66,"title":"Bald Eagle DSC_6384","ispublic":1,"isfriend":0,"isfamily":0},{"id":"52787717367","owner":"135315828@N06","secret":"4b7584eb84","server":"65535","farm":66,"title":"bald eagle nest","ispublic":1,"isfriend":0,"isfamily":0},{"id":"52787717402","owner":"135315828@N06","secret":"4eccd4f51d","server":"65535","farm":66,"title":"bald eagle nest","ispublic":1,"isfriend":0,"isfamily":0},{"id":"52787386666","owner":"191731601@N04","secret":"6ed0885fa6","server":"65535","farm":66,"title":"American Bald Eagle","ispublic":1,"isfriend":0,"isfamily":0},{"id":"52787617134","owner":"191731601@N04","secret":"177d409ecc","server":"65535","farm":66,"title":"American Bald Eagle","ispublic":1,"isfriend":0,"isfamily":0},{"id":"52786830202","owner":"191731601@N04","secret":"229a204552","server":"65535","farm":66,"title":"Golden Eagle","ispublic":1,"isfriend":0,"isfamily":0},{"id":"52785321198","owner":"131779834@N08","secret":"5ee6f4fb0d","server":"65535","farm":66,"title":"The Egyptian God Ra","ispublic":1,"isfriend":0,"isfamily":0},{"id":"52786962699","owner":"128537732@N06","secret":"6e483d2ba2","server":"65535","farm":66,"title":"Bald Eagles (Haliaeetus leucocephalus)","ispublic":1,"isfriend":0,"isfamily":0},{"id":"52786230034","owner":"67164820@N06","secret":"1cea2a86af","server":"65535","farm":66,"title":"eagle 3","ispublic":1,"isfriend":0,"isfamily":0},{"id":"52785997486","owner":"67164820@N06","secret":"08f3c024e1","server":"65535","farm":66,"title":"eagle 2","ispublic":1,"isfriend":0,"isfamily":0},{"id":"52785997446","owner":"67164820@N06","secret":"38398037c6","server":"65535","farm":66,"title":"eagle","ispublic":1,"isfriend":0,"isfamily":0},{"id":"52785698871","owner":"187245476@N05","secret":"4527a474b9","server":"65535","farm":66,"title":"BALD EAGLE juvenile (Haliaeetus leucocephalus)","ispublic":1,"isfriend":0,"isfamily":0},{"id":"52785997293","owner":"190055527@N05","secret":"3790b9f9e2","server":"65535","farm":66,"title":"2023-03-29 On the Wing-6238","ispublic":1,"isfriend":0,"isfamily":0},{"id":"52785781274","owner":"190055527@N05","secret":"db312f9548","server":"65535","farm":66,"title":"2023-03-29 Spring Flight-6236","ispublic":1,"isfriend":0,"isfamily":0},{"id":"52785400096","owner":"75116064@N04","secret":"6ecc4812b8","server":"65535","farm":66,"title":"Bald eagle","ispublic":1,"isfriend":0,"isfamily":0},{"id":"52784805585","owner":"71833159@N00","secret":"89c3b252dc","server":"65535","farm":66,"title":"Bald Eagle \/ Haliaeetus leucocephalus","ispublic":1,"isfriend":0,"isfamily":0},{"id":"52784407276","owner":"71833159@N00","secret":"80aa1ec8fd","server":"65535","farm":66,"title":"Bald Eagle \/ Haliaeetus leucocephalus","ispublic":1,"isfriend":0,"isfamily":0},{"id":"52783852502","owner":"71833159@N00","secret":"0f63c63668","server":"65535","farm":66,"title":"Bald Eagle \/ Haliaeetus leucocephalus - a closer look","ispublic":1,"isfriend":0,"isfamily":0},{"id":"52783472912","owner":"63695436@N05","secret":"75d14d11c6","server":"65535","farm":66,"title":"So close!","ispublic":1,"isfriend":0,"isfamily":0},{"id":"52782332422","owner":"30638967@N03","secret":"08abc084d1","server":"65535","farm":66,"title":"Bald Eagle DSC_4919","ispublic":1,"isfriend":0,"isfamily":0},{"id":"52783278090","owner":"30638967@N03","secret":"43d19bcc07","server":"65535","farm":66,"title":"Bald Eagle DSC_4937","ispublic":1,"isfriend":0,"isfamily":0},{"id":"52783278005","owner":"30638967@N03","secret":"3ed9f2f9e9","server":"65535","farm":66,"title":"Bald Eagle DSC_4944","ispublic":1,"isfriend":0,"isfamily":0},{"id":"52782332132","owner":"30638967@N03","secret":"21eb5c1934","server":"65535","farm":66,"title":"Bald Eagle DSC_4952","ispublic":1,"isfriend":0,"isfamily":0},{"id":"52783277805","owner":"30638967@N03","secret":"3952f99474","server":"65535","farm":66,"title":"Bald Eagle DSC_4963","ispublic":1,"isfriend":0,"isfamily":0},{"id":"52783337473","owner":"30638967@N03","secret":"b8b15aa65b","server":"65535","farm":66,"title":"Bald Eagle DSC_4967","ispublic":1,"isfriend":0,"isfamily":0},{"id":"52782876146","owner":"30638967@N03","secret":"1ce0ed6a23","server":"65535","farm":66,"title":"Bald Eagle DSC_4979","ispublic":1,"isfriend":0,"isfamily":0},{"id":"52782876041","owner":"30638967@N03","secret":"9d8d38788e","server":"65535","farm":66,"title":"Bald Eagle DSC_4993","ispublic":1,"isfriend":0,"isfamily":0},{"id":"52783117214","owner":"30638967@N03","secret":"b531023d66","server":"65535","farm":66,"title":"Bald Eagle DSC_4997","ispublic":1,"isfriend":0,"isfamily":0},{"id":"52783337168","owner":"30638967@N03","secret":"921ef7f5e8","server":"65535","farm":66,"title":"Bald Eagle DSC_4998","ispublic":1,"isfriend":0,"isfamily":0},{"id":"52783337053","owner":"30638967@N03","secret":"904f80498e","server":"65535","farm":66,"title":"Bald Eagle DSC_5029","ispublic":1,"isfriend":0,"isfamily":0},{"id":"52783277100","owner":"30638967@N03","secret":"ddf225b8f0","server":"65535","farm":66,"title":"Bald Eagle DSC_5053","ispublic":1,"isfriend":0,"isfamily":0},{"id":"52782331217","owner":"30638967@N03","secret":"d671c76763","server":"65535","farm":66,"title":"Bald Eagle DSC_5065","ispublic":1,"isfriend":0,"isfamily":0},{"id":"52782875491","owner":"30638967@N03","secret":"6d401dab5b","server":"65535","farm":66,"title":"Bald Eagle DSC_5069","ispublic":1,"isfriend":0,"isfamily":0},{"id":"52783116654","owner":"30638967@N03","secret":"a6e9260d05","server":"65535","farm":66,"title":"Bald Eagle DSC_5075","ispublic":1,"isfriend":0,"isfamily":0},{"id":"52782875376","owner":"30638967@N03","secret":"6a6fb09777","server":"65535","farm":66,"title":"Bald Eagles DSC_5094","ispublic":1,"isfriend":0,"isfamily":0},{"id":"52783116349","owner":"30638967@N03","secret":"e2c38078e7","server":"65535","farm":66,"title":"Bald Eagles DSC_5131","ispublic":1,"isfriend":0,"isfamily":0},{"id":"52783336393","owner":"30638967@N03","secret":"bede8dfd62","server":"65535","farm":66,"title":"Bald Eagles DSC_5167","ispublic":1,"isfriend":0,"isfamily":0},{"id":"52783276390","owner":"30638967@N03","secret":"2c126c19a6","server":"65535","farm":66,"title":"Bald Eagle DSC_5176","ispublic":1,"isfriend":0,"isfamily":0},{"id":"52782875011","owner":"30638967@N03","secret":"df0a148b03","server":"65535","farm":66,"title":"Bald Eagles DSC_5183","ispublic":1,"isfriend":0,"isfamily":0},{"id":"52783276270","owner":"30638967@N03","secret":"8b48e608af","server":"65535","farm":66,"title":"Bald Eagle DSC_5193","ispublic":1,"isfriend":0,"isfamily":0},{"id":"52783276185","owner":"30638967@N03","secret":"ca1d4a122f","server":"65535","farm":66,"title":"Bald Eagle DSC_5217","ispublic":1,"isfriend":0,"isfamily":0},{"id":"52783276100","owner":"30638967@N03","secret":"6ff61286cd","server":"65535","farm":66,"title":"Bald Eagle DSC_5226","ispublic":1,"isfriend":0,"isfamily":0},{"id":"52782330417","owner":"30638967@N03","secret":"217fbbf7c5","server":"65535","farm":66,"title":"Bald Eagle DSC_5243","ispublic":1,"isfriend":0,"isfamily":0},{"id":"52782874691","owner":"30638967@N03","secret":"585b1a1aea","server":"65535","farm":66,"title":"Bald Eagle DSC_5245","ispublic":1,"isfriend":0,"isfamily":0},{"id":"52783335873","owner":"30638967@N03","secret":"9542fe5ea6","server":"65535","farm":66,"title":"Bald Eagle DSC_5250","ispublic":1,"isfriend":0,"isfamily":0},{"id":"52783115729","owner":"30638967@N03","secret":"daac187d04","server":"65535","farm":66,"title":"Bald Eagle DSC_5274","ispublic":1,"isfriend":0,"isfamily":0},{"id":"52782330167","owner":"30638967@N03","secret":"484ef27997","server":"65535","farm":66,"title":"Bald Eagle DSC_5275","ispublic":1,"isfriend":0,"isfamily":0},{"id":"52783275715","owner":"30638967@N03","secret":"00f03593cf","server":"65535","farm":66,"title":"Bald Eagle DSC_5278","ispublic":1,"isfriend":0,"isfamily":0}]},"stat":"ok"}