{"photos":{"page":1,"pages":12,"perpage":100,"total":1153,"photo":[{"id":"52776766556","owner":"29287337@N02","secret":"1e02cef277","server":"65535","farm":66,"title":"Indonesia - 200 Rupiah - 2003","ispublic":1,"isfriend":0,"isfamily":0},{"id":"52769951651","owner":"84942480@N03","secret":"638aae167e","server":"65535","farm":66,"title":"\u00c9tourneau de Rothschild - Leucopsar rothschildi  Stresemann, 1912 - Sturnidae - INDONESIE","ispublic":1,"isfriend":0,"isfamily":0},{"id":"52750219902","owner":"64045479@N05","secret":"2967fe532a","server":"65535","farm":66,"title":"Bali Starling - Leucopsar rothschildi","ispublic":1,"isfriend":0,"isfamily":0},{"id":"52728433209","owner":"45109166@N00","secret":"56140e6a38","server":"65535","farm":66,"title":"Leucopsar rothschildi","ispublic":1,"isfriend":0,"isfamily":0},{"id":"52668669557","owner":"129269872@N04","secret":"c6142e21f3","server":"65535","farm":66,"title":"Balistar","ispublic":1,"isfriend":0,"isfamily":0},{"id":"52668663287","owner":"129269872@N04","secret":"56f7c158bc","server":"65535","farm":66,"title":"Balistar","ispublic":1,"isfriend":0,"isfamily":0},{"id":"52650725626","owner":"128208742@N06","secret":"19fe95766f","server":"65535","farm":66,"title":"Bali Myna, Leucopsar rothschildi","ispublic":1,"isfriend":0,"isfamily":0},{"id":"52625162463","owner":"53951676@N04","secret":"b7347d202c","server":"65535","farm":66,"title":"Jalak Bali, Bali Starling, Storno di Bali","ispublic":1,"isfriend":0,"isfamily":0},{"id":"52624167372","owner":"53951676@N04","secret":"c645d978fb","server":"65535","farm":66,"title":"Jalak Bali, Bali Starling, Storno di Bali giovani esemplari","ispublic":1,"isfriend":0,"isfamily":0},{"id":"52620725698","owner":"10476547@N02","secret":"96ef85dc0d","server":"65535","farm":66,"title":"The Happy Happy Bali Myna (Leucopsar rothschildi) - critically endangered","ispublic":1,"isfriend":0,"isfamily":0},{"id":"52601090972","owner":"40195635@N03","secret":"c72774e3fb","server":"65535","farm":66,"title":"Bali Myna (Leucopsar rothschildi)","ispublic":1,"isfriend":0,"isfamily":0},{"id":"52602098173","owner":"40195635@N03","secret":"9bbe331c12","server":"65535","farm":66,"title":"Bali Myna (Leucopsar rothschildi)","ispublic":1,"isfriend":0,"isfamily":0},{"id":"52602010875","owner":"40195635@N03","secret":"108e2cf3d0","server":"65535","farm":66,"title":"Bali Myna (Leucopsar rothschildi)","ispublic":1,"isfriend":0,"isfamily":0},{"id":"52577326783","owner":"40195635@N03","secret":"9897ed3737","server":"65535","farm":66,"title":"Bali Myna (Leucopsar rothschildi)","ispublic":1,"isfriend":0,"isfamily":0},{"id":"52577326678","owner":"40195635@N03","secret":"dbe2966e5b","server":"65535","farm":66,"title":"Bali Myna (Leucopsar rothschildi)","ispublic":1,"isfriend":0,"isfamily":0},{"id":"52514954819","owner":"19145980@N00","secret":"f36c8c2910","server":"65535","farm":66,"title":"Bali myna","ispublic":1,"isfriend":0,"isfamily":0},{"id":"52509335214","owner":"19145980@N00","secret":"671b61577d","server":"65535","farm":66,"title":"Bali Myna","ispublic":1,"isfriend":0,"isfamily":0},{"id":"52508581897","owner":"19145980@N00","secret":"e4020cbfde","server":"65535","farm":66,"title":"Bali Myna","ispublic":1,"isfriend":0,"isfamily":0},{"id":"52506129911","owner":"19145980@N00","secret":"89813cf299","server":"65535","farm":66,"title":"Bali Myna","ispublic":1,"isfriend":0,"isfamily":0},{"id":"52506129961","owner":"19145980@N00","secret":"cf471b2bce","server":"65535","farm":66,"title":"Bali Myna","ispublic":1,"isfriend":0,"isfamily":0},{"id":"52506403289","owner":"19145980@N00","secret":"2c029c071e","server":"65535","farm":66,"title":"Bali Myna","ispublic":1,"isfriend":0,"isfamily":0},{"id":"52494578219","owner":"171333438@N08","secret":"b6fb650fcc","server":"65535","farm":66,"title":"Martin de Rothschild (Leucopsar rothschildi)","ispublic":1,"isfriend":0,"isfamily":0},{"id":"52494843708","owner":"171333438@N08","secret":"e37101ea90","server":"65535","farm":66,"title":"Martin de Rothschild (Leucopsar rothschildi)","ispublic":1,"isfriend":0,"isfamily":0},{"id":"52392013518","owner":"10476547@N02","secret":"e1320f73a5","server":"65535","farm":66,"title":"Bali Myna (very very rare) caught a cockroach","ispublic":1,"isfriend":0,"isfamily":0},{"id":"52380941909","owner":"29253094@N02","secret":"d48fb252e5","server":"65535","farm":66,"title":"Tierpark D\u00e4hlh\u00f6lzli","ispublic":1,"isfriend":0,"isfamily":0},{"id":"52374826944","owner":"60395108@N02","secret":"7ff1f01167","server":"65535","farm":66,"title":"DSC_1083","ispublic":1,"isfriend":0,"isfamily":0},{"id":"52373569657","owner":"60395108@N02","secret":"d01a349029","server":"65535","farm":66,"title":"DSC_1087","ispublic":1,"isfriend":0,"isfamily":0},{"id":"52374515371","owner":"60395108@N02","secret":"cd1499cfcb","server":"65535","farm":66,"title":"DSC_1088","ispublic":1,"isfriend":0,"isfamily":0},{"id":"52374931095","owner":"60395108@N02","secret":"636fa907c3","server":"65535","farm":66,"title":"DSC_1103","ispublic":1,"isfriend":0,"isfamily":0},{"id":"52370634456","owner":"98682992@N00","secret":"7fa1fe141d","server":"65535","farm":66,"title":"HKR55357","ispublic":1,"isfriend":0,"isfamily":0},{"id":"52327949783","owner":"123597211@N03","secret":"1ed3dd5284","server":"65535","farm":66,"title":"Balistar (Leucopsar rothschildi)","ispublic":1,"isfriend":0,"isfamily":0},{"id":"52328000134","owner":"123597211@N03","secret":"803ecbdf5e","server":"65535","farm":66,"title":"Balistar (Leucopsar rothschildi)","ispublic":1,"isfriend":0,"isfamily":0},{"id":"52310937365","owner":"84152923@N08","secret":"85ec9b88fe","server":"65535","farm":66,"title":"balispreeuw - Leucopsar rothschildi - Bali Myna","ispublic":1,"isfriend":0,"isfamily":0},{"id":"52278849896","owner":"195422039@N05","secret":"fe1dc3d3c7","server":"65535","farm":66,"title":"Sapphire haze","ispublic":1,"isfriend":0,"isfamily":0},{"id":"52220463284","owner":"98682992@N00","secret":"7c354ac60c","server":"65535","farm":66,"title":"HKR78638-","ispublic":1,"isfriend":0,"isfamily":0},{"id":"52220351434","owner":"98682992@N00","secret":"a6b57bfac5","server":"65535","farm":66,"title":"HKR78582","ispublic":1,"isfriend":0,"isfamily":0},{"id":"52123802716","owner":"60395108@N02","secret":"5c796bf596","server":"65535","farm":66,"title":"70 (1)","ispublic":1,"isfriend":0,"isfamily":0},{"id":"52092728243","owner":"12530381@N07","secret":"bd13171481","server":"65535","farm":66,"title":"Bali Myna (Leucopsar rothschildi) (4\/22\/2022)","ispublic":1,"isfriend":0,"isfamily":0},{"id":"52074914317","owner":"128208742@N06","secret":"6052e3b256","server":"65535","farm":66,"title":"Bali Myna, Leucopsar rothschildi","ispublic":1,"isfriend":0,"isfamily":0},{"id":"52033908568","owner":"84152923@N08","secret":"50c23d8c96","server":"65535","farm":66,"title":"balispreeuw - Leucopsar rothschildi - Bali Myna","ispublic":1,"isfriend":0,"isfamily":0},{"id":"51954556526","owner":"84152923@N08","secret":"f1501779bc","server":"65535","farm":66,"title":"balispreeuw - Leucopsar rothschildi - Bali Myna","ispublic":1,"isfriend":0,"isfamily":0},{"id":"51793023452","owner":"145890134@N05","secret":"da98606532","server":"65535","farm":66,"title":"Bali starling | Balispreeuw | Bali-Star","ispublic":1,"isfriend":0,"isfamily":0},{"id":"51673291195","owner":"158438800@N02","secret":"bae2d76223","server":"65535","farm":66,"title":"2017-03-30 AT Wien 22 Donaustadt, Palmenhaus Hirschstetten, Leucopsar rothschildi","ispublic":1,"isfriend":0,"isfamily":0},{"id":"51670485198","owner":"158438800@N02","secret":"9e688d6fcc","server":"65535","farm":66,"title":"2017-03-30 AT Wien 22 Donaustadt, Palmenhaus Hirschstetten, Leucopsar rothschildi","ispublic":1,"isfriend":0,"isfamily":0},{"id":"51670243541","owner":"158438800@N02","secret":"6a72161c0a","server":"65535","farm":66,"title":"2017-03-30 AT Wien 22 Donaustadt, Palmenhaus Hirschstetten, Leucopsar rothschildi","ispublic":1,"isfriend":0,"isfamily":0},{"id":"52669449109","owner":"129269872@N04","secret":"ea9dd28852","server":"65535","farm":66,"title":"Balistar","ispublic":1,"isfriend":0,"isfamily":0},{"id":"52624168352","owner":"53951676@N04","secret":"7bf2fa63df","server":"65535","farm":66,"title":"Jalak Bali, Bali Starling, Storno di Bali","ispublic":1,"isfriend":0,"isfamily":0},{"id":"52374827199","owner":"60395108@N02","secret":"8f8ffb0338","server":"65535","farm":66,"title":"DSC_1044","ispublic":1,"isfriend":0,"isfamily":0},{"id":"52374931590","owner":"60395108@N02","secret":"67edd453a2","server":"65535","farm":66,"title":"DSC_1047","ispublic":1,"isfriend":0,"isfamily":0},{"id":"52373569897","owner":"60395108@N02","secret":"a2926f11a8","server":"65535","farm":66,"title":"DSC_1052","ispublic":1,"isfriend":0,"isfamily":0},{"id":"52374931195","owner":"60395108@N02","secret":"47334e6d59","server":"65535","farm":66,"title":"DSC_1095","ispublic":1,"isfriend":0,"isfamily":0},{"id":"52374515256","owner":"60395108@N02","secret":"82ec967909","server":"65535","farm":66,"title":"DSC_1098","ispublic":1,"isfriend":0,"isfamily":0},{"id":"52328133495","owner":"123597211@N03","secret":"c6748ee482","server":"65535","farm":66,"title":"Balistar (Leucopsar rothschildi)","ispublic":1,"isfriend":0,"isfamily":0},{"id":"52326757682","owner":"123597211@N03","secret":"b267f1ed12","server":"65535","farm":66,"title":"Balistar (Leucopsar rothschildi)","ispublic":1,"isfriend":0,"isfamily":0},{"id":"52328132885","owner":"123597211@N03","secret":"50d52aec13","server":"65535","farm":66,"title":"Balistar (Leucopsar rothschildi)","ispublic":1,"isfriend":0,"isfamily":0},{"id":"52328132625","owner":"123597211@N03","secret":"e1b45591e0","server":"65535","farm":66,"title":"Balistar (Leucopsar rothschildi)","ispublic":1,"isfriend":0,"isfamily":0},{"id":"52327712426","owner":"123597211@N03","secret":"d1bab7651f","server":"65535","farm":66,"title":"Balistar (Leucopsar rothschildi)","ispublic":1,"isfriend":0,"isfamily":0},{"id":"52327954443","owner":"123597211@N03","secret":"fb58c599f8","server":"65535","farm":66,"title":"Balistar (Leucopsar rothschildi)","ispublic":1,"isfriend":0,"isfamily":0},{"id":"52327954123","owner":"123597211@N03","secret":"f25f3530a0","server":"65535","farm":66,"title":"Balistar (Leucopsar rothschildi)","ispublic":1,"isfriend":0,"isfamily":0},{"id":"52327953813","owner":"123597211@N03","secret":"ab1ab63d68","server":"65535","farm":66,"title":"Balistar (Leucopsar rothschildi)","ispublic":1,"isfriend":0,"isfamily":0},{"id":"52328005604","owner":"123597211@N03","secret":"220e91304a","server":"65535","farm":66,"title":"Balistar (Leucopsar rothschildi)","ispublic":1,"isfriend":0,"isfamily":0},{"id":"52327710526","owner":"123597211@N03","secret":"5d9df01e43","server":"65535","farm":66,"title":"Balistar (Leucopsar rothschildi)","ispublic":1,"isfriend":0,"isfamily":0},{"id":"52328004839","owner":"123597211@N03","secret":"eb13503c6b","server":"65535","farm":66,"title":"Balistar (Leucopsar rothschildi)","ispublic":1,"isfriend":0,"isfamily":0},{"id":"52326754122","owner":"123597211@N03","secret":"e6efbd44a5","server":"65535","farm":66,"title":"Balistar (Leucopsar rothschildi)","ispublic":1,"isfriend":0,"isfamily":0},{"id":"52328129510","owner":"123597211@N03","secret":"da5a6c3339","server":"65535","farm":66,"title":"Balistar (Leucopsar rothschildi)","ispublic":1,"isfriend":0,"isfamily":0},{"id":"52327709441","owner":"123597211@N03","secret":"22a376f2b4","server":"65535","farm":66,"title":"Balistar (Leucopsar rothschildi)","ispublic":1,"isfriend":0,"isfamily":0},{"id":"52326753137","owner":"123597211@N03","secret":"67b6ee11b2","server":"65535","farm":66,"title":"Balistar (Leucopsar rothschildi)","ispublic":1,"isfriend":0,"isfamily":0},{"id":"52328128600","owner":"123597211@N03","secret":"dbb3d87909","server":"65535","farm":66,"title":"Balistar (Leucopsar rothschildi)","ispublic":1,"isfriend":0,"isfamily":0},{"id":"52327708481","owner":"123597211@N03","secret":"4f063afd4b","server":"65535","farm":66,"title":"Balistar (Leucopsar rothschildi)","ispublic":1,"isfriend":0,"isfamily":0},{"id":"52327708056","owner":"123597211@N03","secret":"4925934e32","server":"65535","farm":66,"title":"Balistar (Leucopsar rothschildi)","ispublic":1,"isfriend":0,"isfamily":0},{"id":"52327949363","owner":"123597211@N03","secret":"5f2ef88e50","server":"65535","farm":66,"title":"Balistar (Leucopsar rothschildi)","ispublic":1,"isfriend":0,"isfamily":0},{"id":"52327949038","owner":"123597211@N03","secret":"a8e7ba073d","server":"65535","farm":66,"title":"Balistar (Leucopsar rothschildi)","ispublic":1,"isfriend":0,"isfamily":0},{"id":"52328001334","owner":"123597211@N03","secret":"57803af98f","server":"65535","farm":66,"title":"Balistar (Leucopsar rothschildi)","ispublic":1,"isfriend":0,"isfamily":0},{"id":"52326750367","owner":"123597211@N03","secret":"a3fb8d96d3","server":"65535","farm":66,"title":"Balistar (Leucopsar rothschildi)","ispublic":1,"isfriend":0,"isfamily":0},{"id":"52280819340","owner":"123597211@N03","secret":"c762ea731c","server":"65535","farm":66,"title":"Balistar (Leucopsar rothschildi)","ispublic":1,"isfriend":0,"isfamily":0},{"id":"52280334541","owner":"123597211@N03","secret":"27363611e8","server":"65535","farm":66,"title":"Balistar (Leucopsar rothschildi)","ispublic":1,"isfriend":0,"isfamily":0},{"id":"52280818675","owner":"123597211@N03","secret":"c969410ee6","server":"65535","farm":66,"title":"Balistar (Leucopsar rothschildi)","ispublic":1,"isfriend":0,"isfamily":0},{"id":"52264856575","owner":"195541015@N07","secret":"10db794a30","server":"65535","farm":66,"title":"Bali Myna (Leucopsar rothschildi)","ispublic":1,"isfriend":0,"isfamily":0},{"id":"52240811964","owner":"195541015@N07","secret":"7f44c74e8b","server":"65535","farm":66,"title":"Bali Myna (Leucopsar rothschildi)","ispublic":1,"isfriend":0,"isfamily":0},{"id":"52211213969","owner":"64074416@N06","secret":"fe34b66d07","server":"65535","farm":66,"title":"Bali Myna (Leucopsar rothschildi)","ispublic":1,"isfriend":0,"isfamily":0},{"id":"52210810146","owner":"64074416@N06","secret":"926cc1c5a9","server":"65535","farm":66,"title":"Bali Myna (Leucopsar rothschildi)","ispublic":1,"isfriend":0,"isfamily":0},{"id":"52124047389","owner":"60395108@N02","secret":"d6669170fa","server":"65535","farm":66,"title":"73 (1)","ispublic":1,"isfriend":0,"isfamily":0},{"id":"52124047214","owner":"60395108@N02","secret":"8a58c93c4d","server":"65535","farm":66,"title":"72 (1)","ispublic":1,"isfriend":0,"isfamily":0},{"id":"52123802636","owner":"60395108@N02","secret":"c29e9f2902","server":"65535","farm":66,"title":"73 (2)","ispublic":1,"isfriend":0,"isfamily":0},{"id":"52122774782","owner":"60395108@N02","secret":"b736f3a0c6","server":"65535","farm":66,"title":"72 (2)","ispublic":1,"isfriend":0,"isfamily":0},{"id":"52123802556","owner":"60395108@N02","secret":"80ccb90a2f","server":"65535","farm":66,"title":"55","ispublic":1,"isfriend":0,"isfamily":0},{"id":"52123834113","owner":"60395108@N02","secret":"e5a4593e24","server":"65535","farm":66,"title":"73 (3)","ispublic":1,"isfriend":0,"isfamily":0},{"id":"52101835284","owner":"123597211@N03","secret":"fdd36a2213","server":"65535","farm":66,"title":"Balistar (Leucopsar rothschildi)","ispublic":1,"isfriend":0,"isfamily":0},{"id":"52102097025","owner":"123597211@N03","secret":"372bea3a0e","server":"65535","farm":66,"title":"Balistar (Leucopsar rothschildi)","ispublic":1,"isfriend":0,"isfamily":0},{"id":"52100562237","owner":"123597211@N03","secret":"0ba609aed1","server":"65535","farm":66,"title":"Balistar (Leucopsar rothschildi)","ispublic":1,"isfriend":0,"isfamily":0},{"id":"52101623123","owner":"123597211@N03","secret":"d88009b7b3","server":"65535","farm":66,"title":"Balistar (Leucopsar rothschildi)","ispublic":1,"isfriend":0,"isfamily":0},{"id":"52101617038","owner":"123597211@N03","secret":"162229ac5a","server":"65535","farm":66,"title":"Balistar (Leucopsar rothschildi)","ispublic":1,"isfriend":0,"isfamily":0},{"id":"52102089775","owner":"123597211@N03","secret":"50488979f3","server":"65535","farm":66,"title":"Balistar (Leucopsar rothschildi)","ispublic":1,"isfriend":0,"isfamily":0},{"id":"52101827354","owner":"123597211@N03","secret":"fdb6a5b322","server":"65535","farm":66,"title":"Balistar (Leucopsar rothschildi)","ispublic":1,"isfriend":0,"isfamily":0},{"id":"51980591059","owner":"129269872@N04","secret":"65814a1e57","server":"65535","farm":66,"title":"Balistar","ispublic":1,"isfriend":0,"isfamily":0},{"id":"51734932225","owner":"77903093@N00","secret":"1c1cf13c31","server":"65535","farm":66,"title":"121227 Zoorasia-17.jpg","ispublic":1,"isfriend":0,"isfamily":0},{"id":"51734043951","owner":"77903093@N00","secret":"5df44cd34c","server":"65535","farm":66,"title":"121025 Zoorasia-03.jpg","ispublic":1,"isfriend":0,"isfamily":0},{"id":"51722450128","owner":"12639178@N07","secret":"fd15f91e56","server":"65535","farm":66,"title":"Nestbau","ispublic":1,"isfriend":0,"isfamily":0},{"id":"51697265396","owner":"12639178@N07","secret":"9b88278fa7","server":"65535","farm":66,"title":"Zwei Balistare (Leucopsar rothschildi (Stresemann 1912))","ispublic":1,"isfriend":0,"isfamily":0},{"id":"51682515502","owner":"183236367@N05","secret":"135b7ea1a7","server":"65535","farm":66,"title":"Bali myna","ispublic":1,"isfriend":0,"isfamily":0}]},"stat":"ok"}