{"photos":{"page":1,"pages":51,"perpage":100,"total":5064,"photo":[{"id":"52790406610","owner":"119787485@N07","secret":"56c6998433","server":"65535","farm":66,"title":"Bananaquit (Coereba flaveola barbadensis) - 20230201-05","ispublic":1,"isfriend":0,"isfamily":0},{"id":"52785453988","owner":"14586608@N08","secret":"23f2bc4e29","server":"65535","farm":66,"title":"EF7A1593_Bird","ispublic":1,"isfriend":0,"isfamily":0},{"id":"52782688984","owner":"195378225@N06","secret":"5310926651","server":"65535","farm":66,"title":"Coereba flaveola 1","ispublic":1,"isfriend":0,"isfamily":0},{"id":"52782848870","owner":"195378225@N06","secret":"99f949918c","server":"65535","farm":66,"title":"Coereba Flaveola 2","ispublic":1,"isfriend":0,"isfamily":0},{"id":"52781650736","owner":"12639178@N07","secret":"52bf481bbf","server":"65535","farm":66,"title":"Bananaquit","ispublic":1,"isfriend":0,"isfamily":0},{"id":"52780419772","owner":"134041918@N04","secret":"c890a2c241","server":"65535","farm":66,"title":"Bananaquit (Coereba flaveola)","ispublic":1,"isfriend":0,"isfamily":0},{"id":"52778652408","owner":"57685443@N02","secret":"2c0d8b2bf5","server":"65535","farm":66,"title":"Coereba flaveola","ispublic":1,"isfriend":0,"isfamily":0},{"id":"52771546841","owner":"150719316@N03","secret":"da25c29f8b","server":"65535","farm":66,"title":"Bananaquit","ispublic":1,"isfriend":0,"isfamily":0},{"id":"52770531765","owner":"20973851@N03","secret":"dfd68c3df1","server":"65535","farm":66,"title":"Sucrier \u00e0 ventre jaune - Coereba flaveola subsp martinica","ispublic":1,"isfriend":0,"isfamily":0},{"id":"52769580297","owner":"20973851@N03","secret":"eab5097102","server":"65535","farm":66,"title":"Sucrier \u00e0 ventre jaune - Coereba flaveola subsp martinica","ispublic":1,"isfriend":0,"isfamily":0},{"id":"52770531725","owner":"20973851@N03","secret":"f83b4e0646","server":"65535","farm":66,"title":"Sucrier \u00e0 ventre jaune - Coereba flaveola subsp martinica","ispublic":1,"isfriend":0,"isfamily":0},{"id":"52770117196","owner":"20973851@N03","secret":"0cc1c2a4c1","server":"65535","farm":66,"title":"Sucrier \u00e0 ventre jaune - Coereba flaveola subsp martinica","ispublic":1,"isfriend":0,"isfamily":0},{"id":"52762943885","owner":"57729348@N02","secret":"bbb051eb31","server":"65535","farm":66,"title":"Bananaquit (Coereba flaveola)","ispublic":1,"isfriend":0,"isfamily":0},{"id":"52762280353","owner":"57729348@N02","secret":"d03b16b9e4","server":"65535","farm":66,"title":"Bananaquit (Coereba flaveola)","ispublic":1,"isfriend":0,"isfamily":0},{"id":"52761877599","owner":"57729348@N02","secret":"2063c8a87d","server":"65535","farm":66,"title":"Bananaquit (Coereba flaveola)","ispublic":1,"isfriend":0,"isfamily":0},{"id":"52758048647","owner":"45681418@N03","secret":"5e92d8ee13","server":"65535","farm":66,"title":"Cozumel Island Bananquit (Coereba flaveola caboti)","ispublic":1,"isfriend":0,"isfamily":0},{"id":"52758996550","owner":"45681418@N03","secret":"d9ce22c5d6","server":"65535","farm":66,"title":"Cozumel Island Bananquit (Coereba flaveola caboti)","ispublic":1,"isfriend":0,"isfamily":0},{"id":"52758379070","owner":"50729024@N07","secret":"0442e9d179","server":"65535","farm":66,"title":"Bananaquit (Coereba flaveola)","ispublic":1,"isfriend":0,"isfamily":0},{"id":"52755729206","owner":"20973851@N03","secret":"05b5bd4ca2","server":"65535","farm":66,"title":"Sucrier \u00e0 ventre jaune (Coereba flaveola)","ispublic":1,"isfriend":0,"isfamily":0},{"id":"52752100338","owner":"12639178@N07","secret":"67fbcde593","server":"65535","farm":66,"title":"Zuckervogel","ispublic":1,"isfriend":0,"isfamily":0},{"id":"52749806586","owner":"81269484@N00","secret":"cc8d1aa0e5","server":"65535","farm":66,"title":"Bananaquit","ispublic":1,"isfriend":0,"isfamily":0},{"id":"52749276127","owner":"81269484@N00","secret":"a09aa28e8d","server":"65535","farm":66,"title":"Acrobatic bananaquit","ispublic":1,"isfriend":0,"isfamily":0},{"id":"52748836942","owner":"14586608@N08","secret":"fe659e480a","server":"65535","farm":66,"title":"EF7A1119_BirdTopazsize3","ispublic":1,"isfriend":0,"isfamily":0},{"id":"52745955233","owner":"193493417@N08","secret":"eca334e11a","server":"65535","farm":66,"title":"IMG_3722","ispublic":1,"isfriend":0,"isfamily":0},{"id":"52745873870","owner":"193493417@N08","secret":"463d843e3a","server":"65535","farm":66,"title":"IMG_3678","ispublic":1,"isfriend":0,"isfamily":0},{"id":"52744044791","owner":"77671375@N04","secret":"0c2e22b6fe","server":"65535","farm":66,"title":"Bananaquit","ispublic":1,"isfriend":0,"isfamily":0},{"id":"52743529832","owner":"77671375@N04","secret":"85d8f0b1f0","server":"65535","farm":66,"title":"Bananaquit","ispublic":1,"isfriend":0,"isfamily":0},{"id":"52743519052","owner":"77671375@N04","secret":"f222d85595","server":"65535","farm":66,"title":"Bananaquit","ispublic":1,"isfriend":0,"isfamily":0},{"id":"52744450965","owner":"77671375@N04","secret":"310f98fcd5","server":"65535","farm":66,"title":"Bananaquit","ispublic":1,"isfriend":0,"isfamily":0},{"id":"52743517417","owner":"77671375@N04","secret":"522359f325","server":"65535","farm":66,"title":"Bananaquit","ispublic":1,"isfriend":0,"isfamily":0},{"id":"52738224664","owner":"59206851@N00","secret":"95849cc1b3","server":"65535","farm":66,"title":"DSC_9071.jpg","ispublic":1,"isfriend":0,"isfamily":0},{"id":"52737971806","owner":"59206851@N00","secret":"d1a10bbc97","server":"65535","farm":66,"title":"DSC_9069.jpg","ispublic":1,"isfriend":0,"isfamily":0},{"id":"52738377345","owner":"59206851@N00","secret":"204c7b1757","server":"65535","farm":66,"title":"DSC_8212.jpg","ispublic":1,"isfriend":0,"isfamily":0},{"id":"52737961386","owner":"59206851@N00","secret":"195387e649","server":"65535","farm":66,"title":"DSC_7938.jpg","ispublic":1,"isfriend":0,"isfamily":0},{"id":"52738371365","owner":"59206851@N00","secret":"431031c78d","server":"65535","farm":66,"title":"DSC_7936.jpg","ispublic":1,"isfriend":0,"isfamily":0},{"id":"52738369660","owner":"59206851@N00","secret":"56743839b3","server":"65535","farm":66,"title":"DSC_7850-2.jpg","ispublic":1,"isfriend":0,"isfamily":0},{"id":"52738211279","owner":"59206851@N00","secret":"9dc0db22ec","server":"65535","farm":66,"title":"DSC_7850.jpg","ispublic":1,"isfriend":0,"isfamily":0},{"id":"52738369475","owner":"59206851@N00","secret":"0a48abbb17","server":"65535","farm":66,"title":"DSC_7834.jpg","ispublic":1,"isfriend":0,"isfamily":0},{"id":"52737958706","owner":"59206851@N00","secret":"cd62fde02a","server":"65535","farm":66,"title":"DSC_7477-2.jpg","ispublic":1,"isfriend":0,"isfamily":0},{"id":"52738368865","owner":"59206851@N00","secret":"6ce990e989","server":"65535","farm":66,"title":"DSC_7477.jpg","ispublic":1,"isfriend":0,"isfamily":0},{"id":"52738441983","owner":"59206851@N00","secret":"90bcec7134","server":"65535","farm":66,"title":"DSC_7475.jpg","ispublic":1,"isfriend":0,"isfamily":0},{"id":"52737958341","owner":"59206851@N00","secret":"5102ff63d1","server":"65535","farm":66,"title":"DSC_7424.jpg","ispublic":1,"isfriend":0,"isfamily":0},{"id":"52737958271","owner":"59206851@N00","secret":"c604088df1","server":"65535","farm":66,"title":"DSC_7292.jpg","ispublic":1,"isfriend":0,"isfamily":0},{"id":"52738368385","owner":"59206851@N00","secret":"3ac3239854","server":"65535","farm":66,"title":"DSC_7291-2.jpg","ispublic":1,"isfriend":0,"isfamily":0},{"id":"52738209904","owner":"59206851@N00","secret":"5acf62e6fb","server":"65535","farm":66,"title":"DSC_7291.jpg","ispublic":1,"isfriend":0,"isfamily":0},{"id":"52738367445","owner":"59206851@N00","secret":"f9ee7507c1","server":"65535","farm":66,"title":"DSC_6947-2.jpg","ispublic":1,"isfriend":0,"isfamily":0},{"id":"52737435182","owner":"59206851@N00","secret":"4e7447007e","server":"65535","farm":66,"title":"DSC_6947.jpg","ispublic":1,"isfriend":0,"isfamily":0},{"id":"52737429892","owner":"59206851@N00","secret":"93cba2595f","server":"65535","farm":66,"title":"DSC_6461.jpg","ispublic":1,"isfriend":0,"isfamily":0},{"id":"52738201504","owner":"59206851@N00","secret":"29dca2edd5","server":"65535","farm":66,"title":"DSC_6405.jpg","ispublic":1,"isfriend":0,"isfamily":0},{"id":"52738201449","owner":"59206851@N00","secret":"5e03cbf10f","server":"65535","farm":66,"title":"DSC_6403.jpg","ispublic":1,"isfriend":0,"isfamily":0},{"id":"52737427877","owner":"59206851@N00","secret":"0570210fd5","server":"65535","farm":66,"title":"DSC_6392.jpg","ispublic":1,"isfriend":0,"isfamily":0},{"id":"52737427807","owner":"59206851@N00","secret":"f0938d61a3","server":"65535","farm":66,"title":"DSC_6386.jpg","ispublic":1,"isfriend":0,"isfamily":0},{"id":"52737950001","owner":"59206851@N00","secret":"e2a4bbed2d","server":"65535","farm":66,"title":"DSC_6384.jpg","ispublic":1,"isfriend":0,"isfamily":0},{"id":"52737949066","owner":"59206851@N00","secret":"0307691802","server":"65535","farm":66,"title":"DSC_6344.jpg","ispublic":1,"isfriend":0,"isfamily":0},{"id":"52738199899","owner":"59206851@N00","secret":"49626796ae","server":"65535","farm":66,"title":"DSC_6002.jpg","ispublic":1,"isfriend":0,"isfamily":0},{"id":"52738358695","owner":"59206851@N00","secret":"b778cdb94d","server":"65535","farm":66,"title":"DSC_6000.jpg","ispublic":1,"isfriend":0,"isfamily":0},{"id":"52738358590","owner":"59206851@N00","secret":"c21fdcc482","server":"65535","farm":66,"title":"DSC_5894-2.jpg","ispublic":1,"isfriend":0,"isfamily":0},{"id":"52737948671","owner":"59206851@N00","secret":"4ae643ab6a","server":"65535","farm":66,"title":"DSC_5894.jpg","ispublic":1,"isfriend":0,"isfamily":0},{"id":"52737424277","owner":"59206851@N00","secret":"cbc345320b","server":"65535","farm":66,"title":"DSC_5159.jpg","ispublic":1,"isfriend":0,"isfamily":0},{"id":"52738428733","owner":"59206851@N00","secret":"746fb82ee2","server":"65535","farm":66,"title":"DSC_5066.jpg","ispublic":1,"isfriend":0,"isfamily":0},{"id":"52738428683","owner":"59206851@N00","secret":"d954f08d52","server":"65535","farm":66,"title":"DSC_5060.jpg","ispublic":1,"isfriend":0,"isfamily":0},{"id":"52736834065","owner":"59206851@N00","secret":"179e8bfc1d","server":"65535","farm":66,"title":"DSC_4438.jpg","ispublic":1,"isfriend":0,"isfamily":0},{"id":"52736832740","owner":"59206851@N00","secret":"dca116d1a2","server":"65535","farm":66,"title":"DSC_4336-2.jpg","ispublic":1,"isfriend":0,"isfamily":0},{"id":"52736832665","owner":"59206851@N00","secret":"cc40ed474f","server":"65535","farm":66,"title":"DSC_4336.jpg","ispublic":1,"isfriend":0,"isfamily":0},{"id":"52736421326","owner":"59206851@N00","secret":"53406e2b4e","server":"65535","farm":66,"title":"DSC_4326.jpg","ispublic":1,"isfriend":0,"isfamily":0},{"id":"52736899368","owner":"59206851@N00","secret":"140630cdec","server":"65535","farm":66,"title":"DSC_4228.jpg","ispublic":1,"isfriend":0,"isfamily":0},{"id":"52735895967","owner":"59206851@N00","secret":"39e722a8bf","server":"65535","farm":66,"title":"DSC_4128.jpg","ispublic":1,"isfriend":0,"isfamily":0},{"id":"52735895827","owner":"59206851@N00","secret":"f2b33b8d0a","server":"65535","farm":66,"title":"DSC_4121.jpg","ispublic":1,"isfriend":0,"isfamily":0},{"id":"52735895397","owner":"59206851@N00","secret":"a1c39c2055","server":"65535","farm":66,"title":"DSC_4014.jpg","ispublic":1,"isfriend":0,"isfamily":0},{"id":"52736418281","owner":"59206851@N00","secret":"75bcb2f3ce","server":"65535","farm":66,"title":"DSC_3439.jpg","ispublic":1,"isfriend":0,"isfamily":0},{"id":"52735878961","owner":"59206851@N00","secret":"96266f0a68","server":"65535","farm":66,"title":"DSC_6638-6.jpg","ispublic":1,"isfriend":0,"isfamily":0},{"id":"52735357862","owner":"59206851@N00","secret":"d2ac7a82b5","server":"65535","farm":66,"title":"DSC_6638-5.jpg","ispublic":1,"isfriend":0,"isfamily":0},{"id":"52736130294","owner":"59206851@N00","secret":"e5f022f637","server":"65535","farm":66,"title":"DSC_6638-4.jpg","ispublic":1,"isfriend":0,"isfamily":0},{"id":"52736357483","owner":"59206851@N00","secret":"0827b66f26","server":"65535","farm":66,"title":"DSC_6638-3.jpg","ispublic":1,"isfriend":0,"isfamily":0},{"id":"52735357627","owner":"59206851@N00","secret":"7ab78d1fd1","server":"65535","farm":66,"title":"DSC_6638-2.jpg","ispublic":1,"isfriend":0,"isfamily":0},{"id":"52735357552","owner":"59206851@N00","secret":"fde84c7936","server":"65535","farm":66,"title":"DSC_6638.jpg","ispublic":1,"isfriend":0,"isfamily":0},{"id":"52735878541","owner":"59206851@N00","secret":"713d92c0cb","server":"65535","farm":66,"title":"DSC_6637-2.jpg","ispublic":1,"isfriend":0,"isfamily":0},{"id":"52735357307","owner":"59206851@N00","secret":"2abddbacd2","server":"65535","farm":66,"title":"DSC_6626.jpg","ispublic":1,"isfriend":0,"isfamily":0},{"id":"52735956688","owner":"166123535@N05","secret":"4d16084ee6","server":"65535","farm":66,"title":"Bananaquit","ispublic":1,"isfriend":0,"isfamily":0},{"id":"52735242588","owner":"59206851@N00","secret":"0dd97d2961","server":"65535","farm":66,"title":"DSC_8494-3.jpg","ispublic":1,"isfriend":0,"isfamily":0},{"id":"52735016439","owner":"59206851@N00","secret":"73787a0630","server":"65535","farm":66,"title":"DSC_8494-2.jpg","ispublic":1,"isfriend":0,"isfamily":0},{"id":"52735242328","owner":"59206851@N00","secret":"bcbe417fbe","server":"65535","farm":66,"title":"DSC_8494.jpg","ispublic":1,"isfriend":0,"isfamily":0},{"id":"52734760486","owner":"59206851@N00","secret":"f5ddb7b780","server":"65535","farm":66,"title":"DSC_8435.jpg","ispublic":1,"isfriend":0,"isfamily":0},{"id":"52735015344","owner":"59206851@N00","secret":"04f23e4ce7","server":"65535","farm":66,"title":"DSC_8419-2.jpg","ispublic":1,"isfriend":0,"isfamily":0},{"id":"52735015224","owner":"59206851@N00","secret":"13c1bb5d21","server":"65535","farm":66,"title":"DSC_8419.jpg","ispublic":1,"isfriend":0,"isfamily":0},{"id":"52734768785","owner":"59206851@N00","secret":"40bfaee8f8","server":"65535","farm":66,"title":"DSC_3281.jpg","ispublic":1,"isfriend":0,"isfamily":0},{"id":"52734732730","owner":"59206851@N00","secret":"bea098058a","server":"65535","farm":66,"title":"DSC_4528-4.jpg","ispublic":1,"isfriend":0,"isfamily":0},{"id":"52734571774","owner":"59206851@N00","secret":"71d45d9a0a","server":"65535","farm":66,"title":"DSC_4528-3.jpg","ispublic":1,"isfriend":0,"isfamily":0},{"id":"52734318436","owner":"59206851@N00","secret":"739e205091","server":"65535","farm":66,"title":"DSC_4528-2.jpg","ispublic":1,"isfriend":0,"isfamily":0},{"id":"52734800188","owner":"59206851@N00","secret":"5f976e40d7","server":"65535","farm":66,"title":"DSC_4528.jpg","ispublic":1,"isfriend":0,"isfamily":0},{"id":"52734268690","owner":"59206851@N00","secret":"38b9131d34","server":"65535","farm":66,"title":"DSC_9148.jpg","ispublic":1,"isfriend":0,"isfamily":0},{"id":"52734098464","owner":"59206851@N00","secret":"8569508dd1","server":"65535","farm":66,"title":"DSC_6832.jpg","ispublic":1,"isfriend":0,"isfamily":0},{"id":"52733320277","owner":"59206851@N00","secret":"7bbdc14e2b","server":"65535","farm":66,"title":"DSC_6822.jpg","ispublic":1,"isfriend":0,"isfamily":0},{"id":"52732151480","owner":"59206851@N00","secret":"ec96916b5d","server":"65535","farm":66,"title":"DSC_0830.jpg","ispublic":1,"isfriend":0,"isfamily":0},{"id":"52732178148","owner":"59206851@N00","secret":"05e72e515f","server":"65535","farm":66,"title":"DSC_0117.jpg","ispublic":1,"isfriend":0,"isfamily":0},{"id":"52730512549","owner":"59206851@N00","secret":"40c123153a","server":"65535","farm":66,"title":"DSC_0365.jpg","ispublic":1,"isfriend":0,"isfamily":0},{"id":"52738435393","owner":"59206851@N00","secret":"44ab1fc296","server":"65535","farm":66,"title":"DSC_6460-2.jpg","ispublic":1,"isfriend":0,"isfamily":0},{"id":"52737952136","owner":"59206851@N00","secret":"d1c2dbc94f","server":"65535","farm":66,"title":"DSC_6460.jpg","ispublic":1,"isfriend":0,"isfamily":0},{"id":"52735894657","owner":"59206851@N00","secret":"8254718f26","server":"65535","farm":66,"title":"DSC_3430.jpg","ispublic":1,"isfriend":0,"isfamily":0},{"id":"52731992554","owner":"59206851@N00","secret":"57ea343f3b","server":"65535","farm":66,"title":"DSC_0822.jpg","ispublic":1,"isfriend":0,"isfamily":0}]},"stat":"ok"}