{"photos":{"page":1,"pages":2,"perpage":100,"total":109,"photo":[{"id":"52770134196","owner":"12639178@N07","secret":"9d632ca455","server":"65535","farm":66,"title":"Sandlerche (Ammomanes cinctura)","ispublic":1,"isfriend":0,"isfamily":0},{"id":"52770390594","owner":"12639178@N07","secret":"fc40f06b14","server":"65535","farm":66,"title":"Sandlerche (Ammomanes cinctura)","ispublic":1,"isfriend":0,"isfamily":0},{"id":"52769596707","owner":"12639178@N07","secret":"e69a8ae574","server":"65535","farm":66,"title":"Sandlerche (Ammomanes cinctura)","ispublic":1,"isfriend":0,"isfamily":0},{"id":"52732621810","owner":"145489125@N03","secret":"168db5f173","server":"65535","farm":66,"title":"Bar-tailed Lark ( Ammomanes cinctura ) ... Southern Morocco","ispublic":1,"isfriend":0,"isfamily":0},{"id":"52578936296","owner":"101709991@N06","secret":"dea583453b","server":"65535","farm":66,"title":"Bar-tailed Lark - Ammomanes cinctura, Erg Chebbi221008","ispublic":1,"isfriend":0,"isfamily":0},{"id":"52097074208","owner":"12240837@N08","secret":"a0a3704d8a","server":"65535","farm":66,"title":"Bar-tailed Lark (ammomanes cinctura)","ispublic":1,"isfriend":0,"isfamily":0},{"id":"51897549970","owner":"88593217@N04","secret":"ab17a923d0","server":"65535","farm":66,"title":"Bar-tailed Lark, north of Erg Chebbi, Morocco, January 2015","ispublic":1,"isfriend":0,"isfamily":0},{"id":"51896987083","owner":"88593217@N04","secret":"d297cef666","server":"65535","farm":66,"title":"Bar-tailed Lark, north of Erg Chebbi, Morocco, January 2015","ispublic":1,"isfriend":0,"isfamily":0},{"id":"51837933207","owner":"88593217@N04","secret":"62fdd99243","server":"65535","farm":66,"title":"Bar-tailed Lark, El Jorf, Morocco, January 2015","ispublic":1,"isfriend":0,"isfamily":0},{"id":"51837933167","owner":"88593217@N04","secret":"62c24bc7c2","server":"65535","farm":66,"title":"Bar-tailed Lark, El Jorf, Morocco, January 2015","ispublic":1,"isfriend":0,"isfamily":0},{"id":"51838880266","owner":"88593217@N04","secret":"e383f8caeb","server":"65535","farm":66,"title":"Bar-tailed Lark, El Jorf, Morocco, January 2015","ispublic":1,"isfriend":0,"isfamily":0},{"id":"51708173877","owner":"18863646@N06","secret":"89dc32f382","server":"65535","farm":66,"title":"Calhandra-das-dunas | Ammomanes cinctura | Bar\u2011tailed Lark","ispublic":1,"isfriend":0,"isfamily":0},{"id":"50853579537","owner":"144612409@N08","secret":"7a0040ec8d","server":"65535","farm":66,"title":"mar 04 202012-55 p.m._1","ispublic":1,"isfriend":0,"isfamily":0},{"id":"50852765603","owner":"144612409@N08","secret":"c2afd5fb68","server":"65535","farm":66,"title":"mar 04 202012-55 p.m._2","ispublic":1,"isfriend":0,"isfamily":0},{"id":"49832203348","owner":"55968524@N04","secret":"5918c8609c","server":"65535","farm":66,"title":"IMG_5353 - Bar-tailed Lark - Ammomanes cinctura.jpg","ispublic":1,"isfriend":0,"isfamily":0},{"id":"45567043574","owner":"12639178@N07","secret":"6d273d48f5","server":"4835","farm":5,"title":"Sandlerche","ispublic":1,"isfriend":0,"isfamily":0},{"id":"44906787511","owner":"12639178@N07","secret":"501566a4f4","server":"1903","farm":2,"title":"Sandlerche, Insel Sal\/Kapverden","ispublic":1,"isfriend":0,"isfamily":0},{"id":"41599784300","owner":"32805478@N03","secret":"075cc4c83a","server":"1808","farm":2,"title":"Terrera colinegra, Bar-tailed Lark (Ammomanes cinctura)","ispublic":1,"isfriend":0,"isfamily":0},{"id":"43276623662","owner":"32805478@N03","secret":"9b75776baf","server":"1790","farm":2,"title":"Terrera Colinegra, Bar-tailed Lark (Ammomanes cinctura cinctura)","ispublic":1,"isfriend":0,"isfamily":0},{"id":"42830754181","owner":"59770980@N02","secret":"dce3c8dca8","server":"1750","farm":2,"title":"Faldl\u00e6virki-Bar tailed Lark-Ammomanes cinctura","ispublic":1,"isfriend":0,"isfamily":0},{"id":"40696711875","owner":"76971187@N03","secret":"8346da07d6","server":"859","farm":1,"title":"Bar-tailed Lark; Sal, Cape Verde","ispublic":1,"isfriend":0,"isfamily":0},{"id":"27311574968","owner":"130021529@N02","secret":"5726455f15","server":"814","farm":1,"title":"Bar-tailed Lark | sand\u00f6kenl\u00e4rka | Ammomanes cinctura","ispublic":1,"isfriend":0,"isfamily":0},{"id":"39912958691","owner":"30555852@N02","secret":"1d0aabdaa3","server":"4722","farm":5,"title":"Bar-tailed Lark - Sandlerche","ispublic":1,"isfriend":0,"isfamily":0},{"id":"28132947459","owner":"30555852@N02","secret":"de0a64aa41","server":"4611","farm":5,"title":"Bar-tailed Lark - Sandlerche","ispublic":1,"isfriend":0,"isfamily":0},{"id":"39912957111","owner":"30555852@N02","secret":"375c051d2d","server":"4770","farm":5,"title":"Bar-tailed Lark - Sandlerche","ispublic":1,"isfriend":0,"isfamily":0},{"id":"38733118585","owner":"95579115@N03","secret":"c584d84fb6","server":"4697","farm":5,"title":"Bar-tailed Lark (Ammomanes cinctura) \u0427\u0435\u0440\u043d\u043e\u0445\u0432\u043e\u0441\u0442\u044b\u0439 \u0432\u044c\u044e\u0440\u043a\u043e\u0432\u044b\u0439 \u0436\u0430\u0432\u043e\u0440\u043e\u043d\u043e\u043a","ispublic":1,"isfriend":0,"isfamily":0},{"id":"36022695105","owner":"137020494@N05","secret":"4763004dce","server":"4316","farm":5,"title":"Bar-tailed Lark \/ Ammomanes cinctura \/ Rosse woestijnleeuwerik 260A6183","ispublic":1,"isfriend":0,"isfamily":0},{"id":"34725262464","owner":"132387940@N05","secret":"3cf6ff37db","server":"4238","farm":5,"title":"Ammomanes cinctura","ispublic":1,"isfriend":0,"isfamily":0},{"id":"29054234622","owner":"36338063@N00","secret":"085e134ede","server":"8722","farm":9,"title":"Ammomanes cinctura_DSC7155","ispublic":1,"isfriend":0,"isfamily":0},{"id":"27174749221","owner":"58331999@N02","secret":"2f84e03cbf","server":"7786","farm":8,"title":"Bar-tailed Lark AM8Q4979.jpg","ispublic":1,"isfriend":0,"isfamily":0},{"id":"27174744301","owner":"58331999@N02","secret":"58ae31dff5","server":"7337","farm":8,"title":"Bar-tailed Lark AM8Q4947.jpg","ispublic":1,"isfriend":0,"isfamily":0},{"id":"26227793952","owner":"27603752@N04","secret":"aba58b7369","server":"1540","farm":2,"title":"Bar-tailed Lark Morocco","ispublic":1,"isfriend":0,"isfamily":0},{"id":"24712720249","owner":"90591613@N03","secret":"71c25b0fcd","server":"1677","farm":2,"title":"Bar-tailed Lark","ispublic":1,"isfriend":0,"isfamily":0},{"id":"18579640239","owner":"90591613@N03","secret":"b053ee70ed","server":"380","farm":1,"title":"Bar-tailed Lark","ispublic":1,"isfriend":0,"isfamily":0},{"id":"16902410234","owner":"9970276@N03","secret":"4fc5264398","server":"7717","farm":8,"title":"Terrerola cuabarrada (Ammomanes cinctura)","ispublic":1,"isfriend":0,"isfamily":0},{"id":"17125147747","owner":"27651543@N08","secret":"5513ba843f","server":"8793","farm":9,"title":"Bar-tailed Lark - Ammomanes cinctura","ispublic":1,"isfriend":0,"isfamily":0},{"id":"16732878829","owner":"36951210@N05","secret":"db5ab6c8ba","server":"8719","farm":9,"title":"\u0627\u0644\u062d\u0645\u0631\u0629 \u0633\u0648\u062f\u0627\u0621 \u0627\u0644\u0630\u064a\u0644","ispublic":1,"isfriend":0,"isfamily":0},{"id":"15852397942","owner":"36951210@N05","secret":"3f68d03498","server":"7531","farm":8,"title":"\u0627\u0644\u062d\u0645\u0631\u0629 \u0633\u0648\u062f\u0627\u0621 \u0627\u0644\u0630\u064a\u0644","ispublic":1,"isfriend":0,"isfamily":0},{"id":"13143621154","owner":"8575520@N08","secret":"8a4858a3d1","server":"7300","farm":8,"title":"Bar-tailed Lark, Morocco","ispublic":1,"isfriend":0,"isfamily":0},{"id":"13143452603","owner":"8575520@N08","secret":"d70f008963","server":"7423","farm":8,"title":"Bar-tailed Lark, Morocco","ispublic":1,"isfriend":0,"isfamily":0},{"id":"13079967884","owner":"8575520@N08","secret":"766f949ccb","server":"7322","farm":8,"title":"Bar-tailed Lark, Morocco","ispublic":1,"isfriend":0,"isfamily":0},{"id":"13079657625","owner":"8575520@N08","secret":"ec8e0c9bfd","server":"3718","farm":4,"title":"Bar-tailed Lark, Morocco","ispublic":1,"isfriend":0,"isfamily":0},{"id":"13063514533","owner":"8575520@N08","secret":"c59d91e898","server":"2691","farm":3,"title":"Bar-tailed Lark, Morocco","ispublic":1,"isfriend":0,"isfamily":0},{"id":"12157373793","owner":"115563537@N03","secret":"9f211a7ebe","server":"7358","farm":8,"title":"Sandlerche","ispublic":1,"isfriend":0,"isfamily":0},{"id":"8223191269","owner":"35437652@N02","secret":"e15f4df6ef","server":"8069","farm":9,"title":"Bar-tailed Desert Lark","ispublic":1,"isfriend":0,"isfamily":0},{"id":"8536946998","owner":"12639178@N07","secret":"5da046b265","server":"8108","farm":9,"title":"Sandlerche (Ammomanes cinctura) he- Salinen bei Santa Maria, Sal, NGID1416250447","ispublic":1,"isfriend":0,"isfamily":0},{"id":"6638523149","owner":"41013643@N02","secret":"5def44b0c5","server":"7161","farm":8,"title":"Bar-tailed Lark","ispublic":1,"isfriend":0,"isfamily":0},{"id":"52579206139","owner":"101709991@N06","secret":"1173b91285","server":"65535","farm":66,"title":"Bar-tailed Lark - Ammomanes cinctura, Erg Chebbi221008-3","ispublic":1,"isfriend":0,"isfamily":0},{"id":"52578936581","owner":"101709991@N06","secret":"18b74aef57","server":"65535","farm":66,"title":"Bar-tailed Lark - Ammomanes cinctura, Erg Chebbi221008-2","ispublic":1,"isfriend":0,"isfamily":0},{"id":"52226191172","owner":"12639178@N07","secret":"0d5cfd8689","server":"65535","farm":66,"title":"Sandlerche (Ammomanes cinctura)","ispublic":1,"isfriend":0,"isfamily":0},{"id":"51838880196","owner":"88593217@N04","secret":"793e2c08ae","server":"65535","farm":66,"title":"Bar-tailed Lark, El Jorf, Morocco, January 2015","ispublic":1,"isfriend":0,"isfamily":0},{"id":"51708173922","owner":"18863646@N06","secret":"3ec9f4b687","server":"65535","farm":66,"title":"Calhandra-das-dunas | Ammomanes cinctura | Bar\u2011tailed Lark","ispublic":1,"isfriend":0,"isfamily":0},{"id":"50853579602","owner":"144612409@N08","secret":"47c6b6e8e2","server":"65535","farm":66,"title":"mar 04 202012-55 p.m.","ispublic":1,"isfriend":0,"isfamily":0},{"id":"49661055881","owner":"144612409@N08","secret":"b38aff4d61","server":"65535","farm":66,"title":"DSC_9152","ispublic":1,"isfriend":0,"isfamily":0},{"id":"49660516153","owner":"144612409@N08","secret":"8845e2aaef","server":"65535","farm":66,"title":"DSC_9171","ispublic":1,"isfriend":0,"isfamily":0},{"id":"49635310926","owner":"12639178@N07","secret":"7831c5cfc9","server":"65535","farm":66,"title":"Sandlerche Boa Vista 200307","ispublic":1,"isfriend":0,"isfamily":0},{"id":"33539131688","owner":"92211588@N08","secret":"4259756dd6","server":"7823","farm":8,"title":"Ammomanes cinctura 02 Aousserd road Western Sahara 19022019 PD4","ispublic":1,"isfriend":0,"isfamily":0},{"id":"46499730885","owner":"92211588@N08","secret":"143d7f4ef5","server":"7903","farm":8,"title":"Ammomanes cinctura 02 Aousserd road Western Sahara 20022019 PD0","ispublic":1,"isfriend":0,"isfamily":0},{"id":"46499724385","owner":"92211588@N08","secret":"6b6cc10624","server":"7805","farm":8,"title":"Ammomanes cinctura 02 Aousserd road Western Sahara 20022019 PD1","ispublic":1,"isfriend":0,"isfamily":0},{"id":"40449465063","owner":"92211588@N08","secret":"bb0e5e0d67","server":"7897","farm":8,"title":"Ammomanes cinctura 02 Gleb Jdiane Western Sahara 20022019 PD1","ispublic":1,"isfriend":0,"isfamily":0},{"id":"46315400854","owner":"12639178@N07","secret":"70e1f4cfaf","server":"7858","farm":8,"title":"Sandlerche (Ammomanes cinctura) (3)","ispublic":1,"isfriend":0,"isfamily":0},{"id":"46315400344","owner":"12639178@N07","secret":"a5b716847f","server":"7906","farm":8,"title":"Sandlerche (Ammomanes cinctura) (2)","ispublic":1,"isfriend":0,"isfamily":0},{"id":"47039284731","owner":"12639178@N07","secret":"14d174b356","server":"7894","farm":8,"title":"Sandlerche","ispublic":1,"isfriend":0,"isfamily":0},{"id":"45567042064","owner":"12639178@N07","secret":"fa04743212","server":"4888","farm":5,"title":"Sandlerche","ispublic":1,"isfriend":0,"isfamily":0},{"id":"43994704595","owner":"12639178@N07","secret":"0a469c5448","server":"1919","farm":2,"title":"Sandlerche, Insel Sal\/Kapverden","ispublic":1,"isfriend":0,"isfamily":0},{"id":"43094868940","owner":"12639178@N07","secret":"00c2671c5e","server":"1964","farm":2,"title":"Sandlerche, Insel Sal\/Kapverden","ispublic":1,"isfriend":0,"isfamily":0},{"id":"43094866780","owner":"12639178@N07","secret":"dda857882f","server":"1967","farm":2,"title":"Sandlerche, Insel Sal\/Kapverden","ispublic":1,"isfriend":0,"isfamily":0},{"id":"44906504991","owner":"12639178@N07","secret":"08dac0052b","server":"1931","farm":2,"title":"Sandlerche, Insel Sal\/Kapverden","ispublic":1,"isfriend":0,"isfamily":0},{"id":"31033496668","owner":"12639178@N07","secret":"faa42e0315","server":"1911","farm":2,"title":"Sandlerche, Insel Sal\/Kapverden","ispublic":1,"isfriend":0,"isfamily":0},{"id":"43094635550","owner":"12639178@N07","secret":"474424a643","server":"1979","farm":2,"title":"Sandlerche, Insel Sal\/Kapverden","ispublic":1,"isfriend":0,"isfamily":0},{"id":"42674770351","owner":"12639178@N07","secret":"5d2fca0e22","server":"1755","farm":2,"title":"Sandlerche, Bar-tailed Desert Lark (Ammomanes cincturus), Nix wie weg!","ispublic":1,"isfriend":0,"isfamily":0},{"id":"42674767961","owner":"12639178@N07","secret":"c5ca97e62c","server":"1723","farm":2,"title":"Sandlerche, Bar-tailed Desert Lark (Ammomanes cincturus)","ispublic":1,"isfriend":0,"isfamily":0},{"id":"42626554572","owner":"12639178@N07","secret":"56b865e471","server":"1747","farm":2,"title":"Sandlerche, Bar-tailed Desert Lark (Ammomanes cincturus)","ispublic":1,"isfriend":0,"isfamily":0},{"id":"41957036384","owner":"12639178@N07","secret":"0e2651c995","server":"1749","farm":2,"title":"Sandlerche, Bar-tailed Desert Lark (Ammomanes cincturus)","ispublic":1,"isfriend":0,"isfamily":0},{"id":"40732017720","owner":"136420653@N03","secret":"5fed623163","server":"1749","farm":2,"title":"Sandlerche (Bar-tailed lark)","ispublic":1,"isfriend":0,"isfamily":0},{"id":"26656064477","owner":"127658485@N02","secret":"dac7fdb369","server":"822","farm":1,"title":"Bar-tailed Lark (Ammomanes cinctura)","ispublic":1,"isfriend":0,"isfamily":0},{"id":"41525756981","owner":"127658485@N02","secret":"c9c9b47e6d","server":"917","farm":1,"title":"Bar-tailed Lark (Ammomanes cinctura)","ispublic":1,"isfriend":0,"isfamily":0},{"id":"38485891424","owner":"142952595@N08","secret":"c211b7470c","server":"4641","farm":5,"title":"Bar-tailed (Desert) Lark","ispublic":1,"isfriend":0,"isfamily":0},{"id":"36022695475","owner":"137020494@N05","secret":"61037e58dc","server":"4297","farm":5,"title":"Bar-tailed Lark \/ Ammomanes cinctura \/ Rosse woestijnleeuwerik 260A6121","ispublic":1,"isfriend":0,"isfamily":0},{"id":"34722087182","owner":"41772564@N02","secret":"d50115cf8e","server":"4276","farm":5,"title":"Ammomane \u00e9l\u00e9gante Gruissan mai 2016 ii","ispublic":1,"isfriend":0,"isfamily":0},{"id":"34358070700","owner":"75908460@N02","secret":"c80a050464","server":"4247","farm":5,"title":"Bar-tailed Desert Lark_02","ispublic":1,"isfriend":0,"isfamily":0},{"id":"32496050606","owner":"38053299@N08","secret":"f54b2c3b1e","server":"641","farm":1,"title":"Sandlerche","ispublic":1,"isfriend":0,"isfamily":0},{"id":"26637061884","owner":"58331999@N02","secret":"c3b7d9a854","server":"7364","farm":8,"title":"Bar-tailed Lark AM8Q5068.jpg","ispublic":1,"isfriend":0,"isfamily":0},{"id":"27244053175","owner":"58331999@N02","secret":"e2b58ba972","server":"7262","farm":8,"title":"Bar-tailed Lark AM8Q5046.jpg","ispublic":1,"isfriend":0,"isfamily":0},{"id":"27146996102","owner":"58331999@N02","secret":"2df2ffaa2b","server":"7339","farm":8,"title":"Bar-tailed Lark AM8Q5038.jpg","ispublic":1,"isfriend":0,"isfamily":0},{"id":"27244039125","owner":"58331999@N02","secret":"835be56c7e","server":"7713","farm":8,"title":"Bar-tailed Lark AM8Q5026.jpg","ispublic":1,"isfriend":0,"isfamily":0},{"id":"26533035063","owner":"36951210@N05","secret":"0f58cc51e4","server":"7612","farm":8,"title":"\u0627\u0644\u062d\u0645\u0631\u0629 \u0633\u0648\u062f\u0627\u0621 \u0627\u0644\u0630\u064a\u0644","ispublic":1,"isfriend":0,"isfamily":0},{"id":"17246234791","owner":"69392183@N08","secret":"d98c18a111","server":"8796","farm":9,"title":"Bar-tailed lark","ispublic":1,"isfriend":0,"isfamily":0},{"id":"16805824520","owner":"66192905@N08","secret":"8a72db8447","server":"7613","farm":8,"title":"IMG_5989","ispublic":1,"isfriend":0,"isfamily":0},{"id":"16751761247","owner":"79985280@N06","secret":"bd2534d233","server":"8755","farm":9,"title":"Sand\u00f6kenl\u00e4rka, Bar-Tailed Lark, Ammomanes cincturus","ispublic":1,"isfriend":0,"isfamily":0},{"id":"15913846570","owner":"88593217@N04","secret":"4808df34ee","server":"7514","farm":8,"title":"Bar-tailed Lark, Uvda Valley, Israel, December 2011","ispublic":1,"isfriend":0,"isfamily":0},{"id":"8791974509","owner":"22941530@N00","secret":"4e09ec67b3","server":"7406","farm":8,"title":"1438_ammomane_elegante","ispublic":1,"isfriend":0,"isfamily":0},{"id":"8802546858","owner":"22941530@N00","secret":"77a7f89628","server":"2857","farm":3,"title":"1268_ammomane_elegante","ispublic":1,"isfriend":0,"isfamily":0},{"id":"8536937570","owner":"12639178@N07","secret":"53c2ce029c","server":"8089","farm":9,"title":"Sandlerche (Ammomanes cinctura) che- Salinen bei Santa Maria, Sal, NGIDn1712481897","ispublic":1,"isfriend":0,"isfamily":0},{"id":"8536930488","owner":"12639178@N07","secret":"76431e0988","server":"8370","farm":9,"title":"Sandlerche (Ammomanes cinctura) - Salinen bei Santa Maria, Sal, NGID132400382","ispublic":1,"isfriend":0,"isfamily":0},{"id":"8526971391","owner":"12639178@N07","secret":"0392ed883e","server":"8108","farm":9,"title":"cheSandlerche (Ammomanes cinctura) - Strand bei Ponta Preta Sal, Kapverden, NGIDn1061358170","ispublic":1,"isfriend":0,"isfamily":0},{"id":"8060690696","owner":"36951210@N05","secret":"57334e4be8","server":"8181","farm":9,"title":"\u0627\u0644\u062d\u0645\u0631\u0629 \u0633\u0648\u062f\u0627\u0621 \u0627\u0644\u0630\u064a\u0644","ispublic":1,"isfriend":0,"isfamily":0},{"id":"8060690348","owner":"36951210@N05","secret":"89f6284b03","server":"8453","farm":9,"title":"\u0627\u0644\u062d\u0645\u0631\u0629 \u0633\u0648\u062f\u0627\u0621 \u0627\u0644\u0630\u064a\u0644","ispublic":1,"isfriend":0,"isfamily":0},{"id":"8060687407","owner":"36951210@N05","secret":"326d85c592","server":"8454","farm":9,"title":"\u0627\u0644\u062d\u0645\u0631\u0629 \u0633\u0648\u062f\u0627\u0621 \u0627\u0644\u0630\u064a\u0644","ispublic":1,"isfriend":0,"isfamily":0},{"id":"6881350437","owner":"56441383@N02","secret":"14d6b07f64","server":"7199","farm":8,"title":"Bar-tailed Lark? - Ammomanes cinctura","ispublic":1,"isfriend":0,"isfamily":0}]},"stat":"ok"}