{"photos":{"page":1,"pages":290,"perpage":100,"total":28942,"photo":[{"id":"52703804590","owner":"123489620@N05","secret":"9427065110","server":"65535","farm":66,"title":"Hirondelle rustique","ispublic":1,"isfriend":0,"isfamily":0},{"id":"52703696303","owner":"169771858@N03","secret":"62bd374c23","server":"65535","farm":66,"title":"Barn Swallow #8 - 2019-07-04","ispublic":1,"isfriend":0,"isfamily":0},{"id":"52702602827","owner":"65695019@N07","secret":"9b5e523e62","server":"65535","farm":66,"title":"Barn Swallow (Hirundo rustica)","ispublic":1,"isfriend":0,"isfamily":0},{"id":"52702601732","owner":"65695019@N07","secret":"fc45bdf2f4","server":"65535","farm":66,"title":"Mankwe Dam ...","ispublic":1,"isfriend":0,"isfamily":0},{"id":"52702763644","owner":"110148017@N06","secret":"221cf53b4b","server":"65535","farm":66,"title":"\u5bb6\u71d5 Hirundo rustica","ispublic":1,"isfriend":0,"isfamily":0},{"id":"52702339759","owner":"110148017@N06","secret":"bc249b5109","server":"65535","farm":66,"title":"\u5bb6\u71d5 Hirundo rustica","ispublic":1,"isfriend":0,"isfamily":0},{"id":"52702339709","owner":"110148017@N06","secret":"aca941f76b","server":"65535","farm":66,"title":"\u5bb6\u71d5 Hirundo rustica","ispublic":1,"isfriend":0,"isfamily":0},{"id":"52701607398","owner":"169771858@N03","secret":"868d35c408","server":"65535","farm":66,"title":"Barn Swallow #5 - 2019-07-04","ispublic":1,"isfriend":0,"isfamily":0},{"id":"52700951036","owner":"189899250@N03","secret":"67c94bebd3","server":"65535","farm":66,"title":"Hirundo rustica","ispublic":1,"isfriend":0,"isfamily":0},{"id":"52700611259","owner":"186915896@N05","secret":"67a1ebfd90","server":"65535","farm":66,"title":"Boerenzwaluw (Barn Swallow, Rauchschwalbe, Golondrina Com\u00fan, Hirundo rustica)","ispublic":1,"isfriend":0,"isfamily":0},{"id":"52698643515","owner":"12639178@N07","secret":"50a753c672","server":"65535","farm":66,"title":"Rauchschwalbe","ispublic":1,"isfriend":0,"isfamily":0},{"id":"52697240773","owner":"195081660@N07","secret":"20d2f34116","server":"65535","farm":66,"title":"_N4A0852","ispublic":1,"isfriend":0,"isfamily":0},{"id":"52694425072","owner":"169771858@N03","secret":"dbaa923a78","server":"65535","farm":66,"title":"Barn Swallow #4 - 2019-07-04","ispublic":1,"isfriend":0,"isfamily":0},{"id":"52693795162","owner":"76617062@N08","secret":"7562ac4879","server":"65535","farm":66,"title":"1.02350 Baza huppard \/ Aviceda leuphotes syama \/ Black Baza","ispublic":1,"isfriend":0,"isfamily":0},{"id":"52694296160","owner":"49207239@N07","secret":"bbc0850def","server":"65535","farm":66,"title":"Wire tailed and barn swallow","ispublic":1,"isfriend":0,"isfamily":0},{"id":"52692674828","owner":"169771858@N03","secret":"9eb6e39cf0","server":"65535","farm":66,"title":"Barn Swallows #1 - 2019-07-04","ispublic":1,"isfriend":0,"isfamily":0},{"id":"52690612249","owner":"76617062@N08","secret":"c5f58d68a7","server":"65535","farm":66,"title":"1.19889 Hirondelle rustique \/ Hirundo rustica gutturalis \/ Barn Swallow","ispublic":1,"isfriend":0,"isfamily":0},{"id":"52688572538","owner":"88972033@N05","secret":"19c390c35f","server":"65535","farm":66,"title":"Barn Swallow","ispublic":1,"isfriend":0,"isfamily":0},{"id":"52684124891","owner":"127247666@N05","secret":"70b9333b26","server":"65535","farm":66,"title":"Unknown fruit and barn swallow","ispublic":1,"isfriend":0,"isfamily":0},{"id":"52682731227","owner":"140318147@N08","secret":"bc8ff4e62f","server":"65535","farm":66,"title":"barn swallow (Hirundo rustica) L4A4043","ispublic":1,"isfriend":0,"isfamily":0},{"id":"52683530244","owner":"140318147@N08","secret":"b5d8135dd5","server":"65535","farm":66,"title":"barn swallow (Hirundo rustica) L4A5216","ispublic":1,"isfriend":0,"isfamily":0},{"id":"52680732087","owner":"12639178@N07","secret":"9a5a0075e5","server":"65535","farm":66,"title":"Rauchschwalbe","ispublic":1,"isfriend":0,"isfamily":0},{"id":"52679431983","owner":"191391950@N02","secret":"aa2ddd1547","server":"65535","farm":66,"title":"Hirondelle rustique - Hirundo rustica","ispublic":1,"isfriend":0,"isfamily":0},{"id":"52679431368","owner":"191391950@N02","secret":"e0265c8b4f","server":"65535","farm":66,"title":"Hirondelle rustique - Hirundo rustica","ispublic":1,"isfriend":0,"isfamily":0},{"id":"52679412768","owner":"12639178@N07","secret":"6abcdd919b","server":"65535","farm":66,"title":"Rauchschwalbe im Morgenlicht","ispublic":1,"isfriend":0,"isfamily":0},{"id":"52678915596","owner":"12639178@N07","secret":"cf7b97665a","server":"65535","farm":66,"title":"Morgens um halb 6","ispublic":1,"isfriend":0,"isfamily":0},{"id":"52678373597","owner":"12639178@N07","secret":"f378a6f054","server":"65535","farm":66,"title":"Rauchschwalbe Getter\u00f6n","ispublic":1,"isfriend":0,"isfamily":0},{"id":"52677400116","owner":"197653711@N02","secret":"d3331519e6","server":"65535","farm":66,"title":"golondrina com\u00fan \/ The barn swallow (Hirundo rustica)\u200b","ispublic":1,"isfriend":0,"isfamily":0},{"id":"52676827456","owner":"12639178@N07","secret":"dcabaa4451","server":"65535","farm":66,"title":"Nistmaterial geht immer","ispublic":1,"isfriend":0,"isfamily":0},{"id":"52675228481","owner":"195273069@N04","secret":"c539a3a978","server":"65535","farm":66,"title":"Swallow (Hirundo rustica)","ispublic":1,"isfriend":0,"isfamily":0},{"id":"52675314235","owner":"49869335@N04","secret":"51a5db76ed","server":"65535","farm":66,"title":"Hirundo rustica","ispublic":1,"isfriend":0,"isfamily":0},{"id":"52675378283","owner":"49869335@N04","secret":"c4e99b955d","server":"65535","farm":66,"title":"Hirundo rustica","ispublic":1,"isfriend":0,"isfamily":0},{"id":"52675314200","owner":"49869335@N04","secret":"c4e99b955d","server":"65535","farm":66,"title":"Hirundo rustica","ispublic":1,"isfriend":0,"isfamily":0},{"id":"52669783476","owner":"12639178@N07","secret":"e4cdbbe89f","server":"65535","farm":66,"title":"Rauchschwalbe (Hirundo rustica)","ispublic":1,"isfriend":0,"isfamily":0},{"id":"52668011038","owner":"48014585@N00","secret":"28754d69fa","server":"65535","farm":66,"title":"Barn Swallow","ispublic":1,"isfriend":0,"isfamily":0},{"id":"52667008907","owner":"48014585@N00","secret":"af9f081e48","server":"65535","farm":66,"title":"Barn Swallow","ispublic":1,"isfriend":0,"isfamily":0},{"id":"52667484329","owner":"12639178@N07","secret":"41f905d35a","server":"65535","farm":66,"title":"Rauchschwalbe, (Hirundo rustica)","ispublic":1,"isfriend":0,"isfamily":0},{"id":"52667056223","owner":"30120110@N02","secret":"45d5e1b576","server":"65535","farm":66,"title":"Barn Swallows","ispublic":1,"isfriend":0,"isfamily":0},{"id":"52666697034","owner":"52029311@N03","secret":"e6199e458e","server":"65535","farm":66,"title":"Andorinha das chamin\u00e9s | Hirundo rustica | Barn Sallow","ispublic":1,"isfriend":0,"isfamily":0},{"id":"52665477485","owner":"12639178@N07","secret":"84c569bb27","server":"65535","farm":66,"title":"Rauchschwalben-Nachwuchs wartet in Beobachtungsh\u00fctte","ispublic":1,"isfriend":0,"isfamily":0},{"id":"52664384641","owner":"147645380@N05","secret":"0341dd069f","server":"65535","farm":66,"title":"Swallow.","ispublic":1,"isfriend":0,"isfamily":0},{"id":"52662883550","owner":"192131778@N07","secret":"0882f707d0","server":"65535","farm":66,"title":"Barn Swallow","ispublic":1,"isfriend":0,"isfamily":0},{"id":"52662489400","owner":"30120110@N02","secret":"382f0cc2ea","server":"65535","farm":66,"title":"Barn Swallow","ispublic":1,"isfriend":0,"isfamily":0},{"id":"52661777485","owner":"129653696@N06","secret":"0fc59b14cd","server":"65535","farm":66,"title":"Golondrina com\u00fan (Hirundo rustica)","ispublic":1,"isfriend":0,"isfamily":0},{"id":"52661724278","owner":"195081660@N07","secret":"c78b3b0779","server":"65535","farm":66,"title":"_N4A0874","ispublic":1,"isfriend":0,"isfamily":0},{"id":"52656192480","owner":"12639178@N07","secret":"15220c0d0e","server":"65535","farm":66,"title":"Rauchschwalbe","ispublic":1,"isfriend":0,"isfamily":0},{"id":"52652478157","owner":"48014585@N00","secret":"1a0c13b6bf","server":"65535","farm":66,"title":"Barn Swallow","ispublic":1,"isfriend":0,"isfamily":0},{"id":"52652246661","owner":"30120110@N02","secret":"25dce718e3","server":"65535","farm":66,"title":"Barn Swallow","ispublic":1,"isfriend":0,"isfamily":0},{"id":"52645817303","owner":"8013969@N03","secret":"244f0b1709","server":"65535","farm":66,"title":"Hirundo rustica DFL la22-1","ispublic":1,"isfriend":0,"isfamily":0},{"id":"52645600844","owner":"8013969@N03","secret":"60a03c658a","server":"65535","farm":66,"title":"Hirundo rustica DFL la22-2","ispublic":1,"isfriend":0,"isfamily":0},{"id":"52644835632","owner":"8013969@N03","secret":"ac5ca6395d","server":"65535","farm":66,"title":"Hirundo rustica DFL la22-3","ispublic":1,"isfriend":0,"isfamily":0},{"id":"52645121725","owner":"8013969@N03","secret":"e013f26cf4","server":"65535","farm":66,"title":"Hirundo rustica DFL phil22-2","ispublic":1,"isfriend":0,"isfamily":0},{"id":"52638810390","owner":"127247666@N05","secret":"c972189730","server":"65535","farm":66,"title":"Barn swallow","ispublic":1,"isfriend":0,"isfamily":0},{"id":"52632945839","owner":"30120110@N02","secret":"7ae689f748","server":"65535","farm":66,"title":"Barn Swallow","ispublic":1,"isfriend":0,"isfamily":0},{"id":"52630740813","owner":"141819052@N08","secret":"5891b1b084","server":"65535","farm":66,"title":"Barn Swallow (Hirundo rustica)","ispublic":1,"isfriend":0,"isfamily":0},{"id":"52622652387","owner":"126693179@N03","secret":"2ca990fef5","server":"65535","farm":66,"title":"Andorinha-das-chamine\u0301s","ispublic":1,"isfriend":0,"isfamily":0},{"id":"52620971539","owner":"90764954@N07","secret":"25cfd14c3b","server":"65535","farm":66,"title":"Barn Swallow (Hirundo rustica) \u5bb6\u71d5","ispublic":1,"isfriend":0,"isfamily":0},{"id":"52615873198","owner":"51433704@N06","secret":"65faf74972","server":"65535","farm":66,"title":"Barn Swallow","ispublic":1,"isfriend":0,"isfamily":0},{"id":"52610114596","owner":"98022492@N06","secret":"89cc5e43e3","server":"65535","farm":66,"title":"f\u00fcsti_fecske","ispublic":1,"isfriend":0,"isfamily":0},{"id":"52603244438","owner":"28731195@N08","secret":"0cc81fe946","server":"65535","farm":66,"title":"Barn Swallows (Hirundo rustica)","ispublic":1,"isfriend":0,"isfamily":0},{"id":"52595084478","owner":"150142984@N02","secret":"d0f6731a1a","server":"65535","farm":66,"title":"Rauchschwalbe (Hirundo rustica)","ispublic":1,"isfriend":0,"isfamily":0},{"id":"52585598454","owner":"12639178@N07","secret":"02ed50c427","server":"65535","farm":66,"title":"Rauchschwalbe d\u00fcst am Beobachtungsturm vobei","ispublic":1,"isfriend":0,"isfamily":0},{"id":"52710667813","owner":"193617639@N07","secret":"583ee707ce","server":"65535","farm":66,"title":"Andorinha-de-bando (Hirundo rustica)","ispublic":1,"isfriend":0,"isfamily":0},{"id":"52689905970","owner":"65609388@N07","secret":"a04d24eea2","server":"65535","farm":66,"title":"swallow  Barn Swallow Hirundo rustica Boerenzwaluw (2)  10-2","ispublic":1,"isfriend":0,"isfamily":0},{"id":"52688780891","owner":"124995824@N08","secret":"700c39e2b5","server":"65535","farm":66,"title":"Barn Swallow - Hirundo rustica","ispublic":1,"isfriend":0,"isfamily":0},{"id":"52684162332","owner":"124995824@N08","secret":"e9d9da9760","server":"65535","farm":66,"title":"Barn Swallow - Hirundo rustica","ispublic":1,"isfriend":0,"isfamily":0},{"id":"52669119152","owner":"53256251@N04","secret":"a35c784020","server":"65535","farm":66,"title":"Barn Swallow in Flight","ispublic":1,"isfriend":0,"isfamily":0},{"id":"52662539963","owner":"30120110@N02","secret":"2e64c5ef72","server":"65535","farm":66,"title":"Barn Swallow","ispublic":1,"isfriend":0,"isfamily":0},{"id":"52661149299","owner":"197320361@N05","secret":"605e423619","server":"65535","farm":66,"title":"Hirundo rustica \u5bb6\u71d5","ispublic":1,"isfriend":0,"isfamily":0},{"id":"52650822544","owner":"52363379@N07","secret":"9febcc075d","server":"65535","farm":66,"title":"102A8473Hirundo rustica erythrogaster","ispublic":1,"isfriend":0,"isfamily":0},{"id":"52650714479","owner":"12639178@N07","secret":"571fdeb5a9","server":"65535","farm":66,"title":"Rauchschwalbe (Hirundo rustica) (3)","ispublic":1,"isfriend":0,"isfamily":0},{"id":"52650440821","owner":"12639178@N07","secret":"0fd2e4c52e","server":"65535","farm":66,"title":"Rauchschwalbe (Hirundo rustica)","ispublic":1,"isfriend":0,"isfamily":0},{"id":"52646136945","owner":"12639178@N07","secret":"a0f59004bd","server":"65535","farm":66,"title":"Rauchschwalben","ispublic":1,"isfriend":0,"isfamily":0},{"id":"52645156648","owner":"8013969@N03","secret":"5a56b5810c","server":"65535","farm":66,"title":"Hirundo rustica DFL phil22-1","ispublic":1,"isfriend":0,"isfamily":0},{"id":"52638295207","owner":"183840266@N08","secret":"a4da39bbee","server":"65535","farm":66,"title":"Barn Swallow (Hirundo rustica gutturalis)","ispublic":1,"isfriend":0,"isfamily":0},{"id":"52632995438","owner":"12639178@N07","secret":"1a10024aa2","server":"65535","farm":66,"title":"Rauchschwalbe (Hirundo rustica)","ispublic":1,"isfriend":0,"isfamily":0},{"id":"52631996352","owner":"12639178@N07","secret":"e7af82a315","server":"65535","farm":66,"title":"Rauchschwalbennest (Hirundo rustica) innerhalb des Beobachtungsturms","ispublic":1,"isfriend":0,"isfamily":0},{"id":"52631701686","owner":"171333438@N08","secret":"164edd139c","server":"65535","farm":66,"title":"Hirondelle rustique (Hirundo rustica)","ispublic":1,"isfriend":0,"isfamily":0},{"id":"52632140970","owner":"171333438@N08","secret":"b69618df08","server":"65535","farm":66,"title":"Hirondelle rustique (Hirundo rustica)","ispublic":1,"isfriend":0,"isfamily":0},{"id":"52632140585","owner":"171333438@N08","secret":"fb4f6e5277","server":"65535","farm":66,"title":"Hirondelle rustique (Hirundo rustica)","ispublic":1,"isfriend":0,"isfamily":0},{"id":"52632182553","owner":"171333438@N08","secret":"a8062b7008","server":"65535","farm":66,"title":"Hirondelle rustique (Hirundo rustica)","ispublic":1,"isfriend":0,"isfamily":0},{"id":"52631954534","owner":"171333438@N08","secret":"b0059e0d34","server":"65535","farm":66,"title":"Hirondelle rustique (Hirundo rustica)","ispublic":1,"isfriend":0,"isfamily":0},{"id":"52631110466","owner":"171333438@N08","secret":"038453b1a8","server":"65535","farm":66,"title":"Hirondelle rustique (Hirundo rustica)","ispublic":1,"isfriend":0,"isfamily":0},{"id":"52629211347","owner":"12639178@N07","secret":"41da8d6e7d","server":"65535","farm":66,"title":"Rauchschwalbe","ispublic":1,"isfriend":0,"isfamily":0},{"id":"52627940293","owner":"12639178@N07","secret":"69f7c9049d","server":"65535","farm":66,"title":"Rauchschwalben in Lewkowo Stare","ispublic":1,"isfriend":0,"isfamily":0},{"id":"52627900375","owner":"12639178@N07","secret":"0c3ecf8fca","server":"65535","farm":66,"title":"Rauchschwalbe in Lewkowo Stare","ispublic":1,"isfriend":0,"isfamily":0},{"id":"52619631875","owner":"50783922@N06","secret":"af19f5ddd1","server":"65535","farm":66,"title":"Barn Swallow (Hirundo rustica)","ispublic":1,"isfriend":0,"isfamily":0},{"id":"52599370402","owner":"12639178@N07","secret":"7a541b64e4","server":"65535","farm":66,"title":"Rauchschwalbe (Hirundo rustica) (2)","ispublic":1,"isfriend":0,"isfamily":0},{"id":"52599370217","owner":"12639178@N07","secret":"f5dfc44a15","server":"65535","farm":66,"title":"Rauchschwalbe (Hirundo rustica) (1)","ispublic":1,"isfriend":0,"isfamily":0},{"id":"52589905461","owner":"12639178@N07","secret":"46129302bc","server":"65535","farm":66,"title":"Rauchschwalbe (Hirundo rustica) (1)","ispublic":1,"isfriend":0,"isfamily":0},{"id":"52588955558","owner":"30120110@N02","secret":"167d129d82","server":"65535","farm":66,"title":"Barn Swallow","ispublic":1,"isfriend":0,"isfamily":0},{"id":"52588702334","owner":"30120110@N02","secret":"46cb363787","server":"65535","farm":66,"title":"Barn Swallow","ispublic":1,"isfriend":0,"isfamily":0},{"id":"52587957197","owner":"30120110@N02","secret":"a0b4dd739a","server":"65535","farm":66,"title":"Barn Swallow","ispublic":1,"isfriend":0,"isfamily":0},{"id":"52588439806","owner":"30120110@N02","secret":"57e0a6544e","server":"65535","farm":66,"title":"Barn Swallow","ispublic":1,"isfriend":0,"isfamily":0},{"id":"52584865327","owner":"12639178@N07","secret":"175c0d31ac","server":"65535","farm":66,"title":"Rauchschwalben-Nestlinge im Beobachtungsturm","ispublic":1,"isfriend":0,"isfamily":0},{"id":"52585772430","owner":"12639178@N07","secret":"e7d1570077","server":"65535","farm":66,"title":"Rauchschwalben unterhalb des Beobachtungsturms","ispublic":1,"isfriend":0,"isfamily":0},{"id":"52584865092","owner":"12639178@N07","secret":"fb30e0508e","server":"65535","farm":66,"title":"Rauchschwalben zeigen ihre Flugk\u00fcnste","ispublic":1,"isfriend":0,"isfamily":0},{"id":"52584864982","owner":"12639178@N07","secret":"210c40cf07","server":"65535","farm":66,"title":"Rauchschwalbe d\u00fcst am Beobachtungsturm vobei","ispublic":1,"isfriend":0,"isfamily":0},{"id":"52585399774","owner":"12639178@N07","secret":"415f5ea9bc","server":"65535","farm":66,"title":"Hirundo rustica, Rauchschwalbe","ispublic":1,"isfriend":0,"isfamily":0},{"id":"52585138521","owner":"12639178@N07","secret":"9c75a3cc9b","server":"65535","farm":66,"title":"Hirundo rustica, Rauchschwalbe,dj.","ispublic":1,"isfriend":0,"isfamily":0}]},"stat":"ok"}