{"photos":{"page":1,"pages":96,"perpage":100,"total":9592,"photo":[{"id":"52724397588","owner":"126601468@N05","secret":"042d1870e7","server":"65535","farm":66,"title":"Chouette ray\u00e9e \/ Barred owl","ispublic":1,"isfriend":0,"isfamily":0},{"id":"52719138636","owner":"104776175@N06","secret":"92044c7740","server":"65535","farm":66,"title":"Strix varia","ispublic":1,"isfriend":0,"isfamily":0},{"id":"52718073226","owner":"79791557@N02","secret":"2035ba7afa","server":"65535","farm":66,"title":"Barred Owl (Strix varia)","ispublic":1,"isfriend":0,"isfamily":0},{"id":"52718491535","owner":"79791557@N02","secret":"83c08ebe47","server":"65535","farm":66,"title":"Barred Owl (Strix varia)","ispublic":1,"isfriend":0,"isfamily":0},{"id":"52718491020","owner":"79791557@N02","secret":"7ecfb1da22","server":"65535","farm":66,"title":"Barred Owl (Strix varia)","ispublic":1,"isfriend":0,"isfamily":0},{"id":"52718551958","owner":"79791557@N02","secret":"3e87bfa52b","server":"65535","farm":66,"title":"Barred Owl (Strix varia)","ispublic":1,"isfriend":0,"isfamily":0},{"id":"52716314397","owner":"134091604@N03","secret":"8cb4764c36","server":"65535","farm":66,"title":"Eye to Eye with a Barred Owl (Explored, March 1, 2023)","ispublic":1,"isfriend":0,"isfamily":0},{"id":"52716673183","owner":"76689095@N07","secret":"d7441fe260","server":"65535","farm":66,"title":"Chouette ray\u00e9e - Barred Owl - Strix varia","ispublic":1,"isfriend":0,"isfamily":0},{"id":"52716579988","owner":"150317576@N08","secret":"755ed3ccb5","server":"65535","farm":66,"title":"Barred Owl (Chouette ray\u00e9e)","ispublic":1,"isfriend":0,"isfamily":0},{"id":"52709863682","owner":"162482904@N06","secret":"5fcd43f5d7","server":"65535","farm":66,"title":"Strix varia ME 01","ispublic":1,"isfriend":0,"isfamily":0},{"id":"52705878050","owner":"146597151@N03","secret":"2efdc3c30d","server":"65535","farm":66,"title":"Barred Owl \/ Chouette raye\u0301e","ispublic":1,"isfriend":0,"isfamily":0},{"id":"52703562829","owner":"150317576@N08","secret":"20b4b39389","server":"65535","farm":66,"title":"Barred Owl (Chouette ray\u00e9e)","ispublic":1,"isfriend":0,"isfamily":0},{"id":"52699840378","owner":"44075517@N00","secret":"3dac38b827","server":"65535","farm":66,"title":"Barred Owl, Strix varia Barton, 1799","ispublic":1,"isfriend":0,"isfamily":0},{"id":"52699840273","owner":"44075517@N00","secret":"f1a99420b2","server":"65535","farm":66,"title":"Barred Owl, Strix varia Barton, 1799","ispublic":1,"isfriend":0,"isfamily":0},{"id":"52695980026","owner":"23016207@N05","secret":"84d26f9e55","server":"65535","farm":66,"title":"silent","ispublic":1,"isfriend":0,"isfamily":0},{"id":"52693894325","owner":"150317576@N08","secret":"dc2c2d6223","server":"65535","farm":66,"title":"Barred Owl (Chouette ray\u00e9e)","ispublic":1,"isfriend":0,"isfamily":0},{"id":"52693484546","owner":"150317576@N08","secret":"8df573d191","server":"65535","farm":66,"title":"Barred Owl (Chouette ray\u00e9e)","ispublic":1,"isfriend":0,"isfamily":0},{"id":"52691758455","owner":"34591179@N08","secret":"9cbd289861","server":"65535","farm":66,"title":"Chouette ray\u00e9e","ispublic":1,"isfriend":0,"isfamily":0},{"id":"52688979548","owner":"150317576@N08","secret":"6acd39d082","server":"65535","farm":66,"title":"Barred Owl (Chouette ray\u00e9e)","ispublic":1,"isfriend":0,"isfamily":0},{"id":"52688910280","owner":"150317576@N08","secret":"0eeb0d77d1","server":"65535","farm":66,"title":"Barred Owl (Chouette ray\u00e9e)","ispublic":1,"isfriend":0,"isfamily":0},{"id":"52682758051","owner":"39445433@N02","secret":"505c08329c","server":"65535","farm":66,"title":"Barred Owl","ispublic":1,"isfriend":0,"isfamily":0},{"id":"52682757746","owner":"39445433@N02","secret":"885d925abd","server":"65535","farm":66,"title":"Barred Owl","ispublic":1,"isfriend":0,"isfamily":0},{"id":"52682235467","owner":"39445433@N02","secret":"6ca9324f7c","server":"65535","farm":66,"title":"Barred Owl","ispublic":1,"isfriend":0,"isfamily":0},{"id":"52682353254","owner":"23016207@N05","secret":"84e0e6a8f9","server":"65535","farm":66,"title":"possibilitiy?","ispublic":1,"isfriend":0,"isfamily":0},{"id":"52682352859","owner":"23016207@N05","secret":"d037b471aa","server":"65535","farm":66,"title":"morning sun","ispublic":1,"isfriend":0,"isfamily":0},{"id":"52678938982","owner":"126297346@N07","secret":"b58de70a98","server":"65535","farm":66,"title":"Chouette ray\u00e9e | Barred Owl | Strix varia","ispublic":1,"isfriend":0,"isfamily":0},{"id":"52679602890","owner":"186604745@N03","secret":"86272200e2","server":"65535","farm":66,"title":"Chouette ray\u00e9e \\ Barred Owl","ispublic":1,"isfriend":0,"isfamily":0},{"id":"52675169728","owner":"136623382@N04","secret":"1d5884c1bc","server":"65535","farm":66,"title":"\"Sleeping Beauty\"","ispublic":1,"isfriend":0,"isfamily":0},{"id":"52672317126","owner":"186604745@N03","secret":"e6454c3f7f","server":"65535","farm":66,"title":"Chouette ray\u00e9e \\ Barred Owl","ispublic":1,"isfriend":0,"isfamily":0},{"id":"52671816982","owner":"186604745@N03","secret":"7f05488220","server":"65535","farm":66,"title":"Chouette ray\u00e9e \\ Barred Owl","ispublic":1,"isfriend":0,"isfamily":0},{"id":"52672752070","owner":"186604745@N03","secret":"8c45360101","server":"65535","farm":66,"title":"Chouette ray\u00e9e \\ Barred Owl","ispublic":1,"isfriend":0,"isfamily":0},{"id":"52672816593","owner":"186604745@N03","secret":"f6c409d14f","server":"65535","farm":66,"title":"Chouette ray\u00e9e \\ Barred Owl","ispublic":1,"isfriend":0,"isfamily":0},{"id":"52672816538","owner":"186604745@N03","secret":"e78e2a4b51","server":"65535","farm":66,"title":"Chouette ray\u00e9e \\ Barred Owl","ispublic":1,"isfriend":0,"isfamily":0},{"id":"52670196286","owner":"168495655@N07","secret":"d0412777b7","server":"65535","farm":66,"title":"Chouette ray\u00e9e - Strix varia - Barred Owl","ispublic":1,"isfriend":0,"isfamily":0},{"id":"52669632422","owner":"63354879@N02","secret":"14f65e6bce","server":"65535","farm":66,"title":"Barred Owl","ispublic":1,"isfriend":0,"isfamily":0},{"id":"52668937661","owner":"189113466@N07","secret":"568d5be311","server":"65535","farm":66,"title":"Chouette ray\u00e9e - Barred Owl - Strix varia","ispublic":1,"isfriend":0,"isfamily":0},{"id":"52668820165","owner":"39177293@N03","secret":"5b58d2b0bb","server":"65535","farm":66,"title":"Barred Owl","ispublic":1,"isfriend":0,"isfamily":0},{"id":"52667652127","owner":"186604745@N03","secret":"eb24b984b1","server":"65535","farm":66,"title":"Chouette ray\u00e9e \\ Barred Owl","ispublic":1,"isfriend":0,"isfamily":0},{"id":"52667652082","owner":"186604745@N03","secret":"ab9ce4c2c7","server":"65535","farm":66,"title":"Chouette ray\u00e9e \\ Barred Owl","ispublic":1,"isfriend":0,"isfamily":0},{"id":"52663427161","owner":"71933035@N00","secret":"8451cded37","server":"65535","farm":66,"title":"Barred Owl (Strix varia) viewed from the back along the trail, Dartmouth Nova Scotia","ispublic":1,"isfriend":0,"isfamily":0},{"id":"52663427051","owner":"71933035@N00","secret":"6e0c5ae275","server":"65535","farm":66,"title":"Barred Owl (Strix varia) viewed from the front along the trail, Dartmouth Nova Scotia","ispublic":1,"isfriend":0,"isfamily":0},{"id":"52663426891","owner":"71933035@N00","secret":"20735f286d","server":"65535","farm":66,"title":"Barred Owl (Strix varia) viewed from the side along the trail, Dartmouth Nova Scotia","ispublic":1,"isfriend":0,"isfamily":0},{"id":"52663711629","owner":"71933035@N00","secret":"b53596da22","server":"65535","farm":66,"title":"Barred Owl (Strix varia) viewed from the side along the trail, Dartmouth Nova Scotia 2","ispublic":1,"isfriend":0,"isfamily":0},{"id":"52663919938","owner":"71933035@N00","secret":"052d62ea38","server":"65535","farm":66,"title":"Barred Owl (Strix varia) viewed from the back along the trail, Dartmouth Nova Scotia 2","ispublic":1,"isfriend":0,"isfamily":0},{"id":"52662631470","owner":"97737456@N07","secret":"bd54a28772","server":"65535","farm":66,"title":"Barred Owl","ispublic":1,"isfriend":0,"isfamily":0},{"id":"52660979467","owner":"126297346@N07","secret":"0d05cfcf44","server":"65535","farm":66,"title":"Chouette ray\u00e9e | Barred Owl | Strix varia [Explore | 2023-02-01 | 211]","ispublic":1,"isfriend":0,"isfamily":0},{"id":"52661071920","owner":"162163713@N06","secret":"515d0cd1fd","server":"65535","farm":66,"title":"Chouette ray\u00e9e -  Strix varia - Barred Owl","ispublic":1,"isfriend":0,"isfamily":0},{"id":"52660891243","owner":"165841515@N03","secret":"a8b6a99947","server":"65535","farm":66,"title":"Chouette ray\u00e9e \/ Barred Owl \/ (Strix varia)","ispublic":1,"isfriend":0,"isfamily":0},{"id":"52660890508","owner":"165841515@N03","secret":"cdd51dd5c7","server":"65535","farm":66,"title":"Chouette ray\u00e9e \/ Barred Owl \/ (Strix varia)","ispublic":1,"isfriend":0,"isfamily":0},{"id":"52658303367","owner":"129051288@N05","secret":"44409f72fc","server":"65535","farm":66,"title":"Chouette ray\u00e9e, Strix varia, Barred Owl","ispublic":1,"isfriend":0,"isfamily":0},{"id":"52659024680","owner":"45340210@N05","secret":"c3b8f7d72b","server":"65535","farm":66,"title":"Barred Owl 1_tonemapped 1_30_23","ispublic":1,"isfriend":0,"isfamily":0},{"id":"52656426760","owner":"162163713@N06","secret":"33e1f79342","server":"65535","farm":66,"title":"Chouette ray\u00e9e -  Strix varia - Barred Owl","ispublic":1,"isfriend":0,"isfamily":0},{"id":"52655570088","owner":"31334354@N04","secret":"f81d6377cf","server":"65535","farm":66,"title":"IMG_7024     KKK","ispublic":1,"isfriend":0,"isfamily":0},{"id":"52654940925","owner":"189113466@N07","secret":"5a5253369c","server":"65535","farm":66,"title":"Chouette ray\u00e9e - Barred Owl - Strix varia","ispublic":1,"isfriend":0,"isfamily":0},{"id":"52654850108","owner":"189113466@N07","secret":"e8fd5f4288","server":"65535","farm":66,"title":"Chouette ray\u00e9e - Barred Owl - Strix varia","ispublic":1,"isfriend":0,"isfamily":0},{"id":"52653026554","owner":"52048986@N05","secret":"a4bb6dea92","server":"65535","farm":66,"title":"A7401332","ispublic":1,"isfriend":0,"isfamily":0},{"id":"52648335022","owner":"134691658@N05","secret":"809a6fbe14","server":"65535","farm":66,"title":"Chouette ray\u00e9e \/ Barred owl","ispublic":1,"isfriend":0,"isfamily":0},{"id":"52649008445","owner":"125645386@N04","secret":"98021a6dc8","server":"65535","farm":66,"title":"Chouette ray\u00e9e - Barred owl - Strix varia","ispublic":1,"isfriend":0,"isfamily":0},{"id":"52646008218","owner":"193835300@N08","secret":"246f96af4d","server":"65535","farm":66,"title":"Chouette ray\u00e9 - Strix varia -  barred owl - temp\u00eate1","ispublic":1,"isfriend":0,"isfamily":0},{"id":"52645791069","owner":"193835300@N08","secret":"12997e714e","server":"65535","farm":66,"title":"Chouette ray\u00e9 - Strix varia -  barred owl - temp\u00eate2","ispublic":1,"isfriend":0,"isfamily":0},{"id":"52646008153","owner":"193835300@N08","secret":"957eecc53c","server":"65535","farm":66,"title":"Chouette ray\u00e9 - Strix varia -  barred owl - temp\u00eate3","ispublic":1,"isfriend":0,"isfamily":0},{"id":"52643871183","owner":"38943236@N03","secret":"333a852f66","server":"65535","farm":66,"title":"Barred Owl","ispublic":1,"isfriend":0,"isfamily":0},{"id":"52641536807","owner":"24379925@N08","secret":"c73bc0929e","server":"65535","farm":66,"title":"BARREL OWL","ispublic":1,"isfriend":0,"isfamily":0},{"id":"52641470044","owner":"17654080@N08","secret":"174ec5287c","server":"65535","farm":66,"title":"Barred Owl - Adirondacks, NY - 01\/18\/2023","ispublic":1,"isfriend":0,"isfamily":0},{"id":"52640861816","owner":"150317576@N08","secret":"80873716a4","server":"65535","farm":66,"title":"Barred Owl (Chouette ray\u00e9e)","ispublic":1,"isfriend":0,"isfamily":0},{"id":"52640111594","owner":"187341427@N04","secret":"839bbf64a9","server":"65535","farm":66,"title":"Winter Owl","ispublic":1,"isfriend":0,"isfamily":0},{"id":"52637720653","owner":"95512601@N00","secret":"4eecee74c8","server":"65535","farm":66,"title":"Barred Owl (Strix Varia)","ispublic":1,"isfriend":0,"isfamily":0},{"id":"52636081622","owner":"161505078@N03","secret":"db8c5c0221","server":"65535","farm":66,"title":"Barred Owl (Strix varia)","ispublic":1,"isfriend":0,"isfamily":0},{"id":"52635166851","owner":"161505078@N03","secret":"3e710c7a2c","server":"65535","farm":66,"title":"Barred Owl (Strix varia)","ispublic":1,"isfriend":0,"isfamily":0},{"id":"52634038127","owner":"9540764@N05","secret":"6d21d2872f","server":"65535","farm":66,"title":"Sax-Zim Bog","ispublic":1,"isfriend":0,"isfamily":0},{"id":"52634810164","owner":"9540764@N05","secret":"4810d8a797","server":"65535","farm":66,"title":"Sax-Zim Bog","ispublic":1,"isfriend":0,"isfamily":0},{"id":"52634986735","owner":"9540764@N05","secret":"1ce830ccda","server":"65535","farm":66,"title":"Sax-Zim Bog","ispublic":1,"isfriend":0,"isfamily":0},{"id":"52634038237","owner":"9540764@N05","secret":"4b1663422b","server":"65535","farm":66,"title":"Sax-Zim Bog","ispublic":1,"isfriend":0,"isfamily":0},{"id":"52634810244","owner":"9540764@N05","secret":"c2c01c2c23","server":"65535","farm":66,"title":"Sax-Zim Bog","ispublic":1,"isfriend":0,"isfamily":0},{"id":"52634038197","owner":"9540764@N05","secret":"6492a2a57d","server":"65535","farm":66,"title":"Sax-Zim Bog","ispublic":1,"isfriend":0,"isfamily":0},{"id":"52635033723","owner":"9540764@N05","secret":"bfeaaa4d17","server":"65535","farm":66,"title":"Sax-Zim Bog","ispublic":1,"isfriend":0,"isfamily":0},{"id":"52634810184","owner":"9540764@N05","secret":"c928b2405f","server":"65535","farm":66,"title":"Sax-Zim Bog","ispublic":1,"isfriend":0,"isfamily":0},{"id":"52634038142","owner":"9540764@N05","secret":"51ac376a08","server":"65535","farm":66,"title":"Sax-Zim Bog","ispublic":1,"isfriend":0,"isfamily":0},{"id":"52634061806","owner":"183736567@N07","secret":"c150120d8b","server":"65535","farm":66,"title":"Barred Owl (Strix varia) posing","ispublic":1,"isfriend":0,"isfamily":0},{"id":"52632611911","owner":"152675955@N08","secret":"d800a85ebf","server":"65535","farm":66,"title":"Poussi\u00e8re de neige \/ Snow dust","ispublic":1,"isfriend":0,"isfamily":0},{"id":"52630287292","owner":"150317576@N08","secret":"a79cbe4c2e","server":"65535","farm":66,"title":"Barred Owl (Chouette ray\u00e9e)","ispublic":1,"isfriend":0,"isfamily":0},{"id":"52629534859","owner":"126297346@N07","secret":"6b9c4d6cdc","server":"65535","farm":66,"title":"Chouette ray\u00e9e | Barred Owl | Strix varia [Explore | 2023-01-16 | 19]","ispublic":1,"isfriend":0,"isfamily":0},{"id":"52622841892","owner":"61241315@N00","secret":"461f06ce52","server":"65535","farm":66,"title":"Barred Owl_N4729","ispublic":1,"isfriend":0,"isfamily":0},{"id":"52621313303","owner":"92361032@N05","secret":"259dbd7e2f","server":"65535","farm":66,"title":"Barred Owl \/Chouette ray\u00e9e ( Diane )","ispublic":1,"isfriend":0,"isfamily":0},{"id":"52621174778","owner":"165841515@N03","secret":"758c31c4e0","server":"65535","farm":66,"title":"Chouette ray\u00e9e \/ Barred Owl \/ (Strix varia)","ispublic":1,"isfriend":0,"isfamily":0},{"id":"52621173948","owner":"165841515@N03","secret":"832e930616","server":"65535","farm":66,"title":"Chouette ray\u00e9e \/ Barred Owl \/ (Strix varia)","ispublic":1,"isfriend":0,"isfamily":0},{"id":"52620119061","owner":"61241315@N00","secret":"b4d2fdf04b","server":"0","farm":0,"title":"Barred Owl_4463,85.MP4","ispublic":1,"isfriend":0,"isfamily":0},{"id":"52620381594","owner":"61241315@N00","secret":"87d965ba6f","server":"65535","farm":66,"title":"Barred Owl_N4472","ispublic":1,"isfriend":0,"isfamily":0},{"id":"52620191835","owner":"134691658@N05","secret":"7a52829980","server":"65535","farm":66,"title":"Chouette ray\u00e9e \/ Barred owl","ispublic":1,"isfriend":0,"isfamily":0},{"id":"52618403309","owner":"71933035@N00","secret":"bfb37ffccc","server":"65535","farm":66,"title":"Barred Owl (Strix varia) along the trail, Oathill Lake Dartmouth Nova Scotia 3","ispublic":1,"isfriend":0,"isfamily":0},{"id":"52618571045","owner":"71933035@N00","secret":"631a283bcd","server":"65535","farm":66,"title":"Barred Owl (Strix varia) along the trail, Oathill Lake Dartmouth Nova Scotia 2","ispublic":1,"isfriend":0,"isfamily":0},{"id":"52618133436","owner":"71933035@N00","secret":"ec2b41aa01","server":"65535","farm":66,"title":"Barred Owl (Strix varia) along the trail, Oathill Lake Dartmouth Nova Scotia","ispublic":1,"isfriend":0,"isfamily":0},{"id":"52618621518","owner":"71933035@N00","secret":"b18f73f2fb","server":"65535","farm":66,"title":"Checking Out the Crows Overhead - Barred Owl (Strix varia) along the trail, Oathill Lake Dartmouth Nova Scotia","ispublic":1,"isfriend":0,"isfamily":0},{"id":"52615366634","owner":"191038887@N04","secret":"313370bb27","server":"65535","farm":66,"title":"Chouette ray\u00e9e - Barred owl - Strix varia","ispublic":1,"isfriend":0,"isfamily":0},{"id":"52612054862","owner":"79097894@N04","secret":"55162f252f","server":"65535","farm":66,"title":"Barred Owl","ispublic":1,"isfriend":0,"isfamily":0},{"id":"52612560931","owner":"79097894@N04","secret":"e683033e74","server":"65535","farm":66,"title":"Barred Owl","ispublic":1,"isfriend":0,"isfamily":0},{"id":"52611652521","owner":"150317576@N08","secret":"d0d9d28a18","server":"65535","farm":66,"title":"Barred Owl (Chouette ray\u00e9e)","ispublic":1,"isfriend":0,"isfamily":0},{"id":"52610731032","owner":"125645386@N04","secret":"d8b0a8cf09","server":"65535","farm":66,"title":"Chouette ray\u00e9e - Barred owl - Strix varia","ispublic":1,"isfriend":0,"isfamily":0},{"id":"52611235541","owner":"125645386@N04","secret":"f541f47c43","server":"65535","farm":66,"title":"Chouette ray\u00e9e - Barred owl - Strix varia","ispublic":1,"isfriend":0,"isfamily":0},{"id":"52608593984","owner":"161505078@N03","secret":"4383fe5ea6","server":"65535","farm":66,"title":"Barred Owl (Strix varia)","ispublic":1,"isfriend":0,"isfamily":0}]},"stat":"ok"}