{"photos":{"page":1,"pages":3,"perpage":100,"total":219,"photo":[{"id":"52777362541","owner":"62501256@N05","secret":"f6f606fae8","server":"65535","farm":66,"title":"Beaudouin's Snake-eagle (Circaetus beaudouini)","ispublic":1,"isfriend":0,"isfamily":0},{"id":"52721317850","owner":"128578170@N06","secret":"6298773c46","server":"65535","farm":66,"title":"Beaudouin's Snake Eagle Circaetus beaudouini","ispublic":1,"isfriend":0,"isfamily":0},{"id":"52710036968","owner":"90072707@N03","secret":"74a1587c4f","server":"65535","farm":66,"title":"Beaudoin's Snake-Eagle (Circaetus beaudouini) Masindi-Kibangya Rd Uganda","ispublic":1,"isfriend":0,"isfamily":0},{"id":"52709971270","owner":"90072707@N03","secret":"a5cf23d395","server":"65535","farm":66,"title":"Beaudoin's Snake-Eagle (Circaetus beaudouini) Masindi-Kibangya Rd Uganda","ispublic":1,"isfriend":0,"isfamily":0},{"id":"52508104095","owner":"27588142@N06","secret":"f10f723569","server":"65535","farm":66,"title":"Beaudouin's Snake-Eagle","ispublic":1,"isfriend":0,"isfamily":0},{"id":"52508180583","owner":"27588142@N06","secret":"bff65c3f3a","server":"65535","farm":66,"title":"Beaudouin's Snake-Eagle","ispublic":1,"isfriend":0,"isfamily":0},{"id":"52507629771","owner":"27588142@N06","secret":"b3794c1bbd","server":"65535","farm":66,"title":"Beaudouin's Snake-Eagle","ispublic":1,"isfriend":0,"isfamily":0},{"id":"52507901634","owner":"27588142@N06","secret":"c755f03d09","server":"65535","farm":66,"title":"Beaudouin's Snake-Eagle","ispublic":1,"isfriend":0,"isfamily":0},{"id":"51914732989","owner":"128578170@N06","secret":"4915b1c273","server":"65535","farm":66,"title":"Beaudouin's Snake Eagle Circaetus beaudouini","ispublic":1,"isfriend":0,"isfamily":0},{"id":"51171137913","owner":"61021753@N02","secret":"daca47a177","server":"65535","farm":66,"title":"n242_w1150","ispublic":1,"isfriend":0,"isfamily":0},{"id":"50758634177","owner":"145183414@N05","secret":"9768032cfe","server":"65535","farm":66,"title":"Beaudouin's Snake Eagle - Circaetus beaudouini","ispublic":1,"isfriend":0,"isfamily":0},{"id":"50532710668","owner":"64230701@N06","secret":"ce88799cd7","server":"65535","farm":66,"title":"Beaudouin's Snake-Eagle (Circaetus beaudouini).","ispublic":1,"isfriend":0,"isfamily":0},{"id":"50533589112","owner":"64230701@N06","secret":"36815dff4a","server":"65535","farm":66,"title":"Beaudouin's Snake-Eagle (Circaetus beaudouini).","ispublic":1,"isfriend":0,"isfamily":0},{"id":"50312231042","owner":"119787485@N07","secret":"a67621e77e","server":"65535","farm":66,"title":"Beaudouin's Snake-Eagle (Circaetus beaudouini) - 20170202-04","ispublic":1,"isfriend":0,"isfamily":0},{"id":"50228223367","owner":"77469100@N04","secret":"bdeef574b8","server":"65535","farm":66,"title":"Short-toed Eagle flight_w_4944","ispublic":1,"isfriend":0,"isfamily":0},{"id":"50166334876","owner":"73091266@N00","secret":"8b74aa83c4","server":"65535","farm":66,"title":"Beaudouin's Snake-Eagle","ispublic":1,"isfriend":0,"isfamily":0},{"id":"49704159478","owner":"144773827@N08","secret":"02a8f0f846","server":"65535","farm":66,"title":"Bedouins Snake Eagle-7D2_2286-001","ispublic":1,"isfriend":0,"isfamily":0},{"id":"49640152092","owner":"77469100@N04","secret":"36197bd27c","server":"65535","farm":66,"title":"Short-toed Eagle flight_w_6119","ispublic":1,"isfriend":0,"isfamily":0},{"id":"49300115148","owner":"126356805@N02","secret":"e1292dd11e","server":"65535","farm":66,"title":"Circa\u00e8te de Beaudouin","ispublic":1,"isfriend":0,"isfamily":0},{"id":"49300809537","owner":"126356805@N02","secret":"a378bc9f59","server":"65535","farm":66,"title":"Circa\u00e8te de Beaudouin","ispublic":1,"isfriend":0,"isfamily":0},{"id":"49300602161","owner":"126356805@N02","secret":"807bc453b2","server":"65535","farm":66,"title":"Circa\u00e8te de Beaudouin","ispublic":1,"isfriend":0,"isfamily":0},{"id":"46298391234","owner":"50264295@N06","secret":"8a598ba20e","server":"7900","farm":8,"title":"Beaudouin's Snake-Eagle (Circaetus beaudouini)","ispublic":1,"isfriend":0,"isfamily":0},{"id":"45984877481","owner":"95200573@N03","secret":"fc01272435","server":"4894","farm":5,"title":"Beaudouin's Snake-eagle Circaetus beaudouini","ispublic":1,"isfriend":0,"isfamily":0},{"id":"24426796527","owner":"12639178@N07","secret":"0acda8c295","server":"4683","farm":5,"title":"Beaudouin's -Schlangenadler, Beaudouin's Snake Eagle (Circaetus beaudouini) , NGIDn737589188","ispublic":1,"isfriend":0,"isfamily":0},{"id":"38831422751","owner":"77469100@N04","secret":"44a11983c5","server":"4581","farm":5,"title":"Short-toed-Eagle-flight-forest_w_5646","ispublic":1,"isfriend":0,"isfamily":0},{"id":"37944624145","owner":"77469100@N04","secret":"aaf0b3d9c2","server":"4535","farm":5,"title":"Short-toed-Eagle-taking-off_w_028119","ispublic":1,"isfriend":0,"isfamily":0},{"id":"32736349041","owner":"146992378@N02","secret":"afd06454bc","server":"2465","farm":3,"title":"Circa\u00e8te de Beaudouin - Circaetus beaudouini","ispublic":1,"isfriend":0,"isfamily":0},{"id":"32055544535","owner":"81454530@N07","secret":"a34186237c","server":"516","farm":1,"title":"Beaudouin's snake eagle (Circaetus beaudouini)","ispublic":1,"isfriend":0,"isfamily":0},{"id":"25576220390","owner":"127316940@N03","secret":"35ebf2f366","server":"1561","farm":2,"title":"Accipitridae: Beaudouin-Schlangenadler - Beaudouin\u00b4s Snake-Eagle - Circaetus beaudouini (Toubacouta)","ispublic":1,"isfriend":0,"isfamily":0},{"id":"23952296276","owner":"9384564@N04","secret":"5a45fb1770","server":"1692","farm":2,"title":"Circaetus beaudouini - Beaudouin's Snake-eagle","ispublic":1,"isfriend":0,"isfamily":0},{"id":"23718546025","owner":"76617062@N08","secret":"3a165a5ac9","server":"5695","farm":6,"title":"1.02411 Circa\u00e8te de Beaudouin \/ Circaetus beaudouini \/ Beaudouin's Snake-Eagle","ispublic":1,"isfriend":0,"isfamily":0},{"id":"23485546291","owner":"76454790@N02","secret":"c6308f3373","server":"65535","farm":66,"title":"Beaudouin's Snake Eagle (Circaetus beaudouini)","ispublic":1,"isfriend":0,"isfamily":0},{"id":"19693360693","owner":"77469100@N04","secret":"0e858b010b","server":"487","farm":1,"title":"Short-toed-Eagle_Habitat_w_4984","ispublic":1,"isfriend":0,"isfamily":0},{"id":"15509694094","owner":"77469100@N04","secret":"d38a909602","server":"8629","farm":9,"title":"Short-toed Eagle, Spain","ispublic":1,"isfriend":0,"isfamily":0},{"id":"15303677700","owner":"77469100@N04","secret":"a805fb05e1","server":"65535","farm":66,"title":"Short-toed-Eagle-Oct-Spain_8966","ispublic":1,"isfriend":0,"isfamily":0},{"id":"14884740444","owner":"77469100@N04","secret":"5f70d8be2d","server":"3851","farm":4,"title":"Short-toed-Eagle_w_6036","ispublic":1,"isfriend":0,"isfamily":0},{"id":"14700662677","owner":"77469100@N04","secret":"2b10700a9e","server":"3900","farm":4,"title":"Short-toed-Eagle_w_6035","ispublic":1,"isfriend":0,"isfamily":0},{"id":"14536940529","owner":"77469100@N04","secret":"cd52a932ed","server":"2940","farm":3,"title":"Short-toed-Eagle-tapa_5740","ispublic":1,"isfriend":0,"isfamily":0},{"id":"14699994796","owner":"77469100@N04","secret":"0c2cf9d730","server":"2932","farm":3,"title":"Short-toed-Eagle_7389","ispublic":1,"isfriend":0,"isfamily":0},{"id":"14720602574","owner":"77469100@N04","secret":"6b5499d156","server":"3850","farm":4,"title":"Short-toed-Eagle-fresh_w_7387","ispublic":1,"isfriend":0,"isfamily":0},{"id":"14536350709","owner":"77469100@N04","secret":"fcfeec5493","server":"5560","farm":6,"title":"Short-toed-Eagle-tapa_5740","ispublic":1,"isfriend":0,"isfamily":0},{"id":"13908257889","owner":"77469100@N04","secret":"64a81c6c6c","server":"7344","farm":8,"title":"Short-toed-Eagle_7482","ispublic":1,"isfriend":0,"isfamily":0},{"id":"13997808485","owner":"44096805@N07","secret":"8873d9321c","server":"2919","farm":3,"title":"Beaudouin`s Snake-Eagle (Circaetus beaudouini) male","ispublic":1,"isfriend":0,"isfamily":0},{"id":"13892067844","owner":"44096805@N07","secret":"99b64cab6e","server":"7264","farm":8,"title":"Beaudouin`s Snake-Eagle (Circaetus beaudouini) male","ispublic":1,"isfriend":0,"isfamily":0},{"id":"11630648103","owner":"33057724@N04","secret":"e6b6b8586b","server":"65535","farm":66,"title":"Beaudouin's Snake-eagle, Circaetus beaudouini","ispublic":1,"isfriend":0,"isfamily":0},{"id":"11130332913","owner":"77469100@N04","secret":"3630cd27da","server":"3670","farm":4,"title":"Short-toed-Eagle_6301","ispublic":1,"isfriend":0,"isfamily":0},{"id":"52709035782","owner":"90072707@N03","secret":"a83e1a02ec","server":"65535","farm":66,"title":"Beaudoin's Snake-Eagle (Circaetus beaudouini) Masindi-Kibangya Rd Uganda","ispublic":1,"isfriend":0,"isfamily":0},{"id":"52709558701","owner":"90072707@N03","secret":"1dfa385a01","server":"65535","farm":66,"title":"Beaudoin's Snake-Eagle (Circaetus beaudouini) Masindi-Kibangya Rd Uganda","ispublic":1,"isfriend":0,"isfamily":0},{"id":"52507149157","owner":"27588142@N06","secret":"3bf4385861","server":"65535","farm":66,"title":"Beaudouin's Snake-Eagle","ispublic":1,"isfriend":0,"isfamily":0},{"id":"52508180443","owner":"27588142@N06","secret":"704329706f","server":"65535","farm":66,"title":"Beaudouin's Snake-Eagle","ispublic":1,"isfriend":0,"isfamily":0},{"id":"52507148997","owner":"27588142@N06","secret":"ea9837fbef","server":"65535","farm":66,"title":"Beaudouin's Snake-Eagle","ispublic":1,"isfriend":0,"isfamily":0},{"id":"52508103725","owner":"27588142@N06","secret":"d9948f5f63","server":"65535","farm":66,"title":"Beaudouin's Snake-Eagle","ispublic":1,"isfriend":0,"isfamily":0},{"id":"52508103660","owner":"27588142@N06","secret":"69f648935d","server":"65535","farm":66,"title":"Beaudouin's Snake-Eagle","ispublic":1,"isfriend":0,"isfamily":0},{"id":"52507148802","owner":"27588142@N06","secret":"b6c91079d4","server":"65535","farm":66,"title":"Beaudouin's Snake-Eagle","ispublic":1,"isfriend":0,"isfamily":0},{"id":"52507148727","owner":"27588142@N06","secret":"f53c240d5e","server":"65535","farm":66,"title":"Beaudouin's Snake-Eagle","ispublic":1,"isfriend":0,"isfamily":0},{"id":"52507148632","owner":"27588142@N06","secret":"f4fee31acf","server":"65535","farm":66,"title":"Beaudouin's Snake-Eagle","ispublic":1,"isfriend":0,"isfamily":0},{"id":"52507901524","owner":"27588142@N06","secret":"822d75a27f","server":"65535","farm":66,"title":"Beaudouin's Snake-Eagle","ispublic":1,"isfriend":0,"isfamily":0},{"id":"52507901474","owner":"27588142@N06","secret":"e2fecbbbf0","server":"65535","farm":66,"title":"Beaudouin's Snake-Eagle","ispublic":1,"isfriend":0,"isfamily":0},{"id":"52507901409","owner":"27588142@N06","secret":"b1a2b4f53f","server":"65535","farm":66,"title":"Beaudouin's Snake-Eagle","ispublic":1,"isfriend":0,"isfamily":0},{"id":"51905922692","owner":"194206980@N08","secret":"100039c377","server":"65535","farm":66,"title":"Circa\u00e8te de Beaudouin - Circaetus beaudouini","ispublic":1,"isfriend":0,"isfamily":0},{"id":"51779929763","owner":"113457946@N06","secret":"3e33caabd7","server":"65535","farm":66,"title":"Beaudouins Snake Eagle  (Circaetus beaudouini)","ispublic":1,"isfriend":0,"isfamily":0},{"id":"49630969367","owner":"137371709@N06","secret":"0f58d12db2","server":"65535","farm":66,"title":"Circaetus beaudouini (Beaudouins Slangenarend)","ispublic":1,"isfriend":0,"isfamily":0},{"id":"49622367283","owner":"21606110@N08","secret":"00ceba53ce","server":"65535","farm":66,"title":"Beaudouin's Snake Eagle","ispublic":1,"isfriend":0,"isfamily":0},{"id":"49300809362","owner":"126356805@N02","secret":"ff4946b500","server":"65535","farm":66,"title":"Circa\u00e8te de Beaudouin","ispublic":1,"isfriend":0,"isfamily":0},{"id":"49300601866","owner":"126356805@N02","secret":"557a1f4249","server":"65535","farm":66,"title":"Circa\u00e8te de Beaudouin","ispublic":1,"isfriend":0,"isfamily":0},{"id":"41376532375","owner":"77469100@N04","secret":"e5df4b5f9c","server":"979","farm":1,"title":"Short-toed Eagle Spain Sept_w_047267","ispublic":1,"isfriend":0,"isfamily":0},{"id":"38800342892","owner":"77469100@N04","secret":"f7106c1876","server":"4542","farm":5,"title":"Short-toed-Eagle-juv-low-on-migration-Spain_w_7386","ispublic":1,"isfriend":0,"isfamily":0},{"id":"38831426701","owner":"77469100@N04","secret":"2b9aa59f3d","server":"4538","farm":5,"title":"Short-toed Eagle_w_5676","ispublic":1,"isfriend":0,"isfamily":0},{"id":"38800330512","owner":"77469100@N04","secret":"28f2c4d39d","server":"4581","farm":5,"title":"Short-toed-Eagle_2892","ispublic":1,"isfriend":0,"isfamily":0},{"id":"38800329682","owner":"77469100@N04","secret":"47c3f9f792","server":"4525","farm":5,"title":"Short-toed-Eagle_w_5669","ispublic":1,"isfriend":0,"isfamily":0},{"id":"38800328322","owner":"77469100@N04","secret":"d55a73ae7b","server":"4530","farm":5,"title":"Short-toed-Eagle-2006-Spain_4188","ispublic":1,"isfriend":0,"isfamily":0},{"id":"38800326422","owner":"77469100@N04","secret":"aa5f633d57","server":"4555","farm":5,"title":"Short-toed-Eagle-flightw__5658","ispublic":1,"isfriend":0,"isfamily":0},{"id":"38831421521","owner":"77469100@N04","secret":"998fa0cd02","server":"4546","farm":5,"title":"Short-toed-Eagle-forest-flight_w_5645","ispublic":1,"isfriend":0,"isfamily":0},{"id":"38800325332","owner":"77469100@N04","secret":"a1c29b14e2","server":"4527","farm":5,"title":"Short-toed-Eagle-inverted_w_5476","ispublic":1,"isfriend":0,"isfamily":0},{"id":"38800324262","owner":"77469100@N04","secret":"08210086a1","server":"4559","farm":5,"title":"Short-toed-Eagle-juv-flight-Spain_w_7402","ispublic":1,"isfriend":0,"isfamily":0},{"id":"38800323042","owner":"77469100@N04","secret":"44516218a8","server":"4573","farm":5,"title":"Short-toed-Eagle-light-3cy-March_w_7389","ispublic":1,"isfriend":0,"isfamily":0},{"id":"23966394937","owner":"77469100@N04","secret":"0f480e8598","server":"4575","farm":5,"title":"Short-toed-Eagle-Spain_2881","ispublic":1,"isfriend":0,"isfamily":0},{"id":"27055006739","owner":"77469100@N04","secret":"e302a50e0f","server":"4548","farm":5,"title":"Short-toed-Eagle-Spain_w_0772","ispublic":1,"isfriend":0,"isfamily":0},{"id":"23966392877","owner":"77469100@N04","secret":"174fed15ae","server":"4534","farm":5,"title":"Short-toed-Eagle-spring-Spain_2876","ispublic":1,"isfriend":0,"isfamily":0},{"id":"23966385427","owner":"77469100@N04","secret":"d829644e2e","server":"4574","farm":5,"title":"Short-toed-Eagle-taking-off_w_028126","ispublic":1,"isfriend":0,"isfamily":0},{"id":"24958561398","owner":"77469100@N04","secret":"93c2a251b9","server":"4556","farm":5,"title":"Short-toed-Eagle-taking-off_w_028127","ispublic":1,"isfriend":0,"isfamily":0},{"id":"37944621075","owner":"77469100@N04","secret":"8fb3b7df1c","server":"4522","farm":5,"title":"Short-toed-Eagle-turning_w_5729","ispublic":1,"isfriend":0,"isfamily":0},{"id":"36309019144","owner":"150190874@N06","secret":"f2311e32b4","server":"4358","farm":5,"title":"Circaetus beaudouini- Beaudouin's harrier-eagle - Circa\u00e8te de Beaudouin","ispublic":1,"isfriend":0,"isfamily":0},{"id":"32487043826","owner":"99613800@N02","secret":"8e4c8ab73f","server":"381","farm":1,"title":"Beaudouin's Snake Eagle (Circaetus beaudouini) - Accipitridae - Between Georgetown and Tendaba, The Gambia","ispublic":1,"isfriend":0,"isfamily":0},{"id":"29527210952","owner":"12639178@N07","secret":"91cb909635","server":"8615","farm":9,"title":"Beaudouin-Schlangenadler (Toubacouta) , NGIDn511118782","ispublic":1,"isfriend":0,"isfamily":0},{"id":"27558225623","owner":"134562141@N06","secret":"ee228897b2","server":"7525","farm":8,"title":"Sahelslange\u00f8rn, Beaudouin's Snake Eagle, Kartong","ispublic":1,"isfriend":0,"isfamily":0},{"id":"16008536127","owner":"77469100@N04","secret":"09cb6308b5","server":"7532","farm":8,"title":"Short-toed-Eagle-juv-flight-tail-pivot_w_7396","ispublic":1,"isfriend":0,"isfamily":0},{"id":"15996632271","owner":"77469100@N04","secret":"0a569f2fba","server":"8574","farm":9,"title":"Short-toed-Eagle-Oct-Spain_5352","ispublic":1,"isfriend":0,"isfamily":0},{"id":"15811340020","owner":"77469100@N04","secret":"be0dbfbc69","server":"7550","farm":8,"title":"Short-toed-Eagle_0302","ispublic":1,"isfriend":0,"isfamily":0},{"id":"15303677470","owner":"77469100@N04","secret":"a8a7058c03","server":"2950","farm":3,"title":"Short-toed-Eagle-Oct-Spain_8978","ispublic":1,"isfriend":0,"isfamily":0},{"id":"15490033702","owner":"77469100@N04","secret":"175d011018","server":"3932","farm":4,"title":"Short-toed-Eagle-Sept-Spain_5237","ispublic":1,"isfriend":0,"isfamily":0},{"id":"15303676360","owner":"77469100@N04","secret":"85c3364bdd","server":"3941","farm":4,"title":"Short-toed-Eagle-with-Booted-Eagle_5246","ispublic":1,"isfriend":0,"isfamily":0},{"id":"14775663770","owner":"113457946@N06","secret":"c6db348703","server":"3860","farm":4,"title":"Bedouins Snake Eagle","ispublic":1,"isfriend":0,"isfamily":0},{"id":"14907060103","owner":"77469100@N04","secret":"c3d003f426","server":"3908","farm":4,"title":"Short-toed-Eagle-tree_6027","ispublic":1,"isfriend":0,"isfamily":0},{"id":"14864208726","owner":"77469100@N04","secret":"ccc06aa342","server":"3888","farm":4,"title":"Short-toed-Eagle_5199","ispublic":1,"isfriend":0,"isfamily":0},{"id":"14720603154","owner":"77469100@N04","secret":"f863670876","server":"3858","farm":4,"title":"Short-toed-Eagle_1042","ispublic":1,"isfriend":0,"isfamily":0},{"id":"11130222144","owner":"77469100@N04","secret":"500f733443","server":"5492","farm":6,"title":"Short-toed-Eagle-Raptor-w","ispublic":1,"isfriend":0,"isfamily":0},{"id":"11130080155","owner":"77469100@N04","secret":"8db7f388b8","server":"3791","farm":4,"title":"Short-toed-Eagle_5813","ispublic":1,"isfriend":0,"isfamily":0},{"id":"11130264783","owner":"77469100@N04","secret":"21ed301849","server":"7328","farm":8,"title":"Short-toed-Eagle_5803","ispublic":1,"isfriend":0,"isfamily":0},{"id":"11130078975","owner":"77469100@N04","secret":"e58b173f14","server":"7312","farm":8,"title":"Short-toed-Eagle_5646","ispublic":1,"isfriend":0,"isfamily":0}]},"stat":"ok"}