{"photos":{"page":1,"pages":56,"perpage":100,"total":5544,"photo":[{"id":"52715626967","owner":"26520320@N03","secret":"2d4dfa21dc","server":"65535","farm":66,"title":"_BAP0528","ispublic":1,"isfriend":0,"isfamily":0},{"id":"52716573360","owner":"26520320@N03","secret":"96eca2287c","server":"65535","farm":66,"title":"_BAP0502","ispublic":1,"isfriend":0,"isfamily":0},{"id":"52716405804","owner":"26520320@N03","secret":"8840a4b89d","server":"65535","farm":66,"title":"_BAP0497","ispublic":1,"isfriend":0,"isfamily":0},{"id":"52716571910","owner":"26520320@N03","secret":"b1e5b95d2b","server":"65535","farm":66,"title":"_BAP0484","ispublic":1,"isfriend":0,"isfamily":0},{"id":"52715623642","owner":"26520320@N03","secret":"c25979abff","server":"65535","farm":66,"title":"_BAP0483","ispublic":1,"isfriend":0,"isfamily":0},{"id":"52716627813","owner":"26520320@N03","secret":"0a3953e795","server":"65535","farm":66,"title":"_BAP0476","ispublic":1,"isfriend":0,"isfamily":0},{"id":"52716571025","owner":"26520320@N03","secret":"24c30d71ea","server":"65535","farm":66,"title":"_BAP0474","ispublic":1,"isfriend":0,"isfamily":0},{"id":"52716627238","owner":"26520320@N03","secret":"003bbb090e","server":"65535","farm":66,"title":"_BAP0471","ispublic":1,"isfriend":0,"isfamily":0},{"id":"52716623148","owner":"26520320@N03","secret":"5daf55fd02","server":"65535","farm":66,"title":"_BAP0440","ispublic":1,"isfriend":0,"isfamily":0},{"id":"52716566375","owner":"26520320@N03","secret":"d925851e29","server":"65535","farm":66,"title":"_BAP0436","ispublic":1,"isfriend":0,"isfamily":0},{"id":"52716139511","owner":"26520320@N03","secret":"c3c8cf81f2","server":"65535","farm":66,"title":"_BAP0429","ispublic":1,"isfriend":0,"isfamily":0},{"id":"52716622458","owner":"26520320@N03","secret":"affa814b53","server":"65535","farm":66,"title":"_BAP0427","ispublic":1,"isfriend":0,"isfamily":0},{"id":"52716138706","owner":"26520320@N03","secret":"2557b58494","server":"65535","farm":66,"title":"_BAP0424","ispublic":1,"isfriend":0,"isfamily":0},{"id":"52709237407","owner":"120449047@N06","secret":"638ede3fa6","server":"65535","farm":66,"title":"Belted Kingfisher","ispublic":1,"isfriend":0,"isfamily":0},{"id":"52708119982","owner":"143326780@N02","secret":"a20ce7c860","server":"65535","farm":66,"title":"DSCN5524","ispublic":1,"isfriend":0,"isfamily":0},{"id":"52709056100","owner":"143326780@N02","secret":"c8095e0fd4","server":"65535","farm":66,"title":"DSCN5525","ispublic":1,"isfriend":0,"isfamily":0},{"id":"52709045595","owner":"143326780@N02","secret":"bc516e3300","server":"65535","farm":66,"title":"DSCN5523","ispublic":1,"isfriend":0,"isfamily":0},{"id":"52706779202","owner":"53977003@N00","secret":"b247babc3e","server":"65535","farm":66,"title":"Belted Kingfisher","ispublic":1,"isfriend":0,"isfamily":0},{"id":"52707713315","owner":"53977003@N00","secret":"808b154f00","server":"65535","farm":66,"title":"Belted Kingfisher","ispublic":1,"isfriend":0,"isfamily":0},{"id":"52703532657","owner":"188233235@N06","secret":"9e0bb67c8c","server":"65535","farm":66,"title":"The Belted Kingfisher","ispublic":1,"isfriend":0,"isfamily":0},{"id":"52704346665","owner":"193492169@N05","secret":"3b483e4975","server":"65535","farm":66,"title":"Mart\u00edn gigante norteamericano - Belted kingfisher - Megaceryle alcyon","ispublic":1,"isfriend":0,"isfamily":0},{"id":"52699279245","owner":"23326361@N04","secret":"bacf4cae6e","server":"65535","farm":66,"title":"Megaceryle alcyon Belted Kingfisher","ispublic":1,"isfriend":0,"isfamily":0},{"id":"52695336021","owner":"188214336@N08","secret":"bc752ed0b2","server":"65535","farm":66,"title":"DSC_6544-2R1 Belted Kingfisher","ispublic":1,"isfriend":0,"isfamily":0},{"id":"52695520184","owner":"45340210@N05","secret":"eb1d335bb9","server":"65535","farm":66,"title":"Kingfisher 1 2_15_23","ispublic":1,"isfriend":0,"isfamily":0},{"id":"52693742112","owner":"11159374@N04","secret":"e5b434860e","server":"65535","farm":66,"title":"Belted Kingfisher","ispublic":1,"isfriend":0,"isfamily":0},{"id":"52692915403","owner":"62043870@N05","secret":"d38dde000e","server":"65535","farm":66,"title":"Belted Kingfisher, Megaceryle alcyon","ispublic":1,"isfriend":0,"isfamily":0},{"id":"52691405271","owner":"18600085@N05","secret":"aaa4ee2d3b","server":"65535","farm":66,"title":"Kingfisher (Megaceryle alcyon)","ispublic":1,"isfriend":0,"isfamily":0},{"id":"52689144492","owner":"63093099@N02","secret":"43f2704613","server":"65535","farm":66,"title":"Belted Kingfisher (female); 20230214; USA-WA-King-Seattle-Union Bay Natural Area","ispublic":1,"isfriend":0,"isfamily":0},{"id":"52690083270","owner":"63093099@N02","secret":"6abd9f4aaf","server":"65535","farm":66,"title":"Belted Kingfisher (female); 20230214; USA-WA-King-Seattle-Union Bay Natural Area","ispublic":1,"isfriend":0,"isfamily":0},{"id":"52690157893","owner":"63093099@N02","secret":"566ae09c47","server":"65535","farm":66,"title":"Belted Kingfisher (female); 20230214; USA-WA-King-Seattle-Union Bay Natural Area","ispublic":1,"isfriend":0,"isfamily":0},{"id":"52689730959","owner":"181920661@N03","secret":"79847192fc","server":"65535","farm":66,"title":"Belted Kingfisher - McDowell Grove, Naperville, IL","ispublic":1,"isfriend":0,"isfamily":0},{"id":"52687813545","owner":"196264892@N08","secret":"c48ef3b588","server":"65535","farm":66,"title":"Belted Kingfisher male","ispublic":1,"isfriend":0,"isfamily":0},{"id":"52686871222","owner":"196264892@N08","secret":"6745c114b0","server":"65535","farm":66,"title":"Belted Kingfisher male","ispublic":1,"isfriend":0,"isfamily":0},{"id":"52687666459","owner":"196264892@N08","secret":"d0d50aa11d","server":"65535","farm":66,"title":"Belted Kingfisher male","ispublic":1,"isfriend":0,"isfamily":0},{"id":"52686870867","owner":"196264892@N08","secret":"6a22273f2c","server":"65535","farm":66,"title":"Belted Kingfisher male","ispublic":1,"isfriend":0,"isfamily":0},{"id":"52687666184","owner":"196264892@N08","secret":"6aed4afb1d","server":"65535","farm":66,"title":"Belted Kingfisher male","ispublic":1,"isfriend":0,"isfamily":0},{"id":"52687388451","owner":"196264892@N08","secret":"5698458e62","server":"65535","farm":66,"title":"Belted Kingfisher male","ispublic":1,"isfriend":0,"isfamily":0},{"id":"52687665844","owner":"196264892@N08","secret":"856b052843","server":"65535","farm":66,"title":"Belted Kingfisher, Tuttle Slough","ispublic":1,"isfriend":0,"isfamily":0},{"id":"52687883728","owner":"196264892@N08","secret":"83f038c4d9","server":"65535","farm":66,"title":"Belted Kingfisher, Tuttle Slough","ispublic":1,"isfriend":0,"isfamily":0},{"id":"52685302603","owner":"194898457@N02","secret":"68046005ee","server":"65535","farm":66,"title":"Kingfisher (Megaceryle alcyon)","ispublic":1,"isfriend":0,"isfamily":0},{"id":"52684767949","owner":"7261670@N03","secret":"ccf35012dd","server":"65535","farm":66,"title":"Belted Kingfisher","ispublic":1,"isfriend":0,"isfamily":0},{"id":"52678753542","owner":"182515684@N02","secret":"6571a2b009","server":"65535","farm":66,"title":"Belted Kingfisher In Flight \u2026 OM4804-201","ispublic":1,"isfriend":0,"isfamily":0},{"id":"52678141783","owner":"14028010@N00","secret":"762c8096b5","server":"65535","farm":66,"title":"Belted Kingfisher","ispublic":1,"isfriend":0,"isfamily":0},{"id":"52675411037","owner":"112608353@N02","secret":"4a2602fcd8","server":"65535","farm":66,"title":"Nemesis No More","ispublic":1,"isfriend":0,"isfamily":0},{"id":"52672522516","owner":"24608578@N00","secret":"1432fd64fa","server":"65535","farm":66,"title":"Belted kingfisher (Megaceryle alcyon)","ispublic":1,"isfriend":0,"isfamily":0},{"id":"52672574693","owner":"144980256@N07","secret":"3f6ca6bde3","server":"65535","farm":66,"title":"Belted Kingfisher (Megaceryle alcyon)","ispublic":1,"isfriend":0,"isfamily":0},{"id":"52668307258","owner":"44034115@N08","secret":"8cfb9cd900","server":"65535","farm":66,"title":"Belted Kingfisher Birdside to Go","ispublic":1,"isfriend":0,"isfamily":0},{"id":"52666341315","owner":"136180232@N08","secret":"4227b8e1f0","server":"65535","farm":66,"title":"Belted Kingfisher (Megaceryle alcyon) JTE_2252","ispublic":1,"isfriend":0,"isfamily":0},{"id":"52665906381","owner":"136180232@N08","secret":"284c15c9fe","server":"65535","farm":66,"title":"Belted Kingfisher (Megaceryle alcyon) JTE_2250","ispublic":1,"isfriend":0,"isfamily":0},{"id":"52666017083","owner":"143326780@N02","secret":"bd89cfc440","server":"65535","farm":66,"title":"DSCN2917","ispublic":1,"isfriend":0,"isfamily":0},{"id":"52665516266","owner":"143326780@N02","secret":"f4d0b846a8","server":"65535","farm":66,"title":"DSCN2923","ispublic":1,"isfriend":0,"isfamily":0},{"id":"52665516231","owner":"143326780@N02","secret":"a36141cdaf","server":"65535","farm":66,"title":"DSCN3072","ispublic":1,"isfriend":0,"isfamily":0},{"id":"52665725645","owner":"182515684@N02","secret":"56c4ba5141","server":"65535","farm":66,"title":"Belted Kingfisher \u2026 OM6729-323","ispublic":1,"isfriend":0,"isfamily":0},{"id":"52661541417","owner":"103722035@N06","secret":"69f6e5e2a7","server":"0","farm":0,"title":"Belted Kingfisher (Megaceryle alcyon), Cayucos, CA","ispublic":1,"isfriend":0,"isfamily":0},{"id":"52662180284","owner":"65148649@N04","secret":"f42085b45e","server":"65535","farm":66,"title":"Belted Kingfisher 3 01.21.23 Sheets","ispublic":1,"isfriend":0,"isfamily":0},{"id":"52662180244","owner":"65148649@N04","secret":"b7e91461c4","server":"65535","farm":66,"title":"Belted Kingfisher 01.21.23 Sheets","ispublic":1,"isfriend":0,"isfamily":0},{"id":"52661784586","owner":"44034115@N08","secret":"a372f61177","server":"65535","farm":66,"title":"Lunch is Almost Ready at Bombay Hook","ispublic":1,"isfriend":0,"isfamily":0},{"id":"52657884512","owner":"24608578@N00","secret":"57102cbf1d","server":"65535","farm":66,"title":"Belted kingfisher (Megaceryle alcyon)","ispublic":1,"isfriend":0,"isfamily":0},{"id":"52658226253","owner":"65148649@N04","secret":"17c57c8ffa","server":"65535","farm":66,"title":"Belted Kingfisher 01.21.23 Frye","ispublic":1,"isfriend":0,"isfamily":0},{"id":"52657244267","owner":"65148649@N04","secret":"72b190fc2d","server":"65535","farm":66,"title":"Belted Kingfisher 3 01.21.23 Frye","ispublic":1,"isfriend":0,"isfamily":0},{"id":"52658181540","owner":"65148649@N04","secret":"828bbb28e1","server":"65535","farm":66,"title":"Belted Kingfisher 3 01.21.23 Anderson","ispublic":1,"isfriend":0,"isfamily":0},{"id":"52657729541","owner":"65148649@N04","secret":"ab5af42fb5","server":"65535","farm":66,"title":"Belted Kingfisher 4 01.21.23 Anderson","ispublic":1,"isfriend":0,"isfamily":0},{"id":"52658226063","owner":"65148649@N04","secret":"9ab81a537e","server":"65535","farm":66,"title":"Belted Kingfisher 2 01.21.23 Anderson","ispublic":1,"isfriend":0,"isfamily":0},{"id":"52657243987","owner":"65148649@N04","secret":"dfcd6a4985","server":"65535","farm":66,"title":"Belted Kingfisher 01.21.23 Anderson","ispublic":1,"isfriend":0,"isfamily":0},{"id":"52656581423","owner":"8654297@N06","secret":"e26cf154b5","server":"65535","farm":66,"title":"Poser","ispublic":1,"isfriend":0,"isfamily":0},{"id":"52654877371","owner":"68462817@N05","secret":"2af1217bdf","server":"65535","farm":66,"title":"Male Belted Kingfisher, Megaceryle alcyon","ispublic":1,"isfriend":0,"isfamily":0},{"id":"52651933525","owner":"44034115@N08","secret":"631b7d7246","server":"65535","farm":66,"title":"Caught by the Belted Kingfisher","ispublic":1,"isfriend":0,"isfamily":0},{"id":"52647998160","owner":"62043870@N05","secret":"cb83ff34ac","server":"65535","farm":66,"title":"Belted Kingfisher, Megaceryle alcyon","ispublic":1,"isfriend":0,"isfamily":0},{"id":"52647239028","owner":"44034115@N08","secret":"2efd248292","server":"65535","farm":66,"title":"Belted Kingfisher On the Lookout","ispublic":1,"isfriend":0,"isfamily":0},{"id":"52646067352","owner":"196840457@N07","secret":"2f21320620","server":"65535","farm":66,"title":"Kingfisher, Belted","ispublic":1,"isfriend":0,"isfamily":0},{"id":"52645582766","owner":"8013969@N03","secret":"cbd64b2e22","server":"65535","farm":66,"title":"Megaceryle alcyon DFL btr22-1","ispublic":1,"isfriend":0,"isfamily":0},{"id":"52644675304","owner":"65633503@N02","secret":"2fb61f8e8c","server":"65535","farm":66,"title":"Belted kingfisher male (Megaceryle alcyon).","ispublic":1,"isfriend":0,"isfamily":0},{"id":"52644347081","owner":"65633503@N02","secret":"a3e2ca19ea","server":"65535","farm":66,"title":"Belted kingfisher female (Megaceryle alcyon).","ispublic":1,"isfriend":0,"isfamily":0},{"id":"52620648932","owner":"49114357@N08","secret":"352a4bde3a","server":"65535","farm":66,"title":"Belted Kingfisher","ispublic":1,"isfriend":0,"isfamily":0},{"id":"52628909932","owner":"88886389@N02","secret":"9dcbc93f54","server":"65535","farm":66,"title":"20100718-_DSC3931-Edit-3.jpg","ispublic":1,"isfriend":0,"isfamily":0},{"id":"52627859959","owner":"109544413@N05","secret":"ab7df62bae","server":"65535","farm":66,"title":"Defending its perch","ispublic":1,"isfriend":0,"isfamily":0},{"id":"52628091188","owner":"109544413@N05","secret":"5b0e3934f9","server":"65535","farm":66,"title":"..watching a Belted Kingfisher on a Dangerous Perch","ispublic":1,"isfriend":0,"isfamily":0},{"id":"52621023901","owner":"49114357@N08","secret":"c0aed2b12f","server":"65535","farm":66,"title":"Belted Kingfisher","ispublic":1,"isfriend":0,"isfamily":0},{"id":"52625220352","owner":"14028010@N00","secret":"dc34b945ce","server":"65535","farm":66,"title":"Belted Kingfisher male","ispublic":1,"isfriend":0,"isfamily":0},{"id":"52624402573","owner":"68756708@N04","secret":"3ef9615949","server":"65535","farm":66,"title":"Belted Kingfisher (Megaceryle alcyon)","ispublic":1,"isfriend":0,"isfamily":0},{"id":"52623634889","owner":"45340210@N05","secret":"cb4609897b","server":"65535","farm":66,"title":"Kingfisher With Fish 1_11_23","ispublic":1,"isfriend":0,"isfamily":0},{"id":"52621330317","owner":"44034115@N08","secret":"2cccfc57f8","server":"65535","farm":66,"title":"Belted Kingfisher Catch of the Day","ispublic":1,"isfriend":0,"isfamily":0},{"id":"52619576542","owner":"145466593@N08","secret":"185277cdca","server":"65535","farm":66,"title":"Belted Kingfisher","ispublic":1,"isfriend":0,"isfamily":0},{"id":"52617851376","owner":"130605131@N08","secret":"455a72aa93","server":"65535","farm":66,"title":"IMG_3220","ispublic":1,"isfriend":0,"isfamily":0},{"id":"52616895136","owner":"182515684@N02","secret":"3f346f1ee6","server":"65535","farm":66,"title":"Belted Kingfisher (Megaceryle alcyon) \u2026 OM9795-301","ispublic":1,"isfriend":0,"isfamily":0},{"id":"52616891519","owner":"144980256@N07","secret":"f15be57937","server":"65535","farm":66,"title":"Belted Kingfisher (Megaceryle alcyon)","ispublic":1,"isfriend":0,"isfamily":0},{"id":"52614011380","owner":"132165466@N08","secret":"77e3ab3f01","server":"65535","farm":66,"title":"Belted Kingfisher","ispublic":1,"isfriend":0,"isfamily":0},{"id":"52612074628","owner":"131779834@N08","secret":"5f53218fb5","server":"65535","farm":66,"title":"Reversal of Fish","ispublic":1,"isfriend":0,"isfamily":0},{"id":"52611470970","owner":"33573751@N04","secret":"6d403619a8","server":"65535","farm":66,"title":"Belted Kingfisher (Megaceryle alcyon) - T.M. Goodwin Waterfowl Management Area, Palm Bay, Florida","ispublic":1,"isfriend":0,"isfamily":0},{"id":"52610182313","owner":"73179441@N02","secret":"34f4ecc8e4","server":"65535","farm":66,"title":"Dinner is Served","ispublic":1,"isfriend":0,"isfamily":0},{"id":"52609593859","owner":"33573751@N04","secret":"ba42b14108","server":"65535","farm":66,"title":"Belted Kingfisher (Megaceryle alcyon) - T.M. Goodwin Waterfowl Management Area, Palm Bay, Florida","ispublic":1,"isfriend":0,"isfamily":0},{"id":"52694377387","owner":"143326780@N02","secret":"9774c95210","server":"65535","farm":66,"title":"DSCN4871","ispublic":1,"isfriend":0,"isfamily":0},{"id":"52695158719","owner":"143326780@N02","secret":"06efeb70ff","server":"65535","farm":66,"title":"DSCN4879","ispublic":1,"isfriend":0,"isfamily":0},{"id":"52694374987","owner":"143326780@N02","secret":"50e908c487","server":"65535","farm":66,"title":"DSCN4866","ispublic":1,"isfriend":0,"isfamily":0},{"id":"52670725792","owner":"49103297@N04","secret":"d83c54845d","server":"65535","farm":66,"title":"IMG_4041","ispublic":1,"isfriend":0,"isfamily":0},{"id":"52666016983","owner":"143326780@N02","secret":"f7a7297ca6","server":"65535","farm":66,"title":"DSCN3073","ispublic":1,"isfriend":0,"isfamily":0},{"id":"52639186896","owner":"44034115@N08","secret":"9d2e63655c","server":"65535","farm":66,"title":"Belted Kingfisher Belly Full","ispublic":1,"isfriend":0,"isfamily":0},{"id":"52629425685","owner":"146378564@N07","secret":"ebb3b1a8f6","server":"65535","farm":66,"title":"Belted Kingfisher (Megaceryle alcyon)","ispublic":1,"isfriend":0,"isfamily":0},{"id":"52629370750","owner":"144980256@N07","secret":"47d0cc8a9f","server":"65535","farm":66,"title":"Belted Kingfisher (Megaceryle alcyon)","ispublic":1,"isfriend":0,"isfamily":0},{"id":"52627616151","owner":"109544413@N05","secret":"fa57724cef","server":"65535","farm":66,"title":"With a snack","ispublic":1,"isfriend":0,"isfamily":0}]},"stat":"ok"}