{"photos":{"page":1,"pages":93,"perpage":100,"total":9285,"photo":[{"id":"52720658130","owner":"67409152@N07","secret":"58e87fe081","server":"65535","farm":66,"title":"Perrito","ispublic":1,"isfriend":0,"isfamily":0},{"id":"52720414465","owner":"12639178@N07","secret":"31a2481de8","server":"65535","farm":66,"title":"Schwarznacken-Stelzenl\u00e4ufer","ispublic":1,"isfriend":0,"isfamily":0},{"id":"52716749574","owner":"7640100@N02","secret":"03a6aff92d","server":"65535","farm":66,"title":"\u00c9chasse d'Am\u00e9rique \/ Black-necked stilt [Himantopus mexicanus]","ispublic":1,"isfriend":0,"isfamily":0},{"id":"52714446475","owner":"73431753@N00","secret":"8ff9bd3bdd","server":"65535","farm":66,"title":"IMG_6885","ispublic":1,"isfriend":0,"isfamily":0},{"id":"52714245689","owner":"73431753@N00","secret":"114bf52275","server":"65535","farm":66,"title":"IMG_6849","ispublic":1,"isfriend":0,"isfamily":0},{"id":"52711988345","owner":"7640100@N02","secret":"8b445a89df","server":"65535","farm":66,"title":"\u00c9chasse d'Am\u00e9rique \/ Black-necked stilt [Himantopus mexicanus]","ispublic":1,"isfriend":0,"isfamily":0},{"id":"52711555348","owner":"44082511@N08","secret":"49ec91eb7d","server":"65535","farm":66,"title":"Black Necked Stilts","ispublic":1,"isfriend":0,"isfamily":0},{"id":"52709280876","owner":"44082511@N08","secret":"a76f4cb924","server":"65535","farm":66,"title":"Cabo Rojo - Black Necked Stilt","ispublic":1,"isfriend":0,"isfamily":0},{"id":"52708593212","owner":"59226250@N04","secret":"b6a6fdcdd0","server":"65535","farm":66,"title":"Perrito","ispublic":1,"isfriend":0,"isfamily":0},{"id":"52706974222","owner":"93512100@N08","secret":"3bc67aba63","server":"65535","farm":66,"title":"Who's the Fairest","ispublic":1,"isfriend":0,"isfamily":0},{"id":"52705906377","owner":"195537536@N03","secret":"2a6cc3a609","server":"65535","farm":66,"title":"Black-necked Stilt (Himantopus mexicanus)","ispublic":1,"isfriend":0,"isfamily":0},{"id":"52704710987","owner":"23117403@N06","secret":"e2ee5dc46f","server":"65535","farm":66,"title":"Black-necked stilt - Echasse d'Am\u00e9rique - Cig\u00fce\u00f1uela de cuello negro - Himantopus mexicanus","ispublic":1,"isfriend":0,"isfamily":0},{"id":"52697546719","owner":"12530381@N07","secret":"72561acce5","server":"65535","farm":66,"title":"Black-necked Stilt (Himantopus mexicanus) at Merced National Wildlife Refuge (2\/9\/2023)","ispublic":1,"isfriend":0,"isfamily":0},{"id":"52696501968","owner":"65788177@N02","secret":"5ba09ec155","server":"65535","farm":66,"title":"Black-necked Stilt","ispublic":1,"isfriend":0,"isfamily":0},{"id":"52673987936","owner":"47078197@N04","secret":"5fbf2c76da","server":"65535","farm":66,"title":"Himantopus mexicanus mexicanus (Black-necked Stilt)","ispublic":1,"isfriend":0,"isfamily":0},{"id":"52689202750","owner":"124995824@N08","secret":"2b77514b5d","server":"65535","farm":66,"title":"Black-necked Stilt - Himantopus mexicanus","ispublic":1,"isfriend":0,"isfamily":0},{"id":"52685244083","owner":"91064752@N03","secret":"6c49b2d80f","server":"0","farm":0,"title":"Black-necked Stilt at Cheyenne Bottoms","ispublic":1,"isfriend":0,"isfamily":0},{"id":"52676836317","owner":"143326780@N02","secret":"d243074ee1","server":"65535","farm":66,"title":"DSCN3494","ispublic":1,"isfriend":0,"isfamily":0},{"id":"52676084407","owner":"163667952@N05","secret":"3cca47f5e9","server":"65535","farm":66,"title":"Black-necked Stilt","ispublic":1,"isfriend":0,"isfamily":0},{"id":"52670238972","owner":"17612257@N00","secret":"54e2d6fefb","server":"65535","farm":66,"title":"Black-necked stilt - Himantopus mexicanus","ispublic":1,"isfriend":0,"isfamily":0},{"id":"52662651016","owner":"145466593@N08","secret":"00781721a2","server":"65535","farm":66,"title":"Black-necked Stilt","ispublic":1,"isfriend":0,"isfamily":0},{"id":"52662650946","owner":"145466593@N08","secret":"f472ac8cfa","server":"65535","farm":66,"title":"Black-necked Stilt","ispublic":1,"isfriend":0,"isfamily":0},{"id":"52657357598","owner":"143326780@N02","secret":"ba3a8a2fb7","server":"65535","farm":66,"title":"DSCN2558","ispublic":1,"isfriend":0,"isfamily":0},{"id":"52657148314","owner":"143326780@N02","secret":"61e6f68669","server":"65535","farm":66,"title":"DSCN2564","ispublic":1,"isfriend":0,"isfamily":0},{"id":"52656863581","owner":"143326780@N02","secret":"fd2334f230","server":"65535","farm":66,"title":"DSCN2658","ispublic":1,"isfriend":0,"isfamily":0},{"id":"52655339636","owner":"41694014@N04","secret":"86b89cac2c","server":"65535","farm":66,"title":"Himantopus mexicanus","ispublic":1,"isfriend":0,"isfamily":0},{"id":"52650550115","owner":"24608578@N00","secret":"e1fdfc2228","server":"65535","farm":66,"title":"Black-necked stilt (Himantopus mexicanus)","ispublic":1,"isfriend":0,"isfamily":0},{"id":"52639133490","owner":"29494346@N03","secret":"12636e936e","server":"65535","farm":66,"title":"(Hawaiian) Black-necked Stilt (Himantopus mexicanus knudseni)","ispublic":1,"isfriend":0,"isfamily":0},{"id":"52637131675","owner":"197059787@N08","secret":"6451df21a0","server":"65535","farm":66,"title":"Black-necked Stilt (Himantopus mexicanus) \u0410\u043c\u0435\u0440\u0438\u043a\u0430\u043d\u0441\u043a\u0438\u0439 \u0445\u043e\u0434\u0443\u043b\u043e\u0447\u043d\u0438\u043a","ispublic":1,"isfriend":0,"isfamily":0},{"id":"52635385434","owner":"44948457@N07","secret":"b2fe4eb2cc","server":"65535","farm":66,"title":"Monjita Americana | Black-necked stilt (Himantopus mexicanus)","ispublic":1,"isfriend":0,"isfamily":0},{"id":"52634481057","owner":"125605310@N07","secret":"14c24e5bb7","server":"65535","farm":66,"title":"Hawaiian Stilt, Himantopus mexicanus knudseni","ispublic":1,"isfriend":0,"isfamily":0},{"id":"52634413643","owner":"54546220@N00","secret":"1a68be1c52","server":"65535","farm":66,"title":"Playeros","ispublic":1,"isfriend":0,"isfamily":0},{"id":"52634413598","owner":"54546220@N00","secret":"f3e6365c67","server":"65535","farm":66,"title":"Playeros","ispublic":1,"isfriend":0,"isfamily":0},{"id":"52626050173","owner":"124995824@N08","secret":"da6eee6587","server":"65535","farm":66,"title":"Black-necked Stilt - Himantopus mexicanus","ispublic":1,"isfriend":0,"isfamily":0},{"id":"52620867695","owner":"62043870@N05","secret":"6e5913d414","server":"65535","farm":66,"title":"Hawaiian Stilt, Himantopus mexicanus knudseni","ispublic":1,"isfriend":0,"isfamily":0},{"id":"52612696106","owner":"62848917@N07","secret":"5b141eff5f","server":"65535","farm":66,"title":"Black-necked Stilts - Himantopus mexicanus","ispublic":1,"isfriend":0,"isfamily":0},{"id":"52607696245","owner":"34368269@N04","secret":"1b267b9219","server":"65535","farm":66,"title":"Black-necked Stilt","ispublic":1,"isfriend":0,"isfamily":0},{"id":"52604052415","owner":"42978673@N00","secret":"12e610dff1","server":"65535","farm":66,"title":"Black-necked Stilt (White-backed) - Himantopus mexicanus melanurus","ispublic":1,"isfriend":0,"isfamily":0},{"id":"52593053229","owner":"78223721@N03","secret":"a03ac1b28e","server":"65535","farm":66,"title":"Himantopus mexicanus","ispublic":1,"isfriend":0,"isfamily":0},{"id":"52593071470","owner":"78223721@N03","secret":"1ee2b7661d","server":"65535","farm":66,"title":"Himantopus mexicanus","ispublic":1,"isfriend":0,"isfamily":0},{"id":"52593161923","owner":"78223721@N03","secret":"5268b1b523","server":"65535","farm":66,"title":"Himantopus mexicanus","ispublic":1,"isfriend":0,"isfamily":0},{"id":"52592162052","owner":"78223721@N03","secret":"1395a9dc81","server":"65535","farm":66,"title":"Himantopus mexicanus","ispublic":1,"isfriend":0,"isfamily":0},{"id":"52582745365","owner":"65632611@N00","secret":"44c1d0ea4b","server":"65535","farm":66,"title":"Bette David Picnic Area: Black-necked Stilt  (5849)","ispublic":1,"isfriend":0,"isfamily":0},{"id":"52582438375","owner":"78223721@N03","secret":"61f2c0f690","server":"65535","farm":66,"title":"Himantopus mexicanus","ispublic":1,"isfriend":0,"isfamily":0},{"id":"52582076943","owner":"80355852@N00","secret":"b534ce7075","server":"65535","farm":66,"title":"A Female Black-necked Stilt","ispublic":1,"isfriend":0,"isfamily":0},{"id":"52565682276","owner":"186297336@N08","secret":"d2bff4a93d","server":"65535","farm":66,"title":"Black-necked Stilt","ispublic":1,"isfriend":0,"isfamily":0},{"id":"52561650644","owner":"7331818@N02","secret":"e2c02e5000","server":"65535","farm":66,"title":"Sepia Reflections","ispublic":1,"isfriend":0,"isfamily":0},{"id":"52532727692","owner":"189423275@N04","secret":"69f990198e","server":"65535","farm":66,"title":"Black-necked Stilt in High Key","ispublic":1,"isfriend":0,"isfamily":0},{"id":"52518928940","owner":"48289257@N00","secret":"c16c70f379","server":"65535","farm":66,"title":"Black-necked stilt (Himantopus mexicanus)","ispublic":1,"isfriend":0,"isfamily":0},{"id":"52513186505","owner":"48014585@N00","secret":"011b3c016f","server":"65535","farm":66,"title":"Black-necked Stilt","ispublic":1,"isfriend":0,"isfamily":0},{"id":"52512235217","owner":"48014585@N00","secret":"556e4bc1fe","server":"65535","farm":66,"title":"Black-necked Stilt","ispublic":1,"isfriend":0,"isfamily":0},{"id":"52512976989","owner":"48014585@N00","secret":"2f70f731cd","server":"65535","farm":66,"title":"Black-necked Stilt","ispublic":1,"isfriend":0,"isfamily":0},{"id":"52513254263","owner":"48014585@N00","secret":"04e1fb8aeb","server":"65535","farm":66,"title":"Black-necked Stilt","ispublic":1,"isfriend":0,"isfamily":0},{"id":"52512976604","owner":"48014585@N00","secret":"4d2c4be730","server":"65535","farm":66,"title":"Black-necked Stilt","ispublic":1,"isfriend":0,"isfamily":0},{"id":"52512976489","owner":"48014585@N00","secret":"779f9f61e7","server":"65535","farm":66,"title":"Black-necked Stilt","ispublic":1,"isfriend":0,"isfamily":0},{"id":"52512448318","owner":"34368269@N04","secret":"44bc4b426b","server":"65535","farm":66,"title":"Black-necked Stilt","ispublic":1,"isfriend":0,"isfamily":0},{"id":"52494408543","owner":"195520442@N06","secret":"2444a916f7","server":"65535","farm":66,"title":"Hawaiian stilt (Himantopus mexicanus knudseni), Honolulu County, Hawaii","ispublic":1,"isfriend":0,"isfamily":0},{"id":"52484709876","owner":"134704052@N08","secret":"2c7d05dc06","server":"65535","farm":66,"title":"Pernilongo - Black-necked Stilt","ispublic":1,"isfriend":0,"isfamily":0},{"id":"52484260043","owner":"134704052@N08","secret":"ff68de7d67","server":"65535","farm":66,"title":"Pernilongo","ispublic":1,"isfriend":0,"isfamily":0},{"id":"52478995942","owner":"134704052@N08","secret":"9fffff50e0","server":"65535","farm":66,"title":"Pernilongo - Black-necked Stilt","ispublic":1,"isfriend":0,"isfamily":0},{"id":"52477686175","owner":"134704052@N08","secret":"be65a6be8a","server":"65535","farm":66,"title":"Pernilongo - Black-necked Stilt","ispublic":1,"isfriend":0,"isfamily":0},{"id":"52443320940","owner":"190923251@N05","secret":"f84e8314cc","server":"65535","farm":66,"title":"Black-necked Stilt and Muskrat","ispublic":1,"isfriend":0,"isfamily":0},{"id":"52442014854","owner":"140734051@N08","secret":"ef7789ff2e","server":"65535","farm":66,"title":"\u0410\u043c\u0435\u0440\u0438\u043a\u0430\u043d\u0441\u043a\u0438\u0439 \u0445\u043e\u0434\u0443\u043b\u043e\u0447\u043d\u0438\u043a, Himantopus mexicanus, Black-necked Stilt","ispublic":1,"isfriend":0,"isfamily":0},{"id":"52442193060","owner":"140734051@N08","secret":"84ab8e2240","server":"65535","farm":66,"title":"\u0410\u043c\u0435\u0440\u0438\u043a\u0430\u043d\u0441\u043a\u0438\u0439 \u0445\u043e\u0434\u0443\u043b\u043e\u0447\u043d\u0438\u043a, Himantopus mexicanus, Black-necked Stilt","ispublic":1,"isfriend":0,"isfamily":0},{"id":"52441233357","owner":"140734051@N08","secret":"9223f7598e","server":"65535","farm":66,"title":"\u0410\u043c\u0435\u0440\u0438\u043a\u0430\u043d\u0441\u043a\u0438\u0439 \u0445\u043e\u0434\u0443\u043b\u043e\u0447\u043d\u0438\u043a, Himantopus mexicanus, Black-necked Stilt","ispublic":1,"isfriend":0,"isfamily":0},{"id":"52442014149","owner":"140734051@N08","secret":"14f261296c","server":"65535","farm":66,"title":"\u0410\u043c\u0435\u0440\u0438\u043a\u0430\u043d\u0441\u043a\u0438\u0439 \u0445\u043e\u0434\u0443\u043b\u043e\u0447\u043d\u0438\u043a, Himantopus mexicanus, Black-necked Stilt","ispublic":1,"isfriend":0,"isfamily":0},{"id":"52441232807","owner":"140734051@N08","secret":"eb610a7667","server":"65535","farm":66,"title":"\u0410\u043c\u0435\u0440\u0438\u043a\u0430\u043d\u0441\u043a\u0438\u0439 \u0445\u043e\u0434\u0443\u043b\u043e\u0447\u043d\u0438\u043a, Himantopus mexicanus, Black-necked Stilt","ispublic":1,"isfriend":0,"isfamily":0},{"id":"52442191880","owner":"140734051@N08","secret":"f6dbc5903e","server":"65535","farm":66,"title":"\u0410\u043c\u0435\u0440\u0438\u043a\u0430\u043d\u0441\u043a\u0438\u0439 \u0445\u043e\u0434\u0443\u043b\u043e\u0447\u043d\u0438\u043a, Himantopus mexicanus, Black-necked Stilt","ispublic":1,"isfriend":0,"isfamily":0},{"id":"52442263083","owner":"140734051@N08","secret":"0765d2ffa6","server":"65535","farm":66,"title":"\u0410\u043c\u0435\u0440\u0438\u043a\u0430\u043d\u0441\u043a\u0438\u0439 \u0445\u043e\u0434\u0443\u043b\u043e\u0447\u043d\u0438\u043a, Himantopus mexicanus, Black-necked Stilt","ispublic":1,"isfriend":0,"isfamily":0},{"id":"52441743656","owner":"140734051@N08","secret":"e3850aae6c","server":"65535","farm":66,"title":"\u0410\u043c\u0435\u0440\u0438\u043a\u0430\u043d\u0441\u043a\u0438\u0439 \u0445\u043e\u0434\u0443\u043b\u043e\u0447\u043d\u0438\u043a, Himantopus mexicanus, Black-necked Stilt","ispublic":1,"isfriend":0,"isfamily":0},{"id":"52442262678","owner":"140734051@N08","secret":"3dbe0cf685","server":"65535","farm":66,"title":"\u0410\u043c\u0435\u0440\u0438\u043a\u0430\u043d\u0441\u043a\u0438\u0439 \u0445\u043e\u0434\u0443\u043b\u043e\u0447\u043d\u0438\u043a, Himantopus mexicanus, Black-necked Stilt","ispublic":1,"isfriend":0,"isfamily":0},{"id":"52439889951","owner":"140734051@N08","secret":"93c347d0dc","server":"65535","farm":66,"title":"\u0410\u043c\u0435\u0440\u0438\u043a\u0430\u043d\u0441\u043a\u0438\u0439 \u0445\u043e\u0434\u0443\u043b\u043e\u0447\u043d\u0438\u043a, Himantopus mexicanus, Black-necked Stilt","ispublic":1,"isfriend":0,"isfamily":0},{"id":"52440344045","owner":"140734051@N08","secret":"751dcf0444","server":"65535","farm":66,"title":"\u0410\u043c\u0435\u0440\u0438\u043a\u0430\u043d\u0441\u043a\u0438\u0439 \u0445\u043e\u0434\u0443\u043b\u043e\u0447\u043d\u0438\u043a, Himantopus mexicanus, Black-necked Stilt","ispublic":1,"isfriend":0,"isfamily":0},{"id":"52439889661","owner":"140734051@N08","secret":"54358ef6a9","server":"65535","farm":66,"title":"\u0410\u043c\u0435\u0440\u0438\u043a\u0430\u043d\u0441\u043a\u0438\u0439 \u0445\u043e\u0434\u0443\u043b\u043e\u0447\u043d\u0438\u043a, Himantopus mexicanus, Black-necked Stilt","ispublic":1,"isfriend":0,"isfamily":0},{"id":"52440168029","owner":"140734051@N08","secret":"ccce431284","server":"65535","farm":66,"title":"\u0410\u043c\u0435\u0440\u0438\u043a\u0430\u043d\u0441\u043a\u0438\u0439 \u0445\u043e\u0434\u0443\u043b\u043e\u0447\u043d\u0438\u043a, Himantopus mexicanus, Black-necked Stilt","ispublic":1,"isfriend":0,"isfamily":0},{"id":"52440343720","owner":"140734051@N08","secret":"788ac229d9","server":"65535","farm":66,"title":"\u0410\u043c\u0435\u0440\u0438\u043a\u0430\u043d\u0441\u043a\u0438\u0439 \u0445\u043e\u0434\u0443\u043b\u043e\u0447\u043d\u0438\u043a, Himantopus mexicanus, Black-necked Stilt","ispublic":1,"isfriend":0,"isfamily":0},{"id":"52677844553","owner":"143326780@N02","secret":"7acebe82cb","server":"65535","farm":66,"title":"DSCN3477","ispublic":1,"isfriend":0,"isfamily":0},{"id":"52677633354","owner":"143326780@N02","secret":"823e738419","server":"65535","farm":66,"title":"DSCN3495","ispublic":1,"isfriend":0,"isfamily":0},{"id":"52663624496","owner":"124995824@N08","secret":"d6290ba01d","server":"65535","farm":66,"title":"Black-necked Stilt - Himantopus mexicanus","ispublic":1,"isfriend":0,"isfamily":0},{"id":"52661319872","owner":"33610210@N05","secret":"4cb289db2e","server":"65535","farm":66,"title":"Black-necked Stilt, Himantopus mexicanus","ispublic":1,"isfriend":0,"isfamily":0},{"id":"52661870403","owner":"39177293@N03","secret":"992cd3693d","server":"65535","farm":66,"title":"Black-necked Stilt","ispublic":1,"isfriend":0,"isfamily":0},{"id":"52654299235","owner":"37203410@N07","secret":"3574ef4f0a","server":"65535","farm":66,"title":"Perrito \/ Himantopus mexicanus","ispublic":1,"isfriend":0,"isfamily":0},{"id":"52647995760","owner":"62043870@N05","secret":"1aa64d2577","server":"65535","farm":66,"title":"Black-necked Stilt, Himantopus mexicanus","ispublic":1,"isfriend":0,"isfamily":0},{"id":"52634383497","owner":"62043870@N05","secret":"8bf7da4591","server":"65535","farm":66,"title":"Hawaiian Stilt, Himantopus mexicanus knudseni","ispublic":1,"isfriend":0,"isfamily":0},{"id":"52631918376","owner":"47533293@N04","secret":"7210b48dc3","server":"65535","farm":66,"title":"Black-necked stilt, Himantopus mexicanus","ispublic":1,"isfriend":0,"isfamily":0},{"id":"52615735547","owner":"41694014@N04","secret":"cc05f1100b","server":"65535","farm":66,"title":"Himantopus mexicanus","ispublic":1,"isfriend":0,"isfamily":0},{"id":"52600925692","owner":"197136431@N08","secret":"d5d86caef3","server":"65535","farm":66,"title":"Cig\u00fce\u00f1a de Cuello Negro","ispublic":1,"isfriend":0,"isfamily":0},{"id":"52574262219","owner":"186835200@N04","secret":"38cfd67a82","server":"65535","farm":66,"title":"Black-Necked Stilt, 2022","ispublic":1,"isfriend":0,"isfamily":0},{"id":"52538303635","owner":"39617069@N08","secret":"33f4559d4e","server":"65535","farm":66,"title":"Black-necked Stilt","ispublic":1,"isfriend":0,"isfamily":0},{"id":"52536100907","owner":"53048815@N06","secret":"2bcb94d7b3","server":"65535","farm":66,"title":"Black-necked Stilt (Himantopus mexicanus)","ispublic":1,"isfriend":0,"isfamily":0},{"id":"52531066139","owner":"12639178@N07","secret":"bb28a6a0fe","server":"65535","farm":66,"title":"Schwarznacken-Stelzenl\u00e4ufer (Himantopus himantopus subsp. mexicanus) (1)","ispublic":1,"isfriend":0,"isfamily":0},{"id":"52521356704","owner":"12639178@N07","secret":"e634b4bf0c","server":"65535","farm":66,"title":"Schwarznacken-Stelzenl\u00e4ufer, Praia Figueirinha, Brasilien","ispublic":1,"isfriend":0,"isfamily":0},{"id":"52503382075","owner":"37203410@N07","secret":"0434515544","server":"65535","farm":66,"title":"Perrito \/ Himantopus mexicanus - Pato Colorado \/ Spatula cyanoptera","ispublic":1,"isfriend":0,"isfamily":0},{"id":"52502630999","owner":"30638967@N03","secret":"100667a211","server":"65535","farm":66,"title":"Black-necked Stilt DSC_4795","ispublic":1,"isfriend":0,"isfamily":0},{"id":"52495243491","owner":"64557331@N04","secret":"aea15cddf9","server":"65535","farm":66,"title":"Black-Necked Stilt - (Himantopus mexicanus) _06062021_3","ispublic":1,"isfriend":0,"isfamily":0},{"id":"52494761327","owner":"64557331@N04","secret":"27f8b2d81f","server":"65535","farm":66,"title":"Black-Necked Stilt - (Himantopus mexicanus) _06062021_2","ispublic":1,"isfriend":0,"isfamily":0},{"id":"52495243426","owner":"64557331@N04","secret":"c9b16ba539","server":"65535","farm":66,"title":"Black-Necked Stilt - (Himantopus mexicanus) _06062021","ispublic":1,"isfriend":0,"isfamily":0},{"id":"52494759717","owner":"64557331@N04","secret":"22bbcabfd2","server":"65535","farm":66,"title":"Black-Necked Stilt - (Himantopus mexicanus)_06092021","ispublic":1,"isfriend":0,"isfamily":0},{"id":"52441745196","owner":"140734051@N08","secret":"dedebf55be","server":"65535","farm":66,"title":"\u0410\u043c\u0435\u0440\u0438\u043a\u0430\u043d\u0441\u043a\u0438\u0439 \u0445\u043e\u0434\u0443\u043b\u043e\u0447\u043d\u0438\u043a, Himantopus mexicanus, Black-necked Stilt","ispublic":1,"isfriend":0,"isfamily":0},{"id":"52439387677","owner":"140734051@N08","secret":"83e3c67741","server":"65535","farm":66,"title":"\u0410\u043c\u0435\u0440\u0438\u043a\u0430\u043d\u0441\u043a\u0438\u0439 \u0445\u043e\u0434\u0443\u043b\u043e\u0447\u043d\u0438\u043a, Himantopus mexicanus, Black-necked Stilt","ispublic":1,"isfriend":0,"isfamily":0}]},"stat":"ok"}