{"photos":{"page":1,"pages":2,"perpage":100,"total":121,"photo":[{"id":"52790406445","owner":"119787485@N07","secret":"9cc655e479","server":"65535","farm":66,"title":"Black-faced Grassquit (Melanospiza bicolor omissa) - 20230201-05","ispublic":1,"isfriend":0,"isfamily":0},{"id":"52742554629","owner":"11803211@N06","secret":"a7387e773f","server":"65535","farm":66,"title":"Male black-faced grassquit (Melanospiza bicolor), Tobago Plantations, Tobago","ispublic":1,"isfriend":0,"isfamily":0},{"id":"52738544323","owner":"59206851@N00","secret":"72b87925ea","server":"65535","farm":66,"title":"DSC_2287.jpg","ispublic":1,"isfriend":0,"isfamily":0},{"id":"52737429512","owner":"59206851@N00","secret":"6ccd799c53","server":"65535","farm":66,"title":"DSC_6458.jpg","ispublic":1,"isfriend":0,"isfamily":0},{"id":"52738359900","owner":"59206851@N00","secret":"ee9bd838f1","server":"65535","farm":66,"title":"DSC_6382.jpg","ispublic":1,"isfriend":0,"isfamily":0},{"id":"52738432433","owner":"59206851@N00","secret":"99dd44d1ac","server":"65535","farm":66,"title":"DSC_6355.jpg","ispublic":1,"isfriend":0,"isfamily":0},{"id":"52738432303","owner":"59206851@N00","secret":"2df975b386","server":"65535","farm":66,"title":"DSC_6354.jpg","ispublic":1,"isfriend":0,"isfamily":0},{"id":"52738199474","owner":"59206851@N00","secret":"0943b79300","server":"65535","farm":66,"title":"DSC_5888.jpg","ispublic":1,"isfriend":0,"isfamily":0},{"id":"52738358255","owner":"59206851@N00","secret":"dcda01751e","server":"65535","farm":66,"title":"DSC_5871-2.jpg","ispublic":1,"isfriend":0,"isfamily":0},{"id":"52738358220","owner":"59206851@N00","secret":"a85e98fe07","server":"65535","farm":66,"title":"DSC_5871.jpg","ispublic":1,"isfriend":0,"isfamily":0},{"id":"52736420583","owner":"59206851@N00","secret":"b716fe418a","server":"65535","farm":66,"title":"DSC_6795.jpg","ispublic":1,"isfriend":0,"isfamily":0},{"id":"52735941951","owner":"59206851@N00","secret":"df2c0dc414","server":"65535","farm":66,"title":"DSC_6791.jpg","ispublic":1,"isfriend":0,"isfamily":0},{"id":"52736130919","owner":"59206851@N00","secret":"464b074e4c","server":"65535","farm":66,"title":"DSC_6796.jpg","ispublic":1,"isfriend":0,"isfamily":0},{"id":"52736292130","owner":"59206851@N00","secret":"305f994e1b","server":"65535","farm":66,"title":"DSC_6318.jpg","ispublic":1,"isfriend":0,"isfamily":0},{"id":"52734784635","owner":"59206851@N00","secret":"aee27fe8a0","server":"65535","farm":66,"title":"DSC_5623.jpg","ispublic":1,"isfriend":0,"isfamily":0},{"id":"52732283818","owner":"59206851@N00","secret":"2a9eb27b38","server":"65535","farm":66,"title":"DSC_6015.jpg","ispublic":1,"isfriend":0,"isfamily":0},{"id":"52731212733","owner":"59206851@N00","secret":"fd8389d7be","server":"65535","farm":66,"title":"DSC_6897.jpg","ispublic":1,"isfriend":0,"isfamily":0},{"id":"52730829334","owner":"59206851@N00","secret":"cab533aaf5","server":"65535","farm":66,"title":"DSC_5324.jpg","ispublic":1,"isfriend":0,"isfamily":0},{"id":"52730560264","owner":"59206851@N00","secret":"367fa1030f","server":"65535","farm":66,"title":"DSC_3118.jpg","ispublic":1,"isfriend":0,"isfamily":0},{"id":"52730666860","owner":"59206851@N00","secret":"cf8d8c8229","server":"65535","farm":66,"title":"DSC_9842-2.jpg","ispublic":1,"isfriend":0,"isfamily":0},{"id":"52730666800","owner":"59206851@N00","secret":"cf364d4b18","server":"65535","farm":66,"title":"DSC_9842.jpg","ispublic":1,"isfriend":0,"isfamily":0},{"id":"52730715463","owner":"59206851@N00","secret":"9a34a770ae","server":"65535","farm":66,"title":"DSC_7523.jpg","ispublic":1,"isfriend":0,"isfamily":0},{"id":"52730232741","owner":"59206851@N00","secret":"c9ecdcfe6b","server":"65535","farm":66,"title":"DSC_7523-2.jpg","ispublic":1,"isfriend":0,"isfamily":0},{"id":"52729698387","owner":"59206851@N00","secret":"04c7c7762f","server":"65535","farm":66,"title":"DSC_6887.jpg","ispublic":1,"isfriend":0,"isfamily":0},{"id":"52730205516","owner":"59206851@N00","secret":"8870b8116b","server":"65535","farm":66,"title":"DSC_5473.jpg","ispublic":1,"isfriend":0,"isfamily":0},{"id":"52730687393","owner":"59206851@N00","secret":"a3f29b08a2","server":"65535","farm":66,"title":"DSC_5399.jpg","ispublic":1,"isfriend":0,"isfamily":0},{"id":"52724337252","owner":"124450184@N05","secret":"1a4571043d","server":"65535","farm":66,"title":"Black Faced Grassquit","ispublic":1,"isfriend":0,"isfamily":0},{"id":"52710470442","owner":"38402205@N06","secret":"25eb5cc8a8","server":"65535","farm":66,"title":"Male Black-faced Grassquit","ispublic":1,"isfriend":0,"isfamily":0},{"id":"52679386356","owner":"195687643@N08","secret":"6a0461ca00","server":"65535","farm":66,"title":"0019 - Mirando hacia el horizonte \/ Looking towards the horizon","ispublic":1,"isfriend":0,"isfamily":0},{"id":"52673742458","owner":"59110473@N04","secret":"68d59c5583","server":"65535","farm":66,"title":"Melanospiza bicolor (Gorrion Bicolor)","ispublic":1,"isfriend":0,"isfamily":0},{"id":"52662256469","owner":"69947563@N07","secret":"3d8da3e6e9","server":"65535","farm":66,"title":"Black-faced Grassquit - Victoria, Caldas, Colombia","ispublic":1,"isfriend":0,"isfamily":0},{"id":"52607048233","owner":"11295713@N00","secret":"11bd5bdcb2","server":"65535","farm":66,"title":"Black-faced Grassquit (Melanospiza bicolor) (f)","ispublic":1,"isfriend":0,"isfamily":0},{"id":"52558659806","owner":"10571213@N00","secret":"72c2814f3b","server":"65535","farm":66,"title":"Melanospiza bicolor (male trying to impress female)","ispublic":1,"isfriend":0,"isfamily":0},{"id":"52559205158","owner":"10571213@N00","secret":"2482e01260","server":"65535","farm":66,"title":"Melanospiza bicolor (male trying to impress female)","ispublic":1,"isfriend":0,"isfamily":0},{"id":"52558205592","owner":"10571213@N00","secret":"d012bd1254","server":"65535","farm":66,"title":"Melanospiza bicolor (male trying to impress female)","ispublic":1,"isfriend":0,"isfamily":0},{"id":"52516180344","owner":"42622112@N08","secret":"1c500efec9","server":"65535","farm":66,"title":"Juana Maruca \/ Melanospiza bicolor","ispublic":1,"isfriend":0,"isfamily":0},{"id":"52516315503","owner":"195687643@N08","secret":"0ba2687f2f","server":"65535","farm":66,"title":"0006 - Posando en lo alto \/ Sitting on the top","ispublic":1,"isfriend":0,"isfamily":0},{"id":"52439859142","owner":"33005514@N04","secret":"8c60f3429b","server":"65535","farm":66,"title":"Juana Maruca \/  Melanospiza bicolor ( Macho \/ Male)","ispublic":1,"isfriend":0,"isfamily":0},{"id":"52439859132","owner":"33005514@N04","secret":"b5d37efc21","server":"65535","farm":66,"title":"Juana Maruca \/  Melanospiza bicolor ( Macho \/ Male)","ispublic":1,"isfriend":0,"isfamily":0},{"id":"52439859082","owner":"33005514@N04","secret":"510a844c59","server":"65535","farm":66,"title":"Juana Maruca \/  Melanospiza bicolor ( Macho \/ Male)","ispublic":1,"isfriend":0,"isfamily":0},{"id":"52419644093","owner":"33005514@N04","secret":"b5920c63cf","server":"65535","farm":66,"title":"Juana Maruca \/  Melanospiza bicolor ( Macho \/ Male)","ispublic":1,"isfriend":0,"isfamily":0},{"id":"52357737856","owner":"43935391694@N01","secret":"fce9d8cdb3","server":"65535","farm":66,"title":"Female Black Faced Grassquit San Javier Ibague Tolima Colombia","ispublic":1,"isfriend":0,"isfamily":0},{"id":"52226426645","owner":"31704662@N08","secret":"282b3b2f20","server":"65535","farm":66,"title":"Black-faced Grassquit (Melanospiza bicolor)","ispublic":1,"isfriend":0,"isfamily":0},{"id":"52020742248","owner":"147450357@N08","secret":"c80a5504db","server":"65535","farm":66,"title":"Sporophile cici femelle","ispublic":1,"isfriend":0,"isfamily":0},{"id":"51983082474","owner":"57729348@N02","secret":"442e28025e","server":"65535","farm":66,"title":"Black-faced Grassquit (Melanospiza bicolor)???","ispublic":1,"isfriend":0,"isfamily":0},{"id":"51932298439","owner":"134270033@N06","secret":"22c0e03285","server":"65535","farm":66,"title":"HFF :: Happy Fence Friday","ispublic":1,"isfriend":0,"isfamily":0},{"id":"51895576794","owner":"40113101@N06","secret":"0226861e01","server":"65535","farm":66,"title":"Black-faced Grassquit - Female","ispublic":1,"isfriend":0,"isfamily":0},{"id":"51887308581","owner":"114700825@N07","secret":"4ce98b934b","server":"65535","farm":66,"title":"188.04 Maskergrondvink","ispublic":1,"isfriend":0,"isfamily":0},{"id":"51887964815","owner":"114700825@N07","secret":"11527e9db8","server":"65535","farm":66,"title":"188.04 Maskergrondvink","ispublic":1,"isfriend":0,"isfamily":0},{"id":"51427183578","owner":"119787485@N07","secret":"e5d1219882","server":"65535","farm":66,"title":"Black-faced Grassquit (Melanospiza bicolor sharpei) - 20120425-03","ispublic":1,"isfriend":0,"isfamily":0},{"id":"51125863071","owner":"131860051@N06","secret":"500b2607a7","server":"65535","farm":66,"title":"Black-faced Grassquit","ispublic":1,"isfriend":0,"isfamily":0},{"id":"50996849880","owner":"186211059@N06","secret":"f1e1b08565","server":"65535","farm":66,"title":"Black-faced Grassquit","ispublic":1,"isfriend":0,"isfamily":0},{"id":"50996838719","owner":"186211059@N06","secret":"a0f4237e00","server":"65535","farm":66,"title":"Black-faced Grassquit","ispublic":1,"isfriend":0,"isfamily":0},{"id":"51005597718","owner":"147450357@N08","secret":"56be287a61","server":"65535","farm":66,"title":"Sporophile cici","ispublic":1,"isfriend":0,"isfamily":0},{"id":"50966204661","owner":"21147276@N03","secret":"f73a573949","server":"65535","farm":66,"title":"Wild Child","ispublic":1,"isfriend":0,"isfamily":0},{"id":"50647124237","owner":"56983940@N06","secret":"0595ec055c","server":"65535","farm":66,"title":"Black-faced Grassquit","ispublic":1,"isfriend":0,"isfamily":0},{"id":"50646287818","owner":"56983940@N06","secret":"4f46c17af0","server":"65535","farm":66,"title":"Black-faced Grassquit","ispublic":1,"isfriend":0,"isfamily":0},{"id":"50647124137","owner":"56983940@N06","secret":"a14bc2a738","server":"65535","farm":66,"title":"Yellow-throated Warbler","ispublic":1,"isfriend":0,"isfamily":0},{"id":"50646287738","owner":"56983940@N06","secret":"7e46f4a18f","server":"65535","farm":66,"title":"Black-faced Grassquit","ispublic":1,"isfriend":0,"isfamily":0},{"id":"50647124022","owner":"56983940@N06","secret":"def5c0e99b","server":"65535","farm":66,"title":"Black-faced Grassquit","ispublic":1,"isfriend":0,"isfamily":0},{"id":"50646287613","owner":"56983940@N06","secret":"42f9acab0f","server":"65535","farm":66,"title":"Key Deer","ispublic":1,"isfriend":0,"isfamily":0},{"id":"50563464962","owner":"61021753@N02","secret":"0d9d8ab656","server":"65535","farm":66,"title":"n78_w1150","ispublic":1,"isfriend":0,"isfamily":0},{"id":"50345056372","owner":"147283349@N08","secret":"063598064d","server":"65535","farm":66,"title":"Melanospiza bicolor grandior -E- SSP","ispublic":1,"isfriend":0,"isfamily":0},{"id":"50138693946","owner":"189236820@N03","secret":"0191f3e41d","server":"65535","farm":66,"title":"Tordillo Com\u00fan (Melanospiza bicolor)","ispublic":1,"isfriend":0,"isfamily":0},{"id":"50074890338","owner":"74787113@N05","secret":"bd01cc30b9","server":"65535","farm":66,"title":"BLACK-FACED GRASSQUIT","ispublic":1,"isfriend":0,"isfamily":0},{"id":"49456392383","owner":"61021753@N02","secret":"707e7faf3f","server":"65535","farm":66,"title":"n169_w1150","ispublic":1,"isfriend":0,"isfamily":0},{"id":"48079180593","owner":"29170368@N03","secret":"0c11001242","server":"65535","farm":66,"title":"Black-faced Grassquit","ispublic":1,"isfriend":0,"isfamily":0},{"id":"46717749315","owner":"55527686@N03","secret":"743a0e859a","server":"65535","farm":66,"title":"Black-faced Grassquit (Melanospiza bicolor)","ispublic":1,"isfriend":0,"isfamily":0},{"id":"46335553101","owner":"12639178@N07","secret":"9fec4f7451","server":"4906","farm":5,"title":"Jamaikagimpeltangare ruht auf Weidezaun","ispublic":1,"isfriend":0,"isfamily":0},{"id":"52558659476","owner":"10571213@N00","secret":"fd04f6a638","server":"65535","farm":66,"title":"Melanospiza bicolor (male trying to impress female)","ispublic":1,"isfriend":0,"isfamily":0},{"id":"52439787418","owner":"192502021@N07","secret":"c0e2eda908","server":"65535","farm":66,"title":"Semillero Pechinegro Black-faced Grassquit Melanospiza bicolor-1","ispublic":1,"isfriend":0,"isfamily":0},{"id":"52304312280","owner":"48938938@N04","secret":"d7a1865dcd","server":"65535","farm":66,"title":"Black-faced Grassquit_Melanospiza bicolor_Ascanio_Caicaguana_DZ3A8011","ispublic":1,"isfriend":0,"isfamily":0},{"id":"52303813721","owner":"48938938@N04","secret":"fd2b3db392","server":"65535","farm":66,"title":"Black-faced Grassquit_Melanospiza bicolor_Ascanio_Caicaguana_DZ3A8014","ispublic":1,"isfriend":0,"isfamily":0},{"id":"52094147064","owner":"48938938@N04","secret":"88c5ac96a7","server":"65535","farm":66,"title":"Black-faced Grassquit_Melanospiza bicolor_Ascanio_GBD_DZ3A7503","ispublic":1,"isfriend":0,"isfamily":0},{"id":"52093925383","owner":"48938938@N04","secret":"ab4e1b8cfe","server":"65535","farm":66,"title":"Black-faced Grassquit_Melanospiza bicolor_Ascanio_GBD_DZ3A7516","ispublic":1,"isfriend":0,"isfamily":0},{"id":"52032377118","owner":"42978673@N00","secret":"f844c983f6","server":"65535","farm":66,"title":"Black-faced Grassquit - Melanospiza bicolor","ispublic":1,"isfriend":0,"isfamily":0},{"id":"52022869732","owner":"156828568@N03","secret":"7fb729540f","server":"65535","farm":66,"title":"Sporophile cici ou Cici verdin\u00e8re - Melanospiza bicolor - Black-faced Grassquit","ispublic":1,"isfriend":0,"isfamily":0},{"id":"51943102326","owner":"134270033@N06","secret":"37748fe562","server":"65535","farm":66,"title":"Male","ispublic":1,"isfriend":0,"isfamily":0},{"id":"51811838747","owner":"96713629@N03","secret":"6470be0a88","server":"65535","farm":66,"title":"Maskergrondvink -Black Faced grassquit (Tiaris bicolor)-A20_0552","ispublic":1,"isfriend":0,"isfamily":0},{"id":"51762176381","owner":"188934343@N06","secret":"ab1a065351","server":"65535","farm":66,"title":"Je finis ton petit dej","ispublic":1,"isfriend":0,"isfamily":0},{"id":"51723569832","owner":"12639178@N07","secret":"4cca4b5e83","server":"65535","farm":66,"title":"Black-faced Grassquit c","ispublic":1,"isfriend":0,"isfamily":0},{"id":"51724626448","owner":"12639178@N07","secret":"aa1bb2b6e3","server":"65535","farm":66,"title":"Black-faced Grassquit b","ispublic":1,"isfriend":0,"isfamily":0},{"id":"51725033714","owner":"12639178@N07","secret":"6789878da3","server":"65535","farm":66,"title":"Black-faced Grassquit a","ispublic":1,"isfriend":0,"isfamily":0},{"id":"51724461285","owner":"12639178@N07","secret":"81e92c792b","server":"65535","farm":66,"title":"Black-faced Grassquit - female","ispublic":1,"isfriend":0,"isfamily":0},{"id":"51211820255","owner":"22420387@N07","secret":"b9fc2d1518","server":"65535","farm":66,"title":"Black-faced Grassquit - DEL_4877-LRwm","ispublic":1,"isfriend":0,"isfamily":0},{"id":"51210041577","owner":"22420387@N07","secret":"7d9a115f53","server":"65535","farm":66,"title":"Black-faced Grassquit - DEL_4872-LRwm","ispublic":1,"isfriend":0,"isfamily":0},{"id":"51210041547","owner":"22420387@N07","secret":"db03181f60","server":"65535","farm":66,"title":"Black-faced Grassquit - DEL_4960-LRwm","ispublic":1,"isfriend":0,"isfamily":0},{"id":"51211514699","owner":"22420387@N07","secret":"0db2abc3be","server":"65535","farm":66,"title":"Black-faced Grassquit - DEL_4979-LRwm","ispublic":1,"isfriend":0,"isfamily":0},{"id":"51210960658","owner":"22420387@N07","secret":"4f176cac53","server":"65535","farm":66,"title":"Black-faced Grassquit - DEL_4878-LRwm","ispublic":1,"isfriend":0,"isfamily":0},{"id":"51210960653","owner":"22420387@N07","secret":"b6424bee91","server":"65535","farm":66,"title":"Black-faced Grassquit - DEL_5005-LRwm","ispublic":1,"isfriend":0,"isfamily":0},{"id":"51210960618","owner":"22420387@N07","secret":"65559b6e5a","server":"65535","farm":66,"title":"Black-faced Grassquit - DEL_5010-LRwm","ispublic":1,"isfriend":0,"isfamily":0},{"id":"51172180117","owner":"156828568@N03","secret":"16b1d0852e","server":"65535","farm":66,"title":"Sporophile cici ou Cici verdin\u00e8re - Melanospiza bicolor - Black-faced Grassquit","ispublic":1,"isfriend":0,"isfamily":0},{"id":"51043429972","owner":"117307568@N03","secret":"54a77a02e1","server":"65535","farm":66,"title":"Black-faced Grassquit (Gorri\u00f3n Negro)","ispublic":1,"isfriend":0,"isfamily":0},{"id":"50949976032","owner":"117307568@N03","secret":"176aa004ff","server":"65535","farm":66,"title":"Black-faced Grassquit (Gorri\u00f3n Negro) _ Melanospiza bicolor","ispublic":1,"isfriend":0,"isfamily":0},{"id":"50923755278","owner":"123979267@N05","secret":"d12c67d2fb","server":"65535","farm":66,"title":"Black-faced Grassquit Documentation Shot","ispublic":1,"isfriend":0,"isfamily":0},{"id":"50618720381","owner":"45681418@N03","secret":"1ae102c5b8","server":"65535","farm":66,"title":"Black-faced Grassquit (Melanospiza bicolor)","ispublic":1,"isfriend":0,"isfamily":0},{"id":"50617983318","owner":"45681418@N03","secret":"40f5e44a45","server":"65535","farm":66,"title":"Black-faced Grassquit (Melanospiza bicolor)","ispublic":1,"isfriend":0,"isfamily":0},{"id":"50618826487","owner":"45681418@N03","secret":"4cc8d91ce9","server":"65535","farm":66,"title":"Black-faced Grassquit (Melanospiza bicolor)","ispublic":1,"isfriend":0,"isfamily":0},{"id":"50242879977","owner":"189236820@N03","secret":"9e63fda227","server":"65535","farm":66,"title":"Tordillo com\u00fan (Melanospiza bicolor)","ispublic":1,"isfriend":0,"isfamily":0},{"id":"50102498801","owner":"189236820@N03","secret":"9a5a79d0e4","server":"65535","farm":66,"title":"Tordillo com\u00fan ( Melanospiza bicolor)","ispublic":1,"isfriend":0,"isfamily":0}]},"stat":"ok"}