{"photos":{"page":1,"pages":2,"perpage":100,"total":118,"photo":[{"id":"50296409366","owner":"148207263@N05","secret":"37a7017b0c","server":"65535","farm":66,"title":"Mariposa monarca (Danaus plexippus)","ispublic":1,"isfriend":0,"isfamily":0},{"id":"47115228684","owner":"56983940@N06","secret":"609f98b80f","server":"65535","farm":66,"title":"Black-backed Oriole","ispublic":1,"isfriend":0,"isfamily":0},{"id":"25925477447","owner":"56983940@N06","secret":"05cdba083f","server":"4780","farm":5,"title":"Black-backed Oriole","ispublic":1,"isfriend":0,"isfamily":0},{"id":"25925477397","owner":"56983940@N06","secret":"f8ca9dfd9b","server":"4772","farm":5,"title":"Black-backed Oriole","ispublic":1,"isfriend":0,"isfamily":0},{"id":"36947514494","owner":"108645908@N08","secret":"a3025e2e3f","server":"4466","farm":5,"title":"Icterus abeillei\/Bolsero de Flancos Negros, macho\/Black-backed Oriole, male.","ispublic":1,"isfriend":0,"isfamily":0},{"id":"23805339468","owner":"108645908@N08","secret":"f8e29f0d52","server":"4480","farm":5,"title":"Icterus abeillei\/Bolsero de Flancos Negros, macho\/Black-backed Oriole, male.","ispublic":1,"isfriend":0,"isfamily":0},{"id":"33079359222","owner":"28499865@N07","secret":"6980cece53","server":"3782","farm":4,"title":"Black-backed Oriole - Icterus abeillei","ispublic":1,"isfriend":0,"isfamily":0},{"id":"32348526843","owner":"102629446@N07","secret":"4ea2de92f3","server":"3747","farm":4,"title":"Turpial Dorsinegro \/ Black-backed Oriole (Icterus abeillei)","ispublic":1,"isfriend":0,"isfamily":0},{"id":"32715047892","owner":"28499865@N07","secret":"1a563e4032","server":"2441","farm":3,"title":"Black-backed Oriole - Icterus abeillei","ispublic":1,"isfriend":0,"isfamily":0},{"id":"32715047062","owner":"28499865@N07","secret":"d2dc6180d9","server":"2597","farm":3,"title":"Black-backed Oriole - Icterus abeillei","ispublic":1,"isfriend":0,"isfamily":0},{"id":"32868640275","owner":"28499865@N07","secret":"aa5a53ddc1","server":"2054","farm":3,"title":"Black-backed Oriole - Icterus abeillei","ispublic":1,"isfriend":0,"isfamily":0},{"id":"31968047504","owner":"135959565@N06","secret":"1bfd74b22d","server":"2535","farm":3,"title":"A Black-backed Oriole  (Icterus abeillei), a mega rarity that is endemic to Mexico is visiting the U.S!","ispublic":1,"isfriend":0,"isfamily":0},{"id":"32430218020","owner":"135959565@N06","secret":"523c420d63","server":"437","farm":1,"title":"A Black-backed Oriole  (Icterus abeillei), a mega rarity that is endemic to Mexico is visiting the U.S!","ispublic":1,"isfriend":0,"isfamily":0},{"id":"32657531592","owner":"135959565@N06","secret":"4aa8fd132c","server":"2342","farm":3,"title":"A Black-backed Oriole  (Icterus abeillei), a mega rarity that is endemic to Mexico is visiting the U.S!","ispublic":1,"isfriend":0,"isfamily":0},{"id":"28440529645","owner":"108645908@N08","secret":"f1d31c5115","server":"8689","farm":9,"title":"Icterus abeillei\/Bolsero de flancos negros, inmaduro-macho\/Male, Black-backed Oriole, immature.","ispublic":1,"isfriend":0,"isfamily":0},{"id":"28440274515","owner":"22048801@N03","secret":"0f9e2a6004","server":"8605","farm":9,"title":"Calandrias en un guam\u00fachil. Icterus galbula abeillei","ispublic":1,"isfriend":0,"isfamily":0},{"id":"28407409046","owner":"22048801@N03","secret":"b84031ecc7","server":"8596","farm":9,"title":"Calandrias en un guam\u00fachil. Icterus galbula abeillei","ispublic":1,"isfriend":0,"isfamily":0},{"id":"28407404366","owner":"22048801@N03","secret":"38707d8ce1","server":"8656","farm":9,"title":"Calandrias en un guam\u00fachil. Icterus galbula abeillei","ispublic":1,"isfriend":0,"isfamily":0},{"id":"26569183916","owner":"12211631@N03","secret":"6b0be2e423","server":"1660","farm":2,"title":"Black-backed Oriole (Icterus abeillei)","ispublic":1,"isfriend":0,"isfamily":0},{"id":"26569066126","owner":"12211631@N03","secret":"9089646cbf","server":"1462","farm":2,"title":"Black-backed Oriole (Icterus abeillei)","ispublic":1,"isfriend":0,"isfamily":0},{"id":"26218687161","owner":"12211631@N03","secret":"e64895b1cf","server":"1531","farm":2,"title":"Black-backed Oriole (Icterus abeillei)","ispublic":1,"isfriend":0,"isfamily":0},{"id":"25682158343","owner":"12211631@N03","secret":"49d8a91a2e","server":"1627","farm":2,"title":"Black-backed Oriole (Icterus abeillei)","ispublic":1,"isfriend":0,"isfamily":0},{"id":"26132207782","owner":"12211631@N03","secret":"01ae70cd47","server":"1516","farm":2,"title":"Black-backed Oriole (Icterus abeillei)","ispublic":1,"isfriend":0,"isfamily":0},{"id":"25621846773","owner":"12211631@N03","secret":"561d4bca6f","server":"1541","farm":2,"title":"Black-backed Oriole (Icterus abeillei)","ispublic":1,"isfriend":0,"isfamily":0},{"id":"25968121332","owner":"12211631@N03","secret":"fc2e232faa","server":"1713","farm":2,"title":"Black-backed Oriole (Icterus abeillei)","ispublic":1,"isfriend":0,"isfamily":0},{"id":"26059440825","owner":"12211631@N03","secret":"8015aed16a","server":"1567","farm":2,"title":"Black-backed Oriole (Icterus abeillei)","ispublic":1,"isfriend":0,"isfamily":0},{"id":"25851989222","owner":"108645908@N08","secret":"cb81fbea19","server":"1702","farm":2,"title":"Icterus abeillei\/Bolsero de flancos negros, macho\/Black-backed Oriole, male.","ispublic":1,"isfriend":0,"isfamily":0},{"id":"25733499045","owner":"102629446@N07","secret":"fa85c1c1a6","server":"1626","farm":2,"title":"Bolsero dorso obscuro glow","ispublic":1,"isfriend":0,"isfamily":0},{"id":"24998796544","owner":"102629446@N07","secret":"4778227181","server":"1603","farm":2,"title":"Mi aguacate","ispublic":1,"isfriend":0,"isfamily":0},{"id":"24726137954","owner":"108645908@N08","secret":"4af2cb53c5","server":"1634","farm":2,"title":"Icterus abeillei\/Bolsero de flancos negros, macho\/Black-backed Oriole, male.","ispublic":1,"isfriend":0,"isfamily":0},{"id":"24132168583","owner":"108645908@N08","secret":"e9bc96900e","server":"1553","farm":2,"title":"Icterus abeillei\/Bolsero de flancos negros, juvenil-macho\/Black-backed Oriole, male-juvenile.","ispublic":1,"isfriend":0,"isfamily":0},{"id":"24195281202","owner":"108645908@N08","secret":"f02b898515","server":"1543","farm":2,"title":"Icterus abeillei\/Bolsero de flancos negros, juvenil-macho\/Black-backed Oriole, male-juvenile.","ispublic":1,"isfriend":0,"isfamily":0},{"id":"24277300696","owner":"108645908@N08","secret":"62aac6ae47","server":"1508","farm":2,"title":"Icterus abeillei\/Bolsero de flancos negros, macho\/Black-backed Oriole, male.","ispublic":1,"isfriend":0,"isfamily":0},{"id":"23826896846","owner":"108645908@N08","secret":"468e6bea7e","server":"617","farm":1,"title":"Icterus abeillei\/Bolsero de flancos negros, hembra\/Black-backed Oriole, female.","ispublic":1,"isfriend":0,"isfamily":0},{"id":"23826880666","owner":"108645908@N08","secret":"207c39e24c","server":"769","farm":1,"title":"Icterus abeillei\/Bolsaero de flancos negros, macho-juvenil\/Black-backed Oriole, juvenile-male.","ispublic":1,"isfriend":0,"isfamily":0},{"id":"22852170403","owner":"108645908@N08","secret":"3f0ce50c20","server":"5752","farm":6,"title":"Icterus abeillei\/Bolsero de flancos negros, hembra\/Black-backed Oriole, female.","ispublic":1,"isfriend":0,"isfamily":0},{"id":"23453146416","owner":"108645908@N08","secret":"e1c7ecac8e","server":"669","farm":1,"title":"Icterus abeillei\/Bolsero de flancos negros, macho\/Black-backed Oriole, male.","ispublic":1,"isfriend":0,"isfamily":0},{"id":"22123269874","owner":"24309230@N03","secret":"4b913ff398","server":"5747","farm":6,"title":"Bolsero Dorsioscuro","ispublic":1,"isfriend":0,"isfamily":0},{"id":"21019232849","owner":"130050537@N03","secret":"812bd2fef2","server":"5635","farm":6,"title":"Icterus abeillei_MAAG","ispublic":1,"isfriend":0,"isfamily":0},{"id":"20585405999","owner":"108645908@N08","secret":"9e0554421c","server":"584","farm":1,"title":"Icterus abeillei\/Bolsero o calandria de flancos negros\/Black-backed Oriole.","ispublic":1,"isfriend":0,"isfamily":0},{"id":"19214965784","owner":"108645908@N08","secret":"0e459e326b","server":"3668","farm":4,"title":"Icterus abeillei\/Bolsero o calandria de flancos negros, hembra\/Black-backed Oriole, female.","ispublic":1,"isfriend":0,"isfamily":0},{"id":"17277032021","owner":"108645908@N08","secret":"5b785359a5","server":"8759","farm":9,"title":"Icterus abeillei\/Calandria o Bolsero de flancos negros, macho\/Black-backed Oriole, male.","ispublic":1,"isfriend":0,"isfamily":0},{"id":"17270368625","owner":"108645908@N08","secret":"7ca6ff891e","server":"8692","farm":9,"title":"Icterus abeillei\/Calandria o Bolsero de flancos negros\/Black-backed Oriole.","ispublic":1,"isfriend":0,"isfamily":0},{"id":"16942642429","owner":"12211631@N03","secret":"5bdbe117c2","server":"7642","farm":8,"title":"Icterus sp.","ispublic":1,"isfriend":0,"isfamily":0},{"id":"16802772229","owner":"12211631@N03","secret":"4ed045c7e6","server":"7605","farm":8,"title":"Black-backed Oriole, Icterus abeillei","ispublic":1,"isfriend":0,"isfamily":0},{"id":"16786492496","owner":"12211631@N03","secret":"8cc9aafbe6","server":"7588","farm":8,"title":"Black-backed Oriole, Icterus abeillei","ispublic":1,"isfriend":0,"isfamily":0},{"id":"45273885842","owner":"131959592@N07","secret":"3535ac0071","server":"1963","farm":2,"title":"Asclepias Ecology","ispublic":1,"isfriend":0,"isfamily":0},{"id":"35966869425","owner":"108645908@N08","secret":"9140a45475","server":"4299","farm":5,"title":"Icterus abeillei\/Bolsero de Flancos Negros, macho\/Black-backed Oriole, male.","ispublic":1,"isfriend":0,"isfamily":0},{"id":"34050182604","owner":"108645908@N08","secret":"87161b3ab4","server":"4224","farm":5,"title":"Icterus abeillei\/Bolsero de Flancos negros, macho\/Black-backed Oriole, male.","ispublic":1,"isfriend":0,"isfamily":0},{"id":"33628676346","owner":"108645908@N08","secret":"fc463a5cf0","server":"2831","farm":3,"title":"Icterus abeillei\/Bolsero de Flancos Negros, macho\/Black-backed Oriole, male.","ispublic":1,"isfriend":0,"isfamily":0},{"id":"33079359672","owner":"28499865@N07","secret":"8ce3af2151","server":"2896","farm":3,"title":"Black-backed Oriole - Icterus abeillei","ispublic":1,"isfriend":0,"isfamily":0},{"id":"32421177253","owner":"28499865@N07","secret":"205320ffdb","server":"3819","farm":4,"title":"Black-backed Oriole - Icterus abeillei","ispublic":1,"isfriend":0,"isfamily":0},{"id":"33079359422","owner":"28499865@N07","secret":"305ab13d05","server":"2811","farm":3,"title":"Black-backed Oriole - Icterus abeillei","ispublic":1,"isfriend":0,"isfamily":0},{"id":"32421176903","owner":"28499865@N07","secret":"d2211cf1a7","server":"692","farm":1,"title":"Black-backed Oriole - Icterus abeillei","ispublic":1,"isfriend":0,"isfamily":0},{"id":"32715047582","owner":"28499865@N07","secret":"8c1fa9e276","server":"639","farm":1,"title":"Black-backed Oriole - Icterus abeillei","ispublic":1,"isfriend":0,"isfamily":0},{"id":"32053983623","owner":"28499865@N07","secret":"c319be24c9","server":"2126","farm":3,"title":"Black-backed Oriole - Icterus abeillei","ispublic":1,"isfriend":0,"isfamily":0},{"id":"32715047262","owner":"28499865@N07","secret":"b07c1e69f3","server":"3797","farm":4,"title":"Black-backed Oriole - Icterus abeillei","ispublic":1,"isfriend":0,"isfamily":0},{"id":"32868641185","owner":"28499865@N07","secret":"d817e2bd86","server":"3913","farm":4,"title":"Black-backed Oriole - Icterus abeillei","ispublic":1,"isfriend":0,"isfamily":0},{"id":"32868640765","owner":"28499865@N07","secret":"f80a7b5f08","server":"258","farm":1,"title":"Black-backed Oriole - Icterus abeillei","ispublic":1,"isfriend":0,"isfamily":0},{"id":"32715046492","owner":"28499865@N07","secret":"b1291bdc12","server":"316","farm":1,"title":"Black-backed Oriole - Icterus abeillei","ispublic":1,"isfriend":0,"isfamily":0},{"id":"31996582123","owner":"135959565@N06","secret":"75fbca7c12","server":"2546","farm":3,"title":"A Black-backed Oriole  (Icterus abeillei), a mega rarity that is endemic to Mexico is visiting the U.S!","ispublic":1,"isfriend":0,"isfamily":0},{"id":"32687631441","owner":"135959565@N06","secret":"65d0e117ee","server":"3858","farm":4,"title":"A Black-backed Oriole  (Icterus abeillei), a mega rarity that is endemic to Mexico is visiting the U.S!","ispublic":1,"isfriend":0,"isfamily":0},{"id":"32751435245","owner":"74113421@N03","secret":"645199f6b5","server":"701","farm":1,"title":"Black-backed Oriole (Icterus abeillei)","ispublic":1,"isfriend":0,"isfamily":0},{"id":"32676830851","owner":"36616837@N06","secret":"8968b40e9a","server":"3722","farm":4,"title":"Black-backed Oriole","ispublic":1,"isfriend":0,"isfamily":0},{"id":"32646645682","owner":"36616837@N06","secret":"3af3a27973","server":"3786","farm":4,"title":"Black-backed Oriole","ispublic":1,"isfriend":0,"isfamily":0},{"id":"32419521210","owner":"36616837@N06","secret":"cdacbc4a7c","server":"2134","farm":3,"title":"Black-backed Oriole","ispublic":1,"isfriend":0,"isfamily":0},{"id":"28650574556","owner":"108645908@N08","secret":"8bb1953faf","server":"8786","farm":9,"title":"Icterus abeillei\/Bolsero de Flancos Negros, macho\/Black-backed Oriole, male.","ispublic":1,"isfriend":0,"isfamily":0},{"id":"28682447655","owner":"108645908@N08","secret":"9c97537236","server":"8134","farm":9,"title":"Icterus abeillei\/Bolsero de flacos negros, juvenil-macho\/Male, Black-backed Oriole immature.","ispublic":1,"isfriend":0,"isfamily":0},{"id":"28572775965","owner":"108645908@N08","secret":"99c859d532","server":"8898","farm":9,"title":"Icterus abeillei\/Bolsero de flancos negros, macho\/Black-backed Oriole, male.","ispublic":1,"isfriend":0,"isfamily":0},{"id":"28157636250","owner":"108645908@N08","secret":"1b2f72fb7d","server":"8814","farm":9,"title":"Icterus abeillei\/Bolsero de flancos negros, hembra\/Black-backed Oriole, female.","ispublic":1,"isfriend":0,"isfamily":0},{"id":"28361284311","owner":"22048801@N03","secret":"db14f57a29","server":"7632","farm":8,"title":"Calandrias en un guam\u00fachil. Icterus galbula abeillei","ispublic":1,"isfriend":0,"isfamily":0},{"id":"27702331461","owner":"108645908@N08","secret":"bfc18a4dd0","server":"7263","farm":8,"title":"Icterus abeillei\/Bolsero de flancos negros, macho\/Black-backed Oriole, male.","ispublic":1,"isfriend":0,"isfamily":0},{"id":"26979412924","owner":"108645908@N08","secret":"4591c5aba8","server":"7531","farm":8,"title":"Icterus abeillei\/Bolsero de flancos negros, hembra\/Black-backed Oriole, female.","ispublic":1,"isfriend":0,"isfamily":0},{"id":"27082073512","owner":"108645908@N08","secret":"0fa40e9332","server":"7746","farm":8,"title":"Icterus abeillei\/Bolsero de flancos negros, macho\/Black-backed Oriole, male.","ispublic":1,"isfriend":0,"isfamily":0},{"id":"27120912166","owner":"108645908@N08","secret":"58c0a969aa","server":"7482","farm":8,"title":"Icterus abeillei\/Bolsero de flancos negros, macho\/Black-backed Oriole, male.","ispublic":1,"isfriend":0,"isfamily":0},{"id":"26735071235","owner":"108645908@N08","secret":"37e3d52099","server":"1472","farm":2,"title":"Icterus abeillei\/Bolsero de flancos negros, macho\/Black-backed Oriole, male.","ispublic":1,"isfriend":0,"isfamily":0},{"id":"26357003965","owner":"108645908@N08","secret":"e01eceed7f","server":"1518","farm":2,"title":"Icterus abeillei\/Bolsero de flancosnegros, male\/Black-backed Oriole, male.","ispublic":1,"isfriend":0,"isfamily":0},{"id":"26012133690","owner":"12211631@N03","secret":"db715e90a2","server":"1501","farm":2,"title":"Black-backed Oriole (Icterus abeillei)","ispublic":1,"isfriend":0,"isfamily":0},{"id":"26198823836","owner":"12211631@N03","secret":"58b98162f8","server":"1448","farm":2,"title":"Black-backed Oriole (Icterus abeillei)","ispublic":1,"isfriend":0,"isfamily":0},{"id":"26131924262","owner":"12211631@N03","secret":"fa35c6bbba","server":"1666","farm":2,"title":"Black-backed Oriole (Icterus abeillei)","ispublic":1,"isfriend":0,"isfamily":0},{"id":"25786760000","owner":"12211631@N03","secret":"683a890408","server":"1632","farm":2,"title":"Black-backed Oriole (Icterus abeillei)","ispublic":1,"isfriend":0,"isfamily":0},{"id":"25138370184","owner":"108645908@N08","secret":"83f39e5df7","server":"1650","farm":2,"title":"Icterus abeillei\/Bolsero de flancos negros, macho\/Black-backed Oriole, male.","ispublic":1,"isfriend":0,"isfamily":0},{"id":"24801075150","owner":"102629446@N07","secret":"933ea891ea","server":"1644","farm":2,"title":"Bolsero dorsioscuro \/ Black-backed Oriole (Icterus abeillei )","ispublic":1,"isfriend":0,"isfamily":0},{"id":"24130892104","owner":"108645908@N08","secret":"c8479aea9f","server":"1556","farm":2,"title":"Icterus abeillei\/Bolsero de flancos negros, hembra\/Black-backed Oriole, female.","ispublic":1,"isfriend":0,"isfamily":0},{"id":"24346984649","owner":"108645908@N08","secret":"d37762ecfe","server":"1546","farm":2,"title":"Icterus abeillei\/Bolsero de flancos negros, juvenil-macho\/Black-backed Oriole, male-juvenile-2.","ispublic":1,"isfriend":0,"isfamily":0},{"id":"24419099470","owner":"108645908@N08","secret":"c3e3b69d1b","server":"1519","farm":2,"title":"Icterus abeillei\/Bolsero de flancos negros, juvenil-macho\/Black-backed Oriole, male-juvenile-1.","ispublic":1,"isfriend":0,"isfamily":0},{"id":"23433724620","owner":"108645908@N08","secret":"f9f0e5f29e","server":"5633","farm":6,"title":"Icterus abeillei\/Bolsero de flancos negros, juvenil-macho\/Black-backed Oriole, male-juvenile.","ispublic":1,"isfriend":0,"isfamily":0},{"id":"23310439479","owner":"108645908@N08","secret":"15759b0030","server":"668","farm":1,"title":"Icterus abeillei\/Bolsero de flancos negros, macho\/Black-backed Oriole, male.","ispublic":1,"isfriend":0,"isfamily":0},{"id":"23465893151","owner":"108645908@N08","secret":"fb9f5c597c","server":"614","farm":1,"title":"Icterus abeillei\/Bolsero de flancos negros, macho\/Black-backed Oriole, male.","ispublic":1,"isfriend":0,"isfamily":0},{"id":"23197439496","owner":"108645908@N08","secret":"0e696a3137","server":"5642","farm":6,"title":"Icterus abeillei\/Bolsero de flancos negros macho juvenil\/Black-backed Oriole, juvenile-male.","ispublic":1,"isfriend":0,"isfamily":0},{"id":"22237904173","owner":"108645908@N08","secret":"16faf77b08","server":"723","farm":1,"title":"Icterus abeillei\/Bolsero de flancos negros, hembra\/Black-backed Oriole, female.","ispublic":1,"isfriend":0,"isfamily":0},{"id":"20745945636","owner":"108645908@N08","secret":"5c3b785645","server":"5662","farm":6,"title":"Icterus abeillei\/Bolsero o calandria de flancos negros, juveniles\/Black-backed Oriole, juvenile.","ispublic":1,"isfriend":0,"isfamily":0},{"id":"19151534309","owner":"108645908@N08","secret":"729e51b2cf","server":"489","farm":1,"title":"Icterus abeillei\/Calandria 0 Bolsero de flancos negros, juvenil\/Black-backed Oriole, juvenile.","ispublic":1,"isfriend":0,"isfamily":0},{"id":"17471346015","owner":"108645908@N08","secret":"a2dbeed735","server":"8741","farm":9,"title":"Icterus abeillei\/Bolsero o Calandria de flancos negros\/Black-backed Oriole.","ispublic":1,"isfriend":0,"isfamily":0},{"id":"17127421212","owner":"12211631@N03","secret":"c562cc841b","server":"8716","farm":9,"title":"Black-backed Oriole, Icterus abeillei","ispublic":1,"isfriend":0,"isfamily":0},{"id":"16855831386","owner":"12211631@N03","secret":"1f91531705","server":"7627","farm":8,"title":"Black-backed Oriole, Icterus abeillei","ispublic":1,"isfriend":0,"isfamily":0},{"id":"16688143198","owner":"12211631@N03","secret":"2548ffca70","server":"7645","farm":8,"title":"Black-backed Oriole, Icterus abeillei","ispublic":1,"isfriend":0,"isfamily":0},{"id":"16651232058","owner":"108645908@N08","secret":"3856dbc32b","server":"7623","farm":8,"title":"Icterus abeillei\/Bolsero o calandria de flancos negros, juvenil-macho\/Black-backed Oriole.","ispublic":1,"isfriend":0,"isfamily":0},{"id":"16605116577","owner":"12211631@N03","secret":"f9420b71b0","server":"7621","farm":8,"title":"Black-backed Oriole, Icterus abeillei","ispublic":1,"isfriend":0,"isfamily":0},{"id":"16542037001","owner":"108645908@N08","secret":"21c95204ae","server":"7318","farm":8,"title":"Icterus abeillei\/Bolsero de flancos blancos, macho-juvenil\/Black-backed Oriole.","ispublic":1,"isfriend":0,"isfamily":0}]},"stat":"ok"}