{"photos":{"page":1,"pages":15,"perpage":100,"total":1414,"photo":[{"id":"52670476957","owner":"29170368@N03","secret":"0d3ff7ca44","server":"65535","farm":66,"title":"Blackpoll Warbler","ispublic":1,"isfriend":0,"isfamily":0},{"id":"52656136171","owner":"181824639@N02","secret":"67eb5e23b3","server":"65535","farm":66,"title":"Paruline ray\u00e9e ( Setophaga striata )","ispublic":1,"isfriend":0,"isfamily":0},{"id":"52611509158","owner":"12639178@N07","secret":"b305081932","server":"65535","farm":66,"title":"Streifenwalds\u00e4nger (Setophaga striata) (1)","ispublic":1,"isfriend":0,"isfamily":0},{"id":"52586293193","owner":"196786375@N03","secret":"e69b9ba5df","server":"65535","farm":66,"title":"Blackpoll Warbler","ispublic":1,"isfriend":0,"isfamily":0},{"id":"52580572896","owner":"196786375@N03","secret":"2fcb85a799","server":"65535","farm":66,"title":"Lady Blackpoll","ispublic":1,"isfriend":0,"isfamily":0},{"id":"52581093493","owner":"196786375@N03","secret":"951873666c","server":"65535","farm":66,"title":"Blackpoll Warbler (m)","ispublic":1,"isfriend":0,"isfamily":0},{"id":"52532717066","owner":"33610210@N05","secret":"65434b0442","server":"65535","farm":66,"title":"Blackpoll Warbler, Setophaga striata","ispublic":1,"isfriend":0,"isfamily":0},{"id":"52519412219","owner":"39445433@N02","secret":"54a99d386b","server":"65535","farm":66,"title":"Blackpoll Warbler","ispublic":1,"isfriend":0,"isfamily":0},{"id":"52447281698","owner":"57729348@N02","secret":"c4880a8949","server":"65535","farm":66,"title":"Non breeding Blackpoll Warbler (Setophaga striata)","ispublic":1,"isfriend":0,"isfamily":0},{"id":"52441659830","owner":"145466593@N08","secret":"ed4f36514e","server":"65535","farm":66,"title":"Blackpoll Warbler","ispublic":1,"isfriend":0,"isfamily":0},{"id":"52437334215","owner":"85391626@N07","secret":"3808ca4237","server":"65535","farm":66,"title":"Blackpoll Warbler","ispublic":1,"isfriend":0,"isfamily":0},{"id":"52435902174","owner":"145466593@N08","secret":"f65d41f60d","server":"65535","farm":66,"title":"Blackpoll Warbler","ispublic":1,"isfriend":0,"isfamily":0},{"id":"52423662623","owner":"40723658@N05","secret":"86ce382a58","server":"65535","farm":66,"title":"Blackpoll Warbler","ispublic":1,"isfriend":0,"isfamily":0},{"id":"52418809900","owner":"39177293@N03","secret":"aa5fb03dde","server":"65535","farm":66,"title":"Blackpoll Warbler","ispublic":1,"isfriend":0,"isfamily":0},{"id":"52414124463","owner":"135315828@N06","secret":"0455b8b544","server":"65535","farm":66,"title":"blackpoll warbler","ispublic":1,"isfriend":0,"isfamily":0},{"id":"52413891614","owner":"135315828@N06","secret":"7d2c2b4a4d","server":"65535","farm":66,"title":"blackpoll warbler","ispublic":1,"isfriend":0,"isfamily":0},{"id":"52410549772","owner":"45340210@N05","secret":"e2b084c8e6","server":"65535","farm":66,"title":"Blackpoll Warbler 1 10_6_22","ispublic":1,"isfriend":0,"isfamily":0},{"id":"52397282229","owner":"165841515@N03","secret":"4d2abba958","server":"65535","farm":66,"title":"Paruline ray\u00e9e \/ Blackpoll Warbler \/ (Setophaga striata)","ispublic":1,"isfriend":0,"isfamily":0},{"id":"52396478652","owner":"165841515@N03","secret":"c8d50e867e","server":"65535","farm":66,"title":"Paruline ray\u00e9e \/ Blackpoll Warbler \/ (Setophaga striata)","ispublic":1,"isfriend":0,"isfamily":0},{"id":"52397421735","owner":"165841515@N03","secret":"cc99216428","server":"65535","farm":66,"title":"Paruline ray\u00e9e \/ Blackpoll Warbler \/ (Setophaga striata)","ispublic":1,"isfriend":0,"isfamily":0},{"id":"52366563144","owner":"181824639@N02","secret":"e6e0f03619","server":"65535","farm":66,"title":"Paruline ray\u00e9e ( Setophaga striata )","ispublic":1,"isfriend":0,"isfamily":0},{"id":"52363189733","owner":"103722035@N06","secret":"0510fc76d3","server":"0","farm":0,"title":"Blackpoll Warbler (Setophaga striata), Monta\u00f1a de Oro, Los Osos, CA","ispublic":1,"isfriend":0,"isfamily":0},{"id":"52274786840","owner":"196154111@N05","secret":"d620df4a8d","server":"65535","farm":66,"title":"Blackpoll Warbler | Paruline rayee | Setophaga striata","ispublic":1,"isfriend":0,"isfamily":0},{"id":"52218474984","owner":"65788177@N02","secret":"e0a195075c","server":"65535","farm":66,"title":"Blackpoll Warbler","ispublic":1,"isfriend":0,"isfamily":0},{"id":"52193378658","owner":"65788177@N02","secret":"4e39240db5","server":"65535","farm":66,"title":"Blackpoll Warbler","ispublic":1,"isfriend":0,"isfamily":0},{"id":"52191879774","owner":"48014585@N00","secret":"3ddc62a048","server":"65535","farm":66,"title":"Blackpoll Warbler","ispublic":1,"isfriend":0,"isfamily":0},{"id":"52192092365","owner":"48014585@N00","secret":"0b76833018","server":"65535","farm":66,"title":"Blackpoll Warbler","ispublic":1,"isfriend":0,"isfamily":0},{"id":"52181596151","owner":"92361032@N05","secret":"e819ce9500","server":"65535","farm":66,"title":"Blackpoll Warbler\/ Paruline ray\u00e9e ( Diane )","ispublic":1,"isfriend":0,"isfamily":0},{"id":"52173162263","owner":"39445433@N02","secret":"e736678736","server":"65535","farm":66,"title":"Blackpoll Warbler","ispublic":1,"isfriend":0,"isfamily":0},{"id":"52170593675","owner":"37566919@N02","secret":"69a457aafb","server":"65535","farm":66,"title":"Blackpoll Warbler, male","ispublic":1,"isfriend":0,"isfamily":0},{"id":"52159369240","owner":"76617062@N08","secret":"6d88b88515","server":"65535","farm":66,"title":"1.27787 Paruline ray\u00e9e \/ Setophaga striata \/ Blackpoll Warbler","ispublic":1,"isfriend":0,"isfamily":0},{"id":"52153095319","owner":"39177293@N03","secret":"9c5daa7ac2","server":"65535","farm":66,"title":"Blackpoll Warbler","ispublic":1,"isfriend":0,"isfamily":0},{"id":"52152862188","owner":"39177293@N03","secret":"844dc9508c","server":"65535","farm":66,"title":"Blackpoll Warbler","ispublic":1,"isfriend":0,"isfamily":0},{"id":"52127645505","owner":"32599741@N03","secret":"7fe6dd0b52","server":"65535","farm":66,"title":"ready for a bath","ispublic":1,"isfriend":0,"isfamily":0},{"id":"52088824257","owner":"190949917@N03","secret":"b11592d275","server":"65535","farm":66,"title":"Blackpoll Warbler","ispublic":1,"isfriend":0,"isfamily":0},{"id":"52087843413","owner":"17654080@N08","secret":"91f3e2dcf5","server":"65535","farm":66,"title":"Blackpoll Warbler, male (Setophaga striata)","ispublic":1,"isfriend":0,"isfamily":0},{"id":"52088063429","owner":"17654080@N08","secret":"af8903d0b4","server":"65535","farm":66,"title":"Blackpoll Warbler, male (Setophaga striata)","ispublic":1,"isfriend":0,"isfamily":0},{"id":"52088162240","owner":"48014585@N00","secret":"8039f5d538","server":"65535","farm":66,"title":"Blackpoll Warbler","ispublic":1,"isfriend":0,"isfamily":0},{"id":"52087663156","owner":"48014585@N00","secret":"eb53fb670c","server":"65535","farm":66,"title":"Blackpoll Warbler","ispublic":1,"isfriend":0,"isfamily":0},{"id":"52086632082","owner":"48014585@N00","secret":"7ae67d45b1","server":"65535","farm":66,"title":"Blackpoll Warbler","ispublic":1,"isfriend":0,"isfamily":0},{"id":"52087662856","owner":"48014585@N00","secret":"273fce6a3a","server":"65535","farm":66,"title":"Blackpoll Warbler","ispublic":1,"isfriend":0,"isfamily":0},{"id":"52085353325","owner":"32752434@N07","secret":"df12e69d74","server":"65535","farm":66,"title":"Blackpoll Warbler (Setophaga striata)","ispublic":1,"isfriend":0,"isfamily":0},{"id":"52077526060","owner":"120449047@N06","secret":"66737f2893","server":"65535","farm":66,"title":"Blackpoll Warbler (16\/35)","ispublic":1,"isfriend":0,"isfamily":0},{"id":"52070396913","owner":"11020019@N04","secret":"a4f7cb689b","server":"65535","farm":66,"title":"Blackpoll warbler at Veterans Park in Richfield, Minnesota","ispublic":1,"isfriend":0,"isfamily":0},{"id":"52070618434","owner":"11020019@N04","secret":"ab695cbf13","server":"65535","farm":66,"title":"Blackpoll warbler at Veterans Park in Richfield, Minnesota","ispublic":1,"isfriend":0,"isfamily":0},{"id":"52056951504","owner":"32665930@N04","secret":"da43378efc","server":"65535","farm":66,"title":"Blackpoll Warbler","ispublic":1,"isfriend":0,"isfamily":0},{"id":"52056951349","owner":"32665930@N04","secret":"9e599a04f9","server":"65535","farm":66,"title":"Blackpoll Warbler","ispublic":1,"isfriend":0,"isfamily":0},{"id":"52046126971","owner":"13451078@N03","secret":"245f360882","server":"65535","farm":66,"title":"Blackpoll Warbler ( Setophaga striata)","ispublic":1,"isfriend":0,"isfamily":0},{"id":"52025243319","owner":"8783241@N08","secret":"d04b6bcd18","server":"65535","farm":66,"title":"Setophaga striata - Blackpoll Warbler","ispublic":1,"isfriend":0,"isfamily":0},{"id":"52025243284","owner":"8783241@N08","secret":"99353affd9","server":"65535","farm":66,"title":"Setophaga striata - Blackpoll Warbler","ispublic":1,"isfriend":0,"isfamily":0},{"id":"51920419744","owner":"32674493@N04","secret":"3648eea63f","server":"65535","farm":66,"title":"Mariquita-de-perna-clara (Setophaga striata) f\u00eamea","ispublic":1,"isfriend":0,"isfamily":0},{"id":"51911157015","owner":"194341957@N06","secret":"bc382c4328","server":"65535","farm":66,"title":"blackpoll warbler","ispublic":1,"isfriend":0,"isfamily":0},{"id":"51910855214","owner":"194341957@N06","secret":"9a614a37b7","server":"65535","farm":66,"title":"blackpoll warbler","ispublic":1,"isfriend":0,"isfamily":0},{"id":"51909570842","owner":"194341957@N06","secret":"de3dfd6bbf","server":"65535","farm":66,"title":"blackpoll warbler","ispublic":1,"isfriend":0,"isfamily":0},{"id":"51910855184","owner":"194341957@N06","secret":"ef14842056","server":"65535","farm":66,"title":"blackpoll warbler","ispublic":1,"isfriend":0,"isfamily":0},{"id":"51891088632","owner":"8301398@N02","secret":"68d68675f9","server":"65535","farm":66,"title":"Blackpoll Warbler","ispublic":1,"isfriend":0,"isfamily":0},{"id":"51816570804","owner":"165841515@N03","secret":"703fcda1cd","server":"65535","farm":66,"title":"Paruline ray\u00e9e \/ Blackpoll Warbler \/ (Setophaga striata)","ispublic":1,"isfriend":0,"isfamily":0},{"id":"51708258686","owner":"71418112@N00","secret":"124b3db241","server":"65535","farm":66,"title":"The changeling.","ispublic":1,"isfriend":0,"isfamily":0},{"id":"51700934441","owner":"39445433@N02","secret":"9fae0f5dc4","server":"65535","farm":66,"title":"Blackpoll Warbler","ispublic":1,"isfriend":0,"isfamily":0},{"id":"52580329536","owner":"153973412@N04","secret":"951efb541f","server":"65535","farm":66,"title":"Blackpoll Warbler-Setophaga striata, IA","ispublic":1,"isfriend":0,"isfamily":0},{"id":"52532245792","owner":"33610210@N05","secret":"842c34c025","server":"65535","farm":66,"title":"Blackpoll Warbler, Setophaga striata","ispublic":1,"isfriend":0,"isfamily":0},{"id":"52533189045","owner":"33610210@N05","secret":"a87611dfba","server":"65535","farm":66,"title":"Blackpoll Warbler, Setophaga striata","ispublic":1,"isfriend":0,"isfamily":0},{"id":"52532245517","owner":"33610210@N05","secret":"eb7e16b2f3","server":"65535","farm":66,"title":"Blackpoll Warbler, Setophaga striata","ispublic":1,"isfriend":0,"isfamily":0},{"id":"52532996719","owner":"33610210@N05","secret":"45ee0a2139","server":"65535","farm":66,"title":"Blackpoll Warbler, Setophaga striata","ispublic":1,"isfriend":0,"isfamily":0},{"id":"52533188830","owner":"33610210@N05","secret":"28b3b95223","server":"65535","farm":66,"title":"Blackpoll Warbler, Setophaga striata","ispublic":1,"isfriend":0,"isfamily":0},{"id":"52532245322","owner":"33610210@N05","secret":"d8a28130a6","server":"65535","farm":66,"title":"Blackpoll Warbler, Setophaga striata","ispublic":1,"isfriend":0,"isfamily":0},{"id":"52533188725","owner":"33610210@N05","secret":"b69e37c0fd","server":"65535","farm":66,"title":"Blackpoll Warbler, Setophaga striata","ispublic":1,"isfriend":0,"isfamily":0},{"id":"52533188620","owner":"33610210@N05","secret":"ec1ae1f3f9","server":"65535","farm":66,"title":"Blackpoll Warbler, Setophaga striata","ispublic":1,"isfriend":0,"isfamily":0},{"id":"52533188485","owner":"33610210@N05","secret":"01a3c7f18f","server":"65535","farm":66,"title":"Blackpoll Warbler, Setophaga striata","ispublic":1,"isfriend":0,"isfamily":0},{"id":"52519412749","owner":"39445433@N02","secret":"e4ed9ba8bd","server":"65535","farm":66,"title":"Blackpoll Warbler","ispublic":1,"isfriend":0,"isfamily":0},{"id":"52519412344","owner":"39445433@N02","secret":"dece63c4f6","server":"65535","farm":66,"title":"Blackpoll Warbler","ispublic":1,"isfriend":0,"isfamily":0},{"id":"52495801618","owner":"64557331@N04","secret":"61b1aa35cc","server":"65535","farm":66,"title":"Blackpoll Warbler - (Setophaga striata)_09272022","ispublic":1,"isfriend":0,"isfamily":0},{"id":"52495231681","owner":"64557331@N04","secret":"db72f20cd4","server":"65535","farm":66,"title":"Blackpoll Warbler - (Setophaga striata)_09162021","ispublic":1,"isfriend":0,"isfamily":0},{"id":"52489530151","owner":"39445433@N02","secret":"1f3a90e171","server":"65535","farm":66,"title":"Blackpoll Warbler","ispublic":1,"isfriend":0,"isfamily":0},{"id":"52403397766","owner":"44801995@N02","secret":"4409980faa","server":"65535","farm":66,"title":"Blackpoll Warbler Setophaga striata","ispublic":1,"isfriend":0,"isfamily":0},{"id":"52403750293","owner":"59619528@N04","secret":"dc0798546e","server":"65535","farm":66,"title":"Blackpoll Warbler (Setophaga striata)","ispublic":1,"isfriend":0,"isfamily":0},{"id":"52397590044","owner":"59619528@N04","secret":"9aebcfff7a","server":"65535","farm":66,"title":"Blackpoll Warbler (Setophaga striata)","ispublic":1,"isfriend":0,"isfamily":0},{"id":"52397796618","owner":"59619528@N04","secret":"c87b9473d0","server":"65535","farm":66,"title":"Blackpoll Warbler (Setophaga striata)","ispublic":1,"isfriend":0,"isfamily":0},{"id":"52397672453","owner":"59619528@N04","secret":"b43cd7851f","server":"65535","farm":66,"title":"Blackpoll Warbler (Setophaga striata","ispublic":1,"isfriend":0,"isfamily":0},{"id":"52394090275","owner":"128537732@N06","secret":"560768d1a2","server":"65535","farm":66,"title":"Blackpoll Warbler (Setophaga striata)","ispublic":1,"isfriend":0,"isfamily":0},{"id":"52393061292","owner":"139237357@N06","secret":"73eccf38e6","server":"65535","farm":66,"title":"Blackpoll Warbler","ispublic":1,"isfriend":0,"isfamily":0},{"id":"52391949128","owner":"59619528@N04","secret":"d32996dd24","server":"0","farm":0,"title":"Blackpoll Warbler (Setophaga striata)","ispublic":1,"isfriend":0,"isfamily":0},{"id":"52391587499","owner":"119468907@N03","secret":"784aed4ff5","server":"0","farm":0,"title":"Paruline raye\u0301e_3057","ispublic":1,"isfriend":0,"isfamily":0},{"id":"52208846916","owner":"181824639@N02","secret":"01ce8ae20c","server":"65535","farm":66,"title":"Paruline ray\u00e9e ( Setophaga striata)","ispublic":1,"isfriend":0,"isfamily":0},{"id":"52191863379","owner":"48014585@N00","secret":"3383d99a4c","server":"65535","farm":66,"title":"Blackpoll Warbler","ispublic":1,"isfriend":0,"isfamily":0},{"id":"52154848014","owner":"44801995@N02","secret":"1a5a0ac4a1","server":"65535","farm":66,"title":"Blackpoll Warbler Setophaga striata","ispublic":1,"isfriend":0,"isfamily":0},{"id":"52125733643","owner":"44801995@N02","secret":"6bd6dcdddd","server":"65535","farm":66,"title":"Blackpoll Warbler Setophaga striata","ispublic":1,"isfriend":0,"isfamily":0},{"id":"52109438267","owner":"165841515@N03","secret":"83a86aa3a3","server":"65535","farm":66,"title":"Paruline ray\u00e9e \/ Blackpoll Warbler \/ (Setophaga striata)","ispublic":1,"isfriend":0,"isfamily":0},{"id":"52087691348","owner":"48014585@N00","secret":"137e96732a","server":"65535","farm":66,"title":"Blackpoll Warbler","ispublic":1,"isfriend":0,"isfamily":0},{"id":"52087691173","owner":"48014585@N00","secret":"d733e471ef","server":"65535","farm":66,"title":"Blackpoll Warbler","ispublic":1,"isfriend":0,"isfamily":0},{"id":"52075134802","owner":"135315828@N06","secret":"5752559337","server":"65535","farm":66,"title":"blackpoll warbler","ispublic":1,"isfriend":0,"isfamily":0},{"id":"52036111027","owner":"195577329@N08","secret":"f931b9808c","server":"65535","farm":66,"title":"Blackpoll Warbler (Setophaga striata)","ispublic":1,"isfriend":0,"isfamily":0},{"id":"52023955297","owner":"8783241@N08","secret":"45e11e6d99","server":"65535","farm":66,"title":"Setophaga striata - Blackpoll Warbler","ispublic":1,"isfriend":0,"isfamily":0},{"id":"51945685263","owner":"39617069@N08","secret":"ff2bed15d1","server":"65535","farm":66,"title":"Blackpoll Warbler","ispublic":1,"isfriend":0,"isfamily":0},{"id":"51910881719","owner":"194341957@N06","secret":"d67a3187cf","server":"65535","farm":66,"title":"blackpoll warbler","ispublic":1,"isfriend":0,"isfamily":0},{"id":"51676296750","owner":"39445433@N02","secret":"00703df16b","server":"65535","farm":66,"title":"Blackpoll Warbler","ispublic":1,"isfriend":0,"isfamily":0},{"id":"51676296370","owner":"39445433@N02","secret":"429e60c066","server":"65535","farm":66,"title":"Blackpoll Warbler","ispublic":1,"isfriend":0,"isfamily":0},{"id":"51675419366","owner":"39445433@N02","secret":"a6186e56a8","server":"65535","farm":66,"title":"Blackpoll Warbler","ispublic":1,"isfriend":0,"isfamily":0},{"id":"51673166841","owner":"39445433@N02","secret":"1567270d23","server":"65535","farm":66,"title":"Blackpoll Warbler","ispublic":1,"isfriend":0,"isfamily":0},{"id":"51667224692","owner":"42622112@N08","secret":"a5739b197d","server":"65535","farm":66,"title":"Ciguita Cabeza Negra \/ Setophaga Striata \/ Blackpoll Warbler","ispublic":1,"isfriend":0,"isfamily":0}]},"stat":"ok"}