{"photos":{"page":1,"pages":17,"perpage":100,"total":1669,"photo":[{"id":"52667678119","owner":"54249623@N08","secret":"6274e31c3f","server":"65535","farm":66,"title":"Reinita Azulada, Black-throated Blue Warbler (Setophaga caerulescens)","ispublic":1,"isfriend":0,"isfamily":0},{"id":"52654533653","owner":"181824639@N02","secret":"3ca67c9f10","server":"65535","farm":66,"title":"Paruline bleue ( Setophaga caerulescens )","ispublic":1,"isfriend":0,"isfamily":0},{"id":"52643547429","owner":"31694846@N02","secret":"475bd0fdf5","server":"65535","farm":66,"title":"Cig\u00fcita Azul, Setophaga caerulescens, Black Throated Blue Warbler","ispublic":1,"isfriend":0,"isfamily":0},{"id":"52643288266","owner":"31694846@N02","secret":"881db20c9b","server":"65535","farm":66,"title":"Cig\u00fcita Azul, Setophaga caerulescens, Black Throated Blue Warbler","ispublic":1,"isfriend":0,"isfamily":0},{"id":"52643547209","owner":"31694846@N02","secret":"bb168bc271","server":"65535","farm":66,"title":"Cig\u00fcita Azul, Setophaga caerulescens, Black Throated Blue Warbler","ispublic":1,"isfriend":0,"isfamily":0},{"id":"52643288011","owner":"31694846@N02","secret":"2f1323a930","server":"65535","farm":66,"title":"Cig\u00fcita Azul, Setophaga caerulescens, Black Throated Blue Warbler","ispublic":1,"isfriend":0,"isfamily":0},{"id":"52643728160","owner":"31694846@N02","secret":"45bd4595c1","server":"65535","farm":66,"title":"Cig\u00fcita Azul, Setophaga caerulescens, Black Throated Blue Warbler","ispublic":1,"isfriend":0,"isfamily":0},{"id":"52643761398","owner":"31694846@N02","secret":"96ab871330","server":"65535","farm":66,"title":"Cig\u00fcita Azul, Setophaga caerulescens, Black Throated Blue Warbler","ispublic":1,"isfriend":0,"isfamily":0},{"id":"52642784137","owner":"31694846@N02","secret":"0187a7ceb6","server":"65535","farm":66,"title":"Cig\u00fcita Azul, Setophaga caerulescens, Black Throated Blue Warbler","ispublic":1,"isfriend":0,"isfamily":0},{"id":"52637060872","owner":"31694846@N02","secret":"02228c0247","server":"65535","farm":66,"title":"Cig\u00fcita Azul, Setophaga caerulescens, Black Throated Blue Warbler","ispublic":1,"isfriend":0,"isfamily":0},{"id":"52606474285","owner":"103722035@N06","secret":"ecb559f6aa","server":"0","farm":0,"title":"Black-throated Blue Warbler (Setophaga caerulescens), Arroyo Grande, CA","ispublic":1,"isfriend":0,"isfamily":0},{"id":"52566321145","owner":"196786375@N03","secret":"9765626221","server":"65535","farm":66,"title":"Black-throated Blue Warbler (m)","ispublic":1,"isfriend":0,"isfamily":0},{"id":"52560410890","owner":"71418112@N00","secret":"9b501536cd","server":"65535","farm":66,"title":"Black-throated blue warbler","ispublic":1,"isfriend":0,"isfamily":0},{"id":"52540932351","owner":"79153825@N08","secret":"5bbe12c0b8","server":"65535","farm":66,"title":"Una migratoria a Rep\u00fablica Dominicana que esta celebrando la navidad:Ciguita azul hembra.(Setophaga Caerulescens.) female black-throated blue warbler","ispublic":1,"isfriend":0,"isfamily":0},{"id":"52540932231","owner":"79153825@N08","secret":"7bcfc07620","server":"65535","farm":66,"title":"Una migratoria a Rep\u00fablica Dominicana que esta celebrando la navidad:Ciguita azul hembra.(Setophaga Caerulescens.) female black-throated blue warbler","ispublic":1,"isfriend":0,"isfamily":0},{"id":"52541229974","owner":"79153825@N08","secret":"b261a90964","server":"65535","farm":66,"title":"Una migratoria a Rep\u00fablica Dominicana que esta celebrando la navidad:Ciguita azul hembra.(Setophaga Caerulescens.) female black-throated blue warbler","ispublic":1,"isfriend":0,"isfamily":0},{"id":"52541481438","owner":"79153825@N08","secret":"c804ca1172","server":"65535","farm":66,"title":"Una migratoria a Rep\u00fablica Dominicana que esta celebrando la navidad:Ciguita azul hembra.(Setophaga Caerulescens.) female black-throated blue warbler","ispublic":1,"isfriend":0,"isfamily":0},{"id":"52541229844","owner":"79153825@N08","secret":"a945d0eabe","server":"65535","farm":66,"title":"Una migratoria a Rep\u00fablica Dominicana que esta celebrando la navidad:Ciguita azul hembra.(Setophaga Caerulescens.) female black-throated blue warbler","ispublic":1,"isfriend":0,"isfamily":0},{"id":"52523424568","owner":"56983940@N06","secret":"0f108714cd","server":"65535","farm":66,"title":"Black-throated Blue Warbler","ispublic":1,"isfriend":0,"isfamily":0},{"id":"52516397353","owner":"42622112@N08","secret":"ddc69fb576","server":"65535","farm":66,"title":"Cigua Azul Garganta Negra (Hembra) \/ Setophaga caerulescens \/ Black-throated Blue Warbler","ispublic":1,"isfriend":0,"isfamily":0},{"id":"52496545861","owner":"34368269@N04","secret":"bb07d0b5f1","server":"65535","farm":66,"title":"Black-throated Blue Warbler","ispublic":1,"isfriend":0,"isfamily":0},{"id":"52470004979","owner":"34368269@N04","secret":"8cf2ed1544","server":"65535","farm":66,"title":"Black-throated Blue Warbler","ispublic":1,"isfriend":0,"isfamily":0},{"id":"52465961450","owner":"34368269@N04","secret":"f03e097e85","server":"65535","farm":66,"title":"Black-throated Blue Warbler","ispublic":1,"isfriend":0,"isfamily":0},{"id":"52458137769","owner":"34368269@N04","secret":"f85716f892","server":"65535","farm":66,"title":"Black-throated Blue Warbler","ispublic":1,"isfriend":0,"isfamily":0},{"id":"52453594913","owner":"34368269@N04","secret":"c39d780a88","server":"65535","farm":66,"title":"Black-throated Blue Warbler","ispublic":1,"isfriend":0,"isfamily":0},{"id":"52451576706","owner":"34368269@N04","secret":"ecd861f786","server":"65535","farm":66,"title":"Black-throated Blue Warbler","ispublic":1,"isfriend":0,"isfamily":0},{"id":"52449225781","owner":"128537732@N06","secret":"1056e08985","server":"65535","farm":66,"title":"female Black-throated Blue Warbler (Setophaga caerulescens)","ispublic":1,"isfriend":0,"isfamily":0},{"id":"52448701142","owner":"128537732@N06","secret":"64d20b8743","server":"65535","farm":66,"title":"female Black-throated Blue Warbler (Setophaga caerulescens)","ispublic":1,"isfriend":0,"isfamily":0},{"id":"52448700832","owner":"128537732@N06","secret":"ccfb10ef0e","server":"65535","farm":66,"title":"female Black-throated Blue Warbler (Setophaga caerulescens)","ispublic":1,"isfriend":0,"isfamily":0},{"id":"52438244331","owner":"98675522@N06","secret":"7d925d8b12","server":"65535","farm":66,"title":"Surprise!","ispublic":1,"isfriend":0,"isfamily":0},{"id":"52436389178","owner":"48311154@N02","secret":"5a88fcc023","server":"65535","farm":66,"title":"Look who was in the apple tree today!","ispublic":1,"isfriend":0,"isfamily":0},{"id":"52424004296","owner":"91620959@N08","secret":"ace1c0a934","server":"65535","farm":66,"title":"Black-throated blue warbler (Setophaga caerulescens)","ispublic":1,"isfriend":0,"isfamily":0},{"id":"52419650064","owner":"103722035@N06","secret":"bf489cd735","server":"0","farm":0,"title":"Black-throated Blue Warbler (Setophaga caerulescens), Los Osos, CA","ispublic":1,"isfriend":0,"isfamily":0},{"id":"52397226820","owner":"49114357@N08","secret":"d2d9ba7614","server":"65535","farm":66,"title":"Black-throated Blue Warbler","ispublic":1,"isfriend":0,"isfamily":0},{"id":"52400613238","owner":"38514062@N03","secret":"63ed322ee7","server":"65535","farm":66,"title":"Black-throated Blue Warbler (Setophaga caerulescens) on Firebush","ispublic":1,"isfriend":0,"isfamily":0},{"id":"52400405264","owner":"38514062@N03","secret":"c8c95ec930","server":"65535","farm":66,"title":"Black-throated Blue Warbler (Setophaga caerulescens) on Firebush","ispublic":1,"isfriend":0,"isfamily":0},{"id":"52391438456","owner":"62119764@N08","secret":"dccc982914","server":"65535","farm":66,"title":"Female Black-throated Blue Warbler | Setophaga caerulescens | Paruline bleue","ispublic":1,"isfriend":0,"isfamily":0},{"id":"52384176667","owner":"120449047@N06","secret":"ffb0b7428e","server":"65535","farm":66,"title":"Black-throated Blue Warbler (1 of 2)","ispublic":1,"isfriend":0,"isfamily":0},{"id":"52380757102","owner":"128537732@N06","secret":"e7262a65ce","server":"65535","farm":66,"title":"female Black-throated Blue Warbler (Setophaga caerulescens)","ispublic":1,"isfriend":0,"isfamily":0},{"id":"52376678162","owner":"190122705@N03","secret":"2172dbca18","server":"65535","farm":66,"title":"Black-throated blue warbler","ispublic":1,"isfriend":0,"isfamily":0},{"id":"52370195621","owner":"84175980@N00","secret":"674d78b7e7","server":"65535","farm":66,"title":"20220912 Setophaga caerulescens (Black-throated Blue Warbler) (1)","ispublic":1,"isfriend":0,"isfamily":0},{"id":"52370427408","owner":"84175980@N00","secret":"e841fffcb9","server":"65535","farm":66,"title":"20220912 Setophaga caerulescens (Black-throated Blue Warbler) (3)","ispublic":1,"isfriend":0,"isfamily":0},{"id":"52370611865","owner":"84175980@N00","secret":"7c0ef74bfc","server":"65535","farm":66,"title":"20220912 Setophaga caerulescens (Black-throated Blue Warbler) (4)","ispublic":1,"isfriend":0,"isfamily":0},{"id":"52369251122","owner":"84175980@N00","secret":"3b01d976f4","server":"65535","farm":66,"title":"20220912 Setophaga caerulescens (Black-throated Blue Warbler) (6)","ispublic":1,"isfriend":0,"isfamily":0},{"id":"52364080747","owner":"183132100@N02","secret":"acd2146c6e","server":"65535","farm":66,"title":"Black-throated Blue Warbler 9-17-2022","ispublic":1,"isfriend":0,"isfamily":0},{"id":"52340278725","owner":"28631427@N00","secret":"75b9c9f7f9","server":"65535","farm":66,"title":"Black-throated Blue Warbler","ispublic":1,"isfriend":0,"isfamily":0},{"id":"52324519138","owner":"181824639@N02","secret":"828ae96123","server":"65535","farm":66,"title":"Paruline bleu ( Setophaga caerulescens )","ispublic":1,"isfriend":0,"isfamily":0},{"id":"52314805006","owner":"71989271@N06","secret":"263d9ebaca","server":"65535","farm":66,"title":"Black-throated Blue Warbler (m)(Setophaga caerulescens)","ispublic":1,"isfriend":0,"isfamily":0},{"id":"52314805021","owner":"71989271@N06","secret":"1ba14a3279","server":"65535","farm":66,"title":"Black-throated Blue Warbler (m)(Setophaga caerulescens)","ispublic":1,"isfriend":0,"isfamily":0},{"id":"52049910128","owner":"49114357@N08","secret":"5b9b9a7220","server":"65535","farm":66,"title":"Black-throated Blue Warbler","ispublic":1,"isfriend":0,"isfamily":0},{"id":"52206085630","owner":"191038887@N04","secret":"822319d6ce","server":"65535","farm":66,"title":"Paruline bleue - Black-throated blue warbler - Setophaga caerulescens","ispublic":1,"isfriend":0,"isfamily":0},{"id":"52193772783","owner":"67164820@N06","secret":"9fd0630bb3","server":"65535","farm":66,"title":"black throated blue","ispublic":1,"isfriend":0,"isfamily":0},{"id":"52176118152","owner":"66947051@N07","secret":"957397154a","server":"65535","farm":66,"title":"Black-throated blue warbler \/ Paruline bleue (Setophaga caerulescens)","ispublic":1,"isfriend":0,"isfamily":0},{"id":"52170770882","owner":"76617062@N08","secret":"0e870604f7","server":"65535","farm":66,"title":"1.27789 Paruline bleue (m\u00e2le) \/ Setophaga caerulescens caerulescens \/ Black-throated Blue Warbler","ispublic":1,"isfriend":0,"isfamily":0},{"id":"52154419591","owner":"195506649@N05","secret":"97e7ebf82d","server":"65535","farm":66,"title":"Setophaga caerulescens","ispublic":1,"isfriend":0,"isfamily":0},{"id":"52140913100","owner":"66947051@N07","secret":"ede9d80aa4","server":"65535","farm":66,"title":"Black-throated blue warbler \/ Paruline bleue (Setophaga caerulescens)","ispublic":1,"isfriend":0,"isfamily":0},{"id":"52124015500","owner":"165841515@N03","secret":"9eb612b65b","server":"65535","farm":66,"title":"Paruline bleue \/ Black-throated Blue Warbler \/ (Setophaga caerulescens)","ispublic":1,"isfriend":0,"isfamily":0},{"id":"52120749187","owner":"134081613@N07","secret":"092e32902e","server":"65535","farm":66,"title":"Black-throated Blue Warbler","ispublic":1,"isfriend":0,"isfamily":0},{"id":"52120050985","owner":"42264328@N00","secret":"716d17fde6","server":"65535","farm":66,"title":"More Magee birds","ispublic":1,"isfriend":0,"isfamily":0},{"id":"52102118303","owner":"73654511@N05","secret":"ae5e6aba1d","server":"65535","farm":66,"title":"L0A5743-Black-throated Blue Warbler","ispublic":1,"isfriend":0,"isfamily":0},{"id":"52098044155","owner":"136180232@N08","secret":"2bd8e025b2","server":"65535","farm":66,"title":"Black-throated Blue Warbler (Setophaga caerulescens) JTD_9299","ispublic":1,"isfriend":0,"isfamily":0},{"id":"52093263536","owner":"37566919@N02","secret":"207f9f41e4","server":"65535","farm":66,"title":"Black-throated Blue Warbler, male","ispublic":1,"isfriend":0,"isfamily":0},{"id":"52092160309","owner":"145466593@N08","secret":"3ef4e82a08","server":"65535","farm":66,"title":"Black-throated Blue Warbler","ispublic":1,"isfriend":0,"isfamily":0},{"id":"52085565034","owner":"21719302@N07","secret":"43777a129f","server":"65535","farm":66,"title":"La bleue","ispublic":1,"isfriend":0,"isfamily":0},{"id":"52083570501","owner":"112608353@N02","secret":"4d613b5e5e","server":"65535","farm":66,"title":"Black-throated Blue Warbler","ispublic":1,"isfriend":0,"isfamily":0},{"id":"52083502423","owner":"69947563@N07","secret":"a162595fcf","server":"65535","farm":66,"title":"Black-throated Blue Warbler - Point Pelee National Park, Ontario, Canada","ispublic":1,"isfriend":0,"isfamily":0},{"id":"52076411104","owner":"135315828@N06","secret":"c4c9220c6b","server":"65535","farm":66,"title":"black-throated blue warbler","ispublic":1,"isfriend":0,"isfamily":0},{"id":"52073083118","owner":"22475926@N08","secret":"f355c2daaa","server":"65535","farm":66,"title":"Black-throated blue warbler (Setophaga caerulescens)","ispublic":1,"isfriend":0,"isfamily":0},{"id":"52065541255","owner":"22475926@N08","secret":"dbf322e315","server":"65535","farm":66,"title":"Black-throated blue warbler (Setophaga caerulescens)","ispublic":1,"isfriend":0,"isfamily":0},{"id":"52640457581","owner":"47533293@N04","secret":"376c9e55dd","server":"65535","farm":66,"title":"Black-throated blue warbler, Setophaga caerulescens","ispublic":1,"isfriend":0,"isfamily":0},{"id":"52580429281","owner":"153973412@N04","secret":"40a23644fd","server":"65535","farm":66,"title":"Black-throated Blue Warbler-Setophaga caerulescens, Everglades, FL","ispublic":1,"isfriend":0,"isfamily":0},{"id":"52519688538","owner":"39445433@N02","secret":"edf7cd0dff","server":"65535","farm":66,"title":"Black-Throated Blue Warbler","ispublic":1,"isfriend":0,"isfamily":0},{"id":"52519688208","owner":"39445433@N02","secret":"3250f20320","server":"65535","farm":66,"title":"Black-Throated Blue Warbler","ispublic":1,"isfriend":0,"isfamily":0},{"id":"52498163561","owner":"42622112@N08","secret":"c3898e5afc","server":"65535","farm":66,"title":"Ciguita Azul de Garganta Negra \/ Setophaga caerulescens \/ Black-throated Blue Warbler","ispublic":1,"isfriend":0,"isfamily":0},{"id":"52493962589","owner":"39445433@N02","secret":"44d38b2a25","server":"65535","farm":66,"title":"Black-Throated Blue Warbler","ispublic":1,"isfriend":0,"isfamily":0},{"id":"52494147715","owner":"39445433@N02","secret":"556fa9c4cd","server":"65535","farm":66,"title":"Black-Throated Blue Warbler","ispublic":1,"isfriend":0,"isfamily":0},{"id":"52493585584","owner":"39445433@N02","secret":"ea3fe37dfa","server":"65535","farm":66,"title":"Black-throated blue warbler","ispublic":1,"isfriend":0,"isfamily":0},{"id":"52492821887","owner":"39445433@N02","secret":"413cc0a79f","server":"65535","farm":66,"title":"Black-throated blue warbler","ispublic":1,"isfriend":0,"isfamily":0},{"id":"52433636421","owner":"132508209@N08","secret":"7075b26e7c","server":"65535","farm":66,"title":"Black-throated Blue Warbler (Setophaga caerulescens)","ispublic":1,"isfriend":0,"isfamily":0},{"id":"52433909019","owner":"132508209@N08","secret":"9abfc837e9","server":"65535","farm":66,"title":"Black-throated Blue Warbler (Setophaga caerulescens)","ispublic":1,"isfriend":0,"isfamily":0},{"id":"52409299771","owner":"59619528@N04","secret":"744cda0ba4","server":"65535","farm":66,"title":"Black-throated Blue Warbler ( Setophaga caerulescens)","ispublic":1,"isfriend":0,"isfamily":0},{"id":"52409585594","owner":"59619528@N04","secret":"1a14a2cbb2","server":"65535","farm":66,"title":"Black-throated Blue Warbler ( Setophaga caerulescens)","ispublic":1,"isfriend":0,"isfamily":0},{"id":"52408797547","owner":"59619528@N04","secret":"55e75084dc","server":"65535","farm":66,"title":"Black-throated Blue Warbler ( Setophaga caerulescens)","ispublic":1,"isfriend":0,"isfamily":0},{"id":"52409298221","owner":"59619528@N04","secret":"1434ffa0fa","server":"65535","farm":66,"title":"Black-throated Blue Warbler ( Setophaga caerulescens)","ispublic":1,"isfriend":0,"isfamily":0},{"id":"52409584469","owner":"59619528@N04","secret":"cc8e57304d","server":"65535","farm":66,"title":"Black-throated Blue Warbler ( Setophaga caerulescens)","ispublic":1,"isfriend":0,"isfamily":0},{"id":"52409742805","owner":"59619528@N04","secret":"8ec091018e","server":"65535","farm":66,"title":"Black-throated Blue Warbler ( Setophaga caerulescens)","ispublic":1,"isfriend":0,"isfamily":0},{"id":"52409583889","owner":"59619528@N04","secret":"b18729b12a","server":"65535","farm":66,"title":"Black-throated Blue Warbler ( Setophaga caerulescens) Setophaga","ispublic":1,"isfriend":0,"isfamily":0},{"id":"52371526093","owner":"135315828@N06","secret":"ec3b8d413e","server":"65535","farm":66,"title":"black-throated blue warbler","ispublic":1,"isfriend":0,"isfamily":0},{"id":"52333288561","owner":"190122705@N03","secret":"698f233989","server":"65535","farm":66,"title":"Black-throated blue warbler","ispublic":1,"isfriend":0,"isfamily":0},{"id":"52207897184","owner":"184155060@N04","secret":"e9ed67bcfc","server":"65535","farm":66,"title":"32845 Paruline bleue (m\u00e2le) \/ Setophaga caerulescens caerulescens \/ Black-throated Blue Warbler","ispublic":1,"isfriend":0,"isfamily":0},{"id":"52205850419","owner":"191038887@N04","secret":"c2b0fae11c","server":"65535","farm":66,"title":"Paruline bleue - Black-throated blue warbler - Setophaga caerulescens","ispublic":1,"isfriend":0,"isfamily":0},{"id":"52205604648","owner":"191038887@N04","secret":"4319390ca3","server":"65535","farm":66,"title":"Paruline bleue - Black-throated blue warbler - Setophaga caerulescens","ispublic":1,"isfriend":0,"isfamily":0},{"id":"52187366044","owner":"7261670@N03","secret":"546abd8e52","server":"65535","farm":66,"title":"Black-throated Blue Warbler","ispublic":1,"isfriend":0,"isfamily":0},{"id":"52168095595","owner":"131708321@N02","secret":"2ac12be257","server":"65535","farm":66,"title":"Black-throated Blue Warbler (Setophaga caerulescens), Sutton, Quebec, Canada","ispublic":1,"isfriend":0,"isfamily":0},{"id":"52151845067","owner":"39177293@N03","secret":"71a1c0d85e","server":"65535","farm":66,"title":"Black-throated Blue Warbler","ispublic":1,"isfriend":0,"isfamily":0},{"id":"52134280988","owner":"62445008@N00","secret":"57c270285a","server":"65535","farm":66,"title":"Black-throated Blue Warbler (Setophaga caerulescens)","ispublic":1,"isfriend":0,"isfamily":0},{"id":"52134280933","owner":"62445008@N00","secret":"29c3ef1268","server":"65535","farm":66,"title":"Black-throated Blue Warbler (Setophaga caerulescens)","ispublic":1,"isfriend":0,"isfamily":0},{"id":"52098606830","owner":"165841515@N03","secret":"bd9238a1f5","server":"65535","farm":66,"title":"Paruline bleue \/ Black-throated Blue Warbler \/ (Setophaga caerulescens)","ispublic":1,"isfriend":0,"isfamily":0},{"id":"52098606805","owner":"165841515@N03","secret":"69248ec441","server":"65535","farm":66,"title":"Paruline bleue \/ Black-throated Blue Warbler \/ (Setophaga caerulescens)","ispublic":1,"isfriend":0,"isfamily":0},{"id":"52076411144","owner":"135315828@N06","secret":"ded654e265","server":"65535","farm":66,"title":"black-throated blue warbler","ispublic":1,"isfriend":0,"isfamily":0}]},"stat":"ok"}