{"photos":{"page":1,"pages":2,"perpage":100,"total":141,"photo":[{"id":"52791598989","owner":"68466173@N02","secret":"02f92d76a7","server":"65535","farm":66,"title":"Brandt's Mountain Finch (Leucosticte brandti)","ispublic":1,"isfriend":0,"isfamily":0},{"id":"52768658175","owner":"140734051@N08","secret":"a8c9db4a15","server":"65535","farm":66,"title":"\u0416\u0435\u043c\u0447\u0443\u0436\u043d\u044b\u0439 \u0432\u044c\u044e\u0440\u043e\u043a, Leucosticte brandti margaritacea, Brandt's Mountain Finch","ispublic":1,"isfriend":0,"isfamily":0},{"id":"52768498454","owner":"140734051@N08","secret":"7ea67cd746","server":"65535","farm":66,"title":"\u0416\u0435\u043c\u0447\u0443\u0436\u043d\u044b\u0439 \u0432\u044c\u044e\u0440\u043e\u043a, Leucosticte brandti margaritacea, Brandt's Mountain Finch","ispublic":1,"isfriend":0,"isfamily":0},{"id":"52768730273","owner":"140734051@N08","secret":"033f2b523c","server":"65535","farm":66,"title":"\u0416\u0435\u043c\u0447\u0443\u0436\u043d\u044b\u0439 \u0432\u044c\u044e\u0440\u043e\u043a, Leucosticte brandti margaritacea, Brandt's Mountain Finch","ispublic":1,"isfriend":0,"isfamily":0},{"id":"52768657885","owner":"140734051@N08","secret":"34cc9271bb","server":"65535","farm":66,"title":"\u0416\u0435\u043c\u0447\u0443\u0436\u043d\u044b\u0439 \u0432\u044c\u044e\u0440\u043e\u043a, Leucosticte brandti margaritacea, Brandt's Mountain Finch","ispublic":1,"isfriend":0,"isfamily":0},{"id":"52768657865","owner":"140734051@N08","secret":"7fa03d350f","server":"65535","farm":66,"title":"\u0416\u0435\u043c\u0447\u0443\u0436\u043d\u044b\u0439 \u0432\u044c\u044e\u0440\u043e\u043a, Leucosticte brandti margaritacea, Brandt's Mountain Finch","ispublic":1,"isfriend":0,"isfamily":0},{"id":"52768244226","owner":"140734051@N08","secret":"64743a6158","server":"65535","farm":66,"title":"\u0416\u0435\u043c\u0447\u0443\u0436\u043d\u044b\u0439 \u0432\u044c\u044e\u0440\u043e\u043a, Leucosticte brandti margaritacea, Brandt's Mountain Finch","ispublic":1,"isfriend":0,"isfamily":0},{"id":"52768730028","owner":"140734051@N08","secret":"23daf00e7e","server":"65535","farm":66,"title":"\u0416\u0435\u043c\u0447\u0443\u0436\u043d\u044b\u0439 \u0432\u044c\u044e\u0440\u043e\u043a, Leucosticte brandti margaritacea, Brandt's Mountain Finch","ispublic":1,"isfriend":0,"isfamily":0},{"id":"52767704607","owner":"140734051@N08","secret":"31bc6bba55","server":"65535","farm":66,"title":"\u0416\u0435\u043c\u0447\u0443\u0436\u043d\u044b\u0439 \u0432\u044c\u044e\u0440\u043e\u043a, Leucosticte brandti margaritacea, Brandt's Mountain Finch","ispublic":1,"isfriend":0,"isfamily":0},{"id":"52768729703","owner":"140734051@N08","secret":"cced908e8b","server":"65535","farm":66,"title":"\u0416\u0435\u043c\u0447\u0443\u0436\u043d\u044b\u0439 \u0432\u044c\u044e\u0440\u043e\u043a, Leucosticte brandti margaritacea, Brandt's Mountain Finch","ispublic":1,"isfriend":0,"isfamily":0},{"id":"52768657350","owner":"140734051@N08","secret":"1b79f799c8","server":"65535","farm":66,"title":"\u0416\u0435\u043c\u0447\u0443\u0436\u043d\u044b\u0439 \u0432\u044c\u044e\u0440\u043e\u043a, Leucosticte brandti margaritacea, Brandt's Mountain Finch","ispublic":1,"isfriend":0,"isfamily":0},{"id":"52768729583","owner":"140734051@N08","secret":"1eaf4e1059","server":"65535","farm":66,"title":"\u0416\u0435\u043c\u0447\u0443\u0436\u043d\u044b\u0439 \u0432\u044c\u044e\u0440\u043e\u043a, Leucosticte brandti margaritacea, Brandt's Mountain Finch","ispublic":1,"isfriend":0,"isfamily":0},{"id":"52768497504","owner":"140734051@N08","secret":"f957e4eaa3","server":"65535","farm":66,"title":"\u0416\u0435\u043c\u0447\u0443\u0436\u043d\u044b\u0439 \u0432\u044c\u044e\u0440\u043e\u043a, Leucosticte brandti margaritacea, Brandt's Mountain Finch","ispublic":1,"isfriend":0,"isfamily":0},{"id":"52766620607","owner":"68466173@N02","secret":"0f2bce339f","server":"65535","farm":66,"title":"Brandt's Mountain Finch (Leucosticte brandti)","ispublic":1,"isfriend":0,"isfamily":0},{"id":"52766614302","owner":"68466173@N02","secret":"c4fb7ae894","server":"65535","farm":66,"title":"Brandt's Mountain Finch (Leucosticte brandti)","ispublic":1,"isfriend":0,"isfamily":0},{"id":"52766812490","owner":"140734051@N08","secret":"72d63a347f","server":"65535","farm":66,"title":"\u0416\u0435\u043c\u0447\u0443\u0436\u043d\u044b\u0439 \u0432\u044c\u044e\u0440\u043e\u043a, Leucosticte brandti margaritacea, Brandt's Mountain Finch","ispublic":1,"isfriend":0,"isfamily":0},{"id":"52765860987","owner":"140734051@N08","secret":"dc0f76d821","server":"65535","farm":66,"title":"\u0416\u0435\u043c\u0447\u0443\u0436\u043d\u044b\u0439 \u0432\u044c\u044e\u0440\u043e\u043a, Leucosticte brandti margaritacea, Brandt's Mountain Finch","ispublic":1,"isfriend":0,"isfamily":0},{"id":"52766887528","owner":"140734051@N08","secret":"0038dc1476","server":"65535","farm":66,"title":"\u0416\u0435\u043c\u0447\u0443\u0436\u043d\u044b\u0439 \u0432\u044c\u044e\u0440\u043e\u043a, Leucosticte brandti margaritacea, Brandt's Mountain Finch","ispublic":1,"isfriend":0,"isfamily":0},{"id":"52765860842","owner":"140734051@N08","secret":"1dbd1f363a","server":"65535","farm":66,"title":"\u0416\u0435\u043c\u0447\u0443\u0436\u043d\u044b\u0439 \u0432\u044c\u044e\u0440\u043e\u043a, Leucosticte brandti margaritacea, Brandt's Mountain Finch","ispublic":1,"isfriend":0,"isfamily":0},{"id":"52766651299","owner":"140734051@N08","secret":"2cbcacbc70","server":"65535","farm":66,"title":"\u0416\u0435\u043c\u0447\u0443\u0436\u043d\u044b\u0439 \u0432\u044c\u044e\u0440\u043e\u043a, Leucosticte brandti margaritacea, Brandt's Mountain Finch","ispublic":1,"isfriend":0,"isfamily":0},{"id":"52766651284","owner":"140734051@N08","secret":"d673ab4fe0","server":"65535","farm":66,"title":"\u0416\u0435\u043c\u0447\u0443\u0436\u043d\u044b\u0439 \u0432\u044c\u044e\u0440\u043e\u043a, Leucosticte brandti margaritacea, Brandt's Mountain Finch","ispublic":1,"isfriend":0,"isfamily":0},{"id":"52766887363","owner":"140734051@N08","secret":"0912ba48c0","server":"65535","farm":66,"title":"\u0416\u0435\u043c\u0447\u0443\u0436\u043d\u044b\u0439 \u0432\u044c\u044e\u0440\u043e\u043a, Leucosticte brandti margaritacea, Brandt's Mountain Finch","ispublic":1,"isfriend":0,"isfamily":0},{"id":"52766887298","owner":"140734051@N08","secret":"69c3dc6968","server":"65535","farm":66,"title":"\u0416\u0435\u043c\u0447\u0443\u0436\u043d\u044b\u0439 \u0432\u044c\u044e\u0440\u043e\u043a, Leucosticte brandti margaritacea, Brandt's Mountain Finch","ispublic":1,"isfriend":0,"isfamily":0},{"id":"52766650884","owner":"140734051@N08","secret":"54f73afa7b","server":"65535","farm":66,"title":"\u0416\u0435\u043c\u0447\u0443\u0436\u043d\u044b\u0439 \u0432\u044c\u044e\u0440\u043e\u043a, Leucosticte brandti margaritacea, Brandt's Mountain Finch","ispublic":1,"isfriend":0,"isfamily":0},{"id":"52766398261","owner":"140734051@N08","secret":"a7821c7cb8","server":"65535","farm":66,"title":"\u0416\u0435\u043c\u0447\u0443\u0436\u043d\u044b\u0439 \u0432\u044c\u044e\u0440\u043e\u043a, Leucosticte brandti margaritacea, Brandt's Mountain Finch","ispublic":1,"isfriend":0,"isfamily":0},{"id":"52766398191","owner":"140734051@N08","secret":"9f33290295","server":"65535","farm":66,"title":"\u0416\u0435\u043c\u0447\u0443\u0436\u043d\u044b\u0439 \u0432\u044c\u044e\u0440\u043e\u043a, Leucosticte brandti margaritacea, Brandt's Mountain Finch","ispublic":1,"isfriend":0,"isfamily":0},{"id":"52766811750","owner":"140734051@N08","secret":"5ea8269b10","server":"65535","farm":66,"title":"\u0416\u0435\u043c\u0447\u0443\u0436\u043d\u044b\u0439 \u0432\u044c\u044e\u0440\u043e\u043a, Leucosticte brandti margaritacea, Brandt's Mountain Finch","ispublic":1,"isfriend":0,"isfamily":0},{"id":"52734753611","owner":"68466173@N02","secret":"6233154b96","server":"65535","farm":66,"title":"Brandt's Mountain Finch (Leucosticte brandti)","ispublic":1,"isfriend":0,"isfamily":0},{"id":"52667722516","owner":"68466173@N02","secret":"94d0b2da49","server":"65535","farm":66,"title":"Brandt's Mountain Finch (Leucosticte brandti)","ispublic":1,"isfriend":0,"isfamily":0},{"id":"52571001284","owner":"68466173@N02","secret":"0a2f462869","server":"65535","farm":66,"title":"Brandt's Mountain Finch (Leucosticte brandti)","ispublic":1,"isfriend":0,"isfamily":0},{"id":"52286080402","owner":"68466173@N02","secret":"ff8b69a8b6","server":"65535","farm":66,"title":"Brandt's Mountain Finch (Leucosticte brandti)","ispublic":1,"isfriend":0,"isfamily":0},{"id":"52135006628","owner":"68466173@N02","secret":"6e2a7ac267","server":"65535","farm":66,"title":"Brandt's Mountain Finch (Leucosticte brandti)","ispublic":1,"isfriend":0,"isfamily":0},{"id":"52133070512","owner":"140734051@N08","secret":"fe44330ce8","server":"65535","farm":66,"title":"\u0416\u0435\u043c\u0447\u0443\u0436\u043d\u044b\u0439 \u0432\u044c\u044e\u0440\u043e\u043a, Leucosticte brandti margaritacea, Black-headed Mountain-Finch","ispublic":1,"isfriend":0,"isfamily":0},{"id":"51892866826","owner":"68466173@N02","secret":"e84af62e6d","server":"65535","farm":66,"title":"Brandt's Mountain Finch (Leucosticte brandti)","ispublic":1,"isfriend":0,"isfamily":0},{"id":"51867949616","owner":"68466173@N02","secret":"dd8b18a767","server":"65535","farm":66,"title":"Brandt's Mountain Finch (Leucosticte brandti)","ispublic":1,"isfriend":0,"isfamily":0},{"id":"51863547490","owner":"68466173@N02","secret":"ec87fbf11c","server":"65535","farm":66,"title":"Brandt's Mountain Finch (Leucosticte brandti)","ispublic":1,"isfriend":0,"isfamily":0},{"id":"51841171397","owner":"68466173@N02","secret":"836f701ef3","server":"65535","farm":66,"title":"Brandt's Mountain Finch (Leucosticte brandti)","ispublic":1,"isfriend":0,"isfamily":0},{"id":"51828984623","owner":"68466173@N02","secret":"b22ff2e9db","server":"65535","farm":66,"title":"Brandt's Mountain Finch (Leucosticte brandti)","ispublic":1,"isfriend":0,"isfamily":0},{"id":"51816016535","owner":"68466173@N02","secret":"787c7de1aa","server":"65535","farm":66,"title":"Brandt's Mountain Finch (Leucosticte brandti)","ispublic":1,"isfriend":0,"isfamily":0},{"id":"51793696465","owner":"68466173@N02","secret":"73fce4d422","server":"65535","farm":66,"title":"Brandt's Mountain Finch (Leucosticte brandti)","ispublic":1,"isfriend":0,"isfamily":0},{"id":"51707891355","owner":"68466173@N02","secret":"685be7540b","server":"65535","farm":66,"title":"Brandt's Mountain Finch (Leucosticte brandti)","ispublic":1,"isfriend":0,"isfamily":0},{"id":"51682326086","owner":"68466173@N02","secret":"0c204e830b","server":"65535","farm":66,"title":"Brandt's Mountain Finch (Leucosticte brandti)","ispublic":1,"isfriend":0,"isfamily":0},{"id":"51669355591","owner":"68466173@N02","secret":"8c30eca66c","server":"65535","farm":66,"title":"Brandt's Mountain Finch (Leucosticte brandti)","ispublic":1,"isfriend":0,"isfamily":0},{"id":"51658253228","owner":"68466173@N02","secret":"348a599607","server":"65535","farm":66,"title":"Brandt's Mountain Finch (Leucosticte brandti)","ispublic":1,"isfriend":0,"isfamily":0},{"id":"51636073099","owner":"68466173@N02","secret":"b27f5f231d","server":"65535","farm":66,"title":"Brandt's Mountain Finch (Leucosticte brandti)","ispublic":1,"isfriend":0,"isfamily":0},{"id":"51382269332","owner":"68466173@N02","secret":"42dec2052f","server":"65535","farm":66,"title":"Brandt's Mountain Finch (Leucosticte brandti)","ispublic":1,"isfriend":0,"isfamily":0},{"id":"51352984160","owner":"68466173@N02","secret":"1be38249ac","server":"65535","farm":66,"title":"Brandt's Mountain Finch (Leucosticte brandti)","ispublic":1,"isfriend":0,"isfamily":0},{"id":"51339963128","owner":"68466173@N02","secret":"a4588fb2af","server":"65535","farm":66,"title":"Brandt's Mountain Finch (Leucosticte brandti)","ispublic":1,"isfriend":0,"isfamily":0},{"id":"51335084496","owner":"68466173@N02","secret":"cf0545d404","server":"65535","farm":66,"title":"Brandt's Mountain Finch (Leucosticte brandti)","ispublic":1,"isfriend":0,"isfamily":0},{"id":"51305956955","owner":"68466173@N02","secret":"b30e578608","server":"65535","farm":66,"title":"Brandt's Mountain Finch (Leucosticte brandti)","ispublic":1,"isfriend":0,"isfamily":0},{"id":"51209632258","owner":"68466173@N02","secret":"5a0315b39c","server":"65535","farm":66,"title":"Brandt's Mountain Finch (Leucosticte brandti)","ispublic":1,"isfriend":0,"isfamily":0},{"id":"50788217963","owner":"68466173@N02","secret":"0755e17ccc","server":"65535","farm":66,"title":"Brandt's Mountain Finch (Leucosticte brandti)","ispublic":1,"isfriend":0,"isfamily":0},{"id":"49908196868","owner":"55968524@N04","secret":"c29ca75d48","server":"65535","farm":66,"title":"3T9P0156 - Brandt's Mountain Finch - Leucosticte brandti.jpg","ispublic":1,"isfriend":0,"isfamily":0},{"id":"49844287137","owner":"68466173@N02","secret":"37b5670dcb","server":"65535","farm":66,"title":"Brandt's Mountain Finch (Leucosticte brandti)","ispublic":1,"isfriend":0,"isfamily":0},{"id":"49766003531","owner":"68466173@N02","secret":"67ebe75337","server":"65535","farm":66,"title":"Brandt's Mountain Finch (Leucosticte brandti)","ispublic":1,"isfriend":0,"isfamily":0},{"id":"49406637158","owner":"34098328@N07","secret":"c9634ddeb9","server":"65535","farm":66,"title":"Brandt's \/ Black-headed Mountain Finch","ispublic":1,"isfriend":0,"isfamily":0},{"id":"49406637108","owner":"34098328@N07","secret":"1e174cf610","server":"65535","farm":66,"title":"Brandt's \/ Black-headed Mountain Finch","ispublic":1,"isfriend":0,"isfamily":0},{"id":"49407317437","owner":"34098328@N07","secret":"c084121405","server":"65535","farm":66,"title":"Brandt's \/ Black-headed Mountain Finch","ispublic":1,"isfriend":0,"isfamily":0},{"id":"49407317367","owner":"34098328@N07","secret":"435f512760","server":"65535","farm":66,"title":"Brandt's \/ Black-headed Mountain Finch","ispublic":1,"isfriend":0,"isfamily":0},{"id":"49407116371","owner":"34098328@N07","secret":"3db1b89979","server":"65535","farm":66,"title":"Brandt's \/ Black-headed Mountain Finch","ispublic":1,"isfriend":0,"isfamily":0},{"id":"49271373847","owner":"68466173@N02","secret":"e7593d9711","server":"65535","farm":66,"title":"Brandt's Mountain Finch (Leucosticte brandti)","ispublic":1,"isfriend":0,"isfamily":0},{"id":"49217422001","owner":"68466173@N02","secret":"5f39d84082","server":"65535","farm":66,"title":"Brandt's Mountain Finch (Leucosticte brandti)","ispublic":1,"isfriend":0,"isfamily":0},{"id":"49029534076","owner":"68466173@N02","secret":"b9e28b456e","server":"65535","farm":66,"title":"Brandt's Mountain Finch (Leucosticte brandti)","ispublic":1,"isfriend":0,"isfamily":0},{"id":"48959314456","owner":"68466173@N02","secret":"62f91d08cd","server":"65535","farm":66,"title":"Brandt's Mountain Finch (Leucosticte brandti)","ispublic":1,"isfriend":0,"isfamily":0},{"id":"48700742253","owner":"68466173@N02","secret":"6821c35290","server":"65535","farm":66,"title":"Brandt's Mountain Finch (Leucosticte brandti)","ispublic":1,"isfriend":0,"isfamily":0},{"id":"48701034411","owner":"68466173@N02","secret":"5576a584e5","server":"65535","farm":66,"title":"Brandt's Mountain Finch (Leucosticte brandti)","ispublic":1,"isfriend":0,"isfamily":0},{"id":"48088890021","owner":"68466173@N02","secret":"4a157f1a1b","server":"65535","farm":66,"title":"Brandt's Mountain Finch (Leucosticte brandti)","ispublic":1,"isfriend":0,"isfamily":0},{"id":"47976220778","owner":"124200561@N04","secret":"d47987af58","server":"65535","farm":66,"title":"Brandt's Mountain-finch | Leucosticte brandti | \u0410\u0440\u0446\u043d\u044b \u0437\u0430\u043d\u0433\u0430\u043b\u0430\u0439","ispublic":1,"isfriend":0,"isfamily":0},{"id":"44427369155","owner":"68466173@N02","secret":"1a3f106e5f","server":"1958","farm":2,"title":"Brandt's Mountain Finch (Leucosticte brandti)","ispublic":1,"isfriend":0,"isfamily":0},{"id":"44745490010","owner":"68466173@N02","secret":"a251f57fb9","server":"4896","farm":5,"title":"Brandt's Mountain Finch (Leucosticte brandti)","ispublic":1,"isfriend":0,"isfamily":0},{"id":"46161233232","owner":"68466173@N02","secret":"36a268f475","server":"4870","farm":5,"title":"Brandt's Mountain Finch (Leucosticte brandti)","ispublic":1,"isfriend":0,"isfamily":0},{"id":"44771086115","owner":"68466173@N02","secret":"c467fbe12c","server":"4916","farm":5,"title":"Brandt's Mountain Finch (Leucosticte brandti)","ispublic":1,"isfriend":0,"isfamily":0},{"id":"44520500475","owner":"68466173@N02","secret":"54035320a0","server":"1937","farm":2,"title":"Brandt's Mountain Finch (Leucosticte brandti)","ispublic":1,"isfriend":0,"isfamily":0},{"id":"44047384755","owner":"68466173@N02","secret":"7e80e81c15","server":"1973","farm":2,"title":"Brandt's Mountain Finch (Leucosticte brandti)","ispublic":1,"isfriend":0,"isfamily":0},{"id":"28953631107","owner":"68466173@N02","secret":"b46e495926","server":"1819","farm":2,"title":"Brandt's Mountain Finch (Leucosticte brandti)","ispublic":1,"isfriend":0,"isfamily":0},{"id":"43866531551","owner":"68466173@N02","secret":"3c86deff7b","server":"848","farm":1,"title":"Brandt's Mountain Finch (Leucosticte brandti)","ispublic":1,"isfriend":0,"isfamily":0},{"id":"29981042428","owner":"68466173@N02","secret":"efddfc2e94","server":"1819","farm":2,"title":"Brandt's Mountain Finch (Leucosticte brandti)","ispublic":1,"isfriend":0,"isfamily":0},{"id":"42901471444","owner":"68466173@N02","secret":"b5bab7df42","server":"921","farm":1,"title":"Brandt's Mountain Finch (Leucosticte brandti)","ispublic":1,"isfriend":0,"isfamily":0},{"id":"28368544897","owner":"64074416@N06","secret":"7ba62127bf","server":"1825","farm":2,"title":"Brandt's Mountain Finch or Black-headed Mountain-finch (Leucosticte brandti \u9ad8\u5c71\u5cad\u96c0)","ispublic":1,"isfriend":0,"isfamily":0},{"id":"28002299749","owner":"155163735@N06","secret":"659c61e7e4","server":"4675","farm":5,"title":"Brandt's Mountain Finch - Ladakh ~4350m Altitude","ispublic":1,"isfriend":0,"isfamily":0},{"id":"39578729312","owner":"68466173@N02","secret":"989097ec9a","server":"4767","farm":5,"title":"Brandt's Mountain Finch (Leucosticte brandti)","ispublic":1,"isfriend":0,"isfamily":0},{"id":"36362026374","owner":"68466173@N02","secret":"5e2fb3be84","server":"4423","farm":5,"title":"Brandt's Mountain Finch (Leucosticte brandti)","ispublic":1,"isfriend":0,"isfamily":0},{"id":"36385220575","owner":"68466173@N02","secret":"7cfee35dae","server":"4345","farm":5,"title":"Brandt's Mountain Finch (Leucosticte brandti)","ispublic":1,"isfriend":0,"isfamily":0},{"id":"35937477170","owner":"68466173@N02","secret":"322bdd48dc","server":"4339","farm":5,"title":"Brandt's Mountain Finch (Leucosticte brandti)","ispublic":1,"isfriend":0,"isfamily":0},{"id":"36270473416","owner":"68466173@N02","secret":"60bd1b5d56","server":"4323","farm":5,"title":"Brandt's Mountain Finch (Leucosticte brandti)","ispublic":1,"isfriend":0,"isfamily":0},{"id":"35895557770","owner":"131708321@N02","secret":"f4924106b5","server":"4311","farm":5,"title":"Brandt's Mountain-finch (Leucosticte brandti), Balang Shan, Sichuan, China","ispublic":1,"isfriend":0,"isfamily":0},{"id":"36149347381","owner":"131708321@N02","secret":"3bafb76c58","server":"4324","farm":5,"title":"Brandt's Mountain-finch (Leucosticte brandti), Balang Shan, Sichuan, China","ispublic":1,"isfriend":0,"isfamily":0},{"id":"35037614773","owner":"68466173@N02","secret":"8ea6d1ed05","server":"4218","farm":5,"title":"Brandt's Mountain Finch (Leucosticte brandti)","ispublic":1,"isfriend":0,"isfamily":0},{"id":"35803650745","owner":"68466173@N02","secret":"9766929294","server":"4288","farm":5,"title":"Brandt's Mountain Finch (Leucosticte brandti)","ispublic":1,"isfriend":0,"isfamily":0},{"id":"35783319705","owner":"68466173@N02","secret":"56b357256e","server":"4230","farm":5,"title":"Brandt's Mountain Finch (Leucosticte brandti)","ispublic":1,"isfriend":0,"isfamily":0},{"id":"35727431236","owner":"40195635@N03","secret":"32da295d71","server":"65535","farm":66,"title":"Brandt's Mountain Finch (Leucosticte brandti)","ispublic":1,"isfriend":0,"isfamily":0},{"id":"33282860346","owner":"68466173@N02","secret":"bb766ef73c","server":"3781","farm":4,"title":"Brandt's Mountain Finch (Leucosticte brandti)","ispublic":1,"isfriend":0,"isfamily":0},{"id":"51883111069","owner":"24205665@N00","secret":"bd9759f6c2","server":"65535","farm":66,"title":"Brandt's Mountain Finch","ispublic":1,"isfriend":0,"isfamily":0},{"id":"51242595559","owner":"30120110@N02","secret":"64747b3d7a","server":"65535","farm":66,"title":"Brandt's mountain finch","ispublic":1,"isfriend":0,"isfamily":0},{"id":"51237317057","owner":"30120110@N02","secret":"044f0e526b","server":"65535","farm":66,"title":"Brandt's Mountain Finch","ispublic":1,"isfriend":0,"isfamily":0},{"id":"51053130701","owner":"69947563@N07","secret":"60ea893ef0","server":"65535","farm":66,"title":"Brandt's Mountain Finch (Black-headed Mountain-Finch) - Sichuan Province, China","ispublic":1,"isfriend":0,"isfamily":0},{"id":"51053210892","owner":"69947563@N07","secret":"e3d1615dae","server":"65535","farm":66,"title":"Brandt's Mountain Finch (Black-headed Mountain-Finch)- Sichuan Province, China","ispublic":1,"isfriend":0,"isfamily":0},{"id":"50752247842","owner":"191501712@N04","secret":"30bde624ce","server":"65535","farm":66,"title":"Brandt Moutain Finch - Roselin de Brandt - Leucosticte Brandti. Mulda\u00ef Peak, Nepal","ispublic":1,"isfriend":0,"isfamily":0},{"id":"49784420468","owner":"125836731@N08","secret":"e9dfd0a60f","server":"65535","farm":66,"title":"Brandt's mountain finch","ispublic":1,"isfriend":0,"isfamily":0},{"id":"36482274456","owner":"152662785@N07","secret":"ba029e1292","server":"4398","farm":5,"title":"Brandt's Mountain Finch (Leucosticte brandti)","ispublic":1,"isfriend":0,"isfamily":0}]},"stat":"ok"}