{"photos":{"page":1,"pages":57,"perpage":100,"total":5639,"photo":[{"id":"52792955398","owner":"76782619@N04","secret":"b4121d1261","server":"65535","farm":66,"title":"Black-bellied Whistling Ducks","ispublic":1,"isfriend":0,"isfamily":0},{"id":"52787643504","owner":"124995824@N08","secret":"d0561cda6f","server":"65535","farm":66,"title":"Black-bellied Whistling-duck - Dendrocygna autumnalis","ispublic":1,"isfriend":0,"isfamily":0},{"id":"52780821165","owner":"21182099@N05","secret":"5ece0a07dd","server":"65535","farm":66,"title":"Black-bellied Whistling Duck (Dendrocygna autumnalis)","ispublic":1,"isfriend":0,"isfamily":0},{"id":"52779400905","owner":"52450054@N04","secret":"7bb15fb4b4","server":"65535","farm":66,"title":"Black-bellied Whistling Duck - Dendrocygna autumnalis, Wakodahatchee Wetlands, Boynton Beach, Florida, February 7, 2022","ispublic":1,"isfriend":0,"isfamily":0},{"id":"52777521162","owner":"59110473@N04","secret":"156341c80a","server":"65535","farm":66,"title":"Suirir\u00ed Piquirrojo (Dendrocygna autumnalis)","ispublic":1,"isfriend":0,"isfamily":0},{"id":"52774078678","owner":"28631427@N00","secret":"4e96d7739c","server":"65535","farm":66,"title":"Black-bellied Whistling Duck 1","ispublic":1,"isfriend":0,"isfamily":0},{"id":"52773849924","owner":"28631427@N00","secret":"a7ccb8b5dc","server":"65535","farm":66,"title":"Black-bellied Whistling Duck 2","ispublic":1,"isfriend":0,"isfamily":0},{"id":"52773590986","owner":"28631427@N00","secret":"9775e295c4","server":"65535","farm":66,"title":"Black-bellied Whistling Duck 3","ispublic":1,"isfriend":0,"isfamily":0},{"id":"52773997925","owner":"28631427@N00","secret":"b0c6b6e83c","server":"65535","farm":66,"title":"Black-bellied Whistling Duck 4","ispublic":1,"isfriend":0,"isfamily":0},{"id":"52773996295","owner":"28631427@N00","secret":"d2f442963e","server":"65535","farm":66,"title":"Black-bellied Whistling Duck 5","ispublic":1,"isfriend":0,"isfamily":0},{"id":"52768990438","owner":"12639178@N07","secret":"5a98231486","server":"65535","farm":66,"title":"Rotschnabel-Pfeifg\u00e4nse","ispublic":1,"isfriend":0,"isfamily":0},{"id":"52768500696","owner":"12639178@N07","secret":"f155ff07c3","server":"65535","farm":66,"title":"ballettreifer Landeanflug","ispublic":1,"isfriend":0,"isfamily":0},{"id":"52758488871","owner":"48949874@N08","secret":"0178c987e2","server":"65535","farm":66,"title":"Black-Bellied Whistling Ducks Napping at The Orlando Wetlands Park, Florida","ispublic":1,"isfriend":0,"isfamily":0},{"id":"52755484063","owner":"187510707@N05","secret":"48bc507fd2","server":"65535","farm":66,"title":"Pato Pisingo. (Dendrocygna autumnalis)","ispublic":1,"isfriend":0,"isfamily":0},{"id":"52738858078","owner":"45246060@N03","secret":"502c255e4d","server":"65535","farm":66,"title":"Black-bellied Whistling-duck","ispublic":1,"isfriend":0,"isfamily":0},{"id":"52736399871","owner":"45246060@N03","secret":"bd589130a6","server":"65535","farm":66,"title":"Black-bellied Whistling-duck in flight.","ispublic":1,"isfriend":0,"isfamily":0},{"id":"52736337946","owner":"45246060@N03","secret":"74c8f9ff49","server":"65535","farm":66,"title":"Black-bellied Whistling-ducks","ispublic":1,"isfriend":0,"isfamily":0},{"id":"52726705282","owner":"45246060@N03","secret":"79daff2556","server":"65535","farm":66,"title":"Black-bellied Whistling-ducks","ispublic":1,"isfriend":0,"isfamily":0},{"id":"52725371922","owner":"187931220@N06","secret":"5e15403b3d","server":"65535","farm":66,"title":"whistling4469","ispublic":1,"isfriend":0,"isfamily":0},{"id":"52725244645","owner":"45246060@N03","secret":"6a6baaa477","server":"65535","farm":66,"title":"Black-bellied Whistling-duck in flight.","ispublic":1,"isfriend":0,"isfamily":0},{"id":"52725310023","owner":"45246060@N03","secret":"7a78324de0","server":"65535","farm":66,"title":"Black-bellied Whistling-duck","ispublic":1,"isfriend":0,"isfamily":0},{"id":"52721722971","owner":"45246060@N03","secret":"d8c9807c84","server":"65535","farm":66,"title":"Black-bellied Whistling-duck","ispublic":1,"isfriend":0,"isfamily":0},{"id":"52712352569","owner":"197102582@N08","secret":"13e73ec7b1","server":"65535","farm":66,"title":"Herbstpfeifgans (Dendrocygna autumnalis)","ispublic":1,"isfriend":0,"isfamily":0},{"id":"52708596366","owner":"91782578@N00","secret":"ab26cb9637","server":"65535","farm":66,"title":"Black-bellied Whistling -Duck (Dendrocygna autumnalis)","ispublic":1,"isfriend":0,"isfamily":0},{"id":"52694953631","owner":"86191812@N07","secret":"7c59ac2d5e","server":"65535","farm":66,"title":"Black-bellied Whistling Duck (Dendrocygna autumnalis)","ispublic":1,"isfriend":0,"isfamily":0},{"id":"52694540376","owner":"12639178@N07","secret":"84e8223ee7","server":"65535","farm":66,"title":"Rotschnabel-Pfeifgans (Dendrocygna autumnalis) (2)","ispublic":1,"isfriend":0,"isfamily":0},{"id":"52694540156","owner":"12639178@N07","secret":"af24d6e80d","server":"65535","farm":66,"title":"Rotschnabel-Pfeifg\u00e4nse","ispublic":1,"isfriend":0,"isfamily":0},{"id":"52690941485","owner":"21584095@N00","secret":"4ece7fb241","server":"65535","farm":66,"title":"Black-bellied Whistling Duck (Dendrocygna autumnalis)","ispublic":1,"isfriend":0,"isfamily":0},{"id":"52688780631","owner":"124995824@N08","secret":"7b327f271b","server":"65535","farm":66,"title":"Black-bellied Whistling-duck - Dendrocygna autumnalis","ispublic":1,"isfriend":0,"isfamily":0},{"id":"52684588904","owner":"26631347@N05","secret":"0d9539445c","server":"65535","farm":66,"title":"P2110142-T500SC","ispublic":1,"isfriend":0,"isfamily":0},{"id":"52679856055","owner":"21584095@N00","secret":"aa58330936","server":"65535","farm":66,"title":"Black-bellied Whistling Duck (Dendrocygna autumnalis)","ispublic":1,"isfriend":0,"isfamily":0},{"id":"52670930604","owner":"45246060@N03","secret":"e7f0f625c4","server":"65535","farm":66,"title":"Black-bellied Whistling-duck in flight.","ispublic":1,"isfriend":0,"isfamily":0},{"id":"52662547831","owner":"52450054@N04","secret":"4e56ff9254","server":"65535","farm":66,"title":"Black-bellied Whistling Duck - Dendrocygna autumnalis, Wakodahatchee Wetlands, Boynton Beach, Florida, February 7, 2022","ispublic":1,"isfriend":0,"isfamily":0},{"id":"52662066930","owner":"59110473@N04","secret":"ded1176416","server":"65535","farm":66,"title":"Dendrocygna autumnalis (Pisingo)","ispublic":1,"isfriend":0,"isfamily":0},{"id":"52661666339","owner":"39177293@N03","secret":"9e8d8c00da","server":"65535","farm":66,"title":"Black-bellied Whistling-Duck","ispublic":1,"isfriend":0,"isfamily":0},{"id":"52660880567","owner":"39177293@N03","secret":"cd2dd85914","server":"65535","farm":66,"title":"Black-bellied Whistling-Duck","ispublic":1,"isfriend":0,"isfamily":0},{"id":"52661871078","owner":"39177293@N03","secret":"75b1bfe0ee","server":"65535","farm":66,"title":"Black-bellied Whistling-Duck","ispublic":1,"isfriend":0,"isfamily":0},{"id":"52651642917","owner":"38514062@N03","secret":"15a1c3d84e","server":"65535","farm":66,"title":"Black-bellied Whistling-Duck (Dendrocygna autumnalis)","ispublic":1,"isfriend":0,"isfamily":0},{"id":"52651763493","owner":"40723658@N05","secret":"31e558ace3","server":"65535","farm":66,"title":"Black-bellied Whistling Duck","ispublic":1,"isfriend":0,"isfamily":0},{"id":"52641065313","owner":"29494346@N03","secret":"bb7abf8db8","server":"65535","farm":66,"title":"Black-bellied Whistling-Duck (Dendrocygna autumnalis)","ispublic":1,"isfriend":0,"isfamily":0},{"id":"52627555535","owner":"61062164@N08","secret":"7c2c8f9514","server":"65535","farm":66,"title":"850_6663-NEF_DxO DP2","ispublic":1,"isfriend":0,"isfamily":0},{"id":"52620113916","owner":"140413390@N06","secret":"0f4fe30007","server":"65535","farm":66,"title":"Iguazas, Dendrocygna autumnalis","ispublic":1,"isfriend":0,"isfamily":0},{"id":"52619572227","owner":"140413390@N06","secret":"b7851b98d4","server":"65535","farm":66,"title":"Iguaza, Dendrocygna autumnalis","ispublic":1,"isfriend":0,"isfamily":0},{"id":"52620026391","owner":"140413390@N06","secret":"436c82dfb9","server":"65535","farm":66,"title":"Iguazas, Dendrocygna autumnalis","ispublic":1,"isfriend":0,"isfamily":0},{"id":"52619508977","owner":"140413390@N06","secret":"106e28f138","server":"65535","farm":66,"title":"Iguazas, Dendrocygna autumnalis","ispublic":1,"isfriend":0,"isfamily":0},{"id":"52620424683","owner":"140413390@N06","secret":"7562e695a7","server":"65535","farm":66,"title":"Iguazas, Dendrocygna autumnalis","ispublic":1,"isfriend":0,"isfamily":0},{"id":"52615010927","owner":"90355165@N03","secret":"70c50a76af","server":"65535","farm":66,"title":"black-bellied whistling duck","ispublic":1,"isfriend":0,"isfamily":0},{"id":"52606962767","owner":"130674121@N08","secret":"877771eb3d","server":"65535","farm":66,"title":"Duck (Black-Bellied Whistling) - Pousada Piuval, Pantanal, Brazil - 21","ispublic":1,"isfriend":0,"isfamily":0},{"id":"52598328552","owner":"140413390@N06","secret":"6a4f5ac94d","server":"65535","farm":66,"title":"Iguazas, Dendrocygna autumnalis, black-bellied whistling duck","ispublic":1,"isfriend":0,"isfamily":0},{"id":"52599340108","owner":"140413390@N06","secret":"e8e575caa7","server":"65535","farm":66,"title":"Iguazas, Dendrocygna autumnalis, black-bellied whistling duck","ispublic":1,"isfriend":0,"isfamily":0},{"id":"52599081069","owner":"140413390@N06","secret":"f52baceb6a","server":"65535","farm":66,"title":"Iguazas, Dendrocygna autumnalis, black-bellied whistling duck","ispublic":1,"isfriend":0,"isfamily":0},{"id":"52599081039","owner":"140413390@N06","secret":"e931d6eb90","server":"65535","farm":66,"title":"Iguazas, Dendrocygna autumnalis, black-bellied whistling duck","ispublic":1,"isfriend":0,"isfamily":0},{"id":"52579652216","owner":"11295713@N00","secret":"5c60752dbe","server":"65535","farm":66,"title":"Black-bellied Whistling-Duck (Dendrocygna autumnalis) on Log","ispublic":1,"isfriend":0,"isfamily":0},{"id":"52576005255","owner":"195899031@N06","secret":"a17b7e67da","server":"65535","farm":66,"title":"Dendrocygna autumnalis","ispublic":1,"isfriend":0,"isfamily":0},{"id":"52575550941","owner":"195899031@N06","secret":"84a39f468a","server":"65535","farm":66,"title":"Dendrocygna autumnalis","ispublic":1,"isfriend":0,"isfamily":0},{"id":"52575834404","owner":"195899031@N06","secret":"d169b3f64c","server":"65535","farm":66,"title":"Dendrocygna autumnalis","ispublic":1,"isfriend":0,"isfamily":0},{"id":"52575094547","owner":"195899031@N06","secret":"925153685e","server":"65535","farm":66,"title":"Dendrocygna autumnalis","ispublic":1,"isfriend":0,"isfamily":0},{"id":"52576086183","owner":"195899031@N06","secret":"b03d4a90e0","server":"65535","farm":66,"title":"Dendrocygna autumnalis","ispublic":1,"isfriend":0,"isfamily":0},{"id":"52576005190","owner":"195899031@N06","secret":"09fe773d94","server":"65535","farm":66,"title":"Dendrocygna autumnalis","ispublic":1,"isfriend":0,"isfamily":0},{"id":"52576005220","owner":"195899031@N06","secret":"82a09d4fcd","server":"65535","farm":66,"title":"Dendrocygna autumnalis","ispublic":1,"isfriend":0,"isfamily":0},{"id":"52575550861","owner":"195899031@N06","secret":"4925b35555","server":"65535","farm":66,"title":"Dendrocygna autumnalis","ispublic":1,"isfriend":0,"isfamily":0},{"id":"52576005130","owner":"195899031@N06","secret":"6599e85412","server":"65535","farm":66,"title":"Dendrocygna autumnalis","ispublic":1,"isfriend":0,"isfamily":0},{"id":"52575550771","owner":"195899031@N06","secret":"acbee30dbd","server":"65535","farm":66,"title":"Dendrocygna autumnalis","ispublic":1,"isfriend":0,"isfamily":0},{"id":"52576086083","owner":"195899031@N06","secret":"67b76a4baf","server":"65535","farm":66,"title":"Dendrocygna autumnalis","ispublic":1,"isfriend":0,"isfamily":0},{"id":"52576004030","owner":"195899031@N06","secret":"bbaa644a08","server":"65535","farm":66,"title":"Dendrocygna autumnalis","ispublic":1,"isfriend":0,"isfamily":0},{"id":"52572311927","owner":"182515684@N02","secret":"7197825561","server":"65535","farm":66,"title":"More Tree Swans \u2026 P9607-289","ispublic":1,"isfriend":0,"isfamily":0},{"id":"52564208704","owner":"140318147@N08","secret":"4c8a39a159","server":"65535","farm":66,"title":"black-bellied whistling-duck (Dendrocygna autumnalis) L4A6849","ispublic":1,"isfriend":0,"isfamily":0},{"id":"52554088630","owner":"69947563@N07","secret":"fa91fd105d","server":"65535","farm":66,"title":"Black-bellied Whistling-Duck - Puerto Boyac\u00e1, Boyaca, Colombia","ispublic":1,"isfriend":0,"isfamily":0},{"id":"52545157727","owner":"39652177@N04","secret":"a1b180d761","server":"65535","farm":66,"title":"Black-bellied whistling duck","ispublic":1,"isfriend":0,"isfamily":0},{"id":"52500389951","owner":"143629656@N04","secret":"7b7c0f1139","server":"65535","farm":66,"title":"Black-bellied Whistling-Duck","ispublic":1,"isfriend":0,"isfamily":0},{"id":"52496441874","owner":"82221857@N08","secret":"d295d60671","server":"65535","farm":66,"title":"2021_05_30 43443.jpg","ispublic":1,"isfriend":0,"isfamily":0},{"id":"52470011675","owner":"91064752@N03","secret":"24ee023db7","server":"65535","farm":66,"title":"Black-bellied Whistling Duck Getting a Drink","ispublic":1,"isfriend":0,"isfamily":0},{"id":"52465386646","owner":"84547312@N00","secret":"80d5aabcdf","server":"65535","farm":66,"title":"Black-bellied Duck and Ducklings","ispublic":1,"isfriend":0,"isfamily":0},{"id":"52451788245","owner":"84547312@N00","secret":"7f8a039e6a","server":"65535","farm":66,"title":"Whistling Ducks_8924","ispublic":1,"isfriend":0,"isfamily":0},{"id":"52426100646","owner":"52450054@N04","secret":"4e97fb1ace","server":"65535","farm":66,"title":"Black-bellied Whistling Duck - Dendrocygna autumnalis, Wakodahatchee Wetlands, Boynton Beach, Florida, February 7, 2022","ispublic":1,"isfriend":0,"isfamily":0},{"id":"52421822123","owner":"32665930@N04","secret":"0108cef914","server":"65535","farm":66,"title":"Black-bellied Whistling-Duck","ispublic":1,"isfriend":0,"isfamily":0},{"id":"52749363701","owner":"14586608@N08","secret":"cb7c068f80","server":"65535","farm":66,"title":"EF7A1183_Duck","ispublic":1,"isfriend":0,"isfamily":0},{"id":"52655772267","owner":"29170368@N03","secret":"57f2423197","server":"65535","farm":66,"title":"Black-bellied Whistling-Duck","ispublic":1,"isfriend":0,"isfamily":0},{"id":"52645094237","owner":"8013969@N03","secret":"824e489335","server":"65535","farm":66,"title":"Dendrocygna autumnalis DFL la22-1","ispublic":1,"isfriend":0,"isfamily":0},{"id":"52637795911","owner":"47533293@N04","secret":"77893c0241","server":"65535","farm":66,"title":"Black-bellied whistling ducks, Dendrocygna autumnalis","ispublic":1,"isfriend":0,"isfamily":0},{"id":"52619574112","owner":"140413390@N06","secret":"63846193f1","server":"65535","farm":66,"title":"Iguazas, Dendrocygna autumnalis e Iguana iguana","ispublic":1,"isfriend":0,"isfamily":0},{"id":"52620520445","owner":"140413390@N06","secret":"27a45e5526","server":"65535","farm":66,"title":"Iguazas, Dendrocygna autumnalis","ispublic":1,"isfriend":0,"isfamily":0},{"id":"52620029166","owner":"140413390@N06","secret":"e327f5d49c","server":"65535","farm":66,"title":"Chiguiro e Iguazas, Dendrocygna autumnalis","ispublic":1,"isfriend":0,"isfamily":0},{"id":"52580597654","owner":"153973412@N04","secret":"1fcfd17cd6","server":"65535","farm":66,"title":"Black-bellied Whistling Duck-Dendrocygna autumnalis, South Padre Island, TX","ispublic":1,"isfriend":0,"isfamily":0},{"id":"52575510101","owner":"50241576@N03","secret":"53ed436638","server":"65535","farm":66,"title":"Black-billied Whistling-Duck (Dendrocygna autumnalis) - Family","ispublic":1,"isfriend":0,"isfamily":0},{"id":"52556550879","owner":"182515684@N02","secret":"bae94cf2ba","server":"65535","farm":66,"title":"Autumn Tree Swans \u2026 P9570-289","ispublic":1,"isfriend":0,"isfamily":0},{"id":"52555728456","owner":"123597211@N03","secret":"f271f6e577","server":"65535","farm":66,"title":"Herbstpfeifgans (Dendrocygna autumnalis)","ispublic":1,"isfriend":0,"isfamily":0},{"id":"52527905249","owner":"100247776@N03","secret":"2854b34338","server":"65535","farm":66,"title":"MARRECA CABOCLA - Dendrocygna autumnalis - GOI\u00c2NIA","ispublic":1,"isfriend":0,"isfamily":0},{"id":"52527355368","owner":"36274920@N05","secret":"271422dbaa","server":"65535","farm":66,"title":"Panam\u00e1 - Novembre 2022","ispublic":1,"isfriend":0,"isfamily":0},{"id":"52413776357","owner":"90355165@N03","secret":"69af1dfef9","server":"65535","farm":66,"title":"black-bellied whistling duck","ispublic":1,"isfriend":0,"isfamily":0},{"id":"52414802123","owner":"90355165@N03","secret":"30883c0fd4","server":"65535","farm":66,"title":"black-bellied whistling duck","ispublic":1,"isfriend":0,"isfamily":0},{"id":"52402276362","owner":"71989271@N06","secret":"33f8ddd7ba","server":"65535","farm":66,"title":"Black-bellied Whistling-Duck (Dendrocygna autumnalis fulgens)","ispublic":1,"isfriend":0,"isfamily":0},{"id":"52403288103","owner":"71989271@N06","secret":"06ab413914","server":"65535","farm":66,"title":"Black-bellied Whistling-Duck (Dendrocygna autumnalis fulgens)","ispublic":1,"isfriend":0,"isfamily":0},{"id":"52403219625","owner":"71989271@N06","secret":"07ee928ac7","server":"65535","farm":66,"title":"Black-bellied Whistling-Duck (Dendrocygna autumnalis fulgens)","ispublic":1,"isfriend":0,"isfamily":0},{"id":"52403288078","owner":"71989271@N06","secret":"34856b0897","server":"65535","farm":66,"title":"Black-bellied Whistling-Duck (Dendrocygna autumnalis fulgens)","ispublic":1,"isfriend":0,"isfamily":0},{"id":"52403219585","owner":"71989271@N06","secret":"abf886c75c","server":"65535","farm":66,"title":"Black-bellied Whistling-Duck (Dendrocygna autumnalis fulgens)","ispublic":1,"isfriend":0,"isfamily":0},{"id":"52403219565","owner":"71989271@N06","secret":"4f61fce3dc","server":"65535","farm":66,"title":"Black-bellied Whistling-Duck (Dendrocygna autumnalis fulgens)","ispublic":1,"isfriend":0,"isfamily":0},{"id":"52403071614","owner":"71989271@N06","secret":"12a36ecd5f","server":"65535","farm":66,"title":"Black-bellied Whistling-Duck (Dendrocygna autumnalis fulgens)","ispublic":1,"isfriend":0,"isfamily":0},{"id":"52395601499","owner":"30740918@N03","secret":"7017f692e0","server":"65535","farm":66,"title":"Marreca-cabocla (Dendrocygna autumnalis)","ispublic":1,"isfriend":0,"isfamily":0},{"id":"52395741180","owner":"49563725@N06","secret":"12489eaef8","server":"65535","farm":66,"title":"Black-bellied whistling duck","ispublic":1,"isfriend":0,"isfamily":0}]},"stat":"ok"}