{"photos":{"page":1,"pages":307,"perpage":100,"total":30642,"photo":[{"id":"52723916046","owner":"195222415@N02","secret":"70cd4e7510","server":"65535","farm":66,"title":"Martinete com\u00fan (Nycticorax nycticorax)","ispublic":1,"isfriend":0,"isfamily":0},{"id":"52723351424","owner":"110148017@N06","secret":"50dc38e4c1","server":"65535","farm":66,"title":"\u591c\u9dfa Nycticorax nycticorax","ispublic":1,"isfriend":0,"isfamily":0},{"id":"52723570593","owner":"110148017@N06","secret":"e538844ca3","server":"65535","farm":66,"title":"\u591c\u9dfa Nycticorax nycticorax","ispublic":1,"isfriend":0,"isfamily":0},{"id":"52722502743","owner":"197362283@N08","secret":"17532172f5","server":"65535","farm":66,"title":"Bihoreau gris - Juv\u00e9nile","ispublic":1,"isfriend":0,"isfamily":0},{"id":"52722279309","owner":"197362283@N08","secret":"d2cd7a9d59","server":"65535","farm":66,"title":"Bihoreau gris - Juv\u00e9nile","ispublic":1,"isfriend":0,"isfamily":0},{"id":"52722502723","owner":"197362283@N08","secret":"639d89c5be","server":"65535","farm":66,"title":"Bihoreau gris - Juv\u00e9nile","ispublic":1,"isfriend":0,"isfamily":0},{"id":"52721172165","owner":"186433009@N08","secret":"51b00390c1","server":"65535","farm":66,"title":"\u0995\u09be\u09b2\u09cb\u09ae\u09be\u09a5\u09be \u09a8\u09bf\u09b6\u09bf\u09ac\u0995","ispublic":1,"isfriend":0,"isfamily":0},{"id":"52719694100","owner":"131037795@N03","secret":"c051abc3bc","server":"65535","farm":66,"title":"Black-crowned Night-Heron (Nycticorax nycticorax)","ispublic":1,"isfriend":0,"isfamily":0},{"id":"52718056073","owner":"81080668@N06","secret":"992102d187","server":"65535","farm":66,"title":"Black Crowned Night Heron","ispublic":1,"isfriend":0,"isfamily":0},{"id":"52716629003","owner":"79791557@N02","secret":"7ef2c13261","server":"65535","farm":66,"title":"Black-Crowned_Night-Heron","ispublic":1,"isfriend":0,"isfamily":0},{"id":"52716138316","owner":"79791557@N02","secret":"296fc97034","server":"65535","farm":66,"title":"Black-Crowned Night-Heron (Nycticorax nycticorax)","ispublic":1,"isfriend":0,"isfamily":0},{"id":"52714636865","owner":"146092138@N05","secret":"3696aa576f","server":"65535","farm":66,"title":"Martinete com\u00fan (Nycticorax nycticorax)","ispublic":1,"isfriend":0,"isfamily":0},{"id":"52712626846","owner":"82393004@N02","secret":"68598ac2bc","server":"65535","farm":66,"title":"Florida Bird Pictures","ispublic":1,"isfriend":0,"isfamily":0},{"id":"52712027294","owner":"68921296@N06","secret":"8247124256","server":"65535","farm":66,"title":"Juvenile Nankeen Night Heron (Nycticorax caledonicus)","ispublic":1,"isfriend":0,"isfamily":0},{"id":"52710810180","owner":"7856934@N03","secret":"91fba9e308","server":"65535","farm":66,"title":"Black-crowned Night-Heron","ispublic":1,"isfriend":0,"isfamily":0},{"id":"52709645256","owner":"45246060@N03","secret":"c74b8fb042","server":"65535","farm":66,"title":"Black-crowned night heron","ispublic":1,"isfriend":0,"isfamily":0},{"id":"52707485685","owner":"185402584@N02","secret":"227299d04c","server":"65535","farm":66,"title":"Bihoreau gris (Nycticorax nycticorax)","ispublic":1,"isfriend":0,"isfamily":0},{"id":"52705759257","owner":"131037795@N03","secret":"54ccc4b282","server":"65535","farm":66,"title":"Black-crowned Night-Heron (Nycticorax nycticorax)","ispublic":1,"isfriend":0,"isfamily":0},{"id":"52705257306","owner":"34368269@N04","secret":"0bb9db7465","server":"65535","farm":66,"title":"Black-crowned Night-Heron","ispublic":1,"isfriend":0,"isfamily":0},{"id":"52704984255","owner":"66875475@N08","secret":"83b520c5d8","server":"65535","farm":66,"title":"Bihoreau gris - Nycticorax nycticorax - Black-crowned night heron","ispublic":1,"isfriend":0,"isfamily":0},{"id":"52702803918","owner":"38157382@N04","secret":"5b921455ae","server":"65535","farm":66,"title":"Huairavo (Nycticorax nycticorax)","ispublic":1,"isfriend":0,"isfamily":0},{"id":"52701730299","owner":"139572339@N08","secret":"73d5f063ac","server":"65535","farm":66,"title":"Black-Crowned Night Heron (Nycticorax nycticorax)","ispublic":1,"isfriend":0,"isfamily":0},{"id":"52697822539","owner":"95482238@N02","secret":"3d8785a316","server":"65535","farm":66,"title":"nankeen night heron  at Mungerannie Station,  on the Birdsville Track in northeastern South Australia","ispublic":1,"isfriend":0,"isfamily":0},{"id":"52697563901","owner":"95482238@N02","secret":"44cfdc744f","server":"65535","farm":66,"title":"nankeen night heron  at Mungerannie Station,  on the Birdsville Track in northeastern South Australia","ispublic":1,"isfriend":0,"isfamily":0},{"id":"52698054648","owner":"95482238@N02","secret":"fb689a63a1","server":"65535","farm":66,"title":"nankeen night heron  at Mungerannie Station,  on the Birdsville Track in northeastern South Australia","ispublic":1,"isfriend":0,"isfamily":0},{"id":"52696723713","owner":"146299377@N03","secret":"0db693d338","server":"65535","farm":66,"title":"Nycticorax nycticorax ( martinete )","ispublic":1,"isfriend":0,"isfamily":0},{"id":"52696494873","owner":"34238008@N02","secret":"f17d75255b","server":"65535","farm":66,"title":"Black-crowned Night Heron (Nycticorax nycticorax)","ispublic":1,"isfriend":0,"isfamily":0},{"id":"52695417472","owner":"197745515@N06","secret":"d2c818ca0b","server":"65535","farm":66,"title":"Nycticorax nycticorax","ispublic":1,"isfriend":0,"isfamily":0},{"id":"52695311980","owner":"143326780@N02","secret":"2f888e3e77","server":"65535","farm":66,"title":"DSCN4545","ispublic":1,"isfriend":0,"isfamily":0},{"id":"52694899326","owner":"143326780@N02","secret":"3c2d157179","server":"65535","farm":66,"title":"DSCN4548","ispublic":1,"isfriend":0,"isfamily":0},{"id":"52694383162","owner":"143326780@N02","secret":"1170317dc0","server":"65535","farm":66,"title":"DSCN4595","ispublic":1,"isfriend":0,"isfamily":0},{"id":"52694899161","owner":"143326780@N02","secret":"c78e30a143","server":"65535","farm":66,"title":"DSCN4596","ispublic":1,"isfriend":0,"isfamily":0},{"id":"52695163974","owner":"143326780@N02","secret":"37ecae8a97","server":"65535","farm":66,"title":"DSCN4586","ispublic":1,"isfriend":0,"isfamily":0},{"id":"52695322108","owner":"68466173@N02","secret":"4270996921","server":"65535","farm":66,"title":"Black-crowned Night Heron (Nycticorax nycticorax)","ispublic":1,"isfriend":0,"isfamily":0},{"id":"52694933123","owner":"31983889@N06","secret":"0964a85db7","server":"65535","farm":66,"title":"#052 IMG_6256","ispublic":1,"isfriend":0,"isfamily":0},{"id":"52693925452","owner":"31983889@N06","secret":"97e4e58450","server":"65535","farm":66,"title":"#051 IMG_6255","ispublic":1,"isfriend":0,"isfamily":0},{"id":"52692694114","owner":"62043870@N05","secret":"e70140fa7e","server":"65535","farm":66,"title":"Black-crowned Night-Heron, Nycticorax nycticorax","ispublic":1,"isfriend":0,"isfamily":0},{"id":"52692424224","owner":"26822473@N06","secret":"eabba224c1","server":"65535","farm":66,"title":"Nankeen Night Heron (Nycticorax caledonicus)","ispublic":1,"isfriend":0,"isfamily":0},{"id":"52692265423","owner":"90764954@N07","secret":"0a78f73391","server":"65535","farm":66,"title":"Black-crowned Night Heron (Nycticorax nycticorax) \u591c\u9e6d","ispublic":1,"isfriend":0,"isfamily":0},{"id":"52690527061","owner":"51433704@N06","secret":"45ca3f0940","server":"65535","farm":66,"title":"Juvenile Yellow-Crowned Night Heron with Turtle","ispublic":1,"isfriend":0,"isfamily":0},{"id":"52690897545","owner":"145466593@N08","secret":"c40c6ede42","server":"65535","farm":66,"title":"Black-crowned Night-heron","ispublic":1,"isfriend":0,"isfamily":0},{"id":"52690675628","owner":"95579115@N03","secret":"29daa5dc14","server":"65535","farm":66,"title":"Black-crowned Night Heron (Nycticorax nycticorax) \u041e\u0431\u044b\u043a\u043d\u043e\u0432\u0435\u043d\u043d\u0430\u044f \u043a\u0432\u0430\u043a\u0432\u0430","ispublic":1,"isfriend":0,"isfamily":0},{"id":"52688781051","owner":"124995824@N08","secret":"144c526c4c","server":"65535","farm":66,"title":"Black-crowned Night-heron - Nycticorax nycticorax","ispublic":1,"isfriend":0,"isfamily":0},{"id":"52683792766","owner":"192708916@N06","secret":"cd78bc21d1","server":"65535","farm":66,"title":"Hard to swallow","ispublic":1,"isfriend":0,"isfamily":0},{"id":"52683276157","owner":"192708916@N06","secret":"eaecdf2b37","server":"65535","farm":66,"title":"Catch of the day!","ispublic":1,"isfriend":0,"isfamily":0},{"id":"52683272560","owner":"95482238@N02","secret":"13dbc08207","server":"65535","farm":66,"title":"nankeen night heron (Nycticorax caledonicus) at Cuttaburra Crossing (water hole) on the Eyre Creek, South of Bedourie, SW Queensland, Australia","ispublic":1,"isfriend":0,"isfamily":0},{"id":"52682180764","owner":"76782619@N04","secret":"11ecefe674","server":"65535","farm":66,"title":"Black-crowned Night Heron","ispublic":1,"isfriend":0,"isfamily":0},{"id":"52681426516","owner":"108755156@N05","secret":"f2e5d37dbd","server":"65535","farm":66,"title":"Archive Surprise","ispublic":1,"isfriend":0,"isfamily":0},{"id":"52680676843","owner":"88593217@N04","secret":"329ffe5ef8","server":"65535","farm":66,"title":"Black-crowned Night-Heron, Massa River north of Massa, Morocco, January 2015","ispublic":1,"isfriend":0,"isfamily":0},{"id":"52678692195","owner":"191391950@N02","secret":"ace1c4a086","server":"65535","farm":66,"title":"Bihoreau gris - Nycticorax nycticorax","ispublic":1,"isfriend":0,"isfamily":0},{"id":"52678692135","owner":"191391950@N02","secret":"30c94ae036","server":"65535","farm":66,"title":"Bihoreau gris - Nycticorax nycticorax","ispublic":1,"isfriend":0,"isfamily":0},{"id":"52678436007","owner":"47533293@N04","secret":"5f2d69cb47","server":"65535","farm":66,"title":"Black-crowned night-heron, Nycticorax nycticorax","ispublic":1,"isfriend":0,"isfamily":0},{"id":"52679203823","owner":"66875475@N08","secret":"ff77f1c8b9","server":"65535","farm":66,"title":"Bihoreau gris - Nycticorax nycticorax - Black-crowned night heron","ispublic":1,"isfriend":0,"isfamily":0},{"id":"52678557811","owner":"11295713@N00","secret":"bcfc1658b2","server":"65535","farm":66,"title":"Black-crowned Night Heron (Nycticorax nycticorax) on the Railing","ispublic":1,"isfriend":0,"isfamily":0},{"id":"52679053308","owner":"11295713@N00","secret":"75122c9e68","server":"65535","farm":66,"title":"Black-crowned Night Heron (Nycticorax nycticorax) Profile","ispublic":1,"isfriend":0,"isfamily":0},{"id":"52677583039","owner":"196758870@N03","secret":"4207b431b6","server":"65535","farm":66,"title":"Black-Crowned Night Heron","ispublic":1,"isfriend":0,"isfamily":0},{"id":"52677200158","owner":"61361023@N03","secret":"6d1db78612","server":"65535","farm":66,"title":"Nycticorax violaceus","ispublic":1,"isfriend":0,"isfamily":0},{"id":"52674948604","owner":"37180297@N08","secret":"358b881c86","server":"65535","farm":66,"title":"_RBD6795 Nycticorax nycticorax nycticorax \u591c\u9dfa","ispublic":1,"isfriend":0,"isfamily":0},{"id":"52674948354","owner":"37180297@N08","secret":"d5e1c9620f","server":"65535","farm":66,"title":"_RBD6796 Nycticorax nycticorax nycticorax \u591c\u9dfa","ispublic":1,"isfriend":0,"isfamily":0},{"id":"52674155352","owner":"37180297@N08","secret":"08fe1943f2","server":"65535","farm":66,"title":"_RBD6802 Nycticorax nycticorax nycticorax \u591c\u9dfa","ispublic":1,"isfriend":0,"isfamily":0},{"id":"52674944889","owner":"37180297@N08","secret":"21553ca0f8","server":"65535","farm":66,"title":"_RBD6810 Nycticorax nycticorax nycticorax \u591c\u9dfa","ispublic":1,"isfriend":0,"isfamily":0},{"id":"52673308163","owner":"195301618@N08","secret":"64e0beeafd","server":"65535","farm":66,"title":"Garceta","ispublic":1,"isfriend":0,"isfamily":0},{"id":"52672767991","owner":"66875475@N08","secret":"04319bac87","server":"65535","farm":66,"title":"Bihoreau gris - Nycticorax nycticorax - Black-crowned night heron","ispublic":1,"isfriend":0,"isfamily":0},{"id":"52672767206","owner":"66875475@N08","secret":"5b590b0d8d","server":"65535","farm":66,"title":"Bihoreau gris - Nycticorax nycticorax - Black-crowned night heron","ispublic":1,"isfriend":0,"isfamily":0},{"id":"52672288059","owner":"48793602@N07","secret":"7356615144","server":"65535","farm":66,"title":"Circle B Bar Reserve Black-crowned Night Heron 01-17-2023","ispublic":1,"isfriend":0,"isfamily":0},{"id":"52670918208","owner":"66875475@N08","secret":"dd106b84d6","server":"65535","farm":66,"title":"Bihoreau gris - Nycticorax nycticorax - Black-crowned night heron","ispublic":1,"isfriend":0,"isfamily":0},{"id":"52669912655","owner":"108755156@N05","secret":"aa39117e9d","server":"65535","farm":66,"title":"By The Creek","ispublic":1,"isfriend":0,"isfamily":0},{"id":"52669709644","owner":"39652177@N04","secret":"6284402e54","server":"65535","farm":66,"title":"Black-crowned night heron","ispublic":1,"isfriend":0,"isfamily":0},{"id":"52669236888","owner":"39935474@N03","secret":"e94958192c","server":"65535","farm":66,"title":"Black-crowned Night Heron in early morning light","ispublic":1,"isfriend":0,"isfamily":0},{"id":"52668419891","owner":"66875475@N08","secret":"66e489e2e2","server":"65535","farm":66,"title":"Bihoreau gris - Nycticorax nycticorax - Black-crowned night heron","ispublic":1,"isfriend":0,"isfamily":0},{"id":"52668704704","owner":"66875475@N08","secret":"c8518fa70e","server":"65535","farm":66,"title":"Bihoreau gris - Nycticorax nycticorax - Black-crowned night heron","ispublic":1,"isfriend":0,"isfamily":0},{"id":"52668013089","owner":"68466173@N02","secret":"a3652aeee3","server":"65535","farm":66,"title":"Black-crowned Night Heron (Nycticorax nycticorax)","ispublic":1,"isfriend":0,"isfamily":0},{"id":"52667531218","owner":"51433704@N06","secret":"0e84fa2186","server":"65535","farm":66,"title":"Black-crowned Night-Heron (Juvenile)","ispublic":1,"isfriend":0,"isfamily":0},{"id":"52666986995","owner":"30120110@N02","secret":"2441d6ddda","server":"65535","farm":66,"title":"Black-crowned night heron in flight","ispublic":1,"isfriend":0,"isfamily":0},{"id":"52666056762","owner":"30120110@N02","secret":"bfd64233d7","server":"65535","farm":66,"title":"Black-crowned Night Heron Juvenile","ispublic":1,"isfriend":0,"isfamily":0},{"id":"52666819695","owner":"187946018@N05","secret":"1f70dde3a9","server":"65535","farm":66,"title":"Bihoreau gris","ispublic":1,"isfriend":0,"isfamily":0},{"id":"52665406777","owner":"136180232@N08","secret":"09b7598782","server":"65535","farm":66,"title":"Black-crowned Night-Heron (Nycticorax nycticorax) JTE_2267","ispublic":1,"isfriend":0,"isfamily":0},{"id":"52662171439","owner":"52450054@N04","secret":"42882eae7c","server":"65535","farm":66,"title":"Black-crowned Night Heron - Nycticorax nycticorax, Cypress Wetlands, Port Royal, South Carolina, May 18, 2022","ispublic":1,"isfriend":0,"isfamily":0},{"id":"52661824135","owner":"39177293@N03","secret":"8342096bd9","server":"65535","farm":66,"title":"Black-crowned Night-Heron","ispublic":1,"isfriend":0,"isfamily":0},{"id":"52661664369","owner":"39177293@N03","secret":"b409709853","server":"65535","farm":66,"title":"Black-crowned Night-Heron","ispublic":1,"isfriend":0,"isfamily":0},{"id":"52658592974","owner":"30120110@N02","secret":"e92888a8f1","server":"65535","farm":66,"title":"Black-crowned Night Heron","ispublic":1,"isfriend":0,"isfamily":0},{"id":"52658592954","owner":"30120110@N02","secret":"3e63e08fae","server":"65535","farm":66,"title":"Black-crowned Night Heron","ispublic":1,"isfriend":0,"isfamily":0},{"id":"52654601322","owner":"196836949@N04","secret":"7386a97e22","server":"65535","farm":66,"title":"Bihoreau Gris (Nycticorax nycticorax)","ispublic":1,"isfriend":0,"isfamily":0},{"id":"52655574963","owner":"196836949@N04","secret":"a3d7061557","server":"65535","farm":66,"title":"Bihoreau Gris (Nycticorax nycticorax)","ispublic":1,"isfriend":0,"isfamily":0},{"id":"52655004831","owner":"196836949@N04","secret":"cda625beab","server":"65535","farm":66,"title":"Bihoreau Gris (Nycticorax nycticorax)","ispublic":1,"isfriend":0,"isfamily":0},{"id":"52654388184","owner":"43677156@N04","secret":"772c4c493c","server":"65535","farm":66,"title":"Kwak (Nycticorax nycticorax)","ispublic":1,"isfriend":0,"isfamily":0},{"id":"52653573497","owner":"7856934@N03","secret":"2e57d760e9","server":"65535","farm":66,"title":"Juveniole Black-crowned Night Heron","ispublic":1,"isfriend":0,"isfamily":0},{"id":"52653278232","owner":"51433704@N06","secret":"07b35ed57f","server":"65535","farm":66,"title":"Juvenile Yellow-Crowned Night Heron with Turtle","ispublic":1,"isfriend":0,"isfamily":0},{"id":"52653513290","owner":"12639178@N07","secret":"aa7b306ff9","server":"65535","farm":66,"title":"Viele Nachtreiher im Ried...","ispublic":1,"isfriend":0,"isfamily":0},{"id":"52653513160","owner":"12639178@N07","secret":"977ea4f91f","server":"65535","farm":66,"title":"Viele Nachtreiher im Ried...","ispublic":1,"isfriend":0,"isfamily":0},{"id":"52652582862","owner":"12639178@N07","secret":"c4565b9448","server":"65535","farm":66,"title":"Nachtreiher im Ried","ispublic":1,"isfriend":0,"isfamily":0},{"id":"52653075601","owner":"12639178@N07","secret":"0c8ec7892b","server":"65535","farm":66,"title":"Nachtreiher im Ried","ispublic":1,"isfriend":0,"isfamily":0},{"id":"52649570614","owner":"8013969@N03","secret":"d592a10213","server":"65535","farm":66,"title":"Nycticorax nycticoraxDFL npe22","ispublic":1,"isfriend":0,"isfamily":0},{"id":"52645105390","owner":"8013969@N03","secret":"a1716dbea1","server":"65535","farm":66,"title":"Nycticorax nycticorax DFL nj22-1","ispublic":1,"isfriend":0,"isfamily":0},{"id":"52644157497","owner":"8013969@N03","secret":"27fa1c8a36","server":"65535","farm":66,"title":"Nycticorax nycticorax DFL nj22-2","ispublic":1,"isfriend":0,"isfamily":0},{"id":"52644156437","owner":"8013969@N03","secret":"87e347db1f","server":"65535","farm":66,"title":"Nycticorax nycticorax DFL nj22-3","ispublic":1,"isfriend":0,"isfamily":0},{"id":"52641330347","owner":"99927961@N06","secret":"6f3c9a4f45","server":"65535","farm":66,"title":"Rolf Nagel-Fl-17-16912-Nyctanassa violacea","ispublic":1,"isfriend":0,"isfamily":0},{"id":"52641610731","owner":"16426117@N06","secret":"5f7853a7a9","server":"65535","farm":66,"title":"Garceta com\u00fan (Egretta garzetta) (4)","ispublic":1,"isfriend":0,"isfamily":0},{"id":"52642085033","owner":"16426117@N06","secret":"f443627478","server":"65535","farm":66,"title":"Garceta com\u00fan (Egretta garzetta) (10)","ispublic":1,"isfriend":0,"isfamily":0},{"id":"52642047515","owner":"16426117@N06","secret":"8c0aaac1d6","server":"65535","farm":66,"title":"Garceta com\u00fan (Egretta garzetta) (13)","ispublic":1,"isfriend":0,"isfamily":0}]},"stat":"ok"}