{"photos":{"page":1,"pages":3,"perpage":100,"total":261,"photo":[{"id":"52533731813","owner":"188233235@N06","secret":"8a7436fbea","server":"65535","farm":66,"title":"The Black-Thighed Falconet","ispublic":1,"isfriend":0,"isfamily":0},{"id":"52408672616","owner":"61485851@N06","secret":"1d40a501a3","server":"65535","farm":66,"title":"White-fronted falconet (Lifer #381)","ispublic":1,"isfriend":0,"isfamily":0},{"id":"52213971718","owner":"98682992@N00","secret":"9f8cbe03bd","server":"65535","farm":66,"title":"HKR53895","ispublic":1,"isfriend":0,"isfamily":0},{"id":"51949349575","owner":"124848818@N07","secret":"1c689823db","server":"65535","farm":66,"title":"The black-thighed falconet (Microhierax fringillarius)","ispublic":1,"isfriend":0,"isfamily":0},{"id":"51948740801","owner":"124848818@N07","secret":"070b737558","server":"65535","farm":66,"title":"The black-thighed falconet (Microhierax fringillarius)","ispublic":1,"isfriend":0,"isfamily":0},{"id":"51948815078","owner":"124848818@N07","secret":"ece2239dd0","server":"65535","farm":66,"title":"The black-thighed falconet (Microhierax fringillarius)","ispublic":1,"isfriend":0,"isfamily":0},{"id":"51949053589","owner":"124848818@N07","secret":"521bfb4d07","server":"65535","farm":66,"title":"The black-thighed falconet (Microhierax fringillarius)","ispublic":1,"isfriend":0,"isfamily":0},{"id":"51948740436","owner":"124848818@N07","secret":"108f4d1146","server":"65535","farm":66,"title":"The black-thighed falconet (Microhierax fringillarius)","ispublic":1,"isfriend":0,"isfamily":0},{"id":"51948740351","owner":"124848818@N07","secret":"da378e56c5","server":"65535","farm":66,"title":"The black-thighed falconet (Microhierax fringillarius)","ispublic":1,"isfriend":0,"isfamily":0},{"id":"51948814683","owner":"124848818@N07","secret":"2e8bb56498","server":"65535","farm":66,"title":"The black-thighed falconet (Microhierax fringillarius)","ispublic":1,"isfriend":0,"isfamily":0},{"id":"51949348925","owner":"124848818@N07","secret":"3984a08098","server":"65535","farm":66,"title":"The black-thighed falconet (Microhierax fringillarius)","ispublic":1,"isfriend":0,"isfamily":0},{"id":"51777806457","owner":"61485851@N06","secret":"b961a69fd5","server":"65535","farm":66,"title":"Black-thighed falconet","ispublic":1,"isfriend":0,"isfamily":0},{"id":"51772854904","owner":"61485851@N06","secret":"edf4181a2f","server":"65535","farm":66,"title":"Black-thighed falconet","ispublic":1,"isfriend":0,"isfamily":0},{"id":"51771385902","owner":"61485851@N06","secret":"32a34c863a","server":"65535","farm":66,"title":"Black-thighed falconet","ispublic":1,"isfriend":0,"isfamily":0},{"id":"51542704678","owner":"61485851@N06","secret":"424c90f1c6","server":"65535","farm":66,"title":"Black-thighed falconet","ispublic":1,"isfriend":0,"isfamily":0},{"id":"51542407411","owner":"61485851@N06","secret":"718ed5be7d","server":"65535","farm":66,"title":"Black-thighed falconet (Lifer #72)","ispublic":1,"isfriend":0,"isfamily":0},{"id":"51541591002","owner":"61485851@N06","secret":"27c01fdd8a","server":"65535","farm":66,"title":"Black-thighed falconet","ispublic":1,"isfriend":0,"isfamily":0},{"id":"51541753578","owner":"61485851@N06","secret":"c7fa8d424d","server":"65535","farm":66,"title":"Black-thighed falconet","ispublic":1,"isfriend":0,"isfamily":0},{"id":"51542437550","owner":"61485851@N06","secret":"17aa8da585","server":"65535","farm":66,"title":"Black-thighed falconet","ispublic":1,"isfriend":0,"isfamily":0},{"id":"51303030627","owner":"64074416@N06","secret":"67303031e7","server":"65535","farm":66,"title":"Black-thighed Falconet (Microhierax fringillarius \u9ed1\u817f\u5c0f\u96bc)","ispublic":1,"isfriend":0,"isfamily":0},{"id":"51304578580","owner":"28786551@N04","secret":"a62c515e5e","server":"65535","farm":66,"title":"Black-thighed Falconet","ispublic":1,"isfriend":0,"isfamily":0},{"id":"50968254196","owner":"32136583@N04","secret":"d7f6c5d1a0","server":"65535","farm":66,"title":"Black Thighed Falconet","ispublic":1,"isfriend":0,"isfamily":0},{"id":"50875502908","owner":"142083658@N05","secret":"21499dee00","server":"65535","farm":66,"title":"Black-thighed Falconet, Microhierax fringillarius, \u0427\u0435\u0440\u043d\u043e\u043d\u043e\u0433\u0438\u0439 \u0441\u043e\u043a\u043e\u043b-\u043a\u0440\u043e\u0448\u043a\u0430","ispublic":1,"isfriend":0,"isfamily":0},{"id":"50604473097","owner":"95579115@N03","secret":"f9011c0d2b","server":"65535","farm":66,"title":"Black-thighed Falconet (Microhierax fringillarius) \u0427\u0435\u0440\u043d\u043e\u043d\u043e\u0433\u0438\u0439 \u0441\u043e\u043a\u043e\u043b-\u043a\u0440\u043e\u0448\u043a\u0430","ispublic":1,"isfriend":0,"isfamily":0},{"id":"50385503316","owner":"22587916@N05","secret":"c0a226b44f","server":"65535","farm":66,"title":"Black-thighed falconet, \u9ed1\u817f\u5c0f\u96bc","ispublic":1,"isfriend":0,"isfamily":0},{"id":"50289236213","owner":"61485851@N06","secret":"658d227500","server":"65535","farm":66,"title":"Black-thighed falconet","ispublic":1,"isfriend":0,"isfamily":0},{"id":"50289741116","owner":"61485851@N06","secret":"b4cf8680ee","server":"65535","farm":66,"title":"Black-thighed falconet","ispublic":1,"isfriend":0,"isfamily":0},{"id":"50289043328","owner":"61485851@N06","secret":"8b48bdb95e","server":"65535","farm":66,"title":"Black-thighed falconet","ispublic":1,"isfriend":0,"isfamily":0},{"id":"50289840847","owner":"61485851@N06","secret":"6474127438","server":"65535","farm":66,"title":"Black-thighed falconet","ispublic":1,"isfriend":0,"isfamily":0},{"id":"50262016021","owner":"14888671@N02","secret":"3db4385d85","server":"65535","farm":66,"title":"Black-thighed Falconet","ispublic":1,"isfriend":0,"isfamily":0},{"id":"50232564142","owner":"14888671@N02","secret":"446a24eaab","server":"65535","farm":66,"title":"Black-thighed Falconet","ispublic":1,"isfriend":0,"isfamily":0},{"id":"50060179038","owner":"142083658@N05","secret":"ca087652b8","server":"65535","farm":66,"title":"Black-thighed Falconet, Microhierax fringillarius, \u0427\u0435\u0440\u043d\u043e\u043d\u043e\u0433\u0438\u0439 \u0441\u043e\u043a\u043e\u043b-\u043a\u0440\u043e\u0448\u043a\u0430","ispublic":1,"isfriend":0,"isfamily":0},{"id":"49704231757","owner":"28786551@N04","secret":"47fffbb3d8","server":"65535","farm":66,"title":"Black-thighed Falconet","ispublic":1,"isfriend":0,"isfamily":0},{"id":"49633942033","owner":"21155756@N07","secret":"e76d668d9b","server":"65535","farm":66,"title":"Black-Thighed Falconet","ispublic":1,"isfriend":0,"isfamily":0},{"id":"49245271522","owner":"32136583@N04","secret":"67a015a0e0","server":"65535","farm":66,"title":"Black Thighed Falconet","ispublic":1,"isfriend":0,"isfamily":0},{"id":"49235205013","owner":"32136583@N04","secret":"9a72ac7b00","server":"65535","farm":66,"title":"Black Thighed Falconet","ispublic":1,"isfriend":0,"isfamily":0},{"id":"49169530281","owner":"101709991@N06","secret":"a3b924aba0","server":"65535","farm":66,"title":"Black-thighed Falconet- Microhierax fringillarius, Way Kambas","ispublic":1,"isfriend":0,"isfamily":0},{"id":"48239869781","owner":"143943445@N02","secret":"814e83512e","server":"65535","farm":66,"title":"Black-thighed Falconet (Microhierax fringillarius) \u9ed1\u817f\u5c0f\u96bc3","ispublic":1,"isfriend":0,"isfamily":0},{"id":"48021971768","owner":"90764954@N07","secret":"1822dc64d2","server":"65535","farm":66,"title":"Black-thighed falconet (Microhierax fringillarius) \u9ed1\u817f\u5c0f\u96bc","ispublic":1,"isfriend":0,"isfamily":0},{"id":"48021946086","owner":"90764954@N07","secret":"d1f125e53d","server":"65535","farm":66,"title":"Black-thighed falconet (Microhierax fringillarius) \u9ed1\u817f\u5c0f\u96bc","ispublic":1,"isfriend":0,"isfamily":0},{"id":"48021946001","owner":"90764954@N07","secret":"1d5e5e82aa","server":"65535","farm":66,"title":"Black-thighed falconet (Microhierax fringillarius) \u9ed1\u817f\u5c0f\u96bc","ispublic":1,"isfriend":0,"isfamily":0},{"id":"48022050972","owner":"90764954@N07","secret":"66d83542ab","server":"65535","farm":66,"title":"Black-thighed falconet (Microhierax fringillarius) \u9ed1\u817f\u5c0f\u96bc","ispublic":1,"isfriend":0,"isfamily":0},{"id":"48021970443","owner":"90764954@N07","secret":"f92bf5e15a","server":"65535","farm":66,"title":"Black-thighed falconet (Microhierax fringillarius) \u9ed1\u817f\u5c0f\u96bc","ispublic":1,"isfriend":0,"isfamily":0},{"id":"47966368912","owner":"124394812@N08","secret":"ab5dc7d585","server":"65535","farm":66,"title":"Fauconnet moineau","ispublic":1,"isfriend":0,"isfamily":0},{"id":"46682087825","owner":"149764685@N06","secret":"59022c8efe","server":"65535","farm":66,"title":"Black-Thighed Falconet (Microhierax Fringillarius) 2017","ispublic":1,"isfriend":0,"isfamily":0},{"id":"46709186134","owner":"124848818@N07","secret":"ef6e60129e","server":"7813","farm":8,"title":"The black-thighed falconet (Microhierax fringillarius)","ispublic":1,"isfriend":0,"isfamily":0},{"id":"47432102951","owner":"124848818@N07","secret":"eaa7d735bd","server":"7818","farm":8,"title":"The black-thighed falconet (Microhierax fringillarius)","ispublic":1,"isfriend":0,"isfamily":0},{"id":"47379363712","owner":"124848818@N07","secret":"975b83208b","server":"7912","farm":8,"title":"The black-thighed falconet (Microhierax fringillarius)","ispublic":1,"isfriend":0,"isfamily":0},{"id":"47379363302","owner":"124848818@N07","secret":"43558cc054","server":"7859","farm":8,"title":"The black-thighed falconet (Microhierax fringillarius)","ispublic":1,"isfriend":0,"isfamily":0},{"id":"44525271874","owner":"22587916@N05","secret":"e10ac6768a","server":"1904","farm":2,"title":"Black-thighed falconet, \u9ed1\u817f\u5c0f\u96bc","ispublic":1,"isfriend":0,"isfamily":0},{"id":"42974366211","owner":"133058108@N05","secret":"bd1b64973e","server":"1794","farm":2,"title":"242.Black-thighed Falconet (Microhierax fringillarius)","ispublic":1,"isfriend":0,"isfamily":0},{"id":"40849997370","owner":"142083658@N05","secret":"687980b102","server":"1724","farm":2,"title":"Black-thighed Falconet - Microhierax fringillarius - \u0427\u0435\u0440\u043d\u043e\u043d\u043e\u0433\u0438\u0439 \u0441\u043e\u043a\u043e\u043b-\u043a\u0440\u043e\u0448\u043a\u0430","ispublic":1,"isfriend":0,"isfamily":0},{"id":"41291847785","owner":"98682992@N00","secret":"3549193b53","server":"954","farm":1,"title":"9S3A4896","ispublic":1,"isfriend":0,"isfamily":0},{"id":"52012734872","owner":"42978673@N00","secret":"dd2d023d8f","server":"65535","farm":66,"title":"Black-thighed Falconet - Microhierax fringillarius","ispublic":1,"isfriend":0,"isfamily":0},{"id":"51523329002","owner":"102281407@N08","secret":"e32d238f88","server":"65535","farm":66,"title":"Black-thighed Falconet (Microhierax fringillarius)","ispublic":1,"isfriend":0,"isfamily":0},{"id":"50084901048","owner":"187469698@N05","secret":"a85b360d93","server":"65535","farm":66,"title":"611 Black-thighed Falconet - Andrew Walker 001","ispublic":1,"isfriend":0,"isfamily":0},{"id":"49718329623","owner":"99668973@N03","secret":"5381f8ef8c","server":"65535","farm":66,"title":"Black-thighed Falconet (Microhierax fringillarius)","ispublic":1,"isfriend":0,"isfamily":0},{"id":"49718869106","owner":"99668973@N03","secret":"2d98ef8716","server":"65535","farm":66,"title":"Black-thighed Falconet (Microhierax fringillarius)","ispublic":1,"isfriend":0,"isfamily":0},{"id":"49634465026","owner":"21155756@N07","secret":"0251fedd78","server":"65535","farm":66,"title":"Black-Thighed Falconet","ispublic":1,"isfriend":0,"isfamily":0},{"id":"49629748911","owner":"8142488@N07","secret":"6fee8de227","server":"65535","farm":66,"title":"black-thighed falconet (Microhierax fringillarius)","ispublic":1,"isfriend":0,"isfamily":0},{"id":"49629748746","owner":"8142488@N07","secret":"9bc1220977","server":"65535","farm":66,"title":"black-thighed falconet (Microhierax fringillarius)","ispublic":1,"isfriend":0,"isfamily":0},{"id":"49630018577","owner":"8142488@N07","secret":"95891895b1","server":"65535","farm":66,"title":"black-thighed falconet (Microhierax fringillarius)","ispublic":1,"isfriend":0,"isfamily":0},{"id":"49587601167","owner":"8142488@N07","secret":"acef09da1a","server":"65535","farm":66,"title":"Black-thighed falconet (Microhierax fringillarius)","ispublic":1,"isfriend":0,"isfamily":0},{"id":"49587601017","owner":"8142488@N07","secret":"be0ba5dccd","server":"65535","farm":66,"title":"Black-thighed falconet (Microhierax fringillarius)","ispublic":1,"isfriend":0,"isfamily":0},{"id":"49586860193","owner":"8142488@N07","secret":"a39dbd568d","server":"65535","farm":66,"title":"Black-thighed falconet (Microhierax fringillarius)","ispublic":1,"isfriend":0,"isfamily":0},{"id":"49587354386","owner":"8142488@N07","secret":"dba766b87b","server":"65535","farm":66,"title":"Black-thighed falconet (Microhierax fringillarius)","ispublic":1,"isfriend":0,"isfamily":0},{"id":"49587354211","owner":"8142488@N07","secret":"27c0a070e6","server":"65535","farm":66,"title":"Black-thighed falconet (Microhierax fringillarius)","ispublic":1,"isfriend":0,"isfamily":0},{"id":"49587600392","owner":"8142488@N07","secret":"21699d75ff","server":"65535","farm":66,"title":"Black-thighed falconet (Microhierax fringillarius)","ispublic":1,"isfriend":0,"isfamily":0},{"id":"49586859468","owner":"8142488@N07","secret":"8d9b335db7","server":"65535","farm":66,"title":"Black-thighed falconet (Microhierax fringillarius)","ispublic":1,"isfriend":0,"isfamily":0},{"id":"49587353751","owner":"8142488@N07","secret":"4763f9337f","server":"65535","farm":66,"title":"Black-thighed falconet (Microhierax fringillarius)","ispublic":1,"isfriend":0,"isfamily":0},{"id":"49587353626","owner":"8142488@N07","secret":"4f9cd40bcb","server":"65535","farm":66,"title":"Black-thighed falconet (Microhierax fringillarius)","ispublic":1,"isfriend":0,"isfamily":0},{"id":"49586859153","owner":"8142488@N07","secret":"c5a063c569","server":"65535","farm":66,"title":"Black-thighed falconet (Microhierax fringillarius)","ispublic":1,"isfriend":0,"isfamily":0},{"id":"49587353471","owner":"8142488@N07","secret":"9061ec40ac","server":"65535","farm":66,"title":"Black-thighed falconet (Microhierax fringillarius)","ispublic":1,"isfriend":0,"isfamily":0},{"id":"48635549571","owner":"39066307@N03","secret":"2c30c9a9d0","server":"65535","farm":66,"title":"Black-thighed Falconet","ispublic":1,"isfriend":0,"isfamily":0},{"id":"48635689207","owner":"39066307@N03","secret":"aaf956ebd4","server":"65535","farm":66,"title":"Black-thighed Falconet","ispublic":1,"isfriend":0,"isfamily":0},{"id":"48567346486","owner":"124848818@N07","secret":"8960eb7eeb","server":"65535","farm":66,"title":"The black-thighed falconet (Microhierax fringillarius)","ispublic":1,"isfriend":0,"isfamily":0},{"id":"48160561427","owner":"46848480@N00","secret":"8ec6773279","server":"65535","farm":66,"title":"20190613-1DX22496","ispublic":1,"isfriend":0,"isfamily":0},{"id":"48160561322","owner":"46848480@N00","secret":"74a7ab5438","server":"65535","farm":66,"title":"20190613-1DX22529","ispublic":1,"isfriend":0,"isfamily":0},{"id":"48160560867","owner":"46848480@N00","secret":"df83afb90f","server":"65535","farm":66,"title":"20190613-1DX22530","ispublic":1,"isfriend":0,"isfamily":0},{"id":"48160560522","owner":"46848480@N00","secret":"ba6aeafdb9","server":"65535","farm":66,"title":"20190613-1DX22541","ispublic":1,"isfriend":0,"isfamily":0},{"id":"48160487536","owner":"46848480@N00","secret":"d8aed172d9","server":"65535","farm":66,"title":"20190613-1DX22545","ispublic":1,"isfriend":0,"isfamily":0},{"id":"48160559687","owner":"46848480@N00","secret":"721b7268c1","server":"65535","farm":66,"title":"20190613-1DX22556","ispublic":1,"isfriend":0,"isfamily":0},{"id":"48160486476","owner":"46848480@N00","secret":"8a5caaf9c4","server":"65535","farm":66,"title":"20190613-1DX22581","ispublic":1,"isfriend":0,"isfamily":0},{"id":"48160558972","owner":"46848480@N00","secret":"d8c7337e88","server":"65535","farm":66,"title":"20190613-1DX22584","ispublic":1,"isfriend":0,"isfamily":0},{"id":"48160558412","owner":"46848480@N00","secret":"9a83907235","server":"65535","farm":66,"title":"20190613-1DX22589","ispublic":1,"isfriend":0,"isfamily":0},{"id":"48160485561","owner":"46848480@N00","secret":"29629dfe32","server":"65535","farm":66,"title":"20190613-1DX22594","ispublic":1,"isfriend":0,"isfamily":0},{"id":"48160485231","owner":"46848480@N00","secret":"354af88ff4","server":"65535","farm":66,"title":"20190613-1DX22625","ispublic":1,"isfriend":0,"isfamily":0},{"id":"48160485006","owner":"46848480@N00","secret":"a61e8449e4","server":"65535","farm":66,"title":"20190613-1DX22636","ispublic":1,"isfriend":0,"isfamily":0},{"id":"48160484571","owner":"46848480@N00","secret":"b8086c6a1d","server":"65535","farm":66,"title":"20190613-1DX22642","ispublic":1,"isfriend":0,"isfamily":0},{"id":"48022051042","owner":"90764954@N07","secret":"e64d1ba2e1","server":"65535","farm":66,"title":"Black-thighed falconet (Microhierax fringillarius) \u9ed1\u817f\u5c0f\u96bc","ispublic":1,"isfriend":0,"isfamily":0},{"id":"47432102831","owner":"124848818@N07","secret":"6ba2dfa8c4","server":"7889","farm":8,"title":"The black-thighed falconet (Microhierax fringillarius)","ispublic":1,"isfriend":0,"isfamily":0},{"id":"46144872655","owner":"142083658@N05","secret":"7265451d67","server":"7902","farm":8,"title":"Black-thighed Falconet, Microhierax fringillarius, \u0427\u0435\u0440\u043d\u043e\u043d\u043e\u0433\u0438\u0439 \u0441\u043e\u043a\u043e\u043b-\u043a\u0440\u043e\u0448\u043a\u0430","ispublic":1,"isfriend":0,"isfamily":0},{"id":"30931916857","owner":"142083658@N05","secret":"c4e465fec5","server":"1942","farm":2,"title":"Black-thighed Falconet, Microhierax fringillarius, \u0427\u0435\u0440\u043d\u043e\u043d\u043e\u0433\u0438\u0439 \u0441\u043e\u043a\u043e\u043b-\u043a\u0440\u043e\u0448\u043a\u0430","ispublic":1,"isfriend":0,"isfamily":0},{"id":"30931912837","owner":"142083658@N05","secret":"d127e6cdf0","server":"4840","farm":5,"title":"Black-thighed Falconet, Microhierax fringillarius, \u0427\u0435\u0440\u043d\u043e\u043d\u043e\u0433\u0438\u0439 \u0441\u043e\u043a\u043e\u043b-\u043a\u0440\u043e\u0448\u043a\u0430","ispublic":1,"isfriend":0,"isfamily":0},{"id":"45176564161","owner":"7200351@N08","secret":"00f8216278","server":"1929","farm":2,"title":"Microhierax fringillarius","ispublic":1,"isfriend":0,"isfamily":0},{"id":"45176564311","owner":"7200351@N08","secret":"b091b8d105","server":"1927","farm":2,"title":"Microhierax fringillarius","ispublic":1,"isfriend":0,"isfamily":0},{"id":"30196700818","owner":"7200351@N08","secret":"38e2e76cc8","server":"1793","farm":2,"title":"Microhierax fringillarius","ispublic":1,"isfriend":0,"isfamily":0},{"id":"30196700288","owner":"7200351@N08","secret":"4d0fc5807d","server":"1772","farm":2,"title":"Microhierax fringillarius","ispublic":1,"isfriend":0,"isfamily":0},{"id":"43125230141","owner":"39066307@N03","secret":"f372442621","server":"1809","farm":2,"title":"Black-thighed Falconet","ispublic":1,"isfriend":0,"isfamily":0},{"id":"42192113821","owner":"98682992@N00","secret":"ca07868364","server":"975","farm":1,"title":"9S3A4903","ispublic":1,"isfriend":0,"isfamily":0}]},"stat":"ok"}