{"photos":{"page":1,"pages":9,"perpage":100,"total":808,"photo":[{"id":"52772851582","owner":"163930705@N05","secret":"99dc3d0881","server":"65535","farm":66,"title":"Black Scoter \/ Krumm\u00f6nd (Melanitta americana)","ispublic":1,"isfriend":0,"isfamily":0},{"id":"52771564768","owner":"62766146@N07","secret":"1ec4d381f1","server":"65535","farm":66,"title":"Krumm\u00f6nd - Black Scoter - Melanitta Americana - jpg.9814","ispublic":1,"isfriend":0,"isfamily":0},{"id":"52770633959","owner":"62766146@N07","secret":"a8b0860879","server":"65535","farm":66,"title":"Krumm\u00f6nd - Black Scoter - Melanitta Americana - jpg.9955","ispublic":1,"isfriend":0,"isfamily":0},{"id":"52769841912","owner":"62766146@N07","secret":"b832dfcdab","server":"65535","farm":66,"title":"Krumm\u00f6nd - Black Scoter - Melanitta Americana - jpg.9954","ispublic":1,"isfriend":0,"isfamily":0},{"id":"52770377286","owner":"62766146@N07","secret":"a750a5d822","server":"65535","farm":66,"title":"Krumm\u00f6nd - Black Scoter - Melanitta Americana - jpg..9947","ispublic":1,"isfriend":0,"isfamily":0},{"id":"52770790985","owner":"62766146@N07","secret":"1373d3cecd","server":"65535","farm":66,"title":"Krumm\u00f6nd - Black Scoter - Melanitta Americana - jpg.9941","ispublic":1,"isfriend":0,"isfamily":0},{"id":"52770631184","owner":"62766146@N07","secret":"359cc4179c","server":"65535","farm":66,"title":"Krumm\u00f6nd - Black Scoter - Melanitta Americana - jpg.9936","ispublic":1,"isfriend":0,"isfamily":0},{"id":"52769839262","owner":"62766146@N07","secret":"55f79d35f3","server":"65535","farm":66,"title":"Krumm\u00f6nd - Black Scoter - Melanitta Americana - jpg.9934","ispublic":1,"isfriend":0,"isfamily":0},{"id":"52770787910","owner":"62766146@N07","secret":"76a062d5b7","server":"65535","farm":66,"title":"Krumm\u00f6nd - Black Scoter - Melanitta Americana - jpg.9920","ispublic":1,"isfriend":0,"isfamily":0},{"id":"52750198145","owner":"12639178@N07","secret":"e85457d2b8","server":"65535","farm":66,"title":"Pazifiktrauerente, \u2642, einzelne in Trupp von Trauerenten, auf der Ostsee","ispublic":1,"isfriend":0,"isfamily":0},{"id":"52750031669","owner":"12639178@N07","secret":"2535d29b31","server":"65535","farm":66,"title":"Pazifiktrauerente, \u2642, mit Trauerente, \u2640, auffliegend, Ostsee","ispublic":1,"isfriend":0,"isfamily":0},{"id":"52749246927","owner":"12639178@N07","secret":"333f32b723","server":"65535","farm":66,"title":"Pazifiktrauerente, \u2642, mit Trauerente, \u2642, auffliegend, Ostsee","ispublic":1,"isfriend":0,"isfamily":0},{"id":"52750191375","owner":"12639178@N07","secret":"943fcecc79","server":"65535","farm":66,"title":"Pazifiktrauerente, \u2642, auf der Ostsee","ispublic":1,"isfriend":0,"isfamily":0},{"id":"52749246712","owner":"12639178@N07","secret":"82edc8df1b","server":"65535","farm":66,"title":"Pazifiktrauerente, \u2642, einzelne neben Trauerente, \u2642, auf der Ostsee","ispublic":1,"isfriend":0,"isfamily":0},{"id":"52750191090","owner":"12639178@N07","secret":"eec3e3c429","server":"65535","farm":66,"title":"Pazifiktrauerente, \u2642, einzelne neben Trauerente, \u2642, auf der Ostsee","ispublic":1,"isfriend":0,"isfamily":0},{"id":"52739132651","owner":"69812270@N00","secret":"9241c1fa9b","server":"65535","farm":66,"title":"Female Surf Scoter, Melanitta perspicillata","ispublic":1,"isfriend":0,"isfamily":0},{"id":"52735886259","owner":"12639178@N07","secret":"4a12fa95fc","server":"65535","farm":66,"title":"Pazifiktrauerente, 230304","ispublic":1,"isfriend":0,"isfamily":0},{"id":"52728427929","owner":"12639178@N07","secret":"06e9760283","server":"65535","farm":66,"title":"Belegbild: (links) Pazifiktrauerente","ispublic":1,"isfriend":0,"isfamily":0},{"id":"52713220038","owner":"81058247@N08","secret":"409a7fb3d4","server":"65535","farm":66,"title":"Black Scoters (Melanitta americana)","ispublic":1,"isfriend":0,"isfamily":0},{"id":"52713004609","owner":"81058247@N08","secret":"c34e8009de","server":"65535","farm":66,"title":"Black Scoters (Melanitta americana)","ispublic":1,"isfriend":0,"isfamily":0},{"id":"52695490682","owner":"163667952@N05","secret":"0ac288055b","server":"65535","farm":66,"title":"Black Scoter","ispublic":1,"isfriend":0,"isfamily":0},{"id":"52672703422","owner":"84169650@N07","secret":"71349fa880","server":"65535","farm":66,"title":"Black Scoter","ispublic":1,"isfriend":0,"isfamily":0},{"id":"52665234439","owner":"71649471@N02","secret":"04e2ec136d","server":"65535","farm":66,"title":"Black Scoter","ispublic":1,"isfriend":0,"isfamily":0},{"id":"52641393498","owner":"135315828@N06","secret":"db4c542433","server":"65535","farm":66,"title":"black scoter","ispublic":1,"isfriend":0,"isfamily":0},{"id":"52641177169","owner":"135315828@N06","secret":"e48ddd6fb2","server":"65535","farm":66,"title":"black scoter","ispublic":1,"isfriend":0,"isfamily":0},{"id":"52640407517","owner":"135315828@N06","secret":"cce42cd962","server":"65535","farm":66,"title":"black scoter","ispublic":1,"isfriend":0,"isfamily":0},{"id":"52638760226","owner":"67164820@N06","secret":"9347b2b8d2","server":"65535","farm":66,"title":"black scoters","ispublic":1,"isfriend":0,"isfamily":0},{"id":"52639193930","owner":"67164820@N06","secret":"46a984d5c5","server":"65535","farm":66,"title":"black scoters 2","ispublic":1,"isfriend":0,"isfamily":0},{"id":"52618969666","owner":"191038887@N04","secret":"75571fb270","server":"65535","farm":66,"title":"Macreuse \u00e0 bec jaune - Black scoter - Melanitta americana","ispublic":1,"isfriend":0,"isfamily":0},{"id":"52618457762","owner":"191038887@N04","secret":"49ecd30b0c","server":"65535","farm":66,"title":"Macreuse \u00e0 bec jaune - Black scoter - Melanitta americana","ispublic":1,"isfriend":0,"isfamily":0},{"id":"52619454123","owner":"191038887@N04","secret":"812e916045","server":"65535","farm":66,"title":"Macreuse \u00e0 bec jaune - Black scoter - Melanitta americana","ispublic":1,"isfriend":0,"isfamily":0},{"id":"52618969451","owner":"191038887@N04","secret":"53cf00fa49","server":"65535","farm":66,"title":"Macreuse \u00e0 bec jaune - Black scoter - Melanitta americana","ispublic":1,"isfriend":0,"isfamily":0},{"id":"52619402020","owner":"191038887@N04","secret":"7437d79937","server":"65535","farm":66,"title":"Macreuse \u00e0 bec jaune - Black scoter - Melanitta americana","ispublic":1,"isfriend":0,"isfamily":0},{"id":"52618193355","owner":"130605131@N08","secret":"3b36882cf8","server":"65535","farm":66,"title":"IMG_2979","ispublic":1,"isfriend":0,"isfamily":0},{"id":"52618246233","owner":"130605131@N08","secret":"7a21d89462","server":"65535","farm":66,"title":"IMG_2980","ispublic":1,"isfriend":0,"isfamily":0},{"id":"52618193290","owner":"130605131@N08","secret":"d8cf476640","server":"65535","farm":66,"title":"IMG_2983","ispublic":1,"isfriend":0,"isfamily":0},{"id":"52618246168","owner":"130605131@N08","secret":"5427149d47","server":"65535","farm":66,"title":"IMG_2984","ispublic":1,"isfriend":0,"isfamily":0},{"id":"52618193230","owner":"130605131@N08","secret":"e4c86faa18","server":"65535","farm":66,"title":"IMG_2985","ispublic":1,"isfriend":0,"isfamily":0},{"id":"52618193215","owner":"130605131@N08","secret":"d243f25c2f","server":"65535","farm":66,"title":"IMG_2987","ispublic":1,"isfriend":0,"isfamily":0},{"id":"52617758386","owner":"130605131@N08","secret":"86d0dd7662","server":"65535","farm":66,"title":"IMG_2989","ispublic":1,"isfriend":0,"isfamily":0},{"id":"52618192650","owner":"130605131@N08","secret":"8cb2634f0d","server":"65535","farm":66,"title":"IMG_2981","ispublic":1,"isfriend":0,"isfamily":0},{"id":"52591659614","owner":"34238008@N02","secret":"3d263a4915","server":"65535","farm":66,"title":"Black Scoter (Melanitta americana)","ispublic":1,"isfriend":0,"isfamily":0},{"id":"52590914902","owner":"34238008@N02","secret":"ae612a4e22","server":"65535","farm":66,"title":"Black Scoter (Melanitta americana)","ispublic":1,"isfriend":0,"isfamily":0},{"id":"52591823840","owner":"34238008@N02","secret":"70454b94c7","server":"65535","farm":66,"title":"Black Scoter (Melanitta americana)","ispublic":1,"isfriend":0,"isfamily":0},{"id":"52581221966","owner":"14734088@N02","secret":"b9faac58f1","server":"65535","farm":66,"title":"Macreuse \u00e0 bec jaune 221105H2b","ispublic":1,"isfriend":0,"isfamily":0},{"id":"52580772320","owner":"153973412@N04","secret":"3bec468064","server":"65535","farm":66,"title":"Black Scoter-Melanitta americana, Neddick Point, ME","ispublic":1,"isfriend":0,"isfamily":0},{"id":"52573492680","owner":"34238008@N02","secret":"2c0991e31e","server":"65535","farm":66,"title":"Black Scoter (Melanitta americana)","ispublic":1,"isfriend":0,"isfamily":0},{"id":"52573492515","owner":"34238008@N02","secret":"a5d432eeba","server":"65535","farm":66,"title":"Black Scoter (Melanitta americana)","ispublic":1,"isfriend":0,"isfamily":0},{"id":"52573315839","owner":"34238008@N02","secret":"43e2e38f1c","server":"65535","farm":66,"title":"Black Scoter (Melanitta americana)","ispublic":1,"isfriend":0,"isfamily":0},{"id":"52573042351","owner":"34238008@N02","secret":"5851d3642f","server":"65535","farm":66,"title":"Black Scoter (Melanitta americana)","ispublic":1,"isfriend":0,"isfamily":0},{"id":"52572574567","owner":"34238008@N02","secret":"e8b8869697","server":"65535","farm":66,"title":"Black Scoter (Melanitta americana)","ispublic":1,"isfriend":0,"isfamily":0},{"id":"52570333317","owner":"14734088@N02","secret":"ee9de2b09f","server":"65535","farm":66,"title":"Macreuse \u00e0 bec jaune 221119H1 [femelle]","ispublic":1,"isfriend":0,"isfamily":0},{"id":"52569342573","owner":"34238008@N02","secret":"effd8fdb12","server":"65535","farm":66,"title":"Black Scoter (Melanitta americana)","ispublic":1,"isfriend":0,"isfamily":0},{"id":"52568815656","owner":"34238008@N02","secret":"32a4e3951e","server":"65535","farm":66,"title":"Black Scoter (Melanitta americana)","ispublic":1,"isfriend":0,"isfamily":0},{"id":"52569341958","owner":"34238008@N02","secret":"423fe42a99","server":"65535","farm":66,"title":"Black Scoter (Melanitta americana)","ispublic":1,"isfriend":0,"isfamily":0},{"id":"52553613180","owner":"145466593@N08","secret":"3c19897e5b","server":"65535","farm":66,"title":"Black Scoter","ispublic":1,"isfriend":0,"isfamily":0},{"id":"52550034809","owner":"196264892@N08","secret":"dffaf5278f","server":"65535","farm":66,"title":"Black Scoter","ispublic":1,"isfriend":0,"isfamily":0},{"id":"52542282776","owner":"7546739@N08","secret":"10025ae951","server":"65535","farm":66,"title":"Black Scoter","ispublic":1,"isfriend":0,"isfamily":0},{"id":"52353953760","owner":"196264892@N08","secret":"1cf89fbf48","server":"65535","farm":66,"title":"Black and White-winged Scoter Males","ispublic":1,"isfriend":0,"isfamily":0},{"id":"52352584372","owner":"196264892@N08","secret":"118a94d826","server":"65535","farm":66,"title":"Black Scoter","ispublic":1,"isfriend":0,"isfamily":0},{"id":"52353951860","owner":"196264892@N08","secret":"99d21d3c0f","server":"65535","farm":66,"title":"Black Scoter","ispublic":1,"isfriend":0,"isfamily":0},{"id":"52352584027","owner":"196264892@N08","secret":"34b3fa3550","server":"65535","farm":66,"title":"Black Scoter","ispublic":1,"isfriend":0,"isfamily":0},{"id":"52353845709","owner":"196264892@N08","secret":"350e35af65","server":"65535","farm":66,"title":"Black Scoter","ispublic":1,"isfriend":0,"isfamily":0},{"id":"52353767933","owner":"196264892@N08","secret":"9b11676580","server":"65535","farm":66,"title":"Black Scoter","ispublic":1,"isfriend":0,"isfamily":0},{"id":"52353522581","owner":"196264892@N08","secret":"b71bd96f69","server":"65535","farm":66,"title":"Black Scoter","ispublic":1,"isfriend":0,"isfamily":0},{"id":"52264104431","owner":"196264892@N08","secret":"34bd891797","server":"65535","farm":66,"title":"Black Scoter","ispublic":1,"isfriend":0,"isfamily":0},{"id":"52162754454","owner":"165841515@N03","secret":"c87df7a42d","server":"65535","farm":66,"title":"Macreuse \u00e0 bec jaune \/ Black Scoter \/ (Melanitta americana)","ispublic":1,"isfriend":0,"isfamily":0},{"id":"52162514576","owner":"165841515@N03","secret":"13673f0257","server":"65535","farm":66,"title":"Macreuse \u00e0 bec jaune \/ Black Scoter \/ (Melanitta americana)","ispublic":1,"isfriend":0,"isfamily":0},{"id":"52162754234","owner":"165841515@N03","secret":"509f9d9b3c","server":"65535","farm":66,"title":"Macreuse \u00e0 bec jaune \/ Black Scoter \/ (Melanitta americana)","ispublic":1,"isfriend":0,"isfamily":0},{"id":"52134481159","owner":"62445008@N00","secret":"827295bf83","server":"65535","farm":66,"title":"Black Scoter (Melanitta americana)","ispublic":1,"isfriend":0,"isfamily":0},{"id":"52101687257","owner":"165841515@N03","secret":"298485f89d","server":"65535","farm":66,"title":"Macreuse \u00e0 bec jaune \/ Black Scoter \/ (Melanitta americana)","ispublic":1,"isfriend":0,"isfamily":0},{"id":"51911314860","owner":"39445433@N02","secret":"77b07bd74d","server":"65535","farm":66,"title":"Black Scoter","ispublic":1,"isfriend":0,"isfamily":0},{"id":"51897852716","owner":"128537732@N06","secret":"ab653a1c0e","server":"65535","farm":66,"title":"Black Scoter (Melanitta americana)","ispublic":1,"isfriend":0,"isfamily":0},{"id":"51845191178","owner":"193443384@N07","secret":"3fd354b974","server":"65535","farm":66,"title":"Latest Sightings     Galleries     Species Guide     Sites     Listing     News     Articles  Black Scoter (Melanitta americana)","ispublic":1,"isfriend":0,"isfamily":0},{"id":"51830084685","owner":"62043870@N05","secret":"80347acb72","server":"65535","farm":66,"title":"Black Scoter, Melanitta americana","ispublic":1,"isfriend":0,"isfamily":0},{"id":"51828407857","owner":"62043870@N05","secret":"1bb4a3039a","server":"65535","farm":66,"title":"Black Scoter, Melanitta americana","ispublic":1,"isfriend":0,"isfamily":0},{"id":"51829701519","owner":"62043870@N05","secret":"e3aede06b8","server":"65535","farm":66,"title":"Black Scoter, Melanitta americana","ispublic":1,"isfriend":0,"isfamily":0},{"id":"51828407352","owner":"62043870@N05","secret":"fa40377911","server":"65535","farm":66,"title":"Black Scoter, Melanitta americana","ispublic":1,"isfriend":0,"isfamily":0},{"id":"51807780995","owner":"103722035@N06","secret":"e4bae50bf4","server":"0","farm":0,"title":"Black Scoter (Melanitta americana), Avila Beach, CA","ispublic":1,"isfriend":0,"isfamily":0},{"id":"51802676735","owner":"130819719@N05","secret":"fa97832282","server":"65535","farm":66,"title":"Black Scoter (m)","ispublic":1,"isfriend":0,"isfamily":0},{"id":"51786310865","owner":"71933035@N00","secret":"81e0901f2b","server":"65535","farm":66,"title":"Hanging together - Female Greater Scaup (Aythya marila) and Female Black Scoter (Melanitta americana) at Rainbow haven Nova Scotia","ispublic":1,"isfriend":0,"isfamily":0},{"id":"51785689778","owner":"71933035@N00","secret":"160e30e1ce","server":"65535","farm":66,"title":"Female Black Scoter (Melanitta americana) at Rainbow haven Nova Scotia","ispublic":1,"isfriend":0,"isfamily":0},{"id":"51605868604","owner":"134270033@N06","secret":"b30c5fa5d2","server":"65535","farm":66,"title":"HTT  :: Happy Tuesday Twosday","ispublic":1,"isfriend":0,"isfamily":0},{"id":"51384380474","owner":"36611483@N03","secret":"5b2d463e77","server":"65535","farm":66,"title":"Common Scoter","ispublic":1,"isfriend":0,"isfamily":0},{"id":"51313401793","owner":"36611483@N03","secret":"c9e87613a6","server":"65535","farm":66,"title":"Scoters","ispublic":1,"isfriend":0,"isfamily":0},{"id":"51264727750","owner":"61021753@N02","secret":"c07499d49a","server":"65535","farm":66,"title":"n152_w1150","ispublic":1,"isfriend":0,"isfamily":0},{"id":"51174240361","owner":"163667952@N05","secret":"56b79fe54a","server":"65535","farm":66,"title":"Black Scoter","ispublic":1,"isfriend":0,"isfamily":0},{"id":"51158480918","owner":"21702714@N06","secret":"5c3f65061d","server":"65535","farm":66,"title":"Black Scoter","ispublic":1,"isfriend":0,"isfamily":0},{"id":"51016579990","owner":"69812270@N00","secret":"f07d12cd4a","server":"65535","farm":66,"title":"Black Scoters, female and male.","ispublic":1,"isfriend":0,"isfamily":0},{"id":"51069288376","owner":"71933035@N00","secret":"4056e7a76c","server":"65535","farm":66,"title":"We have lift-off - Black Scoters (Melanitta americana) at Eastern Passage Nova Scotia","ispublic":1,"isfriend":0,"isfamily":0},{"id":"51069288281","owner":"71933035@N00","secret":"d4f8824a5c","server":"65535","farm":66,"title":"On the wing - Black Scoters (Melanitta americana) at Eastern Passage Nova Scotia","ispublic":1,"isfriend":0,"isfamily":0},{"id":"51068584278","owner":"71933035@N00","secret":"7889828d5a","server":"65535","farm":66,"title":"Black Scoters (Melanitta americana) at Eastern Passage Nova Scotia","ispublic":1,"isfriend":0,"isfamily":0},{"id":"51069383272","owner":"71933035@N00","secret":"b3f28cc092","server":"65535","farm":66,"title":"What appears to be a White-winged Scoter (Melanitta deglandi) among Black Scoters (Melanitta americana) at Eastern Passage Nova Scotia 2","ispublic":1,"isfriend":0,"isfamily":0},{"id":"51022480983","owner":"61021753@N02","secret":"679bf5316c","server":"65535","farm":66,"title":"n258_w1150","ispublic":1,"isfriend":0,"isfamily":0},{"id":"52667837791","owner":"62043870@N05","secret":"6e6fd672a5","server":"65535","farm":66,"title":"Black Scoter, Melanitta americana","ispublic":1,"isfriend":0,"isfamily":0},{"id":"52617758476","owner":"130605131@N08","secret":"f2fe1ee018","server":"65535","farm":66,"title":"IMG_2982","ispublic":1,"isfriend":0,"isfamily":0},{"id":"52617758411","owner":"130605131@N08","secret":"42866696ea","server":"65535","farm":66,"title":"IMG_2988","ispublic":1,"isfriend":0,"isfamily":0},{"id":"52618193155","owner":"130605131@N08","secret":"fae3b1040f","server":"65535","farm":66,"title":"IMG_2990","ispublic":1,"isfriend":0,"isfamily":0},{"id":"52181965664","owner":"48014585@N00","secret":"d3c6967b09","server":"65535","farm":66,"title":"Black Scoter","ispublic":1,"isfriend":0,"isfamily":0},{"id":"51738915790","owner":"54549270@N03","secret":"8baf0dc9f5","server":"65535","farm":66,"title":"Black Scoter males-'Melanitta americana'","ispublic":1,"isfriend":0,"isfamily":0}]},"stat":"ok"}