{"photos":{"page":1,"pages":20,"perpage":100,"total":1985,"photo":[{"id":"52710213634","owner":"165841515@N03","secret":"3abc6c6fce","server":"65535","farm":66,"title":"Paruline \u00e0 gorge orang\u00e9e \/ Blackburnian Warbler \/ (Setophaga fusca)","ispublic":1,"isfriend":0,"isfamily":0},{"id":"52668293842","owner":"136180232@N08","secret":"6ceafafa52","server":"65535","farm":66,"title":"Blackburnian Warbler (Setophaga fusca) JTE_2503","ispublic":1,"isfriend":0,"isfamily":0},{"id":"52661502978","owner":"21606110@N08","secret":"c7a0a9083f","server":"65535","farm":66,"title":"Blackburnian Warbler","ispublic":1,"isfriend":0,"isfamily":0},{"id":"52661295529","owner":"21606110@N08","secret":"ace1ec4598","server":"65535","farm":66,"title":"Blackburnian Warbler","ispublic":1,"isfriend":0,"isfamily":0},{"id":"52661010826","owner":"21606110@N08","secret":"3fcbd9aff8","server":"65535","farm":66,"title":"Blackburnian Warbler","ispublic":1,"isfriend":0,"isfamily":0},{"id":"52656120145","owner":"72271115@N02","secret":"796d8de160","server":"65535","farm":66,"title":"Blackburnian Warbler --- Setophaga fusca","ispublic":1,"isfriend":0,"isfamily":0},{"id":"52645345678","owner":"8264176@N02","secret":"9000e067ec","server":"65535","farm":66,"title":"BirdsofColombia - Blackburnian Warbler (\u2640)  \u00b7  Setophaga fusca - 245396-","ispublic":1,"isfriend":0,"isfamily":0},{"id":"52644364687","owner":"8264176@N02","secret":"f1efd5b061","server":"65535","farm":66,"title":"BirdsofColombia - Blackburnian Warbler (\u2642)  \u00b7  Setophaga fusca - 245396","ispublic":1,"isfriend":0,"isfamily":0},{"id":"52635495147","owner":"95747238@N07","secret":"7df4d187cd","server":"65535","farm":66,"title":"Setophaga fusca 1","ispublic":1,"isfriend":0,"isfamily":0},{"id":"52635985225","owner":"27794127@N07","secret":"0b8f347c41","server":"65535","farm":66,"title":"Setophaga fusca","ispublic":1,"isfriend":0,"isfamily":0},{"id":"52606043278","owner":"48938938@N04","secret":"c4b0800cdb","server":"65535","farm":66,"title":"Blackburnian Warbler_Setophaga fusca_Ascanio_Colombia_DZ3A1299","ispublic":1,"isfriend":0,"isfamily":0},{"id":"52579301463","owner":"196786375@N03","secret":"d622a84a53","server":"65535","farm":66,"title":"Blackburnian Warbler","ispublic":1,"isfriend":0,"isfamily":0},{"id":"52576129652","owner":"196567058@N02","secret":"fb97fd99ed","server":"65535","farm":66,"title":"Setophaga fusca - Reinita americana","ispublic":1,"isfriend":0,"isfamily":0},{"id":"52576866859","owner":"196567058@N02","secret":"d4db602524","server":"65535","farm":66,"title":"Setophaga fusca - Reinita americana","ispublic":1,"isfriend":0,"isfamily":0},{"id":"52575256527","owner":"151361315@N06","secret":"4ea1754713","server":"65535","farm":66,"title":"Blackburnian Warbler male takes flight \u2022 West Barrier Bar Park, Fairhaven NY \u2022 2020","ispublic":1,"isfriend":0,"isfamily":0},{"id":"52545204087","owner":"48311154@N02","secret":"cfb4f26a91","server":"65535","farm":66,"title":"Blackburnian Warbler in August","ispublic":1,"isfriend":0,"isfamily":0},{"id":"52461087551","owner":"140318147@N08","secret":"b33234af95","server":"65535","farm":66,"title":"Blackburnian warbler (Setophaga fusca) L4A6241","ispublic":1,"isfriend":0,"isfamily":0},{"id":"52460570527","owner":"140318147@N08","secret":"1e3f8211b5","server":"65535","farm":66,"title":"Blackburnian warbler (Setophaga fusca) L4A6249","ispublic":1,"isfriend":0,"isfamily":0},{"id":"52360186320","owner":"24309230@N03","secret":"6cd16a653b","server":"65535","farm":66,"title":"Blackburnian Warbler","ispublic":1,"isfriend":0,"isfamily":0},{"id":"52339909640","owner":"90886369@N06","secret":"3ff5dd37f9","server":"65535","farm":66,"title":"Blackburnian Warbler (Setophaga fusca)","ispublic":1,"isfriend":0,"isfamily":0},{"id":"52322243054","owner":"130605131@N08","secret":"05b2fdd167","server":"65535","farm":66,"title":"IMG_1773","ispublic":1,"isfriend":0,"isfamily":0},{"id":"52307445994","owner":"48311154@N02","secret":"4e30691a50","server":"65535","farm":66,"title":"Blackburnian Warbler (headed south for the winter)","ispublic":1,"isfriend":0,"isfamily":0},{"id":"52307445704","owner":"48311154@N02","secret":"74cf6fb5e4","server":"65535","farm":66,"title":"Checking me out?","ispublic":1,"isfriend":0,"isfamily":0},{"id":"52296945230","owner":"107784905@N04","secret":"c89fe6a329","server":"65535","farm":66,"title":"Paruline \u00e0 gorge orang\u00e9e - Rancho Naturalista\/Cartago\/Costa Rica_20211127_002-1","ispublic":1,"isfriend":0,"isfamily":0},{"id":"52278559906","owner":"49114357@N08","secret":"d1450e5d8f","server":"65535","farm":66,"title":"Blackburnian Warbler","ispublic":1,"isfriend":0,"isfamily":0},{"id":"52274143274","owner":"165841515@N03","secret":"a5fb17b6c6","server":"65535","farm":66,"title":"Paruline \u00e0 gorge orang\u00e9e \/ Blackburnian Warbler \/ (Setophaga fusca)","ispublic":1,"isfriend":0,"isfamily":0},{"id":"52272909777","owner":"165841515@N03","secret":"bb69a5693b","server":"65535","farm":66,"title":"Paruline \u00e0 gorge orang\u00e9e \/ Blackburnian Warbler \/ (Setophaga fusca)","ispublic":1,"isfriend":0,"isfamily":0},{"id":"52272909612","owner":"165841515@N03","secret":"ef85613d7a","server":"65535","farm":66,"title":"Paruline \u00e0 gorge orang\u00e9e \/ Blackburnian Warbler \/ (Setophaga fusca)","ispublic":1,"isfriend":0,"isfamily":0},{"id":"52245974111","owner":"81804225@N08","secret":"2e474a8716","server":"65535","farm":66,"title":"Blackburnian Warbler (Setophaga fusca)","ispublic":1,"isfriend":0,"isfamily":0},{"id":"52211803852","owner":"76689095@N07","secret":"c94af13992","server":"65535","farm":66,"title":"Paruline \u00e0 gorge orang\u00e9e - Blackburnian Warbler - Setophaga fusca","ispublic":1,"isfriend":0,"isfamily":0},{"id":"52197917159","owner":"168495655@N07","secret":"fab4422c07","server":"65535","farm":66,"title":"Paruline \u00e0 gorge orang\u00e9e - Setophaga fusca - Blackburnian Warbler","ispublic":1,"isfriend":0,"isfamily":0},{"id":"52182863772","owner":"25268283@N06","secret":"b0680874d7","server":"65535","farm":66,"title":"Blackburnian Warbler","ispublic":1,"isfriend":0,"isfamily":0},{"id":"52177727381","owner":"56686021@N04","secret":"ec17af1e1a","server":"65535","farm":66,"title":"Blackburnian Warbler","ispublic":1,"isfriend":0,"isfamily":0},{"id":"52167263566","owner":"131708321@N02","secret":"de245d90ff","server":"65535","farm":66,"title":"Blackburnian Warbler (Setophaga fusca), Montreal, Quebec, Canada","ispublic":1,"isfriend":0,"isfamily":0},{"id":"52167089403","owner":"120449047@N06","secret":"0197c588f3","server":"65535","farm":66,"title":"Blackburnian Warbler","ispublic":1,"isfriend":0,"isfamily":0},{"id":"52152920387","owner":"28499865@N07","secret":"f9bfa0b4ee","server":"65535","farm":66,"title":"Blackburnian Warbler - Setophaga fusca","ispublic":1,"isfriend":0,"isfamily":0},{"id":"52153937333","owner":"28499865@N07","secret":"3d75114509","server":"65535","farm":66,"title":"Blackburnian Warbler - Setophaga fusca","ispublic":1,"isfriend":0,"isfamily":0},{"id":"52152920377","owner":"28499865@N07","secret":"6fbb80182d","server":"65535","farm":66,"title":"Blackburnian Warbler - Setophaga fusca","ispublic":1,"isfriend":0,"isfamily":0},{"id":"52154171374","owner":"28499865@N07","secret":"2aed78e72c","server":"65535","farm":66,"title":"Blackburnian Warbler - Setophaga fusca","ispublic":1,"isfriend":0,"isfamily":0},{"id":"52154426045","owner":"28499865@N07","secret":"10d376716e","server":"65535","farm":66,"title":"Blackburnian Warbler - Setophaga fusca","ispublic":1,"isfriend":0,"isfamily":0},{"id":"52153930211","owner":"28499865@N07","secret":"4c23ea9648","server":"65535","farm":66,"title":"Blackburnian Warbler - Setophaga fusca","ispublic":1,"isfriend":0,"isfamily":0},{"id":"52149578391","owner":"55527686@N03","secret":"dc66260260","server":"65535","farm":66,"title":"Blackburnian Warbler (Setophaga fusca)","ispublic":1,"isfriend":0,"isfamily":0},{"id":"52149703926","owner":"16447555@N02","secret":"c50848b4eb","server":"65535","farm":66,"title":"Blackburnian Warbler_IMG_0543_edited-1","ispublic":1,"isfriend":0,"isfamily":0},{"id":"52145981914","owner":"147283349@N08","secret":"f041982de6","server":"65535","farm":66,"title":"Setophaga fusca","ispublic":1,"isfriend":0,"isfamily":0},{"id":"52144294476","owner":"39138537@N06","secret":"1a149e5a83","server":"65535","farm":66,"title":"Blackburnian Warbler (Setophaga fusca)","ispublic":1,"isfriend":0,"isfamily":0},{"id":"52144294361","owner":"39138537@N06","secret":"bdc38d651e","server":"65535","farm":66,"title":"Blackburnian Warbler (Setophaga fusca)","ispublic":1,"isfriend":0,"isfamily":0},{"id":"52144532744","owner":"39138537@N06","secret":"1497d72e6a","server":"65535","farm":66,"title":"Blackburnian Warbler (Setophaga fusca)","ispublic":1,"isfriend":0,"isfamily":0},{"id":"52144532659","owner":"39138537@N06","secret":"139d0807c7","server":"65535","farm":66,"title":"Blackburnian Warbler (Setophaga fusca)","ispublic":1,"isfriend":0,"isfamily":0},{"id":"52137396951","owner":"185659367@N04","secret":"9f18056db5","server":"65535","farm":66,"title":"Blackburnian Warbler","ispublic":1,"isfriend":0,"isfamily":0},{"id":"52136907470","owner":"86191812@N07","secret":"3232540ca5","server":"65535","farm":66,"title":"Blackburnian Warbler (Setophaga fusca)","ispublic":1,"isfriend":0,"isfamily":0},{"id":"52136330110","owner":"92361032@N05","secret":"19366520c0","server":"65535","farm":66,"title":"Blackburnian Warbler \/ Paruline \u00e0 gorge orang\u00e9e( Richard )","ispublic":1,"isfriend":0,"isfamily":0},{"id":"52122891777","owner":"66947051@N07","secret":"5e735e6aab","server":"65535","farm":66,"title":"Blackburnian warbler \/ Paruline \u00e0 gorge orang\u00e9e (Setophaga fusca) - Female","ispublic":1,"isfriend":0,"isfamily":0},{"id":"52114371412","owner":"65832984@N06","secret":"b0b6dee771","server":"65535","farm":66,"title":"Blackburnian Warbler","ispublic":1,"isfriend":0,"isfamily":0},{"id":"52111208595","owner":"39138537@N06","secret":"8593dc6e71","server":"65535","farm":66,"title":"Blackburnian Warbler (Setophaga fusca)","ispublic":1,"isfriend":0,"isfamily":0},{"id":"52110698326","owner":"39138537@N06","secret":"0c25a61911","server":"65535","farm":66,"title":"Blackburnian Warbler (Setophaga fusca)","ispublic":1,"isfriend":0,"isfamily":0},{"id":"52103553885","owner":"73654511@N05","secret":"d5aa84d3f4","server":"65535","farm":66,"title":"L0A6083-Blackburnian Warbler","ispublic":1,"isfriend":0,"isfamily":0},{"id":"52092768112","owner":"53247049@N07","secret":"5e00330893","server":"65535","farm":66,"title":"BLACKBURNIAN WARBLER Male Setophaga fusca Overhead in Mindo in Northwestern ECUADOR. Warbler Photo by Peter Wendelken.","ispublic":1,"isfriend":0,"isfamily":0},{"id":"52090189295","owner":"135315828@N06","secret":"a9f7efd648","server":"65535","farm":66,"title":"blackburnian warbler","ispublic":1,"isfriend":0,"isfamily":0},{"id":"52083944457","owner":"13604536@N02","secret":"50af677e91","server":"65535","farm":66,"title":"Blackburnian Warbler","ispublic":1,"isfriend":0,"isfamily":0},{"id":"52084345498","owner":"128537732@N06","secret":"9b79c2d1a6","server":"65535","farm":66,"title":"Blackburnian Warbler (Setophaga fusca)","ispublic":1,"isfriend":0,"isfamily":0},{"id":"52080012774","owner":"39138537@N06","secret":"b5df84caf8","server":"65535","farm":66,"title":"Blackburnian Warbler (Setophaga fusca)","ispublic":1,"isfriend":0,"isfamily":0},{"id":"52079781401","owner":"39138537@N06","secret":"499b07a5ff","server":"65535","farm":66,"title":"Blackburnian Warbler (Setophaga fusca)","ispublic":1,"isfriend":0,"isfamily":0},{"id":"52079781376","owner":"39138537@N06","secret":"e97671aa55","server":"65535","farm":66,"title":"Blackburnian Warbler (Setophaga fusca)","ispublic":1,"isfriend":0,"isfamily":0},{"id":"52073908156","owner":"67164820@N06","secret":"36afb875af","server":"65535","farm":66,"title":"Blackburnian","ispublic":1,"isfriend":0,"isfamily":0},{"id":"52064910345","owner":"36685968@N00","secret":"cc1f7f866b","server":"65535","farm":66,"title":"Blackburnian Warbler (Setophaga fusca)","ispublic":1,"isfriend":0,"isfamily":0},{"id":"52059025241","owner":"13451078@N03","secret":"6b0130013f","server":"65535","farm":66,"title":"Blackburnian Warbler ( Setophaga fusca)","ispublic":1,"isfriend":0,"isfamily":0},{"id":"52059018666","owner":"13451078@N03","secret":"3deb8faae6","server":"65535","farm":66,"title":"Blackburnian Warbler (Setophaga fusca)","ispublic":1,"isfriend":0,"isfamily":0},{"id":"52666341000","owner":"136180232@N08","secret":"48c981f224","server":"65535","farm":66,"title":"Blackburnian Warbler (Setophaga fusca) JTE_2145","ispublic":1,"isfriend":0,"isfamily":0},{"id":"52666405128","owner":"136180232@N08","secret":"bffb4899bc","server":"65535","farm":66,"title":"Blackburnian Warbler (Setophaga fusca) JTE_2137","ispublic":1,"isfriend":0,"isfamily":0},{"id":"52666340910","owner":"136180232@N08","secret":"f525f2cb19","server":"65535","farm":66,"title":"Blackburnian Warbler (Setophaga fusca) JTE_2128","ispublic":1,"isfriend":0,"isfamily":0},{"id":"52648832294","owner":"12639178@N07","secret":"580a1b1577","server":"65535","farm":66,"title":"Fichtenwalds\u00e4nger","ispublic":1,"isfriend":0,"isfamily":0},{"id":"52648563816","owner":"12639178@N07","secret":"09bd60391c","server":"65535","farm":66,"title":"Fichtenwalds\u00e4nger","ispublic":1,"isfriend":0,"isfamily":0},{"id":"52606043178","owner":"48938938@N04","secret":"361647b6fb","server":"65535","farm":66,"title":"Blackburnian Warbler_Setophaga fusca_Ascanio_Colombia_DZ3A1300","ispublic":1,"isfriend":0,"isfamily":0},{"id":"52605540936","owner":"48938938@N04","secret":"f78f25e3f5","server":"65535","farm":66,"title":"Blackburnian Warbler_Setophaga fusca_Ascanio_Colombia_DZ3A1301","ispublic":1,"isfriend":0,"isfamily":0},{"id":"52579963777","owner":"153973412@N04","secret":"13cc1ed029","server":"65535","farm":66,"title":"Blackburnian Warbler-Setophaga fusca, Iowa City, IA","ispublic":1,"isfriend":0,"isfamily":0},{"id":"52495322964","owner":"86666094@N00","secret":"9a945e13d8","server":"65535","farm":66,"title":"Blackburnian warbler","ispublic":1,"isfriend":0,"isfamily":0},{"id":"52416715253","owner":"99208129@N08","secret":"fb87dc4450","server":"65535","farm":66,"title":"Setophaga fusca \/ Blackburnian Warbler","ispublic":1,"isfriend":0,"isfamily":0},{"id":"52413756183","owner":"61241315@N00","secret":"cce793c218","server":"65535","farm":66,"title":"Blackburnian Warbler_N2469","ispublic":1,"isfriend":0,"isfamily":0},{"id":"52412727582","owner":"61241315@N00","secret":"663cdaab1b","server":"65535","farm":66,"title":"Blackburnian Warbler_N2471","ispublic":1,"isfriend":0,"isfamily":0},{"id":"52413756118","owner":"61241315@N00","secret":"96245c4b82","server":"65535","farm":66,"title":"Blackburnian Warbler_N2479","ispublic":1,"isfriend":0,"isfamily":0},{"id":"52412727482","owner":"61241315@N00","secret":"f4895a86ea","server":"65535","farm":66,"title":"Blackburnian Warbler_N2481","ispublic":1,"isfriend":0,"isfamily":0},{"id":"52259578577","owner":"184155060@N04","secret":"5a8100085e","server":"65535","farm":66,"title":"32796 Paruline \u00e0 gorge orang\u00e9e (m\u00e2le) \/ Setophaga fusca \/ Blackburnian Warbler","ispublic":1,"isfriend":0,"isfamily":0},{"id":"52151845197","owner":"39177293@N03","secret":"594dba38b5","server":"65535","farm":66,"title":"Blackburnian Warbler","ispublic":1,"isfriend":0,"isfamily":0},{"id":"52152862258","owner":"39177293@N03","secret":"1430f99e0f","server":"65535","farm":66,"title":"Blackburnian Warbler","ispublic":1,"isfriend":0,"isfamily":0},{"id":"52153350775","owner":"39177293@N03","secret":"e381b313b2","server":"65535","farm":66,"title":"Blackburnian Warbler","ispublic":1,"isfriend":0,"isfamily":0},{"id":"52152852281","owner":"39177293@N03","secret":"aa5531fbf6","server":"65535","farm":66,"title":"Blackburnian Warbler","ispublic":1,"isfriend":0,"isfamily":0},{"id":"52133930222","owner":"136180232@N08","secret":"f4c013cda5","server":"65535","farm":66,"title":"Blackburnian Warbler (Setophaga fusca) JTD_9766","ispublic":1,"isfriend":0,"isfamily":0},{"id":"52114485299","owner":"120449047@N06","secret":"dc8ce8fb3f","server":"65535","farm":66,"title":"Blackburnian Warbler (25\/35)","ispublic":1,"isfriend":0,"isfamily":0},{"id":"52113669804","owner":"21154755@N03","secret":"451a26c182","server":"65535","farm":66,"title":"_DSC0373-4KDCI","ispublic":1,"isfriend":0,"isfamily":0},{"id":"52111208525","owner":"39138537@N06","secret":"9ee19727cb","server":"65535","farm":66,"title":"Blackburnian Warbler (Setophaga fusca)","ispublic":1,"isfriend":0,"isfamily":0},{"id":"52097539446","owner":"136180232@N08","secret":"d7bd76c3bc","server":"65535","farm":66,"title":"Blackburnian Warbler (Setophaga fusca) JTD_9272","ispublic":1,"isfriend":0,"isfamily":0},{"id":"52094723649","owner":"139237357@N06","secret":"0d2ce8e9e8","server":"65535","farm":66,"title":"Blackburnian Warbler","ispublic":1,"isfriend":0,"isfamily":0},{"id":"52085623963","owner":"36685968@N00","secret":"96c0485c91","server":"65535","farm":66,"title":"Blackburnian Warbler (Setophaga fusca)","ispublic":1,"isfriend":0,"isfamily":0},{"id":"52083823582","owner":"32752434@N07","secret":"5cbe58f222","server":"65535","farm":66,"title":"Blackburnian Warbler (Setophaga fusca)","ispublic":1,"isfriend":0,"isfamily":0},{"id":"52083503028","owner":"69947563@N07","secret":"5c9d744c0e","server":"65535","farm":66,"title":"Blackburnian Warbler - Point Pelee National Park, Ontario, Canada","ispublic":1,"isfriend":0,"isfamily":0},{"id":"52079781421","owner":"39138537@N06","secret":"baab0044d2","server":"65535","farm":66,"title":"Blackburnian Warbler (Setophaga fusca)","ispublic":1,"isfriend":0,"isfamily":0},{"id":"52080012734","owner":"39138537@N06","secret":"678933ec52","server":"65535","farm":66,"title":"Blackburnian Warbler (Setophaga fusca)","ispublic":1,"isfriend":0,"isfamily":0},{"id":"52064439558","owner":"36685968@N00","secret":"5ac456dcd7","server":"65535","farm":66,"title":"Blackburnian Warbler (Setophaga fusca)","ispublic":1,"isfriend":0,"isfamily":0},{"id":"52055841572","owner":"135315828@N06","secret":"5cb403b14f","server":"65535","farm":66,"title":"blackburnian warbler","ispublic":1,"isfriend":0,"isfamily":0},{"id":"52056885186","owner":"135315828@N06","secret":"9c7521b684","server":"65535","farm":66,"title":"blackburnian warbler","ispublic":1,"isfriend":0,"isfamily":0}]},"stat":"ok"}