{"photos":{"page":1,"pages":73,"perpage":100,"total":7270,"photo":[{"id":"52788450244","owner":"135315828@N06","secret":"786558195e","server":"65535","farm":66,"title":"black skimmer","ispublic":1,"isfriend":0,"isfamily":0},{"id":"52788452033","owner":"191213614@N06","secret":"4417537e37","server":"65535","farm":66,"title":"Rayador.    -Rynchops niger-","ispublic":1,"isfriend":0,"isfamily":0},{"id":"52781278398","owner":"51433704@N06","secret":"fa22b75f66","server":"65535","farm":66,"title":"Black Skimmer","ispublic":1,"isfriend":0,"isfamily":0},{"id":"52770864464","owner":"79791500@N05","secret":"e341958968","server":"65535","farm":66,"title":"The Birds","ispublic":1,"isfriend":0,"isfamily":0},{"id":"52758601856","owner":"8561740@N08","secret":"11a50f2f54","server":"65535","farm":66,"title":"Skimmers skimming","ispublic":1,"isfriend":0,"isfamily":0},{"id":"52758058772","owner":"8561740@N08","secret":"eee696173c","server":"65535","farm":66,"title":"Skimmers skimming","ispublic":1,"isfriend":0,"isfamily":0},{"id":"52759084488","owner":"8561740@N08","secret":"963998170f","server":"65535","farm":66,"title":"Skimmers skimming","ispublic":1,"isfriend":0,"isfamily":0},{"id":"52742365306","owner":"84547312@N00","secret":"a12c43b6ec","server":"65535","farm":66,"title":"Stump Pass Beach State Park Scene","ispublic":1,"isfriend":0,"isfamily":0},{"id":"52739422298","owner":"186193378@N07","secret":"3eb434f1d3","server":"65535","farm":66,"title":"Talha-mar (Rynchops niger) Black Skimmer","ispublic":1,"isfriend":0,"isfamily":0},{"id":"52738914749","owner":"84547312@N00","secret":"9aeea04337","server":"65535","farm":66,"title":"Black Skimmers","ispublic":1,"isfriend":0,"isfamily":0},{"id":"52738001145","owner":"69812270@N00","secret":"c1977f47cf","server":"65535","farm":66,"title":"Black Skimmer, Western Gull, Small-billed (Mew Gull), Ring-billed Gull, and California Gull","ispublic":1,"isfriend":0,"isfamily":0},{"id":"52735567293","owner":"103722035@N06","secret":"0cc5899ed3","server":"0","farm":0,"title":"Black Skimmer (Rynchops niger), Morro Bay, CA","ispublic":1,"isfriend":0,"isfamily":0},{"id":"52732679777","owner":"193356513@N06","secret":"3655bc995e","server":"65535","farm":66,"title":"Rynchops Niger \"Rayador\"","ispublic":1,"isfriend":0,"isfamily":0},{"id":"52733203096","owner":"193356513@N06","secret":"ee6551d91a","server":"65535","farm":66,"title":"Rynchops Niger \"Rayador\"","ispublic":1,"isfriend":0,"isfamily":0},{"id":"52732679632","owner":"193356513@N06","secret":"1b2b61c44f","server":"65535","farm":66,"title":"Rynchops Niger \"Rayador\"","ispublic":1,"isfriend":0,"isfamily":0},{"id":"52729730957","owner":"53358437@N07","secret":"b212f449ca","server":"65535","farm":66,"title":"Black Skimmer (Rynchops niger)","ispublic":1,"isfriend":0,"isfamily":0},{"id":"52728587981","owner":"69812270@N00","secret":"e33c9a732b","server":"65535","farm":66,"title":"Black Skimmer, Rynchops niger, San Lorenzo River Mouth","ispublic":1,"isfriend":0,"isfamily":0},{"id":"52727858325","owner":"127954172@N03","secret":"beaa8b298d","server":"65535","farm":66,"title":"rayador_NGR7588","ispublic":1,"isfriend":0,"isfamily":0},{"id":"52722661830","owner":"185671185@N06","secret":"e5985a88ab","server":"65535","farm":66,"title":"Rayador - Black Skimmer","ispublic":1,"isfriend":0,"isfamily":0},{"id":"52722098100","owner":"51433704@N06","secret":"04e0f46ae8","server":"65535","farm":66,"title":"Black Skimmer","ispublic":1,"isfriend":0,"isfamily":0},{"id":"52720625711","owner":"52170431@N04","secret":"0a2d6c227d","server":"65535","farm":66,"title":"Black Skimmer (Rynchops niger niger), adult breeding DSD_0523","ispublic":1,"isfriend":0,"isfamily":0},{"id":"52719443063","owner":"73683441@N07","secret":"3d47c9da90","server":"65535","farm":66,"title":"Black Skimmer (Rynchops niger)","ispublic":1,"isfriend":0,"isfamily":0},{"id":"52717802821","owner":"51433704@N06","secret":"f1c8e2de14","server":"65535","farm":66,"title":"Black Skimmers","ispublic":1,"isfriend":0,"isfamily":0},{"id":"52711269067","owner":"73431753@N00","secret":"4cc7c7cd5d","server":"65535","farm":66,"title":"Black Skimmers rainy day salt pan","ispublic":1,"isfriend":0,"isfamily":0},{"id":"52685150967","owner":"40723658@N05","secret":"1d962c0b02","server":"65535","farm":66,"title":"Black Skimmers","ispublic":1,"isfriend":0,"isfamily":0},{"id":"52685942989","owner":"40723658@N05","secret":"5bfc94c226","server":"65535","farm":66,"title":"Black Skimmer","ispublic":1,"isfriend":0,"isfamily":0},{"id":"52681939845","owner":"23711298@N07","secret":"2759a3401c","server":"65535","farm":66,"title":"Tern- Black Skimmer, Florida, Collier County- Marco Island","ispublic":1,"isfriend":0,"isfamily":0},{"id":"52681791904","owner":"23711298@N07","secret":"187bcef70e","server":"65535","farm":66,"title":"Tern- Black Skimmer, Florida, Collier County, Marco Island","ispublic":1,"isfriend":0,"isfamily":0},{"id":"52680347445","owner":"51433704@N06","secret":"32b671289d","server":"65535","farm":66,"title":"Black Skimmer","ispublic":1,"isfriend":0,"isfamily":0},{"id":"52678367726","owner":"124995824@N08","secret":"76e56290d4","server":"65535","farm":66,"title":"Black Skimmer - Rynchops niger","ispublic":1,"isfriend":0,"isfamily":0},{"id":"52678366876","owner":"124995824@N08","secret":"80cff903c6","server":"65535","farm":66,"title":"Black Skimmer - Rynchops niger","ispublic":1,"isfriend":0,"isfamily":0},{"id":"52669664464","owner":"40723658@N05","secret":"f002bf61b0","server":"65535","farm":66,"title":"Black Skimmers","ispublic":1,"isfriend":0,"isfamily":0},{"id":"52666219897","owner":"88932760@N08","secret":"1fc67577eb","server":"65535","farm":66,"title":"Deploy Landing Gear! #1","ispublic":1,"isfriend":0,"isfamily":0},{"id":"52662790079","owner":"51433704@N06","secret":"f85d73cf88","server":"65535","farm":66,"title":"Black Skimmer","ispublic":1,"isfriend":0,"isfamily":0},{"id":"52661665764","owner":"39177293@N03","secret":"36c3dd6265","server":"65535","farm":66,"title":"Black Skimmer","ispublic":1,"isfriend":0,"isfamily":0},{"id":"52661665684","owner":"39177293@N03","secret":"879ef33b57","server":"65535","farm":66,"title":"Black Skimmer, Royal Tern and Laughing Gulls","ispublic":1,"isfriend":0,"isfamily":0},{"id":"52657535462","owner":"51433704@N06","secret":"5a24719f5b","server":"65535","farm":66,"title":"Black Skimmer","ispublic":1,"isfriend":0,"isfamily":0},{"id":"52653082276","owner":"88932760@N08","secret":"0780bf6a5b","server":"65535","farm":66,"title":"Slicing the Sea","ispublic":1,"isfriend":0,"isfamily":0},{"id":"52652826864","owner":"88932760@N08","secret":"588637eaed","server":"65535","farm":66,"title":"Down the Wrong Pipe","ispublic":1,"isfriend":0,"isfamily":0},{"id":"52651592219","owner":"62043870@N05","secret":"e3c5c1ea70","server":"65535","farm":66,"title":"Black Skimmer, Rynchops niger","ispublic":1,"isfriend":0,"isfamily":0},{"id":"52651319696","owner":"62043870@N05","secret":"9597c1c397","server":"65535","farm":66,"title":"Black Skimmer, Rynchops niger","ispublic":1,"isfriend":0,"isfamily":0},{"id":"52651799098","owner":"62043870@N05","secret":"c9c931117a","server":"65535","farm":66,"title":"Black Skimmer, Rynchops niger","ispublic":1,"isfriend":0,"isfamily":0},{"id":"52651796328","owner":"62043870@N05","secret":"165efa527c","server":"65535","farm":66,"title":"Black Skimmer, Rynchops niger","ispublic":1,"isfriend":0,"isfamily":0},{"id":"52651585594","owner":"62043870@N05","secret":"16773e59d8","server":"65535","farm":66,"title":"Black Skimmer, Rynchops niger","ispublic":1,"isfriend":0,"isfamily":0},{"id":"52650818892","owner":"62043870@N05","secret":"5bab5f0ea1","server":"65535","farm":66,"title":"Black Skimmer, Rynchops niger","ispublic":1,"isfriend":0,"isfamily":0},{"id":"52651581584","owner":"62043870@N05","secret":"662fd8b629","server":"65535","farm":66,"title":"Black Skimmer, Rynchops niger","ispublic":1,"isfriend":0,"isfamily":0},{"id":"52651307046","owner":"62043870@N05","secret":"418d858369","server":"65535","farm":66,"title":"Black Skimmer, Rynchops niger","ispublic":1,"isfriend":0,"isfamily":0},{"id":"52651301526","owner":"62043870@N05","secret":"a8b69f1e04","server":"65535","farm":66,"title":"Black Skimmer, Rynchops niger","ispublic":1,"isfriend":0,"isfamily":0},{"id":"52651780178","owner":"62043870@N05","secret":"f704da2a76","server":"65535","farm":66,"title":"Black Skimmer (Rynchops niger) and Ring-billed Gull (Larus delawarensis) in front of the Santa Cruz Beach Boardwalk","ispublic":1,"isfriend":0,"isfamily":0},{"id":"52650804892","owner":"62043870@N05","secret":"6fc19b9ed4","server":"65535","farm":66,"title":"Black Skimmer (Rynchops niger) and Ring-billed Gull (Larus delawarensis)","ispublic":1,"isfriend":0,"isfamily":0},{"id":"52647831521","owner":"51433704@N06","secret":"89980f877a","server":"65535","farm":66,"title":"Black Skimmer Chick","ispublic":1,"isfriend":0,"isfamily":0},{"id":"52647541910","owner":"67164820@N06","secret":"8a5f01301f","server":"65535","farm":66,"title":"skimmer","ispublic":1,"isfriend":0,"isfamily":0},{"id":"52647100091","owner":"67164820@N06","secret":"aecace0c71","server":"65535","farm":66,"title":"skimmer 2","ispublic":1,"isfriend":0,"isfamily":0},{"id":"52646594942","owner":"67164820@N06","secret":"e61e3971ee","server":"65535","farm":66,"title":"skimmer 3","ispublic":1,"isfriend":0,"isfamily":0},{"id":"52646594382","owner":"67164820@N06","secret":"4145693257","server":"65535","farm":66,"title":"skimmer 4","ispublic":1,"isfriend":0,"isfamily":0},{"id":"52647540130","owner":"67164820@N06","secret":"73f7eafa0e","server":"65535","farm":66,"title":"skimmer 5","ispublic":1,"isfriend":0,"isfamily":0},{"id":"52647539785","owner":"67164820@N06","secret":"b98e3db0b3","server":"65535","farm":66,"title":"skimmer 6","ispublic":1,"isfriend":0,"isfamily":0},{"id":"52647075506","owner":"67164820@N06","secret":"818ed938f0","server":"65535","farm":66,"title":"skimmer in flight","ispublic":1,"isfriend":0,"isfamily":0},{"id":"52647014806","owner":"67164820@N06","secret":"dc62cb7abe","server":"65535","farm":66,"title":"skimmers 2","ispublic":1,"isfriend":0,"isfamily":0},{"id":"52647230829","owner":"46837385@N03","secret":"c3cc6b73df","server":"65535","farm":66,"title":"Black Skimmer in Flight (1)","ispublic":1,"isfriend":0,"isfamily":0},{"id":"52647230819","owner":"46837385@N03","secret":"efed7ffbe8","server":"65535","farm":66,"title":"Black Skimmer in Flight (2)","ispublic":1,"isfriend":0,"isfamily":0},{"id":"52645305992","owner":"49503118795@N01","secret":"b51b7fb3b5","server":"65535","farm":66,"title":"Black Skimmer in Flight","ispublic":1,"isfriend":0,"isfamily":0},{"id":"52642357947","owner":"61397695@N05","secret":"92fa4b85e0","server":"65535","farm":66,"title":"Incandescent tree","ispublic":1,"isfriend":0,"isfamily":0},{"id":"52645110908","owner":"8013969@N03","secret":"c7c10322d8","server":"65535","farm":66,"title":"Rynchops niger DFL nj22-2","ispublic":1,"isfriend":0,"isfamily":0},{"id":"52645110363","owner":"8013969@N03","secret":"3ed77dd347","server":"65535","farm":66,"title":"Rynchops niger DFL nj22-3","ispublic":1,"isfriend":0,"isfamily":0},{"id":"52644286466","owner":"88932760@N08","secret":"a09a830023","server":"65535","farm":66,"title":"Braking Hard","ispublic":1,"isfriend":0,"isfamily":0},{"id":"52643501228","owner":"34368269@N04","secret":"f8bbc00a2a","server":"65535","farm":66,"title":"Black Skimmer","ispublic":1,"isfriend":0,"isfamily":0},{"id":"52639377248","owner":"67164820@N06","secret":"127a9a276b","server":"65535","farm":66,"title":"black skimmer 2","ispublic":1,"isfriend":0,"isfamily":0},{"id":"52639334525","owner":"67164820@N06","secret":"42679bfbca","server":"65535","farm":66,"title":"black skimmer","ispublic":1,"isfriend":0,"isfamily":0},{"id":"52638125877","owner":"51433704@N06","secret":"23591c47d5","server":"65535","farm":66,"title":"Black Skimmers","ispublic":1,"isfriend":0,"isfamily":0},{"id":"52638043159","owner":"47533293@N04","secret":"4e049df5f7","server":"65535","farm":66,"title":"Black skimmers, Rynchops niger","ispublic":1,"isfriend":0,"isfamily":0},{"id":"52636627706","owner":"37203410@N07","secret":"164d630cce","server":"65535","farm":66,"title":"Rayador \/ Rynchops niger","ispublic":1,"isfriend":0,"isfamily":0},{"id":"52629507059","owner":"130674121@N08","secret":"10144d34ef","server":"65535","farm":66,"title":"Skimmer (Black) - Taiam\u00e3 Reserve, Pantanal, Brazil - 56","ispublic":1,"isfriend":0,"isfamily":0},{"id":"52626583644","owner":"34368269@N04","secret":"0ab5e39dd3","server":"65535","farm":66,"title":"Black Skimmer","ispublic":1,"isfriend":0,"isfamily":0},{"id":"52622398342","owner":"129553350@N02","secret":"2235d478dc","server":"65535","farm":66,"title":"Black Skimmer","ispublic":1,"isfriend":0,"isfamily":0},{"id":"52622884095","owner":"51433704@N06","secret":"639d1e8b9e","server":"65535","farm":66,"title":"Black Skimmer Chick","ispublic":1,"isfriend":0,"isfamily":0},{"id":"52622200184","owner":"52170431@N04","secret":"f3905de18b","server":"65535","farm":66,"title":"Black Skimmer (Rynchops niger niger), adult breeding DSD_0455","ispublic":1,"isfriend":0,"isfamily":0},{"id":"52619715655","owner":"34368269@N04","secret":"2985a13e41","server":"65535","farm":66,"title":"Black Skimmer","ispublic":1,"isfriend":0,"isfamily":0},{"id":"52619540380","owner":"186413274@N08","secret":"0a94e92582","server":"65535","farm":66,"title":"Flight group at Bay Access Point, South Padre Island, Texas.","ispublic":1,"isfriend":0,"isfamily":0},{"id":"52619008906","owner":"34368269@N04","secret":"4b9909edee","server":"65535","farm":66,"title":"Black Skimmer","ispublic":1,"isfriend":0,"isfamily":0},{"id":"52618339108","owner":"34368269@N04","secret":"9482cce137","server":"65535","farm":66,"title":"Black Skimmer","ispublic":1,"isfriend":0,"isfamily":0},{"id":"52617519715","owner":"43272765@N04","secret":"e40fe6d3f5","server":"65535","farm":66,"title":"Black Skimmers - Rynchops niger","ispublic":1,"isfriend":0,"isfamily":0},{"id":"52611124602","owner":"52170431@N04","secret":"97e2998f5f","server":"65535","farm":66,"title":"Black Skimmer (Rynchops niger niger), adult breeding DSD_0525","ispublic":1,"isfriend":0,"isfamily":0},{"id":"52607003361","owner":"129553350@N02","secret":"9e106bb8c5","server":"65535","farm":66,"title":"Black Skimmer","ispublic":1,"isfriend":0,"isfamily":0},{"id":"52606484182","owner":"129553350@N02","secret":"6846d767ca","server":"65535","farm":66,"title":"Black Skimmer","ispublic":1,"isfriend":0,"isfamily":0},{"id":"52606873866","owner":"129553350@N02","secret":"0f1f8d31e3","server":"65535","farm":66,"title":"Black Skimmer","ispublic":1,"isfriend":0,"isfamily":0},{"id":"52592075952","owner":"52170431@N04","secret":"12f026e190","server":"65535","farm":66,"title":"Black Skimmer (Rynchops niger niger), adult breeding DSD_0511","ispublic":1,"isfriend":0,"isfamily":0},{"id":"52590147975","owner":"51433704@N06","secret":"ab486ea6f5","server":"65535","farm":66,"title":"Black Skimmer","ispublic":1,"isfriend":0,"isfamily":0},{"id":"52651881705","owner":"125605310@N07","secret":"f157171424","server":"65535","farm":66,"title":"Black Skimmer, Rynchops niger","ispublic":1,"isfriend":0,"isfamily":0},{"id":"52650866972","owner":"125605310@N07","secret":"3f2e98d8cf","server":"65535","farm":66,"title":"Black Skimmer, Rynchops niger","ispublic":1,"isfriend":0,"isfamily":0},{"id":"52651324521","owner":"62043870@N05","secret":"79c0aaa208","server":"65535","farm":66,"title":"Black Skimmer, Rynchops niger","ispublic":1,"isfriend":0,"isfamily":0},{"id":"52651575509","owner":"62043870@N05","secret":"b12d73ef6f","server":"65535","farm":66,"title":"Black Skimmer, Rynchops niger","ispublic":1,"isfriend":0,"isfamily":0},{"id":"52651301861","owner":"62043870@N05","secret":"6caba63547","server":"65535","farm":66,"title":"Black Skimmer, Rynchops niger","ispublic":1,"isfriend":0,"isfamily":0},{"id":"52650805822","owner":"62043870@N05","secret":"106d7b5085","server":"65535","farm":66,"title":"Black Skimmer, Rynchops niger","ispublic":1,"isfriend":0,"isfamily":0},{"id":"52650647962","owner":"195179412@N07","secret":"ffc35dbf1a","server":"65535","farm":66,"title":"RAYADOR, Rayador, Rynchops niger","ispublic":1,"isfriend":0,"isfamily":0},{"id":"52646783821","owner":"21584095@N00","secret":"940ecbe458","server":"65535","farm":66,"title":"Black Skimmer (Rynchops niger)","ispublic":1,"isfriend":0,"isfamily":0},{"id":"52645111318","owner":"8013969@N03","secret":"05c4ccf518","server":"65535","farm":66,"title":"Rynchops niger DFL nj22-1","ispublic":1,"isfriend":0,"isfamily":0},{"id":"52642043542","owner":"197490463@N02","secret":"4a3790b4bc","server":"65535","farm":66,"title":"Black Skimmer (Rynchops niger)","ispublic":1,"isfriend":0,"isfamily":0},{"id":"52639175466","owner":"47533293@N04","secret":"d79d89e39f","server":"65535","farm":66,"title":"Black skimmer, Rynchops niger","ispublic":1,"isfriend":0,"isfamily":0},{"id":"52590325099","owner":"130674121@N08","secret":"0b2725989c","server":"65535","farm":66,"title":"Skimmer (Black) - Porto Jofre, Pantanal, Brazil - 223","ispublic":1,"isfriend":0,"isfamily":0}]},"stat":"ok"}