{"photos":{"page":1,"pages":6,"perpage":100,"total":536,"photo":[{"id":"52724053845","owner":"12639178@N07","secret":"c779094ddd","server":"65535","farm":66,"title":"Beleg Schwarzkopftrogon","ispublic":1,"isfriend":0,"isfamily":0},{"id":"52705403023","owner":"110459348@N03","secret":"e79819f387","server":"65535","farm":66,"title":"Trogon \u00e0 t\u00eate noire","ispublic":1,"isfriend":0,"isfamily":0},{"id":"52644694511","owner":"132165466@N08","secret":"6150d79b57","server":"65535","farm":66,"title":"Black-headed Trogon","ispublic":1,"isfriend":0,"isfamily":0},{"id":"52644185757","owner":"132165466@N08","secret":"9f9d5a10dc","server":"65535","farm":66,"title":"Black-headed Trogon","ispublic":1,"isfriend":0,"isfamily":0},{"id":"52610880474","owner":"43272765@N04","secret":"0abafa4b02","server":"65535","farm":66,"title":"Black-headed Trogon (Trogon melanocephalus)","ispublic":1,"isfriend":0,"isfamily":0},{"id":"52582335780","owner":"62848917@N07","secret":"a33e39ac8f","server":"65535","farm":66,"title":"Black-headed Trogon - Trogon melanocephalus","ispublic":1,"isfriend":0,"isfamily":0},{"id":"52455189054","owner":"132508209@N08","secret":"44c1d6a3ef","server":"65535","farm":66,"title":"Black-headed Trogon (Trogon melanocephalus)","ispublic":1,"isfriend":0,"isfamily":0},{"id":"52441810953","owner":"67306066@N03","secret":"cd6e3921c0","server":"65535","farm":66,"title":"Black-headed Trogon (Trogon melanocephalus)","ispublic":1,"isfriend":0,"isfamily":0},{"id":"52440166587","owner":"67306066@N03","secret":"e2ca516b16","server":"65535","farm":66,"title":"Black-headed Trogon (Trogon melanocephalus)","ispublic":1,"isfriend":0,"isfamily":0},{"id":"52357039927","owner":"78223721@N03","secret":"dac50c7369","server":"65535","farm":66,"title":"Trogon melanocephalus (male)","ispublic":1,"isfriend":0,"isfamily":0},{"id":"52357990626","owner":"78223721@N03","secret":"2fe8d81cb4","server":"65535","farm":66,"title":"Trogon melanocephalus (male)","ispublic":1,"isfriend":0,"isfamily":0},{"id":"52262365005","owner":"7168480@N02","secret":"2d4028795a","server":"65535","farm":66,"title":"Black-headed Trogon","ispublic":1,"isfriend":0,"isfamily":0},{"id":"52206038574","owner":"94293448@N07","secret":"2b0e290e40","server":"65535","farm":66,"title":"Black-headed Trogon (Trogon melanocephalus)","ispublic":1,"isfriend":0,"isfamily":0},{"id":"52204726822","owner":"94293448@N07","secret":"8d821eab72","server":"65535","farm":66,"title":"Black-headed Trogon (Trogon melanocephalus)","ispublic":1,"isfriend":0,"isfamily":0},{"id":"52205689316","owner":"94293448@N07","secret":"251ca679cd","server":"65535","farm":66,"title":"Black-headed Trogon (Trogon melanocephalus)","ispublic":1,"isfriend":0,"isfamily":0},{"id":"52156769228","owner":"94293448@N07","secret":"bc0eaa6be7","server":"65535","farm":66,"title":"Black-headed Trogon (Trogon melanocephalus)","ispublic":1,"isfriend":0,"isfamily":0},{"id":"52157249735","owner":"94293448@N07","secret":"0a3178a41f","server":"65535","farm":66,"title":"Black-headed Trogon (Trogon melanocephalus)","ispublic":1,"isfriend":0,"isfamily":0},{"id":"52155016135","owner":"94293448@N07","secret":"bbb44897ac","server":"65535","farm":66,"title":"Black-headed Trogon (Trogon melanocephalus)","ispublic":1,"isfriend":0,"isfamily":0},{"id":"52067934199","owner":"107784905@N04","secret":"92c9314958","server":"65535","farm":66,"title":"Trogon \u00e0 t\u00eate noire - Villa Bali\/Puntarenas\/Costa Rica_20211119_005-1","ispublic":1,"isfriend":0,"isfamily":0},{"id":"51983931431","owner":"24110087@N05","secret":"07c176e49b","server":"65535","farm":66,"title":"Black-headed Trogon - Trogon melanocephalus","ispublic":1,"isfriend":0,"isfamily":0},{"id":"51983992783","owner":"24110087@N05","secret":"fb9231c17f","server":"65535","farm":66,"title":"Black-headed Trogon - Trogon melanocephalus","ispublic":1,"isfriend":0,"isfamily":0},{"id":"51648622611","owner":"132508209@N08","secret":"3b9cd8cd00","server":"65535","farm":66,"title":"Black-headed Trogon (Trogon melanocephalus)","ispublic":1,"isfriend":0,"isfamily":0},{"id":"51647790497","owner":"132508209@N08","secret":"3df960d14f","server":"65535","farm":66,"title":"Black-headed Trogon (Trogon melanocephalus)","ispublic":1,"isfriend":0,"isfamily":0},{"id":"51569353507","owner":"143491327@N08","secret":"c3bd557af6","server":"65535","farm":66,"title":"Trogon melanocephalus T. cabecinegro","ispublic":1,"isfriend":0,"isfamily":0},{"id":"51321777361","owner":"124394812@N08","secret":"8db3f9da8e","server":"65535","farm":66,"title":"Trogon \u00e0 t\u00eate noire","ispublic":1,"isfriend":0,"isfamily":0},{"id":"50990988437","owner":"54525206@N05","secret":"52ef4d5c0a","server":"65535","farm":66,"title":"Schwarzkopftrogon_","ispublic":1,"isfriend":0,"isfamily":0},{"id":"50926385113","owner":"54525206@N05","secret":"07c891a2d8","server":"65535","farm":66,"title":"Schwarzkopftrogon_","ispublic":1,"isfriend":0,"isfamily":0},{"id":"50840668547","owner":"190923251@N05","secret":"6f17f956b7","server":"65535","farm":66,"title":"Black-headed Trogon female","ispublic":1,"isfriend":0,"isfamily":0},{"id":"50661739971","owner":"119787485@N07","secret":"72df854852","server":"65535","farm":66,"title":"Black-headed Trogon (Trogon melanocephalus melanocephalus) - 20110118-02","ispublic":1,"isfriend":0,"isfamily":0},{"id":"50259037262","owner":"189800946@N02","secret":"69dbe8858a","server":"65535","farm":66,"title":"Coa Cabeza Negra, Trogon melanocephalus","ispublic":1,"isfriend":0,"isfamily":0},{"id":"50096505748","owner":"26822473@N06","secret":"28913e2cde","server":"65535","farm":66,"title":"Black-headed Trogon (Trogon melanocephalus)","ispublic":1,"isfriend":0,"isfamily":0},{"id":"49887346253","owner":"21340539@N05","secret":"1df40701e1","server":"65535","farm":66,"title":"Black-headed Trogon (Trogon melanocephalus)","ispublic":1,"isfriend":0,"isfamily":0},{"id":"49730892451","owner":"94310798@N04","secret":"14c7d09afc","server":"65535","farm":66,"title":"Black-throated trogon","ispublic":1,"isfriend":0,"isfamily":0},{"id":"49720736501","owner":"21340539@N05","secret":"90e1f6b860","server":"65535","farm":66,"title":"Black-headed Trogon (Trogon melanocephalus)","ispublic":1,"isfriend":0,"isfamily":0},{"id":"49676656611","owner":"21340539@N05","secret":"48f016bf5d","server":"65535","farm":66,"title":"Black-headed Trogon (Trogon melanocephalus)","ispublic":1,"isfriend":0,"isfamily":0},{"id":"49660211898","owner":"41694014@N04","secret":"f53a115fc7","server":"65535","farm":66,"title":"Trogon melanocephalus","ispublic":1,"isfriend":0,"isfamily":0},{"id":"49660744581","owner":"41694014@N04","secret":"13f06fa545","server":"65535","farm":66,"title":"Trogon melanocephalus","ispublic":1,"isfriend":0,"isfamily":0},{"id":"49596298792","owner":"65695019@N07","secret":"1eff852fde","server":"65535","farm":66,"title":"Black-headed Trogon (Trogon melanocephalus) male taking off ...","ispublic":1,"isfriend":0,"isfamily":0},{"id":"49595054497","owner":"41694014@N04","secret":"57912ce548","server":"65535","farm":66,"title":"Trogon melanocephalus","ispublic":1,"isfriend":0,"isfamily":0},{"id":"49223979647","owner":"46413288@N06","secret":"7affb28137","server":"65535","farm":66,"title":"Black-headed Trogon (Trogon melanocephalus)","ispublic":1,"isfriend":0,"isfamily":0},{"id":"49201577671","owner":"46413288@N06","secret":"ecac57a922","server":"65535","farm":66,"title":"Black-headed Trogon (Trogon melanocephalus)","ispublic":1,"isfriend":0,"isfamily":0},{"id":"49189694641","owner":"46413288@N06","secret":"4c5ffa3e43","server":"65535","farm":66,"title":"Black-headed Trogon (Trogon melanocephalus)","ispublic":1,"isfriend":0,"isfamily":0},{"id":"48621221398","owner":"55608596@N07","secret":"edd1cbe27e","server":"65535","farm":66,"title":"Trogon melanocephalus, Black-headed Trogon, Trog\u00f3n Cabecinegro","ispublic":1,"isfriend":0,"isfamily":0},{"id":"52641048969","owner":"61062164@N08","secret":"9bf9f7fb31","server":"65535","farm":66,"title":"850_6291-NEF_DxO DP2","ispublic":1,"isfriend":0,"isfamily":0},{"id":"52638529657","owner":"61062164@N08","secret":"17c04fcb0c","server":"65535","farm":66,"title":"850_6299-NEF_DxO_DeepPRIME","ispublic":1,"isfriend":0,"isfamily":0},{"id":"52580852778","owner":"153973412@N04","secret":"87fd9dd689","server":"65535","farm":66,"title":"Black-headed Trogon-Trogon melanocephalus, Costa Maya, MX","ispublic":1,"isfriend":0,"isfamily":0},{"id":"52441740785","owner":"67306066@N03","secret":"398387871a","server":"65535","farm":66,"title":"Black-headed Trogon (Trogon melanocephalus)","ispublic":1,"isfriend":0,"isfamily":0},{"id":"52381612126","owner":"10821818@N07","secret":"1055c12e31","server":"65535","farm":66,"title":"Black-headed Trogon - Quintana Roo, Mexico","ispublic":1,"isfriend":0,"isfamily":0},{"id":"52381924589","owner":"10821818@N07","secret":"901d9f17e9","server":"65535","farm":66,"title":"Black-headed Trogon - Quintana Roo, Mexico","ispublic":1,"isfriend":0,"isfamily":0},{"id":"52381852358","owner":"10821818@N07","secret":"251d8a229b","server":"65535","farm":66,"title":"Black-headed Trogon - Quintana Roo, Mexico","ispublic":1,"isfriend":0,"isfamily":0},{"id":"52382038200","owner":"10821818@N07","secret":"a849cf999a","server":"65535","farm":66,"title":"Black-headed Trogon - Quintana Roo, Mexico","ispublic":1,"isfriend":0,"isfamily":0},{"id":"52379500490","owner":"65788177@N02","secret":"3e74c282cb","server":"65535","farm":66,"title":"Black-headed Trogon","ispublic":1,"isfriend":0,"isfamily":0},{"id":"52261262866","owner":"131708321@N02","secret":"1c5980acc4","server":"65535","farm":66,"title":"Black-headed Trogon (Trogon melanocephalus), Misn\u00e9balam, Yucat\u00e1n, Mexico","ispublic":1,"isfriend":0,"isfamily":0},{"id":"52192820603","owner":"103806413@N07","secret":"aa5d822e08","server":"65535","farm":66,"title":"20220417_4328_Carara_Trogon a tete noire","ispublic":1,"isfriend":0,"isfamily":0},{"id":"52192802081","owner":"103806413@N07","secret":"b377cd5040","server":"65535","farm":66,"title":"20220415_3744_Cano Negro_Trogon a tete noire","ispublic":1,"isfriend":0,"isfamily":0},{"id":"52191789662","owner":"103806413@N07","secret":"80721ec91f","server":"65535","farm":66,"title":"20220415_3749_Cano Negro_Trogon a tete noire","ispublic":1,"isfriend":0,"isfamily":0},{"id":"51983935061","owner":"24110087@N05","secret":"c772f79647","server":"65535","farm":66,"title":"Black-headed Trogon - Trogon melanocephalus","ispublic":1,"isfriend":0,"isfamily":0},{"id":"51981943262","owner":"156457454@N02","secret":"f5cf20a243","server":"65535","farm":66,"title":"Black-headed Trogon","ispublic":1,"isfriend":0,"isfamily":0},{"id":"51975513115","owner":"32118356@N08","secret":"5d3a3c5623","server":"65535","farm":66,"title":"trogon_melanocephalus_bacalar_taken_by_Ivett_reynoso_2022_02_08","ispublic":1,"isfriend":0,"isfamily":0},{"id":"51824532463","owner":"56686021@N04","secret":"355f6c6432","server":"65535","farm":66,"title":"Black-headed Trogon","ispublic":1,"isfriend":0,"isfamily":0},{"id":"51824425381","owner":"56686021@N04","secret":"70ebb9d17c","server":"65535","farm":66,"title":"OCH_6654","ispublic":1,"isfriend":0,"isfamily":0},{"id":"51673894409","owner":"80648919@N08","secret":"fac8c83bd8","server":"65535","farm":66,"title":"Black-headed Trogon","ispublic":1,"isfriend":0,"isfamily":0},{"id":"51563165650","owner":"65788177@N02","secret":"fbb4a81fc8","server":"65535","farm":66,"title":"Black-headed Trogon","ispublic":1,"isfriend":0,"isfamily":0},{"id":"51321975753","owner":"124394812@N08","secret":"405117ab12","server":"65535","farm":66,"title":"Trogon \u00e0 t\u00eate noire","ispublic":1,"isfriend":0,"isfamily":0},{"id":"51175910954","owner":"156457454@N02","secret":"598f2163a6","server":"65535","farm":66,"title":"Trogon melanocephalus melanocephalus 8 (Black-headed Trogon)","ispublic":1,"isfriend":0,"isfamily":0},{"id":"51175346308","owner":"156457454@N02","secret":"ef89d2f826","server":"65535","farm":66,"title":"Trogon melanocephalus melanocephalus 10 (Black-headed Trogon)","ispublic":1,"isfriend":0,"isfamily":0},{"id":"51175346333","owner":"156457454@N02","secret":"738deb158b","server":"65535","farm":66,"title":"Trogon melanocephalus melanocephalus 9 (Black-headed Trogon)","ispublic":1,"isfriend":0,"isfamily":0},{"id":"51140302691","owner":"11803211@N06","secret":"7170b27e79","server":"65535","farm":66,"title":"Black-headed trogon (Trogon melanocephalus), in forest near Cob\u00e1, Yucatan, Mexico","ispublic":1,"isfriend":0,"isfamily":0},{"id":"51127768062","owner":"48084395@N03","secret":"3182a4becb","server":"65535","farm":66,"title":"Black-headed Trogon - Trogon melanocephalus_5AC2293","ispublic":1,"isfriend":0,"isfamily":0},{"id":"50990875836","owner":"54525206@N05","secret":"08f5a09e04","server":"65535","farm":66,"title":"Schwarzkopftrogon","ispublic":1,"isfriend":0,"isfamily":0},{"id":"50990987822","owner":"54525206@N05","secret":"be513332b2","server":"65535","farm":66,"title":"Schwarzkopftrogon","ispublic":1,"isfriend":0,"isfamily":0},{"id":"50981871183","owner":"67677583@N00","secret":"d1b1d42234","server":"65535","farm":66,"title":"Black-headed Trogon (Trogon melanocephalus)","ispublic":1,"isfriend":0,"isfamily":0},{"id":"50978980088","owner":"192269057@N03","secret":"b5d0c57a7b","server":"65535","farm":66,"title":"13122969_213182739073496_4764276358116824373_o","ispublic":1,"isfriend":0,"isfamily":0},{"id":"50849923618","owner":"99208129@N08","secret":"a6d4bff115","server":"65535","farm":66,"title":"Trogon melanocephalus \/ Black-headed Trogon","ispublic":1,"isfriend":0,"isfamily":0},{"id":"50849922858","owner":"99208129@N08","secret":"ab531dc8d6","server":"65535","farm":66,"title":"Trogon melanocephalus \/ Black-headed Trogon","ispublic":1,"isfriend":0,"isfamily":0},{"id":"50811065931","owner":"12639178@N07","secret":"662a8a30ff","server":"65535","farm":66,"title":"Black-headed Trogon","ispublic":1,"isfriend":0,"isfamily":0},{"id":"50751802596","owner":"64478645@N03","secret":"53122da061","server":"65535","farm":66,"title":"Schwarzkopftrogon2","ispublic":1,"isfriend":0,"isfamily":0},{"id":"50751909852","owner":"64478645@N03","secret":"9d8173d47a","server":"65535","farm":66,"title":"Schwarzkopftrogon","ispublic":1,"isfriend":0,"isfamily":0},{"id":"50700325372","owner":"190923251@N05","secret":"81b4da985e","server":"65535","farm":66,"title":"Black-headed Trogon male","ispublic":1,"isfriend":0,"isfamily":0},{"id":"50340410113","owner":"32805478@N03","secret":"8d31ef2a16","server":"65535","farm":66,"title":"Trog\u00f3n cabecinegro, Black-headed trogon, Trogon melanocephalus","ispublic":1,"isfriend":0,"isfamily":0},{"id":"50340409923","owner":"32805478@N03","secret":"d8460a2f8b","server":"65535","farm":66,"title":"Trog\u00f3n cabecinegro, Black-headed trogon, Trogon melanocephalus","ispublic":1,"isfriend":0,"isfamily":0},{"id":"50341095311","owner":"32805478@N03","secret":"ca1e325cea","server":"65535","farm":66,"title":"Trog\u00f3n cabecinegro, Black-headed trogon, Trogon melanocephalus","ispublic":1,"isfriend":0,"isfamily":0},{"id":"50133924822","owner":"26371261@N00","secret":"af717005aa","server":"65535","farm":66,"title":"Black-headed Trogon, Trogon melanocephalus. Ometepe Island, Nicaragua","ispublic":1,"isfriend":0,"isfamily":0},{"id":"49769530118","owner":"12639178@N07","secret":"869fc22d85","server":"65535","farm":66,"title":"Schwarzkopftrogon (Trogon melanocephalus) in Costa Rica","ispublic":1,"isfriend":0,"isfamily":0},{"id":"49723134838","owner":"12639178@N07","secret":"722fc485e4","server":"65535","farm":66,"title":"Schwarzkopftrogon","ispublic":1,"isfriend":0,"isfamily":0},{"id":"49652531811","owner":"21340539@N05","secret":"be03722f8b","server":"65535","farm":66,"title":"Black-headed Trogon (Trogon melanocephalus)","ispublic":1,"isfriend":0,"isfamily":0},{"id":"49649826846","owner":"183178515@N02","secret":"d95b6b1aef","server":"65535","farm":66,"title":"Trogon melanocephalus (Black-headed Trogon)","ispublic":1,"isfriend":0,"isfamily":0},{"id":"49640754553","owner":"13451078@N03","secret":"9d4dbe3aa4","server":"65535","farm":66,"title":"Black-headed Trogon (Trogon melanocephalus)","ispublic":1,"isfriend":0,"isfamily":0},{"id":"49640393911","owner":"21340539@N05","secret":"e371517940","server":"65535","farm":66,"title":"Black-headed Trogon (Trogon melanocephalus)","ispublic":1,"isfriend":0,"isfamily":0},{"id":"49468372908","owner":"32752434@N07","secret":"ede1d3c457","server":"65535","farm":66,"title":"Black-headed Trogon (Trogon melanocephalus)","ispublic":1,"isfriend":0,"isfamily":0},{"id":"49347503007","owner":"99208129@N08","secret":"78535df2d5","server":"65535","farm":66,"title":"Trogon melanocephalus \/ Black-headed Trogon","ispublic":1,"isfriend":0,"isfamily":0},{"id":"49278610038","owner":"186211059@N06","secret":"960d4363b9","server":"65535","farm":66,"title":"Black-headed Trogon","ispublic":1,"isfriend":0,"isfamily":0},{"id":"49228300602","owner":"51600413@N02","secret":"c81f3dc99c","server":"65535","farm":66,"title":"Black-headed Trogon   (Trogon melanocephalus)","ispublic":1,"isfriend":0,"isfamily":0},{"id":"49175164501","owner":"157172351@N04","secret":"fe33258bbb","server":"65535","farm":66,"title":"Black-headed Trogon (Trogon melanocephalus)","ispublic":1,"isfriend":0,"isfamily":0},{"id":"48691033487","owner":"99208129@N08","secret":"a7ba49d69d","server":"65535","farm":66,"title":"Trogon melanocephalus \/ Black-headed Trogon","ispublic":1,"isfriend":0,"isfamily":0},{"id":"48686622182","owner":"132508209@N08","secret":"5ebfb71091","server":"65535","farm":66,"title":"Black-headed Trogon (Trogon melanocephalus)","ispublic":1,"isfriend":0,"isfamily":0},{"id":"48686621737","owner":"132508209@N08","secret":"0f2937c579","server":"65535","farm":66,"title":"Black-headed Trogon (Trogon melanocephalus)","ispublic":1,"isfriend":0,"isfamily":0},{"id":"48686450031","owner":"132508209@N08","secret":"1582942e53","server":"65535","farm":66,"title":"Black-headed Trogon (Trogon melanocephalus)","ispublic":1,"isfriend":0,"isfamily":0},{"id":"48686621647","owner":"132508209@N08","secret":"58886cdd94","server":"65535","farm":66,"title":"Black-headed Trogon (Trogon melanocephalus)","ispublic":1,"isfriend":0,"isfamily":0},{"id":"48404866627","owner":"96581634@N07","secret":"e48dec79e8","server":"65535","farm":66,"title":"Black-headed Trogon (Trogon melanocephalus)","ispublic":1,"isfriend":0,"isfamily":0}]},"stat":"ok"}