{"photos":{"page":1,"pages":2,"perpage":100,"total":112,"photo":[{"id":"52538101440","owner":"195770897@N06","secret":"85c67756bf","server":"65535","farm":66,"title":"Monasa atra","ispublic":1,"isfriend":0,"isfamily":0},{"id":"51782666902","owner":"32674493@N04","secret":"304f556d67","server":"65535","farm":66,"title":"Chora-chuva-de-asa-branca (Monasa atra)","ispublic":1,"isfriend":0,"isfamily":0},{"id":"51478445417","owner":"75336751@N07","secret":"6fec913546","server":"65535","farm":66,"title":"Chora-chuva-de-asa-branca","ispublic":1,"isfriend":0,"isfamily":0},{"id":"48662168963","owner":"167323674@N05","secret":"976a788c41","server":"65535","farm":66,"title":"Chora chuva de asa branca -  Monasa atra- Black Nunbird","ispublic":1,"isfriend":0,"isfamily":0},{"id":"48661636003","owner":"167323674@N05","secret":"0b7230c7fa","server":"65535","farm":66,"title":"Chora chuva de asa branca -  Monasa atra- Black Nunbird","ispublic":1,"isfriend":0,"isfamily":0},{"id":"31338301417","owner":"62501256@N05","secret":"052e9d85bf","server":"4885","farm":5,"title":"Black Nunbird (Monasa atra)","ispublic":1,"isfriend":0,"isfamily":0},{"id":"43166770490","owner":"82972631@N04","secret":"d6acde0670","server":"1902","farm":2,"title":"Black Nunbird \/ Chora-chuva-de-asa-branca \/ Monasa atra","ispublic":1,"isfriend":0,"isfamily":0},{"id":"41783077414","owner":"164861927@N06","secret":"96331599dc","server":"1734","farm":2,"title":"Chora-chuva, Bico-de-brasa","ispublic":1,"isfriend":0,"isfamily":0},{"id":"38473499772","owner":"55747300@N00","secret":"c46e9c2b13","server":"4585","farm":5,"title":"Black Nunbird","ispublic":1,"isfriend":0,"isfamily":0},{"id":"38180677601","owner":"128003162@N08","secret":"aa7e297a6c","server":"4471","farm":5,"title":"Black nunbird","ispublic":1,"isfriend":0,"isfamily":0},{"id":"36575232042","owner":"32674493@N04","secret":"f9f44fc395","server":"4362","farm":5,"title":"Chora-chuva-de-asa-branca (Monasa atra)","ispublic":1,"isfriend":0,"isfamily":0},{"id":"30976945991","owner":"87325282@N00","secret":"76b778ec17","server":"5652","farm":6,"title":"Chora Chuva de Asa Branca \/ Black Nunbird (Monasa atra)","ispublic":1,"isfriend":0,"isfamily":0},{"id":"29922593725","owner":"129611291@N05","secret":"107d6af83a","server":"8773","farm":9,"title":"Barbacou noir (Monasa atra)","ispublic":1,"isfriend":0,"isfamily":0},{"id":"24298537489","owner":"129203671@N02","secret":"2dd05b08c3","server":"1652","farm":2,"title":"Chora chuva de asa branca (Monasa atra)","ispublic":1,"isfriend":0,"isfamily":0},{"id":"23166327293","owner":"128781214@N05","secret":"fe90d1c176","server":"5834","farm":6,"title":"Barbacou noir - Monasa atra","ispublic":1,"isfriend":0,"isfamily":0},{"id":"21577775874","owner":"78941013@N00","secret":"1eaced54c3","server":"5783","farm":6,"title":"Black nunbird (Monasa atra)","ispublic":1,"isfriend":0,"isfamily":0},{"id":"22210858581","owner":"78941013@N00","secret":"19e4384b19","server":"5757","farm":6,"title":"Black nunbird (Monasa atra)","ispublic":1,"isfriend":0,"isfamily":0},{"id":"20853149579","owner":"52363379@N07","secret":"b57cf6bbd3","server":"638","farm":1,"title":"Monasa atra","ispublic":1,"isfriend":0,"isfamily":0},{"id":"16051587582","owner":"52363379@N07","secret":"850e78dca3","server":"7477","farm":8,"title":"Monasa atra","ispublic":1,"isfriend":0,"isfamily":0},{"id":"15410762871","owner":"127518570@N05","secret":"cbcfdf1ff4","server":"3927","farm":4,"title":"UNBAND_MONASA ATRA_DPB_U_JUL282014_3114_AHERNANDEZ_3 OF 5","ispublic":1,"isfriend":0,"isfamily":0},{"id":"15413605772","owner":"127518570@N05","secret":"06705bfe20","server":"3928","farm":4,"title":"UNBANDED_MONASA ATRA_UCU_U_AUG172014_1104_AHERNANDEZ_5 OF 5","ispublic":1,"isfriend":0,"isfamily":0},{"id":"15390880056","owner":"127518570@N05","secret":"2d00ef2aa1","server":"2943","farm":3,"title":"UNBANDED_MONASA ATRA_UCU_U_AUG172014_1104_AHERNANDEZ_1 OF 5","ispublic":1,"isfriend":0,"isfamily":0},{"id":"15413587252","owner":"127518570@N05","secret":"90d690ea11","server":"3927","farm":4,"title":"UNBANDED_MONASA ATRA_UCU_U_AUG172014_1104_AHERNANDEZ_2 OF 5","ispublic":1,"isfriend":0,"isfamily":0},{"id":"15390879876","owner":"127518570@N05","secret":"bc77f99a7d","server":"3929","farm":4,"title":"UNBANDED_MONASA ATRA_UCU_U_AUG172014_1104_AHERNANDEZ_4 OF 5","ispublic":1,"isfriend":0,"isfamily":0},{"id":"15410742441","owner":"127518570@N05","secret":"b241b20e74","server":"2950","farm":3,"title":"UNBANDED2_MONASA ATRA_UCU_U_AUG172014_1104_AHERNANDEZ_1 OF 5","ispublic":1,"isfriend":0,"isfamily":0},{"id":"15227379847","owner":"127518570@N05","secret":"21c2c5c2e1","server":"3927","farm":4,"title":"UNBANDED2_MONASA ATRA_UCU_U_AUG172014_1104_AHERNANDEZ_2 OF 5","ispublic":1,"isfriend":0,"isfamily":0},{"id":"15227330028","owner":"127518570@N05","secret":"10381011ae","server":"2943","farm":3,"title":"UNBANDED2_MONASA ATRA_UCU_U_AUG172014_1104_AHERNANDEZ_3 OF 5","ispublic":1,"isfriend":0,"isfamily":0},{"id":"15227379557","owner":"127518570@N05","secret":"66e10c33a9","server":"3931","farm":4,"title":"UNBANDED2_MONASA ATRA_UCU_U_AUG172014_1104_AHERNANDEZ_5 OF 5","ispublic":1,"isfriend":0,"isfamily":0},{"id":"13280100574","owner":"75005676@N04","secret":"e53b03397f","server":"3807","farm":4,"title":"Chora-Chuva-de-Asa-Branca (Monasa atra)","ispublic":1,"isfriend":0,"isfamily":0},{"id":"8732510892","owner":"43886809@N03","secret":"1f76d5f04d","server":"7123","farm":8,"title":"Black Nunbird 121117 Monasa atra","ispublic":1,"isfriend":0,"isfamily":0},{"id":"8469633251","owner":"43886809@N03","secret":"9db46968bc","server":"8377","farm":9,"title":"Black Nunbird 121116 Monasa atra","ispublic":1,"isfriend":0,"isfamily":0},{"id":"8470726760","owner":"43886809@N03","secret":"d407b13d6d","server":"8086","farm":9,"title":"Black Nunbird 121116 Monasa atra","ispublic":1,"isfriend":0,"isfamily":0},{"id":"7868277466","owner":"12694900@N08","secret":"ec73b0bb82","server":"8300","farm":9,"title":"Pico de Lacre [Black Nunbird] (Monasa atra) (Juvenil)","ispublic":1,"isfriend":0,"isfamily":0},{"id":"7505414524","owner":"59946862@N07","secret":"09953c050f","server":"7270","farm":8,"title":"Monasa atra","ispublic":1,"isfriend":0,"isfamily":0},{"id":"7356196804","owner":"38536622@N02","secret":"573f7cab65","server":"8001","farm":9,"title":"IMG_5990","ispublic":1,"isfriend":0,"isfamily":0},{"id":"6775313659","owner":"7322586@N06","secret":"5a433a5006","server":"7035","farm":8,"title":"IMG_2200 Black Nunbird (Monasa atra)","ispublic":1,"isfriend":0,"isfamily":0},{"id":"6376265401","owner":"77084484@N00","secret":"958dc9fb66","server":"6054","farm":7,"title":"Black Nunbird (Monasa atra)","ispublic":1,"isfriend":0,"isfamily":0},{"id":"6376265081","owner":"77084484@N00","secret":"f340505362","server":"6106","farm":7,"title":"Black Nunbird (Monasa atra)","ispublic":1,"isfriend":0,"isfamily":0},{"id":"6215036329","owner":"96426273@N00","secret":"698c9d2acc","server":"6223","farm":7,"title":"Black nunbird IMG_2537","ispublic":1,"isfriend":0,"isfamily":0},{"id":"5575550798","owner":"50810363@N06","secret":"eddbe0ddf9","server":"5306","farm":6,"title":"Chora-chuva-de-asa-branca (Monasa atra - Boddaert, 1783)","ispublic":1,"isfriend":0,"isfamily":0},{"id":"52537162982","owner":"195770897@N06","secret":"8447ced9dc","server":"65535","farm":66,"title":"Monasa atra","ispublic":1,"isfriend":0,"isfamily":0},{"id":"52331545209","owner":"186193378@N07","secret":"e282cbbde8","server":"65535","farm":66,"title":"Chora-chuva-de-asa-branca (Monasa atra) Black Nunbird","ispublic":1,"isfriend":0,"isfamily":0},{"id":"52100927242","owner":"57465751@N05","secret":"0cd0708fa7","server":"65535","farm":66,"title":"Black Nunbird (Monasa atra), Atta Lodge, Iwokrama, Guyana","ispublic":1,"isfriend":0,"isfamily":0},{"id":"51396918424","owner":"190051159@N08","secret":"beb587cf58","server":"65535","farm":66,"title":"Chora-chuva-de-asa-branca (Monasa atra)","ispublic":1,"isfriend":0,"isfamily":0},{"id":"50559948313","owner":"187917085@N02","secret":"ecb084a4c1","server":"65535","farm":66,"title":"Monasa atra","ispublic":1,"isfriend":0,"isfamily":0},{"id":"49424911723","owner":"155161815@N04","secret":"073063fc96","server":"65535","farm":66,"title":"Barbacou noir Monasa atra - Black Nunbird_IMG_4905","ispublic":1,"isfriend":0,"isfamily":0},{"id":"49238505137","owner":"87325282@N00","secret":"21edd10d14","server":"65535","farm":66,"title":"Monasa atra","ispublic":1,"isfriend":0,"isfamily":0},{"id":"49238287281","owner":"87325282@N00","secret":"8661d680fc","server":"65535","farm":66,"title":"Monasa atra","ispublic":1,"isfriend":0,"isfamily":0},{"id":"49118413678","owner":"53589480@N03","secret":"506bfa9a8c","server":"65535","farm":66,"title":"Monasa atra","ispublic":1,"isfriend":0,"isfamily":0},{"id":"48959363961","owner":"182381287@N07","secret":"61f6d74e6d","server":"65535","farm":66,"title":"Chora-chuva-de-asa-branca (Monasa atra)","ispublic":1,"isfriend":0,"isfamily":0},{"id":"46966830325","owner":"50241576@N03","secret":"ee0355d5bc","server":"65535","farm":66,"title":"Black-Nunbird (Monasa atra)","ispublic":1,"isfriend":0,"isfamily":0},{"id":"46889268772","owner":"137112098@N05","secret":"7fb0e7c5c0","server":"4891","farm":5,"title":"BARBACOU NOIR ( Monasa atra )","ispublic":1,"isfriend":0,"isfamily":0},{"id":"46705840021","owner":"87325282@N00","secret":"b3f74285ca","server":"4822","farm":5,"title":"Monasa atra","ispublic":1,"isfriend":0,"isfamily":0},{"id":"46653068762","owner":"87325282@N00","secret":"bba29f1c95","server":"7909","farm":8,"title":"Monasa atra","ispublic":1,"isfriend":0,"isfamily":0},{"id":"43373822415","owner":"80666584@N05","secret":"b5a364f1d0","server":"1845","farm":2,"title":"chora-chuva-de-asa-branca \/ Black Nunbird","ispublic":1,"isfriend":0,"isfamily":0},{"id":"37379570094","owner":"112181416@N08","secret":"b983cbf421","server":"4448","farm":5,"title":"P\u00e1ssaros brasileiros","ispublic":1,"isfriend":0,"isfamily":0},{"id":"36206338863","owner":"123459850@N02","secret":"6c0363befb","server":"4361","farm":5,"title":"Black nunbird","ispublic":1,"isfriend":0,"isfamily":0},{"id":"36178762104","owner":"123459850@N02","secret":"21778d6d2e","server":"4361","farm":5,"title":"Black nunbird","ispublic":1,"isfriend":0,"isfamily":0},{"id":"36155783626","owner":"29170368@N03","secret":"78d547dcaf","server":"65535","farm":66,"title":"Black Nunbird","ispublic":1,"isfriend":0,"isfamily":0},{"id":"35359942475","owner":"116829024@N07","secret":"b39b7fa4c2","server":"4217","farm":5,"title":"Black Nunbird (Monasa atra)","ispublic":1,"isfriend":0,"isfamily":0},{"id":"35081337301","owner":"116829024@N07","secret":"39cd757de7","server":"4214","farm":5,"title":"Black Nunbird (Monasa atra)","ispublic":1,"isfriend":0,"isfamily":0},{"id":"32417602296","owner":"122737063@N05","secret":"f668d40a5a","server":"262","farm":1,"title":"Chora-chuva-de-asa-branca (Monasa atra) MAN 2866","ispublic":1,"isfriend":0,"isfamily":0},{"id":"32417602116","owner":"122737063@N05","secret":"38ec07dac1","server":"698","farm":1,"title":"Chora-chuva-de-asa-branca (Monasa atra) MAN 2850","ispublic":1,"isfriend":0,"isfamily":0},{"id":"30939835291","owner":"87325282@N00","secret":"ef4beec553","server":"5532","farm":6,"title":"Chora Chuva de Asa Branca \/ Black Nunbird (Monasa atra)","ispublic":1,"isfriend":0,"isfamily":0},{"id":"25131210384","owner":"52799999@N06","secret":"897fd3d1dd","server":"1707","farm":2,"title":"Black Nunbird (Monasa atra)","ispublic":1,"isfriend":0,"isfamily":0},{"id":"24633788803","owner":"54422928@N00","secret":"ee6a38e527","server":"1674","farm":2,"title":"Monasa atra","ispublic":1,"isfriend":0,"isfamily":0},{"id":"21281069276","owner":"101784223@N08","secret":"0fb83ffcb9","server":"5762","farm":6,"title":"Monasa atra","ispublic":1,"isfriend":0,"isfamily":0},{"id":"21208877212","owner":"136101944@N08","secret":"8dd32170e2","server":"5620","farm":6,"title":"Monasa atra (Black Nunbird)","ispublic":1,"isfriend":0,"isfamily":0},{"id":"20949988288","owner":"130467767@N03","secret":"380a3afe35","server":"5783","farm":6,"title":"Barbacou noir - Monasa atra","ispublic":1,"isfriend":0,"isfamily":0},{"id":"19031334973","owner":"130527241@N02","secret":"57d12c47d7","server":"3764","farm":4,"title":"Chora-chuva-de-asa-branca (Monasa atra)","ispublic":1,"isfriend":0,"isfamily":0},{"id":"19645145132","owner":"130527241@N02","secret":"1e6453d2e7","server":"3825","farm":4,"title":"Chora-chuva-de-asa-branca (Monasa atra)","ispublic":1,"isfriend":0,"isfamily":0},{"id":"19464181350","owner":"130527241@N02","secret":"5c5cc41172","server":"282","farm":1,"title":"Chora-chuva-de-asa-branca (Monasa atra)","ispublic":1,"isfriend":0,"isfamily":0},{"id":"19625922206","owner":"130527241@N02","secret":"3c927aea4f","server":"556","farm":1,"title":"Chora-chuva-de-asa-branca (Monasa atra)","ispublic":1,"isfriend":0,"isfamily":0},{"id":"19465462229","owner":"130527241@N02","secret":"68f01c9bd0","server":"3787","farm":4,"title":"Chora-chuva-de-asa-branca (Monasa atra)","ispublic":1,"isfriend":0,"isfamily":0},{"id":"19644988922","owner":"130527241@N02","secret":"5160f8ebe2","server":"332","farm":1,"title":"Chora-chuva-de-asa-branca (Monasa atra)","ispublic":1,"isfriend":0,"isfamily":0},{"id":"15717602634","owner":"130719166@N05","secret":"3cdf69aede","server":"7495","farm":8,"title":"Barbacou noir (Monasa atra)","ispublic":1,"isfriend":0,"isfamily":0},{"id":"16338268091","owner":"130719166@N05","secret":"308e671a07","server":"7545","farm":8,"title":"Barbacou noir (Monasa atra)","ispublic":1,"isfriend":0,"isfamily":0},{"id":"15227399857","owner":"127518570@N05","secret":"a1527c50ec","server":"3930","farm":4,"title":"UNBAND_MONASA ATRA_DPB_U_JUL282014_3114_AHERNANDEZ_1 OF 5","ispublic":1,"isfriend":0,"isfamily":0},{"id":"15227399727","owner":"127518570@N05","secret":"9b4e5c030e","server":"3931","farm":4,"title":"UNBAND_MONASA ATRA_DPB_U_JUL282014_3114_AHERNANDEZ_2 OF 5","ispublic":1,"isfriend":0,"isfamily":0},{"id":"15410762721","owner":"127518570@N05","secret":"454a73c26f","server":"2942","farm":3,"title":"UNBAND_MONASA ATRA_FCF_U_JUN072014_2107_AHERNANDEZ_1 OF 2","ispublic":1,"isfriend":0,"isfamily":0},{"id":"15227192779","owner":"127518570@N05","secret":"d02f907056","server":"3930","farm":4,"title":"UNBAND_MONASA ATRA_DPB_U_JUL282014_3114_AHERNANDEZ_5 OF 5","ispublic":1,"isfriend":0,"isfamily":0},{"id":"15227399127","owner":"127518570@N05","secret":"6e2d74b756","server":"3930","farm":4,"title":"UNBAND_MONASA ATRA_FCF_U_JUN072014_2107_AHERNANDEZ_2 OF 2","ispublic":1,"isfriend":0,"isfamily":0},{"id":"15227329988","owner":"127518570@N05","secret":"478ca75eb9","server":"3930","farm":4,"title":"UNBANDED2_MONASA ATRA_UCU_U_AUG172014_1104_AHERNANDEZ_4 OF 5","ispublic":1,"isfriend":0,"isfamily":0},{"id":"15294279552","owner":"127858540@N03","secret":"4a40fb7a03","server":"3885","farm":4,"title":"Barbacou noir","ispublic":1,"isfriend":0,"isfamily":0},{"id":"15095801431","owner":"13695637@N08","secret":"7c087f9a58","server":"3839","farm":4,"title":"Black Nunbird Monasa atra","ispublic":1,"isfriend":0,"isfamily":0},{"id":"14912146367","owner":"13695637@N08","secret":"5f1f425586","server":"3886","farm":4,"title":"Black Nunbird Monasa atra","ispublic":1,"isfriend":0,"isfamily":0},{"id":"11782595576","owner":"112181416@N08","secret":"eb9ec3b686","server":"3834","farm":4,"title":"Chora Chuva de Asa Branca - Monasa atra - Ramal Pau Rosa - Manaus - AM","ispublic":1,"isfriend":0,"isfamily":0},{"id":"9908795433","owner":"61859566@N04","secret":"e91fe267ac","server":"5345","farm":6,"title":"Monasa atra","ispublic":1,"isfriend":0,"isfamily":0},{"id":"8847202135","owner":"91123019@N08","secret":"801bb8052b","server":"7380","farm":8,"title":"Black nunbird","ispublic":1,"isfriend":0,"isfamily":0},{"id":"7505414696","owner":"59946862@N07","secret":"3a2854eaa8","server":"7116","farm":8,"title":"Amazonian Motmot taking a bite of me - Momotus momota","ispublic":1,"isfriend":0,"isfamily":0},{"id":"7461633918","owner":"52363379@N07","secret":"b991e3f4df","server":"7255","farm":8,"title":"Monasa atra","ispublic":1,"isfriend":0,"isfamily":0},{"id":"6775313379","owner":"7322586@N06","secret":"efdbd2d5e0","server":"7031","farm":8,"title":"IMG_2199 Black Nunbird (Monasa atra)","ispublic":1,"isfriend":0,"isfamily":0},{"id":"6731985783","owner":"45302763@N07","secret":"c0eeb7c1cf","server":"7151","farm":8,"title":"PA096162","ispublic":1,"isfriend":0,"isfamily":0},{"id":"6731985575","owner":"45302763@N07","secret":"a32710fd4b","server":"7004","farm":8,"title":"PA096137","ispublic":1,"isfriend":0,"isfamily":0},{"id":"6303294247","owner":"63581369@N07","secret":"20b3a88410","server":"6229","farm":7,"title":"Monasa atra","ispublic":1,"isfriend":0,"isfamily":0},{"id":"6251951357","owner":"11213979@N04","secret":"211a984862","server":"6173","farm":7,"title":"Monasa atra - chora-chuva-de-asa-branca","ispublic":1,"isfriend":0,"isfamily":0},{"id":"6252479162","owner":"11213979@N04","secret":"68e8a8314b","server":"6116","farm":7,"title":"Monasa atra - chora-chuva-de-asa-branca","ispublic":1,"isfriend":0,"isfamily":0},{"id":"6215036145","owner":"96426273@N00","secret":"bfdbf0fe23","server":"6238","farm":7,"title":"Black nunbird IMG_2533","ispublic":1,"isfriend":0,"isfamily":0},{"id":"5873082882","owner":"25449831@N00","secret":"1a5a495706","server":"3100","farm":4,"title":"Monasa atra","ispublic":1,"isfriend":0,"isfamily":0},{"id":"5732147703","owner":"25449831@N00","secret":"6616a2f0e8","server":"5030","farm":6,"title":"Black Nunbird","ispublic":1,"isfriend":0,"isfamily":0}]},"stat":"ok"}