{"photos":{"page":1,"pages":17,"perpage":100,"total":1642,"photo":[{"id":"52792719119","owner":"95610786@N07","secret":"470628bd71","server":"65535","farm":66,"title":"Blue-black Grassquit - Volatinia jacarina Jacarini noir 1953_DxO","ispublic":1,"isfriend":0,"isfamily":0},{"id":"52728653060","owner":"136354582@N02","secret":"7b40329a82","server":"65535","farm":66,"title":"Volatinia jacarina","ispublic":1,"isfriend":0,"isfamily":0},{"id":"52715243947","owner":"42543804@N03","secret":"3eba955800","server":"65535","farm":66,"title":"TIZIU_Volatinia_jacarina 17-2-2019","ispublic":1,"isfriend":0,"isfamily":0},{"id":"52705861158","owner":"31704662@N08","secret":"4b69d88c19","server":"65535","farm":66,"title":"Blue-black Grassquit (Volatinia jacarina)","ispublic":1,"isfriend":0,"isfamily":0},{"id":"52705784605","owner":"31704662@N08","secret":"1ac9eed7df","server":"65535","farm":66,"title":"Blue-black Grassquit (Volatinia jacarina)","ispublic":1,"isfriend":0,"isfamily":0},{"id":"52686184717","owner":"162501315@N05","secret":"ace02b1ca0","server":"65535","farm":66,"title":"Tiziu (Volatinia jacarina)","ispublic":1,"isfriend":0,"isfamily":0},{"id":"52687129235","owner":"162501315@N05","secret":"eb952154b7","server":"65535","farm":66,"title":"Tiziu (Volatinia jacarina)","ispublic":1,"isfriend":0,"isfamily":0},{"id":"52683818396","owner":"123597211@N03","secret":"9fac7706cd","server":"65535","farm":66,"title":"Jacarinitangare (Volatinia jacarina)","ispublic":1,"isfriend":0,"isfamily":0},{"id":"52645610066","owner":"68756708@N04","secret":"f7ea803c3c","server":"65535","farm":66,"title":"Blue-black Grassquit (Volatinia jacarina)","ispublic":1,"isfriend":0,"isfamily":0},{"id":"52635003201","owner":"65788177@N02","secret":"8b5f6a1fb6","server":"65535","farm":66,"title":"Blue-black Grassquit","ispublic":1,"isfriend":0,"isfamily":0},{"id":"52619385909","owner":"12639178@N07","secret":"a0a084d348","server":"65535","farm":66,"title":"Jacarinitangare","ispublic":1,"isfriend":0,"isfamily":0},{"id":"52591272347","owner":"45376259@N04","secret":"fb0164f7a3","server":"65535","farm":66,"title":"Tiziu  (Volatinia jacarina), Vale da Neblina, Para\u00edba, Brasil.","ispublic":1,"isfriend":0,"isfamily":0},{"id":"52589550980","owner":"129381110@N07","secret":"1d0ebebdb1","server":"65535","farm":66,"title":"Jacarinagors","ispublic":1,"isfriend":0,"isfamily":0},{"id":"52589119101","owner":"129381110@N07","secret":"3ca3bec253","server":"65535","farm":66,"title":"Jacarinagors","ispublic":1,"isfriend":0,"isfamily":0},{"id":"52567626085","owner":"50241576@N03","secret":"45c14cbc8a","server":"65535","farm":66,"title":"Blue-black Grassquit (Volatinia jacarina) Young","ispublic":1,"isfriend":0,"isfamily":0},{"id":"52541277992","owner":"54249623@N08","secret":"2cdd55ebd5","server":"65535","farm":66,"title":"Volatinero Negro, Blue-black Grassquit (Volatinia jacarina)","ispublic":1,"isfriend":0,"isfamily":0},{"id":"52521129007","owner":"21182099@N05","secret":"48a19f707c","server":"65535","farm":66,"title":"Blue-black Grassquit (Volatinia jacarina), juvenile","ispublic":1,"isfriend":0,"isfamily":0},{"id":"52510064108","owner":"186211059@N06","secret":"570782a90f","server":"65535","farm":66,"title":"Blue-black Grassquit","ispublic":1,"isfriend":0,"isfamily":0},{"id":"52490992099","owner":"52363379@N07","secret":"82b8574475","server":"65535","farm":66,"title":"Volatinia jacarina","ispublic":1,"isfriend":0,"isfamily":0},{"id":"52411585150","owner":"47835705@N04","secret":"52e509433c","server":"65535","farm":66,"title":"Saltapalito - Blue-black Grassquit (Volatinia jacarina) Lima, Per\u00fa","ispublic":1,"isfriend":0,"isfamily":0},{"id":"52334952670","owner":"21182099@N05","secret":"9ca20b3fcd","server":"65535","farm":66,"title":"Blue-black Grassquit (Volatinia jacarina), female","ispublic":1,"isfriend":0,"isfamily":0},{"id":"52288490971","owner":"35335823@N02","secret":"dd1c828a8e","server":"65535","farm":66,"title":"Tiziu","ispublic":1,"isfriend":0,"isfamily":0},{"id":"52288490991","owner":"35335823@N02","secret":"7c16ff251d","server":"65535","farm":66,"title":"Tiziu","ispublic":1,"isfriend":0,"isfamily":0},{"id":"52273077211","owner":"21182099@N05","secret":"d859036722","server":"65535","farm":66,"title":"Blue-black Grassquit (Volatinia jacarina), juvenile","ispublic":1,"isfriend":0,"isfamily":0},{"id":"52263290261","owner":"47835705@N04","secret":"bfc877bf69","server":"65535","farm":66,"title":"Saltapalito - Blue-black Grassquit (Volatinia jacarina) Lima, Per\u00fa","ispublic":1,"isfriend":0,"isfamily":0},{"id":"52202002972","owner":"99208129@N08","secret":"000fe1406f","server":"65535","farm":66,"title":"Volatinia jacarina \/ Blue-black Grassquit","ispublic":1,"isfriend":0,"isfamily":0},{"id":"52153629625","owner":"123597211@N03","secret":"13d043a172","server":"65535","farm":66,"title":"Jacarinitangare (Volatinia jacarina)","ispublic":1,"isfriend":0,"isfamily":0},{"id":"52153131306","owner":"123597211@N03","secret":"f86494402a","server":"65535","farm":66,"title":"Jacarinitangare (Volatinia jacarina)","ispublic":1,"isfriend":0,"isfamily":0},{"id":"52153138818","owner":"123597211@N03","secret":"1bfbd5a6f4","server":"65535","farm":66,"title":"Jacarinitangare (Volatinia jacarina)","ispublic":1,"isfriend":0,"isfamily":0},{"id":"52153138548","owner":"123597211@N03","secret":"2b1d3ba6e1","server":"65535","farm":66,"title":"Jacarinitangare (Volatinia jacarina)","ispublic":1,"isfriend":0,"isfamily":0},{"id":"52153138158","owner":"123597211@N03","secret":"361ce780cd","server":"65535","farm":66,"title":"Jacarinitangare (Volatinia jacarina)","ispublic":1,"isfriend":0,"isfamily":0},{"id":"52153628200","owner":"123597211@N03","secret":"6426a0e128","server":"65535","farm":66,"title":"Jacarinitangare (Volatinia jacarina)","ispublic":1,"isfriend":0,"isfamily":0},{"id":"52079010397","owner":"11016569@N06","secret":"9ff8b7df76","server":"65535","farm":66,"title":"Ter\u00e7a-natureza (p\u00e1ssaros)","ispublic":1,"isfriend":0,"isfamily":0},{"id":"52000771411","owner":"141506644@N06","secret":"8061bfb8ca","server":"65535","farm":66,"title":"Volatinero negro, Blue-black Grassquit, Volatinia jacarina (macho)","ispublic":1,"isfriend":0,"isfamily":0},{"id":"52000771316","owner":"141506644@N06","secret":"2dd56053a0","server":"65535","farm":66,"title":"Volatinero negro, Blue-black Grassquit, Volatinia jacarina (macho)","ispublic":1,"isfriend":0,"isfamily":0},{"id":"51992441834","owner":"12639178@N07","secret":"eb5a35e1bd","server":"65535","farm":66,"title":"Jacarinitangare, Rio Taquari bei Colinas","ispublic":1,"isfriend":0,"isfamily":0},{"id":"51982686978","owner":"24110087@N05","secret":"0c5f55a8ab","server":"65535","farm":66,"title":"Blue-black - Grassquit - Volatinia jacarina splenens","ispublic":1,"isfriend":0,"isfamily":0},{"id":"51863196261","owner":"193010058@N08","secret":"cc70785dde","server":"65535","farm":66,"title":"Blue-black grassquick (Volatinia jacarina) f","ispublic":1,"isfriend":0,"isfamily":0},{"id":"51811839097","owner":"96713629@N03","secret":"8a0550123c","server":"65535","farm":66,"title":"Maskergrondvink -Black Faced grassquit (Tiaris bicolor)-619_2763","ispublic":1,"isfriend":0,"isfamily":0},{"id":"51812801161","owner":"96713629@N03","secret":"39baed2d60","server":"65535","farm":66,"title":"Maskergrondvink -Black Faced grassquit (Tiaris bicolor)-619_2775","ispublic":1,"isfriend":0,"isfamily":0},{"id":"51753288291","owner":"7168480@N02","secret":"ec72f497e0","server":"65535","farm":66,"title":"Blue-black Grassquit","ispublic":1,"isfriend":0,"isfamily":0},{"id":"51725882168","owner":"12639178@N07","secret":"16591941b2","server":"65535","farm":66,"title":"Jacarini-Tangare","ispublic":1,"isfriend":0,"isfamily":0},{"id":"51725635981","owner":"12639178@N07","secret":"204f39c0a4","server":"65535","farm":66,"title":"Jacarini-Tangare (Blue-black Grassquit)","ispublic":1,"isfriend":0,"isfamily":0},{"id":"51689811488","owner":"61316002@N02","secret":"04906c420b","server":"65535","farm":66,"title":"BLUBLAGRA Im jacarina 3922","ispublic":1,"isfriend":0,"isfamily":0},{"id":"51674407031","owner":"146685570@N06","secret":"b8bae251a1","server":"65535","farm":66,"title":"FA 7 - The jump of \"tiziu\" # 2","ispublic":1,"isfriend":0,"isfamily":0},{"id":"51649202311","owner":"21182099@N05","secret":"9f436d70f0","server":"65535","farm":66,"title":"Blue-black Grassquit (Volatinia jacarina)","ispublic":1,"isfriend":0,"isfamily":0},{"id":"51538044624","owner":"61316002@N02","secret":"8066f42729","server":"65535","farm":66,"title":"BLUBLAGRA jacarina F 1295","ispublic":1,"isfriend":0,"isfamily":0},{"id":"51532895972","owner":"90826845@N04","secret":"1b5d55349c","server":"65535","farm":66,"title":"Blue-black Grassquit (Volatinia jacarina)","ispublic":1,"isfriend":0,"isfamily":0},{"id":"51485465490","owner":"61316002@N02","secret":"30bb7bd8f7","server":"65535","farm":66,"title":"BLUBLAGRA jacarina Im 9888","ispublic":1,"isfriend":0,"isfamily":0},{"id":"51439414790","owner":"61316002@N02","secret":"4a0b599a69","server":"65535","farm":66,"title":"BLUBLAGRA jacarina 9657","ispublic":1,"isfriend":0,"isfamily":0},{"id":"51407028577","owner":"41643989@N04","secret":"b98c6c320c","server":"65535","farm":66,"title":"Blue-black Grassquit -Volatinia jacarina - Torti, Panam\u00e1, Panama - June 18, 2021","ispublic":1,"isfriend":0,"isfamily":0},{"id":"51394429449","owner":"105765827@N03","secret":"1e645116cd","server":"0","farm":0,"title":"No por ser un ave com\u00fan, este espiguero saltar\u00edn deja de tener su gracia.","ispublic":1,"isfriend":0,"isfamily":0},{"id":"51393956833","owner":"105765827@N03","secret":"04e4247b38","server":"65535","farm":66,"title":"No por ser un ave com\u00fan, este espiguero saltar\u00edn deja de tener su gracia.","ispublic":1,"isfriend":0,"isfamily":0},{"id":"51394703810","owner":"105765827@N03","secret":"7d146f0510","server":"65535","farm":66,"title":"No por ser un ave com\u00fan, este espiguero saltar\u00edn deja de tener su gracia.","ispublic":1,"isfriend":0,"isfamily":0},{"id":"51393950228","owner":"105765827@N03","secret":"8de0dcb603","server":"65535","farm":66,"title":"No por ser un ave com\u00fan, este espiguero saltar\u00edn deja de tener su gracia.","ispublic":1,"isfriend":0,"isfamily":0},{"id":"51304858822","owner":"41643989@N04","secret":"cd899e9034","server":"65535","farm":66,"title":"Blue-black Grassquit -Volatinia jacarina - Soberan\u00eda National Park, Col\u00f3n, Panama - June 12, 2021","ispublic":1,"isfriend":0,"isfamily":0},{"id":"51306323229","owner":"41643989@N04","secret":"b9a5cd2aed","server":"65535","farm":66,"title":"Blue-black Grassquit -Volatinia jacarina - Soberan\u00eda National Park, Col\u00f3n, Panama - June 12, 2021","ispublic":1,"isfriend":0,"isfamily":0},{"id":"51304858812","owner":"41643989@N04","secret":"d9a8fb58f7","server":"65535","farm":66,"title":"Blue-black Grassquit -Volatinia jacarina - Soberan\u00eda National Park, Col\u00f3n, Panama - June 12, 2021","ispublic":1,"isfriend":0,"isfamily":0},{"id":"51297301232","owner":"26371261@N00","secret":"21af2a0346","server":"65535","farm":66,"title":"Blue-black Grassquit, Volatinia jacarina","ispublic":1,"isfriend":0,"isfamily":0},{"id":"51219194479","owner":"61021753@N02","secret":"13df9b40b8","server":"65535","farm":66,"title":"n138_w1150","ispublic":1,"isfriend":0,"isfamily":0},{"id":"51189413357","owner":"192367901@N03","secret":"da8db44695","server":"65535","farm":66,"title":"Blue Black Grassquit (Volatinia jacarina)","ispublic":1,"isfriend":0,"isfamily":0},{"id":"51139459077","owner":"18217058@N04","secret":"fe3debfbc1","server":"65535","farm":66,"title":"Blue-black grassquit (Volatinia jacarina)","ispublic":1,"isfriend":0,"isfamily":0},{"id":"51139458977","owner":"18217058@N04","secret":"cd5a9a92c0","server":"65535","farm":66,"title":"Blue-black grassquit (Volatinia jacarina)","ispublic":1,"isfriend":0,"isfamily":0},{"id":"51124650219","owner":"45759259@N06","secret":"9d0e34a748","server":"65535","farm":66,"title":"Sporophile \u00e0 bec fort Sporophila funerea Thick-billed Seed Finch","ispublic":1,"isfriend":0,"isfamily":0},{"id":"52684101454","owner":"123597211@N03","secret":"f2240f3377","server":"65535","farm":66,"title":"Jacarinitangare (Volatinia jacarina)","ispublic":1,"isfriend":0,"isfamily":0},{"id":"52683302787","owner":"123597211@N03","secret":"bd65cf9185","server":"65535","farm":66,"title":"Jacarinitangare (Volatinia jacarina)","ispublic":1,"isfriend":0,"isfamily":0},{"id":"52683302447","owner":"123597211@N03","secret":"33318ff85e","server":"65535","farm":66,"title":"Jacarinitangare (Volatinia jacarina)","ispublic":1,"isfriend":0,"isfamily":0},{"id":"52683302107","owner":"123597211@N03","secret":"4df98f2190","server":"65535","farm":66,"title":"Jacarinitangare (Volatinia jacarina)","ispublic":1,"isfriend":0,"isfamily":0},{"id":"52684242935","owner":"123597211@N03","secret":"297a60c241","server":"65535","farm":66,"title":"Jacarinitangare (Volatinia jacarina)","ispublic":1,"isfriend":0,"isfamily":0},{"id":"52683299047","owner":"123597211@N03","secret":"84d450f17a","server":"65535","farm":66,"title":"Jacarinitangare (Volatinia jacarina)","ispublic":1,"isfriend":0,"isfamily":0},{"id":"52684240270","owner":"123597211@N03","secret":"7fa39cd0d5","server":"65535","farm":66,"title":"Jacarinitangare (Volatinia jacarina)","ispublic":1,"isfriend":0,"isfamily":0},{"id":"52684311253","owner":"123597211@N03","secret":"72c9698e6f","server":"65535","farm":66,"title":"Jacarinitangare (Volatinia jacarina)","ispublic":1,"isfriend":0,"isfamily":0},{"id":"52683297712","owner":"123597211@N03","secret":"50503a8312","server":"65535","farm":66,"title":"Jacarinitangare (Volatinia jacarina)","ispublic":1,"isfriend":0,"isfamily":0},{"id":"52683297422","owner":"123597211@N03","secret":"842e1d8f71","server":"65535","farm":66,"title":"Jacarinitangare (Volatinia jacarina)","ispublic":1,"isfriend":0,"isfamily":0},{"id":"52684239010","owner":"123597211@N03","secret":"16885bdf60","server":"65535","farm":66,"title":"Jacarinitangare (Volatinia jacarina)","ispublic":1,"isfriend":0,"isfamily":0},{"id":"52684309858","owner":"123597211@N03","secret":"8c3edf618a","server":"65535","farm":66,"title":"Jacarinitangare (Volatinia jacarina)","ispublic":1,"isfriend":0,"isfamily":0},{"id":"52684298903","owner":"123597211@N03","secret":"ef5fa271f4","server":"65535","farm":66,"title":"Jacarinitangare (Volatinia jacarina)","ispublic":1,"isfriend":0,"isfamily":0},{"id":"52684084139","owner":"123597211@N03","secret":"010d817d96","server":"65535","farm":66,"title":"Jacarinitangare (Volatinia jacarina)","ispublic":1,"isfriend":0,"isfamily":0},{"id":"52684083904","owner":"123597211@N03","secret":"b8e2df6f61","server":"65535","farm":66,"title":"Jacarinitangare (Volatinia jacarina)","ispublic":1,"isfriend":0,"isfamily":0},{"id":"52684083669","owner":"123597211@N03","secret":"926e90a4a6","server":"65535","farm":66,"title":"Jacarinitangare (Volatinia jacarina)","ispublic":1,"isfriend":0,"isfamily":0},{"id":"52684297938","owner":"123597211@N03","secret":"48e91d3a4e","server":"65535","farm":66,"title":"Jacarinitangare (Volatinia jacarina)","ispublic":1,"isfriend":0,"isfamily":0},{"id":"52610168813","owner":"195008235@N02","secret":"e89b302d13","server":"65535","farm":66,"title":"Semillero brincador\/ Blue-black grassquit \u2642\ufe0f - Volatinia jacarina","ispublic":1,"isfriend":0,"isfamily":0},{"id":"52589476615","owner":"193617639@N07","secret":"9a8580cab6","server":"65535","farm":66,"title":"Tiziu (Volatinia jacarina)","ispublic":1,"isfriend":0,"isfamily":0},{"id":"52509829512","owner":"39654759@N07","secret":"d62627595b","server":"65535","farm":66,"title":"female Blue-black grassquit 2 Volatinia jacarina","ispublic":1,"isfriend":0,"isfamily":0},{"id":"52481132551","owner":"131708321@N02","secret":"22f14d3f13","server":"65535","farm":66,"title":"Blue-black Grassquit (Volatinia jacarina), Gamboa, Panama","ispublic":1,"isfriend":0,"isfamily":0},{"id":"52428350892","owner":"77128742@N06","secret":"c3f8533202","server":"65535","farm":66,"title":"Peru-Jacariniammer_Volatinia jacarina peruviensis-23","ispublic":1,"isfriend":0,"isfamily":0},{"id":"52428852486","owner":"77128742@N06","secret":"efc5c2da39","server":"65535","farm":66,"title":"Peru-Jacariniammer_Volatinia jacarina peruviensis-37","ispublic":1,"isfriend":0,"isfamily":0},{"id":"52101194545","owner":"24309230@N03","secret":"e7c1568c95","server":"65535","farm":66,"title":"Blue-black Grassquit","ispublic":1,"isfriend":0,"isfamily":0},{"id":"51884988446","owner":"195008235@N02","secret":"4271b21713","server":"65535","farm":66,"title":"2022-02-16_04-25-40","ispublic":1,"isfriend":0,"isfamily":0},{"id":"51696742110","owner":"193245370@N07","secret":"7c38be3e1e","server":"65535","farm":66,"title":"Blue-backed grassquit (Volatinia jacarina)","ispublic":1,"isfriend":0,"isfamily":0},{"id":"51674405441","owner":"146685570@N06","secret":"37681347e0","server":"65535","farm":66,"title":"FA 6 - The jump of \"tiziu\" # 4","ispublic":1,"isfriend":0,"isfamily":0},{"id":"51674640708","owner":"146685570@N06","secret":"2e312d8fdb","server":"65535","farm":66,"title":"FA 5 - The jump of \"tiziu\" # 3","ispublic":1,"isfriend":0,"isfamily":0},{"id":"51674640703","owner":"146685570@N06","secret":"94309e5f6a","server":"65535","farm":66,"title":"FA 4 - The jump of \"tiziu\"","ispublic":1,"isfriend":0,"isfamily":0},{"id":"51674403656","owner":"146685570@N06","secret":"fa3bbcb357","server":"65535","farm":66,"title":"FA 10 - The \"tiziu\"","ispublic":1,"isfriend":0,"isfamily":0},{"id":"51670817861","owner":"8013969@N03","secret":"19519aa21c","server":"65535","farm":66,"title":"Volatinia jacarina","ispublic":1,"isfriend":0,"isfamily":0},{"id":"51628628395","owner":"193493417@N08","secret":"157a70a748","server":"65535","farm":66,"title":"Volatinia jacarina  1","ispublic":1,"isfriend":0,"isfamily":0},{"id":"51589795521","owner":"136354582@N02","secret":"9741049c53","server":"65535","farm":66,"title":"Volatinia jacarina","ispublic":1,"isfriend":0,"isfamily":0},{"id":"51552735887","owner":"26371261@N00","secret":"93aa6ae038","server":"65535","farm":66,"title":"Blue-black Grassquit, Volatinia jacarina","ispublic":1,"isfriend":0,"isfamily":0},{"id":"51326945205","owner":"138967000@N06","secret":"e29cefd4c5","server":"65535","farm":66,"title":"DSC_0417","ispublic":1,"isfriend":0,"isfamily":0},{"id":"51307786980","owner":"131074378@N04","secret":"61f3c6531f","server":"65535","farm":66,"title":"Semillero Brincador (Volatinia jacarina)","ispublic":1,"isfriend":0,"isfamily":0}]},"stat":"ok"}