{"photos":{"page":1,"pages":25,"perpage":100,"total":2462,"photo":[{"id":"52714303994","owner":"123979267@N05","secret":"70c161a582","server":"65535","farm":66,"title":"Blue Grosbeak","ispublic":1,"isfriend":0,"isfamily":0},{"id":"52708854742","owner":"195537536@N03","secret":"00f64147ba","server":"65535","farm":66,"title":"Blue Grosbeak (Passerina caerulea) Non-breeding Male","ispublic":1,"isfriend":0,"isfamily":0},{"id":"52690209137","owner":"196993321@N07","secret":"e73f9b38d6","server":"65535","farm":66,"title":"Male Blue Grosbeak","ispublic":1,"isfriend":0,"isfamily":0},{"id":"52688514011","owner":"24608578@N00","secret":"e1d3b9ce93","server":"65535","farm":66,"title":"Blue grosbeak (Passerina caerulea), female","ispublic":1,"isfriend":0,"isfamily":0},{"id":"52686723729","owner":"24608578@N00","secret":"73702eebf0","server":"65535","farm":66,"title":"Blue grosbeak (Passerina caerulea), male","ispublic":1,"isfriend":0,"isfamily":0},{"id":"52680349701","owner":"187792860@N04","secret":"91978cbe45","server":"65535","farm":66,"title":"Blue Grosbeak (Passerina caerulea)","ispublic":1,"isfriend":0,"isfamily":0},{"id":"52680541779","owner":"24608578@N00","secret":"6370022c98","server":"65535","farm":66,"title":"Blue grosbeak (Passerina caerulea), male","ispublic":1,"isfriend":0,"isfamily":0},{"id":"52680259706","owner":"24608578@N00","secret":"cfafb82b41","server":"65535","farm":66,"title":"Blue grosbeak (Passerina caerulea), male","ispublic":1,"isfriend":0,"isfamily":0},{"id":"52676306018","owner":"24608578@N00","secret":"4002a3c729","server":"65535","farm":66,"title":"Blue grosbeak (Passerina caerulea), male","ispublic":1,"isfriend":0,"isfamily":0},{"id":"52671240233","owner":"50264295@N06","secret":"db3213c235","server":"65535","farm":66,"title":"Blue Grosbeak (Passerina caerulea)- ASY, DCA male","ispublic":1,"isfriend":0,"isfamily":0},{"id":"52671162470","owner":"50264295@N06","secret":"57cb7b4daa","server":"65535","farm":66,"title":"Blue Grosbeak (Passerina caerulea)- ASY, DCA male","ispublic":1,"isfriend":0,"isfamily":0},{"id":"52671006729","owner":"50264295@N06","secret":"1f7195d118","server":"65535","farm":66,"title":"Blue Grosbeak (Passerina caerulea)- ASY, DCA male","ispublic":1,"isfriend":0,"isfamily":0},{"id":"52671000589","owner":"50264295@N06","secret":"e8d93a75ec","server":"65535","farm":66,"title":"Blue Grosbeak (Passerina caerulea)- ASY, DCA male","ispublic":1,"isfriend":0,"isfamily":0},{"id":"52670982894","owner":"50264295@N06","secret":"07d2bde063","server":"65535","farm":66,"title":"Blue Grosbeak (Passerina caerulea)- ASY, DCA male","ispublic":1,"isfriend":0,"isfamily":0},{"id":"52670972529","owner":"50264295@N06","secret":"4d36c0889c","server":"65535","farm":66,"title":"Blue Grosbeak (Passerina caerulea)- ASY, DCA male","ispublic":1,"isfriend":0,"isfamily":0},{"id":"52670966039","owner":"50264295@N06","secret":"4a153a045f","server":"65535","farm":66,"title":"Blue Grosbeak (Passerina caerulea)- ASY, DCA male","ispublic":1,"isfriend":0,"isfamily":0},{"id":"52671157723","owner":"50264295@N06","secret":"96c5e65501","server":"65535","farm":66,"title":"Blue Grosbeak (Passerina caerulea)- ASY, DCA male","ispublic":1,"isfriend":0,"isfamily":0},{"id":"52667869684","owner":"50264295@N06","secret":"10feb56b77","server":"65535","farm":66,"title":"Blue Grosbeak (Passerina caerulea)- ASY, DCA male","ispublic":1,"isfriend":0,"isfamily":0},{"id":"52668012075","owner":"50264295@N06","secret":"abfb98bc2e","server":"65535","farm":66,"title":"Blue Grosbeak (Passerina caerulea)- ASY, DCA male","ispublic":1,"isfriend":0,"isfamily":0},{"id":"52667569566","owner":"50264295@N06","secret":"bb715401f4","server":"65535","farm":66,"title":"Blue Grosbeak (Passerina caerulea)- ASY, DCA male","ispublic":1,"isfriend":0,"isfamily":0},{"id":"52668067468","owner":"50264295@N06","secret":"91d62c16e3","server":"65535","farm":66,"title":"Blue Grosbeak (Passerina caerulea)- ASY, DCA male","ispublic":1,"isfriend":0,"isfamily":0},{"id":"52667060822","owner":"50264295@N06","secret":"bb9b66160d","server":"65535","farm":66,"title":"Blue Grosbeak (Passerina caerulea)- ASY, DCA male","ispublic":1,"isfriend":0,"isfamily":0},{"id":"52668054898","owner":"50264295@N06","secret":"e990436b8f","server":"65535","farm":66,"title":"Blue Grosbeak (Passerina caerulea)- ASY, DCA male","ispublic":1,"isfriend":0,"isfamily":0},{"id":"52667508351","owner":"50264295@N06","secret":"2e0827d969","server":"65535","farm":66,"title":"Blue Grosbeak (Passerina caerulea)- ASY, DCA male","ispublic":1,"isfriend":0,"isfamily":0},{"id":"52663068950","owner":"24608578@N00","secret":"47e0962541","server":"65535","farm":66,"title":"Blue grosbeak (Passerina caerulea), male","ispublic":1,"isfriend":0,"isfamily":0},{"id":"52663124893","owner":"24608578@N00","secret":"b91c576bb8","server":"65535","farm":66,"title":"Blue grosbeak (Passerina caerulea), male","ispublic":1,"isfriend":0,"isfamily":0},{"id":"52662129917","owner":"24608578@N00","secret":"008c5e38f6","server":"65535","farm":66,"title":"Blue grosbeak (Passerina caerulea), male","ispublic":1,"isfriend":0,"isfamily":0},{"id":"52662915279","owner":"24608578@N00","secret":"ff145e2c83","server":"65535","farm":66,"title":"Blue grosbeak (Passerina caerulea), male","ispublic":1,"isfriend":0,"isfamily":0},{"id":"52662129797","owner":"24608578@N00","secret":"4fe5021261","server":"65535","farm":66,"title":"Blue grosbeak (Passerina caerulea), male","ispublic":1,"isfriend":0,"isfamily":0},{"id":"52650881491","owner":"78145652@N02","secret":"dbd7954c12","server":"65535","farm":66,"title":"Blue Grosbeak - Passerina caerulea","ispublic":1,"isfriend":0,"isfamily":0},{"id":"52642856092","owner":"32752434@N07","secret":"24f6dc44b7","server":"65535","farm":66,"title":"Blue Grosbeak (Passerina caerulea)","ispublic":1,"isfriend":0,"isfamily":0},{"id":"52643544408","owner":"32752434@N07","secret":"4db781708c","server":"65535","farm":66,"title":"Blue Grosbeak (Passerina caerulea)","ispublic":1,"isfriend":0,"isfamily":0},{"id":"52639439568","owner":"67164820@N06","secret":"9ce047d510","server":"65535","farm":66,"title":"blue grosbeak","ispublic":1,"isfriend":0,"isfamily":0},{"id":"52638446827","owner":"67164820@N06","secret":"61532de537","server":"65535","farm":66,"title":"blue grosbeak 2","ispublic":1,"isfriend":0,"isfamily":0},{"id":"52639439353","owner":"67164820@N06","secret":"8b224cca30","server":"65535","farm":66,"title":"blue grosbeak 3","ispublic":1,"isfriend":0,"isfamily":0},{"id":"52534290687","owner":"33610210@N05","secret":"a648c76062","server":"65535","farm":66,"title":"Blue Grosbeak, Passerina caerulea","ispublic":1,"isfriend":0,"isfamily":0},{"id":"52535301753","owner":"33610210@N05","secret":"e111c31eac","server":"65535","farm":66,"title":"Blue Grosbeak, Passerina caerulea","ispublic":1,"isfriend":0,"isfamily":0},{"id":"52531117275","owner":"33610210@N05","secret":"c0f9b7cfed","server":"65535","farm":66,"title":"Blue Grosbeak, Passerina caerulea","ispublic":1,"isfriend":0,"isfamily":0},{"id":"52531117250","owner":"33610210@N05","secret":"0d24510e9c","server":"65535","farm":66,"title":"Blue Grosbeak, Passerina caerulea","ispublic":1,"isfriend":0,"isfamily":0},{"id":"52531117240","owner":"33610210@N05","secret":"4db8ca3223","server":"65535","farm":66,"title":"Blue Grosbeak, Passerina caerulea","ispublic":1,"isfriend":0,"isfamily":0},{"id":"52531040443","owner":"33610210@N05","secret":"5dc0359819","server":"65535","farm":66,"title":"Blue Grosbeak, Passerina caerulea","ispublic":1,"isfriend":0,"isfamily":0},{"id":"52531040423","owner":"33610210@N05","secret":"9a3f28b2c2","server":"65535","farm":66,"title":"Blue Grosbeak, Passerina caerulea (3)","ispublic":1,"isfriend":0,"isfamily":0},{"id":"52530968865","owner":"33610210@N05","secret":"5fd0bab316","server":"65535","farm":66,"title":"Blue Grosbeak, Passerina caerulea","ispublic":1,"isfriend":0,"isfamily":0},{"id":"52529974722","owner":"33610210@N05","secret":"f6761b8b8a","server":"65535","farm":66,"title":"Blue Grosbeak, Passerina caerulea","ispublic":1,"isfriend":0,"isfamily":0},{"id":"52494687979","owner":"39177293@N03","secret":"0deab792f7","server":"65535","farm":66,"title":"Blue Grosbeak","ispublic":1,"isfriend":0,"isfamily":0},{"id":"52493196912","owner":"39445433@N02","secret":"b78ef1e59a","server":"65535","farm":66,"title":"Blue Grosbeak","ispublic":1,"isfriend":0,"isfamily":0},{"id":"52493680186","owner":"39445433@N02","secret":"c7f80707c6","server":"65535","farm":66,"title":"Blue Grosbeak","ispublic":1,"isfriend":0,"isfamily":0},{"id":"52493196787","owner":"39445433@N02","secret":"bc012da0dd","server":"65535","farm":66,"title":"Blue Grosbeak","ispublic":1,"isfriend":0,"isfamily":0},{"id":"52494147875","owner":"39445433@N02","secret":"ac6012fb7c","server":"65535","farm":66,"title":"Blue Grosbeak","ispublic":1,"isfriend":0,"isfamily":0},{"id":"52493962654","owner":"39445433@N02","secret":"6f88b3eaaa","server":"65535","farm":66,"title":"Blue Grosbeak","ispublic":1,"isfriend":0,"isfamily":0},{"id":"52493677091","owner":"39445433@N02","secret":"6a16b7faa7","server":"65535","farm":66,"title":"Blue Grosbeak","ispublic":1,"isfriend":0,"isfamily":0},{"id":"52494144790","owner":"39445433@N02","secret":"2b8266eeaf","server":"65535","farm":66,"title":"Blue Grosbeak","ispublic":1,"isfriend":0,"isfamily":0},{"id":"52484779105","owner":"91620959@N08","secret":"e2e40333cf","server":"65535","farm":66,"title":"Blue grosbeak (Passerina caerulea)","ispublic":1,"isfriend":0,"isfamily":0},{"id":"52440289384","owner":"145466593@N08","secret":"e4663e03a5","server":"65535","farm":66,"title":"Blue Grosbeak (female\/immature)","ispublic":1,"isfriend":0,"isfamily":0},{"id":"52438945438","owner":"17654080@N08","secret":"2b7da1e09d","server":"65535","farm":66,"title":"Blue Grosbeak, immature (Passerina caerulea)","ispublic":1,"isfriend":0,"isfamily":0},{"id":"52437918242","owner":"17654080@N08","secret":"47af18556a","server":"65535","farm":66,"title":"Blue Grosbeak, immature (Passerina caerulea)","ispublic":1,"isfriend":0,"isfamily":0},{"id":"52424130574","owner":"65148649@N04","secret":"656a20618c","server":"65535","farm":66,"title":"Blue Grosbeak","ispublic":1,"isfriend":0,"isfamily":0},{"id":"52415366939","owner":"67277069@N06","secret":"05404cbc71","server":"65535","farm":66,"title":"Blue Grosbeak---Passerina caerulea","ispublic":1,"isfriend":0,"isfamily":0},{"id":"52405953573","owner":"54035970@N06","secret":"854e1f66b5","server":"65535","farm":66,"title":"Passerina caerulea (Blue Grosbeak)","ispublic":1,"isfriend":0,"isfamily":0},{"id":"52392274480","owner":"65148649@N04","secret":"db450232d6","server":"65535","farm":66,"title":"Blue Grosbeak","ispublic":1,"isfriend":0,"isfamily":0},{"id":"52384214609","owner":"52450054@N04","secret":"9d4163c672","server":"65535","farm":66,"title":"Blue Grosbeak - Passerina caerulea, Lorton Landfill, Lorton, Virginia, September 9, 2022","ispublic":1,"isfriend":0,"isfamily":0},{"id":"52350596137","owner":"65148649@N04","secret":"7389c9c517","server":"65535","farm":66,"title":"Blue Grosbeak","ispublic":1,"isfriend":0,"isfamily":0},{"id":"52351547531","owner":"65148649@N04","secret":"1d14d339ca","server":"65535","farm":66,"title":"Blue Grosbeak","ispublic":1,"isfriend":0,"isfamily":0},{"id":"52345927884","owner":"132165466@N08","secret":"34615c33c0","server":"65535","farm":66,"title":"Blue Grosbeak, female or young female","ispublic":1,"isfriend":0,"isfamily":0},{"id":"52344898449","owner":"44034115@N08","secret":"c6f8611444","server":"65535","farm":66,"title":"One Bite at a Time Blue Grosbeak","ispublic":1,"isfriend":0,"isfamily":0},{"id":"52322444499","owner":"130605131@N08","secret":"b65fcfe7ec","server":"65535","farm":66,"title":"IMG_1583","ispublic":1,"isfriend":0,"isfamily":0},{"id":"52322336613","owner":"130605131@N08","secret":"eaf62d586e","server":"65535","farm":66,"title":"IMG_1584","ispublic":1,"isfriend":0,"isfamily":0},{"id":"52321218137","owner":"130605131@N08","secret":"cedace191a","server":"65535","farm":66,"title":"IMG_1585","ispublic":1,"isfriend":0,"isfamily":0},{"id":"52322444429","owner":"130605131@N08","secret":"6e514c3bb6","server":"65535","farm":66,"title":"IMG_1586","ispublic":1,"isfriend":0,"isfamily":0},{"id":"52580867940","owner":"153973412@N04","secret":"26bd386c31","server":"65535","farm":66,"title":"Blue Grosbeak-Passerina caerulea, Coralville, IA","ispublic":1,"isfriend":0,"isfamily":0},{"id":"52495530594","owner":"64557331@N04","secret":"d3e6d8b2a6","server":"65535","farm":66,"title":"Blue Grosbeak - (Passerina caerulea)_06042021_7","ispublic":1,"isfriend":0,"isfamily":0},{"id":"52495719950","owner":"64557331@N04","secret":"6564a1d3fc","server":"65535","farm":66,"title":"Blue Grosbeak - (Passerina caerulea)_06042021_6","ispublic":1,"isfriend":0,"isfamily":0},{"id":"52495719910","owner":"64557331@N04","secret":"a5293693b8","server":"65535","farm":66,"title":"Blue Grosbeak - (Passerina caerulea)_06042021_5","ispublic":1,"isfriend":0,"isfamily":0},{"id":"52494762962","owner":"64557331@N04","secret":"511eee4fe6","server":"65535","farm":66,"title":"Blue Grosbeak - (Passerina caerulea)_06042021_4","ispublic":1,"isfriend":0,"isfamily":0},{"id":"52494762942","owner":"64557331@N04","secret":"137d449b8a","server":"65535","farm":66,"title":"Blue Grosbeak - (Passerina caerulea)_06042021_3","ispublic":1,"isfriend":0,"isfamily":0},{"id":"52495530499","owner":"64557331@N04","secret":"00dc898734","server":"65535","farm":66,"title":"Blue Grosbeak - (Passerina caerulea)_06042021_2","ispublic":1,"isfriend":0,"isfamily":0},{"id":"52495245091","owner":"64557331@N04","secret":"0772318d34","server":"65535","farm":66,"title":"Blue Grosbeak - (Passerina caerulea)_06042021","ispublic":1,"isfriend":0,"isfamily":0},{"id":"52495703125","owner":"64557331@N04","secret":"37cb5ab7cd","server":"65535","farm":66,"title":"Blue Grosbeak - (Passerina caerulea)_07012022_2","ispublic":1,"isfriend":0,"isfamily":0},{"id":"52495514044","owner":"64557331@N04","secret":"d5501698f8","server":"65535","farm":66,"title":"Blue Grosbeak - (Passerina caerulea)_07012022","ispublic":1,"isfriend":0,"isfamily":0},{"id":"52493196652","owner":"39445433@N02","secret":"9e9d7be2b1","server":"65535","farm":66,"title":"Blue Grosbeak","ispublic":1,"isfriend":0,"isfamily":0},{"id":"52466396039","owner":"37493716@N02","secret":"db814968cb","server":"65535","farm":66,"title":"Blue Grosbeak - Passerina caerulea. San Andres Isla - Octubre 5 -2022 - Juan Carlos Luna (3)","ispublic":1,"isfriend":0,"isfamily":0},{"id":"52466395444","owner":"37493716@N02","secret":"acc040293c","server":"65535","farm":66,"title":"Blue Grosbeak - Passerina caerulea. San Andres Isla - Octubre 5 -2022 - Juan Carlos Luna (12)","ispublic":1,"isfriend":0,"isfamily":0},{"id":"52443787702","owner":"13451078@N03","secret":"53e7326c46","server":"65535","farm":66,"title":"Blue Grosbeak (Passerina caerulea)","ispublic":1,"isfriend":0,"isfamily":0},{"id":"52438423021","owner":"17654080@N08","secret":"dc74b9aac5","server":"65535","farm":66,"title":"Blue Grosbeak, immature (Passerina caerulea)","ispublic":1,"isfriend":0,"isfamily":0},{"id":"52407109561","owner":"156457454@N02","secret":"538629d18d","server":"65535","farm":66,"title":"Passerina caerulea 13 (Blue Grosbeak)","ispublic":1,"isfriend":0,"isfamily":0},{"id":"52406612622","owner":"156457454@N02","secret":"80285791c7","server":"65535","farm":66,"title":"Passerina caerulea 12 (Blue Grosbeak)","ispublic":1,"isfriend":0,"isfamily":0},{"id":"52407401674","owner":"156457454@N02","secret":"9509715c9a","server":"65535","farm":66,"title":"Passerina caerulea 11 (Blue Grosbeak)","ispublic":1,"isfriend":0,"isfamily":0},{"id":"52398304348","owner":"156457454@N02","secret":"0b90711921","server":"65535","farm":66,"title":"Passerina caerulea 8 (Blue Grosbeak)","ispublic":1,"isfriend":0,"isfamily":0},{"id":"52398095654","owner":"156457454@N02","secret":"d04238747d","server":"65535","farm":66,"title":"Passerina caerulea 10 (Blue Grosbeak)","ispublic":1,"isfriend":0,"isfamily":0},{"id":"52397808961","owner":"156457454@N02","secret":"be7fb3e111","server":"65535","farm":66,"title":"Passerina caerulea 9 (Blue Grosbeak)","ispublic":1,"isfriend":0,"isfamily":0},{"id":"52393803708","owner":"156457454@N02","secret":"8bd7850459","server":"65535","farm":66,"title":"Passerina caerulea 6 (Blue Grosbeak)","ispublic":1,"isfriend":0,"isfamily":0},{"id":"52393598044","owner":"156457454@N02","secret":"2f5c191687","server":"65535","farm":66,"title":"Passerina caerulea 7 (Blue Grosbeak)","ispublic":1,"isfriend":0,"isfamily":0},{"id":"52392158159","owner":"65148649@N04","secret":"f2ebb11687","server":"65535","farm":66,"title":"Blue Grosbeak","ispublic":1,"isfriend":0,"isfamily":0},{"id":"52391224871","owner":"156457454@N02","secret":"6951e4ca93","server":"65535","farm":66,"title":"Passerina caerulea 4 (Blue Grosbeak)","ispublic":1,"isfriend":0,"isfamily":0},{"id":"52390303652","owner":"156457454@N02","secret":"5dbf2a12bb","server":"65535","farm":66,"title":"Passerina caerulea 5 (Blue Grosbeak)","ispublic":1,"isfriend":0,"isfamily":0},{"id":"52389313466","owner":"156457454@N02","secret":"f4d086c4a8","server":"65535","farm":66,"title":"Passerina caerulea 3 (Blue Grosbeak)","ispublic":1,"isfriend":0,"isfamily":0},{"id":"52388783686","owner":"156457454@N02","secret":"9339bda8ed","server":"65535","farm":66,"title":"Passerina caerulea 1 (Blue Grosbeak)","ispublic":1,"isfriend":0,"isfamily":0},{"id":"52387859277","owner":"156457454@N02","secret":"37cff42b29","server":"65535","farm":66,"title":"Passerina caerulea 2 (Blue Grosbeak)","ispublic":1,"isfriend":0,"isfamily":0},{"id":"52356728005","owner":"187792860@N04","secret":"99b0d1ebd9","server":"65535","farm":66,"title":"Blue Grosbeak (Passerina caerulea)","ispublic":1,"isfriend":0,"isfamily":0},{"id":"52322462160","owner":"130605131@N08","secret":"682680e548","server":"0","farm":0,"title":"MVI_1571","ispublic":1,"isfriend":0,"isfamily":0}]},"stat":"ok"}