{"photos":{"page":1,"pages":8,"perpage":100,"total":708,"photo":[{"id":"52736129522","owner":"123174353@N02","secret":"02323067fc","server":"65535","farm":66,"title":"Pygochelidon cyanoleuca \/ Blue-and-white Swallow \/ blauw-witte zwaluw","ispublic":1,"isfriend":0,"isfamily":0},{"id":"52654242816","owner":"56314974@N07","secret":"2d8f1963e7","server":"65535","farm":66,"title":"Pygochelidon cyanoleuca","ispublic":1,"isfriend":0,"isfamily":0},{"id":"52654517959","owner":"56314974@N07","secret":"133fe698e1","server":"65535","farm":66,"title":"Pygochelidon cyanoleuca","ispublic":1,"isfriend":0,"isfamily":0},{"id":"52614740816","owner":"29170368@N03","secret":"404efdabd0","server":"65535","farm":66,"title":"Blue-and-white Swallow","ispublic":1,"isfriend":0,"isfamily":0},{"id":"52549331267","owner":"62953254@N04","secret":"5d8127f9eb","server":"65535","farm":66,"title":"Andorinha-pequena-de-casa\/Blue-and-white Swallow","ispublic":1,"isfriend":0,"isfamily":0},{"id":"52484486254","owner":"90401140@N05","secret":"8a036f4014","server":"65535","farm":66,"title":"Golondrina azul chica","ispublic":1,"isfriend":0,"isfamily":0},{"id":"52186514122","owner":"195562765@N06","secret":"263e5c92e6","server":"65535","farm":66,"title":"Andorinha-pequena-de-casa (Pygochelidon cyanoleuca)","ispublic":1,"isfriend":0,"isfamily":0},{"id":"52048825756","owner":"142134964@N04","secret":"bc3c52da3a","server":"65535","farm":66,"title":"246- Golondrina azul y blanco (Pygochelidon cyanoleuca) Explore! May 4, 2022","ispublic":1,"isfriend":0,"isfamily":0},{"id":"51877878791","owner":"187909285@N08","secret":"058d6d6198","server":"65535","farm":66,"title":"Pygochelidon cyanoleuca - Golondrina barranquera - Blue-and-white swallow","ispublic":1,"isfriend":0,"isfamily":0},{"id":"51816450541","owner":"194760505@N03","secret":"f3d90a6ca3","server":"65535","farm":66,"title":"Blue-and-white Swallow","ispublic":1,"isfriend":0,"isfamily":0},{"id":"51676949106","owner":"60482730@N07","secret":"f63d0a4abd","server":"65535","farm":66,"title":"Golondrina blanquiazul -Blue-and-white Swallow (Pygochelidon cyanoleuca)","ispublic":1,"isfriend":0,"isfamily":0},{"id":"51394339925","owner":"190911304@N02","secret":"7afe144263","server":"65535","farm":66,"title":"Golondrina barranquera (Pygochelidon cyanoleuca).jpg","ispublic":1,"isfriend":0,"isfamily":0},{"id":"51309221330","owner":"148001454@N05","secret":"28e7a7b029","server":"65535","farm":66,"title":"Pygochelidon cyanoleuca","ispublic":1,"isfriend":0,"isfamily":0},{"id":"51279329653","owner":"137290456@N04","secret":"05bc56a1db","server":"65535","farm":66,"title":"Andorinha pequena de casa (Pygochelidon cyanoleuca)","ispublic":1,"isfriend":0,"isfamily":0},{"id":"51258751748","owner":"190773540@N03","secret":"369ac1c711","server":"65535","farm":66,"title":"Blue-and-white Swallow","ispublic":1,"isfriend":0,"isfamily":0},{"id":"51173072801","owner":"148001454@N05","secret":"80949d91a2","server":"65535","farm":66,"title":"Pygochelidon cyanoleuca","ispublic":1,"isfriend":0,"isfamily":0},{"id":"51173303723","owner":"148001454@N05","secret":"3652b845d9","server":"65535","farm":66,"title":"Pygochelidon cyanoleuca","ispublic":1,"isfriend":0,"isfamily":0},{"id":"51116491723","owner":"148001454@N05","secret":"740d59a65e","server":"65535","farm":66,"title":"Pygochelidon cyanoleuca","ispublic":1,"isfriend":0,"isfamily":0},{"id":"50946927187","owner":"107784905@N04","secret":"f9cca1135f","server":"65535","farm":66,"title":"Hirondelle bleu et blanc - Yerba Buena\/Tucum\u00e1n\/Argentina_20171126_010-1","ispublic":1,"isfriend":0,"isfamily":0},{"id":"50890524906","owner":"12639178@N07","secret":"b6b07c8393","server":"65535","farm":66,"title":"Schwarzstei\u00dfschwalbe (Pygochelidon cyanoleuca)","ispublic":1,"isfriend":0,"isfamily":0},{"id":"50890524691","owner":"12639178@N07","secret":"9dfe3400a9","server":"65535","farm":66,"title":"Schwarzstei\u00dfschwalbe (Pygochelidon cyanoleuca)","ispublic":1,"isfriend":0,"isfamily":0},{"id":"50780685267","owner":"35069660@N00","secret":"3af42d85bc","server":"65535","farm":66,"title":"Andorinha-pequena de casa-Maranh\u00e3o-20-12-30-13.jpg","ispublic":1,"isfriend":0,"isfamily":0},{"id":"50780579896","owner":"35069660@N00","secret":"21a23d3af5","server":"65535","farm":66,"title":"Andorinha-pequena de casa-Maranh\u00e3o-20-12-30-12.jpg","ispublic":1,"isfriend":0,"isfamily":0},{"id":"50780562066","owner":"35069660@N00","secret":"6c08c3cd06","server":"65535","farm":66,"title":"Andorinha-pequena-de-casa-Maranh\u00e3o-20-12-29-4.jpg","ispublic":1,"isfriend":0,"isfamily":0},{"id":"50687045113","owner":"119787485@N07","secret":"7e11b2d821","server":"65535","farm":66,"title":"Blue-and-white Swallow (Pygochelidon cyanoleuca peruviana) - 20181006-02","ispublic":1,"isfriend":0,"isfamily":0},{"id":"50642527012","owner":"32805478@N03","secret":"02318bec24","server":"65535","farm":66,"title":"Golondrina barranquera, Pygochelidon cyanoleuca, Blue-and-white Swallow","ispublic":1,"isfriend":0,"isfamily":0},{"id":"50296681538","owner":"125965371@N08","secret":"4969ac84d8","server":"65535","farm":66,"title":"blue and white swallow","ispublic":1,"isfriend":0,"isfamily":0},{"id":"50297359181","owner":"125965371@N08","secret":"9dd63b316b","server":"65535","farm":66,"title":"blue and white swallow","ispublic":1,"isfriend":0,"isfamily":0},{"id":"50297514087","owner":"125965371@N08","secret":"9885a91314","server":"65535","farm":66,"title":"blue and white swallow","ispublic":1,"isfriend":0,"isfamily":0},{"id":"50296676923","owner":"125965371@N08","secret":"65e0bb1f6d","server":"65535","farm":66,"title":"blue and white swallow","ispublic":1,"isfriend":0,"isfamily":0},{"id":"49911649868","owner":"56966335@N02","secret":"d84c2da774","server":"65535","farm":66,"title":"Pygochelidon cyanoleuca","ispublic":1,"isfriend":0,"isfamily":0},{"id":"49886757163","owner":"160263143@N04","secret":"4bb465fa33","server":"65535","farm":66,"title":"Pygochelidon cyanoleuca  Blue and white swallow","ispublic":1,"isfriend":0,"isfamily":0},{"id":"49860688372","owner":"38404821@N04","secret":"e9532e4ee9","server":"65535","farm":66,"title":"Pygochelidon cyanoleuca","ispublic":1,"isfriend":0,"isfamily":0},{"id":"49853669363","owner":"56686021@N04","secret":"ba96df7e57","server":"65535","farm":66,"title":"Blue-and-white Swallow","ispublic":1,"isfriend":0,"isfamily":0},{"id":"49827162577","owner":"64905385@N07","secret":"23c3c32b4a","server":"65535","farm":66,"title":"Andorinha-pequena-de-casa (Pygochelidon cyanoleuca)","ispublic":1,"isfriend":0,"isfamily":0},{"id":"49749593496","owner":"37934762@N02","secret":"6fb8a20dce","server":"65535","farm":66,"title":"Blue-and-white Swallow - Pygochelidon cyanoleuca","ispublic":1,"isfriend":0,"isfamily":0},{"id":"49687250233","owner":"53247049@N07","secret":"04616046dc","server":"65535","farm":66,"title":"BLUE-AND-WHITE SWALLOWS Pygochelidon cyanoleuca in Mindo in Northwestern Ecuador. Photo by Peter Wendelken.","ispublic":1,"isfriend":0,"isfamily":0},{"id":"49653407191","owner":"147283349@N08","secret":"7b136dca5b","server":"65535","farm":66,"title":"Pygochelidon cyanoleuca","ispublic":1,"isfriend":0,"isfamily":0},{"id":"49458860418","owner":"87325282@N00","secret":"7751eb3633","server":"65535","farm":66,"title":"Pygochelidon cyanoleuca","ispublic":1,"isfriend":0,"isfamily":0},{"id":"49459566107","owner":"87325282@N00","secret":"ef8d87747d","server":"65535","farm":66,"title":"Pygochelidon cyanoleuca","ispublic":1,"isfriend":0,"isfamily":0},{"id":"49348215968","owner":"26096524@N03","secret":"b39a8800b7","server":"65535","farm":66,"title":"Blue-and-white Swallow (Pygochelidon cyanoleuca)","ispublic":1,"isfriend":0,"isfamily":0},{"id":"49346785001","owner":"56686021@N04","secret":"42b0029a59","server":"65535","farm":66,"title":"Blue-and-white Swallow","ispublic":1,"isfriend":0,"isfamily":0},{"id":"49346784961","owner":"56686021@N04","secret":"72f760b674","server":"65535","farm":66,"title":"Blue-and-white Swallow","ispublic":1,"isfriend":0,"isfamily":0},{"id":"49257290317","owner":"107784905@N04","secret":"a06b709486","server":"65535","farm":66,"title":"Hirondelle bleu et blanc - Yerba Buena\/Tucum\u00e1n\/Argentina_20171126_016-1","ispublic":1,"isfriend":0,"isfamily":0},{"id":"49235030617","owner":"56686021@N04","secret":"c20f95c802","server":"65535","farm":66,"title":"Blue-and-white Swallow","ispublic":1,"isfriend":0,"isfamily":0},{"id":"49199403186","owner":"148876252@N06","secret":"c2e2bc5e47","server":"65535","farm":66,"title":"Pygochelidon cyanoleuca","ispublic":1,"isfriend":0,"isfamily":0},{"id":"49141070096","owner":"12639178@N07","secret":"0ebdde63cc","server":"65535","farm":66,"title":"Schwarzstei\u00dfschwalben","ispublic":1,"isfriend":0,"isfamily":0},{"id":"48934061916","owner":"129593667@N03","secret":"95f966127a","server":"65535","farm":66,"title":"Blue-and-white Swallow nesting","ispublic":1,"isfriend":0,"isfamily":0},{"id":"48925419046","owner":"160263143@N04","secret":"0df3c682d7","server":"65535","farm":66,"title":"Pygochelidon cyanoleuca","ispublic":1,"isfriend":0,"isfamily":0},{"id":"48855445461","owner":"167323674@N05","secret":"3e2116d9c8","server":"65535","farm":66,"title":"Andorinha pequena da casa-Pygochelidon cyanoleuca-Blue-and-white Swallow","ispublic":1,"isfriend":0,"isfamily":0},{"id":"48662537706","owner":"167323674@N05","secret":"64981ae6bf","server":"65535","farm":66,"title":"Andorinha pequena da casa","ispublic":1,"isfriend":0,"isfamily":0},{"id":"48662485446","owner":"167323674@N05","secret":"8bc9dc2590","server":"65535","farm":66,"title":"Andorinha pequena da casa -Pygochelidon cyanoleuca-Blue-and-white Swallow","ispublic":1,"isfriend":0,"isfamily":0},{"id":"48662104738","owner":"167323674@N05","secret":"8f077173f1","server":"65535","farm":66,"title":"Andorinha pequena da casa -Pygochelidon cyanoleuca-Blue-and-white Swallow","ispublic":1,"isfriend":0,"isfamily":0},{"id":"48662447112","owner":"167323674@N05","secret":"c1d5ef8bd3","server":"65535","farm":66,"title":"Andorinha pequena da casa -Pygochelidon cyanoleuca-Blue-and-white Swallow","ispublic":1,"isfriend":0,"isfamily":0},{"id":"52760301859","owner":"195179412@N07","secret":"121cf21848","server":"65535","farm":66,"title":"Golondrina de dorso negro, Pygochelidon cyanoleuca","ispublic":1,"isfriend":0,"isfamily":0},{"id":"52528168203","owner":"100247776@N03","secret":"6e268ba0fb","server":"65535","farm":66,"title":"ANDORINHA PEQUENA DE CASA - Pygochelidon cyanoleuca - INHUMAS","ispublic":1,"isfriend":0,"isfamily":0},{"id":"52489153856","owner":"196886437@N07","secret":"6ca62c4e94","server":"65535","farm":66,"title":"Andorinha-Pequena-de-Casa","ispublic":1,"isfriend":0,"isfamily":0},{"id":"52243131598","owner":"140734051@N08","secret":"da658924ab","server":"65535","farm":66,"title":"\u041f\u0430\u0442\u0430\u0433\u043e\u043d\u0441\u043a\u0430\u044f \u043b\u0430\u0441\u0442\u043e\u0447\u043a\u0430, Notiochelidon (Pygochelidon) cyanoleuca cyanoleuca, Blue-and-white Swallow","ispublic":1,"isfriend":0,"isfamily":0},{"id":"52243613090","owner":"140734051@N08","secret":"ece0941a1d","server":"65535","farm":66,"title":"\u041f\u0430\u0442\u0430\u0433\u043e\u043d\u0441\u043a\u0430\u044f \u043b\u0430\u0441\u0442\u043e\u0447\u043a\u0430, Notiochelidon (Pygochelidon) cyanoleuca cyanoleuca, Blue-and-white Swallow","ispublic":1,"isfriend":0,"isfamily":0},{"id":"52243121146","owner":"140734051@N08","secret":"efb076644a","server":"65535","farm":66,"title":"\u041f\u0430\u0442\u0430\u0433\u043e\u043d\u0441\u043a\u0430\u044f \u043b\u0430\u0441\u0442\u043e\u0447\u043a\u0430, Notiochelidon (Pygochelidon) cyanoleuca cyanoleuca, Blue-and-white Swallow","ispublic":1,"isfriend":0,"isfamily":0},{"id":"52142003838","owner":"195562765@N06","secret":"75b82a5b9c","server":"65535","farm":66,"title":"Andorinha-pequena-de-casa (Pygochelidon cyanoleuca)","ispublic":1,"isfriend":0,"isfamily":0},{"id":"52080078433","owner":"142086940@N03","secret":"c933d37ac6","server":"65535","farm":66,"title":"Blue-and-white swallow, Pacuare, Costa Rica","ispublic":1,"isfriend":0,"isfamily":0},{"id":"51923740505","owner":"95747238@N07","secret":"8373d3d01d","server":"65535","farm":66,"title":"pygochelidon cyanoleuca 1","ispublic":1,"isfriend":0,"isfamily":0},{"id":"51923209963","owner":"95747238@N07","secret":"96580e07ac","server":"65535","farm":66,"title":"pygochelidon cyanoleuca 2","ispublic":1,"isfriend":0,"isfamily":0},{"id":"51919203482","owner":"195124911@N06","secret":"68b2eca509","server":"65535","farm":66,"title":"golondrina azul chica","ispublic":1,"isfriend":0,"isfamily":0},{"id":"51857826327","owner":"194751652@N05","secret":"17b7aa541a","server":"65535","farm":66,"title":"Golondrina bermejade dorso negro? (Pygochelidon cyanoleuca)","ispublic":1,"isfriend":0,"isfamily":0},{"id":"51859116314","owner":"194751652@N05","secret":"0cd2c7aa10","server":"65535","farm":66,"title":"Golondrina de dorso negro? (Pygochelidon cyanoleuca)","ispublic":1,"isfriend":0,"isfamily":0},{"id":"51787902276","owner":"45376259@N04","secret":"39d0d75df8","server":"65535","farm":66,"title":"Andorinha pequena de casa (Pygochelidon cyanoleuca), Bananeiras-PB, Brasil.","ispublic":1,"isfriend":0,"isfamily":0},{"id":"51787789410","owner":"48938938@N04","secret":"52b60d2753","server":"65535","farm":66,"title":"Blue-and-white Swallow Pygochelidon cyanoleuca_Ascanio_Andes W Colombia_DZ3A8301","ispublic":1,"isfriend":0,"isfamily":0},{"id":"51369867816","owner":"52413877@N02","secret":"06f6e541f7","server":"65535","farm":66,"title":"06_Pygochelidon cyanoleuca","ispublic":1,"isfriend":0,"isfamily":0},{"id":"51332069079","owner":"32805478@N03","secret":"070333cfbd","server":"65535","farm":66,"title":"Golondrina barranquera, Pygochelidon cyanoleuca, Blue-and-white Swallow","ispublic":1,"isfriend":0,"isfamily":0},{"id":"51258744603","owner":"190773540@N03","secret":"d1273e3e9a","server":"65535","farm":66,"title":"Blue-and-white Swallow","ispublic":1,"isfriend":0,"isfamily":0},{"id":"51105128679","owner":"192563127@N05","secret":"af960d562a","server":"65535","farm":66,"title":"Blue-and-white Swallow_Pygochelidon cyanoleuca","ispublic":1,"isfriend":0,"isfamily":0},{"id":"51105127044","owner":"192563127@N05","secret":"1991721f8f","server":"65535","farm":66,"title":"Blue-and-white Swallow_Pygochelidon cyanoleuca","ispublic":1,"isfriend":0,"isfamily":0},{"id":"51105122639","owner":"192563127@N05","secret":"192efb84cf","server":"65535","farm":66,"title":"Blue-and-white Swallow_Pygochelidon cyanoleuca","ispublic":1,"isfriend":0,"isfamily":0},{"id":"51046982853","owner":"192372687@N03","secret":"dd20cd31c3","server":"65535","farm":66,"title":"Blue-and-white swallows (Pygochelidon cyanoleuca)","ispublic":1,"isfriend":0,"isfamily":0},{"id":"51047797757","owner":"192372687@N03","secret":"57dc332b37","server":"65535","farm":66,"title":"Blue-and-white swallow (Pygochelidon cyanoleuca)","ispublic":1,"isfriend":0,"isfamily":0},{"id":"50957277631","owner":"139614601@N08","secret":"3ddaedcb07","server":"65535","farm":66,"title":"Andorinha-pequena-de-casa","ispublic":1,"isfriend":0,"isfamily":0},{"id":"50957385042","owner":"139614601@N08","secret":"b321d4a75e","server":"65535","farm":66,"title":"Andorinha-pequena-de-casa","ispublic":1,"isfriend":0,"isfamily":0},{"id":"50736797743","owner":"167323674@N05","secret":"8e2f4f17ba","server":"65535","farm":66,"title":"Andorinha-pequena-da-casa-Pygochelidon cyanoleuca-Blue-and-white Swallow","ispublic":1,"isfriend":0,"isfamily":0},{"id":"50242346072","owner":"189506043@N06","secret":"6d81068c8d","server":"65535","farm":66,"title":"fotos 043copia","ispublic":1,"isfriend":0,"isfamily":0},{"id":"50242133636","owner":"189506043@N06","secret":"576eb9e049","server":"65535","farm":66,"title":"fotos 044copia","ispublic":1,"isfriend":0,"isfamily":0},{"id":"50242345217","owner":"189506043@N06","secret":"b25088c6e9","server":"65535","farm":66,"title":"fotos 049copia","ispublic":1,"isfriend":0,"isfamily":0},{"id":"50240853673","owner":"189506043@N06","secret":"0773676ee4","server":"65535","farm":66,"title":"IMG_3893-1","ispublic":1,"isfriend":0,"isfamily":0},{"id":"50240853343","owner":"189506043@N06","secret":"4f71386c29","server":"65535","farm":66,"title":"IMG_3897","ispublic":1,"isfriend":0,"isfamily":0},{"id":"50241707777","owner":"189506043@N06","secret":"95a3e3372a","server":"65535","farm":66,"title":"IMG_3912","ispublic":1,"isfriend":0,"isfamily":0},{"id":"50240852213","owner":"189506043@N06","secret":"1d485eb233","server":"65535","farm":66,"title":"IMG_3922-1","ispublic":1,"isfriend":0,"isfamily":0},{"id":"50241706727","owner":"189506043@N06","secret":"dda1b8f187","server":"65535","farm":66,"title":"IMG_3939-1","ispublic":1,"isfriend":0,"isfamily":0},{"id":"50014689916","owner":"95338646@N06","secret":"69ccdfab0f","server":"65535","farm":66,"title":"Pygochelidon cyanoleuca","ispublic":1,"isfriend":0,"isfamily":0},{"id":"49835238987","owner":"56686021@N04","secret":"a6481946d6","server":"65535","farm":66,"title":"Blue-and-white Swallow","ispublic":1,"isfriend":0,"isfamily":0},{"id":"49547880852","owner":"182381287@N07","secret":"086c89aa0e","server":"65535","farm":66,"title":"Andorinha-pequena-de-casa (Pygochelidon cyanoleuca)","ispublic":1,"isfriend":0,"isfamily":0},{"id":"49522709123","owner":"87325282@N00","secret":"329da16e5f","server":"65535","farm":66,"title":"Pygochelidon cyanoleuca","ispublic":1,"isfriend":0,"isfamily":0},{"id":"49468989622","owner":"32752434@N07","secret":"e1a5a540fe","server":"65535","farm":66,"title":"Blue-and-White Swallow (Pygochelidon cyanoleuca)","ispublic":1,"isfriend":0,"isfamily":0},{"id":"49124500531","owner":"46788536@N05","secret":"c27831b760","server":"65535","farm":66,"title":"Pygochelidon cyanoleuca \/\/ Blue-and-white Swallow","ispublic":1,"isfriend":0,"isfamily":0},{"id":"49115339472","owner":"12742129@N07","secret":"361ec0e790","server":"65535","farm":66,"title":"Blue and White Swallow","ispublic":1,"isfriend":0,"isfamily":0},{"id":"49092267188","owner":"28440115@N08","secret":"4d8b514a35","server":"65535","farm":66,"title":"Morning Break","ispublic":1,"isfriend":0,"isfamily":0},{"id":"48974981211","owner":"131708321@N02","secret":"71eb413370","server":"65535","farm":66,"title":"Blue-and-white Swallow (Notiochelidon cyanoleuca), Serra da Canastra, Minas Gerais, Brazil","ispublic":1,"isfriend":0,"isfamily":0},{"id":"48954254928","owner":"12639178@N07","secret":"d32305943c","server":"65535","farm":66,"title":"Blue-and-white Swallow","ispublic":1,"isfriend":0,"isfamily":0},{"id":"48856162737","owner":"167323674@N05","secret":"50cd9cdddf","server":"65535","farm":66,"title":"Andorinha pequena da casa-Pygochelidon cyanoleuca-Blue-and-white Swallow","ispublic":1,"isfriend":0,"isfamily":0},{"id":"48662648507","owner":"167323674@N05","secret":"05e6696cab","server":"65535","farm":66,"title":"Andorinha pequena da casa -Pygochelidon cyanoleuca-Blue-and-white Swallow","ispublic":1,"isfriend":0,"isfamily":0}]},"stat":"ok"}