{"photos":{"page":1,"pages":33,"perpage":100,"total":3285,"photo":[{"id":"52711589900","owner":"109544413@N05","secret":"cd06b9dee8","server":"65535","farm":66,"title":"Female Blue Dacnis","ispublic":1,"isfriend":0,"isfamily":0},{"id":"52706510529","owner":"14586608@N08","secret":"261533677c","server":"65535","farm":66,"title":"EF7A2779_Bird","ispublic":1,"isfriend":0,"isfamily":0},{"id":"52685539785","owner":"131886864@N03","secret":"0ab14c79c9","server":"65535","farm":66,"title":"Sa\u00ed-Azul","ispublic":1,"isfriend":0,"isfamily":0},{"id":"52677637182","owner":"20127130@N02","secret":"38d8c8cf25","server":"65535","farm":66,"title":"Beauties in monochrome","ispublic":1,"isfriend":0,"isfamily":0},{"id":"52673359274","owner":"20127130@N02","secret":"e5c7f0b2c4","server":"65535","farm":66,"title":"Shades of blues","ispublic":1,"isfriend":0,"isfamily":0},{"id":"52632889960","owner":"110459348@N03","secret":"eeb51bd2e9","server":"65535","farm":66,"title":"Dacnis bleu","ispublic":1,"isfriend":0,"isfamily":0},{"id":"52605642457","owner":"150719316@N03","secret":"0ba1747998","server":"65535","farm":66,"title":"Blue Dacnis","ispublic":1,"isfriend":0,"isfamily":0},{"id":"52605662539","owner":"56747859@N02","secret":"6a1587bd61","server":"65535","farm":66,"title":"Blue Dacnis (Dacnis cayana)","ispublic":1,"isfriend":0,"isfamily":0},{"id":"52590278690","owner":"185287246@N04","secret":"c7dfbf4e8c","server":"65535","farm":66,"title":"Blue Dacnis - Dacnis cayana (male)","ispublic":1,"isfriend":0,"isfamily":0},{"id":"52581637069","owner":"132001260@N04","secret":"d8b0ce7210","server":"65535","farm":66,"title":"Dacnis bleu","ispublic":1,"isfriend":0,"isfamily":0},{"id":"52581524113","owner":"7413414@N02","secret":"06bc16433c","server":"65535","farm":66,"title":"B for Blue - Blue Dacnis","ispublic":1,"isfriend":0,"isfamily":0},{"id":"52544666770","owner":"145988764@N06","secret":"ed0cd19f3b","server":"65535","farm":66,"title":"Dacnis cayana","ispublic":1,"isfriend":0,"isfamily":0},{"id":"52537922587","owner":"32674493@N04","secret":"e621fa978c","server":"65535","farm":66,"title":"Sa\u00ed-azul (Dacnis cayana paraguayensis) f\u00eamea","ispublic":1,"isfriend":0,"isfamily":0},{"id":"52509523096","owner":"148629640@N02","secret":"c3fe85a3c6","server":"65535","farm":66,"title":"Blue Dacnis","ispublic":1,"isfriend":0,"isfamily":0},{"id":"52495594018","owner":"86666094@N00","secret":"128aa09fdf","server":"65535","farm":66,"title":"Blue Dacnis","ispublic":1,"isfriend":0,"isfamily":0},{"id":"52494707453","owner":"38032433@N07","secret":"22cf0f739b","server":"65535","farm":66,"title":"4Y4A1389.jpg","ispublic":1,"isfriend":0,"isfamily":0},{"id":"52493903858","owner":"36274920@N05","secret":"7457d58790","server":"65535","farm":66,"title":"Panam\u00e1 - Novembre 2022","ispublic":1,"isfriend":0,"isfamily":0},{"id":"52493351961","owner":"36274920@N05","secret":"6bbd726c49","server":"65535","farm":66,"title":"Panam\u00e1 - Novembre 2022","ispublic":1,"isfriend":0,"isfamily":0},{"id":"52481094166","owner":"76287505@N07","secret":"8fa817ac84","server":"65535","farm":66,"title":"Sa\u00ed-Azul","ispublic":1,"isfriend":0,"isfamily":0},{"id":"52481636538","owner":"76287505@N07","secret":"2f12d51288","server":"65535","farm":66,"title":"Sa\u00ed-Azul","ispublic":1,"isfriend":0,"isfamily":0},{"id":"52481362304","owner":"76287505@N07","secret":"28614ea299","server":"65535","farm":66,"title":"Sa\u00ed-Azul","ispublic":1,"isfriend":0,"isfamily":0},{"id":"52453848722","owner":"65788177@N02","secret":"0a57d6f4e1","server":"65535","farm":66,"title":"Blue Dacnis","ispublic":1,"isfriend":0,"isfamily":0},{"id":"52435420111","owner":"62848917@N07","secret":"52c0181623","server":"65535","farm":66,"title":"Blue Dacnis - Dacnis cayana","ispublic":1,"isfriend":0,"isfamily":0},{"id":"52426437046","owner":"129593667@N03","secret":"7ecc180957","server":"65535","farm":66,"title":"Blue Dacnis \u2642","ispublic":1,"isfriend":0,"isfamily":0},{"id":"52411067213","owner":"100175587@N02","secret":"95c507639b","server":"65535","farm":66,"title":"- Definitely my best angle... (1)","ispublic":1,"isfriend":0,"isfamily":0},{"id":"52401066641","owner":"72271115@N02","secret":"36fb89095a","server":"65535","farm":66,"title":"Female Blue Dacnis --- Dacnis cayana","ispublic":1,"isfriend":0,"isfamily":0},{"id":"52401375958","owner":"129593667@N03","secret":"12b6a476a2","server":"65535","farm":66,"title":"Blue Dacnis \u2640","ispublic":1,"isfriend":0,"isfamily":0},{"id":"52346718001","owner":"129593667@N03","secret":"4e1f38e7ae","server":"65535","farm":66,"title":"Blue Dacnis \u2642","ispublic":1,"isfriend":0,"isfamily":0},{"id":"52283367006","owner":"13668899@N00","secret":"004fa2f298","server":"65535","farm":66,"title":"Sa\u00ed-azul","ispublic":1,"isfriend":0,"isfamily":0},{"id":"52277008291","owner":"15272210@N00","secret":"e2878cf13c","server":"65535","farm":66,"title":"Blue dacnis - Female - Sa\u00ed Azul (Dacnis cayana) -  IMG_2501","ispublic":1,"isfriend":0,"isfamily":0},{"id":"52267819036","owner":"185287246@N04","secret":"c0afbde970","server":"65535","farm":66,"title":"Blue Dacnis - (Dacnis cayana) - (couple)","ispublic":1,"isfriend":0,"isfamily":0},{"id":"52256940861","owner":"86585370@N00","secret":"6c4db1026a","server":"65535","farm":66,"title":"Blue Dacnis \/\/ Sa\u00ed-azul \/\/ D\u00e1cnis-azul","ispublic":1,"isfriend":0,"isfamily":0},{"id":"52256109224","owner":"129865190@N07","secret":"d273224127","server":"65535","farm":66,"title":"Sa\u00ed-azul f\u00eamea (Dacnis cayana)","ispublic":1,"isfriend":0,"isfamily":0},{"id":"52212710669","owner":"101563641@N03","secret":"c3130b5d58","server":"65535","farm":66,"title":"Dacnis cayana CEG_2959","ispublic":1,"isfriend":0,"isfamily":0},{"id":"52196862582","owner":"25486180@N07","secret":"3584cbdcbc","server":"65535","farm":66,"title":"Blue Dacnis, Dacnis cayana. Female","ispublic":1,"isfriend":0,"isfamily":0},{"id":"52198362445","owner":"25486180@N07","secret":"90463e62f7","server":"65535","farm":66,"title":"Blue Dacnis, Dacnis cayana. Male","ispublic":1,"isfriend":0,"isfamily":0},{"id":"52187277673","owner":"134704052@N08","secret":"81d1fb26e8","server":"65535","farm":66,"title":"Sa\u00ed-azul - Blue Dacnis","ispublic":1,"isfriend":0,"isfamily":0},{"id":"52184959048","owner":"12185056@N02","secret":"03fddf7e61","server":"65535","farm":66,"title":"Male Blue Dacnis or Turquoise Honeycreeper (Dacnis cayana)","ispublic":1,"isfriend":0,"isfamily":0},{"id":"52184745788","owner":"134704052@N08","secret":"04d40fc4ea","server":"65535","farm":66,"title":"Blue Dacnis and Hibiscus","ispublic":1,"isfriend":0,"isfamily":0},{"id":"52185220925","owner":"134704052@N08","secret":"35c0a2973f","server":"65535","farm":66,"title":"Blue Dacnis and Hibiscus","ispublic":1,"isfriend":0,"isfamily":0},{"id":"52184524259","owner":"134704052@N08","secret":"de4d9d5906","server":"65535","farm":66,"title":"Sa\u00ed-azul - Blue Dacnis","ispublic":1,"isfriend":0,"isfamily":0},{"id":"52184278781","owner":"134704052@N08","secret":"034f9ccd04","server":"65535","farm":66,"title":"Sa\u00ed-azul - Blue Dacnis","ispublic":1,"isfriend":0,"isfamily":0},{"id":"52184523039","owner":"134704052@N08","secret":"1907fb3f37","server":"65535","farm":66,"title":"Sa\u00ed-azul - Blue Dacnis","ispublic":1,"isfriend":0,"isfamily":0},{"id":"52181919522","owner":"187346531@N05","secret":"de2d6818dc","server":"65535","farm":66,"title":"sa\u00ed-azul (Dacnis cayana) f\u00eamea","ispublic":1,"isfriend":0,"isfamily":0},{"id":"52180413874","owner":"134704052@N08","secret":"6482da772b","server":"65535","farm":66,"title":"Sa\u00ed-azul - Blue Dacnis","ispublic":1,"isfriend":0,"isfamily":0},{"id":"52180163661","owner":"134704052@N08","secret":"013f0d34fd","server":"65535","farm":66,"title":"Sa\u00ed-azul - Blue Dacnis","ispublic":1,"isfriend":0,"isfamily":0},{"id":"52180412709","owner":"134704052@N08","secret":"e62e6191b9","server":"65535","farm":66,"title":"Sa\u00ed-azul - Blue Dacnis","ispublic":1,"isfriend":0,"isfamily":0},{"id":"52175384989","owner":"187346531@N05","secret":"f187afd3bb","server":"65535","farm":66,"title":"sa\u00ed-azul (Dacnis cayana)","ispublic":1,"isfriend":0,"isfamily":0},{"id":"52151099074","owner":"117640946@N06","secret":"f6d1301aab","server":"65535","farm":66,"title":"Dacnis cayana - male","ispublic":1,"isfriend":0,"isfamily":0},{"id":"52135247139","owner":"134704052@N08","secret":"585fb8312a","server":"65535","farm":66,"title":"Little Blue Bird","ispublic":1,"isfriend":0,"isfamily":0},{"id":"52131660769","owner":"20127130@N02","secret":"bb39e7664c","server":"65535","farm":66,"title":"A beautiful duo","ispublic":1,"isfriend":0,"isfamily":0},{"id":"52126881430","owner":"20127130@N02","secret":"b9290bc482","server":"65535","farm":66,"title":"Yes, Monday!","ispublic":1,"isfriend":0,"isfamily":0},{"id":"52096663511","owner":"117640946@N06","secret":"9c028ba7cd","server":"65535","farm":66,"title":"Dacnis cayana","ispublic":1,"isfriend":0,"isfamily":0},{"id":"52074620264","owner":"93140244@N02","secret":"a2cc31d354","server":"65535","farm":66,"title":"Blue Dacnis ( m )","ispublic":1,"isfriend":0,"isfamily":0},{"id":"52061620796","owner":"50264295@N06","secret":"2c8e6f667a","server":"65535","farm":66,"title":"Blue Dacnis (Dacnis cayana)- female","ispublic":1,"isfriend":0,"isfamily":0},{"id":"52056960755","owner":"192656859@N02","secret":"a9c3513108","server":"65535","farm":66,"title":"JPG ED 28-03-22 9","ispublic":1,"isfriend":0,"isfamily":0},{"id":"52056960670","owner":"192656859@N02","secret":"278890bf7b","server":"65535","farm":66,"title":"JPG ED 28-03-22 10","ispublic":1,"isfriend":0,"isfamily":0},{"id":"52056507218","owner":"192656859@N02","secret":"feca3a69e3","server":"65535","farm":66,"title":"JPG ED 28-03-22 11","ispublic":1,"isfriend":0,"isfamily":0},{"id":"52048539858","owner":"32674493@N04","secret":"9babd5ee2e","server":"65535","farm":66,"title":"Sa\u00ed-azul (Dacnis cayana paraguayensis) macho","ispublic":1,"isfriend":0,"isfamily":0},{"id":"52046884112","owner":"48084395@N03","secret":"6d64159711","server":"65535","farm":66,"title":"Blue Dacnis (Dacnis cayana) _5AC6376","ispublic":1,"isfriend":0,"isfamily":0},{"id":"52031268515","owner":"95747238@N07","secret":"78f73c23bc","server":"65535","farm":66,"title":"Dacnis cayana 2","ispublic":1,"isfriend":0,"isfamily":0},{"id":"51909280189","owner":"194480666@N08","secret":"743caa51ab","server":"65535","farm":66,"title":"Female Blue Dacnis","ispublic":1,"isfriend":0,"isfamily":0},{"id":"51908466051","owner":"189109845@N04","secret":"db382cdf08","server":"65535","farm":66,"title":"Blue_Dacnis (Dacnis cayana)","ispublic":1,"isfriend":0,"isfamily":0},{"id":"51780104733","owner":"20127130@N02","secret":"4cd8f60893","server":"65535","farm":66,"title":"Blues after Christmas","ispublic":1,"isfriend":0,"isfamily":0},{"id":"51745266178","owner":"144168941@N04","secret":"745c55ba7f","server":"65535","farm":66,"title":"Sa\u00ed-Azul (Dacnis Cayana)","ispublic":1,"isfriend":0,"isfamily":0},{"id":"51682995834","owner":"190051159@N08","secret":"e3ea26d1e3","server":"65535","farm":66,"title":"SA\u00cd-AZUL","ispublic":1,"isfriend":0,"isfamily":0},{"id":"51679839577","owner":"61316002@N02","secret":"5b001700cc","server":"65535","farm":66,"title":"BLUEDACN F cayana 3718","ispublic":1,"isfriend":0,"isfamily":0},{"id":"51639852183","owner":"87727332@N08","secret":"1734e749fe","server":"65535","farm":66,"title":"Curiosinha (Dacnis cayana - female)","ispublic":1,"isfriend":0,"isfamily":0},{"id":"51638809587","owner":"87727332@N08","secret":"3441270cc0","server":"65535","farm":66,"title":"Olha eu! (Dacnis cayana - male)","ispublic":1,"isfriend":0,"isfamily":0},{"id":"51594107618","owner":"146474844@N08","secret":"366776e147","server":"65535","farm":66,"title":"blue-dacnis-or-turquoise-honeycreeper-dacnis-cayana_49477802997_o","ispublic":1,"isfriend":0,"isfamily":0},{"id":"51594551569","owner":"146474844@N08","secret":"9668681fa8","server":"65535","farm":66,"title":"blue-dacnis-or-turquoise-honeycreeper-dacnis-cayana-female_49477098248_o","ispublic":1,"isfriend":0,"isfamily":0},{"id":"52527906904","owner":"100247776@N03","secret":"2b8d5999f7","server":"65535","farm":66,"title":"SA\u00cd AZUL - Dacnis cayana - COCALZINHO DE GOI\u00c1S","ispublic":1,"isfriend":0,"isfamily":0},{"id":"52481553485","owner":"76287505@N07","secret":"8e69e43e86","server":"65535","farm":66,"title":"Sa\u00ed-Azul","ispublic":1,"isfriend":0,"isfamily":0},{"id":"52480590392","owner":"76287505@N07","secret":"39b687b8be","server":"65535","farm":66,"title":"Sa\u00ed-Azul","ispublic":1,"isfriend":0,"isfamily":0},{"id":"52387648755","owner":"182381287@N07","secret":"19b7aa9ded","server":"65535","farm":66,"title":"Sa\u00ed-azul (Dacnis cayana)","ispublic":1,"isfriend":0,"isfamily":0},{"id":"52352916676","owner":"84152923@N08","secret":"2222ac905a","server":"65535","farm":66,"title":"blauwe pitpit - Dacnis cayana - Blue dacnis","ispublic":1,"isfriend":0,"isfamily":0},{"id":"52282311181","owner":"190274181@N03","secret":"73d522253f","server":"65535","farm":66,"title":"Dacnis Azul  Blue Dacnis  Dacnis cayana","ispublic":1,"isfriend":0,"isfamily":0},{"id":"52270864394","owner":"75336751@N07","secret":"eab2b0cbf2","server":"65535","farm":66,"title":"Sa\u00ed-azul f\u00eamea","ispublic":1,"isfriend":0,"isfamily":0},{"id":"52202545938","owner":"100887988@N03","secret":"7f8b32d03f","server":"65535","farm":66,"title":"Dacnis cayana","ispublic":1,"isfriend":0,"isfamily":0},{"id":"52180413954","owner":"134704052@N08","secret":"900dc979ac","server":"65535","farm":66,"title":"Sa\u00ed-azul - Blue Dacnis","ispublic":1,"isfriend":0,"isfamily":0},{"id":"52034158393","owner":"84152923@N08","secret":"e914d75cfa","server":"65535","farm":66,"title":"blauwe pitpit - Dacnis cayana - Blue dacnis","ispublic":1,"isfriend":0,"isfamily":0},{"id":"52034121646","owner":"84152923@N08","secret":"298d78823c","server":"65535","farm":66,"title":"blauwe pitpit - Dacnis cayana - Blue dacnis","ispublic":1,"isfriend":0,"isfamily":0},{"id":"52031001844","owner":"95747238@N07","secret":"36a97fbe82","server":"65535","farm":66,"title":"Dacnis cayana 3","ispublic":1,"isfriend":0,"isfamily":0},{"id":"52030788138","owner":"95747238@N07","secret":"c343e2ff3b","server":"65535","farm":66,"title":"Dacnis cayana 4","ispublic":1,"isfriend":0,"isfamily":0},{"id":"52030788118","owner":"95747238@N07","secret":"6eb5435987","server":"65535","farm":66,"title":"Dacnis cayana 6","ispublic":1,"isfriend":0,"isfamily":0},{"id":"52030788088","owner":"95747238@N07","secret":"7769561259","server":"65535","farm":66,"title":"Dacnis cayana 7","ispublic":1,"isfriend":0,"isfamily":0},{"id":"52022189067","owner":"95747238@N07","secret":"800f5197f2","server":"65535","farm":66,"title":"Dacnis cayana 1","ispublic":1,"isfriend":0,"isfamily":0},{"id":"51972659677","owner":"84152923@N08","secret":"389ab44a70","server":"65535","farm":66,"title":"blauwe pitpit - Dacnis cayana - Blue dacnis","ispublic":1,"isfriend":0,"isfamily":0},{"id":"51908535458","owner":"189109845@N04","secret":"a7a47a2557","server":"65535","farm":66,"title":"Blue_Dacnis (Dacnis cayana)","ispublic":1,"isfriend":0,"isfamily":0},{"id":"51907934346","owner":"189109845@N04","secret":"0aec374cf2","server":"65535","farm":66,"title":"Blue_Dacnis (Dacnis cayana)","ispublic":1,"isfriend":0,"isfamily":0},{"id":"51892835377","owner":"189109845@N04","secret":"0f6df3460f","server":"65535","farm":66,"title":"Blue Dacnis","ispublic":1,"isfriend":0,"isfamily":0},{"id":"51893521846","owner":"189109845@N04","secret":"af40368a39","server":"65535","farm":66,"title":"Blue Dacnis","ispublic":1,"isfriend":0,"isfamily":0},{"id":"51754057201","owner":"194480666@N08","secret":"d94f66196b","server":"65535","farm":66,"title":"Blue Dacnis -","ispublic":1,"isfriend":0,"isfamily":0},{"id":"51739927106","owner":"99208129@N08","secret":"3606ece7db","server":"65535","farm":66,"title":"Dacnis cayana \/ Blue Dacnis","ispublic":1,"isfriend":0,"isfamily":0},{"id":"51605701482","owner":"48938938@N04","secret":"0e7cfdaa88","server":"65535","farm":66,"title":"Blue Dacnis_Dacnis cayana_Ascanio_Costa Rica_DZ3A3548","ispublic":1,"isfriend":0,"isfamily":0},{"id":"51606747618","owner":"48938938@N04","secret":"f2c18a6b69","server":"65535","farm":66,"title":"Blue Dacnis_Dacnis cayana_Ascanio_Costa Rica_DZ3A3557","ispublic":1,"isfriend":0,"isfamily":0},{"id":"51596429876","owner":"185853379@N08","secret":"427edac994","server":"65535","farm":66,"title":"Sa\u00ed-azul _ Dacnis cayana","ispublic":1,"isfriend":0,"isfamily":0},{"id":"51586347025","owner":"145824323@N05","secret":"0535cf88a7","server":"65535","farm":66,"title":"Blue dacnis (Dacnis cayana)","ispublic":1,"isfriend":0,"isfamily":0},{"id":"51586346830","owner":"145824323@N05","secret":"4a5ec35fa1","server":"65535","farm":66,"title":"Blue dacnis (Dacnis cayana)","ispublic":1,"isfriend":0,"isfamily":0},{"id":"51584617472","owner":"145824323@N05","secret":"0a1d25ea7c","server":"65535","farm":66,"title":"Blue dacnis (Dacnis cayana)","ispublic":1,"isfriend":0,"isfamily":0}]},"stat":"ok"}