{"photos":{"page":1,"pages":39,"perpage":100,"total":3870,"photo":[{"id":"52792468421","owner":"95610786@N07","secret":"fedceed2af","server":"65535","farm":66,"title":"Blue-grey Tanager Thraupis episcopus - Tangara \u00e9v\u00eaque  1942_DxO","ispublic":1,"isfriend":0,"isfamily":0},{"id":"52789972500","owner":"103263246@N06","secret":"8679c82414","server":"65535","farm":66,"title":"Thraupis episcopus. Tangara Azuleja. Viudita. Viuda. Blue-gray Tanager","ispublic":1,"isfriend":0,"isfamily":0},{"id":"52780535986","owner":"8987884@N07","secret":"304c21a8ea","server":"65535","farm":66,"title":"Blue-gray Tanager (Thraupis episcopus)_DDZ_5926","ispublic":1,"isfriend":0,"isfamily":0},{"id":"52766958586","owner":"47835705@N04","secret":"d0b4b2524c","server":"65535","farm":66,"title":"T\u00e1ngara Azuleja - Blue-gray Tanager (Thraupis episcopus) Sarapiqu\u00ed, Costa Rica","ispublic":1,"isfriend":0,"isfamily":0},{"id":"52755888952","owner":"190773540@N03","secret":"8c3fafd667","server":"65535","farm":66,"title":"Blue-gray Tanager (Costa Rica)","ispublic":1,"isfriend":0,"isfamily":0},{"id":"52740048287","owner":"52363379@N07","secret":"c79c4c372e","server":"65535","farm":66,"title":"Thraupis episcopus","ispublic":1,"isfriend":0,"isfamily":0},{"id":"52748704274","owner":"123732925@N02","secret":"40f84dbb06","server":"65535","farm":66,"title":"Blue-gray Tanager","ispublic":1,"isfriend":0,"isfamily":0},{"id":"52736283662","owner":"110459348@N03","secret":"2da6fdda8e","server":"65535","farm":66,"title":"Tangara \u00e9v\u00eaque souill\u00e9 de fruits rouges","ispublic":1,"isfriend":0,"isfamily":0},{"id":"52732575302","owner":"71833159@N00","secret":"174c9aec61","server":"65535","farm":66,"title":"White-necked Jacobin against Blue-gray Tanager, Asa Wright","ispublic":1,"isfriend":0,"isfamily":0},{"id":"52720945929","owner":"71833159@N00","secret":"1455b639f3","server":"65535","farm":66,"title":"Blue-gray Tanager \/ Thraupis episcopus, Asa Wright Nature Centre, Trinidad","ispublic":1,"isfriend":0,"isfamily":0},{"id":"52718979179","owner":"28754568@N02","secret":"7b320ae24d","server":"65535","farm":66,"title":"Thraupis episcopus","ispublic":1,"isfriend":0,"isfamily":0},{"id":"52711692018","owner":"190773540@N03","secret":"2111895e96","server":"65535","farm":66,"title":"Blue-gray Tanager (Costa Rica)","ispublic":1,"isfriend":0,"isfamily":0},{"id":"52711174766","owner":"109544413@N05","secret":"cf64d0e0c4","server":"65535","farm":66,"title":"Blue-gray Tanager (Thraupis episcopus)","ispublic":1,"isfriend":0,"isfamily":0},{"id":"52710652372","owner":"109544413@N05","secret":"d3895673c5","server":"65535","farm":66,"title":"Blue-gray Tanager (Thraupis episcopus)","ispublic":1,"isfriend":0,"isfamily":0},{"id":"52708982305","owner":"7413414@N02","secret":"8e3e7493d0","server":"65535","farm":66,"title":"Blue Turns to Grey","ispublic":1,"isfriend":0,"isfamily":0},{"id":"52706712873","owner":"92361032@N05","secret":"8865292a0c","server":"65535","farm":66,"title":"Blue-grey Tanager \/Tangara \u00e9v\u00eaque ( Diane )","ispublic":1,"isfriend":0,"isfamily":0},{"id":"52704844702","owner":"31704662@N08","secret":"f37657b76a","server":"65535","farm":66,"title":"Blue-gray Tanager (Thraupis episcopus)","ispublic":1,"isfriend":0,"isfamily":0},{"id":"52693910437","owner":"33091694@N07","secret":"25881de677","server":"65535","farm":66,"title":"Serie: Aves de Mi Jard\u00edn 2023 - Thraupis episcopus","ispublic":1,"isfriend":0,"isfamily":0},{"id":"52693282540","owner":"11295713@N00","secret":"772d6fe9d3","server":"65535","farm":66,"title":"Blue-gray Tanager","ispublic":1,"isfriend":0,"isfamily":0},{"id":"52684772029","owner":"73654511@N05","secret":"7fe1d3d5bd","server":"65535","farm":66,"title":"L0A2618-Blue-gray Tanager","ispublic":1,"isfriend":0,"isfamily":0},{"id":"52678955126","owner":"132165466@N08","secret":"317e1bc909","server":"65535","farm":66,"title":"Blue-gray Tanager","ispublic":1,"isfriend":0,"isfamily":0},{"id":"52679241594","owner":"132165466@N08","secret":"6945b3e969","server":"65535","farm":66,"title":"Blue-gray Tanager","ispublic":1,"isfriend":0,"isfamily":0},{"id":"52677979649","owner":"109544413@N05","secret":"7826bae227","server":"65535","farm":66,"title":"Blue-gray Tanager (Thraupis episcopus)...","ispublic":1,"isfriend":0,"isfamily":0},{"id":"52677911009","owner":"132165466@N08","secret":"5694a9cd71","server":"65535","farm":66,"title":"Blue-gray Tanager","ispublic":1,"isfriend":0,"isfamily":0},{"id":"52678121663","owner":"132165466@N08","secret":"852407f854","server":"65535","farm":66,"title":"Blue-gray Tanager","ispublic":1,"isfriend":0,"isfamily":0},{"id":"52677911014","owner":"132165466@N08","secret":"25f45a1486","server":"65535","farm":66,"title":"Blue-gray Tanager","ispublic":1,"isfriend":0,"isfamily":0},{"id":"52675066727","owner":"23335641@N04","secret":"6aa153a779","server":"65535","farm":66,"title":"_DSC3643.jpg","ispublic":1,"isfriend":0,"isfamily":0},{"id":"52671957757","owner":"104988466@N08","secret":"4079eb4af9","server":"65535","farm":66,"title":"11. Tangara \u00e9v\u00eaque - Thraupis episcopus - Blue-grey Tanager","ispublic":1,"isfriend":0,"isfamily":0},{"id":"52672751629","owner":"104988466@N08","secret":"98cabd3bb5","server":"65535","farm":66,"title":"15. Tangara \u00e9v\u00eaque - Thraupis episcopus - Blue-grey Tanager","ispublic":1,"isfriend":0,"isfamily":0},{"id":"52670803731","owner":"132165466@N08","secret":"6d0945db77","server":"65535","farm":66,"title":"Blue-gray Tanager","ispublic":1,"isfriend":0,"isfamily":0},{"id":"52671096824","owner":"132165466@N08","secret":"64c4d2715f","server":"65535","farm":66,"title":"Blue-gray Tanager","ispublic":1,"isfriend":0,"isfamily":0},{"id":"52664828713","owner":"95795254@N02","secret":"f57ab766b4","server":"65535","farm":66,"title":"Blue-grey Tanager 504_8263.jpg","ispublic":1,"isfriend":0,"isfamily":0},{"id":"52660658815","owner":"72271115@N02","secret":"1fb160d934","server":"65535","farm":66,"title":"Blue-grey Tanager --- Thraupis episcopus","ispublic":1,"isfriend":0,"isfamily":0},{"id":"52654654862","owner":"109544413@N05","secret":"af0cf45a2d","server":"65535","farm":66,"title":"Any bugs under here?","ispublic":1,"isfriend":0,"isfamily":0},{"id":"52644237306","owner":"65788177@N02","secret":"72230d725a","server":"65535","farm":66,"title":"Blue-gray Tanager","ispublic":1,"isfriend":0,"isfamily":0},{"id":"52641174068","owner":"197489407@N02","secret":"d724afe3bd","server":"65535","farm":66,"title":"Blue Bird - Thraupis episcopus","ispublic":1,"isfriend":0,"isfamily":0},{"id":"52640410610","owner":"123174353@N02","secret":"1ab3532198","server":"65535","farm":66,"title":"Thraupis episcopus \/ Blue-grey Tanager \/ bisschopstangare","ispublic":1,"isfriend":0,"isfamily":0},{"id":"52627459632","owner":"45302763@N07","secret":"8e0a4c8c46","server":"65535","farm":66,"title":"_DSC0726","ispublic":1,"isfriend":0,"isfamily":0},{"id":"52627459662","owner":"45302763@N07","secret":"72d1c6a369","server":"65535","farm":66,"title":"_DSC0719","ispublic":1,"isfriend":0,"isfamily":0},{"id":"52611497849","owner":"141256983@N04","secret":"216c333b72","server":"65535","farm":66,"title":"Blue-gray Tanager (Thraupis episcopus)","ispublic":1,"isfriend":0,"isfamily":0},{"id":"52602410951","owner":"189223790@N06","secret":"7997c80852","server":"65535","farm":66,"title":"Blue-grey tanager  - Thraupis episcopus  - Tangara Azuleja.","ispublic":1,"isfriend":0,"isfamily":0},{"id":"52578898347","owner":"11295713@N00","secret":"ee07b9b916","server":"65535","farm":66,"title":"Blue-gray Tanager (Thraupis episcopus) on Watch","ispublic":1,"isfriend":0,"isfamily":0},{"id":"52577686242","owner":"73124133@N00","secret":"4ef789ec26","server":"65535","farm":66,"title":"Viudita - Blue-gray tanager (Thraupis episcopus)","ispublic":1,"isfriend":0,"isfamily":0},{"id":"52555803037","owner":"69947563@N07","secret":"421de9b3ea","server":"65535","farm":66,"title":"Blue-grey Tanager - San Vicente de Chucur\u00ed, Santander, Colombia","ispublic":1,"isfriend":0,"isfamily":0},{"id":"52550540263","owner":"53358437@N07","secret":"4e0237982c","server":"65535","farm":66,"title":"Blue-grey Tanager (Thraupis episcopus)","ispublic":1,"isfriend":0,"isfamily":0},{"id":"52546434012","owner":"69947563@N07","secret":"42fc50d913","server":"65535","farm":66,"title":"Blue-grey Tanager - La Sonrisa, Ibague, Tolima, Colombia","ispublic":1,"isfriend":0,"isfamily":0},{"id":"52547077973","owner":"21154755@N03","secret":"9c14bf01bd","server":"65535","farm":66,"title":"Blue-gray Tanager (Thraupis episcopus)","ispublic":1,"isfriend":0,"isfamily":0},{"id":"52547077278","owner":"21154755@N03","secret":"683bf0342f","server":"65535","farm":66,"title":"Blue-gray Tanager (Thraupis episcopus)","ispublic":1,"isfriend":0,"isfamily":0},{"id":"52546065502","owner":"21154755@N03","secret":"dd152ae963","server":"65535","farm":66,"title":"Blue-gray Tanager (Thraupis episcopus)","ispublic":1,"isfriend":0,"isfamily":0},{"id":"52538118967","owner":"69947563@N07","secret":"c607630e35","server":"65535","farm":66,"title":"Blue-grey Tanager - Minca, Santa Marta, Magdalena, Colombia","ispublic":1,"isfriend":0,"isfamily":0},{"id":"52538456061","owner":"145988764@N06","secret":"722d56f89c","server":"65535","farm":66,"title":"azulejo com\u00fan-Thraupis episcopus","ispublic":1,"isfriend":0,"isfamily":0},{"id":"52536524000","owner":"132165466@N08","secret":"4ff6cc879c","server":"65535","farm":66,"title":"Blue-gray Tanager","ispublic":1,"isfriend":0,"isfamily":0},{"id":"52535211148","owner":"190923251@N05","secret":"847447415c","server":"65535","farm":66,"title":"Blue-gray Tanager with food","ispublic":1,"isfriend":0,"isfamily":0},{"id":"52533751226","owner":"132165466@N08","secret":"c0c48ea4c0","server":"65535","farm":66,"title":"Blue-gray Tanager","ispublic":1,"isfriend":0,"isfamily":0},{"id":"52526323977","owner":"36274920@N05","secret":"a81b68b71d","server":"65535","farm":66,"title":"Panam\u00e1 - Novembre 2022","ispublic":1,"isfriend":0,"isfamily":0},{"id":"52524942893","owner":"14874638@N03","secret":"938231236f","server":"65535","farm":66,"title":"Glaucous tanager","ispublic":1,"isfriend":0,"isfamily":0},{"id":"52508718657","owner":"103263246@N06","secret":"415603bfef","server":"65535","farm":66,"title":"Thraupis episcopus","ispublic":1,"isfriend":0,"isfamily":0},{"id":"52495917291","owner":"103263246@N06","secret":"9b563f8583","server":"65535","farm":66,"title":"Thraupis episcopus. Tangara Azuleja. Viudita. Viuda. Blue-gray Tanager","ispublic":1,"isfriend":0,"isfamily":0},{"id":"52495916416","owner":"103263246@N06","secret":"7991ec6463","server":"65535","farm":66,"title":"Thraupis episcopus. Tangara Azuleja. Viudita. Viuda. Blue-gray Tanager","ispublic":1,"isfriend":0,"isfamily":0},{"id":"52495916111","owner":"103263246@N06","secret":"d714b3374f","server":"65535","farm":66,"title":"Thraupis episcopus. Tangara Azuleja. Viudita. Viuda. Blue-gray Tanager","ispublic":1,"isfriend":0,"isfamily":0},{"id":"52496392190","owner":"103263246@N06","secret":"ff1e5de9c2","server":"65535","farm":66,"title":"Thraupis episcopus. Tangara Azuleja. Viudita. Viuda. Blue-gray Tanager","ispublic":1,"isfriend":0,"isfamily":0},{"id":"52494417537","owner":"48938938@N04","secret":"a5b5d2cb53","server":"65535","farm":66,"title":"Blue-gray Tanager_Thraupis episcopus_Ascanio_Guyana_DZ3A3917","ispublic":1,"isfriend":0,"isfamily":0},{"id":"52493292595","owner":"86666094@N00","secret":"df5265fcf2","server":"65535","farm":66,"title":"Blue-gray Tanager","ispublic":1,"isfriend":0,"isfamily":0},{"id":"52460157823","owner":"71833159@N00","secret":"f6e5bbf711","server":"65535","farm":66,"title":"Blue-gray Tanager \/ Thraupis episcopus, Asa Wright Nature Centre, Trinidad, 2017","ispublic":1,"isfriend":0,"isfamily":0},{"id":"52447880655","owner":"95795254@N02","secret":"88ce518cd6","server":"65535","farm":66,"title":"Blue-grey Tanager 504_8351.jpg","ispublic":1,"isfriend":0,"isfamily":0},{"id":"52435420091","owner":"62848917@N07","secret":"4c7b97cf20","server":"65535","farm":66,"title":"Blue-gray Tanager - Thraupis episcopus","ispublic":1,"isfriend":0,"isfamily":0},{"id":"52702889179","owner":"27794127@N07","secret":"9d402e9295","server":"65535","farm":66,"title":"Thraupis episcopus","ispublic":1,"isfriend":0,"isfamily":0},{"id":"52672958438","owner":"104988466@N08","secret":"aa771c2f52","server":"65535","farm":66,"title":"12. Tangara \u00e9v\u00eaque - Thraupis episcopus - Blue-grey Tanager","ispublic":1,"isfriend":0,"isfamily":0},{"id":"52672751849","owner":"104988466@N08","secret":"6cf4ff46a0","server":"65535","farm":66,"title":"13. Tangara \u00e9v\u00eaque - Thraupis episcopus - Blue-grey Tanager","ispublic":1,"isfriend":0,"isfamily":0},{"id":"52672458746","owner":"104988466@N08","secret":"5689599ecb","server":"65535","farm":66,"title":"14. Tangara \u00e9v\u00eaque - Thraupis episcopus - Blue-grey Tanager","ispublic":1,"isfriend":0,"isfamily":0},{"id":"52672458536","owner":"104988466@N08","secret":"af657eec8e","server":"65535","farm":66,"title":"16. Tangara \u00e9v\u00eaque - Thraupis episcopus - Blue-grey Tanager","ispublic":1,"isfriend":0,"isfamily":0},{"id":"52671957097","owner":"104988466@N08","secret":"7d407bcd4e","server":"65535","farm":66,"title":"17. Tangara \u00e9v\u00eaque - Thraupis episcopus - Blue-grey Tanager","ispublic":1,"isfriend":0,"isfamily":0},{"id":"52671158248","owner":"132165466@N08","secret":"5dab2730be","server":"65535","farm":66,"title":"Blue-gray Tanager","ispublic":1,"isfriend":0,"isfamily":0},{"id":"52655351998","owner":"8013969@N03","secret":"8cf939af93","server":"65535","farm":66,"title":"Thraupis episcopus x sayacaDFL abm22-2","ispublic":1,"isfriend":0,"isfamily":0},{"id":"52655307505","owner":"8013969@N03","secret":"92353ca1e2","server":"65535","farm":66,"title":"Thraupis episcopus x sayacaDFL abm22-3","ispublic":1,"isfriend":0,"isfamily":0},{"id":"52655306610","owner":"8013969@N03","secret":"a7a66b1dd7","server":"65535","farm":66,"title":"Thraupis episcopus x sayacaDFL abm22-4","ispublic":1,"isfriend":0,"isfamily":0},{"id":"52654863676","owner":"8013969@N03","secret":"8fc30687b0","server":"65535","farm":66,"title":"Thraupis episcopus x sayacaDFL abm22-5","ispublic":1,"isfriend":0,"isfamily":0},{"id":"52613259535","owner":"154417921@N04","secret":"21c35da615","server":"65535","farm":66,"title":"DSC08655 kopi\u00ebren1","ispublic":1,"isfriend":0,"isfamily":0},{"id":"52613259290","owner":"154417921@N04","secret":"270cf1ff02","server":"65535","farm":66,"title":"DSC03340 kopi\u00ebren1","ispublic":1,"isfriend":0,"isfamily":0},{"id":"52612837406","owner":"154417921@N04","secret":"f8d4831c66","server":"65535","farm":66,"title":"DSC08660 kopi\u00ebren1","ispublic":1,"isfriend":0,"isfamily":0},{"id":"52585916713","owner":"132165466@N08","secret":"9e60a56e4a","server":"65535","farm":66,"title":"Blue-gray Tanager","ispublic":1,"isfriend":0,"isfamily":0},{"id":"52585835195","owner":"132165466@N08","secret":"f7875fdf1c","server":"65535","farm":66,"title":"Blue-gray Tanager","ispublic":1,"isfriend":0,"isfamily":0},{"id":"52553407796","owner":"68635735@N02","secret":"4d3608e3a6","server":"65535","farm":66,"title":"Blue-grey Tanager (Thraupis episcopus)","ispublic":1,"isfriend":0,"isfamily":0},{"id":"52553699129","owner":"68635735@N02","secret":"188f0c8cd7","server":"65535","farm":66,"title":"Blue-grey Tanager (Thraupis episcopus)","ispublic":1,"isfriend":0,"isfamily":0},{"id":"52550870950","owner":"131708321@N02","secret":"69b88fa4ff","server":"65535","farm":66,"title":"Blue-gray Tanager (Thraupis episcopus), Gamboa, Panama","ispublic":1,"isfriend":0,"isfamily":0},{"id":"52535581417","owner":"132165466@N08","secret":"d30f650661","server":"65535","farm":66,"title":"Blue-gray Tanager","ispublic":1,"isfriend":0,"isfamily":0},{"id":"52536339754","owner":"132165466@N08","secret":"2329413f62","server":"65535","farm":66,"title":"Blue-gray Tanager","ispublic":1,"isfriend":0,"isfamily":0},{"id":"52535574022","owner":"132165466@N08","secret":"d0689a0540","server":"65535","farm":66,"title":"Blue-gray Tanager","ispublic":1,"isfriend":0,"isfamily":0},{"id":"52534967369","owner":"195899031@N06","secret":"6b6a17575b","server":"65535","farm":66,"title":"Thraupis episcopus","ispublic":1,"isfriend":0,"isfamily":0},{"id":"52534967244","owner":"195899031@N06","secret":"ffeea855bc","server":"65535","farm":66,"title":"Thraupis episcopus","ispublic":1,"isfriend":0,"isfamily":0},{"id":"52534228775","owner":"132165466@N08","secret":"6a9228ca44","server":"65535","farm":66,"title":"Blue-gray Tanager","ispublic":1,"isfriend":0,"isfamily":0},{"id":"52509781489","owner":"186211059@N06","secret":"0ff64d2194","server":"65535","farm":66,"title":"Blue-grey Tanager","ispublic":1,"isfriend":0,"isfamily":0},{"id":"52509981155","owner":"186211059@N06","secret":"75016e9dd3","server":"65535","farm":66,"title":"Blue-grey Tanager","ispublic":1,"isfriend":0,"isfamily":0},{"id":"52508718887","owner":"103263246@N06","secret":"ec53a2a23a","server":"65535","farm":66,"title":"Thraupis episcopus","ispublic":1,"isfriend":0,"isfamily":0},{"id":"52509472454","owner":"103263246@N06","secret":"cbbe804fb7","server":"65535","farm":66,"title":"Thraupis episcopus","ispublic":1,"isfriend":0,"isfamily":0},{"id":"52493806132","owner":"171333438@N08","secret":"0b7646fba5","server":"65535","farm":66,"title":"Tangara \u00e9v\u00eaque (Thraupis episcopus)","ispublic":1,"isfriend":0,"isfamily":0},{"id":"52489599238","owner":"55592907@N06","secret":"1b610e63a9","server":"65535","farm":66,"title":"blue-gray tanager (white-winged) (Thraupis episcopus)","ispublic":1,"isfriend":0,"isfamily":0},{"id":"52489595598","owner":"55592907@N06","secret":"b56428132e","server":"65535","farm":66,"title":"blue-gray tanager (Thraupis episcopus)","ispublic":1,"isfriend":0,"isfamily":0},{"id":"52434553055","owner":"65695019@N07","secret":"6809256e3b","server":"65535","farm":66,"title":"Blue-grey Tanager (Thraupis episcopus) chasing Green Honeycreeper (Chlorophanes spiza) male ...","ispublic":1,"isfriend":0,"isfamily":0},{"id":"52403328760","owner":"65695019@N07","secret":"ed6f891b2d","server":"65535","farm":66,"title":"Angry Blue-grey Tanager (Thraupis episcopus)","ispublic":1,"isfriend":0,"isfamily":0}]},"stat":"ok"}