{"photos":{"page":1,"pages":14,"perpage":100,"total":1339,"photo":[{"id":"52792357753","owner":"128537732@N06","secret":"0e485b7470","server":"65535","farm":66,"title":"Blue-winged Teal (Spatula discors)","ispublic":1,"isfriend":0,"isfamily":0},{"id":"52787245307","owner":"135315828@N06","secret":"5b364ea2a8","server":"65535","farm":66,"title":"blue-winged teal","ispublic":1,"isfriend":0,"isfamily":0},{"id":"52786038957","owner":"90355165@N03","secret":"0eaf207908","server":"65535","farm":66,"title":"blue-winged teal","ispublic":1,"isfriend":0,"isfamily":0},{"id":"52779086376","owner":"128537732@N06","secret":"356a49b070","server":"65535","farm":66,"title":"Blue-winged Teal (Spatula discors)","ispublic":1,"isfriend":0,"isfamily":0},{"id":"52770765737","owner":"90355165@N03","secret":"90bc1e1942","server":"65535","farm":66,"title":"blue-winged teal","ispublic":1,"isfriend":0,"isfamily":0},{"id":"52768871218","owner":"38514062@N03","secret":"4fd29c1689","server":"65535","farm":66,"title":"Blue-winged Teal (Spatula discors)","ispublic":1,"isfriend":0,"isfamily":0},{"id":"52766303243","owner":"57847683@N00","secret":"322e243276","server":"65535","farm":66,"title":"Lesser Yellow Legs and Blue Winged Teals","ispublic":1,"isfriend":0,"isfamily":0},{"id":"52762946663","owner":"12639178@N07","secret":"470ac6be84","server":"65535","farm":66,"title":"Blaufl\u00fcgelenten im Morgengrauen","ispublic":1,"isfriend":0,"isfamily":0},{"id":"52762000901","owner":"29380771@N06","secret":"39c4294c95","server":"65535","farm":66,"title":"Blue-winged Teal Splash","ispublic":1,"isfriend":0,"isfamily":0},{"id":"52732698313","owner":"49114357@N08","secret":"e0494fbe31","server":"65535","farm":66,"title":"Blue-winged Teal","ispublic":1,"isfriend":0,"isfamily":0},{"id":"52751509766","owner":"145890134@N05","secret":"335ff45cda","server":"65535","farm":66,"title":"Blue-winged Teal | Blauwvleugeltaling | Blaufl\u00fcgelente, (Spatula discors)","ispublic":1,"isfriend":0,"isfamily":0},{"id":"52747777379","owner":"12639178@N07","secret":"a8a6416376","server":"65535","farm":66,"title":"Blaufl\u00fcgelenten","ispublic":1,"isfriend":0,"isfamily":0},{"id":"52746775215","owner":"73431753@N00","secret":"aecb423d3a","server":"65535","farm":66,"title":"Blue-winged Teal and Northern Shoveler","ispublic":1,"isfriend":0,"isfamily":0},{"id":"52743752999","owner":"41694014@N04","secret":"84a1753d6d","server":"65535","farm":66,"title":"Spatula discors","ispublic":1,"isfriend":0,"isfamily":0},{"id":"52742049997","owner":"124995824@N08","secret":"b2dd31a84e","server":"65535","farm":66,"title":"Blue-winged Teal - Spatula discors","ispublic":1,"isfriend":0,"isfamily":0},{"id":"52742049847","owner":"124995824@N08","secret":"6149be1c2f","server":"65535","farm":66,"title":"Blue-winged Teal - Spatula discors","ispublic":1,"isfriend":0,"isfamily":0},{"id":"52740815028","owner":"28867468@N08","secret":"383ca7ac02","server":"65535","farm":66,"title":"Hybrid Cinnamon Teal X Blue-winged Teal","ispublic":1,"isfriend":0,"isfamily":0},{"id":"52739296403","owner":"7330431@N08","secret":"be303369bc","server":"65535","farm":66,"title":"Blue-winged Teal Spatula discors","ispublic":1,"isfriend":0,"isfamily":0},{"id":"52738127351","owner":"61241315@N00","secret":"772279a3cb","server":"65535","farm":66,"title":"Blue-winged Teal_00_00_06_723","ispublic":1,"isfriend":0,"isfamily":0},{"id":"52737603602","owner":"61241315@N00","secret":"9aabcec388","server":"65535","farm":66,"title":"Blue-winged Teal_00_00_07_174","ispublic":1,"isfriend":0,"isfamily":0},{"id":"52738127336","owner":"61241315@N00","secret":"4cdc5c3fc5","server":"65535","farm":66,"title":"Blue-winged Teal_00_00_06_940","ispublic":1,"isfriend":0,"isfamily":0},{"id":"52733420013","owner":"101227797@N03","secret":"181c29912b","server":"65535","farm":66,"title":"Blue-winged Teal","ispublic":1,"isfriend":0,"isfamily":0},{"id":"52733085989","owner":"61241315@N00","secret":"c828a01b5a","server":"0","farm":0,"title":"Wood Duck_Blue-winged Teal_0894.MP4","ispublic":1,"isfriend":0,"isfamily":0},{"id":"52732319867","owner":"61241315@N00","secret":"5168799219","server":"0","farm":0,"title":"Wood Duck_Blue-winged Teal_Green-winged Teal_0858.MP4","ispublic":1,"isfriend":0,"isfamily":0},{"id":"52732321472","owner":"61241315@N00","secret":"f4fd5d50a3","server":"0","farm":0,"title":"Wood Duck_Blue-winged Teal_0857.MP4","ispublic":1,"isfriend":0,"isfamily":0},{"id":"52733323103","owner":"61241315@N00","secret":"b1a6d5a7c5","server":"0","farm":0,"title":"Wood Duck_Green-winged Teal_Blue-winged Teal_0876,82.MP4","ispublic":1,"isfriend":0,"isfamily":0},{"id":"52733321138","owner":"61241315@N00","secret":"898a17c318","server":"0","farm":0,"title":"Wood Duck_Blue-winged Teal_Green-winged Teal_0885.MP4","ispublic":1,"isfriend":0,"isfamily":0},{"id":"52731089544","owner":"59206851@N00","secret":"b5993abab8","server":"65535","farm":66,"title":"DSC_2266.jpg","ispublic":1,"isfriend":0,"isfamily":0},{"id":"52730838776","owner":"59206851@N00","secret":"d463aeb3b1","server":"65535","farm":66,"title":"DSC_2263.jpg","ispublic":1,"isfriend":0,"isfamily":0},{"id":"52730312587","owner":"59206851@N00","secret":"4f2bbbdc8c","server":"65535","farm":66,"title":"DSC_2261.jpg","ispublic":1,"isfriend":0,"isfamily":0},{"id":"52731319918","owner":"59206851@N00","secret":"e4e872689d","server":"65535","farm":66,"title":"DSC_2255.jpg","ispublic":1,"isfriend":0,"isfamily":0},{"id":"52731020724","owner":"59206851@N00","secret":"939a535391","server":"65535","farm":66,"title":"DSC_2085.jpg","ispublic":1,"isfriend":0,"isfamily":0},{"id":"52730768246","owner":"59206851@N00","secret":"55cffa250e","server":"65535","farm":66,"title":"DSC_2040.jpg","ispublic":1,"isfriend":0,"isfamily":0},{"id":"52728727628","owner":"90355165@N03","secret":"1edc8f4fa3","server":"65535","farm":66,"title":"blue-winged teal","ispublic":1,"isfriend":0,"isfamily":0},{"id":"52725745803","owner":"7546739@N08","secret":"03b1b3bcf1","server":"65535","farm":66,"title":"Ducks in the water weeds","ispublic":1,"isfriend":0,"isfamily":0},{"id":"52723444914","owner":"12639178@N07","secret":"5f11c88047","server":"65535","farm":66,"title":"Blaufl\u00fcgelente","ispublic":1,"isfriend":0,"isfamily":0},{"id":"52716630997","owner":"151381692@N04","secret":"8a310d07db","server":"65535","farm":66,"title":"Blue-winged Teal Spatula discors","ispublic":1,"isfriend":0,"isfamily":0},{"id":"52708769202","owner":"61241315@N00","secret":"86a18535fc","server":"65535","farm":66,"title":"Blue-winged Teal_N9646","ispublic":1,"isfriend":0,"isfamily":0},{"id":"52709550924","owner":"61241315@N00","secret":"118809ff78","server":"65535","farm":66,"title":"Blue-winged Teal_N9631","ispublic":1,"isfriend":0,"isfamily":0},{"id":"52709294676","owner":"61241315@N00","secret":"192457177b","server":"65535","farm":66,"title":"Blue-winged Teal_N9649","ispublic":1,"isfriend":0,"isfamily":0},{"id":"52702495877","owner":"28867468@N08","secret":"f239ec5e25","server":"65535","farm":66,"title":"Blue-winged Teal Rearranging Feathers After Preening","ispublic":1,"isfriend":0,"isfamily":0},{"id":"52700887738","owner":"194196140@N08","secret":"73562e0cb6","server":"65535","farm":66,"title":"Blue-winged Teal (Spatula discors)","ispublic":1,"isfriend":0,"isfamily":0},{"id":"52698584908","owner":"93273765@N05","secret":"aaa37557c3","server":"65535","farm":66,"title":"Male Blue-winged Teal (Spatula discors)","ispublic":1,"isfriend":0,"isfamily":0},{"id":"52692821218","owner":"93273765@N05","secret":"b41872493c","server":"65535","farm":66,"title":"Blue-winged Teals (Spatula discors) and Northern Shovelers (Spatula clypeata) Explored","ispublic":1,"isfriend":0,"isfamily":0},{"id":"52687713026","owner":"145466593@N08","secret":"24a6d183f4","server":"65535","farm":66,"title":"Blue-winged Teal","ispublic":1,"isfriend":0,"isfamily":0},{"id":"52686707783","owner":"69347399@N08","secret":"8a7194c0eb","server":"65535","farm":66,"title":"Spatula - discors -  Blue winged Teal . pato media luna","ispublic":1,"isfriend":0,"isfamily":0},{"id":"52669642455","owner":"28867468@N08","secret":"4f251a94fb","server":"65535","farm":66,"title":"Blue-winged Teal, One Stretching, Two Arguing","ispublic":1,"isfriend":0,"isfamily":0},{"id":"52664109042","owner":"93273765@N05","secret":"9ea377ff68","server":"65535","farm":66,"title":"Blue-winged Teal (Spatula discors)","ispublic":1,"isfriend":0,"isfamily":0},{"id":"52664607931","owner":"93273765@N05","secret":"1014902081","server":"65535","farm":66,"title":"Blue-winged Teal (Spatula discors)","ispublic":1,"isfriend":0,"isfamily":0},{"id":"52656406721","owner":"130021529@N02","secret":"41b563034e","server":"65535","farm":66,"title":"Spatula discors | Blue-winged Teal | bl\u00e5vingad \u00e5rta","ispublic":1,"isfriend":0,"isfamily":0},{"id":"52655078635","owner":"187792860@N04","secret":"232a4dbcff","server":"65535","farm":66,"title":"Blue-winged Teal (Spatula discors)","ispublic":1,"isfriend":0,"isfamily":0},{"id":"52654415480","owner":"14734088@N02","secret":"ac44a1b2cd","server":"65535","farm":66,"title":"Sarcelle \u00e0 ailes bleues 200907H","ispublic":1,"isfriend":0,"isfamily":0},{"id":"52651642517","owner":"38514062@N03","secret":"17314e44b4","server":"65535","farm":66,"title":"Blue-winged Teal (Spatula discors)","ispublic":1,"isfriend":0,"isfamily":0},{"id":"52652129696","owner":"38514062@N03","secret":"8e2a67bbc9","server":"65535","farm":66,"title":"Blue-winged Teal (Spatula discors)","ispublic":1,"isfriend":0,"isfamily":0},{"id":"52645684133","owner":"61135968@N00","secret":"3047cbd575","server":"65535","farm":66,"title":"Teal","ispublic":1,"isfriend":0,"isfamily":0},{"id":"52645150661","owner":"131314146@N08","secret":"3bf28f5a75","server":"65535","farm":66,"title":"K. MacDonald, Blue-winged Teal, Spatula discors","ispublic":1,"isfriend":0,"isfamily":0},{"id":"52645622788","owner":"131314146@N08","secret":"0cf4a87349","server":"65535","farm":66,"title":"K. MacDonald, Blue-winged Teal, Spatula discors with Male Mallards","ispublic":1,"isfriend":0,"isfamily":0},{"id":"52645150656","owner":"131314146@N08","secret":"64b8b66a0a","server":"65535","farm":66,"title":"K. MacDonald, Blue-winged Teal, Spatula discors","ispublic":1,"isfriend":0,"isfamily":0},{"id":"52645150606","owner":"131314146@N08","secret":"dbf9f18cee","server":"65535","farm":66,"title":"K. MacDonald, Blue-winged Teal, Spatula discors","ispublic":1,"isfriend":0,"isfamily":0},{"id":"52640857128","owner":"124995824@N08","secret":"2c4afaa617","server":"65535","farm":66,"title":"Blue-winged Teal - Spatula discors","ispublic":1,"isfriend":0,"isfamily":0},{"id":"52639503859","owner":"145466593@N08","secret":"1d5f355a3f","server":"65535","farm":66,"title":"Blue-winged Teal","ispublic":1,"isfriend":0,"isfamily":0},{"id":"52632827828","owner":"54724497@N02","secret":"756dc47b25","server":"65535","farm":66,"title":"Bl\u00e5vingad \u00e5rta, Spatula discors, Blue-winged Teal","ispublic":1,"isfriend":0,"isfamily":0},{"id":"52632786150","owner":"54724497@N02","secret":"6170fd37b5","server":"65535","farm":66,"title":"Bl\u00e5vingad \u00e5rta, Spatula discors, Blue-winged Teal","ispublic":1,"isfriend":0,"isfamily":0},{"id":"52628880451","owner":"188079237@N04","secret":"0dd2f0dae2","server":"65535","farm":66,"title":"Bl\u00e5vingad \u00e5rta","ispublic":1,"isfriend":0,"isfamily":0},{"id":"52629313740","owner":"188079237@N04","secret":"ef802ab0b4","server":"65535","farm":66,"title":"Bl\u00e5vingad \u00e5rta","ispublic":1,"isfriend":0,"isfamily":0},{"id":"52629313720","owner":"188079237@N04","secret":"1f282ac8ac","server":"65535","farm":66,"title":"Bl\u00e5vingad \u00e5rta","ispublic":1,"isfriend":0,"isfamily":0},{"id":"52628359087","owner":"188079237@N04","secret":"c794fbb3e2","server":"65535","farm":66,"title":"Bl\u00e5vingad \u00e5rta","ispublic":1,"isfriend":0,"isfamily":0},{"id":"52629313640","owner":"188079237@N04","secret":"305be00103","server":"65535","farm":66,"title":"Bl\u00e5vingad \u00e5rta","ispublic":1,"isfriend":0,"isfamily":0},{"id":"52629313605","owner":"188079237@N04","secret":"6806e840a1","server":"65535","farm":66,"title":"Bl\u00e5vingad \u00e5rta","ispublic":1,"isfriend":0,"isfamily":0},{"id":"52629358663","owner":"188079237@N04","secret":"d8df7d5dec","server":"65535","farm":66,"title":"Bl\u00e5vingad \u00e5rta","ispublic":1,"isfriend":0,"isfamily":0},{"id":"52622893639","owner":"8654297@N06","secret":"9e7148db1e","server":"65535","farm":66,"title":"Waterfowl whoopie","ispublic":1,"isfriend":0,"isfamily":0},{"id":"52606415742","owner":"28867468@N08","secret":"eba4521966","server":"65535","farm":66,"title":"Blue-winged Teal Males at Take-off","ispublic":1,"isfriend":0,"isfamily":0},{"id":"52605160457","owner":"62043870@N05","secret":"8db6c1d386","server":"65535","farm":66,"title":"Blue-winged Teal, Spatula discors","ispublic":1,"isfriend":0,"isfamily":0},{"id":"52604293385","owner":"67277069@N06","secret":"c818b1fe1e","server":"65535","farm":66,"title":"Blue-winged Taal---Spatula discors","ispublic":1,"isfriend":0,"isfamily":0},{"id":"52603673458","owner":"34689777@N08","secret":"b24d7278de","server":"65535","farm":66,"title":"Blue-winged Teal (Spatula discors) male.  Rockport, Texas.","ispublic":1,"isfriend":0,"isfamily":0},{"id":"52601307033","owner":"130021529@N02","secret":"6b37ceca8e","server":"65535","farm":66,"title":"Spatula discors | Blue-winged Teal | bl\u00e5vingad \u00e5rta","ispublic":1,"isfriend":0,"isfamily":0},{"id":"52594016263","owner":"38514062@N03","secret":"c5e0a1f9a5","server":"65535","farm":66,"title":"Blue-winged Teal (Spatula discors)","ispublic":1,"isfriend":0,"isfamily":0},{"id":"52590862129","owner":"28867468@N08","secret":"679f2d896d","server":"65535","farm":66,"title":"Blue-winged Teal Just After Take-off","ispublic":1,"isfriend":0,"isfamily":0},{"id":"52585786061","owner":"54546220@N00","secret":"9375ab973f","server":"65535","farm":66,"title":"Pato de la Florida, Blue-winged Teal (Spatula discors)","ispublic":1,"isfriend":0,"isfamily":0},{"id":"52585312947","owner":"54546220@N00","secret":"7c8af0f8da","server":"65535","farm":66,"title":"Pato de la Florida, Blue-winged Teal (Spatula discors)","ispublic":1,"isfriend":0,"isfamily":0},{"id":"52582234701","owner":"9731845@N02","secret":"90a87db45c","server":"65535","farm":66,"title":"Blue-Winged Teal (Spatula discors)","ispublic":1,"isfriend":0,"isfamily":0},{"id":"52548919758","owner":"92361032@N05","secret":"004e224f4f","server":"65535","farm":66,"title":"Blue-winged Teal Female \/ Sarcelle \u00e0 ailes bleues Femelle ( Diane )","ispublic":1,"isfriend":0,"isfamily":0},{"id":"52683438467","owner":"123597211@N03","secret":"52406779a1","server":"65535","farm":66,"title":"Blaufl\u00fcgelente (Spatula discors)","ispublic":1,"isfriend":0,"isfamily":0},{"id":"52684235609","owner":"123597211@N03","secret":"40cdd61da6","server":"65535","farm":66,"title":"Blaufl\u00fcgelente (Spatula discors)","ispublic":1,"isfriend":0,"isfamily":0},{"id":"52684235189","owner":"123597211@N03","secret":"f693a679e9","server":"65535","farm":66,"title":"Blaufl\u00fcgelente (Spatula discors)","ispublic":1,"isfriend":0,"isfamily":0},{"id":"52683954576","owner":"123597211@N03","secret":"d916f2e6cc","server":"65535","farm":66,"title":"Blaufl\u00fcgelente (Spatula discors)","ispublic":1,"isfriend":0,"isfamily":0},{"id":"52684449668","owner":"123597211@N03","secret":"9ab5d38fde","server":"65535","farm":66,"title":"Blaufl\u00fcgelente (Spatula discors)","ispublic":1,"isfriend":0,"isfamily":0},{"id":"52684449383","owner":"123597211@N03","secret":"84934f3c6c","server":"65535","farm":66,"title":"Blaufl\u00fcgelente (Spatula discors)","ispublic":1,"isfriend":0,"isfamily":0},{"id":"52684448973","owner":"123597211@N03","secret":"e88a3a9ab7","server":"65535","farm":66,"title":"Blaufl\u00fcgelente (Spatula discors)","ispublic":1,"isfriend":0,"isfamily":0},{"id":"52645405004","owner":"131314146@N08","secret":"67146e9c37","server":"65535","farm":66,"title":"K. MacDonald, Blue-winged Teal, Spatula discors, right, Female Mallard Left","ispublic":1,"isfriend":0,"isfamily":0},{"id":"52645404989","owner":"131314146@N08","secret":"5def13a1e8","server":"65535","farm":66,"title":"K. MacDonald, Blue-winged Teal, Spatula discors","ispublic":1,"isfriend":0,"isfamily":0},{"id":"52641498429","owner":"73431753@N00","secret":"556b1f9b9c","server":"65535","farm":66,"title":"Blue-winged Teal pair on seasonal non-tidal Ballona wetland","ispublic":1,"isfriend":0,"isfamily":0},{"id":"52641351045","owner":"151680047@N06","secret":"a3143c2970","server":"65535","farm":66,"title":"Blue-winged Teal (Spatula discors) Bl\u00e5vingad \u00e5rta","ispublic":1,"isfriend":0,"isfamily":0},{"id":"52638270948","owner":"47533293@N04","secret":"21e8d00a3c","server":"65535","farm":66,"title":"Blue-winged teals, Spatula discors","ispublic":1,"isfriend":0,"isfamily":0},{"id":"52637279962","owner":"47533293@N04","secret":"52915dfffa","server":"65535","farm":66,"title":"Blue-winged teals, Spatula discors","ispublic":1,"isfriend":0,"isfamily":0},{"id":"52632358365","owner":"47533293@N04","secret":"9ec0e7e711","server":"65535","farm":66,"title":"Blue-winged teal, Spatula discors","ispublic":1,"isfriend":0,"isfamily":0},{"id":"52628359102","owner":"188079237@N04","secret":"5aa55556d6","server":"65535","farm":66,"title":"Bl\u00e5vingad \u00e5rta","ispublic":1,"isfriend":0,"isfamily":0},{"id":"52579863152","owner":"153973412@N04","secret":"67e72f671f","server":"65535","farm":66,"title":"Blue-winged Teal-Spatula discors, Hawkeye WMA, IA","ispublic":1,"isfriend":0,"isfamily":0},{"id":"52523446066","owner":"38514062@N03","secret":"e69e5e899f","server":"65535","farm":66,"title":"Blue-winged Teal (Spatula discors)","ispublic":1,"isfriend":0,"isfamily":0},{"id":"52490003750","owner":"39445433@N02","secret":"7d8e04a1c5","server":"65535","farm":66,"title":"Blue-Winged Teal","ispublic":1,"isfriend":0,"isfamily":0}]},"stat":"ok"}