{"photos":{"page":1,"pages":123,"perpage":100,"total":12275,"photo":[{"id":"52724036636","owner":"169771858@N03","secret":"7354829337","server":"65535","farm":66,"title":"Blue Jay - 2022-10-22","ispublic":1,"isfriend":0,"isfamily":0},{"id":"52722396881","owner":"98675522@N06","secret":"c08049e921","server":"65535","farm":66,"title":"Crowning Glory","ispublic":1,"isfriend":0,"isfamily":0},{"id":"52722462693","owner":"25899079@N08","secret":"e17c251cff","server":"65535","farm":66,"title":"Blue Jay (9139)","ispublic":1,"isfriend":0,"isfamily":0},{"id":"52717976327","owner":"65148649@N04","secret":"624aab972c","server":"65535","farm":66,"title":"Blue Jay 02.18.23 Frye","ispublic":1,"isfriend":0,"isfamily":0},{"id":"52718922775","owner":"65148649@N04","secret":"8a9483aecc","server":"65535","farm":66,"title":"Blue Jay 02.18.23 Anderson","ispublic":1,"isfriend":0,"isfamily":0},{"id":"52718555033","owner":"128537732@N06","secret":"c8c245455e","server":"65535","farm":66,"title":"Blue Jay (Cyanocitta cristata)","ispublic":1,"isfriend":0,"isfamily":0},{"id":"52712966410","owner":"36142084@N05","secret":"c194125357","server":"65535","farm":66,"title":"R5_009427","ispublic":1,"isfriend":0,"isfamily":0},{"id":"52712811624","owner":"36142084@N05","secret":"6c867d3837","server":"65535","farm":66,"title":"R5_009384","ispublic":1,"isfriend":0,"isfamily":0},{"id":"52712966230","owner":"36142084@N05","secret":"3ff95eb906","server":"65535","farm":66,"title":"R5_009413","ispublic":1,"isfriend":0,"isfamily":0},{"id":"52706259362","owner":"18739614@N00","secret":"5b39a58d8a","server":"65535","farm":66,"title":"Blue Jay","ispublic":1,"isfriend":0,"isfamily":0},{"id":"52707248998","owner":"8904060@N06","secret":"700fd51aa0","server":"65535","farm":66,"title":"Jay","ispublic":1,"isfriend":0,"isfamily":0},{"id":"52703836360","owner":"48014585@N00","secret":"8114725460","server":"65535","farm":66,"title":"Blue Jay","ispublic":1,"isfriend":0,"isfamily":0},{"id":"52702755320","owner":"48014585@N00","secret":"5cbec32800","server":"65535","farm":66,"title":"Blue Jay","ispublic":1,"isfriend":0,"isfamily":0},{"id":"52702825858","owner":"48014585@N00","secret":"d0c0124340","server":"65535","farm":66,"title":"Blue Jay","ispublic":1,"isfriend":0,"isfamily":0},{"id":"52702592019","owner":"48014585@N00","secret":"63829c9a1d","server":"65535","farm":66,"title":"Blue Jay","ispublic":1,"isfriend":0,"isfamily":0},{"id":"52701757977","owner":"48014585@N00","secret":"bbc7c7e39d","server":"65535","farm":66,"title":"Blue Jay","ispublic":1,"isfriend":0,"isfamily":0},{"id":"52700545451","owner":"69002026@N02","secret":"18be70d898","server":"65535","farm":66,"title":"Blue Jay (Cyanocitta cristata)","ispublic":1,"isfriend":0,"isfamily":0},{"id":"52698337317","owner":"169771858@N03","secret":"950b5de978","server":"65535","farm":66,"title":"Blue Jay - 2020-06-13","ispublic":1,"isfriend":0,"isfamily":0},{"id":"52699096045","owner":"189113466@N07","secret":"ae4b2c8310","server":"65535","farm":66,"title":"Geai bleu - Blue Jay - Cyanocitta cristata","ispublic":1,"isfriend":0,"isfamily":0},{"id":"52697369506","owner":"10260434@N03","secret":"10199c4433","server":"65535","farm":66,"title":"Winter Blue Jay-14Jan23","ispublic":1,"isfriend":0,"isfamily":0},{"id":"52696779195","owner":"10260434@N03","secret":"461b5df849","server":"65535","farm":66,"title":"Blue Jay on pine-24Dec22","ispublic":1,"isfriend":0,"isfamily":0},{"id":"52696348191","owner":"10260434@N03","secret":"b3fd3528a5","server":"65535","farm":66,"title":"Blue Jay on pine-24Dec22","ispublic":1,"isfriend":0,"isfamily":0},{"id":"52696826773","owner":"10260434@N03","secret":"338dc1691c","server":"65535","farm":66,"title":"Blue Jay on pine-24Dec22","ispublic":1,"isfriend":0,"isfamily":0},{"id":"52696815838","owner":"10260434@N03","secret":"7fe58053d9","server":"65535","farm":66,"title":"Blue Jay on pine-24Dec22","ispublic":1,"isfriend":0,"isfamily":0},{"id":"52696693020","owner":"10260434@N03","secret":"43fe1c68e7","server":"65535","farm":66,"title":"Blue Jay-24Dec22","ispublic":1,"isfriend":0,"isfamily":0},{"id":"52695732687","owner":"10260434@N03","secret":"81ae086c17","server":"65535","farm":66,"title":"Blue Jay-24Dec22","ispublic":1,"isfriend":0,"isfamily":0},{"id":"52692043262","owner":"69002026@N02","secret":"c359d3c55e","server":"65535","farm":66,"title":"Blue Jay (Cyanocitta cristata)","ispublic":1,"isfriend":0,"isfamily":0},{"id":"52690920190","owner":"14734088@N02","secret":"c6f85976d6","server":"65535","farm":66,"title":"Geai bleu 230212V","ispublic":1,"isfriend":0,"isfamily":0},{"id":"52684865530","owner":"169771858@N03","secret":"c69738e626","server":"65535","farm":66,"title":"Blue Jay #1 - 2019-11-03","ispublic":1,"isfriend":0,"isfamily":0},{"id":"52684057431","owner":"128369733@N04","secret":"b98b4f5ce9","server":"65535","farm":66,"title":"White Sky (1)","ispublic":1,"isfriend":0,"isfamily":0},{"id":"52682760611","owner":"46197304@N04","secret":"ef68a131f3","server":"65535","farm":66,"title":"A Pretty Winter Blue Jay","ispublic":1,"isfriend":0,"isfamily":0},{"id":"52681914387","owner":"18739614@N00","secret":"7ef024632b","server":"65535","farm":66,"title":"Blue Jay","ispublic":1,"isfriend":0,"isfamily":0},{"id":"52682637430","owner":"195642998@N04","secret":"89cb4db87f","server":"65535","farm":66,"title":"Blue Jay (Cyanocitta cristata)","ispublic":1,"isfriend":0,"isfamily":0},{"id":"52681214201","owner":"13932427@N00","secret":"69570189b6","server":"65535","farm":66,"title":"Blue Jay","ispublic":1,"isfriend":0,"isfamily":0},{"id":"52681213691","owner":"13932427@N00","secret":"3a8d1b12c6","server":"65535","farm":66,"title":"Blue Jay","ispublic":1,"isfriend":0,"isfamily":0},{"id":"52681644810","owner":"13932427@N00","secret":"55b35e0837","server":"65535","farm":66,"title":"Blue Jay","ispublic":1,"isfriend":0,"isfamily":0},{"id":"52681651065","owner":"13932427@N00","secret":"112cc1d7ea","server":"65535","farm":66,"title":"Blue Jay","ispublic":1,"isfriend":0,"isfamily":0},{"id":"52679675617","owner":"70295563@N00","secret":"69ca76e339","server":"65535","farm":66,"title":"Mug shot","ispublic":1,"isfriend":0,"isfamily":0},{"id":"52680137103","owner":"97599611@N04","secret":"e52bef0129","server":"65535","farm":66,"title":"0P7A8625   Blue Jay, Canada","ispublic":1,"isfriend":0,"isfamily":0},{"id":"52625905212","owner":"49114357@N08","secret":"85bffc5091","server":"65535","farm":66,"title":"Blue Jay","ispublic":1,"isfriend":0,"isfamily":0},{"id":"52676875149","owner":"128369733@N04","secret":"6bff4b46b2","server":"65535","farm":66,"title":"Against A White Sky (1)","ispublic":1,"isfriend":0,"isfamily":0},{"id":"52676595281","owner":"128369733@N04","secret":"55fba6dc1e","server":"65535","farm":66,"title":"Against A White Sky (2)","ispublic":1,"isfriend":0,"isfamily":0},{"id":"52671228722","owner":"160542269@N02","secret":"e1f0a41571","server":"65535","farm":66,"title":"blue jay (cyanocitta cristata)","ispublic":1,"isfriend":0,"isfamily":0},{"id":"52668873129","owner":"100108154@N02","secret":"daf77b5b78","server":"65535","farm":66,"title":"Blue Jay Found My Heated Fountain","ispublic":1,"isfriend":0,"isfamily":0},{"id":"52667408206","owner":"45340210@N05","secret":"0cf1d976f8","server":"65535","farm":66,"title":"I'm Off 1_31_23","ispublic":1,"isfriend":0,"isfamily":0},{"id":"52667242838","owner":"188156748@N07","secret":"a48acf4e32","server":"65535","farm":66,"title":"Blue Jay (P) - Geai Bleu (P) - Cyanocitta cristata 3213 (29)-SharpenAI-Standard copy.jpgS","ispublic":1,"isfriend":0,"isfamily":0},{"id":"52666791998","owner":"36013467@N07","secret":"1dc058a552","server":"65535","farm":66,"title":"Blue Jay (Cyanocitta cristata)","ispublic":1,"isfriend":0,"isfamily":0},{"id":"52664674997","owner":"48232993@N00","secret":"4acf32e0f4","server":"65535","farm":66,"title":"bluejay bath","ispublic":1,"isfriend":0,"isfamily":0},{"id":"52665611285","owner":"48232993@N00","secret":"b82be36a3f","server":"65535","farm":66,"title":"bluejay in foundation bed","ispublic":1,"isfriend":0,"isfamily":0},{"id":"52663870311","owner":"8378957@N02","secret":"9ef289b4fc","server":"65535","farm":66,"title":"Blue Jay","ispublic":1,"isfriend":0,"isfamily":0},{"id":"52663730754","owner":"85391626@N07","secret":"1ee2dfdc7f","server":"65535","farm":66,"title":"Blue Jay","ispublic":1,"isfriend":0,"isfamily":0},{"id":"52661243001","owner":"196127020@N02","secret":"4638f796a1","server":"65535","farm":66,"title":"Bluejay","ispublic":1,"isfriend":0,"isfamily":0},{"id":"52661730403","owner":"196127020@N02","secret":"2b047342c6","server":"65535","farm":66,"title":"Bluejay","ispublic":1,"isfriend":0,"isfamily":0},{"id":"52661195121","owner":"188156748@N07","secret":"0d4b1359db","server":"65535","farm":66,"title":"Blue Jay - Geai Bleu - Cyanocitta cristata 3213 (10)-SharpenAI-Standard copy.jpgS","ispublic":1,"isfriend":0,"isfamily":0},{"id":"52661479824","owner":"188156748@N07","secret":"c502ea9d69","server":"65535","farm":66,"title":"Blue Jay - Geai Bleu - Cyanocitta cristata 3213 (11)-SharpenAI-Standard copy.jpgS","ispublic":1,"isfriend":0,"isfamily":0},{"id":"52661479804","owner":"188156748@N07","secret":"fea0ac6495","server":"65535","farm":66,"title":"Blue Jay - Geai Bleu - Cyanocitta cristata 3213 (13)-SharpenAI-Standard copy.jpgS","ispublic":1,"isfriend":0,"isfamily":0},{"id":"52661687433","owner":"188156748@N07","secret":"33d2a70e6e","server":"65535","farm":66,"title":"Blue Jay - Geai Bleu - Cyanocitta cristata 3213 (19)-SharpenAI-Standard copy.jpgS","ispublic":1,"isfriend":0,"isfamily":0},{"id":"52661687448","owner":"188156748@N07","secret":"f616768a51","server":"65535","farm":66,"title":"Blue Jay - Geai Bleu - Cyanocitta cristata 3213 (14)-SharpenAI-Standard copy.jpgS","ispublic":1,"isfriend":0,"isfamily":0},{"id":"52661687403","owner":"188156748@N07","secret":"9e0c92ac82","server":"65535","farm":66,"title":"Blue Jay - Geai Bleu - Cyanocitta cristata 3213 (21)-SharpenAI-Standard copy.jpgS","ispublic":1,"isfriend":0,"isfamily":0},{"id":"52660971198","owner":"11159374@N04","secret":"9ac7f6ec17","server":"65535","farm":66,"title":"Blue Jay","ispublic":1,"isfriend":0,"isfamily":0},{"id":"52659585429","owner":"195642998@N04","secret":"4c0e3c2cb5","server":"65535","farm":66,"title":"Blue Jay ( Cyanocitta cristata)","ispublic":1,"isfriend":0,"isfamily":0},{"id":"52657363510","owner":"8378957@N02","secret":"290a55c990","server":"65535","farm":66,"title":"Blue Jay","ispublic":1,"isfriend":0,"isfamily":0},{"id":"52654510688","owner":"128369733@N04","secret":"969ae3ddc1","server":"65535","farm":66,"title":"Today\u2019s Jay (2)","ispublic":1,"isfriend":0,"isfamily":0},{"id":"52653913591","owner":"189113466@N07","secret":"f2c9eb1719","server":"65535","farm":66,"title":"Geai bleu - Blue Jay - Cyanocitta cristata","ispublic":1,"isfriend":0,"isfamily":0},{"id":"52653033481","owner":"18739614@N00","secret":"2e75feb86a","server":"65535","farm":66,"title":"Blue Jay","ispublic":1,"isfriend":0,"isfamily":0},{"id":"52651349613","owner":"169771858@N03","secret":"c4746d8817","server":"65535","farm":66,"title":"Blue Jay #2 - 2019-11-03","ispublic":1,"isfriend":0,"isfamily":0},{"id":"52595840241","owner":"49114357@N08","secret":"abbc934929","server":"65535","farm":66,"title":"Blue Jay","ispublic":1,"isfriend":0,"isfamily":0},{"id":"52650487285","owner":"128537732@N06","secret":"5f59b56ffb","server":"65535","farm":66,"title":"Blue Jay (Cyanocitta cristata)","ispublic":1,"isfriend":0,"isfamily":0},{"id":"52649550677","owner":"128537732@N06","secret":"79ece9534b","server":"65535","farm":66,"title":"Blue Jay (Cyanocitta cristata)","ispublic":1,"isfriend":0,"isfamily":0},{"id":"52649309168","owner":"52909585@N02","secret":"2fdeb2649b","server":"65535","farm":66,"title":"#25, Ben's 2023 Bird Count & 2023-9-25 Blue Jay (Cyanocitta cristata) in the crabapple tree","ispublic":1,"isfriend":0,"isfamily":0},{"id":"52648245071","owner":"24608578@N00","secret":"4791c56f39","server":"65535","farm":66,"title":"Blue jay (Cyanocitta cristata)","ispublic":1,"isfriend":0,"isfamily":0},{"id":"52647739067","owner":"128369733@N04","secret":"5e6ac4cefd","server":"65535","farm":66,"title":"A Pair Of Blue Jays (3)","ispublic":1,"isfriend":0,"isfamily":0},{"id":"52648237276","owner":"128369733@N04","secret":"fbce6c090b","server":"65535","farm":66,"title":"A Pair Of Blue Jays (4)","ispublic":1,"isfriend":0,"isfamily":0},{"id":"52645537780","owner":"42034606@N05","secret":"66367d91f1","server":"65535","farm":66,"title":"Steller's jay on the Coconino","ispublic":1,"isfriend":0,"isfamily":0},{"id":"52645536400","owner":"42034606@N05","secret":"b7e3fceb86","server":"65535","farm":66,"title":"Steller's jay on the Coconino","ispublic":1,"isfriend":0,"isfamily":0},{"id":"52645570398","owner":"42034606@N05","secret":"7fb4449fb2","server":"65535","farm":66,"title":"Steller's jay on the Coconino","ispublic":1,"isfriend":0,"isfamily":0},{"id":"52639573172","owner":"196558678@N02","secret":"3f5e2d8ddf","server":"65535","farm":66,"title":"Blue Jay (Cyanocitta cristata)","ispublic":1,"isfriend":0,"isfamily":0},{"id":"52640560308","owner":"196558678@N02","secret":"19f0119991","server":"65535","farm":66,"title":"Pair of Blue Jays (Cyanocitta cristata)","ispublic":1,"isfriend":0,"isfamily":0},{"id":"52639839471","owner":"169771858@N03","secret":"d0a918cce1","server":"65535","farm":66,"title":"Blue Jay - 2019-11-10","ispublic":1,"isfriend":0,"isfamily":0},{"id":"52640079579","owner":"45340210@N05","secret":"96b27c6a37","server":"65535","farm":66,"title":"Coming At You 1_18_23","ispublic":1,"isfriend":0,"isfamily":0},{"id":"52637775632","owner":"184781347@N05","secret":"d4f63abdc8","server":"65535","farm":66,"title":"blue jay posing @ housatonic valley wildlife management area","ispublic":1,"isfriend":0,"isfamily":0},{"id":"52637785994","owner":"65148649@N04","secret":"77802ebd9c","server":"65535","farm":66,"title":"Blue Jay 01.07.23 Rutherford K","ispublic":1,"isfriend":0,"isfamily":0},{"id":"52636431718","owner":"140386565@N02","secret":"0c48f8fc9d","server":"65535","farm":66,"title":"Blue Jay (Cyanocitta cristata)","ispublic":1,"isfriend":0,"isfamily":0},{"id":"52634936259","owner":"40724294@N04","secret":"332dd09cd7","server":"65535","farm":66,"title":"Blue Jay Portrait","ispublic":1,"isfriend":0,"isfamily":0},{"id":"52631932486","owner":"61241315@N00","secret":"866722367e","server":"65535","farm":66,"title":"Red-headed Woodpecker_Blue Jay_N5010","ispublic":1,"isfriend":0,"isfamily":0},{"id":"52631417362","owner":"61241315@N00","secret":"ef940914dd","server":"65535","farm":66,"title":"Red-headed Woodpecker_Blue Jay_N5040","ispublic":1,"isfriend":0,"isfamily":0},{"id":"52631417372","owner":"61241315@N00","secret":"7942e63411","server":"65535","farm":66,"title":"Red-headed Woodpecker_Blue Jay_N5039","ispublic":1,"isfriend":0,"isfamily":0},{"id":"52632415423","owner":"61241315@N00","secret":"153f75e455","server":"65535","farm":66,"title":"Red-headed Woodpecker_Blue Jay_N5041","ispublic":1,"isfriend":0,"isfamily":0},{"id":"52627706883","owner":"85391626@N07","secret":"d62a7a3a51","server":"65535","farm":66,"title":"Blue Jay","ispublic":1,"isfriend":0,"isfamily":0},{"id":"52571737218","owner":"49114357@N08","secret":"2ce308250e","server":"65535","farm":66,"title":"Blue Jay","ispublic":1,"isfriend":0,"isfamily":0},{"id":"52619442865","owner":"24608578@N00","secret":"66582fa41e","server":"65535","farm":66,"title":"Blue jay (Cyanocitta cristata)","ispublic":1,"isfriend":0,"isfamily":0},{"id":"52618498357","owner":"24608578@N00","secret":"078d256f12","server":"65535","farm":66,"title":"Blue jay (Cyanocitta cristata)","ispublic":1,"isfriend":0,"isfamily":0},{"id":"52618890401","owner":"128537732@N06","secret":"bd37e90178","server":"65535","farm":66,"title":"Blue Jay (Cyanocitta cristata)","ispublic":1,"isfriend":0,"isfamily":0},{"id":"52612911904","owner":"195642998@N04","secret":"1b986d26b6","server":"65535","farm":66,"title":"Blue Jay (Cyanocitta cristata)","ispublic":1,"isfriend":0,"isfamily":0},{"id":"52612700495","owner":"39138537@N06","secret":"6358eda568","server":"65535","farm":66,"title":"Blue Jay (Cyanocitta cristata)","ispublic":1,"isfriend":0,"isfamily":0},{"id":"52660745167","owner":"18739614@N00","secret":"cb5e974ac0","server":"65535","farm":66,"title":"Blue Jay","ispublic":1,"isfriend":0,"isfamily":0},{"id":"52648682995","owner":"128369733@N04","secret":"c4646eb7cb","server":"65535","farm":66,"title":"A Pair Of Blue Jays (1)","ispublic":1,"isfriend":0,"isfamily":0},{"id":"52648682590","owner":"128369733@N04","secret":"e2f250a097","server":"65535","farm":66,"title":"A Pair Of Blue Jays (2)","ispublic":1,"isfriend":0,"isfamily":0},{"id":"52645123329","owner":"47998611@N03","secret":"4779196e42","server":"65535","farm":66,"title":"January 23\/23: A splash of colour","ispublic":1,"isfriend":0,"isfamily":0},{"id":"52633258204","owner":"61135968@N00","secret":"29f931afd2","server":"65535","farm":66,"title":"Blue jay","ispublic":1,"isfriend":0,"isfamily":0}]},"stat":"ok"}