{"photos":{"page":1,"pages":12,"perpage":100,"total":1195,"photo":[{"id":"52788068874","owner":"79722430@N04","secret":"8828292b04","server":"65535","farm":66,"title":"Blue-and-white flycatcher (Cyanoptila cyanomelana)","ispublic":1,"isfriend":0,"isfamily":0},{"id":"52787283107","owner":"79722430@N04","secret":"2e9bf33580","server":"65535","farm":66,"title":"Blue-and-white flycatcher (Cyanoptila cyanomelana)","ispublic":1,"isfriend":0,"isfamily":0},{"id":"52700267591","owner":"127247666@N05","secret":"720b837a80","server":"65535","farm":66,"title":"Blue-and-white flycatcher","ispublic":1,"isfriend":0,"isfamily":0},{"id":"52597217899","owner":"61485851@N06","secret":"1dc0aed67e","server":"65535","farm":66,"title":"Blue-and-white flycatcher","ispublic":1,"isfriend":0,"isfamily":0},{"id":"52597463563","owner":"61485851@N06","secret":"37009c54e2","server":"65535","farm":66,"title":"Blue-and-white flycatcher","ispublic":1,"isfriend":0,"isfamily":0},{"id":"52596926371","owner":"61485851@N06","secret":"2b78452ded","server":"65535","farm":66,"title":"Blue-and-white flycatcher","ispublic":1,"isfriend":0,"isfamily":0},{"id":"52597408148","owner":"61485851@N06","secret":"9f8ec29f01","server":"65535","farm":66,"title":"Blue-and-white flycatcher","ispublic":1,"isfriend":0,"isfamily":0},{"id":"52595972074","owner":"61485851@N06","secret":"dc2e5ba8eb","server":"65535","farm":66,"title":"Blue-and-white flycatcher","ispublic":1,"isfriend":0,"isfamily":0},{"id":"52595210017","owner":"61485851@N06","secret":"c200ce9577","server":"65535","farm":66,"title":"Blue-and-white flycatcher","ispublic":1,"isfriend":0,"isfamily":0},{"id":"52596205413","owner":"61485851@N06","secret":"8a0d1e1078","server":"65535","farm":66,"title":"Blue-and-white flycatcher (Lifer #443)","ispublic":1,"isfriend":0,"isfamily":0},{"id":"52596186608","owner":"61485851@N06","secret":"916b4ac18b","server":"65535","farm":66,"title":"Blue-and-white flycatcher","ispublic":1,"isfriend":0,"isfamily":0},{"id":"52595132592","owner":"61485851@N06","secret":"817bbb0d90","server":"65535","farm":66,"title":"Blue-and-white flycatcher","ispublic":1,"isfriend":0,"isfamily":0},{"id":"52596047410","owner":"61485851@N06","secret":"b17a4d6dc0","server":"65535","farm":66,"title":"Blue-and-white flycatcher","ispublic":1,"isfriend":0,"isfamily":0},{"id":"52595071682","owner":"61485851@N06","secret":"3dac536620","server":"65535","farm":66,"title":"Blue-and-white flycatcher","ispublic":1,"isfriend":0,"isfamily":0},{"id":"52594537377","owner":"61485851@N06","secret":"7a1193cc2b","server":"65535","farm":66,"title":"Blue-and-white flycatcher","ispublic":1,"isfriend":0,"isfamily":0},{"id":"52485208575","owner":"44635421@N06","secret":"2fd96ed9f4","server":"65535","farm":66,"title":"The blue-and-white flycatcher (Cyanoptila cyanomelana)","ispublic":1,"isfriend":0,"isfamily":0},{"id":"52432230553","owner":"44635421@N06","secret":"5af83697b9","server":"65535","farm":66,"title":"blue-and-white flycatcher (Cyanoptila cyanomelana)","ispublic":1,"isfriend":0,"isfamily":0},{"id":"52424908381","owner":"137111202@N08","secret":"b69e1c68c9","server":"65535","farm":66,"title":"\u767d\u8179\u59ec\u9db2, \u767d\u8179\u9db2, \u767d\u8179\u85cd\u59ec\u9db2, \u767d\u8179\u7409\u7483, Blue-and-white Flycatcher, Cyanoptila cyanomelana,","ispublic":1,"isfriend":0,"isfamily":0},{"id":"52425366070","owner":"137111202@N08","secret":"81fe38061a","server":"65535","farm":66,"title":"\u767d\u8179\u59ec\u9db2, \u767d\u8179\u9db2, \u767d\u8179\u85cd\u59ec\u9db2, \u767d\u8179\u7409\u7483, Blue-and-white Flycatcher, Cyanoptila cyanomelana,","ispublic":1,"isfriend":0,"isfamily":0},{"id":"52424406017","owner":"137111202@N08","secret":"3012d81cc3","server":"65535","farm":66,"title":"\u767d\u8179\u59ec\u9db2, \u767d\u8179\u9db2, \u767d\u8179\u85cd\u59ec\u9db2, \u767d\u8179\u7409\u7483, Blue-and-white Flycatcher, Cyanoptila cyanomelana,","ispublic":1,"isfriend":0,"isfamily":0},{"id":"52425196109","owner":"137111202@N08","secret":"c8eae8f350","server":"65535","farm":66,"title":"\u767d\u8179\u59ec\u9db2, \u767d\u8179\u9db2, \u767d\u8179\u85cd\u59ec\u9db2, \u767d\u8179\u7409\u7483, Blue-and-white Flycatcher, Cyanoptila cyanomelana,","ispublic":1,"isfriend":0,"isfamily":0},{"id":"52420563529","owner":"44635421@N06","secret":"b071cfb726","server":"65535","farm":66,"title":"blue-and-white flycatcher (Cyanoptila cyanomelana)","ispublic":1,"isfriend":0,"isfamily":0},{"id":"52186658396","owner":"183840266@N08","secret":"2ac27af088","server":"65535","farm":66,"title":"Blue-and-White Flycatcher (Cyanoptila cyanomelana cyanomelana)","ispublic":1,"isfriend":0,"isfamily":0},{"id":"51905164853","owner":"127247666@N05","secret":"4e66bb25bd","server":"65535","farm":66,"title":"Unknown flower and blue-and-white flycatcher","ispublic":1,"isfriend":0,"isfamily":0},{"id":"51874275882","owner":"127247666@N05","secret":"3ff9204f43","server":"65535","farm":66,"title":"Common garden peony and blue-and-white flycatcher","ispublic":1,"isfriend":0,"isfamily":0},{"id":"51856061631","owner":"28786551@N04","secret":"62089012db","server":"65535","farm":66,"title":"Blue-and-white Flycatcher","ispublic":1,"isfriend":0,"isfamily":0},{"id":"51811820369","owner":"32136583@N04","secret":"ea6c9c2f86","server":"65535","farm":66,"title":"Blue And White Flycatcher, female","ispublic":1,"isfriend":0,"isfamily":0},{"id":"51768780845","owner":"187084407@N04","secret":"c4bd75608e","server":"65535","farm":66,"title":"Cyanoptila cyanomelana","ispublic":1,"isfriend":0,"isfamily":0},{"id":"51767901486","owner":"187084407@N04","secret":"0e5e298598","server":"65535","farm":66,"title":"Cyanoptila cyanomelana","ispublic":1,"isfriend":0,"isfamily":0},{"id":"51723750140","owner":"28786551@N04","secret":"8d6f47e37f","server":"65535","farm":66,"title":"Blue-and-white Flycatcher","ispublic":1,"isfriend":0,"isfamily":0},{"id":"51546170969","owner":"127247666@N05","secret":"d88fbc7763","server":"65535","farm":66,"title":"Blue-and-white flycatcher","ispublic":1,"isfriend":0,"isfamily":0},{"id":"51336274971","owner":"127247666@N05","secret":"7f20985a3d","server":"65535","farm":66,"title":"Blue-and-white flycatcher","ispublic":1,"isfriend":0,"isfamily":0},{"id":"51257626619","owner":"127247666@N05","secret":"62d219cab8","server":"65535","farm":66,"title":"Chinese trumpet-creeper, great tit, Japanese paradise-flycatcher, blue-and-white flycatcher, barn swallow, oriental greenfinch and Japanese white-eye","ispublic":1,"isfriend":0,"isfamily":0},{"id":"51257626594","owner":"127247666@N05","secret":"23444fe051","server":"65535","farm":66,"title":"Cherry and blue-and-white flycatcher","ispublic":1,"isfriend":0,"isfamily":0},{"id":"51215367683","owner":"127247666@N05","secret":"bfb20d7601","server":"65535","farm":66,"title":"Cherry and blue-and-white flycatcher","ispublic":1,"isfriend":0,"isfamily":0},{"id":"51214420757","owner":"127247666@N05","secret":"3c6b331f2c","server":"65535","farm":66,"title":"Blue-and-white fycatcher","ispublic":1,"isfriend":0,"isfamily":0},{"id":"51188104860","owner":"127247666@N05","secret":"988cc4e9d0","server":"65535","farm":66,"title":"Blue-and-white flycatcher","ispublic":1,"isfriend":0,"isfamily":0},{"id":"51119756520","owner":"151954992@N07","secret":"145d24a911","server":"65535","farm":66,"title":"Cyanoptila cyanomelana","ispublic":1,"isfriend":0,"isfamily":0},{"id":"51119756485","owner":"151954992@N07","secret":"0802c25fce","server":"65535","farm":66,"title":"Cyanoptila cyanomelana","ispublic":1,"isfriend":0,"isfamily":0},{"id":"51118393682","owner":"151954992@N07","secret":"a254aa51ed","server":"65535","farm":66,"title":"Cyanoptila cyanomelana","ispublic":1,"isfriend":0,"isfamily":0},{"id":"51046112852","owner":"61021753@N02","secret":"6f994cdfb5","server":"65535","farm":66,"title":"n8_w1150","ispublic":1,"isfriend":0,"isfamily":0},{"id":"51008155693","owner":"127247666@N05","secret":"2cba9c63fa","server":"65535","farm":66,"title":"Blue-and-white flycatcher","ispublic":1,"isfriend":0,"isfamily":0},{"id":"50971884623","owner":"26822473@N06","secret":"9054bb75de","server":"65535","farm":66,"title":"Blue-and-white Flycatcher (Cyanoptila cyanomelana)","ispublic":1,"isfriend":0,"isfamily":0},{"id":"50671907637","owner":"75814310@N04","secret":"40197709f1","server":"65535","farm":66,"title":"1O4A0260","ispublic":1,"isfriend":0,"isfamily":0},{"id":"50628448617","owner":"26812240@N08","secret":"23066457e0","server":"65535","farm":66,"title":"Blue and White Flycatcher","ispublic":1,"isfriend":0,"isfamily":0},{"id":"50627583276","owner":"26812240@N08","secret":"2ceebc0f19","server":"65535","farm":66,"title":"Blue-and-white flycatcher (Cyanoptila cyanomelana)","ispublic":1,"isfriend":0,"isfamily":0},{"id":"50627679117","owner":"26812240@N08","secret":"9cfa548c0b","server":"65535","farm":66,"title":"Blue-and-white flycatcher (Cyanoptila cyanomelana)","ispublic":1,"isfriend":0,"isfamily":0},{"id":"50616301571","owner":"7200351@N08","secret":"276b8a5947","server":"0","farm":0,"title":"Cyanoptila cyanomelana intermedia - male","ispublic":1,"isfriend":0,"isfamily":0},{"id":"50616413577","owner":"7200351@N08","secret":"d970125f67","server":"65535","farm":66,"title":"Cyanoptila cyanomelana intermedia - male","ispublic":1,"isfriend":0,"isfamily":0},{"id":"50608227523","owner":"64074416@N06","secret":"041d0d3e2f","server":"65535","farm":66,"title":"Male Blue and white Flycatcher (Cyanoptila cyanomelana \u767d\u8179\u84dd\u9e5f)","ispublic":1,"isfriend":0,"isfamily":0},{"id":"50604385967","owner":"64074416@N06","secret":"60296fc65f","server":"65535","farm":66,"title":"Male Blue and white Flycatcher (Cyanoptila cyanomelana \u767d\u8179\u84dd\u9e5f)","ispublic":1,"isfriend":0,"isfamily":0},{"id":"52582963456","owner":"55017428@N05","secret":"d80e1917ba","server":"65535","farm":66,"title":"Blue-and-white Flycatcher (Cyanoptila cyanomelana)","ispublic":1,"isfriend":0,"isfamily":0},{"id":"52582963431","owner":"55017428@N05","secret":"4fe2c0aab6","server":"65535","farm":66,"title":"Blue-and-white Flycatcher (Cyanoptila cyanomelana) female","ispublic":1,"isfriend":0,"isfamily":0},{"id":"52583478303","owner":"55017428@N05","secret":"57a66013a2","server":"65535","farm":66,"title":"Blue-and-white Flycatcher (Cyanoptila cyanomelana)  female","ispublic":1,"isfriend":0,"isfamily":0},{"id":"52582963061","owner":"55017428@N05","secret":"8688247321","server":"65535","farm":66,"title":"Blue-and-white Flycatcher (Cyanoptila cyanomelana) female","ispublic":1,"isfriend":0,"isfamily":0},{"id":"52395712402","owner":"183840266@N08","secret":"a16492ea04","server":"65535","farm":66,"title":"Blue-and-White Flycatcher (Cyanoptila cyanomelana cyanomelana)","ispublic":1,"isfriend":0,"isfamily":0},{"id":"52395712352","owner":"183840266@N08","secret":"1bc5935d6f","server":"65535","farm":66,"title":"Blue-and-White Flycatcher (Cyanoptila cyanomelana cyanomelana)","ispublic":1,"isfriend":0,"isfamily":0},{"id":"52396217931","owner":"183840266@N08","secret":"8cd33671b5","server":"65535","farm":66,"title":"Blue-and-White Flycatcher (Cyanoptila cyanomelana cyanomelana)","ispublic":1,"isfriend":0,"isfamily":0},{"id":"52396217881","owner":"183840266@N08","secret":"c717723d9a","server":"65535","farm":66,"title":"Blue-and-White Flycatcher (Cyanoptila cyanomelana cyanomelana)","ispublic":1,"isfriend":0,"isfamily":0},{"id":"52396516239","owner":"183840266@N08","secret":"620978a4b8","server":"65535","farm":66,"title":"Blue-and-White Flycatcher (Cyanoptila cyanomelana cyanomelana)","ispublic":1,"isfriend":0,"isfamily":0},{"id":"52312088876","owner":"127247666@N05","secret":"ccb889e464","server":"65535","farm":66,"title":"Japanese wisteria and blue-and-white flycatcher","ispublic":1,"isfriend":0,"isfamily":0},{"id":"52262904789","owner":"127247666@N05","secret":"0d856bc3c3","server":"65535","farm":66,"title":"Rose and blue-and-white flycatcher","ispublic":1,"isfriend":0,"isfamily":0},{"id":"52262904744","owner":"127247666@N05","secret":"ffa06835ff","server":"65535","farm":66,"title":"Blue-and-white flycatcher","ispublic":1,"isfriend":0,"isfamily":0},{"id":"52186659411","owner":"183840266@N08","secret":"dda83ef1e0","server":"65535","farm":66,"title":"Blue-and-White Flycatcher (Cyanoptila cyanomelana cyanomelana)","ispublic":1,"isfriend":0,"isfamily":0},{"id":"52174250759","owner":"127247666@N05","secret":"b80bb9257f","server":"65535","farm":66,"title":"Purple magnolia and blue-and-white flycatcher","ispublic":1,"isfriend":0,"isfamily":0},{"id":"52155108916","owner":"127247666@N05","secret":"37b2d279eb","server":"65535","farm":66,"title":"Maidenhair tree and blue-and-white flycatcher","ispublic":1,"isfriend":0,"isfamily":0},{"id":"52140968915","owner":"127247666@N05","secret":"231dc55f80","server":"65535","farm":66,"title":"Blue-and-white flycatcher","ispublic":1,"isfriend":0,"isfamily":0},{"id":"52090016617","owner":"195541015@N07","secret":"4bd984af3e","server":"65535","farm":66,"title":"Male Blue-and-white Flycatcher (Cyanoptila cyanomelana)","ispublic":1,"isfriend":0,"isfamily":0},{"id":"51891142614","owner":"127247666@N05","secret":"5ef2644e65","server":"65535","farm":66,"title":"Blue-and-white flycatcher","ispublic":1,"isfriend":0,"isfamily":0},{"id":"51885291308","owner":"127247666@N05","secret":"c6817b8051","server":"65535","farm":66,"title":"Peach and blue-and-white flycatcher","ispublic":1,"isfriend":0,"isfamily":0},{"id":"51771535588","owner":"194512123@N02","secret":"a41939c3a7","server":"65535","farm":66,"title":"Blue-and-white Flycatcher (Cyanoptila cyanomelana)","ispublic":1,"isfriend":0,"isfamily":0},{"id":"51723477329","owner":"64074416@N06","secret":"53a34cb3f9","server":"65535","farm":66,"title":"Male Blue and white Flycatcher (Cyanoptila cyanomelana \u767d\u8179\u84dd\u9e5f)","ispublic":1,"isfriend":0,"isfamily":0},{"id":"51722041845","owner":"64074416@N06","secret":"250efc3686","server":"65535","farm":66,"title":"Male Blue and white Flycatcher (Cyanoptila cyanomelana \u767d\u8179\u84dd\u9e5f)","ispublic":1,"isfriend":0,"isfamily":0},{"id":"51721114931","owner":"64074416@N06","secret":"59f45cf12d","server":"65535","farm":66,"title":"Male Blue and white Flycatcher (Cyanoptila cyanomelana \u767d\u8179\u84dd\u9e5f)","ispublic":1,"isfriend":0,"isfamily":0},{"id":"51646481134","owner":"154417921@N04","secret":"4a3c8f0aea","server":"65535","farm":66,"title":"cyanoptila cyanomelana blauwwitte vliegenvanger","ispublic":1,"isfriend":0,"isfamily":0},{"id":"51629597367","owner":"127247666@N05","secret":"81cde415a4","server":"65535","farm":66,"title":"Blue-and-white flycatcher","ispublic":1,"isfriend":0,"isfamily":0},{"id":"51590812817","owner":"127247666@N05","secret":"de1058a796","server":"65535","farm":66,"title":"Blue-and-white flycatcher","ispublic":1,"isfriend":0,"isfamily":0},{"id":"51353079304","owner":"127247666@N05","secret":"bb9d8d4eb0","server":"65535","farm":66,"title":"Pomegranate and blue-and-white flycatcher","ispublic":1,"isfriend":0,"isfamily":0},{"id":"51353079244","owner":"127247666@N05","secret":"acf7198a5a","server":"65535","farm":66,"title":"Sunflower and blue-and-white flycatcher","ispublic":1,"isfriend":0,"isfamily":0},{"id":"51135682367","owner":"127542576@N05","secret":"14e7f44cfc","server":"65535","farm":66,"title":"\u767d\u8179\u7409\u7483\u3014\u767d\u8179\u85cd\u9db2\u3015 (Cyanoptila cyanomelana#Blue-and-white Flycatcher)","ispublic":1,"isfriend":0,"isfamily":0},{"id":"51136357901","owner":"127542576@N05","secret":"5d1d491ac7","server":"65535","farm":66,"title":"\u767d\u8179\u7409\u7483\u3014\u767d\u8179\u85cd\u9db2\u3015 (Cyanoptila cyanomelana#Blue-and-white Flycatcher)","ispublic":1,"isfriend":0,"isfamily":0},{"id":"51128842546","owner":"16863429@N00","secret":"f481baec14","server":"65535","farm":66,"title":"Blue-and-white Flycatcher (\u767d\u8179\u7409\u7483) Cyanoptila cyanomelana","ispublic":1,"isfriend":0,"isfamily":0},{"id":"51129955750","owner":"16863429@N00","secret":"bd9a406289","server":"65535","farm":66,"title":"Blue-and-white Flycatcher (\u767d\u8179\u7409\u7483) Cyanoptila cyanomelana","ispublic":1,"isfriend":0,"isfamily":0},{"id":"51118964686","owner":"151954992@N07","secret":"5bea0ec0fb","server":"65535","farm":66,"title":"Cyanoptila cyanomelana","ispublic":1,"isfriend":0,"isfamily":0},{"id":"50779491021","owner":"145183414@N05","secret":"d4aa3a6718","server":"65535","farm":66,"title":"Blue-and-white Flycatcher - Cyanoptila cyanomelana","ispublic":1,"isfriend":0,"isfamily":0},{"id":"50643856753","owner":"26812240@N08","secret":"1feb357d11","server":"65535","farm":66,"title":"Blue and White Flycatcher","ispublic":1,"isfriend":0,"isfamily":0},{"id":"50615562278","owner":"7200351@N08","secret":"b7e51e9905","server":"65535","farm":66,"title":"Cyanoptila cyanomelana intermedia - male","ispublic":1,"isfriend":0,"isfamily":0},{"id":"50616301991","owner":"7200351@N08","secret":"2e1c9acc33","server":"65535","farm":66,"title":"Cyanoptila cyanomelana intermedia - male","ispublic":1,"isfriend":0,"isfamily":0},{"id":"50616301916","owner":"7200351@N08","secret":"0249a92691","server":"65535","farm":66,"title":"Cyanoptila cyanomelana intermedia - male","ispublic":1,"isfriend":0,"isfamily":0},{"id":"50616413742","owner":"7200351@N08","secret":"3a5dc84114","server":"65535","farm":66,"title":"Cyanoptila cyanomelana intermedia - male","ispublic":1,"isfriend":0,"isfamily":0},{"id":"50616413707","owner":"7200351@N08","secret":"3f461f7d09","server":"65535","farm":66,"title":"Cyanoptila cyanomelana intermedia - male","ispublic":1,"isfriend":0,"isfamily":0},{"id":"50616413717","owner":"7200351@N08","secret":"f91033b7e3","server":"65535","farm":66,"title":"Cyanoptila cyanomelana intermedia - male","ispublic":1,"isfriend":0,"isfamily":0},{"id":"50616413637","owner":"7200351@N08","secret":"8b88b1f4dc","server":"65535","farm":66,"title":"Cyanoptila cyanomelana intermedia - male","ispublic":1,"isfriend":0,"isfamily":0},{"id":"50616413617","owner":"7200351@N08","secret":"ccf27741b2","server":"65535","farm":66,"title":"Cyanoptila cyanomelana intermedia - male","ispublic":1,"isfriend":0,"isfamily":0},{"id":"50616413602","owner":"7200351@N08","secret":"8b1a95147e","server":"65535","farm":66,"title":"Cyanoptila cyanomelana intermedia - male","ispublic":1,"isfriend":0,"isfamily":0},{"id":"50615561913","owner":"7200351@N08","secret":"e440bdd6ed","server":"65535","farm":66,"title":"Cyanoptila cyanomelana intermedia - male","ispublic":1,"isfriend":0,"isfamily":0},{"id":"50616413522","owner":"7200351@N08","secret":"07fabacf37","server":"65535","farm":66,"title":"Cyanoptila cyanomelana intermedia - male","ispublic":1,"isfriend":0,"isfamily":0},{"id":"50609298096","owner":"64074416@N06","secret":"11a7d6627a","server":"65535","farm":66,"title":"Male Blue and white Flycatcher (Cyanoptila cyanomelana \u767d\u8179\u84dd\u9e5f)","ispublic":1,"isfriend":0,"isfamily":0},{"id":"50607739253","owner":"64074416@N06","secret":"a79d2455a2","server":"65535","farm":66,"title":"Male Blue and white Flycatcher (Cyanoptila cyanomelana \u767d\u8179\u84dd\u9e5f)","ispublic":1,"isfriend":0,"isfamily":0},{"id":"50603517723","owner":"64074416@N06","secret":"984b6b7db4","server":"65535","farm":66,"title":"Male Blue and white Flycatcher (Cyanoptila cyanomelana \u767d\u8179\u84dd\u9e5f)","ispublic":1,"isfriend":0,"isfamily":0}]},"stat":"ok"}