{"photos":{"page":1,"pages":10,"perpage":100,"total":949,"photo":[{"id":"52694130353","owner":"196786375@N03","secret":"5fde80ec0a","server":"65535","farm":66,"title":"Lawrence's Warbler","ispublic":1,"isfriend":0,"isfamily":0},{"id":"52514079417","owner":"35259356@N06","secret":"af28909429","server":"65535","farm":66,"title":"Warbler: Blue-winged Warbler","ispublic":1,"isfriend":0,"isfamily":0},{"id":"52368173615","owner":"61241315@N00","secret":"f94218d06c","server":"65535","farm":66,"title":"Blue-winged Warbler_N7813","ispublic":1,"isfriend":0,"isfamily":0},{"id":"52367753276","owner":"61241315@N00","secret":"1e7a035c6c","server":"65535","farm":66,"title":"Blue-winged Warbler_N7815","ispublic":1,"isfriend":0,"isfamily":0},{"id":"52354911012","owner":"196212229@N04","secret":"3f3b7745b3","server":"65535","farm":66,"title":"Lawrence\u2019s Warbler","ispublic":1,"isfriend":0,"isfamily":0},{"id":"52339449161","owner":"49114357@N08","secret":"f25fbd12a7","server":"65535","farm":66,"title":"Blue-winged Warbler","ispublic":1,"isfriend":0,"isfamily":0},{"id":"52283589845","owner":"71418112@N00","secret":"408d41a2b7","server":"65535","farm":66,"title":"Blue-winged warbler","ispublic":1,"isfriend":0,"isfamily":0},{"id":"52203015385","owner":"184155060@N04","secret":"4403b07be0","server":"65535","farm":66,"title":"32677 Paruline \u00e0 ailes bleues \/ Vermivora cyanoptera \/ Blue-winged Warbler","ispublic":1,"isfriend":0,"isfamily":0},{"id":"52181686697","owner":"129803374@N05","secret":"8e11ffa0c7","server":"65535","farm":66,"title":"Blue-winged Warbler (Vermivora cyanoptera)","ispublic":1,"isfriend":0,"isfamily":0},{"id":"52165482835","owner":"92361032@N05","secret":"9abcf9b27d","server":"65535","farm":66,"title":"Blue-winged Warbler\/ Paruline \u00e0 ailes bleues ( Richard)","ispublic":1,"isfriend":0,"isfamily":0},{"id":"52048166185","owner":"49114357@N08","secret":"781d850551","server":"65535","farm":66,"title":"Blue-winged Warbler","ispublic":1,"isfriend":0,"isfamily":0},{"id":"52114147780","owner":"21154755@N03","secret":"5589a6c620","server":"65535","farm":66,"title":"_DSC1559-4KDCI","ispublic":1,"isfriend":0,"isfamily":0},{"id":"52113886529","owner":"21154755@N03","secret":"991d5d1084","server":"65535","farm":66,"title":"_DSC2033-4KDCI","ispublic":1,"isfriend":0,"isfamily":0},{"id":"52113640661","owner":"21154755@N03","secret":"fc0c59f040","server":"65535","farm":66,"title":"_DSC0120-4KDCI","ispublic":1,"isfriend":0,"isfamily":0},{"id":"52114147310","owner":"21154755@N03","secret":"d9cb6fe0ac","server":"65535","farm":66,"title":"_DSC1771-4KDCI","ispublic":1,"isfriend":0,"isfamily":0},{"id":"52114146770","owner":"21154755@N03","secret":"ff7a02e9a3","server":"65535","farm":66,"title":"_DSC1644-4KDCI","ispublic":1,"isfriend":0,"isfamily":0},{"id":"52113599261","owner":"21154755@N03","secret":"ee6cbda037","server":"65535","farm":66,"title":"_DSC7434-4K-4KDCI","ispublic":1,"isfriend":0,"isfamily":0},{"id":"52112571557","owner":"21154755@N03","secret":"4f74c9c41d","server":"65535","farm":66,"title":"_DSC7617-Edit-4KDCI","ispublic":1,"isfriend":0,"isfamily":0},{"id":"52103407939","owner":"7546739@N08","secret":"602611eba5","server":"65535","farm":66,"title":"Blue-winged Warbler","ispublic":1,"isfriend":0,"isfamily":0},{"id":"52103157801","owner":"7546739@N08","secret":"f910164b1a","server":"65535","farm":66,"title":"Blue-winged Warbler","ispublic":1,"isfriend":0,"isfamily":0},{"id":"52047994720","owner":"49114357@N08","secret":"1c62931084","server":"65535","farm":66,"title":"Blue-winged Warbler","ispublic":1,"isfriend":0,"isfamily":0},{"id":"52101039825","owner":"129803374@N05","secret":"ecc46c7c00","server":"65535","farm":66,"title":"Blue-winged Warbler (Vermivora cyanoptera)","ispublic":1,"isfriend":0,"isfamily":0},{"id":"52099499007","owner":"129803374@N05","secret":"d560acf0b1","server":"65535","farm":66,"title":"Blue-winged Warbler (Vermivora cyanoptera)","ispublic":1,"isfriend":0,"isfamily":0},{"id":"52097228633","owner":"33573751@N04","secret":"f6a7027ab1","server":"65535","farm":66,"title":"Blue-winged Warbler (Vermivora cyanoptera) - Fairfield, Connecticut","ispublic":1,"isfriend":0,"isfamily":0},{"id":"52097193871","owner":"33573751@N04","secret":"a55fc0d7a7","server":"65535","farm":66,"title":"Blue-winged Warbler (Vermivora cyanoptera) - Fairfield, Connecticut","ispublic":1,"isfriend":0,"isfamily":0},{"id":"52093272683","owner":"22475926@N08","secret":"4c429e3d56","server":"65535","farm":66,"title":"Blue-winged Warbler (Vermivora cyanoptera)","ispublic":1,"isfriend":0,"isfamily":0},{"id":"52091889439","owner":"135315828@N06","secret":"cc30263253","server":"65535","farm":66,"title":"blue-winged warbler","ispublic":1,"isfriend":0,"isfamily":0},{"id":"52091644196","owner":"135315828@N06","secret":"ab9553624b","server":"65535","farm":66,"title":"blue-winged warbler","ispublic":1,"isfriend":0,"isfamily":0},{"id":"52091644171","owner":"135315828@N06","secret":"54c1e5a20f","server":"65535","farm":66,"title":"blue-winged warbler","ispublic":1,"isfriend":0,"isfamily":0},{"id":"52091664743","owner":"135315828@N06","secret":"1dd86cbd98","server":"65535","farm":66,"title":"blue-winged warbler","ispublic":1,"isfriend":0,"isfamily":0},{"id":"52089693078","owner":"22475926@N08","secret":"2d72a1beb6","server":"65535","farm":66,"title":"Blue-winged Warbler (Vermivora cyanoptera)","ispublic":1,"isfriend":0,"isfamily":0},{"id":"52088552672","owner":"22475926@N08","secret":"56da335506","server":"65535","farm":66,"title":"Blue-winged Warbler (Vermivora cyanoptera)","ispublic":1,"isfriend":0,"isfamily":0},{"id":"52086830767","owner":"32752434@N07","secret":"1e26604957","server":"65535","farm":66,"title":"Blue-winged Warbler (Vermivora cyanoptera)","ispublic":1,"isfriend":0,"isfamily":0},{"id":"52081505379","owner":"17654080@N08","secret":"2b9d569263","server":"65535","farm":66,"title":"Blue-winged Warbler with Parasol","ispublic":1,"isfriend":0,"isfamily":0},{"id":"52081505299","owner":"17654080@N08","secret":"1483406758","server":"65535","farm":66,"title":"BlueWingedWarbler (Vermivora cyanoptera)","ispublic":1,"isfriend":0,"isfamily":0},{"id":"52080762811","owner":"129803374@N05","secret":"572c7ce749","server":"65535","farm":66,"title":"\"Lawrence's\" Warbler (hybrid Vermivora chrysoptera and V. cyanoptera)","ispublic":1,"isfriend":0,"isfamily":0},{"id":"52075430123","owner":"70839498@N04","secret":"8d0cc827bf","server":"65535","farm":66,"title":"Vermivora chrysoptera x cyanoptera Lawrence's Warbler (hybrid) NY MAY 220514 5W1A5601","ispublic":1,"isfriend":0,"isfamily":0},{"id":"52074383077","owner":"70839498@N04","secret":"1893ee0d1d","server":"65535","farm":66,"title":"Vermivora chrysoptera x cyanoptera Lawrence's Warbler (hybrid) NY MAY 220514 5W1A5595","ispublic":1,"isfriend":0,"isfamily":0},{"id":"52075911640","owner":"70839498@N04","secret":"c1a333d907","server":"65535","farm":66,"title":"Vermivora chrysoptera x cyanoptera Lawrence's Warbler (hybrid) NY MAY 220514 5W1A5609","ispublic":1,"isfriend":0,"isfamily":0},{"id":"52075656379","owner":"70839498@N04","secret":"3644966b1c","server":"65535","farm":66,"title":"Vermivora chrysoptera x cyanoptera Lawrence's Warbler (hybrid) NY MAY 220514 5W1A5606","ispublic":1,"isfriend":0,"isfamily":0},{"id":"52069309192","owner":"145466593@N08","secret":"5aa98d1283","server":"65535","farm":66,"title":"Blue-winged Warbler","ispublic":1,"isfriend":0,"isfamily":0},{"id":"52065096207","owner":"132165466@N08","secret":"fb47568a89","server":"65535","farm":66,"title":"Blue-winged Warbler","ispublic":1,"isfriend":0,"isfamily":0},{"id":"52059827511","owner":"128537732@N06","secret":"86af13e8d2","server":"65535","farm":66,"title":"Blue-winged Warbler (Vermivora cyanoptera)","ispublic":1,"isfriend":0,"isfamily":0},{"id":"52059255340","owner":"73654511@N05","secret":"f1554d97ca","server":"65535","farm":66,"title":"L0A9002-Blue-winged Warbler","ispublic":1,"isfriend":0,"isfamily":0},{"id":"52055546080","owner":"21584095@N00","secret":"8e38323d19","server":"65535","farm":66,"title":"Blue-winged Warbler (Vermivora cyanoptera)","ispublic":1,"isfriend":0,"isfamily":0},{"id":"52039670490","owner":"40003624@N06","secret":"5c11e4726c","server":"65535","farm":66,"title":"Blue-winged Warbler","ispublic":1,"isfriend":0,"isfamily":0},{"id":"52025146373","owner":"61241315@N00","secret":"b8afa84c90","server":"0","farm":0,"title":"Blue-winged Warbler_2690.MP4","ispublic":1,"isfriend":0,"isfamily":0},{"id":"52025626200","owner":"61241315@N00","secret":"a807db3190","server":"65535","farm":66,"title":"Blue-winged Warbler_N2685","ispublic":1,"isfriend":0,"isfamily":0},{"id":"51892133888","owner":"8301398@N02","secret":"e04fac6a20","server":"65535","farm":66,"title":"Blue Winged Warbler","ispublic":1,"isfriend":0,"isfamily":0},{"id":"51833426024","owner":"28631427@N00","secret":"12c41ff102","server":"65535","farm":66,"title":"Blue-winged Warbler 2","ispublic":1,"isfriend":0,"isfamily":0},{"id":"51723358842","owner":"119787485@N07","secret":"827e5cbac7","server":"65535","farm":66,"title":"Blue-winged Warbler (Vermivora cyanoptera) - 20110522-10","ispublic":1,"isfriend":0,"isfamily":0},{"id":"51403423464","owner":"71418112@N00","secret":"c18eac2d65","server":"65535","farm":66,"title":"Blue-winged warbler","ispublic":1,"isfriend":0,"isfamily":0},{"id":"51360985434","owner":"16863429@N00","secret":"382c67e7f1","server":"65535","farm":66,"title":"Blue-winged Warbler (Vermivora cyanoptera)","ispublic":1,"isfriend":0,"isfamily":0},{"id":"51314531425","owner":"165841515@N03","secret":"9d420b8ea4","server":"65535","farm":66,"title":"Paruline \u00e0 ailes bleues \/ Blue-winged Warbler \/ (Vermivora cyanoptera)","ispublic":1,"isfriend":0,"isfamily":0},{"id":"51291967151","owner":"50264295@N06","secret":"96517e7dd8","server":"65535","farm":66,"title":"Blue-winged Warbler (Vermivora cyanoptera)- male","ispublic":1,"isfriend":0,"isfamily":0},{"id":"51282454500","owner":"61021753@N02","secret":"be4cf8fa3d","server":"65535","farm":66,"title":"n118_w1150","ispublic":1,"isfriend":0,"isfamily":0},{"id":"51275982182","owner":"119787485@N07","secret":"90a5262800","server":"65535","farm":66,"title":"Blue-winged Warbler (Vermivora cyanoptera) - 20210602-12","ispublic":1,"isfriend":0,"isfamily":0},{"id":"51248422865","owner":"33573751@N04","secret":"e2555def4e","server":"65535","farm":66,"title":"Blue-winged Warbler (Vermivora cyanoptera) - Bent of the River Audubon, South Britain, Connecticut , USA","ispublic":1,"isfriend":0,"isfamily":0},{"id":"51245695294","owner":"39445433@N02","secret":"a8f016e3de","server":"65535","farm":66,"title":"Blue-Winged Warbler","ispublic":1,"isfriend":0,"isfamily":0},{"id":"52643483589","owner":"8013969@N03","secret":"61012bf5de","server":"65535","farm":66,"title":"Vermivora cyanoptera DFL btr22-1","ispublic":1,"isfriend":0,"isfamily":0},{"id":"52580593834","owner":"153973412@N04","secret":"bffce21f69","server":"65535","farm":66,"title":"Blue-winged Warbler-Vermivora cyanoptera, Iowa City, IA","ispublic":1,"isfriend":0,"isfamily":0},{"id":"52141813144","owner":"82406724@N00","secret":"b11434dd33","server":"65535","farm":66,"title":"DSC_4646","ispublic":1,"isfriend":0,"isfamily":0},{"id":"52132335353","owner":"97599611@N04","secret":"fb4d7e4323","server":"65535","farm":66,"title":"0P7A1938   Brewster's Warbler, Hybrid between Gloden-winged and Blue-winged Warbler, Canada","ispublic":1,"isfriend":0,"isfamily":0},{"id":"52122081264","owner":"90886369@N06","secret":"3e62d49a1f","server":"65535","farm":66,"title":"Blue-winged Warbler (Vermivora cyanoptera)","ispublic":1,"isfriend":0,"isfamily":0},{"id":"52114105385","owner":"21154755@N03","secret":"a87493f5b7","server":"65535","farm":66,"title":"_DSC3845-Edit-2-4KDCI","ispublic":1,"isfriend":0,"isfamily":0},{"id":"52112572447","owner":"21154755@N03","secret":"220450d4cf","server":"65535","farm":66,"title":"_DSC7570-4KDCI","ispublic":1,"isfriend":0,"isfamily":0},{"id":"52113634383","owner":"21154755@N03","secret":"10d143d86c","server":"65535","farm":66,"title":"_DSC7836-4KDCI","ispublic":1,"isfriend":0,"isfamily":0},{"id":"52113598696","owner":"21154755@N03","secret":"97f15395b1","server":"65535","farm":66,"title":"_DSC7840-4KDCI","ispublic":1,"isfriend":0,"isfamily":0},{"id":"52113844314","owner":"21154755@N03","secret":"94e180c90f","server":"65535","farm":66,"title":"_DSC7861-4KDCI","ispublic":1,"isfriend":0,"isfamily":0},{"id":"52099156157","owner":"120449047@N06","secret":"f0151330ed","server":"65535","farm":66,"title":"Blue-winged Warbler (22\/35)","ispublic":1,"isfriend":0,"isfamily":0},{"id":"52095353042","owner":"129803374@N05","secret":"a6806b1d34","server":"65535","farm":66,"title":"Blue-winged Warbler (Vermivora cyanoptera)","ispublic":1,"isfriend":0,"isfamily":0},{"id":"52091644096","owner":"135315828@N06","secret":"886c423dfc","server":"65535","farm":66,"title":"blue-winged warbler","ispublic":1,"isfriend":0,"isfamily":0},{"id":"52081759815","owner":"17654080@N08","secret":"986c84709d","server":"65535","farm":66,"title":"BlueWingedWarbler, male singing (Vermivora cyanoptera)","ispublic":1,"isfriend":0,"isfamily":0},{"id":"52078697684","owner":"146080804@N02","secret":"58a53fc1d6","server":"65535","farm":66,"title":"Blue-winged Warbler (Vermivora cyanoptera)","ispublic":1,"isfriend":0,"isfamily":0},{"id":"52071510498","owner":"29682228@N04","secret":"f08919ee0c","server":"65535","farm":66,"title":"Vermivora cyanoptera_Blue-winged Warbler_RBarber_0417202_IMG_9334_3","ispublic":1,"isfriend":0,"isfamily":0},{"id":"52071184130","owner":"129803374@N05","secret":"9da0727a37","server":"65535","farm":66,"title":"Blue-winged Warbler (Vermivora cyanoptera)","ispublic":1,"isfriend":0,"isfamily":0},{"id":"52066371694","owner":"132165466@N08","secret":"73a3aca779","server":"65535","farm":66,"title":"Blue-winged Warbler","ispublic":1,"isfriend":0,"isfamily":0},{"id":"52046362521","owner":"91827451@N06","secret":"c835ed5ee4","server":"65535","farm":66,"title":"DSC_0267(2)","ispublic":1,"isfriend":0,"isfamily":0},{"id":"52046362346","owner":"91827451@N06","secret":"34cd148f6f","server":"65535","farm":66,"title":"DSC_0269","ispublic":1,"isfriend":0,"isfamily":0},{"id":"52046362151","owner":"91827451@N06","secret":"ed96662c94","server":"65535","farm":66,"title":"DSC_0279","ispublic":1,"isfriend":0,"isfamily":0},{"id":"52024072432","owner":"61241315@N00","secret":"6121e51b57","server":"65535","farm":66,"title":"Blue-winged Warbler_N2686","ispublic":1,"isfriend":0,"isfamily":0},{"id":"52025626140","owner":"61241315@N00","secret":"e2eb3eb6db","server":"65535","farm":66,"title":"Blue-winged Warbler_N2700","ispublic":1,"isfriend":0,"isfamily":0},{"id":"52024072407","owner":"61241315@N00","secret":"18c33d2f91","server":"65535","farm":66,"title":"Blue-winged Warbler_N2691","ispublic":1,"isfriend":0,"isfamily":0},{"id":"52025110736","owner":"61241315@N00","secret":"77b5db8373","server":"65535","farm":66,"title":"Blue-winged Warbler_N2702","ispublic":1,"isfriend":0,"isfamily":0},{"id":"52024072377","owner":"61241315@N00","secret":"3c4d2f0b3e","server":"65535","farm":66,"title":"Blue-winged Warbler_N2703","ispublic":1,"isfriend":0,"isfamily":0},{"id":"52025110286","owner":"61241315@N00","secret":"36600034b3","server":"65535","farm":66,"title":"Blue-winged Warbler_N2704","ispublic":1,"isfriend":0,"isfamily":0},{"id":"51914539598","owner":"26371261@N00","secret":"b64a294ca1","server":"65535","farm":66,"title":"Blue-winged Warbler, Vermivora cyanoptera","ispublic":1,"isfriend":0,"isfamily":0},{"id":"51894929405","owner":"28631427@N00","secret":"f24f2ff30f","server":"65535","farm":66,"title":"Blue-winged Warbler","ispublic":1,"isfriend":0,"isfamily":0},{"id":"51837867516","owner":"67306066@N03","secret":"564af1cc61","server":"65535","farm":66,"title":"Blue-winged Warbler (Vermivora cyanoptera)","ispublic":1,"isfriend":0,"isfamily":0},{"id":"51833807410","owner":"28631427@N00","secret":"0cfd1c954a","server":"65535","farm":66,"title":"Blue-winged Warbler 1","ispublic":1,"isfriend":0,"isfamily":0},{"id":"51441708859","owner":"13451078@N03","secret":"e02d5cc855","server":"65535","farm":66,"title":"Blue-winged Warbler (Vermivora cyanoptera)","ispublic":1,"isfriend":0,"isfamily":0},{"id":"51436295357","owner":"13451078@N03","secret":"760a475676","server":"65535","farm":66,"title":"Blue-winged Warbler (Vermivora cyanoptera)","ispublic":1,"isfriend":0,"isfamily":0},{"id":"51437018161","owner":"13451078@N03","secret":"f0796f4f87","server":"65535","farm":66,"title":"Blue-winged Warbler (Vermivora cyanoptera)","ispublic":1,"isfriend":0,"isfamily":0},{"id":"51317680569","owner":"151361315@N06","secret":"57c97e1fee","server":"65535","farm":66,"title":"Blue-winged Warbler breeding male in leafy tree \u2022 Lindsay-Parsons Preserve, Spencer NY \u2022 2018","ispublic":1,"isfriend":0,"isfamily":0},{"id":"51313525871","owner":"165841515@N03","secret":"d9778bd789","server":"65535","farm":66,"title":"Paruline \u00e0 ailes bleues \/ Blue-winged Warbler \/ (Vermivora cyanoptera)","ispublic":1,"isfriend":0,"isfamily":0},{"id":"51292780454","owner":"50264295@N06","secret":"66769fc473","server":"65535","farm":66,"title":"Blue-winged Warbler (Vermivora cyanoptera)- male","ispublic":1,"isfriend":0,"isfamily":0},{"id":"51291277507","owner":"50264295@N06","secret":"fb1f77dee0","server":"65535","farm":66,"title":"Blue-winged Warbler (Vermivora cyanoptera)- male","ispublic":1,"isfriend":0,"isfamily":0},{"id":"51291614708","owner":"50264295@N06","secret":"0273d58e85","server":"65535","farm":66,"title":"Blue-winged Warbler (Vermivora cyanoptera)- male","ispublic":1,"isfriend":0,"isfamily":0},{"id":"51290679917","owner":"50264295@N06","secret":"9df11d37c7","server":"65535","farm":66,"title":"Blue-winged Warbler (Vermivora cyanoptera)- male","ispublic":1,"isfriend":0,"isfamily":0},{"id":"51276444997","owner":"61021753@N02","secret":"6112752937","server":"65535","farm":66,"title":"n200_w1150","ispublic":1,"isfriend":0,"isfamily":0}]},"stat":"ok"}