{"photos":{"page":1,"pages":16,"perpage":100,"total":1561,"photo":[{"id":"52723878805","owner":"196786375@N03","secret":"fa43469dce","server":"65535","farm":66,"title":"Blue-headed Vireo","ispublic":1,"isfriend":0,"isfamily":0},{"id":"52722945077","owner":"196786375@N03","secret":"62a1cdf5c6","server":"65535","farm":66,"title":"Blue-headed Vireo","ispublic":1,"isfriend":0,"isfamily":0},{"id":"52707840514","owner":"65788177@N02","secret":"2ea46da44b","server":"65535","farm":66,"title":"Blue-headed Vireo","ispublic":1,"isfriend":0,"isfamily":0},{"id":"52667984650","owner":"33610210@N05","secret":"8ac367337c","server":"65535","farm":66,"title":"Blue-headed Vireo, Vireo solitarius","ispublic":1,"isfriend":0,"isfamily":0},{"id":"52667837754","owner":"33610210@N05","secret":"8298b63885","server":"65535","farm":66,"title":"Blue-headed Vireo, Vireo solitarius","ispublic":1,"isfriend":0,"isfamily":0},{"id":"52661380486","owner":"39177293@N03","secret":"c8d6acc71e","server":"65535","farm":66,"title":"Blue-headed Vireo","ispublic":1,"isfriend":0,"isfamily":0},{"id":"52643482939","owner":"8013969@N03","secret":"1a573eb9ef","server":"65535","farm":66,"title":"Vireo solitarius DFL btr22-1","ispublic":1,"isfriend":0,"isfamily":0},{"id":"52627001396","owner":"168495655@N07","secret":"bbfd301ab7","server":"65535","farm":66,"title":"Vir\u00e9o \u00e0 t\u00eate bleue - Vireo solitarius - Blue-headed Vireo","ispublic":1,"isfriend":0,"isfamily":0},{"id":"52613692405","owner":"169771858@N03","secret":"82b8311f81","server":"65535","farm":66,"title":"Solitary Vireo - 2020-10-17","ispublic":1,"isfriend":0,"isfamily":0},{"id":"52596628226","owner":"8065544@N08","secret":"f4ef96308e","server":"65535","farm":66,"title":"Blue-headed Vireo (Vireo solitarius)","ispublic":1,"isfriend":0,"isfamily":0},{"id":"52596138892","owner":"8065544@N08","secret":"d4567872a7","server":"65535","farm":66,"title":"Blue-headed Vireo (Vireo solitarius)","ispublic":1,"isfriend":0,"isfamily":0},{"id":"52597058360","owner":"8065544@N08","secret":"f188c71f26","server":"65535","farm":66,"title":"Blue-headed Vireo (Vireo solitarius)","ispublic":1,"isfriend":0,"isfamily":0},{"id":"52596890809","owner":"8065544@N08","secret":"26bf868056","server":"65535","farm":66,"title":"Blue-headed Vireo (Vireo solitarius)","ispublic":1,"isfriend":0,"isfamily":0},{"id":"52587288283","owner":"39138537@N06","secret":"9cfde1a8fb","server":"65535","farm":66,"title":"Blue-headed Vireo (Vireo solitarius)","ispublic":1,"isfriend":0,"isfamily":0},{"id":"52586294242","owner":"39138537@N06","secret":"b5a7fb9a79","server":"65535","farm":66,"title":"Blue-headed Vireo (Vireo solitarius)","ispublic":1,"isfriend":0,"isfamily":0},{"id":"52579863232","owner":"153973412@N04","secret":"322eb236ae","server":"65535","farm":66,"title":"Blue-headed Vireo-Vireo solitarius, Iowa City, IA","ispublic":1,"isfriend":0,"isfamily":0},{"id":"52564461513","owner":"140318147@N08","secret":"cc7aea6beb","server":"65535","farm":66,"title":"blue-headed vireo (Vireo solitarius) L4A6917","ispublic":1,"isfriend":0,"isfamily":0},{"id":"52561092844","owner":"70295563@N00","secret":"fdc103d293","server":"65535","farm":66,"title":"Fancy face","ispublic":1,"isfriend":0,"isfamily":0},{"id":"52540223647","owner":"49114357@N08","secret":"456b1fd735","server":"65535","farm":66,"title":"Blue-headed Vireo","ispublic":1,"isfriend":0,"isfamily":0},{"id":"52539390630","owner":"67306066@N03","secret":"4b31fe3f8a","server":"65535","farm":66,"title":"Blue-headed Vireo (Vireo solitarius)","ispublic":1,"isfriend":0,"isfamily":0},{"id":"52539390625","owner":"67306066@N03","secret":"a79e16706f","server":"65535","farm":66,"title":"Blue-headed Vireo (Vireo solitarius)","ispublic":1,"isfriend":0,"isfamily":0},{"id":"52511198829","owner":"48311154@N02","secret":"d40a5446c9","server":"65535","farm":66,"title":"Where's Waldo?","ispublic":1,"isfriend":0,"isfamily":0},{"id":"52469846017","owner":"79254232@N08","secret":"36cf9669b8","server":"65535","farm":66,"title":"Blue-headed Vireo","ispublic":1,"isfriend":0,"isfamily":0},{"id":"52467445324","owner":"37566919@N02","secret":"6ecf7db5f5","server":"65535","farm":66,"title":"Blue-headed Vireo","ispublic":1,"isfriend":0,"isfamily":0},{"id":"52442745709","owner":"48311154@N02","secret":"19df242c04","server":"65535","farm":66,"title":"Blue-headed Vireo in the Manitoba Maple tree","ispublic":1,"isfriend":0,"isfamily":0},{"id":"52434031242","owner":"39177293@N03","secret":"99bfa1d541","server":"65535","farm":66,"title":"Blue-headed Vireo","ispublic":1,"isfriend":0,"isfamily":0},{"id":"52427735478","owner":"139237357@N06","secret":"cae0abd0e4","server":"65535","farm":66,"title":"Blue-headed Vireo","ispublic":1,"isfriend":0,"isfamily":0},{"id":"52425600060","owner":"76288515@N07","secret":"904e0a446d","server":"65535","farm":66,"title":"Blue-headed Vireo Vireo solitarius","ispublic":1,"isfriend":0,"isfamily":0},{"id":"52425664308","owner":"76288515@N07","secret":"90b5a71f52","server":"65535","farm":66,"title":"Blue-headed Vireo Vireo solitarius","ispublic":1,"isfriend":0,"isfamily":0},{"id":"52425142331","owner":"76288515@N07","secret":"7fd574a2ee","server":"65535","farm":66,"title":"Blue-headed Vireo Vireo solitarius","ispublic":1,"isfriend":0,"isfamily":0},{"id":"52425664238","owner":"76288515@N07","secret":"bf277f3634","server":"65535","farm":66,"title":"Blue-headed Vireo Vireo solitarius","ispublic":1,"isfriend":0,"isfamily":0},{"id":"52424639057","owner":"76288515@N07","secret":"9cbc72b280","server":"65535","farm":66,"title":"Blue-headed Vireo Vireo solitarius","ispublic":1,"isfriend":0,"isfamily":0},{"id":"52425142241","owner":"76288515@N07","secret":"8f7a5b59f0","server":"65535","farm":66,"title":"Blue-headed Vireo Vireo solitarius","ispublic":1,"isfriend":0,"isfamily":0},{"id":"52424638992","owner":"76288515@N07","secret":"b67cb9fab4","server":"65535","farm":66,"title":"Blue-headed Vireo Vireo solitarius","ispublic":1,"isfriend":0,"isfamily":0},{"id":"52425664098","owner":"76288515@N07","secret":"f77821d925","server":"65535","farm":66,"title":"Blue-headed Vireo Vireo solitarius","ispublic":1,"isfriend":0,"isfamily":0},{"id":"52424638927","owner":"76288515@N07","secret":"f3219493e7","server":"65535","farm":66,"title":"Blue-headed Vireo Vireo solitarius","ispublic":1,"isfriend":0,"isfamily":0},{"id":"52424638907","owner":"76288515@N07","secret":"1fb238fcea","server":"65535","farm":66,"title":"Blue-headed Vireo Vireo solitarius","ispublic":1,"isfriend":0,"isfamily":0},{"id":"52409851659","owner":"49114357@N08","secret":"3ed7a72e0e","server":"65535","farm":66,"title":"Blue-headed Vireo","ispublic":1,"isfriend":0,"isfamily":0},{"id":"52418616454","owner":"39177293@N03","secret":"1ef1ce4f37","server":"65535","farm":66,"title":"Blue-headed Vireo","ispublic":1,"isfriend":0,"isfamily":0},{"id":"52415776189","owner":"48014585@N00","secret":"e9d81ca8e7","server":"65535","farm":66,"title":"Blue-headed Vireo","ispublic":1,"isfriend":0,"isfamily":0},{"id":"52415492271","owner":"48014585@N00","secret":"15cc471d6f","server":"65535","farm":66,"title":"Blue-headed Vireo","ispublic":1,"isfriend":0,"isfamily":0},{"id":"52413910386","owner":"189113466@N07","secret":"cc0613d6fc","server":"65535","farm":66,"title":"Vir\u00e9o \u00e0 t\u00eate bleue - Blue-headed Vireo - Vireo solitarius","ispublic":1,"isfriend":0,"isfamily":0},{"id":"52413611801","owner":"135315828@N06","secret":"10cdcb089e","server":"65535","farm":66,"title":"blue-headed vireo","ispublic":1,"isfriend":0,"isfamily":0},{"id":"52413891299","owner":"135315828@N06","secret":"477a41bfa1","server":"65535","farm":66,"title":"blue-headed vireo","ispublic":1,"isfriend":0,"isfamily":0},{"id":"52402981926","owner":"61241315@N00","secret":"af640d9187","server":"65535","farm":66,"title":"Blue-headed Vireo_N1517","ispublic":1,"isfriend":0,"isfamily":0},{"id":"52402981876","owner":"61241315@N00","secret":"3bc7b44bda","server":"65535","farm":66,"title":"Blue-headed Vireo_N1520","ispublic":1,"isfriend":0,"isfamily":0},{"id":"52402981906","owner":"61241315@N00","secret":"f7d87e1d9c","server":"65535","farm":66,"title":"Blue-headed Vireo_N1518","ispublic":1,"isfriend":0,"isfamily":0},{"id":"52393144117","owner":"128537732@N06","secret":"d80bb7c322","server":"65535","farm":66,"title":"Blue-headed Vireo (Vireo solitarius)","ispublic":1,"isfriend":0,"isfamily":0},{"id":"52375510457","owner":"45340210@N05","secret":"5b7081dbd3","server":"65535","farm":66,"title":"Blue-headed Vireo  9_21_22","ispublic":1,"isfriend":0,"isfamily":0},{"id":"52344932926","owner":"124995824@N08","secret":"98e538f8ef","server":"65535","farm":66,"title":"Blue-headed Vireo - Vireo solitarius","ispublic":1,"isfriend":0,"isfamily":0},{"id":"52335855811","owner":"92361032@N05","secret":"b2f237df63","server":"65535","farm":66,"title":"Blue-headed Vireo \/ Vir\u00e9o \u00e0 t\u00eate bleue ( Diane )","ispublic":1,"isfriend":0,"isfamily":0},{"id":"52297672123","owner":"61301322@N08","secret":"2915245931","server":"65535","farm":66,"title":"Blue-headed Vireo (Salford Twp.)","ispublic":1,"isfriend":0,"isfamily":0},{"id":"52256623653","owner":"151361315@N06","secret":"9bff2c3265","server":"65535","farm":66,"title":"Blue-headed Vireo \u2022 Onondaga Lake West Shore Trail, Syracuse NY \u2022 2021","ispublic":1,"isfriend":0,"isfamily":0},{"id":"52213667804","owner":"70295563@N00","secret":"f5641258da","server":"65535","farm":66,"title":"At the Y","ispublic":1,"isfriend":0,"isfamily":0},{"id":"52196905422","owner":"184155060@N04","secret":"356acf31a1","server":"65535","farm":66,"title":"18381 Vir\u00e9o \u00e0 t\u00eate bleue \/ Vireo solitarius solitarius \/ Blue-headed Vireo","ispublic":1,"isfriend":0,"isfamily":0},{"id":"52194399482","owner":"168495655@N07","secret":"bd2b7e692b","server":"65535","farm":66,"title":"Vir\u00e9o \u00e0 t\u00eate bleue - Vireo solitarius - Blue-headed Vireo","ispublic":1,"isfriend":0,"isfamily":0},{"id":"52195893545","owner":"168495655@N07","secret":"bd720117e7","server":"65535","farm":66,"title":"Vir\u00e9o \u00e0 t\u00eate bleue - Vireo solitarius - Blue-headed Vireo","ispublic":1,"isfriend":0,"isfamily":0},{"id":"52193772208","owner":"67164820@N06","secret":"6155c63efc","server":"65535","farm":66,"title":"blue headed vireo","ispublic":1,"isfriend":0,"isfamily":0},{"id":"52194016714","owner":"67164820@N06","secret":"cae9a92064","server":"65535","farm":66,"title":"blue headed vireo 2","ispublic":1,"isfriend":0,"isfamily":0},{"id":"52192747742","owner":"67164820@N06","secret":"8606dff72c","server":"65535","farm":66,"title":"blue headed vireo 3","ispublic":1,"isfriend":0,"isfamily":0},{"id":"52178937193","owner":"120449047@N06","secret":"cd83ae1e2e","server":"65535","farm":66,"title":"Blue-headed Vireo (32\/35)","ispublic":1,"isfriend":0,"isfamily":0},{"id":"52153931481","owner":"28499865@N07","secret":"6db178740b","server":"65535","farm":66,"title":"Blue-headed Vireo - Vireo solitarius","ispublic":1,"isfriend":0,"isfamily":0},{"id":"52122421825","owner":"7261670@N03","secret":"f668c3f517","server":"65535","farm":66,"title":"Blue-headed Vireo","ispublic":1,"isfriend":0,"isfamily":0},{"id":"52121662630","owner":"165841515@N03","secret":"f832474aa8","server":"65535","farm":66,"title":"Vir\u00e9o \u00e0 t\u00eate bleue \/ Blue-headed Vireo \/ (Vireo solitarius)","ispublic":1,"isfriend":0,"isfamily":0},{"id":"52111611280","owner":"45445559@N04","secret":"bc6ae7c27f","server":"65535","farm":66,"title":"Blue-headed Vireo (Vireo solitarius)","ispublic":1,"isfriend":0,"isfamily":0},{"id":"52096516607","owner":"136180232@N08","secret":"8b653f5208","server":"65535","farm":66,"title":"Blue-headed Vireo (Vireo solitarius) JTD_8918","ispublic":1,"isfriend":0,"isfamily":0},{"id":"52097539416","owner":"136180232@N08","secret":"1bb02ba133","server":"65535","farm":66,"title":"Blue-headed Vireo (Vireo solitarius) JTD_9308","ispublic":1,"isfriend":0,"isfamily":0},{"id":"52091558236","owner":"69947563@N07","secret":"43268e00c4","server":"65535","farm":66,"title":"Blue-headed Vireo - Point Pelee National Park, Ontario, Canada","ispublic":1,"isfriend":0,"isfamily":0},{"id":"52084952100","owner":"40723658@N05","secret":"3aab6ee1bc","server":"65535","farm":66,"title":"Blue-headed Vireo","ispublic":1,"isfriend":0,"isfamily":0},{"id":"52076158144","owner":"90769866@N00","secret":"ecb6ff541d","server":"65535","farm":66,"title":"7680","ispublic":1,"isfriend":0,"isfamily":0},{"id":"52067168997","owner":"73654511@N05","secret":"678183be30","server":"65535","farm":66,"title":"L0A5666-Blue-headed Vireo","ispublic":1,"isfriend":0,"isfamily":0},{"id":"52058019142","owner":"45340210@N05","secret":"ab470224bb","server":"65535","farm":66,"title":"Blue-headed Vireo 9 5_3_22","ispublic":1,"isfriend":0,"isfamily":0},{"id":"52056919758","owner":"135315828@N06","secret":"336c0c10b9","server":"65535","farm":66,"title":"blue-headed vireo","ispublic":1,"isfriend":0,"isfamily":0},{"id":"52057375150","owner":"135315828@N06","secret":"272cb1fe1b","server":"65535","farm":66,"title":"blue-headed vireo","ispublic":1,"isfriend":0,"isfamily":0},{"id":"52054469675","owner":"39138537@N06","secret":"7d054f37ec","server":"0","farm":0,"title":"Singing Blue-headed Vireo (Vireo solitarius)","ispublic":1,"isfriend":0,"isfamily":0},{"id":"52053057604","owner":"37566919@N02","secret":"3c01ff8f54","server":"65535","farm":66,"title":"Blue-headed Vireo","ispublic":1,"isfriend":0,"isfamily":0},{"id":"52052456933","owner":"90886369@N06","secret":"a1eae75478","server":"65535","farm":66,"title":"Blue-headed Vireo (Vireo solitarius)","ispublic":1,"isfriend":0,"isfamily":0},{"id":"52049056443","owner":"128537732@N06","secret":"4384e81417","server":"65535","farm":66,"title":"Blue-headed Vireo (Vireo solitarius)","ispublic":1,"isfriend":0,"isfamily":0},{"id":"52047542158","owner":"119787485@N07","secret":"0d594bb6b8","server":"65535","farm":66,"title":"Blue-headed Vireo (Vireo solitarius solitarius) - 20220501-01","ispublic":1,"isfriend":0,"isfamily":0},{"id":"52043134075","owner":"129803374@N05","secret":"d97d660eaf","server":"65535","farm":66,"title":"Blue-headed Vireo (Vireo solitarius)","ispublic":1,"isfriend":0,"isfamily":0},{"id":"52039583620","owner":"40003624@N06","secret":"64993f815e","server":"65535","farm":66,"title":"Blue-headed Vireo","ispublic":1,"isfriend":0,"isfamily":0},{"id":"52037425195","owner":"61241315@N00","secret":"14f10f404d","server":"0","farm":0,"title":"Blue-headed Vireo_3951,57.MP4","ispublic":1,"isfriend":0,"isfamily":0},{"id":"52035865577","owner":"61241315@N00","secret":"d0028bcfd5","server":"65535","farm":66,"title":"Blue-headed Vireo_N3890","ispublic":1,"isfriend":0,"isfamily":0},{"id":"52036902966","owner":"61241315@N00","secret":"e4e31fce31","server":"65535","farm":66,"title":"Blue-headed Vireo_N3907","ispublic":1,"isfriend":0,"isfamily":0},{"id":"52037425225","owner":"61241315@N00","secret":"4dd0d661bb","server":"65535","farm":66,"title":"Blue-headed Vireo_N3929","ispublic":1,"isfriend":0,"isfamily":0},{"id":"52036902926","owner":"61241315@N00","secret":"a240d90162","server":"65535","farm":66,"title":"Blue-headed Vireo_N3977","ispublic":1,"isfriend":0,"isfamily":0},{"id":"52036902701","owner":"61241315@N00","secret":"3a9968949d","server":"65535","farm":66,"title":"Blue-headed Vireo_N4015","ispublic":1,"isfriend":0,"isfamily":0},{"id":"52035629902","owner":"59619528@N04","secret":"aa3658d805","server":"65535","farm":66,"title":"Blue-headed Vireo (Vireo solitarius)","ispublic":1,"isfriend":0,"isfamily":0},{"id":"52036343281","owner":"73654511@N05","secret":"8f3b44e307","server":"65535","farm":66,"title":"L0A4002-Blue-headed Vireo","ispublic":1,"isfriend":0,"isfamily":0},{"id":"52035638603","owner":"145466593@N08","secret":"c7bcb8143c","server":"65535","farm":66,"title":"Blue-headed Vireo","ispublic":1,"isfriend":0,"isfamily":0},{"id":"52027998155","owner":"135315828@N06","secret":"f6b6a85315","server":"65535","farm":66,"title":"blue-headed vireo","ispublic":1,"isfriend":0,"isfamily":0},{"id":"52025311885","owner":"67164820@N06","secret":"3bb12629a7","server":"65535","farm":66,"title":"blue-headed vireo","ispublic":1,"isfriend":0,"isfamily":0},{"id":"52009317935","owner":"136180232@N08","secret":"68b783e52f","server":"65535","farm":66,"title":"Blue-headed Vireo (Vireo solitarius) JTD_7355","ispublic":1,"isfriend":0,"isfamily":0},{"id":"52008084923","owner":"26371261@N00","secret":"7fc6326af5","server":"65535","farm":66,"title":"Blue-headed Vireo, Vireo solitarius","ispublic":1,"isfriend":0,"isfamily":0},{"id":"52008547695","owner":"26371261@N00","secret":"2498627253","server":"65535","farm":66,"title":"Blue-headed Vireo, Vireo solitarius","ispublic":1,"isfriend":0,"isfamily":0},{"id":"51959459244","owner":"13451078@N03","secret":"29cecc150e","server":"65535","farm":66,"title":"Blue-headed Vireo (Vireo solitarius)","ispublic":1,"isfriend":0,"isfamily":0},{"id":"51940155074","owner":"26371261@N00","secret":"a21496ed02","server":"65535","farm":66,"title":"Blue-headed Vireo, Vireo solitarius","ispublic":1,"isfriend":0,"isfamily":0},{"id":"51938844932","owner":"26371261@N00","secret":"a8513dc509","server":"65535","farm":66,"title":"Blue-headed Vireo, Vireo solitarius","ispublic":1,"isfriend":0,"isfamily":0},{"id":"51923058264","owner":"183736567@N07","secret":"162e5f4aeb","server":"65535","farm":66,"title":"Blue-headed Vireo (Vireo solitarius) in the rain","ispublic":1,"isfriend":0,"isfamily":0},{"id":"51918410033","owner":"26371261@N00","secret":"35c2246db5","server":"65535","farm":66,"title":"Blue-headed Vireo, Vireo solitarius","ispublic":1,"isfriend":0,"isfamily":0}]},"stat":"ok"}