{"photos":{"page":1,"pages":55,"perpage":100,"total":5423,"photo":[{"id":"52723550908","owner":"168495655@N07","secret":"04068fcd7f","server":"65535","farm":66,"title":"Mouette de Bonaparte - Chroicocephalus philadelphia - Bonaparte's Gull","ispublic":1,"isfriend":0,"isfamily":0},{"id":"52713846751","owner":"9638954@N07","secret":"8016163e2a","server":"65535","farm":66,"title":"Bonaparte's Gull (1st winter)","ispublic":1,"isfriend":0,"isfamily":0},{"id":"52714321638","owner":"9638954@N07","secret":"5e35a7ab14","server":"65535","farm":66,"title":"Bonaparte's Gull (1st winter) with prey item","ispublic":1,"isfriend":0,"isfamily":0},{"id":"52712261943","owner":"103722035@N06","secret":"a2dfdedd39","server":"0","farm":0,"title":"Bonaparte's Gull (Chroicocephalus philadelphia), immature, Morro Bay, CA","ispublic":1,"isfriend":0,"isfamily":0},{"id":"52711226877","owner":"168495655@N07","secret":"d807d4edf0","server":"65535","farm":66,"title":"Sterne caspienne - Hydroprogne caspia - Caspian Tern","ispublic":1,"isfriend":0,"isfamily":0},{"id":"52707342964","owner":"168495655@N07","secret":"8e413b0311","server":"65535","farm":66,"title":"Mouette de Bonaparte - Chroicocephalus philadelphia - Bonaparte's Gull","ispublic":1,"isfriend":0,"isfamily":0},{"id":"52706552262","owner":"168495655@N07","secret":"e3ba5130f7","server":"65535","farm":66,"title":"Mouette de Bonaparte - Chroicocephalus philadelphia - Bonaparte's Gull","ispublic":1,"isfriend":0,"isfamily":0},{"id":"52693728556","owner":"67277069@N06","secret":"0baab01855","server":"65535","farm":66,"title":"Bonaparte's Gull---Chroicocephalus philadelphia","ispublic":1,"isfriend":0,"isfamily":0},{"id":"52670480255","owner":"88932760@N08","secret":"f37e404b0d","server":"65535","farm":66,"title":"Reflections and Rocks","ispublic":1,"isfriend":0,"isfamily":0},{"id":"52665839765","owner":"11295713@N00","secret":"aa033c6005","server":"65535","farm":66,"title":"Bonaparte's Gulls (Chroicocephalus philadelphia) Gathering on the Beach","ispublic":1,"isfriend":0,"isfamily":0},{"id":"52665839330","owner":"11295713@N00","secret":"ecc5d1fc81","server":"65535","farm":66,"title":"Bonaparte's Gulls (Chroicocephalus philadelphia)","ispublic":1,"isfriend":0,"isfamily":0},{"id":"52657369881","owner":"52450054@N04","secret":"b42011d82a","server":"65535","farm":66,"title":"Bonaparte's Gull - Chroicocephalus philadelphia, Chincoteague National Wildlife Refuge, Chincoteague, Virginia, November 26, 2022","ispublic":1,"isfriend":0,"isfamily":0},{"id":"52645147116","owner":"161505078@N03","secret":"2385d0927b","server":"65535","farm":66,"title":"Bonaparte's Gull Non-breeding adult (Chroicocephalus philadelphia)","ispublic":1,"isfriend":0,"isfamily":0},{"id":"52644631436","owner":"93273765@N05","secret":"84ed0dcaff","server":"65535","farm":66,"title":"Bonaparte's Gull (Chroicocephalus philadelphia)","ispublic":1,"isfriend":0,"isfamily":0},{"id":"52640915496","owner":"135315828@N06","secret":"396879073e","server":"65535","farm":66,"title":"razorbill followed by bonaparte's gull","ispublic":1,"isfriend":0,"isfamily":0},{"id":"52641353970","owner":"135315828@N06","secret":"ff180aa734","server":"65535","farm":66,"title":"razorbill followed by bonaparte's gull","ispublic":1,"isfriend":0,"isfamily":0},{"id":"52640403722","owner":"135315828@N06","secret":"373e7df7f5","server":"65535","farm":66,"title":"bonaparte's gull","ispublic":1,"isfriend":0,"isfamily":0},{"id":"52641353880","owner":"135315828@N06","secret":"1f6fdb57e8","server":"65535","farm":66,"title":"bonaparte's gull","ispublic":1,"isfriend":0,"isfamily":0},{"id":"52641353800","owner":"135315828@N06","secret":"af099f1b6d","server":"65535","farm":66,"title":"bonaparte's gull","ispublic":1,"isfriend":0,"isfamily":0},{"id":"52639583836","owner":"103722035@N06","secret":"25901fc085","server":"0","farm":0,"title":"Bonaparte's Gull (Chroicocephalus philadelphia), Avila Beach, CA","ispublic":1,"isfriend":0,"isfamily":0},{"id":"52627367555","owner":"7261670@N03","secret":"837b588ecd","server":"65535","farm":66,"title":"Bonaparte's Gull","ispublic":1,"isfriend":0,"isfamily":0},{"id":"52618246038","owner":"130605131@N08","secret":"5031b324da","server":"65535","farm":66,"title":"IMG_2991","ispublic":1,"isfriend":0,"isfamily":0},{"id":"52618026924","owner":"130605131@N08","secret":"a88c278ce9","server":"65535","farm":66,"title":"IMG_2993","ispublic":1,"isfriend":0,"isfamily":0},{"id":"52618245988","owner":"130605131@N08","secret":"3d1cf5a189","server":"65535","farm":66,"title":"IMG_2994","ispublic":1,"isfriend":0,"isfamily":0},{"id":"52617247877","owner":"130605131@N08","secret":"5e146fbcde","server":"65535","farm":66,"title":"IMG_2995","ispublic":1,"isfriend":0,"isfamily":0},{"id":"52618192960","owner":"130605131@N08","secret":"18cbb01b9e","server":"65535","farm":66,"title":"IMG_2996","ispublic":1,"isfriend":0,"isfamily":0},{"id":"52618192945","owner":"130605131@N08","secret":"4b53d0033c","server":"65535","farm":66,"title":"IMG_2997","ispublic":1,"isfriend":0,"isfamily":0},{"id":"52618192910","owner":"130605131@N08","secret":"deb4d7eb40","server":"65535","farm":66,"title":"IMG_2998","ispublic":1,"isfriend":0,"isfamily":0},{"id":"52618026789","owner":"130605131@N08","secret":"c24276b498","server":"65535","farm":66,"title":"IMG_2999","ispublic":1,"isfriend":0,"isfamily":0},{"id":"52617757886","owner":"130605131@N08","secret":"6c822dc5dc","server":"65535","farm":66,"title":"IMG_2992","ispublic":1,"isfriend":0,"isfamily":0},{"id":"52617366044","owner":"193483104@N04","secret":"8e2dfd3345","server":"65535","farm":66,"title":"Bonaparte's Gull (Chroicocephalus philadelphia)","ispublic":1,"isfriend":0,"isfamily":0},{"id":"52617589143","owner":"193483104@N04","secret":"eeccf7828c","server":"65535","farm":66,"title":"Bonaparte's Gull (Chroicocephalus philadelphia)","ispublic":1,"isfriend":0,"isfamily":0},{"id":"52614908567","owner":"41710899@N08","secret":"7880007df5","server":"65535","farm":66,"title":"Bonaparte's Gull","ispublic":1,"isfriend":0,"isfamily":0},{"id":"52613235864","owner":"90886369@N06","secret":"03231e7c74","server":"65535","farm":66,"title":"Bonaparte's Gull (Chroicocephalus philadelphia)","ispublic":1,"isfriend":0,"isfamily":0},{"id":"52588083098","owner":"135315828@N06","secret":"5fa834ba45","server":"65535","farm":66,"title":"bonaparte's gull","ispublic":1,"isfriend":0,"isfamily":0},{"id":"52587999755","owner":"135315828@N06","secret":"b35d5c54c8","server":"65535","farm":66,"title":"bonaparte's gull","ispublic":1,"isfriend":0,"isfamily":0},{"id":"52587828754","owner":"135315828@N06","secret":"3b729dd093","server":"65535","farm":66,"title":"bonaparte's gull","ispublic":1,"isfriend":0,"isfamily":0},{"id":"52579862407","owner":"153973412@N04","secret":"d33d95ef5e","server":"65535","farm":66,"title":"Bonaparte's Gull-Chroicocephalus philadelphia, Hawkeye WMA, IA","ispublic":1,"isfriend":0,"isfamily":0},{"id":"52553219351","owner":"81224802@N03","secret":"b6f91b11cf","server":"65535","farm":66,"title":"_C091600-Edit","ispublic":1,"isfriend":0,"isfamily":0},{"id":"52549747181","owner":"196264892@N08","secret":"de9feef1a6","server":"65535","farm":66,"title":"Bonaparte's Gulls","ispublic":1,"isfriend":0,"isfamily":0},{"id":"52543112451","owner":"54549270@N03","secret":"34f47d5a76","server":"65535","farm":66,"title":"Bonaparte's Gull, 1st winter","ispublic":1,"isfriend":0,"isfamily":0},{"id":"52541390289","owner":"33610210@N05","secret":"5cc1e63c4d","server":"65535","farm":66,"title":"Bonaparte's Gull, Chroicocephalus philadelphia","ispublic":1,"isfriend":0,"isfamily":0},{"id":"52540630632","owner":"33610210@N05","secret":"821bb43d96","server":"65535","farm":66,"title":"Bonaparte's Gull, Chroicocephalus philadelphia","ispublic":1,"isfriend":0,"isfamily":0},{"id":"52538455864","owner":"63223331@N05","secret":"f5b6243b27","server":"65535","farm":66,"title":"Bonaparte's Gull (Chroicocephalus philadelphia)","ispublic":1,"isfriend":0,"isfamily":0},{"id":"52538163166","owner":"63223331@N05","secret":"9d2c3f87f0","server":"65535","farm":66,"title":"Bonaparte's Gull (Chroicocephalus philadelphia)","ispublic":1,"isfriend":0,"isfamily":0},{"id":"52537698952","owner":"63223331@N05","secret":"ba44c97df0","server":"65535","farm":66,"title":"Bonaparte's Gull (Chroicocephalus philadelphia)","ispublic":1,"isfriend":0,"isfamily":0},{"id":"52537796866","owner":"7546739@N08","secret":"206b0a2f5f","server":"65535","farm":66,"title":"Bonaparte's Gull","ispublic":1,"isfriend":0,"isfamily":0},{"id":"52538272995","owner":"7546739@N08","secret":"f1d0e5dfa3","server":"65535","farm":66,"title":"Bonaparte's Gull","ispublic":1,"isfriend":0,"isfamily":0},{"id":"52529769761","owner":"50525634@N00","secret":"1a0677c41d","server":"65535","farm":66,"title":"Mouette de Bonaparte - Chroicocephalus philadelphia - Bonaparte's Gull DSB_3278 copie","ispublic":1,"isfriend":0,"isfamily":0},{"id":"52530317113","owner":"50525634@N00","secret":"576837cb12","server":"65535","farm":66,"title":"Mouette de Bonaparte - Chroicocephalus philadelphia - Bonaparte's Gull DSB_3286 copie","ispublic":1,"isfriend":0,"isfamily":0},{"id":"52530316108","owner":"50525634@N00","secret":"57ba6dfaf2","server":"65535","farm":66,"title":"Mouette de Bonaparte - Chroicocephalus philadelphia - Bonaparte's Gull DSB_3294 copie","ispublic":1,"isfriend":0,"isfamily":0},{"id":"52523524533","owner":"63223331@N05","secret":"ae899bbbb1","server":"65535","farm":66,"title":"Bonaparte's Gull (Chroicocephalus philadelphia)","ispublic":1,"isfriend":0,"isfamily":0},{"id":"52522977021","owner":"63223331@N05","secret":"508fdd7e7f","server":"65535","farm":66,"title":"Bonaparte's Gull (Chroicocephalus philadelphia)","ispublic":1,"isfriend":0,"isfamily":0},{"id":"52523254664","owner":"63223331@N05","secret":"de3e8060bd","server":"65535","farm":66,"title":"Bonaparte's Gull (Chroicocephalus philadelphia)","ispublic":1,"isfriend":0,"isfamily":0},{"id":"52524035898","owner":"151381692@N04","secret":"4707100072","server":"65535","farm":66,"title":"Ring-billed Gull (Larus delawarensis) and Bonaparte's Gull (Chroicocephalus philadelphia)","ispublic":1,"isfriend":0,"isfamily":0},{"id":"52523768604","owner":"151381692@N04","secret":"c0463845ef","server":"65535","farm":66,"title":"Ring-billed Gull (Larus delawarensis) and Bonaparte's Gull (Chroicocephalus philadelphia)","ispublic":1,"isfriend":0,"isfamily":0},{"id":"52508577865","owner":"50525634@N00","secret":"4fa61dfcfb","server":"65535","farm":66,"title":"Mouette de Bonaparte - Chroicocephalus philadelphia - Bonaparte's Gull DSB_2504 copie","ispublic":1,"isfriend":0,"isfamily":0},{"id":"52507621062","owner":"50525634@N00","secret":"23122cab78","server":"65535","farm":66,"title":"Mouette de Bonaparte - Chroicocephalus philadelphia - Bonaparte's Gull DSB_2213 copie","ispublic":1,"isfriend":0,"isfamily":0},{"id":"52508100876","owner":"50525634@N00","secret":"fc0f2ac6ae","server":"65535","farm":66,"title":"Mouette de Bonaparte - Chroicocephalus philadelphia - Bonaparte's Gull DSB_2427 copie","ispublic":1,"isfriend":0,"isfamily":0},{"id":"52507620147","owner":"50525634@N00","secret":"16e6ed4f72","server":"65535","farm":66,"title":"Mouette de Bonaparte - Chroicocephalus philadelphia - Bonaparte's Gull DSB_2430 copie","ispublic":1,"isfriend":0,"isfamily":0},{"id":"52508100791","owner":"50525634@N00","secret":"1ef0b5b605","server":"65535","farm":66,"title":"Mouette de Bonaparte - Chroicocephalus philadelphia - Bonaparte's Gull DSB_2435 copie","ispublic":1,"isfriend":0,"isfamily":0},{"id":"52507620072","owner":"50525634@N00","secret":"f1b94b3f80","server":"65535","farm":66,"title":"Mouette de Bonaparte - Chroicocephalus philadelphia - Bonaparte's Gull DSB_2456 copie","ispublic":1,"isfriend":0,"isfamily":0},{"id":"52507659920","owner":"82143856@N00","secret":"e3782c2212","server":"65535","farm":66,"title":"Bonaparte's Gulls","ispublic":1,"isfriend":0,"isfamily":0},{"id":"52502215117","owner":"50525634@N00","secret":"84fe1a7fa7","server":"65535","farm":66,"title":"Mouette de Bonaparte - Chroicocephalus philadelphia - Bonaparte's Gull DSB_1914 copie","ispublic":1,"isfriend":0,"isfamily":0},{"id":"52497473060","owner":"39138537@N06","secret":"2057488731","server":"65535","farm":66,"title":"Bonaparte\u2019s Gull (Chroicocephalus philadelphia)Feeding Sequence","ispublic":1,"isfriend":0,"isfamily":0},{"id":"52496344443","owner":"62043870@N05","secret":"192f185361","server":"65535","farm":66,"title":"Bonaparte's Gull, Chroicocephalus philadelphia","ispublic":1,"isfriend":0,"isfamily":0},{"id":"52496269095","owner":"151381692@N04","secret":"0c7c7c7661","server":"65535","farm":66,"title":"Bonaparte's Gull (Chroicocephalus philadelphia)","ispublic":1,"isfriend":0,"isfamily":0},{"id":"52494995603","owner":"50525634@N00","secret":"788b28bd23","server":"65535","farm":66,"title":"Mouette de Bonaparte - Chroicocephalus philadelphia - Bonaparte's Gull DSB_8551 copie","ispublic":1,"isfriend":0,"isfamily":0},{"id":"52492862532","owner":"28867468@N08","secret":"981585e41d","server":"65535","farm":66,"title":"Bonaparte's Gull Immatures","ispublic":1,"isfriend":0,"isfamily":0},{"id":"52512389224","owner":"134270033@N06","secret":"25fd71b254","server":"65535","farm":66,"title":"HTT :: Happy Tuesday Twosday","ispublic":1,"isfriend":0,"isfamily":0},{"id":"52487444863","owner":"134270033@N06","secret":"9b48599773","server":"65535","farm":66,"title":"At Times a Steady Flow","ispublic":1,"isfriend":0,"isfamily":0},{"id":"52465685142","owner":"84169650@N07","secret":"9dd9e89c6f","server":"65535","farm":66,"title":"Bonaparte's Gull","ispublic":1,"isfriend":0,"isfamily":0},{"id":"52462718664","owner":"41710899@N08","secret":"9a692b59d0","server":"65535","farm":66,"title":"Bonaparte's Gull with a Fish","ispublic":1,"isfriend":0,"isfamily":0},{"id":"52449390036","owner":"195211983@N05","secret":"72f78d1448","server":"65535","farm":66,"title":"AEF7AD3D-4B4B-4E3B-9042-87FF4AD932E9","ispublic":1,"isfriend":0,"isfamily":0},{"id":"52440802109","owner":"103722035@N06","secret":"2e13b424bf","server":"0","farm":0,"title":"Bonaparte's Gull (Chroicocephalus philadelphia), Cambria, CA","ispublic":1,"isfriend":0,"isfamily":0},{"id":"52433691123","owner":"114826505@N04","secret":"a79244b9cc","server":"65535","farm":66,"title":"Bonaparte's Gull (Chroicocephalus philadelphia)","ispublic":1,"isfriend":0,"isfamily":0},{"id":"52432663457","owner":"114826505@N04","secret":"7b28db512e","server":"65535","farm":66,"title":"Bonaparte's Gull (Chroicocephalus philadelphia)","ispublic":1,"isfriend":0,"isfamily":0},{"id":"52433690948","owner":"114826505@N04","secret":"a20a9a3623","server":"65535","farm":66,"title":"Bonaparte's Gull (Chroicocephalus philadelphia)","ispublic":1,"isfriend":0,"isfamily":0},{"id":"52419491350","owner":"162163713@N06","secret":"a8efb6df9b","server":"65535","farm":66,"title":"Mouette de Bonaparte - Chroicocephalus philadelphia - Bonaparte's Gull","ispublic":1,"isfriend":0,"isfamily":0},{"id":"52419491295","owner":"162163713@N06","secret":"e01f451746","server":"65535","farm":66,"title":"Mouette de Bonaparte - Chroicocephalus philadelphia - Bonaparte's Gull","ispublic":1,"isfriend":0,"isfamily":0},{"id":"52419334334","owner":"162163713@N06","secret":"42b055253b","server":"65535","farm":66,"title":"Mouette de Bonaparte - Chroicocephalus philadelphia - Bonaparte's Gull","ispublic":1,"isfriend":0,"isfamily":0},{"id":"52419055931","owner":"162163713@N06","secret":"965310324f","server":"65535","farm":66,"title":"Mouette de Bonaparte - Chroicocephalus philadelphia - Bonaparte's Gull","ispublic":1,"isfriend":0,"isfamily":0},{"id":"52399627128","owner":"129051288@N05","secret":"a2af191888","server":"65535","farm":66,"title":"Mouette de Bonaparte, Chroicocephalus philadelphia, Bonaparte's Gull","ispublic":1,"isfriend":0,"isfamily":0},{"id":"52395945439","owner":"18378985@N08","secret":"c8e869de4e","server":"65535","farm":66,"title":"Bonaparte's Gull","ispublic":1,"isfriend":0,"isfamily":0},{"id":"52394100403","owner":"39138537@N06","secret":"3cdc25910f","server":"65535","farm":66,"title":"1cy Bonaparte's Gull (Chroicocephalus philadelphia)","ispublic":1,"isfriend":0,"isfamily":0},{"id":"52394100418","owner":"39138537@N06","secret":"97c59729b0","server":"65535","farm":66,"title":"Adult Bonaparte's Gull (Chroicocephalus philadelphia)","ispublic":1,"isfriend":0,"isfamily":0},{"id":"52393754310","owner":"79722430@N04","secret":"34e805b565","server":"65535","farm":66,"title":"Bonaparte's gull (Chroicocephalus philadelphia)","ispublic":1,"isfriend":0,"isfamily":0},{"id":"52392808512","owner":"79722430@N04","secret":"b0aa8a164e","server":"65535","farm":66,"title":"Bonaparte's gull (Chroicocephalus philadelphia)","ispublic":1,"isfriend":0,"isfamily":0},{"id":"52393754265","owner":"79722430@N04","secret":"6f28933c8f","server":"65535","farm":66,"title":"Bonaparte's gull (Chroicocephalus philadelphia)","ispublic":1,"isfriend":0,"isfamily":0},{"id":"52393824303","owner":"79722430@N04","secret":"eea5849d55","server":"65535","farm":66,"title":"Bonaparte's gull (Chroicocephalus philadelphia)","ispublic":1,"isfriend":0,"isfamily":0},{"id":"52392756947","owner":"79722430@N04","secret":"d1db786d89","server":"65535","farm":66,"title":"Bonaparte's gull (Chroicocephalus philadelphia)","ispublic":1,"isfriend":0,"isfamily":0},{"id":"52393776308","owner":"79722430@N04","secret":"3b0338b624","server":"65535","farm":66,"title":"Bonaparte's gull (Chroicocephalus philadelphia)","ispublic":1,"isfriend":0,"isfamily":0},{"id":"52393570209","owner":"79722430@N04","secret":"49db8575d4","server":"65535","farm":66,"title":"Bonaparte's gull (Chroicocephalus philadelphia)","ispublic":1,"isfriend":0,"isfamily":0},{"id":"52393570189","owner":"79722430@N04","secret":"d25acb5cdc","server":"65535","farm":66,"title":"Bonaparte's gull (Chroicocephalus philadelphia)","ispublic":1,"isfriend":0,"isfamily":0},{"id":"52679334590","owner":"47533293@N04","secret":"f958e3349d","server":"65535","farm":66,"title":"Bonaparte's gull, Chroicocephalus philadelphia","ispublic":1,"isfriend":0,"isfamily":0},{"id":"52631852884","owner":"13451078@N03","secret":"ea0dc3908d","server":"65535","farm":66,"title":"Bonaparte's Gull  ( Chroicocephalus philadelphia)","ispublic":1,"isfriend":0,"isfamily":0},{"id":"52577742015","owner":"34238008@N02","secret":"d7fecb1182","server":"65535","farm":66,"title":"Bonaparte's Gull, basic (Chroicocephalus philadelphia)","ispublic":1,"isfriend":0,"isfamily":0},{"id":"52508372524","owner":"50525634@N00","secret":"fcc0a1ee31","server":"65535","farm":66,"title":"Mouette de Bonaparte - Chroicocephalus philadelphia - Bonaparte's Gull DSB_2438 copie","ispublic":1,"isfriend":0,"isfamily":0},{"id":"52507619917","owner":"50525634@N00","secret":"9752dca9b3","server":"65535","farm":66,"title":"Mouette de Bonaparte - Chroicocephalus philadelphia - Bonaparte's Gull DSB_2499 copie","ispublic":1,"isfriend":0,"isfamily":0},{"id":"52502709531","owner":"50525634@N00","secret":"b9474d494c","server":"65535","farm":66,"title":"Mouette de Bonaparte - Chroicocephalus philadelphia - Bonaparte's Gull DSB_1911 copie","ispublic":1,"isfriend":0,"isfamily":0}]},"stat":"ok"}