{"photos":{"page":1,"pages":32,"perpage":100,"total":3147,"photo":[{"id":"52707659364","owner":"61396634@N07","secret":"f2346d31f7","server":"65535","farm":66,"title":"Brewer's Blackbird","ispublic":1,"isfriend":0,"isfamily":0},{"id":"52678241708","owner":"33610210@N05","secret":"d99dff3a1d","server":"65535","farm":66,"title":"Brewer's Blackbird, Euphagus cyanocephalus","ispublic":1,"isfriend":0,"isfamily":0},{"id":"52677745136","owner":"33610210@N05","secret":"207d76df5e","server":"65535","farm":66,"title":"Brewer's Blackbird, Euphagus cyanocephalus","ispublic":1,"isfriend":0,"isfamily":0},{"id":"52678031584","owner":"33610210@N05","secret":"8faeb3e134","server":"65535","farm":66,"title":"Brewer's Blackbird, Euphagus cyanocephalus (right) and Brown-headed Cowbird, Molothrus ater (left)","ispublic":1,"isfriend":0,"isfamily":0},{"id":"52677745051","owner":"33610210@N05","secret":"18ef1fc0fd","server":"65535","farm":66,"title":"Brewer's Blackbird, Euphagus cyanocephalus (right and center) and Brown-headed Cowbird, Molothrus ater (left)","ispublic":1,"isfriend":0,"isfamily":0},{"id":"52678180775","owner":"33610210@N05","secret":"fce11a8350","server":"65535","farm":66,"title":"Brewer's Blackbird, Euphagus cyanocephalus","ispublic":1,"isfriend":0,"isfamily":0},{"id":"52678180745","owner":"33610210@N05","secret":"40310bfe88","server":"65535","farm":66,"title":"Brewer's Blackbird, Euphagus cyanocephalus","ispublic":1,"isfriend":0,"isfamily":0},{"id":"52677777765","owner":"143326780@N02","secret":"cb4900f864","server":"65535","farm":66,"title":"DSCN3544","ispublic":1,"isfriend":0,"isfamily":0},{"id":"52676812297","owner":"143326780@N02","secret":"1f244e5ef8","server":"65535","farm":66,"title":"DSCN3545","ispublic":1,"isfriend":0,"isfamily":0},{"id":"52667563469","owner":"32320154@N05","secret":"269032d0c4","server":"65535","farm":66,"title":"Brewer's blackbird","ispublic":1,"isfriend":0,"isfamily":0},{"id":"52667273216","owner":"32320154@N05","secret":"57fc13279f","server":"65535","farm":66,"title":"Brewer's blackbird","ispublic":1,"isfriend":0,"isfamily":0},{"id":"52596542477","owner":"33610210@N05","secret":"6d023cb47f","server":"65535","farm":66,"title":"Brewer's Blackbird, Euphagus cyanocephalus","ispublic":1,"isfriend":0,"isfamily":0},{"id":"52596542452","owner":"33610210@N05","secret":"fd4b922eb6","server":"65535","farm":66,"title":"Brewer's Blackbird, Euphagus cyanocephalus","ispublic":1,"isfriend":0,"isfamily":0},{"id":"52592508366","owner":"99849996@N00","secret":"5d76b5d52e","server":"65535","farm":66,"title":"Brewer's Blackbird 20210719_3429","ispublic":1,"isfriend":0,"isfamily":0},{"id":"52590454276","owner":"33665418@N06","secret":"a47bc8caf6","server":"65535","farm":66,"title":"Brewer's Blackbird","ispublic":1,"isfriend":0,"isfamily":0},{"id":"52571886688","owner":"7331818@N02","secret":"bde9555b64","server":"65535","farm":66,"title":"No Dice","ispublic":1,"isfriend":0,"isfamily":0},{"id":"52570244562","owner":"169771858@N03","secret":"b187a8dbdc","server":"65535","farm":66,"title":"Brewer's Blackbird - 2202-07-09","ispublic":1,"isfriend":0,"isfamily":0},{"id":"52544914855","owner":"76973714@N06","secret":"cc280e7e5a","server":"65535","farm":66,"title":"Brewer's Blackbird (Male)","ispublic":1,"isfriend":0,"isfamily":0},{"id":"52544982573","owner":"76973714@N06","secret":"e8ae391a3c","server":"65535","farm":66,"title":"Brewer's Blackbird (Female)","ispublic":1,"isfriend":0,"isfamily":0},{"id":"52538321733","owner":"39617069@N08","secret":"613eaf377f","server":"65535","farm":66,"title":"Brewer's Blackbird","ispublic":1,"isfriend":0,"isfamily":0},{"id":"52530127347","owner":"33610210@N05","secret":"66067b035a","server":"65535","farm":66,"title":"Brewer's Blackbird, Euphagus cyanocephalus","ispublic":1,"isfriend":0,"isfamily":0},{"id":"52530594556","owner":"33610210@N05","secret":"0524e74cd3","server":"65535","farm":66,"title":"Brewer's Blackbird, Euphagus cyanocephalus","ispublic":1,"isfriend":0,"isfamily":0},{"id":"52530877529","owner":"33610210@N05","secret":"70d03431c7","server":"65535","farm":66,"title":"Brewer's Blackbird, Euphagus cyanocephalus","ispublic":1,"isfriend":0,"isfamily":0},{"id":"52525156090","owner":"142605906@N06","secret":"9cbddf9fdc","server":"65535","farm":66,"title":"Brewer's Blackbird (Euphagus cyanocephalus) Female","ispublic":1,"isfriend":0,"isfamily":0},{"id":"52507436698","owner":"196612229@N04","secret":"e2dcfb8e8a","server":"65535","farm":66,"title":"Got Dinner?","ispublic":1,"isfriend":0,"isfamily":0},{"id":"52507160739","owner":"196612229@N04","secret":"0a37480bf0","server":"65535","farm":66,"title":"Bringing Home the Bacon","ispublic":1,"isfriend":0,"isfamily":0},{"id":"52506887726","owner":"196612229@N04","secret":"e074f8d7a5","server":"65535","farm":66,"title":"Brewer's Blackbird with Catch of the Day","ispublic":1,"isfriend":0,"isfamily":0},{"id":"52480270988","owner":"30638967@N03","secret":"2c7fe708d5","server":"65535","farm":66,"title":"Female Brewers Blackbird DSC_9657","ispublic":1,"isfriend":0,"isfamily":0},{"id":"52470460971","owner":"66972807@N00","secret":"ef12a22875","server":"65535","farm":66,"title":"Cafe Blackbird","ispublic":1,"isfriend":0,"isfamily":0},{"id":"52458026503","owner":"146479766@N08","secret":"82d23a2c97","server":"65535","farm":66,"title":"Quiscale de Brewer - Brewer's Blackbird - Euphagus cyanocephalus","ispublic":1,"isfriend":0,"isfamily":0},{"id":"52446723745","owner":"14572247@N07","secret":"358cd683ab","server":"65535","farm":66,"title":"Brewer's Blackbird","ispublic":1,"isfriend":0,"isfamily":0},{"id":"52427322137","owner":"196264892@N08","secret":"b3efd5e2ee","server":"65535","farm":66,"title":"Brewer's Blackbird","ispublic":1,"isfriend":0,"isfamily":0},{"id":"52428111409","owner":"196264892@N08","secret":"3c0252de3c","server":"65535","farm":66,"title":"Brewer's Blackbird","ispublic":1,"isfriend":0,"isfamily":0},{"id":"52418048855","owner":"34238008@N02","secret":"567aa1f7bd","server":"65535","farm":66,"title":"Brewer's Blackbird (Euphagus cyanocephalus)","ispublic":1,"isfriend":0,"isfamily":0},{"id":"52400854896","owner":"14233971@N04","secret":"3078e50e8a","server":"65535","farm":66,"title":"Brewer's Blackbird","ispublic":1,"isfriend":0,"isfamily":0},{"id":"52391871109","owner":"196264892@N08","secret":"bdf777d24c","server":"65535","farm":66,"title":"Brewer's Blackbird female","ispublic":1,"isfriend":0,"isfamily":0},{"id":"52390636577","owner":"196264892@N08","secret":"ed03965c26","server":"65535","farm":66,"title":"Brewer's Blackbird female","ispublic":1,"isfriend":0,"isfamily":0},{"id":"52353780392","owner":"34238008@N02","secret":"aaea10d9d0","server":"65535","farm":66,"title":"Brewer's Blackbird, female (Euphagus cyanocephalus)","ispublic":1,"isfriend":0,"isfamily":0},{"id":"52328018064","owner":"196264892@N08","secret":"126dd71e25","server":"65535","farm":66,"title":"Brewer's Blackbird","ispublic":1,"isfriend":0,"isfamily":0},{"id":"52328017804","owner":"196264892@N08","secret":"1152fd8c8a","server":"65535","farm":66,"title":"Brewer's Blackbird","ispublic":1,"isfriend":0,"isfamily":0},{"id":"52324805182","owner":"124995824@N08","secret":"71ab2f2e2c","server":"65535","farm":66,"title":"Brewer's Blackbird - Euphagus cyanocephalus","ispublic":1,"isfriend":0,"isfamily":0},{"id":"52317606291","owner":"196264892@N08","secret":"20ea692dc8","server":"65535","farm":66,"title":"Brewer's Blackbird","ispublic":1,"isfriend":0,"isfamily":0},{"id":"52312621397","owner":"124995824@N08","secret":"f71bd139f6","server":"65535","farm":66,"title":"Brewer's Blackbird - Euphagus cyanocephalus","ispublic":1,"isfriend":0,"isfamily":0},{"id":"52296062356","owner":"119787485@N07","secret":"1745d89f0e","server":"65535","farm":66,"title":"Brewer's Blackbird (Euphagus cyanocephalus) - 20220608-10","ispublic":1,"isfriend":0,"isfamily":0},{"id":"52290829916","owner":"196264892@N08","secret":"1dfed55de2","server":"65535","farm":66,"title":"Brewer's Blackbird female","ispublic":1,"isfriend":0,"isfamily":0},{"id":"52288811594","owner":"8666250@N02","secret":"0012165917","server":"65535","farm":66,"title":"Mr Brewer's BB in the 'toons....","ispublic":1,"isfriend":0,"isfamily":0},{"id":"52288811524","owner":"8666250@N02","secret":"d9cd03b781","server":"65535","farm":66,"title":"Mrs Brewer's BB in the 'toons....","ispublic":1,"isfriend":0,"isfamily":0},{"id":"52286879477","owner":"125356410@N06","secret":"26262f9119","server":"65535","farm":66,"title":"Brewer's Blackbird 5050","ispublic":1,"isfriend":0,"isfamily":0},{"id":"52282701513","owner":"53477149@N02","secret":"e3e861ddfc","server":"65535","farm":66,"title":"Cheers to the Brewer's","ispublic":1,"isfriend":0,"isfamily":0},{"id":"52276507249","owner":"119787485@N07","secret":"8738e92812","server":"65535","farm":66,"title":"Brewer's Blackbird (Euphagus cyanocephalus) - 20220606-02","ispublic":1,"isfriend":0,"isfamily":0},{"id":"52275742669","owner":"196264892@N08","secret":"e894f24b25","server":"65535","farm":66,"title":"Brewer's Blackbird","ispublic":1,"isfriend":0,"isfamily":0},{"id":"52265111014","owner":"34238008@N02","secret":"2d1d6fa23c","server":"65535","farm":66,"title":"Brewer's Blackbird, male (Euphagus cyanocephalus)","ispublic":1,"isfriend":0,"isfamily":0},{"id":"52264679716","owner":"168495655@N07","secret":"cc8be04123","server":"65535","farm":66,"title":"Quiscale de Brewer - Euphagus cyanocephalus - Brewer's Blackbird","ispublic":1,"isfriend":0,"isfamily":0},{"id":"52264949334","owner":"168495655@N07","secret":"01062efc3f","server":"65535","farm":66,"title":"Quiscale de Brewer - Euphagus cyanocephalus - Brewer's Blackbird","ispublic":1,"isfriend":0,"isfamily":0},{"id":"52244641670","owner":"103722035@N06","secret":"37d7701691","server":"65535","farm":66,"title":"Brewer\u2019s Blackbird (Euphagus cyanocephalus), Morro Strand State Beach, Morro Bay, CA","ispublic":1,"isfriend":0,"isfamily":0},{"id":"52244611675","owner":"103722035@N06","secret":"cf5258261a","server":"0","farm":0,"title":"Brewer\u2019s Blackbird (Euphagus cyanocephalus), Morro Strand State Beach, Morro Bay, CA","ispublic":1,"isfriend":0,"isfamily":0},{"id":"52242337087","owner":"71185522@N00","secret":"bceec0f247","server":"65535","farm":66,"title":"Male Brewer's Blackbird","ispublic":1,"isfriend":0,"isfamily":0},{"id":"52219066969","owner":"189723744@N02","secret":"3a0560b8dd","server":"65535","farm":66,"title":"RED TAILED HAWK AND BREWERS BLACKBIRD","ispublic":1,"isfriend":0,"isfamily":0},{"id":"52219066569","owner":"189723744@N02","secret":"852b86f9e5","server":"65535","farm":66,"title":"RED TAILED HAWK AND BREWERS BLACKBIRD","ispublic":1,"isfriend":0,"isfamily":0},{"id":"52214338583","owner":"36685968@N00","secret":"53fd51ca8d","server":"65535","farm":66,"title":"Brewer's blackbird (Euphagus cyanocephalus)","ispublic":1,"isfriend":0,"isfamily":0},{"id":"52213265737","owner":"36685968@N00","secret":"d6fc16ed42","server":"65535","farm":66,"title":"Brewer's blackbird (Euphagus cyanocephalus)","ispublic":1,"isfriend":0,"isfamily":0},{"id":"52207162962","owner":"65148649@N04","secret":"dec8aa81cf","server":"65535","farm":66,"title":"Brewer's Blackbird","ispublic":1,"isfriend":0,"isfamily":0},{"id":"52208440534","owner":"65148649@N04","secret":"25108dc268","server":"65535","farm":66,"title":"Brewer's Blackbird","ispublic":1,"isfriend":0,"isfamily":0},{"id":"52207162542","owner":"65148649@N04","secret":"591ede4453","server":"65535","farm":66,"title":"Brewer's Blackbird","ispublic":1,"isfriend":0,"isfamily":0},{"id":"52203784538","owner":"71185522@N00","secret":"738bce8b15","server":"65535","farm":66,"title":"Male Brewer's Blackbird","ispublic":1,"isfriend":0,"isfamily":0},{"id":"52185821379","owner":"65148649@N04","secret":"55aa72e26d","server":"65535","farm":66,"title":"Bullock's Oriole and Brewer's Blackbird","ispublic":1,"isfriend":0,"isfamily":0},{"id":"52186056105","owner":"65148649@N04","secret":"ffe0a6c5cc","server":"65535","farm":66,"title":"Brewer's Blackbird","ispublic":1,"isfriend":0,"isfamily":0},{"id":"52186056090","owner":"65148649@N04","secret":"692bfb553d","server":"65535","farm":66,"title":"Brewer's Blackbird","ispublic":1,"isfriend":0,"isfamily":0},{"id":"52645595641","owner":"8013969@N03","secret":"a9f3bdb167","server":"65535","farm":66,"title":"Euphagus cyanocephalus DFL la22-1","ispublic":1,"isfriend":0,"isfamily":0},{"id":"52604111808","owner":"62043870@N05","secret":"6b93e87ef8","server":"65535","farm":66,"title":"Brewer's Blackbirds, Euphagus cyanocephalus","ispublic":1,"isfriend":0,"isfamily":0},{"id":"52599169385","owner":"39935474@N03","secret":"4016ee931f","server":"65535","farm":66,"title":"Brewer's Blackbird, female","ispublic":1,"isfriend":0,"isfamily":0},{"id":"52599169135","owner":"39935474@N03","secret":"ac35afd6d3","server":"65535","farm":66,"title":"Brewer's Blackbird female","ispublic":1,"isfriend":0,"isfamily":0},{"id":"52583844248","owner":"81058247@N08","secret":"949b0604c8","server":"65535","farm":66,"title":"Brewer's Blackbirds (Euphagus cyanocephalus)","ispublic":1,"isfriend":0,"isfamily":0},{"id":"52583329066","owner":"81058247@N08","secret":"dab5cafbcb","server":"65535","farm":66,"title":"Brewer's Blackbirds (Euphagus cyanocephalus)","ispublic":1,"isfriend":0,"isfamily":0},{"id":"52582471771","owner":"163058217@N06","secret":"64215872d9","server":"65535","farm":66,"title":"Euphagus cyanocephalus. 2022. Coconino, AZ, US. Robert McCabe","ispublic":1,"isfriend":0,"isfamily":0},{"id":"52580849988","owner":"153973412@N04","secret":"3d67ddb10e","server":"65535","farm":66,"title":"Brewer's Blackbird-Euphagus cyanocephalus, Monterey, CA","ispublic":1,"isfriend":0,"isfamily":0},{"id":"52530594446","owner":"33610210@N05","secret":"4a3ac65ba0","server":"65535","farm":66,"title":"Brewer's Blackbird, Euphagus cyanocephalus","ispublic":1,"isfriend":0,"isfamily":0},{"id":"52530594316","owner":"33610210@N05","secret":"64398b6b21","server":"65535","farm":66,"title":"Brewer's Blackbird, Euphagus cyanocephalus","ispublic":1,"isfriend":0,"isfamily":0},{"id":"52467007449","owner":"8666250@N02","secret":"40bd0b4751","server":"65535","farm":66,"title":"Male Brewer's Blackbird","ispublic":1,"isfriend":0,"isfamily":0},{"id":"52467007414","owner":"8666250@N02","secret":"809f7bda02","server":"65535","farm":66,"title":"Female Brewer's Blackbird","ispublic":1,"isfriend":0,"isfamily":0},{"id":"52466418465","owner":"62907378@N07","secret":"13df0a69aa","server":"65535","farm":66,"title":"Centenial Beach, Boundary Bay Regional Park, Delta BC.","ispublic":1,"isfriend":0,"isfamily":0},{"id":"52455832331","owner":"187792860@N04","secret":"f8a5d0eb4f","server":"65535","farm":66,"title":"Brewer's Blackbird (Euphagus cyanocephalus)","ispublic":1,"isfriend":0,"isfamily":0},{"id":"52329537037","owner":"62043870@N05","secret":"06bc60bd7b","server":"65535","farm":66,"title":"Brewer's Blackbird, Euphagus cyanocephalus","ispublic":1,"isfriend":0,"isfamily":0},{"id":"52264841251","owner":"34238008@N02","secret":"bece970d9b","server":"65535","farm":66,"title":"Brewer's Blackbird (Euphagus cyanocephalus)","ispublic":1,"isfriend":0,"isfamily":0},{"id":"52263875007","owner":"34238008@N02","secret":"139bc75969","server":"65535","farm":66,"title":"Brewer's Blackbird (Euphagus cyanocephalus)","ispublic":1,"isfriend":0,"isfamily":0},{"id":"52263874847","owner":"34238008@N02","secret":"9c8269817f","server":"65535","farm":66,"title":"Brewer's Blackbird (Euphagus cyanocephalus)","ispublic":1,"isfriend":0,"isfamily":0},{"id":"52255236843","owner":"62043870@N05","secret":"660c2b8263","server":"65535","farm":66,"title":"Brewer's Blackbird, Euphagus cyanocephalus","ispublic":1,"isfriend":0,"isfamily":0},{"id":"52246004615","owner":"8666250@N02","secret":"028470f0c2","server":"65535","farm":66,"title":"Ms Brewer's BB inspecting Saskatoons 220618 -10","ispublic":1,"isfriend":0,"isfamily":0},{"id":"52245522123","owner":"8666250@N02","secret":"ab0e217e0b","server":"65535","farm":66,"title":"Ms Brewer's BB inspecting Saskatoons 220618 -07","ispublic":1,"isfriend":0,"isfamily":0},{"id":"52246004310","owner":"8666250@N02","secret":"6398ee4767","server":"65535","farm":66,"title":"Ms Brewer's BB inspecting Saskatoons 220618 -05","ispublic":1,"isfriend":0,"isfamily":0},{"id":"52234332741","owner":"143326780@N02","secret":"57d17f75c0","server":"65535","farm":66,"title":"DSCN6669","ispublic":1,"isfriend":0,"isfamily":0},{"id":"52234607509","owner":"143326780@N02","secret":"c72076e97d","server":"65535","farm":66,"title":"DSCN6679","ispublic":1,"isfriend":0,"isfamily":0},{"id":"52234332616","owner":"143326780@N02","secret":"74a05d3b69","server":"65535","farm":66,"title":"DSCN6682","ispublic":1,"isfriend":0,"isfamily":0},{"id":"52221007247","owner":"34238008@N02","secret":"b6d5f9ae65","server":"65535","farm":66,"title":"Brewer's Blackbird (Euphagus cyanocephalus)","ispublic":1,"isfriend":0,"isfamily":0},{"id":"52204354633","owner":"62043870@N05","secret":"361c77d3aa","server":"65535","farm":66,"title":"Brewer's Blackbird, Euphagus cyanocephalus","ispublic":1,"isfriend":0,"isfamily":0},{"id":"52189954665","owner":"8666250@N02","secret":"832f5474aa","server":"65535","farm":66,"title":"Brewer's Blackbird, White Lake -01","ispublic":1,"isfriend":0,"isfamily":0},{"id":"52189471836","owner":"8666250@N02","secret":"d669f4c1c9","server":"65535","farm":66,"title":"Brewer's Blackbird, White Lake -05","ispublic":1,"isfriend":0,"isfamily":0},{"id":"52189471601","owner":"8666250@N02","secret":"3b1faeee1c","server":"65535","farm":66,"title":"Brewer's Blackbird, White Lake -07","ispublic":1,"isfriend":0,"isfamily":0},{"id":"52188453762","owner":"8666250@N02","secret":"20f5409027","server":"65535","farm":66,"title":"Brewer's Blackbird, White Lake -02","ispublic":1,"isfriend":0,"isfamily":0},{"id":"52181319137","owner":"8666250@N02","secret":"92355a8df4","server":"65535","farm":66,"title":"Brewer's Blackbird - Haynes Point-01","ispublic":1,"isfriend":0,"isfamily":0}]},"stat":"ok"}