{"photos":{"page":1,"pages":2,"perpage":100,"total":199,"photo":[{"id":"52749489566","owner":"12639178@N07","secret":"51f913bde1","server":"65535","farm":66,"title":"Borstenbrachvogel (Numenius tahitiensis), Tikehau, Franz. Polynesien","ispublic":1,"isfriend":0,"isfamily":0},{"id":"52746854127","owner":"102859934@N02","secret":"89779efb71","server":"65535","farm":66,"title":"Curlew Couple","ispublic":1,"isfriend":0,"isfamily":0},{"id":"52745610160","owner":"12639178@N07","secret":"6f3a5dbd07","server":"65535","farm":66,"title":"Borstenbrachvogel (Numenius tahitiensis), Tikehau, Franz. Polynesien","ispublic":1,"isfriend":0,"isfamily":0},{"id":"52624924109","owner":"154657265@N08","secret":"3c0a3de489","server":"65535","farm":66,"title":"Bristle-thighed Curlew - Numenius tahitiensis","ispublic":1,"isfriend":0,"isfamily":0},{"id":"52624854979","owner":"154657265@N08","secret":"ac07af2203","server":"65535","farm":66,"title":"Bristle-thighed Curlew - Numenius tahitiensis","ispublic":1,"isfriend":0,"isfamily":0},{"id":"52624605461","owner":"154657265@N08","secret":"5573b2c6df","server":"65535","farm":66,"title":"Bristle-thighed Curlew - Numenius tahitiensis","ispublic":1,"isfriend":0,"isfamily":0},{"id":"52625085003","owner":"154657265@N08","secret":"f0c2cf4e86","server":"65535","farm":66,"title":"Bristle-thighed Curlew - Numenius tahitiensis","ispublic":1,"isfriend":0,"isfamily":0},{"id":"52625035960","owner":"154657265@N08","secret":"be47ab4c81","server":"65535","farm":66,"title":"Bristle-thighed Curlew - Numenius tahitiensis","ispublic":1,"isfriend":0,"isfamily":0},{"id":"52624854139","owner":"154657265@N08","secret":"16d36096d6","server":"65535","farm":66,"title":"Bristle-thighed Curlew - Numenius tahitiensis","ispublic":1,"isfriend":0,"isfamily":0},{"id":"52625084393","owner":"154657265@N08","secret":"1d91e258ac","server":"65535","farm":66,"title":"Bristle-thighed Curlew - Numenius tahitiensis","ispublic":1,"isfriend":0,"isfamily":0},{"id":"52625084288","owner":"154657265@N08","secret":"935470e933","server":"65535","farm":66,"title":"Bristle-thighed Curlew - Numenius tahitiensis","ispublic":1,"isfriend":0,"isfamily":0},{"id":"52625084183","owner":"154657265@N08","secret":"084be59035","server":"65535","farm":66,"title":"Bristle-thighed Curlew - Numenius tahitiensis","ispublic":1,"isfriend":0,"isfamily":0},{"id":"52624087692","owner":"154657265@N08","secret":"8e39604de8","server":"65535","farm":66,"title":"Bristle-thighed Curlew - Numenius tahitiensis","ispublic":1,"isfriend":0,"isfamily":0},{"id":"52181884132","owner":"48014585@N00","secret":"5fc91b188b","server":"65535","farm":66,"title":"Bristle-thighed Curlew","ispublic":1,"isfriend":0,"isfamily":0},{"id":"52183150759","owner":"48014585@N00","secret":"540954a2b0","server":"65535","farm":66,"title":"Bristle-thighed Curlew","ispublic":1,"isfriend":0,"isfamily":0},{"id":"52183389200","owner":"48014585@N00","secret":"cb4b5d80c4","server":"65535","farm":66,"title":"Bristle-thighed Curlew","ispublic":1,"isfriend":0,"isfamily":0},{"id":"52183150584","owner":"48014585@N00","secret":"9acf563a32","server":"65535","farm":66,"title":"Bristle-thighed Curlew","ispublic":1,"isfriend":0,"isfamily":0},{"id":"52181879157","owner":"48014585@N00","secret":"06084a331d","server":"65535","farm":66,"title":"Bristle-thighed Curlew","ispublic":1,"isfriend":0,"isfamily":0},{"id":"52183150244","owner":"48014585@N00","secret":"b1ef75bf08","server":"65535","farm":66,"title":"Bristle-thighed Curlew","ispublic":1,"isfriend":0,"isfamily":0},{"id":"52183150129","owner":"48014585@N00","secret":"e73f32c813","server":"65535","farm":66,"title":"Bristle-thighed Curlew","ispublic":1,"isfriend":0,"isfamily":0},{"id":"52027351076","owner":"102859934@N02","secret":"5960070452","server":"65535","farm":66,"title":"Kioea","ispublic":1,"isfriend":0,"isfamily":0},{"id":"51999474442","owner":"126805965@N03","secret":"5d33999896","server":"65535","farm":66,"title":"Bristle-thighed Curlew (Numenius tahitiensis) - Kahuku Golf Course, Oahu","ispublic":1,"isfriend":0,"isfamily":0},{"id":"51364151185","owner":"102859934@N02","secret":"e346476c99","server":"65535","farm":66,"title":"Followed","ispublic":1,"isfriend":0,"isfamily":0},{"id":"51333934280","owner":"8065544@N08","secret":"dc5fc52b6c","server":"65535","farm":66,"title":"Bristle-thighed Curlew (Numenius tahitiensis)","ispublic":1,"isfriend":0,"isfamily":0},{"id":"51333934275","owner":"8065544@N08","secret":"3bcda20726","server":"65535","farm":66,"title":"Bristle-thighed Curlew (Numenius tahitiensis)","ispublic":1,"isfriend":0,"isfamily":0},{"id":"51332202037","owner":"8065544@N08","secret":"89434deb89","server":"65535","farm":66,"title":"Bristle-thighed Curlew (Numenius tahitiensis)","ispublic":1,"isfriend":0,"isfamily":0},{"id":"51264246548","owner":"61021753@N02","secret":"17de7da9c5","server":"65535","farm":66,"title":"n104_w1150","ispublic":1,"isfriend":0,"isfamily":0},{"id":"51259013326","owner":"21702714@N06","secret":"8048a5f114","server":"65535","farm":66,"title":"Bristle-thighed Curlew","ispublic":1,"isfriend":0,"isfamily":0},{"id":"51011439461","owner":"21558080@N07","secret":"10455ea79e","server":"65535","farm":66,"title":"Bristle-thighed Curlew (Numenius tahitiensis)","ispublic":1,"isfriend":0,"isfamily":0},{"id":"50846425887","owner":"102859934@N02","secret":"8451441936","server":"65535","farm":66,"title":"Beach Screech","ispublic":1,"isfriend":0,"isfamily":0},{"id":"50524879612","owner":"102859934@N02","secret":"13921564df","server":"65535","farm":66,"title":"Curlew Calling","ispublic":1,"isfriend":0,"isfamily":0},{"id":"49789234202","owner":"102859934@N02","secret":"0650fe3ba1","server":"65535","farm":66,"title":"Airspace Incursion","ispublic":1,"isfriend":0,"isfamily":0},{"id":"49276373582","owner":"183382590@N08","secret":"38cb55804f","server":"65535","farm":66,"title":"A bristle-thighed curlew (Numenius tahitiensis)","ispublic":1,"isfriend":0,"isfamily":0},{"id":"49276152081","owner":"183382590@N08","secret":"0719249ed5","server":"65535","farm":66,"title":"A bristle-thighed curlew (Numenius tahitiensis)","ispublic":1,"isfriend":0,"isfamily":0},{"id":"49276342872","owner":"183382590@N08","secret":"c71ec57f9b","server":"65535","farm":66,"title":"A bristle-thighed curlew (Numenius tahitiensis) inspects a danger sign on an old building","ispublic":1,"isfriend":0,"isfamily":0},{"id":"49275678213","owner":"183382590@N08","secret":"5b90d2d41c","server":"65535","farm":66,"title":"A bristle-thighed curlew (Numenius tahitiensis) surrounded by Atlantic canaries (Serinus canaria). Midway is home to the only self-sustaining population of yellow canaries outside of the Canary Islands.","ispublic":1,"isfriend":0,"isfamily":0},{"id":"49275664103","owner":"183382590@N08","secret":"e0d87bd657","server":"65535","farm":66,"title":"A flock of bristle-thighed curlews (Numenius tahitiensis) gathers in Midway's \"Boneyard\"","ispublic":1,"isfriend":0,"isfamily":0},{"id":"49276127566","owner":"183382590@N08","secret":"4c50200142","server":"65535","farm":66,"title":"A flock of bristle-thighed curlews (Numenius tahitiensis) gathers in Midway's \"Boneyard\"","ispublic":1,"isfriend":0,"isfamily":0},{"id":"49240866481","owner":"23211682@N07","secret":"abb1842546","server":"65535","farm":66,"title":"Bristle-thighed Curlew","ispublic":1,"isfriend":0,"isfamily":0},{"id":"49241081577","owner":"23211682@N07","secret":"359be8ba83","server":"65535","farm":66,"title":"Bristle-thighed Curlew","ispublic":1,"isfriend":0,"isfamily":0},{"id":"49241081562","owner":"23211682@N07","secret":"0be69607f9","server":"65535","farm":66,"title":"Bristle-thighed Curlew","ispublic":1,"isfriend":0,"isfamily":0},{"id":"49108725911","owner":"21558080@N07","secret":"b3efa67746","server":"65535","farm":66,"title":"Bristle-thighed Curlew (Numenius tahitiensis)","ispublic":1,"isfriend":0,"isfamily":0},{"id":"48810668473","owner":"102859934@N02","secret":"942a31128d","server":"65535","farm":66,"title":"Bristle-Thighed Curlew","ispublic":1,"isfriend":0,"isfamily":0},{"id":"48809681967","owner":"102859934@N02","secret":"0d40f1c2a5","server":"65535","farm":66,"title":"Inbound Kioea","ispublic":1,"isfriend":0,"isfamily":0},{"id":"48809173148","owner":"102859934@N02","secret":"7e3f953c91","server":"65535","farm":66,"title":"Kioea Breakfast","ispublic":1,"isfriend":0,"isfamily":0},{"id":"48676379288","owner":"15714125@N03","secret":"aaea71bd46","server":"65535","farm":66,"title":"Bristle-thighed Curlew","ispublic":1,"isfriend":0,"isfamily":0},{"id":"48676892567","owner":"15714125@N03","secret":"7ed7b155a5","server":"65535","farm":66,"title":"Bristle-thighed Curlew","ispublic":1,"isfriend":0,"isfamily":0},{"id":"48369273216","owner":"54249623@N08","secret":"3eca75ed51","server":"65535","farm":66,"title":"Bristle-thighed Curlew (Numenius tahitiensis)","ispublic":1,"isfriend":0,"isfamily":0},{"id":"46754399525","owner":"74113421@N03","secret":"dc13cec078","server":"65535","farm":66,"title":"Bristle-thighed curlew (Numenius tahitiensis)","ispublic":1,"isfriend":0,"isfamily":0},{"id":"47664590341","owner":"61316002@N02","secret":"3e392c1c9d","server":"65535","farm":66,"title":"BRITHICUR 0115","ispublic":1,"isfriend":0,"isfamily":0},{"id":"40628761083","owner":"33106392@N08","secret":"6160b89ef5","server":"7888","farm":8,"title":"Bristle-thighed Curlew","ispublic":1,"isfriend":0,"isfamily":0},{"id":"40628761043","owner":"33106392@N08","secret":"19e736c0bd","server":"7905","farm":8,"title":"Bristle-thighed Curlew","ispublic":1,"isfriend":0,"isfamily":0},{"id":"47594862971","owner":"33106392@N08","secret":"e6ccfd9f0b","server":"7909","farm":8,"title":"Bristle-thighed Curlew","ispublic":1,"isfriend":0,"isfamily":0},{"id":"32036040227","owner":"30528176@N00","secret":"f6135dba63","server":"4909","farm":5,"title":"Bristle-thighed Curlew","ispublic":1,"isfriend":0,"isfamily":0},{"id":"32036037357","owner":"30528176@N00","secret":"74b0691409","server":"7864","farm":8,"title":"Bristle-thighed Curlew","ispublic":1,"isfriend":0,"isfamily":0},{"id":"46063389975","owner":"30528176@N00","secret":"f33e13959a","server":"4854","farm":5,"title":"Bristle-thighed Curlew","ispublic":1,"isfriend":0,"isfamily":0},{"id":"45586417044","owner":"21558080@N07","secret":"d232fa6600","server":"4861","farm":5,"title":"Bristle-thighed Curlew (Numenius tahitiensis)","ispublic":1,"isfriend":0,"isfamily":0},{"id":"45043810614","owner":"21796065@N03","secret":"17298cf851","server":"4850","farm":5,"title":"Bristle-Thighed Curlew","ispublic":1,"isfriend":0,"isfamily":0},{"id":"44929410102","owner":"102859934@N02","secret":"618a9cbb01","server":"1942","farm":2,"title":"Kioea","ispublic":1,"isfriend":0,"isfamily":0},{"id":"44929401872","owner":"102859934@N02","secret":"79d7e650ff","server":"1932","farm":2,"title":"Bristle-Thighed Curlews","ispublic":1,"isfriend":0,"isfamily":0},{"id":"29895605597","owner":"102859934@N02","secret":"ec8f88824b","server":"1942","farm":2,"title":"Kahuku Curlew","ispublic":1,"isfriend":0,"isfamily":0},{"id":"30879763428","owner":"88537019@N00","secret":"a2f46f66c1","server":"1889","farm":2,"title":"Bristle-thighed Curlew (Numenius tahitiensis)","ispublic":1,"isfriend":0,"isfamily":0},{"id":"44038480922","owner":"21558080@N07","secret":"2e5df44bc9","server":"1835","farm":2,"title":"Bristle-thighed Curlew \/ Kioea (Numenius tahitiensis)","ispublic":1,"isfriend":0,"isfamily":0},{"id":"43830571882","owner":"21558080@N07","secret":"5680a135c3","server":"858","farm":1,"title":"Bristle-thighed Curlew \/ Kioea (Numenius tahitiensis)","ispublic":1,"isfriend":0,"isfamily":0},{"id":"40803767841","owner":"39046619@N02","secret":"0e3390a9a1","server":"4794","farm":5,"title":"Bristle-thighed Curlew (Numenius tahitiensis)","ispublic":1,"isfriend":0,"isfamily":0},{"id":"25316992957","owner":"40295335@N00","secret":"5bd77b769a","server":"4662","farm":5,"title":"Bristle-thighed curlew bathing","ispublic":1,"isfriend":0,"isfamily":0},{"id":"25316992677","owner":"40295335@N00","secret":"cb61eef3cf","server":"4715","farm":5,"title":"Bristle-thighed curlew bathing","ispublic":1,"isfriend":0,"isfamily":0},{"id":"39476985524","owner":"40295335@N00","secret":"cf75b86520","server":"4624","farm":5,"title":"Bristle-thighed curlew with brown background","ispublic":1,"isfriend":0,"isfamily":0},{"id":"39476985264","owner":"40295335@N00","secret":"44d346b065","server":"4611","farm":5,"title":"Bristle-thighed curlew standing on grass","ispublic":1,"isfriend":0,"isfamily":0},{"id":"40188876261","owner":"40295335@N00","secret":"40959a1ef5","server":"4658","farm":5,"title":"Bristle-thighed curlew walking on grass","ispublic":1,"isfriend":0,"isfamily":0},{"id":"39298722572","owner":"21558080@N07","secret":"e6e2c2c85d","server":"4640","farm":5,"title":"Bristle-thighed Curlew \/ Kioea (Numenius tahitiensis)","ispublic":1,"isfriend":0,"isfamily":0},{"id":"26869592119","owner":"114016722@N02","secret":"a0dc63e391","server":"4543","farm":5,"title":"Bristle-thighed Curlew - Numenius tahitiensis","ispublic":1,"isfriend":0,"isfamily":0},{"id":"52762655364","owner":"12639178@N07","secret":"8accd71cd9","server":"65535","farm":66,"title":"Borstenbrachvogel (Numenius tahitiensis), Tikehau, Franz. Polynesien","ispublic":1,"isfriend":0,"isfamily":0},{"id":"52703427984","owner":"100682706@N06","secret":"c93fd132bb","server":"65535","farm":66,"title":"Bristle-thighed Curlew Numenius tahitiensis","ispublic":1,"isfriend":0,"isfamily":0},{"id":"52628627386","owner":"29494346@N03","secret":"d817a9d809","server":"65535","farm":66,"title":"Bristle-thiged Curlew (Numenius tahitiensis)","ispublic":1,"isfriend":0,"isfamily":0},{"id":"52200541425","owner":"48014585@N00","secret":"381d0e7b8a","server":"65535","farm":66,"title":"Booted up and ready to tackle Curlew Mountain!","ispublic":1,"isfriend":0,"isfamily":0},{"id":"52200513920","owner":"48014585@N00","secret":"a85423e811","server":"65535","farm":66,"title":"Success! (a reenactment)","ispublic":1,"isfriend":0,"isfamily":0},{"id":"52199010732","owner":"48014585@N00","secret":"bfcc04a7c3","server":"65535","farm":66,"title":"Bristle-thighed Curlew","ispublic":1,"isfriend":0,"isfamily":0},{"id":"52152597279","owner":"48014585@N00","secret":"44c1750cda","server":"65535","farm":66,"title":"Bristle-thighed Curlew","ispublic":1,"isfriend":0,"isfamily":0},{"id":"51857915912","owner":"56983940@N06","secret":"14e5394716","server":"65535","farm":66,"title":"Bristle-thighed Curlew","ispublic":1,"isfriend":0,"isfamily":0},{"id":"51855740249","owner":"56983940@N06","secret":"1afc6c2962","server":"65535","farm":66,"title":"Bristle-thighed Curlew","ispublic":1,"isfriend":0,"isfamily":0},{"id":"51367364885","owner":"123979267@N05","secret":"08c6c00580","server":"65535","farm":66,"title":"Bristle-thighed Curlew, population: 7,000. The discovery of a nest north of the lower Yukon River in 1948 made it one of the last North American birds to have its nest and eggs described.","ispublic":1,"isfriend":0,"isfamily":0},{"id":"51285667858","owner":"96568982@N06","secret":"ba6623c561","server":"65535","farm":66,"title":"CURLEW, Bristle-thighed","ispublic":1,"isfriend":0,"isfamily":0},{"id":"51259208598","owner":"21702714@N06","secret":"61827ed400","server":"65535","farm":66,"title":"Bristle-thighed Curlew","ispublic":1,"isfriend":0,"isfamily":0},{"id":"51258284297","owner":"21702714@N06","secret":"0483bfa4e6","server":"65535","farm":66,"title":"Bristle-thighed Curlew","ispublic":1,"isfriend":0,"isfamily":0},{"id":"50356956097","owner":"61021753@N02","secret":"d4d3ddf2d3","server":"65535","farm":66,"title":"n258_w1150","ispublic":1,"isfriend":0,"isfamily":0},{"id":"49690692062","owner":"106773832@N02","secret":"6c4db2caa6","server":"65535","farm":66,"title":"Bristle-thighed Curlew (Numenius tahitiensis)-4016","ispublic":1,"isfriend":0,"isfamily":0},{"id":"49690381266","owner":"106773832@N02","secret":"f5ee67c772","server":"65535","farm":66,"title":"Bristle-thighed Curlew (Numenius tahitiensis)-4010","ispublic":1,"isfriend":0,"isfamily":0},{"id":"49633210573","owner":"111949217@N08","secret":"b1e5a014b9","server":"65535","farm":66,"title":"Zarapito del pac\u00edfico,bristel-thighed curlew(Numenius tahitiensis)","ispublic":1,"isfriend":0,"isfamily":0},{"id":"46252797744","owner":"30528176@N00","secret":"74d0ce2dd6","server":"7844","farm":8,"title":"Bristle-thighed Curlew","ispublic":1,"isfriend":0,"isfamily":0},{"id":"46925115032","owner":"30528176@N00","secret":"0458a84d15","server":"4907","farm":5,"title":"Bristle-thighed Curlew","ispublic":1,"isfriend":0,"isfamily":0},{"id":"46252793964","owner":"30528176@N00","secret":"31c654386f","server":"4892","farm":5,"title":"Bristle-thighed Curlew","ispublic":1,"isfriend":0,"isfamily":0},{"id":"44860723264","owner":"32752434@N07","secret":"4b61c6be43","server":"65535","farm":66,"title":"Bristle-thighed Curlew (Numenius tahitiensis)","ispublic":1,"isfriend":0,"isfamily":0},{"id":"45420494942","owner":"72712359@N00","secret":"c2bb36dc52","server":"1936","farm":2,"title":"Bristle-thighed Curlew","ispublic":1,"isfriend":0,"isfamily":0},{"id":"43749237471","owner":"132165466@N08","secret":"38acee8080","server":"1799","farm":2,"title":"Whimbrel","ispublic":1,"isfriend":0,"isfamily":0},{"id":"41940675870","owner":"132165466@N08","secret":"408917a1d6","server":"849","farm":1,"title":"Whimbrel","ispublic":1,"isfriend":0,"isfamily":0},{"id":"41940675690","owner":"132165466@N08","secret":"d8f30baba9","server":"929","farm":1,"title":"Whimbrel","ispublic":1,"isfriend":0,"isfamily":0},{"id":"26085499677","owner":"26803925@N05","secret":"b5ee7e5efc","server":"805","farm":1,"title":"Bristle-thighed Curlew (Numenius tahitiensis) 06-08-2017 Nome-Kougarok Road-MP N72, Nome Co. AK 3","ispublic":1,"isfriend":0,"isfamily":0},{"id":"26085499687","owner":"26803925@N05","secret":"fb738698bc","server":"808","farm":1,"title":"Bristle-thighed Curlew (Numenius tahitiensis) 06-08-2017 Nome-Kougarok Road-MP N72, Nome Co. AK 8","ispublic":1,"isfriend":0,"isfamily":0},{"id":"35798631903","owner":"24110087@N05","secret":"b014e21170","server":"4340","farm":5,"title":"Bristle-thighed Curlew (Numenius tahitiensis)","ispublic":1,"isfriend":0,"isfamily":0}]},"stat":"ok"}