{"photos":{"page":1,"pages":32,"perpage":100,"total":3105,"photo":[{"id":"52781258823","owner":"107784905@N04","secret":"5ae5b61ae7","server":"65535","farm":66,"title":"Petite Buse - Rancho Naturalista\/Cartago\/Costa Rica_20211129_001-1","ispublic":1,"isfriend":0,"isfamily":0},{"id":"52770449350","owner":"76617062@N08","secret":"5d90609788","server":"65535","farm":66,"title":"1.02853 Petite Buse \/ Buteo platypterus platypterus \/ Broad-winged Hawk","ispublic":1,"isfriend":0,"isfamily":0},{"id":"52764045701","owner":"190773540@N03","secret":"ea454d6270","server":"65535","farm":66,"title":"Broad-winged Hawk","ispublic":1,"isfriend":0,"isfamily":0},{"id":"52750790274","owner":"44991043@N06","secret":"277b19a07f","server":"65535","farm":66,"title":"Broad-winged Hawk","ispublic":1,"isfriend":0,"isfamily":0},{"id":"52749596996","owner":"81269484@N00","secret":"3905fa1f1e","server":"65535","farm":66,"title":"Broad-winged hawk","ispublic":1,"isfriend":0,"isfamily":0},{"id":"52672233137","owner":"37493716@N02","secret":"10a04143f3","server":"65535","farm":66,"title":"Buteo platypterus - Broad-lined Hawk","ispublic":1,"isfriend":0,"isfamily":0},{"id":"52668894392","owner":"187678271@N07","secret":"b16f8de2e1","server":"65535","farm":66,"title":"Broad-winged Hawk \/ Buteo platypterus","ispublic":1,"isfriend":0,"isfamily":0},{"id":"52665406177","owner":"136180232@N08","secret":"edb6647886","server":"65535","farm":66,"title":"Broad-winged Hawk (Buteo platypterus) JTE_2104","ispublic":1,"isfriend":0,"isfamily":0},{"id":"52666340705","owner":"136180232@N08","secret":"06f98a209a","server":"65535","farm":66,"title":"Broad-winged Hawk (Buteo platypterus) JTE_2101","ispublic":1,"isfriend":0,"isfamily":0},{"id":"52666197784","owner":"136180232@N08","secret":"abda070f2f","server":"65535","farm":66,"title":"Broad-winged Hawk (Buteo platypterus) JTE_2100","ispublic":1,"isfriend":0,"isfamily":0},{"id":"52656711963","owner":"12639178@N07","secret":"8466513c55","server":"65535","farm":66,"title":"Breitfl\u00fcgelbussard","ispublic":1,"isfriend":0,"isfamily":0},{"id":"52653934053","owner":"183736567@N07","secret":"20e98edc68","server":"65535","farm":66,"title":"Broad-winged Hawk (Buteo platypterus) stretching","ispublic":1,"isfriend":0,"isfamily":0},{"id":"52612346566","owner":"43272765@N04","secret":"0b20717911","server":"65535","farm":66,"title":"Probably Broad-winged Hawk - Buteo platypterus","ispublic":1,"isfriend":0,"isfamily":0},{"id":"52609764532","owner":"124450184@N05","secret":"bf0f5b17c5","server":"65535","farm":66,"title":"Broad Winged Hawk","ispublic":1,"isfriend":0,"isfamily":0},{"id":"52604473106","owner":"181824639@N02","secret":"94a1def600","server":"65535","farm":66,"title":"Petite buse ( Buteo platypterus )","ispublic":1,"isfriend":0,"isfamily":0},{"id":"52580327241","owner":"153973412@N04","secret":"92c7f1f70d","server":"65535","farm":66,"title":"Broad-winged hawk-Buteo platypterus","ispublic":1,"isfriend":0,"isfamily":0},{"id":"52574192422","owner":"79097894@N04","secret":"b9048c5a40","server":"65535","farm":66,"title":"Broad-winged Hawk","ispublic":1,"isfriend":0,"isfamily":0},{"id":"52560880499","owner":"196840457@N07","secret":"ef9e116991","server":"65535","farm":66,"title":"Hawk, Broad-winged Soaring","ispublic":1,"isfriend":0,"isfamily":0},{"id":"52541939359","owner":"69947563@N07","secret":"88ac729f8e","server":"65535","farm":66,"title":"Broad-winged Hawk - Cota, Cundinamarca, Colombia","ispublic":1,"isfriend":0,"isfamily":0},{"id":"52541618391","owner":"48938938@N04","secret":"6bb87aa053","server":"65535","farm":66,"title":"Broad-winged Hawk_Buteo platypterus_Ascanio_Costa Rica_DZ3A5854","ispublic":1,"isfriend":0,"isfamily":0},{"id":"52518495933","owner":"28631427@N00","secret":"7f525616b4","server":"65535","farm":66,"title":"Broad-winged Hawks 1","ispublic":1,"isfriend":0,"isfamily":0},{"id":"52518218299","owner":"28631427@N00","secret":"9e7751024c","server":"65535","farm":66,"title":"Broad-winged Hawks 4","ispublic":1,"isfriend":0,"isfamily":0},{"id":"52511500345","owner":"36274920@N05","secret":"3175db7449","server":"65535","farm":66,"title":"Panam\u00e1 - Novembre 2022","ispublic":1,"isfriend":0,"isfamily":0},{"id":"52510536232","owner":"36274920@N05","secret":"3d50916247","server":"65535","farm":66,"title":"Panam\u00e1 - Novembre 2022","ispublic":1,"isfriend":0,"isfamily":0},{"id":"52495747210","owner":"86666094@N00","secret":"bdae49efcc","server":"65535","farm":66,"title":"Broad-winged Hawk 2","ispublic":1,"isfriend":0,"isfamily":0},{"id":"52493302591","owner":"39445433@N02","secret":"40dae22095","server":"65535","farm":66,"title":"Broad-winged Hawks","ispublic":1,"isfriend":0,"isfamily":0},{"id":"52493155636","owner":"103263246@N06","secret":"bf87733320","server":"65535","farm":66,"title":"Buteo platypterus. Gavil\u00e1n Coludo","ispublic":1,"isfriend":0,"isfamily":0},{"id":"52493101406","owner":"103263246@N06","secret":"4307c4f306","server":"65535","farm":66,"title":"Buteo platypterus. Gavil\u00e1n Coludo","ispublic":1,"isfriend":0,"isfamily":0},{"id":"52490788653","owner":"181824639@N02","secret":"e2f9d61751","server":"65535","farm":66,"title":"Petite buse ( Buteo platypterus )","ispublic":1,"isfriend":0,"isfamily":0},{"id":"52486367913","owner":"196567058@N02","secret":"30d4856aa0","server":"65535","farm":66,"title":"Buteo platypterus o Gavil\u00e1n aliancho","ispublic":1,"isfriend":0,"isfamily":0},{"id":"52485823641","owner":"196567058@N02","secret":"5ff958a99d","server":"65535","farm":66,"title":"Buteo platypterus o Gavil\u00e1n aliancho","ispublic":1,"isfriend":0,"isfamily":0},{"id":"52486284940","owner":"196567058@N02","secret":"cfa36c40bf","server":"65535","farm":66,"title":"Buteo platypterus o Gavil\u00e1n aliancho","ispublic":1,"isfriend":0,"isfamily":0},{"id":"52485326767","owner":"196567058@N02","secret":"02f0f83c66","server":"65535","farm":66,"title":"Buteo platypterus o Gavil\u00e1n aliancho","ispublic":1,"isfriend":0,"isfamily":0},{"id":"52479976198","owner":"30638967@N03","secret":"90a539c0e8","server":"65535","farm":66,"title":"Broad-winged Hawk DSC_6042","ispublic":1,"isfriend":0,"isfamily":0},{"id":"52455186369","owner":"132508209@N08","secret":"46992d66c9","server":"65535","farm":66,"title":"Broad-winged Hawk (Buteo platypterus)","ispublic":1,"isfriend":0,"isfamily":0},{"id":"52455186319","owner":"132508209@N08","secret":"b539b5b741","server":"65535","farm":66,"title":"Broad-winged Hawk (Buteo platypterus)","ispublic":1,"isfriend":0,"isfamily":0},{"id":"52455186304","owner":"132508209@N08","secret":"00e2c66127","server":"65535","farm":66,"title":"Broad-winged Hawk (Buteo platypterus)","ispublic":1,"isfriend":0,"isfamily":0},{"id":"52425078190","owner":"70295563@N00","secret":"597380d61f","server":"65535","farm":66,"title":"Eye in the sky","ispublic":1,"isfriend":0,"isfamily":0},{"id":"52423774251","owner":"52170431@N04","secret":"5c4b2428e2","server":"65535","farm":66,"title":"Broad-winged Hawk (Buteo platypterus platypterus), light juvenile DSD_1955","ispublic":1,"isfriend":0,"isfamily":0},{"id":"52424293698","owner":"52170431@N04","secret":"99ca48a6ed","server":"65535","farm":66,"title":"Broad-winged Hawk (Buteo platypterus platypterus), light juvenile DSD_1962","ispublic":1,"isfriend":0,"isfamily":0},{"id":"52424232060","owner":"52170431@N04","secret":"768fc047f6","server":"65535","farm":66,"title":"Broad-winged Hawk (Buteo platypterus platypterus), light juvenile DSD_1965","ispublic":1,"isfriend":0,"isfamily":0},{"id":"52423268597","owner":"52170431@N04","secret":"d698dd4159","server":"65535","farm":66,"title":"Broad-winged Hawk (Buteo platypterus platypterus), light juvenile DSD_1970","ispublic":1,"isfriend":0,"isfamily":0},{"id":"52422042558","owner":"52170431@N04","secret":"1365eb6e11","server":"65535","farm":66,"title":"Broad-winged Hawk (Buteo platypterus platypterus), light juvenile DSD_1956","ispublic":1,"isfriend":0,"isfamily":0},{"id":"52418071410","owner":"181824639@N02","secret":"2a8aeaeb0c","server":"65535","farm":66,"title":"Petite buse ( Buteo platypterus )","ispublic":1,"isfriend":0,"isfamily":0},{"id":"52384341997","owner":"125645386@N04","secret":"7e1437339c","server":"65535","farm":66,"title":"Broad-winged Hawk - Petite buse - Buteo platypterus","ispublic":1,"isfriend":0,"isfamily":0},{"id":"52370962459","owner":"48311154@N02","secret":"6520205742","server":"65535","farm":66,"title":"Migration commotion - Broad-winged Hawks headed south for the winter","ispublic":1,"isfriend":0,"isfamily":0},{"id":"52369707852","owner":"48311154@N02","secret":"da99c01cda","server":"65535","farm":66,"title":"Broad-winged Hawk","ispublic":1,"isfriend":0,"isfamily":0},{"id":"52365825688","owner":"126805965@N03","secret":"5844a5c26a","server":"65535","farm":66,"title":"Record shot of Juvenile Broad-winged Hawk (Buteo platypterus) - West Vancouver","ispublic":1,"isfriend":0,"isfamily":0},{"id":"52365145194","owner":"13451078@N03","secret":"8f79f21e30","server":"65535","farm":66,"title":"Broad-winged Hawk   (Buteo platypterus)","ispublic":1,"isfriend":0,"isfamily":0},{"id":"52339331930","owner":"45340210@N05","secret":"e86b3c67db","server":"65535","farm":66,"title":"Broad-winged Hawk Juvenile 8_26_22","ispublic":1,"isfriend":0,"isfamily":0},{"id":"52338579316","owner":"24309230@N03","secret":"08bd433ac4","server":"65535","farm":66,"title":"Broad-winged Hawk","ispublic":1,"isfriend":0,"isfamily":0},{"id":"52333812880","owner":"181824639@N02","secret":"3a3392c0ba","server":"65535","farm":66,"title":"Petite buse ( Buteo platypterus )","ispublic":1,"isfriend":0,"isfamily":0},{"id":"52330332355","owner":"7261670@N03","secret":"e47c5ea6c7","server":"65535","farm":66,"title":"Broad-winged Hawk","ispublic":1,"isfriend":0,"isfamily":0},{"id":"52292619457","owner":"124450184@N05","secret":"669c4cd01b","server":"65535","farm":66,"title":"Broad Winged Hawk","ispublic":1,"isfriend":0,"isfamily":0},{"id":"52252564140","owner":"126601468@N05","secret":"d9712c6e2b","server":"65535","farm":66,"title":"Petite Buse \/ Broad-winged hawk","ispublic":1,"isfriend":0,"isfamily":0},{"id":"52245023733","owner":"76617062@N08","secret":"717c8f9bd2","server":"65535","farm":66,"title":"1.02853 Petite Buse \/ Buteo platypterus platypterus \/ Broad-winged Hawk","ispublic":1,"isfriend":0,"isfamily":0},{"id":"52194590350","owner":"119468907@N03","secret":"cf01676209","server":"65535","farm":66,"title":"Petite Buse_R5DJ5714","ispublic":1,"isfriend":0,"isfamily":0},{"id":"52194098251","owner":"119468907@N03","secret":"f72a9d8ca3","server":"65535","farm":66,"title":"Petite Buse_R5DJ5764","ispublic":1,"isfriend":0,"isfamily":0},{"id":"52194360064","owner":"119468907@N03","secret":"85b3d0c5f8","server":"65535","farm":66,"title":"Petite Buse_R5DJ5799","ispublic":1,"isfriend":0,"isfamily":0},{"id":"52194589310","owner":"119468907@N03","secret":"d09e29021b","server":"65535","farm":66,"title":"Petite Buse_R5DJ5819","ispublic":1,"isfriend":0,"isfamily":0},{"id":"52199199840","owner":"119468907@N03","secret":"6f240f6dc8","server":"0","farm":0,"title":"Petite Buse_5358","ispublic":1,"isfriend":0,"isfamily":0},{"id":"52194223172","owner":"119468907@N03","secret":"86bd715a06","server":"0","farm":0,"title":"Petite Buse_5834","ispublic":1,"isfriend":0,"isfamily":0},{"id":"52197552357","owner":"119468907@N03","secret":"a788bfaf77","server":"0","farm":0,"title":"Petite Buse_4922","ispublic":1,"isfriend":0,"isfamily":0},{"id":"52195369028","owner":"119468907@N03","secret":"49b4fb1f07","server":"0","farm":0,"title":"Petite Buse_5685","ispublic":1,"isfriend":0,"isfamily":0},{"id":"52177403268","owner":"140734051@N08","secret":"423b402763","server":"65535","farm":66,"title":"\u0428\u0438\u0440\u043e\u043a\u043e\u043a\u0440\u044b\u043b\u044b\u0439 \u043a\u0430\u043d\u044e\u043a, Buteo platypterus platypterus, Broad-winged Hawk","ispublic":1,"isfriend":0,"isfamily":0},{"id":"52177403128","owner":"140734051@N08","secret":"6063f838b1","server":"65535","farm":66,"title":"\u0428\u0438\u0440\u043e\u043a\u043e\u043a\u0440\u044b\u043b\u044b\u0439 \u043a\u0430\u043d\u044e\u043a, Buteo platypterus platypterus, Broad-winged Hawk","ispublic":1,"isfriend":0,"isfamily":0},{"id":"52177650969","owner":"140734051@N08","secret":"5c2bd4f8f3","server":"65535","farm":66,"title":"\u0428\u0438\u0440\u043e\u043a\u043e\u043a\u0440\u044b\u043b\u044b\u0439 \u043a\u0430\u043d\u044e\u043a, Buteo platypterus platypterus, Broad-winged Hawk","ispublic":1,"isfriend":0,"isfamily":0},{"id":"52125876576","owner":"124450184@N05","secret":"19ec5ba870","server":"65535","farm":66,"title":"Broad Winged Hawk","ispublic":1,"isfriend":0,"isfamily":0},{"id":"52561058105","owner":"196840457@N07","secret":"c2cd407069","server":"65535","farm":66,"title":"Hawk, Broad-winged","ispublic":1,"isfriend":0,"isfamily":0},{"id":"52526110353","owner":"195990246@N03","secret":"d2f293f793","server":"65535","farm":66,"title":"EOS 80D_66245_pn","ispublic":1,"isfriend":0,"isfamily":0},{"id":"52525093357","owner":"195990246@N03","secret":"1105917684","server":"65535","farm":66,"title":"EOS 80D_66241_pn","ispublic":1,"isfriend":0,"isfamily":0},{"id":"52526037620","owner":"195990246@N03","secret":"c99fff76a6","server":"65535","farm":66,"title":"EOS 80D_67334_pn","ispublic":1,"isfriend":0,"isfamily":0},{"id":"52525835504","owner":"195990246@N03","secret":"29fc152ca6","server":"65535","farm":66,"title":"EOS 80D_67343_pn","ispublic":1,"isfriend":0,"isfamily":0},{"id":"52526036725","owner":"195990246@N03","secret":"ae88678b16","server":"65535","farm":66,"title":"EOS 80D_64695_pn","ispublic":1,"isfriend":0,"isfamily":0},{"id":"52518425285","owner":"28631427@N00","secret":"0cd02d2a42","server":"65535","farm":66,"title":"Broad-winged Hawks 2","ispublic":1,"isfriend":0,"isfamily":0},{"id":"52517470162","owner":"28631427@N00","secret":"a0661d019c","server":"65535","farm":66,"title":"Broad-winged Hawks 3","ispublic":1,"isfriend":0,"isfamily":0},{"id":"52518491808","owner":"28631427@N00","secret":"0cd017f52d","server":"65535","farm":66,"title":"Broad-winged Hawks 5","ispublic":1,"isfriend":0,"isfamily":0},{"id":"52496464668","owner":"190274181@N03","secret":"6a664746c1","server":"65535","farm":66,"title":"gavilan aludo Broad-winged hawk \ud83d\udd2cbuteo Platypterus","ispublic":1,"isfriend":0,"isfamily":0},{"id":"52494789612","owner":"86666094@N00","secret":"c37dc09dc1","server":"65535","farm":66,"title":"Broad-winged Hawk 3","ispublic":1,"isfriend":0,"isfamily":0},{"id":"52494024263","owner":"39445433@N02","secret":"4ee12372c6","server":"65535","farm":66,"title":"Red-Shouldered Hawk","ispublic":1,"isfriend":0,"isfamily":0},{"id":"52493772300","owner":"39445433@N02","secret":"09b81a6304","server":"65535","farm":66,"title":"AJ9A7334","ispublic":1,"isfriend":0,"isfamily":0},{"id":"52492821192","owner":"39445433@N02","secret":"ea3a61fdbf","server":"65535","farm":66,"title":"Broad-winged Hawks","ispublic":1,"isfriend":0,"isfamily":0},{"id":"52493305351","owner":"39445433@N02","secret":"8894cd65c6","server":"65535","farm":66,"title":"Broad-winged Hawks","ispublic":1,"isfriend":0,"isfamily":0},{"id":"52487483011","owner":"39445433@N02","secret":"028bc3b0bd","server":"65535","farm":66,"title":"Broad-Winged Hawk","ispublic":1,"isfriend":0,"isfamily":0},{"id":"52238646328","owner":"196130710@N04","secret":"e79437c3c6","server":"65535","farm":66,"title":"Buteo platypterus (por Adriana_Moyano)","ispublic":1,"isfriend":0,"isfamily":0},{"id":"52227820344","owner":"36685968@N00","secret":"41cf2b1a61","server":"65535","farm":66,"title":"Broad-winged Hawk (Buteo platypterus)","ispublic":1,"isfriend":0,"isfamily":0},{"id":"52194591405","owner":"119468907@N03","secret":"26a3a6ffc9","server":"65535","farm":66,"title":"Petite Buse_R5DJ4966","ispublic":1,"isfriend":0,"isfamily":0},{"id":"52194118973","owner":"119468907@N03","secret":"0265a56037","server":"65535","farm":66,"title":"Petite Buse_R5DJ4994","ispublic":1,"isfriend":0,"isfamily":0},{"id":"52194099696","owner":"119468907@N03","secret":"d6a20cd09d","server":"65535","farm":66,"title":"Petite Buse_R5DJ5424","ispublic":1,"isfriend":0,"isfamily":0},{"id":"52193090542","owner":"119468907@N03","secret":"08dc8df884","server":"65535","farm":66,"title":"Petite Buse_R5DJ5533","ispublic":1,"isfriend":0,"isfamily":0},{"id":"52194118373","owner":"119468907@N03","secret":"ca25fc4215","server":"65535","farm":66,"title":"Petite Buse_R5DJ5641","ispublic":1,"isfriend":0,"isfamily":0},{"id":"52194099121","owner":"119468907@N03","secret":"a6fdea68ae","server":"65535","farm":66,"title":"Petite Buse_R5DJ5662","ispublic":1,"isfriend":0,"isfamily":0},{"id":"52176373407","owner":"140734051@N08","secret":"07d401c77f","server":"65535","farm":66,"title":"\u0428\u0438\u0440\u043e\u043a\u043e\u043a\u0440\u044b\u043b\u044b\u0439 \u043a\u0430\u043d\u044e\u043a, Buteo platypterus platypterus, Broad-winged Hawk","ispublic":1,"isfriend":0,"isfamily":0},{"id":"52146579252","owner":"30638967@N03","secret":"32ecdbf400","server":"65535","farm":66,"title":"Broad-winged Hawk DSC_4935","ispublic":1,"isfriend":0,"isfamily":0},{"id":"52147615048","owner":"30638967@N03","secret":"74908f358e","server":"65535","farm":66,"title":"Broad-winged Hawk DSC_4954","ispublic":1,"isfriend":0,"isfamily":0},{"id":"52147597756","owner":"30638967@N03","secret":"9fda98bbb7","server":"65535","farm":66,"title":"Broad-winged Hawk DSC_4975","ispublic":1,"isfriend":0,"isfamily":0},{"id":"52142016552","owner":"185922812@N05","secret":"44e01ec912","server":"65535","farm":66,"title":"Pla\u010diasparnis suopis, lot. buteo platypterus, broad-winged","ispublic":1,"isfriend":0,"isfamily":0},{"id":"52124016083","owner":"91827451@N06","secret":"bd66ba33c0","server":"65535","farm":66,"title":"DSC_0658","ispublic":1,"isfriend":0,"isfamily":0},{"id":"52124226694","owner":"91827451@N06","secret":"6f28c6176b","server":"65535","farm":66,"title":"DSC_0671","ispublic":1,"isfriend":0,"isfamily":0},{"id":"52124014438","owner":"91827451@N06","secret":"db43816404","server":"65535","farm":66,"title":"DSC_0684","ispublic":1,"isfriend":0,"isfamily":0}]},"stat":"ok"}