{"photos":{"page":1,"pages":31,"perpage":100,"total":3058,"photo":[{"id":"52710804400","owner":"24608578@N00","secret":"458429516e","server":"65535","farm":66,"title":"Brown thrasher (Toxostoma rufum)","ispublic":1,"isfriend":0,"isfamily":0},{"id":"52710648559","owner":"24608578@N00","secret":"67f34eef4c","server":"65535","farm":66,"title":"Brown thrasher (Toxostoma rufum)","ispublic":1,"isfriend":0,"isfamily":0},{"id":"52708165546","owner":"24608578@N00","secret":"fc1523ae9a","server":"65535","farm":66,"title":"Brown thrasher (Toxostoma rufum) with captured grasshopper (Melanoplus bivittatus)","ispublic":1,"isfriend":0,"isfamily":0},{"id":"52707640677","owner":"24608578@N00","secret":"df5eb30b12","server":"65535","farm":66,"title":"Brown thrasher (Toxostoma rufum)","ispublic":1,"isfriend":0,"isfamily":0},{"id":"52704967081","owner":"69015080@N00","secret":"e001357a1c","server":"65535","farm":66,"title":"Brown thrasher","ispublic":1,"isfriend":0,"isfamily":0},{"id":"52696732852","owner":"10260434@N03","secret":"aa77f8b252","server":"65535","farm":66,"title":"Brown Thrasher-25Dec22","ispublic":1,"isfriend":0,"isfamily":0},{"id":"52697247091","owner":"10260434@N03","secret":"be82d7b469","server":"65535","farm":66,"title":"Brown Thrasher-25Dec22","ispublic":1,"isfriend":0,"isfamily":0},{"id":"52697731543","owner":"10260434@N03","secret":"3fd420479d","server":"65535","farm":66,"title":"Brown Thrasher at waterdish-26Dec22","ispublic":1,"isfriend":0,"isfamily":0},{"id":"52647650579","owner":"49501800@N00","secret":"aaecc4f739","server":"65535","farm":66,"title":"Brown Thrasher Toxostoma rufum Rio Grande State Park and Nature Center","ispublic":1,"isfriend":0,"isfamily":0},{"id":"52643737578","owner":"23355176@N05","secret":"30fb2866ae","server":"65535","farm":66,"title":"Brown Thrasher (Toxostoma rufum)","ispublic":1,"isfriend":0,"isfamily":0},{"id":"52641647064","owner":"9243885@N07","secret":"e74b6e31e0","server":"65535","farm":66,"title":"2023_01_21_5DMk4_90791","ispublic":1,"isfriend":0,"isfamily":0},{"id":"52639572272","owner":"196558678@N02","secret":"b852963c17","server":"65535","farm":66,"title":"Brown Trasher (Toxostoma rufum)","ispublic":1,"isfriend":0,"isfamily":0},{"id":"52635145063","owner":"145466593@N08","secret":"93fc02bb42","server":"65535","farm":66,"title":"Brown Thrasher","ispublic":1,"isfriend":0,"isfamily":0},{"id":"52626745679","owner":"64606186@N00","secret":"e65d33712f","server":"65535","farm":66,"title":"Brown thrasher","ispublic":1,"isfriend":0,"isfamily":0},{"id":"52619917388","owner":"186795450@N08","secret":"7cf28e34d5","server":"65535","farm":66,"title":"Brown Thrasher","ispublic":1,"isfriend":0,"isfamily":0},{"id":"52591237421","owner":"76288515@N07","secret":"ba009e6bb0","server":"65535","farm":66,"title":"Brown Thrahser Toxostoma rufum","ispublic":1,"isfriend":0,"isfamily":0},{"id":"52591750833","owner":"76288515@N07","secret":"c7cea1b6fd","server":"65535","farm":66,"title":"Brown Thrahser Toxostoma rufum","ispublic":1,"isfriend":0,"isfamily":0},{"id":"52590749937","owner":"76288515@N07","secret":"212e3d5f71","server":"65535","farm":66,"title":"Brown Thrahser Toxostoma rufum","ispublic":1,"isfriend":0,"isfamily":0},{"id":"52591494874","owner":"76288515@N07","secret":"ce034e7bc7","server":"65535","farm":66,"title":"Brown Thrahser Toxostoma rufum","ispublic":1,"isfriend":0,"isfamily":0},{"id":"52591750683","owner":"76288515@N07","secret":"9714ff9a77","server":"65535","farm":66,"title":"Brown Thrahser Toxostoma rufum","ispublic":1,"isfriend":0,"isfamily":0},{"id":"52590749842","owner":"76288515@N07","secret":"a7c457ac0b","server":"65535","farm":66,"title":"Brown Thrahser Toxostoma rufum","ispublic":1,"isfriend":0,"isfamily":0},{"id":"52579860727","owner":"153973412@N04","secret":"783ff82089","server":"65535","farm":66,"title":"Brown Thrasher-Toxostoma rufum, Iowa City, IA","ispublic":1,"isfriend":0,"isfamily":0},{"id":"52559942249","owner":"196840457@N07","secret":"25a01a02ae","server":"65535","farm":66,"title":"Brown Thrasher","ispublic":1,"isfriend":0,"isfamily":0},{"id":"52557965730","owner":"67164820@N06","secret":"78db318148","server":"65535","farm":66,"title":"brown thrasher 2","ispublic":1,"isfriend":0,"isfamily":0},{"id":"52557790059","owner":"67164820@N06","secret":"e232795e73","server":"65535","farm":66,"title":"brown thrasher 3","ispublic":1,"isfriend":0,"isfamily":0},{"id":"52557042707","owner":"67164820@N06","secret":"d73a85c9a1","server":"65535","farm":66,"title":"brown thrasher 4","ispublic":1,"isfriend":0,"isfamily":0},{"id":"52557112240","owner":"38514062@N03","secret":"093e4fb9a4","server":"65535","farm":66,"title":"Brown Thrasher (Toxostoma rufum)","ispublic":1,"isfriend":0,"isfamily":0},{"id":"52534069974","owner":"196558678@N02","secret":"b843a7ab32","server":"65535","farm":66,"title":"Brown Thrasher (Toxostoma Rufum)","ispublic":1,"isfriend":0,"isfamily":0},{"id":"52485115661","owner":"44034115@N08","secret":"3b439cde9e","server":"65535","farm":66,"title":"Brown Thrasher Berry Buffet","ispublic":1,"isfriend":0,"isfamily":0},{"id":"52478848761","owner":"42264328@N00","secret":"5c900715c3","server":"65535","farm":66,"title":"Rowdy thrashers","ispublic":1,"isfriend":0,"isfamily":0},{"id":"52473369780","owner":"45083607@N06","secret":"c01781d3e2","server":"65535","farm":66,"title":"Brown Thrasher At Sundown","ispublic":1,"isfriend":0,"isfamily":0},{"id":"52387119942","owner":"49114357@N08","secret":"d39e1595f4","server":"65535","farm":66,"title":"Brown Thrasher","ispublic":1,"isfriend":0,"isfamily":0},{"id":"52448085220","owner":"70295563@N00","secret":"90a1159056","server":"65535","farm":66,"title":"Eye to eye","ispublic":1,"isfriend":0,"isfamily":0},{"id":"52438817873","owner":"38514062@N03","secret":"ec88ec8b3f","server":"65535","farm":66,"title":"Brown Thrasher (Toxostoma rufum)","ispublic":1,"isfriend":0,"isfamily":0},{"id":"52411237014","owner":"59770980@N02","secret":"689f6b00f4","server":"65535","farm":66,"title":"M\u00f3sku\u00ferasi-Brown Thrasher-Toxostoma rufum","ispublic":1,"isfriend":0,"isfamily":0},{"id":"52387401193","owner":"85277889@N08","secret":"94b4fb2728","server":"65535","farm":66,"title":"Brown Thrasher (Toxostoma rufum) 2022-09-04 (1a)","ispublic":1,"isfriend":0,"isfamily":0},{"id":"52382989117","owner":"48014585@N00","secret":"1d46d8b117","server":"65535","farm":66,"title":"Brown Thrasher","ispublic":1,"isfriend":0,"isfamily":0},{"id":"52382988922","owner":"48014585@N00","secret":"18ede0a936","server":"65535","farm":66,"title":"Brown Thrasher","ispublic":1,"isfriend":0,"isfamily":0},{"id":"52366838213","owner":"39511843@N07","secret":"2daf4933ab","server":"65535","farm":66,"title":"Brown Thrasher (Toxostoma rufum) bathing-1-3283-Edit","ispublic":1,"isfriend":0,"isfamily":0},{"id":"52366924289","owner":"39511843@N07","secret":"fc2c128eb9","server":"65535","farm":66,"title":"Brown Thrasher (Toxostoma rufum), bathing-2-","ispublic":1,"isfriend":0,"isfamily":0},{"id":"52298864013","owner":"49114357@N08","secret":"e934fd5f57","server":"65535","farm":66,"title":"Brown Thrasher","ispublic":1,"isfriend":0,"isfamily":0},{"id":"52324340328","owner":"92361032@N05","secret":"cf1edd4814","server":"65535","farm":66,"title":"Brown Thrasher \/ Moqueur roux ( Diane )","ispublic":1,"isfriend":0,"isfamily":0},{"id":"52309490658","owner":"28631427@N00","secret":"7bfb7b724c","server":"65535","farm":66,"title":"Brown Thrasher","ispublic":1,"isfriend":0,"isfamily":0},{"id":"52306654730","owner":"10260434@N03","secret":"d8d8f471c7","server":"65535","farm":66,"title":"Brown Thrasher-27May22","ispublic":1,"isfriend":0,"isfamily":0},{"id":"52305386387","owner":"10260434@N03","secret":"8a5d3e09e7","server":"65535","farm":66,"title":"Brown Thrasher-25May2022","ispublic":1,"isfriend":0,"isfamily":0},{"id":"52306556203","owner":"10260434@N03","secret":"de8563315f","server":"65535","farm":66,"title":"Brown Thrasher-25May2022","ispublic":1,"isfriend":0,"isfamily":0},{"id":"52305988296","owner":"100108154@N02","secret":"789064408b","server":"65535","farm":66,"title":"Someone Just Had A Bath","ispublic":1,"isfriend":0,"isfamily":0},{"id":"52305988301","owner":"100108154@N02","secret":"08083b2df0","server":"65535","farm":66,"title":"Shaking Those Tail Feathers","ispublic":1,"isfriend":0,"isfamily":0},{"id":"52278073381","owner":"10260434@N03","secret":"5b185dfca8","server":"65535","farm":66,"title":"Brown Thrasher pair-11Apr22","ispublic":1,"isfriend":0,"isfamily":0},{"id":"52154212332","owner":"49114357@N08","secret":"47a547ffe6","server":"65535","farm":66,"title":"Brown Thrasher","ispublic":1,"isfriend":0,"isfamily":0},{"id":"52258499875","owner":"80648919@N08","secret":"9f2c0fc1a3","server":"65535","farm":66,"title":"Brown Thrasher","ispublic":1,"isfriend":0,"isfamily":0},{"id":"52278127577","owner":"134270033@N06","secret":"4beae67254","server":"0","farm":0,"title":"Behaviour Vid Doc","ispublic":1,"isfriend":0,"isfamily":0},{"id":"52279104416","owner":"134270033@N06","secret":"cb46ece063","server":"65535","farm":66,"title":"Could Be Tricky ID","ispublic":1,"isfriend":0,"isfamily":0},{"id":"52279365659","owner":"134270033@N06","secret":"03481056af","server":"65535","farm":66,"title":"Adult","ispublic":1,"isfriend":0,"isfamily":0},{"id":"52247536502","owner":"45340210@N05","secret":"11b03e9ca8","server":"65535","farm":66,"title":"In The Birdblind_Brown Thrasher","ispublic":1,"isfriend":0,"isfamily":0},{"id":"52242225900","owner":"23020855@N03","secret":"753ebd3325","server":"65535","farm":66,"title":"Brown Thrasher - Carter's Lake, GA","ispublic":1,"isfriend":0,"isfamily":0},{"id":"52234128844","owner":"53217733@N00","secret":"55679cfcaa","server":"65535","farm":66,"title":"Brown Thrasher","ispublic":1,"isfriend":0,"isfamily":0},{"id":"52231656523","owner":"193265066@N04","secret":"f4f966a19c","server":"65535","farm":66,"title":"Moqueur Roux \/ Toxostoma rufum \/ Brown Trasher","ispublic":1,"isfriend":0,"isfamily":0},{"id":"52227113848","owner":"12639178@N07","secret":"326f8254da","server":"65535","farm":66,"title":"Rotspottdrossel m Brutrevier unterwegs","ispublic":1,"isfriend":0,"isfamily":0},{"id":"52226185449","owner":"44034115@N08","secret":"622047a377","server":"65535","farm":66,"title":"Meet a Brown Thrasher at Bombay Hook","ispublic":1,"isfriend":0,"isfamily":0},{"id":"52222202738","owner":"12639178@N07","secret":"04dc6b9177","server":"65535","farm":66,"title":"Rotspottdrossel direkt am Fu\u00dfweg","ispublic":1,"isfriend":0,"isfamily":0},{"id":"52218045456","owner":"12639178@N07","secret":"2841feb164","server":"65535","farm":66,"title":"Mit Futter unterwegs","ispublic":1,"isfriend":0,"isfamily":0},{"id":"52215892072","owner":"84169650@N07","secret":"6e9c2fd2d3","server":"65535","farm":66,"title":"Brown Thrasher","ispublic":1,"isfriend":0,"isfamily":0},{"id":"52214834647","owner":"130605131@N08","secret":"466c353299","server":"65535","farm":66,"title":"IMG_9987","ispublic":1,"isfriend":0,"isfamily":0},{"id":"52214834627","owner":"130605131@N08","secret":"07a70b3c6c","server":"65535","farm":66,"title":"IMG_9988","ispublic":1,"isfriend":0,"isfamily":0},{"id":"52215278823","owner":"12639178@N07","secret":"50ddb2a641","server":"65535","farm":66,"title":"Eine Libelle f\u00fcr den Nachwuchs","ispublic":1,"isfriend":0,"isfamily":0},{"id":"52214259457","owner":"12639178@N07","secret":"0b3a0318a8","server":"65535","farm":66,"title":"Weithin h\u00f6rbar singt die Rotspottdrossel ihr Lied","ispublic":1,"isfriend":0,"isfamily":0},{"id":"52214377680","owner":"12639178@N07","secret":"b3f581a835","server":"65535","farm":66,"title":"Die Jungen brauchen Nahrung","ispublic":1,"isfriend":0,"isfamily":0},{"id":"52214171484","owner":"12639178@N07","secret":"a99b790c03","server":"65535","farm":66,"title":"Nach der Gefiederpflege","ispublic":1,"isfriend":0,"isfamily":0},{"id":"52213914153","owner":"12639178@N07","secret":"a019165fbf","server":"65535","farm":66,"title":"Kuscheln in der Morgensonne","ispublic":1,"isfriend":0,"isfamily":0},{"id":"52213046319","owner":"33277678@N03","secret":"1c9c9b76f7","server":"65535","farm":66,"title":"Florida '22","ispublic":1,"isfriend":0,"isfamily":0},{"id":"52210950996","owner":"12639178@N07","secret":"d21d60cb82","server":"65535","farm":66,"title":"Ihr Gesang ist weithin zu h\u00f6ren","ispublic":1,"isfriend":0,"isfamily":0},{"id":"52197882986","owner":"86191812@N07","secret":"516642ff4d","server":"65535","farm":66,"title":"Brown Thrasher (Toxostoma rufum)","ispublic":1,"isfriend":0,"isfamily":0},{"id":"52193486738","owner":"67164820@N06","secret":"d42dde9a56","server":"65535","farm":66,"title":"thrasher 1","ispublic":1,"isfriend":0,"isfamily":0},{"id":"52193721924","owner":"67164820@N06","secret":"4bd3df8bff","server":"65535","farm":66,"title":"thrasher 2","ispublic":1,"isfriend":0,"isfamily":0},{"id":"52282036935","owner":"134270033@N06","secret":"5d069ca2b5","server":"65535","farm":66,"title":"HFF :: Happy Fence Friday","ispublic":1,"isfriend":0,"isfamily":0},{"id":"52195926476","owner":"134270033@N06","secret":"ee92684a21","server":"65535","farm":66,"title":"HFF :: Happy Fence Friday","ispublic":1,"isfriend":0,"isfamily":0},{"id":"52110648388","owner":"49114357@N08","secret":"a7264b2dae","server":"65535","farm":66,"title":"Brown Thrasher","ispublic":1,"isfriend":0,"isfamily":0},{"id":"52177313139","owner":"119787485@N07","secret":"5257da1ea0","server":"65535","farm":66,"title":"Brown Thrasher (Toxostoma rufum longicauda) - 20220526-03","ispublic":1,"isfriend":0,"isfamily":0},{"id":"52173375903","owner":"10260434@N03","secret":"3f6af274e9","server":"65535","farm":66,"title":"8Brown Thrasher-12Apr22","ispublic":1,"isfriend":0,"isfamily":0},{"id":"52172333227","owner":"10260434@N03","secret":"11483d90e7","server":"65535","farm":66,"title":"Brown Thrasher-27Apr22","ispublic":1,"isfriend":0,"isfamily":0},{"id":"52173347821","owner":"10260434@N03","secret":"e4542833ae","server":"65535","farm":66,"title":"Brown Thrasher_28Apr2022","ispublic":1,"isfriend":0,"isfamily":0},{"id":"52172099002","owner":"10260434@N03","secret":"9f50376b51","server":"65535","farm":66,"title":"Brown Thrasher-10Apr22","ispublic":1,"isfriend":0,"isfamily":0},{"id":"52170769499","owner":"10260434@N03","secret":"823988ca34","server":"65535","farm":66,"title":"Brown Thrasher-29Mar22","ispublic":1,"isfriend":0,"isfamily":0},{"id":"52169443092","owner":"10260434@N03","secret":"87e54d53c1","server":"65535","farm":66,"title":"Brown Thrasher-28Mar22","ispublic":1,"isfriend":0,"isfamily":0},{"id":"52170158321","owner":"10260434@N03","secret":"367d67887d","server":"65535","farm":66,"title":"Brown Thrasher pair-27Mar22","ispublic":1,"isfriend":0,"isfamily":0},{"id":"52168992048","owner":"10260434@N03","secret":"6a3fc9611a","server":"65535","farm":66,"title":"Brown Thrasher-14Mar22","ispublic":1,"isfriend":0,"isfamily":0},{"id":"52168936621","owner":"10260434@N03","secret":"22f0855ebc","server":"65535","farm":66,"title":"Brown Thrasher-12Mar22","ispublic":1,"isfriend":0,"isfamily":0},{"id":"52169174009","owner":"10260434@N03","secret":"2186d52e66","server":"65535","farm":66,"title":"Brown Thrasher pair-14Mar22","ispublic":1,"isfriend":0,"isfamily":0},{"id":"52163675921","owner":"77162239@N04","secret":"982aae8349","server":"65535","farm":66,"title":"Immature Brown Thrasher (Toxostoma rufum)","ispublic":1,"isfriend":0,"isfamily":0},{"id":"52163706214","owner":"39445433@N02","secret":"6668d1817c","server":"65535","farm":66,"title":"Thrasher","ispublic":1,"isfriend":0,"isfamily":0},{"id":"52163466791","owner":"39445433@N02","secret":"e1e4be0f6f","server":"65535","farm":66,"title":"Thrasher","ispublic":1,"isfriend":0,"isfamily":0},{"id":"52152287627","owner":"39177293@N03","secret":"e1960f1750","server":"65535","farm":66,"title":"Brown Thrasher","ispublic":1,"isfriend":0,"isfamily":0},{"id":"52142068869","owner":"24359172@N02","secret":"a5b392a599","server":"65535","farm":66,"title":"Making His Departure","ispublic":1,"isfriend":0,"isfamily":0},{"id":"52590749977","owner":"76288515@N07","secret":"e8106b0963","server":"65535","farm":66,"title":"Brown Thrahser Toxostoma rufum","ispublic":1,"isfriend":0,"isfamily":0},{"id":"52279586795","owner":"134270033@N06","secret":"d7c7e8c370","server":"0","farm":0,"title":"Interesting Behaviour Vid Doc","ispublic":1,"isfriend":0,"isfamily":0},{"id":"52214834602","owner":"130605131@N08","secret":"b5410e14c7","server":"65535","farm":66,"title":"IMG_9989","ispublic":1,"isfriend":0,"isfamily":0},{"id":"52182932162","owner":"193265066@N04","secret":"0da8e37661","server":"65535","farm":66,"title":"Moqueur Roux \/ Toxostoma rufum \/ Brown Thrasher","ispublic":1,"isfriend":0,"isfamily":0},{"id":"52175027724","owner":"10260434@N03","secret":"460df40cb6","server":"65535","farm":66,"title":"where there's a will-7May22","ispublic":1,"isfriend":0,"isfamily":0},{"id":"52173351846","owner":"10260434@N03","secret":"cb55879534","server":"65535","farm":66,"title":"Brown Thrasher-24Apr22","ispublic":1,"isfriend":0,"isfamily":0}]},"stat":"ok"}