{"photos":{"page":1,"pages":28,"perpage":100,"total":2767,"photo":[{"id":"52774503027","owner":"50307457@N08","secret":"06b6fc745d","server":"65535","farm":66,"title":"Belgaum Birds-2 - Lanius cristatus","ispublic":1,"isfriend":0,"isfamily":0},{"id":"52775452825","owner":"50307457@N08","secret":"ebf2990d0b","server":"65535","farm":66,"title":"Belgaum Birds-3 - Lanius cristatus","ispublic":1,"isfriend":0,"isfamily":0},{"id":"52773472341","owner":"110148017@N06","secret":"d88af3ed32","server":"65535","farm":66,"title":"\u7d05\u5c3e\u4f2f\u52de Lanius cristatus","ispublic":1,"isfriend":0,"isfamily":0},{"id":"52751908722","owner":"132265704@N08","secret":"8b0067eaf0","server":"65535","farm":66,"title":"Brown Shrike","ispublic":1,"isfriend":0,"isfamily":0},{"id":"52726302069","owner":"12240837@N08","secret":"00c2f5ea77","server":"65535","farm":66,"title":"Brown Shrike (lanius cristatus)","ispublic":1,"isfriend":0,"isfamily":0},{"id":"52721656785","owner":"77128742@N06","secret":"d3e5057243","server":"65535","farm":66,"title":"Braunwu\u0308rger_Lanius cristatus-11","ispublic":1,"isfriend":0,"isfamily":0},{"id":"52717172239","owner":"9487855@N05","secret":"1f3ecf9c05","server":"65535","farm":66,"title":"20230223-_SNG4428","ispublic":1,"isfriend":0,"isfamily":0},{"id":"52716908121","owner":"9487855@N05","secret":"38228272ca","server":"65535","farm":66,"title":"20230223-_SNG4448","ispublic":1,"isfriend":0,"isfamily":0},{"id":"52716908091","owner":"9487855@N05","secret":"2b5fa3f4e4","server":"65535","farm":66,"title":"20230223-_SNG4470","ispublic":1,"isfriend":0,"isfamily":0},{"id":"52717394743","owner":"9487855@N05","secret":"e26f3fb2f6","server":"65535","farm":66,"title":"20230223-_SNG4483","ispublic":1,"isfriend":0,"isfamily":0},{"id":"52716908051","owner":"9487855@N05","secret":"7aedafa8f4","server":"65535","farm":66,"title":"20230223-_SNG4550","ispublic":1,"isfriend":0,"isfamily":0},{"id":"52713824181","owner":"60908407@N03","secret":"e949c3b428","server":"65535","farm":66,"title":"Brown Shrike (Philippine)","ispublic":1,"isfriend":0,"isfamily":0},{"id":"52710903986","owner":"12240837@N08","secret":"90e26bd288","server":"65535","farm":66,"title":"Brown Shrike (lanius cristatus)","ispublic":1,"isfriend":0,"isfamily":0},{"id":"52684135696","owner":"67951746@N02","secret":"149c6fabab","server":"65535","farm":66,"title":"Lanius cristatus | Brown shrike","ispublic":1,"isfriend":0,"isfamily":0},{"id":"52665957007","owner":"7200351@N08","secret":"6f76ca890b","server":"65535","farm":66,"title":"Lanius cristatus cristatus","ispublic":1,"isfriend":0,"isfamily":0},{"id":"52664697728","owner":"30120110@N02","secret":"b10904481f","server":"65535","farm":66,"title":"Brown Shrike","ispublic":1,"isfriend":0,"isfamily":0},{"id":"52615374432","owner":"66716461@N04","secret":"de0c5492ce","server":"65535","farm":66,"title":"brown shrike (Lanius cristatus)","ispublic":1,"isfriend":0,"isfamily":0},{"id":"52654097132","owner":"12240837@N08","secret":"36e0e5e11c","server":"65535","farm":66,"title":"Brown Shrike (lanius cristatus)","ispublic":1,"isfriend":0,"isfamily":0},{"id":"52647720026","owner":"90764954@N07","secret":"99257a7bfd","server":"65535","farm":66,"title":"Brown Shrike (Lanius cristatus) \u7ea2\u5c3e\u4f2f\u52b3","ispublic":1,"isfriend":0,"isfamily":0},{"id":"52648149355","owner":"110148017@N06","secret":"268f8d052b","server":"65535","farm":66,"title":"\u7d05\u5c3e\u4f2f\u52de Lanius cristatus","ispublic":1,"isfriend":0,"isfamily":0},{"id":"52639064789","owner":"183840266@N08","secret":"ba9ae0cda5","server":"65535","farm":66,"title":"Brown Shrike (Lanius cristatus)","ispublic":1,"isfriend":0,"isfamily":0},{"id":"52636912725","owner":"129125399@N04","secret":"c9d1aceb68","server":"65535","farm":66,"title":"Brown Shrike (Lanius cristatus)","ispublic":1,"isfriend":0,"isfamily":0},{"id":"52611685017","owner":"148366063@N04","secret":"a2e1fc79d5","server":"65535","farm":66,"title":"0U2A2950-2022-12-11-111222-brown shrike- Lanius cristatus.jpg","ispublic":1,"isfriend":0,"isfamily":0},{"id":"52594018888","owner":"50307457@N08","secret":"6c2ac6d494","server":"65535","farm":66,"title":"Nuapada Birds-1 - Lanius cristatus","ispublic":1,"isfriend":0,"isfamily":0},{"id":"52593477148","owner":"110148017@N06","secret":"9faf2495b7","server":"65535","farm":66,"title":"\u7d05\u5c3e\u4f2f\u52de Lanius cristatus","ispublic":1,"isfriend":0,"isfamily":0},{"id":"52581863835","owner":"129125399@N04","secret":"bf705edd7a","server":"65535","farm":66,"title":"Brown Shrike (Lanius cristatus)","ispublic":1,"isfriend":0,"isfamily":0},{"id":"52579584309","owner":"37180297@N08","secret":"d8d11e4c68","server":"65535","farm":66,"title":"_RBD4198 Lanius cristatus lucionensis \u7d05\u5c3e\u4f2f\u52de","ispublic":1,"isfriend":0,"isfamily":0},{"id":"52570424757","owner":"50307457@N08","secret":"9f3ab67126","server":"65535","farm":66,"title":"Tansen Birds-67 - Lanius cristatus","ispublic":1,"isfriend":0,"isfamily":0},{"id":"52571420633","owner":"50307457@N08","secret":"0fb38c3bc2","server":"65535","farm":66,"title":"Tansen Birds-68 - Lanius cristatus","ispublic":1,"isfriend":0,"isfamily":0},{"id":"52548868716","owner":"129125399@N04","secret":"f0b5dbb531","server":"65535","farm":66,"title":"Brown Shrike (Lanius cristatus)","ispublic":1,"isfriend":0,"isfamily":0},{"id":"52538667986","owner":"88273428@N06","secret":"f906652757","server":"65535","farm":66,"title":"Lanius cristatus \u7d05\u5c3e\u4f2f\u52de","ispublic":1,"isfriend":0,"isfamily":0},{"id":"52524467690","owner":"37180297@N08","secret":"b69568aeb0","server":"65535","farm":66,"title":"_RBD2609 Lanius cristatus lucionensis \u7d05\u5c3e\u4f2f\u52de","ispublic":1,"isfriend":0,"isfamily":0},{"id":"52524467510","owner":"37180297@N08","secret":"fb5872a166","server":"65535","farm":66,"title":"_RBD2610 Lanius cristatus lucionensis \u7d05\u5c3e\u4f2f\u52de","ispublic":1,"isfriend":0,"isfamily":0},{"id":"52463577976","owner":"39066307@N03","secret":"5c44464a61","server":"65535","farm":66,"title":"Brown Shrike","ispublic":1,"isfriend":0,"isfamily":0},{"id":"52460647754","owner":"9495138@N08","secret":"1d7cbb4a64","server":"65535","farm":66,"title":"28 Oct 2022 Bishan Park","ispublic":1,"isfriend":0,"isfamily":0},{"id":"52422957830","owner":"196426571@N03","secret":"261be5efac","server":"65535","farm":66,"title":"\u7d05\u5c3e\u4f2f\u52de Lanius cristatus","ispublic":1,"isfriend":0,"isfamily":0},{"id":"52418522238","owner":"126558841@N07","secret":"627b847801","server":"65535","farm":66,"title":"Philipine Shrike \/ Brown Shrike (Lanius cristatus)","ispublic":1,"isfriend":0,"isfamily":0},{"id":"52401585970","owner":"79438259@N03","secret":"f64fd30d10","server":"65535","farm":66,"title":"\u7d05\u5c3e\u4f2f\u52de - Lanius cristatus","ispublic":1,"isfriend":0,"isfamily":0},{"id":"52401585880","owner":"79438259@N03","secret":"cb9af5b07b","server":"65535","farm":66,"title":"\u7d05\u5c3e\u4f2f\u52de - Lanius cristatus","ispublic":1,"isfriend":0,"isfamily":0},{"id":"52400641557","owner":"79438259@N03","secret":"4650c4b758","server":"65535","farm":66,"title":"\u7d05\u5c3e\u4f2f\u52de - Lanius cristatus","ispublic":1,"isfriend":0,"isfamily":0},{"id":"52379947633","owner":"39066307@N03","secret":"59954cb64d","server":"65535","farm":66,"title":"Brown Shrike","ispublic":1,"isfriend":0,"isfamily":0},{"id":"52380133065","owner":"39066307@N03","secret":"319bf2ea41","server":"65535","farm":66,"title":"Brown Shrike","ispublic":1,"isfriend":0,"isfamily":0},{"id":"52379947463","owner":"39066307@N03","secret":"83f5144754","server":"65535","farm":66,"title":"Brown Shrike","ispublic":1,"isfriend":0,"isfamily":0},{"id":"52221077708","owner":"11159374@N04","secret":"0915227c66","server":"65535","farm":66,"title":"Brown Shrike","ispublic":1,"isfriend":0,"isfamily":0},{"id":"52187202289","owner":"107784905@N04","secret":"9d6173cc77","server":"65535","farm":66,"title":"Pie-gri\u00e8che brune - Nam Kham\/Chiang Rai\/TH_20191211_020-1","ispublic":1,"isfriend":0,"isfamily":0},{"id":"52186910919","owner":"183840266@N08","secret":"9a0f9938aa","server":"65535","farm":66,"title":"Brown Shrike (Lanius cristatus cristatus\/confusus)","ispublic":1,"isfriend":0,"isfamily":0},{"id":"52155343950","owner":"194762749@N08","secret":"d727e7f5b3","server":"65535","farm":66,"title":"Brown Shrike","ispublic":1,"isfriend":0,"isfamily":0},{"id":"52151000518","owner":"140466761@N08","secret":"bcb2ae3edf","server":"65535","farm":66,"title":"\u7ea2\u5c3e\u4f2f\u52b3(Lanius cristatus)-A9_06233","ispublic":1,"isfriend":0,"isfamily":0},{"id":"52151000503","owner":"140466761@N08","secret":"57a8bd69fa","server":"65535","farm":66,"title":"\u7ea2\u5c3e\u4f2f\u52b3(Lanius cristatus)-A9_06243","ispublic":1,"isfriend":0,"isfamily":0},{"id":"52149978912","owner":"140466761@N08","secret":"bc6788db8a","server":"65535","farm":66,"title":"\u7ea2\u5c3e\u4f2f\u52b3(Lanius cristatus)-A9_06246","ispublic":1,"isfriend":0,"isfamily":0},{"id":"52117316403","owner":"11803211@N06","secret":"f1c26811fa","server":"65535","farm":66,"title":"Brown shrike (Lanius cristatus), Yala National Park, Sri Lanka","ispublic":1,"isfriend":0,"isfamily":0},{"id":"52099549432","owner":"26822473@N06","secret":"315a3bfd28","server":"65535","farm":66,"title":"Brown Shrike (Lanius cristatus)","ispublic":1,"isfriend":0,"isfamily":0},{"id":"52061020538","owner":"29954808@N00","secret":"f5e110c0f6","server":"65535","farm":66,"title":"Lanius cristatus","ispublic":1,"isfriend":0,"isfamily":0},{"id":"52046487038","owner":"137111202@N08","secret":"9fe80de67c","server":"65535","farm":66,"title":"\u7d05\u5c3e\u4f2f\u52de, Brown Shrike, Lanius cristatus,","ispublic":1,"isfriend":0,"isfamily":0},{"id":"52045391162","owner":"137111202@N08","secret":"cbcfc4b917","server":"65535","farm":66,"title":"\u7d05\u5c3e\u4f2f\u52de, Brown Shrike, Lanius cristatus,","ispublic":1,"isfriend":0,"isfamily":0},{"id":"52045391147","owner":"137111202@N08","secret":"c49caa3bc6","server":"65535","farm":66,"title":"\u7d05\u5c3e\u4f2f\u52de, Brown Shrike, Lanius cristatus,","ispublic":1,"isfriend":0,"isfamily":0},{"id":"52046945555","owner":"137111202@N08","secret":"80e4ec5113","server":"65535","farm":66,"title":"\u7d05\u5c3e\u4f2f\u52de, Brown Shrike, Lanius cristatus,","ispublic":1,"isfriend":0,"isfamily":0},{"id":"51998152257","owner":"142083658@N05","secret":"30100d67d9","server":"65535","farm":66,"title":"Brown Shrike, Lanius cristatus, \u0421\u0438\u0431\u0438\u0440\u0441\u043a\u0438\u0439 \u0441\u043e\u0440\u043e\u043a\u043e\u043f\u0443\u0442","ispublic":1,"isfriend":0,"isfamily":0},{"id":"51977802231","owner":"21657471@N04","secret":"80f8bd2286","server":"65535","farm":66,"title":"Lanius cristatus Linnaeus, 1758 - Brown shrike (1st-winter)","ispublic":1,"isfriend":0,"isfamily":0},{"id":"51972378326","owner":"95110413@N03","secret":"e552072e62","server":"65535","farm":66,"title":"DSC_2397 (Brown Shrike)","ispublic":1,"isfriend":0,"isfamily":0},{"id":"51960176824","owner":"61485851@N06","secret":"63f1a6a1b4","server":"65535","farm":66,"title":"Brown shrike","ispublic":1,"isfriend":0,"isfamily":0},{"id":"51959938588","owner":"61485851@N06","secret":"054f198bfb","server":"65535","farm":66,"title":"Brown shrike","ispublic":1,"isfriend":0,"isfamily":0},{"id":"51959938558","owner":"61485851@N06","secret":"c3ef4137b3","server":"65535","farm":66,"title":"Brown shrike","ispublic":1,"isfriend":0,"isfamily":0},{"id":"51951247452","owner":"37180297@N08","secret":"b849d1f087","server":"65535","farm":66,"title":"_RBC0109 Lanius cristatus lucionensis \u7d05\u5c3e\u4f2f\u52de","ispublic":1,"isfriend":0,"isfamily":0},{"id":"51951246907","owner":"37180297@N08","secret":"da88cf78b6","server":"65535","farm":66,"title":"_RBC0111 Lanius cristatus lucionensis \u7d05\u5c3e\u4f2f\u52de","ispublic":1,"isfriend":0,"isfamily":0},{"id":"51938295380","owner":"26822473@N06","secret":"d4ef039ec7","server":"65535","farm":66,"title":"Brown Shrike (Lanius cristatus)","ispublic":1,"isfriend":0,"isfamily":0},{"id":"51930071090","owner":"61827574@N03","secret":"b58e32ca2e","server":"65535","farm":66,"title":"Brown Shrike - Lanius cristatus  ????","ispublic":1,"isfriend":0,"isfamily":0},{"id":"51905352239","owner":"100530851@N02","secret":"5a40ea9190","server":"65535","farm":66,"title":"Lanius cristatus","ispublic":1,"isfriend":0,"isfamily":0},{"id":"51879303910","owner":"95110413@N03","secret":"c5e67cde0e","server":"65535","farm":66,"title":"DSC_2016 (Brown Shrike)","ispublic":1,"isfriend":0,"isfamily":0},{"id":"51877225311","owner":"9237707@N05","secret":"24e0f97578","server":"65535","farm":66,"title":"Brown Shrike","ispublic":1,"isfriend":0,"isfamily":0},{"id":"51863006876","owner":"29954808@N00","secret":"03d241a701","server":"65535","farm":66,"title":"Lanius cristatus - reprocessed","ispublic":1,"isfriend":0,"isfamily":0},{"id":"51863665675","owner":"29954808@N00","secret":"766956e471","server":"65535","farm":66,"title":"Lanius cristatus - reprocessed","ispublic":1,"isfriend":0,"isfamily":0},{"id":"52690015916","owner":"55017428@N05","secret":"eda60c70e0","server":"65535","farm":66,"title":"Brown Shrike (Lanius cristatus)","ispublic":1,"isfriend":0,"isfamily":0},{"id":"52689495172","owner":"55017428@N05","secret":"5889e878e2","server":"65535","farm":66,"title":"Brown Shrike (Lanius cristatus)","ispublic":1,"isfriend":0,"isfamily":0},{"id":"52690282469","owner":"55017428@N05","secret":"95dc97064a","server":"65535","farm":66,"title":"Brown Shrike (Lanius cristatus)","ispublic":1,"isfriend":0,"isfamily":0},{"id":"52640373280","owner":"183840266@N08","secret":"b4c80094b3","server":"65535","farm":66,"title":"Brown Shrike (Lanius cristatus lucionensis)","ispublic":1,"isfriend":0,"isfamily":0},{"id":"52639938446","owner":"183840266@N08","secret":"36d671dfd9","server":"65535","farm":66,"title":"Brown Shrike (Lanius cristatus lucionensis)","ispublic":1,"isfriend":0,"isfamily":0},{"id":"52639938356","owner":"183840266@N08","secret":"75a9a78eab","server":"65535","farm":66,"title":"Brown Shrike (Lanius cristatus lucionensis)","ispublic":1,"isfriend":0,"isfamily":0},{"id":"52639064799","owner":"183840266@N08","secret":"3b06c6a07e","server":"65535","farm":66,"title":"Brown Shrike (Lanius cristatus)","ispublic":1,"isfriend":0,"isfamily":0},{"id":"52630544358","owner":"110148017@N06","secret":"8d7ca2ba18","server":"65535","farm":66,"title":"\u7d05\u5c3e\u4f2f\u52de Lanius cristatus","ispublic":1,"isfriend":0,"isfamily":0},{"id":"52524270429","owner":"37180297@N08","secret":"645490a201","server":"65535","farm":66,"title":"_RBD2611 Lanius cristatus lucionensis \u7d05\u5c3e\u4f2f\u52de","ispublic":1,"isfriend":0,"isfamily":0},{"id":"52418452625","owner":"126558841@N07","secret":"a663b750c4","server":"65535","farm":66,"title":"Philipine Shrike \/ Brown Shrike (Lanius cristatus)","ispublic":1,"isfriend":0,"isfamily":0},{"id":"52418294894","owner":"126558841@N07","secret":"f78329eff4","server":"65535","farm":66,"title":"Philipine Shrike \/ Brown Shrike (Lanius cristatus)","ispublic":1,"isfriend":0,"isfamily":0},{"id":"52357720212","owner":"141819052@N08","secret":"bc9dc5f765","server":"65535","farm":66,"title":"Brown Shrike (Lanius cristatus).","ispublic":1,"isfriend":0,"isfamily":0},{"id":"52215770309","owner":"80648919@N08","secret":"bb026eabe8","server":"65535","farm":66,"title":"Brown Shrike","ispublic":1,"isfriend":0,"isfamily":0},{"id":"52186911034","owner":"183840266@N08","secret":"92cda9aa8c","server":"65535","farm":66,"title":"Brown Shrike (Lanius cristatus cristatus\/confusus)","ispublic":1,"isfriend":0,"isfamily":0},{"id":"52151229214","owner":"140466761@N08","secret":"5d02fa4132","server":"65535","farm":66,"title":"\u7ea2\u5c3e\u4f2f\u52b3(Lanius cristatus)-A9_06204","ispublic":1,"isfriend":0,"isfamily":0},{"id":"52056712319","owner":"195565309@N08","secret":"624b3549c4","server":"65535","farm":66,"title":"Brown Shrike","ispublic":1,"isfriend":0,"isfamily":0},{"id":"51960155188","owner":"93882360@N07","secret":"43f935fea4","server":"65535","farm":66,"title":"Brown shrike (Lanius cristatus cristatus) first winter","ispublic":1,"isfriend":0,"isfamily":0},{"id":"51952303443","owner":"37180297@N08","secret":"fe32e9e505","server":"65535","farm":66,"title":"_RBC0108 Lanius cristatus lucionensis \u7d05\u5c3e\u4f2f\u52de","ispublic":1,"isfriend":0,"isfamily":0},{"id":"51952232386","owner":"37180297@N08","secret":"019124dbda","server":"65535","farm":66,"title":"_RBC0110 Lanius cristatus lucionensis \u7d05\u5c3e\u4f2f\u52de","ispublic":1,"isfriend":0,"isfamily":0},{"id":"51938214014","owner":"90764954@N07","secret":"b516b27295","server":"65535","farm":66,"title":"Brown Shrike (Lanius cristatus) \u7ea2\u5c3e\u4f2f\u52b3","ispublic":1,"isfriend":0,"isfamily":0},{"id":"51937895886","owner":"90764954@N07","secret":"296b093178","server":"65535","farm":66,"title":"Brown Shrike (Lanius cristatus) \u7ea2\u5c3e\u4f2f\u52b3","ispublic":1,"isfriend":0,"isfamily":0},{"id":"51937895861","owner":"90764954@N07","secret":"d08aede40b","server":"65535","farm":66,"title":"Brown Shrike (Lanius cristatus) \u7ea2\u5c3e\u4f2f\u52b3","ispublic":1,"isfriend":0,"isfamily":0},{"id":"51905294434","owner":"52314121@N05","secret":"0cdff724e4","server":"65535","farm":66,"title":"\u7d05\u5c3e\u4f2f\u52de \/ Lanius cristatus","ispublic":1,"isfriend":0,"isfamily":0},{"id":"51871406683","owner":"186211059@N06","secret":"68720da033","server":"65535","farm":66,"title":"Brown Shrike","ispublic":1,"isfriend":0,"isfamily":0},{"id":"51871973265","owner":"186211059@N06","secret":"b6264aaafd","server":"65535","farm":66,"title":"Brown Shrike","ispublic":1,"isfriend":0,"isfamily":0},{"id":"51870646018","owner":"186211059@N06","secret":"c48a384685","server":"65535","farm":66,"title":"Brown Shrike","ispublic":1,"isfriend":0,"isfamily":0},{"id":"51870564116","owner":"186211059@N06","secret":"b800bf55ef","server":"65535","farm":66,"title":"Brown Shrike","ispublic":1,"isfriend":0,"isfamily":0},{"id":"51870562651","owner":"186211059@N06","secret":"2aeb826963","server":"65535","farm":66,"title":"Brown Shrike","ispublic":1,"isfriend":0,"isfamily":0}]},"stat":"ok"}