{"photos":{"page":1,"pages":9,"perpage":100,"total":860,"photo":[{"id":"52619661064","owner":"27739770@N02","secret":"776ac4e3ec","server":"65535","farm":66,"title":"Brown-crested Flycatcher","ispublic":1,"isfriend":0,"isfamily":0},{"id":"52486467743","owner":"11016569@N06","secret":"407863f54f","server":"65535","farm":66,"title":"Ter\u00e7a-natureza(P\u00e1ssaros da caatinga)","ispublic":1,"isfriend":0,"isfamily":0},{"id":"52399156413","owner":"48938938@N04","secret":"3a8998116f","server":"65535","farm":66,"title":"Brown-crested Flycatcher_Myiarchus tyrannulus_Ascanio_Pantanal_Brazil_DZ3A6288","ispublic":1,"isfriend":0,"isfamily":0},{"id":"52254139368","owner":"26371261@N00","secret":"73a19f5b25","server":"65535","farm":66,"title":"Brown-crested Flycatcherm, Myiarchus tyrannulus","ispublic":1,"isfriend":0,"isfamily":0},{"id":"52144058632","owner":"195753655@N08","secret":"8069e3b566","server":"65535","farm":66,"title":"125. Brown Crested Fly-catcher (Myiarchus tyrannulus)","ispublic":1,"isfriend":0,"isfamily":0},{"id":"52132976229","owner":"195753655@N08","secret":"8a081e45cf","server":"65535","farm":66,"title":"34. Brown-Crested Flycatcher(Myiarchus tyrannulus)(Telephoto)","ispublic":1,"isfriend":0,"isfamily":0},{"id":"52118236338","owner":"132165466@N08","secret":"ea49689b0a","server":"65535","farm":66,"title":"Brown-crested Flycatcher","ispublic":1,"isfriend":0,"isfamily":0},{"id":"52118455464","owner":"132165466@N08","secret":"9bd11e3672","server":"65535","farm":66,"title":"Brown-crested Flycatcher","ispublic":1,"isfriend":0,"isfamily":0},{"id":"52117175662","owner":"132165466@N08","secret":"917a8a1c56","server":"65535","farm":66,"title":"Brown-crested Flycatcher","ispublic":1,"isfriend":0,"isfamily":0},{"id":"52080281364","owner":"11016569@N06","secret":"c608961e9d","server":"65535","farm":66,"title":"Ter\u00e7a-natureza (p\u00e1ssaros)","ispublic":1,"isfriend":0,"isfamily":0},{"id":"52064543599","owner":"11295713@N00","secret":"e5c89ffa0e","server":"65535","farm":66,"title":"Brown-crested Flycatcher (Myiarchus tyrannulus)  Check ID Please..","ispublic":1,"isfriend":0,"isfamily":0},{"id":"51999487663","owner":"129593667@N03","secret":"c19f3f8375","server":"65535","farm":66,"title":"Brown-crested Flycatcher (Lifer)","ispublic":1,"isfriend":0,"isfamily":0},{"id":"51994886845","owner":"21182099@N05","secret":"9b6cd91fcb","server":"65535","farm":66,"title":"Brown-crested Flycatcher (Myiarchus tyrannulus)","ispublic":1,"isfriend":0,"isfamily":0},{"id":"51873270842","owner":"59631194@N06","secret":"a84ef3db51","server":"65535","farm":66,"title":"Nutting's flycatcher (Myiarchus tyrannulus)","ispublic":1,"isfriend":0,"isfamily":0},{"id":"51812782476","owner":"96713629@N03","secret":"2679e44cc3","server":"65535","farm":66,"title":"Cayennetiran - Brown-crested Flycatcher (Myiarchus tyrannulus)-A20_0419","ispublic":1,"isfriend":0,"isfamily":0},{"id":"51813508865","owner":"96713629@N03","secret":"1fae328cef","server":"65535","farm":66,"title":"Cayennetiran - Brown-crested Flycatcher (Myriarchus tyrannulus)-619_2778","ispublic":1,"isfriend":0,"isfamily":0},{"id":"51812782426","owner":"96713629@N03","secret":"76c4246839","server":"65535","farm":66,"title":"Cayennetiran - Brown-crested Flycatcher (Myriarchus tyrannulus)-619_2787","ispublic":1,"isfriend":0,"isfamily":0},{"id":"51813127319","owner":"96713629@N03","secret":"ef1b07edb2","server":"65535","farm":66,"title":"Cayennetiran - Brown-crested Flycatcher (Myriarchus tyrannulus)-619_2810","ispublic":1,"isfriend":0,"isfamily":0},{"id":"51785113141","owner":"42415395@N07","secret":"4f14b6a467","server":"65535","farm":66,"title":"Brown-crested Flycatcher (Myiarchus tyrannulus); Catalina, Arizona {Lou Feltz}","ispublic":1,"isfriend":0,"isfamily":0},{"id":"51785363648","owner":"42415395@N07","secret":"cb9c97367b","server":"65535","farm":66,"title":"Canyon (Giant) Spotted Whiptail (Aspidoscelis burti);Brown-crested Flycatcher (Myiarchus tyrannulus); Tucson, AZ, Sweetwater Wetlands [Lou Feltz]","ispublic":1,"isfriend":0,"isfamily":0},{"id":"51782115542","owner":"12639178@N07","secret":"2d3d114bd8","server":"65535","farm":66,"title":"Braunschopftyrann","ispublic":1,"isfriend":0,"isfamily":0},{"id":"51782115187","owner":"12639178@N07","secret":"8d55d79cde","server":"65535","farm":66,"title":"Braunschopftyrann","ispublic":1,"isfriend":0,"isfamily":0},{"id":"51748466986","owner":"52363379@N07","secret":"3f4f0b8d5f","server":"65535","farm":66,"title":"Myiarchus tyrannulus","ispublic":1,"isfriend":0,"isfamily":0},{"id":"51740515385","owner":"56686021@N04","secret":"316b7b5d45","server":"65535","farm":66,"title":"Brown-crested Flycatcher","ispublic":1,"isfriend":0,"isfamily":0},{"id":"51737045847","owner":"32752434@N07","secret":"bb046d1096","server":"65535","farm":66,"title":"Brown-crested Flycatcher (Myiarchus tyrannulus)","ispublic":1,"isfriend":0,"isfamily":0},{"id":"51688340525","owner":"61316002@N02","secret":"8cfee4bc37","server":"65535","farm":66,"title":"BRNCREFLY bahiae 3915","ispublic":1,"isfriend":0,"isfamily":0},{"id":"51639638301","owner":"87727332@N08","secret":"550eeaf590","server":"65535","farm":66,"title":"Maria faz pose (Myiarchus tyrannulus)","ispublic":1,"isfriend":0,"isfamily":0},{"id":"51607567742","owner":"61316002@N02","secret":"c73c0ff5e4","server":"65535","farm":66,"title":"SHOCREFLY ferox 2381","ispublic":1,"isfriend":0,"isfamily":0},{"id":"51498541958","owner":"61316002@N02","secret":"4d65a597de","server":"65535","farm":66,"title":"BRNCREFLY bahiae 0397","ispublic":1,"isfriend":0,"isfamily":0},{"id":"51398874582","owner":"52363379@N07","secret":"49c174622b","server":"65535","farm":66,"title":"Myiarchus tyrannulus","ispublic":1,"isfriend":0,"isfamily":0},{"id":"51314966927","owner":"185659367@N04","secret":"6b4d629eab","server":"65535","farm":66,"title":"Brown-crested Flycatcher","ispublic":1,"isfriend":0,"isfamily":0},{"id":"51311726421","owner":"48938938@N04","secret":"b70f4e316b","server":"65535","farm":66,"title":"Brown-crested Flycatcher_Atrapamosvas GArrochero Colirufo_Myiarchus tyrannulus_Ascanio_Falcon_DZ3A1033","ispublic":1,"isfriend":0,"isfamily":0},{"id":"51300992589","owner":"52363379@N07","secret":"3cd114ae17","server":"65535","farm":66,"title":"Myiarchus tyrannulus","ispublic":1,"isfriend":0,"isfamily":0},{"id":"51297090404","owner":"132165466@N08","secret":"27f7427ceb","server":"65535","farm":66,"title":"Brown-crested Flycatcher","ispublic":1,"isfriend":0,"isfamily":0},{"id":"51292448046","owner":"185659367@N04","secret":"e09b476feb","server":"65535","farm":66,"title":"Brown-crested Flycatcher","ispublic":1,"isfriend":0,"isfamily":0},{"id":"51286770918","owner":"32805478@N03","secret":"f547a52d9a","server":"65535","farm":66,"title":"Copet\u00f3n tiranillo, Myiarchus tyrannulus, Brown-crested flycatcher","ispublic":1,"isfriend":0,"isfamily":0},{"id":"51276535897","owner":"159998223@N04","secret":"3393b9ea92","server":"65535","farm":66,"title":"brown-crested flycatcher (Myiarchus tyrannulus)","ispublic":1,"isfriend":0,"isfamily":0},{"id":"51221657385","owner":"65431955@N08","secret":"32a1ee4669","server":"65535","farm":66,"title":"Brown-crested flycatcher","ispublic":1,"isfriend":0,"isfamily":0},{"id":"51219856402","owner":"65431955@N08","secret":"7fe0c74894","server":"65535","farm":66,"title":"Brown crested flycatcher","ispublic":1,"isfriend":0,"isfamily":0},{"id":"51197778035","owner":"50264295@N06","secret":"4f777976b8","server":"65535","farm":66,"title":"Brown-crested Flycatcher (Myiarchus tyrannulus)","ispublic":1,"isfriend":0,"isfamily":0},{"id":"51159688392","owner":"129803374@N05","secret":"2e48aa0af6","server":"65535","farm":66,"title":"Brown-crested Flycatcher (Myiarchus tyrannulus)","ispublic":1,"isfriend":0,"isfamily":0},{"id":"51123800110","owner":"52363379@N07","secret":"0d0d19d96f","server":"65535","farm":66,"title":"Myiarchus tyrannulus","ispublic":1,"isfriend":0,"isfamily":0},{"id":"51033773428","owner":"47020313@N08","secret":"76d2a82842","server":"65535","farm":66,"title":"Brown crested Flycatcher IMG_1906edtsg2","ispublic":1,"isfriend":0,"isfamily":0},{"id":"50975772882","owner":"27480477@N07","secret":"dabfc2c3db","server":"65535","farm":66,"title":"Brown-Crested Flycatcher, Myiarchus tyrannulus.","ispublic":1,"isfriend":0,"isfamily":0},{"id":"50975660171","owner":"27480477@N07","secret":"7c44ce3df1","server":"65535","farm":66,"title":"Brown-Crested Flycatcher, Myiarchus tyrannulus.","ispublic":1,"isfriend":0,"isfamily":0},{"id":"50975659886","owner":"27480477@N07","secret":"e5feec924e","server":"65535","farm":66,"title":"Brown-Crested Flycatcher, Myiarchus tyrannulus.","ispublic":1,"isfriend":0,"isfamily":0},{"id":"50884049777","owner":"27480477@N07","secret":"d5bc80073a","server":"65535","farm":66,"title":"naamloos-3745 Brown-Crested Flycatcher, Myiarchus tyrannulus tyrannulus.","ispublic":1,"isfriend":0,"isfamily":0},{"id":"50694869676","owner":"32805478@N03","secret":"c0e9fc41a6","server":"65535","farm":66,"title":"Copet\u00f3n tiranillo, Myiarchus tyrannulus, Brown-crested flycatcher","ispublic":1,"isfriend":0,"isfamily":0},{"id":"50627759513","owner":"13099645@N05","secret":"00efeb8d66","server":"65535","farm":66,"title":"Brown-crested Flycatcher","ispublic":1,"isfriend":0,"isfamily":0},{"id":"50601950231","owner":"78145652@N02","secret":"bc7f76cc77","server":"65535","farm":66,"title":"Brown-crested Flycatcher - Myiarchus tyrannulus","ispublic":1,"isfriend":0,"isfamily":0},{"id":"50600352651","owner":"107784905@N04","secret":"de8453118d","server":"65535","farm":66,"title":"Tyran de Wied - Portal de la Piedra\/Jujuy\/Argentina_20171116_001-1","ispublic":1,"isfriend":0,"isfamily":0},{"id":"50537120928","owner":"78145652@N02","secret":"7d7c4595ba","server":"65535","farm":66,"title":"Brown-crested Flycatcher - Myiarchus tyrannulus","ispublic":1,"isfriend":0,"isfamily":0},{"id":"50360550496","owner":"52363379@N07","secret":"c4326a1508","server":"65535","farm":66,"title":"Myiarchus tyrannulus","ispublic":1,"isfriend":0,"isfamily":0},{"id":"50341253527","owner":"32805478@N03","secret":"7388b3541d","server":"65535","farm":66,"title":"Copet\u00f3n tiranillo, Brown-crested flycatcher, Tyrannulus","ispublic":1,"isfriend":0,"isfamily":0},{"id":"50322642603","owner":"61021753@N02","secret":"352df3d8c2","server":"65535","farm":66,"title":"n44_w1150","ispublic":1,"isfriend":0,"isfamily":0},{"id":"50279142627","owner":"52363379@N07","secret":"ef6fd982c1","server":"65535","farm":66,"title":"Myiarchus tyrannulus","ispublic":1,"isfriend":0,"isfamily":0},{"id":"50260091997","owner":"119787485@N07","secret":"37d2f32a76","server":"65535","farm":66,"title":"Brown-crested Flycatcher (Myiarchus tyrannulus magister) - 20180804-04","ispublic":1,"isfriend":0,"isfamily":0},{"id":"50229346313","owner":"58258017@N08","secret":"1b668ed66b","server":"65535","farm":66,"title":"Brown-crested flycatcher","ispublic":1,"isfriend":0,"isfamily":0},{"id":"50133319768","owner":"164178514@N07","secret":"865be26394","server":"65535","farm":66,"title":"Brown crested Flycatcher on a Palo Verde Branch","ispublic":1,"isfriend":0,"isfamily":0},{"id":"50069769403","owner":"99849996@N00","secret":"ef21f0a9fe","server":"65535","farm":66,"title":"Brown-crested Flycatcher 20190619_3244","ispublic":1,"isfriend":0,"isfamily":0},{"id":"50040305066","owner":"65788177@N02","secret":"e9ca107552","server":"65535","farm":66,"title":"Brown-crested Flycatcher","ispublic":1,"isfriend":0,"isfamily":0},{"id":"50000216948","owner":"56966335@N02","secret":"22ab4d49ae","server":"65535","farm":66,"title":"Myiarchus tyrannulus","ispublic":1,"isfriend":0,"isfamily":0},{"id":"49982439571","owner":"183564486@N05","secret":"813caa9de5","server":"65535","farm":66,"title":"Brown-crested Flycatcher","ispublic":1,"isfriend":0,"isfamily":0},{"id":"49981917108","owner":"183564486@N05","secret":"52c95567b2","server":"65535","farm":66,"title":"Brown-crested Flycatcher","ispublic":1,"isfriend":0,"isfamily":0},{"id":"49894444348","owner":"30170234@N08","secret":"2d33656ef4","server":"65535","farm":66,"title":"Brown-crested Flycatcher","ispublic":1,"isfriend":0,"isfamily":0},{"id":"52527904994","owner":"100247776@N03","secret":"ee2de88267","server":"65535","farm":66,"title":"MARIA CAVALEIRA DE RABO ENFERRUJADO - Myiarchus tyrannulus - GOI\u00c2NIA","ispublic":1,"isfriend":0,"isfamily":0},{"id":"52424080740","owner":"48938938@N04","secret":"00ca136643","server":"65535","farm":66,"title":"Brown-crested Flycatcher_Myiarchus tyrannulus_Ascanio_Brazil_DZ3A8464","ispublic":1,"isfriend":0,"isfamily":0},{"id":"52229909681","owner":"195819210@N03","secret":"7e543781b8","server":"0","farm":0,"title":"(170) Brown-crested Flycatcher Audio","ispublic":1,"isfriend":0,"isfamily":0},{"id":"52160423048","owner":"195819210@N03","secret":"d89a48e0b6","server":"65535","farm":66,"title":"(48) Brown-crested Flycatcher","ispublic":1,"isfriend":0,"isfamily":0},{"id":"52127342345","owner":"193250255@N08","secret":"3b2b441dd5","server":"65535","farm":66,"title":"25 Brown-crested flycatcher","ispublic":1,"isfriend":0,"isfamily":0},{"id":"52097557729","owner":"75336751@N07","secret":"4bba4a8d03","server":"65535","farm":66,"title":"Maria-cavaleira-de-rabo-enferrujado","ispublic":1,"isfriend":0,"isfamily":0},{"id":"51827999636","owner":"48938938@N04","secret":"cbec8d7c92","server":"65535","farm":66,"title":"Brown-crested Flycatcher_Myiarchus tyrannulus_Ascanio_Llanos Colombia_DZ3A4046","ispublic":1,"isfriend":0,"isfamily":0},{"id":"51399747818","owner":"87325282@N00","secret":"1e553619fb","server":"65535","farm":66,"title":"Myiarchus tyrannulus","ispublic":1,"isfriend":0,"isfamily":0},{"id":"51374790920","owner":"185718539@N08","secret":"4de7048817","server":"65535","farm":66,"title":"maria-cavaleira-de-rabo-enferrujado (Myiarchus tyrannulus)","ispublic":1,"isfriend":0,"isfamily":0},{"id":"51304631186","owner":"182381287@N07","secret":"b518ed200c","server":"65535","farm":66,"title":"Maria-cavaleira-de-rabo-enferrujado (Myiarchus tyrannulus)","ispublic":1,"isfriend":0,"isfamily":0},{"id":"51193842458","owner":"132165466@N08","secret":"4978f57c45","server":"65535","farm":66,"title":"Brown-crested Flycatcher","ispublic":1,"isfriend":0,"isfamily":0},{"id":"51097923396","owner":"186413274@N08","secret":"1c9798e5fb","server":"65535","farm":66,"title":"Brown-crested Flycatcher (Myiarchus tyrannulus) 04564d","ispublic":1,"isfriend":0,"isfamily":0},{"id":"50975773157","owner":"27480477@N07","secret":"1a58f645da","server":"65535","farm":66,"title":"Brown-Crested Flycatcher, Myiarchus tyrannulus.","ispublic":1,"isfriend":0,"isfamily":0},{"id":"50975772707","owner":"27480477@N07","secret":"6d9a02151b","server":"65535","farm":66,"title":"Brown-Crested Flycatcher, Myiarchus tyrannulus.","ispublic":1,"isfriend":0,"isfamily":0},{"id":"50921901581","owner":"186193378@N07","secret":"22c15b26f3","server":"65535","farm":66,"title":"Maria-cavaleira-de-rabo-enferrujado (Myiarchus tyrannulus) Brown-crested Flycatcher","ispublic":1,"isfriend":0,"isfamily":0},{"id":"50845958093","owner":"21702714@N06","secret":"3350a519ea","server":"65535","farm":66,"title":"Brown-crested Flycatcher","ispublic":1,"isfriend":0,"isfamily":0},{"id":"50810510932","owner":"26371261@N00","secret":"d5c85cd5d8","server":"65535","farm":66,"title":"Brown-crested Flycatcher, Myiarchus tyrannulus","ispublic":1,"isfriend":0,"isfamily":0},{"id":"50810510672","owner":"26371261@N00","secret":"8f7548fdf7","server":"65535","farm":66,"title":"Brown-crested Flycatcher, Myiarchus tyrannulus","ispublic":1,"isfriend":0,"isfamily":0},{"id":"50810394586","owner":"26371261@N00","secret":"b0db56fe9a","server":"65535","farm":66,"title":"Brown-crested Flycatcher, Myiarchus tyrannulus","ispublic":1,"isfriend":0,"isfamily":0},{"id":"50810394116","owner":"26371261@N00","secret":"855a791880","server":"65535","farm":66,"title":"Brown-crested Flycatcher, Myiarchus tyrannulus","ispublic":1,"isfriend":0,"isfamily":0},{"id":"50810509822","owner":"26371261@N00","secret":"53fa2dd384","server":"65535","farm":66,"title":"Brown-crested Flycatcher, Myiarchus tyrannulus","ispublic":1,"isfriend":0,"isfamily":0},{"id":"50701335506","owner":"32752434@N07","secret":"fcd8e8ee0a","server":"65535","farm":66,"title":"Brown-crested Flycatcher (Myiarchus tyrannulus)","ispublic":1,"isfriend":0,"isfamily":0},{"id":"50279504557","owner":"52363379@N07","secret":"8f674bb5ce","server":"65535","farm":66,"title":"Myiarchus tyrannulus","ispublic":1,"isfriend":0,"isfamily":0},{"id":"50247497766","owner":"26438012@N08","secret":"5295aa8a57","server":"65535","farm":66,"title":"Brown-crested Flycatcher","ispublic":1,"isfriend":0,"isfamily":0},{"id":"50209560948","owner":"26438012@N08","secret":"3a85680f86","server":"65535","farm":66,"title":"Brown-crested Flycatcher","ispublic":1,"isfriend":0,"isfamily":0},{"id":"50191902437","owner":"26438012@N08","secret":"d61527a69f","server":"65535","farm":66,"title":"Brown-crested Flycatcher","ispublic":1,"isfriend":0,"isfamily":0},{"id":"50145442818","owner":"183047776@N07","secret":"c92f91d1f0","server":"65535","farm":66,"title":"Burlisto pico canela. Myiarchus tyrannulus. Brown-crested flycatcher.","ispublic":1,"isfriend":0,"isfamily":0},{"id":"50100607742","owner":"26438012@N08","secret":"8b80983c3f","server":"65535","farm":66,"title":"Brown-crested Flycatcher","ispublic":1,"isfriend":0,"isfamily":0},{"id":"50041123582","owner":"164178514@N07","secret":"81cb27104e","server":"65535","farm":66,"title":"Brown-Crested Flycatchers","ispublic":1,"isfriend":0,"isfamily":0},{"id":"50029982636","owner":"164178514@N07","secret":"0ff617b602","server":"65535","farm":66,"title":"Brown Crested Flycatcher Near His Nest","ispublic":1,"isfriend":0,"isfamily":0},{"id":"50013315191","owner":"164178514@N07","secret":"7d402c93fa","server":"65535","farm":66,"title":"Flycatcher and Grasshopper","ispublic":1,"isfriend":0,"isfamily":0},{"id":"50009783007","owner":"164178514@N07","secret":"c60b2f2b6f","server":"65535","farm":66,"title":"Brown-crested Flycatcher in Palo Verde","ispublic":1,"isfriend":0,"isfamily":0},{"id":"50002236912","owner":"164178514@N07","secret":"8c3f8af16a","server":"65535","farm":66,"title":"When Happiness is a Fresh Locust","ispublic":1,"isfriend":0,"isfamily":0},{"id":"49966954273","owner":"164178514@N07","secret":"246580611d","server":"65535","farm":66,"title":"Brown Crested Flycatcher Enjoys the Day","ispublic":1,"isfriend":0,"isfamily":0},{"id":"49948448003","owner":"164178514@N07","secret":"c309fd7e41","server":"65535","farm":66,"title":"Flycatcher Speaks Out","ispublic":1,"isfriend":0,"isfamily":0}]},"stat":"ok"}