{"photos":{"page":1,"pages":2,"perpage":100,"total":132,"photo":[{"id":"52381497430","owner":"192131778@N07","secret":"9042658beb","server":"65535","farm":66,"title":"Brown-streaked Flycatcher","ispublic":1,"isfriend":0,"isfamily":0},{"id":"52363428395","owner":"45473917@N07","secret":"8b923539c2","server":"65535","farm":66,"title":"Brown-streaked Flycatcher \u8910\u7eb9\u9e5f (Muscicapa williamsoni) @ Choa Chu Kang Park, Singapore_20220811_DSC8026","ispublic":1,"isfriend":0,"isfamily":0},{"id":"52362063817","owner":"45473917@N07","secret":"cb4f9df467","server":"65535","farm":66,"title":"Brown-streaked Flycatcher \u8910\u7eb9\u9e5f (Muscicapa williamsoni) @ Choa Chu Kang Park, Singapore_20220811_DSC8466","ispublic":1,"isfriend":0,"isfamily":0},{"id":"52363316279","owner":"45473917@N07","secret":"4b048304ce","server":"65535","farm":66,"title":"Brown-streaked Flycatcher \u8910\u7eb9\u9e5f (Muscicapa williamsoni) @ Choa Chu Kang Park, Singapore_20220811_DSC9836","ispublic":1,"isfriend":0,"isfamily":0},{"id":"52273733401","owner":"64074416@N06","secret":"0c2949a0a3","server":"65535","farm":66,"title":"Brown-streaked Flycatcher (Muscicapa williamsoni \u8910\u7eb9\u9e5f)","ispublic":1,"isfriend":0,"isfamily":0},{"id":"48641210473","owner":"90764954@N07","secret":"dca8daf65b","server":"65535","farm":66,"title":"Brown-streaked flycatcher (Muscicapa williamsoni) \u8910\u7eb9\u9e5f","ispublic":1,"isfriend":0,"isfamily":0},{"id":"48641702647","owner":"90764954@N07","secret":"37ebe949fe","server":"65535","farm":66,"title":"Brown-streaked flycatcher (Muscicapa williamsoni) \u8910\u7eb9\u9e5f","ispublic":1,"isfriend":0,"isfamily":0},{"id":"46941691235","owner":"56686021@N04","secret":"853b2d6e36","server":"65535","farm":66,"title":"Brown-streaked Flycatcher","ispublic":1,"isfriend":0,"isfamily":0},{"id":"47858015381","owner":"56686021@N04","secret":"cb1abca9d2","server":"65535","farm":66,"title":"Brown-streaked Flycatcher","ispublic":1,"isfriend":0,"isfamily":0},{"id":"32968209808","owner":"39138537@N06","secret":"ae873bba06","server":"7843","farm":8,"title":"Asian Brown Flycatcher (Muscicapa dauurica) (williamsoni) Flight Sequence","ispublic":1,"isfriend":0,"isfamily":0},{"id":"41881024462","owner":"32136583@N04","secret":"cb9edb655f","server":"951","farm":1,"title":"Brown Streaked Flycatcher","ispublic":1,"isfriend":0,"isfamily":0},{"id":"31432288073","owner":"125208948@N08","secret":"6101dba205","server":"375","farm":1,"title":"Brown-streaked Flycatcher (Muscicapa williamsoni)","ispublic":1,"isfriend":0,"isfamily":0},{"id":"30155069643","owner":"7200351@N08","secret":"fb424e130d","server":"5757","farm":6,"title":"Muscicapa dauurica williamsoni","ispublic":1,"isfriend":0,"isfamily":0},{"id":"30155069553","owner":"7200351@N08","secret":"d75821f24b","server":"5457","farm":6,"title":"Muscicapa dauurica williamsoni","ispublic":1,"isfriend":0,"isfamily":0},{"id":"30155069393","owner":"7200351@N08","secret":"9457a9ee0d","server":"5618","farm":6,"title":"Muscicapa dauurica williamsoni","ispublic":1,"isfriend":0,"isfamily":0},{"id":"26244740035","owner":"7200351@N08","secret":"0c515df8ef","server":"1673","farm":2,"title":"Muscicapa dauurica williamsoni","ispublic":1,"isfriend":0,"isfamily":0},{"id":"26244723425","owner":"7200351@N08","secret":"886d4a671d","server":"1704","farm":2,"title":"Muscicapa dauurica williamsoni","ispublic":1,"isfriend":0,"isfamily":0},{"id":"25037764540","owner":"7200351@N08","secret":"39f51f0316","server":"1496","farm":2,"title":"Muscicapa dauurica williamsoni","ispublic":1,"isfriend":0,"isfamily":0},{"id":"25240275501","owner":"7200351@N08","secret":"b0c5c2327b","server":"1488","farm":2,"title":"Muscicapa dauurica williamsoni","ispublic":1,"isfriend":0,"isfamily":0},{"id":"22737606574","owner":"7200351@N08","secret":"19a18c4620","server":"702","farm":1,"title":"Muscicapa dauurica williamsoni","ispublic":1,"isfriend":0,"isfamily":0},{"id":"23068204481","owner":"7200351@N08","secret":"c61d4d9922","server":"5710","farm":6,"title":"Muscicapa dauurica williamsoni","ispublic":1,"isfriend":0,"isfamily":0},{"id":"22434249894","owner":"7200351@N08","secret":"9b04690280","server":"764","farm":1,"title":"Muscicapa dauurica williamsoni","ispublic":1,"isfriend":0,"isfamily":0},{"id":"14903041109","owner":"7200351@N08","secret":"237a6681a7","server":"3875","farm":4,"title":"Muscicapa williamsoni","ispublic":1,"isfriend":0,"isfamily":0},{"id":"14903078570","owner":"7200351@N08","secret":"8b68f814c0","server":"3903","farm":4,"title":"Muscicapa williamsoni","ispublic":1,"isfriend":0,"isfamily":0},{"id":"15086712451","owner":"7200351@N08","secret":"952cc54962","server":"5569","farm":6,"title":"Muscicapa williamsoni","ispublic":1,"isfriend":0,"isfamily":0},{"id":"15066726126","owner":"7200351@N08","secret":"0360d7c5b1","server":"5592","farm":6,"title":"Muscicapa williamsoni","ispublic":1,"isfriend":0,"isfamily":0},{"id":"15084172432","owner":"7200351@N08","secret":"d2db8bbf52","server":"5580","farm":6,"title":"Muscicapa williamsoni","ispublic":1,"isfriend":0,"isfamily":0},{"id":"14897839549","owner":"7200351@N08","secret":"ef5fa173b1","server":"3889","farm":4,"title":"Muscicapa williamsoni","ispublic":1,"isfriend":0,"isfamily":0},{"id":"11772970095","owner":"42950824@N04","secret":"ea0eef3c50","server":"2806","farm":3,"title":"Brown-streaked Flycatcher\/200th","ispublic":1,"isfriend":0,"isfamily":0},{"id":"9713043690","owner":"76617062@N08","secret":"4f7ca099e7","server":"5330","farm":6,"title":"1.24691 Gobemouche de Williamson \/ Muscicapa williamsoni williamsoni \/ Brown-streaked Flycatcher","ispublic":1,"isfriend":0,"isfamily":0},{"id":"8435182373","owner":"56891930@N05","secret":"0c2df4d2ae","server":"8498","farm":9,"title":"Brown-streaked Flycatcher (Muscicapa williamsoni) - Tua Pek Kong Temple at Kampung Pasir Panjang, Sitiawan, Perak","ispublic":1,"isfriend":0,"isfamily":0},{"id":"8435841402","owner":"56891930@N05","secret":"aaeca2aea3","server":"8220","farm":9,"title":"Brown-streaked Flycatcher (Muscicapa williamsoni) - Tua Pek Kong Temple at Kampung Pasir Panjang, Sitiawan, Perak","ispublic":1,"isfriend":0,"isfamily":0},{"id":"8434874138","owner":"56891930@N05","secret":"1e9f507419","server":"8354","farm":9,"title":"Brown-streaked Flycatcher (Muscicapa williamsoni) - Tua Pek Kong Temple at Kampung Pasir Panjang, Sitiawan, Perak","ispublic":1,"isfriend":0,"isfamily":0},{"id":"8426587075","owner":"56891930@N05","secret":"c464f55420","server":"8471","farm":9,"title":"Brown-streaked Flycatcher (Muscicapa williamsoni) - Tua Pek Kong Temple at Kampung Pasir Panjang, Sitiawan, Perak","ispublic":1,"isfriend":0,"isfamily":0},{"id":"8394494401","owner":"56891930@N05","secret":"374cab3605","server":"8501","farm":9,"title":"Brown-streaked Flycatcher (Muscicapa williamsoni) - Tua Pek Kong Temple at Kampung Pasir Panjang, Sitiawan, Perak","ispublic":1,"isfriend":0,"isfamily":0},{"id":"8394461271","owner":"56891930@N05","secret":"3acc0ff765","server":"8510","farm":9,"title":"Brown-streaked Flycatcher (Muscicapa williamsoni) - Tua Pek Kong Temple at Kampung Pasir Panjang, Sitiawan, Perak","ispublic":1,"isfriend":0,"isfamily":0},{"id":"7099058399","owner":"90304143@N00","secret":"6b7260f104","server":"7094","farm":8,"title":"Brown-streaked Flycatcher","ispublic":1,"isfriend":0,"isfamily":0},{"id":"52363004271","owner":"45473917@N07","secret":"98910aeec1","server":"65535","farm":66,"title":"Brown-streaked Flycatcher \u8910\u7eb9\u9e5f (Muscicapa williamsoni) @ Choa Chu Kang Park, Singapore_20220811_DSC8019","ispublic":1,"isfriend":0,"isfamily":0},{"id":"52363316504","owner":"45473917@N07","secret":"8541317048","server":"65535","farm":66,"title":"Brown-streaked Flycatcher \u8910\u7eb9\u9e5f (Muscicapa williamsoni) @ Choa Chu Kang Park, Singapore_20220811_DSC8667","ispublic":1,"isfriend":0,"isfamily":0},{"id":"52362063642","owner":"45473917@N07","secret":"199ee63812","server":"65535","farm":66,"title":"Brown-streaked Flycatcher \u8910\u7eb9\u9e5f (Muscicapa williamsoni) @ Choa Chu Kang Park, Singapore_20220811_DSC9137","ispublic":1,"isfriend":0,"isfamily":0},{"id":"49607903901","owner":"7200351@N08","secret":"b84744a687","server":"65535","farm":66,"title":"Muscicapa dauurica williamsoni","ispublic":1,"isfriend":0,"isfamily":0},{"id":"48641703067","owner":"90764954@N07","secret":"059eeef4c7","server":"65535","farm":66,"title":"Brown-streaked flycatcher (Muscicapa williamsoni) \u8910\u7eb9\u9e5f","ispublic":1,"isfriend":0,"isfamily":0},{"id":"48641703022","owner":"90764954@N07","secret":"3663a084cd","server":"65535","farm":66,"title":"Brown-streaked flycatcher (Muscicapa williamsoni) \u8910\u7eb9\u9e5f","ispublic":1,"isfriend":0,"isfamily":0},{"id":"48641702897","owner":"90764954@N07","secret":"3eca05bcfa","server":"65535","farm":66,"title":"Brown-streaked flycatcher (Muscicapa williamsoni) \u8910\u7eb9\u9e5f","ispublic":1,"isfriend":0,"isfamily":0},{"id":"48641702842","owner":"90764954@N07","secret":"0b7a0d3e24","server":"65535","farm":66,"title":"Brown-streaked flycatcher (Muscicapa williamsoni) \u8910\u7eb9\u9e5f","ispublic":1,"isfriend":0,"isfamily":0},{"id":"48641557816","owner":"90764954@N07","secret":"2a63be5d46","server":"65535","farm":66,"title":"Brown-streaked flycatcher (Muscicapa williamsoni) \u8910\u7eb9\u9e5f","ispublic":1,"isfriend":0,"isfamily":0},{"id":"48641557681","owner":"90764954@N07","secret":"daed59eb10","server":"65535","farm":66,"title":"Brown-streaked flycatcher (Muscicapa williamsoni) \u8910\u7eb9\u9e5f","ispublic":1,"isfriend":0,"isfamily":0},{"id":"48641210438","owner":"90764954@N07","secret":"bf8577bc6e","server":"65535","farm":66,"title":"Brown-streaked flycatcher (Muscicapa williamsoni) \u8910\u7eb9\u9e5f","ispublic":1,"isfriend":0,"isfamily":0},{"id":"48510596942","owner":"64074416@N06","secret":"22496df3e2","server":"65535","farm":66,"title":"Brown-streaked Flycatcher (Muscicapa williamsoni \u8910\u7eb9\u9e5f)","ispublic":1,"isfriend":0,"isfamily":0},{"id":"48510364631","owner":"64074416@N06","secret":"fd3d9cf4bc","server":"65535","farm":66,"title":"Brown-streaked Flycatcher (Muscicapa williamsoni \u8910\u7eb9\u9e5f)","ispublic":1,"isfriend":0,"isfamily":0},{"id":"46187007355","owner":"142083658@N05","secret":"3c9d9c989d","server":"7876","farm":8,"title":"Brown-streaked Flycatcher, Muscicapa williamsoni, \u0411\u0443\u0440\u043e\u043f\u0451\u0441\u0442\u0440\u0430\u044f \u043c\u0443\u0445\u043e\u043b\u043e\u0432\u043a\u0430","ispublic":1,"isfriend":0,"isfamily":0},{"id":"36547684721","owner":"64074416@N06","secret":"3ca616b89b","server":"4366","farm":5,"title":"Brown-streaked Flycatcher (Muscicapa williamsoni)","ispublic":1,"isfriend":0,"isfamily":0},{"id":"33341169851","owner":"122863253@N07","secret":"3ebfd01581","server":"3793","farm":4,"title":"Brown-streaked flycatcher (Muscicapa williamsoni)","ispublic":1,"isfriend":0,"isfamily":0},{"id":"30857759225","owner":"7200351@N08","secret":"3202540cef","server":"5805","farm":6,"title":"Muscicapa dauurica williamsoni","ispublic":1,"isfriend":0,"isfamily":0},{"id":"30821205286","owner":"7200351@N08","secret":"016c4b929a","server":"5712","farm":6,"title":"Muscicapa dauurica williamsoni","ispublic":1,"isfriend":0,"isfamily":0},{"id":"30857759155","owner":"7200351@N08","secret":"884ea14795","server":"5587","farm":6,"title":"Muscicapa dauurica williamsoni","ispublic":1,"isfriend":0,"isfamily":0},{"id":"26469940875","owner":"7200351@N08","secret":"1f99022f20","server":"1533","farm":2,"title":"Muscicapa dauurica williamsoni","ispublic":1,"isfriend":0,"isfamily":0},{"id":"26432959896","owner":"7200351@N08","secret":"e45319003c","server":"1664","farm":2,"title":"Muscicapa dauurica williamsoni","ispublic":1,"isfriend":0,"isfamily":0},{"id":"26314469146","owner":"7200351@N08","secret":"090502f658","server":"1571","farm":2,"title":"Muscicapa dauurica williamsoni","ispublic":1,"isfriend":0,"isfamily":0},{"id":"26246796372","owner":"7200351@N08","secret":"7affb3e491","server":"1618","farm":2,"title":"Muscicapa dauurica williamsoni","ispublic":1,"isfriend":0,"isfamily":0},{"id":"25736423523","owner":"7200351@N08","secret":"122f36e109","server":"1649","farm":2,"title":"Muscicapa dauurica williamsoni","ispublic":1,"isfriend":0,"isfamily":0},{"id":"25734326284","owner":"7200351@N08","secret":"1116de4fe7","server":"1705","farm":2,"title":"Muscicapa dauurica williamsoni","ispublic":1,"isfriend":0,"isfamily":0},{"id":"25639461414","owner":"7200351@N08","secret":"e4b02f2797","server":"1718","farm":2,"title":"Muscicapa dauurica williamsoni","ispublic":1,"isfriend":0,"isfamily":0},{"id":"25375404315","owner":"7200351@N08","secret":"91faff72a7","server":"1533","farm":2,"title":"Muscicapa dauurica williamsoni","ispublic":1,"isfriend":0,"isfamily":0},{"id":"24744794084","owner":"7200351@N08","secret":"591fc19760","server":"1694","farm":2,"title":"Muscicapa dauurica williamsoni","ispublic":1,"isfriend":0,"isfamily":0},{"id":"25304018155","owner":"7200351@N08","secret":"aeb4826068","server":"1714","farm":2,"title":"Muscicapa dauurica williamsoni","ispublic":1,"isfriend":0,"isfamily":0},{"id":"25185773762","owner":"7200351@N08","secret":"54a6e9fae5","server":"1558","farm":2,"title":"Muscicapa dauurica williamsoni","ispublic":1,"isfriend":0,"isfamily":0},{"id":"24095546753","owner":"7200351@N08","secret":"44d5d2510a","server":"1540","farm":2,"title":"Muscicapa dauurica williamsoni","ispublic":1,"isfriend":0,"isfamily":0},{"id":"24628876061","owner":"7200351@N08","secret":"6c3d1683b1","server":"1720","farm":2,"title":"Muscicapa dauurica williamsoni","ispublic":1,"isfriend":0,"isfamily":0},{"id":"24558735121","owner":"7200351@N08","secret":"8b9a509f2d","server":"1502","farm":2,"title":"Muscicapa dauurica williamsoni","ispublic":1,"isfriend":0,"isfamily":0},{"id":"24640924615","owner":"7200351@N08","secret":"3c6eac3293","server":"1708","farm":2,"title":"Muscicapa dauurica williamsoni","ispublic":1,"isfriend":0,"isfamily":0},{"id":"23624805740","owner":"7200351@N08","secret":"8a674810ba","server":"5759","farm":6,"title":"Muscicapa dauurica williamsoni","ispublic":1,"isfriend":0,"isfamily":0},{"id":"23837985301","owner":"7200351@N08","secret":"017194f796","server":"1583","farm":2,"title":"Muscicapa dauurica williamsoni","ispublic":1,"isfriend":0,"isfamily":0},{"id":"23277538914","owner":"7200351@N08","secret":"fb328bca9c","server":"730","farm":1,"title":"Muscicapa dauurica williamsoni","ispublic":1,"isfriend":0,"isfamily":0},{"id":"22780859177","owner":"7200351@N08","secret":"716d5519d6","server":"5643","farm":6,"title":"Muscicapa dauurica williamsoni","ispublic":1,"isfriend":0,"isfamily":0},{"id":"22434984419","owner":"7200351@N08","secret":"be36031a8d","server":"655","farm":1,"title":"Muscicapa dauurica williamsoni","ispublic":1,"isfriend":0,"isfamily":0},{"id":"21884190679","owner":"7200351@N08","secret":"36a7617761","server":"617","farm":1,"title":"Muscicapa dauurica williamsoni","ispublic":1,"isfriend":0,"isfamily":0},{"id":"16127661735","owner":"7200351@N08","secret":"5670ea7c0c","server":"7532","farm":8,"title":"Muscicapa dauurica williamsoni","ispublic":1,"isfriend":0,"isfamily":0},{"id":"15940226168","owner":"7200351@N08","secret":"c6b0e9c84c","server":"8642","farm":9,"title":"Muscicapa dauurica williamsoni","ispublic":1,"isfriend":0,"isfamily":0},{"id":"16101859596","owner":"7200351@N08","secret":"027804d2c5","server":"7478","farm":8,"title":"Muscicapa dauurica williamsoni","ispublic":1,"isfriend":0,"isfamily":0},{"id":"15286521279","owner":"9487855@N05","secret":"4a68a46f54","server":"5599","farm":6,"title":"20110808-IMG_7792","ispublic":1,"isfriend":0,"isfamily":0},{"id":"15473061822","owner":"9487855@N05","secret":"2463f62ec7","server":"3950","farm":4,"title":"20110808-IMG_7793","ispublic":1,"isfriend":0,"isfamily":0},{"id":"13265684105","owner":"7200351@N08","secret":"f7b0cf9853","server":"7081","farm":8,"title":"Muscicapa williamsoni","ispublic":1,"isfriend":0,"isfamily":0},{"id":"8746347893","owner":"72145761@N00","secret":"62824f274f","server":"7282","farm":8,"title":"Asian Brown Flycatcher","ispublic":1,"isfriend":0,"isfamily":0},{"id":"8746347797","owner":"72145761@N00","secret":"a607975990","server":"7321","farm":8,"title":"Asian Brown Flycatcher","ispublic":1,"isfriend":0,"isfamily":0},{"id":"8747468808","owner":"72145761@N00","secret":"62099df6f6","server":"7287","farm":8,"title":"Asian Brown Flycatcher","ispublic":1,"isfriend":0,"isfamily":0},{"id":"8747468724","owner":"72145761@N00","secret":"2a3ac7a648","server":"8266","farm":9,"title":"Asian Brown Flycatcher","ispublic":1,"isfriend":0,"isfamily":0},{"id":"8746347463","owner":"72145761@N00","secret":"655855f48c","server":"7307","farm":8,"title":"Asian Brown Flycatcher","ispublic":1,"isfriend":0,"isfamily":0},{"id":"8746347395","owner":"72145761@N00","secret":"6f47a74660","server":"7295","farm":8,"title":"Asian Brown Flycatcher","ispublic":1,"isfriend":0,"isfamily":0},{"id":"8746347301","owner":"72145761@N00","secret":"a6bf0c801e","server":"8271","farm":9,"title":"Asian Brown Flycatcher","ispublic":1,"isfriend":0,"isfamily":0},{"id":"8292779821","owner":"72145761@N00","secret":"ea0992b3d2","server":"8080","farm":9,"title":"Asian Brown Flycatcher","ispublic":1,"isfriend":0,"isfamily":0},{"id":"8293833966","owner":"72145761@N00","secret":"170832bcdd","server":"8080","farm":9,"title":"Asian Brown Flycatcher","ispublic":1,"isfriend":0,"isfamily":0},{"id":"8293833870","owner":"72145761@N00","secret":"8e28037665","server":"8072","farm":9,"title":"Asian Brown Flycatcher","ispublic":1,"isfriend":0,"isfamily":0},{"id":"8293833792","owner":"72145761@N00","secret":"95583297fb","server":"8358","farm":9,"title":"Asian Brown Flycatcher","ispublic":1,"isfriend":0,"isfamily":0},{"id":"8293833678","owner":"72145761@N00","secret":"00a804964d","server":"8082","farm":9,"title":"Asian Brown Flycatcher","ispublic":1,"isfriend":0,"isfamily":0},{"id":"8293833586","owner":"72145761@N00","secret":"fbd657fbff","server":"8500","farm":9,"title":"Asian Brown Flycatcher","ispublic":1,"isfriend":0,"isfamily":0},{"id":"8292779221","owner":"72145761@N00","secret":"3a0991c6d2","server":"8218","farm":9,"title":"Asian Brown Flycatcher","ispublic":1,"isfriend":0,"isfamily":0},{"id":"7101620959","owner":"77128742@N06","secret":"1415fc1fee","server":"8016","farm":9,"title":"Williamson-Schnaepper_Muscicapa latirostris williamsoni-4","ispublic":1,"isfriend":0,"isfamily":0},{"id":"6096392121","owner":"36196456@N00","secret":"e04ea1223a","server":"6063","farm":7,"title":"Brown-streaked Flycatcher Muscicapa williamsoni","ispublic":1,"isfriend":0,"isfamily":0},{"id":"6096924822","owner":"36196456@N00","secret":"a7582e2454","server":"6185","farm":7,"title":"Brown-streaked Flycatcher Muscicapa williamsoni","ispublic":1,"isfriend":0,"isfamily":0}]},"stat":"ok"}