{"photos":{"page":1,"pages":9,"perpage":100,"total":818,"photo":[{"id":"52723013720","owner":"42264328@N00","secret":"d94402ef71","server":"65535","farm":66,"title":"More BHNU","ispublic":1,"isfriend":0,"isfamily":0},{"id":"52723013700","owner":"42264328@N00","secret":"391383fe85","server":"65535","farm":66,"title":"More BHNU","ispublic":1,"isfriend":0,"isfamily":0},{"id":"52720559111","owner":"42264328@N00","secret":"9f0395c479","server":"65535","farm":66,"title":"Bad hair nuthatch","ispublic":1,"isfriend":0,"isfamily":0},{"id":"52720970470","owner":"42264328@N00","secret":"ca9ec3c9ed","server":"65535","farm":66,"title":"Nuthatch for WW","ispublic":1,"isfriend":0,"isfamily":0},{"id":"52721037318","owner":"42264328@N00","secret":"b52ceae44e","server":"65535","farm":66,"title":"Nuthatch for WW","ispublic":1,"isfriend":0,"isfamily":0},{"id":"52689145211","owner":"81058247@N08","secret":"6f27c4bff8","server":"65535","farm":66,"title":"Brown-headed Nuthatch (Sitta pusilla)","ispublic":1,"isfriend":0,"isfamily":0},{"id":"52681692762","owner":"81058247@N08","secret":"079584b11c","server":"65535","farm":66,"title":"Brown-headed Nuthatch (Sitta pusilla)","ispublic":1,"isfriend":0,"isfamily":0},{"id":"52678927186","owner":"47533293@N04","secret":"59fa4e77a1","server":"65535","farm":66,"title":"Brown-headed nuthatch, Sitta pusilla","ispublic":1,"isfriend":0,"isfamily":0},{"id":"52641882607","owner":"38514062@N03","secret":"04d7175c2d","server":"65535","farm":66,"title":"Brown-headed Nuthatch (Sitta pusilla)","ispublic":1,"isfriend":0,"isfamily":0},{"id":"52638060677","owner":"38514062@N03","secret":"28b75b5112","server":"65535","farm":66,"title":"Brown-headed Nuthatch (Sitta pusilla)","ispublic":1,"isfriend":0,"isfamily":0},{"id":"52635472342","owner":"23355176@N05","secret":"eb3a0e550c","server":"65535","farm":66,"title":"Brownheaded Nuthatch (Sitta pusilla)","ispublic":1,"isfriend":0,"isfamily":0},{"id":"52619295552","owner":"80648919@N08","secret":"8a440764a4","server":"65535","farm":66,"title":"Brown-headed Nuthatch","ispublic":1,"isfriend":0,"isfamily":0},{"id":"52611971660","owner":"121644485@N06","secret":"c39cc8e17b","server":"65535","farm":66,"title":"Brown-headed Nuthatch","ispublic":1,"isfriend":0,"isfamily":0},{"id":"52609126690","owner":"71649471@N02","secret":"b715ce6291","server":"65535","farm":66,"title":"Brown-headed Nuthatch","ispublic":1,"isfriend":0,"isfamily":0},{"id":"52602177701","owner":"35259356@N06","secret":"48c78e3a6b","server":"65535","farm":66,"title":"Nuthatch: Brown-headed Nuthatch","ispublic":1,"isfriend":0,"isfamily":0},{"id":"52580590714","owner":"153973412@N04","secret":"43411e674e","server":"65535","farm":66,"title":"Brown-headed Nuthatch-Sitta pusilla, New Orleans, LO","ispublic":1,"isfriend":0,"isfamily":0},{"id":"52557886560","owner":"67164820@N06","secret":"a47e747449","server":"65535","farm":66,"title":"brown-headed nuthatch 2","ispublic":1,"isfriend":0,"isfamily":0},{"id":"52556965152","owner":"67164820@N06","secret":"93ab88809c","server":"65535","farm":66,"title":"brown-headed nuthatch","ispublic":1,"isfriend":0,"isfamily":0},{"id":"52536277033","owner":"71649471@N02","secret":"e426c64888","server":"65535","farm":66,"title":"Brown-headed Nuthatch","ispublic":1,"isfriend":0,"isfamily":0},{"id":"52531773991","owner":"71649471@N02","secret":"f22808b731","server":"65535","farm":66,"title":"Brown-headed Nuthatch","ispublic":1,"isfriend":0,"isfamily":0},{"id":"52520833612","owner":"39511843@N07","secret":"f374f04a08","server":"65535","farm":66,"title":"Brown-headed Nuthatch (Sitta pusilla)-","ispublic":1,"isfriend":0,"isfamily":0},{"id":"52521776710","owner":"39511843@N07","secret":"01b625045c","server":"65535","farm":66,"title":"Brown-headed Nuthatch (Sitta pusilla) getting ester-3-","ispublic":1,"isfriend":0,"isfamily":0},{"id":"52521299831","owner":"39511843@N07","secret":"667c38f47b","server":"65535","farm":66,"title":"Brown-headed Nuthatch (Sitta pusilla)-2-","ispublic":1,"isfriend":0,"isfamily":0},{"id":"52520833552","owner":"39511843@N07","secret":"81689f672d","server":"65535","farm":66,"title":"Brown-headed Nuthatch (Sitta pusilla) getting ester-4-","ispublic":1,"isfriend":0,"isfamily":0},{"id":"52482860777","owner":"39511843@N07","secret":"68e76deb67","server":"65535","farm":66,"title":"Brown-headed Nuthatch (Sitta pusilla)-","ispublic":1,"isfriend":0,"isfamily":0},{"id":"52479765353","owner":"39511843@N07","secret":"47f6c088f3","server":"65535","farm":66,"title":"Brown-headed Nuthatch (Sitta pusilla)- \u201cYou are in my bath\u201d!-","ispublic":1,"isfriend":0,"isfamily":0},{"id":"52416204350","owner":"121644485@N06","secret":"2596c83126","server":"65535","farm":66,"title":"sharing","ispublic":1,"isfriend":0,"isfamily":0},{"id":"52374688109","owner":"39511843@N07","secret":"67c9b9b05b","server":"65535","farm":66,"title":"Brown-headed Nuthatch (Sitta pusilla)-1-","ispublic":1,"isfriend":0,"isfamily":0},{"id":"52329453810","owner":"86521802@N00","secret":"b24c4c3f21","server":"65535","farm":66,"title":"Brown-headed Nuthatch (Sitta pusilla)","ispublic":1,"isfriend":0,"isfamily":0},{"id":"52241014864","owner":"129803374@N05","secret":"e74c3881a6","server":"65535","farm":66,"title":"Brown-headed Nuthatch (Sitta pusilla)","ispublic":1,"isfriend":0,"isfamily":0},{"id":"52224279529","owner":"120449047@N06","secret":"f3e81beac6","server":"65535","farm":66,"title":"Brown-headed Nuthatch (2\/5 target birds)","ispublic":1,"isfriend":0,"isfamily":0},{"id":"52137481407","owner":"7856934@N03","secret":"45c104d8d4","server":"65535","farm":66,"title":"Brown-headed Nuthatch","ispublic":1,"isfriend":0,"isfamily":0},{"id":"52095373212","owner":"39511843@N07","secret":"6a3a589213","server":"65535","farm":66,"title":"Brown-headed Nuthatch (Sitta pusilla)-","ispublic":1,"isfriend":0,"isfamily":0},{"id":"52035648956","owner":"13604536@N02","secret":"50c31b0282","server":"65535","farm":66,"title":"Brown-headed nuthatch","ispublic":1,"isfriend":0,"isfamily":0},{"id":"52019161055","owner":"121644485@N06","secret":"76a76a946b","server":"65535","farm":66,"title":"Brown-headed Nuthatch","ispublic":1,"isfriend":0,"isfamily":0},{"id":"51943950029","owner":"39617069@N08","secret":"fde4f0d0f5","server":"65535","farm":66,"title":"Brown-headed Nuthatch","ispublic":1,"isfriend":0,"isfamily":0},{"id":"51917818785","owner":"184688667@N03","secret":"3d29ed3f9d","server":"65535","farm":66,"title":"Brown-headed Nuthatch in Texas","ispublic":1,"isfriend":0,"isfamily":0},{"id":"51908519675","owner":"33573751@N04","secret":"7e0f5ef043","server":"65535","farm":66,"title":"Brown-headed Nuthatch (Sitta pusilla) - Indian River County, Florida","ispublic":1,"isfriend":0,"isfamily":0},{"id":"51905816431","owner":"33573751@N04","secret":"f2ee4202c9","server":"65535","farm":66,"title":"Brown-headed Nuthatch  (Sitta pusilla) - Indian River County, Florida","ispublic":1,"isfriend":0,"isfamily":0},{"id":"51885260746","owner":"79666906@N05","secret":"b330b32ee5","server":"65535","farm":66,"title":"Brown-headed Nuthatch","ispublic":1,"isfriend":0,"isfamily":0},{"id":"51884006559","owner":"121644485@N06","secret":"aa1066a269","server":"65535","farm":66,"title":"Brown-headed Nuthatch","ispublic":1,"isfriend":0,"isfamily":0},{"id":"51859094003","owner":"79666906@N05","secret":"30b8fae2dd","server":"65535","farm":66,"title":"Brown-headed Nuthatch","ispublic":1,"isfriend":0,"isfamily":0},{"id":"51852083682","owner":"38514062@N03","secret":"e7203b8b9f","server":"65535","farm":66,"title":"Brown-headed Nuthatch (Sitta pusilla)","ispublic":1,"isfriend":0,"isfamily":0},{"id":"51853371264","owner":"38514062@N03","secret":"cb18d90937","server":"65535","farm":66,"title":"Brown-headed Nuthatch (Sitta pusilla)","ispublic":1,"isfriend":0,"isfamily":0},{"id":"51822169361","owner":"141968693@N08","secret":"d523125a5e","server":"65535","farm":66,"title":"Brown-headed Nuthatch (Sitta pusilla) 1-15-2022","ispublic":1,"isfriend":0,"isfamily":0},{"id":"51714474435","owner":"194467431@N06","secret":"a893dab225","server":"65535","farm":66,"title":"Brown-headed Nuthatch","ispublic":1,"isfriend":0,"isfamily":0},{"id":"51713865838","owner":"194467431@N06","secret":"54ebc16db4","server":"65535","farm":66,"title":"Brown-headed Nuthatch","ispublic":1,"isfriend":0,"isfamily":0},{"id":"51387304045","owner":"49114357@N08","secret":"9c936b409f","server":"65535","farm":66,"title":"Brown-headed Nuthatch","ispublic":1,"isfriend":0,"isfamily":0},{"id":"51476636213","owner":"141968693@N08","secret":"45d9434c9e","server":"65535","farm":66,"title":"Brown-headed Nuthatch (Sitta pusilla) 850_1743","ispublic":1,"isfriend":0,"isfamily":0},{"id":"51477318440","owner":"141968693@N08","secret":"9f765a88de","server":"65535","farm":66,"title":"Brown-headed Nuthatch (Sitta pusilla) 850_1779","ispublic":1,"isfriend":0,"isfamily":0},{"id":"51359727336","owner":"26803925@N05","secret":"c236614f27","server":"65535","farm":66,"title":"Brown-headed Nuthatch (Sitta pusilla) 05-28-2021 E.A.Vaughn WMA--North, Worcester Co MD 2","ispublic":1,"isfriend":0,"isfamily":0},{"id":"51359727311","owner":"26803925@N05","secret":"f79fb4a24d","server":"65535","farm":66,"title":"Brown-headed Nuthatch (Sitta pusilla) 05-28-2021 E.A.Vaughn WMA--North, Worcester Co MD 1","ispublic":1,"isfriend":0,"isfamily":0},{"id":"51344262089","owner":"26803925@N05","secret":"70193c5466","server":"65535","farm":66,"title":"Brown-headed Nuthatch (Sitta pusilla) 05-12-2021 Back Shelltown Road, Somerset Co. MD 4","ispublic":1,"isfriend":0,"isfamily":0},{"id":"51343741443","owner":"26803925@N05","secret":"bc9012d0b4","server":"65535","farm":66,"title":"Brown-headed Nuthatch (Sitta pusilla) 05-12-2021 Back Shelltown Road, Somerset Co. MD 1","ispublic":1,"isfriend":0,"isfamily":0},{"id":"51317710746","owner":"48014585@N00","secret":"b9afd50bab","server":"65535","farm":66,"title":"Brown-headed Nuthatch","ispublic":1,"isfriend":0,"isfamily":0},{"id":"51316975007","owner":"48014585@N00","secret":"1d6298afe8","server":"65535","farm":66,"title":"Brown-headed Nuthatch","ispublic":1,"isfriend":0,"isfamily":0},{"id":"51316974837","owner":"48014585@N00","secret":"6f476714b4","server":"65535","farm":66,"title":"Brown-headed Nuthatch","ispublic":1,"isfriend":0,"isfamily":0},{"id":"51269354625","owner":"142077783@N06","secret":"3d28dca579","server":"65535","farm":66,"title":"Brown-headed Nuthatch","ispublic":1,"isfriend":0,"isfamily":0},{"id":"51262764316","owner":"22420387@N07","secret":"827daff3ac","server":"65535","farm":66,"title":"Brown-headed Nuthatch - DEL_5685-LRWM","ispublic":1,"isfriend":0,"isfamily":0},{"id":"51262037602","owner":"22420387@N07","secret":"0de7eec66a","server":"65535","farm":66,"title":"Brown-headed Nuthatch - DEL_5686-LRWM","ispublic":1,"isfriend":0,"isfamily":0},{"id":"51236399453","owner":"61021753@N02","secret":"33093f8235","server":"65535","farm":66,"title":"n410_w1150","ispublic":1,"isfriend":0,"isfamily":0},{"id":"51222312551","owner":"71649471@N02","secret":"0d79122ccb","server":"65535","farm":66,"title":"Brown-headed Nuthatch","ispublic":1,"isfriend":0,"isfamily":0},{"id":"51176906411","owner":"89536386@N08","secret":"6c8c1f17ae","server":"65535","farm":66,"title":"Strange Companions","ispublic":1,"isfriend":0,"isfamily":0},{"id":"51171935579","owner":"19623720@N00","secret":"474393caf0","server":"65535","farm":66,"title":"The Fixer Upper","ispublic":1,"isfriend":0,"isfamily":0},{"id":"51169591189","owner":"19623720@N00","secret":"cc4fea4cc7","server":"65535","farm":66,"title":"Take in the Sun","ispublic":1,"isfriend":0,"isfamily":0},{"id":"51141082338","owner":"84169650@N07","secret":"1cd952d8db","server":"65535","farm":66,"title":"Brown Headed Nuthatch","ispublic":1,"isfriend":0,"isfamily":0},{"id":"51140195887","owner":"84169650@N07","secret":"7256a1edf3","server":"65535","farm":66,"title":"Brown Headed Nuthatch","ispublic":1,"isfriend":0,"isfamily":0},{"id":"51141972825","owner":"84169650@N07","secret":"bcf4406181","server":"65535","farm":66,"title":"Brown Headed Nuthatch","ispublic":1,"isfriend":0,"isfamily":0},{"id":"51130436508","owner":"26803925@N05","secret":"a281d17ceb","server":"65535","farm":66,"title":"Brown-headed Nuthatch (Sitta pusilla) 03-10-2021 Fairmont WMA, Somerset Co. MD 3","ispublic":1,"isfriend":0,"isfamily":0},{"id":"51131335340","owner":"26803925@N05","secret":"a342fe0509","server":"65535","farm":66,"title":"Brown-headed Nuthatch (Sitta pusilla) 03-10-2021 Fairmont WMA, Somerset Co. MD 1","ispublic":1,"isfriend":0,"isfamily":0},{"id":"51131335365","owner":"26803925@N05","secret":"e4f7ae5d0c","server":"65535","farm":66,"title":"Brown-headed Nuthatch (Sitta pusilla) 03-10-2021 Fairmont WMA, Somerset Co. MD 2","ispublic":1,"isfriend":0,"isfamily":0},{"id":"51112414204","owner":"40941741@N03","secret":"6948053a86","server":"65535","farm":66,"title":"House Hunting","ispublic":1,"isfriend":0,"isfamily":0},{"id":"51086461307","owner":"128810613@N02","secret":"d4de035e3e","server":"65535","farm":66,"title":"Brown-headed Nuthatch - Sitta pusilla","ispublic":1,"isfriend":0,"isfamily":0},{"id":"51071176593","owner":"40941741@N03","secret":"8189da61f9","server":"65535","farm":66,"title":"Brown-headed Nuthatch","ispublic":1,"isfriend":0,"isfamily":0},{"id":"51067395886","owner":"35041397@N00","secret":"58f5d53053","server":"65535","farm":66,"title":"Brown-headed Nuthatch","ispublic":1,"isfriend":0,"isfamily":0},{"id":"51058488868","owner":"121644485@N06","secret":"9df9ed5b7e","server":"65535","farm":66,"title":"Brown headed Nuthatch","ispublic":1,"isfriend":0,"isfamily":0},{"id":"51055590763","owner":"40941741@N03","secret":"18132fd0a3","server":"65535","farm":66,"title":"Brown-headed Nuthatch","ispublic":1,"isfriend":0,"isfamily":0},{"id":"51021305398","owner":"120449047@N06","secret":"eee5cc3bf5","server":"65535","farm":66,"title":"Brown-Headed Nuthatch","ispublic":1,"isfriend":0,"isfamily":0},{"id":"51003929642","owner":"184688667@N03","secret":"211daee3a4","server":"65535","farm":66,"title":"Brown-headed Nuthatch.  -   Sitta pusilla","ispublic":1,"isfriend":0,"isfamily":0},{"id":"50994395352","owner":"40941741@N03","secret":"55f8ddeaba","server":"65535","farm":66,"title":"Brown-headed Nuthatch Pair","ispublic":1,"isfriend":0,"isfamily":0},{"id":"52659909495","owner":"122863253@N07","secret":"7951bfb358","server":"65535","farm":66,"title":"Brown-headed nuthatch (Sitta pusilla)","ispublic":1,"isfriend":0,"isfamily":0},{"id":"52535087317","owner":"144198875@N02","secret":"2b61b8e871","server":"65535","farm":66,"title":"Brown-headed Nuthatch - Sitta pusilla","ispublic":1,"isfriend":0,"isfamily":0},{"id":"52373431092","owner":"39511843@N07","secret":"3d0c46068e","server":"65535","farm":66,"title":"Brown-headed Nuthatch (Sitta pusilla)-2-","ispublic":1,"isfriend":0,"isfamily":0},{"id":"52115961310","owner":"18581013@N04","secret":"2cfaef00e8","server":"65535","farm":66,"title":"Brown-headed Nuthatch","ispublic":1,"isfriend":0,"isfamily":0},{"id":"52072513515","owner":"190773540@N03","secret":"eda5dd9770","server":"65535","farm":66,"title":"Brown-headed Nuthatch","ispublic":1,"isfriend":0,"isfamily":0},{"id":"51958440073","owner":"79666906@N05","secret":"9aa8cf5cbe","server":"65535","farm":66,"title":"Brown-headed Nuthatch","ispublic":1,"isfriend":0,"isfamily":0},{"id":"51924869542","owner":"79666906@N05","secret":"588672fd45","server":"65535","farm":66,"title":"Brown-headed Nuthatch","ispublic":1,"isfriend":0,"isfamily":0},{"id":"51916590085","owner":"39617069@N08","secret":"8de8279f3f","server":"65535","farm":66,"title":"Brown-headed Nuthatch","ispublic":1,"isfriend":0,"isfamily":0},{"id":"51905912206","owner":"33573751@N04","secret":"9af57f51bf","server":"65535","farm":66,"title":"Brown-headed Nuthatch  (Sitta pusilla) - Indian River County, Florida","ispublic":1,"isfriend":0,"isfamily":0},{"id":"51698737732","owner":"29367844@N03","secret":"f78ac61193","server":"65535","farm":66,"title":"Brown-Headed Nuthatch at Blackwater","ispublic":1,"isfriend":0,"isfamily":0},{"id":"51629096351","owner":"40941741@N03","secret":"95d0d4f6b5","server":"65535","farm":66,"title":"Nuthatch in the Longleaf","ispublic":1,"isfriend":0,"isfamily":0},{"id":"51548484210","owner":"40941741@N03","secret":"a98f4b6598","server":"65535","farm":66,"title":"Well Used Dead Tree","ispublic":1,"isfriend":0,"isfamily":0},{"id":"51317915193","owner":"48014585@N00","secret":"e5ab777cc6","server":"65535","farm":66,"title":"Brown-headed Nuthatch","ispublic":1,"isfriend":0,"isfamily":0},{"id":"51318714915","owner":"48014585@N00","secret":"b89880610c","server":"65535","farm":66,"title":"Brown-headed Nuthatch","ispublic":1,"isfriend":0,"isfamily":0},{"id":"51317707586","owner":"48014585@N00","secret":"5b45d17647","server":"65535","farm":66,"title":"Brown-headed Nuthatch","ispublic":1,"isfriend":0,"isfamily":0},{"id":"51318430744","owner":"48014585@N00","secret":"ea404efd77","server":"65535","farm":66,"title":"Brown-headed Nuthatch","ispublic":1,"isfriend":0,"isfamily":0},{"id":"51318430689","owner":"48014585@N00","secret":"a77a75f0b1","server":"65535","farm":66,"title":"Brown-headed Nuthatch","ispublic":1,"isfriend":0,"isfamily":0},{"id":"51318430474","owner":"48014585@N00","secret":"4a502593b6","server":"65535","farm":66,"title":"Brown-headed Nuthatch","ispublic":1,"isfriend":0,"isfamily":0},{"id":"51120711738","owner":"48014585@N00","secret":"3a19d22da2","server":"65535","farm":66,"title":"Brown-headed Nuthatch","ispublic":1,"isfriend":0,"isfamily":0},{"id":"51015439316","owner":"120449047@N06","secret":"b8ee8edb28","server":"65535","farm":66,"title":"Brown-Headed Nuthatch (lifer)","ispublic":1,"isfriend":0,"isfamily":0}]},"stat":"ok"}