{"photos":{"page":1,"pages":5,"perpage":100,"total":407,"photo":[{"id":"52661666394","owner":"39177293@N03","secret":"444a305cf9","server":"65535","farm":66,"title":"Buff-bellied Hummingbird","ispublic":1,"isfriend":0,"isfamily":0},{"id":"52660880682","owner":"39177293@N03","secret":"0daaed56eb","server":"65535","farm":66,"title":"Buff-bellied Hummingbird","ispublic":1,"isfriend":0,"isfamily":0},{"id":"52580129132","owner":"80355852@N00","secret":"e2e47aa87b","server":"65535","farm":66,"title":"Buff-bellied Hummingbird","ispublic":1,"isfriend":0,"isfamily":0},{"id":"52555256018","owner":"194946227@N02","secret":"378220fb26","server":"65535","farm":66,"title":"Buff-bellied Hummingbird2","ispublic":1,"isfriend":0,"isfamily":0},{"id":"52521437370","owner":"65788177@N02","secret":"b85a97613b","server":"65535","farm":66,"title":"Buff-bellied Hummingbird","ispublic":1,"isfriend":0,"isfamily":0},{"id":"52512466378","owner":"143629656@N04","secret":"a0ee9fc2ce","server":"65535","farm":66,"title":"Buff-bellied Hummingbird","ispublic":1,"isfriend":0,"isfamily":0},{"id":"52318690149","owner":"123979267@N05","secret":"3483e09469","server":"65535","farm":66,"title":"Buff-bellied Hummingbird","ispublic":1,"isfriend":0,"isfamily":0},{"id":"51942425786","owner":"39617069@N08","secret":"c1097b0a68","server":"65535","farm":66,"title":"Buff-bellied Hummingbird","ispublic":1,"isfriend":0,"isfamily":0},{"id":"51891137771","owner":"191097592@N05","secret":"f96d39b0db","server":"65535","farm":66,"title":"buff-bellied hummingbird - Amazilia yucatanensis","ispublic":1,"isfriend":0,"isfamily":0},{"id":"51848714209","owner":"190185506@N04","secret":"78e8c4b5af","server":"65535","farm":66,"title":"Amazilia_yucatanensis_LARGE_buff_bellied_hummingbird_ariane_du_yucatan_mexique_campeche","ispublic":1,"isfriend":0,"isfamily":0},{"id":"51755534003","owner":"48014585@N00","secret":"1625ea6649","server":"65535","farm":66,"title":"Buff-bellied Hummingbird","ispublic":1,"isfriend":0,"isfamily":0},{"id":"51755934834","owner":"48014585@N00","secret":"79500ab612","server":"65535","farm":66,"title":"Buff-bellied Hummingbird","ispublic":1,"isfriend":0,"isfamily":0},{"id":"51539608528","owner":"30418455@N00","secret":"800a588803","server":"65535","farm":66,"title":"BUFF-BELLIED HUMMINGBIRD 3","ispublic":1,"isfriend":0,"isfamily":0},{"id":"51539226451","owner":"30418455@N00","secret":"1f0c3ee14c","server":"65535","farm":66,"title":"BUFF-BELLIED HUMMINGBIRD 2","ispublic":1,"isfriend":0,"isfamily":0},{"id":"51538438677","owner":"30418455@N00","secret":"f0cd31c3f1","server":"65535","farm":66,"title":"BUFF-BELLIED HUMMINGBIRD 1","ispublic":1,"isfriend":0,"isfamily":0},{"id":"51532014067","owner":"27434953@N02","secret":"1c3152bf92","server":"65535","farm":66,"title":"Buff-bellied Hummingbird (Amazilia yucatanensis)","ispublic":1,"isfriend":0,"isfamily":0},{"id":"51195181084","owner":"56983940@N06","secret":"7668cf19df","server":"65535","farm":66,"title":"Buff-bellied Hummingbird","ispublic":1,"isfriend":0,"isfamily":0},{"id":"51071815398","owner":"150197356@N05","secret":"e7cd9e16b4","server":"65535","farm":66,"title":"Buff-bellied Hummingbird","ispublic":1,"isfriend":0,"isfamily":0},{"id":"50930617132","owner":"13451078@N03","secret":"f55fc9cc25","server":"65535","farm":66,"title":"Buff-bellied Hummingbird 2 (Amazilia yucatanensis)","ispublic":1,"isfriend":0,"isfamily":0},{"id":"50846753887","owner":"21702714@N06","secret":"bf626747eb","server":"65535","farm":66,"title":"Buff-bellied Hummingbird","ispublic":1,"isfriend":0,"isfamily":0},{"id":"50846753407","owner":"21702714@N06","secret":"0504a53318","server":"65535","farm":66,"title":"Buff-bellied Hummingbird","ispublic":1,"isfriend":0,"isfamily":0},{"id":"50271615571","owner":"140734051@N08","secret":"e121c771cb","server":"65535","farm":66,"title":"\u042e\u043a\u0430\u0442\u0430\u043d\u0441\u043a\u0430\u044f \u0430\u043c\u0430\u0437\u0438\u043b\u0438\u044f, Amazilia yucatanensis yucatanensis, Buff-bellied Hummingbird","ispublic":1,"isfriend":0,"isfamily":0},{"id":"50271615496","owner":"140734051@N08","secret":"963f5bbf32","server":"65535","farm":66,"title":"\u042e\u043a\u0430\u0442\u0430\u043d\u0441\u043a\u0430\u044f \u0430\u043c\u0430\u0437\u0438\u043b\u0438\u044f, Amazilia yucatanensis yucatanensis, Buff-bellied Hummingbird","ispublic":1,"isfriend":0,"isfamily":0},{"id":"50271615356","owner":"140734051@N08","secret":"75fbec986c","server":"65535","farm":66,"title":"\u042e\u043a\u0430\u0442\u0430\u043d\u0441\u043a\u0430\u044f \u0430\u043c\u0430\u0437\u0438\u043b\u0438\u044f, Amazilia yucatanensis yucatanensis, Buff-bellied Hummingbird","ispublic":1,"isfriend":0,"isfamily":0},{"id":"50270949238","owner":"140734051@N08","secret":"a54e544ffd","server":"65535","farm":66,"title":"\u042e\u043a\u0430\u0442\u0430\u043d\u0441\u043a\u0430\u044f \u0430\u043c\u0430\u0437\u0438\u043b\u0438\u044f, Amazilia yucatanensis yucatanensis, Buff-bellied Hummingbird","ispublic":1,"isfriend":0,"isfamily":0},{"id":"50043026802","owner":"101227797@N03","secret":"f983da34c2","server":"65535","farm":66,"title":"Buff-bellied Hummingbird","ispublic":1,"isfriend":0,"isfamily":0},{"id":"50016757587","owner":"8378957@N02","secret":"1a9780fc6b","server":"65535","farm":66,"title":"Buff-bellied Hummingbird","ispublic":1,"isfriend":0,"isfamily":0},{"id":"49852243317","owner":"183564486@N05","secret":"54cd93bc17","server":"65535","farm":66,"title":"Buff-bellied Hummingbird","ispublic":1,"isfriend":0,"isfamily":0},{"id":"49783099146","owner":"25527950@N03","secret":"667da7010d","server":"65535","farm":66,"title":"Colibr\u00ed Vientre Canelo (Amazilia yucatanensis)","ispublic":1,"isfriend":0,"isfamily":0},{"id":"49782129551","owner":"25527950@N03","secret":"9f316ff770","server":"65535","farm":66,"title":"Colibr\u00ed Vientre Canelo (Amazilia yucatanensis) en flores de Campanilla Roja (Ipomoea coccinea)","ispublic":1,"isfriend":0,"isfamily":0},{"id":"49782129421","owner":"25527950@N03","secret":"bf1140cd52","server":"65535","farm":66,"title":"Colibr\u00ed Vientre Canelo (Amazilia yucatanensis)","ispublic":1,"isfriend":0,"isfamily":0},{"id":"49775356681","owner":"183564486@N05","secret":"ec214fc344","server":"65535","farm":66,"title":"Ruby-throated Hummingbird","ispublic":1,"isfriend":0,"isfamily":0},{"id":"49740986922","owner":"183564486@N05","secret":"bce59b6f21","server":"65535","farm":66,"title":"Buff-bellied Hummingbird","ispublic":1,"isfriend":0,"isfamily":0},{"id":"49667708061","owner":"22420387@N07","secret":"613f16b2fe","server":"65535","farm":66,"title":"Buff-bellied Hummingbird - DEL_1458-LRwm","ispublic":1,"isfriend":0,"isfamily":0},{"id":"49667991962","owner":"22420387@N07","secret":"6e571f5f1f","server":"65535","farm":66,"title":"Buff-bellied Hummingbird - DEL_1459-LRwm","ispublic":1,"isfriend":0,"isfamily":0},{"id":"49304999306","owner":"102541808@N06","secret":"aab786547f","server":"65535","farm":66,"title":"Amazilia yucatanensis","ispublic":1,"isfriend":0,"isfamily":0},{"id":"49148500213","owner":"183564486@N05","secret":"461a919a11","server":"65535","farm":66,"title":"Buff-bellied Hummingbird","ispublic":1,"isfriend":0,"isfamily":0},{"id":"49060664376","owner":"14573430@N08","secret":"c9862eec28","server":"65535","farm":66,"title":"Buff-Bellied Hummingbird","ispublic":1,"isfriend":0,"isfamily":0},{"id":"48330428897","owner":"117692977@N08","secret":"69a741882f","server":"65535","farm":66,"title":"Amazilia yucatanensis, Buff-bellied Hummingbird, Yucat\u00e1namazilia","ispublic":1,"isfriend":0,"isfamily":0},{"id":"48330297106","owner":"117692977@N08","secret":"89a7f88bd5","server":"65535","farm":66,"title":"Amazilia yucatanensis, Buff-bellied Hummingbird, Yucat\u00e1namazilia","ispublic":1,"isfriend":0,"isfamily":0},{"id":"48330427707","owner":"117692977@N08","secret":"385871829c","server":"65535","farm":66,"title":"Amazilia yucatanensis, Buff-bellied Hummingbird, Yucat\u00e1namazilia","ispublic":1,"isfriend":0,"isfamily":0},{"id":"48330425107","owner":"117692977@N08","secret":"d50f2e8afb","server":"65535","farm":66,"title":"Amazilia yucatanensis, Buff-bellied Hummingbird, Yucat\u00e1namazilia","ispublic":1,"isfriend":0,"isfamily":0},{"id":"48330425117","owner":"117692977@N08","secret":"b8f4afdfd2","server":"65535","farm":66,"title":"Amazilia yucatanensis, Buff-bellied Hummingbird, Yucat\u00e1namazilia","ispublic":1,"isfriend":0,"isfamily":0},{"id":"48330293531","owner":"117692977@N08","secret":"5785c7818b","server":"65535","farm":66,"title":"Amazilia yucatanensis, Buff-bellied Hummingbird, Yucat\u00e1namazilia","ispublic":1,"isfriend":0,"isfamily":0},{"id":"48198019006","owner":"52631592@N05","secret":"f2309dc784","server":"65535","farm":66,"title":"Buff-bellied hummingbird (Amazilia yucatanensis)","ispublic":1,"isfriend":0,"isfamily":0},{"id":"48195421072","owner":"47020313@N08","secret":"cb213c5b2c","server":"65535","farm":66,"title":"Buff bellied Hummingbird IMG_7138edtsg","ispublic":1,"isfriend":0,"isfamily":0},{"id":"48044546141","owner":"152358388@N03","secret":"07b4a8cace","server":"65535","farm":66,"title":"Colibr\u00ed Vientre Canelo\/ Amazilia yucatanensis\/ Buff-bellied hummingbird.","ispublic":1,"isfriend":0,"isfamily":0},{"id":"47077607294","owner":"71833159@N00","secret":"ef0527ca43","server":"65535","farm":66,"title":"Day 7, Buff-bellied Hummingbird \/ Amazilia yucatanensis","ispublic":1,"isfriend":0,"isfamily":0},{"id":"47735529662","owner":"47020313@N08","secret":"47db1974b2","server":"65535","farm":66,"title":"Buff bellied Hummingbird 002edtsg","ispublic":1,"isfriend":0,"isfamily":0},{"id":"33311954808","owner":"25527950@N03","secret":"cab46a35f4","server":"7844","farm":8,"title":"Colibr\u00ed Pecho Canela (Amazilia yucatanensis) Alimentandose de flores de Maracuya (Passiflora bicornis) Maxcanu Yucatan","ispublic":1,"isfriend":0,"isfamily":0},{"id":"46273070155","owner":"25527950@N03","secret":"32b050be47","server":"7813","farm":8,"title":"Colibri pecho canela (Amazilia yucatanensis) Alimentandose de Ipomoea coccinea Maxcanu Yucatan","ispublic":1,"isfriend":0,"isfamily":0},{"id":"33311950788","owner":"25527950@N03","secret":"06246e62ae","server":"7885","farm":8,"title":"Colibr\u00ed Pecho Canela (Amazilia yucatanensis) Maxcanu Yucatan cerca de la Urbe","ispublic":1,"isfriend":0,"isfamily":0},{"id":"46273067645","owner":"25527950@N03","secret":"48c39d8547","server":"7909","farm":8,"title":"Colibr\u00ed Pecho Canela (Amazilia yucatanensis) Parque Nacional Palenque Zona Arqueologica","ispublic":1,"isfriend":0,"isfamily":0},{"id":"47135333722","owner":"25527950@N03","secret":"cfe5e0a50c","server":"7860","farm":8,"title":"Colibri pecho canela (Amazilia yucatanensis) Perchado Maxcanu Yucatan","ispublic":1,"isfriend":0,"isfamily":0},{"id":"46028627375","owner":"25527950@N03","secret":"7f5b058606","server":"7894","farm":8,"title":"Colibr\u00ed Vientre Canelo (Amazilia yucatanensis)","ispublic":1,"isfriend":0,"isfamily":0},{"id":"46244970982","owner":"32599741@N03","secret":"ecf891cfc8","server":"4862","farm":5,"title":"a buff hummer","ispublic":1,"isfriend":0,"isfamily":0},{"id":"52541504758","owner":"33610210@N05","secret":"22f40bb6b7","server":"65535","farm":66,"title":"Buff-bellied Hummingbird, Amazilia yucatanensis","ispublic":1,"isfriend":0,"isfamily":0},{"id":"52540493302","owner":"33610210@N05","secret":"c391bbe6f2","server":"65535","farm":66,"title":"Buff-bellied Hummingbird, Amazilia yucatanensis","ispublic":1,"isfriend":0,"isfamily":0},{"id":"52294396152","owner":"161363605@N07","secret":"2bfdecaea1","server":"65535","farm":66,"title":"'Amigos del huerto' Un colibr\u00ed vientre canelo (Amazilia yucatanensis) posa en una rama k'an lool.","ispublic":1,"isfriend":0,"isfamily":0},{"id":"52267893924","owner":"59631194@N06","secret":"21c021bd17","server":"65535","farm":66,"title":"Buff-bellied hummingbird (Amazilia yucatanensis)","ispublic":1,"isfriend":0,"isfamily":0},{"id":"52265015114","owner":"59631194@N06","secret":"8c4390b791","server":"65535","farm":66,"title":"Buff-bellied hummingbird (Amazilia yucatanensis)","ispublic":1,"isfriend":0,"isfamily":0},{"id":"51301645493","owner":"67306066@N03","secret":"c1b7478459","server":"65535","farm":66,"title":"Buff-bellied Hummingbird (Amazilia yucatanensis)","ispublic":1,"isfriend":0,"isfamily":0},{"id":"51295005848","owner":"67306066@N03","secret":"156b54b2eb","server":"65535","farm":66,"title":"Buff-bellied Hummingbird (Amazilia yucatanensis)","ispublic":1,"isfriend":0,"isfamily":0},{"id":"51146316017","owner":"67306066@N03","secret":"ca77f2a66c","server":"65535","farm":66,"title":"Buff-bellied Hummingbird (Amazilia yucatanensis)","ispublic":1,"isfriend":0,"isfamily":0},{"id":"51148031730","owner":"67306066@N03","secret":"4dd80e4b13","server":"65535","farm":66,"title":"Buff-bellied Hummingbird (Amazilia yucatanensis)","ispublic":1,"isfriend":0,"isfamily":0},{"id":"51148031430","owner":"67306066@N03","secret":"d6948523c1","server":"65535","farm":66,"title":"Buff-bellied Hummingbird (Amazilia yucatanensis)","ispublic":1,"isfriend":0,"isfamily":0},{"id":"51049823123","owner":"67306066@N03","secret":"e70ecf8d76","server":"65535","farm":66,"title":"Buff-bellied Hummingbird (Amazilia yucatanensis)","ispublic":1,"isfriend":0,"isfamily":0},{"id":"51049822728","owner":"67306066@N03","secret":"f18960d400","server":"65535","farm":66,"title":"Buff-bellied Hummingbird (Amazilia yucatanensis)","ispublic":1,"isfriend":0,"isfamily":0},{"id":"51050549596","owner":"67306066@N03","secret":"9724c5ea25","server":"65535","farm":66,"title":"Buff-bellied Hummingbird (Amazilia yucatanensis)","ispublic":1,"isfriend":0,"isfamily":0},{"id":"50994309071","owner":"162482904@N06","secret":"cedbc6ccef","server":"65535","farm":66,"title":"Amazilia yucatanensis ME 01","ispublic":1,"isfriend":0,"isfamily":0},{"id":"50977014273","owner":"150163656@N06","secret":"290aed66c8","server":"65535","farm":66,"title":"Buff-bellied hummingbird","ispublic":1,"isfriend":0,"isfamily":0},{"id":"50930610617","owner":"13451078@N03","secret":"85c98b6f8e","server":"65535","farm":66,"title":"Buff-bellied Hummingbird 3 (Amazilia yucatanensis)","ispublic":1,"isfriend":0,"isfamily":0},{"id":"50846464686","owner":"67306066@N03","secret":"9f670c0135","server":"65535","farm":66,"title":"Buff-bellied Hummingbird (Amazilia yucatanensis)","ispublic":1,"isfriend":0,"isfamily":0},{"id":"50846550022","owner":"67306066@N03","secret":"3801beb78c","server":"65535","farm":66,"title":"Buff-bellied Hummingbird (Amazilia yucatanensis)","ispublic":1,"isfriend":0,"isfamily":0},{"id":"50845738148","owner":"67306066@N03","secret":"36f854e95b","server":"65535","farm":66,"title":"Buff-bellied Hummingbird (Amazilia yucatanensis)","ispublic":1,"isfriend":0,"isfamily":0},{"id":"49775359901","owner":"183564486@N05","secret":"03d29d8421","server":"65535","farm":66,"title":"Buff-bellied hummingbird","ispublic":1,"isfriend":0,"isfamily":0},{"id":"49448744282","owner":"67306066@N03","secret":"41c23b5a49","server":"65535","farm":66,"title":"Buff-bellied Hummingbird (Northern) (Amazilia yucatanensis chalconota)","ispublic":1,"isfriend":0,"isfamily":0},{"id":"49448512591","owner":"67306066@N03","secret":"74ae43c80f","server":"65535","farm":66,"title":"Buff-bellied Hummingbird (Amazilia yucatanensis)","ispublic":1,"isfriend":0,"isfamily":0},{"id":"49448744002","owner":"67306066@N03","secret":"2caa7c85e7","server":"65535","farm":66,"title":"Buff-bellied Hummingbird (Amazilia yucatanensis)","ispublic":1,"isfriend":0,"isfamily":0},{"id":"48762383362","owner":"91620959@N08","secret":"3ecf7ace8c","server":"65535","farm":66,"title":"Buff-bellied hummingbird (Amazilia yucatanensis)","ispublic":1,"isfriend":0,"isfamily":0},{"id":"48702065473","owner":"114016722@N02","secret":"64a901849b","server":"65535","farm":66,"title":"Buff-bellied Hummingbird -  Amazilia yucatanensis","ispublic":1,"isfriend":0,"isfamily":0},{"id":"48666507878","owner":"26803925@N05","secret":"c76c1bc3b9","server":"65535","farm":66,"title":"Buff-bellied Hummingbird [Northern] (Amazilia yucatanensis chalconota) 02-01-2005 Frontera Audubon Center, Hidalgo Co. TX 7","ispublic":1,"isfriend":0,"isfamily":0},{"id":"48666850506","owner":"26803925@N05","secret":"0a07353f49","server":"65535","farm":66,"title":"Buff-bellied Hummingbird [Northern] (Amazilia yucatanensis chalconota) 02-01-2005 Frontera Audubon Center, Hidalgo Co. TX 4","ispublic":1,"isfriend":0,"isfamily":0},{"id":"48666850551","owner":"26803925@N05","secret":"ef0d2a607f","server":"65535","farm":66,"title":"Buff-bellied Hummingbird [Northern] (Amazilia yucatanensis chalconota) 02-01-2005 Frontera Audubon Center, Hidalgo Co. TX 5","ispublic":1,"isfriend":0,"isfamily":0},{"id":"48666507723","owner":"26803925@N05","secret":"3198a32539","server":"65535","farm":66,"title":"Buff-bellied Hummingbird [Northern] (Amazilia yucatanensis chalconota) 02-01-2005 Frontera Audubon Center, Hidalgo Co. TX 3","ispublic":1,"isfriend":0,"isfamily":0},{"id":"48654959831","owner":"26803925@N05","secret":"5234093d24","server":"65535","farm":66,"title":"Buff-bellied Hummingbird [Northern] (Amazilia yucatanensis chalconota) 01-27-2005 Frontera Audubon Center, Hidalgo Co. TX 2","ispublic":1,"isfriend":0,"isfamily":0},{"id":"48654602228","owner":"26803925@N05","secret":"038bb6e75f","server":"65535","farm":66,"title":"Buff-bellied Hummingbird [Northern] (Amazilia yucatanensis chalconota) 01-27-2005 Frontera Audubon Center, Hidalgo Co. TX 4","ispublic":1,"isfriend":0,"isfamily":0},{"id":"48568782506","owner":"183627640@N04","secret":"3f5f959950","server":"65535","farm":66,"title":"Amazilia-yucatanensis-1","ispublic":1,"isfriend":0,"isfamily":0},{"id":"48568929147","owner":"183627640@N04","secret":"b0cec10171","server":"65535","farm":66,"title":"Amazilia-yucatanensis-2","ispublic":1,"isfriend":0,"isfamily":0},{"id":"48568782161","owner":"183627640@N04","secret":"a9dd0933d7","server":"65535","farm":66,"title":"Amazilia-yucatanensis-3","ispublic":1,"isfriend":0,"isfamily":0},{"id":"48568928832","owner":"183627640@N04","secret":"633d659c0b","server":"65535","farm":66,"title":"Amazilia-yucatanensis-4","ispublic":1,"isfriend":0,"isfamily":0},{"id":"48568781926","owner":"183627640@N04","secret":"14c4c88582","server":"65535","farm":66,"title":"Amazilia-yucatanensis-5","ispublic":1,"isfriend":0,"isfamily":0},{"id":"47911910671","owner":"8786969@N02","secret":"44bb13f77b","server":"65535","farm":66,"title":"Buff-bellied Hummingbird","ispublic":1,"isfriend":0,"isfamily":0},{"id":"46995960785","owner":"8786969@N02","secret":"9cba7350d9","server":"65535","farm":66,"title":"Buff-bellied Hummingbird","ispublic":1,"isfriend":0,"isfamily":0},{"id":"47203614961","owner":"65788177@N02","secret":"3bc9edff6b","server":"7805","farm":8,"title":"Buff-bellied Hummingbird","ispublic":1,"isfriend":0,"isfamily":0},{"id":"32243861977","owner":"24110087@N05","secret":"094bcc4b4e","server":"7920","farm":8,"title":"Buff-bellied Hummingbird (Amazilia yucatanensis)","ispublic":1,"isfriend":0,"isfamily":0},{"id":"32234130767","owner":"25527950@N03","secret":"20f6c49b74","server":"7905","farm":8,"title":"019 Colibr\u00ed Vientre Canelo (Amazilia yucatanensis) Maxcanu Yucatan","ispublic":1,"isfriend":0,"isfamily":0},{"id":"47175843441","owner":"25527950@N03","secret":"3dbacbf6ce","server":"7883","farm":8,"title":"011 Colibr\u00ed Vientre Canelo (Amazilia yucatanensis) 11 de 11","ispublic":1,"isfriend":0,"isfamily":0},{"id":"46782880162","owner":"123979267@N05","secret":"78368a56c0","server":"7877","farm":8,"title":"Buff-bellied Hummingbird","ispublic":1,"isfriend":0,"isfamily":0},{"id":"32759274988","owner":"25527950@N03","secret":"d2e55432bc","server":"7901","farm":8,"title":"Colibr\u00ed Vientre Canelo (Amazilia yucatanensis)","ispublic":1,"isfriend":0,"isfamily":0}]},"stat":"ok"}