{"photos":{"page":1,"pages":68,"perpage":100,"total":6744,"photo":[{"id":"52789274774","owner":"95355208@N04","secret":"7fabe2dd29","server":"65535","farm":66,"title":"Bufflehead","ispublic":1,"isfriend":0,"isfamily":0},{"id":"52788722705","owner":"143326780@N02","secret":"3c81bc37f0","server":"65535","farm":66,"title":"DSCN7886","ispublic":1,"isfriend":0,"isfamily":0},{"id":"52786209402","owner":"25899079@N08","secret":"a9a9a776b6","server":"65535","farm":66,"title":"Bufflehead (0105)","ispublic":1,"isfriend":0,"isfamily":0},{"id":"52784654188","owner":"59676118@N06","secret":"b387f58960","server":"65535","farm":66,"title":"Bufflehead Drake in Breeding Plumage","ispublic":1,"isfriend":0,"isfamily":0},{"id":"52781461608","owner":"165841515@N03","secret":"65ab469e46","server":"65535","farm":66,"title":"Petit Garrot \/ Bufflehead \/ (Bucephala albeola)","ispublic":1,"isfriend":0,"isfamily":0},{"id":"52780924684","owner":"77671375@N04","secret":"58bc88e3b3","server":"65535","farm":66,"title":"Bufflehead","ispublic":1,"isfriend":0,"isfamily":0},{"id":"52780386456","owner":"40006638@N06","secret":"90eff44cc4","server":"65535","farm":66,"title":"Bufflehead - 094A7933a2c1","ispublic":1,"isfriend":0,"isfamily":0},{"id":"52777803261","owner":"154261763@N05","secret":"9836789b73","server":"65535","farm":66,"title":"Bufflehead (Bucephala albeola) - B\u00fcffelkopfente","ispublic":1,"isfriend":0,"isfamily":0},{"id":"52778123138","owner":"62043870@N05","secret":"e8140172cb","server":"65535","farm":66,"title":"Bufflehead, Bucephala albeola","ispublic":1,"isfriend":0,"isfamily":0},{"id":"52775443387","owner":"12914838@N00","secret":"a91cb6c8cc","server":"65535","farm":66,"title":"Buffleheads Barrow's Goldeneye gf295","ispublic":1,"isfriend":0,"isfamily":0},{"id":"52776459878","owner":"12914838@N00","secret":"596b3c1ca0","server":"65535","farm":66,"title":"Buffleheads Barrow's Goldeneye gf290","ispublic":1,"isfriend":0,"isfamily":0},{"id":"52775977716","owner":"12914838@N00","secret":"24c46f3d9f","server":"65535","farm":66,"title":"Bufflehead gf281","ispublic":1,"isfriend":0,"isfamily":0},{"id":"52775723261","owner":"8563910@N08","secret":"12b46f4d69","server":"65535","farm":66,"title":"This pond is not big enough for the both of us!","ispublic":1,"isfriend":0,"isfamily":0},{"id":"52776130210","owner":"8563910@N08","secret":"711d21b333","server":"65535","farm":66,"title":"This pond is not big enough for the both of us!","ispublic":1,"isfriend":0,"isfamily":0},{"id":"52773676064","owner":"40006638@N06","secret":"830589d505","server":"65535","farm":66,"title":"Bufflehead Pair - 094A7924ab4c2","ispublic":1,"isfriend":0,"isfamily":0},{"id":"52771975436","owner":"8563910@N08","secret":"4f687d1c85","server":"65535","farm":66,"title":"20230324 Bufflehead Feeling Proud","ispublic":1,"isfriend":0,"isfamily":0},{"id":"52768570281","owner":"185605587@N03","secret":"8233875534","server":"65535","farm":66,"title":"Female Bufflehead (Bucephala albeola) Ridgefield NWR -January 12, 2022","ispublic":1,"isfriend":0,"isfamily":0},{"id":"52768570141","owner":"185605587@N03","secret":"b2084e36c8","server":"65535","farm":66,"title":"Bufflehead (Bucephala albeola) Ridgefield NWR -January 12, 2022","ispublic":1,"isfriend":0,"isfamily":0},{"id":"52767949562","owner":"44904157@N04","secret":"02f5356f07","server":"65535","farm":66,"title":"On Golden Pond","ispublic":1,"isfriend":0,"isfamily":0},{"id":"52767609685","owner":"39445433@N02","secret":"c3310b802f","server":"65535","farm":66,"title":"Bufflehead","ispublic":1,"isfriend":0,"isfamily":0},{"id":"52767685188","owner":"39445433@N02","secret":"f6fa810c35","server":"65535","farm":66,"title":"Bufflehead","ispublic":1,"isfriend":0,"isfamily":0},{"id":"52767448489","owner":"39445433@N02","secret":"1c0e8b80bf","server":"65535","farm":66,"title":"Bufflehead","ispublic":1,"isfriend":0,"isfamily":0},{"id":"52767684688","owner":"39445433@N02","secret":"563fc93b8b","server":"65535","farm":66,"title":"Bufflehead","ispublic":1,"isfriend":0,"isfamily":0},{"id":"52767195521","owner":"39445433@N02","secret":"ae9cfb2c2b","server":"65535","farm":66,"title":"Bufflehead","ispublic":1,"isfriend":0,"isfamily":0},{"id":"52767195036","owner":"39445433@N02","secret":"4371a8e604","server":"65535","farm":66,"title":"Bufflehead","ispublic":1,"isfriend":0,"isfamily":0},{"id":"52767194791","owner":"39445433@N02","secret":"c86eb58d5c","server":"65535","farm":66,"title":"Bufflehead","ispublic":1,"isfriend":0,"isfamily":0},{"id":"52767194471","owner":"39445433@N02","secret":"1da7901b82","server":"65535","farm":66,"title":"Bufflehead","ispublic":1,"isfriend":0,"isfamily":0},{"id":"52767485823","owner":"187792860@N04","secret":"15ce6ff0e5","server":"65535","farm":66,"title":"Bufflehead (Bucephala albeola)","ispublic":1,"isfriend":0,"isfamily":0},{"id":"52766480970","owner":"29610556@N02","secret":"19f1bd0a05","server":"65535","farm":66,"title":"Bufflehead (Bucephala albeola)","ispublic":1,"isfriend":0,"isfamily":0},{"id":"52765708901","owner":"120449047@N06","secret":"be043ac24a","server":"65535","farm":66,"title":"Bufflehead","ispublic":1,"isfriend":0,"isfamily":0},{"id":"52765687199","owner":"61316002@N02","secret":"f3bd7307f9","server":"65535","farm":66,"title":"BUFFLE M 1181","ispublic":1,"isfriend":0,"isfamily":0},{"id":"52762166362","owner":"68635735@N02","secret":"882fa69302","server":"65535","farm":66,"title":"Bufflehead (Bucephala albeola) male","ispublic":1,"isfriend":0,"isfamily":0},{"id":"52762710166","owner":"68635735@N02","secret":"d08b6927c1","server":"65535","farm":66,"title":"Bufflehead (Bucephala albeola) male","ispublic":1,"isfriend":0,"isfamily":0},{"id":"52762352989","owner":"195537536@N03","secret":"f2ec1bd918","server":"65535","farm":66,"title":"Bufflehead (Bucephala albeola) Male:  He went Thataway!","ispublic":1,"isfriend":0,"isfamily":0},{"id":"52762101146","owner":"195537536@N03","secret":"845650e22e","server":"65535","farm":66,"title":"Bufflehead (Bucephala albeola) Male","ispublic":1,"isfriend":0,"isfamily":0},{"id":"52762118379","owner":"62043870@N05","secret":"63e277c72a","server":"65535","farm":66,"title":"Bufflehead, Bucephala albeola","ispublic":1,"isfriend":0,"isfamily":0},{"id":"52759633803","owner":"144980256@N07","secret":"49d16fc7c3","server":"65535","farm":66,"title":"Bufflehead (Bucephala albeola)","ispublic":1,"isfriend":0,"isfamily":0},{"id":"52759146931","owner":"144980256@N07","secret":"f83f3744c5","server":"65535","farm":66,"title":"Bufflehead (Bucephala albeola)","ispublic":1,"isfriend":0,"isfamily":0},{"id":"52759621333","owner":"144980256@N07","secret":"b79ba1f2c1","server":"65535","farm":66,"title":"Bufflehead (Bucephala albeola)","ispublic":1,"isfriend":0,"isfamily":0},{"id":"52759082054","owner":"62043870@N05","secret":"e066de4950","server":"65535","farm":66,"title":"Bufflehead, Bucephala albeola","ispublic":1,"isfriend":0,"isfamily":0},{"id":"52758562365","owner":"84169650@N07","secret":"2ec50f183a","server":"65535","farm":66,"title":"Bufflehead","ispublic":1,"isfriend":0,"isfamily":0},{"id":"52756284646","owner":"26520320@N03","secret":"aa927266b6","server":"65535","farm":66,"title":"_BAP1278","ispublic":1,"isfriend":0,"isfamily":0},{"id":"52756527734","owner":"26520320@N03","secret":"74c43ea899","server":"65535","farm":66,"title":"_BAP1255","ispublic":1,"isfriend":0,"isfamily":0},{"id":"52756524619","owner":"26520320@N03","secret":"1a8c8a640a","server":"65535","farm":66,"title":"_BAP1240","ispublic":1,"isfriend":0,"isfamily":0},{"id":"52756676695","owner":"26520320@N03","secret":"cbb667d4c8","server":"65535","farm":66,"title":"_BAP1207","ispublic":1,"isfriend":0,"isfamily":0},{"id":"52756515994","owner":"26520320@N03","secret":"a99072e41b","server":"65535","farm":66,"title":"_BAP1202","ispublic":1,"isfriend":0,"isfamily":0},{"id":"52756268966","owner":"26520320@N03","secret":"8bff2c2ffd","server":"65535","farm":66,"title":"_BAP1196","ispublic":1,"isfriend":0,"isfamily":0},{"id":"52756752043","owner":"26520320@N03","secret":"3fc2b3b7a2","server":"65535","farm":66,"title":"_BAP1195","ispublic":1,"isfriend":0,"isfamily":0},{"id":"52754785069","owner":"189850730@N04","secret":"31bb332709","server":"65535","farm":66,"title":"DSC_0174","ispublic":1,"isfriend":0,"isfamily":0},{"id":"52754760284","owner":"62043870@N05","secret":"4187fd60ea","server":"65535","farm":66,"title":"Bufflehead, Bucephala albeola","ispublic":1,"isfriend":0,"isfamily":0},{"id":"52753721132","owner":"129849840@N08","secret":"7327f96bc9","server":"65535","farm":66,"title":"Rainbow delight \ud83c\udf08","ispublic":1,"isfriend":0,"isfamily":0},{"id":"52748189769","owner":"62043870@N05","secret":"ccf0e01ac0","server":"65535","farm":66,"title":"Bufflehead, Bucephala albeola","ispublic":1,"isfriend":0,"isfamily":0},{"id":"52746369229","owner":"188352054@N08","secret":"ebb5b57602","server":"65535","farm":66,"title":"9M2A1555","ispublic":1,"isfriend":0,"isfamily":0},{"id":"52742828959","owner":"62043870@N05","secret":"941bbf8a24","server":"65535","farm":66,"title":"Bufflehead, Bucephala albeola","ispublic":1,"isfriend":0,"isfamily":0},{"id":"52738232952","owner":"62907378@N07","secret":"fa74e42149","server":"65535","farm":66,"title":"Bufflehead m+f (Bucephala albeola)","ispublic":1,"isfriend":0,"isfamily":0},{"id":"52737684675","owner":"190764460@N06","secret":"4406ebbe39","server":"65535","farm":66,"title":"BUFF#1","ispublic":1,"isfriend":0,"isfamily":0},{"id":"52735594851","owner":"103722035@N06","secret":"f1fbaea51f","server":"65535","farm":66,"title":"Bufflehead (Bucephala albeola), Pismo Beach, CA","ispublic":1,"isfriend":0,"isfamily":0},{"id":"52732607485","owner":"8666250@N02","secret":"c750222929","server":"65535","farm":66,"title":"Buff... -09","ispublic":1,"isfriend":0,"isfamily":0},{"id":"52732446454","owner":"8666250@N02","secret":"0e3661a8d2","server":"65535","farm":66,"title":"Buff... -04","ispublic":1,"isfriend":0,"isfamily":0},{"id":"52732195206","owner":"8666250@N02","secret":"b4dfce5381","server":"65535","farm":66,"title":"Buff... -01","ispublic":1,"isfriend":0,"isfamily":0},{"id":"52732605425","owner":"8666250@N02","secret":"4388ed41c7","server":"65535","farm":66,"title":"Buff... -03","ispublic":1,"isfriend":0,"isfamily":0},{"id":"52731672687","owner":"8666250@N02","secret":"830dc116ec","server":"65535","farm":66,"title":"Buff... -05","ispublic":1,"isfriend":0,"isfamily":0},{"id":"52732605295","owner":"8666250@N02","secret":"0a6d0cf865","server":"65535","farm":66,"title":"Buff... -08","ispublic":1,"isfriend":0,"isfamily":0},{"id":"52732679848","owner":"8666250@N02","secret":"7a80718f4b","server":"65535","farm":66,"title":"Buff... -13","ispublic":1,"isfriend":0,"isfamily":0},{"id":"52731672507","owner":"8666250@N02","secret":"d754918a02","server":"65535","farm":66,"title":"Buff... -10","ispublic":1,"isfriend":0,"isfamily":0},{"id":"52732445889","owner":"8666250@N02","secret":"96fa480ba5","server":"65535","farm":66,"title":"Buff... -14","ispublic":1,"isfriend":0,"isfamily":0},{"id":"52732605050","owner":"8666250@N02","secret":"da67145c0e","server":"65535","farm":66,"title":"Buff... -02","ispublic":1,"isfriend":0,"isfamily":0},{"id":"52732666373","owner":"195537536@N03","secret":"201ba4f630","server":"65535","farm":66,"title":"Bufflehead (Bucephala albeola) Female","ispublic":1,"isfriend":0,"isfamily":0},{"id":"52732583643","owner":"100108154@N02","secret":"7ef149dba5","server":"65535","farm":66,"title":"Not Going To Turn Around","ispublic":1,"isfriend":0,"isfamily":0},{"id":"52732509905","owner":"100108154@N02","secret":"6385192b96","server":"65535","farm":66,"title":"You Can't Make Me","ispublic":1,"isfriend":0,"isfamily":0},{"id":"52731840430","owner":"62043870@N05","secret":"7e36512d51","server":"65535","farm":66,"title":"Bufflehead, Bucephala albeola","ispublic":1,"isfriend":0,"isfamily":0},{"id":"52730544298","owner":"187792860@N04","secret":"53fd71c69b","server":"65535","farm":66,"title":"Bufflehead (Bucephala albeola)","ispublic":1,"isfriend":0,"isfamily":0},{"id":"52730156624","owner":"19116413@N04","secret":"c6f9d71acb","server":"65535","farm":66,"title":"Bufflehead Bucephala albeola","ispublic":1,"isfriend":0,"isfamily":0},{"id":"52729421728","owner":"40006638@N06","secret":"2479e57c02","server":"65535","farm":66,"title":"Bufflehead - 094A3880a1c","ispublic":1,"isfriend":0,"isfamily":0},{"id":"52727932214","owner":"81058247@N08","secret":"592dacfdc8","server":"65535","farm":66,"title":"Bufflehead (Bucephala albeola)","ispublic":1,"isfriend":0,"isfamily":0},{"id":"52723655255","owner":"37242840@N07","secret":"3590eb115c","server":"65535","farm":66,"title":"Bufflehead Ducks, Bucephala albeola and Ring-necked Ducks, Aythya collaris","ispublic":1,"isfriend":0,"isfamily":0},{"id":"52723506044","owner":"37242840@N07","secret":"6b17a39999","server":"65535","farm":66,"title":"Bufflehead Ducks, Bucephala albeola","ispublic":1,"isfriend":0,"isfamily":0},{"id":"52722276384","owner":"41978378@N08","secret":"881aecfd43","server":"65535","farm":66,"title":"Bufflehead (Bucephala albeola)","ispublic":1,"isfriend":0,"isfamily":0},{"id":"52721302258","owner":"103722035@N06","secret":"4da20edae1","server":"0","farm":0,"title":"Common Goldeneye (Bucephala clangula)  & Bufflehead (Bucephala albeola), Cayucos, CA","ispublic":1,"isfriend":0,"isfamily":0},{"id":"52720008271","owner":"140985130@N07","secret":"99abbc136b","server":"65535","farm":66,"title":"Bufflehead","ispublic":1,"isfriend":0,"isfamily":0},{"id":"52719905668","owner":"62043870@N05","secret":"0b0be2da0d","server":"65535","farm":66,"title":"Buffleheads (Bucephala albeola) and Common Goldeneyes (Bucephala clangula)","ispublic":1,"isfriend":0,"isfamily":0},{"id":"52716740023","owner":"135315828@N06","secret":"932e1e5ed2","server":"65535","farm":66,"title":"bufflehead","ispublic":1,"isfriend":0,"isfamily":0},{"id":"52716684955","owner":"135315828@N06","secret":"932e1e5ed2","server":"65535","farm":66,"title":"bufflehead","ispublic":1,"isfriend":0,"isfamily":0},{"id":"52716684935","owner":"135315828@N06","secret":"0f73f6b125","server":"65535","farm":66,"title":"bufflehead","ispublic":1,"isfriend":0,"isfamily":0},{"id":"52716739328","owner":"135315828@N06","secret":"d175e4c3e1","server":"65535","farm":66,"title":"bufflehead","ispublic":1,"isfriend":0,"isfamily":0},{"id":"52716558875","owner":"26520320@N03","secret":"6e4d73f81e","server":"65535","farm":66,"title":"_BAP0368","ispublic":1,"isfriend":0,"isfamily":0},{"id":"52716558520","owner":"26520320@N03","secret":"2793ac65ed","server":"65535","farm":66,"title":"_BAP0367","ispublic":1,"isfriend":0,"isfamily":0},{"id":"52716558085","owner":"26520320@N03","secret":"dc2917f330","server":"65535","farm":66,"title":"_BAP0364","ispublic":1,"isfriend":0,"isfamily":0},{"id":"52716361094","owner":"26520320@N03","secret":"b1b1ea9842","server":"65535","farm":66,"title":"_BAP0182","ispublic":1,"isfriend":0,"isfamily":0},{"id":"52715580442","owner":"26520320@N03","secret":"6ce8abef4a","server":"65535","farm":66,"title":"_BAP0181","ispublic":1,"isfriend":0,"isfamily":0},{"id":"52714961641","owner":"47533293@N04","secret":"3c435a6a2e","server":"65535","farm":66,"title":"Bufflehead, Bucephala albeola","ispublic":1,"isfriend":0,"isfamily":0},{"id":"52711909991","owner":"144980256@N07","secret":"b81c6bf101","server":"65535","farm":66,"title":"Bufflehead (Bucephala albeola)","ispublic":1,"isfriend":0,"isfamily":0},{"id":"52712322375","owner":"144980256@N07","secret":"00c963c790","server":"65535","farm":66,"title":"Bufflehead (Bucephala albeola)","ispublic":1,"isfriend":0,"isfamily":0},{"id":"52711380512","owner":"144980256@N07","secret":"d4be518507","server":"65535","farm":66,"title":"Bufflehead (Bucephala albeola)","ispublic":1,"isfriend":0,"isfamily":0},{"id":"52711378017","owner":"144980256@N07","secret":"da1ee5fa47","server":"65535","farm":66,"title":"Bufflehead (Bucephala albeola)","ispublic":1,"isfriend":0,"isfamily":0},{"id":"52711900516","owner":"144980256@N07","secret":"5a9c055f28","server":"65535","farm":66,"title":"Bufflehead (Bucephala albeola)","ispublic":1,"isfriend":0,"isfamily":0},{"id":"52711636183","owner":"8666250@N02","secret":"e9121e4a98","server":"65535","farm":66,"title":"Young Buff hen 230211 -01","ispublic":1,"isfriend":0,"isfamily":0},{"id":"52711573760","owner":"8666250@N02","secret":"ea65dd0c47","server":"65535","farm":66,"title":"Young Buff hen 230211 -03","ispublic":1,"isfriend":0,"isfamily":0},{"id":"52728331271","owner":"41710899@N08","secret":"ac77bf14c7","server":"65535","farm":66,"title":"Bufflehead","ispublic":1,"isfriend":0,"isfamily":0},{"id":"52719308398","owner":"189860708@N05","secret":"05d56d8b35","server":"65535","farm":66,"title":"Bufflehead","ispublic":1,"isfriend":0,"isfamily":0}]},"stat":"ok"}