{"photos":{"page":1,"pages":4,"perpage":100,"total":351,"photo":[{"id":"52652195854","owner":"66716461@N04","secret":"209a797338","server":"65535","farm":66,"title":"buff-rumped thornbill (Acanthiza reguloides)","ispublic":1,"isfriend":0,"isfamily":0},{"id":"52530664663","owner":"190773540@N03","secret":"cebe1469ac","server":"65535","farm":66,"title":"Buff-rumped Thornbill","ispublic":1,"isfriend":0,"isfamily":0},{"id":"52430080647","owner":"151677249@N08","secret":"56053ec8b4","server":"65535","farm":66,"title":"Buff-rumped Thornbill (Acanthiza reguloides nesa)","ispublic":1,"isfriend":0,"isfamily":0},{"id":"52330589815","owner":"79081908@N02","secret":"b51c777b96","server":"65535","farm":66,"title":"Buff-rumped Thornbill (Acanthiza reguloides)","ispublic":1,"isfriend":0,"isfamily":0},{"id":"51828719850","owner":"63175631@N02","secret":"b09c8d8c64","server":"65535","farm":66,"title":"Buff-rumped Thornbill (Acanthiza reguloides)","ispublic":1,"isfriend":0,"isfamily":0},{"id":"51617871913","owner":"63175631@N02","secret":"0cb4444850","server":"65535","farm":66,"title":"Buff-rumped Thornbill (Acanthiza reguloides)","ispublic":1,"isfriend":0,"isfamily":0},{"id":"51505687196","owner":"132431122@N05","secret":"26a0f5882b","server":"65535","farm":66,"title":"Buff-rumped Thornbill","ispublic":1,"isfriend":0,"isfamily":0},{"id":"51492458720","owner":"148286771@N02","secret":"9e53d4b3b9","server":"65535","farm":66,"title":"Buff-rumped Thornbill","ispublic":1,"isfriend":0,"isfamily":0},{"id":"51415316044","owner":"63175631@N02","secret":"2261bd87b4","server":"65535","farm":66,"title":"Buff-rumped Thornbill (Acanthiza reguloides)","ispublic":1,"isfriend":0,"isfamily":0},{"id":"51388064818","owner":"16520061@N08","secret":"cf353b6994","server":"65535","farm":66,"title":"Buff-rumped Thornbill (Acanthiza reguloides reguloides)","ispublic":1,"isfriend":0,"isfamily":0},{"id":"51186289692","owner":"132431122@N05","secret":"831049b74d","server":"65535","farm":66,"title":"Buff-rumped Thornbill","ispublic":1,"isfriend":0,"isfamily":0},{"id":"51072924256","owner":"137103568@N04","secret":"2050ef795f","server":"65535","farm":66,"title":"Buff-rumped Thornbill (Acanthiza reguloides)","ispublic":1,"isfriend":0,"isfamily":0},{"id":"51035239717","owner":"190014189@N06","secret":"a0348c36fe","server":"65535","farm":66,"title":"Buff-rumped Thornbill \/ Acanthiza reguloides","ispublic":1,"isfriend":0,"isfamily":0},{"id":"50975976727","owner":"191389292@N04","secret":"2b3e3c255f","server":"65535","farm":66,"title":"IMG_0280Buff-rumped Thornbill (Acanthiza reguloides)","ispublic":1,"isfriend":0,"isfamily":0},{"id":"50944831111","owner":"63175631@N02","secret":"9ec4858ae0","server":"65535","farm":66,"title":"Buff-rumped Thornbill (Acanthiza reguloides)","ispublic":1,"isfriend":0,"isfamily":0},{"id":"50820505256","owner":"191389292@N04","secret":"2e51f369f9","server":"65535","farm":66,"title":"Buff-rumped Thornbill (Acanthiza reguloides)","ispublic":1,"isfriend":0,"isfamily":0},{"id":"50739673122","owner":"191389292@N04","secret":"8f9f61fe7f","server":"65535","farm":66,"title":"Buff-rumped thornbill (Acanthiza reguloides)","ispublic":1,"isfriend":0,"isfamily":0},{"id":"50716486403","owner":"132431122@N05","secret":"0664c24220","server":"65535","farm":66,"title":"Buff-rumped Thornbill","ispublic":1,"isfriend":0,"isfamily":0},{"id":"50717225106","owner":"132431122@N05","secret":"628b48aee5","server":"65535","farm":66,"title":"Buff-rumped Thornbill","ispublic":1,"isfriend":0,"isfamily":0},{"id":"50554686577","owner":"137506587@N06","secret":"f1b85800c7","server":"65535","farm":66,"title":"Buff-rumped Thornbill (Acanthiza reguloides)","ispublic":1,"isfriend":0,"isfamily":0},{"id":"50488476142","owner":"63175631@N02","secret":"4853678bcb","server":"65535","farm":66,"title":"Buff-rumped Thornbill (Acanthiza reguloides)","ispublic":1,"isfriend":0,"isfamily":0},{"id":"50459668307","owner":"137506587@N06","secret":"f89c062057","server":"65535","farm":66,"title":"Buff-rumped Thornbill (Acanthiza reguloides)","ispublic":1,"isfriend":0,"isfamily":0},{"id":"50354326802","owner":"95482238@N02","secret":"5dce893149","server":"65535","farm":66,"title":"buff-rumped thornbill at Point Cook Coastal Park, Australia","ispublic":1,"isfriend":0,"isfamily":0},{"id":"50315841332","owner":"63175631@N02","secret":"d1a4f7e137","server":"65535","farm":66,"title":"Buff-rumped Thornbill (Acanthiza reguloides)","ispublic":1,"isfriend":0,"isfamily":0},{"id":"50313108233","owner":"40195635@N03","secret":"a73a8d6cd3","server":"65535","farm":66,"title":"Buff-rumped Thornbill (Acanthiza reguloides)","ispublic":1,"isfriend":0,"isfamily":0},{"id":"50147188662","owner":"182959673@N06","secret":"d10b0e604e","server":"65535","farm":66,"title":"Buff-rumped Thornbill - Cherrypool State Forest, Victoria","ispublic":1,"isfriend":0,"isfamily":0},{"id":"49998405286","owner":"137506587@N06","secret":"c8709e0224","server":"65535","farm":66,"title":"Buff-rumped Thornbill (Acanthiza reguloides)","ispublic":1,"isfriend":0,"isfamily":0},{"id":"49806893383","owner":"31350467@N04","secret":"c9fdedef1c","server":"65535","farm":66,"title":"Thornbill, Buff-rumped (Acanthiza reguloides)","ispublic":1,"isfriend":0,"isfamily":0},{"id":"49783920716","owner":"90411244@N03","secret":"03945b1288","server":"65535","farm":66,"title":"Buff-rumped thornbill (Acanthiza reguloides)","ispublic":1,"isfriend":0,"isfamily":0},{"id":"49715691878","owner":"31350467@N04","secret":"55fac09c45","server":"65535","farm":66,"title":"Thornbill, Buff-rumped (Acanthiza reguloides)","ispublic":1,"isfriend":0,"isfamily":0},{"id":"49677887186","owner":"63175631@N02","secret":"e9451d83d2","server":"65535","farm":66,"title":"Buff-rumped Thornbill (Acanthiza reguloides)","ispublic":1,"isfriend":0,"isfamily":0},{"id":"49563775007","owner":"63175631@N02","secret":"48768c55dd","server":"65535","farm":66,"title":"Buff-rumped Thornbill (Acanthiza reguloides)","ispublic":1,"isfriend":0,"isfamily":0},{"id":"49056506943","owner":"93794520@N05","secret":"ff047b5061","server":"65535","farm":66,"title":"Buff-rumped Thornbill 200 1684","ispublic":1,"isfriend":0,"isfamily":0},{"id":"48676691377","owner":"132431122@N05","secret":"69e7df99a6","server":"65535","farm":66,"title":"Buff-rumped Thornbill","ispublic":1,"isfriend":0,"isfamily":0},{"id":"48676518821","owner":"132431122@N05","secret":"f8d74d3ec1","server":"65535","farm":66,"title":"Buff-rumped Thornbill","ispublic":1,"isfriend":0,"isfamily":0},{"id":"47816286822","owner":"63175631@N02","secret":"02e35acc9a","server":"65535","farm":66,"title":"Buff-rumped Thornbill (Acanthiza reguloides)","ispublic":1,"isfriend":0,"isfamily":0},{"id":"46861123445","owner":"137103568@N04","secret":"bcc713c859","server":"65535","farm":66,"title":"Buff-rumped Thornbill (Acanthiza reguloides)","ispublic":1,"isfriend":0,"isfamily":0},{"id":"47699962041","owner":"163416881@N04","secret":"682c420911","server":"65535","farm":66,"title":"Acanthiza reguloides reguloides 3","ispublic":1,"isfriend":0,"isfamily":0},{"id":"47474454092","owner":"63872681@N03","secret":"97767b0878","server":"7911","farm":8,"title":"Buff-rumped Thornbill(Acanthiza reguloides)","ispublic":1,"isfriend":0,"isfamily":0},{"id":"47227362741","owner":"63175631@N02","secret":"2e7a2fa7d4","server":"7834","farm":8,"title":"Buff-rumped Thornbill (Acanthiza reguloides)","ispublic":1,"isfriend":0,"isfamily":0},{"id":"47013631742","owner":"169772468@N08","secret":"dc3fbfb43f","server":"7827","farm":8,"title":"Acanthiza reguloides reguloides 1","ispublic":1,"isfriend":0,"isfamily":0},{"id":"46142273314","owner":"63175631@N02","secret":"51eaed56e0","server":"7851","farm":8,"title":"Buff-rumped Thornbill (Acanthiza reguloides)","ispublic":1,"isfriend":0,"isfamily":0},{"id":"44719732210","owner":"40195635@N03","secret":"c13a5ebd82","server":"65535","farm":66,"title":"Buff-rumped Thornbill (Acanthiza reguloides nesa)","ispublic":1,"isfriend":0,"isfamily":0},{"id":"46334244152","owner":"151993772@N02","secret":"36d712bf6c","server":"4911","farm":5,"title":"Buff-rumped Thornbill (Acanthiza reguloides)","ispublic":1,"isfriend":0,"isfamily":0},{"id":"52205822834","owner":"146833745@N04","secret":"4d54751979","server":"65535","farm":66,"title":"Buff-rumped Thornbill (Acanthiza reguloides) feeding on nectar from an Urn Heath (Melichrus urceolatus) 03","ispublic":1,"isfriend":0,"isfamily":0},{"id":"52205556851","owner":"146833745@N04","secret":"2355aca68b","server":"65535","farm":66,"title":"Buff-rumped Thornbill (Acanthiza reguloides) feeding on nectar from an Urn Heath (Melichrus urceolatus) 02","ispublic":1,"isfriend":0,"isfamily":0},{"id":"52205576738","owner":"146833745@N04","secret":"5f8fbe7604","server":"65535","farm":66,"title":"Buff-rumped Thornbill (Acanthiza reguloides) feeding on nectar from an Urn Heath (Melichrus urceolatus) 01","ispublic":1,"isfriend":0,"isfamily":0},{"id":"52014625214","owner":"146833745@N04","secret":"f23c7af305","server":"65535","farm":66,"title":"Buff-rumped Thornbill (Acanthiza reguloides)","ispublic":1,"isfriend":0,"isfamily":0},{"id":"51362617353","owner":"146833745@N04","secret":"795b68d3d6","server":"65535","farm":66,"title":"Buff-rumped Thornbill (Acanthiza reguloides)","ispublic":1,"isfriend":0,"isfamily":0},{"id":"51345683014","owner":"191389292@N04","secret":"424bc01868","server":"65535","farm":66,"title":"Buff-rumped Thornbill (Acanthiza reguloides)","ispublic":1,"isfriend":0,"isfamily":0},{"id":"51156208631","owner":"95482238@N02","secret":"98846ce3ab","server":"65535","farm":66,"title":"buff rumped thornbill in the You Yangs, Vic, Australia 11","ispublic":1,"isfriend":0,"isfamily":0},{"id":"51155541897","owner":"95482238@N02","secret":"4d04dc2e5e","server":"65535","farm":66,"title":"buff rumped thornbill in the You Yangs, Vic, Australia 9","ispublic":1,"isfriend":0,"isfamily":0},{"id":"51156994054","owner":"95482238@N02","secret":"5c66e72278","server":"65535","farm":66,"title":"buff rumped thornbill in the You Yangs, Vic, Australia 8","ispublic":1,"isfriend":0,"isfamily":0},{"id":"51156208416","owner":"95482238@N02","secret":"db214679dc","server":"65535","farm":66,"title":"buff rumped thornbill in the You Yangs, Vic, Australia 6","ispublic":1,"isfriend":0,"isfamily":0},{"id":"51157315545","owner":"95482238@N02","secret":"f62c7bf64d","server":"65535","farm":66,"title":"buff rumped thornbill in the You Yangs, Vic, Australia 7","ispublic":1,"isfriend":0,"isfamily":0},{"id":"51156208116","owner":"95482238@N02","secret":"4c2fe19cdb","server":"65535","farm":66,"title":"buff rumped thornbill in the You Yangs, Vic, Australia 5","ispublic":1,"isfriend":0,"isfamily":0},{"id":"51156993639","owner":"95482238@N02","secret":"64e465e7c4","server":"65535","farm":66,"title":"buff rumped thornbill in the You Yangs, Vic, Australia 4","ispublic":1,"isfriend":0,"isfamily":0},{"id":"51157315070","owner":"95482238@N02","secret":"da19c874d8","server":"65535","farm":66,"title":"buff rumped thornbill in the You Yangs, Vic, Australia 3","ispublic":1,"isfriend":0,"isfamily":0},{"id":"51155541382","owner":"95482238@N02","secret":"df1a2fbde5","server":"65535","farm":66,"title":"buff rumped thornbill in the You Yangs, Vic, Australia 2","ispublic":1,"isfriend":0,"isfamily":0},{"id":"51156441573","owner":"95482238@N02","secret":"221bf07825","server":"65535","farm":66,"title":"buff rumped thornbill in the You Yangs, Vic, Australia 10","ispublic":1,"isfriend":0,"isfamily":0},{"id":"51157314910","owner":"95482238@N02","secret":"42ca0778de","server":"65535","farm":66,"title":"buff rumped thornbill in the You Yangs, Vic, Australia","ispublic":1,"isfriend":0,"isfamily":0},{"id":"51118649419","owner":"191621302@N03","secret":"0a769e5ddf","server":"65535","farm":66,"title":"Buff-rumped Thornbill (Acanthiza reguloides)","ispublic":1,"isfriend":0,"isfamily":0},{"id":"51101009858","owner":"191621302@N03","secret":"49ee30f7bb","server":"65535","farm":66,"title":"Buff-rumped Thornbill (Acanthiza reguloides)","ispublic":1,"isfriend":0,"isfamily":0},{"id":"50187488717","owner":"125454333@N02","secret":"2df73562f9","server":"65535","farm":66,"title":"Buff-rumped Thornbill (Acanthiza reguloides).","ispublic":1,"isfriend":0,"isfamily":0},{"id":"50014944662","owner":"146833745@N04","secret":"4947d6f710","server":"65535","farm":66,"title":"Buff-rumped Thornbill (Acanthiza reguloides)","ispublic":1,"isfriend":0,"isfamily":0},{"id":"50014152068","owner":"146833745@N04","secret":"fb877b8653","server":"65535","farm":66,"title":"Buff-rumped Thornbill (Acanthiza reguloides)","ispublic":1,"isfriend":0,"isfamily":0},{"id":"50014682556","owner":"146833745@N04","secret":"392efe8e9c","server":"65535","farm":66,"title":"Buff-rumped Thornbill (Acanthiza reguloides)","ispublic":1,"isfriend":0,"isfamily":0},{"id":"50003268343","owner":"187469698@N05","secret":"1489f71b12","server":"65535","farm":66,"title":"875 Buff-rumped Thornbill - Andrew Walker 001","ispublic":1,"isfriend":0,"isfamily":0},{"id":"49997802412","owner":"146833745@N04","secret":"75433bf572","server":"65535","farm":66,"title":"Buff-rumped Thornbill (Acanthiza reguloides)","ispublic":1,"isfriend":0,"isfamily":0},{"id":"49997802307","owner":"146833745@N04","secret":"325cc5a662","server":"65535","farm":66,"title":"Buff-rumped Thornbill (Acanthiza reguloides)","ispublic":1,"isfriend":0,"isfamily":0},{"id":"49767400617","owner":"186216552@N03","secret":"b63f1a6054","server":"65535","farm":66,"title":"Buff-rumped Thornbill (Acanthiza reguloides)","ispublic":1,"isfriend":0,"isfamily":0},{"id":"49114541598","owner":"12742129@N07","secret":"39c9051519","server":"65535","farm":66,"title":"Buff-rumped Thornbill","ispublic":1,"isfriend":0,"isfamily":0},{"id":"49115237222","owner":"12742129@N07","secret":"1e808dd1f3","server":"65535","farm":66,"title":"Buff-rumped Thornbill","ispublic":1,"isfriend":0,"isfamily":0},{"id":"49108050103","owner":"12742129@N07","secret":"72d7ec079e","server":"65535","farm":66,"title":"Buff-rumped Thornbill, Acanthiza reguloides","ispublic":1,"isfriend":0,"isfamily":0},{"id":"49108748507","owner":"12742129@N07","secret":"dd1bd617aa","server":"65535","farm":66,"title":"Buff-rumped Thornbill, Acanthiza reguloides","ispublic":1,"isfriend":0,"isfamily":0},{"id":"48863320797","owner":"162924992@N07","secret":"ba951b41bd","server":"65535","farm":66,"title":"Acanthiza reguloides reguloides 6","ispublic":1,"isfriend":0,"isfamily":0},{"id":"48863320632","owner":"162924992@N07","secret":"827b585303","server":"65535","farm":66,"title":"Acanthiza reguloides reguloides 7","ispublic":1,"isfriend":0,"isfamily":0},{"id":"48862592598","owner":"162924992@N07","secret":"6bf404c4b0","server":"65535","farm":66,"title":"Acanthiza reguloides reguloides 1","ispublic":1,"isfriend":0,"isfamily":0},{"id":"48863113256","owner":"162924992@N07","secret":"c8de9d1195","server":"65535","farm":66,"title":"Acanthiza reguloides reguloides 2","ispublic":1,"isfriend":0,"isfamily":0},{"id":"48863112881","owner":"162924992@N07","secret":"248f7c74cc","server":"65535","farm":66,"title":"Acanthiza reguloides reguloides 3","ispublic":1,"isfriend":0,"isfamily":0},{"id":"48863314012","owner":"162924992@N07","secret":"be977a181f","server":"65535","farm":66,"title":"Acanthiza reguloides reguloides 4","ispublic":1,"isfriend":0,"isfamily":0},{"id":"48715061763","owner":"63872681@N03","secret":"88730d8372","server":"65535","farm":66,"title":"Buff-rumped Thornbill(Acanthiza reguloides)","ispublic":1,"isfriend":0,"isfamily":0},{"id":"48645433618","owner":"143011059@N02","secret":"e1bc646246","server":"65535","farm":66,"title":"52 Weeks with your camera - week 35.","ispublic":1,"isfriend":0,"isfamily":0},{"id":"48622539097","owner":"146833745@N04","secret":"d86d625986","server":"65535","farm":66,"title":"Buff-rumped Thornbill (Acanthiza reguloides)","ispublic":1,"isfriend":0,"isfamily":0},{"id":"48622038068","owner":"146833745@N04","secret":"2dcb2480f1","server":"65535","farm":66,"title":"Buff-rumped Thornbill (Acanthiza reguloides)","ispublic":1,"isfriend":0,"isfamily":0},{"id":"48420350271","owner":"63872681@N03","secret":"6c1ded1190","server":"65535","farm":66,"title":"Buff-rumped Thornbill(Acanthiza reguloides)","ispublic":1,"isfriend":0,"isfamily":0},{"id":"33916982848","owner":"143011059@N02","secret":"f6cae93f7e","server":"65535","farm":66,"title":"buff-rumped thornbill  - Acanthiza reguloides","ispublic":1,"isfriend":0,"isfamily":0},{"id":"33822730488","owner":"163416881@N04","secret":"9cf698d3b0","server":"65535","farm":66,"title":"Acanthiza reguloides reguloides 6","ispublic":1,"isfriend":0,"isfamily":0},{"id":"46783986485","owner":"163416881@N04","secret":"5bbc9c8e25","server":"65535","farm":66,"title":"Acanthiza reguloides reguloides 7","ispublic":1,"isfriend":0,"isfamily":0},{"id":"46783787395","owner":"163416881@N04","secret":"85365b5410","server":"65535","farm":66,"title":"Acanthiza reguloides reguloides 4","ispublic":1,"isfriend":0,"isfamily":0},{"id":"47646777152","owner":"163416881@N04","secret":"58ac3bf656","server":"65535","farm":66,"title":"Acanthiza reguloides reguloides 5","ispublic":1,"isfriend":0,"isfamily":0},{"id":"33190698338","owner":"169772468@N08","secret":"523b3a6958","server":"7885","farm":8,"title":"Acanthiza reguloides reguloides 2","ispublic":1,"isfriend":0,"isfamily":0},{"id":"32093354887","owner":"146833745@N04","secret":"8059ea74ea","server":"7861","farm":8,"title":"Buff-rumped Thornbill (Acanthiza reguloides), flying through a bush)","ispublic":1,"isfriend":0,"isfamily":0},{"id":"33159872938","owner":"146833745@N04","secret":"7926cf3e0e","server":"7913","farm":8,"title":"Buff-rumped Thornbill (Acanthiza reguloides), hopping along a branch","ispublic":1,"isfriend":0,"isfamily":0},{"id":"33159871178","owner":"146833745@N04","secret":"75ff91267b","server":"7894","farm":8,"title":"Buff-rumped Thornbill (Acanthiza reguloides), flying through a bush)","ispublic":1,"isfriend":0,"isfamily":0},{"id":"33159866748","owner":"146833745@N04","secret":"6e863d2be0","server":"7816","farm":8,"title":"Buff-rumped Thornbill (Acanthiza reguloides), flying through a bush)","ispublic":1,"isfriend":0,"isfamily":0},{"id":"46983033692","owner":"146833745@N04","secret":"703271bfda","server":"7884","farm":8,"title":"Buff-rumped Thornbill (Acanthiza reguloides), flying round a branch 03","ispublic":1,"isfriend":0,"isfamily":0},{"id":"46983032092","owner":"146833745@N04","secret":"2a86bed427","server":"7833","farm":8,"title":"Buff-rumped Thornbill (Acanthiza reguloides), flying round a branch 02","ispublic":1,"isfriend":0,"isfamily":0},{"id":"46389804031","owner":"162790251@N07","secret":"a3445ea975","server":"4876","farm":5,"title":"Buff-Rumped Thornbill (Acanthiza reguloides)","ispublic":1,"isfriend":0,"isfamily":0},{"id":"45332208714","owner":"63872681@N03","secret":"0a843cb514","server":"4813","farm":5,"title":"Buff-rumped Thornbill(Acanthiza reguloides)","ispublic":1,"isfriend":0,"isfamily":0}]},"stat":"ok"}