{"photos":{"page":1,"pages":29,"perpage":100,"total":2880,"photo":[{"id":"52769828135","owner":"185605587@N03","secret":"e06ac1d936","server":"65535","farm":66,"title":"Cackling Goose (Branta hutchinsii) observed at Richfield National WIldlife Refuge - December 25, 2019","ispublic":1,"isfriend":0,"isfamily":0},{"id":"52757737782","owner":"119468907@N03","secret":"f33b23a5bb","server":"65535","farm":66,"title":"Bernache de Hutchins_R5DJ7997","ispublic":1,"isfriend":0,"isfamily":0},{"id":"52757737587","owner":"119468907@N03","secret":"8e76ea5c8a","server":"65535","farm":66,"title":"Bernache de Hutchins_R5DJ8008","ispublic":1,"isfriend":0,"isfamily":0},{"id":"52757737462","owner":"119468907@N03","secret":"2caf012a0e","server":"65535","farm":66,"title":"Bernache de Hutchins_R5DJ8013","ispublic":1,"isfriend":0,"isfamily":0},{"id":"52758278511","owner":"119468907@N03","secret":"b12e484e40","server":"65535","farm":66,"title":"Bernache de Hutchins_R5DJ8064","ispublic":1,"isfriend":0,"isfamily":0},{"id":"52766803619","owner":"119468907@N03","secret":"d587180cd1","server":"0","farm":0,"title":"Bernache de Hutchins_8006","ispublic":1,"isfriend":0,"isfamily":0},{"id":"52748703224","owner":"65148649@N04","secret":"ea8b170432","server":"65535","farm":66,"title":"Cackling Goose 03.04.23 Frye","ispublic":1,"isfriend":0,"isfamily":0},{"id":"52731406992","owner":"34238008@N02","secret":"b1d6c53f04","server":"65535","farm":66,"title":"Cackling Goose (Branta hutchinsii)","ispublic":1,"isfriend":0,"isfamily":0},{"id":"52732340790","owner":"34238008@N02","secret":"0d21fd612b","server":"65535","farm":66,"title":"Cackling Goose (Branta hutchinsii)","ispublic":1,"isfriend":0,"isfamily":0},{"id":"52732415988","owner":"34238008@N02","secret":"0ef89ffdb0","server":"65535","farm":66,"title":"Cackling Goose (Branta hutchinsii)","ispublic":1,"isfriend":0,"isfamily":0},{"id":"52731932786","owner":"34238008@N02","secret":"9ced16db74","server":"65535","farm":66,"title":"Cackling Goose (Branta hutchinsii)","ispublic":1,"isfriend":0,"isfamily":0},{"id":"52732340305","owner":"34238008@N02","secret":"c5a80c83d2","server":"65535","farm":66,"title":"Cackling Goose (Branta hutchinsii)","ispublic":1,"isfriend":0,"isfamily":0},{"id":"52732340010","owner":"34238008@N02","secret":"b68084f286","server":"65535","farm":66,"title":"Cackling Goose (Branta hutchinsii)","ispublic":1,"isfriend":0,"isfamily":0},{"id":"52730958006","owner":"42034882@N00","secret":"76df1e300c","server":"65535","farm":66,"title":"Please Do Not Chase the Wildlife","ispublic":1,"isfriend":0,"isfamily":0},{"id":"52729005728","owner":"193443384@N07","secret":"feb0d86c73","server":"65535","farm":66,"title":"Richardson's Cackling Goose (Branta hutchinsii hutchinsii)","ispublic":1,"isfriend":0,"isfamily":0},{"id":"52729005648","owner":"193443384@N07","secret":"0da7430a3b","server":"65535","farm":66,"title":"Richardson's Cackling Goose (Branta hutchinsii hutchinsii)","ispublic":1,"isfriend":0,"isfamily":0},{"id":"52729005583","owner":"193443384@N07","secret":"9e3e4a8507","server":"65535","farm":66,"title":"Richardson's Cackling Goose (Branta hutchinsii hutchinsii)","ispublic":1,"isfriend":0,"isfamily":0},{"id":"52727999832","owner":"193443384@N07","secret":"ec520fa62c","server":"65535","farm":66,"title":"Richardson's Cackling Goose (Branta hutchinsii hutchinsii)","ispublic":1,"isfriend":0,"isfamily":0},{"id":"52728777504","owner":"193443384@N07","secret":"116ab79f5a","server":"65535","farm":66,"title":"Richardson's Cackling Goose (Branta hutchinsii hutchinsii)","ispublic":1,"isfriend":0,"isfamily":0},{"id":"52727999742","owner":"193443384@N07","secret":"d5e1f0b13f","server":"65535","farm":66,"title":"Richardson's Cackling Goose (Branta hutchinsii hutchinsii)","ispublic":1,"isfriend":0,"isfamily":0},{"id":"52728937615","owner":"193443384@N07","secret":"e6fa583e52","server":"65535","farm":66,"title":"Richardson's Cackling Goose (Branta hutchinsii hutchinsii)","ispublic":1,"isfriend":0,"isfamily":0},{"id":"52729005388","owner":"193443384@N07","secret":"2aa0eaa790","server":"65535","farm":66,"title":"Richardson's Cackling Goose (Branta hutchinsii hutchinsii)","ispublic":1,"isfriend":0,"isfamily":0},{"id":"52729005333","owner":"193443384@N07","secret":"4a63a9c564","server":"65535","farm":66,"title":"Richardson's Cackling Goose (Branta hutchinsii hutchinsii)","ispublic":1,"isfriend":0,"isfamily":0},{"id":"52729005288","owner":"193443384@N07","secret":"4525049ca7","server":"65535","farm":66,"title":"Richardson's Cackling Goose (Branta hutchinsii hutchinsii)","ispublic":1,"isfriend":0,"isfamily":0},{"id":"52728525311","owner":"193443384@N07","secret":"e6985d4e39","server":"65535","farm":66,"title":"Richardson's Cackling Goose (Branta hutchinsii hutchinsii)","ispublic":1,"isfriend":0,"isfamily":0},{"id":"52728777199","owner":"193443384@N07","secret":"c0245023f8","server":"65535","farm":66,"title":"Richardson's Cackling Goose (Branta hutchinsii hutchinsii)","ispublic":1,"isfriend":0,"isfamily":0},{"id":"52728937400","owner":"193443384@N07","secret":"ced49c2e97","server":"65535","farm":66,"title":"Richardson's Cackling Goose (Branta hutchinsii hutchinsii)","ispublic":1,"isfriend":0,"isfamily":0},{"id":"52727929023","owner":"62043870@N05","secret":"1f3960cd10","server":"65535","farm":66,"title":"Cackling Geese, Branta hutchinsii","ispublic":1,"isfriend":0,"isfamily":0},{"id":"52726675463","owner":"17654080@N08","secret":"535d108ec7","server":"65535","farm":66,"title":"Cackling Goose with Canada Geese - Stratford, CT - 03\/04\/2023","ispublic":1,"isfriend":0,"isfamily":0},{"id":"52726675448","owner":"17654080@N08","secret":"10921e045a","server":"65535","farm":66,"title":"Cackling Goose with Canada Geese - Stratford, CT - 03\/04\/2023","ispublic":1,"isfriend":0,"isfamily":0},{"id":"52724911973","owner":"65148649@N04","secret":"f6493e6116","server":"65535","farm":66,"title":"Cackling Geese 02.25.23 Frye","ispublic":1,"isfriend":0,"isfamily":0},{"id":"52723910527","owner":"65148649@N04","secret":"d9b8c77b6c","server":"65535","farm":66,"title":"Cackling Goose 02.25.23 Frye","ispublic":1,"isfriend":0,"isfamily":0},{"id":"52717211036","owner":"62043870@N05","secret":"de88670cd4","server":"65535","farm":66,"title":"Mallard (Anas platyrhynchos) and Cackling Geese (Branta hutchinsii)","ispublic":1,"isfriend":0,"isfamily":0},{"id":"52716691337","owner":"62043870@N05","secret":"442957a79d","server":"65535","farm":66,"title":"Mallard (Anas platyrhynchos), with Cackling Geese (Branta hutchinsii) and Canada Geese (Branta canadensis)","ispublic":1,"isfriend":0,"isfamily":0},{"id":"52712021190","owner":"144980256@N07","secret":"f87d291c9d","server":"65535","farm":66,"title":"Cackling Goose (Branta hutchinsii)","ispublic":1,"isfriend":0,"isfamily":0},{"id":"52700670323","owner":"145890134@N05","secret":"2388c8141b","server":"65535","farm":66,"title":"Small Canadian Goose | Kleine Canadese Gans | Kleine kanadische Gans, (Branta hutchinsii)","ispublic":1,"isfriend":0,"isfamily":0},{"id":"52698011296","owner":"34238008@N02","secret":"823e66c8cd","server":"65535","farm":66,"title":"Cackling Goose (Branta hutchinsii)","ispublic":1,"isfriend":0,"isfamily":0},{"id":"52698431005","owner":"34238008@N02","secret":"ff3ef1328c","server":"65535","farm":66,"title":"Cackling Goose (Branta hutchinsii)","ispublic":1,"isfriend":0,"isfamily":0},{"id":"52692043626","owner":"197300849@N07","secret":"8a8d027960","server":"65535","farm":66,"title":"Cackling Geese (Branta hutchinsii)","ispublic":1,"isfriend":0,"isfamily":0},{"id":"52686754531","owner":"145890134@N05","secret":"27dbda026e","server":"65535","farm":66,"title":"Canadian goose | Canadese Ganzen | Kanadische Gans, (Branta hutchinsii)","ispublic":1,"isfriend":0,"isfamily":0},{"id":"52684459862","owner":"22420387@N07","secret":"ecdc27e042","server":"65535","farm":66,"title":"Cackling Goose - DEL_7760 - LR","ispublic":1,"isfriend":0,"isfamily":0},{"id":"52685398940","owner":"22420387@N07","secret":"a1338e2af9","server":"65535","farm":66,"title":"Cackling Goose - DEL_7788 - LR","ispublic":1,"isfriend":0,"isfamily":0},{"id":"52679243477","owner":"65148649@N04","secret":"f0dae27c7f","server":"65535","farm":66,"title":"Cackling Geese 02.04.23 Frye","ispublic":1,"isfriend":0,"isfamily":0},{"id":"52677621214","owner":"143326780@N02","secret":"68b170bb2f","server":"65535","farm":66,"title":"DSCN3771","ispublic":1,"isfriend":0,"isfamily":0},{"id":"52677620274","owner":"143326780@N02","secret":"98a95923f3","server":"65535","farm":66,"title":"DSCN3779","ispublic":1,"isfriend":0,"isfamily":0},{"id":"52677768495","owner":"143326780@N02","secret":"e4cc6c3fcd","server":"65535","farm":66,"title":"DSCN3785","ispublic":1,"isfriend":0,"isfamily":0},{"id":"52677830318","owner":"143326780@N02","secret":"7ac23af2b6","server":"65535","farm":66,"title":"DSCN3787","ispublic":1,"isfriend":0,"isfamily":0},{"id":"52674523952","owner":"188352054@N08","secret":"ba79dba364","server":"65535","farm":66,"title":"IMG_6808","ispublic":1,"isfriend":0,"isfamily":0},{"id":"52672888714","owner":"82143856@N00","secret":"c0bd82e089","server":"65535","farm":66,"title":"Branta hutchinsii minima","ispublic":1,"isfriend":0,"isfamily":0},{"id":"52673030235","owner":"82143856@N00","secret":"b7e97aab3e","server":"65535","farm":66,"title":"Branta hutchinsii minima","ispublic":1,"isfriend":0,"isfamily":0},{"id":"52673024060","owner":"82143856@N00","secret":"4a77c8a049","server":"65535","farm":66,"title":"Branta hutchinsii minima","ispublic":1,"isfriend":0,"isfamily":0},{"id":"52715918657","owner":"134270033@N06","secret":"5f22b5b351","server":"65535","farm":66,"title":"HTT :: Happy Twosday Tuesday","ispublic":1,"isfriend":0,"isfamily":0},{"id":"52659137037","owner":"42034882@N00","secret":"a1a6fab316","server":"65535","farm":66,"title":"Abundance","ispublic":1,"isfriend":0,"isfamily":0},{"id":"52655687160","owner":"63093099@N02","secret":"64db5ca04b","server":"65535","farm":66,"title":"Cackling Geese; 20230128; USA-WA-Seattle-Green Lake","ispublic":1,"isfriend":0,"isfamily":0},{"id":"52655687115","owner":"63093099@N02","secret":"97bac4ded0","server":"65535","farm":66,"title":"Cackling Geese; 20230128; USA-WA-Seattle-Green Lake","ispublic":1,"isfriend":0,"isfamily":0},{"id":"52655525029","owner":"63093099@N02","secret":"2d5fc0498f","server":"65535","farm":66,"title":"Canada Goose and Cackling Geese; 20230128; USA-WA-Seattle-Green Lake","ispublic":1,"isfriend":0,"isfamily":0},{"id":"52644068465","owner":"62043870@N05","secret":"8b6d856b47","server":"65535","farm":66,"title":"Cackling Goose (Branta hutchinsii) and Canada Goose (Branta canadensis)","ispublic":1,"isfriend":0,"isfamily":0},{"id":"52639657423","owner":"42034882@N00","secret":"8994976614","server":"65535","farm":66,"title":"No One Should Migrate Alone","ispublic":1,"isfriend":0,"isfamily":0},{"id":"52637786309","owner":"65148649@N04","secret":"c0a40d6a8a","server":"65535","farm":66,"title":"Snow Goose X Cackling Goose Hybrid 01.07.23 Rutherford K","ispublic":1,"isfriend":0,"isfamily":0},{"id":"52637014207","owner":"65148649@N04","secret":"eeaa93d548","server":"65535","farm":66,"title":"Snow Goose X Cackling Goose Hybrid 01.07.23 Rutherford E","ispublic":1,"isfriend":0,"isfamily":0},{"id":"52638006393","owner":"65148649@N04","secret":"b10984136d","server":"65535","farm":66,"title":"Snow Goose X Cackling Goose Hybrid 01.07.23 Baryames","ispublic":1,"isfriend":0,"isfamily":0},{"id":"52637529066","owner":"65148649@N04","secret":"75c88fc3c6","server":"65535","farm":66,"title":"Cackling Geese 01.07.23 Baryames","ispublic":1,"isfriend":0,"isfamily":0},{"id":"52638006148","owner":"65148649@N04","secret":"a73e4a040d","server":"65535","farm":66,"title":"Snow Goose X Cackling Goose Hybrid 01.07.23 Anderson","ispublic":1,"isfriend":0,"isfamily":0},{"id":"52635828213","owner":"196264892@N08","secret":"909c4c8c1e","server":"65535","farm":66,"title":"Cackling Geese","ispublic":1,"isfriend":0,"isfamily":0},{"id":"52634832812","owner":"196264892@N08","secret":"bbd9840a87","server":"65535","farm":66,"title":"Cackling Geese with Canada Geese","ispublic":1,"isfriend":0,"isfamily":0},{"id":"52635602929","owner":"196264892@N08","secret":"ff439d1309","server":"65535","farm":66,"title":"Cackling Geese with Canada Geese","ispublic":1,"isfriend":0,"isfamily":0},{"id":"52634831872","owner":"196264892@N08","secret":"3ce9172221","server":"65535","farm":66,"title":"Cackling Geese with Canada Goose","ispublic":1,"isfriend":0,"isfamily":0},{"id":"52635781285","owner":"196264892@N08","secret":"a29c496605","server":"65535","farm":66,"title":"Cackling Geese with Canada Goose","ispublic":1,"isfriend":0,"isfamily":0},{"id":"52635825928","owner":"196264892@N08","secret":"ddb6c84b42","server":"65535","farm":66,"title":"Cackling Goose","ispublic":1,"isfriend":0,"isfamily":0},{"id":"52628046574","owner":"9243885@N07","secret":"0c9b5c8993","server":"65535","farm":66,"title":"2023_01_14_5DMk4_88937","ispublic":1,"isfriend":0,"isfamily":0},{"id":"52626169834","owner":"103722035@N06","secret":"13baab58e3","server":"0","farm":0,"title":"Brant (Branta bernicla) & Cackling Goose (Branta hutchinsii), Los Osos, CA","ispublic":1,"isfriend":0,"isfamily":0},{"id":"52616932856","owner":"61241315@N00","secret":"4165f3b0d5","server":"0","farm":0,"title":"Cackling Goose_4159.MP4","ispublic":1,"isfriend":0,"isfamily":0},{"id":"52617369235","owner":"61241315@N00","secret":"8774a6d8ac","server":"0","farm":0,"title":"Cackling Goose_4141.MP4","ispublic":1,"isfriend":0,"isfamily":0},{"id":"52617422513","owner":"61241315@N00","secret":"c9018422f1","server":"65535","farm":66,"title":"Cackling Goose_N4157","ispublic":1,"isfriend":0,"isfamily":0},{"id":"52617198329","owner":"61241315@N00","secret":"d2c4cd57fb","server":"65535","farm":66,"title":"Cackling Goose_N4213","ispublic":1,"isfriend":0,"isfamily":0},{"id":"52615793295","owner":"61241315@N00","secret":"015214a96e","server":"65535","farm":66,"title":"Cackling Goose_4137.MP4","ispublic":1,"isfriend":0,"isfamily":0},{"id":"52609642441","owner":"119095828@N03","secret":"36eb7bff32","server":"65535","farm":66,"title":"Cackling Goose (Branta hutchinsii) and Canada Goose (Branta canadensis)","ispublic":1,"isfriend":0,"isfamily":0},{"id":"52610021970","owner":"188352054@N08","secret":"951134585b","server":"65535","farm":66,"title":"IMG_4326","ispublic":1,"isfriend":0,"isfamily":0},{"id":"52609860374","owner":"188352054@N08","secret":"12a4f65418","server":"65535","farm":66,"title":"IMG_4331","ispublic":1,"isfriend":0,"isfamily":0},{"id":"52606089953","owner":"42034882@N00","secret":"f5b933138a","server":"65535","farm":66,"title":"Floating along with the tumbling tumbleweeds","ispublic":1,"isfriend":0,"isfamily":0},{"id":"52603975044","owner":"65148649@N04","secret":"5320fdf04b","server":"65535","farm":66,"title":"Cackling Geese 12.17.22 Frye","ispublic":1,"isfriend":0,"isfamily":0},{"id":"52603226932","owner":"65148649@N04","secret":"9d8394e266","server":"65535","farm":66,"title":"Cackling Geese 2 12.17.22 Frye","ispublic":1,"isfriend":0,"isfamily":0},{"id":"52605667185","owner":"134270033@N06","secret":"72c47975d7","server":"65535","farm":66,"title":"HTT  :: Happy Tuesday Twosday","ispublic":1,"isfriend":0,"isfamily":0},{"id":"52601157041","owner":"62043870@N05","secret":"7597c6182d","server":"65535","farm":66,"title":"Cackling Goose, Branta hutchinsii","ispublic":1,"isfriend":0,"isfamily":0},{"id":"52599260165","owner":"103722035@N06","secret":"1e71513bc3","server":"0","farm":0,"title":"Cackling Goose (Branta hutchinsii) & Canada Goose (Branta canadensis), San Luis Obispo, CA","ispublic":1,"isfriend":0,"isfamily":0},{"id":"52599261390","owner":"42034882@N00","secret":"c1c86d1c29","server":"65535","farm":66,"title":"Flying Into the New Year","ispublic":1,"isfriend":0,"isfamily":0},{"id":"52596262272","owner":"42034882@N00","secret":"a26b40062e","server":"65535","farm":66,"title":"Goose Capades","ispublic":1,"isfriend":0,"isfamily":0},{"id":"52583612550","owner":"131037795@N03","secret":"d01d1b96ca","server":"65535","farm":66,"title":"Cackling Goose (Branta hutchinsii)","ispublic":1,"isfriend":0,"isfamily":0},{"id":"52580269727","owner":"65148649@N04","secret":"0d2571bc7e","server":"65535","farm":66,"title":"Cackling Geese 12.10.22 Frye","ispublic":1,"isfriend":0,"isfamily":0},{"id":"52580997454","owner":"65148649@N04","secret":"3b88320de7","server":"65535","farm":66,"title":"Cackling Geese","ispublic":1,"isfriend":0,"isfamily":0},{"id":"52580325056","owner":"153973412@N04","secret":"01bacfa9f1","server":"65535","farm":66,"title":"Cackling Goose-Branta hutchinsii, North Liberty, IA","ispublic":1,"isfriend":0,"isfamily":0},{"id":"52577077459","owner":"62043870@N05","secret":"7bb02123d4","server":"65535","farm":66,"title":"Cackling Goose, Branta hutchinsii","ispublic":1,"isfriend":0,"isfamily":0},{"id":"52575870862","owner":"42034882@N00","secret":"e53c39956f","server":"65535","farm":66,"title":"Huddle up for Warmth","ispublic":1,"isfriend":0,"isfamily":0},{"id":"52679445463","owner":"47533293@N04","secret":"17c187776f","server":"65535","farm":66,"title":"Cackling goose (right), Branta hutchinsii","ispublic":1,"isfriend":0,"isfamily":0},{"id":"52637014227","owner":"65148649@N04","secret":"46632bf9eb","server":"65535","farm":66,"title":"Snow Goose X Cackling Goose Hybrid 2 01.07.23 Rutherford K","ispublic":1,"isfriend":0,"isfamily":0},{"id":"52637014197","owner":"65148649@N04","secret":"ec45f45076","server":"65535","farm":66,"title":"Snow Goose X Cackling Goose Hybrid 01.07.23 Frye","ispublic":1,"isfriend":0,"isfamily":0},{"id":"52637528866","owner":"65148649@N04","secret":"f1ed3d6770","server":"65535","farm":66,"title":"Cackling Geese 01.07.23 Frye","ispublic":1,"isfriend":0,"isfamily":0},{"id":"52617422493","owner":"61241315@N00","secret":"52d48ccfe5","server":"65535","farm":66,"title":"Cackling Goose_N4204","ispublic":1,"isfriend":0,"isfamily":0},{"id":"52617422473","owner":"61241315@N00","secret":"01f20146d3","server":"65535","farm":66,"title":"Cackling Goose_N4206","ispublic":1,"isfriend":0,"isfamily":0},{"id":"52609642536","owner":"119095828@N03","secret":"f40646bdc9","server":"65535","farm":66,"title":"Cackling Goose (Branta hutchinsii) and Canada Goose (Branta canadensis)","ispublic":1,"isfriend":0,"isfamily":0}]},"stat":"ok"}