{"photos":{"page":1,"pages":9,"perpage":100,"total":835,"photo":[{"id":"52663796444","owner":"58650784@N08","secret":"a17b870e2a","server":"65535","farm":66,"title":"Calliope Hummingbird","ispublic":1,"isfriend":0,"isfamily":0},{"id":"52645995830","owner":"8013969@N03","secret":"5e7bde3c87","server":"65535","farm":66,"title":"Selasphorus calliope DFL btr22-13","ispublic":1,"isfriend":0,"isfamily":0},{"id":"52645995460","owner":"8013969@N03","secret":"7fd4d38838","server":"65535","farm":66,"title":"Selasphorus calliope DFL btr22-14","ispublic":1,"isfriend":0,"isfamily":0},{"id":"52645046127","owner":"8013969@N03","secret":"1b9c152790","server":"65535","farm":66,"title":"Selasphorus calliope DFL btr22-15","ispublic":1,"isfriend":0,"isfamily":0},{"id":"52583090102","owner":"65632611@N00","secret":"2ae889f34e","server":"65535","farm":66,"title":"ny.suffolk.calliope in tree.6401","ispublic":1,"isfriend":0,"isfamily":0},{"id":"52583554761","owner":"65632611@N00","secret":"51507a8d89","server":"65535","farm":66,"title":"ny.suffolk.calliope.6248","ispublic":1,"isfriend":0,"isfamily":0},{"id":"52583090002","owner":"65632611@N00","secret":"7c756170d7","server":"65535","farm":66,"title":"Suffolk County, N.Y.: Calliope Hummingbird 1  (6173)","ispublic":1,"isfriend":0,"isfamily":0},{"id":"52547482503","owner":"160043453@N06","secret":"03b1a14f5a","server":"65535","farm":66,"title":"Calliope Hummingbird (Selasphorus calliope)","ispublic":1,"isfriend":0,"isfamily":0},{"id":"52510905358","owner":"89117352@N04","secret":"5ff7f52765","server":"65535","farm":66,"title":"Calliope Hummingbird","ispublic":1,"isfriend":0,"isfamily":0},{"id":"52382382638","owner":"67277069@N06","secret":"100956807a","server":"65535","farm":66,"title":"Calliope Hummingbird---Selasphorus calliope","ispublic":1,"isfriend":0,"isfamily":0},{"id":"52363443193","owner":"65148649@N04","secret":"75945d874b","server":"65535","farm":66,"title":"Calliope Hummingbird","ispublic":1,"isfriend":0,"isfamily":0},{"id":"52363521894","owner":"65148649@N04","secret":"7a32763ca8","server":"65535","farm":66,"title":"Calliope Hummingbird","ispublic":1,"isfriend":0,"isfamily":0},{"id":"52358489519","owner":"8904060@N06","secret":"5bcd105f0e","server":"65535","farm":66,"title":"Napoleon","ispublic":1,"isfriend":0,"isfamily":0},{"id":"52357913490","owner":"67277069@N06","secret":"50237e4aae","server":"65535","farm":66,"title":"Calliope Hummingbird---Selasphorus calliope","ispublic":1,"isfriend":0,"isfamily":0},{"id":"52339839461","owner":"65148649@N04","secret":"494ecc5526","server":"65535","farm":66,"title":"Calliope Hummingbird","ispublic":1,"isfriend":0,"isfamily":0},{"id":"52326761212","owner":"196264892@N08","secret":"239525f0f9","server":"65535","farm":66,"title":"Calliope Hummingbird","ispublic":1,"isfriend":0,"isfamily":0},{"id":"52327716811","owner":"196264892@N08","secret":"a83395f9e8","server":"65535","farm":66,"title":"Calliope Hummingbird","ispublic":1,"isfriend":0,"isfamily":0},{"id":"52311629860","owner":"65148649@N04","secret":"ca6a9f1fa2","server":"65535","farm":66,"title":"Calliope Hummingbird","ispublic":1,"isfriend":0,"isfamily":0},{"id":"52311629865","owner":"65148649@N04","secret":"5f7443f761","server":"65535","farm":66,"title":"Calliope Hummingbird","ispublic":1,"isfriend":0,"isfamily":0},{"id":"52311496898","owner":"65148649@N04","secret":"ec20b221e5","server":"65535","farm":66,"title":"Calliope Hummingbird","ispublic":1,"isfriend":0,"isfamily":0},{"id":"52310267609","owner":"131037795@N03","secret":"a7807a23a2","server":"65535","farm":66,"title":"Female\/Immature, Calliope Hummingbird (Selasphorus calliope)","ispublic":1,"isfriend":0,"isfamily":0},{"id":"52302385816","owner":"169335348@N08","secret":"445ef76f5d","server":"65535","farm":66,"title":"Calliope Hummingbird","ispublic":1,"isfriend":0,"isfamily":0},{"id":"52301408112","owner":"169335348@N08","secret":"faefd80384","server":"65535","farm":66,"title":"Calliope Hummingbird-2","ispublic":1,"isfriend":0,"isfamily":0},{"id":"52251422824","owner":"34238008@N02","secret":"c3122a01d3","server":"65535","farm":66,"title":"Calliope Hummingbird, adult male (Selasphorus calliope)","ispublic":1,"isfriend":0,"isfamily":0},{"id":"52251638415","owner":"34238008@N02","secret":"1249b8757f","server":"65535","farm":66,"title":"Calliope Hummingbird (Selasphorus calliope)","ispublic":1,"isfriend":0,"isfamily":0},{"id":"52237091605","owner":"79097894@N04","secret":"f0ec988f2c","server":"65535","farm":66,"title":"Calliope Hummingbird","ispublic":1,"isfriend":0,"isfamily":0},{"id":"52236611348","owner":"79097894@N04","secret":"3339245fa8","server":"65535","farm":66,"title":"Calliope Hummingbird","ispublic":1,"isfriend":0,"isfamily":0},{"id":"52213515987","owner":"8904060@N06","secret":"418f570530","server":"65535","farm":66,"title":"Plain Hummer","ispublic":1,"isfriend":0,"isfamily":0},{"id":"52187606972","owner":"8904060@N06","secret":"e34d90d133","server":"65535","farm":66,"title":"Hovering","ispublic":1,"isfriend":0,"isfamily":0},{"id":"52182053633","owner":"8904060@N06","secret":"da09b5eafe","server":"65535","farm":66,"title":"Tiny Blur","ispublic":1,"isfriend":0,"isfamily":0},{"id":"52158566869","owner":"79097894@N04","secret":"cacc06e747","server":"65535","farm":66,"title":"Calliope Hummingbird","ispublic":1,"isfriend":0,"isfamily":0},{"id":"52155957693","owner":"188809300@N04","secret":"e4b65edbf0","server":"65535","farm":66,"title":"female Calliope","ispublic":1,"isfriend":0,"isfamily":0},{"id":"52155948353","owner":"188809300@N04","secret":"1ed2dc3513","server":"65535","farm":66,"title":"male Calliope","ispublic":1,"isfriend":0,"isfamily":0},{"id":"52006472194","owner":"91994044@N00","secret":"d9dd810b70","server":"65535","farm":66,"title":"Calliope Hummingbird","ispublic":1,"isfriend":0,"isfamily":0},{"id":"51779230994","owner":"131385771@N04","secret":"694358b853","server":"65535","farm":66,"title":"Selasphorus calliope","ispublic":1,"isfriend":0,"isfamily":0},{"id":"51391798982","owner":"71649471@N02","secret":"ca3e442425","server":"65535","farm":66,"title":"Rufous Hummingbird","ispublic":1,"isfriend":0,"isfamily":0},{"id":"51384867029","owner":"34238008@N02","secret":"cdcf7fa7d8","server":"65535","farm":66,"title":"Calliope Hummingbird, female (Selasphorus calliope)","ispublic":1,"isfriend":0,"isfamily":0},{"id":"51376888921","owner":"65148649@N04","secret":"cacc287e5f","server":"65535","farm":66,"title":"Calliope Hummingbird","ispublic":1,"isfriend":0,"isfamily":0},{"id":"51362596995","owner":"43288043@N04","secret":"96974d36a5","server":"65535","farm":66,"title":"Calliope Hummingbird - Selasphorus calliope","ispublic":1,"isfriend":0,"isfamily":0},{"id":"51360829492","owner":"43288043@N04","secret":"e294a90caa","server":"65535","farm":66,"title":"Calliope Hummingbird - Selasphorus calliope","ispublic":1,"isfriend":0,"isfamily":0},{"id":"51362501280","owner":"34689777@N08","secret":"1a9f858cbd","server":"65535","farm":66,"title":"Calliope Hummingbird (Selasphorus calliope), male. Sandia Mountains, New Mexico, USA.","ispublic":1,"isfriend":0,"isfamily":0},{"id":"51360310903","owner":"65148649@N04","secret":"4407639d57","server":"65535","farm":66,"title":"Calliope Hummingbird female","ispublic":1,"isfriend":0,"isfamily":0},{"id":"51360310878","owner":"65148649@N04","secret":"d389c8faab","server":"65535","farm":66,"title":"Calliope Hummingbird","ispublic":1,"isfriend":0,"isfamily":0},{"id":"51306793150","owner":"94563281@N00","secret":"dce007dd37","server":"65535","farm":66,"title":"Calliope Hummingbird (Selasphorus calliope)","ispublic":1,"isfriend":0,"isfamily":0},{"id":"51252913671","owner":"34238008@N02","secret":"bc9a3080a5","server":"65535","farm":66,"title":"Calliope Hummingbird (Selasphorus calliope)","ispublic":1,"isfriend":0,"isfamily":0},{"id":"51252184417","owner":"34238008@N02","secret":"84b6424480","server":"65535","farm":66,"title":"Calliope Hummingbird (Selasphorus calliope)","ispublic":1,"isfriend":0,"isfamily":0},{"id":"51253957495","owner":"34238008@N02","secret":"006ef18538","server":"65535","farm":66,"title":"Calliope Hummingbird (Selasphorus calliope)","ispublic":1,"isfriend":0,"isfamily":0},{"id":"51216244580","owner":"34238008@N02","secret":"4bf6a2e78e","server":"65535","farm":66,"title":"Calliope Hummingbird, adult male (Selasphorus calliope)","ispublic":1,"isfriend":0,"isfamily":0},{"id":"51214458467","owner":"34238008@N02","secret":"3bf0928109","server":"65535","farm":66,"title":"Calliope Hummingbird (Selasphorus calliope)","ispublic":1,"isfriend":0,"isfamily":0},{"id":"51212664841","owner":"34238008@N02","secret":"6904c52bcb","server":"65535","farm":66,"title":"Calliope Hummingbird (Selasphorus calliope)","ispublic":1,"isfriend":0,"isfamily":0},{"id":"51212879703","owner":"34238008@N02","secret":"9be941f5b6","server":"65535","farm":66,"title":"Calliope Hummingbird (Selasphorus calliope)","ispublic":1,"isfriend":0,"isfamily":0},{"id":"51183567139","owner":"129803374@N05","secret":"5c97e66782","server":"65535","farm":66,"title":"Calliope Hummingbird (Selasphorus calliope)","ispublic":1,"isfriend":0,"isfamily":0},{"id":"51180546897","owner":"23644215@N07","secret":"04a06f19a4","server":"65535","farm":66,"title":"Hummingbirds 2","ispublic":1,"isfriend":0,"isfamily":0},{"id":"51182319045","owner":"23644215@N07","secret":"7d4c2c63d4","server":"65535","farm":66,"title":"Hummingbirds","ispublic":1,"isfriend":0,"isfamily":0},{"id":"51166945156","owner":"126805965@N03","secret":"473d78551e","server":"65535","farm":66,"title":"Male Calliope Hummingbird (Selasphorus calliope) - Vancouver, BC","ispublic":1,"isfriend":0,"isfamily":0},{"id":"51150983739","owner":"62043870@N05","secret":"5e1600672e","server":"65535","farm":66,"title":"Calliope Hummingbird, Selasphorus calliope","ispublic":1,"isfriend":0,"isfamily":0},{"id":"51063369523","owner":"25486180@N07","secret":"4956b5fd5c","server":"65535","farm":66,"title":"Calliope Humminbird, Selasphorus calliope.","ispublic":1,"isfriend":0,"isfamily":0},{"id":"3794207222","owner":"14176959@N05","secret":"4b5bafdc65","server":"3535","farm":4,"title":"HummingBird Feeding on Day Lily - D2X-8-05-09_24882","ispublic":1,"isfriend":0,"isfamily":0},{"id":"52645562006","owner":"8013969@N03","secret":"168b817a3f","server":"65535","farm":66,"title":"Selasphorus calliope DFL btr22-1","ispublic":1,"isfriend":0,"isfamily":0},{"id":"52645815879","owner":"8013969@N03","secret":"a3e93082a9","server":"65535","farm":66,"title":"Selasphorus calliope DFL btr22-3","ispublic":1,"isfriend":0,"isfamily":0},{"id":"52646033398","owner":"8013969@N03","secret":"de1854e596","server":"65535","farm":66,"title":"Selasphorus calliope DFL btr22-4","ispublic":1,"isfriend":0,"isfamily":0},{"id":"52645999750","owner":"8013969@N03","secret":"93cbecf364","server":"65535","farm":66,"title":"Selasphorus calliope DFL btr22-5","ispublic":1,"isfriend":0,"isfamily":0},{"id":"52645050357","owner":"8013969@N03","secret":"978bfc1988","server":"65535","farm":66,"title":"Selasphorus calliope DFL btr22-6","ispublic":1,"isfriend":0,"isfamily":0},{"id":"52646032243","owner":"8013969@N03","secret":"ed6228e45a","server":"65535","farm":66,"title":"Selasphorus calliope DFL btr22-7","ispublic":1,"isfriend":0,"isfamily":0},{"id":"52646031633","owner":"8013969@N03","secret":"6ca125afb7","server":"65535","farm":66,"title":"Selasphorus calliope DFL btr22-8","ispublic":1,"isfriend":0,"isfamily":0},{"id":"52645997600","owner":"8013969@N03","secret":"e32ef73562","server":"65535","farm":66,"title":"Selasphorus calliope DFL btr22-10","ispublic":1,"isfriend":0,"isfamily":0},{"id":"52645996930","owner":"8013969@N03","secret":"c1cfb407e6","server":"65535","farm":66,"title":"Selasphorus calliope DFL btr22-11","ispublic":1,"isfriend":0,"isfamily":0},{"id":"52645045792","owner":"8013969@N03","secret":"2d03f0f4cc","server":"65535","farm":66,"title":"Selasphorus calliope DFL btr22-16","ispublic":1,"isfriend":0,"isfamily":0},{"id":"52362269922","owner":"65148649@N04","secret":"7b32f51d90","server":"65535","farm":66,"title":"Calliope Hummingbird","ispublic":1,"isfriend":0,"isfamily":0},{"id":"52351277247","owner":"131037795@N03","secret":"d4f1b21c16","server":"65535","farm":66,"title":"Calliope Hummingbird (Selasphorus calliope)","ispublic":1,"isfriend":0,"isfamily":0},{"id":"52328011714","owner":"196264892@N08","secret":"6176efb558","server":"65535","farm":66,"title":"Calliope Hummingbird","ispublic":1,"isfriend":0,"isfamily":0},{"id":"52251638345","owner":"34238008@N02","secret":"a764959c3d","server":"65535","farm":66,"title":"Calliope Hummingbird (Selasphorus calliope)","ispublic":1,"isfriend":0,"isfamily":0},{"id":"52251422604","owner":"34238008@N02","secret":"cebdb77c3f","server":"65535","farm":66,"title":"Calliope Hummingbird (Selasphorus calliope)","ispublic":1,"isfriend":0,"isfamily":0},{"id":"52174035093","owner":"34238008@N02","secret":"a72b8756a6","server":"65535","farm":66,"title":"Calliope Hummingbird (Selasphorus calliope)","ispublic":1,"isfriend":0,"isfamily":0},{"id":"52174024316","owner":"34238008@N02","secret":"f3a4d79b18","server":"65535","farm":66,"title":"Calliope Hummingbird (Selasphorus calliope)","ispublic":1,"isfriend":0,"isfamily":0},{"id":"51975303154","owner":"117492196@N06","secret":"2a7c1af7ac","server":"65535","farm":66,"title":"Calliope Hummingbird (Selasphorus calliope)","ispublic":1,"isfriend":0,"isfamily":0},{"id":"51893832305","owner":"67306066@N03","secret":"042a422a7a","server":"65535","farm":66,"title":"Calliope Hummingbird (Selasphorus calliope)","ispublic":1,"isfriend":0,"isfamily":0},{"id":"51892221082","owner":"67306066@N03","secret":"892cf41c6b","server":"65535","farm":66,"title":"Calliope Hummingbird (Selasphorus calliope)","ispublic":1,"isfriend":0,"isfamily":0},{"id":"51835650339","owner":"57465751@N05","secret":"f62963de4e","server":"65535","farm":66,"title":"Calliope Hummingbird (Selasphorus calliope), Fair Oaks, Sacramento Co., CA","ispublic":1,"isfriend":0,"isfamily":0},{"id":"51425377643","owner":"183736567@N07","secret":"305112c10e","server":"65535","farm":66,"title":"Calliope Hummingbird (Selasphorus calliope) feeding","ispublic":1,"isfriend":0,"isfamily":0},{"id":"51360304708","owner":"67306066@N03","secret":"d0987b347d","server":"65535","farm":66,"title":"Calliope Hummingbird (Selasphorus calliope)","ispublic":1,"isfriend":0,"isfamily":0},{"id":"51360082736","owner":"67306066@N03","secret":"1ba35418f8","server":"65535","farm":66,"title":"Calliope Hummingbird (Selasphorus calliope)","ispublic":1,"isfriend":0,"isfamily":0},{"id":"51360808569","owner":"67306066@N03","secret":"649b4c6ec8","server":"65535","farm":66,"title":"Calliope Hummingbird (Selasphorus calliope)","ispublic":1,"isfriend":0,"isfamily":0},{"id":"51350755075","owner":"95355208@N04","secret":"9e274d81b4","server":"65535","farm":66,"title":"Calliope Hummingbird","ispublic":1,"isfriend":0,"isfamily":0},{"id":"51318451844","owner":"39935474@N03","secret":"5eb567a708","server":"65535","farm":66,"title":"Calliope Hummingbird female (or possibly immature male)","ispublic":1,"isfriend":0,"isfamily":0},{"id":"51269268414","owner":"160043453@N06","secret":"9dce370b68","server":"65535","farm":66,"title":"Calliope Hummingbird (Selasphorus calliope)","ispublic":1,"isfriend":0,"isfamily":0},{"id":"51268722213","owner":"160043453@N06","secret":"0f6fb8cce1","server":"65535","farm":66,"title":"Calliope Hummingbird (Selasphorus calliope)","ispublic":1,"isfriend":0,"isfamily":0},{"id":"51253660444","owner":"34238008@N02","secret":"f3d1873582","server":"65535","farm":66,"title":"Calliope Hummingbird (Selasphorus calliope)","ispublic":1,"isfriend":0,"isfamily":0},{"id":"51155856666","owner":"125605310@N07","secret":"9d0404ff82","server":"65535","farm":66,"title":"Calliope Hummingbird, Selasphorus calliope","ispublic":1,"isfriend":0,"isfamily":0},{"id":"51153471611","owner":"39935474@N03","secret":"0024480c3c","server":"65535","farm":66,"title":"Calliope Hummingbird, possible immature or molting male","ispublic":1,"isfriend":0,"isfamily":0},{"id":"51137961577","owner":"132508209@N08","secret":"80998c8e9c","server":"65535","farm":66,"title":"Calliope Hummingbird (Selasphorus calliope)","ispublic":1,"isfriend":0,"isfamily":0},{"id":"51137961562","owner":"132508209@N08","secret":"b04658ac4f","server":"65535","farm":66,"title":"Calliope Hummingbird (Selasphorus calliope)","ispublic":1,"isfriend":0,"isfamily":0},{"id":"51139411579","owner":"132508209@N08","secret":"2f7e67114e","server":"65535","farm":66,"title":"Calliope Hummingbird (Selasphorus calliope)","ispublic":1,"isfriend":0,"isfamily":0},{"id":"51139743895","owner":"132508209@N08","secret":"783d38dae8","server":"65535","farm":66,"title":"Calliope Hummingbird (Selasphorus calliope)","ispublic":1,"isfriend":0,"isfamily":0},{"id":"51138637861","owner":"132508209@N08","secret":"b6b844b435","server":"65535","farm":66,"title":"Calliope Hummingbird (Selasphorus calliope)","ispublic":1,"isfriend":0,"isfamily":0},{"id":"51139743785","owner":"132508209@N08","secret":"c8b603d7b9","server":"65535","farm":66,"title":"Calliope Hummingbird (Selasphorus calliope)","ispublic":1,"isfriend":0,"isfamily":0},{"id":"51139743620","owner":"132508209@N08","secret":"b503390aa3","server":"65535","farm":66,"title":"Calliope Hummingbird (Selasphorus calliope)","ispublic":1,"isfriend":0,"isfamily":0},{"id":"51138637661","owner":"132508209@N08","secret":"2d6cb5c2c2","server":"65535","farm":66,"title":"Calliope Hummingbird (Selasphorus calliope)","ispublic":1,"isfriend":0,"isfamily":0},{"id":"51136084633","owner":"132508209@N08","secret":"4821f7cedf","server":"65535","farm":66,"title":"Calliope Hummingbird (Selasphorus calliope), female\/immature male","ispublic":1,"isfriend":0,"isfamily":0},{"id":"51136980985","owner":"132508209@N08","secret":"9f83c78e9e","server":"65535","farm":66,"title":"Calliope Hummingbird (Selasphorus calliope), female\/immature male","ispublic":1,"isfriend":0,"isfamily":0}]},"stat":"ok"}