{"photos":{"page":1,"pages":467,"perpage":100,"total":46631,"photo":[{"id":"52793331499","owner":"16498755@N07","secret":"fa531bd6f6","server":"65535","farm":66,"title":"Canada Goose & Nest, Five Locks Marina, Monmouthshire-Brecon Canal, Pontnewydd, Cwmbran 4 April 2023","ispublic":1,"isfriend":0,"isfamily":0},{"id":"52793214159","owner":"12639178@N07","secret":"2f42734554","server":"65535","farm":66,"title":"Kanadagans-Hybrid (unbestimmt)","ispublic":1,"isfriend":0,"isfamily":0},{"id":"52792973701","owner":"12639178@N07","secret":"f29c2b3372","server":"65535","farm":66,"title":"Kanadagans-Hybrid (unbestimmt)","ispublic":1,"isfriend":0,"isfamily":0},{"id":"52792409112","owner":"98623843@N05","secret":"0ba0514ffe","server":"65535","farm":66,"title":"Tailrace","ispublic":1,"isfriend":0,"isfamily":0},{"id":"52792378611","owner":"114926542@N04","secret":"447f83b62a","server":"65535","farm":66,"title":"Canada goose - Branta canadensis","ispublic":1,"isfriend":0,"isfamily":0},{"id":"52792485209","owner":"12639178@N07","secret":"2df488149b","server":"65535","farm":66,"title":"Kanadagans (P01)","ispublic":1,"isfriend":0,"isfamily":0},{"id":"52792342443","owner":"85277889@N08","secret":"f8af2ab5e8","server":"65535","farm":66,"title":"Canada Goose (Branta canadensis) 2023-04-01 (1)","ispublic":1,"isfriend":0,"isfamily":0},{"id":"52790789107","owner":"12639178@N07","secret":"c76f2df985","server":"65535","farm":66,"title":"Kanadagans (P01)","ispublic":1,"isfriend":0,"isfamily":0},{"id":"52791083691","owner":"138285819@N04","secret":"51b376d9dc","server":"65535","farm":66,"title":"Oie Bernache du Canada \"Branta Canadensis\"","ispublic":1,"isfriend":0,"isfamily":0},{"id":"52790787921","owner":"12639178@N07","secret":"23aebbd5ee","server":"65535","farm":66,"title":"Graugans x Kanadagans (Anser anser x Branta canadensis)","ispublic":1,"isfriend":0,"isfamily":0},{"id":"52791238518","owner":"12639178@N07","secret":"6b29360900","server":"65535","farm":66,"title":"Graugans x Kanadagans (Anser anser x Branta canadensis)","ispublic":1,"isfriend":0,"isfamily":0},{"id":"52790787056","owner":"12639178@N07","secret":"bcc3a4a6df","server":"65535","farm":66,"title":"Graugans x Kanadagans (Anser anser x Branta canadensis)","ispublic":1,"isfriend":0,"isfamily":0},{"id":"52790232067","owner":"12639178@N07","secret":"29ae96e820","server":"65535","farm":66,"title":"Graugans x Kanadagans (Anser anser x Branta canadensis)","ispublic":1,"isfriend":0,"isfamily":0},{"id":"52790827513","owner":"12639178@N07","secret":"a5eaa03eb7","server":"65535","farm":66,"title":"Ein sicherer Nistplatz","ispublic":1,"isfriend":0,"isfamily":0},{"id":"52790645048","owner":"57533113@N07","secret":"3dea61b961","server":"65535","farm":66,"title":"In flight","ispublic":1,"isfriend":0,"isfamily":0},{"id":"52790041068","owner":"12639178@N07","secret":"62093a819e","server":"65535","farm":66,"title":"Der 'Kanadier' begleitet die Graue","ispublic":1,"isfriend":0,"isfamily":0},{"id":"52789521556","owner":"7640100@N02","secret":"f98f33eb15","server":"65535","farm":66,"title":"Bernaches du Canada \/ Canada Geese [Branta canadensis]","ispublic":1,"isfriend":0,"isfamily":0},{"id":"52788934922","owner":"74730915@N02","secret":"3a19b19776","server":"65535","farm":66,"title":"Canadian goose","ispublic":1,"isfriend":0,"isfamily":0},{"id":"52788572222","owner":"10105106@N07","secret":"11ac5ee3b0","server":"65535","farm":66,"title":"Ross's Goose","ispublic":1,"isfriend":0,"isfamily":0},{"id":"52789293930","owner":"198024963@N07","secret":"db4781be1c","server":"65535","farm":66,"title":"Canada Goose","ispublic":1,"isfriend":0,"isfamily":0},{"id":"52787421192","owner":"24926605@N02","secret":"9bfd60bee7","server":"0","farm":0,"title":"Grand Riverscapes , Caledonia ON Canada","ispublic":1,"isfriend":0,"isfamily":0},{"id":"52788150519","owner":"16498755@N07","secret":"8cae4d9697","server":"65535","farm":66,"title":"Canada Goose & Nest, Five Locks Marina, Monmouthshire-Brecon Canal, Pontnewydd, Cwmbran 2 April 2023","ispublic":1,"isfriend":0,"isfamily":0},{"id":"52787240177","owner":"12639178@N07","secret":"686b4438c1","server":"65535","farm":66,"title":"Leuzismus (2)","ispublic":1,"isfriend":0,"isfamily":0},{"id":"52788193570","owner":"12639178@N07","secret":"f116437545","server":"65535","farm":66,"title":"Leuzismus (1)","ispublic":1,"isfriend":0,"isfamily":0},{"id":"52787971540","owner":"130819462@N04","secret":"0bacb91939","server":"65535","farm":66,"title":"Geece in a row","ispublic":1,"isfriend":0,"isfamily":0},{"id":"52786807577","owner":"54032685@N00","secret":"e0530e6a39","server":"65535","farm":66,"title":"A Very Cross Goose","ispublic":1,"isfriend":0,"isfamily":0},{"id":"52786367977","owner":"32116097@N03","secret":"cf26b51c9d","server":"65535","farm":66,"title":"Canada geese  # Branta canadensis","ispublic":1,"isfriend":0,"isfamily":0},{"id":"52787282520","owner":"12639178@N07","secret":"db465436e0","server":"65535","farm":66,"title":"Ein ungleiches Paar...","ispublic":1,"isfriend":0,"isfamily":0},{"id":"52786263558","owner":"44093058@N06","secret":"862031737a","server":"65535","farm":66,"title":"Canada goose, Branta canadensis, Kanadag\u00e5s","ispublic":1,"isfriend":0,"isfamily":0},{"id":"52786141868","owner":"98623843@N05","secret":"c7be4e67b5","server":"65535","farm":66,"title":"Lake Nokomis Park","ispublic":1,"isfriend":0,"isfamily":0},{"id":"52785890645","owner":"145907835@N07","secret":"ae2e7e7dd8","server":"65535","farm":66,"title":"Hybride Grauwe Gans x Grote Canadese Gans - Anser anser x Branta canadensis","ispublic":1,"isfriend":0,"isfamily":0},{"id":"52785074221","owner":"75420755@N08","secret":"75d269c9b0","server":"65535","farm":66,"title":"Just passing","ispublic":1,"isfriend":0,"isfamily":0},{"id":"52785236594","owner":"23882583@N08","secret":"e95588b87d","server":"65535","farm":66,"title":"Two Flavours of Geese","ispublic":1,"isfriend":0,"isfamily":0},{"id":"52784779766","owner":"144573026@N06","secret":"032c589724","server":"65535","farm":66,"title":"Alopochen aegyptiaca (Bernaches du Canada - Branta canadensis - Canada geese - Canadese Gans & Ouette d'\u00c9gypte -Bernaches du Canada - Branta canadensis - Canada geese - Canadese Gans & Ouette d'\u00c9gypte -  Egyptian goose - nijlgans Egyptian goose - nijlgans","ispublic":1,"isfriend":0,"isfamily":0},{"id":"52784779736","owner":"144573026@N06","secret":"8ab6985d85","server":"65535","farm":66,"title":"Alopochen aegyptiaca (Bernaches du Canada - Branta canadensis - Canada geese - Canadese Gans & Ouette d'\u00c9gypte -Bernaches du Canada - Branta canadensis - Canada geese - Canadese Gans & Ouette d'\u00c9gypte -  Egyptian goose - nijlgans Egyptian goose - nijlgans","ispublic":1,"isfriend":0,"isfamily":0},{"id":"52784075027","owner":"152119783@N06","secret":"a8c0d14035","server":"65535","farm":66,"title":"Canada goose (Branta canadensis)","ispublic":1,"isfriend":0,"isfamily":0},{"id":"52784799165","owner":"144898534@N04","secret":"36599b9836","server":"65535","farm":66,"title":"On The Nest","ispublic":1,"isfriend":0,"isfamily":0},{"id":"52784693913","owner":"12639178@N07","secret":"4be7d54b08","server":"65535","farm":66,"title":"Kanadagans-Hybrid (unbestimmt) (Branta canadensis x ?) (3)","ispublic":1,"isfriend":0,"isfamily":0},{"id":"52784237531","owner":"12639178@N07","secret":"4570308d7a","server":"65535","farm":66,"title":"Kanadagans-Hybrid (unbestimmt) (Branta canadensis x ?) (2)","ispublic":1,"isfriend":0,"isfamily":0},{"id":"52784633730","owner":"12639178@N07","secret":"e1c62270c5","server":"65535","farm":66,"title":"Kanadagans-Hybrid","ispublic":1,"isfriend":0,"isfamily":0},{"id":"52784172011","owner":"12639178@N07","secret":"a1074a10e5","server":"65535","farm":66,"title":"Kanadag\u00e4nse","ispublic":1,"isfriend":0,"isfamily":0},{"id":"52784316288","owner":"12639178@N07","secret":"1144db40ef","server":"65535","farm":66,"title":"Kanadagans","ispublic":1,"isfriend":0,"isfamily":0},{"id":"52783310262","owner":"12639178@N07","secret":"d3c1ab8f10","server":"65535","farm":66,"title":"Breit gemacht ...","ispublic":1,"isfriend":0,"isfamily":0},{"id":"52783099357","owner":"12639178@N07","secret":"b9b6e4cf2d","server":"65535","farm":66,"title":"Ich werde dich besch\u00fctzen...","ispublic":1,"isfriend":0,"isfamily":0},{"id":"52783883980","owner":"188490851@N05","secret":"273dcfa7ac","server":"65535","farm":66,"title":"cpx_mah 322W","ispublic":1,"isfriend":0,"isfamily":0},{"id":"52783870605","owner":"188490851@N05","secret":"a5b133e267","server":"65535","farm":66,"title":"cpx_mah 554W","ispublic":1,"isfriend":0,"isfamily":0},{"id":"52783930228","owner":"188490851@N05","secret":"2a5025acba","server":"65535","farm":66,"title":"cpx_mah 422W","ispublic":1,"isfriend":0,"isfamily":0},{"id":"52783921718","owner":"19034378@N05","secret":"c00e436ca4","server":"65535","farm":66,"title":"Canadian Geese over Lambar Bay in Lake M\u00e4laren, Stockholm","ispublic":1,"isfriend":0,"isfamily":0},{"id":"52783544150","owner":"23882583@N08","secret":"ea568f2e3f","server":"65535","farm":66,"title":"Canada Goose","ispublic":1,"isfriend":0,"isfamily":0},{"id":"52783306218","owner":"41940444@N07","secret":"4b4449764a","server":"65535","farm":66,"title":"Canada goose","ispublic":1,"isfriend":0,"isfamily":0},{"id":"52782942389","owner":"12639178@N07","secret":"e0b2a551b0","server":"65535","farm":66,"title":"Kanadagans - weiterschlafen","ispublic":1,"isfriend":0,"isfamily":0},{"id":"52783103095","owner":"12639178@N07","secret":"bc0f6f0c6d","server":"65535","farm":66,"title":"Kanadagans - Rabenkr\u00e4he hat immer Schabernack im Sinn","ispublic":1,"isfriend":0,"isfamily":0},{"id":"52783102945","owner":"12639178@N07","secret":"0bf9befc9d","server":"65535","farm":66,"title":"Kanadagans - genervt von einer Kr\u00e4he","ispublic":1,"isfriend":0,"isfamily":0},{"id":"52782123940","owner":"76009930@N07","secret":"4abc72d80c","server":"65535","farm":66,"title":"P3240139","ispublic":1,"isfriend":0,"isfamily":0},{"id":"52782123850","owner":"76009930@N07","secret":"6836f4d41c","server":"65535","farm":66,"title":"P3240354","ispublic":1,"isfriend":0,"isfamily":0},{"id":"52781717901","owner":"76009930@N07","secret":"2cb17507ec","server":"65535","farm":66,"title":"P3240375","ispublic":1,"isfriend":0,"isfamily":0},{"id":"52781879195","owner":"76009930@N07","secret":"0c8cc7451d","server":"65535","farm":66,"title":"P3260767","ispublic":1,"isfriend":0,"isfamily":0},{"id":"52780551901","owner":"7202153@N03","secret":"8fbf7979c4","server":"65535","farm":66,"title":"Canada Geese & male Gambel's Quail - Orange Tree Golf Course Neighborhood","ispublic":1,"isfriend":0,"isfamily":0},{"id":"52779455802","owner":"169771858@N03","secret":"05d5b60368","server":"65535","farm":66,"title":"Mallard and Canadian Goose (2023-01-06 #3)","ispublic":1,"isfriend":0,"isfamily":0},{"id":"52778879617","owner":"12639178@N07","secret":"50ed3460fb","server":"65535","farm":66,"title":"Kanadag\u00e4nse","ispublic":1,"isfriend":0,"isfamily":0},{"id":"52779812925","owner":"12639178@N07","secret":"8ee1a9bc1f","server":"65535","farm":66,"title":"Kanadagans (Branta canadensis) (1)","ispublic":1,"isfriend":0,"isfamily":0},{"id":"52779811300","owner":"12639178@N07","secret":"de5b2a076f","server":"65535","farm":66,"title":"Kanadagans (Branta canadensis) (1)","ispublic":1,"isfriend":0,"isfamily":0},{"id":"52779237755","owner":"99854881@N08","secret":"0f8ee05518","server":"65535","farm":66,"title":"Greater Canada goose - Branta canadensis","ispublic":1,"isfriend":0,"isfamily":0},{"id":"52779074644","owner":"99854881@N08","secret":"f2887ff855","server":"65535","farm":66,"title":"Greater Canada goose - Branta canadensis","ispublic":1,"isfriend":0,"isfamily":0},{"id":"52778951588","owner":"12639178@N07","secret":"1d032723d0","server":"65535","farm":66,"title":"Kanadagans (Branta canadensis) (2)","ispublic":1,"isfriend":0,"isfamily":0},{"id":"52778885970","owner":"12639178@N07","secret":"d9b3bdb7fd","server":"65535","farm":66,"title":"Kanadagans (Branta canadensis) (1)","ispublic":1,"isfriend":0,"isfamily":0},{"id":"52778473883","owner":"99854881@N08","secret":"b8aa8a7c00","server":"65535","farm":66,"title":"Greater Canada goose - Branta canadensis","ispublic":1,"isfriend":0,"isfamily":0},{"id":"52778407160","owner":"99854881@N08","secret":"c260f0b3d3","server":"65535","farm":66,"title":"Greater Canada goose - Branta canadensis","ispublic":1,"isfriend":0,"isfamily":0},{"id":"52777992191","owner":"99854881@N08","secret":"2ef245f34d","server":"65535","farm":66,"title":"Greater Canada goose - Branta canadensis","ispublic":1,"isfriend":0,"isfamily":0},{"id":"52778383695","owner":"57126723@N07","secret":"8a841a62d6","server":"65535","farm":66,"title":"Canada goose putting on the brakes\u2014Branta canadensis\u2014Greensprings-1401-Edit","ispublic":1,"isfriend":0,"isfamily":0},{"id":"52777719851","owner":"8666250@N02","secret":"ca71f8d6f8","server":"65535","farm":66,"title":"Mr Cogo escorts the Tundras....","ispublic":1,"isfriend":0,"isfamily":0},{"id":"52777442296","owner":"44904157@N04","secret":"74f2c333c4","server":"65535","farm":66,"title":"Goose Portrait","ispublic":1,"isfriend":0,"isfamily":0},{"id":"52776488072","owner":"48558356@N04","secret":"f696e04913","server":"0","farm":0,"title":"Greater Canada Goose Branta canadensis","ispublic":1,"isfriend":0,"isfamily":0},{"id":"52776486262","owner":"84175980@N00","secret":"f77810408c","server":"65535","farm":66,"title":"20230315 Branta canadensis (Canda goose) (1)","ispublic":1,"isfriend":0,"isfamily":0},{"id":"52776008862","owner":"51433704@N06","secret":"fa52549b27","server":"65535","farm":66,"title":"Baby gosling`s","ispublic":1,"isfriend":0,"isfamily":0},{"id":"52776697959","owner":"95713135@N04","secret":"849580647d","server":"65535","farm":66,"title":"Canada Goose - Branta canadensis 090223 (3)","ispublic":1,"isfriend":0,"isfamily":0},{"id":"52770757081","owner":"143455489@N03","secret":"7c3e4a6a85","server":"65535","farm":66,"title":"On a sunny warm summer afternoon, a family of Canada geese wander around the wetlands for food","ispublic":1,"isfriend":0,"isfamily":0},{"id":"52774700507","owner":"51433704@N06","secret":"cf7a53a4af","server":"65535","farm":66,"title":"Baby gosling","ispublic":1,"isfriend":0,"isfamily":0},{"id":"52774832128","owner":"16498755@N07","secret":"32e6b1db5c","server":"65535","farm":66,"title":"Canada Goose & Nest, Monmouthshire-Brecon Canal, Two Locks Road, Cwmbran 27 March 2023","ispublic":1,"isfriend":0,"isfamily":0},{"id":"52774312555","owner":"12639178@N07","secret":"19b06945f0","server":"65535","farm":66,"title":"Teilleuzistische Kanadagans","ispublic":1,"isfriend":0,"isfamily":0},{"id":"52772435482","owner":"12639178@N07","secret":"84eb03ce03","server":"65535","farm":66,"title":"Hybrid oder juvenile Kanadagans?","ispublic":1,"isfriend":0,"isfamily":0},{"id":"52772927789","owner":"12639178@N07","secret":"967b438a31","server":"65535","farm":66,"title":"Kanadagans (Branta canadensis)","ispublic":1,"isfriend":0,"isfamily":0},{"id":"52773124508","owner":"44904157@N04","secret":"6281621486","server":"65535","farm":66,"title":"A Different Canada Goose","ispublic":1,"isfriend":0,"isfamily":0},{"id":"52772106547","owner":"9243885@N07","secret":"4b39e52801","server":"65535","farm":66,"title":"2023_03_25_097387","ispublic":1,"isfriend":0,"isfamily":0},{"id":"52772989638","owner":"16498755@N07","secret":"312a0e6ba7","server":"65535","farm":66,"title":"Canada Goose Eggs, Monmouthshire-Brecon Canal, Retail Park, Cwmbran 26 March 2023","ispublic":1,"isfriend":0,"isfamily":0},{"id":"52771730537","owner":"44093058@N06","secret":"17ce30b937","server":"65535","farm":66,"title":"Mallards and Canada goose, Branta canadensis, Kanadag\u00e5s","ispublic":1,"isfriend":0,"isfamily":0},{"id":"52772747248","owner":"44093058@N06","secret":"7f085a26ea","server":"65535","farm":66,"title":"Canada goose, Branta canadensis, Kanadag\u00e5s","ispublic":1,"isfriend":0,"isfamily":0},{"id":"52771730262","owner":"44093058@N06","secret":"7c9f5df452","server":"65535","farm":66,"title":"Canada goose, Branta canadensis, Kanadag\u00e5s","ispublic":1,"isfriend":0,"isfamily":0},{"id":"52772277488","owner":"169771858@N03","secret":"675fdefd3e","server":"65535","farm":66,"title":"Canadian GOose (2023-01-06 #1)","ispublic":1,"isfriend":0,"isfamily":0},{"id":"52771685766","owner":"69812270@N00","secret":"c1ac1bf92f","server":"65535","farm":66,"title":"Four Canada Goose, Branta canadensis, Eggs!","ispublic":1,"isfriend":0,"isfamily":0},{"id":"52771083836","owner":"53280041@N04","secret":"8d62f674a3","server":"65535","farm":66,"title":"Canada goose","ispublic":1,"isfriend":0,"isfamily":0},{"id":"52771340524","owner":"53280041@N04","secret":"23374aaa1e","server":"65535","farm":66,"title":"Canada goose","ispublic":1,"isfriend":0,"isfamily":0},{"id":"52771340494","owner":"53280041@N04","secret":"00032db266","server":"65535","farm":66,"title":"Canada goose","ispublic":1,"isfriend":0,"isfamily":0},{"id":"52771083216","owner":"53280041@N04","secret":"13ab138862","server":"65535","farm":66,"title":"Canada goose","ispublic":1,"isfriend":0,"isfamily":0},{"id":"52771339934","owner":"53280041@N04","secret":"bd649e8137","server":"65535","farm":66,"title":"Canada goose","ispublic":1,"isfriend":0,"isfamily":0},{"id":"52770547502","owner":"53280041@N04","secret":"615c8dbf6e","server":"65535","farm":66,"title":"Canada goose","ispublic":1,"isfriend":0,"isfamily":0},{"id":"52779872093","owner":"12639178@N07","secret":"bbc76e7c0c","server":"65535","farm":66,"title":"Kanadagans (Branta canadensis) (1)","ispublic":1,"isfriend":0,"isfamily":0},{"id":"52779810400","owner":"12639178@N07","secret":"8ff1e9c317","server":"65535","farm":66,"title":"Kanadagans (Branta canadensis) (1)","ispublic":1,"isfriend":0,"isfamily":0},{"id":"52779270476","owner":"12639178@N07","secret":"0423d2229c","server":"65535","farm":66,"title":"Kanadaganspaar","ispublic":1,"isfriend":0,"isfamily":0},{"id":"52776283456","owner":"12639178@N07","secret":"000bfb808f","server":"65535","farm":66,"title":"Revierstreitigkeiten (P01)","ispublic":1,"isfriend":0,"isfamily":0}]},"stat":"ok"}