{"photos":{"page":1,"pages":10,"perpage":100,"total":990,"photo":[{"id":"52722951947","owner":"33610758@N08","secret":"689a791a53","server":"65535","farm":66,"title":"Canada Warbler (Cardellina canadensis)","ispublic":1,"isfriend":0,"isfamily":0},{"id":"52719043377","owner":"7330431@N08","secret":"0549391f81","server":"65535","farm":66,"title":"Canada Warbler Cardellina canadensis","ispublic":1,"isfriend":0,"isfamily":0},{"id":"52711954502","owner":"7330431@N08","secret":"9f268a1811","server":"65535","farm":66,"title":"Canada Warbler Cardellina canadensis","ispublic":1,"isfriend":0,"isfamily":0},{"id":"52645166740","owner":"8013969@N03","secret":"a2bd93a985","server":"65535","farm":66,"title":"Cardellina canadensis DFL lanc22-1","ispublic":1,"isfriend":0,"isfamily":0},{"id":"52645200733","owner":"8013969@N03","secret":"505d792e82","server":"65535","farm":66,"title":"Cardellina canadensis DFL lanc22-2","ispublic":1,"isfriend":0,"isfamily":0},{"id":"52588206304","owner":"153849901@N07","secret":"dd6cc5f2dc","server":"65535","farm":66,"title":"Reinita canadiense migratoria (Cardellina canadensis) Valle del Cauca. Colombia  Instagram: @pajariando_ando Facebook: PAJARIANDO ANDO","ispublic":1,"isfriend":0,"isfamily":0},{"id":"52580760855","owner":"153973412@N04","secret":"0c98cf35ba","server":"65535","farm":66,"title":"Canada Warbler-Cardellina canadensis, Iowa City, IA","ispublic":1,"isfriend":0,"isfamily":0},{"id":"52561475325","owner":"196840457@N07","secret":"da81f4a2cd","server":"65535","farm":66,"title":"Warbler, Canada","ispublic":1,"isfriend":0,"isfamily":0},{"id":"52511826745","owner":"8065544@N08","secret":"5765f7b2d6","server":"65535","farm":66,"title":"Canada Warbler (Cardellina canadensis)","ispublic":1,"isfriend":0,"isfamily":0},{"id":"52461994710","owner":"99208129@N08","secret":"9f13440bd9","server":"65535","farm":66,"title":"Cardellina canadensis \/ Canada Warbler","ispublic":1,"isfriend":0,"isfamily":0},{"id":"52462072513","owner":"99208129@N08","secret":"b8d53c01fc","server":"65535","farm":66,"title":"Cardellina canadensis \/ Canada Warbler","ispublic":1,"isfriend":0,"isfamily":0},{"id":"52433910584","owner":"132508209@N08","secret":"a844a84c53","server":"65535","farm":66,"title":"Canada Warbler (Cardellina canadensis)","ispublic":1,"isfriend":0,"isfamily":0},{"id":"52433910354","owner":"132508209@N08","secret":"f409086d93","server":"65535","farm":66,"title":"Canada Warbler (Cardellina canadensis)","ispublic":1,"isfriend":0,"isfamily":0},{"id":"52434091775","owner":"132508209@N08","secret":"94ebd97ba3","server":"65535","farm":66,"title":"Canada Warbler (Cardellina canadensis)","ispublic":1,"isfriend":0,"isfamily":0},{"id":"52433909954","owner":"132508209@N08","secret":"85a3e4a925","server":"65535","farm":66,"title":"Canada Warbler (Cardellina canadensis)","ispublic":1,"isfriend":0,"isfamily":0},{"id":"52434156963","owner":"132508209@N08","secret":"9563b15c62","server":"65535","farm":66,"title":"Canada Warbler (Cardellina canadensis)","ispublic":1,"isfriend":0,"isfamily":0},{"id":"52434091050","owner":"132508209@N08","secret":"d743592c97","server":"65535","farm":66,"title":"Canada Warbler (Cardellina canadensis)","ispublic":1,"isfriend":0,"isfamily":0},{"id":"52433636606","owner":"132508209@N08","secret":"83022a4aa0","server":"65535","farm":66,"title":"Canada Warbler (Cardellina canadensis)","ispublic":1,"isfriend":0,"isfamily":0},{"id":"52420131233","owner":"125605310@N07","secret":"749be246c6","server":"65535","farm":66,"title":"Canada Warbler, Cardellina canadensis","ispublic":1,"isfriend":0,"isfamily":0},{"id":"52419957733","owner":"62043870@N05","secret":"f372de345d","server":"65535","farm":66,"title":"Canada Warbler, Cardellina canadensis","ispublic":1,"isfriend":0,"isfamily":0},{"id":"52418930517","owner":"62043870@N05","secret":"61fc010d4b","server":"65535","farm":66,"title":"Canada Warbler, Cardellina canadensis","ispublic":1,"isfriend":0,"isfamily":0},{"id":"52375737165","owner":"36685968@N00","secret":"5c31f9789b","server":"65535","farm":66,"title":"Canada Warbler (Cardellina canadensis)","ispublic":1,"isfriend":0,"isfamily":0},{"id":"52361404325","owner":"36685968@N00","secret":"45a8a3a139","server":"65535","farm":66,"title":"Canada Warbler (Cardellina canadensis)","ispublic":1,"isfriend":0,"isfamily":0},{"id":"52360281731","owner":"33573751@N04","secret":"11974a60a1","server":"65535","farm":66,"title":"Canada Warbler (Cardellina canadensis) - Westport, Connecticut, USA","ispublic":1,"isfriend":0,"isfamily":0},{"id":"52359076202","owner":"33573751@N04","secret":"5bfdc612cf","server":"65535","farm":66,"title":"Canada Warbler (Cardellina canadensis) - Westport, Connecticut, USA","ispublic":1,"isfriend":0,"isfamily":0},{"id":"52353854647","owner":"188156748@N07","secret":"8d25a68f52","server":"65535","farm":66,"title":"Canada Warbler - Paruline du Canada 6339 (4)-SharpenAI-Standard copy.jpgS","ispublic":1,"isfriend":0,"isfamily":0},{"id":"52355040458","owner":"188156748@N07","secret":"e53783890e","server":"65535","farm":66,"title":"Canada Warbler - Paruline du Canada 6339 (3)-SharpenAI-Standard copy.jpgS","ispublic":1,"isfriend":0,"isfamily":0},{"id":"52355040408","owner":"188156748@N07","secret":"dab5f09d8a","server":"65535","farm":66,"title":"Canada Warbler - Paruline du Canada 6339 (5)-SharpenAI-Standard copy.jpgS","ispublic":1,"isfriend":0,"isfamily":0},{"id":"52347567173","owner":"65788177@N02","secret":"115c19c473","server":"65535","farm":66,"title":"Canada Warbler","ispublic":1,"isfriend":0,"isfamily":0},{"id":"52314698300","owner":"165841515@N03","secret":"b44bae05f8","server":"65535","farm":66,"title":"Paruline du Canada \/ Canada Warbler \/ (Cardellina canadensis)","ispublic":1,"isfriend":0,"isfamily":0},{"id":"52314256141","owner":"165841515@N03","secret":"63e380e896","server":"65535","farm":66,"title":"Paruline du Canada \/ Canada Warbler \/ (Cardellina canadensis)","ispublic":1,"isfriend":0,"isfamily":0},{"id":"52313457537","owner":"165841515@N03","secret":"a75abe4e62","server":"65535","farm":66,"title":"Paruline du Canada \/ Canada Warbler \/ (Cardellina canadensis)","ispublic":1,"isfriend":0,"isfamily":0},{"id":"52304461725","owner":"79097894@N04","secret":"6673ac3c4f","server":"65535","farm":66,"title":"Canada Warbler","ispublic":1,"isfriend":0,"isfamily":0},{"id":"52277464170","owner":"49114357@N08","secret":"9c4d40ed0b","server":"65535","farm":66,"title":"Canada Warbler","ispublic":1,"isfriend":0,"isfamily":0},{"id":"52272694020","owner":"76617062@N08","secret":"6cfa2ee65d","server":"65535","farm":66,"title":"1.27946 Paruline du Canada (m\u00e2le) \/ Cardellina canadensis \/ Canada Warbler","ispublic":1,"isfriend":0,"isfamily":0},{"id":"52270709866","owner":"71418112@N00","secret":"176d89fbfd","server":"65535","farm":66,"title":"Canada warbler.","ispublic":1,"isfriend":0,"isfamily":0},{"id":"52243880209","owner":"76617062@N08","secret":"c724d37827","server":"65535","farm":66,"title":"1.27946 Paruline du Canada (m\u00e2le) \/ Cardellina canadensis \/ Canada Warbler","ispublic":1,"isfriend":0,"isfamily":0},{"id":"52211564627","owner":"48014585@N00","secret":"d737010605","server":"65535","farm":66,"title":"Canada Warbler","ispublic":1,"isfriend":0,"isfamily":0},{"id":"52212570336","owner":"48014585@N00","secret":"0f1f704a11","server":"65535","farm":66,"title":"Canada Warbler","ispublic":1,"isfriend":0,"isfamily":0},{"id":"52212588163","owner":"48014585@N00","secret":"3b71dbb236","server":"65535","farm":66,"title":"Canada Warbler","ispublic":1,"isfriend":0,"isfamily":0},{"id":"52185331172","owner":"24309230@N03","secret":"a6514b51a4","server":"65535","farm":66,"title":"Canada Warbler","ispublic":1,"isfriend":0,"isfamily":0},{"id":"52178221140","owner":"56686021@N04","secret":"ace4baebab","server":"65535","farm":66,"title":"Canada Warbler","ispublic":1,"isfriend":0,"isfamily":0},{"id":"52170579183","owner":"95484108@N07","secret":"f1c3ef0dbc","server":"65535","farm":66,"title":"Paruline du Canada \/\/ Canada Warbler","ispublic":1,"isfriend":0,"isfamily":0},{"id":"52166544057","owner":"131708321@N02","secret":"2b9acb4393","server":"65535","farm":66,"title":"Canada Warbler (Cardellina canadensis), Sutton, Quebec, Canada","ispublic":1,"isfriend":0,"isfamily":0},{"id":"52163266399","owner":"86191812@N07","secret":"97c81c983e","server":"65535","farm":66,"title":"Canada Warbler (Cardellina canadensis)","ispublic":1,"isfriend":0,"isfamily":0},{"id":"52154173984","owner":"28499865@N07","secret":"d7163a478f","server":"65535","farm":66,"title":"Canada Warbler - Cardellina canadensis","ispublic":1,"isfriend":0,"isfamily":0},{"id":"52153939913","owner":"28499865@N07","secret":"053de52067","server":"65535","farm":66,"title":"Canada Warbler - Cardellina canadensis","ispublic":1,"isfriend":0,"isfamily":0},{"id":"52154428600","owner":"28499865@N07","secret":"0589c1b1fe","server":"65535","farm":66,"title":"Canada Warbler - Cardellina canadensis","ispublic":1,"isfriend":0,"isfamily":0},{"id":"52154428555","owner":"28499865@N07","secret":"3f946c35b2","server":"65535","farm":66,"title":"Canada Warbler - Cardellina canadensis","ispublic":1,"isfriend":0,"isfamily":0},{"id":"52149735323","owner":"16447555@N02","secret":"79e3c647df","server":"65535","farm":66,"title":"Canada Warbler_IMG_0656_edited-1","ispublic":1,"isfriend":0,"isfamily":0},{"id":"52140585580","owner":"120449047@N06","secret":"9b0c86ebbf","server":"65535","farm":66,"title":"Canada Warbler (27\/35)","ispublic":1,"isfriend":0,"isfamily":0},{"id":"52134259941","owner":"62445008@N00","secret":"effb306740","server":"65535","farm":66,"title":"Canada Warbler (Cardellina canadensis)","ispublic":1,"isfriend":0,"isfamily":0},{"id":"52123788914","owner":"186432601@N04","secret":"dcc8206e08","server":"65535","farm":66,"title":"Canada Warbler (Cardellina canadensis)","ispublic":1,"isfriend":0,"isfamily":0},{"id":"52121319316","owner":"186432601@N04","secret":"a4d24467f8","server":"65535","farm":66,"title":"Canada Warbler (Cardellina canadensis)","ispublic":1,"isfriend":0,"isfamily":0},{"id":"52110172048","owner":"47441959@N00","secret":"99c5dae9ec","server":"65535","farm":66,"title":"Canada Warbler","ispublic":1,"isfriend":0,"isfamily":0},{"id":"52101555220","owner":"76288515@N07","secret":"cc451ff1e4","server":"65535","farm":66,"title":"Canada Warbler Cardellina canadensis","ispublic":1,"isfriend":0,"isfamily":0},{"id":"52101081733","owner":"76288515@N07","secret":"793939ee3c","server":"65535","farm":66,"title":"Canada Warbler Cardellina canadensis","ispublic":1,"isfriend":0,"isfamily":0},{"id":"52100022402","owner":"76288515@N07","secret":"a830727a29","server":"65535","farm":66,"title":"Canada Warbler Cardellina canadensis","ispublic":1,"isfriend":0,"isfamily":0},{"id":"52101289914","owner":"76288515@N07","secret":"ed8e8e6a06","server":"65535","farm":66,"title":"Canada Warbler Cardellina canadensis","ispublic":1,"isfriend":0,"isfamily":0},{"id":"52645199698","owner":"8013969@N03","secret":"ba4b4e92ec","server":"65535","farm":66,"title":"Cardellina canadensis DFL ny22-1","ispublic":1,"isfriend":0,"isfamily":0},{"id":"52588462383","owner":"153849901@N07","secret":"3e3b10ac33","server":"65535","farm":66,"title":"Reinita canadiense migratoria (Cardellina canadensis) Valle del Cauca. Colombia  Instagram: @pajariando_ando Facebook: PAJARIANDO ANDO","ispublic":1,"isfriend":0,"isfamily":0},{"id":"52495726635","owner":"64557331@N04","secret":"6899908b86","server":"65535","farm":66,"title":"Canada Warbler - (Cardellina canadensis)_08312022_2","ispublic":1,"isfriend":0,"isfamily":0},{"id":"52433129202","owner":"132508209@N08","secret":"5ee3a3b034","server":"65535","farm":66,"title":"Canada Warbler (Cardellina canadensis)","ispublic":1,"isfriend":0,"isfamily":0},{"id":"52434091685","owner":"132508209@N08","secret":"5cd26ece45","server":"65535","farm":66,"title":"Canada Warbler (Cardellina canadensis)","ispublic":1,"isfriend":0,"isfamily":0},{"id":"52433128507","owner":"132508209@N08","secret":"73b7638179","server":"65535","farm":66,"title":"Canada Warbler (Cardellina canadensis)","ispublic":1,"isfriend":0,"isfamily":0},{"id":"52433909609","owner":"132508209@N08","secret":"fda17fdb14","server":"65535","farm":66,"title":"Canada Warbler (Cardellina canadensis)","ispublic":1,"isfriend":0,"isfamily":0},{"id":"52434090535","owner":"132508209@N08","secret":"be9d130a0f","server":"65535","farm":66,"title":"Canada Warbler (Cardellina canadensis)","ispublic":1,"isfriend":0,"isfamily":0},{"id":"52418917595","owner":"39177293@N03","secret":"cb4c07397d","server":"65535","farm":66,"title":"Canada Warbler","ispublic":1,"isfriend":0,"isfamily":0},{"id":"52368048610","owner":"39445433@N02","secret":"05f1a0e648","server":"65535","farm":66,"title":"Canada Warbler","ispublic":1,"isfriend":0,"isfamily":0},{"id":"52367628501","owner":"39445433@N02","secret":"9c1c7825f9","server":"65535","farm":66,"title":"Canada Warbler","ispublic":1,"isfriend":0,"isfamily":0},{"id":"52367628466","owner":"39445433@N02","secret":"1809e0cb5b","server":"65535","farm":66,"title":"Canada Warbler","ispublic":1,"isfriend":0,"isfamily":0},{"id":"52368048465","owner":"39445433@N02","secret":"e0112a3739","server":"65535","farm":66,"title":"Canada Warbler","ispublic":1,"isfriend":0,"isfamily":0},{"id":"52367935694","owner":"39445433@N02","secret":"ee3a961656","server":"65535","farm":66,"title":"Canada Warbler","ispublic":1,"isfriend":0,"isfamily":0},{"id":"52367935634","owner":"39445433@N02","secret":"972179305d","server":"65535","farm":66,"title":"Canada Warbler","ispublic":1,"isfriend":0,"isfamily":0},{"id":"52364959640","owner":"13451078@N03","secret":"4c30f5034e","server":"65535","farm":66,"title":"Canada Warbler (Cardellina canadensis)","ispublic":1,"isfriend":0,"isfamily":0},{"id":"52354881897","owner":"196212229@N04","secret":"ccd09f1e45","server":"65535","farm":66,"title":"Canada Warbler","ispublic":1,"isfriend":0,"isfamily":0},{"id":"52354881857","owner":"196212229@N04","secret":"c9e7b258c2","server":"65535","farm":66,"title":"Canada Warbler","ispublic":1,"isfriend":0,"isfamily":0},{"id":"52320673408","owner":"13451078@N03","secret":"de1f885f10","server":"65535","farm":66,"title":"Canada Warbler  (Cardellina canadensis)","ispublic":1,"isfriend":0,"isfamily":0},{"id":"52213435383","owner":"48014585@N00","secret":"527213be2e","server":"65535","farm":66,"title":"Canada Warbler","ispublic":1,"isfriend":0,"isfamily":0},{"id":"52211564227","owner":"48014585@N00","secret":"8bb4d1bf8c","server":"65535","farm":66,"title":"Canada Warbler","ispublic":1,"isfriend":0,"isfamily":0},{"id":"52212553271","owner":"48014585@N00","secret":"e65c4ed307","server":"65535","farm":66,"title":"Canada Warbler","ispublic":1,"isfriend":0,"isfamily":0},{"id":"52212571288","owner":"48014585@N00","secret":"053fd4fe8f","server":"65535","farm":66,"title":"Canada Warbler","ispublic":1,"isfriend":0,"isfamily":0},{"id":"52212571158","owner":"48014585@N00","secret":"c7e6c8292b","server":"65535","farm":66,"title":"Canada Warbler","ispublic":1,"isfriend":0,"isfamily":0},{"id":"52170493513","owner":"39445433@N02","secret":"ae3a078831","server":"65535","farm":66,"title":"Canada Warbler","ispublic":1,"isfriend":0,"isfamily":0},{"id":"52170493368","owner":"39445433@N02","secret":"da7b47f01d","server":"65535","farm":66,"title":"Canada Warbler","ispublic":1,"isfriend":0,"isfamily":0},{"id":"52170969040","owner":"39445433@N02","secret":"d650b3908d","server":"65535","farm":66,"title":"Canada Warbler","ispublic":1,"isfriend":0,"isfamily":0},{"id":"52170733229","owner":"39445433@N02","secret":"53342af799","server":"65535","farm":66,"title":"Canada Warbler","ispublic":1,"isfriend":0,"isfamily":0},{"id":"52170968765","owner":"39445433@N02","secret":"013e62fe7f","server":"65535","farm":66,"title":"Canada Warbler","ispublic":1,"isfriend":0,"isfamily":0},{"id":"52169468947","owner":"39445433@N02","secret":"c180cff890","server":"65535","farm":66,"title":"Canada Warbler","ispublic":1,"isfriend":0,"isfamily":0},{"id":"52154428525","owner":"28499865@N07","secret":"d8ea3cc94c","server":"65535","farm":66,"title":"Canada Warbler - Cardellina canadensis","ispublic":1,"isfriend":0,"isfamily":0},{"id":"52151906427","owner":"39177293@N03","secret":"a3a4cc4b4f","server":"65535","farm":66,"title":"Canada Warbler","ispublic":1,"isfriend":0,"isfamily":0},{"id":"52152913796","owner":"39177293@N03","secret":"bee1cd1bb9","server":"65535","farm":66,"title":"Canada Warbler","ispublic":1,"isfriend":0,"isfamily":0},{"id":"52137104333","owner":"7261670@N03","secret":"18f3426036","server":"65535","farm":66,"title":"Canada Warbler","ispublic":1,"isfriend":0,"isfamily":0},{"id":"52134281698","owner":"62445008@N00","secret":"ee4b8baa3d","server":"65535","farm":66,"title":"Canada Warbler (Cardellina canadensis)","ispublic":1,"isfriend":0,"isfamily":0},{"id":"52134500419","owner":"62445008@N00","secret":"3d1525e160","server":"65535","farm":66,"title":"Canada Warbler (Cardellina canadensis)","ispublic":1,"isfriend":0,"isfamily":0},{"id":"52134281628","owner":"62445008@N00","secret":"7b3f50dd21","server":"65535","farm":66,"title":"Canada Warbler (Cardellina canadensis)","ispublic":1,"isfriend":0,"isfamily":0},{"id":"52130412626","owner":"67306066@N03","secret":"bf91990010","server":"65535","farm":66,"title":"Canada Warbler (Cardellina canadensis)","ispublic":1,"isfriend":0,"isfamily":0},{"id":"52126715299","owner":"92361032@N05","secret":"5849378177","server":"65535","farm":66,"title":"Canada Warbler \/ Paruline du Canada ( Richard )","ispublic":1,"isfriend":0,"isfamily":0},{"id":"52102868062","owner":"13451078@N03","secret":"b73f87bd37","server":"65535","farm":66,"title":"Canada Warbler (Cardellina canadensis)","ispublic":1,"isfriend":0,"isfamily":0},{"id":"52098185308","owner":"165841515@N03","secret":"72f09b04e9","server":"65535","farm":66,"title":"Paruline du Canada \/ Canada Warbler \/ (Cardellina canadensis)","ispublic":1,"isfriend":0,"isfamily":0}]},"stat":"ok"}