{"photos":{"page":1,"pages":26,"perpage":100,"total":2583,"photo":[{"id":"52787217148","owner":"25899079@N08","secret":"a7f826ee66","server":"65535","farm":66,"title":"Canvasback;Ring-necked Duck (9995)","ispublic":1,"isfriend":0,"isfamily":0},{"id":"52772767208","owner":"62043870@N05","secret":"a1b3c90bf0","server":"65535","farm":66,"title":"Canvasback, Aythya valisineria","ispublic":1,"isfriend":0,"isfamily":0},{"id":"52757282794","owner":"131037795@N03","secret":"1314c0dfac","server":"65535","farm":66,"title":"Canvasback (Aythya valisineria)","ispublic":1,"isfriend":0,"isfamily":0},{"id":"52756861244","owner":"189850730@N04","secret":"305533f2ce","server":"65535","farm":66,"title":"DSC_0183","ispublic":1,"isfriend":0,"isfamily":0},{"id":"52748950358","owner":"65148649@N04","secret":"756e8065f6","server":"65535","farm":66,"title":"Canvasback 03.04.23 Frye","ispublic":1,"isfriend":0,"isfamily":0},{"id":"52725672510","owner":"7546739@N08","secret":"fff878779b","server":"65535","farm":66,"title":"Canvasback pair","ispublic":1,"isfriend":0,"isfamily":0},{"id":"52712803383","owner":"131037795@N03","secret":"5db95a0ffc","server":"65535","farm":66,"title":"Canvasback (Aythya valisineria)","ispublic":1,"isfriend":0,"isfamily":0},{"id":"52712742215","owner":"131037795@N03","secret":"c055810c80","server":"65535","farm":66,"title":"Canvasback (Aythya valisineria)","ispublic":1,"isfriend":0,"isfamily":0},{"id":"52712586184","owner":"131037795@N03","secret":"72c9470772","server":"65535","farm":66,"title":"Canvasback (Aythya valisineria)","ispublic":1,"isfriend":0,"isfamily":0},{"id":"52709509914","owner":"23939795@N04","secret":"1cf93114cc","server":"65535","farm":66,"title":"An Uncommon Stretch 3378","ispublic":1,"isfriend":0,"isfamily":0},{"id":"52701191947","owner":"62043870@N05","secret":"f36c52d987","server":"65535","farm":66,"title":"Canvasback (Aythya valisineria) and  Ruddy Duck (Oxyura jamaicensis)","ispublic":1,"isfriend":0,"isfamily":0},{"id":"52700896597","owner":"42034882@N00","secret":"21711a8728","server":"65535","farm":66,"title":"Surprisingly Elusive","ispublic":1,"isfriend":0,"isfamily":0},{"id":"52699762037","owner":"131037795@N03","secret":"cf447e5f32","server":"65535","farm":66,"title":"Canvasback (Aythya valisineria)","ispublic":1,"isfriend":0,"isfamily":0},{"id":"52693527371","owner":"142902404@N08","secret":"88e43740f1","server":"65535","farm":66,"title":"Canvasback","ispublic":1,"isfriend":0,"isfamily":0},{"id":"52693586773","owner":"187792860@N04","secret":"074e8130c5","server":"65535","farm":66,"title":"Canvasback (Aythya valisineria) Drake","ispublic":1,"isfriend":0,"isfamily":0},{"id":"52693478520","owner":"187792860@N04","secret":"efcb04c988","server":"65535","farm":66,"title":"Canvasback (Aythya valisineria) Drake","ispublic":1,"isfriend":0,"isfamily":0},{"id":"52689667886","owner":"63093099@N02","secret":"7f58c08ed7","server":"65535","farm":66,"title":"Canvasbacks (male and female); 20230214; USA-WA-King-Seattle-Union Bay Natural Area","ispublic":1,"isfriend":0,"isfamily":0},{"id":"52689936294","owner":"63093099@N02","secret":"d2b2a27225","server":"65535","farm":66,"title":"Canvasback (female); 20230214; USA-WA-King-Seattle-Union Bay Natural Area","ispublic":1,"isfriend":0,"isfamily":0},{"id":"52689144467","owner":"63093099@N02","secret":"7d62f8dfa9","server":"65535","farm":66,"title":"Canvasbacks (male and females); 20230214; USA-WA-King-Seattle-Union Bay Natural Area","ispublic":1,"isfriend":0,"isfamily":0},{"id":"52690157823","owner":"63093099@N02","secret":"0af2d1eb68","server":"65535","farm":66,"title":"Canvasbacks (male and female); 20230214; USA-WA-King-Seattle-Union Bay Natural Area","ispublic":1,"isfriend":0,"isfamily":0},{"id":"52689667451","owner":"63093099@N02","secret":"8905745b71","server":"65535","farm":66,"title":"Canvasbacks (male and females) and American Coot; 20230214; USA-WA-King-Seattle-Union Bay Natural Area","ispublic":1,"isfriend":0,"isfamily":0},{"id":"52690083155","owner":"63093099@N02","secret":"9d331a0d96","server":"65535","farm":66,"title":"Canvasbacks (male and females); 20230214; USA-WA-King-Seattle-Union Bay Natural Area","ispublic":1,"isfriend":0,"isfamily":0},{"id":"52690157728","owner":"63093099@N02","secret":"f932100370","server":"65535","farm":66,"title":"Canvasbacks (male and females) and American Coots; 20230214; USA-WA-King-Seattle-Union Bay Natural Area","ispublic":1,"isfriend":0,"isfamily":0},{"id":"52688516098","owner":"187792860@N04","secret":"32dca91889","server":"65535","farm":66,"title":"Canvasback (Aythya valisineria) Drake","ispublic":1,"isfriend":0,"isfamily":0},{"id":"52684604705","owner":"131037795@N03","secret":"33af2f7afe","server":"65535","farm":66,"title":"Mr. & Mrs. Canvasback (Aythya valisineria)","ispublic":1,"isfriend":0,"isfamily":0},{"id":"52681532244","owner":"98675522@N06","secret":"211889c91a","server":"65535","farm":66,"title":"Greetings!","ispublic":1,"isfriend":0,"isfamily":0},{"id":"52671411911","owner":"71418112@N00","secret":"091b427d6f","server":"65535","farm":66,"title":"Canvasback","ispublic":1,"isfriend":0,"isfamily":0},{"id":"52662399867","owner":"110624976@N05","secret":"8a6cf37117","server":"65535","farm":66,"title":"Male Canvasback duck showing off to indifferent American Coot","ispublic":1,"isfriend":0,"isfamily":0},{"id":"52653665460","owner":"62043870@N05","secret":"4c702b1f0e","server":"65535","farm":66,"title":"Canvasback, Aythya valisineria","ispublic":1,"isfriend":0,"isfamily":0},{"id":"52649080692","owner":"52450054@N04","secret":"b50e54c11f","server":"65535","farm":66,"title":"025\/365 - Canvasback - Aythya valisineria, Leesylvania State Park, Woodbridge, Virginia, January 25, 2023","ispublic":1,"isfriend":0,"isfamily":0},{"id":"52644640367","owner":"131314146@N08","secret":"e2a5fa262b","server":"65535","farm":66,"title":"K. MacDonald, Canvasback, Aythya valisineria Right with Canada Geese","ispublic":1,"isfriend":0,"isfamily":0},{"id":"52645622753","owner":"131314146@N08","secret":"8d696da633","server":"65535","farm":66,"title":"K. MacDonald, Canvasback, Aythya valisineria","ispublic":1,"isfriend":0,"isfamily":0},{"id":"52644236912","owner":"196840457@N07","secret":"0411bc2fa6","server":"65535","farm":66,"title":"Canvasback & Redhead Drakes","ispublic":1,"isfriend":0,"isfamily":0},{"id":"52635551447","owner":"103722035@N06","secret":"19a70fdb79","server":"0","farm":0,"title":"Canvasback (Aythya valisineria), Santa Margarita Lake, Santa Margarita, CA","ispublic":1,"isfriend":0,"isfamily":0},{"id":"52633646835","owner":"43898512@N07","secret":"3f7beedcb3","server":"65535","farm":66,"title":"Canvasback - Aythya valisineria","ispublic":1,"isfriend":0,"isfamily":0},{"id":"52629104017","owner":"9243885@N07","secret":"5a92b57fd9","server":"65535","farm":66,"title":"2023_01_14_5DMk4_88002","ispublic":1,"isfriend":0,"isfamily":0},{"id":"52629928070","owner":"151381692@N04","secret":"4a90514a7e","server":"65535","farm":66,"title":"Canvasback (Aythya valisineria) and Redhead (Aythya americana)","ispublic":1,"isfriend":0,"isfamily":0},{"id":"52629746453","owner":"9243885@N07","secret":"d010d33789","server":"65535","farm":66,"title":"2023_01_14_5DMk4_87992","ispublic":1,"isfriend":0,"isfamily":0},{"id":"52609866764","owner":"103722035@N06","secret":"3bf05ee856","server":"65535","farm":66,"title":"Canvasback, (Aythya valisineria), Pismo Beach CA","ispublic":1,"isfriend":0,"isfamily":0},{"id":"52610099823","owner":"103722035@N06","secret":"8141582608","server":"65535","farm":66,"title":"Canvasback, (Aythya valisineria), Pismo Beach CA","ispublic":1,"isfriend":0,"isfamily":0},{"id":"52609606196","owner":"103722035@N06","secret":"5f50c7ac04","server":"65535","farm":66,"title":"Canvasback, (Aythya valisineria), Pismo Beach CA","ispublic":1,"isfriend":0,"isfamily":0},{"id":"52610019578","owner":"103722035@N06","secret":"22c2c29823","server":"0","farm":0,"title":"Canvasback, (Aythya valisineria), Pismo Beach CA","ispublic":1,"isfriend":0,"isfamily":0},{"id":"52618929941","owner":"119468907@N03","secret":"28f1bacd94","server":"0","farm":0,"title":"Fuligule a\u0300 dos blanc_1611","ispublic":1,"isfriend":0,"isfamily":0},{"id":"52618466172","owner":"119468907@N03","secret":"85423c289c","server":"65535","farm":66,"title":"Fuligule a\u0300 dos blanc_R5DJ1550","ispublic":1,"isfriend":0,"isfamily":0},{"id":"52602177426","owner":"35259356@N06","secret":"59aa405759","server":"65535","farm":66,"title":"Duck: Canvasback","ispublic":1,"isfriend":0,"isfamily":0},{"id":"52594764628","owner":"67277069@N06","secret":"3806150406","server":"65535","farm":66,"title":"Canvasback---Aythya valisineria","ispublic":1,"isfriend":0,"isfamily":0},{"id":"52593639740","owner":"120449047@N06","secret":"d1eba10b8e","server":"65535","farm":66,"title":"Canvasback","ispublic":1,"isfriend":0,"isfamily":0},{"id":"52590115582","owner":"9243885@N07","secret":"31b7021f95","server":"65535","farm":66,"title":"2022_12_27_5DMk4_86563","ispublic":1,"isfriend":0,"isfamily":0},{"id":"52586913167","owner":"187792860@N04","secret":"0566f5674d","server":"65535","farm":66,"title":"Canvasback (Aythya valisineria) Drake","ispublic":1,"isfriend":0,"isfamily":0},{"id":"52587803775","owner":"187792860@N04","secret":"85feb40477","server":"65535","farm":66,"title":"Canvasback (Aythya valisineria) Drake","ispublic":1,"isfriend":0,"isfamily":0},{"id":"52587342551","owner":"187792860@N04","secret":"d99d6f147c","server":"65535","farm":66,"title":"Canvasback (Aythya valisineria) Drake","ispublic":1,"isfriend":0,"isfamily":0},{"id":"52584105365","owner":"187792860@N04","secret":"1238b039ae","server":"65535","farm":66,"title":"Canvasback (Aythya valisineria) Drake","ispublic":1,"isfriend":0,"isfamily":0},{"id":"52583835064","owner":"187792860@N04","secret":"654657f953","server":"65535","farm":66,"title":"Canvasback (Aythya valisineria) Drake","ispublic":1,"isfriend":0,"isfamily":0},{"id":"52583812169","owner":"187792860@N04","secret":"8fac5b47a2","server":"65535","farm":66,"title":"Canvasback (Aythya valisineria) Drake","ispublic":1,"isfriend":0,"isfamily":0},{"id":"52583789459","owner":"187792860@N04","secret":"f89d9726b3","server":"65535","farm":66,"title":"Canvasback (Aythya valisineria) Drake","ispublic":1,"isfriend":0,"isfamily":0},{"id":"52583496911","owner":"187792860@N04","secret":"028603fc1c","server":"65535","farm":66,"title":"Canvasback (Aythya valisineria) Drake","ispublic":1,"isfriend":0,"isfamily":0},{"id":"52582194391","owner":"23939795@N04","secret":"6d245d9edd","server":"65535","farm":66,"title":"Canvasback Female 3715","ispublic":1,"isfriend":0,"isfamily":0},{"id":"52581557634","owner":"34238008@N02","secret":"a5205ce652","server":"65535","farm":66,"title":"Canvasback (Aythya valisineria)","ispublic":1,"isfriend":0,"isfamily":0},{"id":"52581557394","owner":"34238008@N02","secret":"9317d61e30","server":"65535","farm":66,"title":"Canvasback (Aythya valisineria)","ispublic":1,"isfriend":0,"isfamily":0},{"id":"52580003227","owner":"23939795@N04","secret":"ca77895b62","server":"65535","farm":66,"title":"Canvasback Male 3741","ispublic":1,"isfriend":0,"isfamily":0},{"id":"52572433481","owner":"67277069@N06","secret":"b2055fd1fa","server":"65535","farm":66,"title":"Canvasback---Aythya valisineria","ispublic":1,"isfriend":0,"isfamily":0},{"id":"52557262509","owner":"48912028@N05","secret":"2bc7c66190","server":"65535","farm":66,"title":"Canvasback, Aythya valisineria","ispublic":1,"isfriend":0,"isfamily":0},{"id":"52557506083","owner":"48912028@N05","secret":"bcb3c3152f","server":"65535","farm":66,"title":"Canvasback, Aythya valisineria","ispublic":1,"isfriend":0,"isfamily":0},{"id":"52756402104","owner":"195656112@N04","secret":"c2efff8961","server":"65535","farm":66,"title":"Canvasback","ispublic":1,"isfriend":0,"isfamily":0},{"id":"52539211344","owner":"62043870@N05","secret":"5d2b2045ef","server":"65535","farm":66,"title":"Canvasbacks (Aythya valisineria) with Green-winged Teal (Anas crecca), Northern Shovelers (Spatula clypeata) and American Avocet (Recurvirostra americana)","ispublic":1,"isfriend":0,"isfamily":0},{"id":"52518492445","owner":"71418112@N00","secret":"aba1e57842","server":"65535","farm":66,"title":"And..... we have touchdown.","ispublic":1,"isfriend":0,"isfamily":0},{"id":"52513078128","owner":"195537536@N03","secret":"92abbdd7c7","server":"65535","farm":66,"title":"Canvasback (Aythya valisineria): Male","ispublic":1,"isfriend":0,"isfamily":0},{"id":"52500881315","owner":"53977003@N00","secret":"3f13155213","server":"65535","farm":66,"title":"Canvasback","ispublic":1,"isfriend":0,"isfamily":0},{"id":"52494127640","owner":"65148649@N04","secret":"3dc51f65a2","server":"65535","farm":66,"title":"Canvasback","ispublic":1,"isfriend":0,"isfamily":0},{"id":"52468727894","owner":"140318147@N08","secret":"92d9dbb3dc","server":"65535","farm":66,"title":"canvasback (Aythya valisineria) L4A6351","ispublic":1,"isfriend":0,"isfamily":0},{"id":"52380796578","owner":"34238008@N02","secret":"6225311ff2","server":"65535","farm":66,"title":"Canvasback (Aythya valisineria)","ispublic":1,"isfriend":0,"isfamily":0},{"id":"52380796448","owner":"34238008@N02","secret":"2467232c4c","server":"65535","farm":66,"title":"Canvasback (Aythya valisineria)","ispublic":1,"isfriend":0,"isfamily":0},{"id":"52283018988","owner":"124995824@N08","secret":"ecc73f50ee","server":"65535","farm":66,"title":"Canvasback - Aythya valisineria","ispublic":1,"isfriend":0,"isfamily":0},{"id":"52283274634","owner":"124995824@N08","secret":"7144ceb479","server":"65535","farm":66,"title":"Canvasback - Aythya valisineria","ispublic":1,"isfriend":0,"isfamily":0},{"id":"52238274423","owner":"29610556@N02","secret":"be653e8681","server":"65535","farm":66,"title":"Canvasback (Aythya valisineria)","ispublic":1,"isfriend":0,"isfamily":0},{"id":"52205355657","owner":"168495655@N07","secret":"0be5049834","server":"65535","farm":66,"title":"Fuligule \u00e0 dos blanc - Aythya valisineria - Canvasback","ispublic":1,"isfriend":0,"isfamily":0},{"id":"52205328711","owner":"98336874@N04","secret":"3936591518","server":"65535","farm":66,"title":"Shelduck, (Tadorna)","ispublic":1,"isfriend":0,"isfamily":0},{"id":"52171425072","owner":"21558080@N07","secret":"21929e9a29","server":"65535","farm":66,"title":"Canvasback (Aythya valisineria)","ispublic":1,"isfriend":0,"isfamily":0},{"id":"52110509502","owner":"71833159@N00","secret":"f09f23cc18","server":"65535","farm":66,"title":"Canvasback \/ Aythya valisineria, male","ispublic":1,"isfriend":0,"isfamily":0},{"id":"52034945858","owner":"28631427@N00","secret":"ec5d5ef853","server":"65535","farm":66,"title":"Canvasback 1","ispublic":1,"isfriend":0,"isfamily":0},{"id":"52689911391","owner":"33610210@N05","secret":"bf5684809b","server":"65535","farm":66,"title":"Canvasback, Aythya valisineria","ispublic":1,"isfriend":0,"isfamily":0},{"id":"52668203922","owner":"62907378@N07","secret":"c1fd5e8d9c","server":"65535","farm":66,"title":"Canvasback ducks (Aythya valisineria)","ispublic":1,"isfriend":0,"isfamily":0},{"id":"52663295535","owner":"110624976@N05","secret":"399d6ab6f2","server":"65535","farm":66,"title":"Male Canvasback duck presenting to female","ispublic":1,"isfriend":0,"isfamily":0},{"id":"52662346952","owner":"110624976@N05","secret":"45893ec506","server":"65535","farm":66,"title":"Canvasback swimming at St Marks National Wildlife Reserve","ispublic":1,"isfriend":0,"isfamily":0},{"id":"52609704951","owner":"119095828@N03","secret":"ce62bafd5a","server":"65535","farm":66,"title":"Canvasback (Aythya valisineria)","ispublic":1,"isfriend":0,"isfamily":0},{"id":"52580866075","owner":"153973412@N04","secret":"6b57cf2292","server":"65535","farm":66,"title":"Canvasback-Aythya valisineria, Quad Cities, IA","ispublic":1,"isfriend":0,"isfamily":0},{"id":"52562538296","owner":"103722035@N06","secret":"4e1031cde5","server":"65535","farm":66,"title":"Canvasback (Aythya valisineria), male, Santa Margarita Lake, Santa Margarita, CA","ispublic":1,"isfriend":0,"isfamily":0},{"id":"52563074518","owner":"103722035@N06","secret":"72b3be4c64","server":"65535","farm":66,"title":"Canvasback (Aythya valisineria), male, Santa Margarita Lake, Santa Margarita, CA","ispublic":1,"isfriend":0,"isfamily":0},{"id":"52563074498","owner":"103722035@N06","secret":"bfa503d7a5","server":"65535","farm":66,"title":"Canvasback (Aythya valisineria), male, Santa Margarita Lake, Santa Margarita, CA","ispublic":1,"isfriend":0,"isfamily":0},{"id":"52562823774","owner":"103722035@N06","secret":"7aa7234098","server":"65535","farm":66,"title":"Canvasback (Aythya valisineria), male, Santa Margarita Lake, Santa Margarita, CA","ispublic":1,"isfriend":0,"isfamily":0},{"id":"52562492616","owner":"103722035@N06","secret":"14d57d5471","server":"0","farm":0,"title":"Canvasback (Aythya valisineria), male, Santa Margarita Lake, Santa Margarita, CA","ispublic":1,"isfriend":0,"isfamily":0},{"id":"52562780670","owner":"33610210@N05","secret":"3f569c29f9","server":"65535","farm":66,"title":"Canvasback, Aythya valisineria","ispublic":1,"isfriend":0,"isfamily":0},{"id":"52523727359","owner":"38514062@N03","secret":"903bfc0e16","server":"65535","farm":66,"title":"Canvasback (Aythya valisineria)","ispublic":1,"isfriend":0,"isfamily":0},{"id":"52516415047","owner":"16364990@N07","secret":"28cf4bca9a","server":"65535","farm":66,"title":"Canvasback  Aythya valisineria","ispublic":1,"isfriend":0,"isfamily":0},{"id":"52494214323","owner":"65148649@N04","secret":"d22106f8ae","server":"65535","farm":66,"title":"Ring-Necked Duck and Canvasback","ispublic":1,"isfriend":0,"isfamily":0},{"id":"52478219454","owner":"103722035@N06","secret":"c1f7f581b2","server":"0","farm":0,"title":"Canvasback (Aythya valisineria), Sweet Springs, Los Osos, CA","ispublic":1,"isfriend":0,"isfamily":0},{"id":"52238131403","owner":"80648919@N08","secret":"222052665f","server":"65535","farm":66,"title":"Canvasback","ispublic":1,"isfriend":0,"isfamily":0},{"id":"52106842986","owner":"165841515@N03","secret":"fd0c140b64","server":"65535","farm":66,"title":"Fuligule \u00e0 dos blanc \/ Canvasback \/ (Aythya valisineria)","ispublic":1,"isfriend":0,"isfamily":0},{"id":"52085181539","owner":"188237033@N06","secret":"3da4fd5057","server":"65535","farm":66,"title":"Aythya valisineria","ispublic":1,"isfriend":0,"isfamily":0},{"id":"52035147859","owner":"28631427@N00","secret":"035633f48c","server":"65535","farm":66,"title":"Canvasback 2","ispublic":1,"isfriend":0,"isfamily":0}]},"stat":"ok"}