{"photos":{"page":1,"pages":3,"perpage":100,"total":228,"photo":[{"id":"52776639369","owner":"137004760@N06","secret":"e33c034bae","server":"65535","farm":66,"title":"Tiny beauty","ispublic":1,"isfriend":0,"isfamily":0},{"id":"52595608953","owner":"26371261@N00","secret":"b813010a93","server":"65535","farm":66,"title":"Cape White-Eye, Zosterops virens","ispublic":1,"isfriend":0,"isfamily":0},{"id":"52555487842","owner":"26371261@N00","secret":"e7e1c70ed4","server":"65535","farm":66,"title":"Cape White-Eye, Zosterops virens","ispublic":1,"isfriend":0,"isfamily":0},{"id":"52556413990","owner":"26371261@N00","secret":"32fd9fc99a","server":"65535","farm":66,"title":"Cape White-Eye, Zosterops virens","ispublic":1,"isfriend":0,"isfamily":0},{"id":"52542207764","owner":"26371261@N00","secret":"ff835c2d60","server":"65535","farm":66,"title":"Cape White-Eye, Zosterops virens","ispublic":1,"isfriend":0,"isfamily":0},{"id":"52537297446","owner":"26371261@N00","secret":"b281f203f3","server":"65535","farm":66,"title":"Cape White-Eye, Zosterops virens","ispublic":1,"isfriend":0,"isfamily":0},{"id":"52537297381","owner":"26371261@N00","secret":"7f3c5c890f","server":"65535","farm":66,"title":"Cape White-Eye, Zosterops virens, fledgling","ispublic":1,"isfriend":0,"isfamily":0},{"id":"52537770145","owner":"26371261@N00","secret":"cacc790238","server":"65535","farm":66,"title":"Cape White-Eye, Zosterops virens, fledgling","ispublic":1,"isfriend":0,"isfamily":0},{"id":"52537586024","owner":"26371261@N00","secret":"027c94aa27","server":"65535","farm":66,"title":"Cape White-Eye, Zosterops virens","ispublic":1,"isfriend":0,"isfamily":0},{"id":"52517286910","owner":"26371261@N00","secret":"d559676351","server":"65535","farm":66,"title":"Cape White-Eye, Zosterops virens","ispublic":1,"isfriend":0,"isfamily":0},{"id":"52516478986","owner":"26371261@N00","secret":"ca15c3abd7","server":"65535","farm":66,"title":"Cape White-Eye, Zosterops virens","ispublic":1,"isfriend":0,"isfamily":0},{"id":"52490111370","owner":"26371261@N00","secret":"1eaa94b09e","server":"65535","farm":66,"title":"Cape White-Eye, Zosterops virens","ispublic":1,"isfriend":0,"isfamily":0},{"id":"52483279174","owner":"26371261@N00","secret":"7082babebb","server":"65535","farm":66,"title":"Cape White-Eye, Zosterops virens","ispublic":1,"isfriend":0,"isfamily":0},{"id":"52202001253","owner":"77505349@N03","secret":"2785ffe52f","server":"65535","farm":66,"title":"Cape white-eye","ispublic":1,"isfriend":0,"isfamily":0},{"id":"51898129367","owner":"95321878@N03","secret":"c2413a8e04","server":"65535","farm":66,"title":"Cape White eye (Zosterops virens) Kapglas\u00f6gonf\u00e5gel","ispublic":1,"isfriend":0,"isfamily":0},{"id":"51838386532","owner":"55527686@N03","secret":"d5e889790e","server":"65535","farm":66,"title":"Cape White-eye (Zosterops virens)","ispublic":1,"isfriend":0,"isfamily":0},{"id":"51840068205","owner":"55527686@N03","secret":"6a239139c8","server":"65535","farm":66,"title":"Cape White-eye (Zosterops virens)","ispublic":1,"isfriend":0,"isfamily":0},{"id":"51839332121","owner":"55527686@N03","secret":"2f1a3148d9","server":"65535","farm":66,"title":"Cape White-eye (Zosterops virens)","ispublic":1,"isfriend":0,"isfamily":0},{"id":"51830053445","owner":"55527686@N03","secret":"e668c56643","server":"65535","farm":66,"title":"Cape White-eye (Zosterops virens)","ispublic":1,"isfriend":0,"isfamily":0},{"id":"51829444543","owner":"55527686@N03","secret":"ecccff1eca","server":"65535","farm":66,"title":"Cape White-eye (Zosterops virens)","ispublic":1,"isfriend":0,"isfamily":0},{"id":"51803144735","owner":"55527686@N03","secret":"861af6c89a","server":"65535","farm":66,"title":"Cape White-eye (Zosterops virens)","ispublic":1,"isfriend":0,"isfamily":0},{"id":"51793801083","owner":"7291425@N07","secret":"c9c0eca12c","server":"65535","farm":66,"title":"Hungry","ispublic":1,"isfriend":0,"isfamily":0},{"id":"51777100240","owner":"7291425@N07","secret":"00a91f5149","server":"65535","farm":66,"title":"Cape White-Eye","ispublic":1,"isfriend":0,"isfamily":0},{"id":"51267220700","owner":"107784905@N04","secret":"3c5fbbd538","server":"65535","farm":66,"title":"Zost\u00e9rops du Cap - Kirstenbosch Botanical Garden\/Western Cape\/South Africa_20181120_001-1","ispublic":1,"isfriend":0,"isfamily":0},{"id":"50945790063","owner":"7291425@N07","secret":"155f5f7e0d","server":"65535","farm":66,"title":"Happy Valentine's Day","ispublic":1,"isfriend":0,"isfamily":0},{"id":"50426085048","owner":"65695019@N07","secret":"d1c6f7fa12","server":"65535","farm":66,"title":"Cape White-eye (Zosterops virens)","ispublic":1,"isfriend":0,"isfamily":0},{"id":"50391323632","owner":"76454790@N02","secret":"5b69280970","server":"65535","farm":66,"title":"Cape White-eye (Zosterops virens)","ispublic":1,"isfriend":0,"isfamily":0},{"id":"50232129001","owner":"7291425@N07","secret":"5b9107b9ea","server":"65535","farm":66,"title":"In The Covert","ispublic":1,"isfriend":0,"isfamily":0},{"id":"49969257473","owner":"107784905@N04","secret":"2abb92e061","server":"65535","farm":66,"title":"Zost\u00e9rops du Cap - Kirstenbosch Botanical Garden\/Western Cape\/South Africa_20181120_010-1","ispublic":1,"isfriend":0,"isfamily":0},{"id":"49883320437","owner":"17824737@N00","secret":"0fd5eab773","server":"65535","farm":66,"title":"Day 46\/n","ispublic":1,"isfriend":0,"isfamily":0},{"id":"49841970107","owner":"7291425@N07","secret":"d59a1c0b66","server":"65535","farm":66,"title":"Cape White Eye","ispublic":1,"isfriend":0,"isfamily":0},{"id":"49776770537","owner":"53946928@N03","secret":"5fa1bd218b","server":"65535","farm":66,"title":"Kaapse brilvogel - Zosterops virens","ispublic":1,"isfriend":0,"isfamily":0},{"id":"49757061357","owner":"85633072@N06","secret":"e6168dd4c4","server":"65535","farm":66,"title":"Cape white-eye","ispublic":1,"isfriend":0,"isfamily":0},{"id":"49664995891","owner":"7482089@N04","secret":"a25f77e4e8","server":"65535","farm":66,"title":"Cape White-eye, Zosterops virens","ispublic":1,"isfriend":0,"isfamily":0},{"id":"49558086773","owner":"16520061@N08","secret":"de94774191","server":"65535","farm":66,"title":"Cape White-eye (Zosterops virens)","ispublic":1,"isfriend":0,"isfamily":0},{"id":"49478976418","owner":"186748160@N02","secret":"eb1c25dc64","server":"65535","farm":66,"title":"Cape white-eye (Zosterops virens)","ispublic":1,"isfriend":0,"isfamily":0},{"id":"48852279742","owner":"106773832@N02","secret":"63e0db331e","server":"65535","farm":66,"title":"Cape White-eye (Zosterops virens)_DSC3787EditCC","ispublic":1,"isfriend":0,"isfamily":0},{"id":"48393701267","owner":"40195635@N03","secret":"cc38cdbf3a","server":"65535","farm":66,"title":"Cape White-eye (Zosterops pallidus)","ispublic":1,"isfriend":0,"isfamily":0},{"id":"32679167318","owner":"99817330@N02","secret":"884cebfe68","server":"4806","farm":5,"title":"Cape White-eye","ispublic":1,"isfriend":0,"isfamily":0},{"id":"45626182945","owner":"54367124@N05","secret":"48a2f713e2","server":"4907","farm":5,"title":"IMG_0103","ispublic":1,"isfriend":0,"isfamily":0},{"id":"45815936934","owner":"54367124@N05","secret":"4cf81b39c9","server":"4908","farm":5,"title":"IMG_0111","ispublic":1,"isfriend":0,"isfamily":0},{"id":"32551365428","owner":"129081014@N03","secret":"ae068e7421","server":"4833","farm":5,"title":"Cape White-eye (Zosterops virens)","ispublic":1,"isfriend":0,"isfamily":0},{"id":"46185028392","owner":"61316002@N02","secret":"c76ab548db","server":"4867","farm":5,"title":"CAPWHIEYE 0382","ispublic":1,"isfriend":0,"isfamily":0},{"id":"45821402902","owner":"10105106@N07","secret":"913654909b","server":"4866","farm":5,"title":"Cape White-eye","ispublic":1,"isfriend":0,"isfamily":0},{"id":"30865308917","owner":"134815842@N03","secret":"5184763857","server":"4864","farm":5,"title":"Cape White-eye (Zosterops virens) Maseru, Lesotho 2018","ispublic":1,"isfriend":0,"isfamily":0},{"id":"43976304130","owner":"97367345@N00","secret":"ee87ef4359","server":"4911","farm":5,"title":"Kaapse Glasogie","ispublic":1,"isfriend":0,"isfamily":0},{"id":"44708342415","owner":"53946928@N03","secret":"972c8c70de","server":"1931","farm":2,"title":"Kaapse brilvogel - Zosterops virens","ispublic":1,"isfriend":0,"isfamily":0},{"id":"43447166111","owner":"24309230@N03","secret":"c29971778f","server":"927","farm":1,"title":"Anteojitos del Cabo","ispublic":1,"isfriend":0,"isfamily":0},{"id":"42477736021","owner":"85633072@N06","secret":"6638331106","server":"1753","farm":2,"title":"Cape white-eye","ispublic":1,"isfriend":0,"isfamily":0},{"id":"40477769102","owner":"53919301@N06","secret":"8917a5c273","server":"4698","farm":5,"title":"Cape White-Eye  (Zosterops virens)","ispublic":1,"isfriend":0,"isfamily":0},{"id":"39554529824","owner":"39451776@N08","secret":"3903d72497","server":"4677","farm":5,"title":"2018 01 30_Cape White-eye-1","ispublic":1,"isfriend":0,"isfamily":0},{"id":"39746482222","owner":"154657265@N08","secret":"476bbd6f28","server":"4624","farm":5,"title":"Cape White-eye (Zosterops virens) - Cape Town","ispublic":1,"isfriend":0,"isfamily":0},{"id":"27999812179","owner":"154657265@N08","secret":"5271a183d9","server":"4629","farm":5,"title":"Cape White-eye (Zosterops virens)_3 - Cape Town","ispublic":1,"isfriend":0,"isfamily":0},{"id":"52615672465","owner":"12639178@N07","secret":"c1d25917e3","server":"65535","farm":66,"title":"Kapbrillenvogel (Zosterops virens), Kirstenbosch BG, S\u00fcdafrika","ispublic":1,"isfriend":0,"isfamily":0},{"id":"52609198999","owner":"12639178@N07","secret":"1e7b6aa1d2","server":"65535","farm":66,"title":"Kapbrillenvogel (Zosterops virens), Kirstenbosch BG, S\u00fcdafrika","ispublic":1,"isfriend":0,"isfamily":0},{"id":"52565868993","owner":"12639178@N07","secret":"727d831d6b","server":"65535","farm":66,"title":"Kapbrillenvogel","ispublic":1,"isfriend":0,"isfamily":0},{"id":"52539980201","owner":"12639178@N07","secret":"a62fcde9e3","server":"65535","farm":66,"title":"Kapbrillenvogel","ispublic":1,"isfriend":0,"isfamily":0},{"id":"52500679147","owner":"26371261@N00","secret":"b98dd1970e","server":"65535","farm":66,"title":"Cape White-Eye, Zosterops virens","ispublic":1,"isfriend":0,"isfamily":0},{"id":"52501170991","owner":"26371261@N00","secret":"b81bfd0870","server":"65535","farm":66,"title":"Cape White-Eye, Zosterops virens","ispublic":1,"isfriend":0,"isfamily":0},{"id":"52501446589","owner":"26371261@N00","secret":"79f520cab8","server":"65535","farm":66,"title":"Cape White-Eye, Zosterops virens","ispublic":1,"isfriend":0,"isfamily":0},{"id":"52501643785","owner":"26371261@N00","secret":"4fe0315189","server":"65535","farm":66,"title":"Cape White-Eye, Zosterops virens","ispublic":1,"isfriend":0,"isfamily":0},{"id":"52373912948","owner":"7200351@N08","secret":"c6959d823a","server":"0","farm":0,"title":"Ploceus velatus velatus, Serinus canicollis canicollis & Zosterops virens capensis","ispublic":1,"isfriend":0,"isfamily":0},{"id":"52369519699","owner":"7200351@N08","secret":"5778b6eb43","server":"65535","farm":66,"title":"Zosterops virens capensis","ispublic":1,"isfriend":0,"isfamily":0},{"id":"52367704607","owner":"7200351@N08","secret":"de4041e276","server":"65535","farm":66,"title":"Zosterops virens capensis","ispublic":1,"isfriend":0,"isfamily":0},{"id":"52355945252","owner":"95579115@N03","secret":"c54e07bea8","server":"65535","farm":66,"title":"Cape white-eye (Zosterops virens) \u0417\u0435\u043b\u0451\u043d\u0430\u044f \u0431\u0435\u043b\u043e\u0433\u043b\u0430\u0437\u043a\u0430","ispublic":1,"isfriend":0,"isfamily":0},{"id":"51817538303","owner":"55527686@N03","secret":"8379c61064","server":"65535","farm":66,"title":"Cape White-eye (Zosterops virens)","ispublic":1,"isfriend":0,"isfamily":0},{"id":"51554926013","owner":"56686021@N04","secret":"551c1a5bd4","server":"65535","farm":66,"title":"Cape White-eye","ispublic":1,"isfriend":0,"isfamily":0},{"id":"51492204432","owner":"56686021@N04","secret":"56da0f2895","server":"65535","farm":66,"title":"Cape White-eye","ispublic":1,"isfriend":0,"isfamily":0},{"id":"50889460363","owner":"101437397@N08","secret":"3a3a6c2cf3","server":"65535","farm":66,"title":"Zoom on the texture! Cape White Eye","ispublic":1,"isfriend":0,"isfamily":0},{"id":"50889460188","owner":"101437397@N08","secret":"497b375fd2","server":"65535","farm":66,"title":"Zoom on the texture! Cape White Eye","ispublic":1,"isfriend":0,"isfamily":0},{"id":"50844112118","owner":"101437397@N08","secret":"1bc34f9785","server":"65535","farm":66,"title":"Cape white-eye","ispublic":1,"isfriend":0,"isfamily":0},{"id":"49873601493","owner":"55968524@N04","secret":"4d6e8c65a1","server":"65535","farm":66,"title":"IMG_7483 - Cape White-eye - Zosterops virens.jpg","ispublic":1,"isfriend":0,"isfamily":0},{"id":"49816945097","owner":"17824737@N00","secret":"0c68abb5b4","server":"65535","farm":66,"title":"Day 30\/35","ispublic":1,"isfriend":0,"isfamily":0},{"id":"49277194521","owner":"12639178@N07","secret":"a2b2642be5","server":"65535","farm":66,"title":"Kapbrillenvogel (Zosterops virens)","ispublic":1,"isfriend":0,"isfamily":0},{"id":"49213741051","owner":"134216933@N02","secret":"b4f8ceda43","server":"65535","farm":66,"title":"Zost\u00e9rops du Cap\/Zosterops virens","ispublic":1,"isfriend":0,"isfamily":0},{"id":"49066245531","owner":"40195635@N03","secret":"576425752c","server":"65535","farm":66,"title":"Cape White-eye (Zosterops pallidus)","ispublic":1,"isfriend":0,"isfamily":0},{"id":"48852097776","owner":"106773832@N02","secret":"1892e44502","server":"65535","farm":66,"title":"Cape White-eye (Zosterops virens)-3836","ispublic":1,"isfriend":0,"isfamily":0},{"id":"48563799142","owner":"8431410@N06","secret":"44cedd54ff","server":"65535","farm":66,"title":"Cape white-eye (Zosterops virens)","ispublic":1,"isfriend":0,"isfamily":0},{"id":"48462653892","owner":"106773832@N02","secret":"5232634204","server":"65535","farm":66,"title":"Cape White-eye (Zosterops virens)-1433","ispublic":1,"isfriend":0,"isfamily":0},{"id":"48020336518","owner":"12639178@N07","secret":"7f6c871940","server":"65535","farm":66,"title":"Kapbrillenvogel","ispublic":1,"isfriend":0,"isfamily":0},{"id":"33637286818","owner":"89329412@N00","secret":"96ddef2f2a","server":"7902","farm":8,"title":"Cape_WhiteEye_JanMaraisNatRes_Stallenbosch_2019","ispublic":1,"isfriend":0,"isfamily":0},{"id":"46580166635","owner":"131761454@N04","secret":"6fdc3b600e","server":"65535","farm":66,"title":"Cape white-eye (Zosterops virens) Kapglaso\u0308gonfa\u030agel-4.jpg","ispublic":1,"isfriend":0,"isfamily":0},{"id":"47358597471","owner":"106773832@N02","secret":"f2cafbba41","server":"7890","farm":8,"title":"Cape White-eye (Zosterops virens)-9216","ispublic":1,"isfriend":0,"isfamily":0},{"id":"40100885473","owner":"106773832@N02","secret":"f71e042c72","server":"7871","farm":8,"title":"Cape White-eye (Zosterops virens)-8290","ispublic":1,"isfriend":0,"isfamily":0},{"id":"32124027077","owner":"106773832@N02","secret":"82b1964828","server":"7857","farm":8,"title":"Cape White-eye (Zosterops virens)-8299","ispublic":1,"isfriend":0,"isfamily":0},{"id":"32093261667","owner":"107784905@N04","secret":"b71fc4f6c0","server":"7814","farm":8,"title":"Zost\u00e9rops du Cap - Kirstenbosch Botanical Garden\/Western Cape\/South Africa_20181120_431","ispublic":1,"isfriend":0,"isfamily":0},{"id":"46698174972","owner":"12639178@N07","secret":"accb266c3b","server":"4879","farm":5,"title":"Kap-Brillenvogel (S\u00fcdafrika)","ispublic":1,"isfriend":0,"isfamily":0},{"id":"46368516352","owner":"165772533@N02","secret":"fc1a866f6d","server":"4804","farm":5,"title":"JMR-Ornitho4-245","ispublic":1,"isfriend":0,"isfamily":0},{"id":"45506678595","owner":"165772533@N02","secret":"df10b30bc9","server":"7828","farm":8,"title":"JMR-Ornitho4-246","ispublic":1,"isfriend":0,"isfamily":0},{"id":"46368515632","owner":"165772533@N02","secret":"4d854040c0","server":"4913","farm":5,"title":"JMR-Ornitho4-247","ispublic":1,"isfriend":0,"isfamily":0},{"id":"46368514842","owner":"165772533@N02","secret":"6c2db0a668","server":"4875","farm":5,"title":"JMR-Ornitho4-249","ispublic":1,"isfriend":0,"isfamily":0},{"id":"45506677155","owner":"165772533@N02","secret":"c654c358d0","server":"7911","farm":8,"title":"JMR-Ornitho4-250","ispublic":1,"isfriend":0,"isfamily":0},{"id":"32464443898","owner":"8264176@N02","secret":"9063ac7e6d","server":"4853","farm":5,"title":"Kaapse Brilvogel, Cape White-eye, Zosterops Virens-100939","ispublic":1,"isfriend":0,"isfamily":0},{"id":"46286028362","owner":"8264176@N02","secret":"b32325ab4c","server":"4899","farm":5,"title":"Kaapse Brilvogel, Cape White-eye, Zosterops Virens-100976","ispublic":1,"isfriend":0,"isfamily":0},{"id":"43732186430","owner":"12639178@N07","secret":"75262b0617","server":"1925","farm":2,"title":"Kap-Brillenvogel (Bety\u00b4s Bay S\u00fcdafrika)","ispublic":1,"isfriend":0,"isfamily":0},{"id":"29534428867","owner":"125723802@N05","secret":"0b285c7744","server":"1849","farm":2,"title":"Zosterops virens virens - Cape White-eye (Green)","ispublic":1,"isfriend":0,"isfamily":0},{"id":"29534395057","owner":"125723802@N05","secret":"3bce11a5f1","server":"1859","farm":2,"title":"Zosterops virens [capensis Group] - Cape White-eye (Cape)","ispublic":1,"isfriend":0,"isfamily":0},{"id":"40945193341","owner":"89793295@N07","secret":"ec0e3c757e","server":"792","farm":1,"title":"Kapglas\u00f6gonf\u00e5gel (Cape White-eye)  (Zosterops virens) Plettenberg Bay","ispublic":1,"isfriend":0,"isfamily":0},{"id":"39406085225","owner":"134815842@N03","secret":"4aa4b27b57","server":"4702","farm":5,"title":"Cape White-eye (Zosterops virens) Maseru, Lesotho 2018-01","ispublic":1,"isfriend":0,"isfamily":0},{"id":"38879411235","owner":"154657265@N08","secret":"b7c01b705b","server":"4742","farm":5,"title":"Cape White-eye (Zosterops virens)_2 - Cape Town","ispublic":1,"isfriend":0,"isfamily":0}]},"stat":"ok"}