{"photos":{"page":1,"pages":23,"perpage":100,"total":2230,"photo":[{"id":"52632206870","owner":"8677091@N08","secret":"7922ca95ba","server":"65535","farm":66,"title":"En el Maguey con gotitas","ispublic":1,"isfriend":0,"isfamily":0},{"id":"52632205145","owner":"8677091@N08","secret":"521fec3d6d","server":"65535","farm":66,"title":"Las Tigrinas","ispublic":1,"isfriend":0,"isfamily":0},{"id":"52631252012","owner":"8677091@N08","secret":"d82d29a627","server":"65535","farm":66,"title":"Tigrina engrifada","ispublic":1,"isfriend":0,"isfamily":0},{"id":"52632203870","owner":"8677091@N08","secret":"d5a8322533","server":"65535","farm":66,"title":"Una Tigrina","ispublic":1,"isfriend":0,"isfamily":0},{"id":"52632203405","owner":"8677091@N08","secret":"f52ec29742","server":"65535","farm":66,"title":"La Tigrina en el Maguey","ispublic":1,"isfriend":0,"isfamily":0},{"id":"52611031522","owner":"195041250@N03","secret":"cb66c1b2e5","server":"65535","farm":66,"title":"Cape May Warbler","ispublic":1,"isfriend":0,"isfamily":0},{"id":"52605985280","owner":"151361315@N06","secret":"a7959d5212","server":"65535","farm":66,"title":"Cape May Warbler male takes flight from budding bush, West Shore Trail at Onondaga Lake, Syracuse NY, 2021","ispublic":1,"isfriend":0,"isfamily":0},{"id":"52586037704","owner":"196786375@N03","secret":"326d097f86","server":"65535","farm":66,"title":"Cape May Warbler (f)","ispublic":1,"isfriend":0,"isfamily":0},{"id":"52585304492","owner":"196786375@N03","secret":"2e0e66b581","server":"65535","farm":66,"title":"Cape May Warbler (f)","ispublic":1,"isfriend":0,"isfamily":0},{"id":"52583952687","owner":"196786375@N03","secret":"731fbb358f","server":"65535","farm":66,"title":"Cape May Warbler (m)","ispublic":1,"isfriend":0,"isfamily":0},{"id":"52580760755","owner":"153973412@N04","secret":"43e4bd3cf0","server":"65535","farm":66,"title":"Cape May Warbler-Setophaga tigrina, Iowa City, IA","ispublic":1,"isfriend":0,"isfamily":0},{"id":"52572893671","owner":"70295563@N00","secret":"a042cc6bb1","server":"65535","farm":66,"title":"Migrant","ispublic":1,"isfriend":0,"isfamily":0},{"id":"52558104385","owner":"71418112@N00","secret":"3e39b3670a","server":"65535","farm":66,"title":"Cape May warbler","ispublic":1,"isfriend":0,"isfamily":0},{"id":"52532099478","owner":"71418112@N00","secret":"78a0f9c5cd","server":"65535","farm":66,"title":"Cape May warbler.","ispublic":1,"isfriend":0,"isfamily":0},{"id":"52530531011","owner":"33610210@N05","secret":"1b28bf024a","server":"65535","farm":66,"title":"Cape May Warbler, Setophaga tigrina","ispublic":1,"isfriend":0,"isfamily":0},{"id":"52530812859","owner":"33610210@N05","secret":"e101f43d85","server":"65535","farm":66,"title":"Cape May Warbler, Setophaga tigrina","ispublic":1,"isfriend":0,"isfamily":0},{"id":"52530530721","owner":"33610210@N05","secret":"65ca30b527","server":"65535","farm":66,"title":"Cape May Warbler, Setophaga tigrina","ispublic":1,"isfriend":0,"isfamily":0},{"id":"52499147319","owner":"45340210@N05","secret":"77c8c4160a","server":"65535","farm":66,"title":"About To Leap 10_7_22","ispublic":1,"isfriend":0,"isfamily":0},{"id":"52493750939","owner":"39445433@N02","secret":"c527acefda","server":"65535","farm":66,"title":"Prairie Warbler","ispublic":1,"isfriend":0,"isfamily":0},{"id":"52494023363","owner":"39445433@N02","secret":"bae31c6914","server":"65535","farm":66,"title":"Prairie Warbler","ispublic":1,"isfriend":0,"isfamily":0},{"id":"52494023288","owner":"39445433@N02","secret":"8a804fcc63","server":"65535","farm":66,"title":"Prairie Warbler","ispublic":1,"isfriend":0,"isfamily":0},{"id":"52470294586","owner":"8677091@N08","secret":"574463b4cc","server":"65535","farm":66,"title":"Tigrina y Coccoloba","ispublic":1,"isfriend":0,"isfamily":0},{"id":"52469795722","owner":"8677091@N08","secret":"c9aa749569","server":"65535","farm":66,"title":"Una Tigrina","ispublic":1,"isfriend":0,"isfamily":0},{"id":"52470568654","owner":"8677091@N08","secret":"58ffea6e10","server":"65535","farm":66,"title":"Tigrina","ispublic":1,"isfriend":0,"isfamily":0},{"id":"52465080000","owner":"128369733@N04","secret":"dae46d79a7","server":"65535","farm":66,"title":"Warbler Morning (1)","ispublic":1,"isfriend":0,"isfamily":0},{"id":"52436069159","owner":"40723658@N05","secret":"edf7ef2cf3","server":"65535","farm":66,"title":"Cape May Warbler","ispublic":1,"isfriend":0,"isfamily":0},{"id":"52428258534","owner":"40723658@N05","secret":"47bb3e2810","server":"65535","farm":66,"title":"Cape May Warbler","ispublic":1,"isfriend":0,"isfamily":0},{"id":"52424401243","owner":"145466593@N08","secret":"6afbd09666","server":"65535","farm":66,"title":"Cape May Warbler  (f)","ispublic":1,"isfriend":0,"isfamily":0},{"id":"52420451806","owner":"39511843@N07","secret":"ff01e7a20e","server":"65535","farm":66,"title":"Cape May Warbler (Setophaga tigrina) dining on Verbenaceae- Beautyberry (Callicarpa americana)-3-","ispublic":1,"isfriend":0,"isfamily":0},{"id":"52412886059","owner":"33573751@N04","secret":"b0a0e19425","server":"65535","farm":66,"title":"Cape May Warbler (Setophaga tigrina) - Sebastian Inlet, Florida","ispublic":1,"isfriend":0,"isfamily":0},{"id":"52413017565","owner":"39511843@N07","secret":"a665b0b279","server":"65535","farm":66,"title":"Cape May Warbler (Setophaga tigrina) on Verbenaceae- Beautyberry (Callicarpa americana)--6","ispublic":1,"isfriend":0,"isfamily":0},{"id":"52412573661","owner":"39511843@N07","secret":"7bb1f3f50a","server":"65535","farm":66,"title":"Cape May Warbler (Setophaga tigrina) on Verbenaceae- Beautyberry (Callicarpa americana)-","ispublic":1,"isfriend":0,"isfamily":0},{"id":"52413041683","owner":"45340210@N05","secret":"60747203e9","server":"65535","farm":66,"title":"Cape May Warbler 4 10_7_22","ispublic":1,"isfriend":0,"isfamily":0},{"id":"52410690825","owner":"120449047@N06","secret":"f74dd4ced8","server":"65535","farm":66,"title":"Cape May Warbler","ispublic":1,"isfriend":0,"isfamily":0},{"id":"52397414737","owner":"33573751@N04","secret":"a98dddd69f","server":"65535","farm":66,"title":"Cape May Warbler (Setophaga tigrina) - Sebastian Inlet, Florida","ispublic":1,"isfriend":0,"isfamily":0},{"id":"52397392897","owner":"33573751@N04","secret":"cc71a51b74","server":"65535","farm":66,"title":"Cape May Warbler (Setophaga tigrina) - Sebastian Inlet, Florida","ispublic":1,"isfriend":0,"isfamily":0},{"id":"52398322758","owner":"33573751@N04","secret":"205f4fe1c2","server":"65535","farm":66,"title":"Cape May Warbler (Setophaga tigrina) - Sebastian Inlet, Florida","ispublic":1,"isfriend":0,"isfamily":0},{"id":"52395723410","owner":"54549270@N03","secret":"344902b5f3","server":"65535","farm":66,"title":"Cape May Warbler","ispublic":1,"isfriend":0,"isfamily":0},{"id":"52387361833","owner":"54546220@N00","secret":"dc3092ba5f","server":"65535","farm":66,"title":"Cig\u00fcita Tigrina, Cape May Warbler  (Setophaga tigrina),","ispublic":1,"isfriend":0,"isfamily":0},{"id":"52387427544","owner":"54546220@N00","secret":"d093e8a289","server":"65535","farm":66,"title":"Cig\u00fcita Tigrina, Cape May Warbler  (Setophaga tigrina),","ispublic":1,"isfriend":0,"isfamily":0},{"id":"52387353899","owner":"48311154@N02","secret":"7447b1b335","server":"65535","farm":66,"title":"Cape May Warbler","ispublic":1,"isfriend":0,"isfamily":0},{"id":"52380761472","owner":"54799211@N02","secret":"f81d61fbcd","server":"65535","farm":66,"title":"Cape May Warbler","ispublic":1,"isfriend":0,"isfamily":0},{"id":"52380761432","owner":"54799211@N02","secret":"9427e90a15","server":"65535","farm":66,"title":"Cape May Warbler","ispublic":1,"isfriend":0,"isfamily":0},{"id":"52382122960","owner":"54799211@N02","secret":"6439fb3623","server":"65535","farm":66,"title":"Cape May Warbler","ispublic":1,"isfriend":0,"isfamily":0},{"id":"52381696406","owner":"54799211@N02","secret":"94c5390132","server":"65535","farm":66,"title":"Cape May Warbler","ispublic":1,"isfriend":0,"isfamily":0},{"id":"52382122770","owner":"54799211@N02","secret":"b730807f45","server":"65535","farm":66,"title":"Cape May Warbler","ispublic":1,"isfriend":0,"isfamily":0},{"id":"52370529250","owner":"54799211@N02","secret":"4ee5beba14","server":"65535","farm":66,"title":"Cape May Warbler","ispublic":1,"isfriend":0,"isfamily":0},{"id":"52370401034","owner":"54799211@N02","secret":"676b8eb8d6","server":"65535","farm":66,"title":"Cape May Warbler","ispublic":1,"isfriend":0,"isfamily":0},{"id":"52357497846","owner":"76288515@N07","secret":"eb9370be0b","server":"65535","farm":66,"title":"Cape May Warbler Setophaga tigrina","ispublic":1,"isfriend":0,"isfamily":0},{"id":"52357919740","owner":"76288515@N07","secret":"47bc4ab49a","server":"65535","farm":66,"title":"Cape May Warbler Setophaga tigrina","ispublic":1,"isfriend":0,"isfamily":0},{"id":"52357812709","owner":"76288515@N07","secret":"1459e77ae3","server":"65535","farm":66,"title":"Cape May Warbler Setophaga tigrina","ispublic":1,"isfriend":0,"isfamily":0},{"id":"52356282978","owner":"45340210@N05","secret":"465dc39aac","server":"65535","farm":66,"title":"Cape May Warbler 3 9_13_22","ispublic":1,"isfriend":0,"isfamily":0},{"id":"52352326731","owner":"78250819@N07","secret":"c5d006f181","server":"65535","farm":66,"title":"Cig\u00faita Tigrina- Setophaga tigrina- Cape May Warbler","ispublic":1,"isfriend":0,"isfamily":0},{"id":"52289765312","owner":"49114357@N08","secret":"c49d7ee703","server":"65535","farm":66,"title":"Cape May Warbler","ispublic":1,"isfriend":0,"isfamily":0},{"id":"52267361942","owner":"28631427@N00","secret":"6b9ed57f8d","server":"65535","farm":66,"title":"Cape May Warbler 1","ispublic":1,"isfriend":0,"isfamily":0},{"id":"52268324036","owner":"28631427@N00","secret":"54b67908ff","server":"65535","farm":66,"title":"Cape May Warbler 2","ispublic":1,"isfriend":0,"isfamily":0},{"id":"52267358242","owner":"28631427@N00","secret":"248b5cb9ff","server":"65535","farm":66,"title":"Cape May Warbler 3","ispublic":1,"isfriend":0,"isfamily":0},{"id":"52260567863","owner":"184155060@N04","secret":"1e1f6c4256","server":"65535","farm":66,"title":"32775 Paruline tigr\u00e9e (m\u00e2le) \/ Setophaga tigrina \/ Cape May Warbler","ispublic":1,"isfriend":0,"isfamily":0},{"id":"52260548036","owner":"184155060@N04","secret":"d7e8be6db8","server":"65535","farm":66,"title":"32775 Paruline tigr\u00e9e (m\u00e2le) \/ Setophaga tigrina \/ Cape May Warbler","ispublic":1,"isfriend":0,"isfamily":0},{"id":"52201551642","owner":"184155060@N04","secret":"e4e5900ef2","server":"65535","farm":66,"title":"32775 Paruline tigr\u00e9e \/ Setophaga tigrina \/ Cape May Warbler","ispublic":1,"isfriend":0,"isfamily":0},{"id":"52201551607","owner":"184155060@N04","secret":"8bc496efa3","server":"65535","farm":66,"title":"32775 Paruline tigr\u00e9e (m\u00e2le) \/ Setophaga tigrina \/ Cape May Warbler","ispublic":1,"isfriend":0,"isfamily":0},{"id":"52186103181","owner":"92361032@N05","secret":"201bbda87b","server":"65535","farm":66,"title":"Cape May Warbler \/ Paruline tigr\u00e9e ( Diane )","ispublic":1,"isfriend":0,"isfamily":0},{"id":"52179241202","owner":"76617062@N08","secret":"6cf93e0e41","server":"65535","farm":66,"title":"1.27727 Paruline tigr\u00e9e \/ Setophaga tigrina \/ Cape May Warbler","ispublic":1,"isfriend":0,"isfamily":0},{"id":"52162871398","owner":"39445433@N02","secret":"b68cd9a48a","server":"65535","farm":66,"title":"Cape May Warbler","ispublic":1,"isfriend":0,"isfamily":0},{"id":"52706077929","owner":"12639178@N07","secret":"8c4560152d","server":"65535","farm":66,"title":"Tigerwalds\u00e4nger, weiblich","ispublic":1,"isfriend":0,"isfamily":0},{"id":"52575439093","owner":"12639178@N07","secret":"67a9a1d7f2","server":"65535","farm":66,"title":"Tigerwalds\u00e4nger vor Zylinderputzer","ispublic":1,"isfriend":0,"isfamily":0},{"id":"52532715921","owner":"33610210@N05","secret":"7fc1aafce5","server":"65535","farm":66,"title":"Cape May Warbler, Setophaga tigrina","ispublic":1,"isfriend":0,"isfamily":0},{"id":"52533255848","owner":"33610210@N05","secret":"90895de38c","server":"65535","farm":66,"title":"Cape May Warbler, Setophaga tigrina","ispublic":1,"isfriend":0,"isfamily":0},{"id":"52532715786","owner":"33610210@N05","secret":"e336a7093d","server":"65535","farm":66,"title":"Cape May Warbler, Setophaga tigrina","ispublic":1,"isfriend":0,"isfamily":0},{"id":"52532715596","owner":"33610210@N05","secret":"2c67685abe","server":"65535","farm":66,"title":"Cape May Warbler, Setophaga tigrina","ispublic":1,"isfriend":0,"isfamily":0},{"id":"52533188275","owner":"33610210@N05","secret":"a37d41003b","server":"65535","farm":66,"title":"Cape May Warbler, Setophaga tigrina","ispublic":1,"isfriend":0,"isfamily":0},{"id":"52532715986","owner":"33610210@N05","secret":"6747166bdc","server":"65535","farm":66,"title":"Cape May Warbler, Setophaga tigrina","ispublic":1,"isfriend":0,"isfamily":0},{"id":"52531002500","owner":"33610210@N05","secret":"501f1122f6","server":"65535","farm":66,"title":"Cape May Warbler, Setophaga tigrina","ispublic":1,"isfriend":0,"isfamily":0},{"id":"52530061687","owner":"33610210@N05","secret":"89b80a352e","server":"65535","farm":66,"title":"Cape May Warbler, Setophaga tigrina","ispublic":1,"isfriend":0,"isfamily":0},{"id":"52513195609","owner":"39445433@N02","secret":"f3a5386d44","server":"65535","farm":66,"title":"Cape May Warbler","ispublic":1,"isfriend":0,"isfamily":0},{"id":"52495801213","owner":"64557331@N04","secret":"95736b3e7a","server":"65535","farm":66,"title":"Cape May Warbler - (Setophaga tigrina)_10012022_2","ispublic":1,"isfriend":0,"isfamily":0},{"id":"52495245961","owner":"64557331@N04","secret":"e419b1e00f","server":"65535","farm":66,"title":"Cape May Warbler - (Setophaga tigrina)_10012022","ispublic":1,"isfriend":0,"isfamily":0},{"id":"52446306462","owner":"41694014@N04","secret":"9f423a720e","server":"65535","farm":66,"title":"SETOPHAGA TIGRINA","ispublic":1,"isfriend":0,"isfamily":0},{"id":"52446294957","owner":"41694014@N04","secret":"f0cb6cbef3","server":"65535","farm":66,"title":"Setophaga tigrina","ispublic":1,"isfriend":0,"isfamily":0},{"id":"52443156262","owner":"7261670@N03","secret":"20df6ba22b","server":"65535","farm":66,"title":"Cape May Warbler","ispublic":1,"isfriend":0,"isfamily":0},{"id":"52418479446","owner":"39177293@N03","secret":"618dbdb9cd","server":"65535","farm":66,"title":"Cape May Warbler","ispublic":1,"isfriend":0,"isfamily":0},{"id":"52396270972","owner":"70839498@N04","secret":"fea45091e4","server":"65535","farm":66,"title":"Setophaga tigrina Cape May Warbler NY SEP 220923 3H3A6288","ispublic":1,"isfriend":0,"isfamily":0},{"id":"52397075019","owner":"70839498@N04","secret":"670179029d","server":"65535","farm":66,"title":"Setophaga tigrina Cape May Warbler NY SEP 220923 3H3A6293","ispublic":1,"isfriend":0,"isfamily":0},{"id":"52379534425","owner":"39511843@N07","secret":"4be3eec96f","server":"65535","farm":66,"title":"Cape May Warbler (Setophaga tigrina)-1","ispublic":1,"isfriend":0,"isfamily":0},{"id":"52379115856","owner":"39511843@N07","secret":"3476145fe7","server":"65535","farm":66,"title":"Cape May Warbler (Setophaga tigrina)-3","ispublic":1,"isfriend":0,"isfamily":0},{"id":"52379532800","owner":"39511843@N07","secret":"6b5c56dc3b","server":"65535","farm":66,"title":"Cape May Warbler (Setophaga tigrina)-2-5364","ispublic":1,"isfriend":0,"isfamily":0},{"id":"52379532740","owner":"39511843@N07","secret":"98d8072006","server":"65535","farm":66,"title":"Cape May Warbler (Setophaga tigrina)-4-5401-Edit","ispublic":1,"isfriend":0,"isfamily":0},{"id":"52357812689","owner":"76288515@N07","secret":"101ba80121","server":"65535","farm":66,"title":"Cape May Warbler Setophaga tigrina","ispublic":1,"isfriend":0,"isfamily":0},{"id":"52299983838","owner":"145824323@N05","secret":"d90d73bf37","server":"65535","farm":66,"title":"Cape May warbler (Setophaga tigrina)","ispublic":1,"isfriend":0,"isfamily":0},{"id":"52290054277","owner":"196212229@N04","secret":"3e56cbc939","server":"65535","farm":66,"title":"Cape May Warbler","ispublic":1,"isfriend":0,"isfamily":0},{"id":"52261033050","owner":"184155060@N04","secret":"a3da3234a5","server":"65535","farm":66,"title":"32775 Paruline tigr\u00e9e (m\u00e2le) \/ Setophaga tigrina \/ Cape May Warbler","ispublic":1,"isfriend":0,"isfamily":0},{"id":"52261033015","owner":"184155060@N04","secret":"8037117d86","server":"65535","farm":66,"title":"32775 Paruline tigr\u00e9e (m\u00e2le) \/ Setophaga tigrina \/ Cape May Warbler","ispublic":1,"isfriend":0,"isfamily":0},{"id":"52260826164","owner":"184155060@N04","secret":"d2e2341b57","server":"65535","farm":66,"title":"32775 Paruline tigr\u00e9e (m\u00e2le) \/ Setophaga tigrina \/ Cape May Warbler","ispublic":1,"isfriend":0,"isfamily":0},{"id":"52259578597","owner":"184155060@N04","secret":"ec0e950e1b","server":"65535","farm":66,"title":"32775 Paruline tigr\u00e9e (m\u00e2le) \/ Setophaga tigrina \/ Cape May Warbler","ispublic":1,"isfriend":0,"isfamily":0},{"id":"52251013325","owner":"41694014@N04","secret":"eb1d9765e1","server":"65535","farm":66,"title":"Setophaga tigrina","ispublic":1,"isfriend":0,"isfamily":0},{"id":"52250340011","owner":"41694014@N04","secret":"8e791ccc0d","server":"65535","farm":66,"title":"Setophaga tigrina","ispublic":1,"isfriend":0,"isfamily":0},{"id":"52163112824","owner":"39445433@N02","secret":"298254886a","server":"65535","farm":66,"title":"Cape May Warbler","ispublic":1,"isfriend":0,"isfamily":0},{"id":"52162871693","owner":"39445433@N02","secret":"cf00c066cc","server":"65535","farm":66,"title":"Cape May Warbler","ispublic":1,"isfriend":0,"isfamily":0},{"id":"52161848762","owner":"39445433@N02","secret":"264f621de9","server":"65535","farm":66,"title":"Cape May Warbler","ispublic":1,"isfriend":0,"isfamily":0},{"id":"52162871443","owner":"39445433@N02","secret":"c98b16bcdb","server":"65535","farm":66,"title":"Cape May Warbler","ispublic":1,"isfriend":0,"isfamily":0}]},"stat":"ok"}