{"photos":{"page":1,"pages":11,"perpage":100,"total":1037,"photo":[{"id":"52728525328","owner":"67277069@N06","secret":"a5730e9759","server":"65535","farm":66,"title":"Cape Petrel---Daption capense","ispublic":1,"isfriend":0,"isfamily":0},{"id":"52688756348","owner":"53358437@N07","secret":"55870a2e96","server":"65535","farm":66,"title":"Cape Petrel (Daption capense)","ispublic":1,"isfriend":0,"isfamily":0},{"id":"52648364870","owner":"21331380@N02","secret":"28da6eff9e","server":"65535","farm":66,"title":"Cape Petrel (Daption capense)","ispublic":1,"isfriend":0,"isfamily":0},{"id":"52648191234","owner":"21331380@N02","secret":"2551a0e241","server":"65535","farm":66,"title":"Cape Petrel (Daption capense)","ispublic":1,"isfriend":0,"isfamily":0},{"id":"52638332852","owner":"38877966@N08","secret":"8c1a34540d","server":"65535","farm":66,"title":"Cape Petrel (Daption capense)","ispublic":1,"isfriend":0,"isfamily":0},{"id":"52577869173","owner":"197181561@N02","secret":"8ccb7d8fb2","server":"65535","farm":66,"title":"Cape Petrel (Daption capense)","ispublic":1,"isfriend":0,"isfamily":0},{"id":"52571398553","owner":"78193635@N02","secret":"d57fb903cb","server":"65535","farm":66,"title":"Cape Petrel in the Snow!","ispublic":1,"isfriend":0,"isfamily":0},{"id":"52570867041","owner":"78193635@N02","secret":"c2d15a83c2","server":"65535","farm":66,"title":"Cape Petrel--8.jpg","ispublic":1,"isfriend":0,"isfamily":0},{"id":"52546304161","owner":"65345069@N02","secret":"536b385dba","server":"65535","farm":66,"title":"Cape Petrel (Daption capense)","ispublic":1,"isfriend":0,"isfamily":0},{"id":"52546779745","owner":"65345069@N02","secret":"be7ef040b5","server":"65535","farm":66,"title":"Cape Petrel (Daption capense)","ispublic":1,"isfriend":0,"isfamily":0},{"id":"52546779735","owner":"65345069@N02","secret":"8725bba886","server":"65535","farm":66,"title":"Cape Petrel (Daption capense)","ispublic":1,"isfriend":0,"isfamily":0},{"id":"52537058437","owner":"65345069@N02","secret":"137db8ec0c","server":"65535","farm":66,"title":"Cape Petrel (Daption capense)","ispublic":1,"isfriend":0,"isfamily":0},{"id":"52538070143","owner":"65345069@N02","secret":"10faa7ac5c","server":"65535","farm":66,"title":"Cape Petrel (Daption capense)","ispublic":1,"isfriend":0,"isfamily":0},{"id":"52537811740","owner":"65345069@N02","secret":"b9879cf25c","server":"65535","farm":66,"title":"Cape Petrel (Daption capense)","ispublic":1,"isfriend":0,"isfamily":0},{"id":"52535951422","owner":"65345069@N02","secret":"c86ef9b07f","server":"65535","farm":66,"title":"Cape Petrel (Daption capense)","ispublic":1,"isfriend":0,"isfamily":0},{"id":"52527825015","owner":"65345069@N02","secret":"0bbb66dc6a","server":"65535","farm":66,"title":"Cape Petrel (Daption capense)","ispublic":1,"isfriend":0,"isfamily":0},{"id":"52525150611","owner":"65345069@N02","secret":"c083de5a90","server":"65535","farm":66,"title":"Cape Petrel (Daption capense)","ispublic":1,"isfriend":0,"isfamily":0},{"id":"52438387542","owner":"124450184@N05","secret":"9ee55aedc0","server":"65535","farm":66,"title":"Cape Petrel Close Formation","ispublic":1,"isfriend":0,"isfamily":0},{"id":"52420123399","owner":"40883175@N06","secret":"0ed82d83d9","server":"65535","farm":66,"title":"Cape Petrel","ispublic":1,"isfriend":0,"isfamily":0},{"id":"52420344238","owner":"40883175@N06","secret":"2f885b630c","server":"65535","farm":66,"title":"Cape Petrel","ispublic":1,"isfriend":0,"isfamily":0},{"id":"52308110535","owner":"143294701@N04","secret":"41d9990272","server":"65535","farm":66,"title":"Cape Petrel (Daption capense)","ispublic":1,"isfriend":0,"isfamily":0},{"id":"52299985636","owner":"145824323@N05","secret":"9be193b346","server":"65535","farm":66,"title":"Cape petrel (Daption capense)","ispublic":1,"isfriend":0,"isfamily":0},{"id":"52280031174","owner":"40883175@N06","secret":"37b4b00afd","server":"65535","farm":66,"title":"Cape Petrel","ispublic":1,"isfriend":0,"isfamily":0},{"id":"51956139225","owner":"121917432@N02","secret":"0a49739217","server":"65535","farm":66,"title":"\u82b1\u6591\u9e0c Cape Petrel (Daption capense)","ispublic":1,"isfriend":0,"isfamily":0},{"id":"51647313660","owner":"11803211@N06","secret":"4662d36a43","server":"65535","farm":66,"title":"Cape pigeon (Daption capense), at sea, Pacific Ocean off the coast of New Zealand","ispublic":1,"isfriend":0,"isfamily":0},{"id":"51615932929","owner":"79666906@N05","secret":"ecd276e4e4","server":"65535","farm":66,"title":"Tube-nosed Swarm","ispublic":1,"isfriend":0,"isfamily":0},{"id":"51531280316","owner":"79666906@N05","secret":"f9346a43f0","server":"65535","farm":66,"title":"Cape Petrel","ispublic":1,"isfriend":0,"isfamily":0},{"id":"51437964240","owner":"24309230@N03","secret":"5e4983996b","server":"65535","farm":66,"title":"Cape Petrel","ispublic":1,"isfriend":0,"isfamily":0},{"id":"51436994166","owner":"24309230@N03","secret":"5e7195175a","server":"65535","farm":66,"title":"Cape Petrel","ispublic":1,"isfriend":0,"isfamily":0},{"id":"51387594937","owner":"165841515@N03","secret":"0120527fb4","server":"65535","farm":66,"title":"Damier du Cap \/ Cape Petrel \/ (Daption capense)","ispublic":1,"isfriend":0,"isfamily":0},{"id":"51381286358","owner":"193557139@N04","secret":"dc59b39cf5","server":"65535","farm":66,"title":"Petrel Damero \/ Daption capense.","ispublic":1,"isfriend":0,"isfamily":0},{"id":"51284089562","owner":"154657265@N08","secret":"4112f269bd","server":"65535","farm":66,"title":"Cape Petrel - Daption capense","ispublic":1,"isfriend":0,"isfamily":0},{"id":"51285005443","owner":"154657265@N08","secret":"5efd78c31a","server":"65535","farm":66,"title":"Cape Petrels - Daption capense","ispublic":1,"isfriend":0,"isfamily":0},{"id":"51284089317","owner":"154657265@N08","secret":"6c3120695b","server":"65535","farm":66,"title":"Cape Petrels - Daption capense","ispublic":1,"isfriend":0,"isfamily":0},{"id":"51284835061","owner":"154657265@N08","secret":"b8a78053da","server":"65535","farm":66,"title":"Cape Petrels - Daption capense","ispublic":1,"isfriend":0,"isfamily":0},{"id":"51284088627","owner":"154657265@N08","secret":"f9cec5c261","server":"65535","farm":66,"title":"Cape Petrel - Daption capense","ispublic":1,"isfriend":0,"isfamily":0},{"id":"51273351211","owner":"154657265@N08","secret":"410ac09f03","server":"65535","farm":66,"title":"Cape Petrel - Daption capense australe","ispublic":1,"isfriend":0,"isfamily":0},{"id":"51273346481","owner":"154657265@N08","secret":"bb9b74158c","server":"65535","farm":66,"title":"Cape Petrel - Daption capense australe_2","ispublic":1,"isfriend":0,"isfamily":0},{"id":"51273520233","owner":"154657265@N08","secret":"2aa607ddb2","server":"65535","farm":66,"title":"Cape Petrel - Daption capense australe","ispublic":1,"isfriend":0,"isfamily":0},{"id":"51264934536","owner":"53358437@N07","secret":"ed3a7515b1","server":"65535","farm":66,"title":"Cape Petrel (Daption capense)","ispublic":1,"isfriend":0,"isfamily":0},{"id":"51182105869","owner":"134776146@N07","secret":"f73a75da0b","server":"65535","farm":66,"title":"Antarctic Cape Petrel","ispublic":1,"isfriend":0,"isfamily":0},{"id":"51028947302","owner":"105138454@N04","secret":"6279100d1a","server":"65535","farm":66,"title":"Cape Petrel. (Daption capense).","ispublic":1,"isfriend":0,"isfamily":0},{"id":"50900573196","owner":"28867468@N08","secret":"b231662840","server":"65535","farm":66,"title":"Gibson's Albatross or Gibson's Wandering Albatross Dwarfing a Cape Petrel","ispublic":1,"isfriend":0,"isfamily":0},{"id":"50598578323","owner":"50136865@N00","secret":"cfef8d3b26","server":"65535","farm":66,"title":"Cape petrel - Daption capense","ispublic":1,"isfriend":0,"isfamily":0},{"id":"50599441027","owner":"50136865@N00","secret":"d9150c4eaa","server":"65535","farm":66,"title":"Cape petrel - Daption capense","ispublic":1,"isfriend":0,"isfamily":0},{"id":"50598578233","owner":"50136865@N00","secret":"4fb017d120","server":"65535","farm":66,"title":"Cape petrel - Daption capense","ispublic":1,"isfriend":0,"isfamily":0},{"id":"50585831616","owner":"50136865@N00","secret":"fe5c199acb","server":"65535","farm":66,"title":"Cape petrel - Daption capense","ispublic":1,"isfriend":0,"isfamily":0},{"id":"50230602096","owner":"36424218@N00","secret":"dfa54167ba","server":"0","farm":0,"title":"Scramble for the frozen fish livers - Wandering and Salvin's albatross, Northern Giant Petrel, Cape Petrels","ispublic":1,"isfriend":0,"isfamily":0},{"id":"50165720317","owner":"182959673@N06","secret":"91443092d2","server":"65535","farm":66,"title":"Cape Petrel - Port Fairy, Victoria","ispublic":1,"isfriend":0,"isfamily":0},{"id":"50155418757","owner":"154657265@N08","secret":"95b05aa5f6","server":"65535","farm":66,"title":"Cape Petrel (Daption capense)_1_SE Qld","ispublic":1,"isfriend":0,"isfamily":0},{"id":"50154622703","owner":"154657265@N08","secret":"ace3330c77","server":"65535","farm":66,"title":"Cape Petrel (Daption capense)_2_SE Qld","ispublic":1,"isfriend":0,"isfamily":0},{"id":"50155273517","owner":"187469698@N05","secret":"c19a25c4c4","server":"65535","farm":66,"title":"268 Cape Petrel - Andrew Walker 002","ispublic":1,"isfriend":0,"isfamily":0},{"id":"50113855133","owner":"36424218@N00","secret":"af0594e8a5","server":"65535","farm":66,"title":"Cape Petrel","ispublic":1,"isfriend":0,"isfamily":0},{"id":"50114646232","owner":"36424218@N00","secret":"ca8feea3af","server":"65535","farm":66,"title":"Cape Petrel","ispublic":1,"isfriend":0,"isfamily":0},{"id":"50012454536","owner":"117307568@N03","secret":"b892357cd9","server":"65535","farm":66,"title":"Pintado or Cape Petrel _ Daption capense","ispublic":1,"isfriend":0,"isfamily":0},{"id":"50012454496","owner":"117307568@N03","secret":"fcd2362f7f","server":"65535","farm":66,"title":"Pintado or Cape Petrel _ Daption capense","ispublic":1,"isfriend":0,"isfamily":0},{"id":"49731291646","owner":"45469423@N00","secret":"9aa392002b","server":"65535","farm":66,"title":"Cape Petrels","ispublic":1,"isfriend":0,"isfamily":0},{"id":"49731291376","owner":"45469423@N00","secret":"470349fd61","server":"65535","farm":66,"title":"Cape Petrels","ispublic":1,"isfriend":0,"isfamily":0},{"id":"49730641263","owner":"45469423@N00","secret":"0deac68e48","server":"65535","farm":66,"title":"Cape Petrels","ispublic":1,"isfriend":0,"isfamily":0},{"id":"49730641058","owner":"45469423@N00","secret":"f755cc28c0","server":"65535","farm":66,"title":"Cape Petrels","ispublic":1,"isfriend":0,"isfamily":0},{"id":"49671369073","owner":"50136865@N00","secret":"0e01b5f07f","server":"65535","farm":66,"title":"Cape petrel","ispublic":1,"isfriend":0,"isfamily":0},{"id":"49670981873","owner":"50136865@N00","secret":"6468c7d118","server":"65535","farm":66,"title":"To the victor the spoils - Diomedea antipodensis gibsoni,  Macronectes halli, Daption capense","ispublic":1,"isfriend":0,"isfamily":0},{"id":"49654166096","owner":"99752123@N07","secret":"331afee82a","server":"65535","farm":66,"title":"Daption capense (Cape Petrel)","ispublic":1,"isfriend":0,"isfamily":0},{"id":"49653620148","owner":"99752123@N07","secret":"a36528b5c0","server":"65535","farm":66,"title":"Daption capense (Cape Petrel)","ispublic":1,"isfriend":0,"isfamily":0},{"id":"49554450548","owner":"28867468@N08","secret":"963699984d","server":"65535","farm":66,"title":"Cape Petrel or Cape Pigeon in Flight","ispublic":1,"isfriend":0,"isfamily":0},{"id":"52577671324","owner":"197181561@N02","secret":"8f9a252849","server":"65535","farm":66,"title":"Soaring Cape Petrel (Daption capense)","ispublic":1,"isfriend":0,"isfamily":0},{"id":"52537997040","owner":"65345069@N02","secret":"28c9fb6f0c","server":"65535","farm":66,"title":"Cape Petrel (Daption capense)","ispublic":1,"isfriend":0,"isfamily":0},{"id":"52537628139","owner":"65345069@N02","secret":"9fc1969924","server":"65535","farm":66,"title":"Cape Petrel (Daption capense)","ispublic":1,"isfriend":0,"isfamily":0},{"id":"52536418651","owner":"65345069@N02","secret":"1172fb6e64","server":"65535","farm":66,"title":"Cape Petrel (Daption capense)","ispublic":1,"isfriend":0,"isfamily":0},{"id":"52408582174","owner":"95579115@N03","secret":"a663e5c15d","server":"65535","farm":66,"title":"Cape Petrel (Daption capense) \u041a\u0430\u043f\u0441\u043a\u0438\u0439 \u0433\u043e\u043b\u0443\u0431\u043e\u043a","ispublic":1,"isfriend":0,"isfamily":0},{"id":"52213761248","owner":"12639178@N07","secret":"95fa8ccb21","server":"65535","farm":66,"title":"Cape Petrel (Daption capense)","ispublic":1,"isfriend":0,"isfamily":0},{"id":"51955849144","owner":"121917432@N02","secret":"0fff4f3407","server":"65535","farm":66,"title":"\u82b1\u6591\u9e0c Cape Petrel (Daption capense)","ispublic":1,"isfriend":0,"isfamily":0},{"id":"51955849134","owner":"121917432@N02","secret":"24f23cd12c","server":"65535","farm":66,"title":"\u82b1\u6591\u9e0c Cape Petrel (Daption capense)","ispublic":1,"isfriend":0,"isfamily":0},{"id":"51799604580","owner":"100763406@N04","secret":"9f018044f7","server":"65535","farm":66,"title":"Cape Petrel (Daption capense)","ispublic":1,"isfriend":0,"isfamily":0},{"id":"51797926097","owner":"100763406@N04","secret":"af395f340a","server":"65535","farm":66,"title":"Cape Petrel (Daption capense)","ispublic":1,"isfriend":0,"isfamily":0},{"id":"51775081352","owner":"194480666@N08","secret":"d0bc47bc86","server":"65535","farm":66,"title":"Pintados","ispublic":1,"isfriend":0,"isfamily":0},{"id":"51742764370","owner":"20984644@N05","secret":"6a3fbc80fb","server":"65535","farm":66,"title":"Two Cape Petrels","ispublic":1,"isfriend":0,"isfamily":0},{"id":"51658543881","owner":"145548564@N04","secret":"6e95ac0a41","server":"65535","farm":66,"title":"P3040918 e1","ispublic":1,"isfriend":0,"isfamily":0},{"id":"51657735467","owner":"145548564@N04","secret":"061638cf79","server":"65535","farm":66,"title":"P3041005 e1","ispublic":1,"isfriend":0,"isfamily":0},{"id":"51387595007","owner":"165841515@N03","secret":"a93bbb79d4","server":"65535","farm":66,"title":"Damier du Cap \/ Cape Petrel \/ (Daption capense)","ispublic":1,"isfriend":0,"isfamily":0},{"id":"51347908252","owner":"128255891@N02","secret":"605d6e8a5e","server":"65535","farm":66,"title":"Petrel Moteado, Daption capense.","ispublic":1,"isfriend":0,"isfamily":0},{"id":"51349378524","owner":"128255891@N02","secret":"54d909dcb9","server":"65535","farm":66,"title":"Petrel Moteado, Daption capense.","ispublic":1,"isfriend":0,"isfamily":0},{"id":"51304700234","owner":"190014189@N06","secret":"4967d9e55d","server":"65535","farm":66,"title":"Hippolyte Rocks (and Cape Petrel) \/ \/ Daption capense","ispublic":1,"isfriend":0,"isfamily":0},{"id":"51304693339","owner":"190014189@N06","secret":"5b042c6af2","server":"65535","farm":66,"title":"Cape Petrel \/ Daption capense capense","ispublic":1,"isfriend":0,"isfamily":0},{"id":"51300075671","owner":"193033095@N05","secret":"67aa7216dc","server":"65535","farm":66,"title":"Cape Pigeon (Daption capense) in Kaikoura on our pelagic trip","ispublic":1,"isfriend":0,"isfamily":0},{"id":"50651634611","owner":"31864021@N08","secret":"49cd857308","server":"65535","farm":66,"title":"Cape petrel - Daption capense","ispublic":1,"isfriend":0,"isfamily":0},{"id":"50650883233","owner":"31864021@N08","secret":"f66cb47f19","server":"65535","farm":66,"title":"Cape petrel - Daption capense","ispublic":1,"isfriend":0,"isfamily":0},{"id":"50650882603","owner":"31864021@N08","secret":"ca027a63fa","server":"65535","farm":66,"title":"Cape petrel - Daption capense","ispublic":1,"isfriend":0,"isfamily":0},{"id":"50650882393","owner":"31864021@N08","secret":"09990fb2b4","server":"65535","farm":66,"title":"Cape petrel - Daption capense","ispublic":1,"isfriend":0,"isfamily":0},{"id":"50525768028","owner":"64012946@N04","secret":"b6a69ccac2","server":"65535","farm":66,"title":"Cape Petrel (Daption capense) with Common Milk Bottle (Plastic wastus)","ispublic":1,"isfriend":0,"isfamily":0},{"id":"50230802207","owner":"36424218@N00","secret":"f15fc6bb66","server":"0","farm":0,"title":"Wandering Albatross  (Gibson's) with excited Cape Petrels and a Salvin's Albatross","ispublic":1,"isfriend":0,"isfamily":0},{"id":"50227549106","owner":"36424218@N00","secret":"8e878a9f75","server":"0","farm":0,"title":"Two Wandering Albatross, lots of Northern Giant Petrels, Cape Petrel, six Salvin's Albatross, and one Northern Royal albatross at the end.","ispublic":1,"isfriend":0,"isfamily":0},{"id":"50227268536","owner":"36424218@N00","secret":"2d22a1669d","server":"0","farm":0,"title":"Wandering Albatross  (Gibson's) with excited Cape Petrels","ispublic":1,"isfriend":0,"isfamily":0},{"id":"50157533387","owner":"125454333@N02","secret":"8882f3440a","server":"65535","farm":66,"title":"Cape petrel (Daption capense).","ispublic":1,"isfriend":0,"isfamily":0},{"id":"50157533237","owner":"125454333@N02","secret":"2726ee144d","server":"65535","farm":66,"title":"Cape petrel (Daption capense).","ispublic":1,"isfriend":0,"isfamily":0},{"id":"50114672417","owner":"36424218@N00","secret":"9c3965a91e","server":"65535","farm":66,"title":"Cape Petrel","ispublic":1,"isfriend":0,"isfamily":0},{"id":"50004066672","owner":"187469698@N05","secret":"cfaa15768d","server":"65535","farm":66,"title":"412 Cape Petrel - Andrew Walker 001","ispublic":1,"isfriend":0,"isfamily":0},{"id":"2338042829","owner":"90693836@N00","secret":"2d32c84055","server":"2108","farm":3,"title":"Cape Petrel (Daption capense) -- Southern Ocean","ispublic":1,"isfriend":0,"isfamily":0},{"id":"49656829966","owner":"187449610@N06","secret":"d584c9ef6c","server":"65535","farm":66,"title":"Cape Petrel","ispublic":1,"isfriend":0,"isfamily":0},{"id":"49590428327","owner":"67277069@N06","secret":"b85789cdbc","server":"65535","farm":66,"title":"Cape Petrel---Daption capense","ispublic":1,"isfriend":0,"isfamily":0}]},"stat":"ok"}