{"photos":{"page":1,"pages":44,"perpage":100,"total":4338,"photo":[{"id":"52722745899","owner":"69002026@N02","secret":"a4ea160cce","server":"65535","farm":66,"title":"Carolina Wren (Thryothorus ludovicianus)","ispublic":1,"isfriend":0,"isfamily":0},{"id":"52721158956","owner":"187124972@N03","secret":"0680472809","server":"65535","farm":66,"title":"TROGLODYTE DE CAROLINE \/ CAROLINA WREN (Thryothorus ludovicianus)","ispublic":1,"isfriend":0,"isfamily":0},{"id":"52720639177","owner":"187124972@N03","secret":"d0703f4b04","server":"65535","farm":66,"title":"TROGLODYTE DE CAROLINE \/ CAROLINA WREN (Thryothorus ludovicianus)","ispublic":1,"isfriend":0,"isfamily":0},{"id":"52721158511","owner":"187124972@N03","secret":"e3714be782","server":"65535","farm":66,"title":"TROGLODYTE DE CAROLINE \/ CAROLINA WREN (Thryothorus ludovicianus)","ispublic":1,"isfriend":0,"isfamily":0},{"id":"52719562916","owner":"140386565@N02","secret":"6dba541c25","server":"0","farm":0,"title":"Video - Carolina Wren Singing (Thryothorus ludovicianus)","ispublic":1,"isfriend":0,"isfamily":0},{"id":"52720051093","owner":"140386565@N02","secret":"5e5138fc6c","server":"65535","farm":66,"title":"Carolina Wren","ispublic":1,"isfriend":0,"isfamily":0},{"id":"52705871299","owner":"33610210@N05","secret":"25ed847317","server":"65535","farm":66,"title":"Carolina Wren, Thryothorus ludovicianus","ispublic":1,"isfriend":0,"isfamily":0},{"id":"52705451688","owner":"69015080@N00","secret":"1ff1e60e4e","server":"65535","farm":66,"title":"Carolina Wren","ispublic":1,"isfriend":0,"isfamily":0},{"id":"52702764602","owner":"197628215@N07","secret":"76e7661961","server":"65535","farm":66,"title":"Carolina Wren (Thryothorus ludovicianus) 02\/07\/2023 #carolinawren #wren #bestbackroad #bestbackroads #natgeoyourshots #natgeo100contest #natgeo #rutlandcountyvt #washingtoncountyny #whitehallny #wildphotography #naturephotography #adventurephotography #wi","ispublic":1,"isfriend":0,"isfamily":0},{"id":"52700668297","owner":"197628215@N07","secret":"99591447bf","server":"65535","farm":66,"title":"Carolina Wren (Thryothorus ludovicianus) 02\/07\/2023 #carolinawren #wren #bestbackroad #bestbackroads #natgeoyourshots #natgeo100contest #natgeo #rutlandcountyvt #washingtoncountyny #whitehallny #wildphotography #naturephotography #adventurephotography #wi","ispublic":1,"isfriend":0,"isfamily":0},{"id":"52699441093","owner":"197628215@N07","secret":"645cd409ed","server":"65535","farm":66,"title":"Carolina Wren (Thryothorus ludovicianus) 02\/07\/2023 #carolinawren #wren #bestbackroad #bestbackroads #natgeoyourshots #natgeo100contest #natgeo #rutlandcountyvt #washingtoncountyny #whitehallny #wildphotography #naturephotography #adventurephotography #wi","ispublic":1,"isfriend":0,"isfamily":0},{"id":"52694998987","owner":"10260434@N03","secret":"6b05c279c8","server":"65535","farm":66,"title":"Carolina Wren-19Dec22","ispublic":1,"isfriend":0,"isfamily":0},{"id":"52695774604","owner":"10260434@N03","secret":"b0323806fd","server":"65535","farm":66,"title":"Carolina Wren-19Dec22","ispublic":1,"isfriend":0,"isfamily":0},{"id":"52695914010","owner":"10260434@N03","secret":"cb5acf67b6","server":"65535","farm":66,"title":"Carolina Wren-19Dec22","ispublic":1,"isfriend":0,"isfamily":0},{"id":"52696507770","owner":"10260434@N03","secret":"05bfb9b7dd","server":"65535","farm":66,"title":"Carolina Wren-19Dec22","ispublic":1,"isfriend":0,"isfamily":0},{"id":"52696082276","owner":"10260434@N03","secret":"2ed2f8eedb","server":"65535","farm":66,"title":"Carolina Wren-19Dec22","ispublic":1,"isfriend":0,"isfamily":0},{"id":"52692921847","owner":"53217733@N00","secret":"9d35c814be","server":"65535","farm":66,"title":"Carolina Wren","ispublic":1,"isfriend":0,"isfamily":0},{"id":"52692902662","owner":"57126723@N07","secret":"8ae7d08fe3","server":"65535","farm":66,"title":"Thryothorus ludovicianus\u2014Carolina wren\u2014Troglodytidae\u2014Dutch Gap-","ispublic":1,"isfriend":0,"isfamily":0},{"id":"52692499555","owner":"120449047@N06","secret":"e27767c752","server":"65535","farm":66,"title":"Carolina Wren","ispublic":1,"isfriend":0,"isfamily":0},{"id":"52691162217","owner":"158105449@N02","secret":"2ce2ec320e","server":"65535","farm":66,"title":"Acrobatics at the bird feeder","ispublic":1,"isfriend":0,"isfamily":0},{"id":"52686234247","owner":"44034115@N08","secret":"1b912a7e48","server":"65535","farm":66,"title":"Meet the Carolina Wren at Ashland Nature Center","ispublic":1,"isfriend":0,"isfamily":0},{"id":"52682750386","owner":"39445433@N02","secret":"a7836e3ba0","server":"65535","farm":66,"title":"Carolina Wren, Dark-Eyed Junco, Downy Woodpecker","ispublic":1,"isfriend":0,"isfamily":0},{"id":"52682228457","owner":"39445433@N02","secret":"1c726bdf4c","server":"65535","farm":66,"title":"Carolina Wren, Dark-Eyed Junco, Downy Woodpecker","ispublic":1,"isfriend":0,"isfamily":0},{"id":"52683245528","owner":"39445433@N02","secret":"4618408336","server":"65535","farm":66,"title":"Carolina Wren & Dark-Eyed Junco","ispublic":1,"isfriend":0,"isfamily":0},{"id":"52683176995","owner":"39445433@N02","secret":"acf740dc46","server":"65535","farm":66,"title":"Carolina Wren & Dark-Eyed Junco","ispublic":1,"isfriend":0,"isfamily":0},{"id":"52678399907","owner":"47533293@N04","secret":"bc272b2ac8","server":"65535","farm":66,"title":"Carolina wren, Thryothorus ludovicianus","ispublic":1,"isfriend":0,"isfamily":0},{"id":"52675443172","owner":"61135968@N00","secret":"7f13de727b","server":"65535","farm":66,"title":"Wren","ispublic":1,"isfriend":0,"isfamily":0},{"id":"52671030818","owner":"36267333@N05","secret":"e6f23d0f9c","server":"65535","farm":66,"title":"Immature Carolina Wren (Thryothorus ludovicianus","ispublic":1,"isfriend":0,"isfamily":0},{"id":"52670962215","owner":"36267333@N05","secret":"6db07d118c","server":"65535","farm":66,"title":"Immature Carolina Wren (Thryothorus ludovicianus","ispublic":1,"isfriend":0,"isfamily":0},{"id":"52665343343","owner":"11159374@N04","secret":"1725f3c120","server":"65535","farm":66,"title":"Carolina Wren","ispublic":1,"isfriend":0,"isfamily":0},{"id":"52662105104","owner":"33610210@N05","secret":"e29605f342","server":"65535","farm":66,"title":"Carolina Wren, Thryothorus ludovicianus","ispublic":1,"isfriend":0,"isfamily":0},{"id":"52659476752","owner":"160542269@N02","secret":"4504c9c629","server":"65535","farm":66,"title":"carolina wren (thryothorus ludovicianus)","ispublic":1,"isfriend":0,"isfamily":0},{"id":"52655756582","owner":"22385343@N04","secret":"dc2db94d14","server":"65535","farm":66,"title":"24 JANUARY 2023 - Carolina Wren - Thryothorus ludovicianus","ispublic":1,"isfriend":0,"isfamily":0},{"id":"52654236737","owner":"128537732@N06","secret":"bbbf0b8376","server":"65535","farm":66,"title":"Carolina Wren (Thryothorus ludovicianus)","ispublic":1,"isfriend":0,"isfamily":0},{"id":"52651688167","owner":"161505078@N03","secret":"5d1e8cb1ca","server":"65535","farm":66,"title":"Carolina Wren (Thryothorus ludovicianus)","ispublic":1,"isfriend":0,"isfamily":0},{"id":"52650890712","owner":"53217733@N00","secret":"208d1342f4","server":"65535","farm":66,"title":"Maybe She Can't Afford A Real Egg","ispublic":1,"isfriend":0,"isfamily":0},{"id":"52650887290","owner":"161505078@N03","secret":"e1f3ec9692","server":"65535","farm":66,"title":"Carolina Wren (Thryothorus ludovicianus)","ispublic":1,"isfriend":0,"isfamily":0},{"id":"52650695774","owner":"161505078@N03","secret":"d30167c9a9","server":"65535","farm":66,"title":"Carolina Wren (Thryothorus ludovicianus)","ispublic":1,"isfriend":0,"isfamily":0},{"id":"52650652258","owner":"8654297@N06","secret":"0b59ace934","server":"65535","farm":66,"title":"Announcement","ispublic":1,"isfriend":0,"isfamily":0},{"id":"52643507156","owner":"44034115@N08","secret":"d371781550","server":"65535","farm":66,"title":"When You're Not Looking Carolina Wren","ispublic":1,"isfriend":0,"isfamily":0},{"id":"52640967296","owner":"124995824@N08","secret":"ea89ebf055","server":"65535","farm":66,"title":"Carolina Wren - Thryothorus ludovicianus","ispublic":1,"isfriend":0,"isfamily":0},{"id":"52640521395","owner":"196558678@N02","secret":"729e11c23a","server":"65535","farm":66,"title":"Carolina Wren (Thryothorus ludovicianus)","ispublic":1,"isfriend":0,"isfamily":0},{"id":"52639574069","owner":"53217733@N00","secret":"bf817cdd7f","server":"65535","farm":66,"title":"Carolina Wren","ispublic":1,"isfriend":0,"isfamily":0},{"id":"52620431823","owner":"100108154@N02","secret":"90b85e3683","server":"65535","farm":66,"title":"Chilly Morning","ispublic":1,"isfriend":0,"isfamily":0},{"id":"52598157551","owner":"90512728@N02","secret":"e9b1793041","server":"65535","farm":66,"title":"When You Need To Tell The World","ispublic":1,"isfriend":0,"isfamily":0},{"id":"52597462375","owner":"33610210@N05","secret":"1ecaaa0691","server":"65535","farm":66,"title":"Carolina Wren, Thryothorus ludovicianus","ispublic":1,"isfriend":0,"isfamily":0},{"id":"52597550768","owner":"33610210@N05","secret":"504d8e120d","server":"65535","farm":66,"title":"Carolina Wren, Thryothorus ludovicianus","ispublic":1,"isfriend":0,"isfamily":0},{"id":"52596542317","owner":"33610210@N05","secret":"b2394617ec","server":"65535","farm":66,"title":"Carolina Wren, Thryothorus ludovicianus","ispublic":1,"isfriend":0,"isfamily":0},{"id":"52593074362","owner":"8654297@N06","secret":"4745a44c31","server":"65535","farm":66,"title":"Seed patrol","ispublic":1,"isfriend":0,"isfamily":0},{"id":"52592655004","owner":"151381692@N04","secret":"0318c67f9a","server":"65535","farm":66,"title":"Carolina Wren (Thryothorus ludovicianus)","ispublic":1,"isfriend":0,"isfamily":0},{"id":"52588312151","owner":"128537732@N06","secret":"ce7d3f9911","server":"65535","farm":66,"title":"Carolina Wren (Thryothorus ludovicianus)","ispublic":1,"isfriend":0,"isfamily":0},{"id":"52585103154","owner":"70295563@N00","secret":"3c422385a8","server":"65535","farm":66,"title":"Woodland songster","ispublic":1,"isfriend":0,"isfamily":0},{"id":"52585223003","owner":"76288515@N07","secret":"ba9efc408f","server":"65535","farm":66,"title":"Carolina Wren Thryothorus ludovicianus","ispublic":1,"isfriend":0,"isfamily":0},{"id":"52585222978","owner":"76288515@N07","secret":"e86d419e3a","server":"65535","farm":66,"title":"Carolina Wren Thryothorus ludovicianus","ispublic":1,"isfriend":0,"isfamily":0},{"id":"52584966734","owner":"76288515@N07","secret":"5607a46b50","server":"65535","farm":66,"title":"Carolina Wren Thryothorus ludovicianus","ispublic":1,"isfriend":0,"isfamily":0},{"id":"52581861194","owner":"28764859@N08","secret":"8d11547849","server":"65535","farm":66,"title":"friendly wren","ispublic":1,"isfriend":0,"isfamily":0},{"id":"52580587004","owner":"153973412@N04","secret":"20524fd02f","server":"65535","farm":66,"title":"Carolina Wren-Thryothorus ludovicianus, Austin, TX","ispublic":1,"isfriend":0,"isfamily":0},{"id":"52579116091","owner":"120449047@N06","secret":"5ff78a5f05","server":"65535","farm":66,"title":"Carolina Wren (explored 12\/24\/22)","ispublic":1,"isfriend":0,"isfamily":0},{"id":"52576562171","owner":"151381692@N04","secret":"458d385c03","server":"65535","farm":66,"title":"Carolina Wren (Thryothorus ludovicianus)","ispublic":1,"isfriend":0,"isfamily":0},{"id":"52575496119","owner":"135315828@N06","secret":"f1ef0b340a","server":"65535","farm":66,"title":"carolina wren","ispublic":1,"isfriend":0,"isfamily":0},{"id":"52575213476","owner":"135315828@N06","secret":"a73577e352","server":"65535","farm":66,"title":"carolina wren","ispublic":1,"isfriend":0,"isfamily":0},{"id":"52567922633","owner":"161505078@N03","secret":"1ae3c54085","server":"65535","farm":66,"title":"Carolina Wren (Thryothorus ludovicianus)","ispublic":1,"isfriend":0,"isfamily":0},{"id":"52567571524","owner":"161505078@N03","secret":"1b5066ed86","server":"65535","farm":66,"title":"Carolina Wren (Thryothorus ludovicianus)","ispublic":1,"isfriend":0,"isfamily":0},{"id":"52567232676","owner":"161505078@N03","secret":"bae493c318","server":"65535","farm":66,"title":"Carolina Wren (Thryothorus ludovicianus)","ispublic":1,"isfriend":0,"isfamily":0},{"id":"52561494626","owner":"53217733@N00","secret":"a360b6b944","server":"65535","farm":66,"title":"Carolina Wren","ispublic":1,"isfriend":0,"isfamily":0},{"id":"52562600584","owner":"33610210@N05","secret":"6968365f20","server":"65535","farm":66,"title":"Carolina Wren, Thryothorus ludovicianus","ispublic":1,"isfriend":0,"isfamily":0},{"id":"52561026601","owner":"196840457@N07","secret":"fc38f56b2c","server":"65535","farm":66,"title":"Wren, Carolina","ispublic":1,"isfriend":0,"isfamily":0},{"id":"52561498105","owner":"196840457@N07","secret":"95e907c54b","server":"65535","farm":66,"title":"Wren, Carolina Upturned","ispublic":1,"isfriend":0,"isfamily":0},{"id":"52561497370","owner":"196840457@N07","secret":"9555f99f6a","server":"65535","farm":66,"title":"Wren, Carolina","ispublic":1,"isfriend":0,"isfamily":0},{"id":"52561496540","owner":"196840457@N07","secret":"6f7e1fee67","server":"65535","farm":66,"title":"Wren, Carolina","ispublic":1,"isfriend":0,"isfamily":0},{"id":"52556595510","owner":"91064752@N03","secret":"a095cdf74f","server":"65535","farm":66,"title":"Carolina Wren","ispublic":1,"isfriend":0,"isfamily":0},{"id":"52549502359","owner":"47448228@N07","secret":"9e9e41a4a9","server":"65535","farm":66,"title":"DSC_0842","ispublic":1,"isfriend":0,"isfamily":0},{"id":"52549751008","owner":"47448228@N07","secret":"29e21a48c8","server":"65535","farm":66,"title":"DSC_0841","ispublic":1,"isfriend":0,"isfamily":0},{"id":"52549679155","owner":"47448228@N07","secret":"da6d18c98e","server":"65535","farm":66,"title":"DSC_0839","ispublic":1,"isfriend":0,"isfamily":0},{"id":"52549679135","owner":"47448228@N07","secret":"ed4f5dd91a","server":"65535","farm":66,"title":"DSC_0840","ispublic":1,"isfriend":0,"isfamily":0},{"id":"52545283349","owner":"129803374@N05","secret":"e88b668007","server":"65535","farm":66,"title":"Carolina Wren (Thryothorus ludovicianus)","ispublic":1,"isfriend":0,"isfamily":0},{"id":"52538797876","owner":"10260434@N03","secret":"43f6e12434","server":"65535","farm":66,"title":"Carolina Wren-14Nov22","ispublic":1,"isfriend":0,"isfamily":0},{"id":"52539118683","owner":"128537732@N06","secret":"6b1c34b00f","server":"65535","farm":66,"title":"Carolina Wren (Thryothorus ludovicianus)","ispublic":1,"isfriend":0,"isfamily":0},{"id":"52538105197","owner":"128537732@N06","secret":"4acfaa2e28","server":"65535","farm":66,"title":"Carolina Wren (Thryothorus ludovicianus)","ispublic":1,"isfriend":0,"isfamily":0},{"id":"52535533839","owner":"120449047@N06","secret":"022583a46c","server":"65535","farm":66,"title":"Carolina Wren","ispublic":1,"isfriend":0,"isfamily":0},{"id":"52533788016","owner":"196558678@N02","secret":"12a27cc545","server":"65535","farm":66,"title":"Carolina Wren (Thryothorus ludovicianus)","ispublic":1,"isfriend":0,"isfamily":0},{"id":"52533224555","owner":"94295378@N04","secret":"0ecf9d4f94","server":"65535","farm":66,"title":"Le troglodyte de Caroline - Thryothorus Ludovicianus","ispublic":1,"isfriend":0,"isfamily":0},{"id":"52529138367","owner":"28499865@N07","secret":"bfb902b003","server":"65535","farm":66,"title":"Carolina Wren - Thryothorus ludovicianus","ispublic":1,"isfriend":0,"isfamily":0},{"id":"52528059978","owner":"88932760@N08","secret":"6e936c0cf7","server":"65535","farm":66,"title":"Grumpy Wren","ispublic":1,"isfriend":0,"isfamily":0},{"id":"52519684723","owner":"39445433@N02","secret":"75dc4964b8","server":"65535","farm":66,"title":"Carolina Wren","ispublic":1,"isfriend":0,"isfamily":0},{"id":"52518658457","owner":"39445433@N02","secret":"f4f531a90d","server":"65535","farm":66,"title":"Carolina Wren","ispublic":1,"isfriend":0,"isfamily":0},{"id":"52519132701","owner":"39445433@N02","secret":"2bb13a7842","server":"65535","farm":66,"title":"Carolina Wren","ispublic":1,"isfriend":0,"isfamily":0},{"id":"52511694923","owner":"35259356@N06","secret":"3f70e2cab4","server":"65535","farm":66,"title":"Wren: Carolina Wren","ispublic":1,"isfriend":0,"isfamily":0},{"id":"52508283649","owner":"161505078@N03","secret":"fd3e6afa45","server":"65535","farm":66,"title":"Carolina Wren (Thryothorus ludovicianus)","ispublic":1,"isfriend":0,"isfamily":0},{"id":"52506205178","owner":"161505078@N03","secret":"32e3265b18","server":"65535","farm":66,"title":"Carolina Wren (Thryothorus ludovicianus)","ispublic":1,"isfriend":0,"isfamily":0},{"id":"52505153572","owner":"161505078@N03","secret":"366b78fcac","server":"65535","farm":66,"title":"Carolina Wren (Thryothorus ludovicianus)","ispublic":1,"isfriend":0,"isfamily":0},{"id":"52506181293","owner":"161505078@N03","secret":"ba95942ab7","server":"65535","farm":66,"title":"Carolina Wren (Thryothorus ludovicianus)","ispublic":1,"isfriend":0,"isfamily":0},{"id":"52503901551","owner":"161505078@N03","secret":"153a23a92b","server":"65535","farm":66,"title":"Carolina Wren (Thryothorus ludovicianus)","ispublic":1,"isfriend":0,"isfamily":0},{"id":"52504389918","owner":"190841476@N07","secret":"6d76b559f4","server":"65535","farm":66,"title":"Carolina wren (Thryothorus ludovicianus)","ispublic":1,"isfriend":0,"isfamily":0},{"id":"52502667388","owner":"161505078@N03","secret":"c8086a8b39","server":"65535","farm":66,"title":"Carolina Wren (Thryothorus ludovicianus)","ispublic":1,"isfriend":0,"isfamily":0},{"id":"52491064366","owner":"194903193@N03","secret":"d8b779695e","server":"65535","farm":66,"title":"Carolina Wren at sunrise","ispublic":1,"isfriend":0,"isfamily":0},{"id":"52489988383","owner":"128537732@N06","secret":"f4e06e33dc","server":"65535","farm":66,"title":"Carolina Wren (Thryothorus ludovicianus)","ispublic":1,"isfriend":0,"isfamily":0},{"id":"52485748463","owner":"39445433@N02","secret":"cb040762c7","server":"65535","farm":66,"title":"Carolina Wren","ispublic":1,"isfriend":0,"isfamily":0},{"id":"52472880078","owner":"121644485@N06","secret":"ab09c7e399","server":"65535","farm":66,"title":"Carolina Wren","ispublic":1,"isfriend":0,"isfamily":0},{"id":"52473874300","owner":"84175980@N00","secret":"f318f1c0e7","server":"65535","farm":66,"title":"20220901 Thryothorus ludovicianus (Carolina Wren) (1)","ispublic":1,"isfriend":0,"isfamily":0}]},"stat":"ok"}