{"photos":{"page":1,"pages":58,"perpage":100,"total":5772,"photo":[{"id":"52711226877","owner":"168495655@N07","secret":"d807d4edf0","server":"65535","farm":66,"title":"Sterne caspienne - Hydroprogne caspia - Caspian Tern","ispublic":1,"isfriend":0,"isfamily":0},{"id":"52709526320","owner":"168495655@N07","secret":"c74bd93177","server":"65535","farm":66,"title":"Sterne caspienne - Hydroprogne caspia - Caspian Tern","ispublic":1,"isfriend":0,"isfamily":0},{"id":"52704052668","owner":"51198972@N04","secret":"718a8da150","server":"65535","farm":66,"title":"Caspian Terns (Hydroprogne caspia, non-breeding), Pulicat Lake, India","ispublic":1,"isfriend":0,"isfamily":0},{"id":"52703636003","owner":"128578170@N06","secret":"16da21c187","server":"65535","farm":66,"title":"Caspian Tern Hydroprogne caspia","ispublic":1,"isfriend":0,"isfamily":0},{"id":"52703358704","owner":"128578170@N06","secret":"149e37ef67","server":"65535","farm":66,"title":"Caspian Tern Hydroprogne caspia","ispublic":1,"isfriend":0,"isfamily":0},{"id":"52702074857","owner":"28092414@N03","secret":"584c138cdc","server":"65535","farm":66,"title":"Caspian Tern at Salalah S24A0578","ispublic":1,"isfriend":0,"isfamily":0},{"id":"52701824670","owner":"51198972@N04","secret":"c1ec35122d","server":"65535","farm":66,"title":"Caspian Tern (Hydroprogne caspia, non-breeding), Pulicat Lake, India","ispublic":1,"isfriend":0,"isfamily":0},{"id":"52701553755","owner":"21657471@N04","secret":"5590e3d2cd","server":"65535","farm":66,"title":"Hydroprogne caspia (Pallas, 1770) - Caspian tern","ispublic":1,"isfriend":0,"isfamily":0},{"id":"52698030939","owner":"27480477@N07","secret":"7d14a6f497","server":"65535","farm":66,"title":"DSC03879 Reuzenstern, Caspin Tern, Hydropogne caspia.","ispublic":1,"isfriend":0,"isfamily":0},{"id":"52695362007","owner":"181980422@N05","secret":"f33181039c","server":"65535","farm":66,"title":"Garajau-grande, juvenil, Caspian Tern, juvenile","ispublic":1,"isfriend":0,"isfamily":0},{"id":"52694801923","owner":"27480477@N07","secret":"4938112e30","server":"65535","farm":66,"title":"DSC04196 Reuzenstern, Caspian Tern, Hydropogna caspia.","ispublic":1,"isfriend":0,"isfamily":0},{"id":"52691975186","owner":"95579115@N03","secret":"637d87e4b5","server":"65535","farm":66,"title":"Caspian Tern (Hydroprogne caspia) \u0427\u0435\u0433\u0440\u0430\u0432\u0430","ispublic":1,"isfriend":0,"isfamily":0},{"id":"52690808536","owner":"12639178@N07","secret":"140985f251","server":"65535","farm":66,"title":"Hydroprogne caspia, Raubseeschwalbe,ad.","ispublic":1,"isfriend":0,"isfamily":0},{"id":"52690280757","owner":"12639178@N07","secret":"c7d023e38b","server":"65535","farm":66,"title":"Raubseeschwalbe (Hydroprogne caspia) (2)","ispublic":1,"isfriend":0,"isfamily":0},{"id":"52691068444","owner":"12639178@N07","secret":"e849b9ab7e","server":"65535","farm":66,"title":"Raubseeschwalbe (Hydroprogne caspia) (1)","ispublic":1,"isfriend":0,"isfamily":0},{"id":"52690422393","owner":"22594349@N08","secret":"71f572d1f9","server":"65535","farm":66,"title":"Caspian Tern (Hydroprogne caspia)","ispublic":1,"isfriend":0,"isfamily":0},{"id":"52684208783","owner":"37180297@N08","secret":"8f882e81ae","server":"65535","farm":66,"title":"_RBD6842 Hydroprogne caspia \u88cf\u6d77\u71d5\u9dd7","ispublic":1,"isfriend":0,"isfamily":0},{"id":"52683713611","owner":"37180297@N08","secret":"e48b586501","server":"65535","farm":66,"title":"_RBD6846 Hydroprogne caspia \u88cf\u6d77\u71d5\u9dd7","ispublic":1,"isfriend":0,"isfamily":0},{"id":"52684138670","owner":"37180297@N08","secret":"057182b45b","server":"65535","farm":66,"title":"_RBD6847 Hydroprogne caspia \u88cf\u6d77\u71d5\u9dd7","ispublic":1,"isfriend":0,"isfamily":0},{"id":"52672765408","owner":"154261763@N05","secret":"996e7ce4a6","server":"65535","farm":66,"title":"Caspian tern (Hydroprogne caspia) - Raubseeschwalbe","ispublic":1,"isfriend":0,"isfamily":0},{"id":"52670152290","owner":"64045479@N05","secret":"f3ecb613b6","server":"65535","farm":66,"title":"Caspian Tern - Hydroprogne caspia","ispublic":1,"isfriend":0,"isfamily":0},{"id":"52669107281","owner":"95482238@N02","secret":"871c4a5c3f","server":"65535","farm":66,"title":"Caspian tern  at Lake Moondarra Nth of Mount Isa, Queensland, Australia","ispublic":1,"isfriend":0,"isfamily":0},{"id":"52555876711","owner":"195950301@N05","secret":"7b8d81e102","server":"65535","farm":66,"title":"Caspian Tern (Hydroprogne caspia) vs White-bellied Sea-Eagle (Haliaeetus leucogaster), Adelaide International Bird Sanctuary National Park, Port Gawler, Australia","ispublic":1,"isfriend":0,"isfamily":0},{"id":"52664832867","owner":"39138537@N06","secret":"3cc78b1b4c","server":"65535","farm":66,"title":"Caspian Tern (Hydroprogne caspia)","ispublic":1,"isfriend":0,"isfamily":0},{"id":"52665768600","owner":"39138537@N06","secret":"1b276f050c","server":"65535","farm":66,"title":"Caspian Tern (Hydroprogne caspia)","ispublic":1,"isfriend":0,"isfamily":0},{"id":"52665625054","owner":"39138537@N06","secret":"86efc7a89e","server":"65535","farm":66,"title":"Caspian Tern (Hydroprogne caspia)","ispublic":1,"isfriend":0,"isfamily":0},{"id":"52665332506","owner":"39138537@N06","secret":"142fb32798","server":"65535","farm":66,"title":"Caspian Tern (Hydroprogne caspia)","ispublic":1,"isfriend":0,"isfamily":0},{"id":"52665832298","owner":"39138537@N06","secret":"15fca1190c","server":"65535","farm":66,"title":"Caspian Tern (Hydroprogne caspia) [Explored]","ispublic":1,"isfriend":0,"isfamily":0},{"id":"52661625696","owner":"163930705@N05","secret":"0823b89d9d","server":"65535","farm":66,"title":"Caspian Tern \/ R\u00e1n\u00feerna (Hydroprogne caspia)","ispublic":1,"isfriend":0,"isfamily":0},{"id":"52656500003","owner":"194432698@N02","secret":"2a1a02ac8a","server":"65535","farm":66,"title":"23AJANEGYPT266","ispublic":1,"isfriend":0,"isfamily":0},{"id":"52653868216","owner":"12240837@N08","secret":"025d7e52b4","server":"65535","farm":66,"title":"Caspian Tern (hydroprogne caspia)","ispublic":1,"isfriend":0,"isfamily":0},{"id":"52652680915","owner":"79122644@N00","secret":"564cf88b6e","server":"65535","farm":66,"title":"Hydroprogne caspia - Gentofte S\u00f8_2022-07-10_77_DxO","ispublic":1,"isfriend":0,"isfamily":0},{"id":"52652680925","owner":"79122644@N00","secret":"3b6c62e51f","server":"65535","farm":66,"title":"Hydroprogne caspia - Gentofte S\u00f8_2022-07-10_72_DxO","ispublic":1,"isfriend":0,"isfamily":0},{"id":"52652680890","owner":"79122644@N00","secret":"23ed7abec1","server":"65535","farm":66,"title":"Hydroprogne caspia - Gentofte S\u00f8_2022-07-10_107_DxO","ispublic":1,"isfriend":0,"isfamily":0},{"id":"52652720698","owner":"79122644@N00","secret":"a9bb167206","server":"65535","farm":66,"title":"Hydroprogne caspia - Gentofte S\u00f8_2022-07-10_87_DxO","ispublic":1,"isfriend":0,"isfamily":0},{"id":"52652609690","owner":"26371261@N00","secret":"773c7b7e35","server":"65535","farm":66,"title":"Caspian Tern, Hydroprogne caspia","ispublic":1,"isfriend":0,"isfamily":0},{"id":"52651996100","owner":"31864021@N08","secret":"8c0865f158","server":"65535","farm":66,"title":"Kak\u012b\u0101nau - black swan - eggs - Cygnus atratus","ispublic":1,"isfriend":0,"isfamily":0},{"id":"52651995895","owner":"31864021@N08","secret":"9a8be67c54","server":"65535","farm":66,"title":"Kak\u012b\u0101nau - black swan - eggs - Cygnus atratus","ispublic":1,"isfriend":0,"isfamily":0},{"id":"52651824309","owner":"31864021@N08","secret":"ebd85aa662","server":"65535","farm":66,"title":"Kak\u012b\u0101nau - black swan - eggs - Cygnus atratus","ispublic":1,"isfriend":0,"isfamily":0},{"id":"52639194335","owner":"67164820@N06","secret":"fabd61aab1","server":"65535","farm":66,"title":"caspian tern","ispublic":1,"isfriend":0,"isfamily":0},{"id":"52638151138","owner":"68921296@N06","secret":"2bf2391760","server":"65535","farm":66,"title":"Caspian tern (Hydroprogne caspia)","ispublic":1,"isfriend":0,"isfamily":0},{"id":"52637586914","owner":"84151258@N00","secret":"914211297c","server":"65535","farm":66,"title":"Caspian Tern (Hydroprogne caspia)","ispublic":1,"isfriend":0,"isfamily":0},{"id":"52634611841","owner":"151677249@N08","secret":"45dde58856","server":"65535","farm":66,"title":"Caspian Tern (Hydroprogne caspia)","ispublic":1,"isfriend":0,"isfamily":0},{"id":"52631930436","owner":"47533293@N04","secret":"4dbf399510","server":"65535","farm":66,"title":"Caspian tern, Hydroprogne caspia","ispublic":1,"isfriend":0,"isfamily":0},{"id":"52612052378","owner":"90408688@N02","secret":"dd01c551f7","server":"65535","farm":66,"title":"Haematopus longirostris - Australian Pied Oystercatcher, Caspian Tern - Hydroprogne caspia","ispublic":1,"isfriend":0,"isfamily":0},{"id":"52609444069","owner":"66909027@N00","secret":"53ef79800a","server":"65535","farm":66,"title":"Caspian Tern at Holden Wood Reservoir in Rossendale, Lancashire, UK - June 2017","ispublic":1,"isfriend":0,"isfamily":0},{"id":"52605334178","owner":"12639178@N07","secret":"b05cf613ff","server":"65535","farm":66,"title":"Raubseeschwalbe (Hydroprogne caspia), St. Lucia, S\u00fcdafrika","ispublic":1,"isfriend":0,"isfamily":0},{"id":"52605252790","owner":"12639178@N07","secret":"86f8b7a89d","server":"65535","farm":66,"title":"Raubseeschwalbe (Hydroprogne caspia), St. Lucia, S\u00fcdafrika","ispublic":1,"isfriend":0,"isfamily":0},{"id":"52580321816","owner":"153973412@N04","secret":"7019b16866","server":"65535","farm":66,"title":"Caspian Tern-hydroprogne caspia, Iowa City, IA","ispublic":1,"isfriend":0,"isfamily":0},{"id":"52565221212","owner":"12639178@N07","secret":"a902486a9e","server":"65535","farm":66,"title":"Raubseeschwalbe, Caspian Tern (Hydroprogne caspia)","ispublic":1,"isfriend":0,"isfamily":0},{"id":"52565221067","owner":"12639178@N07","secret":"d305370a04","server":"65535","farm":66,"title":"Raubseeschwalbe, Caspian Tern (Hydroprogne caspia)","ispublic":1,"isfriend":0,"isfamily":0},{"id":"52563473742","owner":"140318147@N08","secret":"0a03f5d3b9","server":"65535","farm":66,"title":"caspian tern (Hydroprogne caspia) L4A7483","ispublic":1,"isfriend":0,"isfamily":0},{"id":"52553831236","owner":"37180297@N08","secret":"dc40973b50","server":"65535","farm":66,"title":"_RBD3605 Hydroprogne caspia \u88cf\u6d77\u71d5\u9dd7","ispublic":1,"isfriend":0,"isfamily":0},{"id":"52549045873","owner":"29826595@N06","secret":"c9067792f2","server":"65535","farm":66,"title":"Caspian Tern","ispublic":1,"isfriend":0,"isfamily":0},{"id":"52542269012","owner":"39138537@N06","secret":"c8058ae683","server":"65535","farm":66,"title":"Caspian Tern (Hydroprogne caspia)","ispublic":1,"isfriend":0,"isfamily":0},{"id":"52543199340","owner":"39138537@N06","secret":"7f21b98f0b","server":"65535","farm":66,"title":"Caspian Tern (Hydroprogne caspia)","ispublic":1,"isfriend":0,"isfamily":0},{"id":"52543261393","owner":"39138537@N06","secret":"c1df85c16f","server":"65535","farm":66,"title":"Great Crested Tern (Thalasseus bergii)","ispublic":1,"isfriend":0,"isfamily":0},{"id":"52541471648","owner":"33610210@N05","secret":"41147db3fd","server":"65535","farm":66,"title":"Caspian Tern, Hydroprogne caspia","ispublic":1,"isfriend":0,"isfamily":0},{"id":"52536685768","owner":"30979614@N07","secret":"a0fdc90cd2","server":"65535","farm":66,"title":"2020-08-09 Grayslake, IL 3","ispublic":1,"isfriend":0,"isfamily":0},{"id":"52535381052","owner":"29826595@N06","secret":"06fc1d2c6a","server":"65535","farm":66,"title":"Caspian Tern","ispublic":1,"isfriend":0,"isfamily":0},{"id":"52533471860","owner":"31864021@N08","secret":"a582ce4a9f","server":"65535","farm":66,"title":"Taranui -  Caspian Tern - Hydroprogne caspia","ispublic":1,"isfriend":0,"isfamily":0},{"id":"52533278229","owner":"31864021@N08","secret":"6827161427","server":"65535","farm":66,"title":"Taranui -  Caspian Tern - Hydroprogne caspia","ispublic":1,"isfriend":0,"isfamily":0},{"id":"52533471825","owner":"31864021@N08","secret":"9cc0a8046f","server":"65535","farm":66,"title":"Taranui -  Caspian Tern - Hydroprogne caspia","ispublic":1,"isfriend":0,"isfamily":0},{"id":"52533471805","owner":"31864021@N08","secret":"9891a92f83","server":"65535","farm":66,"title":"Taranui -  Caspian Tern - Hydroprogne caspia","ispublic":1,"isfriend":0,"isfamily":0},{"id":"52533471795","owner":"31864021@N08","secret":"777fbd7f66","server":"65535","farm":66,"title":"Taranui -  Caspian Tern - Hydroprogne caspia","ispublic":1,"isfriend":0,"isfamily":0},{"id":"52533471780","owner":"31864021@N08","secret":"f3b61c02fe","server":"65535","farm":66,"title":"Taranui -  Caspian Tern - Hydroprogne caspia","ispublic":1,"isfriend":0,"isfamily":0},{"id":"52532244337","owner":"33610210@N05","secret":"4964af87f1","server":"65535","farm":66,"title":"Caspian Tern, Hydroprogne caspia","ispublic":1,"isfriend":0,"isfamily":0},{"id":"52533187625","owner":"33610210@N05","secret":"2b31c85df0","server":"65535","farm":66,"title":"Caspian Tern, Hydroprogne caspia","ispublic":1,"isfriend":0,"isfamily":0},{"id":"52526121992","owner":"56446000@N04","secret":"11eb793a67","server":"65535","farm":66,"title":"Terninator","ispublic":1,"isfriend":0,"isfamily":0},{"id":"52509342446","owner":"22012375@N07","secret":"320f6da23e","server":"65535","farm":66,"title":"Hydroprogne caspia","ispublic":1,"isfriend":0,"isfamily":0},{"id":"52498207217","owner":"31864021@N08","secret":"f5727227ee","server":"65535","farm":66,"title":"Taranui -  Caspian Tern - Hydroprogne caspia","ispublic":1,"isfriend":0,"isfamily":0},{"id":"52499171065","owner":"31864021@N08","secret":"2bcf4e1d65","server":"65535","farm":66,"title":"Taranui -  Caspian Tern - Hydroprogne caspia","ispublic":1,"isfriend":0,"isfamily":0},{"id":"52498976899","owner":"31864021@N08","secret":"fc209879ba","server":"65535","farm":66,"title":"Taranui -  Caspian Tern - Hydroprogne caspia","ispublic":1,"isfriend":0,"isfamily":0},{"id":"52480267591","owner":"132265704@N08","secret":"f57201c27d","server":"65535","farm":66,"title":"Caspian Tern","ispublic":1,"isfriend":0,"isfamily":0},{"id":"52479951120","owner":"114605653@N04","secret":"b7cea4947e","server":"65535","farm":66,"title":"Caspian terns","ispublic":1,"isfriend":0,"isfamily":0},{"id":"52479764454","owner":"114605653@N04","secret":"a1fc41994e","server":"65535","farm":66,"title":"Caspian terns","ispublic":1,"isfriend":0,"isfamily":0},{"id":"52461434512","owner":"39641028@N04","secret":"85f6cc4c36","server":"65535","farm":66,"title":"Garajau grande (Hydroprogne caspia) | Caspian Tern","ispublic":1,"isfriend":0,"isfamily":0},{"id":"52446452114","owner":"40941741@N03","secret":"52efd1510f","server":"65535","farm":66,"title":"Caspian Tern","ispublic":1,"isfriend":0,"isfamily":0},{"id":"52444102346","owner":"32805478@N03","secret":"debc2cc38b","server":"65535","farm":66,"title":"Pagaza piquirroja, Hydroprogne caspia, Caspian Tern","ispublic":1,"isfriend":0,"isfamily":0},{"id":"52443173821","owner":"92361032@N05","secret":"6204386be3","server":"65535","farm":66,"title":"Caspian Tern \/ Sterne caspienne( Richard )","ispublic":1,"isfriend":0,"isfamily":0},{"id":"52437766230","owner":"56446000@N04","secret":"737e3d1ab3","server":"65535","farm":66,"title":"Terning All Heads...","ispublic":1,"isfriend":0,"isfamily":0},{"id":"52427773876","owner":"196264892@N08","secret":"3425332b76","server":"65535","farm":66,"title":"Caspian Tern juvenile & adult","ispublic":1,"isfriend":0,"isfamily":0},{"id":"52421758879","owner":"183132100@N02","secret":"70aa5cba39","server":"65535","farm":66,"title":"CaspianTern 10-8-2022-7","ispublic":1,"isfriend":0,"isfamily":0},{"id":"52418741557","owner":"183132100@N02","secret":"e2fb09f98d","server":"65535","farm":66,"title":"CaspianTern 10-8-2022-2","ispublic":1,"isfriend":0,"isfamily":0},{"id":"52418024754","owner":"44096805@N07","secret":"1c466dd8d7","server":"65535","farm":66,"title":"Caspian Tern (Hydroprogne caspia) - winter adult","ispublic":1,"isfriend":0,"isfamily":0},{"id":"52414682264","owner":"27174440@N05","secret":"e3ff9d5595","server":"65535","farm":66,"title":"Caspian Tern (Hydroprogne caspia)","ispublic":1,"isfriend":0,"isfamily":0},{"id":"52406454149","owner":"56446000@N04","secret":"3061318a05","server":"65535","farm":66,"title":"Caspian Tern","ispublic":1,"isfriend":0,"isfamily":0},{"id":"52399331962","owner":"12639178@N07","secret":"2883a2d98c","server":"65535","farm":66,"title":"Belegbild Raubseeschwalbe (P01)","ispublic":1,"isfriend":0,"isfamily":0},{"id":"52392432409","owner":"39641028@N04","secret":"2097f7fa0a","server":"65535","farm":66,"title":"Garajau grande (Hydroprogne caspia) |  Caspian tern","ispublic":1,"isfriend":0,"isfamily":0},{"id":"52373642928","owner":"12639178@N07","secret":"b951439686","server":"65535","farm":66,"title":"Raubseeschwalbe","ispublic":1,"isfriend":0,"isfamily":0},{"id":"52373420201","owner":"12639178@N07","secret":"5567622c2c","server":"65535","farm":66,"title":"Raubseeschwalbe","ispublic":1,"isfriend":0,"isfamily":0},{"id":"52373609073","owner":"74416062@N04","secret":"6f4569fbfd","server":"65535","farm":66,"title":"Sterne caspienne;Caspian Tern_0124-2","ispublic":1,"isfriend":0,"isfamily":0},{"id":"52371787400","owner":"12639178@N07","secret":"ee4f7874c2","server":"65535","farm":66,"title":"Raubseeschwalbe (Hydroprogne caspia)","ispublic":1,"isfriend":0,"isfamily":0},{"id":"52643831885","owner":"8013969@N03","secret":"2cc6255550","server":"65535","farm":66,"title":"Hydroprogne caspia DFL cameron22-1","ispublic":1,"isfriend":0,"isfamily":0},{"id":"52554369123","owner":"37180297@N08","secret":"5d8ae3fe17","server":"65535","farm":66,"title":"_RBD3603 Hydroprogne caspia \u88cf\u6d77\u71d5\u9dd7","ispublic":1,"isfriend":0,"isfamily":0},{"id":"52495777533","owner":"64557331@N04","secret":"c896b2cf30","server":"65535","farm":66,"title":"Caspian Tern - (Hydroprogne caspia)_07302022_3","ispublic":1,"isfriend":0,"isfamily":0},{"id":"52495222046","owner":"64557331@N04","secret":"e39cdf6e52","server":"65535","farm":66,"title":"Caspian Tern - (Hydroprogne caspia)_07302022_1","ispublic":1,"isfriend":0,"isfamily":0},{"id":"52495221611","owner":"64557331@N04","secret":"09d6aaefb4","server":"65535","farm":66,"title":"Caspian Tern - (Hydroprogne caspia)_07302022","ispublic":1,"isfriend":0,"isfamily":0},{"id":"52479664729","owner":"80746425@N00","secret":"0211a03ca7","server":"65535","farm":66,"title":"Caspian Tern - Hydroprogne caspia","ispublic":1,"isfriend":0,"isfamily":0},{"id":"52417942011","owner":"44096805@N07","secret":"97c72296c1","server":"65535","farm":66,"title":"Grey-headed Gull (Chroicocephalus cirrocephalus poiocephalus)","ispublic":1,"isfriend":0,"isfamily":0}]},"stat":"ok"}