{"photos":{"page":1,"pages":11,"perpage":100,"total":1036,"photo":[{"id":"52759516662","owner":"12240837@N08","secret":"e6f6bb1328","server":"65535","farm":66,"title":"Cassin's Kingbird (tyrannus vociferans)","ispublic":1,"isfriend":0,"isfamily":0},{"id":"52681808757","owner":"26555180@N00","secret":"089bbefffd","server":"65535","farm":66,"title":"Tirano Chibi\u00fa","ispublic":1,"isfriend":0,"isfamily":0},{"id":"52680680476","owner":"60361833@N03","secret":"540055e5fb","server":"65535","farm":66,"title":"Cassin's Kingbird_1","ispublic":1,"isfriend":0,"isfamily":0},{"id":"52642586688","owner":"8547178@N05","secret":"e42768777f","server":"65535","farm":66,"title":"Cassin's Kingbird - Tyrannus vociferans","ispublic":1,"isfriend":0,"isfamily":0},{"id":"52620762093","owner":"12530381@N07","secret":"627fafa7b5","server":"65535","farm":66,"title":"Cassin's Kingbird (Tyrannus vociferans) at Whalen Lake, Oceanside, CA (1\/7\/2023)","ispublic":1,"isfriend":0,"isfamily":0},{"id":"52534923500","owner":"62174414@N04","secret":"e4e3d173dc","server":"65535","farm":66,"title":"Cassin's Kingbird (Tyrannus vociferans)","ispublic":1,"isfriend":0,"isfamily":0},{"id":"52399431832","owner":"132508209@N08","secret":"92eeb771e0","server":"65535","farm":66,"title":"Cassin's Kingbird (Tyrannus vociferans)","ispublic":1,"isfriend":0,"isfamily":0},{"id":"52398304058","owner":"156457454@N02","secret":"2c6920e34e","server":"65535","farm":66,"title":"Tyrannus vociferans 1 (Cassin's Kingbird)","ispublic":1,"isfriend":0,"isfamily":0},{"id":"52395784756","owner":"59619528@N04","secret":"ae0131878d","server":"65535","farm":66,"title":"Cassin's Kingbird  (Tyrannus vociferans)","ispublic":1,"isfriend":0,"isfamily":0},{"id":"52362768730","owner":"26929161@N02","secret":"895870fa56","server":"65535","farm":66,"title":"Cassin\u2019s Kingbird (Tyrannus vociferans) San Luis Obispo, CA","ispublic":1,"isfriend":0,"isfamily":0},{"id":"52317166377","owner":"132165466@N08","secret":"cb50cbf8f4","server":"65535","farm":66,"title":"Cassin's Kingbird","ispublic":1,"isfriend":0,"isfamily":0},{"id":"52318411070","owner":"132165466@N08","secret":"b1ca45384b","server":"65535","farm":66,"title":"Cassin's Kingbird","ispublic":1,"isfriend":0,"isfamily":0},{"id":"52316229647","owner":"132165466@N08","secret":"f20ffd3757","server":"65535","farm":66,"title":"Cassin's Kingbird","ispublic":1,"isfriend":0,"isfamily":0},{"id":"52317343423","owner":"132165466@N08","secret":"9116e76da6","server":"65535","farm":66,"title":"Cassin's Kingbird","ispublic":1,"isfriend":0,"isfamily":0},{"id":"52230985845","owner":"195819210@N03","secret":"d2d10feb1f","server":"0","farm":0,"title":"(194) Cassin's Kingbird Audio","ispublic":1,"isfriend":0,"isfamily":0},{"id":"52191052401","owner":"140318147@N08","secret":"6cc020323e","server":"65535","farm":66,"title":"Cassin's kingbird (Tyrannus vociferans) L4A5090","ispublic":1,"isfriend":0,"isfamily":0},{"id":"52159016841","owner":"103722035@N06","secret":"e2cd3c8245","server":"0","farm":0,"title":"Cassin's Kingbird (Tyrannus vociferans), Cayucos, CA","ispublic":1,"isfriend":0,"isfamily":0},{"id":"52151263046","owner":"39177293@N03","secret":"d2670a2d11","server":"65535","farm":66,"title":"Cassin's Kingbird","ispublic":1,"isfriend":0,"isfamily":0},{"id":"52148937816","owner":"195782057@N07","secret":"1da3744ba6","server":"0","farm":0,"title":"White-Winged Dove, Yellow Breasted Chat, Wild Turkey, Cassin's Kingbird, Bell's Vireo","ispublic":1,"isfriend":0,"isfamily":0},{"id":"52092360625","owner":"29170368@N03","secret":"7384ed75a5","server":"65535","farm":66,"title":"Cassin's Kingbird","ispublic":1,"isfriend":0,"isfamily":0},{"id":"52092100674","owner":"29170368@N03","secret":"94dd9f7ea0","server":"65535","farm":66,"title":"Cassin's Kingbird","ispublic":1,"isfriend":0,"isfamily":0},{"id":"51936844150","owner":"132508209@N08","secret":"522c0d2494","server":"65535","farm":66,"title":"Cassin's Kingbird (Tyrannus vociferans)","ispublic":1,"isfriend":0,"isfamily":0},{"id":"51885429083","owner":"188773063@N05","secret":"b9182b5eb1","server":"65535","farm":66,"title":"DSCN8175","ispublic":1,"isfriend":0,"isfamily":0},{"id":"51783825170","owner":"144662705@N03","secret":"1bfa0a4d4d","server":"65535","farm":66,"title":"'Suppertime through Fenceposts'","ispublic":1,"isfriend":0,"isfamily":0},{"id":"51782950056","owner":"144662705@N03","secret":"5e897451ed","server":"65535","farm":66,"title":"Cassin's Kingbird Through Fenceposts","ispublic":1,"isfriend":0,"isfamily":0},{"id":"51778306734","owner":"194341957@N06","secret":"4f8273151a","server":"65535","farm":66,"title":"cassin's kingbird","ispublic":1,"isfriend":0,"isfamily":0},{"id":"51750358173","owner":"194341957@N06","secret":"e0a67e6e3b","server":"65535","farm":66,"title":"cassin's kingbird","ispublic":1,"isfriend":0,"isfamily":0},{"id":"51696787306","owner":"103722035@N06","secret":"668faf3bc3","server":"0","farm":0,"title":"Cassin's Kingbird (Tyrannus vociferans), Shandon, CA","ispublic":1,"isfriend":0,"isfamily":0},{"id":"51696790126","owner":"103722035@N06","secret":"53c96b0ff0","server":"65535","farm":66,"title":"Cassin's Kingbird (Tyrannus vociferans), Shandon, CA","ispublic":1,"isfriend":0,"isfamily":0},{"id":"51696790091","owner":"103722035@N06","secret":"ff717dc824","server":"65535","farm":66,"title":"Cassin's Kingbird (Tyrannus vociferans), Shandon, CA","ispublic":1,"isfriend":0,"isfamily":0},{"id":"51696790056","owner":"103722035@N06","secret":"d15c7e6061","server":"65535","farm":66,"title":"Cassin's Kingbird (Tyrannus vociferans), Shandon, CA","ispublic":1,"isfriend":0,"isfamily":0},{"id":"51696790021","owner":"103722035@N06","secret":"342db6fd3d","server":"65535","farm":66,"title":"Cassin's Kingbird (Tyrannus vociferans), Shandon, CA","ispublic":1,"isfriend":0,"isfamily":0},{"id":"51697067518","owner":"103722035@N06","secret":"3c18d62f94","server":"65535","farm":66,"title":"Cassin's Kingbird (Tyrannus vociferans), Shandon, CA","ispublic":1,"isfriend":0,"isfamily":0},{"id":"51664704100","owner":"95849757@N06","secret":"4b486438ea","server":"65535","farm":66,"title":"Cassin's Kingbird","ispublic":1,"isfriend":0,"isfamily":0},{"id":"51663622520","owner":"185659367@N04","secret":"a6395a43b3","server":"65535","farm":66,"title":"Cassin's Kingbird","ispublic":1,"isfriend":0,"isfamily":0},{"id":"51636265986","owner":"23939795@N04","secret":"18f2363336","server":"65535","farm":66,"title":"Kingbird Buzzes Eagle 5957","ispublic":1,"isfriend":0,"isfamily":0},{"id":"51613402534","owner":"51928691@N04","secret":"cfd6397f65","server":"65535","farm":66,"title":"Cassin's Kingbird (Tyrannus vociferans) 1 102021","ispublic":1,"isfriend":0,"isfamily":0},{"id":"51422930033","owner":"51928691@N04","secret":"bcd90178c7","server":"65535","farm":66,"title":"Cassin's Kingbird (Tyrannus vociferans) 2 090321","ispublic":1,"isfriend":0,"isfamily":0},{"id":"51422495840","owner":"9638954@N07","secret":"3e6631fb96","server":"65535","farm":66,"title":"Cassin's Kingbird feeding young","ispublic":1,"isfriend":0,"isfamily":0},{"id":"51344542658","owner":"64718763@N04","secret":"1cf3af4fbd","server":"65535","farm":66,"title":"Yellow belly","ispublic":1,"isfriend":0,"isfamily":0},{"id":"51283873831","owner":"29170368@N03","secret":"cda7b1a018","server":"65535","farm":66,"title":"Cassin's Kingbird","ispublic":1,"isfriend":0,"isfamily":0},{"id":"51263939050","owner":"95355208@N04","secret":"a2e3157c27","server":"65535","farm":66,"title":"Cassin's Kingbird","ispublic":1,"isfriend":0,"isfamily":0},{"id":"51263938685","owner":"95355208@N04","secret":"182a30f296","server":"65535","farm":66,"title":"Cassin's Kingbird","ispublic":1,"isfriend":0,"isfamily":0},{"id":"51237091810","owner":"9638954@N07","secret":"58f812ba33","server":"65535","farm":66,"title":"Cassin's Kingbird","ispublic":1,"isfriend":0,"isfamily":0},{"id":"51206103098","owner":"186909031@N04","secret":"38f24a05f6","server":"65535","farm":66,"title":"Cassins Kingbird launching","ispublic":1,"isfriend":0,"isfamily":0},{"id":"51206961560","owner":"186909031@N04","secret":"c60eee5929","server":"65535","farm":66,"title":"Cassin's Kingbird","ispublic":1,"isfriend":0,"isfamily":0},{"id":"51201862532","owner":"193079646@N03","secret":"1e773f50d6","server":"65535","farm":66,"title":"Cassin's Kingbird","ispublic":1,"isfriend":0,"isfamily":0},{"id":"51199072793","owner":"9243885@N07","secret":"083bea55c6","server":"65535","farm":66,"title":"2021_05_23_5DMk4_39497","ispublic":1,"isfriend":0,"isfamily":0},{"id":"51186134108","owner":"29170368@N03","secret":"28b3734545","server":"65535","farm":66,"title":"Cassin's Kingbird","ispublic":1,"isfriend":0,"isfamily":0},{"id":"51134215688","owner":"164600255@N07","secret":"4baa759de8","server":"65535","farm":66,"title":"Cassin's Delight","ispublic":1,"isfriend":0,"isfamily":0},{"id":"51126599692","owner":"185443397@N07","secret":"aed1994785","server":"65535","farm":66,"title":"Cassin's Kingbird (Tyrannus vociferans)","ispublic":1,"isfriend":0,"isfamily":0},{"id":"51122382941","owner":"21558080@N07","secret":"5a8c9d14ed","server":"65535","farm":66,"title":"Cassin's Kingbird (Tyrannus vociferans)","ispublic":1,"isfriend":0,"isfamily":0},{"id":"51085867531","owner":"48912028@N05","secret":"cc72c1c800","server":"65535","farm":66,"title":"Cassin's Kingbird, Tyrannus vociferans","ispublic":1,"isfriend":0,"isfamily":0},{"id":"50972189048","owner":"26371261@N00","secret":"13dd3b6fec","server":"65535","farm":66,"title":"Cassin's Kingbird, Tyrannus vociferans","ispublic":1,"isfriend":0,"isfamily":0},{"id":"50972983987","owner":"26371261@N00","secret":"16c136f756","server":"65535","farm":66,"title":"Cassin's Kingbird, Tyrannus vociferans","ispublic":1,"isfriend":0,"isfamily":0},{"id":"50952008896","owner":"61316002@N02","secret":"885379d4d8","server":"65535","farm":66,"title":"CASKIN 1500","ispublic":1,"isfriend":0,"isfamily":0},{"id":"50907924433","owner":"86569066@N00","secret":"29137a7656","server":"65535","farm":66,"title":"Launch!","ispublic":1,"isfriend":0,"isfamily":0},{"id":"50888272598","owner":"185659367@N04","secret":"d3d4320089","server":"65535","farm":66,"title":"Cassin's Kingbird","ispublic":1,"isfriend":0,"isfamily":0},{"id":"52580759905","owner":"153973412@N04","secret":"36bb77c08f","server":"65535","farm":66,"title":"Cassin's Kingbird-Tyrannus vociferans, San Diego, CA","ispublic":1,"isfriend":0,"isfamily":0},{"id":"52576274482","owner":"103722035@N06","secret":"83da7eb705","server":"0","farm":0,"title":"Cassin's Kingbird (Tyrannus vociferans), Cal Poly, San Luis Obispo, CA","ispublic":1,"isfriend":0,"isfamily":0},{"id":"52543923698","owner":"33610210@N05","secret":"793e5d7cfb","server":"65535","farm":66,"title":"Cassin's Kingbird, Tyrannus vociferans","ispublic":1,"isfriend":0,"isfamily":0},{"id":"52543670754","owner":"33610210@N05","secret":"0e2975ddcb","server":"65535","farm":66,"title":"Cassin's Kingbird, Tyrannus vociferans","ispublic":1,"isfriend":0,"isfamily":0},{"id":"52541346049","owner":"33610210@N05","secret":"72d12120f1","server":"65535","farm":66,"title":"Cassin's Kingbird, Tyrannus vociferans","ispublic":1,"isfriend":0,"isfamily":0},{"id":"52495508844","owner":"64557331@N04","secret":"16c2b0a64b","server":"65535","farm":66,"title":"Eastern Kingbird  (Tyrannus vociferans)_07232022","ispublic":1,"isfriend":0,"isfamily":0},{"id":"52431259474","owner":"103722035@N06","secret":"6942d2277a","server":"0","farm":0,"title":"Tropical Kingbird (Tyrannus melancholicus) & Cassin's Kingbird (Tyrannus vociferans),   Morro Bay, CA","ispublic":1,"isfriend":0,"isfamily":0},{"id":"52396286988","owner":"59619528@N04","secret":"cd09e0f5a7","server":"65535","farm":66,"title":"Cassin's Kingbird  (Tyrannus vociferans)","ispublic":1,"isfriend":0,"isfamily":0},{"id":"52339371956","owner":"132165466@N08","secret":"56fd49be39","server":"65535","farm":66,"title":"Cassin's Kingbird","ispublic":1,"isfriend":0,"isfamily":0},{"id":"52339801635","owner":"132165466@N08","secret":"4e9ed6c0dd","server":"65535","farm":66,"title":"Cassin's Kingbird","ispublic":1,"isfriend":0,"isfamily":0},{"id":"52337592950","owner":"132165466@N08","secret":"66f6c44ea1","server":"65535","farm":66,"title":"Cassin's Kingbird","ispublic":1,"isfriend":0,"isfamily":0},{"id":"52337401393","owner":"132165466@N08","secret":"616dd054d8","server":"65535","farm":66,"title":"Cassin's Kingbird","ispublic":1,"isfriend":0,"isfamily":0},{"id":"52337401398","owner":"132165466@N08","secret":"72487fd22e","server":"65535","farm":66,"title":"Cassin's Kingbird","ispublic":1,"isfriend":0,"isfamily":0},{"id":"52242066855","owner":"91620959@N08","secret":"f1c332cfc2","server":"65535","farm":66,"title":"Cassin's kingbird (Tyrannus vociferans)","ispublic":1,"isfriend":0,"isfamily":0},{"id":"52230613863","owner":"103722035@N06","secret":"ae691934a2","server":"65535","farm":66,"title":"Cassin's Kingbird (Tyrannus vociferans), Los Osos, CA","ispublic":1,"isfriend":0,"isfamily":0},{"id":"52204542121","owner":"143326780@N02","secret":"8a3073c9c3","server":"65535","farm":66,"title":"DSCN6067","ispublic":1,"isfriend":0,"isfamily":0},{"id":"52204562318","owner":"143326780@N02","secret":"873f6b32a2","server":"65535","farm":66,"title":"DSCN6069","ispublic":1,"isfriend":0,"isfamily":0},{"id":"52155842914","owner":"143326780@N02","secret":"b50d352a4d","server":"65535","farm":66,"title":"DSCN3607","ispublic":1,"isfriend":0,"isfamily":0},{"id":"52155810554","owner":"143326780@N02","secret":"4f032ab020","server":"65535","farm":66,"title":"DSCN3601","ispublic":1,"isfriend":0,"isfamily":0},{"id":"52138736559","owner":"19708855@N00","secret":"cfc04fa913","server":"65535","farm":66,"title":"Cassin's Kingbird Chasing a Bug","ispublic":1,"isfriend":0,"isfamily":0},{"id":"52134959019","owner":"195753655@N08","secret":"8b22f03784","server":"65535","farm":66,"title":"56. Cassin's Kingbird(Tyrannus vociferans) (telephoto)","ispublic":1,"isfriend":0,"isfamily":0},{"id":"52072651281","owner":"62043870@N05","secret":"f89343d770","server":"65535","farm":66,"title":"Cassin's Kingbird, Tyrannus vociferans","ispublic":1,"isfriend":0,"isfamily":0},{"id":"51943889134","owner":"48014585@N00","secret":"6b64726066","server":"65535","farm":66,"title":"Cassin's Kingbird","ispublic":1,"isfriend":0,"isfamily":0},{"id":"51940018215","owner":"103722035@N06","secret":"955f9a781d","server":"0","farm":0,"title":"Cassin's Kingbird (Tyrannus vociferans), Shandon, CA","ispublic":1,"isfriend":0,"isfamily":0},{"id":"51924367191","owner":"146080804@N02","secret":"c7f414b168","server":"65535","farm":66,"title":"Cassin's Kingbird (Tyrannus vociferans)","ispublic":1,"isfriend":0,"isfamily":0},{"id":"51826250607","owner":"32752434@N07","secret":"3f014425f3","server":"65535","farm":66,"title":"Cassin's Kingbird (Tyrannus vociferans)","ispublic":1,"isfriend":0,"isfamily":0},{"id":"51726092490","owner":"103722035@N06","secret":"77b587e10d","server":"0","farm":0,"title":"Cassin's Kingbird (Tyrannus vociferans), Los Osos, CA","ispublic":1,"isfriend":0,"isfamily":0},{"id":"51583290858","owner":"19708855@N00","secret":"fc025911ab","server":"65535","farm":66,"title":"Cassin's Kingbird","ispublic":1,"isfriend":0,"isfamily":0},{"id":"51583731484","owner":"19708855@N00","secret":"82dbae57c1","server":"65535","farm":66,"title":"Cassin's Kingbird","ispublic":1,"isfriend":0,"isfamily":0},{"id":"51362800121","owner":"48014585@N00","secret":"bd75308949","server":"65535","farm":66,"title":"Cassin's Kingbird","ispublic":1,"isfriend":0,"isfamily":0},{"id":"51302725466","owner":"89246322@N04","secret":"898a5a1977","server":"0","farm":0,"title":"Cassin's Kingbird - Tyrannus vociferans","ispublic":1,"isfriend":0,"isfamily":0},{"id":"51288834267","owner":"89246322@N04","secret":"bbefe44dc4","server":"65535","farm":66,"title":"Cassin's Kingbird - Tyrannus vociferans","ispublic":1,"isfriend":0,"isfamily":0},{"id":"51276801170","owner":"103722035@N06","secret":"d4f7bfb0f9","server":"0","farm":0,"title":"Cassin's Kingbird (Tyrannus vociferans), Shandon, CA","ispublic":1,"isfriend":0,"isfamily":0},{"id":"51212035104","owner":"15078827@N05","secret":"4c897bbff2","server":"65535","farm":66,"title":"Cassin's Kingbird (Tyrannus vociferans)","ispublic":1,"isfriend":0,"isfamily":0},{"id":"51133994726","owner":"164600255@N07","secret":"a5fd9b626a","server":"65535","farm":66,"title":"Inquisitive Cassin's","ispublic":1,"isfriend":0,"isfamily":0},{"id":"51093185973","owner":"92009354@N00","secret":"5e6b30375d","server":"65535","farm":66,"title":"Cassin's Kingbird","ispublic":1,"isfriend":0,"isfamily":0},{"id":"51051155728","owner":"48912028@N05","secret":"6db1528da1","server":"65535","farm":66,"title":"Cassin's Kingbird, Tyrannus vociferans","ispublic":1,"isfriend":0,"isfamily":0},{"id":"50972984112","owner":"26371261@N00","secret":"1e70fa7225","server":"65535","farm":66,"title":"Cassin's Kingbird, Tyrannus vociferans","ispublic":1,"isfriend":0,"isfamily":0},{"id":"50924223712","owner":"89246322@N04","secret":"64bca754ae","server":"65535","farm":66,"title":"Cassin's Kingbird - Tyrannus vociferans","ispublic":1,"isfriend":0,"isfamily":0},{"id":"50854363793","owner":"9731845@N02","secret":"d68a9a7779","server":"0","farm":0,"title":"Cassins Kingbird","ispublic":1,"isfriend":0,"isfamily":0},{"id":"50855002042","owner":"62043870@N05","secret":"a0e8e1ea9f","server":"65535","farm":66,"title":"Cassin's Kingbird, Tyrannus vociferans","ispublic":1,"isfriend":0,"isfamily":0},{"id":"50847932572","owner":"25899079@N08","secret":"fef973daa0","server":"65535","farm":66,"title":"Cassin's Kingbird (9759)","ispublic":1,"isfriend":0,"isfamily":0}]},"stat":"ok"}