{"photos":{"page":1,"pages":206,"perpage":100,"total":20569,"photo":[{"id":"52723880165","owner":"127317522@N03","secret":"5340442804","server":"65535","farm":66,"title":"H\u00e9ron garde-boeufs - Bubulcus ibis","ispublic":1,"isfriend":0,"isfamily":0},{"id":"52723541795","owner":"12639178@N07","secret":"70264a6b76","server":"65535","farm":66,"title":"Kuhreiher","ispublic":1,"isfriend":0,"isfamily":0},{"id":"52723083164","owner":"55865049@N07","secret":"2eeabf759a","server":"65535","farm":66,"title":"2023.01.23 - 4524 - H\u00e9ron gardeboeufs Bocoan \u00a9","ispublic":1,"isfriend":0,"isfamily":0},{"id":"52723083134","owner":"55865049@N07","secret":"1734465c36","server":"65535","farm":66,"title":"2023.01.23 - 4525 - H\u00e9ron gardeboeufs Bocoan \u00a9","ispublic":1,"isfriend":0,"isfamily":0},{"id":"52722166758","owner":"145907835@N07","secret":"61a4cf6587","server":"65535","farm":66,"title":"Koereiger - Bubulcus ibis","ispublic":1,"isfriend":0,"isfamily":0},{"id":"52722092550","owner":"145907835@N07","secret":"5727745a19","server":"65535","farm":66,"title":"Koereiger - Bubulcus ibis","ispublic":1,"isfriend":0,"isfamily":0},{"id":"52722165748","owner":"145907835@N07","secret":"4d0abe373f","server":"65535","farm":66,"title":"Koereiger - Bubulcus ibis","ispublic":1,"isfriend":0,"isfamily":0},{"id":"52721689514","owner":"83668077@N08","secret":"a0c8d12b02","server":"65535","farm":66,"title":"Bubulcus ibis","ispublic":1,"isfriend":0,"isfamily":0},{"id":"52719712768","owner":"52450054@N04","secret":"2c8702fef4","server":"65535","farm":66,"title":"Cattle Egret - Bubulcus ibis, Galapagos, Ecuador, July 14, 2021","ispublic":1,"isfriend":0,"isfamily":0},{"id":"52719429908","owner":"55865049@N07","secret":"0def6662de","server":"65535","farm":66,"title":"2023.01.22 - 4497 - H\u00e9ron gardeboeufs Bocoan \u00a9","ispublic":1,"isfriend":0,"isfamily":0},{"id":"52718419342","owner":"55865049@N07","secret":"849ecca278","server":"65535","farm":66,"title":"2023.01.22 - 4500 - H\u00e9ron gardeboeufs Bocoan \u00a9","ispublic":1,"isfriend":0,"isfamily":0},{"id":"52717292650","owner":"55865049@N07","secret":"26485bc28b","server":"65535","farm":66,"title":"2023.01.21 - 4490 - H\u00e9ron gardeboeufs Bocoan \u00a9","ispublic":1,"isfriend":0,"isfamily":0},{"id":"52716343627","owner":"55865049@N07","secret":"cca168aaec","server":"65535","farm":66,"title":"2023.01.21 - 4492 - H\u00e9ron gardeboeufs Bocoan \u00a9","ispublic":1,"isfriend":0,"isfamily":0},{"id":"52716041978","owner":"12639178@N07","secret":"d75de12be5","server":"65535","farm":66,"title":"Kuhreiher in den Salzwiesen von Jandia","ispublic":1,"isfriend":0,"isfamily":0},{"id":"52713842402","owner":"55865049@N07","secret":"80d90d1bc6","server":"65535","farm":66,"title":"2023.01.21 - 4488 - H\u00e9ron gardeboeufs Bocoan \u00a9","ispublic":1,"isfriend":0,"isfamily":0},{"id":"52713842427","owner":"55865049@N07","secret":"72cd7b3177","server":"65535","farm":66,"title":"2023.01.21 - 4481 - H\u00e9ron gardeboeufs Bocoan \u00a9","ispublic":1,"isfriend":0,"isfamily":0},{"id":"52712447825","owner":"131918873@N03","secret":"66e4514143","server":"65535","farm":66,"title":"DSP07924 - Cattle Egret (Bubulcus ibis)","ispublic":1,"isfriend":0,"isfamily":0},{"id":"52712508473","owner":"131918873@N03","secret":"fddd64515a","server":"65535","farm":66,"title":"DSP07928 - Cattle Egret (Bubulcus ibis)","ispublic":1,"isfriend":0,"isfamily":0},{"id":"52709901518","owner":"65695019@N07","secret":"8a2d94d67b","server":"65535","farm":66,"title":"Cattle Egret (Bubulcus ibis)","ispublic":1,"isfriend":0,"isfamily":0},{"id":"52709495828","owner":"83668077@N08","secret":"a94099f229","server":"65535","farm":66,"title":"Bubulcus ibis","ispublic":1,"isfriend":0,"isfamily":0},{"id":"52707931872","owner":"12639178@N07","secret":"e6e59006ab","server":"65535","farm":66,"title":"Kuhreiher Oostered Texel 2023-02-24","ispublic":1,"isfriend":0,"isfamily":0},{"id":"52708072521","owner":"190720383@N05","secret":"e0a875235b","server":"65535","farm":66,"title":"Bubulcus ibis (Garcilla bueyera, H\u00e9ron garde-b\u0153ufs, Cattle egret)","ispublic":1,"isfriend":0,"isfamily":0},{"id":"52706295858","owner":"12639178@N07","secret":"360ef63264","server":"65535","farm":66,"title":"Kuhreiher (Bubulcus ibis) (1)","ispublic":1,"isfriend":0,"isfamily":0},{"id":"52704675842","owner":"147580042@N02","secret":"ccea3e0602","server":"65535","farm":66,"title":"DSC09942_N - Tsiribihina Gar\u00e7a-Boieira","ispublic":1,"isfriend":0,"isfamily":0},{"id":"52704675822","owner":"147580042@N02","secret":"2a54748bf3","server":"65535","farm":66,"title":"DSC09945_N - Tsiribihina Gar\u00e7a-Boieira","ispublic":1,"isfriend":0,"isfamily":0},{"id":"52704153489","owner":"162842557@N06","secret":"ca3020b9b6","server":"65535","farm":66,"title":"Bubulcus ibis","ispublic":1,"isfriend":0,"isfamily":0},{"id":"52704381998","owner":"162842557@N06","secret":"fcdefbfbc8","server":"65535","farm":66,"title":"Bubulcus ibis","ispublic":1,"isfriend":0,"isfamily":0},{"id":"52703376177","owner":"162842557@N06","secret":"3eac891efd","server":"65535","farm":66,"title":"Bubulcus ibis","ispublic":1,"isfriend":0,"isfamily":0},{"id":"52704318215","owner":"162842557@N06","secret":"764c1dfc14","server":"65535","farm":66,"title":"Bubulcus ibis","ispublic":1,"isfriend":0,"isfamily":0},{"id":"52703898196","owner":"162842557@N06","secret":"d9dcb6b45a","server":"65535","farm":66,"title":"Bubulcus ibis","ispublic":1,"isfriend":0,"isfamily":0},{"id":"52703924540","owner":"12639178@N07","secret":"ce4eff6184","server":"65535","farm":66,"title":"Kuhreiher (Bubulcus ibis) (1)","ispublic":1,"isfriend":0,"isfamily":0},{"id":"52702556262","owner":"45109166@N00","secret":"cb8f5f8e81","server":"65535","farm":66,"title":"Bubulcus ibis","ispublic":1,"isfriend":0,"isfamily":0},{"id":"52702520910","owner":"110148017@N06","secret":"db53308fcb","server":"65535","farm":66,"title":"\u9ec3\u982d\u9dfa Bubulcus ibis","ispublic":1,"isfriend":0,"isfamily":0},{"id":"52702104121","owner":"110148017@N06","secret":"5c3e25fd43","server":"65535","farm":66,"title":"\u9ec3\u982d\u9dfa Bubulcus ibis","ispublic":1,"isfriend":0,"isfamily":0},{"id":"52699306078","owner":"83668077@N08","secret":"8d061590b2","server":"65535","farm":66,"title":"Egretta garzetta - Bubulcus ibis","ispublic":1,"isfriend":0,"isfamily":0},{"id":"52699305648","owner":"83668077@N08","secret":"778ab7512b","server":"65535","farm":66,"title":"Bubulcus ibis","ispublic":1,"isfriend":0,"isfamily":0},{"id":"52699305628","owner":"83668077@N08","secret":"77860584b4","server":"65535","farm":66,"title":"Bubulcus ibis","ispublic":1,"isfriend":0,"isfamily":0},{"id":"52699075634","owner":"83668077@N08","secret":"7952db85e6","server":"65535","farm":66,"title":"Bubulcus ibis","ispublic":1,"isfriend":0,"isfamily":0},{"id":"52699305228","owner":"83668077@N08","secret":"633a859c95","server":"65535","farm":66,"title":"Bubulcus ibis","ispublic":1,"isfriend":0,"isfamily":0},{"id":"52699040243","owner":"196341853@N06","secret":"2321c1659f","server":"65535","farm":66,"title":"Bubulcus ibis","ispublic":1,"isfriend":0,"isfamily":0},{"id":"52699040158","owner":"196341853@N06","secret":"61f425b4a2","server":"65535","farm":66,"title":"Bubulcus ibis","ispublic":1,"isfriend":0,"isfamily":0},{"id":"52695789387","owner":"83668077@N08","secret":"9bcc8e83ac","server":"65535","farm":66,"title":"Bubulcus ibis","ispublic":1,"isfriend":0,"isfamily":0},{"id":"52696566024","owner":"83668077@N08","secret":"a27a9f4aca","server":"65535","farm":66,"title":"Bubulcus ibis","ispublic":1,"isfriend":0,"isfamily":0},{"id":"52695501872","owner":"27480477@N07","secret":"c3ab17c1e1","server":"65535","farm":66,"title":"DSC03759 Koereiger, Cattle Egret, Bubulcus ibis.","ispublic":1,"isfriend":0,"isfamily":0},{"id":"52692663046","owner":"127635832@N07","secret":"571eefc254","server":"65535","farm":66,"title":"Gar\u00e7a-boieira | Cattle Egret (Bubulcus ibis)","ispublic":1,"isfriend":0,"isfamily":0},{"id":"52692621670","owner":"110148017@N06","secret":"7960382c11","server":"65535","farm":66,"title":"\u9ec3\u982d\u9dfa Bubulcus ibis","ispublic":1,"isfriend":0,"isfamily":0},{"id":"52691399660","owner":"152461355@N03","secret":"1d18c89730","server":"65535","farm":66,"title":"Western Cattle Egret (Bubulcus ibis ssp. ibis)","ispublic":1,"isfriend":0,"isfamily":0},{"id":"52689804228","owner":"51433704@N06","secret":"4819159bd1","server":"65535","farm":66,"title":"Cattle Egret","ispublic":1,"isfriend":0,"isfamily":0},{"id":"52687596839","owner":"36685968@N00","secret":"d4dd36b8f7","server":"65535","farm":66,"title":"Cattle Egret (Bubulcus ibis)","ispublic":1,"isfriend":0,"isfamily":0},{"id":"52685783441","owner":"36685968@N00","secret":"b4d627df30","server":"65535","farm":66,"title":"Cattle Egret (Bubulcus ibis)","ispublic":1,"isfriend":0,"isfamily":0},{"id":"52683629308","owner":"140318147@N08","secret":"03234ccb8f","server":"65535","farm":66,"title":"western cattle egret (Bubulcus ibis) L4A1844","ispublic":1,"isfriend":0,"isfamily":0},{"id":"52682634261","owner":"34207648@N07","secret":"a2e7f7626e","server":"65535","farm":66,"title":"Cattle Egret with lizard tail (Bubulcus ibis) - 2 clicks for close up","ispublic":1,"isfriend":0,"isfamily":0},{"id":"52682782679","owner":"144217344@N03","secret":"c27853b586","server":"65535","farm":66,"title":"Gisela_Nagel-Fl-9529-Kuhreiher","ispublic":1,"isfriend":0,"isfamily":0},{"id":"52681791117","owner":"51031146@N06","secret":"a65b65c6ef","server":"65535","farm":66,"title":"H\u00e9rons garde-boeufs (Bubulcus ibis)","ispublic":1,"isfriend":0,"isfamily":0},{"id":"52682301355","owner":"26371261@N00","secret":"bf66e6d890","server":"65535","farm":66,"title":"Cattle Egret, Bubulcus ibis","ispublic":1,"isfriend":0,"isfamily":0},{"id":"52682369168","owner":"26371261@N00","secret":"5ab01862fb","server":"65535","farm":66,"title":"Cattle Egret, Bubulcus ibis","ispublic":1,"isfriend":0,"isfamily":0},{"id":"52681167656","owner":"34689777@N08","secret":"fbc76b41f8","server":"65535","farm":66,"title":"Roost of Cattle Egrets (Bubulcus ibis) at Belen Marsh in morning light. Valencia Co., New Mexico, USA.","ispublic":1,"isfriend":0,"isfamily":0},{"id":"52679139926","owner":"8043254@N05","secret":"1160f1334e","server":"65535","farm":66,"title":"Bubulcus Ibis","ispublic":1,"isfriend":0,"isfamily":0},{"id":"52679638858","owner":"8043254@N05","secret":"169b07f318","server":"65535","farm":66,"title":"Bubulcus Ibis","ispublic":1,"isfriend":0,"isfamily":0},{"id":"52679426284","owner":"8043254@N05","secret":"e9c8b987f9","server":"65535","farm":66,"title":"Bubulcus Ibis","ispublic":1,"isfriend":0,"isfamily":0},{"id":"52679448350","owner":"189076226@N07","secret":"6e06a847f1","server":"65535","farm":66,"title":"Cattle Egret staring the photographer down","ispublic":1,"isfriend":0,"isfamily":0},{"id":"52677887542","owner":"52450054@N04","secret":"63ecfdc17a","server":"65535","farm":66,"title":"Cattle Egret - Bubulcus ibis, Okeechobee, Florida, April 21, 2021","ispublic":1,"isfriend":0,"isfamily":0},{"id":"52676879797","owner":"197653711@N02","secret":"397af692b9","server":"65535","farm":66,"title":"Garcilla Bueyera \/ The cattle egret (Bubulcus ibis)","ispublic":1,"isfriend":0,"isfamily":0},{"id":"52677040363","owner":"76617062@N08","secret":"ed49f6efa1","server":"65535","farm":66,"title":"1.02107 H\u00e9ron garde-boeufs \/ Bubulcus ibis coromandus \/ Cattle Egret","ispublic":1,"isfriend":0,"isfamily":0},{"id":"52675952621","owner":"71185522@N00","secret":"07524fd936","server":"65535","farm":66,"title":"Cattle Egret","ispublic":1,"isfriend":0,"isfamily":0},{"id":"52675959135","owner":"12639178@N07","secret":"92f15a1afd","server":"65535","farm":66,"title":"Reierchen","ispublic":1,"isfriend":0,"isfamily":0},{"id":"52671149178","owner":"189149566@N04","secret":"c02d45566a","server":"65535","farm":66,"title":"Apr\u00e8s la pluie","ispublic":1,"isfriend":0,"isfamily":0},{"id":"52670512881","owner":"25783275@N05","secret":"7a01e07cbd","server":"65535","farm":66,"title":"Cattle Egret","ispublic":1,"isfriend":0,"isfamily":0},{"id":"52670938015","owner":"25783275@N05","secret":"a9ff854de2","server":"65535","farm":66,"title":"Cattle Egret & horses","ispublic":1,"isfriend":0,"isfamily":0},{"id":"52670494711","owner":"25783275@N05","secret":"91edce22aa","server":"65535","farm":66,"title":"cattle egret","ispublic":1,"isfriend":0,"isfamily":0},{"id":"52669990902","owner":"25783275@N05","secret":"10dcedb86e","server":"65535","farm":66,"title":"cattle egret","ispublic":1,"isfriend":0,"isfamily":0},{"id":"52669990577","owner":"25783275@N05","secret":"e342d63f67","server":"65535","farm":66,"title":"cattle egret","ispublic":1,"isfriend":0,"isfamily":0},{"id":"52670992458","owner":"25783275@N05","secret":"d5f7bba1b8","server":"65535","farm":66,"title":"cattle egret & horse","ispublic":1,"isfriend":0,"isfamily":0},{"id":"52670991828","owner":"25783275@N05","secret":"3439ee6aeb","server":"65535","farm":66,"title":"cattle egret","ispublic":1,"isfriend":0,"isfamily":0},{"id":"52669957504","owner":"189149566@N04","secret":"66a2be467d","server":"65535","farm":66,"title":"L\u2019exode","ispublic":1,"isfriend":0,"isfamily":0},{"id":"52668014322","owner":"163890741@N05","secret":"a211611b34","server":"65535","farm":66,"title":"CATTLE EGRET","ispublic":1,"isfriend":0,"isfamily":0},{"id":"52668418899","owner":"163890741@N05","secret":"b8179c021a","server":"65535","farm":66,"title":"CATTLE EGRET","ispublic":1,"isfriend":0,"isfamily":0},{"id":"52666602677","owner":"189149566@N04","secret":"2f44476bb7","server":"65535","farm":66,"title":"Tu viens ?","ispublic":1,"isfriend":0,"isfamily":0},{"id":"52666302657","owner":"34207648@N07","secret":"7200251e8e","server":"65535","farm":66,"title":"Cattle Egret - (Bubulcus ibis) - 2 clicks for close up","ispublic":1,"isfriend":0,"isfamily":0},{"id":"52664511252","owner":"189149566@N04","secret":"0bab63a8b3","server":"65535","farm":66,"title":"Trois piliers de la sagesse","ispublic":1,"isfriend":0,"isfamily":0},{"id":"52662500655","owner":"36685968@N00","secret":"0d97190c5b","server":"65535","farm":66,"title":"Cattle Egret (Bubulcus ibis)","ispublic":1,"isfriend":0,"isfamily":0},{"id":"52662110353","owner":"196127020@N02","secret":"631aac9a25","server":"65535","farm":66,"title":"IBIS","ispublic":1,"isfriend":0,"isfamily":0},{"id":"52661619021","owner":"196127020@N02","secret":"0109c9df9b","server":"65535","farm":66,"title":"IBIS","ispublic":1,"isfriend":0,"isfamily":0},{"id":"52662110253","owner":"196127020@N02","secret":"5a161fb6bc","server":"65535","farm":66,"title":"IBIS","ispublic":1,"isfriend":0,"isfamily":0},{"id":"52662110203","owner":"196127020@N02","secret":"3680971af9","server":"65535","farm":66,"title":"IBIS","ispublic":1,"isfriend":0,"isfamily":0},{"id":"52661118427","owner":"196127020@N02","secret":"23f6a9b3a1","server":"65535","farm":66,"title":"IBIS","ispublic":1,"isfriend":0,"isfamily":0},{"id":"52662110123","owner":"196127020@N02","secret":"30a3b826d8","server":"65535","farm":66,"title":"IBIS","ispublic":1,"isfriend":0,"isfamily":0},{"id":"52662110088","owner":"196127020@N02","secret":"6139c79ea0","server":"65535","farm":66,"title":"IBIS","ispublic":1,"isfriend":0,"isfamily":0},{"id":"52662061775","owner":"196127020@N02","secret":"3d45fd89fa","server":"65535","farm":66,"title":"IBIS","ispublic":1,"isfriend":0,"isfamily":0},{"id":"52660953640","owner":"108260302@N02","secret":"5acb48f683","server":"65535","farm":66,"title":"Cattle Egret, Derbyshire","ispublic":1,"isfriend":0,"isfamily":0},{"id":"52660508926","owner":"108260302@N02","secret":"414b616686","server":"65535","farm":66,"title":"Cattle Egret, Derbyshire","ispublic":1,"isfriend":0,"isfamily":0},{"id":"52660999848","owner":"108260302@N02","secret":"631bf83aa9","server":"65535","farm":66,"title":"Cattle Egret, Derbyshire","ispublic":1,"isfriend":0,"isfamily":0},{"id":"52660728624","owner":"189149566@N04","secret":"08e9382388","server":"65535","farm":66,"title":"L'un dans l'autre","ispublic":1,"isfriend":0,"isfamily":0},{"id":"52659981738","owner":"12639178@N07","secret":"5ed9e4d3a7","server":"65535","farm":66,"title":"Kuhreiher in Morro Jable","ispublic":1,"isfriend":0,"isfamily":0},{"id":"52659377276","owner":"195884879@N06","secret":"813a196499","server":"65535","farm":66,"title":"Bubulcus ibis","ispublic":1,"isfriend":0,"isfamily":0},{"id":"52656906408","owner":"50307457@N08","secret":"5559c1002c","server":"65535","farm":66,"title":"Chittoor Birds-248 - Bubulcus ibis","ispublic":1,"isfriend":0,"isfamily":0},{"id":"52656572984","owner":"65695019@N07","secret":"8889a73fcb","server":"65535","farm":66,"title":"Cattle Egrets (Bubulcus ibis)","ispublic":1,"isfriend":0,"isfamily":0},{"id":"52655211042","owner":"55865049@N07","secret":"0ecd9046fb","server":"65535","farm":66,"title":"2023.01.16 - 4303 - H\u00e9ron gardeboeufs Bocoan \u00a9","ispublic":1,"isfriend":0,"isfamily":0},{"id":"52655211037","owner":"55865049@N07","secret":"133ee56e5f","server":"65535","farm":66,"title":"2023.01.16 - 4305 - H\u00e9ron gardeboeufs Bocoan \u00a9","ispublic":1,"isfriend":0,"isfamily":0},{"id":"52697071788","owner":"21657471@N04","secret":"a35dc71fb3","server":"65535","farm":66,"title":"Bubulcus ibis (Linnaeus, 1758) - Cattle egret","ispublic":1,"isfriend":0,"isfamily":0}]},"stat":"ok"}