{"photos":{"page":1,"pages":2,"perpage":100,"total":101,"photo":[{"id":"51671069274","owner":"44096805@N07","secret":"4f91a5fc1c","server":"65535","farm":66,"title":"Chabert Vanga (Leptopterus c. chabert)","ispublic":1,"isfriend":0,"isfamily":0},{"id":"50806680531","owner":"61827574@N03","secret":"417502c332","server":"65535","farm":66,"title":"Chabert's Vanga - Leptopterus chabert","ispublic":1,"isfriend":0,"isfamily":0},{"id":"48986365296","owner":"95610786@N07","secret":"62749df7e2","server":"65535","farm":66,"title":"Artamie chabert Leptopterus chabert - Chabert Vanga 0998_DxO","ispublic":1,"isfriend":0,"isfamily":0},{"id":"48965469387","owner":"25872797@N02","secret":"294454f8c6","server":"65535","farm":66,"title":"Chabert Vanga (Leptopterus chabert)","ispublic":1,"isfriend":0,"isfamily":0},{"id":"46311157162","owner":"90764954@N07","secret":"acd5f6900f","server":"4892","farm":5,"title":"Madagascan cuckoo-hawk, Madagascar baza or the Madagascan cuckoo falcon (Aviceda madagascariensis) \u9a6c\u5c9b\u9e43\u96bc, Chabert vanga (Leptopterus chabert) \u9ed1\u94a9\u5634\u9d59","ispublic":1,"isfriend":0,"isfamily":0},{"id":"46362023561","owner":"90764954@N07","secret":"af60f7d798","server":"4812","farm":5,"title":"Chabert vanga (Leptopterus chabert) \u9ed1\u94a9\u5634\u9d59","ispublic":1,"isfriend":0,"isfamily":0},{"id":"31345528087","owner":"52648738@N03","secret":"3179815ede","server":"4890","farm":5,"title":"Chabert Vanga widespread subspecies","ispublic":1,"isfriend":0,"isfamily":0},{"id":"42070667810","owner":"163072423@N02","secret":"da2a97162e","server":"1791","farm":2,"title":"Chabert Vanga (Leptopterus chabert)","ispublic":1,"isfriend":0,"isfamily":0},{"id":"41869612660","owner":"29170368@N03","secret":"d2c0581dc5","server":"65535","farm":66,"title":"Chabert Vanga","ispublic":1,"isfriend":0,"isfamily":0},{"id":"39611674490","owner":"98060993@N06","secret":"bb49f5c55a","server":"822","farm":1,"title":"(Species #1224) Endemic CHABERT VANGA  [ Ranomafana National Park, Madagascar ]","ispublic":1,"isfriend":0,"isfamily":0},{"id":"39506490115","owner":"106773832@N02","secret":"f950ef1732","server":"4664","farm":5,"title":"Chabert Vanga (Leptopterus chabert) _DSC0340-editCC","ispublic":1,"isfriend":0,"isfamily":0},{"id":"40403027801","owner":"106773832@N02","secret":"216a0b51f5","server":"4652","farm":5,"title":"Chabert Vanga (Leptopterus chabert) _DSC0601-editCC","ispublic":1,"isfriend":0,"isfamily":0},{"id":"38550756860","owner":"106773832@N02","secret":"25cd66a857","server":"4624","farm":5,"title":"Chabert's Vanga (Leptopterus chabert) _DSC9764-editCC","ispublic":1,"isfriend":0,"isfamily":0},{"id":"38766070722","owner":"48907812@N00","secret":"b59031c2aa","server":"4581","farm":5,"title":"Chabert Vanga (Leptopterus chabert)","ispublic":1,"isfriend":0,"isfamily":0},{"id":"36380953075","owner":"33277678@N03","secret":"429d684d04","server":"4380","farm":5,"title":"Madagascar '17","ispublic":1,"isfriend":0,"isfamily":0},{"id":"36152277811","owner":"33277678@N03","secret":"b49716725c","server":"4309","farm":5,"title":"Madagascar '17","ispublic":1,"isfriend":0,"isfamily":0},{"id":"32779000251","owner":"95482238@N02","secret":"6f21433e42","server":"3828","farm":4,"title":"chabert vanga - Ifaty, madagascar 3","ispublic":1,"isfriend":0,"isfamily":0},{"id":"32778999611","owner":"95482238@N02","secret":"493438cc02","server":"2765","farm":3,"title":"chabert vanga - Ifaty, madagascar","ispublic":1,"isfriend":0,"isfamily":0},{"id":"32870625975","owner":"68961563@N02","secret":"7e34c3039d","server":"2267","farm":3,"title":"Chabert's Vanga nest","ispublic":1,"isfriend":0,"isfamily":0},{"id":"32029038273","owner":"56686021@N04","secret":"fb09a362e8","server":"2783","farm":3,"title":"Chabert Vanga","ispublic":1,"isfriend":0,"isfamily":0},{"id":"32834131025","owner":"56686021@N04","secret":"5c29e0bd90","server":"2011","farm":3,"title":"Chabert Vanga","ispublic":1,"isfriend":0,"isfamily":0},{"id":"32453294890","owner":"56686021@N04","secret":"e79d4f8dfb","server":"3860","farm":4,"title":"Chabert Vanga","ispublic":1,"isfriend":0,"isfamily":0},{"id":"32221241250","owner":"68961563@N02","secret":"cef798b4a8","server":"313","farm":1,"title":"Chabert Vanga","ispublic":1,"isfriend":0,"isfamily":0},{"id":"32465257885","owner":"95482238@N02","secret":"c698303fa0","server":"745","farm":1,"title":"chabert vanga - ankarafantsika NP, madagascar","ispublic":1,"isfriend":0,"isfamily":0},{"id":"26744821375","owner":"14191740@N08","secret":"c4b93661c8","server":"1702","farm":2,"title":"Chabert's Vanga, Analamazoatra, Madagascar","ispublic":1,"isfriend":0,"isfamily":0},{"id":"22914750644","owner":"8327478@N03","secret":"2db38f911d","server":"732","farm":1,"title":"Chabert's Vanga (Leptopterus chabert)","ispublic":1,"isfriend":0,"isfamily":0},{"id":"23315560862","owner":"52648738@N03","secret":"db69df43c8","server":"681","farm":1,"title":"Chabert Vanga southwestern subspecies","ispublic":1,"isfriend":0,"isfamily":0},{"id":"22217631009","owner":"60165084@N05","secret":"4f929a85e5","server":"5794","farm":6,"title":"Chabert's Vanga (Leptopterus chabert)","ispublic":1,"isfriend":0,"isfamily":0},{"id":"18211013684","owner":"86687448@N03","secret":"8db5c44133","server":"3691","farm":4,"title":"Chabert Vanga (Leptopterus chabert) - Madagascar","ispublic":1,"isfriend":0,"isfamily":0},{"id":"17255200516","owner":"95482238@N02","secret":"d657936082","server":"8720","farm":9,"title":"chabert vanga at masoala NP, madagascar 2","ispublic":1,"isfriend":0,"isfamily":0},{"id":"17073727167","owner":"95482238@N02","secret":"9a8cf84b97","server":"7699","farm":8,"title":"chabert vanga at masoala NP, madagascar","ispublic":1,"isfriend":0,"isfamily":0},{"id":"15775136388","owner":"84267069@N08","secret":"5ed3b77555","server":"7566","farm":8,"title":"Madagascar Chabert Vanga","ispublic":1,"isfriend":0,"isfamily":0},{"id":"15769202808","owner":"84267069@N08","secret":"a518956c5a","server":"7462","farm":8,"title":"Chabert Vanga","ispublic":1,"isfriend":0,"isfamily":0},{"id":"14913731451","owner":"104988466@N08","secret":"86d834d528","server":"3873","farm":4,"title":"01. Artamie chabert - Leptopterus chabert - Chabert Vanga","ispublic":1,"isfriend":0,"isfamily":0},{"id":"12243141706","owner":"7457894@N04","secret":"7c5f8e44a7","server":"3752","farm":4,"title":"MAD13_03378a","ispublic":1,"isfriend":0,"isfamily":0},{"id":"12242747183","owner":"7457894@N04","secret":"67332793ec","server":"5493","farm":6,"title":"MAD13_03380a","ispublic":1,"isfriend":0,"isfamily":0},{"id":"12242746743","owner":"7457894@N04","secret":"fa16c1ce93","server":"7369","farm":8,"title":"MAD13_03386a","ispublic":1,"isfriend":0,"isfamily":0},{"id":"11553961073","owner":"52526646@N03","secret":"8ae4aab110","server":"3734","farm":4,"title":"PY Mad-2349_edited-1","ispublic":1,"isfriend":0,"isfamily":0},{"id":"8402345657","owner":"92425772@N05","secret":"af7c7f662b","server":"8493","farm":9,"title":"4876 White-headed Vanga","ispublic":1,"isfriend":0,"isfamily":0},{"id":"8207626838","owner":"76617062@N08","secret":"ba15bb9984","server":"8341","farm":9,"title":"1.16651 Artamie chabert \/ Leptopterus chabert chabert \/ Chabert Vanga","ispublic":1,"isfriend":0,"isfamily":0},{"id":"8153407200","owner":"11590393@N05","secret":"c250f48feb","server":"8341","farm":9,"title":"Chabert Vanga (Leptopterus chabert)","ispublic":1,"isfriend":0,"isfamily":0},{"id":"8033874569","owner":"77128742@N06","secret":"d4d57b8f19","server":"8322","farm":9,"title":"Elstervanga-schistocercus_Leptopterus chabert schistocercus-12","ispublic":1,"isfriend":0,"isfamily":0},{"id":"8033865908","owner":"77128742@N06","secret":"85822103ba","server":"8319","farm":9,"title":"Elstervanga_Leptopterus chabert-4","ispublic":1,"isfriend":0,"isfamily":0},{"id":"7790536386","owner":"56250744@N08","secret":"194c2b0db2","server":"7252","farm":8,"title":"Chabert's Vanga (Leptopterus chabert)","ispublic":1,"isfriend":0,"isfamily":0},{"id":"7004759125","owner":"8013969@N03","secret":"2ec55af434","server":"6060","farm":7,"title":"Leptopterus chabertDFL mad07-3","ispublic":1,"isfriend":0,"isfamily":0},{"id":"7004758857","owner":"8013969@N03","secret":"2f77524330","server":"6237","farm":7,"title":"Leptopterus chabertDFL mad07-1","ispublic":1,"isfriend":0,"isfamily":0},{"id":"6795452399","owner":"43577957@N04","secret":"f18093a41b","server":"7020","farm":8,"title":"Chabert Vanga (Leptopterus chabert) Elstervanga","ispublic":1,"isfriend":0,"isfamily":0},{"id":"6573249937","owner":"12624714@N07","secret":"d18d4ec3d9","server":"7011","farm":8,"title":"Chabert Vanga (Leptopterus chabert), Arboretum Antsokay, Madagascar","ispublic":1,"isfriend":0,"isfamily":0},{"id":"6336526962","owner":"18731552@N00","secret":"9516472cd5","server":"6213","farm":7,"title":"Chabert's Vanga 301V6635-3.jpg","ispublic":1,"isfriend":0,"isfamily":0},{"id":"5143584222","owner":"49819018@N06","secret":"c0a039cf15","server":"4048","farm":5,"title":"Chabert's vanga","ispublic":1,"isfriend":0,"isfamily":0},{"id":"5143581504","owner":"49819018@N06","secret":"9ee77ea5f2","server":"4069","farm":5,"title":"Chabert's vanga","ispublic":1,"isfriend":0,"isfamily":0},{"id":"4954295662","owner":"63661371@N00","secret":"1b80f8cabc","server":"4127","farm":5,"title":"Vanga de Chabert (Leptopterus chabert)","ispublic":1,"isfriend":0,"isfamily":0},{"id":"4308929999","owner":"42244964@N03","secret":"7cb9d7c3a7","server":"4069","farm":5,"title":"Chabert's Vanga, Mangily, Madagascar","ispublic":1,"isfriend":0,"isfamily":0},{"id":"4302159246","owner":"49811170@N00","secret":"c3de5d0f7c","server":"4003","farm":5,"title":"leptopterus chabert","ispublic":1,"isfriend":0,"isfamily":0},{"id":"2742075343","owner":"31109147@N00","secret":"ec5edf618a","server":"3011","farm":4,"title":"Madagascar 2007 - 0244","ispublic":1,"isfriend":0,"isfamily":0},{"id":"2106009350","owner":"89983334@N00","secret":"c08490af66","server":"2009","farm":3,"title":"Chabert's Vanga","ispublic":1,"isfriend":0,"isfamily":0},{"id":"49814349391","owner":"55968524@N04","secret":"107a5fe92f","server":"65535","farm":66,"title":"2M3A6756 - Chabert Vanga - Leptopterus chabert.jpg","ispublic":1,"isfriend":0,"isfamily":0},{"id":"47311863682","owner":"61456446@N06","secret":"b361a0763a","server":"7909","farm":8,"title":"0I7A7999.jpg","ispublic":1,"isfriend":0,"isfamily":0},{"id":"32490324608","owner":"90764954@N07","secret":"014ccfd824","server":"4825","farm":5,"title":"Chabert vanga (Leptopterus chabert) \u9ed1\u94a9\u5634\u9d59","ispublic":1,"isfriend":0,"isfamily":0},{"id":"46311156872","owner":"90764954@N07","secret":"ac2129bc18","server":"4915","farm":5,"title":"Madagascan cuckoo-hawk, Madagascar baza or the Madagascan cuckoo falcon (Aviceda madagascariensis) \u9a6c\u5c9b\u9e43\u96bc, Chabert vanga (Leptopterus chabert) \u9ed1\u94a9\u5634\u9d59","ispublic":1,"isfriend":0,"isfamily":0},{"id":"46346775411","owner":"90764954@N07","secret":"e8a23d6d99","server":"4875","farm":5,"title":"Chabert vanga (Leptopterus chabert) \u9ed1\u94a9\u5634\u9d59","ispublic":1,"isfriend":0,"isfamily":0},{"id":"42478717535","owner":"148870970@N03","secret":"7c7c5b564e","server":"925","farm":1,"title":"Leptopterus chabert 180625 2 Salary-Tulear (70)-59","ispublic":1,"isfriend":0,"isfamily":0},{"id":"26532286868","owner":"106773832@N02","secret":"e32975fb84","server":"4715","farm":5,"title":"Chabert Vanga (Leptopterus chabert) _DSC0313-editCC","ispublic":1,"isfriend":0,"isfamily":0},{"id":"33646021491","owner":"96568982@N06","secret":"2b00757570","server":"2805","farm":3,"title":"VANGA, Chabert","ispublic":1,"isfriend":0,"isfamily":0},{"id":"32092998392","owner":"56988458@N05","secret":"9de12eabfd","server":"414","farm":1,"title":"Chabert vanga (Leptopterus chabert)","ispublic":1,"isfriend":0,"isfamily":0},{"id":"29235914991","owner":"104988466@N08","secret":"8cd34e4b67","server":"8641","farm":9,"title":"100. Artamie chabert - Leptopterus chabert - Chabert Vanga","ispublic":1,"isfriend":0,"isfamily":0},{"id":"15870403616","owner":"34318245@N08","secret":"133ca7bec2","server":"65535","farm":66,"title":"0090638","ispublic":1,"isfriend":0,"isfamily":0},{"id":"15708715158","owner":"34318245@N08","secret":"e04a6d9270","server":"65535","farm":66,"title":"0090598","ispublic":1,"isfriend":0,"isfamily":0},{"id":"15111249990","owner":"30818542@N04","secret":"f95e0f01c7","server":"5596","farm":6,"title":"Chabert's Vanga - Andasib\u00e8 - Madagascar_S4E7930","ispublic":1,"isfriend":0,"isfamily":0},{"id":"14893816346","owner":"104988466@N08","secret":"0a0c8a4ea2","server":"5587","farm":6,"title":"02. Artamie chabert - Leptopterus chabert - Chabert Vanga","ispublic":1,"isfriend":0,"isfamily":0},{"id":"12068738735","owner":"7457894@N04","secret":"6ce29d16da","server":"7436","farm":8,"title":"MAD13_01829a","ispublic":1,"isfriend":0,"isfamily":0},{"id":"11980400956","owner":"7457894@N04","secret":"9c73140c4a","server":"5473","farm":6,"title":"MAD13_01145a","ispublic":1,"isfriend":0,"isfamily":0},{"id":"8329138338","owner":"61316002@N02","secret":"78b704a877","server":"8363","farm":9,"title":"CHAVAN 1210","ispublic":1,"isfriend":0,"isfamily":0},{"id":"8215181579","owner":"61316002@N02","secret":"395f373057","server":"8198","farm":9,"title":"CHAVAN 0541","ispublic":1,"isfriend":0,"isfamily":0},{"id":"8033875101","owner":"77128742@N06","secret":"bd756efb36","server":"8179","farm":9,"title":"Elstervanga-schistocercus_Leptopterus chabert schistocercus-15","ispublic":1,"isfriend":0,"isfamily":0},{"id":"8033875210","owner":"77128742@N06","secret":"8d2fbb9578","server":"8314","farm":9,"title":"Elstervanga-schistocercus_Leptopterus chabert schistocercus-13","ispublic":1,"isfriend":0,"isfamily":0},{"id":"8033874415","owner":"77128742@N06","secret":"1f71e73bd1","server":"8318","farm":9,"title":"Elstervanga-schistocercus_Leptopterus chabert schistocercus-11","ispublic":1,"isfriend":0,"isfamily":0},{"id":"8033874726","owner":"77128742@N06","secret":"7bb56ab0ff","server":"8040","farm":9,"title":"Elstervanga-schistocercus_Leptopterus chabert schistocercus-10","ispublic":1,"isfriend":0,"isfamily":0},{"id":"8033874496","owner":"77128742@N06","secret":"bb125d1d3d","server":"8173","farm":9,"title":"Elstervanga-schistocercus_Leptopterus chabert schistocercus-9","ispublic":1,"isfriend":0,"isfamily":0},{"id":"8033874328","owner":"77128742@N06","secret":"264932edd7","server":"8317","farm":9,"title":"Elstervanga-schistocercus_Leptopterus chabert schistocercus-8","ispublic":1,"isfriend":0,"isfamily":0},{"id":"8033873679","owner":"77128742@N06","secret":"7ec6a81d6e","server":"8320","farm":9,"title":"Elstervanga-schistocercus_Leptopterus chabert schistocercus-7","ispublic":1,"isfriend":0,"isfamily":0},{"id":"8033873954","owner":"77128742@N06","secret":"783990d5b5","server":"8454","farm":9,"title":"Elstervanga-schistocercus_Leptopterus chabert schistocercus-6","ispublic":1,"isfriend":0,"isfamily":0},{"id":"8033873313","owner":"77128742@N06","secret":"d981f9a269","server":"8034","farm":9,"title":"Elstervanga-schistocercus_Leptopterus chabert schistocercus-5","ispublic":1,"isfriend":0,"isfamily":0},{"id":"8033873616","owner":"77128742@N06","secret":"24efaffb68","server":"8182","farm":9,"title":"Elstervanga-schistocercus_Leptopterus chabert schistocercus-4","ispublic":1,"isfriend":0,"isfamily":0},{"id":"8033873468","owner":"77128742@N06","secret":"3beccd9a4a","server":"8317","farm":9,"title":"Elstervanga-schistocercus_Leptopterus chabert schistocercus-3","ispublic":1,"isfriend":0,"isfamily":0},{"id":"8033873294","owner":"77128742@N06","secret":"d459ab8f99","server":"8319","farm":9,"title":"Elstervanga-schistocercus_Leptopterus chabert schistocercus-2","ispublic":1,"isfriend":0,"isfamily":0},{"id":"8033872599","owner":"77128742@N06","secret":"012eed7a48","server":"8319","farm":9,"title":"Elstervanga-schistocercus_Leptopterus chabert schistocercus-1","ispublic":1,"isfriend":0,"isfamily":0},{"id":"8033871591","owner":"77128742@N06","secret":"3ff56fd27b","server":"8180","farm":9,"title":"Elstervanga_Leptopterus chabert-7","ispublic":1,"isfriend":0,"isfamily":0},{"id":"8033871445","owner":"77128742@N06","secret":"6cff423a39","server":"8173","farm":9,"title":"Elstervanga_Leptopterus chabert-6","ispublic":1,"isfriend":0,"isfamily":0},{"id":"8033866076","owner":"77128742@N06","secret":"e5c3f9138e","server":"8459","farm":9,"title":"Elstervanga_Leptopterus chabert-5","ispublic":1,"isfriend":0,"isfamily":0},{"id":"8033864713","owner":"77128742@N06","secret":"3ea9ec84f9","server":"8454","farm":9,"title":"Elstervanga_Leptopterus chabert-3","ispublic":1,"isfriend":0,"isfamily":0},{"id":"8033864521","owner":"77128742@N06","secret":"a311130fe5","server":"8309","farm":9,"title":"Elstervanga_Leptopterus chabert-2","ispublic":1,"isfriend":0,"isfamily":0},{"id":"8033865042","owner":"77128742@N06","secret":"9d2e6643e6","server":"8310","farm":9,"title":"Elstervanga_Leptopterus chabert-1","ispublic":1,"isfriend":0,"isfamily":0},{"id":"8015418696","owner":"49819018@N06","secret":"aa267599ca","server":"8446","farm":9,"title":"Chabert's vanga","ispublic":1,"isfriend":0,"isfamily":0},{"id":"6858641620","owner":"8013969@N03","secret":"0d691a1eaa","server":"7060","farm":8,"title":"Leptopterus chabertDFL mad07-2","ispublic":1,"isfriend":0,"isfamily":0},{"id":"5891157334","owner":"14191740@N08","secret":"dfcc983a5f","server":"6002","farm":7,"title":"Chabert Vanga, Mandrare Valley, Madagascar","ispublic":1,"isfriend":0,"isfamily":0},{"id":"5890591055","owner":"14191740@N08","secret":"80ed268229","server":"5039","farm":6,"title":"Chabert Vanga, Mandrare Valley, Madagascar","ispublic":1,"isfriend":0,"isfamily":0},{"id":"4953704415","owner":"63661371@N00","secret":"4905c4aaa1","server":"4107","farm":5,"title":"Vanga de Chabert (Leptopterus chabert)","ispublic":1,"isfriend":0,"isfamily":0},{"id":"3243478661","owner":"56095808@N00","secret":"5feacf1b66","server":"3512","farm":4,"title":"136_Chabert's Vanga (Leptopterus chabert), around Antenina village, Parc National de Zahamena, Madagascar","ispublic":1,"isfriend":0,"isfamily":0},{"id":"883047577","owner":"76033499@N00","secret":"170a53e0b6","server":"1071","farm":2,"title":"Chabert's vanga (corrected)","ispublic":1,"isfriend":0,"isfamily":0}]},"stat":"ok"}