{"photos":{"page":1,"pages":7,"perpage":100,"total":628,"photo":[{"id":"52784536779","owner":"21558080@N07","secret":"8707b8b00a","server":"65535","farm":66,"title":"Chestnut-tailed Starling (Sturnia malabarica)","ispublic":1,"isfriend":0,"isfamily":0},{"id":"52774502967","owner":"50307457@N08","secret":"89516e76df","server":"65535","farm":66,"title":"Belgaum Birds-4 - Sturnia malabarica","ispublic":1,"isfriend":0,"isfamily":0},{"id":"52775037666","owner":"50307457@N08","secret":"f0d8a3461b","server":"65535","farm":66,"title":"Belgaum Birds-5 - Sturnia malabarica","ispublic":1,"isfriend":0,"isfamily":0},{"id":"52773731749","owner":"110148017@N06","secret":"ec52b10fa8","server":"65535","farm":66,"title":"\u6817\u5c3e\u690b\u9ce5 Sturnia malabarica","ispublic":1,"isfriend":0,"isfamily":0},{"id":"52773893205","owner":"110148017@N06","secret":"e5c6c27a1c","server":"65535","farm":66,"title":"\u6817\u5c3e\u690b\u9ce5 Sturnia malabarica","ispublic":1,"isfriend":0,"isfamily":0},{"id":"52773958783","owner":"110148017@N06","secret":"5e7d4c16fe","server":"65535","farm":66,"title":"\u6817\u5c3e\u690b\u9ce5 Sturnia malabarica","ispublic":1,"isfriend":0,"isfamily":0},{"id":"52753052871","owner":"195164158@N04","secret":"4414f9965a","server":"65535","farm":66,"title":"\u7070\u982d\u9d81\u9ce5 Chestnut-tailed starling","ispublic":1,"isfriend":0,"isfamily":0},{"id":"52753364850","owner":"44096805@N07","secret":"a47b53e81d","server":"65535","farm":66,"title":"Chestnut-tailed Starling (Sturnia malabarica}","ispublic":1,"isfriend":0,"isfamily":0},{"id":"52750208442","owner":"195164158@N04","secret":"666ff3143c","server":"65535","farm":66,"title":"\u7070\u982d\u9d81\u9ce5 Chestnut-tailed starling","ispublic":1,"isfriend":0,"isfamily":0},{"id":"52747991037","owner":"77600294@N07","secret":"8509f96d25","server":"65535","farm":66,"title":"Sturnia malabarica nemoricola \u6817\u5c3e\u690b\u9ce5\/\u7070\u982d\u690b\u9ce5\u8a2a\u5bd2\u6afb","ispublic":1,"isfriend":0,"isfamily":0},{"id":"52747990792","owner":"77600294@N07","secret":"da9225d66e","server":"65535","farm":66,"title":"Sturnia malabarica nemoricola \u6817\u5c3e\u690b\u9ce5\/\u7070\u982d\u690b\u9ce5\u8a2a\u5bd2\u6afb","ispublic":1,"isfriend":0,"isfamily":0},{"id":"52747990592","owner":"77600294@N07","secret":"de64c485d4","server":"65535","farm":66,"title":"Sturnia malabarica nemoricola \u6817\u5c3e\u690b\u9ce5\/\u7070\u982d\u690b\u9ce5\u8a2a\u5bd2\u6afb","ispublic":1,"isfriend":0,"isfamily":0},{"id":"52748516966","owner":"77600294@N07","secret":"b31d0058e0","server":"65535","farm":66,"title":"Sturnia malabarica nemoricola \u6817\u5c3e\u690b\u9ce5\/\u7070\u982d\u690b\u9ce5\u8a2a\u5bd2\u6afb","ispublic":1,"isfriend":0,"isfamily":0},{"id":"52748516786","owner":"77600294@N07","secret":"e26c535c02","server":"65535","farm":66,"title":"Sturnia malabarica nemoricola \u6817\u5c3e\u690b\u9ce5\/\u7070\u982d\u690b\u9ce5\u8a2a\u5bd2\u6afb","ispublic":1,"isfriend":0,"isfamily":0},{"id":"52748999438","owner":"110148017@N06","secret":"a161f43970","server":"65535","farm":66,"title":"\u6817\u5c3e\u690b\u9ce5 Sturnia malabarica","ispublic":1,"isfriend":0,"isfamily":0},{"id":"52748987048","owner":"110148017@N06","secret":"56d20b43d1","server":"65535","farm":66,"title":"\u6817\u5c3e\u690b\u9ce5 Sturnia malabarica","ispublic":1,"isfriend":0,"isfamily":0},{"id":"52748986943","owner":"110148017@N06","secret":"f91b6ed292","server":"65535","farm":66,"title":"\u6817\u5c3e\u690b\u9ce5 Sturnia malabarica","ispublic":1,"isfriend":0,"isfamily":0},{"id":"52748986928","owner":"110148017@N06","secret":"50a06d8e36","server":"65535","farm":66,"title":"\u6817\u5c3e\u690b\u9ce5 Sturnia malabarica","ispublic":1,"isfriend":0,"isfamily":0},{"id":"52747968107","owner":"110148017@N06","secret":"6e709028b8","server":"65535","farm":66,"title":"\u6817\u5c3e\u690b\u9ce5 Sturnia malabarica","ispublic":1,"isfriend":0,"isfamily":0},{"id":"52737863624","owner":"110148017@N06","secret":"29c0609da5","server":"65535","farm":66,"title":"\u6817\u5c3e\u690b\u9ce5 Sturnia malabarica","ispublic":1,"isfriend":0,"isfamily":0},{"id":"52734647626","owner":"67951746@N02","secret":"fc6734c6d3","server":"65535","farm":66,"title":"Sturnia malabarica | Chestnut-tailed starling","ispublic":1,"isfriend":0,"isfamily":0},{"id":"52710713753","owner":"110148017@N06","secret":"e846d96a60","server":"65535","farm":66,"title":"\u6817\u5c3e\u690b\u9ce5 Sturnia malabarica","ispublic":1,"isfriend":0,"isfamily":0},{"id":"52710647115","owner":"110148017@N06","secret":"1836277eff","server":"65535","farm":66,"title":"\u6817\u5c3e\u690b\u9ce5 Sturnia malabarica","ispublic":1,"isfriend":0,"isfamily":0},{"id":"52709711462","owner":"110148017@N06","secret":"e1f2318db0","server":"65535","farm":66,"title":"\u6817\u5c3e\u690b\u9ce5 Sturnia malabarica","ispublic":1,"isfriend":0,"isfamily":0},{"id":"52707763475","owner":"50307457@N08","secret":"b478a1e11d","server":"65535","farm":66,"title":"Purulia Birds-5 - Sturnia malabarica","ispublic":1,"isfriend":0,"isfamily":0},{"id":"52652729663","owner":"30120110@N02","secret":"a30f78f9c3","server":"65535","farm":66,"title":"Chestnut-tailed Starlings","ispublic":1,"isfriend":0,"isfamily":0},{"id":"52619066061","owner":"192364387@N05","secret":"32b83daac8","server":"65535","farm":66,"title":"CHESTNUT TAILED STARLING","ispublic":1,"isfriend":0,"isfamily":0},{"id":"52519530183","owner":"107784905@N04","secret":"c7eda4f050","server":"65535","farm":66,"title":"Etourneau \u00e0 t\u00eate grise - Nong Bong Khai Non\/Chiang Rai\/TH_20191212_68","ispublic":1,"isfriend":0,"isfamily":0},{"id":"52270004114","owner":"50307457@N08","secret":"10d1cdfd8d","server":"65535","farm":66,"title":"Agartala Birds-24 - Sturnia malabarica","ispublic":1,"isfriend":0,"isfamily":0},{"id":"52269755668","owner":"50307457@N08","secret":"a9a13f7a68","server":"65535","farm":66,"title":"Agartala Birds-25 - Sturnia malabarica","ispublic":1,"isfriend":0,"isfamily":0},{"id":"52269444205","owner":"50307457@N08","secret":"b519366b9b","server":"65535","farm":66,"title":"Betul Birds-4 - Sturnia malabarica","ispublic":1,"isfriend":0,"isfamily":0},{"id":"52183351818","owner":"7833714@N03","secret":"ea7c9b859b","server":"65535","farm":66,"title":"\u7070\u982d\u690b\u9ce5, \u6817\u5c3e\u690b\u9ce5 Chestnut-tailed Starling","ispublic":1,"isfriend":0,"isfamily":0},{"id":"52183346831","owner":"7833714@N03","secret":"b46410fddb","server":"65535","farm":66,"title":"\u7070\u982d\u690b\u9ce5, \u6817\u5c3e\u690b\u9ce5 Chestnut-tailed Starling","ispublic":1,"isfriend":0,"isfamily":0},{"id":"52178801161","owner":"194331039@N06","secret":"29fb6d3dd3","server":"65535","farm":66,"title":"chestnut tailed starling baby","ispublic":1,"isfriend":0,"isfamily":0},{"id":"52174046483","owner":"194331039@N06","secret":"71f2cc6a80","server":"65535","farm":66,"title":"Chestnut-tailed starling","ispublic":1,"isfriend":0,"isfamily":0},{"id":"52161909323","owner":"195164158@N04","secret":"305a6ef0bf","server":"65535","farm":66,"title":"DSC_4006-2020-03-05-Nikon D3-Nikkor 80-400mm F4.5-5.6-Ching Wei Chang \u5f35\u6176\u7dad \u7dad\u54e5","ispublic":1,"isfriend":0,"isfamily":0},{"id":"52035188753","owner":"195164158@N04","secret":"7ce2dd94f0","server":"65535","farm":66,"title":"DSC_3743-2022-03-19","ispublic":1,"isfriend":0,"isfamily":0},{"id":"52035382924","owner":"195164158@N04","secret":"e12248b1df","server":"65535","farm":66,"title":"DSC_3859-2022-03-19","ispublic":1,"isfriend":0,"isfamily":0},{"id":"52035618435","owner":"195164158@N04","secret":"bcdceafcb0","server":"65535","farm":66,"title":"\u7070\u982d\u9d81\u9ce5","ispublic":1,"isfriend":0,"isfamily":0},{"id":"52029141446","owner":"195164158@N04","secret":"2c788f2425","server":"65535","farm":66,"title":"\u7070\u982d\u9be8\u9ce5 \u7070\u982d\u690b\u9ce5 Sturnia malabarica","ispublic":1,"isfriend":0,"isfamily":0},{"id":"52013031673","owner":"192364387@N05","secret":"55eea36c72","server":"65535","farm":66,"title":"CHESTNUT TAILED STARLING","ispublic":1,"isfriend":0,"isfamily":0},{"id":"51952545864","owner":"37180297@N08","secret":"7c2821710d","server":"65535","farm":66,"title":"_RBC0087 Sturnia malabarica nemoricola \u6817\u5c3e\u690b\u9ce5","ispublic":1,"isfriend":0,"isfamily":0},{"id":"51933834325","owner":"37180297@N08","secret":"3ac3e72aa0","server":"65535","farm":66,"title":"_RBB9784 Sturnia malabarica nemoricola \u6817\u5c3e\u690b\u9ce5","ispublic":1,"isfriend":0,"isfamily":0},{"id":"51933218541","owner":"37180297@N08","secret":"06a97a3361","server":"65535","farm":66,"title":"_RBB9786 Sturnia malabarica nemoricola \u6817\u5c3e\u690b\u9ce5","ispublic":1,"isfriend":0,"isfamily":0},{"id":"51933542444","owner":"37180297@N08","secret":"c81c1eab49","server":"65535","farm":66,"title":"_RBB9795 Sturnia malabarica nemoricola \u6817\u5c3e\u690b\u9ce5","ispublic":1,"isfriend":0,"isfamily":0},{"id":"51845206511","owner":"37180297@N08","secret":"f72d8bf325","server":"65535","farm":66,"title":"_RBB5410 Sturnia malabarica nemoricola \u6817\u5c3e\u690b\u9ce5","ispublic":1,"isfriend":0,"isfamily":0},{"id":"51845303543","owner":"37180297@N08","secret":"62529b3cc2","server":"65535","farm":66,"title":"_RBB5425 Sturnia malabarica nemoricola \u6817\u5c3e\u690b\u9ce5","ispublic":1,"isfriend":0,"isfamily":0},{"id":"51845187296","owner":"37180297@N08","secret":"c619eaee4d","server":"65535","farm":66,"title":"_RBB5428 Sturnia malabarica nemoricola \u6817\u5c3e\u690b\u9ce5","ispublic":1,"isfriend":0,"isfamily":0},{"id":"51801226891","owner":"37180297@N08","secret":"843d01e7a3","server":"65535","farm":66,"title":"_RBB3900 Sturnia malabarica","ispublic":1,"isfriend":0,"isfamily":0},{"id":"51801596199","owner":"37180297@N08","secret":"c7fd0ce090","server":"65535","farm":66,"title":"_RBB3906 Sturnia malabarica","ispublic":1,"isfriend":0,"isfamily":0},{"id":"51801226491","owner":"37180297@N08","secret":"4d70194883","server":"65535","farm":66,"title":"_RBB3908 Sturnia malabarica","ispublic":1,"isfriend":0,"isfamily":0},{"id":"51800283957","owner":"37180297@N08","secret":"649d8cdc49","server":"65535","farm":66,"title":"_RBB3910 Sturnia malabarica","ispublic":1,"isfriend":0,"isfamily":0},{"id":"51801225971","owner":"37180297@N08","secret":"18a63de759","server":"65535","farm":66,"title":"_RBB3912 Sturnia malabarica","ispublic":1,"isfriend":0,"isfamily":0},{"id":"51801349763","owner":"37180297@N08","secret":"83bedf87c7","server":"65535","farm":66,"title":"_RBB3915 Sturnia malabarica","ispublic":1,"isfriend":0,"isfamily":0},{"id":"51774359814","owner":"50307457@N08","secret":"f4c9eefec9","server":"65535","farm":66,"title":"Makunda Birds-405 - Sturnia malabarica","ispublic":1,"isfriend":0,"isfamily":0},{"id":"51614500871","owner":"49272932@N00","secret":"796b9d1bdd","server":"65535","farm":66,"title":"Chestnut-tailed Starling (Sturnia malabarica), Ameenpur Lake, Hyderabad","ispublic":1,"isfriend":0,"isfamily":0},{"id":"51276842503","owner":"70081115@N06","secret":"3d9ba176de","server":"65535","farm":66,"title":"Chestnut Tailed Starling","ispublic":1,"isfriend":0,"isfamily":0},{"id":"51213078957","owner":"69947563@N07","secret":"4b1b81428a","server":"65535","farm":66,"title":"Chestnut-tailed Starling - Nakhon Ratchasima Province, Thailand","ispublic":1,"isfriend":0,"isfamily":0},{"id":"51125485133","owner":"30120110@N02","secret":"f9b4cb91f8","server":"65535","farm":66,"title":"Chestnut-tailed starling","ispublic":1,"isfriend":0,"isfamily":0},{"id":"51115560905","owner":"79438259@N03","secret":"24fc1a660c","server":"65535","farm":66,"title":"\u7070\u982d\u690b\u9ce5 - Sturnia malabarica","ispublic":1,"isfriend":0,"isfamily":0},{"id":"51110742445","owner":"183965499@N06","secret":"4abe2feaa5","server":"65535","farm":66,"title":"Chestnut-tailed starling","ispublic":1,"isfriend":0,"isfamily":0},{"id":"51109697189","owner":"183965499@N06","secret":"6110cd3f04","server":"65535","farm":66,"title":"Chestnut-tailed starling","ispublic":1,"isfriend":0,"isfamily":0},{"id":"51099663118","owner":"27566485@N02","secret":"3b5888e8d3","server":"65535","farm":66,"title":"The chestnut-tailed starling or grey-headed starling or grey-headed myna","ispublic":1,"isfriend":0,"isfamily":0},{"id":"51092182981","owner":"191856605@N06","secret":"8ce3fc2e36","server":"65535","farm":66,"title":"Chestnut-tailed Starling or Grey-headed Starling or Grey-headed Myna","ispublic":1,"isfriend":0,"isfamily":0},{"id":"51092725298","owner":"191856605@N06","secret":"9a141c33a2","server":"65535","farm":66,"title":"Chestnut-tailed Starling or Grey-headed Starling or Grey-headed Myna","ispublic":1,"isfriend":0,"isfamily":0},{"id":"51075049298","owner":"138946013@N06","secret":"9c1e6d1f21","server":"65535","farm":66,"title":"Chestnut-tailed starling","ispublic":1,"isfriend":0,"isfamily":0},{"id":"50982498906","owner":"30120110@N02","secret":"3300440ee0","server":"65535","farm":66,"title":"Chestnut-tailed Starling","ispublic":1,"isfriend":0,"isfamily":0},{"id":"50955920297","owner":"164662533@N02","secret":"be7662c207","server":"65535","farm":66,"title":"Chestnut-tailed starling  (Sturnia malabarica)","ispublic":1,"isfriend":0,"isfamily":0},{"id":"49969210628","owner":"163763434@N04","secret":"b6d03010a9","server":"65535","farm":66,"title":"Blyth's starling","ispublic":1,"isfriend":0,"isfamily":0},{"id":"49929447381","owner":"27566485@N02","secret":"6ea96c79b7","server":"65535","farm":66,"title":"The chestnut-tailed starling","ispublic":1,"isfriend":0,"isfamily":0},{"id":"49921762218","owner":"107784905@N04","secret":"7c75471322","server":"65535","farm":66,"title":"Etourneau \u00e0 t\u00eate grise - Nong Bong Khai Non\/Chiang Rai\/TH_20191212_286","ispublic":1,"isfriend":0,"isfamily":0},{"id":"49876875773","owner":"55968524@N04","secret":"51becbd8a3","server":"65535","farm":66,"title":"2M3A3639 - Chestnut-tailed Starling -Sturnia malabarica.jpg","ispublic":1,"isfriend":0,"isfamily":0},{"id":"49778381227","owner":"164662533@N02","secret":"d735d80e47","server":"65535","farm":66,"title":"Chestnut-tailed Starling (Sturnia malabarica)","ispublic":1,"isfriend":0,"isfamily":0},{"id":"52511586085","owner":"37180297@N08","secret":"a7dafbb845","server":"65535","farm":66,"title":"_RBD2518 Sturnia malabarica nemoricola \u6817\u5c3e\u690b\u9ce5","ispublic":1,"isfriend":0,"isfamily":0},{"id":"52511375694","owner":"37180297@N08","secret":"5ba9a1888c","server":"65535","farm":66,"title":"_RBD2519 Sturnia malabarica nemoricola \u6817\u5c3e\u690b\u9ce5","ispublic":1,"isfriend":0,"isfamily":0},{"id":"51983619330","owner":"96574825@N03","secret":"c7fd275a26","server":"65535","farm":66,"title":"Sturnia malabarica","ispublic":1,"isfriend":0,"isfamily":0},{"id":"51853836039","owner":"193443384@N07","secret":"b7eee2c99f","server":"65535","farm":66,"title":"Chestnut-tailed Starling (Sturnia malabarica)","ispublic":1,"isfriend":0,"isfamily":0},{"id":"51845571294","owner":"37180297@N08","secret":"824f7d4911","server":"65535","farm":66,"title":"_RBB5411 Sturnia malabarica nemoricola \u6817\u5c3e\u690b\u9ce5","ispublic":1,"isfriend":0,"isfamily":0},{"id":"51845560469","owner":"37180297@N08","secret":"afbac0880c","server":"65535","farm":66,"title":"_RBB5419 Sturnia malabarica nemoricola \u6817\u5c3e\u690b\u9ce5","ispublic":1,"isfriend":0,"isfamily":0},{"id":"51801594514","owner":"37180297@N08","secret":"2b7494fe18","server":"65535","farm":66,"title":"_RBB3914 Sturnia malabarica","ispublic":1,"isfriend":0,"isfamily":0},{"id":"51756478073","owner":"149391741@N07","secret":"79f2894d38","server":"65535","farm":66,"title":"\u6817\u5c3e\u690b\u9ce5 Sturnia malabarica","ispublic":1,"isfriend":0,"isfamily":0},{"id":"51756218811","owner":"149391741@N07","secret":"c669cac032","server":"65535","farm":66,"title":"\u6817\u5c3e\u690b\u9ce5 Sturnia malabarica","ispublic":1,"isfriend":0,"isfamily":0},{"id":"51355466462","owner":"30120110@N02","secret":"c54cbb614f","server":"65535","farm":66,"title":"Chestnut-tailed Starling","ispublic":1,"isfriend":0,"isfamily":0},{"id":"51158986971","owner":"30120110@N02","secret":"766bfbf4d4","server":"65535","farm":66,"title":"Chestnut-tailed Starling","ispublic":1,"isfriend":0,"isfamily":0},{"id":"51114678908","owner":"79438259@N03","secret":"7982283006","server":"65535","farm":66,"title":"\u7070\u982d\u690b\u9ce5 - Sturnia malabarica","ispublic":1,"isfriend":0,"isfamily":0},{"id":"51022020138","owner":"191182891@N02","secret":"8c73019769","server":"65535","farm":66,"title":"Chestnut tailed Starling","ispublic":1,"isfriend":0,"isfamily":0},{"id":"50981790168","owner":"30120110@N02","secret":"ea48a9e260","server":"65535","farm":66,"title":"Chestnut-tailed Starlings","ispublic":1,"isfriend":0,"isfamily":0},{"id":"50965729213","owner":"34573567@N06","secret":"658afe64cf","server":"65535","farm":66,"title":"Chestnut-tailed starling (Sturnia malabarica)","ispublic":1,"isfriend":0,"isfamily":0},{"id":"50694747352","owner":"129081014@N03","secret":"4057f79769","server":"65535","farm":66,"title":"Chestnut-tailed Starling (Sturnia malabarica)","ispublic":1,"isfriend":0,"isfamily":0},{"id":"50693918773","owner":"129081014@N03","secret":"c7fdd39e49","server":"65535","farm":66,"title":"Chestnut-tailed Starling (Sturnia malabarica)y","ispublic":1,"isfriend":0,"isfamily":0},{"id":"50693918748","owner":"129081014@N03","secret":"b554ffcdea","server":"65535","farm":66,"title":"Chestnut-tailed Starling (Sturnia malabarica)","ispublic":1,"isfriend":0,"isfamily":0},{"id":"50694659601","owner":"129081014@N03","secret":"f74e48541c","server":"65535","farm":66,"title":"Chestnut-tailed Starling (Sturnia malabarica)","ispublic":1,"isfriend":0,"isfamily":0},{"id":"50616026438","owner":"28949071@N03","secret":"4811b924cb","server":"65535","farm":66,"title":"Chestnut-tailed starling","ispublic":1,"isfriend":0,"isfamily":0},{"id":"49898213781","owner":"188098886@N07","secret":"2a3f91b7ee","server":"65535","farm":66,"title":"Chestnut-tailed starling","ispublic":1,"isfriend":0,"isfamily":0},{"id":"49884119987","owner":"188098886@N07","secret":"a01f036447","server":"65535","farm":66,"title":"Chestnut-tailed starling","ispublic":1,"isfriend":0,"isfamily":0},{"id":"49874761523","owner":"188098886@N07","secret":"2ef03744c6","server":"65535","farm":66,"title":"Chestnut-tailed starling","ispublic":1,"isfriend":0,"isfamily":0},{"id":"49842329033","owner":"188098886@N07","secret":"7d3c4e63af","server":"65535","farm":66,"title":"Chestnut-tailed starling","ispublic":1,"isfriend":0,"isfamily":0},{"id":"49808885768","owner":"160634492@N02","secret":"2dded13268","server":"65535","farm":66,"title":"#\u0995\u09be\u09a0_\u09b6\u09be\u09b2\u09bf\u0995 #Chestnut_tailed_starling #Sturnia_malabarica #Dhaka #2020 #Bangladesh","ispublic":1,"isfriend":0,"isfamily":0},{"id":"49808885618","owner":"160634492@N02","secret":"585b7cc70b","server":"65535","farm":66,"title":"#\u0995\u09be\u09a0_\u09b6\u09be\u09b2\u09bf\u0995 #Chestnut_tailed_starling #Sturnia_malabarica #Dhaka #2020 #Bangladesh","ispublic":1,"isfriend":0,"isfamily":0},{"id":"49767745197","owner":"154347912@N05","secret":"6c093bd8b3","server":"65535","farm":66,"title":"Chestnut-tailed starling (Sturnia malabarica)","ispublic":1,"isfriend":0,"isfamily":0}]},"stat":"ok"}