{"photos":{"page":1,"pages":5,"perpage":100,"total":429,"photo":[{"id":"52642659297","owner":"8013969@N03","secret":"eed4fae437","server":"65535","farm":66,"title":"Chaetura pelagica DFL btr22-1","ispublic":1,"isfriend":0,"isfamily":0},{"id":"52642659097","owner":"8013969@N03","secret":"b7c80d6c93","server":"65535","farm":66,"title":"Chaetura pelagica DFL btr22-2","ispublic":1,"isfriend":0,"isfamily":0},{"id":"52579854502","owner":"153973412@N04","secret":"81a335227d","server":"65535","farm":66,"title":"Chimney Swift-Chaetura pelagica, North English, IA","ispublic":1,"isfriend":0,"isfamily":0},{"id":"52514549641","owner":"35259356@N06","secret":"46e9aa44ae","server":"65535","farm":66,"title":"Swift: Chimney Swift","ispublic":1,"isfriend":0,"isfamily":0},{"id":"52428637553","owner":"156672175@N07","secret":"014bd4cb51","server":"65535","farm":66,"title":"Chaetura pelagica swarm, \"swiftnado\", over Funchess Hall, Auburn University, Lee County, Alabama 1","ispublic":1,"isfriend":0,"isfamily":0},{"id":"52422558127","owner":"59631194@N06","secret":"dbae841412","server":"65535","farm":66,"title":"Chimney swift (Chaetura pelagica)","ispublic":1,"isfriend":0,"isfamily":0},{"id":"52245463389","owner":"49114357@N08","secret":"01bf65a0bd","server":"65535","farm":66,"title":"Chimney Swift","ispublic":1,"isfriend":0,"isfamily":0},{"id":"52161622047","owner":"159284114@N07","secret":"2c06d8b05a","server":"65535","farm":66,"title":"Martinet ramoneur, Chimney swift","ispublic":1,"isfriend":0,"isfamily":0},{"id":"51964885527","owner":"57465751@N05","secret":"5168391d5a","server":"65535","farm":66,"title":"Chimney Swift (Chaetura pelagica), Prairie du Chien, Crawford Co., WI","ispublic":1,"isfriend":0,"isfamily":0},{"id":"51705754210","owner":"67306066@N03","secret":"196187daf7","server":"65535","farm":66,"title":"Chimney Swift (Chaetura pelagica)","ispublic":1,"isfriend":0,"isfamily":0},{"id":"51433236140","owner":"46367607@N06","secret":"34a1891520","server":"65535","farm":66,"title":"Chimney swift--Chaetura pelagica _D6A0063","ispublic":1,"isfriend":0,"isfamily":0},{"id":"51433011024","owner":"46367607@N06","secret":"6eb98bf639","server":"65535","farm":66,"title":"Chimney swift--Chaetura pelagica _D6A0083","ispublic":1,"isfriend":0,"isfamily":0},{"id":"51426801889","owner":"61241315@N00","secret":"57cbd55e71","server":"0","farm":0,"title":"Long-tailed Jaeger_Chimney Swift_6654.mp4","ispublic":1,"isfriend":0,"isfamily":0},{"id":"51371104906","owner":"120449047@N06","secret":"86646aa125","server":"65535","farm":66,"title":"Chimney Swift (lifer)","ispublic":1,"isfriend":0,"isfamily":0},{"id":"51361460172","owner":"8783241@N08","secret":"0875d3720d","server":"65535","farm":66,"title":"Chaetura pelagica - Chimney Swift","ispublic":1,"isfriend":0,"isfamily":0},{"id":"51323921780","owner":"33610210@N05","secret":"ecc3d8df87","server":"65535","farm":66,"title":"Chimney Swift, Chaetura pelagica","ispublic":1,"isfriend":0,"isfamily":0},{"id":"51320164671","owner":"62445008@N00","secret":"ed81a95345","server":"65535","farm":66,"title":"Chimney Swift (Chaetura pelagica)","ispublic":1,"isfriend":0,"isfamily":0},{"id":"51310160319","owner":"8065544@N08","secret":"f23aeedb05","server":"65535","farm":66,"title":"Chimney Swift (Chaetura pelagica)","ispublic":1,"isfriend":0,"isfamily":0},{"id":"51309438976","owner":"8065544@N08","secret":"5964070890","server":"65535","farm":66,"title":"Chimney Swift (Chaetura pelagica)","ispublic":1,"isfriend":0,"isfamily":0},{"id":"51278219240","owner":"61021753@N02","secret":"f10f5a7e5f","server":"65535","farm":66,"title":"n342_w1150","ispublic":1,"isfriend":0,"isfamily":0},{"id":"51266302863","owner":"61021753@N02","secret":"61c3f26d62","server":"65535","farm":66,"title":"n166_w1150","ispublic":1,"isfriend":0,"isfamily":0},{"id":"51246293781","owner":"61021753@N02","secret":"56091250a5","server":"65535","farm":66,"title":"n17_w1150","ispublic":1,"isfriend":0,"isfamily":0},{"id":"51241110700","owner":"61021753@N02","secret":"993bb92d7b","server":"65535","farm":66,"title":"n89_w1150","ispublic":1,"isfriend":0,"isfamily":0},{"id":"50837987476","owner":"61021753@N02","secret":"b0cc4b3b8d","server":"65535","farm":66,"title":"n29_w1150","ispublic":1,"isfriend":0,"isfamily":0},{"id":"50826683171","owner":"61021753@N02","secret":"59c1677d18","server":"65535","farm":66,"title":"n364_w1150","ispublic":1,"isfriend":0,"isfamily":0},{"id":"50354514481","owner":"30418455@N00","secret":"2f6127b1eb","server":"65535","farm":66,"title":"CHIMNEY SWIFT 10","ispublic":1,"isfriend":0,"isfamily":0},{"id":"50330614461","owner":"54100598@N08","secret":"8849026e25","server":"65535","farm":66,"title":"Chimney Swift (Chaetura pelagica)","ispublic":1,"isfriend":0,"isfamily":0},{"id":"50165112967","owner":"61301322@N08","secret":"2712fc5217","server":"65535","farm":66,"title":"Chimney Swift Tower (Seven Islands)","ispublic":1,"isfriend":0,"isfamily":0},{"id":"50144912111","owner":"61021753@N02","secret":"b531883954","server":"65535","farm":66,"title":"n290_w1150","ispublic":1,"isfriend":0,"isfamily":0},{"id":"50123677848","owner":"36685968@N00","secret":"975d59c2c0","server":"65535","farm":66,"title":"Chimney Swift (Chaetura pelagica)","ispublic":1,"isfriend":0,"isfamily":0},{"id":"50084945533","owner":"36685968@N00","secret":"ae26b4fbf9","server":"65535","farm":66,"title":"Chimney Swift (Chaetura pelagica)","ispublic":1,"isfriend":0,"isfamily":0},{"id":"50084469927","owner":"61021753@N02","secret":"ed72f8d088","server":"65535","farm":66,"title":"n62_w1150","ispublic":1,"isfriend":0,"isfamily":0},{"id":"49939358506","owner":"37566919@N02","secret":"8a93c4ef2e","server":"65535","farm":66,"title":"Chimney Swift","ispublic":1,"isfriend":0,"isfamily":0},{"id":"49903594652","owner":"27576221@N03","secret":"fef576dc78","server":"65535","farm":66,"title":"Chimney Swift (Chaetura pelagica)","ispublic":1,"isfriend":0,"isfamily":0},{"id":"49888561903","owner":"35259356@N06","secret":"47e1e6ce50","server":"65535","farm":66,"title":"Swift: Chimney Swift","ispublic":1,"isfriend":0,"isfamily":0},{"id":"49888302403","owner":"32406637@N06","secret":"d85362d3cd","server":"65535","farm":66,"title":"swifts... chimney swift 2020.5.10 ny eastchester twin lakes","ispublic":1,"isfriend":0,"isfamily":0},{"id":"49878696607","owner":"135315828@N06","secret":"dbf4129cfa","server":"65535","farm":66,"title":"IMG_1793","ispublic":1,"isfriend":0,"isfamily":0},{"id":"49878390656","owner":"135315828@N06","secret":"df544981e7","server":"65535","farm":66,"title":"IMG_1825","ispublic":1,"isfriend":0,"isfamily":0},{"id":"49878390556","owner":"135315828@N06","secret":"af967cbf91","server":"65535","farm":66,"title":"IMG_1829","ispublic":1,"isfriend":0,"isfamily":0},{"id":"49878696287","owner":"135315828@N06","secret":"27e545620e","server":"65535","farm":66,"title":"IMG_1830","ispublic":1,"isfriend":0,"isfamily":0},{"id":"48945076901","owner":"128520554@N03","secret":"f0b11257fb","server":"65535","farm":66,"title":"Chimney Swift (Chaetura pelagica)","ispublic":1,"isfriend":0,"isfamily":0},{"id":"48945075796","owner":"128520554@N03","secret":"3f41d62c60","server":"65535","farm":66,"title":"Chimney Swift (Chaetura pelagica)","ispublic":1,"isfriend":0,"isfamily":0},{"id":"48945269487","owner":"128520554@N03","secret":"5eb5054fc6","server":"65535","farm":66,"title":"Chimney Swift (Chaetura pelagica)","ispublic":1,"isfriend":0,"isfamily":0},{"id":"48885441501","owner":"12639178@N07","secret":"33990e7200","server":"65535","farm":66,"title":"Schornsteinsegler","ispublic":1,"isfriend":0,"isfamily":0},{"id":"48884903618","owner":"12639178@N07","secret":"13570d5035","server":"65535","farm":66,"title":"Schornsteinsegler","ispublic":1,"isfriend":0,"isfamily":0},{"id":"48392383551","owner":"36685968@N00","secret":"184b53f33c","server":"65535","farm":66,"title":"Chimney Swift (Chaetura pelagica)","ispublic":1,"isfriend":0,"isfamily":0},{"id":"48374561962","owner":"67677583@N00","secret":"8ff514a7a1","server":"65535","farm":66,"title":"Chimney swift (Chaetura pelagica)","ispublic":1,"isfriend":0,"isfamily":0},{"id":"48241418466","owner":"59777454@N02","secret":"3f5357d050","server":"65535","farm":66,"title":"Chimney Swift flock roosting in chimney Tekiela STEK9822","ispublic":1,"isfriend":0,"isfamily":0},{"id":"48103036721","owner":"17654080@N08","secret":"c155ee17a2","server":"65535","farm":66,"title":"Chimney Swift (Chaetura pelagica)","ispublic":1,"isfriend":0,"isfamily":0},{"id":"48103036566","owner":"17654080@N08","secret":"8236292598","server":"65535","farm":66,"title":"Chimney Swift (Chaetura pelagica)","ispublic":1,"isfriend":0,"isfamily":0},{"id":"48103036526","owner":"17654080@N08","secret":"57c2618e6c","server":"65535","farm":66,"title":"Chimney Swift (Chaetura pelagica)","ispublic":1,"isfriend":0,"isfamily":0},{"id":"47978247807","owner":"61241315@N00","secret":"621e88fd1f","server":"65535","farm":66,"title":"Chimney Swift_7846_00001-001","ispublic":1,"isfriend":0,"isfamily":0},{"id":"47972117953","owner":"34238008@N02","secret":"e23a9006ba","server":"65535","farm":66,"title":"Chimney Swift (Chaetura pelagica)","ispublic":1,"isfriend":0,"isfamily":0},{"id":"47972117668","owner":"34238008@N02","secret":"3afe24c33d","server":"65535","farm":66,"title":"Chimney Swift (Chaetura pelagica)","ispublic":1,"isfriend":0,"isfamily":0},{"id":"47927420942","owner":"32752434@N07","secret":"31fdb46f4c","server":"65535","farm":66,"title":"Chimney Swift (Chaetura pelagica)","ispublic":1,"isfriend":0,"isfamily":0},{"id":"40758369803","owner":"12240837@N08","secret":"685e39734d","server":"65535","farm":66,"title":"Chimney Swift (chaetura pelagica)","ispublic":1,"isfriend":0,"isfamily":0},{"id":"45928844724","owner":"40594900@N00","secret":"04ecb46434","server":"4833","farm":5,"title":"Chimney Swift (Chaetura pelagica)","ispublic":1,"isfriend":0,"isfamily":0},{"id":"52534453202","owner":"33610210@N05","secret":"85b6546af4","server":"65535","farm":66,"title":"Chimney Swift, Chaetura pelagica","ispublic":1,"isfriend":0,"isfamily":0},{"id":"52535204344","owner":"33610210@N05","secret":"6e1652a5c9","server":"65535","farm":66,"title":"Chimney Swift, Chaetura pelagica","ispublic":1,"isfriend":0,"isfamily":0},{"id":"52428638093","owner":"156672175@N07","secret":"e4228e7c01","server":"65535","farm":66,"title":"Chaetura pelagica swarm, \"swiftnado\", over Funchess Hall, Auburn University, Lee County, Alabama 4","ispublic":1,"isfriend":0,"isfamily":0},{"id":"52428571995","owner":"156672175@N07","secret":"5ff9e88ec0","server":"65535","farm":66,"title":"Chaetura pelagica swarm, \"swiftnado\", over Funchess Hall, Auburn University, Lee County, Alabama 3","ispublic":1,"isfriend":0,"isfamily":0},{"id":"52427617267","owner":"156672175@N07","secret":"4bfab8274a","server":"65535","farm":66,"title":"Chaetura pelagica swarm, \"swiftnado\", over Funchess Hall, Auburn University, Lee County, Alabama 2","ispublic":1,"isfriend":0,"isfamily":0},{"id":"51690873518","owner":"59777454@N02","secret":"4199dd63f1","server":"65535","farm":66,"title":"Chimney Swift adult in flight Tekiela TEK5192","ispublic":1,"isfriend":0,"isfamily":0},{"id":"51430908028","owner":"60377564@N08","secret":"29ecbacd79","server":"65535","farm":66,"title":"Chimney Swift (Chaetura pelagica)","ispublic":1,"isfriend":0,"isfamily":0},{"id":"51425294232","owner":"61241315@N00","secret":"501bb00f3d","server":"65535","farm":66,"title":"Long-tailed Jaeger_Chimney Swift_MOB3","ispublic":1,"isfriend":0,"isfamily":0},{"id":"51427022725","owner":"61241315@N00","secret":"5b8ffd4dce","server":"65535","farm":66,"title":"Long-tailed Jaeger_Chimney Swift_MOB1","ispublic":1,"isfriend":0,"isfamily":0},{"id":"51425294237","owner":"61241315@N00","secret":"6eda09765c","server":"65535","farm":66,"title":"Long-tailed Jaeger_Chimney Swift_MOB2","ispublic":1,"isfriend":0,"isfamily":0},{"id":"51426039546","owner":"61241315@N00","secret":"f004cce1e0","server":"65535","farm":66,"title":"Long-tailed Jaeger_Chimney Swift_MOB6","ispublic":1,"isfriend":0,"isfamily":0},{"id":"51427022690","owner":"61241315@N00","secret":"81b19f87ca","server":"65535","farm":66,"title":"Long-tailed Jaeger_Chimney Swift_MOB7","ispublic":1,"isfriend":0,"isfamily":0},{"id":"51426289143","owner":"61241315@N00","secret":"7ae5a86e7f","server":"65535","farm":66,"title":"Long-tailed Jaeger_Chimney Swift_MOB5","ispublic":1,"isfriend":0,"isfamily":0},{"id":"51426289158","owner":"61241315@N00","secret":"431eded5f6","server":"65535","farm":66,"title":"Long-tailed Jaeger_Chimney Swift_MOB4","ispublic":1,"isfriend":0,"isfamily":0},{"id":"51322187722","owner":"33610210@N05","secret":"d8978f3d29","server":"65535","farm":66,"title":"Chimney Swift, Chaetura pelagica","ispublic":1,"isfriend":0,"isfamily":0},{"id":"51321165525","owner":"62445008@N00","secret":"d1d37b735e","server":"65535","farm":66,"title":"Chimney Swift (Chaetura pelagica)","ispublic":1,"isfriend":0,"isfamily":0},{"id":"51320367663","owner":"62445008@N00","secret":"6eb56fe960","server":"65535","farm":66,"title":"Chimney Swift (Chaetura pelagica)","ispublic":1,"isfriend":0,"isfamily":0},{"id":"51248825471","owner":"39445433@N02","secret":"69f67875fa","server":"65535","farm":66,"title":"Chimney Swift","ispublic":1,"isfriend":0,"isfamily":0},{"id":"51217810836","owner":"61021753@N02","secret":"dd6c8f0300","server":"65535","farm":66,"title":"n22_w1150","ispublic":1,"isfriend":0,"isfamily":0},{"id":"51145673908","owner":"151381692@N04","secret":"f6b8f0d156","server":"65535","farm":66,"title":"Chimney Swift (Chaetura pelagica)","ispublic":1,"isfriend":0,"isfamily":0},{"id":"50693308612","owner":"26803925@N05","secret":"63668d2e98","server":"65535","farm":66,"title":"Chimney Swift (Chaetura pelagica) 10-31-2020 Deal Island WMA--Deal Island dove hunting area, Somerset Co. MD 3","ispublic":1,"isfriend":0,"isfamily":0},{"id":"50352165392","owner":"61241315@N00","secret":"c94b260115","server":"65535","farm":66,"title":"Cedar Waxwing_Chimney Swift_N2247","ispublic":1,"isfriend":0,"isfamily":0},{"id":"50306902837","owner":"39445433@N02","secret":"6f87258d78","server":"65535","farm":66,"title":"Chimney Swift","ispublic":1,"isfriend":0,"isfamily":0},{"id":"50302794011","owner":"65148649@N04","secret":"350a2b0e27","server":"65535","farm":66,"title":"Chimney Swift","ispublic":1,"isfriend":0,"isfamily":0},{"id":"50277159757","owner":"9587960@N03","secret":"cf4485ee6e","server":"65535","farm":66,"title":"swift moon cloud","ispublic":1,"isfriend":0,"isfamily":0},{"id":"50013531892","owner":"26803925@N05","secret":"a8e3037b3e","server":"65535","farm":66,"title":"Chimney Swift (Chaetura pelagica) 05-15-2020 North Beach, Calvert Co. MD","ispublic":1,"isfriend":0,"isfamily":0},{"id":"49887464558","owner":"129803374@N05","secret":"ba4ed1781b","server":"65535","farm":66,"title":"Chimney Swift (Chaetura pelagica)","ispublic":1,"isfriend":0,"isfamily":0},{"id":"49815849296","owner":"33610210@N05","secret":"01111a5caf","server":"65535","farm":66,"title":"Chimney Swift, Chaetura pelagica","ispublic":1,"isfriend":0,"isfamily":0},{"id":"48945076621","owner":"128520554@N03","secret":"d56d7dc2a1","server":"65535","farm":66,"title":"Chimney Swift (Chaetura pelagica)","ispublic":1,"isfriend":0,"isfamily":0},{"id":"48945270892","owner":"128520554@N03","secret":"467509fe6b","server":"65535","farm":66,"title":"Chimney Swift (Chaetura pelagica)","ispublic":1,"isfriend":0,"isfamily":0},{"id":"48945075021","owner":"128520554@N03","secret":"e2f0a48406","server":"65535","farm":66,"title":"Chimney Swift (Chaetura pelagica)","ispublic":1,"isfriend":0,"isfamily":0},{"id":"48886588227","owner":"12639178@N07","secret":"757b0772e3","server":"65535","farm":66,"title":"Schornsteinsegler","ispublic":1,"isfriend":0,"isfamily":0},{"id":"48886587747","owner":"12639178@N07","secret":"008195e091","server":"65535","farm":66,"title":"Schornsteinsegler","ispublic":1,"isfriend":0,"isfamily":0},{"id":"47978247782","owner":"61241315@N00","secret":"e1d43dced6","server":"65535","farm":66,"title":"Chimney Swift_7807_00001-001","ispublic":1,"isfriend":0,"isfamily":0},{"id":"47978297291","owner":"61241315@N00","secret":"4508bd0512","server":"65535","farm":66,"title":"Chimney Swift_7813_00001-001","ispublic":1,"isfriend":0,"isfamily":0},{"id":"47978247742","owner":"61241315@N00","secret":"49ce04d140","server":"65535","farm":66,"title":"Chimney Swift_7821_00001-001","ispublic":1,"isfriend":0,"isfamily":0},{"id":"47978297236","owner":"61241315@N00","secret":"1918092e58","server":"65535","farm":66,"title":"Chimney Swift_7808_00001-001","ispublic":1,"isfriend":0,"isfamily":0},{"id":"47978247657","owner":"61241315@N00","secret":"c34d6f4aca","server":"65535","farm":66,"title":"Chimney Swift_7823_00001-001","ispublic":1,"isfriend":0,"isfamily":0},{"id":"47926813533","owner":"65148649@N04","secret":"141e7f0370","server":"65535","farm":66,"title":"Chimney Swift","ispublic":1,"isfriend":0,"isfamily":0},{"id":"46218879434","owner":"98688868@N06","secret":"5b7ab02da6","server":"7858","farm":8,"title":"Chimney Swift (Chaetura pelagica)","ispublic":1,"isfriend":0,"isfamily":0},{"id":"46029477405","owner":"98688868@N06","secret":"8b0e87881f","server":"4918","farm":5,"title":"Chimney Swift (Chaetura pelagica)","ispublic":1,"isfriend":0,"isfamily":0},{"id":"32331516638","owner":"41643989@N04","secret":"e5af2c1b24","server":"4850","farm":5,"title":"Chimney Swift - Chaetura pelagica - Hamilton County, Ohio, USA - May 9, 2018","ispublic":1,"isfriend":0,"isfamily":0},{"id":"45479542984","owner":"41643989@N04","secret":"bf4f8f72d8","server":"4891","farm":5,"title":"Chimney Swift - Chaetura pelagica - Hamilton County, Ohio, USA - May 9, 2018","ispublic":1,"isfriend":0,"isfamily":0}]},"stat":"ok"}