{"photos":{"page":1,"pages":2,"perpage":100,"total":128,"photo":[{"id":"52754526780","owner":"191343261@N02","secret":"563095414b","server":"0","farm":0,"title":"Bambusicola thoracicus","ispublic":1,"isfriend":0,"isfamily":0},{"id":"52753579142","owner":"191343261@N02","secret":"b44097dfcc","server":"0","farm":0,"title":"Bambusicola thoracicus","ispublic":1,"isfriend":0,"isfamily":0},{"id":"51178999704","owner":"88273428@N06","secret":"a695b0ddd9","server":"65535","farm":66,"title":"Bambusicola thoracicus \u7af9\u96de","ispublic":1,"isfriend":0,"isfamily":0},{"id":"51177538093","owner":"88273428@N06","secret":"3c8b16582a","server":"65535","farm":66,"title":"Bambusicola thoracicus \u7af9\u96de","ispublic":1,"isfriend":0,"isfamily":0},{"id":"49582659057","owner":"44635421@N06","secret":"81c6f5a885","server":"65535","farm":66,"title":"Chinese Bamboo Partridge (Bambusicola thoracicus)","ispublic":1,"isfriend":0,"isfamily":0},{"id":"49462739898","owner":"64074416@N06","secret":"ff307c159e","server":"65535","farm":66,"title":"Chinese Bamboo Partridge (Bambusicola thoracicus \u7070\u80f8\u7af9\u9e21)","ispublic":1,"isfriend":0,"isfamily":0},{"id":"40880854393","owner":"64074416@N06","secret":"e2847a65c7","server":"65535","farm":66,"title":"Chinese Bamboo Partridge (Bambusicola thoracicus \u7070\u80f8\u7af9\u9e21)","ispublic":1,"isfriend":0,"isfamily":0},{"id":"26329890859","owner":"78842503@N05","secret":"4edc79a8fd","server":"4509","farm":5,"title":"Chinese bamboo partridge","ispublic":1,"isfriend":0,"isfamily":0},{"id":"35037826292","owner":"56891930@N05","secret":"e475c52b42","server":"4246","farm":5,"title":"Female Chinese Bamboo-partridge (Bambusicola thoracicus) \u7070\u80f8\u7af9\u9e21 (\u96cc) -  Ling Xia Cun \u5cad\u4e0b\u6751, Daqiao Town \u5927\u6865\u9547, Ruyuan Yao Autonomous County \u4e73\u6e90\u7476\u65cf\u81ea\u6cbb\u53bf, Shaoguan City \u97f6\u5173\u5e02, Guangdong Province \u5e7f\u4e1c\u7701, China \u4e2d\u56fd","ispublic":1,"isfriend":0,"isfamily":0},{"id":"34352191514","owner":"96579902@N04","secret":"d321d7b74a","server":"4206","farm":5,"title":"Female & Juvenile Chinese Bamboo-partridge (Bambusicola thoracicus) \u7070\u80f8\u7af9\u9e21 (\u96cc & \u5e7c\u9e1f)","ispublic":1,"isfriend":0,"isfamily":0},{"id":"34350376534","owner":"96579902@N04","secret":"6b52691bdf","server":"4252","farm":5,"title":"Chinese Bamboo-partridge (Bambusicola thoracicus) \u7070\u80f8\u7af9\u9e21 (\u96c4)","ispublic":1,"isfriend":0,"isfamily":0},{"id":"35045108461","owner":"96579902@N04","secret":"9ca6feedc4","server":"4271","farm":5,"title":"Female & Juvenile Chinese Bamboo-partridge (Bambusicola thoracicus) \u7070\u80f8\u7af9\u9e21 (\u96cc & \u5e7c\u9e1f)","ispublic":1,"isfriend":0,"isfamily":0},{"id":"34365431303","owner":"96579902@N04","secret":"6f15b2f3c4","server":"4220","farm":5,"title":"Female Chinese Bamboo-partridge (Bambusicola thoracicus) \u7070\u80f8\u7af9\u9e21 (\u96cc)","ispublic":1,"isfriend":0,"isfamily":0},{"id":"35117162366","owner":"96579902@N04","secret":"a00cde889c","server":"4273","farm":5,"title":"Chinese Bamboo-partridge (Bambusicola thoracicus) \u7070\u80f8\u7af9\u9e21","ispublic":1,"isfriend":0,"isfamily":0},{"id":"32691105063","owner":"136425653@N05","secret":"2d64bae0f8","server":"3952","farm":4,"title":"Chinese bamboo partridge","ispublic":1,"isfriend":0,"isfamily":0},{"id":"31130474530","owner":"65560444@N07","secret":"6baea4a526","server":"697","farm":1,"title":"\"Chinese Bamboo Partridge\" \"Bambusicola thoracicus thoracicus\"","ispublic":1,"isfriend":0,"isfamily":0},{"id":"27326956990","owner":"50563654@N07","secret":"a501da1c77","server":"7037","farm":8,"title":"\u7af9\u96de\uff08\u81fa\u7063\u7af9\u96de\uff09","ispublic":1,"isfriend":0,"isfamily":0},{"id":"27504692932","owner":"50563654@N07","secret":"706607c38b","server":"7697","farm":8,"title":"\u7af9\u96de\uff08\u81fa\u7063\u7af9\u96de\uff09","ispublic":1,"isfriend":0,"isfamily":0},{"id":"27531040621","owner":"50563654@N07","secret":"f54192f5cb","server":"7038","farm":8,"title":"\u7af9\u96de\uff08\u81fa\u7063\u7af9\u96de\uff09","ispublic":1,"isfriend":0,"isfamily":0},{"id":"22552645073","owner":"27480477@N07","secret":"ff13dc9c13","server":"5827","farm":6,"title":"Taiwan Bamboo Partridge, Bambusicola thoracicus sonorivox.","ispublic":1,"isfriend":0,"isfamily":0},{"id":"18993557945","owner":"33816646@N06","secret":"648e0c991a","server":"3859","farm":4,"title":"Chinese Bamboo-partridge (Bambusicola thoracicus), Dujiangyan, Sichuan, CN, 2014-06-22--132","ispublic":1,"isfriend":0,"isfamily":0},{"id":"15306702743","owner":"40195635@N03","secret":"1975730430","server":"8568","farm":9,"title":"Chinese Bamboo-Partridge (Bambusicola thoracicus sonorivox)","ispublic":1,"isfriend":0,"isfamily":0},{"id":"15924338111","owner":"40195635@N03","secret":"d4503634a2","server":"65535","farm":66,"title":"Chinese Bamboo-Partridge (Bambusicola thoracicus sonorivox)","ispublic":1,"isfriend":0,"isfamily":0},{"id":"15029491100","owner":"13495359@N08","secret":"9537b8ecde","server":"3845","farm":4,"title":"\u7af9\u96de IMG_9960","ispublic":1,"isfriend":0,"isfamily":0},{"id":"15029491090","owner":"13495359@N08","secret":"be569ac636","server":"3905","farm":4,"title":"\u7af9\u96de IMG_9954","ispublic":1,"isfriend":0,"isfamily":0},{"id":"15029490370","owner":"13495359@N08","secret":"c32cea3537","server":"3848","farm":4,"title":"\u7af9\u96de IMG_9911","ispublic":1,"isfriend":0,"isfamily":0},{"id":"15029490380","owner":"13495359@N08","secret":"c58cb62797","server":"3897","farm":4,"title":"\u7af9\u96de IMG_9930","ispublic":1,"isfriend":0,"isfamily":0},{"id":"15018602789","owner":"13495359@N08","secret":"e15a665328","server":"3913","farm":4,"title":"\u7af9\u96de IMG_9910","ispublic":1,"isfriend":0,"isfamily":0},{"id":"15018602579","owner":"13495359@N08","secret":"ccd114cfc0","server":"5582","farm":6,"title":"\u7af9\u96de IMG_9905","ispublic":1,"isfriend":0,"isfamily":0},{"id":"15018602589","owner":"13495359@N08","secret":"6c14b7752d","server":"3912","farm":4,"title":"\u7af9\u96de IMG_9908","ispublic":1,"isfriend":0,"isfamily":0},{"id":"15018602389","owner":"13495359@N08","secret":"cfef034963","server":"3888","farm":4,"title":"\u7af9\u96de IMG_9901","ispublic":1,"isfriend":0,"isfamily":0},{"id":"15018602419","owner":"13495359@N08","secret":"0b92d4c4d1","server":"3838","farm":4,"title":"\u7af9\u96de IMG_9904","ispublic":1,"isfriend":0,"isfamily":0},{"id":"15198324562","owner":"13495359@N08","secret":"e8ab9cb49f","server":"5589","farm":6,"title":"\u7af9\u96de IMG_9900","ispublic":1,"isfriend":0,"isfamily":0},{"id":"15198324232","owner":"13495359@N08","secret":"437a725920","server":"3889","farm":4,"title":"\u7af9\u96de IMG_9855","ispublic":1,"isfriend":0,"isfamily":0},{"id":"15198324252","owner":"13495359@N08","secret":"0e4f1eb08b","server":"5578","farm":6,"title":"\u7af9\u96de IMG_9858","ispublic":1,"isfriend":0,"isfamily":0},{"id":"15198324272","owner":"13495359@N08","secret":"0c08b0ba3f","server":"5562","farm":6,"title":"\u7af9\u96de IMG_9895","ispublic":1,"isfriend":0,"isfamily":0},{"id":"15198324012","owner":"13495359@N08","secret":"3df3822b57","server":"3872","farm":4,"title":"\u7af9\u96de IMG_9838","ispublic":1,"isfriend":0,"isfamily":0},{"id":"14953613242","owner":"104988466@N08","secret":"05dfcf9f97","server":"3887","farm":4,"title":"01. Bambusicole de Chine - Bambusicola thoracicus - Chinese Bamboo Partridge","ispublic":1,"isfriend":0,"isfamily":0},{"id":"14930956426","owner":"104988466@N08","secret":"c00b9bcb97","server":"5571","farm":6,"title":"02. Bambusicole de Chine - Bambusicola thoracicus - Chinese Bamboo Partridge","ispublic":1,"isfriend":0,"isfamily":0},{"id":"14688948992","owner":"44209544@N06","secret":"d08234936d","server":"2937","farm":3,"title":"_0044655ca1","ispublic":1,"isfriend":0,"isfamily":0},{"id":"13368094035","owner":"8463034@N07","secret":"e05baaeefd","server":"3767","farm":4,"title":"Chinese Bamboo Partridge","ispublic":1,"isfriend":0,"isfamily":0},{"id":"13126223175","owner":"7833714@N03","secret":"04fffee0ca","server":"3770","farm":4,"title":"\u7af9\u96de Chinese Bamboo-Partridge","ispublic":1,"isfriend":0,"isfamily":0},{"id":"13126297413","owner":"7833714@N03","secret":"e7977edf15","server":"2395","farm":3,"title":"\u7af9\u96de Chinese Bamboo-Partridge","ispublic":1,"isfriend":0,"isfamily":0},{"id":"9073224919","owner":"70114951@N06","secret":"b312e21b95","server":"7399","farm":8,"title":"Chinese Bamboo Partridge","ispublic":1,"isfriend":0,"isfamily":0},{"id":"9075454002","owner":"70114951@N06","secret":"53babeffc6","server":"2824","farm":3,"title":"Chinese Bamboo Paridgert","ispublic":1,"isfriend":0,"isfamily":0},{"id":"8615648655","owner":"70114951@N06","secret":"1c65d768c9","server":"8105","farm":9,"title":"Chinese Bamboo Partridge","ispublic":1,"isfriend":0,"isfamily":0},{"id":"8106492469","owner":"47024491@N06","secret":"a2d5756edd","server":"8473","farm":9,"title":"Chinese Bamboo Partridge (Bambusicola thoracicus) Perdiz-bambu","ispublic":1,"isfriend":0,"isfamily":0},{"id":"8088958525","owner":"77600294@N07","secret":"f129770310","server":"8187","farm":9,"title":"\u7af9\u96de Chinese bamboo partridge","ispublic":1,"isfriend":0,"isfamily":0},{"id":"49345378273","owner":"186211059@N06","secret":"19596cec58","server":"65535","farm":66,"title":"Chinese Bamboo Partridge","ispublic":1,"isfriend":0,"isfamily":0},{"id":"48792369558","owner":"152305806@N08","secret":"6ab2453c75","server":"65535","farm":66,"title":"DSCN4933 - #\u7af9\u96de (#\u7070\u80f8\u7af9\u96de) Bambusicola thoracicus subsp. sonorivox Gould, 1863 \u53f0\u7063\u7279\u6709","ispublic":1,"isfriend":0,"isfamily":0},{"id":"48206347451","owner":"77903093@N00","secret":"31460e289e","server":"65535","farm":66,"title":"171124 Yakushiike Park-06.jpg","ispublic":1,"isfriend":0,"isfamily":0},{"id":"48149352606","owner":"77903093@N00","secret":"be5c7e2995","server":"65535","farm":66,"title":"170613 Sagamihara Park-08.jpg","ispublic":1,"isfriend":0,"isfamily":0},{"id":"48149344166","owner":"77903093@N00","secret":"d872699623","server":"65535","farm":66,"title":"170613 Sagamihara Park-07.jpg","ispublic":1,"isfriend":0,"isfamily":0},{"id":"47778389942","owner":"78842503@N05","secret":"980114d02b","server":"65535","farm":66,"title":"Chinese bamboo partridge","ispublic":1,"isfriend":0,"isfamily":0},{"id":"44051523824","owner":"129494633@N06","secret":"2578126426","server":"1841","farm":2,"title":"Bambusicola thoracicus","ispublic":1,"isfriend":0,"isfamily":0},{"id":"41043043230","owner":"132074583@N02","secret":"ef8414c3b0","server":"1727","farm":2,"title":"Bambusicola thoracicus","ispublic":1,"isfriend":0,"isfamily":0},{"id":"41558346161","owner":"124772419@N03","secret":"8b6db55174","server":"842","farm":1,"title":"Bambusicola thoracicus\u30005","ispublic":1,"isfriend":0,"isfamily":0},{"id":"41558345951","owner":"124772419@N03","secret":"dfa9706aa9","server":"901","farm":1,"title":"Bambusicola thoracicus\u30004","ispublic":1,"isfriend":0,"isfamily":0},{"id":"41558345731","owner":"124772419@N03","secret":"7632e29548","server":"927","farm":1,"title":"Bambusicola thoracicus\u30002","ispublic":1,"isfriend":0,"isfamily":0},{"id":"27688933468","owner":"124772419@N03","secret":"55ecea8740","server":"895","farm":1,"title":"Bambusicola thoracicus\u30001","ispublic":1,"isfriend":0,"isfamily":0},{"id":"40165116275","owner":"125513413@N02","secret":"389af844a5","server":"798","farm":1,"title":"20180328 \u3010\u30b3\u30b7\u3099\u30e5\u30b1\u30a4\uff1a\u85ac\u5e2b\u6c60\u516c\u5712\u3011","ispublic":1,"isfriend":0,"isfamily":0},{"id":"40849754002","owner":"27756038@N00","secret":"54828be20a","server":"4772","farm":5,"title":"2018.0318 \u7c50\u679d\u6797\u9053 \u7af9\u96de Bambusicola thoracicus","ispublic":1,"isfriend":0,"isfamily":0},{"id":"39980882425","owner":"77903093@N00","secret":"acdebc0037","server":"798","farm":1,"title":"180318 Yakushiike Park-01.jpg","ispublic":1,"isfriend":0,"isfamily":0},{"id":"38631782551","owner":"77903093@N00","secret":"c7f37c94a7","server":"4553","farm":5,"title":"171124 Yakushiike Park-06.jpg","ispublic":1,"isfriend":0,"isfamily":0},{"id":"36193178195","owner":"24889070@N08","secret":"ed96fd4b0d","server":"4321","farm":5,"title":"Bambusicola thoracicus","ispublic":1,"isfriend":0,"isfamily":0},{"id":"34644733134","owner":"52799999@N06","secret":"b7f9c275f8","server":"4232","farm":5,"title":"Chinese Bamboo Partridge (Bambusicola thoracicus)","ispublic":1,"isfriend":0,"isfamily":0},{"id":"35283342495","owner":"77903093@N00","secret":"14d4239f40","server":"4252","farm":5,"title":"170613 Sagamihara Park-08.jpg","ispublic":1,"isfriend":0,"isfamily":0},{"id":"33505618194","owner":"145824323@N05","secret":"b6fde25d3a","server":"4172","farm":5,"title":"Chinese bamboo partridge (Bambusicola thoracicus)","ispublic":1,"isfriend":0,"isfamily":0},{"id":"33470672126","owner":"96060626@N03","secret":"033277c9f5","server":"3856","farm":4,"title":"20170304 (13)","ispublic":1,"isfriend":0,"isfamily":0},{"id":"33470671606","owner":"96060626@N03","secret":"685bccf39f","server":"2812","farm":3,"title":"20170304 (15)","ispublic":1,"isfriend":0,"isfamily":0},{"id":"31012680736","owner":"141776700@N04","secret":"2f16886414","server":"5752","farm":6,"title":"2016111701","ispublic":1,"isfriend":0,"isfamily":0},{"id":"28024607974","owner":"143208698@N08","secret":"680ed05a9f","server":"8896","farm":9,"title":"\u7af9\u96de Bambusicola thoracicus \u53f0\u7063\u7279\u6709\u4e9e\u7a2e","ispublic":1,"isfriend":0,"isfamily":0},{"id":"28563199291","owner":"143208698@N08","secret":"09af264e79","server":"8711","farm":9,"title":"\u7af9\u96de Bambusicola thoracicus \u53f0\u7063\u7279\u6709\u4e9e\u7a2e","ispublic":1,"isfriend":0,"isfamily":0},{"id":"28025651903","owner":"143208698@N08","secret":"b6c532b95f","server":"8733","farm":9,"title":"\u7af9\u96de Bambusicola thoracicus \u53f0\u7063\u7279\u6709\u4e9e\u7a2e","ispublic":1,"isfriend":0,"isfamily":0},{"id":"28025651543","owner":"143208698@N08","secret":"4153de9c84","server":"8673","farm":9,"title":"\u7af9\u96de Bambusicola thoracicus \u53f0\u7063\u7279\u6709\u4e9e\u7a2e","ispublic":1,"isfriend":0,"isfamily":0},{"id":"28024605734","owner":"143208698@N08","secret":"f9d57b22e7","server":"8837","farm":9,"title":"\u7af9\u96de Bambusicola thoracicus \u53f0\u7063\u7279\u6709\u4e9e\u7a2e","ispublic":1,"isfriend":0,"isfamily":0},{"id":"27326976730","owner":"50563654@N07","secret":"7912394e06","server":"7707","farm":8,"title":"\u7af9\u96de\uff08\u81fa\u7063\u7af9\u96de\uff09","ispublic":1,"isfriend":0,"isfamily":0},{"id":"26993922744","owner":"50563654@N07","secret":"eb6fd90bd0","server":"7386","farm":8,"title":"\u7af9\u96de\uff08\u81fa\u7063\u7af9\u96de\uff09","ispublic":1,"isfriend":0,"isfamily":0},{"id":"17519958198","owner":"61354240@N00","secret":"ec115f8b87","server":"7664","farm":8,"title":"Chinese Bamboo-Partridge \/ \u7af9\u96de (Bambusicola thoracicus)","ispublic":1,"isfriend":0,"isfamily":0},{"id":"17262183871","owner":"50960628@N03","secret":"8ace737340","server":"7614","farm":8,"title":"\u30b3\u30b8\u30e5\u30b1\u30a4","ispublic":1,"isfriend":0,"isfamily":0},{"id":"17262183321","owner":"50960628@N03","secret":"972722f28d","server":"7657","farm":8,"title":"\u30b3\u30b8\u30e5\u30b1\u30a4","ispublic":1,"isfriend":0,"isfamily":0},{"id":"17075168650","owner":"50960628@N03","secret":"eb954c6bdc","server":"7672","farm":8,"title":"\u30b3\u30b8\u30e5\u30b1\u30a4","ispublic":1,"isfriend":0,"isfamily":0},{"id":"16527439044","owner":"36083098@N02","secret":"285f3b81eb","server":"7688","farm":8,"title":"Bambusicola thoracicus","ispublic":1,"isfriend":0,"isfamily":0},{"id":"16377170621","owner":"98405408@N08","secret":"b5264197bc","server":"7324","farm":8,"title":"IMG_0656 \u7af9\u96de Taiwan Bamboo-partridge","ispublic":1,"isfriend":0,"isfamily":0},{"id":"16377170611","owner":"98405408@N08","secret":"cff2d563a4","server":"7421","farm":8,"title":"IMG_0647 \u7af9\u96de Taiwan Bamboo-partridge","ispublic":1,"isfriend":0,"isfamily":0},{"id":"16377170401","owner":"98405408@N08","secret":"27cd83a9d7","server":"7300","farm":8,"title":"IMG_0645 \u7af9\u96de Taiwan Bamboo-partridge","ispublic":1,"isfriend":0,"isfamily":0},{"id":"16377170171","owner":"98405408@N08","secret":"2a6e2cecd5","server":"7281","farm":8,"title":"IMG_0643 \u7af9\u96de Taiwan Bamboo-partridge","ispublic":1,"isfriend":0,"isfamily":0},{"id":"16377170041","owner":"98405408@N08","secret":"4ac2f2b9cc","server":"8650","farm":9,"title":"IMG_0639 \u7af9\u96de Taiwan Bamboo-partridge","ispublic":1,"isfriend":0,"isfamily":0},{"id":"16377169941","owner":"98405408@N08","secret":"afebd4b320","server":"7411","farm":8,"title":"IMG_0638 \u7af9\u96de Taiwan Bamboo-partridge","ispublic":1,"isfriend":0,"isfamily":0},{"id":"15290939541","owner":"127858540@N03","secret":"ca79a637e9","server":"5568","farm":6,"title":"Bambusicole de Chine - Bambusicola thoracicus - Chinese Bamboo","ispublic":1,"isfriend":0,"isfamily":0},{"id":"14950838321","owner":"104988466@N08","secret":"8a90e1a855","server":"5569","farm":6,"title":"03. Bambusicole de Chine - Bambusicola thoracicus - Chinese Bamboo Partridge","ispublic":1,"isfriend":0,"isfamily":0},{"id":"13368757493","owner":"8463034@N07","secret":"070ff0c04a","server":"7113","farm":8,"title":"Chinese Bamboo Partridge","ispublic":1,"isfriend":0,"isfamily":0},{"id":"13126318303","owner":"7833714@N03","secret":"e3d33b4b35","server":"3727","farm":4,"title":"\u7af9\u96de Chinese Bamboo-Partridge","ispublic":1,"isfriend":0,"isfamily":0},{"id":"13126169135","owner":"7833714@N03","secret":"651d24240d","server":"2106","farm":3,"title":"\u7af9\u96de Chinese Bamboo-Partridge","ispublic":1,"isfriend":0,"isfamily":0},{"id":"9073224459","owner":"70114951@N06","secret":"07420b4a29","server":"3831","farm":4,"title":"Chinese Bamboo Partridge","ispublic":1,"isfriend":0,"isfamily":0},{"id":"8712502483","owner":"95273947@N03","secret":"4ab5dd9f99","server":"8114","farm":9,"title":"Chinese Bamboo Partridge (\u30b3\u30b8\u30e5\u30b1\u30a4)","ispublic":1,"isfriend":0,"isfamily":0},{"id":"8597898740","owner":"36598456@N03","secret":"eb69438615","server":"8511","farm":9,"title":"Chinese Bamboo Partridge","ispublic":1,"isfriend":0,"isfamily":0},{"id":"8137606153","owner":"40195635@N03","secret":"e6f43bd56d","server":"8336","farm":9,"title":"Chinese Bamboo-Partridge (Bambusicola thoracicus sonorivox)","ispublic":1,"isfriend":0,"isfamily":0},{"id":"8077205934","owner":"9919745@N03","secret":"6747d561d8","server":"8046","farm":9,"title":"Chinese Bamboo Partridge (Bambusicola thoracicus)","ispublic":1,"isfriend":0,"isfamily":0},{"id":"7822533444","owner":"24287440@N02","secret":"1a460282e2","server":"7135","farm":8,"title":"\u7af9\u96de Bambusicola thoracicus_DSC4954","ispublic":1,"isfriend":0,"isfamily":0}]},"stat":"ok"}