{"photos":{"page":1,"pages":2,"perpage":100,"total":162,"photo":[{"id":"52580842118","owner":"153973412@N04","secret":"3853d5e7db","server":"65535","farm":66,"title":"Chuck-wills-widow-Antrostomus carolinensis, Everglades, FL","ispublic":1,"isfriend":0,"isfamily":0},{"id":"52543260989","owner":"10336659@N04","secret":"8104887246","server":"65535","farm":66,"title":"Chuck-will's-widow (Antrostomus carolinensis) portrait, Green Cay Nature Preserve.","ispublic":1,"isfriend":0,"isfamily":0},{"id":"52537689497","owner":"10336659@N04","secret":"10c5c2256e","server":"65535","farm":66,"title":"Chuck-will's-widow (Antrostomus carolinensis) portrait, Green Cay Nature Preserve.","ispublic":1,"isfriend":0,"isfamily":0},{"id":"52526419537","owner":"10336659@N04","secret":"79db447aea","server":"65535","farm":66,"title":"Chuck-will's-widow (Antrostomus carolinensis) portrait, Green Cay Nature Preserve.","ispublic":1,"isfriend":0,"isfamily":0},{"id":"52460462432","owner":"10336659@N04","secret":"d584f99a67","server":"65535","farm":66,"title":"Chucky's beauty. Chuck-will's-widow (Antrostomus carolinensis) portrait, Green Cay Nature Preserve.","ispublic":1,"isfriend":0,"isfamily":0},{"id":"52418754410","owner":"10336659@N04","secret":"b3072a4759","server":"65535","farm":66,"title":"Chuck-will's-widow (Antrostomus carolinensis) portrait, Green Cay Nature Preserve.","ispublic":1,"isfriend":0,"isfamily":0},{"id":"52398174244","owner":"10336659@N04","secret":"0ecbca5cf6","server":"65535","farm":66,"title":"Chuck-will's-widow (Antrostomus carolinensis) portrait, Green Cay Nature Preserve.","ispublic":1,"isfriend":0,"isfamily":0},{"id":"52257421976","owner":"54546220@N00","secret":"4c52f4f2de","server":"65535","farm":66,"title":"Don Ju\u00e1n, Chuck-will\u2019s-widow (Antrostomus carolinensis)","ispublic":1,"isfriend":0,"isfamily":0},{"id":"52232025831","owner":"8065544@N08","secret":"c91ea248a8","server":"65535","farm":66,"title":"Chuck-will's-widow (Antrostomus carolinensis)","ispublic":1,"isfriend":0,"isfamily":0},{"id":"52097270111","owner":"66602402@N04","secret":"2768412a24","server":"65535","farm":66,"title":"Don Juan, Chotacabras, Chuck-will's widow (Antrostomus carolinensis)","ispublic":1,"isfriend":0,"isfamily":0},{"id":"52097771640","owner":"66602402@N04","secret":"6f4dee0276","server":"65535","farm":66,"title":"Don Juan, Chotacabras, Chuck-will's widow (Antrostomus carolinensis)","ispublic":1,"isfriend":0,"isfamily":0},{"id":"52026124891","owner":"10336659@N04","secret":"608324b1cd","server":"65535","farm":66,"title":"Chuck-will's-widow (Antrostomus carolinensis) portrait, Green Cay Nature Preserve.","ispublic":1,"isfriend":0,"isfamily":0},{"id":"51959304784","owner":"10336659@N04","secret":"6584cd5bba","server":"65535","farm":66,"title":"Chuck-will's-widow (Antrostomus carolinensis) eye, Green Cay Nature Preserve.","ispublic":1,"isfriend":0,"isfamily":0},{"id":"51955624935","owner":"10336659@N04","secret":"a9b9b0c922","server":"65535","farm":66,"title":"Abstract Portrait. Chuck-will's-widow (Antrostomus carolinensis) portrait, Green Cay Nature Preserve.","ispublic":1,"isfriend":0,"isfamily":0},{"id":"51749884673","owner":"79153825@N08","secret":"4de3147026","server":"65535","farm":66,"title":"Aves de Rep\u00fablica Dominicana: Don Juan.(Antrostomus carolinensis.).Chuck-will-widow.","ispublic":1,"isfriend":0,"isfamily":0},{"id":"51748806712","owner":"79153825@N08","secret":"d673360e66","server":"65535","farm":66,"title":"Aves de Rep\u00fablica Dominicana: Don Juan.(Antrostomus carolinensis.).Chuck-will-widow.","ispublic":1,"isfriend":0,"isfamily":0},{"id":"51749636231","owner":"79153825@N08","secret":"7222cbbb14","server":"65535","farm":66,"title":"Aves de Rep\u00fablica Dominicana: Don Juan.(Antrostomus carolinensis.).Chuck-will-widow.","ispublic":1,"isfriend":0,"isfamily":0},{"id":"51748805482","owner":"79153825@N08","secret":"eced82db4b","server":"65535","farm":66,"title":"Aves de Rep\u00fablica Dominicana: Don Juan.(Antrostomus carolinensis.).Chuck-will-widow.","ispublic":1,"isfriend":0,"isfamily":0},{"id":"51726132939","owner":"194341957@N06","secret":"2d06b998d2","server":"65535","farm":66,"title":"chuck-will's-widow","ispublic":1,"isfriend":0,"isfamily":0},{"id":"51726132829","owner":"194341957@N06","secret":"f72109b064","server":"65535","farm":66,"title":"chuck-will's-widow","ispublic":1,"isfriend":0,"isfamily":0},{"id":"51153244547","owner":"190949917@N03","secret":"aeeca3bd40","server":"65535","farm":66,"title":"Chuck-will's-Widow","ispublic":1,"isfriend":0,"isfamily":0},{"id":"50667447726","owner":"90334313@N06","secret":"6f09781d16","server":"65535","farm":66,"title":"Chuck Will's Widow","ispublic":1,"isfriend":0,"isfamily":0},{"id":"50666059588","owner":"190773540@N03","secret":"dd94be5c85","server":"65535","farm":66,"title":"Chuck-will's-widow","ispublic":1,"isfriend":0,"isfamily":0},{"id":"50592369757","owner":"54546220@N00","secret":"b02cd8242a","server":"65535","farm":66,"title":"Don Ju\u00e1n, Chuck-will\u2019s-widow (Antrostomus carolinensis)","ispublic":1,"isfriend":0,"isfamily":0},{"id":"50592368492","owner":"54546220@N00","secret":"ab041b8065","server":"65535","farm":66,"title":"Don Ju\u00e1n, Chuck-will\u2019s-widow (Antrostomus carolinensis)","ispublic":1,"isfriend":0,"isfamily":0},{"id":"50398895022","owner":"26803925@N05","secret":"e8aff52efe","server":"65535","farm":66,"title":"Chuck-will's-widow (Antrostomus carolinensis) 08-26-2020 Assateague I. NS--Bayside Rd., Worcester Co. MD 3","ispublic":1,"isfriend":0,"isfamily":0},{"id":"50144369108","owner":"61021753@N02","secret":"c323442279","server":"65535","farm":66,"title":"n272_w1150","ispublic":1,"isfriend":0,"isfamily":0},{"id":"50003980177","owner":"7449293@N02","secret":"c7a61e7d5c","server":"65535","farm":66,"title":"Antrostomus carolinensis, Pine Mountain Area, Meriwether County, Georgia 1","ispublic":1,"isfriend":0,"isfamily":0},{"id":"49485644833","owner":"79153825@N08","secret":"7a1782a4b5","server":"65535","farm":66,"title":"DON JUAN.(Antrostomus Carolinensis. CHURCH- WILL'S -WIDOW","ispublic":1,"isfriend":0,"isfamily":0},{"id":"49456854286","owner":"61021753@N02","secret":"60f3095d06","server":"65535","farm":66,"title":"n82_w1150","ispublic":1,"isfriend":0,"isfamily":0},{"id":"49376677141","owner":"66602402@N04","secret":"4cac853e71","server":"65535","farm":66,"title":"Don Juan, Chotacabras, Chuck-will's widow (Antrostomus carolinensis)","ispublic":1,"isfriend":0,"isfamily":0},{"id":"49376659621","owner":"66602402@N04","secret":"cb65dd4227","server":"65535","farm":66,"title":"Don Juan, Chotacabras, Chuck-will's widow (Antrostomus carolinensis)","ispublic":1,"isfriend":0,"isfamily":0},{"id":"49376184168","owner":"66602402@N04","secret":"2662e1d643","server":"65535","farm":66,"title":"Don Juan, Chotacabras, Chuck-will's widow (Antrostomus carolinensis)","ispublic":1,"isfriend":0,"isfamily":0},{"id":"49376818747","owner":"66602402@N04","secret":"745812a7ae","server":"65535","farm":66,"title":"Don Juan, Chotacabras, Chuck-will's widow (Antrostomus carolinensis)","ispublic":1,"isfriend":0,"isfamily":0},{"id":"49362069551","owner":"66602402@N04","secret":"3e757db728","server":"65535","farm":66,"title":"Don Juan, Chotacabras, Chuck-will's widow (Antrostomus carolinensis)","ispublic":1,"isfriend":0,"isfamily":0},{"id":"49361602833","owner":"66602402@N04","secret":"99d1e6959d","server":"65535","farm":66,"title":"Don Juan, Chotacabras, Chuck-will's widow (Antrostomus carolinensis)","ispublic":1,"isfriend":0,"isfamily":0},{"id":"49362064736","owner":"66602402@N04","secret":"f788529561","server":"65535","farm":66,"title":"Don Juan, Chotacabras, Chuck-will's widow (Antrostomus carolinensis)","ispublic":1,"isfriend":0,"isfamily":0},{"id":"49362060601","owner":"66602402@N04","secret":"4f616c79fb","server":"65535","farm":66,"title":"Don Juan, Chotacabras, Chuck-will's widow (Antrostomus carolinensis)","ispublic":1,"isfriend":0,"isfamily":0},{"id":"49361594858","owner":"66602402@N04","secret":"fed800f464","server":"65535","farm":66,"title":"Don Juan, Chotacabras, Chuck-will's widow (Antrostomus carolinensis)","ispublic":1,"isfriend":0,"isfamily":0},{"id":"49361593398","owner":"66602402@N04","secret":"cce4ba1990","server":"65535","farm":66,"title":"Don Juan, Chotacabras, Chuck-will's widow (Antrostomus carolinensis)","ispublic":1,"isfriend":0,"isfamily":0},{"id":"49362260237","owner":"66602402@N04","secret":"933979bf50","server":"65535","farm":66,"title":"Don Juan, Chotacabras, Chuck-will's widow (Antrostomus carolinensis)","ispublic":1,"isfriend":0,"isfamily":0},{"id":"49356302077","owner":"66602402@N04","secret":"0e5bc7c1fa","server":"65535","farm":66,"title":"Don Juan, Chotacabras, Chuck-will's widow (Antrostomus carolinensis)","ispublic":1,"isfriend":0,"isfamily":0},{"id":"49355630218","owner":"66602402@N04","secret":"19baae6a6e","server":"65535","farm":66,"title":"Don Juan, Chotacabras, Chuck-will's widow (Antrostomus carolinensis)","ispublic":1,"isfriend":0,"isfamily":0},{"id":"49355622338","owner":"66602402@N04","secret":"ba6a13fc93","server":"65535","farm":66,"title":"Don Juan, Chotacabras, Chuck-will's widow (Antrostomus carolinensis)","ispublic":1,"isfriend":0,"isfamily":0},{"id":"49356282262","owner":"66602402@N04","secret":"023e759a00","server":"65535","farm":66,"title":"Don Juan, Chotacabras, Chuck-will's widow (Antrostomus carolinensis)","ispublic":1,"isfriend":0,"isfamily":0},{"id":"49355609828","owner":"66602402@N04","secret":"3927879ac5","server":"65535","farm":66,"title":"Don Juan, Chotacabras, Chuck-will's widow (Antrostomus carolinensis)","ispublic":1,"isfriend":0,"isfamily":0},{"id":"48757042036","owner":"184535870@N04","secret":"883357fd8c","server":"65535","farm":66,"title":"Chuck-will's-widow","ispublic":1,"isfriend":0,"isfamily":0},{"id":"48606386641","owner":"22010675@N02","secret":"b82e0fcdbf","server":"65535","farm":66,"title":"Chuck-Wills-Widow_WEB_2U6A0158","ispublic":1,"isfriend":0,"isfamily":0},{"id":"48112177376","owner":"33610210@N05","secret":"c0f1652e2c","server":"65535","farm":66,"title":"Chuck-Will's-Widow, Antrostomus carolinensis","ispublic":1,"isfriend":0,"isfamily":0},{"id":"48103582677","owner":"129153947@N05","secret":"fac50f8fd3","server":"0","farm":0,"title":"Chuck-will's-Widow","ispublic":1,"isfriend":0,"isfamily":0},{"id":"33966160278","owner":"63283725@N04","secret":"df2b222fdb","server":"65535","farm":66,"title":"Chuck-will's-widow (Antrostomus carolinensis)","ispublic":1,"isfriend":0,"isfamily":0},{"id":"46947766484","owner":"88537019@N00","secret":"3533bf1e8b","server":"65535","farm":66,"title":"Chuck-will's-widow (Antrostomus carolinensis)","ispublic":1,"isfriend":0,"isfamily":0},{"id":"32664860807","owner":"47745688@N05","secret":"1918af84be","server":"7838","farm":8,"title":"Chuck-will's-widow, Antrostomus carolinensis","ispublic":1,"isfriend":0,"isfamily":0},{"id":"47444598911","owner":"81126336@N00","secret":"1a48221310","server":"7816","farm":8,"title":"Chotacabras de paso \/ Chuck-will's-widow","ispublic":1,"isfriend":0,"isfamily":0},{"id":"46615610042","owner":"86585370@N00","secret":"707a5541fb","server":"7842","farm":8,"title":"Chuck-will's-widow \/\/ Chotacabras de paso","ispublic":1,"isfriend":0,"isfamily":0},{"id":"45642122184","owner":"153584064@N07","secret":"e63b7388f0","server":"4830","farm":5,"title":"Chuck-will's Widow from Birds of America (1827) by John James Audubon (1785 - 1851), etched by Robert Havell (1793 - 1878). The original Birds of America is the most expensive printed book in the world and a truly awe-inspiring classic.","ispublic":1,"isfriend":0,"isfamily":0},{"id":"43390140171","owner":"74113421@N03","secret":"4a6eca65fe","server":"1810","farm":2,"title":"Chuck-will's-widow (Antrostomus carolinensis)","ispublic":1,"isfriend":0,"isfamily":0},{"id":"43390139651","owner":"74113421@N03","secret":"4e959035d6","server":"1821","farm":2,"title":"Chuck-will's-widow (Antrostomus carolinensis)","ispublic":1,"isfriend":0,"isfamily":0},{"id":"43307213272","owner":"129153947@N05","secret":"762e7695f9","server":"840","farm":1,"title":"Chuck-will's-widow - Antrostomus carolinensis","ispublic":1,"isfriend":0,"isfamily":0},{"id":"42580736134","owner":"129153947@N05","secret":"c8fc125225","server":"835","farm":1,"title":"Chuck-will's-widow Antrostomus carolinensis","ispublic":1,"isfriend":0,"isfamily":0},{"id":"29056557758","owner":"72765183@N07","secret":"b42b6e5d77","server":"1824","farm":2,"title":"\"Mother and Child\" Chuck-will's-widows, Wilson County, Tennessee","ispublic":1,"isfriend":0,"isfamily":0},{"id":"42088358754","owner":"31704662@N08","secret":"b501e6989f","server":"895","farm":1,"title":"Chuck-will's-widow (Antrostomus carolinensis)","ispublic":1,"isfriend":0,"isfamily":0},{"id":"41163315954","owner":"153584064@N07","secret":"3f0d86e640","server":"945","farm":1,"title":"Chuck-will's Widow from Birds of America (1827) by John James Audubon (1785 - 1851), etched by Robert Havell (1793 - 1878). The original Birds of America is the most expensive printed book in the world and a truly awe-inspiring classic.","ispublic":1,"isfriend":0,"isfamily":0},{"id":"40723838135","owner":"80874106@N06","secret":"bacf7ffd02","server":"877","farm":1,"title":"Antrostomus carolinensis \/ Chotacabras de Paso \/ Chuck-will\u2019s-widow","ispublic":1,"isfriend":0,"isfamily":0},{"id":"41615133991","owner":"80874106@N06","secret":"fd91aa93cb","server":"851","farm":1,"title":"Antrostomus carolinensis \/ Chotacabras de Paso \/ Chuck-will\u2019s-widow","ispublic":1,"isfriend":0,"isfamily":0},{"id":"41575044592","owner":"80874106@N06","secret":"174db1ac8b","server":"894","farm":1,"title":"Antrostomus carolinensis \/ Chotacabras de Paso \/ Chuck-will\u2019s-widow","ispublic":1,"isfriend":0,"isfamily":0},{"id":"39016206824","owner":"126761410@N03","secret":"695cf12f87","server":"4698","farm":5,"title":"Chuck-Will's-Widow \/ Tapacamino de Paso","ispublic":1,"isfriend":0,"isfamily":0},{"id":"24841776227","owner":"126761410@N03","secret":"45aff8f7af","server":"4712","farm":5,"title":"Chuck-Will's-Widow \/ Tapacamino de Paso (Antrostomus carolinensis)","ispublic":1,"isfriend":0,"isfamily":0},{"id":"34644407996","owner":"85472330@N00","secret":"ca33383a05","server":"4171","farm":5,"title":"IMG_2850.jpg","ispublic":1,"isfriend":0,"isfamily":0},{"id":"33720165934","owner":"39177293@N03","secret":"7eda05e8b2","server":"4176","farm":5,"title":"Chuck-will's-widow","ispublic":1,"isfriend":0,"isfamily":0},{"id":"33720164524","owner":"39177293@N03","secret":"e385bbc100","server":"4186","farm":5,"title":"Chuck-will's-widow","ispublic":1,"isfriend":0,"isfamily":0},{"id":"33585913154","owner":"57644048@N00","secret":"cba81191b8","server":"4156","farm":5,"title":"Chuck is back","ispublic":1,"isfriend":0,"isfamily":0},{"id":"34247808252","owner":"70788108@N08","secret":"ca5b29686f","server":"4180","farm":5,"title":"Chuck-Will's-Widow","ispublic":1,"isfriend":0,"isfamily":0},{"id":"33913638455","owner":"59946862@N07","secret":"71432962ab","server":"2912","farm":3,"title":"Chuck-will's-widow - cwwi","ispublic":1,"isfriend":0,"isfamily":0},{"id":"33070284334","owner":"59946862@N07","secret":"e8df3c8eea","server":"2915","farm":3,"title":"Chuck-will's-widow gaping maw - cwwi","ispublic":1,"isfriend":0,"isfamily":0},{"id":"33872792976","owner":"59946862@N07","secret":"e20551297c","server":"2946","farm":3,"title":"Chuck-will's-widow mouth and bristles - cwwi","ispublic":1,"isfriend":0,"isfamily":0},{"id":"33070279944","owner":"59946862@N07","secret":"aaba75a3a1","server":"2806","farm":3,"title":"Chuck-will's-widow large open mouth - cwwi","ispublic":1,"isfriend":0,"isfamily":0},{"id":"33872773416","owner":"59946862@N07","secret":"0197e70cb4","server":"2896","farm":3,"title":"Chuck-will's-widow  starting to open its bill - cwwi","ispublic":1,"isfriend":0,"isfamily":0},{"id":"33783927561","owner":"59946862@N07","secret":"7719647ae2","server":"2899","farm":3,"title":"Chuck-will's-widow beak and closed mouth- cwwi","ispublic":1,"isfriend":0,"isfamily":0},{"id":"33913587725","owner":"59946862@N07","secret":"1249ea031d","server":"2826","farm":3,"title":"Chuck-will's-widow underwing and undertail - cwwi","ispublic":1,"isfriend":0,"isfamily":0},{"id":"33872751996","owner":"59946862@N07","secret":"bfa1b1ac23","server":"2813","farm":3,"title":"Chuck-will's-widow upperwing and upper tail - cwwi","ispublic":1,"isfriend":0,"isfamily":0},{"id":"33506981776","owner":"56966335@N02","secret":"5c42e5c0a2","server":"2826","farm":3,"title":"Antrostomus carolinensis","ispublic":1,"isfriend":0,"isfamily":0},{"id":"31847284742","owner":"85255164@N05","secret":"40315da195","server":"583","farm":1,"title":"Chuck-Will's Widow","ispublic":1,"isfriend":0,"isfamily":0},{"id":"30289224686","owner":"82969027@N04","secret":"f358442b97","server":"8280","farm":9,"title":"Antrostomus carolinensis_","ispublic":1,"isfriend":0,"isfamily":0},{"id":"28983364970","owner":"131385771@N04","secret":"82bc8acdb2","server":"8097","farm":9,"title":"Sleeping Beauty","ispublic":1,"isfriend":0,"isfamily":0},{"id":"26394018303","owner":"55608596@N07","secret":"74af8d2574","server":"7444","farm":8,"title":"Antrostomus carolinensis, Chuck-will's-widow, Chotacabras de Paso","ispublic":1,"isfriend":0,"isfamily":0},{"id":"51707720254","owner":"90334313@N06","secret":"714597a4ab","server":"65535","farm":66,"title":"Chuck Will's Widow","ispublic":1,"isfriend":0,"isfamily":0},{"id":"51269499463","owner":"193172129@N03","secret":"925ec7b5df","server":"65535","farm":66,"title":"[042]-20210617_103955","ispublic":1,"isfriend":0,"isfamily":0},{"id":"51268902531","owner":"193196961@N03","secret":"0fe4d61ceb","server":"65535","farm":66,"title":"69 chuck-wills widow- Antrostomus carolinensis","ispublic":1,"isfriend":0,"isfamily":0},{"id":"50398736066","owner":"26803925@N05","secret":"8818585374","server":"65535","farm":66,"title":"Chuck-will's-widow (Antrostomus carolinensis) 08-26-2020 Assateague I. NS--Bayside Rd., Worcester Co. MD 1","ispublic":1,"isfriend":0,"isfamily":0},{"id":"49922872258","owner":"50264295@N06","secret":"8e4c001b8f","server":"0","farm":0,"title":"Chuck-will's-widow (Antrostomus carolinensis)- calling","ispublic":1,"isfriend":0,"isfamily":0},{"id":"49356060446","owner":"66602402@N04","secret":"0f3a3bc0b8","server":"65535","farm":66,"title":"Don Juan, Chotacabras, Chuck-will's widow (Antrostomus carolinensis)","ispublic":1,"isfriend":0,"isfamily":0},{"id":"48196389732","owner":"60377564@N08","secret":"1e3a9fdd86","server":"65535","farm":66,"title":"Chuck-will's-widow (Antrostomus carolinensis)","ispublic":1,"isfriend":0,"isfamily":0},{"id":"48041174883","owner":"76628146@N05","secret":"0e8b5f1d78","server":"0","farm":0,"title":"Chuck-will's-widow (Antrostomus carolinensis)","ispublic":1,"isfriend":0,"isfamily":0},{"id":"43307213582","owner":"129153947@N05","secret":"5405fa63a3","server":"1763","farm":2,"title":"Chuck-will's-widow - Antrostomus carolinensis","ispublic":1,"isfriend":0,"isfamily":0},{"id":"28652871818","owner":"150123829@N02","secret":"463faf4fe5","server":"1738","farm":2,"title":"Chuck-will's-widow (Antrostomus carolinensis)","ispublic":1,"isfriend":0,"isfamily":0},{"id":"35355630706","owner":"103784740@N03","secret":"750a32c74e","server":"4257","farm":5,"title":"Chuck-will's-widow (Antrostomus carolinensis)","ispublic":1,"isfriend":0,"isfamily":0},{"id":"33513984442","owner":"126761410@N03","secret":"4b5417a47c","server":"3734","farm":4,"title":"Chuck-Will's-Widow \/ Tapacamino de Paso","ispublic":1,"isfriend":0,"isfamily":0},{"id":"31281620261","owner":"8327478@N03","secret":"bdba5024f8","server":"5802","farm":6,"title":"Chuck-will's-widow (Antrostomus carolinensis)","ispublic":1,"isfriend":0,"isfamily":0},{"id":"27335411261","owner":"126304782@N02","secret":"fc656a7623","server":"7049","farm":8,"title":"Chuck-will's-widow (Antrostomus carolinensis)","ispublic":1,"isfriend":0,"isfamily":0}]},"stat":"ok"}