{"photos":{"page":1,"pages":6,"perpage":100,"total":561,"photo":[{"id":"52785801545","owner":"12639178@N07","secret":"cb7ecc06b0","server":"65535","farm":66,"title":"Halsbandspelzer M\u00e4nnchen","ispublic":1,"isfriend":0,"isfamily":0},{"id":"52753814129","owner":"12639178@N07","secret":"599508402f","server":"65535","farm":66,"title":"Halsbandspelzer","ispublic":1,"isfriend":0,"isfamily":0},{"id":"52707279623","owner":"195537536@N03","secret":"a0bab9f40b","server":"65535","farm":66,"title":"Cinnamon-rumped Seedeater (Sporophila torqueola)","ispublic":1,"isfriend":0,"isfamily":0},{"id":"52673498358","owner":"41694014@N04","secret":"2e1ce5a0a2","server":"65535","farm":66,"title":"Sporophila torqueola","ispublic":1,"isfriend":0,"isfamily":0},{"id":"52652182289","owner":"154130070@N04","secret":"dec4ebd841","server":"65535","farm":66,"title":"WHITE-COLLARED SEEDEATER, Sporophila torqueola","ispublic":1,"isfriend":0,"isfamily":0},{"id":"52415581973","owner":"84169650@N07","secret":"372dd42ebf","server":"65535","farm":66,"title":"Cinnamon Rumped Seedeater","ispublic":1,"isfriend":0,"isfamily":0},{"id":"52236834188","owner":"142134964@N04","secret":"b629e8eb46","server":"65535","farm":66,"title":"261- Setillero (Sporophila torqueola)","ispublic":1,"isfriend":0,"isfamily":0},{"id":"52157570684","owner":"54249623@N08","secret":"cd0a2d1048","server":"65535","farm":66,"title":"Cinnamon-rumped Seedeater (Sporophila torqueola)","ispublic":1,"isfriend":0,"isfamily":0},{"id":"51934138120","owner":"67306066@N03","secret":"f2a05301b9","server":"65535","farm":66,"title":"Cinnamon-rumped Seedeater (Sporophila torqueola)","ispublic":1,"isfriend":0,"isfamily":0},{"id":"51934138110","owner":"67306066@N03","secret":"890578c018","server":"65535","farm":66,"title":"Cinnamon-rumped Seedeater (Sporophila torqueola)","ispublic":1,"isfriend":0,"isfamily":0},{"id":"51929944212","owner":"67306066@N03","secret":"4d54f5f481","server":"65535","farm":66,"title":"Cinnamon-rumped Seedeater (Sporophila torqueola)","ispublic":1,"isfriend":0,"isfamily":0},{"id":"51696384188","owner":"47020313@N08","secret":"4453eb7bd0","server":"65535","farm":66,"title":"Morelet's Seedeater IMG_9723edtsg","ispublic":1,"isfriend":0,"isfamily":0},{"id":"51319895007","owner":"77671375@N04","secret":"0ddeb9ac86","server":"65535","farm":66,"title":"Cinnamon-rumped Seedeater","ispublic":1,"isfriend":0,"isfamily":0},{"id":"51320831813","owner":"77671375@N04","secret":"6c2a68c1fa","server":"65535","farm":66,"title":"Cinnamon-rumped Seedeater","ispublic":1,"isfriend":0,"isfamily":0},{"id":"51000877811","owner":"26371261@N00","secret":"ec183e172f","server":"65535","farm":66,"title":"Cinnamon-rumped Seedeater, Sporophila torqueola","ispublic":1,"isfriend":0,"isfamily":0},{"id":"51000175518","owner":"26371261@N00","secret":"cf85bbdbb8","server":"65535","farm":66,"title":"Cinnamon-rumped Seedeater, Sporophila torqueola","ispublic":1,"isfriend":0,"isfamily":0},{"id":"51000874226","owner":"26371261@N00","secret":"6d308beb09","server":"65535","farm":66,"title":"Cinnamon-rumped Seedeater, Sporophila torqueola","ispublic":1,"isfriend":0,"isfamily":0},{"id":"49211634892","owner":"132508209@N08","secret":"c3c0756262","server":"65535","farm":66,"title":"White-collared Seedeater (Sporophila torqueola)","ispublic":1,"isfriend":0,"isfamily":0},{"id":"40807560583","owner":"25527950@N03","secret":"8888bd5dcd","server":"65535","farm":66,"title":"Semillero de Collar (Sporophila torqueola)","ispublic":1,"isfriend":0,"isfamily":0},{"id":"47279112862","owner":"159284114@N07","secret":"32df38ca08","server":"7828","farm":8,"title":"Sporophile \u00e0 col blanc, White-collared seedheater","ispublic":1,"isfriend":0,"isfamily":0},{"id":"45593819704","owner":"94867072@N05","secret":"030f8275fc","server":"4832","farm":5,"title":"Sporophila torqueola","ispublic":1,"isfriend":0,"isfamily":0},{"id":"44922989984","owner":"94310798@N04","secret":"703a70983a","server":"1903","farm":2,"title":"White-collared seedeater","ispublic":1,"isfriend":0,"isfamily":0},{"id":"31577757498","owner":"55608596@N07","secret":"5d09c8b144","server":"1930","farm":2,"title":"Sporophila torqueola, White-collared Seedeater, Espiguero Collarejo","ispublic":1,"isfriend":0,"isfamily":0},{"id":"42598895070","owner":"72277919@N05","secret":"22550c0691","server":"1861","farm":2,"title":"Cinnamon-rumped Seedeater","ispublic":1,"isfriend":0,"isfamily":0},{"id":"30130500568","owner":"11161928@N06","secret":"6309950430","server":"1777","farm":2,"title":"Semillerito de collar","ispublic":1,"isfriend":0,"isfamily":0},{"id":"29830447768","owner":"10654190@N04","secret":"5ddd5da02b","server":"933","farm":1,"title":"Sporophila torqueola -  White-collared Seedeater","ispublic":1,"isfriend":0,"isfamily":0},{"id":"28811154147","owner":"10654190@N04","secret":"13c58f41b7","server":"942","farm":1,"title":"Sporophila torqueola -  White-collared Seedeater","ispublic":1,"isfriend":0,"isfamily":0},{"id":"29830447168","owner":"10654190@N04","secret":"af067e2ffa","server":"848","farm":1,"title":"Sporophila torqueola -  White-collared Seedeater","ispublic":1,"isfriend":0,"isfamily":0},{"id":"43554015712","owner":"33221594@N03","secret":"a738bab109","server":"919","farm":1,"title":"White-collared Seedeater Sporophila torqueola_4485","ispublic":1,"isfriend":0,"isfamily":0},{"id":"29731059138","owner":"33221594@N03","secret":"09ee3a3d45","server":"848","farm":1,"title":"White-collared Seedeater Sporophila torqueola_4487","ispublic":1,"isfriend":0,"isfamily":0},{"id":"41764199000","owner":"33221594@N03","secret":"679f602905","server":"855","farm":1,"title":"White-collared Seedeater Sporophila torqueola_3580","ispublic":1,"isfriend":0,"isfamily":0},{"id":"43053323691","owner":"80288319@N02","secret":"0b6b2983e0","server":"1821","farm":2,"title":"Sporophila torqueola","ispublic":1,"isfriend":0,"isfamily":0},{"id":"41998724445","owner":"131772930@N05","secret":"e666730d61","server":"1803","farm":2,"title":"Sporophila torqueola","ispublic":1,"isfriend":0,"isfamily":0},{"id":"42506124172","owner":"38972116@N00","secret":"c9f4bc0c25","server":"1729","farm":2,"title":"White-collared Seedeater","ispublic":1,"isfriend":0,"isfamily":0},{"id":"41055274465","owner":"156781822@N07","secret":"c8ce92c0dc","server":"966","farm":1,"title":"Semillero de Collar (Sporophila torqueola)","ispublic":1,"isfriend":0,"isfamily":0},{"id":"41235947444","owner":"156781822@N07","secret":"30f578c7cd","server":"977","farm":1,"title":"Semillero de Collar (Sporophila torqueola)","ispublic":1,"isfriend":0,"isfamily":0},{"id":"41055269525","owner":"156781822@N07","secret":"d6113723ee","server":"975","farm":1,"title":"Semillero de Collar (Sporophila torqueola)","ispublic":1,"isfriend":0,"isfamily":0},{"id":"28083408488","owner":"156781822@N07","secret":"5acd7f744c","server":"948","farm":1,"title":"Semillero de Collar (Sporophila torqueola)","ispublic":1,"isfriend":0,"isfamily":0},{"id":"41640001912","owner":"14888671@N02","secret":"760142599f","server":"907","farm":1,"title":"White-collared Seedeater","ispublic":1,"isfriend":0,"isfamily":0},{"id":"27791177378","owner":"14888671@N02","secret":"2acfafb855","server":"869","farm":1,"title":"White-collared Seedeater","ispublic":1,"isfriend":0,"isfamily":0},{"id":"40947946054","owner":"14888671@N02","secret":"2827edcc12","server":"910","farm":1,"title":"White-collared Seedeater - male","ispublic":1,"isfriend":0,"isfamily":0},{"id":"26537662767","owner":"55608596@N07","secret":"729cd2a732","server":"790","farm":1,"title":"Sporophila torqueola, White-collared Seedeater, Espiguero Collarejo","ispublic":1,"isfriend":0,"isfamily":0},{"id":"40280075184","owner":"136558434@N02","secret":"4f1c9565c1","server":"798","farm":1,"title":"Seedeater, Morelet's","ispublic":1,"isfriend":0,"isfamily":0},{"id":"25843506587","owner":"30627145@N04","secret":"cb68e3216b","server":"4776","farm":5,"title":"White-collared Seedeater, Sporophila torqueola","ispublic":1,"isfriend":0,"isfamily":0},{"id":"39254767874","owner":"92361032@N05","secret":"de8db762e5","server":"4742","farm":5,"title":"White-collared Seedeater \/Sporophile \u00e0 col blanc \/Sporophila torqueola ( 3 of 4 )","ispublic":1,"isfriend":0,"isfamily":0},{"id":"39048150635","owner":"154130070@N04","secret":"06e23fb103","server":"4749","farm":5,"title":"White-collared Seedeater, Sporophila torqueola","ispublic":1,"isfriend":0,"isfamily":0},{"id":"24975735447","owner":"54249623@N08","secret":"a23f3ec21c","server":"65535","farm":66,"title":"White-collared Seedeater (Sporophila morelleti) (Sporophila torqueola morelleti)","ispublic":1,"isfriend":0,"isfamily":0},{"id":"27281142279","owner":"52796122@N06","secret":"d88cb94055","server":"4645","farm":5,"title":"White-collared Seedeater (Sporophila torqueola)","ispublic":1,"isfriend":0,"isfamily":0},{"id":"38633420341","owner":"52631592@N05","secret":"96ec642947","server":"4563","farm":5,"title":"White-collared seedeater (Sporophila torqueola)","ispublic":1,"isfriend":0,"isfamily":0},{"id":"36540832804","owner":"29170368@N03","secret":"3d88ae33bd","server":"65535","farm":66,"title":"Morelet's Seedeater","ispublic":1,"isfriend":0,"isfamily":0},{"id":"36844684842","owner":"45734600@N08","secret":"6ff14f22b5","server":"4392","farm":5,"title":"Sporophila torqueola_01062017_SA_MLV 9","ispublic":1,"isfriend":0,"isfamily":0},{"id":"52332774883","owner":"132508209@N08","secret":"34f1715114","server":"65535","farm":66,"title":"Cinnamon-rumped Seedeater (Sporophila torqueola)","ispublic":1,"isfriend":0,"isfamily":0},{"id":"52331576602","owner":"132508209@N08","secret":"d6a558b580","server":"65535","farm":66,"title":"Cinnamon-rumped Seedeater (Sporophila torqueola)","ispublic":1,"isfriend":0,"isfamily":0},{"id":"52058540145","owner":"132508209@N08","secret":"054afb8c9b","server":"65535","farm":66,"title":"Orange-breasted Bunting (Passerina leclancherii) and Cinnamon-rumped Seedeater (Sporophila torqueola)","ispublic":1,"isfriend":0,"isfamily":0},{"id":"52058054356","owner":"132508209@N08","secret":"53118e174e","server":"65535","farm":66,"title":"Orange-breasted Bunting (Passerina leclancherii) and Cinnamon-rumped Seedeater (Sporophila torqueola)","ispublic":1,"isfriend":0,"isfamily":0},{"id":"51795434411","owner":"28764032@N00","secret":"08f6fecf72","server":"65535","farm":66,"title":"Cinnamon-rumped Seedeater (Sporophila torqueola), San Andres de la Cal, Mexico","ispublic":1,"isfriend":0,"isfamily":0},{"id":"51649286744","owner":"132508209@N08","secret":"a15b8e7e70","server":"65535","farm":66,"title":"White-collared Seedeater (Sporophila torqueola), female","ispublic":1,"isfriend":0,"isfamily":0},{"id":"51553532656","owner":"26371261@N00","secret":"ee69862fb7","server":"65535","farm":66,"title":"Cinnamon-rumped Seedeater, Sporophila torqueola","ispublic":1,"isfriend":0,"isfamily":0},{"id":"51321434857","owner":"26371261@N00","secret":"06c8514775","server":"65535","farm":66,"title":"Cinnamon-rumped Seedeater, Sporophila torqueola","ispublic":1,"isfriend":0,"isfamily":0},{"id":"51321434852","owner":"26371261@N00","secret":"3ab9972e9c","server":"65535","farm":66,"title":"Cinnamon-rumped Seedeater, Sporophila torqueola","ispublic":1,"isfriend":0,"isfamily":0},{"id":"49941590848","owner":"188495835@N04","secret":"4f6fe19fa8","server":"65535","farm":66,"title":"Semillero rabadilla canela (Sporophila torqueola)","ispublic":1,"isfriend":0,"isfamily":0},{"id":"49767034066","owner":"132508209@N08","secret":"ea8f9f75b4","server":"65535","farm":66,"title":"White-collared Seedeater (Sporophila torqueola), female","ispublic":1,"isfriend":0,"isfamily":0},{"id":"49717088143","owner":"12639178@N07","secret":"4c2ce3d6c2","server":"65535","farm":66,"title":"Halsbandspelzer - M\u00e4rz 20","ispublic":1,"isfriend":0,"isfamily":0},{"id":"49488617908","owner":"186782212@N03","secret":"73faeeff6e","server":"65535","farm":66,"title":"Cinnamon-rumped Seedeater (Sporophila torqueola) Female","ispublic":1,"isfriend":0,"isfamily":0},{"id":"49379956953","owner":"131074378@N04","secret":"79ab06b5cc","server":"65535","farm":66,"title":"Semillero de collar (Sporophila torqueola)","ispublic":1,"isfriend":0,"isfamily":0},{"id":"49379942528","owner":"131074378@N04","secret":"77fab56259","server":"65535","farm":66,"title":"Semillero de collar (Sporophila torqueola)","ispublic":1,"isfriend":0,"isfamily":0},{"id":"49015586067","owner":"32752434@N07","secret":"022cb4c7b1","server":"65535","farm":66,"title":"Cinnamon-rumped Seedeater (Sporophila torqueola)","ispublic":1,"isfriend":0,"isfamily":0},{"id":"49015383146","owner":"32752434@N07","secret":"789e6c3a5a","server":"65535","farm":66,"title":"Cinnamon-rumped Seedeater (Sporophila torqueola)","ispublic":1,"isfriend":0,"isfamily":0},{"id":"48209316942","owner":"25527950@N03","secret":"ff4e6d6799","server":"65535","farm":66,"title":"Semillero de Collar (Sporophila torqueola)","ispublic":1,"isfriend":0,"isfamily":0},{"id":"48174854577","owner":"182234524@N02","secret":"3ed24a0307","server":"65535","farm":66,"title":"SEMILLERO DE COLLAR (Sporophila torqueola)","ispublic":1,"isfriend":0,"isfamily":0},{"id":"48174777741","owner":"182234524@N02","secret":"21467573ec","server":"65535","farm":66,"title":"SEMILLERO DE COLLAR (Sporophila torqueola)","ispublic":1,"isfriend":0,"isfamily":0},{"id":"47279113402","owner":"159284114@N07","secret":"0524c40428","server":"7866","farm":8,"title":"Sporophile \u00e0 col blanc, White-collared seedheater","ispublic":1,"isfriend":0,"isfamily":0},{"id":"40340537253","owner":"148175456@N03","secret":"084e2d0d11","server":"7806","farm":8,"title":"Semillero de Collar Mexicano (Sporophila torqueola)","ispublic":1,"isfriend":0,"isfamily":0},{"id":"46191078255","owner":"31051789@N05","secret":"64c8b30f61","server":"7910","farm":8,"title":"Cinnamon-rumped Seedeater - Sporophila torqueola 1","ispublic":1,"isfriend":0,"isfamily":0},{"id":"33229558368","owner":"31051789@N05","secret":"4238726973","server":"7924","farm":8,"title":"Cinnamon-rumped Seedeater - Sporophila torqueola 2","ispublic":1,"isfriend":0,"isfamily":0},{"id":"43728444280","owner":"155891934@N06","secret":"ce09bd4f25","server":"1978","farm":2,"title":"Semillero de Collar (Sporophila torqueola)","ispublic":1,"isfriend":0,"isfamily":0},{"id":"43652170335","owner":"166763498@N08","secret":"ffc50d87f1","server":"1865","farm":2,"title":"Semillero de collar (Sporophila torqueola)","ispublic":1,"isfriend":0,"isfamily":0},{"id":"30616082438","owner":"155891934@N06","secret":"c3867016be","server":"1858","farm":2,"title":"Semillero de Collar (Sporophila torqueola)","ispublic":1,"isfriend":0,"isfamily":0},{"id":"43531066912","owner":"138859099@N08","secret":"c365400c66","server":"1821","farm":2,"title":"White-collared Seedeater \/ Sporophila torqueola","ispublic":1,"isfriend":0,"isfamily":0},{"id":"43531060962","owner":"138859099@N08","secret":"a8eabebd73","server":"853","farm":1,"title":"White-collared Seedeater \/ Sporophila torqueola","ispublic":1,"isfriend":0,"isfamily":0},{"id":"43531056622","owner":"138859099@N08","secret":"0b5477143f","server":"1770","farm":2,"title":"White-collared Seedeater \/ Sporophila torqueola","ispublic":1,"isfriend":0,"isfamily":0},{"id":"43273912962","owner":"140705128@N07","secret":"b549e95bf9","server":"1784","farm":2,"title":"Semillero de Collar","ispublic":1,"isfriend":0,"isfamily":0},{"id":"40911851640","owner":"38972116@N00","secret":"5e148c3f38","server":"1734","farm":2,"title":"White-collared Seedeater - female","ispublic":1,"isfriend":0,"isfamily":0},{"id":"41707191395","owner":"93959689@N07","secret":"7499f2c54e","server":"1726","farm":2,"title":"White-collared Seedeater - Sporophila torqueola","ispublic":1,"isfriend":0,"isfamily":0},{"id":"27135132017","owner":"51307422@N06","secret":"02ffdd836d","server":"954","farm":1,"title":"2015-03-30 TEC-2537 White-collared Seedeater - E.P. Mallory","ispublic":1,"isfriend":0,"isfamily":0},{"id":"40156387560","owner":"40928097@N07","secret":"387c261ccb","server":"826","farm":1,"title":"White-collared Seedeater","ispublic":1,"isfriend":0,"isfamily":0},{"id":"41963224051","owner":"40928097@N07","secret":"9b0c606e4a","server":"958","farm":1,"title":"White-collared Seedeater","ispublic":1,"isfriend":0,"isfamily":0},{"id":"27551343738","owner":"93959689@N07","secret":"38b8035c11","server":"787","farm":1,"title":"Sporophila torqueola","ispublic":1,"isfriend":0,"isfamily":0},{"id":"40504626045","owner":"93959689@N07","secret":"d3cedeac95","server":"815","farm":1,"title":"Semillero de Collar - Sporophila torqueola.","ispublic":1,"isfriend":0,"isfamily":0},{"id":"40516112974","owner":"156457454@N02","secret":"61165a6408","server":"792","farm":1,"title":"Sporophila torqueola 8 (White-collared Seedeater)","ispublic":1,"isfriend":0,"isfamily":0},{"id":"40093568565","owner":"126841123@N07","secret":"a1127f9bcd","server":"810","farm":1,"title":"Cinnamon-rumped Seedeater, Male.  Sporophila torqueola.  Nuevo Vallarta, Mexico","ispublic":1,"isfriend":0,"isfamily":0},{"id":"40251643574","owner":"126841123@N07","secret":"c2dcabc4a7","server":"800","farm":1,"title":"Cinnamon-rumped Seedeater, female,  Sporophila torqueola.  Nuevo Vallarta mexico","ispublic":1,"isfriend":0,"isfamily":0},{"id":"40774349721","owner":"100458723@N06","secret":"9f40a71b7f","server":"4797","farm":5,"title":"White-collared Seedeater (Sporophila torqueola)","ispublic":1,"isfriend":0,"isfamily":0},{"id":"39760511775","owner":"93959689@N07","secret":"66cb8a6088","server":"4801","farm":5,"title":"White-collared Seedeater - Sporophila torqueola.","ispublic":1,"isfriend":0,"isfamily":0},{"id":"39849262794","owner":"63283725@N04","secret":"660eaea72e","server":"4762","farm":5,"title":"White-collared Seedeater (Sporophila torqueola)","ispublic":1,"isfriend":0,"isfamily":0},{"id":"25649316088","owner":"31177562@N07","secret":"df2ccf00ff","server":"4736","farm":5,"title":"White-collared Seedeater","ispublic":1,"isfriend":0,"isfamily":0},{"id":"25562931028","owner":"137679259@N06","secret":"437f3577ab","server":"4687","farm":5,"title":"DSC_1024","ispublic":1,"isfriend":0,"isfamily":0},{"id":"25559453868","owner":"49876287@N04","secret":"9efba98585","server":"4738","farm":5,"title":"White-collared Seedeater","ispublic":1,"isfriend":0,"isfamily":0},{"id":"25216511678","owner":"154996329@N02","secret":"68879040f7","server":"4738","farm":5,"title":"Semillero de collar (Sporophila torqueola)","ispublic":1,"isfriend":0,"isfamily":0},{"id":"36913765040","owner":"69351997@N06","secret":"5300a274b5","server":"4427","farm":5,"title":"Sporophila torqueola morelleti, White-collared Seedeater","ispublic":1,"isfriend":0,"isfamily":0}]},"stat":"ok"}