{"photos":{"page":1,"pages":2,"perpage":100,"total":153,"photo":[{"id":"52637650641","owner":"98627816@N02","secret":"15889949e3","server":"65535","farm":66,"title":"Citreoline trogon (Trogon citreolus)","ispublic":1,"isfriend":0,"isfamily":0},{"id":"52502576351","owner":"76617062@N08","secret":"b2bd219541","server":"65535","farm":66,"title":"1.08047 Trogon citrin \/ Trogon citreolus citreolus \/ Citreoline Trogon \/ Surucu\u00e1 Citreolino","ispublic":1,"isfriend":0,"isfamily":0},{"id":"52109819982","owner":"54249623@N08","secret":"62e82d6a0c","server":"65535","farm":66,"title":"Citreoline Trogon (Trogon citreolus)","ispublic":1,"isfriend":0,"isfamily":0},{"id":"52110883858","owner":"54249623@N08","secret":"f6c7878dc1","server":"65535","farm":66,"title":"Citreoline Trogon (Trogon citreolus)","ispublic":1,"isfriend":0,"isfamily":0},{"id":"51332122765","owner":"33106392@N08","secret":"e328a69a16","server":"65535","farm":66,"title":"Huatulco, Oaxaca, Mexico","ispublic":1,"isfriend":0,"isfamily":0},{"id":"50585712922","owner":"148175456@N03","secret":"950a88776c","server":"65535","farm":66,"title":"Coa Citrina (Trogon citreolus)","ispublic":1,"isfriend":0,"isfamily":0},{"id":"50218496756","owner":"61021753@N02","secret":"f8e371f4a4","server":"65535","farm":66,"title":"n71_w1150","ispublic":1,"isfriend":0,"isfamily":0},{"id":"49885466353","owner":"131708321@N02","secret":"d22e712efe","server":"65535","farm":66,"title":"Citreoline Trogon (Trogon citreolus), Reserva de las Biosfera Chamela-Cuixmala, Jalisco, Mexico","ispublic":1,"isfriend":0,"isfamily":0},{"id":"48280651932","owner":"136621171@N08","secret":"1ab15d30f2","server":"65535","farm":66,"title":"Citreoline Trogon, Trogon Citrin , Coa Citrina, Trogon Citreolus","ispublic":1,"isfriend":0,"isfamily":0},{"id":"48130117486","owner":"148175456@N03","secret":"07bc00292b","server":"65535","farm":66,"title":"Coa Citrina (Trogon citreolus)","ispublic":1,"isfriend":0,"isfamily":0},{"id":"42416586740","owner":"134815842@N03","secret":"0281ed470a","server":"1877","farm":2,"title":"Citreoline Trogon (Trogon citreolus) Huatulco, Mexico 2018","ispublic":1,"isfriend":0,"isfamily":0},{"id":"30079354328","owner":"134815842@N03","secret":"3f7bc0d703","server":"1839","farm":2,"title":"Far and backlit -Citreoline Trogon female (Trogon citreolus) Huatulco, Mexico 2018","ispublic":1,"isfriend":0,"isfamily":0},{"id":"42992114051","owner":"41694014@N04","secret":"b072ea34d9","server":"1792","farm":2,"title":"Trogon citreolus","ispublic":1,"isfriend":0,"isfamily":0},{"id":"25563018568","owner":"137679259@N06","secret":"d01a561de5","server":"4732","farm":5,"title":"CSC_0042","ispublic":1,"isfriend":0,"isfamily":0},{"id":"39000579482","owner":"52796122@N06","secret":"cfb14485c9","server":"4738","farm":5,"title":"Male Citreoline Trogon (Trogon citreolus)","ispublic":1,"isfriend":0,"isfamily":0},{"id":"24050418207","owner":"129772911@N04","secret":"68c1d70430","server":"4596","farm":5,"title":"Trogon citreolus","ispublic":1,"isfriend":0,"isfamily":0},{"id":"35329488574","owner":"29170368@N03","secret":"cdbe2bda0b","server":"65535","farm":66,"title":"Citreoline Trogon","ispublic":1,"isfriend":0,"isfamily":0},{"id":"33302298702","owner":"56983940@N06","secret":"1ac4151d30","server":"3712","farm":4,"title":"Citreoline Trogon","ispublic":1,"isfriend":0,"isfamily":0},{"id":"31493015521","owner":"46279690@N03","secret":"6a3be28b9a","server":"703","farm":1,"title":"Citreoline Trogon","ispublic":1,"isfriend":0,"isfamily":0},{"id":"28348466406","owner":"14191740@N08","secret":"8bf17cba49","server":"8351","farm":9,"title":"Citreoline Trogon, Playa Zipolite, Oaxaca, Mexico","ispublic":1,"isfriend":0,"isfamily":0},{"id":"25549181544","owner":"126178539@N03","secret":"312849fcbb","server":"1517","farm":2,"title":"Citreoline Trogon - Coa Citrina (Trogon citreolus)","ispublic":1,"isfriend":0,"isfamily":0},{"id":"20759029782","owner":"126178539@N03","secret":"cf7884edb4","server":"5795","farm":6,"title":"Citreoline Trogon - Trog\u00f3n citrino (Trogon citreolus)","ispublic":1,"isfriend":0,"isfamily":0},{"id":"19921201382","owner":"57465751@N05","secret":"fecebfbe76","server":"284","farm":1,"title":"Citreoline Trogon Trogon citreolus), M, La Sepultura, Chiapas, Mexico  7\/11\/15","ispublic":1,"isfriend":0,"isfamily":0},{"id":"19319341626","owner":"14191740@N08","secret":"d5e6cab720","server":"3765","farm":4,"title":"Citreoline Trogon, Playa Zipolite, Oaxaca, Mexico","ispublic":1,"isfriend":0,"isfamily":0},{"id":"17788423025","owner":"126178539@N03","secret":"ccbdafa454","server":"5458","farm":6,"title":"Citreoline Trogon - Trog\u00f3n citrino (Trogon citreolus)","ispublic":1,"isfriend":0,"isfamily":0},{"id":"16808964658","owner":"41694014@N04","secret":"5a51b76c83","server":"7594","farm":8,"title":"Trogon citreolus","ispublic":1,"isfriend":0,"isfamily":0},{"id":"16910274405","owner":"14572247@N07","secret":"9097c168f1","server":"8710","farm":9,"title":"Citreoline Trogon (male L, female R) & Rufous-backed Robin","ispublic":1,"isfriend":0,"isfamily":0},{"id":"16618688127","owner":"126178539@N03","secret":"766e848cd3","server":"8606","farm":9,"title":"Citreoline Trogon ~ Trog\u00f3n citrino (Trogon citreolus)","ispublic":1,"isfriend":0,"isfamily":0},{"id":"16718972805","owner":"61147780@N04","secret":"0bf0dd805f","server":"8622","farm":9,"title":"Citreoline Trogon","ispublic":1,"isfriend":0,"isfamily":0},{"id":"16253249719","owner":"54219302@N06","secret":"a506df3b85","server":"7356","farm":8,"title":"Citreoline Trogon","ispublic":1,"isfriend":0,"isfamily":0},{"id":"15953037288","owner":"69109033@N04","secret":"d5c9fba605","server":"8578","farm":9,"title":"Trog\u00f3n Citrino","ispublic":1,"isfriend":0,"isfamily":0},{"id":"15024036214","owner":"77128742@N06","secret":"625ab1a68e","server":"5613","farm":6,"title":"Schwarzkopftrogon_Trogon citreolus melanocephalus-20","ispublic":1,"isfriend":0,"isfamily":0},{"id":"15024036144","owner":"77128742@N06","secret":"a11269741c","server":"5611","farm":6,"title":"Schwarzkopftrogon_Trogon citreolus melanocephalus-21","ispublic":1,"isfriend":0,"isfamily":0},{"id":"15024004204","owner":"77128742@N06","secret":"ea47b347b9","server":"5603","farm":6,"title":"Schwarzkopftrogon_Trogon citreolus melanocephalus-6","ispublic":1,"isfriend":0,"isfamily":0},{"id":"52100556123","owner":"10821818@N07","secret":"a092fbdd9b","server":"65535","farm":66,"title":"Citreoline Trogon - Nayarit, Mexico","ispublic":1,"isfriend":0,"isfamily":0},{"id":"52071852863","owner":"10821818@N07","secret":"dc1c4e20f6","server":"65535","farm":66,"title":"Citreoline Trogon - Jalisco, Mexico","ispublic":1,"isfriend":0,"isfamily":0},{"id":"52066782956","owner":"10821818@N07","secret":"30dd893972","server":"65535","farm":66,"title":"Citreoline Trogon - Jalisco, Mexico","ispublic":1,"isfriend":0,"isfamily":0},{"id":"52067269860","owner":"10821818@N07","secret":"e4da05c93c","server":"65535","farm":66,"title":"Citreoline Trogon - Jalisco, Mexico","ispublic":1,"isfriend":0,"isfamily":0},{"id":"51630712546","owner":"26371261@N00","secret":"f7ea4feb45","server":"65535","farm":66,"title":"Citreoline Trogon, Trogon citreolus","ispublic":1,"isfriend":0,"isfamily":0},{"id":"51525393100","owner":"26371261@N00","secret":"2c634364a9","server":"65535","farm":66,"title":"Citreoline Trogon, Trogon citreolus","ispublic":1,"isfriend":0,"isfamily":0},{"id":"51520138992","owner":"26371261@N00","secret":"8eaaa54cc3","server":"65535","farm":66,"title":"Citreoline Trogon, Trogon citreolus","ispublic":1,"isfriend":0,"isfamily":0},{"id":"50998169019","owner":"41694014@N04","secret":"e085a6eddb","server":"65535","farm":66,"title":"Trogon citreolus","ispublic":1,"isfriend":0,"isfamily":0},{"id":"50878155098","owner":"26371261@N00","secret":"6cc9e370c0","server":"65535","farm":66,"title":"Citreoline Trogon, Trogon citreolus","ispublic":1,"isfriend":0,"isfamily":0},{"id":"50839855078","owner":"190923251@N05","secret":"72a0e2a0c9","server":"65535","farm":66,"title":"Citreoline Trogon male (endemic)","ispublic":1,"isfriend":0,"isfamily":0},{"id":"50839166881","owner":"26371261@N00","secret":"63a1d71a12","server":"65535","farm":66,"title":"Citreoline Trogon, Trogon citreolus","ispublic":1,"isfriend":0,"isfamily":0},{"id":"50832755416","owner":"26371261@N00","secret":"3dea23e4f1","server":"65535","farm":66,"title":"Citreoline Trogon, Trogon citreolus","ispublic":1,"isfriend":0,"isfamily":0},{"id":"50788343177","owner":"26371261@N00","secret":"66181e1b9f","server":"65535","farm":66,"title":"Citreoline Trogon, Trogon citreolus","ispublic":1,"isfriend":0,"isfamily":0},{"id":"50756194506","owner":"26371261@N00","secret":"be76fb3352","server":"65535","farm":66,"title":"Citreoline Trogon, Trogon citreolus","ispublic":1,"isfriend":0,"isfamily":0},{"id":"50755456503","owner":"26371261@N00","secret":"d071d74dda","server":"65535","farm":66,"title":"Citreoline Trogon, Trogon citreolus","ispublic":1,"isfriend":0,"isfamily":0},{"id":"50756192646","owner":"26371261@N00","secret":"ba0d34cf08","server":"65535","farm":66,"title":"Citreoline Trogon, Trogon citreolus","ispublic":1,"isfriend":0,"isfamily":0},{"id":"50258742411","owner":"189800946@N02","secret":"fabb847cdf","server":"65535","farm":66,"title":"Coa Citrina, Trogon citreolus.","ispublic":1,"isfriend":0,"isfamily":0},{"id":"47563132652","owner":"26371261@N00","secret":"217acb99a0","server":"65535","farm":66,"title":"Citreoline Trogon, Trogon citreolus. Parque Huatulco, Oaxaca, Mexico","ispublic":1,"isfriend":0,"isfamily":0},{"id":"47560646992","owner":"26371261@N00","secret":"763357e6bb","server":"65535","farm":66,"title":"Citreoline Trogon, Trogon citreolus","ispublic":1,"isfriend":0,"isfamily":0},{"id":"47560646012","owner":"26371261@N00","secret":"0d5b7e8cd6","server":"65535","farm":66,"title":"Citreoline Trogon, Trogon citreolus","ispublic":1,"isfriend":0,"isfamily":0},{"id":"46690223875","owner":"26371261@N00","secret":"506fd1ed21","server":"7876","farm":8,"title":"Citreoline Trogon, Trogon citreolus","ispublic":1,"isfriend":0,"isfamily":0},{"id":"33728679788","owner":"26371261@N00","secret":"283136fe15","server":"7855","farm":8,"title":"Citreoline Trogon, Trogon citreolus","ispublic":1,"isfriend":0,"isfamily":0},{"id":"33604563818","owner":"26371261@N00","secret":"fbf202e227","server":"7871","farm":8,"title":"Citreoline Trogon, Trogon citreolus","ispublic":1,"isfriend":0,"isfamily":0},{"id":"33604562608","owner":"26371261@N00","secret":"6326667661","server":"7847","farm":8,"title":"Citreoline Trogon, Trogon citreolus","ispublic":1,"isfriend":0,"isfamily":0},{"id":"40508358103","owner":"26371261@N00","secret":"250a6a587b","server":"7831","farm":8,"title":"Citreoline Trogon, Trogon citreolus","ispublic":1,"isfriend":0,"isfamily":0},{"id":"29679609857","owner":"131708321@N02","secret":"1f9035a9f8","server":"1850","farm":2,"title":"Citreoline Trogon (Trogon citreolus), Reserva de las Biosfera Chamela-Cuixmala, Jalisco, Mexico","ispublic":1,"isfriend":0,"isfamily":0},{"id":"43605722274","owner":"16037309@N05","secret":"b054557d51","server":"1850","farm":2,"title":"IMG_E2320 Citreoline Trogon","ispublic":1,"isfriend":0,"isfamily":0},{"id":"44236423052","owner":"134815842@N03","secret":"ba833ecc60","server":"1856","farm":2,"title":"Citreoline Trogon (Trogon citreolus) Huatulco, Mexico 2018","ispublic":1,"isfriend":0,"isfamily":0},{"id":"43003140292","owner":"80288319@N02","secret":"c3c146af4d","server":"846","farm":1,"title":"Trogon citreolus","ispublic":1,"isfriend":0,"isfamily":0},{"id":"27923274708","owner":"95103016@N04","secret":"ae9b2e4286","server":"956","farm":1,"title":"Trogon citreolus","ispublic":1,"isfriend":0,"isfamily":0},{"id":"39856928531","owner":"151328407@N03","secret":"d90e1eaf16","server":"4660","farm":5,"title":"Trogon cytrynowy (Trogon citreolus)","ispublic":1,"isfriend":0,"isfamily":0},{"id":"25521038158","owner":"96115547@N04","secret":"909209cba6","server":"4738","farm":5,"title":"20171202 Nayarit Mexico IMG_3869","ispublic":1,"isfriend":0,"isfamily":0},{"id":"25129138838","owner":"129772911@N04","secret":"a0f36fa526","server":"4562","farm":5,"title":"Trogon citreolus","ispublic":1,"isfriend":0,"isfamily":0},{"id":"37529882546","owner":"154553683@N05","secret":"f04a97b4d4","server":"4468","farm":5,"title":"Trogon citreolus","ispublic":1,"isfriend":0,"isfamily":0},{"id":"36139718600","owner":"80288319@N02","secret":"a75716f0e7","server":"4382","farm":5,"title":"Trogon citreolus","ispublic":1,"isfriend":0,"isfamily":0},{"id":"35727191903","owner":"80288319@N02","secret":"c4fe6651d6","server":"4429","farm":5,"title":"Trogon citreolus","ispublic":1,"isfriend":0,"isfamily":0},{"id":"36398051591","owner":"80288319@N02","secret":"9bb5ae6eb7","server":"4385","farm":5,"title":"Trogon citreolus","ispublic":1,"isfriend":0,"isfamily":0},{"id":"36398024811","owner":"80288319@N02","secret":"137de217d2","server":"4369","farm":5,"title":"Trogon citreolus","ispublic":1,"isfriend":0,"isfamily":0},{"id":"33302298442","owner":"56983940@N06","secret":"58e5b2a028","server":"3918","farm":4,"title":"Citreoline Trogon","ispublic":1,"isfriend":0,"isfamily":0},{"id":"29902877773","owner":"145924882@N07","secret":"05e0d858ce","server":"5629","farm":6,"title":"Trogon citreolus, Coa Citrina, Citreoline Trogon. Barra de Potos\u00ed, Guerrero. Abril 2016.","ispublic":1,"isfriend":0,"isfamily":0},{"id":"26710523332","owner":"102541808@N06","secret":"efaf051427","server":"7158","farm":8,"title":"Trogon citreolus","ispublic":1,"isfriend":0,"isfamily":0},{"id":"24960433996","owner":"22837563@N08","secret":"2396312fdf","server":"1663","farm":2,"title":"CITREOLINE TROGON","ispublic":1,"isfriend":0,"isfamily":0},{"id":"21155386471","owner":"12211631@N03","secret":"8d22b7d8ab","server":"622","farm":1,"title":"Trogon citreolus","ispublic":1,"isfriend":0,"isfamily":0},{"id":"17163269986","owner":"45734600@N08","secret":"9731574494","server":"7682","farm":8,"title":"Trogon citreolus","ispublic":1,"isfriend":0,"isfamily":0},{"id":"16895643955","owner":"45734600@N08","secret":"eba75387c0","server":"8736","farm":9,"title":"Trogon citreolus","ispublic":1,"isfriend":0,"isfamily":0},{"id":"16244139304","owner":"14572247@N07","secret":"8e5e9bbe56","server":"8755","farm":9,"title":"Citreoline Trogon (Trogon citreolus)","ispublic":1,"isfriend":0,"isfamily":0},{"id":"15642102361","owner":"77128742@N06","secret":"ab51879e7a","server":"3934","farm":4,"title":"Schwarzkopftrogon_Trogon citreolus melanocephalus-1","ispublic":1,"isfriend":0,"isfamily":0},{"id":"15458808197","owner":"77128742@N06","secret":"5cd1102fa4","server":"5614","farm":6,"title":"Schwarzkopftrogon_Trogon citreolus melanocephalus-2","ispublic":1,"isfriend":0,"isfamily":0},{"id":"15458658728","owner":"77128742@N06","secret":"7b5af6313a","server":"5601","farm":6,"title":"Schwarzkopftrogon_Trogon citreolus melanocephalus-3","ispublic":1,"isfriend":0,"isfamily":0},{"id":"15458658458","owner":"77128742@N06","secret":"3cf3de6355","server":"5605","farm":6,"title":"Schwarzkopftrogon_Trogon citreolus melanocephalus-4","ispublic":1,"isfriend":0,"isfamily":0},{"id":"15024634093","owner":"77128742@N06","secret":"916bda29a0","server":"3941","farm":4,"title":"Schwarzkopftrogon_Trogon citreolus melanocephalus-5","ispublic":1,"isfriend":0,"isfamily":0},{"id":"15621074796","owner":"77128742@N06","secret":"8a3822ed98","server":"3948","farm":4,"title":"Schwarzkopftrogon_Trogon citreolus melanocephalus-7","ispublic":1,"isfriend":0,"isfamily":0},{"id":"15459212450","owner":"77128742@N06","secret":"2139998736","server":"5601","farm":6,"title":"Schwarzkopftrogon_Trogon citreolus melanocephalus-8","ispublic":1,"isfriend":0,"isfamily":0},{"id":"15645619192","owner":"77128742@N06","secret":"f5cc0133fa","server":"3935","farm":4,"title":"Schwarzkopftrogon_Trogon citreolus melanocephalus-9","ispublic":1,"isfriend":0,"isfamily":0},{"id":"15458142169","owner":"77128742@N06","secret":"2f8163b13f","server":"5602","farm":6,"title":"Schwarzkopftrogon_Trogon citreolus melanocephalus-10","ispublic":1,"isfriend":0,"isfamily":0},{"id":"15621073516","owner":"77128742@N06","secret":"07e4046480","server":"3956","farm":4,"title":"Schwarzkopftrogon_Trogon citreolus melanocephalus-11","ispublic":1,"isfriend":0,"isfamily":0},{"id":"15621073086","owner":"77128742@N06","secret":"e3c7282ef3","server":"3955","farm":4,"title":"Schwarzkopftrogon_Trogon citreolus melanocephalus-12","ispublic":1,"isfriend":0,"isfamily":0},{"id":"15621072706","owner":"77128742@N06","secret":"9a7c70928d","server":"5597","farm":6,"title":"Schwarzkopftrogon_Trogon citreolus melanocephalus-14","ispublic":1,"isfriend":0,"isfamily":0},{"id":"15458655838","owner":"77128742@N06","secret":"fc58b20d68","server":"5603","farm":6,"title":"Schwarzkopftrogon_Trogon citreolus melanocephalus-15","ispublic":1,"isfriend":0,"isfamily":0},{"id":"15642098461","owner":"77128742@N06","secret":"05b0577976","server":"3932","farm":4,"title":"Schwarzkopftrogon_Trogon citreolus melanocephalus-16","ispublic":1,"isfriend":0,"isfamily":0},{"id":"15458803877","owner":"77128742@N06","secret":"1bc0d5e399","server":"3938","farm":4,"title":"Schwarzkopftrogon_Trogon citreolus melanocephalus-17","ispublic":1,"isfriend":0,"isfamily":0},{"id":"15621071676","owner":"77128742@N06","secret":"e04e3e9632","server":"3946","farm":4,"title":"Schwarzkopftrogon_Trogon citreolus melanocephalus-18","ispublic":1,"isfriend":0,"isfamily":0},{"id":"15458654878","owner":"77128742@N06","secret":"de62da738a","server":"3932","farm":4,"title":"Schwarzkopftrogon_Trogon citreolus melanocephalus-19","ispublic":1,"isfriend":0,"isfamily":0},{"id":"15459176970","owner":"77128742@N06","secret":"f858e03cdf","server":"5604","farm":6,"title":"Schwarzkopftrogon_Trogon citreolus melanocephalus-13","ispublic":1,"isfriend":0,"isfamily":0},{"id":"15270428406","owner":"127858540@N03","secret":"033fea7470","server":"3895","farm":4,"title":"Trogon citreolus","ispublic":1,"isfriend":0,"isfamily":0},{"id":"13919038893","owner":"12211631@N03","secret":"e6a28899b4","server":"2902","farm":3,"title":"Trogon citreolus (female)","ispublic":1,"isfriend":0,"isfamily":0}]},"stat":"ok"}