{"photos":{"page":1,"pages":2,"perpage":100,"total":102,"photo":[{"id":"52297730577","owner":"140734051@N08","secret":"e0d9d13d58","server":"65535","farm":66,"title":"\u0421\u0438\u0437\u0430\u044f \u0447\u0430\u0439\u043a\u0430, Larus canus kamtschatschensis, Mew Gull","ispublic":1,"isfriend":0,"isfamily":0},{"id":"52298982549","owner":"140734051@N08","secret":"e2086066c4","server":"65535","farm":66,"title":"\u0421\u0438\u0437\u0430\u044f \u0447\u0430\u0439\u043a\u0430, Larus canus kamtschatschensis, Mew Gull","ispublic":1,"isfriend":0,"isfamily":0},{"id":"51920186271","owner":"71989271@N06","secret":"64a069ee80","server":"65535","farm":66,"title":"Common \"Kamchatka\" Gull (win.)(Larus canus kamtschatschensis)","ispublic":1,"isfriend":0,"isfamily":0},{"id":"51920806705","owner":"71989271@N06","secret":"8bdb0a2509","server":"65535","farm":66,"title":"Common \"Kamchatka\" Gull (win.)(Larus canus kamtschatschensis)","ispublic":1,"isfriend":0,"isfamily":0},{"id":"51920186236","owner":"71989271@N06","secret":"f0fc399a5d","server":"65535","farm":66,"title":"Common \"Kamchatka\" Gull (win.)(Larus canus kamtschatschensis)","ispublic":1,"isfriend":0,"isfamily":0},{"id":"51920186226","owner":"71989271@N06","secret":"c671b32317","server":"65535","farm":66,"title":"Common \"Kamchatka\" Gull (win.)(Larus canus kamtschatschensis)","ispublic":1,"isfriend":0,"isfamily":0},{"id":"51892437042","owner":"17654080@N08","secret":"fc4e48b110","server":"65535","farm":66,"title":"Common (Kamchatka) Gull (Larus canus kamtschatschensis)","ispublic":1,"isfriend":0,"isfamily":0},{"id":"51894050730","owner":"17654080@N08","secret":"e84d727940","server":"65535","farm":66,"title":"Common (Kamchatka) Gull (Larus canus kamtschatschensis)","ispublic":1,"isfriend":0,"isfamily":0},{"id":"51893397711","owner":"17654080@N08","secret":"4a7528337d","server":"65535","farm":66,"title":"Common (Kamchatka) Gull (Larus canus kamtschatschensis)","ispublic":1,"isfriend":0,"isfamily":0},{"id":"51892436927","owner":"17654080@N08","secret":"0e003720d3","server":"65535","farm":66,"title":"Common (Kamchatka) Gull (Larus canus kamtschatschensis)","ispublic":1,"isfriend":0,"isfamily":0},{"id":"51894050605","owner":"17654080@N08","secret":"575f740b57","server":"65535","farm":66,"title":"Common (Kamchatka) Gull (Larus canus kamtschatschensis)","ispublic":1,"isfriend":0,"isfamily":0},{"id":"51110761116","owner":"17654080@N08","secret":"b31c21ef96","server":"65535","farm":66,"title":"Mew (Kamchatka) Gull, adult (Larus canus kamtschatschensis)","ispublic":1,"isfriend":0,"isfamily":0},{"id":"51111538220","owner":"17654080@N08","secret":"2acb769f46","server":"65535","farm":66,"title":"Mew (Kamchatka) Gull, adult (Larus canus kamtschatschensis)","ispublic":1,"isfriend":0,"isfamily":0},{"id":"51110669333","owner":"17654080@N08","secret":"dd136fd57a","server":"65535","farm":66,"title":"Mew (Kamchatka) Gull, adult (Larus canus kamtschatschensis)","ispublic":1,"isfriend":0,"isfamily":0},{"id":"51110509804","owner":"17654080@N08","secret":"ae9c7efbd5","server":"65535","farm":66,"title":"Mew (Kamchatka) Gull, adult (Larus canus kamtschatschensis)","ispublic":1,"isfriend":0,"isfamily":0},{"id":"51110669203","owner":"17654080@N08","secret":"c08de16b10","server":"65535","farm":66,"title":"Mew (Kamchatka) Gull, adult (Larus canus kamtschatschensis)","ispublic":1,"isfriend":0,"isfamily":0},{"id":"51110760881","owner":"17654080@N08","secret":"082c5913ef","server":"65535","farm":66,"title":"Mew (Kamchatka) Gull, adult (Larus canus kamtschatschensis)","ispublic":1,"isfriend":0,"isfamily":0},{"id":"51110760796","owner":"17654080@N08","secret":"9013ddd938","server":"65535","farm":66,"title":"Mew (Kamchatka) Gull, adult (Larus canus kamtschatschensis)","ispublic":1,"isfriend":0,"isfamily":0},{"id":"51111537935","owner":"17654080@N08","secret":"1af383e958","server":"65535","farm":66,"title":"Mew (Kamchatka) Gull, adult (Larus canus kamtschatschensis)","ispublic":1,"isfriend":0,"isfamily":0},{"id":"51110760726","owner":"17654080@N08","secret":"0f5446b43b","server":"65535","farm":66,"title":"Mew (Kamchatka) Gull, adult (Larus canus kamtschatschensis)","ispublic":1,"isfriend":0,"isfamily":0},{"id":"51109630149","owner":"129803374@N05","secret":"a0e84f9ce2","server":"65535","farm":66,"title":"Mew Gull (Larus canus kamtschatschensis) and Ringed-billed Gull (Larus delawarensis)","ispublic":1,"isfriend":0,"isfamily":0},{"id":"51109882726","owner":"129803374@N05","secret":"f143c67206","server":"65535","farm":66,"title":"Mew Gull (Larus canus kamtschatschensis)","ispublic":1,"isfriend":0,"isfamily":0},{"id":"51100253190","owner":"129803374@N05","secret":"0642c74751","server":"65535","farm":66,"title":"Mew Gull (Larus canus kamtschatschensis)","ispublic":1,"isfriend":0,"isfamily":0},{"id":"51100241285","owner":"129803374@N05","secret":"eb50863e4f","server":"65535","farm":66,"title":"Mew Gull (Larus canus kamtschatschensis)","ispublic":1,"isfriend":0,"isfamily":0},{"id":"51099529292","owner":"129803374@N05","secret":"3523e062ec","server":"65535","farm":66,"title":"Mew Gull (Larus canus kamtschatschensis)","ispublic":1,"isfriend":0,"isfamily":0},{"id":"51100241015","owner":"129803374@N05","secret":"528b7e851c","server":"65535","farm":66,"title":"Common Gull (Larus canus kamtschatschensis)","ispublic":1,"isfriend":0,"isfamily":0},{"id":"49399250046","owner":"186211059@N06","secret":"e6ce8f104b","server":"65535","farm":66,"title":"Common Gull (Kamchatka)","ispublic":1,"isfriend":0,"isfamily":0},{"id":"33149568558","owner":"21606110@N08","secret":"0a77cdc9d1","server":"4864","farm":5,"title":"Common Gull  (kamtschatschensis)","ispublic":1,"isfriend":0,"isfamily":0},{"id":"46111097635","owner":"21606110@N08","secret":"be93994bb6","server":"4879","farm":5,"title":"Common Gull  (kamtschatschensis)","ispublic":1,"isfriend":0,"isfamily":0},{"id":"46125258374","owner":"14513067@N00","secret":"c31bfaebc6","server":"7845","farm":8,"title":"Common Gull","ispublic":1,"isfriend":0,"isfamily":0},{"id":"46125258284","owner":"14513067@N00","secret":"69450f32c8","server":"4876","farm":5,"title":"Common Gull","ispublic":1,"isfriend":0,"isfamily":0},{"id":"46125255704","owner":"14513067@N00","secret":"d52f1c28aa","server":"7911","farm":8,"title":"Common Gull","ispublic":1,"isfriend":0,"isfamily":0},{"id":"46125255744","owner":"14513067@N00","secret":"a5bf7afbfc","server":"7862","farm":8,"title":"Common Gull","ispublic":1,"isfriend":0,"isfamily":0},{"id":"31864252987","owner":"72340495@N06","secret":"83295dfb01","server":"7820","farm":8,"title":"Kamchatka Gull","ispublic":1,"isfriend":0,"isfamily":0},{"id":"46075670724","owner":"14513067@N00","secret":"e755284bd1","server":"4913","farm":5,"title":"'Kamchatka' Common Gull","ispublic":1,"isfriend":0,"isfamily":0},{"id":"46800662401","owner":"14513067@N00","secret":"824d6ec18e","server":"4818","farm":5,"title":"'Kamchatka' Common Gull","ispublic":1,"isfriend":0,"isfamily":0},{"id":"39835225283","owner":"14513067@N00","secret":"fe3693f75f","server":"7891","farm":8,"title":"'Kamchatka' Common Gull","ispublic":1,"isfriend":0,"isfamily":0},{"id":"46800662321","owner":"14513067@N00","secret":"f14c3130b6","server":"7851","farm":8,"title":"'Kamchatka' Common Gull","ispublic":1,"isfriend":0,"isfamily":0},{"id":"46800662291","owner":"14513067@N00","secret":"ac62711215","server":"7888","farm":8,"title":"'Kamchatka' Common Gull","ispublic":1,"isfriend":0,"isfamily":0},{"id":"39835225193","owner":"14513067@N00","secret":"67ce8d056f","server":"7918","farm":8,"title":"'Kamchatka' Common Gull","ispublic":1,"isfriend":0,"isfamily":0},{"id":"46800662091","owner":"14513067@N00","secret":"3613d6ba39","server":"4813","farm":5,"title":"'Kamchatka' Common Gull","ispublic":1,"isfriend":0,"isfamily":0},{"id":"46800662071","owner":"14513067@N00","secret":"42b902fa90","server":"4827","farm":5,"title":"'Kamchatka' Common Gull","ispublic":1,"isfriend":0,"isfamily":0},{"id":"39835224763","owner":"14513067@N00","secret":"23463acd5c","server":"4839","farm":5,"title":"'Kamchatka' Common Gull","ispublic":1,"isfriend":0,"isfamily":0},{"id":"46800662011","owner":"14513067@N00","secret":"4e9ccc0591","server":"7857","farm":8,"title":"'Kamchatka' Common Gull","ispublic":1,"isfriend":0,"isfamily":0},{"id":"46800661921","owner":"14513067@N00","secret":"620270502f","server":"7838","farm":8,"title":"'Kamchatka' Common Gull","ispublic":1,"isfriend":0,"isfamily":0},{"id":"46800661821","owner":"14513067@N00","secret":"7879791b82","server":"4857","farm":5,"title":"Common Gull","ispublic":1,"isfriend":0,"isfamily":0},{"id":"46748074372","owner":"14513067@N00","secret":"aba1ea02be","server":"7836","farm":8,"title":"'Kamchatka' Common Gull","ispublic":1,"isfriend":0,"isfamily":0},{"id":"46748074412","owner":"14513067@N00","secret":"c8d2f81e25","server":"4816","farm":5,"title":"'Kamchatka' Common Gull","ispublic":1,"isfriend":0,"isfamily":0},{"id":"46800661761","owner":"14513067@N00","secret":"c8d2f81e25","server":"7812","farm":8,"title":"'Kamchatka' Common Gull","ispublic":1,"isfriend":0,"isfamily":0},{"id":"46748074252","owner":"14513067@N00","secret":"7035013cf0","server":"4868","farm":5,"title":"'Kamchatka' Common Gull","ispublic":1,"isfriend":0,"isfamily":0},{"id":"46800661551","owner":"14513067@N00","secret":"cf3a1111fd","server":"7825","farm":8,"title":"'Kamchatka' Common Gull","ispublic":1,"isfriend":0,"isfamily":0},{"id":"46748074172","owner":"14513067@N00","secret":"9034430ac3","server":"7809","farm":8,"title":"'Kamchatka' Common Gull","ispublic":1,"isfriend":0,"isfamily":0},{"id":"46748074062","owner":"14513067@N00","secret":"0fd389bd83","server":"7852","farm":8,"title":"'Kamchatka' Common Gull","ispublic":1,"isfriend":0,"isfamily":0},{"id":"46748074132","owner":"14513067@N00","secret":"bd4c068923","server":"4810","farm":5,"title":"'Kamchatka' Common Gull","ispublic":1,"isfriend":0,"isfamily":0},{"id":"45878871555","owner":"96697202@N07","secret":"3bb098ab94","server":"7839","farm":8,"title":"Mew Gull, Larus canus kamtschatschensis (\"Kamchatka\" Gull), Cove Island Park, Stamford, CT","ispublic":1,"isfriend":0,"isfamily":0},{"id":"45878871435","owner":"96697202@N07","secret":"af9865925c","server":"7890","farm":8,"title":"Mew Gull, Larus canus kamtschatschensis (\"Kamchatka\" Gull), Cove Island Park, Stamford, CT","ispublic":1,"isfriend":0,"isfamily":0},{"id":"46794030791","owner":"96697202@N07","secret":"7bb67400cb","server":"4891","farm":5,"title":"Mew Gull, Larus canus kamtschatschensis (\"Kamchatka\" Gull), Cove Island Park, Stamford, CT","ispublic":1,"isfriend":0,"isfamily":0},{"id":"45878871275","owner":"96697202@N07","secret":"ca49dcb3c8","server":"4875","farm":5,"title":"Mew Gull, Larus canus kamtschatschensis (\"Kamchatka\" Gull), Cove Island Park, Stamford, CT","ispublic":1,"isfriend":0,"isfamily":0},{"id":"31793721137","owner":"73488920@N08","secret":"6e1583cb6b","server":"7895","farm":8,"title":"Mew Gull (Kamchatka) (Larus canus kamtschatschensis), Cove Island Park, Stamford CT_13Jan2019_000147884","ispublic":1,"isfriend":0,"isfamily":0},{"id":"31793714467","owner":"73488920@N08","secret":"f32c78445c","server":"4872","farm":5,"title":"Mew Gull (Kamchatka) (Larus canus kamtschatschensis), Cove Island Park, Stamford CT_13Jan2019_000147858","ispublic":1,"isfriend":0,"isfamily":0},{"id":"31793712517","owner":"73488920@N08","secret":"fb5f86e7a8","server":"4822","farm":5,"title":"Mew Gull (Kamchatka) (Larus canus kamtschatschensis), Cove Island Park, Stamford CT_13Jan2019_000147871","ispublic":1,"isfriend":0,"isfamily":0},{"id":"46682337972","owner":"73488920@N08","secret":"b174a8c7ea","server":"7854","farm":8,"title":"Mew Gull (Kamchatka) (Larus canus kamtschatschensis), Cove Island Park, Stamford CT_13Jan2019.2_000147857","ispublic":1,"isfriend":0,"isfamily":0},{"id":"46682336252","owner":"73488920@N08","secret":"ac81c2475d","server":"7861","farm":8,"title":"Mew Gull (Kamchatka) (Larus canus kamtschatschensis), Cove Island Park, Stamford CT_13Jan2019_000147857","ispublic":1,"isfriend":0,"isfamily":0},{"id":"45815327845","owner":"71989271@N06","secret":"72657b30c8","server":"7821","farm":8,"title":"Common \"Kamchatka\" Gull (win.)(Larus canus kamtschatschensis)","ispublic":1,"isfriend":0,"isfamily":0},{"id":"39740489833","owner":"71989271@N06","secret":"588cce0742","server":"7903","farm":8,"title":"Common \"Kamchatka\" Gull (win.)(Larus canus kamtschatschensis)","ispublic":1,"isfriend":0,"isfamily":0},{"id":"39740489703","owner":"71989271@N06","secret":"c30569b357","server":"4914","farm":5,"title":"Common \"Kamchatka\" Gull (win.)(Larus canus kamtschatschensis)","ispublic":1,"isfriend":0,"isfamily":0},{"id":"39725706323","owner":"17654080@N08","secret":"22c6a76659","server":"7887","farm":8,"title":"Kamchatka Gull (Mew\/Common Gull) (Larus canus kamtschatschensis)","ispublic":1,"isfriend":0,"isfamily":0},{"id":"39725706003","owner":"17654080@N08","secret":"97294e0a60","server":"7874","farm":8,"title":"Kamchatka Gull (Mew\/Common Gull) (Larus canus kamtschatschensis)","ispublic":1,"isfriend":0,"isfamily":0},{"id":"39725705253","owner":"17654080@N08","secret":"34e7fc93b8","server":"7841","farm":8,"title":"Kamchatka Gull (Mew\/Common Gull) (Larus canus kamtschatschensis)","ispublic":1,"isfriend":0,"isfamily":0},{"id":"38013190101","owner":"34238008@N02","secret":"b48f1e3a8b","server":"4451","farm":5,"title":"Mew Gull, Kamchatka (Larus canus kamtschatschensis)","ispublic":1,"isfriend":0,"isfamily":0},{"id":"29615436841","owner":"66909027@N00","secret":"aff337ab89","server":"8379","farm":9,"title":"Common Gull at De Slufter at Nationaal Park Duinen van Texel, Holland - August 2016","ispublic":1,"isfriend":0,"isfamily":0},{"id":"25363838950","owner":"96161660@N00","secret":"c7b25f1894","server":"1539","farm":2,"title":"\u6d77\u9dd7IMG_3167","ispublic":1,"isfriend":0,"isfamily":0},{"id":"22598953405","owner":"14115261@N05","secret":"d011c4d931","server":"727","farm":1,"title":"IMG_3941","ispublic":1,"isfriend":0,"isfamily":0},{"id":"21696099039","owner":"71582613@N00","secret":"681a118bc7","server":"604","farm":1,"title":"","ispublic":1,"isfriend":0,"isfamily":0},{"id":"18310534576","owner":"23836012@N02","secret":"307b361839","server":"7744","farm":8,"title":"\"Kamchatka\" Mew Gull (Larus canus kamtschatschensis)","ispublic":1,"isfriend":0,"isfamily":0},{"id":"12191967556","owner":"54107105@N00","secret":"8e6c541537","server":"3762","farm":4,"title":"Common Gull","ispublic":1,"isfriend":0,"isfamily":0},{"id":"12191957446","owner":"54107105@N00","secret":"30ef993dbf","server":"7455","farm":8,"title":"Common Gull","ispublic":1,"isfriend":0,"isfamily":0},{"id":"12191329005","owner":"54107105@N00","secret":"c94d385110","server":"5537","farm":6,"title":"Common Gull","ispublic":1,"isfriend":0,"isfamily":0},{"id":"12191747094","owner":"54107105@N00","secret":"10cd2580c9","server":"7316","farm":8,"title":"Common Gull","ispublic":1,"isfriend":0,"isfamily":0},{"id":"12191892056","owner":"54107105@N00","secret":"8ca1c80190","server":"7370","farm":8,"title":"Common Gull","ispublic":1,"isfriend":0,"isfamily":0},{"id":"12122096455","owner":"54107105@N00","secret":"ba933e0805","server":"7422","farm":8,"title":"Mew Gull","ispublic":1,"isfriend":0,"isfamily":0},{"id":"5074772859","owner":"35437652@N02","secret":"373fba2f4c","server":"4051","farm":5,"title":"Common Gull (3cy)","ispublic":1,"isfriend":0,"isfamily":0},{"id":"51893397796","owner":"17654080@N08","secret":"68ec98df45","server":"65535","farm":66,"title":"Common (Kamchatka) Gull (Larus canus kamtschatschensis)","ispublic":1,"isfriend":0,"isfamily":0},{"id":"51893735069","owner":"17654080@N08","secret":"dddbcbea8b","server":"65535","farm":66,"title":"Common (Kamchatka) Gull (Larus canus kamtschatschensis)","ispublic":1,"isfriend":0,"isfamily":0},{"id":"51894050780","owner":"17654080@N08","secret":"bc609c1d50","server":"65535","farm":66,"title":"Common (Kamchatka) Gull (Larus canus kamtschatschensis)","ispublic":1,"isfriend":0,"isfamily":0},{"id":"51894050570","owner":"17654080@N08","secret":"b06d215421","server":"65535","farm":66,"title":"Common (Kamchatka) Gull (Larus canus kamtschatschensis)","ispublic":1,"isfriend":0,"isfamily":0},{"id":"51893734809","owner":"17654080@N08","secret":"634c3d343f","server":"65535","farm":66,"title":"Common (Kamchatka) Gull (Larus canus kamtschatschensis)","ispublic":1,"isfriend":0,"isfamily":0},{"id":"51110509694","owner":"17654080@N08","secret":"f2ece170e8","server":"65535","farm":66,"title":"Mew (Kamchatka) Gull, adult (Larus canus kamtschatschensis)","ispublic":1,"isfriend":0,"isfamily":0},{"id":"31864253477","owner":"72340495@N06","secret":"ba3174d2ec","server":"7892","farm":8,"title":"Kamchatka Gull","ispublic":1,"isfriend":0,"isfamily":0},{"id":"46800662371","owner":"14513067@N00","secret":"bcbfbf27c0","server":"4846","farm":5,"title":"'Kamchatka' Common Gull","ispublic":1,"isfriend":0,"isfamily":0},{"id":"39835225063","owner":"14513067@N00","secret":"d4c3ba2b8f","server":"7840","farm":8,"title":"'Kamchatka' Common Gull","ispublic":1,"isfriend":0,"isfamily":0},{"id":"46800661961","owner":"14513067@N00","secret":"8fd4c87801","server":"7833","farm":8,"title":"'Kamchatka' Common Gull","ispublic":1,"isfriend":0,"isfamily":0},{"id":"46748074492","owner":"14513067@N00","secret":"52e07b50a9","server":"7905","farm":8,"title":"'Kamchatka' Common Gull","ispublic":1,"isfriend":0,"isfamily":0},{"id":"46800661561","owner":"14513067@N00","secret":"bd4c068923","server":"7808","farm":8,"title":"'Kamchatka' Common Gull","ispublic":1,"isfriend":0,"isfamily":0},{"id":"39740489883","owner":"71989271@N06","secret":"5ced8841a5","server":"7879","farm":8,"title":"Common \"Kamchatka\" Gull (win.)(Larus canus kamtschatschensis)","ispublic":1,"isfriend":0,"isfamily":0},{"id":"31749094007","owner":"17654080@N08","secret":"b84c913f00","server":"4831","farm":5,"title":"Kamchatka Gull (Mew\/Common Gull) (Larus canus kamtschatschensis)","ispublic":1,"isfriend":0,"isfamily":0},{"id":"46690549431","owner":"17654080@N08","secret":"8fde12aa17","server":"4849","farm":5,"title":"Kamchatka Gull (Mew\/Common Gull) (Larus canus kamtschatschensis)","ispublic":1,"isfriend":0,"isfamily":0},{"id":"42055006635","owner":"63087892@N04","secret":"83ce854089","server":"1800","farm":2,"title":"Common Gull","ispublic":1,"isfriend":0,"isfamily":0},{"id":"21696070559","owner":"71582613@N00","secret":"beee7369bf","server":"594","farm":1,"title":"","ispublic":1,"isfriend":0,"isfamily":0},{"id":"4254907061","owner":"36616837@N06","secret":"9e03dd379f","server":"4045","farm":5,"title":"Common Gull","ispublic":1,"isfriend":0,"isfamily":0}]},"stat":"ok"}