{"photos":{"page":1,"pages":270,"perpage":100,"total":26985,"photo":[{"id":"52792687211","owner":"181824639@N02","secret":"a2a78beea6","server":"65535","farm":66,"title":"Grand harle ( Mergus merganser )","ispublic":1,"isfriend":0,"isfamily":0},{"id":"52792993460","owner":"14734088@N02","secret":"2e8c934b36","server":"65535","farm":66,"title":"Grand Harle 220430H3a","ispublic":1,"isfriend":0,"isfamily":0},{"id":"52792945948","owner":"107784905@N04","secret":"dd50ecfaae","server":"65535","farm":66,"title":"Harle bi\u00e8vre - Gletterens\/Fribourg\/CH_20201112_015-1","ispublic":1,"isfriend":0,"isfamily":0},{"id":"52792540153","owner":"12639178@N07","secret":"e5f6a86f0e","server":"65535","farm":66,"title":"G\u00e4nses\u00e4ger","ispublic":1,"isfriend":0,"isfamily":0},{"id":"52790550582","owner":"77491310@N03","secret":"b6fe0a3689","server":"65535","farm":66,"title":"Smergo  \u2640","ispublic":1,"isfriend":0,"isfamily":0},{"id":"52789852850","owner":"12639178@N07","secret":"7476508888","server":"65535","farm":66,"title":"G\u00e4nses\u00e4ger","ispublic":1,"isfriend":0,"isfamily":0},{"id":"52787765872","owner":"51198972@N04","secret":"0908d035cf","server":"65535","farm":66,"title":"Common Merganser (Mergus merganser; female), UMass campus pond, Amherst, MA","ispublic":1,"isfriend":0,"isfamily":0},{"id":"52788123031","owner":"66762373@N04","secret":"8ab383f3b7","server":"65535","farm":66,"title":"IMG_4821","ispublic":1,"isfriend":0,"isfamily":0},{"id":"52787516004","owner":"12639178@N07","secret":"1c27d2d463","server":"65535","farm":66,"title":"G\u00e4nses\u00e4ger (Mergus merganser) (2)","ispublic":1,"isfriend":0,"isfamily":0},{"id":"52786729042","owner":"12639178@N07","secret":"99734e2308","server":"65535","farm":66,"title":"G\u00e4nses\u00e4ger (Mergus merganser) (1)","ispublic":1,"isfriend":0,"isfamily":0},{"id":"52787283331","owner":"91064752@N03","secret":"1d98409c0f","server":"65535","farm":66,"title":"Red-breasted Merganser - The Wet Head","ispublic":1,"isfriend":0,"isfamily":0},{"id":"52787534255","owner":"26371261@N00","secret":"d7922efe37","server":"65535","farm":66,"title":"Common Merganser, Mergus merganser","ispublic":1,"isfriend":0,"isfamily":0},{"id":"52786165226","owner":"66855284@N03","secret":"82cd11f89e","server":"65535","farm":66,"title":"Common Merganser 2023 04 01 10","ispublic":1,"isfriend":0,"isfamily":0},{"id":"52786164366","owner":"66855284@N03","secret":"351ffd4ee0","server":"65535","farm":66,"title":"Common Merganser 2023 04 01 10","ispublic":1,"isfriend":0,"isfamily":0},{"id":"52786395519","owner":"66855284@N03","secret":"cabb405064","server":"65535","farm":66,"title":"Common Merganser 2023 04 01 12","ispublic":1,"isfriend":0,"isfamily":0},{"id":"52786162066","owner":"66855284@N03","secret":"491e4903bc","server":"65535","farm":66,"title":"Common Merganser 2023 04 01 09","ispublic":1,"isfriend":0,"isfamily":0},{"id":"52786161126","owner":"66855284@N03","secret":"afb3669686","server":"65535","farm":66,"title":"Common Merganser 2023 04 01 10","ispublic":1,"isfriend":0,"isfamily":0},{"id":"52785605792","owner":"66855284@N03","secret":"3880cd0c60","server":"65535","farm":66,"title":"Common Merganser 2023 04 01 13","ispublic":1,"isfriend":0,"isfamily":0},{"id":"52786609173","owner":"66855284@N03","secret":"4bc8d63e85","server":"65535","farm":66,"title":"Common Merganser 2023 04 01 08","ispublic":1,"isfriend":0,"isfamily":0},{"id":"52786555100","owner":"66855284@N03","secret":"82eb3d27a3","server":"65535","farm":66,"title":"Common Merganser 2023 04 01 15","ispublic":1,"isfriend":0,"isfamily":0},{"id":"52786554540","owner":"66855284@N03","secret":"75158d2427","server":"65535","farm":66,"title":"Common Merganser 2023 04 01 16","ispublic":1,"isfriend":0,"isfamily":0},{"id":"52785602987","owner":"66855284@N03","secret":"f8e00f7581","server":"65535","farm":66,"title":"Common Merganser 2023 04 01 07","ispublic":1,"isfriend":0,"isfamily":0},{"id":"52785602197","owner":"66855284@N03","secret":"a8751a5155","server":"65535","farm":66,"title":"Common Merganser 2023 04 01 11","ispublic":1,"isfriend":0,"isfamily":0},{"id":"52786605783","owner":"66855284@N03","secret":"6ba18f46c9","server":"65535","farm":66,"title":"Common Merganser 2023 04 01 02","ispublic":1,"isfriend":0,"isfamily":0},{"id":"52786155226","owner":"66855284@N03","secret":"83a3fc8bda","server":"65535","farm":66,"title":"Common Merganser 2023 04 01 01","ispublic":1,"isfriend":0,"isfamily":0},{"id":"52786550375","owner":"66855284@N03","secret":"f1d03b2abb","server":"65535","farm":66,"title":"Common Merganser 2023 04 01 06","ispublic":1,"isfriend":0,"isfamily":0},{"id":"52785598672","owner":"66855284@N03","secret":"4d41d5ef9d","server":"65535","farm":66,"title":"Common Merganser 2023 04 01 04","ispublic":1,"isfriend":0,"isfamily":0},{"id":"52786602498","owner":"66855284@N03","secret":"105cfb6d0e","server":"65535","farm":66,"title":"Common Merganser 2023 04 01 05","ispublic":1,"isfriend":0,"isfamily":0},{"id":"52786601573","owner":"66855284@N03","secret":"a668629ec5","server":"65535","farm":66,"title":"Common Merganser 2023 04 01 01","ispublic":1,"isfriend":0,"isfamily":0},{"id":"52786375453","owner":"77597999@N02","secret":"b8c0e3bc6d","server":"65535","farm":66,"title":"Mergus merganser \/Smergo maggiore \/  Common merganser","ispublic":1,"isfriend":0,"isfamily":0},{"id":"52786049884","owner":"44093058@N06","secret":"e0b9c54291","server":"65535","farm":66,"title":"Common merganser, Mergus merganser, Storskrake","ispublic":1,"isfriend":0,"isfamily":0},{"id":"52785815461","owner":"44093058@N06","secret":"b7f91af115","server":"65535","farm":66,"title":"Common merganser (f), Mergus merganser, Storskrake","ispublic":1,"isfriend":0,"isfamily":0},{"id":"52785813401","owner":"44093058@N06","secret":"3229754355","server":"65535","farm":66,"title":"Gadwall, Anas strepera, Snatterand","ispublic":1,"isfriend":0,"isfamily":0},{"id":"52785654744","owner":"32109534@N02","secret":"5d1b4b9a8e","server":"65535","farm":66,"title":"Several teal and two male goosander","ispublic":1,"isfriend":0,"isfamily":0},{"id":"52785654654","owner":"32109534@N02","secret":"f92b526613","server":"65535","farm":66,"title":"Male and female goosander swimming","ispublic":1,"isfriend":0,"isfamily":0},{"id":"52785814410","owner":"32109534@N02","secret":"df88d834b9","server":"65535","farm":66,"title":"Male and female goosander swimming","ispublic":1,"isfriend":0,"isfamily":0},{"id":"52784812597","owner":"32109534@N02","secret":"edba9ae204","server":"65535","farm":66,"title":"Goosander swimming by the Old Dee Bridge","ispublic":1,"isfriend":0,"isfamily":0},{"id":"52784282524","owner":"77597999@N02","secret":"77a993b54e","server":"65535","farm":66,"title":"Mergus merganser \/Smergo maggiore \/  Common merganser","ispublic":1,"isfriend":0,"isfamily":0},{"id":"52784243599","owner":"61241315@N00","secret":"1d1cd7485d","server":"0","farm":0,"title":"Red-breasted Merganser_3316.MP4","ispublic":1,"isfriend":0,"isfamily":0},{"id":"52783449032","owner":"61241315@N00","secret":"9680628887","server":"0","farm":0,"title":"Red-breasted Merganser_3409.MP4","ispublic":1,"isfriend":0,"isfamily":0},{"id":"52783997356","owner":"61241315@N00","secret":"8d4417e1ce","server":"0","farm":0,"title":"Red-breasted Merganser_3410.MP4","ispublic":1,"isfriend":0,"isfamily":0},{"id":"52784006076","owner":"61241315@N00","secret":"a3d2eb47ec","server":"0","farm":0,"title":"Red-breasted Merganser_3304.MP4","ispublic":1,"isfriend":0,"isfamily":0},{"id":"52784010491","owner":"61241315@N00","secret":"c803c49df2","server":"0","farm":0,"title":"Red-breasted Merganser_3261.MP4","ispublic":1,"isfriend":0,"isfamily":0},{"id":"52784000096","owner":"61241315@N00","secret":"82acca758c","server":"0","farm":0,"title":"Red-breasted Merganser_3405.MP4","ispublic":1,"isfriend":0,"isfamily":0},{"id":"52783995416","owner":"61241315@N00","secret":"f4698ac7a4","server":"0","farm":0,"title":"Red-breasted Merganser_3519.MP4","ispublic":1,"isfriend":0,"isfamily":0},{"id":"52784403785","owner":"61241315@N00","secret":"8cb87b56e3","server":"0","farm":0,"title":"Red-breasted Merganser_3302,05.MP4","ispublic":1,"isfriend":0,"isfamily":0},{"id":"52784010896","owner":"61241315@N00","secret":"5f2302f4f5","server":"65535","farm":66,"title":"Red-breasted Merganser_N3308","ispublic":1,"isfriend":0,"isfamily":0},{"id":"52784010846","owner":"61241315@N00","secret":"b77a02f2da","server":"65535","farm":66,"title":"Red-breasted Merganser_N3326","ispublic":1,"isfriend":0,"isfamily":0},{"id":"52783461022","owner":"61241315@N00","secret":"61ddd0425a","server":"65535","farm":66,"title":"Red-breasted Merganser_N3315","ispublic":1,"isfriend":0,"isfamily":0},{"id":"52784407320","owner":"61241315@N00","secret":"c799d3dac4","server":"65535","farm":66,"title":"Red-breasted Merganser_N3327","ispublic":1,"isfriend":0,"isfamily":0},{"id":"52784249749","owner":"61241315@N00","secret":"fb16f61057","server":"65535","farm":66,"title":"Red-breasted Merganser_N3330","ispublic":1,"isfriend":0,"isfamily":0},{"id":"52784010791","owner":"61241315@N00","secret":"7f1f6f61f9","server":"65535","farm":66,"title":"Red-breasted Merganser_N3333","ispublic":1,"isfriend":0,"isfamily":0},{"id":"52784407260","owner":"61241315@N00","secret":"6362d89dbc","server":"65535","farm":66,"title":"Red-breasted Merganser_N3336","ispublic":1,"isfriend":0,"isfamily":0},{"id":"52784407240","owner":"61241315@N00","secret":"dea50c1d08","server":"65535","farm":66,"title":"Red-breasted Merganser_N3338","ispublic":1,"isfriend":0,"isfamily":0},{"id":"52784407225","owner":"61241315@N00","secret":"f02469d4da","server":"65535","farm":66,"title":"Red-breasted Merganser_N3339","ispublic":1,"isfriend":0,"isfamily":0},{"id":"52784010701","owner":"61241315@N00","secret":"70d4306d01","server":"65535","farm":66,"title":"Red-breasted Merganser_N3360","ispublic":1,"isfriend":0,"isfamily":0},{"id":"52784467813","owner":"61241315@N00","secret":"f977f7b127","server":"65535","farm":66,"title":"Red-breasted Merganser_N3350","ispublic":1,"isfriend":0,"isfamily":0},{"id":"52784467778","owner":"61241315@N00","secret":"51f2e162b2","server":"65535","farm":66,"title":"Red-breasted Merganser_N3362","ispublic":1,"isfriend":0,"isfamily":0},{"id":"52783460847","owner":"61241315@N00","secret":"ec6c01b484","server":"65535","farm":66,"title":"Red-breasted Merganser_N3368","ispublic":1,"isfriend":0,"isfamily":0},{"id":"52784249549","owner":"61241315@N00","secret":"ba530b4434","server":"65535","farm":66,"title":"Red-breasted Merganser_N3364","ispublic":1,"isfriend":0,"isfamily":0},{"id":"52784407075","owner":"61241315@N00","secret":"ba866f7fb4","server":"65535","farm":66,"title":"Red-breasted Merganser_N3374","ispublic":1,"isfriend":0,"isfamily":0},{"id":"52784407110","owner":"61241315@N00","secret":"4e7166795f","server":"65535","farm":66,"title":"Red-breasted Merganser_N3370","ispublic":1,"isfriend":0,"isfamily":0},{"id":"52784467668","owner":"61241315@N00","secret":"1f88369837","server":"65535","farm":66,"title":"Red-breasted Merganser_N3386","ispublic":1,"isfriend":0,"isfamily":0},{"id":"52784249434","owner":"61241315@N00","secret":"2f50fe6fee","server":"65535","farm":66,"title":"DSCN3397","ispublic":1,"isfriend":0,"isfamily":0},{"id":"52784467663","owner":"61241315@N00","secret":"1c812e14cd","server":"65535","farm":66,"title":"Red-breasted Merganser_N3393","ispublic":1,"isfriend":0,"isfamily":0},{"id":"52783460747","owner":"61241315@N00","secret":"62c505fa0c","server":"65535","farm":66,"title":"Red-breasted Merganser_N3403","ispublic":1,"isfriend":0,"isfamily":0},{"id":"52784010481","owner":"61241315@N00","secret":"dc48a2e739","server":"65535","farm":66,"title":"Red-breasted Merganser_N3404","ispublic":1,"isfriend":0,"isfamily":0},{"id":"52783460702","owner":"61241315@N00","secret":"8631ea4419","server":"65535","farm":66,"title":"Red-breasted Merganser_N3408","ispublic":1,"isfriend":0,"isfamily":0},{"id":"52784350600","owner":"36685968@N00","secret":"6a43d988c8","server":"65535","farm":66,"title":"Red-breasted Merganser (Mergus serrator)","ispublic":1,"isfriend":0,"isfamily":0},{"id":"52784342065","owner":"77597999@N02","secret":"1c0058bdf2","server":"65535","farm":66,"title":"Mergus merganser \/Smergo maggiore \/  Common merganser","ispublic":1,"isfriend":0,"isfamily":0},{"id":"52783252176","owner":"76454790@N02","secret":"fb3108356b","server":"65535","farm":66,"title":"Common Merganser (Mergus merganser)","ispublic":1,"isfriend":0,"isfamily":0},{"id":"52782569067","owner":"12639178@N07","secret":"cb45b3ddef","server":"65535","farm":66,"title":"..ein G\u00e4nses\u00e4gerweibchen.","ispublic":1,"isfriend":0,"isfamily":0},{"id":"52783059663","owner":"67306066@N03","secret":"f15e71a409","server":"65535","farm":66,"title":"Common Merganser (Mergus merganser)","ispublic":1,"isfriend":0,"isfamily":0},{"id":"52782311661","owner":"51198972@N04","secret":"188c3d887e","server":"65535","farm":66,"title":"Common Merganser (Mergus merganser; male), UMass campus pond, Amherst, MA","ispublic":1,"isfriend":0,"isfamily":0},{"id":"52782701405","owner":"37242840@N07","secret":"2290d0e600","server":"65535","farm":66,"title":"Red-breasted Merganser, Mergus serrator, female (1)","ispublic":1,"isfriend":0,"isfamily":0},{"id":"52782759298","owner":"37242840@N07","secret":"d082fb18af","server":"65535","farm":66,"title":"Red-breasted Merganser, Mergus serrator, female (4)","ispublic":1,"isfriend":0,"isfamily":0},{"id":"52782759258","owner":"37242840@N07","secret":"3b047c74e2","server":"65535","farm":66,"title":"Red-breasted Merganser, Mergus serrator, female (6)","ispublic":1,"isfriend":0,"isfamily":0},{"id":"52782701310","owner":"37242840@N07","secret":"3a2d1bca18","server":"65535","farm":66,"title":"Red-breasted Merganser, Mergus serrator, male (1)","ispublic":1,"isfriend":0,"isfamily":0},{"id":"52782701275","owner":"37242840@N07","secret":"9bb154c4c6","server":"65535","farm":66,"title":"Red-breasted Merganser, Mergus serrator, male (5)","ispublic":1,"isfriend":0,"isfamily":0},{"id":"52782296546","owner":"37242840@N07","secret":"805ac3b692","server":"65535","farm":66,"title":"Red-breasted Merganser, Mergus serrator, male (6)","ispublic":1,"isfriend":0,"isfamily":0},{"id":"52782676805","owner":"37242840@N07","secret":"35689ee55a","server":"65535","farm":66,"title":"Red-breasted Merganser, Mergus serrator, male (1)","ispublic":1,"isfriend":0,"isfamily":0},{"id":"52782271141","owner":"37242840@N07","secret":"c0b918f951","server":"65535","farm":66,"title":"Red-breasted Merganser, Mergus serrator, male (4)","ispublic":1,"isfriend":0,"isfamily":0},{"id":"52782676765","owner":"37242840@N07","secret":"39d33eb97d","server":"65535","farm":66,"title":"Red-breasted Merganser, Mergus serrator, male (7)","ispublic":1,"isfriend":0,"isfamily":0},{"id":"52782271046","owner":"37242840@N07","secret":"7df5fe71b1","server":"65535","farm":66,"title":"Red-breasted Mergansers, Mergus serrator (2)","ispublic":1,"isfriend":0,"isfamily":0},{"id":"52782733928","owner":"37242840@N07","secret":"33327bf626","server":"65535","farm":66,"title":"Red-breasted Mergansers, Mergus serrator (10)","ispublic":1,"isfriend":0,"isfamily":0},{"id":"52780878539","owner":"195041250@N03","secret":"8341b51967","server":"65535","farm":66,"title":"Common Merganser","ispublic":1,"isfriend":0,"isfamily":0},{"id":"52780509706","owner":"195041250@N03","secret":"9c22ff5187","server":"65535","farm":66,"title":"Red-breasted Merganser","ispublic":1,"isfriend":0,"isfamily":0},{"id":"52779960369","owner":"139237357@N06","secret":"04026fe1e1","server":"65535","farm":66,"title":"Red-breasted Merganser","ispublic":1,"isfriend":0,"isfamily":0},{"id":"52779599501","owner":"7261670@N03","secret":"28098ee7af","server":"65535","farm":66,"title":"Red-breasted Merganser","ispublic":1,"isfriend":0,"isfamily":0},{"id":"52780073918","owner":"7261670@N03","secret":"3edea78517","server":"65535","farm":66,"title":"Red-breasted Merganser","ispublic":1,"isfriend":0,"isfamily":0},{"id":"52778962552","owner":"12639178@N07","secret":"8132532baf","server":"65535","farm":66,"title":"G\u00e4nses\u00e4ger (Mergus merganser)","ispublic":1,"isfriend":0,"isfamily":0},{"id":"52779322476","owner":"12639178@N07","secret":"7ef9bda43b","server":"65535","farm":66,"title":"heute nur einer","ispublic":1,"isfriend":0,"isfamily":0},{"id":"52777760221","owner":"12639178@N07","secret":"a4882e7ec9","server":"65535","farm":66,"title":"G\u00e4nses\u00e4ger","ispublic":1,"isfriend":0,"isfamily":0},{"id":"52777184167","owner":"12639178@N07","secret":"10974111e8","server":"65535","farm":66,"title":"Sch\u00f6ne G\u00e4nses\u00e4gerin","ispublic":1,"isfriend":0,"isfamily":0},{"id":"52777713315","owner":"146205383@N06","secret":"d6df3d9b6c","server":"65535","farm":66,"title":"Goosander","ispublic":1,"isfriend":0,"isfamily":0},{"id":"52779327877","owner":"12639178@N07","secret":"512f56e283","server":"65535","farm":66,"title":"G\u00e4nses\u00e4ger im Steinbruch Weiler zum Stein","ispublic":1,"isfriend":0,"isfamily":0},{"id":"52779969473","owner":"12639178@N07","secret":"fd4a50f9c9","server":"65535","farm":66,"title":"G\u00e4nses\u00e4ger (Mergus merganser)","ispublic":1,"isfriend":0,"isfamily":0},{"id":"52779911400","owner":"12639178@N07","secret":"aa92ccc436","server":"65535","farm":66,"title":"G\u00e4nses\u00e4ger (Mergus merganser)","ispublic":1,"isfriend":0,"isfamily":0},{"id":"52779492861","owner":"12639178@N07","secret":"41bd897fa5","server":"65535","farm":66,"title":"G\u00e4nses\u00e4ger (Mergus merganser)","ispublic":1,"isfriend":0,"isfamily":0},{"id":"52779911045","owner":"12639178@N07","secret":"8eb9bc8fcd","server":"65535","farm":66,"title":"G\u00e4nses\u00e4gerp\u00e4rchen (Mergus merganser)","ispublic":1,"isfriend":0,"isfamily":0}]},"stat":"ok"}