{"photos":{"page":1,"pages":33,"perpage":100,"total":3233,"photo":[{"id":"52719886521","owner":"12639178@N07","secret":"1060eafcc0","server":"65535","farm":66,"title":"Amerikateichhuhn","ispublic":1,"isfriend":0,"isfamily":0},{"id":"52715782241","owner":"196716417@N05","secret":"326a80e98d","server":"65535","farm":66,"title":"Galinha-d'\u00e1gua","ispublic":1,"isfriend":0,"isfamily":0},{"id":"52715441584","owner":"12639178@N07","secret":"28c0752188","server":"65535","farm":66,"title":"Juveniles Teichhuhn","ispublic":1,"isfriend":0,"isfamily":0},{"id":"52712875514","owner":"82393004@N02","secret":"8ed0e0693e","server":"65535","farm":66,"title":"Florida Bird Pictures","ispublic":1,"isfriend":0,"isfamily":0},{"id":"52698654062","owner":"119095828@N03","secret":"2010673b22","server":"65535","farm":66,"title":"Common Gallinule (Gallinula galeata)","ispublic":1,"isfriend":0,"isfamily":0},{"id":"52693285274","owner":"52450054@N04","secret":"e83ecd3d39","server":"65535","farm":66,"title":"Common Gallinule - Gallinula galeata, Cypress Wetlands, Port Royal, South Carolina, May 19, 2022","ispublic":1,"isfriend":0,"isfamily":0},{"id":"52689053744","owner":"124995824@N08","secret":"a78c6cdab8","server":"65535","farm":66,"title":"Common Gallinule - Gallinula galeata","ispublic":1,"isfriend":0,"isfamily":0},{"id":"52674069649","owner":"47078197@N04","secret":"057c50ba85","server":"65535","farm":66,"title":"Gallinula galeata cachinnans (North American Common Gallinule)","ispublic":1,"isfriend":0,"isfamily":0},{"id":"52681980942","owner":"74787113@N05","secret":"6be34c6645","server":"65535","farm":66,"title":"COMMON GALLINULA NESTING","ispublic":1,"isfriend":0,"isfamily":0},{"id":"52670068240","owner":"62043870@N05","secret":"94d90ae7f0","server":"65535","farm":66,"title":"Common Gallinules, Gallinula galeata","ispublic":1,"isfriend":0,"isfamily":0},{"id":"52656914092","owner":"124995824@N08","secret":"4f569d34fd","server":"65535","farm":66,"title":"Common Gallinule - Gallinula galeata","ispublic":1,"isfriend":0,"isfamily":0},{"id":"52645791705","owner":"8013969@N03","secret":"83da4d415c","server":"65535","farm":66,"title":"Gallinula galeata DFL btr22-1","ispublic":1,"isfriend":0,"isfamily":0},{"id":"52645820613","owner":"8013969@N03","secret":"c724224081","server":"65535","farm":66,"title":"Gallinula galeata DFL btr22-2","ispublic":1,"isfriend":0,"isfamily":0},{"id":"52632196844","owner":"47533293@N04","secret":"f34199553e","server":"65535","farm":66,"title":"Common gallinule, Gallinula galeata","ispublic":1,"isfriend":0,"isfamily":0},{"id":"52629514793","owner":"163667952@N05","secret":"e4f8dae7ff","server":"65535","farm":66,"title":"Common Gallinule","ispublic":1,"isfriend":0,"isfamily":0},{"id":"52596834201","owner":"124995824@N08","secret":"dcca4e709a","server":"65535","farm":66,"title":"Common Gallinule - Gallinula galeata","ispublic":1,"isfriend":0,"isfamily":0},{"id":"52597104863","owner":"73179441@N02","secret":"3af54f5424","server":"65535","farm":66,"title":"Common Yet Uncommon","ispublic":1,"isfriend":0,"isfamily":0},{"id":"52596485260","owner":"13765868@N03","secret":"e8e6986863","server":"65535","farm":66,"title":"Gallinula galeata","ispublic":1,"isfriend":0,"isfamily":0},{"id":"52581599675","owner":"92567405@N03","secret":"835128d31d","server":"65535","farm":66,"title":"Common Gallinule (Gallinula galeata) - 12.22.22","ispublic":1,"isfriend":0,"isfamily":0},{"id":"52580757000","owner":"153973412@N04","secret":"325cabb217","server":"65535","farm":66,"title":"Common Gallinue-Gallinula galeata, Brazos Bend, TX","ispublic":1,"isfriend":0,"isfamily":0},{"id":"52577951645","owner":"9638954@N07","secret":"a54e6c6f15","server":"65535","farm":66,"title":"Common Gallinule","ispublic":1,"isfriend":0,"isfamily":0},{"id":"52564400200","owner":"140318147@N08","secret":"8a64c8b98a","server":"65535","farm":66,"title":"common gallinule (Gallinula galeata) L4A7681","ispublic":1,"isfriend":0,"isfamily":0},{"id":"52546844070","owner":"124995824@N08","secret":"818ddb4c13","server":"65535","farm":66,"title":"Common Gallinule - Gallinula galeata","ispublic":1,"isfriend":0,"isfamily":0},{"id":"52541002851","owner":"33610210@N05","secret":"68a3394481","server":"65535","farm":66,"title":"Common Gallinule, Gallinula galeata","ispublic":1,"isfriend":0,"isfamily":0},{"id":"52541002646","owner":"33610210@N05","secret":"5376c440d3","server":"65535","farm":66,"title":"Common Gallinule, Gallinula galeata","ispublic":1,"isfriend":0,"isfamily":0},{"id":"52514906001","owner":"46837385@N03","secret":"6698c94646","server":"65535","farm":66,"title":"Gallinule Fight (2)","ispublic":1,"isfriend":0,"isfamily":0},{"id":"52515386485","owner":"46837385@N03","secret":"b8c8cfd963","server":"65535","farm":66,"title":"Gallinule Fight (1)","ispublic":1,"isfriend":0,"isfamily":0},{"id":"52497736001","owner":"44034115@N08","secret":"8f93e516e4","server":"65535","farm":66,"title":"Gallinule Got an Eye on the Gator","ispublic":1,"isfriend":0,"isfamily":0},{"id":"52496121789","owner":"44034115@N08","secret":"8d1b5a09b5","server":"65535","farm":66,"title":"Like Father Like Son on the Silver River","ispublic":1,"isfriend":0,"isfamily":0},{"id":"52461241899","owner":"84547312@N00","secret":"ba44bd7266","server":"65535","farm":66,"title":"Common gallinule","ispublic":1,"isfriend":0,"isfamily":0},{"id":"52453609683","owner":"88886389@N02","secret":"de5d37f5c8","server":"65535","farm":66,"title":"0551 In Evening Light","ispublic":1,"isfriend":0,"isfamily":0},{"id":"52439286995","owner":"23020855@N03","secret":"297acff112","server":"65535","farm":66,"title":"Common Gallinule - Buena Vista Park, CA","ispublic":1,"isfriend":0,"isfamily":0},{"id":"52439072613","owner":"103722035@N06","secret":"7bae910829","server":"0","farm":0,"title":"Common Gallinule (Gallinula galeata), San Simeon, CA","ispublic":1,"isfriend":0,"isfamily":0},{"id":"52365906076","owner":"11803211@N06","secret":"b2f014ebe7","server":"65535","farm":66,"title":"Common gallinule (Gallinula galeata), Fort DeSoto, Florida","ispublic":1,"isfriend":0,"isfamily":0},{"id":"52358936951","owner":"8065544@N08","secret":"b16385a126","server":"65535","farm":66,"title":"Common Gallinule (Gallinula galeata)","ispublic":1,"isfriend":0,"isfamily":0},{"id":"52354471447","owner":"140734051@N08","secret":"a0cd16bbee","server":"65535","farm":66,"title":"\u0410\u043c\u0435\u0440\u0438\u043a\u0430\u043d\u0441\u043a\u0430\u044f \u043a\u0430\u043c\u044b\u0448\u043d\u0438\u0446\u0430, Gallinula galeata cachinnans, Common Gallinule","ispublic":1,"isfriend":0,"isfamily":0},{"id":"52353981363","owner":"193398331@N08","secret":"a2371b3980","server":"65535","farm":66,"title":"Common Gallinules (Florida)","ispublic":1,"isfriend":0,"isfamily":0},{"id":"52353735696","owner":"193398331@N08","secret":"99009b678e","server":"65535","farm":66,"title":"Common Gallinules (Florida)","ispublic":1,"isfriend":0,"isfamily":0},{"id":"52352796477","owner":"193398331@N08","secret":"c6b2d6d31d","server":"65535","farm":66,"title":"Common Gallinules (Florida)","ispublic":1,"isfriend":0,"isfamily":0},{"id":"52353981343","owner":"193398331@N08","secret":"2656913923","server":"65535","farm":66,"title":"Common Gallinules (Florida)","ispublic":1,"isfriend":0,"isfamily":0},{"id":"52351298132","owner":"50729024@N07","secret":"47f85865b5","server":"65535","farm":66,"title":"American Moorhen (Gallinula galeata)","ispublic":1,"isfriend":0,"isfamily":0},{"id":"52342838540","owner":"103722035@N06","secret":"7c5815afb0","server":"0","farm":0,"title":"Common Gallinule (Gallinula galeata), San Simeon, CA","ispublic":1,"isfriend":0,"isfamily":0},{"id":"52323281026","owner":"36685968@N00","secret":"10d03163df","server":"65535","farm":66,"title":"Common Gallinule (Gallinula galeata)","ispublic":1,"isfriend":0,"isfamily":0},{"id":"52322473682","owner":"36685968@N00","secret":"dd73d3b37a","server":"65535","farm":66,"title":"Common Gallinule (Gallinula galeata)","ispublic":1,"isfriend":0,"isfamily":0},{"id":"52322473467","owner":"36685968@N00","secret":"5493cfea29","server":"65535","farm":66,"title":"Common Gallinule (Gallinula galeata)","ispublic":1,"isfriend":0,"isfamily":0},{"id":"52307906731","owner":"124995824@N08","secret":"fd814d5277","server":"65535","farm":66,"title":"Common Gallinule - Gallinula galeata","ispublic":1,"isfriend":0,"isfamily":0},{"id":"52307015208","owner":"196264892@N08","secret":"54f62125fa","server":"65535","farm":66,"title":"Common Gallinule","ispublic":1,"isfriend":0,"isfamily":0},{"id":"52305827587","owner":"196264892@N08","secret":"52ac5fe2fa","server":"65535","farm":66,"title":"Common Gallinule","ispublic":1,"isfriend":0,"isfamily":0},{"id":"52307065434","owner":"196264892@N08","secret":"b3246bef72","server":"65535","farm":66,"title":"Common Gallinule","ispublic":1,"isfriend":0,"isfamily":0},{"id":"52305826832","owner":"196264892@N08","secret":"b924df0b90","server":"65535","farm":66,"title":"Common Gallinule","ispublic":1,"isfriend":0,"isfamily":0},{"id":"52303138398","owner":"186193378@N07","secret":"c81d0ef79e","server":"65535","farm":66,"title":"Galinha-d'\u00e1gua (Gallinula galeata) Common Gallinule","ispublic":1,"isfriend":0,"isfamily":0},{"id":"52301281553","owner":"165841515@N03","secret":"40b405e59c","server":"65535","farm":66,"title":"Gallinule d'Am\u00e9rique \/ Common Gallinule \/ (Gallinula galeata)","ispublic":1,"isfriend":0,"isfamily":0},{"id":"52300289232","owner":"165841515@N03","secret":"60a5220b63","server":"65535","farm":66,"title":"Gallinule d'Am\u00e9rique \/ Common Gallinule \/ (Gallinula galeata)","ispublic":1,"isfriend":0,"isfamily":0},{"id":"52300287877","owner":"165841515@N03","secret":"a4e6a0afb6","server":"65535","farm":66,"title":"Gallinule d'Am\u00e9rique \/ Common Gallinule \/ (Gallinula galeata)","ispublic":1,"isfriend":0,"isfamily":0},{"id":"52301269341","owner":"165841515@N03","secret":"6e87406cae","server":"65535","farm":66,"title":"Gallinule d'Am\u00e9rique \/ Common Gallinule \/ (Gallinula galeata)","ispublic":1,"isfriend":0,"isfamily":0},{"id":"52301276628","owner":"165841515@N03","secret":"522d66d8ce","server":"65535","farm":66,"title":"Gallinule d'Am\u00e9rique \/ Common Gallinule \/ (Gallinula galeata)","ispublic":1,"isfriend":0,"isfamily":0},{"id":"52300585668","owner":"183004597@N05","secret":"0a3b6ebcf5","server":"65535","farm":66,"title":"Common Gallinules (Gallinula galeata)","ispublic":1,"isfriend":0,"isfamily":0},{"id":"52276482732","owner":"183004597@N05","secret":"bbc037359d","server":"65535","farm":66,"title":"Common Gallinule (Gallinula galeata)","ispublic":1,"isfriend":0,"isfamily":0},{"id":"52257484445","owner":"183004597@N05","secret":"5000e3f4a8","server":"65535","farm":66,"title":"Common Gallinule (Gallinula galeata)","ispublic":1,"isfriend":0,"isfamily":0},{"id":"52256413114","owner":"43440320@N04","secret":"0d3aef530a","server":"65535","farm":66,"title":"Common Gallinule","ispublic":1,"isfriend":0,"isfamily":0},{"id":"52255049448","owner":"185636278@N06","secret":"292285df96","server":"65535","farm":66,"title":"Common Gallinule","ispublic":1,"isfriend":0,"isfamily":0},{"id":"52255294914","owner":"185636278@N06","secret":"11c77d3fba","server":"65535","farm":66,"title":"Common Gallinule family","ispublic":1,"isfriend":0,"isfamily":0},{"id":"52255497015","owner":"185636278@N06","secret":"6b0dd3d7bc","server":"65535","farm":66,"title":"Common Gallinule young","ispublic":1,"isfriend":0,"isfamily":0},{"id":"52714440287","owner":"47533293@N04","secret":"156c7d49d2","server":"65535","farm":66,"title":"Common gallinule, Gallinula galeata","ispublic":1,"isfriend":0,"isfamily":0},{"id":"52695310400","owner":"143326780@N02","secret":"f3cbfdce7a","server":"65535","farm":66,"title":"DSCN4653","ispublic":1,"isfriend":0,"isfamily":0},{"id":"52695310295","owner":"143326780@N02","secret":"993e285092","server":"65535","farm":66,"title":"DSCN4658","ispublic":1,"isfriend":0,"isfamily":0},{"id":"52694897626","owner":"143326780@N02","secret":"b6baafefc6","server":"65535","farm":66,"title":"DSCN4660","ispublic":1,"isfriend":0,"isfamily":0},{"id":"52694381417","owner":"143326780@N02","secret":"d2d7c1082a","server":"65535","farm":66,"title":"DSCN4670","ispublic":1,"isfriend":0,"isfamily":0},{"id":"52694381312","owner":"143326780@N02","secret":"f28b77cbc4","server":"65535","farm":66,"title":"DSCN4676","ispublic":1,"isfriend":0,"isfamily":0},{"id":"52695162749","owner":"143326780@N02","secret":"76f51b90f1","server":"65535","farm":66,"title":"DSCN4679","ispublic":1,"isfriend":0,"isfamily":0},{"id":"52684878290","owner":"12639178@N07","secret":"6ce4b804a4","server":"65535","farm":66,"title":"Teichhuhn im versteckten Gew\u00e4sser","ispublic":1,"isfriend":0,"isfamily":0},{"id":"52658059772","owner":"12639178@N07","secret":"8b1f04b548","server":"65535","farm":66,"title":"Amerikateichhuhn nach Gefiederpflege","ispublic":1,"isfriend":0,"isfamily":0},{"id":"52656473711","owner":"12639178@N07","secret":"fb0c185ae0","server":"65535","farm":66,"title":"Amerikateichh\u00fchner","ispublic":1,"isfriend":0,"isfamily":0},{"id":"52656757634","owner":"12639178@N07","secret":"7ebabfc5a0","server":"65535","farm":66,"title":"Amerikateichhuhn auf kleinem Gew\u00e4sser","ispublic":1,"isfriend":0,"isfamily":0},{"id":"52638233900","owner":"47533293@N04","secret":"a1bfbf8f74","server":"65535","farm":66,"title":"Common gallinule, Gallinula galeata","ispublic":1,"isfriend":0,"isfamily":0},{"id":"52625083923","owner":"154657265@N08","secret":"0e12251d50","server":"65535","farm":66,"title":"Hawaiian Common Gallinule - Gallinula galeata sandvichensis","ispublic":1,"isfriend":0,"isfamily":0},{"id":"52581991637","owner":"163058217@N06","secret":"bc689df994","server":"65535","farm":66,"title":"Gallinula galeata. 2018. Beaufort, SC, US. Robert McCabe","ispublic":1,"isfriend":0,"isfamily":0},{"id":"52542119842","owner":"36685968@N00","secret":"4959102def","server":"65535","farm":66,"title":"Common Gallinule (Gallinula galeata)","ispublic":1,"isfriend":0,"isfamily":0},{"id":"52442743217","owner":"165841515@N03","secret":"af267105b5","server":"65535","farm":66,"title":"Gallinule d'Am\u00e9rique \/ Common Gallinule \/ (Gallinula galeata)","ispublic":1,"isfriend":0,"isfamily":0},{"id":"52419561743","owner":"184921031@N02","secret":"89c508c6f7","server":"65535","farm":66,"title":"Gallinula galeata, Tag\u00fcita del norte.","ispublic":1,"isfriend":0,"isfamily":0},{"id":"52415069456","owner":"84169650@N07","secret":"90b60fe49d","server":"65535","farm":66,"title":"Common Gallinule","ispublic":1,"isfriend":0,"isfamily":0},{"id":"52414211280","owner":"67306066@N03","secret":"7bc99c97ee","server":"65535","farm":66,"title":"Common Gallinule (Gallinula galeata)","ispublic":1,"isfriend":0,"isfamily":0},{"id":"52414211240","owner":"67306066@N03","secret":"6daeeeb076","server":"65535","farm":66,"title":"Common Gallinule (Gallinula galeata)","ispublic":1,"isfriend":0,"isfamily":0},{"id":"52411884056","owner":"67306066@N03","secret":"4781f93531","server":"65535","farm":66,"title":"Common Gallinule (Gallinula galeata)","ispublic":1,"isfriend":0,"isfamily":0},{"id":"52412398393","owner":"67306066@N03","secret":"7c3fe32a3b","server":"65535","farm":66,"title":"Common Gallinule (Gallinula galeata)","ispublic":1,"isfriend":0,"isfamily":0},{"id":"52390264152","owner":"156457454@N02","secret":"96e282fcac","server":"65535","farm":66,"title":"Gallinula galeata 1 (Common Gallinule)","ispublic":1,"isfriend":0,"isfamily":0},{"id":"52390381236","owner":"195770897@N06","secret":"063196ffc3","server":"65535","farm":66,"title":"2022-09-28_10-11-27","ispublic":1,"isfriend":0,"isfamily":0},{"id":"52355418316","owner":"140734051@N08","secret":"c8766cff47","server":"65535","farm":66,"title":"\u0410\u043c\u0435\u0440\u0438\u043a\u0430\u043d\u0441\u043a\u0430\u044f \u043a\u0430\u043c\u044b\u0448\u043d\u0438\u0446\u0430, Gallinula galeata cachinnans, Common Gallinule","ispublic":1,"isfriend":0,"isfamily":0},{"id":"52355736094","owner":"140734051@N08","secret":"3036c31dd3","server":"65535","farm":66,"title":"\u0410\u043c\u0435\u0440\u0438\u043a\u0430\u043d\u0441\u043a\u0430\u044f \u043a\u0430\u043c\u044b\u0448\u043d\u0438\u0446\u0430, Gallinula galeata cachinnans, Common Gallinule","ispublic":1,"isfriend":0,"isfamily":0},{"id":"52355657433","owner":"140734051@N08","secret":"1e5a7fb30e","server":"65535","farm":66,"title":"\u0410\u043c\u0435\u0440\u0438\u043a\u0430\u043d\u0441\u043a\u0430\u044f \u043a\u0430\u043c\u044b\u0448\u043d\u0438\u0446\u0430, Gallinula galeata cachinnans, Common Gallinule","ispublic":1,"isfriend":0,"isfamily":0},{"id":"52354471717","owner":"140734051@N08","secret":"c3fd11f7fb","server":"65535","farm":66,"title":"\u0410\u043c\u0435\u0440\u0438\u043a\u0430\u043d\u0441\u043a\u0430\u044f \u043a\u0430\u043c\u044b\u0448\u043d\u0438\u0446\u0430, Gallinula galeata cachinnans, Common Gallinule","ispublic":1,"isfriend":0,"isfamily":0},{"id":"52355842280","owner":"140734051@N08","secret":"2edc869b35","server":"65535","farm":66,"title":"\u0410\u043c\u0435\u0440\u0438\u043a\u0430\u043d\u0441\u043a\u0430\u044f \u043a\u0430\u043c\u044b\u0448\u043d\u0438\u0446\u0430, Gallinula galeata cachinnans, Common Gallinule","ispublic":1,"isfriend":0,"isfamily":0},{"id":"52355842195","owner":"140734051@N08","secret":"5cf5fced4b","server":"65535","farm":66,"title":"\u0410\u043c\u0435\u0440\u0438\u043a\u0430\u043d\u0441\u043a\u0430\u044f \u043a\u0430\u043c\u044b\u0448\u043d\u0438\u0446\u0430, Gallinula galeata cachinnans, Common Gallinule","ispublic":1,"isfriend":0,"isfamily":0},{"id":"52330172340","owner":"193835300@N08","secret":"c9ce3ea7f4","server":"65535","farm":66,"title":"Gallinule d'Am\u00e9rique (Gallinula galeata) common gallinule","ispublic":1,"isfriend":0,"isfamily":0},{"id":"52324728615","owner":"71330601@N06","secret":"06915f70c1","server":"65535","farm":66,"title":"Galinha-d'\u00e1gua","ispublic":1,"isfriend":0,"isfamily":0},{"id":"52262647346","owner":"12639178@N07","secret":"9dfb8facd6","server":"65535","farm":66,"title":"Bettelnd rennt es hinter dem Altvogel hinterher","ispublic":1,"isfriend":0,"isfamily":0},{"id":"52255048558","owner":"185636278@N06","secret":"8278ff8980","server":"65535","farm":66,"title":"Common Gallinule young","ispublic":1,"isfriend":0,"isfamily":0},{"id":"52254062097","owner":"185636278@N06","secret":"792e0e1ddb","server":"65535","farm":66,"title":"Common Gallinule young","ispublic":1,"isfriend":0,"isfamily":0},{"id":"52253922549","owner":"12639178@N07","secret":"eba780a484","server":"65535","farm":66,"title":"Es trollt sich","ispublic":1,"isfriend":0,"isfamily":0},{"id":"52254133185","owner":"12639178@N07","secret":"c5dba8486e","server":"65535","farm":66,"title":"Teichhuhn nahe Fu\u00dfweg","ispublic":1,"isfriend":0,"isfamily":0}]},"stat":"ok"}