{"photos":{"page":1,"pages":164,"perpage":100,"total":16391,"photo":[{"id":"52792980028","owner":"120533227@N06","secret":"c7ed121fd8","server":"65535","farm":66,"title":"_MG_2128  Hvinand - Common Goldeneye - Bucephala clangula","ispublic":1,"isfriend":0,"isfamily":0},{"id":"52792979943","owner":"120533227@N06","secret":"20d5c57027","server":"65535","farm":66,"title":"_MG_2166  Hvinand - Common Goldeneye - Bucephala clangula","ispublic":1,"isfriend":0,"isfamily":0},{"id":"52791975782","owner":"120533227@N06","secret":"fb408ea423","server":"65535","farm":66,"title":"_MG_2171  Hvinand - Common Goldeneye - Bucephala clangula","ispublic":1,"isfriend":0,"isfamily":0},{"id":"52791975717","owner":"120533227@N06","secret":"4400935635","server":"65535","farm":66,"title":"_MG_2175  Hvinand - Common Goldeneye - Bucephala clangula","ispublic":1,"isfriend":0,"isfamily":0},{"id":"52792440595","owner":"128329347@N04","secret":"f4b924cf64","server":"65535","farm":66,"title":"Bucephala clangula - Common goldeneye","ispublic":1,"isfriend":0,"isfamily":0},{"id":"52790494983","owner":"149045384@N07","secret":"77e63a4b24","server":"65535","farm":66,"title":"Goldeneye male_6748","ispublic":1,"isfriend":0,"isfamily":0},{"id":"52790045721","owner":"149045384@N07","secret":"059de95acb","server":"65535","farm":66,"title":"Goldeneye female_6772","ispublic":1,"isfriend":0,"isfamily":0},{"id":"52789369365","owner":"8666250@N02","secret":"eb2a045cd7","server":"65535","farm":66,"title":"\"Oh, the Horror!\"","ispublic":1,"isfriend":0,"isfamily":0},{"id":"52788977766","owner":"8666250@N02","secret":"9e31aae822","server":"65535","farm":66,"title":"Just before the torpedo drops...","ispublic":1,"isfriend":0,"isfamily":0},{"id":"52789208304","owner":"8666250@N02","secret":"6af5b7ea1b","server":"65535","farm":66,"title":"Cogo terrorist at the Fish Pond","ispublic":1,"isfriend":0,"isfamily":0},{"id":"52789369055","owner":"8666250@N02","secret":"0b7ba5cb59","server":"65535","farm":66,"title":"The dance of, well, it wasn't clear.... -01","ispublic":1,"isfriend":0,"isfamily":0},{"id":"52788422017","owner":"8666250@N02","secret":"dae929787e","server":"65535","farm":66,"title":"Cogo courtship at the Fish Pond 230305 -02","ispublic":1,"isfriend":0,"isfamily":0},{"id":"52789207999","owner":"8666250@N02","secret":"1ddf7245ec","server":"65535","farm":66,"title":"Cogo courtship at the Fish Pond 230305 -03","ispublic":1,"isfriend":0,"isfamily":0},{"id":"52789207909","owner":"8666250@N02","secret":"81ba927143","server":"65535","farm":66,"title":"The pond has eyes \u2014 watching...","ispublic":1,"isfriend":0,"isfamily":0},{"id":"52789427973","owner":"8666250@N02","secret":"2bef41057b","server":"65535","farm":66,"title":"The bullied juvie....","ispublic":1,"isfriend":0,"isfamily":0},{"id":"52788471145","owner":"12639178@N07","secret":"b49262a7f8","server":"65535","farm":66,"title":"Schellente","ispublic":1,"isfriend":0,"isfamily":0},{"id":"52788470875","owner":"12639178@N07","secret":"17007aac1b","server":"65535","farm":66,"title":"Schellerpel","ispublic":1,"isfriend":0,"isfamily":0},{"id":"52787922175","owner":"12639178@N07","secret":"5d8afa4eca","server":"65535","farm":66,"title":"..nur noch 1 Schellentenpaar war zu sehen...","ispublic":1,"isfriend":0,"isfamily":0},{"id":"52786248522","owner":"131779834@N08","secret":"a038b4f653","server":"65535","farm":66,"title":"Head Shake","ispublic":1,"isfriend":0,"isfamily":0},{"id":"52787165305","owner":"62043870@N05","secret":"7ce8758083","server":"65535","farm":66,"title":"Common Goldeneye, Bucephala clangula","ispublic":1,"isfriend":0,"isfamily":0},{"id":"52786054091","owner":"12639178@N07","secret":"09b0d515d5","server":"65535","farm":66,"title":"Schellente","ispublic":1,"isfriend":0,"isfamily":0},{"id":"52785497317","owner":"12639178@N07","secret":"c89c919907","server":"65535","farm":66,"title":"Schellerpel","ispublic":1,"isfriend":0,"isfamily":0},{"id":"52784883059","owner":"131779834@N08","secret":"85998ca990","server":"65535","farm":66,"title":"Red Light Waters","ispublic":1,"isfriend":0,"isfamily":0},{"id":"52782279997","owner":"12639178@N07","secret":"716a484974","server":"65535","farm":66,"title":"Schellente (Bucephala clangula) (2)","ispublic":1,"isfriend":0,"isfamily":0},{"id":"52782825121","owner":"12639178@N07","secret":"3f0903dbcc","server":"65535","farm":66,"title":"Schellente (Bucephala clangula) (1)","ispublic":1,"isfriend":0,"isfamily":0},{"id":"52783939405","owner":"62043870@N05","secret":"f532f78ee6","server":"65535","farm":66,"title":"Common Goldeneye, Bucephala clangula","ispublic":1,"isfriend":0,"isfamily":0},{"id":"52782320430","owner":"143326780@N02","secret":"f31d64c603","server":"65535","farm":66,"title":"DSCN7394","ispublic":1,"isfriend":0,"isfamily":0},{"id":"52781914576","owner":"143326780@N02","secret":"8eb80af58e","server":"65535","farm":66,"title":"DSCN7397","ispublic":1,"isfriend":0,"isfamily":0},{"id":"52782158729","owner":"143326780@N02","secret":"00aff4c2b8","server":"65535","farm":66,"title":"DSCN7399","ispublic":1,"isfriend":0,"isfamily":0},{"id":"52778160740","owner":"12639178@N07","secret":"aea77af71c","server":"65535","farm":66,"title":"Schellente","ispublic":1,"isfriend":0,"isfamily":0},{"id":"52778160540","owner":"12639178@N07","secret":"70a0ac9524","server":"65535","farm":66,"title":"Schellente","ispublic":1,"isfriend":0,"isfamily":0},{"id":"52778136230","owner":"8666250@N02","secret":"b1aa342501","server":"65535","farm":66,"title":"Tundras ignore Mr Cogo","ispublic":1,"isfriend":0,"isfamily":0},{"id":"52777099857","owner":"62043870@N05","secret":"dbf1705270","server":"65535","farm":66,"title":"Common Goldeneye, Bucephala clangula","ispublic":1,"isfriend":0,"isfamily":0},{"id":"52777844299","owner":"78304219@N06","secret":"593d241ab1","server":"65535","farm":66,"title":"07-03-23_DSC3073_PermaLiv","ispublic":1,"isfriend":0,"isfamily":0},{"id":"52776065283","owner":"68635735@N02","secret":"5958df6b99","server":"65535","farm":66,"title":"Common Goldeneye (Bucephala clangula) male adult and immature","ispublic":1,"isfriend":0,"isfamily":0},{"id":"52775992520","owner":"68635735@N02","secret":"03c1148ce0","server":"65535","farm":66,"title":"Common Goldeneye (Bucephala clangula) male adult and immature","ispublic":1,"isfriend":0,"isfamily":0},{"id":"52775513461","owner":"123521075@N07","secret":"3a0466cac3","server":"65535","farm":66,"title":"Goldeneye - Bucephala clangula","ispublic":1,"isfriend":0,"isfamily":0},{"id":"52775513396","owner":"123521075@N07","secret":"a6400f3c2e","server":"65535","farm":66,"title":"Goldeneye - Bucephala clangula","ispublic":1,"isfriend":0,"isfamily":0},{"id":"52774904514","owner":"18217058@N04","secret":"21def4afe1","server":"65535","farm":66,"title":"Common goldeneye \/ Hvin\u00f6nd (Bucephala clangula)","ispublic":1,"isfriend":0,"isfamily":0},{"id":"52775128268","owner":"18217058@N04","secret":"f2224dc539","server":"65535","farm":66,"title":"Barrow's goldeneye \/ H\u00fasendur (Bucephala islandica)","ispublic":1,"isfriend":0,"isfamily":0},{"id":"52774891254","owner":"18217058@N04","secret":"788128ea15","server":"65535","farm":66,"title":"Common goldeneye \/ Hvinendur (Bucephala clangula)","ispublic":1,"isfriend":0,"isfamily":0},{"id":"52775047230","owner":"18217058@N04","secret":"5de5b841c6","server":"65535","farm":66,"title":"Common goldeneye \/ Hvinendur (Bucephala clangula)","ispublic":1,"isfriend":0,"isfamily":0},{"id":"52774098057","owner":"18217058@N04","secret":"2c84ec914b","server":"65535","farm":66,"title":"Barrow's goldeneye \/ H\u00fasendur (Bucephala islandica) and Common goldeneye \/ Hvin\u00f6nd (Bucephala clangula)","ispublic":1,"isfriend":0,"isfamily":0},{"id":"52774891074","owner":"18217058@N04","secret":"187608d601","server":"65535","farm":66,"title":"Barrow's goldeneye \/ H\u00fasendur (Bucephala islandica) and Common goldeneye \/ Hvin\u00f6nd (Bucephala clangula)","ispublic":1,"isfriend":0,"isfamily":0},{"id":"52775047165","owner":"18217058@N04","secret":"ce0be84a8d","server":"65535","farm":66,"title":"Barrow's goldeneye \/ H\u00fasendur (Bucephala islandica) and Common goldeneye \/ Hvin\u00f6nd (Bucephala clangula)","ispublic":1,"isfriend":0,"isfamily":0},{"id":"52774881774","owner":"18217058@N04","secret":"94a06fd315","server":"65535","farm":66,"title":"Barrow's goldeneye \/ Hvin\u00f6nd (Bucephala clangula) and Barrow's goldeneye \/ H\u00fasendur (Bucephala islandica)","ispublic":1,"isfriend":0,"isfamily":0},{"id":"52774881714","owner":"18217058@N04","secret":"425610dda3","server":"65535","farm":66,"title":"Barrow's goldeneye \/ Hvin\u00f6nd (Bucephala clangula) and Barrow's goldeneye \/ H\u00fasendur (Bucephala islandica)","ispublic":1,"isfriend":0,"isfamily":0},{"id":"52774088272","owner":"18217058@N04","secret":"1e344c7aeb","server":"65535","farm":66,"title":"Barrow's goldeneye \/ Hvin\u00f6nd (Bucephala clangula) and Barrow's goldeneye \/ H\u00fasendur (Bucephala islandica)","ispublic":1,"isfriend":0,"isfamily":0},{"id":"52774088247","owner":"18217058@N04","secret":"57047f4bcb","server":"65535","farm":66,"title":"Barrow's goldeneye \/ Hvin\u00f6nd (Bucephala clangula) and Barrow's goldeneye \/ H\u00fasendur (Bucephala islandica)","ispublic":1,"isfriend":0,"isfamily":0},{"id":"52774881594","owner":"18217058@N04","secret":"7eafe84acb","server":"65535","farm":66,"title":"Barrow's goldeneye \/ Hvin\u00f6nd (Bucephala clangula) and Barrow's goldeneye \/ H\u00fasendur (Bucephala islandica)","ispublic":1,"isfriend":0,"isfamily":0},{"id":"52775104218","owner":"18217058@N04","secret":"b0fde35208","server":"65535","farm":66,"title":"Barrow's goldeneye \/ Hvin\u00f6nd (Bucephala clangula) and Barrow's goldeneye \/ H\u00fasendur (Bucephala islandica)","ispublic":1,"isfriend":0,"isfamily":0},{"id":"52774073232","owner":"18217058@N04","secret":"e7c8d311e0","server":"65535","farm":66,"title":"Barrow's goldeneye \/ Hvin\u00f6nd (Bucephala clangula) and Barrow's goldeneye \/ H\u00fasendur (Bucephala islandica)","ispublic":1,"isfriend":0,"isfamily":0},{"id":"52774073152","owner":"18217058@N04","secret":"a4b96f1639","server":"65535","farm":66,"title":"Barrow's goldeneye \/ Hvin\u00f6nd (Bucephala clangula) and Barrow's goldeneye \/ H\u00fas\u00f6nd (Bucephala islandica)","ispublic":1,"isfriend":0,"isfamily":0},{"id":"52774605651","owner":"18217058@N04","secret":"8e265efd75","server":"65535","farm":66,"title":"Barrow's goldeneye \/ Hvin\u00f6nd (Bucephala clangula) and Barrow's goldeneye \/ H\u00fasendur (Bucephala islandica)","ispublic":1,"isfriend":0,"isfamily":0},{"id":"52774866584","owner":"18217058@N04","secret":"eb06f50073","server":"65535","farm":66,"title":"Barrow's goldeneye \/ Hvin\u00f6nd (Bucephala clangula) and Barrow's goldeneye \/ H\u00fas\u00f6nd (Bucephala islandica)","ispublic":1,"isfriend":0,"isfamily":0},{"id":"52774060467","owner":"18217058@N04","secret":"a1b54e6b8b","server":"65535","farm":66,"title":"Barrow's goldeneye \/ H\u00fasendur (Bucephala islandica) and Common goldeneye \/ Hvin\u00f6nd (Bucephala clangula)","ispublic":1,"isfriend":0,"isfamily":0},{"id":"52774592606","owner":"18217058@N04","secret":"057d5faf7d","server":"65535","farm":66,"title":"Barrow's goldeneye \/ H\u00fasendur (Bucephala islandica) and Common goldeneye \/ Hvin\u00f6nd (Bucephala clangula)","ispublic":1,"isfriend":0,"isfamily":0},{"id":"52775075708","owner":"18217058@N04","secret":"514396df3e","server":"65535","farm":66,"title":"Barrow's goldeneye \/ H\u00fasendur (Bucephala islandica) and Common goldeneye \/ Hvin\u00f6nd (Bucephala clangula)","ispublic":1,"isfriend":0,"isfamily":0},{"id":"52774060237","owner":"18217058@N04","secret":"81e8b43ec9","server":"65535","farm":66,"title":"Barrow's goldeneye \/ H\u00fasendur (Bucephala islandica) and Common goldeneye \/ Hvin\u00f6nd (Bucephala clangula)","ispublic":1,"isfriend":0,"isfamily":0},{"id":"52774852909","owner":"18217058@N04","secret":"08ffdaabbf","server":"65535","farm":66,"title":"Barrow's goldeneye \/ H\u00fasendur (Bucephala islandica) and Common goldeneye \/ Hvin\u00f6nd (Bucephala clangula)","ispublic":1,"isfriend":0,"isfamily":0},{"id":"52774048022","owner":"18217058@N04","secret":"280de73f00","server":"65535","farm":66,"title":"Barrow's goldeneye \/ H\u00fasendur (Bucephala islandica) and Common goldeneye \/ Hvinendur (Bucephala clangula)","ispublic":1,"isfriend":0,"isfamily":0},{"id":"52775063763","owner":"18217058@N04","secret":"f538fb3f6e","server":"65535","farm":66,"title":"Barrow's goldeneye \/ H\u00fasendur (Bucephala islandica) and Common goldeneye \/ Hvinendur (Bucephala clangula)","ispublic":1,"isfriend":0,"isfamily":0},{"id":"52774996105","owner":"18217058@N04","secret":"e266af0def","server":"65535","farm":66,"title":"Barrow's goldeneye \/ H\u00fasendur (Bucephala islandica) and Common goldeneye \/ Hvinendur (Bucephala clangula)","ispublic":1,"isfriend":0,"isfamily":0},{"id":"52774996035","owner":"18217058@N04","secret":"6d52da7b5f","server":"65535","farm":66,"title":"Barrow's goldeneye \/ H\u00fasendur (Bucephala islandica) and Common goldeneye \/ Hvinendur (Bucephala clangula)","ispublic":1,"isfriend":0,"isfamily":0},{"id":"52774995955","owner":"18217058@N04","secret":"290aa47226","server":"65535","farm":66,"title":"Barrow's goldeneye \/ H\u00fasendur (Bucephala islandica) and Common goldeneye \/ Hvin\u00f6nd (Bucephala clangula)","ispublic":1,"isfriend":0,"isfamily":0},{"id":"52774840284","owner":"18217058@N04","secret":"2683bb187b","server":"65535","farm":66,"title":"Barrow's goldeneye \/ H\u00fasendur (Bucephala islandica) and Common goldeneye \/ Hvin\u00f6nd (Bucephala clangula)","ispublic":1,"isfriend":0,"isfamily":0},{"id":"52773101776","owner":"145907835@N07","secret":"2c94f6b0d5","server":"65535","farm":66,"title":"Brilduiker - Bucephala clangula","ispublic":1,"isfriend":0,"isfamily":0},{"id":"52773557498","owner":"68635735@N02","secret":"dbd407bfec","server":"65535","farm":66,"title":"Common Goldeneye (Bucephala clangula) male","ispublic":1,"isfriend":0,"isfamily":0},{"id":"52772544777","owner":"68635735@N02","secret":"58b7af04fe","server":"65535","farm":66,"title":"Common Goldeneye (Bucephala clangula) female","ispublic":1,"isfriend":0,"isfamily":0},{"id":"52772877528","owner":"119468907@N03","secret":"0c707dc5ea","server":"65535","farm":66,"title":"Garrot a\u0300 oeil d'or_R5DJ9726","ispublic":1,"isfriend":0,"isfamily":0},{"id":"52772393441","owner":"119468907@N03","secret":"7ec0de2917","server":"65535","farm":66,"title":"Garrot a\u0300 oeil d'or_R5DJ9714","ispublic":1,"isfriend":0,"isfamily":0},{"id":"52772393371","owner":"119468907@N03","secret":"9fef4f7d37","server":"65535","farm":66,"title":"Garrot a\u0300 oeil d'or_R5DJ9677","ispublic":1,"isfriend":0,"isfamily":0},{"id":"52771730752","owner":"44093058@N06","secret":"574879befa","server":"65535","farm":66,"title":"Common goldeneye, Bucephala clangula, Knipa","ispublic":1,"isfriend":0,"isfamily":0},{"id":"52772261516","owner":"44093058@N06","secret":"1a16a0bab3","server":"65535","farm":66,"title":"Common goldeneye, Bucephala clangula, Knipa","ispublic":1,"isfriend":0,"isfamily":0},{"id":"52771817641","owner":"18217058@N04","secret":"1926eb17f5","server":"65535","farm":66,"title":"Barrow's goldeneye \/ H\u00fasendur (Bucephala islandica) and Common goldeneye \/ Hvinendur (Bucephala clangula)","ispublic":1,"isfriend":0,"isfamily":0},{"id":"52772307538","owner":"18217058@N04","secret":"85e54541c3","server":"65535","farm":66,"title":"Barrow's goldeneye \/ H\u00fasendur (Bucephala islandica) and Common goldeneye \/ Hvinendur (Bucephala clangula)","ispublic":1,"isfriend":0,"isfamily":0},{"id":"52772307493","owner":"18217058@N04","secret":"26e4d86f78","server":"65535","farm":66,"title":"Barrow's goldeneye \/ H\u00fasendur (Bucephala islandica)","ispublic":1,"isfriend":0,"isfamily":0},{"id":"52772225080","owner":"18217058@N04","secret":"36480ff2bd","server":"65535","farm":66,"title":"Barrow's goldeneye \/ H\u00fasendur (Bucephala islandica) and Common goldeneye \/ Hvinendur (Bucephala clangula)","ispublic":1,"isfriend":0,"isfamily":0},{"id":"52771809851","owner":"18217058@N04","secret":"28b479ce9c","server":"65535","farm":66,"title":"Barrow's goldeneye \/ H\u00fasendur (Bucephala islandica) and Common goldeneye \/ Hvinendur (Bucephala clangula)","ispublic":1,"isfriend":0,"isfamily":0},{"id":"52772299538","owner":"18217058@N04","secret":"c8c5b00229","server":"65535","farm":66,"title":"Barrow's goldeneye \/ H\u00fasendur (Bucephala islandica) and Common goldeneye \/ Hvinendur (Bucephala clangula)","ispublic":1,"isfriend":0,"isfamily":0},{"id":"52772225010","owner":"18217058@N04","secret":"322722573f","server":"65535","farm":66,"title":"Barrow's goldeneye \/ H\u00fasendur (Bucephala islandica) and Common goldeneye \/ Hvinendur (Bucephala clangula)","ispublic":1,"isfriend":0,"isfamily":0},{"id":"52770905920","owner":"183658192@N07","secret":"fdd065ccfe","server":"65535","farm":66,"title":"telkk\u00e4 \/ Goldeneye","ispublic":1,"isfriend":0,"isfamily":0},{"id":"52770076511","owner":"48558356@N04","secret":"ab5b8efcf9","server":"0","farm":0,"title":"Goldeneyes Bucephala clangula","ispublic":1,"isfriend":0,"isfamily":0},{"id":"52769892536","owner":"187124972@N03","secret":"89c4e8b8e0","server":"65535","farm":66,"title":"GARROT A OEIL D'OR \/ AMERICAN GOLDENEYE (Bucephala clangula)","ispublic":1,"isfriend":0,"isfamily":0},{"id":"52770307750","owner":"187124972@N03","secret":"f4735cd882","server":"65535","farm":66,"title":"GARROT A OEIL D'OR \/ AMERICAN GOLDENEYE (Bucephala clangula)","ispublic":1,"isfriend":0,"isfamily":0},{"id":"52770149524","owner":"187124972@N03","secret":"43200f7bbb","server":"65535","farm":66,"title":"GARROT A OEIL D'OR \/ AMERICAN GOLDENEYE (Bucephala clangula)","ispublic":1,"isfriend":0,"isfamily":0},{"id":"52769788491","owner":"48558356@N04","secret":"d46e260fb6","server":"0","farm":0,"title":"goldeneyes Bucephala clangula","ispublic":1,"isfriend":0,"isfamily":0},{"id":"52770253648","owner":"48558356@N04","secret":"7fbb9e3bb1","server":"0","farm":0,"title":"goldeneyes Bucephala clangula","ispublic":1,"isfriend":0,"isfamily":0},{"id":"52769389156","owner":"62043870@N05","secret":"1a00998658","server":"65535","farm":66,"title":"Common Goldeneye, Bucephala clangula","ispublic":1,"isfriend":0,"isfamily":0},{"id":"52768985061","owner":"48558356@N04","secret":"8195d75846","server":"65535","farm":66,"title":"Goldeneye Bucephala  clangula","ispublic":1,"isfriend":0,"isfamily":0},{"id":"52768446537","owner":"48558356@N04","secret":"6880e426fd","server":"65535","farm":66,"title":"Goldeneye Bucephala  clangula","ispublic":1,"isfriend":0,"isfamily":0},{"id":"52768984861","owner":"48558356@N04","secret":"4626ca6ee8","server":"65535","farm":66,"title":"Goldeneye Bucephala  clangula","ispublic":1,"isfriend":0,"isfamily":0},{"id":"52768446372","owner":"48558356@N04","secret":"b9603d3461","server":"65535","farm":66,"title":"Goldeneye Bucephala  clangula","ispublic":1,"isfriend":0,"isfamily":0},{"id":"52768984686","owner":"48558356@N04","secret":"39a069849c","server":"65535","farm":66,"title":"Goldeneye Bucephala  clangula","ispublic":1,"isfriend":0,"isfamily":0},{"id":"52769239419","owner":"48558356@N04","secret":"505170e11d","server":"65535","farm":66,"title":"Goldeneye Bucephala  clangula","ispublic":1,"isfriend":0,"isfamily":0},{"id":"52769239309","owner":"48558356@N04","secret":"3f5216bdba","server":"65535","farm":66,"title":"Goldeneye Bucephala  clangula","ispublic":1,"isfriend":0,"isfamily":0},{"id":"52769397325","owner":"48558356@N04","secret":"42efefbf60","server":"65535","farm":66,"title":"Goldeneye Bucephala  clangula","ispublic":1,"isfriend":0,"isfamily":0},{"id":"52769812343","owner":"12639178@N07","secret":"67bdbf1c99","server":"65535","farm":66,"title":"Schellenten-Erpel auf der Elbe","ispublic":1,"isfriend":0,"isfamily":0},{"id":"52769323436","owner":"12639178@N07","secret":"70e1ae79d3","server":"65535","farm":66,"title":"Schellenten-Erpel schwimmt auf Elbe vorbei (leider unscharf)","ispublic":1,"isfriend":0,"isfamily":0},{"id":"52769471863","owner":"48558356@N04","secret":"69e014bcfd","server":"65535","farm":66,"title":"Goldeneye Bucephala  clangula","ispublic":1,"isfriend":0,"isfamily":0}]},"stat":"ok"}