{"photos":{"page":1,"pages":21,"perpage":100,"total":2098,"photo":[{"id":"52658860088","owner":"24608578@N00","secret":"d07e509fe6","server":"65535","farm":66,"title":"Common nighthawk (Chordeiles minor)","ispublic":1,"isfriend":0,"isfamily":0},{"id":"52657875737","owner":"24608578@N00","secret":"7cc51f28d3","server":"65535","farm":66,"title":"Common nighthawk (Chordeiles minor)","ispublic":1,"isfriend":0,"isfamily":0},{"id":"52658813280","owner":"24608578@N00","secret":"abbca4fb08","server":"65535","farm":66,"title":"Common nighthawk (Chordeiles minor)","ispublic":1,"isfriend":0,"isfamily":0},{"id":"52643163811","owner":"8013969@N03","secret":"45dd4f090b","server":"65535","farm":66,"title":"Chordeiles minor DFL Cameron22","ispublic":1,"isfriend":0,"isfamily":0},{"id":"52637293666","owner":"61062164@N08","secret":"28bbd5af22","server":"65535","farm":66,"title":"850_6655-NEF_DxO DP2","ispublic":1,"isfriend":0,"isfamily":0},{"id":"52626104044","owner":"71833159@N00","secret":"a23ee1b6b4","server":"65535","farm":66,"title":"Common Nighthawk \/ Chordeiles minor","ispublic":1,"isfriend":0,"isfamily":0},{"id":"52504458672","owner":"30638967@N03","secret":"774309cb04","server":"65535","farm":66,"title":"Common Nighthawk DSC_5108","ispublic":1,"isfriend":0,"isfamily":0},{"id":"52504944996","owner":"30638967@N03","secret":"867366ab24","server":"65535","farm":66,"title":"Common Nighthawk DSC_5114","ispublic":1,"isfriend":0,"isfamily":0},{"id":"52504458537","owner":"30638967@N03","secret":"f73b3b9790","server":"65535","farm":66,"title":"Common Nighthawk DSC_5117","ispublic":1,"isfriend":0,"isfamily":0},{"id":"52505420845","owner":"30638967@N03","secret":"1876e58a1f","server":"65535","farm":66,"title":"Common Nighthawk DSC_5119","ispublic":1,"isfriend":0,"isfamily":0},{"id":"52505420795","owner":"30638967@N03","secret":"0e819dee41","server":"65535","farm":66,"title":"Common Nighthawk DSC_5123","ispublic":1,"isfriend":0,"isfamily":0},{"id":"52505214864","owner":"30638967@N03","secret":"b8d53b663b","server":"65535","farm":66,"title":"Common Nighthawk DSC_5128","ispublic":1,"isfriend":0,"isfamily":0},{"id":"52505420675","owner":"30638967@N03","secret":"854e186383","server":"65535","farm":66,"title":"Common Nighthawk DSC_5129","ispublic":1,"isfriend":0,"isfamily":0},{"id":"52491823240","owner":"39445433@N02","secret":"3f3c15a55c","server":"65535","farm":66,"title":"Common Nighthawk","ispublic":1,"isfriend":0,"isfamily":0},{"id":"52484032155","owner":"59777454@N02","secret":"bf7526f2fc","server":"65535","farm":66,"title":"Common Nighthawk Tekiela K0A5964","ispublic":1,"isfriend":0,"isfamily":0},{"id":"52480581183","owner":"30638967@N03","secret":"aa5be41b55","server":"65535","farm":66,"title":"Common Nighthawk DSC_2220","ispublic":1,"isfriend":0,"isfamily":0},{"id":"52473655423","owner":"30638967@N03","secret":"cbd49d0b97","server":"65535","farm":66,"title":"Common Nighthawk DSC_4156","ispublic":1,"isfriend":0,"isfamily":0},{"id":"52473655283","owner":"30638967@N03","secret":"651b2b974f","server":"65535","farm":66,"title":"Common Nighthawk DSC_4182","ispublic":1,"isfriend":0,"isfamily":0},{"id":"52402095642","owner":"113457946@N06","secret":"54ddcc915f","server":"65535","farm":66,"title":"Common Nighthawk  (Chordeiles minor)","ispublic":1,"isfriend":0,"isfamily":0},{"id":"52401175022","owner":"113457946@N06","secret":"bef6d59b75","server":"65535","farm":66,"title":"Common Nighthawk  (Chordeiles minor)","ispublic":1,"isfriend":0,"isfamily":0},{"id":"52399890282","owner":"71833159@N00","secret":"c67794516c","server":"65535","farm":66,"title":"Common Nighthawk \/ Chordeiles minor, from mid-August","ispublic":1,"isfriend":0,"isfamily":0},{"id":"52397719015","owner":"30740918@N03","secret":"61d8c63d18","server":"65535","farm":66,"title":"bacurau-norte-americano (Chordeiles minor)","ispublic":1,"isfriend":0,"isfamily":0},{"id":"52397224613","owner":"125723802@N05","secret":"815878f621","server":"65535","farm":66,"title":"Chordeiles minor - Common Nighthawk","ispublic":1,"isfriend":0,"isfamily":0},{"id":"52397158165","owner":"125723802@N05","secret":"c57c28fb0b","server":"65535","farm":66,"title":"Chordeiles minor - Common Nighthawk","ispublic":1,"isfriend":0,"isfamily":0},{"id":"52391138776","owner":"95232075@N02","secret":"d9c2a3a77c","server":"65535","farm":66,"title":"Juvenile female Common Nighthawk (Chordeiles minor)","ispublic":1,"isfriend":0,"isfamily":0},{"id":"52391422319","owner":"95232075@N02","secret":"7b91d3038a","server":"65535","farm":66,"title":"Juvenile female Common Nighthawk (Chordeiles minor)","ispublic":1,"isfriend":0,"isfamily":0},{"id":"52391108726","owner":"95232075@N02","secret":"d9f371cf4d","server":"65535","farm":66,"title":"Juvenile female Common Nighthawk (Chordeiles minor)","ispublic":1,"isfriend":0,"isfamily":0},{"id":"52390166757","owner":"95232075@N02","secret":"051c0bf053","server":"65535","farm":66,"title":"Juvenile female Common Nighthawk (Chordeiles minor)","ispublic":1,"isfriend":0,"isfamily":0},{"id":"52391086876","owner":"95232075@N02","secret":"9ae7548a67","server":"65535","farm":66,"title":"Juvenile female Common Nighthawk (Chordeiles minor)","ispublic":1,"isfriend":0,"isfamily":0},{"id":"52390476508","owner":"12240837@N08","secret":"77560c415c","server":"65535","farm":66,"title":"Common Nighthawk (chordeiles minor)","ispublic":1,"isfriend":0,"isfamily":0},{"id":"52390542644","owner":"12240837@N08","secret":"9737157b5b","server":"65535","farm":66,"title":"Common Nighthawk (chordeiles minor)","ispublic":1,"isfriend":0,"isfamily":0},{"id":"52362833993","owner":"69387367@N05","secret":"a155dbea47","server":"65535","farm":66,"title":"Common_Nighthawk_3352oe","ispublic":1,"isfriend":0,"isfamily":0},{"id":"52358729331","owner":"187792860@N04","secret":"348572d5ef","server":"65535","farm":66,"title":"Common Nighthawk (Chordeiles minor)","ispublic":1,"isfriend":0,"isfamily":0},{"id":"52356588460","owner":"36685968@N00","secret":"aa097c5109","server":"65535","farm":66,"title":"Common Nighthawk (Chordeiles minor)","ispublic":1,"isfriend":0,"isfamily":0},{"id":"52356587470","owner":"36685968@N00","secret":"4e723ac543","server":"65535","farm":66,"title":"Common Nighthawk (Chordeiles minor)","ispublic":1,"isfriend":0,"isfamily":0},{"id":"52355214232","owner":"36685968@N00","secret":"99570955d7","server":"65535","farm":66,"title":"Common Nighthawk (Chordeiles minor)","ispublic":1,"isfriend":0,"isfamily":0},{"id":"52356159086","owner":"36685968@N00","secret":"2979d1e530","server":"65535","farm":66,"title":"Common Nighthawk (Chordeiles minor)","ispublic":1,"isfriend":0,"isfamily":0},{"id":"52356480279","owner":"36685968@N00","secret":"c264547427","server":"65535","farm":66,"title":"Common Nighthawk (Chordeiles minor)","ispublic":1,"isfriend":0,"isfamily":0},{"id":"52339093398","owner":"91620959@N08","secret":"ea3b16bce4","server":"65535","farm":66,"title":"Common nighthawk (Chordeiles minor)","ispublic":1,"isfriend":0,"isfamily":0},{"id":"52339285310","owner":"91620959@N08","secret":"35f503df3a","server":"65535","farm":66,"title":"Common nighthawk (Chordeiles minor)","ispublic":1,"isfriend":0,"isfamily":0},{"id":"52311686254","owner":"71833159@N00","secret":"57f680733f","server":"65535","farm":66,"title":"Yesterday's find - Common Nighthawk \/ Chordeiles minor, just for the record","ispublic":1,"isfriend":0,"isfamily":0},{"id":"52306517113","owner":"169335348@N08","secret":"1a32ba30dc","server":"65535","farm":66,"title":"Common Nighthawk-19","ispublic":1,"isfriend":0,"isfamily":0},{"id":"52305332957","owner":"169335348@N08","secret":"07f6606e09","server":"65535","farm":66,"title":"Common Nighthawk-20","ispublic":1,"isfriend":0,"isfamily":0},{"id":"52291748045","owner":"71833159@N00","secret":"bb42af6256","server":"65535","farm":66,"title":"Common Nighthawk \/ Chordeiles minor, sleeping","ispublic":1,"isfriend":0,"isfamily":0},{"id":"52288599989","owner":"196264892@N08","secret":"4552977512","server":"65535","farm":66,"title":"Common Nighthawk 3","ispublic":1,"isfriend":0,"isfamily":0},{"id":"52275471081","owner":"196264892@N08","secret":"b8b38f16b4","server":"65535","farm":66,"title":"Common Nighthawk 1","ispublic":1,"isfriend":0,"isfamily":0},{"id":"52275732574","owner":"196264892@N08","secret":"afb2c0cc0c","server":"65535","farm":66,"title":"Common Nighthawk 2","ispublic":1,"isfriend":0,"isfamily":0},{"id":"52262480775","owner":"65148649@N04","secret":"dcbb943600","server":"65535","farm":66,"title":"Common Nighthawk","ispublic":1,"isfriend":0,"isfamily":0},{"id":"52261022462","owner":"65148649@N04","secret":"dbe5ffe4f5","server":"65535","farm":66,"title":"Common Nighthawk","ispublic":1,"isfriend":0,"isfamily":0},{"id":"52261022322","owner":"65148649@N04","secret":"7f12227bf3","server":"65535","farm":66,"title":"Common Nighthawk","ispublic":1,"isfriend":0,"isfamily":0},{"id":"52257290765","owner":"42264328@N00","secret":"3a1b8e613d","server":"65535","farm":66,"title":"Cryptic bird","ispublic":1,"isfriend":0,"isfamily":0},{"id":"52229832759","owner":"106269596@N05","secret":"5b9f207054","server":"65535","farm":66,"title":"Common Nighthawk","ispublic":1,"isfriend":0,"isfamily":0},{"id":"52180912887","owner":"13451078@N03","secret":"74fd9ab0a9","server":"65535","farm":66,"title":"Common Nighthawk (Chordeiles minor)","ispublic":1,"isfriend":0,"isfamily":0},{"id":"52156784946","owner":"66709001@N00","secret":"63d5ae1664","server":"65535","farm":66,"title":"Common Nighthawk (Chordeiles minor)","ispublic":1,"isfriend":0,"isfamily":0},{"id":"52145182884","owner":"65148649@N04","secret":"b194d7ee37","server":"65535","farm":66,"title":"Common Nighthawk","ispublic":1,"isfriend":0,"isfamily":0},{"id":"52144945316","owner":"65148649@N04","secret":"6a5db63faf","server":"65535","farm":66,"title":"Common Nighthawk","ispublic":1,"isfriend":0,"isfamily":0},{"id":"52121565501","owner":"39138537@N06","secret":"e08db48d3d","server":"65535","farm":66,"title":"Common Nighthawk (Chordeiles minor) flight sequence","ispublic":1,"isfriend":0,"isfamily":0},{"id":"52116010404","owner":"49563725@N06","secret":"522b1e383c","server":"65535","farm":66,"title":"Common Nighthawk","ispublic":1,"isfriend":0,"isfamily":0},{"id":"52114741757","owner":"49563725@N06","secret":"66976f5875","server":"65535","farm":66,"title":"Common Nighthawk","ispublic":1,"isfriend":0,"isfamily":0},{"id":"52116274940","owner":"49563725@N06","secret":"9c5e58dd98","server":"65535","farm":66,"title":"Common Nighthawk","ispublic":1,"isfriend":0,"isfamily":0},{"id":"52116010374","owner":"49563725@N06","secret":"40e34b733d","server":"65535","farm":66,"title":"Common Nighthawk","ispublic":1,"isfriend":0,"isfamily":0},{"id":"52116274910","owner":"49563725@N06","secret":"b1f1a09505","server":"65535","farm":66,"title":"Common Nighthawk","ispublic":1,"isfriend":0,"isfamily":0},{"id":"52114741712","owner":"49563725@N06","secret":"9bc809aea6","server":"65535","farm":66,"title":"Common Nighthawk","ispublic":1,"isfriend":0,"isfamily":0},{"id":"52106744152","owner":"48014585@N00","secret":"186d75e526","server":"65535","farm":66,"title":"Common Nighthawk","ispublic":1,"isfriend":0,"isfamily":0},{"id":"52100664793","owner":"71649471@N02","secret":"a3b9ddbf66","server":"65535","farm":66,"title":"Common Nighthawk","ispublic":1,"isfriend":0,"isfamily":0},{"id":"52085432955","owner":"188237033@N06","secret":"5b6c483b94","server":"65535","farm":66,"title":"Chordeiles minor","ispublic":1,"isfriend":0,"isfamily":0},{"id":"52084195921","owner":"33982546@N05","secret":"a98cc77d4a","server":"65535","farm":66,"title":"Common Nighthawk-Social Media-2","ispublic":1,"isfriend":0,"isfamily":0},{"id":"52075085573","owner":"33982546@N05","secret":"17639541b5","server":"65535","farm":66,"title":"Common Nighthawk","ispublic":1,"isfriend":0,"isfamily":0},{"id":"52160595174","owner":"134270033@N06","secret":"ab818a232d","server":"0","farm":0,"title":"some evening action over Martindale Valley","ispublic":1,"isfriend":0,"isfamily":0},{"id":"52035620372","owner":"39138537@N06","secret":"bd0e246d37","server":"65535","farm":66,"title":"Common Nighthawk (Chordeiles minor) at Sunrise","ispublic":1,"isfriend":0,"isfamily":0},{"id":"51945207485","owner":"39138537@N06","secret":"deb30decdb","server":"65535","farm":66,"title":"Common Nighthawk (Chordeiles minor)","ispublic":1,"isfriend":0,"isfamily":0},{"id":"51944916649","owner":"39138537@N06","secret":"4dd6cbb90b","server":"65535","farm":66,"title":"Common Nighthawk (Chordeiles minor)","ispublic":1,"isfriend":0,"isfamily":0},{"id":"51929467730","owner":"39138537@N06","secret":"cee54e0c69","server":"65535","farm":66,"title":"Migrating Common Nighthawk (Chordeiles minor)","ispublic":1,"isfriend":0,"isfamily":0},{"id":"51923152265","owner":"38514062@N03","secret":"abc1b92bc4","server":"65535","farm":66,"title":"Common Nighthawk (Chordeiles minor)","ispublic":1,"isfriend":0,"isfamily":0},{"id":"51917142770","owner":"39138537@N06","secret":"5a42ae3773","server":"65535","farm":66,"title":"By the dawn's early light...   Common Nighthawk (Chordeiles minor)","ispublic":1,"isfriend":0,"isfamily":0},{"id":"51859346958","owner":"130811605@N02","secret":"7d66841f4d","server":"65535","farm":66,"title":"Common Nighthwak (Chordeiles minor)","ispublic":1,"isfriend":0,"isfamily":0},{"id":"52580317521","owner":"153973412@N04","secret":"2f90f1804f","server":"65535","farm":66,"title":"Common Nighthawk-Chordeiles minor, KS","ispublic":1,"isfriend":0,"isfamily":0},{"id":"52490871912","owner":"39445433@N02","secret":"0e0c1286b3","server":"65535","farm":66,"title":"Common Nighthawk","ispublic":1,"isfriend":0,"isfamily":0},{"id":"52491354356","owner":"39445433@N02","secret":"e166fcb96c","server":"65535","farm":66,"title":"Common Nighthawk","ispublic":1,"isfriend":0,"isfamily":0},{"id":"52491633404","owner":"39445433@N02","secret":"0fdd8fb0b4","server":"65535","farm":66,"title":"Common Nighthawk","ispublic":1,"isfriend":0,"isfamily":0},{"id":"52473391029","owner":"30638967@N03","secret":"c6d6b630aa","server":"65535","farm":66,"title":"Common Nighthawk DSC_4170","ispublic":1,"isfriend":0,"isfamily":0},{"id":"52472612842","owner":"30638967@N03","secret":"0898f40f51","server":"65535","farm":66,"title":"Common Nighthawk DSC_4189","ispublic":1,"isfriend":0,"isfamily":0},{"id":"52401974669","owner":"113457946@N06","secret":"756fbd4f21","server":"65535","farm":66,"title":"Common Nighthawk  (Chordeiles minor)","ispublic":1,"isfriend":0,"isfamily":0},{"id":"52391139396","owner":"95232075@N02","secret":"05309462bd","server":"65535","farm":66,"title":"Juvenile female Common Nighthawk (Chordeiles minor)","ispublic":1,"isfriend":0,"isfamily":0},{"id":"52262006683","owner":"65148649@N04","secret":"b2719278cc","server":"65535","farm":66,"title":"Common Nighthawk","ispublic":1,"isfriend":0,"isfamily":0},{"id":"52259521596","owner":"124995824@N08","secret":"1f3f243a55","server":"65535","farm":66,"title":"Common Nighthawk - Chordeiles minor","ispublic":1,"isfriend":0,"isfamily":0},{"id":"52209199798","owner":"80648919@N08","secret":"5cfefda166","server":"65535","farm":66,"title":"Common Nighthawk","ispublic":1,"isfriend":0,"isfamily":0},{"id":"52148634513","owner":"195673342@N07","secret":"afeff2a50f","server":"65535","farm":66,"title":"Chordeiles minor - nest-eggs Morton 7-16 (3)","ispublic":1,"isfriend":0,"isfamily":0},{"id":"52106744012","owner":"48014585@N00","secret":"e3d268eb10","server":"65535","farm":66,"title":"Common Nighthawk","ispublic":1,"isfriend":0,"isfamily":0},{"id":"52107805768","owner":"48014585@N00","secret":"76247bf7a6","server":"65535","farm":66,"title":"Common Nighthawk","ispublic":1,"isfriend":0,"isfamily":0},{"id":"52095577107","owner":"49563725@N06","secret":"b60d7b32d4","server":"65535","farm":66,"title":"Common-Nighthawk","ispublic":1,"isfriend":0,"isfamily":0},{"id":"52095576972","owner":"49563725@N06","secret":"a066cdc675","server":"65535","farm":66,"title":"Black-throated-Green-Warbler","ispublic":1,"isfriend":0,"isfamily":0},{"id":"52088070524","owner":"17654080@N08","secret":"2ed4492869","server":"65535","farm":66,"title":"Common Nighthawk (Chordeiles minor)","ispublic":1,"isfriend":0,"isfamily":0},{"id":"52070613622","owner":"39138537@N06","secret":"ec25b86eaa","server":"65535","farm":66,"title":"Sunrise & Common Nighthawk (Chordeiles minor)","ispublic":1,"isfriend":0,"isfamily":0},{"id":"52048473600","owner":"38514062@N03","secret":"313963299c","server":"65535","farm":66,"title":"Common Nighthawk (Chordeiles minor)","ispublic":1,"isfriend":0,"isfamily":0},{"id":"52048213479","owner":"38514062@N03","secret":"7dd566794e","server":"65535","farm":66,"title":"Common Nighthawk (Chordeiles minor)","ispublic":1,"isfriend":0,"isfamily":0},{"id":"51943616087","owner":"39138537@N06","secret":"cb2f863c0f","server":"65535","farm":66,"title":"Common Nighthawk (Chordeiles minor)","ispublic":1,"isfriend":0,"isfamily":0},{"id":"51897929411","owner":"39617069@N08","secret":"58e7d978cb","server":"65535","farm":66,"title":"Common Nighthawk","ispublic":1,"isfriend":0,"isfamily":0},{"id":"51842111584","owner":"23020855@N03","secret":"81ddd9e63a","server":"65535","farm":66,"title":"Common Nighthawk - Terry, KS","ispublic":1,"isfriend":0,"isfamily":0},{"id":"51836546789","owner":"48938938@N04","secret":"8ccc6c791d","server":"65535","farm":66,"title":"Common Nighthawk_Chordeiles minor_Ascaio_Inirida_Colombia_DZ3A5208","ispublic":1,"isfriend":0,"isfamily":0}]},"stat":"ok"}