{"photos":{"page":1,"pages":46,"perpage":100,"total":4522,"photo":[{"id":"52717616533","owner":"14734088@N02","secret":"d3f6fe95bf","server":"65535","farm":66,"title":"Sizerin flamm\u00e9 230222H","ispublic":1,"isfriend":0,"isfamily":0},{"id":"52716810301","owner":"25517957@N03","secret":"c4f1a4546c","server":"65535","farm":66,"title":"IMG_0138 Redpol","ispublic":1,"isfriend":0,"isfamily":0},{"id":"52712726172","owner":"195656112@N04","secret":"c75dbcd0ea","server":"65535","farm":66,"title":"20230225-MDV06172","ispublic":1,"isfriend":0,"isfamily":0},{"id":"52708460184","owner":"193380221@N04","secret":"d2b9f60103","server":"65535","farm":66,"title":"common redpoll","ispublic":1,"isfriend":0,"isfamily":0},{"id":"52708120186","owner":"14734088@N02","secret":"4477109e79","server":"65535","farm":66,"title":"Sizerin flamm\u00e9 230213H2","ispublic":1,"isfriend":0,"isfamily":0},{"id":"52708429040","owner":"97406694@N00","secret":"8703d80e4e","server":"65535","farm":66,"title":"Czeczotka br\u0105zowa (Acanthis cabaret)","ispublic":1,"isfriend":0,"isfamily":0},{"id":"52708329815","owner":"99752123@N07","secret":"69914a27a1","server":"65535","farm":66,"title":"Acanthis flammea (Redpoll)","ispublic":1,"isfriend":0,"isfamily":0},{"id":"52707901216","owner":"99752123@N07","secret":"b56f9ae0bd","server":"65535","farm":66,"title":"Acanthis flammea (Redpoll)","ispublic":1,"isfriend":0,"isfamily":0},{"id":"52704196396","owner":"18217058@N04","secret":"895424ae65","server":"65535","farm":66,"title":"Common redpoll \/ Au\u00f0nutittlingur (Acanthis flammea)","ispublic":1,"isfriend":0,"isfamily":0},{"id":"52704020289","owner":"12639178@N07","secret":"4e443ed763","server":"65535","farm":66,"title":"Was f\u00fcr ein geflatter -  ein Schwarm Birkenzeisige an ihrem Lieblingsbaum","ispublic":1,"isfriend":0,"isfamily":0},{"id":"52703764641","owner":"12639178@N07","secret":"464614ddb0","server":"65535","farm":66,"title":"Birkenzeisig mit Goldammer bei Nebel (Acanthis flammea)","ispublic":1,"isfriend":0,"isfamily":0},{"id":"52703242367","owner":"12639178@N07","secret":"37046c57f4","server":"65535","farm":66,"title":"Seltener Gast - Birkenzeisig (Acanthis flammea)","ispublic":1,"isfriend":0,"isfamily":0},{"id":"52703122618","owner":"69445801@N04","secret":"775ac88889","server":"65535","farm":66,"title":"Common Redpoll (Acanthis flammea)","ispublic":1,"isfriend":0,"isfamily":0},{"id":"52701779167","owner":"48014585@N00","secret":"565b0ab4fe","server":"65535","farm":66,"title":"Common Redpoll","ispublic":1,"isfriend":0,"isfamily":0},{"id":"52701778817","owner":"48014585@N00","secret":"fbcce00958","server":"65535","farm":66,"title":"Common Redpoll","ispublic":1,"isfriend":0,"isfamily":0},{"id":"52700305190","owner":"81533449@N04","secret":"28ce8da10a","server":"65535","farm":66,"title":"Petit et rapide","ispublic":1,"isfriend":0,"isfamily":0},{"id":"52697795736","owner":"12639178@N07","secret":"077b72745f","server":"65535","farm":66,"title":"Beleg","ispublic":1,"isfriend":0,"isfamily":0},{"id":"52696329389","owner":"197745515@N06","secret":"e5eb9cba9f","server":"65535","farm":66,"title":"Acanthis flammea","ispublic":1,"isfriend":0,"isfamily":0},{"id":"52695491475","owner":"150374485@N05","secret":"ae80eac9a1","server":"65535","farm":66,"title":"Sizerin flamm\u00e9 m\u00e2le en hiver--Commom Redpoll male in winter (Acanthis flammea)","ispublic":1,"isfriend":0,"isfamily":0},{"id":"52695059321","owner":"150374485@N05","secret":"385b5cf1cb","server":"65535","farm":66,"title":"Sizerin flamm\u00e9 femelle en hiver--Common Redpoll female in winter (Acanthis flammea)","ispublic":1,"isfriend":0,"isfamily":0},{"id":"52694223392","owner":"30191245@N00","secret":"7e20ae0e46","server":"65535","farm":66,"title":"Male Redpoll (Acanthis flammea)","ispublic":1,"isfriend":0,"isfamily":0},{"id":"52692290399","owner":"95795254@N02","secret":"708e2c15a0","server":"65535","farm":66,"title":"Common Redpoll 850_8440.jpg","ispublic":1,"isfriend":0,"isfamily":0},{"id":"52689431480","owner":"12639178@N07","secret":"22679fd506","server":"65535","farm":66,"title":"Birkenzeisig","ispublic":1,"isfriend":0,"isfamily":0},{"id":"52689288208","owner":"151806884@N04","secret":"bae28e3786","server":"65535","farm":66,"title":"Barmsijs - Acanthis flammea","ispublic":1,"isfriend":0,"isfamily":0},{"id":"52688570466","owner":"97406694@N00","secret":"838d52df44","server":"65535","farm":66,"title":"Czeczotka (Acanthis flammea)","ispublic":1,"isfriend":0,"isfamily":0},{"id":"52687207854","owner":"12639178@N07","secret":"a1b3ccb842","server":"65535","farm":66,"title":"Beleg Birkenzeisig","ispublic":1,"isfriend":0,"isfamily":0},{"id":"52686383246","owner":"97406694@N00","secret":"0be115c9c0","server":"65535","farm":66,"title":"Czeczotka (Acanthis flammea)","ispublic":1,"isfriend":0,"isfamily":0},{"id":"52686880053","owner":"97406694@N00","secret":"f236ec4b51","server":"65535","farm":66,"title":"Czeczotka (Acanthis flammea)","ispublic":1,"isfriend":0,"isfamily":0},{"id":"52685868352","owner":"97406694@N00","secret":"cc9f1a935f","server":"65535","farm":66,"title":"Czeczotka (Acanthis flammea)","ispublic":1,"isfriend":0,"isfamily":0},{"id":"52685868292","owner":"97406694@N00","secret":"4b7ff5f13a","server":"65535","farm":66,"title":"Czeczotka (Acanthis flammea)","ispublic":1,"isfriend":0,"isfamily":0},{"id":"52685868227","owner":"97406694@N00","secret":"080fea49f4","server":"65535","farm":66,"title":"Czeczotka (Acanthis flammea)","ispublic":1,"isfriend":0,"isfamily":0},{"id":"52686382991","owner":"97406694@N00","secret":"45f3dcb32f","server":"65535","farm":66,"title":"Czeczotka (Acanthis flammea)","ispublic":1,"isfriend":0,"isfamily":0},{"id":"52684492963","owner":"97406694@N00","secret":"806dabf1d9","server":"65535","farm":66,"title":"Czeczotka (Acanthis flammea)","ispublic":1,"isfriend":0,"isfamily":0},{"id":"52684492888","owner":"97406694@N00","secret":"5b03e7944c","server":"65535","farm":66,"title":"Czeczotka (Acanthis flammea)","ispublic":1,"isfriend":0,"isfamily":0},{"id":"52683996611","owner":"97406694@N00","secret":"d7c9516052","server":"65535","farm":66,"title":"Czeczotka (Acanthis flammea)","ispublic":1,"isfriend":0,"isfamily":0},{"id":"52683479292","owner":"97406694@N00","secret":"e83abd405a","server":"65535","farm":66,"title":"Czeczotka (Acanthis flammea)","ispublic":1,"isfriend":0,"isfamily":0},{"id":"52684277369","owner":"97406694@N00","secret":"070d0224c5","server":"65535","farm":66,"title":"Czeczotka (Acanthis flammea)","ispublic":1,"isfriend":0,"isfamily":0},{"id":"52684492658","owner":"97406694@N00","secret":"4bc3f71fab","server":"65535","farm":66,"title":"Czeczotka (Acanthis flammea)","ispublic":1,"isfriend":0,"isfamily":0},{"id":"52683996401","owner":"97406694@N00","secret":"d89a7d7357","server":"65535","farm":66,"title":"Czeczotka (Acanthis flammea)","ispublic":1,"isfriend":0,"isfamily":0},{"id":"52684492578","owner":"97406694@N00","secret":"bedb36b3e1","server":"65535","farm":66,"title":"Czeczotka (Acanthis flammea)","ispublic":1,"isfriend":0,"isfamily":0},{"id":"52683479087","owner":"97406694@N00","secret":"c0e92bdc7d","server":"65535","farm":66,"title":"Czeczotka (Acanthis flammea)","ispublic":1,"isfriend":0,"isfamily":0},{"id":"52683996256","owner":"97406694@N00","secret":"1c4e5a662d","server":"65535","farm":66,"title":"Czeczotka (Acanthis flammea)","ispublic":1,"isfriend":0,"isfamily":0},{"id":"52684356810","owner":"186604745@N03","secret":"b15201cc9c","server":"65535","farm":66,"title":"Sizerin flamm\u00e9 \\ Common Redpoll","ispublic":1,"isfriend":0,"isfamily":0},{"id":"52680638108","owner":"193264646@N06","secret":"11e9e48962","server":"65535","farm":66,"title":"Common Redpoll","ispublic":1,"isfriend":0,"isfamily":0},{"id":"52679622617","owner":"193264646@N06","secret":"301d8e6acf","server":"65535","farm":66,"title":"Common Redpoll","ispublic":1,"isfriend":0,"isfamily":0},{"id":"52680139761","owner":"193264646@N06","secret":"e08c4f46c8","server":"65535","farm":66,"title":"Common Redpoll","ispublic":1,"isfriend":0,"isfamily":0},{"id":"52679621937","owner":"193264646@N06","secret":"7475fecee3","server":"65535","farm":66,"title":"Common Redpoll","ispublic":1,"isfriend":0,"isfamily":0},{"id":"52680421884","owner":"193264646@N06","secret":"cfaff959af","server":"65535","farm":66,"title":"Common Redpoll","ispublic":1,"isfriend":0,"isfamily":0},{"id":"52668568290","owner":"12639178@N07","secret":"bd36d07837","server":"65535","farm":66,"title":"Birkenzeisig","ispublic":1,"isfriend":0,"isfamily":0},{"id":"52659900759","owner":"99849996@N00","secret":"12f59a2f4b","server":"65535","farm":66,"title":"Common Redpoll 20211211_3284-2","ispublic":1,"isfriend":0,"isfamily":0},{"id":"52657959867","owner":"190264295@N02","secret":"fca2b57727","server":"65535","farm":66,"title":"Common Redpoll","ispublic":1,"isfriend":0,"isfamily":0},{"id":"52658586024","owner":"12639178@N07","secret":"372631ff50","server":"65535","farm":66,"title":"Birkenzeisig (Acanthis flammea) (2)","ispublic":1,"isfriend":0,"isfamily":0},{"id":"52658585844","owner":"12639178@N07","secret":"d0e30e70e9","server":"65535","farm":66,"title":"Birkenzeisig","ispublic":1,"isfriend":0,"isfamily":0},{"id":"52654861861","owner":"59539587@N02","secret":"d1e7586a03","server":"65535","farm":66,"title":"Urpiainen sy\u00f6 siemeni\u00e4","ispublic":1,"isfriend":0,"isfamily":0},{"id":"52655301455","owner":"59539587@N02","secret":"40ec2eb5cc","server":"65535","farm":66,"title":"Urpiainen pudottautuu lentoon","ispublic":1,"isfriend":0,"isfamily":0},{"id":"52655343683","owner":"59539587@N02","secret":"d9f34d4237","server":"65535","farm":66,"title":"Urpiainen pudottautui lentoon","ispublic":1,"isfriend":0,"isfamily":0},{"id":"52654809149","owner":"146320926@N07","secret":"5917445325","server":"65535","farm":66,"title":"Acanthis flammea Gr\u00e5siska","ispublic":1,"isfriend":0,"isfamily":0},{"id":"52654031612","owner":"146320926@N07","secret":"66c5deaa59","server":"65535","farm":66,"title":"Common Redpoll Gr\u00e5siska Urpiainen Acanthis flammea.                                                                          Synonymer  Latinstk namn :Carduelis flammea - vilket betyder, flammande eldr\u00f6d steglits.","ispublic":1,"isfriend":0,"isfamily":0},{"id":"52651531944","owner":"99849996@N00","secret":"1c7c3daafd","server":"65535","farm":66,"title":"Common Redpoll 20211211_3344","ispublic":1,"isfriend":0,"isfamily":0},{"id":"52648587622","owner":"35437652@N02","secret":"fde21ab984","server":"65535","farm":66,"title":"Redpoll","ispublic":1,"isfriend":0,"isfamily":0},{"id":"52646300836","owner":"12639178@N07","secret":"3151af4fa2","server":"65535","farm":66,"title":"Birkenzeisig (Acanthis flammea) (1)","ispublic":1,"isfriend":0,"isfamily":0},{"id":"52643777912","owner":"12639178@N07","secret":"472209edba","server":"65535","farm":66,"title":"Birkenzeisig (Acanthis flammea) (1)","ispublic":1,"isfriend":0,"isfamily":0},{"id":"52641390368","owner":"186211059@N06","secret":"1ffa68130e","server":"65535","farm":66,"title":"Common (Mealy) Redpoll","ispublic":1,"isfriend":0,"isfamily":0},{"id":"52640633400","owner":"12639178@N07","secret":"c01cf5721f","server":"65535","farm":66,"title":"Birkenzeisig (Acanthis flammea) (1)","ispublic":1,"isfriend":0,"isfamily":0},{"id":"52638769993","owner":"92361032@N05","secret":"9c3513be43","server":"65535","farm":66,"title":"Diane & Richard Gone birding - partis observ\u00e9 les oiseaux","ispublic":1,"isfriend":0,"isfamily":0},{"id":"52633467055","owner":"107784905@N04","secret":"5881475826","server":"65535","farm":66,"title":"Sizerin cabaret - Culloden\/Scotland\/UK_20220604_001-1","ispublic":1,"isfriend":0,"isfamily":0},{"id":"52628063749","owner":"12639178@N07","secret":"6cbb547a42","server":"65535","farm":66,"title":"Birkenzeisig","ispublic":1,"isfriend":0,"isfamily":0},{"id":"52627314310","owner":"30191245@N00","secret":"96afba339a","server":"65535","farm":66,"title":"Female Redpoll (Acanthis flammea)","ispublic":1,"isfriend":0,"isfamily":0},{"id":"52625814372","owner":"80186184@N08","secret":"0c20c67644","server":"65535","farm":66,"title":"What Next?","ispublic":1,"isfriend":0,"isfamily":0},{"id":"52622788167","owner":"30191245@N00","secret":"2a05f04df3","server":"65535","farm":66,"title":"Common Redpoll (Acanthis flammea)","ispublic":1,"isfriend":0,"isfamily":0},{"id":"52613219874","owner":"193380221@N04","secret":"e31f67f599","server":"65535","farm":66,"title":"common redpoll","ispublic":1,"isfriend":0,"isfamily":0},{"id":"52613219639","owner":"193380221@N04","secret":"c692ea3b3d","server":"65535","farm":66,"title":"common redpoll","ispublic":1,"isfriend":0,"isfamily":0},{"id":"52605569362","owner":"12639178@N07","secret":"b312589d11","server":"65535","farm":66,"title":"Isl\u00e4ndischer Birkenzeisig Acanthis flammea subsp. islandica","ispublic":1,"isfriend":0,"isfamily":0},{"id":"52603881051","owner":"31864021@N08","secret":"3173602532","server":"65535","farm":66,"title":"Common redpoll - Acanthis flammea","ispublic":1,"isfriend":0,"isfamily":0},{"id":"52604134499","owner":"31864021@N08","secret":"a47f910ba3","server":"65535","farm":66,"title":"Common redpoll - Acanthis flammea","ispublic":1,"isfriend":0,"isfamily":0},{"id":"52602415369","owner":"181824639@N02","secret":"53ab76f2fb","server":"65535","farm":66,"title":"Sizerin flamm\u00e9e ( Acanthis flammea )","ispublic":1,"isfriend":0,"isfamily":0},{"id":"52599595191","owner":"12639178@N07","secret":"e4a26f0d4e","server":"65535","farm":66,"title":"Birkenzeisig (Acanthis flammea) (3)","ispublic":1,"isfriend":0,"isfamily":0},{"id":"52599857139","owner":"12639178@N07","secret":"3730fce68b","server":"65535","farm":66,"title":"Birkenzeisig (Acanthis flammea) (2)","ispublic":1,"isfriend":0,"isfamily":0},{"id":"52599594941","owner":"12639178@N07","secret":"943bfd2e51","server":"65535","farm":66,"title":"Birkenzeisig","ispublic":1,"isfriend":0,"isfamily":0},{"id":"52597914531","owner":"76617062@N08","secret":"864875bd40","server":"65535","farm":66,"title":"1.30814 Sizerin flamm\u00e9 \/ Acanthis flammea flammea \/ Common Redpoll","ispublic":1,"isfriend":0,"isfamily":0},{"id":"52591429627","owner":"30191245@N00","secret":"656ac75ece","server":"65535","farm":66,"title":"Common Redpoll (Acanthis flammea)","ispublic":1,"isfriend":0,"isfamily":0},{"id":"52580865375","owner":"153973412@N04","secret":"194e19806b","server":"65535","farm":66,"title":"Common Redpoll-Acanthis flammea, Sax-Zim Bog, MN","ispublic":1,"isfriend":0,"isfamily":0},{"id":"52575739711","owner":"151361315@N06","secret":"d0f0377c24","server":"65535","farm":66,"title":"Common Redpoll poses close up \u2022 Onondaga Lake West Shore Trail, Syracuse NY \u2022 2020","ispublic":1,"isfriend":0,"isfamily":0},{"id":"52575281567","owner":"151361315@N06","secret":"7c8aee183a","server":"65535","farm":66,"title":"Common Redpoll lifts wings \u2022 Onondaga Lake West Shore Trail, Syracuse NY \u2022 2020","ispublic":1,"isfriend":0,"isfamily":0},{"id":"52574509454","owner":"12639178@N07","secret":"e8c0992c5c","server":"65535","farm":66,"title":"Beide Knusperbanden in einem Trupp","ispublic":1,"isfriend":0,"isfamily":0},{"id":"52574233336","owner":"12639178@N07","secret":"fe36b84721","server":"65535","farm":66,"title":"Im Hintergrund Erlenzeisige","ispublic":1,"isfriend":0,"isfamily":0},{"id":"52574509164","owner":"12639178@N07","secret":"7ef1b12ffb","server":"65535","farm":66,"title":"An H\u00e4ngebirke und Schwarzerle geknuspert","ispublic":1,"isfriend":0,"isfamily":0},{"id":"52574679380","owner":"12639178@N07","secret":"0ea390cc2d","server":"65535","farm":66,"title":"Die nordische Knusperbande","ispublic":1,"isfriend":0,"isfamily":0},{"id":"52573765687","owner":"12639178@N07","secret":"a88c2985a1","server":"65535","farm":66,"title":"Scheint zu schmecken","ispublic":1,"isfriend":0,"isfamily":0},{"id":"52574507639","owner":"12639178@N07","secret":"418d24e1b4","server":"65535","farm":66,"title":"Die nordische Knusperbande f\u00e4llt ein","ispublic":1,"isfriend":0,"isfamily":0},{"id":"52648519040","owner":"186211059@N06","secret":"000399b9ff","server":"65535","farm":66,"title":"Common (Mealy) Redpoll","ispublic":1,"isfriend":0,"isfamily":0},{"id":"52643832831","owner":"186211059@N06","secret":"0ed9fbedea","server":"65535","farm":66,"title":"Common (Mealy) Redpoll","ispublic":1,"isfriend":0,"isfamily":0},{"id":"52644271025","owner":"186211059@N06","secret":"583dd2e32c","server":"65535","farm":66,"title":"Common (Mealy) Redpoll","ispublic":1,"isfriend":0,"isfamily":0},{"id":"52641392873","owner":"186211059@N06","secret":"105b3b64fc","server":"65535","farm":66,"title":"Common (Mealy) Redpoll","ispublic":1,"isfriend":0,"isfamily":0},{"id":"52638510976","owner":"12639178@N07","secret":"197408cf33","server":"65535","farm":66,"title":"Birkenzeisig mit ungew\u00f6hnlicher F\u00e4rbung","ispublic":1,"isfriend":0,"isfamily":0},{"id":"52638510851","owner":"12639178@N07","secret":"3559e288ee","server":"65535","farm":66,"title":"Birkenzeisig mit ungew\u00f6hnlicher F\u00e4rbung","ispublic":1,"isfriend":0,"isfamily":0},{"id":"52632040958","owner":"186211059@N06","secret":"1984aa0dba","server":"65535","farm":66,"title":"Common (Mealy) Redpoll","ispublic":1,"isfriend":0,"isfamily":0},{"id":"52611258523","owner":"12639178@N07","secret":"6f366c9b2c","server":"65535","farm":66,"title":"Alpenbirkenzeisig, (Acanthis flammea subsp. cabaret)","ispublic":1,"isfriend":0,"isfamily":0},{"id":"52604307670","owner":"31864021@N08","secret":"2e84d9b490","server":"65535","farm":66,"title":"Common redpoll - Acanthis flammea","ispublic":1,"isfriend":0,"isfamily":0},{"id":"52583617983","owner":"80186184@N08","secret":"ec508c7a74","server":"65535","farm":66,"title":"Winter Bounty","ispublic":1,"isfriend":0,"isfamily":0}]},"stat":"ok"}