{"photos":{"page":1,"pages":102,"perpage":100,"total":10148,"photo":[{"id":"52792484364","owner":"12639178@N07","secret":"59348fdca3","server":"65535","farm":66,"title":"Sturmm\u00f6we (P01)","ispublic":1,"isfriend":0,"isfamily":0},{"id":"52790646718","owner":"54724497@N02","secret":"90b648c204","server":"65535","farm":66,"title":"Fiskm\u00e5s, Larus canus, Mew Gull","ispublic":1,"isfriend":0,"isfamily":0},{"id":"52789641882","owner":"54724497@N02","secret":"4eef95cf4b","server":"65535","farm":66,"title":"Fiskm\u00e5s, Larus canus, Mew Gull","ispublic":1,"isfriend":0,"isfamily":0},{"id":"52790575783","owner":"71393709@N06","secret":"02fb4f600e","server":"65535","farm":66,"title":"The hunter (Female Corvus corone)","ispublic":1,"isfriend":0,"isfamily":0},{"id":"52789270427","owner":"59967518@N04","secret":"9733197f06","server":"65535","farm":66,"title":"0S8A3277. Common Gull (Larus canus) 1w","ispublic":1,"isfriend":0,"isfamily":0},{"id":"52789826921","owner":"59967518@N04","secret":"42b6bf59d0","server":"65535","farm":66,"title":"0S8A3284. Common Gull (Larus canus) 1w","ispublic":1,"isfriend":0,"isfamily":0},{"id":"52789270297","owner":"59967518@N04","secret":"0cf2e7d591","server":"65535","farm":66,"title":"0S8A3291. Common Gull (Larus canus) 1w","ispublic":1,"isfriend":0,"isfamily":0},{"id":"52787383722","owner":"75439979@N08","secret":"b3c52889c3","server":"65535","farm":66,"title":"Common Gull - Larus canus","ispublic":1,"isfriend":0,"isfamily":0},{"id":"52787434595","owner":"12639178@N07","secret":"4c99f56b72","server":"65535","farm":66,"title":"Sturmm\u00f6we","ispublic":1,"isfriend":0,"isfamily":0},{"id":"52786532088","owner":"55862848@N02","secret":"9a98ec8569","server":"65535","farm":66,"title":"Larus canus (16) et Larus ridibundus (48)","ispublic":1,"isfriend":0,"isfamily":0},{"id":"52786063355","owner":"198000077@N04","secret":"62e5d96167","server":"65535","farm":66,"title":"Common gull\/ Larus canus","ispublic":1,"isfriend":0,"isfamily":0},{"id":"52785049080","owner":"12639178@N07","secret":"66cc17aeaa","server":"65535","farm":66,"title":"Sturmm\u00f6we","ispublic":1,"isfriend":0,"isfamily":0},{"id":"52782403737","owner":"107784905@N04","secret":"8c030089a8","server":"65535","farm":66,"title":"Go\u00e9land cendr\u00e9 - Estavayer-le-Lac\/Fribourg\/CH_20220122_015-1","ispublic":1,"isfriend":0,"isfamily":0},{"id":"52783403168","owner":"196642910@N07","secret":"d8a799077f","server":"65535","farm":66,"title":"Sturmm\u00f6we","ispublic":1,"isfriend":0,"isfamily":0},{"id":"52779319225","owner":"42388593@N04","secret":"8221c76683","server":"65535","farm":66,"title":"Stormma\u030age, Common gull, Sturmmo\u0308we (Larus canus)-0814","ispublic":1,"isfriend":0,"isfamily":0},{"id":"52773371699","owner":"145644890@N02","secret":"695ffe73e9","server":"65535","farm":66,"title":"Gull Feeding","ispublic":1,"isfriend":0,"isfamily":0},{"id":"52771082391","owner":"53280041@N04","secret":"c10e0e92b5","server":"65535","farm":66,"title":"Common gull","ispublic":1,"isfriend":0,"isfamily":0},{"id":"52764636516","owner":"147328572@N03","secret":"f68331ee72","server":"65535","farm":66,"title":"Sturmm\u00f6we \/ Mew Gull \/ Larus canus","ispublic":1,"isfriend":0,"isfamily":0},{"id":"52765057993","owner":"141875401@N08","secret":"66894bc11d","server":"65535","farm":66,"title":"\u0421\u0438\u0437\u0430\u044f \u0447\u0430\u0439\u043a\u0430 (\u043b\u0430\u0442. Larus canus)","ispublic":1,"isfriend":0,"isfamily":0},{"id":"52762145164","owner":"71393709@N06","secret":"5af749d1be","server":"65535","farm":66,"title":"Carrion Crow (Corvus corone) in Hyde Park, London  -  (Published online in Canadian magazine 98.5 MONTREAL) & (Published by GETTY IMAGES)","ispublic":1,"isfriend":0,"isfamily":0},{"id":"52759447488","owner":"145489125@N03","secret":"29cc2a7ca2","server":"65535","farm":66,"title":"Common Gull ( Larus canus ) ... Hornsea Mere , Yorkshire","ispublic":1,"isfriend":0,"isfamily":0},{"id":"52755554180","owner":"193259650@N02","secret":"d984e01323","server":"65535","farm":66,"title":"Common Gull - Larus canus - 1st winter","ispublic":1,"isfriend":0,"isfamily":0},{"id":"52754216565","owner":"12639178@N07","secret":"d63b6b51b3","server":"65535","farm":66,"title":"Sturmm\u00f6we (Larus canus)","ispublic":1,"isfriend":0,"isfamily":0},{"id":"52753968504","owner":"12639178@N07","secret":"b7cbb0f209","server":"65535","farm":66,"title":"Sturmm\u00f6we","ispublic":1,"isfriend":0,"isfamily":0},{"id":"52753954969","owner":"12639178@N07","secret":"828ac878cf","server":"65535","farm":66,"title":"Sturmm\u00f6we (Larus canus)","ispublic":1,"isfriend":0,"isfamily":0},{"id":"52753171762","owner":"12639178@N07","secret":"b882e3d00e","server":"65535","farm":66,"title":"Sturmm\u00f6we (Larus canus)","ispublic":1,"isfriend":0,"isfamily":0},{"id":"52753656471","owner":"12639178@N07","secret":"fedfc7250f","server":"65535","farm":66,"title":"Sturmm\u00f6we","ispublic":1,"isfriend":0,"isfamily":0},{"id":"52748712026","owner":"12639178@N07","secret":"b61e278a3f","server":"65535","farm":66,"title":"Larus canus, Sturmm\u00f6we,ad.","ispublic":1,"isfriend":0,"isfamily":0},{"id":"52744424044","owner":"14191740@N08","secret":"fc8179455a","server":"65535","farm":66,"title":"Common Gull (Larus canus), Kirkcaldy, Fife","ispublic":1,"isfriend":0,"isfamily":0},{"id":"52741859924","owner":"12639178@N07","secret":"44236f7dc5","server":"65535","farm":66,"title":"Sturmm\u00f6we","ispublic":1,"isfriend":0,"isfamily":0},{"id":"52741087777","owner":"12639178@N07","secret":"3321f2a9b4","server":"65535","farm":66,"title":"Sturmm\u00f6we","ispublic":1,"isfriend":0,"isfamily":0},{"id":"52739718562","owner":"17654080@N08","secret":"0a9abbb85d","server":"65535","farm":66,"title":"Common Gull (European race), adult (Larus canus canus)","ispublic":1,"isfriend":0,"isfamily":0},{"id":"52740646385","owner":"17654080@N08","secret":"a877c57ef9","server":"65535","farm":66,"title":"Common Gull (European race), adult (Larus canus canus)","ispublic":1,"isfriend":0,"isfamily":0},{"id":"52739718557","owner":"17654080@N08","secret":"d83a3a4f56","server":"65535","farm":66,"title":"Common Gull (European race), adult (Larus canus canus)","ispublic":1,"isfriend":0,"isfamily":0},{"id":"52740724123","owner":"17654080@N08","secret":"929aba765c","server":"65535","farm":66,"title":"Common Gull (European race), adult (Larus canus canus)","ispublic":1,"isfriend":0,"isfamily":0},{"id":"52740487424","owner":"17654080@N08","secret":"b0a24fd582","server":"65535","farm":66,"title":"Common Gull (European race), adult (Larus canus canus)","ispublic":1,"isfriend":0,"isfamily":0},{"id":"52740233626","owner":"17654080@N08","secret":"7b84e77a34","server":"65535","farm":66,"title":"Common Gull (European race), adult (Larus canus canus)","ispublic":1,"isfriend":0,"isfamily":0},{"id":"52738001145","owner":"69812270@N00","secret":"c1977f47cf","server":"65535","farm":66,"title":"Black Skimmer, Western Gull, Small-billed (Mew Gull), Ring-billed Gull, and California Gull","ispublic":1,"isfriend":0,"isfamily":0},{"id":"52736376881","owner":"193259650@N02","secret":"92f7d16663","server":"65535","farm":66,"title":"Common Gull - Larus canus","ispublic":1,"isfriend":0,"isfamily":0},{"id":"52735674972","owner":"42388593@N04","secret":"3765a0771d","server":"65535","farm":66,"title":"Stormma\u030age, Common gull, Sturmmo\u0308we (Larus canus)-0192","ispublic":1,"isfriend":0,"isfamily":0},{"id":"52736450145","owner":"42388593@N04","secret":"b8ed59e399","server":"65535","farm":66,"title":"Stormma\u030age, Common gull, Sturmmo\u0308we (Larus canus)-0186","ispublic":1,"isfriend":0,"isfamily":0},{"id":"52733252988","owner":"145644890@N02","secret":"523b3e5667","server":"65535","farm":66,"title":"Common Gull","ispublic":1,"isfriend":0,"isfamily":0},{"id":"52732685544","owner":"145644890@N02","secret":"e4947ccc88","server":"65535","farm":66,"title":"Common Gull","ispublic":1,"isfriend":0,"isfamily":0},{"id":"52731897797","owner":"12639178@N07","secret":"d7530d7d17","server":"65535","farm":66,"title":"Sturmm\u00f6we","ispublic":1,"isfriend":0,"isfamily":0},{"id":"52730312916","owner":"12639178@N07","secret":"c02b422985","server":"65535","farm":66,"title":"Sturmm\u00f6we?","ispublic":1,"isfriend":0,"isfamily":0},{"id":"52729787907","owner":"12639178@N07","secret":"acff037a0a","server":"65535","farm":66,"title":"Sturmm\u00f6we?","ispublic":1,"isfriend":0,"isfamily":0},{"id":"52729787727","owner":"12639178@N07","secret":"631d249931","server":"65535","farm":66,"title":"eine junge Sturmm\u00f6we??","ispublic":1,"isfriend":0,"isfamily":0},{"id":"52728166945","owner":"12639178@N07","secret":"b79a891a07","server":"65535","farm":66,"title":"Sturmm\u00f6we im Anflug","ispublic":1,"isfriend":0,"isfamily":0},{"id":"52725778288","owner":"12639178@N07","secret":"074744761f","server":"65535","farm":66,"title":"Beide beobachten","ispublic":1,"isfriend":0,"isfamily":0},{"id":"52725556924","owner":"12639178@N07","secret":"1ab067b3aa","server":"65535","farm":66,"title":"Sturm- und Lachm\u00f6we","ispublic":1,"isfriend":0,"isfamily":0},{"id":"52724710527","owner":"97469566@N00","secret":"79270cf6a6","server":"65535","farm":66,"title":"Larus canus NZ7_4507","ispublic":1,"isfriend":0,"isfamily":0},{"id":"52725234726","owner":"97469566@N00","secret":"80ebe0d00b","server":"65535","farm":66,"title":"Larus canus NZ7_4539","ispublic":1,"isfriend":0,"isfamily":0},{"id":"52724585386","owner":"12639178@N07","secret":"8df6ca11a9","server":"65535","farm":66,"title":"Belegbild: Sturmm\u00f6we (Larus canus)","ispublic":1,"isfriend":0,"isfamily":0},{"id":"52723919096","owner":"57126723@N07","secret":"1eb11263cd","server":"65535","farm":66,"title":"Larus canus\u2014Common seagull-9534-Edit","ispublic":1,"isfriend":0,"isfamily":0},{"id":"52724393928","owner":"57126723@N07","secret":"78331549f4","server":"65535","farm":66,"title":"Common gull\u2014Larus canus\u2014Lake Biggin-9551-Edit","ispublic":1,"isfriend":0,"isfamily":0},{"id":"52723510539","owner":"97469566@N00","secret":"4ae83efd5f","server":"65535","farm":66,"title":"Larus canus NZ7_4398","ispublic":1,"isfriend":0,"isfamily":0},{"id":"52723660170","owner":"97469566@N00","secret":"b092521e5b","server":"65535","farm":66,"title":"Larus canus NZ7_4415","ispublic":1,"isfriend":0,"isfamily":0},{"id":"52723135569","owner":"12639178@N07","secret":"dbbe7a01ce","server":"65535","farm":66,"title":"Beobachter","ispublic":1,"isfriend":0,"isfamily":0},{"id":"52722880451","owner":"12639178@N07","secret":"2be8b05b42","server":"65535","farm":66,"title":"Sturmm\u00f6we (Larus canus) (1)","ispublic":1,"isfriend":0,"isfamily":0},{"id":"52721734929","owner":"12639178@N07","secret":"31bb08876b","server":"65535","farm":66,"title":"Vorbeiflug","ispublic":1,"isfriend":0,"isfamily":0},{"id":"52721734734","owner":"12639178@N07","secret":"db8ab2c94f","server":"65535","farm":66,"title":"Wintergast am See","ispublic":1,"isfriend":0,"isfamily":0},{"id":"52718079530","owner":"12639178@N07","secret":"ba8625e16e","server":"65535","farm":66,"title":"Eine Sturmm\u00f6we folgt der F\u00e4hre","ispublic":1,"isfriend":0,"isfamily":0},{"id":"52333756610","owner":"21231085@N04","secret":"0b015a515d","server":"65535","farm":66,"title":"common gull","ispublic":1,"isfriend":0,"isfamily":0},{"id":"52709501862","owner":"193259650@N02","secret":"fe93a6e979","server":"65535","farm":66,"title":"Common Gull - Larus canus - immature","ispublic":1,"isfriend":0,"isfamily":0},{"id":"52705362742","owner":"193259650@N02","secret":"5a6883d8cd","server":"65535","farm":66,"title":"Common Gull - Larus canus","ispublic":1,"isfriend":0,"isfamily":0},{"id":"52706247435","owner":"12639178@N07","secret":"45aa23fb43","server":"65535","farm":66,"title":"Sturmm\u00f6we (Larus canus) (1)","ispublic":1,"isfriend":0,"isfamily":0},{"id":"52704428185","owner":"95795254@N02","secret":"0c5e5e7fdd","server":"65535","farm":66,"title":"Common Gull 503_6944.jpg","ispublic":1,"isfriend":0,"isfamily":0},{"id":"52700530938","owner":"65345069@N02","secret":"026dca3763","server":"65535","farm":66,"title":"Common Gull (Larus canus)","ispublic":1,"isfriend":0,"isfamily":0},{"id":"52698546058","owner":"12639178@N07","secret":"6681a93af1","server":"65535","farm":66,"title":"Larus canus, Sturmm\u00f6we,dj. (JK-1Winter)","ispublic":1,"isfriend":0,"isfamily":0},{"id":"52696474080","owner":"197745515@N06","secret":"59e4d082ba","server":"65535","farm":66,"title":"Larus canus","ispublic":1,"isfriend":0,"isfamily":0},{"id":"52690739958","owner":"12639178@N07","secret":"9d1ce54000","server":"65535","farm":66,"title":"juvenile Sturmm\u00f6we","ispublic":1,"isfriend":0,"isfamily":0},{"id":"52690494454","owner":"12639178@N07","secret":"2af6718334","server":"65535","farm":66,"title":"juvenile Sturmm\u00f6we","ispublic":1,"isfriend":0,"isfamily":0},{"id":"52689699507","owner":"12639178@N07","secret":"262b579906","server":"65535","farm":66,"title":"juvenile Sturmm\u00f6we","ispublic":1,"isfriend":0,"isfamily":0},{"id":"52690212506","owner":"12639178@N07","secret":"75d196165c","server":"65535","farm":66,"title":"juvenile Sturmm\u00f6we","ispublic":1,"isfriend":0,"isfamily":0},{"id":"52690029726","owner":"60030427@N07","secret":"8e6cce2829","server":"65535","farm":66,"title":"Larus canus","ispublic":1,"isfriend":0,"isfamily":0},{"id":"52689998016","owner":"71393709@N06","secret":"5d35bf9739","server":"65535","farm":66,"title":"Female Corvus corone (Carrion crow) sunning and preening  -  (Published online in the Greece edition of HUFF POST) & (Published by GETTY IMAGES)","ispublic":1,"isfriend":0,"isfamily":0},{"id":"52688824119","owner":"97167226@N03","secret":"0ed2de065c","server":"65535","farm":66,"title":"Common gull ( Larus canus )","ispublic":1,"isfriend":0,"isfamily":0},{"id":"52688581104","owner":"65345069@N02","secret":"72691b41fa","server":"65535","farm":66,"title":"Common Gull (Larus canus)","ispublic":1,"isfriend":0,"isfamily":0},{"id":"52688307714","owner":"71393709@N06","secret":"0d375365ef","server":"65535","farm":66,"title":"The watering hole for Sheryl, a resident adult Carrion crow (Corvus corone)  -  (Published by GETTY IMAGES)","ispublic":1,"isfriend":0,"isfamily":0},{"id":"52686226411","owner":"65345069@N02","secret":"159338dd9d","server":"65535","farm":66,"title":"Common Gull (Larus canus)","ispublic":1,"isfriend":0,"isfamily":0},{"id":"52686286923","owner":"12639178@N07","secret":"080056ce88","server":"65535","farm":66,"title":"Sturmm\u00f6we","ispublic":1,"isfriend":0,"isfamily":0},{"id":"52684887018","owner":"78941013@N00","secret":"ed7147fe1f","server":"65535","farm":66,"title":"Common gull (Larus canus) Stormmeeuw","ispublic":1,"isfriend":0,"isfamily":0},{"id":"52684042328","owner":"135540191@N07","secret":"77cd0006b1","server":"65535","farm":66,"title":"Osprey (Pandion haliaetus, fiskgjuse)","ispublic":1,"isfriend":0,"isfamily":0},{"id":"52683028367","owner":"135540191@N07","secret":"7073d2b60c","server":"65535","farm":66,"title":"Osprey (Pandion haliaetus, fiskgjuse) being chased by a common gull (Larus canus, fiskm\u00e5s)","ispublic":1,"isfriend":0,"isfamily":0},{"id":"52683828399","owner":"135540191@N07","secret":"69c34557b0","server":"65535","farm":66,"title":"Osprey (Pandion haliaetus, fiskgjuse) being chased by a common gull (Larus canus, fiskm\u00e5s)","ispublic":1,"isfriend":0,"isfamily":0},{"id":"52683970155","owner":"135540191@N07","secret":"7b25857875","server":"65535","farm":66,"title":"A common bream (Abramis brama, braxen) dropped on the ground by an osprey","ispublic":1,"isfriend":0,"isfamily":0},{"id":"52680391831","owner":"145489125@N03","secret":"1e8a2bce3d","server":"65535","farm":66,"title":"Common Gull ( Larus canus ) ad.winter ... Coatham Sands , Redcar , Yorkshire","ispublic":1,"isfriend":0,"isfamily":0},{"id":"52679131984","owner":"12639178@N07","secret":"cafd0c9760","server":"65535","farm":66,"title":"Sturmm\u00f6we (Larus canus) (1)","ispublic":1,"isfriend":0,"isfamily":0},{"id":"52674863922","owner":"165429513@N06","secret":"8643788b5e","server":"65535","farm":66,"title":"Common Gull (Larus canus)","ispublic":1,"isfriend":0,"isfamily":0},{"id":"52674960848","owner":"29826595@N06","secret":"d63c33e710","server":"65535","farm":66,"title":"Common Gull","ispublic":1,"isfriend":0,"isfamily":0},{"id":"52672554442","owner":"12639178@N07","secret":"be686b5d4d","server":"65535","farm":66,"title":"Sturmm\u00f6we (Larus canus) (1)","ispublic":1,"isfriend":0,"isfamily":0},{"id":"52673293129","owner":"97469566@N00","secret":"d01765b598","server":"65535","farm":66,"title":"Larus canus NZ7_4042","ispublic":1,"isfriend":0,"isfamily":0},{"id":"52741080262","owner":"12639178@N07","secret":"ed2b27c670","server":"65535","farm":66,"title":"Sturmm\u00f6we","ispublic":1,"isfriend":0,"isfamily":0},{"id":"52714140628","owner":"79722430@N04","secret":"7aab0ab42e","server":"65535","farm":66,"title":"Common gull (Larus canus)","ispublic":1,"isfriend":0,"isfamily":0},{"id":"52689722387","owner":"12639178@N07","secret":"d7dd58fe73","server":"65535","farm":66,"title":"juvenile Sturmm\u00f6we","ispublic":1,"isfriend":0,"isfamily":0},{"id":"52689705332","owner":"12639178@N07","secret":"7f1b86025e","server":"65535","farm":66,"title":"juvenile Sturmm\u00f6we","ispublic":1,"isfriend":0,"isfamily":0},{"id":"52690633375","owner":"12639178@N07","secret":"c29a8461f9","server":"65535","farm":66,"title":"juvenile Sturmm\u00f6we","ispublic":1,"isfriend":0,"isfamily":0},{"id":"52682419933","owner":"12639178@N07","secret":"ef0953f85d","server":"65535","farm":66,"title":"Sturmm\u00f6we (Larus canus)","ispublic":1,"isfriend":0,"isfamily":0},{"id":"52674863807","owner":"165429513@N06","secret":"e1c6de2503","server":"65535","farm":66,"title":"Common Gull (Larus canus)","ispublic":1,"isfriend":0,"isfamily":0},{"id":"52673549903","owner":"12639178@N07","secret":"7c60b194c7","server":"65535","farm":66,"title":"Sturmm\u00f6we (Larus canus) (2)","ispublic":1,"isfriend":0,"isfamily":0}]},"stat":"ok"}