{"photos":{"page":1,"pages":20,"perpage":100,"total":1946,"photo":[{"id":"52782092425","owner":"12639178@N07","secret":"a3f62c3c47","server":"65535","farm":66,"title":"Graugelb-Todityrann","ispublic":1,"isfriend":0,"isfamily":0},{"id":"52778865692","owner":"94310798@N04","secret":"c928c4115b","server":"65535","farm":66,"title":"Common tody flycatcher","ispublic":1,"isfriend":0,"isfamily":0},{"id":"52727416851","owner":"12639178@N07","secret":"57ed4e995b","server":"65535","farm":66,"title":"von hinten","ispublic":1,"isfriend":0,"isfamily":0},{"id":"52726891682","owner":"12639178@N07","secret":"dc5b4c4af7","server":"65535","farm":66,"title":"Graugelb-Todityrann","ispublic":1,"isfriend":0,"isfamily":0},{"id":"52725853325","owner":"25486180@N07","secret":"a6821544bf","server":"65535","farm":66,"title":"Common tody-flycatcher or black-fronted tody-flycatcher, Todirostrum cinereum","ispublic":1,"isfriend":0,"isfamily":0},{"id":"52724580122","owner":"27480477@N07","secret":"c3de76b716","server":"65535","farm":66,"title":"DSC02697 Common Tody-Flycatcher, Todirostrum cinereum.","ispublic":1,"isfriend":0,"isfamily":0},{"id":"52708262948","owner":"95795254@N02","secret":"600e453b50","server":"65535","farm":66,"title":"Common Tody-Flycatcher nest building 503_9620.jpg","ispublic":1,"isfriend":0,"isfamily":0},{"id":"52706864135","owner":"27480477@N07","secret":"195b02e722","server":"65535","farm":66,"title":"DSC02695  Common Tody-Flycatcher, Todirostrum cinereum.","ispublic":1,"isfriend":0,"isfamily":0},{"id":"52698714910","owner":"132165466@N08","secret":"10463e5827","server":"65535","farm":66,"title":"Common Tody-flycatcher","ispublic":1,"isfriend":0,"isfamily":0},{"id":"52652006171","owner":"132001260@N04","secret":"6f21883541","server":"65535","farm":66,"title":"Todirostre familier \u00e0 Bijagua","ispublic":1,"isfriend":0,"isfamily":0},{"id":"52650997748","owner":"61062164@N08","secret":"1f684bb85a","server":"65535","farm":66,"title":"850_6043-NEF_DxO DP2","ispublic":1,"isfriend":0,"isfamily":0},{"id":"52640938139","owner":"141256983@N04","secret":"c691170928","server":"65535","farm":66,"title":"Common Tody-Flycatcher (Todirostrum cinereum)","ispublic":1,"isfriend":0,"isfamily":0},{"id":"52639975456","owner":"123174353@N02","secret":"060991e105","server":"65535","farm":66,"title":"Todirostrum cinereum \/ Common Tody-Flycatcher \/ geelbuikschoffelsnavel","ispublic":1,"isfriend":0,"isfamily":0},{"id":"52639459857","owner":"123174353@N02","secret":"c62c95482f","server":"65535","farm":66,"title":"Todirostrum cinereum \/ Common Tody-Flycatcher \/ geelbuikschoffelsnavel","ispublic":1,"isfriend":0,"isfamily":0},{"id":"52634899996","owner":"11635106@N05","secret":"892a199c80","server":"65535","farm":66,"title":"Todirostrum cinereum","ispublic":1,"isfriend":0,"isfamily":0},{"id":"52582223076","owner":"61062164@N08","secret":"f3d38cc904","server":"65535","farm":66,"title":"850_4771-NEF_DxO_DeepPRIME","ispublic":1,"isfriend":0,"isfamily":0},{"id":"52546813017","owner":"69947563@N07","secret":"b436468422","server":"65535","farm":66,"title":"Common Tody-Flycatcher - La Sonrisa, Ibague, Tolima, Colombia","ispublic":1,"isfriend":0,"isfamily":0},{"id":"52534702065","owner":"134704052@N08","secret":"2b36b448fc","server":"65535","farm":66,"title":"Little Birds in Late Autumn","ispublic":1,"isfriend":0,"isfamily":0},{"id":"52534198473","owner":"134704052@N08","secret":"526df4c8c1","server":"65535","farm":66,"title":"Ferreirinho-rel\u00f3gio - Common Tody-Flycatcher","ispublic":1,"isfriend":0,"isfamily":0},{"id":"52534198393","owner":"134704052@N08","secret":"3c8ab3cc41","server":"65535","farm":66,"title":"Ferreirinho-rel\u00f3gio - Common Tody-Flycatcher","ispublic":1,"isfriend":0,"isfamily":0},{"id":"52530561028","owner":"134704052@N08","secret":"7f48b3c608","server":"65535","farm":66,"title":"Ferreirinho-rel\u00f3gio","ispublic":1,"isfriend":0,"isfamily":0},{"id":"52530015266","owner":"134704052@N08","secret":"1b90ee6a9e","server":"65535","farm":66,"title":"Ferreirinho-rel\u00f3gio","ispublic":1,"isfriend":0,"isfamily":0},{"id":"52529550177","owner":"134704052@N08","secret":"a9053e872a","server":"65535","farm":66,"title":"Hello December","ispublic":1,"isfriend":0,"isfamily":0},{"id":"52502928533","owner":"12185056@N02","secret":"31b5be9ae6","server":"65535","farm":66,"title":"Common Tody-flycatcher  (Todirostrum cinereum)","ispublic":1,"isfriend":0,"isfamily":0},{"id":"52493381778","owner":"86666094@N00","secret":"12a570b302","server":"65535","farm":66,"title":"Common Tody-Flycatcher","ispublic":1,"isfriend":0,"isfamily":0},{"id":"52452581146","owner":"95795254@N02","secret":"e996a8f318","server":"65535","farm":66,"title":"Common Tody-Flycatcher nest building 503_9601.jpg","ispublic":1,"isfriend":0,"isfamily":0},{"id":"52434161753","owner":"124478354@N05","secret":"4d4a7a1850","server":"65535","farm":66,"title":"On a very misty morn","ispublic":1,"isfriend":0,"isfamily":0},{"id":"52429927519","owner":"61316002@N02","secret":"244f641cfb","server":"65535","farm":66,"title":"COMTODFLY cinereum 6251","ispublic":1,"isfriend":0,"isfamily":0},{"id":"52377972666","owner":"45302763@N07","secret":"0bcc4a2dfb","server":"65535","farm":66,"title":"_DSC9870","ispublic":1,"isfriend":0,"isfamily":0},{"id":"52370926692","owner":"124478354@N05","secret":"ed5d16b89b","server":"65535","farm":66,"title":"Eying his prey","ispublic":1,"isfriend":0,"isfamily":0},{"id":"52347835325","owner":"45302763@N07","secret":"4ce51b3949","server":"65535","farm":66,"title":"_DSC0025","ispublic":1,"isfriend":0,"isfamily":0},{"id":"52347658183","owner":"45302763@N07","secret":"2c9f16aac7","server":"65535","farm":66,"title":"_DSC0019","ispublic":1,"isfriend":0,"isfamily":0},{"id":"52318559360","owner":"186748160@N02","secret":"1d16a44c83","server":"65535","farm":66,"title":"Common Tody-Flycatcher (Todirostrum cinereum)","ispublic":1,"isfriend":0,"isfamily":0},{"id":"52301520541","owner":"192890745@N03","secret":"1d6bd1d9a0","server":"65535","farm":66,"title":"Espatulilla Comun (Todirostrum cinereum)","ispublic":1,"isfriend":0,"isfamily":0},{"id":"52263261792","owner":"129593667@N03","secret":"23a6467627","server":"65535","farm":66,"title":"Common Tody-Flycatcher","ispublic":1,"isfriend":0,"isfamily":0},{"id":"52253782435","owner":"147283349@N08","secret":"72d237f45d","server":"65535","farm":66,"title":"Todirostrum  Cinereum","ispublic":1,"isfriend":0,"isfamily":0},{"id":"52251095558","owner":"147283349@N08","secret":"ab537a38a3","server":"65535","farm":66,"title":"Todirostrum  Cinereum","ispublic":1,"isfriend":0,"isfamily":0},{"id":"52246671512","owner":"37493716@N02","secret":"a2f29b7aa9","server":"65535","farm":66,"title":"Aves Reserva Tit\u00ed Cabeciblanco","ispublic":1,"isfriend":0,"isfamily":0},{"id":"52247644181","owner":"37493716@N02","secret":"4f719c1794","server":"65535","farm":66,"title":"Aves Reserva Tit\u00ed Cabeciblanco","ispublic":1,"isfriend":0,"isfamily":0},{"id":"52226083296","owner":"79153825@N08","secret":"0f080957c2","server":"65535","farm":66,"title":"Aves de Colombia:Espatulilla com\u00fan.(todirostrum cinereum.Common tody-flycatcher","ispublic":1,"isfriend":0,"isfamily":0},{"id":"52208566750","owner":"39652177@N04","secret":"672eb87aec","server":"65535","farm":66,"title":"Common Tody Flycatchers","ispublic":1,"isfriend":0,"isfamily":0},{"id":"52182286264","owner":"142134964@N04","secret":"fa72bf3f6d","server":"65535","farm":66,"title":"144- Espatulilla com\u00fan (Todirostrum cinereum)","ispublic":1,"isfriend":0,"isfamily":0},{"id":"52127474881","owner":"61062164@N08","secret":"379837f2f0","server":"65535","farm":66,"title":"850_9198-NEF_DxO_DeepPRIME","ispublic":1,"isfriend":0,"isfamily":0},{"id":"52121252784","owner":"95795254@N02","secret":"2b916a24e4","server":"65535","farm":66,"title":"Common Tody-Flycatcher nest building 503_9628.jpg","ispublic":1,"isfriend":0,"isfamily":0},{"id":"52115734893","owner":"29452402@N07","secret":"ba85617faf","server":"65535","farm":66,"title":"Common Tody Flycatcher","ispublic":1,"isfriend":0,"isfamily":0},{"id":"52111100362","owner":"37493716@N02","secret":"4b94a71054","server":"65535","farm":66,"title":"Todirostrum cinereum, Common Tody-Flycatcher, Reserva ProAves Pauxi pauxi","ispublic":1,"isfriend":0,"isfamily":0},{"id":"52071230253","owner":"56686021@N04","secret":"03e9e1ef2a","server":"65535","farm":66,"title":"Common Tody-Flycatcher","ispublic":1,"isfriend":0,"isfamily":0},{"id":"52071224351","owner":"56686021@N04","secret":"ae9f9ff8d9","server":"65535","farm":66,"title":"Common Tody-Flycatcher","ispublic":1,"isfriend":0,"isfamily":0},{"id":"52045963299","owner":"61062164@N08","secret":"90716c3130","server":"65535","farm":66,"title":"850_9197","ispublic":1,"isfriend":0,"isfamily":0},{"id":"51986700842","owner":"61062164@N08","secret":"2847f6357c","server":"65535","farm":66,"title":"850_9204","ispublic":1,"isfriend":0,"isfamily":0},{"id":"51983254446","owner":"190773540@N03","secret":"7a57d6188f","server":"65535","farm":66,"title":"Common Tody-Flycatcher","ispublic":1,"isfriend":0,"isfamily":0},{"id":"51972252407","owner":"24309230@N03","secret":"16aafaf626","server":"65535","farm":66,"title":"Common Tody-Flycatcher","ispublic":1,"isfriend":0,"isfamily":0},{"id":"51947084419","owner":"134704052@N08","secret":"7a7024b1d5","server":"65535","farm":66,"title":"Ferreirinho-rel\u00f3gio - Common Tody-Flycatcher","ispublic":1,"isfriend":0,"isfamily":0},{"id":"51947378580","owner":"134704052@N08","secret":"4801ae73a4","server":"65535","farm":66,"title":"Ferreirinho-rel\u00f3gio - Common Tody-Flycatcher","ispublic":1,"isfriend":0,"isfamily":0},{"id":"51945789127","owner":"134704052@N08","secret":"af4c8a39a2","server":"65535","farm":66,"title":"Ferreirinho-rel\u00f3gio - Common Tody-Flycatcher","ispublic":1,"isfriend":0,"isfamily":0},{"id":"51946770726","owner":"134704052@N08","secret":"ee260b2974","server":"65535","farm":66,"title":"Ferreirinho-rel\u00f3gio - Common Tody-Flycatcher","ispublic":1,"isfriend":0,"isfamily":0},{"id":"51889608513","owner":"45376259@N04","secret":"9acd25bcf9","server":"65535","farm":66,"title":"Ferreirinho-rel\u00f3gio construindo o ninho (Todirostrum cinereum), Vale da Neblina-PB, Brasil.","ispublic":1,"isfriend":0,"isfamily":0},{"id":"51816341925","owner":"101106007@N04","secret":"e2eb13f91e","server":"65535","farm":66,"title":"015A6318 Common Tody-Flycatcher","ispublic":1,"isfriend":0,"isfamily":0},{"id":"51795320850","owner":"61316002@N02","secret":"d90cf07aff","server":"65535","farm":66,"title":"COMTODFLY cearae 4707","ispublic":1,"isfriend":0,"isfamily":0},{"id":"51754649996","owner":"52363379@N07","secret":"d801ed118b","server":"65535","farm":66,"title":"Todirostrum cinereum","ispublic":1,"isfriend":0,"isfamily":0},{"id":"51738307478","owner":"134704052@N08","secret":"40976222e7","server":"65535","farm":66,"title":"Ferreirinho-rel\u00f3gio - Common Tody-Flycatcher","ispublic":1,"isfriend":0,"isfamily":0},{"id":"52642041422","owner":"197490463@N02","secret":"e78ee73cba","server":"65535","farm":66,"title":"Common Tody-Flycatcher \u2013 Todirostrum cinereum","ispublic":1,"isfriend":0,"isfamily":0},{"id":"52574308898","owner":"8264176@N02","secret":"62ed0bef09","server":"65535","farm":66,"title":"BirdsOfColombia - Common Tody-Flycatcher  \u00b7  Todirostrum cinereum -030521-","ispublic":1,"isfriend":0,"isfamily":0},{"id":"52558340198","owner":"195899031@N06","secret":"693c0f3ef9","server":"65535","farm":66,"title":"Espatulilla com\u00fan-Todirostrum cinereum","ispublic":1,"isfriend":0,"isfamily":0},{"id":"52528170313","owner":"100247776@N03","secret":"7fb59d81bc","server":"65535","farm":66,"title":"FERREIRINHO REL\u00d3GIO - Todirostrum cinereum - GOI\u00c2NIA","ispublic":1,"isfriend":0,"isfamily":0},{"id":"52495963521","owner":"190274181@N03","secret":"e0938e6cd1","server":"65535","farm":66,"title":"Espatulilla com\u00fan  Common tody-flycatcher  \ud83d\udd2cTodirostrum cinereum","ispublic":1,"isfriend":0,"isfamily":0},{"id":"52495571024","owner":"145157152@N06","secret":"00c8b07f25","server":"65535","farm":66,"title":"D50_7934","ispublic":1,"isfriend":0,"isfamily":0},{"id":"52332467361","owner":"32752434@N07","secret":"15b07b82c3","server":"65535","farm":66,"title":"Common Tody-Flycatcher (Todirostrum cinereum)","ispublic":1,"isfriend":0,"isfamily":0},{"id":"52313232102","owner":"32752434@N07","secret":"14f196ccc9","server":"65535","farm":66,"title":"Common Tody-Flycatcher (Todirostrum cinereum)","ispublic":1,"isfriend":0,"isfamily":0},{"id":"52183163421","owner":"48964568@N06","secret":"fdfe117f76","server":"65535","farm":66,"title":"Espatulilla com\u00fan","ispublic":1,"isfriend":0,"isfamily":0},{"id":"52055991477","owner":"150986980@N04","secret":"fe499c3084","server":"65535","farm":66,"title":"Espatulilla Com\u00fan\/Common Tody-Flycatcher\/Todirostrum cinereum","ispublic":1,"isfriend":0,"isfamily":0},{"id":"52050417491","owner":"56686021@N04","secret":"8278c4c40a","server":"65535","farm":66,"title":"Common Tody-Flycatcher","ispublic":1,"isfriend":0,"isfamily":0},{"id":"52035374652","owner":"56686021@N04","secret":"600a37c8c6","server":"65535","farm":66,"title":"Common Tody-Flycatcher","ispublic":1,"isfriend":0,"isfamily":0},{"id":"52030498704","owner":"48938938@N04","secret":"147e711d5d","server":"65535","farm":66,"title":"Common Tody-Flycatcher_Todirostrum cinereum_Ascanio_Falcon_DZ3A9872","ispublic":1,"isfriend":0,"isfamily":0},{"id":"52030248641","owner":"48938938@N04","secret":"f3a01c97c7","server":"65535","farm":66,"title":"Common Tody-Flycatcher_Todirostrum cinereum_Ascanio_Falcon_DZ3A9878","ispublic":1,"isfriend":0,"isfamily":0},{"id":"52030248396","owner":"48938938@N04","secret":"ccde1d5967","server":"65535","farm":66,"title":"Common Tody-Flycatcher_Todirostrum cinereum_Ascanio_Falcon_DZ3A9879","ispublic":1,"isfriend":0,"isfamily":0},{"id":"52030497419","owner":"48938938@N04","secret":"ee865d7487","server":"65535","farm":66,"title":"Common Tody-Flycatcher_Todirostrum cinereum_Ascanio_Falcon_DZ3A9874","ispublic":1,"isfriend":0,"isfamily":0},{"id":"52005061087","owner":"153849901@N07","secret":"96c9fe948c","server":"65535","farm":66,"title":"Espatulilla com\u00fan (Todirostrum cinereum) Cali. Valle del Cauca. Colombia. Facebook: PAJARIANDO ANDO","ispublic":1,"isfriend":0,"isfamily":0},{"id":"52004243290","owner":"51106497@N03","secret":"5040c5406b","server":"65535","farm":66,"title":"Commen Tody-flycatcher","ispublic":1,"isfriend":0,"isfamily":0},{"id":"51998724899","owner":"145988764@N06","secret":"f41ae6a47c","server":"65535","farm":66,"title":"Espatulilla com\u00fan - Todirostrum cinereum.Common Tody-Flycatcher","ispublic":1,"isfriend":0,"isfamily":0},{"id":"51982899109","owner":"24110087@N05","secret":"a09b8c49a0","server":"65535","farm":66,"title":"Common Tody-Flycatcher - Todirostrum cinereum finitimum","ispublic":1,"isfriend":0,"isfamily":0},{"id":"51966849432","owner":"195311391@N04","secret":"dc412aef2a","server":"65535","farm":66,"title":"Todirostrum cinereum","ispublic":1,"isfriend":0,"isfamily":0},{"id":"51963523153","owner":"79153825@N08","secret":"a865ffec2e","server":"65535","farm":66,"title":"Aves de Panam\u00e1: Espatulilla com\u00fan.( Todirostrum cinereum.) Common tody flycatcher.","ispublic":1,"isfriend":0,"isfamily":0},{"id":"51963523038","owner":"79153825@N08","secret":"8e3f89b751","server":"65535","farm":66,"title":"Aves de Panam\u00e1: Espatulilla com\u00fan.( Todirostrum cinereum.) Common tody flycatcher.","ispublic":1,"isfriend":0,"isfamily":0},{"id":"51963743474","owner":"79153825@N08","secret":"eea3f853ca","server":"65535","farm":66,"title":"Aves de Panam\u00e1: Espatulilla com\u00fan.( Todirostrum cinereum.) Common tody flycatcher.","ispublic":1,"isfriend":0,"isfamily":0},{"id":"51963743274","owner":"79153825@N08","secret":"31e21246cf","server":"65535","farm":66,"title":"Aves de Panam\u00e1: Espatulilla com\u00fan.( Todirostrum cinereum.) Common tody flycatcher.","ispublic":1,"isfriend":0,"isfamily":0},{"id":"51963743109","owner":"79153825@N08","secret":"480d4fe78a","server":"65535","farm":66,"title":"Aves de Panam\u00e1: Espatulilla com\u00fan.( Todirostrum cinereum.) Common tody flycatcher.","ispublic":1,"isfriend":0,"isfamily":0},{"id":"51943727240","owner":"126993030@N06","secret":"a0fbe3c2bf","server":"65535","farm":66,"title":"Common Tody-Flycatcher (Todirostrum cinereum)","ispublic":1,"isfriend":0,"isfamily":0},{"id":"51943108586","owner":"126993030@N06","secret":"3efac19b6e","server":"65535","farm":66,"title":"Costa Rica (139)","ispublic":1,"isfriend":0,"isfamily":0},{"id":"51915153487","owner":"87400531@N06","secret":"9407bd963a","server":"65535","farm":66,"title":"Todirostrum cinereum in Universidad Industrial de Santander","ispublic":1,"isfriend":0,"isfamily":0},{"id":"51887225525","owner":"95747238@N07","secret":"9ee1871038","server":"65535","farm":66,"title":"Todirostrum cinereum 1","ispublic":1,"isfriend":0,"isfamily":0},{"id":"51885604942","owner":"95747238@N07","secret":"347cc0e8c1","server":"65535","farm":66,"title":"Todirostrum cinereum 2","ispublic":1,"isfriend":0,"isfamily":0},{"id":"51867255903","owner":"37493716@N02","secret":"33db61acb1","server":"65535","farm":66,"title":"Todirostrum cinereum, Common Tody-Flycatcher","ispublic":1,"isfriend":0,"isfamily":0},{"id":"51838384112","owner":"12278268@N08","secret":"b9346f4c8e","server":"65535","farm":66,"title":"Common Tody-Flycatcher (Todirostrum cinereum)","ispublic":1,"isfriend":0,"isfamily":0},{"id":"51830853070","owner":"12639178@N07","secret":"a3bc97ece0","server":"65535","farm":66,"title":"Graugelb-Todytyrann","ispublic":1,"isfriend":0,"isfamily":0},{"id":"51791395923","owner":"95747238@N07","secret":"d624acef40","server":"65535","farm":66,"title":"Todirostrum cinereum 1","ispublic":1,"isfriend":0,"isfamily":0},{"id":"51792017410","owner":"95747238@N07","secret":"6cf5f29a32","server":"65535","farm":66,"title":"Todirostrum cinereum 2","ispublic":1,"isfriend":0,"isfamily":0},{"id":"51791395878","owner":"95747238@N07","secret":"051337b9dd","server":"65535","farm":66,"title":"Todirostrum cinereum 3","ispublic":1,"isfriend":0,"isfamily":0},{"id":"51746181471","owner":"12639178@N07","secret":"7d41cdb73d","server":"65535","farm":66,"title":"Graugelb-Todityrann (Common Tody-Flyc.)","ispublic":1,"isfriend":0,"isfamily":0},{"id":"51745807130","owner":"48938938@N04","secret":"7837c5d3bb","server":"65535","farm":66,"title":"Common Tody Flycatcher_Todirostrum cinereum_Ascanio_Andes W Colombia_DZ3A5602","ispublic":1,"isfriend":0,"isfamily":0}]},"stat":"ok"}