{"photos":{"page":1,"pages":219,"perpage":100,"total":21878,"photo":[{"id":"52723948474","owner":"45145908@N08","secret":"6a362ba2c0","server":"65535","farm":66,"title":"Cuervo, Common raven","ispublic":1,"isfriend":0,"isfamily":0},{"id":"52723827195","owner":"12639178@N07","secret":"f1cc69e343","server":"65535","farm":66,"title":"Kolkrabe und 2 Rabenkr\u00e4hen","ispublic":1,"isfriend":0,"isfamily":0},{"id":"52723573439","owner":"18217058@N04","secret":"f965ac310e","server":"65535","farm":66,"title":"Two common ravens \/ Hrafnar (Corvus corax), mount Keilir at Reykjanes in the background","ispublic":1,"isfriend":0,"isfamily":0},{"id":"52722773723","owner":"197628215@N07","secret":"df57a91dc6","server":"65535","farm":66,"title":"Common Raven (Corvus corax)  02\/09\/2023 #commonraven #raven #bestbackroad #bestbackroads #natgeoyourshots #natgeo100contest #natgeo #rutlandcountyvt #washingtoncountyny #whitehallny #wildphotography #naturephotography #adventurephotography #wildlifephotog","ispublic":1,"isfriend":0,"isfamily":0},{"id":"52722109321","owner":"12639178@N07","secret":"3052dcf4b4","server":"65535","farm":66,"title":"Beleg: Kolkrabe, er kreiste sehr hoch mit einem Rotmilan","ispublic":1,"isfriend":0,"isfamily":0},{"id":"52721288552","owner":"137371709@N06","secret":"42b542a3b3","server":"65535","farm":66,"title":"Corvus corax canriensis (Raaf ssp canariensis) (2)","ispublic":1,"isfriend":0,"isfamily":0},{"id":"52722223900","owner":"137371709@N06","secret":"58494d180c","server":"65535","farm":66,"title":"Corvus corax canriensis (Raaf ssp canariensis)","ispublic":1,"isfriend":0,"isfamily":0},{"id":"52721184822","owner":"12639178@N07","secret":"f785921b0d","server":"65535","farm":66,"title":"Kolkrabe (Corvus corax) (4)","ispublic":1,"isfriend":0,"isfamily":0},{"id":"52721967629","owner":"12639178@N07","secret":"88688af215","server":"65535","farm":66,"title":"Kolkrabe (Corvus corax) (3)","ispublic":1,"isfriend":0,"isfamily":0},{"id":"52721708201","owner":"12639178@N07","secret":"d35bc597db","server":"65535","farm":66,"title":"Kolkrabe (Corvus corax) (2)","ispublic":1,"isfriend":0,"isfamily":0},{"id":"52721184402","owner":"12639178@N07","secret":"c541f577f1","server":"65535","farm":66,"title":"Kolkrabe (Corvus corax) (1)","ispublic":1,"isfriend":0,"isfamily":0},{"id":"52722115435","owner":"12639178@N07","secret":"96fb2e59a2","server":"65535","farm":66,"title":"Kolkrabenpaar mitten in Zuffenhausen","ispublic":1,"isfriend":0,"isfamily":0},{"id":"52722188458","owner":"12639178@N07","secret":"f2f60c1033","server":"65535","farm":66,"title":"Kolkrabenpaar mitten in Zuffenhausen","ispublic":1,"isfriend":0,"isfamily":0},{"id":"52721964094","owner":"12639178@N07","secret":"31b4213dfd","server":"65535","farm":66,"title":"Kolkrabenpaar mitten in Zuffenhausen","ispublic":1,"isfriend":0,"isfamily":0},{"id":"52722060443","owner":"12639178@N07","secret":"f9a6a2715a","server":"65535","farm":66,"title":".nach 2 Minuten fliegt er erneut die Stelle an..","ispublic":1,"isfriend":0,"isfamily":0},{"id":"52721576121","owner":"12639178@N07","secret":"bd7ca6f025","server":"65535","farm":66,"title":"..der Kolkrabe hat etwas gefunden (M\u00e4usenest?)","ispublic":1,"isfriend":0,"isfamily":0},{"id":"52721778010","owner":"34238008@N02","secret":"cf49910bc1","server":"65535","farm":66,"title":"Common Raven (Corvus corax)","ispublic":1,"isfriend":0,"isfamily":0},{"id":"52720841957","owner":"34238008@N02","secret":"c094e0e32a","server":"65535","farm":66,"title":"Common Raven (Corvus corax)","ispublic":1,"isfriend":0,"isfamily":0},{"id":"52720841762","owner":"34238008@N02","secret":"a85c573a77","server":"65535","farm":66,"title":"Common Raven (Corvus corax)","ispublic":1,"isfriend":0,"isfamily":0},{"id":"52721628099","owner":"34238008@N02","secret":"4f03364a04","server":"65535","farm":66,"title":"Common Raven (Corvus corax)","ispublic":1,"isfriend":0,"isfamily":0},{"id":"52721377454","owner":"19034378@N05","secret":"fab605ebc1","server":"65535","farm":66,"title":"Corvus corax - a Raven in Stockholm","ispublic":1,"isfriend":0,"isfamily":0},{"id":"52718896347","owner":"62043870@N05","secret":"9cb426a0fb","server":"65535","farm":66,"title":"Bald Eagle Haliaeetus leucocephalusBald Eagle (Haliaeetus leucocephalus) and Common Raven (Corvus corax)","ispublic":1,"isfriend":0,"isfamily":0},{"id":"52718411531","owner":"12639178@N07","secret":"81e67a15af","server":"65535","farm":66,"title":"Kolkrabenpaar","ispublic":1,"isfriend":0,"isfamily":0},{"id":"52718679309","owner":"12639178@N07","secret":"8d983ac4e2","server":"65535","farm":66,"title":"Kolkrabenpaar","ispublic":1,"isfriend":0,"isfamily":0},{"id":"52718319850","owner":"12639178@N07","secret":"755fc1348d","server":"65535","farm":66,"title":"Kolkrabe mit Begleitung...","ispublic":1,"isfriend":0,"isfamily":0},{"id":"52718153958","owner":"188352054@N08","secret":"ca66ca3f5a","server":"65535","farm":66,"title":"IMG_8208","ispublic":1,"isfriend":0,"isfamily":0},{"id":"52716793562","owner":"104656857@N06","secret":"5e0dc4a65f","server":"65535","farm":66,"title":"Raven portrait","ispublic":1,"isfriend":0,"isfamily":0},{"id":"52715831070","owner":"87395480@N05","secret":"8832812395","server":"65535","farm":66,"title":"Corvus corax canariensis","ispublic":1,"isfriend":0,"isfamily":0},{"id":"52714330487","owner":"12639178@N07","secret":"9e529fa761","server":"65535","farm":66,"title":"\u00dcberflieger","ispublic":1,"isfriend":0,"isfamily":0},{"id":"52715109454","owner":"12639178@N07","secret":"0c50a51b5c","server":"65535","farm":66,"title":"Einer von ca. 20 Kolkraben","ispublic":1,"isfriend":0,"isfamily":0},{"id":"52712539656","owner":"137371709@N06","secret":"61f15e474f","server":"65535","farm":66,"title":"Corvus corax canariensis (Raaf ssp canariensis)","ispublic":1,"isfriend":0,"isfamily":0},{"id":"52712062019","owner":"160120174@N04","secret":"130723262b","server":"65535","farm":66,"title":"Holl\u00f3 (Corvus corax)","ispublic":1,"isfriend":0,"isfamily":0},{"id":"52711343183","owner":"21606110@N08","secret":"0f024194a2","server":"65535","farm":66,"title":"Raven","ispublic":1,"isfriend":0,"isfamily":0},{"id":"52709625346","owner":"7660999@N05","secret":"79009aabd6","server":"65535","farm":66,"title":"Common raven (Corvus corax)","ispublic":1,"isfriend":0,"isfamily":0},{"id":"52709162091","owner":"197628215@N07","secret":"637477cf9f","server":"65535","farm":66,"title":"Common Raven (Corvus corax)  02\/09\/2023 #commonraven #raven #bestbackroad #bestbackroads #natgeoyourshots #natgeo100contest #natgeo #rutlandcountyvt #washingtoncountyny #whitehallny #wildphotography #naturephotography #adventurephotography #wildlifephotog","ispublic":1,"isfriend":0,"isfamily":0},{"id":"52708915386","owner":"12639178@N07","secret":"92b5966f57","server":"65535","farm":66,"title":"k\u00f6nnen das Kolkraben sein, die den Bussard angreifen? 5 von 8","ispublic":1,"isfriend":0,"isfamily":0},{"id":"52708360407","owner":"29894834@N05","secret":"2b0011147e","server":"65535","farm":66,"title":"Waiting for a peanut","ispublic":1,"isfriend":0,"isfamily":0},{"id":"52709205685","owner":"191209692@N05","secret":"3e14f86830","server":"65535","farm":66,"title":"Cuervo com\u00fan - Common Raven - Corvus  corax","ispublic":1,"isfriend":0,"isfamily":0},{"id":"52708269057","owner":"191209692@N05","secret":"23e975abf5","server":"65535","farm":66,"title":"Cuervo com\u00fan - Common Raven - Corvus  corax","ispublic":1,"isfriend":0,"isfamily":0},{"id":"52709046305","owner":"188156748@N07","secret":"332c6b774c","server":"65535","farm":66,"title":"Common Raven - Grand Corbeau - Corvus corax    5219 (2)-SharpenAI-Standard copy.jpgS","ispublic":1,"isfriend":0,"isfamily":0},{"id":"52708631996","owner":"188156748@N07","secret":"08feed2e1e","server":"65535","farm":66,"title":"Common Raven - Grand Corbeau - Corvus corax    5219 (4)-SharpenAI-Standard copy.jpgS","ispublic":1,"isfriend":0,"isfamily":0},{"id":"52709118218","owner":"188156748@N07","secret":"1b5101e6fc","server":"65535","farm":66,"title":"Common Raven - Grand Corbeau - Corvus corax    5219 (5)-SharpenAI-Standard copy.jpgS","ispublic":1,"isfriend":0,"isfamily":0},{"id":"52708813225","owner":"12639178@N07","secret":"9741b7684b","server":"65535","farm":66,"title":"Kolkrabe, oberhalb der Steilk\u00fcste, SW-Algarve","ispublic":1,"isfriend":0,"isfamily":0},{"id":"52708655059","owner":"12639178@N07","secret":"10beced0bf","server":"65535","farm":66,"title":"Kolkrabe, oberhalb der Steilk\u00fcste, SW-Algarve","ispublic":1,"isfriend":0,"isfamily":0},{"id":"52708654854","owner":"12639178@N07","secret":"9ecd8c63c5","server":"65535","farm":66,"title":"Kolkrabe, oberhalb der Steilk\u00fcste, SW-Algarve","ispublic":1,"isfriend":0,"isfamily":0},{"id":"52707760553","owner":"197628215@N07","secret":"c75a0de010","server":"65535","farm":66,"title":"Common Raven (Corvus corax)  02\/09\/2023 #commonraven #raven #bestbackroad #bestbackroads #natgeoyourshots #natgeo100contest #natgeo #rutlandcountyvt #washingtoncountyny #whitehallny #wildphotography #naturephotography #adventurephotography #wildlifephotog","ispublic":1,"isfriend":0,"isfamily":0},{"id":"52706554084","owner":"12639178@N07","secret":"577ab0aa65","server":"65535","farm":66,"title":"..ohne ihn soll das Britische Imperium ja untergehen...","ispublic":1,"isfriend":0,"isfamily":0},{"id":"52705218851","owner":"12639178@N07","secret":"e85dba7a6a","server":"65535","farm":66,"title":"Westkanaren-Kolkrabe (Corvus corax subsp. canariensis)","ispublic":1,"isfriend":0,"isfamily":0},{"id":"52705627860","owner":"12639178@N07","secret":"ea76172dcc","server":"65535","farm":66,"title":"Westkanaren-Kolkrabe (Corvus corax subsp. canariensis)","ispublic":1,"isfriend":0,"isfamily":0},{"id":"52703910690","owner":"12639178@N07","secret":"f93c7e2d10","server":"65535","farm":66,"title":"Kolkrabe ruft","ispublic":1,"isfriend":0,"isfamily":0},{"id":"52700686313","owner":"187414945@N08","secret":"e94eac4815","server":"65535","farm":66,"title":"Aguilucho lagunero occidental. Circus aeroginosus","ispublic":1,"isfriend":0,"isfamily":0},{"id":"52700609915","owner":"187414945@N08","secret":"9eff960800","server":"65535","farm":66,"title":"Cuervo grande. Corvus corax","ispublic":1,"isfriend":0,"isfamily":0},{"id":"52699226458","owner":"54807963@N07","secret":"f3fef4066d","server":"65535","farm":66,"title":"Corb","ispublic":1,"isfriend":0,"isfamily":0},{"id":"52698980480","owner":"12639178@N07","secret":"c7588b9fd3","server":"65535","farm":66,"title":"Westkanaren-Kolkrabe (Corvus corax subsp. canariensis)","ispublic":1,"isfriend":0,"isfamily":0},{"id":"52698016837","owner":"12639178@N07","secret":"7e0528c2ed","server":"65535","farm":66,"title":"Beleg Kolkrabe (Corvus corax)","ispublic":1,"isfriend":0,"isfamily":0},{"id":"52696842089","owner":"29894834@N05","secret":"ef740b2f24","server":"65535","farm":66,"title":"\"What's that?\"","ispublic":1,"isfriend":0,"isfamily":0},{"id":"52696935135","owner":"29894834@N05","secret":"9af2bd84b4","server":"65535","farm":66,"title":"I find that nictitating membrane fascinating","ispublic":1,"isfriend":0,"isfamily":0},{"id":"52695910502","owner":"12639178@N07","secret":"3b2fc1d37a","server":"65535","farm":66,"title":"Kolkrabe","ispublic":1,"isfriend":0,"isfamily":0},{"id":"52696688134","owner":"12639178@N07","secret":"6813389477","server":"65535","farm":66,"title":"Kolkrabe ruft laut","ispublic":1,"isfriend":0,"isfamily":0},{"id":"52696619619","owner":"76740876@N07","secret":"5d40953259","server":"65535","farm":66,"title":"PL 1198 10027 M AD 6266 Fa Protected birds of Poland  Corvus corax Common Raven Obi\u010dni gavran Kruk 30.XI.1960.","ispublic":1,"isfriend":0,"isfamily":0},{"id":"52696278953","owner":"42388593@N04","secret":"d24800298e","server":"65535","farm":66,"title":"Ravn, Common raven, Kolkrabe (Corvus corax)-9920","ispublic":1,"isfriend":0,"isfamily":0},{"id":"52694278187","owner":"168495655@N07","secret":"f9b022b49e","server":"65535","farm":66,"title":"Grand Corbeau - Corvus corax - Northern Raven","ispublic":1,"isfriend":0,"isfamily":0},{"id":"52694841559","owner":"196264892@N08","secret":"b77edc2272","server":"65535","farm":66,"title":"Bald Eagle congregation","ispublic":1,"isfriend":0,"isfamily":0},{"id":"52694641958","owner":"44307879@N05","secret":"7d73c6289e","server":"65535","farm":66,"title":"Common raven","ispublic":1,"isfriend":0,"isfamily":0},{"id":"52693793776","owner":"42388593@N04","secret":"273ca86245","server":"65535","farm":66,"title":"Ravn, Common raven, Kolkrabe (Corvus corax)-9917","ispublic":1,"isfriend":0,"isfamily":0},{"id":"52692282584","owner":"12639178@N07","secret":"b5227b6b8f","server":"65535","farm":66,"title":"Kolkrabe (Corvus corax) (1)","ispublic":1,"isfriend":0,"isfamily":0},{"id":"52691099331","owner":"69812270@N00","secret":"183ced3962","server":"65535","farm":66,"title":"Common Raven \"Corvus corax\"","ispublic":1,"isfriend":0,"isfamily":0},{"id":"52690699965","owner":"42388593@N04","secret":"3cd7cd268c","server":"65535","farm":66,"title":"Ravn, Common raven, Kolkrabe (Corvus corax)-9916","ispublic":1,"isfriend":0,"isfamily":0},{"id":"52690643510","owner":"42388593@N04","secret":"ed7218c751","server":"65535","farm":66,"title":"Ravn, Common raven, Kolkrabe (Corvus corax)-9918","ispublic":1,"isfriend":0,"isfamily":0},{"id":"52689661023","owner":"12639178@N07","secret":"cc49bd02cb","server":"65535","farm":66,"title":"kann das ein Kolkrabe sein, der Ruf klang so? Gr\u00f6\u00dfer als hiesige Rabenkr\u00e4he","ispublic":1,"isfriend":0,"isfamily":0},{"id":"52688238371","owner":"59967518@N04","secret":"2cd990882c","server":"65535","farm":66,"title":"0S8A1127. Common Raven (Corvus corax)","ispublic":1,"isfriend":0,"isfamily":0},{"id":"52688730683","owner":"59967518@N04","secret":"7bcc6534b2","server":"65535","farm":66,"title":"0S8A1131. Common Raven (Corvus corax)","ispublic":1,"isfriend":0,"isfamily":0},{"id":"52687370300","owner":"138135639@N06","secret":"27de3111ca","server":"65535","farm":66,"title":"Corvus corax","ispublic":1,"isfriend":0,"isfamily":0},{"id":"52686488619","owner":"52029311@N03","secret":"eb1fea0075","server":"65535","farm":66,"title":"Corvo | Corvus Corax | Crow","ispublic":1,"isfriend":0,"isfamily":0},{"id":"52686677518","owner":"155262602@N05","secret":"f2c5de1664","server":"65535","farm":66,"title":"Common Raven (Corvus corax)","ispublic":1,"isfriend":0,"isfamily":0},{"id":"52685917741","owner":"63093099@N02","secret":"8561da9574","server":"65535","farm":66,"title":"Common Raven; 20230211; USA-WA-Skagit-Padilla Bay","ispublic":1,"isfriend":0,"isfamily":0},{"id":"52686200474","owner":"63093099@N02","secret":"ea1133bcc3","server":"65535","farm":66,"title":"Common Raven; 20230211; USA-WA-Skagit-Padilla Bay","ispublic":1,"isfriend":0,"isfamily":0},{"id":"52686200459","owner":"63093099@N02","secret":"abcbb7aa15","server":"65535","farm":66,"title":"Common Raven; 20230211; USA-WA-Skagit-Padilla Bay","ispublic":1,"isfriend":0,"isfamily":0},{"id":"52685035550","owner":"12639178@N07","secret":"000ef8ccdd","server":"65535","farm":66,"title":"Kolkrabe in \u00fcber 2000 m H\u00f6he - Schweiz","ispublic":1,"isfriend":0,"isfamily":0},{"id":"52685108873","owner":"12639178@N07","secret":"996abd5a5d","server":"65535","farm":66,"title":"Kolkraben in \u00fcber 2000 m H\u00f6he - Schweiz","ispublic":1,"isfriend":0,"isfamily":0},{"id":"52684095522","owner":"12639178@N07","secret":"a9fa6ba949","server":"65535","farm":66,"title":"Kolkrabe in \u00fcber 2000 m H\u00f6he - Schweiz","ispublic":1,"isfriend":0,"isfamily":0},{"id":"52684382435","owner":"12639178@N07","secret":"875e8e9e6b","server":"65535","farm":66,"title":"2 Kolkraben lautstark unterwegs","ispublic":1,"isfriend":0,"isfamily":0},{"id":"52684239734","owner":"12639178@N07","secret":"771c458674","server":"65535","farm":66,"title":"2 Kolkraben lautstark unterwegs","ispublic":1,"isfriend":0,"isfamily":0},{"id":"52683067171","owner":"12639178@N07","secret":"e19d7a5d07","server":"65535","farm":66,"title":"Kolkrabe (Corvus corax)","ispublic":1,"isfriend":0,"isfamily":0},{"id":"52682923509","owner":"135328172@N06","secret":"083c2f2935","server":"65535","farm":66,"title":"Corvus corax - Northern Raven","ispublic":1,"isfriend":0,"isfamily":0},{"id":"52682037792","owner":"57225437@N02","secret":"c1156459d4","server":"65535","farm":66,"title":"Grand corbeau (Corvus corax)","ispublic":1,"isfriend":0,"isfamily":0},{"id":"52682671364","owner":"135328172@N06","secret":"e602f40c35","server":"65535","farm":66,"title":"Corvus corax - Northern Raven","ispublic":1,"isfriend":0,"isfamily":0},{"id":"52682670929","owner":"135328172@N06","secret":"4da89dc749","server":"65535","farm":66,"title":"Corvus corax - Northern Raven","ispublic":1,"isfriend":0,"isfamily":0},{"id":"52679561217","owner":"59967518@N04","secret":"d5dc34096f","server":"65535","farm":66,"title":"0S8A1117. Common Raven (Corvus corax)","ispublic":1,"isfriend":0,"isfamily":0},{"id":"52680575143","owner":"59967518@N04","secret":"489e6c9a9e","server":"65535","farm":66,"title":"0S8A1116. Common Raven (Corvus corax)","ispublic":1,"isfriend":0,"isfamily":0},{"id":"52680077551","owner":"59967518@N04","secret":"175646a762","server":"65535","farm":66,"title":"0S8A1126. Common Raven (Corvus corax)","ispublic":1,"isfriend":0,"isfamily":0},{"id":"52680056749","owner":"12639178@N07","secret":"80f5002868","server":"65535","farm":66,"title":"K\u00fcnftige AKW-Entsorgungsdeponie","ispublic":1,"isfriend":0,"isfamily":0},{"id":"52679271079","owner":"191391950@N02","secret":"ec23ddd11d","server":"65535","farm":66,"title":"Grand Corbeau - Corvus corax","ispublic":1,"isfriend":0,"isfamily":0},{"id":"52678622896","owner":"18217058@N04","secret":"3b0a36ba45","server":"65535","farm":66,"title":"Common raven \/ Hrafn (Corvus corax)","ispublic":1,"isfriend":0,"isfamily":0},{"id":"52700454019","owner":"187414945@N08","secret":"86ffe5f541","server":"65535","farm":66,"title":"Busardo ratonero. Ratonero com\u00fan. Buteo buteo","ispublic":1,"isfriend":0,"isfamily":0},{"id":"52699817391","owner":"197745515@N06","secret":"bec7410e98","server":"65535","farm":66,"title":"Corvus corax","ispublic":1,"isfriend":0,"isfamily":0},{"id":"52694493204","owner":"12639178@N07","secret":"7603803826","server":"65535","farm":66,"title":"..Partner des umherfliegenden Kolkrabenpaares..","ispublic":1,"isfriend":0,"isfamily":0},{"id":"52684419411","owner":"12639178@N07","secret":"8e7c4ff116","server":"65535","farm":66,"title":"Raben Revierstreitigkeit","ispublic":1,"isfriend":0,"isfamily":0},{"id":"52684918158","owner":"12639178@N07","secret":"6b292a648e","server":"65535","farm":66,"title":"Raben Revierstreitigkeit","ispublic":1,"isfriend":0,"isfamily":0},{"id":"52684701949","owner":"12639178@N07","secret":"88060def10","server":"65535","farm":66,"title":"Raben Revierstreitigkeit","ispublic":1,"isfriend":0,"isfamily":0}]},"stat":"ok"}