{"photos":{"page":1,"pages":117,"perpage":100,"total":11673,"photo":[{"id":"52793496383","owner":"58148027@N07","secret":"0f52ec5bd5","server":"65535","farm":66,"title":"Cooper's Hawk juvenile 2023-04-03 \u00a9Kevin S Lucas","ispublic":1,"isfriend":0,"isfamily":0},{"id":"52792332952","owner":"161505078@N03","secret":"7ca6d970fe","server":"65535","farm":66,"title":"Cooper's Hawk (Accipiter cooperii)","ispublic":1,"isfriend":0,"isfamily":0},{"id":"52793078005","owner":"161505078@N03","secret":"9503e3f015","server":"65535","farm":66,"title":"Cooper's Hawk (Accipiter cooperii)","ispublic":1,"isfriend":0,"isfamily":0},{"id":"52793113293","owner":"161505078@N03","secret":"6750028062","server":"65535","farm":66,"title":"Cooper's Hawk (Accipiter cooperii)","ispublic":1,"isfriend":0,"isfamily":0},{"id":"52792652596","owner":"161505078@N03","secret":"6130ec969f","server":"65535","farm":66,"title":"Cooper's Hawk (Accipiter cooperii)","ispublic":1,"isfriend":0,"isfamily":0},{"id":"52792060167","owner":"161505078@N03","secret":"d0ccd8351d","server":"65535","farm":66,"title":"Cooper's Hawk (Accipiter cooperii)","ispublic":1,"isfriend":0,"isfamily":0},{"id":"52789823607","owner":"54683012@N04","secret":"9a686edc23","server":"65535","farm":66,"title":"A watchful eye","ispublic":1,"isfriend":0,"isfamily":0},{"id":"52790737870","owner":"161505078@N03","secret":"fb3278e3ee","server":"65535","farm":66,"title":"Cooper's Hawk (Accipiter cooperii)","ispublic":1,"isfriend":0,"isfamily":0},{"id":"52789506633","owner":"198024963@N07","secret":"7bda0a0db1","server":"65535","farm":66,"title":"Cooper's Hawk","ispublic":1,"isfriend":0,"isfamily":0},{"id":"52789286664","owner":"198024963@N07","secret":"5095b88c18","server":"65535","farm":66,"title":"Cooper's Hawk","ispublic":1,"isfriend":0,"isfamily":0},{"id":"52789506543","owner":"198024963@N07","secret":"47e09f1630","server":"65535","farm":66,"title":"Cooper's Hawk","ispublic":1,"isfriend":0,"isfamily":0},{"id":"52788917476","owner":"31379783@N02","secret":"14a03b4352","server":"65535","farm":66,"title":"\u00c9pervier de Cooper - Accipiter cooperii - Cooper's Hawk.dng","ispublic":1,"isfriend":0,"isfamily":0},{"id":"52786951417","owner":"188156748@N07","secret":"34edcb93f0","server":"65535","farm":66,"title":"Cooper's Hawk - \u00c9pervier de Cooper - Accipiter cooperii  0501 (36)-SharpenAI-Standard copy.jpgS","ispublic":1,"isfriend":0,"isfamily":0},{"id":"52787737789","owner":"188156748@N07","secret":"5ab37011c3","server":"65535","farm":66,"title":"Cooper's Hawk - \u00c9pervier de Cooper - Accipiter cooperii  0501 (48)-SharpenAI-Standard copy.jpgS","ispublic":1,"isfriend":0,"isfamily":0},{"id":"52787506696","owner":"188156748@N07","secret":"1d4090aac1","server":"65535","farm":66,"title":"Cooper's Hawk - \u00c9pervier de Cooper - Accipiter cooperii  0501 (67)-SharpenAI-Standard copy.jpgS","ispublic":1,"isfriend":0,"isfamily":0},{"id":"52787737749","owner":"188156748@N07","secret":"3278e1f48a","server":"65535","farm":66,"title":"Cooper's Hawk - \u00c9pervier de Cooper - Accipiter cooperii  0501 (61)-SharpenAI-Standard copy.jpgS","ispublic":1,"isfriend":0,"isfamily":0},{"id":"52787506641","owner":"188156748@N07","secret":"6aa7370da3","server":"65535","farm":66,"title":"Cooper's Hawk - \u00c9pervier de Cooper - Accipiter cooperii  0501 (81)-SharpenAI-Standard copy.jpgS","ispublic":1,"isfriend":0,"isfamily":0},{"id":"52787737659","owner":"188156748@N07","secret":"bf846a1136","server":"65535","farm":66,"title":"Cooper's Hawk - \u00c9pervier de Cooper - Accipiter cooperii  0501 (88)-SharpenAI-Standard copy.jpgS","ispublic":1,"isfriend":0,"isfamily":0},{"id":"52786951262","owner":"188156748@N07","secret":"9556b5d29e","server":"65535","farm":66,"title":"Cooper's Hawk - \u00c9pervier de Cooper - Accipiter cooperii  0501 (89)-SharpenAI-Standard copy.jpgS","ispublic":1,"isfriend":0,"isfamily":0},{"id":"52787903980","owner":"188156748@N07","secret":"773aec6e47","server":"65535","farm":66,"title":"Cooper's Hawk - \u00c9pervier de Cooper - Accipiter cooperii  0501 (142)-SharpenAI-Standard copy.jpgS","ispublic":1,"isfriend":0,"isfamily":0},{"id":"52787506521","owner":"188156748@N07","secret":"c302301e9c","server":"65535","farm":66,"title":"Cooper's Hawk - \u00c9pervier de Cooper - Accipiter cooperii  0501 (143)-SharpenAI-Standard copy.jpgS","ispublic":1,"isfriend":0,"isfamily":0},{"id":"52786951182","owner":"188156748@N07","secret":"696aed8cec","server":"65535","farm":66,"title":"Cooper's Hawk - \u00c9pervier de Cooper - Accipiter cooperii  0501 (145)-SharpenAI-Standard copy.jpgS","ispublic":1,"isfriend":0,"isfamily":0},{"id":"52787956258","owner":"188156748@N07","secret":"9c4a520aca","server":"65535","farm":66,"title":"Cooper's Hawk - \u00c9pervier de Cooper - Accipiter cooperii  0501 (147)-SharpenAI-Standard copy.jpgS","ispublic":1,"isfriend":0,"isfamily":0},{"id":"52787956218","owner":"188156748@N07","secret":"cd72751f78","server":"65535","farm":66,"title":"Cooper's Hawk - \u00c9pervier de Cooper - Accipiter cooperii  0501 (148)-SharpenAI-Standard copy.jpgS","ispublic":1,"isfriend":0,"isfamily":0},{"id":"52787737419","owner":"188156748@N07","secret":"770e6c1551","server":"65535","farm":66,"title":"Cooper's Hawk - \u00c9pervier de Cooper - Accipiter cooperii  0501 (149)-SharpenAI-Standard copy.jpgS","ispublic":1,"isfriend":0,"isfamily":0},{"id":"52787903775","owner":"188156748@N07","secret":"d147d263b3","server":"65535","farm":66,"title":"Cooper's Hawk - \u00c9pervier de Cooper - Accipiter cooperii  0501 (151)-SharpenAI-Standard copy.jpgS","ispublic":1,"isfriend":0,"isfamily":0},{"id":"52787737354","owner":"188156748@N07","secret":"4dcf559d28","server":"65535","farm":66,"title":"Cooper's Hawk - \u00c9pervier de Cooper - Accipiter cooperii  0501 (155)-SharpenAI-Standard copy.jpgS","ispublic":1,"isfriend":0,"isfamily":0},{"id":"52787903680","owner":"188156748@N07","secret":"4cc0162c8f","server":"65535","farm":66,"title":"Cooper's Hawk - \u00c9pervier de Cooper - Accipiter cooperii  0501 (175)-SharpenAI-Standard copy.jpgS","ispublic":1,"isfriend":0,"isfamily":0},{"id":"52787262396","owner":"186604745@N03","secret":"a542565093","server":"65535","farm":66,"title":"\u00c9pervier de Cooper \\ Cooper's Hawk","ispublic":1,"isfriend":0,"isfamily":0},{"id":"52786698712","owner":"186604745@N03","secret":"45628b33ce","server":"65535","farm":66,"title":"\u00c9pervier de Cooper \\ Cooper's Hawk","ispublic":1,"isfriend":0,"isfamily":0},{"id":"52787254496","owner":"186604745@N03","secret":"9d5f47332b","server":"65535","farm":66,"title":"\u00c9pervier de Cooper \\ Cooper's Hawk","ispublic":1,"isfriend":0,"isfamily":0},{"id":"52785668995","owner":"131037795@N03","secret":"b43f14a4f5","server":"65535","farm":66,"title":"Cooper's Hawk (Accipiter cooperii)","ispublic":1,"isfriend":0,"isfamily":0},{"id":"52785509764","owner":"131037795@N03","secret":"7fec51c92e","server":"65535","farm":66,"title":"Cooper's Hawk (Accipiter cooperii)","ispublic":1,"isfriend":0,"isfamily":0},{"id":"52785724603","owner":"131037795@N03","secret":"28c28d9dd9","server":"65535","farm":66,"title":"Cooper's Hawk (Accipiter cooperii)","ispublic":1,"isfriend":0,"isfamily":0},{"id":"52784577174","owner":"159284114@N07","secret":"fc16f12cd7","server":"65535","farm":66,"title":"\u00c9pervier de Cooper, Cooper's hawk","ispublic":1,"isfriend":0,"isfamily":0},{"id":"52784050900","owner":"161505078@N03","secret":"8917280f81","server":"65535","farm":66,"title":"Cooper's Hawk (Accipiter cooperii)","ispublic":1,"isfriend":0,"isfamily":0},{"id":"52783780883","owner":"161505078@N03","secret":"82a6c5830f","server":"65535","farm":66,"title":"Cooper's Hawk (Accipiter cooperii)","ispublic":1,"isfriend":0,"isfamily":0},{"id":"52779676512","owner":"186604745@N03","secret":"8a7b5e034a","server":"65535","farm":66,"title":"\u00c9pervier de Cooper \\ Cooper's Hawk","ispublic":1,"isfriend":0,"isfamily":0},{"id":"52779676412","owner":"186604745@N03","secret":"4c59c52d36","server":"65535","farm":66,"title":"\u00c9pervier de Cooper \\ Cooper's Hawk","ispublic":1,"isfriend":0,"isfamily":0},{"id":"52780627335","owner":"186604745@N03","secret":"9516801b62","server":"65535","farm":66,"title":"\u00c9pervier de Cooper \\ Cooper's Hawk","ispublic":1,"isfriend":0,"isfamily":0},{"id":"52772815462","owner":"37566919@N02","secret":"08a2be1d29","server":"65535","farm":66,"title":"Cooper's Hawk, male","ispublic":1,"isfriend":0,"isfamily":0},{"id":"52772424407","owner":"37566919@N02","secret":"0d64185865","server":"65535","farm":66,"title":"Cooper's Hawk, female","ispublic":1,"isfriend":0,"isfamily":0},{"id":"52770936194","owner":"187792860@N04","secret":"14fd999397","server":"65535","farm":66,"title":"Cooper's Hawk (Accipiter cooperii)","ispublic":1,"isfriend":0,"isfamily":0},{"id":"52770332956","owner":"161505078@N03","secret":"15ece4c028","server":"65535","farm":66,"title":"Cooper's Hawk (Accipiter cooperii)","ispublic":1,"isfriend":0,"isfamily":0},{"id":"52770651053","owner":"161505078@N03","secret":"c253aef1e9","server":"65535","farm":66,"title":"Cooper's Hawk (Accipiter cooperii)","ispublic":1,"isfriend":0,"isfamily":0},{"id":"52770256034","owner":"161505078@N03","secret":"66b2dbf452","server":"65535","farm":66,"title":"Cooper's Hawk (Accipiter cooperii)","ispublic":1,"isfriend":0,"isfamily":0},{"id":"52769673698","owner":"85277889@N08","secret":"caa355dcf8","server":"65535","farm":66,"title":"Cooper's Hawk (Accipiter cooperii) 2023-03-24 (5)","ispublic":1,"isfriend":0,"isfamily":0},{"id":"52769600265","owner":"85277889@N08","secret":"594c7de10d","server":"65535","farm":66,"title":"Cooper's Hawk (Accipiter cooperii) 2023-03-24 (6)","ispublic":1,"isfriend":0,"isfamily":0},{"id":"52766325779","owner":"161505078@N03","secret":"83a178b7f6","server":"65535","farm":66,"title":"Cooper's Hawk (Accipiter cooperii)","ispublic":1,"isfriend":0,"isfamily":0},{"id":"52765822968","owner":"22293205@N05","secret":"5f0d20129a","server":"65535","farm":66,"title":"Cooper's Hawk \u5eab\u67cf\u9df9 2","ispublic":1,"isfriend":0,"isfamily":0},{"id":"52763910682","owner":"161505078@N03","secret":"d56e89b354","server":"65535","farm":66,"title":"Cooper's Hawk (Accipiter cooperii)","ispublic":1,"isfriend":0,"isfamily":0},{"id":"52764748480","owner":"161505078@N03","secret":"2877d94ee5","server":"65535","farm":66,"title":"Cooper's Hawk (Accipiter cooperii)","ispublic":1,"isfriend":0,"isfamily":0},{"id":"52764446679","owner":"161505078@N03","secret":"d2134e9b98","server":"65535","farm":66,"title":"Cooper's Hawk (Accipiter cooperii)","ispublic":1,"isfriend":0,"isfamily":0},{"id":"52763321548","owner":"161505078@N03","secret":"84bdd04e08","server":"65535","farm":66,"title":"Cooper's Hawk (Accipiter cooperii)","ispublic":1,"isfriend":0,"isfamily":0},{"id":"52761677208","owner":"132638863@N04","secret":"55205341bb","server":"65535","farm":66,"title":"Cooper's Hawk \/ \u00c9pervier de Cooper","ispublic":1,"isfriend":0,"isfamily":0},{"id":"52756843385","owner":"31379783@N02","secret":"fb0902d3ab","server":"65535","farm":66,"title":"\u00c9pervier de Cooper - Accipiter cooperii - Cooper's Hawk","ispublic":1,"isfriend":0,"isfamily":0},{"id":"52756439426","owner":"31379783@N02","secret":"8e18a1b3bc","server":"65535","farm":66,"title":"\u00c9pervier de Cooper - Accipiter cooperii - Cooper's Hawk","ispublic":1,"isfriend":0,"isfamily":0},{"id":"52756922668","owner":"31379783@N02","secret":"18cd6837ed","server":"65535","farm":66,"title":"\u00c9pervier de Cooper - Accipiter cooperii - Cooper's Hawk","ispublic":1,"isfriend":0,"isfamily":0},{"id":"52752985221","owner":"161505078@N03","secret":"7078cb5aca","server":"65535","farm":66,"title":"Cooper's Hawk (Accipiter cooperii)","ispublic":1,"isfriend":0,"isfamily":0},{"id":"52752441672","owner":"161505078@N03","secret":"ab0e1eebcf","server":"65535","farm":66,"title":"Cooper's Hawk (Accipiter cooperii)","ispublic":1,"isfriend":0,"isfamily":0},{"id":"52752895356","owner":"168495655@N07","secret":"50087b05f5","server":"65535","farm":66,"title":"\u00c9pervier de Cooper - Accipiter cooperii - Cooper's Hawk","ispublic":1,"isfriend":0,"isfamily":0},{"id":"52752895241","owner":"168495655@N07","secret":"acacc0e859","server":"65535","farm":66,"title":"\u00c9pervier de Cooper - Accipiter cooperii - Cooper's Hawk","ispublic":1,"isfriend":0,"isfamily":0},{"id":"52752631245","owner":"161505078@N03","secret":"b2214bc7dc","server":"65535","farm":66,"title":"Cooper's Hawk (Accipiter cooperii)","ispublic":1,"isfriend":0,"isfamily":0},{"id":"52750741997","owner":"161505078@N03","secret":"827d437ac6","server":"65535","farm":66,"title":"Cooper's Hawk (Accipiter cooperii)","ispublic":1,"isfriend":0,"isfamily":0},{"id":"52751604715","owner":"161505078@N03","secret":"a583cb57fd","server":"65535","farm":66,"title":"Cooper's Hawk (Accipiter cooperii)","ispublic":1,"isfriend":0,"isfamily":0},{"id":"52751303470","owner":"161505078@N03","secret":"0bef7497b7","server":"65535","farm":66,"title":"Cooper's Hawk (Accipiter cooperii)","ispublic":1,"isfriend":0,"isfamily":0},{"id":"52748949236","owner":"161505078@N03","secret":"71dbc70cbd","server":"65535","farm":66,"title":"Cooper's Hawk (Accipiter cooperii)","ispublic":1,"isfriend":0,"isfamily":0},{"id":"52747305854","owner":"161505078@N03","secret":"2cd9499d66","server":"65535","farm":66,"title":"Cooper's Hawk (Accipiter cooperii)","ispublic":1,"isfriend":0,"isfamily":0},{"id":"52747230370","owner":"161505078@N03","secret":"e0656bb83b","server":"65535","farm":66,"title":"Cooper's Hawk (Accipiter cooperii)","ispublic":1,"isfriend":0,"isfamily":0},{"id":"52746652664","owner":"18353215@N00","secret":"664eeae7b6","server":"65535","farm":66,"title":"Young Cooper's Hawk","ispublic":1,"isfriend":0,"isfamily":0},{"id":"52745439333","owner":"126297346@N07","secret":"4ca9d8422b","server":"65535","farm":66,"title":"Portrait de l'\u00c9pervier de Cooper | Arboretum Stephen-Langevin | Boucherville, Qu\u00e9bec","ispublic":1,"isfriend":0,"isfamily":0},{"id":"52743514717","owner":"14028010@N00","secret":"6b3e727be0","server":"65535","farm":66,"title":"Coopers Hawk","ispublic":1,"isfriend":0,"isfamily":0},{"id":"52744447795","owner":"14028010@N00","secret":"e1855a3df2","server":"65535","farm":66,"title":"Coopers Hawk","ispublic":1,"isfriend":0,"isfamily":0},{"id":"52743159107","owner":"49246330@N00","secret":"a23701e9a7","server":"65535","farm":66,"title":"Cooper's Hawk","ispublic":1,"isfriend":0,"isfamily":0},{"id":"52742524021","owner":"193835300@N08","secret":"fb662d9754","server":"65535","farm":66,"title":"\u00c9pervier de Cooper - Cooper's hawk - Accipiter cooperii","ispublic":1,"isfriend":0,"isfamily":0},{"id":"52742731663","owner":"161505078@N03","secret":"b0a0b2feb6","server":"65535","farm":66,"title":"Cooper's Hawk (Accipiter cooperii)","ispublic":1,"isfriend":0,"isfamily":0},{"id":"52739164330","owner":"62907378@N07","secret":"549e8525fa","server":"65535","farm":66,"title":"Cooper's Hawk (Accipiter cooperii)","ispublic":1,"isfriend":0,"isfamily":0},{"id":"52738232412","owner":"62907378@N07","secret":"fdfe48f146","server":"65535","farm":66,"title":"Cooper's Hawk (Accipiter cooperii)","ispublic":1,"isfriend":0,"isfamily":0},{"id":"52738811981","owner":"150275643@N07","secret":"ec12be07f1","server":"65535","farm":66,"title":"IMG_9554","ispublic":1,"isfriend":0,"isfamily":0},{"id":"52739045734","owner":"150275643@N07","secret":"211d562f6d","server":"65535","farm":66,"title":"IMG_9737","ispublic":1,"isfriend":0,"isfamily":0},{"id":"52734006166","owner":"161505078@N03","secret":"6a5cbf0e36","server":"65535","farm":66,"title":"Cooper's Hawk (Accipiter cooperii)","ispublic":1,"isfriend":0,"isfamily":0},{"id":"52733471594","owner":"136620261@N06","secret":"c4d10b9bbd","server":"65535","farm":66,"title":"\u00c9pervier de Cooper, Accipiter cooperi, Cooper's Hawk-5017.jpg","ispublic":1,"isfriend":0,"isfamily":0},{"id":"52732657897","owner":"8561740@N08","secret":"ef899973f3","server":"65535","farm":66,"title":"Cooper's Hawk (Accipiter cooperii)","ispublic":1,"isfriend":0,"isfamily":0},{"id":"52728954902","owner":"187124972@N03","secret":"010f1fe87e","server":"65535","farm":66,"title":"\u00c9PERVIER DE COOPER \/ COOPER'S HAWK (Accipiter cooperii)","ispublic":1,"isfriend":0,"isfamily":0},{"id":"52725874657","owner":"99849996@N00","secret":"319fa498a8","server":"65535","farm":66,"title":"Cooper's Hawk 20220214_0671","ispublic":1,"isfriend":0,"isfamily":0},{"id":"52724418907","owner":"165841515@N03","secret":"4a92047057","server":"65535","farm":66,"title":"\u00c9pervier de Cooper \/ Cooper\u2019s Hawk \/ (Accipiter Cooperii)","ispublic":1,"isfriend":0,"isfamily":0},{"id":"52724418497","owner":"165841515@N03","secret":"8647153bac","server":"65535","farm":66,"title":"\u00c9pervier de Cooper \/ Cooper\u2019s Hawk \/ (Accipiter Cooperii)","ispublic":1,"isfriend":0,"isfamily":0},{"id":"52724417992","owner":"165841515@N03","secret":"8b6f3c0645","server":"65535","farm":66,"title":"\u00c9pervier de Cooper \/ Cooper\u2019s Hawk \/ (Accipiter Cooperii)","ispublic":1,"isfriend":0,"isfamily":0},{"id":"52724912088","owner":"65148649@N04","secret":"a591709db1","server":"65535","farm":66,"title":"Cooper's Hawk 02.25.23 Frye","ispublic":1,"isfriend":0,"isfamily":0},{"id":"52724912103","owner":"65148649@N04","secret":"a166fa69ef","server":"65535","farm":66,"title":"Cooper's Hawk 2 02.25.23 Frye","ispublic":1,"isfriend":0,"isfamily":0},{"id":"52724029780","owner":"188156748@N07","secret":"e852d91f6e","server":"65535","farm":66,"title":"Cooper's Hawk - \u00c9pervier de Cooper - Accipiter cooperii  6519 (10)-SharpenAI-Standard copy.jpgS","ispublic":1,"isfriend":0,"isfamily":0},{"id":"52723623241","owner":"188156748@N07","secret":"bc4ed08b2b","server":"65535","farm":66,"title":"Cooper's Hawk - \u00c9pervier de Cooper - Accipiter cooperii  6519 (11)-SharpenAI-Standard copy.jpgS","ispublic":1,"isfriend":0,"isfamily":0},{"id":"52724029740","owner":"188156748@N07","secret":"14822e8fcb","server":"65535","farm":66,"title":"Cooper's Hawk - \u00c9pervier de Cooper - Accipiter cooperii  6519 (27)-SharpenAI-Standard copy.jpgS","ispublic":1,"isfriend":0,"isfamily":0},{"id":"52723859380","owner":"61241315@N00","secret":"bda6c9b751","server":"0","farm":0,"title":"Immature Cooper's Hawk_0071.MP4","ispublic":1,"isfriend":0,"isfamily":0},{"id":"52723711109","owner":"61241315@N00","secret":"1e3d26c761","server":"0","farm":0,"title":"Immature Cooper's Hawk_0067.MP4","ispublic":1,"isfriend":0,"isfamily":0},{"id":"52723860830","owner":"61241315@N00","secret":"3eb57d9df5","server":"65535","farm":66,"title":"Immature Cooper's Hawk_N0065","ispublic":1,"isfriend":0,"isfamily":0},{"id":"52723454986","owner":"61241315@N00","secret":"4dd75e530a","server":"65535","farm":66,"title":"Immature Cooper's Hawk_N0069","ispublic":1,"isfriend":0,"isfamily":0},{"id":"52723454966","owner":"61241315@N00","secret":"6df06afb07","server":"65535","farm":66,"title":"Immature Cooper's Hawk_N0074","ispublic":1,"isfriend":0,"isfamily":0},{"id":"52722927797","owner":"61241315@N00","secret":"d98c553ea6","server":"65535","farm":66,"title":"Immature Cooper's Hawk_N0075","ispublic":1,"isfriend":0,"isfamily":0},{"id":"52765823043","owner":"22293205@N05","secret":"bd860fc3a2","server":"65535","farm":66,"title":"Cooper's Hawk \u5eab\u67cf\u9df9 1","ispublic":1,"isfriend":0,"isfamily":0}]},"stat":"ok"}