{"photos":{"page":1,"pages":2,"perpage":100,"total":183,"photo":[{"id":"52721504724","owner":"77128742@N06","secret":"ce71ae5285","server":"65535","farm":66,"title":"Da\u0308umlingsnektarvogel_Leptocoma minima-4","ispublic":1,"isfriend":0,"isfamily":0},{"id":"52129513067","owner":"79476731@N00","secret":"7dcaeb12bc","server":"65535","farm":66,"title":"The Crimson Back of The Crimson Backed Sunbird","ispublic":1,"isfriend":0,"isfamily":0},{"id":"51220708469","owner":"30120110@N02","secret":"434c603043","server":"65535","farm":66,"title":"Crimson-backed sunbird","ispublic":1,"isfriend":0,"isfamily":0},{"id":"51005975732","owner":"30120110@N02","secret":"d60caaba2d","server":"65535","farm":66,"title":"Crimson-backed sunbird","ispublic":1,"isfriend":0,"isfamily":0},{"id":"50134114648","owner":"140507227@N08","secret":"b6dfca7c99","server":"65535","farm":66,"title":"Crimson-backed sunbird (Leptocoma minima)","ispublic":1,"isfriend":0,"isfamily":0},{"id":"49902798188","owner":"154347912@N05","secret":"825f1c1b8e","server":"65535","farm":66,"title":"Crimson-backed sunbird (Leptocoma minima) female","ispublic":1,"isfriend":0,"isfamily":0},{"id":"49902755438","owner":"154347912@N05","secret":"8a7df75dfe","server":"65535","farm":66,"title":"Crimson-backed sunbirds (Leptocoma minima)","ispublic":1,"isfriend":0,"isfamily":0},{"id":"49899963503","owner":"154347912@N05","secret":"72f4a38584","server":"65535","farm":66,"title":"Crimson-backed sunbird (Leptocoma minima) male","ispublic":1,"isfriend":0,"isfamily":0},{"id":"49847990977","owner":"154347912@N05","secret":"e03501a1ec","server":"65535","farm":66,"title":"Crimson-backed sunbird (Leptocoma minima)","ispublic":1,"isfriend":0,"isfamily":0},{"id":"49783051348","owner":"154347912@N05","secret":"1a00d68fe4","server":"65535","farm":66,"title":"Crimson-backed sunbirds (Leptocoma minima)","ispublic":1,"isfriend":0,"isfamily":0},{"id":"49629737843","owner":"152486732@N07","secret":"ec00b8df5a","server":"65535","farm":66,"title":"Goa [Cotigao] D\u00e4umlingsnektarvogel Engl. crimson-backed sunbird (Leptocoma minima) [female]","ispublic":1,"isfriend":0,"isfamily":0},{"id":"49617314608","owner":"152486732@N07","secret":"fdc79b16ff","server":"65535","farm":66,"title":"Karnataka [Dandeli] D\u00e4umlingsnektarvogel Engl. crimson-backed sunbird (Leptocoma minima) [female]","ispublic":1,"isfriend":0,"isfamily":0},{"id":"49617834836","owner":"152486732@N07","secret":"e130380166","server":"65535","farm":66,"title":"Karnataka [Dandeli] D\u00e4umlingsnektarvogel Engl. crimson-backed sunbird (Leptocoma minima) [female]","ispublic":1,"isfriend":0,"isfamily":0},{"id":"49509696238","owner":"71419827@N00","secret":"93feae346b","server":"65535","farm":66,"title":"The tiny colourful fellow","ispublic":1,"isfriend":0,"isfamily":0},{"id":"49353367258","owner":"23285057@N04","secret":"4236d62aca","server":"65535","farm":66,"title":"Crimson-Backed Sunbird (F)","ispublic":1,"isfriend":0,"isfamily":0},{"id":"49270769663","owner":"23285057@N04","secret":"3c42e82398","server":"65535","farm":66,"title":"Crimson-Backed Sunbird","ispublic":1,"isfriend":0,"isfamily":0},{"id":"49078698381","owner":"70804987@N00","secret":"f1a3bef4b0","server":"65535","farm":66,"title":"Crimson-backed Sunbird","ispublic":1,"isfriend":0,"isfamily":0},{"id":"46972242002","owner":"152461355@N03","secret":"0dd7f0ff38","server":"4876","farm":5,"title":"Crimson-backed Sunbird (Leptocoma minima)","ispublic":1,"isfriend":0,"isfamily":0},{"id":"46983051201","owner":"35865205@N07","secret":"21a690ea35","server":"7902","farm":8,"title":"Crimson-backed sunbird or small sunbird (Leptocoma minima)","ispublic":1,"isfriend":0,"isfamily":0},{"id":"45837384965","owner":"7200351@N08","secret":"b7ca5afdfc","server":"4830","farm":5,"title":"Leptocoma minima - male","ispublic":1,"isfriend":0,"isfamily":0},{"id":"44988827691","owner":"92469215@N07","secret":"aa9a6c7913","server":"1937","farm":2,"title":"Crimson-backed Sunbird","ispublic":1,"isfriend":0,"isfamily":0},{"id":"44988825381","owner":"92469215@N07","secret":"ca744ff584","server":"1927","farm":2,"title":"Crimson-backed Sunbird (Uncropped)","ispublic":1,"isfriend":0,"isfamily":0},{"id":"40248076034","owner":"77938582@N06","secret":"e6738398e1","server":"804","farm":1,"title":"Crimson Backed Sunbird","ispublic":1,"isfriend":0,"isfamily":0},{"id":"25937781837","owner":"78258237@N00","secret":"0d13a3140c","server":"4776","farm":5,"title":"Crimson-backed sunbird or small sunbird (Leptocoma minima) Eclipse male. from my estate.","ispublic":1,"isfriend":0,"isfamily":0},{"id":"39956302374","owner":"30120110@N02","secret":"75e5133b59","server":"4706","farm":5,"title":"Crimson-backed sunbird male in eclipse plumage","ispublic":1,"isfriend":0,"isfamily":0},{"id":"38612392040","owner":"117576577@N03","secret":"0c4e88c12d","server":"4701","farm":5,"title":"Crimson-backed Sunbird Leptocoma minima Goa India 23","ispublic":1,"isfriend":0,"isfamily":0},{"id":"39527286935","owner":"117576577@N03","secret":"72d10211dc","server":"4670","farm":5,"title":"Crimson-backed Sunbird Leptocoma minima Backwoods Camp Goa 15","ispublic":1,"isfriend":0,"isfamily":0},{"id":"39417571805","owner":"142422788@N06","secret":"4a99eb21e2","server":"4625","farm":5,"title":"crimson backed sunbird (leptocoma minima) - male","ispublic":1,"isfriend":0,"isfamily":0},{"id":"28122054189","owner":"54745432@N00","secret":"3bc5a944d7","server":"4632","farm":5,"title":"Crimson-Backed Sunbird","ispublic":1,"isfriend":0,"isfamily":0},{"id":"27804096699","owner":"142422788@N06","secret":"0c38658e08","server":"4641","farm":5,"title":"crimson backed sunbird (leptocoma minima) - female","ispublic":1,"isfriend":0,"isfamily":0},{"id":"35089782543","owner":"92292163@N06","secret":"cfe01c4776","server":"4207","farm":5,"title":"Crimson-backed Sunbird - Female.","ispublic":1,"isfriend":0,"isfamily":0},{"id":"35089782523","owner":"92292163@N06","secret":"fe77b47574","server":"4316","farm":5,"title":"Crimson-backed Sunbird - Female.","ispublic":1,"isfriend":0,"isfamily":0},{"id":"34025804820","owner":"129855082@N02","secret":"08c414f142","server":"2869","farm":3,"title":"Crimson backed Sunbird - eclipse male","ispublic":1,"isfriend":0,"isfamily":0},{"id":"33935715562","owner":"95610786@N07","secret":"59466a2a29","server":"2945","farm":3,"title":"Souimanga menu-Leptocoma minima - Crimson-backed Sunbird 5052_DxO.jpg","ispublic":1,"isfriend":0,"isfamily":0},{"id":"32898890660","owner":"39072595@N03","secret":"66c3c3ac02","server":"2906","farm":3,"title":"Crimson Backed Sunbird","ispublic":1,"isfriend":0,"isfamily":0},{"id":"32349802395","owner":"78258237@N00","secret":"225e0b5d60","server":"604","farm":1,"title":"The Crimson Backed Sunbird or Small Sunbird (Leptocoma Minima) ...","ispublic":1,"isfriend":0,"isfamily":0},{"id":"29065694243","owner":"40278042@N08","secret":"32fc22efb7","server":"8245","farm":9,"title":"crimson-backed-sunbird-(Leptocoma-minima)","ispublic":1,"isfriend":0,"isfamily":0},{"id":"23979809993","owner":"47418567@N08","secret":"3c108b73d8","server":"1589","farm":2,"title":"Crimson-backed sunbird (Leptocoma minima)","ispublic":1,"isfriend":0,"isfamily":0},{"id":"23478154774","owner":"54780974@N06","secret":"caf84a17c6","server":"65535","farm":66,"title":"Crimson Backed Sunbird","ispublic":1,"isfriend":0,"isfamily":0},{"id":"22877115952","owner":"47418567@N08","secret":"96f4d9f592","server":"5717","farm":6,"title":"Crimson-backed sunbird (Leptocoma minima) \u0cb8\u0ca3\u0ccd\u0ca3 \u0cb8\u0cc2\u0cb0\u0c95\u0ccd\u0c95\u0cbf male","ispublic":1,"isfriend":0,"isfamily":0},{"id":"20902518050","owner":"93341541@N02","secret":"98cbf8c2e8","server":"713","farm":1,"title":"Crimson-backed Sunbird 1600-1966","ispublic":1,"isfriend":0,"isfamily":0},{"id":"19759209508","owner":"54780974@N06","secret":"a9319b06b2","server":"3732","farm":4,"title":"Crimson backed sunbird","ispublic":1,"isfriend":0,"isfamily":0},{"id":"19666088245","owner":"54780974@N06","secret":"79c3e52e6c","server":"3826","farm":4,"title":"Crimson Backed Sunbird","ispublic":1,"isfriend":0,"isfamily":0},{"id":"19479387879","owner":"54780974@N06","secret":"e174e2d179","server":"3752","farm":4,"title":"Crimson Backed Sunbird","ispublic":1,"isfriend":0,"isfamily":0},{"id":"19633168455","owner":"54780974@N06","secret":"9688669687","server":"464","farm":1,"title":"Crimson-backed sunbird or small sunbird","ispublic":1,"isfriend":0,"isfamily":0},{"id":"19606949686","owner":"54780974@N06","secret":"dcdeda5cbd","server":"474","farm":1,"title":"Crimson-backed sunbird or small sunbird","ispublic":1,"isfriend":0,"isfamily":0},{"id":"19446456099","owner":"54780974@N06","secret":"d9ed1c90f7","server":"482","farm":1,"title":"Crimson-backed sunbird or small sunbird","ispublic":1,"isfriend":0,"isfamily":0},{"id":"18830242644","owner":"79476731@N00","secret":"a1f2557677","server":"469","farm":1,"title":"The Crimson Backed Sunbird or The Small Sunbird (Leptocoma minima), Male in an Eclipse Plumage","ispublic":1,"isfriend":0,"isfamily":0},{"id":"18196439504","owner":"79476731@N00","secret":"f4696e912f","server":"5571","farm":6,"title":"The Crimson Backed Sunbird, Male in an Eclipse Plumage","ispublic":1,"isfriend":0,"isfamily":0},{"id":"18456924930","owner":"54780974@N06","secret":"6cd688f42f","server":"8859","farm":9,"title":"Crimson Backed Sunbird (Leptocoma minima)","ispublic":1,"isfriend":0,"isfamily":0},{"id":"18510172016","owner":"33816646@N06","secret":"f892d85c81","server":"268","farm":1,"title":"Crimson-backed Sunbird (Leptocoma minima), Silent Valley National Park, Kerala, India, 2015-02-26--107","ispublic":1,"isfriend":0,"isfamily":0},{"id":"18439825352","owner":"33816646@N06","secret":"91904706fb","server":"317","farm":1,"title":"Crimson-backed Sunbird (Leptocoma minima), Malappuram, Kerala, India, 2015-02-22--104","ispublic":1,"isfriend":0,"isfamily":0},{"id":"51959836556","owner":"142422788@N06","secret":"c1406ab4bb","server":"65535","farm":66,"title":"crimson backed sunbird (leptocoma minima) - male","ispublic":1,"isfriend":0,"isfamily":0},{"id":"51856296270","owner":"193443384@N07","secret":"d95b0befd2","server":"65535","farm":66,"title":"Crimson-backed Sunbird (Leptocoma minima)","ispublic":1,"isfriend":0,"isfamily":0},{"id":"51271951088","owner":"30120110@N02","secret":"8357defbf2","server":"65535","farm":66,"title":"Crimson-backed sunbird female","ispublic":1,"isfriend":0,"isfamily":0},{"id":"51191104296","owner":"30120110@N02","secret":"384222382e","server":"65535","farm":66,"title":"Crimson-backed sunbird","ispublic":1,"isfriend":0,"isfamily":0},{"id":"51167441568","owner":"30120110@N02","secret":"8b8cc99615","server":"65535","farm":66,"title":"crimson-backed sunbird","ispublic":1,"isfriend":0,"isfamily":0},{"id":"51102597961","owner":"30120110@N02","secret":"a554fc73f4","server":"65535","farm":66,"title":"Crimson-backed sunbird","ispublic":1,"isfriend":0,"isfamily":0},{"id":"51102700677","owner":"30120110@N02","secret":"4f92bf2559","server":"65535","farm":66,"title":"Crimson-backed Sunbird Female","ispublic":1,"isfriend":0,"isfamily":0},{"id":"51065163833","owner":"30120110@N02","secret":"06a158bc8d","server":"65535","farm":66,"title":"crimson-backed sunbird","ispublic":1,"isfriend":0,"isfamily":0},{"id":"50913404238","owner":"186211059@N06","secret":"827a7054ea","server":"65535","farm":66,"title":"Crimson-backed Sunbird","ispublic":1,"isfriend":0,"isfamily":0},{"id":"50914222052","owner":"186211059@N06","secret":"1d42d1bc66","server":"65535","farm":66,"title":"Crimson-backed Sunbird","ispublic":1,"isfriend":0,"isfamily":0},{"id":"50695166612","owner":"129081014@N03","secret":"523409e106","server":"65535","farm":66,"title":"Crimson-backed Sunbird (Leptocoma minima)","ispublic":1,"isfriend":0,"isfamily":0},{"id":"50695079856","owner":"129081014@N03","secret":"f9c3be3bec","server":"65535","farm":66,"title":"Crimson-backed Sunbird (Leptocoma minima)","ispublic":1,"isfriend":0,"isfamily":0},{"id":"50694339468","owner":"129081014@N03","secret":"42696ed430","server":"65535","farm":66,"title":"Crimson-backed Sunbird (Leptocoma minima)","ispublic":1,"isfriend":0,"isfamily":0},{"id":"50695080026","owner":"129081014@N03","secret":"9af67a5758","server":"65535","farm":66,"title":"Crimson-backed Sunbird (Leptocoma minima)","ispublic":1,"isfriend":0,"isfamily":0},{"id":"50695166647","owner":"129081014@N03","secret":"d06e0b773a","server":"65535","farm":66,"title":"Crimson-backed Sunbird (Leptocoma minima)","ispublic":1,"isfriend":0,"isfamily":0},{"id":"50297495606","owner":"131256186@N04","secret":"47184ce5be","server":"65535","farm":66,"title":"Crimson-backed Sunbird. Leptocoma minima. Goa 2009","ispublic":1,"isfriend":0,"isfamily":0},{"id":"50297495366","owner":"131256186@N04","secret":"2c2699ac49","server":"65535","farm":66,"title":"Crimson-backed Sunbird. Leptocoma minima. Goa 2009","ispublic":1,"isfriend":0,"isfamily":0},{"id":"49903621152","owner":"154347912@N05","secret":"492c761a06","server":"65535","farm":66,"title":"Crimson-backed sunbird (Leptocoma minima) female","ispublic":1,"isfriend":0,"isfamily":0},{"id":"49903269161","owner":"154347912@N05","secret":"e089d65039","server":"65535","farm":66,"title":"Crimson-backed sunbirds (Leptocoma minima)","ispublic":1,"isfriend":0,"isfamily":0},{"id":"49902754703","owner":"154347912@N05","secret":"00580d2dba","server":"65535","farm":66,"title":"Crimson-backed sunbird (Leptocoma minima)","ispublic":1,"isfriend":0,"isfamily":0},{"id":"49900790257","owner":"154347912@N05","secret":"6963ab66e6","server":"65535","farm":66,"title":"Crimson-backed sunbird (Leptocoma minima) male","ispublic":1,"isfriend":0,"isfamily":0},{"id":"49841214946","owner":"71419827@N00","secret":"1017c18b2d","server":"65535","farm":66,"title":"Acrobatic","ispublic":1,"isfriend":0,"isfamily":0},{"id":"49806399533","owner":"159125783@N04","secret":"7fe683724d","server":"65535","farm":66,"title":"Crimson-backed Sunbird","ispublic":1,"isfriend":0,"isfamily":0},{"id":"49683095077","owner":"70081115@N06","secret":"c5aba2066e","server":"65535","farm":66,"title":"Crimson Backed Sunbird","ispublic":1,"isfriend":0,"isfamily":0},{"id":"45848672375","owner":"7200351@N08","secret":"6843fe0a1c","server":"4915","farm":5,"title":"Leptocoma minima - male","ispublic":1,"isfriend":0,"isfamily":0},{"id":"46038607004","owner":"7200351@N08","secret":"606a070796","server":"7848","farm":8,"title":"Leptocoma minima - male","ispublic":1,"isfriend":0,"isfamily":0},{"id":"39787279723","owner":"7200351@N08","secret":"89bd03199f","server":"7866","farm":8,"title":"Leptocoma minima - male","ispublic":1,"isfriend":0,"isfamily":0},{"id":"46027715644","owner":"7200351@N08","secret":"516e892d9c","server":"4903","farm":5,"title":"Leptocoma minima - male","ispublic":1,"isfriend":0,"isfamily":0},{"id":"46027715474","owner":"7200351@N08","secret":"aae8eca974","server":"7870","farm":8,"title":"Leptocoma minima - male","ispublic":1,"isfriend":0,"isfamily":0},{"id":"45715831675","owner":"29745685@N02","secret":"48b2dcacf6","server":"4848","farm":5,"title":"Arippa--State Forest Training Institute road","ispublic":1,"isfriend":0,"isfamily":0},{"id":"43670954920","owner":"30120110@N02","secret":"2080777dc7","server":"1968","farm":2,"title":"Crimson-backed sunbird","ispublic":1,"isfriend":0,"isfamily":0},{"id":"31591020048","owner":"30120110@N02","secret":"e235eba505","server":"1961","farm":2,"title":"Crimson-backed Sunbird female","ispublic":1,"isfriend":0,"isfamily":0},{"id":"43079236082","owner":"92292163@N06","secret":"fe03e7b6fe","server":"840","farm":1,"title":"Crimson-backed Sunbird.","ispublic":1,"isfriend":0,"isfamily":0},{"id":"39938875324","owner":"126558841@N07","secret":"1c5c01a56f","server":"4708","farm":5,"title":"Crimson-backed Sunbird (Leptocoma minima)","ispublic":1,"isfriend":0,"isfamily":0},{"id":"39527287705","owner":"117576577@N03","secret":"e7c29d91f5","server":"4765","farm":5,"title":"Crimson-backed Sunbird Leptocoma minima Backwoods Camp Goa 8","ispublic":1,"isfriend":0,"isfamily":0},{"id":"26365034828","owner":"30120110@N02","secret":"b4cc8fdbca","server":"4713","farm":5,"title":"Crimson-backed sunbird","ispublic":1,"isfriend":0,"isfamily":0},{"id":"28122055639","owner":"54745432@N00","secret":"8279e5090e","server":"4655","farm":5,"title":"Crimson-Backed Sunbird","ispublic":1,"isfriend":0,"isfamily":0},{"id":"24807112347","owner":"32504429@N06","secret":"494f1b67d1","server":"4746","farm":5,"title":"Crimson-backed sunbird (Leptocoma minima)","ispublic":1,"isfriend":0,"isfamily":0},{"id":"32918140022","owner":"7597171@N05","secret":"b263c45209","server":"3837","farm":4,"title":"crimson-backed-sunbird","ispublic":1,"isfriend":0,"isfamily":0},{"id":"26618908715","owner":"71419827@N00","secret":"716226513e","server":"1688","farm":2,"title":"I am red!","ispublic":1,"isfriend":0,"isfamily":0},{"id":"24465901294","owner":"84442428@N07","secret":"07811ef224","server":"1598","farm":2,"title":"Souimanga menu  \u2640","ispublic":1,"isfriend":0,"isfamily":0},{"id":"23284645583","owner":"54745432@N00","secret":"930dd8ec0c","server":"592","farm":1,"title":"Sunbird","ispublic":1,"isfriend":0,"isfamily":0},{"id":"22452912460","owner":"98682992@N00","secret":"d5244d68c1","server":"5766","farm":6,"title":"3B6A7936","ispublic":1,"isfriend":0,"isfamily":0},{"id":"21682738464","owner":"98682992@N00","secret":"8f8d2f1bbb","server":"731","farm":1,"title":"3B6A7984","ispublic":1,"isfriend":0,"isfamily":0},{"id":"18350371039","owner":"33816646@N06","secret":"c6d7079a57","server":"491","farm":1,"title":"Crimson-backed Sunbird (Leptocoma minima), Silent Valley National Park, Kerala, India, 2015-02-26--105","ispublic":1,"isfriend":0,"isfamily":0},{"id":"18538515141","owner":"33816646@N06","secret":"ee6978c7ec","server":"8872","farm":9,"title":"Crimson-backed Sunbird (Leptocoma minima), Silent Valley National Park, Kerala, India, 2015-02-26--102","ispublic":1,"isfriend":0,"isfamily":0},{"id":"18276810286","owner":"59297397@N08","secret":"3fbf3c22e1","server":"562","farm":1,"title":"Ever Colourful.....","ispublic":1,"isfriend":0,"isfamily":0},{"id":"16964903480","owner":"54249623@N08","secret":"1c20e45dee","server":"65535","farm":66,"title":"Crimson-backed Sunbird (Leptocoma minima)","ispublic":1,"isfriend":0,"isfamily":0}]},"stat":"ok"}