{"photos":{"page":1,"pages":2,"perpage":100,"total":163,"photo":[{"id":"52545112496","owner":"123174353@N02","secret":"bdefc4e36a","server":"65535","farm":66,"title":"Topaza pella \/ Crimson Topaz \/ topaaskolibrie","ispublic":1,"isfriend":0,"isfamily":0},{"id":"52392990720","owner":"30740918@N03","secret":"6e4906c8f9","server":"65535","farm":66,"title":"Beija-flor-brilho-de-fogo (Topaza pella)","ispublic":1,"isfriend":0,"isfamily":0},{"id":"52146721933","owner":"36083098@N02","secret":"1ecffb75eb","server":"65535","farm":66,"title":"Topaza pella","ispublic":1,"isfriend":0,"isfamily":0},{"id":"52124535356","owner":"36083098@N02","secret":"8b741daa3a","server":"65535","farm":66,"title":"Topaza pella","ispublic":1,"isfriend":0,"isfamily":0},{"id":"50977170633","owner":"98439766@N04","secret":"2d41550331","server":"65535","farm":66,"title":"Crimson topaz (Topaza pella)","ispublic":1,"isfriend":0,"isfamily":0},{"id":"50562584238","owner":"61021753@N02","secret":"baf7995d00","server":"65535","farm":66,"title":"n45_w1150","ispublic":1,"isfriend":0,"isfamily":0},{"id":"49122444373","owner":"48938938@N04","secret":"c6a21cc445","server":"65535","farm":66,"title":"Crimson Topaz_Topaza pella_Guyana_Ascanio_ 199A5390","ispublic":1,"isfriend":0,"isfamily":0},{"id":"49122444308","owner":"48938938@N04","secret":"3961c69c6d","server":"65535","farm":66,"title":"Crimson Topaz_Topaza pella_Guyana_Ascanio_199A5392","ispublic":1,"isfriend":0,"isfamily":0},{"id":"48443086136","owner":"98439766@N04","secret":"16d175baf3","server":"65535","farm":66,"title":"Crimson Topaz (Topaza pella) - Guyana","ispublic":1,"isfriend":0,"isfamily":0},{"id":"48277068996","owner":"98439766@N04","secret":"c9207606d0","server":"65535","farm":66,"title":"Crimson Topaz (Topaza pella)","ispublic":1,"isfriend":0,"isfamily":0},{"id":"48277060491","owner":"98439766@N04","secret":"0fd31950d2","server":"65535","farm":66,"title":"Crimson Topaz (Topaza pella)","ispublic":1,"isfriend":0,"isfamily":0},{"id":"29343692277","owner":"80666584@N05","secret":"479bcfa72f","server":"1873","farm":2,"title":"beija-flor-brilho-de-fogo \/ Crimson Topaz","ispublic":1,"isfriend":0,"isfamily":0},{"id":"40600718391","owner":"137779129@N07","secret":"065eb6cd6c","server":"4800","farm":5,"title":"Beija-flor-brilho-de-fogo (Topaza pella)","ispublic":1,"isfriend":0,"isfamily":0},{"id":"39374585442","owner":"144083559@N03","secret":"181526c6ec","server":"4682","farm":5,"title":"Beija flor brilho de fogo macho","ispublic":1,"isfriend":0,"isfamily":0},{"id":"37971896415","owner":"130467767@N03","secret":"85c9e00643","server":"4540","farm":5,"title":"Colibri Topaze - Topaza pella - Crimson Topaz","ispublic":1,"isfriend":0,"isfamily":0},{"id":"36387903080","owner":"32674493@N04","secret":"223dbff69f","server":"4381","farm":5,"title":"Beija-flor-brilho-de-fogo (Topaza pella pella) macho","ispublic":1,"isfriend":0,"isfamily":0},{"id":"35946065162","owner":"29170368@N03","secret":"d28634b567","server":"4308","farm":5,"title":"Crimson Topaz","ispublic":1,"isfriend":0,"isfamily":0},{"id":"33678999154","owner":"72556086@N00","secret":"41562e32e6","server":"4182","farm":5,"title":"Topaza pella \/ Beija-flor-brilho-de-fogo \/ Crimson Topaz","ispublic":1,"isfriend":0,"isfamily":0},{"id":"31067066420","owner":"29610556@N02","secret":"2f2a348e07","server":"5615","farm":6,"title":"Crimson Topaz (Topaza pella)","ispublic":1,"isfriend":0,"isfamily":0},{"id":"27305273875","owner":"49261788@N02","secret":"527201f29b","server":"7378","farm":8,"title":"Topaza pella","ispublic":1,"isfriend":0,"isfamily":0},{"id":"27065627962","owner":"49261788@N02","secret":"b2b79bab25","server":"7490","farm":8,"title":"Topaza pella","ispublic":1,"isfriend":0,"isfamily":0},{"id":"26018195850","owner":"52363379@N07","secret":"24410e613f","server":"1639","farm":2,"title":"Topaza pella","ispublic":1,"isfriend":0,"isfamily":0},{"id":"26265105466","owner":"52363379@N07","secret":"9a197f42e6","server":"1529","farm":2,"title":"Topaza pella","ispublic":1,"isfriend":0,"isfamily":0},{"id":"25224375209","owner":"52363379@N07","secret":"2d0a45f08a","server":"1653","farm":2,"title":"Topaza pella","ispublic":1,"isfriend":0,"isfamily":0},{"id":"20740821675","owner":"61021753@N02","secret":"a651ecc89d","server":"5764","farm":6,"title":"n213_w1150","ispublic":1,"isfriend":0,"isfamily":0},{"id":"18712623285","owner":"128781214@N05","secret":"16afdf55a5","server":"287","farm":1,"title":"Colibri Topaze - Topaza pella","ispublic":1,"isfriend":0,"isfamily":0},{"id":"18231551882","owner":"61021753@N02","secret":"c74366ecdb","server":"8792","farm":9,"title":"n268_w1150","ispublic":1,"isfriend":0,"isfamily":0},{"id":"18047427348","owner":"61021753@N02","secret":"30792b7191","server":"7753","farm":8,"title":"n266_w1150","ispublic":1,"isfriend":0,"isfamily":0},{"id":"14557912238","owner":"77847989@N00","secret":"dde5e1b83d","server":"3861","farm":4,"title":"Colibr\u00ed Topacio (Topaza pella)","ispublic":1,"isfriend":0,"isfamily":0},{"id":"14557912058","owner":"77847989@N00","secret":"3735e4caf8","server":"3919","farm":4,"title":"Colibr\u00ed Topacio (Topaza pella)","ispublic":1,"isfriend":0,"isfamily":0},{"id":"14557911618","owner":"77847989@N00","secret":"5eed7af4bf","server":"2905","farm":3,"title":"Colibr\u00ed Topacio (Topaza pella)","ispublic":1,"isfriend":0,"isfamily":0},{"id":"14557911598","owner":"77847989@N00","secret":"b3c5b070bc","server":"5555","farm":6,"title":"Colibr\u00ed Topacio (Topaza pella)","ispublic":1,"isfriend":0,"isfamily":0},{"id":"14446077350","owner":"31448602@N02","secret":"59b6c0f00f","server":"5522","farm":6,"title":"Topaza pella","ispublic":1,"isfriend":0,"isfamily":0},{"id":"13384855543","owner":"52363379@N07","secret":"105ba33ed7","server":"3711","farm":4,"title":"Topaza pella","ispublic":1,"isfriend":0,"isfamily":0},{"id":"13267068553","owner":"52363379@N07","secret":"3a09a2b872","server":"7017","farm":8,"title":"Topaza pella","ispublic":1,"isfriend":0,"isfamily":0},{"id":"13065759553","owner":"52363379@N07","secret":"a74fbd84e9","server":"3200","farm":4,"title":"Topaza pella","ispublic":1,"isfriend":0,"isfamily":0},{"id":"13065621305","owner":"52363379@N07","secret":"a677fa242c","server":"2283","farm":3,"title":"Topaza pella","ispublic":1,"isfriend":0,"isfamily":0},{"id":"12798427545","owner":"52363379@N07","secret":"2d6c2aafce","server":"5492","farm":6,"title":"Topaza pella","ispublic":1,"isfriend":0,"isfamily":0},{"id":"12798828274","owner":"52363379@N07","secret":"0bf3e853d4","server":"3776","farm":4,"title":"Topaza pella","ispublic":1,"isfriend":0,"isfamily":0},{"id":"12596048073","owner":"52363379@N07","secret":"0313695d3a","server":"3772","farm":4,"title":"Topaza pella","ispublic":1,"isfriend":0,"isfamily":0},{"id":"11063592915","owner":"54422928@N00","secret":"985603df56","server":"2883","farm":3,"title":"Topaza pella","ispublic":1,"isfriend":0,"isfamily":0},{"id":"9201562319","owner":"47285586@N02","secret":"87150300a9","server":"3827","farm":4,"title":"Topaza Pella","ispublic":1,"isfriend":0,"isfamily":0},{"id":"9204347396","owner":"47285586@N02","secret":"60b1f3daf3","server":"5329","farm":6,"title":"Topaza Pella","ispublic":1,"isfriend":0,"isfamily":0},{"id":"9204347250","owner":"47285586@N02","secret":"d0f7829e8f","server":"3832","farm":4,"title":"Topaza Pella","ispublic":1,"isfriend":0,"isfamily":0},{"id":"9049365685","owner":"44096805@N07","secret":"b1cda65b10","server":"5503","farm":6,"title":"Crimson Topaz hummingbird (Topaza pella pella) adult male 2 of 2","ispublic":1,"isfriend":0,"isfamily":0},{"id":"9048795503","owner":"44096805@N07","secret":"40120c7793","server":"3723","farm":4,"title":"Crimson Topaz hummingbird (Topaza pella pella) immature male 2 of 2","ispublic":1,"isfriend":0,"isfamily":0},{"id":"9043415626","owner":"44096805@N07","secret":"8f025dd9dc","server":"2817","farm":3,"title":"Crimson Topaz hummingbird (Topaza pella pella) immature male 1 of 2","ispublic":1,"isfriend":0,"isfamily":0},{"id":"8597937206","owner":"61021753@N02","secret":"9dfbe8f6c3","server":"8100","farm":9,"title":"n45_w1150","ispublic":1,"isfriend":0,"isfamily":0},{"id":"8283783077","owner":"44096805@N07","secret":"3468e54817","server":"8215","farm":9,"title":"Crimson Topaz hummingbird (Topaza p. pella) male 1","ispublic":1,"isfriend":0,"isfamily":0},{"id":"8004347750","owner":"8846874@N02","secret":"db7f3a46ce","server":"8031","farm":9,"title":"Crimson Topaz female photo by Roger Manrique","ispublic":1,"isfriend":0,"isfamily":0},{"id":"8004339481","owner":"8846874@N02","secret":"eb70a90a7e","server":"8042","farm":9,"title":"Crimson Topaz Hummingbird photo by Roger Manrique","ispublic":1,"isfriend":0,"isfamily":0},{"id":"7971254162","owner":"61021753@N02","secret":"09cdff69f4","server":"8179","farm":9,"title":"n256_w1150","ispublic":1,"isfriend":0,"isfamily":0},{"id":"7570342114","owner":"36083098@N02","secret":"611d8e2136","server":"7276","farm":8,"title":"Hummingbirds","ispublic":1,"isfriend":0,"isfamily":0},{"id":"7449447996","owner":"61021753@N02","secret":"1a207a60e8","server":"8016","farm":9,"title":"n7_w1150","ispublic":1,"isfriend":0,"isfamily":0},{"id":"7376680764","owner":"38536622@N02","secret":"424e36001e","server":"7222","farm":8,"title":"IMG_9686","ispublic":1,"isfriend":0,"isfamily":0},{"id":"7256166930","owner":"12694900@N08","secret":"5ebe6fe239","server":"8015","farm":9,"title":"Topacio Candela Colicanelo [Crimson Topaz] (Topaza pella pella) (\u2640)","ispublic":1,"isfriend":0,"isfamily":0},{"id":"7175941344","owner":"61021753@N02","secret":"a75fe86ba4","server":"7105","farm":8,"title":"n109_w1150","ispublic":1,"isfriend":0,"isfamily":0},{"id":"6892980499","owner":"12694900@N08","secret":"87a8acabae","server":"7043","farm":8,"title":"Topacio Candela Colicanelo [Crimson Topaz] (Topaza pella) (juvenil)","ispublic":1,"isfriend":0,"isfamily":0},{"id":"6775284989","owner":"7322586@N06","secret":"c922d3ea24","server":"7010","farm":8,"title":"086066-IMG_1957 Crimson Topaz (Topaza pella)","ispublic":1,"isfriend":0,"isfamily":0},{"id":"6775275933","owner":"7322586@N06","secret":"193f27cfe7","server":"7024","farm":8,"title":"086066-IMG_1899 Crimson Topaz (Topaza pella)","ispublic":1,"isfriend":0,"isfamily":0},{"id":"6775275645","owner":"7322586@N06","secret":"08a159fec8","server":"7003","farm":8,"title":"086066-IMG_1897 Crimson Topaz (Topaza pella)","ispublic":1,"isfriend":0,"isfamily":0},{"id":"6775275359","owner":"7322586@N06","secret":"8d1284fb1a","server":"7016","farm":8,"title":"086066-IMG_1896 Crimson Topaz (Topaza pella)","ispublic":1,"isfriend":0,"isfamily":0},{"id":"6775275129","owner":"7322586@N06","secret":"6f15eab80e","server":"7156","farm":8,"title":"086066-IMG_1895 Crimson Topaz (Topaza pella)","ispublic":1,"isfriend":0,"isfamily":0},{"id":"6775274861","owner":"7322586@N06","secret":"236a476365","server":"7160","farm":8,"title":"086066-IMG_1894 Crimson Topaz (Topaza pella)","ispublic":1,"isfriend":0,"isfamily":0},{"id":"6775273351","owner":"7322586@N06","secret":"e914be10f9","server":"7013","farm":8,"title":"086066-IMG_1885 Crimson Topaz (Topaza pella)","ispublic":1,"isfriend":0,"isfamily":0},{"id":"6775260103","owner":"7322586@N06","secret":"e90d423cc5","server":"7028","farm":8,"title":"086066-IMG_1821 Crimson Topaz (Topaza pella)","ispublic":1,"isfriend":0,"isfamily":0},{"id":"6775258239","owner":"7322586@N06","secret":"ec884762fb","server":"7034","farm":8,"title":"086066-IMG_1810 Crimson Topaz (Topaza pella)","ispublic":1,"isfriend":0,"isfamily":0},{"id":"6775257987","owner":"7322586@N06","secret":"5bc07b3a41","server":"7164","farm":8,"title":"086066-IMG_1809 Crimson Topaz (Topaza pella)","ispublic":1,"isfriend":0,"isfamily":0},{"id":"52330261007","owner":"186193378@N07","secret":"2442c31a48","server":"65535","farm":66,"title":"Beija-flor-brilho-de-fogo macho (Topaza pella) Crimson Topaz male","ispublic":1,"isfriend":0,"isfamily":0},{"id":"52145681447","owner":"36083098@N02","secret":"361ce46ee0","server":"65535","farm":66,"title":"Topaza pella","ispublic":1,"isfriend":0,"isfamily":0},{"id":"52146714008","owner":"36083098@N02","secret":"d076084902","server":"65535","farm":66,"title":"Topaza pella","ispublic":1,"isfriend":0,"isfamily":0},{"id":"52124777414","owner":"36083098@N02","secret":"4271d3a3fe","server":"65535","farm":66,"title":"Topaza pella","ispublic":1,"isfriend":0,"isfamily":0},{"id":"50638744743","owner":"130467767@N03","secret":"0ae64a0abe","server":"65535","farm":66,"title":"Colibri topaze - Topaza pella - Crimson Topaz","ispublic":1,"isfriend":0,"isfamily":0},{"id":"50552140576","owner":"130467767@N03","secret":"c1c88891cd","server":"65535","farm":66,"title":"Colibri topaze - Topaza pella - Crimson Topaz","ispublic":1,"isfriend":0,"isfamily":0},{"id":"48958773233","owner":"182381287@N07","secret":"e0d0d8510d","server":"65535","farm":66,"title":"Beija-flor-brilho-de-fogo (Topaza pella)","ispublic":1,"isfriend":0,"isfamily":0},{"id":"48431780751","owner":"87325282@N00","secret":"72bfb072f6","server":"65535","farm":66,"title":"Topaza pella","ispublic":1,"isfriend":0,"isfamily":0},{"id":"48431763841","owner":"87325282@N00","secret":"62919704a6","server":"65535","farm":66,"title":"Topaza pella","ispublic":1,"isfriend":0,"isfamily":0},{"id":"48080178573","owner":"154797342@N04","secret":"376da88c0c","server":"65535","farm":66,"title":"Crimson Topaz","ispublic":1,"isfriend":0,"isfamily":0},{"id":"48080178523","owner":"154797342@N04","secret":"294b09d602","server":"65535","farm":66,"title":"Crimson Topaz","ispublic":1,"isfriend":0,"isfamily":0},{"id":"26551424777","owner":"26846320@N00","secret":"6f9f42c7d0","server":"879","farm":1,"title":"Topaza pella","ispublic":1,"isfriend":0,"isfamily":0},{"id":"38696632734","owner":"144083559@N03","secret":"5d3325ccd8","server":"4685","farm":5,"title":"Beija flor brilho de fogo femea","ispublic":1,"isfriend":0,"isfamily":0},{"id":"33700308964","owner":"130965709@N04","secret":"b5be98a52e","server":"4157","farm":5,"title":"Merveilles de la nature","ispublic":1,"isfriend":0,"isfamily":0},{"id":"33585790123","owner":"130965709@N04","secret":"30b76251a4","server":"2861","farm":3,"title":"Humming bird of Amazonia","ispublic":1,"isfriend":0,"isfamily":0},{"id":"29593186895","owner":"56933798@N04","secret":"b6dd527777","server":"8825","farm":9,"title":"Beija-flor-brilho-de-fogo(Topaza pella)","ispublic":1,"isfriend":0,"isfamily":0},{"id":"26224801461","owner":"52363379@N07","secret":"6155659c8a","server":"1599","farm":2,"title":"Topaza pella","ispublic":1,"isfriend":0,"isfamily":0},{"id":"15586220515","owner":"10765786@N00","secret":"b0abfa422a","server":"5600","farm":6,"title":"Crimson Topaz (Topaza pella)","ispublic":1,"isfriend":0,"isfamily":0},{"id":"15299974575","owner":"127858540@N03","secret":"4f1a8ae4a4","server":"5576","farm":6,"title":"Topaza pella","ispublic":1,"isfriend":0,"isfamily":0},{"id":"14557912048","owner":"77847989@N00","secret":"93a481c981","server":"3862","farm":4,"title":"Colibr\u00ed Topacio (Topaza pella)","ispublic":1,"isfriend":0,"isfamily":0},{"id":"14557912068","owner":"77847989@N00","secret":"062bdb9aa3","server":"2895","farm":3,"title":"Colibr\u00ed Topacio (Topaza pella)","ispublic":1,"isfriend":0,"isfamily":0},{"id":"14176224442","owner":"51471392@N05","secret":"22a733c8c4","server":"7326","farm":8,"title":"Crimson Topaz (Topaza Pella)","ispublic":1,"isfriend":0,"isfamily":0},{"id":"12596358714","owner":"52363379@N07","secret":"0ff040b8ba","server":"7301","farm":8,"title":"Topaza pella","ispublic":1,"isfriend":0,"isfamily":0},{"id":"9201559387","owner":"47285586@N02","secret":"699a5bf4c1","server":"7324","farm":8,"title":"Topaza Pella","ispublic":1,"isfriend":0,"isfamily":0},{"id":"9201556787","owner":"47285586@N02","secret":"8f51e2b39a","server":"5473","farm":6,"title":"Topaza Pella","ispublic":1,"isfriend":0,"isfamily":0},{"id":"9201555425","owner":"47285586@N02","secret":"dedf6ba060","server":"7361","farm":8,"title":"Topaza Pella","ispublic":1,"isfriend":0,"isfamily":0},{"id":"6775285301","owner":"7322586@N06","secret":"d1889f5b4e","server":"7011","farm":8,"title":"086066-IMG_1960 Crimson Topaz (Topaza pella)","ispublic":1,"isfriend":0,"isfamily":0},{"id":"6775282729","owner":"7322586@N06","secret":"b4fd5bc150","server":"7152","farm":8,"title":"086066-IMG_1945 Crimson Topaz (Topaza pella)","ispublic":1,"isfriend":0,"isfamily":0},{"id":"6775259849","owner":"7322586@N06","secret":"d3cb0e2141","server":"7017","farm":8,"title":"086066-IMG_1820 Crimson Topaz (Topaza pella)","ispublic":1,"isfriend":0,"isfamily":0},{"id":"6775259611","owner":"7322586@N06","secret":"a7dc3069fb","server":"7169","farm":8,"title":"086066-IMG_1819 Crimson Topaz (Topaza pella)","ispublic":1,"isfriend":0,"isfamily":0},{"id":"6775259339","owner":"7322586@N06","secret":"54c878db02","server":"7164","farm":8,"title":"086066-IMG_1818 Crimson Topaz (Topaza pella)","ispublic":1,"isfriend":0,"isfamily":0},{"id":"6775258483","owner":"7322586@N06","secret":"57ac028b51","server":"7174","farm":8,"title":"086066-IMG_1813 Crimson Topaz (Topaza pella)","ispublic":1,"isfriend":0,"isfamily":0}]},"stat":"ok"}