{"photos":{"page":1,"pages":3,"perpage":100,"total":254,"photo":[{"id":"52071363742","owner":"128578170@N06","secret":"b341209083","server":"65535","farm":66,"title":"Crimson-rumped Waxbill Estrilda rhodopyga centralis","ispublic":1,"isfriend":0,"isfamily":0},{"id":"51846659438","owner":"128208742@N06","secret":"c0e555deab","server":"65535","farm":66,"title":"Crimson-rumped Waxbill,","ispublic":1,"isfriend":0,"isfamily":0},{"id":"51839964622","owner":"128208742@N06","secret":"7d5e4674ec","server":"65535","farm":66,"title":"The kiss (explored)","ispublic":1,"isfriend":0,"isfamily":0},{"id":"51391616749","owner":"10795927@N03","secret":"4d0c9377c9","server":"65535","farm":66,"title":"Crimson-rumped waxbill - Estrilda rhodopyga - Teugelastrild","ispublic":1,"isfriend":0,"isfamily":0},{"id":"50184726498","owner":"128578170@N06","secret":"8f0d2cef7f","server":"65535","farm":66,"title":"Crimson-rumped Waxbill Estrilda rhodopyga centralis","ispublic":1,"isfriend":0,"isfamily":0},{"id":"49683075271","owner":"127658485@N02","secret":"e4b4960136","server":"65535","farm":66,"title":"Crimson-rumped Waxbill (Estrilda rhodopyga)","ispublic":1,"isfriend":0,"isfamily":0},{"id":"48519830397","owner":"90764954@N07","secret":"962b986fe5","server":"65535","farm":66,"title":"Crimson-rumped Waxbill (Estrilda rhodopyga) \u8d64\u8170\u6885\u82b1\u96c0","ispublic":1,"isfriend":0,"isfamily":0},{"id":"47950035227","owner":"128578170@N06","secret":"6c01b33c8c","server":"65535","farm":66,"title":"Crimson-rumped Waxbill Estrilda rhodopyga centralis","ispublic":1,"isfriend":0,"isfamily":0},{"id":"43047056564","owner":"105775153@N02","secret":"508f7f445c","server":"1776","farm":2,"title":"Crimson-rumped waxbill (Estrilda rhodopyga)","ispublic":1,"isfriend":0,"isfamily":0},{"id":"41209068740","owner":"90764954@N07","secret":"04dce589b8","server":"1782","farm":2,"title":"Crimson-rumped Waxbill (Estrilda rhodopyga) \u8d64\u8170\u6885\u82b1\u96c0","ispublic":1,"isfriend":0,"isfamily":0},{"id":"41209068590","owner":"90764954@N07","secret":"0c07937ed1","server":"1790","farm":2,"title":"Crimson-rumped Waxbill (Estrilda rhodopyga) \u8d64\u8170\u6885\u82b1\u96c0","ispublic":1,"isfriend":0,"isfamily":0},{"id":"41209068650","owner":"90764954@N07","secret":"2f4ce6d1ee","server":"1764","farm":2,"title":"Crimson-rumped Waxbill (Estrilda rhodopyga) \u8d64\u8170\u6885\u82b1\u96c0","ispublic":1,"isfriend":0,"isfamily":0},{"id":"37213638666","owner":"33277678@N03","secret":"c2fc315cf3","server":"4403","farm":5,"title":"Rwanda '17","ispublic":1,"isfriend":0,"isfamily":0},{"id":"28369615915","owner":"56686021@N04","secret":"bb4850415b","server":"8224","farm":9,"title":"Crimson-rumped Waxbills and Red-billed Firefinches","ispublic":1,"isfriend":0,"isfamily":0},{"id":"27302963513","owner":"90764954@N07","secret":"05961ace85","server":"7403","farm":8,"title":"Crimson-rumped Waxbill (Estrilda rhodopyga) \u8d64\u8170\u6885\u82b1\u96c0","ispublic":1,"isfriend":0,"isfamily":0},{"id":"26431558455","owner":"130011880@N07","secret":"a68cae2e8c","server":"1490","farm":2,"title":"Crimson-rumped Waxbill (Estrilda rhodopyga)","ispublic":1,"isfriend":0,"isfamily":0},{"id":"25746406105","owner":"90764954@N07","secret":"b798d99c98","server":"1448","farm":2,"title":"Crimson-rumped Waxbill (Estrilda rhodopyga) \u8d64\u8170\u6885\u82b1\u96c0","ispublic":1,"isfriend":0,"isfamily":0},{"id":"25585670166","owner":"90764954@N07","secret":"606bd45cb4","server":"1514","farm":2,"title":"Crimson-rumped Waxbill (Estrilda rhodopyga) \u8d64\u8170\u6885\u82b1\u96c0","ispublic":1,"isfriend":0,"isfamily":0},{"id":"25244245539","owner":"90764954@N07","secret":"c2d4952c56","server":"1448","farm":2,"title":"Crimson-rumped Waxbill (Estrilda rhodopyga) \u8d64\u8170\u6885\u82b1\u96c0","ispublic":1,"isfriend":0,"isfamily":0},{"id":"25380852311","owner":"120198067@N08","secret":"2e7310d11d","server":"65535","farm":66,"title":"Crimson-rumped Waxbill (Estrilda rhodopyga)","ispublic":1,"isfriend":0,"isfamily":0},{"id":"24666267854","owner":"90764954@N07","secret":"313ed7f1df","server":"1590","farm":2,"title":"Crimson-rumped Waxbill (Estrilda rhodopyga) \u8d64\u8170\u6885\u82b1\u96c0","ispublic":1,"isfriend":0,"isfamily":0},{"id":"19726545529","owner":"90764954@N07","secret":"cc39d40869","server":"519","farm":1,"title":"Crimson-rumped Waxbill (Estrilda rhodopyga) \u8d64\u8170\u6885\u82b1\u96c0","ispublic":1,"isfriend":0,"isfamily":0},{"id":"52596398732","owner":"57465751@N05","secret":"422c4dbc13","server":"65535","farm":66,"title":"Crimson-rumped Waxbill (Estrilda rhodopyga), Lake Ndutu vicinity, Tanzania","ispublic":1,"isfriend":0,"isfamily":0},{"id":"50205005168","owner":"183077996@N03","secret":"b5b2221ae1","server":"65535","farm":66,"title":"Crimson-rumped Waxbill (Estrilda rhodopyga)","ispublic":1,"isfriend":0,"isfamily":0},{"id":"50205532276","owner":"183077996@N03","secret":"9b63de3ea4","server":"65535","farm":66,"title":"Crimson-rumped Waxbill - Estrilda rhodopyga","ispublic":1,"isfriend":0,"isfamily":0},{"id":"49621480483","owner":"186915896@N05","secret":"b0106c6730","server":"65535","farm":66,"title":"Teugelastrild (Crimson-rumped Waxbill, Estrilda rhodopyga)","ispublic":1,"isfriend":0,"isfamily":0},{"id":"48528332126","owner":"90764954@N07","secret":"91b92013bd","server":"65535","farm":66,"title":"Crimson-rumped Waxbill (Estrilda rhodopyga) \u8d64\u8170\u6885\u82b1\u96c0","ispublic":1,"isfriend":0,"isfamily":0},{"id":"48528486297","owner":"90764954@N07","secret":"b146e92902","server":"65535","farm":66,"title":"Crimson-rumped Waxbill (Estrilda rhodopyga) \u8d64\u8170\u6885\u82b1\u96c0","ispublic":1,"isfriend":0,"isfamily":0},{"id":"48528331886","owner":"90764954@N07","secret":"cf6513c8e5","server":"65535","farm":66,"title":"Crimson-rumped Waxbill (Estrilda rhodopyga) \u8d64\u8170\u6885\u82b1\u96c0","ispublic":1,"isfriend":0,"isfamily":0},{"id":"48528331816","owner":"90764954@N07","secret":"6581286e83","server":"65535","farm":66,"title":"Crimson-rumped Waxbill (Estrilda rhodopyga) \u8d64\u8170\u6885\u82b1\u96c0","ispublic":1,"isfriend":0,"isfamily":0},{"id":"48528485977","owner":"90764954@N07","secret":"2e6577b3f8","server":"65535","farm":66,"title":"Crimson-rumped Waxbill (Estrilda rhodopyga) \u8d64\u8170\u6885\u82b1\u96c0","ispublic":1,"isfriend":0,"isfamily":0},{"id":"48528331601","owner":"90764954@N07","secret":"45aff8c68e","server":"65535","farm":66,"title":"Crimson-rumped Waxbill (Estrilda rhodopyga) \u8d64\u8170\u6885\u82b1\u96c0","ispublic":1,"isfriend":0,"isfamily":0},{"id":"48528331186","owner":"90764954@N07","secret":"60a093ff93","server":"65535","farm":66,"title":"Crimson-rumped Waxbill (Estrilda rhodopyga) \u8d64\u8170\u6885\u82b1\u96c0","ispublic":1,"isfriend":0,"isfamily":0},{"id":"48528484752","owner":"90764954@N07","secret":"61cd2b23d4","server":"65535","farm":66,"title":"Crimson-rumped Waxbill (Estrilda rhodopyga) \u8d64\u8170\u6885\u82b1\u96c0","ispublic":1,"isfriend":0,"isfamily":0},{"id":"48528330511","owner":"90764954@N07","secret":"6229cedf9b","server":"65535","farm":66,"title":"Crimson-rumped Waxbill (Estrilda rhodopyga) \u8d64\u8170\u6885\u82b1\u96c0","ispublic":1,"isfriend":0,"isfamily":0},{"id":"48519664886","owner":"90764954@N07","secret":"35bb8eac37","server":"65535","farm":66,"title":"Crimson-rumped Waxbill (Estrilda rhodopyga) \u8d64\u8170\u6885\u82b1\u96c0","ispublic":1,"isfriend":0,"isfamily":0},{"id":"48519664661","owner":"90764954@N07","secret":"1d8031d42c","server":"65535","farm":66,"title":"Crimson-rumped Waxbill (Estrilda rhodopyga) \u8d64\u8170\u6885\u82b1\u96c0","ispublic":1,"isfriend":0,"isfamily":0},{"id":"48519832572","owner":"90764954@N07","secret":"0a5bc42b48","server":"65535","farm":66,"title":"Crimson-rumped Waxbill (Estrilda rhodopyga) \u8d64\u8170\u6885\u82b1\u96c0","ispublic":1,"isfriend":0,"isfamily":0},{"id":"48519664476","owner":"90764954@N07","secret":"a5a42bed47","server":"65535","farm":66,"title":"Crimson-rumped Waxbill (Estrilda rhodopyga) \u8d64\u8170\u6885\u82b1\u96c0","ispublic":1,"isfriend":0,"isfamily":0},{"id":"48519831822","owner":"90764954@N07","secret":"4aa5b4ccb8","server":"65535","farm":66,"title":"Crimson-rumped Waxbill (Estrilda rhodopyga) \u8d64\u8170\u6885\u82b1\u96c0","ispublic":1,"isfriend":0,"isfamily":0},{"id":"48519831627","owner":"90764954@N07","secret":"e5275df500","server":"65535","farm":66,"title":"Crimson-rumped Waxbill (Estrilda rhodopyga) \u8d64\u8170\u6885\u82b1\u96c0","ispublic":1,"isfriend":0,"isfamily":0},{"id":"48519831562","owner":"90764954@N07","secret":"dac82340c5","server":"65535","farm":66,"title":"Crimson-rumped Waxbill (Estrilda rhodopyga) \u8d64\u8170\u6885\u82b1\u96c0","ispublic":1,"isfriend":0,"isfamily":0},{"id":"48519830132","owner":"90764954@N07","secret":"8dbff76ece","server":"65535","farm":66,"title":"Crimson-rumped Waxbill (Estrilda rhodopyga) \u8d64\u8170\u6885\u82b1\u96c0","ispublic":1,"isfriend":0,"isfamily":0},{"id":"48519662001","owner":"90764954@N07","secret":"a786de58b3","server":"65535","farm":66,"title":"Crimson-rumped Waxbill (Estrilda rhodopyga) \u8d64\u8170\u6885\u82b1\u96c0","ispublic":1,"isfriend":0,"isfamily":0},{"id":"47118263934","owner":"90764954@N07","secret":"8552899619","server":"65535","farm":66,"title":"Crimson-rumped Waxbill (Estrilda rhodopyga) \u8d64\u8170\u6885\u82b1\u96c0","ispublic":1,"isfriend":0,"isfamily":0},{"id":"47855598102","owner":"90764954@N07","secret":"8cafeb6cdf","server":"65535","farm":66,"title":"Crimson-rumped Waxbill (Estrilda rhodopyga) \u8d64\u8170\u6885\u82b1\u96c0","ispublic":1,"isfriend":0,"isfamily":0},{"id":"47834853902","owner":"90764954@N07","secret":"316ddf3319","server":"65535","farm":66,"title":"Crimson-rumped Waxbill (Estrilda rhodopyga) \u8d64\u8170\u6885\u82b1\u96c0","ispublic":1,"isfriend":0,"isfamily":0},{"id":"46639891065","owner":"90764954@N07","secret":"46c2b77d9d","server":"7831","farm":8,"title":"Crimson-rumped Waxbill (Estrilda rhodopyga) \u8d64\u8170\u6885\u82b1\u96c0","ispublic":1,"isfriend":0,"isfamily":0},{"id":"47108441722","owner":"154130070@N04","secret":"20425dc229","server":"7918","farm":8,"title":"Crimson-rumped Waxbill, Estrilda rhodopyga","ispublic":1,"isfriend":0,"isfamily":0},{"id":"47108441502","owner":"154130070@N04","secret":"cc30c409ed","server":"7891","farm":8,"title":"Crimson-rumped Waxbill, Estrilda rhodopyga","ispublic":1,"isfriend":0,"isfamily":0},{"id":"42775433555","owner":"29170368@N03","secret":"1a05beda67","server":"65535","farm":66,"title":"Crimson-rumped Waxbill","ispublic":1,"isfriend":0,"isfamily":0},{"id":"42242303985","owner":"90764954@N07","secret":"200809915e","server":"1804","farm":2,"title":"Crimson-rumped Waxbill (Estrilda rhodopyga) \u8d64\u8170\u6885\u82b1\u96c0","ispublic":1,"isfriend":0,"isfamily":0},{"id":"42428027704","owner":"90764954@N07","secret":"cc93c3be2e","server":"919","farm":1,"title":"Crimson-rumped Waxbill (Estrilda rhodopyga) \u8d64\u8170\u6885\u82b1\u96c0","ispublic":1,"isfriend":0,"isfamily":0},{"id":"42242303915","owner":"90764954@N07","secret":"0ac781ceb1","server":"1768","farm":2,"title":"Crimson-rumped Waxbill (Estrilda rhodopyga) \u8d64\u8170\u6885\u82b1\u96c0","ispublic":1,"isfriend":0,"isfamily":0},{"id":"42428027834","owner":"90764954@N07","secret":"23154af32d","server":"1808","farm":2,"title":"Crimson-rumped Waxbill (Estrilda rhodopyga) \u8d64\u8170\u6885\u82b1\u96c0","ispublic":1,"isfriend":0,"isfamily":0},{"id":"42428027614","owner":"90764954@N07","secret":"582c9797ef","server":"1825","farm":2,"title":"Crimson-rumped Waxbill (Estrilda rhodopyga) \u8d64\u8170\u6885\u82b1\u96c0","ispublic":1,"isfriend":0,"isfamily":0},{"id":"42428027454","owner":"90764954@N07","secret":"a65b15916d","server":"914","farm":1,"title":"Crimson-rumped Waxbill (Estrilda rhodopyga) \u8d64\u8170\u6885\u82b1\u96c0","ispublic":1,"isfriend":0,"isfamily":0},{"id":"42242303155","owner":"90764954@N07","secret":"830c477768","server":"1827","farm":2,"title":"Crimson-rumped Waxbill (Estrilda rhodopyga) \u8d64\u8170\u6885\u82b1\u96c0","ispublic":1,"isfriend":0,"isfamily":0},{"id":"41081481242","owner":"44037867@N08","secret":"12398b1db7","server":"872","farm":1,"title":"Crimson-Rumped Waxbill","ispublic":1,"isfriend":0,"isfamily":0},{"id":"33570896186","owner":"27480477@N07","secret":"e2413a3612","server":"3838","farm":4,"title":"Crimson-Rumped Waxbill, Estrilda rhodopyga centralis.","ispublic":1,"isfriend":0,"isfamily":0},{"id":"31020779731","owner":"73091266@N00","secret":"be799c2409","server":"5623","farm":6,"title":"Crimson-Rumped Waxbill","ispublic":1,"isfriend":0,"isfamily":0},{"id":"30314086704","owner":"73091266@N00","secret":"8a5015b3d6","server":"5451","farm":6,"title":"Crimson-Rumped Waxbill","ispublic":1,"isfriend":0,"isfamily":0},{"id":"29480321813","owner":"101213969@N03","secret":"c878cc8750","server":"5646","farm":6,"title":"ZA_016105","ispublic":1,"isfriend":0,"isfamily":0},{"id":"29479848514","owner":"101213969@N03","secret":"d0830bea8d","server":"8275","farm":9,"title":"ZA_016114","ispublic":1,"isfriend":0,"isfamily":0},{"id":"29479845594","owner":"101213969@N03","secret":"dd22470d39","server":"5626","farm":6,"title":"ZA_016116","ispublic":1,"isfriend":0,"isfamily":0},{"id":"30107957035","owner":"101213969@N03","secret":"e1705eff65","server":"5048","farm":6,"title":"ZA_016144","ispublic":1,"isfriend":0,"isfamily":0},{"id":"30024352241","owner":"101213969@N03","secret":"c045595d87","server":"8610","farm":9,"title":"ZA_016175","ispublic":1,"isfriend":0,"isfamily":0},{"id":"29785806142","owner":"12639178@N07","secret":"028d9c4016","server":"8235","farm":9,"title":"Z\u00fcgel-Astrild , NGID1629150352","ispublic":1,"isfriend":0,"isfamily":0},{"id":"29272326744","owner":"12639178@N07","secret":"f61ed93ff7","server":"8084","farm":9,"title":"Z\u00fcgel-Astrild , NGID1077201698","ispublic":1,"isfriend":0,"isfamily":0},{"id":"28554349276","owner":"64074416@N06","secret":"9365a7aea2","server":"8699","farm":9,"title":"Crimson-rumped Waxbill (Estrilda rhodopyga \u8d64\u8170\u6885\u82b1\u96c0)","ispublic":1,"isfriend":0,"isfamily":0},{"id":"28029485975","owner":"90764954@N07","secret":"e7ee5b5ae4","server":"7394","farm":8,"title":"Crimson-rumped Waxbill (Estrilda rhodopyga) \u8d64\u8170\u6885\u82b1\u96c0","ispublic":1,"isfriend":0,"isfamily":0},{"id":"27935999775","owner":"90764954@N07","secret":"1ae8d591a3","server":"7548","farm":8,"title":"Crimson-rumped Waxbill (Estrilda rhodopyga) \u8d64\u8170\u6885\u82b1\u96c0","ispublic":1,"isfriend":0,"isfamily":0},{"id":"27657327940","owner":"90764954@N07","secret":"075fb2b780","server":"7352","farm":8,"title":"Crimson-rumped Waxbill (Estrilda rhodopyga) \u8d64\u8170\u6885\u82b1\u96c0","ispublic":1,"isfriend":0,"isfamily":0},{"id":"27657327180","owner":"90764954@N07","secret":"dc8aeec024","server":"7304","farm":8,"title":"Crimson-rumped Waxbill (Estrilda rhodopyga) \u8d64\u8170\u6885\u82b1\u96c0","ispublic":1,"isfriend":0,"isfamily":0},{"id":"27814837832","owner":"90764954@N07","secret":"d477e48b6a","server":"7367","farm":8,"title":"Crimson-rumped Waxbill (Estrilda rhodopyga) \u8d64\u8170\u6885\u82b1\u96c0","ispublic":1,"isfriend":0,"isfamily":0},{"id":"27302966133","owner":"90764954@N07","secret":"34b8ac6bd9","server":"7314","farm":8,"title":"Crimson-rumped Waxbill (Estrilda rhodopyga) \u8d64\u8170\u6885\u82b1\u96c0","ispublic":1,"isfriend":0,"isfamily":0},{"id":"26287530093","owner":"138918201@N04","secret":"49f84be293","server":"7779","farm":8,"title":"Crimson-rumped Waxbill - Astrild \u00e0 croupion rose","ispublic":1,"isfriend":0,"isfamily":0},{"id":"25932548394","owner":"22742839@N00","secret":"cb11eec396","server":"1476","farm":2,"title":"Crimson-Rumped waxbill \u8d64\u8170\u6885\u82b1\u96c0","ispublic":1,"isfriend":0,"isfamily":0},{"id":"25314702993","owner":"130011880@N07","secret":"1fa50ab189","server":"1441","farm":2,"title":"Crimson-rumped Waxbill (Estrilda rhodopyga)","ispublic":1,"isfriend":0,"isfamily":0},{"id":"25746405865","owner":"90764954@N07","secret":"c18ba91d9e","server":"1613","farm":2,"title":"Crimson-rumped Waxbill (Estrilda rhodopyga) \u8d64\u8170\u6885\u82b1\u96c0","ispublic":1,"isfriend":0,"isfamily":0},{"id":"25651327671","owner":"90764954@N07","secret":"eed17a712e","server":"1622","farm":2,"title":"Crimson-rumped Waxbill (Estrilda rhodopyga) \u8d64\u8170\u6885\u82b1\u96c0","ispublic":1,"isfriend":0,"isfamily":0},{"id":"25746400735","owner":"90764954@N07","secret":"17d2c358db","server":"1538","farm":2,"title":"Crimson-rumped Waxbill (Estrilda rhodopyga) \u8d64\u8170\u6885\u82b1\u96c0","ispublic":1,"isfriend":0,"isfamily":0},{"id":"25611800765","owner":"90764954@N07","secret":"24e5b3774e","server":"1614","farm":2,"title":"Crimson-rumped Waxbill (Estrilda rhodopyga) \u8d64\u8170\u6885\u82b1\u96c0","ispublic":1,"isfriend":0,"isfamily":0},{"id":"24981293144","owner":"90764954@N07","secret":"2c06a5c7b5","server":"1566","farm":2,"title":"Crimson-rumped Waxbill (Estrilda rhodopyga) \u8d64\u8170\u6885\u82b1\u96c0","ispublic":1,"isfriend":0,"isfamily":0},{"id":"25519118531","owner":"90764954@N07","secret":"bfd222a232","server":"1673","farm":2,"title":"Crimson-rumped Waxbill (Estrilda rhodopyga) \u8d64\u8170\u6885\u82b1\u96c0","ispublic":1,"isfriend":0,"isfamily":0},{"id":"25001304120","owner":"90764954@N07","secret":"66be7d24d6","server":"1510","farm":2,"title":"Crimson-rumped Waxbill (Estrilda rhodopyga) \u8d64\u8170\u6885\u82b1\u96c0","ispublic":1,"isfriend":0,"isfamily":0},{"id":"25097801121","owner":"90764954@N07","secret":"64e6f09f76","server":"1548","farm":2,"title":"Crimson-rumped Waxbill (Estrilda rhodopyga) \u8d64\u8170\u6885\u82b1\u96c0","ispublic":1,"isfriend":0,"isfamily":0},{"id":"24897314492","owner":"90764954@N07","secret":"15e6c37179","server":"1560","farm":2,"title":"Crimson-rumped Waxbill (Estrilda rhodopyga) \u8d64\u8170\u6885\u82b1\u96c0","ispublic":1,"isfriend":0,"isfamily":0},{"id":"25015337055","owner":"90764954@N07","secret":"b993d832ab","server":"1677","farm":2,"title":"Crimson-rumped Waxbill (Estrilda rhodopyga) \u8d64\u8170\u6885\u82b1\u96c0","ispublic":1,"isfriend":0,"isfamily":0},{"id":"21817374974","owner":"67508956@N06","secret":"39bc71f02f","server":"5672","farm":6,"title":"Estrilda rhodopyga centralis \/ Crimson-rumped waxbill","ispublic":1,"isfriend":0,"isfamily":0},{"id":"21191193229","owner":"90764954@N07","secret":"e938952629","server":"695","farm":1,"title":"Common Waxbill (Estrilda astrild) \u6885\u82b1\u96c0, Crimson-rumped Waxbill (Estrilda rhodopyga) \u8d64\u8170\u6885\u82b1\u96c0","ispublic":1,"isfriend":0,"isfamily":0},{"id":"21189988780","owner":"90764954@N07","secret":"38bef95d38","server":"5825","farm":6,"title":"Crimson-rumped Waxbill (Estrilda rhodopyga) \u8d64\u8170\u6885\u82b1\u96c0","ispublic":1,"isfriend":0,"isfamily":0},{"id":"21367284742","owner":"90764954@N07","secret":"c179b2b14d","server":"5627","farm":6,"title":"Crimson-rumped Waxbill (Estrilda rhodopyga) \u8d64\u8170\u6885\u82b1\u96c0","ispublic":1,"isfriend":0,"isfamily":0},{"id":"20755409474","owner":"90764954@N07","secret":"c23e312cca","server":"577","farm":1,"title":"Crimson-rumped Waxbill (Estrilda rhodopyga) \u8d64\u8170\u6885\u82b1\u96c0, Orange-cheeked Waxbill (Estrilda melpoda) \u6a59\u988a\u6885\u82b1\u96c0","ispublic":1,"isfriend":0,"isfamily":0},{"id":"20757015813","owner":"90764954@N07","secret":"0541ca7288","server":"704","farm":1,"title":"Crimson-rumped Waxbill (Estrilda rhodopyga) \u8d64\u8170\u6885\u82b1\u96c0, Orange-cheeked Waxbill (Estrilda melpoda) \u6a59\u988a\u6885\u82b1\u96c0","ispublic":1,"isfriend":0,"isfamily":0},{"id":"21378098065","owner":"90764954@N07","secret":"9775ffe9ca","server":"658","farm":1,"title":"Crimson-rumped Waxbill (Estrilda rhodopyga) \u8d64\u8170\u6885\u82b1\u96c0, Orange-cheeked Waxbill (Estrilda melpoda) \u6a59\u988a\u6885\u82b1\u96c0","ispublic":1,"isfriend":0,"isfamily":0},{"id":"21190235778","owner":"90764954@N07","secret":"a479a11620","server":"5626","farm":6,"title":"Crimson-rumped Waxbill (Estrilda rhodopyga) \u8d64\u8170\u6885\u82b1\u96c0","ispublic":1,"isfriend":0,"isfamily":0},{"id":"20757015613","owner":"90764954@N07","secret":"121ce0e8fe","server":"577","farm":1,"title":"Crimson-rumped Waxbill (Estrilda rhodopyga) \u8d64\u8170\u6885\u82b1\u96c0","ispublic":1,"isfriend":0,"isfamily":0},{"id":"19292267933","owner":"90764954@N07","secret":"8255d4bdb7","server":"260","farm":1,"title":"Crimson-rumped Waxbill (Estrilda rhodopyga) \u8d64\u8170\u6885\u82b1\u96c0","ispublic":1,"isfriend":0,"isfamily":0},{"id":"19726545489","owner":"90764954@N07","secret":"6fc52bc311","server":"293","farm":1,"title":"Crimson-rumped Waxbill (Estrilda rhodopyga) \u8d64\u8170\u6885\u82b1\u96c0","ispublic":1,"isfriend":0,"isfamily":0}]},"stat":"ok"}