{"photos":{"page":1,"pages":46,"perpage":100,"total":4516,"photo":[{"id":"52765202572","owner":"96713629@N03","secret":"8cf0baaef6","server":"65535","farm":66,"title":"Bonte strandloper (Calidris alpina)-DSC_5217-bewerkt","ispublic":1,"isfriend":0,"isfamily":0},{"id":"52746048277","owner":"12639178@N07","secret":"f6753897af","server":"65535","farm":66,"title":"Sichelstrandl\u00e4ufer (Calidris ferruginea) (2)","ispublic":1,"isfriend":0,"isfamily":0},{"id":"52746048172","owner":"12639178@N07","secret":"bfbe121400","server":"65535","farm":66,"title":"Sichelstrandl\u00e4ufer im Schlichtkleid","ispublic":1,"isfriend":0,"isfamily":0},{"id":"52739873420","owner":"31350467@N04","secret":"08837f911f","server":"65535","farm":66,"title":"Sandpiper, Curlew (Calidris ferruginea)","ispublic":1,"isfriend":0,"isfamily":0},{"id":"52726625885","owner":"46625272@N04","secret":"0c75bf3b25","server":"65535","farm":66,"title":"Curlew Sandpiper Morley 4Mar23 (1) dnai nres","ispublic":1,"isfriend":0,"isfamily":0},{"id":"52685184193","owner":"45640758@N08","secret":"4f10da3724","server":"65535","farm":66,"title":"Curlew sandpiper (Calidris ferruginea)","ispublic":1,"isfriend":0,"isfamily":0},{"id":"52663807283","owner":"131407383@N08","secret":"69a4edb830","server":"65535","farm":66,"title":"Pilrito-de-bico-comprido","ispublic":1,"isfriend":0,"isfamily":0},{"id":"52637549427","owner":"182959673@N06","secret":"c537ba3d80","server":"65535","farm":66,"title":"Curlew Sandpiper - Point Lonsdale, Victoria","ispublic":1,"isfriend":0,"isfamily":0},{"id":"52635272977","owner":"191391950@N02","secret":"32ea3025d5","server":"65535","farm":66,"title":"B\u00e9casseau cocorli - Calidris ferruginea","ispublic":1,"isfriend":0,"isfamily":0},{"id":"52632874011","owner":"50783922@N06","secret":"0cb7914dea","server":"65535","farm":66,"title":"Curlew Sandpiper (Calidris ferruginea)","ispublic":1,"isfriend":0,"isfamily":0},{"id":"52628865394","owner":"29494346@N03","secret":"cb1f701fec","server":"65535","farm":66,"title":"Curlew Sandpiper (Calidris ferruginea)","ispublic":1,"isfriend":0,"isfamily":0},{"id":"52626490450","owner":"142952595@N08","secret":"10ac8e4d92","server":"65535","farm":66,"title":"Curlew Sandpiper","ispublic":1,"isfriend":0,"isfamily":0},{"id":"52624711058","owner":"88972033@N05","secret":"e9afc8a243","server":"65535","farm":66,"title":"Curlew Sandpiper","ispublic":1,"isfriend":0,"isfamily":0},{"id":"52620336883","owner":"40195635@N03","secret":"d2bc4a28c5","server":"65535","farm":66,"title":"Curlew Sandpiper (Calidris ferruginea)","ispublic":1,"isfriend":0,"isfamily":0},{"id":"52614813930","owner":"63175631@N02","secret":"d005be8b18","server":"65535","farm":66,"title":"Curlew Sandpiper (Calidris ferruginea)","ispublic":1,"isfriend":0,"isfamily":0},{"id":"52602287578","owner":"88972033@N05","secret":"72213dd18d","server":"65535","farm":66,"title":"Curlew Sandpiper","ispublic":1,"isfriend":0,"isfamily":0},{"id":"52598061463","owner":"153117385@N07","secret":"d024d2ba0e","server":"65535","farm":66,"title":"Curlew Sandpiper #7","ispublic":1,"isfriend":0,"isfamily":0},{"id":"52595998212","owner":"125337794@N03","secret":"a89513cb7e","server":"65535","farm":66,"title":"Curlew sandpiper  (Calidris ferruginea)","ispublic":1,"isfriend":0,"isfamily":0},{"id":"52585694784","owner":"186211059@N06","secret":"f57469443b","server":"65535","farm":66,"title":"Curlew Sandpiper","ispublic":1,"isfriend":0,"isfamily":0},{"id":"52585345910","owner":"186211059@N06","secret":"d08ba46c75","server":"65535","farm":66,"title":"Curlew Sandpiper","ispublic":1,"isfriend":0,"isfamily":0},{"id":"52584356993","owner":"186211059@N06","secret":"e71aa77a89","server":"65535","farm":66,"title":"Curlew Sandpiper","ispublic":1,"isfriend":0,"isfamily":0},{"id":"52581551201","owner":"125337794@N03","secret":"6a904317d2","server":"65535","farm":66,"title":"Curlew sandpiper (Calidris ferruginea)","ispublic":1,"isfriend":0,"isfamily":0},{"id":"52574876339","owner":"189697862@N03","secret":"86eb199358","server":"65535","farm":66,"title":"Barge \u00e0 queue noire Limosa limosa - Black-tailed Godwit.                          B\u00e9casseau variable Calidris alpina - Dunlin. B\u00e9casseau cocorli Calidris ferruginea - Curlew Sandpiper.                               Anse de Guisseny.","ispublic":1,"isfriend":0,"isfamily":0},{"id":"52574131472","owner":"189697862@N03","secret":"549db1cf29","server":"65535","farm":66,"title":"B\u00e9casseau cocorli Calidris ferruginea - Curlew Sandpiper  Baie de Goulven","ispublic":1,"isfriend":0,"isfamily":0},{"id":"52574242488","owner":"89246322@N04","secret":"b534cd5ba8","server":"65535","farm":66,"title":"Curlew Sandpiper - Calidris ferruginea","ispublic":1,"isfriend":0,"isfamily":0},{"id":"52725227293","owner":"58519338@N08","secret":"3b1f36b1ca","server":"65535","farm":66,"title":"Curlew Sandpiper - Calidris ferruginea","ispublic":1,"isfriend":0,"isfamily":0},{"id":"52610508370","owner":"58519338@N08","secret":"70a55936ec","server":"65535","farm":66,"title":"Curlew Sandpiper - Calidris ferruginea","ispublic":1,"isfriend":0,"isfamily":0},{"id":"52565905968","owner":"58519338@N08","secret":"8a9f28791f","server":"65535","farm":66,"title":"Curlew Sandpiper - Calidris ferruginea","ispublic":1,"isfriend":0,"isfamily":0},{"id":"52556146700","owner":"103722035@N06","secret":"a920b38524","server":"65535","farm":66,"title":"Short-billed Dowitcher (Limnodromus griseus), Los Osos, CA","ispublic":1,"isfriend":0,"isfamily":0},{"id":"52556214203","owner":"103722035@N06","secret":"b344e1d79d","server":"65535","farm":66,"title":"Short-billed Dowitcher (Limnodromus griseus), Los Osos, CA","ispublic":1,"isfriend":0,"isfamily":0},{"id":"52555633286","owner":"103722035@N06","secret":"f095285668","server":"0","farm":0,"title":"Short-billed Dowitcher (Limnodromus griseus), Los Osos, CA","ispublic":1,"isfriend":0,"isfamily":0},{"id":"52554448710","owner":"58519338@N08","secret":"34a067d534","server":"65535","farm":66,"title":"Curlew Sandpiper - Calidris ferruginea","ispublic":1,"isfriend":0,"isfamily":0},{"id":"52546617331","owner":"28092414@N03","secret":"4239d42701","server":"65535","farm":66,"title":"Curlew Sandpiper at Skeie S24A8313","ispublic":1,"isfriend":0,"isfamily":0},{"id":"52536633050","owner":"153117385@N07","secret":"7a52d99c1c","server":"65535","farm":66,"title":"Dunlin #16","ispublic":1,"isfriend":0,"isfamily":0},{"id":"52521373773","owner":"58519338@N08","secret":"174224b13a","server":"65535","farm":66,"title":"Curlew Sandpiper - Calidris ferruginea","ispublic":1,"isfriend":0,"isfamily":0},{"id":"52496698810","owner":"112292182@N02","secret":"741b631df0","server":"65535","farm":66,"title":"Curlew Sandpiper","ispublic":1,"isfriend":0,"isfamily":0},{"id":"52485860711","owner":"12639178@N07","secret":"4d5c9c293d","server":"65535","farm":66,"title":"Sichelstrandl\u00e4ufer und Kampfl\u00e4ufer, \u00dcberwinterer?","ispublic":1,"isfriend":0,"isfamily":0},{"id":"52481095302","owner":"153117385@N07","secret":"bd42b94efa","server":"65535","farm":66,"title":"Real fight","ispublic":1,"isfriend":0,"isfamily":0},{"id":"52477477447","owner":"90408688@N02","secret":"1a3624e42a","server":"65535","farm":66,"title":"Curlew Sandpiper - Calidris ferruginea","ispublic":1,"isfriend":0,"isfamily":0},{"id":"52477978791","owner":"90408688@N02","secret":"439f9ae1df","server":"65535","farm":66,"title":"Curlew Sandpiper - Calidris ferruginea","ispublic":1,"isfriend":0,"isfamily":0},{"id":"52466169680","owner":"116181786@N08","secret":"e2fb5b4fbf","server":"65535","farm":66,"title":"Tournepierre \u00e0 collier et B\u00e9casseau Corcoli","ispublic":1,"isfriend":0,"isfamily":0},{"id":"52465228970","owner":"116181786@N08","secret":"de60d5b456","server":"65535","farm":66,"title":"B\u00e9casseaux de corcoli au coucher du soleil","ispublic":1,"isfriend":0,"isfamily":0},{"id":"52456766589","owner":"112292182@N02","secret":"d75f064c9c","server":"65535","farm":66,"title":"Curlew Sandpiper","ispublic":1,"isfriend":0,"isfamily":0},{"id":"52676766547","owner":"197653711@N02","secret":"4060bcea89","server":"65535","farm":66,"title":"Correlimos zarapit\u00edn \/ The curlew sandpiper (Calidris ferruginea)","ispublic":1,"isfriend":0,"isfamily":0},{"id":"52645223433","owner":"8013969@N03","secret":"8b2d379849","server":"65535","farm":66,"title":"Calidris ferruginea DFL ny22-2","ispublic":1,"isfriend":0,"isfamily":0},{"id":"52645006289","owner":"8013969@N03","secret":"4208d8191e","server":"65535","farm":66,"title":"Calidris ferruginea DFL ny22-3","ispublic":1,"isfriend":0,"isfamily":0},{"id":"52645004629","owner":"8013969@N03","secret":"047361c80a","server":"65535","farm":66,"title":"Calidris ferruginea DFL ny22-4","ispublic":1,"isfriend":0,"isfamily":0},{"id":"52645002204","owner":"8013969@N03","secret":"8a914c888f","server":"65535","farm":66,"title":"Calidris ferruginea DFL ny22-5","ispublic":1,"isfriend":0,"isfamily":0},{"id":"52565222867","owner":"12639178@N07","secret":"cabd005ac3","server":"65535","farm":66,"title":"Sichelstrandl\u00e4ufer,  Curlew Sandpiper (Calidris ferruginea)","ispublic":1,"isfriend":0,"isfamily":0},{"id":"52565965324","owner":"12639178@N07","secret":"289942ae98","server":"65535","farm":66,"title":"Sichelstrandl\u00e4ufer,  Curlew Sandpiper (Calidris ferruginea)","ispublic":1,"isfriend":0,"isfamily":0},{"id":"52555677026","owner":"103722035@N06","secret":"2b92035ffc","server":"65535","farm":66,"title":"Short-billed Dowitcher (Limnodromus griseus), Los Osos, CA","ispublic":1,"isfriend":0,"isfamily":0},{"id":"52547164138","owner":"28092414@N03","secret":"1befb9183c","server":"65535","farm":66,"title":"Curlew Sandpiper at Skeie S24A8297","ispublic":1,"isfriend":0,"isfamily":0},{"id":"52546913549","owner":"28092414@N03","secret":"9fbd90daf9","server":"65535","farm":66,"title":"Curlew Sandpiper at Skeie S24A8324","ispublic":1,"isfriend":0,"isfamily":0},{"id":"52501592624","owner":"152849394@N05","secret":"e235238630","server":"65535","farm":66,"title":"Curlew Sandpiper - Calidris ferruginea","ispublic":1,"isfriend":0,"isfamily":0},{"id":"52479671144","owner":"80746425@N00","secret":"f34c983bda","server":"65535","farm":66,"title":"Curlew Sandpiper - Calidris ferruginea","ispublic":1,"isfriend":0,"isfamily":0},{"id":"52457383025","owner":"79722430@N04","secret":"71a68d07e4","server":"65535","farm":66,"title":"Curlew sandpiper (Calidris ferruginea)","ispublic":1,"isfriend":0,"isfamily":0},{"id":"52456408622","owner":"79722430@N04","secret":"7c508494f9","server":"65535","farm":66,"title":"Curlew sandpiper (Calidris ferruginea)","ispublic":1,"isfriend":0,"isfamily":0},{"id":"52457200364","owner":"79722430@N04","secret":"36a33d2ed9","server":"65535","farm":66,"title":"Curlew sandpiper (Calidris ferruginea)","ispublic":1,"isfriend":0,"isfamily":0},{"id":"52456932641","owner":"79722430@N04","secret":"46c6e7760b","server":"65535","farm":66,"title":"Curlew sandpiper (Calidris ferruginea)","ispublic":1,"isfriend":0,"isfamily":0},{"id":"52457463188","owner":"79722430@N04","secret":"ce0372895a","server":"65535","farm":66,"title":"Curlew sandpiper (Calidris ferruginea)","ispublic":1,"isfriend":0,"isfamily":0},{"id":"52456403367","owner":"79722430@N04","secret":"ae35de9082","server":"65535","farm":66,"title":"Curlew sandpiper (Calidris ferruginea)","ispublic":1,"isfriend":0,"isfamily":0},{"id":"52456403392","owner":"79722430@N04","secret":"a13b05bc57","server":"65535","farm":66,"title":"Curlew sandpiper (Calidris ferruginea)","ispublic":1,"isfriend":0,"isfamily":0},{"id":"52456926996","owner":"79722430@N04","secret":"d20f817ae2","server":"65535","farm":66,"title":"Curlew sandpiper (Calidris ferruginea)","ispublic":1,"isfriend":0,"isfamily":0},{"id":"52456403357","owner":"79722430@N04","secret":"0cd84f6a0e","server":"65535","farm":66,"title":"Curlew sandpiper (Calidris ferruginea)","ispublic":1,"isfriend":0,"isfamily":0},{"id":"52456403352","owner":"79722430@N04","secret":"e8c3f03031","server":"65535","farm":66,"title":"Curlew sandpiper (Calidris ferruginea)","ispublic":1,"isfriend":0,"isfamily":0},{"id":"52457377130","owner":"79722430@N04","secret":"75e8a2281d","server":"65535","farm":66,"title":"Curlew sandpiper (Calidris ferruginea)","ispublic":1,"isfriend":0,"isfamily":0},{"id":"52457457783","owner":"79722430@N04","secret":"554ca4c299","server":"65535","farm":66,"title":"Curlew sandpiper (Calidris ferruginea)","ispublic":1,"isfriend":0,"isfamily":0},{"id":"52456926926","owner":"79722430@N04","secret":"47f5b49ccf","server":"65535","farm":66,"title":"Curlew sandpiper (Calidris ferruginea)","ispublic":1,"isfriend":0,"isfamily":0},{"id":"52455438125","owner":"129108168@N08","secret":"b7831f8640","server":"65535","farm":66,"title":"Fast drying (Calidris ferruginea)","ispublic":1,"isfriend":0,"isfamily":0},{"id":"52455070193","owner":"79722430@N04","secret":"7f1926dcb3","server":"65535","farm":66,"title":"Curlew sandpiper (Calidris ferruginea)","ispublic":1,"isfriend":0,"isfamily":0},{"id":"52454997870","owner":"79722430@N04","secret":"dc59c6b36c","server":"65535","farm":66,"title":"Curlew sandpiper (Calidris ferruginea)","ispublic":1,"isfriend":0,"isfamily":0},{"id":"52454813179","owner":"79722430@N04","secret":"9ac1c19656","server":"65535","farm":66,"title":"Curlew sandpiper (Calidris ferruginea)","ispublic":1,"isfriend":0,"isfamily":0},{"id":"52454813129","owner":"79722430@N04","secret":"a6777a511f","server":"65535","farm":66,"title":"Curlew sandpiper (Calidris ferruginea)","ispublic":1,"isfriend":0,"isfamily":0},{"id":"52455070128","owner":"79722430@N04","secret":"077334d6c4","server":"65535","farm":66,"title":"Curlew sandpiper (Calidris ferruginea)","ispublic":1,"isfriend":0,"isfamily":0},{"id":"52454997785","owner":"79722430@N04","secret":"4ea16c6b55","server":"65535","farm":66,"title":"Curlew sandpiper (Calidris ferruginea)","ispublic":1,"isfriend":0,"isfamily":0},{"id":"52454546841","owner":"79722430@N04","secret":"a59ab09237","server":"65535","farm":66,"title":"Curlew sandpiper (Calidris ferruginea)","ispublic":1,"isfriend":0,"isfamily":0},{"id":"52454546851","owner":"79722430@N04","secret":"3c47c380e9","server":"65535","farm":66,"title":"Curlew sandpiper (Calidris ferruginea)","ispublic":1,"isfriend":0,"isfamily":0},{"id":"52454022047","owner":"79722430@N04","secret":"0c955ff3be","server":"65535","farm":66,"title":"Curlew sandpiper (Calidris ferruginea)","ispublic":1,"isfriend":0,"isfamily":0},{"id":"52454022067","owner":"79722430@N04","secret":"d05622b17d","server":"65535","farm":66,"title":"Curlew sandpiper (Calidris ferruginea)","ispublic":1,"isfriend":0,"isfamily":0},{"id":"52455070063","owner":"79722430@N04","secret":"84760eeff7","server":"65535","farm":66,"title":"Curlew sandpiper (Calidris ferruginea)","ispublic":1,"isfriend":0,"isfamily":0},{"id":"52454795464","owner":"79722430@N04","secret":"987b8c82a7","server":"65535","farm":66,"title":"Curlew sandpiper (Calidris ferruginea)","ispublic":1,"isfriend":0,"isfamily":0},{"id":"52454795414","owner":"79722430@N04","secret":"f670822db5","server":"65535","farm":66,"title":"Curlew sandpiper (Calidris ferruginea)","ispublic":1,"isfriend":0,"isfamily":0},{"id":"52454795364","owner":"79722430@N04","secret":"211a00a9fd","server":"65535","farm":66,"title":"Curlew sandpiper (Calidris ferruginea)","ispublic":1,"isfriend":0,"isfamily":0},{"id":"52455052658","owner":"79722430@N04","secret":"a3e946fe3f","server":"65535","farm":66,"title":"Curlew sandpiper (Calidris ferruginea)","ispublic":1,"isfriend":0,"isfamily":0},{"id":"52455052603","owner":"79722430@N04","secret":"8dab49a2a0","server":"65535","farm":66,"title":"Curlew sandpiper (Calidris ferruginea)","ispublic":1,"isfriend":0,"isfamily":0},{"id":"52454980480","owner":"79722430@N04","secret":"379cd57aef","server":"65535","farm":66,"title":"Curlew sandpiper (Calidris ferruginea)","ispublic":1,"isfriend":0,"isfamily":0},{"id":"52454980415","owner":"79722430@N04","secret":"26e09a050b","server":"65535","farm":66,"title":"Curlew sandpiper (Calidris ferruginea)","ispublic":1,"isfriend":0,"isfamily":0},{"id":"52454980385","owner":"79722430@N04","secret":"864ccf5ce3","server":"65535","farm":66,"title":"Curlew sandpiper (Calidris ferruginea)","ispublic":1,"isfriend":0,"isfamily":0},{"id":"52454004297","owner":"79722430@N04","secret":"d30f8ea152","server":"65535","farm":66,"title":"Curlew sandpiper (Calidris ferruginea)","ispublic":1,"isfriend":0,"isfamily":0},{"id":"52455026618","owner":"79722430@N04","secret":"c831dae9dc","server":"65535","farm":66,"title":"Curlew sandpiper (Calidris ferruginea)","ispublic":1,"isfriend":0,"isfamily":0},{"id":"52455026593","owner":"79722430@N04","secret":"1edeca90bc","server":"65535","farm":66,"title":"Curlew sandpiper (Calidris ferruginea)","ispublic":1,"isfriend":0,"isfamily":0},{"id":"52454955290","owner":"79722430@N04","secret":"d33c872b28","server":"65535","farm":66,"title":"Curlew sandpiper (Calidris ferruginea)","ispublic":1,"isfriend":0,"isfamily":0},{"id":"52455026538","owner":"79722430@N04","secret":"becb9856c1","server":"65535","farm":66,"title":"Curlew sandpiper (Calidris ferruginea)","ispublic":1,"isfriend":0,"isfamily":0},{"id":"52454955230","owner":"79722430@N04","secret":"64d10031ae","server":"65535","farm":66,"title":"Curlew sandpiper (Calidris ferruginea)","ispublic":1,"isfriend":0,"isfamily":0},{"id":"52454769804","owner":"79722430@N04","secret":"2a85757620","server":"65535","farm":66,"title":"Curlew sandpiper (Calidris ferruginea)","ispublic":1,"isfriend":0,"isfamily":0},{"id":"52455026488","owner":"79722430@N04","secret":"068b65d870","server":"65535","farm":66,"title":"Curlew sandpiper (Calidris ferruginea)","ispublic":1,"isfriend":0,"isfamily":0},{"id":"52455022343","owner":"79722430@N04","secret":"de0843ed7b","server":"65535","farm":66,"title":"Curlew sandpiper (Calidris ferruginea)","ispublic":1,"isfriend":0,"isfamily":0},{"id":"52454950975","owner":"79722430@N04","secret":"28b809303d","server":"65535","farm":66,"title":"Curlew sandpiper (Calidris ferruginea)","ispublic":1,"isfriend":0,"isfamily":0},{"id":"52454765459","owner":"79722430@N04","secret":"0e906272a1","server":"65535","farm":66,"title":"Curlew sandpiper (Calidris ferruginea)","ispublic":1,"isfriend":0,"isfamily":0},{"id":"52454765374","owner":"79722430@N04","secret":"3635d7e6dc","server":"65535","farm":66,"title":"Curlew sandpiper (Calidris ferruginea)","ispublic":1,"isfriend":0,"isfamily":0}]},"stat":"ok"}