{"photos":{"page":1,"pages":2,"perpage":100,"total":112,"photo":[{"id":"52790427209","owner":"34238008@N02","secret":"68dc8b70f6","server":"65535","farm":66,"title":"Dark-eyed Junco, Slate-colored (Junco hyemalis hyemalis\/carolinensis)","ispublic":1,"isfriend":0,"isfamily":0},{"id":"52790586845","owner":"34238008@N02","secret":"f0480b5253","server":"65535","farm":66,"title":"Dark-eyed Junco, Slate-colored (Junco hyemalis hyemalis\/carolinensis)","ispublic":1,"isfriend":0,"isfamily":0},{"id":"52790640933","owner":"34238008@N02","secret":"f9df760a44","server":"65535","farm":66,"title":"Dark-eyed Junco, Slate-colored (Junco hyemalis hyemalis\/carolinensis)","ispublic":1,"isfriend":0,"isfamily":0},{"id":"52779348419","owner":"34238008@N02","secret":"343040a820","server":"65535","farm":66,"title":"Dark-eyed Junco, Slate-colored (Junco hyemalis hyemalis\/carolinensis)","ispublic":1,"isfriend":0,"isfamily":0},{"id":"52779571398","owner":"34238008@N02","secret":"367ed5b4b0","server":"65535","farm":66,"title":"Dark-eyed Junco, Slate-colored (Junco hyemalis hyemalis\/carolinensis)","ispublic":1,"isfriend":0,"isfamily":0},{"id":"52779347939","owner":"34238008@N02","secret":"88f795d09f","server":"65535","farm":66,"title":"Dark-eyed Junco, Slate-colored (Junco hyemalis hyemalis\/carolinensis)","ispublic":1,"isfriend":0,"isfamily":0},{"id":"52779347839","owner":"34238008@N02","secret":"af95c2b041","server":"65535","farm":66,"title":"Dark-eyed Junco, Slate-colored (Junco hyemalis hyemalis\/carolinensis)","ispublic":1,"isfriend":0,"isfamily":0},{"id":"52779092011","owner":"34238008@N02","secret":"2a2429c59b","server":"65535","farm":66,"title":"Dark-eyed Junco, Slate-colored (Junco hyemalis hyemalis\/carolinensis)","ispublic":1,"isfriend":0,"isfamily":0},{"id":"52779570583","owner":"34238008@N02","secret":"970f796a20","server":"65535","farm":66,"title":"Dark-eyed Junco, Slate-colored (Junco hyemalis hyemalis\/carolinensis)","ispublic":1,"isfriend":0,"isfamily":0},{"id":"52711995568","owner":"9243885@N07","secret":"6a77bc4766","server":"65535","farm":66,"title":"2023_02_25_093955","ispublic":1,"isfriend":0,"isfamily":0},{"id":"52690764969","owner":"34238008@N02","secret":"ffe09956ab","server":"65535","farm":66,"title":"Dark-eyed Junco, Slate-colored (Junco hyemalis hyemalis\/carolinensis)","ispublic":1,"isfriend":0,"isfamily":0},{"id":"52690988908","owner":"34238008@N02","secret":"2f7811fba5","server":"65535","farm":66,"title":"Dark-eyed Junco, Slate-colored (Junco hyemalis hyemalis\/carolinensis)","ispublic":1,"isfriend":0,"isfamily":0},{"id":"52690764724","owner":"34238008@N02","secret":"d552d40fc0","server":"65535","farm":66,"title":"Dark-eyed Junco, Slate-colored (Junco hyemalis hyemalis\/carolinensis)","ispublic":1,"isfriend":0,"isfamily":0},{"id":"52680825518","owner":"34238008@N02","secret":"c5726d0cf7","server":"65535","farm":66,"title":"Dark-eyed Junco, Slate-colored (Junco hyemalis hyemalis\/carolinensis)","ispublic":1,"isfriend":0,"isfamily":0},{"id":"52680825433","owner":"34238008@N02","secret":"aa1d476b34","server":"65535","farm":66,"title":"Dark-eyed Junco, Slate-colored (Junco hyemalis hyemalis\/carolinensis)","ispublic":1,"isfriend":0,"isfamily":0},{"id":"52668521659","owner":"34238008@N02","secret":"9a749d8c70","server":"65535","farm":66,"title":"Dark-eyed Junco, Slate-colored (Junco hyemalis hyemalis\/carolinensis)","ispublic":1,"isfriend":0,"isfamily":0},{"id":"52668521609","owner":"34238008@N02","secret":"2e806d028f","server":"65535","farm":66,"title":"Dark-eyed Junco, Slate-colored (Junco hyemalis hyemalis\/carolinensis)","ispublic":1,"isfriend":0,"isfamily":0},{"id":"52668735243","owner":"34238008@N02","secret":"f7da23c984","server":"65535","farm":66,"title":"Dark-eyed Junco, Slate-colored (Junco hyemalis hyemalis\/carolinensis)","ispublic":1,"isfriend":0,"isfamily":0},{"id":"52626868283","owner":"34238008@N02","secret":"334fc00262","server":"65535","farm":66,"title":"Dark-eyed Junco, Slate-colored (Junco hyemalis hyemalis\/carolinensis)","ispublic":1,"isfriend":0,"isfamily":0},{"id":"52625878392","owner":"34238008@N02","secret":"8f92a783f5","server":"65535","farm":66,"title":"Dark-eyed Junco, Slate-colored (Junco hyemalis hyemalis\/carolinensis)","ispublic":1,"isfriend":0,"isfamily":0},{"id":"52625878307","owner":"34238008@N02","secret":"1a34a0b297","server":"65535","farm":66,"title":"Dark-eyed Junco, Slate-colored (Junco hyemalis hyemalis\/carolinensis)","ispublic":1,"isfriend":0,"isfamily":0},{"id":"52626830035","owner":"34238008@N02","secret":"8eb4746cfe","server":"65535","farm":66,"title":"Dark-eyed Junco, Slate-colored (Junco hyemalis hyemalis\/carolinensis)","ispublic":1,"isfriend":0,"isfamily":0},{"id":"52626829950","owner":"34238008@N02","secret":"6a3fece081","server":"65535","farm":66,"title":"Dark-eyed Junco, Slate-colored (Junco hyemalis hyemalis\/carolinensis)","ispublic":1,"isfriend":0,"isfamily":0},{"id":"52625877972","owner":"34238008@N02","secret":"8f82736a03","server":"65535","farm":66,"title":"Dark-eyed Junco, Slate-colored (Junco hyemalis hyemalis\/carolinensis)","ispublic":1,"isfriend":0,"isfamily":0},{"id":"52625877472","owner":"34238008@N02","secret":"14bf7f3793","server":"65535","farm":66,"title":"Dark-eyed Junco, Slate-colored (Junco hyemalis hyemalis\/carolinensis)","ispublic":1,"isfriend":0,"isfamily":0},{"id":"52625877327","owner":"34238008@N02","secret":"afbba3b82f","server":"65535","farm":66,"title":"Dark-eyed Junco, Slate-colored (Junco hyemalis hyemalis\/carolinensis)","ispublic":1,"isfriend":0,"isfamily":0},{"id":"52613009328","owner":"34238008@N02","secret":"24802ca017","server":"65535","farm":66,"title":"Dark-eyed Junco, Slate-colored (Junco hyemalis hyemalis\/carolinensis)","ispublic":1,"isfriend":0,"isfamily":0},{"id":"52612945640","owner":"34238008@N02","secret":"82c5ef4dbf","server":"65535","farm":66,"title":"Dark-eyed Junco, Slate-colored (Junco hyemalis hyemalis\/carolinensis)","ispublic":1,"isfriend":0,"isfamily":0},{"id":"52613009158","owner":"34238008@N02","secret":"5db994c0ac","server":"65535","farm":66,"title":"Dark-eyed Junco, Slate-colored (Junco hyemalis hyemalis\/carolinensis)","ispublic":1,"isfriend":0,"isfamily":0},{"id":"52578394691","owner":"75473329@N00","secret":"bff81eca62","server":"65535","farm":66,"title":"Slate colored dark-eyed junco (Junco hyemalis hyemalis\/carolinensis)","ispublic":1,"isfriend":0,"isfamily":0},{"id":"52481691321","owner":"184155060@N04","secret":"e9a5f47e3f","server":"65535","farm":66,"title":"31869 Junco ardois\u00e9 \/ Junco hyemalis hyemalis\/carolinensis \/ Dark-eyed Junco (Slate-colored)","ispublic":1,"isfriend":0,"isfamily":0},{"id":"51942363205","owner":"34238008@N02","secret":"882a1e5a5a","server":"65535","farm":66,"title":"Dark-eyed Junco, Slate-colored (Junco hyemalis hyemalis\/carolinensis)","ispublic":1,"isfriend":0,"isfamily":0},{"id":"51941833663","owner":"34238008@N02","secret":"f6ec61cfdc","server":"65535","farm":66,"title":"Dark-eyed Junco, Slate-colored (Junco hyemalis hyemalis\/carolinensis)","ispublic":1,"isfriend":0,"isfamily":0},{"id":"51713021751","owner":"34238008@N02","secret":"6c2b8576de","server":"65535","farm":66,"title":"Dark-eyed Junco, Slate-colored (Junco hyemalis hyemalis\/carolinensis)","ispublic":1,"isfriend":0,"isfamily":0},{"id":"51632924861","owner":"34238008@N02","secret":"359c2ee69f","server":"65535","farm":66,"title":"Dark-eyed Junco, Slate-colored (Junco hyemalis hyemalis\/carolinensis)","ispublic":1,"isfriend":0,"isfamily":0},{"id":"51633775385","owner":"34238008@N02","secret":"2771de4358","server":"65535","farm":66,"title":"Dark-eyed Junco, Slate-colored (Junco hyemalis hyemalis\/carolinensis)","ispublic":1,"isfriend":0,"isfamily":0},{"id":"51632099997","owner":"34238008@N02","secret":"45ee0ef267","server":"65535","farm":66,"title":"Dark-eyed Junco, Slate-colored (Junco hyemalis hyemalis\/carolinensis)","ispublic":1,"isfriend":0,"isfamily":0},{"id":"51102960223","owner":"34238008@N02","secret":"fcd5d042b3","server":"65535","farm":66,"title":"Dark-eyed Junco, Slate-colored (Junco hyemalis hyemalis\/carolinensis)","ispublic":1,"isfriend":0,"isfamily":0},{"id":"50894000843","owner":"34238008@N02","secret":"bd92ff0231","server":"65535","farm":66,"title":"Dark-eyed Junco, Slate-colored (Junco hyemalis hyemalis\/carolinensis)","ispublic":1,"isfriend":0,"isfamily":0},{"id":"50779347201","owner":"34238008@N02","secret":"68c373d8ce","server":"65535","farm":66,"title":"Dark-eyed Junco, Slate-colored (Junco hyemalis hyemalis\/carolinensi)","ispublic":1,"isfriend":0,"isfamily":0},{"id":"50543622013","owner":"88978913@N08","secret":"36f5fef54d","server":"65535","farm":66,"title":"Dark-eyed Junco (Slate-colored), Junco hyemalis hyemalis","ispublic":1,"isfriend":0,"isfamily":0},{"id":"50544487852","owner":"88978913@N08","secret":"3c7e5bc66c","server":"65535","farm":66,"title":"Dark-eyed Junco (Slate-colored)","ispublic":1,"isfriend":0,"isfamily":0},{"id":"49778624901","owner":"34238008@N02","secret":"1a74712f40","server":"65535","farm":66,"title":"Dark-eyed Junco, Slate-colored (Junco hyemalis hyemalis\/carolinensi)","ispublic":1,"isfriend":0,"isfamily":0},{"id":"49778624491","owner":"34238008@N02","secret":"9c7b8b9c99","server":"65535","farm":66,"title":"Dark-eyed Junco, Slate-colored (Junco hyemalis hyemalis\/carolinensi)","ispublic":1,"isfriend":0,"isfamily":0},{"id":"49778624276","owner":"34238008@N02","secret":"4ff3b36c9f","server":"65535","farm":66,"title":"Dark-eyed Junco, Slate-colored male (Junco hyemalis hyemalis\/carolinensi)","ispublic":1,"isfriend":0,"isfamily":0},{"id":"49773152791","owner":"34238008@N02","secret":"98f080b60d","server":"65535","farm":66,"title":"Dark-eyed Junco, Slate-colored (Junco hyemalis hyemalis\/carolinensi)","ispublic":1,"isfriend":0,"isfamily":0},{"id":"49773152506","owner":"34238008@N02","secret":"f8f382f5fc","server":"65535","farm":66,"title":"Dark-eyed Junco, Slate-colored (Junco hyemalis hyemalis\/carolinensi)","ispublic":1,"isfriend":0,"isfamily":0},{"id":"40273227613","owner":"34238008@N02","secret":"14489cfcdf","server":"7886","farm":8,"title":"Dark-eyed Junco, Slate-colored (Junco hyemalis hyemalis\/carolinensis)","ispublic":1,"isfriend":0,"isfamily":0},{"id":"46169081325","owner":"34238008@N02","secret":"e3387f9437","server":"7925","farm":8,"title":"Dark-eyed Junco, Slate-colored (Junco hyemalis hyemalis\/carolinensis)","ispublic":1,"isfriend":0,"isfamily":0},{"id":"46358922674","owner":"34238008@N02","secret":"fabe289837","server":"7890","farm":8,"title":"Dark-eyed Junco, Slate-colored (Junco hyemalis hyemalis\/carolinensis)","ispublic":1,"isfriend":0,"isfamily":0},{"id":"46888342631","owner":"88978913@N08","secret":"708d237c05","server":"4872","farm":5,"title":"Cassiar Dark-eyed Junco, Junco hyemalis cismontanus","ispublic":1,"isfriend":0,"isfamily":0},{"id":"46813209522","owner":"34238008@N02","secret":"86e6051718","server":"7883","farm":8,"title":"Dark-eyed Junco (Slate-colored, Junco hyemalis hyemalis\/carolinensis)","ispublic":1,"isfriend":0,"isfamily":0},{"id":"32989931548","owner":"34238008@N02","secret":"3f222894e8","server":"4804","farm":5,"title":"Dark-eyed Junco, Slate-colored male (Junco hyemalis hyemalis\/carolinensis)","ispublic":1,"isfriend":0,"isfamily":0},{"id":"31690669127","owner":"34238008@N02","secret":"ea88cbb9ff","server":"4811","farm":5,"title":"Dark-eyed Junco, Slate-colored (Junco hyemalis hyemalis\/carolinensis)","ispublic":1,"isfriend":0,"isfamily":0},{"id":"44538096980","owner":"34238008@N02","secret":"0b4c121f36","server":"4853","farm":5,"title":"Dark-eyed Junco, Slate-colored (Junco hyemalis hyemalis\/carolinensis)","ispublic":1,"isfriend":0,"isfamily":0},{"id":"45089416981","owner":"58148027@N07","secret":"9054b6a1d4","server":"1967","farm":2,"title":"White-throated Sparrow w\/ Slate-colored Junco 2018-10-03 \u00a9Kevin S Lucas","ispublic":1,"isfriend":0,"isfamily":0},{"id":"41231337721","owner":"34238008@N02","secret":"0f5d50dcc3","server":"883","farm":1,"title":"Dark-eyed Junco, Slate-colored (Junco hyemalis hyemalis\/carolinensis)","ispublic":1,"isfriend":0,"isfamily":0},{"id":"39420834550","owner":"34238008@N02","secret":"540cb5cf66","server":"783","farm":1,"title":"Dark-eyed Junco, Slate-colored (Junco hyemalis hyemalis\/carolinensis)","ispublic":1,"isfriend":0,"isfamily":0},{"id":"26203976177","owner":"34238008@N02","secret":"fafc27a4ef","server":"810","farm":1,"title":"Dark-eyed Junco, Slate-colored (Junco hyemalis hyemalis\/carolinensis)","ispublic":1,"isfriend":0,"isfamily":0},{"id":"40366203094","owner":"34238008@N02","secret":"577443ddab","server":"884","farm":1,"title":"Dark-eyed Junco, Slate-colored (Junco hyemalis hyemalis\/carolinensis)","ispublic":1,"isfriend":0,"isfamily":0},{"id":"41075124631","owner":"34238008@N02","secret":"6e8bb2d4d4","server":"872","farm":1,"title":"Dark-eyed Junco, Slate-colored (Junco hyemalis hyemalis\/carolinensis)","ispublic":1,"isfriend":0,"isfamily":0},{"id":"40060779835","owner":"34238008@N02","secret":"bed079bddf","server":"4786","farm":5,"title":"Dark-eyed Junco, Slate-colored (Junco hyemalis hyemalis\/carolinensis)","ispublic":1,"isfriend":0,"isfamily":0},{"id":"40060775775","owner":"34238008@N02","secret":"16deefc3cf","server":"796","farm":1,"title":"Dark-eyed Junco, Slate-colored (Junco hyemalis hyemalis\/carolinensis)","ispublic":1,"isfriend":0,"isfamily":0},{"id":"38647541060","owner":"34238008@N02","secret":"8a820f9dbd","server":"4764","farm":5,"title":"Dark-eyed Junco, Slate-colored (Junco hyemalis hyemalis\/carolinensis)","ispublic":1,"isfriend":0,"isfamily":0},{"id":"39747679134","owner":"34238008@N02","secret":"7a7d6db61d","server":"4616","farm":5,"title":"Dark-eyed Junco, Slate-colored female (Junco hyemalis hyemalis\/carolinensis)","ispublic":1,"isfriend":0,"isfamily":0},{"id":"38647536920","owner":"34238008@N02","secret":"7899bdc719","server":"4611","farm":5,"title":"Dark-eyed Junco, Slate-colored (Junco hyemalis hyemalis\/carolinensis)","ispublic":1,"isfriend":0,"isfamily":0},{"id":"39715300191","owner":"125723802@N05","secret":"aedc04dda9","server":"4718","farm":5,"title":"Junco hyemalis hyemalis\/carolinensis - Dark-eyed Junco (Slate-colored)","ispublic":1,"isfriend":0,"isfamily":0},{"id":"25197764625","owner":"34238008@N02","secret":"47b54a63a2","server":"1458","farm":2,"title":"Dark-eyed Junco, Slate-colored\/Cassiar (Junco hyemalis hyemalis\/carolinensis\/cismontanus)","ispublic":1,"isfriend":0,"isfamily":0},{"id":"51131750768","owner":"184155060@N04","secret":"fdd129ee32","server":"65535","farm":66,"title":"31869 Junco ardois\u00e9 \/ Junco hyemalis hyemalis\/carolinensis \/ Dark-eyed Junco (Slate-colored)","ispublic":1,"isfriend":0,"isfamily":0},{"id":"51131750568","owner":"184155060@N04","secret":"268edeebe0","server":"65535","farm":66,"title":"31869 Junco ardois\u00e9 \/ Junco hyemalis hyemalis\/carolinensis \/ Dark-eyed Junco (Slate-colored)","ispublic":1,"isfriend":0,"isfamily":0},{"id":"51130863982","owner":"184155060@N04","secret":"f5c3cc7998","server":"65535","farm":66,"title":"31869 Junco ardois\u00e9 \/ Junco hyemalis hyemalis\/carolinensis \/ Dark-eyed Junco (Slate-colored)","ispublic":1,"isfriend":0,"isfamily":0},{"id":"50874769816","owner":"22420387@N07","secret":"4d8b62d801","server":"65535","farm":66,"title":"Dark-eyed Junco - DEL_1801-LRwm","ispublic":1,"isfriend":0,"isfamily":0},{"id":"50874871767","owner":"22420387@N07","secret":"15b0dff706","server":"65535","farm":66,"title":"Dark-eyed Junco - DEL_1809-LRwm","ispublic":1,"isfriend":0,"isfamily":0},{"id":"50587808008","owner":"93369624@N03","secret":"3509650f9e","server":"65535","farm":66,"title":"Dark-eyed Junco (Slate-colored), Junco hyemalis hyemalis\/carolinensis","ispublic":1,"isfriend":0,"isfamily":0},{"id":"49507442043","owner":"93369624@N03","secret":"5a90ed827c","server":"65535","farm":66,"title":"Dark-eyed Junco (Slate-colored) Junco hyemalis hyemalis\/carolinensis","ispublic":1,"isfriend":0,"isfamily":0},{"id":"48722788263","owner":"184155060@N04","secret":"4163c5c89f","server":"65535","farm":66,"title":"31869 Junco ardois\u00e9 \/ Junco hyemalis hyemalis\/carolinensis \/ Dark-eyed Junco (Slate-colored)","ispublic":1,"isfriend":0,"isfamily":0},{"id":"48723121631","owner":"184155060@N04","secret":"41657b4277","server":"65535","farm":66,"title":"31869 Junco ardois\u00e9 \/ Junco hyemalis hyemalis\/carolinensis \/ Dark-eyed Junco (Slate-colored)","ispublic":1,"isfriend":0,"isfamily":0},{"id":"43010188004","owner":"133260327@N08","secret":"d7d621db7f","server":"851","farm":1,"title":"(Appalachian) Dark-eyed Junco (Junco hyemalis carolinensis)","ispublic":1,"isfriend":0,"isfamily":0},{"id":"39781471625","owner":"26803925@N05","secret":"e865170393","server":"4740","farm":5,"title":"Carolina Junco (Junco hyemalis carolinensis) 11-16-2017 Savage River SF--High Rocks Trail, Garrett Co. MD 1","ispublic":1,"isfriend":0,"isfamily":0},{"id":"39781471775","owner":"26803925@N05","secret":"c7687d7bae","server":"4659","farm":5,"title":"Carolina Junco (Junco hyemalis carolinensis) 11-16-2017 Savage River SF--High Rocks Trail, Garrett Co. MD 4","ispublic":1,"isfriend":0,"isfamily":0},{"id":"39781471785","owner":"26803925@N05","secret":"2acc817f74","server":"4614","farm":5,"title":"Carolina Junco (Junco hyemalis carolinensis) 11-16-2017 Savage River SF--High Rocks Trail, Garrett Co. MD 2","ispublic":1,"isfriend":0,"isfamily":0},{"id":"39781471745","owner":"26803925@N05","secret":"e982d67e5f","server":"4785","farm":5,"title":"Carolina Junco (Junco hyemalis carolinensis) 11-16-2017 Savage River SF--High Rocks Trail, Garrett Co. MD 3","ispublic":1,"isfriend":0,"isfamily":0},{"id":"39576880741","owner":"125723802@N05","secret":"161fab9459","server":"4683","farm":5,"title":"Junco hyemalis hyemalis\/carolinensis - Dark-eyed Junco (Slate-colored)","ispublic":1,"isfriend":0,"isfamily":0},{"id":"37054653573","owner":"40222909@N04","secret":"75c9cca578","server":"4465","farm":5,"title":"- Dark-eyed Junco (Slate-colored) (Junco hyemalis hyemalis\/carolinensis) LaBagh Woods Chicago Cook County IL October 2017 Week #40 Jeff Skrentny IMG_1017","ispublic":1,"isfriend":0,"isfamily":0},{"id":"27424723542","owner":"125723802@N05","secret":"af422c26ff","server":"7704","farm":8,"title":"Dark-eyed Junco (Slate-colored) (Junco hyemalis hyemalis\/carolinensis)","ispublic":1,"isfriend":0,"isfamily":0},{"id":"22720091562","owner":"69856927@N00","secret":"e4f140b435","server":"623","farm":1,"title":"Dark-eyed Junco (Slate-colored) Junco hyemalis hyemalis:carolinensis, Frank G. Bonelli Regional Park, Los Angeles County, CA, Nov 2, 2015","ispublic":1,"isfriend":0,"isfamily":0},{"id":"16787326751","owner":"28764032@N00","secret":"c407ef3a18","server":"8565","farm":9,"title":"Carolina Junco, Great Smoky Mountains National Park, Clingmans Dome, June 2014","ispublic":1,"isfriend":0,"isfamily":0},{"id":"16601088410","owner":"28764032@N00","secret":"6103a08a6d","server":"7641","farm":8,"title":"Carolina Junco, Great Smoky Mountains National Park, Clingmans Dome, June 2014","ispublic":1,"isfriend":0,"isfamily":0},{"id":"16602326449","owner":"28764032@N00","secret":"6606db763f","server":"7608","farm":8,"title":"Carolina Junco, Great Smoky Mountains National Park, Clingmans Dome, June 2014","ispublic":1,"isfriend":0,"isfamily":0},{"id":"16602326459","owner":"28764032@N00","secret":"e7f959a74a","server":"7597","farm":8,"title":"Carolina Junco, Great Smoky Mountains National Park, Clingmans Dome, June 2014","ispublic":1,"isfriend":0,"isfamily":0},{"id":"16788460145","owner":"28764032@N00","secret":"3f52d622f7","server":"8580","farm":9,"title":"Carolina Junco, Great Smoky Mountains National Park, Clingmans Dome, June 2014","ispublic":1,"isfriend":0,"isfamily":0},{"id":"16581173437","owner":"28764032@N00","secret":"c31ef174a4","server":"7281","farm":8,"title":"Carolina Junco, Great Smoky Mountains National Park, Clingmans Dome, June 2014","ispublic":1,"isfriend":0,"isfamily":0},{"id":"16600876628","owner":"28764032@N00","secret":"5d8d64bf55","server":"8732","farm":9,"title":"Carolina Junco, Great Smoky Mountains National Park, Clingmans Dome, June 2014","ispublic":1,"isfriend":0,"isfamily":0},{"id":"16601088210","owner":"28764032@N00","secret":"2f83d996ca","server":"7601","farm":8,"title":"Carolina Junco, Great Smoky Mountains National Park, Clingmans Dome, June 2014","ispublic":1,"isfriend":0,"isfamily":0},{"id":"16581173407","owner":"28764032@N00","secret":"d10bf2ffcc","server":"7284","farm":8,"title":"Carolina Junco, Great Smoky Mountains National Park, Clingmans Dome, June 2014","ispublic":1,"isfriend":0,"isfamily":0},{"id":"16602326109","owner":"28764032@N00","secret":"c4057ab0e7","server":"8692","farm":9,"title":"Carolina Junco, Great Smoky Mountains National Park, Clingmans Dome, June 2014","ispublic":1,"isfriend":0,"isfamily":0},{"id":"16788459635","owner":"28764032@N00","secret":"c777fdc211","server":"8564","farm":9,"title":"Carolina Junco, Great Smoky Mountains National Park, Clingmans Dome, June 2014","ispublic":1,"isfriend":0,"isfamily":0},{"id":"16600875988","owner":"28764032@N00","secret":"e1393ac084","server":"7608","farm":8,"title":"Carolina Junco, Great Smoky Mountains National Park, Clingmans Dome, June 2014","ispublic":1,"isfriend":0,"isfamily":0},{"id":"16762587596","owner":"28764032@N00","secret":"0f1015e36c","server":"7625","farm":8,"title":"Carolina Junco, Great Smoky Mountains National Park, Clingmans Dome, June 2014","ispublic":1,"isfriend":0,"isfamily":0},{"id":"16600876058","owner":"28764032@N00","secret":"917af7e952","server":"7603","farm":8,"title":"Carolina Junco, Great Smoky Mountains National Park, Clingmans Dome, June 2014","ispublic":1,"isfriend":0,"isfamily":0}]},"stat":"ok"}