{"photos":{"page":1,"pages":3,"perpage":100,"total":210,"photo":[{"id":"52704465075","owner":"90408688@N02","secret":"b9a1d9b10c","server":"65535","farm":66,"title":"Stagonopleura guttata - Diamond Firetail (juv)","ispublic":1,"isfriend":0,"isfamily":0},{"id":"52703522532","owner":"90408688@N02","secret":"870c9c1758","server":"65535","farm":66,"title":"Stagonopleura guttata - Diamond Firetail (juv)","ispublic":1,"isfriend":0,"isfamily":0},{"id":"52703522452","owner":"90408688@N02","secret":"764a5ffc6e","server":"65535","farm":66,"title":"Stagonopleura guttata - Diamond Firetail (juv)","ispublic":1,"isfriend":0,"isfamily":0},{"id":"52665013388","owner":"132431122@N05","secret":"7a2916c566","server":"65535","farm":66,"title":"Diamond Firetail","ispublic":1,"isfriend":0,"isfamily":0},{"id":"52665013363","owner":"132431122@N05","secret":"c4e45354fe","server":"65535","farm":66,"title":"Diamond Firetail","ispublic":1,"isfriend":0,"isfamily":0},{"id":"52664016017","owner":"132431122@N05","secret":"53b1350f65","server":"65535","farm":66,"title":"Diamond Firetail","ispublic":1,"isfriend":0,"isfamily":0},{"id":"52572828597","owner":"21606110@N08","secret":"08f2153b18","server":"65535","farm":66,"title":"Diamond Firetail","ispublic":1,"isfriend":0,"isfamily":0},{"id":"52084841712","owner":"78742710@N08","secret":"25674290f2","server":"65535","farm":66,"title":"Diamod Firetail- Crown Jewel of Eynesbury Grey Box","ispublic":1,"isfriend":0,"isfamily":0},{"id":"52072701555","owner":"12742129@N07","secret":"64ed527fbe","server":"65535","farm":66,"title":"Diamond Firetail (Finch)","ispublic":1,"isfriend":0,"isfamily":0},{"id":"51813616681","owner":"151993772@N02","secret":"f18a7525f7","server":"65535","farm":66,"title":"Diamond Firetail (Stagonopleura guttata)","ispublic":1,"isfriend":0,"isfamily":0},{"id":"51304308139","owner":"72176412@N00","secret":"c4330d357f","server":"65535","farm":66,"title":"The World Down Under","ispublic":1,"isfriend":0,"isfamily":0},{"id":"51278686223","owner":"61021753@N02","secret":"555a7baba1","server":"65535","farm":66,"title":"n254_w1150","ispublic":1,"isfriend":0,"isfamily":0},{"id":"51267438133","owner":"55310085@N06","secret":"d607b61f03","server":"65535","farm":66,"title":"Estrildidae - Diamond Firetail","ispublic":1,"isfriend":0,"isfamily":0},{"id":"51219201359","owner":"61021753@N02","secret":"45d05f8755","server":"65535","farm":66,"title":"n253_w1150","ispublic":1,"isfriend":0,"isfamily":0},{"id":"51219192799","owner":"61021753@N02","secret":"8ba1f740a2","server":"65535","farm":66,"title":"n110_w1150","ispublic":1,"isfriend":0,"isfamily":0},{"id":"51131403439","owner":"78742710@N08","secret":"b7b6d12e73","server":"65535","farm":66,"title":"Diamond Firetail: Reflecting","ispublic":1,"isfriend":0,"isfamily":0},{"id":"50857872028","owner":"191621302@N03","secret":"aab7ce2e41","server":"65535","farm":66,"title":"Diamond Firetail (Stagonopleura guttata)","ispublic":1,"isfriend":0,"isfamily":0},{"id":"50212372733","owner":"143455489@N03","secret":"9a8aa548a2","server":"65535","farm":66,"title":"Lovely Diamond Firetail Finch","ispublic":1,"isfriend":0,"isfamily":0},{"id":"50282042182","owner":"64453831@N08","secret":"706d48efd8","server":"65535","farm":66,"title":"Healesville   |   Diamond Firetail Finch","ispublic":1,"isfriend":0,"isfamily":0},{"id":"49718374718","owner":"143455489@N03","secret":"cc724d5145","server":"65535","farm":66,"title":"Cute Diamond Firetail Finch","ispublic":1,"isfriend":0,"isfamily":0},{"id":"50003253013","owner":"187469698@N05","secret":"580f3917bc","server":"65535","farm":66,"title":"1145 Diamond Firetail - Andrew Walker 001","ispublic":1,"isfriend":0,"isfamily":0},{"id":"49920894978","owner":"182959673@N06","secret":"f87566ea11","server":"65535","farm":66,"title":"Diamond Firetail - Terrick Terrick National Park, Victoria","ispublic":1,"isfriend":0,"isfamily":0},{"id":"49656800871","owner":"187449610@N06","secret":"1f7ddf9dca","server":"65535","farm":66,"title":"Diamond Firetail","ispublic":1,"isfriend":0,"isfamily":0},{"id":"49171668003","owner":"143455489@N03","secret":"0a08ce6be9","server":"65535","farm":66,"title":"Lovely colours of Diamond Firetail Finch","ispublic":1,"isfriend":0,"isfamily":0},{"id":"49191046042","owner":"72176412@N00","secret":"b1fc643a47","server":"65535","farm":66,"title":"Miss Diamond","ispublic":1,"isfriend":0,"isfamily":0},{"id":"48831302801","owner":"78742710@N08","secret":"9b7c0725e4","server":"65535","farm":66,"title":"Diamond Firetail: Eynesbury Signature Bird","ispublic":1,"isfriend":0,"isfamily":0},{"id":"48805920552","owner":"162935791@N04","secret":"16d6de82d2","server":"65535","farm":66,"title":"Stagonopleura guttata 4","ispublic":1,"isfriend":0,"isfamily":0},{"id":"48805427953","owner":"162935791@N04","secret":"7dba51f653","server":"65535","farm":66,"title":"Stagonopleura guttata 5","ispublic":1,"isfriend":0,"isfamily":0},{"id":"46133069625","owner":"81092401@N04","secret":"a3e8bfed47","server":"7852","farm":8,"title":"Diamantfink - Wilhelma Stuttgart (02)","ispublic":1,"isfriend":0,"isfamily":0},{"id":"32782108368","owner":"14888671@N02","secret":"9ee2e33e73","server":"4891","farm":5,"title":"Diamond Firetail","ispublic":1,"isfriend":0,"isfamily":0},{"id":"45741610365","owner":"14888671@N02","secret":"491632a8b5","server":"7893","farm":8,"title":"Diamond Firetail","ispublic":1,"isfriend":0,"isfamily":0},{"id":"45585402444","owner":"21331264@N04","secret":"85def13799","server":"4844","farm":5,"title":"Stagonopleura guttata 5","ispublic":1,"isfriend":0,"isfamily":0},{"id":"45569973674","owner":"75299599@N00","secret":"dcd47b507a","server":"4850","farm":5,"title":"Diamond Firetail (Stagonopleura guttata)","ispublic":1,"isfriend":0,"isfamily":0},{"id":"43892932220","owner":"14888671@N02","secret":"dca90bc550","server":"4855","farm":5,"title":"Diamond Firetail","ispublic":1,"isfriend":0,"isfamily":0},{"id":"45627922202","owner":"77128742@N06","secret":"d840858e0d","server":"4833","farm":5,"title":"Diamantamadine_Stagonopleura guttata-4","ispublic":1,"isfriend":0,"isfamily":0},{"id":"44657328544","owner":"78742710@N08","secret":"2cef16143a","server":"1920","farm":2,"title":"Diamond FIretail","ispublic":1,"isfriend":0,"isfamily":0},{"id":"28531250347","owner":"132431122@N05","secret":"eb756b7b47","server":"918","farm":1,"title":"Diamond Firetail Finch","ispublic":1,"isfriend":0,"isfamily":0},{"id":"42683994464","owner":"132431122@N05","secret":"ea8a78398d","server":"920","farm":1,"title":"Diamond Firetail Finch","ispublic":1,"isfriend":0,"isfamily":0},{"id":"27246622828","owner":"75486942@N08","secret":"4c453158d7","server":"884","farm":1,"title":"aDSCN2519-2","ispublic":1,"isfriend":0,"isfamily":0},{"id":"27246622498","owner":"75486942@N08","secret":"9c20e5490e","server":"871","farm":1,"title":"aDSCN2522-1","ispublic":1,"isfriend":0,"isfamily":0},{"id":"37854751221","owner":"58975350@N06","secret":"0111de2ba2","server":"4496","farm":5,"title":"Diamond Firetail","ispublic":1,"isfriend":0,"isfamily":0},{"id":"37781019346","owner":"58975350@N06","secret":"0ccf1b15f8","server":"4513","farm":5,"title":"Diamond Firetails","ispublic":1,"isfriend":0,"isfamily":0},{"id":"36143495773","owner":"61021753@N02","secret":"e0e5948ec7","server":"4423","farm":5,"title":"n351_w1150","ispublic":1,"isfriend":0,"isfamily":0},{"id":"34745960470","owner":"33319209@N02","secret":"4f92c6f062","server":"4234","farm":5,"title":"Stagonopleura guttata, _DSC4945","ispublic":1,"isfriend":0,"isfamily":0},{"id":"33655354405","owner":"78247220@N08","secret":"b536d68e33","server":"3762","farm":4,"title":"Stagonopleura guttata","ispublic":1,"isfriend":0,"isfamily":0},{"id":"33614703906","owner":"78247220@N08","secret":"3d7764e277","server":"2899","farm":3,"title":"Stagonopleura guttata","ispublic":1,"isfriend":0,"isfamily":0},{"id":"33526317171","owner":"78247220@N08","secret":"2d98f737db","server":"3684","farm":4,"title":"Stagonopleura guttata","ispublic":1,"isfriend":0,"isfamily":0},{"id":"32690009385","owner":"25401497@N02","secret":"c596c5fc55","server":"636","farm":1,"title":"Stagonopleura guttata","ispublic":1,"isfriend":0,"isfamily":0},{"id":"31847173494","owner":"25401497@N02","secret":"00e2d5f808","server":"701","farm":1,"title":"Stagonopleura guttata","ispublic":1,"isfriend":0,"isfamily":0},{"id":"32537249892","owner":"25401497@N02","secret":"3a5a158b7a","server":"313","farm":1,"title":"Stagonopleura guttata","ispublic":1,"isfriend":0,"isfamily":0},{"id":"32567782921","owner":"25401497@N02","secret":"423d1bfddf","server":"521","farm":1,"title":"Stagonopleura guttata","ispublic":1,"isfriend":0,"isfamily":0},{"id":"32605901275","owner":"101362227@N04","secret":"6a2439ff99","server":"611","farm":1,"title":"Diamond Firetail Stagonopleura guttata Estrildidae","ispublic":1,"isfriend":0,"isfamily":0},{"id":"32198871401","owner":"101362227@N04","secret":"f2890821d6","server":"332","farm":1,"title":"Diamond firetail","ispublic":1,"isfriend":0,"isfamily":0},{"id":"32134721535","owner":"101362227@N04","secret":"739e9407a2","server":"356","farm":1,"title":"Diamond Firetail Stagonopleura guttata Estrildidae","ispublic":1,"isfriend":0,"isfamily":0},{"id":"52072452594","owner":"12742129@N07","secret":"f1d2585243","server":"65535","farm":66,"title":"Diamond Firetail (Finch)","ispublic":1,"isfriend":0,"isfamily":0},{"id":"52072701580","owner":"12742129@N07","secret":"70325dd587","server":"65535","farm":66,"title":"Diamond Firetail (Finch)","ispublic":1,"isfriend":0,"isfamily":0},{"id":"52072452459","owner":"12742129@N07","secret":"ddce8e00ab","server":"65535","farm":66,"title":"Diamond Firetail (Finch)","ispublic":1,"isfriend":0,"isfamily":0},{"id":"51838995741","owner":"194860397@N03","secret":"fb564bd5f7","server":"65535","farm":66,"title":"DSC_0508","ispublic":1,"isfriend":0,"isfamily":0},{"id":"51838995596","owner":"194860397@N03","secret":"672583d74c","server":"65535","farm":66,"title":"DSC_0514","ispublic":1,"isfriend":0,"isfamily":0},{"id":"51838995566","owner":"194860397@N03","secret":"ab4cc21ddc","server":"65535","farm":66,"title":"DSC_0515","ispublic":1,"isfriend":0,"isfamily":0},{"id":"51839730350","owner":"194860397@N03","secret":"49d0545ac2","server":"65535","farm":66,"title":"DSC_0518","ispublic":1,"isfriend":0,"isfamily":0},{"id":"51838049817","owner":"194860397@N03","secret":"9c3d564fe1","server":"65535","farm":66,"title":"DSC_0520","ispublic":1,"isfriend":0,"isfamily":0},{"id":"51838995501","owner":"194860397@N03","secret":"e33d8ebdbb","server":"65535","farm":66,"title":"DSC_0521","ispublic":1,"isfriend":0,"isfamily":0},{"id":"51839352724","owner":"194860397@N03","secret":"2538963530","server":"65535","farm":66,"title":"DSC_0522","ispublic":1,"isfriend":0,"isfamily":0},{"id":"51839352649","owner":"194860397@N03","secret":"cfd292cfed","server":"65535","farm":66,"title":"DSC_0523","ispublic":1,"isfriend":0,"isfamily":0},{"id":"51838995386","owner":"194860397@N03","secret":"d0028c00f7","server":"65535","farm":66,"title":"DSC_0527","ispublic":1,"isfriend":0,"isfamily":0},{"id":"51838049677","owner":"194860397@N03","secret":"1711db9817","server":"65535","farm":66,"title":"DSC_0525","ispublic":1,"isfriend":0,"isfamily":0},{"id":"51839110693","owner":"194860397@N03","secret":"f7e2e4061c","server":"65535","farm":66,"title":"DSC_0528","ispublic":1,"isfriend":0,"isfamily":0},{"id":"51839110638","owner":"194860397@N03","secret":"79c7e9f299","server":"65535","farm":66,"title":"DSC_0533","ispublic":1,"isfriend":0,"isfamily":0},{"id":"51838049497","owner":"194860397@N03","secret":"b653859bb7","server":"65535","farm":66,"title":"DSC_0539","ispublic":1,"isfriend":0,"isfamily":0},{"id":"51838049032","owner":"194860397@N03","secret":"d40a470888","server":"65535","farm":66,"title":"DSC_0516","ispublic":1,"isfriend":0,"isfamily":0},{"id":"51148976105","owner":"146833745@N04","secret":"b1f885025e","server":"65535","farm":66,"title":"Diamond Firetail (Stagonopleura guttata) - male, with his 'facinator' to woo the females","ispublic":1,"isfriend":0,"isfamily":0},{"id":"49656798471","owner":"187449610@N06","secret":"b6efdddba6","server":"65535","farm":66,"title":"Diamond Firetail","ispublic":1,"isfriend":0,"isfamily":0},{"id":"49108626451","owner":"12742129@N07","secret":"4a401c7935","server":"65535","farm":66,"title":"Diamond Firetail, Stagonopleura guttata","ispublic":1,"isfriend":0,"isfamily":0},{"id":"49108116588","owner":"12742129@N07","secret":"31bc35e0c3","server":"65535","farm":66,"title":"Diamond Firetail, Stagonopleura guttata","ispublic":1,"isfriend":0,"isfamily":0},{"id":"49108625011","owner":"12742129@N07","secret":"106bc3c5ec","server":"65535","farm":66,"title":"Diamond Firetail, Stagonopleura guttata","ispublic":1,"isfriend":0,"isfamily":0},{"id":"48805427463","owner":"162935791@N04","secret":"6326a06686","server":"65535","farm":66,"title":"Stagonopleura guttata 6","ispublic":1,"isfriend":0,"isfamily":0},{"id":"48768131888","owner":"72176412@N00","secret":"3f2a3c08f1","server":"65535","farm":66,"title":"Optimist","ispublic":1,"isfriend":0,"isfamily":0},{"id":"32819858207","owner":"137103568@N04","secret":"9b327231b2","server":"65535","farm":66,"title":"Diamond Firetail (Stagonopleura guttata)","ispublic":1,"isfriend":0,"isfamily":0},{"id":"33822308138","owner":"163416881@N04","secret":"a89dc2dcf4","server":"65535","farm":66,"title":"Stagonopleura guttata 2","ispublic":1,"isfriend":0,"isfamily":0},{"id":"40733099493","owner":"163416881@N04","secret":"ee4851be5c","server":"65535","farm":66,"title":"Stagonopleura guttata 4","ispublic":1,"isfriend":0,"isfamily":0},{"id":"46783263885","owner":"163416881@N04","secret":"17e6cccba1","server":"65535","farm":66,"title":"Stagonopleura guttata 6","ispublic":1,"isfriend":0,"isfamily":0},{"id":"32048108627","owner":"145043535@N02","secret":"49f5b10009","server":"4808","farm":5,"title":"Stagonopleura guttata 2","ispublic":1,"isfriend":0,"isfamily":0},{"id":"46989731161","owner":"145043535@N02","secret":"39d5c82624","server":"7860","farm":8,"title":"Stagonopleura guttata 3","ispublic":1,"isfriend":0,"isfamily":0},{"id":"32048105207","owner":"145043535@N02","secret":"cb9820b3ef","server":"7912","farm":8,"title":"Stagonopleura guttata 4","ispublic":1,"isfriend":0,"isfamily":0},{"id":"46989726791","owner":"145043535@N02","secret":"fec3977fdd","server":"7824","farm":8,"title":"Stagonopleura guttata 5","ispublic":1,"isfriend":0,"isfamily":0},{"id":"33113669698","owner":"145043535@N02","secret":"d419ff5f0c","server":"7898","farm":8,"title":"Stagonopleura guttata 1","ispublic":1,"isfriend":0,"isfamily":0},{"id":"46075406655","owner":"145043535@N02","secret":"102c58ba30","server":"4856","farm":5,"title":"Stagonopleura guttata 2","ispublic":1,"isfriend":0,"isfamily":0},{"id":"46075402705","owner":"145043535@N02","secret":"f393635661","server":"7812","farm":8,"title":"Stagonopleura guttata 3","ispublic":1,"isfriend":0,"isfamily":0},{"id":"32436523338","owner":"21331264@N04","secret":"56886b7e80","server":"4832","farm":5,"title":"Stagonopleura guttata 4","ispublic":1,"isfriend":0,"isfamily":0},{"id":"45585392644","owner":"21331264@N04","secret":"3a4ae8ff14","server":"4865","farm":5,"title":"Stagonopleura guttata 6","ispublic":1,"isfriend":0,"isfamily":0},{"id":"42306635242","owner":"140899730@N06","secret":"e3c386c1c0","server":"877","farm":1,"title":"Diamant \u00e0 gouttelettes (Stagonopleura guttata ou Emblema guttata)","ispublic":1,"isfriend":0,"isfamily":0},{"id":"27485313367","owner":"140899730@N06","secret":"d85270ca79","server":"894","farm":1,"title":"Diamant \u00e0 gouttelettes (Stagonopleura guttata ou Emblema guttata)","ispublic":1,"isfriend":0,"isfamily":0},{"id":"40548001860","owner":"140899730@N06","secret":"4d625666de","server":"881","farm":1,"title":"Diamant \u00e0 gouttelettes (Stagonopleura guttata ou Emblema guttata)","ispublic":1,"isfriend":0,"isfamily":0},{"id":"24720795807","owner":"53117871@N00","secret":"f8170f6394","server":"4719","farm":5,"title":"Diamond Firetail","ispublic":1,"isfriend":0,"isfamily":0},{"id":"37734160065","owner":"96568982@N06","secret":"f02614877e","server":"4532","farm":5,"title":"FIRETAIL, Diamond","ispublic":1,"isfriend":0,"isfamily":0},{"id":"34364097380","owner":"50809355@N06","secret":"38fab2c9ea","server":"4224","farm":5,"title":"Diamond Firetail Stagonopleura guttata Estrildidae Browns Rd Monarto","ispublic":1,"isfriend":0,"isfamily":0},{"id":"32809818761","owner":"7200351@N08","secret":"f39d6c0823","server":"2756","farm":3,"title":"Stagonopleura guttata","ispublic":1,"isfriend":0,"isfamily":0},{"id":"32809818201","owner":"7200351@N08","secret":"832b4e29b7","server":"3724","farm":4,"title":"Stagonopleura guttata","ispublic":1,"isfriend":0,"isfamily":0},{"id":"32553064870","owner":"7200351@N08","secret":"4770ff423a","server":"3932","farm":4,"title":"Stagonopleura guttata","ispublic":1,"isfriend":0,"isfamily":0}]},"stat":"ok"}