{"photos":{"page":1,"pages":4,"perpage":100,"total":352,"photo":[{"id":"52723484940","owner":"70295563@N00","secret":"f58ab06b08","server":"65535","farm":66,"title":"Beach party","ispublic":1,"isfriend":0,"isfamily":0},{"id":"52715607732","owner":"26520320@N03","secret":"4d0ac481b0","server":"65535","farm":66,"title":"_BAP0343","ispublic":1,"isfriend":0,"isfamily":0},{"id":"52716611728","owner":"26520320@N03","secret":"9219745777","server":"65535","farm":66,"title":"_BAP0342","ispublic":1,"isfriend":0,"isfamily":0},{"id":"52716611358","owner":"26520320@N03","secret":"f8a99b000d","server":"65535","farm":66,"title":"_BAP0340","ispublic":1,"isfriend":0,"isfamily":0},{"id":"52716554415","owner":"26520320@N03","secret":"35a96c5d2d","server":"65535","farm":66,"title":"_BAP0338","ispublic":1,"isfriend":0,"isfamily":0},{"id":"52716383834","owner":"26520320@N03","secret":"f8721793ff","server":"65535","farm":66,"title":"_BAP0321","ispublic":1,"isfriend":0,"isfamily":0},{"id":"52716123591","owner":"26520320@N03","secret":"f712fb3a78","server":"65535","farm":66,"title":"_BAP0320","ispublic":1,"isfriend":0,"isfamily":0},{"id":"52716382839","owner":"26520320@N03","secret":"bc2342afcb","server":"65535","farm":66,"title":"_BAP0318","ispublic":1,"isfriend":0,"isfamily":0},{"id":"52716586293","owner":"26520320@N03","secret":"524f0b209c","server":"65535","farm":66,"title":"_BAP0203","ispublic":1,"isfriend":0,"isfamily":0},{"id":"52716362499","owner":"26520320@N03","secret":"940e06bbb0","server":"65535","farm":66,"title":"_BAP0201","ispublic":1,"isfriend":0,"isfamily":0},{"id":"52713242197","owner":"168495655@N07","secret":"837686359f","server":"65535","farm":66,"title":"Cormoran \u00e0 aigrettes - Nannopterum auritum - Double-crested Cormorant","ispublic":1,"isfriend":0,"isfamily":0},{"id":"52708923229","owner":"25621285@N06","secret":"3f0202307d","server":"65535","farm":66,"title":"Double-Crested Cormorant","ispublic":1,"isfriend":0,"isfamily":0},{"id":"52707818885","owner":"61396634@N07","secret":"a9a86a8d2c","server":"65535","farm":66,"title":"Double-crested Cormorant","ispublic":1,"isfriend":0,"isfamily":0},{"id":"52707410576","owner":"61396634@N07","secret":"afc1da505f","server":"65535","farm":66,"title":"Double-crested Cormorant","ispublic":1,"isfriend":0,"isfamily":0},{"id":"52689936579","owner":"63093099@N02","secret":"5239955a66","server":"65535","farm":66,"title":"Double-crested Cormorants; 20230214; USA-WA-King-Seattle-Union Bay Natural Area","ispublic":1,"isfriend":0,"isfamily":0},{"id":"52681876414","owner":"62425933@N04","secret":"14f067f261","server":"65535","farm":66,"title":"The Warmth Of The Sun","ispublic":1,"isfriend":0,"isfamily":0},{"id":"52678106457","owner":"15078323@N00","secret":"f66b7061be","server":"65535","farm":66,"title":"Squabbles","ispublic":1,"isfriend":0,"isfamily":0},{"id":"52664781186","owner":"197555737@N05","secret":"fcb25a98d3","server":"65535","farm":66,"title":"2020-05-07 Cormorants","ispublic":1,"isfriend":0,"isfamily":0},{"id":"52655208668","owner":"44128780@N08","secret":"47f19e0294","server":"65535","farm":66,"title":"Double-crested Cormorant Taking Flight","ispublic":1,"isfriend":0,"isfamily":0},{"id":"52649908497","owner":"49114357@N08","secret":"a503f0fed0","server":"65535","farm":66,"title":"Double-crested Cormorant","ispublic":1,"isfriend":0,"isfamily":0},{"id":"52650218346","owner":"49114357@N08","secret":"c9c38d6198","server":"65535","farm":66,"title":"Double-crested Cormorant","ispublic":1,"isfriend":0,"isfamily":0},{"id":"52647367310","owner":"71185522@N00","secret":"099a1b6b75","server":"65535","farm":66,"title":"Double-Crested Cormorant","ispublic":1,"isfriend":0,"isfamily":0},{"id":"52633552359","owner":"63093099@N02","secret":"759f62dc55","server":"65535","farm":66,"title":"Double-crested Cormorants; 20230116; USA-WA-Seattle-Union Bay Natural Area (Montlake Fill)","ispublic":1,"isfriend":0,"isfamily":0},{"id":"52631330652","owner":"33814246@N00","secret":"80aa29d40d","server":"65535","farm":66,"title":"IMG_0592-1","ispublic":1,"isfriend":0,"isfamily":0},{"id":"52627829020","owner":"120699091@N02","secret":"f5def30fa6","server":"65535","farm":66,"title":"Double-crested Cormorant","ispublic":1,"isfriend":0,"isfamily":0},{"id":"52623195730","owner":"14734088@N02","secret":"52b00d9748","server":"65535","farm":66,"title":"Cormoran \u00e0 aigrettes 221021H3 juv\u00e9nile","ispublic":1,"isfriend":0,"isfamily":0},{"id":"52589525392","owner":"23859768@N04","secret":"db7d1020be","server":"65535","farm":66,"title":"double-crested cormorant (Nannopterum auritum)","ispublic":1,"isfriend":0,"isfamily":0},{"id":"52586206418","owner":"186413274@N08","secret":"8b714ba8b8","server":"65535","farm":66,"title":"Double-crested Cormorant, Lake Calaveras Park, San Antonio, Texas.","ispublic":1,"isfriend":0,"isfamily":0},{"id":"52582509666","owner":"65632611@N00","secret":"c7fbb831c1","server":"65535","farm":66,"title":"ca.malibu.dc corm breeding.W.2545","ispublic":1,"isfriend":0,"isfamily":0},{"id":"52582042062","owner":"65632611@N00","secret":"d25be188b7","server":"65535","farm":66,"title":"ca.malibu.dc corm breeding.long.W.2545","ispublic":1,"isfriend":0,"isfamily":0},{"id":"52583008803","owner":"132508209@N08","secret":"0780a1215f","server":"65535","farm":66,"title":"Yellow-billed Loon (Gavia adamsii) and Double-crested Cormorant (Nannopterum auritum)","ispublic":1,"isfriend":0,"isfamily":0},{"id":"52581841756","owner":"186413274@N08","secret":"e2df221906","server":"65535","farm":66,"title":"Double-crested Cormorant with fish 06510","ispublic":1,"isfriend":0,"isfamily":0},{"id":"52581377247","owner":"186413274@N08","secret":"36520dc5a7","server":"65535","farm":66,"title":"Double-crested Cormorant with fish 06502","ispublic":1,"isfriend":0,"isfamily":0},{"id":"52550134637","owner":"59631194@N06","secret":"ffc8e374e9","server":"65535","farm":66,"title":"Double-crested Cormorant (Nannopterum auritum)","ispublic":1,"isfriend":0,"isfamily":0},{"id":"52548929760","owner":"70295563@N00","secret":"7ea54d676c","server":"65535","farm":66,"title":"Glide on","ispublic":1,"isfriend":0,"isfamily":0},{"id":"52524475681","owner":"28810412@N02","secret":"331bb303da","server":"65535","farm":66,"title":"Double-crested Cormorant - Nannopterum auritumLog Boom Park - Kenmore - 11_24_2022","ispublic":1,"isfriend":0,"isfamily":0},{"id":"52519426234","owner":"44128780@N08","secret":"096ca83e26","server":"65535","farm":66,"title":"Double-crested Cormorant","ispublic":1,"isfriend":0,"isfamily":0},{"id":"52519628630","owner":"44128780@N08","secret":"c2d98cc5f9","server":"65535","farm":66,"title":"Double-crested Cormorant","ispublic":1,"isfriend":0,"isfamily":0},{"id":"52509797231","owner":"32665930@N04","secret":"189a27beef","server":"65535","farm":66,"title":"Double-crested Cormorant","ispublic":1,"isfriend":0,"isfamily":0},{"id":"52510276740","owner":"32665930@N04","secret":"8e687bff5f","server":"65535","farm":66,"title":"Double-crested Cormorant","ispublic":1,"isfriend":0,"isfamily":0},{"id":"52510342518","owner":"32665930@N04","secret":"766590a950","server":"65535","farm":66,"title":"Double-crested Cormorant","ispublic":1,"isfriend":0,"isfamily":0},{"id":"52506427827","owner":"181714496@N02","secret":"74847928e6","server":"65535","farm":66,"title":"6V2A7283","ispublic":1,"isfriend":0,"isfamily":0},{"id":"52504065918","owner":"161505078@N03","secret":"b53a68a5fe","server":"65535","farm":66,"title":"Double-crested Cormorant (Nannopterum auritum)","ispublic":1,"isfriend":0,"isfamily":0},{"id":"52492033472","owner":"32665930@N04","secret":"73cdb06d62","server":"65535","farm":66,"title":"Double-crested Cormorant","ispublic":1,"isfriend":0,"isfamily":0},{"id":"52492514911","owner":"32665930@N04","secret":"cfa3f69d00","server":"65535","farm":66,"title":"Double-crested Cormorant","ispublic":1,"isfriend":0,"isfamily":0},{"id":"52489269448","owner":"161505078@N03","secret":"8ba1a9ea78","server":"65535","farm":66,"title":"Double-crested Cormorant (Nannopterum auritum)","ispublic":1,"isfriend":0,"isfamily":0},{"id":"52478026417","owner":"34238008@N02","secret":"332a7fb494","server":"65535","farm":66,"title":"Double-crested Cormorant (Nannopterum auritum)","ispublic":1,"isfriend":0,"isfamily":0},{"id":"52475861905","owner":"27591198@N07","secret":"466e57022c","server":"65535","farm":66,"title":"Brandt's cormorants, with double-crested cormorants at right edge","ispublic":1,"isfriend":0,"isfamily":0},{"id":"52475677914","owner":"27591198@N07","secret":"b7098394e1","server":"65535","farm":66,"title":"double-crested (above) and Brandt's (below) cormorants","ispublic":1,"isfriend":0,"isfamily":0},{"id":"52472537970","owner":"11802018@N07","secret":"052a74207c","server":"65535","farm":66,"title":"double-crested (above) and Brandt's (below) cormorants","ispublic":1,"isfriend":0,"isfamily":0},{"id":"52471580012","owner":"11802018@N07","secret":"92d18c6162","server":"65535","farm":66,"title":"Brandt's cormorants, with double-crested cormorants at right edge","ispublic":1,"isfriend":0,"isfamily":0},{"id":"52470228178","owner":"14734088@N02","secret":"ebb0cdb3be","server":"65535","farm":66,"title":"Cormoran a aigrettes 221021H1","ispublic":1,"isfriend":0,"isfamily":0},{"id":"52466209296","owner":"127651213@N03","secret":"feee4fd7e1","server":"65535","farm":66,"title":"Double-Crested Cormorant","ispublic":1,"isfriend":0,"isfamily":0},{"id":"52461004184","owner":"88932760@N08","secret":"8c08c9e585","server":"65535","farm":66,"title":"Afternoon Nap","ispublic":1,"isfriend":0,"isfamily":0},{"id":"52457431128","owner":"150163656@N06","secret":"c9d08c1460","server":"65535","farm":66,"title":"Double-crested cormorant","ispublic":1,"isfriend":0,"isfamily":0},{"id":"52443331780","owner":"190923251@N05","secret":"9ee19c2eb5","server":"65535","farm":66,"title":"Double-crested Cormorant with fish","ispublic":1,"isfriend":0,"isfamily":0},{"id":"52439226881","owner":"34238008@N02","secret":"9b53c91131","server":"65535","farm":66,"title":"Double-crested Cormorant (Nannopterum auritum)","ispublic":1,"isfriend":0,"isfamily":0},{"id":"52436021821","owner":"10289395@N05","secret":"c1fc6daeab","server":"65535","farm":66,"title":"En voiture! Destination Sud","ispublic":1,"isfriend":0,"isfamily":0},{"id":"52415987026","owner":"10675410@N08","secret":"d0ab904107","server":"65535","farm":66,"title":"Double Crested Cormorant","ispublic":1,"isfriend":0,"isfamily":0},{"id":"52415473002","owner":"10675410@N08","secret":"5aeeb3abf9","server":"65535","farm":66,"title":"Double Crested Cormorant","ispublic":1,"isfriend":0,"isfamily":0},{"id":"52414920655","owner":"20624344@N08","secret":"86fde587f4","server":"0","farm":0,"title":"double-crested cormorant (Nannopterum auritum)","ispublic":1,"isfriend":0,"isfamily":0},{"id":"52413174553","owner":"14734088@N02","secret":"835936ab46","server":"65535","farm":66,"title":"Cormoran \u00e0 aigrettes 220924H","ispublic":1,"isfriend":0,"isfamily":0},{"id":"52411841824","owner":"16943730@N00","secret":"062f935bea","server":"65535","farm":66,"title":"Four double-crested cormorants sitting on a tree","ispublic":1,"isfriend":0,"isfamily":0},{"id":"52410842350","owner":"76782619@N04","secret":"3d8e1f028c","server":"65535","farm":66,"title":"Double-crested Cormorant","ispublic":1,"isfriend":0,"isfamily":0},{"id":"52402212227","owner":"188156748@N07","secret":"6297d1f5f5","server":"65535","farm":66,"title":"Double-Crested Cormorant - Cormoran \u00e0 aigrettes  8513 (4)-SharpenAI-Standard copy.jpgS","ispublic":1,"isfriend":0,"isfamily":0},{"id":"52394201528","owner":"161505078@N03","secret":"5b4eabbea0","server":"65535","farm":66,"title":"Double-crested Cormorant (Nannopterum auritum)","ispublic":1,"isfriend":0,"isfamily":0},{"id":"52387091282","owner":"161505078@N03","secret":"5e056e1923","server":"65535","farm":66,"title":"Double-crested Cormorant (Nannopterum auritum)","ispublic":1,"isfriend":0,"isfamily":0},{"id":"52384503179","owner":"161505078@N03","secret":"dd9195714e","server":"65535","farm":66,"title":"Double-crested Cormorant (Nannopterum auritum)","ispublic":1,"isfriend":0,"isfamily":0},{"id":"52384034995","owner":"43898512@N07","secret":"c3b4d8b6ef","server":"65535","farm":66,"title":"Double Crested Cormorant - Nannopterum auritum","ispublic":1,"isfriend":0,"isfamily":0},{"id":"52370116769","owner":"188156748@N07","secret":"7040459690","server":"65535","farm":66,"title":"Double-Crested Cormorants - Cormorans \u00e0 aigrettes  (Nannopterum auritum) 6797-SharpenAI-Standard copy.jpgS","ispublic":1,"isfriend":0,"isfamily":0},{"id":"52367186164","owner":"32665930@N04","secret":"5b3d621988","server":"65535","farm":66,"title":"Double-crested Cormorant","ispublic":1,"isfriend":0,"isfamily":0},{"id":"52364917224","owner":"150919437@N06","secret":"a2dc06957c","server":"65535","farm":66,"title":"Double-crested Cormorant (Nannopterum auritum), Prudence Island, RI","ispublic":1,"isfriend":0,"isfamily":0},{"id":"52363242737","owner":"120699091@N02","secret":"719878a166","server":"65535","farm":66,"title":"Double-crested Cororant","ispublic":1,"isfriend":0,"isfamily":0},{"id":"52355207193","owner":"23859768@N04","secret":"fa078b5412","server":"65535","farm":66,"title":"double-crested cormorant (Nannopterum auritum)","ispublic":1,"isfriend":0,"isfamily":0},{"id":"52355395675","owner":"23859768@N04","secret":"aa4b5371f7","server":"65535","farm":66,"title":"double-crested cormorant (Nannopterum auritum)","ispublic":1,"isfriend":0,"isfamily":0},{"id":"52355146345","owner":"188156748@N07","secret":"f2668c100a","server":"65535","farm":66,"title":"Double-Crested Cormorant - Cormoran \u00e0 aigrettes 5991-SharpenAI-Standard copy.jpgS","ispublic":1,"isfriend":0,"isfamily":0},{"id":"52354961333","owner":"188156748@N07","secret":"9eb839c651","server":"65535","farm":66,"title":"Double-Crested Cormorant - Cormoran \u00e0 aigrettes 5992 (1)-SharpenAI-Standard copy","ispublic":1,"isfriend":0,"isfamily":0},{"id":"52355038039","owner":"188156748@N07","secret":"08eac4f17d","server":"65535","farm":66,"title":"Double-Crested Cormorant - Cormoran \u00e0 aigrettes 6360 (1)-SharpenAI-Standard copy.jpgS","ispublic":1,"isfriend":0,"isfamily":0},{"id":"52352570627","owner":"196264892@N08","secret":"4d1cd1f159","server":"65535","farm":66,"title":"Double-crested Cormorant","ispublic":1,"isfriend":0,"isfamily":0},{"id":"52353509576","owner":"196264892@N08","secret":"0a4379e035","server":"65535","farm":66,"title":"Double-crested Cormorant","ispublic":1,"isfriend":0,"isfamily":0},{"id":"52353754218","owner":"196264892@N08","secret":"63ea0649ae","server":"65535","farm":66,"title":"Double-crested Cormorant","ispublic":1,"isfriend":0,"isfamily":0},{"id":"52353831659","owner":"196264892@N08","secret":"5aed7cf488","server":"65535","farm":66,"title":"Double-crested Cormorant","ispublic":1,"isfriend":0,"isfamily":0},{"id":"52353813974","owner":"196264892@N08","secret":"488d69a04a","server":"65535","farm":66,"title":"Pelagic and DC Cormorants","ispublic":1,"isfriend":0,"isfamily":0},{"id":"52351927790","owner":"22293205@N05","secret":"9a01d165d1","server":"65535","farm":66,"title":"Double-crested Cormorant \u89d2\u9e15\u9dbf 1","ispublic":1,"isfriend":0,"isfamily":0},{"id":"52351826159","owner":"22293205@N05","secret":"38fc569bca","server":"65535","farm":66,"title":"Double-crested Cormorant \u89d2\u9e15\u9dbf 2","ispublic":1,"isfriend":0,"isfamily":0},{"id":"52341380193","owner":"88932760@N08","secret":"0b8ecfd095","server":"65535","farm":66,"title":"Tail Strike","ispublic":1,"isfriend":0,"isfamily":0},{"id":"52338813569","owner":"76617062@N08","secret":"586e0de54c","server":"65535","farm":66,"title":"1.01914 Cormoran \u00e0 aigrettes \/ Nannopterum auritum \/ Double-crested Cormorant","ispublic":1,"isfriend":0,"isfamily":0},{"id":"52328375914","owner":"22163926@N05","secret":"174379b7ff","server":"65535","farm":66,"title":"\u2018Tis a Gift to Be Simple","ispublic":1,"isfriend":0,"isfamily":0},{"id":"52313842849","owner":"53256251@N04","secret":"077f133b03","server":"65535","farm":66,"title":"Nothing but Blue Sky and this Cormorant in flight","ispublic":1,"isfriend":0,"isfamily":0},{"id":"52311505509","owner":"183132100@N02","secret":"e93d64feae","server":"65535","farm":66,"title":"Double-crested Cormorant 8-24-2022","ispublic":1,"isfriend":0,"isfamily":0},{"id":"52308833605","owner":"196264892@N08","secret":"eaafb1a834","server":"65535","farm":66,"title":"Double-crested Cormorant","ispublic":1,"isfriend":0,"isfamily":0},{"id":"52308216133","owner":"76617062@N08","secret":"ae6e6251b4","server":"65535","farm":66,"title":"1.01914 Cormoran \u00e0 aigrettes \/ Nannopterum auritum \/ Double-crested Cormorant","ispublic":1,"isfriend":0,"isfamily":0},{"id":"52308268565","owner":"34238008@N02","secret":"bd420dd26f","server":"65535","farm":66,"title":"Double-crested Cormorant (Nannopterum auritum)","ispublic":1,"isfriend":0,"isfamily":0},{"id":"52308268445","owner":"34238008@N02","secret":"921522e56a","server":"65535","farm":66,"title":"Double-crested Cormorant (Nannopterum auritum)","ispublic":1,"isfriend":0,"isfamily":0},{"id":"52308255584","owner":"34238008@N02","secret":"a46f15d6cd","server":"65535","farm":66,"title":"Double-crested Cormorant (Nannopterum auritum)","ispublic":1,"isfriend":0,"isfamily":0},{"id":"52306741236","owner":"22163926@N05","secret":"a36f2f14ea","server":"65535","farm":66,"title":"All Along the Watchtower","ispublic":1,"isfriend":0,"isfamily":0},{"id":"52303887935","owner":"88932760@N08","secret":"e3f5033a9f","server":"65535","farm":66,"title":"Coming in for a Landing!","ispublic":1,"isfriend":0,"isfamily":0},{"id":"52298893588","owner":"71989271@N06","secret":"d5f967e539","server":"65535","farm":66,"title":"Double-crested Cormorant (1st. yr.)(Nannopterum a. auritum)","ispublic":1,"isfriend":0,"isfamily":0},{"id":"52298830194","owner":"22163926@N05","secret":"fa5b3b36ed","server":"65535","farm":66,"title":"Benediction","ispublic":1,"isfriend":0,"isfamily":0},{"id":"52297348435","owner":"90886369@N06","secret":"251e14fbbb","server":"65535","farm":66,"title":"Double-crested Cormorant (Nannopterum auritum)","ispublic":1,"isfriend":0,"isfamily":0}]},"stat":"ok"}