{"photos":{"page":1,"pages":183,"perpage":100,"total":18229,"photo":[{"id":"52724188819","owner":"63093099@N02","secret":"22c3c65a43","server":"65535","farm":66,"title":"Eurasian Oystercatcher, Common Redshank, and Dunlin; 20230303; UK-NFK-RSPB Titchwell Marsh","ispublic":1,"isfriend":0,"isfamily":0},{"id":"52723952905","owner":"190994358@N05","secret":"2b4e6d4c53","server":"65535","farm":66,"title":"Ba\u00f1o al atardecer","ispublic":1,"isfriend":0,"isfamily":0},{"id":"52722854305","owner":"40006638@N06","secret":"ff6ccd9c70","server":"65535","farm":66,"title":"Dunlin - 094A3132a1c","ispublic":1,"isfriend":0,"isfamily":0},{"id":"52722926123","owner":"40006638@N06","secret":"f72da228db","server":"65535","farm":66,"title":"Dunlin - 094A3344a3c","ispublic":1,"isfriend":0,"isfamily":0},{"id":"52720714016","owner":"110148017@N06","secret":"a1158d80a1","server":"65535","farm":66,"title":"\u9ed2\u8179\u6ff1\u9df8 Calidris alpina","ispublic":1,"isfriend":0,"isfamily":0},{"id":"52721131800","owner":"110148017@N06","secret":"2d43ab40d9","server":"65535","farm":66,"title":"\u9ed2\u8179\u6ff1\u9df8 Calidris alpina","ispublic":1,"isfriend":0,"isfamily":0},{"id":"52719828417","owner":"12639178@N07","secret":"22ea6cce1d","server":"65535","farm":66,"title":"Alpendstrandl\u00e4ufer im La Charca","ispublic":1,"isfriend":0,"isfamily":0},{"id":"52716741583","owner":"135315828@N06","secret":"b0690b557e","server":"65535","farm":66,"title":"dunlin and purple sandpiper","ispublic":1,"isfriend":0,"isfamily":0},{"id":"52716517929","owner":"135315828@N06","secret":"70d8105013","server":"65535","farm":66,"title":"dunlin","ispublic":1,"isfriend":0,"isfamily":0},{"id":"52714760298","owner":"127588226@N08","secret":"7f1be59eeb","server":"65535","farm":66,"title":"K33P0481c Dunlin, Titchwell Beach, February 2023","ispublic":1,"isfriend":0,"isfamily":0},{"id":"52710945230","owner":"42321374@N02","secret":"acd1a9cab7","server":"65535","farm":66,"title":"La Tancada","ispublic":1,"isfriend":0,"isfamily":0},{"id":"52709832822","owner":"145907835@N07","secret":"9d22b0cefb","server":"65535","farm":66,"title":"Bonte Strandloper - Calidris alpina","ispublic":1,"isfriend":0,"isfamily":0},{"id":"52709832387","owner":"145907835@N07","secret":"236b09ef6b","server":"65535","farm":66,"title":"Bonte Strandloper - Calidris alpina","ispublic":1,"isfriend":0,"isfamily":0},{"id":"52710833258","owner":"145907835@N07","secret":"72b373c091","server":"65535","farm":66,"title":"Bonte Strandloper - Calidris alpina","ispublic":1,"isfriend":0,"isfamily":0},{"id":"52710833173","owner":"145907835@N07","secret":"ba4cc1d6e0","server":"65535","farm":66,"title":"Bonte Strandloper - Calidris alpina","ispublic":1,"isfriend":0,"isfamily":0},{"id":"52707892973","owner":"61396634@N07","secret":"144dcee142","server":"65535","farm":66,"title":"Dunlin","ispublic":1,"isfriend":0,"isfamily":0},{"id":"52707818955","owner":"61396634@N07","secret":"ee5ebed200","server":"65535","farm":66,"title":"Dunlin","ispublic":1,"isfriend":0,"isfamily":0},{"id":"52704519868","owner":"99817330@N02","secret":"921ec67f2f","server":"65535","farm":66,"title":"Hoylake Waderfest","ispublic":1,"isfriend":0,"isfamily":0},{"id":"52702048641","owner":"148380440@N06","secret":"466c1555f8","server":"65535","farm":66,"title":"IMG_3803_DxO","ispublic":1,"isfriend":0,"isfamily":0},{"id":"52700223062","owner":"126558841@N07","secret":"0a240c0121","server":"65535","farm":66,"title":"Dunlin (Calidris alpina)","ispublic":1,"isfriend":0,"isfamily":0},{"id":"52701002130","owner":"27450769@N06","secret":"318442c652","server":"65535","farm":66,"title":"The Dunlin","ispublic":1,"isfriend":0,"isfamily":0},{"id":"52698789167","owner":"60325150@N07","secret":"d1aa7245a5","server":"65535","farm":66,"title":"\u9ed1\u8179\u6ff1\u9df8 Calidris alpina sakhalina (Vieillot, 1816)","ispublic":1,"isfriend":0,"isfamily":0},{"id":"52698456139","owner":"12639178@N07","secret":"84bc533c54","server":"65535","farm":66,"title":"Calidris alpina","ispublic":1,"isfriend":0,"isfamily":0},{"id":"52698195116","owner":"12639178@N07","secret":"c9facd1df7","server":"65535","farm":66,"title":"Calidris alpina, Alpenstrandl\u00e4ufer,dj.","ispublic":1,"isfriend":0,"isfamily":0},{"id":"52698685823","owner":"12639178@N07","secret":"1abb851099","server":"65535","farm":66,"title":"Calidris alpina, Alpenstrandl\u00e4ufer,dj.","ispublic":1,"isfriend":0,"isfamily":0},{"id":"52698685518","owner":"12639178@N07","secret":"390776b4ff","server":"65535","farm":66,"title":"Calidris alpina, Alpenstrandl\u00e4ufer,dj.","ispublic":1,"isfriend":0,"isfamily":0},{"id":"52698329969","owner":"12639178@N07","secret":"bd8c373be2","server":"65535","farm":66,"title":"Calidris alpina,dj., farbberingt 1ST","ispublic":1,"isfriend":0,"isfamily":0},{"id":"52698560793","owner":"12639178@N07","secret":"24325932dd","server":"65535","farm":66,"title":"Calidris alpina, Alpenstrandl\u00e4ufer,dj.","ispublic":1,"isfriend":0,"isfamily":0},{"id":"52696642949","owner":"12639178@N07","secret":"88fc6b74f2","server":"65535","farm":66,"title":"Alpenstrandl\u00e4ufer, ein einzelner mit Rotschenkel, am Strandsee, Algarve-Wes","ispublic":1,"isfriend":0,"isfamily":0},{"id":"52696362981","owner":"12639178@N07","secret":"fb0306aaed","server":"65535","farm":66,"title":"Alpenstrandl\u00e4ufer, mit Sandregenpfeifer, am Strandsee auf Futtersuche, Alga","ispublic":1,"isfriend":0,"isfamily":0},{"id":"52696627429","owner":"12639178@N07","secret":"e7de342845","server":"65535","farm":66,"title":"Alpenstrandl\u00e4ufer, am Strandsee auf Futtersuche, Algarve-Westk\u00fcste","ispublic":1,"isfriend":0,"isfamily":0},{"id":"52696853208","owner":"12639178@N07","secret":"742865468e","server":"65535","farm":66,"title":"Alpenstrandl\u00e4ufer, am Strandsee auf Futtersuche, Algarve-Westk\u00fcste","ispublic":1,"isfriend":0,"isfamily":0},{"id":"52695542187","owner":"197745515@N06","secret":"ccae5a645e","server":"65535","farm":66,"title":"Calidris alpina","ispublic":1,"isfriend":0,"isfamily":0},{"id":"52696418353","owner":"181980422@N05","secret":"437a1e0a27","server":"65535","farm":66,"title":"Pilrito-de-peito-preto, (fora do periodo de reprodu\u00e7\u00e3o), Dunlin,(out of breeding period)","ispublic":1,"isfriend":0,"isfamily":0},{"id":"52694905141","owner":"128537732@N06","secret":"57e0d9e80e","server":"65535","farm":66,"title":"Dunlin (Calidris alpina)","ispublic":1,"isfriend":0,"isfamily":0},{"id":"52694904981","owner":"128537732@N06","secret":"f6ea58395e","server":"65535","farm":66,"title":"Dunlin (Calidris alpina)","ispublic":1,"isfriend":0,"isfamily":0},{"id":"52693974822","owner":"39177293@N03","secret":"8926cba490","server":"65535","farm":66,"title":"Dunlin","ispublic":1,"isfriend":0,"isfamily":0},{"id":"52694208734","owner":"99817330@N02","secret":"366c745022","server":"65535","farm":66,"title":"Dunlin Galore","ispublic":1,"isfriend":0,"isfamily":0},{"id":"52690787974","owner":"101130108@N06","secret":"1008173656","server":"65535","farm":66,"title":"Dunlin (Calidris alpina)_45A8283a","ispublic":1,"isfriend":0,"isfamily":0},{"id":"52687657104","owner":"196264892@N08","secret":"788f4cb308","server":"65535","farm":66,"title":"Dunlin, Skagit Flats","ispublic":1,"isfriend":0,"isfamily":0},{"id":"52686861142","owner":"196264892@N08","secret":"328b45ff91","server":"65535","farm":66,"title":"Dunlin, Skagit Flats","ispublic":1,"isfriend":0,"isfamily":0},{"id":"52687656004","owner":"196264892@N08","secret":"e694e6f573","server":"65535","farm":66,"title":"Dunlin, Skagit Flats","ispublic":1,"isfriend":0,"isfamily":0},{"id":"52687655454","owner":"196264892@N08","secret":"6893d0458a","server":"65535","farm":66,"title":"Dunlin, Skagit Flats","ispublic":1,"isfriend":0,"isfamily":0},{"id":"52687654779","owner":"196264892@N08","secret":"c5b6f8b853","server":"65535","farm":66,"title":"Dunlin, Skagit Flats","ispublic":1,"isfriend":0,"isfamily":0},{"id":"52687376341","owner":"196264892@N08","secret":"d7e4edc44c","server":"65535","farm":66,"title":"Dunlin, Skagit Flats","ispublic":1,"isfriend":0,"isfamily":0},{"id":"52687653084","owner":"196264892@N08","secret":"0ca6fc55ab","server":"65535","farm":66,"title":"Dunlin, Skagit Flats","ispublic":1,"isfriend":0,"isfamily":0},{"id":"52687627459","owner":"196264892@N08","secret":"9c4fe7d6db","server":"65535","farm":66,"title":"Sanderling and Dunlin","ispublic":1,"isfriend":0,"isfamily":0},{"id":"52687349771","owner":"196264892@N08","secret":"c7632238f1","server":"65535","farm":66,"title":"Sanderling and Dunlin","ispublic":1,"isfriend":0,"isfamily":0},{"id":"52687626844","owner":"196264892@N08","secret":"b68a029261","server":"65535","farm":66,"title":"Sanderling and Dunlin","ispublic":1,"isfriend":0,"isfamily":0},{"id":"52686830837","owner":"196264892@N08","secret":"57acded544","server":"65535","farm":66,"title":"Sanderling and Dunlin","ispublic":1,"isfriend":0,"isfamily":0},{"id":"52687844943","owner":"196264892@N08","secret":"6921d79d7b","server":"65535","farm":66,"title":"Sanderling and Dunlin","ispublic":1,"isfriend":0,"isfamily":0},{"id":"52687625529","owner":"196264892@N08","secret":"316459976e","server":"65535","farm":66,"title":"Sanderling and Dunlin","ispublic":1,"isfriend":0,"isfamily":0},{"id":"52687771640","owner":"196264892@N08","secret":"d1e8d6b67d","server":"65535","farm":66,"title":"Sanderling and Dunlin","ispublic":1,"isfriend":0,"isfamily":0},{"id":"52687624284","owner":"196264892@N08","secret":"cb8026e7a9","server":"65535","farm":66,"title":"Sanderling and Dunlin","ispublic":1,"isfriend":0,"isfamily":0},{"id":"52687335946","owner":"196264892@N08","secret":"349c8a6fed","server":"65535","farm":66,"title":"Dunlin, Skagit Flats","ispublic":1,"isfriend":0,"isfamily":0},{"id":"52687627029","owner":"11159374@N04","secret":"bf389d286c","server":"65535","farm":66,"title":"Dunlin","ispublic":1,"isfriend":0,"isfamily":0},{"id":"52687795008","owner":"149730384@N06","secret":"3df0df7c23","server":"65535","farm":66,"title":"Dunlin","ispublic":1,"isfriend":0,"isfamily":0},{"id":"52686886228","owner":"144980256@N07","secret":"49ef494e70","server":"65535","farm":66,"title":"Dunlin (Calidris alpina)","ispublic":1,"isfriend":0,"isfamily":0},{"id":"52686635305","owner":"187946018@N05","secret":"2939347ceb","server":"65535","farm":66,"title":"B\u00e9casseau variable","ispublic":1,"isfriend":0,"isfamily":0},{"id":"52684855739","owner":"95713135@N04","secret":"fbb9fac6ac","server":"65535","farm":66,"title":"Dunlin - Calidris alpina 090223 (7)","ispublic":1,"isfriend":0,"isfamily":0},{"id":"52683231769","owner":"12639178@N07","secret":"e3310dd848","server":"65535","farm":66,"title":"Calidris alpina, Alpenstrandl\u00e4ufer,ad., ssp.schinzii\/alpina","ispublic":1,"isfriend":0,"isfamily":0},{"id":"52683445213","owner":"12639178@N07","secret":"526e5fb537","server":"65535","farm":66,"title":"Calidris alpina, Alpenstrandl\u00e4ufer,ad. ssp.schinzii\/arctica","ispublic":1,"isfriend":0,"isfamily":0},{"id":"52683442453","owner":"12639178@N07","secret":"24609dab16","server":"65535","farm":66,"title":"Calidris alpina, Alpenstrandl\u00e4ufer,ad., ssp.schinzii\/arctica","ispublic":1,"isfriend":0,"isfamily":0},{"id":"52683436443","owner":"12639178@N07","secret":"455da92926","server":"65535","farm":66,"title":"Calidris alpina, Alpenstrandl\u00e4ufer,ad., ssp.schinzii\/arctica","ispublic":1,"isfriend":0,"isfamily":0},{"id":"52682414202","owner":"12639178@N07","secret":"979c201a32","server":"65535","farm":66,"title":"Calidris alpina, Alpenstrandl\u00e4ufer, ssp. schinzii \/ arctica","ispublic":1,"isfriend":0,"isfamily":0},{"id":"52682723335","owner":"45759259@N06","secret":"72a5b09496","server":"65535","farm":66,"title":"B\u00e9casseau variable Calidris alpina Dunlin","ispublic":1,"isfriend":0,"isfamily":0},{"id":"52682722415","owner":"45759259@N06","secret":"af9d492407","server":"65535","farm":66,"title":"B\u00e9casseau variable Calidris alpina Dunlin","ispublic":1,"isfriend":0,"isfamily":0},{"id":"52682292211","owner":"45759259@N06","secret":"c7a0a80c22","server":"65535","farm":66,"title":"B\u00e9casseau variable Calidris alpina Dunlin","ispublic":1,"isfriend":0,"isfamily":0},{"id":"52681890391","owner":"183210910@N04","secret":"7b415b40d1","server":"65535","farm":66,"title":"Dunlin - Calidris alpina","ispublic":1,"isfriend":0,"isfamily":0},{"id":"52682097884","owner":"52873742@N02","secret":"a9a90b80a7","server":"65535","farm":66,"title":"Baltic Sea Dunlin","ispublic":1,"isfriend":0,"isfamily":0},{"id":"52682204583","owner":"183210910@N04","secret":"7532081866","server":"65535","farm":66,"title":"Dunlin - Calidris alpina","ispublic":1,"isfriend":0,"isfamily":0},{"id":"52682023080","owner":"110148017@N06","secret":"8fc5e06b8b","server":"65535","farm":66,"title":"\u9ed2\u8179\u6ff1\u9df8 Calidris alpina","ispublic":1,"isfriend":0,"isfamily":0},{"id":"52682023020","owner":"110148017@N06","secret":"cd113a5dc1","server":"65535","farm":66,"title":"\u9ed2\u8179\u6ff1\u9df8 Calidris alpina","ispublic":1,"isfriend":0,"isfamily":0},{"id":"52679143599","owner":"191391950@N02","secret":"4e856c1167","server":"65535","farm":66,"title":"B\u00e9casseau variable - Calidris alpina","ispublic":1,"isfriend":0,"isfamily":0},{"id":"52678844009","owner":"129803374@N05","secret":"41b5137e24","server":"65535","farm":66,"title":"Dunlin (Calidris alpina)","ispublic":1,"isfriend":0,"isfamily":0},{"id":"52678045247","owner":"129803374@N05","secret":"f2f49c3655","server":"65535","farm":66,"title":"Dunlin (Calidris alpina)","ispublic":1,"isfriend":0,"isfamily":0},{"id":"52678491608","owner":"123529713@N08","secret":"697a932f0d","server":"65535","farm":66,"title":"Territ variant - Correlimos comun - Dunlin - B\u00e9casseau variable - Calidris alpina","ispublic":1,"isfriend":0,"isfamily":0},{"id":"52677615169","owner":"143326780@N02","secret":"c2351815dd","server":"65535","farm":66,"title":"DSCN3886","ispublic":1,"isfriend":0,"isfamily":0},{"id":"52677322651","owner":"143326780@N02","secret":"48f2762274","server":"65535","farm":66,"title":"DSCN3885","ispublic":1,"isfriend":0,"isfamily":0},{"id":"52677356788","owner":"188559988@N06","secret":"8af84d7eb3","server":"65535","farm":66,"title":"becasseau variable","ispublic":1,"isfriend":0,"isfamily":0},{"id":"52673488739","owner":"84169650@N07","secret":"2d1031afcd","server":"65535","farm":66,"title":"Dunlin","ispublic":1,"isfriend":0,"isfamily":0},{"id":"52673198606","owner":"84169650@N07","secret":"d5de4ae159","server":"65535","farm":66,"title":"Dunlin","ispublic":1,"isfriend":0,"isfamily":0},{"id":"52673198396","owner":"84169650@N07","secret":"453f1a12c1","server":"65535","farm":66,"title":"Dunlin and Purple Sandpiper Flock","ispublic":1,"isfriend":0,"isfamily":0},{"id":"52673070511","owner":"190994358@N05","secret":"191be2ca39","server":"65535","farm":66,"title":"El descanso  \/   Rest","ispublic":1,"isfriend":0,"isfamily":0},{"id":"52672306134","owner":"190077753@N05","secret":"9d5024dd86","server":"65535","farm":66,"title":"B\u00e9casseau sanderling","ispublic":1,"isfriend":0,"isfamily":0},{"id":"52669839113","owner":"40723658@N05","secret":"0b73a04fda","server":"65535","farm":66,"title":"Dunlin","ispublic":1,"isfriend":0,"isfamily":0},{"id":"52668875220","owner":"39177293@N03","secret":"7acd95de2c","server":"65535","farm":66,"title":"Dunlin","ispublic":1,"isfriend":0,"isfamily":0},{"id":"52668875190","owner":"39177293@N03","secret":"d19d284e99","server":"65535","farm":66,"title":"Dunlin","ispublic":1,"isfriend":0,"isfamily":0},{"id":"52667929867","owner":"110624976@N05","secret":"5696fe43bf","server":"65535","farm":66,"title":"Flock of gulls reflected in still Waters","ispublic":1,"isfriend":0,"isfamily":0},{"id":"52668819665","owner":"110624976@N05","secret":"89b698e04c","server":"65535","farm":66,"title":"Flock of Dunlin in flight just after dawn","ispublic":1,"isfriend":0,"isfamily":0},{"id":"52668690993","owner":"54100598@N08","secret":"fc657e8005","server":"65535","farm":66,"title":"Dunlin (Calidris alpina) & Ringed Plover (Charadrius hiaticula)","ispublic":1,"isfriend":0,"isfamily":0},{"id":"52668478084","owner":"54100598@N08","secret":"b06547c8db","server":"65535","farm":66,"title":"Dunlin (Calidris alpina)","ispublic":1,"isfriend":0,"isfamily":0},{"id":"52668478059","owner":"54100598@N08","secret":"a6ba874110","server":"65535","farm":66,"title":"Dunlin (Calidris alpina)","ispublic":1,"isfriend":0,"isfamily":0},{"id":"52668625530","owner":"54100598@N08","secret":"8e6d969bdf","server":"65535","farm":66,"title":"Dunlin (Calidris alpina)","ispublic":1,"isfriend":0,"isfamily":0},{"id":"52668690833","owner":"54100598@N08","secret":"dca0aa8b3e","server":"65535","farm":66,"title":"Dunlin (Calidris alpina)","ispublic":1,"isfriend":0,"isfamily":0},{"id":"52666667103","owner":"130708126@N02","secret":"fe57cfe7a7","server":"65535","farm":66,"title":"Be\u0301casseau maube\u0301che ( Caldiris canutus ), Be\u0301casseau variable (Calidris alpina).jpg","ispublic":1,"isfriend":0,"isfamily":0},{"id":"52663684307","owner":"12639178@N07","secret":"425c22a65f","server":"65535","farm":66,"title":"Alpi mit Sanderlingen","ispublic":1,"isfriend":0,"isfamily":0},{"id":"52663822094","owner":"39177293@N03","secret":"3ccb5059c0","server":"65535","farm":66,"title":"Dunlin","ispublic":1,"isfriend":0,"isfamily":0},{"id":"52662544379","owner":"99817330@N02","secret":"36bacb1c94","server":"65535","farm":66,"title":"Dunlin","ispublic":1,"isfriend":0,"isfamily":0},{"id":"52662525382","owner":"134270033@N06","secret":"f25672c908","server":"0","farm":0,"title":"An Adaptable  Dunlin","ispublic":1,"isfriend":0,"isfamily":0}]},"stat":"ok"}