{"photos":{"page":1,"pages":5,"perpage":100,"total":476,"photo":[{"id":"52653875927","owner":"50264295@N06","secret":"edf950777f","server":"65535","farm":66,"title":"Dusky Flycatcher (Empidonax oberholseri)- ASY, DCA","ispublic":1,"isfriend":0,"isfamily":0},{"id":"52653867022","owner":"50264295@N06","secret":"c30060b6ea","server":"65535","farm":66,"title":"Dusky Flycatcher (Empidonax oberholseri)- ASY, DCA","ispublic":1,"isfriend":0,"isfamily":0},{"id":"52654622659","owner":"50264295@N06","secret":"eb144974dc","server":"65535","farm":66,"title":"Dusky Flycatcher (Empidonax oberholseri)- ASY, DCA","ispublic":1,"isfriend":0,"isfamily":0},{"id":"52653836452","owner":"50264295@N06","secret":"fd4a2a0c67","server":"65535","farm":66,"title":"Dusky Flycatcher (Empidonax oberholseri)- ASY, DCA","ispublic":1,"isfriend":0,"isfamily":0},{"id":"52654804958","owner":"50264295@N06","secret":"016cdfdd97","server":"65535","farm":66,"title":"Dusky Flycatcher (Empidonax oberholseri)- ASY, DCA","ispublic":1,"isfriend":0,"isfamily":0},{"id":"52654591069","owner":"50264295@N06","secret":"2770b52815","server":"65535","farm":66,"title":"Dusky Flycatcher (Empidonax oberholseri)- ASY, DCA","ispublic":1,"isfriend":0,"isfamily":0},{"id":"52654585769","owner":"50264295@N06","secret":"e0dee09100","server":"65535","farm":66,"title":"Dusky Flycatcher (Empidonax oberholseri)- ASY, DCA","ispublic":1,"isfriend":0,"isfamily":0},{"id":"52653841078","owner":"50264295@N06","secret":"7837e4da2e","server":"65535","farm":66,"title":"Dusky Flycatcher (Empidonax oberholseri)- SY, FCA","ispublic":1,"isfriend":0,"isfamily":0},{"id":"52653627224","owner":"50264295@N06","secret":"2b2e1952ec","server":"65535","farm":66,"title":"Dusky Flycatcher (Empidonax oberholseri)- SY, FCA","ispublic":1,"isfriend":0,"isfamily":0},{"id":"52653788685","owner":"50264295@N06","secret":"37b46491e1","server":"65535","farm":66,"title":"Dusky Flycatcher (Empidonax oberholseri)- SY, FCA","ispublic":1,"isfriend":0,"isfamily":0},{"id":"52653783460","owner":"50264295@N06","secret":"c73702535d","server":"65535","farm":66,"title":"Dusky Flycatcher (Empidonax oberholseri)- SY, FCA","ispublic":1,"isfriend":0,"isfamily":0},{"id":"52475060521","owner":"187792860@N04","secret":"0433982c39","server":"65535","farm":66,"title":"American Dusky Flycatcher (Empidonax oberholseri)","ispublic":1,"isfriend":0,"isfamily":0},{"id":"52275486008","owner":"196264892@N08","secret":"4c7f872e9d","server":"65535","farm":66,"title":"Dusky Flycatcher 1","ispublic":1,"isfriend":0,"isfamily":0},{"id":"52275467441","owner":"196264892@N08","secret":"45c3126e29","server":"65535","farm":66,"title":"Dusky Flycatcher 2","ispublic":1,"isfriend":0,"isfamily":0},{"id":"52274062898","owner":"34238008@N02","secret":"c3b613faca","server":"65535","farm":66,"title":"Dusky Flycatcher (Empidonax oberholseri)","ispublic":1,"isfriend":0,"isfamily":0},{"id":"52274044436","owner":"34238008@N02","secret":"c0fce7a9fa","server":"65535","farm":66,"title":"Dusky Flycatcher (Empidonax oberholseri)","ispublic":1,"isfriend":0,"isfamily":0},{"id":"52252622588","owner":"187792860@N04","secret":"67f4530ec5","server":"65535","farm":66,"title":"American Dusky Flycatcher (Empidonax oberholseri)","ispublic":1,"isfriend":0,"isfamily":0},{"id":"52241570452","owner":"34238008@N02","secret":"8849e6303d","server":"65535","farm":66,"title":"Dusky Flycatcher (Empidonax oberholseri)","ispublic":1,"isfriend":0,"isfamily":0},{"id":"52242759459","owner":"187245476@N05","secret":"288a3a1a38","server":"65535","farm":66,"title":"DUSKY FLYCATCHER (Empidonax oberholseri)","ispublic":1,"isfriend":0,"isfamily":0},{"id":"52222283374","owner":"34238008@N02","secret":"a86dc36d8f","server":"65535","farm":66,"title":"Dusky Flycatcher, adult (Empidonax oberholseri)","ispublic":1,"isfriend":0,"isfamily":0},{"id":"52157092125","owner":"99849996@N00","secret":"e30c6775cf","server":"65535","farm":66,"title":"Dusky Flycatcher 20210819_7024","ispublic":1,"isfriend":0,"isfamily":0},{"id":"52151851608","owner":"64509062@N08","secret":"6e63dc5773","server":"0","farm":0,"title":"Dusky Flycatcher in rain.","ispublic":1,"isfriend":0,"isfamily":0},{"id":"52148505547","owner":"64509062@N08","secret":"6f8f66d8a7","server":"65535","farm":66,"title":"Dusky flycatcher, Yellowstone","ispublic":1,"isfriend":0,"isfamily":0},{"id":"52149522471","owner":"64509062@N08","secret":"b8d1852dd3","server":"65535","farm":66,"title":"Dusky flycatcher, Yellowstone","ispublic":1,"isfriend":0,"isfamily":0},{"id":"52148505157","owner":"64509062@N08","secret":"3a5598e007","server":"65535","farm":66,"title":"Dusky flycatcher, Yellowstone","ispublic":1,"isfriend":0,"isfamily":0},{"id":"52137938702","owner":"187792860@N04","secret":"5e82bfcb4f","server":"65535","farm":66,"title":"American dusky flycatcher (Empidonax oberholseri)","ispublic":1,"isfriend":0,"isfamily":0},{"id":"52097640066","owner":"65148649@N04","secret":"ec86284359","server":"65535","farm":66,"title":"Dusky Flycatcher","ispublic":1,"isfriend":0,"isfamily":0},{"id":"52085938082","owner":"94222177@N06","secret":"c78e45f241","server":"65535","farm":66,"title":"Flycatcher Friday Special-A Dusky Flycatcher","ispublic":1,"isfriend":0,"isfamily":0},{"id":"52073994259","owner":"109544413@N05","secret":"b1cd43c772","server":"65535","farm":66,"title":"Showing why it is so named","ispublic":1,"isfriend":0,"isfamily":0},{"id":"52072720467","owner":"109544413@N05","secret":"c3ceb721e2","server":"65535","farm":66,"title":"Dusky Flycatcher searching","ispublic":1,"isfriend":0,"isfamily":0},{"id":"52074247580","owner":"109544413@N05","secret":"782f6ae07d","server":"65535","farm":66,"title":"Dusky Flycatcher","ispublic":1,"isfriend":0,"isfamily":0},{"id":"52064918676","owner":"14572247@N07","secret":"581d0581ed","server":"65535","farm":66,"title":"Dusky Flycatcher (Empidonax oberholseri)","ispublic":1,"isfriend":0,"isfamily":0},{"id":"51939589620","owner":"99849996@N00","secret":"f82a08b43f","server":"65535","farm":66,"title":"Dusky Flycatcher 20210612_4614","ispublic":1,"isfriend":0,"isfamily":0},{"id":"51899593825","owner":"49246330@N00","secret":"b1d9cc3be1","server":"65535","farm":66,"title":"Dusky Flycatcher","ispublic":1,"isfriend":0,"isfamily":0},{"id":"51623031389","owner":"50264295@N06","secret":"aab389c6e5","server":"65535","farm":66,"title":"Dusky Flycatcher (Empidonax oberholseri)","ispublic":1,"isfriend":0,"isfamily":0},{"id":"51621538472","owner":"50264295@N06","secret":"7b2023553d","server":"65535","farm":66,"title":"Dusky Flycatcher (Empidonax oberholseri)","ispublic":1,"isfriend":0,"isfamily":0},{"id":"51621507032","owner":"50264295@N06","secret":"39a9965d09","server":"65535","farm":66,"title":"Dusky Flycatcher (Empidonax oberholseri)","ispublic":1,"isfriend":0,"isfamily":0},{"id":"51381195232","owner":"34238008@N02","secret":"47543c7f1d","server":"65535","farm":66,"title":"Dusky Flycatcher (Empidonax oberholseri)","ispublic":1,"isfriend":0,"isfamily":0},{"id":"51382698274","owner":"34238008@N02","secret":"21bdfd124a","server":"65535","farm":66,"title":"Dusky Flycatcher (Empidonax oberholseri)","ispublic":1,"isfriend":0,"isfamily":0},{"id":"51381686989","owner":"9243885@N07","secret":"a9d8bdc3fc","server":"65535","farm":66,"title":"2021_08_15_5DMk4_47428","ispublic":1,"isfriend":0,"isfamily":0},{"id":"51264375412","owner":"65148649@N04","secret":"3579026d52","server":"65535","farm":66,"title":"Dusky Flycatcher","ispublic":1,"isfriend":0,"isfamily":0},{"id":"51230249413","owner":"8987884@N07","secret":"5e14ea7d72","server":"65535","farm":66,"title":"Dusky Flycatcher (Empidonax oberholseri)_DDZ_6015","ispublic":1,"isfriend":0,"isfamily":0},{"id":"51203799798","owner":"9243885@N07","secret":"b044544360","server":"65535","farm":66,"title":"2021_05_22_5DMk4_38926","ispublic":1,"isfriend":0,"isfamily":0},{"id":"51202290944","owner":"58681764@N00","secret":"b7b1e5fa2f","server":"65535","farm":66,"title":"Dusky Flycatcher","ispublic":1,"isfriend":0,"isfamily":0},{"id":"51194420299","owner":"132165466@N08","secret":"ae900a4100","server":"65535","farm":66,"title":"Possible Dusky Flycatcher, shaky ID","ispublic":1,"isfriend":0,"isfamily":0},{"id":"51194420304","owner":"132165466@N08","secret":"92e404c447","server":"65535","farm":66,"title":"Possible Dusky Flycatcher, shaky ID","ispublic":1,"isfriend":0,"isfamily":0},{"id":"51145404138","owner":"28867468@N08","secret":"96bf624828","server":"65535","farm":66,"title":"Dusky Flycatcher","ispublic":1,"isfriend":0,"isfamily":0},{"id":"51122143756","owner":"185443397@N07","secret":"bcf5d04550","server":"65535","farm":66,"title":"Dusky Flycatcher (?) (Empidonax oberholseri)","ispublic":1,"isfriend":0,"isfamily":0},{"id":"50818838347","owner":"8425606@N04","secret":"0ca1da411b","server":"65535","farm":66,"title":"Dusky-capped Flycatcher","ispublic":1,"isfriend":0,"isfamily":0},{"id":"50681682667","owner":"33106392@N08","secret":"208003327c","server":"65535","farm":66,"title":"Dusky Flycatcher","ispublic":1,"isfriend":0,"isfamily":0},{"id":"50651078967","owner":"21702714@N06","secret":"61e7dbb5b8","server":"65535","farm":66,"title":"Dusky Flycatcher","ispublic":1,"isfriend":0,"isfamily":0},{"id":"50357944267","owner":"187792860@N04","secret":"7ba169c964","server":"65535","farm":66,"title":"Dusky Flycatcher (Empidonax oberholseri)","ispublic":1,"isfriend":0,"isfamily":0},{"id":"50323315966","owner":"61021753@N02","secret":"a610d327bb","server":"65535","farm":66,"title":"n218_w1150","ispublic":1,"isfriend":0,"isfamily":0},{"id":"50316005876","owner":"34238008@N02","secret":"66661bb1da","server":"65535","farm":66,"title":"Dusky Flycatcher (Empidonax oberholseri)","ispublic":1,"isfriend":0,"isfamily":0},{"id":"50312179152","owner":"34238008@N02","secret":"7bb8439bae","server":"65535","farm":66,"title":"Dusky Flycatcher (Empidonax oberholseri)","ispublic":1,"isfriend":0,"isfamily":0},{"id":"50150658343","owner":"34238008@N02","secret":"af40b6937a","server":"65535","farm":66,"title":"Dusky Flycatcher (Empidonax oberholseri)","ispublic":1,"isfriend":0,"isfamily":0},{"id":"50148797267","owner":"187245476@N05","secret":"856cf0e5fc","server":"65535","farm":66,"title":"DUSKY FLYCATCHER (Empidonax oberholseri)","ispublic":1,"isfriend":0,"isfamily":0},{"id":"50126950842","owner":"187245476@N05","secret":"30660094be","server":"65535","farm":66,"title":"DUSKY FLYCATCHER (Empidonax oberholseri)","ispublic":1,"isfriend":0,"isfamily":0},{"id":"50126950817","owner":"187245476@N05","secret":"2d9ab8883f","server":"65535","farm":66,"title":"DUSKY FLYCATCHER (Empidonax oberholseri)","ispublic":1,"isfriend":0,"isfamily":0},{"id":"50115795767","owner":"34238008@N02","secret":"da4fe0eb12","server":"65535","farm":66,"title":"Dusky Flycatcher (Empidonax oberholseri)","ispublic":1,"isfriend":0,"isfamily":0},{"id":"50111767271","owner":"34238008@N02","secret":"49280a234b","server":"65535","farm":66,"title":"Dusky Flycatcher (Empidonax oberholseri)","ispublic":1,"isfriend":0,"isfamily":0},{"id":"50108361717","owner":"187245476@N05","secret":"9e8a9be49c","server":"65535","farm":66,"title":"DUSKY FLYCATCHER (Empidonax oberholseri)","ispublic":1,"isfriend":0,"isfamily":0},{"id":"50108118271","owner":"187245476@N05","secret":"90c600f1cc","server":"65535","farm":66,"title":"DUSKY FLYCATCHER (Empidonax oberholseri)","ispublic":1,"isfriend":0,"isfamily":0},{"id":"50107549053","owner":"187245476@N05","secret":"b2a46095d3","server":"65535","farm":66,"title":"DUSKY FLYCATCHER (Empidonax oberholseri)","ispublic":1,"isfriend":0,"isfamily":0},{"id":"50108118226","owner":"187245476@N05","secret":"8bc3fdb254","server":"65535","farm":66,"title":"DUSKY FLYCATCHER (Empidonax oberholseri)","ispublic":1,"isfriend":0,"isfamily":0},{"id":"50108118141","owner":"187245476@N05","secret":"da8757bd40","server":"65535","farm":66,"title":"DUSKY FLYCATCHER (Empidonax oberholseri)","ispublic":1,"isfriend":0,"isfamily":0},{"id":"50108361612","owner":"187245476@N05","secret":"84a90a74d1","server":"65535","farm":66,"title":"DUSKY FLYCATCHER (Empidonax oberholseri)","ispublic":1,"isfriend":0,"isfamily":0},{"id":"50108361632","owner":"187245476@N05","secret":"475ce6d04f","server":"65535","farm":66,"title":"DUSKY FLYCATCHER (Empidonax oberholseri)","ispublic":1,"isfriend":0,"isfamily":0},{"id":"52199873574","owner":"8666250@N02","secret":"cb25ce3408","server":"65535","farm":66,"title":"Through the hays (and other stuff).... -03","ispublic":1,"isfriend":0,"isfamily":0},{"id":"52200100090","owner":"8666250@N02","secret":"823c8f5472","server":"65535","farm":66,"title":"Through the hays (and other stuff).... -02","ispublic":1,"isfriend":0,"isfamily":0},{"id":"52198601897","owner":"8666250@N02","secret":"6f03dac65d","server":"65535","farm":66,"title":"Through the hays (and other stuff).... -01)","ispublic":1,"isfriend":0,"isfamily":0},{"id":"52144029444","owner":"8666250@N02","secret":"acf0a36c4e","server":"65535","farm":66,"title":"Dusky (?) Flycatcher in context","ispublic":1,"isfriend":0,"isfamily":0},{"id":"52142770517","owner":"8666250@N02","secret":"2a235a191e","server":"65535","farm":66,"title":"Dusky (?) Flycatcher -01","ispublic":1,"isfriend":0,"isfamily":0},{"id":"52144274080","owner":"8666250@N02","secret":"be3032602d","server":"65535","farm":66,"title":"Dusky (?) Flycatcher -02","ispublic":1,"isfriend":0,"isfamily":0},{"id":"52142765837","owner":"8666250@N02","secret":"c4c30bb6e0","server":"65535","farm":66,"title":"Epidonax flycatcher -02","ispublic":1,"isfriend":0,"isfamily":0},{"id":"52142765722","owner":"8666250@N02","secret":"366b9581fa","server":"65535","farm":66,"title":"Epidonax flycatcher -03","ispublic":1,"isfriend":0,"isfamily":0},{"id":"52142765657","owner":"8666250@N02","secret":"0d8edac43c","server":"65535","farm":66,"title":"Epidonax flycatcher -07","ispublic":1,"isfriend":0,"isfamily":0},{"id":"52103546588","owner":"8666250@N02","secret":"aef6ee81ba","server":"65535","farm":66,"title":"Dusky Flycatcher -04","ispublic":1,"isfriend":0,"isfamily":0},{"id":"52064009557","owner":"32752434@N07","secret":"63d5bd57d9","server":"65535","farm":66,"title":"Dusky Flycatcher (Empidonax oberholseri)","ispublic":1,"isfriend":0,"isfamily":0},{"id":"52065541660","owner":"32752434@N07","secret":"57cfb9640c","server":"65535","farm":66,"title":"Dusky Flycatcher (Empidonax oberholseri)","ispublic":1,"isfriend":0,"isfamily":0},{"id":"51830960441","owner":"32752434@N07","secret":"412f4088d3","server":"65535","farm":66,"title":"Dusky Flycatcher (Empidonax oberholseri)","ispublic":1,"isfriend":0,"isfamily":0},{"id":"51547825054","owner":"23856345@N06","secret":"763737dfbc","server":"65535","farm":66,"title":"Dusky Flycatcher (Empidonax oberholseri)","ispublic":1,"isfriend":0,"isfamily":0},{"id":"51396416259","owner":"42978673@N00","secret":"e0b4c283fc","server":"65535","farm":66,"title":"Dusky Flycatcher - Empidonax oberholseri","ispublic":1,"isfriend":0,"isfamily":0},{"id":"51232866666","owner":"126979736@N02","secret":"591ecf361f","server":"65535","farm":66,"title":"Dusky Flycatcher","ispublic":1,"isfriend":0,"isfamily":0},{"id":"51232822096","owner":"126979736@N02","secret":"29fe869a26","server":"65535","farm":66,"title":"Dusky Flycatcher","ispublic":1,"isfriend":0,"isfamily":0},{"id":"51201249306","owner":"183736567@N07","secret":"9155af0b64","server":"65535","farm":66,"title":"Dusky Flycatcher (Empidonax oberholseri)","ispublic":1,"isfriend":0,"isfamily":0},{"id":"51186083606","owner":"144648055@N05","secret":"37640f1db6","server":"65535","farm":66,"title":"Little Grey Bird","ispublic":1,"isfriend":0,"isfamily":0},{"id":"51040475288","owner":"10122691@N08","secret":"e98df44282","server":"65535","farm":66,"title":"Dusky Flycatcher (was Least Flycatcher)","ispublic":1,"isfriend":0,"isfamily":0},{"id":"51040475103","owner":"10122691@N08","secret":"dd605f4e5d","server":"65535","farm":66,"title":"Dusky Flycatcher (was Least Flycatcher)","ispublic":1,"isfriend":0,"isfamily":0},{"id":"51041205816","owner":"10122691@N08","secret":"5ef39c3801","server":"65535","farm":66,"title":"Dusky Flycatcher (was Least Flycatcher)","ispublic":1,"isfriend":0,"isfamily":0},{"id":"50974187496","owner":"25899079@N08","secret":"d36b61ee86","server":"65535","farm":66,"title":"Dusky Flycatcher (8074)","ispublic":1,"isfriend":0,"isfamily":0},{"id":"50900747877","owner":"154347912@N05","secret":"e05821fce8","server":"65535","farm":66,"title":"Dusky flycatcher (Empidonax oberholseri)","ispublic":1,"isfriend":0,"isfamily":0},{"id":"50900629911","owner":"154347912@N05","secret":"ed3e69a88a","server":"65535","farm":66,"title":"Dusky flycatcher (Empidonax oberholseri)","ispublic":1,"isfriend":0,"isfamily":0},{"id":"50683407447","owner":"125723802@N05","secret":"775296f0cf","server":"65535","farm":66,"title":"Empidonax oberholseri - Dusky Flycatcher","ispublic":1,"isfriend":0,"isfamily":0},{"id":"50680846888","owner":"33106392@N08","secret":"6ecc3252fe","server":"65535","farm":66,"title":"Dusky Flycatcher","ispublic":1,"isfriend":0,"isfamily":0},{"id":"50681606691","owner":"33106392@N08","secret":"c046ecec44","server":"65535","farm":66,"title":"Dusky Flycatcher","ispublic":1,"isfriend":0,"isfamily":0},{"id":"50210114138","owner":"10122691@N08","secret":"3dfc130c8d","server":"65535","farm":66,"title":"Dusky Flycatcher","ispublic":1,"isfriend":0,"isfamily":0},{"id":"50210911562","owner":"10122691@N08","secret":"b44720bb0c","server":"65535","farm":66,"title":"Dusky Flycatcher","ispublic":1,"isfriend":0,"isfamily":0},{"id":"50210113728","owner":"10122691@N08","secret":"f8b95a5a32","server":"65535","farm":66,"title":"Dusky Flycatcher","ispublic":1,"isfriend":0,"isfamily":0},{"id":"50170737872","owner":"62445008@N00","secret":"99d6d2e518","server":"65535","farm":66,"title":"Dusky Flycatcher (Empidonax oberholseri)","ispublic":1,"isfriend":0,"isfamily":0}]},"stat":"ok"}