{"photos":{"page":1,"pages":82,"perpage":100,"total":8141,"photo":[{"id":"52723033987","owner":"128657933@N03","secret":"a3f4f9082b","server":"65535","farm":66,"title":"Gr\u00e8be \u00e0 cou noir . Podiceps nigricollis - Black-necked Grebe","ispublic":1,"isfriend":0,"isfamily":0},{"id":"52721649904","owner":"139463919@N08","secret":"74b0da9285","server":"65535","farm":66,"title":"EOS R5_153647_C","ispublic":1,"isfriend":0,"isfamily":0},{"id":"52721741125","owner":"21632907@N03","secret":"0bf213dc39","server":"65535","farm":66,"title":"Triste journ\u00e9e","ispublic":1,"isfriend":0,"isfamily":0},{"id":"52720311262","owner":"33319209@N02","secret":"f11e42cfc4","server":"65535","farm":66,"title":"Podiceps cristatus","ispublic":1,"isfriend":0,"isfamily":0},{"id":"52715630742","owner":"26520320@N03","secret":"65961c9428","server":"65535","farm":66,"title":"_BAP0558","ispublic":1,"isfriend":0,"isfamily":0},{"id":"52715384075","owner":"47533293@N04","secret":"21e0e7b6b7","server":"65535","farm":66,"title":"Eared grebe, Podiceps nigricollis","ispublic":1,"isfriend":0,"isfamily":0},{"id":"52713258041","owner":"197107693@N07","secret":"6541cce5ef","server":"65535","farm":66,"title":"Common Pochard - \u0393\u03ba\u03b9\u03c3\u03ac\u03c1\u03b9 - Aythya ferina, , , , , , Black necked Grebe -  \u039c\u03b1\u03c5\u03c1\u03bf\u03b2\u03bf\u03c5\u03c4\u03b7\u03c7\u03c4\u03ac\u03c1\u03b9 - Podiceps nigricollis","ispublic":1,"isfriend":0,"isfamily":0},{"id":"52712242372","owner":"68466173@N02","secret":"6d3da20ee5","server":"65535","farm":66,"title":"Black-necked Grebe (Podiceps nigricollis)","ispublic":1,"isfriend":0,"isfamily":0},{"id":"52711589677","owner":"26371261@N00","secret":"11264b1208","server":"65535","farm":66,"title":"Eared Grebe, Podiceps nigricollis","ispublic":1,"isfriend":0,"isfamily":0},{"id":"52707892708","owner":"61396634@N07","secret":"8654037aa1","server":"65535","farm":66,"title":"Eared Grebe","ispublic":1,"isfriend":0,"isfamily":0},{"id":"52706884427","owner":"61396634@N07","secret":"1c2bb5dbb5","server":"65535","farm":66,"title":"Eared Grebe","ispublic":1,"isfriend":0,"isfamily":0},{"id":"52706994421","owner":"107844989@N08","secret":"696135c8b6","server":"65535","farm":66,"title":"Red eyes","ispublic":1,"isfriend":0,"isfamily":0},{"id":"52706924065","owner":"62331146@N03","secret":"09d0986151","server":"65535","farm":66,"title":"Black-necked Grebe Podiceps nigricollis","ispublic":1,"isfriend":0,"isfamily":0},{"id":"52701132316","owner":"12639178@N07","secret":"f6bb636140","server":"65535","farm":66,"title":"Schwarzhalstaucher 18.02.23","ispublic":1,"isfriend":0,"isfamily":0},{"id":"52697847927","owner":"21632907@N03","secret":"6975f1f80b","server":"65535","farm":66,"title":"Je t'ai \u00e0 l'oeil","ispublic":1,"isfriend":0,"isfamily":0},{"id":"52698002210","owner":"88972033@N05","secret":"09bb0df7fe","server":"65535","farm":66,"title":"Black-necked Grebe","ispublic":1,"isfriend":0,"isfamily":0},{"id":"52695059942","owner":"62043870@N05","secret":"45bbd8c61c","server":"65535","farm":66,"title":"Eared Grebe, Podiceps nigricollis","ispublic":1,"isfriend":0,"isfamily":0},{"id":"52695490115","owner":"54059915@N07","secret":"2a29c3f4c8","server":"65535","farm":66,"title":"Shrimp cocktail","ispublic":1,"isfriend":0,"isfamily":0},{"id":"52682140100","owner":"186453565@N04","secret":"8cfd077153","server":"65535","farm":66,"title":"Mergulh\u00e3o-de-pesco\u00e7o-preto","ispublic":1,"isfriend":0,"isfamily":0},{"id":"52680710061","owner":"7901656@N05","secret":"637823df0c","server":"65535","farm":66,"title":"Zampull\u00edn cuellinegro-Podiceps nigricollis-Black-necked grebe","ispublic":1,"isfriend":0,"isfamily":0},{"id":"52680078756","owner":"65345069@N02","secret":"34699131f9","server":"65535","farm":66,"title":"Black-necked Grebe {Podiceps nigricollis}","ispublic":1,"isfriend":0,"isfamily":0},{"id":"52680078721","owner":"65345069@N02","secret":"9ae9568457","server":"65535","farm":66,"title":"Black-necked Grebe {Podiceps nigricollis}","ispublic":1,"isfriend":0,"isfamily":0},{"id":"52680078741","owner":"65345069@N02","secret":"6ee90d4b04","server":"65535","farm":66,"title":"Black-necked Grebe {Podiceps nigricollis}","ispublic":1,"isfriend":0,"isfamily":0},{"id":"52680576083","owner":"65345069@N02","secret":"c85c5b27e0","server":"65535","farm":66,"title":"Black-necked Grebe {Podiceps nigricollis}","ispublic":1,"isfriend":0,"isfamily":0},{"id":"52676097629","owner":"9638954@N07","secret":"0c74b094a3","server":"65535","farm":66,"title":"Eared Grebe","ispublic":1,"isfriend":0,"isfamily":0},{"id":"52673675291","owner":"12639178@N07","secret":"1a66659987","server":"65535","farm":66,"title":"Schwarzhalstaucher","ispublic":1,"isfriend":0,"isfamily":0},{"id":"52669128087","owner":"62043870@N05","secret":"5e3cd5b2d4","server":"65535","farm":66,"title":"Common Goldeneye (Bucephala clangula) and Eared Grebe (Podiceps nigricollis)","ispublic":1,"isfriend":0,"isfamily":0},{"id":"52667473000","owner":"42264328@N00","secret":"065837f90e","server":"65535","farm":66,"title":"Head pattern","ispublic":1,"isfriend":0,"isfamily":0},{"id":"52666447697","owner":"42264328@N00","secret":"bc8f018d9b","server":"65535","farm":66,"title":"One of these grebes...","ispublic":1,"isfriend":0,"isfamily":0},{"id":"52666780043","owner":"29882791@N02","secret":"c194983cf5","server":"65535","farm":66,"title":"Podicipedidae - Podiceps nigricollis","ispublic":1,"isfriend":0,"isfamily":0},{"id":"52662233691","owner":"103722035@N06","secret":"8c9128b3a5","server":"65535","farm":66,"title":"Eared Grebe (Podiceps nigricollis), Oceano, CA","ispublic":1,"isfriend":0,"isfamily":0},{"id":"52662233651","owner":"103722035@N06","secret":"c42f4e330b","server":"65535","farm":66,"title":"Eared Grebe (Podiceps nigricollis), Oceano, CA","ispublic":1,"isfriend":0,"isfamily":0},{"id":"52661319152","owner":"33610210@N05","secret":"8de780914a","server":"65535","farm":66,"title":"Eared Grebe, Podiceps nigricollis","ispublic":1,"isfriend":0,"isfamily":0},{"id":"52662263180","owner":"33610210@N05","secret":"9e63d9b289","server":"65535","farm":66,"title":"Eared Grebe, Podiceps nigricollis","ispublic":1,"isfriend":0,"isfamily":0},{"id":"52661921293","owner":"186453565@N04","secret":"1d16dbcc43","server":"65535","farm":66,"title":"Mergulh\u00e3o-de-pesco\u00e7o-preto","ispublic":1,"isfriend":0,"isfamily":0},{"id":"52658435673","owner":"7901656@N05","secret":"67cfc8eb6f","server":"65535","farm":66,"title":"Zampull\u00edn cuellinegro-Podiceps nigricollis-Black-necked grebe","ispublic":1,"isfriend":0,"isfamily":0},{"id":"52648057618","owner":"62043870@N05","secret":"d2824771e1","server":"65535","farm":66,"title":"Eared Grebe, Podiceps nigricollis","ispublic":1,"isfriend":0,"isfamily":0},{"id":"52646292696","owner":"97122051@N06","secret":"79c0456cd4","server":"65535","farm":66,"title":"Gr\u00e8be \u00e0 cou noir_SR_1321-CR3_","ispublic":1,"isfriend":0,"isfamily":0},{"id":"52646377573","owner":"103722035@N06","secret":"66ec854342","server":"0","farm":0,"title":"Eared Grebe (Podiceps nigricollis), Morro Bay, CA","ispublic":1,"isfriend":0,"isfamily":0},{"id":"52645571586","owner":"8013969@N03","secret":"95659128f6","server":"65535","farm":66,"title":"Podiceps nigricollis DFL la22-1","ispublic":1,"isfriend":0,"isfamily":0},{"id":"52646010065","owner":"8013969@N03","secret":"4abb5b5b07","server":"65535","farm":66,"title":"Podiceps nigricollis DFL la22-2","ispublic":1,"isfriend":0,"isfamily":0},{"id":"52646043233","owner":"8013969@N03","secret":"4d92429691","server":"65535","farm":66,"title":"Podiceps nigricollis DFL la22-3","ispublic":1,"isfriend":0,"isfamily":0},{"id":"52646009455","owner":"8013969@N03","secret":"0e3b98481b","server":"65535","farm":66,"title":"Podiceps nigricollis DFL la22-5","ispublic":1,"isfriend":0,"isfamily":0},{"id":"52646009240","owner":"8013969@N03","secret":"5c32bee6a5","server":"65535","farm":66,"title":"Podiceps nigricollis DFL la22-6","ispublic":1,"isfriend":0,"isfamily":0},{"id":"52645824744","owner":"8013969@N03","secret":"685c734ed9","server":"65535","farm":66,"title":"Podiceps nigricollis DFL la22-7","ispublic":1,"isfriend":0,"isfamily":0},{"id":"52645824154","owner":"8013969@N03","secret":"ceb2c450d6","server":"65535","farm":66,"title":"Podiceps nigricollis DFL la22-9","ispublic":1,"isfriend":0,"isfamily":0},{"id":"52646041543","owner":"8013969@N03","secret":"88792d6fca","server":"65535","farm":66,"title":"Podiceps nigricollis DFL la22-10","ispublic":1,"isfriend":0,"isfamily":0},{"id":"52645823579","owner":"8013969@N03","secret":"cb8f28a971","server":"65535","farm":66,"title":"Podiceps nigricollis DFL la22-11","ispublic":1,"isfriend":0,"isfamily":0},{"id":"52645568801","owner":"8013969@N03","secret":"2906a52778","server":"65535","farm":66,"title":"Podiceps nigricollis DFL la22-12","ispublic":1,"isfriend":0,"isfamily":0},{"id":"52646040668","owner":"8013969@N03","secret":"8dd872d8e8","server":"65535","farm":66,"title":"Podiceps nigricollis DFL la22-13","ispublic":1,"isfriend":0,"isfamily":0},{"id":"52646040353","owner":"8013969@N03","secret":"040a9c7e23","server":"65535","farm":66,"title":"Podiceps nigricollis DFL la22-14","ispublic":1,"isfriend":0,"isfamily":0},{"id":"52645568016","owner":"8013969@N03","secret":"e0567b34c0","server":"65535","farm":66,"title":"Podiceps nigricollis DFL la22-15","ispublic":1,"isfriend":0,"isfamily":0},{"id":"52645567281","owner":"8013969@N03","secret":"380b217086","server":"65535","farm":66,"title":"Podiceps nigricollis DFL la22-17","ispublic":1,"isfriend":0,"isfamily":0},{"id":"52645056527","owner":"8013969@N03","secret":"fcef6bfa2f","server":"65535","farm":66,"title":"Podiceps nigricollis DFL la22-18","ispublic":1,"isfriend":0,"isfamily":0},{"id":"52645566596","owner":"8013969@N03","secret":"8e67b4a67d","server":"65535","farm":66,"title":"Podiceps nigricollis DFL la22-19","ispublic":1,"isfriend":0,"isfamily":0},{"id":"52646038418","owner":"8013969@N03","secret":"559c8da640","server":"65535","farm":66,"title":"Podiceps nigricollis DFL la22-20","ispublic":1,"isfriend":0,"isfamily":0},{"id":"52646004735","owner":"8013969@N03","secret":"8fba02edd1","server":"65535","farm":66,"title":"Podiceps nigricollis DFL la22-21","ispublic":1,"isfriend":0,"isfamily":0},{"id":"52646037603","owner":"8013969@N03","secret":"31291be108","server":"65535","farm":66,"title":"Podiceps nigricollis DFL la22-22","ispublic":1,"isfriend":0,"isfamily":0},{"id":"52646003945","owner":"8013969@N03","secret":"d0e1b5c2da","server":"65535","farm":66,"title":"Podiceps nigricollis DFL la22-23","ispublic":1,"isfriend":0,"isfamily":0},{"id":"52644883447","owner":"189217732@N03","secret":"f462773975","server":"65535","farm":66,"title":"Gr\u00e8be \u00e0 cou noir - Podiceps nigricollis - Black-necked Grebe","ispublic":1,"isfriend":0,"isfamily":0},{"id":"52634503967","owner":"143853434@N08","secret":"7f3aaf1fd2","server":"65535","farm":66,"title":"Gr\u00e8be \u00e0 Cou Noir - Podiceps Nigricollis","ispublic":1,"isfriend":0,"isfamily":0},{"id":"52633890471","owner":"14572247@N07","secret":"8d41ce2603","server":"65535","farm":66,"title":"Eared Grebe (Podiceps nigricollis)","ispublic":1,"isfriend":0,"isfamily":0},{"id":"52632939330","owner":"12639178@N07","secret":"f5a8503469","server":"65535","farm":66,"title":"Beleg: Schwarzhalstaucher","ispublic":1,"isfriend":0,"isfamily":0},{"id":"52632936110","owner":"12639178@N07","secret":"f42aedb040","server":"65535","farm":66,"title":"Hier sieht man den aufgeworfenen Schnabel auch","ispublic":1,"isfriend":0,"isfamily":0},{"id":"52632930080","owner":"12639178@N07","secret":"e26f533a36","server":"65535","farm":66,"title":"Beleg: Schwarzhalstaucher","ispublic":1,"isfriend":0,"isfamily":0},{"id":"52631545294","owner":"47533293@N04","secret":"4e9e2bb7ac","server":"65535","farm":66,"title":"Eared grebe, Podiceps nigricollis","ispublic":1,"isfriend":0,"isfamily":0},{"id":"52629322188","owner":"150163656@N06","secret":"590c89ba47","server":"65535","farm":66,"title":"Eared grebe","ispublic":1,"isfriend":0,"isfamily":0},{"id":"52626522304","owner":"88614118@N02","secret":"a18b2da090","server":"65535","farm":66,"title":"Podiceps nigricollis","ispublic":1,"isfriend":0,"isfamily":0},{"id":"52626534988","owner":"22594349@N08","secret":"f144a15ff2","server":"65535","farm":66,"title":"Black-necked Grebe (Podiceps nigricollis)","ispublic":1,"isfriend":0,"isfamily":0},{"id":"52621234441","owner":"132330573@N08","secret":"c9cd1fb802","server":"65535","farm":66,"title":"geoorde fuut (Podiceps nigricollis)","ispublic":1,"isfriend":0,"isfamily":0},{"id":"52620719582","owner":"132330573@N08","secret":"5073af9f72","server":"65535","farm":66,"title":"geoorde fuut (Podiceps nigricollis)","ispublic":1,"isfriend":0,"isfamily":0},{"id":"52621667103","owner":"148039312@N05","secret":"f8149e5922","server":"65535","farm":66,"title":"2022-12-29 Zampullin Cuellinegro. Black-necked grebe. (Podiceps nigricollis). Marisma del Odiel   (174) DxO","ispublic":1,"isfriend":0,"isfamily":0},{"id":"52620943894","owner":"68466173@N02","secret":"5b1f183f30","server":"65535","farm":66,"title":"Black-necked Grebe (Podiceps nigricollis)","ispublic":1,"isfriend":0,"isfamily":0},{"id":"52618122127","owner":"193492169@N05","secret":"bedf813aab","server":"65535","farm":66,"title":"Zampull\u00edn cuellinegro - Eared Grebe - Podiceps nigricollis","ispublic":1,"isfriend":0,"isfamily":0},{"id":"52616994343","owner":"132330573@N08","secret":"2575c74edf","server":"65535","farm":66,"title":"geoorde fuut (Podiceps nigricollis)","ispublic":1,"isfriend":0,"isfamily":0},{"id":"52615987319","owner":"186453565@N04","secret":"36410c17ca","server":"65535","farm":66,"title":"Mergulh\u00e3o-de-pesco\u00e7o-preto","ispublic":1,"isfriend":0,"isfamily":0},{"id":"52606385280","owner":"59946862@N07","secret":"d54b34a298","server":"65535","farm":66,"title":"Eared Grebes take flight - Podiceps nigricollis","ispublic":1,"isfriend":0,"isfamily":0},{"id":"52606083810","owner":"62043870@N05","secret":"d926ed9dac","server":"65535","farm":66,"title":"Eared Grebe, Podiceps nigricollis","ispublic":1,"isfriend":0,"isfamily":0},{"id":"52600201611","owner":"9638954@N07","secret":"5534cf0af9","server":"65535","farm":66,"title":"Eared Grebe","ispublic":1,"isfriend":0,"isfamily":0},{"id":"52597369375","owner":"62043870@N05","secret":"46990e8fb7","server":"65535","farm":66,"title":"Eared Grebe, Podiceps nigricollis","ispublic":1,"isfriend":0,"isfamily":0},{"id":"52592186934","owner":"23794796@N06","secret":"a4d63f3d7b","server":"65535","farm":66,"title":"Mergulh\u00e3o-de-pesco\u00e7o-preto","ispublic":1,"isfriend":0,"isfamily":0},{"id":"52590357715","owner":"23794796@N06","secret":"600abddc0b","server":"65535","farm":66,"title":"Mergulh\u00e3o-de-pesco\u00e7o-preto","ispublic":1,"isfriend":0,"isfamily":0},{"id":"52590366553","owner":"23794796@N06","secret":"7110397284","server":"65535","farm":66,"title":"Mergulh\u00e3o-de-pesco\u00e7o-preto","ispublic":1,"isfriend":0,"isfamily":0},{"id":"52582755899","owner":"132508209@N08","secret":"fddd3e38ff","server":"65535","farm":66,"title":"Eared Grebe (Podiceps nigricollis)","ispublic":1,"isfriend":0,"isfamily":0},{"id":"52583008638","owner":"132508209@N08","secret":"49ae651a47","server":"65535","farm":66,"title":"Eared Grebe (Podiceps nigricollis)","ispublic":1,"isfriend":0,"isfamily":0},{"id":"52582029942","owner":"132508209@N08","secret":"2c25a45ddf","server":"65535","farm":66,"title":"Eared Grebe (Podiceps nigricollis)","ispublic":1,"isfriend":0,"isfamily":0},{"id":"52581689713","owner":"52029311@N03","secret":"5834f7d856","server":"65535","farm":66,"title":"Cagarraz | Podiceps Nigricollis | Black Necked Grebe","ispublic":1,"isfriend":0,"isfamily":0},{"id":"52580453047","owner":"7482089@N04","secret":"b8c1b67fce","server":"65535","farm":66,"title":"Black-necked Grebe, Podiceps nigricollis","ispublic":1,"isfriend":0,"isfamily":0},{"id":"52580314201","owner":"153973412@N04","secret":"db4d53f50e","server":"65535","farm":66,"title":"Eared Grebe-Podiceps nigricollis, Iowa City, IA","ispublic":1,"isfriend":0,"isfamily":0},{"id":"52578894038","owner":"157928998@N02","secret":"5c35770ecc","server":"65535","farm":66,"title":"Podiceps nigricollis | Cagarraz ou Mergulh\u00e3o-de-pesco\u00e7o-preto | black-necked grebe","ispublic":1,"isfriend":0,"isfamily":0},{"id":"52575763567","owner":"157888340@N04","secret":"1d00e662b6","server":"65535","farm":66,"title":"Podiceps nigricollis","ispublic":1,"isfriend":0,"isfamily":0},{"id":"52568843757","owner":"190773540@N03","secret":"2a220f1708","server":"65535","farm":66,"title":"Eared Grebe (male)","ispublic":1,"isfriend":0,"isfamily":0},{"id":"52566069340","owner":"68466173@N02","secret":"125d234a3b","server":"65535","farm":66,"title":"Black-necked Grebe (Podiceps nigricollis)","ispublic":1,"isfriend":0,"isfamily":0},{"id":"52566463211","owner":"7482089@N04","secret":"f2e8287c15","server":"65535","farm":66,"title":"Black-necked Grebe, Podiceps nigricollis","ispublic":1,"isfriend":0,"isfamily":0},{"id":"52558512874","owner":"152877605@N05","secret":"b9e1e26e66","server":"65535","farm":66,"title":"Black-necked Grebe; Podiceps nigricollis","ispublic":1,"isfriend":0,"isfamily":0},{"id":"52555377605","owner":"193483104@N04","secret":"5cbbb0997f","server":"65535","farm":66,"title":"Eared Grebe (Podiceps nigricollis)","ispublic":1,"isfriend":0,"isfamily":0},{"id":"52555445603","owner":"193483104@N04","secret":"fe3152a1d6","server":"65535","farm":66,"title":"Eared Grebe (Podiceps nigricollis)","ispublic":1,"isfriend":0,"isfamily":0},{"id":"52551117800","owner":"34238008@N02","secret":"2ed66f2980","server":"65535","farm":66,"title":"Eared Grebe (Podiceps nigricollis)","ispublic":1,"isfriend":0,"isfamily":0},{"id":"52551189838","owner":"34238008@N02","secret":"f9341c3531","server":"65535","farm":66,"title":"Eared Grebe (Podiceps nigricollis)","ispublic":1,"isfriend":0,"isfamily":0},{"id":"52550940049","owner":"34238008@N02","secret":"bcc656cf6f","server":"65535","farm":66,"title":"Eared Grebe (Podiceps nigricollis)","ispublic":1,"isfriend":0,"isfamily":0}]},"stat":"ok"}