{"photos":{"page":1,"pages":17,"perpage":100,"total":1632,"photo":[{"id":"52707377333","owner":"141256983@N04","secret":"875f450a11","server":"65535","farm":66,"title":"Eastern Wood-Pewee (Contopus virens)","ispublic":1,"isfriend":0,"isfamily":0},{"id":"52685100780","owner":"124995824@N08","secret":"3feb024875","server":"65535","farm":66,"title":"Eastern Wood-pewee - Contopus virens","ispublic":1,"isfriend":0,"isfamily":0},{"id":"52653783624","owner":"103263246@N06","secret":"875bd2ffbb","server":"65535","farm":66,"title":"contopus virens. Pib\u00ed Oriental. Tontillo","ispublic":1,"isfriend":0,"isfamily":0},{"id":"52643595940","owner":"8013969@N03","secret":"b3cf782816","server":"65535","farm":66,"title":"Contopus virens DFL btr22-1","ispublic":1,"isfriend":0,"isfamily":0},{"id":"52638234636","owner":"8264176@N02","secret":"86fe2a6ffb","server":"65535","farm":66,"title":"BirdsofColombia - Eastern Wood Pewee  \u00b7  Contopus virens - 233932-","ispublic":1,"isfriend":0,"isfamily":0},{"id":"52588361115","owner":"84175980@N00","secret":"5b59ebe87c","server":"65535","farm":66,"title":"20220920 Contopus virens (Eastern Wood-Pewee) (w)","ispublic":1,"isfriend":0,"isfamily":0},{"id":"52580835933","owner":"153973412@N04","secret":"1a591bc9b8","server":"65535","farm":66,"title":"Eastern Wood Pewee-Contopus virens, Hawkeye WMA, IA","ispublic":1,"isfriend":0,"isfamily":0},{"id":"52562451883","owner":"97599611@N04","secret":"a09a5502fb","server":"65535","farm":66,"title":"0P7A3679   Eastern Wood-pewee, Canada","ispublic":1,"isfriend":0,"isfamily":0},{"id":"52556993010","owner":"69947563@N07","secret":"810389bf6f","server":"65535","farm":66,"title":"Eastern Wood-Pewee - San Vicente de Chucur\u00ed, Santander, Colombia","ispublic":1,"isfriend":0,"isfamily":0},{"id":"52551187530","owner":"30979614@N07","secret":"791e8f45ab","server":"65535","farm":66,"title":"2022-05-13 Montrose Point 2","ispublic":1,"isfriend":0,"isfamily":0},{"id":"52539103164","owner":"33610210@N05","secret":"dc44bdc979","server":"65535","farm":66,"title":"Eastern Wood-pewee, Contopus virens","ispublic":1,"isfriend":0,"isfamily":0},{"id":"52538343497","owner":"33610210@N05","secret":"9917e00044","server":"65535","farm":66,"title":"Eastern Wood-pewee, Contopus virens","ispublic":1,"isfriend":0,"isfamily":0},{"id":"52527724501","owner":"28499865@N07","secret":"2576bbfe8e","server":"65535","farm":66,"title":"Eastern Wood-Pewee - Contopus virens","ispublic":1,"isfriend":0,"isfamily":0},{"id":"52528272578","owner":"28499865@N07","secret":"32395f2008","server":"65535","farm":66,"title":"Eastern Wood-Pewee - Contopus virens","ispublic":1,"isfriend":0,"isfamily":0},{"id":"52514078562","owner":"35259356@N06","secret":"2a92bb1626","server":"65535","farm":66,"title":"Flycatcher: Eastern Wood-Pewee","ispublic":1,"isfriend":0,"isfamily":0},{"id":"52511204628","owner":"124995824@N08","secret":"df9af26d78","server":"65535","farm":66,"title":"Eastern Wood-pewee - Contopus virens","ispublic":1,"isfriend":0,"isfamily":0},{"id":"52487867760","owner":"84175980@N00","secret":"9aa9d90c99","server":"65535","farm":66,"title":"20220920 Contopus virens (Eastern Wood-Pewee)","ispublic":1,"isfriend":0,"isfamily":0},{"id":"52467272393","owner":"37493716@N02","secret":"abaf32afd3","server":"65535","farm":66,"title":"Eastern wodd Pewee -Contopus virens. San Andres Isla  Octubre 5 -2022 . Juan Carlos Luna - (1)","ispublic":1,"isfriend":0,"isfamily":0},{"id":"52466721486","owner":"37493716@N02","secret":"2f37193013","server":"65535","farm":66,"title":"Eastern wodd Pewee -Contopus virens. San Andres Isla  Octubre 5 -2022 . Juan Carlos Luna - (3)","ispublic":1,"isfriend":0,"isfamily":0},{"id":"52381810067","owner":"49114357@N08","secret":"be359c8366","server":"65535","farm":66,"title":"Eastern Wood-Pewee","ispublic":1,"isfriend":0,"isfamily":0},{"id":"52418990968","owner":"39177293@N03","secret":"7902e661e7","server":"65535","farm":66,"title":"Eastern Wood-Pewee with American Lady","ispublic":1,"isfriend":0,"isfamily":0},{"id":"52406159047","owner":"32599741@N03","secret":"b092336bc7","server":"65535","farm":66,"title":"2022 - Day 260:  bird gaze","ispublic":1,"isfriend":0,"isfamily":0},{"id":"52400758809","owner":"193163318@N05","secret":"f9453c062c","server":"65535","farm":66,"title":"050A3914 Eastern Wood-Pewee Contopus virens SMNC 20220928","ispublic":1,"isfriend":0,"isfamily":0},{"id":"52398267601","owner":"46367607@N06","secret":"f36e6b776f","server":"65535","farm":66,"title":"Eastern Wood-Pewee--Contopus virens _D6A3195","ispublic":1,"isfriend":0,"isfamily":0},{"id":"52394280191","owner":"120449047@N06","secret":"02530a8ae5","server":"65535","farm":66,"title":"Eastern Wood-Pewee","ispublic":1,"isfriend":0,"isfamily":0},{"id":"52388204929","owner":"91064752@N03","secret":"2f479a581f","server":"65535","farm":66,"title":"Eastern Wood-Pewee with a Moth Snack","ispublic":1,"isfriend":0,"isfamily":0},{"id":"52371608204","owner":"135315828@N06","secret":"0c83384aa9","server":"65535","farm":66,"title":"eastern wood pewee","ispublic":1,"isfriend":0,"isfamily":0},{"id":"52326851842","owner":"49114357@N08","secret":"6379675494","server":"65535","farm":66,"title":"Eastern Wood-Pewee","ispublic":1,"isfriend":0,"isfamily":0},{"id":"52352607380","owner":"91064752@N03","secret":"1798f50fa1","server":"65535","farm":66,"title":"Eastern Wood Pewee","ispublic":1,"isfriend":0,"isfamily":0},{"id":"52349719726","owner":"188156748@N07","secret":"5f847a9eac","server":"65535","farm":66,"title":"Eastern wood-pewee -  Pioui de l'Est  5592 (11)-SharpenAI-Standard copy.jpgS","ispublic":1,"isfriend":0,"isfamily":0},{"id":"52349962523","owner":"188156748@N07","secret":"b21c0c74af","server":"65535","farm":66,"title":"Eastern wood-pewee -  Pioui de l'Est  5592 (13)-SharpenAI-Standard copy.jpgS","ispublic":1,"isfriend":0,"isfamily":0},{"id":"52348771598","owner":"7261670@N03","secret":"356da2c406","server":"65535","farm":66,"title":"Eastern Wood-Pewee","ispublic":1,"isfriend":0,"isfamily":0},{"id":"52346450211","owner":"48311154@N02","secret":"6352253c9d","server":"0","farm":0,"title":"Wood-Pewee in the apple tree","ispublic":1,"isfriend":0,"isfamily":0},{"id":"52346457526","owner":"48311154@N02","secret":"35b379264d","server":"65535","farm":66,"title":"Wood-Pewee in the apple tree","ispublic":1,"isfriend":0,"isfamily":0},{"id":"52334424870","owner":"182534679@N02","secret":"612c21f30b","server":"65535","farm":66,"title":"Contopus virens - Eastern Wood-Pewee","ispublic":1,"isfriend":0,"isfamily":0},{"id":"52334292789","owner":"182534679@N02","secret":"13c2a82491","server":"65535","farm":66,"title":"Contopus virens","ispublic":1,"isfriend":0,"isfamily":0},{"id":"52334292699","owner":"182534679@N02","secret":"aa1bfd9f38","server":"65535","farm":66,"title":"Contopus virens","ispublic":1,"isfriend":0,"isfamily":0},{"id":"52334292604","owner":"182534679@N02","secret":"5b8a458d83","server":"65535","farm":66,"title":"Contopus virens - Eastern Wood-Pewee","ispublic":1,"isfriend":0,"isfamily":0},{"id":"52333040647","owner":"182534679@N02","secret":"f22ff9c3e7","server":"65535","farm":66,"title":"Contopus virens - Eastern Wood-Pewee","ispublic":1,"isfriend":0,"isfamily":0},{"id":"52334424250","owner":"182534679@N02","secret":"dc370e17be","server":"65535","farm":66,"title":"Contopus virens - Eastern Wood-Pewee","ispublic":1,"isfriend":0,"isfamily":0},{"id":"52317536254","owner":"89536386@N08","secret":"0947df7b39","server":"65535","farm":66,"title":"Eastern Wood-Pewee (Contopus virens)","ispublic":1,"isfriend":0,"isfamily":0},{"id":"52317199049","owner":"128810613@N02","secret":"d7d3efb408","server":"65535","farm":66,"title":"Eastern Wood-Pewee - Contopus virens","ispublic":1,"isfriend":0,"isfamily":0},{"id":"52317219160","owner":"128810613@N02","secret":"e1be02b847","server":"65535","farm":66,"title":"Eastern Wood-Pewee - Contopus virens","ispublic":1,"isfriend":0,"isfamily":0},{"id":"52300775531","owner":"135315828@N06","secret":"d6d9e65c09","server":"65535","farm":66,"title":"eastern wood pewee","ispublic":1,"isfriend":0,"isfamily":0},{"id":"52299790627","owner":"135315828@N06","secret":"6862bc34e3","server":"65535","farm":66,"title":"eastern wood pewee","ispublic":1,"isfriend":0,"isfamily":0},{"id":"52301265565","owner":"135315828@N06","secret":"7e6c32e4b4","server":"65535","farm":66,"title":"eastern wood pewee","ispublic":1,"isfriend":0,"isfamily":0},{"id":"52300772836","owner":"135315828@N06","secret":"24c972042d","server":"65535","farm":66,"title":"eastern wood pewee","ispublic":1,"isfriend":0,"isfamily":0},{"id":"52299340794","owner":"135315828@N06","secret":"3a2bf595f6","server":"65535","farm":66,"title":"eastern wood pewee","ispublic":1,"isfriend":0,"isfamily":0},{"id":"52299067076","owner":"135315828@N06","secret":"37bebd8612","server":"65535","farm":66,"title":"eastern wood pewee","ispublic":1,"isfriend":0,"isfamily":0},{"id":"52299559555","owner":"135315828@N06","secret":"5973e7a139","server":"65535","farm":66,"title":"eastern wood pewee","ispublic":1,"isfriend":0,"isfamily":0},{"id":"52295160700","owner":"162016724@N08","secret":"fbbf7ef5b3","server":"65535","farm":66,"title":"Contopus virens - Eastern Wood-Pewee","ispublic":1,"isfriend":0,"isfamily":0},{"id":"52251201532","owner":"97599611@N04","secret":"c0b76fc232","server":"65535","farm":66,"title":"0P7A3675   Eastern Wood-pewee, Canada","ispublic":1,"isfriend":0,"isfamily":0},{"id":"52245172536","owner":"107784905@N04","secret":"f70d142070","server":"65535","farm":66,"title":"Pioui de l'Est - Tortuguero\/Lim\u00f3n\/Costa Rica_20211124_011-1","ispublic":1,"isfriend":0,"isfamily":0},{"id":"52234778150","owner":"129803374@N05","secret":"41269abba4","server":"65535","farm":66,"title":"Eastern Wood-Pewee (Contopus virens)","ispublic":1,"isfriend":0,"isfamily":0},{"id":"52233143892","owner":"129803374@N05","secret":"f30be36d4a","server":"65535","farm":66,"title":"Eastern Wood-Pewee (Contopus virens)","ispublic":1,"isfriend":0,"isfamily":0},{"id":"52234417305","owner":"86191812@N07","secret":"38b1bd919b","server":"65535","farm":66,"title":"Eastern Wood-Pewee (Contopus Virens)","ispublic":1,"isfriend":0,"isfamily":0},{"id":"52228461917","owner":"45340210@N05","secret":"b4c2f6434b","server":"65535","farm":66,"title":"Eastern Wood Peewee 7_19_22","ispublic":1,"isfriend":0,"isfamily":0},{"id":"52227216603","owner":"39445433@N02","secret":"a9d5951c91","server":"65535","farm":66,"title":"Eastern Wood Pewee","ispublic":1,"isfriend":0,"isfamily":0},{"id":"52227476954","owner":"39445433@N02","secret":"314707dfed","server":"65535","farm":66,"title":"Eastern Wood Pewee","ispublic":1,"isfriend":0,"isfamily":0},{"id":"52227468629","owner":"39445433@N02","secret":"2239a52144","server":"65535","farm":66,"title":"Eastern Wood Pewee","ispublic":1,"isfriend":0,"isfamily":0},{"id":"52198405465","owner":"184155060@N04","secret":"8aca57d6fc","server":"65535","farm":66,"title":"16135 Pioui de l'Est \/ Contopus virens \/ Eastern Wood-Pewee","ispublic":1,"isfriend":0,"isfamily":0},{"id":"52194223398","owner":"84169650@N07","secret":"6f2aac2c79","server":"65535","farm":66,"title":"Eastern Wood Pewee","ispublic":1,"isfriend":0,"isfamily":0},{"id":"52179640510","owner":"91064752@N03","secret":"d45b122454","server":"65535","farm":66,"title":"Young Eastern Wood-Pewee at Dusk","ispublic":1,"isfriend":0,"isfamily":0},{"id":"52166025371","owner":"12185056@N02","secret":"2b64423880","server":"65535","farm":66,"title":"Tropical Wood-Pewee","ispublic":1,"isfriend":0,"isfamily":0},{"id":"52152922548","owner":"39177293@N03","secret":"154bf096ce","server":"65535","farm":66,"title":"Eastern Wood-Pewee","ispublic":1,"isfriend":0,"isfamily":0},{"id":"52123344660","owner":"46367607@N06","secret":"0ed797b007","server":"65535","farm":66,"title":"Eastern wood-pewee--Contopus virens _D6A0069","ispublic":1,"isfriend":0,"isfamily":0},{"id":"52118866467","owner":"153854281@N07","secret":"e37bc1b1ba","server":"65535","farm":66,"title":"Pioui de l'Est :  Eastern Wood Pewee   Contopus virens","ispublic":1,"isfriend":0,"isfamily":0},{"id":"52112259811","owner":"70375762@N00","secret":"43486e42a0","server":"65535","farm":66,"title":"Eastern Wood-Pewee","ispublic":1,"isfriend":0,"isfamily":0},{"id":"52101807962","owner":"165841515@N03","secret":"4ff38bb5a6","server":"65535","farm":66,"title":"Pioui de l'Est \/ Eastern Wood-Pewee \/ (Contopus virens)","ispublic":1,"isfriend":0,"isfamily":0},{"id":"52094648868","owner":"32752434@N07","secret":"f8703bb93d","server":"65535","farm":66,"title":"Eastern Wood-Pewee (Contopus virens)","ispublic":1,"isfriend":0,"isfamily":0},{"id":"52088410382","owner":"67164820@N06","secret":"08df8b0366","server":"65535","farm":66,"title":"pewee","ispublic":1,"isfriend":0,"isfamily":0},{"id":"52089705050","owner":"87782155@N04","secret":"b0242b632d","server":"65535","farm":66,"title":"Eastern Wood-Pewee","ispublic":1,"isfriend":0,"isfamily":0},{"id":"52079518647","owner":"13451078@N03","secret":"86efbc4743","server":"65535","farm":66,"title":"Eastern Wood- peewee (Contopus virens)","ispublic":1,"isfriend":0,"isfamily":0},{"id":"52048827287","owner":"40003624@N06","secret":"e9d50ebfc7","server":"65535","farm":66,"title":"Eastern Wood-Pewee","ispublic":1,"isfriend":0,"isfamily":0},{"id":"52047613032","owner":"28631427@N00","secret":"6e884023ef","server":"65535","farm":66,"title":"Eastern Wood Pewee","ispublic":1,"isfriend":0,"isfamily":0},{"id":"52046395565","owner":"23859768@N04","secret":"8075dc542f","server":"65535","farm":66,"title":"eastern wood-pewee (Contopus virens)","ispublic":1,"isfriend":0,"isfamily":0},{"id":"52044829452","owner":"23859768@N04","secret":"07f1d610b0","server":"65535","farm":66,"title":"eastern wood-pewee (Contopus virens)","ispublic":1,"isfriend":0,"isfamily":0},{"id":"52044829507","owner":"23859768@N04","secret":"7318eea773","server":"65535","farm":66,"title":"eastern wood-pewee (Contopus virens)","ispublic":1,"isfriend":0,"isfamily":0},{"id":"52046122664","owner":"23859768@N04","secret":"069589c543","server":"65535","farm":66,"title":"eastern wood-pewee (Contopus virens)","ispublic":1,"isfriend":0,"isfamily":0},{"id":"52046383040","owner":"23859768@N04","secret":"dbf78c44c4","server":"65535","farm":66,"title":"eastern wood-pewee (Contopus virens)","ispublic":1,"isfriend":0,"isfamily":0},{"id":"52044829122","owner":"23859768@N04","secret":"033e12a0f0","server":"65535","farm":66,"title":"eastern wood-pewee (Contopus virens)","ispublic":1,"isfriend":0,"isfamily":0},{"id":"52045870571","owner":"23859768@N04","secret":"248bf901fd","server":"65535","farm":66,"title":"eastern wood-pewee (Contopus virens)","ispublic":1,"isfriend":0,"isfamily":0},{"id":"52045921888","owner":"23859768@N04","secret":"4e0d256d60","server":"65535","farm":66,"title":"eastern wood-pewee (Contopus virens)","ispublic":1,"isfriend":0,"isfamily":0},{"id":"52046119954","owner":"23859768@N04","secret":"0b39a55742","server":"65535","farm":66,"title":"eastern wood-pewee (Contopus virens)","ispublic":1,"isfriend":0,"isfamily":0},{"id":"52046119924","owner":"23859768@N04","secret":"682cba549c","server":"65535","farm":66,"title":"eastern wood-pewee (Contopus virens)","ispublic":1,"isfriend":0,"isfamily":0},{"id":"52045868361","owner":"23859768@N04","secret":"a160409cb9","server":"65535","farm":66,"title":"eastern wood-pewee (Contopus virens)","ispublic":1,"isfriend":0,"isfamily":0},{"id":"52046380630","owner":"23859768@N04","secret":"b9307a8883","server":"65535","farm":66,"title":"eastern wood-pewee (Contopus virens)","ispublic":1,"isfriend":0,"isfamily":0},{"id":"52046380575","owner":"23859768@N04","secret":"57c02fdb3e","server":"65535","farm":66,"title":"eastern wood-pewee (Contopus virens)","ispublic":1,"isfriend":0,"isfamily":0},{"id":"52045919818","owner":"23859768@N04","secret":"88341a80f4","server":"65535","farm":66,"title":"eastern wood-pewee (Contopus virens)","ispublic":1,"isfriend":0,"isfamily":0},{"id":"52045900123","owner":"23859768@N04","secret":"758f3a211c","server":"65535","farm":66,"title":"eastern wood-pewee (Contopus virens)","ispublic":1,"isfriend":0,"isfamily":0},{"id":"52046360255","owner":"23859768@N04","secret":"1d9bede929","server":"65535","farm":66,"title":"eastern wood-pewee (Contopus virens)","ispublic":1,"isfriend":0,"isfamily":0},{"id":"52046098409","owner":"23859768@N04","secret":"842c6f8a67","server":"65535","farm":66,"title":"eastern wood-pewee (Contopus virens)","ispublic":1,"isfriend":0,"isfamily":0},{"id":"52046137384","owner":"23859768@N04","secret":"4955038c6b","server":"65535","farm":66,"title":"eastern wood-pewee (Contopus virens)","ispublic":1,"isfriend":0,"isfamily":0},{"id":"52046137394","owner":"23859768@N04","secret":"06f29af09b","server":"65535","farm":66,"title":"eastern wood-pewee (Contopus virens)","ispublic":1,"isfriend":0,"isfamily":0},{"id":"52044844192","owner":"23859768@N04","secret":"0135f1cdce","server":"65535","farm":66,"title":"eastern wood-pewee (Contopus virens)","ispublic":1,"isfriend":0,"isfamily":0},{"id":"52046137324","owner":"23859768@N04","secret":"e139bc531e","server":"65535","farm":66,"title":"eastern wood-pewee (Contopus virens)","ispublic":1,"isfriend":0,"isfamily":0},{"id":"52046397905","owner":"23859768@N04","secret":"77f29c994c","server":"65535","farm":66,"title":"eastern wood-pewee (Contopus virens)","ispublic":1,"isfriend":0,"isfamily":0},{"id":"52046137314","owner":"23859768@N04","secret":"984aee3f3d","server":"65535","farm":66,"title":"eastern wood-pewee (Contopus virens)","ispublic":1,"isfriend":0,"isfamily":0},{"id":"52326959287","owner":"39445433@N02","secret":"6071b5bdf6","server":"65535","farm":66,"title":"Eastern Wood-Pewee","ispublic":1,"isfriend":0,"isfamily":0},{"id":"52045845651","owner":"23859768@N04","secret":"0a6ac777ba","server":"65535","farm":66,"title":"eastern wood-pewee (Contopus virens)","ispublic":1,"isfriend":0,"isfamily":0}]},"stat":"ok"}