{"photos":{"page":1,"pages":4,"perpage":100,"total":393,"photo":[{"id":"52743130529","owner":"147466598@N07","secret":"a8671153d6","server":"65535","farm":66,"title":"eastern black-eared wheatear","ispublic":1,"isfriend":0,"isfamily":0},{"id":"52504791115","owner":"128208742@N06","secret":"f4101e6773","server":"65535","farm":66,"title":"Eastern Black-eared Wheatear, Oenanthe melanoleuca","ispublic":1,"isfriend":0,"isfamily":0},{"id":"52343252809","owner":"41730704@N03","secret":"a5752f605c","server":"65535","farm":66,"title":"Wheatear Eastern Black-eared Wheatear - Oenanthe melanoleuca Meladia Valley 260422 1.1","ispublic":1,"isfriend":0,"isfamily":0},{"id":"52342948946","owner":"41730704@N03","secret":"57717ed0e9","server":"65535","farm":66,"title":"Wheatear Eastern Black-eared Wheatear - Oenanthe melanoleuca Petrified Forest Park Lesvos 200522 1.1","ispublic":1,"isfriend":0,"isfamily":0},{"id":"52343379600","owner":"41730704@N03","secret":"9dd46e6203","server":"65535","farm":66,"title":"Wheatear Eastern Black-eared Wheatear - Oenanthe melanoleuca Petrified Forest Park Lesvos 200522 1.2","ispublic":1,"isfriend":0,"isfamily":0},{"id":"52343370485","owner":"41730704@N03","secret":"9635e9e80c","server":"65535","farm":66,"title":"Wheatear Eastern Black-eared Wheatear - Oenanthe melanoleuca Sigri 220422 1.1","ispublic":1,"isfriend":0,"isfamily":0},{"id":"52332048970","owner":"147466598@N07","secret":"bc0cae51b6","server":"65535","farm":66,"title":"Eastern black-eared wheatear","ispublic":1,"isfriend":0,"isfamily":0},{"id":"52293422092","owner":"156162545@N07","secret":"e819cc1bd1","server":"65535","farm":66,"title":"Eastern Black-eared Wheatear","ispublic":1,"isfriend":0,"isfamily":0},{"id":"52288007634","owner":"156162545@N07","secret":"50b18073bf","server":"65535","farm":66,"title":"Eastern Black-eared Wheatear","ispublic":1,"isfriend":0,"isfamily":0},{"id":"52163350334","owner":"36611483@N03","secret":"68814c36d0","server":"65535","farm":66,"title":"Eastern Black-eared Wheatear","ispublic":1,"isfriend":0,"isfamily":0},{"id":"52161864147","owner":"193014445@N07","secret":"e86170ca71","server":"65535","farm":66,"title":"Balkansteinschm\u00e4tzer, Oenanthe hispanica melanoleuca","ispublic":1,"isfriend":0,"isfamily":0},{"id":"52038256529","owner":"36611483@N03","secret":"fcb00829a9","server":"65535","farm":66,"title":"Eastern Black-eared Wheatear","ispublic":1,"isfriend":0,"isfamily":0},{"id":"51982304933","owner":"170926355@N07","secret":"8c767d7007","server":"65535","farm":66,"title":"Oenanthe melanoleuca (Collar, N. 2021), Traquet noir et blanc","ispublic":1,"isfriend":0,"isfamily":0},{"id":"51982129308","owner":"27951437@N07","secret":"de0ac6e1fd","server":"65535","farm":66,"title":"_75A6299_6MP","ispublic":1,"isfriend":0,"isfamily":0},{"id":"51568730659","owner":"54100598@N08","secret":"db76025814","server":"65535","farm":66,"title":"Cyprus Pied Wheatear (Oenanthe cypriaca)","ispublic":1,"isfriend":0,"isfamily":0},{"id":"51567250602","owner":"54100598@N08","secret":"90e812e0c1","server":"65535","farm":66,"title":"Cyprus Pied Wheatear (Oenanthe cypriaca)","ispublic":1,"isfriend":0,"isfamily":0},{"id":"51568289128","owner":"54100598@N08","secret":"e97a2148d5","server":"65535","farm":66,"title":"Cyprus Pied Wheatear (Oenanthe cypriaca)","ispublic":1,"isfriend":0,"isfamily":0},{"id":"51568730539","owner":"54100598@N08","secret":"3b04461f9c","server":"65535","farm":66,"title":"Cyprus Pied Wheatear (Oenanthe cypriaca)","ispublic":1,"isfriend":0,"isfamily":0},{"id":"51568288898","owner":"54100598@N08","secret":"7d597642c2","server":"65535","farm":66,"title":"Cyprus Pied Wheatear (Oenanthe cypriaca)","ispublic":1,"isfriend":0,"isfamily":0},{"id":"51523598029","owner":"142551579@N04","secret":"8aef378211","server":"65535","farm":66,"title":"Eastern Black-eared Wheatear (Oenanthe melanoleuca)","ispublic":1,"isfriend":0,"isfamily":0},{"id":"51368039733","owner":"154417921@N04","secret":"6ae348ef94","server":"65535","farm":66,"title":"DSC08434 oostelijke blonde tapuit","ispublic":1,"isfriend":0,"isfamily":0},{"id":"51368826750","owner":"154417921@N04","secret":"ec56b57d9b","server":"65535","farm":66,"title":"DSC08378","ispublic":1,"isfriend":0,"isfamily":0},{"id":"51276231926","owner":"61021753@N02","secret":"ba068c8522","server":"65535","farm":66,"title":"n84_w1150","ispublic":1,"isfriend":0,"isfamily":0},{"id":"51250318612","owner":"61021753@N02","secret":"e7a3bd0f01","server":"65535","farm":66,"title":"n12_w1150","ispublic":1,"isfriend":0,"isfamily":0},{"id":"51133380311","owner":"123921840@N07","secret":"35cc27a582","server":"65535","farm":66,"title":"Black-eared wheatear (O\u0435nanthe melanoleuca) var. stapazina \u2642","ispublic":1,"isfriend":0,"isfamily":0},{"id":"51105436520","owner":"40973131@N04","secret":"e9899b7547","server":"65535","farm":66,"title":"2021_04_DSCN2274","ispublic":1,"isfriend":0,"isfamily":0},{"id":"51100468637","owner":"40973131@N04","secret":"9fc4e55e25","server":"65535","farm":66,"title":"2021_04_DSCN2278","ispublic":1,"isfriend":0,"isfamily":0},{"id":"51076035112","owner":"61220767@N03","secret":"835033b04c","server":"65535","farm":66,"title":"Eastern black-eared wheatear","ispublic":1,"isfriend":0,"isfamily":0},{"id":"51009486487","owner":"41730704@N03","secret":"04ff3a1dfd","server":"65535","farm":66,"title":"Wheatear Eastern Black-eared Wheatear - Oenanthe melanoleuca Anaxos Lesvos 10\/05\/11","ispublic":1,"isfriend":0,"isfamily":0},{"id":"50385177052","owner":"40973131@N04","secret":"bccf5be629","server":"65535","farm":66,"title":"2020_09_DSC01279","ispublic":1,"isfriend":0,"isfamily":0},{"id":"50241112738","owner":"61021753@N02","secret":"8ff7f60e0b","server":"65535","farm":66,"title":"n209_w1150","ispublic":1,"isfriend":0,"isfamily":0},{"id":"50179713792","owner":"41730704@N03","secret":"140c13b05b","server":"65535","farm":66,"title":"Wheatear Eastern black eared wheatear Oenanthe melanoleuca Petrified Forest Lesvos 12\/05\/10","ispublic":1,"isfriend":0,"isfamily":0},{"id":"50179713762","owner":"41730704@N03","secret":"7e6d28c3c6","server":"65535","farm":66,"title":"Wheatear Eastern black eared wheatear Oenanthe melanoleuca Petrified Forest Lesvos 12\/05\/10","ispublic":1,"isfriend":0,"isfamily":0},{"id":"50179713737","owner":"41730704@N03","secret":"9d5feae700","server":"65535","farm":66,"title":"Wheatear Eastern black eared wheatear Oenanthe melanoleuca Petrified Forest Lesvos 12\/05\/10","ispublic":1,"isfriend":0,"isfamily":0},{"id":"50025458028","owner":"41730704@N03","secret":"c677eec62c","server":"65535","farm":66,"title":"Wheatear  black-eared wheatear (Oenanthe melanoleuca)  Kavaki 17\/05\/06","ispublic":1,"isfriend":0,"isfamily":0},{"id":"49871339437","owner":"54100598@N08","secret":"70314042fb","server":"65535","farm":66,"title":"Black-eared Wheatear (Oenanthe hispanica)","ispublic":1,"isfriend":0,"isfamily":0},{"id":"49870502173","owner":"54100598@N08","secret":"e3254224c0","server":"65535","farm":66,"title":"Black-eared Wheatear (Oenanthe hispanica)","ispublic":1,"isfriend":0,"isfamily":0},{"id":"49666220242","owner":"92374457@N07","secret":"34da64eb9d","server":"65535","farm":66,"title":"Eastern Black-eared Wheatear (Oenanthe melanoleuca)","ispublic":1,"isfriend":0,"isfamily":0},{"id":"49665939606","owner":"92374457@N07","secret":"3479fd7ab1","server":"65535","farm":66,"title":"Eastern Black-eared Wheatear (Oenanthe melanoleuca)","ispublic":1,"isfriend":0,"isfamily":0},{"id":"49569944671","owner":"41730704@N03","secret":"ba12afb17b","server":"65535","farm":66,"title":"Wheatear Eastern Black-eared Wheatear - Oenanthe melanoleuca Petrified Forest Lesvos Greece 05\/05\/19","ispublic":1,"isfriend":0,"isfamily":0},{"id":"48794966718","owner":"50264295@N06","secret":"d619cc820e","server":"65535","farm":66,"title":"[Eastern] Black-eared Wheatear (Oenanthe hispanica melanoleuca)- juvenile","ispublic":1,"isfriend":0,"isfamily":0},{"id":"48795280741","owner":"50264295@N06","secret":"5852dc500b","server":"65535","farm":66,"title":"[Eastern] Black-eared Wheatear (Oenanthe hispanica melanoleuca)- juvenile","ispublic":1,"isfriend":0,"isfamily":0},{"id":"48795201136","owner":"50264295@N06","secret":"5c630fbf46","server":"65535","farm":66,"title":"[Eastern] Black-eared Wheatear (Oenanthe hispanica melanoleuca)- juvenile","ispublic":1,"isfriend":0,"isfamily":0},{"id":"48743586826","owner":"156274276@N07","secret":"2a6c54658c","server":"65535","farm":66,"title":"eastern black-eared wheatear","ispublic":1,"isfriend":0,"isfamily":0},{"id":"48743752027","owner":"156274276@N07","secret":"3bfb2b081d","server":"65535","farm":66,"title":"eastern black-eared wheatear","ispublic":1,"isfriend":0,"isfamily":0},{"id":"48743565786","owner":"156274276@N07","secret":"040e011549","server":"65535","farm":66,"title":"eastern black eared wheatear","ispublic":1,"isfriend":0,"isfamily":0},{"id":"48743545901","owner":"156274276@N07","secret":"609a34c913","server":"65535","farm":66,"title":"eastern black - eared wheatear","ispublic":1,"isfriend":0,"isfamily":0},{"id":"48743702697","owner":"156274276@N07","secret":"9bf584ae3a","server":"65535","farm":66,"title":"eastern black-eared wheatear","ispublic":1,"isfriend":0,"isfamily":0},{"id":"48743675927","owner":"156274276@N07","secret":"1a3b372b8d","server":"65535","farm":66,"title":"","ispublic":1,"isfriend":0,"isfamily":0},{"id":"48743659507","owner":"156274276@N07","secret":"270bf00646","server":"65535","farm":66,"title":"eastern black eared wheatear","ispublic":1,"isfriend":0,"isfamily":0},{"id":"48743430326","owner":"156274276@N07","secret":"5252c14315","server":"65535","farm":66,"title":"eastern black eared wheatear","ispublic":1,"isfriend":0,"isfamily":0},{"id":"48721621893","owner":"69435459@N04","secret":"c2d1bb2d34","server":"65535","farm":66,"title":"Eastern Black-eared Wheatear (Oenanthe melaoleuca) - Pilling, Lancs, UK.","ispublic":1,"isfriend":0,"isfamily":0},{"id":"48712034023","owner":"140734051@N08","secret":"4db5881097","server":"65535","farm":66,"title":"\u0427\u0435\u0440\u043d\u043e\u0443\u0445\u0430\u044f \u043a\u0430\u043c\u0435\u043d\u043a\u0430, Oenanthe melanoleuca, Eastern Black-eared Wheateater","ispublic":1,"isfriend":0,"isfamily":0},{"id":"48712529327","owner":"140734051@N08","secret":"a6438e144c","server":"65535","farm":66,"title":"\u0427\u0435\u0440\u043d\u043e\u0443\u0445\u0430\u044f \u043a\u0430\u043c\u0435\u043d\u043a\u0430, Oenanthe melanoleuca, Eastern Black-eared Wheateater","ispublic":1,"isfriend":0,"isfamily":0},{"id":"48712365461","owner":"140734051@N08","secret":"83b549fc24","server":"65535","farm":66,"title":"\u0427\u0435\u0440\u043d\u043e\u0443\u0445\u0430\u044f \u043a\u0430\u043c\u0435\u043d\u043a\u0430, Oenanthe melanoleuca, Eastern Black-eared Wheateater","ispublic":1,"isfriend":0,"isfamily":0},{"id":"48712363766","owner":"140734051@N08","secret":"0475f1471d","server":"65535","farm":66,"title":"\u0427\u0435\u0440\u043d\u043e\u0443\u0445\u0430\u044f \u043a\u0430\u043c\u0435\u043d\u043a\u0430, Oenanthe melanoleuca, Eastern Black-eared Wheateater","ispublic":1,"isfriend":0,"isfamily":0},{"id":"48712526132","owner":"140734051@N08","secret":"5b957b3428","server":"65535","farm":66,"title":"\u0427\u0435\u0440\u043d\u043e\u0443\u0445\u0430\u044f \u043a\u0430\u043c\u0435\u043d\u043a\u0430, Oenanthe melanoleuca, Eastern Black-eared Wheateater","ispublic":1,"isfriend":0,"isfamily":0},{"id":"48658278261","owner":"41730704@N03","secret":"09f30fd9bf","server":"65535","farm":66,"title":"Wheatear Eastern Black-eared Wheatear - Oenanthe melanoleuca  Petrified Forest Lesvos 12\/05\/19","ispublic":1,"isfriend":0,"isfamily":0},{"id":"48658277966","owner":"41730704@N03","secret":"af54157b25","server":"65535","farm":66,"title":"Wheatear Eastern Black-eared Wheatear - Oenanthe melanoleuca Meladia Valley Lesvos 25\/04\/19","ispublic":1,"isfriend":0,"isfamily":0},{"id":"52651251243","owner":"12639178@N07","secret":"4a2f118232","server":"65535","farm":66,"title":"juv. Balkan-Steinschm\u00e4tzer","ispublic":1,"isfriend":0,"isfamily":0},{"id":"52508344908","owner":"12639178@N07","secret":"c383fcf7e9","server":"65535","farm":66,"title":"Balkan-Mittelmeer-Steinschm\u00e4tzer","ispublic":1,"isfriend":0,"isfamily":0},{"id":"52289718219","owner":"12639178@N07","secret":"7487b97e37","server":"65535","farm":66,"title":"Mittelmeersteinschm\u00e4tzer oder normaler?","ispublic":1,"isfriend":0,"isfamily":0},{"id":"52289454003","owner":"12639178@N07","secret":"59b9412601","server":"65535","farm":66,"title":"Mittelmeersteinschm\u00e4tzer oder normaler?","ispublic":1,"isfriend":0,"isfamily":0},{"id":"52289938175","owner":"12639178@N07","secret":"b362ba5cd4","server":"65535","farm":66,"title":"Mittelmeersteinschm\u00e4tzer oder normaler?","ispublic":1,"isfriend":0,"isfamily":0},{"id":"52113292212","owner":"41730704@N03","secret":"727dba620a","server":"65535","farm":66,"title":"Wheatear Eastern Black-eared Wheatear - Oenanthe melanoleuca Sigri  Lesvos 22\/04\/22","ispublic":1,"isfriend":0,"isfamily":0},{"id":"52082800699","owner":"12639178@N07","secret":"d4d32a25da","server":"65535","farm":66,"title":"Balkan-Mittelmeer-Steinschm\u00e4tzer","ispublic":1,"isfriend":0,"isfamily":0},{"id":"52081527547","owner":"12639178@N07","secret":"5c3f3cb3ef","server":"65535","farm":66,"title":"Balkan-Mittelmeer-Steinschm\u00e4tzer","ispublic":1,"isfriend":0,"isfamily":0},{"id":"52003545332","owner":"12639178@N07","secret":"82512c2572","server":"65535","farm":66,"title":"Balkan-Mittelmeer-Steinschm\u00e4tzer (Oenanthe hispanica melanoleuca)","ispublic":1,"isfriend":0,"isfamily":0},{"id":"51982237191","owner":"170926355@N07","secret":"a9b4049591","server":"65535","farm":66,"title":"Oenanthe melanoleuca (Collar, N. 2021), Traquet noir et blanc","ispublic":1,"isfriend":0,"isfamily":0},{"id":"51964355898","owner":"92374457@N07","secret":"7bbfc60891","server":"65535","farm":66,"title":"eastern black-eared wheatear (Oenanthe melanoleuca)","ispublic":1,"isfriend":0,"isfamily":0},{"id":"51960619592","owner":"110932358@N03","secret":"1c7dcacae4","server":"65535","farm":66,"title":"Eastern Black-eared Wheatear (Oenanthe melanoleuca) female","ispublic":1,"isfriend":0,"isfamily":0},{"id":"51807964973","owner":"193443384@N07","secret":"8d648687a5","server":"65535","farm":66,"title":"Eastern Black-eared Wheatear (Oenanthe melanoleuca) or Pied wheatear (Oenanthe pleschanka)","ispublic":1,"isfriend":0,"isfamily":0},{"id":"51808583955","owner":"193443384@N07","secret":"03f50bdceb","server":"65535","farm":66,"title":"Eastern Black-eared Wheatear (Oenanthe melanoleuca) or Pied wheatear (Oenanthe pleschanka)","ispublic":1,"isfriend":0,"isfamily":0},{"id":"51806893842","owner":"193443384@N07","secret":"3f87893d51","server":"65535","farm":66,"title":"Eastern Black-eared Wheatear (Oenanthe melanoleuca) or Pied wheatear (Oenanthe pleschanka)","ispublic":1,"isfriend":0,"isfamily":0},{"id":"51806893587","owner":"193443384@N07","secret":"f48de2803c","server":"65535","farm":66,"title":"Eastern Black-eared Wheatear (Oenanthe melanoleuca) or Pied wheatear (Oenanthe pleschanka)","ispublic":1,"isfriend":0,"isfamily":0},{"id":"51806893537","owner":"193443384@N07","secret":"5e66838085","server":"65535","farm":66,"title":"Eastern Black-eared Wheatear (Oenanthe melanoleuca) or Pied wheatear (Oenanthe pleschanka)","ispublic":1,"isfriend":0,"isfamily":0},{"id":"51807849596","owner":"193443384@N07","secret":"356921727e","server":"65535","farm":66,"title":"Eastern Black-eared Wheatear (Oenanthe melanoleuca) or Pied wheatear (Oenanthe pleschanka)","ispublic":1,"isfriend":0,"isfamily":0},{"id":"51807964463","owner":"193443384@N07","secret":"01c0a4a0af","server":"65535","farm":66,"title":"Eastern Black-eared Wheatear (Oenanthe melanoleuca)or Pied wheatear (Oenanthe pleschanka)","ispublic":1,"isfriend":0,"isfamily":0},{"id":"51808583525","owner":"193443384@N07","secret":"a480a29a08","server":"65535","farm":66,"title":"Eastern Black-eared Wheatear (Oenanthe melanoleuca) or Pied wheatear (Oenanthe pleschanka)","ispublic":1,"isfriend":0,"isfamily":0},{"id":"51806893342","owner":"193443384@N07","secret":"b58d2740df","server":"65535","farm":66,"title":"Eastern Black-eared Wheatear (Oenanthe melanoleuca) or Pied wheatear (Oenanthe pleschanka)","ispublic":1,"isfriend":0,"isfamily":0},{"id":"51807964363","owner":"193443384@N07","secret":"1e87ac6508","server":"65535","farm":66,"title":"Eastern Black-eared Wheatear (Oenanthe melanoleuca) or Pied wheatear (Oenanthe pleschanka)","ispublic":1,"isfriend":0,"isfamily":0},{"id":"51568289018","owner":"54100598@N08","secret":"e8b9f0ae32","server":"65535","farm":66,"title":"Cyprus Pied Wheatear (Oenanthe cypriaca)","ispublic":1,"isfriend":0,"isfamily":0},{"id":"51567250442","owner":"54100598@N08","secret":"99e4ebf612","server":"65535","farm":66,"title":"Cyprus Pied Wheatear (Oenanthe cypriaca)","ispublic":1,"isfriend":0,"isfamily":0},{"id":"51055131298","owner":"92374457@N07","secret":"5daf27fd41","server":"65535","farm":66,"title":"eastern black-eared wheatear (Oenanthe melanoleuca)","ispublic":1,"isfriend":0,"isfamily":0},{"id":"50179462876","owner":"41730704@N03","secret":"40a293b6f8","server":"65535","farm":66,"title":"Wheatear Eastern black eared wheatear Oenanthe melanoleuca Faneromeni Lesvos 12\/05\/10","ispublic":1,"isfriend":0,"isfamily":0},{"id":"50082695796","owner":"142952595@N08","secret":"6c019c32ea","server":"65535","farm":66,"title":"(Eastern) Black-eared Wheatear male","ispublic":1,"isfriend":0,"isfamily":0},{"id":"49749919008","owner":"12639178@N07","secret":"87be0e93a7","server":"65535","farm":66,"title":"Balkan-Mittelmeer-Steinschm\u00e4tzer","ispublic":1,"isfriend":0,"isfamily":0},{"id":"49660767873","owner":"142551579@N04","secret":"c61a9af9c6","server":"65535","farm":66,"title":"Eastern Black-eared Wheatear (Oenanthe melanoleuca)","ispublic":1,"isfriend":0,"isfamily":0},{"id":"49647245126","owner":"186915896@N05","secret":"cd8cbb187a","server":"65535","farm":66,"title":"Oostelijke Blonde Tapuit (Eastern black-eared Wheatear, Oenanthe melanoleuca)","ispublic":1,"isfriend":0,"isfamily":0},{"id":"49486001878","owner":"149662505@N04","secret":"97a094f45b","server":"65535","farm":66,"title":"Eastern Black-eared Wheatear","ispublic":1,"isfriend":0,"isfamily":0},{"id":"49486488786","owner":"149662505@N04","secret":"ee3a504ff8","server":"65535","farm":66,"title":"Eastern Black-eared Wheatear","ispublic":1,"isfriend":0,"isfamily":0},{"id":"49486001653","owner":"149662505@N04","secret":"c48383d6b7","server":"65535","farm":66,"title":"Eastern Black-eared Wheatear","ispublic":1,"isfriend":0,"isfamily":0},{"id":"49486001368","owner":"149662505@N04","secret":"e56c79e95a","server":"65535","farm":66,"title":"Eastern Black-eared Wheatear","ispublic":1,"isfriend":0,"isfamily":0},{"id":"49486488331","owner":"149662505@N04","secret":"e9fecf4d0c","server":"65535","farm":66,"title":"Eastern Black-eared Wheatear","ispublic":1,"isfriend":0,"isfamily":0},{"id":"49486488271","owner":"149662505@N04","secret":"1ed16926bf","server":"65535","farm":66,"title":"Eastern Black-eared Wheatear","ispublic":1,"isfriend":0,"isfamily":0},{"id":"49109342191","owner":"12639178@N07","secret":"c2c914b929","server":"65535","farm":66,"title":"Balkan-Mittelmeer-Steinschm\u00e4tzer (Belegfoto)","ispublic":1,"isfriend":0,"isfamily":0},{"id":"49093789566","owner":"12639178@N07","secret":"0ed8c4e571","server":"65535","farm":66,"title":"Schwarzstirnw\u00fcrger","ispublic":1,"isfriend":0,"isfamily":0},{"id":"49093980147","owner":"12639178@N07","secret":"8faf29079e","server":"65535","farm":66,"title":"Balkansteinschm\u00e4tzer","ispublic":1,"isfriend":0,"isfamily":0},{"id":"48725234018","owner":"12639178@N07","secret":"112409afbf","server":"65535","farm":66,"title":"Eastern Black-eared Wheatear","ispublic":1,"isfriend":0,"isfamily":0},{"id":"48712366551","owner":"140734051@N08","secret":"fc090f3075","server":"65535","farm":66,"title":"\u0427\u0435\u0440\u043d\u043e\u0443\u0445\u0430\u044f \u043a\u0430\u043c\u0435\u043d\u043a\u0430, Oenanthe melanoleuca, Eastern Black-eared Wheateater","ispublic":1,"isfriend":0,"isfamily":0}]},"stat":"ok"}