{"photos":{"page":1,"pages":109,"perpage":100,"total":10855,"photo":[{"id":"52721481529","owner":"93273765@N05","secret":"b8437150d7","server":"65535","farm":66,"title":"Male Eastern bluebird (Sialia sialis)","ispublic":1,"isfriend":0,"isfamily":0},{"id":"52719358341","owner":"184781347@N05","secret":"a1c86fe33c","server":"65535","farm":66,"title":"eastern bluebird","ispublic":1,"isfriend":0,"isfamily":0},{"id":"52717227749","owner":"165841515@N03","secret":"d53b27b341","server":"65535","farm":66,"title":"Merlebleu de l'Est \/ Eastern Bluebird \/ (Sialia sialis)","ispublic":1,"isfriend":0,"isfamily":0},{"id":"52717449973","owner":"165841515@N03","secret":"1ac672244d","server":"65535","farm":66,"title":"Merlebleu de l'Est \/ Eastern Bluebird \/ (Sialia sialis)","ispublic":1,"isfriend":0,"isfamily":0},{"id":"52716962146","owner":"165841515@N03","secret":"9b10502be0","server":"65535","farm":66,"title":"Merlebleu de l'Est \/ Eastern Bluebird \/ (Sialia sialis)","ispublic":1,"isfriend":0,"isfamily":0},{"id":"52716961936","owner":"165841515@N03","secret":"732ff286f9","server":"65535","farm":66,"title":"Merlebleu de l'Est \/ Eastern Bluebird \/ (Sialia sialis)","ispublic":1,"isfriend":0,"isfamily":0},{"id":"52716441517","owner":"165841515@N03","secret":"e8eda87a18","server":"65535","farm":66,"title":"Merlebleu de l'Est \/ Eastern Bluebird \/ (Sialia sialis)","ispublic":1,"isfriend":0,"isfamily":0},{"id":"52714357831","owner":"36013467@N07","secret":"eaef857816","server":"65535","farm":66,"title":"Eastern Bluebird (Sialia sialis)","ispublic":1,"isfriend":0,"isfamily":0},{"id":"52712547051","owner":"8654297@N06","secret":"e329932e2c","server":"65535","farm":66,"title":"Happy bluebird","ispublic":1,"isfriend":0,"isfamily":0},{"id":"52697808878","owner":"10260434@N03","secret":"d3b57c510f","server":"65535","farm":66,"title":"Bluebird male+waterdish-9Jan23","ispublic":1,"isfriend":0,"isfamily":0},{"id":"52697806913","owner":"10260434@N03","secret":"9c60b5d62e","server":"65535","farm":66,"title":"Bluebird male on tray-10Jan23","ispublic":1,"isfriend":0,"isfamily":0},{"id":"52697732260","owner":"10260434@N03","secret":"8610c45f8f","server":"65535","farm":66,"title":"Bluebird female on tray-10Jan23","ispublic":1,"isfriend":0,"isfamily":0},{"id":"52697311326","owner":"10260434@N03","secret":"c9c1126efa","server":"65535","farm":66,"title":"Bluebird male on feeder pole-23Jan23","ispublic":1,"isfriend":0,"isfamily":0},{"id":"52697253296","owner":"10260434@N03","secret":"98a818b56a","server":"65535","farm":66,"title":"Bluebird+mealworm -25Dec22","ispublic":1,"isfriend":0,"isfamily":0},{"id":"52697712983","owner":"10260434@N03","secret":"ddb14932af","server":"65535","farm":66,"title":"Bluebird pair on tray feeder-27Dec22","ispublic":1,"isfriend":0,"isfamily":0},{"id":"52695737387","owner":"10260434@N03","secret":"cf1e5b6335","server":"65535","farm":66,"title":"Eastern Bluebird male-24Dec22","ispublic":1,"isfriend":0,"isfamily":0},{"id":"52696236801","owner":"10260434@N03","secret":"50770fd9d9","server":"65535","farm":66,"title":"Bluebird male at seedlog-24Dec22","ispublic":1,"isfriend":0,"isfamily":0},{"id":"52696913423","owner":"17654080@N08","secret":"d4a63bb138","server":"65535","farm":66,"title":"Eastern Bluebird, female (Sialia sialis)","ispublic":1,"isfriend":0,"isfamily":0},{"id":"52696687164","owner":"17654080@N08","secret":"9dc9f121d8","server":"65535","farm":66,"title":"Eastern Bluebird, male (Sialia sialis)","ispublic":1,"isfriend":0,"isfamily":0},{"id":"52696687119","owner":"17654080@N08","secret":"aaf78057a1","server":"65535","farm":66,"title":"Eastern Bluebird, male (Sialia sialis)","ispublic":1,"isfriend":0,"isfamily":0},{"id":"52695473504","owner":"85277889@N08","secret":"fe56176acb","server":"65535","farm":66,"title":"Eastern Bluebird (Sialia sialis) 2023-02-13 (2)","ispublic":1,"isfriend":0,"isfamily":0},{"id":"52695208576","owner":"85277889@N08","secret":"d858f4eb57","server":"65535","farm":66,"title":"Eastern Bluebird (Sialia sialis) 2023-02-13 (7)","ispublic":1,"isfriend":0,"isfamily":0},{"id":"52695622310","owner":"85277889@N08","secret":"b90ec44ff3","server":"65535","farm":66,"title":"Eastern Bluebird (Sialia sialis) 2023-02-13 (8)","ispublic":1,"isfriend":0,"isfamily":0},{"id":"52692454229","owner":"169771858@N03","secret":"cf1671d302","server":"65535","farm":66,"title":"Eastern Bluebird - 2020-06-13","ispublic":1,"isfriend":0,"isfamily":0},{"id":"52691171332","owner":"65788177@N02","secret":"e3eb05fdcf","server":"65535","farm":66,"title":"Eastern Bluebird","ispublic":1,"isfriend":0,"isfamily":0},{"id":"52689388717","owner":"33610210@N05","secret":"1a5704988c","server":"65535","farm":66,"title":"Eastern Bluebird, Sialia sialis","ispublic":1,"isfriend":0,"isfamily":0},{"id":"52689328317","owner":"28764859@N08","secret":"72e4f27277","server":"65535","farm":66,"title":"bluebird","ispublic":1,"isfriend":0,"isfamily":0},{"id":"52689955105","owner":"46197304@N04","secret":"b2d076aa0d","server":"65535","farm":66,"title":"Eastern Bluebird","ispublic":1,"isfriend":0,"isfamily":0},{"id":"52689481013","owner":"85391626@N07","secret":"faafba95b2","server":"65535","farm":66,"title":"Eastern Bluebird","ispublic":1,"isfriend":0,"isfamily":0},{"id":"52688081829","owner":"18378985@N08","secret":"d9fdd0430a","server":"65535","farm":66,"title":"Eastern Bluebird","ispublic":1,"isfriend":0,"isfamily":0},{"id":"52687958768","owner":"96854611@N02","secret":"4d709f8acd","server":"65535","farm":66,"title":"Frozen Bluebird","ispublic":1,"isfriend":0,"isfamily":0},{"id":"52685332012","owner":"160542269@N02","secret":"84978ea073","server":"65535","farm":66,"title":"eastern bluebird","ispublic":1,"isfriend":0,"isfamily":0},{"id":"52685049721","owner":"13451078@N03","secret":"13e7433224","server":"65535","farm":66,"title":"Eastern Bluebird (Sialia sialis)","ispublic":1,"isfriend":0,"isfamily":0},{"id":"52678139247","owner":"49114357@N08","secret":"deaff8dd51","server":"65535","farm":66,"title":"Eastern Bluebird","ispublic":1,"isfriend":0,"isfamily":0},{"id":"52676964852","owner":"57126723@N07","secret":"62ddbc8b85","server":"65535","farm":66,"title":"Sialia sialis\u2014Eastern bluebird\u2014Turdidae\u2014Jamestown Island-8395","ispublic":1,"isfriend":0,"isfamily":0},{"id":"52676759539","owner":"70295563@N00","secret":"f88e917d81","server":"65535","farm":66,"title":"Out on a limb","ispublic":1,"isfriend":0,"isfamily":0},{"id":"52673368928","owner":"187996196@N05","secret":"bb5802e67a","server":"65535","farm":66,"title":"Rotkehl-H\u00fcttens\u00e4nger \/ Eastern bluebird \/ Sialia sialis","ispublic":1,"isfriend":0,"isfamily":0},{"id":"52671432490","owner":"39511843@N07","secret":"da20eb9d86","server":"65535","farm":66,"title":"20230203-Eastern Bluebird  (Sialia sialis)-2","ispublic":1,"isfriend":0,"isfamily":0},{"id":"52671432210","owner":"39511843@N07","secret":"3532685817","server":"65535","farm":66,"title":"20230203-Eastern Bluebird  (Sialia sialis)-3","ispublic":1,"isfriend":0,"isfamily":0},{"id":"52671432020","owner":"39511843@N07","secret":"05f35ee049","server":"65535","farm":66,"title":"20230203-Eastern Bluebird  (Sialia sialis)-4","ispublic":1,"isfriend":0,"isfamily":0},{"id":"52671287769","owner":"39511843@N07","secret":"faa0255a34","server":"65535","farm":66,"title":"20230203-Eastern Bluebird  (Sialia sialis)-5","ispublic":1,"isfriend":0,"isfamily":0},{"id":"52671431540","owner":"39511843@N07","secret":"a02eae61a1","server":"65535","farm":66,"title":"20230203-Eastern Bluebird  (Sialia sialis)","ispublic":1,"isfriend":0,"isfamily":0},{"id":"52669670247","owner":"22463805@N04","secret":"c693a77b13","server":"65535","farm":66,"title":"Bluebird","ispublic":1,"isfriend":0,"isfamily":0},{"id":"52669613937","owner":"128537732@N06","secret":"29756e868d","server":"65535","farm":66,"title":"Eastern Bluebird (Sialia sialis)","ispublic":1,"isfriend":0,"isfamily":0},{"id":"52670615003","owner":"128537732@N06","secret":"f9fc9d6ccb","server":"65535","farm":66,"title":"Eastern Bluebird (Sialia sialis)","ispublic":1,"isfriend":0,"isfamily":0},{"id":"52667116842","owner":"33610210@N05","secret":"75c9dc1b3e","server":"65535","farm":66,"title":"Eastern Bluebird, Sialia sialis","ispublic":1,"isfriend":0,"isfamily":0},{"id":"52665521546","owner":"8378957@N02","secret":"76e7375506","server":"65535","farm":66,"title":"Eastern Bluebird","ispublic":1,"isfriend":0,"isfamily":0},{"id":"52664524291","owner":"91064752@N03","secret":"8bc6997872","server":"65535","farm":66,"title":"Eastern Bluebird Pair - Proud Homeowners","ispublic":1,"isfriend":0,"isfamily":0},{"id":"52662104929","owner":"33610210@N05","secret":"1f6490802e","server":"65535","farm":66,"title":"Eastern Bluebird, Sialia sialis","ispublic":1,"isfriend":0,"isfamily":0},{"id":"52661730998","owner":"196127020@N02","secret":"50ccf6e46a","server":"65535","farm":66,"title":"Bluebird","ispublic":1,"isfriend":0,"isfamily":0},{"id":"52661684675","owner":"196127020@N02","secret":"42932351c9","server":"65535","farm":66,"title":"Bluebird","ispublic":1,"isfriend":0,"isfamily":0},{"id":"52661239681","owner":"196127020@N02","secret":"b8eecc14a9","server":"65535","farm":66,"title":"Bluebird","ispublic":1,"isfriend":0,"isfamily":0},{"id":"52660740517","owner":"196127020@N02","secret":"b024766025","server":"65535","farm":66,"title":"Bluebird","ispublic":1,"isfriend":0,"isfamily":0},{"id":"52661239636","owner":"196127020@N02","secret":"d363d59e01","server":"65535","farm":66,"title":"Bluebird","ispublic":1,"isfriend":0,"isfamily":0},{"id":"52661523679","owner":"196127020@N02","secret":"09d167b7d4","server":"65535","farm":66,"title":"Bluebird","ispublic":1,"isfriend":0,"isfamily":0},{"id":"52661684350","owner":"196127020@N02","secret":"678b90af9d","server":"65535","farm":66,"title":"Bluebird","ispublic":1,"isfriend":0,"isfamily":0},{"id":"52660740242","owner":"196127020@N02","secret":"5271502da2","server":"65535","farm":66,"title":"Bluebird","ispublic":1,"isfriend":0,"isfamily":0},{"id":"52661684250","owner":"196127020@N02","secret":"ae0d23fdbd","server":"65535","farm":66,"title":"Bluebird","ispublic":1,"isfriend":0,"isfamily":0},{"id":"52661730543","owner":"196127020@N02","secret":"a4520cf209","server":"65535","farm":66,"title":"Bluebird","ispublic":1,"isfriend":0,"isfamily":0},{"id":"52661730553","owner":"196127020@N02","secret":"0c84c04835","server":"65535","farm":66,"title":"Bluebird","ispublic":1,"isfriend":0,"isfamily":0},{"id":"52661239321","owner":"196127020@N02","secret":"2ebe88b7b5","server":"65535","farm":66,"title":"Bluebird","ispublic":1,"isfriend":0,"isfamily":0},{"id":"52661730438","owner":"196127020@N02","secret":"cb081e53cb","server":"65535","farm":66,"title":"Bluebird","ispublic":1,"isfriend":0,"isfamily":0},{"id":"52661730273","owner":"196127020@N02","secret":"c394e6c76c","server":"65535","farm":66,"title":"Bluebird","ispublic":1,"isfriend":0,"isfamily":0},{"id":"52658889292","owner":"14552479@N00","secret":"8cec002925","server":"65535","farm":66,"title":"Sialia Sialis, Eastern Bluebird, Male","ispublic":1,"isfriend":0,"isfamily":0},{"id":"52657859149","owner":"160542269@N02","secret":"3ff193c824","server":"65535","farm":66,"title":"eastern bluebird","ispublic":1,"isfriend":0,"isfamily":0},{"id":"52656734928","owner":"22385343@N04","secret":"fe137be7eb","server":"65535","farm":66,"title":"24 JANUARY 2023 - Eastern Bluebird - Sialis sialia","ispublic":1,"isfriend":0,"isfamily":0},{"id":"52655272221","owner":"160542269@N02","secret":"93e2d8876a","server":"65535","farm":66,"title":"eastern bluebird","ispublic":1,"isfriend":0,"isfamily":0},{"id":"52655515364","owner":"32814617@N00","secret":"31a8be2f84","server":"65535","farm":66,"title":"Eastern Bluebird","ispublic":1,"isfriend":0,"isfamily":0},{"id":"52654992885","owner":"84169650@N07","secret":"bc046a22ba","server":"65535","farm":66,"title":"Eastern Bluebird","ispublic":1,"isfriend":0,"isfamily":0},{"id":"52654555766","owner":"84169650@N07","secret":"7cd05efc29","server":"65535","farm":66,"title":"Eastern Bluebird","ispublic":1,"isfriend":0,"isfamily":0},{"id":"52654832199","owner":"84169650@N07","secret":"341004b493","server":"65535","farm":66,"title":"Eastern Bluebird","ispublic":1,"isfriend":0,"isfamily":0},{"id":"52652802492","owner":"11159374@N04","secret":"fb8414bae6","server":"65535","farm":66,"title":"Eastern Bluebird","ispublic":1,"isfriend":0,"isfamily":0},{"id":"52653529323","owner":"44034115@N08","secret":"923470e98d","server":"65535","farm":66,"title":"Eastern Bluebird Climbs a Tree","ispublic":1,"isfriend":0,"isfamily":0},{"id":"52651428551","owner":"160542269@N02","secret":"7cff095981","server":"65535","farm":66,"title":"eastern bluebird","ispublic":1,"isfriend":0,"isfamily":0},{"id":"52649836857","owner":"88932760@N08","secret":"d058a16a75","server":"65535","farm":66,"title":"Stately Blue","ispublic":1,"isfriend":0,"isfamily":0},{"id":"52648036692","owner":"100108154@N02","secret":"d8dcf330a7","server":"65535","farm":66,"title":"1 That One Looks Good","ispublic":1,"isfriend":0,"isfamily":0},{"id":"52648301351","owner":"69002026@N02","secret":"d5a227bae1","server":"65535","farm":66,"title":"Eastern Bluebird  (Sialia sialis)","ispublic":1,"isfriend":0,"isfamily":0},{"id":"52648138950","owner":"160542269@N02","secret":"0bd338f914","server":"65535","farm":66,"title":"eastern bluebird","ispublic":1,"isfriend":0,"isfamily":0},{"id":"52645701392","owner":"93273765@N05","secret":"8dc0d5f40d","server":"65535","farm":66,"title":"Male Eastern bluebird (Sialia sialis)","ispublic":1,"isfriend":0,"isfamily":0},{"id":"52645533078","owner":"128537732@N06","secret":"796bdfe13f","server":"65535","farm":66,"title":"Eastern Bluebird (Sialia sialis)","ispublic":1,"isfriend":0,"isfamily":0},{"id":"52643790964","owner":"44034115@N08","secret":"e35b27df13","server":"65535","farm":66,"title":"Backside of an Eastern Bluebird","ispublic":1,"isfriend":0,"isfamily":0},{"id":"52642959525","owner":"128537732@N06","secret":"c97fc90459","server":"65535","farm":66,"title":"Eastern Bluebird (Sialia sialis)","ispublic":1,"isfriend":0,"isfamily":0},{"id":"52641376517","owner":"128537732@N06","secret":"4acc20a703","server":"65535","farm":66,"title":"Eastern Bluebird (Sialia sialis)","ispublic":1,"isfriend":0,"isfamily":0},{"id":"52642361173","owner":"128537732@N06","secret":"e71774f391","server":"65535","farm":66,"title":"Eastern Bluebird (Sialia sialis)","ispublic":1,"isfriend":0,"isfamily":0},{"id":"52639857703","owner":"160542269@N02","secret":"f52b2efbec","server":"65535","farm":66,"title":"eastern bluebird (sialia sialis)","ispublic":1,"isfriend":0,"isfamily":0},{"id":"52639406394","owner":"169771858@N03","secret":"732a6ce002","server":"65535","farm":66,"title":"Eastern Bluebird #1 - 2020-06-07","ispublic":1,"isfriend":0,"isfamily":0},{"id":"52638574756","owner":"38514062@N03","secret":"a4d5079434","server":"65535","farm":66,"title":"Eastern Bluebird (Sialia sialis)","ispublic":1,"isfriend":0,"isfamily":0},{"id":"52638428646","owner":"69002026@N02","secret":"8d7c5f750d","server":"65535","farm":66,"title":"Eastern Bluebird  (Sialia sialis)","ispublic":1,"isfriend":0,"isfamily":0},{"id":"52638684109","owner":"69002026@N02","secret":"c58a3db62c","server":"65535","farm":66,"title":"Eastern Bluebird  (Sialia sialis)","ispublic":1,"isfriend":0,"isfamily":0},{"id":"52637007612","owner":"45340210@N05","secret":"60334051dd","server":"65535","farm":66,"title":"Bluebird Wednesday 1_18_23","ispublic":1,"isfriend":0,"isfamily":0},{"id":"52637175940","owner":"169771858@N03","secret":"6e1e1579e0","server":"65535","farm":66,"title":"Eastern Bluebird #2 - 2020-06-07","ispublic":1,"isfriend":0,"isfamily":0},{"id":"52634014859","owner":"100108154@N02","secret":"557254766c","server":"65535","farm":66,"title":"Female Eastern Bluebird","ispublic":1,"isfriend":0,"isfamily":0},{"id":"52633180688","owner":"48985578@N03","secret":"ea785cbaf8","server":"65535","farm":66,"title":"Winter Snack","ispublic":1,"isfriend":0,"isfamily":0},{"id":"52620409889","owner":"85987121@N00","secret":"fbfae4d5ff","server":"65535","farm":66,"title":"Eastern Bluebird","ispublic":1,"isfriend":0,"isfamily":0},{"id":"52620623108","owner":"128537732@N06","secret":"c924bb52fa","server":"65535","farm":66,"title":"Eastern Bluebird (Sialia sialis)","ispublic":1,"isfriend":0,"isfamily":0},{"id":"52618785352","owner":"95721592@N00","secret":"8ac83acdfd","server":"65535","farm":66,"title":"Eastern Bluebird (Sialia sialis)","ispublic":1,"isfriend":0,"isfamily":0},{"id":"52619566239","owner":"95721592@N00","secret":"c6b1a94f73","server":"65535","farm":66,"title":"Eastern Bluebird (Sialia sialis)","ispublic":1,"isfriend":0,"isfamily":0},{"id":"52616594113","owner":"16502322@N03","secret":"debb521ae1","server":"65535","farm":66,"title":"Eastern Bluebird on Sumac","ispublic":1,"isfriend":0,"isfamily":0},{"id":"52613079406","owner":"39445433@N02","secret":"b4bff203c7","server":"65535","farm":66,"title":"Eastern Bluebird","ispublic":1,"isfriend":0,"isfamily":0},{"id":"52612572267","owner":"39445433@N02","secret":"91826d6bac","server":"65535","farm":66,"title":"Eastern Bluebird","ispublic":1,"isfriend":0,"isfamily":0}]},"stat":"ok"}