{"photos":{"page":1,"pages":28,"perpage":100,"total":2782,"photo":[{"id":"52700702966","owner":"8605287@N03","secret":"f7e77277c9","server":"65535","farm":66,"title":"Emberizidae : Pipilo erythrophthalmus - male Eastern Towhee (formerly Rufous-sided Towhee)","ispublic":1,"isfriend":0,"isfamily":0},{"id":"52700142967","owner":"84169650@N07","secret":"0b377564f6","server":"65535","farm":66,"title":"Eastern Towhee","ispublic":1,"isfriend":0,"isfamily":0},{"id":"52673313998","owner":"169771858@N03","secret":"d52181f755","server":"65535","farm":66,"title":"Rufous Sided Towhee #2 - 2020-06-13","ispublic":1,"isfriend":0,"isfamily":0},{"id":"52645842198","owner":"71418112@N00","secret":"533f5d57e3","server":"65535","farm":66,"title":"A splash of colour.","ispublic":1,"isfriend":0,"isfamily":0},{"id":"52645126848","owner":"8013969@N03","secret":"98267e650f","server":"65535","farm":66,"title":"Pipilo erythrophthalmus DFL phil22-1","ispublic":1,"isfriend":0,"isfamily":0},{"id":"52644145302","owner":"8013969@N03","secret":"8069d12d0b","server":"65535","farm":66,"title":"Pipilo erythrophthalmus DFL phil22-2","ispublic":1,"isfriend":0,"isfamily":0},{"id":"52607370371","owner":"8605287@N03","secret":"e0c49aef0a","server":"65535","farm":66,"title":"Emberizidae : Pipilo erythrophthalmus - female Eastern Towhee (formerly Rufous-sided Towhee)","ispublic":1,"isfriend":0,"isfamily":0},{"id":"52571039951","owner":"49114357@N08","secret":"5b34b85ed9","server":"65535","farm":66,"title":"Eastern Towhee","ispublic":1,"isfriend":0,"isfamily":0},{"id":"52580752150","owner":"153973412@N04","secret":"4a5e33717a","server":"65535","farm":66,"title":"Eastern Towhee-Pipilo erythrophthalmus, GSM, TN","ispublic":1,"isfriend":0,"isfamily":0},{"id":"52571665108","owner":"49114357@N08","secret":"cf747611f5","server":"65535","farm":66,"title":"Eastern Towhee","ispublic":1,"isfriend":0,"isfamily":0},{"id":"52571203648","owner":"70295563@N00","secret":"cb2a012623","server":"65535","farm":66,"title":"Bird Blind All Stars","ispublic":1,"isfriend":0,"isfamily":0},{"id":"52561288549","owner":"196840457@N07","secret":"eeaffcf6c8","server":"65535","farm":66,"title":"Towhee, Red-eyed Eastern  Male","ispublic":1,"isfriend":0,"isfamily":0},{"id":"52561464175","owner":"196840457@N07","secret":"df6fa009cd","server":"65535","farm":66,"title":"Towhee, Eastern Male 2","ispublic":1,"isfriend":0,"isfamily":0},{"id":"52561440895","owner":"196840457@N07","secret":"7702f676ee","server":"65535","farm":66,"title":"Towhee, Eastern Female","ispublic":1,"isfriend":0,"isfamily":0},{"id":"52549125100","owner":"186586946@N05","secret":"8b1e5c3eea","server":"65535","farm":66,"title":"Tohi \u00e0 flancs roux \\ Eastern Towhee-DSC05851","ispublic":1,"isfriend":0,"isfamily":0},{"id":"52548189302","owner":"186586946@N05","secret":"48edee6b8d","server":"65535","farm":66,"title":"Tohi \u00e0 flancs roux \\ Eastern Towhee-DSC05855 1","ispublic":1,"isfriend":0,"isfamily":0},{"id":"52548189207","owner":"186586946@N05","secret":"b492520cca","server":"65535","farm":66,"title":"Tohi \u00e0 flancs roux \\ Eastern Towhee-DSC05884","ispublic":1,"isfriend":0,"isfamily":0},{"id":"52549124855","owner":"186586946@N05","secret":"7815e56991","server":"65535","farm":66,"title":"Tohi \u00e0 flancs roux \\ Eastern Towhee-DSC06247","ispublic":1,"isfriend":0,"isfamily":0},{"id":"52548651421","owner":"186586946@N05","secret":"2166a7f7d9","server":"65535","farm":66,"title":"Tohi \u00e0 flancs roux \\ Eastern Towhee-DSC06632","ispublic":1,"isfriend":0,"isfamily":0},{"id":"52542245916","owner":"62877922@N08","secret":"2daf1c8e88","server":"65535","farm":66,"title":"Eastern Towhee (Pipilo erythrophthalmus)","ispublic":1,"isfriend":0,"isfamily":0},{"id":"52521034792","owner":"134691658@N05","secret":"71564bc128","server":"65535","farm":66,"title":"Tohi \u00e0 flancs roux \/ Eastern towhee","ispublic":1,"isfriend":0,"isfamily":0},{"id":"52516057469","owner":"30979614@N07","secret":"6831c89428","server":"65535","farm":66,"title":"2022-04-21 Montrose Point 4","ispublic":1,"isfriend":0,"isfamily":0},{"id":"52513406995","owner":"39445433@N02","secret":"e8dc9ba343","server":"65535","farm":66,"title":"Eastern Towhee","ispublic":1,"isfriend":0,"isfamily":0},{"id":"52490086348","owner":"39445433@N02","secret":"b09c07110b","server":"65535","farm":66,"title":"Eastern Towhee","ispublic":1,"isfriend":0,"isfamily":0},{"id":"52490003185","owner":"39445433@N02","secret":"d872083f2d","server":"65535","farm":66,"title":"Eastern Towhee","ispublic":1,"isfriend":0,"isfamily":0},{"id":"52490085548","owner":"39445433@N02","secret":"a17942c96b","server":"65535","farm":66,"title":"Eastern Towhee","ispublic":1,"isfriend":0,"isfamily":0},{"id":"52461236386","owner":"23711298@N07","secret":"399ab3a577","server":"65535","farm":66,"title":"Towhee- Eastern Towhee (Male), Minnesota, Sherburne County, Sherburne National Wildlife Refuge","ispublic":1,"isfriend":0,"isfamily":0},{"id":"52461769218","owner":"23711298@N07","secret":"fceab8b427","server":"65535","farm":66,"title":"Towhee- Eastern Towhee (Male), Minnesota, Sherburne County, Sherburne National Wildlife Refuge","ispublic":1,"isfriend":0,"isfamily":0},{"id":"52457715917","owner":"71418112@N00","secret":"9f73193a93","server":"65535","farm":66,"title":"Female Eastern Towhee.","ispublic":1,"isfriend":0,"isfamily":0},{"id":"52412208370","owner":"49114357@N08","secret":"bd703d4242","server":"65535","farm":66,"title":"Eastern Towhee","ispublic":1,"isfriend":0,"isfamily":0},{"id":"52432920608","owner":"49114357@N08","secret":"4aaccf792f","server":"65535","farm":66,"title":"Eastern Towhee","ispublic":1,"isfriend":0,"isfamily":0},{"id":"52439762618","owner":"121644485@N06","secret":"f84f32ea89","server":"65535","farm":66,"title":"Eastern Towhee","ispublic":1,"isfriend":0,"isfamily":0},{"id":"52435931015","owner":"128537732@N06","secret":"2855a0ee83","server":"65535","farm":66,"title":"Eastern Towhee (Pipilo erythrophthalmus)","ispublic":1,"isfriend":0,"isfamily":0},{"id":"52409253217","owner":"135315828@N06","secret":"5e94aa5eba","server":"65535","farm":66,"title":"eastern towhee","ispublic":1,"isfriend":0,"isfamily":0},{"id":"52410267478","owner":"135315828@N06","secret":"49839476fb","server":"65535","farm":66,"title":"eastern towhee","ispublic":1,"isfriend":0,"isfamily":0},{"id":"52409757156","owner":"135315828@N06","secret":"934ccc82eb","server":"65535","farm":66,"title":"eastern towhee","ispublic":1,"isfriend":0,"isfamily":0},{"id":"52410043134","owner":"135315828@N06","secret":"1ce125b329","server":"65535","farm":66,"title":"eastern towhee","ispublic":1,"isfriend":0,"isfamily":0},{"id":"52409757066","owner":"135315828@N06","secret":"5e4d5f31b7","server":"65535","farm":66,"title":"eastern towhee","ispublic":1,"isfriend":0,"isfamily":0},{"id":"52410267348","owner":"135315828@N06","secret":"dc006c3781","server":"65535","farm":66,"title":"eastern towhee","ispublic":1,"isfriend":0,"isfamily":0},{"id":"52402341960","owner":"76288515@N07","secret":"a1e634a0f5","server":"65535","farm":66,"title":"Eastern Towhee Pipilo erythrophthalmus","ispublic":1,"isfriend":0,"isfamily":0},{"id":"52401399107","owner":"76288515@N07","secret":"ddb3851546","server":"65535","farm":66,"title":"Eastern Towhee Pipilo erythrophthalmus","ispublic":1,"isfriend":0,"isfamily":0},{"id":"52402196894","owner":"76288515@N07","secret":"103bdd7625","server":"65535","farm":66,"title":"Eastern Towhee Pipilo erythrophthalmus","ispublic":1,"isfriend":0,"isfamily":0},{"id":"52402341795","owner":"76288515@N07","secret":"cf89d77bf6","server":"65535","farm":66,"title":"Eastern Towhee Pipilo erythrophthalmus","ispublic":1,"isfriend":0,"isfamily":0},{"id":"52402196754","owner":"76288515@N07","secret":"9a63365acb","server":"65535","farm":66,"title":"Eastern Towhee Pipilo erythrophthalmus","ispublic":1,"isfriend":0,"isfamily":0},{"id":"52401108447","owner":"45340210@N05","secret":"2e154285ba","server":"65535","farm":66,"title":"Eastern Towhee 9_27_22","ispublic":1,"isfriend":0,"isfamily":0},{"id":"52384293757","owner":"26371261@N00","secret":"919c700726","server":"65535","farm":66,"title":"Eastern Towhee, Pipilo erythrophthalmus","ispublic":1,"isfriend":0,"isfamily":0},{"id":"52385466138","owner":"26371261@N00","secret":"15302387cf","server":"65535","farm":66,"title":"Eastern Towhee, Pipilo erythrophthalmus","ispublic":1,"isfriend":0,"isfamily":0},{"id":"52363194554","owner":"45340210@N05","secret":"a0a14ebc15","server":"65535","farm":66,"title":"Eastern Towhee 2 9_13_22","ispublic":1,"isfriend":0,"isfamily":0},{"id":"52340602788","owner":"169771858@N03","secret":"fd5d5f13cb","server":"65535","farm":66,"title":"Rufous-sided Towhee - 2019-06-22","ispublic":1,"isfriend":0,"isfamily":0},{"id":"52329756118","owner":"39445433@N02","secret":"34be0ef309","server":"65535","farm":66,"title":"Eastern Towhee","ispublic":1,"isfriend":0,"isfamily":0},{"id":"52329810784","owner":"39445433@N02","secret":"86a57954b0","server":"65535","farm":66,"title":"Eastern Towhee","ispublic":1,"isfriend":0,"isfamily":0},{"id":"52291032241","owner":"28631427@N00","secret":"6526a2da91","server":"65535","farm":66,"title":"Eastern Towhee 1","ispublic":1,"isfriend":0,"isfamily":0},{"id":"52291520925","owner":"28631427@N00","secret":"f834ca12b2","server":"65535","farm":66,"title":"Eastern Towhee 2","ispublic":1,"isfriend":0,"isfamily":0},{"id":"52291029723","owner":"196212229@N04","secret":"f6c1e5696e","server":"65535","farm":66,"title":"Eastern Towhee with a snack","ispublic":1,"isfriend":0,"isfamily":0},{"id":"52286770150","owner":"131314146@N08","secret":"66733c26bd","server":"65535","farm":66,"title":"K. MacDonald, Eastern Towhee,  Pipilo erythrophthalmus, Wye Marsh, 080922 P8090025 (2)","ispublic":1,"isfriend":0,"isfamily":0},{"id":"52286770125","owner":"131314146@N08","secret":"a5fe9d1fc6","server":"65535","farm":66,"title":"K. MacDonald, Eastern Towhee,  Pipilo erythrophthalmus, Wye Marsh, 080922 P8090124 (2)","ispublic":1,"isfriend":0,"isfamily":0},{"id":"52274475693","owner":"72765183@N07","secret":"ff643a0166","server":"65535","farm":66,"title":"Spotted Towhees (Pipilo maculatus), Pima County, Arizona","ispublic":1,"isfriend":0,"isfamily":0},{"id":"52273926144","owner":"92361032@N05","secret":"f9439cfbc9","server":"65535","farm":66,"title":"Eastern Towhee \/Tohi \u00e0 flancs roux ( Richard )","ispublic":1,"isfriend":0,"isfamily":0},{"id":"52265245252","owner":"124995824@N08","secret":"0586394f37","server":"65535","farm":66,"title":"Eastern Towhee - Pipilo erythrophthalmus","ispublic":1,"isfriend":0,"isfamily":0},{"id":"52262783539","owner":"93273765@N05","secret":"5bff599108","server":"65535","farm":66,"title":"Female Eastern Towhee (Pipilo erythrophthalmus)","ispublic":1,"isfriend":0,"isfamily":0},{"id":"52223143123","owner":"141968693@N08","secret":"64e7fb5c33","server":"65535","farm":66,"title":"Eastern Towhee (male) (Pipilo erythrophthalmus)","ispublic":1,"isfriend":0,"isfamily":0},{"id":"52222053594","owner":"80648919@N08","secret":"deb3e13a3b","server":"65535","farm":66,"title":"Eastern Towhee","ispublic":1,"isfriend":0,"isfamily":0},{"id":"52218058333","owner":"12639178@N07","secret":"20f315ba78","server":"65535","farm":66,"title":"Sie sang hoch oben im Baumwipfel","ispublic":1,"isfriend":0,"isfamily":0},{"id":"52216953328","owner":"23711298@N07","secret":"967c35541f","server":"65535","farm":66,"title":"Towhee- Eastern Towhee (Female), Minnesota, Sherburne County, Sherburne National Wildlife Refuge","ispublic":1,"isfriend":0,"isfamily":0},{"id":"52206219390","owner":"51794880@N07","secret":"36b61ac5ff","server":"65535","farm":66,"title":"Eastern towhee [Pipilo erythrophthalmus]","ispublic":1,"isfriend":0,"isfamily":0},{"id":"52198679013","owner":"184155060@N04","secret":"8956f46289","server":"65535","farm":66,"title":"32157 Tohi \u00e0 flancs roux (m\u00e2le) \/ Pipilo erythrophthalmus erythrophthalmus \/ Eastern Towhee (Red-eyed)","ispublic":1,"isfriend":0,"isfamily":0},{"id":"52197662612","owner":"184155060@N04","secret":"8fc5e76a29","server":"65535","farm":66,"title":"32157 Tohi \u00e0 flancs roux (m\u00e2le) \/ Pipilo erythrophthalmus erythrophthalmus \/ Eastern Towhee (Red-eyed)","ispublic":1,"isfriend":0,"isfamily":0},{"id":"52169082865","owner":"169771858@N03","secret":"83cee7b741","server":"65535","farm":66,"title":"Male Rufous-Sided Towhee (2021-04-18 #1).","ispublic":1,"isfriend":0,"isfamily":0},{"id":"52164057278","owner":"169771858@N03","secret":"7f7dd0f4cc","server":"65535","farm":66,"title":"Rufous-Sided Towhee #3 - 2021-04-18","ispublic":1,"isfriend":0,"isfamily":0},{"id":"52161769934","owner":"74067862@N00","secret":"a08dfd634f","server":"65535","farm":66,"title":"52D55A3E-982D-4944-9119-CD3DF361B5A4","ispublic":1,"isfriend":0,"isfamily":0},{"id":"52153327588","owner":"39177293@N03","secret":"120fa5ebe7","server":"65535","farm":66,"title":"Eastern Towhee","ispublic":1,"isfriend":0,"isfamily":0},{"id":"52153766660","owner":"39177293@N03","secret":"d22f05d958","server":"65535","farm":66,"title":"Eastern Towhee","ispublic":1,"isfriend":0,"isfamily":0},{"id":"52137913755","owner":"71418112@N00","secret":"a57da12781","server":"65535","farm":66,"title":"Spish splash, I was taking a bath...","ispublic":1,"isfriend":0,"isfamily":0},{"id":"52126758360","owner":"145466593@N08","secret":"6dd02a019c","server":"65535","farm":66,"title":"Eastern Towhee  (f)","ispublic":1,"isfriend":0,"isfamily":0},{"id":"52126758275","owner":"145466593@N08","secret":"f3cb022a40","server":"65535","farm":66,"title":"Eastern Towhee  (m)","ispublic":1,"isfriend":0,"isfamily":0},{"id":"52118474567","owner":"169771858@N03","secret":"a1c6f2dba5","server":"65535","farm":66,"title":"Rufous-Sided Towhee #2 - 2021-04-18","ispublic":1,"isfriend":0,"isfamily":0},{"id":"52116787633","owner":"76617062@N08","secret":"69069072ae","server":"65535","farm":66,"title":"1.29383 Tohi \u00e0 flancs roux \/ Pipilo erythrophthalmus erythrophthalmus \/ Eastern Towhee","ispublic":1,"isfriend":0,"isfamily":0},{"id":"52112061916","owner":"163667952@N05","secret":"f52dce7f71","server":"65535","farm":66,"title":"Eastern Towhee","ispublic":1,"isfriend":0,"isfamily":0},{"id":"52111389471","owner":"48014585@N00","secret":"f7329b5344","server":"65535","farm":66,"title":"Eastern Towhee","ispublic":1,"isfriend":0,"isfamily":0},{"id":"52111897435","owner":"48014585@N00","secret":"138619e6ea","server":"65535","farm":66,"title":"Eastern Towhee","ispublic":1,"isfriend":0,"isfamily":0},{"id":"52108876770","owner":"38514062@N03","secret":"3d645d9ff7","server":"65535","farm":66,"title":"Eastern Towhee (Pipilo erythrophthalmus)","ispublic":1,"isfriend":0,"isfamily":0},{"id":"52108876550","owner":"38514062@N03","secret":"4a0ae35349","server":"65535","farm":66,"title":"Eastern Towhee (Pipilo erythrophthalmus)","ispublic":1,"isfriend":0,"isfamily":0},{"id":"52108499590","owner":"90886369@N06","secret":"8140f01c8f","server":"65535","farm":66,"title":"Eastern Towhee (Pipilo erythrophthalmus)","ispublic":1,"isfriend":0,"isfamily":0},{"id":"52106129222","owner":"166123535@N05","secret":"2977192527","server":"65535","farm":66,"title":"Eastern Towhee","ispublic":1,"isfriend":0,"isfamily":0},{"id":"52092252658","owner":"76617062@N08","secret":"500d549ce3","server":"65535","farm":66,"title":"1.29383 Tohi \u00e0 flancs roux \/ Pipilo erythrophthalmus erythrophthalmus \/ Eastern Towhee","ispublic":1,"isfriend":0,"isfamily":0},{"id":"52090616507","owner":"135315828@N06","secret":"d7fb341554","server":"65535","farm":66,"title":"eastern towhee","ispublic":1,"isfriend":0,"isfamily":0},{"id":"52091644046","owner":"135315828@N06","secret":"ccf02ee312","server":"65535","farm":66,"title":"eastern towhee","ispublic":1,"isfriend":0,"isfamily":0},{"id":"52088411057","owner":"67164820@N06","secret":"290154926f","server":"65535","farm":66,"title":"towhee 1","ispublic":1,"isfriend":0,"isfamily":0},{"id":"52086534507","owner":"76617062@N08","secret":"d75263d2ae","server":"65535","farm":66,"title":"1.29383 Tohi \u00e0 flancs roux \/ Pipilo erythrophthalmus erythrophthalmus \/ Eastern Towhee","ispublic":1,"isfriend":0,"isfamily":0},{"id":"52085580400","owner":"33573751@N04","secret":"3607a99fa7","server":"65535","farm":66,"title":"Eastern Towhee (Pipilo erythrophthalmus) - Ridgefield, Connecticut","ispublic":1,"isfriend":0,"isfamily":0},{"id":"52082707046","owner":"22475926@N08","secret":"f0e7476cce","server":"65535","farm":66,"title":"Eastern Towhee (Pipilo erythrophthalmus)","ispublic":1,"isfriend":0,"isfamily":0},{"id":"52078879649","owner":"36267333@N05","secret":"86034f6c5b","server":"65535","farm":66,"title":"Female Eastern Towhee - Pipilo erythrophthalmus","ispublic":1,"isfriend":0,"isfamily":0},{"id":"52047485998","owner":"49114357@N08","secret":"41b6231e1f","server":"65535","farm":66,"title":"Eastern Towhee","ispublic":1,"isfriend":0,"isfamily":0},{"id":"52074352394","owner":"84175980@N00","secret":"722284f0fb","server":"65535","farm":66,"title":"20220415 eastern towhee (Pipilo erythrophthalmus)","ispublic":1,"isfriend":0,"isfamily":0},{"id":"52071258265","owner":"19145980@N00","secret":"b2d83e915a","server":"65535","farm":66,"title":"Eastern Towhee","ispublic":1,"isfriend":0,"isfamily":0},{"id":"52070895459","owner":"77162239@N04","secret":"d65d893da8","server":"65535","farm":66,"title":"Male Eastern Towhee (Pipilo erythrophthalmus)","ispublic":1,"isfriend":0,"isfamily":0},{"id":"52534692360","owner":"193835300@N08","secret":"18bcd7abf7","server":"65535","farm":66,"title":"Tohi \u00e0 flancs roux Pipilo -erythrophthalmus - Eastern Towhee (femelle)","ispublic":1,"isfriend":0,"isfamily":0},{"id":"52461688180","owner":"23711298@N07","secret":"665c05cd2f","server":"65535","farm":66,"title":"Towhee- Eastern Towhee (Male), Minnesota, Sherburne County, Sherburne National Wildlife Refuge","ispublic":1,"isfriend":0,"isfamily":0},{"id":"52402341770","owner":"76288515@N07","secret":"fca9e9ef9b","server":"65535","farm":66,"title":"Eastern Towhee Pipilo erythrophthalmus","ispublic":1,"isfriend":0,"isfamily":0},{"id":"52263776211","owner":"93273765@N05","secret":"ff85da568b","server":"65535","farm":66,"title":"Female Eastern Towhee (Pipilo erythrophthalmus) taking a bath","ispublic":1,"isfriend":0,"isfamily":0}]},"stat":"ok"}