{"photos":{"page":1,"pages":2,"perpage":100,"total":122,"photo":[{"id":"52591750378","owner":"76288515@N07","secret":"9cd378ae8f","server":"65535","farm":66,"title":"Eastern Whip-poor-will Antrostomus vociferus","ispublic":1,"isfriend":0,"isfamily":0},{"id":"52591494479","owner":"76288515@N07","secret":"9d1bbb2b07","server":"65535","farm":66,"title":"Eastern Whip-poor-will Antrostomus vociferus","ispublic":1,"isfriend":0,"isfamily":0},{"id":"52407383640","owner":"25591650@N00","secret":"23559d3631","server":"65535","farm":66,"title":"Antrostomus vociferus_Whip-poor-will nest_Sideling Hill_1","ispublic":1,"isfriend":0,"isfamily":0},{"id":"52406942206","owner":"25591650@N00","secret":"f727efbccb","server":"65535","farm":66,"title":"Antrostomus vociferus_Whip-poor-will nest_Sideling Hill_2","ispublic":1,"isfriend":0,"isfamily":0},{"id":"52387037786","owner":"18378985@N08","secret":"9b35ec4988","server":"65535","farm":66,"title":"Eastern Whip-poor-will (Antrostomus vociferus)","ispublic":1,"isfriend":0,"isfamily":0},{"id":"51904337767","owner":"119787485@N07","secret":"8b556dfa68","server":"65535","farm":66,"title":"Eastern Whip-poor-will (Antrostomus vociferus) - 20180504-03","ispublic":1,"isfriend":0,"isfamily":0},{"id":"51536482777","owner":"36685968@N00","secret":"0cff29e27d","server":"65535","farm":66,"title":"Eastern Whip-poor-will (Antrostomus vociferus)","ispublic":1,"isfriend":0,"isfamily":0},{"id":"51536122852","owner":"36685968@N00","secret":"3faf41e4ca","server":"65535","farm":66,"title":"Eastern Whip-poor-will (Antrostomus vociferus)","ispublic":1,"isfriend":0,"isfamily":0},{"id":"51277367393","owner":"61021753@N02","secret":"43d3348515","server":"65535","farm":66,"title":"n624_w1150","ispublic":1,"isfriend":0,"isfamily":0},{"id":"51266118256","owner":"61021753@N02","secret":"2ba1654dcb","server":"65535","farm":66,"title":"n164_w1150","ispublic":1,"isfriend":0,"isfamily":0},{"id":"51250544787","owner":"61021753@N02","secret":"52bd135e47","server":"65535","farm":66,"title":"n61_w1150","ispublic":1,"isfriend":0,"isfamily":0},{"id":"51245580302","owner":"61021753@N02","secret":"89ac2394f0","server":"65535","farm":66,"title":"n11_w1150","ispublic":1,"isfriend":0,"isfamily":0},{"id":"51218913774","owner":"61021753@N02","secret":"63139c4c1f","server":"65535","farm":66,"title":"n423_w1150","ispublic":1,"isfriend":0,"isfamily":0},{"id":"51192473796","owner":"135315828@N06","secret":"9af85aa626","server":"65535","farm":66,"title":"IMG_2134","ispublic":1,"isfriend":0,"isfamily":0},{"id":"51192473676","owner":"135315828@N06","secret":"b65e3cd689","server":"65535","farm":66,"title":"IMG_2385","ispublic":1,"isfriend":0,"isfamily":0},{"id":"51192688073","owner":"135315828@N06","secret":"a29c408415","server":"65535","farm":66,"title":"IMG_2467","ispublic":1,"isfriend":0,"isfamily":0},{"id":"51191765542","owner":"135315828@N06","secret":"2b6171b2c7","server":"65535","farm":66,"title":"IMG_2559","ispublic":1,"isfriend":0,"isfamily":0},{"id":"51099735154","owner":"61021753@N02","secret":"68fef12cf2","server":"65535","farm":66,"title":"n121_w1150","ispublic":1,"isfriend":0,"isfamily":0},{"id":"50606634653","owner":"190773540@N03","secret":"f08b6e3dbe","server":"65535","farm":66,"title":"Eastern Whip-poor-will","ispublic":1,"isfriend":0,"isfamily":0},{"id":"50562743118","owner":"61021753@N02","secret":"8293b9530b","server":"65535","farm":66,"title":"n196_w1150","ispublic":1,"isfriend":0,"isfamily":0},{"id":"50144369108","owner":"61021753@N02","secret":"c323442279","server":"65535","farm":66,"title":"n272_w1150","ispublic":1,"isfriend":0,"isfamily":0},{"id":"49881050596","owner":"39838258@N07","secret":"74f3a89792","server":"65535","farm":66,"title":"Eastern Whip-poor-will","ispublic":1,"isfriend":0,"isfamily":0},{"id":"49875671491","owner":"78806035@N00","secret":"6603ce10d0","server":"65535","farm":66,"title":"Eastern Whip-poor-will (Antrostomus vociferus)","ispublic":1,"isfriend":0,"isfamily":0},{"id":"49456854286","owner":"61021753@N02","secret":"60f3095d06","server":"65535","farm":66,"title":"n82_w1150","ispublic":1,"isfriend":0,"isfamily":0},{"id":"49416568656","owner":"125937729@N07","secret":"3eb59430e6","server":"65535","farm":66,"title":"Eastern Whip-poor-will","ispublic":1,"isfriend":0,"isfamily":0},{"id":"48386700316","owner":"92361032@N05","secret":"585dd878c1","server":"65535","farm":66,"title":"Eastern Whip-poor-will \/ Engoulevent bois-pourri ( Richard )","ispublic":1,"isfriend":0,"isfamily":0},{"id":"48231365782","owner":"34238008@N02","secret":"3684e6687a","server":"65535","farm":66,"title":"Eastern Whip-poor-will (Antrostomus vociferus)","ispublic":1,"isfriend":0,"isfamily":0},{"id":"47953284692","owner":"89318362@N05","secret":"6effa22e3a","server":"65535","farm":66,"title":"Eastern Whip-poor-will","ispublic":1,"isfriend":0,"isfamily":0},{"id":"47761570431","owner":"71418112@N00","secret":"b454b95c26","server":"65535","farm":66,"title":"Well hidden.","ispublic":1,"isfriend":0,"isfamily":0},{"id":"32782559587","owner":"112608353@N02","secret":"ca181d3e26","server":"65535","farm":66,"title":"Whipped!","ispublic":1,"isfriend":0,"isfamily":0},{"id":"46573959265","owner":"28631427@N00","secret":"9f58a7a1d1","server":"7830","farm":8,"title":"Eastern Whip-poor-will 3","ispublic":1,"isfriend":0,"isfamily":0},{"id":"33612584798","owner":"28631427@N00","secret":"33858d1485","server":"7817","farm":8,"title":"Eastern Whip-poor-will 2","ispublic":1,"isfriend":0,"isfamily":0},{"id":"32547269897","owner":"28631427@N00","secret":"ec517915eb","server":"7921","farm":8,"title":"Eastern Whip-poor-will 1","ispublic":1,"isfriend":0,"isfamily":0},{"id":"40462695493","owner":"42730770@N03","secret":"97d2916d2c","server":"7861","farm":8,"title":"EASTERN WHIP-POOR-WILL","ispublic":1,"isfriend":0,"isfamily":0},{"id":"47375538812","owner":"42730770@N03","secret":"f556e00ddc","server":"7900","farm":8,"title":"EASTERN WHIP-POOR-WILL","ispublic":1,"isfriend":0,"isfamily":0},{"id":"46909966492","owner":"46871025@N00","secret":"697ab600a4","server":"7839","farm":8,"title":"Eastern Whip-poor-will (Antrostomus vociferus), Sarasota County, FL, 02\/02\/2019","ispublic":1,"isfriend":0,"isfamily":0},{"id":"43885634650","owner":"22859749@N07","secret":"164f8fd3da","server":"1910","farm":2,"title":"eastern whip-poor-will","ispublic":1,"isfriend":0,"isfamily":0},{"id":"40469767720","owner":"50520319@N04","secret":"209fff7082","server":"964","farm":1,"title":"Eastern Whip-poor-will (Adult Male)","ispublic":1,"isfriend":0,"isfamily":0},{"id":"41896306111","owner":"90886369@N06","secret":"76278897af","server":"863","farm":1,"title":"Eastern Whip-poor-will","ispublic":1,"isfriend":0,"isfamily":0},{"id":"41847273972","owner":"90886369@N06","secret":"7d21d01092","server":"905","farm":1,"title":"Eastern Whip-poor-will (Antrostomus vociferus)","ispublic":1,"isfriend":0,"isfamily":0},{"id":"41837808092","owner":"153584064@N07","secret":"1670046d62","server":"946","farm":1,"title":"Whip-poor-will from Birds of America (1827) by John James Audubon (1785 - 1851), etched by Robert Havell (1793 - 1878). The original Birds of America is the most expensive printed book in the world and a truly awe-inspiring classic.","ispublic":1,"isfriend":0,"isfamily":0},{"id":"31781776721","owner":"41643989@N04","secret":"39dbd767ca","server":"389","farm":1,"title":"Eastern Whip-poor-will - Antrostomus vociferus - Hamilton County, Ohio, USA - April 30, 2013","ispublic":1,"isfriend":0,"isfamily":0},{"id":"30346726261","owner":"54655970@N06","secret":"cecd28e1f5","server":"5742","farm":6,"title":"Whip?  Or...Will?","ispublic":1,"isfriend":0,"isfamily":0},{"id":"27365958563","owner":"88965227@N05","secret":"77f9120a83","server":"7334","farm":8,"title":"Eastern Whip-poor-will","ispublic":1,"isfriend":0,"isfamily":0},{"id":"27365935183","owner":"88965227@N05","secret":"4be39bccdf","server":"7413","farm":8,"title":"Eastern Whip-poor-will","ispublic":1,"isfriend":0,"isfamily":0},{"id":"27507358462","owner":"30072667@N00","secret":"7011fdab2d","server":"7624","farm":8,"title":"Eastern Whip-poor-will (Antrostomus vociferus)","ispublic":1,"isfriend":0,"isfamily":0},{"id":"27034409691","owner":"37769253@N08","secret":"a5c3e0b221","server":"7146","farm":8,"title":"Eastern Whip-poor-will (Antrostomus vociferus)","ispublic":1,"isfriend":0,"isfamily":0},{"id":"27079497855","owner":"129370829@N03","secret":"cefbdb2340","server":"7519","farm":8,"title":"Engoulevent Bois-pourri - Eastern Whip-poor-will (2)","ispublic":1,"isfriend":0,"isfamily":0},{"id":"26973992411","owner":"19928935@N02","secret":"1892ae20e0","server":"7725","farm":8,"title":"Eastern whip-poor-will - Caprimulgus vociferus","ispublic":1,"isfriend":0,"isfamily":0},{"id":"27006992086","owner":"71418112@N00","secret":"7289375387","server":"7269","farm":8,"title":"Eastern Whi-poor-will.","ispublic":1,"isfriend":0,"isfamily":0},{"id":"27036478115","owner":"36685968@N00","secret":"70ca17f2b6","server":"7304","farm":8,"title":"Eastern Whip-poor-will (Antrostomus vociferus)","ispublic":1,"isfriend":0,"isfamily":0},{"id":"26382919523","owner":"61021753@N02","secret":"4475c521d3","server":"7605","farm":8,"title":"n92_w1150","ispublic":1,"isfriend":0,"isfamily":0},{"id":"19865309706","owner":"31178543@N08","secret":"9dcd9fd47a","server":"3688","farm":4,"title":"Engoulevent bois-pourri \/ Whir-poor-will","ispublic":1,"isfriend":0,"isfamily":0},{"id":"17411122336","owner":"14191740@N08","secret":"6a7864e3ee","server":"5444","farm":6,"title":"Mexican Whip-poor-will, San Cristobal de las Casas, Chiapas, Mexico","ispublic":1,"isfriend":0,"isfamily":0},{"id":"17335824332","owner":"93564840@N05","secret":"65c04a6a44","server":"7679","farm":8,"title":"Eastern Whip-poor-will Resting on a Bench","ispublic":1,"isfriend":0,"isfamily":0},{"id":"16953775000","owner":"56696749@N05","secret":"7fbbe382cc","server":"8756","farm":9,"title":"Audio recording of FOY Eastern Whip-poor-will","ispublic":1,"isfriend":0,"isfamily":0},{"id":"15833312291","owner":"39138537@N06","secret":"e79d4e250b","server":"8597","farm":9,"title":"Eastern Whip-poor-will (Antrostomus vociferus) on PRNWR","ispublic":1,"isfriend":0,"isfamily":0},{"id":"15225877719","owner":"93564840@N05","secret":"6d04e3ec98","server":"2943","farm":3,"title":"Eastern Whip-poor-will","ispublic":1,"isfriend":0,"isfamily":0},{"id":"15024422189","owner":"39138537@N06","secret":"09cf6bfc07","server":"3921","farm":4,"title":"Eastern Whip-poor-will (Antrostomus vociferus) - roughly 14 present","ispublic":1,"isfriend":0,"isfamily":0},{"id":"15000838442","owner":"57351494@N07","secret":"ba37d7dd1d","server":"3918","farm":4,"title":"Whip poor will","ispublic":1,"isfriend":0,"isfamily":0},{"id":"14533536801","owner":"37699157@N00","secret":"3b9854d7b5","server":"5539","farm":6,"title":"Eastern Whip-poor-will (Antrostomus vociferus)","ispublic":1,"isfriend":0,"isfamily":0},{"id":"14400533746","owner":"37699157@N00","secret":"c8e2274f67","server":"3898","farm":4,"title":"Eastern Whip-poor-will (Antrostomus vociferus)","ispublic":1,"isfriend":0,"isfamily":0},{"id":"14230905504","owner":"24916137@N07","secret":"f131d7746a","server":"5568","farm":6,"title":"Whip-poor-will sleeping","ispublic":1,"isfriend":0,"isfamily":0},{"id":"13756856513","owner":"37142859@N00","secret":"ba69acb240","server":"3707","farm":4,"title":"Engoulevent bois-pourri - Eastern Whip-poor-will - Antrostomus vociferus","ispublic":1,"isfriend":0,"isfamily":0},{"id":"11411141904","owner":"38514062@N03","secret":"dbcf74a431","server":"5500","farm":6,"title":"Eastern Whip-poor-will (Antrostomus vociferus)","ispublic":1,"isfriend":0,"isfamily":0},{"id":"10778933244","owner":"30072667@N00","secret":"7cd2e85670","server":"3820","farm":4,"title":"Eastern Whip-poor-will (Antrostomus vociferus)","ispublic":1,"isfriend":0,"isfamily":0},{"id":"8872914235","owner":"82156168@N00","secret":"17027409d1","server":"7402","farm":8,"title":"Eastern Whip-poor-Will Nest","ispublic":1,"isfriend":0,"isfamily":0},{"id":"8858419719","owner":"7466574@N04","secret":"d98cf2650f","server":"3799","farm":4,"title":"Eastern Whip-poor-will","ispublic":1,"isfriend":0,"isfamily":0},{"id":"8857289913","owner":"40928097@N07","secret":"9206f30c2f","server":"3791","farm":4,"title":"Eastern Whip-poor-will","ispublic":1,"isfriend":0,"isfamily":0},{"id":"52148937851","owner":"195782057@N07","secret":"0e3f23113d","server":"0","farm":0,"title":"Mexican Whip-poor-will","ispublic":1,"isfriend":0,"isfamily":0},{"id":"52023979412","owner":"146080804@N02","secret":"2d120f435e","server":"65535","farm":66,"title":"Eastern Whip-Poor-Will (Antrostomus vociferus)","ispublic":1,"isfriend":0,"isfamily":0},{"id":"50104530957","owner":"187469698@N05","secret":"4f4da0f17e","server":"65535","farm":66,"title":"129 Eastern Whip-poor-will - Andrew Walker 001","ispublic":1,"isfriend":0,"isfamily":0},{"id":"50012498101","owner":"127098372@N05","secret":"d5467b9c69","server":"0","farm":0,"title":"Eastern Whip-poor-will","ispublic":1,"isfriend":0,"isfamily":0},{"id":"49874791843","owner":"78806035@N00","secret":"f468693a7f","server":"65535","farm":66,"title":"Eastern Whip-poor-will (Antrostomus vociferus)","ispublic":1,"isfriend":0,"isfamily":0},{"id":"49024154562","owner":"26803925@N05","secret":"b5474f38f2","server":"65535","farm":66,"title":"Eastern Whip-poor-will (Antrostomus vociferus) 05-02-2018 Russell Road, Garrett Co. MD 2","ispublic":1,"isfriend":0,"isfamily":0},{"id":"49024154612","owner":"26803925@N05","secret":"3a7fdfdf76","server":"65535","farm":66,"title":"Eastern Whip-poor-will (Antrostomus vociferus) 05-02-2018 Russell Road, Garrett Co. MD 3","ispublic":1,"isfriend":0,"isfamily":0},{"id":"49024154517","owner":"26803925@N05","secret":"3519f5b4aa","server":"65535","farm":66,"title":"Eastern Whip-poor-will (Antrostomus vociferus) 05-02-2018 Russell Road, Garrett Co. MD 1","ispublic":1,"isfriend":0,"isfamily":0},{"id":"48041140656","owner":"76628146@N05","secret":"520ac6ae4d","server":"0","farm":0,"title":"Eastern Whip-poor-will (Antrostomus vociferus)","ispublic":1,"isfriend":0,"isfamily":0},{"id":"47375538822","owner":"42730770@N03","secret":"6af605239c","server":"7887","farm":8,"title":"EASTERN WHIP-POOR-WILL","ispublic":1,"isfriend":0,"isfamily":0},{"id":"34975723175","owner":"92958335@N03","secret":"18655c090b","server":"4268","farm":5,"title":"Eastern Whip-poor-will, Magee Marsh,  Ohio, 130517","ispublic":1,"isfriend":0,"isfamily":0},{"id":"33865377493","owner":"78856147@N08","secret":"13a1dcdf62","server":"4167","farm":5,"title":"Eastern Whip-poor-will (Antrostomus vociferus)","ispublic":1,"isfriend":0,"isfamily":0},{"id":"33646007754","owner":"60250038@N02","secret":"c173e34aab","server":"4179","farm":5,"title":"Eastern Whip-poor-will","ispublic":1,"isfriend":0,"isfamily":0},{"id":"27025657141","owner":"78856147@N08","secret":"c2af2ecb59","server":"7016","farm":8,"title":"Eastern Whip-poor-will (Antrostomus vociferus)","ispublic":1,"isfriend":0,"isfamily":0},{"id":"27025656531","owner":"78856147@N08","secret":"26acf919db","server":"7058","farm":8,"title":"Eastern Whip-poor-will (Antrostomus vociferus)","ispublic":1,"isfriend":0,"isfamily":0},{"id":"27025655601","owner":"78856147@N08","secret":"9d6a4a08d2","server":"7505","farm":8,"title":"Eastern Whip-poor-will (Antrostomus vociferus)","ispublic":1,"isfriend":0,"isfamily":0},{"id":"26271085503","owner":"36685968@N00","secret":"a626fa911c","server":"7682","farm":8,"title":"Eastern Whip-poor-will (Antrostomus vociferus)","ispublic":1,"isfriend":0,"isfamily":0},{"id":"26271085423","owner":"36685968@N00","secret":"dc73ae0c19","server":"7158","farm":8,"title":"Eastern Whip-poor-will (Antrostomus vociferus)","ispublic":1,"isfriend":0,"isfamily":0},{"id":"26666636462","owner":"48913886@N02","secret":"409102ea7f","server":"1715","farm":2,"title":"20160501-187A5768 Eastern Whip-poor-will  (Antrostomus vociferus)- Magee Marsh, OH, USA","ispublic":1,"isfriend":0,"isfamily":0},{"id":"26666630692","owner":"48913886@N02","secret":"654daa7d18","server":"1720","farm":2,"title":"20160501-187A5769 Eastern Whip-poor-will  (Antrostomus vociferus)- Magee Marsh, OH, USA","ispublic":1,"isfriend":0,"isfamily":0},{"id":"21119111524","owner":"130795246@N05","secret":"6f02cd74d5","server":"655","farm":1,"title":"Eastern Whip-poor-will","ispublic":1,"isfriend":0,"isfamily":0},{"id":"21553919918","owner":"130795246@N05","secret":"d3952dfd62","server":"744","farm":1,"title":"Eastern Whip-poor-will","ispublic":1,"isfriend":0,"isfamily":0},{"id":"21751094641","owner":"130795246@N05","secret":"1414fab1e5","server":"5789","farm":6,"title":"Eastern Whip-poor-will","ispublic":1,"isfriend":0,"isfamily":0},{"id":"18971789193","owner":"53817483@N00","secret":"362af87b9e","server":"517","farm":1,"title":"Antrostomus vociferus (Whip-poor-will)","ispublic":1,"isfriend":0,"isfamily":0},{"id":"19585792732","owner":"53817483@N00","secret":"c4aae9796d","server":"460","farm":1,"title":"Antrostomus vociferus camoflaged","ispublic":1,"isfriend":0,"isfamily":0},{"id":"19585791752","owner":"53817483@N00","secret":"47338190ba","server":"348","farm":1,"title":"Antrostomus vociferus egg clutch","ispublic":1,"isfriend":0,"isfamily":0},{"id":"19404718248","owner":"53817483@N00","secret":"419e6e30ce","server":"453","farm":1,"title":"Antrostomus vociferus_","ispublic":1,"isfriend":0,"isfamily":0},{"id":"13948294969","owner":"40222909@N04","secret":"f5207817df","server":"5039","farm":6,"title":"479-Eastern Whip-poor-will (Antrostomus vociferus) Magic Hedge Montrose Chicago Cook County IL May 2014 Jeff Skrentny IMG_3407","ispublic":1,"isfriend":0,"isfamily":0},{"id":"14111776106","owner":"40222909@N04","secret":"82f7d530cb","server":"5470","farm":6,"title":"479-Eastern Whip-poor-will (Antrostomus vociferus) Magic Hedge Montrose Chicago Cook County IL May 2014 Jeff Skrentny IMG_3401","ispublic":1,"isfriend":0,"isfamily":0},{"id":"14006732651","owner":"33323109@N03","secret":"fbdfee5480","server":"2925","farm":3,"title":"Eastern Whip-poor-will","ispublic":1,"isfriend":0,"isfamily":0},{"id":"14029923773","owner":"33323109@N03","secret":"cda9117f9b","server":"7332","farm":8,"title":"Eastern Whip-poor-will","ispublic":1,"isfriend":0,"isfamily":0}]},"stat":"ok"}