{"photos":{"page":1,"pages":22,"perpage":100,"total":2109,"photo":[{"id":"52707959225","owner":"65632611@N00","secret":"52ffd5f3ea","server":"65535","farm":66,"title":"Oriole Rd. FL: Eastern Meadowlark at the golden hour (3189)","ispublic":1,"isfriend":0,"isfamily":0},{"id":"52694054880","owner":"65788177@N02","secret":"b973541899","server":"65535","farm":66,"title":"Eastern Meadowlark","ispublic":1,"isfriend":0,"isfamily":0},{"id":"52681990302","owner":"197628215@N07","secret":"990bab7aa1","server":"65535","farm":66,"title":"Eastern Meadowlark (Sturnella magna) 01\/30\/2023 #meadowlark #easternmeadowlark #lark #bestbackroad #bestbackroads #natgeoyourshots #natgeo100contest #rutlandcountyvermont #rutlandcountyvt #washingtoncountynewyork #washingtoncountyny #whitehallnewyork #wil","ispublic":1,"isfriend":0,"isfamily":0},{"id":"52678916177","owner":"197628215@N07","secret":"75b738d828","server":"65535","farm":66,"title":"Eastern Meadowlark (Sturnella magna) 01\/28\/2023 #meadowlark #easternmeadowlark #lark #bestbackroad #bestbackroads #natgeoyourshots #natgeo100contest #rutlandcountyvermont #rutlandcountyvt #washingtoncountynewyork #washingtoncountyny #whitehallnewyork #wil","ispublic":1,"isfriend":0,"isfamily":0},{"id":"52678768700","owner":"91064752@N03","secret":"2764cf370a","server":"65535","farm":66,"title":"Eastern Meadowlark in the Snow","ispublic":1,"isfriend":0,"isfamily":0},{"id":"52677113427","owner":"197628215@N07","secret":"5f643a95cd","server":"65535","farm":66,"title":"Eastern Meadowlark (Sturnella magna) 01\/28\/2023 #meadowlark #easternmeadowlark #lark #bestbackroad #bestbackroads #natgeoyourshots #natgeo100contest #rutlandcountyvermont #rutlandcountyvt #washingtoncountynewyork #washingtoncountyny #whitehallnewyork #wil","ispublic":1,"isfriend":0,"isfamily":0},{"id":"52677996160","owner":"197628215@N07","secret":"13796c2186","server":"65535","farm":66,"title":"Eastern Meadowlark (Sturnella magna) 01\/28\/2023 #meadowlark #easternmeadowlark #lark #bestbackroad #bestbackroads #natgeoyourshots #natgeo100contest #rutlandcountyvermont #rutlandcountyvt #washingtoncountynewyork #washingtoncountyny #whitehallnewyork #wil","ispublic":1,"isfriend":0,"isfamily":0},{"id":"52675339902","owner":"197628215@N07","secret":"534d0f9548","server":"65535","farm":66,"title":"Eastern Meadowlark (Sturnella magna) 01\/28\/2023 #meadowlark #easternmeadowlark #lark #bestbackroad #bestbackroads #natgeoyourshots #natgeo100contest #rutlandcountyvermont #rutlandcountyvt #washingtoncountynewyork #washingtoncountyny #whitehallnewyork #wil","ispublic":1,"isfriend":0,"isfamily":0},{"id":"52676270513","owner":"197628215@N07","secret":"71495ab1ee","server":"65535","farm":66,"title":"Eastern Meadowlark (Sturnella magna) 01\/28\/2023 #meadowlark #easternmeadowlark #lark #bestbackroad #bestbackroads #natgeoyourshots #natgeo100contest #rutlandcountyvermont #rutlandcountyvt #washingtoncountynewyork #washingtoncountyny #whitehallnewyork #wil","ispublic":1,"isfriend":0,"isfamily":0},{"id":"52663679941","owner":"182515684@N02","secret":"60dab1200a","server":"65535","farm":66,"title":"Eastern Meadowlark \u2026 OM4741-316","ispublic":1,"isfriend":0,"isfamily":0},{"id":"52664031203","owner":"39177293@N03","secret":"341baa069e","server":"65535","farm":66,"title":"Eastern Meadowlark","ispublic":1,"isfriend":0,"isfamily":0},{"id":"52661667521","owner":"54249623@N08","secret":"01e19e54e8","server":"65535","farm":66,"title":"Chirlobirlo, Eastern Meadowlark (Sturnella magna) (Sturnella magna hippocrepis)","ispublic":1,"isfriend":0,"isfamily":0},{"id":"52658629109","owner":"145466593@N08","secret":"631d249181","server":"65535","farm":66,"title":"Eastern Meadowlark","ispublic":1,"isfriend":0,"isfamily":0},{"id":"52658839518","owner":"145466593@N08","secret":"9d1286239f","server":"65535","farm":66,"title":"Eastern Meadowlark","ispublic":1,"isfriend":0,"isfamily":0},{"id":"52646974692","owner":"61241315@N00","secret":"2b0c560e28","server":"0","farm":0,"title":"Eastern Meadowlark_6252,64.MP4","ispublic":1,"isfriend":0,"isfamily":0},{"id":"52646973722","owner":"61241315@N00","secret":"a6f1deaa81","server":"65535","farm":66,"title":"Eastern Meadowlark_N6289","ispublic":1,"isfriend":0,"isfamily":0},{"id":"52645993910","owner":"8013969@N03","secret":"1121a3ba3f","server":"65535","farm":66,"title":"Sturnella magna DFL btr22-3","ispublic":1,"isfriend":0,"isfamily":0},{"id":"52645044647","owner":"8013969@N03","secret":"58127dc93a","server":"65535","farm":66,"title":"Sturnella magna DFL btr22-4","ispublic":1,"isfriend":0,"isfamily":0},{"id":"52645044062","owner":"8013969@N03","secret":"2d3c8eef5f","server":"65535","farm":66,"title":"Sturnella magna DFL btr22-5","ispublic":1,"isfriend":0,"isfamily":0},{"id":"52645043432","owner":"8013969@N03","secret":"ff93ed4777","server":"65535","farm":66,"title":"Sturnella magna DFL btr22-6","ispublic":1,"isfriend":0,"isfamily":0},{"id":"52645807804","owner":"8013969@N03","secret":"bc4bd3620f","server":"65535","farm":66,"title":"Sturnella magna DFL btr22-7","ispublic":1,"isfriend":0,"isfamily":0},{"id":"52645807224","owner":"8013969@N03","secret":"8be9d41a4c","server":"65535","farm":66,"title":"Sturnella magna DFL btr22-8","ispublic":1,"isfriend":0,"isfamily":0},{"id":"52645990545","owner":"8013969@N03","secret":"f6738f0b23","server":"65535","farm":66,"title":"Sturnella magna DFL btr22-9","ispublic":1,"isfriend":0,"isfamily":0},{"id":"52646022733","owner":"8013969@N03","secret":"d855b27f8d","server":"65535","farm":66,"title":"Sturnella magna DFL btr22-10","ispublic":1,"isfriend":0,"isfamily":0},{"id":"52645988110","owner":"8013969@N03","secret":"ab5e88099e","server":"65535","farm":66,"title":"Sturnella magna DFL btr22-11","ispublic":1,"isfriend":0,"isfamily":0},{"id":"52645546781","owner":"8013969@N03","secret":"29bf2ba57e","server":"65535","farm":66,"title":"Sturnella magna DFL btr22-14","ispublic":1,"isfriend":0,"isfamily":0},{"id":"52645036292","owner":"8013969@N03","secret":"dbd7410b1f","server":"65535","farm":66,"title":"Sturnella magna DFL btr22-15","ispublic":1,"isfriend":0,"isfamily":0},{"id":"52645800544","owner":"8013969@N03","secret":"0e982d8b71","server":"65535","farm":66,"title":"Sturnella magna DFL btr22-17","ispublic":1,"isfriend":0,"isfamily":0},{"id":"52643701963","owner":"8013969@N03","secret":"8dbc1f7ab4","server":"65535","farm":66,"title":"Sturnella magna DFL btr22-2","ispublic":1,"isfriend":0,"isfamily":0},{"id":"52597028626","owner":"33610210@N05","secret":"c11a8f9fc2","server":"65535","farm":66,"title":"Eastern Meadowlark, Sturnella magna","ispublic":1,"isfriend":0,"isfamily":0},{"id":"52590578469","owner":"57126723@N07","secret":"956b1d2aa5","server":"65535","farm":66,"title":"Eastern meadowlark\u2014Sturnella magna\u2014Warhill trail-6757","ispublic":1,"isfriend":0,"isfamily":0},{"id":"52580842583","owner":"153973412@N04","secret":"a55668aee9","server":"65535","farm":66,"title":"Chihuahuan Meadowlark-Sturnella magna lilianae, AZ","ispublic":1,"isfriend":0,"isfamily":0},{"id":"52563949201","owner":"140318147@N08","secret":"5a7a9504ec","server":"65535","farm":66,"title":"eastern meadowlark (Sturnella magna) L4A8270","ispublic":1,"isfriend":0,"isfamily":0},{"id":"52554292710","owner":"187999217@N04","secret":"c67216900d","server":"65535","farm":66,"title":"Eastern Meadowlark (Sturnella magna)","ispublic":1,"isfriend":0,"isfamily":0},{"id":"52553813991","owner":"187999217@N04","secret":"489cfed5c5","server":"65535","farm":66,"title":"A leucistic Eastern Meadowlark (Sturnella magna)","ispublic":1,"isfriend":0,"isfamily":0},{"id":"52512371451","owner":"7546739@N08","secret":"4c09c8e714","server":"65535","farm":66,"title":"Blowing in the wind","ispublic":1,"isfriend":0,"isfamily":0},{"id":"52501177925","owner":"61241315@N00","secret":"9fd91f104d","server":"0","farm":0,"title":"Eastern Meadowlark_9194.MP4","ispublic":1,"isfriend":0,"isfamily":0},{"id":"52500703941","owner":"61241315@N00","secret":"42f77623f2","server":"0","farm":0,"title":"Eastern Meadowlark_9202.MP4","ispublic":1,"isfriend":0,"isfamily":0},{"id":"52500982314","owner":"61241315@N00","secret":"968c2ea570","server":"65535","farm":66,"title":"Eastern Meadowlark_N9201","ispublic":1,"isfriend":0,"isfamily":0},{"id":"52500704316","owner":"61241315@N00","secret":"3f299364d0","server":"65535","farm":66,"title":"Eastern Meadowlark_N9186","ispublic":1,"isfriend":0,"isfamily":0},{"id":"52500212867","owner":"61241315@N00","secret":"ed92238f4b","server":"65535","farm":66,"title":"Eastern Meadowlark_N9190","ispublic":1,"isfriend":0,"isfamily":0},{"id":"52497447682","owner":"189426727@N07","secret":"da273affa7","server":"65535","farm":66,"title":"Eastern Meadowlark","ispublic":1,"isfriend":0,"isfamily":0},{"id":"52495229941","owner":"64557331@N04","secret":"841b541b0a","server":"65535","farm":66,"title":"Eastern Meadowlark - (Sturnella magna)_05292022","ispublic":1,"isfriend":0,"isfamily":0},{"id":"52477796889","owner":"38514062@N03","secret":"6d058c9681","server":"65535","farm":66,"title":"Eastern Meadowlark (Sturnella magna)","ispublic":1,"isfriend":0,"isfamily":0},{"id":"52470303260","owner":"39177293@N03","secret":"962ae268b4","server":"65535","farm":66,"title":"Eastern Meadowlark","ispublic":1,"isfriend":0,"isfamily":0},{"id":"52433554155","owner":"66550674@N06","secret":"def1b944b4","server":"65535","farm":66,"title":"Eastern Meadowlark","ispublic":1,"isfriend":0,"isfamily":0},{"id":"52383738054","owner":"8065544@N08","secret":"775bf94d04","server":"65535","farm":66,"title":"Chihuahuan Meadowlark (Sturnella lilianae)","ispublic":1,"isfriend":0,"isfamily":0},{"id":"52343357957","owner":"98439766@N04","secret":"16c842e882","server":"65535","farm":66,"title":"Eastern Meadowlark Sturnella magna","ispublic":1,"isfriend":0,"isfamily":0},{"id":"52307068994","owner":"196264892@N08","secret":"8229d13cd7","server":"65535","farm":66,"title":"Chihuahuan Meadowlark","ispublic":1,"isfriend":0,"isfamily":0},{"id":"52307068879","owner":"196264892@N08","secret":"cfe58248a3","server":"65535","farm":66,"title":"Chihuahuan Meadowlark","ispublic":1,"isfriend":0,"isfamily":0},{"id":"52277409374","owner":"32674493@N04","secret":"d09c833072","server":"65535","farm":66,"title":"Pedro-ceroulo (Sturnella magna praticola)","ispublic":1,"isfriend":0,"isfamily":0},{"id":"52265684155","owner":"71649471@N02","secret":"1989970edf","server":"65535","farm":66,"title":"Eastern Meadowlark","ispublic":1,"isfriend":0,"isfamily":0},{"id":"52204133457","owner":"76617062@N08","secret":"c7cae8037b","server":"65535","farm":66,"title":"1.30192 Sturnelle des pr\u00e9s \/ Sturnella magna magna \/ Eastern Meadowlark","ispublic":1,"isfriend":0,"isfamily":0},{"id":"52175661814","owner":"54799211@N02","secret":"c54800535e","server":"65535","farm":66,"title":"Eastern Meadowlark","ispublic":1,"isfriend":0,"isfamily":0},{"id":"52174960465","owner":"71649471@N02","secret":"f41a30f458","server":"65535","farm":66,"title":"Eastern Meadowlark","ispublic":1,"isfriend":0,"isfamily":0},{"id":"52162336881","owner":"120449047@N06","secret":"29bbfaf5c5","server":"65535","farm":66,"title":"Eastern Meadowlark","ispublic":1,"isfriend":0,"isfamily":0},{"id":"52161614851","owner":"183132100@N02","secret":"b8b4d12710","server":"65535","farm":66,"title":"Eastern Meadowlark 6-19-2022","ispublic":1,"isfriend":0,"isfamily":0},{"id":"52159586040","owner":"156369634@N07","secret":"507407476f","server":"65535","farm":66,"title":"Sturnelle des Pr\u00e9s- Eastern Meadowlark-14062022","ispublic":1,"isfriend":0,"isfamily":0},{"id":"52159094046","owner":"156369634@N07","secret":"7e04d03aca","server":"65535","farm":66,"title":"Sturnelle des Pr\u00e9s-Eastern Meadowlark-14062022","ispublic":1,"isfriend":0,"isfamily":0},{"id":"52151484966","owner":"28499865@N07","secret":"83f8e891f2","server":"65535","farm":66,"title":"Eastern Meadowlark - Sturnella magna","ispublic":1,"isfriend":0,"isfamily":0},{"id":"52151974400","owner":"28499865@N07","secret":"fd0724d5d3","server":"65535","farm":66,"title":"Eastern Meadowlark - Sturnella magna","ispublic":1,"isfriend":0,"isfamily":0},{"id":"52142418149","owner":"16502322@N03","secret":"7dfc25fb0f","server":"65535","farm":66,"title":"Eastern Meadowlark","ispublic":1,"isfriend":0,"isfamily":0},{"id":"52140920285","owner":"24359172@N02","secret":"a396af47a5","server":"65535","farm":66,"title":"Two Male Meadowlarks","ispublic":1,"isfriend":0,"isfamily":0},{"id":"52140450578","owner":"24359172@N02","secret":"40c21c25dc","server":"65535","farm":66,"title":"Two Male Meadowlarks","ispublic":1,"isfriend":0,"isfamily":0},{"id":"52130631189","owner":"66550674@N06","secret":"456da3af32","server":"65535","farm":66,"title":"Eastern Meadowlark","ispublic":1,"isfriend":0,"isfamily":0},{"id":"52129893246","owner":"46837385@N03","secret":"3fa6ed2416","server":"65535","farm":66,"title":"Eastern Meadowlark - Joe Overstreet Road","ispublic":1,"isfriend":0,"isfamily":0},{"id":"52115860185","owner":"65632611@N00","secret":"b735021a13","server":"65535","farm":66,"title":"Tuna Road, TX: Eastern Meadowlark (1695)","ispublic":1,"isfriend":0,"isfamily":0},{"id":"52098683509","owner":"71649471@N02","secret":"1281a4acca","server":"65535","farm":66,"title":"Prairie Song","ispublic":1,"isfriend":0,"isfamily":0},{"id":"52096299793","owner":"165841515@N03","secret":"c05dc7d4f5","server":"65535","farm":66,"title":"Sturnelle des pr\u00e9s \/ Eastern Meadowlark \/ (Sturnella Magna)","ispublic":1,"isfriend":0,"isfamily":0},{"id":"52096513824","owner":"165841515@N03","secret":"d33d323a1d","server":"65535","farm":66,"title":"Sturnelle des pr\u00e9s \/ Eastern Meadowlark \/ (Sturnella Magna)","ispublic":1,"isfriend":0,"isfamily":0},{"id":"52093784691","owner":"69947563@N07","secret":"03cf325d5c","server":"65535","farm":66,"title":"Eastern Meadowlark - Waterloo Region, Cambridge, Ontario, Canada","ispublic":1,"isfriend":0,"isfamily":0},{"id":"52091315197","owner":"99228543@N04","secret":"17504a4146","server":"65535","farm":66,"title":"eastern meadowlark (Sturnella magna)","ispublic":1,"isfriend":0,"isfamily":0},{"id":"52092511345","owner":"32599741@N03","secret":"66b2b4d942","server":"65535","farm":66,"title":"bird on a post","ispublic":1,"isfriend":0,"isfamily":0},{"id":"52072293517","owner":"29367844@N03","secret":"deb650399e","server":"65535","farm":66,"title":"Singing From On High","ispublic":1,"isfriend":0,"isfamily":0},{"id":"52070553567","owner":"93273765@N05","secret":"574226e87a","server":"65535","farm":66,"title":"Eastern meadowlark (Sturnella magna)","ispublic":1,"isfriend":0,"isfamily":0},{"id":"52070553502","owner":"93273765@N05","secret":"183924eb06","server":"65535","farm":66,"title":"Eastern meadowlark (Sturnella magna)","ispublic":1,"isfriend":0,"isfamily":0},{"id":"52060070101","owner":"121644485@N06","secret":"410cc4cdb5","server":"65535","farm":66,"title":"Eastern Meadowlark","ispublic":1,"isfriend":0,"isfamily":0},{"id":"52031593173","owner":"59619528@N04","secret":"1fbb43ac98","server":"65535","farm":66,"title":"Meadowlark (Sturnella magna)","ispublic":1,"isfriend":0,"isfamily":0},{"id":"52031808634","owner":"59619528@N04","secret":"ea0d5386f8","server":"65535","farm":66,"title":"Meadowlark (Sturnella magna)","ispublic":1,"isfriend":0,"isfamily":0},{"id":"52030517622","owner":"59619528@N04","secret":"08f606925a","server":"65535","farm":66,"title":"Eastern Meadowlark (Sturnella magna)","ispublic":1,"isfriend":0,"isfamily":0},{"id":"52030168357","owner":"121644485@N06","secret":"fb3ee07728","server":"65535","farm":66,"title":"Eastern Meadowlark","ispublic":1,"isfriend":0,"isfamily":0},{"id":"52026873309","owner":"59619528@N04","secret":"dd4b200b6d","server":"65535","farm":66,"title":"Eastern Meadowlark (Sturnella magna)","ispublic":1,"isfriend":0,"isfamily":0},{"id":"52022994930","owner":"168495655@N07","secret":"cac88864ef","server":"65535","farm":66,"title":"Sturnelle des pr\u00e9s - Sturnella magna - Eastern Meadowlark","ispublic":1,"isfriend":0,"isfamily":0},{"id":"52016991752","owner":"168495655@N07","secret":"1aede3ab20","server":"65535","farm":66,"title":"Sturnelle des pr\u00e9s - Sturnella magna - Eastern Meadowlark","ispublic":1,"isfriend":0,"isfamily":0},{"id":"52647741499","owner":"61241315@N00","secret":"76cc3a8eba","server":"65535","farm":66,"title":"Eastern Meadowlark_N6301","ispublic":1,"isfriend":0,"isfamily":0},{"id":"52646973897","owner":"61241315@N00","secret":"ae63eefa79","server":"65535","farm":66,"title":"Eastern Meadowlark_N6298","ispublic":1,"isfriend":0,"isfamily":0},{"id":"52647741044","owner":"61241315@N00","secret":"7d9c664e3e","server":"65535","farm":66,"title":"Eastern Meadowlark_N6293","ispublic":1,"isfriend":0,"isfamily":0},{"id":"52647741009","owner":"61241315@N00","secret":"cfbc57b954","server":"65535","farm":66,"title":"Eastern Meadowlark_N6291","ispublic":1,"isfriend":0,"isfamily":0},{"id":"52647474561","owner":"61241315@N00","secret":"cd1fb94246","server":"65535","farm":66,"title":"Eastern Meadowlark_N6234","ispublic":1,"isfriend":0,"isfamily":0},{"id":"52647958718","owner":"61241315@N00","secret":"2d7fa6bbf9","server":"65535","farm":66,"title":"Eastern Meadowlark_N6241","ispublic":1,"isfriend":0,"isfamily":0},{"id":"52647740844","owner":"61241315@N00","secret":"607cee0a9a","server":"65535","farm":66,"title":"Eastern Meadowlark_N6242","ispublic":1,"isfriend":0,"isfamily":0},{"id":"52646973532","owner":"61241315@N00","secret":"61b592e7ed","server":"65535","farm":66,"title":"Eastern Meadowlark_N6258","ispublic":1,"isfriend":0,"isfamily":0},{"id":"52647740814","owner":"61241315@N00","secret":"fb4717d197","server":"65535","farm":66,"title":"Eastern Meadowlark_N6263","ispublic":1,"isfriend":0,"isfamily":0},{"id":"52647958608","owner":"61241315@N00","secret":"bdda09586d","server":"65535","farm":66,"title":"Eastern Meadowlark_N6284","ispublic":1,"isfriend":0,"isfamily":0},{"id":"52643702763","owner":"8013969@N03","secret":"d2c9e9b3fa","server":"65535","farm":66,"title":"Sturnella magna DFL btr22-1","ispublic":1,"isfriend":0,"isfamily":0},{"id":"52512441526","owner":"7546739@N08","secret":"7dc1ec8ecb","server":"65535","farm":66,"title":"Eastern Meadowlark","ispublic":1,"isfriend":0,"isfamily":0},{"id":"52500982014","owner":"61241315@N00","secret":"3915b56796","server":"0","farm":0,"title":"Eastern Meadowlark_9197.MP4","ispublic":1,"isfriend":0,"isfamily":0},{"id":"52500212897","owner":"61241315@N00","secret":"2c80d413fd","server":"65535","farm":66,"title":"Eastern Meadowlark_N9184","ispublic":1,"isfriend":0,"isfamily":0},{"id":"52500982279","owner":"61241315@N00","secret":"4aa9a69747","server":"65535","farm":66,"title":"Eastern Meadowlark_N9188","ispublic":1,"isfriend":0,"isfamily":0},{"id":"52501255788","owner":"61241315@N00","secret":"018b0d7fb3","server":"65535","farm":66,"title":"Eastern Meadowlark_N9200","ispublic":1,"isfriend":0,"isfamily":0}]},"stat":"ok"}