{"photos":{"page":1,"pages":7,"perpage":100,"total":663,"photo":[{"id":"52564403589","owner":"74969937@N02","secret":"8c1163ed8b","server":"65535","farm":66,"title":"Elegan Trogon","ispublic":1,"isfriend":0,"isfamily":0},{"id":"52564403519","owner":"74969937@N02","secret":"195d398421","server":"65535","farm":66,"title":"Elegan Trogon","ispublic":1,"isfriend":0,"isfamily":0},{"id":"52337452643","owner":"147729781@N02","secret":"6ebb1e61b4","server":"65535","farm":66,"title":"Elegant Trogon","ispublic":1,"isfriend":0,"isfamily":0},{"id":"52313446988","owner":"132165466@N08","secret":"686fe98b6f","server":"65535","farm":66,"title":"Elegant Trogon, juvenile","ispublic":1,"isfriend":0,"isfamily":0},{"id":"52313577565","owner":"132165466@N08","secret":"68de557fd5","server":"65535","farm":66,"title":"Elegant Trogon, male and juvenile","ispublic":1,"isfriend":0,"isfamily":0},{"id":"52312338332","owner":"132165466@N08","secret":"1facea2f2b","server":"65535","farm":66,"title":"Elegant Trogon, male and juvenile","ispublic":1,"isfriend":0,"isfamily":0},{"id":"52313565364","owner":"132165466@N08","secret":"f1e7dfa9ff","server":"65535","farm":66,"title":"Elegant Trogon, male and juvenile","ispublic":1,"isfriend":0,"isfamily":0},{"id":"52312903905","owner":"132165466@N08","secret":"ecf306f881","server":"65535","farm":66,"title":"Elegant Trogon, male and juvenile","ispublic":1,"isfriend":0,"isfamily":0},{"id":"52312889369","owner":"132165466@N08","secret":"b7c07b82cd","server":"65535","farm":66,"title":"Elegant Trogon, male and juvenile","ispublic":1,"isfriend":0,"isfamily":0},{"id":"52311664177","owner":"132165466@N08","secret":"17d53b10aa","server":"65535","farm":66,"title":"Elegant Trogon, male and juvenile","ispublic":1,"isfriend":0,"isfamily":0},{"id":"52311590019","owner":"132165466@N08","secret":"9b37d1db74","server":"65535","farm":66,"title":"Elegant Trogon, male and juvenile","ispublic":1,"isfriend":0,"isfamily":0},{"id":"52311477113","owner":"132165466@N08","secret":"b7fa6b5a1c","server":"65535","farm":66,"title":"Elegant Trogon, male","ispublic":1,"isfriend":0,"isfamily":0},{"id":"52311477103","owner":"132165466@N08","secret":"a162a6f8ee","server":"65535","farm":66,"title":"Elegant Trogon, male and juvenile","ispublic":1,"isfriend":0,"isfamily":0},{"id":"52308992521","owner":"132165466@N08","secret":"908c0d31d7","server":"65535","farm":66,"title":"Elegant Trogon, male and juvenile","ispublic":1,"isfriend":0,"isfamily":0},{"id":"52309456268","owner":"132165466@N08","secret":"319ce64e6d","server":"65535","farm":66,"title":"Elegant Trogon, male and juvenile","ispublic":1,"isfriend":0,"isfamily":0},{"id":"52308992486","owner":"132165466@N08","secret":"9a0f22164b","server":"65535","farm":66,"title":"Elegant Trogon, male and juvenile","ispublic":1,"isfriend":0,"isfamily":0},{"id":"52309401073","owner":"132165466@N08","secret":"fcf6bced7e","server":"65535","farm":66,"title":"Elegant Trogon, male","ispublic":1,"isfriend":0,"isfamily":0},{"id":"52308209247","owner":"132165466@N08","secret":"d2b8110664","server":"65535","farm":66,"title":"Elegant Trogon, male","ispublic":1,"isfriend":0,"isfamily":0},{"id":"52307162655","owner":"132165466@N08","secret":"5f4bca0bcb","server":"65535","farm":66,"title":"Elegant Trogon, male","ispublic":1,"isfriend":0,"isfamily":0},{"id":"52305911377","owner":"132165466@N08","secret":"c2518673ed","server":"65535","farm":66,"title":"Elegant Trogon, male","ispublic":1,"isfriend":0,"isfamily":0},{"id":"52307150589","owner":"132165466@N08","secret":"877fe148b5","server":"65535","farm":66,"title":"Elegant Trogon, male","ispublic":1,"isfriend":0,"isfamily":0},{"id":"52307058854","owner":"196264892@N08","secret":"d16198bb4f","server":"65535","farm":66,"title":"Elegant Trogon","ispublic":1,"isfriend":0,"isfamily":0},{"id":"52307058504","owner":"196264892@N08","secret":"1e758b223d","server":"65535","farm":66,"title":"Elegant Trogon","ispublic":1,"isfriend":0,"isfamily":0},{"id":"52307057744","owner":"196264892@N08","secret":"18b1f5e1d1","server":"65535","farm":66,"title":"Elegant Trogon","ispublic":1,"isfriend":0,"isfamily":0},{"id":"52305819062","owner":"196264892@N08","secret":"69c0ed1143","server":"65535","farm":66,"title":"Elegant Trogon","ispublic":1,"isfriend":0,"isfamily":0},{"id":"52265933968","owner":"185959967@N05","secret":"849ae61830","server":"65535","farm":66,"title":"Elegant Trogon (Trogon elegans)","ispublic":1,"isfriend":0,"isfamily":0},{"id":"52263614103","owner":"185959967@N05","secret":"02540abbeb","server":"65535","farm":66,"title":"Elegant Trogon (Trogon elegans)","ispublic":1,"isfriend":0,"isfamily":0},{"id":"52151751635","owner":"39177293@N03","secret":"e8523f414f","server":"65535","farm":66,"title":"Elegant Trogon","ispublic":1,"isfriend":0,"isfamily":0},{"id":"52147917782","owner":"195782057@N07","secret":"217d849c0c","server":"0","farm":0,"title":"Elegant Trogon, Bridled Titmouse, House Finch, Mexican Jay","ispublic":1,"isfriend":0,"isfamily":0},{"id":"52149115545","owner":"195787505@N02","secret":"b902e358ed","server":"65535","farm":66,"title":"Elegant Trogon","ispublic":1,"isfriend":0,"isfamily":0},{"id":"52146073782","owner":"34689777@N08","secret":"d722ea2eff","server":"65535","farm":66,"title":"Elegant Trogon (Trogon elegans).  Chiricahua Mountains, Arizona, USA.","ispublic":1,"isfriend":0,"isfamily":0},{"id":"52145317999","owner":"195753655@N08","secret":"0d456f772a","server":"65535","farm":66,"title":"121. Elegant Trogon (Trogon elegans) (telephoto)","ispublic":1,"isfriend":0,"isfamily":0},{"id":"52145569535","owner":"195753655@N08","secret":"97bb282f0d","server":"65535","farm":66,"title":"123A). Female elegant trogan (Trogon elegans) in NEST","ispublic":1,"isfriend":0,"isfamily":0},{"id":"52144058897","owner":"195753655@N08","secret":"6e58799913","server":"65535","farm":66,"title":"123B.) Male trogan(Trogon elegans) entering NEST","ispublic":1,"isfriend":0,"isfamily":0},{"id":"52129418907","owner":"36845939@N03","secret":"fa08850667","server":"65535","farm":66,"title":"Elegant Trogon (Trogon elegans)","ispublic":1,"isfriend":0,"isfamily":0},{"id":"52130462448","owner":"36845939@N03","secret":"25fccbaa25","server":"65535","farm":66,"title":"Elegant Trogon (Trogon elegans)","ispublic":1,"isfriend":0,"isfamily":0},{"id":"52125209154","owner":"34689777@N08","secret":"433d6d8cea","server":"65535","farm":66,"title":"Elegant Trogon (Trogon elegans).  Chiricahua Mountains, Arizona, USA.","ispublic":1,"isfriend":0,"isfamily":0},{"id":"52125102764","owner":"34689777@N08","secret":"7521c3c546","server":"65535","farm":66,"title":"Elegant Trogon (Trogon elegans).  Chiricahua Mountains, Arizona, USA.","ispublic":1,"isfriend":0,"isfamily":0},{"id":"52109663152","owner":"189028835@N03","secret":"0704444a73","server":"65535","farm":66,"title":"Elegant Trogan (Trogon elegans) (m)","ispublic":1,"isfriend":0,"isfamily":0},{"id":"52108632429","owner":"189028835@N03","secret":"ce8d6cb301","server":"65535","farm":66,"title":"Elegant Trogan (Trogon elegans) (m)","ispublic":1,"isfriend":0,"isfamily":0},{"id":"52100755487","owner":"34689777@N08","secret":"be0840dcfb","server":"65535","farm":66,"title":"Elegant Trogon (Trogon elegans).  Chiricahua Mountains, Arizona, USA.","ispublic":1,"isfriend":0,"isfamily":0},{"id":"52096113857","owner":"34689777@N08","secret":"95de73ebe6","server":"65535","farm":66,"title":"Elegant Trogon (Trogon elegans).  Chiricahua Mountains, Arizona, USA.","ispublic":1,"isfriend":0,"isfamily":0},{"id":"52090769255","owner":"94293448@N07","secret":"1ac39b6592","server":"65535","farm":66,"title":"Elegant Trogon - (Trogon elegans)","ispublic":1,"isfriend":0,"isfamily":0},{"id":"52087003437","owner":"94293448@N07","secret":"c4acebc431","server":"65535","farm":66,"title":"Elegant Trogon - (Trogon elegans)","ispublic":1,"isfriend":0,"isfamily":0},{"id":"52088280749","owner":"94293448@N07","secret":"157004e08e","server":"65535","farm":66,"title":"Elegant Trogon - (Trogon elegans)","ispublic":1,"isfriend":0,"isfamily":0},{"id":"52086787982","owner":"34689777@N08","secret":"3e07fbf14a","server":"65535","farm":66,"title":"Elegant Trogon (Trogon elegans) female and male hidden in a tree.  Chiricahua Mountains, Arizona, USA.","ispublic":1,"isfriend":0,"isfamily":0},{"id":"52087663609","owner":"34689777@N08","secret":"0f7a5d629f","server":"65535","farm":66,"title":"Elegant Trogon (Trogon elegans).  Chiricahua Mountains, Arizona, USA.","ispublic":1,"isfriend":0,"isfamily":0},{"id":"52086551043","owner":"29170368@N03","secret":"8db054f193","server":"65535","farm":66,"title":"Elegant Trogon","ispublic":1,"isfriend":0,"isfamily":0},{"id":"52031640798","owner":"36682266@N06","secret":"3eb79d3603","server":"65535","farm":66,"title":"Elegant Trogon (Trogon elegans)","ispublic":1,"isfriend":0,"isfamily":0},{"id":"52030564277","owner":"36682266@N06","secret":"4eefbce963","server":"65535","farm":66,"title":"Elegant Trogon (Trogon elegans)","ispublic":1,"isfriend":0,"isfamily":0},{"id":"52032104020","owner":"36682266@N06","secret":"9665e6730b","server":"65535","farm":66,"title":"Elegant Trogon (Trogon elegans)","ispublic":1,"isfriend":0,"isfamily":0},{"id":"51835328410","owner":"39617069@N08","secret":"a33957ba00","server":"65535","farm":66,"title":"Elegant Trogon","ispublic":1,"isfriend":0,"isfamily":0},{"id":"51527837329","owner":"50264295@N06","secret":"edcc2bf408","server":"65535","farm":66,"title":"Elegant Trogon (Trogon elegans)- male","ispublic":1,"isfriend":0,"isfamily":0},{"id":"51526297492","owner":"50264295@N06","secret":"3b25be28cb","server":"65535","farm":66,"title":"Elegant Trogon (Trogon elegans)- male","ispublic":1,"isfriend":0,"isfamily":0},{"id":"51456275574","owner":"29170368@N03","secret":"99d72f70fb","server":"65535","farm":66,"title":"Elegant Trogon","ispublic":1,"isfriend":0,"isfamily":0},{"id":"51348864521","owner":"39652177@N04","secret":"6592d8385c","server":"65535","farm":66,"title":"Elegant Trogon -1570","ispublic":1,"isfriend":0,"isfamily":0},{"id":"51341741938","owner":"43440320@N04","secret":"54650ba958","server":"65535","farm":66,"title":"Elegant Trogon","ispublic":1,"isfriend":0,"isfamily":0},{"id":"51321373602","owner":"124394812@N08","secret":"9d94f2d57a","server":"65535","farm":66,"title":"Trogon \u00e9l\u00e9gant","ispublic":1,"isfriend":0,"isfamily":0},{"id":"50988186578","owner":"29170368@N03","secret":"f8af9be92e","server":"65535","farm":66,"title":"Elegant Trogon","ispublic":1,"isfriend":0,"isfamily":0},{"id":"50870942552","owner":"37247779@N07","secret":"8dbb9e284b","server":"65535","farm":66,"title":"Elegant Trogon (Trogon elegans), female.","ispublic":1,"isfriend":0,"isfamily":0},{"id":"50762037943","owner":"8065544@N08","secret":"19fc0558e7","server":"65535","farm":66,"title":"Elegant Trogon (Trogon elegans)","ispublic":1,"isfriend":0,"isfamily":0},{"id":"50762766096","owner":"8065544@N08","secret":"50171c88cf","server":"65535","farm":66,"title":"Elegant Trogon (Trogon elegans)","ispublic":1,"isfriend":0,"isfamily":0},{"id":"50655378746","owner":"33610210@N05","secret":"469a27e563","server":"65535","farm":66,"title":"Elegant Trogon, Trogon elegans","ispublic":1,"isfriend":0,"isfamily":0},{"id":"50654642943","owner":"33610210@N05","secret":"c08e86d2e7","server":"65535","farm":66,"title":"Elegant Trogon, Trogon elegans","ispublic":1,"isfriend":0,"isfamily":0},{"id":"50655470042","owner":"33610210@N05","secret":"047680c547","server":"65535","farm":66,"title":"Elegant Trogon, Trogon elegans","ispublic":1,"isfriend":0,"isfamily":0},{"id":"52644811967","owner":"41694014@N04","secret":"baa60d59b2","server":"65535","farm":66,"title":"Trogon elegans","ispublic":1,"isfriend":0,"isfamily":0},{"id":"52643889089","owner":"41694014@N04","secret":"9563ea46a8","server":"65535","farm":66,"title":"Trogon elegans","ispublic":1,"isfriend":0,"isfamily":0},{"id":"52579959732","owner":"153973412@N04","secret":"ce29485b58","server":"65535","farm":66,"title":"Elegant Trogon-Trogon elegans, Cave Creek Canyon, AZ","ispublic":1,"isfriend":0,"isfamily":0},{"id":"52307007688","owner":"196264892@N08","secret":"ab39f5beb6","server":"65535","farm":66,"title":"Elegant Trogon","ispublic":1,"isfriend":0,"isfamily":0},{"id":"52208254442","owner":"195819210@N03","secret":"7a83aeb4d3","server":"0","farm":0,"title":"(161) Elegant Trogon Audio","ispublic":1,"isfriend":0,"isfamily":0},{"id":"52144044949","owner":"193250255@N08","secret":"f037d83ae5","server":"0","farm":0,"title":"144 Elegant Trogon","ispublic":1,"isfriend":0,"isfamily":0},{"id":"52131527458","owner":"193250255@N08","secret":"ec4fb95273","server":"65535","farm":66,"title":"47 Elegant Trogon","ispublic":1,"isfriend":0,"isfamily":0},{"id":"52126750295","owner":"190764460@N06","secret":"695857376e","server":"65535","farm":66,"title":"ELTR#2","ispublic":1,"isfriend":0,"isfamily":0},{"id":"52125456119","owner":"195782057@N07","secret":"da310a70f0","server":"65535","farm":66,"title":"ELEGANT TROGON","ispublic":1,"isfriend":0,"isfamily":0},{"id":"52111095654","owner":"54249623@N08","secret":"a57c1cd6f7","server":"65535","farm":66,"title":"Elegant Trogon (Trogon elegans)","ispublic":1,"isfriend":0,"isfamily":0},{"id":"52109992393","owner":"65788177@N02","secret":"ac833c2806","server":"65535","farm":66,"title":"Elegant Trogon","ispublic":1,"isfriend":0,"isfamily":0},{"id":"52102550250","owner":"46506981@N03","secret":"0f1643f1ff","server":"65535","farm":66,"title":"Elegant Trogon turns up Le'Elegans!","ispublic":1,"isfriend":0,"isfamily":0},{"id":"52102286819","owner":"46506981@N03","secret":"05f7c17bf4","server":"65535","farm":66,"title":"Elegant Trogon turns up Le'Elegans!","ispublic":1,"isfriend":0,"isfamily":0},{"id":"52102077428","owner":"46506981@N03","secret":"aec876ef6f","server":"65535","farm":66,"title":"Elegant Trogon turns up Le'Elegans!","ispublic":1,"isfriend":0,"isfamily":0},{"id":"52101015337","owner":"46506981@N03","secret":"c78f9ae790","server":"65535","farm":66,"title":"Elegant Trogon turns up Le'Elegans!","ispublic":1,"isfriend":0,"isfamily":0},{"id":"52102286764","owner":"46506981@N03","secret":"589637be90","server":"65535","farm":66,"title":"Elegant Trogon turns up Le'Elegans!","ispublic":1,"isfriend":0,"isfamily":0},{"id":"52102077373","owner":"46506981@N03","secret":"fc49ddef20","server":"65535","farm":66,"title":"Elegant Trogon turns up Le'Elegans!","ispublic":1,"isfriend":0,"isfamily":0},{"id":"52102077353","owner":"46506981@N03","secret":"f75443d76c","server":"65535","farm":66,"title":"Elegant Trogon turns up Le'Elegans!","ispublic":1,"isfriend":0,"isfamily":0},{"id":"52102286699","owner":"46506981@N03","secret":"b115f3cd8d","server":"65535","farm":66,"title":"Elegant Trogon turns up Le'Elegans!","ispublic":1,"isfriend":0,"isfamily":0},{"id":"52088428205","owner":"65788177@N02","secret":"d0b3c26b7c","server":"65535","farm":66,"title":"Elegant Trogon","ispublic":1,"isfriend":0,"isfamily":0},{"id":"52031855474","owner":"36682266@N06","secret":"70afc41515","server":"65535","farm":66,"title":"Elegant Trogon (Trogon elegans)","ispublic":1,"isfriend":0,"isfamily":0},{"id":"52032121695","owner":"36682266@N06","secret":"73b4b07125","server":"65535","farm":66,"title":"Elegant Trogon (Trogon elegans)","ispublic":1,"isfriend":0,"isfamily":0},{"id":"51755155475","owner":"56686021@N04","secret":"a6aca8d715","server":"65535","farm":66,"title":"Elegant Trogon","ispublic":1,"isfriend":0,"isfamily":0},{"id":"51755155465","owner":"56686021@N04","secret":"b50fe10d1f","server":"65535","farm":66,"title":"Elegant Trogon","ispublic":1,"isfriend":0,"isfamily":0},{"id":"51754284486","owner":"56686021@N04","secret":"ff3d8551b5","server":"65535","farm":66,"title":"Elegant Trogon","ispublic":1,"isfriend":0,"isfamily":0},{"id":"51438380136","owner":"32752434@N07","secret":"a83e91db79","server":"65535","farm":66,"title":"Elegant Trogon (Trogon elegans)","ispublic":1,"isfriend":0,"isfamily":0},{"id":"51383117366","owner":"13451078@N03","secret":"90c93d503c","server":"65535","farm":66,"title":"Elegant Trogon (Trogon elegans)","ispublic":1,"isfriend":0,"isfamily":0},{"id":"51219279004","owner":"117307568@N03","secret":"f4bf84bffe","server":"65535","farm":66,"title":"Elegant Trogon (Trogon elegans)","ispublic":1,"isfriend":0,"isfamily":0},{"id":"51217798232","owner":"117307568@N03","secret":"6e2843f46f","server":"65535","farm":66,"title":"Elegant Trogon (Trogon elegans)","ispublic":1,"isfriend":0,"isfamily":0},{"id":"50930730916","owner":"189800946@N02","secret":"dc8b6758d8","server":"65535","farm":66,"title":"Trogon elegans.","ispublic":1,"isfriend":0,"isfamily":0},{"id":"50920784446","owner":"192057736@N02","secret":"d99c7f3e37","server":"65535","farm":66,"title":"Elegant Trogon","ispublic":1,"isfriend":0,"isfamily":0},{"id":"50904687946","owner":"76782619@N04","secret":"3f1e6285b9","server":"65535","farm":66,"title":"Elegant Trogon","ispublic":1,"isfriend":0,"isfamily":0},{"id":"50762766136","owner":"8065544@N08","secret":"4b6e51d793","server":"65535","farm":66,"title":"Elegant Trogon (Trogon elegans)","ispublic":1,"isfriend":0,"isfamily":0},{"id":"50654643073","owner":"33610210@N05","secret":"dd15d060c7","server":"65535","farm":66,"title":"Elegant Trogon, Trogon elegans","ispublic":1,"isfriend":0,"isfamily":0},{"id":"50655377991","owner":"33610210@N05","secret":"bc1f05ecf5","server":"65535","farm":66,"title":"Elegant Trogon, Trogon elegans","ispublic":1,"isfriend":0,"isfamily":0}]},"stat":"ok"}