{"photos":{"page":1,"pages":156,"perpage":100,"total":15543,"photo":[{"id":"52791359466","owner":"68466173@N02","secret":"13c03839d2","server":"65535","farm":66,"title":"Eurasian Tree Sparrow (Passer montanus)","ispublic":1,"isfriend":0,"isfamily":0},{"id":"52788468871","owner":"12639178@N07","secret":"5207c095bc","server":"65535","farm":66,"title":"Feldsperlinge","ispublic":1,"isfriend":0,"isfamily":0},{"id":"52788921028","owner":"12639178@N07","secret":"1cda4a34b8","server":"65535","farm":66,"title":"Feldsperlinge haben die Meisenkn\u00f6del entdeckt","ispublic":1,"isfriend":0,"isfamily":0},{"id":"52788205234","owner":"12639178@N07","secret":"650d0d9a79","server":"65535","farm":66,"title":"Feldsperling (Passer montanus) (1)","ispublic":1,"isfriend":0,"isfamily":0},{"id":"52787705738","owner":"77017456@N03","secret":"1553cc61fe","server":"65535","farm":66,"title":"Eurasian Tree Sparrow (passer montanus)","ispublic":1,"isfriend":0,"isfamily":0},{"id":"52787004976","owner":"12639178@N07","secret":"7a41784a58","server":"65535","farm":66,"title":"Feldsperling","ispublic":1,"isfriend":0,"isfamily":0},{"id":"52787234779","owner":"12639178@N07","secret":"3241f76a65","server":"65535","farm":66,"title":"Feldsperling","ispublic":1,"isfriend":0,"isfamily":0},{"id":"52787234629","owner":"12639178@N07","secret":"8ea5dba69b","server":"65535","farm":66,"title":"Feldsperling","ispublic":1,"isfriend":0,"isfamily":0},{"id":"52785930521","owner":"12639178@N07","secret":"a98e433b4b","server":"65535","farm":66,"title":"Feldsperling","ispublic":1,"isfriend":0,"isfamily":0},{"id":"52785167292","owner":"139785057@N08","secret":"82692d0151","server":"65535","farm":66,"title":"Eurasian tree sparrow (Passer montanus)","ispublic":1,"isfriend":0,"isfamily":0},{"id":"52786065255","owner":"198000077@N04","secret":"e820ea3cb9","server":"65535","farm":66,"title":"Eurasian tree sparrow\/ Passer montanus","ispublic":1,"isfriend":0,"isfamily":0},{"id":"52783420074","owner":"12639178@N07","secret":"127f42885c","server":"65535","farm":66,"title":"Feldsperling in der Erle","ispublic":1,"isfriend":0,"isfamily":0},{"id":"52782632257","owner":"12639178@N07","secret":"8cdcb9bdd9","server":"65535","farm":66,"title":"Feldsperling guckt vom Baum","ispublic":1,"isfriend":0,"isfamily":0},{"id":"52782984551","owner":"12639178@N07","secret":"849fa5e9be","server":"65535","farm":66,"title":"Feldsperling (Passer montanus)","ispublic":1,"isfriend":0,"isfamily":0},{"id":"52782250615","owner":"12639178@N07","secret":"b5c92261dd","server":"65535","farm":66,"title":"Feldsperling (Passer montanus)","ispublic":1,"isfriend":0,"isfamily":0},{"id":"52781484593","owner":"197654707@N08","secret":"ea5fbab21d","server":"65535","farm":66,"title":"pair of tree sparrows","ispublic":1,"isfriend":0,"isfamily":0},{"id":"52778450852","owner":"197212715@N07","secret":"8cab3399d1","server":"65535","farm":66,"title":"Feldsperling oder Feldspatz (Passer montanus)","ispublic":1,"isfriend":0,"isfamily":0},{"id":"52775562295","owner":"68466173@N02","secret":"8797e11860","server":"65535","farm":66,"title":"Eurasian Tree Sparrow (Passer montanus)","ispublic":1,"isfriend":0,"isfamily":0},{"id":"52775460553","owner":"134759303@N04","secret":"2063a7c793","server":"65535","farm":66,"title":"Passer montanus skovspurv i min have","ispublic":1,"isfriend":0,"isfamily":0},{"id":"52773211513","owner":"108019618@N06","secret":"20b0fa26c0","server":"65535","farm":66,"title":"2023_03_25_Pardal xarrec_Passer montanus_gorri\u00f3n molinero","ispublic":1,"isfriend":0,"isfamily":0},{"id":"52771059430","owner":"12639178@N07","secret":"b4c21052dc","server":"65535","farm":66,"title":"Feldsperling","ispublic":1,"isfriend":0,"isfamily":0},{"id":"52770532506","owner":"12639178@N07","secret":"a10946dffc","server":"65535","farm":66,"title":"Feldsperling (Passer montanus) (1)","ispublic":1,"isfriend":0,"isfamily":0},{"id":"52770531304","owner":"136420653@N03","secret":"e9319a06d8","server":"65535","farm":66,"title":"Feldsperling (Eurasian tree sparrow)","ispublic":1,"isfriend":0,"isfamily":0},{"id":"52770380780","owner":"123529713@N08","secret":"2a721a94dd","server":"65535","farm":66,"title":"Pardal xarrec - Gorrion molinero - Eurasian tr\u00e8s Sparrow - Moineau friquet - Passer montanus","ispublic":1,"isfriend":0,"isfamily":0},{"id":"52767157331","owner":"68466173@N02","secret":"fcdc727ea4","server":"65535","farm":66,"title":"Eurasian Tree Sparrow (Passer montanus)","ispublic":1,"isfriend":0,"isfamily":0},{"id":"52766129390","owner":"125741467@N05","secret":"4e1e793ff8","server":"65535","farm":66,"title":"Tree sparrow","ispublic":1,"isfriend":0,"isfamily":0},{"id":"52765925939","owner":"37180297@N08","secret":"26ae08c58b","server":"65535","farm":66,"title":"_RBD8831 Passer montanus saturatus \u9ebb\u96c0","ispublic":1,"isfriend":0,"isfamily":0},{"id":"52765132992","owner":"37180297@N08","secret":"0f5ce14636","server":"65535","farm":66,"title":"_RBD8832 Passer montanus saturatus \u9ebb\u96c0","ispublic":1,"isfriend":0,"isfamily":0},{"id":"52765132517","owner":"37180297@N08","secret":"0a0ef26cae","server":"65535","farm":66,"title":"_RBD8830 Passer montanus saturatus \u9ebb\u96c0","ispublic":1,"isfriend":0,"isfamily":0},{"id":"52765037004","owner":"80696064@N06","secret":"548e72966c","server":"65535","farm":66,"title":"Passer montanus. (Tree Sparrow) IMG_4446","ispublic":1,"isfriend":0,"isfamily":0},{"id":"52765190020","owner":"80696064@N06","secret":"2125a2433b","server":"65535","farm":66,"title":"Passer montanus. (Tree Sparrow) IMG_4424","ispublic":1,"isfriend":0,"isfamily":0},{"id":"52762951602","owner":"128329347@N04","secret":"fb502d4473","server":"65535","farm":66,"title":"Passer montanus - Eurasian tree sparrow","ispublic":1,"isfriend":0,"isfamily":0},{"id":"52761075655","owner":"130427874@N02","secret":"85ac9b3d7a","server":"65535","farm":66,"title":"Pardal-mont\u00eas \/\/ Passer montanus","ispublic":1,"isfriend":0,"isfamily":0},{"id":"52761119618","owner":"12639178@N07","secret":"e3bb66af82","server":"65535","farm":66,"title":"Feldsperling","ispublic":1,"isfriend":0,"isfamily":0},{"id":"52758900217","owner":"97406694@N00","secret":"cb86918a6d","server":"65535","farm":66,"title":"Mazurek (Passer montanus)","ispublic":1,"isfriend":0,"isfamily":0},{"id":"52758399640","owner":"12639178@N07","secret":"7aff9b68ca","server":"65535","farm":66,"title":"Feldsperlinge","ispublic":1,"isfriend":0,"isfamily":0},{"id":"52757453732","owner":"12639178@N07","secret":"b7c9cfda04","server":"65535","farm":66,"title":"Feldsperling im Garten, leider im Gegenlicht","ispublic":1,"isfriend":0,"isfamily":0},{"id":"52756862924","owner":"12639178@N07","secret":"4875cc7824","server":"65535","farm":66,"title":"Feldsperling","ispublic":1,"isfriend":0,"isfamily":0},{"id":"52756904585","owner":"128329347@N04","secret":"657cfbedf6","server":"65535","farm":66,"title":"Passer montanus - Eurasian tree sparrow","ispublic":1,"isfriend":0,"isfamily":0},{"id":"52755863219","owner":"12639178@N07","secret":"34a7ba3510","server":"65535","farm":66,"title":"Feldsperling","ispublic":1,"isfriend":0,"isfamily":0},{"id":"52755709704","owner":"196374678@N04","secret":"6f27a04711","server":"65535","farm":66,"title":"20230318-6X4A3001","ispublic":1,"isfriend":0,"isfamily":0},{"id":"52755709614","owner":"196374678@N04","secret":"375334c7eb","server":"65535","farm":66,"title":"20230318-6X4A3007","ispublic":1,"isfriend":0,"isfamily":0},{"id":"52754526826","owner":"12639178@N07","secret":"c2e746abe8","server":"65535","farm":66,"title":"Feldsperling","ispublic":1,"isfriend":0,"isfamily":0},{"id":"52754208639","owner":"141875401@N08","secret":"a19aa86b9f","server":"65535","farm":66,"title":"\u041f\u043e\u043b\u0435\u0432\u043e\u0439 \u0432\u043e\u0440\u043e\u0431\u0435\u0439 (\u043b\u0430\u0442. Passer montanus)","ispublic":1,"isfriend":0,"isfamily":0},{"id":"52753888806","owner":"12639178@N07","secret":"fdb55a7dae","server":"65535","farm":66,"title":"weibl. Haussperling und Feldsperlinge","ispublic":1,"isfriend":0,"isfamily":0},{"id":"52752915597","owner":"12639178@N07","secret":"d138e55d92","server":"65535","farm":66,"title":"Feldsperling (Passer montanus) (3)","ispublic":1,"isfriend":0,"isfamily":0},{"id":"52752915297","owner":"12639178@N07","secret":"081ece0771","server":"65535","farm":66,"title":"Feldsperling (Passer montanus) (2)","ispublic":1,"isfriend":0,"isfamily":0},{"id":"52751937676","owner":"12639178@N07","secret":"c09f23f3f1","server":"65535","farm":66,"title":"Feldsperlinge","ispublic":1,"isfriend":0,"isfamily":0},{"id":"52751400477","owner":"12639178@N07","secret":"2e880e75a9","server":"65535","farm":66,"title":"Feldsperlinge","ispublic":1,"isfriend":0,"isfamily":0},{"id":"52752177869","owner":"12639178@N07","secret":"e2eb9f6a4b","server":"65535","farm":66,"title":"Hey, komm raus, keine Gefahr!","ispublic":1,"isfriend":0,"isfamily":0},{"id":"52751433906","owner":"140734051@N08","secret":"02742f07dc","server":"65535","farm":66,"title":"\u041f\u043e\u043b\u0435\u0432\u043e\u0439 \u0432\u043e\u0440\u043e\u0431\u0435\u0439, Passer montanus montanus, Eurasian Tree Sparrow \u2642\ufe0f","ispublic":1,"isfriend":0,"isfamily":0},{"id":"52751375738","owner":"29826595@N06","secret":"738c5888e5","server":"65535","farm":66,"title":"Tree Sparrow","ispublic":1,"isfriend":0,"isfamily":0},{"id":"52751347393","owner":"130427874@N02","secret":"7eeddc4a51","server":"65535","farm":66,"title":"Pardal-mont\u00eas \/\/ Passer montanus","ispublic":1,"isfriend":0,"isfamily":0},{"id":"52751131610","owner":"125741467@N05","secret":"1ce7acc5b4","server":"65535","farm":66,"title":"Tree sparrow","ispublic":1,"isfriend":0,"isfamily":0},{"id":"52750801139","owner":"12639178@N07","secret":"f76f65c270","server":"65535","farm":66,"title":"Spatzen-Bande","ispublic":1,"isfriend":0,"isfamily":0},{"id":"52750026527","owner":"12639178@N07","secret":"231bd1992b","server":"65535","farm":66,"title":"Feldsperling","ispublic":1,"isfriend":0,"isfamily":0},{"id":"52749260755","owner":"35968106@N03","secret":"6ac57d6f9f","server":"65535","farm":66,"title":"Passer montanus, \u0394\u03b5\u03bd\u03b4\u03c1\u03bf\u03c3\u03c0\u03bf\u03c5\u03c1\u03b3\u03af\u03c4\u03b7\u03c2, Eurasian tree sparrow","ispublic":1,"isfriend":0,"isfamily":0},{"id":"52747673276","owner":"83641158@N03","secret":"40efefc85a","server":"65535","farm":66,"title":"Feldsperling","ispublic":1,"isfriend":0,"isfamily":0},{"id":"52745631211","owner":"12639178@N07","secret":"58439dde02","server":"65535","farm":66,"title":"Feldsperling (Passer montanus) (1)","ispublic":1,"isfriend":0,"isfamily":0},{"id":"52744123231","owner":"12639178@N07","secret":"a74780ef35","server":"65535","farm":66,"title":"Feldsperling am Fu\u00dfe der Biberburg trinkt aus der Pegnitz","ispublic":1,"isfriend":0,"isfamily":0},{"id":"52741035570","owner":"48014585@N00","secret":"d739171caa","server":"65535","farm":66,"title":"Eurasian Tree Sparrow","ispublic":1,"isfriend":0,"isfamily":0},{"id":"52741112533","owner":"48014585@N00","secret":"c13e998f83","server":"65535","farm":66,"title":"Eurasian Tree Sparrow","ispublic":1,"isfriend":0,"isfamily":0},{"id":"52741034995","owner":"48014585@N00","secret":"4ee866e440","server":"65535","farm":66,"title":"Eurasian Tree Sparrow","ispublic":1,"isfriend":0,"isfamily":0},{"id":"52740874824","owner":"48014585@N00","secret":"df1f3a14dc","server":"65535","farm":66,"title":"Eurasian Tree Sparrow","ispublic":1,"isfriend":0,"isfamily":0},{"id":"52740103862","owner":"48014585@N00","secret":"9930997d05","server":"65535","farm":66,"title":"Eurasian Tree Sparrow","ispublic":1,"isfriend":0,"isfamily":0},{"id":"52740621891","owner":"48014585@N00","secret":"affa7c4750","server":"65535","farm":66,"title":"Eurasian Tree Sparrow","ispublic":1,"isfriend":0,"isfamily":0},{"id":"52740621366","owner":"48014585@N00","secret":"9fc1e8be2d","server":"65535","farm":66,"title":"Eurasian Tree Sparrow","ispublic":1,"isfriend":0,"isfamily":0},{"id":"52740352174","owner":"127247666@N05","secret":"159394b14d","server":"65535","farm":66,"title":"Eurasian tree sparrow","ispublic":1,"isfriend":0,"isfamily":0},{"id":"52740552073","owner":"44093058@N06","secret":"c71b31df59","server":"65535","farm":66,"title":"Eurasian tree sparrow, Passer montanus, Pilfink","ispublic":1,"isfriend":0,"isfamily":0},{"id":"52740064436","owner":"44093058@N06","secret":"0f9e9199e9","server":"65535","farm":66,"title":"Eurasian tree sparrow, Passer montanus, Pilfink","ispublic":1,"isfriend":0,"isfamily":0},{"id":"52736503983","owner":"97406694@N00","secret":"3f567d2019","server":"65535","farm":66,"title":"Mazurek (Passer montanus)","ispublic":1,"isfriend":0,"isfamily":0},{"id":"52736290593","owner":"125741467@N05","secret":"9d2cc75f61","server":"65535","farm":66,"title":"Tree sparrow","ispublic":1,"isfriend":0,"isfamily":0},{"id":"52736027038","owner":"128329347@N04","secret":"aa546cf2d7","server":"65535","farm":66,"title":"Passer montanus - Eurasian tree sparrow","ispublic":1,"isfriend":0,"isfamily":0},{"id":"52734375902","owner":"12639178@N07","secret":"897cfb4845","server":"65535","farm":66,"title":"Feldsperling (Passer montanus) (1)","ispublic":1,"isfriend":0,"isfamily":0},{"id":"52734228382","owner":"68466173@N02","secret":"4d67166cf8","server":"65535","farm":66,"title":"Eurasian Tree Sparrow (Passer montanus)","ispublic":1,"isfriend":0,"isfamily":0},{"id":"52732164832","owner":"141875401@N08","secret":"83bec3d71c","server":"65535","farm":66,"title":"\u041f\u043e\u043b\u0435\u0432\u043e\u0439 \u0432\u043e\u0440\u043e\u0431\u0435\u0439 (\u043b\u0430\u0442. Passer montanus)","ispublic":1,"isfriend":0,"isfamily":0},{"id":"52732688856","owner":"141875401@N08","secret":"1f6dda7573","server":"65535","farm":66,"title":"\u041f\u043e\u043b\u0435\u0432\u043e\u0439 \u0432\u043e\u0440\u043e\u0431\u0435\u0439 (\u043b\u0430\u0442. Passer montanus)","ispublic":1,"isfriend":0,"isfamily":0},{"id":"52732688841","owner":"141875401@N08","secret":"0cff647fa2","server":"65535","farm":66,"title":"\u041f\u043e\u043b\u0435\u0432\u043e\u0439 \u0432\u043e\u0440\u043e\u0431\u0435\u0439 (\u043b\u0430\u0442. Passer montanus)","ispublic":1,"isfriend":0,"isfamily":0},{"id":"52732940099","owner":"141875401@N08","secret":"cb5b0e5b78","server":"65535","farm":66,"title":"\u041f\u043e\u043b\u0435\u0432\u043e\u0439 \u0432\u043e\u0440\u043e\u0431\u0435\u0439 (\u043b\u0430\u0442. Passer montanus)","ispublic":1,"isfriend":0,"isfamily":0},{"id":"52733098865","owner":"141875401@N08","secret":"e3df30b399","server":"65535","farm":66,"title":"\u041f\u043e\u043b\u0435\u0432\u043e\u0439 \u0432\u043e\u0440\u043e\u0431\u0435\u0439 (\u043b\u0430\u0442. Passer montanus)","ispublic":1,"isfriend":0,"isfamily":0},{"id":"52729801061","owner":"109043136@N05","secret":"d36fe7343c","server":"65535","farm":66,"title":"Pardal-mont\u00eas (Passer montanus)","ispublic":1,"isfriend":0,"isfamily":0},{"id":"52729270017","owner":"109043136@N05","secret":"6cca2aced7","server":"65535","farm":66,"title":"Pardal-mont\u00eas (Passer montanus)","ispublic":1,"isfriend":0,"isfamily":0},{"id":"52729500043","owner":"128329347@N04","secret":"4ec1e304da","server":"65535","farm":66,"title":"Passer montanus - Eurasian tree sparrow","ispublic":1,"isfriend":0,"isfamily":0},{"id":"52727949018","owner":"12639178@N07","secret":"8412871687","server":"65535","farm":66,"title":"Feldsperling","ispublic":1,"isfriend":0,"isfamily":0},{"id":"52726305220","owner":"12639178@N07","secret":"cb3faa2008","server":"65535","farm":66,"title":"Feldsperling (Passer montanus) (2)","ispublic":1,"isfriend":0,"isfamily":0},{"id":"52726369448","owner":"12639178@N07","secret":"7d807e6aee","server":"65535","farm":66,"title":"alles unter Kontrolle","ispublic":1,"isfriend":0,"isfamily":0},{"id":"52725899559","owner":"186045137@N03","secret":"c09fb334a7","server":"65535","farm":66,"title":"Moineau friquet - Passer montanus - Eurasian Tree Sparrow \/ Astrild ondul\u00e9 - Estrilda astrild - Common Waxbill","ispublic":1,"isfriend":0,"isfamily":0},{"id":"52725448681","owner":"152849394@N05","secret":"49f5549c2b","server":"65535","farm":66,"title":"Tree Sparrow - Passer montanus","ispublic":1,"isfriend":0,"isfamily":0},{"id":"52725323795","owner":"12639178@N07","secret":"a047208e0b","server":"65535","farm":66,"title":"Den Schnabel zu voll genommen","ispublic":1,"isfriend":0,"isfamily":0},{"id":"52780828299","owner":"12639178@N07","secret":"f2356e6bf8","server":"65535","farm":66,"title":"Hier bin ich, hier bleib ich! Feldspatz auf Firmenbedachung","ispublic":1,"isfriend":0,"isfamily":0},{"id":"52780468628","owner":"123521075@N07","secret":"92cd196abb","server":"65535","farm":66,"title":"Tree Sparrow - Passer montanus","ispublic":1,"isfriend":0,"isfamily":0},{"id":"52776609863","owner":"12639178@N07","secret":"ab5726154e","server":"65535","farm":66,"title":"Feldspatz (Passer montanus)","ispublic":1,"isfriend":0,"isfamily":0},{"id":"52769108743","owner":"12639178@N07","secret":"23118bb69f","server":"65535","farm":66,"title":"Feldsperling","ispublic":1,"isfriend":0,"isfamily":0},{"id":"52766185583","owner":"12639178@N07","secret":"88226c3092","server":"65535","farm":66,"title":"Feldsperling..Nestbau","ispublic":1,"isfriend":0,"isfamily":0},{"id":"52762940269","owner":"12639178@N07","secret":"2569884ccb","server":"65535","farm":66,"title":"Feldsperling zu Besuch","ispublic":1,"isfriend":0,"isfamily":0},{"id":"52762147167","owner":"12639178@N07","secret":"a8bc7c6f1f","server":"65535","farm":66,"title":"Feldsperlinge","ispublic":1,"isfriend":0,"isfamily":0},{"id":"52761169556","owner":"12639178@N07","secret":"4488538e9e","server":"65535","farm":66,"title":"Feldspatz (Passer montanus)","ispublic":1,"isfriend":0,"isfamily":0},{"id":"52757496836","owner":"12639178@N07","secret":"64a0ca890c","server":"65535","farm":66,"title":"20230317_Feldspatz","ispublic":1,"isfriend":0,"isfamily":0},{"id":"52741112123","owner":"48014585@N00","secret":"7b084b2360","server":"65535","farm":66,"title":"Eurasian Tree Sparrow preening","ispublic":1,"isfriend":0,"isfamily":0},{"id":"52739144053","owner":"12639178@N07","secret":"1464926318","server":"65535","farm":66,"title":"Feldsperling im Ufergeb\u00fcsch","ispublic":1,"isfriend":0,"isfamily":0}]},"stat":"ok"}