{"photos":{"page":1,"pages":34,"perpage":100,"total":3334,"photo":[{"id":"52720993930","owner":"28764032@N00","secret":"cf8e2a55b9","server":"65535","farm":66,"title":"Evening Grosbeak (Coccothraustes vespertinus), Boulder, Colorado","ispublic":1,"isfriend":0,"isfamily":0},{"id":"52720280621","owner":"76617062@N08","secret":"06eaae2052","server":"65535","farm":66,"title":"1.31045 Gros-bec errant (m\u00e2le) \/ Coccothraustes vespertinus vespertinus \/ Evening Grosbeak","ispublic":1,"isfriend":0,"isfamily":0},{"id":"52719365306","owner":"11020019@N04","secret":"a3f9ae5b19","server":"65535","farm":66,"title":"Evening Grosbeak at Sax-Zim Bog in Meadowlands, Minnesota","ispublic":1,"isfriend":0,"isfamily":0},{"id":"52719788125","owner":"11020019@N04","secret":"c2200b401b","server":"65535","farm":66,"title":"Evening Grosbeak at Sax-Zim Bog in Meadowlands, Minnesota","ispublic":1,"isfriend":0,"isfamily":0},{"id":"52719631859","owner":"11020019@N04","secret":"d2670b30f7","server":"65535","farm":66,"title":"Evening Grosbeak at Sax-Zim Bog in Meadowlands, Minnesota","ispublic":1,"isfriend":0,"isfamily":0},{"id":"52719232806","owner":"14734088@N02","secret":"432d3687b7","server":"65535","farm":66,"title":"Gros-bec errant 220315H5a","ispublic":1,"isfriend":0,"isfamily":0},{"id":"52712634510","owner":"87782155@N04","secret":"a6c356a0ea","server":"65535","farm":66,"title":"Evening Grosbeak","ispublic":1,"isfriend":0,"isfamily":0},{"id":"52701593169","owner":"186604745@N03","secret":"803df9107a","server":"65535","farm":66,"title":"Gros-bec errant \\ Evening Grosbeak","ispublic":1,"isfriend":0,"isfamily":0},{"id":"52701593084","owner":"186604745@N03","secret":"23b158829c","server":"65535","farm":66,"title":"Gros-bec errant \\ Evening Grosbeak","ispublic":1,"isfriend":0,"isfamily":0},{"id":"52697436297","owner":"40724294@N04","secret":"46970a06a6","server":"65535","farm":66,"title":"Evening Grosbeak","ispublic":1,"isfriend":0,"isfamily":0},{"id":"52688861079","owner":"14734088@N02","secret":"85d4fe0715","server":"65535","farm":66,"title":"Gros-bec errant 230212H","ispublic":1,"isfriend":0,"isfamily":0},{"id":"52687712325","owner":"76617062@N08","secret":"3aa0088370","server":"65535","farm":66,"title":"1.31045 Gros-bec errant (m\u00e2le) \/ Coccothraustes vespertinus vespertinus \/ Evening Grosbeak","ispublic":1,"isfriend":0,"isfamily":0},{"id":"52684827677","owner":"48014585@N00","secret":"9b1aa84b84","server":"65535","farm":66,"title":"Evening Grosbeak","ispublic":1,"isfriend":0,"isfamily":0},{"id":"52684827577","owner":"48014585@N00","secret":"89ed7f6f39","server":"65535","farm":66,"title":"Evening Grosbeak","ispublic":1,"isfriend":0,"isfamily":0},{"id":"52685841293","owner":"48014585@N00","secret":"25f040dc4d","server":"65535","farm":66,"title":"Evening Grosbeak","ispublic":1,"isfriend":0,"isfamily":0},{"id":"52685841088","owner":"48014585@N00","secret":"3ab1775db1","server":"65535","farm":66,"title":"Evening Grosbeak","ispublic":1,"isfriend":0,"isfamily":0},{"id":"52685624864","owner":"48014585@N00","secret":"1466c989a3","server":"65535","farm":66,"title":"Evening Grosbeak","ispublic":1,"isfriend":0,"isfamily":0},{"id":"52684807502","owner":"48014585@N00","secret":"ec836b4cf7","server":"65535","farm":66,"title":"Evening Grosbeak","ispublic":1,"isfriend":0,"isfamily":0},{"id":"52684806442","owner":"48014585@N00","secret":"c32a3e7006","server":"65535","farm":66,"title":"Evening Grosbeak","ispublic":1,"isfriend":0,"isfamily":0},{"id":"52685539519","owner":"48014585@N00","secret":"949e661ec9","server":"65535","farm":66,"title":"Evening Grosbeak","ispublic":1,"isfriend":0,"isfamily":0},{"id":"52684742227","owner":"48014585@N00","secret":"725c4173ed","server":"65535","farm":66,"title":"Evening Grosbeak","ispublic":1,"isfriend":0,"isfamily":0},{"id":"52685539249","owner":"48014585@N00","secret":"4191ea8167","server":"65535","farm":66,"title":"Evening Grosbeak","ispublic":1,"isfriend":0,"isfamily":0},{"id":"52684593288","owner":"14734088@N02","secret":"3401947834","server":"65535","farm":66,"title":"Gros-bec errant 230208H2","ispublic":1,"isfriend":0,"isfamily":0},{"id":"52679980462","owner":"39652177@N04","secret":"9d90466244","server":"65535","farm":66,"title":"Evening grosbeak - male","ispublic":1,"isfriend":0,"isfamily":0},{"id":"52680738825","owner":"14734088@N02","secret":"38fd118df2","server":"65535","farm":66,"title":"Gros-bec errant 230208H1","ispublic":1,"isfriend":0,"isfamily":0},{"id":"52673008115","owner":"40724294@N04","secret":"036139f855","server":"65535","farm":66,"title":"A Splash Of Colour","ispublic":1,"isfriend":0,"isfamily":0},{"id":"52428927860","owner":"21456355@N04","secret":"a63fa830d2","server":"65535","farm":66,"title":"Evening Grosbeak atop Feeder","ispublic":1,"isfriend":0,"isfamily":0},{"id":"52667817813","owner":"128537732@N06","secret":"b992bcefdb","server":"65535","farm":66,"title":"Evening Grosbeak (Coccothraustes vespertinus)","ispublic":1,"isfriend":0,"isfamily":0},{"id":"52666817592","owner":"128537732@N06","secret":"2044a67fb5","server":"65535","farm":66,"title":"Evening Grosbeak (Coccothraustes vespertinus)","ispublic":1,"isfriend":0,"isfamily":0},{"id":"52667749710","owner":"128537732@N06","secret":"b0449a2227","server":"65535","farm":66,"title":"Evening Grosbeak (Coccothraustes vespertinus)","ispublic":1,"isfriend":0,"isfamily":0},{"id":"52667749500","owner":"128537732@N06","secret":"16b2b3a693","server":"65535","farm":66,"title":"Evening Grosbeaks (Coccothraustes vespertinus)","ispublic":1,"isfriend":0,"isfamily":0},{"id":"52667137815","owner":"186586946@N05","secret":"11eb620222","server":"65535","farm":66,"title":"Gros-bec errant \\ Evening Grosbeak","ispublic":1,"isfriend":0,"isfamily":0},{"id":"52666206232","owner":"186586946@N05","secret":"53afb51025","server":"65535","farm":66,"title":"Gros-bec errant \\ Evening Grosbeak","ispublic":1,"isfriend":0,"isfamily":0},{"id":"52667137400","owner":"186586946@N05","secret":"73381102df","server":"65535","farm":66,"title":"Gros-bec errant \\ Evening Grosbeak","ispublic":1,"isfriend":0,"isfamily":0},{"id":"52652762491","owner":"7261670@N03","secret":"a45863cbea","server":"65535","farm":66,"title":"Evening Grosbeak","ispublic":1,"isfriend":0,"isfamily":0},{"id":"52652424864","owner":"184155060@N04","secret":"cb64d3295d","server":"65535","farm":66,"title":"30866 Gros-bec errant (m\u00e2le) \/ Coccothraustes vespertinus vespertinus \/ Evening Grosbeak","ispublic":1,"isfriend":0,"isfamily":0},{"id":"52652591220","owner":"184155060@N04","secret":"ae56720fd8","server":"65535","farm":66,"title":"30866 Gros-bec errant (m\u00e2le) \/ Coccothraustes vespertinus vespertinus \/ Evening Grosbeak","ispublic":1,"isfriend":0,"isfamily":0},{"id":"52652148321","owner":"184155060@N04","secret":"bf0183db25","server":"65535","farm":66,"title":"30866 Gros-bec errant (femelle) \/ Coccothraustes vespertinus vespertinus \/ Evening Grosbeak","ispublic":1,"isfriend":0,"isfamily":0},{"id":"52650683128","owner":"76617062@N08","secret":"7273593207","server":"65535","farm":66,"title":"1.31045 Gros-bec errant (femelle) \/ Coccothraustes vespertinus vespertinus \/ Evening Grosbeak","ispublic":1,"isfriend":0,"isfamily":0},{"id":"52645089369","owner":"76617062@N08","secret":"2f097af7fd","server":"65535","farm":66,"title":"1.31045 Gros-bec errant (m\u00e2le) \/ Coccothraustes vespertinus vespertinus \/ Evening Grosbeak","ispublic":1,"isfriend":0,"isfamily":0},{"id":"52639134685","owner":"45715717@N00","secret":"a015a14862","server":"65535","farm":66,"title":"Gros-bec errant,Evening grosbeak,Coccothraustes vespertinus","ispublic":1,"isfriend":0,"isfamily":0},{"id":"52624511037","owner":"76617062@N08","secret":"80f7d1a0d6","server":"65535","farm":66,"title":"1.31045 Gros-bec errant (m\u00e2le) \/ Coccothraustes vespertinus vespertinus \/ Evening Grosbeak","ispublic":1,"isfriend":0,"isfamily":0},{"id":"52624475313","owner":"65148649@N04","secret":"85e5d9a422","server":"65535","farm":66,"title":"Evening Grosbeaks 12.31.22 Baryames","ispublic":1,"isfriend":0,"isfamily":0},{"id":"52623480487","owner":"65148649@N04","secret":"3330120755","server":"65535","farm":66,"title":"Evening Grosbeaks 12.31.22 Frye","ispublic":1,"isfriend":0,"isfamily":0},{"id":"52623480437","owner":"65148649@N04","secret":"33f015a9d0","server":"65535","farm":66,"title":"Evening Grosbeaks 2 12.31.22 Frye","ispublic":1,"isfriend":0,"isfamily":0},{"id":"52623999466","owner":"65148649@N04","secret":"e2848b8dce","server":"65535","farm":66,"title":"Evening Grosbeaks 3 12.31.22 Frye","ispublic":1,"isfriend":0,"isfamily":0},{"id":"52624430330","owner":"65148649@N04","secret":"8c31acaaf6","server":"65535","farm":66,"title":"Evening Grosbeak 12.31.22 Frye","ispublic":1,"isfriend":0,"isfamily":0},{"id":"52624249509","owner":"65148649@N04","secret":"a8a416bac1","server":"65535","farm":66,"title":"Evening Grosbeak 12.31.22 Baryames","ispublic":1,"isfriend":0,"isfamily":0},{"id":"52623480412","owner":"65148649@N04","secret":"5104b86f30","server":"65535","farm":66,"title":"Evening Grosbeak 3 12.31.22 Frye","ispublic":1,"isfriend":0,"isfamily":0},{"id":"52623480377","owner":"65148649@N04","secret":"1a3a0097c9","server":"65535","farm":66,"title":"Evening Grosbeak 2 12.31.22 Frye","ispublic":1,"isfriend":0,"isfamily":0},{"id":"52623999366","owner":"65148649@N04","secret":"3c64c5e63c","server":"65535","farm":66,"title":"Evening Grosbeak 2 12.31.22 Baryames","ispublic":1,"isfriend":0,"isfamily":0},{"id":"52624475028","owner":"65148649@N04","secret":"c97ab7989f","server":"65535","farm":66,"title":"Evening Grosbeaks 2 12.31.22 Baryames","ispublic":1,"isfriend":0,"isfamily":0},{"id":"52624475038","owner":"65148649@N04","secret":"365a37d373","server":"65535","farm":66,"title":"Evening Grosbeaks 4 12.31.22 Anderson_edited","ispublic":1,"isfriend":0,"isfamily":0},{"id":"52624475033","owner":"65148649@N04","secret":"ef2702145c","server":"65535","farm":66,"title":"Evening Grosbeaks 3 12.31.22 Anderson","ispublic":1,"isfriend":0,"isfamily":0},{"id":"52623480122","owner":"65148649@N04","secret":"3bf80667d9","server":"65535","farm":66,"title":"Evening Grosbeaks 2 12.31.22 Anderson","ispublic":1,"isfriend":0,"isfamily":0},{"id":"52623999096","owner":"65148649@N04","secret":"bd97b804fa","server":"65535","farm":66,"title":"Evening Grosbeak 3 12.31.22 Baryames","ispublic":1,"isfriend":0,"isfamily":0},{"id":"52623999116","owner":"65148649@N04","secret":"91ce45ff19","server":"65535","farm":66,"title":"Evening Grosbeak 12.31.22 Anderson","ispublic":1,"isfriend":0,"isfamily":0},{"id":"52624249234","owner":"65148649@N04","secret":"05da36609c","server":"65535","farm":66,"title":"Evening Grosbeak 2 12.31.22 Anderson","ispublic":1,"isfriend":0,"isfamily":0},{"id":"52623405596","owner":"76617062@N08","secret":"43fdd7ecb8","server":"65535","farm":66,"title":"1.31045 Gros-bec errant (m\u00e2le) \/ Coccothraustes vespertinus vespertinus \/ Evening Grosbeak","ispublic":1,"isfriend":0,"isfamily":0},{"id":"52621683040","owner":"76617062@N08","secret":"ed6323e50c","server":"65535","farm":66,"title":"1.31045 Gros-bec errant (m\u00e2le) \/ Coccothraustes vespertinus vespertinus \/ Evening Grosbeak","ispublic":1,"isfriend":0,"isfamily":0},{"id":"52621249276","owner":"76617062@N08","secret":"eaea6f2a8f","server":"65535","farm":66,"title":"1.31045 Gros-bec errant (femelle) \/ Coccothraustes vespertinus vespertinus \/ Evening Grosbeak","ispublic":1,"isfriend":0,"isfamily":0},{"id":"52618548157","owner":"187792860@N04","secret":"c6abd044ca","server":"65535","farm":66,"title":"Evening Grosbeak (Coccothraustes vespertinus)","ispublic":1,"isfriend":0,"isfamily":0},{"id":"52619034711","owner":"187792860@N04","secret":"6347bbf05e","server":"65535","farm":66,"title":"Evening Grosbeak (Coccothraustes vespertinus)","ispublic":1,"isfriend":0,"isfamily":0},{"id":"52619480988","owner":"187792860@N04","secret":"591b96b051","server":"65535","farm":66,"title":"Evening Grosbeak (Coccothraustes vespertinus)","ispublic":1,"isfriend":0,"isfamily":0},{"id":"52618981921","owner":"187792860@N04","secret":"d26782d6dd","server":"65535","farm":66,"title":"Evening Grosbeak (Coccothraustes vespertinus)","ispublic":1,"isfriend":0,"isfamily":0},{"id":"52617106177","owner":"184155060@N04","secret":"d51f477c76","server":"65535","farm":66,"title":"30866 Gros-bec errant (femelle) \/ Coccothraustes vespertinus vespertinus \/ Evening Grosbeak","ispublic":1,"isfriend":0,"isfamily":0},{"id":"52617106262","owner":"184155060@N04","secret":"777d439d0e","server":"65535","farm":66,"title":"30866 Gros-bec errant (couple) \/ Coccothraustes vespertinus vespertinus \/ Evening Grosbeak","ispublic":1,"isfriend":0,"isfamily":0},{"id":"52618053105","owner":"184155060@N04","secret":"101a854be0","server":"65535","farm":66,"title":"30866 Gros-bec errant (m\u00e2le) \/ Coccothraustes vespertinus vespertinus \/ Evening Grosbeak","ispublic":1,"isfriend":0,"isfamily":0},{"id":"52618053070","owner":"184155060@N04","secret":"309a8c12bb","server":"65535","farm":66,"title":"30866 Gros-bec errant (m\u00e2le) \/ Coccothraustes vespertinus vespertinus \/ Evening Grosbeak","ispublic":1,"isfriend":0,"isfamily":0},{"id":"52617106002","owner":"184155060@N04","secret":"a34304dfae","server":"65535","farm":66,"title":"30866 Gros-bec errant (m\u00e2le) \/ Coccothraustes vespertinus vespertinus \/ Evening Grosbeak","ispublic":1,"isfriend":0,"isfamily":0},{"id":"52618052905","owner":"184155060@N04","secret":"37648f5f4b","server":"65535","farm":66,"title":"30866 Gros-bec errant (m\u00e2le) \/ Coccothraustes vespertinus vespertinus \/ Evening Grosbeak","ispublic":1,"isfriend":0,"isfamily":0},{"id":"52616918247","owner":"76617062@N08","secret":"6a5af2d69c","server":"65535","farm":66,"title":"1.31045 Gros-bec errant (m\u00e2le) \/ Coccothraustes vespertinus vespertinus \/ Evening Grosbeak","ispublic":1,"isfriend":0,"isfamily":0},{"id":"52614816042","owner":"76617062@N08","secret":"898f09e118","server":"65535","farm":66,"title":"1.31045 Gros-bec errant (m\u00e2le) \/ Coccothraustes vespertinus vespertinus \/ Evening Grosbeak","ispublic":1,"isfriend":0,"isfamily":0},{"id":"52615585714","owner":"76617062@N08","secret":"f7d87d7d76","server":"65535","farm":66,"title":"1.31045 Gros-bec errant (m\u00e2le) \/ Coccothraustes vespertinus vespertinus \/ Evening Grosbeak","ispublic":1,"isfriend":0,"isfamily":0},{"id":"52613017000","owner":"76617062@N08","secret":"8a0ac48f27","server":"65535","farm":66,"title":"1.31045 Gros-bec errant (femelle) \/ Coccothraustes vespertinus vespertinus \/ Evening Grosbeak","ispublic":1,"isfriend":0,"isfamily":0},{"id":"52612595891","owner":"76617062@N08","secret":"fa8e61cbee","server":"65535","farm":66,"title":"1.31045 Gros-bec errant (m\u00e2le) \/ Coccothraustes vespertinus vespertinus \/ Evening Grosbeak","ispublic":1,"isfriend":0,"isfamily":0},{"id":"52611165368","owner":"76617062@N08","secret":"3db45e083a","server":"65535","farm":66,"title":"1.31045 Gros-bec errant (m\u00e2le) \/ Coccothraustes vespertinus vespertinus \/ Evening Grosbeak","ispublic":1,"isfriend":0,"isfamily":0},{"id":"52608523612","owner":"76617062@N08","secret":"c52dc1d0d3","server":"65535","farm":66,"title":"1.31045 Gros-bec errant (m\u00e2le) \/ Coccothraustes vespertinus vespertinus \/ Evening Grosbeak","ispublic":1,"isfriend":0,"isfamily":0},{"id":"52606422867","owner":"76617062@N08","secret":"cd4c17b043","server":"65535","farm":66,"title":"1.31045 Gros-bec errant \/ Coccothraustes vespertinus vespertinus \/ Evening Grosbeak","ispublic":1,"isfriend":0,"isfamily":0},{"id":"52603953057","owner":"76617062@N08","secret":"533827be38","server":"65535","farm":66,"title":"1.31045 Gros-bec errant \/ Coccothraustes vespertinus vespertinus \/ Evening Grosbeak","ispublic":1,"isfriend":0,"isfamily":0},{"id":"52604516269","owner":"92361032@N05","secret":"1b82dd322a","server":"65535","farm":66,"title":"Evening Grosbeak Female \/ Grosbec errant Femelle ( Diane )","ispublic":1,"isfriend":0,"isfamily":0},{"id":"52602761890","owner":"76617062@N08","secret":"3bbdc3e397","server":"65535","farm":66,"title":"1.31045 Gros-bec errant (m\u00e2le) \/ Coccothraustes vespertinus vespertinus \/ Evening Grosbeak","ispublic":1,"isfriend":0,"isfamily":0},{"id":"52601242036","owner":"48014585@N00","secret":"9ba6123f07","server":"65535","farm":66,"title":"Evening Grosbeak","ispublic":1,"isfriend":0,"isfamily":0},{"id":"52600747967","owner":"48014585@N00","secret":"2e0b827648","server":"65535","farm":66,"title":"Evening Grosbeak","ispublic":1,"isfriend":0,"isfamily":0},{"id":"52601241756","owner":"48014585@N00","secret":"20828400a8","server":"65535","farm":66,"title":"Evening Grosbeak","ispublic":1,"isfriend":0,"isfamily":0},{"id":"52601666395","owner":"48014585@N00","secret":"481bb8ec10","server":"65535","farm":66,"title":"Evening Grosbeak","ispublic":1,"isfriend":0,"isfamily":0},{"id":"52601758273","owner":"48014585@N00","secret":"ee59cf72e3","server":"65535","farm":66,"title":"Evening Grosbeak","ispublic":1,"isfriend":0,"isfamily":0},{"id":"52601241251","owner":"48014585@N00","secret":"a1ba9d23a2","server":"65535","farm":66,"title":"Evening Grosbeak","ispublic":1,"isfriend":0,"isfamily":0},{"id":"52601241136","owner":"48014585@N00","secret":"88991572d0","server":"65535","farm":66,"title":"Evening Grosbeak","ispublic":1,"isfriend":0,"isfamily":0},{"id":"52601501379","owner":"48014585@N00","secret":"b7966fb538","server":"65535","farm":66,"title":"Evening Grosbeak","ispublic":1,"isfriend":0,"isfamily":0},{"id":"52601501254","owner":"48014585@N00","secret":"4131570bd1","server":"65535","farm":66,"title":"Evening Grosbeak","ispublic":1,"isfriend":0,"isfamily":0},{"id":"52600744592","owner":"48014585@N00","secret":"05d6954567","server":"65535","farm":66,"title":"Evening Grosbeak","ispublic":1,"isfriend":0,"isfamily":0},{"id":"52601755168","owner":"48014585@N00","secret":"14ae21d94b","server":"65535","farm":66,"title":"Evening Grosbeak","ispublic":1,"isfriend":0,"isfamily":0},{"id":"52601754973","owner":"48014585@N00","secret":"aeaf288750","server":"65535","farm":66,"title":"Evening Grosbeak","ispublic":1,"isfriend":0,"isfamily":0},{"id":"52601754493","owner":"48014585@N00","secret":"ae52d24f51","server":"65535","farm":66,"title":"Evening Grosbeak","ispublic":1,"isfriend":0,"isfamily":0},{"id":"52651420016","owner":"65148649@N04","secret":"61d260d571","server":"65535","farm":66,"title":"Evening Grosbeak 2 01.14.23 Zaun","ispublic":1,"isfriend":0,"isfamily":0},{"id":"52651693329","owner":"65148649@N04","secret":"22a9664aee","server":"65535","farm":66,"title":"Evening Grosbeak 01.14.23 Zaun","ispublic":1,"isfriend":0,"isfamily":0},{"id":"52601755318","owner":"48014585@N00","secret":"70e88627eb","server":"65535","farm":66,"title":"Evening Grosbeak","ispublic":1,"isfriend":0,"isfamily":0},{"id":"52601500584","owner":"48014585@N00","secret":"811e5d8085","server":"65535","farm":66,"title":"Evening Grosbeak","ispublic":1,"isfriend":0,"isfamily":0},{"id":"52601754563","owner":"48014585@N00","secret":"6d299f94f4","server":"65535","farm":66,"title":"Evening Grosbeak","ispublic":1,"isfriend":0,"isfamily":0}]},"stat":"ok"}