{"photos":{"page":1,"pages":8,"perpage":100,"total":780,"photo":[{"id":"52756529591","owner":"28562920@N02","secret":"3b25f465f8","server":"65535","farm":66,"title":"Far Eastern Curlew","ispublic":1,"isfriend":0,"isfamily":0},{"id":"52729303051","owner":"63175631@N02","secret":"45ff32a485","server":"65535","farm":66,"title":"Far Eastern Curlew (Numenius madagascariensis)","ispublic":1,"isfriend":0,"isfamily":0},{"id":"52721745732","owner":"90408688@N02","secret":"0ec100a028","server":"65535","farm":66,"title":"Numenius madagascariensis - Eastern Curlew","ispublic":1,"isfriend":0,"isfamily":0},{"id":"52713976122","owner":"63175631@N02","secret":"dbafba5e22","server":"65535","farm":66,"title":"Far Eastern Curlew (Numenius madagascariensis)","ispublic":1,"isfriend":0,"isfamily":0},{"id":"52704496078","owner":"25928547@N08","secret":"7b18c340b8","server":"65535","farm":66,"title":"Grey-tailed Tattler","ispublic":1,"isfriend":0,"isfamily":0},{"id":"52700666937","owner":"25928547@N08","secret":"eaa806c0cf","server":"65535","farm":66,"title":"Eastern Curlew","ispublic":1,"isfriend":0,"isfamily":0},{"id":"52694133234","owner":"25928547@N08","secret":"8a86c7ae00","server":"65535","farm":66,"title":"Eastern Curlew","ispublic":1,"isfriend":0,"isfamily":0},{"id":"52677906306","owner":"90408688@N02","secret":"a6bce47a79","server":"65535","farm":66,"title":"Numenius madagascariensis - Eastern Curlew","ispublic":1,"isfriend":0,"isfamily":0},{"id":"52665533756","owner":"163930705@N05","secret":"fd98cd11c5","server":"65535","farm":66,"title":"(Far) Eastern Curlew \/ Am\u00farsp\u00f3i (Numenius madagascariensis)","ispublic":1,"isfriend":0,"isfamily":0},{"id":"52623069387","owner":"40195635@N03","secret":"01c4b8f8c3","server":"65535","farm":66,"title":"Far Eastern Curlew (Numenius madagascariensis)","ispublic":1,"isfriend":0,"isfamily":0},{"id":"52556007144","owner":"28562920@N02","secret":"4eeec72e9b","server":"65535","farm":66,"title":"Far Eastern Curlew","ispublic":1,"isfriend":0,"isfamily":0},{"id":"52477978616","owner":"90408688@N02","secret":"6dc6647524","server":"65535","farm":66,"title":"Numenius madagascariensis - Eastern Curlew","ispublic":1,"isfriend":0,"isfamily":0},{"id":"52424840030","owner":"29826595@N06","secret":"b78b9b0bff","server":"65535","farm":66,"title":"Australian Waders","ispublic":1,"isfriend":0,"isfamily":0},{"id":"52410119294","owner":"195263598@N04","secret":"27f20c94d8","server":"65535","farm":66,"title":"Far Eastern Curlew","ispublic":1,"isfriend":0,"isfamily":0},{"id":"52321316331","owner":"137103568@N04","secret":"a6b9b195f9","server":"65535","farm":66,"title":"Far Eastern Curlew (Numenius madgascariensis) and Eurasian Whimbrel (N. phaeopus)","ispublic":1,"isfriend":0,"isfamily":0},{"id":"52301135754","owner":"154657265@N08","secret":"cc65cce806","server":"65535","farm":66,"title":"Eastern Curlew (Numenius madagascariensis) (centre and lower) and Australian Pied Oystercatcher","ispublic":1,"isfriend":0,"isfamily":0},{"id":"52299883092","owner":"154657265@N08","secret":"0d66d01457","server":"65535","farm":66,"title":"Eastern Curlew (Numenius madagascariensis) (upper) and Australian Pied Oystercatcher","ispublic":1,"isfriend":0,"isfamily":0},{"id":"52300039076","owner":"132431122@N05","secret":"b414c7cc5e","server":"65535","farm":66,"title":"Eastern Curlew","ispublic":1,"isfriend":0,"isfamily":0},{"id":"52288645501","owner":"80648919@N08","secret":"9c9829f019","server":"65535","farm":66,"title":"Far Eastern Curlew","ispublic":1,"isfriend":0,"isfamily":0},{"id":"52284997190","owner":"28562920@N02","secret":"e90ca0de19","server":"65535","farm":66,"title":"Far Eastern Curlew","ispublic":1,"isfriend":0,"isfamily":0},{"id":"52272097650","owner":"132431122@N05","secret":"11a5d31805","server":"65535","farm":66,"title":"Eastern Curlew","ispublic":1,"isfriend":0,"isfamily":0},{"id":"52271605141","owner":"132431122@N05","secret":"445f349ac5","server":"65535","farm":66,"title":"Eastern Curlew","ispublic":1,"isfriend":0,"isfamily":0},{"id":"52270639437","owner":"132431122@N05","secret":"48a32f53a7","server":"65535","farm":66,"title":"Eastern Curlew","ispublic":1,"isfriend":0,"isfamily":0},{"id":"51988459449","owner":"26822473@N06","secret":"85c03b81b2","server":"65535","farm":66,"title":"Far Eastern Curlew (Numenius madagascariensis)","ispublic":1,"isfriend":0,"isfamily":0},{"id":"51988233538","owner":"26822473@N06","secret":"cab4f2c061","server":"65535","farm":66,"title":"Far Eastern Curlew (Numenius madagascariensis)","ispublic":1,"isfriend":0,"isfamily":0},{"id":"51928975022","owner":"195156299@N04","secret":"c0bc192929","server":"65535","farm":66,"title":"Numenius madagascariensis","ispublic":1,"isfriend":0,"isfamily":0},{"id":"51902816616","owner":"32136583@N04","secret":"81e6ccc41a","server":"65535","farm":66,"title":"Far Eastern Curlew","ispublic":1,"isfriend":0,"isfamily":0},{"id":"51886771225","owner":"139954624@N05","secret":"4cc4f0a4c9","server":"65535","farm":66,"title":"Far Eastern Curlew Numenius madagascariensis","ispublic":1,"isfriend":0,"isfamily":0},{"id":"51874293267","owner":"151677249@N08","secret":"93bb4f4090","server":"65535","farm":66,"title":"Eastern Curlew (Numenius madagascariensis)","ispublic":1,"isfriend":0,"isfamily":0},{"id":"51869590630","owner":"113679267@N08","secret":"6e06396d87","server":"65535","farm":66,"title":"Eastern Curlew (Numenius madagascariensis) + Whimbrel (Numenius phaeopus)","ispublic":1,"isfriend":0,"isfamily":0},{"id":"51865452841","owner":"132431122@N05","secret":"e7d68c8cfe","server":"65535","farm":66,"title":"Eastern Curlew","ispublic":1,"isfriend":0,"isfamily":0},{"id":"51815668393","owner":"28786551@N04","secret":"25af057d78","server":"65535","farm":66,"title":"Far Eastern Curlew","ispublic":1,"isfriend":0,"isfamily":0},{"id":"49280186012","owner":"25572396@N04","secret":"1d5b2c65f9","server":"65535","farm":66,"title":"Far Eastern Curlew (Numenius madagascariensis)","ispublic":1,"isfriend":0,"isfamily":0},{"id":"49277060003","owner":"25572396@N04","secret":"9c7909e5d4","server":"65535","farm":66,"title":"Far Eastern Curlew (Numenius madagascariensis)","ispublic":1,"isfriend":0,"isfamily":0},{"id":"51685999434","owner":"40195635@N03","secret":"1ae3b37f7f","server":"65535","farm":66,"title":"Far Eastern Curlew (Numenius madagascariensis)","ispublic":1,"isfriend":0,"isfamily":0},{"id":"51487673927","owner":"28562920@N02","secret":"74d3a13394","server":"65535","farm":66,"title":"Far Eastern Curlew","ispublic":1,"isfriend":0,"isfamily":0},{"id":"51489093585","owner":"164980878@N03","secret":"a2e527be97","server":"65535","farm":66,"title":"AE3I6514","ispublic":1,"isfriend":0,"isfamily":0},{"id":"51487375817","owner":"164980878@N03","secret":"e95141be3e","server":"65535","farm":66,"title":"AE3I6536","ispublic":1,"isfriend":0,"isfamily":0},{"id":"51488346448","owner":"164980878@N03","secret":"83b9cf3857","server":"65535","farm":66,"title":"AE3I6531","ispublic":1,"isfriend":0,"isfamily":0},{"id":"51306530204","owner":"142083658@N05","secret":"b1480b9eb1","server":"65535","farm":66,"title":"Eastern Curlew, Numenius madagascariensis, \u0414\u0430\u043b\u044c\u043d\u0435\u0432\u043e\u0441\u0442\u043e\u0447\u043d\u044b\u0439 \u043a\u0440\u043e\u043d\u0448\u043d\u0435\u043f","ispublic":1,"isfriend":0,"isfamily":0},{"id":"51282861286","owner":"38356169@N07","secret":"5f1ff820cb","server":"65535","farm":66,"title":"Eastern Curlew","ispublic":1,"isfriend":0,"isfamily":0},{"id":"51232896647","owner":"61021753@N02","secret":"5fb0cd5375","server":"65535","farm":66,"title":"n338_w1150","ispublic":1,"isfriend":0,"isfamily":0},{"id":"51217282443","owner":"142083658@N05","secret":"07b1baa908","server":"65535","farm":66,"title":"Eastern Curlew, Numenius madagascariensis, \u0414\u0430\u043b\u044c\u043d\u0435\u0432\u043e\u0441\u0442\u043e\u0447\u043d\u044b\u0439 \u043a\u0440\u043e\u043d\u0448\u043d\u0435\u043f","ispublic":1,"isfriend":0,"isfamily":0},{"id":"51179467816","owner":"75814310@N04","secret":"6647b64bc2","server":"65535","farm":66,"title":"1O4A8067","ispublic":1,"isfriend":0,"isfamily":0},{"id":"51162645012","owner":"127542576@N05","secret":"9e3dd0021d","server":"65535","farm":66,"title":"\u9ee6\u9df8\u3014\u7d05\u8170\u6753\u9df8\u3015 (Numenius madagascariensis#Far Eastern Curlew)","ispublic":1,"isfriend":0,"isfamily":0},{"id":"52589713244","owner":"197100377@N05","secret":"5813d46cdb","server":"65535","farm":66,"title":"Far Eastern Curlew (Numenius madagascariensis)","ispublic":1,"isfriend":0,"isfamily":0},{"id":"52511193426","owner":"146833745@N04","secret":"3460cbfa47","server":"65535","farm":66,"title":"Far Eastern Curlew (Numenius madagascariensis)","ispublic":1,"isfriend":0,"isfamily":0},{"id":"52327422632","owner":"90408688@N02","secret":"f26d4291e3","server":"65535","farm":66,"title":"Numenius madagascariensis - Eastern Curlew","ispublic":1,"isfriend":0,"isfamily":0},{"id":"52246815569","owner":"90408688@N02","secret":"ff69f26bd6","server":"65535","farm":66,"title":"Numenius madagascariensis - Eastern Curlew","ispublic":1,"isfriend":0,"isfamily":0},{"id":"51887333347","owner":"90408688@N02","secret":"37211103eb","server":"65535","farm":66,"title":"Numenius madagascariensis - Eastern Curlew","ispublic":1,"isfriend":0,"isfamily":0},{"id":"51778493009","owner":"151789887@N03","secret":"4938a3ef91","server":"65535","farm":66,"title":"Lou271221Nm1","ispublic":1,"isfriend":0,"isfamily":0},{"id":"51678011861","owner":"28562920@N02","secret":"9138683b28","server":"65535","farm":66,"title":"Far Eastern Curlew","ispublic":1,"isfriend":0,"isfamily":0},{"id":"51648717368","owner":"194274402@N06","secret":"5ca39564a8","server":"65535","farm":66,"title":"Far Eastern Curlews (Numenius madagascariensis)","ispublic":1,"isfriend":0,"isfamily":0},{"id":"51649348700","owner":"194274402@N06","secret":"6559e65619","server":"65535","farm":66,"title":"Mixed shorebirds \/ waders including Far Eastern Curlew (Numenius madagascariensis)","ispublic":1,"isfriend":0,"isfamily":0},{"id":"51597837711","owner":"90408688@N02","secret":"4c914239d6","server":"65535","farm":66,"title":"Numenius madagascariensis - Eastern Curlew","ispublic":1,"isfriend":0,"isfamily":0},{"id":"51597837201","owner":"90408688@N02","secret":"5e39faa881","server":"65535","farm":66,"title":"Numenius madagascariensis - Eastern Curlew and Egretta novaehollandiae - White-faced Heron","ispublic":1,"isfriend":0,"isfamily":0},{"id":"51542319507","owner":"149433238@N03","secret":"48b0bc1e8b","server":"65535","farm":66,"title":"Eurasian Curlew - (Numenius arquata)","ispublic":1,"isfriend":0,"isfamily":0},{"id":"51508866067","owner":"90408688@N02","secret":"4a0dc16a62","server":"65535","farm":66,"title":"Numenius madagascariensis - Eastern Curlew","ispublic":1,"isfriend":0,"isfamily":0},{"id":"51488838994","owner":"164980878@N03","secret":"6d8f32492c","server":"65535","farm":66,"title":"AE3I3831","ispublic":1,"isfriend":0,"isfamily":0},{"id":"51488838219","owner":"164980878@N03","secret":"e9157206cb","server":"65535","farm":66,"title":"AE3I6120","ispublic":1,"isfriend":0,"isfamily":0},{"id":"51417945242","owner":"90408688@N02","secret":"62510e9fce","server":"65535","farm":66,"title":"Numenius madagascariensis - Eastern Curlew","ispublic":1,"isfriend":0,"isfamily":0},{"id":"51418686236","owner":"90408688@N02","secret":"066ef2b2aa","server":"65535","farm":66,"title":"Numenius madagascariensis - Eastern Curlew","ispublic":1,"isfriend":0,"isfamily":0},{"id":"51377709254","owner":"90408688@N02","secret":"47dd2b6d6d","server":"65535","farm":66,"title":"Numenius madagascariensis - Eastern Curlew","ispublic":1,"isfriend":0,"isfamily":0},{"id":"51270632015","owner":"142083658@N05","secret":"05263f39b3","server":"65535","farm":66,"title":"Eastern Curlew, Numenius madagascariensis, \u0414\u0430\u043b\u044c\u043d\u0435\u0432\u043e\u0441\u0442\u043e\u0447\u043d\u044b\u0439 \u043a\u0440\u043e\u043d\u0448\u043d\u0435\u043f","ispublic":1,"isfriend":0,"isfamily":0},{"id":"51164716278","owner":"38356169@N07","secret":"97951a206d","server":"65535","farm":66,"title":"Eastern Curlew","ispublic":1,"isfriend":0,"isfamily":0},{"id":"51163551718","owner":"127542576@N05","secret":"580b43e5d4","server":"65535","farm":66,"title":"\u9ee6\u9df8\u3014\u7d05\u8170\u6753\u9df8\u3015 (Numenius madagascariensis#Far Eastern Curlew)","ispublic":1,"isfriend":0,"isfamily":0},{"id":"51164413105","owner":"127542576@N05","secret":"93849563bd","server":"65535","farm":66,"title":"\u9ee6\u9df8\u3014\u7d05\u8170\u6753\u9df8\u3015 (Numenius madagascariensis#Far Eastern Curlew)","ispublic":1,"isfriend":0,"isfamily":0},{"id":"51164095504","owner":"127542576@N05","secret":"0c62f674be","server":"65535","farm":66,"title":"\u9ee6\u9df8\u3014\u7d05\u8170\u6753\u9df8\u3015 (Numenius madagascariensis#Far Eastern Curlew)","ispublic":1,"isfriend":0,"isfamily":0},{"id":"51163308821","owner":"127542576@N05","secret":"206bd41cfb","server":"65535","farm":66,"title":"\u9ee6\u9df8\u3014\u7d05\u8170\u6753\u9df8\u3015 (Numenius madagascariensis#Far Eastern Curlew)","ispublic":1,"isfriend":0,"isfamily":0},{"id":"51164095464","owner":"127542576@N05","secret":"56cb3fe5e4","server":"65535","farm":66,"title":"\u9ee6\u9df8\u3014\u7d05\u8170\u6753\u9df8\u3015 (Numenius madagascariensis#Far Eastern Curlew)","ispublic":1,"isfriend":0,"isfamily":0},{"id":"51138364490","owner":"96060626@N03","secret":"0b89ee3510","server":"0","farm":0,"title":"20210418\u9ee6\u9e6c","ispublic":1,"isfriend":0,"isfamily":0},{"id":"51138368905","owner":"96060626@N03","secret":"b64acfcc08","server":"65535","farm":66,"title":"20210418\u9ee6\u9e6c (28)","ispublic":1,"isfriend":0,"isfamily":0},{"id":"51137478868","owner":"96060626@N03","secret":"95204b5a6d","server":"65535","farm":66,"title":"20210418\u9ee6\u9e6c (29)","ispublic":1,"isfriend":0,"isfamily":0},{"id":"51138368610","owner":"96060626@N03","secret":"263038ddcf","server":"65535","farm":66,"title":"20210418\u9ee6\u9e6c (30)","ispublic":1,"isfriend":0,"isfamily":0},{"id":"51138037664","owner":"96060626@N03","secret":"937d4c99ec","server":"65535","farm":66,"title":"20210418\u9ee6\u9e6c (1)","ispublic":1,"isfriend":0,"isfamily":0},{"id":"51138037524","owner":"96060626@N03","secret":"bb810ded76","server":"65535","farm":66,"title":"20210418\u9ee6\u9e6c (2)","ispublic":1,"isfriend":0,"isfamily":0},{"id":"51138037334","owner":"96060626@N03","secret":"f936ab5d87","server":"65535","farm":66,"title":"20210418\u9ee6\u9e6c (3)","ispublic":1,"isfriend":0,"isfamily":0},{"id":"51137260196","owner":"96060626@N03","secret":"4a9ddd8cb3","server":"65535","farm":66,"title":"20210418\u9ee6\u9e6c (4)","ispublic":1,"isfriend":0,"isfamily":0},{"id":"51137260006","owner":"96060626@N03","secret":"9ceae9921d","server":"65535","farm":66,"title":"20210418\u9ee6\u9e6c (5)","ispublic":1,"isfriend":0,"isfamily":0},{"id":"51137477728","owner":"96060626@N03","secret":"a9518e953a","server":"65535","farm":66,"title":"20210418\u9ee6\u9e6c (6)","ispublic":1,"isfriend":0,"isfamily":0},{"id":"51137477608","owner":"96060626@N03","secret":"8b9edb0118","server":"65535","farm":66,"title":"20210418\u9ee6\u9e6c (7)","ispublic":1,"isfriend":0,"isfamily":0},{"id":"51137259491","owner":"96060626@N03","secret":"dbaed95c0d","server":"65535","farm":66,"title":"20210418\u9ee6\u9e6c (8)","ispublic":1,"isfriend":0,"isfamily":0},{"id":"51138036324","owner":"96060626@N03","secret":"4f4c3f8d3d","server":"65535","farm":66,"title":"20210418\u9ee6\u9e6c (9)","ispublic":1,"isfriend":0,"isfamily":0},{"id":"51138366980","owner":"96060626@N03","secret":"3d0d12cfca","server":"65535","farm":66,"title":"20210418\u9ee6\u9e6c (10)","ispublic":1,"isfriend":0,"isfamily":0},{"id":"51138366850","owner":"96060626@N03","secret":"fcf2b8a32f","server":"65535","farm":66,"title":"20210418\u9ee6\u9e6c (11)","ispublic":1,"isfriend":0,"isfamily":0},{"id":"51136583847","owner":"96060626@N03","secret":"4959fc224b","server":"65535","farm":66,"title":"20210418\u9ee6\u9e6c (12)","ispublic":1,"isfriend":0,"isfamily":0},{"id":"51138035719","owner":"96060626@N03","secret":"4949c52358","server":"65535","farm":66,"title":"20210418\u9ee6\u9e6c (13)","ispublic":1,"isfriend":0,"isfamily":0},{"id":"51138366400","owner":"96060626@N03","secret":"779b3bfa24","server":"65535","farm":66,"title":"20210418\u9ee6\u9e6c (14)","ispublic":1,"isfriend":0,"isfamily":0},{"id":"51138366285","owner":"96060626@N03","secret":"d1a349690a","server":"65535","farm":66,"title":"20210418\u9ee6\u9e6c (15)","ispublic":1,"isfriend":0,"isfamily":0},{"id":"51137476143","owner":"96060626@N03","secret":"bcb4de5f84","server":"65535","farm":66,"title":"20210418\u9ee6\u9e6c (17)","ispublic":1,"isfriend":0,"isfamily":0},{"id":"51138034984","owner":"96060626@N03","secret":"2dcb44ceaa","server":"65535","farm":66,"title":"20210418\u9ee6\u9e6c (18)","ispublic":1,"isfriend":0,"isfamily":0},{"id":"51138034869","owner":"96060626@N03","secret":"10a07bb808","server":"65535","farm":66,"title":"20210418\u9ee6\u9e6c (19)","ispublic":1,"isfriend":0,"isfamily":0},{"id":"51138034754","owner":"96060626@N03","secret":"1aa759cc8b","server":"65535","farm":66,"title":"20210418\u9ee6\u9e6c (20)","ispublic":1,"isfriend":0,"isfamily":0},{"id":"51138365395","owner":"96060626@N03","secret":"a203ebc58f","server":"65535","farm":66,"title":"20210418\u9ee6\u9e6c (21)","ispublic":1,"isfriend":0,"isfamily":0},{"id":"51138365240","owner":"96060626@N03","secret":"7af54de7a5","server":"65535","farm":66,"title":"20210418\u9ee6\u9e6c (22)","ispublic":1,"isfriend":0,"isfamily":0},{"id":"51138365105","owner":"96060626@N03","secret":"cfc76a10ff","server":"65535","farm":66,"title":"20210418\u9ee6\u9e6c (23)","ispublic":1,"isfriend":0,"isfamily":0},{"id":"51137257126","owner":"96060626@N03","secret":"21029b0f43","server":"65535","farm":66,"title":"20210418\u9ee6\u9e6c (25)","ispublic":1,"isfriend":0,"isfamily":0},{"id":"51137474878","owner":"96060626@N03","secret":"7acb3aa639","server":"65535","farm":66,"title":"20210418\u9ee6\u9e6c (26)","ispublic":1,"isfriend":0,"isfamily":0},{"id":"51138032684","owner":"96060626@N03","secret":"ee39fc2f6b","server":"65535","farm":66,"title":"20210418\u9ee6\u9e6c (27)","ispublic":1,"isfriend":0,"isfamily":0},{"id":"51118712613","owner":"100585743@N03","secret":"e49f8fd468","server":"65535","farm":66,"title":"\u9ee6\u9df8","ispublic":1,"isfriend":0,"isfamily":0}]},"stat":"ok"}