{"photos":{"page":1,"pages":14,"perpage":100,"total":1381,"photo":[{"id":"52639474166","owner":"10665268@N04","secret":"82de461f4e","server":"65535","farm":66,"title":"Field Sparrow, Polk Co., OR_7189(1)","ispublic":1,"isfriend":0,"isfamily":0},{"id":"52504524040","owner":"49114357@N08","secret":"624439148c","server":"65535","farm":66,"title":"Field Sparrow","ispublic":1,"isfriend":0,"isfamily":0},{"id":"52583222936","owner":"76288515@N07","secret":"8545c10d1b","server":"65535","farm":66,"title":"Field Sparrow Spizella pusilla","ispublic":1,"isfriend":0,"isfamily":0},{"id":"52583222891","owner":"76288515@N07","secret":"28f61644a1","server":"65535","farm":66,"title":"Field Sparrow Spizella pusilla","ispublic":1,"isfriend":0,"isfamily":0},{"id":"52583737283","owner":"76288515@N07","secret":"351ab4ea7e","server":"65535","farm":66,"title":"Field Sparrow Spizella pusilla","ispublic":1,"isfriend":0,"isfamily":0},{"id":"52583222751","owner":"76288515@N07","secret":"1c5b7f7825","server":"65535","farm":66,"title":"Field Sparrow Spizella pusilla","ispublic":1,"isfriend":0,"isfamily":0},{"id":"52582758417","owner":"76288515@N07","secret":"57bc82d648","server":"65535","farm":66,"title":"Field Sparrow Spizella pusilla","ispublic":1,"isfriend":0,"isfamily":0},{"id":"52581930892","owner":"33610210@N05","secret":"be80f8dc3c","server":"65535","farm":66,"title":"Field Sparrow, Spizella pusilla","ispublic":1,"isfriend":0,"isfamily":0},{"id":"52580577464","owner":"153973412@N04","secret":"4af7bf973a","server":"65535","farm":66,"title":"Field Sparrow-Spizella pusilla, Iowa City, IA","ispublic":1,"isfriend":0,"isfamily":0},{"id":"52558688902","owner":"194903193@N03","secret":"b7605a5380","server":"65535","farm":66,"title":"Field Sparrow along the French Broad River","ispublic":1,"isfriend":0,"isfamily":0},{"id":"52549209803","owner":"39177293@N03","secret":"b02e251c79","server":"65535","farm":66,"title":"Field Sparrow","ispublic":1,"isfriend":0,"isfamily":0},{"id":"52516322633","owner":"39445433@N02","secret":"27e884e9ed","server":"65535","farm":66,"title":"Field Sparrow","ispublic":1,"isfriend":0,"isfamily":0},{"id":"52513404825","owner":"39445433@N02","secret":"ec15fe1732","server":"65535","farm":66,"title":"Field Sparrow","ispublic":1,"isfriend":0,"isfamily":0},{"id":"52494893500","owner":"39177293@N03","secret":"c6e14965fb","server":"65535","farm":66,"title":"Field Sparrow","ispublic":1,"isfriend":0,"isfamily":0},{"id":"52494868305","owner":"39177293@N03","secret":"c63390de94","server":"65535","farm":66,"title":"Field Sparrow","ispublic":1,"isfriend":0,"isfamily":0},{"id":"52448846927","owner":"135315828@N06","secret":"37d7c7dcf2","server":"65535","farm":66,"title":"field sparrow","ispublic":1,"isfriend":0,"isfamily":0},{"id":"52447453901","owner":"120449047@N06","secret":"697385973f","server":"65535","farm":66,"title":"Field Sparrow","ispublic":1,"isfriend":0,"isfamily":0},{"id":"52440532621","owner":"69387367@N05","secret":"ca9112e276","server":"65535","farm":66,"title":"Field_Sparrow_5543oe","ispublic":1,"isfriend":0,"isfamily":0},{"id":"52440317975","owner":"130605131@N08","secret":"272248c74f","server":"65535","farm":66,"title":"IMG_2523","ispublic":1,"isfriend":0,"isfamily":0},{"id":"52440142539","owner":"130605131@N08","secret":"4764d0672c","server":"65535","farm":66,"title":"IMG_2524","ispublic":1,"isfriend":0,"isfamily":0},{"id":"52440317920","owner":"130605131@N08","secret":"aeb27e08b6","server":"65535","farm":66,"title":"IMG_2525","ispublic":1,"isfriend":0,"isfamily":0},{"id":"52440386038","owner":"130605131@N08","secret":"6b7113d8b2","server":"65535","farm":66,"title":"IMG_2526","ispublic":1,"isfriend":0,"isfamily":0},{"id":"52440385973","owner":"130605131@N08","secret":"1425201d35","server":"65535","farm":66,"title":"IMG_2528","ispublic":1,"isfriend":0,"isfamily":0},{"id":"52439362247","owner":"130605131@N08","secret":"d46290ccf4","server":"65535","farm":66,"title":"IMG_2529","ispublic":1,"isfriend":0,"isfamily":0},{"id":"52440385868","owner":"130605131@N08","secret":"1f6abc2b25","server":"65535","farm":66,"title":"IMG_2530","ispublic":1,"isfriend":0,"isfamily":0},{"id":"52440385813","owner":"130605131@N08","secret":"b6a2f0ba41","server":"65535","farm":66,"title":"IMG_2531","ispublic":1,"isfriend":0,"isfamily":0},{"id":"52439362117","owner":"130605131@N08","secret":"a9969948f6","server":"65535","farm":66,"title":"IMG_2532","ispublic":1,"isfriend":0,"isfamily":0},{"id":"52440317655","owner":"130605131@N08","secret":"a1f2151b7e","server":"65535","farm":66,"title":"IMG_2535","ispublic":1,"isfriend":0,"isfamily":0},{"id":"52427401265","owner":"145466593@N08","secret":"0bbe5b0cb3","server":"65535","farm":66,"title":"Field Sparrow","ispublic":1,"isfriend":0,"isfamily":0},{"id":"52418545674","owner":"59770980@N02","secret":"4c1d2185bf","server":"65535","farm":66,"title":"Akurtitlingur-Field Sparrow-Spizella pusilla","ispublic":1,"isfriend":0,"isfamily":0},{"id":"52385686168","owner":"130605131@N08","secret":"ecd8a6c085","server":"65535","farm":66,"title":"IMG_2245","ispublic":1,"isfriend":0,"isfamily":0},{"id":"52385444761","owner":"130605131@N08","secret":"8eb46f3a0c","server":"65535","farm":66,"title":"IMG_2246","ispublic":1,"isfriend":0,"isfamily":0},{"id":"52385444656","owner":"130605131@N08","secret":"2f22b8568b","server":"65535","farm":66,"title":"IMG_2247","ispublic":1,"isfriend":0,"isfamily":0},{"id":"52385685893","owner":"130605131@N08","secret":"122f1ca8d6","server":"65535","farm":66,"title":"IMG_2248","ispublic":1,"isfriend":0,"isfamily":0},{"id":"52384514587","owner":"130605131@N08","secret":"c047f9d7ba","server":"65535","farm":66,"title":"IMG_2249","ispublic":1,"isfriend":0,"isfamily":0},{"id":"52385444521","owner":"130605131@N08","secret":"50c8224417","server":"65535","farm":66,"title":"IMG_2251","ispublic":1,"isfriend":0,"isfamily":0},{"id":"52385877880","owner":"130605131@N08","secret":"78d627922b","server":"65535","farm":66,"title":"IMG_2252","ispublic":1,"isfriend":0,"isfamily":0},{"id":"52385685788","owner":"130605131@N08","secret":"82826bf841","server":"65535","farm":66,"title":"IMG_2253","ispublic":1,"isfriend":0,"isfamily":0},{"id":"52384512737","owner":"130605131@N08","secret":"b4796e2fd0","server":"65535","farm":66,"title":"IMG_2250","ispublic":1,"isfriend":0,"isfamily":0},{"id":"52300777758","owner":"135315828@N06","secret":"ba75cc303d","server":"65535","farm":66,"title":"field sparrow","ispublic":1,"isfriend":0,"isfamily":0},{"id":"52283018358","owner":"124995824@N08","secret":"5f1125bc8b","server":"65535","farm":66,"title":"Field Sparrow - Spizella pusilla","ispublic":1,"isfriend":0,"isfamily":0},{"id":"52268814490","owner":"28631427@N00","secret":"712b3daf3b","server":"65535","farm":66,"title":"Field Sparrow","ispublic":1,"isfriend":0,"isfamily":0},{"id":"52260814033","owner":"7546739@N08","secret":"3c6610ef36","server":"65535","farm":66,"title":"Field Sparrow","ispublic":1,"isfriend":0,"isfamily":0},{"id":"52258256323","owner":"92361032@N05","secret":"d1f1ed783a","server":"65535","farm":66,"title":"Field Sparrow \/ Bruant des champs ( Diane )","ispublic":1,"isfriend":0,"isfamily":0},{"id":"52238773309","owner":"84169650@N07","secret":"eb8d74a6a4","server":"65535","farm":66,"title":"Field Sparrow","ispublic":1,"isfriend":0,"isfamily":0},{"id":"52222273020","owner":"80648919@N08","secret":"0d36645666","server":"65535","farm":66,"title":"Field Sparrow","ispublic":1,"isfriend":0,"isfamily":0},{"id":"52214795512","owner":"130605131@N08","secret":"d641be55a8","server":"65535","farm":66,"title":"IMG_0013","ispublic":1,"isfriend":0,"isfamily":0},{"id":"52215816173","owner":"130605131@N08","secret":"4a024986e3","server":"65535","farm":66,"title":"IMG_0015","ispublic":1,"isfriend":0,"isfamily":0},{"id":"52215801656","owner":"130605131@N08","secret":"933be11e5a","server":"65535","farm":66,"title":"IMG_0014","ispublic":1,"isfriend":0,"isfamily":0},{"id":"52198679418","owner":"184155060@N04","secret":"a1d428bb17","server":"65535","farm":66,"title":"31747 Bruant des champs \/ Spizella pusilla pusilla \/ Field Sparrow","ispublic":1,"isfriend":0,"isfamily":0},{"id":"52177175698","owner":"39177293@N03","secret":"d66cb8f88a","server":"65535","farm":66,"title":"Field Sparrow","ispublic":1,"isfriend":0,"isfamily":0},{"id":"52156771129","owner":"28631427@N00","secret":"98c5d78636","server":"65535","farm":66,"title":"Field Sparrow","ispublic":1,"isfriend":0,"isfamily":0},{"id":"52155030196","owner":"40003624@N06","secret":"deb8bdbe3c","server":"65535","farm":66,"title":"Field Sparrow","ispublic":1,"isfriend":0,"isfamily":0},{"id":"52137295611","owner":"85391626@N07","secret":"9e727c691e","server":"65535","farm":66,"title":"Field Sparrow","ispublic":1,"isfriend":0,"isfamily":0},{"id":"52085423116","owner":"48014585@N00","secret":"dd23244b8b","server":"65535","farm":66,"title":"Field Sparrow in Duluth!","ispublic":1,"isfriend":0,"isfamily":0},{"id":"52085422991","owner":"48014585@N00","secret":"6742f2d232","server":"65535","farm":66,"title":"Field Sparrow in Duluth!","ispublic":1,"isfriend":0,"isfamily":0},{"id":"52085445058","owner":"48014585@N00","secret":"48a7af96b5","server":"65535","farm":66,"title":"Field Sparrow in Duluth!","ispublic":1,"isfriend":0,"isfamily":0},{"id":"52083989835","owner":"69947563@N07","secret":"4b1a98d15f","server":"65535","farm":66,"title":"Field Sparrow - Point Pelee National Park, Ontario, Canada","ispublic":1,"isfriend":0,"isfamily":0},{"id":"52080227962","owner":"48014585@N00","secret":"b1002f39cd","server":"65535","farm":66,"title":"Field Sparrow in Duluth!","ispublic":1,"isfriend":0,"isfamily":0},{"id":"52080227432","owner":"48014585@N00","secret":"f142a3fe82","server":"65535","farm":66,"title":"Field Sparrow in Duluth!","ispublic":1,"isfriend":0,"isfamily":0},{"id":"52072857507","owner":"94295378@N04","secret":"ae31c76ba6","server":"65535","farm":66,"title":"Bruant des champs Spizella pusilla - Field Sparrow","ispublic":1,"isfriend":0,"isfamily":0},{"id":"52054216709","owner":"39138537@N06","secret":"43f5df658a","server":"0","farm":0,"title":"Field Sparrow (Spizella pusilla)","ispublic":1,"isfriend":0,"isfamily":0},{"id":"52048389422","owner":"187124972@N03","secret":"a4fb2ff769","server":"65535","farm":66,"title":"BRUANT DES CHAMPS \/ FIELD SPARROW (Spizella pusilla)","ispublic":1,"isfriend":0,"isfamily":0},{"id":"52049682094","owner":"187124972@N03","secret":"5243312d25","server":"65535","farm":66,"title":"BRUANT DES CHAMPS \/ FIELD SPARROW (Spizella pusilla)","ispublic":1,"isfriend":0,"isfamily":0},{"id":"52044709241","owner":"135315828@N06","secret":"7438b2e86b","server":"65535","farm":66,"title":"field sparrow","ispublic":1,"isfriend":0,"isfamily":0},{"id":"52032508695","owner":"39177293@N03","secret":"20844cb115","server":"65535","farm":66,"title":"Field Sparrow","ispublic":1,"isfriend":0,"isfamily":0},{"id":"52026745907","owner":"48311154@N02","secret":"c5c88edca3","server":"65535","farm":66,"title":"What the camera sees","ispublic":1,"isfriend":0,"isfamily":0},{"id":"52009028378","owner":"135315828@N06","secret":"b2861e2d7e","server":"65535","farm":66,"title":"IMG_5912","ispublic":1,"isfriend":0,"isfamily":0},{"id":"52009489500","owner":"135315828@N06","secret":"9f4acc4b99","server":"65535","farm":66,"title":"IMG_5944","ispublic":1,"isfriend":0,"isfamily":0},{"id":"52009220839","owner":"135315828@N06","secret":"a1273ef0fe","server":"65535","farm":66,"title":"IMG_6003","ispublic":1,"isfriend":0,"isfamily":0},{"id":"52000479573","owner":"90886369@N06","secret":"b3441094be","server":"65535","farm":66,"title":"Field Sparrow (Spizella pusilla)","ispublic":1,"isfriend":0,"isfamily":0},{"id":"52000422045","owner":"190949917@N03","secret":"ece9a17574","server":"65535","farm":66,"title":"Field Sparrow","ispublic":1,"isfriend":0,"isfamily":0},{"id":"51992187957","owner":"10105106@N07","secret":"749a65e93c","server":"65535","farm":66,"title":"Field Sparrow","ispublic":1,"isfriend":0,"isfamily":0},{"id":"51976295208","owner":"69387367@N05","secret":"2bb4760db3","server":"65535","farm":66,"title":"Field_Sparrow_5510od","ispublic":1,"isfriend":0,"isfamily":0},{"id":"51966185324","owner":"57465751@N05","secret":"72acab3bb1","server":"65535","farm":66,"title":"Field Sparrow (Spizella pusilla), Wyalusing SP, Grant Co., WI","ispublic":1,"isfriend":0,"isfamily":0},{"id":"51951085304","owner":"135315828@N06","secret":"24d476541c","server":"65535","farm":66,"title":"IMG_2231","ispublic":1,"isfriend":0,"isfamily":0},{"id":"51949796357","owner":"135315828@N06","secret":"efb9b830a4","server":"65535","farm":66,"title":"IMG_2252","ispublic":1,"isfriend":0,"isfamily":0},{"id":"51950776321","owner":"135315828@N06","secret":"b1014944ba","server":"65535","farm":66,"title":"IMG_2330","ispublic":1,"isfriend":0,"isfamily":0},{"id":"51932410588","owner":"49114357@N08","secret":"a7745f199a","server":"65535","farm":66,"title":"Field Sparrow","ispublic":1,"isfriend":0,"isfamily":0},{"id":"51860012377","owner":"33610210@N05","secret":"64d79e0c2d","server":"65535","farm":66,"title":"Field Sparrow, Spizella pusilla","ispublic":1,"isfriend":0,"isfamily":0},{"id":"51824414276","owner":"49114357@N08","secret":"d67285222d","server":"65535","farm":66,"title":"Field Sparrow","ispublic":1,"isfriend":0,"isfamily":0},{"id":"51839292996","owner":"16943730@N00","secret":"b07071461b","server":"65535","farm":66,"title":"Field sparrow, Mammoth Cave NP","ispublic":1,"isfriend":0,"isfamily":0},{"id":"51823819101","owner":"165841515@N03","secret":"18bcf60518","server":"65535","farm":66,"title":"Bruant des champs \/ Field Sparrow \/ (Spizella pusilla)","ispublic":1,"isfriend":0,"isfamily":0},{"id":"52667903949","owner":"33610210@N05","secret":"3e115d1fba","server":"65535","farm":66,"title":"Field Sparrow, Spizella pusilla","ispublic":1,"isfriend":0,"isfamily":0},{"id":"52668118158","owner":"33610210@N05","secret":"cbfdf8484c","server":"65535","farm":66,"title":"Field Sparrow, Spizella pusilla","ispublic":1,"isfriend":0,"isfamily":0},{"id":"52668118133","owner":"33610210@N05","secret":"8719a748f4","server":"65535","farm":66,"title":"Field Sparrow, Spizella pusilla","ispublic":1,"isfriend":0,"isfamily":0},{"id":"52668051000","owner":"33610210@N05","secret":"10ff8d3114","server":"65535","farm":66,"title":"Field Sparrow, Spizella pusilla","ispublic":1,"isfriend":0,"isfamily":0},{"id":"52597462070","owner":"33610210@N05","secret":"531a91e9f6","server":"65535","farm":66,"title":"Field Sparrow, Spizella pusilla","ispublic":1,"isfriend":0,"isfamily":0},{"id":"52597293344","owner":"33610210@N05","secret":"25b09d7cf6","server":"65535","farm":66,"title":"Field Sparrow, Spizella pusilla","ispublic":1,"isfriend":0,"isfamily":0},{"id":"52583222976","owner":"76288515@N07","secret":"2db45dc9c5","server":"65535","farm":66,"title":"Field Sparrow Spizella pusilla","ispublic":1,"isfriend":0,"isfamily":0},{"id":"52583222771","owner":"76288515@N07","secret":"940af1161e","server":"65535","farm":66,"title":"Field Sparrow Spizella pusilla","ispublic":1,"isfriend":0,"isfamily":0},{"id":"52531137773","owner":"33610210@N05","secret":"91bf9f640d","server":"65535","farm":66,"title":"Field Sparrow, Spizella pusilla","ispublic":1,"isfriend":0,"isfamily":0},{"id":"52521911205","owner":"84169650@N07","secret":"f8e3d5c9d4","server":"65535","farm":66,"title":"Field Sparrow","ispublic":1,"isfriend":0,"isfamily":0},{"id":"52519140026","owner":"39445433@N02","secret":"f401ee4c32","server":"65535","farm":66,"title":"Field Sparrow","ispublic":1,"isfriend":0,"isfamily":0},{"id":"52439362327","owner":"130605131@N08","secret":"db491eed1a","server":"65535","farm":66,"title":"IMG_2527","ispublic":1,"isfriend":0,"isfamily":0},{"id":"52230850259","owner":"39652177@N04","secret":"cc92ffc805","server":"65535","farm":66,"title":"The song of love","ispublic":1,"isfriend":0,"isfamily":0},{"id":"52085665239","owner":"48014585@N00","secret":"5d0e66f012","server":"65535","farm":66,"title":"Field Sparrow in Duluth!","ispublic":1,"isfriend":0,"isfamily":0},{"id":"51970384973","owner":"33610210@N05","secret":"3641e3b19c","server":"65535","farm":66,"title":"Field Sparrow, Spizella pusilla","ispublic":1,"isfriend":0,"isfamily":0},{"id":"51860970881","owner":"33610210@N05","secret":"0214e66b3b","server":"65535","farm":66,"title":"Field Sparrow, Spizella pusilla","ispublic":1,"isfriend":0,"isfamily":0},{"id":"51860970766","owner":"33610210@N05","secret":"ee2dbf8cb6","server":"65535","farm":66,"title":"Field Sparrow, Spizella pusilla","ispublic":1,"isfriend":0,"isfamily":0}]},"stat":"ok"}