{"photos":{"page":1,"pages":141,"perpage":100,"total":14100,"photo":[{"id":"52793059870","owner":"12639178@N07","secret":"f460b62d00","server":"65535","farm":66,"title":"Wacholderdrossel (Turdus pilaris)","ispublic":1,"isfriend":0,"isfamily":0},{"id":"52792339704","owner":"12639178@N07","secret":"e7416446fd","server":"65535","farm":66,"title":"Wacholderdrossel","ispublic":1,"isfriend":0,"isfamily":0},{"id":"52791219055","owner":"59770980@N02","secret":"8a3263e32a","server":"65535","farm":66,"title":"Gr\u00e1\u00fer\u00f6stur-Fieldfare-Turdus pilaris","ispublic":1,"isfriend":0,"isfamily":0},{"id":"52790824079","owner":"12639178@N07","secret":"b9723e6fc7","server":"65535","farm":66,"title":"Wacholderdrossel","ispublic":1,"isfriend":0,"isfamily":0},{"id":"52788385590","owner":"12639178@N07","secret":"22bf760320","server":"65535","farm":66,"title":"Wacholderdrossel in typischer Pose","ispublic":1,"isfriend":0,"isfamily":0},{"id":"52785489852","owner":"198000077@N04","secret":"3f70f65c33","server":"65535","farm":66,"title":"Fieldfare\/ turdus pilaris","ispublic":1,"isfriend":0,"isfamily":0},{"id":"52786013426","owner":"198000077@N04","secret":"4513b2811d","server":"65535","farm":66,"title":"Fieldfare\/ Turdus pilaris","ispublic":1,"isfriend":0,"isfamily":0},{"id":"52785825336","owner":"12639178@N07","secret":"76de32a3bb","server":"65535","farm":66,"title":"Wacholderdrossel (Turdus pilaris)","ispublic":1,"isfriend":0,"isfamily":0},{"id":"52786221110","owner":"12639178@N07","secret":"a8f6cd790c","server":"65535","farm":66,"title":"Wacholderdrossel (Turdus pilaris)","ispublic":1,"isfriend":0,"isfamily":0},{"id":"52785659611","owner":"12639178@N07","secret":"4ed059f8f3","server":"65535","farm":66,"title":"Stets aufmerksam","ispublic":1,"isfriend":0,"isfamily":0},{"id":"52786109833","owner":"12639178@N07","secret":"7259bbfd11","server":"65535","farm":66,"title":"Wacholderdrossel im Park","ispublic":1,"isfriend":0,"isfamily":0},{"id":"52785054482","owner":"12639178@N07","secret":"f3aaf365e7","server":"65535","farm":66,"title":"Ziemlich zutraulich","ispublic":1,"isfriend":0,"isfamily":0},{"id":"52785606261","owner":"12639178@N07","secret":"5c4af5e38c","server":"65535","farm":66,"title":"Ein Regenwurm wird herausgezogen","ispublic":1,"isfriend":0,"isfamily":0},{"id":"52786001225","owner":"12639178@N07","secret":"3fff763d37","server":"65535","farm":66,"title":"Auf Futtersuche im Park","ispublic":1,"isfriend":0,"isfamily":0},{"id":"52785807754","owner":"198000077@N04","secret":"e6cd4e2f52","server":"65535","farm":66,"title":"Turdus pilaris","ispublic":1,"isfriend":0,"isfamily":0},{"id":"52784972141","owner":"142423008@N04","secret":"6a2f31462a","server":"65535","farm":66,"title":"Vous prendrez bien un ver ?","ispublic":1,"isfriend":0,"isfamily":0},{"id":"52785273423","owner":"12639178@N07","secret":"d9cae7aed8","server":"65535","farm":66,"title":"Wacholderdrossel","ispublic":1,"isfriend":0,"isfamily":0},{"id":"52784862048","owner":"142083658@N05","secret":"90ce8cb6f2","server":"65535","farm":66,"title":"Fieldfare, Turdus pilaris, \u0414\u0440\u043e\u0437\u0434-\u0440\u044f\u0431\u0438\u043d\u043d\u0438\u043a","ispublic":1,"isfriend":0,"isfamily":0},{"id":"52782259987","owner":"167692045@N07","secret":"67bf375584","server":"65535","farm":66,"title":"grive litorne \/ Turdus pilaris 23E_3612","ispublic":1,"isfriend":0,"isfamily":0},{"id":"52782700726","owner":"12639178@N07","secret":"441198483c","server":"65535","farm":66,"title":"Wacholderdrossel - Abendessen mit Regenwurm","ispublic":1,"isfriend":0,"isfamily":0},{"id":"52782156522","owner":"12639178@N07","secret":"51a1bd84ba","server":"65535","farm":66,"title":"Wacholderdrossel abends an der Wiese","ispublic":1,"isfriend":0,"isfamily":0},{"id":"52782764848","owner":"12639178@N07","secret":"7beeef475f","server":"65535","farm":66,"title":"Wacholderdrosseln","ispublic":1,"isfriend":0,"isfamily":0},{"id":"52782707070","owner":"12639178@N07","secret":"933cc14e56","server":"65535","farm":66,"title":"Wacholderdrosseln","ispublic":1,"isfriend":0,"isfamily":0},{"id":"52782764633","owner":"12639178@N07","secret":"3e3ec30414","server":"65535","farm":66,"title":"Wacholderdrosseln","ispublic":1,"isfriend":0,"isfamily":0},{"id":"52782599133","owner":"27797245@N05","secret":"e360c21a36","server":"65535","farm":66,"title":"Gr\u00e1\u00fer\u00f6stur (Turdus pilaris).","ispublic":1,"isfriend":0,"isfamily":0},{"id":"52781290102","owner":"12639178@N07","secret":"b342bb0bbc","server":"65535","farm":66,"title":"Wacholderdrossel (Turdus pilaris)","ispublic":1,"isfriend":0,"isfamily":0},{"id":"52781832686","owner":"12639178@N07","secret":"1ba097ffaf","server":"65535","farm":66,"title":"Wacholderdrossel (Turdus pilaris)","ispublic":1,"isfriend":0,"isfamily":0},{"id":"52781832361","owner":"12639178@N07","secret":"424d048f11","server":"65535","farm":66,"title":"Wacholderdrossel (Turdus pilaris)","ispublic":1,"isfriend":0,"isfamily":0},{"id":"52780183493","owner":"12639178@N07","secret":"77b91698c3","server":"65535","farm":66,"title":"Wacholderdrossel (Turdus pilaris) (1)","ispublic":1,"isfriend":0,"isfamily":0},{"id":"52779672161","owner":"197773322@N03","secret":"f8a4c11b41","server":"65535","farm":66,"title":"Wacholderdrossel, Turdus pilaris, fieldfare","ispublic":1,"isfriend":0,"isfamily":0},{"id":"52778270252","owner":"162733442@N02","secret":"e1b651fbab","server":"65535","farm":66,"title":"Brinovka\/Turdus pilaris?","ispublic":1,"isfriend":0,"isfamily":0},{"id":"52777141227","owner":"12639178@N07","secret":"7286b9e047","server":"65535","farm":66,"title":"Beleg Wacholderdrossel","ispublic":1,"isfriend":0,"isfamily":0},{"id":"52776668893","owner":"12639178@N07","secret":"617b9e85b0","server":"65535","farm":66,"title":"Wacholderdrossel","ispublic":1,"isfriend":0,"isfamily":0},{"id":"52776590538","owner":"12639178@N07","secret":"820165d0a9","server":"65535","farm":66,"title":"Wacholderdrossel - Baum, hier ein Teil aus einem gro\u00dfen Scharm (Turdus pila","ispublic":1,"isfriend":0,"isfamily":0},{"id":"52776080978","owner":"12639178@N07","secret":"9301b6b19d","server":"65535","farm":66,"title":"Wacholderdrossel","ispublic":1,"isfriend":0,"isfamily":0},{"id":"52774573271","owner":"12639178@N07","secret":"d02cf56c51","server":"65535","farm":66,"title":"Wacholderdrossel","ispublic":1,"isfriend":0,"isfamily":0},{"id":"52774988715","owner":"12639178@N07","secret":"c01ba06910","server":"65535","farm":66,"title":"Wacholderdrossel","ispublic":1,"isfriend":0,"isfamily":0},{"id":"52773013564","owner":"12639178@N07","secret":"91890ed8b6","server":"65535","farm":66,"title":"Wacholderdrossel","ispublic":1,"isfriend":0,"isfamily":0},{"id":"52772224562","owner":"12639178@N07","secret":"2a02991b99","server":"65535","farm":66,"title":"Wacholderdrossel","ispublic":1,"isfriend":0,"isfamily":0},{"id":"52772748568","owner":"44093058@N06","secret":"7e1700baa2","server":"65535","farm":66,"title":"Fieldfare, Turdus pilaris, Bj\u00f6rktrast","ispublic":1,"isfriend":0,"isfamily":0},{"id":"52771731762","owner":"44093058@N06","secret":"de2a8d4623","server":"65535","farm":66,"title":"Fieldfare, Turdus pilaris, Bj\u00f6rktrast","ispublic":1,"isfriend":0,"isfamily":0},{"id":"52771970331","owner":"19034378@N05","secret":"06434e54f7","server":"65535","farm":66,"title":"A Fieldfare in Stockholm.","ispublic":1,"isfriend":0,"isfamily":0},{"id":"52770844833","owner":"12639178@N07","secret":"d42236e39a","server":"65535","farm":66,"title":"Wacholderdrossel in typischer Haltung","ispublic":1,"isfriend":0,"isfamily":0},{"id":"52770242588","owner":"26371261@N00","secret":"8236d915d9","server":"65535","farm":66,"title":"Fieldfare, Turdus pilaris","ispublic":1,"isfriend":0,"isfamily":0},{"id":"52768340801","owner":"27797245@N05","secret":"97378f794c","server":"65535","farm":66,"title":"Gr\u00e1\u00fer\u00f6stur (Turdus pilaris).","ispublic":1,"isfriend":0,"isfamily":0},{"id":"52768012543","owner":"167692045@N07","secret":"81877141b9","server":"65535","farm":66,"title":"grive litorne \/ Turdus pilaris 23D_8128","ispublic":1,"isfriend":0,"isfamily":0},{"id":"52766516221","owner":"196408693@N03","secret":"d17bd802c0","server":"65535","farm":66,"title":"Turdus pilaris","ispublic":1,"isfriend":0,"isfamily":0},{"id":"52767005288","owner":"196408693@N03","secret":"7295fdbabb","server":"65535","farm":66,"title":"Turdus pilaris","ispublic":1,"isfriend":0,"isfamily":0},{"id":"52766929335","owner":"196408693@N03","secret":"5b65ebdcc9","server":"65535","farm":66,"title":"Turdus pilaris","ispublic":1,"isfriend":0,"isfamily":0},{"id":"52766769119","owner":"196408693@N03","secret":"046195514a","server":"65535","farm":66,"title":"Turdus pilaris","ispublic":1,"isfriend":0,"isfamily":0},{"id":"52767005253","owner":"196408693@N03","secret":"71f2c84872","server":"65535","farm":66,"title":"Turdus pilaris","ispublic":1,"isfriend":0,"isfamily":0},{"id":"52767005228","owner":"196408693@N03","secret":"83250d260b","server":"65535","farm":66,"title":"Turdus pilaris","ispublic":1,"isfriend":0,"isfamily":0},{"id":"52766929285","owner":"196408693@N03","secret":"e889ecf1bb","server":"65535","farm":66,"title":"Turdus pilaris","ispublic":1,"isfriend":0,"isfamily":0},{"id":"52766769019","owner":"196408693@N03","secret":"dccd71dc9a","server":"65535","farm":66,"title":"Turdus pilaris","ispublic":1,"isfriend":0,"isfamily":0},{"id":"52765978022","owner":"196408693@N03","secret":"af8aa7fe91","server":"65535","farm":66,"title":"Turdus pilaris","ispublic":1,"isfriend":0,"isfamily":0},{"id":"52766130571","owner":"52618557@N08","secret":"59aa43c4c5","server":"65535","farm":66,"title":"Fieldfare (Turdus pilaris)","ispublic":1,"isfriend":0,"isfamily":0},{"id":"52764958637","owner":"12639178@N07","secret":"0cba2f7a10","server":"65535","farm":66,"title":"Wacholderdrossel (Turdus pilaris) (1)","ispublic":1,"isfriend":0,"isfamily":0},{"id":"52765214883","owner":"12639178@N07","secret":"3a6e1c6fe1","server":"65535","farm":66,"title":"Wacholderdrossel?","ispublic":1,"isfriend":0,"isfamily":0},{"id":"52764018267","owner":"12639178@N07","secret":"9497e74792","server":"65535","farm":66,"title":"Wacholderdrossel (Turdus pilaris) (1)","ispublic":1,"isfriend":0,"isfamily":0},{"id":"52764598219","owner":"41798562@N07","secret":"020de07ec0","server":"65535","farm":66,"title":"Fieldfare (Turdus pilaris)","ispublic":1,"isfriend":0,"isfamily":0},{"id":"52764346536","owner":"41798562@N07","secret":"53b7540c22","server":"65535","farm":66,"title":"Fieldfare (Turdus pilaris)","ispublic":1,"isfriend":0,"isfamily":0},{"id":"52764346311","owner":"41798562@N07","secret":"2481c19d11","server":"65535","farm":66,"title":"Fieldfare (Turdus pilaris)","ispublic":1,"isfriend":0,"isfamily":0},{"id":"52764497725","owner":"12639178@N07","secret":"885cdb9995","server":"65535","farm":66,"title":"Eine andere sitzt hoch droben","ispublic":1,"isfriend":0,"isfamily":0},{"id":"52764497225","owner":"12639178@N07","secret":"3a6fb5a107","server":"65535","farm":66,"title":"Eine Wacholderdrossel","ispublic":1,"isfriend":0,"isfamily":0},{"id":"52763800111","owner":"29826595@N06","secret":"21cc7fbce4","server":"65535","farm":66,"title":"Fieldfare","ispublic":1,"isfriend":0,"isfamily":0},{"id":"52764040890","owner":"56750464@N02","secret":"04b60318cf","server":"65535","farm":66,"title":"Grive litorne - Turdus pilaris","ispublic":1,"isfriend":0,"isfamily":0},{"id":"52762189034","owner":"12639178@N07","secret":"ffccf10e54","server":"65535","farm":66,"title":"Wacholderdrossel","ispublic":1,"isfriend":0,"isfamily":0},{"id":"52762222123","owner":"18217058@N04","secret":"4919565bd4","server":"65535","farm":66,"title":"Fieldfare \/ Gr\u00e1\u00fer\u00f6stur (Turdus pilaris)","ispublic":1,"isfriend":0,"isfamily":0},{"id":"52761187562","owner":"18217058@N04","secret":"dbeff36e3f","server":"65535","farm":66,"title":"Fieldfare \/ Gr\u00e1\u00fer\u00f6stur (Turdus pilaris)","ispublic":1,"isfriend":0,"isfamily":0},{"id":"52761732916","owner":"18217058@N04","secret":"4b9a204287","server":"65535","farm":66,"title":"Fieldfare \/ Gr\u00e1\u00fer\u00f6stur (Turdus pilaris)","ispublic":1,"isfriend":0,"isfamily":0},{"id":"52762067588","owner":"18217058@N04","secret":"7b24b709c4","server":"65535","farm":66,"title":"Fieldfare \/ Gr\u00e1\u00fer\u00f6stur (Turdus pilaris)","ispublic":1,"isfriend":0,"isfamily":0},{"id":"52762067518","owner":"18217058@N04","secret":"7c6b5ef52c","server":"65535","farm":66,"title":"Fieldfare \/ Gr\u00e1\u00fer\u00f6stur (Turdus pilaris)","ispublic":1,"isfriend":0,"isfamily":0},{"id":"52762067478","owner":"18217058@N04","secret":"7f94355bf8","server":"65535","farm":66,"title":"Fieldfare \/ Gr\u00e1\u00fer\u00f6stur (Turdus pilaris)","ispublic":1,"isfriend":0,"isfamily":0},{"id":"52761827644","owner":"18217058@N04","secret":"843f7cecb0","server":"65535","farm":66,"title":"Fieldfare \/ Gr\u00e1\u00fer\u00f6stur (Turdus pilaris)","ispublic":1,"isfriend":0,"isfamily":0},{"id":"52761572916","owner":"18217058@N04","secret":"daf2b5e343","server":"65535","farm":66,"title":"Fieldfare \/ Gr\u00e1\u00fer\u00f6stur (Turdus pilaris)","ispublic":1,"isfriend":0,"isfamily":0},{"id":"52761977525","owner":"18217058@N04","secret":"073448e51d","server":"65535","farm":66,"title":"Fieldfare \/ Gr\u00e1\u00fer\u00f6stur (Turdus pilaris)","ispublic":1,"isfriend":0,"isfamily":0},{"id":"52761977490","owner":"18217058@N04","secret":"0cc7642f45","server":"65535","farm":66,"title":"Fieldfare \/ Gr\u00e1\u00fer\u00f6stur (Turdus pilaris)","ispublic":1,"isfriend":0,"isfamily":0},{"id":"52761572806","owner":"18217058@N04","secret":"8e71999d19","server":"65535","farm":66,"title":"Fieldfare \/ Gr\u00e1\u00fer\u00f6stur (Turdus pilaris)","ispublic":1,"isfriend":0,"isfamily":0},{"id":"52761977420","owner":"18217058@N04","secret":"df03d66993","server":"65535","farm":66,"title":"Fieldfare \/ Gr\u00e1\u00fer\u00f6stur (Turdus pilaris)","ispublic":1,"isfriend":0,"isfamily":0},{"id":"52761977385","owner":"18217058@N04","secret":"62c19f2682","server":"65535","farm":66,"title":"Fieldfare \/ Gr\u00e1\u00fer\u00f6stur (Turdus pilaris)","ispublic":1,"isfriend":0,"isfamily":0},{"id":"52761572696","owner":"18217058@N04","secret":"4c05534f1a","server":"65535","farm":66,"title":"Fieldfare \/ Gr\u00e1\u00fer\u00f6stur (Turdus pilaris)","ispublic":1,"isfriend":0,"isfamily":0},{"id":"52761020782","owner":"18217058@N04","secret":"41f28f43d4","server":"65535","farm":66,"title":"Fieldfare \/ Gr\u00e1\u00fer\u00f6stur (Turdus pilaris)","ispublic":1,"isfriend":0,"isfamily":0},{"id":"52761971565","owner":"18217058@N04","secret":"e5fa94ea96","server":"65535","farm":66,"title":"Fieldfare \/ Gr\u00e1\u00fer\u00f6stur (Turdus pilaris)","ispublic":1,"isfriend":0,"isfamily":0},{"id":"52761020697","owner":"18217058@N04","secret":"5ab069e1ea","server":"65535","farm":66,"title":"Fieldfare \/ Gr\u00e1\u00fer\u00f6stur (Turdus pilaris)","ispublic":1,"isfriend":0,"isfamily":0},{"id":"52761410964","owner":"142083658@N05","secret":"17162b2e0b","server":"65535","farm":66,"title":"Fieldfare, Turdus pilaris, \u0414\u0440\u043e\u0437\u0434-\u0440\u044f\u0431\u0438\u043d\u043d\u0438\u043a","ispublic":1,"isfriend":0,"isfamily":0},{"id":"52760242943","owner":"12639178@N07","secret":"0c9b6a3361","server":"65535","farm":66,"title":"Am frostigen Morgen","ispublic":1,"isfriend":0,"isfamily":0},{"id":"52759310985","owner":"12639178@N07","secret":"892de126cf","server":"65535","farm":66,"title":"Wie die Monroe... der Wind l\u00fcftet das Federkleid","ispublic":1,"isfriend":0,"isfamily":0},{"id":"52759389913","owner":"12639178@N07","secret":"7079d3898e","server":"65535","farm":66,"title":"Mal nicht scheu - Wacholderdrossel (Turdus pilaris)","ispublic":1,"isfriend":0,"isfamily":0},{"id":"52759310810","owner":"12639178@N07","secret":"c03b46d56a","server":"65535","farm":66,"title":"Wacholderdrossel (Turdus pilaris)","ispublic":1,"isfriend":0,"isfamily":0},{"id":"52757730278","owner":"12639178@N07","secret":"553c90b72c","server":"65535","farm":66,"title":"Wacholderdrossel im Park","ispublic":1,"isfriend":0,"isfamily":0},{"id":"52757605065","owner":"27797245@N05","secret":"7b3e12dab3","server":"65535","farm":66,"title":"Gr\u00e1\u00fer\u00f6stur (Turdus pilaris).","ispublic":1,"isfriend":0,"isfamily":0},{"id":"52779740483","owner":"12639178@N07","secret":"56d1171c69","server":"65535","farm":66,"title":"Da ist der Wurm!","ispublic":1,"isfriend":0,"isfamily":0},{"id":"52779682930","owner":"12639178@N07","secret":"e06a173270","server":"65535","farm":66,"title":"Wacholderdrossel III","ispublic":1,"isfriend":0,"isfamily":0},{"id":"52779516894","owner":"12639178@N07","secret":"cef270bf35","server":"65535","farm":66,"title":"Wacholderdrossel II","ispublic":1,"isfriend":0,"isfamily":0},{"id":"52779682480","owner":"12639178@N07","secret":"85995dc3df","server":"65535","farm":66,"title":"Wacholderdrossel I","ispublic":1,"isfriend":0,"isfamily":0},{"id":"52765608995","owner":"12639178@N07","secret":"f0111e7516","server":"65535","farm":66,"title":"Wacholderdrossel","ispublic":1,"isfriend":0,"isfamily":0},{"id":"52764189022","owner":"12639178@N07","secret":"5a3d3c8cc9","server":"65535","farm":66,"title":"Wacholderdrossel?","ispublic":1,"isfriend":0,"isfamily":0},{"id":"52764646679","owner":"12639178@N07","secret":"2ca8d5ed62","server":"65535","farm":66,"title":"Wacholderdrossel (Turdus pilaris)","ispublic":1,"isfriend":0,"isfamily":0},{"id":"52762635615","owner":"12639178@N07","secret":"8c6f8edf76","server":"65535","farm":66,"title":"Wacholderdrossel beim Imbiss im Zierapfelbaum","ispublic":1,"isfriend":0,"isfamily":0},{"id":"52757707434","owner":"12639178@N07","secret":"af5e763096","server":"65535","farm":66,"title":"Rast auf Parkbaum","ispublic":1,"isfriend":0,"isfamily":0}]},"stat":"ok"}