{"photos":{"page":1,"pages":41,"perpage":100,"total":4076,"photo":[{"id":"52718362857","owner":"103722035@N06","secret":"4b8387102c","server":"0","farm":0,"title":"Forster's Tern (Sterna forsteri), Morro Bay, CA","ispublic":1,"isfriend":0,"isfamily":0},{"id":"52712910010","owner":"86191812@N07","secret":"af72f031a1","server":"65535","farm":66,"title":"Forster's Tern (Sterna Forsteri)","ispublic":1,"isfriend":0,"isfamily":0},{"id":"52711737286","owner":"103722035@N06","secret":"59977dd871","server":"65535","farm":66,"title":"Forster's Tern (Sterna forsteri), Morro Bay, CA","ispublic":1,"isfriend":0,"isfamily":0},{"id":"52712215748","owner":"103722035@N06","secret":"1248efa613","server":"65535","farm":66,"title":"Forster's Tern (Sterna forsteri), Morro Bay, CA","ispublic":1,"isfriend":0,"isfamily":0},{"id":"52711215587","owner":"103722035@N06","secret":"69b69546b5","server":"65535","farm":66,"title":"Forster's Tern (Sterna forsteri), Morro Bay, CA","ispublic":1,"isfriend":0,"isfamily":0},{"id":"52712155045","owner":"103722035@N06","secret":"3fef9bd494","server":"65535","farm":66,"title":"Forster's Tern (Sterna forsteri), Morro Bay, CA","ispublic":1,"isfriend":0,"isfamily":0},{"id":"52712091503","owner":"103722035@N06","secret":"1ca3138c49","server":"0","farm":0,"title":"Forster's Tern (Sterna forsteri), Morro Bay, CA","ispublic":1,"isfriend":0,"isfamily":0},{"id":"52707746030","owner":"28867468@N08","secret":"2778a010d9","server":"65535","farm":66,"title":"Forster's Terns","ispublic":1,"isfriend":0,"isfamily":0},{"id":"52707335376","owner":"28867468@N08","secret":"e551e78d34","server":"65535","farm":66,"title":"Forster's Terns Duel Take-off Over the Shore","ispublic":1,"isfriend":0,"isfamily":0},{"id":"52701235838","owner":"89367133@N00","secret":"8149c24459","server":"65535","farm":66,"title":"Sterne de Forster (Sterna forsteri).","ispublic":1,"isfriend":0,"isfamily":0},{"id":"52690953444","owner":"62043870@N05","secret":"e5a923cf67","server":"65535","farm":66,"title":"Forster's Tern, Sterna forsteri","ispublic":1,"isfriend":0,"isfamily":0},{"id":"52689448602","owner":"54549270@N03","secret":"4c51070734","server":"65535","farm":66,"title":"Forster's Tern","ispublic":1,"isfriend":0,"isfamily":0},{"id":"52669919299","owner":"62043870@N05","secret":"8d086e34a9","server":"65535","farm":66,"title":"Forster's Tern, Sterna forsteri","ispublic":1,"isfriend":0,"isfamily":0},{"id":"52667955454","owner":"36213477@N00","secret":"4e7bda7391","server":"65535","farm":66,"title":"To everything tern, tern, tern","ispublic":1,"isfriend":0,"isfamily":0},{"id":"52668169258","owner":"36213477@N00","secret":"855fee1efd","server":"65535","farm":66,"title":"Tern Down for What","ispublic":1,"isfriend":0,"isfamily":0},{"id":"52667168882","owner":"36213477@N00","secret":"60ae593b34","server":"65535","farm":66,"title":"Forster","ispublic":1,"isfriend":0,"isfamily":0},{"id":"52646456347","owner":"67164820@N06","secret":"b85b894a36","server":"65535","farm":66,"title":"Forster's tern","ispublic":1,"isfriend":0,"isfamily":0},{"id":"52647403865","owner":"67164820@N06","secret":"cc9be849ae","server":"65535","farm":66,"title":"Forster's tern 2","ispublic":1,"isfriend":0,"isfamily":0},{"id":"52645073995","owner":"8013969@N03","secret":"1a5ab97a42","server":"65535","farm":66,"title":"Sterna forsteri DFL nj22","ispublic":1,"isfriend":0,"isfamily":0},{"id":"52644201466","owner":"12185056@N02","secret":"9a6c106a73","server":"65535","farm":66,"title":"Forster's Tern (Sterna forsteri)","ispublic":1,"isfriend":0,"isfamily":0},{"id":"52639397280","owner":"67164820@N06","secret":"3b8831a2c6","server":"65535","farm":66,"title":"Forster's tern and fish","ispublic":1,"isfriend":0,"isfamily":0},{"id":"52639301593","owner":"67164820@N06","secret":"0a08ff714c","server":"65535","farm":66,"title":"Forster's terns","ispublic":1,"isfriend":0,"isfamily":0},{"id":"52639257635","owner":"67164820@N06","secret":"8bdf182e42","server":"65535","farm":66,"title":"Forster's tern","ispublic":1,"isfriend":0,"isfamily":0},{"id":"52626410493","owner":"10665268@N04","secret":"0f85881df2","server":"65535","farm":66,"title":"Forster's Tern, Harney Co., OR_6844(1)","ispublic":1,"isfriend":0,"isfamily":0},{"id":"52583991489","owner":"88932760@N08","secret":"1a828738ab","server":"65535","farm":66,"title":"Speedy Forster's","ispublic":1,"isfriend":0,"isfamily":0},{"id":"52580749705","owner":"153973412@N04","secret":"e776b2a698","server":"65535","farm":66,"title":"Forster's Tern-Sterna forsteri, Iowa City, IA","ispublic":1,"isfriend":0,"isfamily":0},{"id":"52555656619","owner":"52170431@N04","secret":"8116564671","server":"65535","farm":66,"title":"Forster's Tern (Sterna forsteri), adult breeding DSD_0410","ispublic":1,"isfriend":0,"isfamily":0},{"id":"52541471043","owner":"33610210@N05","secret":"3477e8e2ee","server":"65535","farm":66,"title":"Royal Tern, Thalasseus maximus (lower) and Forster's Tern, Sterna forsteri (upper)","ispublic":1,"isfriend":0,"isfamily":0},{"id":"52540922161","owner":"33610210@N05","secret":"bccedc0bbd","server":"65535","farm":66,"title":"Forster's Tern, Sterna forsteri","ispublic":1,"isfriend":0,"isfamily":0},{"id":"52541403175","owner":"33610210@N05","secret":"c4a6294074","server":"65535","farm":66,"title":"Forster's Tern, Sterna forsteri","ispublic":1,"isfriend":0,"isfamily":0},{"id":"52541219334","owner":"33610210@N05","secret":"bde466a162","server":"65535","farm":66,"title":"Forster's Tern, Sterna forsteri","ispublic":1,"isfriend":0,"isfamily":0},{"id":"52530127256","owner":"17654080@N08","secret":"dee8a390ce","server":"65535","farm":66,"title":"Forster's Tern (Sterna forsteri)","ispublic":1,"isfriend":0,"isfamily":0},{"id":"52530411009","owner":"17654080@N08","secret":"6dac2be0b1","server":"65535","farm":66,"title":"Forster's Tern (Sterna forsteri)","ispublic":1,"isfriend":0,"isfamily":0},{"id":"52521864838","owner":"24379925@N08","secret":"abe28ece9c","server":"65535","farm":66,"title":"FORSTER'S TERN","ispublic":1,"isfriend":0,"isfamily":0},{"id":"52519643370","owner":"59631194@N06","secret":"18d2d70b4b","server":"65535","farm":66,"title":"Forster's tern \/ Charr\u00e1n de Forster (Sterna forsteri)","ispublic":1,"isfriend":0,"isfamily":0},{"id":"52519331924","owner":"7856934@N03","secret":"d8af3a42bb","server":"65535","farm":66,"title":"Forster's Terns","ispublic":1,"isfriend":0,"isfamily":0},{"id":"52515054874","owner":"7856934@N03","secret":"ef75167d3c","server":"65535","farm":66,"title":"Forster's Terns","ispublic":1,"isfriend":0,"isfamily":0},{"id":"52510275541","owner":"7856934@N03","secret":"27f7a3439d","server":"65535","farm":66,"title":"Forster's Tern","ispublic":1,"isfriend":0,"isfamily":0},{"id":"52496172625","owner":"51928691@N04","secret":"8fd5ac939c","server":"65535","farm":66,"title":"Forster's Tern (Sterna fosteri) 2 111122","ispublic":1,"isfriend":0,"isfamily":0},{"id":"52483569271","owner":"59777454@N02","secret":"68b5aa128f","server":"65535","farm":66,"title":"Forster's Tern adult in flight Tekiela TEK4398","ispublic":1,"isfriend":0,"isfamily":0},{"id":"52483071277","owner":"59777454@N02","secret":"9fd6b95d77","server":"65535","farm":66,"title":"Forester's Tern adult with fish Tekiela TEK5035","ispublic":1,"isfriend":0,"isfamily":0},{"id":"52477030802","owner":"52200643@N02","secret":"2660ae7d1b","server":"65535","farm":66,"title":"Sterne de Forster \/ Forster's Tern _A4A2742B","ispublic":1,"isfriend":0,"isfamily":0},{"id":"52477532431","owner":"52200643@N02","secret":"6c746f0a36","server":"65535","farm":66,"title":"Sterne de Forster \/ Forster's Tern _A4A2732b","ispublic":1,"isfriend":0,"isfamily":0},{"id":"52474988099","owner":"157220357@N08","secret":"ffb1ab82a5","server":"65535","farm":66,"title":"Dundalk Fosters Tern","ispublic":1,"isfriend":0,"isfamily":0},{"id":"52465140973","owner":"159284114@N07","secret":"38cb708cea","server":"65535","farm":66,"title":"Sterne de Forster, Forster's tern","ispublic":1,"isfriend":0,"isfamily":0},{"id":"52464090357","owner":"159284114@N07","secret":"4fc1e410cf","server":"65535","farm":66,"title":"Sterne de Forster, Forster's tern","ispublic":1,"isfriend":0,"isfamily":0},{"id":"52460250359","owner":"61241315@N00","secret":"9be4826a55","server":"65535","farm":66,"title":"Forster's Tern_N6403","ispublic":1,"isfriend":0,"isfamily":0},{"id":"52453288302","owner":"129803374@N05","secret":"87a02c6408","server":"65535","farm":66,"title":"Forster's Tern (Sterna forsteri) and Common Tern (Sterna hirundo)","ispublic":1,"isfriend":0,"isfamily":0},{"id":"52443849619","owner":"129803374@N05","secret":"6495452633","server":"65535","farm":66,"title":"Forster's Tern (Sterna forsteri)","ispublic":1,"isfriend":0,"isfamily":0},{"id":"52407181650","owner":"71989271@N06","secret":"c4df4f4b9b","server":"65535","farm":66,"title":"Forster's Tern (Sterna forsteri)","ispublic":1,"isfriend":0,"isfamily":0},{"id":"52406083622","owner":"28867468@N08","secret":"4826d38cf8","server":"65535","farm":66,"title":"Forster's Tern Talking to Juvenile","ispublic":1,"isfriend":0,"isfamily":0},{"id":"52403014893","owner":"88932760@N08","secret":"7a4d1c84a3","server":"65535","farm":66,"title":"Eating on the Run","ispublic":1,"isfriend":0,"isfamily":0},{"id":"52380895726","owner":"88932760@N08","secret":"f6daa9f04b","server":"65535","farm":66,"title":"Sticking the Landing","ispublic":1,"isfriend":0,"isfamily":0},{"id":"52370936616","owner":"103722035@N06","secret":"059f68b4af","server":"65535","farm":66,"title":"Forster's Tern (Sterna forsteri), Baywood Park, CA","ispublic":1,"isfriend":0,"isfamily":0},{"id":"52369991937","owner":"103722035@N06","secret":"e9b1ed1de3","server":"65535","farm":66,"title":"Forster's Tern (Sterna forsteri), Baywood Park, CA","ispublic":1,"isfriend":0,"isfamily":0},{"id":"52371349640","owner":"103722035@N06","secret":"d0ab08e940","server":"0","farm":0,"title":"Forster's Tern (Sterna forsteri), Baywood Park, CA","ispublic":1,"isfriend":0,"isfamily":0},{"id":"52367918449","owner":"88932760@N08","secret":"7696697f3e","server":"65535","farm":66,"title":"Turn and Dive","ispublic":1,"isfriend":0,"isfamily":0},{"id":"52338245157","owner":"39177293@N03","secret":"eee4a81b17","server":"65535","farm":66,"title":"Forster's Tern","ispublic":1,"isfriend":0,"isfamily":0},{"id":"52339416443","owner":"39177293@N03","secret":"ed93152a72","server":"65535","farm":66,"title":"Forster's Tern","ispublic":1,"isfriend":0,"isfamily":0},{"id":"52336483286","owner":"190923251@N05","secret":"8db1df3059","server":"65535","farm":66,"title":"Forster's Tern interacts with Black-bellied Plover","ispublic":1,"isfriend":0,"isfamily":0},{"id":"52323631385","owner":"190122705@N03","secret":"005961302d","server":"65535","farm":66,"title":"Forster's Tern","ispublic":1,"isfriend":0,"isfamily":0},{"id":"52316958547","owner":"60216873@N05","secret":"5a1d050348","server":"65535","farm":66,"title":"Fresh Fish!","ispublic":1,"isfriend":0,"isfamily":0},{"id":"52317939749","owner":"32665930@N04","secret":"246da21bb5","server":"65535","farm":66,"title":"Forster's Tern","ispublic":1,"isfriend":0,"isfamily":0},{"id":"52317939559","owner":"32665930@N04","secret":"6c6611299a","server":"65535","farm":66,"title":"Forster's Tern","ispublic":1,"isfriend":0,"isfamily":0},{"id":"52317961605","owner":"32665930@N04","secret":"8dd1c087c9","server":"65535","farm":66,"title":"Forster's Tern","ispublic":1,"isfriend":0,"isfamily":0},{"id":"52310439387","owner":"80648919@N08","secret":"a93e4a42fe","server":"65535","farm":66,"title":"Forster's Tern","ispublic":1,"isfriend":0,"isfamily":0},{"id":"52306409338","owner":"157220357@N08","secret":"aaeb9a8361","server":"65535","farm":66,"title":"Forsters Tern Dundalk","ispublic":1,"isfriend":0,"isfamily":0},{"id":"52302418147","owner":"39177293@N03","secret":"0a9a0a5731","server":"65535","farm":66,"title":"Forster's Tern","ispublic":1,"isfriend":0,"isfamily":0},{"id":"52303411593","owner":"39177293@N03","secret":"7a6926b21a","server":"65535","farm":66,"title":"Forster's Tern","ispublic":1,"isfriend":0,"isfamily":0},{"id":"52303893240","owner":"39177293@N03","secret":"e5b94c0ce0","server":"65535","farm":66,"title":"Forster's Tern","ispublic":1,"isfriend":0,"isfamily":0},{"id":"52296990929","owner":"157220357@N08","secret":"44d1fdd421","server":"65535","farm":66,"title":"Dundalk Forsters Tern","ispublic":1,"isfriend":0,"isfamily":0},{"id":"52294877922","owner":"14513067@N00","secret":"10cf26530c","server":"65535","farm":66,"title":"Forster\u2019s Tern","ispublic":1,"isfriend":0,"isfamily":0},{"id":"52280614424","owner":"62037969@N08","secret":"480360c0d7","server":"65535","farm":66,"title":"Forster's Tern Defends Position On Post By Calling Out And Spreading Wings Out","ispublic":1,"isfriend":0,"isfamily":0},{"id":"52278334521","owner":"39177293@N03","secret":"bb22d91662","server":"65535","farm":66,"title":"Forster's Tern","ispublic":1,"isfriend":0,"isfamily":0},{"id":"52266474893","owner":"62037969@N08","secret":"3c5581abaf","server":"65535","farm":66,"title":"While In Flight An Adult Forster's Tern Searches For Food","ispublic":1,"isfriend":0,"isfamily":0},{"id":"52257234081","owner":"23939795@N04","secret":"bd6f32ef70","server":"65535","farm":66,"title":"Tern with Catch 5133","ispublic":1,"isfriend":0,"isfamily":0},{"id":"52251898747","owner":"12442123@N00","secret":"d58fbc90ff","server":"65535","farm":66,"title":"the escape","ispublic":1,"isfriend":0,"isfamily":0},{"id":"52251255225","owner":"12442123@N00","secret":"7a507b9151","server":"65535","farm":66,"title":"head spinning","ispublic":1,"isfriend":0,"isfamily":0},{"id":"52251045700","owner":"145287509@N03","secret":"f76a0247a0","server":"65535","farm":66,"title":"Success!","ispublic":1,"isfriend":0,"isfamily":0},{"id":"52249053617","owner":"93512100@N08","secret":"e3ef2e3b4c","server":"65535","farm":66,"title":"Forster's Tern","ispublic":1,"isfriend":0,"isfamily":0},{"id":"52248724535","owner":"52170431@N04","secret":"cd9e35f7f1","server":"65535","farm":66,"title":"Forster's Tern (Sterna forsteri), adult breeding DSD_0083","ispublic":1,"isfriend":0,"isfamily":0},{"id":"52248724490","owner":"52170431@N04","secret":"1e28019ec6","server":"65535","farm":66,"title":"Forster's Tern (Sterna forsteri), adult breeding DSD_0087","ispublic":1,"isfriend":0,"isfamily":0},{"id":"52238524554","owner":"60216873@N05","secret":"dcfc53b604","server":"65535","farm":66,"title":"A Mouthful","ispublic":1,"isfriend":0,"isfamily":0},{"id":"52232781437","owner":"117307568@N03","secret":"969daa7552","server":"65535","farm":66,"title":"Forster's Tern (Sterna forsteri)","ispublic":1,"isfriend":0,"isfamily":0},{"id":"52226782571","owner":"34238008@N02","secret":"6dc8e06628","server":"65535","farm":66,"title":"Forster's Tern (Sterna forsteri)","ispublic":1,"isfriend":0,"isfamily":0},{"id":"52677853402","owner":"124995824@N08","secret":"ce7d5ff988","server":"65535","farm":66,"title":"Forster's Tern - Sterna forsteri","ispublic":1,"isfriend":0,"isfamily":0},{"id":"52564206584","owner":"140318147@N08","secret":"2f1d0896e8","server":"65535","farm":66,"title":"Forster's tern (Sterna forsteri) L4A7612","ispublic":1,"isfriend":0,"isfamily":0},{"id":"52495798783","owner":"64557331@N04","secret":"1cf7349607","server":"65535","farm":66,"title":"Forster's Tern - (Sterna forsteri)_06062021_2","ispublic":1,"isfriend":0,"isfamily":0},{"id":"52495718150","owner":"64557331@N04","secret":"a34260e127","server":"65535","farm":66,"title":"Forster's Tern - (Sterna forsteri)_06062021","ispublic":1,"isfriend":0,"isfamily":0},{"id":"52495776343","owner":"64557331@N04","secret":"94536ba71f","server":"65535","farm":66,"title":"Forster's Tern - (Sterna forsteri)_08072022_2","ispublic":1,"isfriend":0,"isfamily":0},{"id":"52494739017","owner":"64557331@N04","secret":"b9d72d02b1","server":"65535","farm":66,"title":"Forster's Tern - (Sterna forsteri)_08072022","ispublic":1,"isfriend":0,"isfamily":0},{"id":"52465166889","owner":"157220357@N08","secret":"195ea78673","server":"65535","farm":66,"title":"Dundalk Forsters Tern","ispublic":1,"isfriend":0,"isfamily":0},{"id":"52415395765","owner":"34238008@N02","secret":"6468e39668","server":"65535","farm":66,"title":"Forster's Tern (Sterna forsteri)","ispublic":1,"isfriend":0,"isfamily":0},{"id":"52415236494","owner":"34238008@N02","secret":"bf3a9e20b8","server":"65535","farm":66,"title":"Forster's Tern (Sterna forsteri)","ispublic":1,"isfriend":0,"isfamily":0},{"id":"52414063114","owner":"71989271@N06","secret":"26cf3ce036","server":"65535","farm":66,"title":"Forster's Tern (Sterna forsteri)","ispublic":1,"isfriend":0,"isfamily":0},{"id":"52413269747","owner":"71989271@N06","secret":"dfa6499801","server":"65535","farm":66,"title":"Forster's Tern (Sterna forsteri)","ispublic":1,"isfriend":0,"isfamily":0},{"id":"52406242337","owner":"71989271@N06","secret":"26345f6af3","server":"65535","farm":66,"title":"Forster's Tern (Sterna forsteri)","ispublic":1,"isfriend":0,"isfamily":0},{"id":"52231130655","owner":"152192108@N08","secret":"83d041bd0c","server":"65535","farm":66,"title":"Sterne de Forster","ispublic":1,"isfriend":0,"isfamily":0},{"id":"52227054239","owner":"34238008@N02","secret":"d697089e2e","server":"65535","farm":66,"title":"Forster's Tern (Sterna forsteri)","ispublic":1,"isfriend":0,"isfamily":0},{"id":"52225777982","owner":"34238008@N02","secret":"2553a0141d","server":"65535","farm":66,"title":"Forster's Tern (Sterna forsteri)","ispublic":1,"isfriend":0,"isfamily":0}]},"stat":"ok"}