{"photos":{"page":1,"pages":31,"perpage":100,"total":3087,"photo":[{"id":"52715657005","owner":"11159374@N04","secret":"9a2bdf4337","server":"65535","farm":66,"title":"Dark-eyed Junco","ispublic":1,"isfriend":0,"isfamily":0},{"id":"52714660570","owner":"144980256@N07","secret":"a409030f37","server":"65535","farm":66,"title":"Fox Sparrow (Passerella iliaca)","ispublic":1,"isfriend":0,"isfamily":0},{"id":"52713560871","owner":"8783241@N08","secret":"ec2a0cf67d","server":"65535","farm":66,"title":"Passerella iliaca - Fox Sparrow","ispublic":1,"isfriend":0,"isfamily":0},{"id":"52707843397","owner":"62907378@N07","secret":"c05014e44a","server":"65535","farm":66,"title":"Fox Sparrow - red- (Passerella iliaca)","ispublic":1,"isfriend":0,"isfamily":0},{"id":"52701574244","owner":"84175980@N00","secret":"5f1b2955f5","server":"65535","farm":66,"title":"20230117 Passerella iliaca (Fox Sparrow) (2)","ispublic":1,"isfriend":0,"isfamily":0},{"id":"52685875596","owner":"103722035@N06","secret":"834e93063f","server":"0","farm":0,"title":"Fox Sparrow (Passerella iliaca), Cerro Alto, Highway 41, San Luis Obispo County, CA","ispublic":1,"isfriend":0,"isfamily":0},{"id":"52684383647","owner":"53977003@N00","secret":"345b8cb62a","server":"65535","farm":66,"title":"Fox Sparrow","ispublic":1,"isfriend":0,"isfamily":0},{"id":"52677235337","owner":"129849840@N08","secret":"b5437009b4","server":"65535","farm":66,"title":"Sly","ispublic":1,"isfriend":0,"isfamily":0},{"id":"52675518956","owner":"68635735@N02","secret":"5f41df6614","server":"65535","farm":66,"title":"Fox Sparrow (Passerella iliaca)","ispublic":1,"isfriend":0,"isfamily":0},{"id":"52675807939","owner":"68635735@N02","secret":"9b88892a5c","server":"65535","farm":66,"title":"Fox Sparrow (Passerella iliaca)","ispublic":1,"isfriend":0,"isfamily":0},{"id":"52668051165","owner":"33610210@N05","secret":"35f930a98a","server":"65535","farm":66,"title":"Fox Sparrow, Passerella iliaca iliaca","ispublic":1,"isfriend":0,"isfamily":0},{"id":"52667768038","owner":"188156748@N07","secret":"f79f40a0a2","server":"65535","farm":66,"title":"Fox-Sparrow \u2013 Bruant Fauve \u2013 Passerella iliaca 0209 (2)-SharpenAI-Standard copy.jpgS","ispublic":1,"isfriend":0,"isfamily":0},{"id":"52667553294","owner":"188156748@N07","secret":"6e29bd5266","server":"65535","farm":66,"title":"Fox-Sparrow \u2013 Bruant Fauve \u2013 Passerella iliaca 0209 (3)-SharpenAI-Standard copy.jpgS","ispublic":1,"isfriend":0,"isfamily":0},{"id":"52667262931","owner":"188156748@N07","secret":"6dab817da1","server":"65535","farm":66,"title":"Fox-Sparrow \u2013 Bruant Fauve \u2013 Passerella iliaca 0209 (5)-SharpenAI-Standard copy.jpgS","ispublic":1,"isfriend":0,"isfamily":0},{"id":"52657433549","owner":"28631427@N00","secret":"7d38ca26db","server":"65535","farm":66,"title":"Fox Sparrow","ispublic":1,"isfriend":0,"isfamily":0},{"id":"52657285813","owner":"194196140@N08","secret":"12fa2d9379","server":"65535","farm":66,"title":"Fox Sparrow (Passerella iliaca)","ispublic":1,"isfriend":0,"isfamily":0},{"id":"52652565600","owner":"181824639@N02","secret":"e9fe7356ba","server":"65535","farm":66,"title":"Bruant fauve ( Passerella iliaca )","ispublic":1,"isfriend":0,"isfamily":0},{"id":"52650260899","owner":"70295563@N00","secret":"d239cd5539","server":"65535","farm":66,"title":"Foxy","ispublic":1,"isfriend":0,"isfamily":0},{"id":"52647180046","owner":"195537536@N03","secret":"68d7225688","server":"65535","farm":66,"title":"Fox Sparrow (Passerella iliaca}","ispublic":1,"isfriend":0,"isfamily":0},{"id":"52644603707","owner":"42034606@N05","secret":"7e024fc38c","server":"65535","farm":66,"title":"Dark eyed junco on the Coconino","ispublic":1,"isfriend":0,"isfamily":0},{"id":"52645548455","owner":"42034606@N05","secret":"b3a0144e57","server":"65535","farm":66,"title":"Dark eyed junco on the Coconino","ispublic":1,"isfriend":0,"isfamily":0},{"id":"52645546515","owner":"42034606@N05","secret":"623d5dd6ac","server":"65535","farm":66,"title":"Dark eyed junco on the Coconino","ispublic":1,"isfriend":0,"isfamily":0},{"id":"52642573528","owner":"84175980@N00","secret":"9e7ced6d70","server":"65535","farm":66,"title":"20230117 Passerella iliaca (Fox Sparrow) (3)","ispublic":1,"isfriend":0,"isfamily":0},{"id":"52639348649","owner":"146455226@N02","secret":"c4f98a52d1","server":"65535","farm":66,"title":"Fox Sparrow #2","ispublic":1,"isfriend":0,"isfamily":0},{"id":"52639092176","owner":"146455226@N02","secret":"693631b37c","server":"65535","farm":66,"title":"Fox Sparrow #3","ispublic":1,"isfriend":0,"isfamily":0},{"id":"52639523515","owner":"146455226@N02","secret":"acfe8491d5","server":"65535","farm":66,"title":"Fox Sparrow #4","ispublic":1,"isfriend":0,"isfamily":0},{"id":"52638573327","owner":"146455226@N02","secret":"b2a3f57b1d","server":"65535","farm":66,"title":"Fox Sparrow #1","ispublic":1,"isfriend":0,"isfamily":0},{"id":"52636808306","owner":"71649471@N02","secret":"baa3123dac","server":"65535","farm":66,"title":"Fox Sparrow","ispublic":1,"isfriend":0,"isfamily":0},{"id":"52637053729","owner":"34238008@N02","secret":"083fb21888","server":"65535","farm":66,"title":"Fox Sparrow, Sooty (Passerella iliaca [unalaschcensis Group])","ispublic":1,"isfriend":0,"isfamily":0},{"id":"52637236185","owner":"34238008@N02","secret":"d67677f14d","server":"65535","farm":66,"title":"Fox Sparrow, Sooty (Passerella iliaca [unalaschcensis Group])","ispublic":1,"isfriend":0,"isfamily":0},{"id":"52637275613","owner":"34238008@N02","secret":"e3571d199b","server":"65535","farm":66,"title":"Fox Sparrow, Sooty (Passerella iliaca [unalaschcensis Group])","ispublic":1,"isfriend":0,"isfamily":0},{"id":"52637052524","owner":"34238008@N02","secret":"bf71428866","server":"65535","farm":66,"title":"Fox Sparrow, Sooty (Passerella iliaca [unalaschcensis Group])","ispublic":1,"isfriend":0,"isfamily":0},{"id":"52637274708","owner":"34238008@N02","secret":"eb1aab53c1","server":"65535","farm":66,"title":"Fox Sparrow, Sooty (Passerella iliaca [unalaschcensis Group])","ispublic":1,"isfriend":0,"isfamily":0},{"id":"52636792011","owner":"34238008@N02","secret":"462d14cbf7","server":"65535","farm":66,"title":"Fox Sparrow, Sooty (Passerella iliaca [unalaschcensis Group])","ispublic":1,"isfriend":0,"isfamily":0},{"id":"52637274233","owner":"34238008@N02","secret":"44d7edfecc","server":"65535","farm":66,"title":"Fox Sparrow, Sooty (Passerella iliaca [unalaschcensis Group])","ispublic":1,"isfriend":0,"isfamily":0},{"id":"52637273933","owner":"34238008@N02","secret":"1eafd40fa8","server":"65535","farm":66,"title":"Fox Sparrow, Sooty (Passerella iliaca [unalaschcensis Group])","ispublic":1,"isfriend":0,"isfamily":0},{"id":"52637233670","owner":"34238008@N02","secret":"3baccb53df","server":"65535","farm":66,"title":"Fox Sparrow, Sooty (Passerella iliaca [unalaschcensis Group])","ispublic":1,"isfriend":0,"isfamily":0},{"id":"52617815913","owner":"21584095@N00","secret":"267128550d","server":"65535","farm":66,"title":"Fox Sparrow (Passerella iliaca)","ispublic":1,"isfriend":0,"isfamily":0},{"id":"52612945107","owner":"52796122@N06","secret":"cf80e4e4f5","server":"65535","farm":66,"title":"Fox Sparrow (Passerella iliaca)","ispublic":1,"isfriend":0,"isfamily":0},{"id":"52611315964","owner":"132165466@N08","secret":"158c0d9182","server":"65535","farm":66,"title":"Fox Sparrow, sooty race","ispublic":1,"isfriend":0,"isfamily":0},{"id":"52598701459","owner":"44904157@N04","secret":"41428a8f1a","server":"65535","farm":66,"title":"Fox Sparrow","ispublic":1,"isfriend":0,"isfamily":0},{"id":"52583091957","owner":"65632611@N00","secret":"92bf46f0ce","server":"65535","farm":66,"title":"Forest Park: Fox Sparrow Posing  (6795)","ispublic":1,"isfriend":0,"isfamily":0},{"id":"52580695795","owner":"153973412@N04","secret":"0b5a990ec3","server":"65535","farm":66,"title":"Red Fox Sparrow-Passerella iliaca, Hawkeye WMA, IA","ispublic":1,"isfriend":0,"isfamily":0},{"id":"52580658915","owner":"75620067@N05","secret":"b57268a4e9","server":"65535","farm":66,"title":"Fox Sparrow in Viburnam","ispublic":1,"isfriend":0,"isfamily":0},{"id":"52570351212","owner":"88978913@N08","secret":"1b523be872","server":"65535","farm":66,"title":"Fox Sparrow, Passerella iliaca","ispublic":1,"isfriend":0,"isfamily":0},{"id":"52567048166","owner":"61241315@N00","secret":"db04f1878f","server":"0","farm":0,"title":"Fox Sparrow_1745.MP4","ispublic":1,"isfriend":0,"isfamily":0},{"id":"52567323904","owner":"61241315@N00","secret":"2d20831a71","server":"65535","farm":66,"title":"Fox Sparrow_N1741","ispublic":1,"isfriend":0,"isfamily":0},{"id":"52567323859","owner":"61241315@N00","secret":"8d63bc7997","server":"65535","farm":66,"title":"Fox Sparrow_N1743","ispublic":1,"isfriend":0,"isfamily":0},{"id":"52567048276","owner":"61241315@N00","secret":"45bd312ec1","server":"65535","farm":66,"title":"Fox Sparrow_N1744","ispublic":1,"isfriend":0,"isfamily":0},{"id":"52567572348","owner":"61241315@N00","secret":"7b4798c9f3","server":"65535","farm":66,"title":"Fox Sparrow_N1758","ispublic":1,"isfriend":0,"isfamily":0},{"id":"52567572323","owner":"61241315@N00","secret":"3c18c989f6","server":"65535","farm":66,"title":"Fox Sparrow_N1759","ispublic":1,"isfriend":0,"isfamily":0},{"id":"52565689093","owner":"127461478@N08","secret":"0cf5e19701","server":"65535","farm":66,"title":"IMG_7209 Bruant fauve, Roberval","ispublic":1,"isfriend":0,"isfamily":0},{"id":"52565612020","owner":"127461478@N08","secret":"b84597c967","server":"65535","farm":66,"title":"IMG_7205 Bruant fauve, Roberval","ispublic":1,"isfriend":0,"isfamily":0},{"id":"52565439064","owner":"127461478@N08","secret":"b06a48f9d0","server":"65535","farm":66,"title":"IMG_7118 Bruant fauve, Roberval","ispublic":1,"isfriend":0,"isfamily":0},{"id":"52565686028","owner":"127461478@N08","secret":"72889d3d5f","server":"65535","farm":66,"title":"IMG_6990 Bruant fauve, Roberval","ispublic":1,"isfriend":0,"isfamily":0},{"id":"52564239700","owner":"127461478@N08","secret":"639a42099e","server":"65535","farm":66,"title":"IMG_7119 Bruant fauve, Roberval","ispublic":1,"isfriend":0,"isfamily":0},{"id":"52563323032","owner":"127461478@N08","secret":"c6368c7bb1","server":"65535","farm":66,"title":"IMG_7012 Bruant fauve, Roberval","ispublic":1,"isfriend":0,"isfamily":0},{"id":"52563322252","owner":"127461478@N08","secret":"9c6c84cb13","server":"65535","farm":66,"title":"IMG_6949 Bruant fauve, Roberval","ispublic":1,"isfriend":0,"isfamily":0},{"id":"52562711343","owner":"127461478@N08","secret":"80c70cba3f","server":"65535","farm":66,"title":"IMG_6872 Bruant fauve, Roberval","ispublic":1,"isfriend":0,"isfamily":0},{"id":"52562710833","owner":"127461478@N08","secret":"71c7ed9cac","server":"65535","farm":66,"title":"IMG_6817 Bruant fauve, Roberval","ispublic":1,"isfriend":0,"isfamily":0},{"id":"52562171811","owner":"127461478@N08","secret":"4b96957eac","server":"65535","farm":66,"title":"IMG_6802 Bruant fauve, Roberval","ispublic":1,"isfriend":0,"isfamily":0},{"id":"52562171391","owner":"127461478@N08","secret":"8e46c042cc","server":"65535","farm":66,"title":"IMG_6753 Bruant fauve, Roberval","ispublic":1,"isfriend":0,"isfamily":0},{"id":"52561716137","owner":"127461478@N08","secret":"54a2c57c25","server":"65535","farm":66,"title":"IMG_6718 Bruant fauve, Roberval","ispublic":1,"isfriend":0,"isfamily":0},{"id":"52562459254","owner":"127461478@N08","secret":"a76d66ee6f","server":"65535","farm":66,"title":"IMG_6706 Bruant fauve, Roberval","ispublic":1,"isfriend":0,"isfamily":0},{"id":"52562708853","owner":"127461478@N08","secret":"5c20058e15","server":"65535","farm":66,"title":"IMG_6700 Bruant fauve, Roberval","ispublic":1,"isfriend":0,"isfamily":0},{"id":"52561715222","owner":"127461478@N08","secret":"7723dc3402","server":"65535","farm":66,"title":"IMG_6663 Bruant fauve, Roberval","ispublic":1,"isfriend":0,"isfamily":0},{"id":"52562168431","owner":"127461478@N08","secret":"ff90be303a","server":"65535","farm":66,"title":"IMG_6569 Bruant fauve, Roberval","ispublic":1,"isfriend":0,"isfamily":0},{"id":"52560793848","owner":"103722035@N06","secret":"b68361e20d","server":"0","farm":0,"title":"Fox Sparrow (Passerella iliaca), Monta\u00f1s de Oro State Park, Los Osos, CA","ispublic":1,"isfriend":0,"isfamily":0},{"id":"52557687766","owner":"135315828@N06","secret":"6e94bebcf2","server":"65535","farm":66,"title":"fox sparrow","ispublic":1,"isfriend":0,"isfamily":0},{"id":"52557982774","owner":"135315828@N06","secret":"0107ebcb8e","server":"65535","farm":66,"title":"fox sparrow","ispublic":1,"isfriend":0,"isfamily":0},{"id":"52558229218","owner":"135315828@N06","secret":"1bb6b404aa","server":"65535","farm":66,"title":"fox sparrow","ispublic":1,"isfriend":0,"isfamily":0},{"id":"52554245356","owner":"61241315@N00","secret":"fe046df6de","server":"0","farm":0,"title":"Fox Sparrow_1240.MP4","ispublic":1,"isfriend":0,"isfamily":0},{"id":"52554717900","owner":"61241315@N00","secret":"e68ec048a7","server":"65535","farm":66,"title":"Fox Sparrow_N1232","ispublic":1,"isfriend":0,"isfamily":0},{"id":"52554539504","owner":"61241315@N00","secret":"7ae6aa4ae7","server":"65535","farm":66,"title":"Fox Sparrow_N1234","ispublic":1,"isfriend":0,"isfamily":0},{"id":"52554717880","owner":"61241315@N00","secret":"58e6f9983c","server":"65535","farm":66,"title":"Fox Sparrow_N1238","ispublic":1,"isfriend":0,"isfamily":0},{"id":"52553786117","owner":"61241315@N00","secret":"8fe9d6451d","server":"65535","farm":66,"title":"Fox Sparrow_N1239","ispublic":1,"isfriend":0,"isfamily":0},{"id":"52554539429","owner":"61241315@N00","secret":"85e37411ef","server":"65535","farm":66,"title":"Fox Sparrow_N1253","ispublic":1,"isfriend":0,"isfamily":0},{"id":"52554245426","owner":"61241315@N00","secret":"152d33b841","server":"65535","farm":66,"title":"Fox Sparrow_N1251","ispublic":1,"isfriend":0,"isfamily":0},{"id":"52554539414","owner":"61241315@N00","secret":"5c7c294fa6","server":"65535","farm":66,"title":"Fox Sparrow_N1257","ispublic":1,"isfriend":0,"isfamily":0},{"id":"52554717770","owner":"61241315@N00","secret":"f8b70e59c1","server":"65535","farm":66,"title":"Fox Sparrow_N1259","ispublic":1,"isfriend":0,"isfamily":0},{"id":"52552426030","owner":"37834207@N06","secret":"44b8090309","server":"65535","farm":66,"title":"December Sparrow   ......Fox Sparrow 2473 Charmlee Southern California_","ispublic":1,"isfriend":0,"isfamily":0},{"id":"52551098185","owner":"88978913@N08","secret":"cf869a6468","server":"65535","farm":66,"title":"Fox Sparrow (Sooty), Passerella iliaca","ispublic":1,"isfriend":0,"isfamily":0},{"id":"52546541972","owner":"44904157@N04","secret":"2294ca44df","server":"65535","farm":66,"title":"Fox Sparrow","ispublic":1,"isfriend":0,"isfamily":0},{"id":"52545493245","owner":"45340210@N05","secret":"225dcb561f","server":"65535","farm":66,"title":"Fox Sparrow 2 12_2_22","ispublic":1,"isfriend":0,"isfamily":0},{"id":"52539702730","owner":"30553002@N05","secret":"a2c447e131","server":"65535","farm":66,"title":"dressed in a plain brown coat . . .","ispublic":1,"isfriend":0,"isfamily":0},{"id":"52528751579","owner":"62043870@N05","secret":"ce9eb97794","server":"65535","farm":66,"title":"Fox Sparrow, Passerella iliaca","ispublic":1,"isfriend":0,"isfamily":0},{"id":"52525658381","owner":"99849996@N00","secret":"0af8909790","server":"65535","farm":66,"title":"Fox Sparrow 20211120_5562","ispublic":1,"isfriend":0,"isfamily":0},{"id":"52524774193","owner":"91064752@N03","secret":"d4503a01be","server":"65535","farm":66,"title":"Red Fox Sparrow","ispublic":1,"isfriend":0,"isfamily":0},{"id":"52523374664","owner":"37566919@N02","secret":"bd3b80b6a5","server":"65535","farm":66,"title":"Fox Sparrow (Red)","ispublic":1,"isfriend":0,"isfamily":0},{"id":"52523175615","owner":"84169650@N07","secret":"502fdbf371","server":"65535","farm":66,"title":"Fox Sparrow","ispublic":1,"isfriend":0,"isfamily":0},{"id":"52668051235","owner":"33610210@N05","secret":"8476b534d9","server":"65535","farm":66,"title":"Fox Sparrow, Passerella iliaca iliaca","ispublic":1,"isfriend":0,"isfamily":0},{"id":"52668051220","owner":"33610210@N05","secret":"cb63513404","server":"65535","farm":66,"title":"Fox Sparrow, Passerella iliaca iliaca","ispublic":1,"isfriend":0,"isfamily":0},{"id":"52668118023","owner":"33610210@N05","secret":"9141532487","server":"65535","farm":66,"title":"Fox Sparrow, Passerella iliaca iliaca","ispublic":1,"isfriend":0,"isfamily":0},{"id":"52583421886","owner":"45693831@N00","secret":"7637d44cb6","server":"65535","farm":66,"title":"Fox Sparrow","ispublic":1,"isfriend":0,"isfamily":0},{"id":"52565437944","owner":"127461478@N08","secret":"8801ec482e","server":"65535","farm":66,"title":"IMG_7012 Bruant fauve, Roberval","ispublic":1,"isfriend":0,"isfamily":0},{"id":"52565686318","owner":"127461478@N08","secret":"4ce98bcffa","server":"65535","farm":66,"title":"IMG_7001 Bruant fauve, Roberval","ispublic":1,"isfriend":0,"isfamily":0},{"id":"52565685493","owner":"127461478@N08","secret":"a9466d6a7a","server":"65535","farm":66,"title":"IMG_6949 Bruant fauve, Roberval","ispublic":1,"isfriend":0,"isfamily":0},{"id":"52564315893","owner":"127461478@N08","secret":"ae46ee6921","server":"65535","farm":66,"title":"IMG_7303 Bruant fauve, Roberval","ispublic":1,"isfriend":0,"isfamily":0},{"id":"52564315618","owner":"127461478@N08","secret":"56d4fa659b","server":"65535","farm":66,"title":"IMG_7235 Bruant fauve, Roberval","ispublic":1,"isfriend":0,"isfamily":0},{"id":"52528753764","owner":"62043870@N05","secret":"f7306e28ec","server":"65535","farm":66,"title":"Fox Sparrow, Passerella iliaca","ispublic":1,"isfriend":0,"isfamily":0}]},"stat":"ok"}