{"photos":{"page":1,"pages":14,"perpage":100,"total":1352,"photo":[{"id":"52772793707","owner":"182381287@N07","secret":"68ee58d019","server":"65535","farm":66,"title":"Gaivota-de-franklin (Leucophaeus pipixcan)","ispublic":1,"isfriend":0,"isfamily":0},{"id":"52759134310","owner":"195179412@N07","secret":"3eabef354e","server":"65535","farm":66,"title":"Gaviota de Franklin, Leucophaeus pipixcan","ispublic":1,"isfriend":0,"isfamily":0},{"id":"52747147232","owner":"53358437@N07","secret":"6796c8c4be","server":"65535","farm":66,"title":"Franklin's Gull (Leucophaeus pipixcan)","ispublic":1,"isfriend":0,"isfamily":0},{"id":"52671445679","owner":"32674493@N04","secret":"05cb6cfe1f","server":"65535","farm":66,"title":"Gaivota-de-franklin (Leucophaeus pipixcan)","ispublic":1,"isfriend":0,"isfamily":0},{"id":"52636638366","owner":"37203410@N07","secret":"f6a1168c71","server":"65535","farm":66,"title":"Gaviota de Franklin \/ Leucophaeus pipixcan","ispublic":1,"isfriend":0,"isfamily":0},{"id":"52636015142","owner":"37203410@N07","secret":"deb4722971","server":"65535","farm":66,"title":"Gaviota de Franklin \/ Leucophaeus pipixcan","ispublic":1,"isfriend":0,"isfamily":0},{"id":"52636008777","owner":"37203410@N07","secret":"5ab4cdd029","server":"65535","farm":66,"title":"Gaviota de Franklin \/ Leucophaeus pipixcan","ispublic":1,"isfriend":0,"isfamily":0},{"id":"52616627261","owner":"143294701@N04","secret":"ba0ba498f7","server":"65535","farm":66,"title":"Franklin's Gull (Leucophaeus pipixcan)","ispublic":1,"isfriend":0,"isfamily":0},{"id":"52551077786","owner":"140734051@N08","secret":"98f8f84b94","server":"65535","farm":66,"title":"\u0424\u0440\u0430\u043d\u043a\u043b\u0438\u043d\u043e\u0432\u0430 \u0447\u0430\u0439\u043a\u0430, Leucophaeus pipixcan, Franklin's Gull","ispublic":1,"isfriend":0,"isfamily":0},{"id":"52551545850","owner":"140734051@N08","secret":"3d89615e64","server":"65535","farm":66,"title":"\u0424\u0440\u0430\u043d\u043a\u043b\u0438\u043d\u043e\u0432\u0430 \u0447\u0430\u0439\u043a\u0430, Leucophaeus pipixcan, Franklin's Gull","ispublic":1,"isfriend":0,"isfamily":0},{"id":"52531072833","owner":"33610210@N05","secret":"21749c2c20","server":"65535","farm":66,"title":"Franklin's Gull, Leucophaeus pipixcan","ispublic":1,"isfriend":0,"isfamily":0},{"id":"52512325692","owner":"48014585@N00","secret":"7c7e148661","server":"65535","farm":66,"title":"Franklin's Gull","ispublic":1,"isfriend":0,"isfamily":0},{"id":"52512325462","owner":"48014585@N00","secret":"1dec7b9b30","server":"65535","farm":66,"title":"Franklin's Gull","ispublic":1,"isfriend":0,"isfamily":0},{"id":"52513276825","owner":"48014585@N00","secret":"c78fd6b96a","server":"65535","farm":66,"title":"Franklin's Gull","ispublic":1,"isfriend":0,"isfamily":0},{"id":"52512325212","owner":"48014585@N00","secret":"d44e05258a","server":"65535","farm":66,"title":"Franklin's Gull","ispublic":1,"isfriend":0,"isfamily":0},{"id":"52476397998","owner":"23020855@N03","secret":"a340d18579","server":"65535","farm":66,"title":"Eastern Kingbird - Oak Bluffs, MB","ispublic":1,"isfriend":0,"isfamily":0},{"id":"52471307116","owner":"23020855@N03","secret":"55554e60ec","server":"65535","farm":66,"title":"Franklin's Gull - Oak Bluff, MB","ispublic":1,"isfriend":0,"isfamily":0},{"id":"52448661039","owner":"78441846@N03","secret":"588ec84c14","server":"65535","farm":66,"title":"Ring-billed Gulls, Larus delawarensis, and Franklin's Gulls, Leucophaeus pipixcan, mixed flock on lakeshore","ispublic":1,"isfriend":0,"isfamily":0},{"id":"52378098342","owner":"51986662@N05","secret":"c9e26245d2","server":"65535","farm":66,"title":"Franklin's Gull on Neilson WPA Lake Andes Wetland Management District South Dakota","ispublic":1,"isfriend":0,"isfamily":0},{"id":"52375566205","owner":"196264892@N08","secret":"39a3d96736","server":"65535","farm":66,"title":"Franklin's Gull","ispublic":1,"isfriend":0,"isfamily":0},{"id":"52332369713","owner":"40006638@N06","secret":"82552b09b9","server":"65535","farm":66,"title":"Franklin's Gull juvenile - 094A1515a1c","ispublic":1,"isfriend":0,"isfamily":0},{"id":"52274484917","owner":"196264892@N08","secret":"3eef9647ee","server":"65535","farm":66,"title":"Franklin's Gull 1","ispublic":1,"isfriend":0,"isfamily":0},{"id":"52275459691","owner":"196264892@N08","secret":"97a92acae5","server":"65535","farm":66,"title":"Franklin's Gull 2","ispublic":1,"isfriend":0,"isfamily":0},{"id":"52344709078","owner":"134270033@N06","secret":"da3ab672c7","server":"65535","farm":66,"title":"HFF :: Happy Fence Friday","ispublic":1,"isfriend":0,"isfamily":0},{"id":"52343481043","owner":"134270033@N06","secret":"67dbd79dbc","server":"65535","farm":66,"title":"Photo doc shots","ispublic":1,"isfriend":0,"isfamily":0},{"id":"52343539949","owner":"134270033@N06","secret":"35dfcfea0b","server":"65535","farm":66,"title":"Photo doc shots","ispublic":1,"isfriend":0,"isfamily":0},{"id":"52335475670","owner":"134270033@N06","secret":"a79145f726","server":"65535","farm":66,"title":"Happy Twosday Tuesday","ispublic":1,"isfriend":0,"isfamily":0},{"id":"52331483591","owner":"134270033@N06","secret":"c50f38647a","server":"65535","farm":66,"title":"Transitional Plumage","ispublic":1,"isfriend":0,"isfamily":0},{"id":"52180654104","owner":"32674493@N04","secret":"10ec6f39a2","server":"65535","farm":66,"title":"Gaivota-de-franklin (Leucophaeus pipixcan)","ispublic":1,"isfriend":0,"isfamily":0},{"id":"52177235125","owner":"56902740@N06","secret":"e62b0df784","server":"65535","farm":66,"title":"Franklin's Gull","ispublic":1,"isfriend":0,"isfamily":0},{"id":"52166919385","owner":"167408553@N04","secret":"282846122a","server":"65535","farm":66,"title":"Gaviota de Franklin","ispublic":1,"isfriend":0,"isfamily":0},{"id":"52166441073","owner":"167408553@N04","secret":"43204d8c05","server":"65535","farm":66,"title":"Gaviota de Franklin","ispublic":1,"isfriend":0,"isfamily":0},{"id":"52154408886","owner":"32752434@N07","secret":"6fe9516d25","server":"65535","farm":66,"title":"Franklin's Gull (Leucophaeus pipixcan)","ispublic":1,"isfriend":0,"isfamily":0},{"id":"52134753095","owner":"62445008@N00","secret":"59381e84cf","server":"65535","farm":66,"title":"Franklin's Gull (Leucophaeus pipixcan)","ispublic":1,"isfriend":0,"isfamily":0},{"id":"52134281503","owner":"62445008@N00","secret":"b10d41934c","server":"65535","farm":66,"title":"Franklin's Gull (Leucophaeus pipixcan)","ispublic":1,"isfriend":0,"isfamily":0},{"id":"52134500184","owner":"62445008@N00","secret":"0d6301efe5","server":"65535","farm":66,"title":"Franklin's Gull (Leucophaeus pipixcan)","ispublic":1,"isfriend":0,"isfamily":0},{"id":"52134752450","owner":"62445008@N00","secret":"f29a6b22eb","server":"65535","farm":66,"title":"Franklin's Gull (Leucophaeus pipixcan)","ispublic":1,"isfriend":0,"isfamily":0},{"id":"52104650339","owner":"69812270@N00","secret":"a39404380b","server":"65535","farm":66,"title":"Franklin's Gull viewed from the jetty at the Small Craft Harbor","ispublic":1,"isfriend":0,"isfamily":0},{"id":"52104634434","owner":"69812270@N00","secret":"db09a65b89","server":"65535","farm":66,"title":"This Franklin's Gull had a better idea!","ispublic":1,"isfriend":0,"isfamily":0},{"id":"52085325191","owner":"25501001@N08","secret":"ba89febbda","server":"65535","farm":66,"title":"Portrait, Franklin's Gull","ispublic":1,"isfriend":0,"isfamily":0},{"id":"52062884494","owner":"54059915@N07","secret":"936830cb1b","server":"65535","farm":66,"title":"Franklin's Gull","ispublic":1,"isfriend":0,"isfamily":0},{"id":"52015046347","owner":"148290785@N06","secret":"c27aecbf8d","server":"65535","farm":66,"title":"Two","ispublic":1,"isfriend":0,"isfamily":0},{"id":"51925893345","owner":"146637507@N05","secret":"72acf612bc","server":"65535","farm":66,"title":"Gabbiano di Franklin  - Leucophaeus pipixcan - Franklin's gull","ispublic":1,"isfriend":0,"isfamily":0},{"id":"51922341426","owner":"40337615@N08","secret":"2de81b30d1","server":"65535","farm":66,"title":"Gabbiano di Franklin (Leucophaeus pipixcan)","ispublic":1,"isfriend":0,"isfamily":0},{"id":"51922676899","owner":"40337615@N08","secret":"db3b4b2c4d","server":"65535","farm":66,"title":"Gabbiano di Franklin (Leucophaeus pipixcan)","ispublic":1,"isfriend":0,"isfamily":0},{"id":"51913376610","owner":"188451439@N02","secret":"bf83092f4b","server":"65535","farm":66,"title":"Franklin\u00b4s Gull (Leucophaeus pipixcan)","ispublic":1,"isfriend":0,"isfamily":0},{"id":"51911795432","owner":"188451439@N02","secret":"b6591f9329","server":"65535","farm":66,"title":"Franklin\u00b4s Gull (Leucophaeus pipixcan)","ispublic":1,"isfriend":0,"isfamily":0},{"id":"51912855263","owner":"188451439@N02","secret":"457b4677ef","server":"65535","farm":66,"title":"Franklin\u00b4s Gull (Leucophaeus pipixcan)","ispublic":1,"isfriend":0,"isfamily":0},{"id":"51912855228","owner":"188451439@N02","secret":"744db21682","server":"65535","farm":66,"title":"Franklin\u00b4s Gull (Leucophaeus pipixcan)","ispublic":1,"isfriend":0,"isfamily":0},{"id":"51881832277","owner":"23020855@N03","secret":"e814f668f5","server":"65535","farm":66,"title":"Franklin's Gull - White Rock Pier, BC","ispublic":1,"isfriend":0,"isfamily":0},{"id":"51817575967","owner":"146235557@N08","secret":"00fac4aaea","server":"65535","farm":66,"title":"Gaviota de Franklin (Leucophaeus pipixcan)","ispublic":1,"isfriend":0,"isfamily":0},{"id":"51756913722","owner":"190923251@N05","secret":"8096ff1a55","server":"65535","farm":66,"title":"Ring-billed Gull (vocalizing) chasing Franklin's Gull with food","ispublic":1,"isfriend":0,"isfamily":0},{"id":"51748974720","owner":"34576387@N05","secret":"fb757e1be2","server":"65535","farm":66,"title":"The Birds","ispublic":1,"isfriend":0,"isfamily":0},{"id":"51667221166","owner":"134610359@N02","secret":"fab33fe768","server":"65535","farm":66,"title":"Gaivota-de-franklin","ispublic":1,"isfriend":0,"isfamily":0},{"id":"51574108032","owner":"183736567@N07","secret":"5a74793f64","server":"65535","farm":66,"title":"Franklin's Gull (Leucophaeus pipixcan) flying","ispublic":1,"isfriend":0,"isfamily":0},{"id":"51480533098","owner":"21875179@N06","secret":"15716b6cde","server":"65535","farm":66,"title":"FRANKLIN'S GULL on EAST FORK STATE PARK BEACH","ispublic":1,"isfriend":0,"isfamily":0},{"id":"51439305389","owner":"103722035@N06","secret":"372b713950","server":"0","farm":0,"title":"Franklin's Gull (Leucophaeus pipixcan), Baywood Park, CA","ispublic":1,"isfriend":0,"isfamily":0},{"id":"51391577862","owner":"34238008@N02","secret":"5fb5d33493","server":"65535","farm":66,"title":"Franklin's Gull (Leucophaeus pipixcan)","ispublic":1,"isfriend":0,"isfamily":0},{"id":"51391577692","owner":"34238008@N02","secret":"8bcca8f478","server":"65535","farm":66,"title":"Franklin's Gull (Leucophaeus pipixcan)","ispublic":1,"isfriend":0,"isfamily":0},{"id":"51391577562","owner":"34238008@N02","secret":"b50176b45b","server":"65535","farm":66,"title":"Franklin's Gull (Leucophaeus pipixcan)","ispublic":1,"isfriend":0,"isfamily":0},{"id":"51393072014","owner":"34238008@N02","secret":"d135f0caf4","server":"65535","farm":66,"title":"Franklin's Gull (Leucophaeus pipixcan)","ispublic":1,"isfriend":0,"isfamily":0},{"id":"51391577332","owner":"34238008@N02","secret":"46ef0746ab","server":"65535","farm":66,"title":"Franklin's Gull (Leucophaeus pipixcan)","ispublic":1,"isfriend":0,"isfamily":0},{"id":"51391577107","owner":"34238008@N02","secret":"861fa1086e","server":"65535","farm":66,"title":"Franklin's Gull, alt adult (Leucophaeus pipixcan)","ispublic":1,"isfriend":0,"isfamily":0},{"id":"51390479413","owner":"34238008@N02","secret":"74ee3114a7","server":"65535","farm":66,"title":"Franklin's Gull (Leucophaeus pipixcan) chased by Ring-billed Gull","ispublic":1,"isfriend":0,"isfamily":0},{"id":"52580833658","owner":"153973412@N04","secret":"4ab39b8116","server":"65535","farm":66,"title":"Franklin's Gull-Leucophaeus pipixcan, Alberta, Calgary","ispublic":1,"isfriend":0,"isfamily":0},{"id":"52555878392","owner":"186211059@N06","secret":"d473214799","server":"65535","farm":66,"title":"Franklin's Gull","ispublic":1,"isfriend":0,"isfamily":0},{"id":"52556323446","owner":"186211059@N06","secret":"6b46d08280","server":"65535","farm":66,"title":"Franklin's Gull","ispublic":1,"isfriend":0,"isfamily":0},{"id":"52551619293","owner":"140734051@N08","secret":"dd0da939af","server":"65535","farm":66,"title":"\u0424\u0440\u0430\u043d\u043a\u043b\u0438\u043d\u043e\u0432\u0430 \u0447\u0430\u0439\u043a\u0430, Leucophaeus pipixcan, Franklin's Gull","ispublic":1,"isfriend":0,"isfamily":0},{"id":"52551618988","owner":"140734051@N08","secret":"4d62e0764b","server":"65535","farm":66,"title":"\u0424\u0440\u0430\u043d\u043a\u043b\u0438\u043d\u043e\u0432\u0430 \u0447\u0430\u0439\u043a\u0430, Leucophaeus pipixcan, Franklin's Gull","ispublic":1,"isfriend":0,"isfamily":0},{"id":"52551369699","owner":"140734051@N08","secret":"a363136f03","server":"65535","farm":66,"title":"\u0424\u0440\u0430\u043d\u043a\u043b\u0438\u043d\u043e\u0432\u0430 \u0447\u0430\u0439\u043a\u0430, Leucophaeus pipixcan, Franklin's Gull","ispublic":1,"isfriend":0,"isfamily":0},{"id":"52550619067","owner":"140734051@N08","secret":"01ba85b18f","server":"65535","farm":66,"title":"\u0424\u0440\u0430\u043d\u043a\u043b\u0438\u043d\u043e\u0432\u0430 \u0447\u0430\u0439\u043a\u0430, Leucophaeus pipixcan, Franklin's Gull","ispublic":1,"isfriend":0,"isfamily":0},{"id":"52551617943","owner":"140734051@N08","secret":"d6b2470974","server":"65535","farm":66,"title":"\u0424\u0440\u0430\u043d\u043a\u043b\u0438\u043d\u043e\u0432\u0430 \u0447\u0430\u0439\u043a\u0430, Leucophaeus pipixcan, Franklin's Gull","ispublic":1,"isfriend":0,"isfamily":0},{"id":"52541573945","owner":"33610210@N05","secret":"c615a6751b","server":"65535","farm":66,"title":"Franklin's Gull, Leucophaeus pipixcan","ispublic":1,"isfriend":0,"isfamily":0},{"id":"52541642528","owner":"33610210@N05","secret":"bcec5504fd","server":"65535","farm":66,"title":"Franklin's Gull, Leucophaeus pipixcan","ispublic":1,"isfriend":0,"isfamily":0},{"id":"52531072503","owner":"33610210@N05","secret":"340c3c348c","server":"65535","farm":66,"title":"Franklin's Gull, Leucophaeus pipixcan","ispublic":1,"isfriend":0,"isfamily":0},{"id":"52530811734","owner":"33610210@N05","secret":"ca4b95c12b","server":"65535","farm":66,"title":"Franklin's Gull, Leucophaeus pipixcan","ispublic":1,"isfriend":0,"isfamily":0},{"id":"52530529516","owner":"33610210@N05","secret":"f60c12d5fa","server":"65535","farm":66,"title":"Franklin's Gull, Leucophaeus pipixcan","ispublic":1,"isfriend":0,"isfamily":0},{"id":"52530529341","owner":"33610210@N05","secret":"91cd1391e5","server":"65535","farm":66,"title":"Franklin's Gull, Leucophaeus pipixcan","ispublic":1,"isfriend":0,"isfamily":0},{"id":"52462774701","owner":"78441846@N03","secret":"50f0ca8cfc","server":"65535","farm":66,"title":"Franklin's Gull, Leucophaeus pipixcan","ispublic":1,"isfriend":0,"isfamily":0},{"id":"52463232235","owner":"78441846@N03","secret":"aaa8706b82","server":"65535","farm":66,"title":"Franklin's Gull, Leucophaeus pipixcan","ispublic":1,"isfriend":0,"isfamily":0},{"id":"52462263512","owner":"78441846@N03","secret":"bde5033343","server":"65535","farm":66,"title":"Franklin's Gull, Leucophaeus pipixcan","ispublic":1,"isfriend":0,"isfamily":0},{"id":"52462774501","owner":"78441846@N03","secret":"d269923813","server":"65535","farm":66,"title":"Franklin's Gulls, Leucophaeus pipixcan, and American White Pelicans, Pelecanus erythrorhynchos, mixed flock on lakeshore","ispublic":1,"isfriend":0,"isfamily":0},{"id":"52405976125","owner":"124732887@N02","secret":"aae388acb0","server":"65535","farm":66,"title":"Franklin's Gull","ispublic":1,"isfriend":0,"isfamily":0},{"id":"52406042428","owner":"124732887@N02","secret":"8a7a578f43","server":"65535","farm":66,"title":"Franklin's Gull","ispublic":1,"isfriend":0,"isfamily":0},{"id":"52402278576","owner":"124732887@N02","secret":"3b11518a47","server":"65535","farm":66,"title":"Franklin's Gull","ispublic":1,"isfriend":0,"isfamily":0},{"id":"52401766012","owner":"124732887@N02","secret":"ce528c6835","server":"65535","farm":66,"title":"Franklin's Gull","ispublic":1,"isfriend":0,"isfamily":0},{"id":"52391858174","owner":"196264892@N08","secret":"555f8cc0ca","server":"65535","farm":66,"title":"Franklin's Gull juvenile","ispublic":1,"isfriend":0,"isfamily":0},{"id":"52391545496","owner":"196264892@N08","secret":"efe032a06b","server":"65535","farm":66,"title":"Franklin's Gull juvenile","ispublic":1,"isfriend":0,"isfamily":0},{"id":"52390624057","owner":"196264892@N08","secret":"d40e9d8ff7","server":"65535","farm":66,"title":"Franklin's Gull juvenile","ispublic":1,"isfriend":0,"isfamily":0},{"id":"52390623917","owner":"196264892@N08","secret":"b3a4dbe575","server":"65535","farm":66,"title":"Franklin's Gull juvenile","ispublic":1,"isfriend":0,"isfamily":0},{"id":"52374203032","owner":"196264892@N08","secret":"6aa47cb8a5","server":"65535","farm":66,"title":"Franklin's Gull","ispublic":1,"isfriend":0,"isfamily":0},{"id":"48855557421","owner":"134270033@N06","secret":"8261fb89b7","server":"65535","farm":66,"title":"GULLOLOGY : FRGU Plumage Moult Pattern Study","ispublic":1,"isfriend":0,"isfamily":0},{"id":"52117154576","owner":"195827479@N08","secret":"7951f0739c","server":"65535","farm":66,"title":"Gaviota de Franklin","ispublic":1,"isfriend":0,"isfamily":0},{"id":"52082599662","owner":"188237033@N06","secret":"c7b711cb51","server":"65535","farm":66,"title":"Leucophaeus pipixcan","ispublic":1,"isfriend":0,"isfamily":0},{"id":"51908362802","owner":"188451439@N02","secret":"486da39de7","server":"65535","farm":66,"title":"Franklin\u00b4s Gull (Leucophaeus pipixcan)","ispublic":1,"isfriend":0,"isfamily":0},{"id":"51879595231","owner":"71989271@N06","secret":"0331cb168e","server":"65535","farm":66,"title":"Franklin's Gull (1st. win.)(Leucophaeus pipixcan)","ispublic":1,"isfriend":0,"isfamily":0},{"id":"51879595241","owner":"71989271@N06","secret":"7d5957bc42","server":"65535","farm":66,"title":"Franklin's Gull (1st. win.)(Leucophaeus pipixcan)","ispublic":1,"isfriend":0,"isfamily":0},{"id":"51858828446","owner":"37203410@N07","secret":"1c7767172e","server":"65535","farm":66,"title":"Gaviota de Franklin \/ Leucophaeus pipixcan","ispublic":1,"isfriend":0,"isfamily":0},{"id":"51751202822","owner":"20483843@N00","secret":"06bb66d955","server":"65535","farm":66,"title":"Franklin's Gull","ispublic":1,"isfriend":0,"isfamily":0},{"id":"51575541344","owner":"183736567@N07","secret":"859511cd3e","server":"65535","farm":66,"title":"Franklin's Gull (Leucophaeus pipixcan) walking along water edge","ispublic":1,"isfriend":0,"isfamily":0}]},"stat":"ok"}