{"photos":{"page":1,"pages":49,"perpage":100,"total":4812,"photo":[{"id":"52792301516","owner":"65345069@N02","secret":"93d122d8e4","server":"65535","farm":66,"title":"Gadwall (Mareca strepera)","ispublic":1,"isfriend":0,"isfamily":0},{"id":"52792301346","owner":"65345069@N02","secret":"d69088acf9","server":"65535","farm":66,"title":"Gadwall (Mareca strepera)","ispublic":1,"isfriend":0,"isfamily":0},{"id":"52792301101","owner":"65345069@N02","secret":"b9f4161bdf","server":"65535","farm":66,"title":"Gadwall (Mareca strepera)","ispublic":1,"isfriend":0,"isfamily":0},{"id":"52790067423","owner":"65345069@N02","secret":"bc8aaafe4b","server":"65535","farm":66,"title":"Gadwall (Mareca strepera)","ispublic":1,"isfriend":0,"isfamily":0},{"id":"52790067323","owner":"65345069@N02","secret":"3fd1e40601","server":"65535","farm":66,"title":"Gadwall (Mareca strepera)","ispublic":1,"isfriend":0,"isfamily":0},{"id":"52789060672","owner":"65345069@N02","secret":"aa76026c4a","server":"65535","farm":66,"title":"Gadwall (Mareca strepera)","ispublic":1,"isfriend":0,"isfamily":0},{"id":"52789847659","owner":"65345069@N02","secret":"1570297eb3","server":"65535","farm":66,"title":"Gadwall (Mareca strepera)","ispublic":1,"isfriend":0,"isfamily":0},{"id":"52789060567","owner":"65345069@N02","secret":"c6019581fe","server":"65535","farm":66,"title":"Gadwall (Mareca strepera)","ispublic":1,"isfriend":0,"isfamily":0},{"id":"52790010535","owner":"65345069@N02","secret":"bbec9fe389","server":"65535","farm":66,"title":"Gadwall (Mareca strepera)","ispublic":1,"isfriend":0,"isfamily":0},{"id":"52788071899","owner":"47676341@N00","secret":"8e047821ef","server":"65535","farm":66,"title":"Krakeend (m)","ispublic":1,"isfriend":0,"isfamily":0},{"id":"52788415728","owner":"12639178@N07","secret":"a1964c4338","server":"65535","farm":66,"title":"Startende Schnatterente","ispublic":1,"isfriend":0,"isfamily":0},{"id":"52788037683","owner":"12639178@N07","secret":"5d9f47d2b1","server":"65535","farm":66,"title":"..m\u00e4nnl. Schnatterente l\u00fcftet die Fl\u00fcgel..","ispublic":1,"isfriend":0,"isfamily":0},{"id":"52784228720","owner":"12639178@N07","secret":"f50e099784","server":"65535","farm":66,"title":"Schnatterenten","ispublic":1,"isfriend":0,"isfamily":0},{"id":"52777953328","owner":"12639178@N07","secret":"f0b05b282c","server":"65535","farm":66,"title":"Schnatterenten","ispublic":1,"isfriend":0,"isfamily":0},{"id":"52776983651","owner":"12639178@N07","secret":"9446640cdd","server":"65535","farm":66,"title":"Schnatterente (w)","ispublic":1,"isfriend":0,"isfamily":0},{"id":"52775089426","owner":"12639178@N07","secret":"afd5bba848","server":"65535","farm":66,"title":"Schnatterente","ispublic":1,"isfriend":0,"isfamily":0},{"id":"52774905059","owner":"12639178@N07","secret":"e6573490cc","server":"65535","farm":66,"title":"Schnatterenten","ispublic":1,"isfriend":0,"isfamily":0},{"id":"52773998252","owner":"12639178@N07","secret":"da06a4ef02","server":"65535","farm":66,"title":"Schnatterenten","ispublic":1,"isfriend":0,"isfamily":0},{"id":"52774242136","owner":"83427488@N02","secret":"0343e696e4","server":"65535","farm":66,"title":"Pato friso \/ Gadwall duck (Mareca strepera)","ispublic":1,"isfriend":0,"isfamily":0},{"id":"52772130983","owner":"12639178@N07","secret":"d6d2d2d416","server":"65535","farm":66,"title":"Schnatterente (Mareca strepera) (1)","ispublic":1,"isfriend":0,"isfamily":0},{"id":"52770653626","owner":"12639178@N07","secret":"fd880f1810","server":"65535","farm":66,"title":"Schnatterenten beim M\u00fccken-Snacken","ispublic":1,"isfriend":0,"isfamily":0},{"id":"52770348105","owner":"114700825@N07","secret":"502e1af36c","server":"65535","farm":66,"title":"090.2 Krakeend","ispublic":1,"isfriend":0,"isfamily":0},{"id":"52770121098","owner":"96713629@N03","secret":"f14e3b29dc","server":"65535","farm":66,"title":"Krakeend (Mareca strepera)-DSC_5298-bewerkt","ispublic":1,"isfriend":0,"isfamily":0},{"id":"52770121028","owner":"96713629@N03","secret":"9ec9ff8c9a","server":"65535","farm":66,"title":"Krakeend (Mareca strepera)-DSC_5299-bewerkt","ispublic":1,"isfriend":0,"isfamily":0},{"id":"52766959557","owner":"12639178@N07","secret":"91fa3b6311","server":"65535","farm":66,"title":"Schnatterenten","ispublic":1,"isfriend":0,"isfamily":0},{"id":"52767121260","owner":"143053601@N02","secret":"9a36fe91ef","server":"65535","farm":66,"title":"Canard chipeau (Mareca strepera)","ispublic":1,"isfriend":0,"isfamily":0},{"id":"52766190488","owner":"73431753@N00","secret":"dcde559f6d","server":"65535","farm":66,"title":"Snowy Egret and Gadwall female","ispublic":1,"isfriend":0,"isfamily":0},{"id":"52765678396","owner":"73431753@N00","secret":"684988f7aa","server":"65535","farm":66,"title":"Gadwall pair visiting seasonal water","ispublic":1,"isfriend":0,"isfamily":0},{"id":"52765632461","owner":"186793662@N03","secret":"09bce5e6bc","server":"65535","farm":66,"title":"fotoselectie 70187","ispublic":1,"isfriend":0,"isfamily":0},{"id":"52766118538","owner":"186793662@N03","secret":"afde7cdb9e","server":"65535","farm":66,"title":"fotoselectie 70197","ispublic":1,"isfriend":0,"isfamily":0},{"id":"52763707885","owner":"12639178@N07","secret":"e42d757b80","server":"65535","farm":66,"title":"Beleg: Schnatterente","ispublic":1,"isfriend":0,"isfamily":0},{"id":"52763068528","owner":"143053601@N02","secret":"d8dc83cc2c","server":"65535","farm":66,"title":"Canard chipeau (Mareca strepera)","ispublic":1,"isfriend":0,"isfamily":0},{"id":"52762581676","owner":"143053601@N02","secret":"28f51e66f6","server":"65535","farm":66,"title":"Canard chipeau (Mareca strepera)","ispublic":1,"isfriend":0,"isfamily":0},{"id":"52762983850","owner":"143053601@N02","secret":"c39458e02a","server":"65535","farm":66,"title":"Canard chipeau (Mareca strepera)","ispublic":1,"isfriend":0,"isfamily":0},{"id":"52762827564","owner":"143053601@N02","secret":"88a06d0dd9","server":"65535","farm":66,"title":"Canard chipeau (Mareca strepera)","ispublic":1,"isfriend":0,"isfamily":0},{"id":"52762578716","owner":"143053601@N02","secret":"6def2a80e8","server":"65535","farm":66,"title":"Canard chipeau (Mareca strepera)","ispublic":1,"isfriend":0,"isfamily":0},{"id":"52762577361","owner":"143053601@N02","secret":"5e87f6e9fa","server":"65535","farm":66,"title":"Canard chipeau (Mareca strepera)","ispublic":1,"isfriend":0,"isfamily":0},{"id":"52762031882","owner":"143053601@N02","secret":"5cc97f2c3e","server":"65535","farm":66,"title":"Canard chipeau (Mareca strepera)","ispublic":1,"isfriend":0,"isfamily":0},{"id":"52762956085","owner":"143053601@N02","secret":"89cf1a8ed2","server":"65535","farm":66,"title":"Canard chipeau (Mareca strepera)","ispublic":1,"isfriend":0,"isfamily":0},{"id":"52762955265","owner":"143053601@N02","secret":"9c54853163","server":"65535","farm":66,"title":"Canard chipeau (Mareca strepera)","ispublic":1,"isfriend":0,"isfamily":0},{"id":"52762015499","owner":"137644945@N07","secret":"f09054050c","server":"65535","farm":66,"title":"Mareca strepera, Gadwall, Krakeend","ispublic":1,"isfriend":0,"isfamily":0},{"id":"52763167447","owner":"73431753@N00","secret":"4d7721b7fe","server":"65535","farm":66,"title":"Gadwall and Greter Yellowlegs on Ballona seasonal non-tidal wetland","ispublic":1,"isfriend":0,"isfamily":0},{"id":"52758644610","owner":"12639178@N07","secret":"e50f37f83d","server":"65535","farm":66,"title":"Schnatterente (Mareca strepera)","ispublic":1,"isfriend":0,"isfamily":0},{"id":"52756675272","owner":"12639178@N07","secret":"86d8e59950","server":"65535","farm":66,"title":"Schnatterenten eingetroffen","ispublic":1,"isfriend":0,"isfamily":0},{"id":"52756557237","owner":"12639178@N07","secret":"ab13f4365c","server":"65535","farm":66,"title":"Schnatterente","ispublic":1,"isfriend":0,"isfamily":0},{"id":"52757287779","owner":"34238008@N02","secret":"07d08c71e6","server":"65535","farm":66,"title":"Gadwall (Mareca strepera)","ispublic":1,"isfriend":0,"isfamily":0},{"id":"52757287644","owner":"34238008@N02","secret":"13153fbbef","server":"65535","farm":66,"title":"Gadwall (Mareca strepera)","ispublic":1,"isfriend":0,"isfamily":0},{"id":"52756500722","owner":"34238008@N02","secret":"0feab455c0","server":"65535","farm":66,"title":"Gadwall (Mareca strepera)","ispublic":1,"isfriend":0,"isfamily":0},{"id":"52756500532","owner":"34238008@N02","secret":"31d73ed0eb","server":"65535","farm":66,"title":"Gadwall (Mareca strepera)","ispublic":1,"isfriend":0,"isfamily":0},{"id":"52756964471","owner":"53280041@N04","secret":"174317f819","server":"65535","farm":66,"title":"Gadwall","ispublic":1,"isfriend":0,"isfamily":0},{"id":"52757446063","owner":"53280041@N04","secret":"a0072051d8","server":"65535","farm":66,"title":"Gadwall","ispublic":1,"isfriend":0,"isfamily":0},{"id":"52756424802","owner":"53280041@N04","secret":"097a1c8693","server":"65535","farm":66,"title":"Gadwall","ispublic":1,"isfriend":0,"isfamily":0},{"id":"52756962221","owner":"53280041@N04","secret":"ca387c3bb3","server":"65535","farm":66,"title":"Gadwall","ispublic":1,"isfriend":0,"isfamily":0},{"id":"52756962076","owner":"53280041@N04","secret":"f5edff10d8","server":"65535","farm":66,"title":"Gadwall","ispublic":1,"isfriend":0,"isfamily":0},{"id":"52757368135","owner":"53280041@N04","secret":"213319e47f","server":"65535","farm":66,"title":"Gadwall","ispublic":1,"isfriend":0,"isfamily":0},{"id":"52756422782","owner":"53280041@N04","secret":"dbbab93b94","server":"65535","farm":66,"title":"Gadwall","ispublic":1,"isfriend":0,"isfamily":0},{"id":"52757365180","owner":"53280041@N04","secret":"4b3a34ea82","server":"65535","farm":66,"title":"Gadwall","ispublic":1,"isfriend":0,"isfamily":0},{"id":"52757363235","owner":"53280041@N04","secret":"047a10bfd4","server":"65535","farm":66,"title":"Gadwall","ispublic":1,"isfriend":0,"isfamily":0},{"id":"52757351165","owner":"150374485@N05","secret":"1bd32984d2","server":"65535","farm":66,"title":"Canard Chipeau m\u00e2le plumage nuptial--Gadwall  male in breeding plumage (Mareca strepera)","ispublic":1,"isfriend":0,"isfamily":0},{"id":"52752841154","owner":"12639178@N07","secret":"b8c660a6f1","server":"65535","farm":66,"title":"Schnatterente (Mareca strepera) (2)","ispublic":1,"isfriend":0,"isfamily":0},{"id":"52752840969","owner":"12639178@N07","secret":"c3141d9bb5","server":"65535","farm":66,"title":"Schnatterente (Mareca strepera) (1)","ispublic":1,"isfriend":0,"isfamily":0},{"id":"52751963138","owner":"12639178@N07","secret":"14d2a340f6","server":"65535","farm":66,"title":"Schnatterente","ispublic":1,"isfriend":0,"isfamily":0},{"id":"52751933978","owner":"12639178@N07","secret":"8e559cbcdd","server":"65535","farm":66,"title":"Schnatterente","ispublic":1,"isfriend":0,"isfamily":0},{"id":"52750906312","owner":"12639178@N07","secret":"397b42a041","server":"65535","farm":66,"title":"Schnatterente","ispublic":1,"isfriend":0,"isfamily":0},{"id":"52750938444","owner":"186793662@N03","secret":"52d91bd971","server":"65535","farm":66,"title":"fotoselectie 70179","ispublic":1,"isfriend":0,"isfamily":0},{"id":"52750029857","owner":"12639178@N07","secret":"6b7d6e3ed9","server":"65535","farm":66,"title":"Schnatterente","ispublic":1,"isfriend":0,"isfamily":0},{"id":"52750641059","owner":"123529713@N08","secret":"dd66ac7794","server":"65535","farm":66,"title":"Anec griset - Anade friso - Gadwall - Canard chipeau femelle - Mareca strepera","ispublic":1,"isfriend":0,"isfamily":0},{"id":"52749426614","owner":"102755543@N02","secret":"377ba32f07","server":"65535","farm":66,"title":"Mareca strepera (Linnaeus, 1758), Fulica atra atra Linnaeus, 1758","ispublic":1,"isfriend":0,"isfamily":0},{"id":"52749180811","owner":"102755543@N02","secret":"b8f162e80c","server":"65535","farm":66,"title":"Mareca strepera (Linnaeus, 1758)","ispublic":1,"isfriend":0,"isfamily":0},{"id":"52749674988","owner":"102755543@N02","secret":"1b32860967","server":"65535","farm":66,"title":"Mareca strepera (Linnaeus, 1758), Fulica atra atra Linnaeus, 1758","ispublic":1,"isfriend":0,"isfamily":0},{"id":"52749180666","owner":"102755543@N02","secret":"6418c67c85","server":"65535","farm":66,"title":"Mareca strepera (Linnaeus, 1758), Fulica atra atra Linnaeus, 1758","ispublic":1,"isfriend":0,"isfamily":0},{"id":"52748651212","owner":"102755543@N02","secret":"8e720aeae6","server":"65535","farm":66,"title":"Mareca strepera (Linnaeus, 1758), Fulica atra atra Linnaeus, 1758","ispublic":1,"isfriend":0,"isfamily":0},{"id":"52749426404","owner":"102755543@N02","secret":"482884d6c9","server":"65535","farm":66,"title":"Mareca strepera (Linnaeus, 1758), Fulica atra atra Linnaeus, 1758","ispublic":1,"isfriend":0,"isfamily":0},{"id":"52748651142","owner":"102755543@N02","secret":"3f282fc8e9","server":"65535","farm":66,"title":"Mareca strepera (Linnaeus, 1758), Fulica atra atra Linnaeus, 1758","ispublic":1,"isfriend":0,"isfamily":0},{"id":"52749674743","owner":"102755543@N02","secret":"424f83e15f","server":"65535","farm":66,"title":"Mareca strepera (Linnaeus, 1758), Fulica atra atra Linnaeus, 1758","ispublic":1,"isfriend":0,"isfamily":0},{"id":"52749674653","owner":"102755543@N02","secret":"2ce216ae4e","server":"65535","farm":66,"title":"Mareca strepera (Linnaeus, 1758), Fulica atra atra Linnaeus, 1758","ispublic":1,"isfriend":0,"isfamily":0},{"id":"52747151568","owner":"65345069@N02","secret":"8fa871712c","server":"65535","farm":66,"title":"Gadwall (Mareca strepera)","ispublic":1,"isfriend":0,"isfamily":0},{"id":"52746651786","owner":"65345069@N02","secret":"8fcfa0aa3b","server":"65535","farm":66,"title":"Gadwall (Mareca strepera)","ispublic":1,"isfriend":0,"isfamily":0},{"id":"52746127127","owner":"65345069@N02","secret":"0a301da56a","server":"65535","farm":66,"title":"Gadwall (Mareca strepera)","ispublic":1,"isfriend":0,"isfamily":0},{"id":"52746127077","owner":"65345069@N02","secret":"7395cc2123","server":"65535","farm":66,"title":"Gadwall (Mareca strepera)","ispublic":1,"isfriend":0,"isfamily":0},{"id":"52746533705","owner":"188352054@N08","secret":"57f5d2c0f4","server":"65535","farm":66,"title":"9M2A1874","ispublic":1,"isfriend":0,"isfamily":0},{"id":"52744912357","owner":"12639178@N07","secret":"e7b4467866","server":"65535","farm":66,"title":"Schnatterente M\u00e4nnchen","ispublic":1,"isfriend":0,"isfamily":0},{"id":"52743698867","owner":"154330506@N08","secret":"a36959696d","server":"65535","farm":66,"title":"DSC_2116","ispublic":1,"isfriend":0,"isfamily":0},{"id":"52741099199","owner":"12639178@N07","secret":"6ea02d120e","server":"65535","farm":66,"title":"und Sie","ispublic":1,"isfriend":0,"isfamily":0},{"id":"52741256270","owner":"12639178@N07","secret":"20131c78eb","server":"65535","farm":66,"title":"Er...","ispublic":1,"isfriend":0,"isfamily":0},{"id":"52740844056","owner":"12639178@N07","secret":"41a2f32109","server":"65535","farm":66,"title":"Schnatterenten III","ispublic":1,"isfriend":0,"isfamily":0},{"id":"52740843881","owner":"12639178@N07","secret":"bc71340313","server":"65535","farm":66,"title":"Schnatterenten II","ispublic":1,"isfriend":0,"isfamily":0},{"id":"52741098559","owner":"12639178@N07","secret":"99813e2ac7","server":"65535","farm":66,"title":"Schnattererpel","ispublic":1,"isfriend":0,"isfamily":0},{"id":"52737900146","owner":"47046427@N03","secret":"90f3a0359c","server":"65535","farm":66,"title":"Male Gadwall out for a walk by the Boating Lake","ispublic":1,"isfriend":0,"isfamily":0},{"id":"52735480127","owner":"57356301@N06","secret":"e6d009c536","server":"65535","farm":66,"title":"Gadwall, Mareca strepera, pair","ispublic":1,"isfriend":0,"isfamily":0},{"id":"52735120827","owner":"56446000@N04","secret":"73e7fbebf6","server":"65535","farm":66,"title":"Sizzling Gadwall","ispublic":1,"isfriend":0,"isfamily":0},{"id":"52734955311","owner":"49465440@N07","secret":"9889a1d468","server":"65535","farm":66,"title":"Gadwall","ispublic":1,"isfriend":0,"isfamily":0},{"id":"52734431072","owner":"49465440@N07","secret":"c023ffa9e6","server":"65535","farm":66,"title":"Gadwalls","ispublic":1,"isfriend":0,"isfamily":0},{"id":"52734763141","owner":"146283954@N06","secret":"ee4afa029f","server":"65535","farm":66,"title":"Canard chipeau - Mareca strepera","ispublic":1,"isfriend":0,"isfamily":0},{"id":"52734191682","owner":"181627250@N04","secret":"a6caf24ed5","server":"65535","farm":66,"title":"Canard chipeau - Mareca strepera - Gadwall.","ispublic":1,"isfriend":0,"isfamily":0},{"id":"52733657137","owner":"62043870@N05","secret":"6de613e863","server":"65535","farm":66,"title":"Gadwall, Mareca strepera","ispublic":1,"isfriend":0,"isfamily":0},{"id":"52734456400","owner":"34238008@N02","secret":"c6691317a3","server":"65535","farm":66,"title":"Gadwall (Mareca strepera)","ispublic":1,"isfriend":0,"isfamily":0},{"id":"52733541266","owner":"165373730@N04","secret":"ed2c8fe645","server":"65535","farm":66,"title":"Canard-chipeau_Mareca-strepera","ispublic":1,"isfriend":0,"isfamily":0},{"id":"52757984033","owner":"12639178@N07","secret":"aedcf74e9c","server":"65535","farm":66,"title":"20230317_evtlSchnatterente","ispublic":1,"isfriend":0,"isfamily":0},{"id":"52736085112","owner":"12639178@N07","secret":"c5fb655a0b","server":"65535","farm":66,"title":"Ein Paar Schnatterenten","ispublic":1,"isfriend":0,"isfamily":0}]},"stat":"ok"}