{"photos":{"page":1,"pages":2,"perpage":100,"total":105,"photo":[{"id":"52163814606","owner":"86585370@N00","secret":"c6dbd36c00","server":"65535","farm":66,"title":"Giant Antpitta \/\/ Gralaria Gigante \/\/ Pita-formigueira-gigante","ispublic":1,"isfriend":0,"isfamily":0},{"id":"51747899385","owner":"86585370@N00","secret":"bed741c5cc","server":"65535","farm":66,"title":"Giant Antpitta \/\/ Gralaria Gigante \/\/ Pita-formigueira-gigante","ispublic":1,"isfriend":0,"isfamily":0},{"id":"23171582105","owner":"53247049@N07","secret":"22ee1de5be","server":"5795","farm":6,"title":"GIANT ANTPITTA Grallaria gigantea Wandering a Remote Forest Floor in the Tandayapa Valley of Northwestern ECUADOR. Antpitta Photo by Peter Wendelken.","ispublic":1,"isfriend":0,"isfamily":0},{"id":"51715070117","owner":"81126336@N00","secret":"1d3ed9c6a7","server":"65535","farm":66,"title":"Giant Antpitta","ispublic":1,"isfriend":0,"isfamily":0},{"id":"51707574368","owner":"190773540@N03","secret":"91a69ec317","server":"65535","farm":66,"title":"Giant Antpitta","ispublic":1,"isfriend":0,"isfamily":0},{"id":"51237996146","owner":"61021753@N02","secret":"68485a93f7","server":"65535","farm":66,"title":"n750_w1150","ispublic":1,"isfriend":0,"isfamily":0},{"id":"49497594958","owner":"186211059@N06","secret":"6bce079243","server":"65535","farm":66,"title":"Giant Antpitta","ispublic":1,"isfriend":0,"isfamily":0},{"id":"45499927324","owner":"34689777@N08","secret":"b8767476fb","server":"4828","farm":5,"title":"Giant Antpitta (Grallaria gigantea). Refugio Paz de las Aves.  Tandayapa Valley, north-western Ecuador.","ispublic":1,"isfriend":0,"isfamily":0},{"id":"45638766541","owner":"110394983@N04","secret":"dda95dd813","server":"1958","farm":2,"title":"Grallaire g\u00e9ante Grallaria gigantea","ispublic":1,"isfriend":0,"isfamily":0},{"id":"39731164845","owner":"25572396@N04","secret":"022b80fb47","server":"4766","farm":5,"title":"Gralaria Gigante | Giant Antpitta (Grallaria gigantea)","ispublic":1,"isfriend":0,"isfamily":0},{"id":"34598630341","owner":"59287343@N02","secret":"581ab2ab8a","server":"4170","farm":5,"title":"Giant Antpitta (Grallaria gigantea)","ispublic":1,"isfriend":0,"isfamily":0},{"id":"34585443235","owner":"47027229@N07","secret":"54a10bbcac","server":"4181","farm":5,"title":"Giant Antpitta","ispublic":1,"isfriend":0,"isfamily":0},{"id":"34265823345","owner":"34689777@N08","secret":"033dae586d","server":"4180","farm":5,"title":"Five species antpittas at refugio Paz de las Aves.  Tandayapa Valley, north-western Ecuador.","ispublic":1,"isfriend":0,"isfamily":0},{"id":"32137698123","owner":"34689777@N08","secret":"8a21f95521","server":"287","farm":1,"title":"Giant Antpitta (Grallaria gigantea). Refugio Paz de las Aves.  Tandayapa Valley, north-western Ecuador.","ispublic":1,"isfriend":0,"isfamily":0},{"id":"31838792096","owner":"129381239@N04","secret":"ba68086cbc","server":"514","farm":1,"title":"Giant Antpitta (Grallaria gigantea)","ispublic":1,"isfriend":0,"isfamily":0},{"id":"31066208231","owner":"95171948@N07","secret":"e19a1d3cae","server":"5650","farm":6,"title":"Giant antpitta ( Grallaria gigantea )","ispublic":1,"isfriend":0,"isfamily":0},{"id":"30491470876","owner":"95362111@N06","secret":"0f8883b760","server":"5825","farm":6,"title":"Giant Antpitta, Ecuador","ispublic":1,"isfriend":0,"isfamily":0},{"id":"26068491162","owner":"36424218@N00","secret":"e00debe7d1","server":"1558","farm":2,"title":"Giant Antpitta","ispublic":1,"isfriend":0,"isfamily":0},{"id":"26010561735","owner":"34952404@N07","secret":"0b3c69a5ff","server":"1608","farm":2,"title":"Giant Antpitta (Grallaria gigantea) \"Maria\"","ispublic":1,"isfriend":0,"isfamily":0},{"id":"24442926523","owner":"129673089@N03","secret":"557ab8d4eb","server":"1531","farm":2,"title":"Maria, a Giant antpita, Grallaria gigantea, with a beak full of worms for her newly-hatched chicks","ispublic":1,"isfriend":0,"isfamily":0},{"id":"25069796215","owner":"129673089@N03","secret":"51720335d6","server":"1544","farm":2,"title":"Maria, a Giant antpitta, Grallaria gigantea, Refugio Paz, Mindo","ispublic":1,"isfriend":0,"isfamily":0},{"id":"24976481101","owner":"129673089@N03","secret":"a65cbbae40","server":"1450","farm":2,"title":"One more picture of Maria, a Giant antpitta, Grallaria gigantea","ispublic":1,"isfriend":0,"isfamily":0},{"id":"21896172130","owner":"20379124@N05","secret":"6dc48067bc","server":"5750","farm":6,"title":"Giant Antpitta - Mindo, Ecuador","ispublic":1,"isfriend":0,"isfamily":0},{"id":"6531908945","owner":"40195635@N03","secret":"3b9ed78ef4","server":"65535","farm":66,"title":"Giant Antpitta (Grallaria gigantea)","ispublic":1,"isfriend":0,"isfamily":0},{"id":"5396887960","owner":"58849070@N05","secret":"03ac909391","server":"4139","farm":5,"title":"Grallaria gigantea","ispublic":1,"isfriend":0,"isfamily":0},{"id":"4948671954","owner":"37247779@N07","secret":"dacce36d0b","server":"4096","farm":5,"title":"Giant Antpitta (Grallaria gigantea)","ispublic":1,"isfriend":0,"isfamily":0},{"id":"4616292221","owner":"74733773@N00","secret":"9a10ecdc4c","server":"4018","farm":5,"title":"Giant Antpitta","ispublic":1,"isfriend":0,"isfamily":0},{"id":"4616906194","owner":"74733773@N00","secret":"298694d6f6","server":"4046","farm":5,"title":"Giant Antpitta","ispublic":1,"isfriend":0,"isfamily":0},{"id":"4616291119","owner":"74733773@N00","secret":"8e6410fda3","server":"3374","farm":4,"title":"Giant Antpitta","ispublic":1,"isfriend":0,"isfamily":0},{"id":"4616290585","owner":"74733773@N00","secret":"4288be40c2","server":"4071","farm":5,"title":"Giant Antpitta","ispublic":1,"isfriend":0,"isfamily":0},{"id":"4616904660","owner":"74733773@N00","secret":"27e62f5f84","server":"4034","farm":5,"title":"Giant Antpitta","ispublic":1,"isfriend":0,"isfamily":0},{"id":"4616289517","owner":"74733773@N00","secret":"9ab33293b1","server":"4034","farm":5,"title":"Giant Antpitta","ispublic":1,"isfriend":0,"isfamily":0},{"id":"4616288751","owner":"74733773@N00","secret":"7a74f37b02","server":"3403","farm":4,"title":"Giant Antpitta","ispublic":1,"isfriend":0,"isfamily":0},{"id":"4323504195","owner":"97191756@N00","secret":"d686fcb834","server":"4049","farm":5,"title":"Giant Antpitta, Grallaria gigantea","ispublic":1,"isfriend":0,"isfamily":0},{"id":"4323230479","owner":"97191756@N00","secret":"4b75a62ea2","server":"2783","farm":3,"title":"Giant Antpitta, Grallaria gigantea","ispublic":1,"isfriend":0,"isfamily":0},{"id":"4306609072","owner":"43272765@N04","secret":"62c438f970","server":"4028","farm":5,"title":"Giant Antpitta. Grallaria Gigantea. ( Maria)","ispublic":1,"isfriend":0,"isfamily":0},{"id":"4180043303","owner":"38068802@N00","secret":"927cd11867","server":"2534","farm":3,"title":"Giant Antpitta (Maria)","ispublic":1,"isfriend":0,"isfamily":0},{"id":"4180036575","owner":"38068802@N00","secret":"e0bbdbc05e","server":"2697","farm":3,"title":"Giant Antpitta (Maria)","ispublic":1,"isfriend":0,"isfamily":0},{"id":"3835124518","owner":"29610556@N02","secret":"748aaea62b","server":"3466","farm":4,"title":"Giant Antpitta - 01","ispublic":1,"isfriend":0,"isfamily":0},{"id":"3828267442","owner":"29610556@N02","secret":"365c77a28a","server":"3548","farm":4,"title":"Giant Antpitta","ispublic":1,"isfriend":0,"isfamily":0},{"id":"3758952537","owner":"7433769@N08","secret":"c84f00e6a3","server":"2519","farm":3,"title":"Giant Antpitta","ispublic":1,"isfriend":0,"isfamily":0},{"id":"3759741866","owner":"7433769@N08","secret":"f567f948ea","server":"2428","farm":3,"title":"Giant Antpitta","ispublic":1,"isfriend":0,"isfamily":0},{"id":"3759735430","owner":"7433769@N08","secret":"c081813858","server":"3469","farm":4,"title":"Giant Antpitta","ispublic":1,"isfriend":0,"isfamily":0},{"id":"3308451513","owner":"30369673@N06","secret":"b9780bc786","server":"3463","farm":4,"title":"Giant Antpitta-Grallaria gigantea","ispublic":1,"isfriend":0,"isfamily":0},{"id":"3304695391","owner":"35396077@N04","secret":"06a0b2ab72","server":"3323","farm":4,"title":"giant antpitta","ispublic":1,"isfriend":0,"isfamily":0},{"id":"3304690037","owner":"35396077@N04","secret":"f9dc954176","server":"3456","farm":4,"title":"giant antpitta","ispublic":1,"isfriend":0,"isfamily":0},{"id":"3304688821","owner":"35396077@N04","secret":"cf3e08906e","server":"3464","farm":4,"title":"giant antpitta","ispublic":1,"isfriend":0,"isfamily":0},{"id":"3304686299","owner":"35396077@N04","secret":"db09229b1e","server":"3462","farm":4,"title":"giant antpitta","ispublic":1,"isfriend":0,"isfamily":0},{"id":"3305510580","owner":"35396077@N04","secret":"ef2ef89bbb","server":"3326","farm":4,"title":"giant antpitta","ispublic":1,"isfriend":0,"isfamily":0},{"id":"3304680829","owner":"35396077@N04","secret":"0042041717","server":"3309","farm":4,"title":"giant antpitta","ispublic":1,"isfriend":0,"isfamily":0},{"id":"3305507610","owner":"35396077@N04","secret":"acc96d4359","server":"3547","farm":4,"title":"giant antpitta","ispublic":1,"isfriend":0,"isfamily":0},{"id":"3304676775","owner":"35396077@N04","secret":"d4642bc7ba","server":"3420","farm":4,"title":"giant antpitta","ispublic":1,"isfriend":0,"isfamily":0},{"id":"3305502146","owner":"35396077@N04","secret":"49b61b3388","server":"3341","farm":4,"title":"giant antpitta","ispublic":1,"isfriend":0,"isfamily":0},{"id":"3304673623","owner":"35396077@N04","secret":"efb629e1d6","server":"3499","farm":4,"title":"giant antpitta","ispublic":1,"isfriend":0,"isfamily":0},{"id":"3305500922","owner":"35396077@N04","secret":"b31b79a685","server":"3632","farm":4,"title":"giant antpitta","ispublic":1,"isfriend":0,"isfamily":0},{"id":"3305499044","owner":"35396077@N04","secret":"f25e25f247","server":"3362","farm":4,"title":"giant antpitta","ispublic":1,"isfriend":0,"isfamily":0},{"id":"3305496152","owner":"35396077@N04","secret":"1e0b341165","server":"3553","farm":4,"title":"giant antpitta","ispublic":1,"isfriend":0,"isfamily":0},{"id":"3001438947","owner":"7449551@N08","secret":"3697f47f80","server":"3227","farm":4,"title":"Giant Antpitta","ispublic":1,"isfriend":0,"isfamily":0},{"id":"52600603441","owner":"190773540@N03","secret":"c70db8b71b","server":"65535","farm":66,"title":"Giant Antpitta (Ecuador)","ispublic":1,"isfriend":0,"isfamily":0},{"id":"52471327553","owner":"12639178@N07","secret":"ced0d52683","server":"65535","farm":66,"title":"35512_Giant Antpitta Grallaria gigantea","ispublic":1,"isfriend":0,"isfamily":0},{"id":"52471327323","owner":"12639178@N07","secret":"f6f8dcc33d","server":"65535","farm":66,"title":"35510_Giant Antpitta Grallaria gigantea","ispublic":1,"isfriend":0,"isfamily":0},{"id":"51899339012","owner":"190773540@N03","secret":"d12b3ee93b","server":"65535","farm":66,"title":"Giant Antpitta","ispublic":1,"isfriend":0,"isfamily":0},{"id":"49770355072","owner":"55968524@N04","secret":"ee79d2b32c","server":"65535","farm":66,"title":"IMG_6670 - Giant Antpitta - Grallaria gigantea.jpg","ispublic":1,"isfriend":0,"isfamily":0},{"id":"49497656833","owner":"186211059@N06","secret":"8d3f2f58ed","server":"65535","farm":66,"title":"Giant Antpitta","ispublic":1,"isfriend":0,"isfamily":0},{"id":"49498373627","owner":"186211059@N06","secret":"9c3ca5da3c","server":"65535","farm":66,"title":"Giant Antpitta","ispublic":1,"isfriend":0,"isfamily":0},{"id":"49497646703","owner":"186211059@N06","secret":"70a1bab883","server":"65535","farm":66,"title":"Giant Antpitta","ispublic":1,"isfriend":0,"isfamily":0},{"id":"49497598833","owner":"186211059@N06","secret":"e6f84855ac","server":"65535","farm":66,"title":"Giant Antpitta","ispublic":1,"isfriend":0,"isfamily":0},{"id":"47963937842","owner":"51106497@N03","secret":"f56a310738","server":"65535","farm":66,"title":"Giant Antpitta","ispublic":1,"isfriend":0,"isfamily":0},{"id":"47589652961","owner":"34689777@N08","secret":"3033c05836","server":"7818","farm":8,"title":"Giant Antpitta (Grallaria gigantea). Refugio Paz de las Aves.  Tandayapa Valley, north-western Ecuador.","ispublic":1,"isfriend":0,"isfamily":0},{"id":"40526452285","owner":"61301322@N08","secret":"a114906747","server":"806","farm":1,"title":"Giant Antpitta Plaque (Refugio Paz de las Aves)","ispublic":1,"isfriend":0,"isfamily":0},{"id":"41379423452","owner":"61301322@N08","secret":"067a572533","server":"875","farm":1,"title":"Antpitta Viewing (Refugio Paz de las Aves)","ispublic":1,"isfriend":0,"isfamily":0},{"id":"27161026689","owner":"45505361@N08","secret":"228888b912","server":"4541","farm":5,"title":"Grallaria gigantea hylodroma","ispublic":1,"isfriend":0,"isfamily":0},{"id":"37245144414","owner":"98169970@N00","secret":"470c5cec59","server":"4503","farm":5,"title":"giant antpitta (grallaria gigantea)","ispublic":1,"isfriend":0,"isfamily":0},{"id":"35523871233","owner":"29170368@N03","secret":"f37d7b2a27","server":"4423","farm":5,"title":"Giant Antpitta","ispublic":1,"isfriend":0,"isfamily":0},{"id":"36196031981","owner":"29170368@N03","secret":"ff5183de42","server":"65535","farm":66,"title":"Giant Antpitta","ispublic":1,"isfriend":0,"isfamily":0},{"id":"31055235592","owner":"95171948@N07","secret":"9326a84640","server":"5576","farm":6,"title":"Giant antpitta ( Grallaria gigantea )","ispublic":1,"isfriend":0,"isfamily":0},{"id":"30578503580","owner":"126841123@N07","secret":"8f5af38cd9","server":"5597","farm":6,"title":"IMG_4113. Giant Antpitta.","ispublic":1,"isfriend":0,"isfamily":0},{"id":"27772695926","owner":"132691388@N08","secret":"ce30f965a4","server":"7114","farm":8,"title":"Giant Antpitta","ispublic":1,"isfriend":0,"isfamily":0},{"id":"25577309603","owner":"36424218@N00","secret":"09e4853188","server":"1709","farm":2,"title":"Giant Antpitta","ispublic":1,"isfriend":0,"isfamily":0},{"id":"22029082451","owner":"132165466@N08","secret":"042e597818","server":"727","farm":1,"title":"Giant Antpitta","ispublic":1,"isfriend":0,"isfamily":0},{"id":"21250756684","owner":"29452402@N07","secret":"c9b4b53d46","server":"5697","farm":6,"title":"Giant Antpitta","ispublic":1,"isfriend":0,"isfamily":0},{"id":"21612042510","owner":"125682117@N04","secret":"f41b781712","server":"5831","farm":6,"title":"150909-Grallaria-gigantea-001-","ispublic":1,"isfriend":0,"isfamily":0},{"id":"19856020253","owner":"97805529@N04","secret":"476c56f49c","server":"407","farm":1,"title":"Grallaria gigantea hylodroma (Giant Antpitta)","ispublic":1,"isfriend":0,"isfamily":0},{"id":"17183567041","owner":"132691388@N08","secret":"4b2ab6a6cb","server":"8807","farm":9,"title":"Giant Antpitta","ispublic":1,"isfriend":0,"isfamily":0},{"id":"15521709394","owner":"80746425@N00","secret":"6bae550efe","server":"7555","farm":8,"title":"126 - Giant Antpitta - Grallaria gigantea hylodroma","ispublic":1,"isfriend":0,"isfamily":0},{"id":"8363615661","owner":"12639178@N07","secret":"d46292692a","server":"8471","farm":9,"title":"Riesen-Ameisenpitta, NGID499120192","ispublic":1,"isfriend":0,"isfamily":0},{"id":"6532030955","owner":"40195635@N03","secret":"7313d1cf13","server":"65535","farm":66,"title":"Giant Antpitta","ispublic":1,"isfriend":0,"isfamily":0},{"id":"5200848711","owner":"50763319@N04","secret":"cfeda8e31b","server":"5288","farm":6,"title":"Giant Antpitta","ispublic":1,"isfriend":0,"isfamily":0},{"id":"5200847969","owner":"50763319@N04","secret":"37750e4623","server":"5170","farm":6,"title":"Giant Antpitta","ispublic":1,"isfriend":0,"isfamily":0},{"id":"5201439310","owner":"50763319@N04","secret":"ca6f64b20e","server":"4092","farm":5,"title":"Giant Antpitta","ispublic":1,"isfriend":0,"isfamily":0},{"id":"5154537989","owner":"50990340@N05","secret":"7129f390c3","server":"1126","farm":2,"title":"Giant Antpitta, Angel Paz, Ecuador","ispublic":1,"isfriend":0,"isfamily":0},{"id":"5154537311","owner":"50990340@N05","secret":"b9777e1fc5","server":"1150","farm":2,"title":"Giant Antpitta, Angel Paz, Ecuador","ispublic":1,"isfriend":0,"isfamily":0},{"id":"5155145186","owner":"50990340@N05","secret":"21c53585aa","server":"4003","farm":5,"title":"Giant Antpitta, Angel Paz, Ecuador","ispublic":1,"isfriend":0,"isfamily":0},{"id":"4467798082","owner":"54107105@N00","secret":"a9caefc789","server":"4037","farm":5,"title":"Giant Antpitta","ispublic":1,"isfriend":0,"isfamily":0},{"id":"4323956434","owner":"97191756@N00","secret":"4ea62728c4","server":"4058","farm":5,"title":"Giant Antpitta, Grallaria gigantea","ispublic":1,"isfriend":0,"isfamily":0},{"id":"4323219709","owner":"97191756@N00","secret":"61b4354678","server":"4010","farm":5,"title":"Giant Antpitta, Grallaria gigantea","ispublic":1,"isfriend":0,"isfamily":0},{"id":"4305866619","owner":"43272765@N04","secret":"6dc1f5b8ba","server":"65535","farm":66,"title":"Giant Antpitta. Grallaria Gigantea :- courtesy of Sr. Angel Paz","ispublic":1,"isfriend":0,"isfamily":0},{"id":"3918324100","owner":"29610556@N02","secret":"df34a2c20a","server":"3499","farm":4,"title":"Giant Antpitta - 01","ispublic":1,"isfriend":0,"isfamily":0},{"id":"3305521132","owner":"35396077@N04","secret":"7b9c60cc48","server":"3572","farm":4,"title":"giant antpitta","ispublic":1,"isfriend":0,"isfamily":0},{"id":"3280160540","owner":"22170893@N06","secret":"f7eff3b184","server":"3557","farm":4,"title":"Giant Antpitta","ispublic":1,"isfriend":0,"isfamily":0}]},"stat":"ok"}