{"photos":{"page":1,"pages":127,"perpage":100,"total":12643,"photo":[{"id":"52787964002","owner":"197883809@N06","secret":"21981e3b07","server":"65535","farm":66,"title":"Aigle royal - Golden eagle - Aquila chrysaetos","ispublic":1,"isfriend":0,"isfamily":0},{"id":"52787617009","owner":"191731601@N04","secret":"0ea4d5d1dc","server":"65535","farm":66,"title":"Golden Eagle","ispublic":1,"isfriend":0,"isfamily":0},{"id":"52786467624","owner":"12639178@N07","secret":"2169df5d24","server":"65535","farm":66,"title":"Steinadler","ispublic":1,"isfriend":0,"isfamily":0},{"id":"52785681047","owner":"12639178@N07","secret":"88a5289099","server":"65535","farm":66,"title":"Steinadler","ispublic":1,"isfriend":0,"isfamily":0},{"id":"52786467249","owner":"12639178@N07","secret":"91de213c98","server":"65535","farm":66,"title":"Steinadler","ispublic":1,"isfriend":0,"isfamily":0},{"id":"52786630885","owner":"12639178@N07","secret":"41260bdca3","server":"65535","farm":66,"title":"Steinadler","ispublic":1,"isfriend":0,"isfamily":0},{"id":"52785723498","owner":"133162119@N04","secret":"d800aaae6a","server":"65535","farm":66,"title":"Aigle royal - Aquila chrysaetos - Golden Eagle","ispublic":1,"isfriend":0,"isfamily":0},{"id":"52782082569","owner":"52356199@N00","secret":"8525d59517","server":"65535","farm":66,"title":"Aigle royal - Aquila chrysaetos - Golden Eagle DSC_8328 copie","ispublic":1,"isfriend":0,"isfamily":0},{"id":"52781296377","owner":"52356199@N00","secret":"a12501d746","server":"65535","farm":66,"title":"Aigle royal - Aquila chrysaetos - Golden Eagle DSC_8375 copie","ispublic":1,"isfriend":0,"isfamily":0},{"id":"52782302273","owner":"52356199@N00","secret":"bdd7104584","server":"65535","farm":66,"title":"Aigle royal - Aquila chrysaetos - Golden Eagle DSC_8376 copie","ispublic":1,"isfriend":0,"isfamily":0},{"id":"52781839071","owner":"52356199@N00","secret":"a7bb649c8b","server":"65535","farm":66,"title":"Aigle royal - Aquila chrysaetos - Golden Eagle DSC_8378 copie","ispublic":1,"isfriend":0,"isfamily":0},{"id":"52782082414","owner":"52356199@N00","secret":"9763e30246","server":"65535","farm":66,"title":"Aigle royal - Aquila chrysaetos - Golden Eagle DSC_8385 copie","ispublic":1,"isfriend":0,"isfamily":0},{"id":"52782302168","owner":"52356199@N00","secret":"4fb6f66fe1","server":"65535","farm":66,"title":"Aigle royal - Aquila chrysaetos - Golden Eagle DSC_8395 copie","ispublic":1,"isfriend":0,"isfamily":0},{"id":"52781838966","owner":"52356199@N00","secret":"4e03ff2653","server":"65535","farm":66,"title":"Aigle royal - Aquila chrysaetos - Golden Eagle DSC_8400 copie","ispublic":1,"isfriend":0,"isfamily":0},{"id":"52782082319","owner":"52356199@N00","secret":"a0873ed45a","server":"65535","farm":66,"title":"Aigle royal - Aquila chrysaetos - Golden Eagle DSC_8408 copie","ispublic":1,"isfriend":0,"isfamily":0},{"id":"52782301723","owner":"52356199@N00","secret":"5aced33d4c","server":"65535","farm":66,"title":"Aigle royal - Aquila chrysaetos - Golden Eagle DSC_8408 copie","ispublic":1,"isfriend":0,"isfamily":0},{"id":"52776395906","owner":"12523960@N06","secret":"cf463f227c","server":"65535","farm":66,"title":"Goldadler - Golden Eagle","ispublic":1,"isfriend":0,"isfamily":0},{"id":"52772447009","owner":"8177037@N06","secret":"c0ea537a5c","server":"65535","farm":66,"title":"Golden Eagle","ispublic":1,"isfriend":0,"isfamily":0},{"id":"52772601165","owner":"8177037@N06","secret":"9b534e3e9e","server":"65535","farm":66,"title":"Golden Eagle","ispublic":1,"isfriend":0,"isfamily":0},{"id":"52772020831","owner":"14734088@N02","secret":"9904f4683e","server":"65535","farm":66,"title":"Aigle royal 230325H [immature]","ispublic":1,"isfriend":0,"isfamily":0},{"id":"52771822315","owner":"65148649@N04","secret":"648e61b6ed","server":"65535","farm":66,"title":"Golden Eagle 03.11.23 Sheets","ispublic":1,"isfriend":0,"isfamily":0},{"id":"52765122242","owner":"147328572@N03","secret":"b1b6cd3e7d","server":"65535","farm":66,"title":"Steinadler \/ Golden Eagle \/ Aquila chrysaetos","ispublic":1,"isfriend":0,"isfamily":0},{"id":"52765962483","owner":"152877605@N05","secret":"f2803d176b","server":"65535","farm":66,"title":"Golden Eagle; Aquila chrysaetos","ispublic":1,"isfriend":0,"isfamily":0},{"id":"52765257868","owner":"56750464@N02","secret":"a154b4239a","server":"65535","farm":66,"title":"Aigle royal - Aquila chrysaetos","ispublic":1,"isfriend":0,"isfamily":0},{"id":"52764872089","owner":"132734449@N05","secret":"1b97341acb","server":"65535","farm":66,"title":"Golden Eagle","ispublic":1,"isfriend":0,"isfamily":0},{"id":"52759171316","owner":"71393709@N06","secret":"7b14a335b6","server":"65535","farm":66,"title":"Golden Eagle (Aquila Chrysaetos)","ispublic":1,"isfriend":0,"isfamily":0},{"id":"52756400066","owner":"62043870@N05","secret":"2bb9924cd6","server":"65535","farm":66,"title":"Golden Eagle, Aquila chrysaetos","ispublic":1,"isfriend":0,"isfamily":0},{"id":"52751124483","owner":"30638967@N03","secret":"25ea644927","server":"65535","farm":66,"title":"Golden Eagle DSC_2862","ispublic":1,"isfriend":0,"isfamily":0},{"id":"52751041580","owner":"30638967@N03","secret":"e232deaed9","server":"65535","farm":66,"title":"Golden Eagle DSC_2867","ispublic":1,"isfriend":0,"isfamily":0},{"id":"52749234277","owner":"30638967@N03","secret":"64885967cc","server":"65535","farm":66,"title":"Golden Eagle DSC_2832","ispublic":1,"isfriend":0,"isfamily":0},{"id":"52749765021","owner":"30638967@N03","secret":"8a34eec3d0","server":"65535","farm":66,"title":"Golden Eagle DSC_2844","ispublic":1,"isfriend":0,"isfamily":0},{"id":"52749234022","owner":"30638967@N03","secret":"8f3dae9304","server":"65535","farm":66,"title":"Golden Eagles DSC_2848","ispublic":1,"isfriend":0,"isfamily":0},{"id":"52750261558","owner":"30638967@N03","secret":"fc7f2bfd18","server":"65535","farm":66,"title":"Golden Eagle DSC_2859","ispublic":1,"isfriend":0,"isfamily":0},{"id":"52749233787","owner":"30638967@N03","secret":"fdf235779b","server":"65535","farm":66,"title":"Golden Eagle DSC_2861","ispublic":1,"isfriend":0,"isfamily":0},{"id":"52749233687","owner":"30638967@N03","secret":"9da5dabec4","server":"65535","farm":66,"title":"Golden Eagle DSC_2868","ispublic":1,"isfriend":0,"isfamily":0},{"id":"52749538301","owner":"147328572@N03","secret":"bf8a860abf","server":"65535","farm":66,"title":"Steinadler \/ Golden Eagle \/ Aquila chrysaetos","ispublic":1,"isfriend":0,"isfamily":0},{"id":"52748458707","owner":"127247666@N05","secret":"ac77286b2f","server":"65535","farm":66,"title":"Golden eagle","ispublic":1,"isfriend":0,"isfamily":0},{"id":"52746748606","owner":"54724497@N02","secret":"35da67ffc6","server":"65535","farm":66,"title":"Kungs\u00f6rn, Aquila chrysaetos, Golden Eagle","ispublic":1,"isfriend":0,"isfamily":0},{"id":"52747248343","owner":"54724497@N02","secret":"80976f2156","server":"65535","farm":66,"title":"Kungs\u00f6rn, Aquila chrysaetos, Golden Eagle","ispublic":1,"isfriend":0,"isfamily":0},{"id":"52742526394","owner":"130021529@N02","secret":"10a4fc6af8","server":"65535","farm":66,"title":"Aquila chrysaetos | Golden Eagle | kungs\u00f6rn","ispublic":1,"isfriend":0,"isfamily":0},{"id":"52742764283","owner":"130021529@N02","secret":"806bfda453","server":"65535","farm":66,"title":"Aquila chrysaetos | Golden Eagle | kungs\u00f6rn","ispublic":1,"isfriend":0,"isfamily":0},{"id":"52742526354","owner":"130021529@N02","secret":"b0beb871e1","server":"65535","farm":66,"title":"Aquila chrysaetos | Golden Eagle | kungs\u00f6rn","ispublic":1,"isfriend":0,"isfamily":0},{"id":"52741385584","owner":"18823724@N02","secret":"7f92b4eb7a","server":"65535","farm":66,"title":"\u00c1guila Real - Aquila chrysaetos","ispublic":1,"isfriend":0,"isfamily":0},{"id":"52739309817","owner":"130021529@N02","secret":"1843255803","server":"65535","farm":66,"title":"Aquila chrysaetos | Golden Eagle | kungs\u00f6rn","ispublic":1,"isfriend":0,"isfamily":0},{"id":"52740238075","owner":"130021529@N02","secret":"60061945fc","server":"65535","farm":66,"title":"Aquila chrysaetos | Golden Eagle | kungs\u00f6rn","ispublic":1,"isfriend":0,"isfamily":0},{"id":"52740238060","owner":"130021529@N02","secret":"e2fe5bce9c","server":"65535","farm":66,"title":"Aquila chrysaetos | Golden Eagle | kungs\u00f6rn","ispublic":1,"isfriend":0,"isfamily":0},{"id":"52739826991","owner":"130021529@N02","secret":"d20c247388","server":"65535","farm":66,"title":"Aquila chrysaetos | Golden Eagle | kungs\u00f6rn","ispublic":1,"isfriend":0,"isfamily":0},{"id":"52739826981","owner":"130021529@N02","secret":"3243529f21","server":"65535","farm":66,"title":"Aquila chrysaetos | Golden Eagle | kungs\u00f6rn","ispublic":1,"isfriend":0,"isfamily":0},{"id":"52736253045","owner":"123521075@N07","secret":"d61e2eec56","server":"65535","farm":66,"title":"Golden Eagle - Aquila chrysaetos","ispublic":1,"isfriend":0,"isfamily":0},{"id":"52736316393","owner":"123521075@N07","secret":"dae9f7921d","server":"65535","farm":66,"title":"Golden Eagle - Aquila chrysaetos","ispublic":1,"isfriend":0,"isfamily":0},{"id":"52735838626","owner":"123521075@N07","secret":"76692b926d","server":"65535","farm":66,"title":"Golden Eagle - Aquila chrysaetos","ispublic":1,"isfriend":0,"isfamily":0},{"id":"52734074255","owner":"107784905@N04","secret":"bd72015368","server":"65535","farm":66,"title":"Aigle royal - Montbovon\/Fribourg\/CH_20220418_046-1","ispublic":1,"isfriend":0,"isfamily":0},{"id":"52733025444","owner":"123521075@N07","secret":"c31eb565f9","server":"65535","farm":66,"title":"Golden Eagle above Scots Pine regeneration - Aquila chrysaetos","ispublic":1,"isfriend":0,"isfamily":0},{"id":"52733255628","owner":"123521075@N07","secret":"fd481a73d4","server":"65535","farm":66,"title":"Golden Eagle above Scots Pine regeneration - Aquila chrysaetos","ispublic":1,"isfriend":0,"isfamily":0},{"id":"52732773061","owner":"123521075@N07","secret":"ee28190941","server":"65535","farm":66,"title":"Golden Eagle - Aquila chrysaetos","ispublic":1,"isfriend":0,"isfamily":0},{"id":"52733184600","owner":"123521075@N07","secret":"6730d472db","server":"65535","farm":66,"title":"Golden Eagle - Aquila chrysaetos","ispublic":1,"isfriend":0,"isfamily":0},{"id":"52733025199","owner":"123521075@N07","secret":"9159d66efc","server":"65535","farm":66,"title":"Golden Eagle - Aquila chrysaetos","ispublic":1,"isfriend":0,"isfamily":0},{"id":"52732132342","owner":"129653696@N06","secret":"3cd3c6acb8","server":"65535","farm":66,"title":"\u00c1guila real (Aquila chrysaetos). GOLDEN EAGLE","ispublic":1,"isfriend":0,"isfamily":0},{"id":"52730408023","owner":"194229702@N05","secret":"8f39e14a84","server":"65535","farm":66,"title":"Golden Eagle in snow","ispublic":1,"isfriend":0,"isfamily":0},{"id":"52729375867","owner":"109043136@N05","secret":"b2d5ef6b1d","server":"65535","farm":66,"title":"\u00c1guia-real (Aquila chrysaetos)","ispublic":1,"isfriend":0,"isfamily":0},{"id":"52730382783","owner":"109043136@N05","secret":"a8b2ec8a5e","server":"65535","farm":66,"title":"\u00c1guia-real (Aquila chrysaetos)","ispublic":1,"isfriend":0,"isfamily":0},{"id":"52729374252","owner":"109043136@N05","secret":"9606fbaa53","server":"65535","farm":66,"title":"\u00c1guia-real (Aquila chrysaetos)","ispublic":1,"isfriend":0,"isfamily":0},{"id":"52730310215","owner":"109043136@N05","secret":"3af3a4de5e","server":"65535","farm":66,"title":"\u00c1guia-real (Aquila chrysaetos)","ispublic":1,"isfriend":0,"isfamily":0},{"id":"52729492076","owner":"147328572@N03","secret":"8779c38d85","server":"65535","farm":66,"title":"Steinadler \/ Golden Eagle \/ Aquila chrysaetos","ispublic":1,"isfriend":0,"isfamily":0},{"id":"52727610864","owner":"45145908@N08","secret":"f1c78d2b3f","server":"65535","farm":66,"title":"Aguila real, Golden eagle","ispublic":1,"isfriend":0,"isfamily":0},{"id":"52723194589","owner":"147328572@N03","secret":"ffdb9b2cdf","server":"65535","farm":66,"title":"Seeadler \/ White-tailed Eagle \/ Haliaeetus albicilla vs Steinadler \/ Golden Eagle \/ Aquila Chrysaetos","ispublic":1,"isfriend":0,"isfamily":0},{"id":"52721082879","owner":"192518052@N05","secret":"6033d73d88","server":"65535","farm":66,"title":"Golden Eagle","ispublic":1,"isfriend":0,"isfamily":0},{"id":"52721233855","owner":"192518052@N05","secret":"541c256cff","server":"65535","farm":66,"title":"Golden Eagle","ispublic":1,"isfriend":0,"isfamily":0},{"id":"52720296082","owner":"192518052@N05","secret":"2f1eb8a01a","server":"65535","farm":66,"title":"Golden Eagle","ispublic":1,"isfriend":0,"isfamily":0},{"id":"52720374548","owner":"147328572@N03","secret":"eb52ac1281","server":"65535","farm":66,"title":"Steinadler \/ Golden Eagle \/ Aquila chrysaetos","ispublic":1,"isfriend":0,"isfamily":0},{"id":"52720090610","owner":"45145908@N08","secret":"407161edcf","server":"65535","farm":66,"title":"Aguila real, Golden eagle","ispublic":1,"isfriend":0,"isfamily":0},{"id":"52719920594","owner":"45145908@N08","secret":"fb750568ba","server":"65535","farm":66,"title":"Aguila real, Golden eagle","ispublic":1,"isfriend":0,"isfamily":0},{"id":"52719376523","owner":"54724497@N02","secret":"ca18595f79","server":"65535","farm":66,"title":"Kungs\u00f6rn, Aquila chrysaetos, Golden Eagle","ispublic":1,"isfriend":0,"isfamily":0},{"id":"52719310880","owner":"54724497@N02","secret":"b7512f0061","server":"65535","farm":66,"title":"Kungs\u00f6rn, Aquila chrysaetos, Golden Eagle","ispublic":1,"isfriend":0,"isfamily":0},{"id":"52719269705","owner":"192518052@N05","secret":"168fb1aa1d","server":"65535","farm":66,"title":"Golden Eagle","ispublic":1,"isfriend":0,"isfamily":0},{"id":"52718845916","owner":"192518052@N05","secret":"d57e0f5b7f","server":"65535","farm":66,"title":"Golden Eagle","ispublic":1,"isfriend":0,"isfamily":0},{"id":"52718325482","owner":"192518052@N05","secret":"f5e035242e","server":"65535","farm":66,"title":"Golden Eagle","ispublic":1,"isfriend":0,"isfamily":0},{"id":"52718325447","owner":"192518052@N05","secret":"3cfd5766db","server":"65535","farm":66,"title":"Golden Eagle","ispublic":1,"isfriend":0,"isfamily":0},{"id":"52718325327","owner":"192518052@N05","secret":"bea39ac55b","server":"65535","farm":66,"title":"Golden Eagle","ispublic":1,"isfriend":0,"isfamily":0},{"id":"52718284532","owner":"103722035@N06","secret":"31097cf2bf","server":"0","farm":0,"title":"Golden Eagle (Aquila chrysaetos), San Simeon, CA","ispublic":1,"isfriend":0,"isfamily":0},{"id":"52718760766","owner":"152877605@N05","secret":"319cd2b3f9","server":"65535","farm":66,"title":"Golden Eagle; Aquila chrysaetos","ispublic":1,"isfriend":0,"isfamily":0},{"id":"52717572997","owner":"45145908@N08","secret":"99f1797827","server":"65535","farm":66,"title":"Aguila real, Golden eagle","ispublic":1,"isfriend":0,"isfamily":0},{"id":"52718520895","owner":"45145908@N08","secret":"615c2b97f4","server":"65535","farm":66,"title":"Aguila real, Golden eagle","ispublic":1,"isfriend":0,"isfamily":0},{"id":"52717070765","owner":"192518052@N05","secret":"06387a6443","server":"65535","farm":66,"title":"Golden Eagle","ispublic":1,"isfriend":0,"isfamily":0},{"id":"52716903054","owner":"192518052@N05","secret":"ae1bfa02ee","server":"65535","farm":66,"title":"Golden Eagle","ispublic":1,"isfriend":0,"isfamily":0},{"id":"52715989024","owner":"78887815@N05","secret":"c6e4934357","server":"65535","farm":66,"title":"\u00c1guia-real - golden eagle (Aquila chrysaetos)","ispublic":1,"isfriend":0,"isfamily":0},{"id":"52716210138","owner":"78887815@N05","secret":"93e7992a05","server":"65535","farm":66,"title":"\u00c1guia-real - golden eagle (Aquila chrysaetos)","ispublic":1,"isfriend":0,"isfamily":0},{"id":"52715207542","owner":"78887815@N05","secret":"174215f2f7","server":"65535","farm":66,"title":"\u00c1guia-real - golden eagle (Aquila chrysaetos)","ispublic":1,"isfriend":0,"isfamily":0},{"id":"52715729821","owner":"78887815@N05","secret":"f202d61d7c","server":"65535","farm":66,"title":"\u00c1guia-real - golden eagle (Aquila chrysaetos)","ispublic":1,"isfriend":0,"isfamily":0},{"id":"52715729631","owner":"78887815@N05","secret":"09db1d0a65","server":"65535","farm":66,"title":"\u00c1guia-real - golden eagle (Aquila chrysaetos)","ispublic":1,"isfriend":0,"isfamily":0},{"id":"52716208768","owner":"78887815@N05","secret":"c60bc3338d","server":"65535","farm":66,"title":"\u00c1guia-real - golden eagle (Aquila chrysaetos)","ispublic":1,"isfriend":0,"isfamily":0},{"id":"52715987349","owner":"78887815@N05","secret":"939311e80e","server":"65535","farm":66,"title":"\u00c1guia-real - golden eagle (Aquila chrysaetos)","ispublic":1,"isfriend":0,"isfamily":0},{"id":"52716151875","owner":"78887815@N05","secret":"24729d37c4","server":"65535","farm":66,"title":"\u00c1guia-real - golden eagle (Aquila chrysaetos)","ispublic":1,"isfriend":0,"isfamily":0},{"id":"52716207123","owner":"78887815@N05","secret":"c18cebdb2c","server":"65535","farm":66,"title":"\u00c1guia-real - golden eagle (Aquila chrysaetos)","ispublic":1,"isfriend":0,"isfamily":0},{"id":"52716150145","owner":"78887815@N05","secret":"3681744c56","server":"65535","farm":66,"title":"\u00c1guia-real - golden eagle (Aquila chrysaetos)","ispublic":1,"isfriend":0,"isfamily":0},{"id":"52715726956","owner":"78887815@N05","secret":"acb6bd3e6c","server":"65535","farm":66,"title":"\u00c1guia-real - golden eagle (Aquila chrysaetos)","ispublic":1,"isfriend":0,"isfamily":0},{"id":"52716206328","owner":"78887815@N05","secret":"6da9819acc","server":"65535","farm":66,"title":"\u00c1guia-real - golden eagle (Aquila chrysaetos)","ispublic":1,"isfriend":0,"isfamily":0},{"id":"52715726556","owner":"78887815@N05","secret":"0bd46c9efd","server":"65535","farm":66,"title":"\u00c1guia-real - golden eagle (Aquila chrysaetos)","ispublic":1,"isfriend":0,"isfamily":0},{"id":"52716205758","owner":"78887815@N05","secret":"1a8e37ea2e","server":"65535","farm":66,"title":"\u00c1guia-real - golden eagle (Aquila chrysaetos)","ispublic":1,"isfriend":0,"isfamily":0},{"id":"52716205488","owner":"78887815@N05","secret":"8ba3ec4404","server":"65535","farm":66,"title":"\u00c1guia-real - golden eagle (Aquila chrysaetos)","ispublic":1,"isfriend":0,"isfamily":0}]},"stat":"ok"}