{"photos":{"page":1,"pages":33,"perpage":100,"total":3285,"photo":[{"id":"52719494492","owner":"32814617@N00","secret":"8449709fe7","server":"65535","farm":66,"title":"Golden-Crowned Kinglet","ispublic":1,"isfriend":0,"isfamily":0},{"id":"52720436410","owner":"32814617@N00","secret":"ea524c0372","server":"65535","farm":66,"title":"Golden-Crowned Kinglet","ispublic":1,"isfriend":0,"isfamily":0},{"id":"52720436385","owner":"32814617@N00","secret":"5b87648018","server":"65535","farm":66,"title":"Golden-Crowned Kinglet","ispublic":1,"isfriend":0,"isfamily":0},{"id":"52720435775","owner":"32814617@N00","secret":"f063565297","server":"65535","farm":66,"title":"Golden-Crowned Kinglet","ispublic":1,"isfriend":0,"isfamily":0},{"id":"52719493352","owner":"32814617@N00","secret":"e5c56d18ea","server":"65535","farm":66,"title":"Golden-Crowned Kinglet","ispublic":1,"isfriend":0,"isfamily":0},{"id":"52709706308","owner":"99849996@N00","secret":"da6bd0406d","server":"65535","farm":66,"title":"Golden-crowned Kinglet 20220205_9632","ispublic":1,"isfriend":0,"isfamily":0},{"id":"52707539713","owner":"44904157@N04","secret":"13eb7f4e42","server":"65535","farm":66,"title":"Golden-crowned Kinglet (Head on View)","ispublic":1,"isfriend":0,"isfamily":0},{"id":"52703934453","owner":"84169650@N07","secret":"4e7251546d","server":"65535","farm":66,"title":"Golden Crowned Kinglet","ispublic":1,"isfriend":0,"isfamily":0},{"id":"52703289193","owner":"44904157@N04","secret":"24f17556d4","server":"65535","farm":66,"title":"Golden-crowned Kinglet","ispublic":1,"isfriend":0,"isfamily":0},{"id":"52673338994","owner":"49114357@N08","secret":"433327b814","server":"65535","farm":66,"title":"Golden-crowned Kinglet","ispublic":1,"isfriend":0,"isfamily":0},{"id":"52685096481","owner":"33888451@N07","secret":"836ac01487","server":"65535","farm":66,"title":"Goldcrest","ispublic":1,"isfriend":0,"isfamily":0},{"id":"52683474573","owner":"44904157@N04","secret":"891f3605cf","server":"65535","farm":66,"title":"Golden-crowned Kinglet","ispublic":1,"isfriend":0,"isfamily":0},{"id":"52678403322","owner":"47533293@N04","secret":"fa5b49c1e9","server":"65535","farm":66,"title":"Golden-crowned kinglet, Regulus satrapa","ispublic":1,"isfriend":0,"isfamily":0},{"id":"52672939352","owner":"158105449@N02","secret":"a5fa402108","server":"65535","farm":66,"title":"Perpetuum mobile","ispublic":1,"isfriend":0,"isfamily":0},{"id":"52659289163","owner":"94222177@N06","secret":"672edf74f8","server":"65535","farm":66,"title":"Golden-crowned Kinglet","ispublic":1,"isfriend":0,"isfamily":0},{"id":"52656457508","owner":"61241315@N00","secret":"225bd00c97","server":"65535","farm":66,"title":"Golden-crowned Kinglet_N6916","ispublic":1,"isfriend":0,"isfamily":0},{"id":"52656248984","owner":"61241315@N00","secret":"3e21bc037a","server":"65535","farm":66,"title":"Golden-crowned Kinglet_N6913","ispublic":1,"isfriend":0,"isfamily":0},{"id":"52655968276","owner":"61241315@N00","secret":"6b9ec9cf7c","server":"65535","farm":66,"title":"Golden-crowned Kinglet_N6955","ispublic":1,"isfriend":0,"isfamily":0},{"id":"52655968201","owner":"61241315@N00","secret":"93f90ecd59","server":"65535","farm":66,"title":"Golden-crowned Kinglet_N6956","ispublic":1,"isfriend":0,"isfamily":0},{"id":"52641324461","owner":"63093099@N02","secret":"9d71586a23","server":"65535","farm":66,"title":"Golden-crowned Kinglet; 20230121; USA-WA-Pierce Co-Nisqually NWR","ispublic":1,"isfriend":0,"isfamily":0},{"id":"52641581574","owner":"63093099@N02","secret":"97163d2ba0","server":"65535","farm":66,"title":"Golden-crowned Kinglet; 20230121; USA-WA-Pierce Co-Nisqually NWR","ispublic":1,"isfriend":0,"isfamily":0},{"id":"52633454467","owner":"39445433@N02","secret":"8306989250","server":"65535","farm":66,"title":"Golden-Crowned Kinglet","ispublic":1,"isfriend":0,"isfamily":0},{"id":"52633851851","owner":"99849996@N00","secret":"1aa0dbc871","server":"65535","farm":66,"title":"Golden-crowned Kinglet 20211207_1752","ispublic":1,"isfriend":0,"isfamily":0},{"id":"52623739233","owner":"86191812@N07","secret":"87a89bedbc","server":"65535","farm":66,"title":"Golden-crowned Kinglet (Regulus satrapa)","ispublic":1,"isfriend":0,"isfamily":0},{"id":"52620373938","owner":"187999217@N04","secret":"0805f0daa7","server":"65535","farm":66,"title":"Golden-crowned Kinglet (Regulus satrapa)","ispublic":1,"isfriend":0,"isfamily":0},{"id":"52618056229","owner":"130605131@N08","secret":"faf7acc4bd","server":"65535","farm":66,"title":"IMG_2592","ispublic":1,"isfriend":0,"isfamily":0},{"id":"52617277087","owner":"130605131@N08","secret":"d4fbfc6aeb","server":"65535","farm":66,"title":"IMG_2594","ispublic":1,"isfriend":0,"isfamily":0},{"id":"52618222650","owner":"130605131@N08","secret":"4f8865b632","server":"65535","farm":66,"title":"IMG_2596","ispublic":1,"isfriend":0,"isfamily":0},{"id":"52595023905","owner":"79097894@N04","secret":"16a86fddf9","server":"65535","farm":66,"title":"Golden-crowned Kinglet","ispublic":1,"isfriend":0,"isfamily":0},{"id":"52590741635","owner":"44075517@N00","secret":"024b22205f","server":"65535","farm":66,"title":"Golden-crowned Kinglet, Regulus satrapa (Lichtenstein, 1823)","ispublic":1,"isfriend":0,"isfamily":0},{"id":"52580575459","owner":"153973412@N04","secret":"7ecfc1b043","server":"65535","farm":66,"title":"Golden-crowned Kinglet-Regulus satrapa, Iowa City, IA","ispublic":1,"isfriend":0,"isfamily":0},{"id":"52572644455","owner":"33610210@N05","secret":"c0067e4669","server":"65535","farm":66,"title":"Golden-crowned Kinglet, Regulus satrapa","ispublic":1,"isfriend":0,"isfamily":0},{"id":"52571729137","owner":"33610210@N05","secret":"0a48fee48f","server":"65535","farm":66,"title":"Golden-crowned Kinglet, Regulus satrapa","ispublic":1,"isfriend":0,"isfamily":0},{"id":"52571729082","owner":"33610210@N05","secret":"338fc81b2b","server":"65535","farm":66,"title":"Golden-crowned Kinglet, Regulus satrapa","ispublic":1,"isfriend":0,"isfamily":0},{"id":"52566486623","owner":"156694969@N03","secret":"dd7bacac36","server":"65535","farm":66,"title":"Golden-crowned Kinglet","ispublic":1,"isfriend":0,"isfamily":0},{"id":"52566408140","owner":"156694969@N03","secret":"2e81de850d","server":"65535","farm":66,"title":"Golden-crowned Kinglet","ispublic":1,"isfriend":0,"isfamily":0},{"id":"52566408125","owner":"156694969@N03","secret":"12ec8c2ce8","server":"65535","farm":66,"title":"Golden-crowned Kinglet","ispublic":1,"isfriend":0,"isfamily":0},{"id":"52541847061","owner":"131708321@N02","secret":"ea28e8151b","server":"65535","farm":66,"title":"Golden-crowned Kinglet (Regulus satrapa), Maple Valley, Washington","ispublic":1,"isfriend":0,"isfamily":0},{"id":"52538862834","owner":"128537732@N06","secret":"efd6b16b79","server":"65535","farm":66,"title":"Golden-crowned Kinglet (Regulus satrapa)","ispublic":1,"isfriend":0,"isfamily":0},{"id":"52535204120","owner":"99849996@N00","secret":"e184d54db6","server":"65535","farm":66,"title":"Golden-crowned Kinglet 20211121_5807","ispublic":1,"isfriend":0,"isfamily":0},{"id":"52527577855","owner":"48014585@N00","secret":"1226332412","server":"65535","farm":66,"title":"Golden-crowned Kinglet","ispublic":1,"isfriend":0,"isfamily":0},{"id":"52522432573","owner":"128537732@N06","secret":"a077d8b43e","server":"65535","farm":66,"title":"Golden-crowned Kinglet (Regulus satrapa)","ispublic":1,"isfriend":0,"isfamily":0},{"id":"52521420677","owner":"128537732@N06","secret":"5d0e15e1c0","server":"65535","farm":66,"title":"Golden-crowned Kinglet (Regulus satrapa)","ispublic":1,"isfriend":0,"isfamily":0},{"id":"52519798096","owner":"79097894@N04","secret":"a059e253b5","server":"65535","farm":66,"title":"Golden-crowned Kinglet","ispublic":1,"isfriend":0,"isfamily":0},{"id":"52518653147","owner":"39445433@N02","secret":"ae7a9dc964","server":"65535","farm":66,"title":"Golden-Crowned Kinglet","ispublic":1,"isfriend":0,"isfamily":0},{"id":"52518653027","owner":"39445433@N02","secret":"e7f4d93950","server":"65535","farm":66,"title":"Golden-Crowned Kinglet","ispublic":1,"isfriend":0,"isfamily":0},{"id":"52519605780","owner":"39445433@N02","secret":"0fd3f73350","server":"65535","farm":66,"title":"Golden-Crowned Kinglet","ispublic":1,"isfriend":0,"isfamily":0},{"id":"52516326153","owner":"39445433@N02","secret":"ae64030e47","server":"65535","farm":66,"title":"Golden-Crowned Kinglet","ispublic":1,"isfriend":0,"isfamily":0},{"id":"52514187804","owner":"120449047@N06","secret":"9f3db62e0b","server":"65535","farm":66,"title":"Golden-crowned Kinglet","ispublic":1,"isfriend":0,"isfamily":0},{"id":"52505409348","owner":"13451078@N03","secret":"e4888b4018","server":"65535","farm":66,"title":"Golden-crowned Kinglet (Regulus satrapa)","ispublic":1,"isfriend":0,"isfamily":0},{"id":"52502699381","owner":"48311154@N02","secret":"f0186c430a","server":"65535","farm":66,"title":"Golden-crowned Kinglet","ispublic":1,"isfriend":0,"isfamily":0},{"id":"52499786400","owner":"34238008@N02","secret":"e8c59dedaf","server":"65535","farm":66,"title":"Golden-crowned Kinglet (Regulus satrapa)","ispublic":1,"isfriend":0,"isfamily":0},{"id":"52499862488","owner":"34238008@N02","secret":"83eeace0a0","server":"65535","farm":66,"title":"Golden-crowned Kinglet (Regulus satrapa)","ispublic":1,"isfriend":0,"isfamily":0},{"id":"52499589304","owner":"34238008@N02","secret":"41aba60071","server":"65535","farm":66,"title":"Golden-crowned Kinglet (Regulus satrapa)","ispublic":1,"isfriend":0,"isfamily":0},{"id":"52499785955","owner":"34238008@N02","secret":"a45390525a","server":"65535","farm":66,"title":"Golden-crowned Kinglet (Regulus satrapa)","ispublic":1,"isfriend":0,"isfamily":0},{"id":"52492689461","owner":"49114357@N08","secret":"e3f1063da2","server":"65535","farm":66,"title":"Golden-crowned Kinglet","ispublic":1,"isfriend":0,"isfamily":0},{"id":"52495517424","owner":"64557331@N04","secret":"8dce2c16bb","server":"65535","farm":66,"title":"Golden-Crowned Kinglet - (Regulus satrapa)_11062021","ispublic":1,"isfriend":0,"isfamily":0},{"id":"52494735547","owner":"64557331@N04","secret":"0b90b9bea8","server":"65535","farm":66,"title":"Golden-Crowned Kinglet - (Regulus satrapa)_10092022_2","ispublic":1,"isfriend":0,"isfamily":0},{"id":"52495217441","owner":"64557331@N04","secret":"69d5c9e44e","server":"65535","farm":66,"title":"Golden-Crowned Kinglet - (Regulus satrapa)_10092022_1_3","ispublic":1,"isfriend":0,"isfamily":0},{"id":"52494735352","owner":"64557331@N04","secret":"d66001bb7f","server":"65535","farm":66,"title":"Golden-Crowned Kinglet - (Regulus satrapa)_10092022_1","ispublic":1,"isfriend":0,"isfamily":0},{"id":"52494735307","owner":"64557331@N04","secret":"a6a0c74403","server":"65535","farm":66,"title":"Golden-Crowned Kinglet - (Regulus satrapa)_10082022_4_fb","ispublic":1,"isfriend":0,"isfamily":0},{"id":"52495691965","owner":"64557331@N04","secret":"bbc8656f7f","server":"65535","farm":66,"title":"Golden-Crowned Kinglet - (Regulus satrapa)_10082022_2","ispublic":1,"isfriend":0,"isfamily":0},{"id":"52493741374","owner":"98154616@N03","secret":"0f2128f2c4","server":"65535","farm":66,"title":"Regulus satrapa","ispublic":1,"isfriend":0,"isfamily":0},{"id":"52490367162","owner":"33573751@N04","secret":"1d241df661","server":"65535","farm":66,"title":"Golden-crowned Kinglet (Regulus satrapa) - Westport, Connecticut, USA","ispublic":1,"isfriend":0,"isfamily":0},{"id":"52491302053","owner":"33573751@N04","secret":"88072a5403","server":"65535","farm":66,"title":"Golden-crowned Kinglet (Regulus satrapa) - Westport, Connecticut, USA","ispublic":1,"isfriend":0,"isfamily":0},{"id":"52486934182","owner":"99849996@N00","secret":"b9e640844f","server":"65535","farm":66,"title":"Golden-crowned Kinglet 20211109_4605","ispublic":1,"isfriend":0,"isfamily":0},{"id":"52480859881","owner":"34368269@N04","secret":"acf80818a7","server":"65535","farm":66,"title":"Golden-crowned Kinglet","ispublic":1,"isfriend":0,"isfamily":0},{"id":"52477147812","owner":"84169650@N07","secret":"9a8807349f","server":"65535","farm":66,"title":"Golden Crowned Kinglet","ispublic":1,"isfriend":0,"isfamily":0},{"id":"52465617302","owner":"128537732@N06","secret":"f7958b00bc","server":"65535","farm":66,"title":"Golden-crowned Kinglet (Regulus satrapa)","ispublic":1,"isfriend":0,"isfamily":0},{"id":"52466668473","owner":"128537732@N06","secret":"9d4d06bc9a","server":"65535","farm":66,"title":"Golden-crowned Kinglet (Regulus satrapa)","ispublic":1,"isfriend":0,"isfamily":0},{"id":"52464903344","owner":"145466593@N08","secret":"e95a030c6c","server":"65535","farm":66,"title":"Golden-crowned Kinglet","ispublic":1,"isfriend":0,"isfamily":0},{"id":"52464903179","owner":"145466593@N08","secret":"a12fd44c04","server":"65535","farm":66,"title":"Golden-crowned Kinglet","ispublic":1,"isfriend":0,"isfamily":0},{"id":"52462610595","owner":"37566919@N02","secret":"9d0cefc7d5","server":"65535","farm":66,"title":"Golden-crowned Kinglet, male","ispublic":1,"isfriend":0,"isfamily":0},{"id":"52461244431","owner":"86191812@N07","secret":"9d051100c1","server":"65535","farm":66,"title":"Golden-crowned Kinglet (Regulus satrapa)","ispublic":1,"isfriend":0,"isfamily":0},{"id":"52460059371","owner":"168495655@N07","secret":"caf9ab1038","server":"65535","farm":66,"title":"Roitelet \u00e0 couronne dor\u00e9e - Regulus satrapa - Golden-crowned Kinglet","ispublic":1,"isfriend":0,"isfamily":0},{"id":"52457585888","owner":"48311154@N02","secret":"fd4fa343e0","server":"65535","farm":66,"title":"Looks like he drank the wrong kool aid","ispublic":1,"isfriend":0,"isfamily":0},{"id":"52454694743","owner":"45340210@N05","secret":"3c7c9d1bc1","server":"65535","farm":66,"title":"Golden-crowned Kinglet 1 10_18_22","ispublic":1,"isfriend":0,"isfamily":0},{"id":"52451654176","owner":"131314146@N08","secret":"50fa549875","server":"65535","farm":66,"title":"K. MacDonald, Golden-crowned Kinglet, Regulus satrapa, Hogg Bay, 102322 PA230143 (2)","ispublic":1,"isfriend":0,"isfamily":0},{"id":"52452176463","owner":"131314146@N08","secret":"26a59bfb2b","server":"65535","farm":66,"title":"K. MacDonald, Golden-crowned Kinglet, Regulus satrapa, Hogg Bay, 102322 PA230150 (2)","ispublic":1,"isfriend":0,"isfamily":0},{"id":"52446613645","owner":"196264892@N08","secret":"cdece8ea4e","server":"65535","farm":66,"title":"Golden-crowned Kinglet","ispublic":1,"isfriend":0,"isfamily":0},{"id":"52446174466","owner":"196264892@N08","secret":"06702ee1d4","server":"65535","farm":66,"title":"Golden-crowned Kinglet","ispublic":1,"isfriend":0,"isfamily":0},{"id":"52444937929","owner":"48311154@N02","secret":"56807a0072","server":"65535","farm":66,"title":"Just when I thought I was done birdwatching for the day","ispublic":1,"isfriend":0,"isfamily":0},{"id":"52444861794","owner":"54549270@N03","secret":"3347b1e841","server":"65535","farm":66,"title":"Golden-crowned Kinglet, female","ispublic":1,"isfriend":0,"isfamily":0},{"id":"52441132976","owner":"168495655@N07","secret":"dc59564190","server":"65535","farm":66,"title":"Roitelet \u00e0 couronne dor\u00e9e - Regulus satrapa - Golden-crowned Kinglet","ispublic":1,"isfriend":0,"isfamily":0},{"id":"52440785106","owner":"11327854@N00","secret":"7eded2eb28","server":"65535","farm":66,"title":"Goldened-crowned Kinglet","ispublic":1,"isfriend":0,"isfamily":0},{"id":"52438842259","owner":"149819320@N07","secret":"19c4ba6967","server":"65535","farm":66,"title":"Golden-crowned Kinglet (Regulus satrapa)","ispublic":1,"isfriend":0,"isfamily":0},{"id":"52437304964","owner":"22304442@N00","secret":"5b1bd78248","server":"65535","farm":66,"title":"roitelet a couronne dor\u00e9e","ispublic":1,"isfriend":0,"isfamily":0},{"id":"52434031272","owner":"39177293@N03","secret":"c158c546b4","server":"65535","farm":66,"title":"Golden-crowned Kinglet","ispublic":1,"isfriend":0,"isfamily":0},{"id":"52434031277","owner":"39177293@N03","secret":"7e19f15b50","server":"65535","farm":66,"title":"Golden-crowned Kinglet","ispublic":1,"isfriend":0,"isfamily":0},{"id":"52426676252","owner":"39177293@N03","secret":"9a3eb4dbb1","server":"65535","farm":66,"title":"Golden-crowned Kinglet","ispublic":1,"isfriend":0,"isfamily":0},{"id":"52423895986","owner":"13788974@N02","secret":"f03772e181","server":"65535","farm":66,"title":"Golden-crowned Kinglet","ispublic":1,"isfriend":0,"isfamily":0},{"id":"52418548487","owner":"163577176@N03","secret":"aa7f3394be","server":"65535","farm":66,"title":"Golden-crowned Kinglet","ispublic":1,"isfriend":0,"isfamily":0},{"id":"52416969645","owner":"84175980@N00","secret":"e53a7b5edf","server":"65535","farm":66,"title":"20220926 Regulus satrapa (Golden-crowned Kinglet)","ispublic":1,"isfriend":0,"isfamily":0},{"id":"52416734885","owner":"183132100@N02","secret":"8d5dd92f67","server":"65535","farm":66,"title":"Golden-crowned Kinglet 10-8-2022","ispublic":1,"isfriend":0,"isfamily":0},{"id":"52519550965","owner":"39617069@N08","secret":"ded6f0b8b7","server":"65535","farm":66,"title":"Golden-crowned Kinglet","ispublic":1,"isfriend":0,"isfamily":0},{"id":"52490285562","owner":"33573751@N04","secret":"64f2d0538d","server":"65535","farm":66,"title":"Golden-crowned Kinglet (Regulus satrapa) - Westport, Connecticut, USA","ispublic":1,"isfriend":0,"isfamily":0},{"id":"52446614645","owner":"196264892@N08","secret":"075687e5e1","server":"65535","farm":66,"title":"Golden-crowned Kinglet","ispublic":1,"isfriend":0,"isfamily":0},{"id":"52446614315","owner":"196264892@N08","secret":"8e378207bd","server":"65535","farm":66,"title":"Golden-crowned Kinglet","ispublic":1,"isfriend":0,"isfamily":0},{"id":"52446613835","owner":"196264892@N08","secret":"1185455b71","server":"65535","farm":66,"title":"Golden-crowned Kinglet","ispublic":1,"isfriend":0,"isfamily":0},{"id":"52445622422","owner":"196264892@N08","secret":"efcccb7506","server":"65535","farm":66,"title":"Golden-crowned Kinglet male","ispublic":1,"isfriend":0,"isfamily":0}]},"stat":"ok"}