{"photos":{"page":1,"pages":2,"perpage":100,"total":110,"photo":[{"id":"51634821697","owner":"61316002@N02","secret":"f82f2e3f60","server":"65535","farm":66,"title":"GOLGRNWOO polyzonus 2852","ispublic":1,"isfriend":0,"isfamily":0},{"id":"50376005281","owner":"61021753@N02","secret":"47f9608679","server":"65535","farm":66,"title":"n80_w1150","ispublic":1,"isfriend":0,"isfamily":0},{"id":"49233331002","owner":"122319503@N07","secret":"cdfa12d22e","server":"65535","farm":66,"title":"CGSM-Est_KM22","ispublic":1,"isfriend":0,"isfamily":0},{"id":"49233106941","owner":"122319503@N07","secret":"1088dcd68e","server":"65535","farm":66,"title":"CGSM-Est_KM22","ispublic":1,"isfriend":0,"isfamily":0},{"id":"49233330442","owner":"122319503@N07","secret":"d60857e16c","server":"65535","farm":66,"title":"CGSM-Est_KM22","ispublic":1,"isfriend":0,"isfamily":0},{"id":"49180728977","owner":"46788536@N05","secret":"b022929a32","server":"65535","farm":66,"title":"Piculus chrysochloros \/\/ Golden-green Woodpecker","ispublic":1,"isfriend":0,"isfamily":0},{"id":"49180023468","owner":"46788536@N05","secret":"8e5a603361","server":"65535","farm":66,"title":"Piculus chrysochloros \/\/ Golden-green Woodpecker","ispublic":1,"isfriend":0,"isfamily":0},{"id":"48467688986","owner":"130406067@N03","secret":"edcc47c4ba","server":"65535","farm":66,"title":"Golden-green Woodpecker (Piculus chrysochloros)","ispublic":1,"isfriend":0,"isfamily":0},{"id":"48281328751","owner":"24309230@N03","secret":"15cd83d1fa","server":"65535","farm":66,"title":"Carpintero Verdiamarillo","ispublic":1,"isfriend":0,"isfamily":0},{"id":"48045993467","owner":"33820263@N07","secret":"d706d906a1","server":"65535","farm":66,"title":"Golden-green Woodpecker","ispublic":1,"isfriend":0,"isfamily":0},{"id":"48045941488","owner":"33820263@N07","secret":"a09894d914","server":"65535","farm":66,"title":"Golden-green Woodpecker","ispublic":1,"isfriend":0,"isfamily":0},{"id":"48045903236","owner":"33820263@N07","secret":"3660cd61bb","server":"65535","farm":66,"title":"Golden-green Woodpecker","ispublic":1,"isfriend":0,"isfamily":0},{"id":"32680266617","owner":"70295563@N00","secret":"919754d4e3","server":"65535","farm":66,"title":"Looking up","ispublic":1,"isfriend":0,"isfamily":0},{"id":"46671694455","owner":"70295563@N00","secret":"07aee7ee5e","server":"7893","farm":8,"title":"Indignation","ispublic":1,"isfriend":0,"isfamily":0},{"id":"46642151925","owner":"45340210@N05","secret":"0b0783bc14","server":"7840","farm":8,"title":"Golden-green Woodpecker (Piculus chrysachloros)","ispublic":1,"isfriend":0,"isfamily":0},{"id":"33463701748","owner":"33820263@N07","secret":"00285c817b","server":"7841","farm":8,"title":"Male Golden-green Woodpecker","ispublic":1,"isfriend":0,"isfamily":0},{"id":"44978526571","owner":"71529853@N02","secret":"32224bdc01","server":"1980","farm":2,"title":"pica-pau-dourado-escuro (Piculus chrysochloros)","ispublic":1,"isfriend":0,"isfamily":0},{"id":"28868496697","owner":"79383179@N03","secret":"4a532dd8c5","server":"1820","farm":2,"title":"Golden-green Woodpecker (Piculus chrysochloros)","ispublic":1,"isfriend":0,"isfamily":0},{"id":"40543974074","owner":"43886809@N03","secret":"8efa65d382","server":"900","farm":1,"title":"Golden-green Woodpecker_17-09-27_Piculus chrysochloros","ispublic":1,"isfriend":0,"isfamily":0},{"id":"25931956948","owner":"46689459@N02","secret":"52b9219f96","server":"4655","farm":5,"title":"Pica-pau-dourado-escuro","ispublic":1,"isfriend":0,"isfamily":0},{"id":"38998196204","owner":"142952595@N08","secret":"2872380cd5","server":"4675","farm":5,"title":"Golden-green Woodpecker male","ispublic":1,"isfriend":0,"isfamily":0},{"id":"38217447314","owner":"101587906@N03","secret":"d404463a0f","server":"4521","farm":5,"title":"Pic vert-dor\u00e9","ispublic":1,"isfriend":0,"isfamily":0},{"id":"26868298709","owner":"53589480@N03","secret":"bb0597ec06","server":"4533","farm":5,"title":"Piculus chrysochloros","ispublic":1,"isfriend":0,"isfamily":0},{"id":"37113878951","owner":"154261763@N05","secret":"42a1cf2205","server":"4430","farm":5,"title":"Golden-green woodpecker - Piculus chrysochloros","ispublic":1,"isfriend":0,"isfamily":0},{"id":"36702939065","owner":"46788536@N05","secret":"e35442d476","server":"4390","farm":5,"title":"Piculus chrysochloros \/\/  Golden-green woodpecker \/\/ Pica-pau-dourado-escuro","ispublic":1,"isfriend":0,"isfamily":0},{"id":"36296047131","owner":"46689459@N02","secret":"86b99ab0c2","server":"4393","farm":5,"title":"Pica-pau-dourado-escuro","ispublic":1,"isfriend":0,"isfamily":0},{"id":"34747972603","owner":"125236336@N05","secret":"aa0a2d6070","server":"4235","farm":5,"title":"Piculus chrysochloros, Golden-green Woodpecker","ispublic":1,"isfriend":0,"isfamily":0},{"id":"31746759736","owner":"65695019@N07","secret":"ba3949e823","server":"5833","farm":6,"title":"Golden-green Woodpecker (Piculus chrysochloros) female","ispublic":1,"isfriend":0,"isfamily":0},{"id":"30066267446","owner":"21182099@N05","secret":"4799024a2c","server":"8537","farm":9,"title":"Golden-green Woodpecker (Piculus chrysochloros), male","ispublic":1,"isfriend":0,"isfamily":0},{"id":"24696335061","owner":"54249623@N08","secret":"38115d4c24","server":"1703","farm":2,"title":"Carpintero Dorado, Golden-green Woodpecker (Piculus chrysochloros)","ispublic":1,"isfriend":0,"isfamily":0},{"id":"23510803119","owner":"25572396@N04","secret":"e38b48c530","server":"601","farm":1,"title":"Pica-pau-dourado-escuro | Golden-green woodpecker (Piculus chrysochloros)","ispublic":1,"isfriend":0,"isfamily":0},{"id":"18525214158","owner":"128781214@N05","secret":"dba7fb4305","server":"525","farm":1,"title":"Pic vert-dor\u00e9 - Piculus chrysochloros","ispublic":1,"isfriend":0,"isfamily":0},{"id":"16483841223","owner":"27992517@N08","secret":"907b02a041","server":"7630","farm":8,"title":"Golden-green Woodpecker - Piculus chrysochloros - Darien, Panama [pic by Isaac Pizarro]","ispublic":1,"isfriend":0,"isfamily":0},{"id":"16917780179","owner":"27992517@N08","secret":"da47b7f888","server":"8767","farm":9,"title":"Golden-green Woodpecker - Piculus chrysochloros - Darien, Panama","ispublic":1,"isfriend":0,"isfamily":0},{"id":"16012697568","owner":"51435649@N05","secret":"f9ecf69caf","server":"7532","farm":8,"title":"8336 Golden-green Woodpecker","ispublic":1,"isfriend":0,"isfamily":0},{"id":"15485329335","owner":"87863466@N00","secret":"ed0fffa203","server":"2950","farm":3,"title":"Golden-green Woodpecker","ispublic":1,"isfriend":0,"isfamily":0},{"id":"14657850179","owner":"101784223@N08","secret":"2a4c2631d1","server":"3870","farm":4,"title":"Piculus chrysochloros","ispublic":1,"isfriend":0,"isfamily":0},{"id":"9904513996","owner":"46570401@N02","secret":"a317933c66","server":"2844","farm":3,"title":"pica-pau-dourado-escuro f\u00eamea (Piculus chrysochloros (Vieillot, 1818))","ispublic":1,"isfriend":0,"isfamily":0},{"id":"9904490976","owner":"46570401@N02","secret":"9127cb48e9","server":"7372","farm":8,"title":"pica-pau-dourado-escuro f\u00eamea (Piculus chrysochloros (Vieillot, 1818))","ispublic":1,"isfriend":0,"isfamily":0},{"id":"9632468234","owner":"28925266@N03","secret":"0c00e5346e","server":"3706","farm":4,"title":"Golden-green Woodpecker_Piculus chrysochloros_Male_17_10_2012_Bahia Negra_Paraguay_Andrea Ferreira","ispublic":1,"isfriend":0,"isfamily":0},{"id":"9325613223","owner":"98228518@N02","secret":"a878c96b34","server":"3727","farm":4,"title":"Pica-pau-dourado-escuro (Piculus chrysochloros)","ispublic":1,"isfriend":0,"isfamily":0},{"id":"8136120222","owner":"45185824@N02","secret":"2d29bb4833","server":"8054","farm":9,"title":"Carpintero dorado, Piculus chrysochloros, Golden-green Woodpecker, Hembra","ispublic":1,"isfriend":0,"isfamily":0},{"id":"5843282461","owner":"32674493@N04","secret":"a6c9892e16","server":"5069","farm":6,"title":"Pica-pau-dourado-escuro (Piculus chrysochloros)","ispublic":1,"isfriend":0,"isfamily":0},{"id":"5032366356","owner":"8013969@N03","secret":"d929d1462f","server":"4149","farm":5,"title":"Piculus chrysochlorosDFL bol10x-1","ispublic":1,"isfriend":0,"isfamily":0},{"id":"5032364034","owner":"8013969@N03","secret":"e1be8dcdee","server":"4103","farm":5,"title":"Piculus chrysochlorosDFL bol10x-2","ispublic":1,"isfriend":0,"isfamily":0},{"id":"4490387705","owner":"11590393@N05","secret":"1f15823742","server":"4015","farm":5,"title":"Golden-green Woodpecker (Piculus chrysochloros)","ispublic":1,"isfriend":0,"isfamily":0},{"id":"52703112052","owner":"9240063@N02","secret":"0931be1e4c","server":"65535","farm":66,"title":"Piculus chrysochloros","ispublic":1,"isfriend":0,"isfamily":0},{"id":"51589593180","owner":"182381287@N07","secret":"5436a82fe8","server":"65535","farm":66,"title":"Pica-pau-dourado-escuro (Piculus chrysochloros)","ispublic":1,"isfriend":0,"isfamily":0},{"id":"51228453975","owner":"190773540@N03","secret":"46508e73e1","server":"65535","farm":66,"title":"Golden-green Woodpecker","ispublic":1,"isfriend":0,"isfamily":0},{"id":"49794218092","owner":"186211059@N06","secret":"a5f1f18b3c","server":"65535","farm":66,"title":"Golden-green Woodpecker","ispublic":1,"isfriend":0,"isfamily":0},{"id":"49793901866","owner":"186211059@N06","secret":"97f5bbaf75","server":"65535","farm":66,"title":"Golden-green Woodpecker","ispublic":1,"isfriend":0,"isfamily":0},{"id":"49794200142","owner":"186211059@N06","secret":"9420af6de7","server":"65535","farm":66,"title":"Golden-green Woodpecker","ispublic":1,"isfriend":0,"isfamily":0},{"id":"49700106111","owner":"55968524@N04","secret":"0eda4c6c26","server":"65535","farm":66,"title":"3T9P6336 - Golden-green Woodpecker - Piculus chrysochloros.jpg","ispublic":1,"isfriend":0,"isfamily":0},{"id":"49502852238","owner":"100682706@N06","secret":"d9da49d785","server":"65535","farm":66,"title":"Golden-green Woodpecker - Piculus chrysochloros","ispublic":1,"isfriend":0,"isfamily":0},{"id":"49455835792","owner":"129419861@N06","secret":"656ed88086","server":"65535","farm":66,"title":"Bronsspecht","ispublic":1,"isfriend":0,"isfamily":0},{"id":"49180630366","owner":"46788536@N05","secret":"c1c22a95a4","server":"65535","farm":66,"title":"Piculus chrysochloros \/\/ Golden-green Woodpecker","ispublic":1,"isfriend":0,"isfamily":0},{"id":"49180841357","owner":"46788536@N05","secret":"12b7d6a368","server":"65535","farm":66,"title":"Piculus chrysochloros \/\/ Golden-green Woodpecker","ispublic":1,"isfriend":0,"isfamily":0},{"id":"48137995598","owner":"33820263@N07","secret":"90b937948f","server":"65535","farm":66,"title":"Golden-green Woodpecker","ispublic":1,"isfriend":0,"isfamily":0},{"id":"48138057777","owner":"33820263@N07","secret":"9761daa6f3","server":"65535","farm":66,"title":"Golden-green Woodpecker","ispublic":1,"isfriend":0,"isfamily":0},{"id":"48045904941","owner":"33820263@N07","secret":"db7794e961","server":"65535","farm":66,"title":"Golden-green Woodpecker","ispublic":1,"isfriend":0,"isfamily":0},{"id":"48045992647","owner":"33820263@N07","secret":"4e499df670","server":"65535","farm":66,"title":"Golden-green Woodpecker","ispublic":1,"isfriend":0,"isfamily":0},{"id":"48045941708","owner":"33820263@N07","secret":"d502afdc64","server":"65535","farm":66,"title":"Golden-green Woodpecker","ispublic":1,"isfriend":0,"isfamily":0},{"id":"46424711355","owner":"33820263@N07","secret":"948e05be5a","server":"7922","farm":8,"title":"Female Golden-green Woodpecker","ispublic":1,"isfriend":0,"isfamily":0},{"id":"30825212377","owner":"120741004@N04","secret":"fec5b15b4b","server":"4870","farm":5,"title":"Piculus chrysochloros","ispublic":1,"isfriend":0,"isfamily":0},{"id":"45715037572","owner":"120741004@N04","secret":"3325b7aa72","server":"1966","farm":2,"title":"Piculus chrysochloros hembra","ispublic":1,"isfriend":0,"isfamily":0},{"id":"30496817848","owner":"152675215@N06","secret":"d3448123fb","server":"1850","farm":2,"title":"Pica-pau-dourado-escuro (Piculus chrysochloros) - Golden-green Woodpecker","ispublic":1,"isfriend":0,"isfamily":0},{"id":"26075142947","owner":"100682706@N06","secret":"74dc896f1d","server":"4776","farm":5,"title":"Golden-green Woodpecker - Piculus chrysochloros","ispublic":1,"isfriend":0,"isfamily":0},{"id":"26378271509","owner":"88581198@N06","secret":"fa26a67519","server":"4580","farm":5,"title":"Golden-green Woodpecker (Piculus chrysochloros)","ispublic":1,"isfriend":0,"isfamily":0},{"id":"36657086146","owner":"46788536@N05","secret":"be59d7b9fb","server":"4417","farm":5,"title":"Piculus chrysochloros \/\/  Golden-green woodpecker \/\/ Pica-pau-dourado-escuro","ispublic":1,"isfriend":0,"isfamily":0},{"id":"36153784032","owner":"152845304@N05","secret":"fc6c37144d","server":"4302","farm":5,"title":"Golden-green Woodpecker (Piculus chrysochloros) - Lajas Blancas Road","ispublic":1,"isfriend":0,"isfamily":0},{"id":"36218578195","owner":"29170368@N03","secret":"e05d57b368","server":"65535","farm":66,"title":"Golden-green Woodpecker","ispublic":1,"isfriend":0,"isfamily":0},{"id":"36218577955","owner":"29170368@N03","secret":"304ed27bfd","server":"65535","farm":66,"title":"Golden-green Woodpecker","ispublic":1,"isfriend":0,"isfamily":0},{"id":"35895376791","owner":"120741004@N04","secret":"c68c15c586","server":"4316","farm":5,"title":"Piculus chrysochloros","ispublic":1,"isfriend":0,"isfamily":0},{"id":"35218810253","owner":"120741004@N04","secret":"7b58f4a2d8","server":"4326","farm":5,"title":"Piculus chrysochloros","ispublic":1,"isfriend":0,"isfamily":0},{"id":"31445827930","owner":"65695019@N07","secret":"6cae8abf58","server":"420","farm":1,"title":"Golden-green Woodpecker (Piculus chrysochloros) female","ispublic":1,"isfriend":0,"isfamily":0},{"id":"29726784941","owner":"16037309@N05","secret":"044d8dee17","server":"8507","farm":9,"title":"P1060951 Golden-green Woodpecker","ispublic":1,"isfriend":0,"isfamily":0},{"id":"20470283124","owner":"70839498@N04","secret":"531a7002fc","server":"640","farm":1,"title":"Piculus chrysochloros PN 08 IMG_0486","ispublic":1,"isfriend":0,"isfamily":0},{"id":"17065280337","owner":"132025829@N04","secret":"40e113d804","server":"8689","farm":9,"title":"Piculus chrysochloros(pica-pau dourado escuro)macho","ispublic":1,"isfriend":0,"isfamily":0},{"id":"16797114036","owner":"103739075@N06","secret":"29a8eb10d5","server":"7643","farm":8,"title":"Carpintero dorado","ispublic":1,"isfriend":0,"isfamily":0},{"id":"16636760009","owner":"103739075@N06","secret":"9ebc2a6d6c","server":"8624","farm":9,"title":"Carpintero dorado","ispublic":1,"isfriend":0,"isfamily":0},{"id":"16055321968","owner":"100861675@N08","secret":"4f06972c3c","server":"8578","farm":9,"title":"Piculus chrysochloros f\u00eamea","ispublic":1,"isfriend":0,"isfamily":0},{"id":"15364347559","owner":"66973379@N04","secret":"4ed09a7a7b","server":"5616","farm":6,"title":"Pica-pau-dourado-escuro (Piculus chrysochloros)","ispublic":1,"isfriend":0,"isfamily":0},{"id":"13969380261","owner":"88965227@N05","secret":"0185d3e8a4","server":"5316","farm":6,"title":"Golden-green Woodpecker","ispublic":1,"isfriend":0,"isfamily":0},{"id":"9202627597","owner":"27992517@N08","secret":"0cd49d3e92","server":"5484","farm":6,"title":"Gold-thoated (\"Colombian\" Golden-green) Woodpecker - Piculus (chrysochloros) xanthochloros - Isla Salamanca, Caribbean Lowlands","ispublic":1,"isfriend":0,"isfamily":0},{"id":"8566291720","owner":"92078996@N04","secret":"e565e870b6","server":"8514","farm":9,"title":"Pica Pau Dourado Escuro (Piculus chrysochloros) Golden-green Woodpecker","ispublic":1,"isfriend":0,"isfamily":0},{"id":"8565185597","owner":"92078996@N04","secret":"8d50bde0ed","server":"8228","farm":9,"title":"Pica Pau Dourado Escuro (Piculus chrysochloros) Golden-green Woodpecker","ispublic":1,"isfriend":0,"isfamily":0},{"id":"8565180347","owner":"92078996@N04","secret":"987018f380","server":"8389","farm":9,"title":"Pica Pau Dourado Escuro (Piculus chrysochloros) Golden-green Woodpecker","ispublic":1,"isfriend":0,"isfamily":0},{"id":"8565175617","owner":"92078996@N04","secret":"945c3d7dde","server":"8231","farm":9,"title":"Pica Pau Dourado Escuro (Piculus chrysochloros) Golden-green Woodpecker","ispublic":1,"isfriend":0,"isfamily":0},{"id":"8262638278","owner":"62445008@N00","secret":"ce198fc480","server":"8483","farm":9,"title":"Golden-green Woodpecker (Piculus chrysochloros)","ispublic":1,"isfriend":0,"isfamily":0},{"id":"8261568697","owner":"62445008@N00","secret":"1687c47496","server":"8364","farm":9,"title":"Golden-green Woodpecker (Piculus chrysochloros)","ispublic":1,"isfriend":0,"isfamily":0},{"id":"8136088831","owner":"45185824@N02","secret":"aa6dde79a9","server":"8055","farm":9,"title":"Carpintero dorado, Piculus chrysochloros, Golden-green Woodpecker, Macho","ispublic":1,"isfriend":0,"isfamily":0},{"id":"8132338774","owner":"62445008@N00","secret":"7866121f8a","server":"8046","farm":9,"title":"Golden-green Woodpecker (Piculus chrysochloros)","ispublic":1,"isfriend":0,"isfamily":0},{"id":"6946718111","owner":"22765625@N05","secret":"84286b830e","server":"7181","farm":8,"title":"Piculus chrysochloros","ispublic":1,"isfriend":0,"isfamily":0},{"id":"6809952481","owner":"75407079@N03","secret":"2b6c1b8ed9","server":"7167","farm":8,"title":"Golden-green Woodpecker, Piculus chrysochloros","ispublic":1,"isfriend":0,"isfamily":0},{"id":"6193199291","owner":"8013969@N03","secret":"9b2274212d","server":"6153","farm":7,"title":"Piculus chrysochlorosDFL Bol11-1","ispublic":1,"isfriend":0,"isfamily":0},{"id":"4937240717","owner":"86408362@N00","secret":"ca4dac3227","server":"4074","farm":5,"title":"pica-pau-dourado-escuro (Piculus chrysochloros)","ispublic":1,"isfriend":0,"isfamily":0},{"id":"4420048917","owner":"17164583@N00","secret":"ece72851bb","server":"2695","farm":3,"title":"Golden-green Woodpecker - Piculus chrysochloros","ispublic":1,"isfriend":0,"isfamily":0},{"id":"4405393626","owner":"33836179@N05","secret":"1f911040bd","server":"4040","farm":5,"title":"Piculus chrysochloros","ispublic":1,"isfriend":0,"isfamily":0},{"id":"4299638329","owner":"46628740@N02","secret":"0635b7362c","server":"4068","farm":5,"title":"Pica-pau-dourado-escuro","ispublic":1,"isfriend":0,"isfamily":0},{"id":"2846842751","owner":"14513254@N02","secret":"40a8891f81","server":"65535","farm":66,"title":"IMG_8770_golden green woodpecker","ispublic":1,"isfriend":0,"isfamily":0}]},"stat":"ok"}