{"photos":{"page":1,"pages":10,"perpage":100,"total":987,"photo":[{"id":"52694051970","owner":"196786375@N03","secret":"939429ccfa","server":"65535","farm":66,"title":"Lawrence's Warbler","ispublic":1,"isfriend":0,"isfamily":0},{"id":"52694130353","owner":"196786375@N03","secret":"5fde80ec0a","server":"65535","farm":66,"title":"Lawrence's Warbler","ispublic":1,"isfriend":0,"isfamily":0},{"id":"52592796052","owner":"76288515@N07","secret":"55d4014918","server":"65535","farm":66,"title":"Golden-winged Warbler  Vermivora chrysoptera","ispublic":1,"isfriend":0,"isfamily":0},{"id":"52593277886","owner":"76288515@N07","secret":"30bb602134","server":"65535","farm":66,"title":"Golden-winged Warbler  Vermivora chrysoptera","ispublic":1,"isfriend":0,"isfamily":0},{"id":"52593705740","owner":"76288515@N07","secret":"dd520ee971","server":"65535","farm":66,"title":"Golden-winged Warbler  Vermivora chrysoptera","ispublic":1,"isfriend":0,"isfamily":0},{"id":"52593539109","owner":"76288515@N07","secret":"5dcc736aff","server":"65535","farm":66,"title":"Golden-winged Warbler  Vermivora chrysoptera","ispublic":1,"isfriend":0,"isfamily":0},{"id":"52593798948","owner":"76288515@N07","secret":"735b3b8021","server":"65535","farm":66,"title":"Golden-winged Warbler  Vermivora chrysoptera","ispublic":1,"isfriend":0,"isfamily":0},{"id":"52593798913","owner":"76288515@N07","secret":"37859f2040","server":"65535","farm":66,"title":"Golden-winged Warbler  Vermivora chrysoptera","ispublic":1,"isfriend":0,"isfamily":0},{"id":"52593705680","owner":"76288515@N07","secret":"6d967f151f","server":"65535","farm":66,"title":"Golden-winged Warbler  Vermivora chrysoptera","ispublic":1,"isfriend":0,"isfamily":0},{"id":"52592795922","owner":"76288515@N07","secret":"0fbf67bdaf","server":"65535","farm":66,"title":"Golden-winged Warbler  Vermivora chrysoptera","ispublic":1,"isfriend":0,"isfamily":0},{"id":"52580747480","owner":"153973412@N04","secret":"6e3c06c555","server":"65535","farm":66,"title":"Golden-winged Warbler-Vermivora chrysoptera, Iowa City, IA","ispublic":1,"isfriend":0,"isfamily":0},{"id":"52481805210","owner":"76288515@N07","secret":"3f5467fb89","server":"65535","farm":66,"title":"Golden-winged Warbler  Vermivora chrysoptera","ispublic":1,"isfriend":0,"isfamily":0},{"id":"52481615344","owner":"76288515@N07","secret":"3784d508da","server":"65535","farm":66,"title":"Golden-winged Warbler  Vermivora chrysoptera","ispublic":1,"isfriend":0,"isfamily":0},{"id":"52481615204","owner":"76288515@N07","secret":"f101ca041a","server":"65535","farm":66,"title":"Golden-winged Warbler  Vermivora chrysoptera","ispublic":1,"isfriend":0,"isfamily":0},{"id":"52441483266","owner":"195239167@N07","secret":"f076640ceb","server":"65535","farm":66,"title":"Golden-winged Warbler","ispublic":1,"isfriend":0,"isfamily":0},{"id":"52440938597","owner":"195239167@N07","secret":"86013eee36","server":"65535","farm":66,"title":"Golden-winged Warbler","ispublic":1,"isfriend":0,"isfamily":0},{"id":"52361402655","owner":"36685968@N00","secret":"d613fbc00c","server":"65535","farm":66,"title":"Golden-winged Warbler (Vermivora chrysoptera)","ispublic":1,"isfriend":0,"isfamily":0},{"id":"52360031492","owner":"36685968@N00","secret":"8d0424690a","server":"65535","farm":66,"title":"Golden-winged Warbler (Vermivora chrysoptera)","ispublic":1,"isfriend":0,"isfamily":0},{"id":"52354911012","owner":"196212229@N04","secret":"3f3b7745b3","server":"65535","farm":66,"title":"Lawrence\u2019s Warbler","ispublic":1,"isfriend":0,"isfamily":0},{"id":"52177737881","owner":"86191812@N07","secret":"567dff102f","server":"65535","farm":66,"title":"Golden-Winged Warbler (Vermivora chrysoptera)","ispublic":1,"isfriend":0,"isfamily":0},{"id":"52151645354","owner":"32752434@N07","secret":"4033bbd507","server":"65535","farm":66,"title":"Golden-winged Warbler (Vermivora chrysoptera)","ispublic":1,"isfriend":0,"isfamily":0},{"id":"52135273131","owner":"190773540@N03","secret":"b91ec5254f","server":"65535","farm":66,"title":"Golden-winged Warbler (male) Michigan","ispublic":1,"isfriend":0,"isfamily":0},{"id":"52134202390","owner":"65788177@N02","secret":"cfa408e612","server":"65535","farm":66,"title":"Golden-winged Warbler","ispublic":1,"isfriend":0,"isfamily":0},{"id":"52125965216","owner":"120449047@N06","secret":"86b4f947d2","server":"65535","farm":66,"title":"Golden-winged Warbler","ispublic":1,"isfriend":0,"isfamily":0},{"id":"52114147780","owner":"21154755@N03","secret":"5589a6c620","server":"65535","farm":66,"title":"_DSC1559-4KDCI","ispublic":1,"isfriend":0,"isfamily":0},{"id":"52113886529","owner":"21154755@N03","secret":"991d5d1084","server":"65535","farm":66,"title":"_DSC2033-4KDCI","ispublic":1,"isfriend":0,"isfamily":0},{"id":"52113640661","owner":"21154755@N03","secret":"fc0c59f040","server":"65535","farm":66,"title":"_DSC0120-4KDCI","ispublic":1,"isfriend":0,"isfamily":0},{"id":"52114147310","owner":"21154755@N03","secret":"d9cb6fe0ac","server":"65535","farm":66,"title":"_DSC1771-4KDCI","ispublic":1,"isfriend":0,"isfamily":0},{"id":"52113886024","owner":"21154755@N03","secret":"1374360023","server":"65535","farm":66,"title":"_DSC0796-4KDCI","ispublic":1,"isfriend":0,"isfamily":0},{"id":"52114146770","owner":"21154755@N03","secret":"ff7a02e9a3","server":"65535","farm":66,"title":"_DSC1644-4KDCI","ispublic":1,"isfriend":0,"isfamily":0},{"id":"52113624091","owner":"21154755@N03","secret":"3a1e69d42b","server":"65535","farm":66,"title":"_DSC8997-4K-4KDCI","ispublic":1,"isfriend":0,"isfamily":0},{"id":"52113659188","owner":"21154755@N03","secret":"92ea806ddf","server":"65535","farm":66,"title":"_DSC8920-4KDCI","ispublic":1,"isfriend":0,"isfamily":0},{"id":"52113623791","owner":"21154755@N03","secret":"11326461e9","server":"65535","farm":66,"title":"_DSC9404-4KDCI","ispublic":1,"isfriend":0,"isfamily":0},{"id":"52113869264","owner":"21154755@N03","secret":"b01e49893d","server":"65535","farm":66,"title":"_DSC9358-4KDCI","ispublic":1,"isfriend":0,"isfamily":0},{"id":"52113869159","owner":"21154755@N03","secret":"8572aac7b8","server":"65535","farm":66,"title":"_DSC9860-4KDCI","ispublic":1,"isfriend":0,"isfamily":0},{"id":"52114129440","owner":"21154755@N03","secret":"39a3a979d5","server":"65535","farm":66,"title":"_DSC9010-4KDCI","ispublic":1,"isfriend":0,"isfamily":0},{"id":"52112596762","owner":"21154755@N03","secret":"71b5880498","server":"65535","farm":66,"title":"_DSC9430-DeNoiseAI-raw-4K-4KDCI","ispublic":1,"isfriend":0,"isfamily":0},{"id":"52112335950","owner":"120449047@N06","secret":"700005c6f0","server":"65535","farm":66,"title":"Golden-winged Warbler (F) (24\/35)","ispublic":1,"isfriend":0,"isfamily":0},{"id":"52110749978","owner":"73654511@N05","secret":"a78419bb31","server":"65535","farm":66,"title":"L0A5386-Golden-winged Warbler","ispublic":1,"isfriend":0,"isfamily":0},{"id":"52108653076","owner":"135315828@N06","secret":"6887fae5b6","server":"65535","farm":66,"title":"golden-winged warbler","ispublic":1,"isfriend":0,"isfamily":0},{"id":"52109164150","owner":"135315828@N06","secret":"190fbd2e54","server":"65535","farm":66,"title":"golden-winged warbler","ispublic":1,"isfriend":0,"isfamily":0},{"id":"52108686253","owner":"135315828@N06","secret":"8dd5c9ebf6","server":"65535","farm":66,"title":"golden-winged warbler","ispublic":1,"isfriend":0,"isfamily":0},{"id":"52108686083","owner":"135315828@N06","secret":"9f3c5a8f41","server":"65535","farm":66,"title":"golden-winged warbler","ispublic":1,"isfriend":0,"isfamily":0},{"id":"52100205812","owner":"76288515@N07","secret":"fa55d441f7","server":"65535","farm":66,"title":"Golden-winged Warbler Vermivora chrysoptera","ispublic":1,"isfriend":0,"isfamily":0},{"id":"52100205682","owner":"76288515@N07","secret":"df76863611","server":"65535","farm":66,"title":"Golden-winged Warbler Vermivora chrysoptera","ispublic":1,"isfriend":0,"isfamily":0},{"id":"52100232010","owner":"73654511@N05","secret":"c0f2ac074c","server":"65535","farm":66,"title":"L0A4668-Golden-winged Warbler","ispublic":1,"isfriend":0,"isfamily":0},{"id":"52083924185","owner":"85277889@N08","secret":"5b94a44b92","server":"65535","farm":66,"title":"Golden-winged Warbler (Vermivora chrysoptera) 2022-05-16 (1)","ispublic":1,"isfriend":0,"isfamily":0},{"id":"52083428036","owner":"85277889@N08","secret":"0fdf8982a8","server":"65535","farm":66,"title":"Golden-winged Warbler (Vermivora chrysoptera) 2022-05-16 (6)","ispublic":1,"isfriend":0,"isfamily":0},{"id":"52082394627","owner":"85277889@N08","secret":"48224162dc","server":"65535","farm":66,"title":"Golden-winged Warbler (Vermivora chrysoptera) 2022-05-16 (11)","ispublic":1,"isfriend":0,"isfamily":0},{"id":"52080762811","owner":"129803374@N05","secret":"572c7ce749","server":"65535","farm":66,"title":"\"Lawrence's\" Warbler (hybrid Vermivora chrysoptera and V. cyanoptera)","ispublic":1,"isfriend":0,"isfamily":0},{"id":"52075430123","owner":"70839498@N04","secret":"8d0cc827bf","server":"65535","farm":66,"title":"Vermivora chrysoptera x cyanoptera Lawrence's Warbler (hybrid) NY MAY 220514 5W1A5601","ispublic":1,"isfriend":0,"isfamily":0},{"id":"52074383077","owner":"70839498@N04","secret":"1893ee0d1d","server":"65535","farm":66,"title":"Vermivora chrysoptera x cyanoptera Lawrence's Warbler (hybrid) NY MAY 220514 5W1A5595","ispublic":1,"isfriend":0,"isfamily":0},{"id":"52075911640","owner":"70839498@N04","secret":"c1a333d907","server":"65535","farm":66,"title":"Vermivora chrysoptera x cyanoptera Lawrence's Warbler (hybrid) NY MAY 220514 5W1A5609","ispublic":1,"isfriend":0,"isfamily":0},{"id":"52075656379","owner":"70839498@N04","secret":"3644966b1c","server":"65535","farm":66,"title":"Vermivora chrysoptera x cyanoptera Lawrence's Warbler (hybrid) NY MAY 220514 5W1A5606","ispublic":1,"isfriend":0,"isfamily":0},{"id":"52069342007","owner":"11020019@N04","secret":"a704e3532e","server":"65535","farm":66,"title":"Golden-winged warbler at Veterans Park in Richfield, Minnesota","ispublic":1,"isfriend":0,"isfamily":0},{"id":"52070618514","owner":"11020019@N04","secret":"206d5ebf8e","server":"65535","farm":66,"title":"Golden-winged warbler at Veterans Park in Richfield, Minnesota","ispublic":1,"isfriend":0,"isfamily":0},{"id":"52070834850","owner":"11020019@N04","secret":"96dee2121b","server":"65535","farm":66,"title":"Golden-winged warbler at Veterans Park in Richfield, Minnesota","ispublic":1,"isfriend":0,"isfamily":0},{"id":"52069312232","owner":"11020019@N04","secret":"cde4425e7e","server":"65535","farm":66,"title":"Golden-winged warbler at Veterans Park in Richfield, Minnesota","ispublic":1,"isfriend":0,"isfamily":0},{"id":"51822692452","owner":"41515458@N04","secret":"e2a8f7ff82","server":"65535","farm":66,"title":"Golden-winged Warbler - Vermivora chrysoptera","ispublic":1,"isfriend":0,"isfamily":0},{"id":"51823980334","owner":"41515458@N04","secret":"bbf2ae1a4d","server":"65535","farm":66,"title":"Golden-winged Warbler - Vermivora chrysoptera","ispublic":1,"isfriend":0,"isfamily":0},{"id":"51823640636","owner":"41515458@N04","secret":"f55e6d7723","server":"65535","farm":66,"title":"Golden-winged Warbler - Vermivora chrysoptera","ispublic":1,"isfriend":0,"isfamily":0},{"id":"51821678163","owner":"41515458@N04","secret":"e7c96b784e","server":"65535","farm":66,"title":"Golden-winged Warbler - Vermivora chrysoptera","ispublic":1,"isfriend":0,"isfamily":0},{"id":"51820617007","owner":"41515458@N04","secret":"0e5d194050","server":"65535","farm":66,"title":"Golden-winged Warbler - Vermivora chrysoptera","ispublic":1,"isfriend":0,"isfamily":0},{"id":"51730424198","owner":"194467431@N06","secret":"6475cf736a","server":"65535","farm":66,"title":"Golden-winged Warbler","ispublic":1,"isfriend":0,"isfamily":0},{"id":"51582628796","owner":"150163656@N06","secret":"2e9f68af33","server":"65535","farm":66,"title":"Golden-winged warbler","ispublic":1,"isfriend":0,"isfamily":0},{"id":"51578669986","owner":"40928097@N07","secret":"aa97bc65b9","server":"65535","farm":66,"title":"Golden-winged Warbler","ispublic":1,"isfriend":0,"isfamily":0},{"id":"51561013967","owner":"12238915@N06","secret":"961cff984f","server":"65535","farm":66,"title":"Golden-winged Warbler 1","ispublic":1,"isfriend":0,"isfamily":0},{"id":"51562727930","owner":"12238915@N06","secret":"3044d3fcb0","server":"65535","farm":66,"title":"Golden-winged Warbler 2","ispublic":1,"isfriend":0,"isfamily":0},{"id":"51561801156","owner":"12238915@N06","secret":"4c6a896ba6","server":"65535","farm":66,"title":"Golden-winged Warbler 3","ispublic":1,"isfriend":0,"isfamily":0},{"id":"51557062657","owner":"28867468@N08","secret":"b09b287b45","server":"65535","farm":66,"title":"Golden-winged Warbler, Vermivora chrysoptera","ispublic":1,"isfriend":0,"isfamily":0},{"id":"51557851336","owner":"28867468@N08","secret":"3846d578d2","server":"65535","farm":66,"title":"Golden-winged Warbler, Vermivora chrysoptera","ispublic":1,"isfriend":0,"isfamily":0},{"id":"52481805265","owner":"76288515@N07","secret":"463648baf2","server":"65535","farm":66,"title":"Golden-winged Warbler  Vermivora chrysoptera","ispublic":1,"isfriend":0,"isfamily":0},{"id":"52481346546","owner":"76288515@N07","secret":"8bc63ab345","server":"65535","farm":66,"title":"Golden-winged Warbler  Vermivora chrysoptera","ispublic":1,"isfriend":0,"isfamily":0},{"id":"52481346436","owner":"76288515@N07","secret":"f9a5439137","server":"65535","farm":66,"title":"Golden-winged Warbler  Vermivora chrysoptera","ispublic":1,"isfriend":0,"isfamily":0},{"id":"52480844827","owner":"76288515@N07","secret":"d7e1c18230","server":"65535","farm":66,"title":"Golden-winged Warbler  Vermivora chrysoptera","ispublic":1,"isfriend":0,"isfamily":0},{"id":"52481615149","owner":"76288515@N07","secret":"fa13741861","server":"65535","farm":66,"title":"Golden-winged Warbler  Vermivora chrysoptera","ispublic":1,"isfriend":0,"isfamily":0},{"id":"52442003418","owner":"195239167@N07","secret":"47e70d5288","server":"65535","farm":66,"title":"Golden-winged Warbler","ispublic":1,"isfriend":0,"isfamily":0},{"id":"52441752859","owner":"195239167@N07","secret":"92ce549ea0","server":"65535","farm":66,"title":"Golden-winged Warbler","ispublic":1,"isfriend":0,"isfamily":0},{"id":"52441483056","owner":"195239167@N07","secret":"332a888e10","server":"65535","farm":66,"title":"Golden-winged Warbler","ispublic":1,"isfriend":0,"isfamily":0},{"id":"52442002948","owner":"195239167@N07","secret":"246f76bd0f","server":"65535","farm":66,"title":"Golden-winged Warbler","ispublic":1,"isfriend":0,"isfamily":0},{"id":"52150443770","owner":"97599611@N04","secret":"8cf6e4d844","server":"65535","farm":66,"title":"0P7A1760   female Golden-winged Warbler, Canada","ispublic":1,"isfriend":0,"isfamily":0},{"id":"52108898864","owner":"135315828@N06","secret":"d5ce4bd595","server":"65535","farm":66,"title":"golden-winged warbler","ispublic":1,"isfriend":0,"isfamily":0},{"id":"52108686203","owner":"135315828@N06","secret":"b9021aa89f","server":"65535","farm":66,"title":"golden-winged warbler","ispublic":1,"isfriend":0,"isfamily":0},{"id":"52108898624","owner":"135315828@N06","secret":"e0a386b11c","server":"65535","farm":66,"title":"golden-winged warbler","ispublic":1,"isfriend":0,"isfamily":0},{"id":"52107630352","owner":"135315828@N06","secret":"9f168beff3","server":"65535","farm":66,"title":"golden-winged warbler","ispublic":1,"isfriend":0,"isfamily":0},{"id":"52100205837","owner":"76288515@N07","secret":"48987a7575","server":"65535","farm":66,"title":"Golden-winged Warbler Vermivora chrysoptera","ispublic":1,"isfriend":0,"isfamily":0},{"id":"52101233466","owner":"76288515@N07","secret":"4efd969a74","server":"65535","farm":66,"title":"Golden-winged Warbler Vermivora chrysoptera","ispublic":1,"isfriend":0,"isfamily":0},{"id":"52100205737","owner":"76288515@N07","secret":"de7300067a","server":"65535","farm":66,"title":"Golden-winged Warbler Vermivora chrysoptera","ispublic":1,"isfriend":0,"isfamily":0},{"id":"52100205642","owner":"76288515@N07","secret":"dc152efe48","server":"65535","farm":66,"title":"Golden-winged Warbler Vermivora chrysoptera","ispublic":1,"isfriend":0,"isfamily":0},{"id":"52101472369","owner":"76288515@N07","secret":"d7e89ec786","server":"65535","farm":66,"title":"Golden-winged Warbler Vermivora chrysoptera","ispublic":1,"isfriend":0,"isfamily":0},{"id":"52101472324","owner":"76288515@N07","secret":"592645be45","server":"65535","farm":66,"title":"Golden-winged Warbler Vermivora chrysoptera","ispublic":1,"isfriend":0,"isfamily":0},{"id":"52101263578","owner":"76288515@N07","secret":"607f89e89f","server":"65535","farm":66,"title":"Golden-winged Warbler Vermivora chrysoptera","ispublic":1,"isfriend":0,"isfamily":0},{"id":"52101233266","owner":"76288515@N07","secret":"cc0994aeda","server":"65535","farm":66,"title":"Golden-winged Warbler Vermivora chrysoptera","ispublic":1,"isfriend":0,"isfamily":0},{"id":"52099612913","owner":"104029177@N06","secret":"243f1f6cec","server":"65535","farm":66,"title":"Golden-winged Warbler","ispublic":1,"isfriend":0,"isfamily":0},{"id":"52070358491","owner":"11020019@N04","secret":"6cdb73d08d","server":"65535","farm":66,"title":"Golden-winged warbler at Veterans Park in Richfield, Minnesota","ispublic":1,"isfriend":0,"isfamily":0},{"id":"51816423047","owner":"28631427@N00","secret":"2ba261a038","server":"65535","farm":66,"title":"Golden-winged Warbler","ispublic":1,"isfriend":0,"isfamily":0},{"id":"51736865513","owner":"190773540@N03","secret":"1e3a607fcc","server":"65535","farm":66,"title":"Golden-winged Warbler (male)","ispublic":1,"isfriend":0,"isfamily":0},{"id":"51735250169","owner":"190773540@N03","secret":"de0ab21ce3","server":"65535","farm":66,"title":"Golden-winged Warbler (male)","ispublic":1,"isfriend":0,"isfamily":0},{"id":"51571360358","owner":"103722035@N06","secret":"db38cd061d","server":"0","farm":0,"title":"Golden-winged Warbler (Vermivora chrysoptera), San Luis Obispo, CA","ispublic":1,"isfriend":0,"isfamily":0},{"id":"51556392893","owner":"103722035@N06","secret":"77f2c31b43","server":"0","farm":0,"title":"Golden-winged Warbler (Vermivora chrysoptera), San Luis Obispo, CA","ispublic":1,"isfriend":0,"isfamily":0}]},"stat":"ok"}