{"photos":{"page":1,"pages":7,"perpage":100,"total":602,"photo":[{"id":"52769336218","owner":"187678271@N07","secret":"ac4c0fae52","server":"65535","farm":66,"title":"Grassland Yellow-Finch \/ Sicalis luteola","ispublic":1,"isfriend":0,"isfamily":0},{"id":"52651855725","owner":"37203410@N07","secret":"7a67583744","server":"65535","farm":66,"title":"Chirihue com\u00fan \/ Sicalis luteola","ispublic":1,"isfriend":0,"isfamily":0},{"id":"52641997059","owner":"21182099@N05","secret":"48329b277a","server":"65535","farm":66,"title":"Grassland Yellow Finch (Sicalis luteola)","ispublic":1,"isfriend":0,"isfamily":0},{"id":"52596022760","owner":"182381287@N07","secret":"040f9e6d8b","server":"65535","farm":66,"title":"Tipio (Sicalis luteola)","ispublic":1,"isfriend":0,"isfamily":0},{"id":"52594892923","owner":"185718539@N08","secret":"14f6f7dba7","server":"65535","farm":66,"title":"Tipio (Sicalis luteola)","ispublic":1,"isfriend":0,"isfamily":0},{"id":"52510837969","owner":"47835705@N04","secret":"8d74bdfbd6","server":"65535","farm":66,"title":"Chirihue - Misto Yellow-finch (Sicalis luteola luteiventris) Santo Domingo, Chile","ispublic":1,"isfriend":0,"isfamily":0},{"id":"52494895766","owner":"48938938@N04","secret":"f521d1fb1e","server":"65535","farm":66,"title":"Grassland Yellow-Finch_Sicalis luteola_Ascanio_Guyana_DZ3A4149","ispublic":1,"isfriend":0,"isfamily":0},{"id":"52429345497","owner":"187385167@N05","secret":"05c9a820e7","server":"65535","farm":66,"title":"Chirihue (Sicalis luteola)","ispublic":1,"isfriend":0,"isfamily":0},{"id":"52420047073","owner":"196361437@N06","secret":"39aba514fb","server":"65535","farm":66,"title":"Chirig\u00fce (Sicalis luteola)","ispublic":1,"isfriend":0,"isfamily":0},{"id":"52388181512","owner":"129553350@N02","secret":"0a39f7906d","server":"65535","farm":66,"title":"Misto","ispublic":1,"isfriend":0,"isfamily":0},{"id":"52329633952","owner":"72271115@N02","secret":"ed4fb295ae","server":"65535","farm":66,"title":"Grassland Yellow-finch --- Sicalis luteola","ispublic":1,"isfriend":0,"isfamily":0},{"id":"52287001697","owner":"129553350@N02","secret":"b4a3543c60","server":"65535","farm":66,"title":"Misto","ispublic":1,"isfriend":0,"isfamily":0},{"id":"52234893215","owner":"59631194@N06","secret":"146253b30a","server":"65535","farm":66,"title":"Grassland yellow-finch (Sicalis luteola) female.","ispublic":1,"isfriend":0,"isfamily":0},{"id":"52054655436","owner":"56686021@N04","secret":"765b2dbb78","server":"65535","farm":66,"title":"Grassland Yellow Finch","ispublic":1,"isfriend":0,"isfamily":0},{"id":"51917056761","owner":"87400531@N06","secret":"ec426064a4","server":"65535","farm":66,"title":"Sicalis luteola in Barichara-Santander","ispublic":1,"isfriend":0,"isfamily":0},{"id":"51896944539","owner":"101227797@N03","secret":"a0a528fa93","server":"65535","farm":66,"title":"Grassland Yellow-Finch","ispublic":1,"isfriend":0,"isfamily":0},{"id":"51894624910","owner":"21182099@N05","secret":"a8de53f69e","server":"65535","farm":66,"title":"Grassland Yellow Finch (Sicalis luteola)","ispublic":1,"isfriend":0,"isfamily":0},{"id":"51817187095","owner":"189440432@N05","secret":"800b2a49c2","server":"65535","farm":66,"title":"Tipio (Sicalis luteola)","ispublic":1,"isfriend":0,"isfamily":0},{"id":"51783922463","owner":"193617639@N07","secret":"e5764a649b","server":"65535","farm":66,"title":"Tipio (Sicalis luteola)","ispublic":1,"isfriend":0,"isfamily":0},{"id":"51784299694","owner":"193617639@N07","secret":"fd0713f988","server":"65535","farm":66,"title":"Tipio (Sicalis luteola)","ispublic":1,"isfriend":0,"isfamily":0},{"id":"51758171787","owner":"21061312@N07","secret":"f935590ba8","server":"65535","farm":66,"title":"Misto","ispublic":1,"isfriend":0,"isfamily":0},{"id":"51759003901","owner":"21061312@N07","secret":"3f091fc75b","server":"65535","farm":66,"title":"Misto","ispublic":1,"isfriend":0,"isfamily":0},{"id":"51415587196","owner":"119787485@N07","secret":"e7ca0ee524","server":"65535","farm":66,"title":"Grassland Yellow-Finch (Sicalis luteola) - 20181003-02","ispublic":1,"isfriend":0,"isfamily":0},{"id":"51411340265","owner":"164742237@N06","secret":"fc292fdd8c","server":"65535","farm":66,"title":"Chirihue com\u00fan (Sicalis luteola)","ispublic":1,"isfriend":0,"isfamily":0},{"id":"51388434030","owner":"155928864@N08","secret":"837eeeb61c","server":"65535","farm":66,"title":"Pinz\u00f3n Sabanero Com\u00fan, Sicalis luteola, Grassland Yellow-Finch. San Pablo, Otavalo, Ecuador.","ispublic":1,"isfriend":0,"isfamily":0},{"id":"51159314082","owner":"47835705@N04","secret":"87563af458","server":"65535","farm":66,"title":"Chirihue - Misto Yellow-finch (Sicalis luteola luteiventris) La Parva, Chile","ispublic":1,"isfriend":0,"isfamily":0},{"id":"51145938114","owner":"147450357@N08","secret":"84c3726988","server":"65535","farm":66,"title":"Sicale des savanes","ispublic":1,"isfriend":0,"isfamily":0},{"id":"51145937249","owner":"147450357@N08","secret":"31975dae1d","server":"65535","farm":66,"title":"Sicale des savanes","ispublic":1,"isfriend":0,"isfamily":0},{"id":"51129097272","owner":"54249623@N08","secret":"4b51444496","server":"65535","farm":66,"title":"Sicalis Sabanero, Grassland Yellow-finch (Sicalis luteola) (Sicalis luteola luteola)","ispublic":1,"isfriend":0,"isfamily":0},{"id":"51021288567","owner":"71711735@N03","secret":"0eb9d55e41","server":"65535","farm":66,"title":"Chirihue (Sicalis luteola)","ispublic":1,"isfriend":0,"isfamily":0},{"id":"50973724648","owner":"191213614@N06","secret":"0b8cc9cdec","server":"65535","farm":66,"title":"Misto. Sicalis Luteola","ispublic":1,"isfriend":0,"isfamily":0},{"id":"50919162056","owner":"128255891@N02","secret":"6ac6fcddab","server":"65535","farm":66,"title":"Chirihue,Sicalis luteola","ispublic":1,"isfriend":0,"isfamily":0},{"id":"50850192796","owner":"21182099@N05","secret":"aa1826cb72","server":"65535","farm":66,"title":"Grassland Yellow Finch (Sicalis luteola)","ispublic":1,"isfriend":0,"isfamily":0},{"id":"50807568112","owner":"27950735@N08","secret":"3a33332931","server":"65535","farm":66,"title":"Grassland Yellow Finch - Sicalis luteola","ispublic":1,"isfriend":0,"isfamily":0},{"id":"50779797703","owner":"35069660@N00","secret":"0a18e96a89","server":"65535","farm":66,"title":"Tipio-Maranh\u00e3o-20-12-30-9.jpg","ispublic":1,"isfriend":0,"isfamily":0},{"id":"50780220276","owner":"184921031@N02","secret":"6ebedac3ee","server":"65535","farm":66,"title":"Sicalis luteola. Chirihue.","ispublic":1,"isfriend":0,"isfamily":0},{"id":"50695351248","owner":"190734746@N07","secret":"268733468a","server":"65535","farm":66,"title":"Misto (hembra) (Sicalis luteola)","ispublic":1,"isfriend":0,"isfamily":0},{"id":"50619900663","owner":"24309230@N03","secret":"fb8a846afa","server":"65535","farm":66,"title":"Grassland Yellow-finch (m)","ispublic":1,"isfriend":0,"isfamily":0},{"id":"50620644696","owner":"24309230@N03","secret":"acc0baf676","server":"65535","farm":66,"title":"Grassland Yellow-finch (f)","ispublic":1,"isfriend":0,"isfamily":0},{"id":"50273210136","owner":"125593628@N08","secret":"be8da39100","server":"65535","farm":66,"title":"Chirihue (Grassland Yellow-Finch) - Sicalis luteola","ispublic":1,"isfriend":0,"isfamily":0},{"id":"50135044836","owner":"189391529@N02","secret":"eb34c88347","server":"65535","farm":66,"title":"Misto - Sicalis luteola","ispublic":1,"isfriend":0,"isfamily":0},{"id":"49717985098","owner":"187678271@N07","secret":"91d1e8335e","server":"65535","farm":66,"title":"Grassland Yellow-Finch \/ Sicalis luteola","ispublic":1,"isfriend":0,"isfamily":0},{"id":"49554440801","owner":"186193378@N07","secret":"66ed8574d1","server":"65535","farm":66,"title":"Tipio (macho) (Sicalis luteola) Grassland Yellow-Finch","ispublic":1,"isfriend":0,"isfamily":0},{"id":"49424679892","owner":"79410107@N08","secret":"5feabcee76","server":"65535","farm":66,"title":"Sicalis luteola - Grassland Yellow-Finch - Chirig\u00fce Sabanero - Canario Sabanero 04","ispublic":1,"isfriend":0,"isfamily":0},{"id":"49419760987","owner":"87325282@N00","secret":"f99577c033","server":"65535","farm":66,"title":"Sicalis luteola","ispublic":1,"isfriend":0,"isfamily":0},{"id":"49387201196","owner":"186193378@N07","secret":"79709a0d45","server":"65535","farm":66,"title":"Tipio (f\u00eamea) (Sicalis luteola) Grassland Yellow-Finch","ispublic":1,"isfriend":0,"isfamily":0},{"id":"49242548282","owner":"65418324@N06","secret":"54752e55d4","server":"65535","farm":66,"title":"Misto","ispublic":1,"isfriend":0,"isfamily":0},{"id":"49235201587","owner":"99208129@N08","secret":"196e283c68","server":"65535","farm":66,"title":"Sicalis luteola \/ Grassland Yellow-Finch","ispublic":1,"isfriend":0,"isfamily":0},{"id":"49222754783","owner":"132463600@N02","secret":"f010c27670","server":"65535","farm":66,"title":"Grassland Yellow-Finch - tipio (Sicalis luteola)","ispublic":1,"isfriend":0,"isfamily":0},{"id":"49219445253","owner":"184864317@N07","secret":"bc19cf971f","server":"65535","farm":66,"title":"Chirihue (Sicalis luteola)","ispublic":1,"isfriend":0,"isfamily":0},{"id":"49194345463","owner":"149428083@N05","secret":"4ee1c788ab","server":"65535","farm":66,"title":"Chirihue","ispublic":1,"isfriend":0,"isfamily":0},{"id":"49183354827","owner":"67614740@N07","secret":"b5daff18ab","server":"65535","farm":66,"title":"Grassland Yellow-Finch (Sicalis luteola)","ispublic":1,"isfriend":0,"isfamily":0},{"id":"49151111538","owner":"154657265@N08","secret":"f467d93ca5","server":"65535","farm":66,"title":"Grassland Yellow-finch (Sicalis luteola) - Rancagua area","ispublic":1,"isfriend":0,"isfamily":0},{"id":"49149547941","owner":"154657265@N08","secret":"e96d31afc5","server":"65535","farm":66,"title":"Grassland Yellow-finch (Sicalis luteola) - Maule River area, Chile","ispublic":1,"isfriend":0,"isfamily":0},{"id":"49124282961","owner":"38048846@N07","secret":"db52eb64e5","server":"65535","farm":66,"title":"Tipio - Sicalis luteola - Grassland Yellow-Finch.","ispublic":1,"isfriend":0,"isfamily":0},{"id":"49092159618","owner":"32674493@N04","secret":"ac6dfb8bc4","server":"65535","farm":66,"title":"Tipio (Sicalis luteola luteiventris) macho","ispublic":1,"isfriend":0,"isfamily":0},{"id":"48955333526","owner":"46788536@N05","secret":"83bdac58ec","server":"65535","farm":66,"title":"Sicalis luteola \/\/ Grassland Yellow-Finch","ispublic":1,"isfriend":0,"isfamily":0},{"id":"48955435737","owner":"92729777@N06","secret":"850608cd85","server":"65535","farm":66,"title":"Chirigues_Misto Yellow Finch_Sicalis luteola luteiventris \/ Laguna Batuco _ July 13th 2019","ispublic":1,"isfriend":0,"isfamily":0},{"id":"48898850151","owner":"161691204@N05","secret":"cbc45368a6","server":"0","farm":0,"title":"Grassland Yellow-finch (Sicalis luteola)","ispublic":1,"isfriend":0,"isfamily":0},{"id":"48898283703","owner":"161691204@N05","secret":"5f48c611c4","server":"65535","farm":66,"title":"Grassland Yellow-finch (Sicalis luteola)","ispublic":1,"isfriend":0,"isfamily":0},{"id":"48893661193","owner":"171321823@N02","secret":"712082c66f","server":"65535","farm":66,"title":"Chirihue","ispublic":1,"isfriend":0,"isfamily":0},{"id":"48882605037","owner":"184921031@N02","secret":"5e0aa87920","server":"65535","farm":66,"title":"Sicalis luteola luteiventris, Chirihue.","ispublic":1,"isfriend":0,"isfamily":0},{"id":"48821196423","owner":"46788536@N05","secret":"524f9027e3","server":"65535","farm":66,"title":"Sicalis luteola \/\/ Grassland Yellow-Finch","ispublic":1,"isfriend":0,"isfamily":0},{"id":"48821553506","owner":"46788536@N05","secret":"a2b1678c5d","server":"65535","farm":66,"title":"Sicalis luteola \/\/ Grassland Yellow-Finch","ispublic":1,"isfriend":0,"isfamily":0},{"id":"48821195193","owner":"46788536@N05","secret":"d321bee4d6","server":"65535","farm":66,"title":"Sicalis luteola \/\/ Grassland Yellow-Finch","ispublic":1,"isfriend":0,"isfamily":0},{"id":"48821191503","owner":"46788536@N05","secret":"1622a42987","server":"65535","farm":66,"title":"Sicalis luteola \/\/ Grassland Yellow-Finch","ispublic":1,"isfriend":0,"isfamily":0},{"id":"48821704197","owner":"46788536@N05","secret":"eaaf4b64e4","server":"65535","farm":66,"title":"Sicalis luteola \/\/ Grassland Yellow-Finch","ispublic":1,"isfriend":0,"isfamily":0},{"id":"48810470048","owner":"47835705@N04","secret":"2f12a9fbdd","server":"65535","farm":66,"title":"Misto Yellow-finch (Sicalis luteola luteiventris) Pillanlelb\u00fan, Chile","ispublic":1,"isfriend":0,"isfamily":0},{"id":"48303049007","owner":"18863646@N06","secret":"b6b04f5ecd","server":"65535","farm":66,"title":"Grassland Yellow-Finch | Sicalis luteola | Can\u00e1rio-tipiu","ispublic":1,"isfriend":0,"isfamily":0},{"id":"48150894731","owner":"33820263@N07","secret":"223d8bd6c8","server":"65535","farm":66,"title":"Grassland Yellow Finch","ispublic":1,"isfriend":0,"isfamily":0},{"id":"48027083533","owner":"142411113@N03","secret":"9f8b233100","server":"65535","farm":66,"title":"Misto - Sicalis luteola","ispublic":1,"isfriend":0,"isfamily":0},{"id":"48025847456","owner":"167323674@N05","secret":"5bbd393047","server":"65535","farm":66,"title":"Tipio -. Sicalis luteola  -Grassland Yellow-Finch","ispublic":1,"isfriend":0,"isfamily":0},{"id":"47032523864","owner":"61220767@N03","secret":"abb9b5280f","server":"65535","farm":66,"title":"grassland yellow finch pe","ispublic":1,"isfriend":0,"isfamily":0},{"id":"46959031981","owner":"26846320@N00","secret":"76a38ab297","server":"4873","farm":5,"title":"Sicalis luteola","ispublic":1,"isfriend":0,"isfamily":0},{"id":"46002664295","owner":"117640946@N06","secret":"5942393301","server":"4909","farm":5,"title":"Sicalis luteola","ispublic":1,"isfriend":0,"isfamily":0},{"id":"45779735235","owner":"149428083@N05","secret":"51d31709d9","server":"4819","farm":5,"title":"Chirihue","ispublic":1,"isfriend":0,"isfamily":0},{"id":"45455584274","owner":"155380495@N08","secret":"232eb00af9","server":"4915","farm":5,"title":"Grassland yellow finch - Tipio (Sicalis luteola)","ispublic":1,"isfriend":0,"isfamily":0},{"id":"45785319322","owner":"150719316@N03","secret":"3c7ee2d767","server":"4840","farm":5,"title":"Grassland Yellow-finch","ispublic":1,"isfriend":0,"isfamily":0},{"id":"45674391592","owner":"126774666@N05","secret":"06e117efcd","server":"4845","farm":5,"title":"Misto (Sicalis luteola)","ispublic":1,"isfriend":0,"isfamily":0},{"id":"45724951631","owner":"126774666@N05","secret":"83796744e4","server":"1961","farm":2,"title":"Misto (Sicalis luteola)","ispublic":1,"isfriend":0,"isfamily":0},{"id":"52435480249","owner":"126210667@N05","secret":"24b7537f19","server":"65535","farm":66,"title":"RDB04777","ispublic":1,"isfriend":0,"isfamily":0},{"id":"52115180302","owner":"195827479@N08","secret":"0c3fd6d489","server":"65535","farm":66,"title":"Chirihue","ispublic":1,"isfriend":0,"isfamily":0},{"id":"52116203171","owner":"195827479@N08","secret":"3021d14011","server":"65535","farm":66,"title":"Chirihue","ispublic":1,"isfriend":0,"isfamily":0},{"id":"52054688673","owner":"56686021@N04","secret":"160c304fda","server":"65535","farm":66,"title":"Grassland Yellow Finch","ispublic":1,"isfriend":0,"isfamily":0},{"id":"51919359057","owner":"195124911@N06","secret":"6c220ca33c","server":"65535","farm":66,"title":"misto","ispublic":1,"isfriend":0,"isfamily":0},{"id":"51813503605","owner":"96713629@N03","secret":"b28f41f795","server":"65535","farm":66,"title":"Gewone saffraangors - Saffron finch (Sicalis flaveola flaveola)-820_1423","ispublic":1,"isfriend":0,"isfamily":0},{"id":"51811816002","owner":"96713629@N03","secret":"98f28ec1e7","server":"65535","farm":66,"title":"Gewone saffraangors - Saffron finch (Sicalis flaveola flaveola)-820_1424","ispublic":1,"isfriend":0,"isfamily":0},{"id":"51812882188","owner":"96713629@N03","secret":"ac17828d3f","server":"65535","farm":66,"title":"Gewone saffraangors - Saffron finch (Sicalis flaveola flaveola)-820_1425","ispublic":1,"isfriend":0,"isfamily":0},{"id":"51812777306","owner":"96713629@N03","secret":"26debdc747","server":"65535","farm":66,"title":"Gewone saffraangors - Saffron finch (Sicalis flaveola flaveola)-820_1426","ispublic":1,"isfriend":0,"isfamily":0},{"id":"51131752101","owner":"192147251@N03","secret":"5889038ddb","server":"65535","farm":66,"title":"Sicalis luteola","ispublic":1,"isfriend":0,"isfamily":0},{"id":"50560583181","owner":"59226250@N04","secret":"218494f929","server":"65535","farm":66,"title":"Chirihue","ispublic":1,"isfriend":0,"isfamily":0},{"id":"49916468072","owner":"55968524@N04","secret":"2b0ae7924b","server":"65535","farm":66,"title":"C16V0831 - Grassland Yellow Finch (f) - Sicalis luteola.jpg","ispublic":1,"isfriend":0,"isfamily":0},{"id":"49269142771","owner":"185744391@N04","secret":"401a4a7b25","server":"65535","farm":66,"title":"IMG_9450","ispublic":1,"isfriend":0,"isfamily":0},{"id":"49234972376","owner":"99208129@N08","secret":"ac8ab66f5c","server":"65535","farm":66,"title":"Sicalis luteola \/ Grassland Yellow-Finch","ispublic":1,"isfriend":0,"isfamily":0},{"id":"49218555036","owner":"99208129@N08","secret":"3cc971237c","server":"65535","farm":66,"title":"Sicalis luteola \/ Grassland Yellow-Finch","ispublic":1,"isfriend":0,"isfamily":0},{"id":"39994620913","owner":"26846320@N00","secret":"5b07461e70","server":"4868","farm":5,"title":"Sicalis luteola","ispublic":1,"isfriend":0,"isfamily":0},{"id":"32009064338","owner":"156337537@N06","secret":"225df74202","server":"4819","farm":5,"title":"Chirihue","ispublic":1,"isfriend":0,"isfamily":0},{"id":"45876561151","owner":"150719316@N03","secret":"64fe75e2bc","server":"1925","farm":2,"title":"Grassland Yellow-Finch","ispublic":1,"isfriend":0,"isfamily":0},{"id":"44017955980","owner":"150719316@N03","secret":"3b22149a09","server":"4877","farm":5,"title":"Grassland Yellow-finch","ispublic":1,"isfriend":0,"isfamily":0},{"id":"31929185588","owner":"154912513@N02","secret":"3a26eee26c","server":"4839","farm":5,"title":"IMG_1386","ispublic":1,"isfriend":0,"isfamily":0}]},"stat":"ok"}