{"photos":{"page":1,"pages":49,"perpage":100,"total":4839,"photo":[{"id":"52722698980","owner":"10665268@N04","secret":"1895a153fd","server":"65535","farm":66,"title":"Gray Catbird, Washington Co., OR_7904(1)","ispublic":1,"isfriend":0,"isfamily":0},{"id":"52722698970","owner":"10665268@N04","secret":"e4a6185b6b","server":"65535","farm":66,"title":"Gray Catbird, Washington Co., OR_7919(1)","ispublic":1,"isfriend":0,"isfamily":0},{"id":"52722290491","owner":"10665268@N04","secret":"68e094912b","server":"65535","farm":66,"title":"Gray Catbird, Washington Co., OR_7928(1)","ispublic":1,"isfriend":0,"isfamily":0},{"id":"52721576816","owner":"12639178@N07","secret":"2fa4f7ea83","server":"65535","farm":66,"title":"Katzenspottdrossel","ispublic":1,"isfriend":0,"isfamily":0},{"id":"52705914119","owner":"65788177@N02","secret":"1da461bbc5","server":"65535","farm":66,"title":"Gray Catbird","ispublic":1,"isfriend":0,"isfamily":0},{"id":"52692956215","owner":"38514062@N03","secret":"88464d01ef","server":"65535","farm":66,"title":"Gray Catbird (Dumetella carolinensis)","ispublic":1,"isfriend":0,"isfamily":0},{"id":"52686800006","owner":"44034115@N08","secret":"d0b515c4c4","server":"65535","farm":66,"title":"Day of the Gray Catbird","ispublic":1,"isfriend":0,"isfamily":0},{"id":"52663821874","owner":"39177293@N03","secret":"d1afbbaa97","server":"65535","farm":66,"title":"Gray Catbird","ispublic":1,"isfriend":0,"isfamily":0},{"id":"52661318717","owner":"136180232@N08","secret":"a6d37c08eb","server":"65535","farm":66,"title":"Gray Catbird (Dumetella carolinensis) JTE_1401","ispublic":1,"isfriend":0,"isfamily":0},{"id":"52661819891","owner":"136180232@N08","secret":"98b9e91e0b","server":"65535","farm":66,"title":"Gray Catbird (Dumetella carolinensis) JTE_1370","ispublic":1,"isfriend":0,"isfamily":0},{"id":"52660435328","owner":"54249623@N08","secret":"9a6a4ebf64","server":"65535","farm":66,"title":"P\u00e1jaro Gato, Gray Catbird (Dumetella carolinensis)","ispublic":1,"isfriend":0,"isfamily":0},{"id":"52653337829","owner":"44034115@N08","secret":"85656acf67","server":"65535","farm":66,"title":"Attack of the Gray Catbird","ispublic":1,"isfriend":0,"isfamily":0},{"id":"52649637643","owner":"97599611@N04","secret":"130b37e902","server":"65535","farm":66,"title":"0P7A1331   Gray Catbird, Canada","ispublic":1,"isfriend":0,"isfamily":0},{"id":"52649401445","owner":"44034115@N08","secret":"69c3d8e373","server":"65535","farm":66,"title":"Ready, Set, Berry","ispublic":1,"isfriend":0,"isfamily":0},{"id":"52648432053","owner":"30679992@N06","secret":"9dc96b66fb","server":"65535","farm":66,"title":"Gray Catbird","ispublic":1,"isfriend":0,"isfamily":0},{"id":"52626460073","owner":"69812270@N00","secret":"d1843fe3b9","server":"65535","farm":66,"title":"Gray Catbird, at Lighthouse Field, Santa Cruz, CA","ispublic":1,"isfriend":0,"isfamily":0},{"id":"52619589274","owner":"38514062@N03","secret":"7095cec7e9","server":"65535","farm":66,"title":"Gray Catbird (Dumetella carolinensis)","ispublic":1,"isfriend":0,"isfamily":0},{"id":"52598660171","owner":"85494612@N03","secret":"1ccae89f3a","server":"65535","farm":66,"title":"Grey Catbird - DSC_3072a","ispublic":1,"isfriend":0,"isfamily":0},{"id":"52592973179","owner":"30979614@N07","secret":"451a5267af","server":"65535","farm":66,"title":"2022-05-10 Montrose Point 4","ispublic":1,"isfriend":0,"isfamily":0},{"id":"52587996524","owner":"161596692@N07","secret":"e79792573a","server":"65535","farm":66,"title":"Gray Catbird (Dumetella carolinensis)","ispublic":1,"isfriend":0,"isfamily":0},{"id":"52579958722","owner":"153973412@N04","secret":"ed60129041","server":"65535","farm":66,"title":"Gray Catbird-Dumetella carolinensis, Iowa City, IA","ispublic":1,"isfriend":0,"isfamily":0},{"id":"52560199613","owner":"196840457@N07","secret":"fdb7505e8a","server":"65535","farm":66,"title":"Catbird, Gray","ispublic":1,"isfriend":0,"isfamily":0},{"id":"52555094348","owner":"76288515@N07","secret":"f61151f7b2","server":"65535","farm":66,"title":"Gray Catbird Dumetella carolinensis","ispublic":1,"isfriend":0,"isfamily":0},{"id":"52555094303","owner":"76288515@N07","secret":"61a8023e2f","server":"65535","farm":66,"title":"Gray Catbird Dumetella carolinensis","ispublic":1,"isfriend":0,"isfamily":0},{"id":"52554098407","owner":"76288515@N07","secret":"9b1f450194","server":"65535","farm":66,"title":"Gray Catbird Dumetella carolinensis","ispublic":1,"isfriend":0,"isfamily":0},{"id":"52555094278","owner":"76288515@N07","secret":"ff8f63b15b","server":"65535","farm":66,"title":"Gray Catbird Dumetella carolinensis","ispublic":1,"isfriend":0,"isfamily":0},{"id":"52554098332","owner":"76288515@N07","secret":"f106a73034","server":"65535","farm":66,"title":"Gray Catbird Dumetella carolinensis","ispublic":1,"isfriend":0,"isfamily":0},{"id":"52554098272","owner":"76288515@N07","secret":"2eb9f89dfe","server":"65535","farm":66,"title":"Gray Catbird Dumetella carolinensis","ispublic":1,"isfriend":0,"isfamily":0},{"id":"52555028620","owner":"76288515@N07","secret":"c203f27c63","server":"65535","farm":66,"title":"Gray Catbird Dumetella carolinensis","ispublic":1,"isfriend":0,"isfamily":0},{"id":"52554558106","owner":"76288515@N07","secret":"7f3f4a3df1","server":"65535","farm":66,"title":"Gray Catbird Dumetella carolinensis","ispublic":1,"isfriend":0,"isfamily":0},{"id":"52554849644","owner":"76288515@N07","secret":"483eac1da5","server":"65535","farm":66,"title":"Gray Catbird Dumetella carolinensis","ispublic":1,"isfriend":0,"isfamily":0},{"id":"52541345344","owner":"33610210@N05","secret":"c350f9feee","server":"65535","farm":66,"title":"Gray Catbird, Dumetella carolinensis","ispublic":1,"isfriend":0,"isfamily":0},{"id":"52539416073","owner":"67306066@N03","secret":"42eae51681","server":"65535","farm":66,"title":"Gray Catbird (Dumetella carolinensis)","ispublic":1,"isfriend":0,"isfamily":0},{"id":"52537367132","owner":"126271444@N08","secret":"fa5b8e7d14","server":"65535","farm":66,"title":"Grey Catbird (Dumetella carolinensis)","ispublic":1,"isfriend":0,"isfamily":0},{"id":"52538306625","owner":"126271444@N08","secret":"2828e6b2ce","server":"65535","farm":66,"title":"Grey Catbird (Dumetella carolinensis)","ispublic":1,"isfriend":0,"isfamily":0},{"id":"52534331833","owner":"196558678@N02","secret":"4255dc2045","server":"65535","farm":66,"title":"Gray Catbird (Dumetella carolinensis)","ispublic":1,"isfriend":0,"isfamily":0},{"id":"52515742055","owner":"39177293@N03","secret":"f6d070532f","server":"65535","farm":66,"title":"Gray Catbird","ispublic":1,"isfriend":0,"isfamily":0},{"id":"52512687225","owner":"48985578@N03","secret":"ce824488a7","server":"65535","farm":66,"title":"Having a Snack","ispublic":1,"isfriend":0,"isfamily":0},{"id":"52500864790","owner":"57126723@N07","secret":"9231778d69","server":"65535","farm":66,"title":"Gray catbird\u2014Dumetella carolinensis\u2014Mimidae\u2014York River State Park Williamsburg Virginia-5443","ispublic":1,"isfriend":0,"isfamily":0},{"id":"52494976003","owner":"39177293@N03","secret":"37f271aba8","server":"65535","farm":66,"title":"Gray Catbird","ispublic":1,"isfriend":0,"isfamily":0},{"id":"52493005632","owner":"71418112@N00","secret":"e950babfab","server":"65535","farm":66,"title":"Grey catbird.","ispublic":1,"isfriend":0,"isfamily":0},{"id":"52467148890","owner":"8666250@N02","secret":"568496e320","server":"65535","farm":66,"title":"Surprise Catbird!","ispublic":1,"isfriend":0,"isfamily":0},{"id":"52461540096","owner":"99208129@N08","secret":"ff9a51894c","server":"65535","farm":66,"title":"Dumetella carolinensis \/ Gray Catbird","ispublic":1,"isfriend":0,"isfamily":0},{"id":"52461933310","owner":"91620959@N08","secret":"bcd684af3b","server":"65535","farm":66,"title":"Gray catbird (Dumetella carolinensis)","ispublic":1,"isfriend":0,"isfamily":0},{"id":"52450084214","owner":"54549270@N03","secret":"ce10dc8959","server":"65535","farm":66,"title":"Gray Catbird","ispublic":1,"isfriend":0,"isfamily":0},{"id":"52445966132","owner":"10336659@N04","secret":"1f1b1233c4","server":"65535","farm":66,"title":"I bet you all thought I was a boring gray bird! Gray Catbird (Dumetella carolinensis) at Green Cay Nature Preserve.","ispublic":1,"isfriend":0,"isfamily":0},{"id":"52444307901","owner":"13451078@N03","secret":"5789286e49","server":"65535","farm":66,"title":"Gray Catbird (Dumetella carolinensis)","ispublic":1,"isfriend":0,"isfamily":0},{"id":"52432675637","owner":"37566919@N02","secret":"bfcf1c65ba","server":"65535","farm":66,"title":"Gray Catbird","ispublic":1,"isfriend":0,"isfamily":0},{"id":"52430356625","owner":"9360144@N07","secret":"e43eb872ee","server":"65535","farm":66,"title":"Gray Catbird in mountain ash tree","ispublic":1,"isfriend":0,"isfamily":0},{"id":"52425198530","owner":"84175980@N00","secret":"066eda7659","server":"65535","farm":66,"title":"20220716 Dumetella carolinensis (Gray Catbird) (3)","ispublic":1,"isfriend":0,"isfamily":0},{"id":"52420096976","owner":"36013467@N07","secret":"e907c7db87","server":"65535","farm":66,"title":"Gray Catbird (Dumetella carolinensis)","ispublic":1,"isfriend":0,"isfamily":0},{"id":"52419277636","owner":"18378985@N08","secret":"f72e90f86d","server":"65535","farm":66,"title":"Gray Catbird","ispublic":1,"isfriend":0,"isfamily":0},{"id":"52402212207","owner":"188156748@N07","secret":"1a68af8615","server":"65535","farm":66,"title":"Gray Catbird - Moqueur Chat 8939 (6)-SharpenAI-Standard copy.jpgS","ispublic":1,"isfriend":0,"isfamily":0},{"id":"52403155675","owner":"188156748@N07","secret":"916b6b61c4","server":"65535","farm":66,"title":"Gray Catbird - Moqueur Chat 8939 (10)-SharpenAI-Standard copy.jpgS","ispublic":1,"isfriend":0,"isfamily":0},{"id":"52402212167","owner":"188156748@N07","secret":"0138cb9065","server":"65535","farm":66,"title":"Gray Catbird - Moqueur Chat 8939 (15)-SharpenAI-Standard copy.jpgS","ispublic":1,"isfriend":0,"isfamily":0},{"id":"52403225078","owner":"188156748@N07","secret":"d7966ec1c5","server":"65535","farm":66,"title":"Gray Catbird - Moqueur Chat 8939 (1)-SharpenAI-Standard copy.jpgS","ispublic":1,"isfriend":0,"isfamily":0},{"id":"52389743453","owner":"85277889@N08","secret":"78a18c6092","server":"65535","farm":66,"title":"Gray Catbird (Dumetella carolinensis) 2022-09-27 (1)","ispublic":1,"isfriend":0,"isfamily":0},{"id":"52383489407","owner":"128537732@N06","secret":"e52e768ef4","server":"65535","farm":66,"title":"Gray Catbird (Dumetella carolinensis)","ispublic":1,"isfriend":0,"isfamily":0},{"id":"52382287320","owner":"135315828@N06","secret":"ed3df38c5c","server":"65535","farm":66,"title":"gray catbird","ispublic":1,"isfriend":0,"isfamily":0},{"id":"52378391737","owner":"188156748@N07","secret":"dc3fa0fac3","server":"65535","farm":66,"title":"Gray Catbird \u2013 Moqueur Chat 7190 (5)-SharpenAI-Standard copy.jpgS","ispublic":1,"isfriend":0,"isfamily":0},{"id":"52379647224","owner":"188156748@N07","secret":"a049eaab42","server":"65535","farm":66,"title":"Gray Catbird \u2013 Moqueur Chat 7190 (6)-SharpenAI-Standard copy.jpgS","ispublic":1,"isfriend":0,"isfamily":0},{"id":"52379332616","owner":"188156748@N07","secret":"bc58308ddc","server":"65535","farm":66,"title":"Gray Catbird \u2013 Moqueur Chat 7190 (7)-SharpenAI-Standard copy.jpgS","ispublic":1,"isfriend":0,"isfamily":0},{"id":"52374201522","owner":"196264892@N08","secret":"18efbfa577","server":"65535","farm":66,"title":"Two Gray Catbirds","ispublic":1,"isfriend":0,"isfamily":0},{"id":"52375149016","owner":"196264892@N08","secret":"10d57cf25e","server":"65535","farm":66,"title":"Gray Catbird","ispublic":1,"isfriend":0,"isfamily":0},{"id":"52341364856","owner":"49114357@N08","secret":"0287103fb2","server":"65535","farm":66,"title":"Gray Catbird","ispublic":1,"isfriend":0,"isfamily":0},{"id":"52368999179","owner":"169771858@N03","secret":"77396223cb","server":"65535","farm":66,"title":"Gray Catbird #2 - 2022-05-12","ispublic":1,"isfriend":0,"isfamily":0},{"id":"52365636134","owner":"188156748@N07","secret":"c065e871c4","server":"65535","farm":66,"title":"Gray Catbird - Moqueur Chat (Dumetella carolinensis) 6244 (3)-SharpenAI-Standard copy.jpgS","ispublic":1,"isfriend":0,"isfamily":0},{"id":"52364385377","owner":"188156748@N07","secret":"d7da924b1a","server":"65535","farm":66,"title":"Gray Catbird - Moqueur Chat (Dumetella carolinensis) 6244 (5)-SharpenAI-Standard copy.jpgS","ispublic":1,"isfriend":0,"isfamily":0},{"id":"52355190264","owner":"188156748@N07","secret":"8a28b89d73","server":"65535","farm":66,"title":"Gray Catbird \u2013 Moqueur Chat  5952 (2) copy.jpgS","ispublic":1,"isfriend":0,"isfamily":0},{"id":"52354871486","owner":"188156748@N07","secret":"c319f958d1","server":"65535","farm":66,"title":"Gray Catbird \u2013 Moqueur Chat  5952 (1) copy.jpgS","ispublic":1,"isfriend":0,"isfamily":0},{"id":"52355110953","owner":"188156748@N07","secret":"09b029eff9","server":"65535","farm":66,"title":"Gray Catbird \u2013 Moqueur Chat  5952 (3) copy.jpgS","ispublic":1,"isfriend":0,"isfamily":0},{"id":"52340031518","owner":"49114357@N08","secret":"c7894ba53c","server":"65535","farm":66,"title":"Gray Catbird","ispublic":1,"isfriend":0,"isfamily":0},{"id":"52338485994","owner":"169771858@N03","secret":"494e03b0be","server":"65535","farm":66,"title":"Gray Catbird #1 - 2022-05-10","ispublic":1,"isfriend":0,"isfamily":0},{"id":"52331200710","owner":"169771858@N03","secret":"58a4bcf123","server":"65535","farm":66,"title":"Gray Catbird #3 - 2022-05-10","ispublic":1,"isfriend":0,"isfamily":0},{"id":"52321937618","owner":"169771858@N03","secret":"99c85c0353","server":"65535","farm":66,"title":"Gray Catbird #2 - 2022-05-10","ispublic":1,"isfriend":0,"isfamily":0},{"id":"52314695422","owner":"135315828@N06","secret":"de69dd8eb2","server":"65535","farm":66,"title":"gray catbird","ispublic":1,"isfriend":0,"isfamily":0},{"id":"52313420851","owner":"124995824@N08","secret":"9d196a1464","server":"65535","farm":66,"title":"Gray Catbird - Dumetella carolinensis","ispublic":1,"isfriend":0,"isfamily":0},{"id":"52308065417","owner":"145466593@N08","secret":"dc973664b1","server":"65535","farm":66,"title":"Catbird   (juvenile)","ispublic":1,"isfriend":0,"isfamily":0},{"id":"52308433000","owner":"124995824@N08","secret":"7b75ec655f","server":"65535","farm":66,"title":"Gray Catbird - Dumetella carolinensis","ispublic":1,"isfriend":0,"isfamily":0},{"id":"52297905682","owner":"71989271@N06","secret":"f122671a01","server":"65535","farm":66,"title":"Gray Catbird (Dumetella carolinensis)","ispublic":1,"isfriend":0,"isfamily":0},{"id":"52299156659","owner":"71989271@N06","secret":"bddd6f53a3","server":"65535","farm":66,"title":"Gray Catbird (Dumetella carolinensis)","ispublic":1,"isfriend":0,"isfamily":0},{"id":"52294860220","owner":"8666250@N02","secret":"fcf246b63c","server":"65535","farm":66,"title":"Crazy Cat","ispublic":1,"isfriend":0,"isfamily":0},{"id":"52293256313","owner":"97599611@N04","secret":"e1042d7023","server":"65535","farm":66,"title":"0P7A1348   Gray Catbird, Canada","ispublic":1,"isfriend":0,"isfamily":0},{"id":"52288496433","owner":"8666250@N02","secret":"ec1056c24f","server":"65535","farm":66,"title":"Gray Catbird Set 2 220706 -12","ispublic":1,"isfriend":0,"isfamily":0},{"id":"52288496358","owner":"8666250@N02","secret":"fa76cc1768","server":"65535","farm":66,"title":"Gray Catbird Set 2 220706 -02","ispublic":1,"isfriend":0,"isfamily":0},{"id":"52288496293","owner":"8666250@N02","secret":"e8fd433de9","server":"65535","farm":66,"title":"Gray Catbird Set 2 220706 -08","ispublic":1,"isfriend":0,"isfamily":0},{"id":"52281844032","owner":"119787485@N07","secret":"74ba7a134e","server":"65535","farm":66,"title":"Gray Catbird (Dumetella carolinensis) - 20220607-03","ispublic":1,"isfriend":0,"isfamily":0},{"id":"52274943262","owner":"8666250@N02","secret":"5d40365c3b","server":"65535","farm":66,"title":"Gray Catbirds 220705 -05","ispublic":1,"isfriend":0,"isfamily":0},{"id":"52276402045","owner":"8666250@N02","secret":"4517409458","server":"65535","farm":66,"title":"Gray Catbirds 220705 -02","ispublic":1,"isfriend":0,"isfamily":0},{"id":"52274943092","owner":"8666250@N02","secret":"0709fbb108","server":"65535","farm":66,"title":"Gray Catbirds 220705 -01","ispublic":1,"isfriend":0,"isfamily":0},{"id":"52275550268","owner":"65148649@N04","secret":"9171ce8c56","server":"65535","farm":66,"title":"Gray Catbird","ispublic":1,"isfriend":0,"isfamily":0},{"id":"52274556077","owner":"65148649@N04","secret":"0bb7afdf55","server":"65535","farm":66,"title":"Gray Catbird","ispublic":1,"isfriend":0,"isfamily":0},{"id":"52274556042","owner":"65148649@N04","secret":"f3a3739289","server":"65535","farm":66,"title":"Gray Catbird","ispublic":1,"isfriend":0,"isfamily":0},{"id":"52275793464","owner":"65148649@N04","secret":"561e1a5f49","server":"65535","farm":66,"title":"Gray Catbird","ispublic":1,"isfriend":0,"isfamily":0},{"id":"52274556032","owner":"65148649@N04","secret":"7a8004f4f7","server":"65535","farm":66,"title":"Gray Catbird","ispublic":1,"isfriend":0,"isfamily":0},{"id":"52275714734","owner":"196264892@N08","secret":"6feb1df90c","server":"65535","farm":66,"title":"Gray Catbird 1","ispublic":1,"isfriend":0,"isfamily":0},{"id":"52275407123","owner":"66550674@N06","secret":"a3a335b4fe","server":"65535","farm":66,"title":"Gray Catbird","ispublic":1,"isfriend":0,"isfamily":0},{"id":"52275718420","owner":"8666250@N02","secret":"19b54c2f5d","server":"65535","farm":66,"title":"Gray Catbird about to serve lunch!","ispublic":1,"isfriend":0,"isfamily":0},{"id":"52270121277","owner":"8666250@N02","secret":"6c4562eeb5","server":"65535","farm":66,"title":"Gray Cat of Teal Pond -06","ispublic":1,"isfriend":0,"isfamily":0},{"id":"52271350069","owner":"8666250@N02","secret":"756aefb830","server":"65535","farm":66,"title":"Gray Cat of Teal Pond -02","ispublic":1,"isfriend":0,"isfamily":0}]},"stat":"ok"}