{"photos":{"page":1,"pages":16,"perpage":100,"total":1509,"photo":[{"id":"52790204053","owner":"33277678@N03","secret":"8a51680237","server":"65535","farm":66,"title":"Boranup '23","ispublic":1,"isfriend":0,"isfamily":0},{"id":"52778980732","owner":"119787485@N07","secret":"6f9f3ed4c5","server":"65535","farm":66,"title":"Gray Fantail (Rhipidura albiscapa keasti) - 20221014-01","ispublic":1,"isfriend":0,"isfamily":0},{"id":"52778954943","owner":"134570943@N06","secret":"88cda09ae2","server":"65535","farm":66,"title":"P1022140","ispublic":1,"isfriend":0,"isfamily":0},{"id":"52769383755","owner":"71589894@N00","secret":"aa459073de","server":"65535","farm":66,"title":"_92A6984_1","ispublic":1,"isfriend":0,"isfamily":0},{"id":"52769457943","owner":"71589894@N00","secret":"7f1e4d7ab8","server":"65535","farm":66,"title":"_92A6986_1","ispublic":1,"isfriend":0,"isfamily":0},{"id":"52768970651","owner":"71589894@N00","secret":"c667374408","server":"65535","farm":66,"title":"_92A6993_1","ispublic":1,"isfriend":0,"isfamily":0},{"id":"52759452975","owner":"146833745@N04","secret":"720013aff2","server":"65535","farm":66,"title":"Grey Fantail (Rhipidura albiscapa)","ispublic":1,"isfriend":0,"isfamily":0},{"id":"52754843927","owner":"29826595@N06","secret":"1d7e76b243","server":"65535","farm":66,"title":"Grey Fantail","ispublic":1,"isfriend":0,"isfamily":0},{"id":"52748721915","owner":"50562183@N00","secret":"12632b9fc2","server":"65535","farm":66,"title":"Grey Fantail (Rhipidura albiscapa)","ispublic":1,"isfriend":0,"isfamily":0},{"id":"52733213597","owner":"37423935@N00","secret":"608d0c0c83","server":"65535","farm":66,"title":"Grey Fantail juvenile","ispublic":1,"isfriend":0,"isfamily":0},{"id":"52728341113","owner":"183840266@N08","secret":"8607367580","server":"65535","farm":66,"title":"Grey Fantail (Rhipidura albiscapa bulgeri)","ispublic":1,"isfriend":0,"isfamily":0},{"id":"52714271811","owner":"124478354@N05","secret":"4167daacb3","server":"65535","farm":66,"title":"Tailspin","ispublic":1,"isfriend":0,"isfamily":0},{"id":"52712928862","owner":"31350467@N04","secret":"e307fe7cac","server":"65535","farm":66,"title":"Grey Fantail (Rhipidura albiscapa alisteri)","ispublic":1,"isfriend":0,"isfamily":0},{"id":"52711878248","owner":"40339730@N00","secret":"5c7a7c264b","server":"65535","farm":66,"title":"Grey Fantail","ispublic":1,"isfriend":0,"isfamily":0},{"id":"52690769709","owner":"113679267@N08","secret":"0369525012","server":"65535","farm":66,"title":"Grey Fantail (Rhipidura albiscapa : ssp preissi)","ispublic":1,"isfriend":0,"isfamily":0},{"id":"52683520470","owner":"78063402@N00","secret":"9841e4289d","server":"65535","farm":66,"title":"Bush Pixie","ispublic":1,"isfriend":0,"isfamily":0},{"id":"52677918401","owner":"162938309@N02","secret":"4278448f8e","server":"65535","farm":66,"title":"Grey fantail feeding.","ispublic":1,"isfriend":0,"isfamily":0},{"id":"52669446111","owner":"80121322@N04","secret":"e1d9b6ec01","server":"65535","farm":66,"title":"Grey Fantail","ispublic":1,"isfriend":0,"isfamily":0},{"id":"52669945573","owner":"80121322@N04","secret":"baf66bf315","server":"65535","farm":66,"title":"Grey Fantail","ispublic":1,"isfriend":0,"isfamily":0},{"id":"52665307527","owner":"108755156@N05","secret":"c25db7e627","server":"65535","farm":66,"title":"Hello","ispublic":1,"isfriend":0,"isfamily":0},{"id":"52665644335","owner":"12639178@N07","secret":"e686f00eb3","server":"65535","farm":66,"title":"Grey Fantail (Rhipidura albiscapa), QLD, Australien","ispublic":1,"isfriend":0,"isfamily":0},{"id":"52662012543","owner":"47932052@N03","secret":"f8db0168cf","server":"65535","farm":66,"title":"Grey Fantail - Mount Penang Parkland","ispublic":1,"isfriend":0,"isfamily":0},{"id":"52657095860","owner":"12639178@N07","secret":"65dbcc88df","server":"65535","farm":66,"title":"Grey Fantail (Rhipidura albiscapa), Lamington NP, Australien","ispublic":1,"isfriend":0,"isfamily":0},{"id":"52623846439","owner":"75299599@N00","secret":"cfce03a390","server":"65535","farm":66,"title":"Grey Fantail (Rhipidura albiscapa)","ispublic":1,"isfriend":0,"isfamily":0},{"id":"52608752388","owner":"80121322@N04","secret":"254b1a23a1","server":"65535","farm":66,"title":"Grey Fantail","ispublic":1,"isfriend":0,"isfamily":0},{"id":"52608752318","owner":"80121322@N04","secret":"2cf2000d81","server":"65535","farm":66,"title":"Grey Fantail","ispublic":1,"isfriend":0,"isfamily":0},{"id":"52608676310","owner":"80121322@N04","secret":"e9102dc76d","server":"65535","farm":66,"title":"Grey Fantail","ispublic":1,"isfriend":0,"isfamily":0},{"id":"52607754512","owner":"80121322@N04","secret":"6fcdec8f31","server":"65535","farm":66,"title":"Grey Fantail","ispublic":1,"isfriend":0,"isfamily":0},{"id":"52608751988","owner":"80121322@N04","secret":"15e45cda01","server":"65535","farm":66,"title":"Grey Fantail","ispublic":1,"isfriend":0,"isfamily":0},{"id":"52607754302","owner":"80121322@N04","secret":"35b210911a","server":"65535","farm":66,"title":"Grey Fantail","ispublic":1,"isfriend":0,"isfamily":0},{"id":"52608257096","owner":"80121322@N04","secret":"8fb45895c1","server":"65535","farm":66,"title":"Grey Fantail","ispublic":1,"isfriend":0,"isfamily":0},{"id":"52608675865","owner":"80121322@N04","secret":"9774c081c5","server":"65535","farm":66,"title":"Grey Fantail","ispublic":1,"isfriend":0,"isfamily":0},{"id":"52608751543","owner":"80121322@N04","secret":"cd8585320b","server":"65535","farm":66,"title":"Grey Fantail","ispublic":1,"isfriend":0,"isfamily":0},{"id":"52604952290","owner":"33277678@N03","secret":"31401ae84d","server":"65535","farm":66,"title":"Boranup '23","ispublic":1,"isfriend":0,"isfamily":0},{"id":"52604299328","owner":"192613806@N05","secret":"8e48142105","server":"65535","farm":66,"title":"Grey Fantail","ispublic":1,"isfriend":0,"isfamily":0},{"id":"52601219977","owner":"162938309@N02","secret":"5d6221e44a","server":"65535","farm":66,"title":"Grey Fantail.","ispublic":1,"isfriend":0,"isfamily":0},{"id":"52593289319","owner":"80121322@N04","secret":"0b24de8c50","server":"65535","farm":66,"title":"Grey Fantail","ispublic":1,"isfriend":0,"isfamily":0},{"id":"52593288959","owner":"80121322@N04","secret":"d18531f482","server":"65535","farm":66,"title":"Grey Fantail","ispublic":1,"isfriend":0,"isfamily":0},{"id":"52592545287","owner":"80121322@N04","secret":"92c32069d3","server":"65535","farm":66,"title":"Grey Fantail","ispublic":1,"isfriend":0,"isfamily":0},{"id":"52591547330","owner":"117755141@N02","secret":"b8306b90b7","server":"65535","farm":66,"title":"Grey Fantail 2 (Rhipidura albiscapa Ssp pelzelni)","ispublic":1,"isfriend":0,"isfamily":0},{"id":"52576657067","owner":"117755141@N02","secret":"3d0aa0c96d","server":"65535","farm":66,"title":"Grey Fantail 1 (Rhipidura albiscapa Ssp pelzelni)","ispublic":1,"isfriend":0,"isfamily":0},{"id":"52557538101","owner":"190773540@N03","secret":"90af68551d","server":"65535","farm":66,"title":"Gray Fantail","ispublic":1,"isfriend":0,"isfamily":0},{"id":"52557829074","owner":"34655572@N06","secret":"5766ea7407","server":"65535","farm":66,"title":"Recent Arrival?","ispublic":1,"isfriend":0,"isfamily":0},{"id":"52558027953","owner":"190773540@N03","secret":"332f3e990a","server":"65535","farm":66,"title":"Gray Fantail","ispublic":1,"isfriend":0,"isfamily":0},{"id":"52557378471","owner":"190773540@N03","secret":"e374f6d6f7","server":"65535","farm":66,"title":"Gray Fantail","ispublic":1,"isfriend":0,"isfamily":0},{"id":"52551327906","owner":"74822983@N02","secret":"9d42b8faf8","server":"65535","farm":66,"title":"Grey Fantail 2022-12-07 (7D_182A0749)","ispublic":1,"isfriend":0,"isfamily":0},{"id":"52549017777","owner":"75577256@N04","secret":"ed332aca3c","server":"65535","farm":66,"title":"Cardinia Aqueduct Trail: Grey Fantail Rhipidura albiscapa","ispublic":1,"isfriend":0,"isfamily":0},{"id":"52550019513","owner":"75577256@N04","secret":"b3e00a0e33","server":"65535","farm":66,"title":"Cardinia Aqueduct Trail: Grey Fantail Rhipidura albiscapa","ispublic":1,"isfriend":0,"isfamily":0},{"id":"52549947805","owner":"75577256@N04","secret":"1a26a3d44b","server":"65535","farm":66,"title":"Cardinia Aqueduct Trail: Grey Fantail Rhipidura albiscapa","ispublic":1,"isfriend":0,"isfamily":0},{"id":"52549768554","owner":"75577256@N04","secret":"eb26dceeb0","server":"65535","farm":66,"title":"Cardinia Aqueduct Trail: Grey Fantail Rhipidura albiscapa","ispublic":1,"isfriend":0,"isfamily":0},{"id":"52505707979","owner":"29826595@N06","secret":"5f14440d0a","server":"65535","farm":66,"title":"Grey Fantail","ispublic":1,"isfriend":0,"isfamily":0},{"id":"52489823034","owner":"108755156@N05","secret":"777b1a5c7f","server":"65535","farm":66,"title":"The Look","ispublic":1,"isfriend":0,"isfamily":0},{"id":"52483374905","owner":"188487172@N03","secret":"a0013991d5","server":"65535","farm":66,"title":"grey fantail (Rhipidura albiscapa)","ispublic":1,"isfriend":0,"isfamily":0},{"id":"52480976028","owner":"183378154@N06","secret":"2fb618cf6b","server":"65535","farm":66,"title":"Rhipidura albiscapa (Grey Fantail)","ispublic":1,"isfriend":0,"isfamily":0},{"id":"52478219465","owner":"152641185@N03","secret":"ed45011011","server":"65535","farm":66,"title":"Grey Fantail.  Rhipidura albiscapa.","ispublic":1,"isfriend":0,"isfamily":0},{"id":"52440244436","owner":"134570943@N06","secret":"8388432259","server":"65535","farm":66,"title":"P1021405","ispublic":1,"isfriend":0,"isfamily":0},{"id":"52433462744","owner":"134570943@N06","secret":"11d0147cf9","server":"65535","farm":66,"title":"P1009401","ispublic":1,"isfriend":0,"isfamily":0},{"id":"52430956577","owner":"151677249@N08","secret":"211ebf2573","server":"65535","farm":66,"title":"Grey Fantail (Rhipidura albiscapa alisteri)","ispublic":1,"isfriend":0,"isfamily":0},{"id":"52431101533","owner":"151677249@N08","secret":"847386ebfd","server":"65535","farm":66,"title":"Grey Fantail (Rhipidura albiscapa alisteri)","ispublic":1,"isfriend":0,"isfamily":0},{"id":"52426076399","owner":"193145186@N06","secret":"693aaf1689","server":"65535","farm":66,"title":"Grey Fantail","ispublic":1,"isfriend":0,"isfamily":0},{"id":"52417818413","owner":"69947563@N07","secret":"5f51199158","server":"65535","farm":66,"title":"Grey Fantail - Moree Plains, New South Wales, Australia","ispublic":1,"isfriend":0,"isfamily":0},{"id":"52411549601","owner":"69947563@N07","secret":"41d816d4e1","server":"65535","farm":66,"title":"Gray Fantail - Mount Hypipamee National Park, Tablelands, Queensland, Australia","ispublic":1,"isfriend":0,"isfamily":0},{"id":"52403681054","owner":"196575003@N03","secret":"765f17e76d","server":"65535","farm":66,"title":"Rhipidura albiscapa","ispublic":1,"isfriend":0,"isfamily":0},{"id":"52393724651","owner":"134570943@N06","secret":"a2c502679f","server":"65535","farm":66,"title":"Grey Fantail","ispublic":1,"isfriend":0,"isfamily":0},{"id":"52390156090","owner":"194690473@N07","secret":"d309d3c552","server":"65535","farm":66,"title":"Grey Fantail","ispublic":1,"isfriend":0,"isfamily":0},{"id":"52378975127","owner":"140742937@N05","secret":"64d01cde30","server":"65535","farm":66,"title":"Grey fantail","ispublic":1,"isfriend":0,"isfamily":0},{"id":"52373399033","owner":"108755156@N05","secret":"11efc2079e","server":"65535","farm":66,"title":"That's Close Enough!","ispublic":1,"isfriend":0,"isfamily":0},{"id":"52363486439","owner":"74822983@N02","secret":"60ab62081f","server":"65535","farm":66,"title":"Grey Fantail 2022-09-06 (7D_182A1194)","ispublic":1,"isfriend":0,"isfamily":0},{"id":"52345141090","owner":"29826595@N06","secret":"44d08ffbfe","server":"65535","farm":66,"title":"Grey Fantail","ispublic":1,"isfriend":0,"isfamily":0},{"id":"52342657811","owner":"95801649@N03","secret":"6b78d3889b","server":"65535","farm":66,"title":"Grey Fantail_3665 (Rhipidura albiscapa)","ispublic":1,"isfriend":0,"isfamily":0},{"id":"52315805156","owner":"75299599@N00","secret":"77a00c8ac9","server":"65535","farm":66,"title":"Grey Fantail (Rhipidura albiscapa)","ispublic":1,"isfriend":0,"isfamily":0},{"id":"52299029957","owner":"193145186@N06","secret":"c50b6be156","server":"65535","farm":66,"title":"Grey Fantail","ispublic":1,"isfriend":0,"isfamily":0},{"id":"52287721144","owner":"113679267@N08","secret":"790714bbe8","server":"65535","farm":66,"title":"Grey Fantail (Rhipidura albiscapa; ssp: preissi)","ispublic":1,"isfriend":0,"isfamily":0},{"id":"52214028910","owner":"151677249@N08","secret":"f14ed3163f","server":"65535","farm":66,"title":"Grey Fantail (Rhipidura albiscapa preissi)","ispublic":1,"isfriend":0,"isfamily":0},{"id":"52194815330","owner":"34655572@N06","secret":"8f25672b91","server":"65535","farm":66,"title":"Showtime!","ispublic":1,"isfriend":0,"isfamily":0},{"id":"52189309006","owner":"31350467@N04","secret":"56af70d699","server":"65535","farm":66,"title":"Fantail, Grey (Rhipidura albiscapa keasti)","ispublic":1,"isfriend":0,"isfamily":0},{"id":"52159029267","owner":"194690473@N07","secret":"08bd0e0cbd","server":"65535","farm":66,"title":"Grey Fantail","ispublic":1,"isfriend":0,"isfamily":0},{"id":"52157016308","owner":"47932052@N03","secret":"19db366626","server":"65535","farm":66,"title":"Grey Fantail - Mount Penang Parklands, NSW","ispublic":1,"isfriend":0,"isfamily":0},{"id":"52140470710","owner":"134901639@N03","secret":"bd1554ed1f","server":"65535","farm":66,"title":"Grey Fantail","ispublic":1,"isfriend":0,"isfamily":0},{"id":"52135369316","owner":"151677249@N08","secret":"048f321607","server":"65535","farm":66,"title":"Grey Fantail (Rhipidura albiscapa preissi)","ispublic":1,"isfriend":0,"isfamily":0},{"id":"52109849565","owner":"151677249@N08","secret":"78957ee5a9","server":"65535","farm":66,"title":"Grey Fantail (Rhipidura albiscapa preissi)","ispublic":1,"isfriend":0,"isfamily":0},{"id":"52052445137","owner":"117755141@N02","secret":"702856b7a2","server":"65535","farm":66,"title":"Grey Fantail (Rhipidura albiscapa Ssp keasti)","ispublic":1,"isfriend":0,"isfamily":0},{"id":"52021469400","owner":"34655572@N06","secret":"127deaea9d","server":"65535","farm":66,"title":"Limelight Seeker","ispublic":1,"isfriend":0,"isfamily":0},{"id":"52741894050","owner":"197847674@N07","secret":"f24690e471","server":"65535","farm":66,"title":"3.","ispublic":1,"isfriend":0,"isfamily":0},{"id":"52661006006","owner":"12639178@N07","secret":"4f4fa5b693","server":"65535","farm":66,"title":"Grauf\u00e4cherschwanz (Rhipidura albiscapa), QLD, Australien","ispublic":1,"isfriend":0,"isfamily":0},{"id":"52638239157","owner":"12639178@N07","secret":"f1f5b2f0ca","server":"65535","farm":66,"title":"Grauf\u00e4cherschwanz","ispublic":1,"isfriend":0,"isfamily":0},{"id":"52635361240","owner":"12639178@N07","secret":"1b9625326d","server":"65535","farm":66,"title":"Grauf\u00e4cherschwanz","ispublic":1,"isfriend":0,"isfamily":0},{"id":"52610159496","owner":"151789887@N03","secret":"1e32e094c6","server":"65535","farm":66,"title":"LOu020123Ra1","ispublic":1,"isfriend":0,"isfamily":0},{"id":"52610421889","owner":"151789887@N03","secret":"4a8b5d76b7","server":"65535","farm":66,"title":"LOu020123Ra2","ispublic":1,"isfriend":0,"isfamily":0},{"id":"52607753982","owner":"80121322@N04","secret":"1d5c1dd844","server":"65535","farm":66,"title":"Grey Fantail","ispublic":1,"isfriend":0,"isfamily":0},{"id":"52600323420","owner":"117755141@N02","secret":"d1835ff559","server":"65535","farm":66,"title":"Grey Fantail 3 (Rhipidura albiscapa Ssp pelzelni)","ispublic":1,"isfriend":0,"isfamily":0},{"id":"52532702516","owner":"57465751@N05","secret":"e8eedb67fe","server":"65535","farm":66,"title":"Gray Fantail (Rhipidura albiscapa), Port Adelaide Enfield, SA, Australia","ispublic":1,"isfriend":0,"isfamily":0},{"id":"52518595130","owner":"52618557@N08","secret":"f2c11ecfb2","server":"65535","farm":66,"title":"Grey Fantail (Rhipidura albiscapa)","ispublic":1,"isfriend":0,"isfamily":0},{"id":"52174064659","owner":"162790251@N07","secret":"abe8e5b317","server":"65535","farm":66,"title":"Grey Fantail - Rhipidura albiscapa","ispublic":1,"isfriend":0,"isfamily":0},{"id":"52170441387","owner":"78247220@N08","secret":"3c515f925e","server":"65535","farm":66,"title":"Rhipidura albiscapa","ispublic":1,"isfriend":0,"isfamily":0},{"id":"52171465513","owner":"78247220@N08","secret":"6e1ddbde0c","server":"65535","farm":66,"title":"Rhipidura albiscapa","ispublic":1,"isfriend":0,"isfamily":0},{"id":"52171460781","owner":"78247220@N08","secret":"0e6fa795c1","server":"65535","farm":66,"title":"Rhipidura albiscapa","ispublic":1,"isfriend":0,"isfamily":0},{"id":"52133183515","owner":"193145186@N06","secret":"703911ed87","server":"65535","farm":66,"title":"Grey Fantail","ispublic":1,"isfriend":0,"isfamily":0},{"id":"52097145301","owner":"193145186@N06","secret":"a9148cb3e0","server":"65535","farm":66,"title":"Grey Fantail","ispublic":1,"isfriend":0,"isfamily":0},{"id":"52004012308","owner":"63175631@N02","secret":"ed9d2c1637","server":"65535","farm":66,"title":"Grey Fantail (Rhipidura albiscapa)","ispublic":1,"isfriend":0,"isfamily":0}]},"stat":"ok"}