{"photos":{"page":1,"pages":7,"perpage":100,"total":629,"photo":[{"id":"52790787921","owner":"12639178@N07","secret":"23aebbd5ee","server":"65535","farm":66,"title":"Graugans x Kanadagans (Anser anser x Branta canadensis)","ispublic":1,"isfriend":0,"isfamily":0},{"id":"52791238518","owner":"12639178@N07","secret":"6b29360900","server":"65535","farm":66,"title":"Graugans x Kanadagans (Anser anser x Branta canadensis)","ispublic":1,"isfriend":0,"isfamily":0},{"id":"52790232807","owner":"12639178@N07","secret":"0f16550f55","server":"65535","farm":66,"title":"Graugans x Kanadagans (Anser anser x Branta canadensis)","ispublic":1,"isfriend":0,"isfamily":0},{"id":"52790787056","owner":"12639178@N07","secret":"bcc3a4a6df","server":"65535","farm":66,"title":"Graugans x Kanadagans (Anser anser x Branta canadensis)","ispublic":1,"isfriend":0,"isfamily":0},{"id":"52790232067","owner":"12639178@N07","secret":"29ae96e820","server":"65535","farm":66,"title":"Graugans x Kanadagans (Anser anser x Branta canadensis)","ispublic":1,"isfriend":0,"isfamily":0},{"id":"52785890645","owner":"145907835@N07","secret":"ae2e7e7dd8","server":"65535","farm":66,"title":"Hybride Grauwe Gans x Grote Canadese Gans - Anser anser x Branta canadensis","ispublic":1,"isfriend":0,"isfamily":0},{"id":"52758297521","owner":"188352054@N08","secret":"c644611a5f","server":"65535","farm":66,"title":"9M2A5285","ispublic":1,"isfriend":0,"isfamily":0},{"id":"52758206585","owner":"145907835@N07","secret":"308870ec17","server":"65535","farm":66,"title":"Hybride Grauwe Gans x Grote Canadese Gans - Anser anser x Branta canadensis","ispublic":1,"isfriend":0,"isfamily":0},{"id":"52757260537","owner":"145907835@N07","secret":"2ef1caf60b","server":"65535","farm":66,"title":"Hybride Grauwe Gans x Grote Canadese Gans - Anser anser x Branta canadensis","ispublic":1,"isfriend":0,"isfamily":0},{"id":"52756103275","owner":"12639178@N07","secret":"7116d82f5a","server":"65535","farm":66,"title":"Hybridgans","ispublic":1,"isfriend":0,"isfamily":0},{"id":"52749828620","owner":"12639178@N07","secret":"65712af437","server":"65535","farm":66,"title":"Hybrid Grau-und Kanadagans","ispublic":1,"isfriend":0,"isfamily":0},{"id":"52745386186","owner":"12639178@N07","secret":"e9384e5203","server":"65535","farm":66,"title":"Graugans x Kanadagans","ispublic":1,"isfriend":0,"isfamily":0},{"id":"52739133170","owner":"12639178@N07","secret":"34cf3ee268","server":"65535","farm":66,"title":"Nobbi mit Partnerin","ispublic":1,"isfriend":0,"isfamily":0},{"id":"52732225124","owner":"12639178@N07","secret":"d3bea33ca8","server":"65535","farm":66,"title":"Graugans x Kanadagans (Anser anser x Branta canadensis)","ispublic":1,"isfriend":0,"isfamily":0},{"id":"52731449927","owner":"12639178@N07","secret":"97a05f6d91","server":"65535","farm":66,"title":"Graugans x Kanadagans (Anser anser x Branta canadensis)","ispublic":1,"isfriend":0,"isfamily":0},{"id":"52731975331","owner":"12639178@N07","secret":"9162e1aa60","server":"65535","farm":66,"title":"Graugans x Kanadagans (Anser anser x Branta canadensis)","ispublic":1,"isfriend":0,"isfamily":0},{"id":"52731975171","owner":"12639178@N07","secret":"4cd3f7ac93","server":"65535","farm":66,"title":"Graugans x Kanadagans (Anser anser x Branta canadensis)","ispublic":1,"isfriend":0,"isfamily":0},{"id":"52722738696","owner":"12639178@N07","secret":"e46a5ee2e1","server":"65535","farm":66,"title":"Graugans x Kanadagans (Anser anser x Branta canadensis)","ispublic":1,"isfriend":0,"isfamily":0},{"id":"52723216363","owner":"12639178@N07","secret":"3f75ec4669","server":"65535","farm":66,"title":"Graugans x Kanadagans (Anser anser x Branta canadensis)","ispublic":1,"isfriend":0,"isfamily":0},{"id":"52719141089","owner":"12639178@N07","secret":"3bb7863808","server":"65535","farm":66,"title":"Graugans x Kanadagans (Anser anser x Branta canadensis)","ispublic":1,"isfriend":0,"isfamily":0},{"id":"52717641290","owner":"12639178@N07","secret":"fb2b027d70","server":"65535","farm":66,"title":"Die grazile Kanadagans ist flotter unterwegs","ispublic":1,"isfriend":0,"isfamily":0},{"id":"52717476514","owner":"12639178@N07","secret":"447ebb765a","server":"65535","farm":66,"title":"Ein ungleiches Paar","ispublic":1,"isfriend":0,"isfamily":0},{"id":"52717208846","owner":"12639178@N07","secret":"e9833d69da","server":"65535","farm":66,"title":"Hybrid mit Kanadagans","ispublic":1,"isfriend":0,"isfamily":0},{"id":"52717698503","owner":"12639178@N07","secret":"bc2cfb50c2","server":"65535","farm":66,"title":"Graugans-\/Kanadaganshybrid","ispublic":1,"isfriend":0,"isfamily":0},{"id":"52712457399","owner":"12639178@N07","secret":"c35c811fab","server":"65535","farm":66,"title":"Graugans x Kanadagans (Anser anser x Branta canadensis)","ispublic":1,"isfriend":0,"isfamily":0},{"id":"52712195966","owner":"12639178@N07","secret":"6289c4ffbf","server":"65535","farm":66,"title":"Graugans x Kanadagans (Anser anser x Branta canadensis)","ispublic":1,"isfriend":0,"isfamily":0},{"id":"52712614015","owner":"12639178@N07","secret":"a91a1bed43","server":"65535","farm":66,"title":"Graugans x Kanadagans (Anser anser x Branta canadensis)","ispublic":1,"isfriend":0,"isfamily":0},{"id":"52710717273","owner":"12639178@N07","secret":"539546234f","server":"65535","farm":66,"title":"Kanadagans x Graugans - 13 Jahre alt","ispublic":1,"isfriend":0,"isfamily":0},{"id":"52710237486","owner":"12639178@N07","secret":"e851749e49","server":"65535","farm":66,"title":"Kanadagans x Graugans - 13 Jahre alt","ispublic":1,"isfriend":0,"isfamily":0},{"id":"52710650595","owner":"12639178@N07","secret":"772f3140bb","server":"65535","farm":66,"title":"Kanadagans x Graugans - 13 Jahre alt","ispublic":1,"isfriend":0,"isfamily":0},{"id":"52708844485","owner":"12639178@N07","secret":"5dc4296c32","server":"65535","farm":66,"title":"Hybrid Graugans x Kanadagans","ispublic":1,"isfriend":0,"isfamily":0},{"id":"52703760248","owner":"12639178@N07","secret":"d46d22ea3f","server":"65535","farm":66,"title":"Graugans x Kanadagans Portrait","ispublic":1,"isfriend":0,"isfamily":0},{"id":"52703308520","owner":"12639178@N07","secret":"bb9c7901bb","server":"65535","farm":66,"title":"Grau x Kanadagans","ispublic":1,"isfriend":0,"isfamily":0},{"id":"52701189733","owner":"12639178@N07","secret":"a8e1b6996f","server":"65535","farm":66,"title":"G\u00e4nse-Hybrid in Dresden","ispublic":1,"isfriend":0,"isfamily":0},{"id":"52626931742","owner":"188352054@N08","secret":"b2d6157c4c","server":"65535","farm":66,"title":"IMG_4599","ispublic":1,"isfriend":0,"isfamily":0},{"id":"52610093388","owner":"188352054@N08","secret":"9519a0ccd0","server":"65535","farm":66,"title":"IMG_4361","ispublic":1,"isfriend":0,"isfamily":0},{"id":"52605390575","owner":"12639178@N07","secret":"96364de5b4","server":"65535","farm":66,"title":"bekannter Hybride mind. 10 Jahre alt","ispublic":1,"isfriend":0,"isfamily":0},{"id":"52596105372","owner":"12639178@N07","secret":"62b8cfef24","server":"65535","farm":66,"title":"Graugans x Kandagans-Hybrid","ispublic":1,"isfriend":0,"isfamily":0},{"id":"52476671479","owner":"34238008@N02","secret":"36d5c0474b","server":"65535","farm":66,"title":"Domestic goose sp. (Domestic type) x Canada Goose, hybrid (Anser sp. (Domestic type) x Branta canadensis)","ispublic":1,"isfriend":0,"isfamily":0},{"id":"52419828307","owner":"41798562@N07","secret":"8ee456cfbc","server":"65535","farm":66,"title":"Presumed Greylag Goose (Anser anser) X Canada Goose (Branta canadensis)","ispublic":1,"isfriend":0,"isfamily":0},{"id":"52283231936","owner":"12639178@N07","secret":"83186ec92e","server":"65535","farm":66,"title":"Ich schaue nicht ins Bild!!!","ispublic":1,"isfriend":0,"isfamily":0},{"id":"52283499399","owner":"12639178@N07","secret":"c11cc159f5","server":"65535","farm":66,"title":"Wer waren die Eltern?","ispublic":1,"isfriend":0,"isfamily":0},{"id":"52187160995","owner":"44093058@N06","secret":"c7da11f852","server":"65535","farm":66,"title":"Crows, gulls and geese","ispublic":1,"isfriend":0,"isfamily":0},{"id":"52089594211","owner":"59539587@N02","secret":"799e50830b","server":"65535","farm":66,"title":"Hanhiristeym\u00e4 sy\u00f6m\u00e4ss\u00e4 ojassa","ispublic":1,"isfriend":0,"isfamily":0},{"id":"52059673288","owner":"12639178@N07","secret":"a1ceb1b027","server":"65535","farm":66,"title":"Kanadagans x Hausgans (Branta canadensis x Anser anser f. domesticus) (1)","ispublic":1,"isfriend":0,"isfamily":0},{"id":"52048897150","owner":"12639178@N07","secret":"5a9337f617","server":"65535","farm":66,"title":"Graugans x Kandagans","ispublic":1,"isfriend":0,"isfamily":0},{"id":"52763750530","owner":"12639178@N07","secret":"88e6c150e3","server":"65535","farm":66,"title":"Hybrid Graugans x Kanadagans","ispublic":1,"isfriend":0,"isfamily":0},{"id":"52762801287","owner":"12639178@N07","secret":"b5fb394e05","server":"65535","farm":66,"title":"Hybrid Graugans x Kanadagans zusammen mit Graugans","ispublic":1,"isfriend":0,"isfamily":0},{"id":"52696183855","owner":"12639178@N07","secret":"18cd5b24cb","server":"65535","farm":66,"title":"Kanadagans x Schwanengans (Anser cygnoid x Branta canadensis)","ispublic":1,"isfriend":0,"isfamily":0},{"id":"52675714532","owner":"12639178@N07","secret":"fd9a8462e3","server":"65535","farm":66,"title":"Graugans x Kanadagans  Hybrid","ispublic":1,"isfriend":0,"isfamily":0},{"id":"52669480297","owner":"12639178@N07","secret":"5470ef8783","server":"65535","farm":66,"title":"Graugans x Kanadagans (Anser anser x Branta canadensis)","ispublic":1,"isfriend":0,"isfamily":0},{"id":"52670268979","owner":"12639178@N07","secret":"bd37354569","server":"65535","farm":66,"title":"Graugans x Kanadagans (Anser anser x Branta canadensis)","ispublic":1,"isfriend":0,"isfamily":0},{"id":"52669980076","owner":"12639178@N07","secret":"c6b8a31c3b","server":"65535","farm":66,"title":"Graugans x Kanadagans (Anser anser x Branta canadensis)","ispublic":1,"isfriend":0,"isfamily":0},{"id":"52669162550","owner":"12639178@N07","secret":"efbd6f4699","server":"65535","farm":66,"title":"Kanadische Grau- bzw. graue Kanadagans","ispublic":1,"isfriend":0,"isfamily":0},{"id":"52657021403","owner":"12639178@N07","secret":"df67660d5d","server":"65535","farm":66,"title":"Kanadagans x Hausgans (Branta canadensis x Anser anser f. domesticus)","ispublic":1,"isfriend":0,"isfamily":0},{"id":"52656974785","owner":"12639178@N07","secret":"0a01062158","server":"65535","farm":66,"title":"Kanadagans x Hausgans (Branta canadensis x Anser anser f. domesticus)","ispublic":1,"isfriend":0,"isfamily":0},{"id":"52656974575","owner":"12639178@N07","secret":"246e37115e","server":"65535","farm":66,"title":"Kanadagans x Hausgans (Branta canadensis x Anser anser f. domesticus)","ispublic":1,"isfriend":0,"isfamily":0},{"id":"52595100057","owner":"12639178@N07","secret":"745266e855","server":"65535","farm":66,"title":"Graugans und Hybride","ispublic":1,"isfriend":0,"isfamily":0},{"id":"52556503572","owner":"12639178@N07","secret":"d9552b51bc","server":"65535","farm":66,"title":"Graugans x Kanadagans (Anser anser x Branta canadensis) (1)","ispublic":1,"isfriend":0,"isfamily":0},{"id":"52557496933","owner":"12639178@N07","secret":"49485c5521","server":"65535","farm":66,"title":"Graugans x Kanadagans (Anser anser x Branta canadensis) (1)","ispublic":1,"isfriend":0,"isfamily":0},{"id":"52505942263","owner":"12639178@N07","secret":"63108e5865","server":"65535","farm":66,"title":"Beringte Gans laut Ring fast 23 Jahre alt!!! Kanada-Graugans-Hybrid","ispublic":1,"isfriend":0,"isfamily":0},{"id":"52499820245","owner":"12639178@N07","secret":"096e4b70f0","server":"65535","farm":66,"title":"Graugans x Kanadagans (Anser anser x Branta canadensis) (2)","ispublic":1,"isfriend":0,"isfamily":0},{"id":"52487874026","owner":"12639178@N07","secret":"6802a2f56f","server":"65535","farm":66,"title":"Gans Hybrid beringt","ispublic":1,"isfriend":0,"isfamily":0},{"id":"52488152689","owner":"12639178@N07","secret":"b7f19b5388","server":"65535","farm":66,"title":"Hybridgans beringt","ispublic":1,"isfriend":0,"isfamily":0},{"id":"52472474246","owner":"12639178@N07","secret":"66082e332f","server":"65535","farm":66,"title":"Graugans x Kanadagans-Hybrid? neben Graug\u00e4nsen","ispublic":1,"isfriend":0,"isfamily":0},{"id":"52473019408","owner":"12639178@N07","secret":"0aebfebf51","server":"65535","farm":66,"title":"Graugans x Kanadagans-Hybrid? neben Graugans","ispublic":1,"isfriend":0,"isfamily":0},{"id":"52473019228","owner":"12639178@N07","secret":"cbf0fde34b","server":"65535","farm":66,"title":"Graugans x Kanadagans-Hybrid? neben Graugans","ispublic":1,"isfriend":0,"isfamily":0},{"id":"52464728677","owner":"12639178@N07","secret":"edbe1a8e3e","server":"65535","farm":66,"title":"Graugans x Kanadagans (Anser anser x Branta canadensis)","ispublic":1,"isfriend":0,"isfamily":0},{"id":"52436520726","owner":"12639178@N07","secret":"de6471432e","server":"65535","farm":66,"title":"Kanada-Graugans","ispublic":1,"isfriend":0,"isfamily":0},{"id":"52420623399","owner":"41798562@N07","secret":"500d9e32a6","server":"65535","farm":66,"title":"Presumed Greylag Goose (Anser anser) X Canada Goose (Branta canadensis)","ispublic":1,"isfriend":0,"isfamily":0},{"id":"52418007897","owner":"12639178@N07","secret":"31c45c9b64","server":"65535","farm":66,"title":"Graugans x Kanadagans (Anser anser x Branta canadensis)","ispublic":1,"isfriend":0,"isfamily":0},{"id":"52418459746","owner":"12639178@N07","secret":"6ac4a28ff6","server":"65535","farm":66,"title":"Graugans x Kanadagans (Anser anser x Branta canadensis)","ispublic":1,"isfriend":0,"isfamily":0},{"id":"52412591516","owner":"12639178@N07","secret":"efd37a8b9c","server":"65535","farm":66,"title":"Grau-, Kanadagans-Hybrid","ispublic":1,"isfriend":0,"isfamily":0},{"id":"52384304597","owner":"12639178@N07","secret":"94842d1eae","server":"65535","farm":66,"title":"Graugans x Kanadagans Ladenburg","ispublic":1,"isfriend":0,"isfamily":0},{"id":"52346980652","owner":"12639178@N07","secret":"a687620cae","server":"65535","farm":66,"title":"Graugans x Kanadagans","ispublic":1,"isfriend":0,"isfamily":0},{"id":"52331983283","owner":"12639178@N07","secret":"5050a534e8","server":"65535","farm":66,"title":"Belegbild Hybridgans","ispublic":1,"isfriend":0,"isfamily":0},{"id":"52332174945","owner":"12639178@N07","secret":"437aace011","server":"65535","farm":66,"title":"Belegbild Hybridgans","ispublic":1,"isfriend":0,"isfamily":0},{"id":"52304537854","owner":"12639178@N07","secret":"cc9d0e4288","server":"65535","farm":66,"title":"Graugans x Kanadagans (Anser anser x Branta canadensis) (1)","ispublic":1,"isfriend":0,"isfamily":0},{"id":"52257824003","owner":"12639178@N07","secret":"748b344515","server":"65535","farm":66,"title":"Belegbild: Hybrid Graugans\/Kanadagans","ispublic":1,"isfriend":0,"isfamily":0},{"id":"52113258348","owner":"12639178@N07","secret":"f55c6dff74","server":"65535","farm":66,"title":"Der Nachwuchs der Hausganter + Kanadagans-Familie","ispublic":1,"isfriend":0,"isfamily":0},{"id":"52112773854","owner":"12639178@N07","secret":"f582d26ff8","server":"65535","farm":66,"title":"Eine ungew\u00f6hnliche Familie am Land","ispublic":1,"isfriend":0,"isfamily":0},{"id":"52111502637","owner":"12639178@N07","secret":"e659a246a0","server":"65535","farm":66,"title":"Eine ungew\u00f6hnliche Familie im Wasser","ispublic":1,"isfriend":0,"isfamily":0},{"id":"52108259593","owner":"12639178@N07","secret":"ab7d147ca7","server":"65535","farm":66,"title":"Hybridgans","ispublic":1,"isfriend":0,"isfamily":0},{"id":"52041894562","owner":"12639178@N07","secret":"1ca42ee03f","server":"65535","farm":66,"title":"Graugans x Kanadagans (Anser anser x Branta canadensis)","ispublic":1,"isfriend":0,"isfamily":0},{"id":"52043448730","owner":"12639178@N07","secret":"ea366513a1","server":"65535","farm":66,"title":"Graugans x Kanadagans (Anser anser x Branta canadensis)","ispublic":1,"isfriend":0,"isfamily":0},{"id":"52043448560","owner":"12639178@N07","secret":"34633cde0d","server":"65535","farm":66,"title":"Graugans x Kanadagans (Anser anser x Branta canadensis)","ispublic":1,"isfriend":0,"isfamily":0},{"id":"52043448250","owner":"12639178@N07","secret":"40b0f76cae","server":"65535","farm":66,"title":"Graugans x Kanadagans (Anser anser x Branta canadensis)","ispublic":1,"isfriend":0,"isfamily":0},{"id":"52025871100","owner":"12639178@N07","secret":"e578b4b211","server":"65535","farm":66,"title":"G\u00f6ssel (demzufolge auch Hybrid)","ispublic":1,"isfriend":0,"isfamily":0},{"id":"52024317512","owner":"12639178@N07","secret":"1475fdde55","server":"65535","farm":66,"title":"Graugans x Kanadagans mit Graugans u. Bl\u00e4ssgans (evtl. auch Hybrid)","ispublic":1,"isfriend":0,"isfamily":0},{"id":"52025391313","owner":"12639178@N07","secret":"6ac37fe0b1","server":"65535","farm":66,"title":"Graugans x Kanadagans Hybrid","ispublic":1,"isfriend":0,"isfamily":0},{"id":"52005197330","owner":"12639178@N07","secret":"aec95cbac8","server":"65535","farm":66,"title":"Graugans-Kanadagans-Hybrid mit Kanadagans","ispublic":1,"isfriend":0,"isfamily":0},{"id":"52004734198","owner":"12639178@N07","secret":"21c26bc588","server":"65535","farm":66,"title":"Graugans-Kanadagans-Hybrid mit Kanadagans","ispublic":1,"isfriend":0,"isfamily":0},{"id":"52004669496","owner":"12639178@N07","secret":"c9e61ba43a","server":"65535","farm":66,"title":"Graugans-Kanadagans-Hybrid mit Kanadagans","ispublic":1,"isfriend":0,"isfamily":0},{"id":"52003653102","owner":"12639178@N07","secret":"1f39f2135a","server":"65535","farm":66,"title":"Graugans-Kanadagans-Hybrid frisst am Deich","ispublic":1,"isfriend":0,"isfamily":0},{"id":"51970623017","owner":"12639178@N07","secret":"3ac686a33a","server":"65535","farm":66,"title":"Portrait eines h\u00fcbschen Hybriden","ispublic":1,"isfriend":0,"isfamily":0},{"id":"51957064401","owner":"12639178@N07","secret":"b434a83969","server":"65535","farm":66,"title":"Kanadagans-Hybride laut rufend","ispublic":1,"isfriend":0,"isfamily":0},{"id":"51945687453","owner":"12639178@N07","secret":"296588aba7","server":"65535","farm":66,"title":"Graugans x Kanadagans","ispublic":1,"isfriend":0,"isfamily":0},{"id":"51941489218","owner":"12639178@N07","secret":"909c59e86d","server":"65535","farm":66,"title":"Graugans x Kanadagans (Anser anser x Branta canadensis)","ispublic":1,"isfriend":0,"isfamily":0},{"id":"51940416562","owner":"12639178@N07","secret":"bb7ed63dfa","server":"65535","farm":66,"title":"Graugans x Kanadagans (Anser anser x Branta canadensis)","ispublic":1,"isfriend":0,"isfamily":0},{"id":"51941489113","owner":"12639178@N07","secret":"9d161c8421","server":"65535","farm":66,"title":"Graugans x Kanadagans (Anser anser x Branta canadensis)","ispublic":1,"isfriend":0,"isfamily":0}]},"stat":"ok"}