{"photos":{"page":1,"pages":6,"perpage":100,"total":585,"photo":[{"id":"52645164870","owner":"8013969@N03","secret":"bfb560293b","server":"65535","farm":66,"title":"Catharus minimus DFL lanc22-1","ispublic":1,"isfriend":0,"isfamily":0},{"id":"52644725956","owner":"8013969@N03","secret":"6b09a18980","server":"65535","farm":66,"title":"Catharus minimus DFL lanc22-2","ispublic":1,"isfriend":0,"isfamily":0},{"id":"52644215687","owner":"8013969@N03","secret":"ea6453a72a","server":"65535","farm":66,"title":"Catharus minimus DFL lanc22-3","ispublic":1,"isfriend":0,"isfamily":0},{"id":"52644214197","owner":"8013969@N03","secret":"0e60855852","server":"65535","farm":66,"title":"Catharus minimus DFL lanc22-4","ispublic":1,"isfriend":0,"isfamily":0},{"id":"52538569934","owner":"76617062@N08","secret":"4127047672","server":"65535","farm":66,"title":"1.25854 Grive \u00e0 joues grises \/ Catharus minimus aliciae \/ Gray-cheeked Thrush","ispublic":1,"isfriend":0,"isfamily":0},{"id":"52533254988","owner":"33610210@N05","secret":"fff0e5b964","server":"65535","farm":66,"title":"Gray-cheeked Thrush, Catharus minimus","ispublic":1,"isfriend":0,"isfamily":0},{"id":"52533254933","owner":"33610210@N05","secret":"bb37389da7","server":"65535","farm":66,"title":"Gray-cheeked Thrush, Catharus minimus","ispublic":1,"isfriend":0,"isfamily":0},{"id":"52532243822","owner":"33610210@N05","secret":"53bdcb9059","server":"65535","farm":66,"title":"Gray-cheeked Thrush, Catharus minimus","ispublic":1,"isfriend":0,"isfamily":0},{"id":"52504443990","owner":"76617062@N08","secret":"b873d48073","server":"65535","farm":66,"title":"1.25854 Grive \u00e0 joues grises \/ Catharus minimus aliciae \/ Gray-cheeked Thrush","ispublic":1,"isfriend":0,"isfamily":0},{"id":"52492244587","owner":"76617062@N08","secret":"97dd58188c","server":"65535","farm":66,"title":"1.25854 Grive \u00e0 joues grises \/ Catharus minimus aliciae \/ Gray-cheeked Thrush","ispublic":1,"isfriend":0,"isfamily":0},{"id":"52484630543","owner":"76617062@N08","secret":"3afa23f06e","server":"65535","farm":66,"title":"1.25854 Grive \u00e0 joues grises \/ Catharus minimus aliciae \/ Gray-cheeked Thrush","ispublic":1,"isfriend":0,"isfamily":0},{"id":"52420152510","owner":"193264646@N06","secret":"366104e380","server":"65535","farm":66,"title":"Grey-cheeked Thrush","ispublic":1,"isfriend":0,"isfamily":0},{"id":"52419990649","owner":"193264646@N06","secret":"5a24fe569a","server":"65535","farm":66,"title":"Grey-cheeked Thrush","ispublic":1,"isfriend":0,"isfamily":0},{"id":"52420221038","owner":"193264646@N06","secret":"29993cd215","server":"65535","farm":66,"title":"Grey-cheeked Thrush","ispublic":1,"isfriend":0,"isfamily":0},{"id":"52419196517","owner":"193264646@N06","secret":"1a2e0cf450","server":"65535","farm":66,"title":"Grey-cheeked Thrush","ispublic":1,"isfriend":0,"isfamily":0},{"id":"52420193368","owner":"193264646@N06","secret":"3d9172a98d","server":"65535","farm":66,"title":"Grey-cheeked Thrush","ispublic":1,"isfriend":0,"isfamily":0},{"id":"52376638902","owner":"190122705@N03","secret":"3801e9f019","server":"65535","farm":66,"title":"Grey-Cheeked Thrush","ispublic":1,"isfriend":0,"isfamily":0},{"id":"52253662108","owner":"67306066@N03","secret":"307437c2c7","server":"65535","farm":66,"title":"Gray-cheeked Thrush (Catharus minimus)","ispublic":1,"isfriend":0,"isfamily":0},{"id":"52253926479","owner":"67306066@N03","secret":"f45800f13d","server":"65535","farm":66,"title":"Gray-cheeked Thrush (Catharus minimus)","ispublic":1,"isfriend":0,"isfamily":0},{"id":"52236877901","owner":"67306066@N03","secret":"9cd5d64db4","server":"65535","farm":66,"title":"Gray-cheeked Thrush (Catharus minimus)","ispublic":1,"isfriend":0,"isfamily":0},{"id":"52235897797","owner":"67306066@N03","secret":"27a90f732e","server":"65535","farm":66,"title":"Gray-cheeked Thrush (Catharus minimus)","ispublic":1,"isfriend":0,"isfamily":0},{"id":"52228361617","owner":"65788177@N02","secret":"95c356b1fc","server":"65535","farm":66,"title":"Gray-cheeked Thrush","ispublic":1,"isfriend":0,"isfamily":0},{"id":"52212734341","owner":"65788177@N02","secret":"4b5674dfa6","server":"65535","farm":66,"title":"Gray-cheeked Thrush","ispublic":1,"isfriend":0,"isfamily":0},{"id":"52152820465","owner":"189723744@N02","secret":"51f718f76a","server":"65535","farm":66,"title":"GRAY CHEEKED THRUSH","ispublic":1,"isfriend":0,"isfamily":0},{"id":"52137282281","owner":"65632611@N00","secret":"1c6c6f9bff","server":"65535","farm":66,"title":"Central Park: Gray-cheeked Thrush C (4973)","ispublic":1,"isfriend":0,"isfamily":0},{"id":"52137520304","owner":"65632611@N00","secret":"d0ec6ea580","server":"65535","farm":66,"title":"Central Park: Gray-cheeked Thrush (4973)","ispublic":1,"isfriend":0,"isfamily":0},{"id":"52136255607","owner":"65632611@N00","secret":"666067f1fc","server":"65535","farm":66,"title":"Central Park: Gray-cheeked Thrush B (4973)","ispublic":1,"isfriend":0,"isfamily":0},{"id":"52119921931","owner":"42264328@N00","secret":"e8b6c772b1","server":"65535","farm":66,"title":"Shy thrush","ispublic":1,"isfriend":0,"isfamily":0},{"id":"52119921916","owner":"42264328@N00","secret":"ceed74427f","server":"65535","farm":66,"title":"Shy thrush","ispublic":1,"isfriend":0,"isfamily":0},{"id":"52120168529","owner":"42264328@N00","secret":"f13254ec3e","server":"65535","farm":66,"title":"Shy thrush","ispublic":1,"isfriend":0,"isfamily":0},{"id":"52101428077","owner":"120449047@N06","secret":"cdd5f09615","server":"65535","farm":66,"title":"Gray-cheeked Thrush","ispublic":1,"isfriend":0,"isfamily":0},{"id":"52081099045","owner":"13451078@N03","secret":"88ac92ec52","server":"65535","farm":66,"title":"Gray-cheeked Thrush (Catharus minimus)","ispublic":1,"isfriend":0,"isfamily":0},{"id":"52071814266","owner":"87000628@N06","secret":"4c2286361d","server":"65535","farm":66,"title":"Gray Cheeked Thrush. Oak Openings Metro park. Catharus minimus. Habitat:  Boreal forests, Tundra scrub, in migration woodlands.","ispublic":1,"isfriend":0,"isfamily":0},{"id":"52063582578","owner":"29367844@N03","secret":"fa489a5f14","server":"65535","farm":66,"title":"Gray-Cheeked or Bicknell's Thrush?","ispublic":1,"isfriend":0,"isfamily":0},{"id":"52049800058","owner":"79666906@N05","secret":"d054be017a","server":"65535","farm":66,"title":"Gray-cheeked Thrush","ispublic":1,"isfriend":0,"isfamily":0},{"id":"52038653673","owner":"130482037@N02","secret":"d6eb24ba7f","server":"65535","farm":66,"title":"Gray-checked Thrush (Catharus minimus) - - Jefferson County, TX\/04","ispublic":1,"isfriend":0,"isfamily":0},{"id":"51793278275","owner":"186498599@N02","secret":"a24c278b38","server":"65535","farm":66,"title":"Gray-Cheeked Thrush 3 - Catharus Minimus","ispublic":1,"isfriend":0,"isfamily":0},{"id":"51637721817","owner":"99208129@N08","secret":"6a34b0dffe","server":"65535","farm":66,"title":"Catharus minimus \/ Gray-cheeked Thrush","ispublic":1,"isfriend":0,"isfamily":0},{"id":"51639403325","owner":"99208129@N08","secret":"1fed1437d3","server":"65535","farm":66,"title":"Catharus minimus \/ Gray-cheeked Thrush","ispublic":1,"isfriend":0,"isfamily":0},{"id":"51638550581","owner":"99208129@N08","secret":"b7e6ac0077","server":"65535","farm":66,"title":"Catharus minimus \/ Gray-cheeked Thrush","ispublic":1,"isfriend":0,"isfamily":0},{"id":"51592626779","owner":"76617062@N08","secret":"fab6d372c5","server":"65535","farm":66,"title":"1.25854 Grive \u00e0 joues grises \/ Catharus minimus aliciae \/ Gray-cheeked Thrush","ispublic":1,"isfriend":0,"isfamily":0},{"id":"51591917846","owner":"76617062@N08","secret":"04ba653daa","server":"65535","farm":66,"title":"1.25854 Grive \u00e0 joues grises \/ Catharus minimus aliciae \/ Gray-cheeked Thrush","ispublic":1,"isfriend":0,"isfamily":0},{"id":"51554905189","owner":"76617062@N08","secret":"fcc45f6d03","server":"65535","farm":66,"title":"1.25854 Grive \u00e0 joues grises \/ Catharus minimus aliciae \/ Gray-cheeked Thrush","ispublic":1,"isfriend":0,"isfamily":0},{"id":"51538050802","owner":"11295713@N00","secret":"254398186f","server":"65535","farm":66,"title":"Gray-cheeked Thrush (Catharus minimus)_1","ispublic":1,"isfriend":0,"isfamily":0},{"id":"51539763940","owner":"11295713@N00","secret":"b91879e306","server":"65535","farm":66,"title":"Gray-cheeked Thrush (Catharus minimus)","ispublic":1,"isfriend":0,"isfamily":0},{"id":"51516819071","owner":"76617062@N08","secret":"5aa9afc331","server":"65535","farm":66,"title":"1.25854 Grive \u00e0 joues grises \/ Catharus minimus aliciae \/ Gray-cheeked Thrush","ispublic":1,"isfriend":0,"isfamily":0},{"id":"51511324691","owner":"184155060@N04","secret":"430649c390","server":"65535","farm":66,"title":"27222 Grive \u00e0 joues grises 3 \/ Catharus minimus aliciae \/ Gray-cheeked Thrush","ispublic":1,"isfriend":0,"isfamily":0},{"id":"51512032394","owner":"184155060@N04","secret":"50c32eae57","server":"65535","farm":66,"title":"27222 Grive \u00e0 joues grises 4 \/ Catharus minimus aliciae \/ Gray-cheeked Thrush","ispublic":1,"isfriend":0,"isfamily":0},{"id":"51508821958","owner":"76617062@N08","secret":"2ea9f42a29","server":"65535","farm":66,"title":"1.25854 Grive \u00e0 joues grises \/ Catharus minimus aliciae \/ Gray-cheeked Thrush","ispublic":1,"isfriend":0,"isfamily":0},{"id":"51421648922","owner":"56902740@N06","secret":"3d643af18d","server":"65535","farm":66,"title":"Gray-cheeked Thrush","ispublic":1,"isfriend":0,"isfamily":0},{"id":"51396840469","owner":"67306066@N03","secret":"1dcb8374d5","server":"65535","farm":66,"title":"Gray-cheeked Thrush (Catharus minimus)","ispublic":1,"isfriend":0,"isfamily":0},{"id":"51394927142","owner":"67306066@N03","secret":"b1ed00d0e3","server":"65535","farm":66,"title":"Gray-cheeked Thrush (Catharus minimus)","ispublic":1,"isfriend":0,"isfamily":0},{"id":"51361969742","owner":"12941907@N03","secret":"ccef0b599f","server":"65535","farm":66,"title":"Gray-cheeked Thrush","ispublic":1,"isfriend":0,"isfamily":0},{"id":"51285499796","owner":"96568982@N06","secret":"1762ce63f8","server":"65535","farm":66,"title":"THRUSH, Gray-cheeked","ispublic":1,"isfriend":0,"isfamily":0},{"id":"51284542139","owner":"29170368@N03","secret":"0b1f0d892e","server":"65535","farm":66,"title":"Gray-cheeked Thrush","ispublic":1,"isfriend":0,"isfamily":0},{"id":"51282978673","owner":"25899079@N08","secret":"720c515d90","server":"65535","farm":66,"title":"Gray-cheeked Thrush (7899)","ispublic":1,"isfriend":0,"isfamily":0},{"id":"51275649009","owner":"25899079@N08","secret":"36cc19bb7a","server":"65535","farm":66,"title":"Gray-cheeked Thrush (8006)","ispublic":1,"isfriend":0,"isfamily":0},{"id":"51269660622","owner":"21702714@N06","secret":"d7bcd7872c","server":"65535","farm":66,"title":"Gray-cheeked Thrush","ispublic":1,"isfriend":0,"isfamily":0},{"id":"51211704792","owner":"64557331@N04","secret":"6cbcb11728","server":"65535","farm":66,"title":"Grey-Cheeked Thrush - (Catharus minimus)_04302021","ispublic":1,"isfriend":0,"isfamily":0},{"id":"51213479385","owner":"64557331@N04","secret":"400e0e4194","server":"65535","farm":66,"title":"Grey-Cheeked Thrush_(Catharus minimus)_04302021_River_Road_Park","ispublic":1,"isfriend":0,"isfamily":0},{"id":"51197613427","owner":"56983940@N06","secret":"f4f7cfaeda","server":"65535","farm":66,"title":"Gray-cheeked Thrush","ispublic":1,"isfriend":0,"isfamily":0},{"id":"51180227844","owner":"46939390@N07","secret":"dee3be0b4a","server":"65535","farm":66,"title":"Gray-cheeked Thrush - Catharus minimus","ispublic":1,"isfriend":0,"isfamily":0},{"id":"51176568825","owner":"67306066@N03","secret":"5a601c8b0c","server":"65535","farm":66,"title":"Gray-cheeked Thrush (Catharus minimus)","ispublic":1,"isfriend":0,"isfamily":0},{"id":"51169542064","owner":"13451078@N03","secret":"b861e6c2a8","server":"65535","farm":66,"title":"Gray-cheeked Thrush ( Catharus minimus)","ispublic":1,"isfriend":0,"isfamily":0},{"id":"51154347161","owner":"151381692@N04","secret":"ed3067599d","server":"65535","farm":66,"title":"Gray-cheeked Thrush (Catharus minimus)","ispublic":1,"isfriend":0,"isfamily":0},{"id":"51146541852","owner":"67164820@N06","secret":"ccaa780576","server":"65535","farm":66,"title":"thrush 1","ispublic":1,"isfriend":0,"isfamily":0},{"id":"51147444703","owner":"67164820@N06","secret":"43a3c5ac2d","server":"65535","farm":66,"title":"thrush 2","ispublic":1,"isfriend":0,"isfamily":0},{"id":"51072078016","owner":"186211059@N06","secret":"23c25c7ffe","server":"65535","farm":66,"title":"Grey-cheeked Thrush","ispublic":1,"isfriend":0,"isfamily":0},{"id":"51072169642","owner":"186211059@N06","secret":"b5544785f7","server":"65535","farm":66,"title":"Grey-cheeked Thrush","ispublic":1,"isfriend":0,"isfamily":0},{"id":"51057926328","owner":"41643989@N04","secret":"5d82fd8c1b","server":"65535","farm":66,"title":"Gray-cheeked Thrush - Catharus minimus - Hamilton County, Ohio, USA - May 12, 2020","ispublic":1,"isfriend":0,"isfamily":0},{"id":"51058647611","owner":"41643989@N04","secret":"c038f2c9e7","server":"65535","farm":66,"title":"Gray-cheeked Thrush - Catharus minimus - Hamilton County, Ohio, USA - May 12, 2020","ispublic":1,"isfriend":0,"isfamily":0},{"id":"51058647631","owner":"41643989@N04","secret":"2d3ec28d59","server":"65535","farm":66,"title":"Gray-cheeked Thrush - Catharus minimus - Hamilton County, Ohio, USA - May 12, 2020","ispublic":1,"isfriend":0,"isfamily":0},{"id":"51057926283","owner":"41643989@N04","secret":"38c4628e5d","server":"65535","farm":66,"title":"Gray-cheeked Thrush - Catharus minimus - Hamilton County, Ohio, USA - May 12, 2020","ispublic":1,"isfriend":0,"isfamily":0},{"id":"51058647576","owner":"41643989@N04","secret":"06b96cf110","server":"65535","farm":66,"title":"Gray-cheeked Thrush - Catharus minimus - Hamilton County, Ohio, USA - May 12, 2020","ispublic":1,"isfriend":0,"isfamily":0},{"id":"51058647596","owner":"41643989@N04","secret":"ec315bd16c","server":"65535","farm":66,"title":"Gray-cheeked Thrush - Catharus minimus - Hamilton County, Ohio, USA - May 12, 2020","ispublic":1,"isfriend":0,"isfamily":0},{"id":"51023313437","owner":"61021753@N02","secret":"bc9a86a74a","server":"65535","farm":66,"title":"n588_w1150","ispublic":1,"isfriend":0,"isfamily":0},{"id":"51001873956","owner":"88537019@N00","secret":"c77c2783db","server":"65535","farm":66,"title":"Gray-cheeked Thrush (Catharus minimus)","ispublic":1,"isfriend":0,"isfamily":0},{"id":"50943914236","owner":"88537019@N00","secret":"28539af51d","server":"65535","farm":66,"title":"Gray-cheeked Thrush (Catharus minimus)","ispublic":1,"isfriend":0,"isfamily":0},{"id":"50919805607","owner":"119787485@N07","secret":"1fc55f3c8e","server":"65535","farm":66,"title":"Gray-cheeked Thrush (Catharus minimus minimus) - 20110722-06","ispublic":1,"isfriend":0,"isfamily":0},{"id":"50868080466","owner":"21702714@N06","secret":"19702d3e37","server":"65535","farm":66,"title":"Gray-cheeked Thrush","ispublic":1,"isfriend":0,"isfamily":0},{"id":"50773288112","owner":"37493716@N02","secret":"76ced634a2","server":"65535","farm":66,"title":"13.Catharus minimus","ispublic":1,"isfriend":0,"isfamily":0},{"id":"50707064953","owner":"21702714@N06","secret":"30faee3d7f","server":"65535","farm":66,"title":"Gray-cheeked Thrush","ispublic":1,"isfriend":0,"isfamily":0},{"id":"50577515652","owner":"84175980@N00","secret":"07380b2e1f","server":"65535","farm":66,"title":"20201009 Gray-cheeked Thrush (Catharus minimus)","ispublic":1,"isfriend":0,"isfamily":0},{"id":"50563326871","owner":"61021753@N02","secret":"02bfa4ef57","server":"65535","farm":66,"title":"n42_w1150","ispublic":1,"isfriend":0,"isfamily":0},{"id":"50527322948","owner":"32406637@N06","secret":"8be25f3a4f","server":"65535","farm":66,"title":"gray-cheeked thrush 2020.10.7 twin lakes-","ispublic":1,"isfriend":0,"isfamily":0},{"id":"50528205492","owner":"32406637@N06","secret":"08b0a5cca0","server":"65535","farm":66,"title":"gray-cheeked thrush 2020.10.7 twin lakes-","ispublic":1,"isfriend":0,"isfamily":0},{"id":"50498949581","owner":"165841515@N03","secret":"786f0e3056","server":"65535","farm":66,"title":"Grive \u00e0 joues grises \/ Grey-cheeked Trush \/ (Catharus minimus)","ispublic":1,"isfriend":0,"isfamily":0},{"id":"50461788076","owner":"72765183@N07","secret":"aae9080c74","server":"65535","farm":66,"title":"Gray-cheeked Thrush (Catharus minimus), Williamson County, Tennessee","ispublic":1,"isfriend":0,"isfamily":0},{"id":"50447822378","owner":"189542651@N03","secret":"edc9357388","server":"65535","farm":66,"title":"grey-cheeked thrush (Catharus minimus)","ispublic":1,"isfriend":0,"isfamily":0},{"id":"50420481436","owner":"49114357@N08","secret":"ee68232775","server":"65535","farm":66,"title":"Gray-cheeked Thrush","ispublic":1,"isfriend":0,"isfamily":0},{"id":"50415849808","owner":"61241315@N00","secret":"e24e98b168","server":"65535","farm":66,"title":"Gray-cheeked Thrush_0882_00001-001","ispublic":1,"isfriend":0,"isfamily":0},{"id":"50415849643","owner":"61241315@N00","secret":"e00156f029","server":"65535","farm":66,"title":"Gray-cheeked Thrush_0873_00001-001","ispublic":1,"isfriend":0,"isfamily":0},{"id":"50416541536","owner":"61241315@N00","secret":"794645a34b","server":"65535","farm":66,"title":"Gray-cheeked Thrush_0880_00001-001","ispublic":1,"isfriend":0,"isfamily":0},{"id":"50415849423","owner":"61241315@N00","secret":"70546a9638","server":"65535","farm":66,"title":"Gray-cheeked Thrush_0870_00001-001","ispublic":1,"isfriend":0,"isfamily":0},{"id":"50413063661","owner":"61241315@N00","secret":"1d16970b66","server":"0","farm":0,"title":"Gray-cheeked Thrush_6977.mp4","ispublic":1,"isfriend":0,"isfamily":0},{"id":"50413219037","owner":"61241315@N00","secret":"f1ba3fa9f0","server":"65535","farm":66,"title":"Gray-cheeked Thrush_N6974","ispublic":1,"isfriend":0,"isfamily":0},{"id":"50399978926","owner":"54514385@N06","secret":"97d995821c","server":"65535","farm":66,"title":"Gray-cheeked Thrush -- Catharus minimus","ispublic":1,"isfriend":0,"isfamily":0},{"id":"50393617876","owner":"54514385@N06","secret":"1294499c9f","server":"65535","farm":66,"title":"Three Swainson's, a gray-cheeked & a robin","ispublic":1,"isfriend":0,"isfamily":0},{"id":"50528203347","owner":"32406637@N06","secret":"0c2314b08b","server":"65535","farm":66,"title":"gray-cheeked thrush 2020.10.7 twin lakes-","ispublic":1,"isfriend":0,"isfamily":0},{"id":"50416704872","owner":"61241315@N00","secret":"8c6ba572fe","server":"65535","farm":66,"title":"Gray-cheeked Thrush_0878_00001-001","ispublic":1,"isfriend":0,"isfamily":0}]},"stat":"ok"}