{"photos":{"page":1,"pages":3,"perpage":100,"total":220,"photo":[{"id":"52737100171","owner":"12240837@N08","secret":"30499a49b9","server":"65535","farm":66,"title":"Grey Peacock-pheasant (polyplectron bicalcaratum)","ispublic":1,"isfriend":0,"isfamily":0},{"id":"52737566833","owner":"12240837@N08","secret":"5461e37680","server":"65535","farm":66,"title":"Grey Peacock-pheasant (polyplectron bicalcaratum)","ispublic":1,"isfriend":0,"isfamily":0},{"id":"52711175574","owner":"12240837@N08","secret":"bcf5e65bf9","server":"65535","farm":66,"title":"Grey Peacock-pheasant (polyplectron bicalcaratum)","ispublic":1,"isfriend":0,"isfamily":0},{"id":"52524602923","owner":"75958878@N04","secret":"bed7da95bc","server":"65535","farm":66,"title":"Polyplectron bicalcaratum","ispublic":1,"isfriend":0,"isfamily":0},{"id":"51263613682","owner":"61021753@N02","secret":"2062b05f13","server":"65535","farm":66,"title":"n161_w1150","ispublic":1,"isfriend":0,"isfamily":0},{"id":"51249366299","owner":"98682992@N00","secret":"0942596890","server":"65535","farm":66,"title":"HKOH2679","ispublic":1,"isfriend":0,"isfamily":0},{"id":"51222763166","owner":"61021753@N02","secret":"c1f7c6308f","server":"65535","farm":66,"title":"n93_w1150","ispublic":1,"isfriend":0,"isfamily":0},{"id":"50848556907","owner":"149130852@N05","secret":"6a6a2b34c9","server":"65535","farm":66,"title":"Fais\u00e1n espolonero chinquis","ispublic":1,"isfriend":0,"isfamily":0},{"id":"50563482352","owner":"61021753@N02","secret":"d7e22e1d0d","server":"65535","farm":66,"title":"n265_w1150","ispublic":1,"isfriend":0,"isfamily":0},{"id":"50563346776","owner":"61021753@N02","secret":"019a3e864b","server":"65535","farm":66,"title":"n253_w1150","ispublic":1,"isfriend":0,"isfamily":0},{"id":"50158535067","owner":"98682992@N00","secret":"ddab5c939b","server":"65535","farm":66,"title":"HKOH7598b","ispublic":1,"isfriend":0,"isfamily":0},{"id":"49950391256","owner":"182959673@N06","secret":"84971c5002","server":"65535","farm":66,"title":"Grey Peacock-pheasant - Mae Wong National Park, Thailand","ispublic":1,"isfriend":0,"isfamily":0},{"id":"49356731506","owner":"98682992@N00","secret":"d80b7ba803","server":"65535","farm":66,"title":"HKOH0157","ispublic":1,"isfriend":0,"isfamily":0},{"id":"49292888187","owner":"98682992@N00","secret":"dc76a99c34","server":"65535","farm":66,"title":"HKOH4234","ispublic":1,"isfriend":0,"isfamily":0},{"id":"49280573287","owner":"98682992@N00","secret":"c4f09f133e","server":"65535","farm":66,"title":"HKOH4442","ispublic":1,"isfriend":0,"isfamily":0},{"id":"46619723481","owner":"98169970@N00","secret":"f0a7202ff0","server":"4863","farm":5,"title":"grey peacock-pheasant (polyplectron bicalcaratum)","ispublic":1,"isfriend":0,"isfamily":0},{"id":"46567626312","owner":"98169970@N00","secret":"cbc8622e17","server":"4861","farm":5,"title":"grey peacock-pheasant (polyplectron bicalcaratum)","ispublic":1,"isfriend":0,"isfamily":0},{"id":"39654803583","owner":"98169970@N00","secret":"c61cce96d5","server":"4858","farm":5,"title":"grey peacock-pheasant (polyplectron bicalcaratum)","ispublic":1,"isfriend":0,"isfamily":0},{"id":"46567610112","owner":"98169970@N00","secret":"22b606d8c5","server":"7856","farm":8,"title":"grey peacock-pheasant - female (polyplectron bicalcaratum)","ispublic":1,"isfriend":0,"isfamily":0},{"id":"45895659044","owner":"98169970@N00","secret":"002ae549d1","server":"7868","farm":8,"title":"grey peacock-pheasant (polyplectron bicalcaratum)","ispublic":1,"isfriend":0,"isfamily":0},{"id":"39654779103","owner":"98169970@N00","secret":"6b709db717","server":"7807","farm":8,"title":"grey peacock-pheasant (polyplectron bicalcaratum)","ispublic":1,"isfriend":0,"isfamily":0},{"id":"39654770143","owner":"98169970@N00","secret":"160672aca6","server":"7886","farm":8,"title":"grey peacock-pheasant (polyplectron bicalcaratum)","ispublic":1,"isfriend":0,"isfamily":0},{"id":"29319583907","owner":"44635421@N06","secret":"dd74b24495","server":"1855","farm":2,"title":"Grey peacock-pheasant \u2642 (Polyplectron bicalcaratum) \u7070\u5b54\u96c0\u96c9 hu\u012b k\u01d2ng qu\u00e8 zh\u00ec","ispublic":1,"isfriend":0,"isfamily":0},{"id":"41441968624","owner":"33816646@N06","secret":"bcecf3fff0","server":"974","farm":1,"title":"Grey Peacock-Pheasant (Polyplectron bicalcaratum), Yinjiang, Yunnan CN, 20180508-110.jpg","ispublic":1,"isfriend":0,"isfamily":0},{"id":"41441964874","owner":"33816646@N06","secret":"ac9de02a5c","server":"912","farm":1,"title":"Grey Peacock-Pheasant (Polyplectron bicalcaratum), Yinjiang, Yunnan CN, 20180508-106.jpg","ispublic":1,"isfriend":0,"isfamily":0},{"id":"41708066681","owner":"61316002@N02","secret":"f55159e4c1","server":"946","farm":1,"title":"GRYPEAPHE F bicalcaratum 0084","ispublic":1,"isfriend":0,"isfamily":0},{"id":"39900752210","owner":"61316002@N02","secret":"af51719d8f","server":"830","farm":1,"title":"GRYPEAPHE bicalcaratum 0144","ispublic":1,"isfriend":0,"isfamily":0},{"id":"33667824000","owner":"63270671@N03","secret":"57ff436609","server":"2854","farm":3,"title":"Grey Peacock Pheasant","ispublic":1,"isfriend":0,"isfamily":0},{"id":"33660297076","owner":"43611064@N04","secret":"4c0b6aab92","server":"3952","farm":4,"title":"Lophura nycthemera and Polyplectron bicalcaratum, Hainan, Jianfengling Forest Dynamics Site","ispublic":1,"isfriend":0,"isfamily":0},{"id":"30327164604","owner":"7271122@N02","secret":"7fefe562b5","server":"5495","farm":6,"title":"Grey Peacock-pheasant","ispublic":1,"isfriend":0,"isfamily":0},{"id":"28633240976","owner":"36542741@N03","secret":"8806cf2896","server":"7760","farm":8,"title":"\u7070\u5b54\u96c0\u96c9 Grey peacock-pheasant","ispublic":1,"isfriend":0,"isfamily":0},{"id":"28559023372","owner":"36542741@N03","secret":"442708150f","server":"8404","farm":9,"title":"\u7070\u5b54\u96c0\u96c9 Grey peacock-pheasant","ispublic":1,"isfriend":0,"isfamily":0},{"id":"27403886011","owner":"60569149@N02","secret":"5e082c5109","server":"7288","farm":8,"title":"grey peacock-pheasant","ispublic":1,"isfriend":0,"isfamily":0},{"id":"27303168062","owner":"36083098@N02","secret":"236e8731ae","server":"7295","farm":8,"title":"Polyplectron bicalcaratum","ispublic":1,"isfriend":0,"isfamily":0},{"id":"25798545390","owner":"32141763@N06","secret":"50c4b8b049","server":"1613","farm":2,"title":"Polyplectron bicalcaratum (Grauer Pfaufasan)","ispublic":1,"isfriend":0,"isfamily":0},{"id":"25857376312","owner":"26931849@N04","secret":"a1a32c205f","server":"1636","farm":2,"title":"\u0e19\u0e01\u0e41\u0e27\u0e48\u0e19 Grey Peacock-Pheasant (female) - Polyplectron bicalcaratum","ispublic":1,"isfriend":0,"isfamily":0},{"id":"24485972689","owner":"61860520@N07","secret":"851561af6c","server":"1525","farm":2,"title":"_SYT1038_\u7070\u5b54\u96c0\u96c9","ispublic":1,"isfriend":0,"isfamily":0},{"id":"24485970779","owner":"61860520@N07","secret":"c4b29d81d8","server":"1571","farm":2,"title":"_SYT1215_\u7070\u5b54\u96c0\u96c9","ispublic":1,"isfriend":0,"isfamily":0},{"id":"24621850015","owner":"26931849@N04","secret":"bc6c09d1d8","server":"1658","farm":2,"title":"\u0e19\u0e01\u0e41\u0e27\u0e48\u0e19 Grey Peacock-Pheasant (male) - Polyplectron bicalcaratum","ispublic":1,"isfriend":0,"isfamily":0},{"id":"21295078133","owner":"90433925@N02","secret":"9bc5124324","server":"5729","farm":6,"title":"Grey Peacock Pheasant - Polyplectron bicalcaratum","ispublic":1,"isfriend":0,"isfamily":0},{"id":"21729268379","owner":"90433925@N02","secret":"5d0e3d9d9d","server":"5721","farm":6,"title":"Grey Peacock Pheasant - Polyplectron bicalcaratum","ispublic":1,"isfriend":0,"isfamily":0},{"id":"21293214943","owner":"90433925@N02","secret":"0fe0ec4910","server":"572","farm":1,"title":"Grey Peacock Pheasant - Polyplectron bicalcaratum","ispublic":1,"isfriend":0,"isfamily":0},{"id":"21724218820","owner":"90433925@N02","secret":"cbb8403ffc","server":"5750","farm":6,"title":"Grey Peacock Pheasant - Polyplectron bicalcaratum","ispublic":1,"isfriend":0,"isfamily":0},{"id":"21288741013","owner":"90433925@N02","secret":"f5e5d299cd","server":"738","farm":1,"title":"Grey Peacock Pheasant - Polyplectron bicalcaratum","ispublic":1,"isfriend":0,"isfamily":0},{"id":"16902964321","owner":"130153263@N04","secret":"aa187d269b","server":"7281","farm":8,"title":"Grey Peacock-pheasant (female)","ispublic":1,"isfriend":0,"isfamily":0},{"id":"15891652029","owner":"64074416@N06","secret":"76908248c8","server":"7512","farm":8,"title":"Male Grey Peacock Pheasant","ispublic":1,"isfriend":0,"isfamily":0},{"id":"12901001713","owner":"83761055@N08","secret":"ef821b02db","server":"7362","farm":8,"title":"Paarlemoer! (Grey Peacock-Pheasant)","ispublic":1,"isfriend":0,"isfamily":0},{"id":"10054016703","owner":"61021753@N02","secret":"c6cec8dbb3","server":"5511","farm":6,"title":"n126_w1150","ispublic":1,"isfriend":0,"isfamily":0},{"id":"8570967987","owner":"59453980@N08","secret":"2c118dcfd8","server":"8510","farm":9,"title":"Grey Peacock-Pheasant (Polyplectron bicalcaratum) Female","ispublic":1,"isfriend":0,"isfamily":0},{"id":"52494285306","owner":"171333438@N08","secret":"8efb72f5c8","server":"65535","farm":66,"title":"\u00c9peronnier chinquis (Polyplectron bicalcaratum)","ispublic":1,"isfriend":0,"isfamily":0},{"id":"50193665371","owner":"149359845@N08","secret":"a33067a0e3","server":"65535","farm":66,"title":"Grey peacock-pheasant, Polyplectron bicalcaratum","ispublic":1,"isfriend":0,"isfamily":0},{"id":"49561701153","owner":"55663585@N00","secret":"a2b0d77993","server":"65535","farm":66,"title":"Grey Peacock-pheasant","ispublic":1,"isfriend":0,"isfamily":0},{"id":"48796828048","owner":"183419419@N02","secret":"d64c1af99b","server":"65535","farm":66,"title":"71170227_2441719662573843_8641277369790758912_n","ispublic":1,"isfriend":0,"isfamily":0},{"id":"48076172702","owner":"69947563@N07","secret":"1da9eb85d8","server":"65535","farm":66,"title":"Grey Peacock-pheasant - Yunnan Province, China","ispublic":1,"isfriend":0,"isfamily":0},{"id":"47990287426","owner":"69947563@N07","secret":"fe6559e7e4","server":"65535","farm":66,"title":"Grey Peacock-Pheasant - Yunnan Province, China","ispublic":1,"isfriend":0,"isfamily":0},{"id":"47990178317","owner":"69947563@N07","secret":"cdbd3c5eb4","server":"65535","farm":66,"title":"Grey Peacock-pheasant - Yunnan Province, China","ispublic":1,"isfriend":0,"isfamily":0},{"id":"47990169362","owner":"69947563@N07","secret":"d5953e66fe","server":"65535","farm":66,"title":"Grey Peacock-pheasant - Yunnan Province, China","ispublic":1,"isfriend":0,"isfamily":0},{"id":"33241687318","owner":"90461861@N04","secret":"18c5d809b0","server":"7821","farm":8,"title":"Ba\u017eant pav\u00ed (Polyplectron bicalcaratum)","ispublic":1,"isfriend":0,"isfamily":0},{"id":"44091464624","owner":"13562200@N07","secret":"2828088664","server":"1863","farm":2,"title":"Grey peacock pheasant","ispublic":1,"isfriend":0,"isfamily":0},{"id":"38120711744","owner":"36917655@N08","secret":"9e8ae11353","server":"4533","farm":5,"title":"Grey Peacock Pheasant","ispublic":1,"isfriend":0,"isfamily":0},{"id":"36975148860","owner":"36917655@N08","secret":"225360f9b4","server":"4385","farm":5,"title":"Grey peacock pheasant","ispublic":1,"isfriend":0,"isfamily":0},{"id":"37182848366","owner":"36917655@N08","secret":"bb80e67262","server":"4416","farm":5,"title":"Grey peacock pheasant","ispublic":1,"isfriend":0,"isfamily":0},{"id":"35680554550","owner":"36083098@N02","secret":"89bbb7d017","server":"4322","farm":5,"title":"Polyplectron bicalcaratum","ispublic":1,"isfriend":0,"isfamily":0},{"id":"31082954136","owner":"36083098@N02","secret":"186fe8475e","server":"5636","farm":6,"title":"Europa 2016 878","ispublic":1,"isfriend":0,"isfamily":0},{"id":"28572118255","owner":"15632944@N00","secret":"cb9b62d2b0","server":"8311","farm":9,"title":"Grey Peacock-Pheasant , Warsaw ZOO 05.07.2016","ispublic":1,"isfriend":0,"isfamily":0},{"id":"27082597640","owner":"67175584@N00","secret":"4d1a8793e2","server":"7713","farm":8,"title":"Grey peacock-pheasant","ispublic":1,"isfriend":0,"isfamily":0},{"id":"27357881595","owner":"67175584@N00","secret":"8d251bf97c","server":"7319","farm":8,"title":"Grey peacock-pheasant","ispublic":1,"isfriend":0,"isfamily":0},{"id":"27281245206","owner":"67175584@N00","secret":"00102e6404","server":"7240","farm":8,"title":"Grey peacock-pheasant","ispublic":1,"isfriend":0,"isfamily":0},{"id":"27014633751","owner":"26975978@N00","secret":"b03aebd63a","server":"7298","farm":8,"title":"The grey peacock-pheasant (Polyplectron bicalcaratum), also known as Burmese peacock-pheasant, is a large Asian member of the order Galliformes. It is the national bird of Myanmar.","ispublic":1,"isfriend":0,"isfamily":0},{"id":"19144379154","owner":"96137987@N08","secret":"c55f9ce5b4","server":"557","farm":1,"title":"Ba\u017eant pav\u00ed \u0161ed\u00fd (polyplectron bicalcaratum); ZOO a akv\u00e1rium Berl\u00edn, \u010dervenec 2015 \/ ZOO and aquarium Berlin, July 2015","ispublic":1,"isfriend":0,"isfamily":0},{"id":"19516505161","owner":"130153263@N04","secret":"cf139a27c4","server":"493","farm":1,"title":"Grey Peacock-pheasant (female)","ispublic":1,"isfriend":0,"isfamily":0},{"id":"19325799009","owner":"130153263@N04","secret":"f92d5154e6","server":"454","farm":1,"title":"Grey Peacock-pheasant (male)","ispublic":1,"isfriend":0,"isfamily":0},{"id":"18889798094","owner":"130153263@N04","secret":"82090ce1de","server":"461","farm":1,"title":"Grey Peacock-pheasant (male)","ispublic":1,"isfriend":0,"isfamily":0},{"id":"19486199256","owner":"130153263@N04","secret":"8d6bd52667","server":"329","farm":1,"title":"Grey Peacock-pheasant (male)","ispublic":1,"isfriend":0,"isfamily":0},{"id":"19324371558","owner":"130153263@N04","secret":"b36377029d","server":"378","farm":1,"title":"Grey Peacock-pheasant (male)","ispublic":1,"isfriend":0,"isfamily":0},{"id":"19324370818","owner":"130153263@N04","secret":"4e6f1d6b5a","server":"469","farm":1,"title":"Grey Peacock-pheasant (male)","ispublic":1,"isfriend":0,"isfamily":0},{"id":"19325796169","owner":"130153263@N04","secret":"ff1ecc0fb5","server":"499","farm":1,"title":"Grey Peacock-pheasant (female)","ispublic":1,"isfriend":0,"isfamily":0},{"id":"19486197296","owner":"130153263@N04","secret":"f28408ff0a","server":"372","farm":1,"title":"Grey Peacock-pheasant (male)","ispublic":1,"isfriend":0,"isfamily":0},{"id":"19324369378","owner":"130153263@N04","secret":"36112814f2","server":"387","farm":1,"title":"Grey Peacock-pheasant (female)","ispublic":1,"isfriend":0,"isfamily":0},{"id":"19227749732","owner":"37318278@N02","secret":"11b29b9afb","server":"272","farm":1,"title":"Grey Peacock Pheasant Birmingham Wildlife Conservation Park 250515","ispublic":1,"isfriend":0,"isfamily":0},{"id":"17088831169","owner":"130153263@N04","secret":"fd71782b6c","server":"7677","farm":8,"title":"Grey Peacock-pheasant (male)","ispublic":1,"isfriend":0,"isfamily":0},{"id":"16922404811","owner":"7200351@N08","secret":"5f227718ec","server":"8747","farm":9,"title":"Polyplectron bicalcaratum - female","ispublic":1,"isfriend":0,"isfamily":0},{"id":"16293956604","owner":"7200351@N08","secret":"5de00a0853","server":"7603","farm":8,"title":"Polyplectron bicalcaratum - female","ispublic":1,"isfriend":0,"isfamily":0},{"id":"16915329861","owner":"7200351@N08","secret":"786f198803","server":"7598","farm":8,"title":"Polyplectron bicalcaratum - female","ispublic":1,"isfriend":0,"isfamily":0},{"id":"16296328373","owner":"7200351@N08","secret":"142a4ea0e1","server":"8713","farm":9,"title":"Polyplectron bicalcaratum - female","ispublic":1,"isfriend":0,"isfamily":0},{"id":"16916340995","owner":"7200351@N08","secret":"bd7cddd954","server":"8718","farm":9,"title":"Polyplectron bicalcaratum - female","ispublic":1,"isfriend":0,"isfamily":0},{"id":"16706826600","owner":"7200351@N08","secret":"cd1662f529","server":"7652","farm":8,"title":"Polyplectron bicalcaratum - female","ispublic":1,"isfriend":0,"isfamily":0},{"id":"16686907567","owner":"7200351@N08","secret":"12803d2de9","server":"8689","farm":9,"title":"Polyplectron bicalcaratum - female","ispublic":1,"isfriend":0,"isfamily":0},{"id":"15486164674","owner":"64074416@N06","secret":"1b9a8cccc8","server":"7525","farm":8,"title":"Female Grey Peacock Pheasant","ispublic":1,"isfriend":0,"isfamily":0},{"id":"15694333589","owner":"104988466@N08","secret":"8414c4a355","server":"8650","farm":9,"title":"01. \u00c9peronnier chinquis - Polyplectron bicalcaratum - Grey Peacock-Pheasant","ispublic":1,"isfriend":0,"isfamily":0},{"id":"15290895171","owner":"127858540@N03","secret":"73d7dcfa47","server":"3843","farm":4,"title":"Polyplectron bicalcaratum","ispublic":1,"isfriend":0,"isfamily":0},{"id":"12908672024","owner":"40371185@N04","secret":"409f8ebf14","server":"3744","farm":4,"title":"Pauwfazant","ispublic":1,"isfriend":0,"isfamily":0},{"id":"12908237035","owner":"40371185@N04","secret":"051a8ecc03","server":"3760","farm":4,"title":"Pauwfazant","ispublic":1,"isfriend":0,"isfamily":0},{"id":"12908320543","owner":"40371185@N04","secret":"4bea55794b","server":"2817","farm":3,"title":"Pauwfazant","ispublic":1,"isfriend":0,"isfamily":0},{"id":"9568754895","owner":"86153915@N08","secret":"69c5a7859c","server":"3764","farm":4,"title":"Grey Peacock-Pheasant","ispublic":1,"isfriend":0,"isfamily":0},{"id":"9209990748","owner":"67175584@N00","secret":"7b215b3a3d","server":"7442","farm":8,"title":"Grey peacock-pheasant","ispublic":1,"isfriend":0,"isfamily":0},{"id":"8576976960","owner":"9487855@N05","secret":"ec87475c20","server":"8525","farm":9,"title":"grey peacock pheasant 20130304-_NG_0427","ispublic":1,"isfriend":0,"isfamily":0},{"id":"8576933558","owner":"9487855@N05","secret":"24998d7b92","server":"8380","farm":9,"title":"grey peacock pheasant SNG-0428.jpg","ispublic":1,"isfriend":0,"isfamily":0},{"id":"8575835471","owner":"9487855@N05","secret":"cb15aa78e3","server":"8233","farm":9,"title":"grey peacock pheasant SNG-0391.jpg","ispublic":1,"isfriend":0,"isfamily":0},{"id":"8575834937","owner":"9487855@N05","secret":"07c451c5e1","server":"8383","farm":9,"title":"grey peacock pheasant SNG-0264.jpg","ispublic":1,"isfriend":0,"isfamily":0}]},"stat":"ok"}