{"photos":{"page":1,"pages":3,"perpage":100,"total":289,"photo":[{"id":"52771202841","owner":"10577082@N05","secret":"0ddf447685","server":"65535","farm":66,"title":"Gray-breasted Mountain Toucan","ispublic":1,"isfriend":0,"isfamily":0},{"id":"52771616325","owner":"10577082@N05","secret":"675e3c397c","server":"65535","farm":66,"title":"Gray-breasted Mountain Toucan","ispublic":1,"isfriend":0,"isfamily":0},{"id":"52752688969","owner":"61316002@N02","secret":"94f53daf42","server":"65535","farm":66,"title":"GRYBREMOUTOU hypoglauca 7069","ispublic":1,"isfriend":0,"isfamily":0},{"id":"52723299078","owner":"95795254@N02","secret":"59a799c1ff","server":"65535","farm":66,"title":"Grey-breasted Mountain-Toucan 720_5931.jpg","ispublic":1,"isfriend":0,"isfamily":0},{"id":"52662683226","owner":"69347399@N08","secret":"d55ac2f652","server":"65535","farm":66,"title":"Andigena hypoglauca - Grey-breasted mountain toucan-Terlaque andino","ispublic":1,"isfriend":0,"isfamily":0},{"id":"52660523850","owner":"190923251@N05","secret":"8679f0ec72","server":"65535","farm":66,"title":"Gray-breasted Mountain-Toucan","ispublic":1,"isfriend":0,"isfamily":0},{"id":"52655191406","owner":"190773540@N03","secret":"aee32abc1d","server":"65535","farm":66,"title":"Gray-breasted Mountain-Toucan (Colombia)","ispublic":1,"isfriend":0,"isfamily":0},{"id":"52635322192","owner":"190773540@N03","secret":"f87f8e73ba","server":"65535","farm":66,"title":"Gray-breasted Mountain-Toucan (Colombia)","ispublic":1,"isfriend":0,"isfamily":0},{"id":"52634009911","owner":"190773540@N03","secret":"170458849b","server":"65535","farm":66,"title":"Gray-breasted Mountain-Toucan (Colombia)","ispublic":1,"isfriend":0,"isfamily":0},{"id":"52630890704","owner":"190773540@N03","secret":"a4921859f5","server":"65535","farm":66,"title":"Gray-breasted Mountain-Toucan (Colombia)","ispublic":1,"isfriend":0,"isfamily":0},{"id":"52622831265","owner":"95795254@N02","secret":"95359c19e0","server":"65535","farm":66,"title":"Grey-breasted Mountain-Toucan 720_5972.jpg","ispublic":1,"isfriend":0,"isfamily":0},{"id":"52605075844","owner":"25486180@N07","secret":"fa84c3e3e2","server":"65535","farm":66,"title":"Gray-breasted Mountain Tucan, Andigena hypoglauca","ispublic":1,"isfriend":0,"isfamily":0},{"id":"52565530942","owner":"148001454@N05","secret":"da995e15c7","server":"65535","farm":66,"title":"Andigena hypoglauca","ispublic":1,"isfriend":0,"isfamily":0},{"id":"52542370112","owner":"190773540@N03","secret":"d8193e0815","server":"65535","farm":66,"title":"Gray-breasted Mountain-Toucan","ispublic":1,"isfriend":0,"isfamily":0},{"id":"52543314438","owner":"190773540@N03","secret":"e97db328ef","server":"65535","farm":66,"title":"Gray-breasted Mountain-Toucan","ispublic":1,"isfriend":0,"isfamily":0},{"id":"52540191862","owner":"190773540@N03","secret":"3f581ecc76","server":"65535","farm":66,"title":"Gray-breasted Mountain-Toucan (Colombia)","ispublic":1,"isfriend":0,"isfamily":0},{"id":"52537888727","owner":"29170368@N03","secret":"a8e50ce8fc","server":"65535","farm":66,"title":"Gray-breasted Mountain-Toucan","ispublic":1,"isfriend":0,"isfamily":0},{"id":"52538899478","owner":"29170368@N03","secret":"2c9a6241cc","server":"65535","farm":66,"title":"Gray-breasted Mountain-Toucan","ispublic":1,"isfriend":0,"isfamily":0},{"id":"52536315313","owner":"12185056@N02","secret":"b02458ceb8","server":"65535","farm":66,"title":"Grey-breasted Mountain-Toucan (Andigena hypoglauca)","ispublic":1,"isfriend":0,"isfamily":0},{"id":"52531019210","owner":"146707527@N06","secret":"2002dc31cf","server":"65535","farm":66,"title":"Andigena hypoglauca....","ispublic":1,"isfriend":0,"isfamily":0},{"id":"52501262626","owner":"124478354@N05","secret":"4070c1b855","server":"65535","farm":66,"title":"What a bird","ispublic":1,"isfriend":0,"isfamily":0},{"id":"52480710461","owner":"145988764@N06","secret":"560c1c801b","server":"65535","farm":66,"title":"Tuc\u00e1n Pechigr\u00eds Andigena hypoglauca","ispublic":1,"isfriend":0,"isfamily":0},{"id":"52447257224","owner":"61316002@N02","secret":"06c22cb8f8","server":"65535","farm":66,"title":"GRYBREMOUTOU hypoglauca 7061","ispublic":1,"isfriend":0,"isfamily":0},{"id":"52417068802","owner":"181729176@N03","secret":"e85c26f2cf","server":"65535","farm":66,"title":"Tuc\u00e1n andino pechigr\u00eds (Andigena hypoglauca)","ispublic":1,"isfriend":0,"isfamily":0},{"id":"52318417878","owner":"186748160@N02","secret":"7b510dbaef","server":"65535","farm":66,"title":"Gray-breasted Mountain-Toucan (Andigena hypoglauca)","ispublic":1,"isfriend":0,"isfamily":0},{"id":"52317306737","owner":"186748160@N02","secret":"1f831ba6d7","server":"65535","farm":66,"title":"Gray-breasted Mountain-Toucan (Andigena hypoglauca)","ispublic":1,"isfriend":0,"isfamily":0},{"id":"52318417333","owner":"186748160@N02","secret":"66561603e8","server":"65535","farm":66,"title":"Gray-breasted Mountain-Toucan (Andigena hypoglauca)","ispublic":1,"isfriend":0,"isfamily":0},{"id":"52318529209","owner":"186748160@N02","secret":"f8173755f9","server":"65535","farm":66,"title":"Gray-breasted Mountain-Toucan (Andigena hypoglauca)","ispublic":1,"isfriend":0,"isfamily":0},{"id":"52294013518","owner":"69347399@N08","secret":"7d5716fe84","server":"65535","farm":66,"title":"Andigena hypoglauca - Grey-breasted mountain toucan - Terlaque andino","ispublic":1,"isfriend":0,"isfamily":0},{"id":"52278362046","owner":"69347399@N08","secret":"ae886f9a13","server":"65535","farm":66,"title":"Andigena hypoglauca - Grey-breasted mountain toucan -  Terlaque andino .","ispublic":1,"isfriend":0,"isfamily":0},{"id":"52137943397","owner":"56686021@N04","secret":"b1c42b665d","server":"65535","farm":66,"title":"DSC_5343","ispublic":1,"isfriend":0,"isfamily":0},{"id":"52137943262","owner":"56686021@N04","secret":"56cb16b944","server":"65535","farm":66,"title":"Grey-breasted Mountain Toucan","ispublic":1,"isfriend":0,"isfamily":0},{"id":"52109751396","owner":"69347399@N08","secret":"c2a20ab7b9","server":"65535","farm":66,"title":"Andigena hypoglauca - Grey-breasted mountain toucan -  Terlaque andino","ispublic":1,"isfriend":0,"isfamily":0},{"id":"52107016081","owner":"147283349@N08","secret":"81a73ff455","server":"65535","farm":66,"title":"Andigena hypoglauca -BIRD NEAR THREATENED-","ispublic":1,"isfriend":0,"isfamily":0},{"id":"52086623531","owner":"55527686@N03","secret":"6c7141ab4b","server":"65535","farm":66,"title":"Grey-breasted Mountain-Toucan (hypoglauca) - Andigena hypoglauca hypoglauca","ispublic":1,"isfriend":0,"isfamily":0},{"id":"52082593070","owner":"55527686@N03","secret":"7ebfdbe710","server":"65535","farm":66,"title":"Grey-breasted Mountain-Toucan (hypoglauca) - Andigena hypoglauca hypoglauca","ispublic":1,"isfriend":0,"isfamily":0},{"id":"52079750722","owner":"55527686@N03","secret":"801b266dd5","server":"65535","farm":66,"title":"Grey-breasted Mountain-Toucan (hypoglauca) - Andigena hypoglauca hypoglauca","ispublic":1,"isfriend":0,"isfamily":0},{"id":"51994199092","owner":"190773540@N03","secret":"ae2cf4b563","server":"65535","farm":66,"title":"Gray-breasted Mountain-Toucan","ispublic":1,"isfriend":0,"isfamily":0},{"id":"51995052084","owner":"190773540@N03","secret":"00b363a36d","server":"65535","farm":66,"title":"Gray-breasted Mountain-Toucan (Colombia)","ispublic":1,"isfriend":0,"isfamily":0},{"id":"51985851780","owner":"39652177@N04","secret":"36ed2bbeba","server":"65535","farm":66,"title":"Grey-breasted mountain toucan-02825","ispublic":1,"isfriend":0,"isfamily":0},{"id":"51982451882","owner":"190773540@N03","secret":"9bf64310d3","server":"65535","farm":66,"title":"Gray-breasted Mountain-Toucan (Colombia)","ispublic":1,"isfriend":0,"isfamily":0},{"id":"51983323028","owner":"190773540@N03","secret":"89ac2b4626","server":"65535","farm":66,"title":"Gray-breasted Mountain-Toucan (Colombia)","ispublic":1,"isfriend":0,"isfamily":0},{"id":"51981974604","owner":"12185056@N02","secret":"d580136d09","server":"65535","farm":66,"title":"Grey-breasted Mountain-Toucan (Andigena hypoglauca)","ispublic":1,"isfriend":0,"isfamily":0},{"id":"51957743377","owner":"56686021@N04","secret":"08dc5651bf","server":"65535","farm":66,"title":"Grey-breasted Mountain Toucan","ispublic":1,"isfriend":0,"isfamily":0},{"id":"51951158812","owner":"26590455@N05","secret":"545fabdbb9","server":"65535","farm":66,"title":"Terlaque Andino-Grey-breasted Mountain Toucan- Andigena hypoglauca.","ispublic":1,"isfriend":0,"isfamily":0},{"id":"51952213173","owner":"26590455@N05","secret":"2616b835db","server":"65535","farm":66,"title":"Terlaque Andino-Grey-breasted Mountain Toucan- Andigena hypoglauca.","ispublic":1,"isfriend":0,"isfamily":0},{"id":"51946950591","owner":"190773540@N03","secret":"463d263afe","server":"65535","farm":66,"title":"Gray-breasted Mountain-Toucan (Ecuador)","ispublic":1,"isfriend":0,"isfamily":0},{"id":"51937795106","owner":"29610556@N02","secret":"447903a8e4","server":"65535","farm":66,"title":"Gray-breasted Mountain-Toucan (Andigena hypoglauca)","ispublic":1,"isfriend":0,"isfamily":0},{"id":"51908204070","owner":"29170368@N03","secret":"b9fe9cf156","server":"65535","farm":66,"title":"Gray-breasted Mountain-Toucan","ispublic":1,"isfriend":0,"isfamily":0},{"id":"51889704464","owner":"157791723@N06","secret":"d39bf9ed27","server":"65535","farm":66,"title":"Andigena hypoglauca (Toucan bleu, Grey-breasted mountain toucan)","ispublic":1,"isfriend":0,"isfamily":0},{"id":"51889703899","owner":"157791723@N06","secret":"6f68122d66","server":"65535","farm":66,"title":"Andigena hypoglauca (Toucan bleu, Grey-breasted mountain toucan)","ispublic":1,"isfriend":0,"isfamily":0},{"id":"51868498090","owner":"157315060@N07","secret":"95a8df4a8c","server":"65535","farm":66,"title":"Gray-breasted mountain-toucan Andigena hypoglauca","ispublic":1,"isfriend":0,"isfamily":0},{"id":"51855798520","owner":"157315060@N07","secret":"7475b4604a","server":"65535","farm":66,"title":"Gray-breasted mountain-toucan Andigena hypoglauca","ispublic":1,"isfriend":0,"isfamily":0},{"id":"51821891992","owner":"128426916@N07","secret":"72ccd8dab7","server":"65535","farm":66,"title":"Andigena hypoglauca \u2502 Gray-breasted Mountain-Toucan","ispublic":1,"isfriend":0,"isfamily":0},{"id":"51763417239","owner":"145988764@N06","secret":"fe1e88f4ae","server":"65535","farm":66,"title":"tuc\u00e1n andino pechigr\u00eds o Terlaque andino (Andigena hypoglauca)","ispublic":1,"isfriend":0,"isfamily":0},{"id":"51760804409","owner":"189223790@N06","secret":"cfe43230c4","server":"65535","farm":66,"title":"Gray-breasted Mountain-Toucan  - Andigena hypoglauca  - Tuc\u00e1n pechigris","ispublic":1,"isfriend":0,"isfamily":0},{"id":"51752490471","owner":"145988764@N06","secret":"565bce69b0","server":"65535","farm":66,"title":"tuc\u00e1n andino pechigr\u00eds o Terlaque andino (Andigena hypoglauca)","ispublic":1,"isfriend":0,"isfamily":0},{"id":"51724129395","owner":"103228733@N07","secret":"b585560ff6","server":"65535","farm":66,"title":"_O3A6704.jpg","ispublic":1,"isfriend":0,"isfamily":0},{"id":"51688907237","owner":"127634200@N05","secret":"3ec7be59ac","server":"65535","farm":66,"title":"grey-breasted mountain toucan (Andigena hypoglauca)","ispublic":1,"isfriend":0,"isfamily":0},{"id":"51687550038","owner":"148001454@N05","secret":"2e3d46dc77","server":"65535","farm":66,"title":"Andigena hypoglauca","ispublic":1,"isfriend":0,"isfamily":0},{"id":"51629856638","owner":"127634200@N05","secret":"1078fd80e2","server":"65535","farm":66,"title":"grey-breasted mountain toucan (Andigena hypoglauca)","ispublic":1,"isfriend":0,"isfamily":0},{"id":"51020412021","owner":"119787485@N07","secret":"f7af700446","server":"65535","farm":66,"title":"Gray-breasted Mountain-Toucan (Andigena hypoglauca lateralis) - 20181013-01","ispublic":1,"isfriend":0,"isfamily":0},{"id":"51014779187","owner":"90410489@N02","secret":"4b81bac862","server":"65535","farm":66,"title":"Grey-breasted Mountain Toucan (Andigena hypoglauca)","ispublic":1,"isfriend":0,"isfamily":0},{"id":"50953394578","owner":"148001454@N05","secret":"d2c1d4176c","server":"65535","farm":66,"title":"Andigena hypoglauca","ispublic":1,"isfriend":0,"isfamily":0},{"id":"50731691682","owner":"54249623@N08","secret":"7735343e4b","server":"65535","farm":66,"title":"Terlaque Andino, Gray-breasted Mountain-Toucan (Andigena hypoglauca)","ispublic":1,"isfriend":0,"isfamily":0},{"id":"50731690697","owner":"54249623@N08","secret":"a8e688ec1a","server":"65535","farm":66,"title":"Terlaque Andino, Gray-breasted Mountain-Toucan (Andigena hypoglauca)","ispublic":1,"isfriend":0,"isfamily":0},{"id":"50686824278","owner":"187682764@N06","secret":"ab21c07316","server":"65535","farm":66,"title":"Gray-breasted Mountain Toucan","ispublic":1,"isfriend":0,"isfamily":0},{"id":"50617161462","owner":"147283349@N08","secret":"2b6c8c8a8c","server":"65535","farm":66,"title":"Andigena hypoglauca NT - VU","ispublic":1,"isfriend":0,"isfamily":0},{"id":"50609353881","owner":"147283349@N08","secret":"88771e1118","server":"65535","farm":66,"title":"Andigena hypoglauca NT ( NEAR THREATENED)- VU (VULNERABLE)","ispublic":1,"isfriend":0,"isfamily":0},{"id":"50601114021","owner":"147283349@N08","secret":"f15db34ca7","server":"65535","farm":66,"title":"Andigena hypoglauca NT ( NEAR THREATENED)- VU (VULNERABLE)","ispublic":1,"isfriend":0,"isfamily":0},{"id":"50596953952","owner":"147283349@N08","secret":"7b1849287d","server":"65535","farm":66,"title":"Andigena hypoglauca NT ( NEAR THREATENED)- VU (VULNERABLE)","ispublic":1,"isfriend":0,"isfamily":0},{"id":"50577415696","owner":"79410107@N08","secret":"7d42083d7a","server":"65535","farm":66,"title":"Andigena hypoglauca - Gray-breasted Mountain-Toucan - Tuc\u00e1n Pechigr\u00eds - Terlaque Andino 25","ispublic":1,"isfriend":0,"isfamily":0},{"id":"50576689013","owner":"79410107@N08","secret":"9fe3f943b3","server":"65535","farm":66,"title":"Andigena hypoglauca - Gray-breasted Mountain-Toucan - Tuc\u00e1n Pechigr\u00eds - Terlaque Andino 19","ispublic":1,"isfriend":0,"isfamily":0},{"id":"50576687978","owner":"79410107@N08","secret":"a20cb60202","server":"65535","farm":66,"title":"Andigena hypoglauca - Gray-breasted Mountain-Toucan - Tuc\u00e1n Pechigr\u00eds - Terlaque Andino 20","ispublic":1,"isfriend":0,"isfamily":0},{"id":"50577413686","owner":"79410107@N08","secret":"28021c32f8","server":"65535","farm":66,"title":"Andigena hypoglauca - Gray-breasted Mountain-Toucan - Tuc\u00e1n Pechigr\u00eds - Terlaque Andino 21","ispublic":1,"isfriend":0,"isfamily":0},{"id":"50577412636","owner":"79410107@N08","secret":"2116b60bcf","server":"65535","farm":66,"title":"Andigena hypoglauca - Gray-breasted Mountain-Toucan - Tuc\u00e1n Pechigr\u00eds - Terlaque Andino 24","ispublic":1,"isfriend":0,"isfamily":0},{"id":"52415861515","owner":"29170368@N03","secret":"c1009bc9c4","server":"65535","farm":66,"title":"Gray-breasted Mountain-Toucan","ispublic":1,"isfriend":0,"isfamily":0},{"id":"52108515375","owner":"56686021@N04","secret":"3dd226fe19","server":"65535","farm":66,"title":"Grey-breasted Mountain Toucan","ispublic":1,"isfriend":0,"isfamily":0},{"id":"52105660266","owner":"56686021@N04","secret":"2e87f86ff6","server":"65535","farm":66,"title":"Grey-breasted Mountain Toucan","ispublic":1,"isfriend":0,"isfamily":0},{"id":"52096429808","owner":"96568982@N06","secret":"7f92afe1c7","server":"65535","farm":66,"title":"MOUNTAIN-TOUCAN, Gray-breasted","ispublic":1,"isfriend":0,"isfamily":0},{"id":"52095381012","owner":"96568982@N06","secret":"cc7df12b8b","server":"65535","farm":66,"title":"MOUNTAIN-TOUCAN, Gray-breasted","ispublic":1,"isfriend":0,"isfamily":0},{"id":"52084679241","owner":"55527686@N03","secret":"bd05ba1891","server":"65535","farm":66,"title":"Grey-breasted Mountain-Toucan (hypoglauca) - Andigena hypoglauca hypoblauca","ispublic":1,"isfriend":0,"isfamily":0},{"id":"52081275070","owner":"55527686@N03","secret":"06dbb1167c","server":"65535","farm":66,"title":"Grey-breasted Mountain-Toucan (hypoglauca) - Andigena hypoglauca hypoglauca","ispublic":1,"isfriend":0,"isfamily":0},{"id":"51962142778","owner":"56686021@N04","secret":"553699ecfc","server":"65535","farm":66,"title":"Grey-breasted Mountain Toucan","ispublic":1,"isfriend":0,"isfamily":0},{"id":"51959314470","owner":"56686021@N04","secret":"cb139735a8","server":"65535","farm":66,"title":"Grey-breasted Mountain Toucan","ispublic":1,"isfriend":0,"isfamily":0},{"id":"51953659628","owner":"190773540@N03","secret":"764ea9bbe1","server":"65535","farm":66,"title":"Gray-breasted Mountain-Toucan (Ecuador)","ispublic":1,"isfriend":0,"isfamily":0},{"id":"51889706079","owner":"157791723@N06","secret":"0f2ebbd96b","server":"65535","farm":66,"title":"Andigena hypoglauca (Toucan bleu, Grey-breasted mountain toucan)","ispublic":1,"isfriend":0,"isfamily":0},{"id":"51889705044","owner":"157791723@N06","secret":"531ca921cf","server":"65535","farm":66,"title":"Andigena hypoglauca (Toucan bleu, Grey-breasted mountain toucan)","ispublic":1,"isfriend":0,"isfamily":0},{"id":"51890026740","owner":"157791723@N06","secret":"ceb311f108","server":"65535","farm":66,"title":"Andigena hypoglauca (Toucan bleu, Grey-breasted mountain toucan)","ispublic":1,"isfriend":0,"isfamily":0},{"id":"51335691848","owner":"191729920@N04","secret":"511cc01f47","server":"65535","farm":66,"title":"Tuc\u00e1n de cuello gris","ispublic":1,"isfriend":0,"isfamily":0},{"id":"51138005222","owner":"60395395@N02","secret":"bb7259ed8b","server":"65535","farm":66,"title":"grey-breasted mountain toucan, Andigena hypoglauca, Nature tours Colombia, https:\/\/bogotabirding.com\/","ispublic":1,"isfriend":0,"isfamily":0},{"id":"51011019105","owner":"191729920@N04","secret":"7b1be184f1","server":"65535","farm":66,"title":"Terlaque andino 4","ispublic":1,"isfriend":0,"isfamily":0},{"id":"51079509208","owner":"191729920@N04","secret":"acbbba5815","server":"65535","farm":66,"title":"Plumaje tropical 2","ispublic":1,"isfriend":0,"isfamily":0},{"id":"51011018980","owner":"191729920@N04","secret":"ff8a57d03d","server":"65535","farm":66,"title":"Plumaje tropical 1","ispublic":1,"isfriend":0,"isfamily":0},{"id":"51080297402","owner":"191729920@N04","secret":"dce348caf7","server":"65535","farm":66,"title":"Terlaque andino 3","ispublic":1,"isfriend":0,"isfamily":0},{"id":"51080297127","owner":"191729920@N04","secret":"a2776f9c52","server":"65535","farm":66,"title":"Terlaque andino 2","ispublic":1,"isfriend":0,"isfamily":0},{"id":"51011018410","owner":"191729920@N04","secret":"54a62de281","server":"65535","farm":66,"title":"Terlaque andino 1","ispublic":1,"isfriend":0,"isfamily":0},{"id":"51055409033","owner":"148001454@N05","secret":"c8a0918756","server":"65535","farm":66,"title":"Tityra inquisitor","ispublic":1,"isfriend":0,"isfamily":0},{"id":"51049905313","owner":"189223790@N06","secret":"84e2fc9c07","server":"65535","farm":66,"title":"Tuc\u00e1n de Alta monta\u00f1a - Tuc\u00e1n pechigris  - Andigena hypoglauca.","ispublic":1,"isfriend":0,"isfamily":0},{"id":"50780693633","owner":"149722746@N08","secret":"712b94697d","server":"65535","farm":66,"title":"Andigena hypoglauca | Grey-breasted Mountain-Toucan | Terlaque Andino","ispublic":1,"isfriend":0,"isfamily":0}]},"stat":"ok"}