{"photos":{"page":1,"pages":559,"perpage":100,"total":55882,"photo":[{"id":"52792451961","owner":"120559894@N05","secret":"c58ca0e86d","server":"65535","farm":66,"title":"\u00c1nsar com\u00fan \/ Greylag Goose (Anser anser)","ispublic":1,"isfriend":0,"isfamily":0},{"id":"52791443062","owner":"12639178@N07","secret":"73c772d481","server":"65535","farm":66,"title":"Br\u00fctende Graugans","ispublic":1,"isfriend":0,"isfamily":0},{"id":"52792125429","owner":"12639178@N07","secret":"87251a154d","server":"65535","farm":66,"title":"Grauganspaar am See","ispublic":1,"isfriend":0,"isfamily":0},{"id":"52791725394","owner":"53280041@N04","secret":"2f1a3b57c4","server":"65535","farm":66,"title":"Greylag goose","ispublic":1,"isfriend":0,"isfamily":0},{"id":"52791725244","owner":"53280041@N04","secret":"e5fd9a0cb4","server":"65535","farm":66,"title":"Greylag goose","ispublic":1,"isfriend":0,"isfamily":0},{"id":"52791939173","owner":"53280041@N04","secret":"3aee904002","server":"65535","farm":66,"title":"Greylag goose","ispublic":1,"isfriend":0,"isfamily":0},{"id":"52791939023","owner":"53280041@N04","secret":"7420e1198b","server":"65535","farm":66,"title":"Greylag goose","ispublic":1,"isfriend":0,"isfamily":0},{"id":"52791489756","owner":"53280041@N04","secret":"f1bdc1c11b","server":"65535","farm":66,"title":"Greylag goose","ispublic":1,"isfriend":0,"isfamily":0},{"id":"52791938553","owner":"53280041@N04","secret":"4ed308098e","server":"65535","farm":66,"title":"Greylag goose","ispublic":1,"isfriend":0,"isfamily":0},{"id":"52791596399","owner":"68466173@N02","secret":"6756ff676b","server":"65535","farm":66,"title":"Greylag Goose (Anser anser)","ispublic":1,"isfriend":0,"isfamily":0},{"id":"52791660730","owner":"123521075@N07","secret":"fba4c76089","server":"65535","farm":66,"title":"Pink-footed Geese - Anser brachyrhynchus","ispublic":1,"isfriend":0,"isfamily":0},{"id":"52791160561","owner":"186352904@N02","secret":"29c4c87a0f","server":"65535","farm":66,"title":"Oie cendr\u00e9e","ispublic":1,"isfriend":0,"isfamily":0},{"id":"52791364184","owner":"12639178@N07","secret":"efe460e8cc","server":"65535","farm":66,"title":"Tundrasaatgans (Anser fabalis subsp. rossicus) (2)","ispublic":1,"isfriend":0,"isfamily":0},{"id":"52791521475","owner":"12639178@N07","secret":"b19ebb7f9f","server":"65535","farm":66,"title":"Tundrasaatgans sagt die KI????","ispublic":1,"isfriend":0,"isfamily":0},{"id":"52790354567","owner":"94004763@N03","secret":"160929486c","server":"65535","farm":66,"title":"Boerengans - Anser anser domesticus","ispublic":1,"isfriend":0,"isfamily":0},{"id":"52790787921","owner":"12639178@N07","secret":"23aebbd5ee","server":"65535","farm":66,"title":"Graugans x Kanadagans (Anser anser x Branta canadensis)","ispublic":1,"isfriend":0,"isfamily":0},{"id":"52791238518","owner":"12639178@N07","secret":"6b29360900","server":"65535","farm":66,"title":"Graugans x Kanadagans (Anser anser x Branta canadensis)","ispublic":1,"isfriend":0,"isfamily":0},{"id":"52790232807","owner":"12639178@N07","secret":"0f16550f55","server":"65535","farm":66,"title":"Graugans x Kanadagans (Anser anser x Branta canadensis)","ispublic":1,"isfriend":0,"isfamily":0},{"id":"52790787056","owner":"12639178@N07","secret":"bcc3a4a6df","server":"65535","farm":66,"title":"Graugans x Kanadagans (Anser anser x Branta canadensis)","ispublic":1,"isfriend":0,"isfamily":0},{"id":"52790232067","owner":"12639178@N07","secret":"29ae96e820","server":"65535","farm":66,"title":"Graugans x Kanadagans (Anser anser x Branta canadensis)","ispublic":1,"isfriend":0,"isfamily":0},{"id":"52790906094","owner":"64045479@N05","secret":"26e175599e","server":"65535","farm":66,"title":"Snow Goose - Anser caerulescens","ispublic":1,"isfriend":0,"isfamily":0},{"id":"52789991672","owner":"68466173@N02","secret":"a2ff09e34e","server":"65535","farm":66,"title":"Bar-headed Goose (Anser indicus)","ispublic":1,"isfriend":0,"isfamily":0},{"id":"52790695000","owner":"12639178@N07","secret":"5c38d25894","server":"65535","farm":66,"title":"Sehr ruffreudig","ispublic":1,"isfriend":0,"isfamily":0},{"id":"52790536464","owner":"12639178@N07","secret":"02a8bcc5c3","server":"65535","farm":66,"title":"Grasend","ispublic":1,"isfriend":0,"isfamily":0},{"id":"52790749173","owner":"12639178@N07","secret":"59708f6ff4","server":"65535","farm":66,"title":"Das einzige Mal 2016 von einem naturgucker hier beobachtet","ispublic":1,"isfriend":0,"isfamily":0},{"id":"52790748893","owner":"12639178@N07","secret":"b497528d02","server":"65535","farm":66,"title":"03.04.23: Sensation! Eine Streifengans in Heidelberg","ispublic":1,"isfriend":0,"isfamily":0},{"id":"52790243661","owner":"189044055@N06","secret":"8404ee9991","server":"65535","farm":66,"title":"Goose under dark skies","ispublic":1,"isfriend":0,"isfamily":0},{"id":"52790544868","owner":"131037795@N03","secret":"0c7fbb2041","server":"65535","farm":66,"title":"Flock of Snow Gesse (Anser caerulescens)","ispublic":1,"isfriend":0,"isfamily":0},{"id":"52790544758","owner":"131037795@N03","secret":"17725ef0e2","server":"65535","farm":66,"title":"Flock of Snow Gesse (Anser caerulescens)","ispublic":1,"isfriend":0,"isfamily":0},{"id":"52789298597","owner":"189044055@N06","secret":"87bbe3348d","server":"65535","farm":66,"title":"Greylag couple over birch trees","ispublic":1,"isfriend":0,"isfamily":0},{"id":"52789588176","owner":"12639178@N07","secret":"cd962738b3","server":"65535","farm":66,"title":"Graugans mit 'kanadischer' Begleitung","ispublic":1,"isfriend":0,"isfamily":0},{"id":"52789965820","owner":"39669415@N05","secret":"091cb08883","server":"65535","farm":66,"title":"Greylag Goose - Anser anser","ispublic":1,"isfriend":0,"isfamily":0},{"id":"52788574362","owner":"77931884@N00","secret":"f7b0915a76","server":"65535","farm":66,"title":"Snow Geese","ispublic":1,"isfriend":0,"isfamily":0},{"id":"52788572222","owner":"10105106@N07","secret":"11ac5ee3b0","server":"65535","farm":66,"title":"Ross's Goose","ispublic":1,"isfriend":0,"isfamily":0},{"id":"52788327646","owner":"143326780@N02","secret":"637a0438df","server":"65535","farm":66,"title":"DSCN7852","ispublic":1,"isfriend":0,"isfamily":0},{"id":"52788327501","owner":"143326780@N02","secret":"c746cc47c1","server":"65535","farm":66,"title":"DSCN7853","ispublic":1,"isfriend":0,"isfamily":0},{"id":"52788778203","owner":"143326780@N02","secret":"91d76b900b","server":"65535","farm":66,"title":"DSCN7917","ispublic":1,"isfriend":0,"isfamily":0},{"id":"52788721910","owner":"143326780@N02","secret":"15d011f804","server":"65535","farm":66,"title":"DSCN7918","ispublic":1,"isfriend":0,"isfamily":0},{"id":"52788457350","owner":"12639178@N07","secret":"772eecc6a3","server":"65535","farm":66,"title":"Graugans im Morgenlicht","ispublic":1,"isfriend":0,"isfamily":0},{"id":"52788218934","owner":"12639178@N07","secret":"047ffe7981","server":"65535","farm":66,"title":"Graug\u00e4nse","ispublic":1,"isfriend":0,"isfamily":0},{"id":"52788409228","owner":"63093099@N02","secret":"e8bffa3753","server":"65535","farm":66,"title":"Greylag Goose; 20230402; UK-NFK-Cley Marshes NWT","ispublic":1,"isfriend":0,"isfamily":0},{"id":"52788354080","owner":"63093099@N02","secret":"a18e5b7ffd","server":"65535","farm":66,"title":"Greylag Goose; 20230402; UK-NFK-Cley Marshes NWT","ispublic":1,"isfriend":0,"isfamily":0},{"id":"52788335745","owner":"75439979@N08","secret":"3946b1bf0c","server":"65535","farm":66,"title":"Greylag Goose - Anser anser","ispublic":1,"isfriend":0,"isfamily":0},{"id":"52788235613","owner":"12639178@N07","secret":"19df96e080","server":"65535","farm":66,"title":"... in Gesellschaft","ispublic":1,"isfriend":0,"isfamily":0},{"id":"52788235218","owner":"12639178@N07","secret":"ff70f53002","server":"65535","farm":66,"title":"... beim Fr\u00fchst\u00fcck","ispublic":1,"isfriend":0,"isfamily":0},{"id":"52788234858","owner":"12639178@N07","secret":"8846c8be5b","server":"65535","farm":66,"title":"Graugans (Anser anser)","ispublic":1,"isfriend":0,"isfamily":0},{"id":"52787783576","owner":"12639178@N07","secret":"e7d8029295","server":"65535","farm":66,"title":"Graugans (Anser anser)","ispublic":1,"isfriend":0,"isfamily":0},{"id":"52788182650","owner":"12639178@N07","secret":"8328c11b1a","server":"65535","farm":66,"title":"Ansichten einer Graugans","ispublic":1,"isfriend":0,"isfamily":0},{"id":"52786807577","owner":"54032685@N00","secret":"e0530e6a39","server":"65535","farm":66,"title":"A Very Cross Goose","ispublic":1,"isfriend":0,"isfamily":0},{"id":"52787710883","owner":"12639178@N07","secret":"673cb388b2","server":"65535","farm":66,"title":"Streifeng\u00e4nse","ispublic":1,"isfriend":0,"isfamily":0},{"id":"52787486894","owner":"12639178@N07","secret":"7b71740ec4","server":"65535","farm":66,"title":"Schwaneng\u00e4nse","ispublic":1,"isfriend":0,"isfamily":0},{"id":"52787705308","owner":"12639178@N07","secret":"3cd08f8f85","server":"65535","farm":66,"title":"Schwaneng\u00e4nse","ispublic":1,"isfriend":0,"isfamily":0},{"id":"52787705163","owner":"12639178@N07","secret":"cb5006f73b","server":"65535","farm":66,"title":"Schwaneng\u00e4nse","ispublic":1,"isfriend":0,"isfamily":0},{"id":"52787236706","owner":"12639178@N07","secret":"e7216108b3","server":"65535","farm":66,"title":"Graug\u00e4nse","ispublic":1,"isfriend":0,"isfamily":0},{"id":"52786680487","owner":"12639178@N07","secret":"1965a849eb","server":"65535","farm":66,"title":"Graug\u00e4nse","ispublic":1,"isfriend":0,"isfamily":0},{"id":"52787686593","owner":"12639178@N07","secret":"17b43c70e5","server":"65535","farm":66,"title":"Graug\u00e4nse","ispublic":1,"isfriend":0,"isfamily":0},{"id":"52787588255","owner":"39854996@N00","secret":"5df083aef4","server":"65535","farm":66,"title":"Russian White-fronted Goose \"Anser albifrons\"","ispublic":1,"isfriend":0,"isfamily":0},{"id":"52787642658","owner":"39854996@N00","secret":"6d771737ac","server":"65535","farm":66,"title":"snow goose \"Anser caerulescens\"","ispublic":1,"isfriend":0,"isfamily":0},{"id":"52787275095","owner":"12639178@N07","secret":"bda8e06207","server":"65535","farm":66,"title":"Kurzschnabelgans bei der Gefiederpflege","ispublic":1,"isfriend":0,"isfamily":0},{"id":"52787181475","owner":"25517957@N03","secret":"4723d0520b","server":"65535","farm":66,"title":"IMG_0004 Greylag Geese","ispublic":1,"isfriend":0,"isfamily":0},{"id":"52787238238","owner":"25517957@N03","secret":"aa83178bba","server":"65535","farm":66,"title":"IMG_0013 Greylag Geese","ispublic":1,"isfriend":0,"isfamily":0},{"id":"52785824117","owner":"158872628@N08","secret":"53d3c190c8","server":"65535","farm":66,"title":"Vul ANSER","ispublic":1,"isfriend":0,"isfamily":0},{"id":"52786479149","owner":"12639178@N07","secret":"681a063e67","server":"65535","farm":66,"title":"Graug\u00e4nse","ispublic":1,"isfriend":0,"isfamily":0},{"id":"52785530552","owner":"123174353@N02","secret":"3bfe5363ec","server":"65535","farm":66,"title":"Anser erythropus \/ Lesser White-fronted Goose \/ dwerggans","ispublic":1,"isfriend":0,"isfamily":0},{"id":"52786210359","owner":"12639178@N07","secret":"bae1368b86","server":"65535","farm":66,"title":"Graugans (Anser anser) (2)","ispublic":1,"isfriend":0,"isfamily":0},{"id":"52786373575","owner":"12639178@N07","secret":"86a9cceb2f","server":"65535","farm":66,"title":"Graugans (Anser anser) (1)","ispublic":1,"isfriend":0,"isfamily":0},{"id":"52786041924","owner":"44093058@N06","secret":"1c0ae7cb6e","server":"65535","farm":66,"title":"Greylag goose, Anser anser, Gr\u00e5g\u00e5s","ispublic":1,"isfriend":0,"isfamily":0},{"id":"52785667961","owner":"198000077@N04","secret":"457fde02cf","server":"65535","farm":66,"title":"Greylag goose\/ Anser anser","ispublic":1,"isfriend":0,"isfamily":0},{"id":"52785872839","owner":"198000077@N04","secret":"3fe29d8b43","server":"65535","farm":66,"title":"Greylag goose\/  Anser anser","ispublic":1,"isfriend":0,"isfamily":0},{"id":"52785890645","owner":"145907835@N07","secret":"ae2e7e7dd8","server":"65535","farm":66,"title":"Hybride Grauwe Gans x Grote Canadese Gans - Anser anser x Branta canadensis","ispublic":1,"isfriend":0,"isfamily":0},{"id":"52784798697","owner":"23882583@N08","secret":"9b37e5c6e5","server":"65535","farm":66,"title":"Bar-headed Goose","ispublic":1,"isfriend":0,"isfamily":0},{"id":"52784163837","owner":"67306066@N03","secret":"d4c4e40c00","server":"65535","farm":66,"title":"Domestic Swan Goose (Anser cygnoides var. domesticus)","ispublic":1,"isfriend":0,"isfamily":0},{"id":"52785236594","owner":"23882583@N08","secret":"e95588b87d","server":"65535","farm":66,"title":"Two Flavours of Geese","ispublic":1,"isfriend":0,"isfamily":0},{"id":"52785231985","owner":"62043870@N05","secret":"9f58482ae0","server":"65535","farm":66,"title":"Great Egret (Ardea alba) and Greater White-fronted Geese (Anser albifrons)","ispublic":1,"isfriend":0,"isfamily":0},{"id":"52785231435","owner":"62043870@N05","secret":"5895eb09f3","server":"65535","farm":66,"title":"Greater White-fronted Geese, Anser albifrons","ispublic":1,"isfriend":0,"isfamily":0},{"id":"52784917193","owner":"48311154@N02","secret":"31b373148a","server":"65535","farm":66,"title":"Can you scratch your head with your foot?","ispublic":1,"isfriend":0,"isfamily":0},{"id":"52784434421","owner":"98675522@N06","secret":"f0f30340de","server":"65535","farm":66,"title":"Out With the Old","ispublic":1,"isfriend":0,"isfamily":0},{"id":"52784528930","owner":"123521075@N07","secret":"8af01718a6","server":"65535","farm":66,"title":"Pink-footed Geese - Anser brachyrhynchus","ispublic":1,"isfriend":0,"isfamily":0},{"id":"52784369424","owner":"123521075@N07","secret":"e2c964bd6d","server":"65535","farm":66,"title":"Pink-footed Geese - Anser brachyrhynchus","ispublic":1,"isfriend":0,"isfamily":0},{"id":"52784492595","owner":"12639178@N07","secret":"cd5bf56632","server":"65535","farm":66,"title":"Streifeng\u00e4nse","ispublic":1,"isfriend":0,"isfamily":0},{"id":"52784332709","owner":"12639178@N07","secret":"58f6c4a379","server":"65535","farm":66,"title":"Streifeng\u00e4nse","ispublic":1,"isfriend":0,"isfamily":0},{"id":"52784481485","owner":"12639178@N07","secret":"a0064c4003","server":"65535","farm":66,"title":"Schwaneng\u00e4nse","ispublic":1,"isfriend":0,"isfamily":0},{"id":"52783521017","owner":"12639178@N07","secret":"e4e9e5438f","server":"65535","farm":66,"title":"Graug\u00e4nse","ispublic":1,"isfriend":0,"isfamily":0},{"id":"52784072166","owner":"12639178@N07","secret":"fa742f04be","server":"65535","farm":66,"title":"Graug\u00e4nse","ispublic":1,"isfriend":0,"isfamily":0},{"id":"52784039283","owner":"197225428@N05","secret":"751d44d5a4","server":"65535","farm":66,"title":"045a THYRA och ANSERS NILSSON","ispublic":1,"isfriend":0,"isfamily":0},{"id":"52783883685","owner":"188490851@N05","secret":"8119eea8ee","server":"65535","farm":66,"title":"cpx_mah 312W","ispublic":1,"isfriend":0,"isfamily":0},{"id":"52782927697","owner":"188490851@N05","secret":"34fcd7ff0a","server":"65535","farm":66,"title":"Formation Flying","ispublic":1,"isfriend":0,"isfamily":0},{"id":"52783929168","owner":"188490851@N05","secret":"73d250554a","server":"65535","farm":66,"title":"cpx_mah 541W","ispublic":1,"isfriend":0,"isfamily":0},{"id":"52783709319","owner":"188490851@N05","secret":"23f7a7edf7","server":"65535","farm":66,"title":"cpx_mah 500W","ispublic":1,"isfriend":0,"isfamily":0},{"id":"52782917942","owner":"12639178@N07","secret":"c5dea51d7d","server":"65535","farm":66,"title":"Graugans","ispublic":1,"isfriend":0,"isfamily":0},{"id":"52783915428","owner":"51926183@N07","secret":"7ba6003caa","server":"65535","farm":66,"title":"Petit Gravelot","ispublic":1,"isfriend":0,"isfamily":0},{"id":"52782704102","owner":"76454790@N02","secret":"ab60cc2dfe","server":"65535","farm":66,"title":"Pink-footed Goose (Anser brachyrhynchus)","ispublic":1,"isfriend":0,"isfamily":0},{"id":"52783190809","owner":"71393709@N06","secret":"fe2d61995e","server":"65535","farm":66,"title":"Sometimes the world can seem like such a big place!  -  Greylag Goose gosling (Anser anser)  -  (Published by GETTY IMAGES)","ispublic":1,"isfriend":0,"isfamily":0},{"id":"52783271198","owner":"12639178@N07","secret":"2509fc51fc","server":"65535","farm":66,"title":"und Abflug","ispublic":1,"isfriend":0,"isfamily":0},{"id":"52782809661","owner":"12639178@N07","secret":"41f3f18c28","server":"65535","farm":66,"title":"Gan(z)s allein auf der Deichkrone","ispublic":1,"isfriend":0,"isfamily":0},{"id":"52781921022","owner":"48311154@N02","secret":"a900451973","server":"65535","farm":66,"title":"Greater White-fronted Goose - Lifer!","ispublic":1,"isfriend":0,"isfamily":0},{"id":"52782551368","owner":"189443695@N04","secret":"0c3f5a0a0d","server":"65535","farm":66,"title":"Anser anser","ispublic":1,"isfriend":0,"isfamily":0},{"id":"52782480730","owner":"12639178@N07","secret":"27a6049801","server":"65535","farm":66,"title":"Schwaneng\u00e4nse","ispublic":1,"isfriend":0,"isfamily":0},{"id":"52782308909","owner":"12639178@N07","secret":"9cb66b89fe","server":"65535","farm":66,"title":"Graug\u00e4nse","ispublic":1,"isfriend":0,"isfamily":0},{"id":"52782274954","owner":"12127594@N00","secret":"15de3aa8da","server":"65535","farm":66,"title":"Greylag","ispublic":1,"isfriend":0,"isfamily":0}]},"stat":"ok"}