{"photos":{"page":1,"pages":4,"perpage":100,"total":312,"photo":[{"id":"52711329230","owner":"12240837@N08","secret":"bd44d83a66","server":"65535","farm":66,"title":"Grey-rumped Treeswift (hemiprocne longipennis)","ispublic":1,"isfriend":0,"isfamily":0},{"id":"52548305040","owner":"45473917@N07","secret":"0f78179674","server":"65535","farm":66,"title":"Grey-rumped Treeswift (Hemiprocne longipennis) @ Margaret Drive, Singapore_20220908_DSC3869","ispublic":1,"isfriend":0,"isfamily":0},{"id":"52204967887","owner":"90764954@N07","secret":"a63d4811ba","server":"65535","farm":66,"title":"Grey-rumped Treeswift (Hemiprocne longipennis) \u51e4\u5934\u6811\u71d5","ispublic":1,"isfriend":0,"isfamily":0},{"id":"52206244394","owner":"90764954@N07","secret":"b11310d033","server":"65535","farm":66,"title":"Grey-rumped Treeswift (Hemiprocne longipennis) \u51e4\u5934\u6811\u71d5","ispublic":1,"isfriend":0,"isfamily":0},{"id":"52114712669","owner":"61485851@N06","secret":"fbef933396","server":"65535","farm":66,"title":"Grey-rumped treeswift","ispublic":1,"isfriend":0,"isfamily":0},{"id":"51759389150","owner":"107784905@N04","secret":"6df6ccfdbf","server":"65535","farm":66,"title":"H\u00e9miprocn\u00e9 longipenne - Kaeng Krachan\/Phetchaburi\/TH_20191127_015-1","ispublic":1,"isfriend":0,"isfamily":0},{"id":"51004329155","owner":"29882791@N02","secret":"201e67ac25","server":"65535","farm":66,"title":"Hemiprocnidae - Hemiprocne longipennis (Grey-rumped treeswift)","ispublic":1,"isfriend":0,"isfamily":0},{"id":"50857898473","owner":"22587916@N05","secret":"18120593d1","server":"65535","farm":66,"title":"Gray-rumped Treeswift, \u7070\u8170\u96e8\u71d5, \u7070\u8170\u96e8\u71d5, Hemiprocne longipennis, \u30ab\u30f3\u30e0\u30ea\u30a2\u30de\u30c4\u30d0\u30e1, LAYANG-LAYANG BERJAMBUL PINGGUL PUDAR (male)","ispublic":1,"isfriend":0,"isfamily":0},{"id":"50857898443","owner":"22587916@N05","secret":"f2f0da3844","server":"65535","farm":66,"title":"Gray-rumped Treeswift, \u7070\u8170\u96e8\u71d5, \u7070\u8170\u96e8\u71d5, Hemiprocne longipennis, \u30ab\u30f3\u30e0\u30ea\u30a2\u30de\u30c4\u30d0\u30e1, LAYANG-LAYANG BERJAMBUL PINGGUL PUDAR (female)","ispublic":1,"isfriend":0,"isfamily":0},{"id":"50021890721","owner":"14888671@N02","secret":"c86b466368","server":"65535","farm":66,"title":"Gray-rumped Treeswift","ispublic":1,"isfriend":0,"isfamily":0},{"id":"49921555047","owner":"32136583@N04","secret":"61d79e22e0","server":"65535","farm":66,"title":"Grey Rumped Treeswift","ispublic":1,"isfriend":0,"isfamily":0},{"id":"49805139501","owner":"107784905@N04","secret":"238e8a4de8","server":"65535","farm":66,"title":"H\u00e9miprocn\u00e9 longipenne - Kaeng Krachan\/Phetchaburi\/TH_20191127_635","ispublic":1,"isfriend":0,"isfamily":0},{"id":"49457664877","owner":"32136583@N04","secret":"9bce4778da","server":"65535","farm":66,"title":"Grey Rumped Treeswift","ispublic":1,"isfriend":0,"isfamily":0},{"id":"49281242938","owner":"56891930@N05","secret":"f073a3671e","server":"65535","farm":66,"title":"Male Grey-rumped Treeswift (Hemiprocne longipennis) \u7070\u8170\u51e4\u5934\u96e8\u71d5 (\u96c4) - Jalan Taman Melawati, Taman Melawati, Daerah Gombak \u9e45\u551b\u53bf, Selangor \u96ea\u5170\u83aa\u5dde, Malaysia \u9a6c\u6765\u897f\u4e9a","ispublic":1,"isfriend":0,"isfamily":0},{"id":"49281312511","owner":"56891930@N05","secret":"6218e88fcb","server":"65535","farm":66,"title":"Male Grey-rumped Treeswift (Hemiprocne longipennis) \u7070\u8170\u51e4\u5934\u96e8\u71d5 (\u96c4) - Jalan Taman Melawati, Taman Melawati, Daerah Gombak \u9e45\u551b\u53bf, Selangor \u96ea\u5170\u83aa\u5dde, Malaysia \u9a6c\u6765\u897f\u4e9a","ispublic":1,"isfriend":0,"isfamily":0},{"id":"49278828777","owner":"56891930@N05","secret":"dd34eff12d","server":"65535","farm":66,"title":"Male Grey-rumped Treeswift (Hemiprocne longipennis) \u7070\u8170\u51e4\u5934\u96e8\u71d5 (\u96c4) - Jalan Taman Melawati, Taman Melawati, Daerah Gombak \u9e45\u551b\u53bf, Selangor \u96ea\u5170\u83aa\u5dde, Malaysia \u9a6c\u6765\u897f\u4e9a","ispublic":1,"isfriend":0,"isfamily":0},{"id":"49272471038","owner":"14888671@N02","secret":"33a9dbb71c","server":"65535","farm":66,"title":"Grey-rumped Treeswift","ispublic":1,"isfriend":0,"isfamily":0},{"id":"49256989333","owner":"147749928@N08","secret":"9a70076035","server":"65535","farm":66,"title":"| Lifer | Grey-rumped treeswift - male (Hemiprocne longipennis) \u51e4\u5934\u6811\u71d5 - \u96c4","ispublic":1,"isfriend":0,"isfamily":0},{"id":"49257667632","owner":"147749928@N08","secret":"2387133ced","server":"65535","farm":66,"title":"| Lifer | Grey-rumped treeswift - female (Hemiprocne longipennis) \u51e4\u5934\u6811\u71d5 - \u96cc","ispublic":1,"isfriend":0,"isfamily":0},{"id":"49208773817","owner":"61485851@N06","secret":"6eeec09d3a","server":"65535","farm":66,"title":"Grey-rumped treeswift (male)","ispublic":1,"isfriend":0,"isfamily":0},{"id":"49208773482","owner":"61485851@N06","secret":"99bdb70067","server":"65535","farm":66,"title":"Grey-rumped treeswift (male)","ispublic":1,"isfriend":0,"isfamily":0},{"id":"49208513776","owner":"61485851@N06","secret":"db2b96682b","server":"65535","farm":66,"title":"Grey-rumped treeswift (male)","ispublic":1,"isfriend":0,"isfamily":0},{"id":"49208029038","owner":"61485851@N06","secret":"fca3b42115","server":"65535","farm":66,"title":"Grey-rumped treeswift (female)","ispublic":1,"isfriend":0,"isfamily":0},{"id":"49166708472","owner":"149764685@N06","secret":"be85173c37","server":"65535","farm":66,"title":"Grey-Rumped Treeswift (Hemiprocne Longipennis) male","ispublic":1,"isfriend":0,"isfamily":0},{"id":"49166469571","owner":"149764685@N06","secret":"29d9fb7817","server":"65535","farm":66,"title":"Grey-Rumped Treeswift (Hemiprocne Longipennis) male","ispublic":1,"isfriend":0,"isfamily":0},{"id":"49166703747","owner":"149764685@N06","secret":"6542a1981a","server":"65535","farm":66,"title":"Grey-Rumped Treeswift (Hemiprocne Longipennis) female","ispublic":1,"isfriend":0,"isfamily":0},{"id":"49163770293","owner":"61485851@N06","secret":"e9f43a3ff5","server":"65535","farm":66,"title":"Grey-rumped treeswift","ispublic":1,"isfriend":0,"isfamily":0},{"id":"49164183716","owner":"61485851@N06","secret":"8bf6da7e4d","server":"65535","farm":66,"title":"Grey-rumped treeswift","ispublic":1,"isfriend":0,"isfamily":0},{"id":"49164161661","owner":"61485851@N06","secret":"40c1596876","server":"65535","farm":66,"title":"Grey-rumped treeswift","ispublic":1,"isfriend":0,"isfamily":0},{"id":"49164335577","owner":"61485851@N06","secret":"f8eed3e1f7","server":"65535","farm":66,"title":"Grey-rumped treeswift","ispublic":1,"isfriend":0,"isfamily":0},{"id":"49163174342","owner":"54034086@N02","secret":"e772101826","server":"65535","farm":66,"title":"Grey Rumped Treeswift","ispublic":1,"isfriend":0,"isfamily":0},{"id":"49151208701","owner":"67413109@N07","secret":"b9bf54cfb0","server":"65535","farm":66,"title":"Male Grey-rumped Treeswift Layang-layang kepala kelabu Taman Melawati kuala Lumpur","ispublic":1,"isfriend":0,"isfamily":0},{"id":"49149217358","owner":"64074416@N06","secret":"0a63373a3c","server":"65535","farm":66,"title":"Male Grey-rumped Treeswift (Hemiprocne longipennis \u7070\u8170\u6811\u71d5)","ispublic":1,"isfriend":0,"isfamily":0},{"id":"49142135576","owner":"47176854@N02","secret":"2bf1693e45","server":"65535","farm":66,"title":"Grey-rumped Treeswift","ispublic":1,"isfriend":0,"isfamily":0},{"id":"49141357928","owner":"61485851@N06","secret":"5641b7502a","server":"65535","farm":66,"title":"Grey-rumped treeswift","ispublic":1,"isfriend":0,"isfamily":0},{"id":"49141980987","owner":"61485851@N06","secret":"d444586570","server":"65535","farm":66,"title":"Grey-rumped treeswift (Lifer #29)","ispublic":1,"isfriend":0,"isfamily":0},{"id":"49141920407","owner":"61485851@N06","secret":"b7721fd177","server":"65535","farm":66,"title":"Grey-rumped treeswift","ispublic":1,"isfriend":0,"isfamily":0},{"id":"49141592331","owner":"61485851@N06","secret":"b67544b446","server":"65535","farm":66,"title":"Grey-rumped treeswift","ispublic":1,"isfriend":0,"isfamily":0},{"id":"49131193323","owner":"90764954@N07","secret":"0a530a1134","server":"65535","farm":66,"title":"Grey-rumped Treeswift (Hemiprocne longipennis) \u51e4\u5934\u6811\u71d5","ispublic":1,"isfriend":0,"isfamily":0},{"id":"46859613244","owner":"142083658@N05","secret":"ae1f1668ff","server":"7843","farm":8,"title":"Grey-rumped Treeswift, Hemiprocne longipennis, \u0425\u043e\u0445\u043b\u0430\u0442\u044b\u0439 \u0434\u0440\u0435\u0432\u0435\u0441\u043d\u044b\u0439 \u0441\u0442\u0440\u0438\u0436","ispublic":1,"isfriend":0,"isfamily":0},{"id":"33706622948","owner":"142083658@N05","secret":"6091210740","server":"7845","farm":8,"title":"Grey-rumped Treeswift, Hemiprocne longipennis, \u0425\u043e\u0445\u043b\u0430\u0442\u044b\u0439 \u0434\u0440\u0435\u0432\u0435\u0441\u043d\u044b\u0439 \u0441\u0442\u0440\u0438\u0436","ispublic":1,"isfriend":0,"isfamily":0},{"id":"41564144100","owner":"32136583@N04","secret":"4b9cb92d7c","server":"1805","farm":2,"title":"Grey Rumped Treeswift","ispublic":1,"isfriend":0,"isfamily":0},{"id":"41478459950","owner":"142083658@N05","secret":"dd16c2227b","server":"843","farm":1,"title":"Grey-rumped Treeswift, Hemiprocne longipennis, \u0425\u043e\u0445\u043b\u0430\u0442\u044b\u0439 \u0434\u0440\u0435\u0432\u0435\u0441\u043d\u044b\u0439 \u0441\u0442\u0440\u0438\u0436","ispublic":1,"isfriend":0,"isfamily":0},{"id":"41478455370","owner":"142083658@N05","secret":"9d5f497763","server":"1823","farm":2,"title":"Grey-rumped Treeswift, Hemiprocne longipennis, \u0425\u043e\u0445\u043b\u0430\u0442\u044b\u0439 \u0434\u0440\u0435\u0432\u0435\u0441\u043d\u044b\u0439 \u0441\u0442\u0440\u0438\u0436","ispublic":1,"isfriend":0,"isfamily":0},{"id":"42570184364","owner":"142083658@N05","secret":"4316b53167","server":"1804","farm":2,"title":"Grey-rumped Treeswift, Hemiprocne longipennis, \u0425\u043e\u0445\u043b\u0430\u0442\u044b\u0439 \u0434\u0440\u0435\u0432\u0435\u0441\u043d\u044b\u0439 \u0441\u0442\u0440\u0438\u0436","ispublic":1,"isfriend":0,"isfamily":0},{"id":"52570806641","owner":"7200351@N08","secret":"2645dae907","server":"65535","farm":66,"title":"Hemiprocne longipennis harterti","ispublic":1,"isfriend":0,"isfamily":0},{"id":"52344587488","owner":"64074416@N06","secret":"de4a4e08c3","server":"65535","farm":66,"title":"Male Grey-rumped Treeswift (Hemiprocne longipennis \u7070\u8170\u6811\u71d5)","ispublic":1,"isfriend":0,"isfamily":0},{"id":"52204967892","owner":"90764954@N07","secret":"761ee0e2d9","server":"65535","farm":66,"title":"Grey-rumped Treeswift (Hemiprocne longipennis) \u51e4\u5934\u6811\u71d5","ispublic":1,"isfriend":0,"isfamily":0},{"id":"50907365442","owner":"90764954@N07","secret":"4c26ef5601","server":"65535","farm":66,"title":"Grey-rumped Treeswift (Hemiprocne longipennis) \u51e4\u5934\u6811\u71d5","ispublic":1,"isfriend":0,"isfamily":0},{"id":"50906537758","owner":"90764954@N07","secret":"79441b04b7","server":"65535","farm":66,"title":"Grey-rumped Treeswift (Hemiprocne longipennis) \u51e4\u5934\u6811\u71d5","ispublic":1,"isfriend":0,"isfamily":0},{"id":"49857645041","owner":"53358437@N07","secret":"2836b07a6e","server":"65535","farm":66,"title":"Grey-rumped Treeswift (Hemiprocne longipennis)","ispublic":1,"isfriend":0,"isfamily":0},{"id":"49201918331","owner":"31805043@N05","secret":"6d8cd7ffb4","server":"65535","farm":66,"title":"Grey-rumped Treeswift","ispublic":1,"isfriend":0,"isfamily":0},{"id":"49186151988","owner":"47176854@N02","secret":"2c6ba115ba","server":"65535","farm":66,"title":"Grey-rumped Treeswift (Male)","ispublic":1,"isfriend":0,"isfamily":0},{"id":"49186151923","owner":"47176854@N02","secret":"cc3d58e499","server":"65535","farm":66,"title":"Grey-rumped Treeswift (Female)","ispublic":1,"isfriend":0,"isfamily":0},{"id":"49186151843","owner":"47176854@N02","secret":"e2c160fb06","server":"65535","farm":66,"title":"Grey-rumped Treeswift (Female)","ispublic":1,"isfriend":0,"isfamily":0},{"id":"49168369678","owner":"39066307@N03","secret":"1b42b42e7e","server":"65535","farm":66,"title":"Grey-rumped Tree-swift","ispublic":1,"isfriend":0,"isfamily":0},{"id":"49168344733","owner":"39066307@N03","secret":"0cca37ea2c","server":"65535","farm":66,"title":"Grey-rumped Tree-swift","ispublic":1,"isfriend":0,"isfamily":0},{"id":"49169050877","owner":"39066307@N03","secret":"d64b151856","server":"65535","farm":66,"title":"Grey-rumped Tree-swift","ispublic":1,"isfriend":0,"isfamily":0},{"id":"49158099118","owner":"39066307@N03","secret":"bfc405d9e1","server":"65535","farm":66,"title":"Grey-rumped Tree-swift","ispublic":1,"isfriend":0,"isfamily":0},{"id":"49158808807","owner":"39066307@N03","secret":"351294286c","server":"65535","farm":66,"title":"Grey-rumped Tree-swift","ispublic":1,"isfriend":0,"isfamily":0},{"id":"49156585018","owner":"64074416@N06","secret":"b12251553d","server":"65535","farm":66,"title":"Male Grey-rumped Treeswift (Hemiprocne longipennis \u7070\u8170\u6811\u71d5)","ispublic":1,"isfriend":0,"isfamily":0},{"id":"49149836601","owner":"21155756@N07","secret":"25808c895b","server":"65535","farm":66,"title":"Grey-Rumped Treeswift.","ispublic":1,"isfriend":0,"isfamily":0},{"id":"49149719552","owner":"64074416@N06","secret":"7e492fcb35","server":"65535","farm":66,"title":"Male Grey-rumped Treeswift (Hemiprocne longipennis \u7070\u8170\u6811\u71d5)","ispublic":1,"isfriend":0,"isfamily":0},{"id":"49141712073","owner":"47176854@N02","secret":"307c21735f","server":"65535","farm":66,"title":"Grey-rumped Treeswift (Male)","ispublic":1,"isfriend":0,"isfamily":0},{"id":"49142403882","owner":"47176854@N02","secret":"27e77a9316","server":"65535","farm":66,"title":"Grey-rumped Treeswift (Male)","ispublic":1,"isfriend":0,"isfamily":0},{"id":"49142403732","owner":"47176854@N02","secret":"97768988d8","server":"65535","farm":66,"title":"Grey-rumped Treeswift (Male)","ispublic":1,"isfriend":0,"isfamily":0},{"id":"49142403617","owner":"47176854@N02","secret":"d541d7e682","server":"65535","farm":66,"title":"Grey-rumped Treeswift (Female)","ispublic":1,"isfriend":0,"isfamily":0},{"id":"49142205211","owner":"47176854@N02","secret":"f1c5396af8","server":"65535","farm":66,"title":"Grey-rumped Treeswift (Female)","ispublic":1,"isfriend":0,"isfamily":0},{"id":"49141711608","owner":"47176854@N02","secret":"2e3aa98725","server":"65535","farm":66,"title":"Grey-rumped Treeswift (Male)","ispublic":1,"isfriend":0,"isfamily":0},{"id":"49141711493","owner":"47176854@N02","secret":"b50c053308","server":"65535","farm":66,"title":"Grey-rumped Treeswift (Male & Female pair)","ispublic":1,"isfriend":0,"isfamily":0},{"id":"49142136011","owner":"47176854@N02","secret":"09b3d2cd8e","server":"65535","farm":66,"title":"Grey-rumped Treeswift (Male)","ispublic":1,"isfriend":0,"isfamily":0},{"id":"49142135971","owner":"47176854@N02","secret":"a79c9a1dbf","server":"65535","farm":66,"title":"Grey-rumped Treeswift (Male)","ispublic":1,"isfriend":0,"isfamily":0},{"id":"49142135861","owner":"47176854@N02","secret":"cb28ded36f","server":"65535","farm":66,"title":"Grey-rumped Treeswift (Female)","ispublic":1,"isfriend":0,"isfamily":0},{"id":"49142135756","owner":"47176854@N02","secret":"83558c21bb","server":"65535","farm":66,"title":"Grey-rumped Treeswift (Male)","ispublic":1,"isfriend":0,"isfamily":0},{"id":"49142334567","owner":"47176854@N02","secret":"e9541f0ce8","server":"65535","farm":66,"title":"Grey-rumped Treeswift","ispublic":1,"isfriend":0,"isfamily":0},{"id":"49142135496","owner":"47176854@N02","secret":"f72dedbdce","server":"65535","farm":66,"title":"Grey-rumped Treeswift (Male)","ispublic":1,"isfriend":0,"isfamily":0},{"id":"49141641818","owner":"47176854@N02","secret":"c55e464a84","server":"65535","farm":66,"title":"Grey-rumped Treeswift (Female)","ispublic":1,"isfriend":0,"isfamily":0},{"id":"49141641678","owner":"47176854@N02","secret":"3645dd1303","server":"65535","farm":66,"title":"Grey-rumped Treeswift (Female)","ispublic":1,"isfriend":0,"isfamily":0},{"id":"49142135186","owner":"47176854@N02","secret":"a04f9942f9","server":"65535","farm":66,"title":"Grey-rumped Treeswift","ispublic":1,"isfriend":0,"isfamily":0},{"id":"49141641343","owner":"47176854@N02","secret":"fb8628fe65","server":"65535","farm":66,"title":"Grey-rumped Treeswift","ispublic":1,"isfriend":0,"isfamily":0},{"id":"49131688126","owner":"90764954@N07","secret":"12abe49b2b","server":"65535","farm":66,"title":"Grey-rumped Treeswift (Hemiprocne longipennis) \u51e4\u5934\u6811\u71d5","ispublic":1,"isfriend":0,"isfamily":0},{"id":"49131874712","owner":"90764954@N07","secret":"54e9d03c2b","server":"65535","farm":66,"title":"Grey-rumped Treeswift (Hemiprocne longipennis) \u51e4\u5934\u6811\u71d5","ispublic":1,"isfriend":0,"isfamily":0},{"id":"49131688041","owner":"90764954@N07","secret":"9d76547411","server":"65535","farm":66,"title":"Grey-rumped Treeswift (Hemiprocne longipennis) \u51e4\u5934\u6811\u71d5","ispublic":1,"isfriend":0,"isfamily":0},{"id":"49131687976","owner":"90764954@N07","secret":"f623781cb2","server":"65535","farm":66,"title":"Grey-rumped Treeswift (Hemiprocne longipennis) \u51e4\u5934\u6811\u71d5","ispublic":1,"isfriend":0,"isfamily":0},{"id":"49131874442","owner":"90764954@N07","secret":"1f4707e0aa","server":"65535","farm":66,"title":"Grey-rumped Treeswift (Hemiprocne longipennis) \u51e4\u5934\u6811\u71d5","ispublic":1,"isfriend":0,"isfamily":0},{"id":"49131687801","owner":"90764954@N07","secret":"7c102f2864","server":"65535","farm":66,"title":"Grey-rumped Treeswift (Hemiprocne longipennis) \u51e4\u5934\u6811\u71d5","ispublic":1,"isfriend":0,"isfamily":0},{"id":"49131874332","owner":"90764954@N07","secret":"545eba8360","server":"65535","farm":66,"title":"Grey-rumped Treeswift (Hemiprocne longipennis) \u51e4\u5934\u6811\u71d5","ispublic":1,"isfriend":0,"isfamily":0},{"id":"49131874247","owner":"90764954@N07","secret":"061def7ce6","server":"65535","farm":66,"title":"Grey-rumped Treeswift (Hemiprocne longipennis) \u51e4\u5934\u6811\u71d5","ispublic":1,"isfriend":0,"isfamily":0},{"id":"49131193273","owner":"90764954@N07","secret":"ef126b7301","server":"65535","farm":66,"title":"Grey-rumped Treeswift (Hemiprocne longipennis) \u51e4\u5934\u6811\u71d5","ispublic":1,"isfriend":0,"isfamily":0},{"id":"49131687576","owner":"90764954@N07","secret":"928fd50b3c","server":"65535","farm":66,"title":"Grey-rumped Treeswift (Hemiprocne longipennis) \u51e4\u5934\u6811\u71d5","ispublic":1,"isfriend":0,"isfamily":0},{"id":"44064210871","owner":"7200351@N08","secret":"e43b12bd7d","server":"1775","farm":2,"title":"Hemiprocne longipennis harterti - male","ispublic":1,"isfriend":0,"isfamily":0},{"id":"44064210721","owner":"7200351@N08","secret":"f7b3afa066","server":"1775","farm":2,"title":"Hemiprocne longipennis harterti - male","ispublic":1,"isfriend":0,"isfamily":0},{"id":"42222636300","owner":"12639178@N07","secret":"a01eedf0e7","server":"1798","farm":2,"title":"Haubenbaumsegler","ispublic":1,"isfriend":0,"isfamily":0},{"id":"42216180670","owner":"12639178@N07","secret":"c0c5b8bff6","server":"1840","farm":2,"title":"Haubenbaumsegler","ispublic":1,"isfriend":0,"isfamily":0},{"id":"42216179430","owner":"12639178@N07","secret":"0c9110a5b5","server":"1813","farm":2,"title":"Haubenbaumsegler","ispublic":1,"isfriend":0,"isfamily":0},{"id":"43306644704","owner":"12639178@N07","secret":"9b8a803e7c","server":"1776","farm":2,"title":"Haubenbaumsegler","ispublic":1,"isfriend":0,"isfamily":0},{"id":"42570188804","owner":"142083658@N05","secret":"2fd6aca375","server":"847","farm":1,"title":"Grey-rumped Treeswift, Hemiprocne longipennis, \u0425\u043e\u0445\u043b\u0430\u0442\u044b\u0439 \u0434\u0440\u0435\u0432\u0435\u0441\u043d\u044b\u0439 \u0441\u0442\u0440\u0438\u0436","ispublic":1,"isfriend":0,"isfamily":0},{"id":"41416842800","owner":"124565942@N06","secret":"876de8bce2","server":"1809","farm":2,"title":"Grey-rumped Treeswift-Hemiprocne longipennis","ispublic":1,"isfriend":0,"isfamily":0},{"id":"42620516761","owner":"47176854@N02","secret":"9b9d1b9b4a","server":"1749","farm":2,"title":"Grey-Rumped Treeswift","ispublic":1,"isfriend":0,"isfamily":0},{"id":"27751683407","owner":"47176854@N02","secret":"80833b8da7","server":"1722","farm":2,"title":"Grey-Rumped Treeswift","ispublic":1,"isfriend":0,"isfamily":0}]},"stat":"ok"}