{"photos":{"page":1,"pages":518,"perpage":100,"total":51745,"photo":[{"id":"52724587453","owner":"140318147@N08","secret":"a654381122","server":"65535","farm":66,"title":"great egret (Ardea alba) L4A6815","ispublic":1,"isfriend":0,"isfamily":0},{"id":"52724166659","owner":"12639178@N07","secret":"de38ba4beb","server":"65535","farm":66,"title":"Stillleben","ispublic":1,"isfriend":0,"isfamily":0},{"id":"52724368318","owner":"12639178@N07","secret":"27bf464540","server":"65535","farm":66,"title":"Silberreiher (Ardea alba) (1)","ispublic":1,"isfriend":0,"isfamily":0},{"id":"52723883786","owner":"12639178@N07","secret":"3caf632cde","server":"65535","farm":66,"title":"Silberreiher mit Beute","ispublic":1,"isfriend":0,"isfamily":0},{"id":"52723632681","owner":"121321155@N06","secret":"25096ab8de","server":"65535","farm":66,"title":"20230226_MG_2075","ispublic":1,"isfriend":0,"isfamily":0},{"id":"52724108743","owner":"121321155@N06","secret":"33b53d5719","server":"65535","farm":66,"title":"20230226_MG_2102","ispublic":1,"isfriend":0,"isfamily":0},{"id":"52724108763","owner":"121321155@N06","secret":"34a72041ac","server":"65535","farm":66,"title":"20230226_MG_2002","ispublic":1,"isfriend":0,"isfamily":0},{"id":"52722989217","owner":"83761055@N08","secret":"2ecac485ba","server":"65535","farm":66,"title":"Great egret","ispublic":1,"isfriend":0,"isfamily":0},{"id":"52723696034","owner":"155603255@N04","secret":"7e49d6bdfa","server":"65535","farm":66,"title":"Grande Aigrette Ardea alba - Great Egret","ispublic":1,"isfriend":0,"isfamily":0},{"id":"52723171580","owner":"42388593@N04","secret":"5c95200fc0","server":"65535","farm":66,"title":"S\u00f8lvhejre, Great egret, Silberreiher (Ardea alba)-0107","ispublic":1,"isfriend":0,"isfamily":0},{"id":"52723202488","owner":"8417651@N08","secret":"ccc010d703","server":"65535","farm":66,"title":"garceta grande","ispublic":1,"isfriend":0,"isfamily":0},{"id":"52722970314","owner":"42388593@N04","secret":"2c02299bbc","server":"65535","farm":66,"title":"S\u00f8lvhejre, Great egret, Silberreiher (Ardea alba)-0010","ispublic":1,"isfriend":0,"isfamily":0},{"id":"52721444682","owner":"40941741@N03","secret":"126f1ce8ae","server":"65535","farm":66,"title":"Party Time","ispublic":1,"isfriend":0,"isfamily":0},{"id":"52721444427","owner":"40941741@N03","secret":"995f363632","server":"65535","farm":66,"title":"Gathering","ispublic":1,"isfriend":0,"isfamily":0},{"id":"52722284335","owner":"12639178@N07","secret":"f836ef820e","server":"65535","farm":66,"title":"Silberreiher (Ardea alba) (1)","ispublic":1,"isfriend":0,"isfamily":0},{"id":"52721491466","owner":"12639178@N07","secret":"50cbb9f323","server":"65535","farm":66,"title":"Silberreiher am Wasserlauf","ispublic":1,"isfriend":0,"isfamily":0},{"id":"52721482451","owner":"12639178@N07","secret":"f04f3ca452","server":"65535","farm":66,"title":"grazile Luftbewegung","ispublic":1,"isfriend":0,"isfamily":0},{"id":"52721355451","owner":"42388593@N04","secret":"b41c48f513","server":"65535","farm":66,"title":"S\u00f8lvhejre, Great egret, Silberreiher (Ardea alba)-0113","ispublic":1,"isfriend":0,"isfamily":0},{"id":"52721375850","owner":"112292182@N02","secret":"a58dd8aa9c","server":"65535","farm":66,"title":"Great White","ispublic":1,"isfriend":0,"isfamily":0},{"id":"52720669246","owner":"123529713@N08","secret":"cc0bceed24","server":"65535","farm":66,"title":"Agro blanc - Garceta grande - Great egret - Grande aigrette - Ardea alba","ispublic":1,"isfriend":0,"isfamily":0},{"id":"52720072292","owner":"12639178@N07","secret":"1eac7274c7","server":"65535","farm":66,"title":"Im ersten Licht - Silberreiher","ispublic":1,"isfriend":0,"isfamily":0},{"id":"52720752953","owner":"22163926@N05","secret":"47357c0545","server":"65535","farm":66,"title":"Close Encounter of the Bird Kind","ispublic":1,"isfriend":0,"isfamily":0},{"id":"52719848224","owner":"34207648@N07","secret":"dcd5a22614","server":"65535","farm":66,"title":"Great White Egret with a snack - (Ardea alba)","ispublic":1,"isfriend":0,"isfamily":0},{"id":"52718869157","owner":"77931884@N00","secret":"d89d37e7dc","server":"65535","farm":66,"title":"Great White Egret","ispublic":1,"isfriend":0,"isfamily":0},{"id":"52718496852","owner":"12639178@N07","secret":"ef63f41bb4","server":"65535","farm":66,"title":"Silberreiher (Ardea alba)","ispublic":1,"isfriend":0,"isfamily":0},{"id":"52719152799","owner":"127588226@N08","secret":"b2d0b886d1","server":"65535","farm":66,"title":"K33P4218c Great Egret, Lakenheath Fen, October 2022","ispublic":1,"isfriend":0,"isfamily":0},{"id":"52719376183","owner":"127588226@N08","secret":"c003db4012","server":"65535","farm":66,"title":"K33P4219c Great Egret, Lakenheath Fen, October 2022","ispublic":1,"isfriend":0,"isfamily":0},{"id":"52718261257","owner":"12639178@N07","secret":"743975f084","server":"65535","farm":66,"title":"Silberreiher","ispublic":1,"isfriend":0,"isfamily":0},{"id":"52717523047","owner":"12639178@N07","secret":"fee56b2bb8","server":"65535","farm":66,"title":"Silberreiher","ispublic":1,"isfriend":0,"isfamily":0},{"id":"52716767362","owner":"12639178@N07","secret":"b5f673b3fa","server":"65535","farm":66,"title":"der dritte","ispublic":1,"isfriend":0,"isfamily":0},{"id":"52717718170","owner":"12639178@N07","secret":"63b214671a","server":"65535","farm":66,"title":"Silberreiher auf einer Feuchtwiese","ispublic":1,"isfriend":0,"isfamily":0},{"id":"52716690317","owner":"62043870@N05","secret":"38d59354ef","server":"65535","farm":66,"title":"Great Egret, Ardea alba","ispublic":1,"isfriend":0,"isfamily":0},{"id":"52716860630","owner":"12639178@N07","secret":"9c8dc62dd6","server":"65535","farm":66,"title":"Auf Pirsch im ersten Licht","ispublic":1,"isfriend":0,"isfamily":0},{"id":"52716835748","owner":"65788177@N02","secret":"aefbde3ede","server":"65535","farm":66,"title":"Great Egret","ispublic":1,"isfriend":0,"isfamily":0},{"id":"52715634942","owner":"26520320@N03","secret":"dff5aa2de7","server":"65535","farm":66,"title":"_BAP0607","ispublic":1,"isfriend":0,"isfamily":0},{"id":"52716148526","owner":"79791557@N02","secret":"9a5d16716e","server":"65535","farm":66,"title":"Great White Egret (Ardea alba)","ispublic":1,"isfriend":0,"isfamily":0},{"id":"52716381129","owner":"26520320@N03","secret":"ed015c7cbe","server":"65535","farm":66,"title":"_BAP0303","ispublic":1,"isfriend":0,"isfamily":0},{"id":"52716604148","owner":"26520320@N03","secret":"94011473e9","server":"65535","farm":66,"title":"_BAP0301","ispublic":1,"isfriend":0,"isfamily":0},{"id":"52716603818","owner":"26520320@N03","secret":"f3b43c176b","server":"65535","farm":66,"title":"_BAP0300","ispublic":1,"isfriend":0,"isfamily":0},{"id":"52716546980","owner":"26520320@N03","secret":"bdc77ea311","server":"65535","farm":66,"title":"_BAP0299","ispublic":1,"isfriend":0,"isfamily":0},{"id":"52716546535","owner":"26520320@N03","secret":"519839cc73","server":"65535","farm":66,"title":"_BAP0296","ispublic":1,"isfriend":0,"isfamily":0},{"id":"52716426715","owner":"191763015@N02","secret":"2aa671b7c2","server":"65535","farm":66,"title":"BALANCING ACT","ispublic":1,"isfriend":0,"isfamily":0},{"id":"52715250972","owner":"11701520@N03","secret":"23f6d73f47","server":"65535","farm":66,"title":"K\u014dtuku \/ White Heron (Ardea alba)","ispublic":1,"isfriend":0,"isfamily":0},{"id":"52715247499","owner":"12291792@N05","secret":"3327c12ac1","server":"65535","farm":66,"title":"Going ... going ... gone","ispublic":1,"isfriend":0,"isfamily":0},{"id":"52714053788","owner":"66550674@N06","secret":"1c47fc5704","server":"65535","farm":66,"title":"Great Egret","ispublic":1,"isfriend":0,"isfamily":0},{"id":"52713055122","owner":"30888088@N02","secret":"263655cc77","server":"65535","farm":66,"title":"A29C6826","ispublic":1,"isfriend":0,"isfamily":0},{"id":"52713970463","owner":"30888088@N02","secret":"e7d524a890","server":"65535","farm":66,"title":"A29C9517","ispublic":1,"isfriend":0,"isfamily":0},{"id":"52713617069","owner":"8561740@N08","secret":"6f0ba74d62","server":"65535","farm":66,"title":"Great egret, great landing","ispublic":1,"isfriend":0,"isfamily":0},{"id":"52713177094","owner":"12639178@N07","secret":"6f58f0468f","server":"65535","farm":66,"title":"Silberreiher","ispublic":1,"isfriend":0,"isfamily":0},{"id":"52712634371","owner":"82393004@N02","secret":"266aebdc10","server":"65535","farm":66,"title":"Florida Bird Pictures","ispublic":1,"isfriend":0,"isfamily":0},{"id":"52712463664","owner":"12639178@N07","secret":"be33441234","server":"65535","farm":66,"title":"Silberreiher (Ardea alba)","ispublic":1,"isfriend":0,"isfamily":0},{"id":"52712676608","owner":"12639178@N07","secret":"e1ce297fb5","server":"65535","farm":66,"title":"Silberreiher (Ardea alba)","ispublic":1,"isfriend":0,"isfamily":0},{"id":"52712282434","owner":"45246060@N03","secret":"d1eb18cc7c","server":"65535","farm":66,"title":"Great egret","ispublic":1,"isfriend":0,"isfamily":0},{"id":"52711499127","owner":"45246060@N03","secret":"643a0bb86f","server":"65535","farm":66,"title":"Great egret","ispublic":1,"isfriend":0,"isfamily":0},{"id":"52712282214","owner":"45246060@N03","secret":"e604a90753","server":"65535","farm":66,"title":"Great egret","ispublic":1,"isfriend":0,"isfamily":0},{"id":"52711928396","owner":"12639178@N07","secret":"9920f45d0b","server":"65535","farm":66,"title":"Silberreiher","ispublic":1,"isfriend":0,"isfamily":0},{"id":"52711646151","owner":"12639178@N07","secret":"ba895215a4","server":"65535","farm":66,"title":"zwei von 4 Silberreiher suchen das Feld ab","ispublic":1,"isfriend":0,"isfamily":0},{"id":"52711303536","owner":"73431753@N00","secret":"9f2fc063d5","server":"65535","farm":66,"title":"IMG_6436","ispublic":1,"isfriend":0,"isfamily":0},{"id":"52711036129","owner":"89254734@N00","secret":"93ff831c26","server":"65535","farm":66,"title":"DSC06476.jpg","ispublic":1,"isfriend":0,"isfamily":0},{"id":"52710990100","owner":"12639178@N07","secret":"026149e60c","server":"65535","farm":66,"title":"Silberreiher (Ardea alba) (1)","ispublic":1,"isfriend":0,"isfamily":0},{"id":"52710478401","owner":"12639178@N07","secret":"44e6e33dcc","server":"65535","farm":66,"title":"Silberreiher (Ardea alba) (3)","ispublic":1,"isfriend":0,"isfamily":0},{"id":"52710735959","owner":"12639178@N07","secret":"2b8dbfef4d","server":"65535","farm":66,"title":"Silberreiher (Ardea alba) (2)","ispublic":1,"isfriend":0,"isfamily":0},{"id":"52710893115","owner":"12639178@N07","secret":"0cf0999b42","server":"65535","farm":66,"title":"Silberreiher","ispublic":1,"isfriend":0,"isfamily":0},{"id":"52710084276","owner":"183876076@N02","secret":"1017c34051","server":"65535","farm":66,"title":"XV - II - MMXXII","ispublic":1,"isfriend":0,"isfamily":0},{"id":"52710346130","owner":"133162119@N04","secret":"a857914154","server":"65535","farm":66,"title":"Grande Aigrette - Ardea alba - Great Egret","ispublic":1,"isfriend":0,"isfamily":0},{"id":"52709832916","owner":"123529713@N08","secret":"acaccb03d4","server":"65535","farm":66,"title":"Agro blanc - Garceta grande - Great egret - Grande aigrette - Ardea alba","ispublic":1,"isfriend":0,"isfamily":0},{"id":"52710109050","owner":"125800022@N02","secret":"a7afe8093e","server":"65535","farm":66,"title":"_45I9563 Grande aigrette (Ardea alba)","ispublic":1,"isfriend":0,"isfamily":0},{"id":"52710047315","owner":"156305332@N02","secret":"c72f9b29fc","server":"65535","farm":66,"title":"Rat\u00e9....","ispublic":1,"isfriend":0,"isfamily":0},{"id":"52709994045","owner":"189149566@N04","secret":"a67e9b7e68","server":"65535","farm":66,"title":"Grande aigrette (Ardea alba)","ispublic":1,"isfriend":0,"isfamily":0},{"id":"52709377930","owner":"196366228@N03","secret":"cc7d9f769a","server":"65535","farm":66,"title":"DSCF3460","ispublic":1,"isfriend":0,"isfamily":0},{"id":"52708246152","owner":"146359542@N05","secret":"2b834aaaaa","server":"65535","farm":66,"title":"Grande aigrette vol 230224-01-RS","ispublic":1,"isfriend":0,"isfamily":0},{"id":"52707913147","owner":"12639178@N07","secret":"e92ccb94f1","server":"65535","farm":66,"title":"Silberreiher (Ardea alba) (1)","ispublic":1,"isfriend":0,"isfamily":0},{"id":"52708195921","owner":"125800022@N02","secret":"99a578934c","server":"65535","farm":66,"title":"_45I9562 Grande aigrette (Ardea alba)","ispublic":1,"isfriend":0,"isfamily":0},{"id":"52708413623","owner":"12639178@N07","secret":"aed7d8eca2","server":"65535","farm":66,"title":"Ansammlung von Silberrehern","ispublic":1,"isfriend":0,"isfamily":0},{"id":"52708092190","owner":"73431753@N00","secret":"959d30a4a3","server":"65535","farm":66,"title":"IMG_6343","ispublic":1,"isfriend":0,"isfamily":0},{"id":"52708042638","owner":"12639178@N07","secret":"82d44eac4a","server":"65535","farm":66,"title":"Silberreiher","ispublic":1,"isfriend":0,"isfamily":0},{"id":"52707753813","owner":"191829438@N07","secret":"0a9d33b002","server":"65535","farm":66,"title":"Ardea alba","ispublic":1,"isfriend":0,"isfamily":0},{"id":"52706894936","owner":"46837385@N03","secret":"2221ae4e27","server":"65535","farm":66,"title":"Great Egret Portrait","ispublic":1,"isfriend":0,"isfamily":0},{"id":"52707157945","owner":"12639178@N07","secret":"d5b62728bb","server":"65535","farm":66,"title":"Silberreiher (Ardea alba) (1)","ispublic":1,"isfriend":0,"isfamily":0},{"id":"52707100458","owner":"12639178@N07","secret":"458349a981","server":"65535","farm":66,"title":"Silberreiher","ispublic":1,"isfriend":0,"isfamily":0},{"id":"52707003528","owner":"185187229@N02","secret":"59282c6ebc","server":"65535","farm":66,"title":"Grande aigrette","ispublic":1,"isfriend":0,"isfamily":0},{"id":"52706515211","owner":"45246060@N03","secret":"07f115e883","server":"65535","farm":66,"title":"Great egret","ispublic":1,"isfriend":0,"isfamily":0},{"id":"52706193781","owner":"38514062@N03","secret":"ee83a1da21","server":"65535","farm":66,"title":"Great Egret (Ardea alba)","ispublic":1,"isfriend":0,"isfamily":0},{"id":"52705546312","owner":"76782619@N04","secret":"150577fb5b","server":"65535","farm":66,"title":"Challenge","ispublic":1,"isfriend":0,"isfamily":0},{"id":"52706383010","owner":"197534907@N05","secret":"eb12d55c62","server":"65535","farm":66,"title":"Garceta grande (Ardea alba modesta)","ispublic":1,"isfriend":0,"isfamily":0},{"id":"52706288663","owner":"145890134@N05","secret":"2b60ae01eb","server":"65535","farm":66,"title":"Great Egret | Grote Zilverreiger | Gro\u00dfer Reiher, (Ardea alba)","ispublic":1,"isfriend":0,"isfamily":0},{"id":"52705039197","owner":"148127545@N07","secret":"9c00912279","server":"65535","farm":66,"title":"Egret BW","ispublic":1,"isfriend":0,"isfamily":0},{"id":"52705450544","owner":"147580042@N02","secret":"9f2afb6563","server":"65535","farm":66,"title":"DSC09146_N - Tsiribihina Gar\u00e7a-Branca-Grande","ispublic":1,"isfriend":0,"isfamily":0},{"id":"52705685533","owner":"147580042@N02","secret":"54f68bcfe4","server":"65535","farm":66,"title":"DSC09147_N - Tsiribihina Gar\u00e7a-Branca-Grande","ispublic":1,"isfriend":0,"isfamily":0},{"id":"52704938939","owner":"143053601@N02","secret":"caa2cf5cf1","server":"65535","farm":66,"title":"Grande Aigrette (Ardea alba)","ispublic":1,"isfriend":0,"isfamily":0},{"id":"52704159902","owner":"143053601@N02","secret":"1c90b523f3","server":"65535","farm":66,"title":"Grande Aigrette (Ardea alba)","ispublic":1,"isfriend":0,"isfamily":0},{"id":"52703415163","owner":"101053744@N02","secret":"d2f1f3ebf6","server":"65535","farm":66,"title":"Czapla bia\u0142a","ispublic":1,"isfriend":0,"isfamily":0},{"id":"52703182354","owner":"101053744@N02","secret":"0aae492aa5","server":"65535","farm":66,"title":"Czapla bia\u0142a","ispublic":1,"isfriend":0,"isfamily":0},{"id":"52703344663","owner":"12639178@N07","secret":"2f2a27ef28","server":"65535","farm":66,"title":"Silberreiher (Ardea alba) (2)","ispublic":1,"isfriend":0,"isfamily":0},{"id":"52703110369","owner":"12639178@N07","secret":"032611aecf","server":"65535","farm":66,"title":"7 auf einen Streich, gut getarnte Silberreiher.","ispublic":1,"isfriend":0,"isfamily":0},{"id":"52702196787","owner":"146359542@N05","secret":"570636465a","server":"65535","farm":66,"title":"Grande aigrette envol 230221-01-RS","ispublic":1,"isfriend":0,"isfamily":0},{"id":"52702991858","owner":"12639178@N07","secret":"6acafc3c94","server":"65535","farm":66,"title":"Silberreiher","ispublic":1,"isfriend":0,"isfamily":0},{"id":"52702852703","owner":"8783241@N08","secret":"9bca97ccf4","server":"65535","farm":66,"title":"Ardea alba - Great Egret","ispublic":1,"isfriend":0,"isfamily":0},{"id":"52702816963","owner":"161505078@N03","secret":"7d13d2686c","server":"65535","farm":66,"title":"Great Egret (Ardea alba)","ispublic":1,"isfriend":0,"isfamily":0},{"id":"52702634510","owner":"133162119@N04","secret":"e88a9fda6c","server":"65535","farm":66,"title":"Grande Aigrette - Ardea alba - Great Egret","ispublic":1,"isfriend":0,"isfamily":0}]},"stat":"ok"}