{"photos":{"page":1,"pages":7,"perpage":100,"total":644,"photo":[{"id":"52779789969","owner":"119787485@N07","secret":"3d474b612c","server":"65535","farm":66,"title":"Great Knot (Calidris tenuirostris) - 20221010-02","ispublic":1,"isfriend":0,"isfamily":0},{"id":"52743850903","owner":"163930705@N05","secret":"2e007de537","server":"65535","farm":66,"title":"Great Knot \/ Gr\u00e1t\u00edta (Calidris tenuirostris)","ispublic":1,"isfriend":0,"isfamily":0},{"id":"52725419801","owner":"80648919@N08","secret":"607332b2dd","server":"65535","farm":66,"title":"Great Knot","ispublic":1,"isfriend":0,"isfamily":0},{"id":"52722756133","owner":"90408688@N02","secret":"553408c78c","server":"65535","farm":66,"title":"Calidris tenuirostris - Great Knot","ispublic":1,"isfriend":0,"isfamily":0},{"id":"52684846720","owner":"29826595@N06","secret":"2845cd5dff","server":"65535","farm":66,"title":"Stranger in the pack","ispublic":1,"isfriend":0,"isfamily":0},{"id":"52681642607","owner":"96060626@N03","secret":"b900faf739","server":"65535","farm":66,"title":"20230205\u5927\u6ff1\u9df8 (26)","ispublic":1,"isfriend":0,"isfamily":0},{"id":"52622332156","owner":"113679267@N08","secret":"c699a82793","server":"65535","farm":66,"title":"Great Knot - imm. (Calidris tenuirostris)","ispublic":1,"isfriend":0,"isfamily":0},{"id":"52610210805","owner":"50809355@N06","secret":"cbc0aa9823","server":"65535","farm":66,"title":"Great Knot Calidris tenuirostris Scolopacidae Shoal Bay","ispublic":1,"isfriend":0,"isfamily":0},{"id":"52592931914","owner":"151677249@N08","secret":"eab1bcd892","server":"65535","farm":66,"title":"Bar-tailed Godwit (Limosa lapponica) top of photo and 2 Black-tailed Godwits (Limosa limosa) to the left with a Great Knot (Calidris tenuirostris) in the foreground","ispublic":1,"isfriend":0,"isfamily":0},{"id":"52550561388","owner":"40195635@N03","secret":"788839c529","server":"65535","farm":66,"title":"Great Knot (Calidris tenuirostris)","ispublic":1,"isfriend":0,"isfamily":0},{"id":"52464000831","owner":"151677249@N08","secret":"2e7b7681a0","server":"65535","farm":66,"title":"Great Knot (Calidris tenuirostris)","ispublic":1,"isfriend":0,"isfamily":0},{"id":"52418235398","owner":"113679267@N08","secret":"747ac0cdfb","server":"65535","farm":66,"title":"Great Knot (imm.)(Calidris tenuirostris)","ispublic":1,"isfriend":0,"isfamily":0},{"id":"52385340389","owner":"169408738@N08","secret":"b52164414c","server":"65535","farm":66,"title":"Great Knot (Calidris tenuirostris) \u5927\u6ff1\u9df8 \u2013 230922_R7C4970-71-72-73Mx","ispublic":1,"isfriend":0,"isfamily":0},{"id":"52160696235","owner":"132431122@N05","secret":"77730e46ee","server":"65535","farm":66,"title":"Great Knot","ispublic":1,"isfriend":0,"isfamily":0},{"id":"52159161122","owner":"132431122@N05","secret":"da60185bba","server":"65535","farm":66,"title":"Great Knot","ispublic":1,"isfriend":0,"isfamily":0},{"id":"52160179696","owner":"132431122@N05","secret":"a08847874a","server":"65535","farm":66,"title":"Great Knot","ispublic":1,"isfriend":0,"isfamily":0},{"id":"52133042496","owner":"195506649@N05","secret":"e861cb63fd","server":"65535","farm":66,"title":"Calidris tenuirostris","ispublic":1,"isfriend":0,"isfamily":0},{"id":"52020795140","owner":"77128742@N06","secret":"aec4d806bf","server":"65535","farm":66,"title":"Grosser Knutt_Calidris tenuirostris-22","ispublic":1,"isfriend":0,"isfamily":0},{"id":"51884819874","owner":"142083658@N05","secret":"b6d49d73dd","server":"65535","farm":66,"title":"Great Knot, Calidris tenuirostris, \u0411\u043e\u043b\u044c\u0448\u043e\u0439 \u043f\u0435\u0441\u043e\u0447\u043d\u0438\u043a","ispublic":1,"isfriend":0,"isfamily":0},{"id":"51832079046","owner":"107784905@N04","secret":"7fc1ea92e9","server":"65535","farm":66,"title":"B\u00e9casseau de l'Anadyr - Pak Thale\/Phetchaburi\/TH_20191124_016-1","ispublic":1,"isfriend":0,"isfamily":0},{"id":"51720484568","owner":"145489125@N03","secret":"702fede108","server":"65535","farm":66,"title":"Great Knot ( Calidris tenuirostris ) ... Cairns , Queensland , Australia","ispublic":1,"isfriend":0,"isfamily":0},{"id":"51555720333","owner":"21155756@N07","secret":"a9c048609a","server":"65535","farm":66,"title":"Great Knot","ispublic":1,"isfriend":0,"isfamily":0},{"id":"51552554824","owner":"26812240@N08","secret":"d141c8108c","server":"65535","farm":66,"title":"Great Knot (Calidris tenuirostris)","ispublic":1,"isfriend":0,"isfamily":0},{"id":"51280153637","owner":"38356169@N07","secret":"6ba23387db","server":"65535","farm":66,"title":"Great Knot (non-breeding plumage)","ispublic":1,"isfriend":0,"isfamily":0},{"id":"51275487222","owner":"61021753@N02","secret":"5cb70ef3cf","server":"65535","farm":66,"title":"n146_w1150","ispublic":1,"isfriend":0,"isfamily":0},{"id":"51232897217","owner":"61021753@N02","secret":"039cd17366","server":"65535","farm":66,"title":"n341_w1150","ispublic":1,"isfriend":0,"isfamily":0},{"id":"51217744098","owner":"69947563@N07","secret":"b6d80a8c8b","server":"65535","farm":66,"title":"Great Knot - Ban Laem District, Thailand","ispublic":1,"isfriend":0,"isfamily":0},{"id":"51171222739","owner":"70081115@N06","secret":"c54374f580","server":"65535","farm":66,"title":"Great Knot","ispublic":1,"isfriend":0,"isfamily":0},{"id":"51165606383","owner":"127542576@N05","secret":"b873540f70","server":"65535","farm":66,"title":"\u5927\u6ff1\u9df8\u3014\u59e5\u9df8\u3015 (Calidris tenuirostris#Great Knot)","ispublic":1,"isfriend":0,"isfamily":0},{"id":"51165368361","owner":"127542576@N05","secret":"9480bc4cce","server":"65535","farm":66,"title":"\u5927\u6ff1\u9df8\u3014\u59e5\u9df8\u3015 (Calidris tenuirostris#Great Knot)","ispublic":1,"isfriend":0,"isfamily":0},{"id":"51166469005","owner":"127542576@N05","secret":"342891b4f2","server":"65535","farm":66,"title":"\u5927\u6ff1\u9df8\u3014\u59e5\u9df8\u3015 (Calidris tenuirostris#Great Knot)","ispublic":1,"isfriend":0,"isfamily":0},{"id":"51166150424","owner":"127542576@N05","secret":"658c649bda","server":"65535","farm":66,"title":"\u5927\u6ff1\u9df8\u3014\u59e5\u9df8\u3015 (Calidris tenuirostris#Great Knot)","ispublic":1,"isfriend":0,"isfamily":0},{"id":"51159559135","owner":"190014189@N06","secret":"7c7c16626a","server":"65535","farm":66,"title":"Great Knot \/ Calidris tenuirostris","ispublic":1,"isfriend":0,"isfamily":0},{"id":"51150117463","owner":"169408738@N08","secret":"9618ee0167","server":"65535","farm":66,"title":"Great Knot (Calidris tenuirostris) \u5927\u6ff1\u9df8 \u2013 030411_MG_5077x","ispublic":1,"isfriend":0,"isfamily":0},{"id":"51147282846","owner":"50809355@N06","secret":"bdf085b610","server":"65535","farm":66,"title":"Great Knot Calidris tenuirostris Scolopacidae Shoal Bay","ispublic":1,"isfriend":0,"isfamily":0},{"id":"51113082916","owner":"29954808@N00","secret":"8f321870ab","server":"65535","farm":66,"title":"Calidris tenuirostris","ispublic":1,"isfriend":0,"isfamily":0},{"id":"51004895877","owner":"75299599@N00","secret":"85df5daaf1","server":"65535","farm":66,"title":"Great Knot (Calidris tenuirostris)","ispublic":1,"isfriend":0,"isfamily":0},{"id":"51004673261","owner":"75299599@N00","secret":"9d370f1836","server":"65535","farm":66,"title":"Great Knot and Curlew Sandpiper (Calidris tenuirostris) and ( Calidris ferruginea)","ispublic":1,"isfriend":0,"isfamily":0},{"id":"50995865867","owner":"50809355@N06","secret":"ca232035da","server":"65535","farm":66,"title":"Great Knot Calidris tenuirostris Scolopacidae Lee Point","ispublic":1,"isfriend":0,"isfamily":0},{"id":"50966006438","owner":"145489125@N03","secret":"f8af0771ae","server":"65535","farm":66,"title":"Great Knot ( Calidris tenuirostris ) ... Cairns , Queensland , Australia","ispublic":1,"isfriend":0,"isfamily":0},{"id":"50923476331","owner":"145489125@N03","secret":"df99dd240c","server":"65535","farm":66,"title":"Great Knot ( Calidris tenuirostris ) ... Cairns , Australia","ispublic":1,"isfriend":0,"isfamily":0},{"id":"50840468227","owner":"20973373@N08","secret":"ecef1873ec","server":"65535","farm":66,"title":"Great Knot","ispublic":1,"isfriend":0,"isfamily":0},{"id":"50840468162","owner":"20973373@N08","secret":"2b5a8c833c","server":"65535","farm":66,"title":"Great Knot","ispublic":1,"isfriend":0,"isfamily":0},{"id":"50815813668","owner":"144612409@N08","secret":"0c091c034d","server":"65535","farm":66,"title":"nov 24 20178-01 a.m.","ispublic":1,"isfriend":0,"isfamily":0},{"id":"50816556846","owner":"144612409@N08","secret":"47c4feb75a","server":"65535","farm":66,"title":"nov 24 20178-02 a.m.","ispublic":1,"isfriend":0,"isfamily":0},{"id":"50816556796","owner":"144612409@N08","secret":"1a498dc84e","server":"65535","farm":66,"title":"nov 24 20178-03 a.m.","ispublic":1,"isfriend":0,"isfamily":0},{"id":"50809510096","owner":"23946780@N08","secret":"c31420e76d","server":"65535","farm":66,"title":"Great Knot (Calidris tenuirostris)","ispublic":1,"isfriend":0,"isfamily":0},{"id":"50809509951","owner":"23946780@N08","secret":"4e19799b85","server":"65535","farm":66,"title":"Great Knot (Calidris tenuirostris)","ispublic":1,"isfriend":0,"isfamily":0},{"id":"50790216023","owner":"143294701@N04","secret":"b165ee7528","server":"65535","farm":66,"title":"Great Knot (Calidris tenuirostris)","ispublic":1,"isfriend":0,"isfamily":0},{"id":"50790141092","owner":"113679267@N08","secret":"d1b26dfde8","server":"65535","farm":66,"title":"Great Knot (Calidris tenuirostris)","ispublic":1,"isfriend":0,"isfamily":0},{"id":"50764228763","owner":"90408688@N02","secret":"120749529c","server":"65535","farm":66,"title":"Calidris tenuirostris - Great Knot","ispublic":1,"isfriend":0,"isfamily":0},{"id":"50764228598","owner":"90408688@N02","secret":"c86c486cb2","server":"65535","farm":66,"title":"Calidris tenuirostris - Great Knot","ispublic":1,"isfriend":0,"isfamily":0},{"id":"50765072612","owner":"90408688@N02","secret":"76073297e3","server":"65535","farm":66,"title":"Calidris tenuirostris - Great Knot and Numenius madagascariensis - Eastern Curlew","ispublic":1,"isfriend":0,"isfamily":0},{"id":"50603610306","owner":"28786551@N04","secret":"f3682fedf7","server":"65535","farm":66,"title":"Great Knots","ispublic":1,"isfriend":0,"isfamily":0},{"id":"50572849112","owner":"117755141@N02","secret":"39c095c443","server":"65535","farm":66,"title":"Great Knot (Calidris tenuirostris) in flight","ispublic":1,"isfriend":0,"isfamily":0},{"id":"50572718471","owner":"117755141@N02","secret":"85856d841e","server":"65535","farm":66,"title":"Great Knot (Calidris tenuirostris)","ispublic":1,"isfriend":0,"isfamily":0},{"id":"50403505453","owner":"143943445@N02","secret":"c966e8d5da","server":"65535","farm":66,"title":"Great knot (Calidris tenuirostris) \u5927\u6ff1\u9df8","ispublic":1,"isfriend":0,"isfamily":0},{"id":"50368794248","owner":"186211059@N06","secret":"c86c743a69","server":"65535","farm":66,"title":"Great Knot","ispublic":1,"isfriend":0,"isfamily":0},{"id":"50369495136","owner":"186211059@N06","secret":"f468510ea5","server":"65535","farm":66,"title":"Great Knot","ispublic":1,"isfriend":0,"isfamily":0},{"id":"50369491411","owner":"186211059@N06","secret":"30a83af013","server":"65535","farm":66,"title":"Great Knot","ispublic":1,"isfriend":0,"isfamily":0},{"id":"50369488136","owner":"186211059@N06","secret":"41c94677b0","server":"65535","farm":66,"title":"Great Knot","ispublic":1,"isfriend":0,"isfamily":0},{"id":"50369632852","owner":"186211059@N06","secret":"fbb051254e","server":"65535","farm":66,"title":"Great Knot","ispublic":1,"isfriend":0,"isfamily":0},{"id":"50369630132","owner":"186211059@N06","secret":"3d2aefcfae","server":"65535","farm":66,"title":"Great Knot","ispublic":1,"isfriend":0,"isfamily":0},{"id":"50367080891","owner":"186211059@N06","secret":"eb1fe31ed1","server":"65535","farm":66,"title":"Great Knot","ispublic":1,"isfriend":0,"isfamily":0},{"id":"50367064201","owner":"186211059@N06","secret":"d157003765","server":"65535","farm":66,"title":"Great Knot","ispublic":1,"isfriend":0,"isfamily":0},{"id":"50359037536","owner":"143943445@N02","secret":"241bbedbae","server":"65535","farm":66,"title":"Great knot (Calidris tenuirostris) \u5927\u6ff1\u9df8","ispublic":1,"isfriend":0,"isfamily":0},{"id":"50074606631","owner":"107784905@N04","secret":"75549e740e","server":"65535","farm":66,"title":"B\u00e9casseau de l'Anadyr - Pak Thale\/Phetchaburi\/TH_20191124_008-1","ispublic":1,"isfriend":0,"isfamily":0},{"id":"49965814986","owner":"99668973@N03","secret":"07260579bf","server":"65535","farm":66,"title":"Great Knots (Calidris tenuirostris)","ispublic":1,"isfriend":0,"isfamily":0},{"id":"49966092912","owner":"99668973@N03","secret":"58e97058f4","server":"65535","farm":66,"title":"Great Knots (non-breedings) (Calidris tenuirostris)","ispublic":1,"isfriend":0,"isfamily":0},{"id":"49965814756","owner":"99668973@N03","secret":"0bccc4803d","server":"65535","farm":66,"title":"Great Knots (non-breedings) (Calidris tenuirostris)","ispublic":1,"isfriend":0,"isfamily":0},{"id":"49965310238","owner":"99668973@N03","secret":"6f643255e3","server":"65535","farm":66,"title":"Great Knots (non-breedings) (Calidris tenuirostris)","ispublic":1,"isfriend":0,"isfamily":0},{"id":"49965310213","owner":"99668973@N03","secret":"9ee803528a","server":"65535","farm":66,"title":"Great Knots (non-breedings) (Calidris tenuirostris)","ispublic":1,"isfriend":0,"isfamily":0},{"id":"49965814676","owner":"99668973@N03","secret":"a5caf9c377","server":"65535","farm":66,"title":"Great Knots (non-breedings) (Calidris tenuirostris)","ispublic":1,"isfriend":0,"isfamily":0},{"id":"49966092837","owner":"99668973@N03","secret":"4c4e21be8a","server":"65535","farm":66,"title":"Great Knots (non-breedings) (Calidris tenuirostris)","ispublic":1,"isfriend":0,"isfamily":0},{"id":"49965310158","owner":"99668973@N03","secret":"05c4ff9833","server":"65535","farm":66,"title":"Great Knot (non-breeding) (Calidris tenuirostris)","ispublic":1,"isfriend":0,"isfamily":0},{"id":"49966092797","owner":"99668973@N03","secret":"69b1c8b3e4","server":"65535","farm":66,"title":"Great Knot (non-breeding) (Calidris tenuirostris)","ispublic":1,"isfriend":0,"isfamily":0},{"id":"52688963667","owner":"65609388@N07","secret":"44c7c9b1f3","server":"65535","farm":66,"title":"wader knot Great Knot Calidris tenuirostris Grote Kanoet  (2)  8-2","ispublic":1,"isfriend":0,"isfamily":0},{"id":"52609790436","owner":"50809355@N06","secret":"10e66f1ba2","server":"65535","farm":66,"title":"Great Knot Calidris tenuirostris Scolopacidae Foraging On Incoming High Tide, Probing Or Picking Up Food By Sight Possibly Crustaceans As The Water Covers The Sand Shoal Bay","ispublic":1,"isfriend":0,"isfamily":0},{"id":"52020526649","owner":"77128742@N06","secret":"14036f792d","server":"65535","farm":66,"title":"Grosser Knutt_Calidris tenuirostris-15","ispublic":1,"isfriend":0,"isfamily":0},{"id":"51164704392","owner":"127542576@N05","secret":"b8da96f5cf","server":"65535","farm":66,"title":"\u5927\u6ff1\u9df8\u3014\u59e5\u9df8\u3015 (Calidris tenuirostris#Great Knot)","ispublic":1,"isfriend":0,"isfamily":0},{"id":"51148393685","owner":"50809355@N06","secret":"12f989313a","server":"65535","farm":66,"title":"Great Knot Calidris tenuirostris Scolopacidae In Flight Shoal Bay","ispublic":1,"isfriend":0,"isfamily":0},{"id":"50995055158","owner":"50809355@N06","secret":"d622261cf3","server":"65535","farm":66,"title":"Great Knot Calidris tenuirostris & Red Knot Calidris canutus Scolopacidae Lee Point","ispublic":1,"isfriend":0,"isfamily":0},{"id":"50995055143","owner":"50809355@N06","secret":"177f9eaf1b","server":"65535","farm":66,"title":"Great Knot Calidris tenuirostris Scolopacidae Lee Point 01","ispublic":1,"isfriend":0,"isfamily":0},{"id":"50995055118","owner":"50809355@N06","secret":"2ee747d6fd","server":"65535","farm":66,"title":"Great Knot Calidris tenuirostris Scolopacidae Lee Point 02","ispublic":1,"isfriend":0,"isfamily":0},{"id":"50995865947","owner":"50809355@N06","secret":"5b1949aa07","server":"65535","farm":66,"title":"Great Knot Calidris tenuirostris Scolopacidae Lee Point 03","ispublic":1,"isfriend":0,"isfamily":0},{"id":"50995055058","owner":"50809355@N06","secret":"63f4083da4","server":"65535","farm":66,"title":"Great Knot Calidris tenuirostris Scolopacidae Lee Point 04","ispublic":1,"isfriend":0,"isfamily":0},{"id":"50995750831","owner":"50809355@N06","secret":"8a49800bf1","server":"65535","farm":66,"title":"Grey Plover Pluvialis squatarola Female Among Great Knots Calidris tenuirostris & Red Knot Calidris canutus Scolopacidae Lee Point","ispublic":1,"isfriend":0,"isfamily":0},{"id":"50995750696","owner":"50809355@N06","secret":"138d83d7e8","server":"65535","farm":66,"title":"Grey-tailed Tattler Tringa brevipes & Great Knot Calidris tenuirostris Scolopacidae Lee Point 01","ispublic":1,"isfriend":0,"isfamily":0},{"id":"50995750631","owner":"50809355@N06","secret":"5a2da0751b","server":"65535","farm":66,"title":"Grey-tailed Tattler Tringa brevipes & Great Knot Calidris tenuirostris Scolopacidae Lee Point","ispublic":1,"isfriend":0,"isfamily":0},{"id":"50995750286","owner":"50809355@N06","secret":"33045679a0","server":"65535","farm":66,"title":"Grey-tailed Tattler Tringa brevipes, Great Knot Calidris tenuirostris Scolopacidae & Crested Tern Thalasseus bergii Laridae Lee Point 01","ispublic":1,"isfriend":0,"isfamily":0},{"id":"50995053988","owner":"50809355@N06","secret":"3861f56c73","server":"65535","farm":66,"title":"Grey-tailed Tattler Tringa brevipes, Great Knot Calidris tenuirostris Scolopacidae & Crested Tern Thalasseus bergii Laridae Lee Point","ispublic":1,"isfriend":0,"isfamily":0},{"id":"50809510331","owner":"23946780@N08","secret":"943a2a4c51","server":"65535","farm":66,"title":"Great Knot (Calidris tenuirostris)","ispublic":1,"isfriend":0,"isfamily":0},{"id":"50786365853","owner":"110716728@N03","secret":"86622c74ee","server":"65535","farm":66,"title":"Great Knot (Calidris tenuirostris)","ispublic":1,"isfriend":0,"isfamily":0},{"id":"50773180181","owner":"65968635@N02","secret":"c56ec65f69","server":"65535","farm":66,"title":"\u24d2 Yashodhan Bhatia","ispublic":1,"isfriend":0,"isfamily":0},{"id":"50772428028","owner":"65968635@N02","secret":"e77b123fdb","server":"65535","farm":66,"title":"\u24d2 Sakkarin Sansuk","ispublic":1,"isfriend":0,"isfamily":0},{"id":"50368781873","owner":"186211059@N06","secret":"1f0650586d","server":"65535","farm":66,"title":"Great Knot","ispublic":1,"isfriend":0,"isfamily":0},{"id":"50366391783","owner":"186211059@N06","secret":"7131312dbe","server":"65535","farm":66,"title":"Great Knot","ispublic":1,"isfriend":0,"isfamily":0},{"id":"50367236792","owner":"186211059@N06","secret":"49d45de5fc","server":"65535","farm":66,"title":"Great Knot","ispublic":1,"isfriend":0,"isfamily":0},{"id":"50003287308","owner":"187469698@N05","secret":"453f523cf4","server":"65535","farm":66,"title":"260 Great Knot - Andrew Walker 001","ispublic":1,"isfriend":0,"isfamily":0},{"id":"49965814586","owner":"99668973@N03","secret":"e1270f6d6b","server":"65535","farm":66,"title":"Great Knot (non-breeding) (Calidris tenuirostris)","ispublic":1,"isfriend":0,"isfamily":0}]},"stat":"ok"}