{"photos":{"page":1,"pages":50,"perpage":100,"total":4951,"photo":[{"id":"52789246753","owner":"190051955@N06","secret":"71485d61bb","server":"65535","farm":66,"title":"Quiscalus mexicanus","ispublic":1,"isfriend":0,"isfamily":0},{"id":"52786738892","owner":"12639178@N07","secret":"6e1786d8ae","server":"65535","farm":66,"title":"Ich kann bald fliegen","ispublic":1,"isfriend":0,"isfamily":0},{"id":"52787744603","owner":"12639178@N07","secret":"9b10ae4515","server":"65535","farm":66,"title":"Jeder kriegt was","ispublic":1,"isfriend":0,"isfamily":0},{"id":"52787691225","owner":"12639178@N07","secret":"3f0d2bec28","server":"65535","farm":66,"title":"Huuunger!","ispublic":1,"isfriend":0,"isfamily":0},{"id":"52787265706","owner":"12639178@N07","secret":"23a48de100","server":"65535","farm":66,"title":"Ich in der Sch\u00f6nste!","ispublic":1,"isfriend":0,"isfamily":0},{"id":"52772991039","owner":"33886308@N03","secret":"be511382dc","server":"65535","farm":66,"title":"The rare broad-whiskered grackle","ispublic":1,"isfriend":0,"isfamily":0},{"id":"52770412380","owner":"50124355@N02","secret":"042507ea13","server":"65535","farm":66,"title":"Great-tailed grackle | Dohlengrackel (Quiscalus mexicanus), Puente Rio T\u00e1rcoles, Costa Rica","ispublic":1,"isfriend":0,"isfamily":0},{"id":"52770421508","owner":"34238008@N02","secret":"b30e91816a","server":"65535","farm":66,"title":"Great-tailed Grackle (Quiscalus mexicanus)","ispublic":1,"isfriend":0,"isfamily":0},{"id":"52770345135","owner":"34238008@N02","secret":"1ab7dd7e50","server":"65535","farm":66,"title":"Great-tailed Grackle (Quiscalus mexicanus)","ispublic":1,"isfriend":0,"isfamily":0},{"id":"52770188714","owner":"34238008@N02","secret":"785da47a9c","server":"65535","farm":66,"title":"Great-tailed Grackle (Quiscalus mexicanus)","ispublic":1,"isfriend":0,"isfamily":0},{"id":"52765618095","owner":"67306066@N03","secret":"f885f9cf36","server":"65535","farm":66,"title":"Great-tailed Grackle (Quiscalus mexicanus)","ispublic":1,"isfriend":0,"isfamily":0},{"id":"52765694458","owner":"67306066@N03","secret":"8f67d612b6","server":"65535","farm":66,"title":"Great-tailed Grackle (Quiscalus mexicanus)","ispublic":1,"isfriend":0,"isfamily":0},{"id":"52764669657","owner":"67306066@N03","secret":"8c5e9127a5","server":"65535","farm":66,"title":"Great-tailed Grackle (Quiscalus mexicanus)","ispublic":1,"isfriend":0,"isfamily":0},{"id":"52765462039","owner":"67306066@N03","secret":"1c26b62524","server":"65535","farm":66,"title":"Great-tailed Grackle (Quiscalus mexicanus)","ispublic":1,"isfriend":0,"isfamily":0},{"id":"52762150285","owner":"34368269@N04","secret":"23a5773672","server":"65535","farm":66,"title":"Great-tailed Grackles","ispublic":1,"isfriend":0,"isfamily":0},{"id":"52762149720","owner":"34368269@N04","secret":"c701dd0009","server":"65535","farm":66,"title":"Great-tailed Grackles","ispublic":1,"isfriend":0,"isfamily":0},{"id":"52761744131","owner":"34368269@N04","secret":"8af2f641d5","server":"65535","farm":66,"title":"Great-tailed Grackles","ispublic":1,"isfriend":0,"isfamily":0},{"id":"52759005543","owner":"45681418@N03","secret":"53638d8b8e","server":"65535","farm":66,"title":"Male Great-tailed Grackle (Quiscalus mexicanus)","ispublic":1,"isfriend":0,"isfamily":0},{"id":"52755795965","owner":"78441846@N03","secret":"f5f0653a24","server":"65535","farm":66,"title":"Great-tailed Grackle, Quiscalus mexicanus, male bathing along lakeshore","ispublic":1,"isfriend":0,"isfamily":0},{"id":"52755388266","owner":"78441846@N03","secret":"1d10bddcc4","server":"65535","farm":66,"title":"Great-tailed Grackle, Quiscalus mexicanus, male bathing along lakeshore","ispublic":1,"isfriend":0,"isfamily":0},{"id":"52754848272","owner":"78441846@N03","secret":"535622744b","server":"65535","farm":66,"title":"Great-tailed Grackle, Quiscalus mexicanus, male bathing along lakeshore","ispublic":1,"isfriend":0,"isfamily":0},{"id":"52754575212","owner":"57729348@N02","secret":"200365be59","server":"65535","farm":66,"title":"Great-tailed Grackle (Quiscalus mexicanus)","ispublic":1,"isfriend":0,"isfamily":0},{"id":"52755592788","owner":"57729348@N02","secret":"320c40314c","server":"65535","farm":66,"title":"Great-tailed Grackle (Quiscalus mexicanus)","ispublic":1,"isfriend":0,"isfamily":0},{"id":"52752516811","owner":"12639178@N07","secret":"4eda28e564","server":"65535","farm":66,"title":"Gro\u00dfschwanzgrackel m\u00e4nnl. 04.03.23","ispublic":1,"isfriend":0,"isfamily":0},{"id":"52750894813","owner":"34378915@N04","secret":"d33316bc3d","server":"65535","farm":66,"title":"Quiscalus mexicanus","ispublic":1,"isfriend":0,"isfamily":0},{"id":"52735762424","owner":"45681418@N03","secret":"c7f3571253","server":"65535","farm":66,"title":"Male Boat-tailed Grackle (Quiscalus mexicanus)","ispublic":1,"isfriend":0,"isfamily":0},{"id":"52735370031","owner":"134815842@N03","secret":"0b4f07ecd2","server":"65535","farm":66,"title":"Great-tailed Grackle (Quiscalus mexicanus), Guanacaste, Costa Rica 2023","ispublic":1,"isfriend":0,"isfamily":0},{"id":"52734536192","owner":"90355165@N03","secret":"fb03980907","server":"65535","farm":66,"title":"great-tailed grackle","ispublic":1,"isfriend":0,"isfamily":0},{"id":"52730108940","owner":"182515684@N02","secret":"0142e56226","server":"65535","farm":66,"title":"Yellow Eyes \u2026 OM8848-400","ispublic":1,"isfriend":0,"isfamily":0},{"id":"52723893796","owner":"12639178@N07","secret":"928cc9ea20","server":"65535","farm":66,"title":"Dohlengrackel","ispublic":1,"isfriend":0,"isfamily":0},{"id":"52722619785","owner":"143326780@N02","secret":"d617a3f901","server":"65535","farm":66,"title":"DSCN5621","ispublic":1,"isfriend":0,"isfamily":0},{"id":"52714957296","owner":"47533293@N04","secret":"d1533fdb8f","server":"65535","farm":66,"title":"Great-tailed grackles, Quiscalus mexicanus","ispublic":1,"isfriend":0,"isfamily":0},{"id":"52706839060","owner":"195537536@N03","secret":"d443fb110e","server":"65535","farm":66,"title":"Great-tailed Grackle (Quiscalus mexicanus): Male","ispublic":1,"isfriend":0,"isfamily":0},{"id":"52696725499","owner":"12639178@N07","secret":"a575c901fa","server":"65535","farm":66,"title":"Dohlengrackel am Abflug","ispublic":1,"isfriend":0,"isfamily":0},{"id":"52688382627","owner":"59779711@N05","secret":"cb38906b12","server":"65535","farm":66,"title":"Grackles at sunset","ispublic":1,"isfriend":0,"isfamily":0},{"id":"52686484326","owner":"34238008@N02","secret":"fd45012bbd","server":"65535","farm":66,"title":"Great-tailed Grackle (Quiscalus mexicanus)","ispublic":1,"isfriend":0,"isfamily":0},{"id":"52677964427","owner":"161505078@N03","secret":"2ee05e8d17","server":"65535","farm":66,"title":"Great-tailed Grackle (Quiscalus mexicanus)","ispublic":1,"isfriend":0,"isfamily":0},{"id":"52674333221","owner":"107784905@N04","secret":"0bfffd6cc3","server":"65535","farm":66,"title":"Quiscale \u00e0 longue queue - Manuel Antonio\/Lim\u00f3n\/Costa Rica_20211115_010-1","ispublic":1,"isfriend":0,"isfamily":0},{"id":"52667903764","owner":"33610210@N05","secret":"b608733523","server":"65535","farm":66,"title":"Great-tailed Grackle, Quiscalus mexicanus","ispublic":1,"isfriend":0,"isfamily":0},{"id":"52663536161","owner":"39177293@N03","secret":"51c7623233","server":"65535","farm":66,"title":"Great-tailed Grackle","ispublic":1,"isfriend":0,"isfamily":0},{"id":"52657122617","owner":"78223721@N03","secret":"5a11b3d1e8","server":"65535","farm":66,"title":"Quiscalus mexicanus - male","ispublic":1,"isfriend":0,"isfamily":0},{"id":"52656199106","owner":"12639178@N07","secret":"8fba19c339","server":"65535","farm":66,"title":"Gro\u00dfschwanzgrackel","ispublic":1,"isfriend":0,"isfamily":0},{"id":"52654626499","owner":"39935474@N03","secret":"48a55d12fb","server":"65535","farm":66,"title":"Great-tailed Grackle male with muddy bill","ispublic":1,"isfriend":0,"isfamily":0},{"id":"52653857477","owner":"39935474@N03","secret":"1252375c7b","server":"65535","farm":66,"title":"Great-tailed Grackle male","ispublic":1,"isfriend":0,"isfamily":0},{"id":"52653287449","owner":"39935474@N03","secret":"2d13cafa7c","server":"65535","farm":66,"title":"Great-tailed Grackle female on branch","ispublic":1,"isfriend":0,"isfamily":0},{"id":"52653496343","owner":"39935474@N03","secret":"da98a55afa","server":"65535","farm":66,"title":"Great-tailed Grackle female with...nesting material?","ispublic":1,"isfriend":0,"isfamily":0},{"id":"52653496188","owner":"39935474@N03","secret":"f178df01cb","server":"65535","farm":66,"title":"Great-tailed Grackle female in puddle","ispublic":1,"isfriend":0,"isfamily":0},{"id":"52653014941","owner":"39935474@N03","secret":"8df50e465a","server":"65535","farm":66,"title":"Great-tailed Grackle female foraging in puddle","ispublic":1,"isfriend":0,"isfamily":0},{"id":"52652625035","owner":"78145652@N02","secret":"606f2a3e3b","server":"65535","farm":66,"title":"Great-tailed Grackle - Quiscalus mexicanus","ispublic":1,"isfriend":0,"isfamily":0},{"id":"52651438681","owner":"103263246@N06","secret":"e2b515bf56","server":"65535","farm":66,"title":"Quiscalus mexicanus. Zanate, Clarinero, Zanate Grande. Zona urbana, Alajuela.","ispublic":1,"isfriend":0,"isfamily":0},{"id":"52646690171","owner":"110459348@N03","secret":"9fb819d7a6","server":"65535","farm":66,"title":"Quiscale \u00e9bourriff\u00e9","ispublic":1,"isfriend":0,"isfamily":0},{"id":"52643742798","owner":"8013969@N03","secret":"2cc2145248","server":"65535","farm":66,"title":"Quiscalus mexicanus DFL btr22-1","ispublic":1,"isfriend":0,"isfamily":0},{"id":"52643741653","owner":"8013969@N03","secret":"7bf3276f93","server":"65535","farm":66,"title":"Quiscalus mexicanus DFL btr22-2","ispublic":1,"isfriend":0,"isfamily":0},{"id":"52643526579","owner":"8013969@N03","secret":"e0c70f5a23","server":"65535","farm":66,"title":"Quiscalus mexicanus DFL btr22-3","ispublic":1,"isfriend":0,"isfamily":0},{"id":"52641920856","owner":"163667952@N05","secret":"5c305a8dcb","server":"65535","farm":66,"title":"Great-tailed Grackle","ispublic":1,"isfriend":0,"isfamily":0},{"id":"52640230767","owner":"14908898@N08","secret":"d35de2d0ee","server":"65535","farm":66,"title":"Great-tailed Grackle 12-4-22","ispublic":1,"isfriend":0,"isfamily":0},{"id":"52641123225","owner":"36685968@N00","secret":"2e89bcccf9","server":"65535","farm":66,"title":"Great-tailed Grackle (Quiscalus mexicanus)","ispublic":1,"isfriend":0,"isfamily":0},{"id":"52640940879","owner":"36685968@N00","secret":"4e51891f8c","server":"65535","farm":66,"title":"Great-tailed Grackle (Quiscalus mexicanus)","ispublic":1,"isfriend":0,"isfamily":0},{"id":"52641121785","owner":"36685968@N00","secret":"12998bf4c7","server":"65535","farm":66,"title":"Great-tailed Grackle (Quiscalus mexicanus)","ispublic":1,"isfriend":0,"isfamily":0},{"id":"52639234284","owner":"61062164@N08","secret":"66e11fbd29","server":"65535","farm":66,"title":"850_6606-NEF_DxO DP2","ispublic":1,"isfriend":0,"isfamily":0},{"id":"52637550784","owner":"61062164@N08","secret":"7a1e8e7f22","server":"65535","farm":66,"title":"850_6614-NEF_DxO DP2","ispublic":1,"isfriend":0,"isfamily":0},{"id":"52632047429","owner":"132165466@N08","secret":"21e65a4a5c","server":"65535","farm":66,"title":"Great-tailed Grackle","ispublic":1,"isfriend":0,"isfamily":0},{"id":"52626628807","owner":"68635735@N02","secret":"0519600478","server":"65535","farm":66,"title":"Great-tailed Grackle (Quiscalus mexicanus) female","ispublic":1,"isfriend":0,"isfamily":0},{"id":"52627582275","owner":"68635735@N02","secret":"d610d1e4e3","server":"65535","farm":66,"title":"Great-tailed Grackle (Quiscalus mexicanus) male","ispublic":1,"isfriend":0,"isfamily":0},{"id":"52622276543","owner":"146455226@N02","secret":"932a957090","server":"65535","farm":66,"title":"Great-tailed Grackle #6","ispublic":1,"isfriend":0,"isfamily":0},{"id":"52614890314","owner":"34238008@N02","secret":"25b330006a","server":"65535","farm":66,"title":"Great-tailed Grackle (Quiscalus mexicanus)","ispublic":1,"isfriend":0,"isfamily":0},{"id":"52615060260","owner":"34238008@N02","secret":"318d2ba3c2","server":"65535","farm":66,"title":"Great-tailed Grackle (Quiscalus mexicanus)","ispublic":1,"isfriend":0,"isfamily":0},{"id":"52614889794","owner":"34238008@N02","secret":"477bffd0e5","server":"65535","farm":66,"title":"Great-tailed Grackle (Quiscalus mexicanus)","ispublic":1,"isfriend":0,"isfamily":0},{"id":"52613928185","owner":"61062164@N08","secret":"4dc40f46e9","server":"65535","farm":66,"title":"850_6538-NEF_DxO_DeepPRIME","ispublic":1,"isfriend":0,"isfamily":0},{"id":"52612351497","owner":"154417921@N04","secret":"84975b2f0c","server":"65535","farm":66,"title":"DSC08527 kopi\u00ebren 2","ispublic":1,"isfriend":0,"isfamily":0},{"id":"52608788149","owner":"24309230@N03","secret":"f9f816f30f","server":"65535","farm":66,"title":"Great-tailed Grackle","ispublic":1,"isfriend":0,"isfamily":0},{"id":"52609024483","owner":"24309230@N03","secret":"96d972094f","server":"65535","farm":66,"title":"Great-tailed Grackle","ispublic":1,"isfriend":0,"isfamily":0},{"id":"52566671293","owner":"129553350@N02","secret":"e8ed1b3ef6","server":"65535","farm":66,"title":"Great-tailed Grackle","ispublic":1,"isfriend":0,"isfamily":0},{"id":"52563284721","owner":"100108154@N02","secret":"3f8fc43562","server":"65535","farm":66,"title":"Iridescence","ispublic":1,"isfriend":0,"isfamily":0},{"id":"52557027181","owner":"190274181@N03","secret":"7f50cacc26","server":"65535","farm":66,"title":"Talingo o chango  Great-tailed Grackle  \ud83d\udd2cQuiscalus mexicanus","ispublic":1,"isfriend":0,"isfamily":0},{"id":"52549917604","owner":"100108154@N02","secret":"b5f5936b55","server":"65535","farm":66,"title":"Grackle Singing The Song Of His People","ispublic":1,"isfriend":0,"isfamily":0},{"id":"52546823381","owner":"107784905@N04","secret":"aeae80cea2","server":"65535","farm":66,"title":"Quiscale \u00e0 longue queue - Manuel Antonio\/Lim\u00f3n\/Costa Rica_20211115_016-1","ispublic":1,"isfriend":0,"isfamily":0},{"id":"52532565701","owner":"119095828@N03","secret":"5a6d28ae36","server":"65535","farm":66,"title":"Great-tailed Grackle (Quiscalus mexicanus)","ispublic":1,"isfriend":0,"isfamily":0},{"id":"52532846159","owner":"119095828@N03","secret":"7b595a9160","server":"65535","farm":66,"title":"Great-tailed Grackle (Quiscalus mexicanus)","ispublic":1,"isfriend":0,"isfamily":0},{"id":"52528571679","owner":"190185506@N04","secret":"8e9a44bd27","server":"0","farm":0,"title":"CHANT DU QUISCALE \u00c0 LONGUE QUEUE","ispublic":1,"isfriend":0,"isfamily":0},{"id":"52780638705","owner":"12639178@N07","secret":"d346546a3f","server":"65535","farm":66,"title":"Gro\u00dfschwanzgrackel weibl. !6.03.23","ispublic":1,"isfriend":0,"isfamily":0},{"id":"52757979542","owner":"45681418@N03","secret":"db0793c0ea","server":"65535","farm":66,"title":"Male Great-tailed Grackle (Quiscalus mexicanus)","ispublic":1,"isfriend":0,"isfamily":0},{"id":"52757979507","owner":"45681418@N03","secret":"da1f030777","server":"65535","farm":66,"title":"Female Great-tailed Grackle (Quiscalus mexicanus)","ispublic":1,"isfriend":0,"isfamily":0},{"id":"52759005418","owner":"45681418@N03","secret":"e4a02879c6","server":"65535","farm":66,"title":"Female Great-tailed Grackle (Quiscalus mexicanus)","ispublic":1,"isfriend":0,"isfamily":0},{"id":"52758928215","owner":"45681418@N03","secret":"72f5972de8","server":"65535","farm":66,"title":"Female Great-tailed Grackle (Quiscalus mexicanus)","ispublic":1,"isfriend":0,"isfamily":0},{"id":"52756886312","owner":"12639178@N07","secret":"46d9af8d69","server":"65535","farm":66,"title":"weibliche Dohlengrackel","ispublic":1,"isfriend":0,"isfamily":0},{"id":"52735509911","owner":"45681418@N03","secret":"128b8018aa","server":"65535","farm":66,"title":"Male Boat-tailed Grackle (Quiscalus mexicanus)","ispublic":1,"isfriend":0,"isfamily":0},{"id":"52706915098","owner":"195537536@N03","secret":"f47a294ef6","server":"65535","farm":66,"title":"Great-tailed Grackle (Quiscalus mexicanus): Female","ispublic":1,"isfriend":0,"isfamily":0},{"id":"52676709931","owner":"61361023@N03","secret":"5642434511","server":"65535","farm":66,"title":"Zanate, Quiscalus mexicanus","ispublic":1,"isfriend":0,"isfamily":0},{"id":"52669928629","owner":"62043870@N05","secret":"5f11e26aba","server":"65535","farm":66,"title":"Great-tailed Grackle, Quiscalus mexicanus","ispublic":1,"isfriend":0,"isfamily":0},{"id":"52641124950","owner":"36685968@N00","secret":"3ff56908bd","server":"65535","farm":66,"title":"Great-tailed Grackle (Quiscalus mexicanus)","ispublic":1,"isfriend":0,"isfamily":0},{"id":"52640174587","owner":"36685968@N00","secret":"5b8fe84c41","server":"65535","farm":66,"title":"Great-tailed Grackle (Quiscalus mexicanus)","ispublic":1,"isfriend":0,"isfamily":0},{"id":"52622057289","owner":"146455226@N02","secret":"c824b408e7","server":"65535","farm":66,"title":"Great-tailed Grackle #5","ispublic":1,"isfriend":0,"isfamily":0},{"id":"52621796326","owner":"146455226@N02","secret":"6d7a61a870","server":"65535","farm":66,"title":"Great-tailed Grackle #7","ispublic":1,"isfriend":0,"isfamily":0},{"id":"52622053719","owner":"146455226@N02","secret":"9d400577e2","server":"65535","farm":66,"title":"Great-tailed Grackle #4","ispublic":1,"isfriend":0,"isfamily":0},{"id":"52597293219","owner":"33610210@N05","secret":"4d06ef3a46","server":"65535","farm":66,"title":"Great-tailed Grackle, Quiscalus mexicanus","ispublic":1,"isfriend":0,"isfamily":0},{"id":"52580306721","owner":"153973412@N04","secret":"b411f3e961","server":"65535","farm":66,"title":"Great-tailed Grackle-Quiscalus mexicanus, Estero Llano Grande, TX","ispublic":1,"isfriend":0,"isfamily":0},{"id":"52564457518","owner":"140318147@N08","secret":"a6de813ffc","server":"65535","farm":66,"title":"great-tailed grackle roosting (Quiscalus mexicanus) L4A8748","ispublic":1,"isfriend":0,"isfamily":0},{"id":"52549976423","owner":"76098300@N08","secret":"a0d4c573d9","server":"65535","farm":66,"title":"Dohlengrackel (Quiscalus mexicanus), female, Costa Maya, Mexico","ispublic":1,"isfriend":0,"isfamily":0},{"id":"52495030551","owner":"86666094@N00","secret":"2d788928c8","server":"65535","farm":66,"title":"Great-tailed Grackle","ispublic":1,"isfriend":0,"isfamily":0}]},"stat":"ok"}