{"photos":{"page":1,"pages":23,"perpage":100,"total":2263,"photo":[{"id":"52719269591","owner":"181824639@N02","secret":"481795355a","server":"65535","farm":66,"title":"Tyran hupp\u00e9 ( Myiarchus crinitus )","ispublic":1,"isfriend":0,"isfamily":0},{"id":"52693960744","owner":"123979267@N05","secret":"e80f50e90c","server":"65535","farm":66,"title":"Great-crested Flycatcher","ispublic":1,"isfriend":0,"isfamily":0},{"id":"52680749948","owner":"24608578@N00","secret":"d453923b9a","server":"65535","farm":66,"title":"Great crested flycatcher (Myiarchus crinitus)","ispublic":1,"isfriend":0,"isfamily":0},{"id":"52652035326","owner":"38514062@N03","secret":"15f2337756","server":"65535","farm":66,"title":"Great Crested Flycatcher (Myiarchus crinitus)","ispublic":1,"isfriend":0,"isfamily":0},{"id":"52644667546","owner":"8013969@N03","secret":"26a51fd273","server":"65535","farm":66,"title":"Myiarchus crinitus DFL lanc22-1","ispublic":1,"isfriend":0,"isfamily":0},{"id":"52644159902","owner":"8013969@N03","secret":"93bfa65c47","server":"65535","farm":66,"title":"Myiarchus crinitus DFL lanc22-2","ispublic":1,"isfriend":0,"isfamily":0},{"id":"52643362501","owner":"8013969@N03","secret":"feb1af2c1f","server":"65535","farm":66,"title":"Myiarchus crinitus DFL btr22-1","ispublic":1,"isfriend":0,"isfamily":0},{"id":"52643802555","owner":"8013969@N03","secret":"dbf014a157","server":"65535","farm":66,"title":"Myiarchus crinitus DFL btr22-2","ispublic":1,"isfriend":0,"isfamily":0},{"id":"52642856377","owner":"8013969@N03","secret":"7c7ed5c9df","server":"65535","farm":66,"title":"Myiarchus crinitus DFL btr22-3","ispublic":1,"isfriend":0,"isfamily":0},{"id":"52643832813","owner":"8013969@N03","secret":"95214e6c66","server":"65535","farm":66,"title":"Myiarchus crinitus DFL btr22-4","ispublic":1,"isfriend":0,"isfamily":0},{"id":"52643617079","owner":"8013969@N03","secret":"3b7bd2b6ec","server":"65535","farm":66,"title":"Myiarchus crinitus DFL btr22-5","ispublic":1,"isfriend":0,"isfamily":0},{"id":"52639886424","owner":"151313979@N08","secret":"da38191c07","server":"65535","farm":66,"title":"P1210532 Great Crested Flycatcher, Myiarchus crinitus","ispublic":1,"isfriend":0,"isfamily":0},{"id":"52614126072","owner":"181824639@N02","secret":"59159de62b","server":"65535","farm":66,"title":"Tyran hupp\u00e9 ( Myiarchus crinitus )","ispublic":1,"isfriend":0,"isfamily":0},{"id":"52580307556","owner":"153973412@N04","secret":"d129f73bc3","server":"65535","farm":66,"title":"Great Crested Flycatcher-Myiarchus crinitus, Everglades, FL","ispublic":1,"isfriend":0,"isfamily":0},{"id":"52539565131","owner":"159284114@N07","secret":"9b7fb199c4","server":"65535","farm":66,"title":"Tyran hupp\u00e9, Great crested flycatcher","ispublic":1,"isfriend":0,"isfamily":0},{"id":"52520151822","owner":"181824639@N02","secret":"68a0417cbb","server":"65535","farm":66,"title":"Tyran hupp\u00e9 ( Myiarchus crinitus )","ispublic":1,"isfriend":0,"isfamily":0},{"id":"52495726580","owner":"64557331@N04","secret":"7a640170df","server":"65535","farm":66,"title":"Great Crested Flycatcher - (Myiarchus crinitus)_09032022","ispublic":1,"isfriend":0,"isfamily":0},{"id":"52483983590","owner":"24608578@N00","secret":"1de3807138","server":"65535","farm":66,"title":"Great crested flycatcher (Myiarchus crinitus)","ispublic":1,"isfriend":0,"isfamily":0},{"id":"52484069728","owner":"24608578@N00","secret":"529d77c44e","server":"65535","farm":66,"title":"Great crested flycatcher (Myiarchus crinitus)","ispublic":1,"isfriend":0,"isfamily":0},{"id":"52484069603","owner":"24608578@N00","secret":"80ffaa1c4f","server":"65535","farm":66,"title":"Great crested flycatcher (Myiarchus crinitus)","ispublic":1,"isfriend":0,"isfamily":0},{"id":"52483983275","owner":"24608578@N00","secret":"9326bf78ce","server":"65535","farm":66,"title":"Great crested flycatcher (Myiarchus crinitus)","ispublic":1,"isfriend":0,"isfamily":0},{"id":"52483981950","owner":"24608578@N00","secret":"699946d446","server":"65535","farm":66,"title":"Great crested flycatcher (Myiarchus crinitus)","ispublic":1,"isfriend":0,"isfamily":0},{"id":"52483025637","owner":"24608578@N00","secret":"0564572fff","server":"65535","farm":66,"title":"Great crested flycatcher (Myiarchus crinitus)","ispublic":1,"isfriend":0,"isfamily":0},{"id":"52483025592","owner":"24608578@N00","secret":"a638a1f0a8","server":"65535","farm":66,"title":"Great crested flycatcher (Myiarchus crinitus)","ispublic":1,"isfriend":0,"isfamily":0},{"id":"52483025517","owner":"24608578@N00","secret":"34504bfb82","server":"65535","farm":66,"title":"Great crested flycatcher (Myiarchus crinitus)","ispublic":1,"isfriend":0,"isfamily":0},{"id":"52483025367","owner":"24608578@N00","secret":"18743720fe","server":"65535","farm":66,"title":"Great crested flycatcher (Myiarchus crinitus)","ispublic":1,"isfriend":0,"isfamily":0},{"id":"52483981655","owner":"24608578@N00","secret":"84385daa28","server":"65535","farm":66,"title":"Great crested flycatcher (Myiarchus crinitus)","ispublic":1,"isfriend":0,"isfamily":0},{"id":"52483981520","owner":"24608578@N00","secret":"d010c51aa0","server":"65535","farm":66,"title":"Great crested flycatcher (Myiarchus crinitus)","ispublic":1,"isfriend":0,"isfamily":0},{"id":"52460687575","owner":"24608578@N00","secret":"6b4dacb0ce","server":"65535","farm":66,"title":"Great crested flycatcher (Myiarchus crinitus)","ispublic":1,"isfriend":0,"isfamily":0},{"id":"52460773083","owner":"24608578@N00","secret":"944452759b","server":"65535","farm":66,"title":"Great crested flycatcher (Myiarchus crinitus)","ispublic":1,"isfriend":0,"isfamily":0},{"id":"52449531591","owner":"43686907@N00","secret":"3c53f16011","server":"65535","farm":66,"title":"10\/23\/22 - River Styx Park","ispublic":1,"isfriend":0,"isfamily":0},{"id":"52444750564","owner":"8086030@N03","secret":"e2092771fb","server":"65535","farm":66,"title":"Great Crested Flycatcher, Myiarchus crinitus","ispublic":1,"isfriend":0,"isfamily":0},{"id":"52444987358","owner":"8086030@N03","secret":"4e62e82fcd","server":"65535","farm":66,"title":"Great Crested Flycatcher, Myiarchus crinitus","ispublic":1,"isfriend":0,"isfamily":0},{"id":"52434038847","owner":"39177293@N03","secret":"d095e725bd","server":"65535","farm":66,"title":"Great Crested Flycatcher","ispublic":1,"isfriend":0,"isfamily":0},{"id":"52435000475","owner":"39177293@N03","secret":"041e158bc3","server":"65535","farm":66,"title":"Great Crested Flycatcher","ispublic":1,"isfriend":0,"isfamily":0},{"id":"52424461610","owner":"91620959@N08","secret":"738a64e411","server":"65535","farm":66,"title":"Great crested flycatcher (Myiarchus crinitus)","ispublic":1,"isfriend":0,"isfamily":0},{"id":"52406524193","owner":"76288515@N07","secret":"a6914bf4e8","server":"65535","farm":66,"title":"Great Crested Flycatcher Myiarchus crinitus","ispublic":1,"isfriend":0,"isfamily":0},{"id":"52406524163","owner":"76288515@N07","secret":"232b8e75bf","server":"65535","farm":66,"title":"Great Crested Flycatcher Myiarchus crinitus","ispublic":1,"isfriend":0,"isfamily":0},{"id":"52405513987","owner":"76288515@N07","secret":"7a618c137a","server":"65535","farm":66,"title":"Great Crested Flycatcher Myiarchus crinitus","ispublic":1,"isfriend":0,"isfamily":0},{"id":"52406015411","owner":"76288515@N07","secret":"5b400bf584","server":"65535","farm":66,"title":"Great Crested Flycatcher Myiarchus crinitus","ispublic":1,"isfriend":0,"isfamily":0},{"id":"52406455895","owner":"76288515@N07","secret":"e6895de203","server":"65535","farm":66,"title":"Great Crested Flycatcher Myiarchus crinitus","ispublic":1,"isfriend":0,"isfamily":0},{"id":"52406524053","owner":"76288515@N07","secret":"624fbbfe54","server":"65535","farm":66,"title":"Great Crested Flycatcher Myiarchus crinitus","ispublic":1,"isfriend":0,"isfamily":0},{"id":"52406455835","owner":"76288515@N07","secret":"c8b8359234","server":"65535","farm":66,"title":"Great Crested Flycatcher Myiarchus crinitus","ispublic":1,"isfriend":0,"isfamily":0},{"id":"52406524018","owner":"76288515@N07","secret":"48ceb3f402","server":"65535","farm":66,"title":"Great Crested Flycatcher Myiarchus crinitus","ispublic":1,"isfriend":0,"isfamily":0},{"id":"52406308559","owner":"76288515@N07","secret":"c1ded7c5ca","server":"65535","farm":66,"title":"Great Crested Flycatcher Myiarchus crinitus","ispublic":1,"isfriend":0,"isfamily":0},{"id":"52366795512","owner":"190122705@N03","secret":"fffbb80c62","server":"65535","farm":66,"title":"Great Crested Flycatcher","ispublic":1,"isfriend":0,"isfamily":0},{"id":"52351547851","owner":"65148649@N04","secret":"a89bc750b3","server":"65535","farm":66,"title":"Great Crested Flycatcher","ispublic":1,"isfriend":0,"isfamily":0},{"id":"52335185545","owner":"190122705@N03","secret":"4305b687b5","server":"65535","farm":66,"title":"Great Crested Flycatcher","ispublic":1,"isfriend":0,"isfamily":0},{"id":"52329255079","owner":"181824639@N02","secret":"27b8e22772","server":"65535","farm":66,"title":"Tyran hupp\u00e9 ( Myiarchus crinitus )","ispublic":1,"isfriend":0,"isfamily":0},{"id":"52328811526","owner":"92361032@N05","secret":"bfa4557310","server":"65535","farm":66,"title":"Great Crested Flycatcher \/Tyran hupp\u00e9 ( Diane )","ispublic":1,"isfriend":0,"isfamily":0},{"id":"52320620712","owner":"120449047@N06","secret":"68dd681e1f","server":"65535","farm":66,"title":"Great Crested Flycatcher 1 0f 2","ispublic":1,"isfriend":0,"isfamily":0},{"id":"52321422673","owner":"196046919@N07","secret":"e78dcb2630","server":"65535","farm":66,"title":"Great Crested Flycatcher (Myiarchus crinitus)","ispublic":1,"isfriend":0,"isfamily":0},{"id":"52317896345","owner":"88932760@N08","secret":"86e820ccf9","server":"65535","farm":66,"title":"Scouting Flycatcher","ispublic":1,"isfriend":0,"isfamily":0},{"id":"52305033480","owner":"39511843@N07","secret":"2b26d80bac","server":"65535","farm":66,"title":"Great Creasted Flycatcher (Myiarchus crinitus)-","ispublic":1,"isfriend":0,"isfamily":0},{"id":"52277105756","owner":"49114357@N08","secret":"1083502ba4","server":"65535","farm":66,"title":"Great Crested Flycatcher","ispublic":1,"isfriend":0,"isfamily":0},{"id":"52281677550","owner":"88932760@N08","secret":"f35f4b3b52","server":"65535","farm":66,"title":"Eyes on the Prize","ispublic":1,"isfriend":0,"isfamily":0},{"id":"52281044544","owner":"74787113@N05","secret":"fde8572da6","server":"65535","farm":66,"title":"GREAT-CRESTED FLYCATCHER","ispublic":1,"isfriend":0,"isfamily":0},{"id":"52267751360","owner":"184155060@N04","secret":"672c25b2ae","server":"65535","farm":66,"title":"16555 Tyran hupp\u00e9 \/ Myiarchus crinitus \/ Great Crested Flycatcher","ispublic":1,"isfriend":0,"isfamily":0},{"id":"52260529976","owner":"88932760@N08","secret":"3969715047","server":"65535","farm":66,"title":"Watchful Hunter","ispublic":1,"isfriend":0,"isfamily":0},{"id":"52256038954","owner":"181824639@N02","secret":"f6e3ae7848","server":"65535","farm":66,"title":"Tyran hupp\u00e9 ( Myiarchus crinitus )","ispublic":1,"isfriend":0,"isfamily":0},{"id":"52250353420","owner":"165841515@N03","secret":"8cd433ccac","server":"65535","farm":66,"title":"Tyran hupp\u00e9 \/ Great Crested Flycatcher \/ (Myiarchus crinitus)","ispublic":1,"isfriend":0,"isfamily":0},{"id":"52249862398","owner":"165841515@N03","secret":"b472ce8dfb","server":"65535","farm":66,"title":"Tyran hupp\u00e9 \/ Great Crested Flycatcher \/ (Myiarchus crinitus)","ispublic":1,"isfriend":0,"isfamily":0},{"id":"52250137139","owner":"165841515@N03","secret":"98a00e7dfe","server":"65535","farm":66,"title":"Tyran hupp\u00e9 \/ Great Crested Flycatcher \/ (Myiarchus crinitus)","ispublic":1,"isfriend":0,"isfamily":0},{"id":"52248873057","owner":"165841515@N03","secret":"d7c760f60c","server":"65535","farm":66,"title":"Tyran hupp\u00e9 \/ Great Crested Flycatcher \/ (Myiarchus crinitus)","ispublic":1,"isfriend":0,"isfamily":0},{"id":"52249359381","owner":"39511843@N07","secret":"159e1e3e88","server":"65535","farm":66,"title":"Great Creasted Flycatcher (Myiarchus crinitus) amongst the Fabaceae- American Wisteria (Wisteria frutescens)--2","ispublic":1,"isfriend":0,"isfamily":0},{"id":"52247626883","owner":"37493716@N02","secret":"a225f25b15","server":"65535","farm":66,"title":"Aves Reserva Tit\u00ed Cabeciblanco","ispublic":1,"isfriend":0,"isfamily":0},{"id":"52247626863","owner":"37493716@N02","secret":"796bd8517c","server":"65535","farm":66,"title":"Aves Reserva Tit\u00ed Cabeciblanco","ispublic":1,"isfriend":0,"isfamily":0},{"id":"52248109400","owner":"37493716@N02","secret":"02a25d338e","server":"65535","farm":66,"title":"Aves Reserva Tit\u00ed Cabeciblanco","ispublic":1,"isfriend":0,"isfamily":0},{"id":"52243687797","owner":"93273765@N05","secret":"f0490ce4e6","server":"65535","farm":66,"title":"Great Crested Flycatcher (Myiarchus crinitus)","ispublic":1,"isfriend":0,"isfamily":0},{"id":"52244454579","owner":"10289395@N05","secret":"03f866b060","server":"65535","farm":66,"title":"Migrateur n\u00e9otropical","ispublic":1,"isfriend":0,"isfamily":0},{"id":"52241682513","owner":"78145652@N02","secret":"faccdf2869","server":"65535","farm":66,"title":"Great Crested Flycatcher - Myiarchus crinitus","ispublic":1,"isfriend":0,"isfamily":0},{"id":"52240724863","owner":"129803374@N05","secret":"fb3a9b1174","server":"65535","farm":66,"title":"Great Crested Flycatcher (Myiarchus crinitus)","ispublic":1,"isfriend":0,"isfamily":0},{"id":"52238497183","owner":"84169650@N07","secret":"cb1cfd8ae2","server":"65535","farm":66,"title":"Great Crested Flycatcher","ispublic":1,"isfriend":0,"isfamily":0},{"id":"52232432824","owner":"39511843@N07","secret":"6f64bc9896","server":"65535","farm":66,"title":"Great Creasted Flycatcher (Myiarchus crinitus)-","ispublic":1,"isfriend":0,"isfamily":0},{"id":"52225964959","owner":"76617062@N08","secret":"9e0f1e4924","server":"65535","farm":66,"title":"1.14732  Tyran hupp\u00e9 \/ Myiarchus crinitus \/ Great Crested Flycatcher","ispublic":1,"isfriend":0,"isfamily":0},{"id":"52224432611","owner":"130605131@N08","secret":"f20c84b9cf","server":"65535","farm":66,"title":"IMG_9013","ispublic":1,"isfriend":0,"isfamily":0},{"id":"52224703989","owner":"130605131@N08","secret":"6fe710a4a7","server":"65535","farm":66,"title":"IMG_9015","ispublic":1,"isfriend":0,"isfamily":0},{"id":"52224704014","owner":"130605131@N08","secret":"19c6e2e5fb","server":"65535","farm":66,"title":"IMG_9014","ispublic":1,"isfriend":0,"isfamily":0},{"id":"52207240892","owner":"46367607@N06","secret":"b8b69205b2","server":"65535","farm":66,"title":"Great Crested flycatcher--Myiarchus crinitus _D6A1148","ispublic":1,"isfriend":0,"isfamily":0},{"id":"52206931256","owner":"39511843@N07","secret":"168eac2648","server":"65535","farm":66,"title":"Great Creasted Flycatcher (Myiarchus crinitus)-","ispublic":1,"isfriend":0,"isfamily":0},{"id":"52201078919","owner":"76617062@N08","secret":"c97459427e","server":"65535","farm":66,"title":"1.14732  Tyran hupp\u00e9 \/ Myiarchus crinitus \/ Great Crested Flycatcher","ispublic":1,"isfriend":0,"isfamily":0},{"id":"52193262218","owner":"21584095@N00","secret":"2e076beace","server":"65535","farm":66,"title":"Great-Crested Flycatcher (Myiarchus crinitus)","ispublic":1,"isfriend":0,"isfamily":0},{"id":"52180897408","owner":"144980256@N07","secret":"febb92d9b6","server":"65535","farm":66,"title":"Great Crested Flycatcher (Myiarchus crinitus)","ispublic":1,"isfriend":0,"isfamily":0},{"id":"52181118359","owner":"144980256@N07","secret":"f4966733c9","server":"65535","farm":66,"title":"Great Crested Flycatcher (Myiarchus crinitus)","ispublic":1,"isfriend":0,"isfamily":0},{"id":"52178803223","owner":"144980256@N07","secret":"165855e396","server":"65535","farm":66,"title":"Great Crested Flycatcher (Myiarchus crinitus)","ispublic":1,"isfriend":0,"isfamily":0},{"id":"52170490316","owner":"39445433@N02","secret":"eb00538b4e","server":"65535","farm":66,"title":"Great-Crested Flycatcher","ispublic":1,"isfriend":0,"isfamily":0},{"id":"52167624822","owner":"124995824@N08","secret":"e0b4f66f59","server":"65535","farm":66,"title":"Great Crested Flycatcher - Myiarchus crinitus","ispublic":1,"isfriend":0,"isfamily":0},{"id":"52149211028","owner":"40723658@N05","secret":"fed6d391d9","server":"65535","farm":66,"title":"Great Crested Flycatcher","ispublic":1,"isfriend":0,"isfamily":0},{"id":"52146344577","owner":"48311154@N02","secret":"77f0563c2d","server":"65535","farm":66,"title":"Shoot first, identify later - Great Crested Flycatcher","ispublic":1,"isfriend":0,"isfamily":0},{"id":"52143253123","owner":"128810613@N02","secret":"ffb68cc5e2","server":"65535","farm":66,"title":"Great Crested Flycatcher - Myiarchus crinitus","ispublic":1,"isfriend":0,"isfamily":0},{"id":"52131448763","owner":"145466593@N08","secret":"9096907d24","server":"65535","farm":66,"title":"Great-crested Flycatcher","ispublic":1,"isfriend":0,"isfamily":0},{"id":"52127475479","owner":"88932760@N08","secret":"6b8012f0c0","server":"65535","farm":66,"title":"Peering Out","ispublic":1,"isfriend":0,"isfamily":0},{"id":"52123137491","owner":"20624344@N08","secret":"9ab1f24df6","server":"65535","farm":66,"title":"great crested flycatcher (Myiarchus crinitus)","ispublic":1,"isfriend":0,"isfamily":0},{"id":"52123134486","owner":"20624344@N08","secret":"9170b326fc","server":"65535","farm":66,"title":"great crested flycatcher (Myiarchus crinitus)","ispublic":1,"isfriend":0,"isfamily":0},{"id":"52121332097","owner":"39511843@N07","secret":"70236ff187","server":"65535","farm":66,"title":"Great Creasted Flycatcher (Myiarchus crinitus) amongst Pine-3-","ispublic":1,"isfriend":0,"isfamily":0},{"id":"52122286711","owner":"39511843@N07","secret":"6922115e64","server":"65535","farm":66,"title":"Great Creasted Flycatcher (Myiarchus crinitus)-2-","ispublic":1,"isfriend":0,"isfamily":0},{"id":"52121256672","owner":"39511843@N07","secret":"5f28107af0","server":"65535","farm":66,"title":"Great Creasted Flycatcher (Myiarchus crinitus)-1-","ispublic":1,"isfriend":0,"isfamily":0},{"id":"52120341665","owner":"88932760@N08","secret":"f87df2695e","server":"65535","farm":66,"title":"Profile Pic!","ispublic":1,"isfriend":0,"isfamily":0},{"id":"52120087144","owner":"88932760@N08","secret":"ccd51803c5","server":"65535","farm":66,"title":"Who's There?","ispublic":1,"isfriend":0,"isfamily":0},{"id":"52119363714","owner":"91064752@N03","secret":"0c213e27c3","server":"65535","farm":66,"title":"Great Crested Flycatcher","ispublic":1,"isfriend":0,"isfamily":0}]},"stat":"ok"}