{"photos":{"page":1,"pages":49,"perpage":100,"total":4853,"photo":[{"id":"52781797692","owner":"71933035@N00","secret":"397c5cce9d","server":"65535","farm":66,"title":"Ring-necked Ducks (Aythya collaris) and Greater Scaup (Aythya marila) at Bissett Lake, Dartmouth Nova Scotia","ispublic":1,"isfriend":0,"isfamily":0},{"id":"52773398359","owner":"12240837@N08","secret":"70c318a0f2","server":"65535","farm":66,"title":"Greater Scaup (aythya marila)","ispublic":1,"isfriend":0,"isfamily":0},{"id":"52773398309","owner":"12240837@N08","secret":"ce04f7f6fc","server":"65535","farm":66,"title":"Greater Scaup (aythya marila)","ispublic":1,"isfriend":0,"isfamily":0},{"id":"52773398249","owner":"12240837@N08","secret":"37cac73c59","server":"65535","farm":66,"title":"Greater Scaup (aythya marila)","ispublic":1,"isfriend":0,"isfamily":0},{"id":"52766988806","owner":"12240837@N08","secret":"9336d313c5","server":"65535","farm":66,"title":"Greater Scaup (aythya marila)","ispublic":1,"isfriend":0,"isfamily":0},{"id":"52760305609","owner":"12240837@N08","secret":"0236af81a7","server":"65535","farm":66,"title":"Greater Scaup (aythya marila)","ispublic":1,"isfriend":0,"isfamily":0},{"id":"52758287857","owner":"62043870@N05","secret":"6f5a1b9970","server":"65535","farm":66,"title":"Common Goldeneye (Bucephala clangula) and  Greater Scaup (Aythya marila)","ispublic":1,"isfriend":0,"isfamily":0},{"id":"52758298105","owner":"119468907@N03","secret":"efd0f3442b","server":"65535","farm":66,"title":"Fuligule milouinan_R5DJ7948","ispublic":1,"isfriend":0,"isfamily":0},{"id":"52751890818","owner":"54724497@N02","secret":"d09a6e9a33","server":"65535","farm":66,"title":"Bergand, Aythya marila, Greater Scaup","ispublic":1,"isfriend":0,"isfamily":0},{"id":"52751513679","owner":"119468907@N03","secret":"468c03044c","server":"0","farm":0,"title":"Fuligule milouinan_7782","ispublic":1,"isfriend":0,"isfamily":0},{"id":"52751675570","owner":"119468907@N03","secret":"1a91622a4a","server":"0","farm":0,"title":"Fuligule milouinan_7781_Envol","ispublic":1,"isfriend":0,"isfamily":0},{"id":"52751503014","owner":"119468907@N03","secret":"47d18568fc","server":"0","farm":0,"title":"Fuligule milouinan_7781_vol","ispublic":1,"isfriend":0,"isfamily":0},{"id":"52748848646","owner":"99927961@N06","secret":"6d78895a2e","server":"65535","farm":66,"title":"Rolf Nagel-Fl-19-24338-Aythya marila","ispublic":1,"isfriend":0,"isfamily":0},{"id":"52746493273","owner":"197628215@N07","secret":"fc6980021a","server":"65535","farm":66,"title":"Ring-necked Duck (Aythya collaris) Greater Scaup (Aythya marila) Ring-necked Duck (Aythya collaris)  Mallard (Anas platyrhynchos)  Northern Pintail (Anas acuta) 02\/27\/2023 #ducks #duck #bestbackroad #bestbackroads #natgeoyourshots #natgeo100contest #natge","ispublic":1,"isfriend":0,"isfamily":0},{"id":"52739038574","owner":"150275643@N07","secret":"65e8d09888","server":"65535","farm":66,"title":"IMG_9607","ispublic":1,"isfriend":0,"isfamily":0},{"id":"52729865447","owner":"60216873@N05","secret":"c4213b0587","server":"65535","farm":66,"title":"Follow the leader!","ispublic":1,"isfriend":0,"isfamily":0},{"id":"52722076448","owner":"64045479@N05","secret":"747e7a1579","server":"65535","farm":66,"title":"Greater Scaup \u2642 Aythya marila","ispublic":1,"isfriend":0,"isfamily":0},{"id":"52719456874","owner":"61241315@N00","secret":"3b1c46ff77","server":"65535","farm":66,"title":"Greater Scaup_Lesser Scaup_Red-breasted Merganser_Ring-necked Duck_N0110","ispublic":1,"isfriend":0,"isfamily":0},{"id":"52716462177","owner":"61241315@N00","secret":"ac847f26fe","server":"0","farm":0,"title":"Greater Scaup_Lesser Scaup_Redhead Duck_Red-breasted Merganser_Ring-necked Duck_0102.MP4","ispublic":1,"isfriend":0,"isfamily":0},{"id":"52716980001","owner":"61241315@N00","secret":"1d5acd21ac","server":"65535","farm":66,"title":"Greater Scaup_Red-breasted Merganser_Ring-necked Duck_N0108","ispublic":1,"isfriend":0,"isfamily":0},{"id":"52717468273","owner":"61241315@N00","secret":"ea34b7b962","server":"65535","farm":66,"title":"Greater Scaup_Red-breasted Merganser_Ring-necked Duck_N0107","ispublic":1,"isfriend":0,"isfamily":0},{"id":"52717245399","owner":"61241315@N00","secret":"a38be10090","server":"65535","farm":66,"title":"Greater Scaup_Lesser Scaup_Red-breasted Merganser_Ring-necked Duck_Redhead_N0109","ispublic":1,"isfriend":0,"isfamily":0},{"id":"52716460207","owner":"61241315@N00","secret":"6a2a042fd9","server":"65535","farm":66,"title":"Greater Scaup_Lesser Scaup_Red-breasted Merganser_Ring-necked Duck_N0108-001","ispublic":1,"isfriend":0,"isfamily":0},{"id":"52713174538","owner":"89367133@N00","secret":"1d476fb084","server":"65535","farm":66,"title":"Fulligule milouinan (Aythya marila).","ispublic":1,"isfriend":0,"isfamily":0},{"id":"52709630098","owner":"98675522@N06","secret":"fca586b1b8","server":"65535","farm":66,"title":"Tossed Shellfish for Dinner","ispublic":1,"isfriend":0,"isfamily":0},{"id":"52704058214","owner":"127542576@N05","secret":"b3465e507a","server":"65535","farm":66,"title":"\u6591\u80cc\u6f5b\u9d28 (Aythya marila#Greater Scaup)","ispublic":1,"isfriend":0,"isfamily":0},{"id":"52703280832","owner":"127542576@N05","secret":"7bb3157f4e","server":"65535","farm":66,"title":"\u6591\u80cc\u6f5b\u9d28 (Aythya marila#Greater Scaup)","ispublic":1,"isfriend":0,"isfamily":0},{"id":"52704224015","owner":"127542576@N05","secret":"ae16ce1580","server":"65535","farm":66,"title":"\u6591\u80cc\u6f5b\u9d28 (Aythya marila#Greater Scaup)","ispublic":1,"isfriend":0,"isfamily":0},{"id":"52704224000","owner":"127542576@N05","secret":"5611194840","server":"65535","farm":66,"title":"\u6591\u80cc\u6f5b\u9d28 (Aythya marila#Greater Scaup)","ispublic":1,"isfriend":0,"isfamily":0},{"id":"52703280807","owner":"127542576@N05","secret":"1195cb9d08","server":"65535","farm":66,"title":"\u6591\u80cc\u6f5b\u9d28 (Aythya marila#Greater Scaup)","ispublic":1,"isfriend":0,"isfamily":0},{"id":"52704223990","owner":"127542576@N05","secret":"20635becd5","server":"65535","farm":66,"title":"\u6591\u80cc\u6f5b\u9d28 (Aythya marila#Greater Scaup)","ispublic":1,"isfriend":0,"isfamily":0},{"id":"52704223975","owner":"127542576@N05","secret":"d80acfa873","server":"65535","farm":66,"title":"\u6591\u80cc\u6f5b\u9d28 (Aythya marila#Greater Scaup)","ispublic":1,"isfriend":0,"isfamily":0},{"id":"52700378237","owner":"185097931@N08","secret":"591e899626","server":"65535","farm":66,"title":"Ogorza\u0142ka (Aythya marila)","ispublic":1,"isfriend":0,"isfamily":0},{"id":"52696666459","owner":"145907835@N07","secret":"ba9ccc8660","server":"65535","farm":66,"title":"Topper - Aythya marila","ispublic":1,"isfriend":0,"isfamily":0},{"id":"52687789696","owner":"49114357@N08","secret":"8b96886a04","server":"65535","farm":66,"title":"Greater Scaup","ispublic":1,"isfriend":0,"isfamily":0},{"id":"52682522242","owner":"194816222@N07","secret":"e29dd45a91","server":"65535","farm":66,"title":"Dugg\u00f6nd - Greater Scaup - aythya marila","ispublic":1,"isfriend":0,"isfamily":0},{"id":"52680280657","owner":"65345069@N02","secret":"d10bfb2378","server":"65535","farm":66,"title":"Greater Scaup {Aythya marila}","ispublic":1,"isfriend":0,"isfamily":0},{"id":"52680078771","owner":"65345069@N02","secret":"b120941011","server":"65535","farm":66,"title":"Greater Scaup {Aythya marila}","ispublic":1,"isfriend":0,"isfamily":0},{"id":"52680362544","owner":"65345069@N02","secret":"9d1b06d754","server":"65535","farm":66,"title":"Greater Scaup {Aythya marila}","ispublic":1,"isfriend":0,"isfamily":0},{"id":"52677738737","owner":"191391950@N02","secret":"56bd796825","server":"65535","farm":66,"title":"Fuligule milouinan - Aythya marila","ispublic":1,"isfriend":0,"isfamily":0},{"id":"52679405173","owner":"47533293@N04","secret":"0dc0b9f85b","server":"65535","farm":66,"title":"Greater scaup, Aythya marila","ispublic":1,"isfriend":0,"isfamily":0},{"id":"52677649613","owner":"12639178@N07","secret":"8250c99784","server":"65535","farm":66,"title":"Beleg Bergente (Aythya marila)","ispublic":1,"isfriend":0,"isfamily":0},{"id":"52672349649","owner":"12639178@N07","secret":"ce51fca63c","server":"65535","farm":66,"title":"Bergenten","ispublic":1,"isfriend":0,"isfamily":0},{"id":"52670472091","owner":"181920661@N03","secret":"146c8f1ea6","server":"65535","farm":66,"title":"Greater Scaup","ispublic":1,"isfriend":0,"isfamily":0},{"id":"52668691601","owner":"62907378@N07","secret":"79616584c2","server":"65535","farm":66,"title":"Greater Scaup m. (Aythya marila)","ispublic":1,"isfriend":0,"isfamily":0},{"id":"52669125290","owner":"62907378@N07","secret":"22c3205151","server":"65535","farm":66,"title":"Greater Scaup (Aythya marila)","ispublic":1,"isfriend":0,"isfamily":0},{"id":"52669124975","owner":"62907378@N07","secret":"e876b9ffa1","server":"65535","farm":66,"title":"Greater Scaup m&f (Aythya marila)","ispublic":1,"isfriend":0,"isfamily":0},{"id":"52668612998","owner":"52913721@N08","secret":"09ee19b205","server":"65535","farm":66,"title":"Scaup (Aythya marila)","ispublic":1,"isfriend":0,"isfamily":0},{"id":"52664229022","owner":"110624976@N05","secret":"5aefd54324","server":"65535","farm":66,"title":"Profile of Female Greater Scaup Duck","ispublic":1,"isfriend":0,"isfamily":0},{"id":"52664222352","owner":"110624976@N05","secret":"5605f56061","server":"65535","farm":66,"title":"Three quarter profile of Female Greater Scaup Duck","ispublic":1,"isfriend":0,"isfamily":0},{"id":"52657646805","owner":"52913721@N08","secret":"5d7ef5faf4","server":"65535","farm":66,"title":"Scaup (Aythya marila)","ispublic":1,"isfriend":0,"isfamily":0},{"id":"52656738038","owner":"12639178@N07","secret":"b40bcbbef4","server":"65535","farm":66,"title":"Bergenten weiblich - nur Belegfotos -","ispublic":1,"isfriend":0,"isfamily":0},{"id":"52649854635","owner":"195041250@N03","secret":"91162bc6bd","server":"65535","farm":66,"title":"Greater Scaup","ispublic":1,"isfriend":0,"isfamily":0},{"id":"52646049720","owner":"8013969@N03","secret":"8c8427000e","server":"65535","farm":66,"title":"Aythya marila DFL btr22-1","ispublic":1,"isfriend":0,"isfamily":0},{"id":"52646048870","owner":"8013969@N03","secret":"8b546063f8","server":"65535","farm":66,"title":"Aythya marila DFL btr22-3","ispublic":1,"isfriend":0,"isfamily":0},{"id":"52645150491","owner":"131314146@N08","secret":"5f11968677","server":"65535","farm":66,"title":"K. MacDonald, Redhead, Aythya americana and Greater Scaup,  Aythya marila","ispublic":1,"isfriend":0,"isfamily":0},{"id":"52645150476","owner":"131314146@N08","secret":"1fc105185e","server":"65535","farm":66,"title":"K. MacDonald, Redhead, Aythya americana and Greater Scaup,  Aythya marila","ispublic":1,"isfriend":0,"isfamily":0},{"id":"52638605377","owner":"12639178@N07","secret":"d5de77d6a3","server":"65535","farm":66,"title":"Bergente (Aythya marila)","ispublic":1,"isfriend":0,"isfamily":0},{"id":"52637024003","owner":"34368269@N04","secret":"752ef7fbbb","server":"65535","farm":66,"title":"Greater Scaup (f)","ispublic":1,"isfriend":0,"isfamily":0},{"id":"52630276357","owner":"62331146@N03","secret":"f667d7a819","server":"65535","farm":66,"title":"Scaup Aythya marila","ispublic":1,"isfriend":0,"isfamily":0},{"id":"52631270913","owner":"62331146@N03","secret":"d2e797d4c6","server":"65535","farm":66,"title":"Scaup Aythya marila","ispublic":1,"isfriend":0,"isfamily":0},{"id":"52630276017","owner":"62331146@N03","secret":"5f67ce9cc7","server":"65535","farm":66,"title":"Scaup Aythya marila","ispublic":1,"isfriend":0,"isfamily":0},{"id":"52630109459","owner":"139524005@N03","secret":"0bc0726e8d","server":"65535","farm":66,"title":"Greater Scaup (Aythya marila) male, feeding on a clam","ispublic":1,"isfriend":0,"isfamily":0},{"id":"52630109384","owner":"139524005@N03","secret":"f88a7961a9","server":"65535","farm":66,"title":"Greater Scaup (Aythya marila) male","ispublic":1,"isfriend":0,"isfamily":0},{"id":"52630109304","owner":"139524005@N03","secret":"3ccb5f6fe9","server":"65535","farm":66,"title":"Greater Scaup (Aythya marila) male","ispublic":1,"isfriend":0,"isfamily":0},{"id":"52629232902","owner":"24379925@N08","secret":"76ca415aaf","server":"65535","farm":66,"title":"GREATER SCAUP","ispublic":1,"isfriend":0,"isfamily":0},{"id":"52616075508","owner":"123521075@N07","secret":"95b28207d7","server":"65535","farm":66,"title":"Scaup - Aythya marila","ispublic":1,"isfriend":0,"isfamily":0},{"id":"52615765670","owner":"27450769@N06","secret":"d9d39204b8","server":"65535","farm":66,"title":"A Little Stretch","ispublic":1,"isfriend":0,"isfamily":0},{"id":"52613528853","owner":"12639178@N07","secret":"7ee77e9d7a","server":"65535","farm":66,"title":"Bergente (Aythya marila)","ispublic":1,"isfriend":0,"isfamily":0},{"id":"52611331898","owner":"39511843@N07","secret":"a38382a0c4","server":"65535","farm":66,"title":"20221230-Greater Scaup (Arthya marila) female-1-","ispublic":1,"isfriend":0,"isfamily":0},{"id":"52610841416","owner":"39511843@N07","secret":"f96d589327","server":"65535","farm":66,"title":"20221230-Greater Scaup (Arthya marila)-","ispublic":1,"isfriend":0,"isfamily":0},{"id":"52611262880","owner":"39511843@N07","secret":"aafcccfeea","server":"65535","farm":66,"title":"20221230-Greater Scaup (Arthya marila) female-4-5638","ispublic":1,"isfriend":0,"isfamily":0},{"id":"52610336752","owner":"39511843@N07","secret":"92c77e59c7","server":"65535","farm":66,"title":"20221230-Greater Scaup (Arthya marila) female-3-","ispublic":1,"isfriend":0,"isfamily":0},{"id":"52610841406","owner":"39511843@N07","secret":"9e1ac6ecca","server":"65535","farm":66,"title":"20221230-Greater Scaup (Arthya marila) female-5-","ispublic":1,"isfriend":0,"isfamily":0},{"id":"52611331893","owner":"39511843@N07","secret":"53bc6eeca1","server":"65535","farm":66,"title":"20221230-Greater Scaup (Arthya marila) female-2-","ispublic":1,"isfriend":0,"isfamily":0},{"id":"52606106611","owner":"54724497@N02","secret":"a1c337a998","server":"65535","farm":66,"title":"Bergand, Aythya marila, Greater Scaup, Vigg, Aythya fuligula, Tufted Duck","ispublic":1,"isfriend":0,"isfamily":0},{"id":"52605661441","owner":"62043870@N05","secret":"aab4ce3430","server":"65535","farm":66,"title":"Greater Scaup (Aythya marila) with Two Lesser Scaups (Aythya affinis)","ispublic":1,"isfriend":0,"isfamily":0},{"id":"52603541104","owner":"119095828@N03","secret":"04ec3cd4d6","server":"65535","farm":66,"title":"Greater Scaup (Aythya marila)","ispublic":1,"isfriend":0,"isfamily":0},{"id":"52600680927","owner":"8381689@N06","secret":"bbc656ed28","server":"65535","farm":66,"title":"Greater Scaup (Aythya marila)","ispublic":1,"isfriend":0,"isfamily":0},{"id":"52601691438","owner":"8381689@N06","secret":"a220e60c2c","server":"65535","farm":66,"title":"Greater Scaup (Aythya marila)","ispublic":1,"isfriend":0,"isfamily":0},{"id":"52601598565","owner":"8381689@N06","secret":"76f88b3ccd","server":"65535","farm":66,"title":"Greater Scaup (Aythya marila)","ispublic":1,"isfriend":0,"isfamily":0},{"id":"52600360672","owner":"34368269@N04","secret":"015aab1fe9","server":"65535","farm":66,"title":"Greater Scaup","ispublic":1,"isfriend":0,"isfamily":0},{"id":"52598348321","owner":"113457946@N06","secret":"634af295fc","server":"65535","farm":66,"title":"Greater Scaup  (Aythya marila)","ispublic":1,"isfriend":0,"isfamily":0},{"id":"52597517316","owner":"16498755@N07","secret":"b8fe982b2d","server":"65535","farm":66,"title":"Greater Scaup, Boating Lake, Helston, Cornwall 31 December 2022","ispublic":1,"isfriend":0,"isfamily":0},{"id":"52597781449","owner":"16498755@N07","secret":"1c5482dc08","server":"65535","farm":66,"title":"Greater Scaup, Boating Lake, Helston, Cornwall 31 December 2022","ispublic":1,"isfriend":0,"isfamily":0},{"id":"52594353168","owner":"145907835@N07","secret":"6327c23fd1","server":"65535","farm":66,"title":"Topper - Aythya marila","ispublic":1,"isfriend":0,"isfamily":0},{"id":"52594094859","owner":"145907835@N07","secret":"d6d057f5d7","server":"65535","farm":66,"title":"Topper - Aythya marila","ispublic":1,"isfriend":0,"isfamily":0},{"id":"52593350932","owner":"145907835@N07","secret":"e1137141bf","server":"65535","farm":66,"title":"Topper - Aythya marila","ispublic":1,"isfriend":0,"isfamily":0},{"id":"52594352263","owner":"145907835@N07","secret":"4c1d796670","server":"65535","farm":66,"title":"Topper - Aythya marila","ispublic":1,"isfriend":0,"isfamily":0},{"id":"52594093964","owner":"145907835@N07","secret":"d07a293c58","server":"65535","farm":66,"title":"Topper - Aythya marila","ispublic":1,"isfriend":0,"isfamily":0},{"id":"52593350217","owner":"145907835@N07","secret":"c5ba571f2a","server":"65535","farm":66,"title":"Topper - Aythya marila","ispublic":1,"isfriend":0,"isfamily":0},{"id":"52593350077","owner":"145907835@N07","secret":"61933c8b3b","server":"65535","farm":66,"title":"Topper - Aythya marila","ispublic":1,"isfriend":0,"isfamily":0},{"id":"52751525392","owner":"197628215@N07","secret":"28e4e38566","server":"65535","farm":66,"title":"Greater Scaup (Aythya marila) 02\/27\/2023 #greaterscaup #duck #bestbackroad #bestbackroads #natgeoyourshots #natgeo100contest #natgeo #rutlandcountyvt #washingtoncountyny #whitehallny #wildphotography #naturephotography #adventurephotography #wildlifephoto","ispublic":1,"isfriend":0,"isfamily":0},{"id":"52679405188","owner":"47533293@N04","secret":"4ff627f49b","server":"65535","farm":66,"title":"Greater scaup, Aythya marila","ispublic":1,"isfriend":0,"isfamily":0},{"id":"52677439074","owner":"12639178@N07","secret":"8cd9f994a1","server":"65535","farm":66,"title":"Beleg Bergente (Aythya marila)","ispublic":1,"isfriend":0,"isfamily":0},{"id":"52676575550","owner":"195041250@N03","secret":"f301de44fd","server":"65535","farm":66,"title":"Greater Scaup","ispublic":1,"isfriend":0,"isfamily":0},{"id":"52668191652","owner":"62907378@N07","secret":"78b48aabbd","server":"65535","farm":66,"title":"Greater Scaup m. (Aythya marila)","ispublic":1,"isfriend":0,"isfamily":0},{"id":"52656440846","owner":"62907378@N07","secret":"893059dcc1","server":"65535","farm":66,"title":"Greater Scaup f (Aythya marila)","ispublic":1,"isfriend":0,"isfamily":0},{"id":"52645100677","owner":"8013969@N03","secret":"189384da3e","server":"65535","farm":66,"title":"Aythya marila DFL btr22-2","ispublic":1,"isfriend":0,"isfamily":0},{"id":"52594258335","owner":"145907835@N07","secret":"d5e88f9285","server":"65535","farm":66,"title":"Topper - Aythya marila","ispublic":1,"isfriend":0,"isfamily":0}]},"stat":"ok"}