{"photos":{"page":1,"pages":90,"perpage":100,"total":8987,"photo":[{"id":"52792876434","owner":"62043870@N05","secret":"e66e99459a","server":"65535","farm":66,"title":"Greater White-fronted Geese, Anser albifrons","ispublic":1,"isfriend":0,"isfamily":0},{"id":"52789963995","owner":"12639178@N07","secret":"7e3e764a10","server":"65535","farm":66,"title":"Bl\u00e4ssgans, 1.Winter ?","ispublic":1,"isfriend":0,"isfamily":0},{"id":"52788327646","owner":"143326780@N02","secret":"637a0438df","server":"65535","farm":66,"title":"DSCN7852","ispublic":1,"isfriend":0,"isfamily":0},{"id":"52788327501","owner":"143326780@N02","secret":"c746cc47c1","server":"65535","farm":66,"title":"DSCN7853","ispublic":1,"isfriend":0,"isfamily":0},{"id":"52788778203","owner":"143326780@N02","secret":"91d76b900b","server":"65535","farm":66,"title":"DSCN7917","ispublic":1,"isfriend":0,"isfamily":0},{"id":"52788721910","owner":"143326780@N02","secret":"15d011f804","server":"65535","farm":66,"title":"DSCN7918","ispublic":1,"isfriend":0,"isfamily":0},{"id":"52787588255","owner":"39854996@N00","secret":"5df083aef4","server":"65535","farm":66,"title":"Russian White-fronted Goose \"Anser albifrons\"","ispublic":1,"isfriend":0,"isfamily":0},{"id":"52785231985","owner":"62043870@N05","secret":"9f58482ae0","server":"65535","farm":66,"title":"Great Egret (Ardea alba) and Greater White-fronted Geese (Anser albifrons)","ispublic":1,"isfriend":0,"isfamily":0},{"id":"52785231435","owner":"62043870@N05","secret":"5895eb09f3","server":"65535","farm":66,"title":"Greater White-fronted Geese, Anser albifrons","ispublic":1,"isfriend":0,"isfamily":0},{"id":"52784917193","owner":"48311154@N02","secret":"31b373148a","server":"65535","farm":66,"title":"Can you scratch your head with your foot?","ispublic":1,"isfriend":0,"isfamily":0},{"id":"52781921022","owner":"48311154@N02","secret":"a900451973","server":"65535","farm":66,"title":"Greater White-fronted Goose - Lifer!","ispublic":1,"isfriend":0,"isfamily":0},{"id":"52780864099","owner":"14191740@N08","secret":"b390890b3f","server":"65535","farm":66,"title":"Greenland White-fronted Goose (Anser albifrons flavirostris), Loch Gruinart RSPB, Islay","ispublic":1,"isfriend":0,"isfamily":0},{"id":"52779460378","owner":"42388593@N04","secret":"f97ed633c9","server":"65535","farm":66,"title":"Blisga\u030as, Greater white-fronted goose, Bla\u0308ssgans (Anser albifrons)-0412","ispublic":1,"isfriend":0,"isfamily":0},{"id":"52778709646","owner":"130021529@N02","secret":"87c87106b8","server":"65535","farm":66,"title":"Anser albifrons | Greater White-fronted Goose | bl\u00e4sg\u00e5s","ispublic":1,"isfriend":0,"isfamily":0},{"id":"52778181247","owner":"130021529@N02","secret":"e0f227297e","server":"65535","farm":66,"title":"Anser albifrons | Greater White-fronted Goose | bl\u00e4sg\u00e5s","ispublic":1,"isfriend":0,"isfamily":0},{"id":"52778181192","owner":"130021529@N02","secret":"976515df26","server":"65535","farm":66,"title":"Anser albifrons | Greater White-fronted Goose | bl\u00e4sg\u00e5s","ispublic":1,"isfriend":0,"isfamily":0},{"id":"52778965269","owner":"130021529@N02","secret":"f2e26c1482","server":"65535","farm":66,"title":"Anser albifrons | Greater White-fronted Goose | bl\u00e4sg\u00e5s","ispublic":1,"isfriend":0,"isfamily":0},{"id":"52777778172","owner":"12639178@N07","secret":"054d2cfda1","server":"65535","farm":66,"title":"Bl\u00e4ssg\u00e4nse","ispublic":1,"isfriend":0,"isfamily":0},{"id":"52777308944","owner":"62043870@N05","secret":"6a705c015a","server":"65535","farm":66,"title":"Greater White-fronted Geese, Anser albifrons","ispublic":1,"isfriend":0,"isfamily":0},{"id":"52777464040","owner":"62043870@N05","secret":"998c6484e6","server":"65535","farm":66,"title":"Greater White-fronted Geese, Anser albifrons","ispublic":1,"isfriend":0,"isfamily":0},{"id":"52776346451","owner":"91334997@N05","secret":"4fd8a25908","server":"65535","farm":66,"title":"Anser albifrons, Oie rieuse famille_40@R.Hic","ispublic":1,"isfriend":0,"isfamily":0},{"id":"52776602809","owner":"91334997@N05","secret":"69785c2f1a","server":"65535","farm":66,"title":"Anser albifrons, Oie rieuse famille_41@R.Hic","ispublic":1,"isfriend":0,"isfamily":0},{"id":"52776602254","owner":"91334997@N05","secret":"283508790b","server":"65535","farm":66,"title":"Anser albifrons, Oie rieuse famille_42@R.Hic","ispublic":1,"isfriend":0,"isfamily":0},{"id":"52776344866","owner":"91334997@N05","secret":"d459900078","server":"65535","farm":66,"title":"Anser albifrons, Oie rieuse juv\u00e9niles_41@R.Hic","ispublic":1,"isfriend":0,"isfamily":0},{"id":"52776601199","owner":"91334997@N05","secret":"46922891fb","server":"65535","farm":66,"title":"Anser albifrons, oie rieuse et cygne tubercul\u00e9_1","ispublic":1,"isfriend":0,"isfamily":0},{"id":"52776600929","owner":"91334997@N05","secret":"5d0def3afa","server":"65535","farm":66,"title":"Anser albifrons, oie rieuse et cygne tubercul\u00e9_2","ispublic":1,"isfriend":0,"isfamily":0},{"id":"52775811637","owner":"91334997@N05","secret":"24db2f266b","server":"65535","farm":66,"title":"Anser albifrons, oie rieuse et cygne tubercul\u00e9_5","ispublic":1,"isfriend":0,"isfamily":0},{"id":"52776600554","owner":"91334997@N05","secret":"7984e5359f","server":"65535","farm":66,"title":"Anser albifrons, oie rieuse et cygne tubercul\u00e9_6","ispublic":1,"isfriend":0,"isfamily":0},{"id":"52775811042","owner":"91334997@N05","secret":"bf8f839726","server":"65535","farm":66,"title":"Anser albifrons, oie rieuse et cygne tubercul\u00e9_7","ispublic":1,"isfriend":0,"isfamily":0},{"id":"52775810697","owner":"91334997@N05","secret":"b71dcdf85a","server":"65535","farm":66,"title":"Anser albifrons, oie rieuse et cygne tubercul\u00e9_10","ispublic":1,"isfriend":0,"isfamily":0},{"id":"52775810457","owner":"91334997@N05","secret":"976f799a11","server":"65535","farm":66,"title":"Anser albifrons, oie rieuse et cygne tubercul\u00e9_11","ispublic":1,"isfriend":0,"isfamily":0},{"id":"52775810187","owner":"91334997@N05","secret":"9aae48d5c7","server":"65535","farm":66,"title":"Anser albifrons, oie rieuse et cygne tubercul\u00e9_12","ispublic":1,"isfriend":0,"isfamily":0},{"id":"52776598934","owner":"91334997@N05","secret":"b3e28693aa","server":"65535","farm":66,"title":"Anser albifrons, oie rieuse et cygne tubercul\u00e9_13","ispublic":1,"isfriend":0,"isfamily":0},{"id":"52776753405","owner":"91334997@N05","secret":"30686f3e7a","server":"65535","farm":66,"title":"Anser albifrons, oie rieuse_10","ispublic":1,"isfriend":0,"isfamily":0},{"id":"52774798411","owner":"42388593@N04","secret":"bd44f88f85","server":"65535","farm":66,"title":"Blisga\u030as, Greater white-fronted goose, Bla\u0308ssgans (Anser albifrons)-0410","ispublic":1,"isfriend":0,"isfamily":0},{"id":"52774827503","owner":"42388593@N04","secret":"552c4b74a9","server":"65535","farm":66,"title":"Blisga\u030as, Greater white-fronted goose, Bla\u0308ssgans (Anser albifrons)-0409","ispublic":1,"isfriend":0,"isfamily":0},{"id":"52772851480","owner":"69239666@N06","secret":"39283ace23","server":"65535","farm":66,"title":"Russian White-fronted Geese (Anser abifrons albifrons)","ispublic":1,"isfriend":0,"isfamily":0},{"id":"52770911270","owner":"42388593@N04","secret":"465631331f","server":"65535","farm":66,"title":"Blisga\u030as, Greater white-fronted goose, Bla\u0308ssgans (Anser albifrons)-0411","ispublic":1,"isfriend":0,"isfamily":0},{"id":"52764068537","owner":"12639178@N07","secret":"50571b3e0b","server":"65535","farm":66,"title":"Bl\u00e4ssg\u00e4nse","ispublic":1,"isfriend":0,"isfamily":0},{"id":"52760897635","owner":"188590690@N04","secret":"2d8988a7c3","server":"65535","farm":66,"title":"Kolgans, Greater White-fronted Goose, Anser albifrons","ispublic":1,"isfriend":0,"isfamily":0},{"id":"52759685526","owner":"54724497@N02","secret":"bf4ce87457","server":"65535","farm":66,"title":"Spetsbergsg\u00e5s, Anser brachyrhynchus, Pink-footed Goose. Bl\u00e4sg\u00e5s, Anser albifrons, Greater White-fronted Goose","ispublic":1,"isfriend":0,"isfamily":0},{"id":"52760022653","owner":"115212372@N04","secret":"23c3c3c957","server":"65535","farm":66,"title":"White-fronted Goose (Anser albifrons)","ispublic":1,"isfriend":0,"isfamily":0},{"id":"52759736798","owner":"12639178@N07","secret":"2bb6c4e185","server":"65535","farm":66,"title":"Bl\u00e4ssg\u00e4nse im Flug","ispublic":1,"isfriend":0,"isfamily":0},{"id":"52759591243","owner":"59678053@N08","secret":"08a3be179d","server":"65535","farm":66,"title":"White-fronted Goose","ispublic":1,"isfriend":0,"isfamily":0},{"id":"52757792109","owner":"61220767@N03","secret":"e55a57533a","server":"65535","farm":66,"title":"greater white-fronted goose hu","ispublic":1,"isfriend":0,"isfamily":0},{"id":"52756071322","owner":"12639178@N07","secret":"164933df8d","server":"65535","farm":66,"title":"Spazierg\u00e4nger am Feldrand","ispublic":1,"isfriend":0,"isfamily":0},{"id":"52756415256","owner":"49246330@N00","secret":"73276d5919","server":"65535","farm":66,"title":"Greater White-fronted Goose","ispublic":1,"isfriend":0,"isfamily":0},{"id":"52766391103","owner":"119468907@N03","secret":"80fd19e77b","server":"0","farm":0,"title":"Oie rieuse_jmm_8126","ispublic":1,"isfriend":0,"isfamily":0},{"id":"52758415016","owner":"119468907@N03","secret":"b32046a8f6","server":"65535","farm":66,"title":"Oie rieuse_R5DJ8110_Lr","ispublic":1,"isfriend":0,"isfamily":0},{"id":"52754578982","owner":"74936165@N03","secret":"6484a22976","server":"65535","farm":66,"title":"__R73473","ispublic":1,"isfriend":0,"isfamily":0},{"id":"52754803479","owner":"12639178@N07","secret":"1423c6fe94","server":"65535","farm":66,"title":"eine gro\u00dfe Zahl rastet auf dem See","ispublic":1,"isfriend":0,"isfamily":0},{"id":"52754803399","owner":"12639178@N07","secret":"99d0348b84","server":"65535","farm":66,"title":"Einflug der Bl\u00e4ssg\u00e4nse","ispublic":1,"isfriend":0,"isfamily":0},{"id":"52753786159","owner":"78458506@N03","secret":"4eb52aef3b","server":"65535","farm":66,"title":"Bl\u00e4ssg\u00e4nse","ispublic":1,"isfriend":0,"isfamily":0},{"id":"52752898202","owner":"12639178@N07","secret":"1ae53749bc","server":"65535","farm":66,"title":"Bl\u00e4ssgans (Anser albifrons) (2)","ispublic":1,"isfriend":0,"isfamily":0},{"id":"52753925348","owner":"12639178@N07","secret":"da4fc4b6f7","server":"65535","farm":66,"title":"Bl\u00e4ssgans (Anser albifrons) (1)","ispublic":1,"isfriend":0,"isfamily":0},{"id":"52753198593","owner":"12639178@N07","secret":"88108a92d8","server":"65535","farm":66,"title":"Bl\u00e4ssgans Bickenbach Landbachaue 2023-03-16","ispublic":1,"isfriend":0,"isfamily":0},{"id":"52749616928","owner":"12639178@N07","secret":"a19ecdcd7d","server":"65535","farm":66,"title":"Dutzende Bl\u00e4ssg\u00e4nse zwischen hunderten von Saatg\u00e4nsen im \u00dcberwinterungsgebi","ispublic":1,"isfriend":0,"isfamily":0},{"id":"52746310974","owner":"170297767@N06","secret":"2fc8fa6c00","server":"65535","farm":66,"title":"ES CON FIELD HOKKAIDO","ispublic":1,"isfriend":0,"isfamily":0},{"id":"52745166107","owner":"68635735@N02","secret":"5a4d031f13","server":"65535","farm":66,"title":"Greater White-fronted Goose (Anser albifrons) among Canada Geese (Branta canadensis)","ispublic":1,"isfriend":0,"isfamily":0},{"id":"52746183063","owner":"68635735@N02","secret":"9b30eda341","server":"65535","farm":66,"title":"Greater White-fronted Goose (Anser albifrons) among Snow Geese (Chen caerulescens)","ispublic":1,"isfriend":0,"isfamily":0},{"id":"52745445734","owner":"12639178@N07","secret":"0204d951c5","server":"65535","farm":66,"title":"Bl\u00e4ssgans (Anser albifrons) (2)","ispublic":1,"isfriend":0,"isfamily":0},{"id":"52745606535","owner":"12639178@N07","secret":"8bee2fe4e8","server":"65535","farm":66,"title":"Bl\u00e4ssgans (Anser albifrons) (1)","ispublic":1,"isfriend":0,"isfamily":0},{"id":"52740800299","owner":"48246827@N03","secret":"78df1b3638","server":"65535","farm":66,"title":"(Greater) White-fronted Goose - Kolgans (Anser albifrons) Isle of Marken NL","ispublic":1,"isfriend":0,"isfamily":0},{"id":"52740415129","owner":"39854996@N00","secret":"260961bea0","server":"0","farm":0,"title":"White-fronted Goose \"Anser albifrons\"","ispublic":1,"isfriend":0,"isfamily":0},{"id":"52736215488","owner":"59678053@N08","secret":"1057d1a055","server":"65535","farm":66,"title":"10  White-fronted Geese","ispublic":1,"isfriend":0,"isfamily":0},{"id":"52736018773","owner":"60030427@N07","secret":"9d01f93781","server":"65535","farm":66,"title":"White-fronted Geese","ispublic":1,"isfriend":0,"isfamily":0},{"id":"52736015698","owner":"60030427@N07","secret":"92f0117c59","server":"65535","farm":66,"title":"White-fronted Geese","ispublic":1,"isfriend":0,"isfamily":0},{"id":"52735238713","owner":"12639178@N07","secret":"9de8302322","server":"65535","farm":66,"title":"Bl\u00e4ssg\u00e4nse vergesellschaftet mit Wei\u00dfwangeng\u00e4nsen, 230304","ispublic":1,"isfriend":0,"isfamily":0},{"id":"52734759609","owner":"21558080@N07","secret":"21c6853b7f","server":"65535","farm":66,"title":"Greater White-fronted Goose (Anser albifrons)","ispublic":1,"isfriend":0,"isfamily":0},{"id":"52733669134","owner":"60030427@N07","secret":"63482d3ba2","server":"65535","farm":66,"title":"Barnacle and White-fronted Geese","ispublic":1,"isfriend":0,"isfamily":0},{"id":"52733826630","owner":"60030427@N07","secret":"e88606af86","server":"65535","farm":66,"title":"White-fronted Geese","ispublic":1,"isfriend":0,"isfamily":0},{"id":"52732131537","owner":"12639178@N07","secret":"4159a5da20","server":"65535","farm":66,"title":"Bl\u00e4ssgans (Anser albifrons) (3)","ispublic":1,"isfriend":0,"isfamily":0},{"id":"52732906214","owner":"12639178@N07","secret":"8881e0260d","server":"65535","farm":66,"title":"Bl\u00e4ssgans (Anser albifrons) (2)","ispublic":1,"isfriend":0,"isfamily":0},{"id":"52733136468","owner":"12639178@N07","secret":"fcde9edc58","server":"65535","farm":66,"title":"Gro\u00dfer Trupp Bl\u00e4ssg\u00e4nse","ispublic":1,"isfriend":0,"isfamily":0},{"id":"52731768140","owner":"60030427@N07","secret":"857c95c34c","server":"65535","farm":66,"title":"Approach to Landing","ispublic":1,"isfriend":0,"isfamily":0},{"id":"52731360916","owner":"60030427@N07","secret":"9204ceb19b","server":"65535","farm":66,"title":"Barnacles Above","ispublic":1,"isfriend":0,"isfamily":0},{"id":"52727929603","owner":"62043870@N05","secret":"47559ba136","server":"65535","farm":66,"title":"Greater White-fronted Goose, Anser albifrons","ispublic":1,"isfriend":0,"isfamily":0},{"id":"52727923968","owner":"62043870@N05","secret":"228ba4b4fe","server":"65535","farm":66,"title":"Greater White-fronted Geese (Anser albifrons) with Mallards (Anas platyrhynchos) and American Wigeons (Mareca americana)","ispublic":1,"isfriend":0,"isfamily":0},{"id":"52727446691","owner":"62043870@N05","secret":"3fb02673a7","server":"65535","farm":66,"title":"Greater White-fronted Geese, Anser albifrons","ispublic":1,"isfriend":0,"isfamily":0},{"id":"52727230595","owner":"72271115@N02","secret":"4c468dbf17","server":"65535","farm":66,"title":"Greater White-fronted Goose --- Anser albifrons","ispublic":1,"isfriend":0,"isfamily":0},{"id":"52721178832","owner":"12639178@N07","secret":"2a2b943cdc","server":"65535","farm":66,"title":"Bl\u00e4ssgans (Anser albifrons)","ispublic":1,"isfriend":0,"isfamily":0},{"id":"52719993607","owner":"32599741@N03","secret":"52bc205d8a","server":"65535","farm":66,"title":"2023 - Day 56:  you look that way and I'll look this way","ispublic":1,"isfriend":0,"isfamily":0},{"id":"52719798457","owner":"68635735@N02","secret":"339f867610","server":"65535","farm":66,"title":"Greater White-fronted Goose (Anser albifrons)","ispublic":1,"isfriend":0,"isfamily":0},{"id":"52719797837","owner":"68635735@N02","secret":"c079f2dc3e","server":"65535","farm":66,"title":"Greater White-fronted Goose (Anser albifrons)","ispublic":1,"isfriend":0,"isfamily":0},{"id":"52719978774","owner":"12639178@N07","secret":"ab78301d04","server":"65535","farm":66,"title":"Bl\u00e4ssgans (Anser albifrons) (2)","ispublic":1,"isfriend":0,"isfamily":0},{"id":"52720133615","owner":"12639178@N07","secret":"212c4590ae","server":"65535","farm":66,"title":"Bl\u00e4ssgans (Anser albifrons) (1)","ispublic":1,"isfriend":0,"isfamily":0},{"id":"52718908759","owner":"68635735@N02","secret":"4a1668e678","server":"65535","farm":66,"title":"Greater White-fronted Goose (Anser albifrons)","ispublic":1,"isfriend":0,"isfamily":0},{"id":"52719067290","owner":"68635735@N02","secret":"5a5044d54e","server":"65535","farm":66,"title":"Greater White-fronted Goose (Anser albifrons)","ispublic":1,"isfriend":0,"isfamily":0},{"id":"52718029165","owner":"12639178@N07","secret":"e4865d92ba","server":"65535","farm":66,"title":"Bl\u00e4ssg\u00e4nse","ispublic":1,"isfriend":0,"isfamily":0},{"id":"52717642125","owner":"62043870@N05","secret":"c6cf8f5241","server":"65535","farm":66,"title":"Greater White-fronted Goose (Anser albifrons) with Canada Geese (Branta canadensis) and Mallards (Anas platyrhynchos)","ispublic":1,"isfriend":0,"isfamily":0},{"id":"52716716184","owner":"12639178@N07","secret":"994c4f8690","server":"65535","farm":66,"title":"entspannte Bl\u00e4ssgans","ispublic":1,"isfriend":0,"isfamily":0},{"id":"52712609730","owner":"12639178@N07","secret":"d0bc2849b7","server":"65535","farm":66,"title":"Bl\u00e4ssgans (Anser albifrons)","ispublic":1,"isfriend":0,"isfamily":0},{"id":"52712669353","owner":"12639178@N07","secret":"0c68249c04","server":"65535","farm":66,"title":"Bl\u00e4ssgans (Anser albifrons)","ispublic":1,"isfriend":0,"isfamily":0},{"id":"52712609220","owner":"12639178@N07","secret":"c73bd12bae","server":"65535","farm":66,"title":"Bl\u00e4ssgans (Anser albifrons)","ispublic":1,"isfriend":0,"isfamily":0},{"id":"52712164266","owner":"12639178@N07","secret":"878da6c270","server":"65535","farm":66,"title":"Bl\u00e4ssgans (Anser albifrons) (1)","ispublic":1,"isfriend":0,"isfamily":0},{"id":"52712637308","owner":"12639178@N07","secret":"fcdc2dcab1","server":"65535","farm":66,"title":"Bl\u00e4ssgans (Anser albifrons) (2)","ispublic":1,"isfriend":0,"isfamily":0},{"id":"52712419039","owner":"12639178@N07","secret":"36c3767773","server":"65535","farm":66,"title":"Bl\u00e4ssgans (Anser albifrons) (1)","ispublic":1,"isfriend":0,"isfamily":0},{"id":"52735711269","owner":"12639178@N07","secret":"558d76e6b5","server":"65535","farm":66,"title":"Bl\u00e4ssg\u00e4nse","ispublic":1,"isfriend":0,"isfamily":0},{"id":"52727665152","owner":"186211059@N06","secret":"c92ede94db","server":"65535","farm":66,"title":"Greater White-fronted Goose","ispublic":1,"isfriend":0,"isfamily":0},{"id":"52712191176","owner":"12639178@N07","secret":"911928003a","server":"65535","farm":66,"title":"Bl\u00e4ssgans (Anser albifrons)","ispublic":1,"isfriend":0,"isfamily":0}]},"stat":"ok"}