{"photos":{"page":1,"pages":169,"perpage":100,"total":16865,"photo":[{"id":"52722404182","owner":"120449047@N06","secret":"f950dc01f6","server":"65535","farm":66,"title":"Great Horned Owl","ispublic":1,"isfriend":0,"isfamily":0},{"id":"52720036506","owner":"79422714@N05","secret":"911fd7f85f","server":"65535","farm":66,"title":"Great Horned Owlets","ispublic":1,"isfriend":0,"isfamily":0},{"id":"52718541705","owner":"79791557@N02","secret":"e16a9cea12","server":"65535","farm":66,"title":"Great Horned Owl (Bubo virginianus)","ispublic":1,"isfriend":0,"isfamily":0},{"id":"52718375204","owner":"79791557@N02","secret":"273dbf0e15","server":"65535","farm":66,"title":"Great Horned Owl (Bubo virginianus)","ispublic":1,"isfriend":0,"isfamily":0},{"id":"52717590172","owner":"79791557@N02","secret":"0854464a34","server":"65535","farm":66,"title":"Great Horned Owl (Bubo virginianus)","ispublic":1,"isfriend":0,"isfamily":0},{"id":"52717568602","owner":"79791557@N02","secret":"4e0d41a52e","server":"65535","farm":66,"title":"Great Horned Owl (Bubo virginianus)","ispublic":1,"isfriend":0,"isfamily":0},{"id":"52718503940","owner":"79791557@N02","secret":"39f57e7a11","server":"65535","farm":66,"title":"Great Horned Owl (Bubo virginianus)","ispublic":1,"isfriend":0,"isfamily":0},{"id":"52718563768","owner":"79791557@N02","secret":"30a3cdf2cd","server":"65535","farm":66,"title":"Great Horned Owl (Bubo virginianus)","ispublic":1,"isfriend":0,"isfamily":0},{"id":"52717735213","owner":"11159374@N04","secret":"7746132a61","server":"65535","farm":66,"title":"\"Home Sweet Home\"","ispublic":1,"isfriend":0,"isfamily":0},{"id":"52714816396","owner":"65788177@N02","secret":"7609f362f6","server":"65535","farm":66,"title":"Great Horned Owl","ispublic":1,"isfriend":0,"isfamily":0},{"id":"52713275354","owner":"33573751@N04","secret":"1205d9a675","server":"65535","farm":66,"title":"Great Horned Owl (Bubo virginianus) - Vero Beach, Florida","ispublic":1,"isfriend":0,"isfamily":0},{"id":"52713063295","owner":"82393004@N02","secret":"6981de0be8","server":"65535","farm":66,"title":"Florida Bird Pictures","ispublic":1,"isfriend":0,"isfamily":0},{"id":"52712646141","owner":"82393004@N02","secret":"44700d4230","server":"65535","farm":66,"title":"Florida Bird Pictures","ispublic":1,"isfriend":0,"isfamily":0},{"id":"52708572187","owner":"90355165@N03","secret":"1f6e62b609","server":"65535","farm":66,"title":"great horned owl juveniles","ispublic":1,"isfriend":0,"isfamily":0},{"id":"52709228468","owner":"65788177@N02","secret":"85842365a8","server":"65535","farm":66,"title":"Great Horned Owl","ispublic":1,"isfriend":0,"isfamily":0},{"id":"52703706752","owner":"182515684@N02","secret":"8a4acae997","server":"65535","farm":66,"title":"Female Great Horned Owl \u2026 OM3884-410","ispublic":1,"isfriend":0,"isfamily":0},{"id":"52699002417","owner":"103722035@N06","secret":"a304f0c30e","server":"65535","farm":66,"title":"Great Horned Owl (Bubo virginianus), California Valley, CA","ispublic":1,"isfriend":0,"isfamily":0},{"id":"52699002317","owner":"103722035@N06","secret":"70e12996cb","server":"65535","farm":66,"title":"Great Horned Owl (Bubo virginianus), California Valley, CA","ispublic":1,"isfriend":0,"isfamily":0},{"id":"52699520051","owner":"103722035@N06","secret":"6fe632b977","server":"65535","farm":66,"title":"Great Horned Owl (Bubo virginianus), California Valley, CA","ispublic":1,"isfriend":0,"isfamily":0},{"id":"52699939945","owner":"103722035@N06","secret":"3e8a9f4118","server":"65535","farm":66,"title":"Great Horned Owl (Bubo virginianus), California Valley, CA","ispublic":1,"isfriend":0,"isfamily":0},{"id":"52699785124","owner":"103722035@N06","secret":"011ecb9564","server":"65535","farm":66,"title":"Great Horned Owl (Bubo virginianus), California Valley, CA","ispublic":1,"isfriend":0,"isfamily":0},{"id":"52698806447","owner":"103722035@N06","secret":"923676b2ae","server":"0","farm":0,"title":"Great Horned Owl (Bubo virginianus), California Valley, CA","ispublic":1,"isfriend":0,"isfamily":0},{"id":"52697647014","owner":"65148649@N04","secret":"455b81966f","server":"65535","farm":66,"title":"Great Horned Owl 02.11.23 Rutherford K","ispublic":1,"isfriend":0,"isfamily":0},{"id":"52697390031","owner":"65148649@N04","secret":"35b57f0290","server":"65535","farm":66,"title":"Great Horned Owl 02.11.23 Rutherford E","ispublic":1,"isfriend":0,"isfamily":0},{"id":"52696870772","owner":"65148649@N04","secret":"e8fc1bb013","server":"65535","farm":66,"title":"Great Horned Owl 02.11.23 Frye","ispublic":1,"isfriend":0,"isfamily":0},{"id":"52692725320","owner":"92567405@N03","secret":"847ba666cf","server":"65535","farm":66,"title":"Great Horned Owl - 02.15.23","ispublic":1,"isfriend":0,"isfamily":0},{"id":"52685257055","owner":"78067826@N03","secret":"19b2434d94","server":"65535","farm":66,"title":"Great Horned Owl","ispublic":1,"isfriend":0,"isfamily":0},{"id":"52682984991","owner":"13668899@N00","secret":"75f5764d5e","server":"65535","farm":66,"title":"Jacurutu","ispublic":1,"isfriend":0,"isfamily":0},{"id":"52672877617","owner":"90355165@N03","secret":"14f565df51","server":"65535","farm":66,"title":"great horned owl","ispublic":1,"isfriend":0,"isfamily":0},{"id":"52673662289","owner":"90355165@N03","secret":"e7fbf04223","server":"65535","farm":66,"title":"great horned owl","ispublic":1,"isfriend":0,"isfamily":0},{"id":"52672835575","owner":"70295563@N00","secret":"eaf3b856f9","server":"65535","farm":66,"title":"Morning Watch","ispublic":1,"isfriend":0,"isfamily":0},{"id":"52672352108","owner":"78067826@N03","secret":"a9b3f3c7b4","server":"65535","farm":66,"title":"Great Horned Owl","ispublic":1,"isfriend":0,"isfamily":0},{"id":"52672038905","owner":"99539857@N04","secret":"f688f27a66","server":"65535","farm":66,"title":"Great Horned Owl","ispublic":1,"isfriend":0,"isfamily":0},{"id":"52668011077","owner":"125605310@N07","secret":"8e2553019b","server":"65535","farm":66,"title":"Great Horned Owl, Bubo virginianus","ispublic":1,"isfriend":0,"isfamily":0},{"id":"52668944655","owner":"125605310@N07","secret":"ded30f911b","server":"65535","farm":66,"title":"Great Horned Owl, Bubo virginianus","ispublic":1,"isfriend":0,"isfamily":0},{"id":"52668008672","owner":"125605310@N07","secret":"9694220f4e","server":"65535","farm":66,"title":"Great Horned Owl, Bubo virginianus","ispublic":1,"isfriend":0,"isfamily":0},{"id":"52666912415","owner":"11159374@N04","secret":"192c7a9847","server":"65535","farm":66,"title":"Great Horned Owl","ispublic":1,"isfriend":0,"isfamily":0},{"id":"52664525673","owner":"145287509@N03","secret":"240a3edb57","server":"65535","farm":66,"title":"Night Owl (See Caption)","ispublic":1,"isfriend":0,"isfamily":0},{"id":"52661836873","owner":"48014585@N00","secret":"070c7d848e","server":"65535","farm":66,"title":"Great Horned Owl","ispublic":1,"isfriend":0,"isfamily":0},{"id":"52651279584","owner":"86061498@N07","secret":"75fd28b278","server":"65535","farm":66,"title":"Great Horned Owl Nest","ispublic":1,"isfriend":0,"isfamily":0},{"id":"52650787603","owner":"62043870@N05","secret":"b4744ca6ac","server":"65535","farm":66,"title":"Great Horned Owl, Bubo virginianus","ispublic":1,"isfriend":0,"isfamily":0},{"id":"52647868230","owner":"34238008@N02","secret":"cd765ceaf2","server":"65535","farm":66,"title":"Great Horned Owl (Bubo virginianus)","ispublic":1,"isfriend":0,"isfamily":0},{"id":"52646924717","owner":"34238008@N02","secret":"64c7831975","server":"65535","farm":66,"title":"Great Horned Owl (Bubo virginianus)","ispublic":1,"isfriend":0,"isfamily":0},{"id":"52645806927","owner":"77931884@N00","secret":"b3eb957b5d","server":"65535","farm":66,"title":"Great Horned Owl","ispublic":1,"isfriend":0,"isfamily":0},{"id":"52646044208","owner":"95747238@N07","secret":"e6a68106e5","server":"65535","farm":66,"title":"Bubo virginianus 4","ispublic":1,"isfriend":0,"isfamily":0},{"id":"52645312601","owner":"100108154@N02","secret":"5d967dc827","server":"65535","farm":66,"title":"Week 2","ispublic":1,"isfriend":0,"isfamily":0},{"id":"52643281163","owner":"95747238@N07","secret":"1fed8e4df0","server":"65535","farm":66,"title":"Bubo virginianus 2","ispublic":1,"isfriend":0,"isfamily":0},{"id":"52642299757","owner":"95747238@N07","secret":"8d2434721b","server":"65535","farm":66,"title":"Bubo virginianus 3","ispublic":1,"isfriend":0,"isfamily":0},{"id":"52642044377","owner":"197490463@N02","secret":"488784398a","server":"65535","farm":66,"title":"Great horned owl (Bubo virginianus)","ispublic":1,"isfriend":0,"isfamily":0},{"id":"52642469030","owner":"24379925@N08","secret":"3c2e8d36a5","server":"65535","farm":66,"title":"GREAT HORNED OWL","ispublic":1,"isfriend":0,"isfamily":0},{"id":"52642107638","owner":"95747238@N07","secret":"46e4b35e53","server":"65535","farm":66,"title":"Bubo virginianus 1","ispublic":1,"isfriend":0,"isfamily":0},{"id":"52641557200","owner":"191213614@N06","secret":"059af2d42d","server":"65535","farm":66,"title":"\u00d1acurut\u00fa.   Great horned owl.     -Bubo virginianus-","ispublic":1,"isfriend":0,"isfamily":0},{"id":"52640580089","owner":"97183171@N04","secret":"1a810d21d0","server":"65535","farm":66,"title":"Grand-duc d'Am\u00e9rique - Great Horned Owl","ispublic":1,"isfriend":0,"isfamily":0},{"id":"52639786472","owner":"97183171@N04","secret":"e9a778d5c9","server":"65535","farm":66,"title":"Grand-duc d'Am\u00e9rique - Great Horned Owl","ispublic":1,"isfriend":0,"isfamily":0},{"id":"52639368083","owner":"97183171@N04","secret":"732ec62d4c","server":"65535","farm":66,"title":"Grand-duc d'Am\u00e9rique - Great Horned Owl","ispublic":1,"isfriend":0,"isfamily":0},{"id":"52638378645","owner":"62043870@N05","secret":"edb466b7d7","server":"65535","farm":66,"title":"Great Horned Owl, Bubo virginianus","ispublic":1,"isfriend":0,"isfamily":0},{"id":"52637969805","owner":"65148649@N04","secret":"d8bd11991a","server":"65535","farm":66,"title":"Great Horned Owl 2 01.07.23 Frye","ispublic":1,"isfriend":0,"isfamily":0},{"id":"52637786194","owner":"65148649@N04","secret":"ce9ae52f07","server":"65535","farm":66,"title":"Great Horned Owls 01.07.23 Baryames","ispublic":1,"isfriend":0,"isfamily":0},{"id":"52638006293","owner":"65148649@N04","secret":"35cdb7d699","server":"65535","farm":66,"title":"Great Horned Owl 01.07.23 Sheets","ispublic":1,"isfriend":0,"isfamily":0},{"id":"52637529171","owner":"65148649@N04","secret":"9f0273cf6d","server":"65535","farm":66,"title":"Great Horned Owl 01.07.23 Rutherford E","ispublic":1,"isfriend":0,"isfamily":0},{"id":"52637969740","owner":"65148649@N04","secret":"f6ba874b13","server":"65535","farm":66,"title":"Great Horned Owl 01.07.23 Frye","ispublic":1,"isfriend":0,"isfamily":0},{"id":"52638006133","owner":"65148649@N04","secret":"d9cbf1b551","server":"65535","farm":66,"title":"Great Horned Owl 2 01.07.23 Anderson","ispublic":1,"isfriend":0,"isfamily":0},{"id":"52637528941","owner":"65148649@N04","secret":"e12a896747","server":"65535","farm":66,"title":"Great Horned Owl 01.07.23 Anderson","ispublic":1,"isfriend":0,"isfamily":0},{"id":"52635105565","owner":"61241315@N00","secret":"e00d2a2839","server":"0","farm":0,"title":"Great Horned Owl_5350.MP4","ispublic":1,"isfriend":0,"isfamily":0},{"id":"52635107100","owner":"61241315@N00","secret":"d87358731c","server":"0","farm":0,"title":"Great Horned Owl_5329,33,40.P4","ispublic":1,"isfriend":0,"isfamily":0},{"id":"52635110095","owner":"61241315@N00","secret":"878f43fa3b","server":"0","farm":0,"title":"Great Horned Owl_5326.MP4","ispublic":1,"isfriend":0,"isfamily":0},{"id":"52634162172","owner":"61241315@N00","secret":"87e3e6b162","server":"0","farm":0,"title":"Great Horned Owl_5315.MP4","ispublic":1,"isfriend":0,"isfamily":0},{"id":"52635157723","owner":"61241315@N00","secret":"cb4a3422ca","server":"65535","farm":66,"title":"Great Horned Owl_N5311","ispublic":1,"isfriend":0,"isfamily":0},{"id":"52634674446","owner":"61241315@N00","secret":"22a8dfc552","server":"65535","farm":66,"title":"Great Horned Owl_N5314","ispublic":1,"isfriend":0,"isfamily":0},{"id":"52634674421","owner":"61241315@N00","secret":"cd04e28b96","server":"65535","farm":66,"title":"Great Horned Owl_N5317","ispublic":1,"isfriend":0,"isfamily":0},{"id":"52634162227","owner":"61241315@N00","secret":"b62bddb0ae","server":"65535","farm":66,"title":"Great Horned Owl_N5319","ispublic":1,"isfriend":0,"isfamily":0},{"id":"52634162207","owner":"61241315@N00","secret":"3fc0d727d6","server":"65535","farm":66,"title":"Great Horned Owl_N5324","ispublic":1,"isfriend":0,"isfamily":0},{"id":"52635110675","owner":"61241315@N00","secret":"df9ece3779","server":"65535","farm":66,"title":"Great Horned Owl_N5327","ispublic":1,"isfriend":0,"isfamily":0},{"id":"52634933859","owner":"61241315@N00","secret":"9c8bf24fd7","server":"65535","farm":66,"title":"Great Horned Owl_N5349","ispublic":1,"isfriend":0,"isfamily":0},{"id":"52633774373","owner":"193350323@N08","secret":"986e8ddcf7","server":"65535","farm":66,"title":"On The Look Out","ispublic":1,"isfriend":0,"isfamily":0},{"id":"52626416147","owner":"189113466@N07","secret":"65ce58e930","server":"65535","farm":66,"title":"Grand-duc d'Am\u00e9rique - Great Horned Owl - Bubo virginianus","ispublic":1,"isfriend":0,"isfamily":0},{"id":"52623253136","owner":"188156748@N07","secret":"e689d4a41e","server":"65535","farm":66,"title":"Great Horned Owl- Grand-duc d\u2019Am\u00e9rique-Bubo virginianus  1855 (7)-SharpenAI-Standard copy.jpgS","ispublic":1,"isfriend":0,"isfamily":0},{"id":"52623253111","owner":"188156748@N07","secret":"71b8bfd7bd","server":"65535","farm":66,"title":"Great Horned Owl- Grand-duc d\u2019Am\u00e9rique-Bubo virginianus  1855 (18)-SharpenAI-Standard copy.jpgCENLGSB","ispublic":1,"isfriend":0,"isfamily":0},{"id":"52623687485","owner":"188156748@N07","secret":"df986907bc","server":"65535","farm":66,"title":"Great Horned Owl- Grand-duc d\u2019Am\u00e9rique-Bubo virginianus  1855 (16)-SharpenAI-Standard copy.jpgS","ispublic":1,"isfriend":0,"isfamily":0},{"id":"52622737947","owner":"188156748@N07","secret":"f4a7e2d8b9","server":"65535","farm":66,"title":"Great Horned Owl- Grand-duc d\u2019Am\u00e9rique-Bubo virginianus  1855 (18)-SharpenAI-Standard copy.jpgS","ispublic":1,"isfriend":0,"isfamily":0},{"id":"52623687445","owner":"188156748@N07","secret":"c96b4bedc2","server":"65535","farm":66,"title":"Great Horned Owl- Grand-duc d\u2019Am\u00e9rique-Bubo virginianus  1855 (19)-SharpenAI-Standard copy.jpgS","ispublic":1,"isfriend":0,"isfamily":0},{"id":"52623505849","owner":"188156748@N07","secret":"8044a96546","server":"65535","farm":66,"title":"Great Horned Owl- Grand-duc d\u2019Am\u00e9rique-Bubo virginianus  1855 (20)-SharpenAI-Standard copy.jpgS","ispublic":1,"isfriend":0,"isfamily":0},{"id":"52622699376","owner":"181920661@N03","secret":"941f09621f","server":"65535","farm":66,"title":"Great horned owl watching","ispublic":1,"isfriend":0,"isfamily":0},{"id":"52620313320","owner":"93512100@N08","secret":"d42630c9ae","server":"65535","farm":66,"title":"Great Horned Owl, Santa Cruz County","ispublic":1,"isfriend":0,"isfamily":0},{"id":"52619225652","owner":"49246330@N00","secret":"10fc824c3a","server":"65535","farm":66,"title":"Great Horned Owl","ispublic":1,"isfriend":0,"isfamily":0},{"id":"52614995892","owner":"125645386@N04","secret":"ff2abb5902","server":"65535","farm":66,"title":"Grand-duc d'Am\u00e9rique - Great horned owl - Bubo virginianus","ispublic":1,"isfriend":0,"isfamily":0},{"id":"52613088777","owner":"78067826@N03","secret":"59416874c2","server":"65535","farm":66,"title":"Great Horned Owl","ispublic":1,"isfriend":0,"isfamily":0},{"id":"52613559370","owner":"188156748@N07","secret":"462d862c87","server":"65535","farm":66,"title":"Great Horned Owl- Grand-duc d\u2019Am\u00e9rique-Bubo virginianus 1410 (10)-SharpenAI-Standard copy.jpgS","ispublic":1,"isfriend":0,"isfamily":0},{"id":"52612631157","owner":"188156748@N07","secret":"45371b8790","server":"65535","farm":66,"title":"Great Horned Owl- Grand-duc d\u2019Am\u00e9rique-Bubo virginianus 1410 (11)-SharpenAI-Standard copy.jpgS","ispublic":1,"isfriend":0,"isfamily":0},{"id":"52613136936","owner":"188156748@N07","secret":"a997bd71c0","server":"65535","farm":66,"title":"Great Horned Owl- Grand-duc d\u2019Am\u00e9rique-Bubo virginianus 1410 (14)-SharpenAI-Standard copy.jpgS","ispublic":1,"isfriend":0,"isfamily":0},{"id":"52612631052","owner":"188156748@N07","secret":"fb428441d1","server":"65535","farm":66,"title":"Great Horned Owl- Grand-duc d\u2019Am\u00e9rique-Bubo virginianus 1410 (16)-SharpenAI-Standard copy.jpgS","ispublic":1,"isfriend":0,"isfamily":0},{"id":"52613624883","owner":"188156748@N07","secret":"e1bfe8949f","server":"65535","farm":66,"title":"Great Horned Owl- Grand-duc d\u2019Am\u00e9rique-Bubo virginianus 1410 (17)-SharpenAI-Standard copy.jpgS","ispublic":1,"isfriend":0,"isfamily":0},{"id":"52613397814","owner":"188156748@N07","secret":"c7d3f548c5","server":"65535","farm":66,"title":"Great Horned Owl- Grand-duc d\u2019Am\u00e9rique-Bubo virginianus 1410 (18)-SharpenAI-Standard copy.jpgS","ispublic":1,"isfriend":0,"isfamily":0},{"id":"52611818539","owner":"71418112@N00","secret":"fee67d593a","server":"65535","farm":66,"title":"Great horned owl","ispublic":1,"isfriend":0,"isfamily":0},{"id":"52609254196","owner":"100108154@N02","secret":"e4996803c1","server":"65535","farm":66,"title":"So, I Went Owling This Morning","ispublic":1,"isfriend":0,"isfamily":0},{"id":"52608735996","owner":"182482490@N04","secret":"406156c176","server":"65535","farm":66,"title":"Great-Horned-owl (Bubo virginianus)_SOP_050613 (3)-topaz-denoise-sharpen_WM","ispublic":1,"isfriend":0,"isfamily":0},{"id":"52609130890","owner":"182482490@N04","secret":"cee57d0f4a","server":"65535","farm":66,"title":"Great-Horned-owl (Bubo virginianus)_BCLP_042412-topaz-denoise-sharpen_WM","ispublic":1,"isfriend":0,"isfamily":0},{"id":"52604316118","owner":"125605310@N07","secret":"d8e91ffec7","server":"65535","farm":66,"title":"Great Horned Owl, Bubo virginianus","ispublic":1,"isfriend":0,"isfamily":0},{"id":"52603663351","owner":"78067826@N03","secret":"2bc406e549","server":"65535","farm":66,"title":"Great Horned Owl","ispublic":1,"isfriend":0,"isfamily":0},{"id":"52604170753","owner":"78067826@N03","secret":"c83b92f7da","server":"65535","farm":66,"title":"Great Horned Owl","ispublic":1,"isfriend":0,"isfamily":0}]},"stat":"ok"}