{"photos":{"page":1,"pages":167,"perpage":100,"total":16656,"photo":[{"id":"52791744282","owner":"65345069@N02","secret":"33a379cc4a","server":"65535","farm":66,"title":"Eurasian Teal (Anas crecca)","ispublic":1,"isfriend":0,"isfamily":0},{"id":"52791744102","owner":"65345069@N02","secret":"1ab71e93c0","server":"65535","farm":66,"title":"Eurasian Teal (Anas crecca)","ispublic":1,"isfriend":0,"isfamily":0},{"id":"52791566343","owner":"12639178@N07","secret":"0e2ce7b540","server":"65535","farm":66,"title":"Krickente","ispublic":1,"isfriend":0,"isfamily":0},{"id":"52791406433","owner":"12639178@N07","secret":"8b563cf18c","server":"65535","farm":66,"title":"Krickenten (Anas crecca) und anderes","ispublic":1,"isfriend":0,"isfamily":0},{"id":"52791265693","owner":"134759303@N04","secret":"168bb8d238","server":"65535","farm":66,"title":"Krikand hun Eg\u00f8 engs\u00f8","ispublic":1,"isfriend":0,"isfamily":0},{"id":"52791207770","owner":"134759303@N04","secret":"41897a4463","server":"65535","farm":66,"title":"Krikand Eg\u00e5 engs\u00f8 1","ispublic":1,"isfriend":0,"isfamily":0},{"id":"52790259352","owner":"134759303@N04","secret":"2986181e5e","server":"65535","farm":66,"title":"Krikand  han Eg\u00e5 engs\u00f8","ispublic":1,"isfriend":0,"isfamily":0},{"id":"52790617324","owner":"12639178@N07","secret":"10eed0ce4f","server":"65535","farm":66,"title":"Krickente","ispublic":1,"isfriend":0,"isfamily":0},{"id":"52788469165","owner":"12639178@N07","secret":"34bb94056e","server":"65535","farm":66,"title":"Krickente","ispublic":1,"isfriend":0,"isfamily":0},{"id":"52787723086","owner":"144980256@N07","secret":"04bfe2a9b9","server":"65535","farm":66,"title":"Green-winged Teal (Anas crecca)","ispublic":1,"isfriend":0,"isfamily":0},{"id":"52786688217","owner":"12639178@N07","secret":"87936a88c2","server":"65535","farm":66,"title":"Krickenten","ispublic":1,"isfriend":0,"isfamily":0},{"id":"52787640815","owner":"12639178@N07","secret":"7280aa7a8d","server":"65535","farm":66,"title":"Krickenten","ispublic":1,"isfriend":0,"isfamily":0},{"id":"52787474684","owner":"12639178@N07","secret":"ae89689a6e","server":"65535","farm":66,"title":"Krickenten","ispublic":1,"isfriend":0,"isfamily":0},{"id":"52786264273","owner":"44093058@N06","secret":"9b53a5a652","server":"65535","farm":66,"title":"Eurasian teal, Anas crecca, Kricka","ispublic":1,"isfriend":0,"isfamily":0},{"id":"52785809146","owner":"44093058@N06","secret":"71d1539d09","server":"65535","farm":66,"title":"Eurasian wigeon, Mareca penelope, Bl\u00e4sand","ispublic":1,"isfriend":0,"isfamily":0},{"id":"52785870903","owner":"32109534@N02","secret":"b5275fcb85","server":"65535","farm":66,"title":"Four teal","ispublic":1,"isfriend":0,"isfamily":0},{"id":"52785888938","owner":"115359498@N08","secret":"4fb37ce410","server":"65535","farm":66,"title":"Sarcelle d'hiver (Anas crecca)","ispublic":1,"isfriend":0,"isfamily":0},{"id":"52784886012","owner":"115359498@N08","secret":"13cdaaf10a","server":"65535","farm":66,"title":"Sarcelle d'hiver (Anas crecca)","ispublic":1,"isfriend":0,"isfamily":0},{"id":"52785315710","owner":"185252831@N05","secret":"5d68e90662","server":"65535","farm":66,"title":"Krickente (Anas crecca)","ispublic":1,"isfriend":0,"isfamily":0},{"id":"52784315009","owner":"12639178@N07","secret":"961ab14707","server":"65535","farm":66,"title":"Krickenten","ispublic":1,"isfriend":0,"isfamily":0},{"id":"52784054311","owner":"23985726@N05","secret":"d1701ca791","server":"65535","farm":66,"title":"Anas crecca","ispublic":1,"isfriend":0,"isfamily":0},{"id":"52782425773","owner":"116181786@N08","secret":"e57a7b7bf9","server":"65535","farm":66,"title":"Echasse blanche et sarcelle d'hivers,","ispublic":1,"isfriend":0,"isfamily":0},{"id":"52781862186","owner":"23985726@N05","secret":"4190dcf79a","server":"65535","farm":66,"title":"Anas crecca","ispublic":1,"isfriend":0,"isfamily":0},{"id":"52780350842","owner":"151365664@N08","secret":"af2131fcdf","server":"65535","farm":66,"title":"Krickente - Eurasian Teal - Anas crecca - 8","ispublic":1,"isfriend":0,"isfamily":0},{"id":"52780368698","owner":"101130108@N06","secret":"b76e751a00","server":"65535","farm":66,"title":"Teal (Anas crecca)_45A3269a","ispublic":1,"isfriend":0,"isfamily":0},{"id":"52779903329","owner":"44904157@N04","secret":"ffb72c7cda","server":"65535","farm":66,"title":"Male Green-winged Teal","ispublic":1,"isfriend":0,"isfamily":0},{"id":"52779903289","owner":"44904157@N04","secret":"55e30f0c80","server":"65535","farm":66,"title":"Male Green-winged Teal","ispublic":1,"isfriend":0,"isfamily":0},{"id":"52778526968","owner":"151365664@N08","secret":"f3eb079113","server":"65535","farm":66,"title":"Krickente - Eurasian Teal - Anas crecca - 7","ispublic":1,"isfriend":0,"isfamily":0},{"id":"52777153773","owner":"144736586@N06","secret":"d4d21aed8a","server":"65535","farm":66,"title":"Sarcelle d'hiver (Anas crecca)","ispublic":1,"isfriend":0,"isfamily":0},{"id":"52776929054","owner":"144736586@N06","secret":"7a2d43ae1c","server":"65535","farm":66,"title":"Sarcelle d'hiver (Anas crecca)","ispublic":1,"isfriend":0,"isfamily":0},{"id":"52776671861","owner":"144736586@N06","secret":"0712cfb1bf","server":"65535","farm":66,"title":"Sarcelle d'hiver (Anas crecca)","ispublic":1,"isfriend":0,"isfamily":0},{"id":"52774910112","owner":"194816222@N07","secret":"5a628af924","server":"65535","farm":66,"title":"Urt\u00f6nd - Eurasian Teal - anas crecca","ispublic":1,"isfriend":0,"isfamily":0},{"id":"52775308821","owner":"75439979@N08","secret":"64e70cc76c","server":"65535","farm":66,"title":"Teal - Anas crecca","ispublic":1,"isfriend":0,"isfamily":0},{"id":"52774674597","owner":"59770980@N02","secret":"6e72ddd7fb","server":"65535","farm":66,"title":"Urt\u00f6nd-Teal-Anas crecca","ispublic":1,"isfriend":0,"isfamily":0},{"id":"52772087159","owner":"123529713@N08","secret":"4c6a006c5b","server":"65535","farm":66,"title":"Xarxet comu - Cerceta comun - Eurasian teal - Sarcelle d'hiver - Anas crecca","ispublic":1,"isfriend":0,"isfamily":0},{"id":"52772210865","owner":"89982680@N08","secret":"9dd1121884","server":"65535","farm":66,"title":"Teal","ispublic":1,"isfriend":0,"isfamily":0},{"id":"52772285503","owner":"89982680@N08","secret":"6eedf6d5f2","server":"65535","farm":66,"title":"Onwards and Upwards","ispublic":1,"isfriend":0,"isfamily":0},{"id":"52771968759","owner":"80036114@N08","secret":"d1423806c6","server":"65535","farm":66,"title":"Teal - Anas crecca","ispublic":1,"isfriend":0,"isfamily":0},{"id":"52770562739","owner":"111498703@N07","secret":"97f184a528","server":"65535","farm":66,"title":"Side by side","ispublic":1,"isfriend":0,"isfamily":0},{"id":"52770759961","owner":"68635735@N02","secret":"7fff7314a9","server":"65535","farm":66,"title":"Green-winged Teal (Anas crecca) male and female","ispublic":1,"isfriend":0,"isfamily":0},{"id":"52770933619","owner":"37242840@N07","secret":"985f7ae33b","server":"65535","farm":66,"title":"Green-winged Teal, Anas crecca (3)","ispublic":1,"isfriend":0,"isfamily":0},{"id":"52770933564","owner":"37242840@N07","secret":"f3e828a676","server":"65535","farm":66,"title":"Green-winged Teal, Anas crecca (6)","ispublic":1,"isfriend":0,"isfamily":0},{"id":"52770234589","owner":"129051288@N05","secret":"5306feb45a","server":"65535","farm":66,"title":"Sarcelle d'hiver, Anas crecca, Green-winged Teal","ispublic":1,"isfriend":0,"isfamily":0},{"id":"52768524862","owner":"68577836@N03","secret":"c239ccc437","server":"65535","farm":66,"title":"23060.Krickente -Anas crecca","ispublic":1,"isfriend":0,"isfamily":0},{"id":"52769296605","owner":"68635735@N02","secret":"287983c1b2","server":"65535","farm":66,"title":"Green-winged Teal (Anas crecca) male","ispublic":1,"isfriend":0,"isfamily":0},{"id":"52769137129","owner":"68635735@N02","secret":"081a82c23a","server":"65535","farm":66,"title":"Green-winged Teal (Anas crecca) female","ispublic":1,"isfriend":0,"isfamily":0},{"id":"52767989923","owner":"12639178@N07","secret":"c94d472417","server":"65535","farm":66,"title":"Herren-Geschwader","ispublic":1,"isfriend":0,"isfamily":0},{"id":"52767158396","owner":"68466173@N02","secret":"b0f57f19b5","server":"65535","farm":66,"title":"Common Teal (Anas crecca)","ispublic":1,"isfriend":0,"isfamily":0},{"id":"52767411154","owner":"68466173@N02","secret":"c3eda8fa1d","server":"65535","farm":66,"title":"Common Teal (Anas crecca)","ispublic":1,"isfriend":0,"isfamily":0},{"id":"52766734630","owner":"79825625@N05","secret":"0ddce53304","server":"65535","farm":66,"title":"Teal","ispublic":1,"isfriend":0,"isfamily":0},{"id":"52766570749","owner":"157220357@N08","secret":"4f4501c8c8","server":"65535","farm":66,"title":"Teal on the move","ispublic":1,"isfriend":0,"isfamily":0},{"id":"52764771047","owner":"12639178@N07","secret":"58832b16fa","server":"65535","farm":66,"title":"fliegende Krickenten","ispublic":1,"isfriend":0,"isfamily":0},{"id":"52765708465","owner":"12639178@N07","secret":"9e0ac2fcb9","server":"65535","farm":66,"title":"Krickenten-Paar","ispublic":1,"isfriend":0,"isfamily":0},{"id":"52765785343","owner":"12639178@N07","secret":"ace40e00d8","server":"65535","farm":66,"title":"Krickenten-Dame","ispublic":1,"isfriend":0,"isfamily":0},{"id":"52765708150","owner":"12639178@N07","secret":"3685ee65c4","server":"65535","farm":66,"title":"Krickenten-Erpel","ispublic":1,"isfriend":0,"isfamily":0},{"id":"52764448732","owner":"62766146@N07","secret":"0fe046c9da","server":"65535","farm":66,"title":"Urto\u0308nd - Teal - Anas crecca - jpg.8042","ispublic":1,"isfriend":0,"isfamily":0},{"id":"52764448397","owner":"62766146@N07","secret":"3f2b7f65bb","server":"65535","farm":66,"title":"Urt\u00f6nd - Teal - Anas crecca - jpg.8038","ispublic":1,"isfriend":0,"isfamily":0},{"id":"52765396580","owner":"62766146@N07","secret":"ee192c75a2","server":"65535","farm":66,"title":"Urt\u00f6nd - Teal - Anas crecca - jpg.8035","ispublic":1,"isfriend":0,"isfamily":0},{"id":"52764446967","owner":"62766146@N07","secret":"8cf0500bfb","server":"65535","farm":66,"title":"Urt\u00f6nd - Teal - Anas crecca - jpg.2759","ispublic":1,"isfriend":0,"isfamily":0},{"id":"52765395160","owner":"62766146@N07","secret":"0a57ff3696","server":"65535","farm":66,"title":"Urt\u00f6nd - Teal - Anas crecca - jpg.2752","ispublic":1,"isfriend":0,"isfamily":0},{"id":"52765471638","owner":"62766146@N07","secret":"a0a5c7f301","server":"65535","farm":66,"title":"Urt\u00f6nd - Teal - Anas crecca - jpg.2745","ispublic":1,"isfriend":0,"isfamily":0},{"id":"52764988536","owner":"62766146@N07","secret":"7e6fed7f23","server":"65535","farm":66,"title":"Urt\u00f6nd - Teal - Anas crecca - jpg.2742","ispublic":1,"isfriend":0,"isfamily":0},{"id":"52765392540","owner":"62766146@N07","secret":"281550bc9c","server":"65535","farm":66,"title":"Urt\u00f6nd - Teal - Anas crecca - jpg.2739","ispublic":1,"isfriend":0,"isfamily":0},{"id":"52765237419","owner":"62766146@N07","secret":"cb6135fe9c","server":"65535","farm":66,"title":"Urt\u00f6nd - Teal - Anas crecca - jpg.2715","ispublic":1,"isfriend":0,"isfamily":0},{"id":"52765237174","owner":"62766146@N07","secret":"393464222c","server":"65535","farm":66,"title":"Urt\u00f6nd - Teal - Anas crecca - jpg.2713","ispublic":1,"isfriend":0,"isfamily":0},{"id":"52764441147","owner":"62766146@N07","secret":"f2707ab4d5","server":"65535","farm":66,"title":"Urt\u00f6nd - Teal - Anas crecca - jpg.1261","ispublic":1,"isfriend":0,"isfamily":0},{"id":"52765233914","owner":"62766146@N07","secret":"5a7bf4d601","server":"65535","farm":66,"title":"Urt\u00f6nd - Teal - Anas crecca - jpg.1244","ispublic":1,"isfriend":0,"isfamily":0},{"id":"52765232279","owner":"62766146@N07","secret":"44ce2e0349","server":"65535","farm":66,"title":"Urt\u00f6nd - Teal - Anas crecca - jpg.1235","ispublic":1,"isfriend":0,"isfamily":0},{"id":"52764981266","owner":"62766146@N07","secret":"56c38d6b50","server":"65535","farm":66,"title":"Urt\u00f6nd\/R\u00e1k\u00f6nd\/Green-winged Teal - Teal - Anas crecca - jpg.1226","ispublic":1,"isfriend":0,"isfamily":0},{"id":"52765385480","owner":"62766146@N07","secret":"b904173a10","server":"65535","farm":66,"title":"Urt\u00f6nd - Teal - Anas crecca - jpg.1222","ispublic":1,"isfriend":0,"isfamily":0},{"id":"52765384390","owner":"62766146@N07","secret":"8e351813c5","server":"65535","farm":66,"title":"Urt\u00f6nd - Teal - Anas crecca - jpg.1211","ispublic":1,"isfriend":0,"isfamily":0},{"id":"52765229879","owner":"62766146@N07","secret":"77dfebc8d4","server":"65535","farm":66,"title":"Urt\u00f6nd - Teal - Anas crecca - jpg.0358","ispublic":1,"isfriend":0,"isfamily":0},{"id":"52765381315","owner":"62766146@N07","secret":"1c569801bc","server":"65535","farm":66,"title":"Urt\u00f6nd - Teal - Anas crecca - jpg.0264","ispublic":1,"isfriend":0,"isfamily":0},{"id":"52765458398","owner":"62766146@N07","secret":"925d66ed82","server":"65535","farm":66,"title":"Urt\u00f6nd - Teal - Anas crecca - jpg.0263","ispublic":1,"isfriend":0,"isfamily":0},{"id":"52764431547","owner":"62766146@N07","secret":"a997e66388","server":"65535","farm":66,"title":"Urt\u00f6nd - Teal - Anas crecca - jpg.0227","ispublic":1,"isfriend":0,"isfamily":0},{"id":"52765224799","owner":"62766146@N07","secret":"8a79a5b08d","server":"65535","farm":66,"title":"Urt\u00f6nd - Teal - Anas crecca - jpg.0210","ispublic":1,"isfriend":0,"isfamily":0},{"id":"52764869583","owner":"49024126@N08","secret":"4ca67563c0","server":"65535","farm":66,"title":"P3092410 Ruhende Krickenten (Anas crecca)","ispublic":1,"isfriend":0,"isfamily":0},{"id":"52764592424","owner":"62173370@N03","secret":"1d4ed8bf7e","server":"65535","farm":66,"title":"S\u00e9duction et concurrence","ispublic":1,"isfriend":0,"isfamily":0},{"id":"52763788492","owner":"62173370@N03","secret":"f4890fa58d","server":"65535","farm":66,"title":"S\u00e9ducteur","ispublic":1,"isfriend":0,"isfamily":0},{"id":"52764318956","owner":"154079941@N02","secret":"2aa82b84f4","server":"65535","farm":66,"title":"Teal","ispublic":1,"isfriend":0,"isfamily":0},{"id":"52779705990","owner":"12639178@N07","secret":"09d0bcee1c","server":"65535","farm":66,"title":"Krickgr\u00fcppchen","ispublic":1,"isfriend":0,"isfamily":0},{"id":"52779726083","owner":"12639178@N07","secret":"f4e30d97a8","server":"65535","farm":66,"title":"Krickenten","ispublic":1,"isfriend":0,"isfamily":0},{"id":"52778023899","owner":"12639178@N07","secret":"6d2a1023e4","server":"65535","farm":66,"title":"Krickente","ispublic":1,"isfriend":0,"isfamily":0},{"id":"52778250793","owner":"12639178@N07","secret":"a8441a2c22","server":"65535","farm":66,"title":"Krickente (Anas crecca) (2)","ispublic":1,"isfriend":0,"isfamily":0},{"id":"52776948112","owner":"12639178@N07","secret":"e05af6f36f","server":"65535","farm":66,"title":"Krickenten-Paar","ispublic":1,"isfriend":0,"isfamily":0},{"id":"52776297912","owner":"12639178@N07","secret":"f9681875a4","server":"65535","farm":66,"title":"Krickente (Anas crecca) (1)","ispublic":1,"isfriend":0,"isfamily":0},{"id":"52770583609","owner":"12639178@N07","secret":"c220dc2002","server":"65535","farm":66,"title":"Krickente (Anas crecca) (1)","ispublic":1,"isfriend":0,"isfamily":0},{"id":"52767989813","owner":"12639178@N07","secret":"4d8c6d96b0","server":"65535","farm":66,"title":"Krickenten","ispublic":1,"isfriend":0,"isfamily":0},{"id":"52766963172","owner":"12639178@N07","secret":"0cbdbb46c0","server":"65535","farm":66,"title":"gemischtes Doppel","ispublic":1,"isfriend":0,"isfamily":0},{"id":"52767257780","owner":"12639178@N07","secret":"a9f299b07b","server":"65535","farm":66,"title":"Krickente (Anas crecca) (1)","ispublic":1,"isfriend":0,"isfamily":0},{"id":"52766069967","owner":"195910430@N02","secret":"1bf3d2190e","server":"65535","farm":66,"title":"Krickente - Teal - Anas crecca  (Familie Entenv\u00f6gel) male","ispublic":1,"isfriend":0,"isfamily":0},{"id":"52764599161","owner":"12639178@N07","secret":"eff7d1b802","server":"65535","farm":66,"title":"Krickenten","ispublic":1,"isfriend":0,"isfamily":0},{"id":"52762897387","owner":"138623263@N02","secret":"8af3cf151b","server":"65535","farm":66,"title":"230315_1200 - Elgin Park-45","ispublic":1,"isfriend":0,"isfamily":0},{"id":"52763440321","owner":"138623263@N02","secret":"ba8b761afd","server":"65535","farm":66,"title":"230315_1200 - Elgin Park-28","ispublic":1,"isfriend":0,"isfamily":0},{"id":"52763844115","owner":"138623263@N02","secret":"c5149e95c9","server":"65535","farm":66,"title":"230315_1200 - Elgin Park-29","ispublic":1,"isfriend":0,"isfamily":0},{"id":"52762895377","owner":"138623263@N02","secret":"765a777c71","server":"65535","farm":66,"title":"230315_1200 - Elgin Park-30","ispublic":1,"isfriend":0,"isfamily":0},{"id":"52762895187","owner":"138623263@N02","secret":"d566355344","server":"65535","farm":66,"title":"230315_1200 - Elgin Park-25","ispublic":1,"isfriend":0,"isfamily":0},{"id":"52763439461","owner":"138623263@N02","secret":"b8fec489f7","server":"65535","farm":66,"title":"230315_1200 - Elgin Park-37","ispublic":1,"isfriend":0,"isfamily":0},{"id":"52763925948","owner":"138623263@N02","secret":"a3cc439a54","server":"65535","farm":66,"title":"230315_1200 - Elgin Park-36","ispublic":1,"isfriend":0,"isfamily":0},{"id":"52763843260","owner":"138623263@N02","secret":"bb040dfc2c","server":"65535","farm":66,"title":"230315_1200 - Elgin Park-35","ispublic":1,"isfriend":0,"isfamily":0}]},"stat":"ok"}