{"photos":{"page":1,"pages":8,"perpage":100,"total":796,"photo":[{"id":"52635351648","owner":"186193378@N07","secret":"60866600b5","server":"65535","farm":66,"title":"Surucu\u00e1-de-barriga-amarela f\u00eamea (Trogon viridis) Green-backed Trogon female","ispublic":1,"isfriend":0,"isfamily":0},{"id":"52625030771","owner":"52363379@N07","secret":"f5a9afb744","server":"65535","farm":66,"title":"Trogon viridis","ispublic":1,"isfriend":0,"isfamily":0},{"id":"52596241227","owner":"68320803@N07","secret":"1392759b1f","server":"65535","farm":66,"title":"Exploring a Tree Hollow","ispublic":1,"isfriend":0,"isfamily":0},{"id":"52595226935","owner":"68320803@N07","secret":"b1a19e79a5","server":"65535","farm":66,"title":"Green-Backed Trogon Female","ispublic":1,"isfriend":0,"isfamily":0},{"id":"52594777283","owner":"52363379@N07","secret":"841eef7975","server":"65535","farm":66,"title":"Trogon viridis","ispublic":1,"isfriend":0,"isfamily":0},{"id":"52585350475","owner":"8065544@N08","secret":"07397023d5","server":"65535","farm":66,"title":"Green-backed Trogon (Trogon viridis)","ispublic":1,"isfriend":0,"isfamily":0},{"id":"52579829026","owner":"123174353@N02","secret":"d06e92be6f","server":"65535","farm":66,"title":"Trogon viridis \/ Green-backed Trogon \/ groenrugtrogon","ispublic":1,"isfriend":0,"isfamily":0},{"id":"52580353253","owner":"123174353@N02","secret":"3736125783","server":"65535","farm":66,"title":"Trogon viridis \/ Green-backed Trogon \/ groenrugtrogon","ispublic":1,"isfriend":0,"isfamily":0},{"id":"52580270730","owner":"123174353@N02","secret":"ea7d6045df","server":"65535","farm":66,"title":"Trogon viridis \/ Green-backed Trogon \/ groenrugtrogon","ispublic":1,"isfriend":0,"isfamily":0},{"id":"52552642794","owner":"52363379@N07","secret":"9de31fb0ce","server":"65535","farm":66,"title":"Trogon viridis","ispublic":1,"isfriend":0,"isfamily":0},{"id":"52508654380","owner":"75137207@N02","secret":"89fda20274","server":"65535","farm":66,"title":"Gr\u00fcnmanteltrogon \/ Green-backed Trogon \/ Trogon viridis DSCN3277","ispublic":1,"isfriend":0,"isfamily":0},{"id":"52420135308","owner":"32805478@N03","secret":"4d94c0122b","server":"65535","farm":66,"title":"Trog\u00f3n dorsiverde, Trogon viridis, Green-backed Trogon","ispublic":1,"isfriend":0,"isfamily":0},{"id":"52395477309","owner":"32805478@N03","secret":"f4e3dfd6d0","server":"65535","farm":66,"title":"Trog\u00f3n dorsiverde, Trogon viridis, Green-backed Trogon","ispublic":1,"isfriend":0,"isfamily":0},{"id":"52386687306","owner":"182381287@N07","secret":"6ac5f2feeb","server":"65535","farm":66,"title":"Surucu\u00e1-de-barriga-amarela (Trogon viridis)","ispublic":1,"isfriend":0,"isfamily":0},{"id":"52365863767","owner":"44096805@N07","secret":"8281ce0958","server":"65535","farm":66,"title":"Green-backed Trogon (Trogon v. viridis) - male","ispublic":1,"isfriend":0,"isfamily":0},{"id":"52344739882","owner":"52363379@N07","secret":"3b67b58289","server":"65535","farm":66,"title":"Trogon viridis","ispublic":1,"isfriend":0,"isfamily":0},{"id":"52336466052","owner":"12530381@N07","secret":"f1261d9fa8","server":"65535","farm":66,"title":"Green-backed Trogon (Trogon viridis) at the San Diego Zoo (8\/10\/2022)","ispublic":1,"isfriend":0,"isfamily":0},{"id":"52211968206","owner":"45109166@N00","secret":"c53faf3fe1","server":"65535","farm":66,"title":"Trogon viridis","ispublic":1,"isfriend":0,"isfamily":0},{"id":"52185618898","owner":"42798669@N00","secret":"265e32c755","server":"65535","farm":66,"title":"Birds In The Room","ispublic":1,"isfriend":0,"isfamily":0},{"id":"52167789353","owner":"57060047@N04","secret":"8752094029","server":"65535","farm":66,"title":"D50_6856","ispublic":1,"isfriend":0,"isfamily":0},{"id":"52149097646","owner":"36083098@N02","secret":"b3bbe55fab","server":"65535","farm":66,"title":"Trogon viridis","ispublic":1,"isfriend":0,"isfamily":0},{"id":"52148078852","owner":"36083098@N02","secret":"d84da699d0","server":"65535","farm":66,"title":"Trogon viridis","ispublic":1,"isfriend":0,"isfamily":0},{"id":"52064098568","owner":"52363379@N07","secret":"da77ae37bb","server":"65535","farm":66,"title":"Trogon viridis","ispublic":1,"isfriend":0,"isfamily":0},{"id":"52004341395","owner":"193024505@N06","secret":"bd6e8164b8","server":"65535","farm":66,"title":"2022\/04\/12 - San Diego Zoo - 0031 - Green-Backed Trogon, Male","ispublic":1,"isfriend":0,"isfamily":0},{"id":"52003816586","owner":"193024505@N06","secret":"b1b1db7036","server":"65535","farm":66,"title":"2022\/04\/12 - San Diego Zoo - 0032 - Green-Backed Trogon, Male","ispublic":1,"isfriend":0,"isfamily":0},{"id":"52002912404","owner":"56686021@N04","secret":"9bd0b904f8","server":"65535","farm":66,"title":"Green-backed Trogon","ispublic":1,"isfriend":0,"isfamily":0},{"id":"51980636774","owner":"129269872@N04","secret":"73bdcf1d9e","server":"65535","farm":66,"title":"Wei\u00dfschwanztrogon","ispublic":1,"isfriend":0,"isfamily":0},{"id":"51949800330","owner":"129593667@N03","secret":"d9ecb06b2f","server":"65535","farm":66,"title":"Green-backed Trogon \u2640","ispublic":1,"isfriend":0,"isfamily":0},{"id":"51866233748","owner":"129269872@N04","secret":"24d62c59f7","server":"65535","farm":66,"title":"Wei\u00dfschwanztrogon","ispublic":1,"isfriend":0,"isfamily":0},{"id":"51832368092","owner":"145824323@N05","secret":"76ea7d29bc","server":"65535","farm":66,"title":"Green-backed trogon (Trogon viridis)","ispublic":1,"isfriend":0,"isfamily":0},{"id":"51832367967","owner":"145824323@N05","secret":"6c634c3562","server":"65535","farm":66,"title":"Green-backed trogon (Trogon viridis)","ispublic":1,"isfriend":0,"isfamily":0},{"id":"51832367882","owner":"145824323@N05","secret":"a56bd3e636","server":"65535","farm":66,"title":"Green-backed trogon (Trogon viridis)","ispublic":1,"isfriend":0,"isfamily":0},{"id":"51827830181","owner":"129593667@N03","secret":"2b186ecdf3","server":"65535","farm":66,"title":"Green-backed Trogon \u2640","ispublic":1,"isfriend":0,"isfamily":0},{"id":"51817647363","owner":"37493716@N02","secret":"fe7bc30266","server":"65535","farm":66,"title":"Green-backed Trogon - Trogon viridis - Reserva ProAves El Jaguar - Foto: Daniel Villar","ispublic":1,"isfriend":0,"isfamily":0},{"id":"51669093274","owner":"61316002@N02","secret":"e803958e39","server":"65535","farm":66,"title":"GRNBACTRO M melanopterus 3466","ispublic":1,"isfriend":0,"isfamily":0},{"id":"51648187048","owner":"37493716@N02","secret":"d983340b52","server":"65535","farm":66,"title":"Green-backed Trogon - Trogon viridis - Reserva ProAves El Jaguar - Foto: Daniel Villar","ispublic":1,"isfriend":0,"isfamily":0},{"id":"51633038775","owner":"61316002@N02","secret":"27b051d191","server":"65535","farm":66,"title":"GRNBACTRO melanopterus 2470","ispublic":1,"isfriend":0,"isfamily":0},{"id":"51584643197","owner":"145824323@N05","secret":"526eb1dd14","server":"65535","farm":66,"title":"Green-backed trogon (Trogon viridis)","ispublic":1,"isfriend":0,"isfamily":0},{"id":"51585623148","owner":"145824323@N05","secret":"5e6820afbe","server":"65535","farm":66,"title":"Green-backed trogon (Trogon viridis)","ispublic":1,"isfriend":0,"isfamily":0},{"id":"51586297710","owner":"145824323@N05","secret":"566591a768","server":"65535","farm":66,"title":"Green-backed trogon (Trogon viridis)","ispublic":1,"isfriend":0,"isfamily":0},{"id":"51584565252","owner":"145824323@N05","secret":"78c6f57777","server":"65535","farm":66,"title":"Green-backed trogon (Trogon viridis)","ispublic":1,"isfriend":0,"isfamily":0},{"id":"51584565032","owner":"145824323@N05","secret":"fd86b0cf45","server":"65535","farm":66,"title":"Green-backed trogon (Trogon viridis)","ispublic":1,"isfriend":0,"isfamily":0},{"id":"51555912814","owner":"37493716@N02","secret":"ae1d8e9421","server":"65535","farm":66,"title":"Green-backed Trogon Trogon viridis - Reserva ProAves El Jaguar - Foto: Daniel Villar","ispublic":1,"isfriend":0,"isfamily":0},{"id":"51539044187","owner":"37493716@N02","secret":"0a2f5b9ca5","server":"65535","farm":66,"title":"Monitoreo Fauna y flora Regional Amazonia 2021","ispublic":1,"isfriend":0,"isfamily":0},{"id":"51539043912","owner":"37493716@N02","secret":"9284b1f36a","server":"65535","farm":66,"title":"Monitoreo Fauna y flora Regional Amazonia 2021","ispublic":1,"isfriend":0,"isfamily":0},{"id":"51520887414","owner":"81126336@N00","secret":"e8f738873d","server":"65535","farm":66,"title":"Surucu\u00e1-grande-de-barriga-amarela \/ Green-backed Trogon - female","ispublic":1,"isfriend":0,"isfamily":0},{"id":"51405945995","owner":"68320803@N07","secret":"2542f88ff1","server":"65535","farm":66,"title":"Amazonian Trogon","ispublic":1,"isfriend":0,"isfamily":0},{"id":"51360259780","owner":"12530381@N07","secret":"e758eec61d","server":"65535","farm":66,"title":"Green-backed Trogon (Trogon viridis) in the Hummingbird Habitat at the San Diego Zoo (6\/27\/2021)","ispublic":1,"isfriend":0,"isfamily":0},{"id":"51340500980","owner":"37493716@N02","secret":"5e0001360d","server":"65535","farm":66,"title":"Green-backed Trogon Trogon viridis - Reserva ProAves El Jaguar - Foto: Daniel Villar","ispublic":1,"isfriend":0,"isfamily":0},{"id":"51277215721","owner":"159998223@N04","secret":"3c27f97c39","server":"65535","farm":66,"title":"green-backed trogon (Trogon viridis)","ispublic":1,"isfriend":0,"isfamily":0},{"id":"51269332079","owner":"189898841@N03","secret":"798300022e","server":"65535","farm":66,"title":"Amazonian White tailed Trogon (Trogon viridis)","ispublic":1,"isfriend":0,"isfamily":0},{"id":"51216383321","owner":"68320803@N07","secret":"86754e7a1a","server":"65535","farm":66,"title":"Green-Backed Trogon Male","ispublic":1,"isfriend":0,"isfamily":0},{"id":"51203285181","owner":"37493716@N02","secret":"576e1c30ac","server":"65535","farm":66,"title":"Green-backed Trogon Trogon viridis - El Jaguar ProAves Reserve - Photo by: Daniel Villar","ispublic":1,"isfriend":0,"isfamily":0},{"id":"51190450163","owner":"53536309@N06","secret":"4d1508385c","server":"65535","farm":66,"title":"Green-backed trogon","ispublic":1,"isfriend":0,"isfamily":0},{"id":"51083134387","owner":"37493716@N02","secret":"d54e87424c","server":"65535","farm":66,"title":"Green-Backed Trogon - Trogon viridis - El Jaguar ProAves Reserve - Foto: Daniel Villar","ispublic":1,"isfriend":0,"isfamily":0},{"id":"51049443807","owner":"52363379@N07","secret":"79612b2551","server":"65535","farm":66,"title":"Trogon viridis","ispublic":1,"isfriend":0,"isfamily":0},{"id":"51046929691","owner":"60200868@N05","secret":"2df2356f4e","server":"65535","farm":66,"title":"Green-backed Trogon - Trogon viridis - Trogon coliblanco - Vichada - Bogota Birding","ispublic":1,"isfriend":0,"isfamily":0},{"id":"51047000007","owner":"60200868@N05","secret":"dc2a8b22b1","server":"65535","farm":66,"title":"Green-backed Trogon - Trogon viridis - Trogon coliblanco - Vichada - Bogota Birding2","ispublic":1,"isfriend":0,"isfamily":0},{"id":"51046183958","owner":"60200868@N05","secret":"35a0dc0b05","server":"65535","farm":66,"title":"Green-backed Trogon - Trogon viridis - Trogon coliblanco - Vichada - Bogota Birding3","ispublic":1,"isfriend":0,"isfamily":0},{"id":"51003513861","owner":"37493716@N02","secret":"d5dd58f8f7","server":"65535","farm":66,"title":"Green-backed Trogon - Trogon viridis - El Jaguar ProAves Reserve","ispublic":1,"isfriend":0,"isfamily":0},{"id":"50942851858","owner":"52363379@N07","secret":"4f3e5dd87e","server":"65535","farm":66,"title":"Trogon viridis","ispublic":1,"isfriend":0,"isfamily":0},{"id":"50905764361","owner":"37493716@N02","secret":"d79db28150","server":"65535","farm":66,"title":"Trogon viridis","ispublic":1,"isfriend":0,"isfamily":0},{"id":"50866009821","owner":"8957439@N03","secret":"9341bf37b5","server":"65535","farm":66,"title":"Surucu\u00e1-grande-de-barriga-amarela (macho) \/ Green-backed Trogon (male)","ispublic":1,"isfriend":0,"isfamily":0},{"id":"50853549108","owner":"183138286@N03","secret":"2d5baf5f50","server":"65535","farm":66,"title":"Green-backed Trogon","ispublic":1,"isfriend":0,"isfamily":0},{"id":"50831471447","owner":"54249623@N08","secret":"e57cb4dd31","server":"65535","farm":66,"title":"Trog\u00f3n Coliblanco, White-tailed Trogon (Trogon chionurus)","ispublic":1,"isfriend":0,"isfamily":0},{"id":"50696420332","owner":"37493716@N02","secret":"2b10d7e383","server":"65535","farm":66,"title":"Trogon viridis","ispublic":1,"isfriend":0,"isfamily":0},{"id":"50669266497","owner":"119787485@N07","secret":"e9db31384a","server":"65535","farm":66,"title":"Green-backed Trogon (Trogon viridis) - 20160204-03","ispublic":1,"isfriend":0,"isfamily":0},{"id":"50621051421","owner":"45109166@N00","secret":"6839145883","server":"65535","farm":66,"title":"Trogon viridis","ispublic":1,"isfriend":0,"isfamily":0},{"id":"50604310651","owner":"45109166@N00","secret":"fa4b6eae17","server":"65535","farm":66,"title":"Trogon viridis","ispublic":1,"isfriend":0,"isfamily":0},{"id":"50580379368","owner":"45109166@N00","secret":"b86bced7a6","server":"65535","farm":66,"title":"Trogon viridis","ispublic":1,"isfriend":0,"isfamily":0},{"id":"50564477423","owner":"79153825@N08","secret":"a190f0db60","server":"65535","farm":66,"title":"Trog\u00f3n coliblanca macho.(Trog\u00f3n viridis.) White-tailed trogon male.","ispublic":1,"isfriend":0,"isfamily":0},{"id":"50565226761","owner":"79153825@N08","secret":"820cfc6436","server":"65535","farm":66,"title":"Trog\u00f3n coliblanca macho.(Trog\u00f3n viridis.) White-tailed trogon male.","ispublic":1,"isfriend":0,"isfamily":0},{"id":"50565362662","owner":"79153825@N08","secret":"5a0946e3b5","server":"65535","farm":66,"title":"Trog\u00f3n coliblanca macho.(Trog\u00f3n viridis.) White-tailed trogon male.","ispublic":1,"isfriend":0,"isfamily":0},{"id":"50552146196","owner":"187917085@N02","secret":"dbc5d31eb9","server":"65535","farm":66,"title":"Trogon viridis","ispublic":1,"isfriend":0,"isfamily":0},{"id":"50546880476","owner":"187917085@N02","secret":"38ea3d442b","server":"65535","farm":66,"title":"Trogon viridis","ispublic":1,"isfriend":0,"isfamily":0},{"id":"50547019062","owner":"187917085@N02","secret":"97c37a7563","server":"65535","farm":66,"title":"Trogon viridis","ispublic":1,"isfriend":0,"isfamily":0},{"id":"50547018787","owner":"187917085@N02","secret":"d228221ce7","server":"65535","farm":66,"title":"Trogon viridis","ispublic":1,"isfriend":0,"isfamily":0},{"id":"50546879576","owner":"187917085@N02","secret":"91be4dca14","server":"65535","farm":66,"title":"Trogon viridis","ispublic":1,"isfriend":0,"isfamily":0},{"id":"50547018252","owner":"187917085@N02","secret":"517d5e95d6","server":"65535","farm":66,"title":"Trogon viridis","ispublic":1,"isfriend":0,"isfamily":0},{"id":"50547017732","owner":"187917085@N02","secret":"e9c67be30e","server":"65535","farm":66,"title":"Trogon viridis","ispublic":1,"isfriend":0,"isfamily":0},{"id":"50402737071","owner":"18189395@N05","secret":"8d4966669e","server":"65535","farm":66,"title":"Surucu\u00e1-de-barriga-amarela - \" Trogon viridis \"  - Green-backed Trogon 129","ispublic":1,"isfriend":0,"isfamily":0},{"id":"50357483542","owner":"100887988@N03","secret":"5d90981573","server":"65535","farm":66,"title":"Trogon viridis","ispublic":1,"isfriend":0,"isfamily":0},{"id":"50237159756","owner":"52363379@N07","secret":"95c14e7f93","server":"65535","farm":66,"title":"Trogon viridis","ispublic":1,"isfriend":0,"isfamily":0},{"id":"50235476841","owner":"129742194@N06","secret":"f4a4618669","server":"65535","farm":66,"title":"Green-backed Trogon (Trogon viridis)","ispublic":1,"isfriend":0,"isfamily":0},{"id":"50233663373","owner":"37493716@N02","secret":"53fba929b8","server":"65535","farm":66,"title":"Trogon viridis","ispublic":1,"isfriend":0,"isfamily":0},{"id":"50055440837","owner":"83287919@N00","secret":"c583b10490","server":"65535","farm":66,"title":"Trogon viridis degrad saramaca 250620 AV-9rc","ispublic":1,"isfriend":0,"isfamily":0},{"id":"50029964447","owner":"86585370@N00","secret":"c649747146","server":"65535","farm":66,"title":"Green-backed Trogon \/\/ Surucu\u00e1-grande-de-barriga-amarela","ispublic":1,"isfriend":0,"isfamily":0},{"id":"50002252002","owner":"52363379@N07","secret":"81a56d9061","server":"65535","farm":66,"title":"Trogon viridis","ispublic":1,"isfriend":0,"isfamily":0},{"id":"49930564163","owner":"78941013@N00","secret":"b3be61b92a","server":"65535","farm":66,"title":"Green-backed Trogon (Trogon viridis)","ispublic":1,"isfriend":0,"isfamily":0},{"id":"49885633823","owner":"52363379@N07","secret":"798f6803d2","server":"65535","farm":66,"title":"Trogon viridis","ispublic":1,"isfriend":0,"isfamily":0},{"id":"49854764183","owner":"145824323@N05","secret":"68b31971a2","server":"65535","farm":66,"title":"Green-backed trogon (Trogon viridis)","ispublic":1,"isfriend":0,"isfamily":0},{"id":"49794153867","owner":"43935391694@N01","secret":"8f4215f501","server":"65535","farm":66,"title":"Green Backed Trogon El Escondite Villagarzon Putumayo Colombia","ispublic":1,"isfriend":0,"isfamily":0},{"id":"49773806641","owner":"100887988@N03","secret":"48a2f72113","server":"65535","farm":66,"title":"Trogon viridis","ispublic":1,"isfriend":0,"isfamily":0},{"id":"49772881353","owner":"52363379@N07","secret":"21b66db41b","server":"65535","farm":66,"title":"Trogon viridis","ispublic":1,"isfriend":0,"isfamily":0},{"id":"49773411791","owner":"145824323@N05","secret":"a9805176da","server":"65535","farm":66,"title":"Green-backed trogon (Trogon viridis)","ispublic":1,"isfriend":0,"isfamily":0},{"id":"49773407421","owner":"145824323@N05","secret":"61db958f99","server":"65535","farm":66,"title":"Green-backed trogon (Trogon viridis) ??","ispublic":1,"isfriend":0,"isfamily":0},{"id":"49773736032","owner":"145824323@N05","secret":"23d87a5063","server":"65535","farm":66,"title":"Green-backed trogon (Trogon viridis)","ispublic":1,"isfriend":0,"isfamily":0},{"id":"49751077867","owner":"53247049@N07","secret":"d844ddd139","server":"65535","farm":66,"title":"AMAZONIAN WHITE-TAILED TROGON Male Trogon viridis on Eastern Slope of Andes in ECUADOR. Photo by Peter Wendelken.","ispublic":1,"isfriend":0,"isfamily":0},{"id":"49720965078","owner":"56686021@N04","secret":"7cfcbf2321","server":"65535","farm":66,"title":"Green-backed Trogon","ispublic":1,"isfriend":0,"isfamily":0},{"id":"51831075357","owner":"52363379@N07","secret":"e8a6cebe52","server":"65535","farm":66,"title":"Trogon viridis","ispublic":1,"isfriend":0,"isfamily":0}]},"stat":"ok"}