{"photos":{"page":1,"pages":5,"perpage":100,"total":471,"photo":[{"id":"52705053973","owner":"111059434@N07","secret":"ec8bd2e269","server":"65535","farm":66,"title":"Beaumarquet melba et Cordonbleu d'Angola","ispublic":1,"isfriend":0,"isfamily":0},{"id":"52704041777","owner":"111059434@N07","secret":"4d16fea8fb","server":"65535","farm":66,"title":"Beaumarquet melba et Cordonbleu d'Angola","ispublic":1,"isfriend":0,"isfamily":0},{"id":"52704041762","owner":"111059434@N07","secret":"b143a54344","server":"65535","farm":66,"title":"Beaumarquet melba et Cordonbleu d'Angola","ispublic":1,"isfriend":0,"isfamily":0},{"id":"52704041727","owner":"111059434@N07","secret":"c3d4314a98","server":"65535","farm":66,"title":"Beaumarquet melba et Cordonbleu d'Angola","ispublic":1,"isfriend":0,"isfamily":0},{"id":"52704818689","owner":"111059434@N07","secret":"70f317343b","server":"65535","farm":66,"title":"Beaumarquet melba et Cordonbleu d'Angola","ispublic":1,"isfriend":0,"isfamily":0},{"id":"52705053703","owner":"111059434@N07","secret":"e26d285e4a","server":"65535","farm":66,"title":"Beaumarquet melba et Cordonbleu d'Angola","ispublic":1,"isfriend":0,"isfamily":0},{"id":"52704564971","owner":"111059434@N07","secret":"eeea15ef31","server":"65535","farm":66,"title":"Cordonbleu d'Angola","ispublic":1,"isfriend":0,"isfamily":0},{"id":"52705053558","owner":"111059434@N07","secret":"aa68aa287e","server":"65535","farm":66,"title":"Beaumarquet melba et Cordonbleu d'Angola","ispublic":1,"isfriend":0,"isfamily":0},{"id":"52704985750","owner":"111059434@N07","secret":"ab72cf37d8","server":"65535","farm":66,"title":"Beaumarquet melba et Cordonbleu d'Angola","ispublic":1,"isfriend":0,"isfamily":0},{"id":"52704041447","owner":"111059434@N07","secret":"e5c38f9a45","server":"65535","farm":66,"title":"Beaumarquet melba et Cordonbleu d'Angola","ispublic":1,"isfriend":0,"isfamily":0},{"id":"52683188602","owner":"97367345@N00","secret":"5dafa254ba","server":"65535","farm":66,"title":"Gewone Melba \/ Green-winged Pytilia","ispublic":1,"isfriend":0,"isfamily":0},{"id":"52594381940","owner":"129593667@N03","secret":"748ae9bd20","server":"65535","farm":66,"title":"Green-winged Pytilia (Melba Finch)","ispublic":1,"isfriend":0,"isfamily":0},{"id":"52556688009","owner":"58280154@N07","secret":"810404b2ae","server":"65535","farm":66,"title":"Female Green-winged Pytilia - Beaumarquet melba - Pytilia melba","ispublic":1,"isfriend":0,"isfamily":0},{"id":"52538905819","owner":"65695019@N07","secret":"99662b5655","server":"65535","farm":66,"title":"Green-winged Pytilia (Pytilia melba) male ...","ispublic":1,"isfriend":0,"isfamily":0},{"id":"52141002858","owner":"65695019@N07","secret":"bee8364ce0","server":"65535","farm":66,"title":"Green-winged Pytilia (Pytilia melba) male ...","ispublic":1,"isfriend":0,"isfamily":0},{"id":"52140984821","owner":"65695019@N07","secret":"45fa943dda","server":"65535","farm":66,"title":"Green-winged Pytilia (Pytilia melba) male eating grass seeds ...","ispublic":1,"isfriend":0,"isfamily":0},{"id":"52443297109","owner":"65695019@N07","secret":"96deebb47c","server":"65535","farm":66,"title":"Green-winged Pytilia (Pytilia melba) male ...","ispublic":1,"isfriend":0,"isfamily":0},{"id":"52416588512","owner":"76454790@N02","secret":"63fcda6ebf","server":"65535","farm":66,"title":"Green-winged Pytilia (Pytilia melba)","ispublic":1,"isfriend":0,"isfamily":0},{"id":"52374411543","owner":"128578170@N06","secret":"3ac035538f","server":"65535","farm":66,"title":"Green-winged Pytilia Pytilia melba belli","ispublic":1,"isfriend":0,"isfamily":0},{"id":"52225734204","owner":"27588142@N06","secret":"fa03cce576","server":"65535","farm":66,"title":"Green-winged Pytilia","ispublic":1,"isfriend":0,"isfamily":0},{"id":"52023748389","owner":"65695019@N07","secret":"37e5ce7912","server":"65535","farm":66,"title":"Green-winged Pytilia (Pytilia melba) female ...","ispublic":1,"isfriend":0,"isfamily":0},{"id":"52023747639","owner":"65695019@N07","secret":"f5d3931bac","server":"65535","farm":66,"title":"Green-winged Pytilia (Pytilia melba) female ...","ispublic":1,"isfriend":0,"isfamily":0},{"id":"52019475274","owner":"65695019@N07","secret":"64e652e8c3","server":"65535","farm":66,"title":"Green-winged Pytilia (Pytilia melba) male ...","ispublic":1,"isfriend":0,"isfamily":0},{"id":"52019266688","owner":"65695019@N07","secret":"63daba7b9a","server":"65535","farm":66,"title":"Green-winged Pytilia (Pytilia melba) male collecting material for nesting ...","ispublic":1,"isfriend":0,"isfamily":0},{"id":"51847955968","owner":"65695019@N07","secret":"4892a58b57","server":"65535","farm":66,"title":"Green-winged Pytilia (Pytilia melba) male collecting material for nesting ...","ispublic":1,"isfriend":0,"isfamily":0},{"id":"52019220541","owner":"65695019@N07","secret":"de3f838b64","server":"65535","farm":66,"title":"Green-winged Pytilia (Pytilia melba) male ...","ispublic":1,"isfriend":0,"isfamily":0},{"id":"52044839755","owner":"43684069@N05","secret":"34dd1021f8","server":"65535","farm":66,"title":"Green-winged Pytilia","ispublic":1,"isfriend":0,"isfamily":0},{"id":"51925312038","owner":"22594349@N08","secret":"3fcd098ebb","server":"65535","farm":66,"title":"Green-winged Pytilia (Pytilia melba)","ispublic":1,"isfriend":0,"isfamily":0},{"id":"51802321519","owner":"25572396@N04","secret":"5473dfe373","server":"65535","farm":66,"title":"Green-winged Pytilia (Pytilia melba)","ispublic":1,"isfriend":0,"isfamily":0},{"id":"51906828806","owner":"22594349@N08","secret":"266eed7728","server":"65535","farm":66,"title":"Green-winged Pytilia (Pytilia melba)","ispublic":1,"isfriend":0,"isfamily":0},{"id":"51829563910","owner":"101709991@N06","secret":"05145bb95b","server":"65535","farm":66,"title":"Garissa-Modogashe Road, Green-winged Pytilia - Pytilia melba soudanensis211128","ispublic":1,"isfriend":0,"isfamily":0},{"id":"51685048487","owner":"11555596@N02","secret":"1a85a0cab1","server":"65535","farm":66,"title":"Birds. Green-winged Pytilia . Kruger National Park. South Africa. Jul-Aug\/2021","ispublic":1,"isfriend":0,"isfamily":0},{"id":"51685834311","owner":"11555596@N02","secret":"0cb4487cb9","server":"65535","farm":66,"title":"Birds. Green-winged Pytilia . Kruger National Park. South Africa. Jul-Aug\/2021","ispublic":1,"isfriend":0,"isfamily":0},{"id":"51563488792","owner":"77505349@N03","secret":"812c1dd1a3","server":"65535","farm":66,"title":"Melba Finch     ...   male     \u2642\ufe0f","ispublic":1,"isfriend":0,"isfamily":0},{"id":"51541411169","owner":"19191471@N00","secret":"72c0eb3d1d","server":"65535","farm":66,"title":"Green-winged pytilia","ispublic":1,"isfriend":0,"isfamily":0},{"id":"51514642884","owner":"22594349@N08","secret":"25b2bf9ab7","server":"65535","farm":66,"title":"Green-winged Pytilia (Pytilia melba)","ispublic":1,"isfriend":0,"isfamily":0},{"id":"51376584552","owner":"11555596@N02","secret":"e9048f0dc5","server":"0","farm":0,"title":"Birds. Green-winged Pytilia . Pilanesberg Game Reserve. South Africa. Jun\/2021","ispublic":1,"isfriend":0,"isfamily":0},{"id":"51376004749","owner":"11555596@N02","secret":"1e8712b15a","server":"65535","farm":66,"title":"Birds. Green-winged Pytilia . Pilanesberg Game Reserve. South Africa. Jun\/2021","ispublic":1,"isfriend":0,"isfamily":0},{"id":"51279538295","owner":"61021753@N02","secret":"5d3f432115","server":"65535","farm":66,"title":"n228_w1150","ispublic":1,"isfriend":0,"isfamily":0},{"id":"51276446076","owner":"61021753@N02","secret":"de9d5e9696","server":"65535","farm":66,"title":"n178_w1150","ispublic":1,"isfriend":0,"isfamily":0},{"id":"51265151270","owner":"61021753@N02","secret":"6e34901cbe","server":"65535","farm":66,"title":"n281_w1150","ispublic":1,"isfriend":0,"isfamily":0},{"id":"51219498120","owner":"61021753@N02","secret":"cd045f79de","server":"65535","farm":66,"title":"n107_w1150","ispublic":1,"isfriend":0,"isfamily":0},{"id":"51179905751","owner":"56686021@N04","secret":"da278de492","server":"65535","farm":66,"title":"Green-winged Pytilia","ispublic":1,"isfriend":0,"isfamily":0},{"id":"51128872726","owner":"12639178@N07","secret":"83b70e4861","server":"65535","farm":66,"title":"Tanzania: Buntastrild  -  Green-Winged Pytilla","ispublic":1,"isfriend":0,"isfamily":0},{"id":"51126764117","owner":"187458160@N06","secret":"556a378340","server":"65535","farm":66,"title":"an hidden jewel","ispublic":1,"isfriend":0,"isfamily":0},{"id":"50995054853","owner":"187458160@N06","secret":"c2a7842073","server":"65535","farm":66,"title":"a splash of color","ispublic":1,"isfriend":0,"isfamily":0},{"id":"50912208321","owner":"61021753@N02","secret":"def7a9be7e","server":"65535","farm":66,"title":"n77_w1150","ispublic":1,"isfriend":0,"isfamily":0},{"id":"50367990198","owner":"41039814@N08","secret":"498f075318","server":"65535","farm":66,"title":"Spring is in the air...","ispublic":1,"isfriend":0,"isfamily":0},{"id":"50308294167","owner":"78193635@N02","secret":"2595afb42c","server":"65535","farm":66,"title":"Pytilia Green-winged Female","ispublic":1,"isfriend":0,"isfamily":0},{"id":"50160817633","owner":"22594349@N08","secret":"028e20700f","server":"65535","farm":66,"title":"Green-winged Pytilia (Pytilia melba)","ispublic":1,"isfriend":0,"isfamily":0},{"id":"50139953543","owner":"12639178@N07","secret":"c38cbf1cf6","server":"65535","farm":66,"title":"Namibia, Green-winged Pytilia","ispublic":1,"isfriend":0,"isfamily":0},{"id":"49998763771","owner":"22639527@N05","secret":"54323eb340","server":"65535","farm":66,"title":"Melba Finch","ispublic":1,"isfriend":0,"isfamily":0},{"id":"49952914042","owner":"128578170@N06","secret":"aef589de5b","server":"65535","farm":66,"title":"Green-winged Pytilia Pytilia melba soudanensis","ispublic":1,"isfriend":0,"isfamily":0},{"id":"49882316488","owner":"79666906@N05","secret":"48cff89ff3","server":"65535","farm":66,"title":"Green-winged Pytilia","ispublic":1,"isfriend":0,"isfamily":0},{"id":"49750065033","owner":"134815842@N03","secret":"8b09a1e1f6","server":"65535","farm":66,"title":"Green-winged Pytilia (Pytilia melba) Lake Manyara National Park, Tanzania 2019","ispublic":1,"isfriend":0,"isfamily":0},{"id":"49734676933","owner":"134815842@N03","secret":"d4431567cc","server":"65535","farm":66,"title":"Green-winged Pytilia (Pytilia melba) Lake Manyara National Park, Tanzania 2019","ispublic":1,"isfriend":0,"isfamily":0},{"id":"49500360772","owner":"48907812@N00","secret":"815cd48a2b","server":"65535","farm":66,"title":"Green-winged pytilia (Pytilia melba)","ispublic":1,"isfriend":0,"isfamily":0},{"id":"49402682886","owner":"94274622@N02","secret":"036d70aeb9","server":"65535","farm":66,"title":"Buntastrild (Pytilia melba)","ispublic":1,"isfriend":0,"isfamily":0},{"id":"49365478583","owner":"16520061@N08","secret":"782699650c","server":"65535","farm":66,"title":"Green-winged Pytilia (Pytilia melba)","ispublic":1,"isfriend":0,"isfamily":0},{"id":"49361703033","owner":"93242958@N00","secret":"858f6e1f29","server":"65535","farm":66,"title":"Green-winged Pytilia, Pytilia melba, immature, at Pilanesberg National Park, Northwest Province, South Africa.","ispublic":1,"isfriend":0,"isfamily":0},{"id":"49362370982","owner":"93242958@N00","secret":"64de983cc0","server":"65535","farm":66,"title":"Green-winged Pytilia, Pytilia melba, male, at Pilanesberg National Park, Northwest Province, South Africa.","ispublic":1,"isfriend":0,"isfamily":0},{"id":"49362370747","owner":"93242958@N00","secret":"0dfe826697","server":"65535","farm":66,"title":"Green-winged Pytilia, Pytilia melba, male, at Pilanesberg National Park, Northwest Province, South Africa.","ispublic":1,"isfriend":0,"isfamily":0},{"id":"49362166616","owner":"93242958@N00","secret":"fa43783a07","server":"65535","farm":66,"title":"Green-winged Pytilia, Pytilia melba, female, at Pilanesberg National Park, Northwest Province, South Africa.","ispublic":1,"isfriend":0,"isfamily":0},{"id":"49362166611","owner":"93242958@N00","secret":"8c150a0c87","server":"65535","farm":66,"title":"Green-winged Pytilia, Pytilia melba, male, at Pilanesberg National Park, Northwest Province, South Africa.","ispublic":1,"isfriend":0,"isfamily":0},{"id":"49362370307","owner":"93242958@N00","secret":"c2047f0b98","server":"65535","farm":66,"title":"Green-winged Pytilia, Pytilia melba, female, at Pilanesberg National Park, Northwest Province, South Africa.","ispublic":1,"isfriend":0,"isfamily":0},{"id":"49361702048","owner":"93242958@N00","secret":"4d269f8f8b","server":"65535","farm":66,"title":"Green-winged Pytilia, Pytilia melba, female, at Pilanesberg National Park, Northwest Province, South Africa.","ispublic":1,"isfriend":0,"isfamily":0},{"id":"49362369907","owner":"93242958@N00","secret":"84843fe18a","server":"65535","farm":66,"title":"Green-winged Pytilia, Pytilia melba, female, at Pilanesberg National Park, Northwest Province, South Africa.","ispublic":1,"isfriend":0,"isfamily":0},{"id":"49362165941","owner":"93242958@N00","secret":"f3ab7a22bb","server":"65535","farm":66,"title":"Green-winged Pytilia, Pytilia melba, female, at Pilanesberg National Park, Northwest Province, South Africa.","ispublic":1,"isfriend":0,"isfamily":0},{"id":"49362369562","owner":"93242958@N00","secret":"822a958127","server":"65535","farm":66,"title":"Green-winged Pytilia, Pytilia melba, female, at Pilanesberg National Park, Northwest Province, South Africa.","ispublic":1,"isfriend":0,"isfamily":0},{"id":"49235162257","owner":"129593667@N03","secret":"4ec7c45486","server":"65535","farm":66,"title":"Green-winged Pytilia (Melba Finch) - Astrild Beaumarquet","ispublic":1,"isfriend":0,"isfamily":0},{"id":"49178313841","owner":"76973714@N06","secret":"bfff4aa3db","server":"65535","farm":66,"title":"Green-winged Pytilia (Male)","ispublic":1,"isfriend":0,"isfamily":0},{"id":"49064037222","owner":"30722034@N02","secret":"f13c40e483","server":"65535","farm":66,"title":"Green-winged Twinspot\/Pytilia melba","ispublic":1,"isfriend":0,"isfamily":0},{"id":"49000174546","owner":"12639178@N07","secret":"c0a480b3e4","server":"65535","farm":66,"title":"Ist das ein Buntastrild? - Ausschnitt","ispublic":1,"isfriend":0,"isfamily":0},{"id":"48947534858","owner":"131256186@N04","secret":"b3d7dc19d2","server":"65535","farm":66,"title":"Green-winged Pytilia  Pytilia melba","ispublic":1,"isfriend":0,"isfamily":0},{"id":"52633428631","owner":"12639178@N07","secret":"6607d709e1","server":"65535","farm":66,"title":"Green-winged Pytilia (Pytilia melba), S\u00fcdafrika","ispublic":1,"isfriend":0,"isfamily":0},{"id":"52556688079","owner":"58280154@N07","secret":"07c076fbe9","server":"65535","farm":66,"title":"Female Green-winged Pytilia - Beaumarquet melba - Pytilia melba","ispublic":1,"isfriend":0,"isfamily":0},{"id":"52556390926","owner":"58280154@N07","secret":"bd3d4a8067","server":"65535","farm":66,"title":"Male Green-winged Pytilia - Beaumarquet melba - Pytilia melba","ispublic":1,"isfriend":0,"isfamily":0},{"id":"52526026610","owner":"65695019@N07","secret":"4b9c7552bd","server":"65535","farm":66,"title":"Green-winged Pytilia (Pytilia melba) male ...","ispublic":1,"isfriend":0,"isfamily":0},{"id":"52082473780","owner":"139365691@N03","secret":"0a108e2335","server":"65535","farm":66,"title":"Green-winged Pytilia","ispublic":1,"isfriend":0,"isfamily":0},{"id":"51541617875","owner":"19191471@N00","secret":"7b7961eb21","server":"65535","farm":66,"title":"Green-winged pytilia","ispublic":1,"isfriend":0,"isfamily":0},{"id":"50381896873","owner":"12639178@N07","secret":"9be7bd57d8","server":"65535","farm":66,"title":"Green-winged Pytilia, Mapungubwe N.P., S\u00fcdafrika","ispublic":1,"isfriend":0,"isfamily":0},{"id":"50333236507","owner":"65695019@N07","secret":"5aa901562b","server":"65535","farm":66,"title":"Green-winged Pytilia (Pytilia melba) male ...","ispublic":1,"isfriend":0,"isfamily":0},{"id":"50333071216","owner":"65695019@N07","secret":"f5c0d641e8","server":"65535","farm":66,"title":"Green-winged Pytilia (Pytilia melba) male ...","ispublic":1,"isfriend":0,"isfamily":0},{"id":"50308134746","owner":"78193635@N02","secret":"86190c85d5","server":"65535","farm":66,"title":"Pytilia Green-winged Pair","ispublic":1,"isfriend":0,"isfamily":0},{"id":"50308134551","owner":"78193635@N02","secret":"3f7328273b","server":"65535","farm":66,"title":"Pytilia Green-winged Male","ispublic":1,"isfriend":0,"isfamily":0},{"id":"50308293947","owner":"78193635@N02","secret":"a08d8cec5b","server":"65535","farm":66,"title":"Pytilia Green-winged Juvenile","ispublic":1,"isfriend":0,"isfamily":0},{"id":"49898701816","owner":"55968524@N04","secret":"0e6c64e2ef","server":"65535","farm":66,"title":"2M3A5705 - Green-winged Pytilia - Pytilia melba.jpg","ispublic":1,"isfriend":0,"isfamily":0},{"id":"49886164488","owner":"128578170@N06","secret":"26b9ddd1ef","server":"65535","farm":66,"title":"Green-winged Pytilia Pytilia m. melba","ispublic":1,"isfriend":0,"isfamily":0},{"id":"49713245526","owner":"48084395@N03","secret":"e53b4d8ace","server":"65535","farm":66,"title":"Green-winged Pytilia - Pytilia melba fem MK2_2940_resize","ispublic":1,"isfriend":0,"isfamily":0},{"id":"49695656407","owner":"8773601@N03","secret":"8f29717f66","server":"65535","farm":66,"title":"P2290542 Green-winged Pytilia (Pytilia melba)","ispublic":1,"isfriend":0,"isfamily":0},{"id":"49655421391","owner":"8773601@N03","secret":"4fbfedd735","server":"65535","farm":66,"title":"P2130728 Melba Finch (Green-winged Pytilia) - Pytilia melba","ispublic":1,"isfriend":0,"isfamily":0},{"id":"49622264737","owner":"186915896@N05","secret":"b7fb584577","server":"65535","farm":66,"title":"Melba-astrild (Green-winged Pytilia, Pytilia melba)","ispublic":1,"isfriend":0,"isfamily":0},{"id":"49352165193","owner":"26879836@N02","secret":"b545ff61fc","server":"65535","farm":66,"title":"Green-winged Pytilia (Pytilia melba) Buntastrild","ispublic":1,"isfriend":0,"isfamily":0},{"id":"49028539987","owner":"96345904@N08","secret":"cac90824bf","server":"65535","farm":66,"title":"2018_0928Image (262) Green - winged Pytilia (Melba Finch)","ispublic":1,"isfriend":0,"isfamily":0},{"id":"49028539832","owner":"96345904@N08","secret":"55334e3e0c","server":"65535","farm":66,"title":"2018_0928Image (267)","ispublic":1,"isfriend":0,"isfamily":0},{"id":"49000380507","owner":"12639178@N07","secret":"3078331776","server":"65535","farm":66,"title":"Buntastrild? - Ausschnitt","ispublic":1,"isfriend":0,"isfamily":0},{"id":"48966561617","owner":"131256186@N04","secret":"468b2f8757","server":"65535","farm":66,"title":"Green-winged Pytilia  Pytilia melba","ispublic":1,"isfriend":0,"isfamily":0},{"id":"48933582173","owner":"12639178@N07","secret":"b9ee3e1826","server":"65535","farm":66,"title":"Green-winged Pytilia","ispublic":1,"isfriend":0,"isfamily":0},{"id":"48831651348","owner":"10577082@N05","secret":"d6346e6258","server":"65535","farm":66,"title":"Green-winged Pytilia (male) - NZ74807","ispublic":1,"isfriend":0,"isfamily":0},{"id":"48646678113","owner":"126182198@N07","secret":"98a5c5a8a2","server":"65535","farm":66,"title":"Female Green-Winged Pytilia (Melba Finch) visiting the bird bath","ispublic":1,"isfriend":0,"isfamily":0}]},"stat":"ok"}