{"photos":{"page":1,"pages":2,"perpage":100,"total":155,"photo":[{"id":"52759416263","owner":"28786551@N04","secret":"a9fc4e9442","server":"65535","farm":66,"title":"Green-backed Kingfisher (Female)","ispublic":1,"isfriend":0,"isfamily":0},{"id":"52753794747","owner":"28786551@N04","secret":"74c6acb26e","server":"65535","farm":66,"title":"Green-backed Kingfisher","ispublic":1,"isfriend":0,"isfamily":0},{"id":"52733745409","owner":"64074416@N06","secret":"24f488bcc7","server":"65535","farm":66,"title":"Male Green-backed Kingfisher (Actenoides monachus)","ispublic":1,"isfriend":0,"isfamily":0},{"id":"52556019511","owner":"98682992@N00","secret":"49d7eed9cd","server":"65535","farm":66,"title":"HKR52776","ispublic":1,"isfriend":0,"isfamily":0},{"id":"52555566442","owner":"98682992@N00","secret":"082bbd3e63","server":"65535","farm":66,"title":"HKR52502","ispublic":1,"isfriend":0,"isfamily":0},{"id":"52541397877","owner":"98682992@N00","secret":"3356283677","server":"65535","farm":66,"title":"HKR53350","ispublic":1,"isfriend":0,"isfamily":0},{"id":"52510842427","owner":"7200351@N08","secret":"f286ed4431","server":"65535","farm":66,"title":"Actenoides monachus monachus","ispublic":1,"isfriend":0,"isfamily":0},{"id":"52510842397","owner":"7200351@N08","secret":"484f4cc0e1","server":"65535","farm":66,"title":"Actenoides monachus monachus","ispublic":1,"isfriend":0,"isfamily":0},{"id":"52511314411","owner":"7200351@N08","secret":"765a669931","server":"65535","farm":66,"title":"Actenoides monachus monachus","ispublic":1,"isfriend":0,"isfamily":0},{"id":"52468325201","owner":"52799999@N06","secret":"638131282b","server":"65535","farm":66,"title":"Black-headed Kingfisher (Actenoides monachus capucinus)","ispublic":1,"isfriend":0,"isfamily":0},{"id":"52210531767","owner":"7200351@N08","secret":"c53abb75c1","server":"65535","farm":66,"title":"Actenoides monachus monachus","ispublic":1,"isfriend":0,"isfamily":0},{"id":"52212024370","owner":"7200351@N08","secret":"938232ff9d","server":"65535","farm":66,"title":"Actenoides monachus monachus","ispublic":1,"isfriend":0,"isfamily":0},{"id":"52013103829","owner":"36274920@N05","secret":"c1ab7c7dd1","server":"65535","farm":66,"title":"Sulawesi - Avril 2022","ispublic":1,"isfriend":0,"isfamily":0},{"id":"50549308538","owner":"25872797@N02","secret":"ec92d3549e","server":"65535","farm":66,"title":"Green-backed Kingfisher (Actenoides monachus) \u2642","ispublic":1,"isfriend":0,"isfamily":0},{"id":"50388721946","owner":"187469698@N05","secret":"692bf0760a","server":"65535","farm":66,"title":"765 Green-backed Kingfisher - Andrew Walker 001","ispublic":1,"isfriend":0,"isfamily":0},{"id":"49814349036","owner":"188007943@N06","secret":"02258c4096","server":"65535","farm":66,"title":"Blue-headed Kingfisher (Actenoides monachus), Tangkoko Nature Reserve, Sulawesi, Indonesia","ispublic":1,"isfriend":0,"isfamily":0},{"id":"49563460582","owner":"22587916@N05","secret":"019139c54d","server":"65535","farm":66,"title":"Green-backed Kingfisher, \u7da0\u80cc\u7fe1\u7fe0","ispublic":1,"isfriend":0,"isfamily":0},{"id":"49558852502","owner":"135552775@N06","secret":"b730428411","server":"65535","farm":66,"title":"Actenoides monachus, male","ispublic":1,"isfriend":0,"isfamily":0},{"id":"49149530161","owner":"22587916@N05","secret":"df72dc278d","server":"65535","farm":66,"title":"Lilac-cheeked Kingfisher, \u82cf\u62c9\u5a01\u897f\u84dd\u8033\u7fe0\u9e1f","ispublic":1,"isfriend":0,"isfamily":0},{"id":"48781705592","owner":"121253091@N02","secret":"e623fbcb27","server":"65535","farm":66,"title":"DSC9410 Mart\u00edn pescador de espalda verde (Actenoides monachus), Reserva Natural Tangkoko-Batuangas Dua Saudara, Isla de C\u00e9lebes, Sulawesi, Indonesia","ispublic":1,"isfriend":0,"isfamily":0},{"id":"48781704447","owner":"121253091@N02","secret":"6c13c02869","server":"65535","farm":66,"title":"DSC9479 Mart\u00edn pescador de espalda verde (Actenoides monachus), Reserva Natural Tangkoko-Batuangas Dua Saudara, Isla de C\u00e9lebes, Sulawesi, Indonesia","ispublic":1,"isfriend":0,"isfamily":0},{"id":"48781167283","owner":"121253091@N02","secret":"0b2aae3ecf","server":"65535","farm":66,"title":"DSC9558 Mart\u00edn pescador de espalda verde (Actenoides monachus), Reserva Natural Tangkoko-Batuangas Dua Saudara, Isla de C\u00e9lebes, Sulawesi, Indonesia","ispublic":1,"isfriend":0,"isfamily":0},{"id":"48781530496","owner":"121253091@N02","secret":"ba731e2d65","server":"65535","farm":66,"title":"DSC9557 Mart\u00edn pescador de espalda verde (Actenoides monachus), Reserva Natural Tangkoko-Batuangas Dua Saudara, Isla de C\u00e9lebes, Sulawesi, Indonesia","ispublic":1,"isfriend":0,"isfamily":0},{"id":"48781703312","owner":"121253091@N02","secret":"ab12e11263","server":"65535","farm":66,"title":"DSC9551 Mart\u00edn pescador de espalda verde (Actenoides monachus), Reserva Natural Tangkoko-Batuangas Dua Saudara, Isla de C\u00e9lebes, Sulawesi, Indonesia","ispublic":1,"isfriend":0,"isfamily":0},{"id":"48781702212","owner":"121253091@N02","secret":"2840a01dfc","server":"65535","farm":66,"title":"DSC9622 Mart\u00edn pescador de espalda verde (Actenoides monachus), Reserva Natural Tangkoko-Batuangas Dua Saudara, Isla de C\u00e9lebes, Sulawesi, Indonesia","ispublic":1,"isfriend":0,"isfamily":0},{"id":"48781702147","owner":"121253091@N02","secret":"fb898ff9d0","server":"65535","farm":66,"title":"DSC9624 Mart\u00edn pescador de espalda verde (Actenoides monachus), Reserva Natural Tangkoko-Batuangas Dua Saudara, Isla de C\u00e9lebes, Sulawesi, Indonesia","ispublic":1,"isfriend":0,"isfamily":0},{"id":"48781702002","owner":"121253091@N02","secret":"9e3672c6ca","server":"65535","farm":66,"title":"DSC9631 Mart\u00edn pescador de espalda verde (Actenoides monachus), Reserva Natural Tangkoko-Batuangas Dua Saudara, Isla de C\u00e9lebes, Sulawesi, Indonesia","ispublic":1,"isfriend":0,"isfamily":0},{"id":"48781529241","owner":"121253091@N02","secret":"4323bc4bc2","server":"65535","farm":66,"title":"DSC9630 Mart\u00edn pescador de espalda verde (Actenoides monachus), Reserva Natural Tangkoko-Batuangas Dua Saudara, Isla de C\u00e9lebes, Sulawesi, Indonesia","ispublic":1,"isfriend":0,"isfamily":0},{"id":"48781701917","owner":"121253091@N02","secret":"f28a6f8ec9","server":"65535","farm":66,"title":"DSC9632 Mart\u00edn pescador de espalda verde (Actenoides monachus), Reserva Natural Tangkoko-Batuangas Dua Saudara, Isla de C\u00e9lebes, Sulawesi, Indonesia","ispublic":1,"isfriend":0,"isfamily":0},{"id":"48781520811","owner":"121253091@N02","secret":"b9411ef545","server":"65535","farm":66,"title":"DSC9617 Mart\u00edn pescador de espalda verde (Actenoides monachus), Reserva Natural Tangkoko-Batuangas Dua Saudara, Isla de C\u00e9lebes, Sulawesi, Indonesia","ispublic":1,"isfriend":0,"isfamily":0},{"id":"45885473032","owner":"37934762@N02","secret":"ba73deaceb","server":"65535","farm":66,"title":"Green-backed Kingfisher - Actenoides monachus","ispublic":1,"isfriend":0,"isfamily":0},{"id":"43984748050","owner":"133657174@N05","secret":"d2492bafb1","server":"4876","farm":5,"title":"green-backed kingfisher (Actenoides monachus) endemic to Indonesia_Tangkoko Nature Reserve, North Sulawesi","ispublic":1,"isfriend":0,"isfamily":0},{"id":"45297285581","owner":"94293448@N07","secret":"45a05a5210","server":"1921","farm":2,"title":"Green-backed Kingfisher (Actenoides monachus)","ispublic":1,"isfriend":0,"isfamily":0},{"id":"44087394672","owner":"30052849@N07","secret":"fdf11604cc","server":"1815","farm":2,"title":"Alci\u00f3n monje \/ Green-backed kingfisher \/ Actenoides monachus","ispublic":1,"isfriend":0,"isfamily":0},{"id":"30247878778","owner":"30052849@N07","secret":"1b6fc3a765","server":"1818","farm":2,"title":"Alci\u00f3n monje \/ Green-backed kingfisher \/ Actenoides monachus","ispublic":1,"isfriend":0,"isfamily":0},{"id":"39217116550","owner":"49876287@N04","secret":"29bb338cde","server":"810","farm":1,"title":"Green-backed Kingfisher","ispublic":1,"isfriend":0,"isfamily":0},{"id":"38184128114","owner":"21606110@N08","secret":"90abc4b925","server":"4586","farm":5,"title":"Green-backed Kingfisher","ispublic":1,"isfriend":0,"isfamily":0},{"id":"38162266904","owner":"21606110@N08","secret":"d3394db5f0","server":"4517","farm":5,"title":"Green-backed Kingfisher","ispublic":1,"isfriend":0,"isfamily":0},{"id":"26657527339","owner":"17087047@N00","secret":"034635ac41","server":"4580","farm":5,"title":"Green-backed kingfisher (Actenoides monachus), Tangkoko National Park","ispublic":1,"isfriend":0,"isfamily":0},{"id":"36908301551","owner":"35291717@N00","secret":"c5a2710396","server":"4367","farm":5,"title":"Green-backed kingfisher (Actenoides monachus), Tangkoko National Park","ispublic":1,"isfriend":0,"isfamily":0},{"id":"33980475374","owner":"13861029@N00","secret":"02324e984e","server":"4204","farm":5,"title":"Green-backed Kingfisher","ispublic":1,"isfriend":0,"isfamily":0},{"id":"34660541542","owner":"13861029@N00","secret":"28f0b1a490","server":"4157","farm":5,"title":"Green-backed Kingfisher","ispublic":1,"isfriend":0,"isfamily":0},{"id":"31004725815","owner":"64478645@N03","secret":"80c94a7690","server":"5445","farm":6,"title":"green-backed Kingfisher","ispublic":1,"isfriend":0,"isfamily":0},{"id":"29773417974","owner":"71841959@N07","secret":"39155305c9","server":"8271","farm":9,"title":"Green-backed Kingfisher (Actenoides monachus)  (3)","ispublic":1,"isfriend":0,"isfamily":0},{"id":"29572895412","owner":"8394764@N06","secret":"2b6a04425c","server":"8301","farm":9,"title":"Green Backed Kingfisher (male)","ispublic":1,"isfriend":0,"isfamily":0},{"id":"29209827952","owner":"64478645@N03","secret":"555ed9db77","server":"8455","farm":9,"title":"Green-backed Kingfisher","ispublic":1,"isfriend":0,"isfamily":0},{"id":"26817008601","owner":"7200351@N08","secret":"3d595e0e69","server":"7075","farm":8,"title":"Actenoides monachus - adult male","ispublic":1,"isfriend":0,"isfamily":0},{"id":"23712635161","owner":"56686021@N04","secret":"d9a2cafb19","server":"695","farm":1,"title":"Green-backed Kingfisher","ispublic":1,"isfriend":0,"isfamily":0},{"id":"23012140980","owner":"56686021@N04","secret":"d954abec2e","server":"730","farm":1,"title":"Green-backed Kingfisher","ispublic":1,"isfriend":0,"isfamily":0},{"id":"52511798550","owner":"7200351@N08","secret":"8565078193","server":"65535","farm":66,"title":"Actenoides monachus monachus","ispublic":1,"isfriend":0,"isfamily":0},{"id":"52510661522","owner":"7200351@N08","secret":"61a243fc70","server":"0","farm":0,"title":"Actenoides monachus monachus","ispublic":1,"isfriend":0,"isfamily":0},{"id":"52468357136","owner":"52799999@N06","secret":"19ac17d133","server":"65535","farm":66,"title":"Green-backed Kingfisher  (Actenoides monachus)","ispublic":1,"isfriend":0,"isfamily":0},{"id":"52468819395","owner":"52799999@N06","secret":"e2a7c0cc92","server":"65535","farm":66,"title":"Green-backed Kingfisher  (Actenoides monachus)","ispublic":1,"isfriend":0,"isfamily":0},{"id":"52210532197","owner":"7200351@N08","secret":"efab9daedf","server":"65535","farm":66,"title":"Actenoides monachus monachus","ispublic":1,"isfriend":0,"isfamily":0},{"id":"52212024865","owner":"7200351@N08","secret":"8e99323640","server":"65535","farm":66,"title":"Actenoides monachus monachus","ispublic":1,"isfriend":0,"isfamily":0},{"id":"52210531892","owner":"7200351@N08","secret":"f643fb2785","server":"65535","farm":66,"title":"Actenoides monachus monachus","ispublic":1,"isfriend":0,"isfamily":0},{"id":"52210531737","owner":"7200351@N08","secret":"3fbde419d3","server":"65535","farm":66,"title":"Actenoides monachus monachus","ispublic":1,"isfriend":0,"isfamily":0},{"id":"52011832282","owner":"36274920@N05","secret":"ec93ebf174","server":"65535","farm":66,"title":"Sulawesi - Avril 2022","ispublic":1,"isfriend":0,"isfamily":0},{"id":"52012912998","owner":"36274920@N05","secret":"13128d8295","server":"65535","farm":66,"title":"Sulawesi - Avril 2022","ispublic":1,"isfriend":0,"isfamily":0},{"id":"50971060318","owner":"142083658@N05","secret":"750eb39e80","server":"65535","farm":66,"title":"Green-backed Kingfisher, Actenoides monachus, \u0421\u0443\u043b\u0430\u0432\u0435\u0441\u0441\u043a\u0430\u044f \u0430\u043b\u044c\u0446\u0438\u043e\u043d\u0430","ispublic":1,"isfriend":0,"isfamily":0},{"id":"50388028778","owner":"187469698@N05","secret":"32b73c6311","server":"65535","farm":66,"title":"765 Green-backed Kingfisher - Andrew Walker 002","ispublic":1,"isfriend":0,"isfamily":0},{"id":"49814350271","owner":"188007943@N06","secret":"1a8c324730","server":"65535","farm":66,"title":"Blue-headed Kingfisher (Actenoides monachus), Tangkoko Nature Reserve, Sulawesi, Indonesia","ispublic":1,"isfriend":0,"isfamily":0},{"id":"49558119808","owner":"135552775@N06","secret":"ab7e74605f","server":"65535","farm":66,"title":"Actenoides monachus, female","ispublic":1,"isfriend":0,"isfamily":0},{"id":"49478250741","owner":"74472057@N06","secret":"e6b53742f5","server":"65535","farm":66,"title":"143. Green-backed Kingfisher (Actenoides monachus), Tangkoko National Park, North Sulawesi, Indonesia","ispublic":1,"isfriend":0,"isfamily":0},{"id":"48672376773","owner":"52413877@N02","secret":"9540abb1a3","server":"65535","farm":66,"title":"Green-backed kingfisher-Actenoides monachus-1","ispublic":1,"isfriend":0,"isfamily":0},{"id":"48672687216","owner":"52413877@N02","secret":"fbc7bfd7df","server":"65535","farm":66,"title":"Green-backed kingfisher-Actenoides monachus-2","ispublic":1,"isfriend":0,"isfamily":0},{"id":"31280006297","owner":"17012389@N05","secret":"7ee94254db","server":"4872","farm":5,"title":"Green-backed Kingfisher","ispublic":1,"isfriend":0,"isfamily":0},{"id":"31280002887","owner":"17012389@N05","secret":"97ee3ebc95","server":"4877","farm":5,"title":"Green-backed Kingfisher","ispublic":1,"isfriend":0,"isfamily":0},{"id":"44401808240","owner":"17012389@N05","secret":"ae2fc41e68","server":"4838","farm":5,"title":"Another visit","ispublic":1,"isfriend":0,"isfamily":0},{"id":"30568295707","owner":"94293448@N07","secret":"ba3976116c","server":"1955","farm":2,"title":"Green-backed Kingfisher (Actenoides monachus)","ispublic":1,"isfriend":0,"isfamily":0},{"id":"44037662802","owner":"12639178@N07","secret":"a94a297309","server":"1794","farm":2,"title":"Einsiedlerliest","ispublic":1,"isfriend":0,"isfamily":0},{"id":"29148943117","owner":"12639178@N07","secret":"8939e9df4c","server":"1774","farm":2,"title":"Einsiedlerliest","ispublic":1,"isfriend":0,"isfamily":0},{"id":"29148939767","owner":"12639178@N07","secret":"f04ab0945a","server":"1814","farm":2,"title":"Einsiedlerliest, m\u00e4nnl.","ispublic":1,"isfriend":0,"isfamily":0},{"id":"42302225555","owner":"142083658@N05","secret":"b7df09deb2","server":"925","farm":1,"title":"Green-backed Kingfisher, Actenoides monachus, \u0421\u0443\u043b\u0430\u0432\u0435\u0441\u0441\u043a\u0430\u044f \u0430\u043b\u044c\u0446\u0438\u043e\u043d\u0430","ispublic":1,"isfriend":0,"isfamily":0},{"id":"39210423540","owner":"49876287@N04","secret":"80d1d9c812","server":"815","farm":1,"title":"Green-backed Kingfisher","ispublic":1,"isfriend":0,"isfamily":0},{"id":"27186941819","owner":"21606110@N08","secret":"1b2f34f9a6","server":"4592","farm":5,"title":"Green-backed Kingfisher","ispublic":1,"isfriend":0,"isfamily":0},{"id":"26657528649","owner":"17087047@N00","secret":"cb1fae821f","server":"4561","farm":5,"title":"Green-backed kingfisher (Actenoides monachus), Tangkoko National Park","ispublic":1,"isfriend":0,"isfamily":0},{"id":"35941192800","owner":"152845304@N05","secret":"8a74cb0679","server":"4362","farm":5,"title":"Green-backed Kingfisher (Actenoides monachus) ENDEMIC - Tangkoko, Sulawesi","ispublic":1,"isfriend":0,"isfamily":0},{"id":"35497105682","owner":"77128742@N06","secret":"bd278ee9d5","server":"4282","farm":5,"title":"Einsiedlerliest_Actenoides monachus-1","ispublic":1,"isfriend":0,"isfamily":0},{"id":"35535538171","owner":"77128742@N06","secret":"79682d8a44","server":"4213","farm":5,"title":"Einsiedlerliest_Actenoides monachus-2","ispublic":1,"isfriend":0,"isfamily":0},{"id":"35497105122","owner":"77128742@N06","secret":"0886950bbe","server":"4236","farm":5,"title":"Einsiedlerliest_Actenoides monachus-3","ispublic":1,"isfriend":0,"isfamily":0},{"id":"35535537761","owner":"77128742@N06","secret":"6e86105bc1","server":"4048","farm":5,"title":"Einsiedlerliest_Actenoides monachus-5","ispublic":1,"isfriend":0,"isfamily":0},{"id":"35665949785","owner":"77128742@N06","secret":"6585eec38b","server":"4205","farm":5,"title":"Einsiedlerliest_Actenoides monachus-4","ispublic":1,"isfriend":0,"isfamily":0},{"id":"35665949215","owner":"77128742@N06","secret":"a67d34a518","server":"4057","farm":5,"title":"Einsiedlerliest_Actenoides monachus-6","ispublic":1,"isfriend":0,"isfamily":0},{"id":"35278757030","owner":"77128742@N06","secret":"d0f7e7811a","server":"4261","farm":5,"title":"Einsiedlerliest_Actenoides monachus-7","ispublic":1,"isfriend":0,"isfamily":0},{"id":"35665948645","owner":"77128742@N06","secret":"964c07925b","server":"4088","farm":5,"title":"Einsiedlerliest_Actenoides monachus-8","ispublic":1,"isfriend":0,"isfamily":0},{"id":"35665948095","owner":"77128742@N06","secret":"b83163dfd1","server":"4054","farm":5,"title":"Einsiedlerliest_Actenoides monachus-9","ispublic":1,"isfriend":0,"isfamily":0},{"id":"35278756550","owner":"77128742@N06","secret":"4c941d0f2d","server":"4090","farm":5,"title":"Einsiedlerliest_Actenoides monachus-10","ispublic":1,"isfriend":0,"isfamily":0},{"id":"35665947555","owner":"77128742@N06","secret":"8f3e0948d3","server":"4065","farm":5,"title":"Einsiedlerliest_Actenoides monachus-11","ispublic":1,"isfriend":0,"isfamily":0},{"id":"35665947185","owner":"77128742@N06","secret":"b13b61bc1e","server":"4088","farm":5,"title":"Einsiedlerliest_Actenoides monachus-12","ispublic":1,"isfriend":0,"isfamily":0},{"id":"35665946985","owner":"77128742@N06","secret":"68f82a6065","server":"4034","farm":5,"title":"Einsiedlerliest_Actenoides monachus-13","ispublic":1,"isfriend":0,"isfamily":0},{"id":"35665946765","owner":"77128742@N06","secret":"66b0e9d737","server":"4290","farm":5,"title":"Einsiedlerliest_Actenoides monachus-14","ispublic":1,"isfriend":0,"isfamily":0},{"id":"35665946575","owner":"77128742@N06","secret":"beb59b27b4","server":"4044","farm":5,"title":"Einsiedlerliest_Actenoides monachus-15","ispublic":1,"isfriend":0,"isfamily":0},{"id":"35626290896","owner":"77128742@N06","secret":"8663121b29","server":"4008","farm":5,"title":"Einsiedlerliest_Actenoides monachus-16","ispublic":1,"isfriend":0,"isfamily":0},{"id":"35665946185","owner":"77128742@N06","secret":"c80967af36","server":"4002","farm":5,"title":"Einsiedlerliest_Actenoides monachus-17","ispublic":1,"isfriend":0,"isfamily":0},{"id":"26611528850","owner":"7200351@N08","secret":"5e0c2b8aa5","server":"7799","farm":8,"title":"Actenoides monachus - adult male","ispublic":1,"isfriend":0,"isfamily":0},{"id":"26884565345","owner":"7200351@N08","secret":"d102a1f00b","server":"7653","farm":8,"title":"Actenoides monachus - adult female","ispublic":1,"isfriend":0,"isfamily":0},{"id":"26609041400","owner":"7200351@N08","secret":"81479bc6ed","server":"7676","farm":8,"title":"Actenoides monachus - young male","ispublic":1,"isfriend":0,"isfamily":0},{"id":"26609041230","owner":"7200351@N08","secret":"d9cf4cf65c","server":"7141","farm":8,"title":"Actenoides monachus - adult male","ispublic":1,"isfriend":0,"isfamily":0},{"id":"23225343971","owner":"56686021@N04","secret":"d9d3f0e8c7","server":"564","farm":1,"title":"Green-backed Kingfisher","ispublic":1,"isfriend":0,"isfamily":0}]},"stat":"ok"}