{"photos":{"page":1,"pages":2,"perpage":100,"total":110,"photo":[{"id":"52296125458","owner":"104988466@N08","secret":"6aba208280","server":"65535","farm":66,"title":"01. Toucanet koulik - Selenidera piperivora - Guianan Toucanet","ispublic":1,"isfriend":0,"isfamily":0},{"id":"52295134177","owner":"104988466@N08","secret":"5599726618","server":"65535","farm":66,"title":"02. Toucanet koulik - Selenidera piperivora - Guianan Toucanet","ispublic":1,"isfriend":0,"isfamily":0},{"id":"52283912507","owner":"137365533@N05","secret":"350ca6a74c","server":"65535","farm":66,"title":"Toucanet koulik (Selenidera piperivora)","ispublic":1,"isfriend":0,"isfamily":0},{"id":"52284898788","owner":"137365533@N05","secret":"49c78e164a","server":"65535","farm":66,"title":"Toucanet koulik (Selenidera piperivora)","ispublic":1,"isfriend":0,"isfamily":0},{"id":"52285156369","owner":"137365533@N05","secret":"44e3c31e2e","server":"65535","farm":66,"title":"Toucanet koulik (Selenidera piperivora)","ispublic":1,"isfriend":0,"isfamily":0},{"id":"51585392446","owner":"145824323@N05","secret":"9c0ea89bb9","server":"65535","farm":66,"title":"Guianan toucanet (Selenidera piperivora)","ispublic":1,"isfriend":0,"isfamily":0},{"id":"50376003796","owner":"61021753@N02","secret":"4bde57f5d9","server":"65535","farm":66,"title":"n68_w1150","ispublic":1,"isfriend":0,"isfamily":0},{"id":"50080324602","owner":"137365533@N05","secret":"a9729aaf4b","server":"65535","farm":66,"title":"Toucanet koulik (Selenidera piperivora)","ispublic":1,"isfriend":0,"isfamily":0},{"id":"49634681127","owner":"137365533@N05","secret":"60bc550960","server":"65535","farm":66,"title":"Toucanet koulik (Selenidera piperivora)","ispublic":1,"isfriend":0,"isfamily":0},{"id":"49317113171","owner":"49261788@N02","secret":"fb9604746d","server":"65535","farm":66,"title":"Selenidera piperivora","ispublic":1,"isfriend":0,"isfamily":0},{"id":"49305805022","owner":"134849352@N05","secret":"f0febd43f7","server":"65535","farm":66,"title":"Guinanan Toucanet","ispublic":1,"isfriend":0,"isfamily":0},{"id":"48663125522","owner":"68320803@N07","secret":"5096db2fcb","server":"65535","farm":66,"title":"Male Guianan toucanet","ispublic":1,"isfriend":0,"isfamily":0},{"id":"45296867352","owner":"100781317@N02","secret":"ea72c90a18","server":"1920","farm":2,"title":"Selenidera piperivora","ispublic":1,"isfriend":0,"isfamily":0},{"id":"44845092882","owner":"149059036@N03","secret":"78d6c9a9c9","server":"1962","farm":2,"title":"Selenidera piperivora - Toucanet koulik (femelle)","ispublic":1,"isfriend":0,"isfamily":0},{"id":"29958487797","owner":"149059036@N03","secret":"b52dd777ec","server":"1971","farm":2,"title":"Selenidera piperivora - Toucanet koulik (femelle)","ispublic":1,"isfriend":0,"isfamily":0},{"id":"29343666467","owner":"80666584@N05","secret":"87f19abe51","server":"1871","farm":2,"title":"ara\u00e7ari-negro \/ Guianan Toucanet","ispublic":1,"isfriend":0,"isfamily":0},{"id":"43373757685","owner":"80666584@N05","secret":"84897ec71d","server":"1841","farm":2,"title":"ara\u00e7ari-negro \/ Guianan Toucanet","ispublic":1,"isfriend":0,"isfamily":0},{"id":"29970247438","owner":"79383179@N03","secret":"551ed236db","server":"1812","farm":2,"title":"Guianan Toucanet (Selenidera piperivora)","ispublic":1,"isfriend":0,"isfamily":0},{"id":"39449956025","owner":"127581961@N08","secret":"4d33aa2ede","server":"4655","farm":5,"title":"Toucanet koulik (Selenidera piperivora)","ispublic":1,"isfriend":0,"isfamily":0},{"id":"38497100814","owner":"144083559@N03","secret":"c4ee9e99ce","server":"4637","farm":5,"title":"Ara\u00e7ari negro femea","ispublic":1,"isfriend":0,"isfamily":0},{"id":"36582531391","owner":"32674493@N04","secret":"984b0a5018","server":"4379","farm":5,"title":"Ara\u00e7ari-negro (Selenidera piperivora)","ispublic":1,"isfriend":0,"isfamily":0},{"id":"33450679443","owner":"20127130@N02","secret":"b2bde2b6c5","server":"65535","farm":66,"title":"Ruddy Pigeon-20.jpg","ispublic":1,"isfriend":0,"isfamily":0},{"id":"34109723171","owner":"20127130@N02","secret":"a462b5523b","server":"65535","farm":66,"title":"Guianan Toucanet","ispublic":1,"isfriend":0,"isfamily":0},{"id":"33032475710","owner":"88581198@N06","secret":"2630b4743a","server":"567","farm":1,"title":"Guianan Toucanet(Selenidera piperivora)","ispublic":1,"isfriend":0,"isfamily":0},{"id":"32601295313","owner":"88581198@N06","secret":"b2c5c28032","server":"3868","farm":4,"title":"Guianan Toucanet(Selenidera piperivora)","ispublic":1,"isfriend":0,"isfamily":0},{"id":"33287105651","owner":"88581198@N06","secret":"ae877ee97d","server":"3828","farm":4,"title":"Guianan Toucanet(Selenidera piperivora)","ispublic":1,"isfriend":0,"isfamily":0},{"id":"28322256994","owner":"139544037@N06","secret":"8b5b849654","server":"8885","farm":9,"title":"toucanet koulik (Selenidera piperivora)1","ispublic":1,"isfriend":0,"isfamily":0},{"id":"28655493680","owner":"139544037@N06","secret":"659be51a0b","server":"8767","farm":9,"title":"toucanet koulik (Selenidera piperivora)3","ispublic":1,"isfriend":0,"isfamily":0},{"id":"28858007901","owner":"52363379@N07","secret":"d1a3e95ea6","server":"8702","farm":9,"title":"Selenidera piperivora","ispublic":1,"isfriend":0,"isfamily":0},{"id":"28857998671","owner":"52363379@N07","secret":"c65b508869","server":"8320","farm":9,"title":"Selenidera piperivora","ispublic":1,"isfriend":0,"isfamily":0},{"id":"28616822012","owner":"52363379@N07","secret":"b2f6515bca","server":"8486","farm":9,"title":"Selenidera piperivora","ispublic":1,"isfriend":0,"isfamily":0},{"id":"26685652153","owner":"75005676@N04","secret":"a8dc98cc19","server":"7569","farm":8,"title":"Ara\u00e7ari-Negro (Selenidera piperivora)","ispublic":1,"isfriend":0,"isfamily":0},{"id":"25142309752","owner":"54422928@N00","secret":"438d4450f6","server":"1544","farm":2,"title":"Selenidera piperivora","ispublic":1,"isfriend":0,"isfamily":0},{"id":"11515329173","owner":"54422928@N00","secret":"5d77b25b02","server":"2819","farm":3,"title":"Selenidera piperivora","ispublic":1,"isfriend":0,"isfamily":0},{"id":"8360745035","owner":"27992517@N08","secret":"2db14b66e4","server":"8512","farm":9,"title":"Guiana-endemic Guianan Toucanet - Selenidera piperivora - Capuchinbird Road, Venezuela","ispublic":1,"isfriend":0,"isfamily":0},{"id":"6286437950","owner":"59946862@N07","secret":"5163ecdf51","server":"6227","farm":7,"title":"Selenidera piperivora Guianan Toucanet 3","ispublic":1,"isfriend":0,"isfamily":0},{"id":"6286437666","owner":"59946862@N07","secret":"6f51e8ace2","server":"6100","farm":7,"title":"Selenidera piperivora Guianan Toucanet 2","ispublic":1,"isfriend":0,"isfamily":0},{"id":"6285916905","owner":"59946862@N07","secret":"8499e61b76","server":"6096","farm":7,"title":"Guianan Toucanet - Selenidera piperivora","ispublic":1,"isfriend":0,"isfamily":0},{"id":"52156328687","owner":"137365533@N05","secret":"f9ccb211fa","server":"65535","farm":66,"title":"Toucanet koulik (Selenidera piperivora)","ispublic":1,"isfriend":0,"isfamily":0},{"id":"52157345506","owner":"137365533@N05","secret":"462eb9ac75","server":"65535","farm":66,"title":"Toucanet koulik (Selenidera piperivora)","ispublic":1,"isfriend":0,"isfamily":0},{"id":"52157352263","owner":"137365533@N05","secret":"69df97f9dc","server":"65535","farm":66,"title":"Toucanet koulik (Selenidera piperivora)","ispublic":1,"isfriend":0,"isfamily":0},{"id":"52157582064","owner":"137365533@N05","secret":"64fd31566b","server":"65535","farm":66,"title":"Toucanet koulik (Selenidera piperivora)","ispublic":1,"isfriend":0,"isfamily":0},{"id":"52156320192","owner":"137365533@N05","secret":"2486586118","server":"65535","farm":66,"title":"Toucanet koulik (Selenidera piperivora)","ispublic":1,"isfriend":0,"isfamily":0},{"id":"52157573389","owner":"137365533@N05","secret":"a83af14368","server":"65535","farm":66,"title":"Toucanet koulik (Selenidera piperivora)","ispublic":1,"isfriend":0,"isfamily":0},{"id":"52055007343","owner":"57465751@N05","secret":"f9b29bd776","server":"65535","farm":66,"title":"Guianan Toucanet (Selenidera piperivora), Atta Rainforest Lodge, Guyana","ispublic":1,"isfriend":0,"isfamily":0},{"id":"51586415095","owner":"145824323@N05","secret":"eb2011feef","server":"65535","farm":66,"title":"Guyana toucanet (Selenidera piperivora)","ispublic":1,"isfriend":0,"isfamily":0},{"id":"50714780648","owner":"137365533@N05","secret":"73cb044544","server":"65535","farm":66,"title":"Toucanet koulik (Selenidera piperivora)","ispublic":1,"isfriend":0,"isfamily":0},{"id":"50560707996","owner":"187917085@N02","secret":"6a92054ee8","server":"65535","farm":66,"title":"Selenidera piperivora","ispublic":1,"isfriend":0,"isfamily":0},{"id":"50560706801","owner":"187917085@N02","secret":"ff212375cc","server":"65535","farm":66,"title":"Selenidera piperivora","ispublic":1,"isfriend":0,"isfamily":0},{"id":"50560828307","owner":"187917085@N02","secret":"1ed8ee9e64","server":"65535","farm":66,"title":"Selenidera piperivora","ispublic":1,"isfriend":0,"isfamily":0},{"id":"50080332217","owner":"137365533@N05","secret":"4520ddae01","server":"65535","farm":66,"title":"Toucanet koulik (Selenidera piperivora)6037","ispublic":1,"isfriend":0,"isfamily":0},{"id":"50080329432","owner":"137365533@N05","secret":"0f787e13cb","server":"65535","farm":66,"title":"Toucanet koulik (Selenidera piperivora)","ispublic":1,"isfriend":0,"isfamily":0},{"id":"50079499598","owner":"137365533@N05","secret":"b9b143e7bb","server":"65535","farm":66,"title":"Toucanet koulik (Selenidera piperivora)","ispublic":1,"isfriend":0,"isfamily":0},{"id":"50079491608","owner":"137365533@N05","secret":"983cc9b657","server":"65535","farm":66,"title":"Toucanet koulik (Selenidera piperivora)","ispublic":1,"isfriend":0,"isfamily":0},{"id":"50080067376","owner":"137365533@N05","secret":"81e887f607","server":"65535","farm":66,"title":"Toucanet koulik (Selenidera piperivora)","ispublic":1,"isfriend":0,"isfamily":0},{"id":"50080302397","owner":"137365533@N05","secret":"15b0c2faf9","server":"65535","farm":66,"title":"Toucanet koulik (Selenidera piperivora)","ispublic":1,"isfriend":0,"isfamily":0},{"id":"50080301287","owner":"137365533@N05","secret":"3489d1e351","server":"65535","farm":66,"title":"Toucanet koulik (Selenidera piperivora)","ispublic":1,"isfriend":0,"isfamily":0},{"id":"50080300267","owner":"137365533@N05","secret":"d1cc00c367","server":"65535","farm":66,"title":"Toucanet koulik (Selenidera piperivora)","ispublic":1,"isfriend":0,"isfamily":0},{"id":"49956263797","owner":"137365533@N05","secret":"7af4836a6c","server":"65535","farm":66,"title":"Toucanet koulik (Selenidera piperivora)","ispublic":1,"isfriend":0,"isfamily":0},{"id":"49955977376","owner":"137365533@N05","secret":"cd69cda49e","server":"65535","farm":66,"title":"Toucanet koulik (Selenidera piperivora)","ispublic":1,"isfriend":0,"isfamily":0},{"id":"49955474648","owner":"137365533@N05","secret":"0f2dc7de4e","server":"65535","farm":66,"title":"Toucanet koulik (Selenidera piperivora)","ispublic":1,"isfriend":0,"isfamily":0},{"id":"49956261432","owner":"137365533@N05","secret":"7c0cfb394b","server":"65535","farm":66,"title":"Toucanet koulik (Selenidera piperivora)","ispublic":1,"isfriend":0,"isfamily":0},{"id":"49955974616","owner":"137365533@N05","secret":"969039c677","server":"65535","farm":66,"title":"Toucanet koulik (Selenidera piperivora)","ispublic":1,"isfriend":0,"isfamily":0},{"id":"49956259237","owner":"137365533@N05","secret":"ce9cce4032","server":"65535","farm":66,"title":"Toucanet koulik (Selenidera piperivora)","ispublic":1,"isfriend":0,"isfamily":0},{"id":"49777514897","owner":"145824323@N05","secret":"380538ac49","server":"65535","farm":66,"title":"Guianan toucanet (Selenidera piperivora)","ispublic":1,"isfriend":0,"isfamily":0},{"id":"49516610296","owner":"149059036@N03","secret":"aafd492207","server":"65535","farm":66,"title":"Selenidera piperivora","ispublic":1,"isfriend":0,"isfamily":0},{"id":"49511744957","owner":"82057796@N00","secret":"c0fb3e6569","server":"65535","farm":66,"title":"Guianan Toucanet","ispublic":1,"isfriend":0,"isfamily":0},{"id":"49227846836","owner":"87325282@N00","secret":"1ca4b38f17","server":"65535","farm":66,"title":"Selenidera piperivora","ispublic":1,"isfriend":0,"isfamily":0},{"id":"49228074757","owner":"87325282@N00","secret":"7f9192e0ed","server":"65535","farm":66,"title":"Selenidera piperivora","ispublic":1,"isfriend":0,"isfamily":0},{"id":"49228073612","owner":"87325282@N00","secret":"09780f2d12","server":"65535","farm":66,"title":"Selenidera piperivora","ispublic":1,"isfriend":0,"isfamily":0},{"id":"49079102198","owner":"149059036@N03","secret":"c96e7d0f09","server":"65535","farm":66,"title":"Selenidera piperivora - Toucanet koulik","ispublic":1,"isfriend":0,"isfamily":0},{"id":"48963527671","owner":"53589480@N03","secret":"6306d02a2b","server":"65535","farm":66,"title":"Selenidera piperivora","ispublic":1,"isfriend":0,"isfamily":0},{"id":"48959379631","owner":"182381287@N07","secret":"429b0e625d","server":"65535","farm":66,"title":"Ara\u00e7ari-negro (Selenidera piperivora)","ispublic":1,"isfriend":0,"isfamily":0},{"id":"44360253820","owner":"149059036@N03","secret":"d9fb22e482","server":"4871","farm":5,"title":"Selenidera piperivora - Toucanet koulik (femelle)","ispublic":1,"isfriend":0,"isfamily":0},{"id":"28674132938","owner":"137365533@N05","secret":"b05359c17e","server":"1721","farm":2,"title":"Toucanet koulik (Selenidera piperivora)","ispublic":1,"isfriend":0,"isfamily":0},{"id":"39984803955","owner":"29170368@N03","secret":"19c2627df0","server":"65535","farm":66,"title":"Guianan Toucanet","ispublic":1,"isfriend":0,"isfamily":0},{"id":"38497106014","owner":"144083559@N03","secret":"594934a3d9","server":"4687","farm":5,"title":"Ara\u00e7ari negro macho","ispublic":1,"isfriend":0,"isfamily":0},{"id":"37613122635","owner":"137365533@N05","secret":"d54750cd66","server":"65535","farm":66,"title":"Toucanet koulik (Selenidera piperivora)","ispublic":1,"isfriend":0,"isfamily":0},{"id":"38378962716","owner":"46570401@N02","secret":"b15b77f9a5","server":"4572","farm":5,"title":"Ara\u00e7ai negro macho(Selenidera piperivora (Linnaeus, 1758))","ispublic":1,"isfriend":0,"isfamily":0},{"id":"37720194474","owner":"46570401@N02","secret":"77654da8e2","server":"4569","farm":5,"title":"Ara\u00e7ai casal  (Selenidera piperivora (Linnaeus, 1758))","ispublic":1,"isfriend":0,"isfamily":0},{"id":"37568595746","owner":"68480943@N06","secret":"4a43c6c248","server":"4485","farm":5,"title":"ara\u00e7ari-negro (Selenidera piperivora)","ispublic":1,"isfriend":0,"isfamily":0},{"id":"28836194732","owner":"139544037@N06","secret":"cf9c07c4ce","server":"8717","farm":9,"title":"toucanet koulik (Selenidera piperivora)","ispublic":1,"isfriend":0,"isfamily":0},{"id":"28645001741","owner":"52363379@N07","secret":"5b2ffbcbcc","server":"8872","farm":9,"title":"Selenidera piperivora","ispublic":1,"isfriend":0,"isfamily":0},{"id":"28275838886","owner":"129611291@N05","secret":"7fb89e7aea","server":"8742","farm":9,"title":"Toucanet koulik (Selenidera piperivora)","ispublic":1,"isfriend":0,"isfamily":0},{"id":"27603704235","owner":"87325282@N00","secret":"8d054cfbb9","server":"7323","farm":8,"title":"Ara\u00e7ari Negro \/ Guianan Toucanet (Selenidera piperivora) male","ispublic":1,"isfriend":0,"isfamily":0},{"id":"27603660295","owner":"87325282@N00","secret":"e403725549","server":"7395","farm":8,"title":"Ara\u00e7ari Negro \/ Guianan Toucanet (Selenidera piperivora) male","ispublic":1,"isfriend":0,"isfamily":0},{"id":"26994468483","owner":"87325282@N00","secret":"96ea092412","server":"7134","farm":8,"title":"Ara\u00e7ari Negro \/ Guianan Toucanet (Selenidera piperivora) female","ispublic":1,"isfriend":0,"isfamily":0},{"id":"24370692300","owner":"129203671@N02","secret":"d5dcec9574","server":"1698","farm":2,"title":"Ara\u00e7ari negro(Selenidera piperivora)","ispublic":1,"isfriend":0,"isfamily":0},{"id":"22789809352","owner":"53589480@N03","secret":"3348147173","server":"5628","farm":6,"title":"Selenidera piperivora","ispublic":1,"isfriend":0,"isfamily":0},{"id":"20698511584","owner":"101784223@N08","secret":"f136dfd137","server":"5779","farm":6,"title":"Selenidera piperivora","ispublic":1,"isfriend":0,"isfamily":0},{"id":"20470012998","owner":"46788536@N05","secret":"1e63f207df","server":"573","farm":1,"title":"Selenidera piperivora \/\/ Ara\u00e7ari-negro \/\/ Guianan toucanet","ispublic":1,"isfriend":0,"isfamily":0},{"id":"20648811462","owner":"46788536@N05","secret":"349e71cfb0","server":"5753","farm":6,"title":"Selenidera piperivora \/\/ Ara\u00e7ari-negro \/\/ Guianan toucanet","ispublic":1,"isfriend":0,"isfamily":0},{"id":"20648805762","owner":"46788536@N05","secret":"7be3576562","server":"5637","farm":6,"title":"Selenidera piperivora \/\/ Ara\u00e7ari-negro \/\/ Guianan toucanet","ispublic":1,"isfriend":0,"isfamily":0},{"id":"20469992668","owner":"46788536@N05","secret":"8223236a00","server":"5685","farm":6,"title":"Selenidera piperivora \/\/ Ara\u00e7ari-negro \/\/ Guianan toucanet","ispublic":1,"isfriend":0,"isfamily":0},{"id":"20463754522","owner":"130467767@N03","secret":"313e08010b","server":"534","farm":1,"title":"Toucanet koulik - Selenidera piperivora","ispublic":1,"isfriend":0,"isfamily":0},{"id":"20449502475","owner":"46788536@N05","secret":"20cc79f206","server":"518","farm":1,"title":"Selenidera piperivora \/\/Ara\u00e7ari-negro \/\/  Guianan toucanet","ispublic":1,"isfriend":0,"isfamily":0},{"id":"14564530224","owner":"125057668@N02","secret":"a32055cf31","server":"2899","farm":3,"title":"Toucanet koulik (Selenidera piperivora)*","ispublic":1,"isfriend":0,"isfamily":0},{"id":"14242085350","owner":"64209314@N08","secret":"b395b9debc","server":"3882","farm":4,"title":"Toucanet koulik Selenidera piperivora - Guianan Toucanet","ispublic":1,"isfriend":0,"isfamily":0},{"id":"9908933813","owner":"61859566@N04","secret":"bf5ace9073","server":"2815","farm":3,"title":"Selenidera piperivora","ispublic":1,"isfriend":0,"isfamily":0},{"id":"6563887977","owner":"11213979@N04","secret":"a27f54436c","server":"7143","farm":8,"title":"Selenidera piperivora - ara\u00e7ari-negro","ispublic":1,"isfriend":0,"isfamily":0}]},"stat":"ok"}