{"photos":{"page":1,"pages":18,"perpage":100,"total":1794,"photo":[{"id":"52721503594","owner":"77128742@N06","secret":"f58ff9084a","server":"65535","farm":66,"title":"Lachseeschwalbe_Gelochelidon nilotica-25","ispublic":1,"isfriend":0,"isfamily":0},{"id":"52721727413","owner":"77128742@N06","secret":"a71486cd9e","server":"65535","farm":66,"title":"Lachseeschwalbe_Gelochelidon nilotica-26","ispublic":1,"isfriend":0,"isfamily":0},{"id":"52715368565","owner":"28092414@N03","secret":"c9830f4775","server":"65535","farm":66,"title":"Gull-billed Tern at Salalah S24A0616","ispublic":1,"isfriend":0,"isfamily":0},{"id":"52714945846","owner":"28092414@N03","secret":"ab3040999d","server":"65535","farm":66,"title":"Gull-billed Tern at Salalah S24A0621","ispublic":1,"isfriend":0,"isfamily":0},{"id":"52714424167","owner":"28092414@N03","secret":"171e961ede","server":"65535","farm":66,"title":"Gull-billed Tern at Salalah S24A0622","ispublic":1,"isfriend":0,"isfamily":0},{"id":"52683273865","owner":"95482238@N02","secret":"6c89dea7a9","server":"65535","farm":66,"title":"gull-billed tern (Gelochelidon nilotica), at Cuttaburra Crossing (water hole) on the Eyre Creek, South of Bedourie, SW Queensland, Australia","ispublic":1,"isfriend":0,"isfamily":0},{"id":"52683126724","owner":"95482238@N02","secret":"ff93e4d15d","server":"65535","farm":66,"title":"gull-billed tern (Gelochelidon nilotica), at Cuttaburra Crossing (water hole) on the Eyre Creek, South of Bedourie, SW Queensland, Australia","ispublic":1,"isfriend":0,"isfamily":0},{"id":"52683273620","owner":"95482238@N02","secret":"6ca2c82f24","server":"65535","farm":66,"title":"gull-billed tern (Gelochelidon nilotica), at Cuttaburra Crossing (water hole) on the Eyre Creek, South of Bedourie, SW Queensland, Australia","ispublic":1,"isfriend":0,"isfamily":0},{"id":"52678907066","owner":"191391950@N02","secret":"ed161e22a2","server":"65535","farm":66,"title":"Sterne hansel - Gelochelidon nilotica","ispublic":1,"isfriend":0,"isfamily":0},{"id":"52664031103","owner":"39177293@N03","secret":"c124f2acfc","server":"65535","farm":66,"title":"Gull-billed Tern","ispublic":1,"isfriend":0,"isfamily":0},{"id":"52661996510","owner":"114700825@N07","secret":"94fdf58391","server":"65535","farm":66,"title":"078.5 Lachstern","ispublic":1,"isfriend":0,"isfamily":0},{"id":"52657951077","owner":"129125399@N04","secret":"9485c3b2e2","server":"65535","farm":66,"title":"Gull-billed Tern, Winter Plumage (Gelochelidon nilotica)","ispublic":1,"isfriend":0,"isfamily":0},{"id":"52641882770","owner":"76009930@N07","secret":"a4053cc68d","server":"65535","farm":66,"title":"DSC04273","ispublic":1,"isfriend":0,"isfamily":0},{"id":"52633648901","owner":"191391950@N02","secret":"648f43a9de","server":"65535","farm":66,"title":"Sterne hansel - Gelochelidon nilotica","ispublic":1,"isfriend":0,"isfamily":0},{"id":"52632763711","owner":"129125399@N04","secret":"0d66ac1fd5","server":"65535","farm":66,"title":"Gull-billed Tern, Winter Plumage (Gelochelidon nilotica)","ispublic":1,"isfriend":0,"isfamily":0},{"id":"52632031102","owner":"76009930@N07","secret":"76219ef3e3","server":"65535","farm":66,"title":"DSC08839_openWith","ispublic":1,"isfriend":0,"isfamily":0},{"id":"52626293693","owner":"101227797@N03","secret":"d54f4446e9","server":"65535","farm":66,"title":"Gull-billed Tern","ispublic":1,"isfriend":0,"isfamily":0},{"id":"52595359407","owner":"57465751@N05","secret":"21ce0ac6c9","server":"65535","farm":66,"title":"Gull-billed Terns (Gelochelidon nilotica), Ngorongoro Conservation Area, Tanzania","ispublic":1,"isfriend":0,"isfamily":0},{"id":"52580305491","owner":"153973412@N04","secret":"2f73792f89","server":"65535","farm":66,"title":"Gull-billed Tern-Gelochelidon nilotica, South Padre Island, TX","ispublic":1,"isfriend":0,"isfamily":0},{"id":"52575201392","owner":"32674493@N04","secret":"6ff839fc82","server":"65535","farm":66,"title":"Trinta-r\u00e9is-de-bico-preto (Gelochelidon nilotica groenvoldi)","ispublic":1,"isfriend":0,"isfamily":0},{"id":"52462253121","owner":"12639178@N07","secret":"7d0e6c3069","server":"65535","farm":66,"title":"Lachseeschwalbe","ispublic":1,"isfriend":0,"isfamily":0},{"id":"52462522824","owner":"12639178@N07","secret":"28045d4373","server":"65535","farm":66,"title":"Lachseeschwalbe","ispublic":1,"isfriend":0,"isfamily":0},{"id":"52461737852","owner":"12639178@N07","secret":"426e3e2353","server":"65535","farm":66,"title":"Lachseeschwalbe","ispublic":1,"isfriend":0,"isfamily":0},{"id":"52412312007","owner":"92374457@N07","secret":"d791db9a54","server":"65535","farm":66,"title":"gull-billed tern (Gelochelidon nilotica)","ispublic":1,"isfriend":0,"isfamily":0},{"id":"52398454096","owner":"126558841@N07","secret":"2a84620c46","server":"65535","farm":66,"title":"Gull-billed tern (Gelochelidon nilotica)","ispublic":1,"isfriend":0,"isfamily":0},{"id":"52398949848","owner":"126558841@N07","secret":"f53ce83638","server":"65535","farm":66,"title":"Gull-billed tern (Gelochelidon nilotica)","ispublic":1,"isfriend":0,"isfamily":0},{"id":"52397943232","owner":"126558841@N07","secret":"86e967759d","server":"65535","farm":66,"title":"Gull-billed tern (Gelochelidon nilotica)","ispublic":1,"isfriend":0,"isfamily":0},{"id":"52397636061","owner":"21632907@N03","secret":"dc383775a1","server":"65535","farm":66,"title":"Sterne hansel","ispublic":1,"isfriend":0,"isfamily":0},{"id":"52346747011","owner":"13861029@N00","secret":"54293ebde4","server":"65535","farm":66,"title":"Gull-billed Tern","ispublic":1,"isfriend":0,"isfamily":0},{"id":"52310035758","owner":"120449047@N06","secret":"83b6c2fe62","server":"65535","farm":66,"title":"Gull-billed Tern","ispublic":1,"isfriend":0,"isfamily":0},{"id":"52295741647","owner":"43677156@N04","secret":"d89eb8d9b3","server":"65535","farm":66,"title":"Lachstern voert juveniel (Gelochelidon nilotica)","ispublic":1,"isfriend":0,"isfamily":0},{"id":"52295740782","owner":"43677156@N04","secret":"e7bbd7b336","server":"65535","farm":66,"title":"Lachstern met juveniel (Gelochelidon nilotica)","ispublic":1,"isfriend":0,"isfamily":0},{"id":"52285718516","owner":"12639178@N07","secret":"43546f146f","server":"65535","farm":66,"title":"Lachseeschwalbe, 220807","ispublic":1,"isfriend":0,"isfamily":0},{"id":"52284856989","owner":"181746748@N05","secret":"880bb0aa4a","server":"65535","farm":66,"title":"Sterne hansel","ispublic":1,"isfriend":0,"isfamily":0},{"id":"52272797200","owner":"181746748@N05","secret":"27aed439b8","server":"65535","farm":66,"title":"Sterne hansel","ispublic":1,"isfriend":0,"isfamily":0},{"id":"52242556654","owner":"89982680@N08","secret":"d20c33e6f8","server":"65535","farm":66,"title":"Gull-billed Tern","ispublic":1,"isfriend":0,"isfamily":0},{"id":"52232674445","owner":"12240837@N08","secret":"7bb588d9ae","server":"65535","farm":66,"title":"Gull-billed Tern (gelochelidon nilotica)","ispublic":1,"isfriend":0,"isfamily":0},{"id":"52232192321","owner":"12240837@N08","secret":"9c08684bed","server":"65535","farm":66,"title":"Gull-billed Tern (gelochelidon nilotica)","ispublic":1,"isfriend":0,"isfamily":0},{"id":"52230685464","owner":"54546220@N00","secret":"15b0f6b73f","server":"65535","farm":66,"title":"Charr\u00e1n Piquigrueso, Gull-billed Tern (Gelochelidon nilotica )","ispublic":1,"isfriend":0,"isfamily":0},{"id":"52230682949","owner":"54546220@N00","secret":"744fd83e2f","server":"65535","farm":66,"title":"Charr\u00e1n Piquigrueso, Gull-billed Tern (Gelochelidon nilotica )","ispublic":1,"isfriend":0,"isfamily":0},{"id":"52229495690","owner":"135315828@N06","secret":"eccaf10f5b","server":"65535","farm":66,"title":"gull-billed tern","ispublic":1,"isfriend":0,"isfamily":0},{"id":"52229286014","owner":"135315828@N06","secret":"cc55177496","server":"65535","farm":66,"title":"gull-billed tern","ispublic":1,"isfriend":0,"isfamily":0},{"id":"52229015291","owner":"135315828@N06","secret":"1e3da29ee0","server":"65535","farm":66,"title":"gull-billed tern","ispublic":1,"isfriend":0,"isfamily":0},{"id":"52226239578","owner":"35929039@N07","secret":"a7b2166c44","server":"65535","farm":66,"title":"Gull-billed Tern (Gelochelidon nilotica)","ispublic":1,"isfriend":0,"isfamily":0},{"id":"52223383047","owner":"128657933@N03","secret":"8294608cfb","server":"65535","farm":66,"title":"Sterne hansel .Gelochelidon nilotica - Gull-billed Tern","ispublic":1,"isfriend":0,"isfamily":0},{"id":"52215753690","owner":"12639178@N07","secret":"d6af6452a5","server":"65535","farm":66,"title":"Lachseeschwalbe","ispublic":1,"isfriend":0,"isfamily":0},{"id":"52210608376","owner":"21558080@N07","secret":"f228723a44","server":"65535","farm":66,"title":"Gull-billed Tern (Gelochelidon nilotica)","ispublic":1,"isfriend":0,"isfamily":0},{"id":"52202875758","owner":"32674493@N04","secret":"2ff8a5445f","server":"65535","farm":66,"title":"Trinta-r\u00e9is-de-bico-preto (Gelochelidon nilotica groenvoldi)","ispublic":1,"isfriend":0,"isfamily":0},{"id":"52186813023","owner":"21632907@N03","secret":"80026122ca","server":"65535","farm":66,"title":"Plan\u00e9","ispublic":1,"isfriend":0,"isfamily":0},{"id":"52186135269","owner":"51926183@N07","secret":"40a1f0a2ba","server":"65535","farm":66,"title":"Sterne hansel","ispublic":1,"isfriend":0,"isfamily":0},{"id":"52146074087","owner":"90408688@N02","secret":"a9d6d70292","server":"65535","farm":66,"title":"Gelochelidon nilotica - Australian Gull-billed Tern","ispublic":1,"isfriend":0,"isfamily":0},{"id":"52138553921","owner":"156890474@N05","secret":"902143981e","server":"65535","farm":66,"title":"Lachseeschwalbe \/ Gull-billed Tern \/ Sandterne \/ Gelochelidon nilotica","ispublic":1,"isfriend":0,"isfamily":0},{"id":"52138787624","owner":"156890474@N05","secret":"ff8dc03563","server":"65535","farm":66,"title":"Lachseeschwalbe \/ Gull-billed Tern \/ Sandterne \/ Gelochelidon nilotica","ispublic":1,"isfriend":0,"isfamily":0},{"id":"52701327684","owner":"128578170@N06","secret":"8344cc51ba","server":"65535","farm":66,"title":"Gull-billed Tern Gelochelidon n. nilotica","ispublic":1,"isfriend":0,"isfamily":0},{"id":"52701563833","owner":"128578170@N06","secret":"745f03edd0","server":"65535","farm":66,"title":"Gull-billed Tern Gelochelidon n. nilotica","ispublic":1,"isfriend":0,"isfamily":0},{"id":"52689756384","owner":"65609388@N07","secret":"ee75ffed2b","server":"65535","farm":66,"title":"tern Gull-billed Tern Gelochelidon nilotica Lachstern  (2)  8-2","ispublic":1,"isfriend":0,"isfamily":0},{"id":"52591456802","owner":"186211059@N06","secret":"87c1519324","server":"65535","farm":66,"title":"Gull-billed Tern","ispublic":1,"isfriend":0,"isfamily":0},{"id":"52396526894","owner":"183840266@N08","secret":"0bd1160c7b","server":"65535","farm":66,"title":"Common Gull-billed Tern (Gelochelidon nilotica affinis)","ispublic":1,"isfriend":0,"isfamily":0},{"id":"52396228466","owner":"183840266@N08","secret":"70884b42ca","server":"65535","farm":66,"title":"Common Gull-billed Tern (Gelochelidon nilotica affinis)","ispublic":1,"isfriend":0,"isfamily":0},{"id":"52396526739","owner":"183840266@N08","secret":"053589de21","server":"65535","farm":66,"title":"Common Gull-billed Tern (Gelochelidon nilotica affinis)","ispublic":1,"isfriend":0,"isfamily":0},{"id":"52396665340","owner":"183840266@N08","secret":"3396c5f270","server":"65535","farm":66,"title":"Common Gull-billed Tern (Gelochelidon nilotica affinis)","ispublic":1,"isfriend":0,"isfamily":0},{"id":"52396228336","owner":"183840266@N08","secret":"bfd3fc8eb9","server":"65535","farm":66,"title":"Common Gull-billed Tern (Gelochelidon nilotica affinis)","ispublic":1,"isfriend":0,"isfamily":0},{"id":"52355509878","owner":"128578170@N06","secret":"fc3ecdc6e2","server":"65535","farm":66,"title":"Gull-billed Tern Gelochelidon n. nilotica","ispublic":1,"isfriend":0,"isfamily":0},{"id":"52355509843","owner":"128578170@N06","secret":"88b441dbff","server":"65535","farm":66,"title":"Gull-billed Tern Gelochelidon n. nilotica","ispublic":1,"isfriend":0,"isfamily":0},{"id":"52355509858","owner":"128578170@N06","secret":"c897536825","server":"65535","farm":66,"title":"Gull-billed Tern Gelochelidon n. nilotica","ispublic":1,"isfriend":0,"isfamily":0},{"id":"52355268546","owner":"128578170@N06","secret":"b7cbea5827","server":"65535","farm":66,"title":"Gull-billed Tern Gelochelidon n. nilotica","ispublic":1,"isfriend":0,"isfamily":0},{"id":"52339088763","owner":"196408693@N03","secret":"ed00b5293f","server":"65535","farm":66,"title":"Gelochelidon nilotica","ispublic":1,"isfriend":0,"isfamily":0},{"id":"52339280440","owner":"196408693@N03","secret":"3e2d225a3d","server":"65535","farm":66,"title":"Gelochelidon nilotica","ispublic":1,"isfriend":0,"isfamily":0},{"id":"52339155729","owner":"196408693@N03","secret":"cfb64e883b","server":"65535","farm":66,"title":"Gelochelidon nilotica","ispublic":1,"isfriend":0,"isfamily":0},{"id":"52339088738","owner":"196408693@N03","secret":"a7c67b6cb0","server":"65535","farm":66,"title":"Gelochelidon nilotica","ispublic":1,"isfriend":0,"isfamily":0},{"id":"52339155709","owner":"196408693@N03","secret":"f9b694b884","server":"65535","farm":66,"title":"Gelochelidon nilotica","ispublic":1,"isfriend":0,"isfamily":0},{"id":"52339280420","owner":"196408693@N03","secret":"845ccf28f6","server":"65535","farm":66,"title":"Gelochelidon nilotica","ispublic":1,"isfriend":0,"isfamily":0},{"id":"52337896577","owner":"196408693@N03","secret":"74f0436e93","server":"65535","farm":66,"title":"Gelochelidon nilotica","ispublic":1,"isfriend":0,"isfamily":0},{"id":"52339088693","owner":"196408693@N03","secret":"04c8a86e4f","server":"65535","farm":66,"title":"Gelochelidon nilotica","ispublic":1,"isfriend":0,"isfamily":0},{"id":"52307540571","owner":"93882360@N07","secret":"e13cbf5ca6","server":"65535","farm":66,"title":"Gull-billed tern (Gelochelidon nilotica) in flight Vadu","ispublic":1,"isfriend":0,"isfamily":0},{"id":"52247923003","owner":"79722430@N04","secret":"ff6626f2c8","server":"65535","farm":66,"title":"Gull-billed tern (Gelochelidon nilotica)","ispublic":1,"isfriend":0,"isfamily":0},{"id":"52246937687","owner":"79722430@N04","secret":"169a9b3e80","server":"65535","farm":66,"title":"Gull-billed tern (Gelochelidon nilotica)","ispublic":1,"isfriend":0,"isfamily":0},{"id":"52246937662","owner":"79722430@N04","secret":"afe65f9b5c","server":"65535","farm":66,"title":"Gull-billed tern (Gelochelidon nilotica)","ispublic":1,"isfriend":0,"isfamily":0},{"id":"52248194784","owner":"79722430@N04","secret":"ed7a2986cc","server":"65535","farm":66,"title":"Gull-billed tern (Gelochelidon nilotica)","ispublic":1,"isfriend":0,"isfamily":0},{"id":"52247890226","owner":"79722430@N04","secret":"c1df3a4aa5","server":"65535","farm":66,"title":"Gull-billed tern (Gelochelidon nilotica)","ispublic":1,"isfriend":0,"isfamily":0},{"id":"52246919812","owner":"79722430@N04","secret":"c87a8a1619","server":"65535","farm":66,"title":"Gull-billed tern (Gelochelidon nilotica)","ispublic":1,"isfriend":0,"isfamily":0},{"id":"52248176809","owner":"79722430@N04","secret":"348ac4d21a","server":"65535","farm":66,"title":"Gull-billed tern (Gelochelidon nilotica)","ispublic":1,"isfriend":0,"isfamily":0},{"id":"52248164314","owner":"79722430@N04","secret":"bce476e023","server":"65535","farm":66,"title":"Gull-billed tern (Gelochelidon nilotica)","ispublic":1,"isfriend":0,"isfamily":0},{"id":"52247877516","owner":"79722430@N04","secret":"88be195e04","server":"65535","farm":66,"title":"Gull-billed tern (Gelochelidon nilotica)","ispublic":1,"isfriend":0,"isfamily":0},{"id":"52248164294","owner":"79722430@N04","secret":"f99693ff95","server":"65535","farm":66,"title":"Gull-billed tern (Gelochelidon nilotica)","ispublic":1,"isfriend":0,"isfamily":0},{"id":"52247892738","owner":"79722430@N04","secret":"19e3610dda","server":"65535","farm":66,"title":"Gull-billed tern (Gelochelidon nilotica)","ispublic":1,"isfriend":0,"isfamily":0},{"id":"52248377390","owner":"79722430@N04","secret":"a99a1c6797","server":"65535","farm":66,"title":"Gull-billed tern (Gelochelidon nilotica)","ispublic":1,"isfriend":0,"isfamily":0},{"id":"52248377410","owner":"79722430@N04","secret":"7d6dd577d6","server":"65535","farm":66,"title":"Gull-billed tern (Gelochelidon nilotica)","ispublic":1,"isfriend":0,"isfamily":0},{"id":"52247877426","owner":"79722430@N04","secret":"83ba80364d","server":"65535","farm":66,"title":"Gull-billed tern (Gelochelidon nilotica)","ispublic":1,"isfriend":0,"isfamily":0},{"id":"52248164229","owner":"79722430@N04","secret":"6f4f9a3a75","server":"65535","farm":66,"title":"Gull-billed tern (Gelochelidon nilotica)","ispublic":1,"isfriend":0,"isfamily":0},{"id":"52247892618","owner":"79722430@N04","secret":"cb5faf9446","server":"65535","farm":66,"title":"Gull-billed tern (Gelochelidon nilotica)","ispublic":1,"isfriend":0,"isfamily":0},{"id":"52230895565","owner":"54546220@N00","secret":"fd38bd0d08","server":"65535","farm":66,"title":"Charr\u00e1n Piquigrueso, Gull-billed Tern (Gelochelidon nilotica )","ispublic":1,"isfriend":0,"isfamily":0},{"id":"52226501719","owner":"35929039@N07","secret":"b57646e913","server":"65535","farm":66,"title":"Gull-billed Tern (Gelochelidon nilotica)","ispublic":1,"isfriend":0,"isfamily":0},{"id":"52216181717","owner":"132508209@N08","secret":"f8e988e26c","server":"65535","farm":66,"title":"Gull-billed Tern (Gelochelidon nilotica)","ispublic":1,"isfriend":0,"isfamily":0},{"id":"52217190346","owner":"132508209@N08","secret":"2e65e33820","server":"65535","farm":66,"title":"Gull-billed Tern (Gelochelidon nilotica)","ispublic":1,"isfriend":0,"isfamily":0},{"id":"52187117448","owner":"56930596@N02","secret":"78d8dbda69","server":"65535","farm":66,"title":"Curroc (Gelochelidon nilotica)","ispublic":1,"isfriend":0,"isfamily":0},{"id":"52187590095","owner":"56930596@N02","secret":"9ee6f5ab1a","server":"65535","farm":66,"title":"Curroc (Gelochelidon nilotica)","ispublic":1,"isfriend":0,"isfamily":0},{"id":"52186553625","owner":"195072817@N07","secret":"5e6653a2b0","server":"65535","farm":66,"title":"Sterne hansel","ispublic":1,"isfriend":0,"isfamily":0},{"id":"52153281146","owner":"12639178@N07","secret":"7211b14c51","server":"65535","farm":66,"title":"Lachseeschwalbe (Gelochelidon nilotica) (Belegfoto)","ispublic":1,"isfriend":0,"isfamily":0},{"id":"52129197007","owner":"193264646@N06","secret":"f8e9bf44a7","server":"65535","farm":66,"title":"Sandwich tern","ispublic":1,"isfriend":0,"isfamily":0}]},"stat":"ok"}