{"photos":{"page":1,"pages":2,"perpage":100,"total":162,"photo":[{"id":"52456695027","owner":"90764954@N07","secret":"266bc8b653","server":"65535","farm":66,"title":"Hairy-backed bulbul (Tricholestes criniger) \u4e1d\u80cc\u9e4e","ispublic":1,"isfriend":0,"isfamily":0},{"id":"50897447943","owner":"28786551@N04","secret":"78f5dcab10","server":"65535","farm":66,"title":"Hairy-backed Bulbul","ispublic":1,"isfriend":0,"isfamily":0},{"id":"50779474856","owner":"145183414@N05","secret":"88fc9a542d","server":"65535","farm":66,"title":"Hairy-backed Bulbul - Tricholestes criniger","ispublic":1,"isfriend":0,"isfamily":0},{"id":"50545943367","owner":"149764685@N06","secret":"8f866da0d7","server":"65535","farm":66,"title":"_DSC9640_edited","ispublic":1,"isfriend":0,"isfamily":0},{"id":"50545802281","owner":"149764685@N06","secret":"e67627d11c","server":"65535","farm":66,"title":"_DSC9263_edited","ispublic":1,"isfriend":0,"isfamily":0},{"id":"50539265948","owner":"61485851@N06","secret":"41d9be93e7","server":"65535","farm":66,"title":"Hairy-backed bulbul","ispublic":1,"isfriend":0,"isfamily":0},{"id":"50308563962","owner":"61485851@N06","secret":"0b02f88b38","server":"65535","farm":66,"title":"Hairy-backed bulbul","ispublic":1,"isfriend":0,"isfamily":0},{"id":"50289688908","owner":"77600294@N07","secret":"49b09b53e4","server":"65535","farm":66,"title":"Tricholestes criniger viridis \u7d72\u80cc\u9d6f","ispublic":1,"isfriend":0,"isfamily":0},{"id":"50058452217","owner":"61485851@N06","secret":"2cba2e040a","server":"65535","farm":66,"title":"Hairy-backed bulbul","ispublic":1,"isfriend":0,"isfamily":0},{"id":"50058428917","owner":"61485851@N06","secret":"e1041539ec","server":"65535","farm":66,"title":"Hairy-backed bulbul","ispublic":1,"isfriend":0,"isfamily":0},{"id":"50058396052","owner":"61485851@N06","secret":"627c092dd6","server":"65535","farm":66,"title":"Hairy-backed bulbul","ispublic":1,"isfriend":0,"isfamily":0},{"id":"50056549978","owner":"61485851@N06","secret":"1325c5dec3","server":"65535","farm":66,"title":"Hairy-backed bulbul","ispublic":1,"isfriend":0,"isfamily":0},{"id":"50053219433","owner":"61485851@N06","secret":"76d1c13e12","server":"65535","farm":66,"title":"Hairy-backed bulbul","ispublic":1,"isfriend":0,"isfamily":0},{"id":"50052505776","owner":"21155756@N07","secret":"329450062b","server":"65535","farm":66,"title":"Hairy-backed bulbul","ispublic":1,"isfriend":0,"isfamily":0},{"id":"49986763213","owner":"99668973@N03","secret":"1a3b14c2af","server":"65535","farm":66,"title":"Hairy-backed Bulbul (Tricholestes criniger)","ispublic":1,"isfriend":0,"isfamily":0},{"id":"49212164002","owner":"61485851@N06","secret":"bb67e59061","server":"65535","farm":66,"title":"Hairy-backed bulbul","ispublic":1,"isfriend":0,"isfamily":0},{"id":"49160073761","owner":"61485851@N06","secret":"77be3e369b","server":"65535","farm":66,"title":"Hairy-backed bulbul (Lifer #20)","ispublic":1,"isfriend":0,"isfamily":0},{"id":"49114470387","owner":"7200351@N08","secret":"dbd254b260","server":"65535","farm":66,"title":"Tricholestes criniger criniger","ispublic":1,"isfriend":0,"isfamily":0},{"id":"48811452643","owner":"57465751@N05","secret":"f83d89f2bc","server":"65535","farm":66,"title":"Hairy-backed Bulbul (Tricholestes criniger), Bukit Tapan-Muara Sako Road, Sumatra, Indonesia","ispublic":1,"isfriend":0,"isfamily":0},{"id":"48403969146","owner":"98682992@N00","secret":"1857177582","server":"65535","farm":66,"title":"HKOH6417","ispublic":1,"isfriend":0,"isfamily":0},{"id":"48268974506","owner":"39066307@N03","secret":"ef76e64d85","server":"65535","farm":66,"title":"Hairy-backed Bulbul","ispublic":1,"isfriend":0,"isfamily":0},{"id":"48118302678","owner":"90764954@N07","secret":"a0d52b78f1","server":"65535","farm":66,"title":"Hairy-backed bulbul (Tricholestes criniger) \u4e1d\u80cc\u9e4e","ispublic":1,"isfriend":0,"isfamily":0},{"id":"47948611541","owner":"181679466@N08","secret":"4bae6d45fb","server":"65535","farm":66,"title":"HAIRY-BACKED BULBUL","ispublic":1,"isfriend":0,"isfamily":0},{"id":"47788760942","owner":"7200351@N08","secret":"437985aa71","server":"65535","farm":66,"title":"Tricholestes criniger criniger","ispublic":1,"isfriend":0,"isfamily":0},{"id":"32314503817","owner":"32136583@N04","secret":"8be4c8c189","server":"7801","farm":8,"title":"Hairy Backed Bulbul","ispublic":1,"isfriend":0,"isfamily":0},{"id":"44552927880","owner":"9638954@N07","secret":"ef49e04ac4","server":"4854","farm":5,"title":"Hairy-backed Bulbul adult and juvenile","ispublic":1,"isfriend":0,"isfamily":0},{"id":"28674752187","owner":"90764954@N07","secret":"e78bae81ac","server":"862","farm":1,"title":"Hairy-backed bulbul (Tricholestes criniger) \u4e1d\u80cc\u9e4e","ispublic":1,"isfriend":0,"isfamily":0},{"id":"43562194901","owner":"90764954@N07","secret":"078901c783","server":"847","farm":1,"title":"Hairy-backed bulbul (Tricholestes criniger) \u4e1d\u80cc\u9e4e","ispublic":1,"isfriend":0,"isfamily":0},{"id":"40152798821","owner":"56891930@N05","secret":"7f41660cce","server":"4614","farm":5,"title":"Hairy-backed Bulbul (Tricholestes criniger) \u4e1d\u80cc\u9e4e - Hutan Simpan Kekal Lenggor, Daerah Mersing \u4e30\u76db\u6e2f\u53bf, Johor \u67d4\u4f5b\u5dde, Malaysia \u9a6c\u6765\u897f\u4e9a","ispublic":1,"isfriend":0,"isfamily":0},{"id":"40073131041","owner":"39066307@N03","secret":"d077dd8c56","server":"4711","farm":5,"title":"Breakfast at... Tiffiny?","ispublic":1,"isfriend":0,"isfamily":0},{"id":"37613232555","owner":"51946063@N08","secret":"373feb03bd","server":"4557","farm":5,"title":"Hairy-backed Bulbul","ispublic":1,"isfriend":0,"isfamily":0},{"id":"37440987152","owner":"90764954@N07","secret":"feab714988","server":"4490","farm":5,"title":"Hairy-backed bulbul (Tricholestes criniger) \u4e1d\u80cc\u9e4e","ispublic":1,"isfriend":0,"isfamily":0},{"id":"37299405025","owner":"7200351@N08","secret":"3b57651a72","server":"4425","farm":5,"title":"Tricholestes criniger criniger","ispublic":1,"isfriend":0,"isfamily":0},{"id":"36854253296","owner":"132733308@N04","secret":"52f0f90bc1","server":"4433","farm":5,"title":"Hairy backed bulbul  (Tricholestes criniger)","ispublic":1,"isfriend":0,"isfamily":0},{"id":"36232335790","owner":"39066307@N03","secret":"957c1e7658","server":"4395","farm":5,"title":"Hairy-backed Bulbul","ispublic":1,"isfriend":0,"isfamily":0},{"id":"36232328220","owner":"39066307@N03","secret":"322f104893","server":"4414","farm":5,"title":"Hairy-backed Bulbul","ispublic":1,"isfriend":0,"isfamily":0},{"id":"33488163703","owner":"99632246@N00","secret":"04cdaa4b74","server":"4180","farm":5,"title":"HAIRY-BACKED BULBUL (Tricholestes criniger)  #bird #burung #photo #birdwatching #birdphotography #birding #wildbirds #birdfreaks #kings_birds #whatschirping #pocket_birds #your_best_birds #twerking_birds #allmightybirds #birdofmalaysia #exclusive_bird #an","ispublic":1,"isfriend":0,"isfamily":0},{"id":"33159581041","owner":"62119764@N08","secret":"7db10bb08c","server":"621","farm":1,"title":"Hairy-backed Bulbul | Tricholestes criniger | Merbah Bulu Tengkuk","ispublic":1,"isfriend":0,"isfamily":0},{"id":"32140513205","owner":"21155756@N07","secret":"ec16906025","server":"492","farm":1,"title":"Hairy backed bulbul. Merbah Bulu Tengkuk. Rengit Lanchang.","ispublic":1,"isfriend":0,"isfamily":0},{"id":"30790697265","owner":"7200351@N08","secret":"ea736d621a","server":"5820","farm":6,"title":"Tricholestes criniger criniger","ispublic":1,"isfriend":0,"isfamily":0},{"id":"50085518021","owner":"187469698@N05","secret":"01764fb02d","server":"65535","farm":66,"title":"810 Hairy-backed Bulbul - Andrew Walker 001","ispublic":1,"isfriend":0,"isfamily":0},{"id":"49729908481","owner":"99668973@N03","secret":"a048b61b6d","server":"65535","farm":66,"title":"Hairy-backed Bulbul (Tricholestes criniger)","ispublic":1,"isfriend":0,"isfamily":0},{"id":"49638297606","owner":"7200351@N08","secret":"538b57fbac","server":"65535","farm":66,"title":"Tricholestes criniger criniger","ispublic":1,"isfriend":0,"isfamily":0},{"id":"49114215068","owner":"7200351@N08","secret":"bdc4b33b2c","server":"65535","farm":66,"title":"Tricholestes criniger criniger","ispublic":1,"isfriend":0,"isfamily":0},{"id":"49114720916","owner":"7200351@N08","secret":"686d5f70f4","server":"65535","farm":66,"title":"Tricholestes criniger criniger","ispublic":1,"isfriend":0,"isfamily":0},{"id":"49069409193","owner":"8773601@N03","secret":"e58ae0eb2a","server":"65535","farm":66,"title":"PA110132  hairy-backed bulbul (Tricholestes criniger)","ispublic":1,"isfriend":0,"isfamily":0},{"id":"49048175312","owner":"64074416@N06","secret":"a1644b7926","server":"65535","farm":66,"title":"Hairy-backed Bulbul (Tricholestes criniger \u4e1d\u80cc\u9e4e)","ispublic":1,"isfriend":0,"isfamily":0},{"id":"49169062458","owner":"101709991@N06","secret":"62cf0ffc77","server":"65535","farm":66,"title":"Hairy-backed Bulbul - Tricholestes criniger, Way Kambas","ispublic":1,"isfriend":0,"isfamily":0},{"id":"49158751098","owner":"101709991@N06","secret":"4d344bc324","server":"65535","farm":66,"title":"Bukit Lawang, Hairy-backed Bulbul - Tricholestes criniger, Sumatra-2","ispublic":1,"isfriend":0,"isfamily":0},{"id":"48508850486","owner":"7200351@N08","secret":"0d286ea926","server":"65535","farm":66,"title":"Tricholestes criniger criniger","ispublic":1,"isfriend":0,"isfamily":0},{"id":"48508835121","owner":"7200351@N08","secret":"8a1ac35d9e","server":"65535","farm":66,"title":"Tricholestes criniger criniger","ispublic":1,"isfriend":0,"isfamily":0},{"id":"48422113956","owner":"7200351@N08","secret":"ef13dc6cd3","server":"65535","farm":66,"title":"Tricholestes criniger criniger","ispublic":1,"isfriend":0,"isfamily":0},{"id":"48268973926","owner":"39066307@N03","secret":"a653b96548","server":"65535","farm":66,"title":"Hairy-backed Bulbul","ispublic":1,"isfriend":0,"isfamily":0},{"id":"48269050057","owner":"39066307@N03","secret":"3efa4eceb7","server":"65535","farm":66,"title":"These are why I'm called Hairy","ispublic":1,"isfriend":0,"isfamily":0},{"id":"48118269681","owner":"90764954@N07","secret":"51e00d7077","server":"65535","farm":66,"title":"Hairy-backed bulbul (Tricholestes criniger) \u4e1d\u80cc\u9e4e","ispublic":1,"isfriend":0,"isfamily":0},{"id":"47979174018","owner":"7200351@N08","secret":"ff79aec8b2","server":"65535","farm":66,"title":"Tricholestes criniger criniger","ispublic":1,"isfriend":0,"isfamily":0},{"id":"47979175372","owner":"7200351@N08","secret":"c086fe22b1","server":"65535","farm":66,"title":"Tricholestes criniger criniger","ispublic":1,"isfriend":0,"isfamily":0},{"id":"40913720823","owner":"7200351@N08","secret":"5c54102fe4","server":"65535","farm":66,"title":"Tricholestes criniger criniger","ispublic":1,"isfriend":0,"isfamily":0},{"id":"40913720833","owner":"7200351@N08","secret":"ee35f77a98","server":"65535","farm":66,"title":"Tricholestes criniger criniger","ispublic":1,"isfriend":0,"isfamily":0},{"id":"32498060208","owner":"9638954@N07","secret":"beee235901","server":"4816","farm":5,"title":"Hairy-backed Bulbul adult and juvenile","ispublic":1,"isfriend":0,"isfamily":0},{"id":"46068468112","owner":"9638954@N07","secret":"ab447844f7","server":"4910","farm":5,"title":"Hairy-backed Bulbul","ispublic":1,"isfriend":0,"isfamily":0},{"id":"44607495804","owner":"7200351@N08","secret":"cb2d94b6ed","server":"1917","farm":2,"title":"Tricholestes criniger criniger","ispublic":1,"isfriend":0,"isfamily":0},{"id":"44417674445","owner":"7200351@N08","secret":"84a9827e1c","server":"1977","farm":2,"title":"Tricholestes criniger criniger","ispublic":1,"isfriend":0,"isfamily":0},{"id":"44617974211","owner":"166674724@N04","secret":"eaf84ac17f","server":"1868","farm":2,"title":"HAIRY-BACKED BULBUL Tricholestes criniger Adult criniger: Broad yellowish orbital area, breast mottled greyish-olive, vent yellow.  VOICE Scratchy chattering, warbles and quavering  whirrrh. High rising  whiiii.  HABITAT Broadleaved evergreen forest; up t","ispublic":1,"isfriend":0,"isfamily":0},{"id":"30468748048","owner":"46848480@N00","secret":"570b4f8e34","server":"1865","farm":2,"title":"20180818-0I7A9852","ispublic":1,"isfriend":0,"isfamily":0},{"id":"44335339691","owner":"46848480@N00","secret":"5783580aac","server":"1874","farm":2,"title":"20180818-0I7A9864","ispublic":1,"isfriend":0,"isfamily":0},{"id":"44270181731","owner":"46848480@N00","secret":"6e0f38e1e6","server":"1891","farm":2,"title":"20180818-0I7A9305","ispublic":1,"isfriend":0,"isfamily":0},{"id":"29334036617","owner":"46848480@N00","secret":"790d477d17","server":"1889","farm":2,"title":"20180818-0I7A9321","ispublic":1,"isfriend":0,"isfamily":0},{"id":"44221800882","owner":"46848480@N00","secret":"0ea566db89","server":"1889","farm":2,"title":"20180818-0I7A9320","ispublic":1,"isfriend":0,"isfamily":0},{"id":"44270180411","owner":"46848480@N00","secret":"46797bc1cd","server":"1859","farm":2,"title":"20180818-0I7A9330","ispublic":1,"isfriend":0,"isfamily":0},{"id":"44221796782","owner":"46848480@N00","secret":"f39f2c6291","server":"1846","farm":2,"title":"20180818-0I7A9339","ispublic":1,"isfriend":0,"isfamily":0},{"id":"29334034857","owner":"46848480@N00","secret":"987d52c126","server":"1893","farm":2,"title":"20180818-0I7A9334","ispublic":1,"isfriend":0,"isfamily":0},{"id":"43387427984","owner":"7200351@N08","secret":"97be091214","server":"1888","farm":2,"title":"Tricholestes criniger criniger","ispublic":1,"isfriend":0,"isfamily":0},{"id":"43346226284","owner":"7200351@N08","secret":"2fbdbee5c3","server":"1779","farm":2,"title":"Tricholestes criniger criniger","ispublic":1,"isfriend":0,"isfamily":0},{"id":"41880257840","owner":"105775153@N02","secret":"e4958fe99c","server":"848","farm":1,"title":"Hairy-backed Bulbul(Tricholestes criniger)","ispublic":1,"isfriend":0,"isfamily":0},{"id":"43515350652","owner":"90764954@N07","secret":"b15a63770a","server":"1769","farm":2,"title":"Hairy-backed bulbul (Tricholestes criniger) \u4e1d\u80cc\u9e4e","ispublic":1,"isfriend":0,"isfamily":0},{"id":"40434411022","owner":"133058108@N05","secret":"9c00fe4e14","server":"4702","farm":5,"title":"8.Hairy-backed Bulbul (Tricholestes criniger)","ispublic":1,"isfriend":0,"isfamily":0},{"id":"25332224057","owner":"133058108@N05","secret":"d3af3531e7","server":"4769","farm":5,"title":"8.Hairy-backed Bulbul (Tricholestes criniger)","ispublic":1,"isfriend":0,"isfamily":0},{"id":"26724031689","owner":"51946063@N08","secret":"6af7282fce","server":"4559","farm":5,"title":"Hairy-backed Bulbul","ispublic":1,"isfriend":0,"isfamily":0},{"id":"26724031249","owner":"51946063@N08","secret":"6bc45d9aac","server":"4516","farm":5,"title":"Hairy-backed Bulbul","ispublic":1,"isfriend":0,"isfamily":0},{"id":"23717462348","owner":"64074416@N06","secret":"52bc7103c1","server":"4511","farm":5,"title":"Hairy-backed Bulbul (Tricholestes criniger \u4e1d\u80cc\u9e4e)","ispublic":1,"isfriend":0,"isfamily":0},{"id":"37440992362","owner":"90764954@N07","secret":"c520c0375c","server":"4444","farm":5,"title":"Hairy-backed bulbul (Tricholestes criniger) \u4e1d\u80cc\u9e4e","ispublic":1,"isfriend":0,"isfamily":0},{"id":"37440992092","owner":"90764954@N07","secret":"9f6263f4c8","server":"4471","farm":5,"title":"Hairy-backed bulbul (Tricholestes criniger) \u4e1d\u80cc\u9e4e","ispublic":1,"isfriend":0,"isfamily":0},{"id":"37440989172","owner":"90764954@N07","secret":"51e290ddf6","server":"4483","farm":5,"title":"Hairy-backed bulbul (Tricholestes criniger) \u4e1d\u80cc\u9e4e","ispublic":1,"isfriend":0,"isfamily":0},{"id":"36802158143","owner":"90764954@N07","secret":"9ba851dd8f","server":"4451","farm":5,"title":"Hairy-backed bulbul (Tricholestes criniger) \u4e1d\u80cc\u9e4e","ispublic":1,"isfriend":0,"isfamily":0},{"id":"36802151893","owner":"90764954@N07","secret":"0cefb7fcba","server":"4511","farm":5,"title":"Hairy-backed bulbul (Tricholestes criniger) \u4e1d\u80cc\u9e4e","ispublic":1,"isfriend":0,"isfamily":0},{"id":"36802150563","owner":"90764954@N07","secret":"ee1ec04cdd","server":"4487","farm":5,"title":"Hairy-backed bulbul (Tricholestes criniger) \u4e1d\u80cc\u9e4e","ispublic":1,"isfriend":0,"isfamily":0},{"id":"37299403775","owner":"7200351@N08","secret":"8f7107a7db","server":"4407","farm":5,"title":"Tricholestes criniger criniger","ispublic":1,"isfriend":0,"isfamily":0},{"id":"36484814873","owner":"7200351@N08","secret":"c24531e36f","server":"4334","farm":5,"title":"Tricholestes criniger criniger","ispublic":1,"isfriend":0,"isfamily":0},{"id":"37299400415","owner":"7200351@N08","secret":"21af6b8f58","server":"4365","farm":5,"title":"Tricholestes criniger criniger","ispublic":1,"isfriend":0,"isfamily":0},{"id":"36233724080","owner":"80746425@N00","secret":"96a4274945","server":"4420","farm":5,"title":"Hairy-backed Bulbul - Tricholestes criniger viridis","ispublic":1,"isfriend":0,"isfamily":0},{"id":"36561258155","owner":"7200351@N08","secret":"7cf61f21fe","server":"4365","farm":5,"title":"Tricholestes criniger viridis","ispublic":1,"isfriend":0,"isfamily":0},{"id":"36561258065","owner":"7200351@N08","secret":"e1b6fc5663","server":"4337","farm":5,"title":"Tricholestes criniger viridis","ispublic":1,"isfriend":0,"isfamily":0},{"id":"36094800792","owner":"7200351@N08","secret":"d04b023ebe","server":"4300","farm":5,"title":"Tricholestes criniger criniger","ispublic":1,"isfriend":0,"isfamily":0},{"id":"35654742100","owner":"15959733@N07","secret":"eafbe28db5","server":"4302","farm":5,"title":"Hairy-backed Bulbul (Tricholestes criniger)","ispublic":1,"isfriend":0,"isfamily":0},{"id":"36044346475","owner":"15959733@N07","secret":"8de4172586","server":"4325","farm":5,"title":"Hairy-backed Bulbul (Tricholestes criniger)","ispublic":1,"isfriend":0,"isfamily":0},{"id":"34457401484","owner":"64074416@N06","secret":"cd5f4b950e","server":"4231","farm":5,"title":"Hairy-backed Bulbul (Tricholestes criniger)","ispublic":1,"isfriend":0,"isfamily":0},{"id":"34226383460","owner":"15959733@N07","secret":"6647f3c04f","server":"4190","farm":5,"title":"Hairy-backed Bulbul (Tricholestes criniger)","ispublic":1,"isfriend":0,"isfamily":0},{"id":"32611059331","owner":"133058108@N05","secret":"50bd0ddd87","server":"618","farm":1,"title":"8.Hairy-backed Bulbul (Tricholestes criniger)","ispublic":1,"isfriend":0,"isfamily":0},{"id":"31920082013","owner":"133058108@N05","secret":"a42225375d","server":"267","farm":1,"title":"8.Hairy-backed Bulbul (Tricholestes criniger)","ispublic":1,"isfriend":0,"isfamily":0}]},"stat":"ok"}