{"photos":{"page":1,"pages":29,"perpage":100,"total":2824,"photo":[{"id":"52721419710","owner":"12639178@N07","secret":"89901cf880","server":"65535","farm":66,"title":"Damara-Helmperlhuhn","ispublic":1,"isfriend":0,"isfamily":0},{"id":"52715634168","owner":"12639178@N07","secret":"50ce84b4be","server":"65535","farm":66,"title":"Scheue Perlh\u00fchner","ispublic":1,"isfriend":0,"isfamily":0},{"id":"52712692010","owner":"65695019@N07","secret":"b86e72cd9a","server":"65535","farm":66,"title":"Helmeted Guineafowl (Numida meleagris)","ispublic":1,"isfriend":0,"isfamily":0},{"id":"52705675818","owner":"65695019@N07","secret":"0d911f5ec4","server":"65535","farm":66,"title":"Helmeted Guineafowl (Numida meleagris) looking for crumbs ...","ispublic":1,"isfriend":0,"isfamily":0},{"id":"52696967825","owner":"12639178@N07","secret":"413b086dbd","server":"65535","farm":66,"title":"Perlh\u00fchner in einem kleinen Gehege","ispublic":1,"isfriend":0,"isfamily":0},{"id":"52683371466","owner":"140318147@N08","secret":"15ddca2099","server":"65535","farm":66,"title":"helmeted guineafowl (Numida meleagris) L4A6082","ispublic":1,"isfriend":0,"isfamily":0},{"id":"52683553325","owner":"140318147@N08","secret":"a2821f7d8e","server":"65535","farm":66,"title":"helmeted guineafowl (Numida meleagris) L4A0723","ispublic":1,"isfriend":0,"isfamily":0},{"id":"52677493834","owner":"123597211@N03","secret":"4a78ccb09e","server":"65535","farm":66,"title":"Helmperlhuhn (Numida meleagris)","ispublic":1,"isfriend":0,"isfamily":0},{"id":"52677704548","owner":"123597211@N03","secret":"9d258a4306","server":"65535","farm":66,"title":"Helmperlhuhn (Numida meleagris)","ispublic":1,"isfriend":0,"isfamily":0},{"id":"52677644295","owner":"123597211@N03","secret":"e00f498be6","server":"65535","farm":66,"title":"Helmperlhuhn (Numida meleagris)","ispublic":1,"isfriend":0,"isfamily":0},{"id":"52675457411","owner":"126782387@N02","secret":"4877cbe65f","server":"65535","farm":66,"title":"Swakopmund (Namibia)","ispublic":1,"isfriend":0,"isfamily":0},{"id":"52675289826","owner":"30722034@N02","secret":"5d2deabf1c","server":"65535","farm":66,"title":"Helmeted guineafowl\/Numida meleagris,   Les 5 Comm\u00e8res","ispublic":1,"isfriend":0,"isfamily":0},{"id":"52670647564","owner":"12639178@N07","secret":"e3f0617705","server":"65535","farm":66,"title":"Helmperlhuhn","ispublic":1,"isfriend":0,"isfamily":0},{"id":"52665780325","owner":"100458723@N06","secret":"2225f26d9f","server":"65535","farm":66,"title":"Guinea fowl (Numida meleagris) in Lynx vineyard","ispublic":1,"isfriend":0,"isfamily":0},{"id":"52652398748","owner":"43272765@N04","secret":"6e124475ae","server":"65535","farm":66,"title":"Helmeted Guinea Fowl (Numida meleagris) albinos","ispublic":1,"isfriend":0,"isfamily":0},{"id":"52632940115","owner":"12639178@N07","secret":"3ba21259b3","server":"65535","farm":66,"title":"Helmperlhuhn (Numida meleagris) (1)","ispublic":1,"isfriend":0,"isfamily":0},{"id":"52631985667","owner":"12639178@N07","secret":"1f4245cc1f","server":"65535","farm":66,"title":"Helmperlhuhn (Numida meleagris) (1)","ispublic":1,"isfriend":0,"isfamily":0},{"id":"52632942928","owner":"12639178@N07","secret":"57f576313e","server":"65535","farm":66,"title":"Helmperlhuhn (Numida meleagris) (1)","ispublic":1,"isfriend":0,"isfamily":0},{"id":"52616630167","owner":"26371261@N00","secret":"4ab9b1ce69","server":"0","farm":0,"title":"Helmeted Guineafowl, Numida meleagris","ispublic":1,"isfriend":0,"isfamily":0},{"id":"52617405899","owner":"26371261@N00","secret":"cab7fd039b","server":"65535","farm":66,"title":"Helmeted Guineafowl, Numida meleagris","ispublic":1,"isfriend":0,"isfamily":0},{"id":"52610553593","owner":"129593667@N03","secret":"92ef66c661","server":"65535","farm":66,"title":"Helmeted Guineafowl in Kruger NP","ispublic":1,"isfriend":0,"isfamily":0},{"id":"52607914572","owner":"197305834@N05","secret":"917fa9a3e6","server":"65535","farm":66,"title":"2022-08-18 18-09-13 - Lumix FZ2000 (Olivier) - P1050350","ispublic":1,"isfriend":0,"isfamily":0},{"id":"52607914177","owner":"197305834@N05","secret":"7ba12a4570","server":"65535","farm":66,"title":"P1050349","ispublic":1,"isfriend":0,"isfamily":0},{"id":"52603048550","owner":"50558891@N00","secret":"03eee8ef98","server":"65535","farm":66,"title":"Helmeted Guineafowl (Numida meleagris), Maasai Mara, Kenya","ispublic":1,"isfriend":0,"isfamily":0},{"id":"52600409248","owner":"77017456@N03","secret":"d7816bb717","server":"65535","farm":66,"title":"Helmeted Guineafowl (numida meleagris) digging in the dirt","ispublic":1,"isfriend":0,"isfamily":0},{"id":"52598328787","owner":"140413390@N06","secret":"4d0a8e9df2","server":"65535","farm":66,"title":"Gallineta africana Numida meleagris","ispublic":1,"isfriend":0,"isfamily":0},{"id":"52593284124","owner":"26371261@N00","secret":"a87cf773b6","server":"65535","farm":66,"title":"Helmeted Guineafowl, Numida meleagris","ispublic":1,"isfriend":0,"isfamily":0},{"id":"52581213480","owner":"26371261@N00","secret":"438123207c","server":"65535","farm":66,"title":"Helmeted Guineafowl, Numida meleagris","ispublic":1,"isfriend":0,"isfamily":0},{"id":"52581212190","owner":"26371261@N00","secret":"2d92f5632e","server":"65535","farm":66,"title":"Helmeted Guineafowl, Numida meleagris","ispublic":1,"isfriend":0,"isfamily":0},{"id":"52575136069","owner":"26371261@N00","secret":"749230720b","server":"65535","farm":66,"title":"Helmeted Guineafowl, Numida meleagris","ispublic":1,"isfriend":0,"isfamily":0},{"id":"52573998627","owner":"26371261@N00","secret":"d5056690f0","server":"65535","farm":66,"title":"Helmeted Guineafowl, Numida meleagris","ispublic":1,"isfriend":0,"isfamily":0},{"id":"52574742864","owner":"26371261@N00","secret":"c251243222","server":"65535","farm":66,"title":"Helmeted Guineafowl, Numida meleagris","ispublic":1,"isfriend":0,"isfamily":0},{"id":"52574467291","owner":"26371261@N00","secret":"2e9878b17d","server":"65535","farm":66,"title":"Helmeted Guineafowl, Numida meleagris","ispublic":1,"isfriend":0,"isfamily":0},{"id":"52548478586","owner":"26371261@N00","secret":"40fd55245f","server":"65535","farm":66,"title":"Helmeted Guineafowl, Numida meleagris","ispublic":1,"isfriend":0,"isfamily":0},{"id":"52516478956","owner":"26371261@N00","secret":"5c28bf262c","server":"65535","farm":66,"title":"Helmeted Guineafowl, Numida meleagris","ispublic":1,"isfriend":0,"isfamily":0},{"id":"52511439178","owner":"9563286@N03","secret":"221a9f2c99","server":"65535","farm":66,"title":"Numida meleagris, Fentress County, Tennessee 1","ispublic":1,"isfriend":0,"isfamily":0},{"id":"52510889291","owner":"9563286@N03","secret":"5f8fff1e8a","server":"65535","farm":66,"title":"Numida meleagris, Fentress County, Tennessee 2","ispublic":1,"isfriend":0,"isfamily":0},{"id":"52503780883","owner":"160471444@N05","secret":"4f08565f50","server":"65535","farm":66,"title":"Kruger National Park Sud Africa","ispublic":1,"isfriend":0,"isfamily":0},{"id":"52503705015","owner":"160471444@N05","secret":"b97f022696","server":"65535","farm":66,"title":"Kruger National Park Sud Africa","ispublic":1,"isfriend":0,"isfamily":0},{"id":"52502267597","owner":"96317376@N05","secret":"b7d5ccc9e9","server":"65535","farm":66,"title":"Helmeted Guineafowl Numida meleagris","ispublic":1,"isfriend":0,"isfamily":0},{"id":"52501909362","owner":"49895734@N05","secret":"2e1714e88b","server":"65535","farm":66,"title":"Helmeted-Guineafowl. Pintada Com\u00fan. Numida meleagris.","ispublic":1,"isfriend":0,"isfamily":0},{"id":"52488601573","owner":"78063402@N00","secret":"f9b5576e81","server":"65535","farm":66,"title":"The Influencer","ispublic":1,"isfriend":0,"isfamily":0},{"id":"52473127303","owner":"35419517@N04","secret":"23102999a8","server":"65535","farm":66,"title":"_DSC7615. Helmeted Guineafowl, portrait","ispublic":1,"isfriend":0,"isfamily":0},{"id":"52473127228","owner":"35419517@N04","secret":"baea44c261","server":"65535","farm":66,"title":"_DSC7638. Helmeted Guineafowl","ispublic":1,"isfriend":0,"isfamily":0},{"id":"52451429537","owner":"54249623@N08","secret":"d5556350bd","server":"65535","farm":66,"title":"Helmeted Guineafowl (Numida meleagris)","ispublic":1,"isfriend":0,"isfamily":0},{"id":"52409864815","owner":"23711298@N07","secret":"d473e67641","server":"65535","farm":66,"title":"Helmeted Guinea Fowl","ispublic":1,"isfriend":0,"isfamily":0},{"id":"52409702964","owner":"23711298@N07","secret":"439d21f6c1","server":"65535","farm":66,"title":"Helmeted Guinea Fowl, Minnesota, Sherburne County","ispublic":1,"isfriend":0,"isfamily":0},{"id":"52409859925","owner":"23711298@N07","secret":"8be65051d0","server":"65535","farm":66,"title":"Helmeted Guinea Fowl, Minnesota, Sherburne County","ispublic":1,"isfriend":0,"isfamily":0},{"id":"52404085023","owner":"24580998@N08","secret":"3989d2017f","server":"65535","farm":66,"title":"Numida meleagris reichenowi - Pintade de Reichenow (Pintade de Numidie ou Pintade commune ou Pintade mitr\u00e9e ou Pintade sauvage) - Reichenow's helmeted Guineafowl or Helmeted guineafowl  - 19\/09\/22","ispublic":1,"isfriend":0,"isfamily":0},{"id":"52392470198","owner":"12639178@N07","secret":"3fe18051c9","server":"65535","farm":66,"title":"Perlh\u00fchner","ispublic":1,"isfriend":0,"isfamily":0},{"id":"52387992786","owner":"126558841@N07","secret":"00ab0515f1","server":"65535","farm":66,"title":"Helmeted guineafowl (Numida meleagris)","ispublic":1,"isfriend":0,"isfamily":0},{"id":"52372011315","owner":"7200351@N08","secret":"e0ff61e986","server":"65535","farm":66,"title":"Numida meleagris coronatus","ispublic":1,"isfriend":0,"isfamily":0},{"id":"52372011265","owner":"7200351@N08","secret":"ab6e2e96fa","server":"65535","farm":66,"title":"Numida meleagris coronatus","ispublic":1,"isfriend":0,"isfamily":0},{"id":"52371902234","owner":"7200351@N08","secret":"9c86f88b09","server":"65535","farm":66,"title":"Numida meleagris coronatus","ispublic":1,"isfriend":0,"isfamily":0},{"id":"52371595586","owner":"7200351@N08","secret":"039a2e6e5a","server":"65535","farm":66,"title":"Numida meleagris coronatus","ispublic":1,"isfriend":0,"isfamily":0},{"id":"52368079066","owner":"61897811@N00","secret":"22834ba113","server":"65535","farm":66,"title":"Helmeted Guineafowl","ispublic":1,"isfriend":0,"isfamily":0},{"id":"52364901588","owner":"12639178@N07","secret":"c0c11b0ccb","server":"65535","farm":66,"title":"Helmperlhuhn, (Numida meleagris)","ispublic":1,"isfriend":0,"isfamily":0},{"id":"52363666428","owner":"7200351@N08","secret":"274582daec","server":"65535","farm":66,"title":"Numida meleagris coronatus","ispublic":1,"isfriend":0,"isfamily":0},{"id":"52341771199","owner":"123597211@N03","secret":"7b73a02532","server":"65535","farm":66,"title":"Helmperlhuhn (Numida meleagris)","ispublic":1,"isfriend":0,"isfamily":0},{"id":"52330878421","owner":"65695019@N07","secret":"7837661d63","server":"65535","farm":66,"title":"Helmeted Guineafowl (Numida meleagris) drinking ...","ispublic":1,"isfriend":0,"isfamily":0},{"id":"51985383752","owner":"65695019@N07","secret":"e68d39db80","server":"65535","farm":66,"title":"Helmeted Guineafowl (Numida meleagris)","ispublic":1,"isfriend":0,"isfamily":0},{"id":"51986940820","owner":"65695019@N07","secret":"3dd958f3b1","server":"65535","farm":66,"title":"Helmeted Guineafowl (Numida meleagris) immature ...","ispublic":1,"isfriend":0,"isfamily":0},{"id":"51986673569","owner":"65695019@N07","secret":"4ea001ca9f","server":"65535","farm":66,"title":"Helmeted Guineafowls (Numida meleagris) adult and immatures coming to drink ...","ispublic":1,"isfriend":0,"isfamily":0},{"id":"52331304640","owner":"65695019@N07","secret":"65e841b43c","server":"65535","farm":66,"title":"Helmeted Guineafowls (Numida meleagris) adult and immatures coming to drink ...","ispublic":1,"isfriend":0,"isfamily":0},{"id":"52331117143","owner":"65695019@N07","secret":"5f452b997a","server":"65535","farm":66,"title":"Helmeted Guineafowls (Numida meleagris) adult and immatures coming to drink ...","ispublic":1,"isfriend":0,"isfamily":0},{"id":"52327653446","owner":"23102943@N08","secret":"51da460ca7","server":"65535","farm":66,"title":"Helmperlhuhn (Numida meleagris)","ispublic":1,"isfriend":0,"isfamily":0},{"id":"52306767493","owner":"77017456@N03","secret":"09772537c2","server":"65535","farm":66,"title":"Helmeted Guineafowl (numida meleagris) on the road","ispublic":1,"isfriend":0,"isfamily":0},{"id":"52286617882","owner":"193691475@N05","secret":"d06cff5745","server":"65535","farm":66,"title":"20220802_065854_DSC_5936","ispublic":1,"isfriend":0,"isfamily":0},{"id":"52285418565","owner":"50558891@N00","secret":"e966d79a96","server":"65535","farm":66,"title":"Helmeted Guineafowl (numida meleagris)","ispublic":1,"isfriend":0,"isfamily":0},{"id":"52283805695","owner":"12639178@N07","secret":"613f21a90b","server":"65535","farm":66,"title":"Helmperlhuhn (Numida meleagris)","ispublic":1,"isfriend":0,"isfamily":0},{"id":"52268852384","owner":"61417065@N04","secret":"5cded30084","server":"65535","farm":66,"title":"Helmperlhuhn in der T\u00fcrkei (Numida meleagris)","ispublic":1,"isfriend":0,"isfamily":0},{"id":"52267907516","owner":"163527961@N07","secret":"81a67c239e","server":"65535","farm":66,"title":"Reichenow\u2019s Helmeted Guineafowl","ispublic":1,"isfriend":0,"isfamily":0},{"id":"52261218173","owner":"41039814@N08","secret":"d71b9540b9","server":"65535","farm":66,"title":"Beauty is in the eye of the beholder...","ispublic":1,"isfriend":0,"isfamily":0},{"id":"52254665932","owner":"123597211@N03","secret":"bcddd6fd41","server":"65535","farm":66,"title":"Helmperlhuhn (Numida meleagris)","ispublic":1,"isfriend":0,"isfamily":0},{"id":"52697038248","owner":"12639178@N07","secret":"7de5f38c3c","server":"65535","farm":66,"title":"Perlh\u00fchner","ispublic":1,"isfriend":0,"isfamily":0},{"id":"52607914692","owner":"197305834@N05","secret":"ba45e493b5","server":"65535","farm":66,"title":"2022-08-13 09-08-45 - Lumix FZ2000 (Olivier) - P1020515","ispublic":1,"isfriend":0,"isfamily":0},{"id":"52593542858","owner":"26371261@N00","secret":"6e9e04ac85","server":"65535","farm":66,"title":"Helmeted Guineafowl, Numida meleagris","ispublic":1,"isfriend":0,"isfamily":0},{"id":"52574857796","owner":"26371261@N00","secret":"76d70c98d7","server":"65535","farm":66,"title":"Helmeted Guineafowl, Numida meleagris","ispublic":1,"isfriend":0,"isfamily":0},{"id":"52489362932","owner":"77017456@N03","secret":"29671dfba2","server":"65535","farm":66,"title":"Helmeted Guineafowl (numida meleagris) perched up a tree","ispublic":1,"isfriend":0,"isfamily":0},{"id":"52489847056","owner":"77017456@N03","secret":"78a3c2cfce","server":"65535","farm":66,"title":"Helmeted Guineafowl (numida meleagris) feeding on seeds in the grass","ispublic":1,"isfriend":0,"isfamily":0},{"id":"52486570298","owner":"77017456@N03","secret":"f787d58492","server":"65535","farm":66,"title":"Helmeted Guineafowl (numida meleagris) feeding on seeds in the grass","ispublic":1,"isfriend":0,"isfamily":0},{"id":"52458413735","owner":"33060881@N04","secret":"0a626ca098","server":"65535","farm":66,"title":"Pamplona (Navarra)-Parque de La Taconera-8-Pintada com\u00fan o gallina de Guinea (Numida meleagris, Aves Galliformes Num\u00eddidas)","ispublic":1,"isfriend":0,"isfamily":0},{"id":"52458412585","owner":"33060881@N04","secret":"d038c98a3f","server":"65535","farm":66,"title":"Pamplona (Navarra)-Parque de La Taconera-9-Pintada com\u00fan o gallina de Guinea-Forma blanca (Numida meleagris, Aves Galliformes Num\u00eddidas)","ispublic":1,"isfriend":0,"isfamily":0},{"id":"52458412535","owner":"33060881@N04","secret":"1e80633df3","server":"65535","farm":66,"title":"Pamplona (Navarra)-Parque de La Taconera-10-Pintada com\u00fan o gallina de Guinea-Forma blanca (Numida meleagris, Aves Galliformes Num\u00eddidas)","ispublic":1,"isfriend":0,"isfamily":0},{"id":"52399103585","owner":"96111650@N07","secret":"c6b6f2c0c9","server":"65535","farm":66,"title":"IMG_3873-Helmeted Guineafowl (Numida Meleagris)","ispublic":1,"isfriend":0,"isfamily":0},{"id":"52398676611","owner":"96111650@N07","secret":"a7ace02df4","server":"65535","farm":66,"title":"IMG_3874-Helmeted Guineafowl (Numida Meleagris)","ispublic":1,"isfriend":0,"isfamily":0},{"id":"52371175558","owner":"7200351@N08","secret":"4d29ede01d","server":"65535","farm":66,"title":"Numida meleagris coronatus","ispublic":1,"isfriend":0,"isfamily":0},{"id":"52369440733","owner":"7200351@N08","secret":"f4d8720ec0","server":"65535","farm":66,"title":"Numida meleagris coronatus","ispublic":1,"isfriend":0,"isfamily":0},{"id":"52363434166","owner":"7200351@N08","secret":"5cf74798d8","server":"65535","farm":66,"title":"Numida meleagris coronatus","ispublic":1,"isfriend":0,"isfamily":0},{"id":"52356836307","owner":"7200351@N08","secret":"6cda07530b","server":"65535","farm":66,"title":"Numida meleagris coronatus","ispublic":1,"isfriend":0,"isfamily":0},{"id":"52357787176","owner":"7200351@N08","secret":"a00e52a83d","server":"65535","farm":66,"title":"Numida meleagris coronatus","ispublic":1,"isfriend":0,"isfamily":0},{"id":"52341814499","owner":"123597211@N03","secret":"f74f72d163","server":"65535","farm":66,"title":"Helmperlhuhn (Numida meleagris)","ispublic":1,"isfriend":0,"isfamily":0},{"id":"52334736139","owner":"8733499@N08","secret":"6c483a619d","server":"65535","farm":66,"title":"Chobe National Park, Botswana","ispublic":1,"isfriend":0,"isfamily":0},{"id":"52283323056","owner":"12639178@N07","secret":"f554402d38","server":"65535","farm":66,"title":"Helmperlhuhn (Numida meleagris)","ispublic":1,"isfriend":0,"isfamily":0},{"id":"52255655893","owner":"123597211@N03","secret":"7c7625f593","server":"65535","farm":66,"title":"Helmperlhuhn (Numida meleagris)","ispublic":1,"isfriend":0,"isfamily":0},{"id":"52256131110","owner":"123597211@N03","secret":"dbc4257dfe","server":"65535","farm":66,"title":"Helmperlhuhn (Numida meleagris)","ispublic":1,"isfriend":0,"isfamily":0},{"id":"52254665042","owner":"123597211@N03","secret":"c2ebb619f6","server":"65535","farm":66,"title":"Helmperlhuhn (Numida meleagris)","ispublic":1,"isfriend":0,"isfamily":0},{"id":"52255631986","owner":"123597211@N03","secret":"d863d7f7bc","server":"65535","farm":66,"title":"Helmperlhuhn (Numida meleagris)","ispublic":1,"isfriend":0,"isfamily":0},{"id":"52255631606","owner":"123597211@N03","secret":"159b67a110","server":"65535","farm":66,"title":"Helmperlhuhn (Numida meleagris)","ispublic":1,"isfriend":0,"isfamily":0},{"id":"52254664112","owner":"123597211@N03","secret":"c2f8799617","server":"65535","farm":66,"title":"Helmperlhuhn (Numida meleagris)","ispublic":1,"isfriend":0,"isfamily":0}]},"stat":"ok"}