{"photos":{"page":1,"pages":132,"perpage":100,"total":13132,"photo":[{"id":"52790907669","owner":"12639178@N07","secret":"1832bc51f2","server":"65535","farm":66,"title":"Kornweihe (Circus cyaneus) (2)","ispublic":1,"isfriend":0,"isfamily":0},{"id":"52790907349","owner":"12639178@N07","secret":"ac1dc8528d","server":"65535","farm":66,"title":"Kornweihe (Circus cyaneus) (1)","ispublic":1,"isfriend":0,"isfamily":0},{"id":"52789952603","owner":"12639178@N07","secret":"3d42e97b00","server":"65535","farm":66,"title":"M\u00e4nnliche Kornweihe \u00fcber den feldern s\u00fcdlich der Haar (Circus cyaneus)","ispublic":1,"isfriend":0,"isfamily":0},{"id":"52789952428","owner":"12639178@N07","secret":"4123010b19","server":"65535","farm":66,"title":"Kornweihen weiterhin im Gebiet (Circus cyaneus)","ispublic":1,"isfriend":0,"isfamily":0},{"id":"52788611900","owner":"145907835@N07","secret":"95f63417df","server":"65535","farm":66,"title":"Blauwe Kiekendief - Circus cyaneus","ispublic":1,"isfriend":0,"isfamily":0},{"id":"52788611640","owner":"145907835@N07","secret":"e31122cd0f","server":"65535","farm":66,"title":"Blauwe Kiekendief - Circus cyaneus","ispublic":1,"isfriend":0,"isfamily":0},{"id":"52785864674","owner":"198000077@N04","secret":"df023c2d5e","server":"65535","farm":66,"title":"Hen harrier\/ Circus cyaneus","ispublic":1,"isfriend":0,"isfamily":0},{"id":"52786080453","owner":"198000077@N04","secret":"99fe2391e3","server":"65535","farm":66,"title":"Hen harrier\/ Circus cyaneus","ispublic":1,"isfriend":0,"isfamily":0},{"id":"52782078287","owner":"14191740@N08","secret":"75cdd730ea","server":"65535","farm":66,"title":"Hen Harrier (Circus cyaneus), Leorin, Islay","ispublic":1,"isfriend":0,"isfamily":0},{"id":"52782494808","owner":"23985726@N05","secret":"54c09ef1ac","server":"65535","farm":66,"title":"Circus cyaneus","ispublic":1,"isfriend":0,"isfamily":0},{"id":"52781057798","owner":"12639178@N07","secret":"b398634d8d","server":"65535","farm":66,"title":"Jagende Kornweihe - m\u00e4nnlich (Circus cyaneus)","ispublic":1,"isfriend":0,"isfamily":0},{"id":"52780100250","owner":"12639178@N07","secret":"63a1e92d5a","server":"65535","farm":66,"title":"Kornweihe (Circus cyaneus) (3)","ispublic":1,"isfriend":0,"isfamily":0},{"id":"52779934184","owner":"12639178@N07","secret":"19a7df97f9","server":"65535","farm":66,"title":"Kornweihe (Circus cyaneus) (2)","ispublic":1,"isfriend":0,"isfamily":0},{"id":"52779933979","owner":"12639178@N07","secret":"ff0d327a3b","server":"65535","farm":66,"title":"Kornweihe (Circus cyaneus) (1)","ispublic":1,"isfriend":0,"isfamily":0},{"id":"52774637525","owner":"29882791@N02","secret":"d84becfcf2","server":"65535","farm":66,"title":"Accipitridae - Circus cyaneus (male)","ispublic":1,"isfriend":0,"isfamily":0},{"id":"52773031429","owner":"143053601@N02","secret":"595713ea43","server":"65535","farm":66,"title":"Busard Saint-Martin (Circus cyaneus)","ispublic":1,"isfriend":0,"isfamily":0},{"id":"52771126887","owner":"12639178@N07","secret":"344a21e75d","server":"65535","farm":66,"title":"Kornweihe weibl. vorj. c","ispublic":1,"isfriend":0,"isfamily":0},{"id":"52771913634","owner":"12639178@N07","secret":"081ff9bf9a","server":"65535","farm":66,"title":"Kornweihe weibl. vorj. b","ispublic":1,"isfriend":0,"isfamily":0},{"id":"52769943362","owner":"12639178@N07","secret":"2fc87c5b9c","server":"65535","farm":66,"title":"Kornweihe (Circus cyaneus) (3)","ispublic":1,"isfriend":0,"isfamily":0},{"id":"52770969658","owner":"12639178@N07","secret":"220e1e1b86","server":"65535","farm":66,"title":"Kornweihe (Circus cyaneus) (4)","ispublic":1,"isfriend":0,"isfamily":0},{"id":"52770733959","owner":"12639178@N07","secret":"bc9b91591f","server":"65535","farm":66,"title":"Kornweihe (Circus cyaneus) (2)","ispublic":1,"isfriend":0,"isfamily":0},{"id":"52769942342","owner":"12639178@N07","secret":"9ea1449f57","server":"65535","farm":66,"title":"Kornweihe (Circus cyaneus) (1)","ispublic":1,"isfriend":0,"isfamily":0},{"id":"52770878655","owner":"192232446@N04","secret":"214c6a72ed","server":"65535","farm":66,"title":"Hen harrier female","ispublic":1,"isfriend":0,"isfamily":0},{"id":"52769200612","owner":"189697862@N03","secret":"135568f1d0","server":"65535","farm":66,"title":"Busard Saint-Martin Circus cyaneus - Hen Harrier","ispublic":1,"isfriend":0,"isfamily":0},{"id":"52768525740","owner":"12639178@N07","secret":"9ea543bac3","server":"65535","farm":66,"title":"Kornweihe (Circus cyaneus) (5)","ispublic":1,"isfriend":0,"isfamily":0},{"id":"52767573422","owner":"12639178@N07","secret":"01afe59521","server":"65535","farm":66,"title":"Kornweihe (Circus cyaneus) (3)","ispublic":1,"isfriend":0,"isfamily":0},{"id":"52768364379","owner":"12639178@N07","secret":"b23121737b","server":"65535","farm":66,"title":"Kornweihe (Circus cyaneus) (2)","ispublic":1,"isfriend":0,"isfamily":0},{"id":"52767150255","owner":"143053601@N02","secret":"89a4a4897c","server":"65535","farm":66,"title":"Busard Saint-Martin (Circus cyaneus)","ispublic":1,"isfriend":0,"isfamily":0},{"id":"52767224988","owner":"143053601@N02","secret":"ac978e0c46","server":"65535","farm":66,"title":"Busard Saint-Martin (Circus cyaneus)","ispublic":1,"isfriend":0,"isfamily":0},{"id":"52766716211","owner":"143053601@N02","secret":"a16028dfe3","server":"65535","farm":66,"title":"Busard Saint-Martin (Circus cyaneus)","ispublic":1,"isfriend":0,"isfamily":0},{"id":"52764057871","owner":"195356045@N06","secret":"2443a99d86","server":"65535","farm":66,"title":"Hen Harrier,Circus cyaneus","ispublic":1,"isfriend":0,"isfamily":0},{"id":"52761830935","owner":"107784905@N04","secret":"6c4f8280d0","server":"65535","farm":66,"title":"Busard Saint-Martin - Saint-Aubin\/Fribourg\/CH_20220830_022-1","ispublic":1,"isfriend":0,"isfamily":0},{"id":"52760736790","owner":"12639178@N07","secret":"0ec43c82b0","server":"65535","farm":66,"title":"weibliche Kornweihe","ispublic":1,"isfriend":0,"isfamily":0},{"id":"52759744830","owner":"95355208@N04","secret":"b0b246cf38","server":"65535","farm":66,"title":"Northern Harrier","ispublic":1,"isfriend":0,"isfamily":0},{"id":"52758591480","owner":"193264646@N06","secret":"8bfa1ea4df","server":"65535","farm":66,"title":"Hen Harrier","ispublic":1,"isfriend":0,"isfamily":0},{"id":"52757260902","owner":"145907835@N07","secret":"207eb79b0a","server":"65535","farm":66,"title":"Blauwe Kiekendief - Circus cyaneus","ispublic":1,"isfriend":0,"isfamily":0},{"id":"52755805470","owner":"145907835@N07","secret":"2c9952d4dc","server":"65535","farm":66,"title":"Blauwe Kiekendief - Circus cyaneus","ispublic":1,"isfriend":0,"isfamily":0},{"id":"52753457072","owner":"12639178@N07","secret":"fae5aab98f","server":"65535","farm":66,"title":"Kornweihe (Circus cyaneus) (2)","ispublic":1,"isfriend":0,"isfamily":0},{"id":"52753456882","owner":"12639178@N07","secret":"1f774cf37e","server":"65535","farm":66,"title":"Korn- oder Wiesenweihe?","ispublic":1,"isfriend":0,"isfamily":0},{"id":"52753608801","owner":"12639178@N07","secret":"3e392ecea2","server":"65535","farm":66,"title":"Kornweihe (Circus cyaneus) (3)","ispublic":1,"isfriend":0,"isfamily":0},{"id":"52753853889","owner":"12639178@N07","secret":"c99a8b4b35","server":"65535","farm":66,"title":"Kornweihe (Circus cyaneus) (1)","ispublic":1,"isfriend":0,"isfamily":0},{"id":"52752905722","owner":"12639178@N07","secret":"d4521bb3f9","server":"65535","farm":66,"title":"Kornweihe (Circus cyaneus) (4)","ispublic":1,"isfriend":0,"isfamily":0},{"id":"52753932698","owner":"12639178@N07","secret":"9e4a8b6c4f","server":"65535","farm":66,"title":"Kornweihe (Circus cyaneus) (2)","ispublic":1,"isfriend":0,"isfamily":0},{"id":"52752905202","owner":"12639178@N07","secret":"3e3f289cba","server":"65535","farm":66,"title":"Kornweihe (Circus cyaneus) (1)","ispublic":1,"isfriend":0,"isfamily":0},{"id":"52753545909","owner":"12639178@N07","secret":"6cc4ba26a2","server":"65535","farm":66,"title":"Kornweihe (Circus cyaneus) (3)","ispublic":1,"isfriend":0,"isfamily":0},{"id":"52753545749","owner":"12639178@N07","secret":"3ac1f7b93a","server":"65535","farm":66,"title":"Kornweihe (Circus cyaneus) (2)","ispublic":1,"isfriend":0,"isfamily":0},{"id":"52753300856","owner":"12639178@N07","secret":"499961b60c","server":"65535","farm":66,"title":"Kornweihe (Circus cyaneus) (1)","ispublic":1,"isfriend":0,"isfamily":0},{"id":"52753298556","owner":"12639178@N07","secret":"956fa630c1","server":"65535","farm":66,"title":"Kornweihe (Circus cyaneus) (4)","ispublic":1,"isfriend":0,"isfamily":0},{"id":"52753298361","owner":"12639178@N07","secret":"feaeae7a97","server":"65535","farm":66,"title":"Kornweihe (Circus cyaneus) (3)","ispublic":1,"isfriend":0,"isfamily":0},{"id":"52753298171","owner":"12639178@N07","secret":"810bece846","server":"65535","farm":66,"title":"Kornweihe (Circus cyaneus) (2)","ispublic":1,"isfriend":0,"isfamily":0},{"id":"52751218260","owner":"12639178@N07","secret":"118c301abb","server":"65535","farm":66,"title":"Leider weit entfernt, m\u00e4nnliche Kornweihe (Circus cyaneus)","ispublic":1,"isfriend":0,"isfamily":0},{"id":"52750666121","owner":"12639178@N07","secret":"ec31d8103d","server":"65535","farm":66,"title":"Leider weit entfernt, m\u00e4nnliche Kornweihe (Circus cyaneus)","ispublic":1,"isfriend":0,"isfamily":0},{"id":"52750125302","owner":"59464817@N02","secret":"56cd4982f5","server":"65535","farm":66,"title":"Albanella reale","ispublic":1,"isfriend":0,"isfamily":0},{"id":"52750158789","owner":"133162119@N04","secret":"2fc4cf04d2","server":"65535","farm":66,"title":"Busard Saint-Martin - Circus cyaneus - Hen Harrier","ispublic":1,"isfriend":0,"isfamily":0},{"id":"52749856551","owner":"133162119@N04","secret":"edc1550aaf","server":"65535","farm":66,"title":"Busard Saint-Martin - Circus cyaneus - Hen Harrier","ispublic":1,"isfriend":0,"isfamily":0},{"id":"52749833321","owner":"133162119@N04","secret":"bf6d530db4","server":"65535","farm":66,"title":"Busard Saint-Martin - Circus cyaneus - Hen Harrier","ispublic":1,"isfriend":0,"isfamily":0},{"id":"52750230850","owner":"133162119@N04","secret":"42b687cc6b","server":"65535","farm":66,"title":"Busard Saint-Martin - Circus cyaneus - Hen Harrier","ispublic":1,"isfriend":0,"isfamily":0},{"id":"52749975988","owner":"12639178@N07","secret":"57d33905d2","server":"65535","farm":66,"title":"Weibliche Kornweihe","ispublic":1,"isfriend":0,"isfamily":0},{"id":"52749891780","owner":"12639178@N07","secret":"84c0483c9d","server":"65535","farm":66,"title":"Weibliche Kornweihe","ispublic":1,"isfriend":0,"isfamily":0},{"id":"52749478771","owner":"12639178@N07","secret":"ab03f689dc","server":"65535","farm":66,"title":"Weibliche Kornweihe","ispublic":1,"isfriend":0,"isfamily":0},{"id":"52748950632","owner":"12639178@N07","secret":"96ceef149b","server":"65535","farm":66,"title":"Weibliche Kornweihe","ispublic":1,"isfriend":0,"isfamily":0},{"id":"52749478311","owner":"12639178@N07","secret":"2d0b3ab23a","server":"65535","farm":66,"title":"Weibliche Kornweihe","ispublic":1,"isfriend":0,"isfamily":0},{"id":"52747441279","owner":"133162119@N04","secret":"01beb81004","server":"65535","farm":66,"title":"Busard Saint-Martin - Circus cyaneus - Hen Harrier","ispublic":1,"isfriend":0,"isfamily":0},{"id":"52747105029","owner":"12639178@N07","secret":"24fa6d4351","server":"65535","farm":66,"title":"..weibliche Kornweihe im Gewitter..","ispublic":1,"isfriend":0,"isfamily":0},{"id":"52746718296","owner":"133162119@N04","secret":"cfed5ddb8d","server":"65535","farm":66,"title":"Busard Saint-Martin - Circus cyaneus - Hen Harrier","ispublic":1,"isfriend":0,"isfamily":0},{"id":"52747189618","owner":"133162119@N04","secret":"5b1021513e","server":"65535","farm":66,"title":"Busard Saint-Martin - Circus cyaneus - Hen Harrier","ispublic":1,"isfriend":0,"isfamily":0},{"id":"52746683076","owner":"133162119@N04","secret":"b5ea9defb1","server":"65535","farm":66,"title":"Busard Saint-Martin - Circus cyaneus - Hen Harrier","ispublic":1,"isfriend":0,"isfamily":0},{"id":"52746703774","owner":"133162119@N04","secret":"4c2d971c8e","server":"65535","farm":66,"title":"Busard Saint-Martin - Circus cyaneus - Hen Harrier","ispublic":1,"isfriend":0,"isfamily":0},{"id":"52746686944","owner":"133162119@N04","secret":"e010bab7b6","server":"65535","farm":66,"title":"Busard Saint-Martin - Circus cyaneus - Hen Harrier","ispublic":1,"isfriend":0,"isfamily":0},{"id":"52745909152","owner":"133162119@N04","secret":"25865bcde3","server":"65535","farm":66,"title":"Busard Saint-Martin - Circus cyaneus - Hen Harrier","ispublic":1,"isfriend":0,"isfamily":0},{"id":"52745906257","owner":"133162119@N04","secret":"4bf0322a30","server":"65535","farm":66,"title":"Busard Saint-Martin - Circus cyaneus - Hen Harrier","ispublic":1,"isfriend":0,"isfamily":0},{"id":"52745807872","owner":"12639178@N07","secret":"b9a47a1029","server":"65535","farm":66,"title":"Kornweihe im Suchflug","ispublic":1,"isfriend":0,"isfamily":0},{"id":"52746827298","owner":"12639178@N07","secret":"f25e54b5fe","server":"65535","farm":66,"title":"Kornweihe im Suchflug","ispublic":1,"isfriend":0,"isfamily":0},{"id":"52745424533","owner":"191391950@N02","secret":"0ee409c01e","server":"65535","farm":66,"title":"Busard St-Martin - Circus cyaneus","ispublic":1,"isfriend":0,"isfamily":0},{"id":"52739963277","owner":"12639178@N07","secret":"43b36fec39","server":"65535","farm":66,"title":"Kornweihe (Circus cyaneus) (2)","ispublic":1,"isfriend":0,"isfamily":0},{"id":"52739963067","owner":"12639178@N07","secret":"9595a7f0d2","server":"65535","farm":66,"title":"Kornweihe (Circus cyaneus) (1)","ispublic":1,"isfriend":0,"isfamily":0},{"id":"52738083995","owner":"14191740@N08","secret":"217558041b","server":"65535","farm":66,"title":"Hen Harrier (Circus cyaneus), Leorin, Islay","ispublic":1,"isfriend":0,"isfamily":0},{"id":"52736869171","owner":"39177293@N03","secret":"e4d0107828","server":"65535","farm":66,"title":"Northern Harrier","ispublic":1,"isfriend":0,"isfamily":0},{"id":"52735596033","owner":"41978378@N08","secret":"7ec651e94e","server":"65535","farm":66,"title":"In The Mix","ispublic":1,"isfriend":0,"isfamily":0},{"id":"52733946744","owner":"134719435@N07","secret":"239c2a18a0","server":"65535","farm":66,"title":"Hen Harrier   (Circus cyaneus)","ispublic":1,"isfriend":0,"isfamily":0},{"id":"52733117421","owner":"12639178@N07","secret":"5241a95717","server":"65535","farm":66,"title":"Kornweihe, wohl M\u00e4nnchen K2","ispublic":1,"isfriend":0,"isfamily":0},{"id":"52733529215","owner":"12639178@N07","secret":"9909551156","server":"65535","farm":66,"title":"Kornweihe, wohl M\u00e4nnchen K2","ispublic":1,"isfriend":0,"isfamily":0},{"id":"52733600078","owner":"12639178@N07","secret":"619e05ef60","server":"65535","farm":66,"title":"Kornweihe, wohl M\u00e4nnchen K2","ispublic":1,"isfriend":0,"isfamily":0},{"id":"52733599908","owner":"12639178@N07","secret":"e029c6ed3d","server":"65535","farm":66,"title":"Kornweihe, wohl M\u00e4nnchen K2","ispublic":1,"isfriend":0,"isfamily":0},{"id":"52732592922","owner":"12639178@N07","secret":"c1fdc0cdea","server":"65535","farm":66,"title":"Kornweihe, wohl M\u00e4nnchen K2","ispublic":1,"isfriend":0,"isfamily":0},{"id":"52732590072","owner":"12639178@N07","secret":"4414bdfc16","server":"65535","farm":66,"title":"Kornweihe, wohl M\u00e4nnchen K2","ispublic":1,"isfriend":0,"isfamily":0},{"id":"52781057328","owner":"12639178@N07","secret":"e338d4d2c0","server":"65535","farm":66,"title":"Kornweihe, jagend (Circus cyaneus)","ispublic":1,"isfriend":0,"isfamily":0},{"id":"52781001100","owner":"12639178@N07","secret":"dafa410e59","server":"65535","farm":66,"title":"Imposanter J\u00e4ger - m\u00e4nnliche Kornweihe (Circus cyaneus)","ispublic":1,"isfriend":0,"isfamily":0},{"id":"52780051942","owner":"12639178@N07","secret":"1a35286d43","server":"65535","farm":66,"title":"Kornweihe \u00fcber den Feldern der Haar  (Circus cyaneus)","ispublic":1,"isfriend":0,"isfamily":0},{"id":"52779918635","owner":"12639178@N07","secret":"fb9c358453","server":"65535","farm":66,"title":"Kornweihe (Circus cyaneus)","ispublic":1,"isfriend":0,"isfamily":0},{"id":"52779975698","owner":"12639178@N07","secret":"62795530c9","server":"65535","farm":66,"title":"Kornweihe (Circus cyaneus)","ispublic":1,"isfriend":0,"isfamily":0},{"id":"52779499931","owner":"12639178@N07","secret":"2579f03cd2","server":"65535","farm":66,"title":"Kornweihe (Circus cyaneus)","ispublic":1,"isfriend":0,"isfamily":0},{"id":"52771127022","owner":"12639178@N07","secret":"828cb7ecd4","server":"65535","farm":66,"title":"Kornweihe weibl. vorj. d","ispublic":1,"isfriend":0,"isfamily":0},{"id":"52771656351","owner":"12639178@N07","secret":"569f3b2aa8","server":"65535","farm":66,"title":"Kornweihe weibl. vorj.","ispublic":1,"isfriend":0,"isfamily":0},{"id":"52771664574","owner":"65148649@N04","secret":"92d95ee4f1","server":"65535","farm":66,"title":"Northern Harrier and Windmills 03.12.23 Frye","ispublic":1,"isfriend":0,"isfamily":0},{"id":"52770875637","owner":"65148649@N04","secret":"0579e07417","server":"65535","farm":66,"title":"Northern Harrier 03.12.23 Frye","ispublic":1,"isfriend":0,"isfamily":0},{"id":"52771664559","owner":"65148649@N04","secret":"2b940a85e8","server":"65535","farm":66,"title":"Northern Harrier 2 03.12.23 Frye","ispublic":1,"isfriend":0,"isfamily":0},{"id":"52768366484","owner":"12639178@N07","secret":"f3d4c354ca","server":"65535","farm":66,"title":"Kornweihe (Circus cyaneus) (4)","ispublic":1,"isfriend":0,"isfamily":0},{"id":"52763710599","owner":"12639178@N07","secret":"4e1375554f","server":"65535","farm":66,"title":"Weibliche Kornweihe (Circus cyaneus)","ispublic":1,"isfriend":0,"isfamily":0},{"id":"52732590277","owner":"12639178@N07","secret":"369a871697","server":"65535","farm":66,"title":"Kornweihe, wohl M\u00e4nnchen K2","ispublic":1,"isfriend":0,"isfamily":0}]},"stat":"ok"}