{"photos":{"page":1,"pages":10,"perpage":100,"total":904,"photo":[{"id":"52788420910","owner":"150856173@N06","secret":"29e3c8e78b","server":"65535","farm":66,"title":"Dalmatian pelican (Pelecanus crispus)-0545","ispublic":1,"isfriend":0,"isfamily":0},{"id":"52664496665","owner":"9487855@N05","secret":"44469b4435","server":"65535","farm":66,"title":"20211230-_SNG6889","ispublic":1,"isfriend":0,"isfamily":0},{"id":"52580268200","owner":"150856173@N06","secret":"441285866d","server":"65535","farm":66,"title":"Dalmatian pelican (Pelecanus crispus)-2511","ispublic":1,"isfriend":0,"isfamily":0},{"id":"52573085510","owner":"68466173@N02","secret":"0b45f56bc6","server":"65535","farm":66,"title":"Himalayan Griffon (Gyps himalayensis)","ispublic":1,"isfriend":0,"isfamily":0},{"id":"52531440852","owner":"150856173@N06","secret":"21fc293cf9","server":"65535","farm":66,"title":"The Eye expression - 2507","ispublic":1,"isfriend":0,"isfamily":0},{"id":"52484774543","owner":"150856173@N06","secret":"9d927c38a9","server":"65535","farm":66,"title":"Dalmatian pelican (Pelecanus crispus)-0205","ispublic":1,"isfriend":0,"isfamily":0},{"id":"52464700997","owner":"150856173@N06","secret":"f591103605","server":"65535","farm":66,"title":"Dalmatian pelican (Pelecanus crispus)-7094","ispublic":1,"isfriend":0,"isfamily":0},{"id":"52417819447","owner":"150856173@N06","secret":"f6f82ef327","server":"65535","farm":66,"title":"Dalmatian pelican (Pelecanus crispus)-5312","ispublic":1,"isfriend":0,"isfamily":0},{"id":"52301296916","owner":"45109166@N00","secret":"65e704defc","server":"65535","farm":66,"title":"Gyps himalayensis","ispublic":1,"isfriend":0,"isfamily":0},{"id":"52271494558","owner":"12639178@N07","secret":"d252173e61","server":"65535","farm":66,"title":"Schneegeier (Gyps himalayensis)","ispublic":1,"isfriend":0,"isfamily":0},{"id":"52287059841","owner":"68466173@N02","secret":"785b538dca","server":"65535","farm":66,"title":"Himalayan Griffon (Gyps himalayensis)","ispublic":1,"isfriend":0,"isfamily":0},{"id":"52188691192","owner":"7855463@N05","secret":"ba246b21a2","server":"65535","farm":66,"title":"Himalayan Griffon","ispublic":1,"isfriend":0,"isfamily":0},{"id":"52115350266","owner":"68466173@N02","secret":"fdcd178c75","server":"65535","farm":66,"title":"Himalayan Griffon (Gyps himalayensis)","ispublic":1,"isfriend":0,"isfamily":0},{"id":"52101079284","owner":"68466173@N02","secret":"8e5096be71","server":"65535","farm":66,"title":"Himalayan Griffon (Gyps himalayensis)","ispublic":1,"isfriend":0,"isfamily":0},{"id":"52086935526","owner":"70804987@N00","secret":"17acfd103e","server":"65535","farm":66,"title":"Himalayan Vulture","ispublic":1,"isfriend":0,"isfamily":0},{"id":"52087181574","owner":"70804987@N00","secret":"b07b453edc","server":"65535","farm":66,"title":"Himalayan Vulture","ispublic":1,"isfriend":0,"isfamily":0},{"id":"52079996917","owner":"68466173@N02","secret":"31ce2982e1","server":"65535","farm":66,"title":"Himalayan Griffon (Gyps himalayensis)","ispublic":1,"isfriend":0,"isfamily":0},{"id":"52056051384","owner":"68466173@N02","secret":"e02125630c","server":"65535","farm":66,"title":"Himalayan Griffon (Gyps himalayensis)","ispublic":1,"isfriend":0,"isfamily":0},{"id":"52032696418","owner":"68466173@N02","secret":"ac88899ae9","server":"65535","farm":66,"title":"Himalayan Griffon (Gyps himalayensis)","ispublic":1,"isfriend":0,"isfamily":0},{"id":"51998643206","owner":"68466173@N02","secret":"527dfe7a81","server":"65535","farm":66,"title":"Himalayan Griffon (Gyps himalayensis)","ispublic":1,"isfriend":0,"isfamily":0},{"id":"51971267945","owner":"68466173@N02","secret":"573f1a5c4f","server":"65535","farm":66,"title":"Himalayan Griffon (Gyps himalayensis)","ispublic":1,"isfriend":0,"isfamily":0},{"id":"51863547825","owner":"68466173@N02","secret":"799290ae23","server":"65535","farm":66,"title":"Himalayan Griffon (Gyps himalayensis)","ispublic":1,"isfriend":0,"isfamily":0},{"id":"51828569557","owner":"28786551@N04","secret":"e665135a55","server":"65535","farm":66,"title":"Himalayan Griffon","ispublic":1,"isfriend":0,"isfamily":0},{"id":"51828384982","owner":"28786551@N04","secret":"c93a7f0ed3","server":"65535","farm":66,"title":"Himalayan Griffon","ispublic":1,"isfriend":0,"isfamily":0},{"id":"51832653903","owner":"68466173@N02","secret":"229c792a5f","server":"65535","farm":66,"title":"Himalayan Griffon (Gyps himalayensis)","ispublic":1,"isfriend":0,"isfamily":0},{"id":"51828981493","owner":"68466173@N02","secret":"d4491d889e","server":"65535","farm":66,"title":"Himalayan Griffon (Gyps himalayensis)","ispublic":1,"isfriend":0,"isfamily":0},{"id":"51815402888","owner":"68466173@N02","secret":"cf37bce7a9","server":"65535","farm":66,"title":"Himalayan Griffon (Gyps himalayensis)","ispublic":1,"isfriend":0,"isfamily":0},{"id":"51788647033","owner":"28786551@N04","secret":"499c736416","server":"65535","farm":66,"title":"Cinereous Vulture and Himalayan Griffon","ispublic":1,"isfriend":0,"isfamily":0},{"id":"51787614998","owner":"40036489@N00","secret":"c0e61e1b75","server":"65535","farm":66,"title":"Vulture in der Wilhelma. Zoo und Botanischer Garten Stuttgart.","ispublic":1,"isfriend":0,"isfamily":0},{"id":"51788182805","owner":"64074416@N06","secret":"8c7c4594f5","server":"65535","farm":66,"title":"Himalayan Griffon Vulture (Gyps himalayensis \u9ad8\u5c71\u5140\u9e6b)","ispublic":1,"isfriend":0,"isfamily":0},{"id":"51787671005","owner":"28786551@N04","secret":"fef8e984c9","server":"65535","farm":66,"title":"Cinereous Vulture and Himalayan Griffon","ispublic":1,"isfriend":0,"isfamily":0},{"id":"51787440240","owner":"28786551@N04","secret":"d6bb2d70cf","server":"65535","farm":66,"title":"Cinereous Vulture and Himalayan Griffon","ispublic":1,"isfriend":0,"isfamily":0},{"id":"51786722858","owner":"28786551@N04","secret":"a7813a60e2","server":"65535","farm":66,"title":"Cinereous Vulture and Himalayan Griffon","ispublic":1,"isfriend":0,"isfamily":0},{"id":"51784226692","owner":"28786551@N04","secret":"beec9b6e5f","server":"65535","farm":66,"title":"Himalayan Griffon","ispublic":1,"isfriend":0,"isfamily":0},{"id":"51755379619","owner":"54780974@N06","secret":"4828dcc68f","server":"65535","farm":66,"title":"Himalayan vulture (Gyps himalayensis) or Himalayan griffon vulture-Near Threatened on the IUCN Red List","ispublic":1,"isfriend":0,"isfamily":0},{"id":"51707677819","owner":"68466173@N02","secret":"6a7ff442a6","server":"65535","farm":66,"title":"Himalayan Griffon (Gyps himalayensis)","ispublic":1,"isfriend":0,"isfamily":0},{"id":"51707174864","owner":"150856173@N06","secret":"07f8df7901","server":"65535","farm":66,"title":"Dalmation pelican (Pelecanus crispus)-0202","ispublic":1,"isfriend":0,"isfamily":0},{"id":"51669596258","owner":"68466173@N02","secret":"6a625b49e2","server":"65535","farm":66,"title":"Himalayan Griffon (Gyps himalayensis)","ispublic":1,"isfriend":0,"isfamily":0},{"id":"51658253373","owner":"68466173@N02","secret":"ed93ba0b95","server":"65535","farm":66,"title":"Himalayan Griffon (Gyps himalayensis)","ispublic":1,"isfriend":0,"isfamily":0},{"id":"51650715540","owner":"150856173@N06","secret":"73f5374912","server":"65535","farm":66,"title":"Dalmatian pelican (Pelecanus crispus)-4676","ispublic":1,"isfriend":0,"isfamily":0},{"id":"51639035442","owner":"68466173@N02","secret":"58e85e99b0","server":"65535","farm":66,"title":"Himalayan Griffon (Gyps himalayensis)","ispublic":1,"isfriend":0,"isfamily":0},{"id":"52777631309","owner":"12639178@N07","secret":"df3006dc7a","server":"65535","farm":66,"title":"Schneegeier","ispublic":1,"isfriend":0,"isfamily":0},{"id":"52777858233","owner":"12639178@N07","secret":"d199ece273","server":"65535","farm":66,"title":"Schneegeier","ispublic":1,"isfriend":0,"isfamily":0},{"id":"52775173421","owner":"12639178@N07","secret":"b53128e5ba","server":"65535","farm":66,"title":"Schneegeier","ispublic":1,"isfriend":0,"isfamily":0},{"id":"52774639092","owner":"12639178@N07","secret":"9236e05f8d","server":"65535","farm":66,"title":"Schneegeier","ispublic":1,"isfriend":0,"isfamily":0},{"id":"52664555458","owner":"9487855@N05","secret":"cae1f9a566","server":"65535","farm":66,"title":"20211230-_SNG6895","ispublic":1,"isfriend":0,"isfamily":0},{"id":"52664060561","owner":"9487855@N05","secret":"b2db297bff","server":"65535","farm":66,"title":"20211230-_SNG6908","ispublic":1,"isfriend":0,"isfamily":0},{"id":"52664060551","owner":"9487855@N05","secret":"dff43c66a5","server":"65535","farm":66,"title":"20211230-_SNG6912","ispublic":1,"isfriend":0,"isfamily":0},{"id":"52664348324","owner":"9487855@N05","secret":"b4f920581d","server":"65535","farm":66,"title":"20211230-_SNG6919","ispublic":1,"isfriend":0,"isfamily":0},{"id":"52664348304","owner":"9487855@N05","secret":"8a2ff2b3e1","server":"65535","farm":66,"title":"20211230-_SNG6925","ispublic":1,"isfriend":0,"isfamily":0},{"id":"52664555378","owner":"9487855@N05","secret":"5ff325d793","server":"65535","farm":66,"title":"20211230-_SNG6948","ispublic":1,"isfriend":0,"isfamily":0},{"id":"52664348279","owner":"9487855@N05","secret":"89cbe4d8d0","server":"65535","farm":66,"title":"20211230-_SNG6973","ispublic":1,"isfriend":0,"isfamily":0},{"id":"52664348284","owner":"9487855@N05","secret":"2f30de9040","server":"65535","farm":66,"title":"20211230-_SNG6959","ispublic":1,"isfriend":0,"isfamily":0},{"id":"52664347559","owner":"9487855@N05","secret":"f925993e37","server":"65535","farm":66,"title":"20211230-_SNG6880","ispublic":1,"isfriend":0,"isfamily":0},{"id":"52559942658","owner":"126558841@N07","secret":"f4edb813de","server":"65535","farm":66,"title":"Himalayan Griffon \/ Himalayan Vulture (Gyps himalayensis)","ispublic":1,"isfriend":0,"isfamily":0},{"id":"52571387047","owner":"159922838@N03","secret":"89570c50a7","server":"65535","farm":66,"title":"Himalayan griffon vulture (Gyps himalayensis). Between Laina Odar and Pibuk, along the Tarap Khola.","ispublic":1,"isfriend":0,"isfamily":0},{"id":"52572129379","owner":"159922838@N03","secret":"c746f87774","server":"65535","farm":66,"title":"Himalayan griffon vulture (Gyps himalayensis). Between Laina Odar and Pibuk, along the Tarap Khola.","ispublic":1,"isfriend":0,"isfamily":0},{"id":"52571385832","owner":"159922838@N03","secret":"804e3ce53b","server":"65535","farm":66,"title":"Himalayan griffon vulture (Gyps himalayensis). Between Darapani and Laina Odar.","ispublic":1,"isfriend":0,"isfamily":0},{"id":"52271736449","owner":"12639178@N07","secret":"31eb0da861","server":"65535","farm":66,"title":"Schneegeier (Gyps himalayensis)","ispublic":1,"isfriend":0,"isfamily":0},{"id":"52254309255","owner":"12639178@N07","secret":"cd1e95b895","server":"65535","farm":66,"title":"Schneegeier (ad), Himalayan Griffon (Gyps himalayensis)","ispublic":1,"isfriend":0,"isfamily":0},{"id":"52253833523","owner":"12639178@N07","secret":"784df8c158","server":"65535","farm":66,"title":"Schneegeier (ad), Himalayan Griffon (Gyps himalayensis)","ispublic":1,"isfriend":0,"isfamily":0},{"id":"52253718478","owner":"12639178@N07","secret":"e581e58a12","server":"65535","farm":66,"title":"Schneegeier (juv.), Himalayan Griffon (Gyps himalayensis)","ispublic":1,"isfriend":0,"isfamily":0},{"id":"52253962399","owner":"12639178@N07","secret":"959effcb30","server":"65535","farm":66,"title":"Schneegeier, Himalayan Griffon (Gyps himalayensis)","ispublic":1,"isfriend":0,"isfamily":0},{"id":"52240279480","owner":"48443423@N02","secret":"475147a60f","server":"65535","farm":66,"title":"Himalayan Griffon Vulture","ispublic":1,"isfriend":0,"isfamily":0},{"id":"51798417907","owner":"68466173@N02","secret":"12b5a248f2","server":"65535","farm":66,"title":"Himalayan Griffon (Gyps himalayensis)","ispublic":1,"isfriend":0,"isfamily":0},{"id":"51789707084","owner":"64074416@N06","secret":"4749584d1b","server":"65535","farm":66,"title":"Himalayan Griffon Vulture (Gyps himalayensis \u9ad8\u5c71\u5140\u9e6b)","ispublic":1,"isfriend":0,"isfamily":0},{"id":"51630978905","owner":"121917432@N02","secret":"a6b9eabc1c","server":"65535","farm":66,"title":"\u9ad8\u5c71\u5140\u9df2Himalayan Vulture (Gyps himalayensis)","ispublic":1,"isfriend":0,"isfamily":0},{"id":"51630774384","owner":"121917432@N02","secret":"06b16a1590","server":"65535","farm":66,"title":"\u9ad8\u5c71\u5140\u9df2Himalayan Vulture (Gyps himalayensis)","ispublic":1,"isfriend":0,"isfamily":0},{"id":"51630784249","owner":"121917432@N02","secret":"a133fec467","server":"65535","farm":66,"title":"\u9ad8\u5c71\u5140\u9df2Himalayan Vulture (Gyps himalayensis)","ispublic":1,"isfriend":0,"isfamily":0},{"id":"51630358513","owner":"121917432@N02","secret":"6ce00b4329","server":"65535","farm":66,"title":"\u9ad8\u5c71\u5140\u9df2Himalayan Vulture (Gyps himalayensis)","ispublic":1,"isfriend":0,"isfamily":0},{"id":"51630358273","owner":"121917432@N02","secret":"815b2cb501","server":"65535","farm":66,"title":"\u9ad8\u5c71\u5140\u9df2Himalayan Vulture (Gyps himalayensis)","ispublic":1,"isfriend":0,"isfamily":0},{"id":"51630986615","owner":"121917432@N02","secret":"38817cc806","server":"65535","farm":66,"title":"\u9ad8\u5c71\u5140\u9df2Himalayan Vulture (Gyps himalayensis)","ispublic":1,"isfriend":0,"isfamily":0},{"id":"51629308887","owner":"121917432@N02","secret":"d7bbfd3215","server":"65535","farm":66,"title":"\u9ad8\u5c71\u5140\u9df2Himalayan Vulture (Gyps himalayensis)","ispublic":1,"isfriend":0,"isfamily":0},{"id":"51629308452","owner":"121917432@N02","secret":"5f56f07dc4","server":"65535","farm":66,"title":"\u9ad8\u5c71\u5140\u9df2Himalayan Vulture (Gyps himalayensis)","ispublic":1,"isfriend":0,"isfamily":0},{"id":"51630357178","owner":"121917432@N02","secret":"c8861c7c62","server":"65535","farm":66,"title":"\u9ad8\u5c71\u5140\u9df2Himalayan Vulture (Gyps himalayensis)","ispublic":1,"isfriend":0,"isfamily":0},{"id":"51629308012","owner":"121917432@N02","secret":"ba5b7a6cf9","server":"65535","farm":66,"title":"\u9ad8\u5c71\u5140\u9df2Himalayan Vulture (Gyps himalayensis)","ispublic":1,"isfriend":0,"isfamily":0},{"id":"51630985170","owner":"121917432@N02","secret":"47ea3c8326","server":"65535","farm":66,"title":"\u9ad8\u5c71\u5140\u9df2Himalayan Vulture (Gyps himalayensis)","ispublic":1,"isfriend":0,"isfamily":0},{"id":"51629307742","owner":"121917432@N02","secret":"5b93053dff","server":"65535","farm":66,"title":"\u9ad8\u5c71\u5140\u9df2Himalayan Vulture (Gyps himalayensis)","ispublic":1,"isfriend":0,"isfamily":0},{"id":"51630356423","owner":"121917432@N02","secret":"98303e57ee","server":"65535","farm":66,"title":"\u9ad8\u5c71\u5140\u9df2Himalayan Vulture (Gyps himalayensis)","ispublic":1,"isfriend":0,"isfamily":0},{"id":"51630781759","owner":"121917432@N02","secret":"e07d7380be","server":"65535","farm":66,"title":"\u9ad8\u5c71\u5140\u9df2Himalayan Vulture (Gyps himalayensis)","ispublic":1,"isfriend":0,"isfamily":0},{"id":"51630978750","owner":"121917432@N02","secret":"d3302e4a06","server":"65535","farm":66,"title":"\u9ad8\u5c71\u5140\u9df2Himalayan Vulture (Gyps himalayensis)","ispublic":1,"isfriend":0,"isfamily":0},{"id":"51630350108","owner":"121917432@N02","secret":"48e6b26d25","server":"65535","farm":66,"title":"\u9ad8\u5c71\u5140\u9df2Himalayan Vulture (Gyps himalayensis)","ispublic":1,"isfriend":0,"isfamily":0},{"id":"51630774719","owner":"121917432@N02","secret":"0f50b2f312","server":"65535","farm":66,"title":"\u9ad8\u5c71\u5140\u9df2Himalayan Vulture (Gyps himalayensis)","ispublic":1,"isfriend":0,"isfamily":0},{"id":"51630349123","owner":"121917432@N02","secret":"61f4710d2e","server":"65535","farm":66,"title":"\u9ad8\u5c71\u5140\u9df2Himalayan Vulture (Gyps himalayensis)","ispublic":1,"isfriend":0,"isfamily":0},{"id":"51630977550","owner":"121917432@N02","secret":"f42577e397","server":"65535","farm":66,"title":"\u9ad8\u5c71\u5140\u9df2Himalayan Vulture (Gyps himalayensis)","ispublic":1,"isfriend":0,"isfamily":0},{"id":"51629299567","owner":"121917432@N02","secret":"ab6fce3048","server":"65535","farm":66,"title":"\u9ad8\u5c71\u5140\u9df2Himalayan Vulture (Gyps himalayensis)","ispublic":1,"isfriend":0,"isfamily":0},{"id":"51630773754","owner":"121917432@N02","secret":"29c0110953","server":"65535","farm":66,"title":"\u9ad8\u5c71\u5140\u9df2Himalayan Vulture (Gyps himalayensis)","ispublic":1,"isfriend":0,"isfamily":0},{"id":"51630124116","owner":"121917432@N02","secret":"ab25e7bfcf","server":"65535","farm":66,"title":"\u9ad8\u5c71\u5140\u9df2Himalayan Vulture (Gyps himalayensis)","ispublic":1,"isfriend":0,"isfamily":0},{"id":"51629298857","owner":"121917432@N02","secret":"f326c49165","server":"65535","farm":66,"title":"\u9ad8\u5c71\u5140\u9df2Himalayan Vulture (Gyps himalayensis)","ispublic":1,"isfriend":0,"isfamily":0},{"id":"51630347758","owner":"121917432@N02","secret":"424b6de22b","server":"65535","farm":66,"title":"\u9ad8\u5c71\u5140\u9df2Himalayan Vulture (Gyps himalayensis)","ispublic":1,"isfriend":0,"isfamily":0},{"id":"51630976270","owner":"121917432@N02","secret":"efffec1aba","server":"65535","farm":66,"title":"\u9ad8\u5c71\u5140\u9df2Himalayan Vulture (Gyps himalayensis)","ispublic":1,"isfriend":0,"isfamily":0},{"id":"51630123506","owner":"121917432@N02","secret":"eb0087d398","server":"65535","farm":66,"title":"\u9ad8\u5c71\u5140\u9df2Himalayan Vulture (Gyps himalayensis)","ispublic":1,"isfriend":0,"isfamily":0},{"id":"51629298242","owner":"121917432@N02","secret":"2cc3e8a239","server":"65535","farm":66,"title":"\u9ad8\u5c71\u5140\u9df2Himalayan Vulture (Gyps himalayensis)","ispublic":1,"isfriend":0,"isfamily":0},{"id":"51629298222","owner":"121917432@N02","secret":"185ba38d18","server":"65535","farm":66,"title":"\u9ad8\u5c71\u5140\u9df2Himalayan Vulture (Gyps himalayensis)","ispublic":1,"isfriend":0,"isfamily":0},{"id":"51630347273","owner":"121917432@N02","secret":"7de0dc73e0","server":"65535","farm":66,"title":"\u9ad8\u5c71\u5140\u9df2Himalayan Vulture (Gyps himalayensis)","ispublic":1,"isfriend":0,"isfamily":0},{"id":"51630772364","owner":"121917432@N02","secret":"cd7164b348","server":"65535","farm":66,"title":"\u9ad8\u5c71\u5140\u9df2Himalayan Vulture (Gyps himalayensis)","ispublic":1,"isfriend":0,"isfamily":0},{"id":"51630772294","owner":"121917432@N02","secret":"09a8461b7a","server":"65535","farm":66,"title":"\u9ad8\u5c71\u5140\u9df2Himalayan Vulture (Gyps himalayensis)","ispublic":1,"isfriend":0,"isfamily":0},{"id":"51630093661","owner":"121917432@N02","secret":"6d5e376de0","server":"65535","farm":66,"title":"\u9ad8\u5c71\u5140\u9df2Himalayan Vulture (Gyps himalayensis)","ispublic":1,"isfriend":0,"isfamily":0},{"id":"51630742664","owner":"121917432@N02","secret":"31796f9d17","server":"65535","farm":66,"title":"\u9ad8\u5c71\u5140\u9df2Himalayan Vulture (Gyps himalayensis)","ispublic":1,"isfriend":0,"isfamily":0},{"id":"51575385027","owner":"119787485@N07","secret":"d83ec8b470","server":"65535","farm":66,"title":"Himalayan Griffon (Gyps himalayensis) - 20150125-03","ispublic":1,"isfriend":0,"isfamily":0}]},"stat":"ok"}