{"photos":{"page":1,"pages":110,"perpage":100,"total":10930,"photo":[{"id":"52792631961","owner":"188156748@N07","secret":"be2148ee5d","server":"65535","farm":66,"title":"Hooded Merganser \u2013 Harle Couronn\u00e9 - Lophodytes cucullatus 0678 (2)-SharpenAI-Standard copy.jpgCENLGS","ispublic":1,"isfriend":0,"isfamily":0},{"id":"52793077268","owner":"188156748@N07","secret":"c985f1568e","server":"65535","farm":66,"title":"Hooded Merganser \u2013 Harle Couronn\u00e9 - Lophodytes cucullatus 0678 (16)-SharpenAI-Standard copy.jpgCENLGS","ispublic":1,"isfriend":0,"isfamily":0},{"id":"52791624659","owner":"188590690@N04","secret":"2b4a7e50cc","server":"65535","farm":66,"title":"Kokardezaagbek, Lophodytes cucullatus","ispublic":1,"isfriend":0,"isfamily":0},{"id":"52788421517","owner":"8666250@N02","secret":"346081dcd2","server":"65535","farm":66,"title":"Byfloaters determined to stay neutral....","ispublic":1,"isfriend":0,"isfamily":0},{"id":"52789427668","owner":"8666250@N02","secret":"a1c0163d1e","server":"65535","farm":66,"title":"Byfloater -01","ispublic":1,"isfriend":0,"isfamily":0},{"id":"52789207464","owner":"8666250@N02","secret":"e84a3a9bb8","server":"65535","farm":66,"title":"King o' the Hood(s) still goin' strong","ispublic":1,"isfriend":0,"isfamily":0},{"id":"52789443238","owner":"37242840@N07","secret":"31a32f56af","server":"65535","farm":66,"title":"Hooded Merganser, Lophodytes cucullatus (2)","ispublic":1,"isfriend":0,"isfamily":0},{"id":"52788437127","owner":"37242840@N07","secret":"ab0786cc19","server":"65535","farm":66,"title":"Hooded Merganser, Lophodytes cucullatus (7)","ispublic":1,"isfriend":0,"isfamily":0},{"id":"52788992451","owner":"37242840@N07","secret":"37e4b4e917","server":"65535","farm":66,"title":"Hooded Mergansers, Lophodytes cucullatus (9)","ispublic":1,"isfriend":0,"isfamily":0},{"id":"52789223119","owner":"37242840@N07","secret":"3836620107","server":"65535","farm":66,"title":"Hooded Merganser, Lophodytes cucullatus (17)","ispublic":1,"isfriend":0,"isfamily":0},{"id":"52788436827","owner":"37242840@N07","secret":"e8ea1e5048","server":"65535","farm":66,"title":"Hooded Merganser, Lophodytes cucullatus (19)","ispublic":1,"isfriend":0,"isfamily":0},{"id":"52788436762","owner":"37242840@N07","secret":"3e07ed2069","server":"65535","farm":66,"title":"Hooded Merganser, Lophodytes cucullatus (25)","ispublic":1,"isfriend":0,"isfamily":0},{"id":"52789383415","owner":"37242840@N07","secret":"03446238c1","server":"65535","farm":66,"title":"Hooded Merganser, Lophodytes cucullatus (28)","ispublic":1,"isfriend":0,"isfamily":0},{"id":"52789442533","owner":"37242840@N07","secret":"58df30f421","server":"65535","farm":66,"title":"Hooded Merganser, Lophodytes cucullatus (33)","ispublic":1,"isfriend":0,"isfamily":0},{"id":"52789423738","owner":"36685968@N00","secret":"fd60b73e42","server":"65535","farm":66,"title":"Hooded Merganser (Lophodytes cucullatus)","ispublic":1,"isfriend":0,"isfamily":0},{"id":"52788507185","owner":"194898457@N02","secret":"73ba29e9d4","server":"65535","farm":66,"title":"Hooded merganser(Lophodytes cucullatus)","ispublic":1,"isfriend":0,"isfamily":0},{"id":"52788110181","owner":"194898457@N02","secret":"379c92515d","server":"65535","farm":66,"title":"Hooded merganser(Lophodytes cucullatus)","ispublic":1,"isfriend":0,"isfamily":0},{"id":"52788118970","owner":"144980256@N07","secret":"f48a203830","server":"65535","farm":66,"title":"Hooded Merganser (Lophodytes cucullatus)","ispublic":1,"isfriend":0,"isfamily":0},{"id":"52787161762","owner":"144980256@N07","secret":"ae927f2a48","server":"65535","farm":66,"title":"Hooded Merganser (Lophodytes cucullatus)","ispublic":1,"isfriend":0,"isfamily":0},{"id":"52786995959","owner":"25899079@N08","secret":"975751e9de","server":"65535","farm":66,"title":"Hooded Merganser (0056)","ispublic":1,"isfriend":0,"isfamily":0},{"id":"52785924021","owner":"129833507@N02","secret":"32352f7ece","server":"65535","farm":66,"title":"HOODED_ MERGANSER.BI127W","ispublic":1,"isfriend":0,"isfamily":0},{"id":"52784545432","owner":"120449047@N06","secret":"78118d317c","server":"65535","farm":66,"title":"Hooded Merganser","ispublic":1,"isfriend":0,"isfamily":0},{"id":"52783435542","owner":"41978378@N08","secret":"ee54f38915","server":"65535","farm":66,"title":"Hooded merganser (Lophodytes cucullatus)","ispublic":1,"isfriend":0,"isfamily":0},{"id":"52784179443","owner":"44904157@N04","secret":"74683639bd","server":"65535","farm":66,"title":"Hooded Merganser","ispublic":1,"isfriend":0,"isfamily":0},{"id":"52760027098","owner":"49114357@N08","secret":"3f8e96e47a","server":"65535","farm":66,"title":"Hooded Merganser","ispublic":1,"isfriend":0,"isfamily":0},{"id":"52760049023","owner":"49114357@N08","secret":"d08ed5426c","server":"65535","farm":66,"title":"Hooded Merganser","ispublic":1,"isfriend":0,"isfamily":0},{"id":"52770609593","owner":"31693460@N06","secret":"227d553d5d","server":"65535","farm":66,"title":"Male Hooded Merganser","ispublic":1,"isfriend":0,"isfamily":0},{"id":"52769883743","owner":"185605587@N03","secret":"567fb4ac85","server":"65535","farm":66,"title":"Hooded Merganser (Lophodytes cucullatus) observed at Ridgefield NWR - December 25, 2020","ispublic":1,"isfriend":0,"isfamily":0},{"id":"52769508580","owner":"98627816@N02","secret":"ce65a5f4fc","server":"65535","farm":66,"title":"Hooded Merganser (Lophodytes cucullatus)","ispublic":1,"isfriend":0,"isfamily":0},{"id":"52767906950","owner":"8666250@N02","secret":"ac676f9da0","server":"65535","farm":66,"title":"Hooded Merg juvenile -03","ispublic":1,"isfriend":0,"isfamily":0},{"id":"52767491461","owner":"8666250@N02","secret":"1f51d33754","server":"65535","farm":66,"title":"Mr Hoodie of MCreek -08","ispublic":1,"isfriend":0,"isfamily":0},{"id":"52767744979","owner":"8666250@N02","secret":"6cbd7de945","server":"65535","farm":66,"title":"King o' the Hood(s) -02","ispublic":1,"isfriend":0,"isfamily":0},{"id":"52766953397","owner":"8666250@N02","secret":"840da0070e","server":"65535","farm":66,"title":"Ms Hoodie of MCreek -04","ispublic":1,"isfriend":0,"isfamily":0},{"id":"52765792527","owner":"49465440@N07","secret":"b466fed04c","server":"65535","farm":66,"title":"Hooded Merganser","ispublic":1,"isfriend":0,"isfamily":0},{"id":"52766817958","owner":"49465440@N07","secret":"3a3e42cf4e","server":"65535","farm":66,"title":"Hooded Mergansers","ispublic":1,"isfriend":0,"isfamily":0},{"id":"52765782057","owner":"49465440@N07","secret":"63ecac5769","server":"65535","farm":66,"title":"Hooded Merganser","ispublic":1,"isfriend":0,"isfamily":0},{"id":"52766572809","owner":"49465440@N07","secret":"05b3194b69","server":"65535","farm":66,"title":"Hooded Merganser","ispublic":1,"isfriend":0,"isfamily":0},{"id":"52766122816","owner":"31693460@N06","secret":"0058aeb1bd","server":"65535","farm":66,"title":"Female Hooded Merganser","ispublic":1,"isfriend":0,"isfamily":0},{"id":"52765490692","owner":"62043870@N05","secret":"fb0fb5b0ba","server":"65535","farm":66,"title":"Hooded Merganser, Lophodytes cucullatus (Female)","ispublic":1,"isfriend":0,"isfamily":0},{"id":"52765329107","owner":"70295563@N00","secret":"fcba05da56","server":"65535","farm":66,"title":"Happy Couple","ispublic":1,"isfriend":0,"isfamily":0},{"id":"52760221672","owner":"41978378@N08","secret":"574afa2465","server":"65535","farm":66,"title":"Hooded merganser (Lophodytes cucullatus)","ispublic":1,"isfriend":0,"isfamily":0},{"id":"52755778619","owner":"129833507@N02","secret":"34c938982f","server":"65535","farm":66,"title":"HOODED_ MERGANSER.BI126W","ispublic":1,"isfriend":0,"isfamily":0},{"id":"52755411655","owner":"34238008@N02","secret":"a2e7935f54","server":"65535","farm":66,"title":"Hooded Merganser (Lophodytes cucullatus)","ispublic":1,"isfriend":0,"isfamily":0},{"id":"52754246941","owner":"41978378@N08","secret":"228b4b2bca","server":"65535","farm":66,"title":"Hooded merganser (Lophodytes cucullatus)","ispublic":1,"isfriend":0,"isfamily":0},{"id":"52753270172","owner":"197628215@N07","secret":"536126a17c","server":"65535","farm":66,"title":"Hooded Merganser (Lophodytes cucullatus) 02\/26\/2023 #hoodedmerganser #merganser #hoodie #bestbackroad #bestbackroads #natgeoyourshots #natgeo100contest #natgeo #rutlandcountyvt #washingtoncountyny #whitehallny #wildphotography #naturephotography #adventur","ispublic":1,"isfriend":0,"isfamily":0},{"id":"52754245113","owner":"34368269@N04","secret":"6f655c7473","server":"65535","farm":66,"title":"Hooded Merganser","ispublic":1,"isfriend":0,"isfamily":0},{"id":"52752018132","owner":"189850730@N04","secret":"3ea34aba63","server":"65535","farm":66,"title":"DSC_0139","ispublic":1,"isfriend":0,"isfamily":0},{"id":"52752868388","owner":"54059915@N07","secret":"eb6986e1b5","server":"65535","farm":66,"title":"The Royal Couple","ispublic":1,"isfriend":0,"isfamily":0},{"id":"52752868338","owner":"54059915@N07","secret":"4c8ee7dbf8","server":"65535","farm":66,"title":"The Royal Couple","ispublic":1,"isfriend":0,"isfamily":0},{"id":"52752866923","owner":"54059915@N07","secret":"7c89c18174","server":"65535","farm":66,"title":"The Royal Couple","ispublic":1,"isfriend":0,"isfamily":0},{"id":"52751803806","owner":"197628215@N07","secret":"c3ff00ec8f","server":"65535","farm":66,"title":"Hooded Merganser (Lophodytes cucullatus) 02\/26\/2023 #hoodedmerganser #merganser #hoodie #bestbackroad #bestbackroads #natgeoyourshots #natgeo100contest #natgeo #rutlandcountyvt #washingtoncountyny #whitehallny #wildphotography #naturephotography #adventur","ispublic":1,"isfriend":0,"isfamily":0},{"id":"52749158617","owner":"32541690@N02","secret":"d843f3e43d","server":"65535","farm":66,"title":"Male Hooded Merganser (Lophodytes cucullatus)","ispublic":1,"isfriend":0,"isfamily":0},{"id":"52750177460","owner":"197628215@N07","secret":"1a11852461","server":"65535","farm":66,"title":"Mallard (Anas platyrhynchos)  & Hooded Merganser (Lophodytes cucullatus) 02\/26\/2023 #duck #hoodedmerganser #merganser #mallard #bestbackroad #bestbackroads #natgeoyourshots #natgeo100contest #natgeo #rutlandcountyvt #washingtoncountyny #whitehallny #wildp","ispublic":1,"isfriend":0,"isfamily":0},{"id":"52749641876","owner":"7856934@N03","secret":"21771cf08c","server":"65535","farm":66,"title":"Hooded Merganser(s)","ispublic":1,"isfriend":0,"isfamily":0},{"id":"52750055740","owner":"7856934@N03","secret":"0644568814","server":"65535","farm":66,"title":"Hooded Merganser(s)","ispublic":1,"isfriend":0,"isfamily":0},{"id":"52750139618","owner":"7856934@N03","secret":"a7fb8138d2","server":"65535","farm":66,"title":"Hooded Merganser(s)","ispublic":1,"isfriend":0,"isfamily":0},{"id":"52748943011","owner":"131037795@N03","secret":"defd65d411","server":"65535","farm":66,"title":"Female and Male, Hooded Merganser (Lophodytes cucullatus)","ispublic":1,"isfriend":0,"isfamily":0},{"id":"52749355355","owner":"131037795@N03","secret":"8d3cf3479d","server":"65535","farm":66,"title":"Female, Hooded Merganser (Lophodytes cucullatus) with catfish","ispublic":1,"isfriend":0,"isfamily":0},{"id":"52747432309","owner":"145993839@N04","secret":"680d90ebd8","server":"65535","farm":66,"title":"Hooded Merganser (m)","ispublic":1,"isfriend":0,"isfamily":0},{"id":"52747101309","owner":"131037795@N03","secret":"1f9a199989","server":"65535","farm":66,"title":"Male & Female, Hooded Merganser (Lophodytes cucullatus)","ispublic":1,"isfriend":0,"isfamily":0},{"id":"52747350593","owner":"131037795@N03","secret":"6500337030","server":"65535","farm":66,"title":"Male, Hooded Merganser (Lophodytes cucullatus)","ispublic":1,"isfriend":0,"isfamily":0},{"id":"52747265660","owner":"131037795@N03","secret":"2a63d3e745","server":"65535","farm":66,"title":"Male, Hooded Merganser (Lophodytes cucullatus)","ispublic":1,"isfriend":0,"isfamily":0},{"id":"52746117706","owner":"188352054@N08","secret":"33181fa5cd","server":"65535","farm":66,"title":"9M2A1758","ispublic":1,"isfriend":0,"isfamily":0},{"id":"52743325929","owner":"8666250@N02","secret":"34cc3c3028","server":"65535","farm":66,"title":"The Mad Lady of the Fish Pond Set 2 -08","ispublic":1,"isfriend":0,"isfamily":0},{"id":"52743562908","owner":"8666250@N02","secret":"1ee793b6cd","server":"65535","farm":66,"title":"The Mad Lady of the Fish Pond Set 2 -07","ispublic":1,"isfriend":0,"isfamily":0},{"id":"52743072181","owner":"8666250@N02","secret":"f24179ae73","server":"65535","farm":66,"title":"The Mad Lady of the Fish Pond Set 2 -06","ispublic":1,"isfriend":0,"isfamily":0},{"id":"52743562388","owner":"8666250@N02","secret":"94dabfaa94","server":"65535","farm":66,"title":"The Mad Lady of the Fish Pond Set 2 -02","ispublic":1,"isfriend":0,"isfamily":0},{"id":"52743488265","owner":"8666250@N02","secret":"9f785f368b","server":"65535","farm":66,"title":"The Mad Lady of the Fish Pond Set 2 -01","ispublic":1,"isfriend":0,"isfamily":0},{"id":"52742556817","owner":"8666250@N02","secret":"fc226d2466","server":"65535","farm":66,"title":"The Mad Lady of the Fish Pond (Press L to enlarge, then use arrow keys to scroll)","ispublic":1,"isfriend":0,"isfamily":0},{"id":"52743071296","owner":"8666250@N02","secret":"6804349481","server":"65535","farm":66,"title":"The Mad Lady of the Fish Pond Set 2 -03","ispublic":1,"isfriend":0,"isfamily":0},{"id":"52742556402","owner":"8666250@N02","secret":"3fb4630976","server":"65535","farm":66,"title":"The Mad Lady of the Fish Pond Set 2 -09","ispublic":1,"isfriend":0,"isfamily":0},{"id":"52740487566","owner":"8666250@N02","secret":"510ca06820","server":"65535","farm":66,"title":"The Mad Lady of the Fish Pond Set 1 -08","ispublic":1,"isfriend":0,"isfamily":0},{"id":"52740901675","owner":"8666250@N02","secret":"60d79c1c82","server":"65535","farm":66,"title":"The Mad Lady of the Fish Pond Set 1 -02","ispublic":1,"isfriend":0,"isfamily":0},{"id":"52740740899","owner":"8666250@N02","secret":"dd2d628e2b","server":"65535","farm":66,"title":"The Mad Lady of the Fish Pond Set 1 -03","ispublic":1,"isfriend":0,"isfamily":0},{"id":"52740978658","owner":"8666250@N02","secret":"79f6f41979","server":"65535","farm":66,"title":"The Mad Lady of the Fish Pond Set 1 -10","ispublic":1,"isfriend":0,"isfamily":0},{"id":"52740502283","owner":"7331818@N02","secret":"1cdd3b68c3","server":"65535","farm":66,"title":"Merganser","ispublic":1,"isfriend":0,"isfamily":0},{"id":"52738513598","owner":"187124972@N03","secret":"d8b1c2dd09","server":"65535","farm":66,"title":"HARLE COURONN\u00c9 \/ HOODED MERGANSER (Lophodytes cucullatus)","ispublic":1,"isfriend":0,"isfamily":0},{"id":"52738215193","owner":"71185522@N00","secret":"23e29d0699","server":"65535","farm":66,"title":"Female Hooded Merganser","ispublic":1,"isfriend":0,"isfamily":0},{"id":"52737808605","owner":"197628215@N07","secret":"edb3587613","server":"65535","farm":66,"title":"Mallard (Anas platyrhynchos)  & Hooded Merganser (Lophodytes cucullatus) 02\/26\/2023 #duck #hoodedmerganser #merganser #mallard #bestbackroad #bestbackroads #natgeoyourshots #natgeo100contest #natgeo #rutlandcountyvt #washingtoncountyny #whitehallny #wildp","ispublic":1,"isfriend":0,"isfamily":0},{"id":"52736560475","owner":"34238008@N02","secret":"a74774dce1","server":"65535","farm":66,"title":"Hooded Merganser (Lophodytes cucullatus)","ispublic":1,"isfriend":0,"isfamily":0},{"id":"52735625142","owner":"34238008@N02","secret":"3dcd5366fb","server":"65535","farm":66,"title":"Hooded Merganser (Lophodytes cucullatus)","ispublic":1,"isfriend":0,"isfamily":0},{"id":"52735625017","owner":"34238008@N02","secret":"930c4138b6","server":"65535","farm":66,"title":"Hooded Merganser (Lophodytes cucullatus)","ispublic":1,"isfriend":0,"isfamily":0},{"id":"52736560065","owner":"34238008@N02","secret":"3aaae8e5df","server":"65535","farm":66,"title":"Hooded Merganser (Lophodytes cucullatus)","ispublic":1,"isfriend":0,"isfamily":0},{"id":"52736145286","owner":"34238008@N02","secret":"58577e3e5e","server":"65535","farm":66,"title":"Hooded Merganser (Lophodytes cucullatus)","ispublic":1,"isfriend":0,"isfamily":0},{"id":"52734618702","owner":"42034882@N00","secret":"ed40be57ab","server":"65535","farm":66,"title":"Lady Bird","ispublic":1,"isfriend":0,"isfamily":0},{"id":"52735102201","owner":"35137392@N05","secret":"e46206d583","server":"65535","farm":66,"title":"Hooded Merganser male - Lophodytes cucullatus","ispublic":1,"isfriend":0,"isfamily":0},{"id":"52735368565","owner":"49465440@N07","secret":"c3ca16feaa","server":"65535","farm":66,"title":"Hooded Merganser","ispublic":1,"isfriend":0,"isfamily":0},{"id":"52733517772","owner":"34238008@N02","secret":"fdbe223d72","server":"65535","farm":66,"title":"Hooded Merganser (Lophodytes cucullatus)","ispublic":1,"isfriend":0,"isfamily":0},{"id":"52792631931","owner":"188156748@N07","secret":"941c55db5f","server":"65535","farm":66,"title":"Hooded Merganser \u2013 Harle Couronn\u00e9 - Lophodytes cucullatus 0678 (7)-SharpenAI-Standard copy.jpgCENLGS","ispublic":1,"isfriend":0,"isfamily":0},{"id":"52789443163","owner":"37242840@N07","secret":"f7111b97af","server":"65535","farm":66,"title":"Hooded Merganser, Lophodytes cucullatus (3)","ispublic":1,"isfriend":0,"isfamily":0},{"id":"52759861659","owner":"49114357@N08","secret":"b94984fb8a","server":"65535","farm":66,"title":"Hooded Merganser","ispublic":1,"isfriend":0,"isfamily":0},{"id":"52755705281","owner":"197628215@N07","secret":"2aeddfa4f2","server":"65535","farm":66,"title":"Hooded Merganser (Lophodytes cucullatus) 02\/26\/2023 #hoodedmerganser #merganser #hoodie #bestbackroad #bestbackroads #natgeoyourshots #natgeo100contest #natgeo #rutlandcountyvt #washingtoncountyny #whitehallny #wildphotography #naturephotography #adventur","ispublic":1,"isfriend":0,"isfamily":0},{"id":"52744496863","owner":"69812270@N00","secret":"412d6ea60b","server":"65535","farm":66,"title":"Hooded Merganser, Lophodytes cucullatus ID'd as Male in front, FM in back.","ispublic":1,"isfriend":0,"isfamily":0},{"id":"52740978713","owner":"8666250@N02","secret":"33cb965264","server":"65535","farm":66,"title":"The Mad Lady of the Fish Pond Set 1 -06","ispublic":1,"isfriend":0,"isfamily":0},{"id":"52740971453","owner":"8666250@N02","secret":"3cb1e2a97b","server":"65535","farm":66,"title":"Punk, the Juvenile Hoodiel to the Fisih Pond","ispublic":1,"isfriend":0,"isfamily":0},{"id":"52738612665","owner":"34238008@N02","secret":"355e62e1d9","server":"65535","farm":66,"title":"Hooded Merganser (Lophodytes cucullatus)","ispublic":1,"isfriend":0,"isfamily":0},{"id":"52738438900","owner":"187124972@N03","secret":"296b241de3","server":"65535","farm":66,"title":"HARLE COURONN\u00c9 \/ HOODED MERGANSER (Lophodytes cucullatus)","ispublic":1,"isfriend":0,"isfamily":0},{"id":"52734761657","owner":"197628215@N07","secret":"05d4881b02","server":"65535","farm":66,"title":"Mallard (Anas platyrhynchos)  & Hooded Merganser (Lophodytes cucullatus) 02\/26\/2023 #duck #hoodedmerganser #merganser #mallard #bestbackroad #bestbackroads #natgeoyourshots #natgeo100contest #natgeo #rutlandcountyvt #washingtoncountyny #whitehallny #wildp","ispublic":1,"isfriend":0,"isfamily":0},{"id":"52734680412","owner":"197628215@N07","secret":"7fe2075d19","server":"65535","farm":66,"title":"Hooded Merganser (Lophodytes cucullatus) 02\/26\/2023 #hoodedmerganser #merganser #hoodie #bestbackroad #bestbackroads #natgeoyourshots #natgeo100contest #natgeo #rutlandcountyvt #washingtoncountyny #whitehallny #wildphotography #naturephotography #adventur","ispublic":1,"isfriend":0,"isfamily":0},{"id":"52732650422","owner":"197628215@N07","secret":"1c46b2c3d1","server":"65535","farm":66,"title":"Mallard (Anas platyrhynchos)  & Hooded Merganser (Lophodytes cucullatus) 02\/26\/2023 #mallard #hoodedmerganser #duck #bestbackroad #bestbackroads #natgeoyourshots #natgeo100contest #natgeo #rutlandcountyvt #washingtoncountyny #whitehallny #wildphotography","ispublic":1,"isfriend":0,"isfamily":0}]},"stat":"ok"}