{"photos":{"page":1,"pages":11,"perpage":100,"total":1085,"photo":[{"id":"52699021646","owner":"42622112@N08","secret":"c2bbfa180d","server":"65535","farm":66,"title":"Ciguita Gorra Negra \/ Hooded Warbler \/ Setophaga citrina","ispublic":1,"isfriend":0,"isfamily":0},{"id":"52698475282","owner":"42622112@N08","secret":"5c56c4caf0","server":"65535","farm":66,"title":"Ciguita Gorra Negra \/ Hooded Warbler \/ Setophaga citrina","ispublic":1,"isfriend":0,"isfamily":0},{"id":"52698941376","owner":"42622112@N08","secret":"469c8edb54","server":"65535","farm":66,"title":"Ciguita Gorra Negra \/ Hooded Warbler \/ Setophaga citrina","ispublic":1,"isfriend":0,"isfamily":0},{"id":"52646155333","owner":"42622112@N08","secret":"8c029c655f","server":"65535","farm":66,"title":"Ciguita Gorra Negra \/ Hooded Warbler \/ Setophaga citrina","ispublic":1,"isfriend":0,"isfamily":0},{"id":"52643512159","owner":"8013969@N03","secret":"a9424604e9","server":"65535","farm":66,"title":"Setophaga citrina DFL cameron22-1","ispublic":1,"isfriend":0,"isfamily":0},{"id":"52643722778","owner":"8013969@N03","secret":"eb2fc66b3c","server":"65535","farm":66,"title":"Setophaga citrina DFL cameron22-2","ispublic":1,"isfriend":0,"isfamily":0},{"id":"52643503439","owner":"8013969@N03","secret":"48e6acbe3e","server":"65535","farm":66,"title":"Setophaga citrina DFL cameron22-3","ispublic":1,"isfriend":0,"isfamily":0},{"id":"52643497574","owner":"8013969@N03","secret":"eb1b6975c4","server":"65535","farm":66,"title":"Setophaga citrina DFL cameron22-4","ispublic":1,"isfriend":0,"isfamily":0},{"id":"52626016745","owner":"196786375@N03","secret":"a7c0cd4457","server":"65535","farm":66,"title":"Hooded Warbler","ispublic":1,"isfriend":0,"isfamily":0},{"id":"52616580623","owner":"8677091@N08","secret":"428092f9d3","server":"65535","farm":66,"title":"Se come la mosca","ispublic":1,"isfriend":0,"isfamily":0},{"id":"52616580498","owner":"8677091@N08","secret":"ecc5da20e0","server":"65535","farm":66,"title":"La Encapuchada","ispublic":1,"isfriend":0,"isfamily":0},{"id":"52615580707","owner":"8677091@N08","secret":"0ebde7a41b","server":"65535","farm":66,"title":"Hooded Warbler","ispublic":1,"isfriend":0,"isfamily":0},{"id":"52616355479","owner":"8677091@N08","secret":"915dcf9368","server":"65535","farm":66,"title":"Mansita","ispublic":1,"isfriend":0,"isfamily":0},{"id":"52605731883","owner":"78250819@N07","secret":"d593c8e26e","server":"65535","farm":66,"title":"Cig\u00fcita Encapuchada -Setophaga citrina- Hooded Warbler","ispublic":1,"isfriend":0,"isfamily":0},{"id":"52605715438","owner":"78250819@N07","secret":"6f643963ee","server":"65535","farm":66,"title":"Cig\u00fcita Encapuchada -Setophaga citrina- Hooded Warbler","ispublic":1,"isfriend":0,"isfamily":0},{"id":"52602819644","owner":"42622112@N08","secret":"50b330a537","server":"65535","farm":66,"title":"Ciguita Gorra Negra \/ Hooded Warbler \/ Setophaga citrina","ispublic":1,"isfriend":0,"isfamily":0},{"id":"52580742150","owner":"153973412@N04","secret":"56637bc805","server":"65535","farm":66,"title":"Hooded Warbler-Setophaga citrina, Iowa City, IA","ispublic":1,"isfriend":0,"isfamily":0},{"id":"52575712786","owner":"151361315@N06","secret":"8ec4befb57","server":"65535","farm":66,"title":"Hooded Warbler breeding male \u2022 Sterling Nature Center, NY \u2022 2020","ispublic":1,"isfriend":0,"isfamily":0},{"id":"52395776021","owner":"49114357@N08","secret":"5ab7c2c28a","server":"65535","farm":66,"title":"Hooded Warbler","ispublic":1,"isfriend":0,"isfamily":0},{"id":"52396924338","owner":"190185506@N04","secret":"7117a09e6c","server":"0","farm":0,"title":"La difficult\u00e9 de photographier une paruline... et une \"dr\u00f4le\" de solution ?","ispublic":1,"isfriend":0,"isfamily":0},{"id":"52348686306","owner":"61241315@N00","secret":"46b963ae4a","server":"65535","farm":66,"title":"Hooded Warbler_N5780","ispublic":1,"isfriend":0,"isfamily":0},{"id":"52349111475","owner":"61241315@N00","secret":"9a08e7e469","server":"65535","farm":66,"title":"Hooded Warbler_N5782","ispublic":1,"isfriend":0,"isfamily":0},{"id":"52348686226","owner":"61241315@N00","secret":"8dcbd3e990","server":"65535","farm":66,"title":"Hooded Warbler_N5784","ispublic":1,"isfriend":0,"isfamily":0},{"id":"52347732217","owner":"61241315@N00","secret":"c624a0cf4c","server":"65535","farm":66,"title":"Hooded Warbler_N5785","ispublic":1,"isfriend":0,"isfamily":0},{"id":"52348934268","owner":"61241315@N00","secret":"c6f047a463","server":"65535","farm":66,"title":"Hooded Warbler_N5788","ispublic":1,"isfriend":0,"isfamily":0},{"id":"52348400359","owner":"129803374@N05","secret":"0552a9cbdc","server":"65535","farm":66,"title":"Hooded Warbler (Setophaga citrina)","ispublic":1,"isfriend":0,"isfamily":0},{"id":"52331724334","owner":"71649471@N02","secret":"8a15242206","server":"65535","farm":66,"title":"H is for Hooded","ispublic":1,"isfriend":0,"isfamily":0},{"id":"52295739785","owner":"124995824@N08","secret":"8be735725b","server":"65535","farm":66,"title":"Hooded Warbler - Setophaga citrina","ispublic":1,"isfriend":0,"isfamily":0},{"id":"52291298409","owner":"28631427@N00","secret":"d7ccf75d6a","server":"65535","farm":66,"title":"Hooded Warbler 1","ispublic":1,"isfriend":0,"isfamily":0},{"id":"52290056182","owner":"28631427@N00","secret":"5db2b056fa","server":"65535","farm":66,"title":"Hooded Warbler 2","ispublic":1,"isfriend":0,"isfamily":0},{"id":"52281207460","owner":"39617069@N08","secret":"32ddd17198","server":"65535","farm":66,"title":"Hooded Warbler","ispublic":1,"isfriend":0,"isfamily":0},{"id":"52272203521","owner":"76617062@N08","secret":"fe5dfd72f0","server":"65535","farm":66,"title":"1.27724 Paruline \u00e0 capuchon (femelle) \/ Setophaga citrina \/ Hooded Warbler","ispublic":1,"isfriend":0,"isfamily":0},{"id":"52211728650","owner":"71649471@N02","secret":"2f67abf53d","server":"65535","farm":66,"title":"Nemesis No More","ispublic":1,"isfriend":0,"isfamily":0},{"id":"52202580008","owner":"184155060@N04","secret":"62446502a5","server":"65535","farm":66,"title":"32772 Paruline \u00e0 capuchon (femelle) \/ Setophaga citrina \/ Hooded Warbler","ispublic":1,"isfriend":0,"isfamily":0},{"id":"52202822664","owner":"184155060@N04","secret":"a3dedcdacb","server":"65535","farm":66,"title":"32772 Paruline \u00e0 capuchon (femelle) \/ Setophaga citrina \/ Hooded Warbler","ispublic":1,"isfriend":0,"isfamily":0},{"id":"52203056990","owner":"184155060@N04","secret":"965b0037ec","server":"65535","farm":66,"title":"32772 Paruline \u00e0 capuchon (femelle) \/ Setophaga citrina \/ Hooded Warbler","ispublic":1,"isfriend":0,"isfamily":0},{"id":"52202822434","owner":"184155060@N04","secret":"9df86e7c9e","server":"65535","farm":66,"title":"32772 Paruline \u00e0 capuchon (m\u00e2le) \/ Setophaga citrina \/ Hooded Warbler","ispublic":1,"isfriend":0,"isfamily":0},{"id":"52201551647","owner":"184155060@N04","secret":"60d5cb51d8","server":"65535","farm":66,"title":"32772 Paruline \u00e0 capuchon (m\u00e2le) \/ Setophaga citrina \/ Hooded Warbler","ispublic":1,"isfriend":0,"isfamily":0},{"id":"52170770852","owner":"76617062@N08","secret":"6244869a01","server":"65535","farm":66,"title":"1.27724 Paruline \u00e0 capuchon (femelle) \/ Setophaga citrina \/ Hooded Warbler","ispublic":1,"isfriend":0,"isfamily":0},{"id":"52161606163","owner":"76617062@N08","secret":"ca4c274ebf","server":"65535","farm":66,"title":"1.27724 Paruline \u00e0 capuchon (femelle) \/ Setophaga citrina \/ Hooded Warbler","ispublic":1,"isfriend":0,"isfamily":0},{"id":"52154345974","owner":"76617062@N08","secret":"15d1b41b58","server":"65535","farm":66,"title":"1.27724 Paruline \u00e0 capuchon (m\u00e2le) \/ Setophaga citrina \/ Hooded Warbler","ispublic":1,"isfriend":0,"isfamily":0},{"id":"52120549323","owner":"76617062@N08","secret":"3bc9b3f581","server":"65535","farm":66,"title":"1.27724 Paruline \u00e0 capuchon (m\u00e2le) \/ Setophaga citrina \/ Hooded Warbler","ispublic":1,"isfriend":0,"isfamily":0},{"id":"52112457334","owner":"76617062@N08","secret":"1bf9f52e01","server":"65535","farm":66,"title":"1.27724 Paruline \u00e0 capuchon \/ Setophaga citrina \/ Hooded Warbler","ispublic":1,"isfriend":0,"isfamily":0},{"id":"52056289976","owner":"49114357@N08","secret":"9b5b110192","server":"65535","farm":66,"title":"Hooded Warbler","ispublic":1,"isfriend":0,"isfamily":0},{"id":"52104015485","owner":"32599741@N03","secret":"339f9d1580","server":"65535","farm":66,"title":"bath time","ispublic":1,"isfriend":0,"isfamily":0},{"id":"52099484656","owner":"76617062@N08","secret":"9242a3b445","server":"65535","farm":66,"title":"1.27724 Paruline \u00e0 capuchon (femelle) \/ Setophaga citrina \/ Hooded Warbler","ispublic":1,"isfriend":0,"isfamily":0},{"id":"52065131973","owner":"37769253@N08","secret":"0d1989901e","server":"65535","farm":66,"title":"Hooded Warbler (Setophaga citrina)","ispublic":1,"isfriend":0,"isfamily":0},{"id":"52061749311","owner":"34674638@N05","secret":"a1f2a4cb48","server":"65535","farm":66,"title":"Hooded Warbler","ispublic":1,"isfriend":0,"isfamily":0},{"id":"52060324121","owner":"37769253@N08","secret":"5db236cd77","server":"65535","farm":66,"title":"Hooded Warbler (Setophaga citrina)","ispublic":1,"isfriend":0,"isfamily":0},{"id":"52051023667","owner":"9765210@N03","secret":"aa602bc387","server":"65535","farm":66,"title":"Hooded Warbler (Setophaga citrina)","ispublic":1,"isfriend":0,"isfamily":0},{"id":"52038913076","owner":"54514385@N06","secret":"6f23a866a3","server":"65535","farm":66,"title":"Hooded Warbler -- Setophaga citrina","ispublic":1,"isfriend":0,"isfamily":0},{"id":"52033737326","owner":"54514385@N06","secret":"a7de16f5e9","server":"65535","farm":66,"title":"Hooded Warbler -- Setophaga citrina","ispublic":1,"isfriend":0,"isfamily":0},{"id":"52033737151","owner":"54514385@N06","secret":"4f5b7fb338","server":"65535","farm":66,"title":"Hooded Warbler -- Setophaga citrina","ispublic":1,"isfriend":0,"isfamily":0},{"id":"52029465987","owner":"18378985@N08","secret":"d983eed7fa","server":"65535","farm":66,"title":"Hooded Warbler","ispublic":1,"isfriend":0,"isfamily":0},{"id":"52031027080","owner":"18378985@N08","secret":"e2c64c6b8d","server":"65535","farm":66,"title":"Hooded Warbler hunting bugs","ispublic":1,"isfriend":0,"isfamily":0},{"id":"52031027045","owner":"18378985@N08","secret":"17c903d33a","server":"65535","farm":66,"title":"Hooded Warbler emerging from the woods","ispublic":1,"isfriend":0,"isfamily":0},{"id":"52026029329","owner":"120449047@N06","secret":"00ce067a29","server":"65535","farm":66,"title":"Hooded Warbler (1\/35)","ispublic":1,"isfriend":0,"isfamily":0},{"id":"52023265140","owner":"138125336@N04","secret":"a616c98f2b","server":"65535","farm":66,"title":"Hooded Warbler (male)","ispublic":1,"isfriend":0,"isfamily":0},{"id":"52020285625","owner":"190949917@N03","secret":"049da4489e","server":"65535","farm":66,"title":"Hooded Warbler","ispublic":1,"isfriend":0,"isfamily":0},{"id":"51999695124","owner":"11803211@N06","secret":"2909deeacd","server":"65535","farm":66,"title":"Male hooded warbler (Setophaga citrina) in forest, Yucatan","ispublic":1,"isfriend":0,"isfamily":0},{"id":"51964632842","owner":"48793602@N07","secret":"9105dfd7e1","server":"65535","farm":66,"title":"Male Hooded Warbler 03-25-2022","ispublic":1,"isfriend":0,"isfamily":0},{"id":"51894087593","owner":"8301398@N02","secret":"bd2330999f","server":"65535","farm":66,"title":"Hood Warbler","ispublic":1,"isfriend":0,"isfamily":0},{"id":"51894087553","owner":"8301398@N02","secret":"bcbfb21791","server":"65535","farm":66,"title":"Hooded Warbler Singing","ispublic":1,"isfriend":0,"isfamily":0},{"id":"51822330944","owner":"71418112@N00","secret":"8ee223fe03","server":"65535","farm":66,"title":"Hooded warbler","ispublic":1,"isfriend":0,"isfamily":0},{"id":"51708137828","owner":"119468907@N03","secret":"f764d4bc35","server":"0","farm":0,"title":"Paruline \u00e0 capuchon_9571","ispublic":1,"isfriend":0,"isfamily":0},{"id":"51618343467","owner":"34674638@N05","secret":"196140f3d1","server":"65535","farm":66,"title":"Hooded Warbler","ispublic":1,"isfriend":0,"isfamily":0},{"id":"51459479421","owner":"36685968@N00","secret":"0340270442","server":"65535","farm":66,"title":"Hooded Warbler (Setophaga citrina)","ispublic":1,"isfriend":0,"isfamily":0},{"id":"52495245241","owner":"64557331@N04","secret":"3f68a71ab5","server":"65535","farm":66,"title":"Hooded Warbler - (Setophaga citrina)_06022021_5","ispublic":1,"isfriend":0,"isfamily":0},{"id":"52495720030","owner":"64557331@N04","secret":"7440e44e96","server":"65535","farm":66,"title":"Hooded Warbler - (Setophaga citrina)_06022021_4","ispublic":1,"isfriend":0,"isfamily":0},{"id":"52495800428","owner":"64557331@N04","secret":"492f82978f","server":"65535","farm":66,"title":"Hooded Warbler - (Setophaga citrina)_06022021_3","ispublic":1,"isfriend":0,"isfamily":0},{"id":"52495245196","owner":"64557331@N04","secret":"dd12feea00","server":"65535","farm":66,"title":"Hooded Warbler - (Setophaga citrina)_06022021","ispublic":1,"isfriend":0,"isfamily":0},{"id":"52495517209","owner":"64557331@N04","secret":"37031e6256","server":"65535","farm":66,"title":"Hooded Warbler - (Setophaga citrina)_05282022","ispublic":1,"isfriend":0,"isfamily":0},{"id":"52446195142","owner":"67306066@N03","secret":"dd3aca369f","server":"65535","farm":66,"title":"Hooded Warbler (Setophaga citrina)","ispublic":1,"isfriend":0,"isfamily":0},{"id":"52348934343","owner":"61241315@N00","secret":"cde32b0fbf","server":"65535","farm":66,"title":"Hooded Warbler_N5783","ispublic":1,"isfriend":0,"isfamily":0},{"id":"52203057230","owner":"184155060@N04","secret":"ab67f9b395","server":"65535","farm":66,"title":"32772 Paruline \u00e0 capuchon (femelle) \/ Setophaga citrina \/ Hooded Warbler","ispublic":1,"isfriend":0,"isfamily":0},{"id":"52183314738","owner":"65632611@N00","secret":"9abafe9509","server":"65535","farm":66,"title":"Boy Scout Woods, TX: Female Hooded Warbler (2980)","ispublic":1,"isfriend":0,"isfamily":0},{"id":"52137497409","owner":"65632611@N00","secret":"4176764c16","server":"65535","farm":66,"title":"Forest Park: Hooded Warbler (4049)","ispublic":1,"isfriend":0,"isfamily":0},{"id":"52136232822","owner":"65632611@N00","secret":"46f3701652","server":"65535","farm":66,"title":"Forest Park: Hooded Warbler Looking (not at me) (4154)","ispublic":1,"isfriend":0,"isfamily":0},{"id":"52137259526","owner":"65632611@N00","secret":"05b3901a3c","server":"65535","farm":66,"title":"Forest Park: Hooded Warbler Forward Face (4139)","ispublic":1,"isfriend":0,"isfamily":0},{"id":"52135498775","owner":"39838258@N07","secret":"7011e02b5b","server":"65535","farm":66,"title":"Hooded Warbler","ispublic":1,"isfriend":0,"isfamily":0},{"id":"52083617491","owner":"21875179@N06","secret":"c554628aea","server":"65535","farm":66,"title":"HOODED WARBLER","ispublic":1,"isfriend":0,"isfamily":0},{"id":"52060011994","owner":"190764460@N06","secret":"e39773265d","server":"65535","farm":66,"title":"HOWA#1","ispublic":1,"isfriend":0,"isfamily":0},{"id":"52025270074","owner":"146080804@N02","secret":"6de6b2210b","server":"65535","farm":66,"title":"Hooded Warbler (Setophaga citrina)","ispublic":1,"isfriend":0,"isfamily":0},{"id":"52006313732","owner":"183736567@N07","secret":"5f12e1f56f","server":"65535","farm":66,"title":"Hooded Warbler (Setophaga citrina)","ispublic":1,"isfriend":0,"isfamily":0},{"id":"51995404298","owner":"13451078@N03","secret":"16909d542e","server":"65535","farm":66,"title":"Hooded Warbler (Setophaga citrina)","ispublic":1,"isfriend":0,"isfamily":0},{"id":"51979569542","owner":"13451078@N03","secret":"4ccf755f1a","server":"65535","farm":66,"title":"Hooded Warbler (Setophaga citrina)","ispublic":1,"isfriend":0,"isfamily":0},{"id":"51735078162","owner":"56686021@N04","secret":"fe61632fbc","server":"65535","farm":66,"title":"Hooded Warbler","ispublic":1,"isfriend":0,"isfamily":0},{"id":"51690013669","owner":"132508209@N08","secret":"220ea64900","server":"65535","farm":66,"title":"Hooded Warbler (Setophaga citrina)","ispublic":1,"isfriend":0,"isfamily":0},{"id":"51690013604","owner":"132508209@N08","secret":"52e3f032e1","server":"65535","farm":66,"title":"Hooded Warbler (Setophaga citrina)","ispublic":1,"isfriend":0,"isfamily":0},{"id":"51690013534","owner":"132508209@N08","secret":"9f0ff2deda","server":"65535","farm":66,"title":"Hooded Warbler (Setophaga citrina)","ispublic":1,"isfriend":0,"isfamily":0},{"id":"51690227315","owner":"132508209@N08","secret":"ebf95ea25c","server":"65535","farm":66,"title":"Hooded Warbler (Setophaga citrina)","ispublic":1,"isfriend":0,"isfamily":0},{"id":"51660176826","owner":"80355852@N00","secret":"4e71db64aa","server":"65535","farm":66,"title":"Female Hooded Warbler","ispublic":1,"isfriend":0,"isfamily":0},{"id":"51660855409","owner":"80355852@N00","secret":"3638cd8652","server":"65535","farm":66,"title":"AR5A7001.jpg","ispublic":1,"isfriend":0,"isfamily":0},{"id":"51659367467","owner":"80355852@N00","secret":"c91b9ca374","server":"65535","farm":66,"title":"AR5A6991.jpg","ispublic":1,"isfriend":0,"isfamily":0},{"id":"51661047475","owner":"80355852@N00","secret":"8f8a6e8f55","server":"65535","farm":66,"title":"AR5A6995.jpg","ispublic":1,"isfriend":0,"isfamily":0},{"id":"51660168386","owner":"80355852@N00","secret":"da1b57004d","server":"65535","farm":66,"title":"AR5A6994.jpg","ispublic":1,"isfriend":0,"isfamily":0},{"id":"51468206633","owner":"36685968@N00","secret":"f18a480d12","server":"65535","farm":66,"title":"Hooded Warbler (Setophaga citrina)","ispublic":1,"isfriend":0,"isfamily":0},{"id":"51460425525","owner":"36685968@N00","secret":"5afd45c5a3","server":"65535","farm":66,"title":"Hooded Warbler (Setophaga citrina)","ispublic":1,"isfriend":0,"isfamily":0},{"id":"51441716964","owner":"13451078@N03","secret":"57c8c7abb0","server":"65535","farm":66,"title":"Hooded Warbler (Setophaga citrina)","ispublic":1,"isfriend":0,"isfamily":0},{"id":"51438011795","owner":"13451078@N03","secret":"09165b6042","server":"65535","farm":66,"title":"Hooded Warbler (Setophaga citrina)","ispublic":1,"isfriend":0,"isfamily":0}]},"stat":"ok"}