{"photos":{"page":1,"pages":4,"perpage":100,"total":333,"photo":[{"id":"52705124937","owner":"35749580@N00","secret":"3aa8d6a1cc","server":"65535","farm":66,"title":"Hooded Tanager Jan 18 2023  IMG_0835","ispublic":1,"isfriend":0,"isfamily":0},{"id":"52603777698","owner":"29170368@N03","secret":"55ba3a6108","server":"65535","farm":66,"title":"Hooded Tanager","ispublic":1,"isfriend":0,"isfamily":0},{"id":"52284948137","owner":"182381287@N07","secret":"cc14102290","server":"65535","farm":66,"title":"Sa\u00edra-de-chap\u00e9u-preto (Nemosia pileata)","ispublic":1,"isfriend":0,"isfamily":0},{"id":"52209605903","owner":"185287246@N04","secret":"5e17763fc7","server":"65535","farm":66,"title":"Hooded Tanager - Nemosia pileata (male)","ispublic":1,"isfriend":0,"isfamily":0},{"id":"51953634880","owner":"32674493@N04","secret":"1788369a03","server":"65535","farm":66,"title":"Sa\u00edra-de-chap\u00e9u-preto (Nemosia pileata interna) macho","ispublic":1,"isfriend":0,"isfamily":0},{"id":"51816580458","owner":"189440432@N05","secret":"89d5da52bb","server":"65535","farm":66,"title":"Sa\u00edra-de-chap\u00e9u-preto (Nemosia pileata)","ispublic":1,"isfriend":0,"isfamily":0},{"id":"51550285058","owner":"61316002@N02","secret":"89a66bbf6e","server":"65535","farm":66,"title":"HOODTANA caerulea M 1608","ispublic":1,"isfriend":0,"isfamily":0},{"id":"51479552775","owner":"186193378@N07","secret":"fbb234f0be","server":"65535","farm":66,"title":"Sa\u00edra-de-chap\u00e9u-preto (f\u00eamea) (Nemosia pileata) Hooded Tanager","ispublic":1,"isfriend":0,"isfamily":0},{"id":"51208247894","owner":"134704052@N08","secret":"61654fbcab","server":"65535","farm":66,"title":"Sa\u00edra-de-chap\u00e9u-preto - Hooded Tanager","ispublic":1,"isfriend":0,"isfamily":0},{"id":"51208247884","owner":"134704052@N08","secret":"cc4e0ef51c","server":"65535","farm":66,"title":"Sa\u00edra-de-chap\u00e9u-preto - Hooded Tanager","ispublic":1,"isfriend":0,"isfamily":0},{"id":"51178657212","owner":"31704662@N08","secret":"ac6f5f4036","server":"65535","farm":66,"title":"Hooded Tanager (Nemosia pileata)","ispublic":1,"isfriend":0,"isfamily":0},{"id":"50870229106","owner":"159998223@N04","secret":"4e093fbe84","server":"65535","farm":66,"title":"Nemosia pileata","ispublic":1,"isfriend":0,"isfamily":0},{"id":"50607300621","owner":"134704052@N08","secret":"6fafe3043f","server":"65535","farm":66,"title":"Azedinho - Hooded Tanager","ispublic":1,"isfriend":0,"isfamily":0},{"id":"49608931392","owner":"45376259@N04","secret":"150f97ac5f","server":"65535","farm":66,"title":"Sa\u00edra-de-chap\u00e9u-preto (Nemosia pileata), Vale da Neblina-PB, Brasil.","ispublic":1,"isfriend":0,"isfamily":0},{"id":"49603667156","owner":"45239072@N02","secret":"fa33a59028","server":"65535","farm":66,"title":"Sa\u00edra de Chap\u00e9u Preto - Nemosia pileata","ispublic":1,"isfriend":0,"isfamily":0},{"id":"49403357947","owner":"81124164@N00","secret":"8c9db7c0ae","server":"65535","farm":66,"title":"saira-de-chapeu-preto (Nemosia pileata)  (Boddaert, 1783) Nome em Ingl\u00eas Hooded Tanager","ispublic":1,"isfriend":0,"isfamily":0},{"id":"49135505527","owner":"21182099@N05","secret":"bd47cf6ea5","server":"65535","farm":66,"title":"Hooded Tanager (Nemosia pileata), male","ispublic":1,"isfriend":0,"isfamily":0},{"id":"48718930916","owner":"33820263@N07","secret":"454f3eb80d","server":"65535","farm":66,"title":"Hooded Tanager","ispublic":1,"isfriend":0,"isfamily":0},{"id":"48718995687","owner":"33820263@N07","secret":"8f9f0e37d9","server":"65535","farm":66,"title":"Hooded Tanager","ispublic":1,"isfriend":0,"isfamily":0},{"id":"48718826636","owner":"33820263@N07","secret":"6b2d06d2f9","server":"65535","farm":66,"title":"Hooded Tanager","ispublic":1,"isfriend":0,"isfamily":0},{"id":"48614591363","owner":"167323674@N05","secret":"2161ecd9f0","server":"65535","farm":66,"title":"Sa\u00edra-de-chapeu-preto-femea-Nemosia pileata-Hooded Tanager","ispublic":1,"isfriend":0,"isfamily":0},{"id":"48613785676","owner":"167323674@N05","secret":"753d3e75b4","server":"65535","farm":66,"title":"Sa\u00edra-de-chapeu-preto-femea-Nemosia pileata-Hooded Tanager","ispublic":1,"isfriend":0,"isfamily":0},{"id":"47947332433","owner":"78145652@N02","secret":"af00423745","server":"65535","farm":66,"title":"Hooded Tanager - Nemosia pileata","ispublic":1,"isfriend":0,"isfamily":0},{"id":"46671775394","owner":"52363379@N07","secret":"c18bb6902a","server":"7828","farm":8,"title":"Nemosia pileata","ispublic":1,"isfriend":0,"isfamily":0},{"id":"47240214511","owner":"52363379@N07","secret":"831eaf2d4b","server":"7865","farm":8,"title":"Nemosia pileata","ispublic":1,"isfriend":0,"isfamily":0},{"id":"46114353342","owner":"38048846@N07","secret":"56bc904deb","server":"4904","farm":5,"title":"Sa\u00edra-de-chap\u00e9u-preto - Nemosia pileata - Hooded Tanager.","ispublic":1,"isfriend":0,"isfamily":0},{"id":"43468740505","owner":"132419988@N03","secret":"532a805c7a","server":"1870","farm":2,"title":"Sa\u00edra-de-chap\u00e9u-preto - Nemosia pileata","ispublic":1,"isfriend":0,"isfamily":0},{"id":"29203843517","owner":"29180995@N05","secret":"ca9de6cbea","server":"1864","farm":2,"title":"sa\u00edra-de-chap\u00e9u-preto (Nemosia pileata)","ispublic":1,"isfriend":0,"isfamily":0},{"id":"27783390098","owner":"128402808@N02","secret":"580d79277f","server":"921","farm":1,"title":"sa\u00edra-de-chap\u00e9u-preto (Nemosia pileata)","ispublic":1,"isfriend":0,"isfamily":0},{"id":"24236157538","owner":"112181416@N08","secret":"eca881260d","server":"4486","farm":5,"title":"P\u00e1ssaros brasileiros","ispublic":1,"isfriend":0,"isfamily":0},{"id":"37204204986","owner":"29170368@N03","secret":"fdaa669799","server":"65535","farm":66,"title":"Hooded Tanager","ispublic":1,"isfriend":0,"isfamily":0},{"id":"36012952173","owner":"132189362@N03","secret":"bd8f448d49","server":"4437","farm":5,"title":"sa\u00edra-de-chap\u00e9u-preto  ( Nemosia pileata )   -  BFSH","ispublic":1,"isfriend":0,"isfamily":0},{"id":"36167083211","owner":"156840754@N02","secret":"970fa15f94","server":"4292","farm":5,"title":"Nemosia pileata","ispublic":1,"isfriend":0,"isfamily":0},{"id":"35921888621","owner":"21182099@N05","secret":"760ce9a4fd","server":"4306","farm":5,"title":"Hooded Tanager (Nemosia pileata), male","ispublic":1,"isfriend":0,"isfamily":0},{"id":"35694737622","owner":"45376259@N04","secret":"4509a91ef0","server":"4212","farm":5,"title":"Sa\u00edra-de-chapeu-preto (Nemosia pileata), Vale da Neblina-PB, Brasil.","ispublic":1,"isfriend":0,"isfamily":0},{"id":"35661660296","owner":"132463600@N02","secret":"9b86e9422f","server":"4146","farm":5,"title":"Hooded Tanager\/\/sa\u00edra-de-chap\u00e9u-preto (Nemosia pileata)","ispublic":1,"isfriend":0,"isfamily":0},{"id":"35284698120","owner":"131639547@N07","secret":"b962bd0791","server":"4011","farm":5,"title":"sa\u00edra-de-chap\u00e9u-preto (Nemosia pileata) - Hooded Tanager","ispublic":1,"isfriend":0,"isfamily":0},{"id":"33744108513","owner":"35557649@N04","secret":"feeefcd2ff","server":"4170","farm":5,"title":"Sa\u00edra-de-chapeu-preto (Nemosia pileata)","ispublic":1,"isfriend":0,"isfamily":0},{"id":"33681193552","owner":"87325282@N00","secret":"ae356780a1","server":"3837","farm":4,"title":"Nemosia pileata","ispublic":1,"isfriend":0,"isfamily":0},{"id":"32993689304","owner":"87325282@N00","secret":"57353a592f","server":"3816","farm":4,"title":"Nemosia pileata","ispublic":1,"isfriend":0,"isfamily":0},{"id":"32984567320","owner":"121548902@N02","secret":"4c2446b937","server":"3842","farm":4,"title":"Nemosia pileata femea - Sair\u00e1 de chap\u00e9u preto","ispublic":1,"isfriend":0,"isfamily":0},{"id":"32524140084","owner":"121548902@N02","secret":"9b174f9626","server":"3725","farm":4,"title":"Nemosia pileata macho - Sair\u00e1 de chap\u00e9u preto","ispublic":1,"isfriend":0,"isfamily":0},{"id":"31330958511","owner":"35789658@N04","secret":"2f0d27edfc","server":"5524","farm":6,"title":"Nemosia pileata (macho inmaduro)","ispublic":1,"isfriend":0,"isfamily":0},{"id":"51478862888","owner":"186193378@N07","secret":"288dfcb24c","server":"65535","farm":66,"title":"Sa\u00edra-de-chap\u00e9u-preto (macho) (Nemosia pileata) Hooded Tanager","ispublic":1,"isfriend":0,"isfamily":0},{"id":"51332967626","owner":"190051159@N08","secret":"986b058ba1","server":"65535","farm":66,"title":"Sa\u00edra-de-chap\u00e9u-preto","ispublic":1,"isfriend":0,"isfamily":0},{"id":"50020026568","owner":"24308247@N00","secret":"7bc5c7089e","server":"65535","farm":66,"title":"Sa\u00edra-de-chap\u00e9u-preto","ispublic":1,"isfriend":0,"isfamily":0},{"id":"50012584671","owner":"185647511@N05","secret":"0999dc0ba4","server":"65535","farm":66,"title":"nemosia pileata","ispublic":1,"isfriend":0,"isfamily":0},{"id":"49631273381","owner":"87325282@N00","secret":"1c3dcc5a30","server":"65535","farm":66,"title":"Nemosia pileata","ispublic":1,"isfriend":0,"isfamily":0},{"id":"49631540097","owner":"87325282@N00","secret":"96b3a4c13a","server":"65535","farm":66,"title":"Nemosia pileata","ispublic":1,"isfriend":0,"isfamily":0},{"id":"49631269651","owner":"87325282@N00","secret":"8f6e140370","server":"65535","farm":66,"title":"Nemosia pileata","ispublic":1,"isfriend":0,"isfamily":0},{"id":"48444876982","owner":"38048846@N07","secret":"2985f4d52e","server":"65535","farm":66,"title":"Sa\u00edra-de-chap\u00e9u-preto - Nemosia pileata - Hooded Tanager.","ispublic":1,"isfriend":0,"isfamily":0},{"id":"46896285921","owner":"28440115@N08","secret":"2209b89102","server":"7874","farm":8,"title":"Hello Stranger","ispublic":1,"isfriend":0,"isfamily":0},{"id":"45861129534","owner":"129790246@N07","secret":"997ffdfae5","server":"7824","farm":8,"title":"Sa\u00edra-de-chap\u00e9u-preto (Nemosia pileata) (2)","ispublic":1,"isfriend":0,"isfamily":0},{"id":"46585353081","owner":"129790246@N07","secret":"c0a6680fc3","server":"4839","farm":5,"title":"Sa\u00edra-de-chap\u00e9u-preto (Nemosia pileata)","ispublic":1,"isfriend":0,"isfamily":0},{"id":"44127575610","owner":"38048846@N07","secret":"30b8d91c66","server":"4828","farm":5,"title":"Sa\u00edra-de-chap\u00e9u-preto - Nemosia pileata - Hooded Tanager.","ispublic":1,"isfriend":0,"isfamily":0},{"id":"44772559675","owner":"87325282@N00","secret":"5577ba5ce4","server":"1956","farm":2,"title":"Nemosia pileata","ispublic":1,"isfriend":0,"isfamily":0},{"id":"45686804991","owner":"87325282@N00","secret":"99b1620bbc","server":"4908","farm":5,"title":"Nemosia pileata","ispublic":1,"isfriend":0,"isfamily":0},{"id":"31814472838","owner":"87325282@N00","secret":"63ddace051","server":"1965","farm":2,"title":"Nemosia pileata","ispublic":1,"isfriend":0,"isfamily":0},{"id":"45686776131","owner":"87325282@N00","secret":"cd890a933c","server":"1971","farm":2,"title":"Nemosia pileata","ispublic":1,"isfriend":0,"isfamily":0},{"id":"30647867217","owner":"26846320@N00","secret":"5d19e2495c","server":"1944","farm":2,"title":"Nemosia pileata","ispublic":1,"isfriend":0,"isfamily":0},{"id":"45322658702","owner":"56983940@N06","secret":"9f126a68da","server":"1914","farm":2,"title":"Hooded Tanager","ispublic":1,"isfriend":0,"isfamily":0},{"id":"43556893970","owner":"56983940@N06","secret":"b7e7337152","server":"1928","farm":2,"title":"Hooded Tanager","ispublic":1,"isfriend":0,"isfamily":0},{"id":"45144218191","owner":"153924600@N07","secret":"23fc88127b","server":"1927","farm":2,"title":"Hooded Tanager (Nemosia pileata) female","ispublic":1,"isfriend":0,"isfamily":0},{"id":"28370380087","owner":"46788536@N05","secret":"d09812a187","server":"1829","farm":2,"title":"Nemosia pileata \/\/ Hooded Tanager","ispublic":1,"isfriend":0,"isfamily":0},{"id":"40750934100","owner":"68480943@N06","secret":"2244315916","server":"1760","farm":2,"title":"Sa\u00edra-de-chap\u00e9u-preto (Nemosia pileata) Hooded Tanager","ispublic":1,"isfriend":0,"isfamily":0},{"id":"38839484122","owner":"7389964@N02","secret":"49fb89dfd5","server":"4554","farm":5,"title":"NOV_03_2017_REGUA_MKII_TC_400_M - Sa\u00edra-de-chap\u00e9u-preto (Nemosia pileata)","ispublic":1,"isfriend":0,"isfamily":0},{"id":"38839482162","owner":"7389964@N02","secret":"00a44639e1","server":"4533","farm":5,"title":"NOV_03_2017_REGUA_MKII_TC_400_M - Sa\u00edra-de-chap\u00e9u-preto (Nemosia pileata)","ispublic":1,"isfriend":0,"isfamily":0},{"id":"38167727821","owner":"87325282@N00","secret":"2d4bea4430","server":"4496","farm":5,"title":"Nemosia pileata","ispublic":1,"isfriend":0,"isfamily":0},{"id":"23876217598","owner":"95579115@N03","secret":"86367d293f","server":"4493","farm":5,"title":"Hooded Tanager (Nemosia pileata)","ispublic":1,"isfriend":0,"isfamily":0},{"id":"37084398740","owner":"148234916@N06","secret":"8d34b81f1b","server":"4481","farm":5,"title":"Nemosia pileata","ispublic":1,"isfriend":0,"isfamily":0},{"id":"37204205466","owner":"29170368@N03","secret":"642d2a757d","server":"65535","farm":66,"title":"Hooded Tanager","ispublic":1,"isfriend":0,"isfamily":0},{"id":"36292388761","owner":"29048856@N00","secret":"b4f200ab87","server":"4351","farm":5,"title":"sSAIRA-DE-CHAP\u00c9U-PRETO (Nemosia pileata)","ispublic":1,"isfriend":0,"isfamily":0},{"id":"36087191795","owner":"87325282@N00","secret":"3223f2d56b","server":"4307","farm":5,"title":"Nemosia pileata","ispublic":1,"isfriend":0,"isfamily":0},{"id":"35278155323","owner":"87325282@N00","secret":"2a04ceeb65","server":"4298","farm":5,"title":"Nemosia pileata","ispublic":1,"isfriend":0,"isfamily":0},{"id":"36046996236","owner":"87325282@N00","secret":"40ce5fa0e8","server":"4307","farm":5,"title":"Nemosia pileata","ispublic":1,"isfriend":0,"isfamily":0},{"id":"36046986586","owner":"87325282@N00","secret":"cb9b43c9e0","server":"4324","farm":5,"title":"Nemosia pileata","ispublic":1,"isfriend":0,"isfamily":0},{"id":"36046971376","owner":"87325282@N00","secret":"6039a83dcf","server":"4292","farm":5,"title":"Nemosia pileata","ispublic":1,"isfriend":0,"isfamily":0},{"id":"36086921435","owner":"87325282@N00","secret":"8758b5e125","server":"4321","farm":5,"title":"Nemosia pileata","ispublic":1,"isfriend":0,"isfamily":0},{"id":"36086902605","owner":"87325282@N00","secret":"15179f8ec0","server":"4328","farm":5,"title":"Nemosia pileata","ispublic":1,"isfriend":0,"isfamily":0},{"id":"35918072082","owner":"87325282@N00","secret":"c370752d81","server":"4297","farm":5,"title":"Nemosia pileata","ispublic":1,"isfriend":0,"isfamily":0},{"id":"35697057810","owner":"87325282@N00","secret":"9965d0445e","server":"4324","farm":5,"title":"Nemosia pileata","ispublic":1,"isfriend":0,"isfamily":0},{"id":"36086800905","owner":"87325282@N00","secret":"c67ef6e867","server":"4325","farm":5,"title":"Nemosia pileata","ispublic":1,"isfriend":0,"isfamily":0},{"id":"35697012260","owner":"87325282@N00","secret":"70e3b354bc","server":"4304","farm":5,"title":"Nemosia pileata","ispublic":1,"isfriend":0,"isfamily":0},{"id":"35953627401","owner":"87325282@N00","secret":"2f96cc445f","server":"4310","farm":5,"title":"Nemosia pileata","ispublic":1,"isfriend":0,"isfamily":0},{"id":"35696925870","owner":"87325282@N00","secret":"29decbd5b4","server":"4305","farm":5,"title":"Nemosia pileata","ispublic":1,"isfriend":0,"isfamily":0},{"id":"35917923252","owner":"87325282@N00","secret":"a39c39d7a6","server":"4301","farm":5,"title":"Nemosia pileata","ispublic":1,"isfriend":0,"isfamily":0},{"id":"35277918973","owner":"87325282@N00","secret":"962bcb507c","server":"4314","farm":5,"title":"Nemosia pileata","ispublic":1,"isfriend":0,"isfamily":0},{"id":"35916679392","owner":"87325282@N00","secret":"5d5a7888c9","server":"4296","farm":5,"title":"Nemosia pileata","ispublic":1,"isfriend":0,"isfamily":0},{"id":"35681156580","owner":"156840754@N02","secret":"7a08123cd2","server":"4291","farm":5,"title":"Nemosia pileata","ispublic":1,"isfriend":0,"isfamily":0},{"id":"33904787701","owner":"48938938@N04","secret":"a5b8cdb510","server":"3941","farm":4,"title":"Hooded Tanager, Nemosia pileata","ispublic":1,"isfriend":0,"isfamily":0},{"id":"33380539956","owner":"66973379@N04","secret":"67955aaff5","server":"757","farm":1,"title":"Sa\u00edra-de-chap\u00e9u-preto (Nemosia pileata) - Hooded Tanager - female","ispublic":1,"isfriend":0,"isfamily":0},{"id":"33303852946","owner":"92743797@N07","secret":"4c094bcf1e","server":"3726","farm":4,"title":"03-04-2016-8597","ispublic":1,"isfriend":0,"isfamily":0},{"id":"32982596692","owner":"150908485@N07","secret":"5b5e476294","server":"703","farm":1,"title":"Nemosia pileata","ispublic":1,"isfriend":0,"isfamily":0},{"id":"31365029224","owner":"81124164@N00","secret":"a96e325def","server":"635","farm":1,"title":"sa\u00edra-de-chapeu-preto (Nemosia pileata)","ispublic":1,"isfriend":0,"isfamily":0},{"id":"31776984290","owner":"109175339@N03","secret":"b1a4cf640b","server":"596","farm":1,"title":"sa\u00edra-de-chap\u00e9u-preto - Nemosia pileata","ispublic":1,"isfriend":0,"isfamily":0},{"id":"31191458063","owner":"29048856@N00","secret":"fc070af0e0","server":"392","farm":1,"title":"SA\u00cdRA-DE-CHAP\u00c9U-PRETO Macho (Nemosia pileata)","ispublic":1,"isfriend":0,"isfamily":0},{"id":"31191457213","owner":"29048856@N00","secret":"f3fee4cafd","server":"778","farm":1,"title":"SA\u00cdRA-DE-CHAP\u00c9U-PRETO F\u00eamea (Nemosia pileata)","ispublic":1,"isfriend":0,"isfamily":0},{"id":"31044483670","owner":"87325282@N00","secret":"888217b191","server":"5618","farm":6,"title":"Sa\u00edra de Chap\u00e9u Preto \/ Hooded Tanager (Nemosia pileata)","ispublic":1,"isfriend":0,"isfamily":0},{"id":"30487694663","owner":"87325282@N00","secret":"7dd38af14c","server":"5571","farm":6,"title":"Sa\u00edra de Chap\u00e9u Preto \/ Hooded Tanager (Nemosia pileata)","ispublic":1,"isfriend":0,"isfamily":0},{"id":"30294456154","owner":"68480943@N06","secret":"27f765f012","server":"5698","farm":6,"title":"sa\u00edra-de-chap\u00e9u-preto (Nemosia pileata)","ispublic":1,"isfriend":0,"isfamily":0}]},"stat":"ok"}