{"photos":{"page":1,"pages":89,"perpage":100,"total":8811,"photo":[{"id":"52719631084","owner":"35539131@N07","secret":"918d68d040","server":"65535","farm":66,"title":"Slavonian (Horned) Grebe (Podiceps auritus)","ispublic":1,"isfriend":0,"isfamily":0},{"id":"52719631039","owner":"35539131@N07","secret":"789c75a805","server":"65535","farm":66,"title":"Slavonian (Horned) Grebe (Podiceps auritus)","ispublic":1,"isfriend":0,"isfamily":0},{"id":"52719626074","owner":"35539131@N07","secret":"67e0252245","server":"65535","farm":66,"title":"Slavonian (Horned) Grebe (Podiceps auritus)","ispublic":1,"isfriend":0,"isfamily":0},{"id":"52719358741","owner":"35539131@N07","secret":"5de667e49f","server":"65535","farm":66,"title":"Slavonian (Horned) Grebe (Podiceps auritus)","ispublic":1,"isfriend":0,"isfamily":0},{"id":"52718840747","owner":"35539131@N07","secret":"7095b82b64","server":"65535","farm":66,"title":"Slavonian (Horned) Grebe (Podiceps auritus)","ispublic":1,"isfriend":0,"isfamily":0},{"id":"52714237334","owner":"139524005@N03","secret":"5983eb2f20","server":"65535","farm":66,"title":"Horned Grebe 3 (Podiceps auritus)","ispublic":1,"isfriend":0,"isfamily":0},{"id":"52713979296","owner":"139524005@N03","secret":"dafdc6eca1","server":"65535","farm":66,"title":"Horned Grebe 1 (Podiceps auritus)","ispublic":1,"isfriend":0,"isfamily":0},{"id":"52714398845","owner":"139524005@N03","secret":"06e3a1de8b","server":"65535","farm":66,"title":"Horned Grebe 2 (Podiceps auritus)","ispublic":1,"isfriend":0,"isfamily":0},{"id":"52714239893","owner":"168495655@N07","secret":"64de2a5f42","server":"65535","farm":66,"title":"Gr\u00e8be esclavon - Podiceps auritus - Horned Grebe","ispublic":1,"isfriend":0,"isfamily":0},{"id":"52710838387","owner":"61241315@N00","secret":"9365dd5b0f","server":"0","farm":0,"title":"HOGR_9809.MP4","ispublic":1,"isfriend":0,"isfamily":0},{"id":"52711360986","owner":"61241315@N00","secret":"6540e00605","server":"0","farm":0,"title":"HOGR_9830.MP4","ispublic":1,"isfriend":0,"isfamily":0},{"id":"52711838513","owner":"61241315@N00","secret":"4546cc3da0","server":"65535","farm":66,"title":"DSCN9734","ispublic":1,"isfriend":0,"isfamily":0},{"id":"52711622089","owner":"61241315@N00","secret":"69561ef5c3","server":"65535","farm":66,"title":"DSCN9735","ispublic":1,"isfriend":0,"isfamily":0},{"id":"52711622079","owner":"61241315@N00","secret":"b89802574f","server":"65535","farm":66,"title":"DSCN9736","ispublic":1,"isfriend":0,"isfamily":0},{"id":"52711777550","owner":"61241315@N00","secret":"3f6a17f680","server":"65535","farm":66,"title":"DSCN9742","ispublic":1,"isfriend":0,"isfamily":0},{"id":"52711777570","owner":"61241315@N00","secret":"1baccf5db2","server":"65535","farm":66,"title":"DSCN9739","ispublic":1,"isfriend":0,"isfamily":0},{"id":"52710838417","owner":"61241315@N00","secret":"9f87bcae22","server":"65535","farm":66,"title":"DSCN9744","ispublic":1,"isfriend":0,"isfamily":0},{"id":"52711777510","owner":"61241315@N00","secret":"5a2640f6c1","server":"65535","farm":66,"title":"DSCN9805","ispublic":1,"isfriend":0,"isfamily":0},{"id":"52710838397","owner":"61241315@N00","secret":"849426d7fe","server":"65535","farm":66,"title":"DSCN9807","ispublic":1,"isfriend":0,"isfamily":0},{"id":"52711837203","owner":"61241315@N00","secret":"0fd2405bec","server":"65535","farm":66,"title":"New folder","ispublic":1,"isfriend":0,"isfamily":0},{"id":"52706884477","owner":"61396634@N07","secret":"d5fd6e5d46","server":"65535","farm":66,"title":"Horned Grebe","ispublic":1,"isfriend":0,"isfamily":0},{"id":"52703050002","owner":"62043870@N05","secret":"62a96d69e1","server":"65535","farm":66,"title":"Horned Grebe, Podiceps auritus","ispublic":1,"isfriend":0,"isfamily":0},{"id":"52698954873","owner":"89367133@N00","secret":"b4d075ef2f","server":"65535","farm":66,"title":"Chevalier semipalm\u00e9 (Catoptrophorus semipalmatus). Gr\u00e8be esclavon (Podiceps auritus).","ispublic":1,"isfriend":0,"isfamily":0},{"id":"52698798240","owner":"89536386@N08","secret":"d752d251ee","server":"65535","farm":66,"title":"Horned Grebe (Podiceps auritus)","ispublic":1,"isfriend":0,"isfamily":0},{"id":"52696064053","owner":"62043870@N05","secret":"3296b037ee","server":"65535","farm":66,"title":"Horned Grebe, Podiceps auritus","ispublic":1,"isfriend":0,"isfamily":0},{"id":"52693974797","owner":"39177293@N03","secret":"56701642b7","server":"65535","farm":66,"title":"Horned Grebe","ispublic":1,"isfriend":0,"isfamily":0},{"id":"52694685968","owner":"76288515@N07","secret":"65482a1aa4","server":"65535","farm":66,"title":"Slavonian Grebe Podiceps auritus","ispublic":1,"isfriend":0,"isfamily":0},{"id":"52694194406","owner":"76288515@N07","secret":"d93cc9248b","server":"65535","farm":66,"title":"Slavonian Grebe Podiceps auritus","ispublic":1,"isfriend":0,"isfamily":0},{"id":"52694194371","owner":"76288515@N07","secret":"501994cfd4","server":"65535","farm":66,"title":"Slavonian Grebe Podiceps auritus","ispublic":1,"isfriend":0,"isfamily":0},{"id":"52693678192","owner":"76288515@N07","secret":"8072a97a39","server":"65535","farm":66,"title":"Slavonian Grebe Podiceps auritus","ispublic":1,"isfriend":0,"isfamily":0},{"id":"52694194361","owner":"76288515@N07","secret":"3cd5731b38","server":"65535","farm":66,"title":"Slavonian Grebe Podiceps auritus","ispublic":1,"isfriend":0,"isfamily":0},{"id":"52694458619","owner":"76288515@N07","secret":"839e9cde36","server":"65535","farm":66,"title":"Slavonian Grebe Podiceps auritus","ispublic":1,"isfriend":0,"isfamily":0},{"id":"52694194321","owner":"76288515@N07","secret":"748227c3d8","server":"65535","farm":66,"title":"Slavonian Grebe Podiceps auritus","ispublic":1,"isfriend":0,"isfamily":0},{"id":"52693678112","owner":"76288515@N07","secret":"74b4102337","server":"65535","farm":66,"title":"Slavonian Grebe Podiceps auritus","ispublic":1,"isfriend":0,"isfamily":0},{"id":"52694458579","owner":"76288515@N07","secret":"5484629e8e","server":"65535","farm":66,"title":"Slavonian Grebe Podiceps auritus","ispublic":1,"isfriend":0,"isfamily":0},{"id":"52694458554","owner":"76288515@N07","secret":"1cd2a494a2","server":"65535","farm":66,"title":"Slavonian Grebe Podiceps auritus","ispublic":1,"isfriend":0,"isfamily":0},{"id":"52693678077","owner":"76288515@N07","secret":"b5be0f4103","server":"65535","farm":66,"title":"Slavonian Grebe Podiceps auritus","ispublic":1,"isfriend":0,"isfamily":0},{"id":"52687975147","owner":"196642910@N07","secret":"1a27ffbf9c","server":"65535","farm":66,"title":"Ohrentaucher","ispublic":1,"isfriend":0,"isfamily":0},{"id":"52686131994","owner":"62043870@N05","secret":"93f517a07d","server":"65535","farm":66,"title":"Horned Grebe, Podiceps auritus","ispublic":1,"isfriend":0,"isfamily":0},{"id":"52680167076","owner":"12639178@N07","secret":"17fd4a24e6","server":"65535","farm":66,"title":"Ohrentaucher (Podiceps auritus) (3)","ispublic":1,"isfriend":0,"isfamily":0},{"id":"52680602525","owner":"12639178@N07","secret":"1eaaa61a93","server":"65535","farm":66,"title":"Ohrentaucher (Podiceps auritus) (2)","ispublic":1,"isfriend":0,"isfamily":0},{"id":"52680166766","owner":"12639178@N07","secret":"0ea6e05191","server":"65535","farm":66,"title":"Ohrentaucher (Podiceps auritus) (1)","ispublic":1,"isfriend":0,"isfamily":0},{"id":"52678898341","owner":"47533293@N04","secret":"6851918635","server":"65535","farm":66,"title":"Horned grebe, Podiceps auritus","ispublic":1,"isfriend":0,"isfamily":0},{"id":"52678505566","owner":"130140749@N05","secret":"8ce4c75b01","server":"65535","farm":66,"title":"Horned Grebe,Non-breeding plumage","ispublic":1,"isfriend":0,"isfamily":0},{"id":"52672975566","owner":"65033273@N05","secret":"ba893d9b1a","server":"65535","farm":66,"title":"Kuifduiker - Horned Grebe","ispublic":1,"isfriend":0,"isfamily":0},{"id":"52633257959","owner":"49114357@N08","secret":"84e427f1b5","server":"65535","farm":66,"title":"Horned Grebe","ispublic":1,"isfriend":0,"isfamily":0},{"id":"52668822395","owner":"39177293@N03","secret":"57e098af08","server":"65535","farm":66,"title":"Horned Grebe","ispublic":1,"isfriend":0,"isfamily":0},{"id":"52667473000","owner":"42264328@N00","secret":"065837f90e","server":"65535","farm":66,"title":"Head pattern","ispublic":1,"isfriend":0,"isfamily":0},{"id":"52662262886","owner":"103722035@N06","secret":"51a111ecbe","server":"0","farm":0,"title":"Horned Grebe (Podiceps auritus), Morro Bay, CA","ispublic":1,"isfriend":0,"isfamily":0},{"id":"52656724539","owner":"62907378@N07","secret":"1bee6b3212","server":"65535","farm":66,"title":"Horned Grebe (Podiceps auritus)","ispublic":1,"isfriend":0,"isfamily":0},{"id":"52656724519","owner":"62907378@N07","secret":"862a33eb1d","server":"65535","farm":66,"title":"Horned Grebe (Podiceps auritus)","ispublic":1,"isfriend":0,"isfamily":0},{"id":"52654612526","owner":"12639178@N07","secret":"2a6a4af79d","server":"65535","farm":66,"title":"Kommt angeschippert: Hallo!","ispublic":1,"isfriend":0,"isfamily":0},{"id":"52655051175","owner":"12639178@N07","secret":"1c595a93ed","server":"65535","farm":66,"title":"Weeeer? Iiiiich etwa?","ispublic":1,"isfriend":0,"isfamily":0},{"id":"52654889214","owner":"12639178@N07","secret":"0ba2a9b158","server":"65535","farm":66,"title":"Was f\u00fcr ein h\u00fcbscher und zutraulicher Vogel","ispublic":1,"isfriend":0,"isfamily":0},{"id":"52654611556","owner":"12639178@N07","secret":"d726d2b7bd","server":"65535","farm":66,"title":"Und gleich Fisch Nummer 2 - es l\u00e4uft","ispublic":1,"isfriend":0,"isfamily":0},{"id":"52654888884","owner":"12639178@N07","secret":"1fd3da720d","server":"65535","farm":66,"title":"Unser Tauchertier beim Fischen :)","ispublic":1,"isfriend":0,"isfamily":0},{"id":"52654888744","owner":"12639178@N07","secret":"19ff7b92fe","server":"65535","farm":66,"title":"Dieses Mal war er erfolgreich!","ispublic":1,"isfriend":0,"isfamily":0},{"id":"52654275631","owner":"138918201@N04","secret":"4225bcd983","server":"65535","farm":66,"title":"Gre\u0300be esclavon - Horned grebe","ispublic":1,"isfriend":0,"isfamily":0},{"id":"52647074487","owner":"62043870@N05","secret":"e8a0abcec5","server":"65535","farm":66,"title":"Horned Grebe, Podiceps auritus","ispublic":1,"isfriend":0,"isfamily":0},{"id":"52637396344","owner":"34368269@N04","secret":"156d59bec8","server":"65535","farm":66,"title":"Horned Grebe","ispublic":1,"isfriend":0,"isfamily":0},{"id":"52637329485","owner":"14079218@N04","secret":"51591fb631","server":"65535","farm":66,"title":"Gr\u00e8be esclavon (Podiceps auritus)","ispublic":1,"isfriend":0,"isfamily":0},{"id":"52636344932","owner":"50054477@N06","secret":"776b7d93ed","server":"65535","farm":66,"title":"Gr\u00e8be esclavon (Podiceps auritus)","ispublic":1,"isfriend":0,"isfamily":0},{"id":"52636357365","owner":"33888451@N07","secret":"d6b7b15c94","server":"65535","farm":66,"title":"Horned grebe (Podiceps auritus)","ispublic":1,"isfriend":0,"isfamily":0},{"id":"52635749741","owner":"45340210@N05","secret":"c5682a9182","server":"65535","farm":66,"title":"Horned Grebe 2 1_17_23","ispublic":1,"isfriend":0,"isfamily":0},{"id":"52628575382","owner":"190735675@N02","secret":"2df2a0687d","server":"65535","farm":66,"title":"Ohrentaucher (podiceps auritus)","ispublic":1,"isfriend":0,"isfamily":0},{"id":"52629096386","owner":"190735675@N02","secret":"e093d63a38","server":"65535","farm":66,"title":"Ohrentaucher (podiceps auritus)","ispublic":1,"isfriend":0,"isfamily":0},{"id":"52629530925","owner":"190735675@N02","secret":"0d1098945b","server":"65535","farm":66,"title":"Ohrentaucher (podiceps auritus)","ispublic":1,"isfriend":0,"isfamily":0},{"id":"52629530930","owner":"190735675@N02","secret":"c3644dc355","server":"65535","farm":66,"title":"Ohrentaucher (podiceps auritus)","ispublic":1,"isfriend":0,"isfamily":0},{"id":"52629085390","owner":"157220357@N08","secret":"4f2cc6f738","server":"65535","farm":66,"title":"Slavonian Grebe Louth","ispublic":1,"isfriend":0,"isfamily":0},{"id":"52622888285","owner":"132330573@N08","secret":"18e8cef90b","server":"65535","farm":66,"title":"kuifduiker (Podiceps auritus)","ispublic":1,"isfriend":0,"isfamily":0},{"id":"52615768798","owner":"110624976@N05","secret":"df13afd189","server":"65535","farm":66,"title":"Horned Grebe on a calm lake","ispublic":1,"isfriend":0,"isfamily":0},{"id":"52615377919","owner":"132330573@N08","secret":"0ed0155e9c","server":"65535","farm":66,"title":"kuifduiker (Podiceps auritus)","ispublic":1,"isfriend":0,"isfamily":0},{"id":"52614607397","owner":"132330573@N08","secret":"538afd0eb2","server":"65535","farm":66,"title":"kuifduiker (Podiceps auritus)","ispublic":1,"isfriend":0,"isfamily":0},{"id":"52607719156","owner":"84169650@N07","secret":"4119203118","server":"65535","farm":66,"title":"Horned Grebe","ispublic":1,"isfriend":0,"isfamily":0},{"id":"52604796206","owner":"145466593@N08","secret":"0bfcc0655c","server":"65535","farm":66,"title":"Horned Grebe","ispublic":1,"isfriend":0,"isfamily":0},{"id":"52604045335","owner":"61396634@N07","secret":"bd3d05c655","server":"65535","farm":66,"title":"Horned Grebe","ispublic":1,"isfriend":0,"isfamily":0},{"id":"52616603064","owner":"134270033@N06","secret":"f370cf3d9f","server":"65535","farm":66,"title":"Preening","ispublic":1,"isfriend":0,"isfamily":0},{"id":"52600385794","owner":"90886369@N06","secret":"f3c2eaf365","server":"65535","farm":66,"title":"Horned Grebe (Podiceps auritus)","ispublic":1,"isfriend":0,"isfamily":0},{"id":"52597092841","owner":"131779834@N08","secret":"33c4552fa3","server":"65535","farm":66,"title":"Red Eye Express","ispublic":1,"isfriend":0,"isfamily":0},{"id":"52595064935","owner":"61396634@N07","secret":"ce24acf657","server":"65535","farm":66,"title":"Horned Grebe","ispublic":1,"isfriend":0,"isfamily":0},{"id":"52589788031","owner":"12639178@N07","secret":"1bcb861e83","server":"65535","farm":66,"title":"Direkt an der Bucht","ispublic":1,"isfriend":0,"isfamily":0},{"id":"52589303572","owner":"12639178@N07","secret":"b4efb70619","server":"65535","farm":66,"title":"Ohrentaucher im Portr\u00e4t","ispublic":1,"isfriend":0,"isfamily":0},{"id":"52590052489","owner":"12639178@N07","secret":"0d26a50c62","server":"65535","farm":66,"title":"Unser Model macht sich frisch","ispublic":1,"isfriend":0,"isfamily":0},{"id":"52590052364","owner":"12639178@N07","secret":"e05ee0826c","server":"65535","farm":66,"title":"...wie ein Bl\u00e4sshuhn gewackelt :D","ispublic":1,"isfriend":0,"isfamily":0},{"id":"52590303913","owner":"12639178@N07","secret":"b8555d8b3f","server":"65535","farm":66,"title":"Mit dem K\u00f6pfchen...","ispublic":1,"isfriend":0,"isfamily":0},{"id":"52590050949","owner":"12639178@N07","secret":"9a7039d7c8","server":"65535","farm":66,"title":"Viel am Ab- und Auftauchen","ispublic":1,"isfriend":0,"isfamily":0},{"id":"52589785736","owner":"12639178@N07","secret":"db52343deb","server":"65535","farm":66,"title":"Weeer iiiiich?","ispublic":1,"isfriend":0,"isfamily":0},{"id":"52590215825","owner":"12639178@N07","secret":"9ec883546a","server":"65535","farm":66,"title":"Was f\u00fcr ein zutrauliches Model","ispublic":1,"isfriend":0,"isfamily":0},{"id":"52590050419","owner":"12639178@N07","secret":"2153883fe0","server":"65535","farm":66,"title":"Ohrentaucher auf Binnensee","ispublic":1,"isfriend":0,"isfamily":0},{"id":"52589300792","owner":"12639178@N07","secret":"bcafe4653f","server":"65535","farm":66,"title":"Unser besonderes Weihnachtsgeschenk!","ispublic":1,"isfriend":0,"isfamily":0},{"id":"52586253668","owner":"56930596@N02","secret":"1b3ed22c3a","server":"65535","farm":66,"title":"Cabuss\u00f3 orellut (Podiceps auritus)","ispublic":1,"isfriend":0,"isfamily":0},{"id":"52585949624","owner":"56930596@N02","secret":"f8f82d29a5","server":"65535","farm":66,"title":"Cabuss\u00f3 orellut (Podiceps auritus)","ispublic":1,"isfriend":0,"isfamily":0},{"id":"52580826263","owner":"153973412@N04","secret":"f9bcd8cca6","server":"65535","farm":66,"title":"Horned Grebe-Podiceps auritus, Pleasant Creek SRA, IA","ispublic":1,"isfriend":0,"isfamily":0},{"id":"52573225376","owner":"27450769@N06","secret":"94c1d208b7","server":"65535","farm":66,"title":"2022 Highlight: Summer Plumage","ispublic":1,"isfriend":0,"isfamily":0},{"id":"52572667127","owner":"12639178@N07","secret":"45900baa30","server":"65535","farm":66,"title":"Ohrentaucher","ispublic":1,"isfriend":0,"isfamily":0},{"id":"52573134576","owner":"12639178@N07","secret":"dd05e4788c","server":"65535","farm":66,"title":"Ohrentaucher","ispublic":1,"isfriend":0,"isfamily":0},{"id":"52568212566","owner":"62043870@N05","secret":"4c14a1c3fe","server":"65535","farm":66,"title":"Horned Grebe, Podiceps auritus","ispublic":1,"isfriend":0,"isfamily":0},{"id":"52561214135","owner":"96252811@N02","secret":"d5cd84f949","server":"65535","farm":66,"title":"Gr\u00e8be esclavon - Podiceps auritus - Horned Grebe","ispublic":1,"isfriend":0,"isfamily":0},{"id":"52558076796","owner":"54549270@N03","secret":"fa235b6aa6","server":"65535","farm":66,"title":"Horned Grebe ~ Podiceps auritus, nonbreeding","ispublic":1,"isfriend":0,"isfamily":0},{"id":"52554210502","owner":"157220357@N08","secret":"f15ebd01c5","server":"65535","farm":66,"title":"Annagassan Slavonian Grebe","ispublic":1,"isfriend":0,"isfamily":0}]},"stat":"ok"}