{"photos":{"page":1,"pages":74,"perpage":100,"total":7374,"photo":[{"id":"52695273235","owner":"141256983@N04","secret":"bee101c057","server":"65535","farm":66,"title":"House Wren (Troglodytes aedon)","ispublic":1,"isfriend":0,"isfamily":0},{"id":"52688596131","owner":"11295713@N00","secret":"e6f2cd88f2","server":"65535","farm":66,"title":"House Wren (Troglodytes aedon) on Stump","ispublic":1,"isfriend":0,"isfamily":0},{"id":"52679468309","owner":"61062164@N08","secret":"c04d4f322a","server":"65535","farm":66,"title":"850_6152-NEF_DxO DP2","ispublic":1,"isfriend":0,"isfamily":0},{"id":"52677235777","owner":"33610210@N05","secret":"da31fc4661","server":"65535","farm":66,"title":"House Wren, Troglodytes aedon","ispublic":1,"isfriend":0,"isfamily":0},{"id":"52678181685","owner":"33610210@N05","secret":"9f9aa36c8c","server":"65535","farm":66,"title":"House Wren, Troglodytes aedon","ispublic":1,"isfriend":0,"isfamily":0},{"id":"52674924970","owner":"104988466@N08","secret":"5ef74dac99","server":"65535","farm":66,"title":"05. Troglodyte familier - Troglodytes aedon - House Wren","ispublic":1,"isfriend":0,"isfamily":0},{"id":"52674485666","owner":"104988466@N08","secret":"8ea7dbce2c","server":"65535","farm":66,"title":"06. Troglodyte familier - Troglodytes aedon - House Wren","ispublic":1,"isfriend":0,"isfamily":0},{"id":"52669452290","owner":"132165466@N08","secret":"6ea7e7ab22","server":"65535","farm":66,"title":"House Wren","ispublic":1,"isfriend":0,"isfamily":0},{"id":"52668518767","owner":"132165466@N08","secret":"ea9d4042a9","server":"65535","farm":66,"title":"House Wren","ispublic":1,"isfriend":0,"isfamily":0},{"id":"52667613986","owner":"33610210@N05","secret":"9190314538","server":"65535","farm":66,"title":"House Wren, Troglodytes aedon","ispublic":1,"isfriend":0,"isfamily":0},{"id":"52668051795","owner":"33610210@N05","secret":"b955e72262","server":"65535","farm":66,"title":"House Wren, Troglodytes aedon","ispublic":1,"isfriend":0,"isfamily":0},{"id":"52668118438","owner":"33610210@N05","secret":"93a85b2e04","server":"65535","farm":66,"title":"House Wren, Troglodytes aedon","ispublic":1,"isfriend":0,"isfamily":0},{"id":"52661819756","owner":"33610210@N05","secret":"ecc7c1045a","server":"65535","farm":66,"title":"House Wren, Troglodytes aedon","ispublic":1,"isfriend":0,"isfamily":0},{"id":"52661819701","owner":"33610210@N05","secret":"70ac874360","server":"65535","farm":66,"title":"House Wren, Troglodytes aedon","ispublic":1,"isfriend":0,"isfamily":0},{"id":"52661608131","owner":"196127020@N02","secret":"716da0abdb","server":"65535","farm":66,"title":"House Wren","ispublic":1,"isfriend":0,"isfamily":0},{"id":"52661893294","owner":"196127020@N02","secret":"e87dc1020b","server":"65535","farm":66,"title":"House Wren","ispublic":1,"isfriend":0,"isfamily":0},{"id":"52662099308","owner":"196127020@N02","secret":"f455c8682a","server":"65535","farm":66,"title":"House Wren","ispublic":1,"isfriend":0,"isfamily":0},{"id":"52662050935","owner":"196127020@N02","secret":"f357493bbd","server":"65535","farm":66,"title":"House Wren","ispublic":1,"isfriend":0,"isfamily":0},{"id":"52661608036","owner":"196127020@N02","secret":"c6861d2d75","server":"65535","farm":66,"title":"House Wren","ispublic":1,"isfriend":0,"isfamily":0},{"id":"52662099208","owner":"196127020@N02","secret":"cc0d40a606","server":"65535","farm":66,"title":"House Wren","ispublic":1,"isfriend":0,"isfamily":0},{"id":"52661893174","owner":"196127020@N02","secret":"39bdf5d5c4","server":"65535","farm":66,"title":"House Wren","ispublic":1,"isfriend":0,"isfamily":0},{"id":"52662099153","owner":"196127020@N02","secret":"01c3994807","server":"65535","farm":66,"title":"House Wren","ispublic":1,"isfriend":0,"isfamily":0},{"id":"52661107077","owner":"196127020@N02","secret":"a162d669eb","server":"65535","farm":66,"title":"House Wren","ispublic":1,"isfriend":0,"isfamily":0},{"id":"52661107062","owner":"196127020@N02","secret":"4d27a7aaff","server":"65535","farm":66,"title":"House Wren","ispublic":1,"isfriend":0,"isfamily":0},{"id":"52661893069","owner":"196127020@N02","secret":"f6cac9681b","server":"65535","farm":66,"title":"House Wren","ispublic":1,"isfriend":0,"isfamily":0},{"id":"52662098993","owner":"196127020@N02","secret":"fe428e8e10","server":"65535","farm":66,"title":"House Wren","ispublic":1,"isfriend":0,"isfamily":0},{"id":"52662098963","owner":"196127020@N02","secret":"3caeb3cc02","server":"65535","farm":66,"title":"House Wren","ispublic":1,"isfriend":0,"isfamily":0},{"id":"52661106922","owner":"196127020@N02","secret":"319370ee67","server":"65535","farm":66,"title":"House Wren","ispublic":1,"isfriend":0,"isfamily":0},{"id":"52661106897","owner":"196127020@N02","secret":"c38ba9d181","server":"65535","farm":66,"title":"House Wren","ispublic":1,"isfriend":0,"isfamily":0},{"id":"52659523352","owner":"136180232@N08","secret":"0605078686","server":"65535","farm":66,"title":"House Wren (Troglodytes aedon) JTE_0495","ispublic":1,"isfriend":0,"isfamily":0},{"id":"52641801557","owner":"39511843@N07","secret":"1481f35f51","server":"65535","farm":66,"title":"20230120-House Wren (Troglodytes aedon)-1","ispublic":1,"isfriend":0,"isfamily":0},{"id":"52641801482","owner":"39511843@N07","secret":"475dfcc633","server":"65535","farm":66,"title":"20230120-House Wren (Troglodytes aedon)-2","ispublic":1,"isfriend":0,"isfamily":0},{"id":"52621236800","owner":"39511843@N07","secret":"9a33220e35","server":"65535","farm":66,"title":"20230102-House Wren (Troglodytes aedon)-2","ispublic":1,"isfriend":0,"isfamily":0},{"id":"52621236770","owner":"39511843@N07","secret":"83ef15cf25","server":"65535","farm":66,"title":"20230102-House Wren (Troglodytes aedon)-3-","ispublic":1,"isfriend":0,"isfamily":0},{"id":"52621284173","owner":"39511843@N07","secret":"c577d38b34","server":"65535","farm":66,"title":"20230102-House Wren (Troglodytes aedon)-3","ispublic":1,"isfriend":0,"isfamily":0},{"id":"52616695858","owner":"188352054@N08","secret":"20fd7c3ed4","server":"65535","farm":66,"title":"IMG_4520","ispublic":1,"isfriend":0,"isfamily":0},{"id":"52614280346","owner":"78193635@N02","secret":"9b078b0462","server":"65535","farm":66,"title":"House Wren","ispublic":1,"isfriend":0,"isfamily":0},{"id":"52608356748","owner":"196914694@N04","secret":"788f0112d1","server":"65535","farm":66,"title":"Cherc\u00e1n (Troglodytes aedon)","ispublic":1,"isfriend":0,"isfamily":0},{"id":"52605554171","owner":"32752434@N07","secret":"cacfe499ef","server":"65535","farm":66,"title":"House Wren (Troglodytes aedon)","ispublic":1,"isfriend":0,"isfamily":0},{"id":"52584703011","owner":"76288515@N07","secret":"55b9348ef0","server":"65535","farm":66,"title":"House Wren Troglodytes aedon","ispublic":1,"isfriend":0,"isfamily":0},{"id":"52584233977","owner":"76288515@N07","secret":"18f7bb1e8e","server":"65535","farm":66,"title":"House Wren Troglodytes aedon","ispublic":1,"isfriend":0,"isfamily":0},{"id":"52585222753","owner":"76288515@N07","secret":"415e58b580","server":"65535","farm":66,"title":"House Wren Troglodytes aedon","ispublic":1,"isfriend":0,"isfamily":0},{"id":"52585222698","owner":"76288515@N07","secret":"a30c7568ed","server":"65535","farm":66,"title":"House Wren Troglodytes aedon","ispublic":1,"isfriend":0,"isfamily":0},{"id":"52584966494","owner":"76288515@N07","secret":"ef4acba753","server":"65535","farm":66,"title":"House Wren Troglodytes aedon","ispublic":1,"isfriend":0,"isfamily":0},{"id":"52584233882","owner":"76288515@N07","secret":"b70a71c193","server":"65535","farm":66,"title":"House Wren Troglodytes aedon","ispublic":1,"isfriend":0,"isfamily":0},{"id":"52580741435","owner":"153973412@N04","secret":"001931bc78","server":"65535","farm":66,"title":"House Wren-Troglodytes aedon, Iowa CIty, IA","ispublic":1,"isfriend":0,"isfamily":0},{"id":"52575226906","owner":"11295713@N00","secret":"5846b8dba1","server":"65535","farm":66,"title":"House Wren (Troglodytes aedon) on Stump","ispublic":1,"isfriend":0,"isfamily":0},{"id":"52575501659","owner":"11295713@N00","secret":"420c0c1390","server":"65535","farm":66,"title":"House Wren (Troglodytes aedon) with Insect on Log","ispublic":1,"isfriend":0,"isfamily":0},{"id":"52575019025","owner":"51928691@N04","secret":"21c149122c","server":"65535","farm":66,"title":"House Wren (Troglodytes aedon) 1 121922","ispublic":1,"isfriend":0,"isfamily":0},{"id":"52574103617","owner":"51928691@N04","secret":"48daeceef7","server":"65535","farm":66,"title":"House Wren (Troglodytes aedon) 2 121922","ispublic":1,"isfriend":0,"isfamily":0},{"id":"52572468804","owner":"33610210@N05","secret":"9c6b0729d2","server":"65535","farm":66,"title":"House wren, Troglodytes aedon","ispublic":1,"isfriend":0,"isfamily":0},{"id":"52572468764","owner":"33610210@N05","secret":"98eaa7bfd5","server":"65535","farm":66,"title":"House wren, Troglodytes aedon","ispublic":1,"isfriend":0,"isfamily":0},{"id":"52572370423","owner":"79024073@N06","secret":"6b2a0cf091","server":"65535","farm":66,"title":"Cherc\u00e1n (Troglodytes aedon chilensis) 001","ispublic":1,"isfriend":0,"isfamily":0},{"id":"52571951858","owner":"123174353@N02","secret":"307a20cc68","server":"65535","farm":66,"title":"Troglodytes aedon musculus \/ Southern House Wren \/ huiswinterkoning","ispublic":1,"isfriend":0,"isfamily":0},{"id":"52564981107","owner":"88932760@N08","secret":"590dae923f","server":"65535","farm":66,"title":"Loud Wren","ispublic":1,"isfriend":0,"isfamily":0},{"id":"52555959146","owner":"189223790@N06","secret":"4e8fbe4b8f","server":"65535","farm":66,"title":"House wren - Troglodytes aedon - Cucarachero com\u00fan.","ispublic":1,"isfriend":0,"isfamily":0},{"id":"52554624537","owner":"23711298@N07","secret":"20b46f2a17","server":"65535","farm":66,"title":"Wren- House Wren, Minnesota, Ramsey County- White Bear Lake, Tamarack Nature Center","ispublic":1,"isfriend":0,"isfamily":0},{"id":"52553988130","owner":"182225716@N07","secret":"ed9544006f","server":"65535","farm":66,"title":"DSC_7174_00001 House Wren - Troglodyte familier (Troglodytes aedon)","ispublic":1,"isfriend":0,"isfamily":0},{"id":"52529827228","owner":"193726270@N06","secret":"80c5708bf9","server":"65535","farm":66,"title":"Troglodytes aedon","ispublic":1,"isfriend":0,"isfamily":0},{"id":"52528787082","owner":"184921031@N02","secret":"4fe0b1ab4f","server":"65535","farm":66,"title":"Troglodytes aedon, Cherc\u00e1n.","ispublic":1,"isfriend":0,"isfamily":0},{"id":"52520574288","owner":"23859768@N04","secret":"1b8d81f49d","server":"65535","farm":66,"title":"DSC_7755","ispublic":1,"isfriend":0,"isfamily":0},{"id":"52520574303","owner":"23859768@N04","secret":"8dca6a3937","server":"65535","farm":66,"title":"DSC_7752","ispublic":1,"isfriend":0,"isfamily":0},{"id":"52520574283","owner":"23859768@N04","secret":"f0aa1e2718","server":"65535","farm":66,"title":"DSC_7757","ispublic":1,"isfriend":0,"isfamily":0},{"id":"52520499345","owner":"23859768@N04","secret":"3aaa251836","server":"65535","farm":66,"title":"DSC_7760","ispublic":1,"isfriend":0,"isfamily":0},{"id":"52519547882","owner":"23859768@N04","secret":"e597eb973e","server":"65535","farm":66,"title":"DSC_7759","ispublic":1,"isfriend":0,"isfamily":0},{"id":"52519547887","owner":"23859768@N04","secret":"cc05d3dd1d","server":"65535","farm":66,"title":"DSC_7758","ispublic":1,"isfriend":0,"isfamily":0},{"id":"52520296454","owner":"23859768@N04","secret":"5e654c790b","server":"65535","farm":66,"title":"DSC_7754","ispublic":1,"isfriend":0,"isfamily":0},{"id":"52515070138","owner":"93293461@N03","secret":"054588bb10","server":"65535","farm":66,"title":"Troglodytes aedon","ispublic":1,"isfriend":0,"isfamily":0},{"id":"52508316590","owner":"88932760@N08","secret":"721768b82d","server":"65535","farm":66,"title":"House Wren Amongst the Berries","ispublic":1,"isfriend":0,"isfamily":0},{"id":"52506167363","owner":"184921031@N02","secret":"3ce03d0634","server":"65535","farm":66,"title":"Troglodytes aedon, Cherc\u00e1n.","ispublic":1,"isfriend":0,"isfamily":0},{"id":"52495170951","owner":"12639178@N07","secret":"21c0964f14","server":"65535","farm":66,"title":"35609_House Wren Troglodytes aedon","ispublic":1,"isfriend":0,"isfamily":0},{"id":"52495196609","owner":"108019618@N06","secret":"d29c0d4129","server":"65535","farm":66,"title":"_KBL3248_Cargolet americ\u00e0 (Troglodytes aedon)_chochin criollo","ispublic":1,"isfriend":0,"isfamily":0},{"id":"52493210757","owner":"61316002@N02","secret":"d7ee2d9167","server":"65535","farm":66,"title":"HOUSWREN striatus 7986","ispublic":1,"isfriend":0,"isfamily":0},{"id":"52493295240","owner":"86666094@N00","secret":"e0d0e286aa","server":"65535","farm":66,"title":"House Wren","ispublic":1,"isfriend":0,"isfamily":0},{"id":"52490524167","owner":"79024073@N06","secret":"28ef492801","server":"65535","farm":66,"title":"Cherc\u00e1n (Troglodytes aedon chilensis) 005","ispublic":1,"isfriend":0,"isfamily":0},{"id":"52404866728","owner":"49114357@N08","secret":"15afbe60d2","server":"65535","farm":66,"title":"House Wren","ispublic":1,"isfriend":0,"isfamily":0},{"id":"52489115064","owner":"56686021@N04","secret":"9966f59824","server":"65535","farm":66,"title":"House Wren","ispublic":1,"isfriend":0,"isfamily":0},{"id":"52483832694","owner":"59777454@N02","secret":"2666aafcb4","server":"65535","farm":66,"title":"House Wren on crabapple Tekiela K0A3034","ispublic":1,"isfriend":0,"isfamily":0},{"id":"52468758745","owner":"99613800@N02","secret":"d45e2d3682","server":"65535","farm":66,"title":"Troglodytes aedon (House Wren) - Troglodytidae - Rio Botanic Gardens, Rio de Janeiro, Brazil-2","ispublic":1,"isfriend":0,"isfamily":0},{"id":"52465906818","owner":"38514062@N03","secret":"7f0aa3ecfb","server":"65535","farm":66,"title":"House Wren (Troglodytes aedon)","ispublic":1,"isfriend":0,"isfamily":0},{"id":"52455911042","owner":"21558080@N07","secret":"7eb0c1564e","server":"65535","farm":66,"title":"House Wren (Troglodytes aedon) (sp. # 403)","ispublic":1,"isfriend":0,"isfamily":0},{"id":"52445059752","owner":"56686021@N04","secret":"2be25fd3e1","server":"65535","farm":66,"title":"House Wren","ispublic":1,"isfriend":0,"isfamily":0},{"id":"52445049240","owner":"188451439@N02","secret":"c2b8f778ea","server":"65535","farm":66,"title":"House Wren (Troglodytes aedon)","ispublic":1,"isfriend":0,"isfamily":0},{"id":"52444881894","owner":"188451439@N02","secret":"0f6a529077","server":"65535","farm":66,"title":"House Wren (Troglodytes aedon)","ispublic":1,"isfriend":0,"isfamily":0},{"id":"52444446986","owner":"38514062@N03","secret":"8d3b94eb68","server":"65535","farm":66,"title":"House Wren (Troglodytes aedon)","ispublic":1,"isfriend":0,"isfamily":0},{"id":"52439525022","owner":"38514062@N03","secret":"581b011e6b","server":"65535","farm":66,"title":"House Wren (Troglodytes aedon)","ispublic":1,"isfriend":0,"isfamily":0},{"id":"52439829973","owner":"192502021@N07","secret":"5d7b7a90f6","server":"65535","farm":66,"title":"Troglodytes aedon - House Wren - Cucarachero Com\u00fan","ispublic":1,"isfriend":0,"isfamily":0},{"id":"52430126474","owner":"187385167@N05","secret":"39ecc57a33","server":"65535","farm":66,"title":"Cherc\u00e1n (Troglodytes aedon)","ispublic":1,"isfriend":0,"isfamily":0},{"id":"52430299630","owner":"187385167@N05","secret":"4602894006","server":"65535","farm":66,"title":"Jilguero (Troglodytes aedon)","ispublic":1,"isfriend":0,"isfamily":0},{"id":"52643491966","owner":"195899031@N06","secret":"f2c2f1c411","server":"65535","farm":66,"title":"troglodytes aedon","ispublic":1,"isfriend":0,"isfamily":0},{"id":"52609863756","owner":"62043870@N05","secret":"66a308f4aa","server":"65535","farm":66,"title":"House Wren, Troglodytes aedon","ispublic":1,"isfriend":0,"isfamily":0},{"id":"52595876487","owner":"159284114@N07","secret":"343904d7f4","server":"65535","farm":66,"title":"Troglodyte familier, House wren","ispublic":1,"isfriend":0,"isfamily":0},{"id":"52584234027","owner":"76288515@N07","secret":"03ab0bd0ac","server":"65535","farm":66,"title":"House Wren Troglodytes aedon","ispublic":1,"isfriend":0,"isfamily":0},{"id":"52584702956","owner":"76288515@N07","secret":"de980e9dc4","server":"65535","farm":66,"title":"House Wren Troglodytes aedon","ispublic":1,"isfriend":0,"isfamily":0},{"id":"52585137940","owner":"76288515@N07","secret":"4a12feddf6","server":"65535","farm":66,"title":"House Wren Troglodytes aedon","ispublic":1,"isfriend":0,"isfamily":0},{"id":"52542614807","owner":"13451078@N03","secret":"e9c9a1fd69","server":"65535","farm":66,"title":"House Wren (Troglodytes aedon)","ispublic":1,"isfriend":0,"isfamily":0},{"id":"52538391802","owner":"67306066@N03","secret":"74055e2d35","server":"65535","farm":66,"title":"House Wren (Troglodytes aedon)","ispublic":1,"isfriend":0,"isfamily":0},{"id":"52503134054","owner":"37203410@N07","secret":"e3e4f15816","server":"65535","farm":66,"title":"Cherc\u00e1n com\u00fan \/ Troglodytes aedon","ispublic":1,"isfriend":0,"isfamily":0},{"id":"52446398846","owner":"195426528@N03","secret":"6bc1bd177c","server":"65535","farm":66,"title":"CHERCAN,Troglodytes aedon chilensis","ispublic":1,"isfriend":0,"isfamily":0},{"id":"52429134454","owner":"77128742@N06","secret":"8822583523","server":"65535","farm":66,"title":"Peruanischer Hauszaunko\u0308nig_Troglodytes aedon carabayae-4","ispublic":1,"isfriend":0,"isfamily":0}]},"stat":"ok"}