{"photos":{"page":1,"pages":2,"perpage":100,"total":174,"photo":[{"id":"52690220077","owner":"57700587@N02","secret":"79e424d3ee","server":"65535","farm":66,"title":"The Indigo flycatcher \u9752\u4ed9\u9e5f","ispublic":1,"isfriend":0,"isfamily":0},{"id":"52666281574","owner":"45473917@N07","secret":"3e9b848393","server":"65535","farm":66,"title":"Indigo Flycatcher (Eumyias indigo) @ Gunung Alab, Sabah, East Malaysia_20221031_DSC0444","ispublic":1,"isfriend":0,"isfamily":0},{"id":"52666488703","owner":"45473917@N07","secret":"f22355543f","server":"65535","farm":66,"title":"Indigo Flycatcher (Eumyias indigo) @ Gunung Alab, Sabah, East Malaysia_20221031_DSC0493","ispublic":1,"isfriend":0,"isfamily":0},{"id":"52666488653","owner":"45473917@N07","secret":"a7867a63dc","server":"65535","farm":66,"title":"Indigo Flycatcher (Eumyias indigo) @ Gunung Alab, Sabah, East Malaysia_20221031_DSC0698","ispublic":1,"isfriend":0,"isfamily":0},{"id":"52634358923","owner":"61485851@N06","secret":"0e87dfb6fb","server":"65535","farm":66,"title":"Indigo flycatcher","ispublic":1,"isfriend":0,"isfamily":0},{"id":"52624594091","owner":"57700587@N02","secret":"33953b301b","server":"65535","farm":66,"title":"The Indigo flycatcher \u9752\u4ed9\u9e5f","ispublic":1,"isfriend":0,"isfamily":0},{"id":"52565576515","owner":"7200351@N08","secret":"2780347c67","server":"65535","farm":66,"title":"Eumyias indigo cerviniventris","ispublic":1,"isfriend":0,"isfamily":0},{"id":"52565653483","owner":"7200351@N08","secret":"25bba10d7e","server":"65535","farm":66,"title":"Eumyias indigo cerviniventris","ispublic":1,"isfriend":0,"isfamily":0},{"id":"52465746792","owner":"24287653@N05","secret":"174aacaea5","server":"65535","farm":66,"title":"ALO_(Eumyias indigo)","ispublic":1,"isfriend":0,"isfamily":0},{"id":"52349936801","owner":"61485851@N06","secret":"bdd21467e8","server":"65535","farm":66,"title":"Indigo flycatcher","ispublic":1,"isfriend":0,"isfamily":0},{"id":"52350048143","owner":"61485851@N06","secret":"9c9fc2a030","server":"65535","farm":66,"title":"Indigo flycatcher (Lifer #138)","ispublic":1,"isfriend":0,"isfamily":0},{"id":"52297059842","owner":"17487183@N00","secret":"548913793f","server":"65535","farm":66,"title":"Eumyias indigo (Indigo Flycatcher)","ispublic":1,"isfriend":0,"isfamily":0},{"id":"52267659522","owner":"79476731@N00","secret":"5efe45b47f","server":"65535","farm":66,"title":"The Very Beautiful yet Vulnerable - The Nilgiri Flycatcher (Male)","ispublic":1,"isfriend":0,"isfamily":0},{"id":"52158895247","owner":"24287653@N05","secret":"b6113909ec","server":"65535","farm":66,"title":"ALO_Kinabalu Park,North Borneo","ispublic":1,"isfriend":0,"isfamily":0},{"id":"52146490725","owner":"79476731@N00","secret":"de406c2d0a","server":"65535","farm":66,"title":"The Nilgiri Flycatcher (Juvenile)","ispublic":1,"isfriend":0,"isfamily":0},{"id":"51959634869","owner":"79476731@N00","secret":"ffefe88bcb","server":"65535","farm":66,"title":"A Beautiful yet Vulnerable - The Nilgiri Flycatcher (Female)","ispublic":1,"isfriend":0,"isfamily":0},{"id":"51958333232","owner":"79476731@N00","secret":"e3e50c06e2","server":"65535","farm":66,"title":"The Very Beautiful yet Vulnerable - The Nilgiri Flycatcher (Male)","ispublic":1,"isfriend":0,"isfamily":0},{"id":"51865018139","owner":"49876287@N04","secret":"1bc630d77b","server":"65535","farm":66,"title":"Indigo Flycatcher","ispublic":1,"isfriend":0,"isfamily":0},{"id":"51741302489","owner":"79476731@N00","secret":"f5f0e0a762","server":"65535","farm":66,"title":"The Vulnerable Blue Beauty - The Nilgiri Flycatcher (Male)","ispublic":1,"isfriend":0,"isfamily":0},{"id":"50311005116","owner":"77600294@N07","secret":"8293293caf","server":"65535","farm":66,"title":"Eumyias indigo cerviniventris \u9752\u4ed9\u9db2 \u975b\u85cd\u9738\u9db2","ispublic":1,"isfriend":0,"isfamily":0},{"id":"50311176572","owner":"77600294@N07","secret":"ea713f4af1","server":"65535","farm":66,"title":"Eumyias indigo cerviniventris \u9752\u4ed9\u9db2 \u975b\u85cd\u9738\u9db2","ispublic":1,"isfriend":0,"isfamily":0},{"id":"50311175677","owner":"77600294@N07","secret":"aa47dfcca6","server":"65535","farm":66,"title":"Eumyias indigo cerviniventris \u9752\u4ed9\u9db2 \u975b\u85cd\u9738\u9db2","ispublic":1,"isfriend":0,"isfamily":0},{"id":"49722758158","owner":"61485851@N06","secret":"d17ff7ace5","server":"65535","farm":66,"title":"Indigo flycatcher","ispublic":1,"isfriend":0,"isfamily":0},{"id":"49682167452","owner":"61485851@N06","secret":"825d275477","server":"65535","farm":66,"title":"Indigo flycatcher","ispublic":1,"isfriend":0,"isfamily":0},{"id":"49678575396","owner":"61485851@N06","secret":"2ea9423222","server":"65535","farm":66,"title":"Indigo flycatcher","ispublic":1,"isfriend":0,"isfamily":0},{"id":"49582807298","owner":"143943445@N02","secret":"5c7ac0ee9b","server":"65535","farm":66,"title":"Indigo Flycatcher (Eumyias indigo) \u9752\u4ed9\u9db2","ispublic":1,"isfriend":0,"isfamily":0},{"id":"49548070322","owner":"49876287@N04","secret":"5c49217ce0","server":"65535","farm":66,"title":"Indigo Flycatcher","ispublic":1,"isfriend":0,"isfamily":0},{"id":"49491786127","owner":"14888671@N02","secret":"ff5e484faf","server":"65535","farm":66,"title":"Indigo Flycatcher","ispublic":1,"isfriend":0,"isfamily":0},{"id":"49491573646","owner":"14888671@N02","secret":"ef69e40f4c","server":"65535","farm":66,"title":"Indigo Flycatcher","ispublic":1,"isfriend":0,"isfamily":0},{"id":"49095165686","owner":"148263603@N06","secret":"f24d5bdbaf","server":"65535","farm":66,"title":"Indigo Flycatcher (Eumyias indigo)","ispublic":1,"isfriend":0,"isfamily":0},{"id":"48880230008","owner":"49876287@N04","secret":"2edc6d6e43","server":"65535","farm":66,"title":"Indigo Flycatcher","ispublic":1,"isfriend":0,"isfamily":0},{"id":"48875825821","owner":"49876287@N04","secret":"4855222f2e","server":"65535","farm":66,"title":"Indigo Flycatcher","ispublic":1,"isfriend":0,"isfamily":0},{"id":"48326733401","owner":"16520061@N08","secret":"1a9ef57aec","server":"65535","farm":66,"title":"Rufous-vented Flycatcher (Eumyias ruficrissa)","ispublic":1,"isfriend":0,"isfamily":0},{"id":"48024614776","owner":"32136583@N04","secret":"1075fe1807","server":"65535","farm":66,"title":"Indigo Flycatcher","ispublic":1,"isfriend":0,"isfamily":0},{"id":"46667313195","owner":"32136583@N04","secret":"bd74acea51","server":"7911","farm":8,"title":"Indigo Flycatcher","ispublic":1,"isfriend":0,"isfamily":0},{"id":"45980058845","owner":"124848818@N07","secret":"4e3ab8857a","server":"4911","farm":5,"title":"The indigo flycatcher (Eumyias indigo)","ispublic":1,"isfriend":0,"isfamily":0},{"id":"45980058525","owner":"124848818@N07","secret":"e3565078c5","server":"7874","farm":8,"title":"The indigo flycatcher (Eumyias indigo)","ispublic":1,"isfriend":0,"isfamily":0},{"id":"45509853554","owner":"37347725@N07","secret":"f4c67f0617","server":"4805","farm":5,"title":"Indigo Flycatcher, male, Gunung Gede, West Java, Indonesia,  Eumyias indigo","ispublic":1,"isfriend":0,"isfamily":0},{"id":"43649384654","owner":"9638954@N07","secret":"896f214b72","server":"1865","farm":2,"title":"Indigo Flycatcher","ispublic":1,"isfriend":0,"isfamily":0},{"id":"41505965445","owner":"124394812@N08","secret":"9aef39d6fb","server":"1736","farm":2,"title":"Gobemouche indigo","ispublic":1,"isfriend":0,"isfamily":0},{"id":"34215978452","owner":"65637506@N02","secret":"9ddf0c295f","server":"4168","farm":5,"title":"Indigo Flycatcher ( Eumyias indigo )  #bird #birds #birding #birdwatcher #birdwatching #nature #naturephotography #wildlife #wildlifephotography #peliharaburungdialam #gedepangrango #tnggp #mountgedepangrangonationalpark","ispublic":1,"isfriend":0,"isfamily":0},{"id":"31258194523","owner":"146326063@N06","secret":"3bd2aeedcb","server":"660","farm":1,"title":"Friendly","ispublic":1,"isfriend":0,"isfamily":0},{"id":"25426740241","owner":"53919301@N06","secret":"da7bb1e0d3","server":"1551","farm":2,"title":"Indigo Flycatcher (Eumyias indigo)","ispublic":1,"isfriend":0,"isfamily":0},{"id":"25060820131","owner":"65827265@N05","secret":"0002b84566","server":"1586","farm":2,"title":"Halo","ispublic":1,"isfriend":0,"isfamily":0},{"id":"16336529714","owner":"18731552@N00","secret":"a4b19d1b5a","server":"8713","farm":9,"title":"Indigo Flycatcher D4A3952.jpg","ispublic":1,"isfriend":0,"isfamily":0},{"id":"52564898816","owner":"7200351@N08","secret":"0a9b2667e1","server":"0","farm":0,"title":"Eumyias indigo cerviniventris","ispublic":1,"isfriend":0,"isfamily":0},{"id":"52492080659","owner":"7200351@N08","secret":"d89fb717e6","server":"65535","farm":66,"title":"Eumyias indigo indigo","ispublic":1,"isfriend":0,"isfamily":0},{"id":"52492080674","owner":"7200351@N08","secret":"b99d8b2411","server":"65535","farm":66,"title":"Eumyias indigo indigo","ispublic":1,"isfriend":0,"isfamily":0},{"id":"52491638946","owner":"7200351@N08","secret":"024323c5fd","server":"65535","farm":66,"title":"Eumyias indigo indigo","ispublic":1,"isfriend":0,"isfamily":0},{"id":"52491638926","owner":"7200351@N08","secret":"90bc5a8d87","server":"65535","farm":66,"title":"Eumyias indigo indigo","ispublic":1,"isfriend":0,"isfamily":0},{"id":"52489735889","owner":"7200351@N08","secret":"6b7d799ddb","server":"0","farm":0,"title":"Eumyias indigo indigo","ispublic":1,"isfriend":0,"isfamily":0},{"id":"52227271851","owner":"98682992@N00","secret":"be02aa5c36","server":"65535","farm":66,"title":"HKR74155","ispublic":1,"isfriend":0,"isfamily":0},{"id":"52226238122","owner":"98682992@N00","secret":"e66d36088e","server":"65535","farm":66,"title":"HKR74179","ispublic":1,"isfriend":0,"isfamily":0},{"id":"50817697883","owner":"148072293@N05","secret":"9098f5fa08","server":"65535","farm":66,"title":"DSC_1095 Indigo flycatcher, Eumyias indigo, Indigo irfluesnapper.","ispublic":1,"isfriend":0,"isfamily":0},{"id":"50779488931","owner":"145183414@N05","secret":"8733ca14fa","server":"65535","farm":66,"title":"Indigo Flycatcher - Eumyias indigo","ispublic":1,"isfriend":0,"isfamily":0},{"id":"50778719233","owner":"145183414@N05","secret":"3d49279463","server":"65535","farm":66,"title":"Indigo Flycatcher - Eumyias indigo","ispublic":1,"isfriend":0,"isfamily":0},{"id":"50572606711","owner":"148072293@N05","secret":"99f35904f7","server":"65535","farm":66,"title":"DSC_0549 Indigo flycatcher, Eumyias indigo, Indigo irfluesnapper.","ispublic":1,"isfriend":0,"isfamily":0},{"id":"50571862998","owner":"148072293@N05","secret":"c28d58fd4e","server":"65535","farm":66,"title":"DSC_0545 Indigo flycatcher, Eumyias indigo, Indigo irfluesnapper.","ispublic":1,"isfriend":0,"isfamily":0},{"id":"49638512183","owner":"143943445@N02","secret":"7f6dd19771","server":"65535","farm":66,"title":"Indigo Flycatcher (Eumyias indigo) \u9752\u4ed9\u9db2","ispublic":1,"isfriend":0,"isfamily":0},{"id":"49636947923","owner":"142083658@N05","secret":"a4ce399092","server":"65535","farm":66,"title":"Indigo Flycatcher, Eumyias indigo, \u0418\u043d\u0434\u0438\u0433\u043e\u0432\u0430\u044f \u043c\u0443\u0445\u043e\u043b\u043e\u0432\u043a\u0430","ispublic":1,"isfriend":0,"isfamily":0},{"id":"49637745367","owner":"142083658@N05","secret":"5c8e1cdbee","server":"65535","farm":66,"title":"Indigo Flycatcher, Eumyias indigo, \u0418\u043d\u0434\u0438\u0433\u043e\u0432\u0430\u044f \u043c\u0443\u0445\u043e\u043b\u043e\u0432\u043a\u0430","ispublic":1,"isfriend":0,"isfamily":0},{"id":"49115591272","owner":"167581694@N04","secret":"26089b3eb3","server":"65535","farm":66,"title":"Eumyias indigo","ispublic":1,"isfriend":0,"isfamily":0},{"id":"49077543883","owner":"8773601@N03","secret":"5397663f30","server":"65535","farm":66,"title":"PA170684 (2)  indigo flycatcher (Eumyias indigo)","ispublic":1,"isfriend":0,"isfamily":0},{"id":"49078276582","owner":"8773601@N03","secret":"9e2886ce86","server":"65535","farm":66,"title":"PA170684  indigo flycatcher (Eumyias indigo)","ispublic":1,"isfriend":0,"isfamily":0},{"id":"49078074161","owner":"8773601@N03","secret":"bcb03366b9","server":"65535","farm":66,"title":"PA170695  indigo flycatcher (Eumyias indigo)","ispublic":1,"isfriend":0,"isfamily":0},{"id":"48952806461","owner":"183276295@N04","secret":"b407a9d9dc","server":"65535","farm":66,"title":"271.Indigo Flycatcher (Eumyias indigo)","ispublic":1,"isfriend":0,"isfamily":0},{"id":"48941620281","owner":"183276295@N04","secret":"e9e13c5331","server":"65535","farm":66,"title":"271.Indigo Flycatcher (Eumyias indigo)","ispublic":1,"isfriend":0,"isfamily":0},{"id":"48941544491","owner":"183276295@N04","secret":"8afa51f6ef","server":"65535","farm":66,"title":"271.Indigo Flycatcher (Eumyias indigo)","ispublic":1,"isfriend":0,"isfamily":0},{"id":"48940905533","owner":"183276295@N04","secret":"1789455898","server":"65535","farm":66,"title":"271.Indigo Flycatcher (Eumyias indigo)","ispublic":1,"isfriend":0,"isfamily":0},{"id":"48712691911","owner":"32485770@N02","secret":"83b70e7495","server":"65535","farm":66,"title":"Indigo Flycatcher (eumyias indigo)","ispublic":1,"isfriend":0,"isfamily":0},{"id":"48219404667","owner":"32485770@N02","secret":"f1a505e086","server":"65535","farm":66,"title":"Indigo Flycatcher (eumyias indigo cerviniventris)","ispublic":1,"isfriend":0,"isfamily":0},{"id":"47747592151","owner":"67413109@N07","secret":"c13d805347","server":"65535","farm":66,"title":"indigo flycatcher (Eumyias indigo)","ispublic":1,"isfriend":0,"isfamily":0},{"id":"33836124268","owner":"49876287@N04","secret":"bf816ea503","server":"65535","farm":66,"title":"Indigo Flycatcher","ispublic":1,"isfriend":0,"isfamily":0},{"id":"32758661017","owner":"146833745@N04","secret":"a3ef052945","server":"65535","farm":66,"title":"Indigo Flycatcher (Eumyias indigo)","ispublic":1,"isfriend":0,"isfamily":0},{"id":"46476217705","owner":"64074416@N06","secret":"a4e8a90f76","server":"4856","farm":5,"title":"Female Indigo Flycatcher (Eumyias indigo \u9752\u4ed9\u9e5f)","ispublic":1,"isfriend":0,"isfamily":0},{"id":"46331386245","owner":"64074416@N06","secret":"6009c7717f","server":"7884","farm":8,"title":"Male Indigo Flycatcher (Eumyias indigo \u9752\u4ed9\u9e5f)","ispublic":1,"isfriend":0,"isfamily":0},{"id":"46169845084","owner":"124848818@N07","secret":"081d2497ae","server":"7867","farm":8,"title":"The indigo flycatcher (Eumyias indigo)","ispublic":1,"isfriend":0,"isfamily":0},{"id":"32922453038","owner":"17012389@N05","secret":"5ce0ec2a88","server":"4907","farm":5,"title":"Indigo flycatcher on Gunung Kerinci","ispublic":1,"isfriend":0,"isfamily":0},{"id":"39832667063","owner":"17012389@N05","secret":"0745caf968","server":"4856","farm":5,"title":"Verditer flycatcher","ispublic":1,"isfriend":0,"isfamily":0},{"id":"46224363681","owner":"136399536@N05","secret":"9f6f6cf904","server":"4827","farm":5,"title":"Indigo Flycatcher (Eumyias indigo), Indonesia (West Java).","ispublic":1,"isfriend":0,"isfamily":0},{"id":"30498621928","owner":"9638954@N07","secret":"d40a790685","server":"1861","farm":2,"title":"Indigo Flycatcher","ispublic":1,"isfriend":0,"isfamily":0},{"id":"30498619558","owner":"9638954@N07","secret":"39e27b8999","server":"1894","farm":2,"title":"Indigo Flycatcher","ispublic":1,"isfriend":0,"isfamily":0},{"id":"43649382614","owner":"9638954@N07","secret":"5c5c005f37","server":"1874","farm":2,"title":"Indigo Flycatcher","ispublic":1,"isfriend":0,"isfamily":0},{"id":"43836085311","owner":"91169349@N00","secret":"d71131ac27","server":"941","farm":1,"title":"Indigo Flycatcher Eumyias indigo \u7d14\u85cd\u4ed9\u9db2","ispublic":1,"isfriend":0,"isfamily":0},{"id":"26277985639","owner":"7200351@N08","secret":"88805a6284","server":"4455","farm":5,"title":"Eumyias indigo","ispublic":1,"isfriend":0,"isfamily":0},{"id":"36817287784","owner":"52468759@N05","secret":"113e9a6d55","server":"4462","farm":5,"title":"IMG_3814","ispublic":1,"isfriend":0,"isfamily":0},{"id":"36799090231","owner":"51946063@N08","secret":"d365ba60bd","server":"4393","farm":5,"title":"Indigo Flycatcher","ispublic":1,"isfriend":0,"isfamily":0},{"id":"36104496874","owner":"51946063@N08","secret":"a3851b6b80","server":"4394","farm":5,"title":"Indigo Flycatcher","ispublic":1,"isfriend":0,"isfamily":0},{"id":"35944347660","owner":"152845304@N05","secret":"93ef700055","server":"4415","farm":5,"title":"Indigo Flycatcher (Eumyias indigo) - Mt. Kinabalu","ispublic":1,"isfriend":0,"isfamily":0},{"id":"29913286400","owner":"7200351@N08","secret":"5f73093cb1","server":"7532","farm":8,"title":"Eumyias indigo cerviniventris","ispublic":1,"isfriend":0,"isfamily":0},{"id":"29082737775","owner":"65637506@N02","secret":"a80cbb658a","server":"8533","farm":9,"title":"Indigo Flycatcher ( Eumyias indigo ) #peliharaburungdialam #naturephotography #nature #wildlifephotography #wildlife #bird #birds #birdphotography #birding #birdingphotography","ispublic":1,"isfriend":0,"isfamily":0},{"id":"28945724131","owner":"65637506@N02","secret":"5c3131cfc1","server":"7730","farm":8,"title":"Indigo Flycatcher ( Eumyias indigo ) #nature #birding #birdingphotography #birds #bird #peliharaburungdialam #wildlife #wildlifephotography","ispublic":1,"isfriend":0,"isfamily":0},{"id":"26606918053","owner":"7200351@N08","secret":"7c4f82e4b5","server":"7799","farm":8,"title":"Eumyias indigo indigo","ispublic":1,"isfriend":0,"isfamily":0},{"id":"26606917903","owner":"7200351@N08","secret":"376eaeeffa","server":"7423","farm":8,"title":"Eumyias indigo indigo","ispublic":1,"isfriend":0,"isfamily":0},{"id":"26606917823","owner":"7200351@N08","secret":"7a1700a603","server":"7420","farm":8,"title":"Eumyias indigo indigo","ispublic":1,"isfriend":0,"isfamily":0},{"id":"26936025630","owner":"7200351@N08","secret":"43039ecc48","server":"7148","farm":8,"title":"Eumyias indigo indigo","ispublic":1,"isfriend":0,"isfamily":0},{"id":"26936024880","owner":"7200351@N08","secret":"484ebbd8fc","server":"7376","farm":8,"title":"Eumyias indigo indigo","ispublic":1,"isfriend":0,"isfamily":0},{"id":"25161592309","owner":"53919301@N06","secret":"941f745a4b","server":"1607","farm":2,"title":"Indigo Flycatcher (Eumyias indigo)","ispublic":1,"isfriend":0,"isfamily":0},{"id":"25035852722","owner":"65827265@N05","secret":"e4b045b01b","server":"1558","farm":2,"title":"Blue Indigo","ispublic":1,"isfriend":0,"isfamily":0},{"id":"17546767892","owner":"98511680@N08","secret":"483abd4a2f","server":"5347","farm":6,"title":"Indigo Flycatcher (Eumyias indigo)","ispublic":1,"isfriend":0,"isfamily":0}]},"stat":"ok"}