{"photos":{"page":1,"pages":2,"perpage":100,"total":197,"photo":[{"id":"52683736890","owner":"110148017@N06","secret":"691acff725","server":"65535","farm":66,"title":"\u767d\u982d\u9d87 Turdus poliocephalus","ispublic":1,"isfriend":0,"isfamily":0},{"id":"52224810196","owner":"195164158@N04","secret":"61f9d01456","server":"65535","farm":66,"title":"DSC_8478-2022-06-22-Nikon Z9-Nikkor 600mm F4-Ching Wei Chang \u5f35\u6176\u7dad \u7dad\u54e5","ispublic":1,"isfriend":0,"isfamily":0},{"id":"52202050141","owner":"195164158@N04","secret":"9edd98bca3","server":"65535","farm":66,"title":"DSC_7477-2022-06-22-Nikon Z9-Nikkor 600mm F4-Ching Wei Chang \u5f35\u6176\u7dad \u7dad\u54e5","ispublic":1,"isfriend":0,"isfamily":0},{"id":"52065086226","owner":"195164158@N04","secret":"ff8d6d45da","server":"65535","farm":66,"title":"DSC_0821-2021-02-19-Nikon D5-Nikkor 600mm F4-Ching Wei Chang \u5f35\u6176\u7dad \u7dad\u54e5","ispublic":1,"isfriend":0,"isfamily":0},{"id":"52064659000","owner":"195164158@N04","secret":"24855df250","server":"65535","farm":66,"title":"DSC_XXX1-2021-02-19-Nikon D5-Nikkor 600mm F4-Ching Wei Chang \u5f35\u6176\u7dad \u7dad\u54e5","ispublic":1,"isfriend":0,"isfamily":0},{"id":"50744119258","owner":"128578170@N06","secret":"dd90cf32ed","server":"65535","farm":66,"title":"Island Thrush Turdus poliocephalus papuensis","ispublic":1,"isfriend":0,"isfamily":0},{"id":"50108820386","owner":"128578170@N06","secret":"d70679c6ab","server":"65535","farm":66,"title":"Island Thrush Turdus poliocephalus papuensis","ispublic":1,"isfriend":0,"isfamily":0},{"id":"50038349428","owner":"169173705@N07","secret":"14cd01ecc1","server":"65535","farm":66,"title":"\u767d\u982d\u9d87  \u5927\u5bf6  \u4e9e\u6210\u9ce5  \"Island Thrush\" \"Turdus poliocephalus\"","ispublic":1,"isfriend":0,"isfamily":0},{"id":"50039157862","owner":"169173705@N07","secret":"03ebfdbff8","server":"65535","farm":66,"title":"\u767d\u982d\u9d87  \u4e8c\u5bf6  \u4e9e\u6210\u9ce5  \"Island Thrush\" \"Turdus poliocephalus\"","ispublic":1,"isfriend":0,"isfamily":0},{"id":"50029293753","owner":"169173705@N07","secret":"59052f26af","server":"65535","farm":66,"title":"\u767d\u982d\u9d87  \u516c\u9ce5  \"Island Thrush\" \"Turdus poliocephalus\"","ispublic":1,"isfriend":0,"isfamily":0},{"id":"50023728888","owner":"169173705@N07","secret":"f7a467b9d2","server":"65535","farm":66,"title":"\u767d\u982d\u9d87  \u6bcd\u9ce5  \"Island Thrush\" \"Turdus poliocephalus\"","ispublic":1,"isfriend":0,"isfamily":0},{"id":"50023728868","owner":"169173705@N07","secret":"ce70bb583e","server":"65535","farm":66,"title":"\u767d\u982d\u9d87  \u6bcd\u9ce5  \"Island Thrush\" \"Turdus poliocephalus\"","ispublic":1,"isfriend":0,"isfamily":0},{"id":"49475887081","owner":"186716705@N02","secret":"23a8b8e96c","server":"65535","farm":66,"title":"Island Thrush - Turdus poliocephalus","ispublic":1,"isfriend":0,"isfamily":0},{"id":"49465027937","owner":"128578170@N06","secret":"798761c070","server":"65535","farm":66,"title":"Island Thrush Turdus poliocephalus papuensis","ispublic":1,"isfriend":0,"isfamily":0},{"id":"49037264342","owner":"102752057@N03","secret":"d0be23f32e","server":"65535","farm":66,"title":"Island thrush (Turdus poliocephalus)","ispublic":1,"isfriend":0,"isfamily":0},{"id":"48815088586","owner":"43272765@N04","secret":"f8a51e0f43","server":"65535","farm":66,"title":"Island Thrush. Turdus poliocephalus","ispublic":1,"isfriend":0,"isfamily":0},{"id":"48815086326","owner":"43272765@N04","secret":"7dfa8976f0","server":"65535","farm":66,"title":"Island Thrush. Turdus poliocephalus","ispublic":1,"isfriend":0,"isfamily":0},{"id":"48786073103","owner":"61021753@N02","secret":"b38ef28f4f","server":"65535","farm":66,"title":"n117_w1150","ispublic":1,"isfriend":0,"isfamily":0},{"id":"48282799592","owner":"128578170@N06","secret":"bb709aeba0","server":"65535","farm":66,"title":"Island Thrush Turdus poliocephalus papuensis","ispublic":1,"isfriend":0,"isfamily":0},{"id":"45973040354","owner":"117755141@N02","secret":"b91de3e4c4","server":"4826","farm":5,"title":"Island Thrush 1 (Turdus poliocephalus)","ispublic":1,"isfriend":0,"isfamily":0},{"id":"46697702951","owner":"117755141@N02","secret":"b4172c799a","server":"7840","farm":8,"title":"Island Thrush 2 (Turdus poliocephalus)","ispublic":1,"isfriend":0,"isfamily":0},{"id":"45973039794","owner":"117755141@N02","secret":"1f833535ca","server":"4898","farm":5,"title":"Island Thrush 3 (Turdus poliocephalus) juvenile","ispublic":1,"isfriend":0,"isfamily":0},{"id":"45478769685","owner":"151677249@N08","secret":"0fa0fe7fd6","server":"4853","farm":5,"title":"Island Thrush (Turdus poliocephalus)","ispublic":1,"isfriend":0,"isfamily":0},{"id":"41527591920","owner":"128578170@N06","secret":"d19b071359","server":"1808","farm":2,"title":"Island Thrush Turdus poliocephalus papuensis","ispublic":1,"isfriend":0,"isfamily":0},{"id":"29105303488","owner":"142083658@N05","secret":"41a9d55433","server":"1772","farm":2,"title":"Island Thrush, Turdus poliocephalus, \u041e\u0441\u0442\u0440\u043e\u0432\u043d\u043e\u0439 \u0434\u0440\u043e\u0437\u0434","ispublic":1,"isfriend":0,"isfamily":0},{"id":"27925223148","owner":"161366754@N07","secret":"df24ef395f","server":"957","farm":1,"title":"Christmas Island Thrush (Turdus poliocephalus erythropleurus)","ispublic":1,"isfriend":0,"isfamily":0},{"id":"40730933271","owner":"27603752@N04","secret":"33d6a43949","server":"4790","farm":5,"title":"Island Thrush","ispublic":1,"isfriend":0,"isfamily":0},{"id":"25020933667","owner":"77286520@N05","secret":"aed0336fcc","server":"4695","farm":5,"title":"\u767d\u982d\u9d87  \"Island Thrush\"  \"Turdus poliocephalus\"","ispublic":1,"isfriend":0,"isfamily":0},{"id":"38612497524","owner":"66383090@N02","secret":"0157339cf2","server":"4731","farm":5,"title":"Christmas Island Thrush","ispublic":1,"isfriend":0,"isfamily":0},{"id":"36840791542","owner":"61021753@N02","secret":"a8bfc2c8ea","server":"4372","farm":5,"title":"n135_w1150","ispublic":1,"isfriend":0,"isfamily":0},{"id":"37012109695","owner":"61021753@N02","secret":"31b0aa4bf9","server":"4413","farm":5,"title":"n131_w1150","ispublic":1,"isfriend":0,"isfamily":0},{"id":"35736870266","owner":"156320246@N05","secret":"81c71919be","server":"4235","farm":5,"title":"Turdus_poliocephalus 1 \u5c9b\u9e2b male IslandThrush","ispublic":1,"isfriend":0,"isfamily":0},{"id":"35736870046","owner":"156320246@N05","secret":"48b5f064a8","server":"4263","farm":5,"title":"Turdus_poliocephalus 2 \u5c9b\u9e2b IslandThrush","ispublic":1,"isfriend":0,"isfamily":0},{"id":"33495188371","owner":"7724508@N05","secret":"7d64688e02","server":"2913","farm":3,"title":"Taiwan White-Headed Thrush (aka Island Thrush)","ispublic":1,"isfriend":0,"isfamily":0},{"id":"33043770012","owner":"33194927@N07","secret":"c1fd330ea8","server":"3950","farm":4,"title":"\u5927\u96ea\u5c71~\u767d\u982d\u9d87(\u96c4)~ Turdus poliocephalus","ispublic":1,"isfriend":0,"isfamily":0},{"id":"32126045222","owner":"108176986@N08","secret":"8988834f74","server":"281","farm":1,"title":"Turdus poliocephalus, Bromo-Tengger-Semeru National Park","ispublic":1,"isfriend":0,"isfamily":0},{"id":"31149397765","owner":"46492982@N07","secret":"d9597b745c","server":"5799","farm":6,"title":"Burung penjaga jalur, Anis Gunung a.k.a. Island Thrush a.k.a. Turdus Poliocephalus  Location : Kalimati - Mt. Semeru \u2022 \u2022 \u2022 #latepost #journey #outdoors #hiking #trecking #mountains #malang #ranupane #mdplindonesia #sahabatpendaki #instapendaki #exploregun","ispublic":1,"isfriend":0,"isfamily":0},{"id":"30158712694","owner":"96254122@N05","secret":"fc114a99e1","server":"5556","farm":6,"title":"\u3010\u767d\u982d\u9d87\u3011Turdus poliocephalus niveiceps (Hellmayr, 1919)","ispublic":1,"isfriend":0,"isfamily":0},{"id":"30673482912","owner":"96254122@N05","secret":"dd1d242db7","server":"5342","farm":6,"title":"\u3010\u767d\u982d\u9d87\u3011Turdus poliocephalus niveiceps (Hellmayr, 1919)","ispublic":1,"isfriend":0,"isfamily":0},{"id":"28479627636","owner":"50563654@N07","secret":"4f51a252e9","server":"8429","farm":9,"title":"\u767d\u982d\u9d87","ispublic":1,"isfriend":0,"isfamily":0},{"id":"27896029063","owner":"50563654@N07","secret":"68b62cf8d7","server":"8069","farm":9,"title":"\u767d\u982d\u9d87","ispublic":1,"isfriend":0,"isfamily":0},{"id":"27895101784","owner":"50563654@N07","secret":"047588f973","server":"8689","farm":9,"title":"\u767d\u982d\u9d87","ispublic":1,"isfriend":0,"isfamily":0},{"id":"27896024783","owner":"50563654@N07","secret":"2d221b76dd","server":"8708","farm":9,"title":"\u767d\u982d\u9d87","ispublic":1,"isfriend":0,"isfamily":0},{"id":"27896020763","owner":"50563654@N07","secret":"7b35a5a48f","server":"8829","farm":9,"title":"\u767d\u982d\u9d87","ispublic":1,"isfriend":0,"isfamily":0},{"id":"27895095254","owner":"50563654@N07","secret":"fa69b959e9","server":"8682","farm":9,"title":"\u767d\u982d\u9d87","ispublic":1,"isfriend":0,"isfamily":0},{"id":"27896016533","owner":"50563654@N07","secret":"34fd8546b6","server":"8752","farm":9,"title":"\u767d\u982d\u9d87","ispublic":1,"isfriend":0,"isfamily":0},{"id":"27896012063","owner":"50563654@N07","secret":"a6fb4d8eee","server":"8602","farm":9,"title":"\u767d\u982d\u9d87","ispublic":1,"isfriend":0,"isfamily":0},{"id":"27895087324","owner":"50563654@N07","secret":"e6269472cd","server":"8657","farm":9,"title":"\u767d\u982d\u9d87","ispublic":1,"isfriend":0,"isfamily":0},{"id":"27896005923","owner":"50563654@N07","secret":"e3eafe93dd","server":"8502","farm":9,"title":"\u767d\u982d\u9d87","ispublic":1,"isfriend":0,"isfamily":0},{"id":"28433723031","owner":"50563654@N07","secret":"4394053378","server":"8704","farm":9,"title":"\u767d\u982d\u9d87","ispublic":1,"isfriend":0,"isfamily":0},{"id":"28333704001","owner":"77286520@N05","secret":"c99cdba283","server":"8814","farm":9,"title":"\u767d\u982d\u9d87  \"Island Thrush\"  \"Turdus poliocephalus\"","ispublic":1,"isfriend":0,"isfamily":0},{"id":"28333703991","owner":"77286520@N05","secret":"10d557ce4b","server":"8683","farm":9,"title":"\u767d\u982d\u9d87  \"Island Thrush\"  \"Turdus poliocephalus\"","ispublic":1,"isfriend":0,"isfamily":0},{"id":"28333703971","owner":"77286520@N05","secret":"9773bc49c5","server":"8883","farm":9,"title":"\u767d\u982d\u9d87  \"Island Thrush\"  \"Turdus poliocephalus\"","ispublic":1,"isfriend":0,"isfamily":0},{"id":"28091510091","owner":"52283763@N02","secret":"9f48ccd0a1","server":"7743","farm":8,"title":"\u767d\u9d87\u5e7c\u96db ( \u767d\u982d\u9d87 )","ispublic":1,"isfriend":0,"isfamily":0},{"id":"28115584246","owner":"127247666@N05","secret":"218d11746d","server":"7522","farm":8,"title":"White-cheeked starling, lesser cuckoo and Japanese thrush","ispublic":1,"isfriend":0,"isfamily":0},{"id":"27823254496","owner":"22774011@N07","secret":"33efa9e7d9","server":"7079","farm":8,"title":"\u767d\u982d\u9d87  \"Island Thrush\"  \"Turdus poliocephalus\"","ispublic":1,"isfriend":0,"isfamily":0},{"id":"27823254436","owner":"22774011@N07","secret":"0bd300214b","server":"7439","farm":8,"title":"\u767d\u982d\u9d87  \"Island Thrush\"  \"Turdus poliocephalus\"","ispublic":1,"isfriend":0,"isfamily":0},{"id":"27823254476","owner":"22774011@N07","secret":"cd95560d77","server":"7458","farm":8,"title":"\u767d\u982d\u9d87  \"Island Thrush\"  \"Turdus poliocephalus\"","ispublic":1,"isfriend":0,"isfamily":0},{"id":"27823254536","owner":"22774011@N07","secret":"36a963f009","server":"7575","farm":8,"title":"\u767d\u982d\u9d87  \"Island Thrush\"  \"Turdus poliocephalus\"","ispublic":1,"isfriend":0,"isfamily":0},{"id":"27823254406","owner":"22774011@N07","secret":"9b2c97f59f","server":"7553","farm":8,"title":"\u767d\u982d\u9d87  \"Island Thrush\"  \"Turdus poliocephalus\"","ispublic":1,"isfriend":0,"isfamily":0},{"id":"25072103350","owner":"14191740@N08","secret":"926ae019bf","server":"1490","farm":2,"title":"Island Thrush, Lake Habbema, West Papua","ispublic":1,"isfriend":0,"isfamily":0},{"id":"24437393904","owner":"77286520@N05","secret":"4a68f6d770","server":"1617","farm":2,"title":"\u767d\u982d\u9d87  \"Island Thrush\"  \"Turdus poliocephalus\"","ispublic":1,"isfriend":0,"isfamily":0},{"id":"24246961644","owner":"72063229@N00","secret":"7dab4c1c25","server":"1670","farm":2,"title":"Nice Shot of an Island Thrush","ispublic":1,"isfriend":0,"isfamily":0},{"id":"24811669856","owner":"72063229@N00","secret":"7769ff9568","server":"1720","farm":2,"title":"Getting Ready to Take Flight","ispublic":1,"isfriend":0,"isfamily":0},{"id":"24209749554","owner":"72063229@N00","secret":"b35daf6d5d","server":"1487","farm":2,"title":"Island Thrush - Turdus poliocephalus seebohmi","ispublic":1,"isfriend":0,"isfamily":0},{"id":"24209746744","owner":"72063229@N00","secret":"c1d1348f67","server":"1579","farm":2,"title":"Island Thrush on Branch","ispublic":1,"isfriend":0,"isfamily":0},{"id":"23544381789","owner":"64565138@N03","secret":"21076942c3","server":"640","farm":1,"title":"Turdus poliocephalus","ispublic":1,"isfriend":0,"isfamily":0},{"id":"23767046315","owner":"38742093@N06","secret":"81d2f5ac03","server":"631","farm":1,"title":"Island thrush male \u767d\u982d\u9d87(TW129) A75Y7210-AAA","ispublic":1,"isfriend":0,"isfamily":0},{"id":"20564869524","owner":"136028243@N06","secret":"7bc636d8d5","server":"5657","farm":6,"title":"Christmas Island Bird","ispublic":1,"isfriend":0,"isfamily":0},{"id":"18359388345","owner":"95482238@N02","secret":"21d11f66e5","server":"8795","farm":9,"title":"island thrush  - dasyueshan forest reserve, taiwan","ispublic":1,"isfriend":0,"isfamily":0},{"id":"16917488641","owner":"61021753@N02","secret":"850cf5a7b1","server":"8712","farm":9,"title":"n176_w1150","ispublic":1,"isfriend":0,"isfamily":0},{"id":"52687984267","owner":"110148017@N06","secret":"ff997cda3d","server":"65535","farm":66,"title":"\u767d\u982d\u9d87 Turdus poliocephalus","ispublic":1,"isfriend":0,"isfamily":0},{"id":"50779493781","owner":"145183414@N05","secret":"91e6eac6f5","server":"65535","farm":66,"title":"Island Thrush - Turdus poliocephalus","ispublic":1,"isfriend":0,"isfamily":0},{"id":"50091366102","owner":"128578170@N06","secret":"482bcb37d3","server":"65535","farm":66,"title":"Island Thrush Turdus poliocephalus papuensis","ispublic":1,"isfriend":0,"isfamily":0},{"id":"50029293798","owner":"169173705@N07","secret":"3a148cd28b","server":"65535","farm":66,"title":"\u767d\u982d\u9d87  \u516c\u9ce5  \"Island Thrush\" \"Turdus poliocephalus\"","ispublic":1,"isfriend":0,"isfamily":0},{"id":"50022847037","owner":"75814310@N04","secret":"8cd3f29820","server":"65535","farm":66,"title":"1O4A2113","ispublic":1,"isfriend":0,"isfamily":0},{"id":"50022030008","owner":"75814310@N04","secret":"9e0e0a444c","server":"65535","farm":66,"title":"1O4A1297","ispublic":1,"isfriend":0,"isfamily":0},{"id":"49473781423","owner":"128578170@N06","secret":"7b91273203","server":"65535","farm":66,"title":"Island Thrush Turdus poliocephalus papuensis","ispublic":1,"isfriend":0,"isfamily":0},{"id":"49465203727","owner":"128578170@N06","secret":"a4a11d9558","server":"65535","farm":66,"title":"Island Thrush Turdus poliocephalus papuensis","ispublic":1,"isfriend":0,"isfamily":0},{"id":"49037264442","owner":"102752057@N03","secret":"8309e3ac3c","server":"65535","farm":66,"title":"Island thrush (Turdus poliocephalus)","ispublic":1,"isfriend":0,"isfamily":0},{"id":"49036545478","owner":"102752057@N03","secret":"0cf202c1f6","server":"65535","farm":66,"title":"Island thrush (Turdus poliocephalus)","ispublic":1,"isfriend":0,"isfamily":0},{"id":"48579005947","owner":"96574825@N03","secret":"325c49bf38","server":"65535","farm":66,"title":"Turdus poliocephalus","ispublic":1,"isfriend":0,"isfamily":0},{"id":"46719217965","owner":"30369673@N06","secret":"136791f7d1","server":"65535","farm":66,"title":"Island Thrush (Turdus poliocephalus)","ispublic":1,"isfriend":0,"isfamily":0},{"id":"31073336627","owner":"166192144@N05","secret":"a6f1942bf9","server":"4871","farm":5,"title":"Christmas Island thrush (Turdus poliocephalus erythropleurus)","ispublic":1,"isfriend":0,"isfamily":0},{"id":"35043829513","owner":"53358437@N07","secret":"fc2af6a127","server":"4263","farm":5,"title":"Christmas Island Thrush (Turdus poliocephalus erythropleurus)","ispublic":1,"isfriend":0,"isfamily":0},{"id":"35043829223","owner":"53358437@N07","secret":"99a84b3824","server":"4206","farm":5,"title":"Christmas Island Thrush (Turdus poliocephalus erythropleurus)","ispublic":1,"isfriend":0,"isfamily":0},{"id":"35736870366","owner":"156320246@N05","secret":"90619c57f3","server":"4078","farm":5,"title":"Turdus_poliocephalus 1 \u5c9b\u9e2b female IslandThrush","ispublic":1,"isfriend":0,"isfamily":0},{"id":"34218816660","owner":"149234386@N06","secret":"cae5226bfa","server":"4171","farm":5,"title":"Island Thrush (Turdus poliocephalus seebohmi)","ispublic":1,"isfriend":0,"isfamily":0},{"id":"34023479011","owner":"153117126@N07","secret":"1b566293d9","server":"2868","farm":3,"title":"Turdus poliocephalus - Maximum card - Maxicard","ispublic":1,"isfriend":0,"isfamily":0},{"id":"33311455884","owner":"153117126@N07","secret":"93a0046826","server":"2915","farm":3,"title":"turdus poliocephalus - Maximum card - Maxicard","ispublic":1,"isfriend":0,"isfamily":0},{"id":"33822850151","owner":"102755543@N02","secret":"fe0149068b","server":"2898","farm":3,"title":"Turdus poliocephalus niveiceps (Hellmayr, 1919)","ispublic":1,"isfriend":0,"isfamily":0},{"id":"30793811634","owner":"8507835@N06","secret":"2f0cab73ed","server":"5519","farm":6,"title":"Island Thrush\u767d\u982d\u9d87\uff08Female\uff09DSC_1264","ispublic":1,"isfriend":0,"isfamily":0},{"id":"27493674280","owner":"127456372@N03","secret":"5e8c3b917e","server":"7076","farm":8,"title":"\u767d\u982d\u9d87001","ispublic":1,"isfriend":0,"isfamily":0},{"id":"22215586746","owner":"43184676@N08","secret":"00a2caa0b2","server":"564","farm":1,"title":"Island Thrush","ispublic":1,"isfriend":0,"isfamily":0},{"id":"22044641781","owner":"30033887@N07","secret":"7fab39a096","server":"767","farm":1,"title":"539 \u767d\u982d\u9d87 Turdus poliocephalus Island Thrush_MG_0933","ispublic":1,"isfriend":0,"isfamily":0},{"id":"19514584184","owner":"128665976@N08","secret":"447313ea17","server":"342","farm":1,"title":"DSC04514","ispublic":1,"isfriend":0,"isfamily":0},{"id":"16910092416","owner":"98405408@N08","secret":"677b83ffa0","server":"7586","farm":8,"title":"IMG_9922 \u767d\u982d\u9d87 Island Thrush","ispublic":1,"isfriend":0,"isfamily":0},{"id":"16934460002","owner":"98405408@N08","secret":"bd1850bd83","server":"7625","farm":8,"title":"IMG_9684 \u767d\u982d\u9d87 Island Thrush","ispublic":1,"isfriend":0,"isfamily":0},{"id":"16934459742","owner":"98405408@N08","secret":"f2417b44a0","server":"8695","farm":9,"title":"IMG_9683 \u767d\u982d\u9d87 Island Thrush","ispublic":1,"isfriend":0,"isfamily":0},{"id":"16934459522","owner":"98405408@N08","secret":"ed22216119","server":"7604","farm":8,"title":"IMG_9672 \u767d\u982d\u9d87 Island Thrush","ispublic":1,"isfriend":0,"isfamily":0}]},"stat":"ok"}