{"photos":{"page":1,"pages":13,"perpage":100,"total":1231,"photo":[{"id":"52317318555","owner":"58519338@N08","secret":"b8ebcd364c","server":"65535","farm":66,"title":"Ivory Gull - Pagophila eburnea","ispublic":1,"isfriend":0,"isfamily":0},{"id":"52312853940","owner":"58519338@N08","secret":"ff8029e45b","server":"65535","farm":66,"title":"Ivory Gull - Pagophila eburnea","ispublic":1,"isfriend":0,"isfamily":0},{"id":"52215163791","owner":"58519338@N08","secret":"1daae0e46d","server":"65535","farm":66,"title":"Ivory Gull - Pagophila eburnea","ispublic":1,"isfriend":0,"isfamily":0},{"id":"51979937408","owner":"57035272@N07","secret":"9b36046ce7","server":"65535","farm":66,"title":"dsc_0150 2","ispublic":1,"isfriend":0,"isfamily":0},{"id":"51926476409","owner":"48014585@N00","secret":"cf184757a3","server":"65535","farm":66,"title":"Ivory Gull","ispublic":1,"isfriend":0,"isfamily":0},{"id":"51923155062","owner":"48014585@N00","secret":"3f74cf9b23","server":"65535","farm":66,"title":"Ivory Gull in Duluth!","ispublic":1,"isfriend":0,"isfamily":0},{"id":"51924223653","owner":"48014585@N00","secret":"d106f217a7","server":"65535","farm":66,"title":"Ivory Gull in Duluth!","ispublic":1,"isfriend":0,"isfamily":0},{"id":"51921610802","owner":"48014585@N00","secret":"b23d742bcb","server":"65535","farm":66,"title":"Ivory Gull in Duluth!","ispublic":1,"isfriend":0,"isfamily":0},{"id":"51921609827","owner":"48014585@N00","secret":"748ddb79dd","server":"65535","farm":66,"title":"Ivory Gull in Duluth!","ispublic":1,"isfriend":0,"isfamily":0},{"id":"51922673738","owner":"48014585@N00","secret":"12db168a9b","server":"65535","farm":66,"title":"Ivory Gull in Duluth!","ispublic":1,"isfriend":0,"isfamily":0},{"id":"51922580116","owner":"48014585@N00","secret":"36b69ee606","server":"65535","farm":66,"title":"Ivory Gull in Duluth!","ispublic":1,"isfriend":0,"isfamily":0},{"id":"51922573931","owner":"48014585@N00","secret":"d2fce74ef4","server":"65535","farm":66,"title":"Ivory Gull in Duluth!","ispublic":1,"isfriend":0,"isfamily":0},{"id":"51919385142","owner":"48014585@N00","secret":"b714440e62","server":"65535","farm":66,"title":"Ivory Gull in Duluth!","ispublic":1,"isfriend":0,"isfamily":0},{"id":"51920657479","owner":"48014585@N00","secret":"8b2b61bbb5","server":"65535","farm":66,"title":"Ivory Gull in Duluth!","ispublic":1,"isfriend":0,"isfamily":0},{"id":"51920657229","owner":"48014585@N00","secret":"49e83d12e8","server":"65535","farm":66,"title":"Ivory Gull in Duluth!","ispublic":1,"isfriend":0,"isfamily":0},{"id":"51920424858","owner":"48014585@N00","secret":"53b3621d6b","server":"65535","farm":66,"title":"Ivory Gull in Duluth!","ispublic":1,"isfriend":0,"isfamily":0},{"id":"51920655389","owner":"48014585@N00","secret":"7c8bf878b9","server":"65535","farm":66,"title":"Ivory Gull in Duluth!","ispublic":1,"isfriend":0,"isfamily":0},{"id":"51920029009","owner":"48014585@N00","secret":"7f9c3a9766","server":"65535","farm":66,"title":"Ivory Gull in Duluth!","ispublic":1,"isfriend":0,"isfamily":0},{"id":"51920027149","owner":"48014585@N00","secret":"4feebb7cc6","server":"65535","farm":66,"title":"Ivory Gull in Duluth!","ispublic":1,"isfriend":0,"isfamily":0},{"id":"51918730262","owner":"48014585@N00","secret":"178078a609","server":"65535","farm":66,"title":"Ivory Gull in Duluth!","ispublic":1,"isfriend":0,"isfamily":0},{"id":"51920301180","owner":"48014585@N00","secret":"5912b1a235","server":"65535","farm":66,"title":"Ivory Gull in Duluth!","ispublic":1,"isfriend":0,"isfamily":0},{"id":"51782562588","owner":"14513067@N00","secret":"60cc8f00f1","server":"65535","farm":66,"title":"Ivory Gull","ispublic":1,"isfriend":0,"isfamily":0},{"id":"51782317491","owner":"14513067@N00","secret":"c1006baeb0","server":"65535","farm":66,"title":"Ivory Gull","ispublic":1,"isfriend":0,"isfamily":0},{"id":"51722937959","owner":"163930705@N05","secret":"88459e06c4","server":"65535","farm":66,"title":"Ivory Gull \/ \u00cdsm\u00e1fur (Pagophila eburnea)","ispublic":1,"isfriend":0,"isfamily":0},{"id":"51720668519","owner":"163930705@N05","secret":"67f4b29c10","server":"65535","farm":66,"title":"Ivory Gull \/ \u00cdsm\u00e1fur (Pagophila eburnea)","ispublic":1,"isfriend":0,"isfamily":0},{"id":"51263681466","owner":"61021753@N02","secret":"1e81514979","server":"65535","farm":66,"title":"n122_w1150","ispublic":1,"isfriend":0,"isfamily":0},{"id":"51164603854","owner":"61021753@N02","secret":"081f20c36e","server":"65535","farm":66,"title":"n249_w1150","ispublic":1,"isfriend":0,"isfamily":0},{"id":"51099192337","owner":"61021753@N02","secret":"e59206cf03","server":"65535","farm":66,"title":"n340_w1150","ispublic":1,"isfriend":0,"isfamily":0},{"id":"50665637977","owner":"55584551@N04","secret":"c7114b23be","server":"0","farm":0,"title":"5E4A0381 \u00cdsm\u00e1fur Pagophila eburnea Ivory Gull","ispublic":1,"isfriend":0,"isfamily":0},{"id":"50128540238","owner":"78276199@N04","secret":"5744cd0d87","server":"65535","farm":66,"title":"Ism\u00e5ge - Ivory Gull - Pagophila eburnea","ispublic":1,"isfriend":0,"isfamily":0},{"id":"49986723668","owner":"16520061@N08","secret":"dc248bec92","server":"65535","farm":66,"title":"Ivory Gull (Pagophila eburnea)","ispublic":1,"isfriend":0,"isfamily":0},{"id":"49719687547","owner":"156147490@N02","secret":"19198d0b27","server":"65535","farm":66,"title":"Ivory Gull","ispublic":1,"isfriend":0,"isfamily":0},{"id":"49694489113","owner":"65759713@N06","secret":"370d7a25a4","server":"65535","farm":66,"title":"Ivory Gull 2004-12-11_01","ispublic":1,"isfriend":0,"isfamily":0},{"id":"49695028631","owner":"65759713@N06","secret":"e5663abe69","server":"65535","farm":66,"title":"Ivory Gull 2004-12-11_02","ispublic":1,"isfriend":0,"isfamily":0},{"id":"49682417278","owner":"152877605@N05","secret":"70cded8b41","server":"65535","farm":66,"title":"Ivory Gull","ispublic":1,"isfriend":0,"isfamily":0},{"id":"49509840972","owner":"126805965@N03","secret":"5dde8c3014","server":"65535","farm":66,"title":"Ivory Gull (Pagophila eburnea) - Polson, MT","ispublic":1,"isfriend":0,"isfamily":0},{"id":"49509840767","owner":"126805965@N03","secret":"ac13401070","server":"65535","farm":66,"title":"Ivory Gull (Pagophila eburnea) - Polson, MT","ispublic":1,"isfriend":0,"isfamily":0},{"id":"49509840717","owner":"126805965@N03","secret":"008e0af2cf","server":"65535","farm":66,"title":"Ivory Gull (Pagophila eburnea) - Polson, MT","ispublic":1,"isfriend":0,"isfamily":0},{"id":"49509611271","owner":"126805965@N03","secret":"9ac0f31923","server":"65535","farm":66,"title":"Ivory Gull (Pagophila eburnea) - Polson, MT","ispublic":1,"isfriend":0,"isfamily":0},{"id":"49509611246","owner":"126805965@N03","secret":"51fafcc4c0","server":"65535","farm":66,"title":"Ivory Gull (Pagophila eburnea) - Polson, MT","ispublic":1,"isfriend":0,"isfamily":0},{"id":"49509840547","owner":"126805965@N03","secret":"5e232aa8ef","server":"65535","farm":66,"title":"Ivory Gull (Pagophila eburnea) - Polson, MT","ispublic":1,"isfriend":0,"isfamily":0},{"id":"49466805946","owner":"64065985@N05","secret":"6498b0a64e","server":"65535","farm":66,"title":"Ivory Gull","ispublic":1,"isfriend":0,"isfamily":0},{"id":"49467027877","owner":"64065985@N05","secret":"050fe760b3","server":"65535","farm":66,"title":"Ivory Gull","ispublic":1,"isfriend":0,"isfamily":0},{"id":"49135835973","owner":"57445335@N00","secret":"89d5e95d21","server":"65535","farm":66,"title":"photoshooting with an ivory gull","ispublic":1,"isfriend":0,"isfamily":0},{"id":"49079685763","owner":"57445335@N00","secret":"5d8dede45a","server":"65535","farm":66,"title":"Ivory Gull","ispublic":1,"isfriend":0,"isfamily":0},{"id":"49079646483","owner":"57445335@N00","secret":"9a5023ea85","server":"65535","farm":66,"title":"Ivory Gull on Ice","ispublic":1,"isfriend":0,"isfamily":0},{"id":"48486265201","owner":"69435459@N04","secret":"22fb721738","server":"65535","farm":66,"title":"Ivory Gull (Pagophila eburnea) Ny-\u00c5lesund, Spitzbergen, Svalbard, Norway.","ispublic":1,"isfriend":0,"isfamily":0},{"id":"52324408692","owner":"69239666@N06","secret":"77115c3d25","server":"65535","farm":66,"title":"Ivory Gull in flight (Pagophila eburnea)","ispublic":1,"isfriend":0,"isfamily":0},{"id":"51979938753","owner":"57035272@N07","secret":"387bf86118","server":"65535","farm":66,"title":"dsc_0156 1","ispublic":1,"isfriend":0,"isfamily":0},{"id":"51980146749","owner":"57035272@N07","secret":"53c445349e","server":"65535","farm":66,"title":"dsc_0153 3","ispublic":1,"isfriend":0,"isfamily":0},{"id":"51980146429","owner":"57035272@N07","secret":"d46557b852","server":"65535","farm":66,"title":"dsc_0152 3","ispublic":1,"isfriend":0,"isfamily":0},{"id":"51920931780","owner":"48014585@N00","secret":"7544db1136","server":"65535","farm":66,"title":"Ivory Gull in Duluth!","ispublic":1,"isfriend":0,"isfamily":0},{"id":"51920405458","owner":"48014585@N00","secret":"1801e5ff64","server":"65535","farm":66,"title":"Ivory Gull in Duluth!","ispublic":1,"isfriend":0,"isfamily":0},{"id":"51920140516","owner":"48014585@N00","secret":"a5ff91accd","server":"65535","farm":66,"title":"Ivory Gull in Duluth!","ispublic":1,"isfriend":0,"isfamily":0},{"id":"51920140321","owner":"48014585@N00","secret":"d77fce4c02","server":"65535","farm":66,"title":"Ivory Gull in Duluth!","ispublic":1,"isfriend":0,"isfamily":0},{"id":"51920136891","owner":"48014585@N00","secret":"10126826e7","server":"65535","farm":66,"title":"Ivory Gull in Duluth!","ispublic":1,"isfriend":0,"isfamily":0},{"id":"51920236518","owner":"48014585@N00","secret":"9890bea095","server":"65535","farm":66,"title":"Ivory Gull in Duluth!","ispublic":1,"isfriend":0,"isfamily":0},{"id":"51920757200","owner":"48014585@N00","secret":"5e374175f4","server":"65535","farm":66,"title":"Ivory Gull in Duluth!","ispublic":1,"isfriend":0,"isfamily":0},{"id":"51919844461","owner":"48014585@N00","secret":"136f1056e9","server":"65535","farm":66,"title":"Ivory Gull in Duluth!","ispublic":1,"isfriend":0,"isfamily":0},{"id":"51920154729","owner":"48014585@N00","secret":"80d6d6ba64","server":"65535","farm":66,"title":"Ivory Gull in Duluth!","ispublic":1,"isfriend":0,"isfamily":0},{"id":"51919790578","owner":"48014585@N00","secret":"d454303337","server":"65535","farm":66,"title":"Ivory Gull in Duluth!","ispublic":1,"isfriend":0,"isfamily":0},{"id":"51919789418","owner":"48014585@N00","secret":"77faf01228","server":"65535","farm":66,"title":"Ivory Gull in Duluth!","ispublic":1,"isfriend":0,"isfamily":0},{"id":"51919687986","owner":"48014585@N00","secret":"4efc2474ac","server":"65535","farm":66,"title":"Ivory Gull in Duluth!","ispublic":1,"isfriend":0,"isfamily":0},{"id":"51919686306","owner":"48014585@N00","secret":"1cac2674f7","server":"65535","farm":66,"title":"Ivory Gull in Duluth!","ispublic":1,"isfriend":0,"isfamily":0},{"id":"51919682471","owner":"48014585@N00","secret":"91916a67b1","server":"65535","farm":66,"title":"Ivory Gull in Duluth!","ispublic":1,"isfriend":0,"isfamily":0},{"id":"51920300110","owner":"48014585@N00","secret":"48809b0863","server":"65535","farm":66,"title":"Ivory Gull in Duluth!","ispublic":1,"isfriend":0,"isfamily":0},{"id":"51855226451","owner":"67306066@N03","secret":"aa568bcef9","server":"65535","farm":66,"title":"Ivory Gull (Pagophila eburnea)","ispublic":1,"isfriend":0,"isfamily":0},{"id":"51719275838","owner":"194480666@N08","secret":"82c5cd1e70","server":"65535","farm":66,"title":"Ivory Gull","ispublic":1,"isfriend":0,"isfamily":0},{"id":"50642094093","owner":"55584551@N04","secret":"6d561c9dec","server":"65535","farm":66,"title":"5E4A0420 \u00cdsm\u00e1fur Pagophila eburnea Ivory Gull","ispublic":1,"isfriend":0,"isfamily":0},{"id":"50642822701","owner":"55584551@N04","secret":"cba0dc0670","server":"65535","farm":66,"title":"5E4A0923\u00cdsm\u00e1fur Pagophila eburnea Ivory Gull","ispublic":1,"isfriend":0,"isfamily":0},{"id":"50629835516","owner":"55584551@N04","secret":"c31146d519","server":"65535","farm":66,"title":"5E4A0294  \u00cdsm\u00e1fur Pagophila eburnea Ivory Gull","ispublic":1,"isfriend":0,"isfamily":0},{"id":"49873679043","owner":"186211059@N06","secret":"7c70cb83ac","server":"65535","farm":66,"title":"Ivory Gull","ispublic":1,"isfriend":0,"isfamily":0},{"id":"48646156302","owner":"63019250@N03","secret":"b96f1657b0","server":"65535","farm":66,"title":"Ivory gull (Pagophila eburnea), arctic ocean around Svalbard","ispublic":1,"isfriend":0,"isfamily":0},{"id":"48478411911","owner":"12639178@N07","secret":"392b2606a4","server":"65535","farm":66,"title":"Elfenbeinm\u00f6we, sommerliches Bad an einem Bach","ispublic":1,"isfriend":0,"isfamily":0},{"id":"48443622381","owner":"60395108@N02","secret":"33293c95ca","server":"65535","farm":66,"title":"DSC_0531","ispublic":1,"isfriend":0,"isfamily":0},{"id":"48420777137","owner":"121321155@N06","secret":"353c75cf04","server":"65535","farm":66,"title":"2013_12_28_4987","ispublic":1,"isfriend":0,"isfamily":0},{"id":"48420625921","owner":"121321155@N06","secret":"c0f9b66ebc","server":"65535","farm":66,"title":"2013_12_28_5001","ispublic":1,"isfriend":0,"isfamily":0},{"id":"48420626006","owner":"121321155@N06","secret":"4abf072a9c","server":"65535","farm":66,"title":"2013_12_28_4960","ispublic":1,"isfriend":0,"isfamily":0},{"id":"48420777162","owner":"121321155@N06","secret":"d4d91098a4","server":"65535","farm":66,"title":"2013_12_28_4984","ispublic":1,"isfriend":0,"isfamily":0},{"id":"48420777077","owner":"121321155@N06","secret":"413dc87f2f","server":"65535","farm":66,"title":"2013_12_28_5101","ispublic":1,"isfriend":0,"isfamily":0},{"id":"48420777062","owner":"121321155@N06","secret":"fe4eb68e74","server":"65535","farm":66,"title":"2013_12_28_5248","ispublic":1,"isfriend":0,"isfamily":0},{"id":"48420777042","owner":"121321155@N06","secret":"93a2de72d0","server":"65535","farm":66,"title":"2013_12_28_5289","ispublic":1,"isfriend":0,"isfamily":0},{"id":"48420625846","owner":"121321155@N06","secret":"8871436e48","server":"65535","farm":66,"title":"2013_12_28_5305","ispublic":1,"isfriend":0,"isfamily":0},{"id":"48420625821","owner":"121321155@N06","secret":"7589812fef","server":"65535","farm":66,"title":"2013_12_28_5413","ispublic":1,"isfriend":0,"isfamily":0},{"id":"48420625756","owner":"121321155@N06","secret":"7a9333b1dd","server":"65535","farm":66,"title":"2013_12_28_6248","ispublic":1,"isfriend":0,"isfamily":0},{"id":"48420625831","owner":"121321155@N06","secret":"d72e4090ef","server":"65535","farm":66,"title":"2013_12_28_5393","ispublic":1,"isfriend":0,"isfamily":0},{"id":"48420625701","owner":"121321155@N06","secret":"25373c974d","server":"65535","farm":66,"title":"2013_12_28_6283","ispublic":1,"isfriend":0,"isfamily":0},{"id":"48420776862","owner":"121321155@N06","secret":"d9b4a2ca09","server":"65535","farm":66,"title":"2013_12_28_6303","ispublic":1,"isfriend":0,"isfamily":0},{"id":"48420625656","owner":"121321155@N06","secret":"87a226eef3","server":"65535","farm":66,"title":"2013_12_28_6313","ispublic":1,"isfriend":0,"isfamily":0},{"id":"48420776917","owner":"121321155@N06","secret":"eb1aa97376","server":"65535","farm":66,"title":"2013_12_28_6254","ispublic":1,"isfriend":0,"isfamily":0},{"id":"48420776737","owner":"121321155@N06","secret":"e3843c06f4","server":"65535","farm":66,"title":"2013_12_29_7666","ispublic":1,"isfriend":0,"isfamily":0},{"id":"48420776797","owner":"121321155@N06","secret":"70f520a734","server":"65535","farm":66,"title":"2013_12_29_7249","ispublic":1,"isfriend":0,"isfamily":0},{"id":"48420625536","owner":"121321155@N06","secret":"acd1cd3df9","server":"65535","farm":66,"title":"2013_12_29_7658","ispublic":1,"isfriend":0,"isfamily":0},{"id":"48420625571","owner":"121321155@N06","secret":"a144c079ef","server":"65535","farm":66,"title":"2013_12_29_7253","ispublic":1,"isfriend":0,"isfamily":0},{"id":"48420625466","owner":"121321155@N06","secret":"8f70697ff9","server":"65535","farm":66,"title":"2013_12_29_7683","ispublic":1,"isfriend":0,"isfamily":0},{"id":"48420776712","owner":"121321155@N06","secret":"b4595c9c30","server":"65535","farm":66,"title":"2013_12_29_7679","ispublic":1,"isfriend":0,"isfamily":0},{"id":"48420625436","owner":"121321155@N06","secret":"215329481c","server":"65535","farm":66,"title":"2013_12_29_7684","ispublic":1,"isfriend":0,"isfamily":0},{"id":"48420776662","owner":"121321155@N06","secret":"181d2b624f","server":"65535","farm":66,"title":"2013_12_29_7688","ispublic":1,"isfriend":0,"isfamily":0},{"id":"48420625361","owner":"121321155@N06","secret":"e63f84120c","server":"65535","farm":66,"title":"2013_12_29_7691","ispublic":1,"isfriend":0,"isfamily":0},{"id":"48420776612","owner":"121321155@N06","secret":"53007aafcc","server":"65535","farm":66,"title":"2013_12_29_7693","ispublic":1,"isfriend":0,"isfamily":0}]},"stat":"ok"}