{"photos":{"page":1,"pages":3,"perpage":100,"total":211,"photo":[{"id":"52657499822","owner":"110148017@N06","secret":"8a3b5e48da","server":"65535","farm":66,"title":"\u65e5\u672c\u6a39\u9daf Horornis diphone","ispublic":1,"isfriend":0,"isfamily":0},{"id":"52614344694","owner":"90764954@N07","secret":"709e3e8513","server":"65535","farm":66,"title":"Japanese bush warbler (Horornis diphone) \u65e5\u672c\u6811\u83ba","ispublic":1,"isfriend":0,"isfamily":0},{"id":"52614572298","owner":"90764954@N07","secret":"72dd8cb03c","server":"65535","farm":66,"title":"Japanese bush warbler (Horornis diphone) \u65e5\u672c\u6811\u83ba","ispublic":1,"isfriend":0,"isfamily":0},{"id":"52613575852","owner":"90764954@N07","secret":"0c96c3aebf","server":"65535","farm":66,"title":"Japanese bush warbler (Horornis diphone) \u65e5\u672c\u6811\u83ba","ispublic":1,"isfriend":0,"isfamily":0},{"id":"52219056574","owner":"30890130@N06","secret":"45058b1a52","server":"65535","farm":66,"title":"Horornis diphone","ispublic":1,"isfriend":0,"isfamily":0},{"id":"52025521302","owner":"35300288@N05","secret":"bba56d0615","server":"65535","farm":66,"title":"\u30a6\u30b0\u30a4\u30b9 Uguisu, Horornis diphone","ispublic":1,"isfriend":0,"isfamily":0},{"id":"51906388598","owner":"51148533@N00","secret":"554d5bd319","server":"65535","farm":66,"title":"Japanese bush warbler (Horornis diphone)\u30a6\u30b0\u30a4\u30b9","ispublic":1,"isfriend":0,"isfamily":0},{"id":"51905316112","owner":"51148533@N00","secret":"e8cbb4fff9","server":"65535","farm":66,"title":"Japanese bush warbler (Horornis diphone)\u30a6\u30b0\u30a4\u30b9","ispublic":1,"isfriend":0,"isfamily":0},{"id":"51663735703","owner":"10131818@N08","secret":"c48eb0c729","server":"65535","farm":66,"title":"Cettia diphone","ispublic":1,"isfriend":0,"isfamily":0},{"id":"51660724317","owner":"10131818@N08","secret":"aafebc12f8","server":"65535","farm":66,"title":"Japanese Bush Warbler, Horornis diphone, \u30a6\u30b0\u30a4\u30b9","ispublic":1,"isfriend":0,"isfamily":0},{"id":"51660396322","owner":"10131818@N08","secret":"ef6b7b0a04","server":"65535","farm":66,"title":"Hornonis diphone, Japanese Bush Warbler","ispublic":1,"isfriend":0,"isfamily":0},{"id":"51651307413","owner":"10131818@N08","secret":"e301ac2ed4","server":"65535","farm":66,"title":"Japanese Bush Warbler","ispublic":1,"isfriend":0,"isfamily":0},{"id":"51482047662","owner":"30890130@N06","secret":"c14435543d","server":"65535","farm":66,"title":"Horornis diphone","ispublic":1,"isfriend":0,"isfamily":0},{"id":"51383237312","owner":"30890130@N06","secret":"bd9bc60140","server":"65535","farm":66,"title":"Horornis diphone","ispublic":1,"isfriend":0,"isfamily":0},{"id":"51354664903","owner":"30890130@N06","secret":"b5b850bcfa","server":"65535","farm":66,"title":"Horornis diphone","ispublic":1,"isfriend":0,"isfamily":0},{"id":"49904872646","owner":"30890130@N06","secret":"cf7fa440ab","server":"65535","farm":66,"title":"Horornis diphone","ispublic":1,"isfriend":0,"isfamily":0},{"id":"49904868331","owner":"30890130@N06","secret":"96ed4d641f","server":"65535","farm":66,"title":"Horornis diphone","ispublic":1,"isfriend":0,"isfamily":0},{"id":"49876215501","owner":"30890130@N06","secret":"dc1f1fc218","server":"65535","farm":66,"title":"Horornis diphone","ispublic":1,"isfriend":0,"isfamily":0},{"id":"49876198611","owner":"30890130@N06","secret":"479264e726","server":"65535","farm":66,"title":"Horornis diphone","ispublic":1,"isfriend":0,"isfamily":0},{"id":"49674842548","owner":"127542576@N05","secret":"15ebb34198","server":"65535","farm":66,"title":"\u65e5\u672c\u6a39\u9daf \u77ed\u7fc5\u6a39\u9daf \"Horornis diphone\" \"Japanese Bush Warbler\"","ispublic":1,"isfriend":0,"isfamily":0},{"id":"49674842543","owner":"127542576@N05","secret":"d3359835eb","server":"65535","farm":66,"title":"\u65e5\u672c\u6a39\u9daf \u77ed\u7fc5\u6a39\u9daf \"Horornis diphone\" \"Japanese Bush Warbler\"","ispublic":1,"isfriend":0,"isfamily":0},{"id":"49507247697","owner":"186211059@N06","secret":"6aee1c3ea6","server":"65535","farm":66,"title":"Japanese Bush Warbler","ispublic":1,"isfriend":0,"isfamily":0},{"id":"49507243792","owner":"186211059@N06","secret":"93705ddb5d","server":"65535","farm":66,"title":"Japanese Bush Warbler","ispublic":1,"isfriend":0,"isfamily":0},{"id":"49507240002","owner":"186211059@N06","secret":"c9a5e3e795","server":"65535","farm":66,"title":"Japanese Bush Warbler","ispublic":1,"isfriend":0,"isfamily":0},{"id":"49506509013","owner":"186211059@N06","secret":"60871a35b8","server":"65535","farm":66,"title":"Japanese Bush Warbler","ispublic":1,"isfriend":0,"isfamily":0},{"id":"47990456558","owner":"39095352@N08","secret":"b065350ff3","server":"65535","farm":66,"title":"\u30a6\u30b0\u30a4\u30b9 (Japanese bush warbler)","ispublic":1,"isfriend":0,"isfamily":0},{"id":"47090785424","owner":"30890130@N06","secret":"b5332170d6","server":"65535","farm":66,"title":"Horornis diphone","ispublic":1,"isfriend":0,"isfamily":0},{"id":"40526134873","owner":"55286571@N00","secret":"16e555f02c","server":"7902","farm":8,"title":"\u65e5\u672c\u6a39\u9daf Japanese Bush-Warbler (Horornis diphone)","ispublic":1,"isfriend":0,"isfamily":0},{"id":"42046982255","owner":"29325798@N04","secret":"8f5113a021","server":"1838","farm":2,"title":"04\u65e5\u672c\u6234\u83ca-20141028-DSC_3538","ispublic":1,"isfriend":0,"isfamily":0},{"id":"41297218564","owner":"7924276@N03","secret":"b257f3d72a","server":"829","farm":1,"title":"Horornis diphone","ispublic":1,"isfriend":0,"isfamily":0},{"id":"41130216744","owner":"7924276@N03","secret":"a5eb8ae925","server":"943","farm":1,"title":"Horornis diphone","ispublic":1,"isfriend":0,"isfamily":0},{"id":"41823792251","owner":"7924276@N03","secret":"6f22bf9e5d","server":"825","farm":1,"title":"Horornis diphone","ispublic":1,"isfriend":0,"isfamily":0},{"id":"27891194448","owner":"7924276@N03","secret":"65046ae4fc","server":"972","farm":1,"title":"Horornis diphone","ispublic":1,"isfriend":0,"isfamily":0},{"id":"41607022472","owner":"7924276@N03","secret":"8c5e79c63e","server":"886","farm":1,"title":"Horornis diphone","ispublic":1,"isfriend":0,"isfamily":0},{"id":"26715057777","owner":"7924276@N03","secret":"a8167fd3ed","server":"887","farm":1,"title":"Horornis diphone","ispublic":1,"isfriend":0,"isfamily":0},{"id":"40664269175","owner":"7924276@N03","secret":"0e29817f35","server":"784","farm":1,"title":"Horornis diphone","ispublic":1,"isfriend":0,"isfamily":0},{"id":"26598374497","owner":"7924276@N03","secret":"84f7f84cb7","server":"865","farm":1,"title":"Horornis diphone","ispublic":1,"isfriend":0,"isfamily":0},{"id":"40529093995","owner":"136425653@N05","secret":"c77527bbb3","server":"893","farm":1,"title":"Japanese Bush Warbler","ispublic":1,"isfriend":0,"isfamily":0},{"id":"26403739517","owner":"7924276@N03","secret":"18164f65dc","server":"815","farm":1,"title":"Horornis diphone","ispublic":1,"isfriend":0,"isfamily":0},{"id":"39466001370","owner":"7924276@N03","secret":"d0297c3780","server":"797","farm":1,"title":"Horornis diphone","ispublic":1,"isfriend":0,"isfamily":0},{"id":"39376299370","owner":"7924276@N03","secret":"242f30aab7","server":"888","farm":1,"title":"Horornis diphone","ispublic":1,"isfriend":0,"isfamily":0},{"id":"40254914165","owner":"34738487@N06","secret":"b850434d13","server":"798","farm":1,"title":"Nightingale Cute","ispublic":1,"isfriend":0,"isfamily":0},{"id":"40399970764","owner":"34738487@N06","secret":"50c014fdb2","server":"881","farm":1,"title":"Singing Nightingale","ispublic":1,"isfriend":0,"isfamily":0},{"id":"39051879150","owner":"151954992@N07","secret":"a5dc2b1016","server":"817","farm":1,"title":"Horornis diphone","ispublic":1,"isfriend":0,"isfamily":0},{"id":"25929675037","owner":"161510587@N06","secret":"dd507a6c53","server":"4785","farm":5,"title":"P1250848 (3)","ispublic":1,"isfriend":0,"isfamily":0},{"id":"39364592345","owner":"43178375@N02","secret":"7472f250e2","server":"4674","farm":5,"title":"Coming out of the bush!","ispublic":1,"isfriend":0,"isfamily":0},{"id":"39856967802","owner":"7924276@N03","secret":"8557086629","server":"4717","farm":5,"title":"Horornis diphone","ispublic":1,"isfriend":0,"isfamily":0},{"id":"39068661451","owner":"7924276@N03","secret":"1b79a82e5a","server":"4531","farm":5,"title":"Horornis diphone","ispublic":1,"isfriend":0,"isfamily":0},{"id":"24028958017","owner":"7924276@N03","secret":"d2f0495bb3","server":"4559","farm":5,"title":"Horornis diphone","ispublic":1,"isfriend":0,"isfamily":0},{"id":"38089325644","owner":"7924276@N03","secret":"431d7f02a5","server":"4583","farm":5,"title":"Horornis diphone","ispublic":1,"isfriend":0,"isfamily":0},{"id":"37473765004","owner":"29672826@N00","secret":"2a2fcc14bb","server":"4500","farm":5,"title":"\u30a6\u30b0\u30a4\u30b9 \u3000Japanese Bush Warbler","ispublic":1,"isfriend":0,"isfamily":0},{"id":"36114393112","owner":"13861029@N00","secret":"44a3629750","server":"4294","farm":5,"title":"Japanese Bush-warbler","ispublic":1,"isfriend":0,"isfamily":0},{"id":"36114390982","owner":"13861029@N00","secret":"60d4bb596d","server":"4301","farm":5,"title":"Japanese Bush-warbler","ispublic":1,"isfriend":0,"isfamily":0},{"id":"35452954601","owner":"127542576@N05","secret":"87a81f26f3","server":"4278","farm":5,"title":"\u65e5\u672c\u6a39\u9daf (Horornis diphone#Japanese Bush Warbler)","ispublic":1,"isfriend":0,"isfamily":0},{"id":"34116344215","owner":"136425653@N05","secret":"8a966d14ec","server":"2859","farm":3,"title":"Japanese Bush Warbler","ispublic":1,"isfriend":0,"isfamily":0},{"id":"33470024180","owner":"50480446@N03","secret":"0b38885995","server":"3846","farm":4,"title":"Japanese bush warbler (Horornis diphone, \u30a6\u30b0\u30a4\u30b9)","ispublic":1,"isfriend":0,"isfamily":0},{"id":"32284457631","owner":"61354240@N00","secret":"66a11a8032","server":"767","farm":1,"title":"Japanese Bush-Warbler \/ \u30a6\u30b0\u30a4\u30b9 \/ \u65e5\u672c\u6a39\u9daf (Horornis diphone)","ispublic":1,"isfriend":0,"isfamily":0},{"id":"31134595874","owner":"147061930@N04","secret":"22d59fdc24","server":"780","farm":1,"title":"A Japanese bush warbler in ume flowers","ispublic":1,"isfriend":0,"isfamily":0},{"id":"30781332524","owner":"96060626@N03","secret":"242e000ef7","server":"771","farm":1,"title":"20161129 (83)","ispublic":1,"isfriend":0,"isfamily":0},{"id":"31476057912","owner":"96060626@N03","secret":"24c41b7394","server":"276","farm":1,"title":"20161129 (129)","ispublic":1,"isfriend":0,"isfamily":0},{"id":"52617460548","owner":"90764954@N07","secret":"fac3d4b9dc","server":"65535","farm":66,"title":"Japanese bush warbler (Horornis diphone) \u65e5\u672c\u6811\u83ba","ispublic":1,"isfriend":0,"isfamily":0},{"id":"51664055174","owner":"10131818@N08","secret":"78987fffa6","server":"65535","farm":66,"title":"Japanese Bush Warbler With Snacks, Horornis diphone, \u30a6\u30b0\u30a4\u30b9","ispublic":1,"isfriend":0,"isfamily":0},{"id":"51483754445","owner":"30890130@N06","secret":"f577272e7b","server":"65535","farm":66,"title":"Horornis diphone","ispublic":1,"isfriend":0,"isfamily":0},{"id":"50852003451","owner":"100074562@N05","secret":"0dabd8bfc9","server":"65535","farm":66,"title":"Japanese bush warbler (Horornis diphone)","ispublic":1,"isfriend":0,"isfamily":0},{"id":"49774681638","owner":"107827372@N04","secret":"57f1a7a6d1","server":"0","farm":0,"title":"P1170552 4K movie 29 sec. 30fps","ispublic":1,"isfriend":0,"isfamily":0},{"id":"49386876173","owner":"12639178@N07","secret":"0bf8880ae5","server":"65535","farm":66,"title":"Japan-Buschs\u00e4nger","ispublic":1,"isfriend":0,"isfamily":0},{"id":"49246862146","owner":"12639178@N07","secret":"dc0371fa9c","server":"65535","farm":66,"title":"Japan-Buschs\u00e4nger","ispublic":1,"isfriend":0,"isfamily":0},{"id":"48528300372","owner":"30890130@N06","secret":"e4130f1320","server":"65535","farm":66,"title":"Horornis diphone","ispublic":1,"isfriend":0,"isfamily":0},{"id":"48528297972","owner":"30890130@N06","secret":"6122d103b9","server":"65535","farm":66,"title":"Horornis diphone","ispublic":1,"isfriend":0,"isfamily":0},{"id":"48387494862","owner":"30890130@N06","secret":"656f1c30be","server":"65535","farm":66,"title":"Horornis diphone","ispublic":1,"isfriend":0,"isfamily":0},{"id":"48387353186","owner":"30890130@N06","secret":"90b397d873","server":"65535","farm":66,"title":"Horornis diphone","ispublic":1,"isfriend":0,"isfamily":0},{"id":"47990452297","owner":"39095352@N08","secret":"3e4af9083f","server":"65535","farm":66,"title":"\u30a6\u30b0\u30a4\u30b9 (Japanese bush warbler)","ispublic":1,"isfriend":0,"isfamily":0},{"id":"47930218358","owner":"38972116@N00","secret":"a2e9e5a70c","server":"65535","farm":66,"title":"Japanese Bush Warbler","ispublic":1,"isfriend":0,"isfamily":0},{"id":"33025796768","owner":"50480446@N03","secret":"b72e60ca7a","server":"4873","farm":5,"title":"Japanese bush-warbler (Horornis diphone cantans, \u30a6\u30b0\u30a4\u30b9)","ispublic":1,"isfriend":0,"isfamily":0},{"id":"45596668322","owner":"30890130@N06","secret":"1236a3f618","server":"1902","farm":2,"title":"Horornis diphone","ispublic":1,"isfriend":0,"isfamily":0},{"id":"39909838830","owner":"7924276@N03","secret":"8d502c4128","server":"828","farm":1,"title":"Horornis diphone","ispublic":1,"isfriend":0,"isfamily":0},{"id":"41495386292","owner":"161510587@N06","secret":"0b7c459c0a","server":"881","farm":1,"title":"P12907552","ispublic":1,"isfriend":0,"isfamily":0},{"id":"26667430707","owner":"161510587@N06","secret":"10cf4551b3","server":"857","farm":1,"title":"P12907672","ispublic":1,"isfriend":0,"isfamily":0},{"id":"40474712824","owner":"50480446@N03","secret":"0acc19f279","server":"816","farm":1,"title":"Japanese bush-warbler (\u30a6\u30b0\u30a4\u30b9)","ispublic":1,"isfriend":0,"isfamily":0},{"id":"41110069361","owner":"34738487@N06","secret":"36c2706e2e","server":"794","farm":1,"title":"Singing Nightingale","ispublic":1,"isfriend":0,"isfamily":0},{"id":"35447781944","owner":"13861029@N00","secret":"86f62ac71a","server":"4313","farm":5,"title":"Japanese Bush-warbler","ispublic":1,"isfriend":0,"isfamily":0},{"id":"33003889180","owner":"32156534@N02","secret":"b59bc787f0","server":"746","farm":1,"title":"\u65e5\u672c\u6a39\u9daf Horornis diphone \uff1f \/Japanese Bush Warbler\/\u6a39\u9daf\u79d1 Scotocercidae","ispublic":1,"isfriend":0,"isfamily":0},{"id":"30812743103","owner":"96060626@N03","secret":"cb5f2dd91b","server":"5564","farm":6,"title":"20161129 (85)","ispublic":1,"isfriend":0,"isfamily":0},{"id":"30781329454","owner":"96060626@N03","secret":"3e6f3c469f","server":"527","farm":1,"title":"20161129 (96)","ispublic":1,"isfriend":0,"isfamily":0},{"id":"31585780436","owner":"96060626@N03","secret":"9cb5b7848f","server":"430","farm":1,"title":"20161129 (97)","ispublic":1,"isfriend":0,"isfamily":0},{"id":"31622998145","owner":"96060626@N03","secret":"7e1d4e27cb","server":"325","farm":1,"title":"20161129 (100)","ispublic":1,"isfriend":0,"isfamily":0},{"id":"31622997385","owner":"96060626@N03","secret":"2f199b8c17","server":"354","farm":1,"title":"20161129 (103)","ispublic":1,"isfriend":0,"isfamily":0},{"id":"31622997575","owner":"96060626@N03","secret":"e29bcd60a8","server":"415","farm":1,"title":"20161129 (102)","ispublic":1,"isfriend":0,"isfamily":0},{"id":"31622996975","owner":"96060626@N03","secret":"de96c440b5","server":"261","farm":1,"title":"20161129 (104)","ispublic":1,"isfriend":0,"isfamily":0},{"id":"31585777746","owner":"96060626@N03","secret":"0fdcd99548","server":"364","farm":1,"title":"20161129 (117)","ispublic":1,"isfriend":0,"isfamily":0},{"id":"31585777506","owner":"96060626@N03","secret":"8cef484c53","server":"661","farm":1,"title":"20161129 (119)","ispublic":1,"isfriend":0,"isfamily":0},{"id":"31622993525","owner":"96060626@N03","secret":"af595203d3","server":"269","farm":1,"title":"20161129 (122)","ispublic":1,"isfriend":0,"isfamily":0},{"id":"31622992915","owner":"96060626@N03","secret":"7183bd87e2","server":"37","farm":1,"title":"20161129 (124)","ispublic":1,"isfriend":0,"isfamily":0},{"id":"30812734593","owner":"96060626@N03","secret":"12b6844344","server":"5591","farm":6,"title":"20161129 (133)","ispublic":1,"isfriend":0,"isfamily":0},{"id":"31476055542","owner":"96060626@N03","secret":"3a6a7e4abf","server":"605","farm":1,"title":"20161129 (137)","ispublic":1,"isfriend":0,"isfamily":0},{"id":"31585775486","owner":"96060626@N03","secret":"87c72b7f1c","server":"296","farm":1,"title":"20161129 (135)","ispublic":1,"isfriend":0,"isfamily":0},{"id":"31585775246","owner":"96060626@N03","secret":"159762b391","server":"275","farm":1,"title":"20161129 (138)","ispublic":1,"isfriend":0,"isfamily":0},{"id":"31585774846","owner":"96060626@N03","secret":"e1da0bd83e","server":"139","farm":1,"title":"20161129 (140)","ispublic":1,"isfriend":0,"isfamily":0},{"id":"31585774576","owner":"96060626@N03","secret":"596deddc84","server":"88","farm":1,"title":"20161129 (141)","ispublic":1,"isfriend":0,"isfamily":0},{"id":"31622990255","owner":"96060626@N03","secret":"7cf7a4844e","server":"769","farm":1,"title":"20161129 (142)","ispublic":1,"isfriend":0,"isfamily":0}]},"stat":"ok"}