{"photos":{"page":1,"pages":42,"perpage":100,"total":4183,"photo":[{"id":"52777967338","owner":"11295713@N00","secret":"049fd419f7","server":"65535","farm":66,"title":"Kelp Gull (Larus dominicanus) Flying Off with African Penguin Egg","ispublic":1,"isfriend":0,"isfamily":0},{"id":"52775971688","owner":"46091369@N02","secret":"9c261d710d","server":"65535","farm":66,"title":"Zeeolifanten en vogels, Pen\u00ednsula Vald\u00e9s","ispublic":1,"isfriend":0,"isfamily":0},{"id":"52772629397","owner":"21998518@N08","secret":"a3c70350c5","server":"65535","farm":66,"title":"20230326_5649_7D2-468 Ice Cream cone for Black-backed Gull","ispublic":1,"isfriend":0,"isfamily":0},{"id":"52772629247","owner":"21998518@N08","secret":"5eba67ddc7","server":"65535","farm":66,"title":"20230326_5650_7D2-468 The Ice Cream Cone goes down in one mouthful (085\/365)","ispublic":1,"isfriend":0,"isfamily":0},{"id":"52773161186","owner":"21998518@N08","secret":"5d233a10f9","server":"65535","farm":66,"title":"20230326_5655_7D2-468 Cone nearly gone","ispublic":1,"isfriend":0,"isfamily":0},{"id":"52759061510","owner":"195179412@N07","secret":"b76c71c456","server":"65535","farm":66,"title":"Gaviota Dominicana, Larus dominicanus","ispublic":1,"isfriend":0,"isfamily":0},{"id":"52750352878","owner":"57729348@N02","secret":"39722406d2","server":"65535","farm":66,"title":"Belcher's Gull (Larus belcheri),","ispublic":1,"isfriend":0,"isfamily":0},{"id":"52741443894","owner":"40883175@N06","secret":"6635721990","server":"65535","farm":66,"title":"Kelp Gull","ispublic":1,"isfriend":0,"isfamily":0},{"id":"52740034167","owner":"12639178@N07","secret":"167752b4d3","server":"65535","farm":66,"title":"Dominikanerm\u00f6we (Larus dominicanus)","ispublic":1,"isfriend":0,"isfamily":0},{"id":"52738298902","owner":"12639178@N07","secret":"12ea1303d2","server":"65535","farm":66,"title":"Dominikanerm\u00f6we im ersten Zyklus  (Larus dominicanus), NZL","ispublic":1,"isfriend":0,"isfamily":0},{"id":"52728369672","owner":"37203410@N07","secret":"5d4b488f61","server":"65535","farm":66,"title":"Gaviota Dominicana \/ Larus dominicanus","ispublic":1,"isfriend":0,"isfamily":0},{"id":"52728885206","owner":"37203410@N07","secret":"911079bb71","server":"65535","farm":66,"title":"Gaviota Dominicana \/ Larus dominicanus","ispublic":1,"isfriend":0,"isfamily":0},{"id":"52729284765","owner":"37203410@N07","secret":"a241fb132a","server":"65535","farm":66,"title":"Gaviota Dominicana \/ Larus dominicanus","ispublic":1,"isfriend":0,"isfamily":0},{"id":"52728872566","owner":"37203410@N07","secret":"75248d2d54","server":"65535","farm":66,"title":"Gaviota Dominicana \/ Larus dominicanus","ispublic":1,"isfriend":0,"isfamily":0},{"id":"52729112769","owner":"37203410@N07","secret":"05d124012a","server":"65535","farm":66,"title":"Gaviota Dominicana \/ Larus dominicanus","ispublic":1,"isfriend":0,"isfamily":0},{"id":"52719137487","owner":"119095828@N03","secret":"537ba17779","server":"65535","farm":66,"title":"Kelp Gull (Larus dominicanus)","ispublic":1,"isfriend":0,"isfamily":0},{"id":"52719921129","owner":"119095828@N03","secret":"6061fc205e","server":"65535","farm":66,"title":"Kelp Gull (Larus dominicanus)","ispublic":1,"isfriend":0,"isfamily":0},{"id":"52719920499","owner":"119095828@N03","secret":"952aca62b1","server":"65535","farm":66,"title":"Kelp Gull (Larus dominicanus)","ispublic":1,"isfriend":0,"isfamily":0},{"id":"52719131982","owner":"119095828@N03","secret":"313b7a6b8a","server":"65535","farm":66,"title":"Kelp Gull (Larus dominicanus)","ispublic":1,"isfriend":0,"isfamily":0},{"id":"52719918739","owner":"119095828@N03","secret":"e024a9c9ac","server":"65535","farm":66,"title":"Kelp Gull (Larus dominicanus)","ispublic":1,"isfriend":0,"isfamily":0},{"id":"52709866806","owner":"30722034@N02","secret":"a332674eae","server":"65535","farm":66,"title":"All under control.  -Kelp Gull\/Larus dominicanus","ispublic":1,"isfriend":0,"isfamily":0},{"id":"52707113665","owner":"12639178@N07","secret":"929baec586","server":"65535","farm":66,"title":"Dominikanerm\u00f6we (Larus dominicanus), Russell, NZL","ispublic":1,"isfriend":0,"isfamily":0},{"id":"52699825736","owner":"30722034@N02","secret":"559000dced","server":"65535","farm":66,"title":"Very stormy day, Kelp Gull\/Larus dominicanus with a rest of feather in the beak.","ispublic":1,"isfriend":0,"isfamily":0},{"id":"52691869642","owner":"30722034@N02","secret":"d1b92e9d5b","server":"65535","farm":66,"title":"Kelp Gull\/Larus dominicanus","ispublic":1,"isfriend":0,"isfamily":0},{"id":"52685966281","owner":"53358437@N07","secret":"bce05aa3e5","server":"65535","farm":66,"title":"Kelp Gull (Larus dominicanus)","ispublic":1,"isfriend":0,"isfamily":0},{"id":"52686249384","owner":"53358437@N07","secret":"bec85364c8","server":"65535","farm":66,"title":"Kelp Gull (Larus dominicanus)","ispublic":1,"isfriend":0,"isfamily":0},{"id":"52684827336","owner":"46091369@N02","secret":"37f4e4b9df","server":"65535","farm":66,"title":"Inham met jonge zeeolifanten","ispublic":1,"isfriend":0,"isfamily":0},{"id":"52684312072","owner":"46091369@N02","secret":"6d8e44a822","server":"65535","farm":66,"title":"Zeeolifanten en een kelpmeeuw","ispublic":1,"isfriend":0,"isfamily":0},{"id":"52658777073","owner":"148290785@N06","secret":"c74d044336","server":"65535","farm":66,"title":"Seagull","ispublic":1,"isfriend":0,"isfamily":0},{"id":"52652210977","owner":"37203410@N07","secret":"176bd6fe23","server":"65535","farm":66,"title":"Gaviota dominicana \/ Larus dominicanus","ispublic":1,"isfriend":0,"isfamily":0},{"id":"52653184008","owner":"37203410@N07","secret":"1b99e59bf2","server":"65535","farm":66,"title":"Gaviota dominicana \/ Larus dominicanus","ispublic":1,"isfriend":0,"isfamily":0},{"id":"52651060492","owner":"31864021@N08","secret":"dbbb7c7e06","server":"65535","farm":66,"title":"Karoro - Southern black-backed gull - Larus dominicanus","ispublic":1,"isfriend":0,"isfamily":0},{"id":"52636862394","owner":"37203410@N07","secret":"13d5b00dd8","server":"65535","farm":66,"title":"Gaviota dominicana \/ Larus dominicanus","ispublic":1,"isfriend":0,"isfamily":0},{"id":"52636984555","owner":"37203410@N07","secret":"83aed7954e","server":"65535","farm":66,"title":"Gaviota dominicana \/ Larus dominicanus","ispublic":1,"isfriend":0,"isfamily":0},{"id":"52619108506","owner":"24309230@N03","secret":"336d697f47","server":"65535","farm":66,"title":"Kelp Gull","ispublic":1,"isfriend":0,"isfamily":0},{"id":"52613010385","owner":"69947563@N07","secret":"6bbdd6981c","server":"65535","farm":66,"title":"Kelp Gull - Kingborough, South Bruny, Tasmania, Australia","ispublic":1,"isfriend":0,"isfamily":0},{"id":"52601945801","owner":"154657265@N08","secret":"cbd6afab14","server":"65535","farm":66,"title":"Kelp Gull - Larus dominicanus","ispublic":1,"isfriend":0,"isfamily":0},{"id":"52602373070","owner":"154657265@N08","secret":"fe9e60d353","server":"65535","farm":66,"title":"Kelp Gull - Larus dominicanus","ispublic":1,"isfriend":0,"isfamily":0},{"id":"52597321774","owner":"67277069@N06","secret":"ddd308dd6e","server":"65535","farm":66,"title":"Kelp Gull---Larus dominicanus","ispublic":1,"isfriend":0,"isfamily":0},{"id":"52597321689","owner":"67277069@N06","secret":"81a3e0077c","server":"65535","farm":66,"title":"Kelp Gull---Larus dominicanus","ispublic":1,"isfriend":0,"isfamily":0},{"id":"52582110037","owner":"26371261@N00","secret":"ff9b6fb9f1","server":"65535","farm":66,"title":"Kelp Gull, Larus dominicanus","ispublic":1,"isfriend":0,"isfamily":0},{"id":"52576340082","owner":"30628571@N04","secret":"c4b4ce090f","server":"65535","farm":66,"title":"Larus dominicanus ssp. vetula (Laridae)","ispublic":1,"isfriend":0,"isfamily":0},{"id":"52559340807","owner":"100209004@N04","secret":"714f45caa9","server":"65535","farm":66,"title":"Belcher\u2019s Gull (Larus belcheri) @ Ballestas Islands, Paracas, Peru-9987","ispublic":1,"isfriend":0,"isfamily":0},{"id":"52552400208","owner":"40883175@N06","secret":"02a09b0f0c","server":"65535","farm":66,"title":"Kelp Gull","ispublic":1,"isfriend":0,"isfamily":0},{"id":"52548729525","owner":"26822473@N06","secret":"2565c8f302","server":"65535","farm":66,"title":"Kelp Gull (Larus dominicanus)","ispublic":1,"isfriend":0,"isfamily":0},{"id":"52528089602","owner":"26371261@N00","secret":"b830182e8a","server":"65535","farm":66,"title":"Kelp Gull, Larus dominicanus","ispublic":1,"isfriend":0,"isfamily":0},{"id":"52529099908","owner":"26371261@N00","secret":"95aa9ced65","server":"65535","farm":66,"title":"Kelp Gull, Larus dominicanus","ispublic":1,"isfriend":0,"isfamily":0},{"id":"52529031235","owner":"26371261@N00","secret":"38f7bdd50e","server":"65535","farm":66,"title":"Kelp Gull, Larus dominicanus","ispublic":1,"isfriend":0,"isfamily":0},{"id":"52507118339","owner":"63394592@N08","secret":"faefd09cbf","server":"65535","farm":66,"title":"Larus dominicanus","ispublic":1,"isfriend":0,"isfamily":0},{"id":"52507395633","owner":"63394592@N08","secret":"c4ea9d85f5","server":"65535","farm":66,"title":"Larus dominicanus","ispublic":1,"isfriend":0,"isfamily":0},{"id":"52506362687","owner":"63394592@N08","secret":"91e236e423","server":"65535","farm":66,"title":"Larus dominicanus","ispublic":1,"isfriend":0,"isfamily":0},{"id":"52496580344","owner":"63175631@N02","secret":"ea6a82a7e5","server":"65535","farm":66,"title":"Pied Oystercatcher (Haematopus longirostris) & (Kelp Gull (Larus domincanus)","ispublic":1,"isfriend":0,"isfamily":0},{"id":"52495521417","owner":"26371261@N00","secret":"c378f8d3b1","server":"65535","farm":66,"title":"Kelp Gull, Larus dominicanus","ispublic":1,"isfriend":0,"isfamily":0},{"id":"52492167306","owner":"26371261@N00","secret":"7fc137efc1","server":"65535","farm":66,"title":"Kelp Gull, Larus dominicanus. Cape Town, South Africa","ispublic":1,"isfriend":0,"isfamily":0},{"id":"52466497068","owner":"40235763@N00","secret":"55b1ae593a","server":"65535","farm":66,"title":"Gaviota Dominicana (Larus dominicanus)","ispublic":1,"isfriend":0,"isfamily":0},{"id":"52464378870","owner":"102789406@N06","secret":"0f16315865","server":"65535","farm":66,"title":"Larus dominicanus \/ Patagonia, Argentina","ispublic":1,"isfriend":0,"isfamily":0},{"id":"52455383157","owner":"107784905@N04","secret":"e097a2f31f","server":"65535","farm":66,"title":"Go\u00e9land dominicain - Cape of Good Hope\/Western Cape\/South Africa_20181122_008-1","ispublic":1,"isfriend":0,"isfamily":0},{"id":"52448128183","owner":"190014189@N06","secret":"688cbc886c","server":"65535","farm":66,"title":"Kelp Gull \/ Larus dominicanus","ispublic":1,"isfriend":0,"isfamily":0},{"id":"52444610581","owner":"136867941@N04","secret":"006f410273","server":"65535","farm":66,"title":"Gaivot\u00e3o (Larus dominicanus) Kelp Gul","ispublic":1,"isfriend":0,"isfamily":0},{"id":"52424772925","owner":"124450184@N05","secret":"87f2c5581f","server":"65535","farm":66,"title":"Kelp Gull with a Penguin Egg","ispublic":1,"isfriend":0,"isfamily":0},{"id":"52407935635","owner":"196361437@N06","secret":"237dda931b","server":"65535","farm":66,"title":"gaviota dominicana (Larus dominicanus)","ispublic":1,"isfriend":0,"isfamily":0},{"id":"52407621943","owner":"11295713@N00","secret":"961cd6c451","server":"65535","farm":66,"title":"Profile of the Kelp Gull 2 (Larus dominicanus)","ispublic":1,"isfriend":0,"isfamily":0},{"id":"52320644712","owner":"137103568@N04","secret":"503c25e752","server":"65535","farm":66,"title":"Kelp Gull (Larus dominicanus)","ispublic":1,"isfriend":0,"isfamily":0},{"id":"52320670141","owner":"119588811@N02","secret":"e2837c0b1d","server":"65535","farm":66,"title":"Cape Gull (larus dominicanus vetula)","ispublic":1,"isfriend":0,"isfamily":0},{"id":"52321109885","owner":"119588811@N02","secret":"d30508b198","server":"65535","farm":66,"title":"Cape Gull (larus dominicanus vetula)1","ispublic":1,"isfriend":0,"isfamily":0},{"id":"52318261997","owner":"154657265@N08","secret":"fcb0e91fdd","server":"65535","farm":66,"title":"Kelp Gull (Larus dominicanus)_1","ispublic":1,"isfriend":0,"isfamily":0},{"id":"52319504540","owner":"154657265@N08","secret":"a6540c494e","server":"65535","farm":66,"title":"Kelp Gull (Larus dominicanus)_2","ispublic":1,"isfriend":0,"isfamily":0},{"id":"52319063686","owner":"154657265@N08","secret":"b8270aefa2","server":"65535","farm":66,"title":"Kelp Gull (Larus dominicanus)_3","ispublic":1,"isfriend":0,"isfamily":0},{"id":"52319487639","owner":"154657265@N08","secret":"c30bc4d58d","server":"65535","farm":66,"title":"Kelp Gull (Larus dominicanus)_4","ispublic":1,"isfriend":0,"isfamily":0},{"id":"52318261607","owner":"154657265@N08","secret":"482537f1cd","server":"65535","farm":66,"title":"Kelp Gull (Larus dominicanus)_5","ispublic":1,"isfriend":0,"isfamily":0},{"id":"52319063336","owner":"154657265@N08","secret":"9fc2e44a11","server":"65535","farm":66,"title":"Kelp Gull (Larus dominicanus)_6","ispublic":1,"isfriend":0,"isfamily":0},{"id":"52319503365","owner":"154657265@N08","secret":"5b0c087eb6","server":"65535","farm":66,"title":"Kelp Gull (Larus dominicanus)_9","ispublic":1,"isfriend":0,"isfamily":0},{"id":"52319503295","owner":"154657265@N08","secret":"6b75e4551d","server":"65535","farm":66,"title":"Kelp Gull (Larus dominicanus)_10","ispublic":1,"isfriend":0,"isfamily":0},{"id":"52318260592","owner":"154657265@N08","secret":"4b9ae02cb9","server":"65535","farm":66,"title":"Kelp Gull (Larus dominicanus)_11","ispublic":1,"isfriend":0,"isfamily":0},{"id":"52319369428","owner":"154657265@N08","secret":"66558eefe1","server":"65535","farm":66,"title":"Kelp Gull (Larus dominicanus)_12","ispublic":1,"isfriend":0,"isfamily":0},{"id":"52318260097","owner":"154657265@N08","secret":"51b4cd86e1","server":"65535","farm":66,"title":"Kelp Gull (Larus dominicanus)_13","ispublic":1,"isfriend":0,"isfamily":0},{"id":"52319369208","owner":"154657265@N08","secret":"c6b84d3295","server":"65535","farm":66,"title":"Kelp Gull (Larus dominicanus)_14","ispublic":1,"isfriend":0,"isfamily":0},{"id":"52318259742","owner":"154657265@N08","secret":"dde56cfc95","server":"65535","farm":66,"title":"Kelp Gull (Larus dominicanus)_15","ispublic":1,"isfriend":0,"isfamily":0},{"id":"52734800228","owner":"12639178@N07","secret":"71e60d9ff9","server":"65535","farm":66,"title":"Southern Black-backed Gull (Larus dominicanus), NZL","ispublic":1,"isfriend":0,"isfamily":0},{"id":"52720075080","owner":"119095828@N03","secret":"3c87afc2cf","server":"65535","farm":66,"title":"Kelp Gull (Larus dominicanus)","ispublic":1,"isfriend":0,"isfamily":0},{"id":"52650956318","owner":"37203410@N07","secret":"1bb5c849ba","server":"65535","farm":66,"title":"Gaviota dominicana \/ Larus dominicanus","ispublic":1,"isfriend":0,"isfamily":0},{"id":"52595089826","owner":"26371261@N00","secret":"5f62be4d83","server":"65535","farm":66,"title":"Kelp Gull, Larus dominicanus","ispublic":1,"isfriend":0,"isfamily":0},{"id":"52583388859","owner":"12639178@N07","secret":"4867760599","server":"65535","farm":66,"title":"Dominikanerm\u00f6we\/Kelp gull\/Karoro","ispublic":1,"isfriend":0,"isfamily":0},{"id":"52539542386","owner":"12639178@N07","secret":"ce81cd6004","server":"65535","farm":66,"title":"Dominikanerm\u00f6we","ispublic":1,"isfriend":0,"isfamily":0},{"id":"52522572404","owner":"65345069@N02","secret":"55f704c009","server":"65535","farm":66,"title":"Kelp Gull (Larus dominicanus)","ispublic":1,"isfriend":0,"isfamily":0},{"id":"52516054225","owner":"45528818@N07","secret":"b1b5e9d9fe","server":"65535","farm":66,"title":"Kelp gull-4888","ispublic":1,"isfriend":0,"isfamily":0},{"id":"52496559873","owner":"26371261@N00","secret":"7a77cd4070","server":"65535","farm":66,"title":"Kelp Gull, Larus dominicanus in the water. Hartlaub's Gull, Chroicocephalus hartlaubii, on the grass.","ispublic":1,"isfriend":0,"isfamily":0},{"id":"52483006191","owner":"26371261@N00","secret":"e148e7aea0","server":"65535","farm":66,"title":"Kelp Gull, Larus dominicanus","ispublic":1,"isfriend":0,"isfamily":0},{"id":"52468572979","owner":"40235763@N00","secret":"4a68f7ae56","server":"65535","farm":66,"title":"Gaviota Dominicana (Larus dominicanus)","ispublic":1,"isfriend":0,"isfamily":0},{"id":"52464380925","owner":"102789406@N06","secret":"5debf26925","server":"65535","farm":66,"title":"Larus dominicanus, Eubalaena australis \/ Patagonia, Argentina","ispublic":1,"isfriend":0,"isfamily":0},{"id":"52403011884","owner":"124732887@N02","secret":"136ab98d92","server":"65535","farm":66,"title":"Kelp Gull","ispublic":1,"isfriend":0,"isfamily":0},{"id":"52403157930","owner":"124732887@N02","secret":"393cfc9cac","server":"65535","farm":66,"title":"Kelp Gull","ispublic":1,"isfriend":0,"isfamily":0},{"id":"52376225651","owner":"7200351@N08","secret":"b425f8ae0e","server":"65535","farm":66,"title":"Larus dominicanus vetula","ispublic":1,"isfriend":0,"isfamily":0},{"id":"52370002547","owner":"7200351@N08","secret":"2131c5ac4e","server":"65535","farm":66,"title":"Larus dominicanus vetula","ispublic":1,"isfriend":0,"isfamily":0},{"id":"52370315623","owner":"7200351@N08","secret":"b79e7124e1","server":"65535","farm":66,"title":"Larus dominicanus vetula","ispublic":1,"isfriend":0,"isfamily":0},{"id":"52370315023","owner":"7200351@N08","secret":"dc5efd0b87","server":"65535","farm":66,"title":"Larus dominicanus vetula","ispublic":1,"isfriend":0,"isfamily":0},{"id":"52370081656","owner":"7200351@N08","secret":"0b362625f0","server":"65535","farm":66,"title":"Larus dominicanus vetula","ispublic":1,"isfriend":0,"isfamily":0},{"id":"52369139572","owner":"7200351@N08","secret":"75a64cdca2","server":"65535","farm":66,"title":"Larus dominicanus vetula","ispublic":1,"isfriend":0,"isfamily":0},{"id":"52316025662","owner":"84152923@N08","secret":"602ab52263","server":"65535","farm":66,"title":"kelpmeeuw - Larus dominicanus - Kelp gull","ispublic":1,"isfriend":0,"isfamily":0},{"id":"52316443635","owner":"37203410@N07","secret":"e47ced0da6","server":"65535","farm":66,"title":"Gaviota dominicana \/ Larus dominicanus","ispublic":1,"isfriend":0,"isfamily":0}]},"stat":"ok"}