{"photos":{"page":1,"pages":5,"perpage":100,"total":460,"photo":[{"id":"52625830784","owner":"196786375@N03","secret":"7523f47336","server":"65535","farm":66,"title":"Kentucky Warbler","ispublic":1,"isfriend":0,"isfamily":0},{"id":"52580739305","owner":"153973412@N04","secret":"ae89e8213e","server":"65535","farm":66,"title":"Kentucky warbler-Geothlypis formosa, Iowa City, IA","ispublic":1,"isfriend":0,"isfamily":0},{"id":"52449986982","owner":"24608578@N00","secret":"a5dd01b3ed","server":"65535","farm":66,"title":"Kentucky warbler (Geothlypis formosa)","ispublic":1,"isfriend":0,"isfamily":0},{"id":"52299194911","owner":"124995824@N08","secret":"bdc9fcdded","server":"65535","farm":66,"title":"Kentucky Warbler - Geothlypis formosa","ispublic":1,"isfriend":0,"isfamily":0},{"id":"52243274158","owner":"91620959@N08","secret":"44aa7fb9b7","server":"65535","farm":66,"title":"Kentucky warbler (Geothlypis formosa)","ispublic":1,"isfriend":0,"isfamily":0},{"id":"52145157392","owner":"49114357@N08","secret":"a1229461d3","server":"65535","farm":66,"title":"Kentucky Warbler","ispublic":1,"isfriend":0,"isfamily":0},{"id":"52154467045","owner":"28499865@N07","secret":"45b57a598e","server":"65535","farm":66,"title":"Kentucky Warbler - Geothlypis formosa","ispublic":1,"isfriend":0,"isfamily":0},{"id":"52154467010","owner":"28499865@N07","secret":"7518c19b0f","server":"65535","farm":66,"title":"Kentucky Warbler - Geothlypis formosa","ispublic":1,"isfriend":0,"isfamily":0},{"id":"52153972201","owner":"28499865@N07","secret":"889080d4fb","server":"65535","farm":66,"title":"Kentucky Warbler - Geothlypis formosa","ispublic":1,"isfriend":0,"isfamily":0},{"id":"52153978748","owner":"28499865@N07","secret":"d4cda54dc8","server":"65535","farm":66,"title":"Kentucky Warbler - Geothlypis formosa","ispublic":1,"isfriend":0,"isfamily":0},{"id":"52139500967","owner":"22475926@N08","secret":"9480f328f1","server":"65535","farm":66,"title":"Kentucky warbler (Geothlypis formosa)","ispublic":1,"isfriend":0,"isfamily":0},{"id":"52138943721","owner":"22475926@N08","secret":"92fa0c8f58","server":"65535","farm":66,"title":"Kentucky warbler (Geothlypis formosa)","ispublic":1,"isfriend":0,"isfamily":0},{"id":"52101472752","owner":"45340210@N05","secret":"68cfe0c107","server":"65535","farm":66,"title":"Kentucky Warbler 2 5_25_22","ispublic":1,"isfriend":0,"isfamily":0},{"id":"52096898697","owner":"120449047@N06","secret":"8c0f07bda5","server":"65535","farm":66,"title":"Kentucky Warbler (21\/35)","ispublic":1,"isfriend":0,"isfamily":0},{"id":"52090093602","owner":"87782155@N04","secret":"31087ba218","server":"65535","farm":66,"title":"500th Species - Kentucky Warbler","ispublic":1,"isfriend":0,"isfamily":0},{"id":"52084772813","owner":"61241315@N00","secret":"8e9ab017ee","server":"65535","farm":66,"title":"Kentucky Warbler_7514_01-001","ispublic":1,"isfriend":0,"isfamily":0},{"id":"52084993389","owner":"61241315@N00","secret":"46eb2b3efc","server":"65535","farm":66,"title":"Kentucky Warbler_N9083","ispublic":1,"isfriend":0,"isfamily":0},{"id":"52083716042","owner":"61241315@N00","secret":"18d027e9f8","server":"65535","farm":66,"title":"Kentucky Warbler_N9264","ispublic":1,"isfriend":0,"isfamily":0},{"id":"52085245785","owner":"61241315@N00","secret":"a8dc6d7af8","server":"65535","farm":66,"title":"Kentucky Warbler_N9269","ispublic":1,"isfriend":0,"isfamily":0},{"id":"51781691974","owner":"8065544@N08","secret":"107e5dfd1c","server":"65535","farm":66,"title":"Kentucky Warbler (Geothlypis formosa)","ispublic":1,"isfriend":0,"isfamily":0},{"id":"51715839946","owner":"56686021@N04","secret":"6303044bf5","server":"65535","farm":66,"title":"Kentucky Warbler","ispublic":1,"isfriend":0,"isfamily":0},{"id":"51564431935","owner":"65632611@N00","secret":"99d3889619","server":"65535","farm":66,"title":"Central Park: Kentucky Warbler  (6000)","ispublic":1,"isfriend":0,"isfamily":0},{"id":"51562708112","owner":"65632611@N00","secret":"a4081fe1d3","server":"65535","farm":66,"title":"Central Park: Kentucky Warbler in your face (5996)","ispublic":1,"isfriend":0,"isfamily":0},{"id":"51490984061","owner":"35259356@N06","secret":"952b4bf78f","server":"65535","farm":66,"title":"Warbler: Kentucky Warbler","ispublic":1,"isfriend":0,"isfamily":0},{"id":"51277197086","owner":"61021753@N02","secret":"54ae777cd5","server":"65535","farm":66,"title":"n266_w1150","ispublic":1,"isfriend":0,"isfamily":0},{"id":"51258348873","owner":"135315828@N06","secret":"a5c9d32d5d","server":"65535","farm":66,"title":"IMG_1884","ispublic":1,"isfriend":0,"isfamily":0},{"id":"51238441473","owner":"32599741@N03","secret":"3f0d17317a","server":"65535","farm":66,"title":"2021 - Day 139:  out on a limb","ispublic":1,"isfriend":0,"isfamily":0},{"id":"51224724739","owner":"120449047@N06","secret":"2c4cb91fe6","server":"65535","farm":66,"title":"Kentucky Warbler","ispublic":1,"isfriend":0,"isfamily":0},{"id":"51218028393","owner":"61021753@N02","secret":"e6753b5485","server":"65535","farm":66,"title":"n296_w1150","ispublic":1,"isfriend":0,"isfamily":0},{"id":"51212976159","owner":"120449047@N06","secret":"e6297406b6","server":"65535","farm":66,"title":"Kentucky Warbler (lifer)","ispublic":1,"isfriend":0,"isfamily":0},{"id":"51204730957","owner":"36685968@N00","secret":"816fa902d7","server":"65535","farm":66,"title":"Kentucky Warbler (Geothlypis formosa)","ispublic":1,"isfriend":0,"isfamily":0},{"id":"51199000989","owner":"28499865@N07","secret":"7702d14ec8","server":"65535","farm":66,"title":"Kentucky Warbler - Geothlypis formosa","ispublic":1,"isfriend":0,"isfamily":0},{"id":"51198224336","owner":"28499865@N07","secret":"ca935c19cf","server":"65535","farm":66,"title":"Kentucky Warbler - Geothlypis formosa","ispublic":1,"isfriend":0,"isfamily":0},{"id":"51198432498","owner":"28499865@N07","secret":"eec59f8e8b","server":"65535","farm":66,"title":"Kentucky Warbler - Geothlypis formosa","ispublic":1,"isfriend":0,"isfamily":0},{"id":"51197407550","owner":"46367607@N06","secret":"e9271060b2","server":"65535","farm":66,"title":"Kentucky warbler--Geothlypis formosa _D6A3798","ispublic":1,"isfriend":0,"isfamily":0},{"id":"51183054902","owner":"41710899@N08","secret":"3898906f5b","server":"65535","farm":66,"title":"Kentucky Warbler","ispublic":1,"isfriend":0,"isfamily":0},{"id":"51182319404","owner":"132165466@N08","secret":"d2485fe2d5","server":"65535","farm":66,"title":"Kentucky Warbler","ispublic":1,"isfriend":0,"isfamily":0},{"id":"51180107608","owner":"73654511@N05","secret":"be84ab3cf2","server":"65535","farm":66,"title":"CA3I7486-Kentucky Warbler","ispublic":1,"isfriend":0,"isfamily":0},{"id":"51173446286","owner":"40003624@N06","secret":"4018642d33","server":"65535","farm":66,"title":"Kentucky Warbler","ispublic":1,"isfriend":0,"isfamily":0},{"id":"51165904351","owner":"96568982@N06","secret":"b5929ca6d1","server":"65535","farm":66,"title":"WARBLER, Kentucky","ispublic":1,"isfriend":0,"isfamily":0},{"id":"51165904311","owner":"96568982@N06","secret":"1294caaf0a","server":"65535","farm":66,"title":"WARBLER, Kentucky","ispublic":1,"isfriend":0,"isfamily":0},{"id":"51164405568","owner":"32599741@N03","secret":"8daff1805c","server":"65535","farm":66,"title":"out-of-stater","ispublic":1,"isfriend":0,"isfamily":0},{"id":"51140606252","owner":"190949917@N03","secret":"d4b5b36160","server":"65535","farm":66,"title":"Kentucky Warbler","ispublic":1,"isfriend":0,"isfamily":0},{"id":"51129671417","owner":"79383179@N03","secret":"86efdfdfe1","server":"65535","farm":66,"title":"Kentucky Warbler (Geothlypis formosa)","ispublic":1,"isfriend":0,"isfamily":0},{"id":"51126413478","owner":"183564486@N05","secret":"027bced548","server":"65535","farm":66,"title":"Kentucky Warbler","ispublic":1,"isfriend":0,"isfamily":0},{"id":"51023216126","owner":"61021753@N02","secret":"b61250b938","server":"65535","farm":66,"title":"n557_w1150","ispublic":1,"isfriend":0,"isfamily":0},{"id":"50826680081","owner":"61021753@N02","secret":"f559b6ce0e","server":"65535","farm":66,"title":"n284_w1150","ispublic":1,"isfriend":0,"isfamily":0},{"id":"50594667647","owner":"190773540@N03","secret":"a3de7255d2","server":"65535","farm":66,"title":"Kentucky Warbler","ispublic":1,"isfriend":0,"isfamily":0},{"id":"50570358992","owner":"8086030@N03","secret":"cc898144b5","server":"65535","farm":66,"title":"Kentucky Warbler, Geothlypis formosa","ispublic":1,"isfriend":0,"isfamily":0},{"id":"50530816327","owner":"71649471@N02","secret":"868ee60275","server":"65535","farm":66,"title":"Kentucky Warbler","ispublic":1,"isfriend":0,"isfamily":0},{"id":"50190370696","owner":"71649471@N02","secret":"7d515c2f18","server":"65535","farm":66,"title":"Phantom of the Understory","ispublic":1,"isfriend":0,"isfamily":0},{"id":"52495256811","owner":"64557331@N04","secret":"c425394fa7","server":"65535","farm":66,"title":"Kentucky Warbler - (Geothlypis formosa)_05042021_Framed","ispublic":1,"isfriend":0,"isfamily":0},{"id":"52183794615","owner":"65632611@N00","secret":"2c11829bc7","server":"65535","farm":66,"title":"Boy Scout Woods, TX: Kentucky Warbler (2816)","ispublic":1,"isfriend":0,"isfamily":0},{"id":"52101126993","owner":"194670451@N06","secret":"f1785fb3f0","server":"65535","farm":66,"title":"20220513_Bernskoetter__21A6253-Edit.jpg","ispublic":1,"isfriend":0,"isfamily":0},{"id":"52085245750","owner":"61241315@N00","secret":"06a1dd1b8e","server":"0","farm":0,"title":"Kentucky Warbler_9278.MP4","ispublic":1,"isfriend":0,"isfamily":0},{"id":"52083716192","owner":"61241315@N00","secret":"98f441d70d","server":"65535","farm":66,"title":"Kentucky Warbler_N9052","ispublic":1,"isfriend":0,"isfamily":0},{"id":"52084772718","owner":"61241315@N00","secret":"24223eb48e","server":"65535","farm":66,"title":"Kentucky Warbler_N9077","ispublic":1,"isfriend":0,"isfamily":0},{"id":"52084772748","owner":"61241315@N00","secret":"027400990b","server":"65535","farm":66,"title":"Kentucky Warbler_N9073","ispublic":1,"isfriend":0,"isfamily":0},{"id":"52085245840","owner":"61241315@N00","secret":"cbd0dbf48d","server":"65535","farm":66,"title":"Kentucky Warbler_N9085","ispublic":1,"isfriend":0,"isfamily":0},{"id":"52085245745","owner":"61241315@N00","secret":"fbd27cab4e","server":"65535","farm":66,"title":"Kentucky Warbler_N9272","ispublic":1,"isfriend":0,"isfamily":0},{"id":"51716103283","owner":"56686021@N04","secret":"53db2dc2a8","server":"65535","farm":66,"title":"Kentucky Warbler","ispublic":1,"isfriend":0,"isfamily":0},{"id":"51258146551","owner":"135315828@N06","secret":"bedd40204c","server":"65535","farm":66,"title":"IMG_1830","ispublic":1,"isfriend":0,"isfamily":0},{"id":"51258146396","owner":"135315828@N06","secret":"318a66e0de","server":"65535","farm":66,"title":"IMG_1861","ispublic":1,"isfriend":0,"isfamily":0},{"id":"51259188360","owner":"135315828@N06","secret":"3a586b1627","server":"65535","farm":66,"title":"IMG_1897","ispublic":1,"isfriend":0,"isfamily":0},{"id":"51258145936","owner":"135315828@N06","secret":"41df29958b","server":"65535","farm":66,"title":"IMG_1912","ispublic":1,"isfriend":0,"isfamily":0},{"id":"51212636928","owner":"64557331@N04","secret":"1059343096","server":"65535","farm":66,"title":"Kentucky Warbler - (Geothlypis formosa)_05102021","ispublic":1,"isfriend":0,"isfamily":0},{"id":"51212635293","owner":"64557331@N04","secret":"2a8401590c","server":"65535","farm":66,"title":"Kentucky Warbler - (Geothlypis formosa)_05042021_2","ispublic":1,"isfriend":0,"isfamily":0},{"id":"51213182269","owner":"64557331@N04","secret":"47c0e83422","server":"65535","farm":66,"title":"Kentucky Warbler - (Geothlypis formosa)_05042021","ispublic":1,"isfriend":0,"isfamily":0},{"id":"51204537227","owner":"36685968@N00","secret":"91476f6e1f","server":"65535","farm":66,"title":"Kentucky Warbler (Geothlypis formosa)","ispublic":1,"isfriend":0,"isfamily":0},{"id":"51198930494","owner":"50264295@N06","secret":"95dfa3eef2","server":"65535","farm":66,"title":"Kentucky Warbler (Geothlypis formosa)- male","ispublic":1,"isfriend":0,"isfamily":0},{"id":"51197405615","owner":"46367607@N06","secret":"985c721b02","server":"65535","farm":66,"title":"Kentucky warbler--Geothlypis formosa _D6A3803","ispublic":1,"isfriend":0,"isfamily":0},{"id":"51196339511","owner":"46367607@N06","secret":"ed3c5565b3","server":"65535","farm":66,"title":"Kentucky warbler--Geothlypis formosa _D6A3793","ispublic":1,"isfriend":0,"isfamily":0},{"id":"51182647645","owner":"132165466@N08","secret":"ddf696ddd2","server":"65535","farm":66,"title":"Kentucky Warbler","ispublic":1,"isfriend":0,"isfamily":0},{"id":"51182349024","owner":"132165466@N08","secret":"ccd86ca3a6","server":"65535","farm":66,"title":"Kentucky Warbler","ispublic":1,"isfriend":0,"isfamily":0},{"id":"51182639820","owner":"132165466@N08","secret":"523370af76","server":"65535","farm":66,"title":"Kentucky Warbler","ispublic":1,"isfriend":0,"isfamily":0},{"id":"51181769653","owner":"132165466@N08","secret":"4b1497fa84","server":"65535","farm":66,"title":"Kentucky Warbler","ispublic":1,"isfriend":0,"isfamily":0},{"id":"51182333959","owner":"132165466@N08","secret":"d72e0ef643","server":"65535","farm":66,"title":"Kentucky Warbler","ispublic":1,"isfriend":0,"isfamily":0},{"id":"51181542906","owner":"132165466@N08","secret":"110e325f3c","server":"65535","farm":66,"title":"Kentucky Warbler","ispublic":1,"isfriend":0,"isfamily":0},{"id":"51182617040","owner":"132165466@N08","secret":"0dd18f2ea2","server":"65535","farm":66,"title":"Kentucky Warbler","ispublic":1,"isfriend":0,"isfamily":0},{"id":"51180689091","owner":"132165466@N08","secret":"961d7e9657","server":"65535","farm":66,"title":"Kentucky Warbler","ispublic":1,"isfriend":0,"isfamily":0},{"id":"51181779710","owner":"132165466@N08","secret":"3bbe664baf","server":"65535","farm":66,"title":"Kentucky Warbler","ispublic":1,"isfriend":0,"isfamily":0},{"id":"51180907853","owner":"132165466@N08","secret":"795b8b7528","server":"65535","farm":66,"title":"Kentucky Warbler","ispublic":1,"isfriend":0,"isfamily":0},{"id":"51181457849","owner":"132165466@N08","secret":"7db9d67fd9","server":"65535","farm":66,"title":"Kentucky Warbler","ispublic":1,"isfriend":0,"isfamily":0},{"id":"51181457839","owner":"132165466@N08","secret":"f5f369b056","server":"65535","farm":66,"title":"Kentucky Warbler","ispublic":1,"isfriend":0,"isfamily":0},{"id":"51140539646","owner":"61241315@N00","secret":"fa99325efb","server":"65535","farm":66,"title":"Kentucky Warbler_N8928","ispublic":1,"isfriend":0,"isfamily":0},{"id":"51141640800","owner":"61241315@N00","secret":"921e56d306","server":"65535","farm":66,"title":"Kentucky Warbler_N8930","ispublic":1,"isfriend":0,"isfamily":0},{"id":"51141640980","owner":"61241315@N00","secret":"7db005abbd","server":"65535","farm":66,"title":"Kentucky Warbler_5642_00001-001","ispublic":1,"isfriend":0,"isfamily":0},{"id":"51141311034","owner":"61241315@N00","secret":"16251be1f5","server":"65535","farm":66,"title":"Kentucky Warbler_N8923","ispublic":1,"isfriend":0,"isfamily":0},{"id":"51135385703","owner":"69947563@N07","secret":"ff0aa17cf8","server":"65535","farm":66,"title":"Kentucky Warbler - Chatham-Kent, Ontario, Canada","ispublic":1,"isfriend":0,"isfamily":0},{"id":"51133324755","owner":"190949917@N03","secret":"d4191c0f5c","server":"65535","farm":66,"title":"Kentucky Warbler","ispublic":1,"isfriend":0,"isfamily":0},{"id":"50867920706","owner":"21702714@N06","secret":"41aa48bc6e","server":"65535","farm":66,"title":"Kentucky Warbler","ispublic":1,"isfriend":0,"isfamily":0},{"id":"50724843211","owner":"191410957@N03","secret":"ed08dc0107","server":"65535","farm":66,"title":"'Elvis' sideburns = Kentucky Warbler (Geothlypis formosa) at Point Pelee.","ispublic":1,"isfriend":0,"isfamily":0},{"id":"50517337113","owner":"130406067@N03","secret":"450629144c","server":"65535","farm":66,"title":"KEWA_MG_5125","ispublic":1,"isfriend":0,"isfamily":0},{"id":"50279918803","owner":"146080804@N02","secret":"2171ff41a6","server":"65535","farm":66,"title":"Kentucky Warbler (Geothlypis formosa)","ispublic":1,"isfriend":0,"isfamily":0},{"id":"50178073396","owner":"22420387@N07","secret":"a8111bb4a8","server":"65535","farm":66,"title":"Kentucky Warbler - DSC_2046-LRwm","ispublic":1,"isfriend":0,"isfamily":0},{"id":"50178327607","owner":"22420387@N07","secret":"0fce5dcee7","server":"65535","farm":66,"title":"Kentucky Warbler - DSC_2021-LRwm","ispublic":1,"isfriend":0,"isfamily":0},{"id":"50178327602","owner":"22420387@N07","secret":"5fb1ffaa5a","server":"65535","farm":66,"title":"Kentucky Warbler - DSC_2040-LRwm","ispublic":1,"isfriend":0,"isfamily":0},{"id":"50177538908","owner":"22420387@N07","secret":"68ce0459d5","server":"65535","farm":66,"title":"Kentucky Warbler - DSC_2080-LRwm","ispublic":1,"isfriend":0,"isfamily":0},{"id":"50178073221","owner":"22420387@N07","secret":"060fc89939","server":"65535","farm":66,"title":"Kentucky Warbler - DSC_2104-LRwm","ispublic":1,"isfriend":0,"isfamily":0},{"id":"50178092402","owner":"22420387@N07","secret":"e4427b83df","server":"65535","farm":66,"title":"Kentucky Warbler - DEL_5083-LR-1wm","ispublic":1,"isfriend":0,"isfamily":0}]},"stat":"ok"}