{"photos":{"page":1,"pages":23,"perpage":100,"total":2273,"photo":[{"id":"52717227551","owner":"163667952@N05","secret":"29606a541d","server":"65535","farm":66,"title":"Lark Sparrow","ispublic":1,"isfriend":0,"isfamily":0},{"id":"52690203549","owner":"33610210@N05","secret":"4538132ec4","server":"65535","farm":66,"title":"Lark Sparrow, Chondestes grammacus","ispublic":1,"isfriend":0,"isfamily":0},{"id":"52675810761","owner":"24608578@N00","secret":"8c7964378a","server":"65535","farm":66,"title":"Lark sparrow (Chondestes grammacus)","ispublic":1,"isfriend":0,"isfamily":0},{"id":"52674537033","owner":"123979267@N05","secret":"a0ff9e4f2c","server":"65535","farm":66,"title":"Lark Sparrow","ispublic":1,"isfriend":0,"isfamily":0},{"id":"52672521386","owner":"24608578@N00","secret":"a4ce253a45","server":"65535","farm":66,"title":"Lark sparrow (Chondestes grammacus)","ispublic":1,"isfriend":0,"isfamily":0},{"id":"52667905884","owner":"33610210@N05","secret":"8de75e8b16","server":"65535","farm":66,"title":"Lark Sparrow, Chondestes grammacus","ispublic":1,"isfriend":0,"isfamily":0},{"id":"52667614061","owner":"33610210@N05","secret":"a18be00c54","server":"65535","farm":66,"title":"Lark Sparrow, Chondestes grammacus","ispublic":1,"isfriend":0,"isfamily":0},{"id":"52665604891","owner":"39177293@N03","secret":"7effa180d6","server":"65535","farm":66,"title":"Lark Sparrow","ispublic":1,"isfriend":0,"isfamily":0},{"id":"52641111114","owner":"61606943@N05","secret":"aa51d2e97c","server":"65535","farm":66,"title":"Lark Sparrow (Chondestes Grammacus)","ispublic":1,"isfriend":0,"isfamily":0},{"id":"52626665901","owner":"67277069@N06","secret":"bfe169e159","server":"65535","farm":66,"title":"Lark Sparrow---Chondestes grammacus","ispublic":1,"isfriend":0,"isfamily":0},{"id":"52561994632","owner":"103722035@N06","secret":"d6c19f1d42","server":"0","farm":0,"title":"Lark Sparrow (Chondestes grammacus), San Luis Obispo, CA","ispublic":1,"isfriend":0,"isfamily":0},{"id":"52532640860","owner":"40723658@N05","secret":"6a59298d7c","server":"65535","farm":66,"title":"Lark Sparrow","ispublic":1,"isfriend":0,"isfamily":0},{"id":"52530723844","owner":"33610210@N05","secret":"841afdf7c9","server":"65535","farm":66,"title":"Lark Sparrow, Chondestes grammacus","ispublic":1,"isfriend":0,"isfamily":0},{"id":"52507767366","owner":"30979614@N07","secret":"298db7a495","server":"65535","farm":66,"title":"2022-10-23 Green Valley AZ 5","ispublic":1,"isfriend":0,"isfamily":0},{"id":"52507283832","owner":"30979614@N07","secret":"c893c8a339","server":"65535","farm":66,"title":"2022-10-23 Green Valley AZ 3","ispublic":1,"isfriend":0,"isfamily":0},{"id":"52467676475","owner":"24608578@N00","secret":"29e7d82074","server":"65535","farm":66,"title":"Lark sparrow (Chondestes grammacus)","ispublic":1,"isfriend":0,"isfamily":0},{"id":"52467676430","owner":"24608578@N00","secret":"f3eeedeea8","server":"65535","farm":66,"title":"Lark sparrow (Chondestes grammacus)","ispublic":1,"isfriend":0,"isfamily":0},{"id":"52456550791","owner":"34368269@N04","secret":"4594e5bd8d","server":"65535","farm":66,"title":"Lark Sparrow","ispublic":1,"isfriend":0,"isfamily":0},{"id":"52427466299","owner":"39177293@N03","secret":"7c57c20407","server":"65535","farm":66,"title":"Lark Sparrow","ispublic":1,"isfriend":0,"isfamily":0},{"id":"52399917080","owner":"67277069@N06","secret":"92ed8631d9","server":"65535","farm":66,"title":"Lark Sparrow---Chondestes grammacus","ispublic":1,"isfriend":0,"isfamily":0},{"id":"52389001673","owner":"69387367@N05","secret":"8702a00e7a","server":"65535","farm":66,"title":"Lark_Sparrow_4123oe","ispublic":1,"isfriend":0,"isfamily":0},{"id":"52362715346","owner":"196264892@N08","secret":"9b46b8499c","server":"65535","farm":66,"title":"Lark Sparrow","ispublic":1,"isfriend":0,"isfamily":0},{"id":"52363139525","owner":"196264892@N08","secret":"f36c7b6f71","server":"65535","farm":66,"title":"Lark Sparrows","ispublic":1,"isfriend":0,"isfamily":0},{"id":"52339853769","owner":"8378957@N02","secret":"b813d28326","server":"65535","farm":66,"title":"Lark Sparrow","ispublic":1,"isfriend":0,"isfamily":0},{"id":"52339549806","owner":"8378957@N02","secret":"094383dba9","server":"65535","farm":66,"title":"Lark Sparrow","ispublic":1,"isfriend":0,"isfamily":0},{"id":"52336959475","owner":"190923251@N05","secret":"a5168feaaa","server":"65535","farm":66,"title":"Lark Sparrow on Sagebrush","ispublic":1,"isfriend":0,"isfamily":0},{"id":"52306999478","owner":"196264892@N08","secret":"e3e4fb1719","server":"65535","farm":66,"title":"Lark Sparrow","ispublic":1,"isfriend":0,"isfamily":0},{"id":"52275458848","owner":"196264892@N08","secret":"bf7f6ab924","server":"65535","farm":66,"title":"Lark Sparrow 1","ispublic":1,"isfriend":0,"isfamily":0},{"id":"52240526990","owner":"34238008@N02","secret":"3e240fe45b","server":"65535","farm":66,"title":"Lark Sparrow (Chondestes grammacus)","ispublic":1,"isfriend":0,"isfamily":0},{"id":"52239059297","owner":"34238008@N02","secret":"237e7d2683","server":"65535","farm":66,"title":"Lark Sparrow (Chondestes grammacus)","ispublic":1,"isfriend":0,"isfamily":0},{"id":"52240039021","owner":"34238008@N02","secret":"f738775efd","server":"65535","farm":66,"title":"Lark Sparrow (Chondestes grammacus)","ispublic":1,"isfriend":0,"isfamily":0},{"id":"52220089055","owner":"187245476@N05","secret":"a290648a10","server":"65535","farm":66,"title":"LARK SPARROW (Chondestes grammacus)","ispublic":1,"isfriend":0,"isfamily":0},{"id":"52219603471","owner":"187245476@N05","secret":"310fb2f8cb","server":"65535","farm":66,"title":"LARK SPARROW (Chondestes grammacus)","ispublic":1,"isfriend":0,"isfamily":0},{"id":"52208173096","owner":"65148649@N04","secret":"596c8c3d2c","server":"65535","farm":66,"title":"Lark Sparrow","ispublic":1,"isfriend":0,"isfamily":0},{"id":"52208193563","owner":"65148649@N04","secret":"1c92be1cf7","server":"65535","farm":66,"title":"Lark Sparrow","ispublic":1,"isfriend":0,"isfamily":0},{"id":"52192419531","owner":"49246330@N00","secret":"ec1100f441","server":"65535","farm":66,"title":"Lark Sparrow (Chondestes grammacus)","ispublic":1,"isfriend":0,"isfamily":0},{"id":"52186056520","owner":"65148649@N04","secret":"9688944921","server":"65535","farm":66,"title":"Lark Sparrow","ispublic":1,"isfriend":0,"isfamily":0},{"id":"52181198174","owner":"51928691@N04","secret":"8d6e9bf2e5","server":"65535","farm":66,"title":"Lark Sparrow (Chondestes grammacus) 3 062122","ispublic":1,"isfriend":0,"isfamily":0},{"id":"52176048970","owner":"8378957@N02","secret":"41e20ca3be","server":"65535","farm":66,"title":"Lark Sparrow","ispublic":1,"isfriend":0,"isfamily":0},{"id":"52173065441","owner":"85277889@N08","secret":"59720a33b1","server":"65535","farm":66,"title":"Lark Sparrow (Chondestes grammacus) 2022-06-25 (7a)","ispublic":1,"isfriend":0,"isfamily":0},{"id":"52173065396","owner":"85277889@N08","secret":"ae9099f0ce","server":"65535","farm":66,"title":"Lark Sparrow (Chondestes grammacus) 2022-06-25 (9a)","ispublic":1,"isfriend":0,"isfamily":0},{"id":"52152397831","owner":"190923251@N05","secret":"8ae101935f","server":"65535","farm":66,"title":"Lark Sparrow and Prickly Pear cactus","ispublic":1,"isfriend":0,"isfamily":0},{"id":"52123233920","owner":"183736567@N07","secret":"3af678dbc7","server":"65535","farm":66,"title":"Lark Sparrow (Chondestes grammacus) foraging in the rain","ispublic":1,"isfriend":0,"isfamily":0},{"id":"52120913127","owner":"64606186@N00","secret":"53f2f2f263","server":"65535","farm":66,"title":"Lark sparrow","ispublic":1,"isfriend":0,"isfamily":0},{"id":"52121765836","owner":"54683012@N04","secret":"e46906917a","server":"65535","farm":66,"title":"Lark Sparrow","ispublic":1,"isfriend":0,"isfamily":0},{"id":"52116283502","owner":"32541690@N02","secret":"aace54d544","server":"65535","farm":66,"title":"Lark Sparrow (Chondestes grammacus)","ispublic":1,"isfriend":0,"isfamily":0},{"id":"52091012730","owner":"126805965@N03","secret":"4b4fa99810","server":"65535","farm":66,"title":"Lark Sparrow (Chondestes grammacus) - Coquitlam, BC","ispublic":1,"isfriend":0,"isfamily":0},{"id":"52083783390","owner":"34368269@N04","secret":"38dc3b41b8","server":"65535","farm":66,"title":"Lark Sparrow","ispublic":1,"isfriend":0,"isfamily":0},{"id":"52067370199","owner":"32541690@N02","secret":"9330462b4f","server":"65535","farm":66,"title":"Lark Sparrow (Chondestes grammacus)","ispublic":1,"isfriend":0,"isfamily":0},{"id":"52060356888","owner":"8378957@N02","secret":"18edcc0e23","server":"65535","farm":66,"title":"Lark Sparrow","ispublic":1,"isfriend":0,"isfamily":0},{"id":"52060353838","owner":"8378957@N02","secret":"11679d14ea","server":"65535","farm":66,"title":"Lark Sparrow","ispublic":1,"isfriend":0,"isfamily":0},{"id":"52060541804","owner":"8378957@N02","secret":"10475bddf8","server":"65535","farm":66,"title":"Lark Sparrow","ispublic":1,"isfriend":0,"isfamily":0},{"id":"52060336373","owner":"8378957@N02","secret":"278fdc2e6e","server":"65535","farm":66,"title":"Lark Sparrow","ispublic":1,"isfriend":0,"isfamily":0},{"id":"52060332038","owner":"8378957@N02","secret":"72b97e7560","server":"65535","farm":66,"title":"Lark Sparrow","ispublic":1,"isfriend":0,"isfamily":0},{"id":"52057943879","owner":"61241315@N00","secret":"79d3bfa63c","server":"65535","farm":66,"title":"Lark Sparrow_N6922","ispublic":1,"isfriend":0,"isfamily":0},{"id":"52055924057","owner":"61241315@N00","secret":"4eb95afaf0","server":"65535","farm":66,"title":"Lark Sparrow_N6914","ispublic":1,"isfriend":0,"isfamily":0},{"id":"52056968841","owner":"61241315@N00","secret":"ea1a7272af","server":"65535","farm":66,"title":"Lark Sparrow_N6915","ispublic":1,"isfriend":0,"isfamily":0},{"id":"52055924007","owner":"61241315@N00","secret":"d3c9e6dcda","server":"65535","farm":66,"title":"Lark Sparrow_N6940","ispublic":1,"isfriend":0,"isfamily":0},{"id":"52057456770","owner":"61241315@N00","secret":"9f486943ef","server":"65535","farm":66,"title":"Lark Sparrow_N6904","ispublic":1,"isfriend":0,"isfamily":0},{"id":"52057456710","owner":"61241315@N00","secret":"65aef47637","server":"65535","farm":66,"title":"Lark Sparrow_N6907","ispublic":1,"isfriend":0,"isfamily":0},{"id":"52057001878","owner":"61241315@N00","secret":"6bb0300f1a","server":"65535","farm":66,"title":"Lark Sparrow_N6903","ispublic":1,"isfriend":0,"isfamily":0},{"id":"52057392940","owner":"61241315@N00","secret":"70055a9473","server":"0","farm":0,"title":"Lark Sparrow_6923,34,25.MP4","ispublic":1,"isfriend":0,"isfamily":0},{"id":"52055860662","owner":"61241315@N00","secret":"c1e46036c3","server":"0","farm":0,"title":"Lark Sparrow_6895.MP4","ispublic":1,"isfriend":0,"isfamily":0},{"id":"52056940868","owner":"61241315@N00","secret":"2dfafd8d8e","server":"0","farm":0,"title":"Lark Sparrow_6894.MP4","ispublic":1,"isfriend":0,"isfamily":0},{"id":"52052331421","owner":"119787485@N07","secret":"f53fdc2437","server":"65535","farm":66,"title":"Lark Sparrow (Chondestes grammacus grammacus) - 20220502-06","ispublic":1,"isfriend":0,"isfamily":0},{"id":"52047549286","owner":"119787485@N07","secret":"004b9486b7","server":"65535","farm":66,"title":"Lark Sparrow (Chondestes grammacus grammacus) - 20220502-10","ispublic":1,"isfriend":0,"isfamily":0},{"id":"52016955779","owner":"33610210@N05","secret":"9e9b16f74a","server":"65535","farm":66,"title":"Lark Sparrow, Chondestes grammacus","ispublic":1,"isfriend":0,"isfamily":0},{"id":"51993839718","owner":"91110467@N04","secret":"3e4174b851","server":"65535","farm":66,"title":"Lark Sparrow","ispublic":1,"isfriend":0,"isfamily":0},{"id":"51952635977","owner":"62043870@N05","secret":"a0ca892dda","server":"65535","farm":66,"title":"Lark Sparrows, Chondestes grammacus","ispublic":1,"isfriend":0,"isfamily":0},{"id":"51952634122","owner":"62043870@N05","secret":"9263a1807f","server":"65535","farm":66,"title":"Lark Sparrow, Chondestes grammacus","ispublic":1,"isfriend":0,"isfamily":0},{"id":"51953921809","owner":"62043870@N05","secret":"e41e753622","server":"65535","farm":66,"title":"Lark Sparrow, Chondestes grammacus","ispublic":1,"isfriend":0,"isfamily":0},{"id":"51953756075","owner":"48014585@N00","secret":"bb517ec7d9","server":"65535","farm":66,"title":"Lark Sparrow","ispublic":1,"isfriend":0,"isfamily":0},{"id":"52661318267","owner":"33610210@N05","secret":"0834585bd3","server":"65535","farm":66,"title":"Lark Sparrow, Chondestes grammacus","ispublic":1,"isfriend":0,"isfamily":0},{"id":"52580859820","owner":"153973412@N04","secret":"428b7c71d8","server":"65535","farm":66,"title":"Lark Sparrow-Chondestes grammacus, Eddyville, IA","ispublic":1,"isfriend":0,"isfamily":0},{"id":"52553684534","owner":"62759448@N05","secret":"cd63eb7260","server":"65535","farm":66,"title":"Lark Sparrow Chondestes grammacus","ispublic":1,"isfriend":0,"isfamily":0},{"id":"52495714620","owner":"64557331@N04","secret":"3439cd07d5","server":"65535","farm":66,"title":"Lark Sparrow - (Chondestes grammacus)_06112021","ispublic":1,"isfriend":0,"isfamily":0},{"id":"52398304928","owner":"156457454@N02","secret":"d60920e034","server":"65535","farm":66,"title":"Chondestes grammacus 2 (Lark Sparrow)","ispublic":1,"isfriend":0,"isfamily":0},{"id":"52390163865","owner":"123979267@N05","secret":"01ab40dfc2","server":"65535","farm":66,"title":"Lark Sparrow","ispublic":1,"isfriend":0,"isfamily":0},{"id":"52388754372","owner":"123979267@N05","secret":"93511167a9","server":"65535","farm":66,"title":"Lark Sparrow","ispublic":1,"isfriend":0,"isfamily":0},{"id":"52335060964","owner":"190122705@N03","secret":"4b2233cc70","server":"65535","farm":66,"title":"Lark Sparrow","ispublic":1,"isfriend":0,"isfamily":0},{"id":"52200793805","owner":"54355388@N02","secret":"7f47e62974","server":"65535","farm":66,"title":"Lark Sparrow (Chondestes grammacus)","ispublic":1,"isfriend":0,"isfamily":0},{"id":"52189272826","owner":"140318147@N08","secret":"88d0799b1a","server":"65535","farm":66,"title":"lark sparrow (Chondestes grammacus) L4A3318","ispublic":1,"isfriend":0,"isfamily":0},{"id":"52188255252","owner":"140318147@N08","secret":"a5624100a4","server":"65535","farm":66,"title":"lark sparrow (Chondestes grammacus) L4A3320","ispublic":1,"isfriend":0,"isfamily":0},{"id":"52172137497","owner":"85277889@N08","secret":"5677b93673","server":"0","farm":0,"title":"Lark Sparrow (Chondestes grammacus) Video 2022-06-25 (1)","ispublic":1,"isfriend":0,"isfamily":0},{"id":"52149108175","owner":"195673342@N07","secret":"ce99f8e3f4","server":"65535","farm":66,"title":"Chondestes-grammacus (2)","ispublic":1,"isfriend":0,"isfamily":0},{"id":"52134539694","owner":"193250255@N08","secret":"a3c35394fe","server":"65535","farm":66,"title":"71 Lark Sparrow","ispublic":1,"isfriend":0,"isfamily":0},{"id":"52125378289","owner":"156457454@N02","secret":"cc565a1f98","server":"65535","farm":66,"title":"Chondestes grammacus 1 (Lark Sparrow)","ispublic":1,"isfriend":0,"isfamily":0},{"id":"52123197395","owner":"57465751@N05","secret":"03b92129d8","server":"65535","farm":66,"title":"Lark Sparrow (Chondestes grammacus), American R. Pkwy., Sacramento Co., CA","ispublic":1,"isfriend":0,"isfamily":0},{"id":"52089166333","owner":"59770980@N02","secret":"235a94799b","server":"65535","farm":66,"title":"N\u00f3ntitlingur-Lark Sparrow-Chondestes grammacus","ispublic":1,"isfriend":0,"isfamily":0},{"id":"52080564002","owner":"62043870@N05","secret":"508e37d162","server":"65535","farm":66,"title":"Lark Sparrow, Chondestes grammacus","ispublic":1,"isfriend":0,"isfamily":0},{"id":"52057181939","owner":"61241315@N00","secret":"cc56d689c5","server":"0","farm":0,"title":"LASP_6923,34,25","ispublic":1,"isfriend":0,"isfamily":0},{"id":"52055902007","owner":"61241315@N00","secret":"461c278241","server":"0","farm":0,"title":"LASP_6894","ispublic":1,"isfriend":0,"isfamily":0},{"id":"52057179494","owner":"61241315@N00","secret":"7d59f5e7c0","server":"0","farm":0,"title":"LASP_6942,43","ispublic":1,"isfriend":0,"isfamily":0},{"id":"52057432815","owner":"61241315@N00","secret":"ecf5423d09","server":"0","farm":0,"title":"LASP_6895","ispublic":1,"isfriend":0,"isfamily":0},{"id":"52056953666","owner":"61241315@N00","secret":"6e918f3bee","server":"65535","farm":66,"title":"Lark Sparrow_N6896","ispublic":1,"isfriend":0,"isfamily":0},{"id":"52039123340","owner":"32541690@N02","secret":"30c4775816","server":"65535","farm":66,"title":"Lark Sparrow pair","ispublic":1,"isfriend":0,"isfamily":0},{"id":"52021884312","owner":"62043870@N05","secret":"70e0ca4792","server":"65535","farm":66,"title":"Lark Sparrow, Chondestes grammacus","ispublic":1,"isfriend":0,"isfamily":0},{"id":"52007703059","owner":"62043870@N05","secret":"eb01b03276","server":"65535","farm":66,"title":"Lark Sparrows, Chondestes grammacus, Engaged in Mating Activity","ispublic":1,"isfriend":0,"isfamily":0},{"id":"51967013837","owner":"33610210@N05","secret":"3917bdfab9","server":"65535","farm":66,"title":"Lark Sparrow, Chondestes grammacus","ispublic":1,"isfriend":0,"isfamily":0},{"id":"51961186013","owner":"61135968@N00","secret":"58541b7dfe","server":"65535","farm":66,"title":"Sparrow","ispublic":1,"isfriend":0,"isfamily":0}]},"stat":"ok"}