{"photos":{"page":1,"pages":13,"perpage":100,"total":1212,"photo":[{"id":"52665559679","owner":"136180232@N08","secret":"74fab35e03","server":"65535","farm":66,"title":"Least Flycatcher (Empidonax minimus) JTE_1736","ispublic":1,"isfriend":0,"isfamily":0},{"id":"52582483678","owner":"33573751@N04","secret":"252851e64b","server":"65535","farm":66,"title":"Least Flycatcher (Empidonax minimus) - Vero Beach, Florida","ispublic":1,"isfriend":0,"isfamily":0},{"id":"52580737555","owner":"153973412@N04","secret":"e815c62f42","server":"65535","farm":66,"title":"Least Flycatcher-Empidonax minimus, Iowa City, IA","ispublic":1,"isfriend":0,"isfamily":0},{"id":"52553949879","owner":"182225716@N07","secret":"233c17a5e8","server":"65535","farm":66,"title":"DSC_9040_00001 Least Flycatcher - Moucherolle tch\u00e9bec (Empidonax minimus)","ispublic":1,"isfriend":0,"isfamily":0},{"id":"52540870721","owner":"33610210@N05","secret":"e04c7e5b9e","server":"65535","farm":66,"title":"Least Flycatcher, Empidonax minimus","ispublic":1,"isfriend":0,"isfamily":0},{"id":"52541168724","owner":"33610210@N05","secret":"77dbe824f1","server":"65535","farm":66,"title":"Least Flycatcher, Empidonax minimus","ispublic":1,"isfriend":0,"isfamily":0},{"id":"52471518600","owner":"86191812@N07","secret":"a12fb12489","server":"65535","farm":66,"title":"Least Flycatcher (Empidonax minimus)","ispublic":1,"isfriend":0,"isfamily":0},{"id":"52446023272","owner":"67306066@N03","secret":"3ca834dac4","server":"65535","farm":66,"title":"Least Flycatcher (Empidonax minimus)","ispublic":1,"isfriend":0,"isfamily":0},{"id":"52428204715","owner":"196264892@N08","secret":"aabeeb4d3f","server":"65535","farm":66,"title":"Least Flycatcher","ispublic":1,"isfriend":0,"isfamily":0},{"id":"52427750116","owner":"196264892@N08","secret":"b93525e54d","server":"65535","farm":66,"title":"Least Flycatcher","ispublic":1,"isfriend":0,"isfamily":0},{"id":"52427749971","owner":"196264892@N08","secret":"8a13af4c27","server":"65535","farm":66,"title":"Least Flycatcher","ispublic":1,"isfriend":0,"isfamily":0},{"id":"52427245552","owner":"196264892@N08","secret":"a5766c30d1","server":"65535","farm":66,"title":"Least Flycatcher","ispublic":1,"isfriend":0,"isfamily":0},{"id":"52427466164","owner":"39177293@N03","secret":"5642d8a903","server":"65535","farm":66,"title":"Least Flycatcher","ispublic":1,"isfriend":0,"isfamily":0},{"id":"52391841234","owner":"196264892@N08","secret":"a9c96754c1","server":"65535","farm":66,"title":"Least Flycatcher","ispublic":1,"isfriend":0,"isfamily":0},{"id":"52391774528","owner":"196264892@N08","secret":"9edbec2a20","server":"65535","farm":66,"title":"Least Flycatcher","ispublic":1,"isfriend":0,"isfamily":0},{"id":"52390607642","owner":"196264892@N08","secret":"b9f7b381a7","server":"65535","farm":66,"title":"Least Flycatcher","ispublic":1,"isfriend":0,"isfamily":0},{"id":"52390607547","owner":"196264892@N08","secret":"87c8560c3c","server":"65535","farm":66,"title":"Least Flycatcher","ispublic":1,"isfriend":0,"isfamily":0},{"id":"52391956425","owner":"196264892@N08","secret":"68e1f093a9","server":"65535","farm":66,"title":"Least Flycatcher","ispublic":1,"isfriend":0,"isfamily":0},{"id":"52391840629","owner":"196264892@N08","secret":"ccd5ffc2c1","server":"65535","farm":66,"title":"Least Flycatcher","ispublic":1,"isfriend":0,"isfamily":0},{"id":"52390607177","owner":"196264892@N08","secret":"eb42c9b444","server":"65535","farm":66,"title":"Least Flycatcher","ispublic":1,"isfriend":0,"isfamily":0},{"id":"52390607087","owner":"196264892@N08","secret":"1201675eaf","server":"65535","farm":66,"title":"Least Flycatcher","ispublic":1,"isfriend":0,"isfamily":0},{"id":"52391956005","owner":"196264892@N08","secret":"c38ae5c81e","server":"65535","farm":66,"title":"Least Flycatcher","ispublic":1,"isfriend":0,"isfamily":0},{"id":"52391528061","owner":"196264892@N08","secret":"99afb7a503","server":"65535","farm":66,"title":"Least Flycatcher","ispublic":1,"isfriend":0,"isfamily":0},{"id":"52384972651","owner":"55216637@N04","secret":"482affb701","server":"65535","farm":66,"title":"Least Flycatcher-22-001","ispublic":1,"isfriend":0,"isfamily":0},{"id":"52362945858","owner":"196264892@N08","secret":"2d30b97e17","server":"65535","farm":66,"title":"Least Flycatcher","ispublic":1,"isfriend":0,"isfamily":0},{"id":"52363138640","owner":"196264892@N08","secret":"3b83c1fbed","server":"65535","farm":66,"title":"Least Flycatcher","ispublic":1,"isfriend":0,"isfamily":0},{"id":"52359747984","owner":"92361032@N05","secret":"ecd91fcc4e","server":"65535","farm":66,"title":"Least Flycatcher \/Moucherolle tch\u00e9bec ( Richard )","ispublic":1,"isfriend":0,"isfamily":0},{"id":"52331452940","owner":"22304442@N00","secret":"1c8b26f9c7","server":"65535","farm":66,"title":"","ispublic":1,"isfriend":0,"isfamily":0},{"id":"52302183316","owner":"48014585@N00","secret":"5b69248000","server":"65535","farm":66,"title":"Least Flycatcher","ispublic":1,"isfriend":0,"isfamily":0},{"id":"52302294659","owner":"48014585@N00","secret":"a051c8a144","server":"65535","farm":66,"title":"Least Flycatcher","ispublic":1,"isfriend":0,"isfamily":0},{"id":"52299395659","owner":"13451078@N03","secret":"0b9951c132","server":"65535","farm":66,"title":"Least Flycatcher  (Empidonax minimus)","ispublic":1,"isfriend":0,"isfamily":0},{"id":"52238205222","owner":"22304442@N00","secret":"421eb5866a","server":"65535","farm":66,"title":"moucherolle tch\u00e9bec (least flycatcher)","ispublic":1,"isfriend":0,"isfamily":0},{"id":"52231270286","owner":"166123535@N05","secret":"34dbb934a8","server":"65535","farm":66,"title":"Least Flycatcher","ispublic":1,"isfriend":0,"isfamily":0},{"id":"52198179294","owner":"184155060@N04","secret":"67e7214f40","server":"65535","farm":66,"title":"16190 Moucherolle tch\u00e9bec \/ Empidonax minimus \/ Least Flycatcher","ispublic":1,"isfriend":0,"isfamily":0},{"id":"52197713455","owner":"131708321@N02","secret":"0c1f7f85bc","server":"65535","farm":66,"title":"Least Flycatcher (Empidonax minimus), Calgary, Alberta, Canada","ispublic":1,"isfriend":0,"isfamily":0},{"id":"52173152510","owner":"42034882@N00","secret":"9d95ae8c1d","server":"65535","farm":66,"title":"Target Acquired","ispublic":1,"isfriend":0,"isfamily":0},{"id":"52152913646","owner":"39177293@N03","secret":"7616481634","server":"65535","farm":66,"title":"Least Flycatcher","ispublic":1,"isfriend":0,"isfamily":0},{"id":"52153123709","owner":"168495655@N07","secret":"86939c27cb","server":"65535","farm":66,"title":"Moucherolle tch\u00e9bec - Empidonax minimus - Least Flycatcher","ispublic":1,"isfriend":0,"isfamily":0},{"id":"52151487200","owner":"119787485@N07","secret":"9fe51c5ee2","server":"65535","farm":66,"title":"Least Flycatcher (Empidonax minimus) - 20220525-03","ispublic":1,"isfriend":0,"isfamily":0},{"id":"52137861280","owner":"191229626@N05","secret":"4ee64369a7","server":"65535","farm":66,"title":"IMG_1184pp","ispublic":1,"isfriend":0,"isfamily":0},{"id":"52137861005","owner":"191229626@N05","secret":"01b97f51ee","server":"65535","farm":66,"title":"IMG_1247pp","ispublic":1,"isfriend":0,"isfamily":0},{"id":"52137371151","owner":"191229626@N05","secret":"c24ef5d151","server":"65535","farm":66,"title":"IMG_1250pp","ispublic":1,"isfriend":0,"isfamily":0},{"id":"52134956741","owner":"136180232@N08","secret":"34f3c603fe","server":"65535","farm":66,"title":"Least Flycatcher (Empidonax minimus) JTD_9829","ispublic":1,"isfriend":0,"isfamily":0},{"id":"52132741403","owner":"53256251@N04","secret":"e201e22e5c","server":"65535","farm":66,"title":"Least Flycatcher waiting to see if he attracted a mate","ispublic":1,"isfriend":0,"isfamily":0},{"id":"52131699772","owner":"53256251@N04","secret":"710287cf7c","server":"65535","farm":66,"title":"Least Flycatcher in early spring trying to attract a mate","ispublic":1,"isfriend":0,"isfamily":0},{"id":"52110556841","owner":"187124972@N03","secret":"5b57d9bb1d","server":"65535","farm":66,"title":"MOUCHEROLLE TCH\u00c9BEC \/ LEAST FLYCATCHER (Empidonax minimus)","ispublic":1,"isfriend":0,"isfamily":0},{"id":"52110587063","owner":"187124972@N03","secret":"3b0f2fd0b9","server":"65535","farm":66,"title":"MOUCHEROLLE TCH\u00c9BEC \/ LEAST FLYCATCHER (Empidonax minimus)","ispublic":1,"isfriend":0,"isfamily":0},{"id":"52097159849","owner":"139237357@N06","secret":"4d49f6b2c5","server":"65535","farm":66,"title":"Least Flycatcher","ispublic":1,"isfriend":0,"isfamily":0},{"id":"52092516485","owner":"134691658@N05","secret":"e530348687","server":"65535","farm":66,"title":"Moucherolle tch\u00e9bec \/ Least Flycatcher","ispublic":1,"isfriend":0,"isfamily":0},{"id":"52087903108","owner":"32752434@N07","secret":"d2fe1742f7","server":"65535","farm":66,"title":"Least Flycatcher  (Empidonax minimus)","ispublic":1,"isfriend":0,"isfamily":0},{"id":"52086679118","owner":"119787485@N07","secret":"e1bc95d06c","server":"65535","farm":66,"title":"Least Flycatcher (Empidonax minimus) - 20220512-04","ispublic":1,"isfriend":0,"isfamily":0},{"id":"52083780875","owner":"165841515@N03","secret":"d152d3555d","server":"65535","farm":66,"title":"Moucherolle tch\u00e9bec \/ Least Flycatcher \/ (Empidonax minimus)","ispublic":1,"isfriend":0,"isfamily":0},{"id":"52079260490","owner":"120699091@N02","secret":"cd30c60c15","server":"65535","farm":66,"title":"Least Flycatcher","ispublic":1,"isfriend":0,"isfamily":0},{"id":"52066660105","owner":"126271444@N08","secret":"4559a87943","server":"65535","farm":66,"title":"Least Flycatcher (Empidonax minimus)","ispublic":1,"isfriend":0,"isfamily":0},{"id":"52066400384","owner":"126271444@N08","secret":"bb8b0865d5","server":"65535","farm":66,"title":"Least Flycatcher (Empidonax minimus)","ispublic":1,"isfriend":0,"isfamily":0},{"id":"52066180253","owner":"126271444@N08","secret":"a29277f890","server":"65535","farm":66,"title":"Least Flycatcher (Empidonax minimus)","ispublic":1,"isfriend":0,"isfamily":0},{"id":"52063987017","owner":"48014585@N00","secret":"e68a06baa7","server":"65535","farm":66,"title":"Least Flycatcher","ispublic":1,"isfriend":0,"isfamily":0},{"id":"52063986152","owner":"48014585@N00","secret":"84b4810c31","server":"65535","farm":66,"title":"Least Flycatcher","ispublic":1,"isfriend":0,"isfamily":0},{"id":"52065517545","owner":"48014585@N00","secret":"caec9af0a9","server":"65535","farm":66,"title":"Least Flycatcher","ispublic":1,"isfriend":0,"isfamily":0},{"id":"52063985767","owner":"48014585@N00","secret":"c9cf5e037f","server":"65535","farm":66,"title":"Least Flycatcher","ispublic":1,"isfriend":0,"isfamily":0},{"id":"52064621629","owner":"48014585@N00","secret":"06da161a77","server":"65535","farm":66,"title":"Least Flycatcher","ispublic":1,"isfriend":0,"isfamily":0},{"id":"52060803764","owner":"46367607@N06","secret":"27ec2522fb","server":"65535","farm":66,"title":"Least flycatcher--Empidonax minimus _D6A0292","ispublic":1,"isfriend":0,"isfamily":0},{"id":"52055480512","owner":"190764460@N06","secret":"93da573d32","server":"65535","farm":66,"title":"LEFL#3","ispublic":1,"isfriend":0,"isfamily":0},{"id":"51996573699","owner":"35041397@N00","secret":"c0fb0aa185","server":"65535","farm":66,"title":"Least Flycatcher","ispublic":1,"isfriend":0,"isfamily":0},{"id":"51983013923","owner":"156457454@N02","secret":"3a3f661475","server":"65535","farm":66,"title":"Least Flycatcher","ispublic":1,"isfriend":0,"isfamily":0},{"id":"51982622096","owner":"24110087@N05","secret":"1636219b0c","server":"65535","farm":66,"title":"Least Flycatcher - Empidonax minimus","ispublic":1,"isfriend":0,"isfamily":0},{"id":"51982683793","owner":"24110087@N05","secret":"cc56801b21","server":"65535","farm":66,"title":"Least Flycatcher - Empidonax minimus","ispublic":1,"isfriend":0,"isfamily":0},{"id":"51936510233","owner":"52071064@N00","secret":"3c96d964cb","server":"65535","farm":66,"title":"Least Flycatcher","ispublic":1,"isfriend":0,"isfamily":0},{"id":"51928037298","owner":"79666906@N05","secret":"5b3feffdc0","server":"65535","farm":66,"title":"Least Flycatcher","ispublic":1,"isfriend":0,"isfamily":0},{"id":"51902766613","owner":"8065544@N08","secret":"8dc0b070a5","server":"65535","farm":66,"title":"Least Flycatcher (Empidonax minimus)","ispublic":1,"isfriend":0,"isfamily":0},{"id":"51837771770","owner":"67306066@N03","secret":"af7c38ef97","server":"65535","farm":66,"title":"Least Flycatcher (Empidonax minimus)","ispublic":1,"isfriend":0,"isfamily":0},{"id":"51735607992","owner":"166123535@N05","secret":"7ef64087c0","server":"65535","farm":66,"title":"Least Flycatcher","ispublic":1,"isfriend":0,"isfamily":0},{"id":"51669794972","owner":"8013969@N03","secret":"e4a5593dcb","server":"65535","farm":66,"title":"Empidonax minimus","ispublic":1,"isfriend":0,"isfamily":0},{"id":"51649336659","owner":"190923251@N05","secret":"77310422ce","server":"65535","farm":66,"title":"Least Flycatcher","ispublic":1,"isfriend":0,"isfamily":0},{"id":"51649146350","owner":"39445433@N02","secret":"3d737c8c2e","server":"65535","farm":66,"title":"Eastern Phoebe","ispublic":1,"isfriend":0,"isfamily":0},{"id":"51648893019","owner":"67306066@N03","secret":"482af86eb5","server":"65535","farm":66,"title":"Least Flycatcher (Empidonax minimus)","ispublic":1,"isfriend":0,"isfamily":0},{"id":"51604363365","owner":"119787485@N07","secret":"a16184b5ff","server":"65535","farm":66,"title":"Least Flycatcher (Empidonax minimus) - 20210611-05","ispublic":1,"isfriend":0,"isfamily":0},{"id":"51554387276","owner":"32406637@N06","secret":"7c158137c3","server":"65535","farm":66,"title":"least flycatcher 2021.9.29 ny rye marshlands-   (1)","ispublic":1,"isfriend":0,"isfamily":0},{"id":"51555303970","owner":"32406637@N06","secret":"a2084bdd5b","server":"65535","farm":66,"title":"least flycatcher 2021.9.29 ny rye marshlands-   (2)","ispublic":1,"isfriend":0,"isfamily":0},{"id":"51554622443","owner":"32406637@N06","secret":"912d249d20","server":"65535","farm":66,"title":"least flycatcher 2021.9.29 ny rye marshlands-   (3)","ispublic":1,"isfriend":0,"isfamily":0},{"id":"51554385216","owner":"32406637@N06","secret":"d1d55e7a3c","server":"65535","farm":66,"title":"least flycatcher 2021.9.29 ny rye marshlands-   (4)","ispublic":1,"isfriend":0,"isfamily":0},{"id":"51552500615","owner":"33573751@N04","secret":"93b769260b","server":"65535","farm":66,"title":"Least Flycatcher (Empidonax minimus) - Wilton, Connecticut, USA","ispublic":1,"isfriend":0,"isfamily":0},{"id":"51539170107","owner":"39177293@N03","secret":"279925e20f","server":"65535","farm":66,"title":"Least Flycatcher","ispublic":1,"isfriend":0,"isfamily":0},{"id":"51540678614","owner":"39177293@N03","secret":"9305c3399b","server":"65535","farm":66,"title":"Least Flycatcher","ispublic":1,"isfriend":0,"isfamily":0},{"id":"51535214366","owner":"166123535@N05","secret":"03bc3929e7","server":"65535","farm":66,"title":"Least Flycatcher","ispublic":1,"isfriend":0,"isfamily":0},{"id":"51505534724","owner":"67306066@N03","secret":"82e58ba7a1","server":"65535","farm":66,"title":"Least Flycatcher (Empidonax minimus)","ispublic":1,"isfriend":0,"isfamily":0},{"id":"51500621336","owner":"13451078@N03","secret":"0cfb826f51","server":"65535","farm":66,"title":"Least Flycatcher (Empidonax minimus) (","ispublic":1,"isfriend":0,"isfamily":0},{"id":"51486600137","owner":"92602377@N06","secret":"ba9bf26d53","server":"65535","farm":66,"title":"Least Flycatcher, Empidonax minimus","ispublic":1,"isfriend":0,"isfamily":0},{"id":"51457398914","owner":"139237357@N06","secret":"59d1b3da77","server":"65535","farm":66,"title":"Least Flycatcher","ispublic":1,"isfriend":0,"isfamily":0},{"id":"51455891422","owner":"139237357@N06","secret":"2910768e1f","server":"65535","farm":66,"title":"Least Flycatcher","ispublic":1,"isfriend":0,"isfamily":0},{"id":"51457616080","owner":"139237357@N06","secret":"d2d19b6620","server":"65535","farm":66,"title":"Least Flycatcher","ispublic":1,"isfriend":0,"isfamily":0},{"id":"51457398829","owner":"139237357@N06","secret":"1627bffcc8","server":"65535","farm":66,"title":"Least Flycatcher","ispublic":1,"isfriend":0,"isfamily":0},{"id":"51455859367","owner":"7261670@N03","secret":"e0af49bc9e","server":"65535","farm":66,"title":"Least Flycatcher","ispublic":1,"isfriend":0,"isfamily":0},{"id":"51430890892","owner":"31379783@N02","secret":"ae1ff4e96e","server":"65535","farm":66,"title":"Moucherolle tch\u00e9bec - Least Flycatcher - Empidonax minimus","ispublic":1,"isfriend":0,"isfamily":0},{"id":"51430341788","owner":"100108154@N02","secret":"9c51de3c1b","server":"65535","farm":66,"title":"Flycatcher Caught Me","ispublic":1,"isfriend":0,"isfamily":0},{"id":"51431076950","owner":"100108154@N02","secret":"276c894152","server":"65535","farm":66,"title":"My 1st Least Flycatcher","ispublic":1,"isfriend":0,"isfamily":0},{"id":"51421333915","owner":"37566919@N02","secret":"0f8c7b06fc","server":"65535","farm":66,"title":"Least Flycatcher","ispublic":1,"isfriend":0,"isfamily":0},{"id":"51413327197","owner":"56902740@N06","secret":"36c5d9b461","server":"65535","farm":66,"title":"Least Flycatcher","ispublic":1,"isfriend":0,"isfamily":0},{"id":"52528242045","owner":"28499865@N07","secret":"e355735bb4","server":"65535","farm":66,"title":"Least Flycatcher - Empidonax minimus","ispublic":1,"isfriend":0,"isfamily":0},{"id":"52302649384","owner":"48014585@N00","secret":"1127a9b648","server":"65535","farm":66,"title":"Least Flycatcher","ispublic":1,"isfriend":0,"isfamily":0}]},"stat":"ok"}