{"photos":{"page":1,"pages":2,"perpage":100,"total":116,"photo":[{"id":"52714319379","owner":"123979267@N05","secret":"e8bc35c89e","server":"65535","farm":66,"title":"LeConte's Sparrow","ispublic":1,"isfriend":0,"isfamily":0},{"id":"52505424882","owner":"23836012@N02","secret":"5bdfa421fb","server":"65535","farm":66,"title":"LeConte's Sparrow (Ammospiza leconteii)","ispublic":1,"isfriend":0,"isfamily":0},{"id":"52154906900","owner":"195506649@N05","secret":"ea583f491c","server":"65535","farm":66,"title":"Ammospiza leconteii","ispublic":1,"isfriend":0,"isfamily":0},{"id":"51544046755","owner":"85277889@N08","secret":"efe982cb52","server":"65535","farm":66,"title":"LeConte's Sparrow (Ammospiza leconteii) 2021-10-02 (2a)","ispublic":1,"isfriend":0,"isfamily":0},{"id":"51309383072","owner":"123979267@N05","secret":"2fe2d834b5","server":"65535","farm":66,"title":"LeConte's Sparrow","ispublic":1,"isfriend":0,"isfamily":0},{"id":"51310847324","owner":"123979267@N05","secret":"0af434eefc","server":"65535","farm":66,"title":"LeConte's Sparrow","ispublic":1,"isfriend":0,"isfamily":0},{"id":"50776163732","owner":"190923251@N05","secret":"695053ab18","server":"65535","farm":66,"title":"LeConte's Sparrow singing","ispublic":1,"isfriend":0,"isfamily":0},{"id":"50453591503","owner":"135315828@N06","secret":"8de5c5b961","server":"65535","farm":66,"title":"IMG_3740","ispublic":1,"isfriend":0,"isfamily":0},{"id":"50454301441","owner":"135315828@N06","secret":"5cdb664535","server":"65535","farm":66,"title":"IMG_3771","ispublic":1,"isfriend":0,"isfamily":0},{"id":"50454300626","owner":"135315828@N06","secret":"e8efe67385","server":"65535","farm":66,"title":"IMG_3870","ispublic":1,"isfriend":0,"isfamily":0},{"id":"50453590623","owner":"135315828@N06","secret":"6452a5cb2e","server":"65535","farm":66,"title":"IMG_3877","ispublic":1,"isfriend":0,"isfamily":0},{"id":"50454460222","owner":"135315828@N06","secret":"41204d749b","server":"65535","farm":66,"title":"IMG_3919","ispublic":1,"isfriend":0,"isfamily":0},{"id":"49347312798","owner":"44786268@N00","secret":"93c3bb26aa","server":"65535","farm":66,"title":"LeConte's Sparrow","ispublic":1,"isfriend":0,"isfamily":0},{"id":"49347774536","owner":"44786268@N00","secret":"6fa8d2dd7c","server":"65535","farm":66,"title":"LeConte's Sparrow","ispublic":1,"isfriend":0,"isfamily":0},{"id":"49347982677","owner":"44786268@N00","secret":"4b4e42814d","server":"65535","farm":66,"title":"LeConte's Sparrow","ispublic":1,"isfriend":0,"isfamily":0},{"id":"49347982637","owner":"44786268@N00","secret":"0ef941af9d","server":"65535","farm":66,"title":"LeConte's Sparrow","ispublic":1,"isfriend":0,"isfamily":0},{"id":"49347982587","owner":"44786268@N00","secret":"5dc795e503","server":"65535","farm":66,"title":"LeConte's Sparrow","ispublic":1,"isfriend":0,"isfamily":0},{"id":"49347312543","owner":"44786268@N00","secret":"cc000817e2","server":"65535","farm":66,"title":"LeConte's Sparrow","ispublic":1,"isfriend":0,"isfamily":0},{"id":"49347312498","owner":"44786268@N00","secret":"76a59fa715","server":"65535","farm":66,"title":"LeConte's Sparrow","ispublic":1,"isfriend":0,"isfamily":0},{"id":"49347982387","owner":"44786268@N00","secret":"4ec9680600","server":"65535","farm":66,"title":"LeConte's Sparrow","ispublic":1,"isfriend":0,"isfamily":0},{"id":"49347982422","owner":"44786268@N00","secret":"06ee42b1f1","server":"65535","farm":66,"title":"LeConte's Sparrow","ispublic":1,"isfriend":0,"isfamily":0},{"id":"49117540652","owner":"90816109@N04","secret":"e9e4c83524","server":"65535","farm":66,"title":"LeConte's Sparrow","ispublic":1,"isfriend":0,"isfamily":0},{"id":"48273971146","owner":"58175258@N08","secret":"9b773496a8","server":"65535","farm":66,"title":"Leconte'sSparrow_20190713_8598 (Ammospiza leconteii)","ispublic":1,"isfriend":0,"isfamily":0},{"id":"40920715783","owner":"44786268@N00","secret":"cdb2b46cc7","server":"65535","farm":66,"title":"LeConte's Sparrow","ispublic":1,"isfriend":0,"isfamily":0},{"id":"45017173895","owner":"28631427@N00","secret":"55c06d439b","server":"4892","farm":5,"title":"LeConte\u2019s Sparrow 4","ispublic":1,"isfriend":0,"isfamily":0},{"id":"45879989592","owner":"28631427@N00","secret":"c62eb5f48f","server":"4893","farm":5,"title":"LeConte\u2019s Sparrow 3","ispublic":1,"isfriend":0,"isfamily":0},{"id":"32058323238","owner":"28631427@N00","secret":"b2f669b6b5","server":"4852","farm":5,"title":"LeConte\u2019s Sparrow 2","ispublic":1,"isfriend":0,"isfamily":0},{"id":"45929433331","owner":"28631427@N00","secret":"124e09c7a2","server":"4880","farm":5,"title":"LeConte\u2019s Sparrow 1","ispublic":1,"isfriend":0,"isfamily":0},{"id":"43850036370","owner":"74113421@N03","secret":"5bc5aa959e","server":"1914","farm":2,"title":"LeConte's Sparrow (Ammospiza leconteii)","ispublic":1,"isfriend":0,"isfamily":0},{"id":"41650253905","owner":"132508209@N08","secret":"45b85bde05","server":"1746","farm":2,"title":"LeConte's Sparrow (Ammospiza leconteii)","ispublic":1,"isfriend":0,"isfamily":0},{"id":"35069901631","owner":"119468907@N03","secret":"05433b6739","server":"4256","farm":5,"title":"Bruant de LeConte_070A1531","ispublic":1,"isfriend":0,"isfamily":0},{"id":"52579833137","owner":"153973412@N04","secret":"c863d56948","server":"65535","farm":66,"title":"LeConte's Sparrow- Ammospiza leconteii, Terry Trueblood IA","ispublic":1,"isfriend":0,"isfamily":0},{"id":"52255502190","owner":"123979267@N05","secret":"0a205fafc0","server":"65535","farm":66,"title":"LeConte's Sparrow","ispublic":1,"isfriend":0,"isfamily":0},{"id":"51810833609","owner":"28499865@N07","secret":"d9dbf7dd83","server":"65535","farm":66,"title":"LeConte's Sparrow - Ammospiza leconteii","ispublic":1,"isfriend":0,"isfamily":0},{"id":"51810592658","owner":"28499865@N07","secret":"f7167a56c8","server":"65535","farm":66,"title":"LeConte's Sparrow - Ammospiza leconteii","ispublic":1,"isfriend":0,"isfamily":0},{"id":"51809526832","owner":"28499865@N07","secret":"0531b17cdc","server":"65535","farm":66,"title":"LeConte's Sparrow - Ammospiza leconteii","ispublic":1,"isfriend":0,"isfamily":0},{"id":"51811213835","owner":"28499865@N07","secret":"5a68f44388","server":"65535","farm":66,"title":"LeConte's Sparrow - Ammospiza leconteii","ispublic":1,"isfriend":0,"isfamily":0},{"id":"51810592453","owner":"28499865@N07","secret":"cb70e2bc66","server":"65535","farm":66,"title":"LeConte's Sparrow - Ammospiza leconteii","ispublic":1,"isfriend":0,"isfamily":0},{"id":"51810592378","owner":"28499865@N07","secret":"985b192bc3","server":"65535","farm":66,"title":"LeConte's Sparrow - Ammospiza leconteii","ispublic":1,"isfriend":0,"isfamily":0},{"id":"51810833189","owner":"28499865@N07","secret":"5b3d002ae3","server":"65535","farm":66,"title":"LeConte's Sparrow - Ammospiza leconteii","ispublic":1,"isfriend":0,"isfamily":0},{"id":"51809526552","owner":"28499865@N07","secret":"70765832a3","server":"65535","farm":66,"title":"LeConte's Sparrow - Ammospiza leconteii","ispublic":1,"isfriend":0,"isfamily":0},{"id":"51811213570","owner":"28499865@N07","secret":"c2eb83370c","server":"65535","farm":66,"title":"LeConte's Sparrow - Ammospiza leconteii","ispublic":1,"isfriend":0,"isfamily":0},{"id":"51631301808","owner":"129803374@N05","secret":"d3ef99701c","server":"65535","farm":66,"title":"LeConte's Sparrow (Ammospiza leconteii)","ispublic":1,"isfriend":0,"isfamily":0},{"id":"51630249797","owner":"129803374@N05","secret":"9a22716f05","server":"65535","farm":66,"title":"LeConte's Sparrow (Ammospiza leconteii)","ispublic":1,"isfriend":0,"isfamily":0},{"id":"51628713746","owner":"129803374@N05","secret":"35a9abb636","server":"65535","farm":66,"title":"LeConte's Sparrow (Ammospiza leconteii)","ispublic":1,"isfriend":0,"isfamily":0},{"id":"51629564075","owner":"129803374@N05","secret":"d0eb65f916","server":"65535","farm":66,"title":"LeConte's Sparrow (Ammospiza leconteii)","ispublic":1,"isfriend":0,"isfamily":0},{"id":"51627880972","owner":"129803374@N05","secret":"b26dca0958","server":"65535","farm":66,"title":"LeConte's Sparrow (Ammospiza leconteii)","ispublic":1,"isfriend":0,"isfamily":0},{"id":"51629558160","owner":"129803374@N05","secret":"f92f7d805e","server":"65535","farm":66,"title":"LeConte's Sparrow (Ammospiza leconteii)","ispublic":1,"isfriend":0,"isfamily":0},{"id":"51626917723","owner":"17654080@N08","secret":"1fd5d80f02","server":"65535","farm":66,"title":"LeConte's Sparrow, immature (Ammospiza leconteii)","ispublic":1,"isfriend":0,"isfamily":0},{"id":"51625865332","owner":"17654080@N08","secret":"c74f73f03f","server":"65535","farm":66,"title":"LeConte's Sparrow, immature (Ammospiza leconteii)","ispublic":1,"isfriend":0,"isfamily":0},{"id":"51625865307","owner":"17654080@N08","secret":"c5e0c60cc3","server":"65535","farm":66,"title":"LeConte's Sparrow, immature (Ammospiza leconteii)","ispublic":1,"isfriend":0,"isfamily":0},{"id":"51626917613","owner":"17654080@N08","secret":"a43d0dae8e","server":"65535","farm":66,"title":"LeConte's Sparrow, immature (Ammospiza leconteii)","ispublic":1,"isfriend":0,"isfamily":0},{"id":"51627343009","owner":"17654080@N08","secret":"4e2492bf88","server":"65535","farm":66,"title":"LeConte's Sparrow, immature (Ammospiza leconteii)","ispublic":1,"isfriend":0,"isfamily":0},{"id":"51626917518","owner":"17654080@N08","secret":"17d3382473","server":"65535","farm":66,"title":"LeConte's Sparrow, immature (Ammospiza leconteii)","ispublic":1,"isfriend":0,"isfamily":0},{"id":"51626917488","owner":"17654080@N08","secret":"bd7acaf2fd","server":"65535","farm":66,"title":"LeConte's Sparrow, immature (Ammospiza leconteii)","ispublic":1,"isfriend":0,"isfamily":0},{"id":"51626917438","owner":"17654080@N08","secret":"bebe4d0057","server":"65535","farm":66,"title":"LeConte's Sparrow, immature (Ammospiza leconteii)","ispublic":1,"isfriend":0,"isfamily":0},{"id":"51627553870","owner":"17654080@N08","secret":"cef1b4bfc3","server":"65535","farm":66,"title":"LeConte's Sparrow, immature (Ammospiza leconteii)","ispublic":1,"isfriend":0,"isfamily":0},{"id":"51625865022","owner":"17654080@N08","secret":"ebb0557e0d","server":"65535","farm":66,"title":"LeConte's Sparrow, immature (Ammospiza leconteii)","ispublic":1,"isfriend":0,"isfamily":0},{"id":"51627342829","owner":"17654080@N08","secret":"84b414d132","server":"65535","farm":66,"title":"LeConte's Sparrow, immature (Ammospiza leconteii)","ispublic":1,"isfriend":0,"isfamily":0},{"id":"51625864947","owner":"17654080@N08","secret":"06985485f5","server":"65535","farm":66,"title":"LeConte's Sparrow, immature (Ammospiza leconteii)","ispublic":1,"isfriend":0,"isfamily":0},{"id":"51625864962","owner":"17654080@N08","secret":"73477913cc","server":"65535","farm":66,"title":"LeConte's Sparrow, immature (Ammospiza leconteii)","ispublic":1,"isfriend":0,"isfamily":0},{"id":"51380162908","owner":"26803925@N05","secret":"d877956862","server":"65535","farm":66,"title":"LeConte's Sparrow (Ammospiza leconteii) 06-13-2021 Lostwood NWR, Burke Co. ND 9","ispublic":1,"isfriend":0,"isfamily":0},{"id":"51380667754","owner":"26803925@N05","secret":"ed1eb8dbb7","server":"65535","farm":66,"title":"LeConte's Sparrow (Ammospiza leconteii) 06-13-2021 Lostwood NWR, Burke Co. ND 8","ispublic":1,"isfriend":0,"isfamily":0},{"id":"51380939540","owner":"26803925@N05","secret":"34cedc17ff","server":"65535","farm":66,"title":"LeConte's Sparrow (Ammospiza leconteii) 06-13-2021 Lostwood NWR, Burke Co. ND 4","ispublic":1,"isfriend":0,"isfamily":0},{"id":"51379166962","owner":"26803925@N05","secret":"996a4b3b6b","server":"65535","farm":66,"title":"LeConte's Sparrow (Ammospiza leconteii) 06-13-2021 Lostwood NWR, Burke Co. ND 6","ispublic":1,"isfriend":0,"isfamily":0},{"id":"51310323588","owner":"123979267@N05","secret":"c3932c8b5d","server":"65535","farm":66,"title":"LeConte's Sparrow","ispublic":1,"isfriend":0,"isfamily":0},{"id":"51169019051","owner":"18378985@N08","secret":"dd6f10d308","server":"65535","farm":66,"title":"LeConte's Sparrow at the Magic Hedge","ispublic":1,"isfriend":0,"isfamily":0},{"id":"50668503143","owner":"26803925@N05","secret":"341495f385","server":"65535","farm":66,"title":"LeConte's Sparrow (Ammospiza leconteii) 10-10-2020 Sands Road Park, Anne Arundel Co. MD 1c","ispublic":1,"isfriend":0,"isfamily":0},{"id":"50651059302","owner":"21702714@N06","secret":"b071a3e1d0","server":"65535","farm":66,"title":"LeConte's Sparrow","ispublic":1,"isfriend":0,"isfamily":0},{"id":"50630420747","owner":"186116188@N07","secret":"362f6f8c9d","server":"65535","farm":66,"title":"LeConte's sparrow, Ammospiza leconteii","ispublic":1,"isfriend":0,"isfamily":0},{"id":"50629565483","owner":"186116188@N07","secret":"2707a580e6","server":"65535","farm":66,"title":"LeConte's sparrow, Ammospiza leconteii","ispublic":1,"isfriend":0,"isfamily":0},{"id":"50629548983","owner":"186116188@N07","secret":"2a3723d129","server":"65535","farm":66,"title":"LeConte's sparrow, Ammospiza leconteii","ispublic":1,"isfriend":0,"isfamily":0},{"id":"50629516993","owner":"186116188@N07","secret":"0f783e2171","server":"65535","farm":66,"title":"LeConte's sparrow, Ammospiza leconteii","ispublic":1,"isfriend":0,"isfamily":0},{"id":"50471511158","owner":"26803925@N05","secret":"2856b8c332","server":"65535","farm":66,"title":"LeConte's Sparrow (Ammospiza leconteii) 10-09-2020 Sands Road Park, Anne Arundel Co. MD 10","ispublic":1,"isfriend":0,"isfamily":0},{"id":"50472367382","owner":"26803925@N05","secret":"93c1319ca1","server":"65535","farm":66,"title":"LeConte's Sparrow (Ammospiza leconteii) 10-09-2020 Sands Road Park, Anne Arundel Co. MD 9","ispublic":1,"isfriend":0,"isfamily":0},{"id":"50472367272","owner":"26803925@N05","secret":"411cdcc651","server":"65535","farm":66,"title":"LeConte's Sparrow (Ammospiza leconteii) 10-09-2020 Sands Road Park, Anne Arundel Co. MD 7","ispublic":1,"isfriend":0,"isfamily":0},{"id":"50472367302","owner":"26803925@N05","secret":"b811174024","server":"65535","farm":66,"title":"LeConte's Sparrow (Ammospiza leconteii) 10-09-2020 Sands Road Park, Anne Arundel Co. MD 8","ispublic":1,"isfriend":0,"isfamily":0},{"id":"50471510918","owner":"26803925@N05","secret":"e512077798","server":"65535","farm":66,"title":"LeConte's Sparrow (Ammospiza leconteii) 10-09-2020 Sands Road Park, Anne Arundel Co. MD 5","ispublic":1,"isfriend":0,"isfamily":0},{"id":"50472367042","owner":"26803925@N05","secret":"c48495981a","server":"65535","farm":66,"title":"LeConte's Sparrow (Ammospiza leconteii) 10-09-2020 Sands Road Park, Anne Arundel Co. MD 1","ispublic":1,"isfriend":0,"isfamily":0},{"id":"50454461477","owner":"135315828@N06","secret":"fc1fa0ee2f","server":"65535","farm":66,"title":"IMG_3697","ispublic":1,"isfriend":0,"isfamily":0},{"id":"50454461392","owner":"135315828@N06","secret":"2043b1a0b5","server":"65535","farm":66,"title":"IMG_3711","ispublic":1,"isfriend":0,"isfamily":0},{"id":"50453591308","owner":"135315828@N06","secret":"ec083f5c5d","server":"65535","farm":66,"title":"IMG_3811","ispublic":1,"isfriend":0,"isfamily":0},{"id":"50453591208","owner":"135315828@N06","secret":"0b73d2e885","server":"65535","farm":66,"title":"IMG_3857","ispublic":1,"isfriend":0,"isfamily":0},{"id":"50454460577","owner":"135315828@N06","secret":"6273bbb45f","server":"65535","farm":66,"title":"IMG_3859","ispublic":1,"isfriend":0,"isfamily":0},{"id":"50453590758","owner":"135315828@N06","secret":"de5bddeb32","server":"65535","farm":66,"title":"IMG_3862","ispublic":1,"isfriend":0,"isfamily":0},{"id":"50454460147","owner":"135315828@N06","secret":"7ee555fe74","server":"65535","farm":66,"title":"IMG_3927","ispublic":1,"isfriend":0,"isfamily":0},{"id":"49851631912","owner":"18378985@N08","secret":"96d573abdf","server":"65535","farm":66,"title":"LeContes & spider web","ispublic":1,"isfriend":0,"isfamily":0},{"id":"49851631752","owner":"18378985@N08","secret":"e101ebccd6","server":"65535","farm":66,"title":"LeContes Sparrow","ispublic":1,"isfriend":0,"isfamily":0},{"id":"49590562822","owner":"28631427@N00","secret":"8d224e9ff8","server":"65535","farm":66,"title":"Northern Mockingbird 1","ispublic":1,"isfriend":0,"isfamily":0},{"id":"49317108817","owner":"13451078@N03","secret":"e71d9fb861","server":"65535","farm":66,"title":"Leconte's Sparrow (Ammospiza leconteii)","ispublic":1,"isfriend":0,"isfamily":0},{"id":"48087827267","owner":"100763406@N04","secret":"b05acee08a","server":"65535","farm":66,"title":"LeConte's Sparrow (Ammospiza leconteii)","ispublic":1,"isfriend":0,"isfamily":0},{"id":"44741928065","owner":"75557613@N08","secret":"177bd24127","server":"1924","farm":2,"title":"Le Conte's Sparrow - Ammospiza leconteii","ispublic":1,"isfriend":0,"isfamily":0},{"id":"43546070312","owner":"144305930@N07","secret":"5744757169","server":"848","farm":1,"title":"LeConte's Sparrow (Ammospiza leconteii)","ispublic":1,"isfriend":0,"isfamily":0},{"id":"35070484141","owner":"119468907@N03","secret":"1e4e3f539a","server":"4248","farm":5,"title":"Bruant de LeConte_2A5A9613","ispublic":1,"isfriend":0,"isfamily":0},{"id":"34813464660","owner":"119468907@N03","secret":"08d5ce3d3c","server":"4222","farm":5,"title":"Bruant de LeConte_070A1542","ispublic":1,"isfriend":0,"isfamily":0},{"id":"29446519823","owner":"10105106@N07","secret":"8b63ced5df","server":"8137","farm":9,"title":"Le Conte's Sparrow","ispublic":1,"isfriend":0,"isfamily":0},{"id":"29446519973","owner":"10105106@N07","secret":"d596c939cf","server":"8535","farm":9,"title":"Le Conte's Sparrow","ispublic":1,"isfriend":0,"isfamily":0},{"id":"29446519603","owner":"10105106@N07","secret":"3d7bdc1e7e","server":"5088","farm":6,"title":"Le Conte's Sparrow","ispublic":1,"isfriend":0,"isfamily":0},{"id":"10390809073","owner":"10105106@N07","secret":"d1c0410b94","server":"2806","farm":3,"title":"Le Conte's Sparrow","ispublic":1,"isfriend":0,"isfamily":0},{"id":"10390634555","owner":"10105106@N07","secret":"36fcd9a5cd","server":"3741","farm":4,"title":"Le Conte's Sparrow","ispublic":1,"isfriend":0,"isfamily":0}]},"stat":"ok"}