{"photos":{"page":1,"pages":45,"perpage":100,"total":4487,"photo":[{"id":"52790685377","owner":"11815777@N07","secret":"3362c9631a","server":"65535","farm":66,"title":"Lesser Scaup","ispublic":1,"isfriend":0,"isfamily":0},{"id":"52790649983","owner":"42415395@N07","secret":"962d8b5b00","server":"65535","farm":66,"title":"Lesser Scaup (Aythya affinis); Albuquerque, NM, Tingley Beach Park Ponds [Lou Feltz]","ispublic":1,"isfriend":0,"isfamily":0},{"id":"52780673681","owner":"77671375@N04","secret":"15273f20ba","server":"65535","farm":66,"title":"Lesser Scaup","ispublic":1,"isfriend":0,"isfamily":0},{"id":"52780499568","owner":"68635735@N02","secret":"288f2d1dde","server":"65535","farm":66,"title":"Lesser Scaup (Aythya affinis) female","ispublic":1,"isfriend":0,"isfamily":0},{"id":"52780027691","owner":"68635735@N02","secret":"f2e586c925","server":"65535","farm":66,"title":"Lesser Scaup (Aythya affinis) male","ispublic":1,"isfriend":0,"isfamily":0},{"id":"52777249928","owner":"18217058@N04","secret":"09b796a65b","server":"65535","farm":66,"title":"Tufted ducks \/ Sk\u00fafendur (Aythya fuligula) and one Lesser Scaup \/ K\u00faf\u00f6nd (Aythya affinis)","ispublic":1,"isfriend":0,"isfamily":0},{"id":"52772845252","owner":"189860708@N05","secret":"cc6d01e6b0","server":"65535","farm":66,"title":"Lesser Scaup","ispublic":1,"isfriend":0,"isfamily":0},{"id":"52772844612","owner":"189860708@N05","secret":"92024562c6","server":"65535","farm":66,"title":"Lesser Scaup","ispublic":1,"isfriend":0,"isfamily":0},{"id":"52773634214","owner":"189860708@N05","secret":"2bc32a4e01","server":"65535","farm":66,"title":"Lesser Scaup","ispublic":1,"isfriend":0,"isfamily":0},{"id":"52772844497","owner":"189860708@N05","secret":"82ea48acb8","server":"65535","farm":66,"title":"Lesser Scaup","ispublic":1,"isfriend":0,"isfamily":0},{"id":"52770559015","owner":"44904157@N04","secret":"1047378837","server":"65535","farm":66,"title":"Female Lesser Scaup","ispublic":1,"isfriend":0,"isfamily":0},{"id":"52770554410","owner":"44904157@N04","secret":"e942ce8744","server":"65535","farm":66,"title":"Lesser Scaup","ispublic":1,"isfriend":0,"isfamily":0},{"id":"52768879675","owner":"163667952@N05","secret":"d8f9cc7b53","server":"65535","farm":66,"title":"Lesser Scaup","ispublic":1,"isfriend":0,"isfamily":0},{"id":"52768433353","owner":"42415395@N07","secret":"c32713440e","server":"65535","farm":66,"title":"Lesser Scaup, Male (Aythya affinis); Albuquerque, NM, Tingley Beach Park [Lou Feltz]","ispublic":1,"isfriend":0,"isfamily":0},{"id":"52767243399","owner":"12240837@N08","secret":"0b6ea0bceb","server":"65535","farm":66,"title":"Lesser Scaup (aythya affinis)","ispublic":1,"isfriend":0,"isfamily":0},{"id":"52766988796","owner":"12240837@N08","secret":"9c4e7d66d4","server":"65535","farm":66,"title":"Lesser Scaup (aythya affinis)","ispublic":1,"isfriend":0,"isfamily":0},{"id":"52766450652","owner":"12240837@N08","secret":"be167c3d85","server":"65535","farm":66,"title":"Lesser Scaup (aythya affinis)","ispublic":1,"isfriend":0,"isfamily":0},{"id":"52767402080","owner":"12240837@N08","secret":"2b22fb493f","server":"65535","farm":66,"title":"Lesser Scaup (aythya affinis)","ispublic":1,"isfriend":0,"isfamily":0},{"id":"52760057311","owner":"12240837@N08","secret":"4c65c42a2d","server":"65535","farm":66,"title":"Lesser Scaup (aythya affinis)","ispublic":1,"isfriend":0,"isfamily":0},{"id":"52759393679","owner":"144980256@N07","secret":"f4da74667a","server":"65535","farm":66,"title":"Lesser Scaup (Aythya affinis)","ispublic":1,"isfriend":0,"isfamily":0},{"id":"52758596002","owner":"144980256@N07","secret":"7596fae91c","server":"65535","farm":66,"title":"Lesser Scaup (Aythya affinis)","ispublic":1,"isfriend":0,"isfamily":0},{"id":"52757295669","owner":"131037795@N03","secret":"bf350e1f67","server":"65535","farm":66,"title":"Lesser Scaup (Aythya affinis)","ispublic":1,"isfriend":0,"isfamily":0},{"id":"52756686870","owner":"26520320@N03","secret":"3d0c58a2cc","server":"65535","farm":66,"title":"_BAP1251","ispublic":1,"isfriend":0,"isfamily":0},{"id":"52754411419","owner":"75473329@N00","secret":"72e9474fee","server":"65535","farm":66,"title":"Lesser scaup (Aythya affinis)","ispublic":1,"isfriend":0,"isfamily":0},{"id":"52751905470","owner":"7856934@N03","secret":"667bf090a7","server":"65535","farm":66,"title":"Lesser Scaup","ispublic":1,"isfriend":0,"isfamily":0},{"id":"52745875945","owner":"41798562@N07","secret":"2477899e76","server":"65535","farm":66,"title":"Lesser Scaup (Aythya affinis) 1st Winter \u2642","ispublic":1,"isfriend":0,"isfamily":0},{"id":"52744941607","owner":"41798562@N07","secret":"8e45e4c43d","server":"65535","farm":66,"title":"Lesser Scaup (Aythya affinis) 1st Winter \u2642","ispublic":1,"isfriend":0,"isfamily":0},{"id":"52745956908","owner":"41798562@N07","secret":"d27f7b0128","server":"65535","farm":66,"title":"Lesser Scaup (Aythya affinis) 1st Winter \u2642","ispublic":1,"isfriend":0,"isfamily":0},{"id":"52745459496","owner":"41798562@N07","secret":"7e41eb3538","server":"65535","farm":66,"title":"Lesser Scaup (Aythya affinis) 1st Winter \u2642","ispublic":1,"isfriend":0,"isfamily":0},{"id":"52744941307","owner":"41798562@N07","secret":"22c38f9b68","server":"65535","farm":66,"title":"Lesser Scaup (Aythya affinis) 1st Winter \u2642","ispublic":1,"isfriend":0,"isfamily":0},{"id":"52745875515","owner":"41798562@N07","secret":"41609ba18a","server":"65535","farm":66,"title":"Lesser Scaup (Aythya affinis) 1st Winter \u2642","ispublic":1,"isfriend":0,"isfamily":0},{"id":"52745956548","owner":"41798562@N07","secret":"42c8183b4c","server":"65535","farm":66,"title":"Lesser Scaup (Aythya affinis) 1st Winter \u2642","ispublic":1,"isfriend":0,"isfamily":0},{"id":"52745200889","owner":"41798562@N07","secret":"bfa84d2517","server":"0","farm":0,"title":"Lesser Scaup (Aythya affinis) 1st Winter \u2642 - 4K Video","ispublic":1,"isfriend":0,"isfamily":0},{"id":"52745430353","owner":"41798562@N07","secret":"379abd7ee4","server":"0","farm":0,"title":"Lesser Scaup (Aythya affinis) 1st Winter \u2642 - 4K Video","ispublic":1,"isfriend":0,"isfamily":0},{"id":"52743141010","owner":"97377331@N07","secret":"634aae8c82","server":"65535","farm":66,"title":"Lesser Scaup","ispublic":1,"isfriend":0,"isfamily":0},{"id":"51998543445","owner":"21456355@N04","secret":"abf60b6ee6","server":"65535","farm":66,"title":"Lesser Scaup Pair","ispublic":1,"isfriend":0,"isfamily":0},{"id":"52739004119","owner":"62907378@N07","secret":"22df0eb752","server":"65535","farm":66,"title":"Lesser Scaup (Aythya affinis)","ispublic":1,"isfriend":0,"isfamily":0},{"id":"52738233362","owner":"62907378@N07","secret":"c9d1f21444","server":"65535","farm":66,"title":"Lesser Scaup (Aythya affinis)","ispublic":1,"isfriend":0,"isfamily":0},{"id":"52739238643","owner":"62907378@N07","secret":"2c2e288985","server":"65535","farm":66,"title":"Lesser Scaup (Aythya affinis)","ispublic":1,"isfriend":0,"isfamily":0},{"id":"52738753231","owner":"62907378@N07","secret":"64719c8c6a","server":"65535","farm":66,"title":"Lesser Scaup (Aythya affinis)","ispublic":1,"isfriend":0,"isfamily":0},{"id":"52738867195","owner":"154534235@N07","secret":"2a27efed3e","server":"65535","farm":66,"title":"Lesser Scaup - Michael Bird","ispublic":1,"isfriend":0,"isfamily":0},{"id":"52738455496","owner":"154534235@N07","secret":"f07e842a59","server":"65535","farm":66,"title":"Lesser Scaup - Michael Bird","ispublic":1,"isfriend":0,"isfamily":0},{"id":"52738455456","owner":"154534235@N07","secret":"172914dac8","server":"65535","farm":66,"title":"Lesser Scaup - Michael Bird","ispublic":1,"isfriend":0,"isfamily":0},{"id":"52738455396","owner":"154534235@N07","secret":"560fbfcf14","server":"65535","farm":66,"title":"Lesser Scaup - Michael Bird","ispublic":1,"isfriend":0,"isfamily":0},{"id":"52738939003","owner":"154534235@N07","secret":"6be81d110a","server":"65535","farm":66,"title":"Lesser Scaup - Michael Bird","ispublic":1,"isfriend":0,"isfamily":0},{"id":"52737830056","owner":"113457946@N06","secret":"b4103b2da2","server":"65535","farm":66,"title":"Lesser Scaup   (Aythya affinis)","ispublic":1,"isfriend":0,"isfamily":0},{"id":"52735590256","owner":"103722035@N06","secret":"e08bbd14db","server":"65535","farm":66,"title":"Lesser Scaup (Aythya affinis), female, Pismo Beach, CA","ispublic":1,"isfriend":0,"isfamily":0},{"id":"52736004865","owner":"103722035@N06","secret":"8a42ffdc24","server":"65535","farm":66,"title":"Lesser Scaup (Aythya affinis), female, Pismo Beach, CA","ispublic":1,"isfriend":0,"isfamily":0},{"id":"52735427806","owner":"52450054@N04","secret":"5d8dcc52ac","server":"65535","farm":66,"title":"067\/365 - Lesser Scaup - Aythya affinis, Cambridge, Maryland, March 8, 2023","ispublic":1,"isfriend":0,"isfamily":0},{"id":"52734954551","owner":"49465440@N07","secret":"0c28043daf","server":"65535","farm":66,"title":"Lesser Scaup","ispublic":1,"isfriend":0,"isfamily":0},{"id":"52732000091","owner":"42415395@N07","secret":"8eec21f9aa","server":"65535","farm":66,"title":"Lesser Scaup, Male (Aythya affinis); Albuquerque, NM, Tingley Beach Park [Lou Feltz]","ispublic":1,"isfriend":0,"isfamily":0},{"id":"52731807493","owner":"21558080@N07","secret":"aa2a6bf547","server":"65535","farm":66,"title":"Lesser Scaup (Aythya affinis)","ispublic":1,"isfriend":0,"isfamily":0},{"id":"52730192459","owner":"187792860@N04","secret":"8ec88833f0","server":"65535","farm":66,"title":"Lesser Scaup (Aythya affinis)","ispublic":1,"isfriend":0,"isfamily":0},{"id":"52729760930","owner":"21606110@N08","secret":"c84cddb549","server":"65535","farm":66,"title":"Lesser Scaup","ispublic":1,"isfriend":0,"isfamily":0},{"id":"52729602004","owner":"21606110@N08","secret":"04f1fbb19a","server":"65535","farm":66,"title":"Lesser Scaup","ispublic":1,"isfriend":0,"isfamily":0},{"id":"52729601784","owner":"21606110@N08","secret":"3fd40cc086","server":"65535","farm":66,"title":"Lesser Scaup","ispublic":1,"isfriend":0,"isfamily":0},{"id":"52729021645","owner":"48949874@N08","secret":"f3742223c9","server":"65535","farm":66,"title":"Lesser Scaup (Male) Floating at Merritt Island NWR, Florida","ispublic":1,"isfriend":0,"isfamily":0},{"id":"52726907291","owner":"41179229@N03","secret":"f6f6816cf4","server":"65535","farm":66,"title":"Lesser Scaup - Aythya affinis","ispublic":1,"isfriend":0,"isfamily":0},{"id":"52719456874","owner":"61241315@N00","secret":"3b1c46ff77","server":"65535","farm":66,"title":"Greater Scaup_Lesser Scaup_Red-breasted Merganser_Ring-necked Duck_N0110","ispublic":1,"isfriend":0,"isfamily":0},{"id":"52716462177","owner":"61241315@N00","secret":"ac847f26fe","server":"0","farm":0,"title":"Greater Scaup_Lesser Scaup_Redhead Duck_Red-breasted Merganser_Ring-necked Duck_0102.MP4","ispublic":1,"isfriend":0,"isfamily":0},{"id":"52717245399","owner":"61241315@N00","secret":"a38be10090","server":"65535","farm":66,"title":"Greater Scaup_Lesser Scaup_Red-breasted Merganser_Ring-necked Duck_Redhead_N0109","ispublic":1,"isfriend":0,"isfamily":0},{"id":"52716460207","owner":"61241315@N00","secret":"6a2a042fd9","server":"65535","farm":66,"title":"Greater Scaup_Lesser Scaup_Red-breasted Merganser_Ring-necked Duck_N0108-001","ispublic":1,"isfriend":0,"isfamily":0},{"id":"52716600920","owner":"98675522@N06","secret":"78516d4be9","server":"65535","farm":66,"title":"Side-eye","ispublic":1,"isfriend":0,"isfamily":0},{"id":"52716614293","owner":"26520320@N03","secret":"0d45412f92","server":"65535","farm":66,"title":"_BAP0363","ispublic":1,"isfriend":0,"isfamily":0},{"id":"52716557220","owner":"26520320@N03","secret":"d5a1e758b1","server":"65535","farm":66,"title":"_BAP0361","ispublic":1,"isfriend":0,"isfamily":0},{"id":"52715582777","owner":"26520320@N03","secret":"ee3ce8005a","server":"65535","farm":66,"title":"_BAP0205","ispublic":1,"isfriend":0,"isfamily":0},{"id":"52716360334","owner":"79791557@N02","secret":"d4fb8d626f","server":"65535","farm":66,"title":"Lesser Scaup Drake (Aythya affinis)","ispublic":1,"isfriend":0,"isfamily":0},{"id":"52716525090","owner":"79791557@N02","secret":"92d62dab67","server":"65535","farm":66,"title":"Lesser Scaup Drake (Aythya affinis)","ispublic":1,"isfriend":0,"isfamily":0},{"id":"52715574977","owner":"26520320@N03","secret":"622475d234","server":"65535","farm":66,"title":"_BAP0163","ispublic":1,"isfriend":0,"isfamily":0},{"id":"52716095921","owner":"79791557@N02","secret":"fbbd18cfc3","server":"65535","farm":66,"title":"Lesser Scaup (Aythya affinis) Drake","ispublic":1,"isfriend":0,"isfamily":0},{"id":"52716351684","owner":"79791557@N02","secret":"1dcf6b3237","server":"65535","farm":66,"title":"Lesser Scaup (Aythya affinis) Drake","ispublic":1,"isfriend":0,"isfamily":0},{"id":"52711862924","owner":"144980256@N07","secret":"8408b6bc33","server":"65535","farm":66,"title":"Lesser Scaup (Aythya affinis)","ispublic":1,"isfriend":0,"isfamily":0},{"id":"52707845742","owner":"62907378@N07","secret":"96aa48600f","server":"65535","farm":66,"title":"Lesser Scaup (Aythya affinis)","ispublic":1,"isfriend":0,"isfamily":0},{"id":"52708137866","owner":"34238008@N02","secret":"ddd0af4133","server":"65535","farm":66,"title":"Lesser Scaup (Aythya affinis)","ispublic":1,"isfriend":0,"isfamily":0},{"id":"52708549835","owner":"34238008@N02","secret":"5cbb05e86d","server":"65535","farm":66,"title":"Lesser Scaup (Aythya affinis)","ispublic":1,"isfriend":0,"isfamily":0},{"id":"52708549710","owner":"34238008@N02","secret":"f2155a0894","server":"65535","farm":66,"title":"Lesser Scaup (Aythya affinis)","ispublic":1,"isfriend":0,"isfamily":0},{"id":"52707614847","owner":"34238008@N02","secret":"c50e29efbf","server":"65535","farm":66,"title":"Lesser Scaup (Aythya affinis)","ispublic":1,"isfriend":0,"isfamily":0},{"id":"52695722447","owner":"44904157@N04","secret":"c71c814314","server":"65535","farm":66,"title":"Lesser Scaup","ispublic":1,"isfriend":0,"isfamily":0},{"id":"52694440421","owner":"152894743@N08","secret":"aa0e23a96d","server":"65535","farm":66,"title":"Lesser Scaup","ispublic":1,"isfriend":0,"isfamily":0},{"id":"52693248859","owner":"124364870@N05","secret":"77e85e0dd9","server":"65535","farm":66,"title":"Lesser scaup (Aythya affinis) Female - male","ispublic":1,"isfriend":0,"isfamily":0},{"id":"52692462342","owner":"124364870@N05","secret":"88652097d2","server":"65535","farm":66,"title":"Lesser scaup (Aythya affinis)","ispublic":1,"isfriend":0,"isfamily":0},{"id":"52690237979","owner":"14191740@N08","secret":"2f015e9e00","server":"65535","farm":66,"title":"Lesser Scaup (Aythya affinis), Kinghorn Loch, Fife","ispublic":1,"isfriend":0,"isfamily":0},{"id":"52685215077","owner":"77056186@N00","secret":"c197bbde9c","server":"65535","farm":66,"title":"Lesser scaup","ispublic":1,"isfriend":0,"isfamily":0},{"id":"52685214992","owner":"77056186@N00","secret":"af471eaa07","server":"65535","farm":66,"title":"Lesser scaup","ispublic":1,"isfriend":0,"isfamily":0},{"id":"52685214947","owner":"77056186@N00","secret":"5dc5900fa9","server":"65535","farm":66,"title":"Lesser scaup","ispublic":1,"isfriend":0,"isfamily":0},{"id":"52685047646","owner":"13451078@N03","secret":"7317a54e47","server":"65535","farm":66,"title":"Lesser Scaup (Aythya affinis)","ispublic":1,"isfriend":0,"isfamily":0},{"id":"52679172796","owner":"62907378@N07","secret":"0bca5713ab","server":"65535","farm":66,"title":"Lesser Scaup (Aythya affinis) & Northern Pintail (Anas acuta).","ispublic":1,"isfriend":0,"isfamily":0},{"id":"52679610290","owner":"62907378@N07","secret":"e0d81a467e","server":"65535","farm":66,"title":"Lesser Scaup (Aythya affinis)","ispublic":1,"isfriend":0,"isfamily":0},{"id":"52679610255","owner":"62907378@N07","secret":"8c2ced9a6f","server":"65535","farm":66,"title":"Lesser Scaup (Aythya affinis)","ispublic":1,"isfriend":0,"isfamily":0},{"id":"52679609955","owner":"62907378@N07","secret":"3c768142af","server":"65535","farm":66,"title":"Lesser Scaup f (Aythya affinis),","ispublic":1,"isfriend":0,"isfamily":0},{"id":"52675460502","owner":"12530381@N07","secret":"4d60b0b903","server":"65535","farm":66,"title":"Lesser Scaup (Aythya affinis) at Glorietta Bay (2\/2\/2023)","ispublic":1,"isfriend":0,"isfamily":0},{"id":"52675667324","owner":"39511843@N07","secret":"b7768bbce6","server":"65535","farm":66,"title":"20230207-IMG_9427-Lesser Scaup (Aythya affinis)","ispublic":1,"isfriend":0,"isfamily":0},{"id":"52675659594","owner":"39511843@N07","secret":"a5effed289","server":"65535","farm":66,"title":"20230207-Lesser Scaup (Aythya affinis)-1","ispublic":1,"isfriend":0,"isfamily":0},{"id":"52673854560","owner":"12639178@N07","secret":"536be18015","server":"65535","farm":66,"title":"Kleine Bergente  c","ispublic":1,"isfriend":0,"isfamily":0},{"id":"52672921222","owner":"12639178@N07","secret":"ce66f6b87c","server":"65535","farm":66,"title":"Kleine Bergente  b","ispublic":1,"isfriend":0,"isfamily":0},{"id":"52673417711","owner":"12639178@N07","secret":"3c2c5c9f24","server":"65535","farm":66,"title":"Kleine Bergente","ispublic":1,"isfriend":0,"isfamily":0},{"id":"52667350168","owner":"7856934@N03","secret":"0d821ffae2","server":"65535","farm":66,"title":"Lesser Scaup","ispublic":1,"isfriend":0,"isfamily":0},{"id":"52667283325","owner":"7856934@N03","secret":"67efd9d780","server":"65535","farm":66,"title":"American Wigeon","ispublic":1,"isfriend":0,"isfamily":0},{"id":"52716092856","owner":"79791557@N02","secret":"174a5f3e36","server":"65535","farm":66,"title":"Lesser Scaup (Aythya affinis) Drake","ispublic":1,"isfriend":0,"isfamily":0},{"id":"52678663367","owner":"62907378@N07","secret":"d3f6127d89","server":"65535","farm":66,"title":"Lesser Scaup (Aythya affinis) & Northern Pintail (Anas acuta).","ispublic":1,"isfriend":0,"isfamily":0}]},"stat":"ok"}