{"photos":{"page":1,"pages":171,"perpage":100,"total":17084,"photo":[{"id":"52792565940","owner":"154841955@N04","secret":"afe44a414b","server":"65535","farm":66,"title":"Curruca.","ispublic":1,"isfriend":0,"isfamily":0},{"id":"52790190914","owner":"7291425@N07","secret":"9501262e4a","server":"65535","farm":66,"title":"Lesser Whitethroat","ispublic":1,"isfriend":0,"isfamily":0},{"id":"52790174413","owner":"194139694@N07","secret":"abc5d6abc9","server":"65535","farm":66,"title":"_9222479","ispublic":1,"isfriend":0,"isfamily":0},{"id":"52789715519","owner":"14079218@N04","secret":"665a5a4364","server":"65535","farm":66,"title":"Fauvette pitchou (Curruca undata)","ispublic":1,"isfriend":0,"isfamily":0},{"id":"52788181465","owner":"140840987@N03","secret":"27b8b799e5","server":"65535","farm":66,"title":"Curruca carrasque\u00f1a (Sylvia cantillans)","ispublic":1,"isfriend":0,"isfamily":0},{"id":"52787779960","owner":"56446000@N04","secret":"2ba843afcb","server":"65535","farm":66,"title":"Blackcap In Concert","ispublic":1,"isfriend":0,"isfamily":0},{"id":"52787656020","owner":"156090455@N08","secret":"fa73934de9","server":"65535","farm":66,"title":"62\/2023 - Curruca capirotada, macho. (Sylvia atricapilla).","ispublic":1,"isfriend":0,"isfamily":0},{"id":"52786686172","owner":"40425732@N04","secret":"3e0f61d757","server":"65535","farm":66,"title":"El Ba\u00f1o...","ispublic":1,"isfriend":0,"isfamily":0},{"id":"52786732923","owner":"67057396@N02","secret":"63856877cb","server":"65535","farm":66,"title":"Curruca melanocephala","ispublic":1,"isfriend":0,"isfamily":0},{"id":"52785622138","owner":"62048404@N07","secret":"aa8148db07","server":"65535","farm":66,"title":"Curruca","ispublic":1,"isfriend":0,"isfamily":0},{"id":"52784013056","owner":"187783312@N03","secret":"96c60a8fcf","server":"65535","farm":66,"title":"Fauvette grisette","ispublic":1,"isfriend":0,"isfamily":0},{"id":"52782392932","owner":"186652515@N04","secret":"e2e5e72913","server":"65535","farm":66,"title":"P1120035","ispublic":1,"isfriend":0,"isfamily":0},{"id":"52779267732","owner":"130427874@N02","secret":"289e10e239","server":"65535","farm":66,"title":"Toutinegra-de-cabe\u00e7a-preta \/\/ Curruca melanocephala","ispublic":1,"isfriend":0,"isfamily":0},{"id":"52779896020","owner":"194874045@N02","secret":"31177b6a63","server":"65535","farm":66,"title":"Curruca Carrasque\u00f1a.","ispublic":1,"isfriend":0,"isfamily":0},{"id":"52778748972","owner":"195447393@N04","secret":"417aa15e8b","server":"65535","farm":66,"title":"Curruca Cabecinegra","ispublic":1,"isfriend":0,"isfamily":0},{"id":"52779286179","owner":"123529713@N08","secret":"5df5bb6aff","server":"65535","farm":66,"title":"Tallarol de casquet - Curruca capirotada - Eurasian blackcap - Fauvette \u00e0 t\u00eate noire - Sylvia atricapilla","ispublic":1,"isfriend":0,"isfamily":0},{"id":"52778008012","owner":"97122051@N06","secret":"f1aae8838c","server":"65535","farm":66,"title":"CLG_R_4215","ispublic":1,"isfriend":0,"isfamily":0},{"id":"52778162553","owner":"186652515@N04","secret":"df7758fb4f","server":"65535","farm":66,"title":"P1060916_","ispublic":1,"isfriend":0,"isfamily":0},{"id":"52776671384","owner":"97122051@N06","secret":"a4ea6f5736","server":"65535","farm":66,"title":"CLG_R_4253_Breizh","ispublic":1,"isfriend":0,"isfamily":0},{"id":"52776182628","owner":"197775147@N06","secret":"0b9ab7c5a4","server":"65535","farm":66,"title":"06 B curruca capirotada macho","ispublic":1,"isfriend":0,"isfamily":0},{"id":"52774575992","owner":"144217344@N03","secret":"992fa75485","server":"65535","farm":66,"title":"Gisela_Nagel-Fl-2289-Brillengrasm\u00fccke","ispublic":1,"isfriend":0,"isfamily":0},{"id":"52775267158","owner":"33060881@N04","secret":"5f41e76c02","server":"65535","farm":66,"title":"Le\u00f3n-Ribera del r\u00edo Bernesga-Curruca capirotada (Sylvia atricapilla, Aves Paseriformes S\u00edlvidos)-1-Macho","ispublic":1,"isfriend":0,"isfamily":0},{"id":"52775267113","owner":"33060881@N04","secret":"f3688b9a9c","server":"65535","farm":66,"title":"Le\u00f3n-Ribera del r\u00edo Bernesga-Curruca capirotada (Sylvia atricapilla, Aves Paseriformes S\u00edlvidos)-2-Hembra","ispublic":1,"isfriend":0,"isfamily":0},{"id":"52775027974","owner":"130427874@N02","secret":"8a20e9b62f","server":"65535","farm":66,"title":"Toutinegra-de-cabe\u00e7a-preta \/\/ Curruca melanocephala","ispublic":1,"isfriend":0,"isfamily":0},{"id":"52774544844","owner":"83427488@N02","secret":"424c35cf77","server":"65535","farm":66,"title":"Curruca carrasque\u00f1a \/ European subalpine warbler (Sylvia cantillans)","ispublic":1,"isfriend":0,"isfamily":0},{"id":"52774700630","owner":"83427488@N02","secret":"a35e1c9a3a","server":"65535","farm":66,"title":"Curruca carrasque\u00f1a \/ European subalpine warbler (Sylvia cantillans)","ispublic":1,"isfriend":0,"isfamily":0},{"id":"52773752672","owner":"83427488@N02","secret":"bcc060116d","server":"65535","farm":66,"title":"Curruca carrasque\u00f1a \/ European subalpine warbler (Sylvia cantillans)","ispublic":1,"isfriend":0,"isfamily":0},{"id":"52774769518","owner":"83427488@N02","secret":"ea7b599227","server":"65535","farm":66,"title":"Curruca carrasque\u00f1a \/ European subalpine warbler (Sylvia cantillans)","ispublic":1,"isfriend":0,"isfamily":0},{"id":"52772155042","owner":"93144813@N06","secret":"0302cece18","server":"65535","farm":66,"title":"Curruca tomillera, Spectacled Warbler ( Sylvia conspicillata ).","ispublic":1,"isfriend":0,"isfamily":0},{"id":"52772625356","owner":"87356108@N05","secret":"61baeee1b3","server":"65535","farm":66,"title":"CURRUCA ZARCERA (Sylvia communis)","ispublic":1,"isfriend":0,"isfamily":0},{"id":"52771924357","owner":"97122051@N06","secret":"747911cea4","server":"65535","farm":66,"title":"CLG_R_4157_","ispublic":1,"isfriend":0,"isfamily":0},{"id":"52772818925","owner":"11861245@N08","secret":"09eb001e54","server":"65535","farm":66,"title":"curruca cabecinegra","ispublic":1,"isfriend":0,"isfamily":0},{"id":"52772379291","owner":"161528273@N02","secret":"ee5bd057a3","server":"65535","farm":66,"title":"Curruca capirotada","ispublic":1,"isfriend":0,"isfamily":0},{"id":"52772240458","owner":"14079218@N04","secret":"530d4428bb","server":"65535","farm":66,"title":"Fauvette pitchou (Curruca undata)","ispublic":1,"isfriend":0,"isfamily":0},{"id":"52771221867","owner":"14079218@N04","secret":"b9047f4a88","server":"65535","farm":66,"title":"Fauvette pitchou (Curruca undata)","ispublic":1,"isfriend":0,"isfamily":0},{"id":"52771221577","owner":"14079218@N04","secret":"60cba5f122","server":"65535","farm":66,"title":"Fauvette pitchou (Curruca undata)","ispublic":1,"isfriend":0,"isfamily":0},{"id":"52772164410","owner":"14079218@N04","secret":"bcc4865c9d","server":"65535","farm":66,"title":"Fauvette pitchou (Curruca undata)","ispublic":1,"isfriend":0,"isfamily":0},{"id":"52771750001","owner":"14079218@N04","secret":"c740450bbd","server":"65535","farm":66,"title":"Fauvette pitchou (Curruca undata)","ispublic":1,"isfriend":0,"isfamily":0},{"id":"52772238788","owner":"14079218@N04","secret":"277b9ae80c","server":"65535","farm":66,"title":"Fauvette pitchou (Curruca undata)","ispublic":1,"isfriend":0,"isfamily":0},{"id":"52772163405","owner":"14079218@N04","secret":"250cdcd51f","server":"65535","farm":66,"title":"Fauvette pitchou (Curruca undata)","ispublic":1,"isfriend":0,"isfamily":0},{"id":"52772162875","owner":"14079218@N04","secret":"f408188dc8","server":"65535","farm":66,"title":"Fauvette pitchou (Curruca undata)","ispublic":1,"isfriend":0,"isfamily":0},{"id":"52771799264","owner":"33319209@N02","secret":"b985d86b26","server":"65535","farm":66,"title":"Sylvia undata","ispublic":1,"isfriend":0,"isfamily":0},{"id":"52771331425","owner":"192701427@N07","secret":"0c76ab94f9","server":"65535","farm":66,"title":"Verdecillo y curruca capirotada","ispublic":1,"isfriend":0,"isfamily":0},{"id":"52771329225","owner":"192701427@N07","secret":"096cac31f4","server":"65535","farm":66,"title":"Jilguero y curruca capirotada","ispublic":1,"isfriend":0,"isfamily":0},{"id":"52770343074","owner":"194947519@N08","secret":"33d44dd7b1","server":"65535","farm":66,"title":"DSC07387_DxO","ispublic":1,"isfriend":0,"isfamily":0},{"id":"52770084691","owner":"194947519@N08","secret":"9e7f2034d7","server":"65535","farm":66,"title":"DSC07388_DxO","ispublic":1,"isfriend":0,"isfamily":0},{"id":"52770084651","owner":"194947519@N08","secret":"2e6e2fd533","server":"65535","farm":66,"title":"DSC07394_DxO","ispublic":1,"isfriend":0,"isfamily":0},{"id":"52770576293","owner":"194947519@N08","secret":"30856318c5","server":"65535","farm":66,"title":"DSC07397_DxO","ispublic":1,"isfriend":0,"isfamily":0},{"id":"52770576273","owner":"194947519@N08","secret":"c3992a6e1e","server":"65535","farm":66,"title":"DSC07402_DxO","ispublic":1,"isfriend":0,"isfamily":0},{"id":"52770499820","owner":"194947519@N08","secret":"ccb4b00e5c","server":"65535","farm":66,"title":"DSC07406_DxO","ispublic":1,"isfriend":0,"isfamily":0},{"id":"52770084521","owner":"194947519@N08","secret":"7b28ca7ca6","server":"65535","farm":66,"title":"DSC07412_DxO","ispublic":1,"isfriend":0,"isfamily":0},{"id":"52770084506","owner":"194947519@N08","secret":"c6519eefec","server":"65535","farm":66,"title":"DSC07421_DxO","ispublic":1,"isfriend":0,"isfamily":0},{"id":"52770576153","owner":"194947519@N08","secret":"16b6198144","server":"65535","farm":66,"title":"DSC07498_DxO","ispublic":1,"isfriend":0,"isfamily":0},{"id":"52770084451","owner":"194947519@N08","secret":"292f1f3dfa","server":"65535","farm":66,"title":"DSC07512_DxO","ispublic":1,"isfriend":0,"isfamily":0},{"id":"52770499580","owner":"194947519@N08","secret":"24387ac73d","server":"65535","farm":66,"title":"DSC07533_DxO","ispublic":1,"isfriend":0,"isfamily":0},{"id":"52770468940","owner":"151806884@N04","secret":"26de110238","server":"65535","farm":66,"title":"Siberische Braamsluiper Curruca curruca blythi","ispublic":1,"isfriend":0,"isfamily":0},{"id":"52770312634","owner":"151806884@N04","secret":"85a4591d9c","server":"65535","farm":66,"title":"Siberische Braamsluiper Curruca curruca blythi","ispublic":1,"isfriend":0,"isfamily":0},{"id":"52770251785","owner":"53127355@N08","secret":"0eb9d6d1ec","server":"65535","farm":66,"title":"curruca_1","ispublic":1,"isfriend":0,"isfamily":0},{"id":"52770094169","owner":"53127355@N08","secret":"53ee187b79","server":"65535","farm":66,"title":"curruca","ispublic":1,"isfriend":0,"isfamily":0},{"id":"52770046889","owner":"133373339@N04","secret":"a3556d5976","server":"65535","farm":66,"title":"Western Subalpine Warbler (Curruca iberiae)","ispublic":1,"isfriend":0,"isfamily":0},{"id":"52770202585","owner":"133373339@N04","secret":"0a57d8324a","server":"65535","farm":66,"title":"Sardinian Warbler (Curruca melanocephala)","ispublic":1,"isfriend":0,"isfamily":0},{"id":"52769535806","owner":"78871506@N06","secret":"683044d3fd","server":"65535","farm":66,"title":"Curruca cabecinegra macho","ispublic":1,"isfriend":0,"isfamily":0},{"id":"52768997032","owner":"78871506@N06","secret":"aa188507b3","server":"65535","farm":66,"title":"Curruca capirotada hembra","ispublic":1,"isfriend":0,"isfamily":0},{"id":"52768995987","owner":"78871506@N06","secret":"197b9288c9","server":"65535","farm":66,"title":"Curruca capirotada hembra","ispublic":1,"isfriend":0,"isfamily":0},{"id":"52770021448","owner":"78871506@N06","secret":"8cf50b8bbc","server":"65535","farm":66,"title":"Curruca cabecinegra macho","ispublic":1,"isfriend":0,"isfamily":0},{"id":"52770019618","owner":"78871506@N06","secret":"8aede68aaf","server":"65535","farm":66,"title":"Curruca cabecinegra macho","ispublic":1,"isfriend":0,"isfamily":0},{"id":"52768832586","owner":"61066110@N00","secret":"ddebc05f8a","server":"65535","farm":66,"title":"_3135312-Editar","ispublic":1,"isfriend":0,"isfamily":0},{"id":"52768088482","owner":"161528273@N02","secret":"b3953ea213","server":"65535","farm":66,"title":"Curruca capirotada","ispublic":1,"isfriend":0,"isfamily":0},{"id":"52767979702","owner":"147466598@N07","secret":"599ae5a9b8","server":"65535","farm":66,"title":"Menetries's warbler , Curruca mystacea","ispublic":1,"isfriend":0,"isfamily":0},{"id":"52768649299","owner":"27450769@N06","secret":"2162e5efcc","server":"65535","farm":66,"title":"The Female","ispublic":1,"isfriend":0,"isfamily":0},{"id":"52765893872","owner":"122800022@N02","secret":"de877a5b4f","server":"65535","farm":66,"title":"Curruca cabecinegra hembra (Sylvia melanocephala) ZARAGOZA 2023","ispublic":1,"isfriend":0,"isfamily":0},{"id":"52765390787","owner":"14079218@N04","secret":"f268f6339f","server":"65535","farm":66,"title":"Fauvette pitchou (Curruca undata)","ispublic":1,"isfriend":0,"isfamily":0},{"id":"52766181534","owner":"14079218@N04","secret":"e6ee166972","server":"65535","farm":66,"title":"Fauvette pitchou (Curruca undata)","ispublic":1,"isfriend":0,"isfamily":0},{"id":"52766415553","owner":"14079218@N04","secret":"a8de9a3666","server":"65535","farm":66,"title":"Fauvette pitchou (Curruca undata)","ispublic":1,"isfriend":0,"isfamily":0},{"id":"52765293817","owner":"186652515@N04","secret":"5ef135cb91","server":"65535","farm":66,"title":"P1060242","ispublic":1,"isfriend":0,"isfamily":0},{"id":"52765827451","owner":"186652515@N04","secret":"0469ffa881","server":"65535","farm":66,"title":"P1060222","ispublic":1,"isfriend":0,"isfamily":0},{"id":"52764153755","owner":"14079218@N04","secret":"e32255f570","server":"65535","farm":66,"title":"Fauvette pitchou (Curruca undata)","ispublic":1,"isfriend":0,"isfamily":0},{"id":"52763086778","owner":"97122051@N06","secret":"81b265e0bd","server":"65535","farm":66,"title":"CLG_SR_4172_Breizh","ispublic":1,"isfriend":0,"isfamily":0},{"id":"52762844924","owner":"97122051@N06","secret":"e32383d4bb","server":"65535","farm":66,"title":"CLG_SR_4232   Breizh   C\u00f4tes d'Armor","ispublic":1,"isfriend":0,"isfamily":0},{"id":"52763075753","owner":"97122051@N06","secret":"d3e6ba9fe4","server":"65535","farm":66,"title":"CLG_SR_4268_ Breizh_C\u00f4tes d'Armor","ispublic":1,"isfriend":0,"isfamily":0},{"id":"52761750157","owner":"14079218@N04","secret":"34fbafcaa1","server":"65535","farm":66,"title":"Fauvette pitchou (Curruca undata)","ispublic":1,"isfriend":0,"isfamily":0},{"id":"52762073434","owner":"96713629@N03","secret":"4a00b53692","server":"65535","farm":66,"title":"Kleine zwartkop (Curruca melanocephala)-350_0279-bewerkt","ispublic":1,"isfriend":0,"isfamily":0},{"id":"52762073399","owner":"96713629@N03","secret":"c3b038b238","server":"65535","farm":66,"title":"Kleine zwartkop (Curruca melanocephala)-350_0281-bewerkt","ispublic":1,"isfriend":0,"isfamily":0},{"id":"52761351423","owner":"194947519@N08","secret":"7c33406ac1","server":"65535","farm":66,"title":"DSC06919_DxO","ispublic":1,"isfriend":0,"isfamily":0},{"id":"52761111564","owner":"194947519@N08","secret":"4a199c5430","server":"65535","farm":66,"title":"","ispublic":1,"isfriend":0,"isfamily":0},{"id":"52760860091","owner":"194947519@N08","secret":"3e863e545c","server":"65535","farm":66,"title":"DSC06916_DxO","ispublic":1,"isfriend":0,"isfamily":0},{"id":"52761111399","owner":"194947519@N08","secret":"1c283d83a2","server":"65535","farm":66,"title":"DSC06917_DxO","ispublic":1,"isfriend":0,"isfamily":0},{"id":"52760910989","owner":"130427874@N02","secret":"39412d62c7","server":"65535","farm":66,"title":"Toutinegra-de-cabe\u00e7a-preta \/\/ Curruca melanocephala","ispublic":1,"isfriend":0,"isfamily":0},{"id":"52761031958","owner":"197854833@N04","secret":"2f7ac8ed4d","server":"65535","farm":66,"title":"Curruca capirotada (Sylvia atricapilla)  macho\/male","ispublic":1,"isfriend":0,"isfamily":0},{"id":"52760532386","owner":"197854833@N04","secret":"2f8cfeb28d","server":"65535","farm":66,"title":"Curruca capirotada (Sylvia atricapilla), hembra\/female","ispublic":1,"isfriend":0,"isfamily":0},{"id":"52760260161","owner":"11820073@N03","secret":"9db30e73da","server":"65535","farm":66,"title":"Curruca cabecinegra","ispublic":1,"isfriend":0,"isfamily":0},{"id":"52760265305","owner":"96713629@N03","secret":"82bb58f02c","server":"65535","farm":66,"title":"Kleine zwartkop (Curruca melanocephala)-350_0373-bewerkt","ispublic":1,"isfriend":0,"isfamily":0},{"id":"52759858416","owner":"96713629@N03","secret":"ae4f86f458","server":"65535","farm":66,"title":"Kleine zwartkop (Curruca melanocephala)-350_0374-bewerkt","ispublic":1,"isfriend":0,"isfamily":0},{"id":"52759529098","owner":"192955056@N03","secret":"9af93dc5a8","server":"65535","farm":66,"title":"Fauvette me\u0301lanoce\u0301phale - Sardinian Warbler","ispublic":1,"isfriend":0,"isfamily":0},{"id":"52757474207","owner":"53963312@N00","secret":"9d75091a98","server":"65535","farm":66,"title":"O home de pedra \u2022 El hombre de piedra \u2022 Stone Man","ispublic":1,"isfriend":0,"isfamily":0},{"id":"52757151432","owner":"196341853@N06","secret":"5235bb4fee","server":"65535","farm":66,"title":"Curruca melanocephala","ispublic":1,"isfriend":0,"isfamily":0},{"id":"52757617153","owner":"94814431@N02","secret":"65d1a1ccbc","server":"65535","farm":66,"title":"Curruca capirotada (Sylvia atricapilla). Blackcap.","ispublic":1,"isfriend":0,"isfamily":0},{"id":"52757449458","owner":"34813708@N07","secret":"3e587219c1","server":"65535","farm":66,"title":"Curruca cabecinegra\u200b  (Sylvia melanocephala) \u2642","ispublic":1,"isfriend":0,"isfamily":0},{"id":"52757146415","owner":"123926271@N05","secret":"c0026d3f41","server":"65535","farm":66,"title":"Curruca cabecinegra-0333","ispublic":1,"isfriend":0,"isfamily":0},{"id":"52755379018","owner":"58897115@N05","secret":"4c2c717c1f","server":"65535","farm":66,"title":"curruca capirotada \u2640 (Sylvia atricapilla)","ispublic":1,"isfriend":0,"isfamily":0}]},"stat":"ok"}