{"photos":{"page":1,"pages":6,"perpage":100,"total":551,"photo":[{"id":"52761433990","owner":"190773540@N03","secret":"b8a8a0d299","server":"65535","farm":66,"title":"Lesser Nighthawk","ispublic":1,"isfriend":0,"isfamily":0},{"id":"52722039549","owner":"7330431@N08","secret":"8070f42155","server":"65535","farm":66,"title":"Lesser Nighthawk Chordeiles acutipennis","ispublic":1,"isfriend":0,"isfamily":0},{"id":"52721255977","owner":"7330431@N08","secret":"6ef1e7cd60","server":"65535","farm":66,"title":"Lesser Nighthawk Chordeiles acutipennis","ispublic":1,"isfriend":0,"isfamily":0},{"id":"52720617968","owner":"61316002@N02","secret":"08e517ea4c","server":"65535","farm":66,"title":"LESSNIGHT texensis 5878","ispublic":1,"isfriend":0,"isfamily":0},{"id":"52688546171","owner":"54249623@N08","secret":"a7fbb17642","server":"65535","farm":66,"title":"Chotacabras Menor, Lesser Nighthawk (Chordeiles acutipennis)","ispublic":1,"isfriend":0,"isfamily":0},{"id":"52665062998","owner":"32402405@N08","secret":"bdacbfb8fd","server":"65535","farm":66,"title":"Bacurau de Asa Fina (Lesser Nighthawk) - Chordeiles acutipennis (Hermann, 1783)","ispublic":1,"isfriend":0,"isfamily":0},{"id":"52661268172","owner":"132165466@N08","secret":"80ba88b1c2","server":"65535","farm":66,"title":"Lesser Nighthawk","ispublic":1,"isfriend":0,"isfamily":0},{"id":"52650306556","owner":"131708321@N02","secret":"66940cf414","server":"65535","farm":66,"title":"Lesser Nighthawk (Chordeiles acutipennis), Sisal, Yucat\u00e1n, Mexico","ispublic":1,"isfriend":0,"isfamily":0},{"id":"52486988493","owner":"48938938@N04","secret":"87d286ee7c","server":"65535","farm":66,"title":"Lesser Nighthawk_Chordeiles acutipennis_Ascanio_Surama_Guyana_DZ3A2611","ispublic":1,"isfriend":0,"isfamily":0},{"id":"52425655330","owner":"21147276@N03","secret":"8d4d47d956","server":"65535","farm":66,"title":"Attention!","ispublic":1,"isfriend":0,"isfamily":0},{"id":"52371156412","owner":"21147276@N03","secret":"120b986126","server":"65535","farm":66,"title":"Half Asleep","ispublic":1,"isfriend":0,"isfamily":0},{"id":"52323044381","owner":"26371261@N00","secret":"a427c6a082","server":"65535","farm":66,"title":"Lesser Nighthawk, Chordeiles acutipennis","ispublic":1,"isfriend":0,"isfamily":0},{"id":"52264194617","owner":"26371261@N00","secret":"3625a7fbd7","server":"65535","farm":66,"title":"Lesser Nighthawk, Chordeiles acutipennis","ispublic":1,"isfriend":0,"isfamily":0},{"id":"52265159776","owner":"26371261@N00","secret":"a3086c488a","server":"65535","farm":66,"title":"Lesser Nighthawk, Chordeiles acutipennis","ispublic":1,"isfriend":0,"isfamily":0},{"id":"52238430967","owner":"21558080@N07","secret":"d9731a2093","server":"65535","farm":66,"title":"Lesser Nighthawk (Chordeiles acutipennis)","ispublic":1,"isfriend":0,"isfamily":0},{"id":"52170839660","owner":"29170368@N03","secret":"9aa7caaaf9","server":"65535","farm":66,"title":"Lesser Nighthawk","ispublic":1,"isfriend":0,"isfamily":0},{"id":"52153711433","owner":"87727332@N08","secret":"b6a56a3161","server":"65535","farm":66,"title":"Olhar de bacurau (Chordeiles acutipennis)","ispublic":1,"isfriend":0,"isfamily":0},{"id":"52103377066","owner":"183736567@N07","secret":"619f64ee2a","server":"65535","farm":66,"title":"Lesser Nighthawk (Chordeiles acutipennis) juvenile resting","ispublic":1,"isfriend":0,"isfamily":0},{"id":"52087926771","owner":"65788177@N02","secret":"dc2da1344f","server":"65535","farm":66,"title":"Lesser Nighthawk","ispublic":1,"isfriend":0,"isfamily":0},{"id":"52040606506","owner":"22420387@N07","secret":"431d109fba","server":"65535","farm":66,"title":"DEL_2149-LR","ispublic":1,"isfriend":0,"isfamily":0},{"id":"52040676964","owner":"22420387@N07","secret":"689bd4828e","server":"65535","farm":66,"title":"Lesser Nighthawk - DEL_2054-LRwm","ispublic":1,"isfriend":0,"isfamily":0},{"id":"52040676999","owner":"22420387@N07","secret":"8cd4f39996","server":"65535","farm":66,"title":"Lesser Nighthawk - DEL_2137-LRwm","ispublic":1,"isfriend":0,"isfamily":0},{"id":"52040938950","owner":"22420387@N07","secret":"05a7b2f2a1","server":"65535","farm":66,"title":"Lesser Nighthawk - DEL_2094-LRwm","ispublic":1,"isfriend":0,"isfamily":0},{"id":"51986583706","owner":"126271444@N08","secret":"c9bc8825fe","server":"65535","farm":66,"title":"Lesser Nighthawk (Chordeiles acutipennis)","ispublic":1,"isfriend":0,"isfamily":0},{"id":"51931530482","owner":"94867072@N05","secret":"0844f9af89","server":"65535","farm":66,"title":"Chordeiles acutipennis","ispublic":1,"isfriend":0,"isfamily":0},{"id":"51829592324","owner":"95747238@N07","secret":"7c937737de","server":"65535","farm":66,"title":"Chordeiles acutipennis 1","ispublic":1,"isfriend":0,"isfamily":0},{"id":"51829364823","owner":"95747238@N07","secret":"1b09834e3a","server":"65535","farm":66,"title":"Chordeiles acutipennis 3","ispublic":1,"isfriend":0,"isfamily":0},{"id":"51382788953","owner":"69947563@N07","secret":"501eb577de","server":"65535","farm":66,"title":"Lesser Nighthawk - Pima County, Arizona, United States","ispublic":1,"isfriend":0,"isfamily":0},{"id":"51361145063","owner":"39445433@N02","secret":"c91eee9eb9","server":"65535","farm":66,"title":"Lesser Nighthawk","ispublic":1,"isfriend":0,"isfamily":0},{"id":"51331849919","owner":"33106392@N08","secret":"67e063b314","server":"65535","farm":66,"title":"Lesser Nighthawk","ispublic":1,"isfriend":0,"isfamily":0},{"id":"51312971454","owner":"33610210@N05","secret":"9b1bf02a10","server":"65535","farm":66,"title":"Lesser Nighthawk, Chordeiles acutipennis","ispublic":1,"isfriend":0,"isfamily":0},{"id":"51241039810","owner":"32402405@N08","secret":"13f29f6d5f","server":"65535","farm":66,"title":"Bacurau de Asa Fina (Lesser Nighthawk) - Chordeiles acutipennis (Hermann, 1783)","ispublic":1,"isfriend":0,"isfamily":0},{"id":"51193702702","owner":"56983940@N06","secret":"21194e25b9","server":"65535","farm":66,"title":"Lesser Nighthawk","ispublic":1,"isfriend":0,"isfamily":0},{"id":"50959806436","owner":"9765210@N03","secret":"b6e4e43659","server":"65535","farm":66,"title":"lesser nighthawk (Chordeiles acutipennis)","ispublic":1,"isfriend":0,"isfamily":0},{"id":"50842128367","owner":"191534235@N04","secret":"6d4e32c6d6","server":"65535","farm":66,"title":"Engoulevent minime - Chordeiles acutipennis","ispublic":1,"isfriend":0,"isfamily":0},{"id":"50772781453","owner":"190773540@N03","secret":"013f14fc88","server":"65535","farm":66,"title":"Lesser Nighthawk","ispublic":1,"isfriend":0,"isfamily":0},{"id":"50323315331","owner":"61021753@N02","secret":"b861f311ec","server":"65535","farm":66,"title":"n198_w1150","ispublic":1,"isfriend":0,"isfamily":0},{"id":"50210870991","owner":"79666906@N05","secret":"c7ba465a9c","server":"65535","farm":66,"title":"Lesser Nighthawk","ispublic":1,"isfriend":0,"isfamily":0},{"id":"50153096392","owner":"26096524@N03","secret":"3c47172550","server":"65535","farm":66,"title":"Lesser Nighthawk (Chordeiles acutipennis)","ispublic":1,"isfriend":0,"isfamily":0},{"id":"50145157827","owner":"61021753@N02","secret":"8458826165","server":"65535","farm":66,"title":"n388_w1150","ispublic":1,"isfriend":0,"isfamily":0},{"id":"50093185552","owner":"101227797@N03","secret":"1066652674","server":"65535","farm":66,"title":"Lesser Nighthawk","ispublic":1,"isfriend":0,"isfamily":0},{"id":"49939184841","owner":"119787485@N07","secret":"ae174741b1","server":"65535","farm":66,"title":"Lesser Nighthawk (Chordeiles acutipennis micromeris) - 20110118-02","ispublic":1,"isfriend":0,"isfamily":0},{"id":"49913716328","owner":"130406067@N03","secret":"602da76224","server":"65535","farm":66,"title":"LENI female_MG_6513","ispublic":1,"isfriend":0,"isfamily":0},{"id":"49913715398","owner":"130406067@N03","secret":"f39df430bd","server":"65535","farm":66,"title":"LENI_MG_6507","ispublic":1,"isfriend":0,"isfamily":0},{"id":"49884122107","owner":"185959967@N05","secret":"efd4f785d8","server":"65535","farm":66,"title":"Lesser Nighthawk (Chordeiles acutipennis)","ispublic":1,"isfriend":0,"isfamily":0},{"id":"49815912736","owner":"33610210@N05","secret":"f84fc2137c","server":"65535","farm":66,"title":"Lesser Nighthawk, Chordeiles acutipennis","ispublic":1,"isfriend":0,"isfamily":0},{"id":"49477625468","owner":"186748160@N02","secret":"b01461a7bd","server":"65535","farm":66,"title":"Lesser nighhawk -1","ispublic":1,"isfriend":0,"isfamily":0},{"id":"49465921592","owner":"130406067@N03","secret":"caa10144d0","server":"65535","farm":66,"title":"Lesser Nighthawk_28A9739","ispublic":1,"isfriend":0,"isfamily":0},{"id":"49123436706","owner":"52363379@N07","secret":"95e4edb571","server":"65535","farm":66,"title":"Chordeiles acutipennis","ispublic":1,"isfriend":0,"isfamily":0},{"id":"48850977516","owner":"21558080@N07","secret":"c541645d02","server":"65535","farm":66,"title":"Lesser Nighthawk (Chordeiles acutipennis) (sp. # 285)","ispublic":1,"isfriend":0,"isfamily":0},{"id":"48849914303","owner":"21182099@N05","secret":"c5951ccf53","server":"65535","farm":66,"title":"Lesser Nighthawk (Chordeiles acutipennis)","ispublic":1,"isfriend":0,"isfamily":0},{"id":"48808872108","owner":"33820263@N07","secret":"c2b9945708","server":"65535","farm":66,"title":"Lesser Nighthawk","ispublic":1,"isfriend":0,"isfamily":0},{"id":"48773727812","owner":"62043870@N05","secret":"28bcd488b0","server":"65535","farm":66,"title":"Lesser Nighthawk, Chordeiles acutipennis","ispublic":1,"isfriend":0,"isfamily":0},{"id":"48473714986","owner":"33820263@N07","secret":"d6f376c0ea","server":"65535","farm":66,"title":"Lesser Nighthawk","ispublic":1,"isfriend":0,"isfamily":0},{"id":"48473861507","owner":"33820263@N07","secret":"73f0b4eb90","server":"65535","farm":66,"title":"Lesser Nighthawk","ispublic":1,"isfriend":0,"isfamily":0},{"id":"48473713966","owner":"33820263@N07","secret":"e7744a013e","server":"65535","farm":66,"title":"Lesser Nighthawk","ispublic":1,"isfriend":0,"isfamily":0},{"id":"48445914576","owner":"76454790@N02","secret":"9a01678475","server":"65535","farm":66,"title":"Lesser Nighthawk (Chordeiles acutipennis)","ispublic":1,"isfriend":0,"isfamily":0},{"id":"48445914301","owner":"76454790@N02","secret":"c43817a4d9","server":"65535","farm":66,"title":"Lesser Nighthawk (Chordeiles acutipennis)","ispublic":1,"isfriend":0,"isfamily":0},{"id":"48281899516","owner":"33820263@N07","secret":"bb248c5238","server":"65535","farm":66,"title":"Lesser Nighthawk","ispublic":1,"isfriend":0,"isfamily":0},{"id":"52580941633","owner":"153973412@N04","secret":"e0bdba6fbd","server":"65535","farm":66,"title":"Lesser Nighthawk-Chordeiles acutipennis, Portal, AZ","ispublic":1,"isfriend":0,"isfamily":0},{"id":"52486718869","owner":"48938938@N04","secret":"bef3563f60","server":"65535","farm":66,"title":"Lesser Nighthawk_Chordeiles acutipennis_Ascanio_Surama_Guyana_DZ3A2615","ispublic":1,"isfriend":0,"isfamily":0},{"id":"52485943382","owner":"48938938@N04","secret":"99f68d3d24","server":"65535","farm":66,"title":"Lesser Nighthawk_Chordeiles acutipennis_Ascanio_Surama_Guyana_DZ3A2616","ispublic":1,"isfriend":0,"isfamily":0},{"id":"52480406188","owner":"109544413@N05","secret":"748bcd1fa2","server":"65535","farm":66,"title":"Lesser Nighthawk","ispublic":1,"isfriend":0,"isfamily":0},{"id":"52427379779","owner":"91620959@N08","secret":"d93a2279e0","server":"65535","farm":66,"title":"Lesser nighthawk (Chordeiles acutipennis)","ispublic":1,"isfriend":0,"isfamily":0},{"id":"52426588302","owner":"91620959@N08","secret":"fcb6136542","server":"65535","farm":66,"title":"Lesser nighthawk (Chordeiles acutipennis)","ispublic":1,"isfriend":0,"isfamily":0},{"id":"52040989390","owner":"22420387@N07","secret":"6def18e885","server":"0","farm":0,"title":"Lesser Nighthawk - DEL_2241","ispublic":1,"isfriend":0,"isfamily":0},{"id":"52024985529","owner":"182381287@N07","secret":"87e3cfaf61","server":"65535","farm":66,"title":"Bacurau-de-asa-fina (Chordeiles acutipennis","ispublic":1,"isfriend":0,"isfamily":0},{"id":"51864740045","owner":"193010058@N08","secret":"65fda400ed","server":"65535","farm":66,"title":"Lesser Nighthawk (Chordeiles acutipennis)","ispublic":1,"isfriend":0,"isfamily":0},{"id":"51828297637","owner":"95747238@N07","secret":"d2aeac2068","server":"65535","farm":66,"title":"Chordeiles acutipennis 2","ispublic":1,"isfriend":0,"isfamily":0},{"id":"51829973085","owner":"95747238@N07","secret":"417aa31fd2","server":"65535","farm":66,"title":"Chordeiles acutipennis 4","ispublic":1,"isfriend":0,"isfamily":0},{"id":"51752423602","owner":"13451078@N03","secret":"b4b8ba6e60","server":"65535","farm":66,"title":"Lesser Nighthawk (Chordeiles acutipennis)","ispublic":1,"isfriend":0,"isfamily":0},{"id":"51347107785","owner":"97697339@N05","secret":"6055d405e7","server":"65535","farm":66,"title":"Lesser Nighthawk (Chordeiles acutipennis)","ispublic":1,"isfriend":0,"isfamily":0},{"id":"51310199474","owner":"190931891@N05","secret":"8c40afe512","server":"65535","farm":66,"title":"Bacurau-de-asa-fina (Chordeiles acutipennis)","ispublic":1,"isfriend":0,"isfamily":0},{"id":"51269632149","owner":"193196961@N03","secret":"c1d52d85c8","server":"65535","farm":66,"title":"73 Common night hawk-Chordeiles acutipennis","ispublic":1,"isfriend":0,"isfamily":0},{"id":"50773549456","owner":"190773540@N03","secret":"1b1c73a285","server":"65535","farm":66,"title":"Lesser Nighthawk","ispublic":1,"isfriend":0,"isfamily":0},{"id":"50100247338","owner":"45505361@N08","secret":"16afa2cc71","server":"65535","farm":66,"title":"Chordeiles acutipennis","ispublic":1,"isfriend":0,"isfamily":0},{"id":"50020549367","owner":"189015176@N08","secret":"30f5ea485f","server":"65535","farm":66,"title":"Lesser Nighthawk, June 2020","ispublic":1,"isfriend":0,"isfamily":0},{"id":"49770253253","owner":"95758886@N06","secret":"2f180215c5","server":"65535","farm":66,"title":"Bacurau-de-asa-fina (Chordeiles acutipennis)_4798 FF","ispublic":1,"isfriend":0,"isfamily":0},{"id":"49260590186","owner":"185604737@N04","secret":"5aa39d52b0","server":"65535","farm":66,"title":"Chordeiles acutipennis_26A1528","ispublic":1,"isfriend":0,"isfamily":0},{"id":"49260589526","owner":"185604737@N04","secret":"8dc76069c8","server":"65535","farm":66,"title":"Chordeiles acutipennis_DSC9450","ispublic":1,"isfriend":0,"isfamily":0},{"id":"48998346037","owner":"77128742@N06","secret":"3f08856686","server":"65535","farm":66,"title":"Kleine Ekuadornachtschwalbe_Chordeiles acutipennis aequatorialis-3","ispublic":1,"isfriend":0,"isfamily":0},{"id":"48838321733","owner":"66108011@N04","secret":"f0bb791c67","server":"65535","farm":66,"title":"Lesser Nighthawk","ispublic":1,"isfriend":0,"isfamily":0},{"id":"48678545693","owner":"98688868@N06","secret":"b6f6930533","server":"65535","farm":66,"title":"Lesser Nighthawk (Chordeiles acutipennis)","ispublic":1,"isfriend":0,"isfamily":0},{"id":"48659108923","owner":"26803925@N05","secret":"d8b5de8a8d","server":"65535","farm":66,"title":"Lesser Nighthawk (Chordeiles acutipennis) 01-29-2005 Santa Ana NWR (LTC 059), Hidalgo Co. TX 2","ispublic":1,"isfriend":0,"isfamily":0},{"id":"48323324806","owner":"26803925@N05","secret":"2eeba2eed8","server":"65535","farm":66,"title":"Lesser Nighthawk (Chordeiles acutipennis) 06-21-2019 Evelyn Hallman Park, Maricopa Co. AZ 2","ispublic":1,"isfriend":0,"isfamily":0},{"id":"48318342457","owner":"26803925@N05","secret":"411898a265","server":"65535","farm":66,"title":"Lesser Nighthawk (Chordeiles acutipennis) 06-20-2019 Tempe Women's Club Park, Maricopa Co. AZ 2","ispublic":1,"isfriend":0,"isfamily":0},{"id":"48318342502","owner":"26803925@N05","secret":"38e2149cd9","server":"65535","farm":66,"title":"Lesser Nighthawk (Chordeiles acutipennis) 06-20-2019 Tempe Women's Club Park, Maricopa Co. AZ 6","ispublic":1,"isfriend":0,"isfamily":0},{"id":"48178424351","owner":"48912028@N05","secret":"6c3125f8db","server":"65535","farm":66,"title":"Lesser Nighthawk, Chordeiles acutipennis","ispublic":1,"isfriend":0,"isfamily":0},{"id":"48033748197","owner":"181847212@N05","secret":"e626ab7614","server":"65535","farm":66,"title":"Lesser Nighthawk (Chordeiles acutipennis)","ispublic":1,"isfriend":0,"isfamily":0},{"id":"48033636621","owner":"181847212@N05","secret":"48dedbe3c0","server":"65535","farm":66,"title":"Lesser Nighthawk (Chordeiles acutipennis)","ispublic":1,"isfriend":0,"isfamily":0},{"id":"48033680793","owner":"181847212@N05","secret":"77226eb326","server":"65535","farm":66,"title":"Lesser Nighthawk (Chordeiles acutipennis)","ispublic":1,"isfriend":0,"isfamily":0},{"id":"48033635971","owner":"181847212@N05","secret":"50412785fb","server":"65535","farm":66,"title":"Lesser Nighthawk (Chordeiles acutipennis)","ispublic":1,"isfriend":0,"isfamily":0},{"id":"48033680243","owner":"181847212@N05","secret":"87ab1a1eaa","server":"65535","farm":66,"title":"Lesser Nighthawk (Chordeiles acutipennis)","ispublic":1,"isfriend":0,"isfamily":0},{"id":"48033635326","owner":"181847212@N05","secret":"3d72998004","server":"65535","farm":66,"title":"Lesser Nighthawk (Chordeiles acutipennis)","ispublic":1,"isfriend":0,"isfamily":0},{"id":"48033679503","owner":"181847212@N05","secret":"038e257117","server":"65535","farm":66,"title":"Lesser Nighthawk (Chordeiles acutipennis)","ispublic":1,"isfriend":0,"isfamily":0},{"id":"48033634626","owner":"181847212@N05","secret":"ff6ef375a8","server":"65535","farm":66,"title":"Lesser Nighthawk (Chordeiles acutipennis)","ispublic":1,"isfriend":0,"isfamily":0},{"id":"48033678793","owner":"181847212@N05","secret":"5aaacbcdf4","server":"65535","farm":66,"title":"Lesser Nighthawk (Chordeiles acutipennis)","ispublic":1,"isfriend":0,"isfamily":0},{"id":"48033744967","owner":"181847212@N05","secret":"c45fb2c746","server":"65535","farm":66,"title":"Lesser Nighthawk (Chordeiles acutipennis)","ispublic":1,"isfriend":0,"isfamily":0},{"id":"48033633701","owner":"181847212@N05","secret":"a8fa1d3f59","server":"65535","farm":66,"title":"Lesser Nighthawk (Chordeiles acutipennis)","ispublic":1,"isfriend":0,"isfamily":0},{"id":"48033744352","owner":"181847212@N05","secret":"00bc88194d","server":"65535","farm":66,"title":"Lesser Nighthawk (Chordeiles acutipennis)","ispublic":1,"isfriend":0,"isfamily":0}]},"stat":"ok"}