{"photos":{"page":1,"pages":59,"perpage":100,"total":5884,"photo":[{"id":"52722604302","owner":"12639178@N07","secret":"5880d5952b","server":"65535","farm":66,"title":"Kleiner Gelbschenkel","ispublic":1,"isfriend":0,"isfamily":0},{"id":"52720718962","owner":"77128742@N06","secret":"7146b295a8","server":"65535","farm":66,"title":"Kleiner Gelbschenkel_Tringa flavipes-32","ispublic":1,"isfriend":0,"isfamily":0},{"id":"52706931465","owner":"26128697@N07","secret":"589d49b933","server":"65535","farm":66,"title":"ma\u00e7arico-de-perna-amarela (Tringa flavipes)","ispublic":1,"isfriend":0,"isfamily":0},{"id":"52707006428","owner":"26128697@N07","secret":"335b06db28","server":"65535","farm":66,"title":"ma\u00e7arico-de-perna-amarela (Tringa flavipes)","ispublic":1,"isfriend":0,"isfamily":0},{"id":"52707006153","owner":"26128697@N07","secret":"d666ec1205","server":"65535","farm":66,"title":"ma\u00e7arico-de-perna-amarela (Tringa flavipes)","ispublic":1,"isfriend":0,"isfamily":0},{"id":"52703267491","owner":"59206851@N00","secret":"57affb8d06","server":"65535","farm":66,"title":"DSC_1607.jpg","ispublic":1,"isfriend":0,"isfamily":0},{"id":"52688156063","owner":"131779834@N08","secret":"30ded47e65","server":"65535","farm":66,"title":"Yellowleg Wing Stretching","ispublic":1,"isfriend":0,"isfamily":0},{"id":"52663431909","owner":"52363379@N07","secret":"5b1e6a7d96","server":"65535","farm":66,"title":"Tringa flavipes","ispublic":1,"isfriend":0,"isfamily":0},{"id":"52662147993","owner":"7640100@N02","secret":"a907c2c6ff","server":"65535","farm":66,"title":"Petit Chevalier \/ Lesser Yellowlegs [Tringa flavipes]","ispublic":1,"isfriend":0,"isfamily":0},{"id":"52659366555","owner":"21606110@N08","secret":"262fbd4eaf","server":"65535","farm":66,"title":"Lesser Yellowlegs","ispublic":1,"isfriend":0,"isfamily":0},{"id":"52659412713","owner":"21606110@N08","secret":"a50c5b6bef","server":"65535","farm":66,"title":"Lesser Yellowlegs","ispublic":1,"isfriend":0,"isfamily":0},{"id":"52645703090","owner":"8013969@N03","secret":"74d4b98ca6","server":"65535","farm":66,"title":"Tringa flavipes DFL btr22-4","ispublic":1,"isfriend":0,"isfamily":0},{"id":"52634413643","owner":"54546220@N00","secret":"1a68be1c52","server":"65535","farm":66,"title":"Playeros","ispublic":1,"isfriend":0,"isfamily":0},{"id":"52634413598","owner":"54546220@N00","secret":"f3e6365c67","server":"65535","farm":66,"title":"Playeros","ispublic":1,"isfriend":0,"isfamily":0},{"id":"52633030071","owner":"195179412@N07","secret":"edf2a03204","server":"65535","farm":66,"title":"PITOTOY CHICO, Tringa flavipes","ispublic":1,"isfriend":0,"isfamily":0},{"id":"52626961623","owner":"50783922@N06","secret":"7ce97a77f1","server":"65535","farm":66,"title":"Lesser Yellowlegs (Tringa flavipes)","ispublic":1,"isfriend":0,"isfamily":0},{"id":"52625971342","owner":"50783922@N06","secret":"bd671a8dcf","server":"65535","farm":66,"title":"Lesser Yellowlegs (Tringa flavipes)","ispublic":1,"isfriend":0,"isfamily":0},{"id":"52625971287","owner":"50783922@N06","secret":"a9099d02a3","server":"65535","farm":66,"title":"Lesser Yellowlegs (Tringa flavipes)","ispublic":1,"isfriend":0,"isfamily":0},{"id":"52626310624","owner":"186211059@N06","secret":"f8614960e0","server":"65535","farm":66,"title":"Lesser Yellowlegs","ispublic":1,"isfriend":0,"isfamily":0},{"id":"52626144239","owner":"131779834@N08","secret":"3d818345d3","server":"65535","farm":66,"title":"Fast Moving...","ispublic":1,"isfriend":0,"isfamily":0},{"id":"52621364667","owner":"42034882@N00","secret":"f168672644","server":"65535","farm":66,"title":"Can cross international borders more easily than you.","ispublic":1,"isfriend":0,"isfamily":0},{"id":"52593157706","owner":"161596692@N07","secret":"635f2da587","server":"65535","farm":66,"title":"Lesser Yellowlegs (Tringa flavipes)","ispublic":1,"isfriend":0,"isfamily":0},{"id":"52582634524","owner":"124995824@N08","secret":"9cc02dd477","server":"65535","farm":66,"title":"Lesser Yellowlegs - Tringa flavipes","ispublic":1,"isfriend":0,"isfamily":0},{"id":"52580820558","owner":"153973412@N04","secret":"06c45f1b92","server":"65535","farm":66,"title":"Lesser Yellowlegs-Tringa flavipes, Iowa City, IA","ispublic":1,"isfriend":0,"isfamily":0},{"id":"52579816068","owner":"150374485@N05","secret":"1e33ecce07","server":"65535","farm":66,"title":"Petit Chevalier plumage hivernal--Lesser Yellowlegs in winter plumage (Tringa flavipes)","ispublic":1,"isfriend":0,"isfamily":0},{"id":"52568704162","owner":"124995824@N08","secret":"eaa5e23821","server":"65535","farm":66,"title":"Lesser Yellowlegs - Tringa flavipes","ispublic":1,"isfriend":0,"isfamily":0},{"id":"52565288750","owner":"147283349@N08","secret":"31ca5914f5","server":"65535","farm":66,"title":"Tringa flavipes","ispublic":1,"isfriend":0,"isfamily":0},{"id":"52564352584","owner":"42034882@N00","secret":"7f246c81cc","server":"65535","farm":66,"title":"Bigger than a breadbox or smaller than a breadbox?","ispublic":1,"isfriend":0,"isfamily":0},{"id":"52563230630","owner":"147283349@N08","secret":"78c9689c15","server":"65535","farm":66,"title":"Tringa flavipes","ispublic":1,"isfriend":0,"isfamily":0},{"id":"52550402477","owner":"127954172@N03","secret":"56fa155367","server":"65535","farm":66,"title":"pitotoy_NGR2473","ispublic":1,"isfriend":0,"isfamily":0},{"id":"52546741829","owner":"70295563@N00","secret":"6c676e5d55","server":"65535","farm":66,"title":"Standing tall","ispublic":1,"isfriend":0,"isfamily":0},{"id":"52532904144","owner":"185671185@N06","secret":"25cf1ed679","server":"65535","farm":66,"title":"Pitotoy Chico - Lesser Yellowlegs","ispublic":1,"isfriend":0,"isfamily":0},{"id":"52528146613","owner":"9243885@N07","secret":"5517a96d04","server":"65535","farm":66,"title":"2022_01_12_5DMk4_53522","ispublic":1,"isfriend":0,"isfamily":0},{"id":"52516480214","owner":"135715507@N06","secret":"17595cb11e","server":"65535","farm":66,"title":"Lesser Yellowlegs, juvenile","ispublic":1,"isfriend":0,"isfamily":0},{"id":"52516238268","owner":"124995824@N08","secret":"e266714b8f","server":"65535","farm":66,"title":"Lesser Yellowlegs - Tringa flavipes","ispublic":1,"isfriend":0,"isfamily":0},{"id":"52507549771","owner":"92361032@N05","secret":"9ea3d0c19d","server":"65535","farm":66,"title":"Lesser Yellowlegs \/ Petit Chevalier ( Richard )","ispublic":1,"isfriend":0,"isfamily":0},{"id":"52501143761","owner":"126355457@N02","secret":"98a32a42f7","server":"65535","farm":66,"title":"Lesser Yellowlegs","ispublic":1,"isfriend":0,"isfamily":0},{"id":"52501419919","owner":"126355457@N02","secret":"4896e75ab8","server":"65535","farm":66,"title":"Lesser Yellowlegs","ispublic":1,"isfriend":0,"isfamily":0},{"id":"52501692898","owner":"126355457@N02","secret":"8ebbec0d2b","server":"65535","farm":66,"title":"Lesser Yellowlegs","ispublic":1,"isfriend":0,"isfamily":0},{"id":"52501692713","owner":"126355457@N02","secret":"1cd63edf5f","server":"65535","farm":66,"title":"Lesser Yellowlegs","ispublic":1,"isfriend":0,"isfamily":0},{"id":"52501143221","owner":"126355457@N02","secret":"856a25c017","server":"65535","farm":66,"title":"Lesser Yellowlegs","ispublic":1,"isfriend":0,"isfamily":0},{"id":"52501142646","owner":"126355457@N02","secret":"25824738b8","server":"65535","farm":66,"title":"Lesser Yellowlegs","ispublic":1,"isfriend":0,"isfamily":0},{"id":"52501616145","owner":"126355457@N02","secret":"7cb5ec01e8","server":"65535","farm":66,"title":"Lesser Yellowlegs","ispublic":1,"isfriend":0,"isfamily":0},{"id":"52501691848","owner":"126355457@N02","secret":"9f8a6ea4e3","server":"65535","farm":66,"title":"Lesser Yellowlegs","ispublic":1,"isfriend":0,"isfamily":0},{"id":"52501418289","owner":"126355457@N02","secret":"33887f48fd","server":"65535","farm":66,"title":"Lesser Yellowlegs","ispublic":1,"isfriend":0,"isfamily":0},{"id":"52292289927","owner":"131779834@N08","secret":"0cfa8a5b4d","server":"65535","farm":66,"title":"Short Flight","ispublic":1,"isfriend":0,"isfamily":0},{"id":"52491102125","owner":"112292182@N02","secret":"d0f4a999c6","server":"65535","farm":66,"title":"Lesser Yellowlegs","ispublic":1,"isfriend":0,"isfamily":0},{"id":"52489531276","owner":"39445433@N02","secret":"7a8f9b8ba2","server":"65535","farm":66,"title":"Lesser Yellowlegs","ispublic":1,"isfriend":0,"isfamily":0},{"id":"52481024500","owner":"113457946@N06","secret":"14e8e46de4","server":"65535","farm":66,"title":"Lesser Yellowlegs (Tringa flavipes)","ispublic":1,"isfriend":0,"isfamily":0},{"id":"52480560651","owner":"113457946@N06","secret":"cea6dce6ca","server":"65535","farm":66,"title":"Lesser Yellowlegs (Tringa flavipes)","ispublic":1,"isfriend":0,"isfamily":0},{"id":"52476230589","owner":"54059915@N07","secret":"ab47ecf241","server":"65535","farm":66,"title":"Patch of grass","ispublic":1,"isfriend":0,"isfamily":0},{"id":"52475821429","owner":"136620261@N06","secret":"148f02bdb7","server":"65535","farm":66,"title":"Petit chevalier, Tringa flavipes, Lesser Yellowlegs-2276-Edit.jpg","ispublic":1,"isfriend":0,"isfamily":0},{"id":"52472939720","owner":"150374485@N05","secret":"c190a8e003","server":"65535","farm":66,"title":"Petit Chevalier plumage hivernal--Lesser Yellowlegs winter plumage (Tringa flavipes) (IN EXPLORE no-108)","ispublic":1,"isfriend":0,"isfamily":0},{"id":"52465311039","owner":"135715507@N06","secret":"b98c09eb3a","server":"65535","farm":66,"title":"Lesser Yellowlegs, juvenile","ispublic":1,"isfriend":0,"isfamily":0},{"id":"52462372661","owner":"128537732@N06","secret":"69b18949ec","server":"65535","farm":66,"title":"Lesser Yellowlegs (Tringa flavipes)","ispublic":1,"isfriend":0,"isfamily":0},{"id":"52457598737","owner":"54059915@N07","secret":"c0b19cc956","server":"65535","farm":66,"title":"Green in the golden hour","ispublic":1,"isfriend":0,"isfamily":0},{"id":"52457354952","owner":"135715507@N06","secret":"61679cbe75","server":"65535","farm":66,"title":"Lesser Yellowlegs, juvenile","ispublic":1,"isfriend":0,"isfamily":0},{"id":"52456396399","owner":"135715507@N06","secret":"e4ecc01ebf","server":"65535","farm":66,"title":"Lesser Yellowlegs","ispublic":1,"isfriend":0,"isfamily":0},{"id":"52452751567","owner":"163667952@N05","secret":"f8249b0742","server":"65535","farm":66,"title":"Lesser Yellowlegs","ispublic":1,"isfriend":0,"isfamily":0},{"id":"52442121828","owner":"142014347@N02","secret":"13fef79878","server":"65535","farm":66,"title":"Lesser Yellowlegs - Tringa flavipes","ispublic":1,"isfriend":0,"isfamily":0},{"id":"52440880024","owner":"28631427@N00","secret":"bf752bd58c","server":"65535","farm":66,"title":"Lesser Yellowlegs 1","ispublic":1,"isfriend":0,"isfamily":0},{"id":"52441127103","owner":"28631427@N00","secret":"da9662e308","server":"65535","farm":66,"title":"Lesser Yellowlegs 2","ispublic":1,"isfriend":0,"isfamily":0},{"id":"52440600991","owner":"28631427@N00","secret":"7f5eb5ff05","server":"65535","farm":66,"title":"Lesser Yellowlegs 3","ispublic":1,"isfriend":0,"isfamily":0},{"id":"52656562850","owner":"34238008@N02","secret":"560e8a299b","server":"65535","farm":66,"title":"Lesser Yellowlegs (Tringa flavipes)","ispublic":1,"isfriend":0,"isfamily":0},{"id":"52649240513","owner":"52363379@N07","secret":"25fb946450","server":"65535","farm":66,"title":"Tringa flavipes","ispublic":1,"isfriend":0,"isfamily":0},{"id":"52643667790","owner":"8013969@N03","secret":"acddf6e6a3","server":"65535","farm":66,"title":"Tringa flavipes DFL btr22-1","ispublic":1,"isfriend":0,"isfamily":0},{"id":"52642723212","owner":"8013969@N03","secret":"08e8a8b60b","server":"65535","farm":66,"title":"Tringa flavipes DFL btr22-2","ispublic":1,"isfriend":0,"isfamily":0},{"id":"52626328534","owner":"186211059@N06","secret":"c715b083f0","server":"65535","farm":66,"title":"Lesser Yellowlegs","ispublic":1,"isfriend":0,"isfamily":0},{"id":"52626060721","owner":"186211059@N06","secret":"83f0dac338","server":"65535","farm":66,"title":"Lesser Yellowlegs","ispublic":1,"isfriend":0,"isfamily":0},{"id":"52616583248","owner":"41694014@N04","secret":"05caf1e26c","server":"65535","farm":66,"title":"Tringa flavipes","ispublic":1,"isfriend":0,"isfamily":0},{"id":"52593527139","owner":"76288515@N07","secret":"500a22a882","server":"65535","farm":66,"title":"Lesser Yellowlegs Tringa flavipes","ispublic":1,"isfriend":0,"isfamily":0},{"id":"52593693245","owner":"76288515@N07","secret":"860688db10","server":"65535","farm":66,"title":"Lesser Yellowlegs Tringa flavipes","ispublic":1,"isfriend":0,"isfamily":0},{"id":"52592783967","owner":"76288515@N07","secret":"4eeea79fdb","server":"65535","farm":66,"title":"Lesser Yellowlegs Tringa flavipes","ispublic":1,"isfriend":0,"isfamily":0},{"id":"52593265396","owner":"76288515@N07","secret":"386a8f5942","server":"65535","farm":66,"title":"Lesser Yellowlegs Tringa flavipes","ispublic":1,"isfriend":0,"isfamily":0},{"id":"52593786788","owner":"76288515@N07","secret":"5453306bf8","server":"65535","farm":66,"title":"Lesser Yellowlegs Tringa flavipes","ispublic":1,"isfriend":0,"isfamily":0},{"id":"52593786758","owner":"76288515@N07","secret":"819fd255a5","server":"65535","farm":66,"title":"Lesser Yellowlegs Tringa flavipes","ispublic":1,"isfriend":0,"isfamily":0},{"id":"52539550921","owner":"186193378@N07","secret":"705f37a279","server":"65535","farm":66,"title":"Ma\u00e7arico-de-perna-amarela (Tringa flavipes) Lesser Yellowlegs","ispublic":1,"isfriend":0,"isfamily":0},{"id":"52538930736","owner":"36685968@N00","secret":"dfbe568e8d","server":"65535","farm":66,"title":"Lesser Yellowlegs (Tringa flavipes)","ispublic":1,"isfriend":0,"isfamily":0},{"id":"52522872367","owner":"157928998@N02","secret":"03f4257c6f","server":"65535","farm":66,"title":"Perna-amarela-pequeno | Tringa flavipes | Lesser yellowlegs","ispublic":1,"isfriend":0,"isfamily":0},{"id":"52521081906","owner":"12639178@N07","secret":"7d934ae347","server":"65535","farm":66,"title":"kleiner Gelbschenkel, Praia Figueirinha, Brasilien","ispublic":1,"isfriend":0,"isfamily":0},{"id":"52503848578","owner":"124995824@N08","secret":"72ae864000","server":"65535","farm":66,"title":"Lesser Yellowlegs - Tringa flavipes","ispublic":1,"isfriend":0,"isfamily":0},{"id":"52503457468","owner":"37203410@N07","secret":"28d66e93b2","server":"65535","farm":66,"title":"Pitotoy Chico \/ Tringa flavipes","ispublic":1,"isfriend":0,"isfamily":0},{"id":"52495539214","owner":"64557331@N04","secret":"e4e634a021","server":"65535","farm":66,"title":"Lesser Yellowlegs - (Tringa flavipes)_08202022_3","ispublic":1,"isfriend":0,"isfamily":0},{"id":"52495539109","owner":"64557331@N04","secret":"e3b153ac07","server":"65535","farm":66,"title":"Lesser Yellowlegs - (Tringa flavipes)_08202022_2","ispublic":1,"isfriend":0,"isfamily":0},{"id":"52494771247","owner":"64557331@N04","secret":"33b1551f0d","server":"65535","farm":66,"title":"Lesser Yellowlegs - (Tringa flavipes)_08202022","ispublic":1,"isfriend":0,"isfamily":0},{"id":"52475950636","owner":"54059915@N07","secret":"4a6b0e97ac","server":"65535","farm":66,"title":"Both yellowlegs","ispublic":1,"isfriend":0,"isfamily":0},{"id":"52456123421","owner":"112292182@N02","secret":"c68d1c4111","server":"65535","farm":66,"title":"Lesser Yellowlegs","ispublic":1,"isfriend":0,"isfamily":0},{"id":"52451141615","owner":"29858032@N05","secret":"b25c352988","server":"65535","farm":66,"title":"Lesser yellowlegs - Tringa flavipes","ispublic":1,"isfriend":0,"isfamily":0},{"id":"52451141575","owner":"29858032@N05","secret":"cc9364ab7d","server":"65535","farm":66,"title":"Lesser yellowlegs - Tringa flavipes","ispublic":1,"isfriend":0,"isfamily":0},{"id":"52445270135","owner":"192760465@N05","secret":"a1c946450b","server":"65535","farm":66,"title":"Patas amarillas menor (Tringa flavipes)","ispublic":1,"isfriend":0,"isfamily":0},{"id":"52445341513","owner":"192760465@N05","secret":"0bdc71b27e","server":"65535","farm":66,"title":"Patas amarillas menor (Tringa flavipes)","ispublic":1,"isfriend":0,"isfamily":0},{"id":"52444346039","owner":"91827451@N06","secret":"a2ba7af253","server":"65535","farm":66,"title":"DSC_3322","ispublic":1,"isfriend":0,"isfamily":0},{"id":"52443067702","owner":"145489125@N03","secret":"0043b56eac","server":"65535","farm":66,"title":"Lesser Yellowlegs ( Tringa flavipes ) ... Saltholme","ispublic":1,"isfriend":0,"isfamily":0},{"id":"52443495994","owner":"192760465@N05","secret":"fd6bf32b77","server":"65535","farm":66,"title":"Patas amarillas menor (Tringa flavipes)","ispublic":1,"isfriend":0,"isfamily":0},{"id":"52443666320","owner":"192760465@N05","secret":"26e426408c","server":"65535","farm":66,"title":"Patas amarillas menor (Tringa flavipes)","ispublic":1,"isfriend":0,"isfamily":0},{"id":"52435421063","owner":"145489125@N03","secret":"6eb29e89e3","server":"65535","farm":66,"title":"Lesser Yellowlegs ( Tringa flavipes ) ... Saltholme , Teesside","ispublic":1,"isfriend":0,"isfamily":0},{"id":"52434380847","owner":"145489125@N03","secret":"770fab9273","server":"65535","farm":66,"title":"Lesser Yellowlegs ( Tringa flavipes ) ... Saltholme , Teesside","ispublic":1,"isfriend":0,"isfamily":0},{"id":"52432698401","owner":"52913721@N08","secret":"8e6174fccc","server":"65535","farm":66,"title":"Lesser Yellowlegs (Tringa flavipes)","ispublic":1,"isfriend":0,"isfamily":0},{"id":"52432921738","owner":"52913721@N08","secret":"41270b354e","server":"65535","farm":66,"title":"Lesser Yellowlegs (Tringa flavipes)","ispublic":1,"isfriend":0,"isfamily":0},{"id":"52432803175","owner":"52913721@N08","secret":"73c7a8028f","server":"65535","farm":66,"title":"Lesser Yellowlegs (Tringa flavipes)","ispublic":1,"isfriend":0,"isfamily":0}]},"stat":"ok"}