{"photos":{"page":1,"pages":32,"perpage":100,"total":3196,"photo":[{"id":"52788162009","owner":"100458723@N06","secret":"7e758a8913","server":"65535","farm":66,"title":"Lilac-breaster roller (Coracias caudatus) perched on a dead tree stump","ispublic":1,"isfriend":0,"isfamily":0},{"id":"52787720443","owner":"100458723@N06","secret":"6d395f3a8c","server":"65535","farm":66,"title":"Lilac-breasted roller (Coracias caudatus) perched on a termite mound","ispublic":1,"isfriend":0,"isfamily":0},{"id":"52780038713","owner":"82858958@N06","secret":"3bedd8aa73","server":"65535","farm":66,"title":"Gabelracke","ispublic":1,"isfriend":0,"isfamily":0},{"id":"52779371641","owner":"82858958@N06","secret":"758ddf53d9","server":"65535","farm":66,"title":"lilac-breasted roller","ispublic":1,"isfriend":0,"isfamily":0},{"id":"52779850108","owner":"82858958@N06","secret":"22a533a869","server":"65535","farm":66,"title":"lilac-breasted roller","ispublic":1,"isfriend":0,"isfamily":0},{"id":"52776930125","owner":"17719035@N00","secret":"eff66925cd","server":"65535","farm":66,"title":"Lilac-breasted Roller (Coracias caudatus)","ispublic":1,"isfriend":0,"isfamily":0},{"id":"52776542989","owner":"187458160@N06","secret":"d4be80b519","server":"65535","farm":66,"title":"roller4K","ispublic":1,"isfriend":0,"isfamily":0},{"id":"52773802101","owner":"42964440@N08","secret":"0878384daf","server":"65535","farm":66,"title":"Lilac-breasted Roller Portrait (Coracias caudatus)  2","ispublic":1,"isfriend":0,"isfamily":0},{"id":"52774092440","owner":"51928691@N04","secret":"99639e0a35","server":"65535","farm":66,"title":"Lilac-breasted Roller (Coracias caudatus) 1 012523","ispublic":1,"isfriend":0,"isfamily":0},{"id":"52774152273","owner":"51928691@N04","secret":"89955ae2e7","server":"65535","farm":66,"title":"Lilac-breasted Roller (Coracias caudatus) 2 012523","ispublic":1,"isfriend":0,"isfamily":0},{"id":"52774152193","owner":"51928691@N04","secret":"65533fd851","server":"65535","farm":66,"title":"Lilac-breasted Roller )Coracias caudatus) 3 012523","ispublic":1,"isfriend":0,"isfamily":0},{"id":"52774083555","owner":"51928691@N04","secret":"32da3f780b","server":"65535","farm":66,"title":"Lilac-breasted Roller (Coracias caudatus) 1 012323","ispublic":1,"isfriend":0,"isfamily":0},{"id":"52768734583","owner":"36274920@N05","secret":"246de33bf2","server":"65535","farm":66,"title":"Kruger NP, ZA - Mars 2023","ispublic":1,"isfriend":0,"isfamily":0},{"id":"52768729328","owner":"36274920@N05","secret":"3ba437f3cc","server":"65535","farm":66,"title":"Kruger NP, ZA - Mars 2023","ispublic":1,"isfriend":0,"isfamily":0},{"id":"52767574763","owner":"51928691@N04","secret":"09ede6a1fa","server":"65535","farm":66,"title":"Lilac-breasted Roller (Coracias caudatus) 1 013123","ispublic":1,"isfriend":0,"isfamily":0},{"id":"52767336574","owner":"51928691@N04","secret":"e0c5ccf78e","server":"65535","farm":66,"title":"Lilac-breasted Roller (Coracias caudatus) 1 013023","ispublic":1,"isfriend":0,"isfamily":0},{"id":"52767335294","owner":"51928691@N04","secret":"94a4e87617","server":"65535","farm":66,"title":"Lilac-breasted Roller (Coracias caudatus) 1 012923","ispublic":1,"isfriend":0,"isfamily":0},{"id":"52767567778","owner":"51928691@N04","secret":"9ab0240f14","server":"65535","farm":66,"title":"Lilac-breasted Roller (Coracias caudatus) 1 012823","ispublic":1,"isfriend":0,"isfamily":0},{"id":"52761960885","owner":"123597211@N03","secret":"6e1f8e89be","server":"65535","farm":66,"title":"Gabelschwanzracke (Coracias caudatus)","ispublic":1,"isfriend":0,"isfamily":0},{"id":"52761959625","owner":"123597211@N03","secret":"38a0e14237","server":"65535","farm":66,"title":"Gabelschwanzracke (Coracias caudatus)","ispublic":1,"isfriend":0,"isfamily":0},{"id":"52761803844","owner":"123597211@N03","secret":"023325b1e8","server":"65535","farm":66,"title":"Gabelschwanzracke (Coracias caudatus)","ispublic":1,"isfriend":0,"isfamily":0},{"id":"52761554026","owner":"123597211@N03","secret":"3088807c87","server":"65535","farm":66,"title":"Gabelschwanzracke (Coracias caudatus)","ispublic":1,"isfriend":0,"isfamily":0},{"id":"52761553436","owner":"123597211@N03","secret":"8b89c7676a","server":"65535","farm":66,"title":"Gabelschwanzracke (Coracias caudatus)","ispublic":1,"isfriend":0,"isfamily":0},{"id":"52762041473","owner":"123597211@N03","secret":"552a92539f","server":"65535","farm":66,"title":"Gabelschwanzracke (Coracias caudatus)","ispublic":1,"isfriend":0,"isfamily":0},{"id":"52760267766","owner":"28999461@N03","secret":"b85664af87","server":"65535","farm":66,"title":"Lilac-breasted Roller (Coracias Caudatus)","ispublic":1,"isfriend":0,"isfamily":0},{"id":"52752417936","owner":"26371261@N00","secret":"528781fb6a","server":"65535","farm":66,"title":"Lilac-breasted Roller, Coracias caudatus","ispublic":1,"isfriend":0,"isfamily":0},{"id":"52742542123","owner":"12639178@N07","secret":"0762ab10fc","server":"65535","farm":66,"title":"Belegbild Gabelracke, weit entfernt","ispublic":1,"isfriend":0,"isfamily":0},{"id":"52736223240","owner":"65695019@N07","secret":"4d647c417c","server":"65535","farm":66,"title":"Lilac-breasted Roller (Coracias caudatus) all puffed up ...","ispublic":1,"isfriend":0,"isfamily":0},{"id":"52735002547","owner":"42964440@N08","secret":"470f7df5a0","server":"65535","farm":66,"title":"Lilac-breasted Roller Portrait (Coracias caudatus)","ispublic":1,"isfriend":0,"isfamily":0},{"id":"52725455003","owner":"20886352@N00","secret":"6044ccaf58","server":"65535","farm":66,"title":"Lilac-Breasted Roller (Coracias caudatus)","ispublic":1,"isfriend":0,"isfamily":0},{"id":"52721450221","owner":"65695019@N07","secret":"765f903ca4","server":"65535","farm":66,"title":"Lilac-breasted Roller (Coracias caudatus) just caught an African Giant Centipede (Ethmostigmus trigonopodus)","ispublic":1,"isfriend":0,"isfamily":0},{"id":"52717504103","owner":"65695019@N07","secret":"c1bbea3ca0","server":"65535","farm":66,"title":"Lilac-breasted Roller (Coracias caudatus)","ispublic":1,"isfriend":0,"isfamily":0},{"id":"52707722802","owner":"26371261@N00","secret":"0e48541255","server":"65535","farm":66,"title":"Lilac-breasted Roller, Coracias caudatus","ispublic":1,"isfriend":0,"isfamily":0},{"id":"52706728738","owner":"26371261@N00","secret":"f66c2db628","server":"65535","farm":66,"title":"Lilac-breasted Roller, Coracias caudatus","ispublic":1,"isfriend":0,"isfamily":0},{"id":"52705540950","owner":"65695019@N07","secret":"d5265bd7fe","server":"65535","farm":66,"title":"Lilac-breasted Roller (Coracias caudatus)","ispublic":1,"isfriend":0,"isfamily":0},{"id":"52705312538","owner":"151109375@N08","secret":"aa3be19859","server":"65535","farm":66,"title":"An adult Lilac-breasted Roller - Easily the most beautiful bird I've been privileged to see and photograph in Africa","ispublic":1,"isfriend":0,"isfamily":0},{"id":"52701018385","owner":"58195583@N06","secret":"d3d5877052","server":"65535","farm":66,"title":"Lilac-breasted Roller, Coracias caudatus, Hwange National Park, Zimbabwe","ispublic":1,"isfriend":0,"isfamily":0},{"id":"52695960334","owner":"26371261@N00","secret":"09a2ef7497","server":"65535","farm":66,"title":"Lilac-breasted Roller, Coracias caudatus","ispublic":1,"isfriend":0,"isfamily":0},{"id":"52687574571","owner":"61316002@N02","secret":"5e6c01c65f","server":"65535","farm":66,"title":"LILBREROL caudatus 4080","ispublic":1,"isfriend":0,"isfamily":0},{"id":"52683652654","owner":"140318147@N08","secret":"b4aee4a150","server":"65535","farm":66,"title":"lilac-breasted roller (Coracias caudatus) L4A5358","ispublic":1,"isfriend":0,"isfamily":0},{"id":"52683652504","owner":"140318147@N08","secret":"1b609ba9ca","server":"65535","farm":66,"title":"lilac-breasted roller (Coracias caudatus) L4A5391","ispublic":1,"isfriend":0,"isfamily":0},{"id":"52683867673","owner":"140318147@N08","secret":"f30d2aa241","server":"65535","farm":66,"title":"lilac-breasted roller (Coracias caudatus) L4A6597","ispublic":1,"isfriend":0,"isfamily":0},{"id":"52683237856","owner":"140318147@N08","secret":"0a676caa9e","server":"65535","farm":66,"title":"lilac-breasted roller (Coracias caudatus) L4A2681","ispublic":1,"isfriend":0,"isfamily":0},{"id":"52683665000","owner":"140318147@N08","secret":"e092971560","server":"65535","farm":66,"title":"lilac-breasted roller (Coracias caudatus) L4A3578","ispublic":1,"isfriend":0,"isfamily":0},{"id":"52682573307","owner":"140318147@N08","secret":"8e1e9651fb","server":"65535","farm":66,"title":"lilac-breasted roller (Coracias caudatus) L4A2232","ispublic":1,"isfriend":0,"isfamily":0},{"id":"52682543617","owner":"140318147@N08","secret":"dcffce998d","server":"65535","farm":66,"title":"lilac-breasted roller (Coracias caudatus) L4A0116","ispublic":1,"isfriend":0,"isfamily":0},{"id":"52681976898","owner":"26371261@N00","secret":"2dbb755345","server":"65535","farm":66,"title":"Lilac-breasted Roller, Coracias caudatus","ispublic":1,"isfriend":0,"isfamily":0},{"id":"52681976748","owner":"26371261@N00","secret":"b77f55c60e","server":"65535","farm":66,"title":"Lilac-breasted Roller, Coracias caudatus","ispublic":1,"isfriend":0,"isfamily":0},{"id":"52679499531","owner":"26371261@N00","secret":"4ba949d953","server":"65535","farm":66,"title":"Lilac-breasted Roller, Coracias caudatus","ispublic":1,"isfriend":0,"isfamily":0},{"id":"52678558956","owner":"26371261@N00","secret":"cb0caaf123","server":"65535","farm":66,"title":"Lilac-breasted Roller, Coracias caudatus","ispublic":1,"isfriend":0,"isfamily":0},{"id":"52678958225","owner":"26371261@N00","secret":"098285e7a3","server":"65535","farm":66,"title":"Lilac-breasted Roller, Coracias caudatus","ispublic":1,"isfriend":0,"isfamily":0},{"id":"52674555362","owner":"157993014@N06","secret":"7d709b3209","server":"65535","farm":66,"title":"Rollier \u00e0 longs brins","ispublic":1,"isfriend":0,"isfamily":0},{"id":"52664748608","owner":"41039814@N08","secret":"59bbab8117","server":"65535","farm":66,"title":"Just sitting...","ispublic":1,"isfriend":0,"isfamily":0},{"id":"52632116612","owner":"82858958@N06","secret":"98dec3e38a","server":"65535","farm":66,"title":"Gabelracke","ispublic":1,"isfriend":0,"isfamily":0},{"id":"52623270360","owner":"56446000@N04","secret":"aaf690876e","server":"65535","farm":66,"title":"Lilac Leisure","ispublic":1,"isfriend":0,"isfamily":0},{"id":"52620053222","owner":"34428167@N05","secret":"9e72806299","server":"65535","farm":66,"title":"Angel on Wings!","ispublic":1,"isfriend":0,"isfamily":0},{"id":"52612048186","owner":"77017456@N03","secret":"e5e63f4c70","server":"65535","farm":66,"title":"Lilac-breasted Roller (coracias caudatus) on a bush","ispublic":1,"isfriend":0,"isfamily":0},{"id":"52611273806","owner":"24067417@N03","secret":"06188f2237","server":"65535","farm":66,"title":"Coracias caudatus - Lilac-breasted Roller","ispublic":1,"isfriend":0,"isfamily":0},{"id":"52609117128","owner":"197357511@N06","secret":"c40f252d2b","server":"65535","farm":66,"title":"Coracias caudatus","ispublic":1,"isfriend":0,"isfamily":0},{"id":"52608418641","owner":"197305834@N05","secret":"0338c3fe82","server":"65535","farm":66,"title":"2022-08-18 10-13-28 - Lumix FZ2000 (Olivier) - P1040851","ispublic":1,"isfriend":0,"isfamily":0},{"id":"52604611776","owner":"147321550@N05","secret":"fcd673853d","server":"65535","farm":66,"title":"Rolieiro-de-peito-lil\u00e1s \/ Coracias caudatus","ispublic":1,"isfriend":0,"isfamily":0},{"id":"52594872474","owner":"147321550@N05","secret":"eef39cc4b3","server":"65535","farm":66,"title":"Rolieiro-de-peito-lil\u00e1s \/ Coracias caudatus","ispublic":1,"isfriend":0,"isfamily":0},{"id":"52593287750","owner":"57465751@N05","secret":"49f7ce0313","server":"65535","farm":66,"title":"Lilac-breasted Roller (Coracias caudatus), Tarangire NP, Tanzania","ispublic":1,"isfriend":0,"isfamily":0},{"id":"52578864030","owner":"188233235@N06","secret":"8a3c16d633","server":"65535","farm":66,"title":"The Lilac-Breasted Roller","ispublic":1,"isfriend":0,"isfamily":0},{"id":"52577043360","owner":"22594349@N08","secret":"9bda66560a","server":"65535","farm":66,"title":"Lilac-breasted Roller (Coracias caudatus)","ispublic":1,"isfriend":0,"isfamily":0},{"id":"52573058062","owner":"151109375@N08","secret":"c1d8c547cc","server":"65535","farm":66,"title":"A beautiful Lilac-breasted Roller (Coracias caudatus) strikes a classic pose","ispublic":1,"isfriend":0,"isfamily":0},{"id":"52572128594","owner":"8987884@N07","secret":"c7532c1cc2","server":"65535","farm":66,"title":"Lilac-breasted Roller (Coracias caudatus)_DDZ_3620","ispublic":1,"isfriend":0,"isfamily":0},{"id":"52566244469","owner":"151815725@N07","secret":"8be737a5d9","server":"65535","farm":66,"title":"Rolieiro-de-peito-lil\u00e1s \/ Coracias caudatus","ispublic":1,"isfriend":0,"isfamily":0},{"id":"52559963144","owner":"63087892@N04","secret":"407fcb4bd4","server":"65535","farm":66,"title":"Lilac-breasted Roller","ispublic":1,"isfriend":0,"isfamily":0},{"id":"52556984899","owner":"100123196@N05","secret":"edacb60f73","server":"65535","farm":66,"title":"Lilac-Breasted Roller (Coracias Caudatus)","ispublic":1,"isfriend":0,"isfamily":0},{"id":"52523111617","owner":"61897811@N00","secret":"7d78fa9b5a","server":"65535","farm":66,"title":"Lilac-breasted Roller","ispublic":1,"isfriend":0,"isfamily":0},{"id":"52520552619","owner":"93140244@N02","secret":"9650870ae6","server":"65535","farm":66,"title":"Lilac-breasted Roller","ispublic":1,"isfriend":0,"isfamily":0},{"id":"52517102649","owner":"85633072@N06","secret":"10fda91ea0","server":"65535","farm":66,"title":"","ispublic":1,"isfriend":0,"isfamily":0},{"id":"52509369285","owner":"61897811@N00","secret":"69fda72815","server":"65535","farm":66,"title":"Lilac-breasted Roller","ispublic":1,"isfriend":0,"isfamily":0},{"id":"52492625743","owner":"153426373@N07","secret":"bfdbcd2bd5","server":"65535","farm":66,"title":"Lilac-breasted Roller","ispublic":1,"isfriend":0,"isfamily":0},{"id":"52467669548","owner":"196799698@N02","secret":"be264a8562","server":"65535","farm":66,"title":"Who_s-doing-the-bird-watching","ispublic":1,"isfriend":0,"isfamily":0},{"id":"52455862940","owner":"191849723@N06","secret":"fa449a4563","server":"65535","farm":66,"title":"Lilac breasted roller in Antwerp zoo","ispublic":1,"isfriend":0,"isfamily":0},{"id":"52454460950","owner":"8987884@N07","secret":"20c2409807","server":"65535","farm":66,"title":"Lilac-breasted Roller (Coracias caudatus)_DDZ_4875","ispublic":1,"isfriend":0,"isfamily":0},{"id":"52085100094","owner":"65695019@N07","secret":"60c1f0ba0a","server":"65535","farm":66,"title":"Lilac-breasted Roller (Coracias caudatus)","ispublic":1,"isfriend":0,"isfamily":0},{"id":"52761805959","owner":"123597211@N03","secret":"cd79d963cb","server":"65535","farm":66,"title":"Gabelschwanzracke (Coracias caudatus)","ispublic":1,"isfriend":0,"isfamily":0},{"id":"52761555741","owner":"123597211@N03","secret":"c17314e53a","server":"65535","farm":66,"title":"Gabelschwanzracke (Coracias caudatus)","ispublic":1,"isfriend":0,"isfamily":0},{"id":"52762041923","owner":"123597211@N03","secret":"b4c66791f9","server":"65535","farm":66,"title":"Gabelschwanzracke (Coracias caudatus)","ispublic":1,"isfriend":0,"isfamily":0},{"id":"52633313485","owner":"12639178@N07","secret":"71d685cba7","server":"65535","farm":66,"title":"Gabelracke (Coracias caudatus) (1)","ispublic":1,"isfriend":0,"isfamily":0},{"id":"52623286711","owner":"12639178@N07","secret":"c61f745597","server":"65535","farm":66,"title":"Lilac-breasted Roller (Coracias caudatus), Kr\u00fcger NP, S\u00fcdafrika","ispublic":1,"isfriend":0,"isfamily":0},{"id":"52619001127","owner":"12639178@N07","secret":"8c0fea7b14","server":"65535","farm":66,"title":"Gabelracke (Coracias caudatus), Chobe NP, Botswana","ispublic":1,"isfriend":0,"isfamily":0},{"id":"52601073870","owner":"95186763@N05","secret":"a1bf365475","server":"65535","farm":66,"title":"Lilac-breasted roller (Coracias caudatus) perched on a branch","ispublic":1,"isfriend":0,"isfamily":0},{"id":"52599806824","owner":"77017456@N03","secret":"e0b9e58988","server":"65535","farm":66,"title":"Lilac-breasted Roller (coracias caudatus)","ispublic":1,"isfriend":0,"isfamily":0},{"id":"52593053804","owner":"57465751@N05","secret":"59e3775a88","server":"65535","farm":66,"title":"Lilac-breasted Roller (Coracias caudatus), Tarangire NP, Tanzania","ispublic":1,"isfriend":0,"isfamily":0},{"id":"52592791881","owner":"57465751@N05","secret":"5ed5336327","server":"65535","farm":66,"title":"Lilac-breasted Roller (Coracias caudatus), Tarangire NP, Tanzania","ispublic":1,"isfriend":0,"isfamily":0},{"id":"52585159035","owner":"100458723@N06","secret":"cd7d6747c0","server":"65535","farm":66,"title":"Lilac-breasted roller (Coracias caudatus) sitting on a wire","ispublic":1,"isfriend":0,"isfamily":0},{"id":"52585157400","owner":"100458723@N06","secret":"28ef1626b1","server":"65535","farm":66,"title":"What a cutie lilac-breasted roller (Coracias caudatus)","ispublic":1,"isfriend":0,"isfamily":0},{"id":"52582173247","owner":"57465751@N05","secret":"d0f31a5b0c","server":"65535","farm":66,"title":"Lilac-breasted Roller (Coracias caudatus), Tarangire NP, Tanzania","ispublic":1,"isfriend":0,"isfamily":0},{"id":"52582126770","owner":"168044987@N06","secret":"6c56be3cef","server":"65535","farm":66,"title":"B-MSTurkay_03Nis2014_8157","ispublic":1,"isfriend":0,"isfamily":0},{"id":"52551945692","owner":"12639178@N07","secret":"b496d126ed","server":"65535","farm":66,"title":"Kenia: Gabelracke - Lilac-breasted Roller","ispublic":1,"isfriend":0,"isfamily":0},{"id":"52552407996","owner":"12639178@N07","secret":"354be07361","server":"65535","farm":66,"title":"Kenia: Gabelracke - Lilac-breasted Roller","ispublic":1,"isfriend":0,"isfamily":0},{"id":"52542232168","owner":"12639178@N07","secret":"cc0b6dcc4f","server":"65535","farm":66,"title":"Kenia: Gabelracke - Lilac-breasted Roller","ispublic":1,"isfriend":0,"isfamily":0},{"id":"52529728962","owner":"8987884@N07","secret":"445637498d","server":"65535","farm":66,"title":"Lilac-breasted Roller (Coracias caudatus)_DDZ_5314","ispublic":1,"isfriend":0,"isfamily":0},{"id":"52494581179","owner":"171333438@N08","secret":"cb065dd8c9","server":"65535","farm":66,"title":"Rollier \u00e0 longs brins (Coracias caudatus)","ispublic":1,"isfriend":0,"isfamily":0},{"id":"52481623326","owner":"52886876@N05","secret":"150879fdec","server":"65535","farm":66,"title":"Lilac-breasted roller, Savanner\u00e5ke","ispublic":1,"isfriend":0,"isfamily":0},{"id":"52479562791","owner":"45109166@N00","secret":"af7ee2e374","server":"65535","farm":66,"title":"Coracias caudatus","ispublic":1,"isfriend":0,"isfamily":0}]},"stat":"ok"}