{"photos":{"page":1,"pages":5,"perpage":100,"total":427,"photo":[{"id":"52693029721","owner":"87727332@N08","secret":"1c9a37fff6","server":"65535","farm":66,"title":"Bigodinho (Sporophila lineola)","ispublic":1,"isfriend":0,"isfamily":0},{"id":"52639459872","owner":"123174353@N02","secret":"c20e5e9fcc","server":"65535","farm":66,"title":"Sporophila lineola \/ Lined Seedeater \/ witsterdikbekje","ispublic":1,"isfriend":0,"isfamily":0},{"id":"52634079789","owner":"196886437@N07","secret":"23ed8b61de","server":"65535","farm":66,"title":"Bigodinho (Sporophila lineola)","ispublic":1,"isfriend":0,"isfamily":0},{"id":"52427302785","owner":"13695637@N08","secret":"c35e07456b","server":"65535","farm":66,"title":"Lined Seadeater","ispublic":1,"isfriend":0,"isfamily":0},{"id":"52297372895","owner":"186193378@N07","secret":"1c97c57322","server":"65535","farm":66,"title":"Bigodinho macho (Sporophila lineola) Lined Seedeater male","ispublic":1,"isfriend":0,"isfamily":0},{"id":"52297372830","owner":"186193378@N07","secret":"6dc6dfc8f5","server":"65535","farm":66,"title":"Bigodinho f\u00eamea (Sporophila lineola) Lined Seedeater female","ispublic":1,"isfriend":0,"isfamily":0},{"id":"51736724679","owner":"87727332@N08","secret":"fcc7bf4b62","server":"65535","farm":66,"title":"Bigodoso (Sporophila lineola)","ispublic":1,"isfriend":0,"isfamily":0},{"id":"51294012461","owner":"52363379@N07","secret":"d31398680f","server":"65535","farm":66,"title":"Sporophila lineola","ispublic":1,"isfriend":0,"isfamily":0},{"id":"50957331891","owner":"139614601@N08","secret":"f9cd520bfd","server":"65535","farm":66,"title":"Bigodinho [macho]","ispublic":1,"isfriend":0,"isfamily":0},{"id":"49564405963","owner":"144500661@N03","secret":"1a261508f4","server":"65535","farm":66,"title":"DSC00185 Bigodinho (Sporophila lineola)","ispublic":1,"isfriend":0,"isfamily":0},{"id":"49435421207","owner":"105765827@N03","secret":"b9ca673795","server":"65535","farm":66,"title":"Segunda publicaci\u00f3n del festival de semilleros y espigueros. Second post of the grassquit and seedeater festival.","ispublic":1,"isfriend":0,"isfamily":0},{"id":"49430094483","owner":"105765827@N03","secret":"199c5f102c","server":"65535","farm":66,"title":"Con esta publicaci\u00f3n doy inicio al festival de semilleros y espigueros. With this series, I start the grassquit and seedeater festival.","ispublic":1,"isfriend":0,"isfamily":0},{"id":"49430568771","owner":"105765827@N03","secret":"d2c8f09ea6","server":"65535","farm":66,"title":"Con esta publicaci\u00f3n doy inicio al festival de semilleros y espigueros. With this series, I start the grassquit and seedeater festival.","ispublic":1,"isfriend":0,"isfamily":0},{"id":"49430055768","owner":"105765827@N03","secret":"61bedfcc45","server":"65535","farm":66,"title":"Con esta publicaci\u00f3n doy inicio al festival de semilleros y espigueros. With this series, I start the grassquit and seedeater festival.","ispublic":1,"isfriend":0,"isfamily":0},{"id":"49380574412","owner":"152675215@N06","secret":"0130b423f1","server":"65535","farm":66,"title":"Bigodinho (Sporophila lineola)","ispublic":1,"isfriend":0,"isfamily":0},{"id":"49099932547","owner":"141700751@N03","secret":"b07ab41278","server":"65535","farm":66,"title":"Bigodinho (Sporophila lineola)","ispublic":1,"isfriend":0,"isfamily":0},{"id":"48904869471","owner":"105765827@N03","secret":"345a8f4175","server":"65535","farm":66,"title":"Este espiguero bigotudo es un migratorio austral que busca zonas lluviosas en \u00e9poca de verano. Se alimenta de semillas de pastos y matorrales donde es m\u00e1s visible en \u00e9poca no reproductiva.","ispublic":1,"isfriend":0,"isfamily":0},{"id":"48723343958","owner":"33820263@N07","secret":"52f652f4bc","server":"65535","farm":66,"title":"Lined Seedeater","ispublic":1,"isfriend":0,"isfamily":0},{"id":"48723343048","owner":"33820263@N07","secret":"719283fd54","server":"65535","farm":66,"title":"Lined Seedeater","ispublic":1,"isfriend":0,"isfamily":0},{"id":"48040719018","owner":"130527241@N02","secret":"833bfcea15","server":"65535","farm":66,"title":"bigodinho (Sporophila lineola)","ispublic":1,"isfriend":0,"isfamily":0},{"id":"48040679656","owner":"130527241@N02","secret":"1d682d2ab6","server":"65535","farm":66,"title":"bigodinho (Sporophila lineola)","ispublic":1,"isfriend":0,"isfamily":0},{"id":"48040667198","owner":"130527241@N02","secret":"c7474abbf3","server":"65535","farm":66,"title":"bigodinho (Sporophila lineola)","ispublic":1,"isfriend":0,"isfamily":0},{"id":"48040614756","owner":"130527241@N02","secret":"c4bdc0d76c","server":"65535","farm":66,"title":"bigodinho (Sporophila lineola)","ispublic":1,"isfriend":0,"isfamily":0},{"id":"48040715847","owner":"130527241@N02","secret":"eba87b3159","server":"65535","farm":66,"title":"bigodinho (Sporophila lineola)","ispublic":1,"isfriend":0,"isfamily":0},{"id":"48040651263","owner":"130527241@N02","secret":"dc46cdaa4a","server":"65535","farm":66,"title":"bigodinho (Sporophila lineola)","ispublic":1,"isfriend":0,"isfamily":0},{"id":"48040714412","owner":"130527241@N02","secret":"1e89c0b028","server":"65535","farm":66,"title":"bigodinho (Sporophila lineola)","ispublic":1,"isfriend":0,"isfamily":0},{"id":"48040610956","owner":"130527241@N02","secret":"a04389b442","server":"65535","farm":66,"title":"bigodinho (Sporophila lineola)","ispublic":1,"isfriend":0,"isfamily":0},{"id":"48040607041","owner":"130527241@N02","secret":"78c3f575a0","server":"65535","farm":66,"title":"bigodinho (Sporophila lineola)","ispublic":1,"isfriend":0,"isfamily":0},{"id":"47812300492","owner":"52363379@N07","secret":"38c41d50b6","server":"65535","farm":66,"title":"Sporophila lineola","ispublic":1,"isfriend":0,"isfamily":0},{"id":"46585623015","owner":"38048846@N07","secret":"52eb46a4aa","server":"7846","farm":8,"title":"Bigodinho - Sporophila lineola - Lined Seedeater.","ispublic":1,"isfriend":0,"isfamily":0},{"id":"47377784402","owner":"64131182@N02","secret":"38a2ee4353","server":"7807","farm":8,"title":"Bigodinho (Sporophila lineola) Sitio Paraiso Goias","ispublic":1,"isfriend":0,"isfamily":0},{"id":"32456262397","owner":"64131182@N02","secret":"a80c3bec9d","server":"7802","farm":8,"title":"Bigodinho (Sporophila lineola) Sitio Paraiso Goias sh","ispublic":1,"isfriend":0,"isfamily":0},{"id":"32444369017","owner":"7330431@N08","secret":"40e0e66720","server":"7879","farm":8,"title":"Lined Seedeater Sporophila lineola","ispublic":1,"isfriend":0,"isfamily":0},{"id":"31828879557","owner":"134704052@N08","secret":"4389c71ec3","server":"4860","farm":5,"title":"Bigodinho","ispublic":1,"isfriend":0,"isfamily":0},{"id":"44766373070","owner":"81124164@N00","secret":"4821fbac1d","server":"7883","farm":8,"title":"bigodinho (Lined Seedeater)  Sporophila lineola (Linnaeus, 1758). Macho (Male).","ispublic":1,"isfriend":0,"isfamily":0},{"id":"44304325922","owner":"64131182@N02","secret":"1cf5430b54","server":"1883","farm":2,"title":"Bigodinho (Sporophila lineola) by","ispublic":1,"isfriend":0,"isfamily":0},{"id":"29416732407","owner":"64131182@N02","secret":"4366374ba4","server":"1859","farm":2,"title":"Bigodinho (Sporophila lineola) bp","ispublic":1,"isfriend":0,"isfamily":0},{"id":"41994088922","owner":"95758886@N06","secret":"1db273e6d1","server":"828","farm":1,"title":"Bigodinho (Sporophila lineola)_6269 FF","ispublic":1,"isfriend":0,"isfamily":0},{"id":"40243997025","owner":"28440115@N08","secret":"a7fcb528b8","server":"891","farm":1,"title":"Charmer","ispublic":1,"isfriend":0,"isfamily":0},{"id":"40227296162","owner":"21182099@N05","secret":"1c2b2301c7","server":"4667","farm":5,"title":"Lined Seedeater (Sporophila lineola) - male","ispublic":1,"isfriend":0,"isfamily":0},{"id":"38648140015","owner":"152612878@N06","secret":"bc02a05a57","server":"4731","farm":5,"title":"sporophila lineola","ispublic":1,"isfriend":0,"isfamily":0},{"id":"39221670981","owner":"52363379@N07","secret":"a3e93da269","server":"4736","farm":5,"title":"Sporophila lineola","ispublic":1,"isfriend":0,"isfamily":0},{"id":"38631096166","owner":"84468311@N04","secret":"5eb24e3dda","server":"4552","farm":5,"title":"Bigodinho \/ Sporophila lineola \/ Lined Seedeater","ispublic":1,"isfriend":0,"isfamily":0},{"id":"37969351464","owner":"84468311@N04","secret":"c67094c30a","server":"4557","farm":5,"title":"Bigodinho \/ Sporophila lineola \/ Lined Seedeater","ispublic":1,"isfriend":0,"isfamily":0},{"id":"38631092806","owner":"84468311@N04","secret":"1c44745970","server":"4571","farm":5,"title":"Bigodinho \/ Sporophila lineola \/ Lined Seedeater","ispublic":1,"isfriend":0,"isfamily":0},{"id":"37601311344","owner":"45813009@N08","secret":"510bab1432","server":"4569","farm":5,"title":"Bigodinho - Sporophila lineola","ispublic":1,"isfriend":0,"isfamily":0},{"id":"26396879159","owner":"46625593@N00","secret":"30d3c9ed25","server":"4550","farm":5,"title":"Bigodinho, F\u00eamea (Sporophila lineola).","ispublic":1,"isfriend":0,"isfamily":0},{"id":"26396877569","owner":"46625593@N00","secret":"f0b8d2cfe9","server":"4581","farm":5,"title":"Bigodinho, Macho (Sporophila lineola).","ispublic":1,"isfriend":0,"isfamily":0},{"id":"37463224524","owner":"46625593@N00","secret":"3b8d5c165a","server":"4539","farm":5,"title":"Bigodinho, Macho (Sporophila lineola).","ispublic":1,"isfriend":0,"isfamily":0},{"id":"26396873009","owner":"46625593@N00","secret":"4e2ea39621","server":"4511","farm":5,"title":"Bigodinho, F\u00eamea (Sporophila lineola).","ispublic":1,"isfriend":0,"isfamily":0},{"id":"37782877441","owner":"62812545@N03","secret":"304bde9784","server":"4511","farm":5,"title":"bigodinho (Sporophila lineola)","ispublic":1,"isfriend":0,"isfamily":0},{"id":"36050609675","owner":"52363379@N07","secret":"95d4201cd9","server":"4302","farm":5,"title":"Sporophila lineola","ispublic":1,"isfriend":0,"isfamily":0},{"id":"36050608635","owner":"52363379@N07","secret":"7dc2b92fb4","server":"4323","farm":5,"title":"Sporophila lineola","ispublic":1,"isfriend":0,"isfamily":0},{"id":"35493525070","owner":"52363379@N07","secret":"5594afb4aa","server":"4242","farm":5,"title":"Sporophila lineola","ispublic":1,"isfriend":0,"isfamily":0},{"id":"35675205745","owner":"52363379@N07","secret":"2bb56479f1","server":"4028","farm":5,"title":"Sporophila lineola","ispublic":1,"isfriend":0,"isfamily":0},{"id":"35191155150","owner":"32674493@N04","secret":"b4d629e01a","server":"4212","farm":5,"title":"Bigodinho (Sporophila lineola) macho","ispublic":1,"isfriend":0,"isfamily":0},{"id":"34491507210","owner":"79153825@N08","secret":"0f6f0076b0","server":"4223","farm":5,"title":"CORBATITA UVERO.(Sporophila Lineola. LINED SEEDDEATER","ispublic":1,"isfriend":0,"isfamily":0},{"id":"52527902099","owner":"100247776@N03","secret":"19246bcd37","server":"65535","farm":66,"title":"BIGODINHO - Sporophila lineola - GOI\u00c2NIA","ispublic":1,"isfriend":0,"isfamily":0},{"id":"51706839825","owner":"182381287@N07","secret":"be488105b1","server":"65535","farm":66,"title":"Bigodinho (Sporophila lineola)","ispublic":1,"isfriend":0,"isfamily":0},{"id":"51020232307","owner":"185718539@N08","secret":"a33e77bd60","server":"65535","farm":66,"title":"Bigodinho (femea) (Sporophila lineola)","ispublic":1,"isfriend":0,"isfamily":0},{"id":"51100161463","owner":"192688018@N07","secret":"8f92db2a42","server":"65535","farm":66,"title":"Sporophila lineola","ispublic":1,"isfriend":0,"isfamily":0},{"id":"51099700659","owner":"192688018@N07","secret":"37546bd26c","server":"65535","farm":66,"title":"Sporophila lineola","ispublic":1,"isfriend":0,"isfamily":0},{"id":"51019404993","owner":"185718539@N08","secret":"eee55b8f09","server":"65535","farm":66,"title":"Bigodinho (Sporophila lineola)","ispublic":1,"isfriend":0,"isfamily":0},{"id":"50956634028","owner":"139614601@N08","secret":"f3fa6744bc","server":"65535","farm":66,"title":"Bigodinho [macho]","ispublic":1,"isfriend":0,"isfamily":0},{"id":"50886957778","owner":"129812379@N07","secret":"c153592954","server":"65535","farm":66,"title":"bigodinho (Sporophila lineola)","ispublic":1,"isfriend":0,"isfamily":0},{"id":"49470414341","owner":"185287246@N04","secret":"e18ae8e3d7","server":"65535","farm":66,"title":"Lined Seedeater-Sporophila lineola","ispublic":1,"isfriend":0,"isfamily":0},{"id":"48760020092","owner":"183862955@N08","secret":"772d711b75","server":"65535","farm":66,"title":"\"Sporophila lineola\" - Lined Seedeater, Diamantpf\u00e4ffchen","ispublic":1,"isfriend":0,"isfamily":0},{"id":"33955317548","owner":"163231137@N08","secret":"671e8c5624","server":"65535","farm":66,"title":"bigodinho (Sporophila lineola)","ispublic":1,"isfriend":0,"isfamily":0},{"id":"46534090675","owner":"87325282@N00","secret":"42a224060e","server":"7826","farm":8,"title":"Sporophila lineola","ispublic":1,"isfriend":0,"isfamily":0},{"id":"40164164423","owner":"100887988@N03","secret":"5f3642a4c4","server":"7856","farm":8,"title":"Sporophila lineola","ispublic":1,"isfriend":0,"isfamily":0},{"id":"46798960421","owner":"141234211@N07","secret":"73e1f4b7cb","server":"4830","farm":5,"title":"Bigodinho (Sporophila lineola) - Macho.","ispublic":1,"isfriend":0,"isfamily":0},{"id":"45943296714","owner":"136812688@N03","secret":"c0ac3ab319","server":"7820","farm":8,"title":"S\u00e9rie Refreshing- Sporophila lineola (Bigodinho)","ispublic":1,"isfriend":0,"isfamily":0},{"id":"31603127397","owner":"46788536@N05","secret":"cfaf3f6e4b","server":"4862","farm":5,"title":"Sporophila lineola \/\/ Lined Seedeater","ispublic":1,"isfriend":0,"isfamily":0},{"id":"31189445957","owner":"157238870@N05","secret":"dd4fb45e57","server":"4879","farm":5,"title":"Sporophila lineola (macho)","ispublic":1,"isfriend":0,"isfamily":0},{"id":"44706433321","owner":"127537057@N03","secret":"e04466af2a","server":"1897","farm":2,"title":"Espiguero bigotudo - Sporophila lineola","ispublic":1,"isfriend":0,"isfamily":0},{"id":"44677454181","owner":"64131182@N02","secret":"03d52536c3","server":"1861","farm":2,"title":"Bigodinho (Sporophila lineola) ppp","ispublic":1,"isfriend":0,"isfamily":0},{"id":"43958250074","owner":"64131182@N02","secret":"dbde938883","server":"1860","farm":2,"title":"Bigodinho (Sporophila lineola) bnvg","ispublic":1,"isfriend":0,"isfamily":0},{"id":"42866500750","owner":"64131182@N02","secret":"6555d0b3c4","server":"1878","farm":2,"title":"Bigodinho (Sporophila lineola) lpf","ispublic":1,"isfriend":0,"isfamily":0},{"id":"42544914620","owner":"64131182@N02","secret":"6b85c9b123","server":"1856","farm":2,"title":"Bigodinho (Sporophila lineola) bl","ispublic":1,"isfriend":0,"isfamily":0},{"id":"44304325072","owner":"64131182@N02","secret":"9b7ecc4ff5","server":"1897","farm":2,"title":"Bigodinho (Sporophila lineola) bg","ispublic":1,"isfriend":0,"isfamily":0},{"id":"27761564668","owner":"159484195@N07","secret":"1795d4641b","server":"806","farm":1,"title":"Bigodinho - Sporophila lineola -  Thraupidae - S Sebastia\u0303o Parai\u0301so - 08-11-2017","ispublic":1,"isfriend":0,"isfamily":0},{"id":"40676636244","owner":"46788536@N05","secret":"a2f6ab08b0","server":"809","farm":1,"title":"Sporophila lineola \/\/ Lined seedeater female","ispublic":1,"isfriend":0,"isfamily":0},{"id":"26519964087","owner":"46788536@N05","secret":"8621637185","server":"810","farm":1,"title":"Sporophila lineola \/\/ Lined seedeater","ispublic":1,"isfriend":0,"isfamily":0},{"id":"27088762058","owner":"128402808@N02","secret":"f38888c9d8","server":"820","farm":1,"title":"bigodinho (Sporophila lineola)","ispublic":1,"isfriend":0,"isfamily":0},{"id":"27048399618","owner":"129927815@N06","secret":"0ba37c6f6a","server":"4780","farm":5,"title":"Sporophila lineola","ispublic":1,"isfriend":0,"isfamily":0},{"id":"39937183225","owner":"153199674@N07","secret":"9d5e4dcc15","server":"817","farm":1,"title":"Thraupidae: Sporophila lineola - Lined Seedeater","ispublic":1,"isfriend":0,"isfamily":0},{"id":"26878767568","owner":"28440115@N08","secret":"e11ceca52e","server":"4777","farm":5,"title":"Stuffed","ispublic":1,"isfriend":0,"isfamily":0},{"id":"26513703258","owner":"26079917@N06","secret":"bfe77d8b16","server":"4657","farm":5,"title":"Bigodinho (Sporophila lineola) - Botucatu\/SP - Brasil","ispublic":1,"isfriend":0,"isfamily":0},{"id":"25376501167","owner":"26079917@N06","secret":"c2b2a9c604","server":"4704","farm":5,"title":"Bigodinho (Sporophila lineola) - Botucatu\/SP - Brasil","ispublic":1,"isfriend":0,"isfamily":0},{"id":"25713746278","owner":"152612878@N06","secret":"f4ba3abde2","server":"4675","farm":5,"title":"sporophila lineola","ispublic":1,"isfriend":0,"isfamily":0},{"id":"39221671231","owner":"52363379@N07","secret":"c990e2a78e","server":"4644","farm":5,"title":"Sporophila lineola","ispublic":1,"isfriend":0,"isfamily":0},{"id":"38742916732","owner":"87325282@N00","secret":"ec4ceed3c8","server":"4552","farm":5,"title":"Sporophila lineola","ispublic":1,"isfriend":0,"isfamily":0},{"id":"26396878679","owner":"46625593@N00","secret":"97ef7d3b9f","server":"4485","farm":5,"title":"Bigodinho, F\u00eamea (Sporophila lineola).","ispublic":1,"isfriend":0,"isfamily":0},{"id":"37463225364","owner":"46625593@N00","secret":"b104528040","server":"4496","farm":5,"title":"Bigodinho, F\u00eamea (Sporophila lineola).","ispublic":1,"isfriend":0,"isfamily":0},{"id":"36540893724","owner":"29170368@N03","secret":"2b44667739","server":"65535","farm":66,"title":"Lined Seedeater","ispublic":1,"isfriend":0,"isfamily":0},{"id":"36388881575","owner":"22585624@N03","secret":"d2ac87fa69","server":"4393","farm":5,"title":"Sporophila lineola - Bigodinho - Intervales - 19.11.2009","ispublic":1,"isfriend":0,"isfamily":0},{"id":"35978367050","owner":"130538074@N02","secret":"e2f6f98221","server":"4388","farm":5,"title":"Bigodinho (Sporophila lineola)","ispublic":1,"isfriend":0,"isfamily":0},{"id":"35194254554","owner":"156840754@N02","secret":"c7713d458b","server":"4297","farm":5,"title":"Sporophila lineola","ispublic":1,"isfriend":0,"isfamily":0},{"id":"35132053833","owner":"52363379@N07","secret":"363be63f3f","server":"4305","farm":5,"title":"Sporophila lineola","ispublic":1,"isfriend":0,"isfamily":0},{"id":"34870027015","owner":"29180995@N05","secret":"f812033c79","server":"4252","farm":5,"title":"Bigodinho (Sporophila lineola)","ispublic":1,"isfriend":0,"isfamily":0}]},"stat":"ok"}