{"photos":{"page":1,"pages":11,"perpage":100,"total":1044,"photo":[{"id":"52781052327","owner":"79722430@N04","secret":"c9d1397390","server":"65535","farm":66,"title":"Little bunting (Emberiza pusilla)","ispublic":1,"isfriend":0,"isfamily":0},{"id":"52781052267","owner":"79722430@N04","secret":"18efc93c2e","server":"65535","farm":66,"title":"Little bunting (Emberiza pusilla)","ispublic":1,"isfriend":0,"isfamily":0},{"id":"52781594456","owner":"79722430@N04","secret":"f2ce098447","server":"65535","farm":66,"title":"Little bunting (Emberiza pusilla)","ispublic":1,"isfriend":0,"isfamily":0},{"id":"52763754131","owner":"79722430@N04","secret":"c3029b8dce","server":"65535","farm":66,"title":"Little bunting (Emberiza pusilla)","ispublic":1,"isfriend":0,"isfamily":0},{"id":"52764003664","owner":"79722430@N04","secret":"bfc5d60bdd","server":"65535","farm":66,"title":"Little bunting (Emberiza pusilla)","ispublic":1,"isfriend":0,"isfamily":0},{"id":"52764158795","owner":"79722430@N04","secret":"6b2433e742","server":"65535","farm":66,"title":"Little bunting (Emberiza pusilla)","ispublic":1,"isfriend":0,"isfamily":0},{"id":"52763210977","owner":"79722430@N04","secret":"a7605578ca","server":"65535","farm":66,"title":"Little bunting (Emberiza pusilla)","ispublic":1,"isfriend":0,"isfamily":0},{"id":"52763754061","owner":"79722430@N04","secret":"0858c1b26a","server":"65535","farm":66,"title":"Little bunting (Emberiza pusilla)","ispublic":1,"isfriend":0,"isfamily":0},{"id":"52759405997","owner":"79722430@N04","secret":"195de45a03","server":"65535","farm":66,"title":"Little bunting (Emberiza pusilla)","ispublic":1,"isfriend":0,"isfamily":0},{"id":"52755624673","owner":"79722430@N04","secret":"a445aa3060","server":"65535","farm":66,"title":"Little bunting (Emberiza pusilla)","ispublic":1,"isfriend":0,"isfamily":0},{"id":"52755136091","owner":"79722430@N04","secret":"d3e51d0989","server":"65535","farm":66,"title":"Little bunting (Emberiza pusilla)","ispublic":1,"isfriend":0,"isfamily":0},{"id":"52754597102","owner":"79722430@N04","secret":"4b199c06d6","server":"65535","farm":66,"title":"Little bunting (Emberiza pusilla)","ispublic":1,"isfriend":0,"isfamily":0},{"id":"52755624513","owner":"79722430@N04","secret":"d403178851","server":"65535","farm":66,"title":"Little bunting (Emberiza pusilla)","ispublic":1,"isfriend":0,"isfamily":0},{"id":"52755543810","owner":"79722430@N04","secret":"7ebcccdbce","server":"65535","farm":66,"title":"Little bunting (Emberiza pusilla)","ispublic":1,"isfriend":0,"isfamily":0},{"id":"52755624388","owner":"79722430@N04","secret":"ea8b201a3d","server":"65535","farm":66,"title":"Little bunting (Emberiza pusilla)","ispublic":1,"isfriend":0,"isfamily":0},{"id":"52754596872","owner":"79722430@N04","secret":"d60e6cc5b7","server":"65535","farm":66,"title":"Little bunting (Emberiza pusilla)","ispublic":1,"isfriend":0,"isfamily":0},{"id":"52755543565","owner":"79722430@N04","secret":"6cba0ea505","server":"65535","farm":66,"title":"Little bunting (Emberiza pusilla)","ispublic":1,"isfriend":0,"isfamily":0},{"id":"52749853768","owner":"79722430@N04","secret":"c1298b8e46","server":"65535","farm":66,"title":"Little bunting (Emberiza pusilla)","ispublic":1,"isfriend":0,"isfamily":0},{"id":"52749769465","owner":"79722430@N04","secret":"4a547aa423","server":"65535","farm":66,"title":"Little bunting (Emberiza pusilla)","ispublic":1,"isfriend":0,"isfamily":0},{"id":"52746562695","owner":"79722430@N04","secret":"f576d5fab2","server":"65535","farm":66,"title":"Little bunting (Emberiza pusilla)","ispublic":1,"isfriend":0,"isfamily":0},{"id":"52746145116","owner":"79722430@N04","secret":"219089a0d8","server":"65535","farm":66,"title":"Little bunting (Emberiza pusilla)","ispublic":1,"isfriend":0,"isfamily":0},{"id":"52746562665","owner":"79722430@N04","secret":"cdbbdacc57","server":"65535","farm":66,"title":"Little bunting (Emberiza pusilla)","ispublic":1,"isfriend":0,"isfamily":0},{"id":"52746145111","owner":"79722430@N04","secret":"e37b462ee8","server":"65535","farm":66,"title":"Little bunting (Emberiza pusilla)","ispublic":1,"isfriend":0,"isfamily":0},{"id":"52745621212","owner":"79722430@N04","secret":"87f0c299d1","server":"65535","farm":66,"title":"Little bunting (Emberiza pusilla)","ispublic":1,"isfriend":0,"isfamily":0},{"id":"52745621232","owner":"79722430@N04","secret":"2f9b36f1c2","server":"65535","farm":66,"title":"Little bunting (Emberiza pusilla)","ispublic":1,"isfriend":0,"isfamily":0},{"id":"52746641208","owner":"79722430@N04","secret":"194358d953","server":"65535","farm":66,"title":"Little bunting (Emberiza pusilla)","ispublic":1,"isfriend":0,"isfamily":0},{"id":"52742768091","owner":"79722430@N04","secret":"e05384c7aa","server":"65535","farm":66,"title":"Little bunting (Emberiza pusilla)","ispublic":1,"isfriend":0,"isfamily":0},{"id":"52742253022","owner":"79722430@N04","secret":"30b4bbb526","server":"65535","farm":66,"title":"Little bunting (Emberiza pusilla)","ispublic":1,"isfriend":0,"isfamily":0},{"id":"52743023744","owner":"79722430@N04","secret":"c0c3bfecfb","server":"65535","farm":66,"title":"Little bunting (Emberiza pusilla)","ispublic":1,"isfriend":0,"isfamily":0},{"id":"52742252927","owner":"79722430@N04","secret":"dd961575cf","server":"65535","farm":66,"title":"Little bunting (Emberiza pusilla)","ispublic":1,"isfriend":0,"isfamily":0},{"id":"52743259143","owner":"79722430@N04","secret":"b7aae10d47","server":"65535","farm":66,"title":"Little bunting (Emberiza pusilla)","ispublic":1,"isfriend":0,"isfamily":0},{"id":"52743100680","owner":"79722430@N04","secret":"8d3dd5668c","server":"65535","farm":66,"title":"Little bunting (Emberiza pusilla)","ispublic":1,"isfriend":0,"isfamily":0},{"id":"52743100705","owner":"79722430@N04","secret":"c6b1c41a3f","server":"65535","farm":66,"title":"Little bunting (Emberiza pusilla)","ispublic":1,"isfriend":0,"isfamily":0},{"id":"52742169072","owner":"79722430@N04","secret":"3f2246c178","server":"65535","farm":66,"title":"Little bunting (Emberiza pusilla)","ispublic":1,"isfriend":0,"isfamily":0},{"id":"52743094690","owner":"79722430@N04","secret":"5c3203228a","server":"65535","farm":66,"title":"Little bunting (Emberiza pusilla)","ispublic":1,"isfriend":0,"isfamily":0},{"id":"52743169118","owner":"79722430@N04","secret":"84d5f95441","server":"65535","farm":66,"title":"Little bunting (Emberiza pusilla)","ispublic":1,"isfriend":0,"isfamily":0},{"id":"52742677676","owner":"79722430@N04","secret":"76f08ace21","server":"65535","farm":66,"title":"Little bunting (Emberiza pusilla)","ispublic":1,"isfriend":0,"isfamily":0},{"id":"52743088095","owner":"79722430@N04","secret":"d60681ce7d","server":"65535","farm":66,"title":"Little bunting (Emberiza pusilla)","ispublic":1,"isfriend":0,"isfamily":0},{"id":"52742670931","owner":"79722430@N04","secret":"7bdb34f98e","server":"65535","farm":66,"title":"Little bunting (Emberiza pusilla)","ispublic":1,"isfriend":0,"isfamily":0},{"id":"52743162318","owner":"79722430@N04","secret":"f638298b62","server":"65535","farm":66,"title":"Little bunting (Emberiza pusilla)","ispublic":1,"isfriend":0,"isfamily":0},{"id":"52743162283","owner":"79722430@N04","secret":"4b086099bc","server":"65535","farm":66,"title":"Little bunting (Emberiza pusilla)","ispublic":1,"isfriend":0,"isfamily":0},{"id":"52728418926","owner":"12240837@N08","secret":"09650452a0","server":"65535","farm":66,"title":"Little Bunting (emberiza pusilla)","ispublic":1,"isfriend":0,"isfamily":0},{"id":"52728250506","owner":"191829438@N07","secret":"398feb6435","server":"65535","farm":66,"title":"Emberiza pusilla","ispublic":1,"isfriend":0,"isfamily":0},{"id":"52728374668","owner":"191829438@N07","secret":"26223e42f9","server":"65535","farm":66,"title":"Emberiza pusilla","ispublic":1,"isfriend":0,"isfamily":0},{"id":"52688310870","owner":"44635421@N06","secret":"a7ebb4606c","server":"65535","farm":66,"title":"The little bunting (Emberiza pusilla)","ispublic":1,"isfriend":0,"isfamily":0},{"id":"52649351647","owner":"110148017@N06","secret":"d20ccd0e8d","server":"65535","farm":66,"title":"\u5c0f\u9d50 Emberiza pusilla","ispublic":1,"isfriend":0,"isfamily":0},{"id":"52613576877","owner":"90764954@N07","secret":"ee6db8d5df","server":"65535","farm":66,"title":"Little bunting (Emberiza pusilla) \u5c0f\u9e40 22. Northern lapwing (Vanellus vanellus) \u51e4\u5934\u9ea6\u9e21","ispublic":1,"isfriend":0,"isfamily":0},{"id":"52613576882","owner":"90764954@N07","secret":"e74185bf94","server":"65535","farm":66,"title":"Little bunting (Emberiza pusilla) \u5c0f\u9e40 22. Northern lapwing (Vanellus vanellus) \u51e4\u5934\u9ea6\u9e21","ispublic":1,"isfriend":0,"isfamily":0},{"id":"52614345594","owner":"90764954@N07","secret":"ecd92575c6","server":"65535","farm":66,"title":"Little bunting (Emberiza pusilla) \u5c0f\u9e40 22. Northern lapwing (Vanellus vanellus) \u51e4\u5934\u9ea6\u9e21","ispublic":1,"isfriend":0,"isfamily":0},{"id":"52614573193","owner":"90764954@N07","secret":"8b53705000","server":"65535","farm":66,"title":"Little bunting (Emberiza pusilla) \u5c0f\u9e40 22. Northern lapwing (Vanellus vanellus) \u51e4\u5934\u9ea6\u9e21","ispublic":1,"isfriend":0,"isfamily":0},{"id":"52614514665","owner":"90764954@N07","secret":"7e81469ba3","server":"65535","farm":66,"title":"Little bunting (Emberiza pusilla) \u5c0f\u9e40 22. Northern lapwing (Vanellus vanellus) \u51e4\u5934\u9ea6\u9e21","ispublic":1,"isfriend":0,"isfamily":0},{"id":"52613576842","owner":"90764954@N07","secret":"72ef9e3bd5","server":"65535","farm":66,"title":"Little bunting (Emberiza pusilla) \u5c0f\u9e40 22. Northern lapwing (Vanellus vanellus) \u51e4\u5934\u9ea6\u9e21","ispublic":1,"isfriend":0,"isfamily":0},{"id":"52613576832","owner":"90764954@N07","secret":"bb868b8b1f","server":"65535","farm":66,"title":"Little bunting (Emberiza pusilla) \u5c0f\u9e40 22. Northern lapwing (Vanellus vanellus) \u51e4\u5934\u9ea6\u9e21","ispublic":1,"isfriend":0,"isfamily":0},{"id":"52597551943","owner":"110148017@N06","secret":"b539d80828","server":"65535","farm":66,"title":"\u5c0f\u9d50 Emberiza pusilla","ispublic":1,"isfriend":0,"isfamily":0},{"id":"52580750054","owner":"137111202@N08","secret":"4be1aeee66","server":"65535","farm":66,"title":"\u5c0f\u9d50, Little Bunting, Emberiza pusilla,","ispublic":1,"isfriend":0,"isfamily":0},{"id":"52580925535","owner":"137111202@N08","secret":"c658d46d48","server":"65535","farm":66,"title":"\u5c0f\u9d50, Little Bunting, Emberiza pusilla,","ispublic":1,"isfriend":0,"isfamily":0},{"id":"52592132613","owner":"68466173@N02","secret":"68b3b0c655","server":"65535","farm":66,"title":"Little Bunting (Emberiza pusilla)","ispublic":1,"isfriend":0,"isfamily":0},{"id":"52484859513","owner":"167023297@N08","secret":"8191aa5204","server":"65535","farm":66,"title":"Little Bunting (Emberiza pusilla) 1st winter at Pleinmont","ispublic":1,"isfriend":0,"isfamily":0},{"id":"52374354725","owner":"195315628@N03","secret":"9ed3b2c9f5","server":"65535","farm":66,"title":"\u0411\u043e\u0440\u043b\u043e\u0433 \u0445\u04e9\u043c\u0440\u04e9\u0433, Emberiza pusilla","ispublic":1,"isfriend":0,"isfamily":0},{"id":"52374248584","owner":"195315628@N03","secret":"fe90608628","server":"65535","farm":66,"title":"\u0411\u043e\u0440\u043b\u043e\u0433 \u0445\u04e9\u043c\u0440\u04e9\u0433, Emberiza pusilla","ispublic":1,"isfriend":0,"isfamily":0},{"id":"52157013156","owner":"132996946@N06","secret":"c4b43ee01c","server":"65535","farm":66,"title":"Zwergammer - Emberiza pusilla - Little Bunting","ispublic":1,"isfriend":0,"isfamily":0},{"id":"52150744841","owner":"140466761@N08","secret":"6c590af9b6","server":"65535","farm":66,"title":"\u5c0f\u9e40(Emberiza pusilla)-SJ601717","ispublic":1,"isfriend":0,"isfamily":0},{"id":"52150982539","owner":"140466761@N08","secret":"6f90e2b275","server":"65535","farm":66,"title":"\u5c0f\u9e40(Emberiza pusilla)-SJ601733","ispublic":1,"isfriend":0,"isfamily":0},{"id":"52087085938","owner":"70804987@N00","secret":"1b7ae72760","server":"65535","farm":66,"title":"Little Bunting","ispublic":1,"isfriend":0,"isfamily":0},{"id":"52087558315","owner":"70804987@N00","secret":"c95f37e99b","server":"65535","farm":66,"title":"Little Bunting","ispublic":1,"isfriend":0,"isfamily":0},{"id":"51959790371","owner":"12639178@N07","secret":"8296a4091a","server":"65535","farm":66,"title":"Zwergammer  (J01)","ispublic":1,"isfriend":0,"isfamily":0},{"id":"51935463089","owner":"12639178@N07","secret":"5cb0733083","server":"65535","farm":66,"title":"Zwergammer ist immer noch da ...... (J01)","ispublic":1,"isfriend":0,"isfamily":0},{"id":"51934011735","owner":"12639178@N07","secret":"1b45e3eeb3","server":"65535","farm":66,"title":"Zwergammer","ispublic":1,"isfriend":0,"isfamily":0},{"id":"51886162942","owner":"194512123@N02","secret":"5c0558c169","server":"65535","farm":66,"title":"Little Bunting (Emberiza pusilla)","ispublic":1,"isfriend":0,"isfamily":0},{"id":"51887780575","owner":"194512123@N02","secret":"c9f48f7644","server":"65535","farm":66,"title":"Little Bunting (Emberiza pusilla)","ispublic":1,"isfriend":0,"isfamily":0},{"id":"51879199599","owner":"191343261@N02","secret":"28257e611c","server":"65535","farm":66,"title":"Emberiza pusilla","ispublic":1,"isfriend":0,"isfamily":0},{"id":"51878875383","owner":"12639178@N07","secret":"0808eec72a","server":"65535","farm":66,"title":"Beim Knipsen dachte ich, eine weibliche Rohrammer erwischt zu haben","ispublic":1,"isfriend":0,"isfamily":0},{"id":"51879112019","owner":"12639178@N07","secret":"6d9f3846d9","server":"65535","farm":66,"title":"\u00dcberraschung am Morgen. Meine Apps sagen Zwergammer! Ist das wirklich eine?","ispublic":1,"isfriend":0,"isfamily":0},{"id":"51859828029","owner":"191343261@N02","secret":"48d823a9c9","server":"65535","farm":66,"title":"Emberiza pusilla","ispublic":1,"isfriend":0,"isfamily":0},{"id":"51810846941","owner":"12240837@N08","secret":"44e16459f4","server":"65535","farm":66,"title":"Little Bunting (emberiza pusilla)","ispublic":1,"isfriend":0,"isfamily":0},{"id":"51809891572","owner":"12240837@N08","secret":"26b03399b5","server":"65535","farm":66,"title":"Little Bunting (emberiza pusilla)","ispublic":1,"isfriend":0,"isfamily":0},{"id":"51811579095","owner":"12240837@N08","secret":"2a540fd858","server":"65535","farm":66,"title":"Little Bunting (emberiza pusilla)","ispublic":1,"isfriend":0,"isfamily":0},{"id":"51809891537","owner":"12240837@N08","secret":"2f9a77fe41","server":"65535","farm":66,"title":"Little Bunting (emberiza pusilla)","ispublic":1,"isfriend":0,"isfamily":0},{"id":"51811015504","owner":"42118189@N05","secret":"3e29b4c8c6","server":"65535","farm":66,"title":"Little Bunting (Emberiza pusilla)","ispublic":1,"isfriend":0,"isfamily":0},{"id":"51810659246","owner":"42118189@N05","secret":"15fc7460a9","server":"65535","farm":66,"title":"Little Bunting (Emberiza pusilla)","ispublic":1,"isfriend":0,"isfamily":0},{"id":"51796410054","owner":"187996196@N05","secret":"5c139cfb7d","server":"65535","farm":66,"title":"Zwergammer \/ Little bunting \/ Emberiza pusilla","ispublic":1,"isfriend":0,"isfamily":0},{"id":"51790486152","owner":"42118189@N05","secret":"a6b1575f5c","server":"65535","farm":66,"title":"Little Bunting (Emberiza pusilla)","ispublic":1,"isfriend":0,"isfamily":0},{"id":"51776759199","owner":"132996946@N06","secret":"47fc9ab0c9","server":"65535","farm":66,"title":"Zwergammer - Emberiza pusilla - Little Bunting","ispublic":1,"isfriend":0,"isfamily":0},{"id":"51763248113","owner":"79722430@N04","secret":"e0be691c09","server":"65535","farm":66,"title":"Little bunting (Emberiza pusilla)","ispublic":1,"isfriend":0,"isfamily":0},{"id":"51762170497","owner":"79722430@N04","secret":"9ce6c8e8cb","server":"65535","farm":66,"title":"Little bunting (Emberiza pusilla)","ispublic":1,"isfriend":0,"isfamily":0},{"id":"51762170462","owner":"79722430@N04","secret":"3643e85fdf","server":"65535","farm":66,"title":"Little bunting (Emberiza pusilla)","ispublic":1,"isfriend":0,"isfamily":0},{"id":"51762170407","owner":"79722430@N04","secret":"a12eef76ab","server":"65535","farm":66,"title":"Little bunting (Emberiza pusilla)","ispublic":1,"isfriend":0,"isfamily":0},{"id":"51763868950","owner":"79722430@N04","secret":"e21212f77b","server":"65535","farm":66,"title":"Little bunting (Emberiza pusilla)","ispublic":1,"isfriend":0,"isfamily":0},{"id":"51763653544","owner":"79722430@N04","secret":"46e736ed7f","server":"65535","farm":66,"title":"Little bunting (Emberiza pusilla)","ispublic":1,"isfriend":0,"isfamily":0},{"id":"51763868850","owner":"79722430@N04","secret":"804a23b864","server":"65535","farm":66,"title":"Little bunting (Emberiza pusilla)","ispublic":1,"isfriend":0,"isfamily":0},{"id":"51763002751","owner":"79722430@N04","secret":"8971353c4a","server":"65535","farm":66,"title":"Little bunting (Emberiza pusilla)","ispublic":1,"isfriend":0,"isfamily":0},{"id":"51763247753","owner":"79722430@N04","secret":"5f94618141","server":"65535","farm":66,"title":"Little bunting (Emberiza pusilla)","ispublic":1,"isfriend":0,"isfamily":0},{"id":"51763247728","owner":"79722430@N04","secret":"61e5374070","server":"65535","farm":66,"title":"Little bunting (Emberiza pusilla)","ispublic":1,"isfriend":0,"isfamily":0},{"id":"51763002596","owner":"79722430@N04","secret":"29b58e003c","server":"65535","farm":66,"title":"Little bunting (Emberiza pusilla)","ispublic":1,"isfriend":0,"isfamily":0},{"id":"51762170092","owner":"79722430@N04","secret":"0d06a36f2d","server":"65535","farm":66,"title":"Little bunting (Emberiza pusilla)","ispublic":1,"isfriend":0,"isfamily":0},{"id":"51763653274","owner":"79722430@N04","secret":"06d4cb20ab","server":"65535","farm":66,"title":"Little bunting (Emberiza pusilla)","ispublic":1,"isfriend":0,"isfamily":0},{"id":"51763247548","owner":"79722430@N04","secret":"b84d492a04","server":"65535","farm":66,"title":"Little bunting (Emberiza pusilla)","ispublic":1,"isfriend":0,"isfamily":0},{"id":"51763868490","owner":"79722430@N04","secret":"0fc29c9292","server":"65535","farm":66,"title":"Little bunting (Emberiza pusilla)","ispublic":1,"isfriend":0,"isfamily":0},{"id":"51762169887","owner":"79722430@N04","secret":"7c4c3a0015","server":"65535","farm":66,"title":"Little bunting (Emberiza pusilla)","ispublic":1,"isfriend":0,"isfamily":0},{"id":"52638895114","owner":"132996946@N06","secret":"7bfd8311e1","server":"65535","farm":66,"title":"Zwergammer - Emberiza pusilla - Little Bunting","ispublic":1,"isfriend":0,"isfamily":0}]},"stat":"ok"}