{"photos":{"page":1,"pages":2,"perpage":100,"total":126,"photo":[{"id":"51816938362","owner":"75299599@N00","secret":"0fa66a3f14","server":"65535","farm":66,"title":"Little Curlew","ispublic":1,"isfriend":0,"isfamily":0},{"id":"51817866741","owner":"75299599@N00","secret":"1ae21d3b0e","server":"65535","farm":66,"title":"Little Curlew (Numenius minutus)","ispublic":1,"isfriend":0,"isfamily":0},{"id":"51232896647","owner":"61021753@N02","secret":"5fb0cd5375","server":"65535","farm":66,"title":"n338_w1150","ispublic":1,"isfriend":0,"isfamily":0},{"id":"51176071826","owner":"34877237@N06","secret":"4cc801e140","server":"65535","farm":66,"title":"Little Curlew","ispublic":1,"isfriend":0,"isfamily":0},{"id":"50161767213","owner":"143943445@N02","secret":"de0180818f","server":"65535","farm":66,"title":"Little Curlew (Numenius minutus) \u5c0f\u6753\u9df8","ispublic":1,"isfriend":0,"isfamily":0},{"id":"50086586186","owner":"30142279@N07","secret":"b8855ea9cd","server":"65535","farm":66,"title":"Numenius minutus","ispublic":1,"isfriend":0,"isfamily":0},{"id":"49944107907","owner":"75814310@N04","secret":"c2473f1f39","server":"65535","farm":66,"title":"1O4A3017","ispublic":1,"isfriend":0,"isfamily":0},{"id":"49828764968","owner":"143943445@N02","secret":"9b64bbc207","server":"65535","farm":66,"title":"Little Curlew (Numenius minutus) \u5c0f\u6753\u9df8","ispublic":1,"isfriend":0,"isfamily":0},{"id":"49827909177","owner":"40195635@N03","secret":"575b94b3de","server":"65535","farm":66,"title":"Little Curlew (Numenius minutus)","ispublic":1,"isfriend":0,"isfamily":0},{"id":"49825593567","owner":"143943445@N02","secret":"bf5bf13ef7","server":"65535","farm":66,"title":"Little Curlew (Numenius minutus) \u5c0f\u6753\u9df8","ispublic":1,"isfriend":0,"isfamily":0},{"id":"49804426052","owner":"137111202@N08","secret":"1b8bcf0f8e","server":"65535","farm":66,"title":"\u5c0f\u6753\u9df8, Little Curlew, Numenius minutus,","ispublic":1,"isfriend":0,"isfamily":0},{"id":"49803568868","owner":"137111202@N08","secret":"5ca0afff1d","server":"65535","farm":66,"title":"\u5c0f\u6753\u9df8, Little Curlew, Numenius minutus,","ispublic":1,"isfriend":0,"isfamily":0},{"id":"49803568298","owner":"137111202@N08","secret":"ab15a25757","server":"65535","farm":66,"title":"\u5c0f\u6753\u9df8, Little Curlew, Numenius minutus,","ispublic":1,"isfriend":0,"isfamily":0},{"id":"49804119841","owner":"137111202@N08","secret":"8338c4c19c","server":"65535","farm":66,"title":"\u5c0f\u6753\u9df8, Little Curlew, Numenius minutus,","ispublic":1,"isfriend":0,"isfamily":0},{"id":"49803567353","owner":"137111202@N08","secret":"d19ae0b465","server":"65535","farm":66,"title":"\u5c0f\u6753\u9df8, Little Curlew, Numenius minutus,","ispublic":1,"isfriend":0,"isfamily":0},{"id":"49093054461","owner":"38356169@N07","secret":"c175b551c0","server":"65535","farm":66,"title":"Little Curlew","ispublic":1,"isfriend":0,"isfamily":0},{"id":"49077263072","owner":"31350467@N04","secret":"3b93fb9966","server":"65535","farm":66,"title":"Curlew, Little (Numenius minutus)","ispublic":1,"isfriend":0,"isfamily":0},{"id":"26270815358","owner":"107413954@N07","secret":"1958a21f6f","server":"4770","farm":5,"title":"Numenius minutus \u5c0f\u6753\u9df8(\u904e\u5883\u9ce5)","ispublic":1,"isfriend":0,"isfamily":0},{"id":"38696397325","owner":"49224489@N05","secret":"51b797db22","server":"4628","farm":5,"title":"Little Curlew - Numenius minutus - Courlis nain","ispublic":1,"isfriend":0,"isfamily":0},{"id":"37686125476","owner":"56891930@N05","secret":"d70a6e78dc","server":"4493","farm":5,"title":"Rare Vagrant to Malaysia [ Mega Lifer 2017 ] Little Curlew (Numenius minutus) \u5c0f\u6753\u9e6c - Sungai Balang Paddyfield \u53cc\u6eaa\u5df4\u6d6a\u7a3b\u7530\u533a, Mukim Sungai Balang \u53cc\u6eaa\u5df4\u6d6a\u5deb\u91d1, Daerah Muar \u9ebb\u5761\u53bf, Johor \u67d4\u4f5b\u5dde, Malaysia \u9a6c\u6765\u897f\u4e9a","ispublic":1,"isfriend":0,"isfamily":0},{"id":"37730809741","owner":"56891930@N05","secret":"5d49f80f62","server":"4484","farm":5,"title":"Rare Vagrant to Malaysia [ Mega Lifer 2017 ] Little Curlew (Numenius minutus) \u5c0f\u6753\u9e6c - Sungai Balang Paddyfield \u53cc\u6eaa\u5df4\u6d6a\u7a3b\u7530\u533a, Mukim Sungai Balang \u53cc\u6eaa\u5df4\u6d6a\u5deb\u91d1, Daerah Muar \u9ebb\u5761\u53bf, Johor \u67d4\u4f5b\u5dde, Malaysia \u9a6c\u6765\u897f\u4e9a","ispublic":1,"isfriend":0,"isfamily":0},{"id":"37001576504","owner":"56891930@N05","secret":"38ca14b397","server":"4462","farm":5,"title":"Rare Vagrant to Malaysia [ Mega Lifer 2017 ] Little Curlew (Numenius minutus) \u5c0f\u6753\u9e6c - Sungai Balang Paddyfield \u53cc\u6eaa\u5df4\u6d6a\u7a3b\u7530\u533a, Mukim Sungai Balang \u53cc\u6eaa\u5df4\u6d6a\u5deb\u91d1, Daerah Muar \u9ebb\u5761\u53bf, Johor \u67d4\u4f5b\u5dde, Malaysia \u9a6c\u6765\u897f\u4e9a","ispublic":1,"isfriend":0,"isfamily":0},{"id":"36813010511","owner":"61021753@N02","secret":"626f34b350","server":"4338","farm":5,"title":"n183_w1150","ispublic":1,"isfriend":0,"isfamily":0},{"id":"36770516542","owner":"130113460@N03","secret":"10bef158b3","server":"4423","farm":5,"title":"Little curlew Numenius minutus","ispublic":1,"isfriend":0,"isfamily":0},{"id":"34189390633","owner":"50809355@N06","secret":"f301802b4d","server":"4267","farm":5,"title":"Curlew Possibly Little Curlew Numenius minutus Scolopacidae Buffalo Creek Mangroves","ispublic":1,"isfriend":0,"isfamily":0},{"id":"28692876294","owner":"130113460@N03","secret":"8df8ef316d","server":"8631","farm":9,"title":"Little curlew Numenius minutus","ispublic":1,"isfriend":0,"isfamily":0},{"id":"27023781081","owner":"127542576@N05","secret":"44b8559308","server":"7563","farm":8,"title":"\u5c0f\u6753\u9df8 (Numenius minutus#Little Curlew)","ispublic":1,"isfriend":0,"isfamily":0},{"id":"24301989694","owner":"73839530@N04","secret":"2fd804b30d","server":"1656","farm":2,"title":"Little Curlew","ispublic":1,"isfriend":0,"isfamily":0},{"id":"22952941203","owner":"125337794@N03","secret":"83218802ea","server":"5692","farm":6,"title":"Little Whimbrel (Numenius minutus)","ispublic":1,"isfriend":0,"isfamily":0},{"id":"15528812939","owner":"40195635@N03","secret":"2cf654d57e","server":"5612","farm":6,"title":"Little Curlew (Numenius minutus)","ispublic":1,"isfriend":0,"isfamily":0},{"id":"14969435437","owner":"23971969@N03","secret":"149f48ea8b","server":"3877","farm":4,"title":"Little Curlew (Numenius minutus)","ispublic":1,"isfriend":0,"isfamily":0},{"id":"14418052518","owner":"87516100@N07","secret":"78e8574bbc","server":"3873","farm":4,"title":"Little Curlew:DSC_4300","ispublic":1,"isfriend":0,"isfamily":0},{"id":"8764080774","owner":"40195635@N03","secret":"79571534b2","server":"7380","farm":8,"title":"Little Curlew (Numenius minutus)","ispublic":1,"isfriend":0,"isfamily":0},{"id":"8760658479","owner":"40195635@N03","secret":"1283333d61","server":"5464","farm":6,"title":"Little Curlew (Numenius minutus)","ispublic":1,"isfriend":0,"isfamily":0},{"id":"8725049692","owner":"40195635@N03","secret":"29472d0519","server":"7402","farm":8,"title":"Little Curlew (Numenius minutus)","ispublic":1,"isfriend":0,"isfamily":0},{"id":"8691775098","owner":"40195635@N03","secret":"f4097e2308","server":"65535","farm":66,"title":"Little Curlew (Numenius minutus)","ispublic":1,"isfriend":0,"isfamily":0},{"id":"8067033548","owner":"36542741@N03","secret":"57ae89e0fe","server":"8451","farm":9,"title":"\u5c0f\u6753\u9df8 Little Curlew","ispublic":1,"isfriend":0,"isfamily":0},{"id":"8067035491","owner":"36542741@N03","secret":"7a9baa6010","server":"8173","farm":9,"title":"\u5c0f\u6753\u9df8 Little Curlew","ispublic":1,"isfriend":0,"isfamily":0},{"id":"8067032222","owner":"36542741@N03","secret":"70637806fe","server":"8178","farm":9,"title":"\u5c0f\u6753\u9df8 Little Curlew","ispublic":1,"isfriend":0,"isfamily":0},{"id":"52423401583","owner":"7166732@N03","secret":"be1bc22ed0","server":"65535","farm":66,"title":"\u5c0f\u6753\u9df8 Numenius minutus","ispublic":1,"isfriend":0,"isfamily":0},{"id":"52422883421","owner":"7166732@N03","secret":"2d05f44da9","server":"65535","farm":66,"title":"\u5c0f\u6753\u9df8 Numenius minutus","ispublic":1,"isfriend":0,"isfamily":0},{"id":"52423338075","owner":"7166732@N03","secret":"3ab412e4b2","server":"65535","farm":66,"title":"\u5c0f\u6753\u9df8 Numenius minutus","ispublic":1,"isfriend":0,"isfamily":0},{"id":"52422936454","owner":"7166732@N03","secret":"e637c8c28f","server":"65535","farm":66,"title":"\u5c0f\u6753\u9df8 Numenius minutus","ispublic":1,"isfriend":0,"isfamily":0},{"id":"52422936259","owner":"7166732@N03","secret":"f2f3484c07","server":"65535","farm":66,"title":"\u5c0f\u6753\u9df8 Numenius minutus","ispublic":1,"isfriend":0,"isfamily":0},{"id":"51825727509","owner":"40195635@N03","secret":"46c74000a5","server":"65535","farm":66,"title":"Little Curlew (Numenius minutus)","ispublic":1,"isfriend":0,"isfamily":0},{"id":"50003807231","owner":"187469698@N05","secret":"562d59cdf0","server":"65535","farm":66,"title":"253 Little Curlew - Andrew Walker 001","ispublic":1,"isfriend":0,"isfamily":0},{"id":"49860377976","owner":"167581694@N04","secret":"b5f580a039","server":"65535","farm":66,"title":"little curlew (Numenius minutus)","ispublic":1,"isfriend":0,"isfamily":0},{"id":"49808729798","owner":"137111202@N08","secret":"722479ba4f","server":"65535","farm":66,"title":"\u5c0f\u6753\u9df8, Little Curlew, Numenius minutus,","ispublic":1,"isfriend":0,"isfamily":0},{"id":"49804425582","owner":"137111202@N08","secret":"14a873ed0e","server":"65535","farm":66,"title":"\u5c0f\u6753\u9df8, Little Curlew, Numenius minutus,","ispublic":1,"isfriend":0,"isfamily":0},{"id":"49795321553","owner":"28561404@N02","secret":"51e5049405","server":"65535","farm":66,"title":"Little Curlew","ispublic":1,"isfriend":0,"isfamily":0},{"id":"49795785096","owner":"28561404@N02","secret":"c8e7932371","server":"65535","farm":66,"title":"Little Curlew","ispublic":1,"isfriend":0,"isfamily":0},{"id":"49450007333","owner":"93268738@N04","secret":"051f8eb7c0","server":"65535","farm":66,"title":"Courlis nain - Little Curlew - Numenius minutus","ispublic":1,"isfriend":0,"isfamily":0},{"id":"49450716812","owner":"93268738@N04","secret":"5e6253aa84","server":"65535","farm":66,"title":"Courlis nain - Little Curlew - Numenius minutus","ispublic":1,"isfriend":0,"isfamily":0},{"id":"49292044917","owner":"12639178@N07","secret":"a3b3a1ba6c","server":"65535","farm":66,"title":"Zwergbrachvogel (Numenius minutus)","ispublic":1,"isfriend":0,"isfamily":0},{"id":"49292044722","owner":"12639178@N07","secret":"2f4a6b9a24","server":"65535","farm":66,"title":"Zwergbrachvogel (Numenius minutus)","ispublic":1,"isfriend":0,"isfamily":0},{"id":"49289409622","owner":"12639178@N07","secret":"24439ee077","server":"65535","farm":66,"title":"Zwergbrachvogel (Numenius minutus)","ispublic":1,"isfriend":0,"isfamily":0},{"id":"49093254892","owner":"38356169@N07","secret":"1844a44680","server":"65535","farm":66,"title":"Little Curlew","ispublic":1,"isfriend":0,"isfamily":0},{"id":"45624321102","owner":"21331264@N04","secret":"88129f40da","server":"1963","farm":2,"title":"Numenius minutus 1","ispublic":1,"isfriend":0,"isfamily":0},{"id":"42802912065","owner":"29848193@N08","secret":"8659d509fe","server":"848","farm":1,"title":"Serbia, Novi Sad - the Pannonian Plain","ispublic":1,"isfriend":0,"isfamily":0},{"id":"38169004675","owner":"76358583@N04","secret":"66a3ec1940","server":"4540","farm":5,"title":"Little curlew (Numenius minutus)","ispublic":1,"isfriend":0,"isfamily":0},{"id":"35808460084","owner":"149879983@N07","secret":"9e2a91a19d","server":"4363","farm":5,"title":"Litlle Curlew","ispublic":1,"isfriend":0,"isfamily":0},{"id":"34197272186","owner":"32156534@N02","secret":"f61633f52a","server":"2873","farm":3,"title":"\u5c0f\u6753\u9df8\/\u6c34\u5c16\u4ed4 Numenius minutus\/Little Curlew","ispublic":1,"isfriend":0,"isfamily":0},{"id":"33898592431","owner":"148175262@N05","secret":"bf58cf8c89","server":"3946","farm":4,"title":"\u5c0f\u6753\u9df8 Numenius minutus","ispublic":1,"isfriend":0,"isfamily":0},{"id":"33185263994","owner":"148175262@N05","secret":"103e645750","server":"2937","farm":3,"title":"\u5c0f\u6753\u9df8 Numenius minutus","ispublic":1,"isfriend":0,"isfamily":0},{"id":"33642927210","owner":"148175262@N05","secret":"eaf65fa95f","server":"2843","farm":3,"title":"\u5c0f\u6753\u9df8 Numenius minutus","ispublic":1,"isfriend":0,"isfamily":0},{"id":"33870962872","owner":"148175262@N05","secret":"cf3c7b6992","server":"2819","farm":3,"title":"\u5c0f\u6753\u9df8 Numenius minutus","ispublic":1,"isfriend":0,"isfamily":0},{"id":"33870962642","owner":"148175262@N05","secret":"e65971f7ec","server":"2935","farm":3,"title":"\u5c0f\u6753\u9df8 Numenius minutus","ispublic":1,"isfriend":0,"isfamily":0},{"id":"33642926610","owner":"148175262@N05","secret":"3c901912d7","server":"2822","farm":3,"title":"\u5c0f\u6753\u9df8 Numenius minutus","ispublic":1,"isfriend":0,"isfamily":0},{"id":"33185255554","owner":"148175262@N05","secret":"8309a87613","server":"2839","farm":3,"title":"\u5c0f\u6753\u9df8 Numenius minutus","ispublic":1,"isfriend":0,"isfamily":0},{"id":"33185254944","owner":"148175262@N05","secret":"8baf24521f","server":"2925","farm":3,"title":"\u5c0f\u6753\u9df8 Numenius minutus","ispublic":1,"isfriend":0,"isfamily":0},{"id":"32818419443","owner":"132153789@N03","secret":"84b142bebd","server":"2934","farm":3,"title":"Little Curlew","ispublic":1,"isfriend":0,"isfamily":0},{"id":"30311622061","owner":"125667590@N05","secret":"ccf42c2428","server":"8269","farm":9,"title":"\u5c0f\u6753\u9df8 Little Curlew (Numenius minutus)","ispublic":1,"isfriend":0,"isfamily":0},{"id":"29767033704","owner":"125667590@N05","secret":"b9bf2c9633","server":"5485","farm":6,"title":"\u5c0f\u6753\u9df8 Little Curlew (Numenius minutus)","ispublic":1,"isfriend":0,"isfamily":0},{"id":"28195472005","owner":"96060626@N03","secret":"3e47dbba72","server":"7711","farm":8,"title":"IMG_9698","ispublic":1,"isfriend":0,"isfamily":0},{"id":"26817904410","owner":"127542576@N05","secret":"1b446bd322","server":"7062","farm":8,"title":"\u5c0f\u6753\u9df8 (Numenius minutus#Little Curlew)","ispublic":1,"isfriend":0,"isfamily":0},{"id":"27091902145","owner":"127542576@N05","secret":"4de4743be6","server":"7242","farm":8,"title":"\u5c0f\u6753\u9df8 (Numenius minutus#Little Curlew)","ispublic":1,"isfriend":0,"isfamily":0},{"id":"24932590565","owner":"73839530@N04","secret":"d4488fd9f4","server":"1474","farm":2,"title":"Little Curlew","ispublic":1,"isfriend":0,"isfamily":0},{"id":"24637103530","owner":"73839530@N04","secret":"f578140a1d","server":"1714","farm":2,"title":"Little Curlew","ispublic":1,"isfriend":0,"isfamily":0},{"id":"24305742523","owner":"73839530@N04","secret":"a82dacd2a9","server":"1712","farm":2,"title":"Little Curlew","ispublic":1,"isfriend":0,"isfamily":0},{"id":"24255051795","owner":"130021529@N02","secret":"99892e339f","server":"1573","farm":2,"title":"","ispublic":1,"isfriend":0,"isfamily":0},{"id":"23626793144","owner":"130021529@N02","secret":"7df277b159","server":"1607","farm":2,"title":"","ispublic":1,"isfriend":0,"isfamily":0},{"id":"23959380930","owner":"130021529@N02","secret":"ef08c74cbd","server":"1576","farm":2,"title":"","ispublic":1,"isfriend":0,"isfamily":0},{"id":"24172420731","owner":"130021529@N02","secret":"a7f8cbfc14","server":"1620","farm":2,"title":"","ispublic":1,"isfriend":0,"isfamily":0},{"id":"23558817571","owner":"113679267@N08","secret":"9836421f98","server":"660","farm":1,"title":"Little Curlew (Numenius minutus)","ispublic":1,"isfriend":0,"isfamily":0},{"id":"23095429971","owner":"65637506@N02","secret":"25643c7447","server":"5686","farm":6,"title":"Little Curlew ( Numenius minutus )   #wader #shorebirds #migration #bird #birds #birdwatching #birdwatchers #birdphotography #birding #birdingphotography #widlife #wildphotography #bwkehati #biodiversityindonesia #burungnusantara #burungindonesia #photogr","ispublic":1,"isfriend":0,"isfamily":0},{"id":"20022416754","owner":"129778548@N06","secret":"d881e39d62","server":"5715","farm":6,"title":"Little Curlew (Numenius minutus)","ispublic":1,"isfriend":0,"isfamily":0},{"id":"16795214938","owner":"46140772@N03","secret":"8dbf5a7b12","server":"7633","farm":8,"title":"Camoflaged","ispublic":1,"isfriend":0,"isfamily":0},{"id":"16769544106","owner":"61021753@N02","secret":"6fc38ccf88","server":"8612","farm":9,"title":"n122_w1150","ispublic":1,"isfriend":0,"isfamily":0},{"id":"16675742816","owner":"54876436@N08","secret":"79ca484b59","server":"8681","farm":9,"title":"Kermadec-3999","ispublic":1,"isfriend":0,"isfamily":0},{"id":"16675742266","owner":"54876436@N08","secret":"9128afa749","server":"8625","farm":9,"title":"Kermadec-4023","ispublic":1,"isfriend":0,"isfamily":0},{"id":"16701663375","owner":"54876436@N08","secret":"02745edc08","server":"8589","farm":9,"title":"Kermadec-4029","ispublic":1,"isfriend":0,"isfamily":0},{"id":"15112946557","owner":"127858540@N03","secret":"03fe5ce065","server":"3875","farm":4,"title":"Numenius minutus","ispublic":1,"isfriend":0,"isfamily":0},{"id":"14036045113","owner":"89964037@N08","secret":"387bc074bf","server":"7127","farm":8,"title":"Little Curlew - Numenius minutus. Male 31-36 cm","ispublic":1,"isfriend":0,"isfamily":0},{"id":"11855294503","owner":"41565518@N00","secret":"b8754b9a36","server":"7418","farm":8,"title":"Little Curlew","ispublic":1,"isfriend":0,"isfamily":0},{"id":"11855292843","owner":"41565518@N00","secret":"d4d02a1008","server":"7362","farm":8,"title":"Little Curlew","ispublic":1,"isfriend":0,"isfamily":0},{"id":"11855437134","owner":"41565518@N00","secret":"7850c0cc39","server":"5533","farm":6,"title":"Little Curlew","ispublic":1,"isfriend":0,"isfamily":0},{"id":"10775219423","owner":"101736587@N04","secret":"8191186571","server":"5548","farm":6,"title":"Little Curlew (Numenius minutus)","ispublic":1,"isfriend":0,"isfamily":0},{"id":"8698022863","owner":"74382673@N03","secret":"eebb723eab","server":"8418","farm":9,"title":"\u5c0f\u6753\u9df8 Numenius minutus","ispublic":1,"isfriend":0,"isfamily":0},{"id":"8699072198","owner":"74382673@N03","secret":"1568b44d46","server":"8133","farm":9,"title":"\u5c0f\u6753\u9df8 Numenius minutus","ispublic":1,"isfriend":0,"isfamily":0},{"id":"8699071720","owner":"74382673@N03","secret":"37ef1b4d65","server":"8414","farm":9,"title":"\u5c0f\u6753\u9df8 Numenius minutus","ispublic":1,"isfriend":0,"isfamily":0}]},"stat":"ok"}