{"photos":{"page":1,"pages":20,"perpage":100,"total":1978,"photo":[{"id":"52779791875","owner":"66875475@N08","secret":"50fc21bce8","server":"65535","farm":66,"title":"Aigrette garzette - Egretta garzetta - Little egret","ispublic":1,"isfriend":0,"isfamily":0},{"id":"52775051274","owner":"66875475@N08","secret":"f3416d04a0","server":"65535","farm":66,"title":"Aigrette garzette - Egretta garzetta - Little egret","ispublic":1,"isfriend":0,"isfamily":0},{"id":"52772838299","owner":"30722034@N02","secret":"a252b395e5","server":"65535","farm":66,"title":"Little egret\/Egretta garzetta","ispublic":1,"isfriend":0,"isfamily":0},{"id":"52757473896","owner":"66875475@N08","secret":"0909c63c64","server":"65535","farm":66,"title":"Aigrette garzette - Egretta garzetta - Little egret","ispublic":1,"isfriend":0,"isfamily":0},{"id":"52757877940","owner":"66875475@N08","secret":"a8727dd222","server":"65535","farm":66,"title":"Aigrette garzette - Egretta garzetta - Little egret","ispublic":1,"isfriend":0,"isfamily":0},{"id":"52742054317","owner":"66875475@N08","secret":"0d15d085c5","server":"65535","farm":66,"title":"Aigrette garzette - Egretta garzetta - Little egret","ispublic":1,"isfriend":0,"isfamily":0},{"id":"52742567506","owner":"66875475@N08","secret":"4f49b5e95a","server":"65535","farm":66,"title":"Aigrette garzette - Egretta garzetta - Little egret","ispublic":1,"isfriend":0,"isfamily":0},{"id":"52737103763","owner":"127058286@N04","secret":"0e7744fe92","server":"65535","farm":66,"title":"Aigrette garzette - Little Egret (Egretta garzetta) - La Droite - D\u00e9cines-Charpieu (Rh\u00f4ne) France, le 26 juin 2016","ispublic":1,"isfriend":0,"isfamily":0},{"id":"52736328125","owner":"127058286@N04","secret":"a1f79b637e","server":"65535","farm":66,"title":"Aigrette garzette - Little Egret (Egretta garzetta) - Salaise-sur-Sanne - Le Rh\u00f4ne, Canal de d\u00e9rivation (Is\u00e8re) France, le 17 avril 2022","ispublic":1,"isfriend":0,"isfamily":0},{"id":"52736213505","owner":"110673345@N06","secret":"beab07a219","server":"65535","farm":66,"title":"Aigrette garzette  au coucher du soleil \/ Little egret at sunset","ispublic":1,"isfriend":0,"isfamily":0},{"id":"52732087015","owner":"116181786@N08","secret":"4d67092927","server":"65535","farm":66,"title":"Dentelles de sortie","ispublic":1,"isfriend":0,"isfamily":0},{"id":"52702623666","owner":"66875475@N08","secret":"3ec1dac1e3","server":"65535","farm":66,"title":"Aigrette garzette - Egretta garzetta - Little egret","ispublic":1,"isfriend":0,"isfamily":0},{"id":"52695900771","owner":"148258021@N05","secret":"2f11a0d10d","server":"0","farm":0,"title":"Aigrette Garzette","ispublic":1,"isfriend":0,"isfamily":0},{"id":"52696163119","owner":"148258021@N05","secret":"2e2f9e6c37","server":"65535","farm":66,"title":"Aigrette Garzette","ispublic":1,"isfriend":0,"isfamily":0},{"id":"52696163049","owner":"148258021@N05","secret":"b62e85651b","server":"65535","farm":66,"title":"Aigrette Garzette","ispublic":1,"isfriend":0,"isfamily":0},{"id":"52649290428","owner":"82352887@N04","secret":"6817f51694","server":"65535","farm":66,"title":"Aigrette garzette (Egretta garzetta)","ispublic":1,"isfriend":0,"isfamily":0},{"id":"52641932534","owner":"31845846@N04","secret":"3533143d67","server":"65535","farm":66,"title":"Aigrette garzette - Egretta garzetta (Domaine Des Oiseaux, Arie\u0300ge) 21 janvier 2023","ispublic":1,"isfriend":0,"isfamily":0},{"id":"52624582776","owner":"50054477@N06","secret":"f3e6b5fcfb","server":"65535","farm":66,"title":"Du vent dans les plumes. Aigrette garzette (Egretta garzetta)","ispublic":1,"isfriend":0,"isfamily":0},{"id":"52580940215","owner":"165579059@N02","secret":"27ce960d0e","server":"65535","farm":66,"title":"Little egret (Egretta garzetta ), Seletar Hills Singapore 23 December 2022.  Sony HX99.","ispublic":1,"isfriend":0,"isfamily":0},{"id":"52572830345","owner":"150450482@N04","secret":"028544f1c4","server":"65535","farm":66,"title":"A faire des ronds dans l'eau.. To make circles in the water..","ispublic":1,"isfriend":0,"isfamily":0},{"id":"52568390291","owner":"64560390@N05","secret":"38d4ec07fd","server":"65535","farm":66,"title":"Aigrette garzette","ispublic":1,"isfriend":0,"isfamily":0},{"id":"52564070307","owner":"50054477@N06","secret":"b936513259","server":"65535","farm":66,"title":"Aigrette garzette (Egretta garzetta)","ispublic":1,"isfriend":0,"isfamily":0},{"id":"52550745416","owner":"163240651@N04","secret":"b04911812a","server":"65535","farm":66,"title":"Aigrette Garzette","ispublic":1,"isfriend":0,"isfamily":0},{"id":"52547655812","owner":"50054477@N06","secret":"6499b34243","server":"65535","farm":66,"title":"P\u00eache collective","ispublic":1,"isfriend":0,"isfamily":0},{"id":"52534957391","owner":"150450482@N04","secret":"28dff415b9","server":"65535","farm":66,"title":"Aigrette Garzette (Egretta garzetta)","ispublic":1,"isfriend":0,"isfamily":0},{"id":"52477786463","owner":"55307203@N04","secret":"4dcfe57f48","server":"65535","farm":66,"title":"Grande Aigrette","ispublic":1,"isfriend":0,"isfamily":0},{"id":"52466273918","owner":"116181786@N08","secret":"71362a87ef","server":"65535","farm":66,"title":"Aigrette garcette et Tournepiere \u00e0 collier","ispublic":1,"isfriend":0,"isfamily":0},{"id":"52461542627","owner":"153346469@N02","secret":"1629bda80e","server":"65535","farm":66,"title":"Aigrette garzette - Egretta garzetta - Little Egret - Seidenreiher -  P\u00e9l\u00e9caniformes - Ard\u00e9id\u00e9s","ispublic":1,"isfriend":0,"isfamily":0},{"id":"52458241366","owner":"66875475@N08","secret":"c1b802e35d","server":"65535","farm":66,"title":"Aigrette garzette - Egretta garzetta - Little egret","ispublic":1,"isfriend":0,"isfamily":0},{"id":"52453897443","owner":"66875475@N08","secret":"0be0e0e075","server":"65535","farm":66,"title":"Aigrette garzette - Egretta garzetta - Little egret","ispublic":1,"isfriend":0,"isfamily":0},{"id":"52450878646","owner":"66875475@N08","secret":"8959004e1c","server":"65535","farm":66,"title":"Aigrette garzette - Egretta garzetta - Little egret","ispublic":1,"isfriend":0,"isfamily":0},{"id":"52450354352","owner":"66875475@N08","secret":"4f4a4337ef","server":"65535","farm":66,"title":"Aigrette garzette - Egretta garzetta - Little egret","ispublic":1,"isfriend":0,"isfamily":0},{"id":"52445195679","owner":"25295081@N05","secret":"8fbb092b24","server":"65535","farm":66,"title":"Aigrette garzette - N&B","ispublic":1,"isfriend":0,"isfamily":0},{"id":"52428793622","owner":"66875475@N08","secret":"b8bbc8288a","server":"65535","farm":66,"title":"Aigrette garzette - Egretta garzetta - Little egret","ispublic":1,"isfriend":0,"isfamily":0},{"id":"52429296126","owner":"66875475@N08","secret":"00989388b9","server":"65535","farm":66,"title":"Aigrette garzette - Egretta garzetta - Little egret","ispublic":1,"isfriend":0,"isfamily":0},{"id":"52426779392","owner":"84442428@N07","secret":"99cb4d8929","server":"65535","farm":66,"title":"La belle du Teich","ispublic":1,"isfriend":0,"isfamily":0},{"id":"52425514753","owner":"66875475@N08","secret":"bce6e782de","server":"65535","farm":66,"title":"Aigrette garzette - Egretta garzetta - Little egret","ispublic":1,"isfriend":0,"isfamily":0},{"id":"52424737454","owner":"191931250@N02","secret":"c10fbc9318","server":"65535","farm":66,"title":"Perch\u00e9e dans la lumi\u00e8re du matin","ispublic":1,"isfriend":0,"isfamily":0},{"id":"52412059853","owner":"146283954@N06","secret":"f37d25e2c8","server":"65535","farm":66,"title":"Les aigrettes (Egretta garzetta, Ardea alba)","ispublic":1,"isfriend":0,"isfamily":0},{"id":"52408559866","owner":"66875475@N08","secret":"8018d2a56e","server":"65535","farm":66,"title":"Aigrette garzette - Egretta garzetta - Little egret","ispublic":1,"isfriend":0,"isfamily":0},{"id":"52406903828","owner":"66875475@N08","secret":"8c8c09d2ef","server":"65535","farm":66,"title":"Aigrette garzette - Egretta garzetta - Little egret","ispublic":1,"isfriend":0,"isfamily":0},{"id":"52394415231","owner":"95301440@N02","secret":"5cf838e3de","server":"65535","farm":66,"title":"Aigrette garzette (fr) - Egretta garzetta (Linnaeus, 1766) - Seidenreiher (de) - Little Egret (en)","ispublic":1,"isfriend":0,"isfamily":0},{"id":"52375985097","owner":"36274920@N05","secret":"ab448eb483","server":"65535","farm":66,"title":"Parc Animalier de Sainte-Croix - Septembre 2022","ispublic":1,"isfriend":0,"isfamily":0},{"id":"52374471928","owner":"66875475@N08","secret":"007af9650c","server":"65535","farm":66,"title":"Aigrette garzette - Egretta garzetta - Little egret","ispublic":1,"isfriend":0,"isfamily":0},{"id":"52369182006","owner":"66875475@N08","secret":"62d0604aaf","server":"65535","farm":66,"title":"Aigrette garzette - Egretta garzetta -Little egret","ispublic":1,"isfriend":0,"isfamily":0},{"id":"52364397374","owner":"66875475@N08","secret":"80a05cae87","server":"65535","farm":66,"title":"Aigrette garzette - Egretta garzetta - Little egret","ispublic":1,"isfriend":0,"isfamily":0},{"id":"52359822001","owner":"66875475@N08","secret":"2174e79c0c","server":"65535","farm":66,"title":"Aigrette garzette - Egretta garzetta Little egret","ispublic":1,"isfriend":0,"isfamily":0},{"id":"52360241525","owner":"66875475@N08","secret":"b7cc7d3e75","server":"65535","farm":66,"title":"Aigrette garzette - Egretta garzetta Little egret","ispublic":1,"isfriend":0,"isfamily":0},{"id":"52357835525","owner":"66875475@N08","secret":"f7336de081","server":"65535","farm":66,"title":"Aigrette garzette - Egretta garzetta - Little egret","ispublic":1,"isfriend":0,"isfamily":0},{"id":"52355470010","owner":"66875475@N08","secret":"b178e6e52f","server":"65535","farm":66,"title":"Aigrette garzette - Egretta garzetta - Little egret","ispublic":1,"isfriend":0,"isfamily":0},{"id":"52346089928","owner":"142519789@N07","secret":"c32d8ace85","server":"65535","farm":66,"title":"Little Egret, River Exe Flood Channel","ispublic":1,"isfriend":0,"isfamily":0},{"id":"52345846196","owner":"142519789@N07","secret":"f62859796a","server":"65535","farm":66,"title":"Little Egret, River Exe Flood Channel","ispublic":1,"isfriend":0,"isfamily":0},{"id":"52345845406","owner":"142519789@N07","secret":"b20cc1a5f7","server":"65535","farm":66,"title":"Little Egret, River Exe Flood Channel","ispublic":1,"isfriend":0,"isfamily":0},{"id":"52343622612","owner":"50054477@N06","secret":"82d0709019","server":"65535","farm":66,"title":"Aigrette garzette (Egretta garzetta)","ispublic":1,"isfriend":0,"isfamily":0},{"id":"52331706847","owner":"50054477@N06","secret":"b1cde7d8ab","server":"65535","farm":66,"title":"Aigrette garzette (Egretta garzetta), grand cormoran (Phalacrocorax carbo) et grande aigrette (Ardea alba)","ispublic":1,"isfriend":0,"isfamily":0},{"id":"52329871179","owner":"50054477@N06","secret":"85e740ee58","server":"65535","farm":66,"title":"Aigrette garzette (Egretta garzetta)","ispublic":1,"isfriend":0,"isfamily":0},{"id":"52319903588","owner":"189149566@N04","secret":"02e777536e","server":"65535","farm":66,"title":"C\u00e9lestine","ispublic":1,"isfriend":0,"isfamily":0},{"id":"52300960779","owner":"145373566@N06","secret":"02a999e251","server":"65535","farm":66,"title":"Aigrette garzette_09","ispublic":1,"isfriend":0,"isfamily":0},{"id":"52289129966","owner":"189697862@N03","secret":"38caab8cf0","server":"65535","farm":66,"title":"Aigrette garzette Egretta garzetta - Little Egret \u00e0 l'\u00e9tang du Louroux.","ispublic":1,"isfriend":0,"isfamily":0},{"id":"52281883437","owner":"66875475@N08","secret":"5da9e39564","server":"65535","farm":66,"title":"Aigrette garzette - Egretta garzetta - Little egret","ispublic":1,"isfriend":0,"isfamily":0},{"id":"52283346865","owner":"66875475@N08","secret":"dffcd8ab18","server":"65535","farm":66,"title":"Aigrette garzette - Egretta garzetta - Little egret","ispublic":1,"isfriend":0,"isfamily":0},{"id":"52282860811","owner":"66875475@N08","secret":"9aa0a2aaae","server":"65535","farm":66,"title":"Aigrette garzette - Egretta garzetta - Little egret","ispublic":1,"isfriend":0,"isfamily":0},{"id":"52276704573","owner":"66875475@N08","secret":"cbf2b34e05","server":"65535","farm":66,"title":"Aigrette garzette - Egretta garzetta - Little egret","ispublic":1,"isfriend":0,"isfamily":0},{"id":"52267456494","owner":"66875475@N08","secret":"1cfd398f9b","server":"65535","farm":66,"title":"Aigrette garzette - Egretta garzetta - Little egret","ispublic":1,"isfriend":0,"isfamily":0},{"id":"52256209633","owner":"66875475@N08","secret":"c48b05fd5d","server":"65535","farm":66,"title":"Aigrette garzette - Egretta garzetta - Little egret","ispublic":1,"isfriend":0,"isfamily":0},{"id":"52253657723","owner":"66875475@N08","secret":"9a0f3a4ef7","server":"65535","farm":66,"title":"Aigrette garzette - Egretta garzetta - Little egret","ispublic":1,"isfriend":0,"isfamily":0},{"id":"52248373147","owner":"66875475@N08","secret":"491e74518d","server":"65535","farm":66,"title":"Aigrette garzette - Egretta garzetta - Little egret","ispublic":1,"isfriend":0,"isfamily":0},{"id":"52246748367","owner":"116181786@N08","secret":"bd2982f363","server":"65535","farm":66,"title":"DDO_2022-07-28-566.jpg","ispublic":1,"isfriend":0,"isfamily":0},{"id":"52235696993","owner":"66875475@N08","secret":"620f310362","server":"65535","farm":66,"title":"Aigrette garzette - Egretta garzetta - Little egret","ispublic":1,"isfriend":0,"isfamily":0},{"id":"52229765870","owner":"66875475@N08","secret":"7f870c6248","server":"65535","farm":66,"title":"Aigrette garzette - Egretta garzetta - Little egret","ispublic":1,"isfriend":0,"isfamily":0},{"id":"52215690966","owner":"116181786@N08","secret":"3437362dda","server":"65535","farm":66,"title":"Black and white ?","ispublic":1,"isfriend":0,"isfamily":0},{"id":"52202454483","owner":"66875475@N08","secret":"f04eebc570","server":"65535","farm":66,"title":"Aigrette garzette - Egretta garzetta - Little egret","ispublic":1,"isfriend":0,"isfamily":0},{"id":"52198460450","owner":"142486058@N07","secret":"d8930d90c8","server":"65535","farm":66,"title":"L\u2019Aigrette Garzette dans son aire de nourrissage.","ispublic":1,"isfriend":0,"isfamily":0},{"id":"52182456915","owner":"66875475@N08","secret":"f261ac26c5","server":"65535","farm":66,"title":"Aigrette garzette - Egretta garzetta - Little egret","ispublic":1,"isfriend":0,"isfamily":0},{"id":"52179883434","owner":"66875475@N08","secret":"1769211315","server":"65535","farm":66,"title":"Aigrette garzette - Egretta garzetta - Little egret","ispublic":1,"isfriend":0,"isfamily":0},{"id":"52178604877","owner":"66875475@N08","secret":"5b46c69302","server":"65535","farm":66,"title":"Aigrette garzette - Egretta garzetta - Little egret","ispublic":1,"isfriend":0,"isfamily":0},{"id":"52174309476","owner":"66875475@N08","secret":"f1a2c6c7af","server":"65535","farm":66,"title":"Aigrette garzette - Egretta garzetta - Little egret","ispublic":1,"isfriend":0,"isfamily":0},{"id":"52173255592","owner":"66875475@N08","secret":"14f690b97e","server":"65535","farm":66,"title":"Aigrette garzette - Egretta garzetta - Little egret","ispublic":1,"isfriend":0,"isfamily":0},{"id":"52171986131","owner":"66875475@N08","secret":"4216292e57","server":"65535","farm":66,"title":"Aigrette garzette - Egretta garzetta - Little egret","ispublic":1,"isfriend":0,"isfamily":0},{"id":"52171620945","owner":"155603255@N04","secret":"80d54103db","server":"65535","farm":66,"title":"Aigrette \u00e0 gorge blanche ( Egretta gularis).","ispublic":1,"isfriend":0,"isfamily":0},{"id":"52150480858","owner":"33960023@N04","secret":"b01c6cf4bb","server":"65535","farm":66,"title":"L'aigrette garzette | Little egret","ispublic":1,"isfriend":0,"isfamily":0},{"id":"52146358435","owner":"33960023@N04","secret":"cc05003b2a","server":"65535","farm":66,"title":"L'aigrette garzette | Little egret","ispublic":1,"isfriend":0,"isfamily":0},{"id":"52123860510","owner":"66875475@N08","secret":"51b537b9df","server":"65535","farm":66,"title":"Aigrette garzette - Egretta garzetta - Little egret","ispublic":1,"isfriend":0,"isfamily":0},{"id":"52123357536","owner":"66875475@N08","secret":"933a4a3a2e","server":"65535","farm":66,"title":"Aigrette garzette - Egretta garzetta - Little egret","ispublic":1,"isfriend":0,"isfamily":0},{"id":"52116103835","owner":"101239590@N03","secret":"fe9aa828c9","server":"65535","farm":66,"title":"Aigrette garzette - Little Egret","ispublic":1,"isfriend":0,"isfamily":0},{"id":"52572573756","owner":"123957339@N02","secret":"acbc3ac77e","server":"65535","farm":66,"title":"La c\u00f4te sauvage du Croisic","ispublic":1,"isfriend":0,"isfamily":0},{"id":"52573020995","owner":"123957339@N02","secret":"d0c287eaa2","server":"65535","farm":66,"title":"La c\u00f4te sauvage du Croisic","ispublic":1,"isfriend":0,"isfamily":0},{"id":"52415982530","owner":"24506752@N07","secret":"5ddc2820b0","server":"65535","farm":66,"title":"Little Egret","ispublic":1,"isfriend":0,"isfamily":0},{"id":"52412059993","owner":"146283954@N06","secret":"07f7ddc1b9","server":"65535","farm":66,"title":"La p\u00eache","ispublic":1,"isfriend":0,"isfamily":0},{"id":"52346090153","owner":"142519789@N07","secret":"5691723c39","server":"65535","farm":66,"title":"Little Egret, River Exe Flood Channel","ispublic":1,"isfriend":0,"isfamily":0},{"id":"52344887377","owner":"142519789@N07","secret":"b59c6b3ffc","server":"65535","farm":66,"title":"Little Egret, River Exe Flood Channel","ispublic":1,"isfriend":0,"isfamily":0},{"id":"52346271360","owner":"142519789@N07","secret":"e55ed086fc","server":"65535","farm":66,"title":"Little Egret, River Exe Flood Channel","ispublic":1,"isfriend":0,"isfamily":0},{"id":"52346089303","owner":"142519789@N07","secret":"8d30574d7b","server":"65535","farm":66,"title":"Little Egret, River Exe Flood Channel","ispublic":1,"isfriend":0,"isfamily":0},{"id":"52345845556","owner":"142519789@N07","secret":"f5068952a8","server":"65535","farm":66,"title":"Little Egret, River Exe Flood Channel","ispublic":1,"isfriend":0,"isfamily":0},{"id":"52344886267","owner":"142519789@N07","secret":"e9e8136962","server":"65535","farm":66,"title":"Little Egret, River Exe Flood Channel","ispublic":1,"isfriend":0,"isfamily":0},{"id":"52248218315","owner":"116181786@N08","secret":"ca3bd49233","server":"65535","farm":66,"title":"Menu Sushi","ispublic":1,"isfriend":0,"isfamily":0},{"id":"52172469205","owner":"66875475@N08","secret":"0b2064c30a","server":"65535","farm":66,"title":"Aigrette garzette - Egretta garzetta - Little egret","ispublic":1,"isfriend":0,"isfamily":0},{"id":"52117043848","owner":"66875475@N08","secret":"76956f77ca","server":"65535","farm":66,"title":"Aigrette garzette - Egretta garzetta - Little egret","ispublic":1,"isfriend":0,"isfamily":0},{"id":"52114928583","owner":"66875475@N08","secret":"b18cba828e","server":"65535","farm":66,"title":"Aigrette garzette - Egretta garzetta - Little egret","ispublic":1,"isfriend":0,"isfamily":0},{"id":"52115133754","owner":"66875475@N08","secret":"9c4b3f84b3","server":"65535","farm":66,"title":"Aigrette garzette - Egretta garzetta - Little egret","ispublic":1,"isfriend":0,"isfamily":0}]},"stat":"ok"}