{"photos":{"page":1,"pages":80,"perpage":100,"total":7982,"photo":[{"id":"52723885861","owner":"12639178@N07","secret":"7c7f1d4ec6","server":"65535","farm":66,"title":"Blaureiher","ispublic":1,"isfriend":0,"isfamily":0},{"id":"52720125619","owner":"12639178@N07","secret":"ff9e990387","server":"65535","farm":66,"title":"Blaureiher","ispublic":1,"isfriend":0,"isfamily":0},{"id":"52714241764","owner":"112608353@N02","secret":"8cf89e4a30","server":"65535","farm":66,"title":"A Little Blue Wave","ispublic":1,"isfriend":0,"isfamily":0},{"id":"52709463164","owner":"145466593@N08","secret":"c23bd8ce6e","server":"65535","farm":66,"title":"Little Blue Heron","ispublic":1,"isfriend":0,"isfamily":0},{"id":"52707510254","owner":"90355165@N03","secret":"6342d032c5","server":"65535","farm":66,"title":"little blue heron","ispublic":1,"isfriend":0,"isfamily":0},{"id":"52706251287","owner":"195537536@N03","secret":"510fa83288","server":"65535","farm":66,"title":"Little Blue Heron (Egretta caerulea)","ispublic":1,"isfriend":0,"isfamily":0},{"id":"52707137348","owner":"185443397@N07","secret":"50273cbc8d","server":"65535","farm":66,"title":"Little Blue Heron (Egretta caerulea)","ispublic":1,"isfriend":0,"isfamily":0},{"id":"52701835188","owner":"132165466@N08","secret":"4351c03684","server":"65535","farm":66,"title":"Little Blue Heron","ispublic":1,"isfriend":0,"isfamily":0},{"id":"52700823827","owner":"132165466@N08","secret":"0b05b04ce4","server":"65535","farm":66,"title":"Little Blue Heron","ispublic":1,"isfriend":0,"isfamily":0},{"id":"52699562292","owner":"88932760@N08","secret":"148c12e0d3","server":"65535","farm":66,"title":"Little Blue Yawn","ispublic":1,"isfriend":0,"isfamily":0},{"id":"52700095474","owner":"77671375@N04","secret":"e9424e0a9e","server":"65535","farm":66,"title":"Little Blue Heron","ispublic":1,"isfriend":0,"isfamily":0},{"id":"52700094494","owner":"77671375@N04","secret":"0ae46707ef","server":"65535","farm":66,"title":"Little Blue Heron","ispublic":1,"isfriend":0,"isfamily":0},{"id":"52700327968","owner":"77671375@N04","secret":"aa478fd8fa","server":"65535","farm":66,"title":"Little Blue Heron","ispublic":1,"isfriend":0,"isfamily":0},{"id":"52700327933","owner":"77671375@N04","secret":"74b5be2530","server":"65535","farm":66,"title":"Little Blue Heron","ispublic":1,"isfriend":0,"isfamily":0},{"id":"52699313582","owner":"77671375@N04","secret":"3bf8148839","server":"65535","farm":66,"title":"Little Blue Heron","ispublic":1,"isfriend":0,"isfamily":0},{"id":"52699832561","owner":"77671375@N04","secret":"cbc6b196be","server":"65535","farm":66,"title":"Little Blue Heron","ispublic":1,"isfriend":0,"isfamily":0},{"id":"52700250285","owner":"77671375@N04","secret":"cf658224a5","server":"65535","farm":66,"title":"Little Blue Heron","ispublic":1,"isfriend":0,"isfamily":0},{"id":"52699832406","owner":"77671375@N04","secret":"856ff725bb","server":"65535","farm":66,"title":"Little Blue Heron","ispublic":1,"isfriend":0,"isfamily":0},{"id":"52698030136","owner":"128369733@N04","secret":"874630329f","server":"65535","farm":66,"title":"On A Sunday Morning Walk (7)","ispublic":1,"isfriend":0,"isfamily":0},{"id":"52696831083","owner":"86191812@N07","secret":"ca578157f0","server":"65535","farm":66,"title":"Little Blue Heron (Egretta caerulea)","ispublic":1,"isfriend":0,"isfamily":0},{"id":"52696513484","owner":"90355165@N03","secret":"8b3cf2773b","server":"65535","farm":66,"title":"little blue heron","ispublic":1,"isfriend":0,"isfamily":0},{"id":"52695557298","owner":"8561740@N08","secret":"5cbf62c243","server":"65535","farm":66,"title":"Bad hair day? Good hair day?","ispublic":1,"isfriend":0,"isfamily":0},{"id":"52695065696","owner":"8561740@N08","secret":"02ddfc76b0","server":"65535","farm":66,"title":"Bad hair day? Good hair day?","ispublic":1,"isfriend":0,"isfamily":0},{"id":"52694810155","owner":"74787113@N05","secret":"a0a64b0885","server":"65535","farm":66,"title":"TRICOLORED HERON NESTING","ispublic":1,"isfriend":0,"isfamily":0},{"id":"52693128712","owner":"42964440@N08","secret":"c97a0b5ce6","server":"65535","farm":66,"title":"Adult Little Blue Heron Portrait (Egretta cearulea)","ispublic":1,"isfriend":0,"isfamily":0},{"id":"52691591842","owner":"104988466@N08","secret":"a1b1795d75","server":"65535","farm":66,"title":"16. Aigrette bleue - Egretta caerulea - Little Blue Heron","ispublic":1,"isfriend":0,"isfamily":0},{"id":"52692112361","owner":"104988466@N08","secret":"41f8d5ae66","server":"65535","farm":66,"title":"17. Aigrette bleue - Egretta caerulea - Little Blue Heron","ispublic":1,"isfriend":0,"isfamily":0},{"id":"52692112331","owner":"104988466@N08","secret":"4f6148b445","server":"65535","farm":66,"title":"18. Aigrette bleue - Egretta caerulea - Little Blue Heron","ispublic":1,"isfriend":0,"isfamily":0},{"id":"52692236753","owner":"42964440@N08","secret":"e87e9eeaa0","server":"65535","farm":66,"title":"Immature Little Blue Heron (Egretta cearulea)","ispublic":1,"isfriend":0,"isfamily":0},{"id":"52690451482","owner":"7856934@N03","secret":"513710eb2d","server":"65535","farm":66,"title":"Juvenile Little Blue Heron","ispublic":1,"isfriend":0,"isfamily":0},{"id":"52685254339","owner":"53247049@N07","secret":"3bb1543b4b","server":"65535","farm":66,"title":"LITTLE BLUE HERON Molting Immature. Egretta caerulea in Mindo in Northwestern ECUADOR. Photo by Peter Wendelken.","ispublic":1,"isfriend":0,"isfamily":0},{"id":"52683581919","owner":"90355165@N03","secret":"9ec0a7c7a1","server":"65535","farm":66,"title":"little blue heron","ispublic":1,"isfriend":0,"isfamily":0},{"id":"52683581729","owner":"90355165@N03","secret":"4d11b5cd3a","server":"65535","farm":66,"title":"little blue heron","ispublic":1,"isfriend":0,"isfamily":0},{"id":"52683796683","owner":"90355165@N03","secret":"fd7c19b33c","server":"65535","farm":66,"title":"little blue heron","ispublic":1,"isfriend":0,"isfamily":0},{"id":"52683796518","owner":"90355165@N03","secret":"37227745e0","server":"65535","farm":66,"title":"little blue heron","ispublic":1,"isfriend":0,"isfamily":0},{"id":"52683724495","owner":"90355165@N03","secret":"79578db22a","server":"65535","farm":66,"title":"little blue heron","ispublic":1,"isfriend":0,"isfamily":0},{"id":"52683724335","owner":"90355165@N03","secret":"665dedf6c4","server":"65535","farm":66,"title":"little blue heron","ispublic":1,"isfriend":0,"isfamily":0},{"id":"52683297246","owner":"90355165@N03","secret":"d2410bd569","server":"65535","farm":66,"title":"little blue heron","ispublic":1,"isfriend":0,"isfamily":0},{"id":"52682789525","owner":"89367133@N00","secret":"eb0ac46153","server":"65535","farm":66,"title":"Aigrette bleue (Egretta caerulea).","ispublic":1,"isfriend":0,"isfamily":0},{"id":"52679331527","owner":"8561740@N08","secret":"3bd97257ff","server":"65535","farm":66,"title":"Reluctantly sharing space","ispublic":1,"isfriend":0,"isfamily":0},{"id":"52678109366","owner":"107784905@N04","secret":"1639e245ec","server":"65535","farm":66,"title":"Aigrette bleue - Tortuguero\/Lim\u00f3n\/Costa Rica_20211124_024-1","ispublic":1,"isfriend":0,"isfamily":0},{"id":"52676197867","owner":"61361023@N03","secret":"0ff128282d","server":"65535","farm":66,"title":"Egretta caerulea","ispublic":1,"isfriend":0,"isfamily":0},{"id":"52676990079","owner":"61361023@N03","secret":"d2b5d9776f","server":"65535","farm":66,"title":"Egretta caerulea","ispublic":1,"isfriend":0,"isfamily":0},{"id":"52673279984","owner":"7856934@N03","secret":"56e0b52dfd","server":"65535","farm":66,"title":"Little Blue Heron","ispublic":1,"isfriend":0,"isfamily":0},{"id":"52672989566","owner":"7856934@N03","secret":"6c6c34392a","server":"65535","farm":66,"title":"Little Blue Heron","ispublic":1,"isfriend":0,"isfamily":0},{"id":"52670840467","owner":"53239956@N06","secret":"513913396d","server":"65535","farm":66,"title":"What alligators","ispublic":1,"isfriend":0,"isfamily":0},{"id":"52665898064","owner":"39177293@N03","secret":"5778626e2b","server":"65535","farm":66,"title":"Little Blue Heron","ispublic":1,"isfriend":0,"isfamily":0},{"id":"52664706562","owner":"149433238@N03","secret":"6e5850c4b2","server":"65535","farm":66,"title":"Little-blue Heron, Costa Rica","ispublic":1,"isfriend":0,"isfamily":0},{"id":"52657682994","owner":"124995824@N08","secret":"36d5a50e15","server":"65535","farm":66,"title":"Little Blue Heron - Egretta caerulea","ispublic":1,"isfriend":0,"isfamily":0},{"id":"52652298174","owner":"145466593@N08","secret":"c60e2aff9e","server":"65535","farm":66,"title":"Little Blue Heron","ispublic":1,"isfriend":0,"isfamily":0},{"id":"52648697961","owner":"39511843@N07","secret":"4850da8e0d","server":"65535","farm":66,"title":"20230125-Little Blue Heron (Egretta caerulea) and hooded Mergansers commensal feeding-Edit","ispublic":1,"isfriend":0,"isfamily":0},{"id":"52648171687","owner":"39511843@N07","secret":"df0615688f","server":"65535","farm":66,"title":"20230125-Little Blue Heron (Egretta caerulea) and hooded Mergansers commensal feeding-Edit","ispublic":1,"isfriend":0,"isfamily":0},{"id":"52641288156","owner":"42964440@N08","secret":"2509ded7b7","server":"65535","farm":66,"title":"Little Blue Heron In Mating Plumage (Egretta cearulea)","ispublic":1,"isfriend":0,"isfamily":0},{"id":"52639732178","owner":"90355165@N03","secret":"b0ac5174c2","server":"65535","farm":66,"title":"little blue heron","ispublic":1,"isfriend":0,"isfamily":0},{"id":"52639362810","owner":"67164820@N06","secret":"308488dfda","server":"65535","farm":66,"title":"heron and ibis","ispublic":1,"isfriend":0,"isfamily":0},{"id":"52638411672","owner":"67164820@N06","secret":"36588e0d0b","server":"65535","farm":66,"title":"heron and ibis 2","ispublic":1,"isfriend":0,"isfamily":0},{"id":"52639403888","owner":"67164820@N06","secret":"29e3879efe","server":"65535","farm":66,"title":"heron and ibis 3","ispublic":1,"isfriend":0,"isfamily":0},{"id":"52636696937","owner":"33573751@N04","secret":"9567d3b404","server":"65535","farm":66,"title":"Little Blue Heron (Egretta caerulea) - Middleton's Fish Camp, Indian River County, Florida","ispublic":1,"isfriend":0,"isfamily":0},{"id":"52637616508","owner":"62848917@N07","secret":"81691a6a37","server":"65535","farm":66,"title":"Little Blue Heron - Egretta caerulea","ispublic":1,"isfriend":0,"isfamily":0},{"id":"52636389632","owner":"7856934@N03","secret":"b804173dd6","server":"65535","farm":66,"title":"Little Blue Heron","ispublic":1,"isfriend":0,"isfamily":0},{"id":"52637344640","owner":"7856934@N03","secret":"4a8e712db6","server":"65535","farm":66,"title":"Little Blue Heron","ispublic":1,"isfriend":0,"isfamily":0},{"id":"52634662242","owner":"7856934@N03","secret":"7a5bbb55de","server":"65535","farm":66,"title":"Little Blue Heron","ispublic":1,"isfriend":0,"isfamily":0},{"id":"52634678058","owner":"47533293@N04","secret":"227e0a8901","server":"65535","farm":66,"title":"Little blue heron, Egretta caerulea","ispublic":1,"isfriend":0,"isfamily":0},{"id":"52633680872","owner":"47533293@N04","secret":"4854d556cd","server":"65535","farm":66,"title":"Little blue heron, Egretta caerulea","ispublic":1,"isfriend":0,"isfamily":0},{"id":"52627866508","owner":"90355165@N03","secret":"f0db1a090d","server":"65535","farm":66,"title":"little blue heron","ispublic":1,"isfriend":0,"isfamily":0},{"id":"52627827055","owner":"90355165@N03","secret":"c01213ae1f","server":"65535","farm":66,"title":"little blue heron","ispublic":1,"isfriend":0,"isfamily":0},{"id":"52627865748","owner":"90355165@N03","secret":"84f617e39f","server":"65535","farm":66,"title":"little blue heron","ispublic":1,"isfriend":0,"isfamily":0},{"id":"52625596458","owner":"25486180@N07","secret":"60ed26438f","server":"65535","farm":66,"title":"Little blue Heron, Egretta caerulea","ispublic":1,"isfriend":0,"isfamily":0},{"id":"52624447933","owner":"33814246@N00","secret":"a3917b1570","server":"65535","farm":66,"title":"IMG_9703-1","ispublic":1,"isfriend":0,"isfamily":0},{"id":"52622430929","owner":"130744200@N06","secret":"310830f25b","server":"65535","farm":66,"title":"Little Blue Heron grabs a snack","ispublic":1,"isfriend":0,"isfamily":0},{"id":"52619525260","owner":"52363379@N07","secret":"9d7d6f9a5d","server":"65535","farm":66,"title":"Egretta caerulea","ispublic":1,"isfriend":0,"isfamily":0},{"id":"52618368224","owner":"53239956@N06","secret":"433e89eda9","server":"65535","farm":66,"title":"Just sit still","ispublic":1,"isfriend":0,"isfamily":0},{"id":"52617891240","owner":"7856934@N03","secret":"dc465e956e","server":"65535","farm":66,"title":"Little Blue Heron","ispublic":1,"isfriend":0,"isfamily":0},{"id":"52604618921","owner":"11295713@N00","secret":"22d9264f4e","server":"65535","farm":66,"title":"Little Blue Heron (Egretta caerulea) on Post","ispublic":1,"isfriend":0,"isfamily":0},{"id":"52604853954","owner":"11295713@N00","secret":"d85acffd60","server":"65535","farm":66,"title":"Little Blue Heron (Egretta caerulea) on the Rocks crop","ispublic":1,"isfriend":0,"isfamily":0},{"id":"52605097888","owner":"11295713@N00","secret":"0bc13eab0c","server":"65535","farm":66,"title":"Little Blue Heron (Egretta caerulea) on the Rocks","ispublic":1,"isfriend":0,"isfamily":0},{"id":"52605019163","owner":"8654297@N06","secret":"b8913c97d5","server":"65535","farm":66,"title":"An ibis and heron go into a bar","ispublic":1,"isfriend":0,"isfamily":0},{"id":"52600520112","owner":"7725552@N06","secret":"86a57ff5a0","server":"65535","farm":66,"title":"Little Blue Heron (Egretta caerulea)","ispublic":1,"isfriend":0,"isfamily":0},{"id":"52601421585","owner":"196209131@N02","secret":"8d3d184166","server":"65535","farm":66,"title":"Little Blue Heron (Egretta caerulea)","ispublic":1,"isfriend":0,"isfamily":0},{"id":"52600869306","owner":"196209131@N02","secret":"cfd01cde0d","server":"65535","farm":66,"title":"Little Blue Heron (Egretta caerulea)","ispublic":1,"isfriend":0,"isfamily":0},{"id":"52595637368","owner":"7640100@N02","secret":"8bd56f1b02","server":"65535","farm":66,"title":"Aigrette bleue \/ Little Blue Heron [Egretta caerulea]","ispublic":1,"isfriend":0,"isfamily":0},{"id":"52595095590","owner":"53239956@N06","secret":"53f1bac114","server":"65535","farm":66,"title":"A hunting we will go","ispublic":1,"isfriend":0,"isfamily":0},{"id":"52594844048","owner":"68756708@N04","secret":"d27d9711de","server":"65535","farm":66,"title":"Little Blue Heron (Egretta caerulea)","ispublic":1,"isfriend":0,"isfamily":0},{"id":"52592820080","owner":"32541690@N02","secret":"113542607a","server":"65535","farm":66,"title":"Little Blue Heron with pipefish","ispublic":1,"isfriend":0,"isfamily":0},{"id":"52582810455","owner":"124995824@N08","secret":"3a52ae9f85","server":"65535","farm":66,"title":"Little Blue Heron - Egretta caerulea","ispublic":1,"isfriend":0,"isfamily":0},{"id":"52582887078","owner":"124995824@N08","secret":"dbba6664b1","server":"65535","farm":66,"title":"Little Blue Heron - Egretta caerulea","ispublic":1,"isfriend":0,"isfamily":0},{"id":"52576580212","owner":"110673345@N06","secret":"931467acc6","server":"65535","farm":66,"title":"Aigrette bleue (immature) \/ Egretta caerulea ?","ispublic":1,"isfriend":0,"isfamily":0},{"id":"52567519627","owner":"32541690@N02","secret":"2ce9c0586f","server":"65535","farm":66,"title":"Little Blue Heron with fish","ispublic":1,"isfriend":0,"isfamily":0},{"id":"52564483928","owner":"140318147@N08","secret":"8a2b99fc98","server":"65535","farm":66,"title":"little blue heron (Egretta caerulea) L4A7496","ispublic":1,"isfriend":0,"isfamily":0},{"id":"52559873451","owner":"90355165@N03","secret":"599bf21830","server":"65535","farm":66,"title":"little blue heron","ispublic":1,"isfriend":0,"isfamily":0},{"id":"52559424827","owner":"90355165@N03","secret":"607e2cb8bb","server":"65535","farm":66,"title":"little blue heron","ispublic":1,"isfriend":0,"isfamily":0},{"id":"52554692642","owner":"88932760@N08","secret":"0d0a09ed6e","server":"65535","farm":66,"title":"Staying Warm","ispublic":1,"isfriend":0,"isfamily":0},{"id":"52550940183","owner":"131708321@N02","secret":"e89c69c0ed","server":"65535","farm":66,"title":"Little Blue Heron (Egreta caerulea), Ember\u00e1, Panama","ispublic":1,"isfriend":0,"isfamily":0},{"id":"52550518733","owner":"93408882@N03","secret":"dc1c5021d7","server":"65535","farm":66,"title":"Little Blue Heron, Egretta caerulea Akumal, Mexico","ispublic":1,"isfriend":0,"isfamily":0},{"id":"52545904852","owner":"124995824@N08","secret":"7c67d22679","server":"65535","farm":66,"title":"Little Blue Heron - Egretta caerulea","ispublic":1,"isfriend":0,"isfamily":0},{"id":"52546844205","owner":"124995824@N08","secret":"a2e83dee3a","server":"65535","farm":66,"title":"Little Blue Heron - Egretta caerulea","ispublic":1,"isfriend":0,"isfamily":0},{"id":"52542392066","owner":"7856934@N03","secret":"945ab3a39f","server":"65535","farm":66,"title":"Little Blue Heron","ispublic":1,"isfriend":0,"isfamily":0},{"id":"52540654144","owner":"88932760@N08","secret":"0e0b07124d","server":"65535","farm":66,"title":"Little Blue at Sunset","ispublic":1,"isfriend":0,"isfamily":0},{"id":"52531783104","owner":"51433704@N06","secret":"177f3604be","server":"65535","farm":66,"title":"Little Blue Heron","ispublic":1,"isfriend":0,"isfamily":0},{"id":"52541551743","owner":"33610210@N05","secret":"532ec57b97","server":"65535","farm":66,"title":"Little Blue Heron, Egretta caerulea","ispublic":1,"isfriend":0,"isfamily":0}]},"stat":"ok"}