{"photos":{"page":1,"pages":5,"perpage":100,"total":461,"photo":[{"id":"52788226864","owner":"32752434@N07","secret":"66f8a31c35","server":"65535","farm":66,"title":"Giant Kingbird (Tyrannus caudifasciatus)","ispublic":1,"isfriend":0,"isfamily":0},{"id":"52773840328","owner":"47078197@N04","secret":"51bae41dc8","server":"65535","farm":66,"title":"Tyrannus caudifasciatus caudifasciatus (Loggerhead Kingbird)","ispublic":1,"isfriend":0,"isfamily":0},{"id":"52772822022","owner":"47078197@N04","secret":"4e670c08f3","server":"65535","farm":66,"title":"Tyrannus caudifasciatus caudifasciatus (Loggerhead Kingbird)","ispublic":1,"isfriend":0,"isfamily":0},{"id":"52779703240","owner":"32752434@N07","secret":"ce0756c8e4","server":"65535","farm":66,"title":"Loggerhead Kingbird (Tyrannus caudifasciatus)","ispublic":1,"isfriend":0,"isfamily":0},{"id":"52776628198","owner":"32752434@N07","secret":"aed73b099d","server":"65535","farm":66,"title":"Giant Kingbird (Tyrannus caudifasciatus)","ispublic":1,"isfriend":0,"isfamily":0},{"id":"52776557395","owner":"32752434@N07","secret":"5b2648b272","server":"65535","farm":66,"title":"Giant Kingbird (Tyrannus caudifasciatus)","ispublic":1,"isfriend":0,"isfamily":0},{"id":"52724100504","owner":"12639178@N07","secret":"e169428896","server":"65535","farm":66,"title":"Antillenk\u00f6nigstyrann","ispublic":1,"isfriend":0,"isfamily":0},{"id":"52723237755","owner":"12639178@N07","secret":"88423edf13","server":"65535","farm":66,"title":"Antillenk\u00f6nigstyrann","ispublic":1,"isfriend":0,"isfamily":0},{"id":"52722872924","owner":"7640100@N02","secret":"dce721c8f4","server":"65535","farm":66,"title":"Tyran t\u00eate-police \/ Loggerhead Kingbird [Tyrannus caudifasciatus]","ispublic":1,"isfriend":0,"isfamily":0},{"id":"52692924872","owner":"55527686@N03","secret":"8027011cda","server":"65535","farm":66,"title":"Loggerhead Kingbird (Tyrannus caudifasciatus)","ispublic":1,"isfriend":0,"isfamily":0},{"id":"52646937707","owner":"54249623@N08","secret":"72edf23495","server":"65535","farm":66,"title":"Loggerhead Kingbird (Tyrannus caudifasciatus) (Tyrannus caudifasciatus caudifasciatus)","ispublic":1,"isfriend":0,"isfamily":0},{"id":"52646937237","owner":"54249623@N08","secret":"61204c611b","server":"65535","farm":66,"title":"Loggerhead Kingbird (Tyrannus caudifasciatus) (Tyrannus caudifasciatus caudifasciatus)","ispublic":1,"isfriend":0,"isfamily":0},{"id":"52580819278","owner":"153973412@N04","secret":"7b6a230cdd","server":"65535","farm":66,"title":"Loggerhead Kingbird-Tyrannus caudifasciatus, Jamaica","ispublic":1,"isfriend":0,"isfamily":0},{"id":"52523155434","owner":"56983940@N06","secret":"a58c838a4f","server":"65535","farm":66,"title":"Loggerhead Kingbird","ispublic":1,"isfriend":0,"isfamily":0},{"id":"52505179705","owner":"35079936@N07","secret":"311db1c0e1","server":"65535","farm":66,"title":"9I2A4225E 9I2A4504E Manjuila - Loggerhead Kingbird - Tyrannus caudifasciatus","ispublic":1,"isfriend":0,"isfamily":0},{"id":"52393593832","owner":"134270033@N06","secret":"4afb1093db","server":"65535","farm":66,"title":"Record Shots some other Kingbirds","ispublic":1,"isfriend":0,"isfamily":0},{"id":"52394536410","owner":"134270033@N06","secret":"cc100e91e8","server":"65535","farm":66,"title":"Record Shots some other  Kingbirds...(LOKI)","ispublic":1,"isfriend":0,"isfamily":0},{"id":"52029471677","owner":"54546220@N00","secret":"33606b95f2","server":"65535","farm":66,"title":"Manjuila, Loggerhead Kingbird  (Tyrannus caudifasciatus gabbii)","ispublic":1,"isfriend":0,"isfamily":0},{"id":"52030765544","owner":"54546220@N00","secret":"2d7953335a","server":"65535","farm":66,"title":"Manjuila, Loggerhead Kingbird  (Tyrannus caudifasciatus gabbii)","ispublic":1,"isfriend":0,"isfamily":0},{"id":"51930211580","owner":"12639178@N07","secret":"532e12d035","server":"65535","farm":66,"title":"Antillenk\u00f6nigstyrann","ispublic":1,"isfriend":0,"isfamily":0},{"id":"51908940980","owner":"48014585@N00","secret":"4e53886f01","server":"65535","farm":66,"title":"Loggerhead Kingbird","ispublic":1,"isfriend":0,"isfamily":0},{"id":"51908305046","owner":"48014585@N00","secret":"02ac2ea500","server":"65535","farm":66,"title":"Loggerhead Kingbird","ispublic":1,"isfriend":0,"isfamily":0},{"id":"51908612829","owner":"48014585@N00","secret":"11147bb43e","server":"65535","farm":66,"title":"Loggerhead Kingbird","ispublic":1,"isfriend":0,"isfamily":0},{"id":"51905873755","owner":"12639178@N07","secret":"95cab81341","server":"65535","farm":66,"title":"Antillenk\u00f6nigstyrann","ispublic":1,"isfriend":0,"isfamily":0},{"id":"51904693231","owner":"190923251@N05","secret":"56f47f87ce","server":"65535","farm":66,"title":"Loggerhead Kingbird","ispublic":1,"isfriend":0,"isfamily":0},{"id":"51797662159","owner":"114700825@N07","secret":"556b4f7a35","server":"65535","farm":66,"title":"120.05 Bahamakoningstiran","ispublic":1,"isfriend":0,"isfamily":0},{"id":"51798026100","owner":"114700825@N07","secret":"35a75dd589","server":"65535","farm":66,"title":"120.05 Bahamakoningstiran","ispublic":1,"isfriend":0,"isfamily":0},{"id":"51797415228","owner":"114700825@N07","secret":"ca275681e2","server":"65535","farm":66,"title":"120.05 Bahamakoningstiran","ispublic":1,"isfriend":0,"isfamily":0},{"id":"51621682393","owner":"72271115@N02","secret":"f3f9592f4a","server":"65535","farm":66,"title":"Loggerhead Kingbird ---- Tyrannus caudifasciatus","ispublic":1,"isfriend":0,"isfamily":0},{"id":"51378865591","owner":"79153825@N08","secret":"4259bb481a","server":"65535","farm":66,"title":"Aves end\u00e9micas de Rep\u00fablica Dominicana: Manjuila.(Tyrannus caudifasciatus subespecie gabbii.) Loggerhead kingbird o Hispaniolan.","ispublic":1,"isfriend":0,"isfamily":0},{"id":"51378865571","owner":"79153825@N08","secret":"a61b68fd7b","server":"65535","farm":66,"title":"Aves end\u00e9micas de Rep\u00fablica Dominicana: Manjuila.(Tyrannus caudifasciatus subespecie gabbii.) Loggerhead kingbird o Hispaniolan.","ispublic":1,"isfriend":0,"isfamily":0},{"id":"51379877185","owner":"79153825@N08","secret":"ab2073fc5e","server":"65535","farm":66,"title":"Aves end\u00e9micas de Rep\u00fablica Dominicana: Manjuila.(Tyrannus caudifasciatus subespecie gabbii.) Loggerhead kingbird o Hispaniolan.","ispublic":1,"isfriend":0,"isfamily":0},{"id":"51379608909","owner":"79153825@N08","secret":"9a8a1052f0","server":"65535","farm":66,"title":"Aves end\u00e9micas de Rep\u00fablica Dominicana: Manjuila.(Tyrannus caudifasciatus subespecie gabbii.) Loggerhead kingbird o Hispaniolan.","ispublic":1,"isfriend":0,"isfamily":0},{"id":"51379099783","owner":"79153825@N08","secret":"fe8f479226","server":"65535","farm":66,"title":"Aves end\u00e9micas de Rep\u00fablica Dominicana: Manjuila.(Tyrannus caudifasciatus subespecie gabbii.) Loggerhead kingbird o Hispaniolan.","ispublic":1,"isfriend":0,"isfamily":0},{"id":"51378103572","owner":"79153825@N08","secret":"a60e3cd257","server":"65535","farm":66,"title":"Aves end\u00e9micas de Rep\u00fablica Dominicana: Manjuila.(Tyrannus caudifasciatus subespecie gabbii.) Loggerhead kingbird o Hispaniolan.","ispublic":1,"isfriend":0,"isfamily":0},{"id":"51379099623","owner":"79153825@N08","secret":"7454da4c2b","server":"65535","farm":66,"title":"Aves end\u00e9micas de Rep\u00fablica Dominicana: Manjuila.(Tyrannus caudifasciatus subespecie gabbii.) Loggerhead kingbird o Hispaniolan.","ispublic":1,"isfriend":0,"isfamily":0},{"id":"51379877015","owner":"79153825@N08","secret":"75b311e0a4","server":"65535","farm":66,"title":"Aves end\u00e9micas de Rep\u00fablica Dominicana: Manjuila.(Tyrannus caudifasciatus subespecie gabbii.) Loggerhead kingbird o Hispaniolan.","ispublic":1,"isfriend":0,"isfamily":0},{"id":"51378070033","owner":"165841515@N03","secret":"4af4fe80a7","server":"65535","farm":66,"title":"Tyran t\u00eate-police \/ Loggerhead Kingbird \/ (Tyrannus caudifasciatus)","ispublic":1,"isfriend":0,"isfamily":0},{"id":"51377834541","owner":"165841515@N03","secret":"eb25a5fe2e","server":"65535","farm":66,"title":"Tyran t\u00eate-police \/ Loggerhead Kingbird \/ (Tyrannus caudifasciatus)","ispublic":1,"isfriend":0,"isfamily":0},{"id":"51071901688","owner":"79153825@N08","secret":"195fc7423d","server":"65535","farm":66,"title":"Manjuila.(Tyrannus caudifasciatus.)Loggerhead kingbird.","ispublic":1,"isfriend":0,"isfamily":0},{"id":"51072600711","owner":"79153825@N08","secret":"aaeda706f3","server":"65535","farm":66,"title":"Manjuila.(Tyrannus caudifasciatus.)Loggerhead kingbird.","ispublic":1,"isfriend":0,"isfamily":0},{"id":"51072600556","owner":"79153825@N08","secret":"d5f78cc745","server":"65535","farm":66,"title":"Manjuila.(Tyrannus caudifasciatus.)Loggerhead kingbird.","ispublic":1,"isfriend":0,"isfamily":0},{"id":"51072695227","owner":"79153825@N08","secret":"1ed880eccf","server":"65535","farm":66,"title":"Manjuila.(Tyrannus caudifasciatus.)Loggerhead kingbird.","ispublic":1,"isfriend":0,"isfamily":0},{"id":"51072694962","owner":"79153825@N08","secret":"23c4799aa3","server":"65535","farm":66,"title":"Manjuila.(Tyrannus caudifasciatus.)Loggerhead kingbird.","ispublic":1,"isfriend":0,"isfamily":0},{"id":"51003412175","owner":"79153825@N08","secret":"3fa6b07dbf","server":"65535","farm":66,"title":"Manjuila.(Tyrannus caudifasciatus.)Loggerhead kingbird.","ispublic":1,"isfriend":0,"isfamily":0},{"id":"51072694612","owner":"79153825@N08","secret":"05289e4d22","server":"65535","farm":66,"title":"Manjuila.(Tyrannus caudifasciatus.)Loggerhead kingbird.","ispublic":1,"isfriend":0,"isfamily":0},{"id":"51019209422","owner":"92361032@N05","secret":"c2783b0df8","server":"65535","farm":66,"title":"Loggerhead Kingbird \/ Tyran t\u00eate-police ( Richard)","ispublic":1,"isfriend":0,"isfamily":0},{"id":"50857199543","owner":"190923251@N05","secret":"13d53b7700","server":"65535","farm":66,"title":"Loggerhead Kingbird","ispublic":1,"isfriend":0,"isfamily":0},{"id":"50687796957","owner":"190773540@N03","secret":"b3e4dcf7c0","server":"65535","farm":66,"title":"Loggerhead Kingbird","ispublic":1,"isfriend":0,"isfamily":0},{"id":"49720330582","owner":"65788177@N02","secret":"94008129b3","server":"65535","farm":66,"title":"Loggerhead Kingbird","ispublic":1,"isfriend":0,"isfamily":0},{"id":"49602059192","owner":"94717094@N00","secret":"7551178b28","server":"65535","farm":66,"title":"\"Tyran t\u00eate-police \/ Tyrannus caudifasciatus \/ Loggerhead Kingbird\"","ispublic":1,"isfriend":0,"isfamily":0},{"id":"49499390426","owner":"26590455@N05","secret":"94854c00be","server":"65535","farm":66,"title":"Pitirre Guatibire-Tyrannus caudifasciatus caudifasciatus-Loggerhead Kingbird","ispublic":1,"isfriend":0,"isfamily":0},{"id":"49099500778","owner":"55851736@N07","secret":"fa76de738b","server":"65535","farm":66,"title":"426 - LOGGERHEAD KINGBIRD - Tyrannus caudifasciatus","ispublic":1,"isfriend":0,"isfamily":0},{"id":"48183518732","owner":"141218738@N03","secret":"0b3cf16cc7","server":"65535","farm":66,"title":"Manjuila (Tyrannus caudifasciatus) Loggerhead Kingbird","ispublic":1,"isfriend":0,"isfamily":0},{"id":"48117672696","owner":"79153825@N08","secret":"96916c9832","server":"65535","farm":66,"title":"MANJUILA.(Tyrannus Caudifasciatus.) LOGGERHEAD KINGBIRD.","ispublic":1,"isfriend":0,"isfamily":0},{"id":"48117762407","owner":"79153825@N08","secret":"d02a23c2c8","server":"65535","farm":66,"title":"MANJUILA.(Tyrannus Caudifasciatus.) LOGGERHEAD KINGBIRD.","ispublic":1,"isfriend":0,"isfamily":0},{"id":"48117762357","owner":"79153825@N08","secret":"8517945d15","server":"65535","farm":66,"title":"MANJUILA.(Tyrannus Caudifasciatus.) LOGGERHEAD KINGBIRD.","ispublic":1,"isfriend":0,"isfamily":0},{"id":"48117762892","owner":"79153825@N08","secret":"5be7609cca","server":"65535","farm":66,"title":"MANJUILA.(Tyrannus Caudifasciatus.) LOGGERHEAD KINGBIRD.","ispublic":1,"isfriend":0,"isfamily":0},{"id":"48117762762","owner":"79153825@N08","secret":"3ca6e2cdc6","server":"65535","farm":66,"title":"MANJUILA.(Tyrannus Caudifasciatus.) LOGGERHEAD KINGBIRD.","ispublic":1,"isfriend":0,"isfamily":0},{"id":"48117705628","owner":"79153825@N08","secret":"aef0d8be6c","server":"65535","farm":66,"title":"MANJUILA.(Tyrannus Caudifasciatus.) LOGGERHEAD KINGBIRD.","ispublic":1,"isfriend":0,"isfamily":0},{"id":"48117762692","owner":"79153825@N08","secret":"37cb0628b2","server":"65535","farm":66,"title":"MANJUILA.(Tyrannus Caudifasciatus.) LOGGERHEAD KINGBIRD.349","ispublic":1,"isfriend":0,"isfamily":0},{"id":"48117672821","owner":"79153825@N08","secret":"06903e936a","server":"65535","farm":66,"title":"MANJUILA.(Tyrannus Caudifasciatus.) LOGGERHEAD KINGBIRD.06","ispublic":1,"isfriend":0,"isfamily":0},{"id":"48115061098","owner":"147450357@N08","secret":"03a43f1d7e","server":"65535","farm":66,"title":"_DSC0664_DxO","ispublic":1,"isfriend":0,"isfamily":0},{"id":"48003593802","owner":"29170368@N03","secret":"8f245d52ea","server":"65535","farm":66,"title":"Loggerhead Kingbird","ispublic":1,"isfriend":0,"isfamily":0},{"id":"47979229096","owner":"29170368@N03","secret":"c0f646b3f7","server":"65535","farm":66,"title":"Loggerhead Kingbird","ispublic":1,"isfriend":0,"isfamily":0},{"id":"40770247623","owner":"31694846@N02","secret":"88bee4bf18","server":"65535","farm":66,"title":"Manjuila (Tyrannus caudifasciatus)","ispublic":1,"isfriend":0,"isfamily":0},{"id":"40770247043","owner":"31694846@N02","secret":"b3e49648ff","server":"65535","farm":66,"title":"Manjuila (Tyrannus caudifasciatus)","ispublic":1,"isfriend":0,"isfamily":0},{"id":"47479294032","owner":"23117403@N06","secret":"b007fbcbac","server":"7914","farm":8,"title":"Loggerhead kingbird - Tyran te\u0302te-police - Pitirre guati\u0301bere - Tyrannus caudifasciatus","ispublic":1,"isfriend":0,"isfamily":0},{"id":"33617932928","owner":"90886369@N06","secret":"5d2327fd9f","server":"7823","farm":8,"title":"Loggerhead Kingbird (Tyrannus caudifasciatus)","ispublic":1,"isfriend":0,"isfamily":0},{"id":"46741480914","owner":"43886809@N03","secret":"2ea62c9f0e","server":"7924","farm":8,"title":"Loggerhead Kingbird_19-03-01_Tyrannus caudifasciatus","ispublic":1,"isfriend":0,"isfamily":0},{"id":"52303453902","owner":"196264892@N08","secret":"019dc0da93","server":"65535","farm":66,"title":"Loggerhead Kingbird","ispublic":1,"isfriend":0,"isfamily":0},{"id":"52007210055","owner":"48938938@N04","secret":"0f4b73b9c0","server":"65535","farm":66,"title":"Loggerhead Kingbird_Tyrannus caudifasciatus_Ascanio_Cuba_DZ3A8134","ispublic":1,"isfriend":0,"isfamily":0},{"id":"52005664612","owner":"48938938@N04","secret":"e28cdbe4eb","server":"65535","farm":66,"title":"Loggerhead Kingbird_Tyrannus caudifasciatus_Ascanio_Cuba_DZ3A8131","ispublic":1,"isfriend":0,"isfamily":0},{"id":"52006688536","owner":"48938938@N04","secret":"6800c38fa0","server":"65535","farm":66,"title":"Loggerhead Kingbird_Tyrannus caudifasciatus_Ascanio_Cuba_DZ3A8127","ispublic":1,"isfriend":0,"isfamily":0},{"id":"52007200130","owner":"48938938@N04","secret":"e3939c2922","server":"65535","farm":66,"title":"Loggerhead Kingbird_Tyrannus caudifasciatus_Ascanio_Cuba_DZ3A8122","ispublic":1,"isfriend":0,"isfamily":0},{"id":"52001646368","owner":"114700825@N07","secret":"60c449a8d7","server":"65535","farm":66,"title":"120.05 Bahamakoningstiran","ispublic":1,"isfriend":0,"isfamily":0},{"id":"51956376754","owner":"12639178@N07","secret":"48443aed75","server":"65535","farm":66,"title":"Antillenk\u00f6nigstyrann","ispublic":1,"isfriend":0,"isfamily":0},{"id":"51956143728","owner":"12639178@N07","secret":"3cc56d5d8f","server":"65535","farm":66,"title":"Antillenk\u00f6nigstyrann","ispublic":1,"isfriend":0,"isfamily":0},{"id":"51956668505","owner":"12639178@N07","secret":"0b0097d967","server":"65535","farm":66,"title":"Antillenk\u00f6nigstyrann","ispublic":1,"isfriend":0,"isfamily":0},{"id":"51933305921","owner":"12639178@N07","secret":"bd79a1b4d8","server":"65535","farm":66,"title":"Antillenk\u00f6nigstyrann","ispublic":1,"isfriend":0,"isfamily":0},{"id":"51929584516","owner":"12639178@N07","secret":"83bb4c7fc1","server":"65535","farm":66,"title":"Antillenk\u00f6nigstyrann","ispublic":1,"isfriend":0,"isfamily":0},{"id":"51521562063","owner":"9383010@N05","secret":"1ee2e200be","server":"65535","farm":66,"title":"Loggerhead Kingbird","ispublic":1,"isfriend":0,"isfamily":0},{"id":"51379099708","owner":"79153825@N08","secret":"0e232e431c","server":"65535","farm":66,"title":"Aves end\u00e9micas de Rep\u00fablica Dominicana: Manjuila.(Tyrannus caudifasciatus subespecie gabbii.) Loggerhead kingbird o Hispaniolan.","ispublic":1,"isfriend":0,"isfamily":0},{"id":"51247715188","owner":"48014585@N00","secret":"07761a3e14","server":"65535","farm":66,"title":"Loggerhead Kingbird","ispublic":1,"isfriend":0,"isfamily":0},{"id":"51248275644","owner":"48014585@N00","secret":"a833717a6a","server":"65535","farm":66,"title":"Loggerhead Kingbird","ispublic":1,"isfriend":0,"isfamily":0},{"id":"51248275524","owner":"48014585@N00","secret":"139a93cc9c","server":"65535","farm":66,"title":"Loggerhead Kingbird","ispublic":1,"isfriend":0,"isfamily":0},{"id":"51247518301","owner":"48014585@N00","secret":"ca8c1a9b1f","server":"65535","farm":66,"title":"Loggerhead Kingbird","ispublic":1,"isfriend":0,"isfamily":0},{"id":"51248568630","owner":"48014585@N00","secret":"eeea778fc0","server":"65535","farm":66,"title":"Loggerhead Kingbird","ispublic":1,"isfriend":0,"isfamily":0},{"id":"51247518091","owner":"48014585@N00","secret":"61e012fc8f","server":"65535","farm":66,"title":"Loggerhead Kingbird","ispublic":1,"isfriend":0,"isfamily":0},{"id":"50832127316","owner":"14513067@N00","secret":"cfbd5aef7b","server":"65535","farm":66,"title":"Loggerhead Kingbird","ispublic":1,"isfriend":0,"isfamily":0},{"id":"50549932186","owner":"43184676@N08","secret":"92f85781a1","server":"65535","farm":66,"title":"Loggerhead Kingbird","ispublic":1,"isfriend":0,"isfamily":0},{"id":"50538539576","owner":"186211059@N06","secret":"d9e1022d99","server":"65535","farm":66,"title":"Loggerhead Kingbird","ispublic":1,"isfriend":0,"isfamily":0},{"id":"50538681472","owner":"186211059@N06","secret":"2d6ec29497","server":"65535","farm":66,"title":"Loggerhead Kingbird","ispublic":1,"isfriend":0,"isfamily":0},{"id":"50538672867","owner":"186211059@N06","secret":"810f29b2df","server":"65535","farm":66,"title":"Loggerhead Kingbird","ispublic":1,"isfriend":0,"isfamily":0},{"id":"49853112561","owner":"35079936@N07","secret":"f7f2b4ae68","server":"65535","farm":66,"title":"C57A4290 Manjuila (Tyrannus caudifasciatus) Loggerhead Kingbird","ispublic":1,"isfriend":0,"isfamily":0},{"id":"49239281388","owner":"142077783@N06","secret":"bf336a86a4","server":"65535","farm":66,"title":"Loggerhead Kingbird","ispublic":1,"isfriend":0,"isfamily":0},{"id":"49094606633","owner":"92361032@N05","secret":"eccc7063cd","server":"65535","farm":66,"title":"Loggerhead Kingbird - Tyran t\u00eate-police( Richard )","ispublic":1,"isfriend":0,"isfamily":0},{"id":"48810133523","owner":"93882360@N07","secret":"495ac4a32b","server":"65535","farm":66,"title":"Loggerhead kingbird (Tyrannus caudifasciatus) Jamaica","ispublic":1,"isfriend":0,"isfamily":0},{"id":"33979440598","owner":"27950735@N08","secret":"9723fe1e44","server":"65535","farm":66,"title":"Loggerhead Kingbird - Tyrannus caudifasciatus (click for info)","ispublic":1,"isfriend":0,"isfamily":0},{"id":"32650102647","owner":"168331389@N03","secret":"f15c185394","server":"7907","farm":8,"title":"Loggerhead kingbird_pitirre guat\u00edbere (Tyrannus caudifasciatus)","ispublic":1,"isfriend":0,"isfamily":0}]},"stat":"ok"}