{"photos":{"page":1,"pages":77,"perpage":100,"total":7602,"photo":[{"id":"52780690912","owner":"26371261@N00","secret":"d7a74067e7","server":"65535","farm":66,"title":"Long-tailed Duck, Clangula hyemalis","ispublic":1,"isfriend":0,"isfamily":0},{"id":"52780986174","owner":"195041250@N03","secret":"7459c37b6f","server":"65535","farm":66,"title":"Long-Tailed Duck","ispublic":1,"isfriend":0,"isfamily":0},{"id":"52777854260","owner":"78941013@N00","secret":"237cd6afbb","server":"65535","farm":66,"title":"Long-tailed duck (Clangula hyemalis) IJseend","ispublic":1,"isfriend":0,"isfamily":0},{"id":"52777442816","owner":"78941013@N00","secret":"46170ca0ce","server":"65535","farm":66,"title":"Long-tailed duck (Clangula hyemalis) IJseend","ispublic":1,"isfriend":0,"isfamily":0},{"id":"52776912997","owner":"78941013@N00","secret":"fea1ac381c","server":"65535","farm":66,"title":"Long-tailed duck (Clangula hyemalis) IJseend","ispublic":1,"isfriend":0,"isfamily":0},{"id":"52774830014","owner":"37242840@N07","secret":"3eaefba166","server":"65535","farm":66,"title":"Long-tailed Duck, Clangula hyemalis (2)","ispublic":1,"isfriend":0,"isfamily":0},{"id":"52775053123","owner":"37242840@N07","secret":"f55acb7bc0","server":"65535","farm":66,"title":"Long-tailed Duck, Clangula hyemalis (3)","ispublic":1,"isfriend":0,"isfamily":0},{"id":"52774829879","owner":"37242840@N07","secret":"bc4d3cc96f","server":"65535","farm":66,"title":"Long-tailed Duck, Clangula hyemalis (9)","ispublic":1,"isfriend":0,"isfamily":0},{"id":"52774829839","owner":"37242840@N07","secret":"65c4b82dbe","server":"65535","farm":66,"title":"Long-tailed Ducks, Clangula hyemalis (3)","ispublic":1,"isfriend":0,"isfamily":0},{"id":"52774985230","owner":"37242840@N07","secret":"f7ed5c8aac","server":"65535","farm":66,"title":"Long-tailed Ducks, Clangula hyemalis (6)","ispublic":1,"isfriend":0,"isfamily":0},{"id":"52774985175","owner":"37242840@N07","secret":"6ed3cb5b57","server":"65535","farm":66,"title":"Long-tailed Ducks, Clangula hyemalis (8)","ispublic":1,"isfriend":0,"isfamily":0},{"id":"52775052908","owner":"37242840@N07","secret":"61f2a10ebe","server":"65535","farm":66,"title":"Long-tailed Ducks, Clangula hyemalis (20)","ispublic":1,"isfriend":0,"isfamily":0},{"id":"52774829664","owner":"37242840@N07","secret":"0efd0241dc","server":"65535","farm":66,"title":"Long-tailed Ducks, Clangula hyemalis (25)","ispublic":1,"isfriend":0,"isfamily":0},{"id":"52772837166","owner":"114020944@N05","secret":"125bbffda2","server":"65535","farm":66,"title":"Aul (Clangula hyemalis)","ispublic":1,"isfriend":0,"isfamily":0},{"id":"52773320343","owner":"114020944@N05","secret":"f35e53ba81","server":"65535","farm":66,"title":"Aul (Clangula hyemalis)","ispublic":1,"isfriend":0,"isfamily":0},{"id":"52773320298","owner":"114020944@N05","secret":"340c6276f9","server":"65535","farm":66,"title":"Aul (Clangula hyemalis)","ispublic":1,"isfriend":0,"isfamily":0},{"id":"52771012274","owner":"45759259@N06","secret":"6641a1d475","server":"65535","farm":66,"title":"Harelde bor\u00e9ale Clangula hyemalis Long-tailed Duck","ispublic":1,"isfriend":0,"isfamily":0},{"id":"52766271574","owner":"195409487@N05","secret":"ed03ea62b0","server":"65535","farm":66,"title":"Havelle-Long-tailed Duck-Clangula hyemalis","ispublic":1,"isfriend":0,"isfamily":0},{"id":"52765207072","owner":"18217058@N04","secret":"d76a4e5d90","server":"65535","farm":66,"title":"Long-tailed duck \/ H\u00e1vella (Clangula hyemalis)","ispublic":1,"isfriend":0,"isfamily":0},{"id":"52765857244","owner":"52618557@N08","secret":"2b71564eb9","server":"65535","farm":66,"title":"Long-tailed Duck (Clangula hyemalis) male","ispublic":1,"isfriend":0,"isfamily":0},{"id":"52762228213","owner":"36142084@N05","secret":"dd6be885eb","server":"65535","farm":66,"title":"R5_012817","ispublic":1,"isfriend":0,"isfamily":0},{"id":"52762228223","owner":"36142084@N05","secret":"b65f3ac0e0","server":"65535","farm":66,"title":"R5_012951","ispublic":1,"isfriend":0,"isfamily":0},{"id":"52762144255","owner":"36142084@N05","secret":"051a3f72ce","server":"65535","farm":66,"title":"R5_012823","ispublic":1,"isfriend":0,"isfamily":0},{"id":"52762228158","owner":"36142084@N05","secret":"c09cab9e6e","server":"65535","farm":66,"title":"R5_012894","ispublic":1,"isfriend":0,"isfamily":0},{"id":"52759185571","owner":"136420653@N03","secret":"d15d7526cb","server":"65535","farm":66,"title":"Eisente (Long-tailed duck)","ispublic":1,"isfriend":0,"isfamily":0},{"id":"52758404039","owner":"84169650@N07","secret":"6348b19b1e","server":"65535","farm":66,"title":"Long Tailed Duck","ispublic":1,"isfriend":0,"isfamily":0},{"id":"52757029282","owner":"39138537@N06","secret":"15cc8140db","server":"65535","farm":66,"title":"Long-tailed Duck (Clangula hyemalis) diving sequence","ispublic":1,"isfriend":0,"isfamily":0},{"id":"52757974270","owner":"39138537@N06","secret":"8b866cac10","server":"65535","farm":66,"title":"Long-tailed Duck (Clangula hyemalis) diving sequence","ispublic":1,"isfriend":0,"isfamily":0},{"id":"52757974295","owner":"39138537@N06","secret":"d655de1dbc","server":"65535","farm":66,"title":"Long-tailed Duck (Clangula hyemalis) diving sequence","ispublic":1,"isfriend":0,"isfamily":0},{"id":"52756245817","owner":"12639178@N07","secret":"c878eca8e1","server":"65535","farm":66,"title":"Eisente. Geltinger Birk, Ostsee","ispublic":1,"isfriend":0,"isfamily":0},{"id":"52752737211","owner":"18217058@N04","secret":"75443cd414","server":"65535","farm":66,"title":"Long-tailed duck \/ H\u00e1vella (Clangula hyemalis)","ispublic":1,"isfriend":0,"isfamily":0},{"id":"52753147815","owner":"18217058@N04","secret":"c98dc1d381","server":"65535","farm":66,"title":"Long-tailed ducks \/ H\u00e1vellur (Clangula hyemalis)","ispublic":1,"isfriend":0,"isfamily":0},{"id":"52752976294","owner":"191391950@N02","secret":"2992e6d1c2","server":"65535","farm":66,"title":"Harelde bor\u00e9ale - Clangula hyemalis","ispublic":1,"isfriend":0,"isfamily":0},{"id":"52751982154","owner":"90886369@N06","secret":"c9728f8905","server":"65535","farm":66,"title":"Long-tailed Duck (Clangula hyemalis) out of water","ispublic":1,"isfriend":0,"isfamily":0},{"id":"52751636639","owner":"54724497@N02","secret":"86fecf58aa","server":"65535","farm":66,"title":"Alf\u00e5gel, Clangula hyemalis, Long-tailed Duck","ispublic":1,"isfriend":0,"isfamily":0},{"id":"52748435279","owner":"98675522@N06","secret":"8989f12d58","server":"65535","farm":66,"title":"Surfacing","ispublic":1,"isfriend":0,"isfamily":0},{"id":"52744873154","owner":"131037795@N03","secret":"63fe92fe79","server":"65535","farm":66,"title":"Long-tailed Duck (Clangula hyemalis)","ispublic":1,"isfriend":0,"isfamily":0},{"id":"52744873119","owner":"131037795@N03","secret":"618951c6bd","server":"65535","farm":66,"title":"Long-tailed Duck (Clangula hyemalis)","ispublic":1,"isfriend":0,"isfamily":0},{"id":"52738174832","owner":"163667952@N05","secret":"646fa0bace","server":"65535","farm":66,"title":"Long-tailed Duck","ispublic":1,"isfriend":0,"isfamily":0},{"id":"52738093332","owner":"78941013@N00","secret":"e5db76ae40","server":"65535","farm":66,"title":"Long-tailed duck (Clangula hyemalis) IJseend","ispublic":1,"isfriend":0,"isfamily":0},{"id":"52739097023","owner":"78941013@N00","secret":"201063ef86","server":"65535","farm":66,"title":"Long-tailed duck (Clangula hyemalis) IJseend","ispublic":1,"isfriend":0,"isfamily":0},{"id":"52738612421","owner":"78941013@N00","secret":"22f1f81c4b","server":"65535","farm":66,"title":"Long-tailed duck (Clangula hyemalis) IJseend","ispublic":1,"isfriend":0,"isfamily":0},{"id":"52739023285","owner":"78941013@N00","secret":"da87837820","server":"65535","farm":66,"title":"Long-tailed duck (Clangula hyemalis) IJseend","ispublic":1,"isfriend":0,"isfamily":0},{"id":"52738399903","owner":"18217058@N04","secret":"a6c0ff3a92","server":"65535","farm":66,"title":"Long-tailed ducks \/ H\u00e1vellur (Clangula hyemalis)","ispublic":1,"isfriend":0,"isfamily":0},{"id":"52736780205","owner":"182138911@N08","secret":"5c3860618f","server":"0","farm":0,"title":"Long-tailed Duck (Clangula hyemalis)","ispublic":1,"isfriend":0,"isfamily":0},{"id":"52736582819","owner":"182138911@N08","secret":"9889258edd","server":"0","farm":0,"title":"Long-tailed Duck (Clangula hyemalis)","ispublic":1,"isfriend":0,"isfamily":0},{"id":"52735791637","owner":"182138911@N08","secret":"501d262b9f","server":"65535","farm":66,"title":"Long-tailed Duck (Clangula hyemalis)","ispublic":1,"isfriend":0,"isfamily":0},{"id":"52736567219","owner":"182138911@N08","secret":"bcb8000ce3","server":"65535","farm":66,"title":"Long-tailed Duck (Clangula hyemalis)","ispublic":1,"isfriend":0,"isfamily":0},{"id":"52736728030","owner":"182138911@N08","secret":"1a0745be41","server":"65535","farm":66,"title":"Long-tailed Duck (Clangula hyemalis)","ispublic":1,"isfriend":0,"isfamily":0},{"id":"52728074327","owner":"187792860@N04","secret":"10996b640b","server":"65535","farm":66,"title":"Long-tailed Duck (Clangula hyemalis) Juv.","ispublic":1,"isfriend":0,"isfamily":0},{"id":"52729008455","owner":"187792860@N04","secret":"6f6697347d","server":"65535","farm":66,"title":"Long-tailed Duck (Clangula hyemalis) Juv.","ispublic":1,"isfriend":0,"isfamily":0},{"id":"52716685485","owner":"135315828@N06","secret":"6a6821d34a","server":"65535","farm":66,"title":"long-tailed duck","ispublic":1,"isfriend":0,"isfamily":0},{"id":"52716258726","owner":"135315828@N06","secret":"5feca9a1c8","server":"65535","farm":66,"title":"long-tailed duck","ispublic":1,"isfriend":0,"isfamily":0},{"id":"52715736227","owner":"135315828@N06","secret":"a84fc66971","server":"65535","farm":66,"title":"long-tailed duck","ispublic":1,"isfriend":0,"isfamily":0},{"id":"52715736142","owner":"135315828@N06","secret":"abb42d20ef","server":"65535","farm":66,"title":"long-tailed duck","ispublic":1,"isfriend":0,"isfamily":0},{"id":"52716258621","owner":"135315828@N06","secret":"aab5aae242","server":"65535","farm":66,"title":"long-tailed duck","ispublic":1,"isfriend":0,"isfamily":0},{"id":"52716517644","owner":"135315828@N06","secret":"9d2762d321","server":"65535","farm":66,"title":"long-tailed duck","ispublic":1,"isfriend":0,"isfamily":0},{"id":"52716740233","owner":"135315828@N06","secret":"2cd264f942","server":"65535","farm":66,"title":"long-tailed duck","ispublic":1,"isfriend":0,"isfamily":0},{"id":"52716740188","owner":"135315828@N06","secret":"0dbfed545d","server":"65535","farm":66,"title":"long-tailed duck","ispublic":1,"isfriend":0,"isfamily":0},{"id":"52716739523","owner":"135315828@N06","secret":"e0655ef7f1","server":"65535","farm":66,"title":"long-tailed duck","ispublic":1,"isfriend":0,"isfamily":0},{"id":"52716257791","owner":"135315828@N06","secret":"afb204d599","server":"65535","farm":66,"title":"long-tailed duck","ispublic":1,"isfriend":0,"isfamily":0},{"id":"52716516904","owner":"135315828@N06","secret":"b8ab0201f0","server":"65535","farm":66,"title":"long-tailed duck","ispublic":1,"isfriend":0,"isfamily":0},{"id":"52716257731","owner":"135315828@N06","secret":"82f82bb82d","server":"65535","farm":66,"title":"long-tailed duck","ispublic":1,"isfriend":0,"isfamily":0},{"id":"52715735232","owner":"135315828@N06","secret":"09f314b182","server":"65535","farm":66,"title":"long-tailed duck","ispublic":1,"isfriend":0,"isfamily":0},{"id":"52716516794","owner":"135315828@N06","secret":"5e1923eba3","server":"65535","farm":66,"title":"long-tailed duck","ispublic":1,"isfriend":0,"isfamily":0},{"id":"52716739418","owner":"135315828@N06","secret":"1bab597208","server":"65535","farm":66,"title":"long-tailed duck","ispublic":1,"isfriend":0,"isfamily":0},{"id":"52716257601","owner":"135315828@N06","secret":"077ccc52f9","server":"65535","farm":66,"title":"long-tailed duck","ispublic":1,"isfriend":0,"isfamily":0},{"id":"52716516754","owner":"135315828@N06","secret":"ebffb78c09","server":"65535","farm":66,"title":"long-tailed duck","ispublic":1,"isfriend":0,"isfamily":0},{"id":"52716739393","owner":"135315828@N06","secret":"45017a9d09","server":"65535","farm":66,"title":"long-tailed duck","ispublic":1,"isfriend":0,"isfamily":0},{"id":"52715735152","owner":"135315828@N06","secret":"ed15cff537","server":"65535","farm":66,"title":"long-tailed duck","ispublic":1,"isfriend":0,"isfamily":0},{"id":"52716684265","owner":"135315828@N06","secret":"f7d443c03a","server":"65535","farm":66,"title":"long-tailed duck","ispublic":1,"isfriend":0,"isfamily":0},{"id":"52716684240","owner":"135315828@N06","secret":"24c54c293a","server":"65535","farm":66,"title":"long-tailed duck","ispublic":1,"isfriend":0,"isfamily":0},{"id":"52716257421","owner":"135315828@N06","secret":"8c65a9a1ee","server":"65535","farm":66,"title":"long-tailed duck","ispublic":1,"isfriend":0,"isfamily":0},{"id":"52716684140","owner":"135315828@N06","secret":"ea4c6effde","server":"65535","farm":66,"title":"long-tailed duck","ispublic":1,"isfriend":0,"isfamily":0},{"id":"52716257276","owner":"135315828@N06","secret":"9ea01f43f1","server":"65535","farm":66,"title":"long-tailed duck","ispublic":1,"isfriend":0,"isfamily":0},{"id":"52716684010","owner":"135315828@N06","secret":"99c272b8e4","server":"65535","farm":66,"title":"long-tailed duck","ispublic":1,"isfriend":0,"isfamily":0},{"id":"52716257076","owner":"135315828@N06","secret":"93e6a49d87","server":"65535","farm":66,"title":"long-tailed duck","ispublic":1,"isfriend":0,"isfamily":0},{"id":"52716683855","owner":"135315828@N06","secret":"a7ba134153","server":"65535","farm":66,"title":"long-tailed duck","ispublic":1,"isfriend":0,"isfamily":0},{"id":"52716683875","owner":"135315828@N06","secret":"2747de674b","server":"65535","farm":66,"title":"long-tailed duck","ispublic":1,"isfriend":0,"isfamily":0},{"id":"52711756405","owner":"168495655@N07","secret":"1b43cc6569","server":"65535","farm":66,"title":"Harelde kakawi - Clangula hyemalis - Long-tailed Duck","ispublic":1,"isfriend":0,"isfamily":0},{"id":"52708213582","owner":"195513126@N05","secret":"06ef25933d","server":"65535","farm":66,"title":"Lodowka - Eisente","ispublic":1,"isfriend":0,"isfamily":0},{"id":"52705296267","owner":"12639178@N07","secret":"de789cbf07","server":"65535","farm":66,"title":"Eisente  Belegbild! Leider unscharf in der Abendd\u00e4mmerung!","ispublic":1,"isfriend":0,"isfamily":0},{"id":"52706132828","owner":"62445008@N00","secret":"5ec0911de4","server":"65535","farm":66,"title":"Long-tailed Duck (Clangula hyemalis)","ispublic":1,"isfriend":0,"isfamily":0},{"id":"52705117957","owner":"62445008@N00","secret":"d167329283","server":"65535","farm":66,"title":"Long-tailed Duck (Clangula hyemalis)","ispublic":1,"isfriend":0,"isfamily":0},{"id":"52706132808","owner":"62445008@N00","secret":"8b09fdfecc","server":"65535","farm":66,"title":"Long-tailed Duck (Clangula hyemalis)","ispublic":1,"isfriend":0,"isfamily":0},{"id":"52706055735","owner":"62445008@N00","secret":"4acd5957f5","server":"65535","farm":66,"title":"Long-tailed Duck (Clangula hyemalis)","ispublic":1,"isfriend":0,"isfamily":0},{"id":"52705117922","owner":"62445008@N00","secret":"4ab5708c21","server":"65535","farm":66,"title":"Long-tailed Duck (Clangula hyemalis)","ispublic":1,"isfriend":0,"isfamily":0},{"id":"52703071087","owner":"63678308@N05","secret":"230787cf2c","server":"65535","farm":66,"title":"LongTail-8710-j22","ispublic":1,"isfriend":0,"isfamily":0},{"id":"52770227027","owner":"45759259@N06","secret":"3de795bf3a","server":"65535","farm":66,"title":"Harelde bor\u00e9ale Clangula hyemalis Long-tailed Duck","ispublic":1,"isfriend":0,"isfamily":0},{"id":"52761193577","owner":"36142084@N05","secret":"169f0f943b","server":"65535","farm":66,"title":"R5_012849","ispublic":1,"isfriend":0,"isfamily":0},{"id":"52741602021","owner":"12639178@N07","secret":"ded61861fb","server":"65535","farm":66,"title":"Eisente","ispublic":1,"isfriend":0,"isfamily":0},{"id":"52741787824","owner":"12639178@N07","secret":"e4e562138e","server":"65535","farm":66,"title":"Eisente","ispublic":1,"isfriend":0,"isfamily":0},{"id":"52736794483","owner":"182138911@N08","secret":"3037fe68d9","server":"65535","farm":66,"title":"Long-tailed Duck (Clangula hyemalis)","ispublic":1,"isfriend":0,"isfamily":0},{"id":"52728870174","owner":"187792860@N04","secret":"2bea424f7c","server":"65535","farm":66,"title":"Long-tailed Duck (Clangula hyemalis) Juv.","ispublic":1,"isfriend":0,"isfamily":0},{"id":"52720617950","owner":"90886369@N06","secret":"14c7556512","server":"65535","farm":66,"title":"Long-tailed Duck (Clangula hyemalis)","ispublic":1,"isfriend":0,"isfamily":0},{"id":"52716684290","owner":"135315828@N06","secret":"12b0318186","server":"65535","farm":66,"title":"long-tailed duck","ispublic":1,"isfriend":0,"isfamily":0},{"id":"52715734997","owner":"135315828@N06","secret":"bcf2743ac6","server":"65535","farm":66,"title":"long-tailed duck","ispublic":1,"isfriend":0,"isfamily":0},{"id":"52706073019","owner":"12639178@N07","secret":"b4ece3a816","server":"65535","farm":66,"title":"Eisente  Belegbild! Leider unscharf in der Abendd\u00e4mmerung!","ispublic":1,"isfriend":0,"isfamily":0},{"id":"52706072939","owner":"12639178@N07","secret":"4759ed77a3","server":"65535","farm":66,"title":"Eisente  Belegbild! Leider unscharf in der Abendd\u00e4mmerung!","ispublic":1,"isfriend":0,"isfamily":0},{"id":"52703624821","owner":"63678308@N05","secret":"4f6357ddf2","server":"65535","farm":66,"title":"LongTailed-0324-j","ispublic":1,"isfriend":0,"isfamily":0}]},"stat":"ok"}