{"photos":{"page":1,"pages":6,"perpage":100,"total":508,"photo":[{"id":"52730498453","owner":"51852458@N03","secret":"4f985067da","server":"65535","farm":66,"title":"Long-billed Starthroat (Heliomaster longirostris)","ispublic":1,"isfriend":0,"isfamily":0},{"id":"52730014371","owner":"51852458@N03","secret":"ac25d0a0ec","server":"65535","farm":66,"title":"Long-billed Starthroat (Heliomaster longirostris)","ispublic":1,"isfriend":0,"isfamily":0},{"id":"52730426810","owner":"51852458@N03","secret":"6c26e07200","server":"65535","farm":66,"title":"Long-billed Starthroat (Heliomaster longirostris)","ispublic":1,"isfriend":0,"isfamily":0},{"id":"52429900699","owner":"131708321@N02","secret":"883c76f764","server":"65535","farm":66,"title":"Long-billed Starthroat (Heliomaster longirostris), Chiriqu\u00ed, Panama","ispublic":1,"isfriend":0,"isfamily":0},{"id":"52429134019","owner":"77128742@N06","secret":"f24f09af03","server":"65535","farm":66,"title":"Rosenkehlkolibri_Heliomaster longirostris-7","ispublic":1,"isfriend":0,"isfamily":0},{"id":"52364299143","owner":"127317522@N03","secret":"c944ee3f1f","server":"65535","farm":66,"title":"Colibri Corinne - Heliomaster longirostris","ispublic":1,"isfriend":0,"isfamily":0},{"id":"52330678637","owner":"38179496@N05","secret":"3823dd2912","server":"65535","farm":66,"title":"Colibr\u00ed Piquilargo - Long-billed Starhroat - (Heliomaster longirostris)","ispublic":1,"isfriend":0,"isfamily":0},{"id":"52331874418","owner":"38179496@N05","secret":"f350023b1b","server":"65535","farm":66,"title":"Colibr\u00ed Piquilargo - Long-billed Starhroat - (Heliomaster longirostris)","ispublic":1,"isfriend":0,"isfamily":0},{"id":"52331638211","owner":"38179496@N05","secret":"0d58ec3d22","server":"65535","farm":66,"title":"Colibr\u00ed Piquilargo - Long-billed Starhroat - (Heliomaster longirostris)","ispublic":1,"isfriend":0,"isfamily":0},{"id":"52202629810","owner":"127317522@N03","secret":"9bc9f4ee97","server":"65535","farm":66,"title":"Colibri Corinne - Heliomaster longirostris","ispublic":1,"isfriend":0,"isfamily":0},{"id":"52060506708","owner":"150986980@N04","secret":"48b1209a30","server":"65535","farm":66,"title":"Heliomaster longirostris - Long-billed Starthroat - Colibr\u00ed Piquilargo - Picudo Gorgiestrella","ispublic":1,"isfriend":0,"isfamily":0},{"id":"52013678375","owner":"192502021@N07","secret":"26c9c1d957","server":"65535","farm":66,"title":"Picudo Gorgiestrella Long-billed Starthroat Heliomaster longirostris-2","ispublic":1,"isfriend":0,"isfamily":0},{"id":"51790493795","owner":"29610556@N02","secret":"29f38196c9","server":"65535","farm":66,"title":"Long-billed Starthroat (Heliomaster longirostris)","ispublic":1,"isfriend":0,"isfamily":0},{"id":"51782161118","owner":"12639178@N07","secret":"5d5da1f338","server":"65535","farm":66,"title":"Rosenkehlkolibri","ispublic":1,"isfriend":0,"isfamily":0},{"id":"51773822972","owner":"154261763@N05","secret":"49204a8e13","server":"65535","farm":66,"title":"Long-billed starthroat (Rosenkehlkolibri) - Heliomaster longirostris)","ispublic":1,"isfriend":0,"isfamily":0},{"id":"51775281914","owner":"154261763@N05","secret":"3d477df50b","server":"65535","farm":66,"title":"Long-billed starthroat (Rosenkehlkolibri) - Heliomaster longirostris)","ispublic":1,"isfriend":0,"isfamily":0},{"id":"51733589980","owner":"52631592@N05","secret":"a2aca01234","server":"65535","farm":66,"title":"Long-billed starthroat (Heliomaster longirostris)","ispublic":1,"isfriend":0,"isfamily":0},{"id":"51723146299","owner":"10336659@N04","secret":"ab1fe48389","server":"65535","farm":66,"title":"Long-billed starthroat  (Heliomaster longirostris), @esperanzaalta, Trinidad.","ispublic":1,"isfriend":0,"isfamily":0},{"id":"51671357499","owner":"8013969@N03","secret":"e603e8ce21","server":"65535","farm":66,"title":"Heliomaster longirostris","ispublic":1,"isfriend":0,"isfamily":0},{"id":"51524527386","owner":"48014585@N00","secret":"479a545058","server":"65535","farm":66,"title":"Long-billed Starthroat","ispublic":1,"isfriend":0,"isfamily":0},{"id":"51525209414","owner":"48014585@N00","secret":"bc231dd8c0","server":"65535","farm":66,"title":"Long-billed Starthroat","ispublic":1,"isfriend":0,"isfamily":0},{"id":"51416308070","owner":"69347399@N08","secret":"c88193b818","server":"65535","farm":66,"title":"Heliomaster longirostris - Long billed starthroat - colibri piquilargo","ispublic":1,"isfriend":0,"isfamily":0},{"id":"51367216034","owner":"33106392@N08","secret":"f5e4a5be21","server":"65535","farm":66,"title":"Long-billed Starthroat","ispublic":1,"isfriend":0,"isfamily":0},{"id":"51235550185","owner":"10336659@N04","secret":"f468b30902","server":"65535","farm":66,"title":"Long-billed Starthroat (Heliomaster longirostris) in flight, Trinidad.","ispublic":1,"isfriend":0,"isfamily":0},{"id":"51145397136","owner":"54249623@N08","secret":"eea957ee8f","server":"65535","farm":66,"title":"Picudo Coronado, Long-billed Starthroat (Heliomaster longirostris)","ispublic":1,"isfriend":0,"isfamily":0},{"id":"51128608278","owner":"155928864@N08","secret":"93083aec71","server":"65535","farm":66,"title":"Heliom\u00e1ster Piquilargo, Heliomaster longirostris, Long-billed Starthroat. Cafeter\u00eda Rinc\u00f3n Guaycapi, Tandayapa, Quito, Ecuador","ispublic":1,"isfriend":0,"isfamily":0},{"id":"51090845879","owner":"37493716@N02","secret":"0074c50e74","server":"65535","farm":66,"title":"Long-billed Starthroat - Heliomaster longirostris - El Jaguar ProAves Reserve - Fotos Leonel Silva","ispublic":1,"isfriend":0,"isfamily":0},{"id":"50838078177","owner":"10336659@N04","secret":"d67d45007c","server":"65535","farm":66,"title":"Long-billed Starthroat Hummingbird (Heliomaster longirostris), Yerette, Trinidad.","ispublic":1,"isfriend":0,"isfamily":0},{"id":"50736990101","owner":"10336659@N04","secret":"7405c56107","server":"65535","farm":66,"title":"Long-billed starthroat  (Heliomaster longirostris), @esperanzaalta, Trinidad.","ispublic":1,"isfriend":0,"isfamily":0},{"id":"50688880137","owner":"10336659@N04","secret":"4ecb633d32","server":"65535","farm":66,"title":"Long-billed Starthroat  Hummingbird (Heliomaster longirostris), Yerette, Trinidad.","ispublic":1,"isfriend":0,"isfamily":0},{"id":"50620515443","owner":"10336659@N04","secret":"4479e9c71f","server":"65535","farm":66,"title":"Long-billed starthroat  (Heliomaster longirostris), @esperanzaalta, Trinidad.","ispublic":1,"isfriend":0,"isfamily":0},{"id":"50589770968","owner":"10336659@N04","secret":"c1f5a039b5","server":"65535","farm":66,"title":"Long-billed starthroat  (Heliomaster longirostris), @esperanzaalta, Trinidad.","ispublic":1,"isfriend":0,"isfamily":0},{"id":"50581047362","owner":"10336659@N04","secret":"83a4e288a8","server":"65535","farm":66,"title":"Long-billed starthroat  (Heliomaster longirostris), @esperanzaalta, Trinidad.","ispublic":1,"isfriend":0,"isfamily":0},{"id":"50575301318","owner":"29170368@N03","secret":"28428a1905","server":"65535","farm":66,"title":"Long-billed Starthroat","ispublic":1,"isfriend":0,"isfamily":0},{"id":"50542716991","owner":"54249623@N08","secret":"cbbd21da22","server":"65535","farm":66,"title":"Picudo Coronado, Long-billed Starthroat (Heliomaster longirostris)","ispublic":1,"isfriend":0,"isfamily":0},{"id":"50542716621","owner":"54249623@N08","secret":"a13e662577","server":"65535","farm":66,"title":"Picudo Coronado, Long-billed Starthroat (Heliomaster longirostris)","ispublic":1,"isfriend":0,"isfamily":0},{"id":"50525527998","owner":"10336659@N04","secret":"68b580979f","server":"65535","farm":66,"title":"Long-billed starthroat  (Heliomaster longirostris), @esperanzaalta, Trinidad.","ispublic":1,"isfriend":0,"isfamily":0},{"id":"50520896991","owner":"10336659@N04","secret":"882717417e","server":"65535","farm":66,"title":"Long-billed starthroat  (Heliomaster longirostris), @esperanzaalta, Trinidad.","ispublic":1,"isfriend":0,"isfamily":0},{"id":"50492758626","owner":"10336659@N04","secret":"ce97865450","server":"65535","farm":66,"title":"Long-billed starthroat  (Heliomaster longirostris), @esperanzaalta, Trinidad.","ispublic":1,"isfriend":0,"isfamily":0},{"id":"50459702948","owner":"187682764@N06","secret":"b0fdf934bc","server":"65535","farm":66,"title":"Long-billed Starthroat","ispublic":1,"isfriend":0,"isfamily":0},{"id":"50441848252","owner":"10336659@N04","secret":"59034056a7","server":"65535","farm":66,"title":"Long-billed starthroat  (Heliomaster longirostris), @esperanzaalta, Trinidad.","ispublic":1,"isfriend":0,"isfamily":0},{"id":"50433498807","owner":"10336659@N04","secret":"2e8ec6ed87","server":"65535","farm":66,"title":"Long-billed starthroat  (Heliomaster longirostris), @esperanzaalta, Trinidad.","ispublic":1,"isfriend":0,"isfamily":0},{"id":"50410139397","owner":"10336659@N04","secret":"1ed52b0608","server":"65535","farm":66,"title":"Long-billed starthroat  (Heliomaster longirostris), @esperanzaalta, Trinidad","ispublic":1,"isfriend":0,"isfamily":0},{"id":"50378919017","owner":"10336659@N04","secret":"6346b001b9","server":"65535","farm":66,"title":"Juvenile Long-billed starthroat  (Heliomaster longirostris), Paramin, Trinidad.","ispublic":1,"isfriend":0,"isfamily":0},{"id":"50321905807","owner":"10336659@N04","secret":"3f1902c79e","server":"65535","farm":66,"title":"Juvenile Long-billed starthroat  (Heliomaster longirostris), Trinidad.","ispublic":1,"isfriend":0,"isfamily":0},{"id":"50284801762","owner":"150986980@N04","secret":"8ba57acec0","server":"65535","farm":66,"title":"Picudo Gorgiestrella\/Long-billed Starthroat\/Heliomaster longirostris","ispublic":1,"isfriend":0,"isfamily":0},{"id":"50283410768","owner":"150986980@N04","secret":"022cd2e642","server":"65535","farm":66,"title":"Picudo Gorgiestrella\/Long-billed Starthroat\/Heliomaster longirostris","ispublic":1,"isfriend":0,"isfamily":0},{"id":"50268411272","owner":"11803211@N06","secret":"8c46e922c0","server":"65535","farm":66,"title":"Long-billed starthroat (Heliomaster longirostris), Arima Valley, Trinidad","ispublic":1,"isfriend":0,"isfamily":0},{"id":"50241527132","owner":"37493716@N02","secret":"fbe50f497f","server":"65535","farm":66,"title":"Long-billed Starthroat (Heliomaster longirostris)","ispublic":1,"isfriend":0,"isfamily":0},{"id":"50053718418","owner":"45505361@N08","secret":"e8e18d0f81","server":"65535","farm":66,"title":"Heliomaster longirostris","ispublic":1,"isfriend":0,"isfamily":0},{"id":"50031044898","owner":"10336659@N04","secret":"7e1791bd46","server":"65535","farm":66,"title":"Juvenile Long-billed starthroat  (Heliomaster longirostris), Trinidad.","ispublic":1,"isfriend":0,"isfamily":0},{"id":"49995213021","owner":"10336659@N04","secret":"b630818aeb","server":"65535","farm":66,"title":"Juvenile Long-billed starthroat  (Heliomaster longirostris), Trinidad.","ispublic":1,"isfriend":0,"isfamily":0},{"id":"49909667613","owner":"126761410@N03","secret":"b251029428","server":"65535","farm":66,"title":"Long-billed Starthroat \/ Heliomaster Piquilargo","ispublic":1,"isfriend":0,"isfamily":0},{"id":"49909667438","owner":"126761410@N03","secret":"b63deb7917","server":"65535","farm":66,"title":"Long-billed Starthroat \/ Heliomaster Piquilargo","ispublic":1,"isfriend":0,"isfamily":0},{"id":"49909617333","owner":"126761410@N03","secret":"f05a5ab29d","server":"65535","farm":66,"title":"Long-billed Starthroat \/ Heliomaster Piquilargo","ispublic":1,"isfriend":0,"isfamily":0},{"id":"49863000453","owner":"95610786@N07","secret":"75c6a792ec","server":"65535","farm":66,"title":"Colibri corinne Heliomaster longirostris - Long-billed Starthroat  0789_DxO","ispublic":1,"isfriend":0,"isfamily":0},{"id":"49863762022","owner":"95610786@N07","secret":"70c65be0f8","server":"65535","farm":66,"title":"Colibri corinne Heliomaster longirostris - Long-billed Starthroat  0758_DxO","ispublic":1,"isfriend":0,"isfamily":0},{"id":"49860201192","owner":"95610786@N07","secret":"441cd848f7","server":"65535","farm":66,"title":"Colibri corinne Heliomaster longirostris - Long-billed Starthroat 0754_DxO","ispublic":1,"isfriend":0,"isfamily":0},{"id":"49783422537","owner":"25527950@N03","secret":"59785bca50","server":"65535","farm":66,"title":"Colibr\u00ed Picudo Coroniazul (Heliomaster longirostris)","ispublic":1,"isfriend":0,"isfamily":0},{"id":"49758566057","owner":"52534093@N05","secret":"0fa58283c0","server":"65535","farm":66,"title":"Long billed star-throat - Heliomaster longirostris","ispublic":1,"isfriend":0,"isfamily":0},{"id":"52641202744","owner":"131708321@N02","secret":"89f0c55a92","server":"65535","farm":66,"title":"Long-billed Starthroat (Heliomaster longirostris), Chiriqu\u00ed, Panama","ispublic":1,"isfriend":0,"isfamily":0},{"id":"52640433912","owner":"131708321@N02","secret":"85645b87e4","server":"65535","farm":66,"title":"Long-billed Starthroat (Heliomaster longirostris), Chiriqu\u00ed, Panama","ispublic":1,"isfriend":0,"isfamily":0},{"id":"52429133989","owner":"77128742@N06","secret":"51c20c47be","server":"65535","farm":66,"title":"Rosenkehlkolibri_Heliomaster longirostris-19","ispublic":1,"isfriend":0,"isfamily":0},{"id":"52351250995","owner":"131708321@N02","secret":"8c3a3a7d7f","server":"65535","farm":66,"title":"Long-billed Starthroat (Heliomaster longirostris), Chiriqu\u00ed, Panama","ispublic":1,"isfriend":0,"isfamily":0},{"id":"52345674451","owner":"32752434@N07","secret":"9081e38b6f","server":"65535","farm":66,"title":"Long-billed Starthroat (Heliomaster longirostris)","ispublic":1,"isfriend":0,"isfamily":0},{"id":"52059435102","owner":"150986980@N04","secret":"56e8e7a230","server":"65535","farm":66,"title":"Heliomaster longirostris - Long-billed Starthroat - Colibr\u00ed Piquilargo - Picudo Gorgiestrella","ispublic":1,"isfriend":0,"isfamily":0},{"id":"51781100427","owner":"12639178@N07","secret":"ebcc79f686","server":"65535","farm":66,"title":"Rosenkehlkolibri an Bananenbl\u00fcte","ispublic":1,"isfriend":0,"isfamily":0},{"id":"51525428735","owner":"48014585@N00","secret":"146d865396","server":"65535","farm":66,"title":"Long-billed Starthroat","ispublic":1,"isfriend":0,"isfamily":0},{"id":"51521213557","owner":"48014585@N00","secret":"57a1c4a7d4","server":"65535","farm":66,"title":"Long-billed Starthroat","ispublic":1,"isfriend":0,"isfamily":0},{"id":"51521213182","owner":"48014585@N00","secret":"97da1a3d7c","server":"65535","farm":66,"title":"Long-billed Starthroat","ispublic":1,"isfriend":0,"isfamily":0},{"id":"51522930155","owner":"48014585@N00","secret":"5a7cac5eb4","server":"65535","farm":66,"title":"Long-billed Starthroat","ispublic":1,"isfriend":0,"isfamily":0},{"id":"51521210162","owner":"48014585@N00","secret":"82ff42e101","server":"65535","farm":66,"title":"Long-billed Starthroat","ispublic":1,"isfriend":0,"isfamily":0},{"id":"51276255013","owner":"144633594@N05","secret":"8f52aa031c","server":"65535","farm":66,"title":"Heliomaster longirostris","ispublic":1,"isfriend":0,"isfamily":0},{"id":"51115035806","owner":"192761925@N02","secret":"27f2a9f343","server":"65535","farm":66,"title":"Heliomaster longirostris - DSC_0027 - copia","ispublic":1,"isfriend":0,"isfamily":0},{"id":"51114788024","owner":"192761925@N02","secret":"9ee74e1f1f","server":"65535","farm":66,"title":"Heliomaster longirostris - DSC_0028 - copia","ispublic":1,"isfriend":0,"isfamily":0},{"id":"51114788029","owner":"192761925@N02","secret":"9ff3c68a24","server":"65535","farm":66,"title":"Heliomaster longirostris - DSC_0021 - copia","ispublic":1,"isfriend":0,"isfamily":0},{"id":"51115035781","owner":"192761925@N02","secret":"d8a87133db","server":"65535","farm":66,"title":"Heliomaster longirostris - DSC_0033 - copia","ispublic":1,"isfriend":0,"isfamily":0},{"id":"51114788014","owner":"192761925@N02","secret":"d2015a4c4a","server":"65535","farm":66,"title":"Heliomaster longirostris - DSC_0029 - copia","ispublic":1,"isfriend":0,"isfamily":0},{"id":"51003510561","owner":"37493716@N02","secret":"a03094e22b","server":"65535","farm":66,"title":"Long-billed Starthroat - Heliomaster longirostris - El Jaguar Proaves Reserve","ispublic":1,"isfriend":0,"isfamily":0},{"id":"50752969877","owner":"10336659@N04","secret":"2cd6219a55","server":"65535","farm":66,"title":"Long-billed starthroat (Heliomaster longirostris), Yerette, Trinidad.","ispublic":1,"isfriend":0,"isfamily":0},{"id":"50731304862","owner":"37493716@N02","secret":"5d2c81def9","server":"65535","farm":66,"title":"Heliomaster longirostris Long-billed Starthroat 2","ispublic":1,"isfriend":0,"isfamily":0},{"id":"50730444743","owner":"37493716@N02","secret":"2b56efda72","server":"65535","farm":66,"title":"Long-billed Starthroat (Heliomaster longirostris)","ispublic":1,"isfriend":0,"isfamily":0},{"id":"50698698792","owner":"37493716@N02","secret":"d2d023af73","server":"65535","farm":66,"title":"Heliomaster longirostris","ispublic":1,"isfriend":0,"isfamily":0},{"id":"50595321097","owner":"10336659@N04","secret":"94292e9093","server":"65535","farm":66,"title":"Long-billed starthroat  (Heliomaster longirostris), @esperanzaalta, Trinidad.","ispublic":1,"isfriend":0,"isfamily":0},{"id":"50174668217","owner":"37493716@N02","secret":"247105a6cc","server":"65535","farm":66,"title":"Heliomaster longirostris","ispublic":1,"isfriend":0,"isfamily":0},{"id":"50054541442","owner":"45505361@N08","secret":"2acab7f10a","server":"65535","farm":66,"title":"Heliomaster longirostris","ispublic":1,"isfriend":0,"isfamily":0},{"id":"50013026987","owner":"10336659@N04","secret":"97b8ee455d","server":"65535","farm":66,"title":"Juvenile Long-billed starthroat  (Heliomaster longirostris), Trinidad.","ispublic":1,"isfriend":0,"isfamily":0},{"id":"49957243592","owner":"119787485@N07","secret":"ce90cd6e7d","server":"65535","farm":66,"title":"Long-billed Starthroat (Heliomaster longirostris longirostris) - 20140124-03","ispublic":1,"isfriend":0,"isfamily":0},{"id":"49926311378","owner":"10336659@N04","secret":"3bcf531429","server":"65535","farm":66,"title":"Juvenile Long-billed starthroat  (Heliomaster longirostris), Trinidad.","ispublic":1,"isfriend":0,"isfamily":0},{"id":"49817807341","owner":"186211059@N06","secret":"1021f1c00a","server":"65535","farm":66,"title":"Long-billed Starthroat","ispublic":1,"isfriend":0,"isfamily":0},{"id":"49794820018","owner":"150986980@N04","secret":"94079e5b10","server":"65535","farm":66,"title":"Picudo Gorgiestrella\/Long-billed Starthroat\/Heliomaster longirostris","ispublic":1,"isfriend":0,"isfamily":0},{"id":"49771042621","owner":"25527950@N03","secret":"41bb5d1ca8","server":"65535","farm":66,"title":"Colibr\u00ed Picudo Coroniazul (Heliomaster longirostris) 2","ispublic":1,"isfriend":0,"isfamily":0},{"id":"49771042566","owner":"25527950@N03","secret":"d01eca0e67","server":"65535","farm":66,"title":"Colibr\u00ed Picudo Coroniazul (Heliomaster longirostris) V","ispublic":1,"isfriend":0,"isfamily":0},{"id":"49769322277","owner":"25527950@N03","secret":"c9c52f3561","server":"65535","farm":66,"title":"Colibr\u00ed Picudo Coroniazul (Heliomaster longirostris)","ispublic":1,"isfriend":0,"isfamily":0},{"id":"49680080657","owner":"25527950@N03","secret":"54e99dcfd2","server":"65535","farm":66,"title":"Colibr\u00ed  Picudo Coroniazul (Heliomaster longirostris) 1","ispublic":1,"isfriend":0,"isfamily":0},{"id":"49652506072","owner":"25527950@N03","secret":"a95edc6399","server":"65535","farm":66,"title":"Colibr\u00ed  Picudo Coroniazul (Heliomaster longirostris) 1","ispublic":1,"isfriend":0,"isfamily":0},{"id":"49620191281","owner":"47862125@N03","secret":"140fef6451","server":"65535","farm":66,"title":"12-31-2019 Long-billed Starthroat Darien Panama 0M3A9236 (2)","ispublic":1,"isfriend":0,"isfamily":0},{"id":"49620191146","owner":"47862125@N03","secret":"c3229592e9","server":"65535","farm":66,"title":"12-31-2019 Long-billed Starthroat Darien Panama 0M3A9250 (2)","ispublic":1,"isfriend":0,"isfamily":0},{"id":"49575001442","owner":"101130369@N06","secret":"6d2dc44a3d","server":"65535","farm":66,"title":"Panama 2019 Dari\u00e9n - Long-billed Starthroat, s\u00e4il\u00e4kolibri","ispublic":1,"isfriend":0,"isfamily":0},{"id":"49570771831","owner":"51106497@N03","secret":"cff9f30f65","server":"65535","farm":66,"title":"Long-billed Starthroat","ispublic":1,"isfriend":0,"isfamily":0}]},"stat":"ok"}