{"photos":{"page":1,"pages":2,"perpage":100,"total":160,"photo":[{"id":"52743087704","owner":"12639178@N07","secret":"fc5316ee69","server":"65535","farm":66,"title":"Steppenkragentrappe","ispublic":1,"isfriend":0,"isfamily":0},{"id":"52742317692","owner":"12639178@N07","secret":"d554679657","server":"65535","farm":66,"title":"Steppenkragentrappe","ispublic":1,"isfriend":0,"isfamily":0},{"id":"51754564176","owner":"24067417@N03","secret":"0d77992d92","server":"65535","farm":66,"title":"Chlamydotis macqueenii - MacQueen's Bustard","ispublic":1,"isfriend":0,"isfamily":0},{"id":"51754807448","owner":"24067417@N03","secret":"658c992d84","server":"65535","farm":66,"title":"Chlamydotis macqueenii - MacQueen's Bustard","ispublic":1,"isfriend":0,"isfamily":0},{"id":"51263609317","owner":"61021753@N02","secret":"de051fd52c","server":"65535","farm":66,"title":"n37_w1150","ispublic":1,"isfriend":0,"isfamily":0},{"id":"51070797883","owner":"61021753@N02","secret":"20a5e53d87","server":"65535","farm":66,"title":"n104_w1150","ispublic":1,"isfriend":0,"isfamily":0},{"id":"49963792156","owner":"131798845@N07","secret":"0b9fd6044e","server":"65535","farm":66,"title":"Outarde de Macqueen (Chlamydotis macqueenii)","ispublic":1,"isfriend":0,"isfamily":0},{"id":"49461129658","owner":"131798845@N07","secret":"9a43d5bb39","server":"65535","farm":66,"title":"Outarde de Mcqueen (Chlamydotis macqueenii)","ispublic":1,"isfriend":0,"isfamily":0},{"id":"49399253896","owner":"70081115@N06","secret":"edec73417c","server":"65535","farm":66,"title":"Macqueens Bustard","ispublic":1,"isfriend":0,"isfamily":0},{"id":"48931057873","owner":"12240837@N08","secret":"d752d0b295","server":"65535","farm":66,"title":"Macqueen's Bustard (chlamydotis macqueenii)","ispublic":1,"isfriend":0,"isfamily":0},{"id":"48243835952","owner":"136072172@N04","secret":"6264120bdb","server":"65535","farm":66,"title":"MacQueen's bustard (Chlamydotis macqueenii) \/ houbara bustard (Chlamydotis undulata)","ispublic":1,"isfriend":0,"isfamily":0},{"id":"48132680106","owner":"131798845@N07","secret":"c8dc641f15","server":"65535","farm":66,"title":"Outarde de Macqueen (Chlamydotis macqueenii)","ispublic":1,"isfriend":0,"isfamily":0},{"id":"46993700655","owner":"70081115@N06","secret":"264f4caabc","server":"65535","farm":66,"title":"Macqueen's Bustard","ispublic":1,"isfriend":0,"isfamily":0},{"id":"47501602481","owner":"12240837@N08","secret":"90f5ef658b","server":"7879","farm":8,"title":"Macqueen's Bustard (chlamydotis macqueenii)","ispublic":1,"isfriend":0,"isfamily":0},{"id":"47377061512","owner":"131798845@N07","secret":"74a00200d8","server":"7912","farm":8,"title":"Outarde de Macqueen (Chlamydotis macqueenii)","ispublic":1,"isfriend":0,"isfamily":0},{"id":"33266713678","owner":"37934762@N02","secret":"d779c81678","server":"7891","farm":8,"title":"MacQueen's Bustard - Chlamydotis macqueenii","ispublic":1,"isfriend":0,"isfamily":0},{"id":"47034771321","owner":"37934762@N02","secret":"63777beb0f","server":"7856","farm":8,"title":"MacQueen's Bustard - Chlamydotis macqueenii","ispublic":1,"isfriend":0,"isfamily":0},{"id":"33123017258","owner":"131798845@N07","secret":"cea3aac3fd","server":"4860","farm":5,"title":"Outarde de Macqueen (Chlamydotis macqueenii)","ispublic":1,"isfriend":0,"isfamily":0},{"id":"46965702981","owner":"37934762@N02","secret":"214971e210","server":"4839","farm":5,"title":"MacQueen's Bustard - Chlamydotis macqueenii","ispublic":1,"isfriend":0,"isfamily":0},{"id":"46701984611","owner":"77469100@N04","secret":"5d506b116a","server":"7865","farm":8,"title":"Houbara Bustard_w_0020","ispublic":1,"isfriend":0,"isfamily":0},{"id":"32681424108","owner":"70081115@N06","secret":"3a4c11cc48","server":"7883","farm":8,"title":"MacQueen's Bustard","ispublic":1,"isfriend":0,"isfamily":0},{"id":"46324419011","owner":"70081115@N06","secret":"1520342074","server":"4809","farm":5,"title":"MacQueen's Bustard","ispublic":1,"isfriend":0,"isfamily":0},{"id":"45266018455","owner":"70081115@N06","secret":"5719194ba7","server":"4814","farm":5,"title":"MacQueen's Bustard","ispublic":1,"isfriend":0,"isfamily":0},{"id":"45418525212","owner":"136072172@N04","secret":"5e1d4b2100","server":"1921","farm":2,"title":"MacQueen's bustard (Chlamydotis macqueenii) \/ houbara bustard (Chlamydotis undulata)","ispublic":1,"isfriend":0,"isfamily":0},{"id":"41712723431","owner":"56750464@N02","secret":"eef6ae3435","server":"911","farm":1,"title":"Outarde de Macqueen - Chlamydotis macqueenii","ispublic":1,"isfriend":0,"isfamily":0},{"id":"27197419078","owner":"40419412@N04","secret":"e0eb132bbb","server":"801","farm":1,"title":"","ispublic":1,"isfriend":0,"isfamily":0},{"id":"38275359852","owner":"154033179@N02","secret":"87e23744e2","server":"4584","farm":5,"title":"Chlamydotis Macqueenii - Houbarafund","ispublic":1,"isfriend":0,"isfamily":0},{"id":"35965279970","owner":"153476920@N03","secret":"88f2c413e2","server":"4350","farm":5,"title":"Chlamydotis Macqueenii - Houbarafund","ispublic":1,"isfriend":0,"isfamily":0},{"id":"34060082494","owner":"129310620@N03","secret":"f461ec967a","server":"4244","farm":5,"title":"0213 Steppenkragentrappe - Asian Houbara - Chlamydotis macqueenii","ispublic":1,"isfriend":0,"isfamily":0},{"id":"25339606319","owner":"75109682@N04","secret":"c6fd4507c0","server":"5482","farm":6,"title":"MacQueen's bustard (Chlamydotis macqueenii)","ispublic":1,"isfriend":0,"isfamily":0},{"id":"28759405010","owner":"131087549@N04","secret":"ec05cffc9b","server":"8557","farm":9,"title":"MacQueen's Bustard","ispublic":1,"isfriend":0,"isfamily":0},{"id":"27597104226","owner":"56750464@N02","secret":"d0d869a976","server":"7502","farm":8,"title":"Outarde de Macqueen - Chlamydotis macqueenii","ispublic":1,"isfriend":0,"isfamily":0},{"id":"27556529991","owner":"56750464@N02","secret":"4b889ce656","server":"7400","farm":8,"title":"Outarde de Macqueen - Chlamydotis macqueenii","ispublic":1,"isfriend":0,"isfamily":0},{"id":"27530279142","owner":"56750464@N02","secret":"fcc619390d","server":"7354","farm":8,"title":"Outarde de Macqueen - Chlamydotis macqueenii","ispublic":1,"isfriend":0,"isfamily":0},{"id":"27629734685","owner":"56750464@N02","secret":"e733218382","server":"7427","farm":8,"title":"Outarde de Macqueen - Chlamydotis macqueenii","ispublic":1,"isfriend":0,"isfamily":0},{"id":"27020548803","owner":"56750464@N02","secret":"90e8f18abc","server":"7373","farm":8,"title":"Outarde de Macqueen - Chlamydotis macqueenii","ispublic":1,"isfriend":0,"isfamily":0},{"id":"22492454633","owner":"124200561@N04","secret":"e9e3c58b22","server":"665","farm":1,"title":"Macqueen's Bustard (Chlamydotis macqueenii) \u0416\u043e\u0440\u043e\u043e \u0442\u043e\u043e\u0434\u043e\u0433","ispublic":1,"isfriend":0,"isfamily":0},{"id":"21187109923","owner":"9448211@N04","secret":"baa2f4dc4c","server":"582","farm":1,"title":"MacQueen's Bustard (Chlamydotis macqueenii)","ispublic":1,"isfriend":0,"isfamily":0},{"id":"20112264469","owner":"61021753@N02","secret":"9963e51123","server":"553","farm":1,"title":"n30_w1150","ispublic":1,"isfriend":0,"isfamily":0},{"id":"18343821932","owner":"9448211@N04","secret":"fc966022bd","server":"7762","farm":8,"title":"MacQueen's Bustard (Chlamydotis macqueenii)","ispublic":1,"isfriend":0,"isfamily":0},{"id":"18161622149","owner":"9448211@N04","secret":"287b8b0cc6","server":"7761","farm":8,"title":"MacQueen's Bustard (Chlamydotis macqueenii)","ispublic":1,"isfriend":0,"isfamily":0},{"id":"18240371071","owner":"9448211@N04","secret":"c276471563","server":"7788","farm":8,"title":"MacQueen's Bustard (Chlamydotis macqueenii)","ispublic":1,"isfriend":0,"isfamily":0},{"id":"17055293247","owner":"62877922@N08","secret":"db577ec042","server":"8796","farm":9,"title":"MacQueen's bustard (Chlamydotis macqueenii)","ispublic":1,"isfriend":0,"isfamily":0},{"id":"16297388132","owner":"100596317@N07","secret":"62a95ba6eb","server":"7533","farm":8,"title":"houbara","ispublic":1,"isfriend":0,"isfamily":0},{"id":"16202590032","owner":"77469100@N04","secret":"0d1f68e5bd","server":"7526","farm":8,"title":"Houbara-Bustard-Fuerteventura_w_1067","ispublic":1,"isfriend":0,"isfamily":0},{"id":"51207210384","owner":"30120110@N02","secret":"52990b511d","server":"65535","farm":66,"title":"MacQueen's bustard","ispublic":1,"isfriend":0,"isfamily":0},{"id":"50334694302","owner":"77469100@N04","secret":"e91db27afe","server":"65535","farm":66,"title":"Houbara-Bustard_at-sunset_w_1309","ispublic":1,"isfriend":0,"isfamily":0},{"id":"49964370228","owner":"131798845@N07","secret":"ed385dbc73","server":"65535","farm":66,"title":"Outarde de Macqueen (Chlamydotis macqueenii)","ispublic":1,"isfriend":0,"isfamily":0},{"id":"49906738938","owner":"137103568@N04","secret":"e79da42955","server":"65535","farm":66,"title":"MacQueen's Bustard (Chlamydotis macqueenii), reintroduced to region","ispublic":1,"isfriend":0,"isfamily":0},{"id":"48875478512","owner":"140288717@N05","secret":"00a5d5fdbc","server":"65535","farm":66,"title":"Chlamydotis Macqueenii","ispublic":1,"isfriend":0,"isfamily":0},{"id":"48760562178","owner":"131798845@N07","secret":"788cbb83f1","server":"65535","farm":66,"title":"Outarde de Mcqueen (Chlamydotis macqueenii)","ispublic":1,"isfriend":0,"isfamily":0},{"id":"48761065942","owner":"131798845@N07","secret":"00b2fa665c","server":"65535","farm":66,"title":"Outarde de Mcqueen (Chlamydotis macqueenii)","ispublic":1,"isfriend":0,"isfamily":0},{"id":"48250839397","owner":"59770980@N02","secret":"b46a936015","server":"65535","farm":66,"title":"Macqueen's Bustard-Chlamydotis macqueenii","ispublic":1,"isfriend":0,"isfamily":0},{"id":"48132774642","owner":"131798845@N07","secret":"1c21317c27","server":"65535","farm":66,"title":"Outarde de Macqueen (Chlamydotis macqueenii)","ispublic":1,"isfriend":0,"isfamily":0},{"id":"48132680526","owner":"131798845@N07","secret":"5f7870b572","server":"65535","farm":66,"title":"Outarde de Macqueen (Chlamydotis macqueenii)","ispublic":1,"isfriend":0,"isfamily":0},{"id":"48132773447","owner":"131798845@N07","secret":"e52e67366e","server":"65535","farm":66,"title":"Outarde de Macqueen (Chlamydotis macqueenii)","ispublic":1,"isfriend":0,"isfamily":0},{"id":"40850635163","owner":"140288717@N05","secret":"d5083e9858","server":"65535","farm":66,"title":"Chlamydotis Macqueenii","ispublic":1,"isfriend":0,"isfamily":0},{"id":"46606496695","owner":"140288717@N05","secret":"197e3d5c29","server":"7906","farm":8,"title":"Chlamydotis Macqueenii","ispublic":1,"isfriend":0,"isfamily":0},{"id":"47137379911","owner":"131798845@N07","secret":"981d7f8cdd","server":"7822","farm":8,"title":"Outarde de Macqueen (Chlamydotis macqueenii)","ispublic":1,"isfriend":0,"isfamily":0},{"id":"33123023738","owner":"131798845@N07","secret":"dbabfb776d","server":"4865","farm":5,"title":"Outarde de Macqueen (Chlamydotis macqueenii)","ispublic":1,"isfriend":0,"isfamily":0},{"id":"45977327564","owner":"77469100@N04","secret":"94dec7c6a4","server":"4803","farm":5,"title":"Houbara Bustard feeding_w_0018","ispublic":1,"isfriend":0,"isfamily":0},{"id":"45977324334","owner":"77469100@N04","secret":"a222e55956","server":"7812","farm":8,"title":"Houbara Bustard_w_0037","ispublic":1,"isfriend":0,"isfamily":0},{"id":"43980008812","owner":"149359845@N08","secret":"254f04db40","server":"1791","farm":2,"title":"Asian houbara, Chlamydotis macqueenii","ispublic":1,"isfriend":0,"isfamily":0},{"id":"28340510897","owner":"140288717@N05","secret":"a6c1008a25","server":"834","farm":1,"title":"Houbara Bustard - Houbarafund.org","ispublic":1,"isfriend":0,"isfamily":0},{"id":"41060335900","owner":"140288717@N05","secret":"6818424655","server":"1735","farm":2,"title":"Chlamydotis Macqueenii","ispublic":1,"isfriend":0,"isfamily":0},{"id":"39727725060","owner":"62877922@N08","secret":"1cb85dd492","server":"861","farm":1,"title":"MacQueen's Bustard (Chlamydotis macqueenii)","ispublic":1,"isfriend":0,"isfamily":0},{"id":"27095046288","owner":"49752603@N03","secret":"7fda3633e7","server":"790","farm":1,"title":"drop h\u0159\u00edvnat\u00fd","ispublic":1,"isfriend":0,"isfamily":0},{"id":"23793313798","owner":"61301322@N08","secret":"7f3196048b","server":"4467","farm":5,"title":"MacQueen's Bustard (Jardin des Plantes)","ispublic":1,"isfriend":0,"isfamily":0},{"id":"23793312808","owner":"61301322@N08","secret":"19347ce4c3","server":"4490","farm":5,"title":"MacQueen's Bustard (Jardin des Plantes)","ispublic":1,"isfriend":0,"isfamily":0},{"id":"23793312298","owner":"61301322@N08","secret":"f412bab89a","server":"4504","farm":5,"title":"MacQueen's Bustard (Jardin des Plantes)","ispublic":1,"isfriend":0,"isfamily":0},{"id":"37597467366","owner":"61301322@N08","secret":"d9c3b0d80c","server":"4454","farm":5,"title":"MacQueen's Bustard (Jardin des Plantes)","ispublic":1,"isfriend":0,"isfamily":0},{"id":"37595402822","owner":"61301322@N08","secret":"7ced49f6b2","server":"4452","farm":5,"title":"MacQueen's Bustard (Jardin des Plantes)","ispublic":1,"isfriend":0,"isfamily":0},{"id":"37368941140","owner":"61301322@N08","secret":"b5b02c6ecd","server":"4448","farm":5,"title":"MacQueen's Bustard (Jardin des Plantes)","ispublic":1,"isfriend":0,"isfamily":0},{"id":"36573432573","owner":"152353196@N03","secret":"75b8b69f27","server":"4412","farm":5,"title":"Chlamydotis Macqueenii - Houbarafund","ispublic":1,"isfriend":0,"isfamily":0},{"id":"31979581434","owner":"49224489@N05","secret":"d04dd28cc3","server":"2244","farm":3,"title":"Macqueen's Bustard - Chlamydotis macqueenii - Outarde de Macqueen","ispublic":1,"isfriend":0,"isfamily":0},{"id":"28451914504","owner":"39392208@N04","secret":"4ab4789331","server":"8864","farm":9,"title":"Macqueen\u2018s Bustard","ispublic":1,"isfriend":0,"isfamily":0},{"id":"28455070013","owner":"39392208@N04","secret":"30bf298e4c","server":"8131","farm":9,"title":"Macqueen\u2018s Bustard","ispublic":1,"isfriend":0,"isfamily":0},{"id":"28455067483","owner":"39392208@N04","secret":"f68b4cf695","server":"8552","farm":9,"title":"Macqueen\u2018s Bustard","ispublic":1,"isfriend":0,"isfamily":0},{"id":"28455065183","owner":"39392208@N04","secret":"6a7a785772","server":"8232","farm":9,"title":"Macqueen\u2018s Bustard","ispublic":1,"isfriend":0,"isfamily":0},{"id":"29072775885","owner":"39392208@N04","secret":"cac01a85ec","server":"7483","farm":8,"title":"Macqueen\u2018s Bustard","ispublic":1,"isfriend":0,"isfamily":0},{"id":"29072769645","owner":"39392208@N04","secret":"2ae149be81","server":"8206","farm":9,"title":"Macqueen\u2018s Bustard","ispublic":1,"isfriend":0,"isfamily":0},{"id":"28759405220","owner":"131087549@N04","secret":"511d98e965","server":"7783","farm":8,"title":"MacQueen's Bustard","ispublic":1,"isfriend":0,"isfamily":0},{"id":"27998145654","owner":"130714199@N04","secret":"f437935eec","server":"8015","farm":9,"title":"Chlamydotis macqueenii,","ispublic":1,"isfriend":0,"isfamily":0},{"id":"27927071024","owner":"39392208@N04","secret":"1a16c93a11","server":"8802","farm":9,"title":"MacQueen's Bustard","ispublic":1,"isfriend":0,"isfamily":0},{"id":"28466222871","owner":"39392208@N04","secret":"1f80a29b36","server":"8685","farm":9,"title":"MacQueen's Bustard","ispublic":1,"isfriend":0,"isfamily":0},{"id":"27928545793","owner":"39392208@N04","secret":"69c846c751","server":"8647","farm":9,"title":"MacQueen's Bustard","ispublic":1,"isfriend":0,"isfamily":0},{"id":"27281702356","owner":"67175584@N00","secret":"93a7d1b230","server":"7124","farm":8,"title":"MacQueen's bustards","ispublic":1,"isfriend":0,"isfamily":0},{"id":"26707630784","owner":"67175584@N00","secret":"e9e8b87d8f","server":"7749","farm":8,"title":"MacQueen's bustard","ispublic":1,"isfriend":0,"isfamily":0},{"id":"26707629404","owner":"67175584@N00","secret":"8f6556464d","server":"7152","farm":8,"title":"MacQueen's bustard","ispublic":1,"isfriend":0,"isfamily":0},{"id":"26707627924","owner":"67175584@N00","secret":"d13d8e6cf0","server":"7519","farm":8,"title":"MacQueen's bustard","ispublic":1,"isfriend":0,"isfamily":0},{"id":"26707626734","owner":"67175584@N00","secret":"1989046c25","server":"7310","farm":8,"title":"MacQueen's bustard","ispublic":1,"isfriend":0,"isfamily":0},{"id":"26708543053","owner":"67175584@N00","secret":"7db64f9523","server":"7409","farm":8,"title":"MacQueen's bustard","ispublic":1,"isfriend":0,"isfamily":0},{"id":"16770614300","owner":"77469100@N04","secret":"7609be57ed","server":"8708","farm":9,"title":"Houbara-Bustard-flight-Nov-15-Fuert_7446","ispublic":1,"isfriend":0,"isfamily":0},{"id":"16335705254","owner":"77469100@N04","secret":"5c99e87207","server":"8698","farm":9,"title":"Houbara-Bustard-Fuerteventura_w_7371","ispublic":1,"isfriend":0,"isfamily":0},{"id":"16958087955","owner":"77469100@N04","secret":"c88b4df846","server":"7612","farm":8,"title":"Houbara-Bustard-Fuerteventura-Spain_w_7367","ispublic":1,"isfriend":0,"isfamily":0},{"id":"16335676014","owner":"77469100@N04","secret":"ebcacb43ff","server":"8689","farm":9,"title":"Houbara-Bustard_0864","ispublic":1,"isfriend":0,"isfamily":0},{"id":"16112384297","owner":"100596317@N07","secret":"2a18dfce3f","server":"8633","farm":9,"title":"houbara","ispublic":1,"isfriend":0,"isfamily":0},{"id":"16112093969","owner":"100596317@N07","secret":"c36b865f81","server":"7486","farm":8,"title":"houbara","ispublic":1,"isfriend":0,"isfamily":0},{"id":"15996651841","owner":"77469100@N04","secret":"87d50c21a2","server":"7572","farm":8,"title":"Houbara-Bustard_1668","ispublic":1,"isfriend":0,"isfamily":0},{"id":"15379004753","owner":"77469100@N04","secret":"c84c0d7af8","server":"7576","farm":8,"title":"Houbara-Bustard-Fuert_0803","ispublic":1,"isfriend":0,"isfamily":0}]},"stat":"ok"}