{"photos":{"page":1,"pages":3,"perpage":100,"total":209,"photo":[{"id":"52566763885","owner":"183736567@N07","secret":"b79ba4257e","server":"65535","farm":66,"title":"Madagascar Fish Eagle (Haliaeetus vociferoides) perched scanning for fish.","ispublic":1,"isfriend":0,"isfamily":0},{"id":"52565082499","owner":"52799999@N06","secret":"20b46f6a9c","server":"65535","farm":66,"title":"Madagascar Fish Eagle (Haliaeetus vociferoides)","ispublic":1,"isfriend":0,"isfamily":0},{"id":"52564341347","owner":"52799999@N06","secret":"76d66bf486","server":"65535","farm":66,"title":"Madagascar Fish Eagle (Haliaeetus vociferoides)","ispublic":1,"isfriend":0,"isfamily":0},{"id":"52565081914","owner":"52799999@N06","secret":"184bceabc7","server":"65535","farm":66,"title":"Madagascar Fish Eagle (Haliaeetus vociferoides)","ispublic":1,"isfriend":0,"isfamily":0},{"id":"51924508448","owner":"157252682@N05","secret":"dea3211e47","server":"65535","farm":66,"title":"African Fish Eagle (Haliaeetus vocifer)","ispublic":1,"isfriend":0,"isfamily":0},{"id":"51617892577","owner":"157252682@N05","secret":"3df7ce72a3","server":"65535","farm":66,"title":"African Fish Eagle (Haliaeetus vocifer)","ispublic":1,"isfriend":0,"isfamily":0},{"id":"51405553189","owner":"11555596@N02","secret":"a2165399a7","server":"65535","farm":66,"title":"Raptors. African Fish Eagle. Kruger National Park. South Africa. Jul-Aug\/2021","ispublic":1,"isfriend":0,"isfamily":0},{"id":"51376557967","owner":"11555596@N02","secret":"dabc6a8bfa","server":"0","farm":0,"title":"Raptors. African Fish Eagle. Pilanesberg Game Reserve. South Africa. Jun\/2021","ispublic":1,"isfriend":0,"isfamily":0},{"id":"51367897960","owner":"11555596@N02","secret":"4932f7ce3c","server":"65535","farm":66,"title":"Raptors. African Fish Eagle. Pilanesberg Game Reserve. South Africa. Jun\/2021","ispublic":1,"isfriend":0,"isfamily":0},{"id":"51366127512","owner":"11555596@N02","secret":"8721dc0a3e","server":"65535","farm":66,"title":"Raptors. African Fish Eagle. Pilanesberg Game Reserve. South Africa. Jun\/2021","ispublic":1,"isfriend":0,"isfamily":0},{"id":"51194570202","owner":"157252682@N05","secret":"6a924b2e64","server":"65535","farm":66,"title":"African Fish Eagle (Haliaeetus vocifer)","ispublic":1,"isfriend":0,"isfamily":0},{"id":"51191235200","owner":"11555596@N02","secret":"51899b6ba3","server":"65535","farm":66,"title":"Raptors. African Fish Eagle. Kruger National Park. South Africa. May\/2021","ispublic":1,"isfriend":0,"isfamily":0},{"id":"51190384843","owner":"11555596@N02","secret":"5019dbd42c","server":"65535","farm":66,"title":"Raptors. African Fish Eagle. Kruger National Park. South Africa. May\/2021","ispublic":1,"isfriend":0,"isfamily":0},{"id":"51134129646","owner":"11555596@N02","secret":"39d0e49e61","server":"0","farm":0,"title":"Raptors. African Fish Eagle. Kruger National Park. South Africa. Mar\/2021","ispublic":1,"isfriend":0,"isfamily":0},{"id":"51121429957","owner":"11555596@N02","secret":"988d51fc98","server":"65535","farm":66,"title":"Raptors. African Fish Eagle. Kruger National Park. South Africa. Mar\/2021","ispublic":1,"isfriend":0,"isfamily":0},{"id":"51121999731","owner":"11555596@N02","secret":"814cc8642a","server":"65535","farm":66,"title":"Raptors. African Fish Eagle. Kruger National Park. South Africa. Mar\/2021","ispublic":1,"isfriend":0,"isfamily":0},{"id":"51121905093","owner":"11555596@N02","secret":"054aeedb04","server":"65535","farm":66,"title":"Raptors. African Fish Eagle. Kruger National Park. South Africa. Mar\/2021","ispublic":1,"isfriend":0,"isfamily":0},{"id":"51121999641","owner":"11555596@N02","secret":"072856bb78","server":"65535","farm":66,"title":"Raptors. African Fish Eagle. Kruger National Park. South Africa. Mar\/2021","ispublic":1,"isfriend":0,"isfamily":0},{"id":"51121744714","owner":"11555596@N02","secret":"b35fab9546","server":"65535","farm":66,"title":"Raptors. African Fish Eagle. Kruger National Park. South Africa. Mar\/2021","ispublic":1,"isfriend":0,"isfamily":0},{"id":"51121429752","owner":"11555596@N02","secret":"4d8205b215","server":"65535","farm":66,"title":"Raptors. African Fish Eagle. Kruger National Park. South Africa. Mar\/2021","ispublic":1,"isfriend":0,"isfamily":0},{"id":"51063438296","owner":"11555596@N02","secret":"51397c276f","server":"0","farm":0,"title":"Raptors. African Fish Eagle. Kruger National Park. South Africa. Dec\/2020-Jan\/2021","ispublic":1,"isfriend":0,"isfamily":0},{"id":"51015427203","owner":"47532811@N03","secret":"7d3999ceca","server":"65535","farm":66,"title":"great stamp Malagasy (Madagascar) 200 Fr. Madagascar sea-eagle (Haliaeetus vociferoides, Madagaskar-Seeadler, pigargo malgache, Pygargue de Madagascar, \u99ac\u9054\u52a0\u65af\u52a0\u6d77\u96d5, aquila pescatrice del Madagascar) selo sello Malagasy Madagascar timbre Briefmarken","ispublic":1,"isfriend":0,"isfamily":0},{"id":"51017717852","owner":"11555596@N02","secret":"672d1ce3bc","server":"65535","farm":66,"title":"Raptors. African Fish Eagle. Kruger National Park. South Africa. Dec\/2020-Jan\/2021","ispublic":1,"isfriend":0,"isfamily":0},{"id":"51017717762","owner":"11555596@N02","secret":"20d1cbf9e0","server":"65535","farm":66,"title":"Raptors. African Fish Eagle. Kruger National Park. South Africa. Dec\/2020-Jan\/2021","ispublic":1,"isfriend":0,"isfamily":0},{"id":"51016891723","owner":"11555596@N02","secret":"4f4d3a3d93","server":"65535","farm":66,"title":"Raptors. African Fish Eagle. Kruger National Park. South Africa. Dec\/2020-Jan\/2021","ispublic":1,"isfriend":0,"isfamily":0},{"id":"50890955547","owner":"11555596@N02","secret":"c39c3a0d36","server":"65535","farm":66,"title":"Raptors. African Fish Eagle. Marataba. Marakele National Park. South Africa. Dec\/2020","ispublic":1,"isfriend":0,"isfamily":0},{"id":"50890839551","owner":"11555596@N02","secret":"b882c91531","server":"65535","farm":66,"title":"Raptors. African Fish Eagle. Marataba. Marakele National Park. South Africa. Dec\/2020","ispublic":1,"isfriend":0,"isfamily":0},{"id":"50890955262","owner":"11555596@N02","secret":"a0f07a35f1","server":"65535","farm":66,"title":"Raptors. African Fish Eagle. Marataba. Marakele National Park. South Africa. Dec\/2020","ispublic":1,"isfriend":0,"isfamily":0},{"id":"50890955092","owner":"11555596@N02","secret":"3093ede336","server":"65535","farm":66,"title":"Raptors. African Fish Eagle. Marataba. Marakele National Park. South Africa. Dec\/2020","ispublic":1,"isfriend":0,"isfamily":0},{"id":"50890954632","owner":"11555596@N02","secret":"726d94a100","server":"65535","farm":66,"title":"Raptors. African Fish Eagle. Marataba. Marakele National Park. South Africa. Dec\/2020","ispublic":1,"isfriend":0,"isfamily":0},{"id":"50890838661","owner":"11555596@N02","secret":"af51445e59","server":"65535","farm":66,"title":"Raptors. African Fish Eagle. Marataba. Marakele National Park. South Africa. Dec\/2020","ispublic":1,"isfriend":0,"isfamily":0},{"id":"50890954342","owner":"11555596@N02","secret":"a77c55155e","server":"65535","farm":66,"title":"Raptors. African Fish Eagle. Marataba. Marakele National Park. South Africa. Dec\/2020","ispublic":1,"isfriend":0,"isfamily":0},{"id":"50556777127","owner":"11555596@N02","secret":"944dd4ddbc","server":"65535","farm":66,"title":"Raptors. African Fish Eagle. Kruger National Park. South Africa. Oct\/2020","ispublic":1,"isfriend":0,"isfamily":0},{"id":"50556776652","owner":"11555596@N02","secret":"7b73b576bd","server":"65535","farm":66,"title":"Raptors. African Fish Eagle. Kruger National Park. South Africa. Oct\/2020","ispublic":1,"isfriend":0,"isfamily":0},{"id":"50555909353","owner":"11555596@N02","secret":"bc71d230cb","server":"65535","farm":66,"title":"Raptors. African Fish Eagle. Kruger National Park. South Africa. Oct\/2020","ispublic":1,"isfriend":0,"isfamily":0},{"id":"50506976312","owner":"14573430@N08","secret":"dc436e5430","server":"65535","farm":66,"title":"Madagascar Fish Eagle","ispublic":1,"isfriend":0,"isfamily":0},{"id":"50045370181","owner":"11555596@N02","secret":"e05db23d18","server":"65535","farm":66,"title":"Raptors. African Fish Eagle. Kruger National Park. South Africa. Feb\/2020","ispublic":1,"isfriend":0,"isfamily":0},{"id":"50045370151","owner":"11555596@N02","secret":"d198ce16a7","server":"65535","farm":66,"title":"Raptors. African Fish Eagle. Kruger National Park. South Africa. Feb\/2020","ispublic":1,"isfriend":0,"isfamily":0},{"id":"49892331671","owner":"11555596@N02","secret":"4589cf1235","server":"65535","farm":66,"title":"Raptors. African Fish Eagle. Kruger National Park. South Africa. Jan\/2020","ispublic":1,"isfriend":0,"isfamily":0},{"id":"49892331151","owner":"11555596@N02","secret":"958f06d8d2","server":"65535","farm":66,"title":"Raptors. African Fish Eagle. Kruger National Park. South Africa. Jan\/2020","ispublic":1,"isfriend":0,"isfamily":0},{"id":"49877503442","owner":"133876835@N08","secret":"3a0c2526c0","server":"65535","farm":66,"title":"South Africa - Kruger National Park","ispublic":1,"isfriend":0,"isfamily":0},{"id":"49397065001","owner":"47388660@N02","secret":"2245e737e0","server":"65535","farm":66,"title":"Madagascar Fish Eagle","ispublic":1,"isfriend":0,"isfamily":0},{"id":"49397064941","owner":"47388660@N02","secret":"eec20d2c75","server":"65535","farm":66,"title":"Madagascar Fish Eagle","ispublic":1,"isfriend":0,"isfamily":0},{"id":"49397271727","owner":"47388660@N02","secret":"945c8f4eaa","server":"65535","farm":66,"title":"Madagascar Fish Eagle","ispublic":1,"isfriend":0,"isfamily":0},{"id":"49397064636","owner":"47388660@N02","secret":"68c96a9ef8","server":"65535","farm":66,"title":"Madagascar Fish Eagle","ispublic":1,"isfriend":0,"isfamily":0},{"id":"49397271342","owner":"47388660@N02","secret":"fc12bb3cb0","server":"65535","farm":66,"title":"Madagascar Fish Eagle","ispublic":1,"isfriend":0,"isfamily":0},{"id":"49267614743","owner":"11555596@N02","secret":"c9dea1c021","server":"65535","farm":66,"title":"Raptors. African Fish Eagle. Kruger National Park. South Africa. Oct\/2019","ispublic":1,"isfriend":0,"isfamily":0},{"id":"49267613663","owner":"11555596@N02","secret":"94bc2f2ec3","server":"65535","farm":66,"title":"Raptors. African Fish Eagle. Kruger National Park. South Africa. Oct\/2019","ispublic":1,"isfriend":0,"isfamily":0},{"id":"48882955848","owner":"146410270@N08","secret":"8cbea0a70c","server":"65535","farm":66,"title":"le Pygargue de Madagascar \/ Madgascar fish eagle","ispublic":1,"isfriend":0,"isfamily":0},{"id":"48556963027","owner":"11555596@N02","secret":"e37c697b9a","server":"65535","farm":66,"title":"African fish eagle. Pilanesberg Game Reserve. South Africa. Aug\/2019","ispublic":1,"isfriend":0,"isfamily":0},{"id":"48556958987","owner":"11555596@N02","secret":"7a4e35fcd2","server":"65535","farm":66,"title":"African fish eagle. Pilanesberg Game Reserve. South Africa. Aug\/2019","ispublic":1,"isfriend":0,"isfamily":0},{"id":"48341104992","owner":"78193635@N02","secret":"e10aaebdf1","server":"65535","farm":66,"title":"Eagle African Fish","ispublic":1,"isfriend":0,"isfamily":0},{"id":"40671805773","owner":"76879614@N07","secret":"615b4137a3","server":"65535","farm":66,"title":"African fish eagle \/ Schreiseeadler","ispublic":1,"isfriend":0,"isfamily":0},{"id":"46844093994","owner":"11555596@N02","secret":"4920542d8d","server":"7891","farm":8,"title":"African Fish Eagle. \u00c1guia Pescadora Africana. Kruger Park. South Africa. Jan\/2019","ispublic":1,"isfriend":0,"isfamily":0},{"id":"46538354495","owner":"22424380@N05","secret":"659b601d0a","server":"65535","farm":66,"title":"_DSC3874_DxO.jpg","ispublic":1,"isfriend":0,"isfamily":0},{"id":"32120841987","owner":"44096805@N07","secret":"43e96f0561","server":"7909","farm":8,"title":"Madagascar Fish-Eagle (Haliaeetus vociferoides), juvenile","ispublic":1,"isfriend":0,"isfamily":0},{"id":"32096206727","owner":"11555596@N02","secret":"467107e55b","server":"7911","farm":8,"title":"African Fish Eagle. Kruger Park. South Africa. Dec\/2018","ispublic":1,"isfriend":0,"isfamily":0},{"id":"46091134804","owner":"78193635@N02","secret":"76d5ffba8f","server":"4835","farm":5,"title":"Eagle African Fish","ispublic":1,"isfriend":0,"isfamily":0},{"id":"46763625042","owner":"78193635@N02","secret":"79d7c61921","server":"7804","farm":8,"title":"Eagle African Fish","ispublic":1,"isfriend":0,"isfamily":0},{"id":"46091132834","owner":"78193635@N02","secret":"a6c1418f55","server":"7826","farm":8,"title":"Eagle African Fish","ispublic":1,"isfriend":0,"isfamily":0},{"id":"39850874123","owner":"78193635@N02","secret":"35e5b59664","server":"4904","farm":5,"title":"Eagle African Fish","ispublic":1,"isfriend":0,"isfamily":0},{"id":"46091130344","owner":"78193635@N02","secret":"ea194814ea","server":"4866","farm":5,"title":"Eagle African Fish","ispublic":1,"isfriend":0,"isfamily":0},{"id":"31874687947","owner":"78193635@N02","secret":"1ffd66fd27","server":"7890","farm":8,"title":"Eagle African Fish","ispublic":1,"isfriend":0,"isfamily":0},{"id":"31874685947","owner":"78193635@N02","secret":"30460f9e0a","server":"4864","farm":5,"title":"Eagle African Fish","ispublic":1,"isfriend":0,"isfamily":0},{"id":"46091125724","owner":"78193635@N02","secret":"dff533922d","server":"7910","farm":8,"title":"Eagle African Fish","ispublic":1,"isfriend":0,"isfamily":0},{"id":"45901148865","owner":"78193635@N02","secret":"cb19730f18","server":"7861","farm":8,"title":"Eagle African Fish","ispublic":1,"isfriend":0,"isfamily":0},{"id":"31874673007","owner":"78193635@N02","secret":"e1056d82ca","server":"7890","farm":8,"title":"Eagle African Fish","ispublic":1,"isfriend":0,"isfamily":0},{"id":"46091123244","owner":"78193635@N02","secret":"3bb0770d0c","server":"4874","farm":5,"title":"Eagle African Fish","ispublic":1,"isfriend":0,"isfamily":0},{"id":"46091122114","owner":"78193635@N02","secret":"cb47cf77fe","server":"4822","farm":5,"title":"Eagle African Fish","ispublic":1,"isfriend":0,"isfamily":0},{"id":"51367622014","owner":"11555596@N02","secret":"3b0e5e5dae","server":"65535","farm":66,"title":"Raptors. African Fish Eagle. Pilanesberg Game Reserve. South Africa. Jun\/2021","ispublic":1,"isfriend":0,"isfamily":0},{"id":"51367897795","owner":"11555596@N02","secret":"f3878af1e8","server":"65535","farm":66,"title":"Raptors. African Fish Eagle. Pilanesberg Game Reserve. South Africa. Jun\/2021","ispublic":1,"isfriend":0,"isfamily":0},{"id":"51190384898","owner":"11555596@N02","secret":"fc05555b1b","server":"65535","farm":66,"title":"Raptors. African Fish Eagle. Kruger National Park. South Africa. May\/2021","ispublic":1,"isfriend":0,"isfamily":0},{"id":"51122792590","owner":"11555596@N02","secret":"9410a4b4c7","server":"65535","farm":66,"title":"Raptors. African Fish Eagle. Kruger National Park. South Africa. Mar\/2021","ispublic":1,"isfriend":0,"isfamily":0},{"id":"51121905018","owner":"11555596@N02","secret":"38cb5c2ff4","server":"65535","farm":66,"title":"Raptors. African Fish Eagle. Kruger National Park. South Africa. Mar\/2021","ispublic":1,"isfriend":0,"isfamily":0},{"id":"51016891833","owner":"11555596@N02","secret":"26683cdd8c","server":"65535","farm":66,"title":"Raptors. African Fish Eagle. Kruger National Park. South Africa. Dec\/2020-Jan\/2021","ispublic":1,"isfriend":0,"isfamily":0},{"id":"50676482323","owner":"11555596@N02","secret":"c32f574fc4","server":"65535","farm":66,"title":"African Fish Eagle. Kruger National Park. South Africa. Nov\/2020","ispublic":1,"isfriend":0,"isfamily":0},{"id":"50677308902","owner":"11555596@N02","secret":"d017641d42","server":"65535","farm":66,"title":"African Fish Eagle. Kruger National Park. South Africa. Nov\/2020","ispublic":1,"isfriend":0,"isfamily":0},{"id":"50556648156","owner":"11555596@N02","secret":"ca5cf9c4bb","server":"65535","farm":66,"title":"Raptors. African Fish Eagle. Kruger National Park. South Africa. Oct\/2020","ispublic":1,"isfriend":0,"isfamily":0},{"id":"50556648086","owner":"11555596@N02","secret":"fee6d2d8ae","server":"65535","farm":66,"title":"Raptors. African Fish Eagle. Kruger National Park. South Africa. Oct\/2020","ispublic":1,"isfriend":0,"isfamily":0},{"id":"50556776922","owner":"11555596@N02","secret":"36a74e4e1e","server":"65535","farm":66,"title":"Raptors. African Fish Eagle. Kruger National Park. South Africa. Oct\/2020","ispublic":1,"isfriend":0,"isfamily":0},{"id":"50556776807","owner":"11555596@N02","secret":"57ea424bfc","server":"65535","farm":66,"title":"Raptors. African Fish Eagle. Kruger National Park. South Africa. Oct\/2020","ispublic":1,"isfriend":0,"isfamily":0},{"id":"50555912633","owner":"11555596@N02","secret":"5e8db47914","server":"65535","farm":66,"title":"Raptors. African Fish Eagle. Kruger National Park. South Africa. Oct\/2020","ispublic":1,"isfriend":0,"isfamily":0},{"id":"50555912513","owner":"11555596@N02","secret":"95e9b86a96","server":"65535","farm":66,"title":"Raptors. African Fish Eagle. Kruger National Park. South Africa. Oct\/2020","ispublic":1,"isfriend":0,"isfamily":0},{"id":"50506811551","owner":"14573430@N08","secret":"65ee01a2c0","server":"65535","farm":66,"title":"Madagascar Fish Eagle","ispublic":1,"isfriend":0,"isfamily":0},{"id":"49397064826","owner":"47388660@N02","secret":"2404c8fe08","server":"65535","farm":66,"title":"Madagascar Fish Eagle","ispublic":1,"isfriend":0,"isfamily":0},{"id":"49397064781","owner":"47388660@N02","secret":"4e878906eb","server":"65535","farm":66,"title":"Madagascar Fish Eagle","ispublic":1,"isfriend":0,"isfamily":0},{"id":"49396584823","owner":"47388660@N02","secret":"08ceb21783","server":"65535","farm":66,"title":"Madagascar Fish Eagle","ispublic":1,"isfriend":0,"isfamily":0},{"id":"49396584738","owner":"47388660@N02","secret":"78bfa39908","server":"65535","farm":66,"title":"Madagascar Fish Eagle","ispublic":1,"isfriend":0,"isfamily":0},{"id":"49396584663","owner":"47388660@N02","secret":"f1fa8f4465","server":"65535","farm":66,"title":"Madagascar Fish Eagle","ispublic":1,"isfriend":0,"isfamily":0},{"id":"49396584498","owner":"47388660@N02","secret":"7e793415a7","server":"65535","farm":66,"title":"Madagascar Fish Eagle","ispublic":1,"isfriend":0,"isfamily":0},{"id":"49268072891","owner":"11555596@N02","secret":"726cb97e5d","server":"65535","farm":66,"title":"Raptors. African Fish Eagle. Kruger National Park. South Africa. Oct\/2019","ispublic":1,"isfriend":0,"isfamily":0},{"id":"49267610683","owner":"11555596@N02","secret":"0cd9a24681","server":"65535","farm":66,"title":"Raptors. African Fish Eagle. Kruger National Park. South Africa. Oct\/2019","ispublic":1,"isfriend":0,"isfamily":0},{"id":"49267609893","owner":"11555596@N02","secret":"664f71b7a6","server":"65535","farm":66,"title":"Raptors. African Fish Eagle. Kruger National Park. South Africa. Oct\/2019","ispublic":1,"isfriend":0,"isfamily":0},{"id":"49267606998","owner":"11555596@N02","secret":"e4f905526a","server":"65535","farm":66,"title":"Raptors. African Fish Eagle. Kruger National Park. South Africa. Oct\/2019","ispublic":1,"isfriend":0,"isfamily":0},{"id":"46844094534","owner":"11555596@N02","secret":"2636b5a319","server":"7842","farm":8,"title":"African Fish Eagle. \u00c1guia Pescadora Africana. Kruger Park. South Africa. Jan\/2019","ispublic":1,"isfriend":0,"isfamily":0},{"id":"46652489435","owner":"11555596@N02","secret":"c41fe9a0e7","server":"7916","farm":8,"title":"African Fish Eagle. \u00c1guia Pescadora Africana. Kruger Park. South Africa. Jan\/2019","ispublic":1,"isfriend":0,"isfamily":0},{"id":"46652488655","owner":"11555596@N02","secret":"782da1b4ea","server":"7803","farm":8,"title":"African Fish Eagle. \u00c1guia Pescadora Africana. Kruger Park. South Africa. Jan\/2019","ispublic":1,"isfriend":0,"isfamily":0},{"id":"46985822422","owner":"11555596@N02","secret":"9701478871","server":"7854","farm":8,"title":"African Fish Eagle. Kruger Park. South Africa. Dec\/2018","ispublic":1,"isfriend":0,"isfamily":0},{"id":"46985817922","owner":"11555596@N02","secret":"29672905b7","server":"7861","farm":8,"title":"African Fish Eagle. Kruger Park. South Africa. Dec\/2018","ispublic":1,"isfriend":0,"isfamily":0},{"id":"45901154845","owner":"78193635@N02","secret":"5d799000ca","server":"7823","farm":8,"title":"Eagle African Fish","ispublic":1,"isfriend":0,"isfamily":0}]},"stat":"ok"}