{"photos":{"page":1,"pages":21,"perpage":100,"total":2028,"photo":[{"id":"52628724936","owner":"196786375@N03","secret":"abc384eae4","server":"65535","farm":66,"title":"Juvenile Magnolia","ispublic":1,"isfriend":0,"isfamily":0},{"id":"52627847400","owner":"196786375@N03","secret":"35699b21df","server":"65535","farm":66,"title":"Magnolia Warbler","ispublic":1,"isfriend":0,"isfamily":0},{"id":"52627411731","owner":"196786375@N03","secret":"25d87c1969","server":"65535","farm":66,"title":"Magnolia Warbler","ispublic":1,"isfriend":0,"isfamily":0},{"id":"52594874253","owner":"34689777@N08","secret":"426455677a","server":"65535","farm":66,"title":"Magnolia Warbler (Setophaga magnolia) male.  Melrose Woods aka \"Melrose trap\".  Roosevelt Co. New Mexico, USA.","ispublic":1,"isfriend":0,"isfamily":0},{"id":"52579954202","owner":"153973412@N04","secret":"13e35b4d66","server":"65535","farm":66,"title":"Magnolia Warbler-Setophaga magnolia, Iowa City, IA","ispublic":1,"isfriend":0,"isfamily":0},{"id":"52551260633","owner":"30979614@N07","secret":"f078e8f40a","server":"65535","farm":66,"title":"2022-05-13 Montrose Point 4","ispublic":1,"isfriend":0,"isfamily":0},{"id":"52551010899","owner":"30979614@N07","secret":"2e43aee5db","server":"65535","farm":66,"title":"2022-05-13 Montrose Point 3","ispublic":1,"isfriend":0,"isfamily":0},{"id":"52537086343","owner":"10336659@N04","secret":"2a20f27a9b","server":"65535","farm":66,"title":"Magnolia Warbler Setophaga magnolia at Wakodahatchee Wetlands.","ispublic":1,"isfriend":0,"isfamily":0},{"id":"52533185460","owner":"33610210@N05","secret":"1f3a1ec555","server":"65535","farm":66,"title":"Magnolia Warbler, Setophaga magnolia","ispublic":1,"isfriend":0,"isfamily":0},{"id":"52532993599","owner":"33610210@N05","secret":"9e9be35669","server":"65535","farm":66,"title":"Magnolia Warbler, Setophaga magnolia","ispublic":1,"isfriend":0,"isfamily":0},{"id":"52533252848","owner":"33610210@N05","secret":"c4d015cc79","server":"65535","farm":66,"title":"Magnolia Warbler, Setophaga magnolia","ispublic":1,"isfriend":0,"isfamily":0},{"id":"52532713246","owner":"33610210@N05","secret":"0bfff94741","server":"65535","farm":66,"title":"Magnolia Warbler, Setophaga magnolia","ispublic":1,"isfriend":0,"isfamily":0},{"id":"52524852501","owner":"76288515@N07","secret":"3cf0e9a02b","server":"65535","farm":66,"title":"Magnolia Warbler Setophaga magnolia","ispublic":1,"isfriend":0,"isfamily":0},{"id":"52491820340","owner":"39445433@N02","secret":"278f3e7cf2","server":"65535","farm":66,"title":"Magnolia Warbler","ispublic":1,"isfriend":0,"isfamily":0},{"id":"52396240532","owner":"49114357@N08","secret":"39569abfa3","server":"65535","farm":66,"title":"Magnolia Warbler","ispublic":1,"isfriend":0,"isfamily":0},{"id":"52431870253","owner":"190122705@N03","secret":"645841d7a2","server":"65535","farm":66,"title":"Common Yellowthroat","ispublic":1,"isfriend":0,"isfamily":0},{"id":"52430802467","owner":"190122705@N03","secret":"df531d3e64","server":"65535","farm":66,"title":"Magnolia Warbler","ispublic":1,"isfriend":0,"isfamily":0},{"id":"52420758490","owner":"129051288@N05","secret":"835d69d88e","server":"65535","farm":66,"title":"Paruline \u00e0 t\u00eate cendr\u00e9e, Setophaga magnolia, Magnolia Warbler","ispublic":1,"isfriend":0,"isfamily":0},{"id":"52404431663","owner":"49114357@N08","secret":"c47c45065f","server":"65535","farm":66,"title":"Magnolia Warbler","ispublic":1,"isfriend":0,"isfamily":0},{"id":"52397199684","owner":"70839498@N04","secret":"89f977a0d8","server":"65535","farm":66,"title":"Setophaga magnolia Magnolia Warbler NY SEP 220929 3H3A6058","ispublic":1,"isfriend":0,"isfamily":0},{"id":"52392629303","owner":"45340210@N05","secret":"727d0cae0e","server":"65535","farm":66,"title":"Magnolia Warbler With Prey 9_28_22","ispublic":1,"isfriend":0,"isfamily":0},{"id":"52390035377","owner":"45340210@N05","secret":"70be3c6f67","server":"65535","farm":66,"title":"Magnolia Warbler 1 9_28_22","ispublic":1,"isfriend":0,"isfamily":0},{"id":"52384735989","owner":"128537732@N06","secret":"21a57c3c8a","server":"65535","farm":66,"title":"Magnolia Warbler (Setophaga magnolia)","ispublic":1,"isfriend":0,"isfamily":0},{"id":"52381692826","owner":"128537732@N06","secret":"f9be2fdd4c","server":"65535","farm":66,"title":"Magnolia Warbler (Setophaga magnolia)","ispublic":1,"isfriend":0,"isfamily":0},{"id":"52378051535","owner":"190122705@N03","secret":"c5255ece98","server":"65535","farm":66,"title":"Magnolia Warbler","ispublic":1,"isfriend":0,"isfamily":0},{"id":"52374107422","owner":"188156748@N07","secret":"4f66f07b40","server":"65535","farm":66,"title":"Magnolia Warbler - Paruline \u00e0 t\u00eate cendr\u00e9e (Setophaga magnolia)  7347 (7)-SharpenAI-Standard copy.jpgS","ispublic":1,"isfriend":0,"isfamily":0},{"id":"52375278118","owner":"188156748@N07","secret":"7a40c9e7a6","server":"65535","farm":66,"title":"Magnolia Warbler - Paruline \u00e0 t\u00eate cendr\u00e9e (Setophaga magnolia)  7347 (8)-SharpenAI-Standard copy.jpgS","ispublic":1,"isfriend":0,"isfamily":0},{"id":"52375054621","owner":"188156748@N07","secret":"8e8b66fbdd","server":"65535","farm":66,"title":"Magnolia Warbler - Paruline \u00e0 t\u00eate cendr\u00e9e (Setophaga magnolia)  7347 (9)-SharpenAI-Standard copy.jpgS","ispublic":1,"isfriend":0,"isfamily":0},{"id":"52375470675","owner":"188156748@N07","secret":"b090635524","server":"65535","farm":66,"title":"Magnolia Warbler - Paruline \u00e0 t\u00eate cendr\u00e9e (Setophaga magnolia)  7347 (10)-SharpenAI-Standard copy.jpgS","ispublic":1,"isfriend":0,"isfamily":0},{"id":"52375470580","owner":"188156748@N07","secret":"250cf1d3ac","server":"65535","farm":66,"title":"Magnolia Warbler - Paruline \u00e0 t\u00eate cendr\u00e9e (Setophaga magnolia)  7347 (11)-SharpenAI-Standard copy.jpgS","ispublic":1,"isfriend":0,"isfamily":0},{"id":"52374106917","owner":"188156748@N07","secret":"50b4f57835","server":"65535","farm":66,"title":"Magnolia Warbler - Paruline \u00e0 t\u00eate cendr\u00e9e (Setophaga magnolia)  7347 (12)-SharpenAI-Standard copy.jpgS","ispublic":1,"isfriend":0,"isfamily":0},{"id":"52375054251","owner":"188156748@N07","secret":"788bd9c12f","server":"65535","farm":66,"title":"Magnolia Warbler - Paruline \u00e0 t\u00eate cendr\u00e9e (Setophaga magnolia)  7347 (13)-SharpenAI-Standard copy.jpgS","ispublic":1,"isfriend":0,"isfamily":0},{"id":"52375054146","owner":"188156748@N07","secret":"90dcddd62f","server":"65535","farm":66,"title":"Magnolia Warbler - Paruline \u00e0 t\u00eate cendr\u00e9e (Setophaga magnolia)  7347 (14)-SharpenAI-Standard copy.jpgS","ispublic":1,"isfriend":0,"isfamily":0},{"id":"52374106682","owner":"188156748@N07","secret":"79070762c2","server":"65535","farm":66,"title":"Magnolia Warbler - Paruline \u00e0 t\u00eate cendr\u00e9e (Setophaga magnolia)  7347 (15)-SharpenAI-Standard copy.jpgS","ispublic":1,"isfriend":0,"isfamily":0},{"id":"52370385014","owner":"90886369@N06","secret":"8a5fe6a27d","server":"65535","farm":66,"title":"Magnolia Warbler (Setophaga magnolia)","ispublic":1,"isfriend":0,"isfamily":0},{"id":"52366684337","owner":"39445433@N02","secret":"0e78fc3ca4","server":"65535","farm":66,"title":"Magnolia Warbler","ispublic":1,"isfriend":0,"isfamily":0},{"id":"52367858268","owner":"39445433@N02","secret":"43b10f335f","server":"65535","farm":66,"title":"Magnolia Warbler","ispublic":1,"isfriend":0,"isfamily":0},{"id":"52366263705","owner":"44034115@N08","secret":"d35aa68b71","server":"65535","farm":66,"title":"Magnolia Warbler Ready to Warble","ispublic":1,"isfriend":0,"isfamily":0},{"id":"52364657121","owner":"145466593@N08","secret":"c5be6619ee","server":"65535","farm":66,"title":"Magnolia Warbler  (immature)","ispublic":1,"isfriend":0,"isfamily":0},{"id":"52355195128","owner":"188156748@N07","secret":"10208586d1","server":"65535","farm":66,"title":"Magnolia Warbler  -Paruline \u00e0 t\u00eate cendr\u00e9e 5814 (1)-SharpenAI-Standard copy.jpgS","ispublic":1,"isfriend":0,"isfamily":0},{"id":"52354956181","owner":"188156748@N07","secret":"121dcf8d66","server":"65535","farm":66,"title":"Magnolia Warbler  -Paruline \u00e0 t\u00eate cendr\u00e9e 5814 (3)-SharpenAI-Standard copy.jpgS","ispublic":1,"isfriend":0,"isfamily":0},{"id":"52348117055","owner":"48014585@N00","secret":"1bcef4a508","server":"65535","farm":66,"title":"Magnolia Warbler","ispublic":1,"isfriend":0,"isfamily":0},{"id":"52347938283","owner":"48014585@N00","secret":"705e78bfd0","server":"65535","farm":66,"title":"Magnolia Warbler","ispublic":1,"isfriend":0,"isfamily":0},{"id":"52340424902","owner":"18739614@N00","secret":"55869fafd8","server":"65535","farm":66,"title":"HeronPark20220907-4","ispublic":1,"isfriend":0,"isfamily":0},{"id":"52341387111","owner":"18739614@N00","secret":"db3ac2e3fc","server":"65535","farm":66,"title":"Magnolia Warbler","ispublic":1,"isfriend":0,"isfamily":0},{"id":"52334260391","owner":"162163713@N06","secret":"700f1fd0fb","server":"65535","farm":66,"title":"Paruline \u00e0 t\u00eate cendr\u00e9e - Setophaga magnolia - Magnolia Warbler","ispublic":1,"isfriend":0,"isfamily":0},{"id":"52314697183","owner":"129051288@N05","secret":"4ce61207bc","server":"65535","farm":66,"title":"Paruline \u00e0 t\u00eate cendr\u00e9e, Setophaga magnolia, Magnolia Warbler","ispublic":1,"isfriend":0,"isfamily":0},{"id":"52303888811","owner":"165841515@N03","secret":"df13cbd806","server":"65535","farm":66,"title":"Paruline \u00e0 t\u00eate cendr\u00e9e \/ Magnolia Warbler \/ (Setophaga magnolia)","ispublic":1,"isfriend":0,"isfamily":0},{"id":"52300880328","owner":"129051288@N05","secret":"90622503e8","server":"65535","farm":66,"title":"Paruline \u00e0 t\u00eate cendr\u00e9e, Setophaga magnolia, Magnolia Warbler","ispublic":1,"isfriend":0,"isfamily":0},{"id":"52298213027","owner":"124995824@N08","secret":"34301b8811","server":"65535","farm":66,"title":"Magnolia Warbler - Setophaga magnolia","ispublic":1,"isfriend":0,"isfamily":0},{"id":"52294881226","owner":"165841515@N03","secret":"89a0d1b9b8","server":"65535","farm":66,"title":"Paruline \u00e0 t\u00eate cendr\u00e9e \/ Magnolia Warbler \/ (Setophaga magnolia)","ispublic":1,"isfriend":0,"isfamily":0},{"id":"52294879813","owner":"165841515@N03","secret":"c6546cb603","server":"65535","farm":66,"title":"Paruline \u00e0 t\u00eate cendr\u00e9e \/ Magnolia Warbler \/ (Setophaga magnolia)","ispublic":1,"isfriend":0,"isfamily":0},{"id":"52213721724","owner":"14734088@N02","secret":"ef4a86119e","server":"65535","farm":66,"title":"Paruline \u00e0 t\u00eate cendr\u00e9e 220622V","ispublic":1,"isfriend":0,"isfamily":0},{"id":"52207517576","owner":"184155060@N04","secret":"eb9a6eef3a","server":"65535","farm":66,"title":"32793 Paruline \u00e0 t\u00eate cendr\u00e9e \/ Setophaga magnolia \/ Magnolia Warbler","ispublic":1,"isfriend":0,"isfamily":0},{"id":"52207517571","owner":"184155060@N04","secret":"e93931cd2a","server":"65535","farm":66,"title":"32793 Paruline \u00e0 t\u00eate cendr\u00e9e \/ Setophaga magnolia \/ Magnolia Warbler","ispublic":1,"isfriend":0,"isfamily":0},{"id":"52179252141","owner":"92361032@N05","secret":"68480ba918","server":"65535","farm":66,"title":"Magnolia Warbler \/ Paruline \u00e0 t\u00eate cendr\u00e9e ( Richard )","ispublic":1,"isfriend":0,"isfamily":0},{"id":"52176549413","owner":"137364640@N08","secret":"8f1e0f344b","server":"65535","farm":66,"title":"Magnolia Warbler","ispublic":1,"isfriend":0,"isfamily":0},{"id":"52176273303","owner":"120449047@N06","secret":"dd6ca36ace","server":"65535","farm":66,"title":"Magnolia Warbler (31\/35)","ispublic":1,"isfriend":0,"isfamily":0},{"id":"52170818759","owner":"95484108@N07","secret":"6b3fa3867a","server":"65535","farm":66,"title":"Paruline \u00e0 t\u00eate cendr\u00e9e \/\/ Magnolia Warbler","ispublic":1,"isfriend":0,"isfamily":0},{"id":"52161205238","owner":"23711298@N07","secret":"04cc0784f8","server":"65535","farm":66,"title":"Magnolia Warbler, Minnesota, New Brighton","ispublic":1,"isfriend":0,"isfamily":0},{"id":"52156282583","owner":"151361315@N06","secret":"9212babb00","server":"65535","farm":66,"title":"Magnolia Warbler breeding male poses on sapling \u2022 Fair Haven, NY \u2022 2022","ispublic":1,"isfriend":0,"isfamily":0},{"id":"52154657304","owner":"195506649@N05","secret":"871c53df25","server":"65535","farm":66,"title":"Setophaga magnolia J","ispublic":1,"isfriend":0,"isfamily":0},{"id":"52153406457","owner":"195506649@N05","secret":"da4c0c4b53","server":"65535","farm":66,"title":"Setophaga magnolia","ispublic":1,"isfriend":0,"isfamily":0},{"id":"52152922493","owner":"39177293@N03","secret":"84fdb79efd","server":"65535","farm":66,"title":"Magnolia Warbler","ispublic":1,"isfriend":0,"isfamily":0},{"id":"52152922478","owner":"39177293@N03","secret":"2f66e2d4a2","server":"65535","farm":66,"title":"Magnolia Warbler","ispublic":1,"isfriend":0,"isfamily":0},{"id":"52153332520","owner":"91064752@N03","secret":"8a8e9b31b4","server":"65535","farm":66,"title":"Magnolia Warbler","ispublic":1,"isfriend":0,"isfamily":0},{"id":"52139484276","owner":"126805965@N03","secret":"7aba0fabf2","server":"65535","farm":66,"title":"Magnolia Warbler (Setophaga magnolia) - Terra Nova National Park, NFLD","ispublic":1,"isfriend":0,"isfamily":0},{"id":"52136878656","owner":"32599741@N03","secret":"76ec2d1cbc","server":"65535","farm":66,"title":"2022 - Day 116:  making up its mind","ispublic":1,"isfriend":0,"isfamily":0},{"id":"52135823350","owner":"42264328@N00","secret":"2cc2506857","server":"65535","farm":66,"title":"More Magee birds","ispublic":1,"isfriend":0,"isfamily":0},{"id":"52134752185","owner":"62445008@N00","secret":"6a2a1f8ec1","server":"65535","farm":66,"title":"Magnolia Warbler (Setophaga magnolia)","ispublic":1,"isfriend":0,"isfamily":0},{"id":"52125723336","owner":"99064639@N07","secret":"bcd22258c3","server":"65535","farm":66,"title":"MAWA_TGP_GG_FBM_9531","ispublic":1,"isfriend":0,"isfamily":0},{"id":"52124683652","owner":"44801995@N02","secret":"e397456e8e","server":"65535","farm":66,"title":"Magnolia Warbler Setophaga magnolia","ispublic":1,"isfriend":0,"isfamily":0},{"id":"52125893924","owner":"99064639@N07","secret":"0f5937981d","server":"65535","farm":66,"title":"MAWA_TGP_GG_FBM_9521","ispublic":1,"isfriend":0,"isfamily":0},{"id":"52589702375","owner":"137364640@N08","secret":"dff97da76e","server":"65535","farm":66,"title":"Magnolia Warbler","ispublic":1,"isfriend":0,"isfamily":0},{"id":"52588788377","owner":"137364640@N08","secret":"e9559fb9bb","server":"65535","farm":66,"title":"Magnolia Warbler","ispublic":1,"isfriend":0,"isfamily":0},{"id":"52525132444","owner":"76288515@N07","secret":"c62dd1aeb8","server":"65535","farm":66,"title":"Magnolia Warbler Setophaga magnolia","ispublic":1,"isfriend":0,"isfamily":0},{"id":"52525132374","owner":"76288515@N07","secret":"99b35a330b","server":"65535","farm":66,"title":"Magnolia Warbler Setophaga magnolia","ispublic":1,"isfriend":0,"isfamily":0},{"id":"52525404203","owner":"76288515@N07","secret":"f0e15cd46d","server":"65535","farm":66,"title":"Magnolia Warbler Setophaga magnolia","ispublic":1,"isfriend":0,"isfamily":0},{"id":"52525404153","owner":"76288515@N07","secret":"fed7143737","server":"65535","farm":66,"title":"Magnolia Warbler Setophaga magnolia","ispublic":1,"isfriend":0,"isfamily":0},{"id":"52524852331","owner":"76288515@N07","secret":"3aced2a0ca","server":"65535","farm":66,"title":"Magnolia Warbler Setophaga magnolia","ispublic":1,"isfriend":0,"isfamily":0},{"id":"52524852306","owner":"76288515@N07","secret":"5bc4e410bc","server":"65535","farm":66,"title":"Magnolia Warbler Setophaga magnolia","ispublic":1,"isfriend":0,"isfamily":0},{"id":"52525132194","owner":"76288515@N07","secret":"2c021f35e6","server":"65535","farm":66,"title":"Magnolia Warbler Setophaga magnolia","ispublic":1,"isfriend":0,"isfamily":0},{"id":"52525132149","owner":"76288515@N07","secret":"b4eaa51ef4","server":"65535","farm":66,"title":"Magnolia Warbler Setophaga magnolia","ispublic":1,"isfriend":0,"isfamily":0},{"id":"52446412316","owner":"67306066@N03","secret":"a02bf69362","server":"65535","farm":66,"title":"Magnolia Warbler (Setophaga magnolia)","ispublic":1,"isfriend":0,"isfamily":0},{"id":"52446851260","owner":"67306066@N03","secret":"e4a8546777","server":"65535","farm":66,"title":"Magnolia Warbler (Setophaga magnolia)","ispublic":1,"isfriend":0,"isfamily":0},{"id":"52427772271","owner":"140318147@N08","secret":"8736a0a35c","server":"65535","farm":66,"title":"magnolia warbler (Setophaga magnolia) L4A4756","ispublic":1,"isfriend":0,"isfamily":0},{"id":"52423288582","owner":"140318147@N08","secret":"c424e859c1","server":"65535","farm":66,"title":"magnolia warbler (Setophaga magnolia) L4A4474","ispublic":1,"isfriend":0,"isfamily":0},{"id":"52393653041","owner":"128537732@N06","secret":"9f4c144a70","server":"65535","farm":66,"title":"Magnolia Warbler (Setophaga magnolia)","ispublic":1,"isfriend":0,"isfamily":0},{"id":"52340425107","owner":"18739614@N00","secret":"5d68aa61e5","server":"65535","farm":66,"title":"Magnolia Warbler","ispublic":1,"isfriend":0,"isfamily":0},{"id":"52341688284","owner":"18739614@N00","secret":"3443db27ea","server":"65535","farm":66,"title":"Magnolia Warbler","ispublic":1,"isfriend":0,"isfamily":0},{"id":"52235107264","owner":"44801995@N02","secret":"72b080320f","server":"65535","farm":66,"title":"Magnolia Warbler Setophaga magnolia","ispublic":1,"isfriend":0,"isfamily":0},{"id":"52175520847","owner":"137364640@N08","secret":"1ea3254957","server":"65535","farm":66,"title":"Magnolia Warbler","ispublic":1,"isfriend":0,"isfamily":0},{"id":"52155256542","owner":"151361315@N06","secret":"d78018dcdb","server":"65535","farm":66,"title":"Magnolia Warbler breeding male close up on budding sapling chasing bug with wings raised \u2022 Fair Haven, NY \u2022 2022","ispublic":1,"isfriend":0,"isfamily":0},{"id":"52154607061","owner":"44801995@N02","secret":"f0197dfd26","server":"65535","farm":66,"title":"Magnolia Warbler Setophaga magnolia","ispublic":1,"isfriend":0,"isfamily":0},{"id":"52153412020","owner":"39177293@N03","secret":"3ea189ea32","server":"65535","farm":66,"title":"Magnolia Warbler","ispublic":1,"isfriend":0,"isfamily":0},{"id":"52141209529","owner":"57465751@N05","secret":"95f6de9e5d","server":"65535","farm":66,"title":"Magnolia Warbler (Setophaga magnolia), Oveido, Dominican Republic","ispublic":1,"isfriend":0,"isfamily":0},{"id":"52134280493","owner":"62445008@N00","secret":"65a0f3aaf8","server":"65535","farm":66,"title":"Magnolia Warbler (Setophaga magnolia)","ispublic":1,"isfriend":0,"isfamily":0},{"id":"52134240236","owner":"62445008@N00","secret":"76ce120108","server":"65535","farm":66,"title":"Magnolia Warbler (Setophaga magnolia)","ispublic":1,"isfriend":0,"isfamily":0},{"id":"52125734948","owner":"44801995@N02","secret":"5a934382dc","server":"65535","farm":66,"title":"Magnolia Warbler Setophaga magnolia","ispublic":1,"isfriend":0,"isfamily":0},{"id":"52110845609","owner":"132508209@N08","secret":"0bbf9f4236","server":"65535","farm":66,"title":"Magnolia Warbler (Setophaga magnolia)","ispublic":1,"isfriend":0,"isfamily":0}]},"stat":"ok"}