{"photos":{"page":1,"pages":3,"perpage":100,"total":255,"photo":[{"id":"52564098510","owner":"52799999@N06","secret":"d8cfff4d3c","server":"65535","farm":66,"title":"Malagasy Bulbul (Hypsipetes madagascariensis)","ispublic":1,"isfriend":0,"isfamily":0},{"id":"51787660798","owner":"27480477@N07","secret":"3bfcb9bc11","server":"65535","farm":66,"title":"DSC00971 Madagascar Bulbul, Hypsipetes madagascariensis.","ispublic":1,"isfriend":0,"isfamily":0},{"id":"51154448160","owner":"65248953@N00","secret":"06a88cb86b","server":"65535","farm":66,"title":"Malagasy BulbulHypsipetes madagascariensis","ispublic":1,"isfriend":0,"isfamily":0},{"id":"50791300598","owner":"83757993@N00","secret":"b12bbc0928","server":"65535","farm":66,"title":"Malagasy Bulbul","ispublic":1,"isfriend":0,"isfamily":0},{"id":"50791299448","owner":"83757993@N00","secret":"1d360d2271","server":"65535","farm":66,"title":"Malagasy Bulbul","ispublic":1,"isfriend":0,"isfamily":0},{"id":"49397300832","owner":"47388660@N02","secret":"be3a2b18eb","server":"65535","farm":66,"title":"Madagascar Bulbul","ispublic":1,"isfriend":0,"isfamily":0},{"id":"49397290812","owner":"47388660@N02","secret":"65f9dca569","server":"65535","farm":66,"title":"Madagascar Bulbul","ispublic":1,"isfriend":0,"isfamily":0},{"id":"48375912446","owner":"44096805@N07","secret":"79f47234e5","server":"65535","farm":66,"title":"Madagascar Bulbul (Hypsipetes madagascariensis)","ispublic":1,"isfriend":0,"isfamily":0},{"id":"47976623477","owner":"148045557@N06","secret":"f96401ba77","server":"65535","farm":66,"title":"White-headed bulbul \u00a9twe2012\u263c","ispublic":1,"isfriend":0,"isfamily":0},{"id":"46963549115","owner":"83287919@N00","secret":"ee520df03f","server":"65535","farm":66,"title":"Hypsipetes madagascariensis Naturalia lodge 300419 AV-83rc","ispublic":1,"isfriend":0,"isfamily":0},{"id":"45584085485","owner":"28092414@N03","secret":"9c1864fc8c","server":"7854","farm":8,"title":"Madagascar Bulbul at Ifaty IMG_8787","ispublic":1,"isfriend":0,"isfamily":0},{"id":"32624434348","owner":"28092414@N03","secret":"b4910d225a","server":"7828","farm":8,"title":"Madagascar Bulbul at Ifaty IMG_8790","ispublic":1,"isfriend":0,"isfamily":0},{"id":"46458182211","owner":"28092414@N03","secret":"e9d85f2eee","server":"7872","farm":8,"title":"Madagascar Bulbul at Isalo National Park  IMG_8462","ispublic":1,"isfriend":0,"isfamily":0},{"id":"46362023461","owner":"90764954@N07","secret":"8c8c693d37","server":"4883","farm":5,"title":"Malagasy bulbul (Hypsipetes madagascariensis) \u9ed1\u77ed\u811a\u9e4e","ispublic":1,"isfriend":0,"isfamily":0},{"id":"46010193842","owner":"44614344@N07","secret":"2bed6dfe8c","server":"4836","farm":5,"title":"Madagascar Bulbul","ispublic":1,"isfriend":0,"isfamily":0},{"id":"46010188372","owner":"44614344@N07","secret":"8f5f3fc9ba","server":"4910","farm":5,"title":"Madagascar Bulbul","ispublic":1,"isfriend":0,"isfamily":0},{"id":"31073273697","owner":"27480477@N07","secret":"9870c8cfc8","server":"4868","farm":5,"title":"DSC01517 Madagascar Bulbul, Hypsipetes madagascariensis.","ispublic":1,"isfriend":0,"isfamily":0},{"id":"45910988271","owner":"121253091@N02","secret":"10243c68e6","server":"4880","farm":5,"title":"DSC0194 Bulbul Malgache (Hypsipetes madagascariensis) en el Parque Nacional de Andasibe-Mantadia, Madagascar","ispublic":1,"isfriend":0,"isfamily":0},{"id":"45186875904","owner":"121253091@N02","secret":"4df5ce902f","server":"4841","farm":5,"title":"DSC9790 Bulbul Malgache (Hypsipetes madagascariensis) en el Parque Nacional de Isalo, Madagascar","ispublic":1,"isfriend":0,"isfamily":0},{"id":"44967486975","owner":"27480477@N07","secret":"5a7bccca67","server":"4877","farm":5,"title":"DSC00985 Madagaskar Bulbul, Hypsipetes madagascariensis.","ispublic":1,"isfriend":0,"isfamily":0},{"id":"43950422470","owner":"44614344@N07","secret":"46e30747d0","server":"4856","farm":5,"title":"Madagascar Bulbul","ispublic":1,"isfriend":0,"isfamily":0},{"id":"43676005720","owner":"37205330@N05","secret":"9766b4dc7c","server":"1950","farm":2,"title":"Malagasy Bulbul","ispublic":1,"isfriend":0,"isfamily":0},{"id":"40601312544","owner":"98060993@N06","secret":"cb04f06576","server":"875","farm":1,"title":"(Species #1217) Malagasy Bulbul - [ Antasibe Nat.Park, Madagascar ]","ispublic":1,"isfriend":0,"isfamily":0},{"id":"25688561558","owner":"33221594@N03","secret":"129eff0978","server":"4689","farm":5,"title":"Malagasy bulbul Hypsipetes madagascariensis_3544","ispublic":1,"isfriend":0,"isfamily":0},{"id":"37376228570","owner":"139791896@N06","secret":"86e14c285f","server":"4453","farm":5,"title":"Madagascar bulbul perched in Pandanus","ispublic":1,"isfriend":0,"isfamily":0},{"id":"37376226220","owner":"139791896@N06","secret":"51426e197c","server":"4471","farm":5,"title":"Bulbul singing from dead screw pine stump","ispublic":1,"isfriend":0,"isfamily":0},{"id":"36006735896","owner":"152482654@N07","secret":"0ccdc6bed0","server":"4330","farm":5,"title":"Madagascar Bulbul (Hypsipetes madagascariensis)","ispublic":1,"isfriend":0,"isfamily":0},{"id":"34848923173","owner":"27868243@N00","secret":"c0a56a264d","server":"4007","farm":5,"title":"","ispublic":1,"isfriend":0,"isfamily":0},{"id":"35270782030","owner":"27868243@N00","secret":"d3a2cc4442","server":"4277","farm":5,"title":"","ispublic":1,"isfriend":0,"isfamily":0},{"id":"33155565914","owner":"56686021@N04","secret":"c81cec99aa","server":"2811","farm":3,"title":"Malagasy Bulbul","ispublic":1,"isfriend":0,"isfamily":0},{"id":"33650216702","owner":"57594632@N07","secret":"20ac5bfca2","server":"2928","farm":3,"title":"13, Black Bulbul (Hypsipetes leucocephalus)_DSC9436-2","ispublic":1,"isfriend":0,"isfamily":0},{"id":"33676917571","owner":"57594632@N07","secret":"070034b261","server":"3937","farm":4,"title":"13, Black Bulbul (Hypsipetes leucocephalus)_DSC9474-2","ispublic":1,"isfriend":0,"isfamily":0},{"id":"33765836206","owner":"57594632@N07","secret":"2ce4afc41e","server":"3951","farm":4,"title":"13, Black Bulbul (Hypsipetes leucocephalus)_DSC9510-2","ispublic":1,"isfriend":0,"isfamily":0},{"id":"33618870322","owner":"96568982@N06","secret":"9f95969494","server":"2872","farm":3,"title":"BULBUL, Madagascar","ispublic":1,"isfriend":0,"isfamily":0},{"id":"32885826961","owner":"61827574@N03","secret":"fa8d6feab4","server":"2125","farm":3,"title":"Madagascar Black Bulbul. ???? Hypsipetes madagascariensis","ispublic":1,"isfriend":0,"isfamily":0},{"id":"32561727645","owner":"68961563@N02","secret":"34c9c3c805","server":"371","farm":1,"title":"Madagascar Bulbul","ispublic":1,"isfriend":0,"isfamily":0},{"id":"31285137593","owner":"56686021@N04","secret":"05a706fd56","server":"255","farm":1,"title":"Malagasy Bulbul","ispublic":1,"isfriend":0,"isfamily":0},{"id":"31377965455","owner":"56686021@N04","secret":"b47aaaf273","server":"5726","farm":6,"title":"Malagasy Bulbul","ispublic":1,"isfriend":0,"isfamily":0},{"id":"31239827721","owner":"52648738@N03","secret":"1174337347","server":"5546","farm":6,"title":"Madagascar Bulbul","ispublic":1,"isfriend":0,"isfamily":0},{"id":"31325762625","owner":"27727337@N04","secret":"64ef660000","server":"5534","farm":6,"title":"Madagascar Bulbul (Hypsipetes madagascariensis)","ispublic":1,"isfriend":0,"isfamily":0},{"id":"25871508313","owner":"14191740@N08","secret":"b234b57925","server":"1583","farm":2,"title":"Madagascar Bulbul, Ankazosary, Madagascar","ispublic":1,"isfriend":0,"isfamily":0},{"id":"24220268711","owner":"29170368@N03","secret":"7c31be1805","server":"65535","farm":66,"title":"Malagasy Bulbul","ispublic":1,"isfriend":0,"isfamily":0},{"id":"23538706496","owner":"8327478@N03","secret":"c3a5497a48","server":"5638","farm":6,"title":"Madagascar Bulbul (Hypsipetes madagascariensis)","ispublic":1,"isfriend":0,"isfamily":0},{"id":"17933657449","owner":"86687448@N03","secret":"3ddefb7571","server":"7728","farm":8,"title":"Madagascar Bulbul (Hypsipetes madagascariensis) - Madagascar","ispublic":1,"isfriend":0,"isfamily":0},{"id":"16063275837","owner":"99469949@N04","secret":"8effa897ef","server":"8629","farm":9,"title":"Madagascar Bulbul - Hypsipetes madagascariensis","ispublic":1,"isfriend":0,"isfamily":0},{"id":"15533878324","owner":"84267069@N08","secret":"b201cfea99","server":"7495","farm":8,"title":"Madagascar Bulbul in Ifaty, Madagascar.","ispublic":1,"isfriend":0,"isfamily":0},{"id":"15925730817","owner":"65369861@N07","secret":"3909fc2019","server":"7532","farm":8,"title":"Madagascar Bulbul - Hypsipetes madagascariensis","ispublic":1,"isfriend":0,"isfamily":0},{"id":"15897676822","owner":"34318245@N08","secret":"fc6d321ae1","server":"65535","farm":66,"title":"0093919","ispublic":1,"isfriend":0,"isfamily":0},{"id":"15209081244","owner":"61827574@N03","secret":"bc8d613946","server":"65535","farm":66,"title":"Malagasy bulbul - Hypsipetes madagascariensis","ispublic":1,"isfriend":0,"isfamily":0},{"id":"15133290252","owner":"104988466@N08","secret":"42b10db534","server":"3902","farm":4,"title":"02. Bulbul de Madagascar - Hypsipetes madagascariensis - Malagasy Bulbul","ispublic":1,"isfriend":0,"isfamily":0},{"id":"14946975519","owner":"104988466@N08","secret":"297819c3ef","server":"3842","farm":4,"title":"03. Bulbul de Madagascar - Hypsipetes madagascariensis - Malagasy Bulbul","ispublic":1,"isfriend":0,"isfamily":0},{"id":"14947116427","owner":"104988466@N08","secret":"e7b726110e","server":"3914","farm":4,"title":"05. Bulbul de Madagascar - Hypsipetes madagascariensis - Malagasy Bulbul","ispublic":1,"isfriend":0,"isfamily":0},{"id":"15130683371","owner":"104988466@N08","secret":"1b924dd9e2","server":"3878","farm":4,"title":"04. Bulbul de Madagascar - Hypsipetes madagascariensis - Malagasy Bulbul","ispublic":1,"isfriend":0,"isfamily":0},{"id":"13994005113","owner":"77128742@N06","secret":"ddeca24cbe","server":"5524","farm":6,"title":"Rotschnabelfluchtvogel_Hypsipetes madagascariensis leucocephalus-2","ispublic":1,"isfriend":0,"isfamily":0},{"id":"13970797831","owner":"77128742@N06","secret":"b608955944","server":"7180","farm":8,"title":"Rotschnabelfluchtvogel_Hypsipetes madagascariensis leucocephalus-1","ispublic":1,"isfriend":0,"isfamily":0},{"id":"12307494433","owner":"12264467@N00","secret":"f23d148e6f","server":"2813","farm":3,"title":"Madagascar Bulbul (Hypsipetes madagascariensis)","ispublic":1,"isfriend":0,"isfamily":0},{"id":"12007382034","owner":"8082004@N08","secret":"8d51a033ff","server":"7415","farm":8,"title":"Madagascar Bulbul (Hypsipetes madagascariensis)","ispublic":1,"isfriend":0,"isfamily":0},{"id":"52349470111","owner":"146977722@N03","secret":"3cd5cf050e","server":"65535","farm":66,"title":"Hypsipetes madagascariensis (Bulbul de Madagascar) - Nosy be - 2022 09 06 - 2_DxO","ispublic":1,"isfriend":0,"isfamily":0},{"id":"50616146796","owner":"34003552@N02","secret":"49b399188a","server":"65535","farm":66,"title":"Madagascar Bulbul Hypsipetes madagascariensis","ispublic":1,"isfriend":0,"isfamily":0},{"id":"49862792103","owner":"89314489@N03","secret":"980ecf0402","server":"65535","farm":66,"title":"Hypsipetes madagascariensis leucothorax","ispublic":1,"isfriend":0,"isfamily":0},{"id":"49397081371","owner":"47388660@N02","secret":"6c21861f01","server":"65535","farm":66,"title":"Madagascar Bulbul","ispublic":1,"isfriend":0,"isfamily":0},{"id":"49397081326","owner":"47388660@N02","secret":"d464e96308","server":"65535","farm":66,"title":"Madagascar Bulbul","ispublic":1,"isfriend":0,"isfamily":0},{"id":"49397246797","owner":"47388660@N02","secret":"52551121d6","server":"65535","farm":66,"title":"Madagascar Bulbul","ispublic":1,"isfriend":0,"isfamily":0},{"id":"49396560538","owner":"47388660@N02","secret":"fef59510b1","server":"65535","farm":66,"title":"Madagascar Bulbul","ispublic":1,"isfriend":0,"isfamily":0},{"id":"49396581488","owner":"47388660@N02","secret":"779d1e4d37","server":"65535","farm":66,"title":"Madagascar Bulbul","ispublic":1,"isfriend":0,"isfamily":0},{"id":"49397268257","owner":"47388660@N02","secret":"a38af76bc2","server":"65535","farm":66,"title":"Madagascar Bulbul","ispublic":1,"isfriend":0,"isfamily":0},{"id":"46350670924","owner":"87799774@N03","secret":"c12ff3d654","server":"7802","farm":8,"title":"Whitehead Bulbul with berry","ispublic":1,"isfriend":0,"isfamily":0},{"id":"46486588701","owner":"28092414@N03","secret":"836253d33e","server":"4823","farm":5,"title":"Madagascar Bulbul at Ifaty IMG_8665","ispublic":1,"isfriend":0,"isfamily":0},{"id":"46458184371","owner":"28092414@N03","secret":"8039d11f69","server":"4856","farm":5,"title":"Madagascar Bulbul at Isalo National Park  IMG_8283","ispublic":1,"isfriend":0,"isfamily":0},{"id":"45545300105","owner":"28092414@N03","secret":"ca80587073","server":"4817","farm":5,"title":"Madagascar Bulbul at Isalo National Park IMG_8464","ispublic":1,"isfriend":0,"isfamily":0},{"id":"32519741198","owner":"12639178@N07","secret":"d20e405366","server":"4895","farm":5,"title":"Madagaskar_West, Madagaskar-Rotschnabelb\u00fclb\u00fcl","ispublic":1,"isfriend":0,"isfamily":0},{"id":"45475919665","owner":"90764954@N07","secret":"38bddcdf8d","server":"4861","farm":5,"title":"Malagasy bulbul (Hypsipetes madagascariensis) \u9ed1\u77ed\u811a\u9e4e","ispublic":1,"isfriend":0,"isfamily":0},{"id":"46362023671","owner":"90764954@N07","secret":"5fd9d52121","server":"4909","farm":5,"title":"Malagasy bulbul (Hypsipetes madagascariensis) \u9ed1\u77ed\u811a\u9e4e","ispublic":1,"isfriend":0,"isfamily":0},{"id":"46362023481","owner":"90764954@N07","secret":"12bc11f2f4","server":"4821","farm":5,"title":"Malagasy bulbul (Hypsipetes madagascariensis) \u9ed1\u77ed\u811a\u9e4e","ispublic":1,"isfriend":0,"isfamily":0},{"id":"32490320208","owner":"90764954@N07","secret":"fb7210302e","server":"4910","farm":5,"title":"Malagasy bulbul (Hypsipetes madagascariensis) \u9ed1\u77ed\u811a\u9e4e","ispublic":1,"isfriend":0,"isfamily":0},{"id":"46346774891","owner":"90764954@N07","secret":"8d9c0294b7","server":"4857","farm":5,"title":"Malagasy bulbul (Hypsipetes madagascariensis) \u9ed1\u77ed\u811a\u9e4e","ispublic":1,"isfriend":0,"isfamily":0},{"id":"45017590985","owner":"144092182@N07","secret":"496c939ee8","server":"4888","farm":5,"title":"Hypsipetes madagascariensis, Madagascar Bulbul","ispublic":1,"isfriend":0,"isfamily":0},{"id":"45910990821","owner":"121253091@N02","secret":"e1e4af517a","server":"4830","farm":5,"title":"DSC0192 Bulbul Malgache (Hypsipetes madagascariensis) en el Parque Nacional de Andasibe-Mantadia, Madagascar","ispublic":1,"isfriend":0,"isfamily":0},{"id":"45910989521","owner":"121253091@N02","secret":"27fb3e779a","server":"4828","farm":5,"title":"DSC0193 Bulbul Malgache (Hypsipetes madagascariensis) en el Parque Nacional de Andasibe-Mantadia, Madagascar","ispublic":1,"isfriend":0,"isfamily":0},{"id":"45861492102","owner":"121253091@N02","secret":"f9997b8666","server":"4889","farm":5,"title":"DSC9791 Bulbul Malgache (Hypsipetes madagascariensis) en el Parque Nacional de Isalo, Madagascar","ispublic":1,"isfriend":0,"isfamily":0},{"id":"30868675567","owner":"44614344@N07","secret":"a9ac877649","server":"4835","farm":5,"title":"Madagascar Bulbul","ispublic":1,"isfriend":0,"isfamily":0},{"id":"30827112227","owner":"95610786@N07","secret":"915acbe9f1","server":"4894","farm":5,"title":"Bulbul de Madagascar-Hypsipetes madagascariensis - Malagasy Bulbul 1336_DxO.jpg","ispublic":1,"isfriend":0,"isfamily":0},{"id":"31824835348","owner":"44614344@N07","secret":"5039067525","server":"1962","farm":2,"title":"Madagascar Bulbul","ispublic":1,"isfriend":0,"isfamily":0},{"id":"26444351108","owner":"106773832@N02","secret":"ae97c1ec6d","server":"4766","farm":5,"title":"Madagascar Bulbul (Hypsipetes madagascariensis) _DSC9396-editCC","ispublic":1,"isfriend":0,"isfamily":0},{"id":"40173330232","owner":"38053299@N08","secret":"33cf78f999","server":"4662","farm":5,"title":"Madagascar Bulbul","ispublic":1,"isfriend":0,"isfamily":0},{"id":"38662524865","owner":"33221594@N03","secret":"f3575ffb56","server":"4692","farm":5,"title":"Malagasy Bulbul Hypsipetes madagascariensis_3051","ispublic":1,"isfriend":0,"isfamily":0},{"id":"35151924524","owner":"152482654@N07","secret":"f05a77a78e","server":"4326","farm":5,"title":"Madagascar Bulbul (Hypsipetes madagascariensis)","ispublic":1,"isfriend":0,"isfamily":0},{"id":"35834115441","owner":"27868243@N00","secret":"15a400f126","server":"4294","farm":5,"title":"Madagascar Bulbul","ispublic":1,"isfriend":0,"isfamily":0},{"id":"35754080072","owner":"27868243@N00","secret":"a1dee35130","server":"4309","farm":5,"title":"Madagascar Bulbul","ispublic":1,"isfriend":0,"isfamily":0},{"id":"35883336166","owner":"27868243@N00","secret":"e28fb86be8","server":"4326","farm":5,"title":"Madagascar Bulbul","ispublic":1,"isfriend":0,"isfamily":0},{"id":"33789313490","owner":"148190690@N02","secret":"6e55963d8a","server":"2874","farm":3,"title":"Bulbul de Madagascar","ispublic":1,"isfriend":0,"isfamily":0},{"id":"27040192444","owner":"87632311@N05","secret":"f56a09d6e0","server":"7138","farm":8,"title":"IMG_0565 Malagasy Bulbul (Hypsipetes madagascariensis)","ispublic":1,"isfriend":0,"isfamily":0},{"id":"23962916889","owner":"129593667@N03","secret":"ddbbbc5a0d","server":"1509","farm":2,"title":"Bulbul Malgache noir - Malagasy Bulbul","ispublic":1,"isfriend":0,"isfamily":0},{"id":"19246636038","owner":"35761902@N00","secret":"9729984837","server":"536","farm":1,"title":"\u99ac\u5cf6\u9ed1\u9d6f Madagascar Bulbul (Hypsipetes madagascariensis) , Madagascar.","ispublic":1,"isfriend":0,"isfamily":0},{"id":"15287278793","owner":"19731486@N07","secret":"57df7fa544","server":"8634","farm":9,"title":"Madagascar bulbul","ispublic":1,"isfriend":0,"isfamily":0},{"id":"15278655703","owner":"34318245@N08","secret":"c73b8b1b1c","server":"65535","farm":66,"title":"0092456","ispublic":1,"isfriend":0,"isfamily":0},{"id":"14946979569","owner":"104988466@N08","secret":"d9eb2b8b8c","server":"5576","farm":6,"title":"01. Bulbul de Madagascar - Hypsipetes madagascariensis - Malagasy Bulbul","ispublic":1,"isfriend":0,"isfamily":0},{"id":"12798796895","owner":"93882360@N07","secret":"1b9fba13ca","server":"7298","farm":8,"title":"Madagasy bulbul hypsipetes madagascariensis","ispublic":1,"isfriend":0,"isfamily":0},{"id":"12455615193","owner":"57700587@N02","secret":"ded393f931","server":"3684","farm":4,"title":"Malagasy Bulbul \u9ed1\u77ed\u811a\u9e4e","ispublic":1,"isfriend":0,"isfamily":0},{"id":"11980271266","owner":"7457894@N04","secret":"cc810771d4","server":"5512","farm":6,"title":"MAD13_00799a","ispublic":1,"isfriend":0,"isfamily":0}]},"stat":"ok"}