{"photos":{"page":1,"pages":2,"perpage":100,"total":119,"photo":[{"id":"51720058832","owner":"46472058@N07","secret":"3b6c15b262","server":"65535","farm":66,"title":"Malaysian rail-babbler","ispublic":1,"isfriend":0,"isfamily":0},{"id":"51029913142","owner":"61021753@N02","secret":"76ecc14ac7","server":"65535","farm":66,"title":"n449_w1150","ispublic":1,"isfriend":0,"isfamily":0},{"id":"49806039807","owner":"148263603@N06","secret":"33bbcc27a3","server":"65535","farm":66,"title":"Malaysian Rail-babbler (Eupetes macrocerus)","ispublic":1,"isfriend":0,"isfamily":0},{"id":"49115779867","owner":"7200351@N08","secret":"bbff7c2b45","server":"65535","farm":66,"title":"Eupetes macrocerus macrocerus","ispublic":1,"isfriend":0,"isfamily":0},{"id":"49115586646","owner":"7200351@N08","secret":"f0f476b90c","server":"65535","farm":66,"title":"Eupetes macrocerus macrocerus","ispublic":1,"isfriend":0,"isfamily":0},{"id":"49115084248","owner":"7200351@N08","secret":"67c5d6bbd0","server":"65535","farm":66,"title":"Eupetes macrocerus macrocerus","ispublic":1,"isfriend":0,"isfamily":0},{"id":"49115586536","owner":"7200351@N08","secret":"05af45f1ee","server":"65535","farm":66,"title":"Eupetes macrocerus macrocerus","ispublic":1,"isfriend":0,"isfamily":0},{"id":"49115083873","owner":"7200351@N08","secret":"a4ce2f825f","server":"65535","farm":66,"title":"Eupetes macrocerus macrocerus","ispublic":1,"isfriend":0,"isfamily":0},{"id":"49114279311","owner":"7200351@N08","secret":"2da7c668ee","server":"65535","farm":66,"title":"Eupetes macrocerus macrocerus","ispublic":1,"isfriend":0,"isfamily":0},{"id":"48990065248","owner":"7200351@N08","secret":"1201389451","server":"65535","farm":66,"title":"Eupetes macrocerus macrocerus","ispublic":1,"isfriend":0,"isfamily":0},{"id":"48990814257","owner":"7200351@N08","secret":"3f880c1c92","server":"65535","farm":66,"title":"Eupetes macrocerus macrocerus","ispublic":1,"isfriend":0,"isfamily":0},{"id":"48990814262","owner":"7200351@N08","secret":"7535a683f2","server":"65535","farm":66,"title":"Eupetes macrocerus macrocerus","ispublic":1,"isfriend":0,"isfamily":0},{"id":"48990814187","owner":"7200351@N08","secret":"75b003295c","server":"65535","farm":66,"title":"Eupetes macrocerus macrocerus","ispublic":1,"isfriend":0,"isfamily":0},{"id":"48990620096","owner":"7200351@N08","secret":"77733341d5","server":"65535","farm":66,"title":"Eupetes macrocerus macrocerus","ispublic":1,"isfriend":0,"isfamily":0},{"id":"48990619946","owner":"7200351@N08","secret":"58bc43d592","server":"65535","farm":66,"title":"Eupetes macrocerus macrocerus","ispublic":1,"isfriend":0,"isfamily":0},{"id":"48990064818","owner":"7200351@N08","secret":"028ea16856","server":"65535","farm":66,"title":"Eupetes macrocerus macrocerus","ispublic":1,"isfriend":0,"isfamily":0},{"id":"48990814437","owner":"7200351@N08","secret":"d0866dfaf6","server":"65535","farm":66,"title":"Eupetes macrocerus macrocerus","ispublic":1,"isfriend":0,"isfamily":0},{"id":"48990620266","owner":"7200351@N08","secret":"d7f11b5564","server":"65535","farm":66,"title":"Eupetes macrocerus macrocerus","ispublic":1,"isfriend":0,"isfamily":0},{"id":"48885079521","owner":"8431410@N06","secret":"b80dac19af","server":"65535","farm":66,"title":"rail-babbler or Malaysian rail-babbler (Eupetes macrocerus)","ispublic":1,"isfriend":0,"isfamily":0},{"id":"48779627297","owner":"90764954@N07","secret":"a4bb1d854e","server":"65535","farm":66,"title":"Rail-babbler or Malaysian rail-babbler (Eupetes macrocerus) \u767d\u7709\u957f\u9888\u9e2b","ispublic":1,"isfriend":0,"isfamily":0},{"id":"48507510527","owner":"183276295@N04","secret":"a26c820729","server":"65535","farm":66,"title":"200.malaysian Rail-babbler (Eupetes macrocerus)","ispublic":1,"isfriend":0,"isfamily":0},{"id":"46802267344","owner":"124848818@N07","secret":"3542bf5838","server":"7814","farm":8,"title":"Malaysian rail-babbler (Eupetes macrocerus)","ispublic":1,"isfriend":0,"isfamily":0},{"id":"32583548997","owner":"124848818@N07","secret":"68229d7266","server":"7921","farm":8,"title":"Malaysian rail-babbler (Eupetes macrocerus)","ispublic":1,"isfriend":0,"isfamily":0},{"id":"40559921843","owner":"124848818@N07","secret":"37ec7c9bab","server":"7854","farm":8,"title":"Malaysian rail-babbler (Eupetes macrocerus)","ispublic":1,"isfriend":0,"isfamily":0},{"id":"32583519597","owner":"124848818@N07","secret":"ebb48ee300","server":"7919","farm":8,"title":"Malaysian rail-babbler (Eupetes macrocerus)","ispublic":1,"isfriend":0,"isfamily":0},{"id":"37775581176","owner":"39066307@N03","secret":"8c93fbe408","server":"4452","farm":5,"title":"Malaysian Rail-babbler","ispublic":1,"isfriend":0,"isfamily":0},{"id":"37638804032","owner":"56891930@N05","secret":"ec573257e4","server":"4444","farm":5,"title":"Malaysian Rail-babbler (Eupetes macrocerus macrocerus) \u767d\u7709\u957f\u9888\u9e2b - Lanchang \u5170\u969c, Daerah Temerloh \u6de1\u9a6c\u9c81\u53bf, Pahang \u5f6d\u4ea8\u5dde, Malaysia \u9a6c\u6765\u897f\u4e9a","ispublic":1,"isfriend":0,"isfamily":0},{"id":"36802119453","owner":"90764954@N07","secret":"8c5baa1383","server":"4485","farm":5,"title":"Rail-babbler or Malaysian rail-babbler (Eupetes macrocerus) \u767d\u7709\u957f\u9888\u9e2b","ispublic":1,"isfriend":0,"isfamily":0},{"id":"35820576273","owner":"39066307@N03","secret":"f231be4b4b","server":"4363","farm":5,"title":"Malaysian Rail-babbler","ispublic":1,"isfriend":0,"isfamily":0},{"id":"35686971164","owner":"133058108@N05","secret":"ca6879bf64","server":"4345","farm":5,"title":"200.Rail-babbler (Eupetes macrocerus)","ispublic":1,"isfriend":0,"isfamily":0},{"id":"36271476261","owner":"99632246@N00","secret":"fa20dd4ccb","server":"4422","farm":5,"title":"Rail-babbler (Eupetes macrocerus) @Pahang","ispublic":1,"isfriend":0,"isfamily":0},{"id":"32616878882","owner":"22587916@N05","secret":"0ef87d7cab","server":"282","farm":1,"title":"... rail-babbler walking slow ...","ispublic":1,"isfriend":0,"isfamily":0},{"id":"30324864792","owner":"7200351@N08","secret":"2556f13173","server":"5447","farm":6,"title":"Eupetes macrocerus macrocerus","ispublic":1,"isfriend":0,"isfamily":0},{"id":"30321224311","owner":"7200351@N08","secret":"16481cd5b2","server":"5606","farm":6,"title":"Eupetes macrocerus macrocerus","ispublic":1,"isfriend":0,"isfamily":0},{"id":"29775811014","owner":"7200351@N08","secret":"4395e1e6aa","server":"8673","farm":9,"title":"Eupetes macrocerus macrocerus","ispublic":1,"isfriend":0,"isfamily":0},{"id":"30370368856","owner":"7200351@N08","secret":"1c56db034b","server":"5782","farm":6,"title":"Eupetes macrocerus macrocerus","ispublic":1,"isfriend":0,"isfamily":0},{"id":"30370369046","owner":"7200351@N08","secret":"1c62d75369","server":"5479","farm":6,"title":"Eupetes macrocerus macrocerus","ispublic":1,"isfriend":0,"isfamily":0},{"id":"30370368206","owner":"7200351@N08","secret":"4f36373fd4","server":"5548","farm":6,"title":"Eupetes macrocerus macrocerus","ispublic":1,"isfriend":0,"isfamily":0},{"id":"30370367936","owner":"7200351@N08","secret":"c453484363","server":"5606","farm":6,"title":"Eupetes macrocerus macrocerus","ispublic":1,"isfriend":0,"isfamily":0},{"id":"30103707170","owner":"7200351@N08","secret":"5bccdb290e","server":"8140","farm":9,"title":"Eupetes macrocerus macrocerus","ispublic":1,"isfriend":0,"isfamily":0},{"id":"29769277823","owner":"7200351@N08","secret":"b57d84588f","server":"8138","farm":9,"title":"Eupetes macrocerus macrocerus","ispublic":1,"isfriend":0,"isfamily":0},{"id":"29769278143","owner":"7200351@N08","secret":"e8a5ce676f","server":"8133","farm":9,"title":"Eupetes macrocerus macrocerus","ispublic":1,"isfriend":0,"isfamily":0},{"id":"29769277493","owner":"7200351@N08","secret":"f2cd5058e6","server":"5350","farm":6,"title":"Eupetes macrocerus macrocerus","ispublic":1,"isfriend":0,"isfamily":0},{"id":"29756077843","owner":"7200351@N08","secret":"6f20706ed2","server":"8407","farm":9,"title":"Eupetes macrocerus macrocerus","ispublic":1,"isfriend":0,"isfamily":0},{"id":"29756077423","owner":"7200351@N08","secret":"a4b07c1187","server":"5324","farm":6,"title":"Eupetes macrocerus macrocerus","ispublic":1,"isfriend":0,"isfamily":0},{"id":"29757449544","owner":"7200351@N08","secret":"b0f9bb51f2","server":"8127","farm":9,"title":"Eupetes macrocerus macrocerus","ispublic":1,"isfriend":0,"isfamily":0},{"id":"29731295230","owner":"56891930@N05","secret":"d492e68f77","server":"5575","farm":6,"title":"Malaysian Rail-babbler (Eupetes macrocerus macrocerus) \u767d\u7709\u957f\u9888\u9e2b - Lanchang \u5170\u969c, Daerah Temerloh \u6de1\u9a6c\u9c81\u53bf, Pahang \u5f6d\u4ea8\u5dde, Malaysia \u9a6c\u6765\u897f\u4e9a","ispublic":1,"isfriend":0,"isfamily":0},{"id":"29906670202","owner":"45473917@N07","secret":"03701817e8","server":"8115","farm":9,"title":"Malaysian Rail-babbler (Eupetes macrocerus) @ Lanchangi, Pahang, Malaysia_20160909_0745","ispublic":1,"isfriend":0,"isfamily":0},{"id":"29936925131","owner":"45473917@N07","secret":"8c09703394","server":"5671","farm":6,"title":"Malaysian Rail-babbler (Eupetes macrocerus) @ Lanchangi, Pahang, Malaysia_20160909_0609","ispublic":1,"isfriend":0,"isfamily":0},{"id":"29936925001","owner":"45473917@N07","secret":"30d5c222bb","server":"5176","farm":6,"title":"Malaysian Rail-babbler (Eupetes macrocerus) @ Lanchangi, Pahang, Malaysia_20160909_0853","ispublic":1,"isfriend":0,"isfamily":0},{"id":"29392396764","owner":"45473917@N07","secret":"0b35c4a702","server":"8722","farm":9,"title":"Malaysian Rail-babbler (Eupetes macrocerus) @ Lanchangi, Pahang, Malaysia_20160909_0817","ispublic":1,"isfriend":0,"isfamily":0},{"id":"29392396614","owner":"45473917@N07","secret":"7fb14abc63","server":"8264","farm":9,"title":"Malaysian Rail-babbler (Eupetes macrocerus) @ Lanchangi, Pahang, Malaysia_20160909_0857","ispublic":1,"isfriend":0,"isfamily":0},{"id":"29392395634","owner":"45473917@N07","secret":"a4e921d8ec","server":"8411","farm":9,"title":"Malaysian Rail-babbler (Eupetes macrocerus) @ Lanchangi, Pahang, Malaysia_20160909_0555","ispublic":1,"isfriend":0,"isfamily":0},{"id":"29712547750","owner":"67413109@N07","secret":"4bccb5b7fd","server":"8084","farm":9,"title":"The rail-babbler or Malaysian rail-babbler (Eupetes macrocerus)","ispublic":1,"isfriend":0,"isfamily":0},{"id":"29571407220","owner":"32136583@N04","secret":"9cc0c63a71","server":"8283","farm":9,"title":"Malaysian Rail-Babbler","ispublic":1,"isfriend":0,"isfamily":0},{"id":"29209613443","owner":"56891930@N05","secret":"cecb565ed5","server":"8339","farm":9,"title":"Malaysian Rail-babbler (Eupetes macrocerus macrocerus) \u767d\u7709\u957f\u9888\u9e2b - Lanchang \u5170\u969c, Daerah Temerloh \u6de1\u9a6c\u9c81\u53bf, Pahang \u5f6d\u4ea8\u5dde, Malaysia \u9a6c\u6765\u897f\u4e9a","ispublic":1,"isfriend":0,"isfamily":0},{"id":"29798768276","owner":"56891930@N05","secret":"2a70469e3a","server":"7472","farm":8,"title":"Malaysian Rail-babbler (Eupetes macrocerus macrocerus) \u767d\u7709\u957f\u9888\u9e2b - Lanchang \u5170\u969c, Daerah Temerloh \u6de1\u9a6c\u9c81\u53bf, Pahang \u5f6d\u4ea8\u5dde, Malaysia \u9a6c\u6765\u897f\u4e9a","ispublic":1,"isfriend":0,"isfamily":0},{"id":"29605780281","owner":"56891930@N05","secret":"69b6ce7d06","server":"8431","farm":9,"title":"Malaysian Rail-babbler (Eupetes macrocerus macrocerus) \u767d\u7709\u957f\u9888\u9e2b - Lanchang \u5170\u969c, Daerah Temerloh \u6de1\u9a6c\u9c81\u53bf, Pahang \u5f6d\u4ea8\u5dde, Malaysia \u9a6c\u6765\u897f\u4e9a","ispublic":1,"isfriend":0,"isfamily":0},{"id":"27823662090","owner":"9960474@N06","secret":"e5486a0d89","server":"7426","farm":8,"title":"Rail-Babbler","ispublic":1,"isfriend":0,"isfamily":0},{"id":"27013477544","owner":"67413109@N07","secret":"3c4bc3df1b","server":"7202","farm":8,"title":"Rail-babbler (Eupetes macrocerus)","ispublic":1,"isfriend":0,"isfamily":0},{"id":"27530153176","owner":"56891930@N05","secret":"095d80b069","server":"7269","farm":8,"title":"[ SUPER LIFER OF THE YEAR !!! ] Malaysian Rail-babbler (Eupetes macrocerus macrocerus) \u767d\u7709\u957f\u9888\u9e2b - Lanchang \u5170\u969c, Daerah Temerloh \u6de1\u9a6c\u9c81\u53bf, Pahang \u5f6d\u4ea8\u5dde, Malaysia \u9a6c\u6765\u897f\u4e9a","ispublic":1,"isfriend":0,"isfamily":0},{"id":"27243599045","owner":"53168686@N08","secret":"a52dd60f9e","server":"7294","farm":8,"title":"Malaysian rail-babbler (Eupetes macrocerus)","ispublic":1,"isfriend":0,"isfamily":0},{"id":"26565711284","owner":"21155756@N07","secret":"62670bbeeb","server":"7418","farm":8,"title":"Malaysian Rail babbler. Kekicau Sintar","ispublic":1,"isfriend":0,"isfamily":0},{"id":"27074106832","owner":"56891930@N05","secret":"f1622fd1cb","server":"7409","farm":8,"title":"[ SUPER LIFER OF THE YEAR !!! ] Malaysian Rail-babbler (Eupetes macrocerus macrocerus) \u767d\u7709\u957f\u9888\u9e2b - Lanchang \u5170\u969c, Daerah Temerloh \u6de1\u9a6c\u9c81\u53bf, Pahang \u5f6d\u4ea8\u5dde, Malaysia \u9a6c\u6765\u897f\u4e9a","ispublic":1,"isfriend":0,"isfamily":0},{"id":"26522427774","owner":"21155756@N07","secret":"b1ba065424","server":"7270","farm":8,"title":"Malaysian Rail Babbler. Kekicau sintar","ispublic":1,"isfriend":0,"isfamily":0},{"id":"27094848456","owner":"21155756@N07","secret":"4506b71c88","server":"7471","farm":8,"title":"Malaysian Rail Babbler. Kekicau sintar","ispublic":1,"isfriend":0,"isfamily":0},{"id":"26431149063","owner":"56891930@N05","secret":"3014b1a1c4","server":"7786","farm":8,"title":"[ SUPER LIFER OF THE YEAR !!! ] Malaysian Rail-babbler (Eupetes macrocerus macrocerus) \u767d\u7709\u957f\u9888\u9e2b - Lanchang \u5170\u969c, Daerah Temerloh \u6de1\u9a6c\u9c81\u53bf, Pahang \u5f6d\u4ea8\u5dde, Malaysia \u9a6c\u6765\u897f\u4e9a","ispublic":1,"isfriend":0,"isfamily":0},{"id":"26951238326","owner":"22587916@N05","secret":"6d72c0d708","server":"7103","farm":8,"title":"... 1.2.3 ...","ispublic":1,"isfriend":0,"isfamily":0},{"id":"26877159992","owner":"22587916@N05","secret":"ba284af55c","server":"7632","farm":8,"title":"Malaysian Rail-babbler \u767d\u7709\u957f\u9888\u9e2b","ispublic":1,"isfriend":0,"isfamily":0},{"id":"23895311792","owner":"22587916@N05","secret":"9be8eca9ea","server":"1609","farm":2,"title":"... I am Calling ...","ispublic":1,"isfriend":0,"isfamily":0},{"id":"21847346951","owner":"22587916@N05","secret":"6ba5068d5f","server":"604","farm":1,"title":"... running path ...","ispublic":1,"isfriend":0,"isfamily":0},{"id":"21187872714","owner":"22587916@N05","secret":"be068bd13c","server":"720","farm":1,"title":"... Rail-babbler, \u6854\u8910\u80f8\u5584\u98de\u9e2b ...","ispublic":1,"isfriend":0,"isfamily":0},{"id":"52298993627","owner":"145824323@N05","secret":"dfd4616670","server":"65535","farm":66,"title":"Malaysian rail-babbler (Eupetes macrocerus)","ispublic":1,"isfriend":0,"isfamily":0},{"id":"48693392551","owner":"183276295@N04","secret":"d599663e49","server":"65535","farm":66,"title":"200.malaysian Rail-babbler (Eupetes macrocerus)","ispublic":1,"isfriend":0,"isfamily":0},{"id":"48509060007","owner":"183276295@N04","secret":"82f10f170d","server":"65535","farm":66,"title":"200.malaysian Rail-babbler (Eupetes macrocerus)","ispublic":1,"isfriend":0,"isfamily":0},{"id":"48504138722","owner":"183276295@N04","secret":"76b62e588a","server":"65535","farm":66,"title":"200.malaysian Rail-babbler (Eupetes macrocerus)","ispublic":1,"isfriend":0,"isfamily":0},{"id":"48503939146","owner":"183276295@N04","secret":"f4c394d962","server":"65535","farm":66,"title":"200.malaysian Rail-babbler (Eupetes macrocerus)","ispublic":1,"isfriend":0,"isfamily":0},{"id":"40559958243","owner":"124848818@N07","secret":"506ec8006e","server":"7891","farm":8,"title":"Malaysian rail-babbler (Eupetes macrocerus)","ispublic":1,"isfriend":0,"isfamily":0},{"id":"46610455295","owner":"124848818@N07","secret":"b0994e4513","server":"7904","farm":8,"title":"Malaysian rail-babbler (Eupetes macrocerus)","ispublic":1,"isfriend":0,"isfamily":0},{"id":"46610447095","owner":"124848818@N07","secret":"7985bf3787","server":"7831","farm":8,"title":"Malaysian rail-babbler (Eupetes macrocerus)","ispublic":1,"isfriend":0,"isfamily":0},{"id":"32583542967","owner":"124848818@N07","secret":"d78266872a","server":"7843","farm":8,"title":"Malaysian rail-babbler (Eupetes macrocerus)","ispublic":1,"isfriend":0,"isfamily":0},{"id":"47473154172","owner":"124848818@N07","secret":"f250ce63d1","server":"7891","farm":8,"title":"Malaysian rail-babbler (Eupetes macrocerus)","ispublic":1,"isfriend":0,"isfamily":0},{"id":"32583526027","owner":"124848818@N07","secret":"b5cf210cc8","server":"7885","farm":8,"title":"Malaysian rail-babbler (Eupetes macrocerus)","ispublic":1,"isfriend":0,"isfamily":0},{"id":"37775588716","owner":"39066307@N03","secret":"3fcd3945e6","server":"4497","farm":5,"title":"Malaysian Rail-babbler","ispublic":1,"isfriend":0,"isfamily":0},{"id":"37775586276","owner":"39066307@N03","secret":"cfbc2df6ee","server":"4470","farm":5,"title":"Malaysian Rail-babbler","ispublic":1,"isfriend":0,"isfamily":0},{"id":"37154024093","owner":"39066307@N03","secret":"253e8d48b8","server":"4481","farm":5,"title":"Malaysian Rail-babbler","ispublic":1,"isfriend":0,"isfamily":0},{"id":"37154023983","owner":"39066307@N03","secret":"65b0ec3279","server":"4483","farm":5,"title":"Malaysian Rail-babbler","ispublic":1,"isfriend":0,"isfamily":0},{"id":"37114050704","owner":"39066307@N03","secret":"3c70313132","server":"4462","farm":5,"title":"Malaysian Rail-babbler","ispublic":1,"isfriend":0,"isfamily":0},{"id":"37775582136","owner":"39066307@N03","secret":"eb3f1e8253","server":"4459","farm":5,"title":"Malaysian Rail-babbler","ispublic":1,"isfriend":0,"isfamily":0},{"id":"37214135730","owner":"90764954@N07","secret":"f657e646aa","server":"4491","farm":5,"title":"Rail-babbler or Malaysian rail-babbler (Eupetes macrocerus) \u767d\u7709\u957f\u9888\u9e2b","ispublic":1,"isfriend":0,"isfamily":0},{"id":"36233874640","owner":"39066307@N03","secret":"8e216b7521","server":"4378","farm":5,"title":"Malaysian Rail Babbler","ispublic":1,"isfriend":0,"isfamily":0},{"id":"36583404916","owner":"39066307@N03","secret":"ec1f8c53ed","server":"4432","farm":5,"title":"Malaysian Rail-babbler","ispublic":1,"isfriend":0,"isfamily":0},{"id":"36629701465","owner":"39066307@N03","secret":"9d0900ddf8","server":"4381","farm":5,"title":"Malaysian Rail-babbler","ispublic":1,"isfriend":0,"isfamily":0},{"id":"36256119362","owner":"133058108@N05","secret":"50dc46a79e","server":"4394","farm":5,"title":"200.Rail-babbler (Eupetes macrocerus)","ispublic":1,"isfriend":0,"isfamily":0},{"id":"30301778521","owner":"7200351@N08","secret":"d91c870604","server":"8570","farm":9,"title":"Eupetes macrocerus macrocerus","ispublic":1,"isfriend":0,"isfamily":0},{"id":"29301539675","owner":"56891930@N05","secret":"649d82fd4c","server":"8441","farm":9,"title":"Malaysian Rail-babbler (Eupetes macrocerus macrocerus) \u767d\u7709\u957f\u9888\u9e2b - Lanchang \u5170\u969c, Daerah Temerloh \u6de1\u9a6c\u9c81\u53bf, Pahang \u5f6d\u4ea8\u5dde, Malaysia \u9a6c\u6765\u897f\u4e9a","ispublic":1,"isfriend":0,"isfamily":0},{"id":"27474138605","owner":"9960474@N06","secret":"9d64c89468","server":"7590","farm":8,"title":"Malaysian Rail - Babbler","ispublic":1,"isfriend":0,"isfamily":0},{"id":"26637908083","owner":"53168686@N08","secret":"3cc597e759","server":"7263","farm":8,"title":"Malaysian rail-babbler (Eupetes macrocerus)","ispublic":1,"isfriend":0,"isfamily":0},{"id":"27120692572","owner":"56891930@N05","secret":"f195da9288","server":"7304","farm":8,"title":"[ SUPER LIFER OF THE YEAR !!! ] Malaysian Rail-babbler (Eupetes macrocerus macrocerus) \u767d\u7709\u957f\u9888\u9e2b - Lanchang \u5170\u969c, Daerah Temerloh \u6de1\u9a6c\u9c81\u53bf, Pahang \u5f6d\u4ea8\u5dde, Malaysia \u9a6c\u6765\u897f\u4e9a","ispublic":1,"isfriend":0,"isfamily":0},{"id":"27217538365","owner":"56891930@N05","secret":"31850ba67b","server":"7391","farm":8,"title":"[ SUPER LIFER OF THE YEAR !!! ] Malaysian Rail-babbler (Eupetes macrocerus macrocerus) \u767d\u7709\u957f\u9888\u9e2b - Lanchang \u5170\u969c, Daerah Temerloh \u6de1\u9a6c\u9c81\u53bf, Pahang \u5f6d\u4ea8\u5dde, Malaysia \u9a6c\u6765\u897f\u4e9a","ispublic":1,"isfriend":0,"isfamily":0}]},"stat":"ok"}