{"photos":{"page":1,"pages":680,"perpage":100,"total":67955,"photo":[{"id":"52793486453","owner":"95391443@N03","secret":"7575239cc2","server":"65535","farm":66,"title":"Wilde Eend - Mallard - Anas platyrhynchos","ispublic":1,"isfriend":0,"isfamily":0},{"id":"52792955905","owner":"7901656@N05","secret":"32b9341a5a","server":"65535","farm":66,"title":"\u00c1nade azul\u00f3n-Anas platyrhynchos- Mallard","ispublic":1,"isfriend":0,"isfamily":0},{"id":"52792779545","owner":"125741467@N05","secret":"e4a5bd2a38","server":"65535","farm":66,"title":"Mallard drake","ispublic":1,"isfriend":0,"isfamily":0},{"id":"52792641150","owner":"12639178@N07","secret":"9bf9e0ac13","server":"65535","farm":66,"title":"Stockente (Anas platyrhynchos)","ispublic":1,"isfriend":0,"isfamily":0},{"id":"52791882225","owner":"53280041@N04","secret":"13c1bf4416","server":"65535","farm":66,"title":"Mallard","ispublic":1,"isfriend":0,"isfamily":0},{"id":"52791938223","owner":"53280041@N04","secret":"5e297d2ca2","server":"65535","farm":66,"title":"Mallard","ispublic":1,"isfriend":0,"isfamily":0},{"id":"52791386766","owner":"188590690@N04","secret":"704075b086","server":"65535","farm":66,"title":"Wilde eend, Mallard, Anas platyrhynchos","ispublic":1,"isfriend":0,"isfamily":0},{"id":"52791835163","owner":"188590690@N04","secret":"717b628eb9","server":"65535","farm":66,"title":"Wilde eend, Mallard, Anas platyrhynchos","ispublic":1,"isfriend":0,"isfamily":0},{"id":"52791414434","owner":"12639178@N07","secret":"a3720d0bf7","server":"65535","farm":66,"title":"Stockente (Anas platyrhynchos) (2)","ispublic":1,"isfriend":0,"isfamily":0},{"id":"52791630838","owner":"12639178@N07","secret":"c2088493bd","server":"65535","farm":66,"title":"Stockentenpaar beim Futtersuchen","ispublic":1,"isfriend":0,"isfamily":0},{"id":"52790838816","owner":"12291792@N05","secret":"4a7667f3bb","server":"65535","farm":66,"title":"Drake Mallard","ispublic":1,"isfriend":0,"isfamily":0},{"id":"52791132723","owner":"58222107@N04","secret":"baf63b4b49","server":"65535","farm":66,"title":"Surrounded by Stars 1765","ispublic":1,"isfriend":0,"isfamily":0},{"id":"52790395405","owner":"12639178@N07","secret":"aa9b09d1ef","server":"65535","farm":66,"title":"Stockente (Anas platyrhynchos)","ispublic":1,"isfriend":0,"isfamily":0},{"id":"52790386380","owner":"12639178@N07","secret":"b2b81d443a","server":"65535","farm":66,"title":"Stockente (Anas platyrhynchos)","ispublic":1,"isfriend":0,"isfamily":0},{"id":"52789433997","owner":"12639178@N07","secret":"e684a946d4","server":"65535","farm":66,"title":"Stockente (Anas platyrhynchos)","ispublic":1,"isfriend":0,"isfamily":0},{"id":"52790358698","owner":"169771858@N03","secret":"d80f2c3893","server":"65535","farm":66,"title":"Mallard (2023-01-06 #7)","ispublic":1,"isfriend":0,"isfamily":0},{"id":"52789573261","owner":"12639178@N07","secret":"d0e33bca57","server":"65535","farm":66,"title":"... macht sich h\u00fcbsch ;-)","ispublic":1,"isfriend":0,"isfamily":0},{"id":"52789805179","owner":"12639178@N07","secret":"86afe39666","server":"65535","farm":66,"title":"Dieser Mann ...","ispublic":1,"isfriend":0,"isfamily":0},{"id":"52787296248","owner":"131779834@N08","secret":"f07d540925","server":"65535","farm":66,"title":"Getting A Head","ispublic":1,"isfriend":0,"isfamily":0},{"id":"52789098799","owner":"198024963@N07","secret":"44fde79a3c","server":"65535","farm":66,"title":"Mallard","ispublic":1,"isfriend":0,"isfamily":0},{"id":"52789188035","owner":"169771858@N03","secret":"226a0aa120","server":"65535","farm":66,"title":"Mallard Duck #11 - 2019-10-26","ispublic":1,"isfriend":0,"isfamily":0},{"id":"52788977349","owner":"128537732@N06","secret":"95f829e7e2","server":"65535","farm":66,"title":"Mallards (Anas platyrhynchos)","ispublic":1,"isfriend":0,"isfamily":0},{"id":"52788822524","owner":"12639178@N07","secret":"e86eeccd86","server":"65535","farm":66,"title":"Stockente (Anas platyrhynchos)","ispublic":1,"isfriend":0,"isfamily":0},{"id":"52788818234","owner":"188352054@N08","secret":"75f5d8efef","server":"65535","farm":66,"title":"9M2A7660","ispublic":1,"isfriend":0,"isfamily":0},{"id":"52789037988","owner":"188352054@N08","secret":"d960c5da66","server":"65535","farm":66,"title":"9M2A7738","ispublic":1,"isfriend":0,"isfamily":0},{"id":"52788233736","owner":"169771858@N03","secret":"67050c86cb","server":"65535","farm":66,"title":"Mallard #2 - 2021-10-31","ispublic":1,"isfriend":0,"isfamily":0},{"id":"52788518588","owner":"12639178@N07","secret":"d8683ac469","server":"65535","farm":66,"title":"Stockente","ispublic":1,"isfriend":0,"isfamily":0},{"id":"52787954776","owner":"12639178@N07","secret":"47fbecf518","server":"65535","farm":66,"title":"Sie schnattert...","ispublic":1,"isfriend":0,"isfamily":0},{"id":"52788405883","owner":"12639178@N07","secret":"8cc2193f4e","server":"65535","farm":66,"title":"Gemischtes Paar","ispublic":1,"isfriend":0,"isfamily":0},{"id":"52788316430","owner":"15340201@N04","secret":"733a27d8a5","server":"65535","farm":66,"title":"Mallard, female","ispublic":1,"isfriend":0,"isfamily":0},{"id":"52788334328","owner":"83668077@N08","secret":"8964f463ee","server":"65535","farm":66,"title":"Anas platyrhynchos","ispublic":1,"isfriend":0,"isfamily":0},{"id":"52787862311","owner":"15340201@N04","secret":"e3241c0133","server":"65535","farm":66,"title":"Mallard","ispublic":1,"isfriend":0,"isfamily":0},{"id":"52787820481","owner":"12639178@N07","secret":"2eb834f6af","server":"65535","farm":66,"title":"Stockente (Anas platyrhynchos)","ispublic":1,"isfriend":0,"isfamily":0},{"id":"52787562038","owner":"12639178@N07","secret":"7b3ce3de3c","server":"65535","farm":66,"title":"Stockente weiblich - nix wie weg","ispublic":1,"isfriend":0,"isfamily":0},{"id":"52787111186","owner":"12639178@N07","secret":"db3f6faefe","server":"65535","farm":66,"title":"Stockente Erpel Landung im Wasser","ispublic":1,"isfriend":0,"isfamily":0},{"id":"52787507205","owner":"12639178@N07","secret":"d23a500821","server":"65535","farm":66,"title":"Hilfe! Liebestolle Erpel! Stockente weiblich immer auf der Flucht","ispublic":1,"isfriend":0,"isfamily":0},{"id":"52787061266","owner":"15340201@N04","secret":"6134c82c2b","server":"65535","farm":66,"title":"Mallard\/mix","ispublic":1,"isfriend":0,"isfamily":0},{"id":"52787434030","owner":"12639178@N07","secret":"30bcbeb567","server":"65535","farm":66,"title":"Stockente","ispublic":1,"isfriend":0,"isfamily":0},{"id":"52787486673","owner":"144980256@N07","secret":"ff2891ddff","server":"65535","farm":66,"title":"Mallard (Anas platyrhynchos)","ispublic":1,"isfriend":0,"isfamily":0},{"id":"52787197009","owner":"103722035@N06","secret":"d905c15a67","server":"0","farm":0,"title":"Mallard (Anas platyrhynchos), Shandon, CA","ispublic":1,"isfriend":0,"isfamily":0},{"id":"52786801773","owner":"169771858@N03","secret":"62249c468b","server":"65535","farm":66,"title":"American Wigeon - 2019-10-26","ispublic":1,"isfriend":0,"isfamily":0},{"id":"52785493437","owner":"198000077@N04","secret":"9848f398dc","server":"65535","farm":66,"title":"Mellard\/ Anas platyrhynchos","ispublic":1,"isfriend":0,"isfamily":0},{"id":"52785904879","owner":"15340201@N04","secret":"74a87fb391","server":"65535","farm":66,"title":"Mallard","ispublic":1,"isfriend":0,"isfamily":0},{"id":"52786060350","owner":"198000077@N04","secret":"b7edd9d748","server":"65535","farm":66,"title":"Mallard\/ Anas platyrhynchos","ispublic":1,"isfriend":0,"isfamily":0},{"id":"52786055390","owner":"23882583@N08","secret":"a8c867319a","server":"65535","farm":66,"title":"Mallard Drake","ispublic":1,"isfriend":0,"isfamily":0},{"id":"52785795083","owner":"12639178@N07","secret":"4180f837d3","server":"65535","farm":66,"title":"..nur wenige Stockentenpaar schwimmen umher.","ispublic":1,"isfriend":0,"isfamily":0},{"id":"52784731017","owner":"40056159@N05","secret":"6bf35261ea","server":"65535","farm":66,"title":"Mallard","ispublic":1,"isfriend":0,"isfamily":0},{"id":"52785261021","owner":"181824639@N02","secret":"b52ee97d5b","server":"65535","farm":66,"title":"Canard colvert hybride ( Anas platyrhynchos )","ispublic":1,"isfriend":0,"isfamily":0},{"id":"52785260176","owner":"188490851@N05","secret":"a676ea95ae","server":"65535","farm":66,"title":"cpx_mah 193W","ispublic":1,"isfriend":0,"isfamily":0},{"id":"52785654830","owner":"188490851@N05","secret":"aa86e9e87a","server":"65535","farm":66,"title":"Ducks","ispublic":1,"isfriend":0,"isfamily":0},{"id":"52785711798","owner":"188490851@N05","secret":"d4c6c9fae4","server":"65535","farm":66,"title":"Mealtime","ispublic":1,"isfriend":0,"isfamily":0},{"id":"52784659497","owner":"12639178@N07","secret":"06cbd89e6d","server":"65535","farm":66,"title":"Stockente (Anas platyrhynchos)","ispublic":1,"isfriend":0,"isfamily":0},{"id":"52785105591","owner":"169771858@N03","secret":"77f0755357","server":"65535","farm":66,"title":"Mallard (2023-01-06 #5)","ispublic":1,"isfriend":0,"isfamily":0},{"id":"52785309434","owner":"12639178@N07","secret":"6a4fd007da","server":"65535","farm":66,"title":"fast perfektes Versteck:-)","ispublic":1,"isfriend":0,"isfamily":0},{"id":"52785526408","owner":"12639178@N07","secret":"6e4b3d7b71","server":"65535","farm":66,"title":"Stockenten Paar","ispublic":1,"isfriend":0,"isfamily":0},{"id":"52785307973","owner":"101239590@N03","secret":"6a19042abc","server":"65535","farm":66,"title":"Canards-Colverts - Mallard-Duck","ispublic":1,"isfriend":0,"isfamily":0},{"id":"52785027859","owner":"12639178@N07","secret":"4d33683f2b","server":"65535","farm":66,"title":"er folgt ihr :-)","ispublic":1,"isfriend":0,"isfamily":0},{"id":"52785066273","owner":"152119783@N06","secret":"0635b18870","server":"65535","farm":66,"title":"Mallard (Anas platyrhynchos)","ispublic":1,"isfriend":0,"isfamily":0},{"id":"52784231891","owner":"11815777@N07","secret":"2f73c49b03","server":"65535","farm":66,"title":"Easy to overlook","ispublic":1,"isfriend":0,"isfamily":0},{"id":"52784439429","owner":"12639178@N07","secret":"ea9fde8532","server":"65535","farm":66,"title":"Stockente","ispublic":1,"isfriend":0,"isfamily":0},{"id":"52784602513","owner":"31432833@N02","secret":"39847423e8","server":"65535","farm":66,"title":"A Mallard Swim In Springtime","ispublic":1,"isfriend":0,"isfamily":0},{"id":"52784266640","owner":"145644890@N02","secret":"c8412b2654","server":"65535","farm":66,"title":"Redshanks and Mallard","ispublic":1,"isfriend":0,"isfamily":0},{"id":"52784075774","owner":"12639178@N07","secret":"e0ed7a27a7","server":"65535","farm":66,"title":"Stockente (Anas platyrhynchos) (1)","ispublic":1,"isfriend":0,"isfamily":0},{"id":"52784024800","owner":"39983970@N08","secret":"d10ee731ef","server":"65535","farm":66,"title":"Miss Duck 2023","ispublic":1,"isfriend":0,"isfamily":0},{"id":"52783702429","owner":"19034378@N05","secret":"0462b78ae0","server":"65535","farm":66,"title":"A Mallard (female) in Stockholm","ispublic":1,"isfriend":0,"isfamily":0},{"id":"52782704062","owner":"76454790@N02","secret":"129e58019e","server":"65535","farm":66,"title":"Mallard (Anas platyrhynchos)","ispublic":1,"isfriend":0,"isfamily":0},{"id":"52783074316","owner":"169771858@N03","secret":"804e513017","server":"65535","farm":66,"title":"Mallards (2023-01-06 #10)","ispublic":1,"isfriend":0,"isfamily":0},{"id":"52783449033","owner":"104988466@N08","secret":"582752c00e","server":"65535","farm":66,"title":"50. Canard colvert - Anas platyrhynchos - Mallard","ispublic":1,"isfriend":0,"isfamily":0},{"id":"52783448813","owner":"104988466@N08","secret":"216d77bf5f","server":"65535","farm":66,"title":"51. Canard colvert - Anas platyrhynchos - Mallard","ispublic":1,"isfriend":0,"isfamily":0},{"id":"52782854776","owner":"12639178@N07","secret":"09cb54c176","server":"65535","farm":66,"title":"Stockente Paar bei der Gefiederpflege","ispublic":1,"isfriend":0,"isfamily":0},{"id":"52782265227","owner":"145373566@N06","secret":"a6c944444f","server":"65535","farm":66,"title":"I'M HAPPY \ud83d\ude0a","ispublic":1,"isfriend":0,"isfamily":0},{"id":"52783212045","owner":"145373566@N06","secret":"d3eb9925b6","server":"65535","farm":66,"title":"I'M NOT HAPPY \u2639","ispublic":1,"isfriend":0,"isfamily":0},{"id":"52783023884","owner":"152268162@N06","secret":"8fa51e05be","server":"65535","farm":66,"title":"March 31, 2023. The 401st day of war in Ukraine. Anas platyrhynchos.","ispublic":1,"isfriend":0,"isfamily":0},{"id":"52783243003","owner":"51433704@N06","secret":"2e100047a2","server":"65535","farm":66,"title":"Mallard Flight","ispublic":1,"isfriend":0,"isfamily":0},{"id":"52781584297","owner":"12639178@N07","secret":"26e4a99116","server":"65535","farm":66,"title":"Durst ist schlimmer als Heimweh","ispublic":1,"isfriend":0,"isfamily":0},{"id":"52782121991","owner":"60361833@N03","secret":"527b54c84a","server":"65535","farm":66,"title":"Mallard_26","ispublic":1,"isfriend":0,"isfamily":0},{"id":"52782130580","owner":"145489125@N03","secret":"5354048c2f","server":"65535","farm":66,"title":"Mallard ( Anas platyrhynchos ) Female ... Filey Dams , Yorkshire","ispublic":1,"isfriend":0,"isfamily":0},{"id":"52781176702","owner":"145489125@N03","secret":"9548784460","server":"65535","farm":66,"title":"Mallard ( Anas platyrhynchos ) Drake ... Filey Dams , Yorkshire","ispublic":1,"isfriend":0,"isfamily":0},{"id":"52782091620","owner":"12639178@N07","secret":"82e461a43e","server":"65535","farm":66,"title":"Stress unter Erpeln","ispublic":1,"isfriend":0,"isfamily":0},{"id":"52782039665","owner":"12639178@N07","secret":"ff813a605e","server":"65535","farm":66,"title":"Stockenten und Rotschenkel","ispublic":1,"isfriend":0,"isfamily":0},{"id":"52782039243","owner":"197990929@N02","secret":"096c40d525","server":"65535","farm":66,"title":"ANADE AZULON (Anas platyrhynchos)","ispublic":1,"isfriend":0,"isfamily":0},{"id":"52781149574","owner":"12639178@N07","secret":"93b8098260","server":"65535","farm":66,"title":"Stockente (Anas platyrhynchos)","ispublic":1,"isfriend":0,"isfamily":0},{"id":"52780366077","owner":"12639178@N07","secret":"623cdc52cf","server":"65535","farm":66,"title":"Stockente (Anas platyrhynchos)","ispublic":1,"isfriend":0,"isfamily":0},{"id":"52780844779","owner":"12639178@N07","secret":"c3622ce53a","server":"65535","farm":66,"title":"Stockente an der Hase","ispublic":1,"isfriend":0,"isfamily":0},{"id":"52780988858","owner":"28631427@N00","secret":"44f1e8aaee","server":"65535","farm":66,"title":"Mallards","ispublic":1,"isfriend":0,"isfamily":0},{"id":"52780517645","owner":"12639178@N07","secret":"969a5af8c7","server":"65535","farm":66,"title":"Stockente (Anas platyrhynchos)","ispublic":1,"isfriend":0,"isfamily":0},{"id":"52780258854","owner":"194653030@N04","secret":"ecd276a3f4","server":"65535","farm":66,"title":"\u041a\u0440\u044f\u043a\u0432\u0430\/Anas platyrhynchos","ispublic":1,"isfriend":0,"isfamily":0},{"id":"52779455802","owner":"169771858@N03","secret":"05d5b60368","server":"65535","farm":66,"title":"Mallard and Canadian Goose (2023-01-06 #3)","ispublic":1,"isfriend":0,"isfamily":0},{"id":"52780401055","owner":"12639178@N07","secret":"30a9e6b779","server":"65535","farm":66,"title":"Stockente (Anas platyrhynchos)","ispublic":1,"isfriend":0,"isfamily":0},{"id":"52780411223","owner":"77491310@N03","secret":"1a1dd10e54","server":"65535","farm":66,"title":"Germana","ispublic":1,"isfriend":0,"isfamily":0},{"id":"52780119314","owner":"12639178@N07","secret":"70e2f2bf31","server":"65535","farm":66,"title":"Br\u00fctende Stockenten im Steinbruch Weiler zum Stein","ispublic":1,"isfriend":0,"isfamily":0},{"id":"52780330148","owner":"35114754@N00","secret":"e83e083958","server":"65535","farm":66,"title":"20230321-DSC01239","ispublic":1,"isfriend":0,"isfamily":0},{"id":"52780106949","owner":"35114754@N00","secret":"1222028049","server":"65535","farm":66,"title":"20230327-DSC01379","ispublic":1,"isfriend":0,"isfamily":0},{"id":"52779322942","owner":"35114754@N00","secret":"33fd6e2f3e","server":"65535","farm":66,"title":"20230327-DSC01390","ispublic":1,"isfriend":0,"isfamily":0},{"id":"52780106449","owner":"35114754@N00","secret":"d3cbaa5c15","server":"65535","farm":66,"title":"20230327-DSC01461","ispublic":1,"isfriend":0,"isfamily":0},{"id":"52779215577","owner":"12639178@N07","secret":"158a672ae3","server":"65535","farm":66,"title":"Stockente","ispublic":1,"isfriend":0,"isfamily":0},{"id":"52780221383","owner":"12639178@N07","secret":"b7915a3b39","server":"65535","farm":66,"title":"Stockente","ispublic":1,"isfriend":0,"isfamily":0},{"id":"52780213178","owner":"12639178@N07","secret":"bf1b6b1ba0","server":"65535","farm":66,"title":"Stockente","ispublic":1,"isfriend":0,"isfamily":0},{"id":"52779206862","owner":"12639178@N07","secret":"c67634dfa0","server":"65535","farm":66,"title":"Stockente als Futterdieb","ispublic":1,"isfriend":0,"isfamily":0},{"id":"52781315150","owner":"12639178@N07","secret":"5a2cd7f88a","server":"65535","farm":66,"title":"Stockente (Anas platyrhynchos)","ispublic":1,"isfriend":0,"isfamily":0}]},"stat":"ok"}