{"photos":{"page":1,"pages":46,"perpage":100,"total":4560,"photo":[{"id":"52778820324","owner":"36611483@N03","secret":"4333b7fc74","server":"65535","farm":66,"title":"Marbled Godwits","ispublic":1,"isfriend":0,"isfamily":0},{"id":"52759117570","owner":"66855284@N03","secret":"9271ffd7e7","server":"65535","farm":66,"title":"Seacliff State Beach 2016 04 24 17","ispublic":1,"isfriend":0,"isfamily":0},{"id":"52759194768","owner":"66855284@N03","secret":"0c7c4d345f","server":"65535","farm":66,"title":"Seacliff State Beach 2016 04 24 23","ispublic":1,"isfriend":0,"isfamily":0},{"id":"52758951539","owner":"66855284@N03","secret":"b101068f27","server":"65535","farm":66,"title":"Seacliff State Beach 2016 04 24 20","ispublic":1,"isfriend":0,"isfamily":0},{"id":"52758145647","owner":"66855284@N03","secret":"1066e1a6ec","server":"65535","farm":66,"title":"Seacliff State Beach 2016 04 24 16","ispublic":1,"isfriend":0,"isfamily":0},{"id":"52759092170","owner":"66855284@N03","secret":"543326ffc5","server":"65535","farm":66,"title":"Seacliff State Beach 2016 04 24 22","ispublic":1,"isfriend":0,"isfamily":0},{"id":"52758933069","owner":"66855284@N03","secret":"9e37d650cb","server":"65535","farm":66,"title":"Seacliff State Beach 2016 04 24 15","ispublic":1,"isfriend":0,"isfamily":0},{"id":"52758605001","owner":"66855284@N03","secret":"0a75e088bb","server":"65535","farm":66,"title":"Seacliff State Beach 2016 04 24 10","ispublic":1,"isfriend":0,"isfamily":0},{"id":"52758842084","owner":"66855284@N03","secret":"8779094244","server":"65535","farm":66,"title":"Seacliff State Beach 2016 04 24 21","ispublic":1,"isfriend":0,"isfamily":0},{"id":"52756526619","owner":"26520320@N03","secret":"ccd728d2e0","server":"65535","farm":66,"title":"_BAP1249","ispublic":1,"isfriend":0,"isfamily":0},{"id":"52756280826","owner":"26520320@N03","secret":"56be6ae902","server":"65535","farm":66,"title":"_BAP1248","ispublic":1,"isfriend":0,"isfamily":0},{"id":"52755750788","owner":"195537536@N03","secret":"6ed4017e60","server":"65535","farm":66,"title":"Marbled Godwit (Limosa fedoa)","ispublic":1,"isfriend":0,"isfamily":0},{"id":"52748267863","owner":"145466593@N08","secret":"b4df1fdd87","server":"65535","farm":66,"title":"Marbled Godwit","ispublic":1,"isfriend":0,"isfamily":0},{"id":"52737986804","owner":"73431753@N00","secret":"2b2f42ebe5","server":"65535","farm":66,"title":"Long-billed Dowitcher and Marbled Godwit visiting seasonal wetland","ispublic":1,"isfriend":0,"isfamily":0},{"id":"52737633106","owner":"73431753@N00","secret":"8461c6fcab","server":"65535","farm":66,"title":"Marbled Godwits and American White Pelican on seasonal wetland","ispublic":1,"isfriend":0,"isfamily":0},{"id":"52735509241","owner":"65788177@N02","secret":"b9599d4a62","server":"65535","farm":66,"title":"Marbled Godwit","ispublic":1,"isfriend":0,"isfamily":0},{"id":"52735569106","owner":"73431753@N00","secret":"7dec78504c","server":"65535","farm":66,"title":"Marbled Godwit on seasonal wetland","ispublic":1,"isfriend":0,"isfamily":0},{"id":"52734661383","owner":"62043870@N05","secret":"35a5e478e6","server":"65535","farm":66,"title":"Marbled Godwit, Limosa fedoa","ispublic":1,"isfriend":0,"isfamily":0},{"id":"52715631462","owner":"26520320@N03","secret":"e88d17874e","server":"65535","farm":66,"title":"_BAP0569","ispublic":1,"isfriend":0,"isfamily":0},{"id":"52716365639","owner":"26520320@N03","secret":"48e229a73d","server":"65535","farm":66,"title":"_BAP0219","ispublic":1,"isfriend":0,"isfamily":0},{"id":"52716365259","owner":"26520320@N03","secret":"b5eff138c1","server":"65535","farm":66,"title":"_BAP0218","ispublic":1,"isfriend":0,"isfamily":0},{"id":"52714568228","owner":"62043870@N05","secret":"5eca11ce14","server":"65535","farm":66,"title":"Marbled Godwit, Limosa fedoa","ispublic":1,"isfriend":0,"isfamily":0},{"id":"52714446475","owner":"73431753@N00","secret":"8ff9bd3bdd","server":"65535","farm":66,"title":"IMG_6885","ispublic":1,"isfriend":0,"isfamily":0},{"id":"52709755283","owner":"12530381@N07","secret":"8c4d46340c","server":"65535","farm":66,"title":"Marbled Godwit (Limosa fedoa) at Glorietta Bay (2\/2\/2023)","ispublic":1,"isfriend":0,"isfamily":0},{"id":"52705122118","owner":"187348121@N05","secret":"a33d31d903","server":"65535","farm":66,"title":"Marbled Godwit At Sunset","ispublic":1,"isfriend":0,"isfamily":0},{"id":"52703977705","owner":"75417681@N00","secret":"c10e73de06","server":"65535","farm":66,"title":"Marbled Godwit (Limosa fedoa)-21 Feb-23 TIM78197","ispublic":1,"isfriend":0,"isfamily":0},{"id":"52702021136","owner":"51433704@N06","secret":"8e6759f597","server":"65535","farm":66,"title":"Marbled Godwit","ispublic":1,"isfriend":0,"isfamily":0},{"id":"52695992525","owner":"62043870@N05","secret":"ffa172c664","server":"65535","farm":66,"title":"Marbled Godwit, Limosa fedoa","ispublic":1,"isfriend":0,"isfamily":0},{"id":"52690408863","owner":"25531047@N00","secret":"05caee0a63","server":"65535","farm":66,"title":"Marbled Godwit","ispublic":1,"isfriend":0,"isfamily":0},{"id":"52690303685","owner":"65788177@N02","secret":"42e47704cd","server":"65535","farm":66,"title":"Marbled Godwit","ispublic":1,"isfriend":0,"isfamily":0},{"id":"52677899603","owner":"130021529@N02","secret":"92770ed137","server":"65535","farm":66,"title":"Limosa fedoa | Marbled Godwit | pr\u00e4riespov","ispublic":1,"isfriend":0,"isfamily":0},{"id":"52677821845","owner":"130021529@N02","secret":"a3c12f1a46","server":"65535","farm":66,"title":"Limosa fedoa | Marbled Godwit | pr\u00e4riespov","ispublic":1,"isfriend":0,"isfamily":0},{"id":"52668945603","owner":"81058247@N08","secret":"d8b474faea","server":"65535","farm":66,"title":"Marbled Godwit (Limosa fedoa) and American Avocets (Recurvirostra americana)","ispublic":1,"isfriend":0,"isfamily":0},{"id":"52665698831","owner":"8086030@N03","secret":"55e247e33f","server":"65535","farm":66,"title":"Marbled Godwit, Limosa fedoa","ispublic":1,"isfriend":0,"isfamily":0},{"id":"52665199107","owner":"8086030@N03","secret":"553ff07049","server":"65535","farm":66,"title":"Marbled Godwit, Limosa fedoa","ispublic":1,"isfriend":0,"isfamily":0},{"id":"52662215683","owner":"8086030@N03","secret":"ef790c16ca","server":"65535","farm":66,"title":"Marbled Godwit, Limosa fedoa","ispublic":1,"isfriend":0,"isfamily":0},{"id":"52647549766","owner":"62043870@N05","secret":"d867a36d13","server":"65535","farm":66,"title":"Marbled Godwit, Limosa fedoa","ispublic":1,"isfriend":0,"isfamily":0},{"id":"52638238725","owner":"8065544@N08","secret":"d288cc2b83","server":"65535","farm":66,"title":"Marbled Godwit (Limosa fedoa)","ispublic":1,"isfriend":0,"isfamily":0},{"id":"52629815294","owner":"40724294@N04","secret":"617504229c","server":"65535","farm":66,"title":"Walk About","ispublic":1,"isfriend":0,"isfamily":0},{"id":"52612554149","owner":"76782619@N04","secret":"dda2cb3185","server":"65535","farm":66,"title":"Marbled Godwit","ispublic":1,"isfriend":0,"isfamily":0},{"id":"52605661811","owner":"62043870@N05","secret":"1b6e42d5c1","server":"65535","farm":66,"title":"Marbled Godwit, Limosa fedoa","ispublic":1,"isfriend":0,"isfamily":0},{"id":"52594590551","owner":"60361833@N03","secret":"dfc3d1fffb","server":"65535","farm":66,"title":"Marbled Godwit_12","ispublic":1,"isfriend":0,"isfamily":0},{"id":"52587128907","owner":"7856934@N03","secret":"fcbfd078db","server":"65535","farm":66,"title":"Marbled Godwit","ispublic":1,"isfriend":0,"isfamily":0},{"id":"52587849218","owner":"7856934@N03","secret":"91dd3dda10","server":"65535","farm":66,"title":"Marbled Godwit","ispublic":1,"isfriend":0,"isfamily":0},{"id":"52585447462","owner":"88932760@N08","secret":"981a12c0b4","server":"65535","farm":66,"title":"Hitting the Landing","ispublic":1,"isfriend":0,"isfamily":0},{"id":"52571742491","owner":"26520320@N03","secret":"a0b4a86152","server":"65535","farm":66,"title":"DSC02261","ispublic":1,"isfriend":0,"isfamily":0},{"id":"52572190095","owner":"26520320@N03","secret":"38597d10a1","server":"65535","farm":66,"title":"DSC02258","ispublic":1,"isfriend":0,"isfamily":0},{"id":"52572189180","owner":"26520320@N03","secret":"3b7304a4b1","server":"65535","farm":66,"title":"DSC02256","ispublic":1,"isfriend":0,"isfamily":0},{"id":"52572261283","owner":"26520320@N03","secret":"4eafaf0968","server":"65535","farm":66,"title":"DSC02212","ispublic":1,"isfriend":0,"isfamily":0},{"id":"52572166795","owner":"26520320@N03","secret":"3111e9ab6e","server":"65535","farm":66,"title":"DSC02176","ispublic":1,"isfriend":0,"isfamily":0},{"id":"52572245388","owner":"26520320@N03","secret":"07f251fc2c","server":"65535","farm":66,"title":"DSC02175","ispublic":1,"isfriend":0,"isfamily":0},{"id":"52570888238","owner":"62043870@N05","secret":"9f8d405d84","server":"65535","farm":66,"title":"Sanderlings (Calidris alba) and Marbled Godwit (Limosa fedoa)","ispublic":1,"isfriend":0,"isfamily":0},{"id":"52568213431","owner":"62043870@N05","secret":"0f827fdb76","server":"65535","farm":66,"title":"Marbled Godwit (Limosa fedoa) and Whimbrels (Numenius phaeopus)","ispublic":1,"isfriend":0,"isfamily":0},{"id":"52558633617","owner":"88932760@N08","secret":"0144ce68da","server":"65535","farm":66,"title":"The Flick","ispublic":1,"isfriend":0,"isfamily":0},{"id":"52546248359","owner":"62043870@N05","secret":"5cbab926d7","server":"65535","farm":66,"title":"Marbled Godwit, Limosa fedoa","ispublic":1,"isfriend":0,"isfamily":0},{"id":"52533204514","owner":"127114259@N08","secret":"3c4f87d174","server":"65535","farm":66,"title":"Not Like the Others","ispublic":1,"isfriend":0,"isfamily":0},{"id":"52533281695","owner":"62043870@N05","secret":"7f1e7d99eb","server":"65535","farm":66,"title":"Marbled Godwit, Limosa fedoa","ispublic":1,"isfriend":0,"isfamily":0},{"id":"52530602185","owner":"17654080@N08","secret":"a20b3aa579","server":"65535","farm":66,"title":"Marbled Godwit - Chincoteague, VA - 11\/25\/2022","ispublic":1,"isfriend":0,"isfamily":0},{"id":"52530669718","owner":"17654080@N08","secret":"b3d31cdb38","server":"65535","farm":66,"title":"Marbled Godwit - Chincoteague, VA - 11\/25\/2022","ispublic":1,"isfriend":0,"isfamily":0},{"id":"52527226891","owner":"9243885@N07","secret":"5c832178e2","server":"65535","farm":66,"title":"2022_01_12_5DMk4_52884","ispublic":1,"isfriend":0,"isfamily":0},{"id":"52525655251","owner":"9731845@N02","secret":"0f9a89ee1b","server":"65535","farm":66,"title":"Marbled Godwit (Limosa fedoa)","ispublic":1,"isfriend":0,"isfamily":0},{"id":"52526204483","owner":"9731845@N02","secret":"13dda86369","server":"65535","farm":66,"title":"Limosa fedoa, Marbled Godwit","ispublic":1,"isfriend":0,"isfamily":0},{"id":"52508372658","owner":"62501682@N00","secret":"b6208400b0","server":"65535","farm":66,"title":"Marbled godwit on North Beach, Fort DeSoto Park, St. Petersburg, Florida","ispublic":1,"isfriend":0,"isfamily":0},{"id":"52496449088","owner":"41710899@N08","secret":"22e11ab614","server":"65535","farm":66,"title":"Marbled Godwit","ispublic":1,"isfriend":0,"isfamily":0},{"id":"52496001449","owner":"28867468@N08","secret":"6a7986f6be","server":"65535","farm":66,"title":"Marbled Godwits Pausing on the Massive Kelp Wrack","ispublic":1,"isfriend":0,"isfamily":0},{"id":"52487575777","owner":"7856934@N03","secret":"0e80031e0d","server":"65535","farm":66,"title":"Marbled Godwit","ispublic":1,"isfriend":0,"isfamily":0},{"id":"52484040980","owner":"59777454@N02","secret":"2105452f41","server":"65535","farm":66,"title":"Marbled Godwit adult breeding Tekiela K0A1226","ispublic":1,"isfriend":0,"isfamily":0},{"id":"52474447097","owner":"60216873@N05","secret":"806d19d3bd","server":"65535","farm":66,"title":"Marbled Godwit in Flight","ispublic":1,"isfriend":0,"isfamily":0},{"id":"52471665478","owner":"33665418@N06","secret":"d505e0ee59","server":"65535","farm":66,"title":"Godwit","ispublic":1,"isfriend":0,"isfamily":0},{"id":"52460663219","owner":"62043870@N05","secret":"dd2d8bcf86","server":"65535","farm":66,"title":"Marbled Godwits, Limosa fedoa","ispublic":1,"isfriend":0,"isfamily":0},{"id":"52444352789","owner":"91827451@N06","secret":"d40bb173bb","server":"65535","farm":66,"title":"DSC_3319","ispublic":1,"isfriend":0,"isfamily":0},{"id":"52444590558","owner":"91827451@N06","secret":"efe4ecae76","server":"65535","farm":66,"title":"DSC_3321","ispublic":1,"isfriend":0,"isfamily":0},{"id":"52444517660","owner":"91827451@N06","secret":"536e2248f2","server":"65535","farm":66,"title":"DSC_3323","ispublic":1,"isfriend":0,"isfamily":0},{"id":"52428634747","owner":"77903093@N00","secret":"696e078155","server":"65535","farm":66,"title":"150826 SFO Marriott-05.jpg","ispublic":1,"isfriend":0,"isfamily":0},{"id":"52427330007","owner":"196264892@N08","secret":"e82a41198f","server":"65535","farm":66,"title":"Bar-tailed Godwit","ispublic":1,"isfriend":0,"isfamily":0},{"id":"52428118554","owner":"196264892@N08","secret":"354537e84d","server":"65535","farm":66,"title":"Bar-tailed Godwit","ispublic":1,"isfriend":0,"isfamily":0},{"id":"52427328492","owner":"196264892@N08","secret":"9d2642b0d7","server":"65535","farm":66,"title":"Bar-tailed Godwit","ispublic":1,"isfriend":0,"isfamily":0},{"id":"52428287390","owner":"196264892@N08","secret":"d6fc37e038","server":"65535","farm":66,"title":"Bar-tailed Godwit","ispublic":1,"isfriend":0,"isfamily":0},{"id":"52428222560","owner":"196264892@N08","secret":"46efd9f382","server":"65535","farm":66,"title":"Godwit and Willet","ispublic":1,"isfriend":0,"isfamily":0},{"id":"52428285663","owner":"196264892@N08","secret":"2c28426eca","server":"65535","farm":66,"title":"Godwit Flock, Westport (1)","ispublic":1,"isfriend":0,"isfamily":0},{"id":"52427766766","owner":"196264892@N08","secret":"69dd20aef3","server":"65535","farm":66,"title":"Godwit Flock, Westport","ispublic":1,"isfriend":0,"isfamily":0},{"id":"52427765926","owner":"196264892@N08","secret":"c75e21a120","server":"65535","farm":66,"title":"Godwit Flock, Westport","ispublic":1,"isfriend":0,"isfamily":0},{"id":"52427261292","owner":"196264892@N08","secret":"6c24193259","server":"65535","farm":66,"title":"Godwit Flock, Westport","ispublic":1,"isfriend":0,"isfamily":0},{"id":"52428050914","owner":"196264892@N08","secret":"059007887e","server":"65535","farm":66,"title":"Godwit Flock, Westport","ispublic":1,"isfriend":0,"isfamily":0},{"id":"52716413149","owner":"26520320@N03","secret":"495df15f66","server":"65535","farm":66,"title":"_BAP0572","ispublic":1,"isfriend":0,"isfamily":0},{"id":"52715619502","owner":"26520320@N03","secret":"dee81d975d","server":"65535","farm":66,"title":"_BAP0447","ispublic":1,"isfriend":0,"isfamily":0},{"id":"52716623573","owner":"26520320@N03","secret":"7ecb823c70","server":"65535","farm":66,"title":"_BAP0443","ispublic":1,"isfriend":0,"isfamily":0},{"id":"52672318935","owner":"62043870@N05","secret":"0f6b92fda0","server":"65535","farm":66,"title":"Marbled Godwit, Limosa fedoa","ispublic":1,"isfriend":0,"isfamily":0},{"id":"52670617266","owner":"81058247@N08","secret":"9d2cf7ca03","server":"65535","farm":66,"title":"Marbled Godwit (Limosa fedoa) and American Avocets (Recurvirostra americana)","ispublic":1,"isfriend":0,"isfamily":0},{"id":"52670907719","owner":"81058247@N08","secret":"05a945d842","server":"65535","farm":66,"title":"American Avocets (Recurvirostra americana) and Marbled Godwit (Limosa fedoa)","ispublic":1,"isfriend":0,"isfamily":0},{"id":"52668938873","owner":"81058247@N08","secret":"2f1861ceef","server":"65535","farm":66,"title":"Marbled Godwit (Limosa fedoa) and American Avocets (Recurvirostra americana)","ispublic":1,"isfriend":0,"isfamily":0},{"id":"52668872335","owner":"81058247@N08","secret":"31c8dd8067","server":"65535","farm":66,"title":"Marbled Godwit (Limosa fedoa) and American Avocets (Recurvirostra americana)","ispublic":1,"isfriend":0,"isfamily":0},{"id":"52668872260","owner":"81058247@N08","secret":"44f8bd5f22","server":"65535","farm":66,"title":"Marbled Godwit (Limosa fedoa)","ispublic":1,"isfriend":0,"isfamily":0},{"id":"52666606028","owner":"62043870@N05","secret":"dab05473cf","server":"65535","farm":66,"title":"Marbled Godwit, Limosa fedoa","ispublic":1,"isfriend":0,"isfamily":0},{"id":"52580858210","owner":"153973412@N04","secret":"df5b53426d","server":"65535","farm":66,"title":"Marbled Godwit-Limosa fedoa, Los Angles, CA","ispublic":1,"isfriend":0,"isfamily":0},{"id":"52531946692","owner":"197033070@N04","secret":"cf71627e32","server":"65535","farm":66,"title":"Marbled godwit (Limosa fedoa)","ispublic":1,"isfriend":0,"isfamily":0},{"id":"52528850290","owner":"197033070@N04","secret":"1280a2f68a","server":"65535","farm":66,"title":"Marbled godwit (Limosa fedoa)","ispublic":1,"isfriend":0,"isfamily":0},{"id":"52428287100","owner":"196264892@N08","secret":"ea8217327e","server":"65535","farm":66,"title":"Bar-tailed Godwit","ispublic":1,"isfriend":0,"isfamily":0},{"id":"52428286800","owner":"196264892@N08","secret":"9497b4cd97","server":"65535","farm":66,"title":"Bar-tailed Godwit","ispublic":1,"isfriend":0,"isfamily":0},{"id":"52428349273","owner":"196264892@N08","secret":"128cae93b7","server":"65535","farm":66,"title":"Bar-tailed Godwit","ispublic":1,"isfriend":0,"isfamily":0}]},"stat":"ok"}