{"photos":{"page":1,"pages":33,"perpage":100,"total":3296,"photo":[{"id":"52679234064","owner":"47533293@N04","secret":"6a86a9b097","server":"65535","farm":66,"title":"Marsh wren, Cistothorus palustris","ispublic":1,"isfriend":0,"isfamily":0},{"id":"52631426772","owner":"47533293@N04","secret":"de3c273206","server":"65535","farm":66,"title":"Marsh wren, Cistothorus palustris","ispublic":1,"isfriend":0,"isfamily":0},{"id":"52623046639","owner":"38514062@N03","secret":"7e271f1ecb","server":"65535","farm":66,"title":"Marsh Wren (Cistothorus palustris)","ispublic":1,"isfriend":0,"isfamily":0},{"id":"52622563444","owner":"73431753@N00","secret":"13f628469d","server":"65535","farm":66,"title":"Ballona Wetlands Marsh Wren","ispublic":1,"isfriend":0,"isfamily":0},{"id":"52592227947","owner":"30979614@N07","secret":"5b7ea713cf","server":"65535","farm":66,"title":"2022-05-10 Montrose Point 2","ispublic":1,"isfriend":0,"isfamily":0},{"id":"52584702746","owner":"76288515@N07","secret":"e0945f2339","server":"65535","farm":66,"title":"Marsh Wren Cistothorus palustris","ispublic":1,"isfriend":0,"isfamily":0},{"id":"52584966384","owner":"76288515@N07","secret":"3abfc0d80e","server":"65535","farm":66,"title":"Marsh Wren Cistothorus palustris","ispublic":1,"isfriend":0,"isfamily":0},{"id":"52584966359","owner":"76288515@N07","secret":"0f61610918","server":"65535","farm":66,"title":"Marsh Wren Cistothorus palustris","ispublic":1,"isfriend":0,"isfamily":0},{"id":"52585137770","owner":"76288515@N07","secret":"1c48419dff","server":"65535","farm":66,"title":"Marsh Wren Cistothorus palustris","ispublic":1,"isfriend":0,"isfamily":0},{"id":"52580812403","owner":"153973412@N04","secret":"ce8e69f41f","server":"65535","farm":66,"title":"Marsh Wren-Cistothorus palustris, Iowa City, IA","ispublic":1,"isfriend":0,"isfamily":0},{"id":"52575752501","owner":"151361315@N06","secret":"6350258a09","server":"65535","farm":66,"title":"Marsh Wren on cattail in marsh \u2022 Montezuma NWR, NY \u2022 2015","ispublic":1,"isfriend":0,"isfamily":0},{"id":"52545540697","owner":"30979614@N07","secret":"d83868352b","server":"65535","farm":66,"title":"2020-09-02 Rollins Savanna","ispublic":1,"isfriend":0,"isfamily":0},{"id":"52543923123","owner":"33610210@N05","secret":"e4064891e0","server":"65535","farm":66,"title":"Marsh Wren, Cistothorus palustris","ispublic":1,"isfriend":0,"isfamily":0},{"id":"52543376351","owner":"33610210@N05","secret":"8385388b9e","server":"65535","farm":66,"title":"Marsh Wren, Cistothorus palustris","ispublic":1,"isfriend":0,"isfamily":0},{"id":"52542693772","owner":"47020313@N08","secret":"3137d88a8d","server":"65535","farm":66,"title":"Marsh Wren IMG_8184edtsg","ispublic":1,"isfriend":0,"isfamily":0},{"id":"52534105128","owner":"34238008@N02","secret":"f9fa3c5169","server":"65535","farm":66,"title":"Marsh Wren, adult (Cistothorus palustris)","ispublic":1,"isfriend":0,"isfamily":0},{"id":"52515553196","owner":"35259356@N06","secret":"aa48128d37","server":"65535","farm":66,"title":"Wren: Marsh Wren","ispublic":1,"isfriend":0,"isfamily":0},{"id":"52495240191","owner":"64557331@N04","secret":"b18c1827cc","server":"65535","farm":66,"title":"Marsh Wren - (Cistothorus palustris)_06112021_3","ispublic":1,"isfriend":0,"isfamily":0},{"id":"52484114348","owner":"59777454@N02","secret":"4e12e7031a","server":"65535","farm":66,"title":"Marsh Wren Tekiela TEK0641","ispublic":1,"isfriend":0,"isfamily":0},{"id":"52483071917","owner":"59777454@N02","secret":"7bc77e949c","server":"65535","farm":66,"title":"Marsh Wren Tekiela TEK1069","ispublic":1,"isfriend":0,"isfamily":0},{"id":"52484018730","owner":"59777454@N02","secret":"df2242deea","server":"65535","farm":66,"title":"Marsh Wren Tekiela TEK0114","ispublic":1,"isfriend":0,"isfamily":0},{"id":"52483827509","owner":"59777454@N02","secret":"6b1e360812","server":"65535","farm":66,"title":"Marsh Wren Tekiela TEK7866","ispublic":1,"isfriend":0,"isfamily":0},{"id":"52426965448","owner":"187792860@N04","secret":"5e821278e6","server":"65535","farm":66,"title":"Marsh Wren (Cistothorus palustris)","ispublic":1,"isfriend":0,"isfamily":0},{"id":"52418822339","owner":"49114357@N08","secret":"418e0d7e87","server":"65535","farm":66,"title":"Marsh Wren","ispublic":1,"isfriend":0,"isfamily":0},{"id":"52416442051","owner":"32320154@N05","secret":"53f5a55baf","server":"65535","farm":66,"title":"Marsh Wren","ispublic":1,"isfriend":0,"isfamily":0},{"id":"52416883945","owner":"32320154@N05","secret":"08bce2c67d","server":"65535","farm":66,"title":"Marsh Wren","ispublic":1,"isfriend":0,"isfamily":0},{"id":"52416883795","owner":"32320154@N05","secret":"e9d763292d","server":"65535","farm":66,"title":"Marsh Wren","ispublic":1,"isfriend":0,"isfamily":0},{"id":"52372857034","owner":"37566919@N02","secret":"2738d878eb","server":"65535","farm":66,"title":"Marsh Wren","ispublic":1,"isfriend":0,"isfamily":0},{"id":"52368962917","owner":"129803374@N05","secret":"c1e9ba0ac6","server":"65535","farm":66,"title":"Marsh Wren (Cistothorus palustris)","ispublic":1,"isfriend":0,"isfamily":0},{"id":"52366936345","owner":"57716827@N08","secret":"79b5e1ce5c","server":"65535","farm":66,"title":"Marsh Wren","ispublic":1,"isfriend":0,"isfamily":0},{"id":"52353389091","owner":"33573751@N04","secret":"ab0b772f85","server":"65535","farm":66,"title":"Marsh Wren (Cistothorus palustris) - Stewart B. McKinney NWR, Stratford, Connecticut, USA","ispublic":1,"isfriend":0,"isfamily":0},{"id":"52338528254","owner":"131037795@N03","secret":"9d3a0afc3f","server":"65535","farm":66,"title":"Marsh Wren (Cistothorus palustris)","ispublic":1,"isfriend":0,"isfamily":0},{"id":"52338224576","owner":"131037795@N03","secret":"119266d5ca","server":"65535","farm":66,"title":"Marsh Wren (Cistothorus palustris)","ispublic":1,"isfriend":0,"isfamily":0},{"id":"52334873923","owner":"88886389@N02","secret":"d568f8d6d3","server":"65535","farm":66,"title":"5836 You Have Been seen","ispublic":1,"isfriend":0,"isfamily":0},{"id":"52334634721","owner":"88886389@N02","secret":"bc7d7cd8d7","server":"65535","farm":66,"title":"5837 Hanging in There","ispublic":1,"isfriend":0,"isfamily":0},{"id":"52332022249","owner":"32541690@N02","secret":"9163f22859","server":"65535","farm":66,"title":"Marsh Wren (Cistothorus palustris)","ispublic":1,"isfriend":0,"isfamily":0},{"id":"52328330142","owner":"187792860@N04","secret":"d1e66beaf7","server":"65535","farm":66,"title":"Marsh Wren (Cistothorus palustris)","ispublic":1,"isfriend":0,"isfamily":0},{"id":"52329498108","owner":"187792860@N04","secret":"31cce36bd0","server":"65535","farm":66,"title":"Marsh Wren (Cistothorus palustris)","ispublic":1,"isfriend":0,"isfamily":0},{"id":"52329404648","owner":"125645386@N04","secret":"3a5ebed22a","server":"65535","farm":66,"title":"Marsh wren - Troglodyte des marais - Cistothorus palustris","ispublic":1,"isfriend":0,"isfamily":0},{"id":"52329404413","owner":"125645386@N04","secret":"0ba80e0f44","server":"65535","farm":66,"title":"Marsh wren - Troglodyte des marais - Cistothorus palustris","ispublic":1,"isfriend":0,"isfamily":0},{"id":"52326831343","owner":"34238008@N02","secret":"1e22a608ba","server":"65535","farm":66,"title":"Marsh Wren, immature (Cistothorus palustris)","ispublic":1,"isfriend":0,"isfamily":0},{"id":"52326938219","owner":"34238008@N02","secret":"da6dc485d6","server":"65535","farm":66,"title":"Marsh Wren (Cistothorus palustris)","ispublic":1,"isfriend":0,"isfamily":0},{"id":"52326938134","owner":"34238008@N02","secret":"2f793094d3","server":"65535","farm":66,"title":"Marsh Wren (Cistothorus palustris)","ispublic":1,"isfriend":0,"isfamily":0},{"id":"52325633437","owner":"34238008@N02","secret":"420c4f8ab3","server":"65535","farm":66,"title":"Marsh Wren (Cistothorus palustris)","ispublic":1,"isfriend":0,"isfamily":0},{"id":"52326588541","owner":"34238008@N02","secret":"44122de8d1","server":"65535","farm":66,"title":"Marsh Wren (Cistothorus palustris)","ispublic":1,"isfriend":0,"isfamily":0},{"id":"52326830798","owner":"34238008@N02","secret":"63f0cf2192","server":"65535","farm":66,"title":"Marsh Wren (Cistothorus palustris)","ispublic":1,"isfriend":0,"isfamily":0},{"id":"52326937734","owner":"34238008@N02","secret":"cd0035331c","server":"65535","farm":66,"title":"Marsh Wren (Cistothorus palustris)","ispublic":1,"isfriend":0,"isfamily":0},{"id":"52320917351","owner":"39652177@N04","secret":"4447b751f6","server":"65535","farm":66,"title":"Do my tail feathers make me look fat?","ispublic":1,"isfriend":0,"isfamily":0},{"id":"52319500525","owner":"119787485@N07","secret":"9e00f15375","server":"65535","farm":66,"title":"Marsh Wren (Cistothorus palustris laingi) - 20220610-02","ispublic":1,"isfriend":0,"isfamily":0},{"id":"52317573411","owner":"196264892@N08","secret":"608b029bbd","server":"65535","farm":66,"title":"Marsh Wren","ispublic":1,"isfriend":0,"isfamily":0},{"id":"52316773182","owner":"196264892@N08","secret":"1d7ff337c7","server":"65535","farm":66,"title":"Marsh Wren","ispublic":1,"isfriend":0,"isfamily":0},{"id":"52317573111","owner":"196264892@N08","secret":"bd92c50126","server":"65535","farm":66,"title":"Marsh Wren","ispublic":1,"isfriend":0,"isfamily":0},{"id":"52317995389","owner":"196264892@N08","secret":"e5c7094cf5","server":"65535","farm":66,"title":"Marsh Wren","ispublic":1,"isfriend":0,"isfamily":0},{"id":"52317572786","owner":"196264892@N08","secret":"4323704c81","server":"65535","farm":66,"title":"Marsh Wren","ispublic":1,"isfriend":0,"isfamily":0},{"id":"52316940499","owner":"150374485@N05","secret":"9d4b3a6492","server":"65535","farm":66,"title":"Troglodyte des marais en vol--Marsh Wren in flight (Cistothorus palustris)","ispublic":1,"isfriend":0,"isfamily":0},{"id":"52299868534","owner":"187792860@N04","secret":"7e90a18ce8","server":"65535","farm":66,"title":"Marsh Wren (Cistothorus palustris)","ispublic":1,"isfriend":0,"isfamily":0},{"id":"52285103029","owner":"34238008@N02","secret":"1de993b190","server":"65535","farm":66,"title":"Marsh Wren (Cistothorus palustris)","ispublic":1,"isfriend":0,"isfamily":0},{"id":"52285324225","owner":"34238008@N02","secret":"e7714d953c","server":"65535","farm":66,"title":"Marsh Wren (Cistothorus palustris)","ispublic":1,"isfriend":0,"isfamily":0},{"id":"52279633182","owner":"34238008@N02","secret":"da11cd056e","server":"65535","farm":66,"title":"Marsh Wren (Cistothorus palustris)","ispublic":1,"isfriend":0,"isfamily":0},{"id":"52266708462","owner":"196264892@N08","secret":"65a26a41dd","server":"65535","farm":66,"title":"Marsh Wren","ispublic":1,"isfriend":0,"isfamily":0},{"id":"52267690043","owner":"196264892@N08","secret":"7fca3d901c","server":"65535","farm":66,"title":"Marsh Wren","ispublic":1,"isfriend":0,"isfamily":0},{"id":"52267689903","owner":"196264892@N08","secret":"8f48965369","server":"65535","farm":66,"title":"Marsh Wren","ispublic":1,"isfriend":0,"isfamily":0},{"id":"52267942484","owner":"196264892@N08","secret":"bff93ba0d8","server":"65535","farm":66,"title":"Marsh Wren","ispublic":1,"isfriend":0,"isfamily":0},{"id":"52268178930","owner":"184155060@N04","secret":"4452bf2d42","server":"65535","farm":66,"title":"26280 Troglodyte des marais \/ Cistothorus palustris dissaeptus \/ Marsh Wren (palustris Group)","ispublic":1,"isfriend":0,"isfamily":0},{"id":"52266725077","owner":"184155060@N04","secret":"719b9e2238","server":"65535","farm":66,"title":"26280 Troglodyte des marais \/ Cistothorus palustris dissaeptus \/ Marsh Wren (palustris Group)","ispublic":1,"isfriend":0,"isfamily":0},{"id":"52263919637","owner":"92361032@N05","secret":"fdf28429a6","server":"65535","farm":66,"title":"Marsh Wren \/ Troglodyte des marais ( Richard )","ispublic":1,"isfriend":0,"isfamily":0},{"id":"52264651904","owner":"103722035@N06","secret":"75ff1fd6b9","server":"65535","farm":66,"title":"Marsh Wren (Cistothorus palustris), Oso Flaco, CA","ispublic":1,"isfriend":0,"isfamily":0},{"id":"52256823438","owner":"42264328@N00","secret":"c1e932737f","server":"65535","farm":66,"title":"Active wren","ispublic":1,"isfriend":0,"isfamily":0},{"id":"52235103443","owner":"126601468@N05","secret":"1e756c2066","server":"65535","farm":66,"title":"Troglodyte des marais \/ Marsh Wren","ispublic":1,"isfriend":0,"isfamily":0},{"id":"52233734966","owner":"119787485@N07","secret":"362d62b5b5","server":"65535","farm":66,"title":"Marsh Wren (Cistothorus palustris pulverius) - 20220525-07","ispublic":1,"isfriend":0,"isfamily":0},{"id":"52231404370","owner":"150374485@N05","secret":"29a108e5d0","server":"65535","farm":66,"title":"Troglodyte des marais--Marsh Wren(Cistothorus palustris)","ispublic":1,"isfriend":0,"isfamily":0},{"id":"52230916896","owner":"150374485@N05","secret":"d592bea193","server":"65535","farm":66,"title":"Troglodyte des marais--Marsh Wren(Cistothorus palustris)","ispublic":1,"isfriend":0,"isfamily":0},{"id":"52229017261","owner":"135315828@N06","secret":"d2c48bb1cf","server":"65535","farm":66,"title":"marsh wren","ispublic":1,"isfriend":0,"isfamily":0},{"id":"52228010677","owner":"135315828@N06","secret":"84a53e67ef","server":"65535","farm":66,"title":"marsh wren","ispublic":1,"isfriend":0,"isfamily":0},{"id":"52229022543","owner":"135315828@N06","secret":"719af5b75d","server":"65535","farm":66,"title":"marsh wren","ispublic":1,"isfriend":0,"isfamily":0},{"id":"52225807036","owner":"183132100@N02","secret":"09ae104ea5","server":"65535","farm":66,"title":"Marsh Wren 7-16-2022","ispublic":1,"isfriend":0,"isfamily":0},{"id":"52209322399","owner":"59770980@N02","secret":"ca2381be93","server":"65535","farm":66,"title":"M\u00fdrarindill-Marsh Wren-Cistothorus palustris","ispublic":1,"isfriend":0,"isfamily":0},{"id":"52206815352","owner":"132165466@N08","secret":"81e28a0cb5","server":"65535","farm":66,"title":"Marsh Wren","ispublic":1,"isfriend":0,"isfamily":0},{"id":"52208320040","owner":"132165466@N08","secret":"b0ba08c9dd","server":"65535","farm":66,"title":"Marsh Wren","ispublic":1,"isfriend":0,"isfamily":0},{"id":"52205997445","owner":"132165466@N08","secret":"138332633a","server":"65535","farm":66,"title":"Marsh Wren","ispublic":1,"isfriend":0,"isfamily":0},{"id":"52205497341","owner":"132165466@N08","secret":"6340258072","server":"65535","farm":66,"title":"Marsh Wren","ispublic":1,"isfriend":0,"isfamily":0},{"id":"52203296351","owner":"132165466@N08","secret":"1502b549c3","server":"65535","farm":66,"title":"Marsh Wren","ispublic":1,"isfriend":0,"isfamily":0},{"id":"52202294242","owner":"132165466@N08","secret":"b9d24a40a8","server":"65535","farm":66,"title":"Marsh Wren","ispublic":1,"isfriend":0,"isfamily":0},{"id":"52203320308","owner":"132165466@N08","secret":"cfb49f2945","server":"65535","farm":66,"title":"Marsh Wren","ispublic":1,"isfriend":0,"isfamily":0},{"id":"52203224543","owner":"132165466@N08","secret":"cbbd65a5f9","server":"65535","farm":66,"title":"Marsh Wren","ispublic":1,"isfriend":0,"isfamily":0},{"id":"52203703505","owner":"132165466@N08","secret":"2dab7a214c","server":"65535","farm":66,"title":"Marsh Wren","ispublic":1,"isfriend":0,"isfamily":0},{"id":"52203224533","owner":"132165466@N08","secret":"f47d1d4326","server":"65535","farm":66,"title":"Marsh Wren","ispublic":1,"isfriend":0,"isfamily":0},{"id":"52189655633","owner":"195656112@N04","secret":"3db73a2c1f","server":"65535","farm":66,"title":"DSC09824","ispublic":1,"isfriend":0,"isfamily":0},{"id":"52189895639","owner":"195656112@N04","secret":"033a2fa5b7","server":"65535","farm":66,"title":"DSC09812","ispublic":1,"isfriend":0,"isfamily":0},{"id":"52187326308","owner":"131708321@N02","secret":"ebf38c4545","server":"65535","farm":66,"title":"Marsh Wren (Cistothorus palustris), Frank Lake, Alberta, Canada","ispublic":1,"isfriend":0,"isfamily":0},{"id":"52167166285","owner":"10289395@N05","secret":"ef17057262","server":"65535","farm":66,"title":"La voix des roseaux","ispublic":1,"isfriend":0,"isfamily":0},{"id":"52166008383","owner":"21719302@N07","secret":"925b3ec555","server":"65535","farm":66,"title":"Troglodyte des marais","ispublic":1,"isfriend":0,"isfamily":0},{"id":"52160190173","owner":"34238008@N02","secret":"de4776fec2","server":"65535","farm":66,"title":"Marsh Wren (Cistothorus palustris)","ispublic":1,"isfriend":0,"isfamily":0},{"id":"52160677920","owner":"34238008@N02","secret":"85669256e9","server":"65535","farm":66,"title":"Marsh Wren (Cistothorus palustris)","ispublic":1,"isfriend":0,"isfamily":0},{"id":"52158389951","owner":"126271444@N08","secret":"d9156d7620","server":"65535","farm":66,"title":"Marsh Wren (Cistothorus palustris)","ispublic":1,"isfriend":0,"isfamily":0},{"id":"52157372687","owner":"126271444@N08","secret":"f5387bee42","server":"65535","farm":66,"title":"Marsh Wren (Cistothorus palustris)","ispublic":1,"isfriend":0,"isfamily":0},{"id":"52158627399","owner":"126271444@N08","secret":"bc00853970","server":"65535","farm":66,"title":"Marsh Wren (Cistothorus palustris)","ispublic":1,"isfriend":0,"isfamily":0},{"id":"52149934999","owner":"119468907@N03","secret":"9c9a99cf16","server":"65535","farm":66,"title":"Troglodyte des marais_R5DJ0383","ispublic":1,"isfriend":0,"isfamily":0},{"id":"52149896519","owner":"119468907@N03","secret":"8e51cab8d9","server":"65535","farm":66,"title":"Troglodyte des marais_R5DJ0329v2","ispublic":1,"isfriend":0,"isfamily":0},{"id":"52150063650","owner":"119468907@N03","secret":"92dd8dcab7","server":"65535","farm":66,"title":"Troglodyte des marais_R5DJ0296","ispublic":1,"isfriend":0,"isfamily":0}]},"stat":"ok"}