{"photos":{"page":1,"pages":20,"perpage":100,"total":1917,"photo":[{"id":"52772431353","owner":"87782155@N04","secret":"d06f66d212","server":"65535","farm":66,"title":"Masked Water-Tyrant","ispublic":1,"isfriend":0,"isfamily":0},{"id":"52767919997","owner":"71330601@N06","secret":"2ebe5e26f3","server":"65535","farm":66,"title":"Lavadeira-Mascarada \/ Masked Water-Tyrant","ispublic":1,"isfriend":0,"isfamily":0},{"id":"52764649759","owner":"71330601@N06","secret":"173d08f204","server":"65535","farm":66,"title":"Lavadeira-Mascarada \/ Masked Water-Tyrant","ispublic":1,"isfriend":0,"isfamily":0},{"id":"52705115904","owner":"55592907@N06","secret":"b63314f4c2","server":"65535","farm":66,"title":"water masked tyrant (Fluvicola nengeta)","ispublic":1,"isfriend":0,"isfamily":0},{"id":"52676867154","owner":"145988764@N06","secret":"38bb64f7b6","server":"65535","farm":66,"title":"Viudita Enmascarada- Fluvicola nengeta","ispublic":1,"isfriend":0,"isfamily":0},{"id":"52575838461","owner":"71330601@N06","secret":"ef84436f75","server":"65535","farm":66,"title":"Lavadeira-mascarada \/ Masked Water-Tyrant","ispublic":1,"isfriend":0,"isfamily":0},{"id":"52571461015","owner":"29170368@N03","secret":"5f0e2655aa","server":"65535","farm":66,"title":"Masked Water-Tyrant","ispublic":1,"isfriend":0,"isfamily":0},{"id":"52561723912","owner":"152395455@N06","secret":"cac921494a","server":"65535","farm":66,"title":"Lavadeira Mascarada (Fluvicola nengeta)","ispublic":1,"isfriend":0,"isfamily":0},{"id":"52549804441","owner":"190773540@N03","secret":"1c3e619898","server":"65535","farm":66,"title":"Masked Water-Tyrant","ispublic":1,"isfriend":0,"isfamily":0},{"id":"52547417090","owner":"61827574@N03","secret":"69cd4f37c6","server":"65535","farm":66,"title":"Masked Water-Tyrant - Fluvicola nengeta","ispublic":1,"isfriend":0,"isfamily":0},{"id":"52461696482","owner":"99613800@N02","secret":"ea6689bbd7","server":"65535","farm":66,"title":"Fluvicola nengeta (Masked Water-tyrant) - Tyrannidae - Lagoa Rodrigo de Freitas, Rio de Janeiro, Brazil (2)","ispublic":1,"isfriend":0,"isfamily":0},{"id":"52462745703","owner":"99613800@N02","secret":"7c0e763360","server":"65535","farm":66,"title":"Fluvicola nengeta (Masked Water-tyrant) - Tyrannidae - Lagoa Rodrigo de Freitas, Rio de Janeiro, Brazil-2","ispublic":1,"isfriend":0,"isfamily":0},{"id":"52461695222","owner":"99613800@N02","secret":"f7850be1ac","server":"65535","farm":66,"title":"Fluvicola nengeta (Masked Water-tyrant) - Tyrannidae - Lagoa Rodrigo de Freitas, Rio de Janeiro, Brazil-3","ispublic":1,"isfriend":0,"isfamily":0},{"id":"52423767600","owner":"129593667@N03","secret":"8f37d7a22c","server":"65535","farm":66,"title":"I dance for you (Masked Water-Tyrant)","ispublic":1,"isfriend":0,"isfamily":0},{"id":"52414031497","owner":"72271115@N02","secret":"767b5c2d7f","server":"65535","farm":66,"title":"Masked Water-tyrant --- Fluvicola nengeta","ispublic":1,"isfriend":0,"isfamily":0},{"id":"52412098178","owner":"134704052@N08","secret":"782b5b70e5","server":"65535","farm":66,"title":"Lavadeira-mascarada - Masked Water-Tyrant","ispublic":1,"isfriend":0,"isfamily":0},{"id":"52412029845","owner":"134704052@N08","secret":"bcf398f8e5","server":"65535","farm":66,"title":"Masked Water-Tyrant - explore","ispublic":1,"isfriend":0,"isfamily":0},{"id":"52410792247","owner":"134704052@N08","secret":"2284915b83","server":"65535","farm":66,"title":"Lavadeira-mascarada - Masked Water-Tyrant","ispublic":1,"isfriend":0,"isfamily":0},{"id":"52410791812","owner":"134704052@N08","secret":"0e3eb7f639","server":"65535","farm":66,"title":"Lavadeira-mascarada - Masked Water-Tyrant","ispublic":1,"isfriend":0,"isfamily":0},{"id":"52411114503","owner":"134704052@N08","secret":"77fd5428b6","server":"65535","farm":66,"title":"Lavadeira-mascarada - Masked Water-Tyrant","ispublic":1,"isfriend":0,"isfamily":0},{"id":"52410889829","owner":"134704052@N08","secret":"53e1ae53d6","server":"65535","farm":66,"title":"Lavadeira-mascarada - Masked Water-Tyrant","ispublic":1,"isfriend":0,"isfamily":0},{"id":"52387683533","owner":"129593667@N03","secret":"179b496167","server":"65535","farm":66,"title":"Masked Water-Tyrant","ispublic":1,"isfriend":0,"isfamily":0},{"id":"52373474415","owner":"146878336@N04","secret":"81d04b0f84","server":"65535","farm":66,"title":"Fluvicola nengeta","ispublic":1,"isfriend":0,"isfamily":0},{"id":"52314238104","owner":"72271115@N02","secret":"fa566a3d8a","server":"65535","farm":66,"title":"Masked Water-tyrant --- Fluvicola nengeta","ispublic":1,"isfriend":0,"isfamily":0},{"id":"52307698155","owner":"129593667@N03","secret":"0f2e105fd4","server":"65535","farm":66,"title":"Masked Water-Tyrant","ispublic":1,"isfriend":0,"isfamily":0},{"id":"52306873676","owner":"75336751@N07","secret":"ffcf353f84","server":"65535","farm":66,"title":"Lavadeira-mascarada","ispublic":1,"isfriend":0,"isfamily":0},{"id":"52169646077","owner":"138967000@N06","secret":"180e8bc1ec","server":"65535","farm":66,"title":"_DSC4689","ispublic":1,"isfriend":0,"isfamily":0},{"id":"51991386231","owner":"21182099@N05","secret":"4601f606fe","server":"65535","farm":66,"title":"Masked Water Tyrant (Fluvicola nengeta)","ispublic":1,"isfriend":0,"isfamily":0},{"id":"51980350812","owner":"153426373@N07","secret":"96ab0d13da","server":"65535","farm":66,"title":"Masked Water Tyrant","ispublic":1,"isfriend":0,"isfamily":0},{"id":"51958591227","owner":"95106084@N04","secret":"0323e4bede","server":"65535","farm":66,"title":"Lavadeira-mascarada-Masked Water-Tyrant","ispublic":1,"isfriend":0,"isfamily":0},{"id":"51884660023","owner":"146878336@N04","secret":"2c0ce0d538","server":"65535","farm":66,"title":"A Lavadeira-mascarada (Fluvicola nengeta)","ispublic":1,"isfriend":0,"isfamily":0},{"id":"51868622198","owner":"129803374@N05","secret":"3d687960d4","server":"65535","farm":66,"title":"Masked Water-Tyrant (Fluvicola nengeta)","ispublic":1,"isfriend":0,"isfamily":0},{"id":"51620094660","owner":"87727332@N08","secret":"faed285f6f","server":"65535","farm":66,"title":"The Conductor  (Fluvicola nengeta mating display)","ispublic":1,"isfriend":0,"isfamily":0},{"id":"51438468611","owner":"61316002@N02","secret":"b8fb0f6b16","server":"65535","farm":66,"title":"MASWATTYR nengeta 9724","ispublic":1,"isfriend":0,"isfamily":0},{"id":"51433511770","owner":"95106084@N04","secret":"264d3b5d60","server":"65535","farm":66,"title":"Lavadeira mascarada - Fluvicola nengeta","ispublic":1,"isfriend":0,"isfamily":0},{"id":"51273980891","owner":"126847939@N08","secret":"be4960cb62","server":"65535","farm":66,"title":"Lavadeira-mascarada (Masked Water-Tyrant \/  Fluvicola nengeta)","ispublic":1,"isfriend":0,"isfamily":0},{"id":"51247900424","owner":"53247049@N07","secret":"13b322a04e","server":"65535","farm":66,"title":"MASKED WATER-TYRANT Feeding Fledgling. Fluvicola nengeta in Mindo in Northwestern ECUADOR. Photo by Peter Wendelken.","ispublic":1,"isfriend":0,"isfamily":0},{"id":"51245642805","owner":"128981773@N05","secret":"22595db4eb","server":"65535","farm":66,"title":"lavadeira-mascarada (Fluvicola nengeta)","ispublic":1,"isfriend":0,"isfamily":0},{"id":"51194006454","owner":"95626605@N04","secret":"70aaa4920e","server":"65535","farm":66,"title":"2021.05.08","ispublic":1,"isfriend":0,"isfamily":0},{"id":"51188815236","owner":"27191692@N07","secret":"35c4e54e1a","server":"65535","farm":66,"title":"Lavadeira-mascarada (Fluvicola nengeta)","ispublic":1,"isfriend":0,"isfamily":0},{"id":"51188802876","owner":"27191692@N07","secret":"bd28f59e0a","server":"65535","farm":66,"title":"Lavadeira-mascarada (Fluvicola nengeta)","ispublic":1,"isfriend":0,"isfamily":0},{"id":"51188073322","owner":"27191692@N07","secret":"b13e5ce645","server":"65535","farm":66,"title":"Lavadeira-mascarada (Fluvicola nengeta)","ispublic":1,"isfriend":0,"isfamily":0},{"id":"51189547494","owner":"27191692@N07","secret":"e5b7a0622c","server":"65535","farm":66,"title":"Lavadeira-mascarada (Fluvicola nengeta)","ispublic":1,"isfriend":0,"isfamily":0},{"id":"51189492309","owner":"27191692@N07","secret":"6841f0fa91","server":"65535","farm":66,"title":"Lavadeira-mascarada (Fluvicola nengeta)","ispublic":1,"isfriend":0,"isfamily":0},{"id":"51188943163","owner":"27191692@N07","secret":"cbbfe3eb1f","server":"65535","farm":66,"title":"Lavadeira-mascarada (Fluvicola nengeta)","ispublic":1,"isfriend":0,"isfamily":0},{"id":"7352781162","owner":"53247049@N07","secret":"f6c270d9ce","server":"7084","farm":8,"title":"MASKED WATER-TYRANT Fluvicola nengeta in a Pasture in the Mindo Valley in Northwestern ECUADOR. Photo by Peter Wendelken.","ispublic":1,"isfriend":0,"isfamily":0},{"id":"51105851319","owner":"49261788@N02","secret":"eed06eff6c","server":"65535","farm":66,"title":"Fluvicola nengeta","ispublic":1,"isfriend":0,"isfamily":0},{"id":"51014303421","owner":"113984055@N06","secret":"b760435558","server":"65535","farm":66,"title":"Masked Water-Tyrant (Fluvicola nengeta) - Lavadeira-mascarada","ispublic":1,"isfriend":0,"isfamily":0},{"id":"50616181683","owner":"95626605@N04","secret":"9fca00cfb2","server":"65535","farm":66,"title":"2020.11.02","ispublic":1,"isfriend":0,"isfamily":0},{"id":"50385710322","owner":"148479993@N02","secret":"b3c3d28ec0","server":"65535","farm":66,"title":"Fluvicola nengeta (Tyrannidae), a lavadeira","ispublic":1,"isfriend":0,"isfamily":0},{"id":"50314345712","owner":"125998335@N03","secret":"fcfa317569","server":"65535","farm":66,"title":"Fluvicola nengeta","ispublic":1,"isfriend":0,"isfamily":0},{"id":"50192453881","owner":"189616305@N06","secret":"52bd095bd6","server":"65535","farm":66,"title":"Lavadeira-mascarada - Fluvicola nengeta","ispublic":1,"isfriend":0,"isfamily":0},{"id":"50185292222","owner":"7259557@N05","secret":"04bfc8b283","server":"65535","farm":66,"title":"The Masked Water Tyrant (Fluvicola nengeta) in Espirito Santo, Brazil.","ispublic":1,"isfriend":0,"isfamily":0},{"id":"50168881223","owner":"136812688@N03","secret":"38521f7346","server":"65535","farm":66,"title":"Lavadeira-mascarada, noivinha ou lavandeira (Fluvicola nengeta)","ispublic":1,"isfriend":0,"isfamily":0},{"id":"50113467441","owner":"186466053@N05","secret":"251ec1c269","server":"65535","farm":66,"title":"Fluvicola nengeta","ispublic":1,"isfriend":0,"isfamily":0},{"id":"50105191381","owner":"86585370@N00","secret":"a321646e65","server":"65535","farm":66,"title":"Masked Water-Tyrant \/\/ Lavadeira-mascarada","ispublic":1,"isfriend":0,"isfamily":0},{"id":"49982043497","owner":"77125798@N06","secret":"69f8e5e337","server":"65535","farm":66,"title":"LAVADEIRA-MASCARADA, Fluvicola nengeta (Linnaeus, 1766)","ispublic":1,"isfriend":0,"isfamily":0},{"id":"49963584218","owner":"128981773@N05","secret":"4dcde3f52f","server":"65535","farm":66,"title":"Lavadeira-mascarada (Fluvicola nengeta)","ispublic":1,"isfriend":0,"isfamily":0},{"id":"49897259431","owner":"78941013@N00","secret":"c68ccd7982","server":"65535","farm":66,"title":"Masked Water-Tyrant (Fluvicola nengeta)","ispublic":1,"isfriend":0,"isfamily":0},{"id":"49821718792","owner":"128981773@N05","secret":"6d15af6e38","server":"65535","farm":66,"title":"Lavadeira-mascarada (Fluvicola nengeta)","ispublic":1,"isfriend":0,"isfamily":0},{"id":"49777400638","owner":"55968524@N04","secret":"1f37e28b4d","server":"65535","farm":66,"title":"IMG_6213 - Masked Water-Tyrant - Fluvicola nengeta.jpg","ispublic":1,"isfriend":0,"isfamily":0},{"id":"49765599683","owner":"128981773@N05","secret":"a05e40239f","server":"65535","farm":66,"title":"Lavadeira-mascarada (Fluvicola nengeta)","ispublic":1,"isfriend":0,"isfamily":0},{"id":"49764985293","owner":"56686021@N04","secret":"04429d1927","server":"65535","farm":66,"title":"Masked Water Tyrant","ispublic":1,"isfriend":0,"isfamily":0},{"id":"52589477130","owner":"193617639@N07","secret":"78ac891871","server":"65535","farm":66,"title":"Lavadeira-mascarada (Fluvicola nengeta)","ispublic":1,"isfriend":0,"isfamily":0},{"id":"52527904879","owner":"100247776@N03","secret":"ca48f0e1e0","server":"65535","farm":66,"title":"LAVADEIRA MASCARADA - Fluvicola nengeta - GOI\u00c2NIA","ispublic":1,"isfriend":0,"isfamily":0},{"id":"52495286026","owner":"145157152@N06","secret":"655b546610","server":"65535","farm":66,"title":"D50_7648","ispublic":1,"isfriend":0,"isfamily":0},{"id":"52494152496","owner":"38032433@N07","secret":"1f28ffd529","server":"65535","farm":66,"title":"BG4R8131.jpg","ispublic":1,"isfriend":0,"isfamily":0},{"id":"52462746303","owner":"99613800@N02","secret":"62058afa38","server":"65535","farm":66,"title":"Fluvicola nengeta (Masked Water-tyrant) - Tyrannidae - Lagoa Rodrigo de Freitas, Rio de Janeiro, Brazil","ispublic":1,"isfriend":0,"isfamily":0},{"id":"52390375146","owner":"195770897@N06","secret":"1b1e215803","server":"65535","farm":66,"title":"2022-09-28_10-06-46","ispublic":1,"isfriend":0,"isfamily":0},{"id":"51908577358","owner":"134704052@N08","secret":"66159e22c0","server":"65535","farm":66,"title":"Lavadeira-mascarada - Masked Water-Tyrant","ispublic":1,"isfriend":0,"isfamily":0},{"id":"51752723093","owner":"146479766@N08","secret":"9fba7e02c2","server":"65535","farm":66,"title":"Moucherolle Aquatique \u2013 Masked Water Tyrant \u2013 Fluvicola nengeta","ispublic":1,"isfriend":0,"isfamily":0},{"id":"51662002098","owner":"50241576@N03","secret":"cc09071114","server":"65535","farm":66,"title":"Masked Water-Tyrant (Fluvicola nengeta)","ispublic":1,"isfriend":0,"isfamily":0},{"id":"51594452037","owner":"129865190@N07","secret":"8e5e7a1f7c","server":"65535","farm":66,"title":"Lavadeira-mascarada (Fluvicola nengeta)","ispublic":1,"isfriend":0,"isfamily":0},{"id":"51520881872","owner":"65788177@N02","secret":"208a01bf93","server":"65535","farm":66,"title":"Masked Water-Tyrant","ispublic":1,"isfriend":0,"isfamily":0},{"id":"51351494213","owner":"193390297@N03","secret":"e91fd28344","server":"65535","farm":66,"title":"Masked Water-Tyrant (Fluvicola nengeta) in Rio de Janeiro, Brazil","ispublic":1,"isfriend":0,"isfamily":0},{"id":"51280647517","owner":"190051159@N08","secret":"1a1bc527b0","server":"65535","farm":66,"title":"Lavadeira-mascarada","ispublic":1,"isfriend":0,"isfamily":0},{"id":"51114943708","owner":"192761925@N02","secret":"0f58b86722","server":"65535","farm":66,"title":"Fluvicola nengeta - 14.05.2016. - DSC_0153 - copia","ispublic":1,"isfriend":0,"isfamily":0},{"id":"51114788184","owner":"192761925@N02","secret":"62444d8922","server":"65535","farm":66,"title":"Fluvicola nengeta - 14.05.2016. - DSC_0157","ispublic":1,"isfriend":0,"isfamily":0},{"id":"51115035936","owner":"192761925@N02","secret":"37a2d5d2b9","server":"65535","farm":66,"title":"Fluvicola nengeta - 14.05.2016. - DSC_0166","ispublic":1,"isfriend":0,"isfamily":0},{"id":"51114943698","owner":"192761925@N02","secret":"6bd71463ec","server":"65535","farm":66,"title":"Fluvicola nengeta - 14.05.2016. - DSC_0160","ispublic":1,"isfriend":0,"isfamily":0},{"id":"51114943683","owner":"192761925@N02","secret":"3ff68ae62c","server":"65535","farm":66,"title":"Fluvicola nengeta - 14.05.2016. - DSC_0165 - copia","ispublic":1,"isfriend":0,"isfamily":0},{"id":"51115035931","owner":"192761925@N02","secret":"7ee0e3f637","server":"65535","farm":66,"title":"Fluvicola nengeta - 14.05.2016. - DSC_0502","ispublic":1,"isfriend":0,"isfamily":0},{"id":"51098425720","owner":"192688018@N07","secret":"7c5e05a144","server":"65535","farm":66,"title":"Fluvicola nengeta","ispublic":1,"isfriend":0,"isfamily":0},{"id":"51020230862","owner":"185718539@N08","secret":"a9960a30d1","server":"65535","farm":66,"title":"Lavadeira-mascarada (Fluvicola nengeta)","ispublic":1,"isfriend":0,"isfamily":0},{"id":"50984928683","owner":"12639178@N07","secret":"812df3dd91","server":"65535","farm":66,"title":"Fluvicola nengeta jagt an der K\u00fcste","ispublic":1,"isfriend":0,"isfamily":0},{"id":"50984928413","owner":"12639178@N07","secret":"9de0d7c537","server":"65535","farm":66,"title":"Fluvicola nengeta jagt an der K\u00fcste","ispublic":1,"isfriend":0,"isfamily":0},{"id":"50985744492","owner":"12639178@N07","secret":"25c5ba8b50","server":"65535","farm":66,"title":"Fluvicola nengeta","ispublic":1,"isfriend":0,"isfamily":0},{"id":"50962859982","owner":"139614601@N08","secret":"1a0863138b","server":"65535","farm":66,"title":"Lavadeira-mascarada","ispublic":1,"isfriend":0,"isfamily":0},{"id":"50962859872","owner":"139614601@N08","secret":"c12d1b3537","server":"65535","farm":66,"title":"Lavadeira-mascarada","ispublic":1,"isfriend":0,"isfamily":0},{"id":"50962759986","owner":"139614601@N08","secret":"39cbccbd58","server":"65535","farm":66,"title":"Lavadeira-mascarada","ispublic":1,"isfriend":0,"isfamily":0},{"id":"50795466476","owner":"95338646@N06","secret":"a80d0940be","server":"65535","farm":66,"title":"Fluvicola nengeta","ispublic":1,"isfriend":0,"isfamily":0},{"id":"50767640693","owner":"80648919@N08","secret":"e6feeab6dc","server":"65535","farm":66,"title":"Masked Water-Tyrant","ispublic":1,"isfriend":0,"isfamily":0},{"id":"50104796612","owner":"33674470@N00","secret":"cb04452a89","server":"65535","farm":66,"title":"Lavadeira (Fluvicola nengeta)","ispublic":1,"isfriend":0,"isfamily":0},{"id":"49929033903","owner":"129081014@N03","secret":"1373b3ab27","server":"65535","farm":66,"title":"Masked Water-Tyrant (Fluvicola nengeta)","ispublic":1,"isfriend":0,"isfamily":0},{"id":"49894502992","owner":"188410759@N06","secret":"577565e491","server":"65535","farm":66,"title":"Fluvicola nengeta (Linnaeus, 1766)","ispublic":1,"isfriend":0,"isfamily":0},{"id":"49893678753","owner":"188410759@N06","secret":"cc75c85bcb","server":"65535","farm":66,"title":"Fluvicola nengeta (Linnaeus, 1766)","ispublic":1,"isfriend":0,"isfamily":0},{"id":"49883167893","owner":"188410759@N06","secret":"070c5ab0e2","server":"65535","farm":66,"title":"Fluvicola nengeta (Linnaeus, 1766)","ispublic":1,"isfriend":0,"isfamily":0},{"id":"49777941726","owner":"9765210@N03","secret":"f6c5f40bac","server":"65535","farm":66,"title":"Masked Water-Tyrant (Fluvicola nengeta)","ispublic":1,"isfriend":0,"isfamily":0},{"id":"49765844347","owner":"56686021@N04","secret":"0430f61f0c","server":"65535","farm":66,"title":"Masked Water Tyrant","ispublic":1,"isfriend":0,"isfamily":0},{"id":"49692578578","owner":"186211059@N06","secret":"3f9198431d","server":"65535","farm":66,"title":"Masked Water Tyrant","ispublic":1,"isfriend":0,"isfamily":0}]},"stat":"ok"}