{"photos":{"page":1,"pages":2,"perpage":100,"total":116,"photo":[{"id":"52660947692","owner":"29170368@N03","secret":"717e34efd2","server":"65535","farm":66,"title":"Masked Cardinal","ispublic":1,"isfriend":0,"isfamily":0},{"id":"52661733139","owner":"29170368@N03","secret":"58341f6cc8","server":"65535","farm":66,"title":"Masked Cardinal","ispublic":1,"isfriend":0,"isfamily":0},{"id":"52660947187","owner":"29170368@N03","secret":"d85e89d0c6","server":"65535","farm":66,"title":"Masked Cardinal","ispublic":1,"isfriend":0,"isfamily":0},{"id":"52388738532","owner":"95747238@N07","secret":"c47feb5926","server":"65535","farm":66,"title":"paroaria nigrogenis 1","ispublic":1,"isfriend":0,"isfamily":0},{"id":"52364147473","owner":"59558842@N05","secret":"49d2cf0333","server":"65535","farm":66,"title":"Paroaria nigrogenis - Cardenal enmascarado; Paroare masqu\u00e9; Masked Cardinal -","ispublic":1,"isfriend":0,"isfamily":0},{"id":"52105913114","owner":"56686021@N04","secret":"411c5c99b1","server":"65535","farm":66,"title":"Masked Cardinal","ispublic":1,"isfriend":0,"isfamily":0},{"id":"52099615160","owner":"56686021@N04","secret":"641cabb158","server":"65535","farm":66,"title":"Masked Cardinal","ispublic":1,"isfriend":0,"isfamily":0},{"id":"52099615105","owner":"56686021@N04","secret":"0c256b38d1","server":"65535","farm":66,"title":"Masked Cardinal","ispublic":1,"isfriend":0,"isfamily":0},{"id":"52019279095","owner":"50264295@N06","secret":"739fd12915","server":"65535","farm":66,"title":"Masked Cardinal (Paroaria nigrogenis)","ispublic":1,"isfriend":0,"isfamily":0},{"id":"51625651441","owner":"119787485@N07","secret":"14719d0c27","server":"65535","farm":66,"title":"Masked Cardinal (Paroaria nigrogenis) - 20160121-01","ispublic":1,"isfriend":0,"isfamily":0},{"id":"51364989406","owner":"119787485@N07","secret":"00a2a398f1","server":"65535","farm":66,"title":"Masked Cardinal (Paroaria nigrogenis) - 20160121-08","ispublic":1,"isfriend":0,"isfamily":0},{"id":"51324424907","owner":"119221656@N06","secret":"de4b8fc1f4","server":"65535","farm":66,"title":"Paroaria nigrogenis","ispublic":1,"isfriend":0,"isfamily":0},{"id":"51278708298","owner":"61021753@N02","secret":"6743c57c2c","server":"65535","farm":66,"title":"n80_w1150","ispublic":1,"isfriend":0,"isfamily":0},{"id":"49916169506","owner":"55968524@N04","secret":"352458bd3b","server":"65535","farm":66,"title":"C16V1662 - Masked Cardinal - Paroaria nigrogenis.jpg","ispublic":1,"isfriend":0,"isfamily":0},{"id":"49795525326","owner":"12278268@N08","secret":"11fd21529c","server":"65535","farm":66,"title":"Masked Cardinal (Paroaria nigrogenis)","ispublic":1,"isfriend":0,"isfamily":0},{"id":"49440078947","owner":"79410107@N08","secret":"881b811918","server":"65535","farm":66,"title":"Paroaria nigrogenis - Masked Cardinal - Cardenilla Enmascarada 02","ispublic":1,"isfriend":0,"isfamily":0},{"id":"49440078887","owner":"79410107@N08","secret":"42d7968a0f","server":"65535","farm":66,"title":"Paroaria nigrogenis - Masked Cardinal - Cardenilla Enmascarada 03","ispublic":1,"isfriend":0,"isfamily":0},{"id":"48701383526","owner":"54249623@N08","secret":"8eef13cca1","server":"65535","farm":66,"title":"Cardenal Enmascarado, Masked Cardinal (Paroaria gularis nigrogenis) (Paroaria nigrogenis)","ispublic":1,"isfriend":0,"isfamily":0},{"id":"48391701406","owner":"95747238@N07","secret":"b89da77ae1","server":"65535","farm":66,"title":"Paroaria nigrogenis 2","ispublic":1,"isfriend":0,"isfamily":0},{"id":"48391696521","owner":"95747238@N07","secret":"5934d22e83","server":"65535","farm":66,"title":"Paroaria nigrogenis 3","ispublic":1,"isfriend":0,"isfamily":0},{"id":"48391691966","owner":"95747238@N07","secret":"8795b56b27","server":"65535","farm":66,"title":"Paroaria nigrogenis 4","ispublic":1,"isfriend":0,"isfamily":0},{"id":"47735225212","owner":"147283349@N08","secret":"b43998a0d1","server":"65535","farm":66,"title":"Paroaria nigrogenis .","ispublic":1,"isfriend":0,"isfamily":0},{"id":"32422185098","owner":"32752434@N07","secret":"f2bce98a5e","server":"65535","farm":66,"title":"Masked Cardinal (Paroaria nigrogenis)","ispublic":1,"isfriend":0,"isfamily":0},{"id":"41102552330","owner":"147553946@N06","secret":"08600f2135","server":"1807","farm":2,"title":"Masked Cardinal (Paroaria nigrogenis)","ispublic":1,"isfriend":0,"isfamily":0},{"id":"26982600637","owner":"71833159@N00","secret":"276fe42311","server":"970","farm":1,"title":"Masked Cardinal, Caroni Swamp, Trinidad","ispublic":1,"isfriend":0,"isfamily":0},{"id":"39664127795","owner":"71833159@N00","secret":"d28f690751","server":"4671","farm":5,"title":"Masked Cardinal, Caroni Swamp","ispublic":1,"isfriend":0,"isfamily":0},{"id":"40284557731","owner":"71833159@N00","secret":"822d5e2f27","server":"4603","farm":5,"title":"Masked Cardinal \/ Paroaria nigrogenis, Trinidad","ispublic":1,"isfriend":0,"isfamily":0},{"id":"26116335738","owner":"71833159@N00","secret":"8396b85c64","server":"4660","farm":5,"title":"Masked Cardinal at the edge of Caroni Swamp","ispublic":1,"isfriend":0,"isfamily":0},{"id":"39879031222","owner":"71833159@N00","secret":"c2faca89e1","server":"4765","farm":5,"title":"Masked Cardinal, Trinidad","ispublic":1,"isfriend":0,"isfamily":0},{"id":"38656113531","owner":"65788177@N02","secret":"3c4616e603","server":"4519","farm":5,"title":"Masked Cardinal","ispublic":1,"isfriend":0,"isfamily":0},{"id":"34250225484","owner":"71833159@N00","secret":"7ddea9a276","server":"4241","farm":5,"title":"Masked Cardinal \/ Paroaria nigrogenis, Trinidad","ispublic":1,"isfriend":0,"isfamily":0},{"id":"33464290343","owner":"12694900@N08","secret":"2e8f0d0e2e","server":"2887","farm":3,"title":"Cardenal Bandera Alemana [Masked Cardinal] (Paroaria nigrogenis)","ispublic":1,"isfriend":0,"isfamily":0},{"id":"34221697136","owner":"12694900@N08","secret":"7b1d73f9ce","server":"2841","farm":3,"title":"Cardenal Bandera Alemana [Masked Cardinal] (Paroaria nigrogenis)","ispublic":1,"isfriend":0,"isfamily":0},{"id":"33714823082","owner":"71833159@N00","secret":"1fa9c0f59a","server":"3940","farm":4,"title":"Masked Cardinal \/ Paroaria nigrogenis, Trinidad, Day 7","ispublic":1,"isfriend":0,"isfamily":0},{"id":"32392287823","owner":"59345530@N06","secret":"5a8b5ee924","server":"656","farm":1,"title":"Paroaria nigrogenis - Masked Cardinal","ispublic":1,"isfriend":0,"isfamily":0},{"id":"31226222884","owner":"65788177@N02","secret":"8a7d69c818","server":"318","farm":1,"title":"Masked Cardinal","ispublic":1,"isfriend":0,"isfamily":0},{"id":"31776882202","owner":"21902062@N06","secret":"fa83b59289","server":"721","farm":1,"title":"Masked Cardinal (male) \/ Paroaria nigrogenis \/ Cardenal Enmascarado (macho)","ispublic":1,"isfriend":0,"isfamily":0},{"id":"29938205196","owner":"37587801@N02","secret":"16ca092811","server":"5754","farm":6,"title":"Masked Cardinal (Paroaria nigrogenis)","ispublic":1,"isfriend":0,"isfamily":0},{"id":"29327371936","owner":"12278268@N08","secret":"04d47552a7","server":"8271","farm":9,"title":"Masked Cardinal (Paroaria nigrogenis)","ispublic":1,"isfriend":0,"isfamily":0},{"id":"28737537174","owner":"12278268@N08","secret":"fbb4746a8b","server":"8071","farm":9,"title":"Masked Cardinal (Paroaria nigrogenis)","ispublic":1,"isfriend":0,"isfamily":0},{"id":"29208659142","owner":"82771380@N02","secret":"c4fc58db48","server":"8406","farm":9,"title":"Masking the rain","ispublic":1,"isfriend":0,"isfamily":0},{"id":"24039066304","owner":"82771380@N02","secret":"86432249ec","server":"1619","farm":2,"title":"Cardinal Peekaboo","ispublic":1,"isfriend":0,"isfamily":0},{"id":"14371042205","owner":"27992517@N08","secret":"1e7b7dda06","server":"3877","farm":4,"title":"Masked Cardinal - Paroaria nigrogenis - Hato La Aurora, E Llanos","ispublic":1,"isfriend":0,"isfamily":0},{"id":"14347951116","owner":"27992517@N08","secret":"1e0119899f","server":"2917","farm":3,"title":"Masked Cardinal - Paroaria nigrogenis - Hato La Aurora, E Llanos","ispublic":1,"isfriend":0,"isfamily":0},{"id":"12971942824","owner":"12639178@N07","secret":"a508790cd6","server":"7418","farm":8,"title":"Maskenkardinal m und w, NGIDn1230779057","ispublic":1,"isfriend":0,"isfamily":0},{"id":"12966999253","owner":"12639178@N07","secret":"2307de2dbc","server":"2381","farm":3,"title":"Maskenkardinal, NGID670716367","ispublic":1,"isfriend":0,"isfamily":0},{"id":"9438587632","owner":"27478499@N04","secret":"c8c93e6f10","server":"7340","farm":8,"title":"Cardenal bandera alemana [Masked Cardinal] (Paroaria gularis nigrogenis)","ispublic":1,"isfriend":0,"isfamily":0},{"id":"8945117034","owner":"13791474@N02","secret":"c83c7f5828","server":"8547","farm":9,"title":"Cardenal bandera alemana [Masked Cardinal] (Paroaria nigrogenis)","ispublic":1,"isfriend":0,"isfamily":0},{"id":"8722115954","owner":"30931719@N05","secret":"be775b49d1","server":"7329","farm":8,"title":"Cardenal Pantanero \/ Red-capped Cardinal","ispublic":1,"isfriend":0,"isfamily":0},{"id":"8722115504","owner":"30931719@N05","secret":"7bb1601ca5","server":"7407","farm":8,"title":"Cardenal Pantanero \/ Red-capped Cardinal","ispublic":1,"isfriend":0,"isfamily":0},{"id":"8719336639","owner":"30931719@N05","secret":"5943d0f59a","server":"7335","farm":8,"title":"Cardenal Pantanero \/ Red-capped Cardinal","ispublic":1,"isfriend":0,"isfamily":0},{"id":"8569460503","owner":"30931719@N05","secret":"beffcdece8","server":"8391","farm":9,"title":"Cardenal Pantanero \/ Red-capped Cardinal","ispublic":1,"isfriend":0,"isfamily":0},{"id":"8525355050","owner":"30931719@N05","secret":"55a3c5b683","server":"8236","farm":9,"title":"Cardenal Pantanero \/ Red-capped Cardinal","ispublic":1,"isfriend":0,"isfamily":0},{"id":"8501376334","owner":"24201429@N04","secret":"410f77bf16","server":"8108","farm":9,"title":"Paroaria nigrogenis \/ Cardenal pantanero \/ Masked Cardinal","ispublic":1,"isfriend":0,"isfamily":0},{"id":"8079762175","owner":"9919745@N03","secret":"71dc247a2e","server":"8335","farm":9,"title":"Masked Cardinal (Paroaria nigrogenis)","ispublic":1,"isfriend":0,"isfamily":0},{"id":"7568468686","owner":"24201429@N04","secret":"5511c78ea9","server":"7272","farm":8,"title":"Paroaria nigrogenis \/ Cardenal pantanero \/ Masked Cardinal","ispublic":1,"isfriend":0,"isfamily":0},{"id":"6556024139","owner":"24201429@N04","secret":"5c9e531d3b","server":"7166","farm":8,"title":"Paroaria nigrogenis \/ Cardenal pantanero \/ Masked Cardinal","ispublic":1,"isfriend":0,"isfamily":0},{"id":"6290822966","owner":"98169970@N00","secret":"113ddebe2e","server":"6094","farm":7,"title":"red-capped cardinal (paroaria gularis nigrogenis)","ispublic":1,"isfriend":0,"isfamily":0},{"id":"52098034170","owner":"126841123@N07","secret":"25d00d47de","server":"65535","farm":66,"title":"Masked Cardinal,  Paroaria nigrogenis. Tobago","ispublic":1,"isfriend":0,"isfamily":0},{"id":"52097551683","owner":"126841123@N07","secret":"52f74720f9","server":"65535","farm":66,"title":"Masked Cardinal, Paroaria nigrogenis.  Tobago","ispublic":1,"isfriend":0,"isfamily":0},{"id":"52012778286","owner":"52321838@N05","secret":"4d85a85273","server":"65535","farm":66,"title":"Masked Cardinal","ispublic":1,"isfriend":0,"isfamily":0},{"id":"51857383197","owner":"191534235@N04","secret":"883c938d37","server":"65535","farm":66,"title":"Paroaria nigrogenis - Paroare masqu\u00e9","ispublic":1,"isfriend":0,"isfamily":0},{"id":"49833293217","owner":"126841123@N07","secret":"26d254c6e5","server":"65535","farm":66,"title":"Masked Cardinal, Paroaria nigrogenis.  Tobago","ispublic":1,"isfriend":0,"isfamily":0},{"id":"49833290952","owner":"126841123@N07","secret":"ba2c4f39e9","server":"65535","farm":66,"title":"Masked Cardinal, Paroaria nigrogenis.  Tobago","ispublic":1,"isfriend":0,"isfamily":0},{"id":"49793654788","owner":"184485787@N05","secret":"2c8892345e","server":"65535","farm":66,"title":"paroaria nigrogenis 7","ispublic":1,"isfriend":0,"isfamily":0},{"id":"49571526156","owner":"48938938@N04","secret":"2e012b5cb6","server":"65535","farm":66,"title":"Masked Cardinal_Paroaria nigrogenis_Ascanio_LLanos Colombia_DZ3A2946","ispublic":1,"isfriend":0,"isfamily":0},{"id":"49571019613","owner":"48938938@N04","secret":"30ec70f062","server":"65535","farm":66,"title":"Masked Cardinal_Paroaria nigrogenis_Ascanio_LLanos Colombia_DZ3A3295","ispublic":1,"isfriend":0,"isfamily":0},{"id":"48391686896","owner":"95747238@N07","secret":"0ecc46e601","server":"65535","farm":66,"title":"Paroaria nigrogenis 5","ispublic":1,"isfriend":0,"isfamily":0},{"id":"48246107602","owner":"141506644@N06","secret":"8375a328a0","server":"65535","farm":66,"title":"Cardenal pantanero, Masked Cardinal, Paroaria nigrogenis, Paroaria gularis","ispublic":1,"isfriend":0,"isfamily":0},{"id":"48246019431","owner":"141506644@N06","secret":"307c79b715","server":"65535","farm":66,"title":"Cardenal pantanero, Masked Cardinal, Paroaria nigrogenis, Paroaria gularis","ispublic":1,"isfriend":0,"isfamily":0},{"id":"47102849044","owner":"136558434@N02","secret":"af449ecac0","server":"65535","farm":66,"title":"Cardinal, Masked","ispublic":1,"isfriend":0,"isfamily":0},{"id":"32866887317","owner":"146707527@N06","secret":"5ed808fe7d","server":"65535","farm":66,"title":"Masked Cardinal.. Cardenal Pantanero.. Paroaria nigrogenis","ispublic":1,"isfriend":0,"isfamily":0},{"id":"47254788221","owner":"60681888@N06","secret":"e547c216e9","server":"7864","farm":8,"title":"Red -Capped Cardinal - Paroaria gularis nigrogenis","ispublic":1,"isfriend":0,"isfamily":0},{"id":"46548905841","owner":"130481626@N02","secret":"c235e81de9","server":"4886","farm":5,"title":"Cardenal Enmascarado (Paroaria nigrogenis)","ispublic":1,"isfriend":0,"isfamily":0},{"id":"43719951695","owner":"127537057@N03","secret":"86ca510855","server":"1847","farm":2,"title":"Cardenal enmascarado - Paroaria nigrogenis","ispublic":1,"isfriend":0,"isfamily":0},{"id":"38570923880","owner":"48084395@N03","secret":"1b8d310676","server":"4608","farm":5,"title":"Red-capped Cardinal","ispublic":1,"isfriend":0,"isfamily":0},{"id":"38483101365","owner":"132165466@N08","secret":"f10be5baa1","server":"4641","farm":5,"title":"Masked Cardinal","ispublic":1,"isfriend":0,"isfamily":0},{"id":"38483101305","owner":"132165466@N08","secret":"bee013489a","server":"4590","farm":5,"title":"Masked Cardinal","ispublic":1,"isfriend":0,"isfamily":0},{"id":"38574033385","owner":"8770851@N02","secret":"4e57e52ca6","server":"65535","farm":66,"title":"171224 Caroni Marsh -97","ispublic":1,"isfriend":0,"isfamily":0},{"id":"25582598048","owner":"8770851@N02","secret":"e4a392fde2","server":"65535","farm":66,"title":"171224 Caroni Marsh -82","ispublic":1,"isfriend":0,"isfamily":0},{"id":"33207273725","owner":"59345530@N06","secret":"c442529cfe","server":"773","farm":1,"title":"Paroaria nigrogenis - Masked Cardinal","ispublic":1,"isfriend":0,"isfamily":0},{"id":"32901075505","owner":"141451800@N07","secret":"c44d9278c8","server":"672","farm":1,"title":"Hato La Aurora_16--Cardenal Pantanero-Paroaria nigrogenis_17_0774","ispublic":1,"isfriend":0,"isfamily":0},{"id":"29537891051","owner":"12278268@N08","secret":"431019cf12","server":"7524","farm":8,"title":"Masked Cardinal (Paroaria nigrogenis)","ispublic":1,"isfriend":0,"isfamily":0},{"id":"29618660675","owner":"12278268@N08","secret":"418431b993","server":"8841","farm":9,"title":"Masked Cardinal (Paroaria nigrogenis)","ispublic":1,"isfriend":0,"isfamily":0},{"id":"29584182396","owner":"12278268@N08","secret":"b49c0ac292","server":"8889","farm":9,"title":"Masked Cardinal (Paroaria nigrogenis)","ispublic":1,"isfriend":0,"isfamily":0},{"id":"28994843023","owner":"12278268@N08","secret":"1d0b16c6f8","server":"8020","farm":9,"title":"Masked Cardinal (Paroaria nigrogenis)","ispublic":1,"isfriend":0,"isfamily":0},{"id":"26470646225","owner":"35572683@N03","secret":"8ed0f307c9","server":"1711","farm":2,"title":"DSC_5699","ispublic":1,"isfriend":0,"isfamily":0},{"id":"21173448239","owner":"76521770@N04","secret":"fd12830644","server":"5759","farm":6,"title":"Paroaria nigrogenis CARDENAL PANTANERO - MASKED CARDINAL","ispublic":1,"isfriend":0,"isfamily":0},{"id":"16451124775","owner":"93882360@N07","secret":"3ac04098ea","server":"7291","farm":8,"title":"Masked cardinal (Paroaria gularis nigrogenis) Trinidad","ispublic":1,"isfriend":0,"isfamily":0},{"id":"16142981219","owner":"24201429@N04","secret":"f19984a69c","server":"7476","farm":8,"title":"Paroaria nigrogenis \/ Cardenal pantanero \/ Masked Cardinal","ispublic":1,"isfriend":0,"isfamily":0},{"id":"14340767217","owner":"8665527@N05","secret":"ed6dd3390b","server":"2926","farm":3,"title":"Paroaria-nigrogenis","ispublic":1,"isfriend":0,"isfamily":0},{"id":"14367721681","owner":"27992517@N08","secret":"fc145803dc","server":"3855","farm":4,"title":"Masked Cardinal - Paroaria nigrogenis - Hato La Aurora, E Llanos","ispublic":1,"isfriend":0,"isfamily":0},{"id":"14367720461","owner":"27992517@N08","secret":"919f381690","server":"5536","farm":6,"title":"Masked Cardinal - Paroaria nigrogenis - Hato La Aurora, E Llanos","ispublic":1,"isfriend":0,"isfamily":0},{"id":"13897496484","owner":"38744803@N06","secret":"4296fa3f7d","server":"7323","farm":8,"title":"Masked Cardinal (Paroaria nigrogenis)","ispublic":1,"isfriend":0,"isfamily":0},{"id":"12966946345","owner":"12639178@N07","secret":"049b9efcc3","server":"7349","farm":8,"title":"Maskenkardinal, NGIDn468855718","ispublic":1,"isfriend":0,"isfamily":0},{"id":"12966874005","owner":"12639178@N07","secret":"5d9e45988e","server":"2423","farm":3,"title":"Maskenkardinal, NGID1141894192","ispublic":1,"isfriend":0,"isfamily":0},{"id":"9577197231","owner":"66369907@N03","secret":"fda961376b","server":"3713","farm":4,"title":"Paroaria nigrogenis (Lafresnaye 1846)","ispublic":1,"isfriend":0,"isfamily":0},{"id":"9579984368","owner":"66369907@N03","secret":"eb519f874e","server":"5323","farm":6,"title":"Paroaria nigrogenis (Lafresnaye 1846)","ispublic":1,"isfriend":0,"isfamily":0},{"id":"8930646455","owner":"29930809@N06","secret":"9668964a48","server":"3754","farm":4,"title":"Paroaria nigrogenis","ispublic":1,"isfriend":0,"isfamily":0},{"id":"8494974631","owner":"24201429@N04","secret":"7919594961","server":"8509","farm":9,"title":"Paroaria nigrogenis \/ Cardenal pantanero \/ Masked Cardinal","ispublic":1,"isfriend":0,"isfamily":0}]},"stat":"ok"}