{"photos":{"page":1,"pages":76,"perpage":100,"total":7597,"photo":[{"id":"52719741449","owner":"12639178@N07","secret":"7b7b557453","server":"65535","farm":66,"title":"Gefiederpflege","ispublic":1,"isfriend":0,"isfamily":0},{"id":"52719741224","owner":"12639178@N07","secret":"da2ec89a96","server":"65535","farm":66,"title":"Bei der Gefiederpflege","ispublic":1,"isfriend":0,"isfamily":0},{"id":"52719962428","owner":"12639178@N07","secret":"aeb819b6a8","server":"65535","farm":66,"title":"Merlin \u00fcber einem Mangrovendickicht","ispublic":1,"isfriend":0,"isfamily":0},{"id":"52717996232","owner":"136620261@N06","secret":"05e12d32d8","server":"65535","farm":66,"title":"Faucon \u00e9merillon, Falco columbarius, Merlin-4549.jpg","ispublic":1,"isfriend":0,"isfamily":0},{"id":"52718514291","owner":"136620261@N06","secret":"35c41de4f8","server":"65535","farm":66,"title":"Faucon \u00e9merillon, Falco columbarius, Merlin-4525.jpg","ispublic":1,"isfriend":0,"isfamily":0},{"id":"52714437822","owner":"47533293@N04","secret":"05a6c2e044","server":"65535","farm":66,"title":"Merlin, Falco columbarius","ispublic":1,"isfriend":0,"isfamily":0},{"id":"52705773054","owner":"14028010@N00","secret":"a95a132b4c","server":"65535","farm":66,"title":"Merlin","ispublic":1,"isfriend":0,"isfamily":0},{"id":"52699665185","owner":"62043870@N05","secret":"555ee9f14f","server":"65535","farm":66,"title":"Merlin, Falco columbarius","ispublic":1,"isfriend":0,"isfamily":0},{"id":"52699091511","owner":"42622112@N08","secret":"c3952e56e9","server":"65535","farm":66,"title":"Merlin \/ Falco  columbarius","ispublic":1,"isfriend":0,"isfamily":0},{"id":"52697985012","owner":"36685968@N00","secret":"7f41f54b17","server":"65535","farm":66,"title":"Merlin (Falco columbarius)","ispublic":1,"isfriend":0,"isfamily":0},{"id":"52698763794","owner":"36685968@N00","secret":"53d0158838","server":"65535","farm":66,"title":"Merlin (Falco columbarius)","ispublic":1,"isfriend":0,"isfamily":0},{"id":"52698919045","owner":"36685968@N00","secret":"daae69d413","server":"65535","farm":66,"title":"Merlin (Falco columbarius)","ispublic":1,"isfriend":0,"isfamily":0},{"id":"52698591529","owner":"45640758@N08","secret":"b6fdc3618f","server":"65535","farm":66,"title":"Merlin (Falco columbarius)","ispublic":1,"isfriend":0,"isfamily":0},{"id":"52695405350","owner":"50181937@N00","secret":"8d0ecec164","server":"65535","farm":66,"title":"Neighborhood Visitor","ispublic":1,"isfriend":0,"isfamily":0},{"id":"52695151920","owner":"12185056@N02","secret":"89ab0c1925","server":"65535","farm":66,"title":"Merlin (Falco columbarius)","ispublic":1,"isfriend":0,"isfamily":0},{"id":"52691485358","owner":"191391950@N02","secret":"6418944600","server":"65535","farm":66,"title":"Faucon \u00e9merillon - Falco columbarius","ispublic":1,"isfriend":0,"isfamily":0},{"id":"52690443860","owner":"103722035@N06","secret":"03c84c2a9b","server":"65535","farm":66,"title":"Merlin (Falco columbarius), Carrizo Plain NM, CA","ispublic":1,"isfriend":0,"isfamily":0},{"id":"52686410980","owner":"136588110@N03","secret":"911bfa5dcc","server":"65535","farm":66,"title":"Female Merlin looking over her shoulder","ispublic":1,"isfriend":0,"isfamily":0},{"id":"52686266904","owner":"136588110@N03","secret":"90384e4ca0","server":"65535","farm":66,"title":"Female Merlin with wings outstretched","ispublic":1,"isfriend":0,"isfamily":0},{"id":"52684991304","owner":"129540134@N07","secret":"b2fb5c9aae","server":"65535","farm":66,"title":"ESMEREJ\u00d3N","ispublic":1,"isfriend":0,"isfamily":0},{"id":"52683249898","owner":"39445433@N02","secret":"ef3b6a6beb","server":"65535","farm":66,"title":"Merlin","ispublic":1,"isfriend":0,"isfamily":0},{"id":"52682232522","owner":"39445433@N02","secret":"963ec9c6bf","server":"65535","farm":66,"title":"Merlin","ispublic":1,"isfriend":0,"isfamily":0},{"id":"52683181620","owner":"39445433@N02","secret":"d560f54d83","server":"65535","farm":66,"title":"Merlin","ispublic":1,"isfriend":0,"isfamily":0},{"id":"52680042719","owner":"65148649@N04","secret":"7650c9458e","server":"65535","farm":66,"title":"Merlin 02.04.23 Frye","ispublic":1,"isfriend":0,"isfamily":0},{"id":"52680133308","owner":"33610210@N05","secret":"c0e787a101","server":"65535","farm":66,"title":"Taiga Merlin, Falco columbarius columbarius","ispublic":1,"isfriend":0,"isfamily":0},{"id":"52679073395","owner":"18217058@N04","secret":"3ed222b90e","server":"65535","farm":66,"title":"Merlins \/ Smyrlar (Falco columbarius)","ispublic":1,"isfriend":0,"isfamily":0},{"id":"52675610522","owner":"103722035@N06","secret":"4ac78a58b6","server":"65535","farm":66,"title":"Merlin (Falco columbarius), Oso Flaco, CA","ispublic":1,"isfriend":0,"isfamily":0},{"id":"52676613548","owner":"103722035@N06","secret":"e22c56385e","server":"65535","farm":66,"title":"Merlin (Falco columbarius), Oso Flaco, CA","ispublic":1,"isfriend":0,"isfamily":0},{"id":"52675609982","owner":"103722035@N06","secret":"c9617b7c6f","server":"65535","farm":66,"title":"Merlin (Falco columbarius), Oso Flaco, CA","ispublic":1,"isfriend":0,"isfamily":0},{"id":"52676404649","owner":"103722035@N06","secret":"8a56036cb8","server":"65535","farm":66,"title":"Merlin (Falco columbarius), Oso Flaco, CA","ispublic":1,"isfriend":0,"isfamily":0},{"id":"52675609922","owner":"103722035@N06","secret":"e4022aacd4","server":"65535","farm":66,"title":"Merlin (Falco columbarius), Oso Flaco, CA","ispublic":1,"isfriend":0,"isfamily":0},{"id":"52676549680","owner":"103722035@N06","secret":"62696b5932","server":"65535","farm":66,"title":"Merlin (Falco columbarius), Oso Flaco, CA","ispublic":1,"isfriend":0,"isfamily":0},{"id":"52676119241","owner":"103722035@N06","secret":"2ff40f560a","server":"0","farm":0,"title":"Merlin (Falco columbarius), Oso Flaco, CA","ispublic":1,"isfriend":0,"isfamily":0},{"id":"52675796815","owner":"42118189@N05","secret":"ecb144c5f2","server":"65535","farm":66,"title":"male Merlin - Falco columbarius","ispublic":1,"isfriend":0,"isfamily":0},{"id":"52674565061","owner":"188156748@N07","secret":"6df47dee85","server":"65535","farm":66,"title":"Merlin - Faucon \u00c9merillon - Falco columbarius  3805 (17)-SharpenAI-Standard copy.jpgS","ispublic":1,"isfriend":0,"isfamily":0},{"id":"52674064762","owner":"188156748@N07","secret":"b9e2f6876e","server":"65535","farm":66,"title":"Merlin - Faucon \u00c9merillon - Falco columbarius  3805 (8).jpgR-SharpenAI-Standard copy.jpgS","ispublic":1,"isfriend":0,"isfamily":0},{"id":"52675002810","owner":"188156748@N07","secret":"e6b9178385","server":"65535","farm":66,"title":"Merlin - Faucon \u00c9merillon - Falco columbarius  3805 (20)-SharpenAI-Standard copy.jpgS","ispublic":1,"isfriend":0,"isfamily":0},{"id":"52673317041","owner":"186185280@N03","secret":"e89f727c91","server":"65535","farm":66,"title":"Merlin (Falco columbarius) at Steart Marshes, Somerset","ispublic":1,"isfriend":0,"isfamily":0},{"id":"52669279279","owner":"82352887@N04","secret":"41001b5cd0","server":"65535","farm":66,"title":"Faucon \u00e9merillon (Falco columbarius)","ispublic":1,"isfriend":0,"isfamily":0},{"id":"52668051853","owner":"33610210@N05","secret":"0b269a8518","server":"65535","farm":66,"title":"Merlin, Falco columbarius","ispublic":1,"isfriend":0,"isfamily":0},{"id":"52667049537","owner":"33610210@N05","secret":"05ef3d0102","server":"65535","farm":66,"title":"Merlin, Falco columbarius","ispublic":1,"isfriend":0,"isfamily":0},{"id":"52665729641","owner":"32320154@N05","secret":"e238840044","server":"65535","farm":66,"title":"Merlin","ispublic":1,"isfriend":0,"isfamily":0},{"id":"52664473503","owner":"33610210@N05","secret":"1cb2b8a19a","server":"65535","farm":66,"title":"Merlin, Falco columbarius","ispublic":1,"isfriend":0,"isfamily":0},{"id":"52664267269","owner":"33610210@N05","secret":"33bb116a99","server":"65535","farm":66,"title":"Merlin, Falco columbarius","ispublic":1,"isfriend":0,"isfamily":0},{"id":"52661318017","owner":"33610210@N05","secret":"7745369b4b","server":"65535","farm":66,"title":"Merlin, Falco columbarius","ispublic":1,"isfriend":0,"isfamily":0},{"id":"52662262130","owner":"33610210@N05","secret":"be811e082e","server":"65535","farm":66,"title":"Merlin, Falco columbarius","ispublic":1,"isfriend":0,"isfamily":0},{"id":"52661819351","owner":"33610210@N05","secret":"57bb4d7871","server":"65535","farm":66,"title":"Merlin, Falco columbarius","ispublic":1,"isfriend":0,"isfamily":0},{"id":"52662262090","owner":"33610210@N05","secret":"b7359597cb","server":"65535","farm":66,"title":"Merlin, Falco columbarius","ispublic":1,"isfriend":0,"isfamily":0},{"id":"52662088098","owner":"32320154@N05","secret":"245060d306","server":"65535","farm":66,"title":"Merlin","ispublic":1,"isfriend":0,"isfamily":0},{"id":"52661882289","owner":"32320154@N05","secret":"1c466757a2","server":"65535","farm":66,"title":"Merlin","ispublic":1,"isfriend":0,"isfamily":0},{"id":"52660994432","owner":"25899079@N08","secret":"c8e3c553e4","server":"65535","farm":66,"title":"Merlin (6612)","ispublic":1,"isfriend":0,"isfamily":0},{"id":"52660715178","owner":"69812270@N00","secret":"c90ae9d620","server":"65535","farm":66,"title":"Merlin, San Lorenzo Park, (Towards County Bldg)","ispublic":1,"isfriend":0,"isfamily":0},{"id":"52643360483","owner":"87878368@N00","secret":"e9d4aa0889","server":"65535","farm":66,"title":"20221204-0150-1K5A1583","ispublic":1,"isfriend":0,"isfamily":0},{"id":"52643359408","owner":"87878368@N00","secret":"4b849de2bb","server":"65535","farm":66,"title":"20221204-0347-1K5A0976","ispublic":1,"isfriend":0,"isfamily":0},{"id":"52642377992","owner":"87878368@N00","secret":"5e0fb43710","server":"65535","farm":66,"title":"20221204-0406-1K5A1733","ispublic":1,"isfriend":0,"isfamily":0},{"id":"52643139419","owner":"87878368@N00","secret":"ddc7e9ec82","server":"65535","farm":66,"title":"20221204-0425-1K5A0883","ispublic":1,"isfriend":0,"isfamily":0},{"id":"52642880861","owner":"87878368@N00","secret":"3d5695f000","server":"65535","farm":66,"title":"20221204-0473-1K5A0910","ispublic":1,"isfriend":0,"isfamily":0},{"id":"52643136659","owner":"87878368@N00","secret":"b11eeba9d9","server":"65535","farm":66,"title":"20221204-0539-1K5A1061","ispublic":1,"isfriend":0,"isfamily":0},{"id":"52642878096","owner":"87878368@N00","secret":"1891a13932","server":"65535","farm":66,"title":"20221204-0545-1K5A1471","ispublic":1,"isfriend":0,"isfamily":0},{"id":"52643314995","owner":"87878368@N00","secret":"7cd7b1fc28","server":"65535","farm":66,"title":"20221204-0549-1K5A1303","ispublic":1,"isfriend":0,"isfamily":0},{"id":"52643314035","owner":"87878368@N00","secret":"e8d67bf497","server":"65535","farm":66,"title":"20221204-0624-1K5A1499","ispublic":1,"isfriend":0,"isfamily":0},{"id":"52643132009","owner":"87878368@N00","secret":"b02693a926","server":"65535","farm":66,"title":"20221204-0948-1K5A1310","ispublic":1,"isfriend":0,"isfamily":0},{"id":"52643347268","owner":"87878368@N00","secret":"4832b15934","server":"65535","farm":66,"title":"20221204-1012-1K5A1120","ispublic":1,"isfriend":0,"isfamily":0},{"id":"52643128684","owner":"87878368@N00","secret":"173bcaf5a1","server":"65535","farm":66,"title":"20221204-1014-1K5A1538","ispublic":1,"isfriend":0,"isfamily":0},{"id":"52643307270","owner":"87878368@N00","secret":"e861234498","server":"65535","farm":66,"title":"20221204-1063-1K5A1573","ispublic":1,"isfriend":0,"isfamily":0},{"id":"52642362302","owner":"87878368@N00","secret":"290aeb3284","server":"65535","farm":66,"title":"20221204-1159-1K5A1665","ispublic":1,"isfriend":0,"isfamily":0},{"id":"52643123354","owner":"87878368@N00","secret":"b86ecd312e","server":"65535","farm":66,"title":"20221204-1263-1K5A0789","ispublic":1,"isfriend":0,"isfamily":0},{"id":"52643302145","owner":"87878368@N00","secret":"2953295721","server":"65535","farm":66,"title":"20221204-1455-1K5A1055","ispublic":1,"isfriend":0,"isfamily":0},{"id":"52642356567","owner":"87878368@N00","secret":"e060c77023","server":"65535","farm":66,"title":"20221204-1470-1K5A1170","ispublic":1,"isfriend":0,"isfamily":0},{"id":"52643117809","owner":"87878368@N00","secret":"cd106e7db8","server":"65535","farm":66,"title":"20221204-1535-1K5A2385","ispublic":1,"isfriend":0,"isfamily":0},{"id":"52643296435","owner":"87878368@N00","secret":"b180ac1ba0","server":"65535","farm":66,"title":"20221204-1546-1K5A2128","ispublic":1,"isfriend":0,"isfamily":0},{"id":"52642857126","owner":"87878368@N00","secret":"617a315d23","server":"65535","farm":66,"title":"20221204-1607-1K5A1855","ispublic":1,"isfriend":0,"isfamily":0},{"id":"52643292995","owner":"87878368@N00","secret":"48afff9e18","server":"65535","farm":66,"title":"20221204-1616-1K5A2057","ispublic":1,"isfriend":0,"isfamily":0},{"id":"52643291205","owner":"87878368@N00","secret":"a48f3f2320","server":"65535","farm":66,"title":"20221204-1621-1K5A1949","ispublic":1,"isfriend":0,"isfamily":0},{"id":"52642346412","owner":"87878368@N00","secret":"ac01b32cb5","server":"65535","farm":66,"title":"20221204-1638-1K5A1853","ispublic":1,"isfriend":0,"isfamily":0},{"id":"52643324188","owner":"87878368@N00","secret":"8f80e3f7d6","server":"65535","farm":66,"title":"20221204-1720-1K5A2288","ispublic":1,"isfriend":0,"isfamily":0},{"id":"52642342717","owner":"87878368@N00","secret":"d16ef90c46","server":"65535","farm":66,"title":"20221204-1757-1K5A2290","ispublic":1,"isfriend":0,"isfamily":0},{"id":"52643284450","owner":"87878368@N00","secret":"2fcc02f8e9","server":"65535","farm":66,"title":"20221204-1870-1K5A1773","ispublic":1,"isfriend":0,"isfamily":0},{"id":"52643282940","owner":"87878368@N00","secret":"ecfcccdf13","server":"65535","farm":66,"title":"20221204-1895-1K5A2181","ispublic":1,"isfriend":0,"isfamily":0},{"id":"52643100654","owner":"87878368@N00","secret":"cddce62e9f","server":"65535","farm":66,"title":"20221204-1901-1K5A1988","ispublic":1,"isfriend":0,"isfamily":0},{"id":"52643098484","owner":"87878368@N00","secret":"6d1f873545","server":"65535","farm":66,"title":"20221204-1914-1K5A2410","ispublic":1,"isfriend":0,"isfamily":0},{"id":"52643096884","owner":"87878368@N00","secret":"0205d55f08","server":"65535","farm":66,"title":"20221204-1916-1K5A1893","ispublic":1,"isfriend":0,"isfamily":0},{"id":"52643274765","owner":"87878368@N00","secret":"699e5d07c0","server":"65535","farm":66,"title":"20221204-1938-1K5A2391","ispublic":1,"isfriend":0,"isfamily":0},{"id":"52643093124","owner":"87878368@N00","secret":"15c10ea4f8","server":"65535","farm":66,"title":"20221204-1946-1K5A2030","ispublic":1,"isfriend":0,"isfamily":0},{"id":"52643091964","owner":"87878368@N00","secret":"4c14547707","server":"65535","farm":66,"title":"20221204-1947-1K5A2044","ispublic":1,"isfriend":0,"isfamily":0},{"id":"52643270350","owner":"87878368@N00","secret":"852fba3077","server":"65535","farm":66,"title":"20221204-1983-1K5A1777","ispublic":1,"isfriend":0,"isfamily":0},{"id":"52643306073","owner":"87878368@N00","secret":"6acf70f8bc","server":"65535","farm":66,"title":"20221204-2133-1K5A1995","ispublic":1,"isfriend":0,"isfamily":0},{"id":"52643267225","owner":"87878368@N00","secret":"f460dbd9fb","server":"65535","farm":66,"title":"20221204-2178-1K5A2167","ispublic":1,"isfriend":0,"isfamily":0},{"id":"52641083458","owner":"13451078@N03","secret":"ee1dc3f97f","server":"65535","farm":66,"title":"Merlin  (Falco columbarius)","ispublic":1,"isfriend":0,"isfamily":0},{"id":"52638761071","owner":"67164820@N06","secret":"c4d8289e48","server":"65535","farm":66,"title":"merlin","ispublic":1,"isfriend":0,"isfamily":0},{"id":"52639015909","owner":"67164820@N06","secret":"b9ae740eb2","server":"65535","farm":66,"title":"merlin in a tree","ispublic":1,"isfriend":0,"isfamily":0},{"id":"52638760641","owner":"67164820@N06","secret":"ece073d59f","server":"65535","farm":66,"title":"merlin 4","ispublic":1,"isfriend":0,"isfamily":0},{"id":"52638246052","owner":"67164820@N06","secret":"c84072db60","server":"65535","farm":66,"title":"merlin 3","ispublic":1,"isfriend":0,"isfamily":0},{"id":"52638242997","owner":"67164820@N06","secret":"947ddecf39","server":"65535","farm":66,"title":"merlin 2","ispublic":1,"isfriend":0,"isfamily":0},{"id":"52637003256","owner":"142352835@N02","secret":"ce25477c44","server":"65535","farm":66,"title":"Merlin","ispublic":1,"isfriend":0,"isfamily":0},{"id":"52636652734","owner":"56930596@N02","secret":"c49513cca4","server":"65535","farm":66,"title":"Esmerla (Falco columbarius)","ispublic":1,"isfriend":0,"isfamily":0},{"id":"52631089071","owner":"76628146@N05","secret":"d2a0be981c","server":"65535","farm":66,"title":"Merlin (Falco columbarius)","ispublic":1,"isfriend":0,"isfamily":0},{"id":"52666040420","owner":"39177293@N03","secret":"696808ca4f","server":"65535","farm":66,"title":"Merlin","ispublic":1,"isfriend":0,"isfamily":0},{"id":"52629270257","owner":"50264295@N06","secret":"3dfde9ee75","server":"65535","farm":66,"title":"Merlin (Falco columbarius)- hatch year male","ispublic":1,"isfriend":0,"isfamily":0},{"id":"52629785331","owner":"50264295@N06","secret":"efb743e071","server":"65535","farm":66,"title":"Merlin (Falco columbarius)- hatch year male","ispublic":1,"isfriend":0,"isfamily":0}]},"stat":"ok"}