{"photos":{"page":1,"pages":13,"perpage":100,"total":1248,"photo":[{"id":"52486993790","owner":"59770980@N02","secret":"6fc78b6f83","server":"65535","farm":66,"title":"\u00der\u00e6lagle\u00f0a-Mississippi Kite-Ictinia mississippiensis","ispublic":1,"isfriend":0,"isfamily":0},{"id":"52394636617","owner":"100108154@N02","secret":"1bd7b62721","server":"65535","farm":66,"title":"3 Now There Are Two Kids","ispublic":1,"isfriend":0,"isfamily":0},{"id":"52395137101","owner":"100108154@N02","secret":"edeb5963de","server":"65535","farm":66,"title":"1 Guess I'll Have To Eat It Myself","ispublic":1,"isfriend":0,"isfamily":0},{"id":"52395576140","owner":"100108154@N02","secret":"269d6abb19","server":"65535","farm":66,"title":"2 One Bite & A Kid Shows Up","ispublic":1,"isfriend":0,"isfamily":0},{"id":"52395137086","owner":"100108154@N02","secret":"2f591c9e1e","server":"65535","farm":66,"title":"4 And Its Brother For The Win","ispublic":1,"isfriend":0,"isfamily":0},{"id":"52395576060","owner":"100108154@N02","secret":"c23bb997b3","server":"65535","farm":66,"title":"7 Junior Is Off Sulking","ispublic":1,"isfriend":0,"isfamily":0},{"id":"52394636592","owner":"100108154@N02","secret":"e400e058af","server":"65535","farm":66,"title":"5 Mom Is Out Of There","ispublic":1,"isfriend":0,"isfamily":0},{"id":"52395434334","owner":"100108154@N02","secret":"8601116b7c","server":"65535","farm":66,"title":"6 Brother With The Prize","ispublic":1,"isfriend":0,"isfamily":0},{"id":"52392842621","owner":"100108154@N02","secret":"de4989acc5","server":"65535","farm":66,"title":"Brother Is Having A Bad Day","ispublic":1,"isfriend":0,"isfamily":0},{"id":"52388836793","owner":"100108154@N02","secret":"06742ccc8a","server":"65535","farm":66,"title":"Junior Caught His Own Cicada!","ispublic":1,"isfriend":0,"isfamily":0},{"id":"52384495364","owner":"100108154@N02","secret":"90679bbb85","server":"65535","farm":66,"title":"Siblings","ispublic":1,"isfriend":0,"isfamily":0},{"id":"52381130699","owner":"100108154@N02","secret":"34a0f36cbc","server":"65535","farm":66,"title":"This Time Brother Is The Loud One","ispublic":1,"isfriend":0,"isfamily":0},{"id":"52381055083","owner":"100108154@N02","secret":"070d03149d","server":"65535","farm":66,"title":"Maybe He Is Doing It Wrong","ispublic":1,"isfriend":0,"isfamily":0},{"id":"52377966442","owner":"100108154@N02","secret":"ec3d32d751","server":"65535","farm":66,"title":"1 Junior Chowing Down On A Cicada","ispublic":1,"isfriend":0,"isfamily":0},{"id":"52378906646","owner":"100108154@N02","secret":"6aaa8b4f7a","server":"65535","farm":66,"title":"3 What To Do With The Wings","ispublic":1,"isfriend":0,"isfamily":0},{"id":"52379218444","owner":"100108154@N02","secret":"fe2c46f157","server":"65535","farm":66,"title":"2 I Wonder If Junior Caught It Himself","ispublic":1,"isfriend":0,"isfamily":0},{"id":"52373230560","owner":"100108154@N02","secret":"7314dec303","server":"65535","farm":66,"title":"The Squeaky Wheel Got Fed","ispublic":1,"isfriend":0,"isfamily":0},{"id":"52369245207","owner":"100108154@N02","secret":"9983f18e24","server":"65535","farm":66,"title":"Gotta Stick Your Tongue Out To Be Heard","ispublic":1,"isfriend":0,"isfamily":0},{"id":"52365615962","owner":"100108154@N02","secret":"db0440c9fe","server":"65535","farm":66,"title":"Junior & Brother","ispublic":1,"isfriend":0,"isfamily":0},{"id":"52346490694","owner":"100108154@N02","secret":"0ffb804fa4","server":"65535","farm":66,"title":"I Think I Need A Pedicure","ispublic":1,"isfriend":0,"isfamily":0},{"id":"52341394423","owner":"100108154@N02","secret":"3aa72838aa","server":"65535","farm":66,"title":"Somebody Feed Me!!!","ispublic":1,"isfriend":0,"isfamily":0},{"id":"52322125061","owner":"100108154@N02","secret":"136b889342","server":"65535","farm":66,"title":"Lots Of Green Leaves...Oh, And A Mississippi Kite","ispublic":1,"isfriend":0,"isfamily":0},{"id":"52317356154","owner":"100108154@N02","secret":"e0ec4782d3","server":"65535","farm":66,"title":"Hey Look!  I Have Talons","ispublic":1,"isfriend":0,"isfamily":0},{"id":"52313198721","owner":"100108154@N02","secret":"dfa2faa427","server":"65535","farm":66,"title":"This Is My Starving Baby Look","ispublic":1,"isfriend":0,"isfamily":0},{"id":"52310742694","owner":"100108154@N02","secret":"fc6c2f500f","server":"65535","farm":66,"title":"Adult Kite With Cicada Snack","ispublic":1,"isfriend":0,"isfamily":0},{"id":"52308287476","owner":"100108154@N02","secret":"5973867ebf","server":"65535","farm":66,"title":"What Is That Noise You Are Making?","ispublic":1,"isfriend":0,"isfamily":0},{"id":"52304967420","owner":"100108154@N02","secret":"c146c69875","server":"65535","farm":66,"title":"Junior Chows Down","ispublic":1,"isfriend":0,"isfamily":0},{"id":"52304444666","owner":"100108154@N02","secret":"16bf574d55","server":"65535","farm":66,"title":"Hey!  His Is Bigger","ispublic":1,"isfriend":0,"isfamily":0},{"id":"52302472684","owner":"100108154@N02","secret":"e8d9ee07f9","server":"65535","farm":66,"title":"Drop & Go","ispublic":1,"isfriend":0,"isfamily":0},{"id":"52301221592","owner":"100108154@N02","secret":"34e2df3fd4","server":"65535","farm":66,"title":"Breakfast Delivery","ispublic":1,"isfriend":0,"isfamily":0},{"id":"52293487334","owner":"78441846@N03","secret":"e0b11535ec","server":"65535","farm":66,"title":"Mississippi Kite, Ictinia mississippiensis","ispublic":1,"isfriend":0,"isfamily":0},{"id":"52293224051","owner":"78441846@N03","secret":"aeab1c86c0","server":"65535","farm":66,"title":"Mississippi Kite, Ictinia mississippiensis","ispublic":1,"isfriend":0,"isfamily":0},{"id":"52293708690","owner":"78441846@N03","secret":"03d538741c","server":"65535","farm":66,"title":"Mississippi Kite, Ictinia mississippiensis","ispublic":1,"isfriend":0,"isfamily":0},{"id":"52293224011","owner":"78441846@N03","secret":"fb9856ee32","server":"65535","farm":66,"title":"Mississippi Kite, Ictinia mississippiensis","ispublic":1,"isfriend":0,"isfamily":0},{"id":"52293487359","owner":"78441846@N03","secret":"85fa3ff461","server":"65535","farm":66,"title":"Mississippi Kite, Ictinia mississippiensis","ispublic":1,"isfriend":0,"isfamily":0},{"id":"52292240542","owner":"78441846@N03","secret":"30ff68fea9","server":"65535","farm":66,"title":"Mississippi Kite, Ictinia mississippiensis, with cicada prey","ispublic":1,"isfriend":0,"isfamily":0},{"id":"52292240537","owner":"78441846@N03","secret":"57e3636e5b","server":"65535","farm":66,"title":"Mississippi Kite, Ictinia mississippiensis, with cicada prey","ispublic":1,"isfriend":0,"isfamily":0},{"id":"52293224133","owner":"78441846@N03","secret":"87d2170715","server":"65535","farm":66,"title":"Mississippi Kite, Ictinia mississippiensis, feeding on cicada prey","ispublic":1,"isfriend":0,"isfamily":0},{"id":"52293487254","owner":"78441846@N03","secret":"990ffa1376","server":"65535","farm":66,"title":"Mississippi Kite, Ictinia mississippiensis, feeding on cicada prey","ispublic":1,"isfriend":0,"isfamily":0},{"id":"52293708650","owner":"78441846@N03","secret":"3632f36feb","server":"65535","farm":66,"title":"Mississippi Kite, Ictinia mississippiensis, feeding on cicada prey","ispublic":1,"isfriend":0,"isfamily":0},{"id":"52293223931","owner":"78441846@N03","secret":"70505cc714","server":"65535","farm":66,"title":"Mississippi Kite, Ictinia mississippiensis","ispublic":1,"isfriend":0,"isfamily":0},{"id":"52292240492","owner":"78441846@N03","secret":"7cc4daf3f6","server":"65535","farm":66,"title":"Mississippi Kite, Ictinia mississippiensis","ispublic":1,"isfriend":0,"isfamily":0},{"id":"52293224128","owner":"78441846@N03","secret":"8ca018bfb6","server":"65535","farm":66,"title":"Mississippi Kite, Ictinia mississippiensis","ispublic":1,"isfriend":0,"isfamily":0},{"id":"52293487234","owner":"78441846@N03","secret":"fe86577099","server":"65535","farm":66,"title":"Mississippi Kite, Ictinia mississippiensis","ispublic":1,"isfriend":0,"isfamily":0},{"id":"52293223936","owner":"78441846@N03","secret":"90c8b2b039","server":"65535","farm":66,"title":"Mississippi Kite, Ictinia mississippiensis","ispublic":1,"isfriend":0,"isfamily":0},{"id":"52293224053","owner":"78441846@N03","secret":"98a1994f6a","server":"65535","farm":66,"title":"Mississippi Kite, Ictinia mississippiensis","ispublic":1,"isfriend":0,"isfamily":0},{"id":"52292240392","owner":"78441846@N03","secret":"0a9652bd39","server":"65535","farm":66,"title":"Mississippi Kite, Ictinia mississippiensis, wiping beak after feeding on cicada","ispublic":1,"isfriend":0,"isfamily":0},{"id":"52293487184","owner":"78441846@N03","secret":"59bf471e26","server":"65535","farm":66,"title":"Mississippi Kite, Ictinia mississippiensis, feeding on cicada prey","ispublic":1,"isfriend":0,"isfamily":0},{"id":"52292240407","owner":"78441846@N03","secret":"5468ff310f","server":"65535","farm":66,"title":"Mississippi Kite, Ictinia mississippiensis, with cicada prey","ispublic":1,"isfriend":0,"isfamily":0},{"id":"52293708560","owner":"78441846@N03","secret":"560857f69b","server":"65535","farm":66,"title":"Mississippi Kite, Ictinia mississippiensis, feeding on cicada prey","ispublic":1,"isfriend":0,"isfamily":0},{"id":"52292240357","owner":"78441846@N03","secret":"cf8d03f76a","server":"65535","farm":66,"title":"Mississippi Kite, Ictinia mississippiensis","ispublic":1,"isfriend":0,"isfamily":0},{"id":"52293487164","owner":"78441846@N03","secret":"8108ca042b","server":"65535","farm":66,"title":"Mississippi Kite, Ictinia mississippiensis, wiping beak after feeding on cicada","ispublic":1,"isfriend":0,"isfamily":0},{"id":"52293223826","owner":"78441846@N03","secret":"fb9357aa7e","server":"65535","farm":66,"title":"Mississippi Kite, Ictinia mississippiensis, wiping beak after feeding on cicada","ispublic":1,"isfriend":0,"isfamily":0},{"id":"52292240362","owner":"78441846@N03","secret":"17777f72df","server":"65535","farm":66,"title":"Mississippi Kite, Ictinia mississippiensis","ispublic":1,"isfriend":0,"isfamily":0},{"id":"52293223806","owner":"78441846@N03","secret":"cd572a6d26","server":"65535","farm":66,"title":"Mississippi Kite, Ictinia mississippiensis","ispublic":1,"isfriend":0,"isfamily":0},{"id":"52293487114","owner":"78441846@N03","secret":"1667df3020","server":"65535","farm":66,"title":"Mississippi Kite, Ictinia mississippiensis","ispublic":1,"isfriend":0,"isfamily":0},{"id":"52293487119","owner":"78441846@N03","secret":"252707b205","server":"65535","farm":66,"title":"Mississippi Kite, Ictinia mississippiensis","ispublic":1,"isfriend":0,"isfamily":0},{"id":"52293223786","owner":"78441846@N03","secret":"9e0684df19","server":"65535","farm":66,"title":"Mississippi Kite, Ictinia mississippiensis","ispublic":1,"isfriend":0,"isfamily":0},{"id":"52292240262","owner":"78441846@N03","secret":"25702e56e7","server":"65535","farm":66,"title":"Mississippi Kite, Ictinia mississippiensis","ispublic":1,"isfriend":0,"isfamily":0},{"id":"52293223873","owner":"78441846@N03","secret":"17795cda88","server":"65535","farm":66,"title":"Mississippi Kite, Ictinia mississippiensis","ispublic":1,"isfriend":0,"isfamily":0},{"id":"52293223868","owner":"78441846@N03","secret":"d49205e9ae","server":"65535","farm":66,"title":"Mississippi Kite, Ictinia mississippiensis, feeding on cicada prey","ispublic":1,"isfriend":0,"isfamily":0},{"id":"52293486989","owner":"78441846@N03","secret":"75599af779","server":"65535","farm":66,"title":"Mississippi Kite, Ictinia mississippiensis, feeding on cicada prey","ispublic":1,"isfriend":0,"isfamily":0},{"id":"52293223853","owner":"78441846@N03","secret":"33f5f23b73","server":"65535","farm":66,"title":"Mississippi Kite, Ictinia mississippiensis","ispublic":1,"isfriend":0,"isfamily":0},{"id":"52293223858","owner":"78441846@N03","secret":"b2ed8bfc6a","server":"65535","farm":66,"title":"Mississippi Kite, Ictinia mississippiensis, with cicada prey","ispublic":1,"isfriend":0,"isfamily":0},{"id":"52292240222","owner":"78441846@N03","secret":"37aaa0a5c2","server":"65535","farm":66,"title":"Mississippi Kite, Ictinia mississippiensis","ispublic":1,"isfriend":0,"isfamily":0},{"id":"52293486959","owner":"78441846@N03","secret":"b2412f7c99","server":"65535","farm":66,"title":"Mississippi Kite, Ictinia mississippiensis","ispublic":1,"isfriend":0,"isfamily":0},{"id":"52292240107","owner":"78441846@N03","secret":"13d95259f4","server":"65535","farm":66,"title":"Mississippi Kite, Ictinia mississippiensis","ispublic":1,"isfriend":0,"isfamily":0},{"id":"52293223768","owner":"78441846@N03","secret":"5589f1b776","server":"65535","farm":66,"title":"Mississippi Kite, Ictinia mississippiensis","ispublic":1,"isfriend":0,"isfamily":0},{"id":"52293486894","owner":"78441846@N03","secret":"1337b4c1d4","server":"65535","farm":66,"title":"Mississippi Kite, Ictinia mississippiensis","ispublic":1,"isfriend":0,"isfamily":0},{"id":"52292240147","owner":"78441846@N03","secret":"33ce809624","server":"65535","farm":66,"title":"Mississippi Kite, Ictinia mississippiensis, with cicada prey","ispublic":1,"isfriend":0,"isfamily":0},{"id":"52293708390","owner":"78441846@N03","secret":"6fff7e9a4a","server":"65535","farm":66,"title":"Mississippi Kite, Ictinia mississippiensis, feeding on cicada prey","ispublic":1,"isfriend":0,"isfamily":0},{"id":"52292240112","owner":"78441846@N03","secret":"915e225540","server":"65535","farm":66,"title":"Mississippi Kite, Ictinia mississippiensis","ispublic":1,"isfriend":0,"isfamily":0},{"id":"52293223793","owner":"78441846@N03","secret":"7081b7e904","server":"65535","farm":66,"title":"Mississippi Kite, Ictinia mississippiensis, with cicada prey","ispublic":1,"isfriend":0,"isfamily":0},{"id":"52293223758","owner":"78441846@N03","secret":"0f09da4346","server":"65535","farm":66,"title":"Mississippi Kite, Ictinia mississippiensis","ispublic":1,"isfriend":0,"isfamily":0},{"id":"52293707145","owner":"78441846@N03","secret":"2dcaa220a2","server":"65535","farm":66,"title":"Mississippi Kite, Ictinia mississippiensis, feeding on cicada prey","ispublic":1,"isfriend":0,"isfamily":0},{"id":"52293222426","owner":"78441846@N03","secret":"50f57a6407","server":"65535","farm":66,"title":"Mississippi Kite, Ictinia mississippiensis, with cicada prey","ispublic":1,"isfriend":0,"isfamily":0},{"id":"52293707130","owner":"78441846@N03","secret":"f1f08355a4","server":"65535","farm":66,"title":"Mississippi Kite, Ictinia mississippiensis, feeding on cicada prey","ispublic":1,"isfriend":0,"isfamily":0},{"id":"52293707120","owner":"78441846@N03","secret":"7ec20a2aef","server":"65535","farm":66,"title":"Mississippi Kite, Ictinia mississippiensis","ispublic":1,"isfriend":0,"isfamily":0},{"id":"52292238927","owner":"78441846@N03","secret":"853d309d2e","server":"65535","farm":66,"title":"Mississippi Kite, Ictinia mississippiensis, feeding on cicada prey","ispublic":1,"isfriend":0,"isfamily":0},{"id":"52293485639","owner":"78441846@N03","secret":"cfa1abc339","server":"65535","farm":66,"title":"Mississippi Kite, Ictinia mississippiensis","ispublic":1,"isfriend":0,"isfamily":0},{"id":"52293485644","owner":"78441846@N03","secret":"b38cdc7625","server":"65535","farm":66,"title":"Mississippi Kite, Ictinia mississippiensis, with cicada prey","ispublic":1,"isfriend":0,"isfamily":0},{"id":"52292238882","owner":"78441846@N03","secret":"18f795456a","server":"65535","farm":66,"title":"Mississippi Kite, Ictinia mississippiensis","ispublic":1,"isfriend":0,"isfamily":0},{"id":"52293222386","owner":"78441846@N03","secret":"b5c87a21cb","server":"65535","farm":66,"title":"Mississippi Kite, Ictinia mississippiensis","ispublic":1,"isfriend":0,"isfamily":0},{"id":"52293222376","owner":"78441846@N03","secret":"126b18caff","server":"65535","farm":66,"title":"Mississippi Kite, Ictinia mississippiensis","ispublic":1,"isfriend":0,"isfamily":0},{"id":"52293222396","owner":"78441846@N03","secret":"5077685801","server":"65535","farm":66,"title":"Mississippi Kite, Ictinia mississippiensis","ispublic":1,"isfriend":0,"isfamily":0},{"id":"52292238897","owner":"78441846@N03","secret":"9d0dba8546","server":"65535","farm":66,"title":"Mississippi Kite, Ictinia mississippiensis","ispublic":1,"isfriend":0,"isfamily":0},{"id":"52293485589","owner":"78441846@N03","secret":"2c88c2b8aa","server":"65535","farm":66,"title":"Mississippi Kite, Ictinia mississippiensis, with cicada prey","ispublic":1,"isfriend":0,"isfamily":0},{"id":"52293222643","owner":"78441846@N03","secret":"423548c5dc","server":"65535","farm":66,"title":"Mississippi Kite, Ictinia mississippiensis, with cicada prey","ispublic":1,"isfriend":0,"isfamily":0},{"id":"52293707035","owner":"78441846@N03","secret":"0e4a14d04c","server":"65535","farm":66,"title":"Mississippi Kite, Ictinia mississippiensis","ispublic":1,"isfriend":0,"isfamily":0},{"id":"52332409201","owner":"78441846@N03","secret":"5da4b36bdd","server":"65535","farm":66,"title":"Mississippi Kite, Ictinia mississippiensis","ispublic":1,"isfriend":0,"isfamily":0},{"id":"52332642573","owner":"78441846@N03","secret":"13ab996a37","server":"65535","farm":66,"title":"Mississippi Kite, Ictinia mississippiensis","ispublic":1,"isfriend":0,"isfamily":0},{"id":"52332702644","owner":"78441846@N03","secret":"41eb25efa2","server":"65535","farm":66,"title":"Mississippi Kite, Ictinia mississippiensis","ispublic":1,"isfriend":0,"isfamily":0},{"id":"52332642498","owner":"78441846@N03","secret":"7a53736a41","server":"65535","farm":66,"title":"Mississippi Kite, Ictinia mississippiensis","ispublic":1,"isfriend":0,"isfamily":0},{"id":"52317139872","owner":"8177037@N06","secret":"f536e83f62","server":"65535","farm":66,"title":"Mississippi Kites","ispublic":1,"isfriend":0,"isfamily":0},{"id":"52318384275","owner":"8177037@N06","secret":"732f160309","server":"65535","farm":66,"title":"Mississippi Kite","ispublic":1,"isfriend":0,"isfamily":0},{"id":"52318383990","owner":"8177037@N06","secret":"4907e4f3fc","server":"65535","farm":66,"title":"Mississippi Kite","ispublic":1,"isfriend":0,"isfamily":0},{"id":"52318361014","owner":"8177037@N06","secret":"42b0ff3f17","server":"65535","farm":66,"title":"Mississippi Kite","ispublic":1,"isfriend":0,"isfamily":0},{"id":"52317940571","owner":"8177037@N06","secret":"0464e916fa","server":"65535","farm":66,"title":"Mississippi Kite","ispublic":1,"isfriend":0,"isfamily":0},{"id":"52318249648","owner":"8177037@N06","secret":"26224e2cc3","server":"65535","farm":66,"title":"Mississippi Kites","ispublic":1,"isfriend":0,"isfamily":0},{"id":"52307051625","owner":"196264892@N08","secret":"a3083003cb","server":"65535","farm":66,"title":"Mississippi Kite","ispublic":1,"isfriend":0,"isfamily":0}]},"stat":"ok"}