{"photos":{"page":1,"pages":2,"perpage":100,"total":128,"photo":[{"id":"52720334028","owner":"12639178@N07","secret":"d1b937d517","server":"65535","farm":66,"title":"Beleg Schwarzbrustspelzer","ispublic":1,"isfriend":0,"isfamily":0},{"id":"52667904584","owner":"33610210@N05","secret":"b354a319b0","server":"65535","farm":66,"title":"Morelet's Seedeater, Sporophila morelleti","ispublic":1,"isfriend":0,"isfamily":0},{"id":"52667614176","owner":"33610210@N05","secret":"92c06d4c19","server":"65535","farm":66,"title":"Morelet's Seedeater, Sporophila morelleti","ispublic":1,"isfriend":0,"isfamily":0},{"id":"52668118683","owner":"33610210@N05","secret":"9edef360cf","server":"65535","farm":66,"title":"Morelet's Seedeater, Sporophila morelleti","ispublic":1,"isfriend":0,"isfamily":0},{"id":"52668118588","owner":"33610210@N05","secret":"3242188bc3","server":"65535","farm":66,"title":"Morelet's Seedeater, Sporophila morelleti","ispublic":1,"isfriend":0,"isfamily":0},{"id":"52665106007","owner":"39177293@N03","secret":"7eef2c3054","server":"65535","farm":66,"title":"Morelet's Seedeater","ispublic":1,"isfriend":0,"isfamily":0},{"id":"52495887398","owner":"10937887@N00","secret":"d8bc6583bd","server":"65535","farm":66,"title":"5November2022F229","ispublic":1,"isfriend":0,"isfamily":0},{"id":"52239949136","owner":"193010058@N08","secret":"9d1b7a13aa","server":"65535","farm":66,"title":"Morelets Seedeater (Sporophila morelleti)","ispublic":1,"isfriend":0,"isfamily":0},{"id":"52220457023","owner":"26371261@N00","secret":"1b4724e1df","server":"65535","farm":66,"title":"Morelet's Seedeater, Sporophila morelleti","ispublic":1,"isfriend":0,"isfamily":0},{"id":"52219437437","owner":"26371261@N00","secret":"350cda10e8","server":"65535","farm":66,"title":"Morelet's Seedeater, Sporophila morelleti","ispublic":1,"isfriend":0,"isfamily":0},{"id":"52220932595","owner":"26371261@N00","secret":"d5dae4f470","server":"65535","farm":66,"title":"Morelet's Seedeater, Sporophila morelleti","ispublic":1,"isfriend":0,"isfamily":0},{"id":"52084074179","owner":"42978673@N00","secret":"315aa88d6d","server":"65535","farm":66,"title":"Morelet's Seedeater - Sporophila morelleti","ispublic":1,"isfriend":0,"isfamily":0},{"id":"52083834616","owner":"42978673@N00","secret":"640b47cda9","server":"65535","farm":66,"title":"Morelet's Seedeater - Sporophila morelleti","ispublic":1,"isfriend":0,"isfamily":0},{"id":"52058038715","owner":"99208129@N08","secret":"e0816f9f34","server":"65535","farm":66,"title":"Sporophila morelleti \/ Morelet's Seedeater","ispublic":1,"isfriend":0,"isfamily":0},{"id":"52057551026","owner":"99208129@N08","secret":"de0d98a236","server":"65535","farm":66,"title":"Sporophila morelleti \/ Morelet's Seedeater","ispublic":1,"isfriend":0,"isfamily":0},{"id":"52037380538","owner":"186211059@N06","secret":"8e549a2abf","server":"65535","farm":66,"title":"Morelet's Seedeater","ispublic":1,"isfriend":0,"isfamily":0},{"id":"52037378998","owner":"186211059@N06","secret":"d0efe4da2a","server":"65535","farm":66,"title":"Morelet's Seedeater","ispublic":1,"isfriend":0,"isfamily":0},{"id":"52004865017","owner":"26371261@N00","secret":"9c9121ef6c","server":"65535","farm":66,"title":"Morelet's Seedeater, Sporophila morelleti","ispublic":1,"isfriend":0,"isfamily":0},{"id":"51982686548","owner":"24110087@N05","secret":"185abc1643","server":"65535","farm":66,"title":"Morelet's Seedeater - Sporophila morelleti","ispublic":1,"isfriend":0,"isfamily":0},{"id":"51983172115","owner":"24110087@N05","secret":"d6c1457317","server":"65535","farm":66,"title":"Morelet's Seedeater - Sporophila morelleti","ispublic":1,"isfriend":0,"isfamily":0},{"id":"51983172030","owner":"24110087@N05","secret":"4e51ce3b64","server":"65535","farm":66,"title":"Morelet's Seedeater - Sporophila morelleti","ispublic":1,"isfriend":0,"isfamily":0},{"id":"51900822113","owner":"10318424@N07","secret":"72278e8a63","server":"65535","farm":66,"title":"Morelet's Seedeater (Sporophila morelleti)","ispublic":1,"isfriend":0,"isfamily":0},{"id":"51895534712","owner":"65788177@N02","secret":"6057d4ed98","server":"65535","farm":66,"title":"Morelet's Seedeater","ispublic":1,"isfriend":0,"isfamily":0},{"id":"51811052171","owner":"26371261@N00","secret":"e1094711bb","server":"65535","farm":66,"title":"Morelet's Seedeater, Sporophila morelleti","ispublic":1,"isfriend":0,"isfamily":0},{"id":"51343218723","owner":"94310798@N04","secret":"16f24a8bd8","server":"65535","farm":66,"title":"White-collared seedeater","ispublic":1,"isfriend":0,"isfamily":0},{"id":"51198324561","owner":"56983940@N06","secret":"c453be44b7","server":"65535","farm":66,"title":"Morelet's Seedeater","ispublic":1,"isfriend":0,"isfamily":0},{"id":"51173893057","owner":"26371261@N00","secret":"5811dc5188","server":"65535","farm":66,"title":"Morelet's Seedeater, Sporophila morelleti","ispublic":1,"isfriend":0,"isfamily":0},{"id":"51129669854","owner":"18217058@N04","secret":"96e926f0ea","server":"65535","farm":66,"title":"Morelet's seedeater \/ White-collared Seedeater (Sporophila morelleti)","ispublic":1,"isfriend":0,"isfamily":0},{"id":"51129669829","owner":"18217058@N04","secret":"1624d3c94c","server":"65535","farm":66,"title":"Morelet's seedeater \/ White-collared Seedeater (Sporophila morelleti)","ispublic":1,"isfriend":0,"isfamily":0},{"id":"51129654887","owner":"18217058@N04","secret":"c320fbb483","server":"65535","farm":66,"title":"Morelet's seedeater \/ White-collared Seedeater (Sporophila morelleti)","ispublic":1,"isfriend":0,"isfamily":0},{"id":"51129615286","owner":"18217058@N04","secret":"fff57b670c","server":"65535","farm":66,"title":"Morelet's seedeater \/ White-collared Seedeater (Sporophila morelleti)","ispublic":1,"isfriend":0,"isfamily":0},{"id":"50888991362","owner":"190923251@N05","secret":"dac0d90249","server":"65535","farm":66,"title":"Morelet\u2019s Seedeater male","ispublic":1,"isfriend":0,"isfamily":0},{"id":"50849932698","owner":"99208129@N08","secret":"502a274c74","server":"65535","farm":66,"title":"Sporophila morelleti \/ Morelet's Seedeater","ispublic":1,"isfriend":0,"isfamily":0},{"id":"50845002368","owner":"32805478@N03","secret":"1c02850aec","server":"65535","farm":66,"title":"Semillero cuelliblanco, Sporophila morelleti, White-collared Seedeater","ispublic":1,"isfriend":0,"isfamily":0},{"id":"50816162077","owner":"33610210@N05","secret":"4bfcb298e6","server":"65535","farm":66,"title":"Morelet's Seedeater,","ispublic":1,"isfriend":0,"isfamily":0},{"id":"50815311693","owner":"33610210@N05","secret":"d284975542","server":"65535","farm":66,"title":"Morelet's Seedeater,","ispublic":1,"isfriend":0,"isfamily":0},{"id":"50816054851","owner":"33610210@N05","secret":"3902ed0753","server":"65535","farm":66,"title":"Morelet's Seedeater,","ispublic":1,"isfriend":0,"isfamily":0},{"id":"50816161817","owner":"33610210@N05","secret":"43669f4409","server":"65535","farm":66,"title":"Morelet's Seedeater,","ispublic":1,"isfriend":0,"isfamily":0},{"id":"50805564978","owner":"32805478@N03","secret":"b7b3f803c1","server":"65535","farm":66,"title":"Semillero cuelliblanco, Sporophila morelleti, White-collared Seedeater","ispublic":1,"isfriend":0,"isfamily":0},{"id":"50713185466","owner":"32805478@N03","secret":"845a8fe285","server":"65535","farm":66,"title":"Semillero cuelliblanco, Sporophila morelleti, White-collared Seedeater","ispublic":1,"isfriend":0,"isfamily":0},{"id":"50705570406","owner":"32805478@N03","secret":"a3231f97eb","server":"65535","farm":66,"title":"Semillero cuelliblanco, Sporophila morelleti, White-collared Seedeater","ispublic":1,"isfriend":0,"isfamily":0},{"id":"50252127977","owner":"140734051@N08","secret":"e5deb05f4e","server":"65535","farm":66,"title":"\u0412\u043e\u0440\u043e\u0442\u043d\u0438\u0447\u043a\u043e\u0432\u044b\u0439 \u043f\u0440\u043e\u0441\u044f\u043d\u043e\u0447\u043d\u0438\u043a, Sporophila morelleti morelleti, White-collared Seedeater","ispublic":1,"isfriend":0,"isfamily":0},{"id":"50252127837","owner":"140734051@N08","secret":"31253abcd3","server":"65535","farm":66,"title":"\u0412\u043e\u0440\u043e\u0442\u043d\u0438\u0447\u043a\u043e\u0432\u044b\u0439 \u043f\u0440\u043e\u0441\u044f\u043d\u043e\u0447\u043d\u0438\u043a, Sporophila morelleti morelleti, White-collared Seedeater","ispublic":1,"isfriend":0,"isfamily":0},{"id":"50252127727","owner":"140734051@N08","secret":"2de649f85d","server":"65535","farm":66,"title":"\u0412\u043e\u0440\u043e\u0442\u043d\u0438\u0447\u043a\u043e\u0432\u044b\u0439 \u043f\u0440\u043e\u0441\u044f\u043d\u043e\u0447\u043d\u0438\u043a, Sporophila morelleti morelleti, White-collared Seedeater","ispublic":1,"isfriend":0,"isfamily":0},{"id":"50251940326","owner":"140734051@N08","secret":"b066629d2e","server":"65535","farm":66,"title":"\u0412\u043e\u0440\u043e\u0442\u043d\u0438\u0447\u043a\u043e\u0432\u044b\u0439 \u043f\u0440\u043e\u0441\u044f\u043d\u043e\u0447\u043d\u0438\u043a, Sporophila morelleti morelleti, White-collared Seedeater","ispublic":1,"isfriend":0,"isfamily":0},{"id":"50144917311","owner":"61021753@N02","secret":"097acc1d35","server":"65535","farm":66,"title":"n358_w1150","ispublic":1,"isfriend":0,"isfamily":0},{"id":"49923164028","owner":"140734051@N08","secret":"74432bcd23","server":"65535","farm":66,"title":"\u0412\u043e\u0440\u043e\u0442\u043d\u0438\u0447\u043a\u043e\u0432\u044b\u0439 \u043f\u0440\u043e\u0441\u044f\u043d\u043e\u0447\u043d\u0438\u043a, Sporophila morelleti morelleti, White-collared Seedeater","ispublic":1,"isfriend":0,"isfamily":0},{"id":"49923681961","owner":"140734051@N08","secret":"8e2ab798d7","server":"65535","farm":66,"title":"\u0412\u043e\u0440\u043e\u0442\u043d\u0438\u0447\u043a\u043e\u0432\u044b\u0439 \u043f\u0440\u043e\u0441\u044f\u043d\u043e\u0447\u043d\u0438\u043a, Sporophila morelleti morelleti, White-collared Seedeater","ispublic":1,"isfriend":0,"isfamily":0},{"id":"49324975488","owner":"33610210@N05","secret":"443f355bf0","server":"65535","farm":66,"title":"Morelet's seedeater, Sporophila morelleti","ispublic":1,"isfriend":0,"isfamily":0},{"id":"49325677997","owner":"33610210@N05","secret":"2830143705","server":"65535","farm":66,"title":"Morelet's seedeater, Sporophila morelleti","ispublic":1,"isfriend":0,"isfamily":0},{"id":"49325459601","owner":"33610210@N05","secret":"a5ddea4a5a","server":"65535","farm":66,"title":"Morelet's seedeater, Sporophila morelleti","ispublic":1,"isfriend":0,"isfamily":0},{"id":"48523356057","owner":"47020313@N08","secret":"a333994306","server":"65535","farm":66,"title":"Morelet's Seedeater_MG_2277edtsg","ispublic":1,"isfriend":0,"isfamily":0},{"id":"48500280282","owner":"44880465@N02","secret":"6c2f8ed846","server":"65535","farm":66,"title":"Morelet's Seedeater","ispublic":1,"isfriend":0,"isfamily":0},{"id":"48395757572","owner":"96581634@N07","secret":"b68a406ffb","server":"65535","farm":66,"title":"White-collared Seedeater (Sporophila morelleti)","ispublic":1,"isfriend":0,"isfamily":0},{"id":"48192809607","owner":"52631592@N05","secret":"4d24f5e0a8","server":"65535","farm":66,"title":"Morelet\u2019s seedeater (Sporophila morelleti)","ispublic":1,"isfriend":0,"isfamily":0},{"id":"47857628972","owner":"26803925@N05","secret":"fd5b37e002","server":"65535","farm":66,"title":"Morelet's Seedeater (Sporophila morelleti) 03-15-2019 Celeste Mountain Lodge, Alajuela, CR 7","ispublic":1,"isfriend":0,"isfamily":0},{"id":"46948917995","owner":"44880465@N02","secret":"52d902294b","server":"65535","farm":66,"title":"Morelet's Seedeater","ispublic":1,"isfriend":0,"isfamily":0},{"id":"33954981048","owner":"26803925@N05","secret":"aa78709eea","server":"65535","farm":66,"title":"Morelet's Seedeater (Sporophila morelleti) 03-11-2019 Entrada Los Chiles (El Parque) hasta Ca\u00f1o Negro, Alajuela Province, CR 2","ispublic":1,"isfriend":0,"isfamily":0},{"id":"33864792368","owner":"26803925@N05","secret":"f4a546cf01","server":"65535","farm":66,"title":"Morelet's Seedeater (Sporophila morelleti) 03-10-2019 Entrada Los Chiles (El Parque) hasta Ca\u00f1o Negro, Alajuela Province, CR 5","ispublic":1,"isfriend":0,"isfamily":0},{"id":"33864792298","owner":"26803925@N05","secret":"66814601b6","server":"65535","farm":66,"title":"Morelet's Seedeater (Sporophila morelleti) 03-10-2019 Entrada Los Chiles (El Parque) hasta Ca\u00f1o Negro, Alajuela Province, CR 4","ispublic":1,"isfriend":0,"isfamily":0},{"id":"33864792238","owner":"26803925@N05","secret":"a58faf5061","server":"65535","farm":66,"title":"Morelet's Seedeater (Sporophila morelleti) 03-10-2019 Entrada Los Chiles (El Parque) hasta Ca\u00f1o Negro, Alajuela Province, CR 2","ispublic":1,"isfriend":0,"isfamily":0},{"id":"46162031775","owner":"26371261@N00","secret":"7747d98bd5","server":"7855","farm":8,"title":"Morelet's Seedeater, Sporophila morelleti","ispublic":1,"isfriend":0,"isfamily":0},{"id":"33200480908","owner":"26371261@N00","secret":"f0fc9d20bb","server":"7833","farm":8,"title":"Morelet's Seedeater, Sporophila morelleti","ispublic":1,"isfriend":0,"isfamily":0},{"id":"46162021595","owner":"26371261@N00","secret":"6c0d4260b2","server":"7861","farm":8,"title":"Morelet's Seedeater, Sporophila morelleti","ispublic":1,"isfriend":0,"isfamily":0},{"id":"27053061578","owner":"100763406@N04","secret":"9e1b3c28bf","server":"65535","farm":66,"title":"Morelet's seedeater (Sporophila morelleti)","ispublic":1,"isfriend":0,"isfamily":0},{"id":"24975735447","owner":"54249623@N08","secret":"a23f3ec21c","server":"65535","farm":66,"title":"White-collared Seedeater (Sporophila morelleti) (Sporophila torqueola morelleti)","ispublic":1,"isfriend":0,"isfamily":0},{"id":"36540832804","owner":"29170368@N03","secret":"3d88ae33bd","server":"65535","farm":66,"title":"Morelet's Seedeater","ispublic":1,"isfriend":0,"isfamily":0},{"id":"34965796154","owner":"156457454@N02","secret":"58f0d7919b","server":"4239","farm":5,"title":"Sporophila morelleti 1 (Morelet's Seedeater)","ispublic":1,"isfriend":0,"isfamily":0},{"id":"34902330603","owner":"25572396@N04","secret":"5b8f97d198","server":"4017","farm":5,"title":"Semillerito Collarejo | White-collared Seedeater (Sporophila torqueola)","ispublic":1,"isfriend":0,"isfamily":0},{"id":"32083559620","owner":"69351997@N06","secret":"7cb79d5475","server":"392","farm":1,"title":"Sporophila torqueola morelleti, White-collared Seedeater","ispublic":1,"isfriend":0,"isfamily":0},{"id":"27283398273","owner":"76617062@N08","secret":"e3443b8f5f","server":"7348","farm":8,"title":"1.28856 Sporophile \u00e0 col blanc (m\u00e2le) \/ Sporophila morelleti mutanda \/ White-collared Seedeater \/ Espiguero de Collar","ispublic":1,"isfriend":0,"isfamily":0},{"id":"52668052015","owner":"33610210@N05","secret":"9f49733b4e","server":"65535","farm":66,"title":"Morelet's Seedeater, Sporophila morelleti","ispublic":1,"isfriend":0,"isfamily":0},{"id":"52580726550","owner":"153973412@N04","secret":"09c8715957","server":"65535","farm":66,"title":"Morelet\u2019s Seedeater-Sporophila morelleti, Cozumel, MX","ispublic":1,"isfriend":0,"isfamily":0},{"id":"52220439196","owner":"26371261@N00","secret":"707ac06175","server":"65535","farm":66,"title":"Morelet's Seedeater, Sporophila morelleti","ispublic":1,"isfriend":0,"isfamily":0},{"id":"51943732465","owner":"126993030@N06","secret":"7a9405213b","server":"65535","farm":66,"title":"Morelet's Seedeater (Sporophila morelleti)","ispublic":1,"isfriend":0,"isfamily":0},{"id":"51118218846","owner":"26371261@N00","secret":"19835ec83d","server":"65535","farm":66,"title":"Morelet's Seedeater, Sporophila morelleti","ispublic":1,"isfriend":0,"isfamily":0},{"id":"50815311618","owner":"33610210@N05","secret":"1cd6b5b960","server":"65535","farm":66,"title":"Morelet's Seedeater,","ispublic":1,"isfriend":0,"isfamily":0},{"id":"50816054721","owner":"33610210@N05","secret":"545b06be87","server":"65535","farm":66,"title":"Morelet's Seedeater,","ispublic":1,"isfriend":0,"isfamily":0},{"id":"50816161557","owner":"33610210@N05","secret":"aee4a63983","server":"65535","farm":66,"title":"Morelet's Seedeater,","ispublic":1,"isfriend":0,"isfamily":0},{"id":"50815310528","owner":"33610210@N05","secret":"bca743351c","server":"65535","farm":66,"title":"Morelet's Seedeater,","ispublic":1,"isfriend":0,"isfamily":0},{"id":"49468403458","owner":"32752434@N07","secret":"984c92e660","server":"65535","farm":66,"title":"Morelet's Seedeater (Sporophila morelleti)","ispublic":1,"isfriend":0,"isfamily":0},{"id":"49325678047","owner":"33610210@N05","secret":"73bdc30225","server":"65535","farm":66,"title":"Morelet's seedeater, Sporophila morelleti","ispublic":1,"isfriend":0,"isfamily":0},{"id":"49325677927","owner":"33610210@N05","secret":"217ffabec2","server":"65535","farm":66,"title":"Morelet's seedeater, Sporophila morelleti","ispublic":1,"isfriend":0,"isfamily":0},{"id":"49109892378","owner":"12639178@N07","secret":"b6bd06c6d3","server":"65535","farm":66,"title":"Morelet\u00b4s Seedeater - Panama (Belegbild)","ispublic":1,"isfriend":0,"isfamily":0},{"id":"48115127097","owner":"44880465@N02","secret":"79a18fea46","server":"65535","farm":66,"title":"Morelet's Seedeater","ispublic":1,"isfriend":0,"isfamily":0},{"id":"47857628652","owner":"26803925@N05","secret":"080713e587","server":"65535","farm":66,"title":"Morelet's Seedeater (Sporophila morelleti) 03-15-2019 Celeste Mountain Lodge, Alajuela, CR 5","ispublic":1,"isfriend":0,"isfamily":0},{"id":"33954981338","owner":"26803925@N05","secret":"6d3b365c36","server":"65535","farm":66,"title":"Morelet's Seedeater (Sporophila morelleti) 03-12-2019 Entrada Los Chiles (El Parque) hasta Ca\u00f1o Negro, Alajuela Province, CR 10","ispublic":1,"isfriend":0,"isfamily":0},{"id":"33954981248","owner":"26803925@N05","secret":"edcabd052b","server":"65535","farm":66,"title":"Morelet's Seedeater (Sporophila morelleti) 03-11-2019 Entrada Los Chiles (El Parque) hasta Ca\u00f1o Negro, Alajuela Province, CR 8","ispublic":1,"isfriend":0,"isfamily":0},{"id":"33954981128","owner":"26803925@N05","secret":"73c8346de7","server":"65535","farm":66,"title":"Morelet's Seedeater (Sporophila morelleti) 03-12-2019 Entrada Los Chiles (El Parque) hasta Ca\u00f1o Negro, Alajuela Province, CR 6","ispublic":1,"isfriend":0,"isfamily":0},{"id":"47030208914","owner":"26803925@N05","secret":"5152f325ea","server":"65535","farm":66,"title":"Morelet's Seedeater (Sporophila morelleti) 03-12-2019 Medio Queso wetland, Alajuela Province, CR 2","ispublic":1,"isfriend":0,"isfamily":0},{"id":"32559000287","owner":"147614971@N08","secret":"72c8702acc","server":"7876","farm":8,"title":"Morelet's Seedeater - Sporophila morelleti","ispublic":1,"isfriend":0,"isfamily":0},{"id":"33384796848","owner":"119095828@N03","secret":"d07cb44b27","server":"7882","farm":8,"title":"Morelet's Seedeater (Sporophila morelleti)","ispublic":1,"isfriend":0,"isfamily":0},{"id":"47208657052","owner":"119095828@N03","secret":"94850e25af","server":"7856","farm":8,"title":"Morelet's Seedeater (Sporophila morelleti)","ispublic":1,"isfriend":0,"isfamily":0},{"id":"44348053315","owner":"24110087@N05","secret":"f6b44ce01c","server":"1976","farm":2,"title":"Morelet\u2019s Seedeater Sporophila morelleti","ispublic":1,"isfriend":0,"isfamily":0},{"id":"41935576742","owner":"121103603@N05","secret":"6411940d7d","server":"980","farm":1,"title":"White-collared Seedeater (Sporophila morelleti)","ispublic":1,"isfriend":0,"isfamily":0},{"id":"36973558670","owner":"14513167@N07","secret":"f59c95a5da","server":"4386","farm":5,"title":"Morelet's Seedeater (Sporophila morelleti)","ispublic":1,"isfriend":0,"isfamily":0},{"id":"34996021273","owner":"156457454@N02","secret":"b8a90ceeed","server":"4263","farm":5,"title":"Sporophila morelleti 2 (Morelet's Seedeater)","ispublic":1,"isfriend":0,"isfamily":0},{"id":"24498045170","owner":"129673089@N03","secret":"1f4fe0bdf5","server":"1475","farm":2,"title":"Immature Morelet's (White-collared) Seedeater, Sporophila morelleti, Lake Atitlan","ispublic":1,"isfriend":0,"isfamily":0},{"id":"24675707122","owner":"129673089@N03","secret":"8ba79a3565","server":"1515","farm":2,"title":"Morelet's (White-collared) Seedeater, Sporophila morelleti, Lake Atitlan","ispublic":1,"isfriend":0,"isfamily":0},{"id":"24072750662","owner":"26096524@N03","secret":"f043f856d8","server":"1551","farm":2,"title":"Morelet's Seedeater (Sporophila morelleti)","ispublic":1,"isfriend":0,"isfamily":0}]},"stat":"ok"}