{"photos":{"page":1,"pages":20,"perpage":100,"total":1999,"photo":[{"id":"52785146507","owner":"187245476@N05","secret":"f23a259421","server":"65535","farm":66,"title":"MOUNTAIN CHICKADEE (Poecile gambeli)","ispublic":1,"isfriend":0,"isfamily":0},{"id":"52777161614","owner":"34238008@N02","secret":"c2792593d6","server":"65535","farm":66,"title":"Mountain Chickadee (Poecile gambeli)","ispublic":1,"isfriend":0,"isfamily":0},{"id":"52776376462","owner":"34238008@N02","secret":"2256592c77","server":"65535","farm":66,"title":"Mountain Chickadee (Poecile gambeli)","ispublic":1,"isfriend":0,"isfamily":0},{"id":"52758334658","owner":"25899079@N08","secret":"bc8265acfb","server":"65535","farm":66,"title":"Mountain Chickadee (9574)","ispublic":1,"isfriend":0,"isfamily":0},{"id":"52755314015","owner":"163667952@N05","secret":"ac91ecbb2d","server":"65535","farm":66,"title":"Mountain Chickadee","ispublic":1,"isfriend":0,"isfamily":0},{"id":"52738615760","owner":"34238008@N02","secret":"32b9f3f1b9","server":"65535","farm":66,"title":"Mountain Chickadee (Poecile gambeli)","ispublic":1,"isfriend":0,"isfamily":0},{"id":"52737681802","owner":"34238008@N02","secret":"1e73a0c969","server":"65535","farm":66,"title":"Mountain Chickadee (Poecile gambeli)","ispublic":1,"isfriend":0,"isfamily":0},{"id":"52723651663","owner":"16447555@N02","secret":"95b94f433a","server":"65535","farm":66,"title":"Mountain Chickadee_IMG_0747_edited-1","ispublic":1,"isfriend":0,"isfamily":0},{"id":"52722390130","owner":"25899079@N08","secret":"b111f8435b","server":"65535","farm":66,"title":"Mountain Chickadee (9548)","ispublic":1,"isfriend":0,"isfamily":0},{"id":"52680825338","owner":"34238008@N02","secret":"cb3c5f50f5","server":"65535","farm":66,"title":"Mountain Chickadee (Poecile gambeli)","ispublic":1,"isfriend":0,"isfamily":0},{"id":"52680825238","owner":"34238008@N02","secret":"f60186c274","server":"65535","farm":66,"title":"Mountain Chickadee (Poecile gambeli)","ispublic":1,"isfriend":0,"isfamily":0},{"id":"52662971834","owner":"34238008@N02","secret":"bfd10763ec","server":"65535","farm":66,"title":"Mountain Chickadee (Poecile gambeli)","ispublic":1,"isfriend":0,"isfamily":0},{"id":"52661938850","owner":"25899079@N08","secret":"5b5316b55a","server":"65535","farm":66,"title":"Mountain Chickadee (7991)","ispublic":1,"isfriend":0,"isfamily":0},{"id":"52633242953","owner":"187792860@N04","secret":"57ef24a609","server":"65535","farm":66,"title":"Mountain Chickadee (Poecile gambeli)","ispublic":1,"isfriend":0,"isfamily":0},{"id":"52627842803","owner":"52909585@N02","secret":"9fbcb96fdf","server":"65535","farm":66,"title":"#12, Ben's 2023 Bird Count \/ 2023-9-14 Mountain Chickadee","ispublic":1,"isfriend":0,"isfamily":0},{"id":"52615063710","owner":"34238008@N02","secret":"fde2c5090b","server":"65535","farm":66,"title":"Mountain Chickadee (Poecile gambeli)","ispublic":1,"isfriend":0,"isfamily":0},{"id":"52614633276","owner":"34238008@N02","secret":"8a63b9f2a4","server":"65535","farm":66,"title":"Mountain Chickadee (Poecile gambeli)","ispublic":1,"isfriend":0,"isfamily":0},{"id":"52611317334","owner":"132165466@N08","secret":"0ef89cdb4b","server":"65535","farm":66,"title":"Black-capped Chickadee","ispublic":1,"isfriend":0,"isfamily":0},{"id":"52611053381","owner":"132165466@N08","secret":"288833b65b","server":"65535","farm":66,"title":"Black-capped Chickadee","ispublic":1,"isfriend":0,"isfamily":0},{"id":"52597323007","owner":"43440320@N04","secret":"b9f07e25d9","server":"65535","farm":66,"title":"Mountain Chickadee","ispublic":1,"isfriend":0,"isfamily":0},{"id":"52587357137","owner":"52909585@N02","secret":"c1d741fd62","server":"65535","farm":66,"title":"2022-8-360 Mountain Chickadee (Poecile gambeli), Fish Creek Provincial Park","ispublic":1,"isfriend":0,"isfamily":0},{"id":"52569566549","owner":"190773540@N03","secret":"62b3b81f3f","server":"65535","farm":66,"title":"Mountain Chickadee","ispublic":1,"isfriend":0,"isfamily":0},{"id":"52508048244","owner":"34238008@N02","secret":"35e9000f0d","server":"65535","farm":66,"title":"Mountain Chickadee (Poecile gambeli)","ispublic":1,"isfriend":0,"isfamily":0},{"id":"52508327923","owner":"34238008@N02","secret":"440d9aff0b","server":"65535","farm":66,"title":"Mountain Chickadee, adult (Poecile gambeli)","ispublic":1,"isfriend":0,"isfamily":0},{"id":"52507778471","owner":"34238008@N02","secret":"44c27f449c","server":"65535","farm":66,"title":"Mountain Chickadee (Poecile gambeli)","ispublic":1,"isfriend":0,"isfamily":0},{"id":"52508327653","owner":"34238008@N02","secret":"310ca20e32","server":"65535","farm":66,"title":"Mountain Chickadee (Poecile gambeli)","ispublic":1,"isfriend":0,"isfamily":0},{"id":"52497291138","owner":"34238008@N02","secret":"1fdd7ef353","server":"65535","farm":66,"title":"Mountain Chickadee (Poecile gambeli)","ispublic":1,"isfriend":0,"isfamily":0},{"id":"52470452995","owner":"187792860@N04","secret":"b6ca6a71f1","server":"65535","farm":66,"title":"Mountain Chickadee (Poecile gambeli)","ispublic":1,"isfriend":0,"isfamily":0},{"id":"52461944095","owner":"8783241@N08","secret":"322f6892cf","server":"65535","farm":66,"title":"Poecile gambeli - Mountain Chickadee","ispublic":1,"isfriend":0,"isfamily":0},{"id":"52452538438","owner":"42034882@N00","secret":"0a97cf2b90","server":"65535","farm":66,"title":"If I Were King of the Forest","ispublic":1,"isfriend":0,"isfamily":0},{"id":"52443254995","owner":"149819320@N07","secret":"2f52119b61","server":"65535","farm":66,"title":"Mountain Chickadee (Poecile gambeli)","ispublic":1,"isfriend":0,"isfamily":0},{"id":"52441650710","owner":"131037795@N03","secret":"433ee4a6d8","server":"65535","farm":66,"title":"Mountain Chickadee (Poecile gambeli)","ispublic":1,"isfriend":0,"isfamily":0},{"id":"52438799187","owner":"99849996@N00","secret":"45baee3183","server":"65535","farm":66,"title":"Mountain Chickadee 20211031_2843","ispublic":1,"isfriend":0,"isfamily":0},{"id":"52430196848","owner":"28731195@N08","secret":"dcf496188f","server":"65535","farm":66,"title":"Mountain Chickadee (Poecile gambeli)","ispublic":1,"isfriend":0,"isfamily":0},{"id":"52412836014","owner":"131037795@N03","secret":"4fec951638","server":"65535","farm":66,"title":"Mountain Chickadee (Poecile gambeli)","ispublic":1,"isfriend":0,"isfamily":0},{"id":"52413060888","owner":"131037795@N03","secret":"9d90f6af71","server":"65535","farm":66,"title":"Mountain Chickadee (Poecile gambeli)","ispublic":1,"isfriend":0,"isfamily":0},{"id":"52399805416","owner":"187792860@N04","secret":"ed94e87774","server":"65535","farm":66,"title":"Mountain Chickadee (Poecile gambeli)","ispublic":1,"isfriend":0,"isfamily":0},{"id":"52375430384","owner":"196264892@N08","secret":"cf5178b71f","server":"65535","farm":66,"title":"Mountain Chickadee","ispublic":1,"isfriend":0,"isfamily":0},{"id":"52350737149","owner":"9243885@N07","secret":"a581d2c896","server":"0","farm":0,"title":"2022_09_09_5DMk4_76518_extended","ispublic":1,"isfriend":0,"isfamily":0},{"id":"52336270280","owner":"34238008@N02","secret":"c7004322d9","server":"65535","farm":66,"title":"Mountain Chickadee (Poecile gambeli)","ispublic":1,"isfriend":0,"isfamily":0},{"id":"52332199176","owner":"9243885@N07","secret":"13ea20a005","server":"65535","farm":66,"title":"2022_08_28_5DMk4_74717","ispublic":1,"isfriend":0,"isfamily":0},{"id":"52318491626","owner":"59779711@N05","secret":"804760b14b","server":"65535","farm":66,"title":"Mountain Chickadee","ispublic":1,"isfriend":0,"isfamily":0},{"id":"52309190916","owner":"187792860@N04","secret":"55078d08b8","server":"65535","farm":66,"title":"Mountain Chickadee (Poecile gambeli)","ispublic":1,"isfriend":0,"isfamily":0},{"id":"52304770705","owner":"187792860@N04","secret":"697c17cc82","server":"65535","farm":66,"title":"Mountain Chickadee (Poecile gambeli)","ispublic":1,"isfriend":0,"isfamily":0},{"id":"52294008383","owner":"34238008@N02","secret":"416c263e41","server":"65535","farm":66,"title":"Mountain Chickadee (Poecile gambeli)","ispublic":1,"isfriend":0,"isfamily":0},{"id":"52294006946","owner":"34238008@N02","secret":"982bc68bd0","server":"65535","farm":66,"title":"Mountain Chickadee (Poecile gambeli)","ispublic":1,"isfriend":0,"isfamily":0},{"id":"52291959866","owner":"33573751@N04","secret":"3f47fd2b1f","server":"65535","farm":66,"title":"Mountain Chickadee (Poecile gambeli) - Grand Lake, Colorado, USA","ispublic":1,"isfriend":0,"isfamily":0},{"id":"52292139199","owner":"33573751@N04","secret":"be7d914fcf","server":"65535","farm":66,"title":"Mountain Chickadee (Poecile gambeli) - Grand Lake, Colorado, USA","ispublic":1,"isfriend":0,"isfamily":0},{"id":"52289772651","owner":"33573751@N04","secret":"d322b7934c","server":"65535","farm":66,"title":"Mountain Chickadee (Poecile gambeli) - Grand Lake, Colorado, USA","ispublic":1,"isfriend":0,"isfamily":0},{"id":"52290016754","owner":"33573751@N04","secret":"2d399998f4","server":"65535","farm":66,"title":"Mountain Chickadee (Poecile gambeli) - Grand Lake, Colorado, USA","ispublic":1,"isfriend":0,"isfamily":0},{"id":"52289720771","owner":"33573751@N04","secret":"94c4117063","server":"65535","farm":66,"title":"Mountain Chickadee (Poecile gambeli) - Grand Lake, Colorado, USA","ispublic":1,"isfriend":0,"isfamily":0},{"id":"52276725389","owner":"42415395@N07","secret":"c8a3127409","server":"65535","farm":66,"title":"Mountain Chickadee (Poecile gambeli); Santa Fe National Forest NM, Thompson Ridge [Lou Feltz]","ispublic":1,"isfriend":0,"isfamily":0},{"id":"52274453547","owner":"196264892@N08","secret":"8bb7e15b70","server":"65535","farm":66,"title":"Mountain Chickadee 1","ispublic":1,"isfriend":0,"isfamily":0},{"id":"52271568991","owner":"119787485@N07","secret":"8b773607d9","server":"65535","farm":66,"title":"Mountain Chickadee (Poecile gambeli abbreviatus) - 20220603-03","ispublic":1,"isfriend":0,"isfamily":0},{"id":"52265536448","owner":"187792860@N04","secret":"912729cc5a","server":"65535","farm":66,"title":"Mountain Chickadee (Poecile gambeli)","ispublic":1,"isfriend":0,"isfamily":0},{"id":"52260030447","owner":"34689777@N08","secret":"1caed87bda","server":"65535","farm":66,"title":"Mountain Chickadee (Poecile gambeli).  Sandia Mountains, New Mexico, USA.","ispublic":1,"isfriend":0,"isfamily":0},{"id":"52258637278","owner":"25531047@N00","secret":"f31abf0445","server":"65535","farm":66,"title":"Mountain Chickadee","ispublic":1,"isfriend":0,"isfamily":0},{"id":"52254087200","owner":"34238008@N02","secret":"8d549a0fd5","server":"65535","farm":66,"title":"Mountain Chickadee, adult (Poecile gambeli)","ispublic":1,"isfriend":0,"isfamily":0},{"id":"52249472724","owner":"42415395@N07","secret":"21e4ed1061","server":"65535","farm":66,"title":"Mountain Chickadee (Poecile gambeli); Santa Fe National Forest NM, Thompson Ridge [Lou Feltz]","ispublic":1,"isfriend":0,"isfamily":0},{"id":"52235651958","owner":"34238008@N02","secret":"9025a7302f","server":"65535","farm":66,"title":"Mountain Chickadee (Poecile gambeli)","ispublic":1,"isfriend":0,"isfamily":0},{"id":"52229082326","owner":"42415395@N07","secret":"b40c30dec0","server":"65535","farm":66,"title":"Mountain Chickadee (Poecile gambeli); Santa Fe National Forest NM, Thompson Ridge [Lou Feltz]","ispublic":1,"isfriend":0,"isfamily":0},{"id":"52216815966","owner":"164600255@N07","secret":"3c59f05cb3","server":"65535","farm":66,"title":"Mountain Chickadee Snacking","ispublic":1,"isfriend":0,"isfamily":0},{"id":"52210989012","owner":"42415395@N07","secret":"679843820b","server":"65535","farm":66,"title":"Mountain Chickadee (Poecile gambeli); Santa Fe National Forest NM, Thompson Ridge [Lou Feltz]","ispublic":1,"isfriend":0,"isfamily":0},{"id":"52174589453","owner":"124995824@N08","secret":"a905aba6de","server":"65535","farm":66,"title":"Mountain Chickadee - Poecile gambeli","ispublic":1,"isfriend":0,"isfamily":0},{"id":"52169572538","owner":"42415395@N07","secret":"3985425c22","server":"65535","farm":66,"title":"Mountain Chickadee (Poecile gambeli); Santa Fe National Forest NM, Thompson Ridge [Lou Feltz]","ispublic":1,"isfriend":0,"isfamily":0},{"id":"52165311691","owner":"42415395@N07","secret":"eebe3ba0a9","server":"65535","farm":66,"title":"Mountain Chickadee (Poecile gambeli); Santa Fe National Forest NM, Thompson Ridge [Lou Feltz]","ispublic":1,"isfriend":0,"isfamily":0},{"id":"52163497088","owner":"64509062@N08","secret":"5119a81e57","server":"0","farm":0,"title":"Mountain chickadee (Silent Video)","ispublic":1,"isfriend":0,"isfamily":0},{"id":"52118934670","owner":"39935474@N03","secret":"0710f1cc1c","server":"65535","farm":66,"title":"Mountain Chickadee on oak","ispublic":1,"isfriend":0,"isfamily":0},{"id":"52114628323","owner":"34238008@N02","secret":"eea6860f14","server":"65535","farm":66,"title":"Mountain Chickadee (Poecile gambeli)","ispublic":1,"isfriend":0,"isfamily":0},{"id":"52771407851","owner":"65148649@N04","secret":"1d135c8a99","server":"65535","farm":66,"title":"Mountain Chickadee 03.11.23 Rutherford K","ispublic":1,"isfriend":0,"isfamily":0},{"id":"52771664504","owner":"65148649@N04","secret":"71ebff96d7","server":"65535","farm":66,"title":"Mountain Chickadee 03.11.23 Zaun","ispublic":1,"isfriend":0,"isfamily":0},{"id":"52771407846","owner":"65148649@N04","secret":"198425c2c3","server":"65535","farm":66,"title":"Mountain Chickadee 03.11.23 Frye","ispublic":1,"isfriend":0,"isfamily":0},{"id":"52771896158","owner":"65148649@N04","secret":"1b2ea7e77f","server":"65535","farm":66,"title":"Mountain Chickadee 2 03.11.23 Zaun","ispublic":1,"isfriend":0,"isfamily":0},{"id":"52771896148","owner":"65148649@N04","secret":"b5df6cf08a","server":"65535","farm":66,"title":"Mountain Chickadee 2 03.11.23 Frye","ispublic":1,"isfriend":0,"isfamily":0},{"id":"52771663934","owner":"65148649@N04","secret":"6a3d10efb0","server":"65535","farm":66,"title":"Mountain Chickadee 2 03.11.23 Anderson","ispublic":1,"isfriend":0,"isfamily":0},{"id":"52771663949","owner":"65148649@N04","secret":"d23c6b6c14","server":"65535","farm":66,"title":"Mountain Chickadee 03.11.23 Anderson","ispublic":1,"isfriend":0,"isfamily":0},{"id":"52580726430","owner":"153973412@N04","secret":"eca3a2e164","server":"65535","farm":66,"title":"Mountain Chickadee-Poecile gambeli, Angles NF, CA","ispublic":1,"isfriend":0,"isfamily":0},{"id":"52510973009","owner":"29682228@N04","secret":"a5e86339d5","server":"65535","farm":66,"title":"Poecile (Parus) gambeli_Mountain Chichadee_RBarber_08032022_IMG_9694","ispublic":1,"isfriend":0,"isfamily":0},{"id":"52477753115","owner":"97697339@N05","secret":"85c37796c5","server":"65535","farm":66,"title":"Mountain Chickadee (Poecile gambeli)","ispublic":1,"isfriend":0,"isfamily":0},{"id":"52475026471","owner":"65148649@N04","secret":"c3a60f794a","server":"65535","farm":66,"title":"Mountain Chickadee","ispublic":1,"isfriend":0,"isfamily":0},{"id":"52360941446","owner":"156457454@N02","secret":"0ed8885e7a","server":"65535","farm":66,"title":"Poecile gambeli 3 (Mountain Chickadee)","ispublic":1,"isfriend":0,"isfamily":0},{"id":"52317885413","owner":"196264892@N08","secret":"f5ed719520","server":"65535","farm":66,"title":"Mountain Chickadee","ispublic":1,"isfriend":0,"isfamily":0},{"id":"52317569511","owner":"196264892@N08","secret":"ba9b0dbd94","server":"65535","farm":66,"title":"Mountain Chickadee","ispublic":1,"isfriend":0,"isfamily":0},{"id":"52309667283","owner":"187792860@N04","secret":"c56c9c027a","server":"65535","farm":66,"title":"Mountain Chickadee (Poecile gambeli)","ispublic":1,"isfriend":0,"isfamily":0},{"id":"52309647228","owner":"187792860@N04","secret":"b23c31ece6","server":"65535","farm":66,"title":"Mountain Chickadee (Poecile gambeli)","ispublic":1,"isfriend":0,"isfamily":0},{"id":"52309631933","owner":"187792860@N04","secret":"40272a914e","server":"65535","farm":66,"title":"Mountain Chickadee (Poecile gambeli)","ispublic":1,"isfriend":0,"isfamily":0},{"id":"52253611793","owner":"34238008@N02","secret":"3f1fa1366e","server":"65535","farm":66,"title":"Mountain Chickadee (Poecile gambeli)","ispublic":1,"isfriend":0,"isfamily":0},{"id":"52254087705","owner":"34238008@N02","secret":"d38e618d6e","server":"65535","farm":66,"title":"Mountain Chickadee (Poecile gambeli)","ispublic":1,"isfriend":0,"isfamily":0},{"id":"52253590231","owner":"34238008@N02","secret":"16695b39fc","server":"65535","farm":66,"title":"Mountain Chickadee (Poecile gambeli)","ispublic":1,"isfriend":0,"isfamily":0},{"id":"52253590096","owner":"34238008@N02","secret":"b5339058c0","server":"65535","farm":66,"title":"Mountain Chickadee (Poecile gambeli)","ispublic":1,"isfriend":0,"isfamily":0},{"id":"52254086815","owner":"34238008@N02","secret":"78199373c4","server":"65535","farm":66,"title":"Mountain Chickadee (Poecile gambeli)","ispublic":1,"isfriend":0,"isfamily":0},{"id":"52219173553","owner":"18581013@N04","secret":"fe4cd46c6a","server":"65535","farm":66,"title":"Mountain Chickadee","ispublic":1,"isfriend":0,"isfamily":0},{"id":"52214012930","owner":"34238008@N02","secret":"dfda72048f","server":"65535","farm":66,"title":"Mountain Chickadee (Poecile gambeli)","ispublic":1,"isfriend":0,"isfamily":0},{"id":"52183128902","owner":"42415395@N07","secret":"81e9e54ab3","server":"65535","farm":66,"title":"Mountain Chickadee (Poecile gambeli); Santa Fe National Forest NM, Thompson Ridge [Lou Feltz]","ispublic":1,"isfriend":0,"isfamily":0},{"id":"52181200624","owner":"51928691@N04","secret":"f0a6fc7f0f","server":"65535","farm":66,"title":"Mountain Chickadee (Poecile gambeli) 1 062122","ispublic":1,"isfriend":0,"isfamily":0},{"id":"52179928697","owner":"51928691@N04","secret":"235244eeb5","server":"65535","farm":66,"title":"Mountain Chickadee (Poecile gambeli) 2 062122","ispublic":1,"isfriend":0,"isfamily":0},{"id":"52174161818","owner":"42415395@N07","secret":"87c121cbfd","server":"65535","farm":66,"title":"Mountain Chickadee (Poecile gambeli); Santa Fe National Forest NM, Thompson Ridge [Lou Feltz]","ispublic":1,"isfriend":0,"isfamily":0},{"id":"52133851613","owner":"34238008@N02","secret":"1edf9f85d7","server":"65535","farm":66,"title":"Mountain Chickadee (Poecile gambeli)","ispublic":1,"isfriend":0,"isfamily":0},{"id":"52133828466","owner":"34238008@N02","secret":"c10232e198","server":"65535","farm":66,"title":"Mountain Chickadee (Poecile gambeli)","ispublic":1,"isfriend":0,"isfamily":0},{"id":"52132807732","owner":"34238008@N02","secret":"8fae301737","server":"65535","farm":66,"title":"Mountain Chickadee (Poecile gambeli)","ispublic":1,"isfriend":0,"isfamily":0}]},"stat":"ok"}