{"photos":{"page":1,"pages":7,"perpage":100,"total":626,"photo":[{"id":"52721051065","owner":"86191812@N07","secret":"628027a177","server":"65535","farm":66,"title":"Mourning Warbler (Geothlypis philadelphia)","ispublic":1,"isfriend":0,"isfamily":0},{"id":"52590748997","owner":"76288515@N07","secret":"955e9952cd","server":"65535","farm":66,"title":"Mourning Warbler Geothlypis philadelphia","ispublic":1,"isfriend":0,"isfamily":0},{"id":"52591749768","owner":"76288515@N07","secret":"5ab4d951b8","server":"65535","farm":66,"title":"Mourning Warbler Geothlypis philadelphia","ispublic":1,"isfriend":0,"isfamily":0},{"id":"52580810428","owner":"153973412@N04","secret":"1265ae8370","server":"65535","farm":66,"title":"Mourning Warbler-Geothlypis philadelphia, Iowa City, IA","ispublic":1,"isfriend":0,"isfamily":0},{"id":"52461807254","owner":"99208129@N08","secret":"30560031b0","server":"65535","farm":66,"title":"Geothlypis philadelphia \/ Mourning Warbler","ispublic":1,"isfriend":0,"isfamily":0},{"id":"52326513291","owner":"24359172@N02","secret":"c147f4c409","server":"65535","farm":66,"title":"Fall Migration, Mourning Warbler","ispublic":1,"isfriend":0,"isfamily":0},{"id":"52326862449","owner":"24359172@N02","secret":"a83f14a73a","server":"65535","farm":66,"title":"Mourning Warbler in Plain Fall Attire","ispublic":1,"isfriend":0,"isfamily":0},{"id":"52314920784","owner":"162163713@N06","secret":"2d1c76d762","server":"65535","farm":66,"title":"Paruline triste - Geothlypis philadelphia - Mourning Warbler","ispublic":1,"isfriend":0,"isfamily":0},{"id":"52312129071","owner":"129051288@N05","secret":"1741dbb6c6","server":"65535","farm":66,"title":"Paruline triste, Geothlypis philadelphia, Mourning Warbler","ispublic":1,"isfriend":0,"isfamily":0},{"id":"52311216511","owner":"71418112@N00","secret":"0ddffd47f7","server":"65535","farm":66,"title":"Mourning warbler","ispublic":1,"isfriend":0,"isfamily":0},{"id":"52296281267","owner":"48014585@N00","secret":"6881a1d9cb","server":"65535","farm":66,"title":"Mourning Warbler","ispublic":1,"isfriend":0,"isfamily":0},{"id":"52297266141","owner":"48014585@N00","secret":"37c86eba3a","server":"65535","farm":66,"title":"Mourning Warbler","ispublic":1,"isfriend":0,"isfamily":0},{"id":"52296279287","owner":"48014585@N00","secret":"029f153ec2","server":"65535","farm":66,"title":"Mourning Warbler","ispublic":1,"isfriend":0,"isfamily":0},{"id":"52297754685","owner":"48014585@N00","secret":"db1dd8602f","server":"65535","farm":66,"title":"Mourning Warbler","ispublic":1,"isfriend":0,"isfamily":0},{"id":"52295220388","owner":"71418112@N00","secret":"d8d2d471d0","server":"65535","farm":66,"title":"Wow, what a birding day!","ispublic":1,"isfriend":0,"isfamily":0},{"id":"52247604951","owner":"49114357@N08","secret":"240f815e1f","server":"65535","farm":66,"title":"Mourning Warbler","ispublic":1,"isfriend":0,"isfamily":0},{"id":"52198505624","owner":"126805965@N03","secret":"68b6f1a266","server":"65535","farm":66,"title":"Mourning Warbler (Geothlypis philadelphia) - Cape Breton, NS","ispublic":1,"isfriend":0,"isfamily":0},{"id":"52170579148","owner":"95484108@N07","secret":"713770140f","server":"65535","farm":66,"title":"Paruline triste \/\/ Mourning Warbler","ispublic":1,"isfriend":0,"isfamily":0},{"id":"52160950515","owner":"130605131@N08","secret":"76aee1f10b","server":"0","farm":0,"title":"MVI_9321","ispublic":1,"isfriend":0,"isfamily":0},{"id":"52160463668","owner":"130605131@N08","secret":"fc01ef78c4","server":"0","farm":0,"title":"MVI_9333","ispublic":1,"isfriend":0,"isfamily":0},{"id":"52159445392","owner":"130605131@N08","secret":"699f2ce6b1","server":"65535","farm":66,"title":"IMG_9347","ispublic":1,"isfriend":0,"isfamily":0},{"id":"52160468073","owner":"130605131@N08","secret":"412b1fe8ab","server":"65535","farm":66,"title":"IMG_9346","ispublic":1,"isfriend":0,"isfamily":0},{"id":"52160467978","owner":"130605131@N08","secret":"624c3df335","server":"65535","farm":66,"title":"IMG_9343","ispublic":1,"isfriend":0,"isfamily":0},{"id":"52160466161","owner":"130605131@N08","secret":"2eef760cb9","server":"65535","farm":66,"title":"IMG_9338","ispublic":1,"isfriend":0,"isfamily":0},{"id":"52160705549","owner":"130605131@N08","secret":"255cf5b376","server":"65535","farm":66,"title":"IMG_9337","ispublic":1,"isfriend":0,"isfamily":0},{"id":"52160467518","owner":"130605131@N08","secret":"d78a39d574","server":"65535","farm":66,"title":"IMG_9336","ispublic":1,"isfriend":0,"isfamily":0},{"id":"52159444752","owner":"130605131@N08","secret":"958e1e3e6e","server":"65535","farm":66,"title":"IMG_9334","ispublic":1,"isfriend":0,"isfamily":0},{"id":"52160467288","owner":"130605131@N08","secret":"9c55c8aff6","server":"65535","farm":66,"title":"IMG_9331","ispublic":1,"isfriend":0,"isfamily":0},{"id":"52160467198","owner":"130605131@N08","secret":"3165624768","server":"65535","farm":66,"title":"IMG_9330","ispublic":1,"isfriend":0,"isfamily":0},{"id":"52160954490","owner":"130605131@N08","secret":"7b2236e961","server":"65535","farm":66,"title":"IMG_9328","ispublic":1,"isfriend":0,"isfamily":0},{"id":"52159444332","owner":"130605131@N08","secret":"cd06e77ee8","server":"65535","farm":66,"title":"IMG_9329","ispublic":1,"isfriend":0,"isfamily":0},{"id":"52160466853","owner":"130605131@N08","secret":"e73ed3d054","server":"65535","farm":66,"title":"IMG_9327","ispublic":1,"isfriend":0,"isfamily":0},{"id":"52160465306","owner":"130605131@N08","secret":"33e8bc340d","server":"65535","farm":66,"title":"IMG_9325","ispublic":1,"isfriend":0,"isfamily":0},{"id":"52160704724","owner":"130605131@N08","secret":"1acc7dd576","server":"65535","farm":66,"title":"IMG_9319","ispublic":1,"isfriend":0,"isfamily":0},{"id":"52160704639","owner":"130605131@N08","secret":"bf2cf35df8","server":"65535","farm":66,"title":"IMG_9318","ispublic":1,"isfriend":0,"isfamily":0},{"id":"52160465106","owner":"130605131@N08","secret":"d010f94166","server":"65535","farm":66,"title":"IMG_9316","ispublic":1,"isfriend":0,"isfamily":0},{"id":"52159443857","owner":"130605131@N08","secret":"9082681345","server":"65535","farm":66,"title":"IMG_9315","ispublic":1,"isfriend":0,"isfamily":0},{"id":"52160702129","owner":"130605131@N08","secret":"79d9a4f126","server":"65535","farm":66,"title":"mowa13","ispublic":1,"isfriend":0,"isfamily":0},{"id":"52160702084","owner":"130605131@N08","secret":"f7b04992ab","server":"65535","farm":66,"title":"mowa12","ispublic":1,"isfriend":0,"isfamily":0},{"id":"52160951315","owner":"130605131@N08","secret":"f9f351618e","server":"65535","farm":66,"title":"mowa11","ispublic":1,"isfriend":0,"isfamily":0},{"id":"52160951225","owner":"130605131@N08","secret":"1dfbaa7d3b","server":"65535","farm":66,"title":"mowa9","ispublic":1,"isfriend":0,"isfamily":0},{"id":"52160951255","owner":"130605131@N08","secret":"1c8755ba23","server":"65535","farm":66,"title":"mowa10","ispublic":1,"isfriend":0,"isfamily":0},{"id":"52160463853","owner":"130605131@N08","secret":"0d1342e25b","server":"65535","farm":66,"title":"mowa7","ispublic":1,"isfriend":0,"isfamily":0},{"id":"52160951180","owner":"130605131@N08","secret":"4d44a3a346","server":"65535","farm":66,"title":"mowa8","ispublic":1,"isfriend":0,"isfamily":0},{"id":"52160951125","owner":"130605131@N08","secret":"a373b2b431","server":"65535","farm":66,"title":"mowa6","ispublic":1,"isfriend":0,"isfamily":0},{"id":"52160463783","owner":"130605131@N08","secret":"2b79314119","server":"65535","farm":66,"title":"mowa5","ispublic":1,"isfriend":0,"isfamily":0},{"id":"52160951055","owner":"130605131@N08","secret":"90c428b160","server":"65535","farm":66,"title":"mowa4","ispublic":1,"isfriend":0,"isfamily":0},{"id":"52160462036","owner":"130605131@N08","secret":"c0eede0755","server":"65535","farm":66,"title":"mowa3","ispublic":1,"isfriend":0,"isfamily":0},{"id":"52160950945","owner":"130605131@N08","secret":"ccd09cf0b8","server":"65535","farm":66,"title":"mowa1","ispublic":1,"isfriend":0,"isfamily":0},{"id":"52160701759","owner":"130605131@N08","secret":"5f78073a7d","server":"65535","farm":66,"title":"mowa2","ispublic":1,"isfriend":0,"isfamily":0},{"id":"52151293300","owner":"117307568@N03","secret":"26e7b86d73","server":"65535","farm":66,"title":"Mourning Warbler (Geothlypis philadelphia)","ispublic":1,"isfriend":0,"isfamily":0},{"id":"52147514517","owner":"88886389@N02","secret":"1d9c17f085","server":"65535","farm":66,"title":"5688 Morning Song","ispublic":1,"isfriend":0,"isfamily":0},{"id":"52148387131","owner":"92361032@N05","secret":"ca83614a8d","server":"65535","farm":66,"title":"Mourning Warbler \/ Paruline triste ( Diane )","ispublic":1,"isfriend":0,"isfamily":0},{"id":"52137309208","owner":"65632611@N00","secret":"12b74f360f","server":"65535","farm":66,"title":"Central Park: Mourning Warbler at the Point (1065)","ispublic":1,"isfriend":0,"isfamily":0},{"id":"52137286521","owner":"65632611@N00","secret":"c5e25da198","server":"65535","farm":66,"title":"Central Park: Mourning Warbler (1214)","ispublic":1,"isfriend":0,"isfamily":0},{"id":"52137286481","owner":"65632611@N00","secret":"94c720b9d4","server":"65535","farm":66,"title":"Central Park: Mourning Warbler (1241)","ispublic":1,"isfriend":0,"isfamily":0},{"id":"52136559294","owner":"65788177@N02","secret":"ba2fbb3d58","server":"65535","farm":66,"title":"Mourning Warbler","ispublic":1,"isfriend":0,"isfamily":0},{"id":"52125431057","owner":"71418112@N00","secret":"d97ce4e710","server":"65535","farm":66,"title":"Mourning warbler","ispublic":1,"isfriend":0,"isfamily":0},{"id":"52112323492","owner":"39138537@N06","secret":"2bccf0ed52","server":"65535","farm":66,"title":"Male Mourning Warbler (Geothlypis philadelphia)","ispublic":1,"isfriend":0,"isfamily":0},{"id":"52113385423","owner":"39138537@N06","secret":"48d4e25846","server":"65535","farm":66,"title":"Male Mourning Warbler (Geothlypis philadelphia)","ispublic":1,"isfriend":0,"isfamily":0},{"id":"52113385403","owner":"39138537@N06","secret":"71d33482d7","server":"65535","farm":66,"title":"Male Mourning Warbler (Geothlypis philadelphia)","ispublic":1,"isfriend":0,"isfamily":0},{"id":"52112323437","owner":"39138537@N06","secret":"33d5b59718","server":"65535","farm":66,"title":"Male Mourning Warbler (Geothlypis philadelphia)","ispublic":1,"isfriend":0,"isfamily":0},{"id":"52113596729","owner":"39138537@N06","secret":"6176929bf9","server":"65535","farm":66,"title":"Male Mourning Warbler (Geothlypis philadelphia)","ispublic":1,"isfriend":0,"isfamily":0},{"id":"52097129979","owner":"37566919@N02","secret":"ea81910e76","server":"65535","farm":66,"title":"Mourning Warbler, male","ispublic":1,"isfriend":0,"isfamily":0},{"id":"52094641103","owner":"39138537@N06","secret":"e01ca9845d","server":"65535","farm":66,"title":"Male Mourning Warbler (Geothlypis philadelphia)","ispublic":1,"isfriend":0,"isfamily":0},{"id":"52095117330","owner":"39138537@N06","secret":"989dc1a120","server":"65535","farm":66,"title":"Male Mourning Warbler (Geothlypis philadelphia)","ispublic":1,"isfriend":0,"isfamily":0},{"id":"52093594647","owner":"39138537@N06","secret":"8a871b3430","server":"65535","farm":66,"title":"Male Mourning Warbler (Geothlypis philadelphia)","ispublic":1,"isfriend":0,"isfamily":0},{"id":"52095117250","owner":"39138537@N06","secret":"36c4de5f2c","server":"65535","farm":66,"title":"Male Mourning Warbler (Geothlypis philadelphia)","ispublic":1,"isfriend":0,"isfamily":0},{"id":"52090114885","owner":"47441959@N00","secret":"ba58b88f69","server":"65535","farm":66,"title":"Mourning Warbler","ispublic":1,"isfriend":0,"isfamily":0},{"id":"52077414392","owner":"40723658@N05","secret":"6dc3947ba3","server":"65535","farm":66,"title":"Mourning Warbler","ispublic":1,"isfriend":0,"isfamily":0},{"id":"52068625367","owner":"39142968@N00","secret":"9bf94545c5","server":"65535","farm":66,"title":"Mourning Warbler","ispublic":1,"isfriend":0,"isfamily":0},{"id":"52069551314","owner":"39138537@N06","secret":"82f6f14805","server":"65535","farm":66,"title":"Mourning Warbler (Geothlypis philadelphia)","ispublic":1,"isfriend":0,"isfamily":0},{"id":"52064878718","owner":"39138537@N06","secret":"80dc7357d7","server":"65535","farm":66,"title":"Male Mourning Warbler (Geothlypis philadelphia)","ispublic":1,"isfriend":0,"isfamily":0},{"id":"52065093454","owner":"39138537@N06","secret":"771f6fc9b8","server":"65535","farm":66,"title":"Male Mourning Warbler (Geothlypis philadelphia)","ispublic":1,"isfriend":0,"isfamily":0},{"id":"52064864621","owner":"39138537@N06","secret":"8bbfb69dd6","server":"65535","farm":66,"title":"Male Mourning Warbler (Geothlypis philadelphia)","ispublic":1,"isfriend":0,"isfamily":0},{"id":"51848788416","owner":"71418112@N00","secret":"095945a2d7","server":"65535","farm":66,"title":"Mourning warbler","ispublic":1,"isfriend":0,"isfamily":0},{"id":"52591236356","owner":"76288515@N07","secret":"2a9bac3417","server":"65535","farm":66,"title":"Mourning Warbler Geothlypis philadelphia","ispublic":1,"isfriend":0,"isfamily":0},{"id":"52591749708","owner":"76288515@N07","secret":"25b7e4b582","server":"65535","farm":66,"title":"Mourning Warbler Geothlypis philadelphia","ispublic":1,"isfriend":0,"isfamily":0},{"id":"52297268006","owner":"48014585@N00","secret":"11a42e259c","server":"65535","farm":66,"title":"Mourning Warbler","ispublic":1,"isfriend":0,"isfamily":0},{"id":"52297760980","owner":"48014585@N00","secret":"c922eb3152","server":"65535","farm":66,"title":"Mourning Warbler","ispublic":1,"isfriend":0,"isfamily":0},{"id":"52296279602","owner":"48014585@N00","secret":"c1e9a0c96a","server":"65535","farm":66,"title":"Mourning Warbler","ispublic":1,"isfriend":0,"isfamily":0},{"id":"52296279492","owner":"48014585@N00","secret":"f36b84d01e","server":"65535","farm":66,"title":"Mourning Warbler","ispublic":1,"isfriend":0,"isfamily":0},{"id":"52297532339","owner":"48014585@N00","secret":"b1892fa3f5","server":"65535","farm":66,"title":"Mourning Warbler","ispublic":1,"isfriend":0,"isfamily":0},{"id":"52297531999","owner":"48014585@N00","secret":"1219faca6e","server":"65535","farm":66,"title":"Mourning Warbler","ispublic":1,"isfriend":0,"isfamily":0},{"id":"52297271368","owner":"48014585@N00","secret":"35f3b7f295","server":"65535","farm":66,"title":"Mourning Warbler","ispublic":1,"isfriend":0,"isfamily":0},{"id":"52297265201","owner":"48014585@N00","secret":"dfba60dbe2","server":"65535","farm":66,"title":"Mourning Warbler","ispublic":1,"isfriend":0,"isfamily":0},{"id":"52297261576","owner":"48014585@N00","secret":"70710639c3","server":"65535","farm":66,"title":"Mourning Warbler","ispublic":1,"isfriend":0,"isfamily":0},{"id":"52160955130","owner":"130605131@N08","secret":"e90b2e5b56","server":"65535","farm":66,"title":"IMG_9340","ispublic":1,"isfriend":0,"isfamily":0},{"id":"52160466066","owner":"130605131@N08","secret":"0e3cc568a2","server":"65535","farm":66,"title":"IMG_9339","ispublic":1,"isfriend":0,"isfamily":0},{"id":"52160954675","owner":"130605131@N08","secret":"82b5074c07","server":"65535","farm":66,"title":"IMG_9332","ispublic":1,"isfriend":0,"isfamily":0},{"id":"52160466913","owner":"130605131@N08","secret":"cd6e43bb01","server":"65535","farm":66,"title":"IMG_9326","ispublic":1,"isfriend":0,"isfamily":0},{"id":"52160704809","owner":"130605131@N08","secret":"2922409cb3","server":"65535","farm":66,"title":"IMG_9324","ispublic":1,"isfriend":0,"isfamily":0},{"id":"52160704774","owner":"130605131@N08","secret":"2157721263","server":"65535","farm":66,"title":"IMG_9320","ispublic":1,"isfriend":0,"isfamily":0},{"id":"52094641058","owner":"39138537@N06","secret":"d3c47fe68c","server":"65535","farm":66,"title":"Male Mourning Warbler (Geothlypis philadelphia)","ispublic":1,"isfriend":0,"isfamily":0},{"id":"52086099825","owner":"36685968@N00","secret":"800d3a9c82","server":"65535","farm":66,"title":"Mourning Warbler (Geothlypis philadelphia)","ispublic":1,"isfriend":0,"isfamily":0},{"id":"52076539369","owner":"18378985@N08","secret":"f41bf9c58e","server":"65535","farm":66,"title":"Mourning warbler","ispublic":1,"isfriend":0,"isfamily":0},{"id":"52050502844","owner":"26371261@N00","secret":"899051d0b1","server":"65535","farm":66,"title":"Mourning Warbler, Geothlypis philadelphia","ispublic":1,"isfriend":0,"isfamily":0},{"id":"52050266146","owner":"26371261@N00","secret":"f1d97767b9","server":"65535","farm":66,"title":"Mourning Warbler, Geothlypis philadelphia","ispublic":1,"isfriend":0,"isfamily":0},{"id":"51740564949","owner":"99208129@N08","secret":"4772c9a0af","server":"65535","farm":66,"title":"Geothlypis philadelphia \/ Mourning Warbler","ispublic":1,"isfriend":0,"isfamily":0},{"id":"51714552873","owner":"67306066@N03","secret":"acfa17acb6","server":"65535","farm":66,"title":"Mourning Warbler (Geothlypis philadelphia)","ispublic":1,"isfriend":0,"isfamily":0}]},"stat":"ok"}