{"photos":{"page":1,"pages":106,"perpage":100,"total":10598,"photo":[{"id":"52724325935","owner":"57126723@N07","secret":"344204d75e","server":"65535","farm":66,"title":"Mourning dove\u2014Zenaida macroura-9603","ispublic":1,"isfriend":0,"isfamily":0},{"id":"52722466641","owner":"61897811@N00","secret":"7c6f24f546","server":"65535","farm":66,"title":"Mourning Dove in the iris bed","ispublic":1,"isfriend":0,"isfamily":0},{"id":"52722686418","owner":"143326780@N02","secret":"7410a3af5f","server":"65535","farm":66,"title":"DSCN5836","ispublic":1,"isfriend":0,"isfamily":0},{"id":"52721678367","owner":"143326780@N02","secret":"86b9a9e3fa","server":"65535","farm":66,"title":"DSCN5837","ispublic":1,"isfriend":0,"isfamily":0},{"id":"52721543398","owner":"12639178@N07","secret":"85a3c05180","server":"65535","farm":66,"title":"Carolinataube","ispublic":1,"isfriend":0,"isfamily":0},{"id":"52716125473","owner":"24993691@N07","secret":"0f7c923772","server":"65535","farm":66,"title":"mourning dove DSC_7912_edited","ispublic":1,"isfriend":0,"isfamily":0},{"id":"52713308147","owner":"12639178@N07","secret":"71e8049e52","server":"65535","farm":66,"title":"Juvenile und adulte Carolinataube","ispublic":1,"isfriend":0,"isfamily":0},{"id":"52711333515","owner":"66855284@N03","secret":"96d955d204","server":"65535","farm":66,"title":"Tree View 2016 02 03 02","ispublic":1,"isfriend":0,"isfamily":0},{"id":"52709207624","owner":"61396634@N07","secret":"1cbce4823d","server":"65535","farm":66,"title":"Mourning Doves","ispublic":1,"isfriend":0,"isfamily":0},{"id":"52708244971","owner":"128369733@N04","secret":"c9656bf7d2","server":"65535","farm":66,"title":"Mourning Shadows (1)","ispublic":1,"isfriend":0,"isfamily":0},{"id":"52708244566","owner":"128369733@N04","secret":"d94b3a883f","server":"65535","farm":66,"title":"Mourning Shadows (2)","ispublic":1,"isfriend":0,"isfamily":0},{"id":"52708499609","owner":"128369733@N04","secret":"355a86c86a","server":"65535","farm":66,"title":"Mourning Shadows (3)","ispublic":1,"isfriend":0,"isfamily":0},{"id":"52705651847","owner":"88978913@N08","secret":"52db3eae8a","server":"65535","farm":66,"title":"Mourning Doves, Zenaida macroura","ispublic":1,"isfriend":0,"isfamily":0},{"id":"52705284937","owner":"12639178@N07","secret":"9207ff89a3","server":"65535","farm":66,"title":"Carolinat\u00e4ubchen am Morgen","ispublic":1,"isfriend":0,"isfamily":0},{"id":"52703217266","owner":"32599741@N03","secret":"ff5c1c8001","server":"65535","farm":66,"title":"2023 - Day 45:  daydreaming dove","ispublic":1,"isfriend":0,"isfamily":0},{"id":"52702288211","owner":"70295563@N00","secret":"fb12733192","server":"65535","farm":66,"title":"Bird of Peace","ispublic":1,"isfriend":0,"isfamily":0},{"id":"52699246269","owner":"143326780@N02","secret":"b4520d0885","server":"65535","farm":66,"title":"DSCN5034","ispublic":1,"isfriend":0,"isfamily":0},{"id":"52698035827","owner":"44082511@N08","secret":"95ddbc7389","server":"65535","farm":66,"title":"Mourning Dove - Old San Juan","ispublic":1,"isfriend":0,"isfamily":0},{"id":"52697228100","owner":"52495017@N00","secret":"46b3f7af50","server":"65535","farm":66,"title":"Mourning doves at the Fletcher Wildlife Garden in Ottawa, Ontario","ispublic":1,"isfriend":0,"isfamily":0},{"id":"52697298198","owner":"52495017@N00","secret":"e1688c21e7","server":"65535","farm":66,"title":"Mourning doves at the Fletcher Wildlife Garden in Ottawa, Ontario","ispublic":1,"isfriend":0,"isfamily":0},{"id":"52696291422","owner":"52495017@N00","secret":"5525b80016","server":"65535","farm":66,"title":"Mourning doves at the Fletcher Wildlife Garden in Ottawa, Ontario","ispublic":1,"isfriend":0,"isfamily":0},{"id":"52697067874","owner":"52495017@N00","secret":"768c4bb33f","server":"65535","farm":66,"title":"Mourning doves at the Fletcher Wildlife Garden in Ottawa, Ontario","ispublic":1,"isfriend":0,"isfamily":0},{"id":"52694425077","owner":"169771858@N03","secret":"455b7fd260","server":"65535","farm":66,"title":"Mourning Dove - 2022-04-03","ispublic":1,"isfriend":0,"isfamily":0},{"id":"52695123960","owner":"40941741@N03","secret":"f5b7cf5f24","server":"65535","farm":66,"title":"Mourning Dove","ispublic":1,"isfriend":0,"isfamily":0},{"id":"52694637429","owner":"82402390@N02","secret":"63b1ec3afb","server":"65535","farm":66,"title":"Tourterelle triste, Mourning Dove, \"Zenaida macroura\"  DSC_9065-1.jpg","ispublic":1,"isfriend":0,"isfamily":0},{"id":"52694789908","owner":"128369733@N04","secret":"38dcd423c4","server":"65535","farm":66,"title":"Beyond The Branches","ispublic":1,"isfriend":0,"isfamily":0},{"id":"52693781012","owner":"12639178@N07","secret":"dd3552c1aa","server":"65535","farm":66,"title":"Zierliche Carolinataube","ispublic":1,"isfriend":0,"isfamily":0},{"id":"52693786275","owner":"142605906@N06","secret":"85ed9fe797","server":"65535","farm":66,"title":"Mourning Dove in the Snow","ispublic":1,"isfriend":0,"isfamily":0},{"id":"52692229966","owner":"91064752@N03","secret":"a6c96a2ec6","server":"65535","farm":66,"title":"Mourning Dove in a Snowstorm","ispublic":1,"isfriend":0,"isfamily":0},{"id":"52683700619","owner":"160542269@N02","secret":"673a7c953a","server":"65535","farm":66,"title":"mourning dove through dirty window","ispublic":1,"isfriend":0,"isfamily":0},{"id":"52682930703","owner":"18739614@N00","secret":"36efa28fa5","server":"65535","farm":66,"title":"Mourning Dove","ispublic":1,"isfriend":0,"isfamily":0},{"id":"52681157143","owner":"12639178@N07","secret":"1881f04dee","server":"65535","farm":66,"title":"Carolinataube schaut ganz aufmerksam","ispublic":1,"isfriend":0,"isfamily":0},{"id":"52678927251","owner":"47533293@N04","secret":"a9b08f2880","server":"65535","farm":66,"title":"Mourning dove, Zenaida macroura","ispublic":1,"isfriend":0,"isfamily":0},{"id":"52679344053","owner":"32599741@N03","secret":"b46da8b4dd","server":"65535","farm":66,"title":"2023 - Day 27:  mislabeled","ispublic":1,"isfriend":0,"isfamily":0},{"id":"52677819837","owner":"165072144@N05","secret":"52c699d244","server":"65535","farm":66,"title":"Mourning Dove (Zenaida macroura)","ispublic":1,"isfriend":0,"isfamily":0},{"id":"52678242478","owner":"33610210@N05","secret":"60e74682ef","server":"65535","farm":66,"title":"Mourning Dove, Zenaida macroura","ispublic":1,"isfriend":0,"isfamily":0},{"id":"52678129165","owner":"62043870@N05","secret":"d828ca4eb6","server":"65535","farm":66,"title":"Mourning Dove, Zenaida macroura","ispublic":1,"isfriend":0,"isfamily":0},{"id":"52677093643","owner":"95823068@N06","secret":"5555b2c487","server":"65535","farm":66,"title":"Warming up in the sun","ispublic":1,"isfriend":0,"isfamily":0},{"id":"52674744264","owner":"169771858@N03","secret":"79b1ef3c6e","server":"65535","farm":66,"title":"Mourning Dove - 2022-10-22","ispublic":1,"isfriend":0,"isfamily":0},{"id":"52671115497","owner":"28631427@N00","secret":"e11f742e80","server":"65535","farm":66,"title":"Mourning Dove","ispublic":1,"isfriend":0,"isfamily":0},{"id":"52668999250","owner":"12639178@N07","secret":"c1817fb619","server":"65535","farm":66,"title":"Carolinat\u00e4ubchen","ispublic":1,"isfriend":0,"isfamily":0},{"id":"52667117777","owner":"33610210@N05","secret":"e55fa767e1","server":"65535","farm":66,"title":"Mourning Dove, Zenaida macroura","ispublic":1,"isfriend":0,"isfamily":0},{"id":"52667117767","owner":"33610210@N05","secret":"0181117081","server":"65535","farm":66,"title":"Mourning Dove, Zenaida macroura","ispublic":1,"isfriend":0,"isfamily":0},{"id":"52666930084","owner":"8654297@N06","secret":"463320548a","server":"65535","farm":66,"title":"Cold mo(u)rning","ispublic":1,"isfriend":0,"isfamily":0},{"id":"52663668341","owner":"99228543@N04","secret":"8d8a4c0bdb","server":"65535","farm":66,"title":"mourning dove (Zenaida macroura) 1","ispublic":1,"isfriend":0,"isfamily":0},{"id":"52662763546","owner":"128369733@N04","secret":"bde443cc61","server":"65535","farm":66,"title":"See Me","ispublic":1,"isfriend":0,"isfamily":0},{"id":"52662261410","owner":"33610210@N05","secret":"7f3e30b47b","server":"65535","farm":66,"title":"Mourning Dove, Zenaida macroura","ispublic":1,"isfriend":0,"isfamily":0},{"id":"52661932345","owner":"195239167@N07","secret":"2a31243451","server":"65535","farm":66,"title":"Mourning Dove","ispublic":1,"isfriend":0,"isfamily":0},{"id":"52655918107","owner":"69002026@N02","secret":"16a772fb33","server":"65535","farm":66,"title":"Mourning Dove (Zenaida macroura)","ispublic":1,"isfriend":0,"isfamily":0},{"id":"52656848290","owner":"69002026@N02","secret":"030b522f51","server":"65535","farm":66,"title":"Mourning Dove (Zenaida macroura)","ispublic":1,"isfriend":0,"isfamily":0},{"id":"52656402101","owner":"69002026@N02","secret":"b5959f681b","server":"65535","farm":66,"title":"Mourning Dove (Zenaida macroura)","ispublic":1,"isfriend":0,"isfamily":0},{"id":"52653407560","owner":"48014585@N00","secret":"4323b1cf11","server":"65535","farm":66,"title":"Mourning Dove","ispublic":1,"isfriend":0,"isfamily":0},{"id":"52653407470","owner":"48014585@N00","secret":"c5a9243fc4","server":"65535","farm":66,"title":"Mourning Dove","ispublic":1,"isfriend":0,"isfamily":0},{"id":"52652591280","owner":"184155060@N04","secret":"631f648df2","server":"65535","farm":66,"title":"02340 Tourterelle triste \/ Zenaida macroura marginella \/ Mourning Dove","ispublic":1,"isfriend":0,"isfamily":0},{"id":"52652591115","owner":"184155060@N04","secret":"8efb7e5df8","server":"65535","farm":66,"title":"02340 Tourterelle triste \/ Zenaida macroura marginella \/ Mourning Dove","ispublic":1,"isfriend":0,"isfamily":0},{"id":"52650774131","owner":"69002026@N02","secret":"7320acb975","server":"65535","farm":66,"title":"Mourning Dove (Zenaida macroura)","ispublic":1,"isfriend":0,"isfamily":0},{"id":"52651215305","owner":"69002026@N02","secret":"5c611012a0","server":"65535","farm":66,"title":"Mourning Dove (Zenaida macroura)","ispublic":1,"isfriend":0,"isfamily":0},{"id":"52650280187","owner":"69002026@N02","secret":"a27114cf9c","server":"65535","farm":66,"title":"Mourning Dove (Zenaida macroura)","ispublic":1,"isfriend":0,"isfamily":0},{"id":"52651215200","owner":"69002026@N02","secret":"a8b000578b","server":"65535","farm":66,"title":"Mourning Dove (Zenaida macroura)","ispublic":1,"isfriend":0,"isfamily":0},{"id":"52650286206","owner":"195239167@N07","secret":"8ae2120bec","server":"65535","farm":66,"title":"Mourning Dove","ispublic":1,"isfriend":0,"isfamily":0},{"id":"52648736454","owner":"29733726@N07","secret":"586243b40d","server":"65535","farm":66,"title":"Tourterelle triste \/ Mourning Dove","ispublic":1,"isfriend":0,"isfamily":0},{"id":"52645896443","owner":"48014585@N00","secret":"01535c2271","server":"65535","farm":66,"title":"Mourning Dove","ispublic":1,"isfriend":0,"isfamily":0},{"id":"52645425426","owner":"48014585@N00","secret":"89d44fcff7","server":"65535","farm":66,"title":"Mourning Dove through wintow","ispublic":1,"isfriend":0,"isfamily":0},{"id":"52645863950","owner":"48014585@N00","secret":"0d91a802b7","server":"65535","farm":66,"title":"Mourning Dove through wintow","ispublic":1,"isfriend":0,"isfamily":0},{"id":"52645068683","owner":"89367133@N00","secret":"0c94f3bedf","server":"65535","farm":66,"title":"Tourterelle triste (Zenaida macroura).","ispublic":1,"isfriend":0,"isfamily":0},{"id":"52643427525","owner":"69002026@N02","secret":"f020eececa","server":"65535","farm":66,"title":"Mourning Dove (Zenaida macroura)","ispublic":1,"isfriend":0,"isfamily":0},{"id":"52641699631","owner":"36013467@N07","secret":"4ae538695e","server":"65535","farm":66,"title":"Mourning Dove (Zenaida macroura)","ispublic":1,"isfriend":0,"isfamily":0},{"id":"52641464738","owner":"48014585@N00","secret":"f6f93fd7bd","server":"65535","farm":66,"title":"Mourning Dove","ispublic":1,"isfriend":0,"isfamily":0},{"id":"52640479682","owner":"48014585@N00","secret":"ffebc76d07","server":"65535","farm":66,"title":"Mourning Dove","ispublic":1,"isfriend":0,"isfamily":0},{"id":"52641428135","owner":"48014585@N00","secret":"e71851a514","server":"65535","farm":66,"title":"Mourning Dove","ispublic":1,"isfriend":0,"isfamily":0},{"id":"52641464108","owner":"48014585@N00","secret":"c6e3facf5b","server":"65535","farm":66,"title":"Mourning Dove","ispublic":1,"isfriend":0,"isfamily":0},{"id":"52640152509","owner":"10260434@N03","secret":"fcc1c2b7c6","server":"65535","farm":66,"title":"Lotsa doves-2Jan2023","ispublic":1,"isfriend":0,"isfamily":0},{"id":"52640286778","owner":"10260434@N03","secret":"107aac0a52","server":"65535","farm":66,"title":"Mourning Dove male-28Nov22","ispublic":1,"isfriend":0,"isfamily":0},{"id":"52639573182","owner":"196558678@N02","secret":"fddd9a02c9","server":"65535","farm":66,"title":"Morning Dove (Zenaida macroura)","ispublic":1,"isfriend":0,"isfamily":0},{"id":"52639008110","owner":"38514062@N03","secret":"bc4304a80e","server":"65535","farm":66,"title":"Mourning Dove (Zenaida macroura)","ispublic":1,"isfriend":0,"isfamily":0},{"id":"52635135253","owner":"165841515@N03","secret":"9356a8b599","server":"65535","farm":66,"title":"Tourterelle triste \/ Mourning Dove \/ (Zenaida macroura)","ispublic":1,"isfriend":0,"isfamily":0},{"id":"52634449773","owner":"39445433@N02","secret":"fea54d23ae","server":"65535","farm":66,"title":"Mourning Dove","ispublic":1,"isfriend":0,"isfamily":0},{"id":"52633941521","owner":"39445433@N02","secret":"15f36e5971","server":"65535","farm":66,"title":"Mourning Dove","ispublic":1,"isfriend":0,"isfamily":0},{"id":"52633400219","owner":"128369733@N04","secret":"89c5f1194c","server":"65535","farm":66,"title":"Afternoon Respite (1)","ispublic":1,"isfriend":0,"isfamily":0},{"id":"52632631402","owner":"128369733@N04","secret":"52cf19ae51","server":"65535","farm":66,"title":"Afternoon Respite (2)","ispublic":1,"isfriend":0,"isfamily":0},{"id":"52631901841","owner":"47533293@N04","secret":"eb09aa5c20","server":"65535","farm":66,"title":"Mourning dove, Zenaida macroura","ispublic":1,"isfriend":0,"isfamily":0},{"id":"52629329742","owner":"18378985@N08","secret":"e4a4f45674","server":"65535","farm":66,"title":"Mourning Dove","ispublic":1,"isfriend":0,"isfamily":0},{"id":"52629893480","owner":"52495017@N00","secret":"b1368c0deb","server":"65535","farm":66,"title":"A mourning dove at the Fletcher Wildlife Garden in Ottawa, Ontario","ispublic":1,"isfriend":0,"isfamily":0},{"id":"52629893360","owner":"52495017@N00","secret":"6f70da82e5","server":"65535","farm":66,"title":"A mourning dove at the Fletcher Wildlife Gardin in Ottawa, Ontario","ispublic":1,"isfriend":0,"isfamily":0},{"id":"52626378041","owner":"188156748@N07","secret":"ea1a18cb21","server":"65535","farm":66,"title":"Mourning Dove - Tourterelle Triste - Zenaida macroura 1735 (1)-SharpenAI-Standard copy.jpgS","ispublic":1,"isfriend":0,"isfamily":0},{"id":"52626378021","owner":"188156748@N07","secret":"ce611a4ef0","server":"65535","farm":66,"title":"Mourning Dove - Tourterelle Triste - Zenaida macroura 1735 (8)-SharpenAI-Standard copy.jpgS","ispublic":1,"isfriend":0,"isfamily":0},{"id":"52622970267","owner":"195397489@N07","secret":"92a38407c3","server":"65535","farm":66,"title":"Tourterelle triste \/ Zenaida macroura.","ispublic":1,"isfriend":0,"isfamily":0},{"id":"52622670900","owner":"62174414@N04","secret":"b76d36a419","server":"65535","farm":66,"title":"MODO_pear1_2MN9_7242_23-01-10 1","ispublic":1,"isfriend":0,"isfamily":0},{"id":"52617068922","owner":"188156748@N07","secret":"9c5082f107","server":"65535","farm":66,"title":"Mourning Dove - Tourterelle Triste - Zenaida macroura 9662 (4)-SharpenAI-Standard copy.jpgS","ispublic":1,"isfriend":0,"isfamily":0},{"id":"52617581221","owner":"188156748@N07","secret":"e26f1174cd","server":"65535","farm":66,"title":"Mourning Dove - Tourterelle Triste - Zenaida macroura 9662 (11)-SharpenAI-Standard copy.jpgS","ispublic":1,"isfriend":0,"isfamily":0},{"id":"52615323006","owner":"76617062@N08","secret":"5f785d388e","server":"65535","farm":66,"title":"1.04650 Tourterelle triste \/ Zenaida macroura carolinensis \/ Mourning Dove","ispublic":1,"isfriend":0,"isfamily":0},{"id":"52612090622","owner":"76617062@N08","secret":"c575b43568","server":"65535","farm":66,"title":"1.04650 Tourterelle triste \/ Zenaida macroura carolinensis \/ Mourning Dove","ispublic":1,"isfriend":0,"isfamily":0},{"id":"52694788348","owner":"12639178@N07","secret":"ded72839cb","server":"65535","farm":66,"title":"Drei T\u00e4ubchen auf Futtersuche","ispublic":1,"isfriend":0,"isfamily":0},{"id":"52693737907","owner":"48014585@N00","secret":"51928fd44d","server":"65535","farm":66,"title":"Mourning Doves","ispublic":1,"isfriend":0,"isfamily":0},{"id":"52689935726","owner":"33610210@N05","secret":"dbf1000525","server":"65535","farm":66,"title":"Mourning Dove, Zenaida macroura","ispublic":1,"isfriend":0,"isfamily":0},{"id":"52684668369","owner":"12639178@N07","secret":"01d3973d43","server":"65535","farm":66,"title":"Carolinataube und Sperlingst\u00e4ubchen auf einer Wiese","ispublic":1,"isfriend":0,"isfamily":0},{"id":"52669227295","owner":"136180232@N08","secret":"ecfb37186d","server":"65535","farm":66,"title":"Mourning Dove (Zenaida macroura) JTE_2432","ispublic":1,"isfriend":0,"isfamily":0},{"id":"52660430354","owner":"62043870@N05","secret":"bf9977e589","server":"65535","farm":66,"title":"Mourning Dove, Zenaida macroura","ispublic":1,"isfriend":0,"isfamily":0},{"id":"52653784091","owner":"12639178@N07","secret":"a3be93e3a5","server":"65535","farm":66,"title":"Guten Morgen h\u00fcbsche Taube!","ispublic":1,"isfriend":0,"isfamily":0},{"id":"52634222369","owner":"39445433@N02","secret":"a6449c4ab4","server":"65535","farm":66,"title":"Mourning Dove","ispublic":1,"isfriend":0,"isfamily":0}]},"stat":"ok"}