{"photos":{"page":1,"pages":59,"perpage":100,"total":5854,"photo":[{"id":"52792090151","owner":"12639178@N07","secret":"8b8a350e87","server":"65535","farm":66,"title":"Himmelsgucker","ispublic":1,"isfriend":0,"isfamily":0},{"id":"52792536318","owner":"12639178@N07","secret":"034ba17a1d","server":"65535","farm":66,"title":"Warzi - eine Sch\u00f6nheit :-)","ispublic":1,"isfriend":0,"isfamily":0},{"id":"52790815908","owner":"88273428@N06","secret":"7021782bd0","server":"65535","farm":66,"title":"Cairina moschata \u75a3\u9f3b\u68f2\u9d28","ispublic":1,"isfriend":0,"isfamily":0},{"id":"52787958489","owner":"135315828@N06","secret":"eb43fe666b","server":"65535","farm":66,"title":"muscovy duck","ispublic":1,"isfriend":0,"isfamily":0},{"id":"52787726826","owner":"135315828@N06","secret":"198ecef402","server":"65535","farm":66,"title":"muscovy duck","ispublic":1,"isfriend":0,"isfamily":0},{"id":"52781701980","owner":"56948911@N04","secret":"57d8d95e26","server":"65535","farm":66,"title":"Cairina Moschata dom\u00e9stica","ispublic":1,"isfriend":0,"isfamily":0},{"id":"52780750812","owner":"56948911@N04","secret":"7e0ecb2af0","server":"65535","farm":66,"title":"Cairina Moschata","ispublic":1,"isfriend":0,"isfamily":0},{"id":"52781050334","owner":"41940444@N07","secret":"2d7af107d0","server":"65535","farm":66,"title":"Muscovy duck","ispublic":1,"isfriend":0,"isfamily":0},{"id":"52745909092","owner":"12639178@N07","secret":"6b5e666516","server":"65535","farm":66,"title":"hier schl\u00e4ft sie gerade :-)","ispublic":1,"isfriend":0,"isfamily":0},{"id":"52746929823","owner":"12639178@N07","secret":"c16f25d5fd","server":"65535","farm":66,"title":"Portr\u00e4t Warzi","ispublic":1,"isfriend":0,"isfamily":0},{"id":"52746480849","owner":"42964440@N08","secret":"2708c7c24f","server":"65535","farm":66,"title":"Hybrid Duck Cross - Muscovy Duck ( Cairina moschata) , Mallard, (Anas platyrhynchos)","ispublic":1,"isfriend":0,"isfamily":0},{"id":"52738241299","owner":"59206851@N00","secret":"0400763e7d","server":"65535","farm":66,"title":"DSC_3411-2.jpg","ispublic":1,"isfriend":0,"isfamily":0},{"id":"52737987971","owner":"59206851@N00","secret":"56b90d3d61","server":"65535","farm":66,"title":"DSC_3411.jpg","ispublic":1,"isfriend":0,"isfamily":0},{"id":"52737303175","owner":"12639178@N07","secret":"58d93941d5","server":"65535","farm":66,"title":"Warzenente (Cairina moschata var. domestica)","ispublic":1,"isfriend":0,"isfamily":0},{"id":"52736894761","owner":"12639178@N07","secret":"9eb90541d8","server":"65535","farm":66,"title":"Warzenente (Cairina moschata var. domestica)","ispublic":1,"isfriend":0,"isfamily":0},{"id":"52736636945","owner":"31693460@N06","secret":"ae58ccff7a","server":"65535","farm":66,"title":"Muscovy Ducks","ispublic":1,"isfriend":0,"isfamily":0},{"id":"52736521023","owner":"59206851@N00","secret":"d41926556b","server":"65535","farm":66,"title":"DSC_8114.jpg","ispublic":1,"isfriend":0,"isfamily":0},{"id":"52736041186","owner":"59206851@N00","secret":"8d9d98751f","server":"65535","farm":66,"title":"DSC_7917.jpg","ispublic":1,"isfriend":0,"isfamily":0},{"id":"52736358750","owner":"59206851@N00","secret":"f2746c5c31","server":"65535","farm":66,"title":"DSC_7452-2.jpg","ispublic":1,"isfriend":0,"isfamily":0},{"id":"52736196034","owner":"59206851@N00","secret":"19d27e2830","server":"65535","farm":66,"title":"DSC_7452.jpg","ispublic":1,"isfriend":0,"isfamily":0},{"id":"52736136634","owner":"59206851@N00","secret":"e80ec1b5a3","server":"65535","farm":66,"title":"DSC_8233.jpg","ispublic":1,"isfriend":0,"isfamily":0},{"id":"52734170611","owner":"31693460@N06","secret":"5bf99a5dca","server":"65535","farm":66,"title":"Muscovy Duckling","ispublic":1,"isfriend":0,"isfamily":0},{"id":"52734403588","owner":"59206851@N00","secret":"f568df256b","server":"65535","farm":66,"title":"DSC_5910.jpg","ispublic":1,"isfriend":0,"isfamily":0},{"id":"52731670497","owner":"137371709@N06","secret":"114b58199d","server":"65535","farm":66,"title":"Cairina moschata forma domestica (Muskuseend)","ispublic":1,"isfriend":0,"isfamily":0},{"id":"52732344503","owner":"59206851@N00","secret":"3bccc4cfbf","server":"65535","farm":66,"title":"DSC_3496.jpg","ispublic":1,"isfriend":0,"isfamily":0},{"id":"52731329357","owner":"182515684@N02","secret":"001e7bf3e6","server":"65535","farm":66,"title":"Watch Out Below! \u2026 OM6946-204","ispublic":1,"isfriend":0,"isfamily":0},{"id":"52731088249","owner":"59206851@N00","secret":"488edda9d4","server":"65535","farm":66,"title":"DSC_2200.jpg","ispublic":1,"isfriend":0,"isfamily":0},{"id":"52730976589","owner":"59206851@N00","secret":"20598ce596","server":"65535","farm":66,"title":"DSC_6306.jpg","ispublic":1,"isfriend":0,"isfamily":0},{"id":"52730688436","owner":"129490521@N03","secret":"41c61d7b6b","server":"65535","farm":66,"title":"Canard de Barbarie - Cairina moschata","ispublic":1,"isfriend":0,"isfamily":0},{"id":"52730661495","owner":"59206851@N00","secret":"56bb556439","server":"65535","farm":66,"title":"DSC_9182.jpg","ispublic":1,"isfriend":0,"isfamily":0},{"id":"52730249326","owner":"59206851@N00","secret":"def46d7b54","server":"65535","farm":66,"title":"DSC_9179.jpg","ispublic":1,"isfriend":0,"isfamily":0},{"id":"52730140150","owner":"59206851@N00","secret":"882db779f2","server":"65535","farm":66,"title":"DSC_4168-2.jpg","ispublic":1,"isfriend":0,"isfamily":0},{"id":"52729518670","owner":"12639178@N07","secret":"cbf438f872","server":"65535","farm":66,"title":"Warzi in ihrem Revier","ispublic":1,"isfriend":0,"isfamily":0},{"id":"52728034845","owner":"129490521@N03","secret":"62b95848a8","server":"65535","farm":66,"title":"Canard de Barbarie - Cairina moschata","ispublic":1,"isfriend":0,"isfamily":0},{"id":"52727018689","owner":"197888477@N08","secret":"28d178e96c","server":"65535","farm":66,"title":"Cairina moschata","ispublic":1,"isfriend":0,"isfamily":0},{"id":"52722991611","owner":"12639178@N07","secret":"245a3ffd92","server":"65535","farm":66,"title":"\u00dcberraschung auf der Wiese","ispublic":1,"isfriend":0,"isfamily":0},{"id":"52720852822","owner":"62043870@N05","secret":"6e0620652e","server":"65535","farm":66,"title":"Muscovy Ducks, Cairina moschata","ispublic":1,"isfriend":0,"isfamily":0},{"id":"52719082475","owner":"110148017@N06","secret":"70d3e23f82","server":"65535","farm":66,"title":"\u75a3\u9f3b\u68f2\u9d28 Cairina moschata","ispublic":1,"isfriend":0,"isfamily":0},{"id":"52718924154","owner":"110148017@N06","secret":"52107f0587","server":"65535","farm":66,"title":"\u75a3\u9f3b\u68f2\u9d28 Cairina moschata","ispublic":1,"isfriend":0,"isfamily":0},{"id":"52714646232","owner":"12639178@N07","secret":"55deef86cf","server":"65535","farm":66,"title":"Kopfstudie eines Erpels","ispublic":1,"isfriend":0,"isfamily":0},{"id":"52715168001","owner":"12639178@N07","secret":"8f9751bbb3","server":"65535","farm":66,"title":"Warzenente am Teichufer","ispublic":1,"isfriend":0,"isfamily":0},{"id":"52714500525","owner":"12639178@N07","secret":"0697db93c1","server":"65535","farm":66,"title":"Warzenente (Cairina moschata var. domestica) (2)","ispublic":1,"isfriend":0,"isfamily":0},{"id":"52713556337","owner":"12639178@N07","secret":"0a350f2d81","server":"65535","farm":66,"title":"Warzenente (Cairina moschata var. domestica) (1)","ispublic":1,"isfriend":0,"isfamily":0},{"id":"52712607644","owner":"129490521@N03","secret":"ca58cabcb4","server":"65535","farm":66,"title":"Canard de Barbarie - Cairina moschata","ispublic":1,"isfriend":0,"isfamily":0},{"id":"52712763330","owner":"129490521@N03","secret":"20fc44cdcf","server":"65535","farm":66,"title":"Canard de Barbarie - Cairina moschata","ispublic":1,"isfriend":0,"isfamily":0},{"id":"52709116110","owner":"12639178@N07","secret":"2234b0d778","server":"65535","farm":66,"title":"Moschusente","ispublic":1,"isfriend":0,"isfamily":0},{"id":"52707624491","owner":"44920727@N08","secret":"54623690a5","server":"65535","farm":66,"title":"Stellenbosch. Cape Town. South Africa.","ispublic":1,"isfriend":0,"isfamily":0},{"id":"52708034800","owner":"44920727@N08","secret":"beee486e01","server":"65535","farm":66,"title":"Stellenbosch. Cape Town. South Africa.","ispublic":1,"isfriend":0,"isfamily":0},{"id":"52706831596","owner":"12639178@N07","secret":"1321b58d5d","server":"65535","farm":66,"title":"... perlgrau; eher scheu","ispublic":1,"isfriend":0,"isfamily":0},{"id":"52707241000","owner":"12639178@N07","secret":"1fdef684cf","server":"65535","farm":66,"title":"WARZENENTE...","ispublic":1,"isfriend":0,"isfamily":0},{"id":"52699798522","owner":"97758537@N00","secret":"5c1354137e","server":"65535","farm":66,"title":"Cairina moschata","ispublic":1,"isfriend":0,"isfamily":0},{"id":"52700465245","owner":"129490521@N03","secret":"ec6dece72b","server":"65535","farm":66,"title":"Canard de Barbarie - Cairina moschata","ispublic":1,"isfriend":0,"isfamily":0},{"id":"52698637515","owner":"45260725@N08","secret":"51335e1560","server":"65535","farm":66,"title":"Muscovy duck","ispublic":1,"isfriend":0,"isfamily":0},{"id":"52693041651","owner":"140968033@N04","secret":"4b6d67edb5","server":"65535","farm":66,"title":"Canard de Barbarie, Moschusente,Muscovy duck, (Cairina moschata)","ispublic":1,"isfriend":0,"isfamily":0},{"id":"52689394701","owner":"147799774@N04","secret":"8d1423224d","server":"65535","farm":66,"title":"Outro pato-mudo | Cairina moschata","ispublic":1,"isfriend":0,"isfamily":0},{"id":"52687654447","owner":"193728923@N07","secret":"de64bf6fa1","server":"65535","farm":66,"title":"Canard de Barbarie (Cairina moschata)","ispublic":1,"isfriend":0,"isfamily":0},{"id":"52686933589","owner":"44510888@N05","secret":"c1976151a8","server":"65535","farm":66,"title":"Muscovy Drake","ispublic":1,"isfriend":0,"isfamily":0},{"id":"52683464357","owner":"147799774@N04","secret":"45ba514c38","server":"65535","farm":66,"title":"Pato-mudo | Cairina Moschata","ispublic":1,"isfriend":0,"isfamily":0},{"id":"52682984932","owner":"154000018@N08","secret":"1fa58a2c98","server":"65535","farm":66,"title":"Warzenente - Muscovy - Barbary","ispublic":1,"isfriend":0,"isfamily":0},{"id":"52681937792","owner":"129490521@N03","secret":"5d84783739","server":"65535","farm":66,"title":"Canard de Barbarie - Cairina moschata","ispublic":1,"isfriend":0,"isfamily":0},{"id":"52680239467","owner":"132165466@N08","secret":"8daa224181","server":"65535","farm":66,"title":"Muscovy Duck","ispublic":1,"isfriend":0,"isfamily":0},{"id":"52681189560","owner":"132165466@N08","secret":"9049aa92b6","server":"65535","farm":66,"title":"Muscovy Duck","ispublic":1,"isfriend":0,"isfamily":0},{"id":"52678441807","owner":"132165466@N08","secret":"2f985d7ff3","server":"65535","farm":66,"title":"Muscovy Duck","ispublic":1,"isfriend":0,"isfamily":0},{"id":"52679238529","owner":"132165466@N08","secret":"9b6b1e3925","server":"65535","farm":66,"title":"Muscovy Duck","ispublic":1,"isfriend":0,"isfamily":0},{"id":"52679225828","owner":"197663543@N07","secret":"5d0c105abe","server":"65535","farm":66,"title":"A Cairina Moschata resting","ispublic":1,"isfriend":0,"isfamily":0},{"id":"52678502196","owner":"182515684@N02","secret":"c528bb6ed2","server":"65535","farm":66,"title":"Beauty \u2026 P9710-290","ispublic":1,"isfriend":0,"isfamily":0},{"id":"52676858343","owner":"137931501@N03","secret":"1e18f3be13","server":"65535","farm":66,"title":"Lesser Sac-winged Bat (Saccopteryx leptura) 8101","ispublic":1,"isfriend":0,"isfamily":0},{"id":"52676625239","owner":"137931501@N03","secret":"3b971e82c5","server":"65535","farm":66,"title":"Muscovy duck (Cairina moschata) 7718","ispublic":1,"isfriend":0,"isfamily":0},{"id":"52674091887","owner":"150719316@N03","secret":"bfc74397d2","server":"65535","farm":66,"title":"Muscovy Duck","ispublic":1,"isfriend":0,"isfamily":0},{"id":"52673428566","owner":"12639178@N07","secret":"0a313c745e","server":"65535","farm":66,"title":"Warzenente (Cairina moschata var. domestica)c","ispublic":1,"isfriend":0,"isfamily":0},{"id":"52672368393","owner":"103722035@N06","secret":"560c778eb0","server":"0","farm":0,"title":"Muscovy Duck (Domestic type) Cairina moschata (Domestic type), Oceano, CA","ispublic":1,"isfriend":0,"isfamily":0},{"id":"52670572971","owner":"12639178@N07","secret":"e6d2f3cf5f","server":"65535","farm":66,"title":"Muscovy Duck (domestic) (Cairina moschata var. domestica), Ostaustralien","ispublic":1,"isfriend":0,"isfamily":0},{"id":"52670873333","owner":"71945412@N08","secret":"ebfeb4ec0b","server":"65535","farm":66,"title":"Ducks in a Row Feb 2022 (Explored 7 Feb 2023)","ispublic":1,"isfriend":0,"isfamily":0},{"id":"52666963418","owner":"54359823@N03","secret":"6a3cfa076b","server":"65535","farm":66,"title":"S\u00fcdamerikanische m\u00e4nnliche Moschusente (cairina moschata) am Schwarzwasser in 08280 Aue","ispublic":1,"isfriend":0,"isfamily":0},{"id":"52666750609","owner":"54359823@N03","secret":"c25a83e4ac","server":"65535","farm":66,"title":"S\u00fcdamerikanische m\u00e4nnliche Moschusente (cairina moschata) am Schwarzwasser in 08280 Aue","ispublic":1,"isfriend":0,"isfamily":0},{"id":"52662721782","owner":"195565552@N04","secret":"c00b0f9251","server":"65535","farm":66,"title":"Cairina moschata \/ Muscovy Duck at the Lagoa das Furnas lake, the Azores","ispublic":1,"isfriend":0,"isfamily":0},{"id":"52663230543","owner":"88932760@N08","secret":"7a4dae7fa3","server":"65535","farm":66,"title":"Mild Muscovy","ispublic":1,"isfriend":0,"isfamily":0},{"id":"52662261315","owner":"33610210@N05","secret":"0cda876267","server":"65535","farm":66,"title":"Muscovy Duck, Cairina moschata","ispublic":1,"isfriend":0,"isfamily":0},{"id":"52650563199","owner":"45260725@N08","secret":"fd38434abd","server":"65535","farm":66,"title":"Muscovy duck","ispublic":1,"isfriend":0,"isfamily":0},{"id":"52647825546","owner":"32346098@N07","secret":"b2ce84f75e","server":"65535","farm":66,"title":"Pato Mudo ( Cairina moschata )","ispublic":1,"isfriend":0,"isfamily":0},{"id":"52645419603","owner":"195235238@N06","secret":"f33e7a4f18","server":"65535","farm":66,"title":"\"Click\"","ispublic":1,"isfriend":0,"isfamily":0},{"id":"52644166215","owner":"32346098@N07","secret":"7f8b8ed9c1","server":"65535","farm":66,"title":"Pato Criollo ( Cairina moschata )","ispublic":1,"isfriend":0,"isfamily":0},{"id":"52635544436","owner":"27794127@N07","secret":"b414558195","server":"65535","farm":66,"title":"Cairina moschata","ispublic":1,"isfriend":0,"isfamily":0},{"id":"52635544653","owner":"100108154@N02","secret":"6ab6f45552","server":"65535","farm":66,"title":"Duck 1","ispublic":1,"isfriend":0,"isfamily":0},{"id":"52634550042","owner":"100108154@N02","secret":"cd17ed2f75","server":"65535","farm":66,"title":"Duck 2","ispublic":1,"isfriend":0,"isfamily":0},{"id":"52634747730","owner":"12639178@N07","secret":"0369c34e86","server":"65535","farm":66,"title":"Beleg, Warzenente (Cairina moschata var. domestica) leider miese Lichtverh\u00e4","ispublic":1,"isfriend":0,"isfamily":0},{"id":"52781472548","owner":"12639178@N07","secret":"e87408ac92","server":"65535","farm":66,"title":"Moschusenten","ispublic":1,"isfriend":0,"isfamily":0},{"id":"52780402275","owner":"12639178@N07","secret":"1f0b291e93","server":"65535","farm":66,"title":"Warzenente (Cairina moschata var. domestica)","ispublic":1,"isfriend":0,"isfamily":0},{"id":"52767192997","owner":"12639178@N07","secret":"8f5bda7e9f","server":"65535","farm":66,"title":"Warzenente","ispublic":1,"isfriend":0,"isfamily":0},{"id":"52685416237","owner":"12639178@N07","secret":"0493f2a001","server":"65535","farm":66,"title":"Warzi ruht gemeinsam mit den Stockenten","ispublic":1,"isfriend":0,"isfamily":0},{"id":"52676892540","owner":"12639178@N07","secret":"4b58841cbf","server":"65535","farm":66,"title":"Warzenente (Cairina moschata var. domestica)","ispublic":1,"isfriend":0,"isfamily":0},{"id":"52676892430","owner":"12639178@N07","secret":"d29a3a12c6","server":"65535","farm":66,"title":"Warzenente (Cairina moschata var. domestica)","ispublic":1,"isfriend":0,"isfamily":0},{"id":"52675951682","owner":"12639178@N07","secret":"d605082fa4","server":"65535","farm":66,"title":"Warzenente (Cairina moschata var. domestica)","ispublic":1,"isfriend":0,"isfamily":0},{"id":"52676892265","owner":"12639178@N07","secret":"6ff985ffd6","server":"65535","farm":66,"title":"Warzenente (Cairina moschata var. domestica)","ispublic":1,"isfriend":0,"isfamily":0},{"id":"52676953553","owner":"12639178@N07","secret":"a5381c2667","server":"65535","farm":66,"title":"F\u00fcr meinen Begleiter gesucht und wiedergefunden - Warzenente (Cairina mosch","ispublic":1,"isfriend":0,"isfamily":0},{"id":"52673428406","owner":"12639178@N07","secret":"0fec33a58b","server":"65535","farm":66,"title":"Warzenente (Cairina moschata var. domestica)b","ispublic":1,"isfriend":0,"isfamily":0},{"id":"52673428291","owner":"12639178@N07","secret":"f893223173","server":"65535","farm":66,"title":"Warzenente (Cairina moschata var. domestica)","ispublic":1,"isfriend":0,"isfamily":0},{"id":"52640052543","owner":"12639178@N07","secret":"580dbbe37b","server":"65535","farm":66,"title":"Warzi n\u00e4hert sich den Stocki-Damen an","ispublic":1,"isfriend":0,"isfamily":0},{"id":"52635619332","owner":"12639178@N07","secret":"b946425b34","server":"65535","farm":66,"title":"Warzi posiert","ispublic":1,"isfriend":0,"isfamily":0},{"id":"52635619192","owner":"12639178@N07","secret":"f2475b5b1a","server":"65535","farm":66,"title":"Portr\u00e4t eines Charakter-Vogels :-)","ispublic":1,"isfriend":0,"isfamily":0}]},"stat":"ok"}