{"photos":{"page":1,"pages":602,"perpage":100,"total":60119,"photo":[{"id":"52792999945","owner":"42388593@N04","secret":"3eb14d88f1","server":"65535","farm":66,"title":"Knopsvane, Mute swan, Ho\u0308ckerschwan (Cygnus olor)-1082","ispublic":1,"isfriend":0,"isfamily":0},{"id":"52792995843","owner":"12639178@N07","secret":"6e9d31f381","server":"65535","farm":66,"title":"H\u00f6ckerschwan (Cygnus olor) (1)","ispublic":1,"isfriend":0,"isfamily":0},{"id":"52791941672","owner":"80598453@N08","secret":"e062f062be","server":"65535","farm":66,"title":"Look at me I can stand on one Leg","ispublic":1,"isfriend":0,"isfamily":0},{"id":"52791744182","owner":"65345069@N02","secret":"c4c3129678","server":"65535","farm":66,"title":"Mute Swan (Cygnus olor)","ispublic":1,"isfriend":0,"isfamily":0},{"id":"52790933842","owner":"53280041@N04","secret":"264727bdf9","server":"65535","farm":66,"title":"Mute swan","ispublic":1,"isfriend":0,"isfamily":0},{"id":"52791937698","owner":"53280041@N04","secret":"bb5e7a9e30","server":"65535","farm":66,"title":"Mute swan","ispublic":1,"isfriend":0,"isfamily":0},{"id":"52791881380","owner":"53280041@N04","secret":"73803f3243","server":"65535","farm":66,"title":"Mute swan","ispublic":1,"isfriend":0,"isfamily":0},{"id":"52790933487","owner":"53280041@N04","secret":"7f83ef9e18","server":"65535","farm":66,"title":"Mute swan","ispublic":1,"isfriend":0,"isfamily":0},{"id":"52791275076","owner":"163316741@N07","secret":"7a6f75ac46","server":"65535","farm":66,"title":"mute swan 28022023 (1)_03","ispublic":1,"isfriend":0,"isfamily":0},{"id":"52790564267","owner":"130140749@N05","secret":"c644c3f843","server":"65535","farm":66,"title":"Decorating the Nursery","ispublic":1,"isfriend":0,"isfamily":0},{"id":"52791398098","owner":"12639178@N07","secret":"c0e2491eff","server":"65535","farm":66,"title":"H\u00f6ckerschwan (Cygnus olor)","ispublic":1,"isfriend":0,"isfamily":0},{"id":"52790719559","owner":"42388593@N04","secret":"7554b67180","server":"65535","farm":66,"title":"Knopsvane, Mute swan, Ho\u0308ckerschwan (Cygnus olor)-1083","ispublic":1,"isfriend":0,"isfamily":0},{"id":"52790697869","owner":"12639178@N07","secret":"a5f413177f","server":"65535","farm":66,"title":"H\u00f6ckerschwan","ispublic":1,"isfriend":0,"isfamily":0},{"id":"52790494374","owner":"19034378@N05","secret":"a2323d824e","server":"65535","farm":66,"title":"Mute Swan in Stockholm","ispublic":1,"isfriend":0,"isfamily":0},{"id":"52790494319","owner":"19034378@N05","secret":"edb40ec675","server":"65535","farm":66,"title":"Mute Swan in Stockholm","ispublic":1,"isfriend":0,"isfamily":0},{"id":"52789702982","owner":"19034378@N05","secret":"d170902d1f","server":"65535","farm":66,"title":"Mute Swans in Stockholm","ispublic":1,"isfriend":0,"isfamily":0},{"id":"52789638077","owner":"127940837@N07","secret":"04e4dc86ea","server":"65535","farm":66,"title":"Beauty and aggression ... 3E0A0643","ispublic":1,"isfriend":0,"isfamily":0},{"id":"52789870600","owner":"12639178@N07","secret":"bf758059bf","server":"65535","farm":66,"title":"eiliger Schwan *","ispublic":1,"isfriend":0,"isfamily":0},{"id":"52789143038","owner":"138617676@N04","secret":"f7ac031d01","server":"65535","farm":66,"title":"DSCF3578 aves 2023","ispublic":1,"isfriend":0,"isfamily":0},{"id":"52787851902","owner":"141436227@N05","secret":"be59a34a83","server":"65535","farm":66,"title":"Cygnus Olor","ispublic":1,"isfriend":0,"isfamily":0},{"id":"52788856488","owner":"141436227@N05","secret":"a105bc2673","server":"65535","farm":66,"title":"Cygnus Olor","ispublic":1,"isfriend":0,"isfamily":0},{"id":"52788856443","owner":"141436227@N05","secret":"de66c74d10","server":"65535","farm":66,"title":"Cygnus Olor","ispublic":1,"isfriend":0,"isfamily":0},{"id":"52788640054","owner":"12639178@N07","secret":"a7138c8cc2","server":"65535","farm":66,"title":"2 von 8 H\u00f6ckerschw\u00e4nen","ispublic":1,"isfriend":0,"isfamily":0},{"id":"52788525085","owner":"65149948@N06","secret":"41cb526422","server":"65535","farm":66,"title":"Cygnus olor","ispublic":1,"isfriend":0,"isfamily":0},{"id":"52788420910","owner":"150856173@N06","secret":"29e3c8e78b","server":"65535","farm":66,"title":"Dalmatian pelican (Pelecanus crispus)-0545","ispublic":1,"isfriend":0,"isfamily":0},{"id":"52788395183","owner":"60289952@N04","secret":"4ccea6aa2e","server":"65535","farm":66,"title":"Curiosity","ispublic":1,"isfriend":0,"isfamily":0},{"id":"52788184028","owner":"71393709@N06","secret":"95d3465235","server":"65535","farm":66,"title":"Juvenile Cygnus olor (Mute swan)  -  (Published by GETTY IMAGES)","ispublic":1,"isfriend":0,"isfamily":0},{"id":"52788181723","owner":"141633483@N05","secret":"daa0937ee3","server":"65535","farm":66,"title":"H\u00f6ckerschwan - Cygnus olor","ispublic":1,"isfriend":0,"isfamily":0},{"id":"52787709340","owner":"12639178@N07","secret":"f724f7dc12","server":"65535","farm":66,"title":"H\u00f6ckerschwan","ispublic":1,"isfriend":0,"isfamily":0},{"id":"52787643528","owner":"39854996@N00","secret":"13898cd163","server":"65535","farm":66,"title":"Mute swan \"cygnus olor\"","ispublic":1,"isfriend":0,"isfamily":0},{"id":"52787153536","owner":"76195233@N05","secret":"e4b99eca1a","server":"65535","farm":66,"title":"Whooper Swan Cygnus cygnus +  Mute Swan Cygnus olor","ispublic":1,"isfriend":0,"isfamily":0},{"id":"52787476958","owner":"15340201@N04","secret":"d719c8d61a","server":"65535","farm":66,"title":"Mute Swan","ispublic":1,"isfriend":0,"isfamily":0},{"id":"52785827517","owner":"15340201@N04","secret":"77acea9455","server":"65535","farm":66,"title":"Mute Swan","ispublic":1,"isfriend":0,"isfamily":0},{"id":"52786347921","owner":"15340201@N04","secret":"afe9b767c8","server":"65535","farm":66,"title":"Mute Swans","ispublic":1,"isfriend":0,"isfamily":0},{"id":"52786742878","owner":"15340201@N04","secret":"f5006730cc","server":"65535","farm":66,"title":"Mute Swan","ispublic":1,"isfriend":0,"isfamily":0},{"id":"52786569100","owner":"15340201@N04","secret":"a9d70fc44b","server":"65535","farm":66,"title":"Mute Swan and mate.","ispublic":1,"isfriend":0,"isfamily":0},{"id":"52786511823","owner":"23882583@N08","secret":"1b583ea273","server":"65535","farm":66,"title":"Mute Swan","ispublic":1,"isfriend":0,"isfamily":0},{"id":"52786045254","owner":"44093058@N06","secret":"335a726ee7","server":"65535","farm":66,"title":"Mute swan, Cygnus olor, Kn\u00f6lsvan","ispublic":1,"isfriend":0,"isfamily":0},{"id":"52785823503","owner":"12639178@N07","secret":"267422b7df","server":"65535","farm":66,"title":".und \u00fcber Minuten gibt es kein entrinnen.","ispublic":1,"isfriend":0,"isfamily":0},{"id":"52784518825","owner":"60316558@N05","secret":"7ec732dbd0","server":"65535","farm":66,"title":"Cigno reale\/Mute swan (Cygnus olor)","ispublic":1,"isfriend":0,"isfamily":0},{"id":"52783933580","owner":"127940837@N07","secret":"01b278650b","server":"65535","farm":66,"title":"Ready ... 3E0A0668","ispublic":1,"isfriend":0,"isfamily":0},{"id":"52783915090","owner":"127940837@N07","secret":"0d667e8ed3","server":"65535","farm":66,"title":"Send off ... 3E0A0672","ispublic":1,"isfriend":0,"isfamily":0},{"id":"52783255801","owner":"11299883@N08","secret":"eab9cb5954","server":"65535","farm":66,"title":"Cygnus olor","ispublic":1,"isfriend":0,"isfamily":0},{"id":"52783655625","owner":"11299883@N08","secret":"3273c2a024","server":"65535","farm":66,"title":"Cygnus olor","ispublic":1,"isfriend":0,"isfamily":0},{"id":"52783255626","owner":"11299883@N08","secret":"d067a00cc0","server":"65535","farm":66,"title":"Cygnus olor","ispublic":1,"isfriend":0,"isfamily":0},{"id":"52782707292","owner":"11299883@N08","secret":"08705c53d3","server":"65535","farm":66,"title":"Cygnus olor","ispublic":1,"isfriend":0,"isfamily":0},{"id":"52783713748","owner":"11299883@N08","secret":"3efb2b091a","server":"65535","farm":66,"title":"Cygnus olor","ispublic":1,"isfriend":0,"isfamily":0},{"id":"52783254096","owner":"11299883@N08","secret":"d67506baa6","server":"65535","farm":66,"title":"Cygnus olor","ispublic":1,"isfriend":0,"isfamily":0},{"id":"52783584610","owner":"58228774@N04","secret":"0d4f72479e","server":"65535","farm":66,"title":"Swan_D85_2043","ispublic":1,"isfriend":0,"isfamily":0},{"id":"52783424019","owner":"58228774@N04","secret":"ae2e388059","server":"65535","farm":66,"title":"Swan_D85_2061","ispublic":1,"isfriend":0,"isfamily":0},{"id":"52783644003","owner":"58228774@N04","secret":"23d9ec4b50","server":"65535","farm":66,"title":"Swan_D85_2069","ispublic":1,"isfriend":0,"isfamily":0},{"id":"52783585808","owner":"145715962@N06","secret":"97ab9e4031","server":"65535","farm":66,"title":"...\u00e8 diventato giallo","ispublic":1,"isfriend":0,"isfamily":0},{"id":"52782805306","owner":"167692045@N07","secret":"5c3bc08745","server":"65535","farm":66,"title":"cygne tubercul\u00e9 \/ Cygnus olor 23E_3783","ispublic":1,"isfriend":0,"isfamily":0},{"id":"52781226202","owner":"144417400@N04","secret":"1ccfa984fd","server":"65535","farm":66,"title":"Mute swan","ispublic":1,"isfriend":0,"isfamily":0},{"id":"52782173660","owner":"144417400@N04","secret":"42f55c2858","server":"65535","farm":66,"title":"Mute swan","ispublic":1,"isfriend":0,"isfamily":0},{"id":"52782011134","owner":"144417400@N04","secret":"79e749d06f","server":"65535","farm":66,"title":"Mute swan","ispublic":1,"isfriend":0,"isfamily":0},{"id":"52782121803","owner":"56446000@N04","secret":"3b7f0751ef","server":"65535","farm":66,"title":"Bathing Fury","ispublic":1,"isfriend":0,"isfamily":0},{"id":"52781901058","owner":"11299883@N08","secret":"8457dce2f3","server":"65535","farm":66,"title":"Cygnus olor","ispublic":1,"isfriend":0,"isfamily":0},{"id":"52781900963","owner":"11299883@N08","secret":"ab85550ec1","server":"65535","farm":66,"title":"Cygnus olor","ispublic":1,"isfriend":0,"isfamily":0},{"id":"52780894342","owner":"11299883@N08","secret":"051809b191","server":"65535","farm":66,"title":"Cygnus olor","ispublic":1,"isfriend":0,"isfamily":0},{"id":"52781845420","owner":"11299883@N08","secret":"79b62c359a","server":"65535","farm":66,"title":"Cygnus olor","ispublic":1,"isfriend":0,"isfamily":0},{"id":"52781845335","owner":"11299883@N08","secret":"56675c17f0","server":"65535","farm":66,"title":"Cygnus olor","ispublic":1,"isfriend":0,"isfamily":0},{"id":"52780894107","owner":"11299883@N08","secret":"22e2983faf","server":"65535","farm":66,"title":"Cygnus olor","ispublic":1,"isfriend":0,"isfamily":0},{"id":"52781434336","owner":"11299883@N08","secret":"2d1064ed31","server":"65535","farm":66,"title":"Cygnus olor","ispublic":1,"isfriend":0,"isfamily":0},{"id":"52779848381","owner":"12639178@N07","secret":"6db684df76","server":"65535","farm":66,"title":"H\u00f6ckerschwan (Cygnus olor)","ispublic":1,"isfriend":0,"isfamily":0},{"id":"52780321018","owner":"12639178@N07","secret":"fbd22f6e29","server":"65535","farm":66,"title":"H\u00f6ckerschwan (Cygnus olor)","ispublic":1,"isfriend":0,"isfamily":0},{"id":"52779314882","owner":"12639178@N07","secret":"942bfaf7ee","server":"65535","farm":66,"title":"Erstmal ausruhen H\u00f6ckerschwan (Cygnus olor)","ispublic":1,"isfriend":0,"isfamily":0},{"id":"52780164198","owner":"12639178@N07","secret":"184b313484","server":"65535","farm":66,"title":"Was guckst du so?, dachte sich der H\u00f6ckerschwan...","ispublic":1,"isfriend":0,"isfamily":0},{"id":"52778658161","owner":"33319209@N02","secret":"9dbbf01409","server":"65535","farm":66,"title":"Cygnus olor","ispublic":1,"isfriend":0,"isfamily":0},{"id":"52778991123","owner":"184900089@N02","secret":"29c99368db","server":"65535","farm":66,"title":"H\u00f6ckerschwan (Cygnus olor)","ispublic":1,"isfriend":0,"isfamily":0},{"id":"52776333236","owner":"26371261@N00","secret":"3d0bf41533","server":"65535","farm":66,"title":"Mute Swan, Cygnus olor","ispublic":1,"isfriend":0,"isfamily":0},{"id":"52775996956","owner":"98675522@N06","secret":"248386d9da","server":"65535","farm":66,"title":"Timing...","ispublic":1,"isfriend":0,"isfamily":0},{"id":"52775024042","owner":"194856514@N05","secret":"aa7d2f681c","server":"65535","farm":66,"title":"CISNE VULGAR (Cygnus olor).-","ispublic":1,"isfriend":0,"isfamily":0},{"id":"52774861954","owner":"12639178@N07","secret":"2b346c8789","server":"65535","farm":66,"title":"H\u00f6ckerschwan br\u00fctet","ispublic":1,"isfriend":0,"isfamily":0},{"id":"52774600791","owner":"12639178@N07","secret":"4a751ab048","server":"65535","farm":66,"title":"H\u00f6ckerschwan br\u00fctet","ispublic":1,"isfriend":0,"isfamily":0},{"id":"52774525559","owner":"26371261@N00","secret":"d73761e9a7","server":"65535","farm":66,"title":"Mute Swan, Cygnus olor","ispublic":1,"isfriend":0,"isfamily":0},{"id":"52773839616","owner":"26371261@N00","secret":"a8ca994cea","server":"65535","farm":66,"title":"Mute Swan, Cygnus olor","ispublic":1,"isfriend":0,"isfamily":0},{"id":"52773173701","owner":"146455226@N02","secret":"3a992fac2e","server":"65535","farm":66,"title":"Mute Swan #3","ispublic":1,"isfriend":0,"isfamily":0},{"id":"52773463315","owner":"65943626@N04","secret":"0723fa10b7","server":"65535","farm":66,"title":"Mute Swan  Cygnus olor","ispublic":1,"isfriend":0,"isfamily":0},{"id":"52773303409","owner":"65943626@N04","secret":"b0ff86b48e","server":"65535","farm":66,"title":"Mute Swan Cygnus olor","ispublic":1,"isfriend":0,"isfamily":0},{"id":"52773303344","owner":"65943626@N04","secret":"e1f274a6a5","server":"65535","farm":66,"title":"Mute Swan Cygnus olor","ispublic":1,"isfriend":0,"isfamily":0},{"id":"52772515702","owner":"65943626@N04","secret":"19cdccebb9","server":"65535","farm":66,"title":"Mute Swan Cygnus olor","ispublic":1,"isfriend":0,"isfamily":0},{"id":"52772950825","owner":"78381216@N00","secret":"6ec3ddea23","server":"65535","farm":66,"title":"Mute swan","ispublic":1,"isfriend":0,"isfamily":0},{"id":"52772737604","owner":"16498755@N07","secret":"ff9c1b0958","server":"65535","farm":66,"title":"Mute Swan, Monmouthshire-Brecon Canal, Star Street, Old Cwmbran 26 March 2023","ispublic":1,"isfriend":0,"isfamily":0},{"id":"52772731159","owner":"16498755@N07","secret":"8f5652cb8d","server":"65535","farm":66,"title":"Mute Swan Egg, Monmouthshire-Brecon Canal, Star Street, Old Cwmbran 26 March 2023","ispublic":1,"isfriend":0,"isfamily":0},{"id":"52772713179","owner":"16498755@N07","secret":"f695e1b353","server":"65535","farm":66,"title":"Mute Swan & Nest, Monmouthshire-Brecon Canal, Star Street, Old Cwmbran 26 March 2023","ispublic":1,"isfriend":0,"isfamily":0},{"id":"52772772245","owner":"52618557@N08","secret":"4fd7a74087","server":"65535","farm":66,"title":"Mute Swan (Cygnus olor) subadult","ispublic":1,"isfriend":0,"isfamily":0},{"id":"52772614739","owner":"52618557@N08","secret":"1ccc65f21e","server":"65535","farm":66,"title":"Mute Swan (Cygnus olor)","ispublic":1,"isfriend":0,"isfamily":0},{"id":"52771381062","owner":"76617062@N08","secret":"4c26e7c058","server":"65535","farm":66,"title":"1.00279 Cygne tubercul\u00e9 \/ Cygnus olor \/ Mute Swan","ispublic":1,"isfriend":0,"isfamily":0},{"id":"52771927614","owner":"33319209@N02","secret":"9c0451f2a8","server":"65535","farm":66,"title":"Cygnus olor","ispublic":1,"isfriend":0,"isfamily":0},{"id":"52771720638","owner":"12639178@N07","secret":"8d97da71cc","server":"65535","farm":66,"title":"H\u00f6ckerschwan","ispublic":1,"isfriend":0,"isfamily":0},{"id":"52771495135","owner":"53280041@N04","secret":"f1b03b2cbf","server":"65535","farm":66,"title":"Mute swan","ispublic":1,"isfriend":0,"isfamily":0},{"id":"52770546852","owner":"53280041@N04","secret":"81a1a3aa98","server":"65535","farm":66,"title":"Mute swan","ispublic":1,"isfriend":0,"isfamily":0},{"id":"52770497276","owner":"145489125@N03","secret":"1f7e2eeb58","server":"65535","farm":66,"title":"Mute Swan ( Cygnus olor ) ... Alkborough , Linc","ispublic":1,"isfriend":0,"isfamily":0},{"id":"52769939402","owner":"145489125@N03","secret":"8783a88ab6","server":"65535","farm":66,"title":"Mute Swan ( Cygnus olor ) ... Alkborough , Linc","ispublic":1,"isfriend":0,"isfamily":0},{"id":"52770530523","owner":"63745329@N04","secret":"db5cecc4ce","server":"65535","farm":66,"title":"True Love","ispublic":1,"isfriend":0,"isfamily":0},{"id":"52770386755","owner":"151806884@N04","secret":"a156f5813c","server":"65535","farm":66,"title":"Knobbelzwaan - Cygnus olor","ispublic":1,"isfriend":0,"isfamily":0},{"id":"52769736951","owner":"189697862@N03","secret":"07c81a1585","server":"65535","farm":66,"title":"Cygne tubercul\u00e9 Cygnus olor - Mute Swan","ispublic":1,"isfriend":0,"isfamily":0},{"id":"52781419845","owner":"12639178@N07","secret":"9755e3e20a","server":"65535","farm":66,"title":"noch ein Bekannter","ispublic":1,"isfriend":0,"isfamily":0},{"id":"52775083853","owner":"12639178@N07","secret":"f446095aca","server":"65535","farm":66,"title":"H\u00f6ckerschwan br\u00fctet","ispublic":1,"isfriend":0,"isfamily":0}]},"stat":"ok"}