{"photos":{"page":1,"pages":11,"perpage":100,"total":1096,"photo":[{"id":"52787957026","owner":"79722430@N04","secret":"3a29c00ea3","server":"65535","farm":66,"title":"Narcissus flycatcher (Ficedula narcissina)","ispublic":1,"isfriend":0,"isfamily":0},{"id":"52788355415","owner":"79722430@N04","secret":"c969977958","server":"65535","farm":66,"title":"Narcissus flycatcher (Ficedula narcissina)","ispublic":1,"isfriend":0,"isfamily":0},{"id":"52788400813","owner":"79722430@N04","secret":"d5fd572487","server":"65535","farm":66,"title":"Narcissus flycatcher (Ficedula narcissina)","ispublic":1,"isfriend":0,"isfamily":0},{"id":"52788181984","owner":"79722430@N04","secret":"c1b39c69f4","server":"65535","farm":66,"title":"Narcissus flycatcher (Ficedula narcissina)","ispublic":1,"isfriend":0,"isfamily":0},{"id":"52788400728","owner":"79722430@N04","secret":"b089779521","server":"65535","farm":66,"title":"Narcissus flycatcher (Ficedula narcissina)","ispublic":1,"isfriend":0,"isfamily":0},{"id":"52787949491","owner":"79722430@N04","secret":"012e54cb1a","server":"65535","farm":66,"title":"Narcissus flycatcher (Ficedula narcissina)","ispublic":1,"isfriend":0,"isfamily":0},{"id":"52787949436","owner":"79722430@N04","secret":"4d9fbb935b","server":"65535","farm":66,"title":"Narcissus flycatcher (Ficedula narcissina)","ispublic":1,"isfriend":0,"isfamily":0},{"id":"52787915651","owner":"79722430@N04","secret":"067b2c3f89","server":"65535","farm":66,"title":"Narcissus flycatcher (Ficedula narcissina)","ispublic":1,"isfriend":0,"isfamily":0},{"id":"52788314615","owner":"79722430@N04","secret":"899925fdb7","server":"65535","farm":66,"title":"Narcissus flycatcher (Ficedula narcissina)","ispublic":1,"isfriend":0,"isfamily":0},{"id":"52788314590","owner":"79722430@N04","secret":"61c4a803c7","server":"65535","farm":66,"title":"Narcissus flycatcher (Ficedula narcissina)","ispublic":1,"isfriend":0,"isfamily":0},{"id":"52787915566","owner":"79722430@N04","secret":"d6dc46938e","server":"65535","farm":66,"title":"Narcissus flycatcher (Ficedula narcissina)","ispublic":1,"isfriend":0,"isfamily":0},{"id":"52788148144","owner":"79722430@N04","secret":"d070d1fafc","server":"65535","farm":66,"title":"Narcissus flycatcher (Ficedula narcissina)","ispublic":1,"isfriend":0,"isfamily":0},{"id":"52788314545","owner":"79722430@N04","secret":"68933a2ab2","server":"65535","farm":66,"title":"Narcissus flycatcher (Ficedula narcissina)","ispublic":1,"isfriend":0,"isfamily":0},{"id":"52782072355","owner":"56891930@N05","secret":"af88825c59","server":"65535","farm":66,"title":"Male Narcissus Flycatcher (Ficedula narcissina) \u9ec4\u7709\u59ec\u9e5f (\u96c4) - Bukit Kiara \u6b66\u5409\u5bb6\u4e50, Kuala Lumpur \u5409\u9686\u5761, Malaysia \u9a6c\u6765\u897f\u4e9a (4K)","ispublic":1,"isfriend":0,"isfamily":0},{"id":"52779875938","owner":"56891930@N05","secret":"1e7ef9fc30","server":"65535","farm":66,"title":"Male Narcissus Flycatcher (Ficedula narcissina) \u9ec4\u7709\u59ec\u9e5f (\u96c4) - Bukit Kiara \u6b66\u5409\u5bb6\u4e50, Kuala Lumpur \u5409\u9686\u5761, Malaysia \u9a6c\u6765\u897f\u4e9a (4K)","ispublic":1,"isfriend":0,"isfamily":0},{"id":"52779864938","owner":"96579902@N04","secret":"684fe94760","server":"65535","farm":66,"title":"Male Narcissus Flycatcher (Ficedula narcissina) \u9ec4\u7709\u59ec\u9e5f (\u96c4)","ispublic":1,"isfriend":0,"isfamily":0},{"id":"52778167711","owner":"32136583@N04","secret":"c9263b2ce2","server":"65535","farm":66,"title":"Narcissus Flycatcher","ispublic":1,"isfriend":0,"isfamily":0},{"id":"52777615325","owner":"56891930@N05","secret":"fa22c129c8","server":"65535","farm":66,"title":"Male Narcissus Flycatcher (Ficedula narcissina) \u9ec4\u7709\u59ec\u9e5f (\u96c4) - Bukit Kiara \u6b66\u5409\u5bb6\u4e50, Kuala Lumpur \u5409\u9686\u5761, Malaysia \u9a6c\u6765\u897f\u4e9a (4K)","ispublic":1,"isfriend":0,"isfamily":0},{"id":"52776673242","owner":"96579902@N04","secret":"64ede04000","server":"65535","farm":66,"title":"Male Narcissus Flycatcher (Ficedula narcissina) \u9ec4\u7709\u59ec\u9e5f (\u96c4)","ispublic":1,"isfriend":0,"isfamily":0},{"id":"52777498573","owner":"39066307@N03","secret":"35e7c6e827","server":"65535","farm":66,"title":"Narcissus Flycatcher","ispublic":1,"isfriend":0,"isfamily":0},{"id":"52776136016","owner":"79722430@N04","secret":"07a66e80b6","server":"65535","farm":66,"title":"Narcissus flycatcher (Ficedula narcissina)","ispublic":1,"isfriend":0,"isfamily":0},{"id":"52776135981","owner":"79722430@N04","secret":"27a373825f","server":"65535","farm":66,"title":"Narcissus flycatcher (Ficedula narcissina)","ispublic":1,"isfriend":0,"isfamily":0},{"id":"52776394389","owner":"79722430@N04","secret":"1a11e8d7e0","server":"65535","farm":66,"title":"Narcissus flycatcher (Ficedula narcissina)","ispublic":1,"isfriend":0,"isfamily":0},{"id":"52776394379","owner":"79722430@N04","secret":"fccd107a13","server":"65535","farm":66,"title":"Narcissus flycatcher (Ficedula narcissina)","ispublic":1,"isfriend":0,"isfamily":0},{"id":"52776394364","owner":"79722430@N04","secret":"25d1b74482","server":"65535","farm":66,"title":"Narcissus flycatcher (Ficedula narcissina)","ispublic":1,"isfriend":0,"isfamily":0},{"id":"52776135926","owner":"79722430@N04","secret":"5b90cae181","server":"65535","farm":66,"title":"Narcissus flycatcher (Ficedula narcissina)","ispublic":1,"isfriend":0,"isfamily":0},{"id":"52775296255","owner":"56891930@N05","secret":"a9f1c51848","server":"65535","farm":66,"title":"Male Narcissus Flycatcher (Ficedula narcissina) \u9ec4\u7709\u59ec\u9e5f (\u96c4) - Bukit Kiara \u6b66\u5409\u5bb6\u4e50, Kuala Lumpur \u5409\u9686\u5761, Malaysia \u9a6c\u6765\u897f\u4e9a (5K)","ispublic":1,"isfriend":0,"isfamily":0},{"id":"52775103454","owner":"96579902@N04","secret":"3a5d37ec50","server":"65535","farm":66,"title":"Male Narcissus Flycatcher (Ficedula narcissina) \u9ec4\u7709\u59ec\u9e5f (\u96c4)","ispublic":1,"isfriend":0,"isfamily":0},{"id":"52774515221","owner":"39066307@N03","secret":"250fdd09a3","server":"65535","farm":66,"title":"Narcissus Flycatcher","ispublic":1,"isfriend":0,"isfamily":0},{"id":"52774999628","owner":"39066307@N03","secret":"f0cc1617d7","server":"65535","farm":66,"title":"Narcissus Flycatcher","ispublic":1,"isfriend":0,"isfamily":0},{"id":"52774776649","owner":"39066307@N03","secret":"dfffdae492","server":"65535","farm":66,"title":"Narcissus Flycatcher","ispublic":1,"isfriend":0,"isfamily":0},{"id":"52774932635","owner":"39066307@N03","secret":"d6fa7c37e5","server":"65535","farm":66,"title":"Narcissus Flycatcher","ispublic":1,"isfriend":0,"isfamily":0},{"id":"52759262311","owner":"61485851@N06","secret":"6783faba71","server":"65535","farm":66,"title":"Narcissus flycatcher","ispublic":1,"isfriend":0,"isfamily":0},{"id":"52759736118","owner":"61485851@N06","secret":"f92b557b76","server":"65535","farm":66,"title":"Narcissus flycatcher","ispublic":1,"isfriend":0,"isfamily":0},{"id":"52759723278","owner":"61485851@N06","secret":"d6b89b631d","server":"65535","farm":66,"title":"Narcissus flycatcher","ispublic":1,"isfriend":0,"isfamily":0},{"id":"52759627985","owner":"61485851@N06","secret":"1b120e4f81","server":"65535","farm":66,"title":"Narcissus flycatcher","ispublic":1,"isfriend":0,"isfamily":0},{"id":"52759602510","owner":"61485851@N06","secret":"26cb7ea8db","server":"65535","farm":66,"title":"Narcissus flycatcher (Lifer #492)","ispublic":1,"isfriend":0,"isfamily":0},{"id":"52473754141","owner":"79438259@N03","secret":"ebf4b78f30","server":"65535","farm":66,"title":"\u9ec3\u7709\u9ec3\u9db2- Ficedula narcissina","ispublic":1,"isfriend":0,"isfamily":0},{"id":"52473254817","owner":"79438259@N03","secret":"1e600eb578","server":"65535","farm":66,"title":"\u9ec3\u7709\u9ec3\u9db2- Ficedula narcissina","ispublic":1,"isfriend":0,"isfamily":0},{"id":"52473754066","owner":"79438259@N03","secret":"c6a1847395","server":"65535","farm":66,"title":"\u9ec3\u7709\u9ec3\u9db2- Ficedula narcissina","ispublic":1,"isfriend":0,"isfamily":0},{"id":"52473254732","owner":"79438259@N03","secret":"9c0b32a27f","server":"65535","farm":66,"title":"\u9ec3\u7709\u9ec3\u9db2- Ficedula narcissina","ispublic":1,"isfriend":0,"isfamily":0},{"id":"52474297688","owner":"79438259@N03","secret":"6f8f8e15b1","server":"65535","farm":66,"title":"\u9ec3\u7709\u9ec3\u9db2- Ficedula narcissina","ispublic":1,"isfriend":0,"isfamily":0},{"id":"52473254597","owner":"79438259@N03","secret":"3f6e1d972a","server":"65535","farm":66,"title":"\u9ec3\u7709\u9ec3\u9db2- Ficedula narcissina","ispublic":1,"isfriend":0,"isfamily":0},{"id":"52473254562","owner":"79438259@N03","secret":"1d55f08d9b","server":"65535","farm":66,"title":"\u9ec3\u7709\u9ec3\u9db2- Ficedula narcissina","ispublic":1,"isfriend":0,"isfamily":0},{"id":"52474215795","owner":"79438259@N03","secret":"2ecbbba35a","server":"65535","farm":66,"title":"\u9ec3\u7709\u9ec3\u9db2- Ficedula narcissina","ispublic":1,"isfriend":0,"isfamily":0},{"id":"52474034319","owner":"79438259@N03","secret":"d234045ea8","server":"65535","farm":66,"title":"\u9ec3\u7709\u9ec3\u9db2- Ficedula narcissina","ispublic":1,"isfriend":0,"isfamily":0},{"id":"52474034249","owner":"79438259@N03","secret":"70183ecb1d","server":"65535","farm":66,"title":"\u9ec3\u7709\u9ec3\u9db2- Ficedula narcissina","ispublic":1,"isfriend":0,"isfamily":0},{"id":"52473254397","owner":"79438259@N03","secret":"0a948a765e","server":"65535","farm":66,"title":"\u9ec3\u7709\u9ec3\u9db2- Ficedula narcissina","ispublic":1,"isfriend":0,"isfamily":0},{"id":"52415435071","owner":"195164158@N04","secret":"61aa97edfe","server":"65535","farm":66,"title":"DSC_7165 \u62f7\u8c9d","ispublic":1,"isfriend":0,"isfamily":0},{"id":"52154876768","owner":"194762749@N08","secret":"9d9dba7f2b","server":"65535","farm":66,"title":"Narcissus Flycatcher(Female)","ispublic":1,"isfriend":0,"isfamily":0},{"id":"52029581085","owner":"127542576@N05","secret":"d4881042dc","server":"65535","farm":66,"title":"\u9ec3\u7709\u9ec3\u9db2\u3014\u9ec3\u7709\u59ec\u9db2\u3015 (Ficedula narcissina#Narcissus Flycatcher)","ispublic":1,"isfriend":0,"isfamily":0},{"id":"52029105663","owner":"127542576@N05","secret":"85a887e87f","server":"65535","farm":66,"title":"\u9ec3\u7709\u9ec3\u9db2\u3014\u9ec3\u7709\u59ec\u9db2\u3015 (Ficedula narcissina#Narcissus Flycatcher)","ispublic":1,"isfriend":0,"isfamily":0},{"id":"52029319034","owner":"127542576@N05","secret":"e1185f2889","server":"65535","farm":66,"title":"\u9ec3\u7709\u9ec3\u9db2\u3014\u9ec3\u7709\u59ec\u9db2\u3015 (Ficedula narcissina#Narcissus Flycatcher)","ispublic":1,"isfriend":0,"isfamily":0},{"id":"52028021852","owner":"127542576@N05","secret":"6b24fc5a15","server":"65535","farm":66,"title":"\u9ec3\u7709\u9ec3\u9db2\u3014\u9ec3\u7709\u59ec\u9db2\u3015 (Ficedula narcissina#Narcissus Flycatcher)","ispublic":1,"isfriend":0,"isfamily":0},{"id":"51903044098","owner":"26822473@N06","secret":"c5336930f0","server":"65535","farm":66,"title":"Female Narcissus Flycatcher (Ficedula narcissina)","ispublic":1,"isfriend":0,"isfamily":0},{"id":"51894331256","owner":"26822473@N06","secret":"42620c1edb","server":"65535","farm":66,"title":"\"Narcissus Flycatcher\" \"Ficedula narcissina\"","ispublic":1,"isfriend":0,"isfamily":0},{"id":"51874275847","owner":"127247666@N05","secret":"f01aea1a21","server":"65535","farm":66,"title":"Peach, narcissus flycatcher and dusky thrush","ispublic":1,"isfriend":0,"isfamily":0},{"id":"51823872910","owner":"56512052@N04","secret":"d066011d90","server":"65535","farm":66,"title":"\u9ec4\u7709\u9ec4\u9db2 \u96c4\u9ce5 \u5b78\u540d Ficedula narcissina","ispublic":1,"isfriend":0,"isfamily":0},{"id":"51283980849","owner":"45919374@N08","secret":"e7476ef88f","server":"65535","farm":66,"title":"Narcissus flycatcher","ispublic":1,"isfriend":0,"isfamily":0},{"id":"51257923395","owner":"127247666@N05","secret":"7353f7397e","server":"65535","farm":66,"title":"Chinese trumpet-creeper and narcissus flycatcher","ispublic":1,"isfriend":0,"isfamily":0},{"id":"51246381044","owner":"52543079@N06","secret":"00b6c3bf18","server":"65535","farm":66,"title":"Narcissus Flycatcher \u9ec3\u7709\u9ec3\u9db2","ispublic":1,"isfriend":0,"isfamily":0},{"id":"51246674780","owner":"52543079@N06","secret":"eda579f399","server":"65535","farm":66,"title":"Narcissus Flycatcher \u9ec3\u7709\u9ec3\u9db2","ispublic":1,"isfriend":0,"isfamily":0},{"id":"51141222286","owner":"127542576@N05","secret":"fcf9baf293","server":"65535","farm":66,"title":"\u9ec3\u7709\u9ec3\u9db2\u3014\u9ec3\u7709\u59ec\u9db2\u3015 (Ficedula narcissina#Narcissus Flycatcher)","ispublic":1,"isfriend":0,"isfamily":0},{"id":"51141222281","owner":"127542576@N05","secret":"28a03cfa6e","server":"65535","farm":66,"title":"\u9ec3\u7709\u9ec3\u9db2\u3014\u9ec3\u7709\u59ec\u9db2\u3015 (Ficedula narcissina#Narcissus Flycatcher)","ispublic":1,"isfriend":0,"isfamily":0},{"id":"51045307923","owner":"61021753@N02","secret":"b61490503f","server":"65535","farm":66,"title":"n5_w1150","ispublic":1,"isfriend":0,"isfamily":0},{"id":"50981199073","owner":"26822473@N06","secret":"1e14eec5b2","server":"65535","farm":66,"title":"a male Narcissus Flycatcher (Ficedula narcissina)","ispublic":1,"isfriend":0,"isfamily":0},{"id":"50981198908","owner":"26822473@N06","secret":"33cd4c6b45","server":"65535","farm":66,"title":"a female Narcissus Flycatcher (Ficedula narcissina)","ispublic":1,"isfriend":0,"isfamily":0},{"id":"50690073077","owner":"64074416@N06","secret":"044364cd4f","server":"65535","farm":66,"title":"Male Narcissus Flycatcher (Ficedula narcissina \u9ec4\u7709\u59ec\u9e5f)","ispublic":1,"isfriend":0,"isfamily":0},{"id":"50673907218","owner":"28786551@N04","secret":"14e2ac3de1","server":"65535","farm":66,"title":"Narcissus Flycatcher","ispublic":1,"isfriend":0,"isfamily":0},{"id":"50655639132","owner":"26812240@N08","secret":"92cb073ab1","server":"65535","farm":66,"title":"NARCISSUS FLYCATCHER_SRA1465_DxO copy","ispublic":1,"isfriend":0,"isfamily":0},{"id":"50603009153","owner":"28786551@N04","secret":"5287b6ea4d","server":"65535","farm":66,"title":"Narcisscis Flycatcher","ispublic":1,"isfriend":0,"isfamily":0},{"id":"49972662288","owner":"29117617@N02","secret":"851a875c88","server":"65535","farm":66,"title":"_DSC2663_LR_LOGO","ispublic":1,"isfriend":0,"isfamily":0},{"id":"49973439642","owner":"29117617@N02","secret":"62fbd1f49f","server":"65535","farm":66,"title":"_DSC2667_LR_LOGO","ispublic":1,"isfriend":0,"isfamily":0},{"id":"49966405127","owner":"29117617@N02","secret":"afabb37a3c","server":"65535","farm":66,"title":"_DSC2642_LR_LOGO","ispublic":1,"isfriend":0,"isfamily":0},{"id":"49962423603","owner":"29117617@N02","secret":"83ef9c3be6","server":"65535","farm":66,"title":"_DSC2560_LR_LOGO","ispublic":1,"isfriend":0,"isfamily":0},{"id":"49963208787","owner":"29117617@N02","secret":"6cddba2214","server":"65535","farm":66,"title":"_DSC2586_LR_LOGO","ispublic":1,"isfriend":0,"isfamily":0},{"id":"49959311053","owner":"29117617@N02","secret":"cc5b263397","server":"65535","farm":66,"title":"_DSC2552_LR_LOGO","ispublic":1,"isfriend":0,"isfamily":0},{"id":"49959806051","owner":"29117617@N02","secret":"0903b9d703","server":"65535","farm":66,"title":"_DSC2556_LR_LOGO","ispublic":1,"isfriend":0,"isfamily":0},{"id":"52415144159","owner":"127247666@N05","secret":"ef6075391e","server":"65535","farm":66,"title":"Giant dogwood and narcissus flycatcher","ispublic":1,"isfriend":0,"isfamily":0},{"id":"52263117940","owner":"127247666@N05","secret":"24bb70f675","server":"65535","farm":66,"title":"Narcissus flycatcher","ispublic":1,"isfriend":0,"isfamily":0},{"id":"51885861980","owner":"127247666@N05","secret":"d7430c2ff9","server":"65535","farm":66,"title":"Camellia, Java sparrow and narcissus flycatcher","ispublic":1,"isfriend":0,"isfamily":0},{"id":"51771940904","owner":"194512123@N02","secret":"152f4dddeb","server":"65535","farm":66,"title":"Narcissus Flycatcher (Ficedula narcissina)","ispublic":1,"isfriend":0,"isfamily":0},{"id":"51245820148","owner":"52543079@N06","secret":"0a47b25111","server":"65535","farm":66,"title":"Narcissus Flycatcher \u9ec3\u7709\u9ec3\u9db2","ispublic":1,"isfriend":0,"isfamily":0},{"id":"51245819993","owner":"52543079@N06","secret":"da6eb65f74","server":"65535","farm":66,"title":"Narcissus Flycatcher \u9ec3\u7709\u9ec3\u9db2","ispublic":1,"isfriend":0,"isfamily":0},{"id":"51141431938","owner":"127542576@N05","secret":"580451aecf","server":"65535","farm":66,"title":"\u9ec3\u7709\u9ec3\u9db2\u3014\u9ec3\u7709\u59ec\u9db2\u3015 (Ficedula narcissina#Narcissus Flycatcher)","ispublic":1,"isfriend":0,"isfamily":0},{"id":"51141222216","owner":"127542576@N05","secret":"15be99d7ee","server":"65535","farm":66,"title":"\u9ec3\u7709\u9ec3\u9db2\u3014\u9ec3\u7709\u59ec\u9db2\u3015 (Ficedula narcissina#Narcissus Flycatcher)","ispublic":1,"isfriend":0,"isfamily":0},{"id":"51132794052","owner":"75814310@N04","secret":"6dcb4f9092","server":"65535","farm":66,"title":"1O4A8566","ispublic":1,"isfriend":0,"isfamily":0},{"id":"51129051143","owner":"16863429@N00","secret":"d3a6978a81","server":"65535","farm":66,"title":"Narcissus Flycatcher (\u9ec3\u7709\u9ec3\u9db2) Ficedula narcissina","ispublic":1,"isfriend":0,"isfamily":0},{"id":"50952341778","owner":"130593724@N06","secret":"c7c219e592","server":"65535","farm":66,"title":"_MG_5916","ispublic":1,"isfriend":0,"isfamily":0},{"id":"50952341758","owner":"130593724@N06","secret":"9f02f24eff","server":"65535","farm":66,"title":"_MG_6151","ispublic":1,"isfriend":0,"isfamily":0},{"id":"50953042681","owner":"130593724@N06","secret":"bdb5de66c8","server":"65535","farm":66,"title":"_MG_6282","ispublic":1,"isfriend":0,"isfamily":0},{"id":"50953042686","owner":"130593724@N06","secret":"48891ef078","server":"65535","farm":66,"title":"_MG_5935","ispublic":1,"isfriend":0,"isfamily":0},{"id":"50953143937","owner":"130593724@N06","secret":"6abcf43278","server":"65535","farm":66,"title":"_MG_6394","ispublic":1,"isfriend":0,"isfamily":0},{"id":"50835000872","owner":"127247666@N05","secret":"daba418c8f","server":"65535","farm":66,"title":"Bigleaf hydrangea and narcissus flycatcher","ispublic":1,"isfriend":0,"isfamily":0},{"id":"50688981991","owner":"64074416@N06","secret":"cd252b3395","server":"65535","farm":66,"title":"Male Narcissus Flycatcher (Ficedula narcissina \u9ec4\u7709\u59ec\u9e5f)","ispublic":1,"isfriend":0,"isfamily":0},{"id":"50670311003","owner":"64074416@N06","secret":"07a214db4f","server":"65535","farm":66,"title":"Male Narcissus Flycatcher (Ficedula narcissina \u9ec4\u7709\u59ec\u9e5f)","ispublic":1,"isfriend":0,"isfamily":0},{"id":"50671132342","owner":"64074416@N06","secret":"9b47b713a0","server":"65535","farm":66,"title":"Male Narcissus Flycatcher (Ficedula narcissina \u9ec4\u7709\u59ec\u9e5f)","ispublic":1,"isfriend":0,"isfamily":0},{"id":"50629113646","owner":"64074416@N06","secret":"db68132bb7","server":"65535","farm":66,"title":"Female Narcissus Flycatcher (Ficedula narcissina \u9ec4\u7709\u59ec\u9e5f)","ispublic":1,"isfriend":0,"isfamily":0},{"id":"50553863897","owner":"151954992@N07","secret":"c228aa6c41","server":"65535","farm":66,"title":"Ficedula narcissina","ispublic":1,"isfriend":0,"isfamily":0},{"id":"50012323836","owner":"127247666@N05","secret":"ac9f274343","server":"65535","farm":66,"title":"Red-flanked bluetail and narcissus flycatcher","ispublic":1,"isfriend":0,"isfamily":0}]},"stat":"ok"}