{"photos":{"page":1,"pages":4,"perpage":100,"total":374,"photo":[{"id":"52785139668","owner":"31694846@N02","secret":"709f0be05b","server":"65535","farm":66,"title":"Chicui, Todus angustirostris, Narrow Billed Tody","ispublic":1,"isfriend":0,"isfamily":0},{"id":"52784134342","owner":"31694846@N02","secret":"c2380281ba","server":"65535","farm":66,"title":"Chicui, Todus angustirostris, Narrow Billed Tody","ispublic":1,"isfriend":0,"isfamily":0},{"id":"52784134237","owner":"31694846@N02","secret":"4071a863d4","server":"65535","farm":66,"title":"Chicui, Todus angustirostris, Narrow Billed Tody","ispublic":1,"isfriend":0,"isfamily":0},{"id":"52785139453","owner":"31694846@N02","secret":"ca4fe6363b","server":"65535","farm":66,"title":"Chicui, Todus angustirostris, Narrow Billed Tody","ispublic":1,"isfriend":0,"isfamily":0},{"id":"52785139388","owner":"31694846@N02","secret":"0c4c2d6447","server":"65535","farm":66,"title":"Chicui, Todus angustirostris, Narrow Billed Tody","ispublic":1,"isfriend":0,"isfamily":0},{"id":"52785081175","owner":"31694846@N02","secret":"7290b9844c","server":"65535","farm":66,"title":"Chicui, Todus angustirostris, Narrow Billed Tody","ispublic":1,"isfriend":0,"isfamily":0},{"id":"52772982255","owner":"54546220@N00","secret":"317e6a90cb","server":"65535","farm":66,"title":"Chi-cu\u00ed, Narrow-billed Tody, (Todus angustirostris)","ispublic":1,"isfriend":0,"isfamily":0},{"id":"52772037162","owner":"54546220@N00","secret":"196f1af589","server":"65535","farm":66,"title":"Chi-cu\u00ed, Narrow-billed Tody, (Todus angustirostris)","ispublic":1,"isfriend":0,"isfamily":0},{"id":"52773051858","owner":"54546220@N00","secret":"2af804a861","server":"65535","farm":66,"title":"Chi-cu\u00ed, Narrow-billed Tody, (Todus angustirostris)","ispublic":1,"isfriend":0,"isfamily":0},{"id":"52772568231","owner":"54546220@N00","secret":"91f1dc2c65","server":"65535","farm":66,"title":"Chi-cu\u00ed, Narrow-billed Tody, (Todus angustirostris)","ispublic":1,"isfriend":0,"isfamily":0},{"id":"52772036792","owner":"54546220@N00","secret":"0d7b6dafd7","server":"65535","farm":66,"title":"Chi-cu\u00ed, Narrow-billed Tody, (Todus angustirostris)","ispublic":1,"isfriend":0,"isfamily":0},{"id":"52772036647","owner":"54546220@N00","secret":"08511940f9","server":"65535","farm":66,"title":"Chi-cu\u00ed, Narrow-billed Tody, (Todus angustirostris)","ispublic":1,"isfriend":0,"isfamily":0},{"id":"52662214179","owner":"31694846@N02","secret":"102d352897","server":"65535","farm":66,"title":"Chicui, Todus angustirostris, Narrow Billed Tody","ispublic":1,"isfriend":0,"isfamily":0},{"id":"52662214134","owner":"31694846@N02","secret":"0f48241e30","server":"65535","farm":66,"title":"Chicui, Todus angustirostris, Narrow Billed Tody","ispublic":1,"isfriend":0,"isfamily":0},{"id":"52662419753","owner":"31694846@N02","secret":"fff31678f7","server":"65535","farm":66,"title":"Chicui, Todus angustirostris, Narrow Billed Tody","ispublic":1,"isfriend":0,"isfamily":0},{"id":"52662370895","owner":"31694846@N02","secret":"249723c4ac","server":"65535","farm":66,"title":"Chicui, Todus angustirostris, Narrow Billed Tody","ispublic":1,"isfriend":0,"isfamily":0},{"id":"52643817708","owner":"31694846@N02","secret":"57b1710ee4","server":"65535","farm":66,"title":"Chicui, Todus angustirostris, Narrow Billed Tody","ispublic":1,"isfriend":0,"isfamily":0},{"id":"52623764573","owner":"78250819@N07","secret":"73416fed75","server":"65535","farm":66,"title":"Chi Cu\u00ed- Todus angustirostris- Narrow-billed Tody","ispublic":1,"isfriend":0,"isfamily":0},{"id":"52097272176","owner":"66602402@N04","secret":"160a917caf","server":"65535","farm":66,"title":"Chicu\u00ed, Narrow Billed Tody (Todus angustirostris)","ispublic":1,"isfriend":0,"isfamily":0},{"id":"52097509904","owner":"66602402@N04","secret":"492f8f1a9f","server":"65535","farm":66,"title":"Chicu\u00ed, Narrow Billed Tody (Todus angustirostris)","ispublic":1,"isfriend":0,"isfamily":0},{"id":"51715743122","owner":"79153825@N08","secret":"80ac130998","server":"65535","farm":66,"title":"Aves end\u00e9micas de Rep\u00fablica Dominicana: Chi-cui.(Todus angustirostris.) Narrow billed tody.","ispublic":1,"isfriend":0,"isfamily":0},{"id":"51700488500","owner":"78205930@N08","secret":"156432ed61","server":"65535","farm":66,"title":"Barrancol\u00ed picofino (Todus angustirostris), Narrow-billed Tody.","ispublic":1,"isfriend":0,"isfamily":0},{"id":"51640402497","owner":"54546220@N00","secret":"866cf35fdd","server":"65535","farm":66,"title":"Chi-cu\u00ed, Narrow-billed Tody, (Todus angustirostris)","ispublic":1,"isfriend":0,"isfamily":0},{"id":"51563710576","owner":"79153825@N08","secret":"3e5f5342d1","server":"65535","farm":66,"title":"Chi-cui.(Todus angustirostris.) Narrow-billed tody","ispublic":1,"isfriend":0,"isfamily":0},{"id":"51564401624","owner":"79153825@N08","secret":"a834011a01","server":"65535","farm":66,"title":"Chi-cui.(Todus angustirostris.) Narrow-billed tody","ispublic":1,"isfriend":0,"isfamily":0},{"id":"51562919407","owner":"79153825@N08","secret":"2a59a744dd","server":"65535","farm":66,"title":"Chi-cui.(Todus angustirostris.) Narrow-billed tody","ispublic":1,"isfriend":0,"isfamily":0},{"id":"51065065292","owner":"79153825@N08","secret":"9ae87da7b4","server":"65535","farm":66,"title":"Chi-cu\u00ec.(Todus angustirostris.) Narrow- billed tody.","ispublic":1,"isfriend":0,"isfamily":0},{"id":"51064266603","owner":"79153825@N08","secret":"8520be3b52","server":"65535","farm":66,"title":"Chi-cu\u00ec.(Todus angustirostris.) Narrow- billed tody.","ispublic":1,"isfriend":0,"isfamily":0},{"id":"51064972846","owner":"79153825@N08","secret":"2354e31a83","server":"65535","farm":66,"title":"Chi-cu\u00ec.(Todus angustirostris.) Narrow- billed tody.","ispublic":1,"isfriend":0,"isfamily":0},{"id":"50286008661","owner":"9795006@N08","secret":"27856daacc","server":"65535","farm":66,"title":"Narrow-billed Tody - Todus angustirostris (Lafresnaye, 1851) Todidae Coraciiformes","ispublic":1,"isfriend":0,"isfamily":0},{"id":"50285331538","owner":"9795006@N08","secret":"e10945b206","server":"65535","farm":66,"title":"Narrow-billed Tody - Todus angustirostris (Lafresnaye, 1851) Todidae Coraciiformes","ispublic":1,"isfriend":0,"isfamily":0},{"id":"49406091911","owner":"54249623@N08","secret":"dd1ce846a9","server":"65535","farm":66,"title":"Narrow-billed Tody (Todus angustirostris)","ispublic":1,"isfriend":0,"isfamily":0},{"id":"49406286667","owner":"54249623@N08","secret":"f2d78c45f2","server":"65535","farm":66,"title":"Narrow-billed Tody (Todus angustirostris)","ispublic":1,"isfriend":0,"isfamily":0},{"id":"49223826643","owner":"31694846@N02","secret":"dfc37eaf34","server":"65535","farm":66,"title":"Chicui, Todus angustirostris, Narrow Billed Tody","ispublic":1,"isfriend":0,"isfamily":0},{"id":"49072033666","owner":"54546220@N00","secret":"80b236ee66","server":"65535","farm":66,"title":"Chi-cu\u00ed, Narrow-billed Tody, (Todus angustirostris)","ispublic":1,"isfriend":0,"isfamily":0},{"id":"49072240877","owner":"54546220@N00","secret":"a0300cb1ca","server":"65535","farm":66,"title":"Chi-cu\u00ed, Narrow-billed Tody, (Todus angustirostris)","ispublic":1,"isfriend":0,"isfamily":0},{"id":"48696811053","owner":"79153825@N08","secret":"dd690a0aa9","server":"65535","farm":66,"title":"CHI-CUI.(Todus Angustirotris.) NARROW -BILLED TODY20","ispublic":1,"isfriend":0,"isfamily":0},{"id":"48697150991","owner":"79153825@N08","secret":"390c905046","server":"65535","farm":66,"title":"CHI-CUI.(Todus Angustirotris.) NARROW -BILLED TODY","ispublic":1,"isfriend":0,"isfamily":0},{"id":"48697325287","owner":"79153825@N08","secret":"e729c1de60","server":"65535","farm":66,"title":"CHI-CUI.(Todus Angustirotris.) NARROW -BILLED TODY6084","ispublic":1,"isfriend":0,"isfamily":0},{"id":"48696810933","owner":"79153825@N08","secret":"2b2116ed8b","server":"65535","farm":66,"title":"CHI-CUI.(Todos Angustirotris.) NARROW -BILLED TODY","ispublic":1,"isfriend":0,"isfamily":0},{"id":"48096703448","owner":"129673089@N03","secret":"17d700a003","server":"65535","farm":66,"title":"Narrow-billed tody, Todus angustirostris","ispublic":1,"isfriend":0,"isfamily":0},{"id":"47955372653","owner":"12943049@N07","secret":"14855fa97d","server":"65535","farm":66,"title":"Todus angustirostris - Narrow-billed Tody - Chicu\u00ed","ispublic":1,"isfriend":0,"isfamily":0},{"id":"47942796792","owner":"117479467@N03","secret":"e49bc7925d","server":"65535","farm":66,"title":"Chicu\u00ed (Todus angustirostris)","ispublic":1,"isfriend":0,"isfamily":0},{"id":"32740608197","owner":"31694846@N02","secret":"e267d984be","server":"65535","farm":66,"title":"Chicui, Todus angustirostris, Narrow Billed Tody","ispublic":1,"isfriend":0,"isfamily":0},{"id":"32423528787","owner":"141218738@N03","secret":"f052c3213a","server":"7921","farm":8,"title":"Chicui (Todus angustirostris ) Narrow Billed Tody","ispublic":1,"isfriend":0,"isfamily":0},{"id":"32423527547","owner":"141218738@N03","secret":"ce9ceff170","server":"7913","farm":8,"title":"Chicui (Todus angustirostris ) Narrow Billed Tody","ispublic":1,"isfriend":0,"isfamily":0},{"id":"46641270604","owner":"54546220@N00","secret":"125a2fbdef","server":"7913","farm":8,"title":"Chi-cu\u00ed, Narrow-billed Tody, (Todus angustirostris)","ispublic":1,"isfriend":0,"isfamily":0},{"id":"46641268444","owner":"54546220@N00","secret":"99ae018a99","server":"7863","farm":8,"title":"Chi-cu\u00ed, Narrow-billed Tody, (Todus angustirostris)","ispublic":1,"isfriend":0,"isfamily":0},{"id":"47311778582","owner":"54546220@N00","secret":"b219a07b05","server":"7831","farm":8,"title":"Chi-cu\u00ed, Narrow-billed Tody, (Todus angustirostris)","ispublic":1,"isfriend":0,"isfamily":0},{"id":"47311774932","owner":"54546220@N00","secret":"eff6628737","server":"7926","farm":8,"title":"Chi-cu\u00ed, Narrow-billed Tody, (Todus angustirostris)","ispublic":1,"isfriend":0,"isfamily":0},{"id":"40399017143","owner":"54546220@N00","secret":"c7caf3e6b4","server":"7871","farm":8,"title":"Chi-cu\u00ed, Narrow-billed Tody, (Todus angustirostris)","ispublic":1,"isfriend":0,"isfamily":0},{"id":"45941177225","owner":"104632994@N05","secret":"4017b21989","server":"7823","farm":8,"title":"GH6A79232Cvm","ispublic":1,"isfriend":0,"isfamily":0},{"id":"46275139402","owner":"37347725@N07","secret":"dea0a80a3d","server":"4831","farm":5,"title":"Narrow-billed Tody, Parque Nacional Sierra de Bahoruco, Dominican Republic, Endemic,","ispublic":1,"isfriend":0,"isfamily":0},{"id":"44333729110","owner":"31694846@N02","secret":"a17985ac23","server":"4810","farm":5,"title":"Chicui, Todus angustirostris, Narrow Billed Tody","ispublic":1,"isfriend":0,"isfamily":0},{"id":"44333728640","owner":"31694846@N02","secret":"73bce60bcf","server":"4878","farm":5,"title":"Chicui, Todus angustirostris, Narrow Billed Tody","ispublic":1,"isfriend":0,"isfamily":0},{"id":"32279335858","owner":"31694846@N02","secret":"5431808283","server":"4836","farm":5,"title":"Chicui, Todus angustirostris, Narrow Billed Tody","ispublic":1,"isfriend":0,"isfamily":0},{"id":"30626612108","owner":"141218738@N03","secret":"e8d38bdd80","server":"1849","farm":2,"title":"Chicui (Todus angustirostris )","ispublic":1,"isfriend":0,"isfamily":0},{"id":"30626609668","owner":"141218738@N03","secret":"bfcbf94106","server":"1872","farm":2,"title":"Chicui (Todus angustirostris ) Narrow Billed Tody","ispublic":1,"isfriend":0,"isfamily":0},{"id":"43524736452","owner":"31694846@N02","secret":"ac38536442","server":"1806","farm":2,"title":"Chicui, Todus angustirostris, Narrow Billed Tody","ispublic":1,"isfriend":0,"isfamily":0},{"id":"43570751101","owner":"31694846@N02","secret":"bcf2c187f1","server":"1790","farm":2,"title":"Chicui, Todus angustirostris, Narrow Billed Tody","ispublic":1,"isfriend":0,"isfamily":0},{"id":"41779290484","owner":"141218738@N03","secret":"640ebe7f1f","server":"877","farm":1,"title":"Chicui (Todus angustirostris)","ispublic":1,"isfriend":0,"isfamily":0},{"id":"41779289544","owner":"141218738@N03","secret":"679c96a048","server":"1731","farm":2,"title":"Chicui (Todus angustirostris)","ispublic":1,"isfriend":0,"isfamily":0},{"id":"42501826971","owner":"141218738@N03","secret":"23c03f66ce","server":"1725","farm":2,"title":"Chicui (Todus angustirostris)","ispublic":1,"isfriend":0,"isfamily":0},{"id":"42501824771","owner":"141218738@N03","secret":"493ba978b9","server":"1760","farm":2,"title":"Chicui (Todus angustirostris)","ispublic":1,"isfriend":0,"isfamily":0},{"id":"42281031101","owner":"141218738@N03","secret":"0c9f9c4e88","server":"961","farm":1,"title":"Chicui Todus angustirostris)","ispublic":1,"isfriend":0,"isfamily":0},{"id":"40934147785","owner":"141218738@N03","secret":"6833f46ba9","server":"967","farm":1,"title":"Chicui (Todus angustirostris ) Narrow Billed Tody","ispublic":1,"isfriend":0,"isfamily":0},{"id":"41191445301","owner":"141218738@N03","secret":"43bc3fa334","server":"809","farm":1,"title":"Chicui (Todus angustirostris )","ispublic":1,"isfriend":0,"isfamily":0},{"id":"38967767494","owner":"141218738@N03","secret":"c481610420","server":"4701","farm":5,"title":"Chicui Todus angustirostris","ispublic":1,"isfriend":0,"isfamily":0},{"id":"39646114272","owner":"141218738@N03","secret":"5a19c70612","server":"4660","farm":5,"title":"Chicui (Todus angustirostris)","ispublic":1,"isfriend":0,"isfamily":0},{"id":"38501382304","owner":"31755594@N04","secret":"afc1e0f00f","server":"4591","farm":5,"title":"21-PERLA ES LA NAVIDAD!-FELIZ NAVIDAD,MERRY CHRISTMAS!!!!Gracias por haber caminado junto a mi durante todos estos a\u00f1os!Les deseo a todos muchas bendiciones y que el espiritu del ni\u00f1o jesus este siempre en sus corazones! FELICIDADES AMIGOS!","ispublic":1,"isfriend":0,"isfamily":0},{"id":"38332317925","owner":"31755594@N04","secret":"74d9a9cdb2","server":"4734","farm":5,"title":"3-PERLA ES LA NAVIDAD!-FELIZ NAVIDAD,MERRY CHRISTMAS!!!!Gracias por haber caminado junto a mi durante todos estos a\u00f1os!Les deseo a todos muchas bendiciones y que el espiritu del ni\u00f1o jesus este siempre en sus corazones! FELICIDADES AMIGOS!","ispublic":1,"isfriend":0,"isfamily":0},{"id":"37097050112","owner":"8677091@N08","secret":"a0e879c24c","server":"4375","farm":5,"title":"La mirada del Chicui","ispublic":1,"isfriend":0,"isfamily":0},{"id":"37097048502","owner":"8677091@N08","secret":"767e3e7ee8","server":"4367","farm":5,"title":"El Chicui del Sendero","ispublic":1,"isfriend":0,"isfamily":0},{"id":"36834374622","owner":"8677091@N08","secret":"86ab2140d8","server":"4416","farm":5,"title":"El Chicui sobre el Arroyo","ispublic":1,"isfriend":0,"isfamily":0},{"id":"36865213461","owner":"8677091@N08","secret":"df2f61b730","server":"4392","farm":5,"title":"El Chicui a la sombra","ispublic":1,"isfriend":0,"isfamily":0},{"id":"36446970302","owner":"31694846@N02","secret":"9a3519c861","server":"4357","farm":5,"title":"Chicui (Todus angustirostris), Narrow Billed Tody","ispublic":1,"isfriend":0,"isfamily":0},{"id":"35569254793","owner":"31694846@N02","secret":"4903ecbcae","server":"4372","farm":5,"title":"Chicui (Todus angustirostris), Narrow Billed Tody","ispublic":1,"isfriend":0,"isfamily":0},{"id":"35596133601","owner":"31694846@N02","secret":"4aa4d61719","server":"4056","farm":5,"title":"Chicui (Todus angustirostris), Narrow Billed Tody","ispublic":1,"isfriend":0,"isfamily":0},{"id":"35350470012","owner":"141218738@N03","secret":"0619009070","server":"4253","farm":5,"title":"Chicui Todus angustirostris","ispublic":1,"isfriend":0,"isfamily":0},{"id":"35478231796","owner":"141218738@N03","secret":"525df3c9a2","server":"4239","farm":5,"title":"Chicui Todus angustirostris","ispublic":1,"isfriend":0,"isfamily":0},{"id":"34707840553","owner":"141218738@N03","secret":"6703ab9fc6","server":"4240","farm":5,"title":"Chicui Todus angustirostris","ispublic":1,"isfriend":0,"isfamily":0},{"id":"35437322105","owner":"141218738@N03","secret":"d0ab3626b2","server":"4277","farm":5,"title":"Chicui Todus angustirostris","ispublic":1,"isfriend":0,"isfamily":0},{"id":"35251632222","owner":"141218738@N03","secret":"8e02be3499","server":"4217","farm":5,"title":"Chicui (Todus angustirostris )","ispublic":1,"isfriend":0,"isfamily":0},{"id":"35030763930","owner":"141218738@N03","secret":"dbbf5a590f","server":"4239","farm":5,"title":"Chicui (Todus angustirostris )","ispublic":1,"isfriend":0,"isfamily":0},{"id":"51682349307","owner":"42622112@N08","secret":"6606fe7681","server":"65535","farm":66,"title":"Chi-Cui \/ Narrow-billed today \/ Todus angustirostris","ispublic":1,"isfriend":0,"isfamily":0},{"id":"49224308801","owner":"31694846@N02","secret":"d4870887b0","server":"65535","farm":66,"title":"Chicui, Todus angustirostris, Narrow Billed Tody","ispublic":1,"isfriend":0,"isfamily":0},{"id":"48696811188","owner":"79153825@N08","secret":"c728858057","server":"65535","farm":66,"title":"CHI-CUI.(Todus Angustirotris.) NARROW -BILLED TODY","ispublic":1,"isfriend":0,"isfamily":0},{"id":"48696811158","owner":"79153825@N08","secret":"23177e95a0","server":"65535","farm":66,"title":"CHI-CUI.(Todus Angustirotris.) NARROW -BILLED TODY","ispublic":1,"isfriend":0,"isfamily":0},{"id":"48697325392","owner":"79153825@N08","secret":"cf290b78b5","server":"65535","farm":66,"title":"CHI-CUI.(Todus Angustirotris.) NARROW -BILLED TODY","ispublic":1,"isfriend":0,"isfamily":0},{"id":"47645778801","owner":"31694846@N02","secret":"ca6a96c70f","server":"65535","farm":66,"title":"Chicui, Todus angustirostris, Narrow Billed Tody","ispublic":1,"isfriend":0,"isfamily":0},{"id":"41779287864","owner":"141218738@N03","secret":"31848635ee","server":"882","farm":1,"title":"Chicui (Todus angustirostris) Narrow Billed Tody","ispublic":1,"isfriend":0,"isfamily":0},{"id":"40934141775","owner":"141218738@N03","secret":"7a3828b804","server":"949","farm":1,"title":"Chicui (Todus angustirostris )","ispublic":1,"isfriend":0,"isfamily":0},{"id":"25868426367","owner":"57465751@N05","secret":"63bc388e5e","server":"4775","farm":5,"title":"Narrow-billed Tody (Todus angustirostris), ALCOA Rd., Dominican Republic","ispublic":1,"isfriend":0,"isfamily":0},{"id":"36588216672","owner":"142952595@N08","secret":"e74c848e88","server":"4370","farm":5,"title":"Narrow-billed Tody","ispublic":1,"isfriend":0,"isfamily":0},{"id":"36107203942","owner":"141218738@N03","secret":"e265ac3cdb","server":"4322","farm":5,"title":"Chicui-Todus angustirostris","ispublic":1,"isfriend":0,"isfamily":0},{"id":"36141018321","owner":"141218738@N03","secret":"da8372bca3","server":"4323","farm":5,"title":"Chicui-Todus angustirostris","ispublic":1,"isfriend":0,"isfamily":0},{"id":"35469484223","owner":"141218738@N03","secret":"11a45bf53f","server":"4306","farm":5,"title":"Chicui-Todus angustirostris","ispublic":1,"isfriend":0,"isfamily":0},{"id":"36141005841","owner":"141218738@N03","secret":"74b57a16fa","server":"4323","farm":5,"title":"Chicui-Todus angustirostris","ispublic":1,"isfriend":0,"isfamily":0},{"id":"35075157301","owner":"141218738@N03","secret":"a270f09183","server":"4242","farm":5,"title":"Chicui-Todus angustirostris","ispublic":1,"isfriend":0,"isfamily":0},{"id":"34395685123","owner":"141218738@N03","secret":"30363c304e","server":"4235","farm":5,"title":"Chicui-Todus angustirostris","ispublic":1,"isfriend":0,"isfamily":0}]},"stat":"ok"}