{"photos":{"page":1,"pages":6,"perpage":100,"total":519,"photo":[{"id":"52709408414","owner":"86191812@N07","secret":"4d4a3ab194","server":"65535","farm":66,"title":"Nashville Warbler (Leiothlypis ruficapilla)","ispublic":1,"isfriend":0,"isfamily":0},{"id":"52684168497","owner":"42264328@N00","secret":"fd28430574","server":"65535","farm":66,"title":"Wintering warbler","ispublic":1,"isfriend":0,"isfamily":0},{"id":"52684168477","owner":"42264328@N00","secret":"20fcde4a33","server":"65535","farm":66,"title":"Wintering warbler","ispublic":1,"isfriend":0,"isfamily":0},{"id":"52657203515","owner":"194196140@N08","secret":"14965dde46","server":"65535","farm":66,"title":"Nashville Warbler (Leiothlypis ruficapilla)","ispublic":1,"isfriend":0,"isfamily":0},{"id":"52642655139","owner":"39511843@N07","secret":"b39f50cd6f","server":"65535","farm":66,"title":"20230120-Nashville Warbler (Leiothlypis ruficapilla)-8-2","ispublic":1,"isfriend":0,"isfamily":0},{"id":"52642399121","owner":"39511843@N07","secret":"861490c8d5","server":"65535","farm":66,"title":"20230120-Nashville Warbler (Leiothlypis ruficapilla)-7","ispublic":1,"isfriend":0,"isfamily":0},{"id":"52642873428","owner":"39511843@N07","secret":"afe3806bf5","server":"65535","farm":66,"title":"20230120-Nashville Warbler (Leiothlypis ruficapilla)-3","ispublic":1,"isfriend":0,"isfamily":0},{"id":"52641890222","owner":"39511843@N07","secret":"ef576a597a","server":"65535","farm":66,"title":"20230120-Nashville Warbler (Leiothlypis ruficapilla)-4","ispublic":1,"isfriend":0,"isfamily":0},{"id":"52642654124","owner":"39511843@N07","secret":"4632c61347","server":"65535","farm":66,"title":"20230120-Nashville Warbler (Leiothlypis ruficapilla)-2","ispublic":1,"isfriend":0,"isfamily":0},{"id":"52600743484","owner":"119787485@N07","secret":"fc743c2376","server":"65535","farm":66,"title":"Nashville Warbler (Leiothlypis ruficapilla ruficapilla) - 20220828-04","ispublic":1,"isfriend":0,"isfamily":0},{"id":"52580724930","owner":"153973412@N04","secret":"47096fbea0","server":"65535","farm":66,"title":"Nashville Warbler-Leiothlypis ruficapilla, Iowa City, IA","ispublic":1,"isfriend":0,"isfamily":0},{"id":"52535234250","owner":"33610210@N05","secret":"9a674cfcbd","server":"65535","farm":66,"title":"Nashville Warbler, Leiothlypis ruficapilla","ispublic":1,"isfriend":0,"isfamily":0},{"id":"52535234235","owner":"33610210@N05","secret":"ae797c9e0e","server":"65535","farm":66,"title":"Nashville Warbler, Leiothlypis ruficapilla","ispublic":1,"isfriend":0,"isfamily":0},{"id":"52535042634","owner":"33610210@N05","secret":"539d72e8a3","server":"65535","farm":66,"title":"Nashville Warbler, Leiothlypis ruficapilla","ispublic":1,"isfriend":0,"isfamily":0},{"id":"52481920276","owner":"13451078@N03","secret":"bfa6095145","server":"65535","farm":66,"title":"Nashville Warbler (Leiothlypis ruficapilla)","ispublic":1,"isfriend":0,"isfamily":0},{"id":"52461043552","owner":"62043870@N05","secret":"ed8040a9da","server":"65535","farm":66,"title":"Nashville Warbler, Leiothlypis ruficapilla","ispublic":1,"isfriend":0,"isfamily":0},{"id":"52461043267","owner":"62043870@N05","secret":"e6f5baefe8","server":"65535","farm":66,"title":"Nashville Warbler, Leiothlypis ruficapilla","ispublic":1,"isfriend":0,"isfamily":0},{"id":"52448575504","owner":"137364640@N08","secret":"53f24ef7c0","server":"65535","farm":66,"title":"Nashville Warbler","ispublic":1,"isfriend":0,"isfamily":0},{"id":"52428637573","owner":"49114357@N08","secret":"5d25547d03","server":"65535","farm":66,"title":"Nashville Warbler","ispublic":1,"isfriend":0,"isfamily":0},{"id":"52428504805","owner":"89536386@N08","secret":"701defc6e4","server":"65535","farm":66,"title":"Nashville Warbler (Leiothlypis ruficapilla)","ispublic":1,"isfriend":0,"isfamily":0},{"id":"52425455572","owner":"77162239@N04","secret":"26d1943d76","server":"65535","farm":66,"title":"Male Nashville Warbler (Leiothlypis ruficapilla)","ispublic":1,"isfriend":0,"isfamily":0},{"id":"52417875027","owner":"8654297@N06","secret":"5622a749c9","server":"65535","farm":66,"title":"Bath time","ispublic":1,"isfriend":0,"isfamily":0},{"id":"52409715864","owner":"71418112@N00","secret":"72d052fa39","server":"65535","farm":66,"title":"Warbler baths.","ispublic":1,"isfriend":0,"isfamily":0},{"id":"52394160308","owner":"128537732@N06","secret":"bfcd11448a","server":"65535","farm":66,"title":"Nashville Warbler (Leiothlypis ruficapilla)","ispublic":1,"isfriend":0,"isfamily":0},{"id":"52393144617","owner":"128537732@N06","secret":"a96052321f","server":"65535","farm":66,"title":"Nashville Warbler (Leiothlypis ruficapilla)","ispublic":1,"isfriend":0,"isfamily":0},{"id":"52382287980","owner":"135315828@N06","secret":"32c6f2bd11","server":"65535","farm":66,"title":"nashville warbler","ispublic":1,"isfriend":0,"isfamily":0},{"id":"52381691286","owner":"128537732@N06","secret":"d4534a1aba","server":"65535","farm":66,"title":"Nashville Warbler (Leiothlypis ruficapilla)","ispublic":1,"isfriend":0,"isfamily":0},{"id":"52373368240","owner":"188615990@N04","secret":"57749f3358","server":"65535","farm":66,"title":"Nashville Warbler (Leiothlypis ruficapilla).","ispublic":1,"isfriend":0,"isfamily":0},{"id":"52346318499","owner":"49114357@N08","secret":"362c1d9d52","server":"65535","farm":66,"title":"Nashville Warbler","ispublic":1,"isfriend":0,"isfamily":0},{"id":"52359988862","owner":"156457454@N02","secret":"b239807dea","server":"65535","farm":66,"title":"Leiothlypis ruficapilla 2 (Nashville Warbler)","ispublic":1,"isfriend":0,"isfamily":0},{"id":"52358668634","owner":"18739614@N00","secret":"beecf80dce","server":"65535","farm":66,"title":"Nashville Warbler","ispublic":1,"isfriend":0,"isfamily":0},{"id":"52306248874","owner":"71418112@N00","secret":"8ac32bb33b","server":"65535","farm":66,"title":"Nashville warbler","ispublic":1,"isfriend":0,"isfamily":0},{"id":"52299458429","owner":"124995824@N08","secret":"59f680f201","server":"65535","farm":66,"title":"Nashville Warbler - Leiothlypis ruficapilla","ispublic":1,"isfriend":0,"isfamily":0},{"id":"52275422511","owner":"196264892@N08","secret":"29f890103e","server":"65535","farm":66,"title":"Nashville Warbler","ispublic":1,"isfriend":0,"isfamily":0},{"id":"52275684074","owner":"196264892@N08","secret":"d394eec2bf","server":"65535","farm":66,"title":"Nashville Warbler","ispublic":1,"isfriend":0,"isfamily":0},{"id":"52250363453","owner":"41694014@N04","secret":"d41aff51b7","server":"65535","farm":66,"title":"Chipe cabeza gris","ispublic":1,"isfriend":0,"isfamily":0},{"id":"52151951271","owner":"58681764@N00","secret":"1a82c195f0","server":"65535","farm":66,"title":"Nashville Warbler","ispublic":1,"isfriend":0,"isfamily":0},{"id":"52142872941","owner":"54249623@N08","secret":"6d0f5d6ef7","server":"65535","farm":66,"title":"Nashville Warbler (Leiothlypis ruficapilla) (Oreothlypis ruficapilla) (Vermivora ruficapilla)","ispublic":1,"isfriend":0,"isfamily":0},{"id":"52142769583","owner":"120449047@N06","secret":"e98bb1e818","server":"65535","farm":66,"title":"Nashville Warbler (28\/35)","ispublic":1,"isfriend":0,"isfamily":0},{"id":"52139264632","owner":"168495655@N07","secret":"90dbfe2728","server":"65535","farm":66,"title":"Paruline \u00e0 joues grises - Leiothlypis ruficapilla - Nashville Warbler","ispublic":1,"isfriend":0,"isfamily":0},{"id":"52132892294","owner":"65788177@N02","secret":"cf26f893f9","server":"65535","farm":66,"title":"Nashville Warbler","ispublic":1,"isfriend":0,"isfamily":0},{"id":"52124308840","owner":"34238008@N02","secret":"b2ac3616a6","server":"65535","farm":66,"title":"Nashville Warbler (Leiothlypis ruficapilla)","ispublic":1,"isfriend":0,"isfamily":0},{"id":"52124052494","owner":"34238008@N02","secret":"a0627bc469","server":"65535","farm":66,"title":"Nashville Warbler (Leiothlypis ruficapilla)","ispublic":1,"isfriend":0,"isfamily":0},{"id":"52124052209","owner":"34238008@N02","secret":"96c6f5ccd1","server":"65535","farm":66,"title":"Nashville Warbler (Leiothlypis ruficapilla)","ispublic":1,"isfriend":0,"isfamily":0},{"id":"52123839188","owner":"34238008@N02","secret":"6fd88c9158","server":"65535","farm":66,"title":"Nashville Warbler (Leiothlypis ruficapilla)","ispublic":1,"isfriend":0,"isfamily":0},{"id":"52123839068","owner":"34238008@N02","secret":"29b2bd6167","server":"65535","farm":66,"title":"Nashville Warbler (Leiothlypis ruficapilla)","ispublic":1,"isfriend":0,"isfamily":0},{"id":"52112816053","owner":"52133016@N08","secret":"81ab9beece","server":"65535","farm":66,"title":"Nashville warbler","ispublic":1,"isfriend":0,"isfamily":0},{"id":"52089930564","owner":"135315828@N06","secret":"082a2077c6","server":"65535","farm":66,"title":"nashville warbler","ispublic":1,"isfriend":0,"isfamily":0},{"id":"52089708978","owner":"135315828@N06","secret":"61bca8db56","server":"65535","farm":66,"title":"nashville warbler","ispublic":1,"isfriend":0,"isfamily":0},{"id":"52084251622","owner":"32752434@N07","secret":"6e19e37a75","server":"65535","farm":66,"title":"Nashville Warbler (Leiothlypis ruficapilla)","ispublic":1,"isfriend":0,"isfamily":0},{"id":"52071572662","owner":"44075517@N00","secret":"c43399f13f","server":"65535","farm":66,"title":"Nashville Warbler, Leiothlypis ruficapilla (Wilson, 1811)","ispublic":1,"isfriend":0,"isfamily":0},{"id":"52070660306","owner":"10665268@N04","secret":"4b80fedab8","server":"65535","farm":66,"title":"Nashville Warbler, Clackamas Co., OR_2625(1)","ispublic":1,"isfriend":0,"isfamily":0},{"id":"52071137545","owner":"10665268@N04","secret":"dee08f02da","server":"65535","farm":66,"title":"Nashville Warbler, Clackamas Co., OR_2614(1)","ispublic":1,"isfriend":0,"isfamily":0},{"id":"52071137485","owner":"10665268@N04","secret":"512254a7c0","server":"65535","farm":66,"title":"Nashville Warbler, Clackamas Co., OR_2652(1)","ispublic":1,"isfriend":0,"isfamily":0},{"id":"52070890314","owner":"10665268@N04","secret":"de19405608","server":"65535","farm":66,"title":"Nashville Warbler, Clackamas Co., OR_2668(1)","ispublic":1,"isfriend":0,"isfamily":0},{"id":"52071137440","owner":"10665268@N04","secret":"288ddaf025","server":"65535","farm":66,"title":"Nashville Warbler, Clackamas Co., OR_2698(1)","ispublic":1,"isfriend":0,"isfamily":0},{"id":"52068185867","owner":"195397489@N07","secret":"dcdee80959","server":"65535","farm":66,"title":"Paruline \u00e0 joues grises (Leiothlypis ruficapilla).","ispublic":1,"isfriend":0,"isfamily":0},{"id":"52069011704","owner":"190764460@N06","secret":"0b6e530d64","server":"65535","farm":66,"title":"NAWA#4","ispublic":1,"isfriend":0,"isfamily":0},{"id":"52047325858","owner":"8654297@N06","secret":"830d471f95","server":"65535","farm":66,"title":"On the rocks","ispublic":1,"isfriend":0,"isfamily":0},{"id":"52040533695","owner":"88978913@N08","secret":"307563d2c5","server":"65535","farm":66,"title":"Nashville Warbler, Leiothlypis ruficapilla","ispublic":1,"isfriend":0,"isfamily":0},{"id":"52030546253","owner":"18378985@N08","secret":"dc37448f5f","server":"65535","farm":66,"title":"Nashville Warbler","ispublic":1,"isfriend":0,"isfamily":0},{"id":"51995404213","owner":"13451078@N03","secret":"c46e73e2d3","server":"65535","farm":66,"title":"Nashville Warbler (Leiothlypis ruficapilla)","ispublic":1,"isfriend":0,"isfamily":0},{"id":"51938475205","owner":"41694014@N04","secret":"039ab11184","server":"65535","farm":66,"title":"Leiothlypis ruficapilla","ispublic":1,"isfriend":0,"isfamily":0},{"id":"51830750232","owner":"12639178@N07","secret":"e28db97a08","server":"65535","farm":66,"title":"Rubinfleckwalds\u00e4nger im Central Park","ispublic":1,"isfriend":0,"isfamily":0},{"id":"51829069645","owner":"88932760@N08","secret":"2869b56cc7","server":"65535","farm":66,"title":"The Stare Down","ispublic":1,"isfriend":0,"isfamily":0},{"id":"51739112225","owner":"23711298@N07","secret":"b7cd290248","server":"65535","farm":66,"title":"Nashville Warbler (Female), Minnesota, Anoka County- Fridley, Springbrook Nature Center","ispublic":1,"isfriend":0,"isfamily":0},{"id":"51736260507","owner":"106773832@N02","secret":"34c969a716","server":"65535","farm":66,"title":"Nashville Warbler (Leiothlypis ruficapilla)-621181","ispublic":1,"isfriend":0,"isfamily":0},{"id":"51722872556","owner":"9638954@N07","secret":"6b0cc39c18","server":"65535","farm":66,"title":"Nashville Warbler","ispublic":1,"isfriend":0,"isfamily":0},{"id":"51719069690","owner":"43933334@N02","secret":"b0b0e2e734","server":"65535","farm":66,"title":"LEIOTHLYPIS RUFICAPILLA(nashville warbler)","ispublic":1,"isfriend":0,"isfamily":0},{"id":"51699891361","owner":"168495655@N07","secret":"a298e7daf7","server":"65535","farm":66,"title":"Paruline \u00e0 joues grises - Leiothlypis ruficapilla - Nashville Warbler","ispublic":1,"isfriend":0,"isfamily":0},{"id":"52539147284","owner":"67306066@N03","secret":"f07c499558","server":"65535","farm":66,"title":"Nashville Warbler (Leiothlypis ruficapilla)","ispublic":1,"isfriend":0,"isfamily":0},{"id":"52535042569","owner":"33610210@N05","secret":"f9361c252d","server":"65535","farm":66,"title":"Nashville Warbler, Leiothlypis ruficapilla","ispublic":1,"isfriend":0,"isfamily":0},{"id":"52493303156","owner":"39445433@N02","secret":"be92822805","server":"65535","farm":66,"title":"Nashville Warbler","ispublic":1,"isfriend":0,"isfamily":0},{"id":"52490869197","owner":"39445433@N02","secret":"906df174c2","server":"65535","farm":66,"title":"Nashville Warbler","ispublic":1,"isfriend":0,"isfamily":0},{"id":"52487944505","owner":"39445433@N02","secret":"b458386eb3","server":"65535","farm":66,"title":"Nashville Warbler","ispublic":1,"isfriend":0,"isfamily":0},{"id":"52407161032","owner":"59619528@N04","secret":"43ba708c6b","server":"65535","farm":66,"title":"Nashville Warbler Leiothlypis ruficapilla)","ispublic":1,"isfriend":0,"isfamily":0},{"id":"52408173428","owner":"59619528@N04","secret":"fabfcdefc4","server":"65535","farm":66,"title":"Nashville Warbler Leiothlypis ruficapilla)","ispublic":1,"isfriend":0,"isfamily":0},{"id":"52408173208","owner":"59619528@N04","secret":"2596d3e9f0","server":"65535","farm":66,"title":"Nashville Warbler Leiothlypis ruficapilla)","ispublic":1,"isfriend":0,"isfamily":0},{"id":"52408172443","owner":"59619528@N04","secret":"198007a68e","server":"65535","farm":66,"title":"Nashville Warbler Leiothlypis ruficapilla)","ispublic":1,"isfriend":0,"isfamily":0},{"id":"52408172373","owner":"59619528@N04","secret":"b4e651d8d6","server":"65535","farm":66,"title":"Nashville Warbler Leiothlypis ruficapilla)","ispublic":1,"isfriend":0,"isfamily":0},{"id":"52317080064","owner":"34238008@N02","secret":"18260fa31a","server":"65535","farm":66,"title":"Nashville Warbler (Leiothlypis ruficapilla)","ispublic":1,"isfriend":0,"isfamily":0},{"id":"52153298231","owner":"32752434@N07","secret":"92b95dbf82","server":"65535","farm":66,"title":"Nashville Warbler (Leiothlypis ruficapilla)","ispublic":1,"isfriend":0,"isfamily":0},{"id":"52143109259","owner":"54249623@N08","secret":"1ecde2ef64","server":"65535","farm":66,"title":"Nashville Warbler (Leiothlypis ruficapilla) (Oreothlypis ruficapilla) (Vermivora ruficapilla)","ispublic":1,"isfriend":0,"isfamily":0},{"id":"52125218756","owner":"28631427@N00","secret":"678464da2a","server":"65535","farm":66,"title":"Nashville Warbler 1","ispublic":1,"isfriend":0,"isfamily":0},{"id":"52125459219","owner":"28631427@N00","secret":"a5836b2219","server":"65535","farm":66,"title":"Nashville Warbler 2","ispublic":1,"isfriend":0,"isfamily":0},{"id":"52125214371","owner":"28631427@N00","secret":"01643a7480","server":"65535","farm":66,"title":"Nashville and Tennessee Warblers 1","ispublic":1,"isfriend":0,"isfamily":0},{"id":"52125244143","owner":"28631427@N00","secret":"dea996e657","server":"65535","farm":66,"title":"Nashville and Tennessee Warblers 2","ispublic":1,"isfriend":0,"isfamily":0},{"id":"52125242413","owner":"28631427@N00","secret":"94aaf0a8af","server":"65535","farm":66,"title":"Nashville and Tennessee Warblers 3","ispublic":1,"isfriend":0,"isfamily":0},{"id":"52058785597","owner":"128537732@N06","secret":"516a1dcf9c","server":"65535","farm":66,"title":"Nashville Warbler (Leiothlypis ruficapilla)","ispublic":1,"isfriend":0,"isfamily":0},{"id":"52058785152","owner":"128537732@N06","secret":"9f1afe2d81","server":"65535","farm":66,"title":"Nashville Warbler (Leiothlypis ruficapilla)","ispublic":1,"isfriend":0,"isfamily":0},{"id":"51974962731","owner":"26371261@N00","secret":"61e0015e45","server":"65535","farm":66,"title":"Nashville Warbler, Leiothlypis ruficapilla","ispublic":1,"isfriend":0,"isfamily":0},{"id":"51853115290","owner":"59619528@N04","secret":"a67d63c4de","server":"65535","farm":66,"title":"Nashville Warbler (Leiothlypis ruficapilla)","ispublic":1,"isfriend":0,"isfamily":0},{"id":"51830927751","owner":"26371261@N00","secret":"837f4ebb80","server":"65535","farm":66,"title":"Nashville Warbler, Leiothlypis ruficapilla","ispublic":1,"isfriend":0,"isfamily":0},{"id":"51817376256","owner":"28631427@N00","secret":"02886a0fd3","server":"65535","farm":66,"title":"Nashville Warbler 1","ispublic":1,"isfriend":0,"isfamily":0},{"id":"51818088735","owner":"28631427@N00","secret":"27f1ec1534","server":"65535","farm":66,"title":"Nashville Warbler 2","ispublic":1,"isfriend":0,"isfamily":0},{"id":"51790411073","owner":"59619528@N04","secret":"e0e3335be2","server":"65535","farm":66,"title":"Nashville Warbler (Leiothlypis ruficapilla)","ispublic":1,"isfriend":0,"isfamily":0},{"id":"51738865609","owner":"23711298@N07","secret":"ab6b8814eb","server":"65535","farm":66,"title":"Nashville Warbler (Female), Minnesota, Anoka County- Fridley, Springbrook Nature Center","ispublic":1,"isfriend":0,"isfamily":0},{"id":"51676298425","owner":"39445433@N02","secret":"13aa7bc710","server":"65535","farm":66,"title":"Nashville Warbler","ispublic":1,"isfriend":0,"isfamily":0},{"id":"51676298300","owner":"39445433@N02","secret":"f9445a5c4d","server":"65535","farm":66,"title":"AJ9A5637","ispublic":1,"isfriend":0,"isfamily":0},{"id":"51675421136","owner":"39445433@N02","secret":"cefb78b78e","server":"65535","farm":66,"title":"Nashville Warbler","ispublic":1,"isfriend":0,"isfamily":0}]},"stat":"ok"}