{"photos":{"page":1,"pages":2,"perpage":100,"total":101,"photo":[{"id":"52260718275","owner":"146625998@N05","secret":"ed4596fa5f","server":"65535","farm":66,"title":"American Goldfinch, male","ispublic":1,"isfriend":0,"isfamily":0},{"id":"52197387903","owner":"146625998@N05","secret":"f1387a9e24","server":"65535","farm":66,"title":"American Goldfinch, male","ispublic":1,"isfriend":0,"isfamily":0},{"id":"52197372458","owner":"146625998@N05","secret":"c0fcd72c53","server":"65535","farm":66,"title":"American Goldfinch, female","ispublic":1,"isfriend":0,"isfamily":0},{"id":"52012173036","owner":"103722035@N06","secret":"28d5d8e961","server":"0","farm":0,"title":"Lesser Goldfinch (Spinus psaltria), Cal Poly, San Luis Obispo, CA","ispublic":1,"isfriend":0,"isfamily":0},{"id":"51962339839","owner":"146625998@N05","secret":"0b4248e9f0","server":"65535","farm":66,"title":"American Goldfinch, male","ispublic":1,"isfriend":0,"isfamily":0},{"id":"51577437342","owner":"9360144@N07","secret":"586721515b","server":"65535","farm":66,"title":"American goldfinch with thistle seed","ispublic":1,"isfriend":0,"isfamily":0},{"id":"51414779019","owner":"9360144@N07","secret":"c4c95c2e55","server":"65535","farm":66,"title":"Pine siskin","ispublic":1,"isfriend":0,"isfamily":0},{"id":"51414022496","owner":"9360144@N07","secret":"e72ca6c3a3","server":"65535","farm":66,"title":"Thorn-proof pine siskin","ispublic":1,"isfriend":0,"isfamily":0},{"id":"51385886597","owner":"146625998@N05","secret":"2eb963bc52","server":"65535","farm":66,"title":"American Goldfinches, female and male","ispublic":1,"isfriend":0,"isfamily":0},{"id":"51358588293","owner":"146625998@N05","secret":"943572e60f","server":"65535","farm":66,"title":"American Goldfinch, male","ispublic":1,"isfriend":0,"isfamily":0},{"id":"51356273436","owner":"103722035@N06","secret":"e2c010ec91","server":"0","farm":0,"title":"American Goldfinch (Spinus tristis), Estero Bluffs SP, Cayucos, CA","ispublic":1,"isfriend":0,"isfamily":0},{"id":"51357287150","owner":"103722035@N06","secret":"097f510151","server":"65535","farm":66,"title":"American Goldfinch (Spinus tristis), Estero Bluffs SP, Cayucos, CA","ispublic":1,"isfriend":0,"isfamily":0},{"id":"51355530407","owner":"103722035@N06","secret":"6a5b92cf5d","server":"65535","farm":66,"title":"American Goldfinch (Spinus tristis), Estero Bluffs SP, Cayucos, CA","ispublic":1,"isfriend":0,"isfamily":0},{"id":"51323187921","owner":"103722035@N06","secret":"f1d195ec8a","server":"0","farm":0,"title":"Lesser Goldfinch (Spinus psaltria), Estero Bluffs SP, Cayucos, CA","ispublic":1,"isfriend":0,"isfamily":0},{"id":"50899337293","owner":"98675522@N06","secret":"f370c170ae","server":"65535","farm":66,"title":"Grip","ispublic":1,"isfriend":0,"isfamily":0},{"id":"50863910888","owner":"146625998@N05","secret":"43f8f0672c","server":"65535","farm":66,"title":"American Goldfinch, leucistic: by Jim Swartwood 1\/20\/20 Jefferson County KY","ispublic":1,"isfriend":0,"isfamily":0},{"id":"50740936838","owner":"88978913@N08","secret":"701cfcecbc","server":"65535","farm":66,"title":"American Goldfinch,  Spinus tristis","ispublic":1,"isfriend":0,"isfamily":0},{"id":"50450000833","owner":"88978913@N08","secret":"3043e5082d","server":"65535","farm":66,"title":"American Goldfinch,  Spinus tristis","ispublic":1,"isfriend":0,"isfamily":0},{"id":"50450697031","owner":"88978913@N08","secret":"4bf7c6ed27","server":"65535","farm":66,"title":"American Goldfinch,  Spinus tristis","ispublic":1,"isfriend":0,"isfamily":0},{"id":"50155910992","owner":"9360144@N07","secret":"173111945c","server":"65535","farm":66,"title":"Goldfinch and bluebird","ispublic":1,"isfriend":0,"isfamily":0},{"id":"50155121218","owner":"9360144@N07","secret":"7988635191","server":"65535","farm":66,"title":"American goldfinch","ispublic":1,"isfriend":0,"isfamily":0},{"id":"50097559648","owner":"10367239@N05","secret":"2f9f28d8f8","server":"65535","farm":66,"title":"American Goldfinch male by Jackie B. Elmore 5-29-2020 Lincoln Co. KY","ispublic":1,"isfriend":0,"isfamily":0},{"id":"49902198411","owner":"88978913@N08","secret":"9f891ec3ab","server":"65535","farm":66,"title":"Male American Goldfinch, Spinus tristis","ispublic":1,"isfriend":0,"isfamily":0},{"id":"49883366958","owner":"90886369@N06","secret":"ab8588afec","server":"65535","farm":66,"title":"American Goldfinch (Spinus tristis)","ispublic":1,"isfriend":0,"isfamily":0},{"id":"49804119598","owner":"103722035@N06","secret":"d57524a3c9","server":"0","farm":0,"title":"American Goldfinch (Spinus tristis), Estero Bluff SP, Cayucos, CA","ispublic":1,"isfriend":0,"isfamily":0},{"id":"49804932717","owner":"21558080@N07","secret":"11c870ba9a","server":"65535","farm":66,"title":"Lawrence's Goldfinch (Spinus lawrencei) (sp. # 316)","ispublic":1,"isfriend":0,"isfamily":0},{"id":"49757454308","owner":"10367239@N05","secret":"714ddf8721","server":"65535","farm":66,"title":"American Goldfinch male by Jackie B. Elmore 4-6-2020 Lincoln Co. KY","ispublic":1,"isfriend":0,"isfamily":0},{"id":"49725972372","owner":"10367239@N05","secret":"0c125a024e","server":"65535","farm":66,"title":"American Goldfinch by Jackie B. Elmore 3-31-2020 Lincoln Co. KY","ispublic":1,"isfriend":0,"isfamily":0},{"id":"49724513352","owner":"88978913@N08","secret":"f8a82cd12a","server":"65535","farm":66,"title":"American Goldfinch, Spinus tristis","ispublic":1,"isfriend":0,"isfamily":0},{"id":"49689158251","owner":"8065544@N08","secret":"024b8836f2","server":"65535","farm":66,"title":"Lesser Goldfinch (Spinus psaltria)","ispublic":1,"isfriend":0,"isfamily":0},{"id":"49689158196","owner":"8065544@N08","secret":"8bbf798682","server":"65535","farm":66,"title":"Lesser Goldfinch (Spinus psaltria)","ispublic":1,"isfriend":0,"isfamily":0},{"id":"49675874923","owner":"88978913@N08","secret":"1c8484e9b4","server":"65535","farm":66,"title":"American Goldfinch, Spinus tristis","ispublic":1,"isfriend":0,"isfamily":0},{"id":"49525330018","owner":"88978913@N08","secret":"6e35b92247","server":"65535","farm":66,"title":"American Goldfinch, Spinus tristis","ispublic":1,"isfriend":0,"isfamily":0},{"id":"48881227667","owner":"88978913@N08","secret":"fca9627e2e","server":"65535","farm":66,"title":"American Goldfinch,  Spinus tristis","ispublic":1,"isfriend":0,"isfamily":0},{"id":"48881037541","owner":"88978913@N08","secret":"caf81a5c05","server":"65535","farm":66,"title":"American Goldfinch, Spinus tristis","ispublic":1,"isfriend":0,"isfamily":0},{"id":"29943601607","owner":"134270033@N06","secret":"eacdde9881","server":"1948","farm":2,"title":"Behaviour Photo Doc.","ispublic":1,"isfriend":0,"isfamily":0},{"id":"42557557374","owner":"34238008@N02","secret":"a27fbcf7f1","server":"1764","farm":2,"title":"Lesser Goldfinch (Spinus psaltria)","ispublic":1,"isfriend":0,"isfamily":0},{"id":"26670363477","owner":"88978913@N08","secret":"8490a7e4cd","server":"866","farm":1,"title":"American Goldfinch, Spinus tristis","ispublic":1,"isfriend":0,"isfamily":0},{"id":"26670352677","owner":"88978913@N08","secret":"8014dbd7a8","server":"913","farm":1,"title":"American Goldfinch, Spinus tristis","ispublic":1,"isfriend":0,"isfamily":0},{"id":"27461426388","owner":"88978913@N08","secret":"7d4445d4e7","server":"801","farm":1,"title":"American Goldfinch,  Spinus tristis","ispublic":1,"isfriend":0,"isfamily":0},{"id":"40121591415","owner":"88978913@N08","secret":"93f8c9247b","server":"790","farm":1,"title":"American Goldfinch, Spinus tristis","ispublic":1,"isfriend":0,"isfamily":0},{"id":"40591832332","owner":"88978913@N08","secret":"c6df68cbc0","server":"4648","farm":5,"title":"American Goldfinch,  Spinus tristis","ispublic":1,"isfriend":0,"isfamily":0},{"id":"40516923112","owner":"58148027@N07","secret":"d442ab673e","server":"4708","farm":5,"title":"goldfinch p03 2018-03-01 \u00a9Kevin S Lucas","ispublic":1,"isfriend":0,"isfamily":0},{"id":"36773100094","owner":"129889550@N05","secret":"bd88ef7b2b","server":"4513","farm":5,"title":"Lesser Goldfinches (Spinus psaltria)","ispublic":1,"isfriend":0,"isfamily":0},{"id":"36503793514","owner":"21558080@N07","secret":"5f81ce835d","server":"4357","farm":5,"title":"American Goldfinch (Spinus tristis) (sp. # 211)","ispublic":1,"isfriend":0,"isfamily":0},{"id":"33642157724","owner":"88978913@N08","secret":"a0f7daa0ce","server":"4175","farm":5,"title":"American goldfinch, Spinus tristis","ispublic":1,"isfriend":0,"isfamily":0},{"id":"32956351933","owner":"21558080@N07","secret":"535911954e","server":"3955","farm":4,"title":"Lesser Goldfinch (Female) (Spinus psaltria) (sp. # 162)","ispublic":1,"isfriend":0,"isfamily":0},{"id":"31297793363","owner":"88978913@N08","secret":"0cdc60a5a9","server":"568","farm":1,"title":"American goldfinch, Spinus tristis","ispublic":1,"isfriend":0,"isfamily":0},{"id":"30369160213","owner":"88978913@N08","secret":"6400417824","server":"5764","farm":6,"title":"American goldfinch, Spinus tristis","ispublic":1,"isfriend":0,"isfamily":0},{"id":"28926705926","owner":"133972384@N04","secret":"3c04f15cf4","server":"8559","farm":9,"title":"all you can eat...","ispublic":1,"isfriend":0,"isfamily":0},{"id":"27598524683","owner":"42583639@N06","secret":"9a4fca6708","server":"7227","farm":8,"title":"Siskin (f) - Carduelis spinus","ispublic":1,"isfriend":0,"isfamily":0},{"id":"27097308622","owner":"88978913@N08","secret":"645b288648","server":"7742","farm":8,"title":"American goldfinch, Spinus tristis","ispublic":1,"isfriend":0,"isfamily":0},{"id":"23944449291","owner":"7455207@N05","secret":"fb90e52406","server":"1710","farm":2,"title":"Lluer \/ Eurasian siskin","ispublic":1,"isfriend":0,"isfamily":0},{"id":"21052387321","owner":"97303805@N00","secret":"e8b9c9dfba","server":"5618","farm":6,"title":"Eastern Goldfinch - Cattus Island NJ","ispublic":1,"isfriend":0,"isfamily":0},{"id":"18640236822","owner":"71833159@N00","secret":"32357636ff","server":"263","farm":1,"title":"American Goldfinch female with Sunflower seed","ispublic":1,"isfriend":0,"isfamily":0},{"id":"16573626883","owner":"50520319@N04","secret":"84184fe8c8","server":"8736","farm":9,"title":"American Goldfinch (Transitioning Male)","ispublic":1,"isfriend":0,"isfamily":0},{"id":"17017337058","owner":"77961316@N06","secret":"5a551a5385","server":"7683","farm":8,"title":"Spring is here!","ispublic":1,"isfriend":0,"isfamily":0},{"id":"16532167700","owner":"34238008@N02","secret":"82a9695c83","server":"8620","farm":9,"title":"American Goldfinch (Spinus tristis)","ispublic":1,"isfriend":0,"isfamily":0},{"id":"16718513742","owner":"34238008@N02","secret":"3fc908a73d","server":"8593","farm":9,"title":"American Goldfinch (Spinus tristis)","ispublic":1,"isfriend":0,"isfamily":0},{"id":"12277992694","owner":"9245061@N08","secret":"8128266a1e","server":"2883","farm":3,"title":"American Goldfinch -Spinus tristis","ispublic":1,"isfriend":0,"isfamily":0},{"id":"2496650146","owner":"73431753@N00","secret":"f876fb3d72","server":"3232","farm":4,"title":"Lesser Goldfinch","ispublic":1,"isfriend":0,"isfamily":0},{"id":"51578485853","owner":"9360144@N07","secret":"1be6c20d4e","server":"65535","farm":66,"title":"American goldfinch and thistles","ispublic":1,"isfriend":0,"isfamily":0},{"id":"51275126688","owner":"185443397@N07","secret":"3a25d554e5","server":"65535","farm":66,"title":"Lesser Goldfinch (Spinus psaltria)","ispublic":1,"isfriend":0,"isfamily":0},{"id":"50864727632","owner":"146625998@N05","secret":"56e8c4fd9b","server":"65535","farm":66,"title":"American Goldfinch, leucistic: by Jim Swartwood 1\/20\/20 Jefferson County KY","ispublic":1,"isfriend":0,"isfamily":0},{"id":"50864726792","owner":"146625998@N05","secret":"0db7aaf046","server":"65535","farm":66,"title":"American Goldfinch, leucistic: by Jim Swartwood 1\/20\/20 Jefferson County KY","ispublic":1,"isfriend":0,"isfamily":0},{"id":"50848550378","owner":"146625998@N05","secret":"02a8372f28","server":"65535","farm":66,"title":"American Goldfinch: by Jim Swartwood 1\/9\/21 Jefferson County KY","ispublic":1,"isfriend":0,"isfamily":0},{"id":"50692852917","owner":"185443397@N07","secret":"7ff678a917","server":"65535","farm":66,"title":"Lesser Goldfinch (Spinus psaltria)","ispublic":1,"isfriend":0,"isfamily":0},{"id":"50471623121","owner":"185443397@N07","secret":"6235ef1a8b","server":"65535","farm":66,"title":"Lesser Goldfinch (Spinus psaltria)","ispublic":1,"isfriend":0,"isfamily":0},{"id":"50470924268","owner":"185443397@N07","secret":"4f74ed2418","server":"65535","farm":66,"title":"Lesser Goldfinch (Spinus psaltria)","ispublic":1,"isfriend":0,"isfamily":0},{"id":"50450000213","owner":"88978913@N08","secret":"723e563346","server":"65535","farm":66,"title":"American Goldfinch,  Spinus tristis","ispublic":1,"isfriend":0,"isfamily":0},{"id":"50155910952","owner":"9360144@N07","secret":"edaba5b52d","server":"65535","farm":66,"title":"American goldfinch","ispublic":1,"isfriend":0,"isfamily":0},{"id":"48268153047","owner":"57465751@N05","secret":"d962d7c7dc","server":"65535","farm":66,"title":"Lawrence's Goldfinch (Spinus lawrencei), juvenile, Anderson Marsh SP, Lake Co., CA","ispublic":1,"isfriend":0,"isfamily":0},{"id":"48268135692","owner":"57465751@N05","secret":"a3dac65753","server":"65535","farm":66,"title":"Lawrence's Goldfinch (Spinus lawrencei), Anderson Marsh SP, Lake Co., CA","ispublic":1,"isfriend":0,"isfamily":0},{"id":"43968678695","owner":"134270033@N06","secret":"4f50dc0d31","server":"1958","farm":2,"title":"HTT :: Happy Twosday Tuesday","ispublic":1,"isfriend":0,"isfamily":0},{"id":"40611332095","owner":"125723802@N05","secret":"d8b429b357","server":"879","farm":1,"title":"Spinus psaltria - Lesser Goldfinch","ispublic":1,"isfriend":0,"isfamily":0},{"id":"41473797301","owner":"133972384@N04","secret":"26e47573f3","server":"822","farm":1,"title":"american goldfinch","ispublic":1,"isfriend":0,"isfamily":0},{"id":"39951853664","owner":"154347912@N05","secret":"3edb409161","server":"4659","farm":5,"title":"Lesser goldfinch (Spinus psaltria)","ispublic":1,"isfriend":0,"isfamily":0},{"id":"38463530640","owner":"154347912@N05","secret":"bb83ed0798","server":"4667","farm":5,"title":"Lesser goldfinch (Spinus psaltria)","ispublic":1,"isfriend":0,"isfamily":0},{"id":"40273435831","owner":"154347912@N05","secret":"702228d554","server":"4709","farm":5,"title":"Lesser goldfinch (Spinus psaltria)","ispublic":1,"isfriend":0,"isfamily":0},{"id":"38020055621","owner":"156513724@N05","secret":"30a6c23e4f","server":"4468","farm":5,"title":"American Goldfinch","ispublic":1,"isfriend":0,"isfamily":0},{"id":"28245073930","owner":"123979267@N05","secret":"e4ba2f23bc","server":"8824","farm":9,"title":"Lesser Goldfinch","ispublic":1,"isfriend":0,"isfamily":0},{"id":"28120244851","owner":"17654080@N08","secret":"62aff88ae6","server":"7548","farm":8,"title":"American Goldfinch, male (Spinus tristis)","ispublic":1,"isfriend":0,"isfamily":0},{"id":"25427131154","owner":"41488860@N05","secret":"70098bc219","server":"1518","farm":2,"title":"Lawrence's Goldfinch-4-lg","ispublic":1,"isfriend":0,"isfamily":0},{"id":"22019805480","owner":"129889550@N05","secret":"5468bc4a23","server":"742","farm":1,"title":"Lesser Goldfinch, Female (Spinus psaltria)","ispublic":1,"isfriend":0,"isfamily":0},{"id":"22195155162","owner":"129889550@N05","secret":"453fb1dba3","server":"5650","farm":6,"title":"Lesser Goldfinch, Male (Spinus psaltria)","ispublic":1,"isfriend":0,"isfamily":0},{"id":"18142909314","owner":"97303805@N00","secret":"432c38c249","server":"340","farm":1,"title":"Birds of Forsythe - American Goldfinch | 2015 - 1","ispublic":1,"isfriend":0,"isfamily":0},{"id":"18760610162","owner":"97303805@N00","secret":"088dd33924","server":"369","farm":1,"title":"Birds of Forsythe - American Goldfinch | 2015 - 2","ispublic":1,"isfriend":0,"isfamily":0},{"id":"18608606691","owner":"71833159@N00","secret":"054ebb2630","server":"491","farm":1,"title":"A lovely splash of colour","ispublic":1,"isfriend":0,"isfamily":0},{"id":"17501687476","owner":"26803925@N05","secret":"2f94b43c3f","server":"8830","farm":9,"title":"American Goldfinch (Spinus tristis) 05-04-2015 Big Run SP, Garrett Co. MD 2","ispublic":1,"isfriend":0,"isfamily":0},{"id":"16554350313","owner":"103722035@N06","secret":"3d5c794a85","server":"7692","farm":8,"title":"Lesser Goldfinch (Spinus psaltria), Kartchner Caverns SP, AZ","ispublic":1,"isfriend":0,"isfamily":0},{"id":"17174501945","owner":"103722035@N06","secret":"fd03486bab","server":"7674","farm":8,"title":"Lesser Goldfinch (Spinus psaltria), Kartchner Caverns SP, AZ","ispublic":1,"isfriend":0,"isfamily":0},{"id":"16967097007","owner":"103722035@N06","secret":"5cdf15c41c","server":"8788","farm":9,"title":"Lesser Goldfinch (Spinus psaltria), Kartchner Caverns SP, AZ","ispublic":1,"isfriend":0,"isfamily":0},{"id":"16552066014","owner":"103722035@N06","secret":"2082b27696","server":"7656","farm":8,"title":"Lesser Goldfinch (Spinus psaltria), Kartchner Caverns SP, AZ","ispublic":1,"isfriend":0,"isfamily":0},{"id":"16532168670","owner":"34238008@N02","secret":"f1fc2c563c","server":"8602","farm":9,"title":"American Goldfinch (Spinus tristis)","ispublic":1,"isfriend":0,"isfamily":0},{"id":"16079416201","owner":"34238008@N02","secret":"92c9d3dba1","server":"7553","farm":8,"title":"American Goldfinch (Spinus tristis)","ispublic":1,"isfriend":0,"isfamily":0},{"id":"15868614986","owner":"46417852@N00","secret":"a7cfa3e08e","server":"7530","farm":8,"title":"American Goldfinch (Spinus tristis) -- Cape May Point SP","ispublic":1,"isfriend":0,"isfamily":0},{"id":"15707133690","owner":"46417852@N00","secret":"b03f4e433f","server":"8634","farm":9,"title":"American Goldfinch (Spinus tristis) -- Cape May Point SP","ispublic":1,"isfriend":0,"isfamily":0},{"id":"14799531317","owner":"17373191@N00","secret":"ba9425696a","server":"3911","farm":4,"title":"Sunset Goldfinch","ispublic":1,"isfriend":0,"isfamily":0},{"id":"5655173469","owner":"41750284@N02","secret":"a7c5ffb7ce","server":"5024","farm":6,"title":"American Goldfinch Spinus tristis","ispublic":1,"isfriend":0,"isfamily":0},{"id":"5655171577","owner":"41750284@N02","secret":"bd6d39dac0","server":"5182","farm":6,"title":"American Goldfinch Spinus tristis","ispublic":1,"isfriend":0,"isfamily":0}]},"stat":"ok"}