{"photos":{"page":1,"pages":24,"perpage":100,"total":2398,"photo":[{"id":"52709873493","owner":"195537536@N03","secret":"b9b99a508c","server":"65535","farm":66,"title":"Northern Rough-winged Swallow (Stelgidopteryx serripennis)","ispublic":1,"isfriend":0,"isfamily":0},{"id":"52651641610","owner":"132165466@N08","secret":"e71dc3bf6a","server":"65535","farm":66,"title":"Northern Rough-winged Swallow","ispublic":1,"isfriend":0,"isfamily":0},{"id":"52580416686","owner":"153973412@N04","secret":"9d22327f94","server":"65535","farm":66,"title":"Northern Rough Winged Swallow-Stelgidopteryx serripennis, Iowa City, IA","ispublic":1,"isfriend":0,"isfamily":0},{"id":"52538065644","owner":"39617069@N08","secret":"ae809a3918","server":"65535","farm":66,"title":"Northern Rough-winged Swallow","ispublic":1,"isfriend":0,"isfamily":0},{"id":"52529790629","owner":"28499865@N07","secret":"474082329d","server":"65535","farm":66,"title":"Northern Rough-winged Swallow - Stelgidopteryx serripennis","ispublic":1,"isfriend":0,"isfamily":0},{"id":"52373106020","owner":"145287509@N03","secret":"f1c63058d9","server":"65535","farm":66,"title":"Northern Rough-winged Swallow (Stelgidopteryx serripennis)","ispublic":1,"isfriend":0,"isfamily":0},{"id":"52351434846","owner":"23020855@N03","secret":"797c830e79","server":"65535","farm":66,"title":"Northern Rough-winged Swallow - Sloss Lake, AL","ispublic":1,"isfriend":0,"isfamily":0},{"id":"52329395701","owner":"8666250@N02","secret":"94748d56fa","server":"65535","farm":66,"title":"Northern Rough-winged Swallow -01","ispublic":1,"isfriend":0,"isfamily":0},{"id":"52329826585","owner":"8666250@N02","secret":"0a593b5574","server":"65535","farm":66,"title":"Northern Rough-winged Swallow -02","ispublic":1,"isfriend":0,"isfamily":0},{"id":"52327933444","owner":"196264892@N08","secret":"3b6a00b2b8","server":"65535","farm":66,"title":"Rough-winged Swallow","ispublic":1,"isfriend":0,"isfamily":0},{"id":"52326682747","owner":"196264892@N08","secret":"85d73b181d","server":"65535","farm":66,"title":"Rough-winged Swallow","ispublic":1,"isfriend":0,"isfamily":0},{"id":"52327637531","owner":"196264892@N08","secret":"ab4548f58a","server":"65535","farm":66,"title":"Rough-winged Swallow","ispublic":1,"isfriend":0,"isfamily":0},{"id":"52313416885","owner":"196264892@N08","secret":"26df0f9ae6","server":"65535","farm":66,"title":"N. Rough-winged Swallow","ispublic":1,"isfriend":0,"isfamily":0},{"id":"52313416720","owner":"196264892@N08","secret":"1ba9814ff6","server":"65535","farm":66,"title":"N. Rough-winged Swallow","ispublic":1,"isfriend":0,"isfamily":0},{"id":"52311610094","owner":"65148649@N04","secret":"7961a8ef94","server":"65535","farm":66,"title":"Northern Rough-Winged Swallow","ispublic":1,"isfriend":0,"isfamily":0},{"id":"52311610104","owner":"65148649@N04","secret":"ae3e3b6289","server":"65535","farm":66,"title":"Northern Rough-Winged Swallow","ispublic":1,"isfriend":0,"isfamily":0},{"id":"52311609414","owner":"65148649@N04","secret":"f53fb17b1e","server":"65535","farm":66,"title":"Northern Rough-Winged Swallow","ispublic":1,"isfriend":0,"isfamily":0},{"id":"52309137617","owner":"34238008@N02","secret":"d18f031244","server":"65535","farm":66,"title":"Northern Rough-winged Swallow (Stelgidopteryx serripennis)","ispublic":1,"isfriend":0,"isfamily":0},{"id":"52309137572","owner":"34238008@N02","secret":"48ec186082","server":"65535","farm":66,"title":"Northern Rough-winged Swallow (Stelgidopteryx serripennis)","ispublic":1,"isfriend":0,"isfamily":0},{"id":"52309137497","owner":"34238008@N02","secret":"215606c589","server":"65535","farm":66,"title":"Northern Rough-winged Swallow (Stelgidopteryx serripennis)","ispublic":1,"isfriend":0,"isfamily":0},{"id":"52310327083","owner":"34238008@N02","secret":"9e2ca5eb2a","server":"65535","farm":66,"title":"Northern Rough-winged Swallow (Stelgidopteryx serripennis)","ispublic":1,"isfriend":0,"isfamily":0},{"id":"52308756898","owner":"196264892@N08","secret":"c192e2017e","server":"65535","farm":66,"title":"Northern Rough-winged Swallow","ispublic":1,"isfriend":0,"isfamily":0},{"id":"52299989187","owner":"119787485@N07","secret":"65a6ce78e1","server":"65535","farm":66,"title":"Northern Rough-Winged Swallow (Stelgidopteryx serripennis serripennis) - 20220424-01","ispublic":1,"isfriend":0,"isfamily":0},{"id":"52291081504","owner":"196264892@N08","secret":"179ce471e9","server":"65535","farm":66,"title":"N. Rough-winged Swallow","ispublic":1,"isfriend":0,"isfamily":0},{"id":"52289166245","owner":"80648919@N08","secret":"763a8f5742","server":"65535","farm":66,"title":"Northern rough-winged Swallow","ispublic":1,"isfriend":0,"isfamily":0},{"id":"52283319982","owner":"8666250@N02","secret":"9a2e15f4bc","server":"65535","farm":66,"title":"Wallai, the wee Rough-wing -09","ispublic":1,"isfriend":0,"isfamily":0},{"id":"52284307378","owner":"8666250@N02","secret":"39f0b85e61","server":"65535","farm":66,"title":"Wallai, the wee Rough-wing -03","ispublic":1,"isfriend":0,"isfamily":0},{"id":"52284307323","owner":"8666250@N02","secret":"e08de4bc1a","server":"65535","farm":66,"title":"Wallai, the wee Rough-wing -02","ispublic":1,"isfriend":0,"isfamily":0},{"id":"52284290101","owner":"8666250@N02","secret":"0bae3a528b","server":"65535","farm":66,"title":"\"Don't ask me about the worm hieroglphics.\"","ispublic":1,"isfriend":0,"isfamily":0},{"id":"52284775045","owner":"8666250@N02","secret":"8761fa90ba","server":"65535","farm":66,"title":"\"They are kinda neat signs, though!","ispublic":1,"isfriend":0,"isfamily":0},{"id":"52280830804","owner":"12185056@N02","secret":"3242b094af","server":"65535","farm":66,"title":"Northern Rough-winged Swallow (Stelgidopteryx serripennis}","ispublic":1,"isfriend":0,"isfamily":0},{"id":"52242893260","owner":"70295563@N00","secret":"054d8052c5","server":"65535","farm":66,"title":"Looking back","ispublic":1,"isfriend":0,"isfamily":0},{"id":"52218073493","owner":"12639178@N07","secret":"1ae7b95ca2","server":"65535","farm":66,"title":"Graukehlschwalbe","ispublic":1,"isfriend":0,"isfamily":0},{"id":"52218056886","owner":"12639178@N07","secret":"1cb0981c4a","server":"65535","farm":66,"title":"Graukehlschwalbe allein auf Stromleitung","ispublic":1,"isfriend":0,"isfamily":0},{"id":"52199319586","owner":"65148649@N04","secret":"57db2b84fe","server":"65535","farm":66,"title":"Northern Rough-Winged Swallow","ispublic":1,"isfriend":0,"isfamily":0},{"id":"52193762735","owner":"78145652@N02","secret":"af9deca4af","server":"65535","farm":66,"title":"Northern Rough-winged Swallow - Stelgidopteryx serripennis","ispublic":1,"isfriend":0,"isfamily":0},{"id":"52192356625","owner":"131708321@N02","secret":"cbe0e429c4","server":"65535","farm":66,"title":"Northern Rough-winged Swallow (Stelgidopteryx serripennis), Toronto, Ontario, Canada","ispublic":1,"isfriend":0,"isfamily":0},{"id":"52187578600","owner":"61396634@N07","secret":"6a0dcb62ef","server":"65535","farm":66,"title":"Northern Rough-winged Swallow","ispublic":1,"isfriend":0,"isfamily":0},{"id":"52184549617","owner":"65148649@N04","secret":"45119a7bd9","server":"65535","farm":66,"title":"Northern Rough-winged Swallow","ispublic":1,"isfriend":0,"isfamily":0},{"id":"52182431189","owner":"63093099@N02","secret":"1ca0226310","server":"65535","farm":66,"title":"Northern Rough-winged Swallows; 20220629; USA-OH-Cleveland","ispublic":1,"isfriend":0,"isfamily":0},{"id":"52182182656","owner":"63093099@N02","secret":"ea65149c77","server":"65535","farm":66,"title":"Northern Rough-winged Swallows; 20220629; USA-OH-Cleveland","ispublic":1,"isfriend":0,"isfamily":0},{"id":"52181160287","owner":"63093099@N02","secret":"41fc9cd9f7","server":"65535","farm":66,"title":"Northern Rough-winged Swallow; 20220629; USA-OH-Cleveland","ispublic":1,"isfriend":0,"isfamily":0},{"id":"52173564222","owner":"8666250@N02","secret":"456186384b","server":"65535","farm":66,"title":"Swallows eschew the light...","ispublic":1,"isfriend":0,"isfamily":0},{"id":"52173564057","owner":"8666250@N02","secret":"0fceb5464e","server":"65535","farm":66,"title":"\"So doncha wannit? I know ya do!\"","ispublic":1,"isfriend":0,"isfamily":0},{"id":"52174998115","owner":"39445433@N02","secret":"fc0df5f31c","server":"65535","farm":66,"title":"Northern Rough-Winged Swallow","ispublic":1,"isfriend":0,"isfamily":0},{"id":"52170769258","owner":"68635735@N02","secret":"9e632a03d8","server":"65535","farm":66,"title":"Northern Rough-winged Swallow (Stelgidopteryx serripennis)","ispublic":1,"isfriend":0,"isfamily":0},{"id":"52170765416","owner":"68635735@N02","secret":"2af83fc75f","server":"65535","farm":66,"title":"Northern Rough-winged Swallow (Stelgidopteryx serripennis)","ispublic":1,"isfriend":0,"isfamily":0},{"id":"52169328150","owner":"65148649@N04","secret":"4910d845db","server":"65535","farm":66,"title":"Northern Rough-Winged Swallow","ispublic":1,"isfriend":0,"isfamily":0},{"id":"52160203850","owner":"20624344@N08","secret":"3f90078100","server":"65535","farm":66,"title":"rough-winged swallow (Stelgidopteryx serripennis)","ispublic":1,"isfriend":0,"isfamily":0},{"id":"52157638313","owner":"34238008@N02","secret":"15c0842b1c","server":"65535","farm":66,"title":"Northern Rough-winged Swallow (Stelgidopteryx serripennis)","ispublic":1,"isfriend":0,"isfamily":0},{"id":"52157871864","owner":"34238008@N02","secret":"79e45e5dd3","server":"65535","farm":66,"title":"Northern Rough-winged Swallow (Stelgidopteryx serripennis)","ispublic":1,"isfriend":0,"isfamily":0},{"id":"52142108986","owner":"95355208@N04","secret":"bc03162c8f","server":"65535","farm":66,"title":"Northern Rough-winged Swallow","ispublic":1,"isfriend":0,"isfamily":0},{"id":"52141790378","owner":"9243885@N07","secret":"3f4e8d8183","server":"65535","farm":66,"title":"2022_06_04_5DMk4_69091","ispublic":1,"isfriend":0,"isfamily":0},{"id":"52141787368","owner":"9243885@N07","secret":"a799ed43af","server":"65535","farm":66,"title":"2022_06_04_5DMk4_69092","ispublic":1,"isfriend":0,"isfamily":0},{"id":"52113282635","owner":"100108154@N02","secret":"781590c32d","server":"65535","farm":66,"title":"3 When You Get An Itch In The Middle Of Your Photo Session","ispublic":1,"isfriend":0,"isfamily":0},{"id":"52113019319","owner":"100108154@N02","secret":"2ca721b4e4","server":"65535","farm":66,"title":"2 Adorable Little Floof","ispublic":1,"isfriend":0,"isfamily":0},{"id":"52112776021","owner":"100108154@N02","secret":"92499ace31","server":"65535","farm":66,"title":"1 Cute Little Swallow","ispublic":1,"isfriend":0,"isfamily":0},{"id":"52110030804","owner":"144980256@N07","secret":"8986f1fb96","server":"65535","farm":66,"title":"Northern Rough-winged Swallow (Stelgidopteryx serripennis)","ispublic":1,"isfriend":0,"isfamily":0},{"id":"52092090514","owner":"78919200@N08","secret":"bd113527ba","server":"65535","farm":66,"title":"Northern Rough-winged Swallow (Stelgidopteryx serripennis)","ispublic":1,"isfriend":0,"isfamily":0},{"id":"52087548065","owner":"128537732@N06","secret":"93fe4c63ea","server":"65535","farm":66,"title":"Northern Rough-winged Swallow (Stelgidopteryx serripennis)","ispublic":1,"isfriend":0,"isfamily":0},{"id":"52081283038","owner":"17654080@N08","secret":"abe9f9561c","server":"65535","farm":66,"title":"Northern Rough-winged Swallow (Stelgidopteryx serripennis)","ispublic":1,"isfriend":0,"isfamily":0},{"id":"52081505304","owner":"17654080@N08","secret":"ba07138d25","server":"65535","farm":66,"title":"Northern Rough-winged Swallow (Stelgidopteryx serripennis)","ispublic":1,"isfriend":0,"isfamily":0},{"id":"52060612855","owner":"18378985@N08","secret":"1f32579d9a","server":"65535","farm":66,"title":"Northern Rough-winged Swallows at the Nojoshing Trail","ispublic":1,"isfriend":0,"isfamily":0},{"id":"52058342817","owner":"18378985@N08","secret":"d10ddf729b","server":"65535","farm":66,"title":"Northern Rough-winged Swallow","ispublic":1,"isfriend":0,"isfamily":0},{"id":"52056095972","owner":"144980256@N07","secret":"8c1eeba773","server":"65535","farm":66,"title":"Northern Rough-winged Swallow (Stelgidopteryx serripennis)","ispublic":1,"isfriend":0,"isfamily":0},{"id":"52043952699","owner":"79299153@N05","secret":"181db5f868","server":"65535","farm":66,"title":"Northern Rough-winged Swallow","ispublic":1,"isfriend":0,"isfamily":0},{"id":"52040443999","owner":"41710899@N08","secret":"ddb8e4bb34","server":"65535","farm":66,"title":"Northern Rough-winged Swallow","ispublic":1,"isfriend":0,"isfamily":0},{"id":"52039934445","owner":"69812270@N00","secret":"47172dcd6c","server":"65535","farm":66,"title":"I thought I found a Bank Swallow!","ispublic":1,"isfriend":0,"isfamily":0},{"id":"52038727444","owner":"78919200@N08","secret":"24bcbf368a","server":"65535","farm":66,"title":"Northen Rough-winged Swallow (Stelgidopteryx serripennis)","ispublic":1,"isfriend":0,"isfamily":0},{"id":"52037436197","owner":"78919200@N08","secret":"3f8730c45e","server":"65535","farm":66,"title":"Northen Rough-winged Swallow (Stelgidopteryx serripennis)","ispublic":1,"isfriend":0,"isfamily":0},{"id":"52037123023","owner":"48311154@N02","secret":"5e2e831b40","server":"65535","farm":66,"title":"Northern Rough-winged Swallow at the pond","ispublic":1,"isfriend":0,"isfamily":0},{"id":"52034930635","owner":"26371261@N00","secret":"33cc3d56fe","server":"65535","farm":66,"title":"Northern Rough-winged Swallow, Stelgidopteryx serripennis","ispublic":1,"isfriend":0,"isfamily":0},{"id":"52414555417","owner":"84169650@N07","secret":"7f557c25e9","server":"65535","farm":66,"title":"Northern Rough Winged Swallow","ispublic":1,"isfriend":0,"isfamily":0},{"id":"52294396206","owner":"8666250@N02","secret":"e38fa30bd1","server":"65535","farm":66,"title":"After the bath....","ispublic":1,"isfriend":0,"isfamily":0},{"id":"52244120837","owner":"8666250@N02","secret":"9893c9fc63","server":"65535","farm":66,"title":"N Rough-winged at Arboretum -01","ispublic":1,"isfriend":0,"isfamily":0},{"id":"52245096901","owner":"8666250@N02","secret":"44d2c388ea","server":"65535","farm":66,"title":"N Rough-winged at Arboretum -01 (1)","ispublic":1,"isfriend":0,"isfamily":0},{"id":"52170025915","owner":"34238008@N02","secret":"308316694c","server":"65535","farm":66,"title":"Northern Rough-winged Swallow (Stelgidopteryx serripennis)","ispublic":1,"isfriend":0,"isfamily":0},{"id":"52161320746","owner":"143326780@N02","secret":"fc65090dee","server":"65535","farm":66,"title":"DSCN3826","ispublic":1,"isfriend":0,"isfamily":0},{"id":"52161322403","owner":"143326780@N02","secret":"0cb8e6bdec","server":"65535","farm":66,"title":"DSCN3835","ispublic":1,"isfriend":0,"isfamily":0},{"id":"52161807030","owner":"143326780@N02","secret":"653ffcf78a","server":"65535","farm":66,"title":"DSCN3846","ispublic":1,"isfriend":0,"isfamily":0},{"id":"52161556889","owner":"143326780@N02","secret":"c15294f095","server":"65535","farm":66,"title":"DSCN3847","ispublic":1,"isfriend":0,"isfamily":0},{"id":"52161556799","owner":"143326780@N02","secret":"562faa6fb5","server":"65535","farm":66,"title":"DSCN3851","ispublic":1,"isfriend":0,"isfamily":0},{"id":"52161322113","owner":"143326780@N02","secret":"34f56690fd","server":"65535","farm":66,"title":"DSCN3855","ispublic":1,"isfriend":0,"isfamily":0},{"id":"52161320351","owner":"143326780@N02","secret":"6dbe4d7f08","server":"65535","farm":66,"title":"DSCN3861","ispublic":1,"isfriend":0,"isfamily":0},{"id":"52161321973","owner":"143326780@N02","secret":"c70258224b","server":"65535","farm":66,"title":"DSCN3863","ispublic":1,"isfriend":0,"isfamily":0},{"id":"52161320171","owner":"143326780@N02","secret":"4e49c553de","server":"65535","farm":66,"title":"DSCN3872","ispublic":1,"isfriend":0,"isfamily":0},{"id":"52161321853","owner":"143326780@N02","secret":"a98335ae4c","server":"65535","farm":66,"title":"DSCN3873","ispublic":1,"isfriend":0,"isfamily":0},{"id":"52161556324","owner":"143326780@N02","secret":"09697ec8e1","server":"65535","farm":66,"title":"DSCN3876","ispublic":1,"isfriend":0,"isfamily":0},{"id":"52161314603","owner":"143326780@N02","secret":"d02db79588","server":"65535","farm":66,"title":"DSCN3862","ispublic":1,"isfriend":0,"isfamily":0},{"id":"52145242666","owner":"62043870@N05","secret":"4563c05114","server":"65535","farm":66,"title":"Northern Rough-winged Swallow, Stelgidopteryx serripennis","ispublic":1,"isfriend":0,"isfamily":0},{"id":"52143610511","owner":"193250255@N08","secret":"bd9de14992","server":"65535","farm":66,"title":"139 Northern Rough-winged swallow","ispublic":1,"isfriend":0,"isfamily":0},{"id":"52139481551","owner":"144980256@N07","secret":"0cb75a7735","server":"65535","farm":66,"title":"Northern Rough-winged Swallow (Stelgidopteryx serripennis)","ispublic":1,"isfriend":0,"isfamily":0},{"id":"52125084106","owner":"144980256@N07","secret":"40e189e7f7","server":"65535","farm":66,"title":"Northern Rough-winged Swallow (Stelgidopteryx serripennis)","ispublic":1,"isfriend":0,"isfamily":0},{"id":"52102487972","owner":"8666250@N02","secret":"74dcddc715","server":"65535","farm":66,"title":"Northern Rough-winged Swallow -03","ispublic":1,"isfriend":0,"isfamily":0},{"id":"52102486882","owner":"8666250@N02","secret":"4f5301dcbf","server":"65535","farm":66,"title":"Swallow in flight","ispublic":1,"isfriend":0,"isfamily":0},{"id":"52082608361","owner":"143326780@N02","secret":"cc1dcee2d4","server":"65535","farm":66,"title":"DSCN8778","ispublic":1,"isfriend":0,"isfamily":0},{"id":"52082846704","owner":"143326780@N02","secret":"89356c6a94","server":"65535","farm":66,"title":"DSCN8779","ispublic":1,"isfriend":0,"isfamily":0},{"id":"52074789276","owner":"62043870@N05","secret":"51a5b8b4af","server":"65535","farm":66,"title":"Northern Rough-winged Swallow, Stelgidopteryx serripennis","ispublic":1,"isfriend":0,"isfamily":0},{"id":"52071498796","owner":"40723658@N05","secret":"e623577d89","server":"65535","farm":66,"title":"Rough-winged Swallow","ispublic":1,"isfriend":0,"isfamily":0},{"id":"52036656978","owner":"128537732@N06","secret":"066bb9f830","server":"65535","farm":66,"title":"Northern Rough-winged Swallow (Stelgidopteryx serripennis)","ispublic":1,"isfriend":0,"isfamily":0}]},"stat":"ok"}