{"photos":{"page":1,"pages":26,"perpage":100,"total":2561,"photo":[{"id":"52724324203","owner":"12639178@N07","secret":"bdd29ded22","server":"65535","farm":66,"title":"Meisenwalds\u00e4nger","ispublic":1,"isfriend":0,"isfamily":0},{"id":"52721014697","owner":"12639178@N07","secret":"42407c40f8","server":"65535","farm":66,"title":"Meisenwalds\u00e4nger","ispublic":1,"isfriend":0,"isfamily":0},{"id":"52718910429","owner":"65788177@N02","secret":"b35a478afd","server":"65535","farm":66,"title":"Northern Parula","ispublic":1,"isfriend":0,"isfamily":0},{"id":"52718395789","owner":"38514062@N03","secret":"6ff1d623d2","server":"65535","farm":66,"title":"Northern Parula (Setophaga americana)","ispublic":1,"isfriend":0,"isfamily":0},{"id":"52718621923","owner":"38514062@N03","secret":"08bb49e509","server":"65535","farm":66,"title":"Northern Parula (Setophaga americana)","ispublic":1,"isfriend":0,"isfamily":0},{"id":"52718069329","owner":"145466593@N08","secret":"0d89095fd3","server":"65535","farm":66,"title":"Northern Parula","ispublic":1,"isfriend":0,"isfamily":0},{"id":"52707171191","owner":"86191812@N07","secret":"4f47fb68bf","server":"65535","farm":66,"title":"Northern Parula (Setophaga americana)","ispublic":1,"isfriend":0,"isfamily":0},{"id":"52694287711","owner":"12639178@N07","secret":"fba0dd0f2c","server":"65535","farm":66,"title":"Meisenwalds\u00e4nger, im Ge\u00e4st schwer auszumachen","ispublic":1,"isfriend":0,"isfamily":0},{"id":"52694698265","owner":"12639178@N07","secret":"08159a635e","server":"65535","farm":66,"title":"Meisenwalds\u00e4nger, ein Wintergast in der Karibik","ispublic":1,"isfriend":0,"isfamily":0},{"id":"52691469361","owner":"34368269@N04","secret":"545cf91b9b","server":"65535","farm":66,"title":"Northern Parula","ispublic":1,"isfriend":0,"isfamily":0},{"id":"52691958973","owner":"34368269@N04","secret":"2355acd705","server":"65535","farm":66,"title":"Northern Parula","ispublic":1,"isfriend":0,"isfamily":0},{"id":"52680119777","owner":"12639178@N07","secret":"d37e49810f","server":"65535","farm":66,"title":"Meist im dichten Bl\u00e4tterwald unterwegs","ispublic":1,"isfriend":0,"isfamily":0},{"id":"52680919749","owner":"12639178@N07","secret":"6185421c6b","server":"65535","farm":66,"title":"Meisenwalds\u00e4nger \u2642 zeigt sich mal kurz","ispublic":1,"isfriend":0,"isfamily":0},{"id":"52680616766","owner":"12639178@N07","secret":"4530f89b68","server":"65535","farm":66,"title":"Meist im dichten Bl\u00e4tterwald versteckt","ispublic":1,"isfriend":0,"isfamily":0},{"id":"52680899059","owner":"12639178@N07","secret":"69076ceea0","server":"65535","farm":66,"title":"Meisenwalds\u00e4nger \u2642, h\u00fcbscher Wintergast","ispublic":1,"isfriend":0,"isfamily":0},{"id":"52660109728","owner":"78145652@N02","secret":"912b096890","server":"65535","farm":66,"title":"Northern Parula - Setophaga americana - The wet look","ispublic":1,"isfriend":0,"isfamily":0},{"id":"52655568413","owner":"78145652@N02","secret":"0fdf6189aa","server":"65535","farm":66,"title":"Northern Parula - Setophaga americana","ispublic":1,"isfriend":0,"isfamily":0},{"id":"52641161226","owner":"196786375@N03","secret":"b31dffb6a4","server":"65535","farm":66,"title":"Northern Parula","ispublic":1,"isfriend":0,"isfamily":0},{"id":"52641417769","owner":"196786375@N03","secret":"60ce720f6a","server":"65535","farm":66,"title":"Northern Parula","ispublic":1,"isfriend":0,"isfamily":0},{"id":"52639376057","owner":"99927961@N06","secret":"feb5e221c9","server":"65535","farm":66,"title":"Rolf Nagel-Fl-17-8262-Setophaga americana","ispublic":1,"isfriend":0,"isfamily":0},{"id":"52596012107","owner":"17654080@N08","secret":"c2721c3d5d","server":"65535","farm":66,"title":"Northern Parula w\/ OCWA- Stratford, CT - 12\/26\/2022","ispublic":1,"isfriend":0,"isfamily":0},{"id":"52596763229","owner":"17654080@N08","secret":"8bf22bff27","server":"65535","farm":66,"title":"Northern Parula, w\/ OCWA - Stratford, CT - 12\/26\/2022","ispublic":1,"isfriend":0,"isfamily":0},{"id":"52596501221","owner":"17654080@N08","secret":"5e12aa5273","server":"65535","farm":66,"title":"Northern Parula - Stratford, CT - 12\/26\/2022","ispublic":1,"isfriend":0,"isfamily":0},{"id":"52587926072","owner":"42622112@N08","secret":"8fdeafa7db","server":"65535","farm":66,"title":"Cigua Parula \/ Setophaga americana \/ Northen Parula","ispublic":1,"isfriend":0,"isfamily":0},{"id":"52587912997","owner":"42622112@N08","secret":"d253efa45d","server":"65535","farm":66,"title":"Cigua Parula \/ Setophaga americana \/ Northen Parula","ispublic":1,"isfriend":0,"isfamily":0},{"id":"52588385136","owner":"42622112@N08","secret":"93004f9c54","server":"65535","farm":66,"title":"Cigua Parula \/ Setophaga americana \/ Northen Parula","ispublic":1,"isfriend":0,"isfamily":0},{"id":"52588798230","owner":"42622112@N08","secret":"49079abfb2","server":"65535","farm":66,"title":"Cigua Parula \/ Setophaga americana \/ Northen Parula","ispublic":1,"isfriend":0,"isfamily":0},{"id":"52588857803","owner":"42622112@N08","secret":"e4e7c55d6d","server":"65535","farm":66,"title":"Cigua Parula \/ Setophaga americana \/ Northen Parula","ispublic":1,"isfriend":0,"isfamily":0},{"id":"52588842363","owner":"42622112@N08","secret":"6b8fb45179","server":"65535","farm":66,"title":"Cigua Parula \/ Setophaga americana \/ Northen Parula","ispublic":1,"isfriend":0,"isfamily":0},{"id":"52579797867","owner":"153973412@N04","secret":"ec827dbba1","server":"65535","farm":66,"title":"Northern Parula-Setophaga americana, Estero Llano Grande, TX","ispublic":1,"isfriend":0,"isfamily":0},{"id":"52576129652","owner":"196567058@N02","secret":"fb97fd99ed","server":"65535","farm":66,"title":"Setophaga fusca - Reinita americana","ispublic":1,"isfriend":0,"isfamily":0},{"id":"52576866859","owner":"196567058@N02","secret":"d4db602524","server":"65535","farm":66,"title":"Setophaga fusca - Reinita americana","ispublic":1,"isfriend":0,"isfamily":0},{"id":"52576866599","owner":"196567058@N02","secret":"ca16916357","server":"65535","farm":66,"title":"Setophaga fusca - Reinita americana","ispublic":1,"isfriend":0,"isfamily":0},{"id":"52560180512","owner":"196840457@N07","secret":"50e69947d0","server":"65535","farm":66,"title":"Northern Parula Singing","ispublic":1,"isfriend":0,"isfamily":0},{"id":"52550715666","owner":"30979614@N07","secret":"dacc6ce6b9","server":"65535","farm":66,"title":"2022-05-13 Montrose Point 6","ispublic":1,"isfriend":0,"isfamily":0},{"id":"52495930960","owner":"64606186@N00","secret":"aca3e73172","server":"65535","farm":66,"title":"Northern parula","ispublic":1,"isfriend":0,"isfamily":0},{"id":"52495930275","owner":"64606186@N00","secret":"56e584efa6","server":"65535","farm":66,"title":"Northern parula","ispublic":1,"isfriend":0,"isfamily":0},{"id":"52495929630","owner":"64606186@N00","secret":"e93d5d9994","server":"65535","farm":66,"title":"Northern parula","ispublic":1,"isfriend":0,"isfamily":0},{"id":"52493304576","owner":"39445433@N02","secret":"f9bd1dcf2f","server":"65535","farm":66,"title":"Northern Parula","ispublic":1,"isfriend":0,"isfamily":0},{"id":"52477048594","owner":"139237357@N06","secret":"ffc4e0c361","server":"65535","farm":66,"title":"Northern Parula","ispublic":1,"isfriend":0,"isfamily":0},{"id":"52471232265","owner":"18217058@N04","secret":"26657f772e","server":"65535","farm":66,"title":"Northern parula \/ Fl\u00e9ttuskr\u00edkja (Setophaga americana)","ispublic":1,"isfriend":0,"isfamily":0},{"id":"52471312468","owner":"18217058@N04","secret":"8291f74451","server":"65535","farm":66,"title":"Northern parula \/ Fl\u00e9ttuskr\u00edkja (Setophaga americana)","ispublic":1,"isfriend":0,"isfamily":0},{"id":"52471045864","owner":"18217058@N04","secret":"481bf73cf8","server":"65535","farm":66,"title":"Northern parula \/ Fl\u00e9ttuskr\u00edkja (Setophaga americana)","ispublic":1,"isfriend":0,"isfamily":0},{"id":"52470771661","owner":"18217058@N04","secret":"7c84ac62d8","server":"65535","farm":66,"title":"Northern parula \/ Fl\u00e9ttuskr\u00edkja (Setophaga americana)","ispublic":1,"isfriend":0,"isfamily":0},{"id":"52471220965","owner":"18217058@N04","secret":"7d781d50ea","server":"65535","farm":66,"title":"Northern parula \/ Fl\u00e9ttuskr\u00edkja (Setophaga americana)","ispublic":1,"isfriend":0,"isfamily":0},{"id":"52470262252","owner":"18217058@N04","secret":"f93fde1435","server":"65535","farm":66,"title":"Northern parula \/ Fl\u00e9ttuskr\u00edkja (Setophaga americana)","ispublic":1,"isfriend":0,"isfamily":0},{"id":"52470261912","owner":"18217058@N04","secret":"820fdc0380","server":"65535","farm":66,"title":"Northern parula \/ Fl\u00e9ttuskr\u00edkja (Setophaga americana)","ispublic":1,"isfriend":0,"isfamily":0},{"id":"52470261702","owner":"18217058@N04","secret":"0129fb3f7d","server":"65535","farm":66,"title":"Northern parula \/ Fl\u00e9ttuskr\u00edkja (Setophaga americana)","ispublic":1,"isfriend":0,"isfamily":0},{"id":"52467254149","owner":"18217058@N04","secret":"970a506c82","server":"65535","farm":66,"title":"Northern parula \/ Fl\u00e9ttuskr\u00edkja (Setophaga americana)","ispublic":1,"isfriend":0,"isfamily":0},{"id":"52467438340","owner":"18217058@N04","secret":"2de04c1a64","server":"65535","farm":66,"title":"Northern parula \/ Fl\u00e9ttuskr\u00edkja (Setophaga americana)","ispublic":1,"isfriend":0,"isfamily":0},{"id":"52467510823","owner":"18217058@N04","secret":"dffa2bde46","server":"65535","farm":66,"title":"Northern parula \/ Fl\u00e9ttuskr\u00edkja (Setophaga americana)","ispublic":1,"isfriend":0,"isfamily":0},{"id":"52466459707","owner":"18217058@N04","secret":"9eb213b14c","server":"65535","farm":66,"title":"Northern parula \/ Fl\u00e9ttuskr\u00edkja (Setophaga americana)","ispublic":1,"isfriend":0,"isfamily":0},{"id":"52467422500","owner":"18217058@N04","secret":"7336b67c4a","server":"65535","farm":66,"title":"Northern parula \/ Fl\u00e9ttuskr\u00edkja (Setophaga americana)","ispublic":1,"isfriend":0,"isfamily":0},{"id":"52466961706","owner":"18217058@N04","secret":"193dacf18e","server":"65535","farm":66,"title":"Northern parula \/ Fl\u00e9ttuskr\u00edkja (Setophaga americana)","ispublic":1,"isfriend":0,"isfamily":0},{"id":"52467229264","owner":"18217058@N04","secret":"0f8621ce14","server":"65535","farm":66,"title":"Northern parula \/ Fl\u00e9ttuskr\u00edkja (Setophaga americana)","ispublic":1,"isfriend":0,"isfamily":0},{"id":"52466450857","owner":"18217058@N04","secret":"c425697701","server":"65535","farm":66,"title":"Northern parula \/ Fl\u00e9ttuskr\u00edkja (Setophaga americana)","ispublic":1,"isfriend":0,"isfamily":0},{"id":"52467501493","owner":"18217058@N04","secret":"8c510e8bce","server":"65535","farm":66,"title":"Northern parula \/ Fl\u00e9ttuskr\u00edkja (Setophaga americana)","ispublic":1,"isfriend":0,"isfamily":0},{"id":"52459009646","owner":"34368269@N04","secret":"344bf21ced","server":"65535","farm":66,"title":"Northern Parula","ispublic":1,"isfriend":0,"isfamily":0},{"id":"52440463461","owner":"190122705@N03","secret":"6146538e7c","server":"65535","farm":66,"title":"Northern Parula","ispublic":1,"isfriend":0,"isfamily":0},{"id":"52433911773","owner":"79153825@N08","secret":"25ccd29a42","server":"65535","farm":66,"title":"Aves de Rep\u00fablica Dominicana:Ciguita Parula macho inmaduro.(Setophaga americana.) Northern p\u00e1rula.","ispublic":1,"isfriend":0,"isfamily":0},{"id":"52433911738","owner":"79153825@N08","secret":"c9f9a952eb","server":"65535","farm":66,"title":"Aves de Rep\u00fablica Dominicana:Ciguita Parula macho inmaduro.(Setophaga americana.) Northern p\u00e1rula.","ispublic":1,"isfriend":0,"isfamily":0},{"id":"52433846815","owner":"79153825@N08","secret":"5cc756a145","server":"65535","farm":66,"title":"Aves de Rep\u00fablica Dominicana:Ciguita Parula macho inmaduro.(Setophaga americana.) Northern p\u00e1rula.","ispublic":1,"isfriend":0,"isfamily":0},{"id":"52433394551","owner":"79153825@N08","secret":"e567e070d6","server":"65535","farm":66,"title":"Aves de Rep\u00fablica Dominicana:Ciguita Parula macho inmaduro.(Setophaga americana.) Northern p\u00e1rula.","ispublic":1,"isfriend":0,"isfamily":0},{"id":"52433911563","owner":"79153825@N08","secret":"877aa71f6f","server":"65535","farm":66,"title":"Aves de Rep\u00fablica Dominicana:Ciguita Parula macho inmaduro.(Setophaga americana.) Northern p\u00e1rula.","ispublic":1,"isfriend":0,"isfamily":0},{"id":"52433394356","owner":"79153825@N08","secret":"e2903df7a4","server":"65535","farm":66,"title":"Aves de Rep\u00fablica Dominicana:Ciguita Parula macho inmaduro.(Setophaga americana.) Northern p\u00e1rula.","ispublic":1,"isfriend":0,"isfamily":0},{"id":"52430344078","owner":"34368269@N04","secret":"0cb2826d5c","server":"65535","farm":66,"title":"Northern Parula","ispublic":1,"isfriend":0,"isfamily":0},{"id":"52427891631","owner":"39138537@N06","secret":"d3c8b73eb1","server":"65535","farm":66,"title":"Black-and-White Warbler (M. varia) (2), Northern Parula (S. americana) & American Redstart (S. ruticilla)","ispublic":1,"isfriend":0,"isfamily":0},{"id":"52427466199","owner":"39177293@N03","secret":"7d29c3ffe8","server":"65535","farm":66,"title":"Northern Parula","ispublic":1,"isfriend":0,"isfamily":0},{"id":"52420451806","owner":"39511843@N07","secret":"ff01e7a20e","server":"65535","farm":66,"title":"Cape May Warbler (Setophaga tigrina) dining on Verbenaceae- Beautyberry (Callicarpa americana)-3-","ispublic":1,"isfriend":0,"isfamily":0},{"id":"52413017565","owner":"39511843@N07","secret":"a665b0b279","server":"65535","farm":66,"title":"Cape May Warbler (Setophaga tigrina) on Verbenaceae- Beautyberry (Callicarpa americana)--6","ispublic":1,"isfriend":0,"isfamily":0},{"id":"52412573661","owner":"39511843@N07","secret":"7bb1f3f50a","server":"65535","farm":66,"title":"Cape May Warbler (Setophaga tigrina) on Verbenaceae- Beautyberry (Callicarpa americana)-","ispublic":1,"isfriend":0,"isfamily":0},{"id":"52409248458","owner":"8654297@N06","secret":"332dd9deb6","server":"65535","farm":66,"title":"Northern parula in the bath","ispublic":1,"isfriend":0,"isfamily":0},{"id":"52403027998","owner":"145466593@N08","secret":"a87af53e31","server":"65535","farm":66,"title":"Northern Parula  (female, immature)","ispublic":1,"isfriend":0,"isfamily":0},{"id":"52374799381","owner":"49114357@N08","secret":"071c97d7a1","server":"65535","farm":66,"title":"Northern Parula","ispublic":1,"isfriend":0,"isfamily":0},{"id":"52396908236","owner":"70839498@N04","secret":"1d91bbb0ac","server":"65535","farm":66,"title":"Setophaga americana Northern Parula NY SEP 220929 3H3A6067","ispublic":1,"isfriend":0,"isfamily":0},{"id":"52391602596","owner":"128537732@N06","secret":"020da49b3e","server":"65535","farm":66,"title":"Northern Parula (Setophaga americana)","ispublic":1,"isfriend":0,"isfamily":0},{"id":"52391457161","owner":"40723658@N05","secret":"ec40286db9","server":"65535","farm":66,"title":"Northern Parula","ispublic":1,"isfriend":0,"isfamily":0},{"id":"52386923793","owner":"43440320@N04","secret":"aab1d17f23","server":"65535","farm":66,"title":"Northern Parula","ispublic":1,"isfriend":0,"isfamily":0},{"id":"52384281483","owner":"45340210@N05","secret":"5ab156c02e","server":"65535","farm":66,"title":"Full Frontal","ispublic":1,"isfriend":0,"isfamily":0},{"id":"52382002289","owner":"128537732@N06","secret":"fe1d1fbe88","server":"65535","farm":66,"title":"Northern Parula (Setophaga americana)","ispublic":1,"isfriend":0,"isfamily":0},{"id":"52684697244","owner":"12639178@N07","secret":"2db8216138","server":"65535","farm":66,"title":"Kurz mal frei sitzend","ispublic":1,"isfriend":0,"isfamily":0},{"id":"52684414086","owner":"12639178@N07","secret":"54401edd7b","server":"65535","farm":66,"title":"Meisenwalds\u00e4nger meist in den Baumkronen unterwegs","ispublic":1,"isfriend":0,"isfamily":0},{"id":"52681071095","owner":"12639178@N07","secret":"290ebbe4de","server":"65535","farm":66,"title":"R\u00fcckenansicht","ispublic":1,"isfriend":0,"isfamily":0},{"id":"52665406857","owner":"136180232@N08","secret":"b88b4892ba","server":"65535","farm":66,"title":"Northern Parula (Setophaga americana) JTE_2273","ispublic":1,"isfriend":0,"isfamily":0},{"id":"52588819343","owner":"42622112@N08","secret":"273e5eb149","server":"65535","farm":66,"title":"Cigua Parula \/ Setophaga americana \/ Northen Parula","ispublic":1,"isfriend":0,"isfamily":0},{"id":"52587799837","owner":"42622112@N08","secret":"203aa8b092","server":"65535","farm":66,"title":"Cigua Parula \/ Setophaga americana \/ Northen Parula","ispublic":1,"isfriend":0,"isfamily":0},{"id":"52540396949","owner":"7261670@N03","secret":"89924daa50","server":"65535","farm":66,"title":"Northern Parula","ispublic":1,"isfriend":0,"isfamily":0},{"id":"52495454971","owner":"64606186@N00","secret":"8f5e8ae87d","server":"65535","farm":66,"title":"Northern parula","ispublic":1,"isfriend":0,"isfamily":0},{"id":"52495740354","owner":"64606186@N00","secret":"c8cdc4949a","server":"65535","farm":66,"title":"Northern parula","ispublic":1,"isfriend":0,"isfamily":0},{"id":"52495532904","owner":"64557331@N04","secret":"e0a0b6f0cc","server":"65535","farm":66,"title":"Northern Parula - (Setophaga americana)_10012022","ispublic":1,"isfriend":0,"isfamily":0},{"id":"52495245261","owner":"64557331@N04","secret":"ba092781b8","server":"65535","farm":66,"title":"Northern Parula - (Setophaga americana)_06042021","ispublic":1,"isfriend":0,"isfamily":0},{"id":"52495692560","owner":"64557331@N04","secret":"f1933e2bd7","server":"65535","farm":66,"title":"Northern Parula - (Setophaga americana)_10022022","ispublic":1,"isfriend":0,"isfamily":0},{"id":"52493584159","owner":"39445433@N02","secret":"4f6fb1ce04","server":"65535","farm":66,"title":"Northern Parula","ispublic":1,"isfriend":0,"isfamily":0},{"id":"52491168779","owner":"7261670@N03","secret":"7536792d1d","server":"65535","farm":66,"title":"Northern Parula","ispublic":1,"isfriend":0,"isfamily":0},{"id":"52477037229","owner":"7261670@N03","secret":"af1dcacf18","server":"65535","farm":66,"title":"Northern Parula","ispublic":1,"isfriend":0,"isfamily":0},{"id":"52444611144","owner":"13451078@N03","secret":"a40eef9b81","server":"65535","farm":66,"title":"Northern Parula ( Setophaga americana)","ispublic":1,"isfriend":0,"isfamily":0},{"id":"52444584219","owner":"13451078@N03","secret":"0f96ddb257","server":"65535","farm":66,"title":"Northern Parula (Setophaga americana)","ispublic":1,"isfriend":0,"isfamily":0},{"id":"52418064590","owner":"13451078@N03","secret":"a67589d62e","server":"65535","farm":66,"title":"Northern Parula (Setophaga americana)","ispublic":1,"isfriend":0,"isfamily":0},{"id":"52403035838","owner":"7261670@N03","secret":"3979ccba74","server":"65535","farm":66,"title":"Northern Parula","ispublic":1,"isfriend":0,"isfamily":0},{"id":"52390680817","owner":"128537732@N06","secret":"27a57bf663","server":"65535","farm":66,"title":"Northern Parula (Setophaga americana)","ispublic":1,"isfriend":0,"isfamily":0}]},"stat":"ok"}