{"photos":{"page":1,"pages":15,"perpage":100,"total":1430,"photo":[{"id":"52684622479","owner":"196786375@N03","secret":"a6ac9b2de6","server":"65535","farm":66,"title":"Northern Waterthrush","ispublic":1,"isfriend":0,"isfamily":0},{"id":"52669062208","owner":"50264295@N06","secret":"1efe3c97b7","server":"65535","farm":66,"title":"Northern Waterthrush (Parkesia noveboracensis)- SY, FCA","ispublic":1,"isfriend":0,"isfamily":0},{"id":"52668541026","owner":"50264295@N06","secret":"dbb9ef5fe7","server":"65535","farm":66,"title":"Northern Waterthrush (Parkesia noveboracensis)- SY, FCA","ispublic":1,"isfriend":0,"isfamily":0},{"id":"52668034662","owner":"50264295@N06","secret":"1e0d4b25d5","server":"65535","farm":66,"title":"Northern Waterthrush (Parkesia noveboracensis)- SY, FCA","ispublic":1,"isfriend":0,"isfamily":0},{"id":"52620591827","owner":"8654297@N06","secret":"f56cf23ffe","server":"65535","farm":66,"title":"Mudflat stalker","ispublic":1,"isfriend":0,"isfamily":0},{"id":"52580785153","owner":"153973412@N04","secret":"0098c5a050","server":"65535","farm":66,"title":"Northern Waterthrush-Parkesia noveboracensis, Iowa City, IA","ispublic":1,"isfriend":0,"isfamily":0},{"id":"52550937768","owner":"76288515@N07","secret":"11a06616eb","server":"65535","farm":66,"title":"Northern Waterthrush Parkesia noveboracensis","ispublic":1,"isfriend":0,"isfamily":0},{"id":"52543303958","owner":"94074753@N00","secret":"884a3fa838","server":"65535","farm":66,"title":"Cig\u00fcita de r\u00edo \/ Northern Waterthrush \/ Parkesia noveboracensis","ispublic":1,"isfriend":0,"isfamily":0},{"id":"52511143896","owner":"35259356@N06","secret":"d32eae360a","server":"65535","farm":66,"title":"Warbler: Northern Waterthrush","ispublic":1,"isfriend":0,"isfamily":0},{"id":"52502585181","owner":"30638967@N03","secret":"c3a24b7b52","server":"65535","farm":66,"title":"Northern Waterthrush DSC_3738","ispublic":1,"isfriend":0,"isfamily":0},{"id":"52485476164","owner":"39445433@N02","secret":"4ce19b382e","server":"65535","farm":66,"title":"Northern Waterthrush","ispublic":1,"isfriend":0,"isfamily":0},{"id":"52485750123","owner":"39445433@N02","secret":"b86eed218d","server":"65535","farm":66,"title":"Northern Waterthrush","ispublic":1,"isfriend":0,"isfamily":0},{"id":"52471542408","owner":"30638967@N03","secret":"cbd0e643d6","server":"65535","farm":66,"title":"Northern Waterthrush DSC_5208","ispublic":1,"isfriend":0,"isfamily":0},{"id":"52470503097","owner":"30638967@N03","secret":"fa28d068e6","server":"65535","farm":66,"title":"Northern Waterthrush DSC_5231","ispublic":1,"isfriend":0,"isfamily":0},{"id":"52413705278","owner":"10665268@N04","secret":"d94eb2c970","server":"65535","farm":66,"title":"Northern Waterthrush, Multnomah Co., OR_1828(1)","ispublic":1,"isfriend":0,"isfamily":0},{"id":"52413632965","owner":"10665268@N04","secret":"8031e87137","server":"65535","farm":66,"title":"Northern Waterthrush, Multnomah Co., OR_1869(1)","ispublic":1,"isfriend":0,"isfamily":0},{"id":"52413471814","owner":"10665268@N04","secret":"f73986d78b","server":"65535","farm":66,"title":"Northern Waterthrush, Multnomah Co., OR_1870(1)","ispublic":1,"isfriend":0,"isfamily":0},{"id":"52409134523","owner":"147450357@N08","secret":"a3bbb09a02","server":"65535","farm":66,"title":"Paruline des ruisseaux","ispublic":1,"isfriend":0,"isfamily":0},{"id":"52402608591","owner":"21558080@N07","secret":"9792a0abe7","server":"65535","farm":66,"title":"Northern Waterthrush (Parkesia noveboracensis)","ispublic":1,"isfriend":0,"isfamily":0},{"id":"52402922555","owner":"21558080@N07","secret":"732e48dbd0","server":"65535","farm":66,"title":"Northern-Waterthrush (Parkesia noveboracensis) (sp. # 399)","ispublic":1,"isfriend":0,"isfamily":0},{"id":"52390863026","owner":"69387367@N05","secret":"230cfa0d77","server":"65535","farm":66,"title":"Northern_Waterthrush_4161oe","ispublic":1,"isfriend":0,"isfamily":0},{"id":"52390524236","owner":"32320154@N05","secret":"30de0d3bbc","server":"65535","farm":66,"title":"Norther Waterthrush","ispublic":1,"isfriend":0,"isfamily":0},{"id":"52389032208","owner":"129803374@N05","secret":"7ba1137576","server":"65535","farm":66,"title":"Northern Waterthrush (Parkesia noveboracensis)","ispublic":1,"isfriend":0,"isfamily":0},{"id":"52385605142","owner":"125605310@N07","secret":"3dea94bc24","server":"65535","farm":66,"title":"Northern Waterthrush, Parkesia noveboracensis","ispublic":1,"isfriend":0,"isfamily":0},{"id":"52383498887","owner":"62043870@N05","secret":"aed54fdf6e","server":"65535","farm":66,"title":"Northern Waterthrush, Parkesia noveboracensis","ispublic":1,"isfriend":0,"isfamily":0},{"id":"52384431446","owner":"62043870@N05","secret":"0153a4e62a","server":"65535","farm":66,"title":"Northern Waterthrush, Parkesia noveboracensis","ispublic":1,"isfriend":0,"isfamily":0},{"id":"52383496407","owner":"62043870@N05","secret":"7542ab6f91","server":"65535","farm":66,"title":"Northern Waterthrush, Parkesia noveboracensis","ispublic":1,"isfriend":0,"isfamily":0},{"id":"52384857985","owner":"62043870@N05","secret":"647faaecdb","server":"65535","farm":66,"title":"Northern Waterthrush, Parkesia noveboracensis","ispublic":1,"isfriend":0,"isfamily":0},{"id":"52377594616","owner":"190122705@N03","secret":"0e3c2f4c5f","server":"65535","farm":66,"title":"Northern Waterthrush","ispublic":1,"isfriend":0,"isfamily":0},{"id":"52375934608","owner":"103722035@N06","secret":"c7c20dd8b8","server":"0","farm":0,"title":"Northern Waterthrush (Parkesia noveboracensis), Cayucos, CA","ispublic":1,"isfriend":0,"isfamily":0},{"id":"52361896302","owner":"28867468@N08","secret":"cef8ddee76","server":"65535","farm":66,"title":"Northern Waterthrush","ispublic":1,"isfriend":0,"isfamily":0},{"id":"52363258225","owner":"28867468@N08","secret":"8d963308e0","server":"65535","farm":66,"title":"Northern Waterthrush Going for Prey","ispublic":1,"isfriend":0,"isfamily":0},{"id":"52361571594","owner":"103722035@N06","secret":"955100dfb2","server":"65535","farm":66,"title":"Northern Waterthrush (Parkesia noveboracensis), Morro Bay, CA","ispublic":1,"isfriend":0,"isfamily":0},{"id":"52361679255","owner":"103722035@N06","secret":"23cfbc85e2","server":"65535","farm":66,"title":"Northern Waterthrush (Parkesia noveboracensis), Morro Bay, CA","ispublic":1,"isfriend":0,"isfamily":0},{"id":"52361679225","owner":"103722035@N06","secret":"60d43f688b","server":"65535","farm":66,"title":"Northern Waterthrush (Parkesia noveboracensis), Morro Bay, CA","ispublic":1,"isfriend":0,"isfamily":0},{"id":"52361570229","owner":"103722035@N06","secret":"f94505686b","server":"65535","farm":66,"title":"Northern Waterthrush (Parkesia noveboracensis), Morro Bay, CA","ispublic":1,"isfriend":0,"isfamily":0},{"id":"52361493838","owner":"103722035@N06","secret":"47a6991612","server":"65535","farm":66,"title":"Northern Waterthrush (Parkesia noveboracensis), Morro Bay, CA","ispublic":1,"isfriend":0,"isfamily":0},{"id":"52361420808","owner":"103722035@N06","secret":"ff9e43018d","server":"0","farm":0,"title":"Northern Waterthrush (Parkesia noveboracensis), Morro Bay, CA","ispublic":1,"isfriend":0,"isfamily":0},{"id":"52354884707","owner":"196212229@N04","secret":"726d24f6d1","server":"65535","farm":66,"title":"Northern Waterthrush","ispublic":1,"isfriend":0,"isfamily":0},{"id":"52337631999","owner":"103722035@N06","secret":"3b4b22156a","server":"65535","farm":66,"title":"Northern Waterthrush (Parkesia noveboracensis), Los Osos, CA","ispublic":1,"isfriend":0,"isfamily":0},{"id":"52337631944","owner":"103722035@N06","secret":"104037b839","server":"65535","farm":66,"title":"Northern Waterthrush (Parkesia noveboracensis), Los Osos, CA","ispublic":1,"isfriend":0,"isfamily":0},{"id":"52337309831","owner":"103722035@N06","secret":"ccc9300262","server":"0","farm":0,"title":"Northern Waterthrush (Parkesia noveboracensis), Los Osos, CA","ispublic":1,"isfriend":0,"isfamily":0},{"id":"52336497050","owner":"29442760@N00","secret":"296e04a23d","server":"65535","farm":66,"title":"Northern Waterthrush","ispublic":1,"isfriend":0,"isfamily":0},{"id":"52330530905","owner":"69812270@N00","secret":"5ae2edffc3","server":"65535","farm":66,"title":"Northern Waterthrush, Santa Cruz, CA","ispublic":1,"isfriend":0,"isfamily":0},{"id":"52299924812","owner":"155823967@N08","secret":"364336e4b8","server":"65535","farm":66,"title":"Paruline des ruisseaux - Northern Waterthrush","ispublic":1,"isfriend":0,"isfamily":0},{"id":"52274708252","owner":"124995824@N08","secret":"3de9a48208","server":"65535","farm":66,"title":"Northern Waterthrush - Parkesia noveboracensis","ispublic":1,"isfriend":0,"isfamily":0},{"id":"52217427475","owner":"76617062@N08","secret":"93a50fae46","server":"65535","farm":66,"title":"1.27643 Paruline des ruisseaux \/ Parkesia noveboracensis \/ Northern Waterthrush","ispublic":1,"isfriend":0,"isfamily":0},{"id":"52206966877","owner":"65788177@N02","secret":"0f1153907e","server":"65535","farm":66,"title":"Northern Waterthrush","ispublic":1,"isfriend":0,"isfamily":0},{"id":"52192024810","owner":"48014585@N00","secret":"86dc6b6279","server":"65535","farm":66,"title":"Northern Waterthrush","ispublic":1,"isfriend":0,"isfamily":0},{"id":"52170841435","owner":"29170368@N03","secret":"8bf88c8dfd","server":"65535","farm":66,"title":"Northern Waterthrush","ispublic":1,"isfriend":0,"isfamily":0},{"id":"52170178305","owner":"76617062@N08","secret":"c00b1288a5","server":"65535","farm":66,"title":"1.27643 Paruline des ruisseaux \/ Parkesia noveboracensis \/ Northern Waterthrush","ispublic":1,"isfriend":0,"isfamily":0},{"id":"52151869295","owner":"95484108@N07","secret":"3bd3a34ae4","server":"65535","farm":66,"title":"Paruline des ruisseaux \/\/ Northern Waterthrush","ispublic":1,"isfriend":0,"isfamily":0},{"id":"52142875681","owner":"54249623@N08","secret":"074a109ff5","server":"65535","farm":66,"title":"Reinita Acu\u00e1tica, Northern Waterthrush (Parkesia noveboracensis) (Seiurus noveboracensis)","ispublic":1,"isfriend":0,"isfamily":0},{"id":"52130477882","owner":"92361032@N05","secret":"ce6b123ab4","server":"65535","farm":66,"title":"Northern Waterthrush \/ Paruline des ruisseaux ( Richard )","ispublic":1,"isfriend":0,"isfamily":0},{"id":"52113830654","owner":"21154755@N03","secret":"bb2195a05e","server":"65535","farm":66,"title":"_DSC6525-2-4K-4KDCI","ispublic":1,"isfriend":0,"isfamily":0},{"id":"52113583086","owner":"21154755@N03","secret":"846da25a33","server":"65535","farm":66,"title":"_DSC6370-2-4K-4KDCI","ispublic":1,"isfriend":0,"isfamily":0},{"id":"52113615923","owner":"21154755@N03","secret":"6cd8390b94","server":"65535","farm":66,"title":"_DSC8749-4KDCI","ispublic":1,"isfriend":0,"isfamily":0},{"id":"52114086265","owner":"21154755@N03","secret":"4c725aea29","server":"65535","farm":66,"title":"_DSC9120-4KDCI","ispublic":1,"isfriend":0,"isfamily":0},{"id":"52114081985","owner":"21154755@N03","secret":"cd241c2425","server":"65535","farm":66,"title":"_DSC8717-4KDCI","ispublic":1,"isfriend":0,"isfamily":0},{"id":"52108541076","owner":"124995824@N08","secret":"a99b5f7e80","server":"65535","farm":66,"title":"Northern Waterthrush - Parkesia noveboracensis","ispublic":1,"isfriend":0,"isfamily":0},{"id":"52103413961","owner":"95484108@N07","secret":"ca206cb070","server":"65535","farm":66,"title":"Paruline des ruisseaux \/\/ Northern Waterthrush","ispublic":1,"isfriend":0,"isfamily":0},{"id":"52089239358","owner":"79666906@N05","secret":"7a293d1037","server":"65535","farm":66,"title":"Northern Waterthrush","ispublic":1,"isfriend":0,"isfamily":0},{"id":"52165661523","owner":"119468907@N03","secret":"c1bbcf9fbd","server":"0","farm":0,"title":"Paruline des ruisseaux_1146v3","ispublic":1,"isfriend":0,"isfamily":0},{"id":"52165425545","owner":"119468907@N03","secret":"47f340ed01","server":"0","farm":0,"title":"Paruline des ruisseaux_0728","ispublic":1,"isfriend":0,"isfamily":0},{"id":"52164452597","owner":"119468907@N03","secret":"5e0217c2ff","server":"0","farm":0,"title":"Paruline des ruisseaux_0860","ispublic":1,"isfriend":0,"isfamily":0},{"id":"52053280460","owner":"23711298@N07","secret":"f22abe547f","server":"65535","farm":66,"title":"Waterthrush- Northern Waterthrush, Palm Beach County, Green Cay Nature Center And Wetlands","ispublic":1,"isfriend":0,"isfamily":0},{"id":"52051364069","owner":"79666906@N05","secret":"f48afd8d8b","server":"65535","farm":66,"title":"Northern Waterthrush","ispublic":1,"isfriend":0,"isfamily":0},{"id":"52046228136","owner":"40003624@N06","secret":"6922c5d2d8","server":"65535","farm":66,"title":"Northern Waterthrush","ispublic":1,"isfriend":0,"isfamily":0},{"id":"52043670137","owner":"135315828@N06","secret":"3b082b9d73","server":"65535","farm":66,"title":"northern waterthrush","ispublic":1,"isfriend":0,"isfamily":0},{"id":"52039368865","owner":"76617062@N08","secret":"b34891aab2","server":"65535","farm":66,"title":"1.27643 Paruline des ruisseaux \/ Parkesia noveboracensis \/ Northern Waterthrush","ispublic":1,"isfriend":0,"isfamily":0},{"id":"52035327757","owner":"107784905@N04","secret":"9498f51eab","server":"65535","farm":66,"title":"Paruline des ruisseaux - Manuel Antonio\/Puntarenas\/Costa Rica_20211116_131","ispublic":1,"isfriend":0,"isfamily":0},{"id":"52035727974","owner":"61241315@N00","secret":"eac4c46bf9","server":"0","farm":0,"title":"Northern Waterthrush_3647.MP4","ispublic":1,"isfriend":0,"isfamily":0},{"id":"52035477906","owner":"61241315@N00","secret":"c3db83d9d2","server":"65535","farm":66,"title":"Northern Waterthrush_N3626","ispublic":1,"isfriend":0,"isfamily":0},{"id":"52034435477","owner":"61241315@N00","secret":"9e36d0bde1","server":"65535","farm":66,"title":"Northern Waterthrush_N3644","ispublic":1,"isfriend":0,"isfamily":0},{"id":"52024757834","owner":"61241315@N00","secret":"b062d3a079","server":"0","farm":0,"title":"Northern Waterthrush_2736.MP4","ispublic":1,"isfriend":0,"isfamily":0},{"id":"52023466697","owner":"61241315@N00","secret":"47aa3bb57f","server":"0","farm":0,"title":"Northern Waterthrush_2756.MP4","ispublic":1,"isfriend":0,"isfamily":0},{"id":"52549937927","owner":"76288515@N07","secret":"7fc16f8d6d","server":"65535","farm":66,"title":"Northern Waterthrush Parkesia noveboracensis","ispublic":1,"isfriend":0,"isfamily":0},{"id":"52550865285","owner":"76288515@N07","secret":"e282e2dc24","server":"65535","farm":66,"title":"Northern Waterthrush Parkesia noveboracensis","ispublic":1,"isfriend":0,"isfamily":0},{"id":"52550865250","owner":"76288515@N07","secret":"7709b64107","server":"65535","farm":66,"title":"Northern Waterthrush Parkesia noveboracensis","ispublic":1,"isfriend":0,"isfamily":0},{"id":"52550393391","owner":"76288515@N07","secret":"8a1cd7f0c5","server":"65535","farm":66,"title":"Northern Waterthrush Parkesia noveboracensis","ispublic":1,"isfriend":0,"isfamily":0},{"id":"52549937877","owner":"76288515@N07","secret":"7ed41c827a","server":"65535","farm":66,"title":"Northern Waterthrush Parkesia noveboracensis","ispublic":1,"isfriend":0,"isfamily":0},{"id":"52550938028","owner":"76288515@N07","secret":"936c01edfd","server":"65535","farm":66,"title":"Northern Waterthrush Parkesia noveboracensis","ispublic":1,"isfriend":0,"isfamily":0},{"id":"52550938018","owner":"76288515@N07","secret":"e206c6e6ea","server":"65535","farm":66,"title":"Northern Waterthrush Parkesia noveboracensis","ispublic":1,"isfriend":0,"isfamily":0},{"id":"52550689259","owner":"76288515@N07","secret":"bede95fb92","server":"65535","farm":66,"title":"Northern Waterthrush Parkesia noveboracensis","ispublic":1,"isfriend":0,"isfamily":0},{"id":"52550865145","owner":"76288515@N07","secret":"74f791da90","server":"65535","farm":66,"title":"Northern Waterthrush Parkesia noveboracensis","ispublic":1,"isfriend":0,"isfamily":0},{"id":"52550865120","owner":"76288515@N07","secret":"b108f60466","server":"65535","farm":66,"title":"Northern Waterthrush Parkesia noveboracensis","ispublic":1,"isfriend":0,"isfamily":0},{"id":"52550393251","owner":"76288515@N07","secret":"fa8aa2731e","server":"65535","farm":66,"title":"Northern Waterthrush Parkesia noveboracensis","ispublic":1,"isfriend":0,"isfamily":0},{"id":"52550937853","owner":"76288515@N07","secret":"f08091d15f","server":"65535","farm":66,"title":"Northern Waterthrush Parkesia noveboracensis","ispublic":1,"isfriend":0,"isfamily":0},{"id":"52550937743","owner":"76288515@N07","secret":"deea864df9","server":"65535","farm":66,"title":"Northern Waterthrush Parkesia noveboracensis","ispublic":1,"isfriend":0,"isfamily":0},{"id":"52550937718","owner":"76288515@N07","secret":"81484215d8","server":"65535","farm":66,"title":"Northern Waterthrush Parkesia noveboracensis","ispublic":1,"isfriend":0,"isfamily":0},{"id":"52532713226","owner":"33610210@N05","secret":"d548225eec","server":"65535","farm":66,"title":"Northern Waterthrush, Parkesia noveboracensis","ispublic":1,"isfriend":0,"isfamily":0},{"id":"52532993309","owner":"33610210@N05","secret":"8b7bc655f6","server":"65535","farm":66,"title":"Northern Waterthrush, Parkesia noveboracensis","ispublic":1,"isfriend":0,"isfamily":0},{"id":"52532713096","owner":"33610210@N05","secret":"7914eec962","server":"65535","farm":66,"title":"Northern Waterthrush, Parkesia noveboracensis","ispublic":1,"isfriend":0,"isfamily":0},{"id":"52511204548","owner":"124995824@N08","secret":"b2fd1e1aba","server":"65535","farm":66,"title":"Northern Waterthrush - Parkesia noveboracensis","ispublic":1,"isfriend":0,"isfamily":0},{"id":"52247399636","owner":"37493716@N02","secret":"55663ae2d5","server":"65535","farm":66,"title":"Aves Reserva Tit\u00ed Cabeciblanco","ispublic":1,"isfriend":0,"isfamily":0},{"id":"52247897860","owner":"37493716@N02","secret":"15c2a6ec67","server":"65535","farm":66,"title":"Aves Reserva Tit\u00ed Cabeciblanco","ispublic":1,"isfriend":0,"isfamily":0},{"id":"52165556706","owner":"119468907@N03","secret":"675224538a","server":"0","farm":0,"title":"Paruline des ruisseaux_0863","ispublic":1,"isfriend":0,"isfamily":0},{"id":"52165875160","owner":"119468907@N03","secret":"cdd20bbdb7","server":"0","farm":0,"title":"Paruline des ruisseaux_0854","ispublic":1,"isfriend":0,"isfamily":0},{"id":"52030668754","owner":"48938938@N04","secret":"4b9f47d063","server":"65535","farm":66,"title":"Northern Waterthrush_PArkesia noveboracensis_Ascanio_Parque del Este_DZ3A2143","ispublic":1,"isfriend":0,"isfamily":0},{"id":"52030468015","owner":"13451078@N03","secret":"aabfabca0c","server":"65535","farm":66,"title":"Northern Waterthrush (Parkesia noveboracensis)","ispublic":1,"isfriend":0,"isfamily":0}]},"stat":"ok"}