{"photos":{"page":1,"pages":33,"perpage":100,"total":3264,"photo":[{"id":"52793304299","owner":"163667952@N05","secret":"9eebaaa893","server":"65535","farm":66,"title":"Northern Harrier","ispublic":1,"isfriend":0,"isfamily":0},{"id":"52789375459","owner":"61343741@N00","secret":"6d2d272553","server":"65535","farm":66,"title":"Shooting Me a Look","ispublic":1,"isfriend":0,"isfamily":0},{"id":"52787255362","owner":"125605310@N07","secret":"8e6bc631c7","server":"65535","farm":66,"title":"Northern Harrier, Circus hudsonius","ispublic":1,"isfriend":0,"isfamily":0},{"id":"52785228910","owner":"62043870@N05","secret":"52dd28db7d","server":"65535","farm":66,"title":"Northern Harrier, Circus hudsonius","ispublic":1,"isfriend":0,"isfamily":0},{"id":"52785072169","owner":"62043870@N05","secret":"a060f21dcf","server":"65535","farm":66,"title":"Northern Harrier, Circus hudsonius","ispublic":1,"isfriend":0,"isfamily":0},{"id":"52784432676","owner":"67277069@N06","secret":"84b6c01115","server":"65535","farm":66,"title":"Northern Harrier---Circus hudsonius","ispublic":1,"isfriend":0,"isfamily":0},{"id":"52782141921","owner":"185851777@N04","secret":"7df581f4a0","server":"65535","farm":66,"title":"Northern Harrier hawk-female-Circus Hudsonius","ispublic":1,"isfriend":0,"isfamily":0},{"id":"52778903238","owner":"78145652@N02","secret":"524cbb6b7e","server":"65535","farm":66,"title":"Northern Harrier - Circus hudsonius","ispublic":1,"isfriend":0,"isfamily":0},{"id":"52778287323","owner":"154261763@N05","secret":"017974693c","server":"65535","farm":66,"title":"Northern harrier (Circus hudsonius) - Hudsonweihe","ispublic":1,"isfriend":0,"isfamily":0},{"id":"52777803736","owner":"154261763@N05","secret":"cb4432b006","server":"65535","farm":66,"title":"Northern harrier (Circus hudsonius) - Hudsonweihe","ispublic":1,"isfriend":0,"isfamily":0},{"id":"52778058719","owner":"154261763@N05","secret":"8d2fd4dc3e","server":"65535","farm":66,"title":"Northern harrier (Circus hudsonius) - Hudsonweihe","ispublic":1,"isfriend":0,"isfamily":0},{"id":"52775021233","owner":"131037795@N03","secret":"d8fcdc3108","server":"65535","farm":66,"title":"Northern Harrier (Circus hudsonius)","ispublic":1,"isfriend":0,"isfamily":0},{"id":"52774953740","owner":"131037795@N03","secret":"b0091fa32f","server":"65535","farm":66,"title":"Northern Harrier (Circus hudsonius)","ispublic":1,"isfriend":0,"isfamily":0},{"id":"52774953760","owner":"131037795@N03","secret":"d39b56cb92","server":"65535","farm":66,"title":"Northern Harrier (Circus hudsonius)","ispublic":1,"isfriend":0,"isfamily":0},{"id":"52772207756","owner":"34238008@N02","secret":"f6bce17f08","server":"65535","farm":66,"title":"Northern Harrier (Circus hudsonius)","ispublic":1,"isfriend":0,"isfamily":0},{"id":"52770383828","owner":"131037795@N03","secret":"16384e2e10","server":"65535","farm":66,"title":"Northern Harrier (Circus hudsonius)","ispublic":1,"isfriend":0,"isfamily":0},{"id":"52767113314","owner":"185851777@N04","secret":"93a5b4b5e2","server":"65535","farm":66,"title":"Northern Harrier hawk-Circus Hudsonius","ispublic":1,"isfriend":0,"isfamily":0},{"id":"52755273564","owner":"61343741@N00","secret":"852e60df70","server":"65535","farm":66,"title":"Drawing a Bead","ispublic":1,"isfriend":0,"isfamily":0},{"id":"52754903000","owner":"62043870@N05","secret":"774133707c","server":"65535","farm":66,"title":"Northern Harrier, Circus hudsonius","ispublic":1,"isfriend":0,"isfamily":0},{"id":"52748359016","owner":"169335348@N08","secret":"4bacd0f1d5","server":"65535","farm":66,"title":"Northern Harrier-88","ispublic":1,"isfriend":0,"isfamily":0},{"id":"52748852243","owner":"169335348@N08","secret":"5fb85cff64","server":"65535","farm":66,"title":"Northern Harrier-89","ispublic":1,"isfriend":0,"isfamily":0},{"id":"52741638388","owner":"61343741@N00","secret":"6bc2878ecb","server":"65535","farm":66,"title":"The Huntress","ispublic":1,"isfriend":0,"isfamily":0},{"id":"52741338093","owner":"185851777@N04","secret":"c25cd43e8d","server":"65535","farm":66,"title":"Northern Harrier Hawk-Circus hudsonius","ispublic":1,"isfriend":0,"isfamily":0},{"id":"52738759826","owner":"67164820@N06","secret":"236be8d88d","server":"65535","farm":66,"title":"harrier","ispublic":1,"isfriend":0,"isfamily":0},{"id":"52739171340","owner":"67164820@N06","secret":"a696ff64e0","server":"65535","farm":66,"title":"harrier 2","ispublic":1,"isfriend":0,"isfamily":0},{"id":"52738474854","owner":"131037795@N03","secret":"7e7b855029","server":"65535","farm":66,"title":"Northern Harrier (Circus hudsonius)","ispublic":1,"isfriend":0,"isfamily":0},{"id":"52737699047","owner":"131037795@N03","secret":"fa0eee9971","server":"65535","farm":66,"title":"Northern Harrier (Circus hudsonius)","ispublic":1,"isfriend":0,"isfamily":0},{"id":"52736072649","owner":"120449047@N06","secret":"0875888706","server":"65535","farm":66,"title":"Northern Harrier","ispublic":1,"isfriend":0,"isfamily":0},{"id":"52734576230","owner":"163667952@N05","secret":"d5398f6d76","server":"65535","farm":66,"title":"Northern Harrier","ispublic":1,"isfriend":0,"isfamily":0},{"id":"52733347319","owner":"128537732@N06","secret":"ff2e87b8ca","server":"65535","farm":66,"title":"Northern Harrier (Circus hudsonius)","ispublic":1,"isfriend":0,"isfamily":0},{"id":"52732442446","owner":"187792860@N04","secret":"ea9fc8629f","server":"65535","farm":66,"title":"Northern Harrier (Circus hudsonius)","ispublic":1,"isfriend":0,"isfamily":0},{"id":"52727677681","owner":"81058247@N08","secret":"49f8517135","server":"65535","farm":66,"title":"Northern Harrier (Circus hudsonius)","ispublic":1,"isfriend":0,"isfamily":0},{"id":"52728153033","owner":"81058247@N08","secret":"0782342bb0","server":"65535","farm":66,"title":"Northern Harrier (Circus hudsonius)","ispublic":1,"isfriend":0,"isfamily":0},{"id":"52727931049","owner":"81058247@N08","secret":"a81776f69b","server":"65535","farm":66,"title":"Northern Harrier (Circus hudsonius)","ispublic":1,"isfriend":0,"isfamily":0},{"id":"52726920152","owner":"62043870@N05","secret":"55bdbf5666","server":"65535","farm":66,"title":"Northern Harrier, Circus hudsonius (Female)","ispublic":1,"isfriend":0,"isfamily":0},{"id":"52727922573","owner":"62043870@N05","secret":"fdf923943f","server":"65535","farm":66,"title":"Northern Harrier, Circus hudsonius (Male)","ispublic":1,"isfriend":0,"isfamily":0},{"id":"52726144721","owner":"185851777@N04","secret":"5017c9718c","server":"65535","farm":66,"title":"Northern Harrier hawk -Circus hudsonius","ispublic":1,"isfriend":0,"isfamily":0},{"id":"52725192690","owner":"73431753@N00","secret":"cdd5210ea0","server":"65535","farm":66,"title":"Northern Harrier at rest on Laurel Sumac snag","ispublic":1,"isfriend":0,"isfamily":0},{"id":"52719760768","owner":"131037795@N03","secret":"4bfff54d0f","server":"65535","farm":66,"title":"Northern Harrier (Circus cyaneus)","ispublic":1,"isfriend":0,"isfamily":0},{"id":"52718912785","owner":"67277069@N06","secret":"59c149fa40","server":"65535","farm":66,"title":"Northern Harrier---Circus hudsonius","ispublic":1,"isfriend":0,"isfamily":0},{"id":"52718311305","owner":"187792860@N04","secret":"54906ed050","server":"65535","farm":66,"title":"Northern Harrier (Circus hudsonius)","ispublic":1,"isfriend":0,"isfamily":0},{"id":"52718018248","owner":"18158503@N00","secret":"e674fc43f4","server":"65535","farm":66,"title":"Northern Harrier","ispublic":1,"isfriend":0,"isfamily":0},{"id":"52716110121","owner":"26520320@N03","secret":"fa655fb441","server":"65535","farm":66,"title":"_BAP0236","ispublic":1,"isfriend":0,"isfamily":0},{"id":"52716592778","owner":"26520320@N03","secret":"af34fffee9","server":"65535","farm":66,"title":"_BAP0235","ispublic":1,"isfriend":0,"isfamily":0},{"id":"52715587972","owner":"26520320@N03","secret":"befa806e9a","server":"65535","farm":66,"title":"_BAP0232","ispublic":1,"isfriend":0,"isfamily":0},{"id":"52716108361","owner":"26520320@N03","secret":"299ba4fa9c","server":"65535","farm":66,"title":"_BAP0231","ispublic":1,"isfriend":0,"isfamily":0},{"id":"52715587187","owner":"26520320@N03","secret":"9c8ee9f0be","server":"65535","farm":66,"title":"_BAP0229","ispublic":1,"isfriend":0,"isfamily":0},{"id":"52715586857","owner":"26520320@N03","secret":"cfeedb6655","server":"65535","farm":66,"title":"_BAP0228","ispublic":1,"isfriend":0,"isfamily":0},{"id":"52714659690","owner":"144980256@N07","secret":"5d73e247c4","server":"65535","farm":66,"title":"Northern Harrier (Circus hudsonius)","ispublic":1,"isfriend":0,"isfamily":0},{"id":"52710719116","owner":"47533293@N04","secret":"4cd20826b1","server":"65535","farm":66,"title":"Northern harrier, Circus hudsonius","ispublic":1,"isfriend":0,"isfamily":0},{"id":"52709801683","owner":"62043870@N05","secret":"69a69564a9","server":"65535","farm":66,"title":"Northern Harrier, Circus hudsonius","ispublic":1,"isfriend":0,"isfamily":0},{"id":"52708427002","owner":"61396634@N07","secret":"2455856016","server":"65535","farm":66,"title":"Northern Harrier","ispublic":1,"isfriend":0,"isfamily":0},{"id":"52708426877","owner":"61396634@N07","secret":"bbc9588518","server":"65535","farm":66,"title":"Northern Harrier","ispublic":1,"isfriend":0,"isfamily":0},{"id":"52707657405","owner":"185851777@N04","secret":"d572cc59a1","server":"65535","farm":66,"title":"Northen Harrier-Circus hudsonius- grey ghost","ispublic":1,"isfriend":0,"isfamily":0},{"id":"52703704449","owner":"84169650@N07","secret":"538814b984","server":"65535","farm":66,"title":"Northern Harrier","ispublic":1,"isfriend":0,"isfamily":0},{"id":"52702508050","owner":"120449047@N06","secret":"bddff5d218","server":"65535","farm":66,"title":"Northern Harrier","ispublic":1,"isfriend":0,"isfamily":0},{"id":"52701834686","owner":"44801995@N02","secret":"d7e4b4423c","server":"65535","farm":66,"title":"Northern Harrier Circus hudsonius f.","ispublic":1,"isfriend":0,"isfamily":0},{"id":"52702253110","owner":"44801995@N02","secret":"cdb7250477","server":"65535","farm":66,"title":"Northern Harrier Circus hudsonius f.","ispublic":1,"isfriend":0,"isfamily":0},{"id":"52701193512","owner":"62043870@N05","secret":"47fb57f383","server":"65535","farm":66,"title":"Northern Harrier, Circus hudsonius","ispublic":1,"isfriend":0,"isfamily":0},{"id":"52700566789","owner":"34238008@N02","secret":"798cfda09c","server":"65535","farm":66,"title":"Northern Harrier (Circus hudsonius)","ispublic":1,"isfriend":0,"isfamily":0},{"id":"52700305746","owner":"34238008@N02","secret":"395c96be06","server":"65535","farm":66,"title":"Northern Harrier (Circus hudsonius)","ispublic":1,"isfriend":0,"isfamily":0},{"id":"52697438305","owner":"67277069@N06","secret":"2952b24e12","server":"65535","farm":66,"title":"Northern Harrier---Circus hudsonius","ispublic":1,"isfriend":0,"isfamily":0},{"id":"52696914468","owner":"17654080@N08","secret":"e38df9bec0","server":"65535","farm":66,"title":"Northern Harrier, male (Circus hudsonius)","ispublic":1,"isfriend":0,"isfamily":0},{"id":"52696423696","owner":"17654080@N08","secret":"694dd80bae","server":"65535","farm":66,"title":"Northern Harrier, male (Circus hudsonius)","ispublic":1,"isfriend":0,"isfamily":0},{"id":"52694949118","owner":"67277069@N06","secret":"5a9958d738","server":"65535","farm":66,"title":"Northern Harrier---Circus hudsonius","ispublic":1,"isfriend":0,"isfamily":0},{"id":"52691632620","owner":"17612257@N00","secret":"e62d1e3711","server":"65535","farm":66,"title":"Northern Harrier - Bolsa Chica , California","ispublic":1,"isfriend":0,"isfamily":0},{"id":"52690742171","owner":"54683012@N04","secret":"903347faf8","server":"65535","farm":66,"title":"Isn't she beautiful","ispublic":1,"isfriend":0,"isfamily":0},{"id":"52688673834","owner":"165841515@N03","secret":"8da4d99b39","server":"65535","farm":66,"title":"Busard des marais \/ Northern Harrier \/ (Circus hudsonius)","ispublic":1,"isfriend":0,"isfamily":0},{"id":"52687858808","owner":"196264892@N08","secret":"42266c1a00","server":"65535","farm":66,"title":"Northern Harrier female","ispublic":1,"isfriend":0,"isfamily":0},{"id":"52687362346","owner":"196264892@N08","secret":"bd6183b969","server":"65535","farm":66,"title":"Northern Harrier female","ispublic":1,"isfriend":0,"isfamily":0},{"id":"52687639764","owner":"196264892@N08","secret":"2def285dae","server":"65535","farm":66,"title":"Northern Harrier male","ispublic":1,"isfriend":0,"isfamily":0},{"id":"52686843902","owner":"196264892@N08","secret":"ec6c035205","server":"65535","farm":66,"title":"Northern Harrier male","ispublic":1,"isfriend":0,"isfamily":0},{"id":"52685403817","owner":"63093099@N02","secret":"6bdc800aca","server":"65535","farm":66,"title":"Northern Harrier (female\/immature); 20230211; USA-WA-Skagit-Padilla Bay","ispublic":1,"isfriend":0,"isfamily":0},{"id":"52684767919","owner":"7261670@N03","secret":"454b7e135d","server":"65535","farm":66,"title":"Northern Harrier","ispublic":1,"isfriend":0,"isfamily":0},{"id":"52683714582","owner":"67277069@N06","secret":"ff296e0e55","server":"65535","farm":66,"title":"Northern Harrier---Circus hudsonius","ispublic":1,"isfriend":0,"isfamily":0},{"id":"52681315580","owner":"61343741@N00","secret":"aee66e3b6b","server":"65535","farm":66,"title":"Death From Above","ispublic":1,"isfriend":0,"isfamily":0},{"id":"52681164874","owner":"61343741@N00","secret":"04115cf3fa","server":"65535","farm":66,"title":"In the Zone","ispublic":1,"isfriend":0,"isfamily":0},{"id":"52679799270","owner":"185851777@N04","secret":"ac59590005","server":"65535","farm":66,"title":"Northern Harrier- Circus hudsonius (Grey Ghost) Connecticut USA","ispublic":1,"isfriend":0,"isfamily":0},{"id":"52679705395","owner":"44034115@N08","secret":"2226b0a22e","server":"65535","farm":66,"title":"Northern Harrier Coming in Hot","ispublic":1,"isfriend":0,"isfamily":0},{"id":"52678415589","owner":"73431753@N00","secret":"78b2fcb10f","server":"65535","farm":66,"title":"Northern Harrier \"Marsh Hawk\" on a snag at Ballona Wetlands","ispublic":1,"isfriend":0,"isfamily":0},{"id":"52674914556","owner":"67277069@N06","secret":"9c21f0d712","server":"65535","farm":66,"title":"Northern Harrier---Circus hudsonius","ispublic":1,"isfriend":0,"isfamily":0},{"id":"52671570480","owner":"187792860@N04","secret":"dc02d7f3f3","server":"65535","farm":66,"title":"Northern Harrier (Circus hudsonius)","ispublic":1,"isfriend":0,"isfamily":0},{"id":"52671414649","owner":"67277069@N06","secret":"b6d5743baf","server":"65535","farm":66,"title":"Northern Harrier---Circus hudsonius","ispublic":1,"isfriend":0,"isfamily":0},{"id":"52669941113","owner":"74418101@N02","secret":"a4025b9fc4","server":"65535","farm":66,"title":"Northern Harrier ((Circus hudsonius)","ispublic":1,"isfriend":0,"isfamily":0},{"id":"52668270219","owner":"120449047@N06","secret":"970a11a040","server":"65535","farm":66,"title":"Shorties and Harry","ispublic":1,"isfriend":0,"isfamily":0},{"id":"52667222797","owner":"67277069@N06","secret":"f324be97f7","server":"65535","farm":66,"title":"Northern Harrier---Circus hudsonius","ispublic":1,"isfriend":0,"isfamily":0},{"id":"52666983635","owner":"131037795@N03","secret":"4efdcddcee","server":"65535","farm":66,"title":"Northern Harrier (Circus cyaneus)","ispublic":1,"isfriend":0,"isfamily":0},{"id":"52666304814","owner":"67277069@N06","secret":"d6cacc9eb2","server":"65535","farm":66,"title":"Northern Harrier---Circus hudsonius","ispublic":1,"isfriend":0,"isfamily":0},{"id":"52664630372","owner":"13451078@N03","secret":"7e788f29d1","server":"65535","farm":66,"title":"Northern Harrier (Circus hudsonius)","ispublic":1,"isfriend":0,"isfamily":0},{"id":"52664094331","owner":"86569066@N00","secret":"535d09afdc","server":"65535","farm":66,"title":"Harrier in flight","ispublic":1,"isfriend":0,"isfamily":0},{"id":"52664267264","owner":"33610210@N05","secret":"d35b73ac11","server":"65535","farm":66,"title":"Northern Harrier, Circus hudsonius","ispublic":1,"isfriend":0,"isfamily":0},{"id":"52663128545","owner":"131037795@N03","secret":"e908eb662b","server":"65535","farm":66,"title":"Northern Harrier (Circus cyaneus)","ispublic":1,"isfriend":0,"isfamily":0},{"id":"52662346231","owner":"120449047@N06","secret":"fdf3b863c3","server":"65535","farm":66,"title":"Northern Harrier","ispublic":1,"isfriend":0,"isfamily":0},{"id":"52663870953","owner":"73431753@N00","secret":"860afbcb65","server":"65535","farm":66,"title":"Northern Harrier visiting a snag","ispublic":1,"isfriend":0,"isfamily":0},{"id":"52661555038","owner":"137525873@N08","secret":"384d1c928f","server":"65535","farm":66,"title":"Flyby","ispublic":1,"isfriend":0,"isfamily":0},{"id":"52716109276","owner":"26520320@N03","secret":"16aac462c6","server":"65535","farm":66,"title":"_BAP0234","ispublic":1,"isfriend":0,"isfamily":0},{"id":"52716366869","owner":"26520320@N03","secret":"104b789b4b","server":"65535","farm":66,"title":"_BAP0227","ispublic":1,"isfriend":0,"isfamily":0},{"id":"52670114002","owner":"81058247@N08","secret":"d78f3b371f","server":"65535","farm":66,"title":"Northern Harrier (Circus hudsonius)","ispublic":1,"isfriend":0,"isfamily":0},{"id":"52668940767","owner":"74418101@N02","secret":"12d3e45733","server":"65535","farm":66,"title":"Northern Harrier ((Circus hudsonius)","ispublic":1,"isfriend":0,"isfamily":0},{"id":"52665070502","owner":"14572247@N07","secret":"b464f957b1","server":"65535","farm":66,"title":"Marsh Hawk","ispublic":1,"isfriend":0,"isfamily":0}]},"stat":"ok"}