{"photos":{"page":1,"pages":102,"perpage":100,"total":10198,"photo":[{"id":"52721857151","owner":"128369733@N04","secret":"ce56025d84","server":"65535","farm":66,"title":"A Little Wet Behind","ispublic":1,"isfriend":0,"isfamily":0},{"id":"52719831098","owner":"12639178@N07","secret":"b388be0736","server":"65535","farm":66,"title":"Spottdrossel","ispublic":1,"isfriend":0,"isfamily":0},{"id":"52719032389","owner":"51433704@N06","secret":"15f723a110","server":"65535","farm":66,"title":"Northern Mockingbird","ispublic":1,"isfriend":0,"isfamily":0},{"id":"52715913766","owner":"184781347@N05","secret":"eee4916d40","server":"65535","farm":66,"title":"northern mockingbird with raised hackles?","ispublic":1,"isfriend":0,"isfamily":0},{"id":"52715381765","owner":"47533293@N04","secret":"d3e859f1ea","server":"65535","farm":66,"title":"Northern mockingbird, Mimus polyglottos","ispublic":1,"isfriend":0,"isfamily":0},{"id":"52710702841","owner":"23117403@N06","secret":"bc7e33ffbd","server":"65535","farm":66,"title":"Northern mockingbird - Moqueur polyglotte - Sinsonte comu\u0301n - Mimus polyglottos","ispublic":1,"isfriend":0,"isfamily":0},{"id":"52710326104","owner":"128369733@N04","secret":"ca16bb30f4","server":"65535","farm":66,"title":"Thirsty This Morning (1)","ispublic":1,"isfriend":0,"isfamily":0},{"id":"52710325229","owner":"128369733@N04","secret":"e3c7837bc5","server":"65535","farm":66,"title":"Thirsty This Morning (2)","ispublic":1,"isfriend":0,"isfamily":0},{"id":"52709543947","owner":"128369733@N04","secret":"645eb645bd","server":"65535","farm":66,"title":"Thirsty This Morning (3)","ispublic":1,"isfriend":0,"isfamily":0},{"id":"52709784215","owner":"160542269@N02","secret":"05fcecdb8b","server":"65535","farm":66,"title":"northern mockingbird","ispublic":1,"isfriend":0,"isfamily":0},{"id":"52707154278","owner":"185443397@N07","secret":"70267b6b2b","server":"65535","farm":66,"title":"Northern Mockingbird (Mimus polyglottos)","ispublic":1,"isfriend":0,"isfamily":0},{"id":"52705452673","owner":"69015080@N00","secret":"e5335b6fa6","server":"65535","farm":66,"title":"Northern Mockingbird","ispublic":1,"isfriend":0,"isfamily":0},{"id":"52704441302","owner":"69015080@N00","secret":"b36b561295","server":"65535","farm":66,"title":"Northern Mockingbird","ispublic":1,"isfriend":0,"isfamily":0},{"id":"52703856026","owner":"30418455@N00","secret":"c91dc5dd9a","server":"65535","farm":66,"title":"MOCKINGBIRD 18","ispublic":1,"isfriend":0,"isfamily":0},{"id":"52703328192","owner":"30418455@N00","secret":"8eb6eb2c54","server":"65535","farm":66,"title":"MOCKINGBIRD 17","ispublic":1,"isfriend":0,"isfamily":0},{"id":"52700840031","owner":"40941741@N03","secret":"4e9dd0650f","server":"65535","farm":66,"title":"Northern Mockingbird","ispublic":1,"isfriend":0,"isfamily":0},{"id":"52697649764","owner":"10260434@N03","secret":"058cbbcaaa","server":"65535","farm":66,"title":"199-Northern Mockingbird-27Jan23","ispublic":1,"isfriend":0,"isfamily":0},{"id":"52697641354","owner":"10260434@N03","secret":"62904a3fa8","server":"65535","farm":66,"title":"200-Northern Mockingbird-27Jan23","ispublic":1,"isfriend":0,"isfamily":0},{"id":"52697796880","owner":"10260434@N03","secret":"986664b18a","server":"65535","farm":66,"title":"201-Northern Mockingbird-27Jan23","ispublic":1,"isfriend":0,"isfamily":0},{"id":"52694900861","owner":"143326780@N02","secret":"936a27ac4a","server":"65535","farm":66,"title":"DSCN4450","ispublic":1,"isfriend":0,"isfamily":0},{"id":"52694854378","owner":"88932760@N08","secret":"ac4c656e99","server":"65535","farm":66,"title":"Victorious Mockingbird","ispublic":1,"isfriend":0,"isfamily":0},{"id":"52691196197","owner":"55527686@N03","secret":"ccec515dc1","server":"65535","farm":66,"title":"Northern Mockingbird (Mimus polyglottos)","ispublic":1,"isfriend":0,"isfamily":0},{"id":"52691507953","owner":"51433704@N06","secret":"07d8ff75fc","server":"65535","farm":66,"title":"Baby Northern Mockingbird","ispublic":1,"isfriend":0,"isfamily":0},{"id":"52689388552","owner":"33610210@N05","secret":"1b0519c864","server":"65535","farm":66,"title":"Northern Mockingbird, Mimus polyglottos","ispublic":1,"isfriend":0,"isfamily":0},{"id":"52690168153","owner":"197628215@N07","secret":"a82c6bba3f","server":"65535","farm":66,"title":"Northern Mockingbird (Mimus polyglottos) 02\/06\/2023 #northernmockingbird #mockingbird #bestbackroad #bestbackroads #natgeoyourshots #natgeo100contest #natgeo #rutlandcountyvt #washingtoncountyny #whitehallny #wildphotography #naturephotography #adventurep","ispublic":1,"isfriend":0,"isfamily":0},{"id":"52686730057","owner":"26438012@N08","secret":"fe78cd40e3","server":"65535","farm":66,"title":"Northern Mockingbird","ispublic":1,"isfriend":0,"isfamily":0},{"id":"52684389796","owner":"12639178@N07","secret":"ec4987295a","server":"65535","farm":66,"title":"Spottdrossel mit \u00dcberblick","ispublic":1,"isfriend":0,"isfamily":0},{"id":"52682584759","owner":"197628215@N07","secret":"93d479227a","server":"65535","farm":66,"title":"Northern Mockingbird (Mimus polyglottos) 01\/29\/2023 #northernmockingbird #mockingird #bestbackroad #bestbackroads #natgeoyourshots #natgeo100contest #rutlandcountyvermont #rutlandcountyvt #washingtoncountynewyork #washingtoncountyny #whitehallnewyork #wil","ispublic":1,"isfriend":0,"isfamily":0},{"id":"52682111091","owner":"197628215@N07","secret":"6b35fc7ec6","server":"65535","farm":66,"title":"Northern Mockingbird (Mimus polyglottos) 01\/29\/2023 #northernmockingbird #mockingird #bestbackroad #bestbackroads #natgeoyourshots #natgeo100contest #rutlandcountyvermont #rutlandcountyvt #washingtoncountynewyork #washingtoncountyny #whitehallnewyork #wil","ispublic":1,"isfriend":0,"isfamily":0},{"id":"52681819573","owner":"197628215@N07","secret":"1246d7a4c3","server":"65535","farm":66,"title":"Northern Mockingbird (Mimus polyglottos) 01\/29\/2023 #northernmockingbird #mockingird #bestbackroad #bestbackroads #natgeoyourshots #natgeo100contest #rutlandcountyvermont #rutlandcountyvt #washingtoncountynewyork #washingtoncountyny #whitehallnewyork #wil","ispublic":1,"isfriend":0,"isfamily":0},{"id":"52680077372","owner":"12639178@N07","secret":"23f863c862","server":"65535","farm":66,"title":"Spottdrossel nach Reviergepl\u00e4nkel","ispublic":1,"isfriend":0,"isfamily":0},{"id":"52678416622","owner":"47533293@N04","secret":"425f118abd","server":"65535","farm":66,"title":"Northern mockingbird, Mimus polyglottos","ispublic":1,"isfriend":0,"isfamily":0},{"id":"52676803780","owner":"36013467@N07","secret":"b0158796ed","server":"65535","farm":66,"title":"Northern Mockingbird (Mimus polyglottos)","ispublic":1,"isfriend":0,"isfamily":0},{"id":"52675016176","owner":"33005514@N04","secret":"2c3375f2b8","server":"65535","farm":66,"title":"Ruise\u00f1or \/ Northern Mockingbird \/ Mimus polyglottos","ispublic":1,"isfriend":0,"isfamily":0},{"id":"52673980869","owner":"31694846@N02","secret":"14b9371ea1","server":"65535","farm":66,"title":"Ruise\u00f1or, Mimus polyglottos, Northern Mockingbird","ispublic":1,"isfriend":0,"isfamily":0},{"id":"52673980739","owner":"31694846@N02","secret":"f89cf121b2","server":"65535","farm":66,"title":"Ruise\u00f1or, Mimus polyglottos, Northern Mockingbird","ispublic":1,"isfriend":0,"isfamily":0},{"id":"52673689096","owner":"31694846@N02","secret":"4bddb349ba","server":"65535","farm":66,"title":"Ruise\u00f1or, Mimus polyglottos, Northern Mockingbird","ispublic":1,"isfriend":0,"isfamily":0},{"id":"52673195947","owner":"31694846@N02","secret":"5d9508939d","server":"65535","farm":66,"title":"Ruise\u00f1or, Mimus polyglottos, Northern Mockingbird","ispublic":1,"isfriend":0,"isfamily":0},{"id":"52671622155","owner":"73179441@N02","secret":"2f64893b25","server":"65535","farm":66,"title":"Ordinary Beauty","ispublic":1,"isfriend":0,"isfamily":0},{"id":"52668822472","owner":"54546220@N00","secret":"3f0c073503","server":"65535","farm":66,"title":"Ruise\u00f1or,Northern Mockingbird  (Mimus polyglottos)","ispublic":1,"isfriend":0,"isfamily":0},{"id":"52668042412","owner":"12639178@N07","secret":"3152a1b3f7","server":"65535","farm":66,"title":"Sie liebt die Palmenfr\u00fcchte","ispublic":1,"isfriend":0,"isfamily":0},{"id":"52668042257","owner":"12639178@N07","secret":"16c3cf49c3","server":"65535","farm":66,"title":"Spottdrossel pr\u00e4sentiert sich","ispublic":1,"isfriend":0,"isfamily":0},{"id":"52664974945","owner":"36013467@N07","secret":"f7ec9594cb","server":"65535","farm":66,"title":"Northern Mockingbird (Mimus polyglottos)","ispublic":1,"isfriend":0,"isfamily":0},{"id":"52664175254","owner":"36845939@N03","secret":"1771b78627","server":"65535","farm":66,"title":"Northern Mockingbird (Mimus polyglottos)","ispublic":1,"isfriend":0,"isfamily":0},{"id":"52661161427","owner":"196127020@N02","secret":"c38a016753","server":"65535","farm":66,"title":"Northern Mockingbird","ispublic":1,"isfriend":0,"isfamily":0},{"id":"52662104370","owner":"196127020@N02","secret":"1cceefd46b","server":"65535","farm":66,"title":"Northern Mockingbird","ispublic":1,"isfriend":0,"isfamily":0},{"id":"52661947769","owner":"196127020@N02","secret":"b83b4fd43b","server":"65535","farm":66,"title":"Northern Mockingbird","ispublic":1,"isfriend":0,"isfamily":0},{"id":"52661947744","owner":"196127020@N02","secret":"dcd9641302","server":"65535","farm":66,"title":"Northern Mockingbird","ispublic":1,"isfriend":0,"isfamily":0},{"id":"52661161307","owner":"196127020@N02","secret":"c48c36ef8a","server":"65535","farm":66,"title":"Northern Mockingbird","ispublic":1,"isfriend":0,"isfamily":0},{"id":"52661661946","owner":"196127020@N02","secret":"8af2eb5f8e","server":"65535","farm":66,"title":"Northern Mockingbird","ispublic":1,"isfriend":0,"isfamily":0},{"id":"52661161252","owner":"196127020@N02","secret":"0df32bc5e1","server":"65535","farm":66,"title":"Northern Mockingbird","ispublic":1,"isfriend":0,"isfamily":0},{"id":"52660593215","owner":"62043870@N05","secret":"b146a5f68b","server":"65535","farm":66,"title":"Northern Mockingbird, Mimus polyglottos","ispublic":1,"isfriend":0,"isfamily":0},{"id":"52660392375","owner":"54249623@N08","secret":"f8852b06d1","server":"65535","farm":66,"title":"Northern Mockingbird (Mimus polyglottos)","ispublic":1,"isfriend":0,"isfamily":0},{"id":"52658512311","owner":"12639178@N07","secret":"e9c78f9705","server":"65535","farm":66,"title":"und gar nicht scheu","ispublic":1,"isfriend":0,"isfamily":0},{"id":"52658956930","owner":"12639178@N07","secret":"347e2b001a","server":"65535","farm":66,"title":"Recht neugierig....","ispublic":1,"isfriend":0,"isfamily":0},{"id":"52653245563","owner":"7261670@N03","secret":"835412e858","server":"65535","farm":66,"title":"Northern Mockingbird","ispublic":1,"isfriend":0,"isfamily":0},{"id":"52653030779","owner":"139237357@N06","secret":"97caa80145","server":"65535","farm":66,"title":"Northern Mockingbird","ispublic":1,"isfriend":0,"isfamily":0},{"id":"52653195755","owner":"139237357@N06","secret":"651cf976b5","server":"65535","farm":66,"title":"Northern Mockingbird","ispublic":1,"isfriend":0,"isfamily":0},{"id":"52652394334","owner":"128369733@N04","secret":"f17fff5105","server":"65535","farm":66,"title":"On A Gray Day (1)","ispublic":1,"isfriend":0,"isfamily":0},{"id":"52651631062","owner":"128369733@N04","secret":"fe08d3c736","server":"65535","farm":66,"title":"On A Gray Day (2)","ispublic":1,"isfriend":0,"isfamily":0},{"id":"52652393064","owner":"128369733@N04","secret":"85d4f9f8d1","server":"65535","farm":66,"title":"On A Gray Day (3)","ispublic":1,"isfriend":0,"isfamily":0},{"id":"52652558750","owner":"128369733@N04","secret":"3d77e8de87","server":"65535","farm":66,"title":"On A Gray Day (4)","ispublic":1,"isfriend":0,"isfamily":0},{"id":"52651502727","owner":"195968484@N08","secret":"9b56f4a1ce","server":"65535","farm":66,"title":"Northern mockingbird","ispublic":1,"isfriend":0,"isfamily":0},{"id":"52652264949","owner":"195968484@N08","secret":"9c6958c0d4","server":"65535","farm":66,"title":"IMG_3917","ispublic":1,"isfriend":0,"isfamily":0},{"id":"52651106704","owner":"43440320@N04","secret":"ee8ddcfa91","server":"65535","farm":66,"title":"Northern Mockingbird","ispublic":1,"isfriend":0,"isfamily":0},{"id":"52641355402","owner":"70295563@N00","secret":"d79f62a531","server":"65535","farm":66,"title":"Show off","ispublic":1,"isfriend":0,"isfamily":0},{"id":"52639488521","owner":"195537536@N03","secret":"13d02ec0db","server":"65535","farm":66,"title":"Northern Mockingbird (Mimus polyglottos)","ispublic":1,"isfriend":0,"isfamily":0},{"id":"52635905558","owner":"71989271@N06","secret":"c2da5bd719","server":"65535","farm":66,"title":"Northern Mockingbird (Mimus p. polyglottos)","ispublic":1,"isfriend":0,"isfamily":0},{"id":"52635682114","owner":"71989271@N06","secret":"d96ea20b81","server":"65535","farm":66,"title":"Northern Mockingbird (Mimus p. polyglottos)","ispublic":1,"isfriend":0,"isfamily":0},{"id":"52635421231","owner":"71989271@N06","secret":"a27d29d9f4","server":"65535","farm":66,"title":"Northern Mockingbird (Mimus p. polyglottos)","ispublic":1,"isfriend":0,"isfamily":0},{"id":"52633233667","owner":"57126723@N07","secret":"f1b0e32ef4","server":"65535","farm":66,"title":"Northern mockingbird\u2014Mimus polyglottos-7257","ispublic":1,"isfriend":0,"isfamily":0},{"id":"52633233662","owner":"57126723@N07","secret":"4679e73679","server":"65535","farm":66,"title":"Northern mockingbird\u2014Mimus polyglottos-7272","ispublic":1,"isfriend":0,"isfamily":0},{"id":"52632171131","owner":"197309286@N07","secret":"1c23d138e7","server":"65535","farm":66,"title":"Northern Mockingbird","ispublic":1,"isfriend":0,"isfamily":0},{"id":"52628098327","owner":"29494346@N03","secret":"ce0b85e7d2","server":"65535","farm":66,"title":"Northern Mockingbird (Mimus polyglottos)","ispublic":1,"isfriend":0,"isfamily":0},{"id":"52624701721","owner":"128369733@N04","secret":"65818cb10e","server":"65535","farm":66,"title":"Mockingbird (1)","ispublic":1,"isfriend":0,"isfamily":0},{"id":"52624184317","owner":"128369733@N04","secret":"b08cc5e6e1","server":"65535","farm":66,"title":"Mockingbird (2)","ispublic":1,"isfriend":0,"isfamily":0},{"id":"52619415848","owner":"24213796@N02","secret":"d551ecd813","server":"65535","farm":66,"title":"Northern Mocking Bird","ispublic":1,"isfriend":0,"isfamily":0},{"id":"52613502510","owner":"39445433@N02","secret":"b896327e7c","server":"65535","farm":66,"title":"Northern Mockingbird","ispublic":1,"isfriend":0,"isfamily":0},{"id":"52611812679","owner":"49114357@N08","secret":"5d37b82b00","server":"65535","farm":66,"title":"Northern Mockingbird","ispublic":1,"isfriend":0,"isfamily":0},{"id":"52609514158","owner":"24379925@N08","secret":"943c6c2d76","server":"65535","farm":66,"title":"NORTHERN MOCKINGBIRD","ispublic":1,"isfriend":0,"isfamily":0},{"id":"52602959107","owner":"151361315@N06","secret":"38035c77f3","server":"65535","farm":66,"title":"Northern Mockingbird flight with wings and tailfeathers spread, Pleasant Valley Nature Preserve, Marcellus NY, 2022","ispublic":1,"isfriend":0,"isfamily":0},{"id":"52602377813","owner":"17719035@N00","secret":"8072b4878e","server":"65535","farm":66,"title":"Ruise\u00f1or - Northern Mockingbird - Mimus polyglottos","ispublic":1,"isfriend":0,"isfamily":0},{"id":"52601537094","owner":"75129988@N00","secret":"c56086d1b8","server":"65535","farm":66,"title":"Northern Mockingbird (2040)","ispublic":1,"isfriend":0,"isfamily":0},{"id":"52599406865","owner":"146455226@N02","secret":"b8fa763294","server":"65535","farm":66,"title":"Northern Mockingbird #7","ispublic":1,"isfriend":0,"isfamily":0},{"id":"52598745066","owner":"39935474@N03","secret":"ceec77e782","server":"65535","farm":66,"title":"Northern Mockingbird","ispublic":1,"isfriend":0,"isfamily":0},{"id":"52598254557","owner":"39935474@N03","secret":"b59b062442","server":"65535","farm":66,"title":"Northern Mockingbird","ispublic":1,"isfriend":0,"isfamily":0},{"id":"52599268123","owner":"39935474@N03","secret":"40a859b205","server":"65535","farm":66,"title":"Northern Mockingbird","ispublic":1,"isfriend":0,"isfamily":0},{"id":"52598036644","owner":"128369733@N04","secret":"ae267bb431","server":"65535","farm":66,"title":"Checking Things Out","ispublic":1,"isfriend":0,"isfamily":0},{"id":"52598204780","owner":"128369733@N04","secret":"01d38f5c23","server":"65535","farm":66,"title":"Early Riser","ispublic":1,"isfriend":0,"isfamily":0},{"id":"52597549818","owner":"33610210@N05","secret":"c5aa4e3265","server":"65535","farm":66,"title":"Northern Mockingbird, Mimus polyglottos","ispublic":1,"isfriend":0,"isfamily":0},{"id":"52698825556","owner":"197628215@N07","secret":"66273dd3a7","server":"65535","farm":66,"title":"Northern Mockingbird (Mimus polyglottos) 02\/06\/2023 #northernmockingbird #mockingbird #bestbackroad #bestbackroads #natgeoyourshots #natgeo100contest #natgeo #rutlandcountyvt #washingtoncountyny #whitehallny #wildphotography #naturephotography #adventurep","ispublic":1,"isfriend":0,"isfamily":0},{"id":"52674417040","owner":"47078197@N04","secret":"bc4cab89f2","server":"65535","farm":66,"title":"Mimus parvulus parvulus (Galapagos Mockingbird)","ispublic":1,"isfriend":0,"isfamily":0},{"id":"52694384792","owner":"143326780@N02","secret":"3fe8b0fd33","server":"65535","farm":66,"title":"DSCN4444","ispublic":1,"isfriend":0,"isfamily":0},{"id":"52695390598","owner":"143326780@N02","secret":"d194478638","server":"65535","farm":66,"title":"DSCN4493","ispublic":1,"isfriend":0,"isfamily":0},{"id":"52694384622","owner":"143326780@N02","secret":"21b80515a8","server":"65535","farm":66,"title":"DSCN4494","ispublic":1,"isfriend":0,"isfamily":0},{"id":"52695156709","owner":"143326780@N02","secret":"4ef66052cb","server":"65535","farm":66,"title":"DSCN4448","ispublic":1,"isfriend":0,"isfamily":0},{"id":"52656782859","owner":"12639178@N07","secret":"c41176885c","server":"65535","farm":66,"title":"Spottdrossel auf Gartentor","ispublic":1,"isfriend":0,"isfamily":0},{"id":"52634004064","owner":"57126723@N07","secret":"0e214d4f99","server":"65535","farm":66,"title":"Northern Mockingbird\u2014Mimus polyglottos-7298","ispublic":1,"isfriend":0,"isfamily":0},{"id":"52606549620","owner":"36013467@N07","secret":"835b07c8d2","server":"65535","farm":66,"title":"Northern Mockingbird (Mimus polyglottos)","ispublic":1,"isfriend":0,"isfamily":0},{"id":"52603971165","owner":"197181561@N02","secret":"2726011914","server":"65535","farm":66,"title":"Northern Mockingbird (Mimus polyglottos)","ispublic":1,"isfriend":0,"isfamily":0}]},"stat":"ok"}