{"photos":{"page":1,"pages":130,"perpage":100,"total":12972,"photo":[{"id":"52793105119","owner":"42388593@N04","secret":"05245bd36d","server":"65535","farm":66,"title":"Spidsand, Northern pintail, Spie\u00dfente (Anas acuta)-1094","ispublic":1,"isfriend":0,"isfamily":0},{"id":"52792618684","owner":"197628215@N07","secret":"abb03637f5","server":"65535","farm":66,"title":"Northern Pintail (Anas acuta) 03\/17\/2023 #northernpintail #pintail #bestbackroad #bestbackroads #natgeoyourshots #natgeo100contest #natgeo #rutlandcountyvt #washingtoncountyny #whitehallny #wildphotography #naturephotography #adventurephotography #wildlif","ispublic":1,"isfriend":0,"isfamily":0},{"id":"52792400428","owner":"36685968@N00","secret":"544c8c2bdb","server":"65535","farm":66,"title":"Northern Pintail (Anas acuta)","ispublic":1,"isfriend":0,"isfamily":0},{"id":"52791812128","owner":"68466173@N02","secret":"cd0bda85bb","server":"65535","farm":66,"title":"Northern Pintail (Anas acuta)","ispublic":1,"isfriend":0,"isfamily":0},{"id":"52732344305","owner":"49114357@N08","secret":"3ebf5a1667","server":"65535","farm":66,"title":"Northern Pintail","ispublic":1,"isfriend":0,"isfamily":0},{"id":"52789202404","owner":"36685968@N00","secret":"6cf7c9b698","server":"65535","farm":66,"title":"Northern Pintail (Anas acuta)","ispublic":1,"isfriend":0,"isfamily":0},{"id":"52787412512","owner":"27797245@N05","secret":"ed24f0e211","server":"65535","farm":66,"title":"Graf\u00f6nd \u2642 (Anas acuta).","ispublic":1,"isfriend":0,"isfamily":0},{"id":"52787604406","owner":"27797245@N05","secret":"d9848b906a","server":"65535","farm":66,"title":"Graf\u00f6nd \u2642 (Anas acuta).","ispublic":1,"isfriend":0,"isfamily":0},{"id":"52788002480","owner":"27797245@N05","secret":"0eab3fed6c","server":"65535","farm":66,"title":"Graf\u00f6nd \u2642 (Anas acuta).","ispublic":1,"isfriend":0,"isfamily":0},{"id":"52787604326","owner":"27797245@N05","secret":"3b64e16a6f","server":"65535","farm":66,"title":"Graf\u00f6nd \u2642 (Anas acuta).","ispublic":1,"isfriend":0,"isfamily":0},{"id":"52787604301","owner":"27797245@N05","secret":"57cbf8b1c4","server":"65535","farm":66,"title":"Graf\u00f6nd \u2642 (Anas acuta).","ispublic":1,"isfriend":0,"isfamily":0},{"id":"52787032034","owner":"7640100@N02","secret":"8178c57f36","server":"65535","farm":66,"title":"Canard pilet \/ Northern Pintail [Anas acuta]","ispublic":1,"isfriend":0,"isfamily":0},{"id":"52786186104","owner":"12639178@N07","secret":"1043e227a9","server":"65535","farm":66,"title":"Spie\u00dfenten","ispublic":1,"isfriend":0,"isfamily":0},{"id":"52785709540","owner":"12639178@N07","secret":"441f7b992f","server":"65535","farm":66,"title":"Spie\u00dfente (Anas acuta) (1)","ispublic":1,"isfriend":0,"isfamily":0},{"id":"52784760385","owner":"99849996@N00","secret":"374de0f844","server":"65535","farm":66,"title":"Northern Pintails 20220306_6170","ispublic":1,"isfriend":0,"isfamily":0},{"id":"52783784062","owner":"159284114@N07","secret":"e83c99749f","server":"65535","farm":66,"title":"Canard pilet, Northern pintail","ispublic":1,"isfriend":0,"isfamily":0},{"id":"52782384799","owner":"68635735@N02","secret":"5b5246d864","server":"65535","farm":66,"title":"Northern Pintail (Anas acuta) male","ispublic":1,"isfriend":0,"isfamily":0},{"id":"52782141496","owner":"68635735@N02","secret":"81f5e3b1f0","server":"65535","farm":66,"title":"Northern Pintail (Anas acuta) male","ispublic":1,"isfriend":0,"isfamily":0},{"id":"52781607561","owner":"12639178@N07","secret":"f003bc7d88","server":"65535","farm":66,"title":"Zwergtaucher + Schnatterentenpaar","ispublic":1,"isfriend":0,"isfamily":0},{"id":"52781607356","owner":"12639178@N07","secret":"4168a5a1ca","server":"65535","farm":66,"title":"Spie\u00dfente -m-","ispublic":1,"isfriend":0,"isfamily":0},{"id":"52780701589","owner":"18378985@N08","secret":"78b206c46a","server":"65535","farm":66,"title":"Northern Pintail on Mallard Lake","ispublic":1,"isfriend":0,"isfamily":0},{"id":"52779362992","owner":"101130108@N06","secret":"d55a94afea","server":"65535","farm":66,"title":"Pintail (Anas acuta)_45A3065a","ispublic":1,"isfriend":0,"isfamily":0},{"id":"52779000910","owner":"167692045@N07","secret":"472ae51bd5","server":"65535","farm":66,"title":"canard colvert \u2642 \/ Anas acuta 23E_0646","ispublic":1,"isfriend":0,"isfamily":0},{"id":"52774401884","owner":"191391950@N02","secret":"bf0a842b10","server":"65535","farm":66,"title":"Canard pilet - Anas acuta","ispublic":1,"isfriend":0,"isfamily":0},{"id":"52774296754","owner":"186939992@N03","secret":"6e3e65643c","server":"65535","farm":66,"title":"Spiessente - Nothern Pintail - Anas acuta","ispublic":1,"isfriend":0,"isfamily":0},{"id":"52773060310","owner":"12639178@N07","secret":"08cfd84e70","server":"65535","farm":66,"title":"Spie\u00dfente (Anas acuta)","ispublic":1,"isfriend":0,"isfamily":0},{"id":"52771675697","owner":"34238008@N02","secret":"d35d896934","server":"65535","farm":66,"title":"Northern Pintail (Anas acuta)","ispublic":1,"isfriend":0,"isfamily":0},{"id":"52772465194","owner":"34238008@N02","secret":"f7aeb716f9","server":"65535","farm":66,"title":"Northern Pintail (Anas acuta)","ispublic":1,"isfriend":0,"isfamily":0},{"id":"52771355191","owner":"183736567@N07","secret":"38b47deb36","server":"65535","farm":66,"title":"Northern Pintails (Anas acuta) flying together","ispublic":1,"isfriend":0,"isfamily":0},{"id":"52770533770","owner":"42415395@N07","secret":"2da761b625","server":"65535","farm":66,"title":"Northern Pintail -- Male (Anas acuta); Albuquerque, NM, Tingley Beach Park [Lou Feltz]","ispublic":1,"isfriend":0,"isfamily":0},{"id":"52769972826","owner":"39854996@N00","secret":"cfec5f5973","server":"65535","farm":66,"title":"Northern Pintail  \"Anas acuta\"","ispublic":1,"isfriend":0,"isfamily":0},{"id":"52769424892","owner":"130021529@N02","secret":"eca8483287","server":"65535","farm":66,"title":"Anas acuta | Northern Pintail | stj\u00e4rtand","ispublic":1,"isfriend":0,"isfamily":0},{"id":"52770219634","owner":"130021529@N02","secret":"945bcf4c2b","server":"65535","farm":66,"title":"Anas acuta | Northern Pintail | stj\u00e4rtand","ispublic":1,"isfriend":0,"isfamily":0},{"id":"52770215754","owner":"130021529@N02","secret":"a557d6cb70","server":"65535","farm":66,"title":"Anas acuta | Northern Pintail | stj\u00e4rtand","ispublic":1,"isfriend":0,"isfamily":0},{"id":"52770447948","owner":"130021529@N02","secret":"4e61ea6f1a","server":"65535","farm":66,"title":"Anas acuta | Northern Pintail | stj\u00e4rtand","ispublic":1,"isfriend":0,"isfamily":0},{"id":"52769956756","owner":"130021529@N02","secret":"c084a44b8e","server":"65535","farm":66,"title":"Anas acuta | Northern Pintail | stj\u00e4rtand","ispublic":1,"isfriend":0,"isfamily":0},{"id":"52769420432","owner":"130021529@N02","secret":"81aea7973c","server":"65535","farm":66,"title":"Anas acuta | Northern Pintail | stj\u00e4rtand","ispublic":1,"isfriend":0,"isfamily":0},{"id":"52768161883","owner":"144736586@N06","secret":"bcd503d0cd","server":"65535","farm":66,"title":"Canard pilet (Anas acuta)","ispublic":1,"isfriend":0,"isfamily":0},{"id":"52767673286","owner":"144736586@N06","secret":"344b3630b0","server":"65535","farm":66,"title":"Canard pilet (Anas acuta)","ispublic":1,"isfriend":0,"isfamily":0},{"id":"52766206002","owner":"145955158@N07","secret":"5aeccc88bf","server":"65535","farm":66,"title":"Pintail - male","ispublic":1,"isfriend":0,"isfamily":0},{"id":"52765642176","owner":"59678053@N08","secret":"a44849c24b","server":"65535","farm":66,"title":"Northern  Pintail","ispublic":1,"isfriend":0,"isfamily":0},{"id":"52764544331","owner":"12639178@N07","secret":"62b7db7928","server":"65535","farm":66,"title":"Spie\u00dfenten","ispublic":1,"isfriend":0,"isfamily":0},{"id":"52764357624","owner":"128732722@N08","secret":"49c8d5731f","server":"65535","farm":66,"title":"(Northern) Pintail (m,f) (Anas acuta)","ispublic":1,"isfriend":0,"isfamily":0},{"id":"52764044580","owner":"59678053@N08","secret":"bc756f3ca0","server":"65535","farm":66,"title":"Bottom's Up","ispublic":1,"isfriend":0,"isfamily":0},{"id":"52762046730","owner":"12639178@N07","secret":"f0fca7c3e6","server":"65535","farm":66,"title":"Spie\u00dfente (Anas acuta) (3)","ispublic":1,"isfriend":0,"isfamily":0},{"id":"52762130773","owner":"12639178@N07","secret":"3edf81b238","server":"65535","farm":66,"title":"Spie\u00dfente (Anas acuta) (1)","ispublic":1,"isfriend":0,"isfamily":0},{"id":"52760080668","owner":"42415395@N07","secret":"6b443fc476","server":"65535","farm":66,"title":"Northern Pintail -- Male (Anas acuta); Albuquerque, NM, Tingley Beach Park [Lou Feltz]","ispublic":1,"isfriend":0,"isfamily":0},{"id":"52759397563","owner":"16502322@N03","secret":"009df12d0f","server":"65535","farm":66,"title":"A Regal Northern Pintail","ispublic":1,"isfriend":0,"isfamily":0},{"id":"52756007086","owner":"12639178@N07","secret":"136a591c58","server":"65535","farm":66,"title":"Spie\u00dfente","ispublic":1,"isfriend":0,"isfamily":0},{"id":"52755848764","owner":"12639178@N07","secret":"d2aa2b7aed","server":"65535","farm":66,"title":"Spie\u00dfenten","ispublic":1,"isfriend":0,"isfamily":0},{"id":"52756010330","owner":"12639178@N07","secret":"0dee7d8d3c","server":"65535","farm":66,"title":"Spie\u00dfenten","ispublic":1,"isfriend":0,"isfamily":0},{"id":"52754955050","owner":"96140584@N04","secret":"f51483563f","server":"65535","farm":66,"title":"Pintail- Anas acuta- Slimbridge WWT _ Gloucestershire -221121 (4)","ispublic":1,"isfriend":0,"isfamily":0},{"id":"52753953814","owner":"12639178@N07","secret":"bec5fd1cdb","server":"65535","farm":66,"title":"Spie\u00dfente (Anas acuta)","ispublic":1,"isfriend":0,"isfamily":0},{"id":"52753691266","owner":"185423601@N04","secret":"af22bc0e5a","server":"65535","farm":66,"title":"Canard pilet - Anas acuta","ispublic":1,"isfriend":0,"isfamily":0},{"id":"52754101155","owner":"185423601@N04","secret":"2b4fb80e33","server":"65535","farm":66,"title":"Canard pilet - Anas acuta","ispublic":1,"isfriend":0,"isfamily":0},{"id":"52754101150","owner":"185423601@N04","secret":"dd0b71e97b","server":"65535","farm":66,"title":"Canard pilet - Anas acuta","ispublic":1,"isfriend":0,"isfamily":0},{"id":"52753154602","owner":"185423601@N04","secret":"99c5da40fa","server":"65535","farm":66,"title":"Canard pilet - Anas acuta","ispublic":1,"isfriend":0,"isfamily":0},{"id":"52753154597","owner":"185423601@N04","secret":"6c65f35598","server":"65535","farm":66,"title":"Canard pilet - Anas acuta","ispublic":1,"isfriend":0,"isfamily":0},{"id":"52754101025","owner":"185423601@N04","secret":"ca32bc3b43","server":"65535","farm":66,"title":"Canard pilet - Anas acuta","ispublic":1,"isfriend":0,"isfamily":0},{"id":"52753691121","owner":"185423601@N04","secret":"e9f92c5a73","server":"65535","farm":66,"title":"Canard pilet - Anas acuta","ispublic":1,"isfriend":0,"isfamily":0},{"id":"52753495644","owner":"36648230@N03","secret":"95f8a55685","server":"65535","farm":66,"title":"Northern Pintail","ispublic":1,"isfriend":0,"isfamily":0},{"id":"52753009740","owner":"12639178@N07","secret":"7ae19a47c1","server":"65535","farm":66,"title":"Spie\u00dfente (Anas acuta) (1)","ispublic":1,"isfriend":0,"isfamily":0},{"id":"52752638813","owner":"12639178@N07","secret":"1a98433e09","server":"65535","farm":66,"title":"Spie\u00dfenten","ispublic":1,"isfriend":0,"isfamily":0},{"id":"52752328178","owner":"12639178@N07","secret":"3dbb01f298","server":"65535","farm":66,"title":"Spie\u00dfenten","ispublic":1,"isfriend":0,"isfamily":0},{"id":"52752242905","owner":"12639178@N07","secret":"5d13b0dd0c","server":"65535","farm":66,"title":"Spie\u00dfenten","ispublic":1,"isfriend":0,"isfamily":0},{"id":"52752326943","owner":"12639178@N07","secret":"afc2c4ff08","server":"65535","farm":66,"title":"Spie\u00dfenten","ispublic":1,"isfriend":0,"isfamily":0},{"id":"52752071644","owner":"12639178@N07","secret":"680c8f5c5d","server":"65535","farm":66,"title":"Spie\u00dfenten","ispublic":1,"isfriend":0,"isfamily":0},{"id":"52752071534","owner":"12639178@N07","secret":"44821f3e79","server":"65535","farm":66,"title":"Spie\u00dfenten","ispublic":1,"isfriend":0,"isfamily":0},{"id":"52750905317","owner":"12639178@N07","secret":"fa1aa06a80","server":"65535","farm":66,"title":"Spie\u00dfente","ispublic":1,"isfriend":0,"isfamily":0},{"id":"52751932433","owner":"12639178@N07","secret":"7e82667b9b","server":"65535","farm":66,"title":"Spie\u00dfente","ispublic":1,"isfriend":0,"isfamily":0},{"id":"52751678254","owner":"12639178@N07","secret":"144e721e57","server":"65535","farm":66,"title":"Spie\u00dfente","ispublic":1,"isfriend":0,"isfamily":0},{"id":"52749225099","owner":"39854996@N00","secret":"ec81c9e17e","server":"65535","farm":66,"title":"Male Northern Pintail  \"Anas acuta\"","ispublic":1,"isfriend":0,"isfamily":0},{"id":"52748712733","owner":"57729348@N02","secret":"8e8c6252e4","server":"65535","farm":66,"title":"Yellow-billed Pintail (Anas georgica spinicauda)","ispublic":1,"isfriend":0,"isfamily":0},{"id":"52747950368","owner":"112292182@N02","secret":"b6a6a9ddca","server":"65535","farm":66,"title":"Pintail","ispublic":1,"isfriend":0,"isfamily":0},{"id":"52746542681","owner":"186793662@N03","secret":"3748efda5b","server":"65535","farm":66,"title":"fotoselectie 70025","ispublic":1,"isfriend":0,"isfamily":0},{"id":"52746017607","owner":"186793662@N03","secret":"a4fc063f55","server":"65535","farm":66,"title":"fotoselectie 70059","ispublic":1,"isfriend":0,"isfamily":0},{"id":"52745847707","owner":"44635421@N06","secret":"b55d9c9de6","server":"65535","farm":66,"title":"The pintail Duck (Anas acuta)","ispublic":1,"isfriend":0,"isfamily":0},{"id":"52745639985","owner":"121021311@N02","secret":"5feb0a68b2","server":"65535","farm":66,"title":"Canard pilet (Anas acuta) Pintail","ispublic":1,"isfriend":0,"isfamily":0},{"id":"52745224101","owner":"121021311@N02","secret":"745376e8ba","server":"65535","farm":66,"title":"Canard pilet (Anas acuta) Pintail","ispublic":1,"isfriend":0,"isfamily":0},{"id":"52745379989","owner":"65921121@N03","secret":"0bce143fc6","server":"65535","farm":66,"title":"\u00e1nade rabudo (\u2640)","ispublic":1,"isfriend":0,"isfamily":0},{"id":"52743262311","owner":"49375245@N07","secret":"1898495943","server":"65535","farm":66,"title":"Anas acuta. Cangas de Morrazo-Pontevedra","ispublic":1,"isfriend":0,"isfamily":0},{"id":"52732424433","owner":"49114357@N08","secret":"b45a85c427","server":"65535","farm":66,"title":"Northern Pintail","ispublic":1,"isfriend":0,"isfamily":0},{"id":"52742606828","owner":"187792860@N04","secret":"1d17b344ac","server":"65535","farm":66,"title":"Northern Pintail (Anas acuta)","ispublic":1,"isfriend":0,"isfamily":0},{"id":"52741937609","owner":"42388593@N04","secret":"947d6a12f5","server":"65535","farm":66,"title":"Spidsand, Northern pintail, Spie\u00dfente (Anas acuta)-","ispublic":1,"isfriend":0,"isfamily":0},{"id":"52740799346","owner":"62037969@N08","secret":"0b38dcbe29","server":"65535","farm":66,"title":"Female Northern Pintail In Full Flight With Wings Spread Wide","ispublic":1,"isfriend":0,"isfamily":0},{"id":"52740965788","owner":"63093099@N02","secret":"c88b175a17","server":"65535","farm":66,"title":"Northern Pintail (males); 20230311; UK-NFK-Cley Marshes NWT","ispublic":1,"isfriend":0,"isfamily":0},{"id":"52740889235","owner":"63093099@N02","secret":"e5c57eed47","server":"65535","farm":66,"title":"Northern Pintail (males); 20230311; UK-NFK-Cley Marshes NWT","ispublic":1,"isfriend":0,"isfamily":0},{"id":"52740965733","owner":"63093099@N02","secret":"5885401586","server":"65535","farm":66,"title":"Northern Pintail (males); 20230311; UK-NFK-Cley Marshes NWT","ispublic":1,"isfriend":0,"isfamily":0},{"id":"52739795480","owner":"62037969@N08","secret":"aa3bb00bc5","server":"65535","farm":66,"title":"Female Northern Pintail In Flight With Wings Down","ispublic":1,"isfriend":0,"isfamily":0},{"id":"52738753231","owner":"62907378@N07","secret":"64719c8c6a","server":"65535","farm":66,"title":"Lesser Scaup (Aythya affinis)","ispublic":1,"isfriend":0,"isfamily":0},{"id":"52738232902","owner":"62907378@N07","secret":"17fc49f312","server":"65535","farm":66,"title":"Northern Pintail m. (Anas acuta)","ispublic":1,"isfriend":0,"isfamily":0},{"id":"52738227384","owner":"59206851@N00","secret":"0812719ab2","server":"65535","farm":66,"title":"DSC_9850.jpg","ispublic":1,"isfriend":0,"isfamily":0},{"id":"52737453852","owner":"59206851@N00","secret":"17247e1199","server":"65535","farm":66,"title":"DSC_9832.jpg","ispublic":1,"isfriend":0,"isfamily":0},{"id":"52737791851","owner":"80036114@N08","secret":"559ef03901","server":"65535","farm":66,"title":"Pintail - Anas acuta","ispublic":1,"isfriend":0,"isfamily":0},{"id":"52773129853","owner":"12639178@N07","secret":"74fef42828","server":"65535","farm":66,"title":"Spie\u00dfente (Anas acuta)","ispublic":1,"isfriend":0,"isfamily":0},{"id":"52763998411","owner":"12639178@N07","secret":"ee4943689b","server":"65535","farm":66,"title":"Spie\u00dfente (Anas acuta) (1)","ispublic":1,"isfriend":0,"isfamily":0},{"id":"52762046515","owner":"12639178@N07","secret":"04c4a6441e","server":"65535","farm":66,"title":"Spie\u00dfente (Anas acuta) (2)","ispublic":1,"isfriend":0,"isfamily":0},{"id":"52746493273","owner":"197628215@N07","secret":"fc6980021a","server":"65535","farm":66,"title":"Ring-necked Duck (Aythya collaris) Greater Scaup (Aythya marila) Ring-necked Duck (Aythya collaris)  Mallard (Anas platyrhynchos)  Northern Pintail (Anas acuta) 02\/27\/2023 #ducks #duck #bestbackroad #bestbackroads #natgeoyourshots #natgeo100contest #natge","ispublic":1,"isfriend":0,"isfamily":0},{"id":"52745395047","owner":"197628215@N07","secret":"a30c875744","server":"65535","farm":66,"title":"Mallard (Anas platyrhynchos)  Common Goldeneye (Bucephala clangula)  Northern Pintail (Anas acuta) Canada Goose (Branta canadensis) 02\/27\/2023 #duck #ducks #northernpintail #bestbackroad #bestbackroads #natgeoyourshots #natgeo100contest #natgeo #rutlandco","ispublic":1,"isfriend":0,"isfamily":0},{"id":"52743952225","owner":"197628215@N07","secret":"ebccb663d5","server":"65535","farm":66,"title":"Common Merganser (Mergus merganser) Common Goldeneye (Bucephala clangula) Mallard (Anas platyrhynchos) Northern Pintail (Anas acuta) 02\/27\/2023 #bestbackroad #bestbackroads #natgeoyourshots #natgeo100contest #natgeo #rutlandcountyvt #washingtoncountyny #w","ispublic":1,"isfriend":0,"isfamily":0}]},"stat":"ok"}