{"photos":{"page":1,"pages":12,"perpage":100,"total":1172,"photo":[{"id":"52630739603","owner":"30679992@N06","secret":"d7a0b96515","server":"65535","farm":66,"title":"Northern Bobwhite","ispublic":1,"isfriend":0,"isfamily":0},{"id":"52601442494","owner":"119095828@N03","secret":"cbb406aa58","server":"65535","farm":66,"title":"Northern Bobwhite (Colinus virginianus)","ispublic":1,"isfriend":0,"isfamily":0},{"id":"52601604095","owner":"119095828@N03","secret":"fb77ccee41","server":"65535","farm":66,"title":"Northern Bobwhite (Colinus virginianus)","ispublic":1,"isfriend":0,"isfamily":0},{"id":"52590817189","owner":"47020313@N08","secret":"6caaed7296","server":"65535","farm":66,"title":"Northern Bobwhite_MG_2373edtvg","ispublic":1,"isfriend":0,"isfamily":0},{"id":"52580551414","owner":"153973412@N04","secret":"a19c1e768c","server":"65535","farm":66,"title":"Northern Bobwhite-Colinus virginianus, Cone Marsh, IA","ispublic":1,"isfriend":0,"isfamily":0},{"id":"52578703314","owner":"99539857@N04","secret":"c1d28de26a","server":"65535","farm":66,"title":"Northern Bobwhite","ispublic":1,"isfriend":0,"isfamily":0},{"id":"52317949497","owner":"33277678@N03","secret":"1cbb883132","server":"65535","farm":66,"title":"Georgia '22","ispublic":1,"isfriend":0,"isfamily":0},{"id":"52309094544","owner":"25486180@N07","secret":"336b1f87da","server":"65535","farm":66,"title":"Northern bobwhite, Colinus virginianus","ispublic":1,"isfriend":0,"isfamily":0},{"id":"52308632093","owner":"49895863@N00","secret":"5e5e28ec59","server":"65535","farm":66,"title":"Northern Bobwhite (Colinus virginianus)","ispublic":1,"isfriend":0,"isfamily":0},{"id":"52291741496","owner":"124995824@N08","secret":"df0c269ea1","server":"65535","farm":66,"title":"Northern Bobwhite - Colinus virginianus","ispublic":1,"isfriend":0,"isfamily":0},{"id":"52241221326","owner":"47020313@N08","secret":"9debbbc314","server":"65535","farm":66,"title":"Northern Bobwhite IMG_8596 edtsg","ispublic":1,"isfriend":0,"isfamily":0},{"id":"52239162491","owner":"154499757@N06","secret":"91275edc77","server":"65535","farm":66,"title":"Masked Bobwhite Quail (Colinus virginianus ridgwayi)","ispublic":1,"isfriend":0,"isfamily":0},{"id":"52220935473","owner":"66709001@N00","secret":"f03230cd4d","server":"65535","farm":66,"title":"Northern Bobwhite (Colinus virginianus)","ispublic":1,"isfriend":0,"isfamily":0},{"id":"52192048320","owner":"124995824@N08","secret":"b3a0402b62","server":"65535","farm":66,"title":"Northern Bobwhite - Colinus virginianus","ispublic":1,"isfriend":0,"isfamily":0},{"id":"52191564341","owner":"124995824@N08","secret":"d293c95737","server":"65535","farm":66,"title":"Northern Bobwhite - Colinus virginianus","ispublic":1,"isfriend":0,"isfamily":0},{"id":"52175411961","owner":"54799211@N02","secret":"438dd7bb8f","server":"65535","farm":66,"title":"Northern Bobwhite","ispublic":1,"isfriend":0,"isfamily":0},{"id":"52158375380","owner":"39783429@N07","secret":"4361045eeb","server":"65535","farm":66,"title":"Handsome Visitor.","ispublic":1,"isfriend":0,"isfamily":0},{"id":"52146755493","owner":"59770980@N02","secret":"59532bc9d4","server":"65535","farm":66,"title":"Tannh\u00e6na-Northern Bobwhite-Colinus virginianus","ispublic":1,"isfriend":0,"isfamily":0},{"id":"52127996827","owner":"21875179@N06","secret":"61d7148da0","server":"65535","farm":66,"title":"NORTHERN BOBWHITE","ispublic":1,"isfriend":0,"isfamily":0},{"id":"52121769517","owner":"140386565@N02","secret":"52a530e8c5","server":"0","farm":0,"title":"Video: A Bob White Calling on the Pond","ispublic":1,"isfriend":0,"isfamily":0},{"id":"52068978256","owner":"37150247@N05","secret":"49d0be33e4","server":"65535","farm":66,"title":"MLS09476","ispublic":1,"isfriend":0,"isfamily":0},{"id":"52069210169","owner":"37150247@N05","secret":"74ac75285f","server":"65535","farm":66,"title":"MLS09464","ispublic":1,"isfriend":0,"isfamily":0},{"id":"52069462425","owner":"37150247@N05","secret":"3a21e15f41","server":"65535","farm":66,"title":"MLS09463","ispublic":1,"isfriend":0,"isfamily":0},{"id":"52069462400","owner":"37150247@N05","secret":"14897afa77","server":"65535","farm":66,"title":"MLS09478","ispublic":1,"isfriend":0,"isfamily":0},{"id":"52066058578","owner":"151381692@N04","secret":"6e57525040","server":"65535","farm":66,"title":"Northern Bobwhite (Colinus virginianus)","ispublic":1,"isfriend":0,"isfamily":0},{"id":"52046914182","owner":"38514062@N03","secret":"de3c0bac18","server":"65535","farm":66,"title":"Northern Bobwhite (Colinus virginianus)","ispublic":1,"isfriend":0,"isfamily":0},{"id":"52008656435","owner":"119787485@N07","secret":"4e0226aa42","server":"65535","farm":66,"title":"Northern Bobwhite (Colinus virginianus ) - 20170628-18","ispublic":1,"isfriend":0,"isfamily":0},{"id":"51879644201","owner":"95777434@N00","secret":"b21862739c","server":"65535","farm":66,"title":"Kearney, Mark - Northern Bobwhite","ispublic":1,"isfriend":0,"isfamily":0},{"id":"51870111317","owner":"194341957@N06","secret":"418835c24f","server":"65535","farm":66,"title":"northern bobwhite","ispublic":1,"isfriend":0,"isfamily":0},{"id":"51828090025","owner":"61301322@N08","secret":"d3f6bf4064","server":"65535","farm":66,"title":"Masked Bobwhite (Arizona-Sonora Desert Museum)","ispublic":1,"isfriend":0,"isfamily":0},{"id":"51706240526","owner":"22778339@N02","secret":"e4114b2d24","server":"65535","farm":66,"title":"Northern Bobwhite","ispublic":1,"isfriend":0,"isfamily":0},{"id":"51696766270","owner":"37072297@N06","secret":"051478f32b","server":"65535","farm":66,"title":"Plains Bobwhite","ispublic":1,"isfriend":0,"isfamily":0},{"id":"51690885803","owner":"59777454@N02","secret":"62a8c78767","server":"65535","farm":66,"title":"Northern Bobwhite Quail male in grass Tekiela IE6S6476","ispublic":1,"isfriend":0,"isfamily":0},{"id":"51651592455","owner":"142902404@N08","secret":"f7ee11a0f3","server":"65535","farm":66,"title":"Male Friends","ispublic":1,"isfriend":0,"isfamily":0},{"id":"51425932871","owner":"30679992@N06","secret":"05d3e48b03","server":"65535","farm":66,"title":"Northern Bobwhite","ispublic":1,"isfriend":0,"isfamily":0},{"id":"51416429616","owner":"61301322@N08","secret":"c22d40cb4e","server":"65535","farm":66,"title":"Northern Bobwhite (National Aviary)","ispublic":1,"isfriend":0,"isfamily":0},{"id":"51399390502","owner":"54546220@N00","secret":"ef45c02060","server":"65535","farm":66,"title":"Codorniz \/ Northern Bobwhite (Colinus virginianus)","ispublic":1,"isfriend":0,"isfamily":0},{"id":"51299344803","owner":"132165466@N08","secret":"e06874cfc3","server":"65535","farm":66,"title":"Northern Bobwhite, pair","ispublic":1,"isfriend":0,"isfamily":0},{"id":"51297136211","owner":"132165466@N08","secret":"50135aace6","server":"65535","farm":66,"title":"Northern Bobwhite, female","ispublic":1,"isfriend":0,"isfamily":0},{"id":"51292740790","owner":"132165466@N08","secret":"912478535e","server":"65535","farm":66,"title":"Northern Bobwhite, pair","ispublic":1,"isfriend":0,"isfamily":0},{"id":"51290990152","owner":"132165466@N08","secret":"88aecd74a4","server":"65535","farm":66,"title":"Northern Bobwhite, pair","ispublic":1,"isfriend":0,"isfamily":0},{"id":"51280686477","owner":"61021753@N02","secret":"9dcfbac2e5","server":"65535","farm":66,"title":"n72_w1150","ispublic":1,"isfriend":0,"isfamily":0},{"id":"51281278803","owner":"61021753@N02","secret":"7bc9535ac7","server":"65535","farm":66,"title":"n493_w1150","ispublic":1,"isfriend":0,"isfamily":0},{"id":"51266590369","owner":"61021753@N02","secret":"39f272d5fa","server":"65535","farm":66,"title":"n140_w1150","ispublic":1,"isfriend":0,"isfamily":0},{"id":"51263193367","owner":"61021753@N02","secret":"d9a266fa41","server":"65535","farm":66,"title":"n88_w1150","ispublic":1,"isfriend":0,"isfamily":0},{"id":"51262946342","owner":"61021753@N02","secret":"67dce0183d","server":"65535","farm":66,"title":"n66_w1150","ispublic":1,"isfriend":0,"isfamily":0},{"id":"51245580302","owner":"61021753@N02","secret":"89ac2394f0","server":"65535","farm":66,"title":"n11_w1150","ispublic":1,"isfriend":0,"isfamily":0},{"id":"51236963979","owner":"61021753@N02","secret":"52362485d3","server":"65535","farm":66,"title":"n214_w1150","ispublic":1,"isfriend":0,"isfamily":0},{"id":"51235373795","owner":"61021753@N02","secret":"11e5960dde","server":"65535","farm":66,"title":"n31_w1150","ispublic":1,"isfriend":0,"isfamily":0},{"id":"51222981278","owner":"61021753@N02","secret":"4091f3f27e","server":"65535","farm":66,"title":"n189_w1150","ispublic":1,"isfriend":0,"isfamily":0},{"id":"51222764351","owner":"61021753@N02","secret":"f535e61174","server":"65535","farm":66,"title":"n185_w1150","ispublic":1,"isfriend":0,"isfamily":0},{"id":"51212055703","owner":"21248205@N03","secret":"78355ea816","server":"65535","farm":66,"title":"Northern Bobwhite","ispublic":1,"isfriend":0,"isfamily":0},{"id":"51209187616","owner":"40928097@N07","secret":"a7f339aeb7","server":"65535","farm":66,"title":"Northern Bobwhite","ispublic":1,"isfriend":0,"isfamily":0},{"id":"51193539700","owner":"135315828@N06","secret":"1d89ea0efc","server":"65535","farm":66,"title":"IMG_2629","ispublic":1,"isfriend":0,"isfamily":0},{"id":"51193539025","owner":"135315828@N06","secret":"f06fd1a513","server":"65535","farm":66,"title":"IMG_2902","ispublic":1,"isfriend":0,"isfamily":0},{"id":"51193244344","owner":"135315828@N06","secret":"cd37a101aa","server":"65535","farm":66,"title":"IMG_2921","ispublic":1,"isfriend":0,"isfamily":0},{"id":"51175939714","owner":"38514062@N03","secret":"b97583816c","server":"65535","farm":66,"title":"Northern Bobwhite (Colinus virginianus)","ispublic":1,"isfriend":0,"isfamily":0},{"id":"51174559571","owner":"192872069@N08","secret":"8c91fc4e83","server":"65535","farm":66,"title":"Northern Bobwhite","ispublic":1,"isfriend":0,"isfamily":0},{"id":"51145755417","owner":"52631592@N05","secret":"7c54ec0d49","server":"65535","farm":66,"title":"Northern bobwhite (Colinus virginianus)","ispublic":1,"isfriend":0,"isfamily":0},{"id":"51141535302","owner":"61021753@N02","secret":"1b9b6bc610","server":"65535","farm":66,"title":"n164_w1150","ispublic":1,"isfriend":0,"isfamily":0},{"id":"51099655761","owner":"61021753@N02","secret":"3133456e08","server":"65535","farm":66,"title":"n152_w1150","ispublic":1,"isfriend":0,"isfamily":0},{"id":"52393526962","owner":"7633518@N08","secret":"c78b105e96","server":"65535","farm":66,"title":"Northern bobwhite (Colinus virginianus) at the Indianapolis Zoo","ispublic":1,"isfriend":0,"isfamily":0},{"id":"52374011273","owner":"124995824@N08","secret":"37a337e066","server":"65535","farm":66,"title":"Northern Bobwhite - Colinus virginianus","ispublic":1,"isfriend":0,"isfamily":0},{"id":"52221411410","owner":"66709001@N00","secret":"020f1dd232","server":"65535","farm":66,"title":"Northern Bobwhite (Colinus virginianus)","ispublic":1,"isfriend":0,"isfamily":0},{"id":"52198886459","owner":"13451078@N03","secret":"159f35bdd3","server":"65535","farm":66,"title":"Northern Bobwhite (Colinus virginianus)","ispublic":1,"isfriend":0,"isfamily":0},{"id":"52197608027","owner":"13451078@N03","secret":"dec8c084d5","server":"65535","farm":66,"title":"Northern Bobwhite (Colinus virginianus)","ispublic":1,"isfriend":0,"isfamily":0},{"id":"52111824424","owner":"57465751@N05","secret":"0f2a7e3407","server":"65535","farm":66,"title":"Northern Bobwhite (Colinus virginianus), Choke Canyon SP, McMullen Co., TX","ispublic":1,"isfriend":0,"isfamily":0},{"id":"52095063058","owner":"67306066@N03","secret":"583c6be0e0","server":"65535","farm":66,"title":"Northern Bobwhite (Colinus virginianus)","ispublic":1,"isfriend":0,"isfamily":0},{"id":"52091723378","owner":"21875179@N06","secret":"a8483cde05","server":"65535","farm":66,"title":"NORTHERN BOBWHITE","ispublic":1,"isfriend":0,"isfamily":0},{"id":"52040676944","owner":"22420387@N07","secret":"f0af05441e","server":"65535","farm":66,"title":"Northern Bobwhite - DEL_2038-LR-1","ispublic":1,"isfriend":0,"isfamily":0},{"id":"51815542697","owner":"59777454@N02","secret":"6549497f23","server":"65535","farm":66,"title":"Northern Bobwhite female Tekiela TEK2373-Edit","ispublic":1,"isfriend":0,"isfamily":0},{"id":"51741525358","owner":"194467431@N06","secret":"b1aa1bb409","server":"65535","farm":66,"title":"Northern Bobwhite","ispublic":1,"isfriend":0,"isfamily":0},{"id":"51741396855","owner":"33610210@N05","secret":"dd80edbc99","server":"65535","farm":66,"title":"Northern Bobwhite, Colinus virginianus","ispublic":1,"isfriend":0,"isfamily":0},{"id":"51741396800","owner":"33610210@N05","secret":"a3503a8339","server":"65535","farm":66,"title":"Northern Bobwhite, Colinus virginianus","ispublic":1,"isfriend":0,"isfamily":0},{"id":"51705135095","owner":"74787113@N05","secret":"5c286064b0","server":"65535","farm":66,"title":"NORTHERN BOBWHITE","ispublic":1,"isfriend":0,"isfamily":0},{"id":"51430477963","owner":"12639178@N07","secret":"34d547b1a6","server":"65535","farm":66,"title":"Virginiawachtel - Juli 21","ispublic":1,"isfriend":0,"isfamily":0},{"id":"51430242106","owner":"12639178@N07","secret":"e68a36d778","server":"65535","farm":66,"title":"Virginiawachtel - Juli 21","ispublic":1,"isfriend":0,"isfamily":0},{"id":"51429480812","owner":"12639178@N07","secret":"44bf544d86","server":"65535","farm":66,"title":"Virginiawachtel - Juli 21","ispublic":1,"isfriend":0,"isfamily":0},{"id":"51402317116","owner":"28499865@N07","secret":"7f71d4e234","server":"65535","farm":66,"title":"Northern Bobwhite - Colinus virginianus","ispublic":1,"isfriend":0,"isfamily":0},{"id":"51403075784","owner":"28499865@N07","secret":"746e5db4b7","server":"65535","farm":66,"title":"Northern Bobwhite - Colinus virginianus","ispublic":1,"isfriend":0,"isfamily":0},{"id":"51400138466","owner":"54546220@N00","secret":"170c5eb80b","server":"65535","farm":66,"title":"Codorniz \/ Northern Bobwhite (Colinus virginianus)","ispublic":1,"isfriend":0,"isfamily":0},{"id":"51360075213","owner":"193616841@N07","secret":"bd2130eea8","server":"65535","farm":66,"title":"Bobwhite Quail (Colinus virginianus) 5807101702","ispublic":1,"isfriend":0,"isfamily":0},{"id":"51298420487","owner":"132165466@N08","secret":"2a0260b330","server":"65535","farm":66,"title":"Northern Bobwhite, pair","ispublic":1,"isfriend":0,"isfamily":0},{"id":"51290194146","owner":"132165466@N08","secret":"2e1dae98d7","server":"65535","farm":66,"title":"Northern Bobwhite","ispublic":1,"isfriend":0,"isfamily":0},{"id":"51289445277","owner":"132165466@N08","secret":"4d98385765","server":"65535","farm":66,"title":"Northern Bobwhite","ispublic":1,"isfriend":0,"isfamily":0},{"id":"51270904293","owner":"193250255@N08","secret":"c11552e836","server":"0","farm":0,"title":"91\/92. Red Wing Black Bird (sound)\/ Northern Bobwhite (sound)","ispublic":1,"isfriend":0,"isfamily":0},{"id":"51264092033","owner":"61021753@N02","secret":"2638d5c974","server":"65535","farm":66,"title":"n0_w1150","ispublic":1,"isfriend":0,"isfamily":0},{"id":"51192473276","owner":"135315828@N06","secret":"55b53fd19d","server":"65535","farm":66,"title":"IMG_2625","ispublic":1,"isfriend":0,"isfamily":0},{"id":"51191765257","owner":"135315828@N06","secret":"d0232d3ca7","server":"65535","farm":66,"title":"IMG_2644","ispublic":1,"isfriend":0,"isfamily":0},{"id":"51155948083","owner":"61021753@N02","secret":"6da51e5a05","server":"65535","farm":66,"title":"n246_w1150","ispublic":1,"isfriend":0,"isfamily":0},{"id":"51147529845","owner":"52631592@N05","secret":"b26141af95","server":"65535","farm":66,"title":"Northern bobwhite (Colinus virginianus)","ispublic":1,"isfriend":0,"isfamily":0},{"id":"51101798094","owner":"132165466@N08","secret":"c1d7f16b00","server":"65535","farm":66,"title":"Northern Bobwhite","ispublic":1,"isfriend":0,"isfamily":0},{"id":"51101798089","owner":"132165466@N08","secret":"8e6ce3770f","server":"65535","farm":66,"title":"Northern Bobwhite","ispublic":1,"isfriend":0,"isfamily":0},{"id":"51101817672","owner":"132165466@N08","secret":"730663ea85","server":"65535","farm":66,"title":"Northern Bobwhite","ispublic":1,"isfriend":0,"isfamily":0},{"id":"51101809642","owner":"132165466@N08","secret":"933edc4643","server":"65535","farm":66,"title":"Northern Bobwhite","ispublic":1,"isfriend":0,"isfamily":0},{"id":"51101953958","owner":"132165466@N08","secret":"66d2e4ebc5","server":"65535","farm":66,"title":"Northern Bobwhite","ispublic":1,"isfriend":0,"isfamily":0},{"id":"51101711646","owner":"132165466@N08","secret":"3b394ce8a4","server":"65535","farm":66,"title":"Northern Bobwhite","ispublic":1,"isfriend":0,"isfamily":0},{"id":"51101599393","owner":"132165466@N08","secret":"1d67826239","server":"65535","farm":66,"title":"Northern Bobwhite","ispublic":1,"isfriend":0,"isfamily":0},{"id":"51101858465","owner":"132165466@N08","secret":"10f0ec7df8","server":"65535","farm":66,"title":"Northern Bobwhite","ispublic":1,"isfriend":0,"isfamily":0},{"id":"51101137019","owner":"132165466@N08","secret":"f3184453e7","server":"65535","farm":66,"title":"Northern Bobwhite","ispublic":1,"isfriend":0,"isfamily":0}]},"stat":"ok"}