{"photos":{"page":1,"pages":294,"perpage":100,"total":29322,"photo":[{"id":"52793005713","owner":"83427488@N02","secret":"fd13cc3021","server":"65535","farm":66,"title":"Collalba gris \/ Northern wheatear (Oenanthe oenanthe)","ispublic":1,"isfriend":0,"isfamily":0},{"id":"52792560246","owner":"83427488@N02","secret":"9d94ba40ec","server":"65535","farm":66,"title":"Collalba gris \/ Northern wheatear (Oenanthe oenanthe)","ispublic":1,"isfriend":0,"isfamily":0},{"id":"52792800154","owner":"83427488@N02","secret":"04ccae93ec","server":"65535","farm":66,"title":"Collalba gris \/ Northern wheatear (Oenanthe oenanthe)","ispublic":1,"isfriend":0,"isfamily":0},{"id":"52791650177","owner":"134610359@N02","secret":"4b74371ae8","server":"65535","farm":66,"title":"Chasco-ruivo - DSCF5205","ispublic":1,"isfriend":0,"isfamily":0},{"id":"52792602355","owner":"134610359@N02","secret":"bfb4cf15ea","server":"65535","farm":66,"title":"Chasco-ruivo - DSCF5189","ispublic":1,"isfriend":0,"isfamily":0},{"id":"52792446339","owner":"134610359@N02","secret":"615c0f1c57","server":"65535","farm":66,"title":"Chasco-ruivo - DSCF5210","ispublic":1,"isfriend":0,"isfamily":0},{"id":"52792578040","owner":"14888671@N02","secret":"32bf5bccfc","server":"65535","farm":66,"title":"Eastern Black-eared Wheatear","ispublic":1,"isfriend":0,"isfamily":0},{"id":"52792578020","owner":"14888671@N02","secret":"7cb7196128","server":"65535","farm":66,"title":"Eastern Black-eared Wheatear","ispublic":1,"isfriend":0,"isfamily":0},{"id":"52791582419","owner":"95482238@N02","secret":"a0c403b685","server":"65535","farm":66,"title":"familiar chat - Khowarib Lodge, Namibia","ispublic":1,"isfriend":0,"isfamily":0},{"id":"52790715150","owner":"39854996@N00","secret":"cbf6f32924","server":"65535","farm":66,"title":"Wheatear   \"Oenanthe oenanthe\"","ispublic":1,"isfriend":0,"isfamily":0},{"id":"52790147150","owner":"134610359@N02","secret":"db883d5b0c","server":"65535","farm":66,"title":"Chasco-ruivo - DSCF5163","ispublic":1,"isfriend":0,"isfamily":0},{"id":"52789196512","owner":"134610359@N02","secret":"d3980e76da","server":"65535","farm":66,"title":"Chasco-ruivo - DSCF5170","ispublic":1,"isfriend":0,"isfamily":0},{"id":"52790147115","owner":"134610359@N02","secret":"68e231fbef","server":"65535","farm":66,"title":"Chasco-ruivo - DSCF5161","ispublic":1,"isfriend":0,"isfamily":0},{"id":"52790147080","owner":"134610359@N02","secret":"4e857495d9","server":"65535","farm":66,"title":"Chasco-ruivo - DSCF5142","ispublic":1,"isfriend":0,"isfamily":0},{"id":"52788365944","owner":"80036114@N08","secret":"411833537b","server":"65535","farm":66,"title":"wheatear - Oenanthe oenante","ispublic":1,"isfriend":0,"isfamily":0},{"id":"52788579228","owner":"12639178@N07","secret":"0f6f9155e3","server":"65535","farm":66,"title":"Rostschwanz (Oenanthe familiaris), Namibia","ispublic":1,"isfriend":0,"isfamily":0},{"id":"52786272345","owner":"156090455@N08","secret":"6c07a2a657","server":"65535","farm":66,"title":"61\/2023 - Collalba gris, macho. (Oenanthe oenanthe).","ispublic":1,"isfriend":0,"isfamily":0},{"id":"52785264594","owner":"39854996@N00","secret":"77e47e9091","server":"65535","farm":66,"title":"Wheatear   \"Oenanthe oenanthe\"","ispublic":1,"isfriend":0,"isfamily":0},{"id":"52784026288","owner":"12639178@N07","secret":"a81d073e04","server":"65535","farm":66,"title":"Rostschwanz (Oenanthe familiaris), Namibia","ispublic":1,"isfriend":0,"isfamily":0},{"id":"52783740273","owner":"53946928@N03","secret":"1e8c498b39","server":"65535","farm":66,"title":"Tapuit - Oenanthe oenanthe","ispublic":1,"isfriend":0,"isfamily":0},{"id":"52783611803","owner":"78465328@N04","secret":"377920eea7","server":"65535","farm":66,"title":"Northern Wheatear","ispublic":1,"isfriend":0,"isfamily":0},{"id":"52782143736","owner":"95482238@N02","secret":"4c02f13861","server":"65535","farm":66,"title":"familiar chat - Palmwag Lodge, NW Namibia","ispublic":1,"isfriend":0,"isfamily":0},{"id":"52782605153","owner":"95482238@N02","secret":"1eba189f2d","server":"65535","farm":66,"title":"familiar chat - Palmwag Lodge, NW Namibia","ispublic":1,"isfriend":0,"isfamily":0},{"id":"52782044614","owner":"28092414@N03","secret":"7e01067096","server":"65535","farm":66,"title":"Desert Wheatear at Al Mugsayl S24A2077","ispublic":1,"isfriend":0,"isfamily":0},{"id":"52781800906","owner":"28092414@N03","secret":"405e5f76cb","server":"65535","farm":66,"title":"Desert Wheatear at Al Mugsayl S24A2100","ispublic":1,"isfriend":0,"isfamily":0},{"id":"52782206050","owner":"28092414@N03","secret":"99785e5e96","server":"65535","farm":66,"title":"Desert Wheatear at Al Mugsayl S24A2110","ispublic":1,"isfriend":0,"isfamily":0},{"id":"52782205970","owner":"28092414@N03","secret":"da46f20df4","server":"65535","farm":66,"title":"Desert Wheatear at Al Mugsayl S24A2148","ispublic":1,"isfriend":0,"isfamily":0},{"id":"52781987903","owner":"12639178@N07","secret":"25d36045af","server":"65535","farm":66,"title":"Rostschwanz-Steinschm\u00e4tzer (Oenanthe familiaris), Namibia","ispublic":1,"isfriend":0,"isfamily":0},{"id":"52781648565","owner":"193852398@N04","secret":"f88627b970","server":"65535","farm":66,"title":"_DSC5733","ispublic":1,"isfriend":0,"isfamily":0},{"id":"52781671348","owner":"78465328@N04","secret":"0ddaa5b5fc","server":"65535","farm":66,"title":"Northern Wheatear","ispublic":1,"isfriend":0,"isfamily":0},{"id":"52779880254","owner":"186252557@N03","secret":"cdb880b004","server":"65535","farm":66,"title":"Steinschm\u00e4tzer, Oenanthe oenanthe","ispublic":1,"isfriend":0,"isfamily":0},{"id":"52779351889","owner":"39854996@N00","secret":"d363c46abd","server":"65535","farm":66,"title":"Wheatear   \"Oenanthe oenanthe\"","ispublic":1,"isfriend":0,"isfamily":0},{"id":"52779247065","owner":"193852398@N04","secret":"58a03c8893","server":"65535","farm":66,"title":"_DSC5702","ispublic":1,"isfriend":0,"isfamily":0},{"id":"52776952534","owner":"126190697@N04","secret":"f631893f50","server":"65535","farm":66,"title":"Wheatear (oenanthe oenanthe)","ispublic":1,"isfriend":0,"isfamily":0},{"id":"52776854425","owner":"95579115@N03","secret":"4a5f2d1008","server":"65535","farm":66,"title":"Hume's Wheatear (Lifer) (Oenanthe albonigra) \u0427\u0435\u0440\u043d\u043e\u0433\u043e\u043b\u043e\u0432\u0430\u044f \u043a\u0430\u043c\u0435\u043d\u043a\u0430","ispublic":1,"isfriend":0,"isfamily":0},{"id":"52776613595","owner":"35929039@N07","secret":"0490526b2c","server":"65535","farm":66,"title":"Nothern Wheatear (Oenanthe oenanthe)","ispublic":1,"isfriend":0,"isfamily":0},{"id":"52772128337","owner":"63223331@N05","secret":"2e88f68787","server":"65535","farm":66,"title":"Northern Wheatear (Oenanthe oenanthe) \/ Clochr\u00e1n","ispublic":1,"isfriend":0,"isfamily":0},{"id":"52772658376","owner":"63223331@N05","secret":"ae96f52d0b","server":"65535","farm":66,"title":"Northern Wheatear (Oenanthe oenanthe) \/ Clochr\u00e1n","ispublic":1,"isfriend":0,"isfamily":0},{"id":"52773173968","owner":"134610359@N02","secret":"332c43a0d3","server":"65535","farm":66,"title":"Chasco-ruivo - DSCF1333","ispublic":1,"isfriend":0,"isfamily":0},{"id":"52772689001","owner":"134610359@N02","secret":"c2d67a725c","server":"65535","farm":66,"title":"Chasco-ruivo - DSCF1328","ispublic":1,"isfriend":0,"isfamily":0},{"id":"52772159047","owner":"134610359@N02","secret":"9d46754eff","server":"65535","farm":66,"title":"Chasco-ruivo - DSCF1315","ispublic":1,"isfriend":0,"isfamily":0},{"id":"52772688771","owner":"134610359@N02","secret":"8040b2f13b","server":"65535","farm":66,"title":"Chasco-ruivo - DSCF1316","ispublic":1,"isfriend":0,"isfamily":0},{"id":"52772947604","owner":"134610359@N02","secret":"7431a97179","server":"65535","farm":66,"title":"Chasco-ruivo - DSCF1309","ispublic":1,"isfriend":0,"isfamily":0},{"id":"52773173383","owner":"134610359@N02","secret":"f0817ff7fb","server":"65535","farm":66,"title":"Chasco-ruivo - DSCF1288","ispublic":1,"isfriend":0,"isfamily":0},{"id":"52772883828","owner":"107784905@N04","secret":"fefb502fa8","server":"65535","farm":66,"title":"Traquet motteux - Scourie\/Scotland\/UK_20220613_014-1","ispublic":1,"isfriend":0,"isfamily":0},{"id":"52772439930","owner":"62766146@N07","secret":"3a7b3de589","server":"65535","farm":66,"title":"Steindepill -  Wheatear - Oenanthe oenanthe - jpg.8870","ispublic":1,"isfriend":0,"isfamily":0},{"id":"52772280099","owner":"62766146@N07","secret":"e08d0f410f","server":"65535","farm":66,"title":"Steindepill -  Wheatear - Oenanthe oenanthe - jpg.3355","ispublic":1,"isfriend":0,"isfamily":0},{"id":"52772277694","owner":"62766146@N07","secret":"fab882416e","server":"65535","farm":66,"title":"Steindepill -  Wheatear - Oenanthe oenanthe - jpg.0774","ispublic":1,"isfriend":0,"isfamily":0},{"id":"52770326737","owner":"134610359@N02","secret":"5e3d0f10be","server":"65535","farm":66,"title":"Chasco-ruivo - DSCF1998","ispublic":1,"isfriend":0,"isfamily":0},{"id":"52770326507","owner":"134610359@N02","secret":"637b565b11","server":"65535","farm":66,"title":"Chasco-ruivo - DSCF2004","ispublic":1,"isfriend":0,"isfamily":0},{"id":"52770325992","owner":"134610359@N02","secret":"a3e87ae68c","server":"65535","farm":66,"title":"Chasco-ruivo - DSCF2013","ispublic":1,"isfriend":0,"isfamily":0},{"id":"52771349263","owner":"134610359@N02","secret":"af478f2611","server":"65535","farm":66,"title":"Chasco-ruivo - DSCF2499","ispublic":1,"isfriend":0,"isfamily":0},{"id":"52770325417","owner":"134610359@N02","secret":"e2b3177ccc","server":"65535","farm":66,"title":"Chasco-ruivo - DSCF2519","ispublic":1,"isfriend":0,"isfamily":0},{"id":"52771271730","owner":"134610359@N02","secret":"a20c5bd431","server":"65535","farm":66,"title":"Chasco-ruivo - DSCF2530","ispublic":1,"isfriend":0,"isfamily":0},{"id":"52769847082","owner":"12639178@N07","secret":"f13a2f4e7c","server":"65535","farm":66,"title":"Saharasteinschm\u00e4tzer (Oenanthe leucopyga) (1)","ispublic":1,"isfriend":0,"isfamily":0},{"id":"52770576073","owner":"12639178@N07","secret":"10ebdd1021","server":"65535","farm":66,"title":"Saharasteinschm\u00e4tzer (Oenanthe leucopyga)","ispublic":1,"isfriend":0,"isfamily":0},{"id":"52770342249","owner":"12639178@N07","secret":"f7acb203fd","server":"65535","farm":66,"title":"Saharasteinschm\u00e4tzer (Oenanthe leucopyga)","ispublic":1,"isfriend":0,"isfamily":0},{"id":"52770070654","owner":"31077542@N03","secret":"9f37f7f227","server":"65535","farm":66,"title":"Oenanthe oenanthe","ispublic":1,"isfriend":0,"isfamily":0},{"id":"52769835990","owner":"197107693@N07","secret":"402d5c24b8","server":"65535","farm":66,"title":"Northern Wheatear - \u03a3\u03c4\u03b1\u03c7\u03c4\u03bf\u03c0\u03b5\u03c4\u03c1\u03cc\u03ba\u03bb\u03b7\u03c2 - Oenanthe oenanthe","ispublic":1,"isfriend":0,"isfamily":0},{"id":"52769835805","owner":"197107693@N07","secret":"1408652fdc","server":"65535","farm":66,"title":"Northern Wheatear - \u03a3\u03c4\u03b1\u03c7\u03c4\u03bf\u03c0\u03b5\u03c4\u03c1\u03cc\u03ba\u03bb\u03b7\u03c2 - Oenanthe oenanthe","ispublic":1,"isfriend":0,"isfamily":0},{"id":"52769835680","owner":"197107693@N07","secret":"9f2e003fc4","server":"65535","farm":66,"title":"Northern Wheatear - \u03a3\u03c4\u03b1\u03c7\u03c4\u03bf\u03c0\u03b5\u03c4\u03c1\u03cc\u03ba\u03bb\u03b7\u03c2 - Oenanthe oenanthe","ispublic":1,"isfriend":0,"isfamily":0},{"id":"52768230114","owner":"77469100@N04","secret":"5e13fb71c9","server":"65535","farm":66,"title":"White-crowned Wheatear - Jordan_7545","ispublic":1,"isfriend":0,"isfamily":0},{"id":"52766468311","owner":"77469100@N04","secret":"8f88743e26","server":"65535","farm":66,"title":"Blackstart Jordan_7563","ispublic":1,"isfriend":0,"isfamily":0},{"id":"52767158971","owner":"68466173@N02","secret":"094e28704a","server":"65535","farm":66,"title":"Isabelline Wheatear (Oenanthe isabellina)","ispublic":1,"isfriend":0,"isfamily":0},{"id":"52766618757","owner":"68466173@N02","secret":"301492f0a2","server":"65535","farm":66,"title":"Desert Wheatear (Oenanthe deserti)","ispublic":1,"isfriend":0,"isfamily":0},{"id":"52765488367","owner":"39854996@N00","secret":"9bffab1b42","server":"65535","farm":66,"title":"Wheatear   \"Oenanthe oenanthe\"","ispublic":1,"isfriend":0,"isfamily":0},{"id":"52764472968","owner":"30722034@N02","secret":"82ac2a2c62","server":"65535","farm":66,"title":"Capped wheatear\/Oenanthe pileata","ispublic":1,"isfriend":0,"isfamily":0},{"id":"52761894882","owner":"68466173@N02","secret":"ab94b5b7ef","server":"65535","farm":66,"title":"Desert Wheatear (Oenanthe deserti)","ispublic":1,"isfriend":0,"isfamily":0},{"id":"52762387558","owner":"28092414@N03","secret":"8c2f64791e","server":"65535","farm":66,"title":"Isabelline Wheatear at Taqah S24A1868","ispublic":1,"isfriend":0,"isfamily":0},{"id":"52761898571","owner":"28092414@N03","secret":"7049ef8e03","server":"65535","farm":66,"title":"Female Desert Wheatear Taqah S24A1885","ispublic":1,"isfriend":0,"isfamily":0},{"id":"52761898536","owner":"28092414@N03","secret":"884e1e5148","server":"65535","farm":66,"title":"Female Desert Wheatear Taqah S24A1888","ispublic":1,"isfriend":0,"isfamily":0},{"id":"52762147924","owner":"28092414@N03","secret":"1cdb772437","server":"65535","farm":66,"title":"Isabelline Wheatear at Taqah S24A1903","ispublic":1,"isfriend":0,"isfamily":0},{"id":"52760125105","owner":"127058286@N04","secret":"6c45762538","server":"65535","farm":66,"title":"Traquet motteux - Northern Wheatear (Oenanthe oenanthe) - Saint-Sorlin-d'Arves - Refuge de l'\u00e9tendard (Savoie) France, le 10 septembre 2022","ispublic":1,"isfriend":0,"isfamily":0},{"id":"52758516889","owner":"67057396@N02","secret":"7865e388aa","server":"65535","farm":66,"title":"Oenanthe leucura","ispublic":1,"isfriend":0,"isfamily":0},{"id":"52757728427","owner":"67057396@N02","secret":"f778e8f6b6","server":"65535","farm":66,"title":"Oenanthe leucura","ispublic":1,"isfriend":0,"isfamily":0},{"id":"52755075952","owner":"42118189@N05","secret":"5cebd877f7","server":"65535","farm":66,"title":"male Northern Wheatear - Oenanthe oenanthe","ispublic":1,"isfriend":0,"isfamily":0},{"id":"52755078637","owner":"52913721@N08","secret":"d0889b1e16","server":"65535","farm":66,"title":"Wheatear (Oenanthe oenanthe)","ispublic":1,"isfriend":0,"isfamily":0},{"id":"52755087911","owner":"12639178@N07","secret":"d209417e37","server":"65535","farm":66,"title":"Kappensteinschm\u00e4tzer","ispublic":1,"isfriend":0,"isfamily":0},{"id":"52754381807","owner":"12639178@N07","secret":"9ff5e102ed","server":"65535","farm":66,"title":"Saharasteinschm\u00e4tzer","ispublic":1,"isfriend":0,"isfamily":0},{"id":"52754381667","owner":"12639178@N07","secret":"2879f034a1","server":"65535","farm":66,"title":"Saharasteinschm\u00e4tzer","ispublic":1,"isfriend":0,"isfamily":0},{"id":"52755165334","owner":"12639178@N07","secret":"771fc8de89","server":"65535","farm":66,"title":"Dr\u00e4ngte sich auch mit ins Bild :)","ispublic":1,"isfriend":0,"isfamily":0},{"id":"52755165184","owner":"12639178@N07","secret":"a4f287ebc3","server":"65535","farm":66,"title":"Saharasteinschm\u00e4tzer","ispublic":1,"isfriend":0,"isfamily":0},{"id":"52755326515","owner":"12639178@N07","secret":"92f84af938","server":"65535","farm":66,"title":"Kappensteinschm\u00e4tzer","ispublic":1,"isfriend":0,"isfamily":0},{"id":"52754307602","owner":"134610359@N02","secret":"6d37b51115","server":"65535","farm":66,"title":"Chasco-preto - DSCF8717","ispublic":1,"isfriend":0,"isfamily":0},{"id":"52755335993","owner":"134610359@N02","secret":"cbe354042d","server":"65535","farm":66,"title":"Chasco-preto - DSCF8662","ispublic":1,"isfriend":0,"isfamily":0},{"id":"52753707129","owner":"47492059@N00","secret":"ecd6fa15c5","server":"65535","farm":66,"title":"Hemlock Water Dropwort, Water Hemlock, Dead Mans Fingers, Dead Tongue, Oenanthe crocata","ispublic":1,"isfriend":0,"isfamily":0},{"id":"52753812723","owner":"12639178@N07","secret":"8423257fb9","server":"65535","farm":66,"title":"Saharasteinschm\u00e4tzer, 1.WK","ispublic":1,"isfriend":0,"isfamily":0},{"id":"52752190549","owner":"145489125@N03","secret":"07ee2b0c9a","server":"65535","farm":66,"title":"Black Wheatear ( Oenanthe leucura ) ... Southern Morocco","ispublic":1,"isfriend":0,"isfamily":0},{"id":"52751057170","owner":"134610359@N02","secret":"2de21a43fb","server":"65535","farm":66,"title":"Chasco-preto - DSCF8644","ispublic":1,"isfriend":0,"isfamily":0},{"id":"52751139858","owner":"134610359@N02","secret":"f869afd7c6","server":"65535","farm":66,"title":"Chasco-preto - DSCF8656","ispublic":1,"isfriend":0,"isfamily":0},{"id":"52750649781","owner":"134610359@N02","secret":"b178847d83","server":"65535","farm":66,"title":"Chasco-preto - DSCF8682","ispublic":1,"isfriend":0,"isfamily":0},{"id":"52750114122","owner":"134610359@N02","secret":"0f38e25959","server":"65535","farm":66,"title":"Chasco-preto - DSCF8722","ispublic":1,"isfriend":0,"isfamily":0},{"id":"52770575703","owner":"12639178@N07","secret":"e05f692060","server":"65535","farm":66,"title":"Saharasteinschm\u00e4tzer (Oenanthe leucopyga)","ispublic":1,"isfriend":0,"isfamily":0},{"id":"52763038063","owner":"12639178@N07","secret":"2033f32331","server":"65535","farm":66,"title":"Saharasteinschm\u00e4tzer (Oenanthe leucopyga)","ispublic":1,"isfriend":0,"isfamily":0},{"id":"52762799074","owner":"12639178@N07","secret":"365873fe5c","server":"65535","farm":66,"title":"Saharasteinschm\u00e4tzer (Oenanthe leucopyga)","ispublic":1,"isfriend":0,"isfamily":0},{"id":"52763035408","owner":"12639178@N07","secret":"2f679fd8a5","server":"65535","farm":66,"title":"Trauersteinschm\u00e4tzer (Oenanthe leucura)","ispublic":1,"isfriend":0,"isfamily":0},{"id":"52760096849","owner":"127058286@N04","secret":"e22aab2993","server":"65535","farm":66,"title":"Traquet motteux - Northern Wheatear (Oenanthe oenanthe) -  La C\u00f4te-Saint-Andr\u00e9 - La Croix Bellier (Is\u00e8re) France, le 1 octobre 2022","ispublic":1,"isfriend":0,"isfamily":0},{"id":"52753812558","owner":"12639178@N07","secret":"9012c2e36a","server":"65535","farm":66,"title":"Saharasteinschm\u00e4tzer, 1.WK","ispublic":1,"isfriend":0,"isfamily":0},{"id":"52753728235","owner":"12639178@N07","secret":"e3088b2e7b","server":"65535","farm":66,"title":"Saharasteinschm\u00e4tzer","ispublic":1,"isfriend":0,"isfamily":0},{"id":"52752784067","owner":"12639178@N07","secret":"f6de07afeb","server":"65535","farm":66,"title":"Saharasteinschm\u00e4tzer","ispublic":1,"isfriend":0,"isfamily":0}]},"stat":"ok"}