{"photos":{"page":1,"pages":54,"perpage":100,"total":5342,"photo":[{"id":"52791823387","owner":"12639178@N07","secret":"7719442a41","server":"65535","farm":66,"title":"L\u00f6ffelente","ispublic":1,"isfriend":0,"isfamily":0},{"id":"52792380486","owner":"12639178@N07","secret":"7bc3401a02","server":"65535","farm":66,"title":"L\u00f6ffelente","ispublic":1,"isfriend":0,"isfamily":0},{"id":"52792826463","owner":"12639178@N07","secret":"c2acfaf1f8","server":"65535","farm":66,"title":"L\u00f6ffelente","ispublic":1,"isfriend":0,"isfamily":0},{"id":"52792826353","owner":"12639178@N07","secret":"3dbfbe238a","server":"65535","farm":66,"title":"L\u00f6ffelente","ispublic":1,"isfriend":0,"isfamily":0},{"id":"52792104404","owner":"53256251@N04","secret":"844fec4761","server":"65535","farm":66,"title":"Birds of a Feather Flock with Others","ispublic":1,"isfriend":0,"isfamily":0},{"id":"52791490546","owner":"53280041@N04","secret":"bd4b67cd34","server":"65535","farm":66,"title":"Shoveler","ispublic":1,"isfriend":0,"isfamily":0},{"id":"52791883540","owner":"53280041@N04","secret":"45ebf5b0ff","server":"65535","farm":66,"title":"Shoveler","ispublic":1,"isfriend":0,"isfamily":0},{"id":"52791549039","owner":"197922144@N02","secret":"9cd55c0f4b","server":"65535","farm":66,"title":"Chariots of Fire by Rick C. Graham","ispublic":1,"isfriend":0,"isfamily":0},{"id":"52790625532","owner":"195242409@N06","secret":"6de741f2b1","server":"65535","farm":66,"title":"Canard souchet (Spatula clypeata - Anatidae)","ispublic":1,"isfriend":0,"isfamily":0},{"id":"52790953111","owner":"12639178@N07","secret":"fc6a54e9f8","server":"65535","farm":66,"title":"L\u00f6ffelente (Spatula clypeata)","ispublic":1,"isfriend":0,"isfamily":0},{"id":"52787249027","owner":"135315828@N06","secret":"670265d014","server":"65535","farm":66,"title":"northern shoveler","ispublic":1,"isfriend":0,"isfamily":0},{"id":"52787800661","owner":"135315828@N06","secret":"1b680424fa","server":"65535","farm":66,"title":"northern shoveler","ispublic":1,"isfriend":0,"isfamily":0},{"id":"52786221747","owner":"12639178@N07","secret":"88a637454f","server":"65535","farm":66,"title":"L\u00f6ffelente","ispublic":1,"isfriend":0,"isfamily":0},{"id":"52784711852","owner":"154079941@N02","secret":"8f7579ea1d","server":"65535","farm":66,"title":"Shoveler","ispublic":1,"isfriend":0,"isfamily":0},{"id":"52783503312","owner":"23985726@N05","secret":"0b18146f00","server":"65535","farm":66,"title":"Spatula clypeata","ispublic":1,"isfriend":0,"isfamily":0},{"id":"52784054311","owner":"23985726@N05","secret":"d1701ca791","server":"65535","farm":66,"title":"Anas crecca","ispublic":1,"isfriend":0,"isfamily":0},{"id":"52783133926","owner":"12639178@N07","secret":"6572fd5ec7","server":"65535","farm":66,"title":"..nicht nur L\u00f6ffelohren zu Ostern, auch L\u00f6ffelenten..","ispublic":1,"isfriend":0,"isfamily":0},{"id":"52782077628","owner":"12639178@N07","secret":"82813b37e8","server":"65535","farm":66,"title":"Spie\u00df-, Pfeif- u. L\u00f6ffelenten","ispublic":1,"isfriend":0,"isfamily":0},{"id":"52782069153","owner":"194955224@N03","secret":"16dcaff6d9","server":"65535","farm":66,"title":"Canard souchet (Spatula clypeata)","ispublic":1,"isfriend":0,"isfamily":0},{"id":"52779976934","owner":"37242840@N07","secret":"7e169466d5","server":"65535","farm":66,"title":"Northern Shoveler Duck, Spatula clypeata (3)","ispublic":1,"isfriend":0,"isfamily":0},{"id":"52780143160","owner":"37242840@N07","secret":"ef44b25ec0","server":"65535","farm":66,"title":"Northern Shoveler Duck, Spatula clypeata, female (2)","ispublic":1,"isfriend":0,"isfamily":0},{"id":"52779725021","owner":"37242840@N07","secret":"de202c3d0b","server":"65535","farm":66,"title":"Northern Shoveler Duck, Spatula clypeata, male (4)","ispublic":1,"isfriend":0,"isfamily":0},{"id":"52780198308","owner":"37242840@N07","secret":"bc9a98b74b","server":"65535","farm":66,"title":"Northern Shoveler Duck, Spatula clypeata, male (7)","ispublic":1,"isfriend":0,"isfamily":0},{"id":"52779724916","owner":"37242840@N07","secret":"020a1ef654","server":"65535","farm":66,"title":"Northern Shoveler Ducks, Spatula clypeata (10)","ispublic":1,"isfriend":0,"isfamily":0},{"id":"52780142960","owner":"37242840@N07","secret":"5f8ff1a651","server":"65535","farm":66,"title":"Northern Shoveler Duck, Spatulas clypeata, female (1)","ispublic":1,"isfriend":0,"isfamily":0},{"id":"52779976609","owner":"37242840@N07","secret":"7a25579d16","server":"65535","farm":66,"title":"Northern Shoveler Duck,Spatula clypeata, male (8)","ispublic":1,"isfriend":0,"isfamily":0},{"id":"52779976584","owner":"37242840@N07","secret":"2a82cf943d","server":"65535","farm":66,"title":"Northern Shoveler Ducks, Spatula clypeata (2)","ispublic":1,"isfriend":0,"isfamily":0},{"id":"52779827833","owner":"12639178@N07","secret":"599bb0b1f5","server":"65535","farm":66,"title":"L\u00f6ffelente (Spatula clypeata) (1)","ispublic":1,"isfriend":0,"isfamily":0},{"id":"52777484781","owner":"12639178@N07","secret":"e6911e1948","server":"65535","farm":66,"title":"L\u00f6ffelente","ispublic":1,"isfriend":0,"isfamily":0},{"id":"52777259069","owner":"12639178@N07","secret":"ba17d596ac","server":"65535","farm":66,"title":"L\u00f6ffelententrupp","ispublic":1,"isfriend":0,"isfamily":0},{"id":"52777481158","owner":"12639178@N07","secret":"5126111bd6","server":"65535","farm":66,"title":"L\u00f6ffelentenpaar","ispublic":1,"isfriend":0,"isfamily":0},{"id":"52777159869","owner":"12639178@N07","secret":"f616a286fd","server":"65535","farm":66,"title":"L\u00f6ffelente (m), 230328","ispublic":1,"isfriend":0,"isfamily":0},{"id":"52776687053","owner":"123529713@N08","secret":"a47afeac9e","server":"65535","farm":66,"title":"Anec cullerot comu - Cuchara comun - Northern shoveler - Canard souchet - Spatula clypeata","ispublic":1,"isfriend":0,"isfamily":0},{"id":"52776595415","owner":"12639178@N07","secret":"b2d87090b7","server":"65535","farm":66,"title":"L\u00f6ffelente","ispublic":1,"isfriend":0,"isfamily":0},{"id":"52774931554","owner":"12639178@N07","secret":"094f2ed688","server":"65535","farm":66,"title":"L\u00f6ffelente (w)","ispublic":1,"isfriend":0,"isfamily":0},{"id":"52774930694","owner":"12639178@N07","secret":"14cd315da7","server":"65535","farm":66,"title":"L\u00f6ffelente (m)","ispublic":1,"isfriend":0,"isfamily":0},{"id":"52774577265","owner":"191391950@N02","secret":"85b4b6fa05","server":"65535","farm":66,"title":"Canard souchet - Spatula clypeata","ispublic":1,"isfriend":0,"isfamily":0},{"id":"52774416484","owner":"191391950@N02","secret":"a70b975807","server":"65535","farm":66,"title":"Canard souchet - Spatula clypeata","ispublic":1,"isfriend":0,"isfamily":0},{"id":"52773623737","owner":"191391950@N02","secret":"001ac529b9","server":"65535","farm":66,"title":"Canard souchet - Spatula clypeata","ispublic":1,"isfriend":0,"isfamily":0},{"id":"52774569170","owner":"191391950@N02","secret":"5fbe252d32","server":"65535","farm":66,"title":"Canard souchet - Spatula clypeata","ispublic":1,"isfriend":0,"isfamily":0},{"id":"52774567445","owner":"191391950@N02","secret":"aa7f53bb1f","server":"65535","farm":66,"title":"Canard souchet - Spatula clypeata","ispublic":1,"isfriend":0,"isfamily":0},{"id":"52774409784","owner":"191391950@N02","secret":"304683e1a4","server":"65535","farm":66,"title":"Canard souchet - Spatula clypeata","ispublic":1,"isfriend":0,"isfamily":0},{"id":"52774633798","owner":"191391950@N02","secret":"49599b29ca","server":"65535","farm":66,"title":"Canard souchet - Spatula clypeata","ispublic":1,"isfriend":0,"isfamily":0},{"id":"52774144816","owner":"191391950@N02","secret":"8326cb9561","server":"65535","farm":66,"title":"Canard souchet - Spatula clypeata","ispublic":1,"isfriend":0,"isfamily":0},{"id":"52774143056","owner":"191391950@N02","secret":"599e0182ea","server":"65535","farm":66,"title":"Canard souchet - Spatula clypeata","ispublic":1,"isfriend":0,"isfamily":0},{"id":"52774165069","owner":"16502322@N03","secret":"3e5e0b9e09","server":"65535","farm":66,"title":"Northern Shoveler trio","ispublic":1,"isfriend":0,"isfamily":0},{"id":"52773869671","owner":"46472058@N07","secret":"84f9438deb","server":"65535","farm":66,"title":"Northen Shoveler","ispublic":1,"isfriend":0,"isfamily":0},{"id":"52771950982","owner":"12639178@N07","secret":"41da118589","server":"65535","farm":66,"title":"L\u00f6ffelente (Spatula clypeata) (1)","ispublic":1,"isfriend":0,"isfamily":0},{"id":"52771898639","owner":"12639178@N07","secret":"f6ed7ae4d1","server":"65535","farm":66,"title":"L\u00f6ffelente (Spatula clypeata) (1)","ispublic":1,"isfriend":0,"isfamily":0},{"id":"52771897684","owner":"12639178@N07","secret":"1e8d62a4ba","server":"65535","farm":66,"title":"L\u00f6ffelente (Spatula clypeata) (1)","ispublic":1,"isfriend":0,"isfamily":0},{"id":"52770994167","owner":"12639178@N07","secret":"5b4014e88b","server":"65535","farm":66,"title":"L\u00f6ffelentenpaar am M\u00f6hnesee (Spatula clypeata)","ispublic":1,"isfriend":0,"isfamily":0},{"id":"52770993882","owner":"12639178@N07","secret":"03d190e0f7","server":"65535","farm":66,"title":"Nach einem halben Jahr endlich wieder L\u00f6ffelente (Spatula clypeata)","ispublic":1,"isfriend":0,"isfamily":0},{"id":"52770930297","owner":"49985242@N08","secret":"763f0ce7a0","server":"65535","farm":66,"title":"Northern shoveler. Spatula clypeata","ispublic":1,"isfriend":0,"isfamily":0},{"id":"52770926782","owner":"12639178@N07","secret":"1b9e68e19c","server":"65535","farm":66,"title":"L\u00f6ffelente","ispublic":1,"isfriend":0,"isfamily":0},{"id":"52771545764","owner":"90355165@N03","secret":"69c4a502a6","server":"65535","farm":66,"title":"northern shoveler","ispublic":1,"isfriend":0,"isfamily":0},{"id":"52771340909","owner":"53280041@N04","secret":"684ab12c44","server":"65535","farm":66,"title":"Shoveler","ispublic":1,"isfriend":0,"isfamily":0},{"id":"52771571853","owner":"53280041@N04","secret":"6fbbaf9922","server":"65535","farm":66,"title":"Shoveler","ispublic":1,"isfriend":0,"isfamily":0},{"id":"52771492480","owner":"53280041@N04","secret":"c0e5519e26","server":"65535","farm":66,"title":"Shoveler","ispublic":1,"isfriend":0,"isfamily":0},{"id":"52769059439","owner":"7331818@N02","secret":"1da4de21bb","server":"65535","farm":66,"title":"Stilts & such","ispublic":1,"isfriend":0,"isfamily":0},{"id":"52768264962","owner":"7331818@N02","secret":"43cc604c15","server":"65535","farm":66,"title":"Shovelers & Coots","ispublic":1,"isfriend":0,"isfamily":0},{"id":"52768264922","owner":"7331818@N02","secret":"455257eb9e","server":"65535","farm":66,"title":"Shovelers & Avocets","ispublic":1,"isfriend":0,"isfamily":0},{"id":"52767993243","owner":"155976319@N04","secret":"444053c6fb","server":"65535","farm":66,"title":"mestolone","ispublic":1,"isfriend":0,"isfamily":0},{"id":"52766661087","owner":"39445433@N02","secret":"d88f53597e","server":"65535","farm":66,"title":"Northern Shoveler","ispublic":1,"isfriend":0,"isfamily":0},{"id":"52767198891","owner":"39445433@N02","secret":"464d0cfc6a","server":"65535","farm":66,"title":"Northern Shoveler","ispublic":1,"isfriend":0,"isfamily":0},{"id":"52767198826","owner":"39445433@N02","secret":"5ea71617b8","server":"65535","farm":66,"title":"Northern Shoveler","ispublic":1,"isfriend":0,"isfamily":0},{"id":"52767198761","owner":"39445433@N02","secret":"d503c8c33a","server":"65535","farm":66,"title":"Northern Shoveler","ispublic":1,"isfriend":0,"isfamily":0},{"id":"52767687453","owner":"39445433@N02","secret":"ba4c51e42c","server":"65535","farm":66,"title":"Northern Shoveler","ispublic":1,"isfriend":0,"isfamily":0},{"id":"52766660702","owner":"39445433@N02","secret":"32e4c65abf","server":"65535","farm":66,"title":"Northern Shoveler","ispublic":1,"isfriend":0,"isfamily":0},{"id":"52767687303","owner":"39445433@N02","secret":"ff6a8646f6","server":"65535","farm":66,"title":"Northern Shoveler","ispublic":1,"isfriend":0,"isfamily":0},{"id":"52767198411","owner":"39445433@N02","secret":"9b471b03b0","server":"65535","farm":66,"title":"Northern Shoveler","ispublic":1,"isfriend":0,"isfamily":0},{"id":"52767198366","owner":"39445433@N02","secret":"fbbbd660a5","server":"65535","farm":66,"title":"Northern Shoveler","ispublic":1,"isfriend":0,"isfamily":0},{"id":"52767687153","owner":"39445433@N02","secret":"2a26e244fc","server":"65535","farm":66,"title":"Northern Shoveler","ispublic":1,"isfriend":0,"isfamily":0},{"id":"52767610940","owner":"39445433@N02","secret":"38781b1b66","server":"65535","farm":66,"title":"Northern Shoveler","ispublic":1,"isfriend":0,"isfamily":0},{"id":"52767198091","owner":"39445433@N02","secret":"bdbb22f95a","server":"65535","farm":66,"title":"Northern Shoveler","ispublic":1,"isfriend":0,"isfamily":0},{"id":"52765202582","owner":"96713629@N03","secret":"150955acce","server":"65535","farm":66,"title":"Slobeend (Spatula clypeata)-DSC_5260-bewerkt","ispublic":1,"isfriend":0,"isfamily":0},{"id":"52765920529","owner":"54032685@N00","secret":"1415e73c15","server":"65535","farm":66,"title":"Stick it on the Bill","ispublic":1,"isfriend":0,"isfamily":0},{"id":"52765019410","owner":"12639178@N07","secret":"5a719ee73b","server":"65535","farm":66,"title":"L\u00f6ffelenten","ispublic":1,"isfriend":0,"isfamily":0},{"id":"52764802269","owner":"12639178@N07","secret":"03d8bdd5a2","server":"65535","farm":66,"title":"Spie\u00dfenten und L\u00f6ffelente","ispublic":1,"isfriend":0,"isfamily":0},{"id":"52763835712","owner":"49024126@N08","secret":"55a849dddc","server":"65535","farm":66,"title":"P3102537 L\u00f6ffelente einmal anders....","ispublic":1,"isfriend":0,"isfamily":0},{"id":"52764863858","owner":"49024126@N08","secret":"63139c7626","server":"65535","farm":66,"title":"P3102538 L\u00f6ffelente (Spatula clypeata) auf dem S\u00fc\u00dfwasserteich von Sao Laurenco","ispublic":1,"isfriend":0,"isfamily":0},{"id":"52764340624","owner":"44307879@N05","secret":"2f00248e22","server":"65535","farm":66,"title":"Northern shoveler","ispublic":1,"isfriend":0,"isfamily":0},{"id":"52762120150","owner":"156523381@N05","secret":"9fbeeb931f","server":"65535","farm":66,"title":"Canards souchets (spatula clypeata) ...","ispublic":1,"isfriend":0,"isfamily":0},{"id":"52760399652","owner":"57126723@N07","secret":"d53da395f9","server":"65535","farm":66,"title":"Northern shoveler\u2014Spatula clypeata\u2014Greensprings-0546-Edit","ispublic":1,"isfriend":0,"isfamily":0},{"id":"52760265795","owner":"96713629@N03","secret":"908b27ce5e","server":"65535","farm":66,"title":"Dodaars (Tachybaptus ruficollis), Kleine zilverreiger (Egretta garzetta), Slobeend (Spatula clypeata)-350_0385-bewerkt","ispublic":1,"isfriend":0,"isfamily":0},{"id":"52760345108","owner":"96713629@N03","secret":"16bed80015","server":"65535","farm":66,"title":"Slobeend (Spatula clypeata)-350_0442-bewerkt","ispublic":1,"isfriend":0,"isfamily":0},{"id":"52759545745","owner":"83427488@N02","secret":"422e599e5f","server":"65535","farm":66,"title":"Pato cuchara (macho) \/ Northern shoveler (male) (Spatula clypeata)","ispublic":1,"isfriend":0,"isfamily":0},{"id":"52757936569","owner":"99550520@N08","secret":"9d54362f2e","server":"65535","farm":66,"title":"Slobeenden","ispublic":1,"isfriend":0,"isfamily":0},{"id":"52757078776","owner":"92193497@N03","secret":"cac526562b","server":"65535","farm":66,"title":"Spatula clypeata","ispublic":1,"isfriend":0,"isfamily":0},{"id":"52756774163","owner":"40006638@N06","secret":"98c959c4ec","server":"65535","farm":66,"title":"094A5471a1c1","ispublic":1,"isfriend":0,"isfamily":0},{"id":"52755598161","owner":"12639178@N07","secret":"970ea289b1","server":"65535","farm":66,"title":"Landende L\u00f6ffelenten","ispublic":1,"isfriend":0,"isfamily":0},{"id":"52754513327","owner":"195242409@N06","secret":"e2e06bdd13","server":"65535","farm":66,"title":"Canard souchet (Spatula clypeata - Anatidae)","ispublic":1,"isfriend":0,"isfamily":0},{"id":"52755054825","owner":"56930596@N02","secret":"8106442634","server":"65535","farm":66,"title":"\u00c0nec cullerot (Spatula clypeata)","ispublic":1,"isfriend":0,"isfamily":0},{"id":"52753993577","owner":"12639178@N07","secret":"f05f721f8e","server":"65535","farm":66,"title":"L\u00f6ffelente (Spatula clypeata) (5)","ispublic":1,"isfriend":0,"isfamily":0},{"id":"52754777029","owner":"12639178@N07","secret":"f97aef5dd7","server":"65535","farm":66,"title":"L\u00f6ffelente weiblich","ispublic":1,"isfriend":0,"isfamily":0},{"id":"52754363586","owner":"12639178@N07","secret":"fc2913d7b7","server":"65535","farm":66,"title":"Beleg: L\u00f6ffelenten","ispublic":1,"isfriend":0,"isfamily":0},{"id":"52754363446","owner":"12639178@N07","secret":"e39e9558f6","server":"65535","farm":66,"title":"Beleg: L\u00f6ffelenten","ispublic":1,"isfriend":0,"isfamily":0},{"id":"52753822167","owner":"12639178@N07","secret":"30bd2298e5","server":"65535","farm":66,"title":"Beleg: L\u00f6ffelenten","ispublic":1,"isfriend":0,"isfamily":0},{"id":"52767611310","owner":"39445433@N02","secret":"a227f7ee28","server":"65535","farm":66,"title":"Northern Shoveler","ispublic":1,"isfriend":0,"isfamily":0},{"id":"52758617979","owner":"149839633@N05","secret":"7938bcf858","server":"65535","farm":66,"title":"Pato-colhereiro (Spatula clypeata)","ispublic":1,"isfriend":0,"isfamily":0},{"id":"52758614919","owner":"149839633@N05","secret":"a6b8c09b7b","server":"65535","farm":66,"title":"Pato-colhereiro (Spatula clypeata)","ispublic":1,"isfriend":0,"isfamily":0}]},"stat":"ok"}