{"photos":{"page":1,"pages":4,"perpage":100,"total":366,"photo":[{"id":"52702755017","owner":"163930705@N05","secret":"d9995a7d93","server":"65535","farm":66,"title":"Orange-footed Scrubfowl \/ Orange-footed Megapode (Megapodius reinwardt)","ispublic":1,"isfriend":0,"isfamily":0},{"id":"52696709169","owner":"12639178@N07","secret":"29d4f85f55","server":"65535","farm":66,"title":"Reinwardthuhn (Megapodius reinwardt), Cairns, Australien","ispublic":1,"isfriend":0,"isfamily":0},{"id":"52669878468","owner":"83509246@N06","secret":"c0db601679","server":"65535","farm":66,"title":"3W5A3342-2","ispublic":1,"isfriend":0,"isfamily":0},{"id":"52532845926","owner":"93794520@N05","secret":"9572547e73","server":"65535","farm":66,"title":"Orange-footed Scrubfowl 236 3638","ispublic":1,"isfriend":0,"isfamily":0},{"id":"52505792556","owner":"119787485@N07","secret":"815a915ba3","server":"65535","farm":66,"title":"Orange-footed Megapode (Megapodius reinwardt tumulus) - 20221002-03","ispublic":1,"isfriend":0,"isfamily":0},{"id":"52479636371","owner":"50809355@N06","secret":"30d30452bd","server":"65535","farm":66,"title":"Orange-footed Scrubfowl Megapodius reinwardt Megapodiidae Digging A Nesting Burrow & One-footed Scratching To Move Leaf Litter Or Similar Debris While Foraging On The Forest Floor Urban Darwin","ispublic":1,"isfriend":0,"isfamily":0},{"id":"52480183093","owner":"50809355@N06","secret":"698f808cfc","server":"65535","farm":66,"title":"Orange-footed Scrubfowl Megapodius reinwardt Their Drab Plumage Is Well Adapted To Their Terrestrial Life Urban Darwin 01","ispublic":1,"isfriend":0,"isfamily":0},{"id":"52341120012","owner":"31350467@N04","secret":"d09c9f8401","server":"65535","farm":66,"title":"Scrubfowl, Orange-footed (Megapodius reinwardt)","ispublic":1,"isfriend":0,"isfamily":0},{"id":"52225877288","owner":"31350467@N04","secret":"1ff4e16373","server":"65535","farm":66,"title":"Scrubfowl, Orange-footed (Megapodius reinwardt)","ispublic":1,"isfriend":0,"isfamily":0},{"id":"52169448387","owner":"140838633@N08","secret":"fc0aa5d408","server":"65535","farm":66,"title":"Orange-footed scrubfowl","ispublic":1,"isfriend":0,"isfamily":0},{"id":"52049593168","owner":"151677249@N08","secret":"bd4e902a96","server":"65535","farm":66,"title":"Orange-footed Scrubfowl (Megapodius reinwardt)","ispublic":1,"isfriend":0,"isfamily":0},{"id":"51856568100","owner":"193033095@N05","secret":"e402ddd63c","server":"65535","farm":66,"title":"Orange-footed Scrubfowl, Megapodius reinwardt, at Rapid Creek","ispublic":1,"isfriend":0,"isfamily":0},{"id":"49272313896","owner":"25572396@N04","secret":"c4d42b5e68","server":"65535","farm":66,"title":"Orange-footed Scrubfowl (Megapodius reinwardt)","ispublic":1,"isfriend":0,"isfamily":0},{"id":"51624026329","owner":"164980878@N03","secret":"a94346df6d","server":"65535","farm":66,"title":"AE3I1610","ispublic":1,"isfriend":0,"isfamily":0},{"id":"51622545442","owner":"164980878@N03","secret":"2a6f8ddd35","server":"65535","farm":66,"title":"AE3I3620","ispublic":1,"isfriend":0,"isfamily":0},{"id":"51584081233","owner":"39919345@N00","secret":"12e436f4f1","server":"65535","farm":66,"title":"The Megapode!","ispublic":1,"isfriend":0,"isfamily":0},{"id":"51568546175","owner":"28562920@N02","secret":"c04da41e1d","server":"65535","farm":66,"title":"Orange-footed Scrubfowl","ispublic":1,"isfriend":0,"isfamily":0},{"id":"51369890825","owner":"16520061@N08","secret":"f5ff822053","server":"65535","farm":66,"title":"Orange-footed Scrubfowl (Megapodius reinwardt castanonotus)","ispublic":1,"isfriend":0,"isfamily":0},{"id":"51302585885","owner":"129013862@N04","secret":"e71251a78b","server":"65535","farm":66,"title":"Orange-footed Scrubfowl (Megapodius reinwardt)","ispublic":1,"isfriend":0,"isfamily":0},{"id":"51233601866","owner":"61021753@N02","secret":"ee4426db8f","server":"65535","farm":66,"title":"n349_w1150","ispublic":1,"isfriend":0,"isfamily":0},{"id":"51228846794","owner":"40195635@N03","secret":"037658d6a6","server":"65535","farm":66,"title":"Orange-footed Scrubfowl (Megapodius reinwardt tumulus)","ispublic":1,"isfriend":0,"isfamily":0},{"id":"51212977600","owner":"147407353@N06","secret":"c72c3e8ccb","server":"65535","farm":66,"title":"Orange-footed scrubfowl","ispublic":1,"isfriend":0,"isfamily":0},{"id":"51029810771","owner":"61021753@N02","secret":"66fa421ea5","server":"65535","farm":66,"title":"n285_w1150","ispublic":1,"isfriend":0,"isfamily":0},{"id":"51029810421","owner":"61021753@N02","secret":"e1d7e9d135","server":"65535","farm":66,"title":"n282_w1150","ispublic":1,"isfriend":0,"isfamily":0},{"id":"50999570497","owner":"38356169@N07","secret":"6e4f24d9bd","server":"65535","farm":66,"title":"Orange-footed Scrubfowl","ispublic":1,"isfriend":0,"isfamily":0},{"id":"50999569992","owner":"38356169@N07","secret":"dc7b8b418f","server":"65535","farm":66,"title":"Orange-footed Scrubfowl","ispublic":1,"isfriend":0,"isfamily":0},{"id":"49979752266","owner":"28562920@N02","secret":"5d74453831","server":"65535","farm":66,"title":"Orange-footed Scrubfowl","ispublic":1,"isfriend":0,"isfamily":0},{"id":"49612631491","owner":"102752057@N03","secret":"c8261eee92","server":"65535","farm":66,"title":"Orange-footed scrubfowl (Megapodius reinwardt).","ispublic":1,"isfriend":0,"isfamily":0},{"id":"49612631416","owner":"102752057@N03","secret":"e1dbf371f0","server":"65535","farm":66,"title":"Orange-footed scrubfowl (Megapodius reinwardt).","ispublic":1,"isfriend":0,"isfamily":0},{"id":"49581109133","owner":"90816109@N04","secret":"cae14d3371","server":"65535","farm":66,"title":"Orange-footed Scrubfowl","ispublic":1,"isfriend":0,"isfamily":0},{"id":"49299053047","owner":"90764954@N07","secret":"6b65515355","server":"65535","farm":66,"title":"Orange-footed scrubfowl (Megapodius reinwardt) \u6a59\u811a\u51a2\u96c9","ispublic":1,"isfriend":0,"isfamily":0},{"id":"49298849181","owner":"90764954@N07","secret":"7b9edc717e","server":"65535","farm":66,"title":"Orange-footed scrubfowl (Megapodius reinwardt) \u6a59\u811a\u51a2\u96c9","ispublic":1,"isfriend":0,"isfamily":0},{"id":"49285775782","owner":"28562920@N02","secret":"5707e72de5","server":"65535","farm":66,"title":"Orange-footed Scrubfowl","ispublic":1,"isfriend":0,"isfamily":0},{"id":"49270129403","owner":"31914013@N05","secret":"1b34d36095","server":"65535","farm":66,"title":"Orange-footed Scrubfowl (Megapodius reinwardt)","ispublic":1,"isfriend":0,"isfamily":0},{"id":"49166875953","owner":"147407353@N06","secret":"d4b0aa19ae","server":"65535","farm":66,"title":"Orange-footed scrubfowl raking the ground for seeds and roots.","ispublic":1,"isfriend":0,"isfamily":0},{"id":"49163346541","owner":"93140244@N02","secret":"b75f3ddb91","server":"65535","farm":66,"title":"Orange-footed Scrubfowl","ispublic":1,"isfriend":0,"isfamily":0},{"id":"49135978427","owner":"16520061@N08","secret":"4a3bc76270","server":"65535","farm":66,"title":"Orange-footed Scrubfowl (Megapodius reinwardt tumulus)","ispublic":1,"isfriend":0,"isfamily":0},{"id":"49081629477","owner":"90816109@N04","secret":"1929bb4b3d","server":"65535","farm":66,"title":"Orange-footed Scrubfowl","ispublic":1,"isfriend":0,"isfamily":0},{"id":"49055152098","owner":"103806413@N07","secret":"8ef37d6cc9","server":"65535","farm":66,"title":"20190922_1627_Rinca_Megapode de Reinwardt","ispublic":1,"isfriend":0,"isfamily":0},{"id":"49055880177","owner":"103806413@N07","secret":"ced8923abf","server":"65535","farm":66,"title":"20190922_1610_Rinca_Megapode de Reinwardt","ispublic":1,"isfriend":0,"isfamily":0},{"id":"49055151298","owner":"103806413@N07","secret":"6b87eb7de1","server":"65535","farm":66,"title":"20190922_1607_Rinca_Megapode de Reinwardt","ispublic":1,"isfriend":0,"isfamily":0},{"id":"48863759161","owner":"147407353@N06","secret":"49989febb1","server":"65535","farm":66,"title":"Orange-footed scrubfowl","ispublic":1,"isfriend":0,"isfamily":0},{"id":"48862552456","owner":"128520554@N03","secret":"c925e3a197","server":"65535","farm":66,"title":"Orange-footed Scrubfowl (Megapodius reinwardt)","ispublic":1,"isfriend":0,"isfamily":0},{"id":"48862031288","owner":"128520554@N03","secret":"2e531827a4","server":"65535","farm":66,"title":"Orange-footed Scrubfowl (Megapodius reinwardt)","ispublic":1,"isfriend":0,"isfamily":0},{"id":"52679442313","owner":"12639178@N07","secret":"74d4f93db0","server":"65535","farm":66,"title":"Reinwardt-Gro\u00dffu\u00dfhuhn (Megapodius reinwardt), Magnetic Island, Australien","ispublic":1,"isfriend":0,"isfamily":0},{"id":"52554200099","owner":"12639178@N07","secret":"a98d39fa20","server":"65535","farm":66,"title":"Reinwardt-Gro\u00dffu\u00dfhuhn","ispublic":1,"isfriend":0,"isfamily":0},{"id":"52554379610","owner":"12639178@N07","secret":"01a61d10e6","server":"65535","farm":66,"title":"Reinwardt-Gro\u00dffu\u00dfhuhn","ispublic":1,"isfriend":0,"isfamily":0},{"id":"52554445593","owner":"12639178@N07","secret":"7cd4949933","server":"65535","farm":66,"title":"Reinwardt-Gro\u00dffu\u00dfhuhn","ispublic":1,"isfriend":0,"isfamily":0},{"id":"52553907831","owner":"12639178@N07","secret":"fe3c6be784","server":"65535","farm":66,"title":"Reinwardt-Gro\u00dffu\u00dfhuhn","ispublic":1,"isfriend":0,"isfamily":0},{"id":"52541136985","owner":"191389292@N04","secret":"89ac2f7b2a","server":"65535","farm":66,"title":"Orange-footed Scrub-fowl (Megapodius reinwardt)","ispublic":1,"isfriend":0,"isfamily":0},{"id":"52479636316","owner":"50809355@N06","secret":"de6315c18b","server":"65535","farm":66,"title":"Orange-footed Scrubfowl Megapodius reinwardt Megapodiidae Lee Point","ispublic":1,"isfriend":0,"isfamily":0},{"id":"52479137767","owner":"50809355@N06","secret":"a2115d7d5f","server":"65535","farm":66,"title":"Orange-footed Scrubfowl Megapodius reinwardt Megapodiidae Many Species In The Avian Order Galliformes Have Lightly Feathered Regions On Their Head Urban Darwin","ispublic":1,"isfriend":0,"isfamily":0},{"id":"52480183298","owner":"50809355@N06","secret":"343a577608","server":"65535","farm":66,"title":"Orange-footed Scrubfowl Megapodius reinwardt Megapodiidae One-footed Scratching To Move Leaf Litter Or Similar Debris While Foraging On The Forest Floor Urban Darwin 01","ispublic":1,"isfriend":0,"isfamily":0},{"id":"52480183248","owner":"50809355@N06","secret":"4ff64bd8a0","server":"65535","farm":66,"title":"Orange-footed Scrubfowl Megapodius reinwardt Megapodiidae One-footed Scratching To Move Leaf Litter Or Similar Debris While Foraging On The Forest Floor Urban Darwin","ispublic":1,"isfriend":0,"isfamily":0},{"id":"52479636161","owner":"50809355@N06","secret":"c522b78450","server":"65535","farm":66,"title":"Orange-footed Scrubfowl Megapodius reinwardt Megapodiidae The Resident Scourge Of The Suburbs Digging Up Plants To Find Terrestrial Invertebrates Urban Darwin 01","ispublic":1,"isfriend":0,"isfamily":0},{"id":"52479636121","owner":"50809355@N06","secret":"64b71f3e6d","server":"65535","farm":66,"title":"Orange-footed Scrubfowl Megapodius reinwardt Megapodiidae The Resident Scourge Of The Suburbs Digging Up Plants To Find Terrestrial Invertebrates Urban Darwin","ispublic":1,"isfriend":0,"isfamily":0},{"id":"52480183113","owner":"50809355@N06","secret":"97394e8f15","server":"65535","farm":66,"title":"Orange-footed Scrubfowl Megapodius reinwardt Megapodiidae Urban Darwin","ispublic":1,"isfriend":0,"isfamily":0},{"id":"52479912749","owner":"50809355@N06","secret":"587d4d14e9","server":"65535","farm":66,"title":"Orange-footed Scrubfowl Megapodius reinwardt Their Drab Plumage Is Well Adapted To Their Terrestrial Life Urban Darwin","ispublic":1,"isfriend":0,"isfamily":0},{"id":"52479911399","owner":"50809355@N06","secret":"ecb2ef5554","server":"65535","farm":66,"title":"Orange-footed Scrubfowl Megapodius reinwardt Tarsometatarsus With A Metatarsus Facing Backward & Forward Facing Digits All With Claws Located On The Extreme Phalanx Of Each Toe Urban Darwin","ispublic":1,"isfriend":0,"isfamily":0},{"id":"52184484882","owner":"50809355@N06","secret":"c6c9d547d7","server":"65535","farm":66,"title":"Orange-footed Scrubfowl Megapodius reinwardt Megapodiidae Urban Darwin 01","ispublic":1,"isfriend":0,"isfamily":0},{"id":"52185506811","owner":"50809355@N06","secret":"161524fe76","server":"65535","farm":66,"title":"Orange-footed Scrubfowl Megapodius reinwardt Megapodiidae Urban Darwin","ispublic":1,"isfriend":0,"isfamily":0},{"id":"51893421217","owner":"101362391@N05","secret":"a1c7ef880a","server":"65535","farm":66,"title":"Orange-footed scrubfowl (Megapodius reinwardt)","ispublic":1,"isfriend":0,"isfamily":0},{"id":"51856250589","owner":"193033095@N05","secret":"5e3a883307","server":"65535","farm":66,"title":"Juvenile Orange-footed Scrubfowl, Megapodius reinwardt in the backyard","ispublic":1,"isfriend":0,"isfamily":0},{"id":"51851958815","owner":"44489466@N00","secret":"2f500c5176","server":"65535","farm":66,"title":"Orange-footed Scrubfowl (Megapodius reinwardt) nest at Howard Springs Nature Park, south of Darwin, Northern Territory, Australia.","ispublic":1,"isfriend":0,"isfamily":0},{"id":"51650808143","owner":"50809355@N06","secret":"f6406819b7","server":"65535","farm":66,"title":"Orange-footed Scrubfowl Megapodius reinwardt Megapodiidae Combing The Burnt Open Woodland For Insects Swampland Buffalo Creek","ispublic":1,"isfriend":0,"isfamily":0},{"id":"51623383211","owner":"164980878@N03","secret":"9eff2f77e0","server":"65535","farm":66,"title":"AE3I1601c","ispublic":1,"isfriend":0,"isfamily":0},{"id":"51507281574","owner":"117755141@N02","secret":"0fc43f925d","server":"65535","farm":66,"title":"Orange-footed Scrubfowl (Megapodius reinwardt Ssp tumulus)","ispublic":1,"isfriend":0,"isfamily":0},{"id":"51334871172","owner":"80824395@N08","secret":"2094ee38cd","server":"65535","farm":66,"title":"Nest of orange-footed scrubfowl Megapodius reinwardt","ispublic":1,"isfriend":0,"isfamily":0},{"id":"51334865497","owner":"80824395@N08","secret":"2a68a3e9d4","server":"65535","farm":66,"title":"Orange-footed scrubfowl Megapodius reinwardt","ispublic":1,"isfriend":0,"isfamily":0},{"id":"51147507858","owner":"50809355@N06","secret":"ab5bc2d5f3","server":"65535","farm":66,"title":"Orange-footed Scrubfowl Megapodius reinwardt Megapodiidae Shoal Bay","ispublic":1,"isfriend":0,"isfamily":0},{"id":"51116452662","owner":"117755141@N02","secret":"d1a9b37050","server":"65535","farm":66,"title":"Orange-footed Scrubfowl (Megapodius reinwardt Ssp yorki)","ispublic":1,"isfriend":0,"isfamily":0},{"id":"50999445341","owner":"38356169@N07","secret":"54fe3ee550","server":"65535","farm":66,"title":"Orange-footed Scrubfowl","ispublic":1,"isfriend":0,"isfamily":0},{"id":"50985556608","owner":"12639178@N07","secret":"caf089e1ab","server":"65535","farm":66,"title":"'Orange-footed Scrub-fowl' bei Futtersuche, im Ort bei Campsite","ispublic":1,"isfriend":0,"isfamily":0},{"id":"50986369832","owner":"12639178@N07","secret":"47e6fb5010","server":"65535","farm":66,"title":"'Orange-footed Scrub-fowl' bei Futtersuche, im Ort bei Campsite","ispublic":1,"isfriend":0,"isfamily":0},{"id":"50986260966","owner":"12639178@N07","secret":"85c881160a","server":"65535","farm":66,"title":"'Orange-footed Scrub-fowl' bei Futtersuche, im Ort bei Campsite","ispublic":1,"isfriend":0,"isfamily":0},{"id":"50879354357","owner":"101362391@N05","secret":"2040473dc8","server":"65535","farm":66,"title":"Orange-footed scrubfowl - Megapodius reinwardt","ispublic":1,"isfriend":0,"isfamily":0},{"id":"50154292741","owner":"153546415@N07","secret":"5e7e0164d0","server":"65535","farm":66,"title":"Orange-footed Scrubfowl","ispublic":1,"isfriend":0,"isfamily":0},{"id":"50153740688","owner":"153546415@N07","secret":"ea77b270c0","server":"65535","farm":66,"title":"Orange-footed Scrubfowl","ispublic":1,"isfriend":0,"isfamily":0},{"id":"50004077267","owner":"187469698@N05","secret":"9cf3a7dd99","server":"65535","farm":66,"title":"12 Orange-footed Scrubfowl - Andrew Walker 001","ispublic":1,"isfriend":0,"isfamily":0},{"id":"49818748546","owner":"188007943@N06","secret":"4ed8970c7a","server":"65535","farm":66,"title":"Orange-footed Scrubfowl (Megapodius reinwardt), Queensland, Australia","ispublic":1,"isfriend":0,"isfamily":0},{"id":"49612891187","owner":"102752057@N03","secret":"1cc05e3209","server":"65535","farm":66,"title":"Orange-footed scrubfowl (Megapodius reinwardt).","ispublic":1,"isfriend":0,"isfamily":0},{"id":"49612891112","owner":"102752057@N03","secret":"4514720b6c","server":"65535","farm":66,"title":"Orange-footed scrubfowl (Megapodius reinwardt).","ispublic":1,"isfriend":0,"isfamily":0},{"id":"49539801582","owner":"12639178@N07","secret":"5dbf8b505f","server":"65535","farm":66,"title":"'Orange-footed Scrubfowl', flei\u00dfiger G\u00e4rtner des Regenwaldes; NO-Australien","ispublic":1,"isfriend":0,"isfamily":0},{"id":"49530007876","owner":"25401497@N02","secret":"08fb6c05ec","server":"65535","farm":66,"title":"Megapodius reinwardt","ispublic":1,"isfriend":0,"isfamily":0},{"id":"49518501603","owner":"36424218@N00","secret":"194476dac2","server":"65535","farm":66,"title":"Orange-footed Scrubfowl","ispublic":1,"isfriend":0,"isfamily":0},{"id":"49486509636","owner":"73374732@N00","secret":"8da6fae30b","server":"65535","farm":66,"title":"Darwin","ispublic":1,"isfriend":0,"isfamily":0},{"id":"49450711327","owner":"93268738@N04","secret":"d41748b317","server":"65535","farm":66,"title":"M\u00e9gapode de Reinwardt - Orange-footed Scrubfowl - Megapodius reinwardt","ispublic":1,"isfriend":0,"isfamily":0},{"id":"49299053402","owner":"90764954@N07","secret":"1fae6103bd","server":"65535","farm":66,"title":"Orange-footed scrubfowl (Megapodius reinwardt) \u6a59\u811a\u51a2\u96c9","ispublic":1,"isfriend":0,"isfamily":0},{"id":"49298364168","owner":"90764954@N07","secret":"92a93a92ea","server":"65535","farm":66,"title":"Orange-footed scrubfowl (Megapodius reinwardt) \u6a59\u811a\u51a2\u96c9","ispublic":1,"isfriend":0,"isfamily":0},{"id":"49298849446","owner":"90764954@N07","secret":"250d6cd8d4","server":"65535","farm":66,"title":"Orange-footed scrubfowl (Megapodius reinwardt) \u6a59\u811a\u51a2\u96c9","ispublic":1,"isfriend":0,"isfamily":0},{"id":"49298849336","owner":"90764954@N07","secret":"3ab4410399","server":"65535","farm":66,"title":"Orange-footed scrubfowl (Megapodius reinwardt) \u6a59\u811a\u51a2\u96c9","ispublic":1,"isfriend":0,"isfamily":0},{"id":"49299052852","owner":"90764954@N07","secret":"654fdd3a59","server":"65535","farm":66,"title":"Orange-footed scrubfowl (Megapodius reinwardt) \u6a59\u811a\u51a2\u96c9","ispublic":1,"isfriend":0,"isfamily":0},{"id":"49298848981","owner":"90764954@N07","secret":"21fc903cc1","server":"65535","farm":66,"title":"Orange-footed scrubfowl (Megapodius reinwardt) \u6a59\u811a\u51a2\u96c9","ispublic":1,"isfriend":0,"isfamily":0},{"id":"49299052752","owner":"90764954@N07","secret":"e0bcdb2f7f","server":"65535","farm":66,"title":"Orange-footed scrubfowl (Megapodius reinwardt) \u6a59\u811a\u51a2\u96c9","ispublic":1,"isfriend":0,"isfamily":0},{"id":"49270595626","owner":"31914013@N05","secret":"5cb7e00fa6","server":"65535","farm":66,"title":"Orange-footed Scrubfowl (Megapodius reinwardt)","ispublic":1,"isfriend":0,"isfamily":0},{"id":"49270595546","owner":"31914013@N05","secret":"6090c7ab8d","server":"65535","farm":66,"title":"Orange-footed Scrubfowl (Megapodius reinwardt)","ispublic":1,"isfriend":0,"isfamily":0},{"id":"49115226896","owner":"12742129@N07","secret":"cb7f656b4a","server":"65535","farm":66,"title":"Orange-footed Scrubfowl (Megapodius reinwardt)","ispublic":1,"isfriend":0,"isfamily":0},{"id":"49115226696","owner":"12742129@N07","secret":"229f573b07","server":"65535","farm":66,"title":"Orange-footed Scrubfowl (Megapodius reinwardt)","ispublic":1,"isfriend":0,"isfamily":0},{"id":"49039851967","owner":"12639178@N07","secret":"3231895d16","server":"65535","farm":66,"title":"'Orange-footed Scrubfowl', einer der 'G\u00e4rtner' des Regenwaldes","ispublic":1,"isfriend":0,"isfamily":0},{"id":"49039851592","owner":"12639178@N07","secret":"3a7c5b0b9f","server":"65535","farm":66,"title":"'Orange-footed Scrubfowl', einer der 'G\u00e4rtner' des Regenwaldes","ispublic":1,"isfriend":0,"isfamily":0}]},"stat":"ok"}