{"photos":{"page":1,"pages":4,"perpage":100,"total":316,"photo":[{"id":"52711329155","owner":"12240837@N08","secret":"5523898aa9","server":"65535","farm":66,"title":"Orange-breasted Trogon (harpactes oreskios)","ispublic":1,"isfriend":0,"isfamily":0},{"id":"52711144983","owner":"12240837@N08","secret":"3b8aa18362","server":"65535","farm":66,"title":"Orange-breasted Trogon (harpactes oreskios)","ispublic":1,"isfriend":0,"isfamily":0},{"id":"52542323720","owner":"131708321@N02","secret":"356f18f25a","server":"65535","farm":66,"title":"Orange-breasted Trogon (Harpactes oreskios), Kaeng Krachan, Thailand","ispublic":1,"isfriend":0,"isfamily":0},{"id":"52531496486","owner":"7200351@N08","secret":"9155683c65","server":"0","farm":0,"title":"Harpactes oreskios stellae","ispublic":1,"isfriend":0,"isfamily":0},{"id":"52531370971","owner":"7200351@N08","secret":"78ce540acb","server":"65535","farm":66,"title":"Harpactes oreskios stellae","ispublic":1,"isfriend":0,"isfamily":0},{"id":"52519916684","owner":"131708321@N02","secret":"32e09b39d6","server":"65535","farm":66,"title":"Orange-breasted Trogon (Harpactes oreskios), Kaeng Krachan, Thailand","ispublic":1,"isfriend":0,"isfamily":0},{"id":"52261914701","owner":"28859910@N02","secret":"4f2d69bed0","server":"65535","farm":66,"title":"Orange-breasted Trogon","ispublic":1,"isfriend":0,"isfamily":0},{"id":"51710463464","owner":"21155756@N07","secret":"f1ebbc0e8e","server":"65535","farm":66,"title":"Orange-breasted Trogon","ispublic":1,"isfriend":0,"isfamily":0},{"id":"51662356897","owner":"11159374@N04","secret":"5f8eb7320f","server":"65535","farm":66,"title":"Orange-breasted Trogon","ispublic":1,"isfriend":0,"isfamily":0},{"id":"51162904126","owner":"11159374@N04","secret":"a7761471d8","server":"65535","farm":66,"title":"Orange-breasted Trogon","ispublic":1,"isfriend":0,"isfamily":0},{"id":"51024754178","owner":"143943445@N02","secret":"47494870f9","server":"65535","farm":66,"title":"Orange-breasted trogon (Harpactes oreskios) \u6a59\u80f8\u54ac\u9d51","ispublic":1,"isfriend":0,"isfamily":0},{"id":"50726839516","owner":"56891930@N05","secret":"f02259acbc","server":"65535","farm":66,"title":"Orange-breasted Trogon (Harpactes oreskios) \u6a59\u80f8\u54ac\u9e43 - Jalan Bukit Fraser 1 \/ Jalan GAP-Bukit Fraser \/ Malaysia Federal Route 56 \u9a6c\u6765\u897f\u4e9a\u8054\u90a656\u53f7\u516c\u8def, Kuala Kubu Bharu \u65b0\u53e4\u6bdb\u5e02, Daerah Hulu Selangor \u4e4c\u9c81\u96ea\u5170\u83aa\u53bf, Selangor \u96ea\u5170\u83aa\u5dde, Malaysia \u9a6c\u6765\u897f\u4e9a","ispublic":1,"isfriend":0,"isfamily":0},{"id":"50388899587","owner":"187469698@N05","secret":"ea16ae5e58","server":"65535","farm":66,"title":"738 Orange-breasted Trogon - Andrew Walker 001","ispublic":1,"isfriend":0,"isfamily":0},{"id":"50310662318","owner":"22587916@N05","secret":"5ffd8f217c","server":"65535","farm":66,"title":"Orange-Breasted Trogon,\u6a59\u80f8\u54ac\u9e43 (male)","ispublic":1,"isfriend":0,"isfamily":0},{"id":"50311330046","owner":"22587916@N05","secret":"1951368cf2","server":"65535","farm":66,"title":"Orange-Breasted Trogon,\u6a59\u80f8\u54ac\u9e43 (male)","ispublic":1,"isfriend":0,"isfamily":0},{"id":"50227558543","owner":"61485851@N06","secret":"070a6863ae","server":"65535","farm":66,"title":"Orange-breasted trogon","ispublic":1,"isfriend":0,"isfamily":0},{"id":"50228185361","owner":"61485851@N06","secret":"eb76d73e9b","server":"65535","farm":66,"title":"Orange-breasted trogon","ispublic":1,"isfriend":0,"isfamily":0},{"id":"50227494493","owner":"61485851@N06","secret":"b5057791c6","server":"65535","farm":66,"title":"Orange-breasted trogon","ispublic":1,"isfriend":0,"isfamily":0},{"id":"50228313987","owner":"61485851@N06","secret":"79bb434cfc","server":"65535","farm":66,"title":"Orange-breasted trogon","ispublic":1,"isfriend":0,"isfamily":0},{"id":"50228055956","owner":"61485851@N06","secret":"8a69bb0367","server":"65535","farm":66,"title":"Orange-breasted trogon","ispublic":1,"isfriend":0,"isfamily":0},{"id":"50228276192","owner":"61485851@N06","secret":"5634ed4599","server":"65535","farm":66,"title":"Orange-breasted trogon (Lifer #179)","ispublic":1,"isfriend":0,"isfamily":0},{"id":"50218719752","owner":"61021753@N02","secret":"989604b7f5","server":"65535","farm":66,"title":"n165_w1150","ispublic":1,"isfriend":0,"isfamily":0},{"id":"50177896866","owner":"61485851@N06","secret":"d419175486","server":"65535","farm":66,"title":"Orange-breasted trogon","ispublic":1,"isfriend":0,"isfamily":0},{"id":"50177350773","owner":"61485851@N06","secret":"cd9dc2c0a8","server":"65535","farm":66,"title":"Orange-breasted trogon","ispublic":1,"isfriend":0,"isfamily":0},{"id":"50177350608","owner":"61485851@N06","secret":"6003fbb8bf","server":"65535","farm":66,"title":"Orange-breasted trogon","ispublic":1,"isfriend":0,"isfamily":0},{"id":"50078786977","owner":"61485851@N06","secret":"1a54ff088d","server":"65535","farm":66,"title":"Orange-breasted trogon","ispublic":1,"isfriend":0,"isfamily":0},{"id":"50052022563","owner":"55527686@N03","secret":"4272a257d7","server":"65535","farm":66,"title":"Orange-breasted Trogon (stellae) - Harpactes oresklos stellae","ispublic":1,"isfriend":0,"isfamily":0},{"id":"49836517858","owner":"76617062@N08","secret":"0bc8c66219","server":"65535","farm":66,"title":"1.08159 Trogon \u00e0 poitrine jaune  \/ Harpactes oreskios stellae \/ Orange-breasted Trogon","ispublic":1,"isfriend":0,"isfamily":0},{"id":"49705183346","owner":"76617062@N08","secret":"6cbd3cbdfc","server":"65535","farm":66,"title":"1.08159 Trogon \u00e0 poitrine jaune  \/ Harpactes oreskios stellae \/ Orange-breasted Trogon","ispublic":1,"isfriend":0,"isfamily":0},{"id":"49236509297","owner":"126805965@N03","secret":"94ba09127b","server":"65535","farm":66,"title":"Record shot of Orange-breasted Trogon (Harpactes oreskios) - Kaeng Krachan NP, TH","ispublic":1,"isfriend":0,"isfamily":0},{"id":"48996597752","owner":"37934762@N02","secret":"45100abe4a","server":"65535","farm":66,"title":"Orange-breasted Trogon - Harpactes oreskios","ispublic":1,"isfriend":0,"isfamily":0},{"id":"48690364961","owner":"170146945@N07","secret":"22d38dc1a6","server":"65535","farm":66,"title":"Orange Breasted Trogon","ispublic":1,"isfriend":0,"isfamily":0},{"id":"48690364761","owner":"170146945@N07","secret":"747e972ce7","server":"65535","farm":66,"title":"Orange Breasted Trogon","ispublic":1,"isfriend":0,"isfamily":0},{"id":"40834826413","owner":"46848480@N00","secret":"1a0fa4007c","server":"65535","farm":66,"title":"20190427-1DX21462","ispublic":1,"isfriend":0,"isfamily":0},{"id":"33924053968","owner":"46848480@N00","secret":"bbb5d49890","server":"65535","farm":66,"title":"20190427-1DX21527","ispublic":1,"isfriend":0,"isfamily":0},{"id":"32857357417","owner":"46848480@N00","secret":"1d2e299958","server":"65535","farm":66,"title":"20190427-1DX21439","ispublic":1,"isfriend":0,"isfamily":0},{"id":"32857356667","owner":"46848480@N00","secret":"e982e05857","server":"65535","farm":66,"title":"20190427-1DX21444","ispublic":1,"isfriend":0,"isfamily":0},{"id":"32850318547","owner":"46848480@N00","secret":"ec8460a85f","server":"65535","farm":66,"title":"20190427-1DX21374","ispublic":1,"isfriend":0,"isfamily":0},{"id":"32850317997","owner":"46848480@N00","secret":"bdd9737492","server":"65535","farm":66,"title":"20190427-1DX21375","ispublic":1,"isfriend":0,"isfamily":0},{"id":"32850317617","owner":"46848480@N00","secret":"1a62cac2b3","server":"65535","farm":66,"title":"20190427-1DX21380","ispublic":1,"isfriend":0,"isfamily":0},{"id":"32850316877","owner":"46848480@N00","secret":"bd478b1b1b","server":"65535","farm":66,"title":"20190427-1DX21383","ispublic":1,"isfriend":0,"isfamily":0},{"id":"33916773398","owner":"46848480@N00","secret":"2e977bd98b","server":"65535","farm":66,"title":"20190427-1DX21308","ispublic":1,"isfriend":0,"isfamily":0},{"id":"47741489772","owner":"46848480@N00","secret":"08d1432731","server":"65535","farm":66,"title":"20190427-1DX21316","ispublic":1,"isfriend":0,"isfamily":0},{"id":"33916772478","owner":"46848480@N00","secret":"cfef5ab509","server":"65535","farm":66,"title":"20190427-1DX21322","ispublic":1,"isfriend":0,"isfamily":0},{"id":"47004524324","owner":"46848480@N00","secret":"d318811978","server":"65535","farm":66,"title":"20190427-1DX21331","ispublic":1,"isfriend":0,"isfamily":0},{"id":"33916771608","owner":"46848480@N00","secret":"cf4c5eb6c2","server":"65535","farm":66,"title":"20190427-1DX21335","ispublic":1,"isfriend":0,"isfamily":0},{"id":"47004523704","owner":"46848480@N00","secret":"79dbd4d859","server":"65535","farm":66,"title":"20190427-1DX21338","ispublic":1,"isfriend":0,"isfamily":0},{"id":"33916770678","owner":"46848480@N00","secret":"6670a614e9","server":"65535","farm":66,"title":"20190427-1DX21343","ispublic":1,"isfriend":0,"isfamily":0},{"id":"47004523084","owner":"46848480@N00","secret":"20c439dff8","server":"65535","farm":66,"title":"20190427-1DX21349","ispublic":1,"isfriend":0,"isfamily":0},{"id":"33916769808","owner":"46848480@N00","secret":"6b1d5f6c13","server":"65535","farm":66,"title":"20190427-1DX21350","ispublic":1,"isfriend":0,"isfamily":0},{"id":"47004522504","owner":"46848480@N00","secret":"e4ff51089d","server":"65535","farm":66,"title":"20190427-1DX21352","ispublic":1,"isfriend":0,"isfamily":0},{"id":"33916768988","owner":"46848480@N00","secret":"3323b09fae","server":"65535","farm":66,"title":"20190427-1DX21358","ispublic":1,"isfriend":0,"isfamily":0},{"id":"33916768698","owner":"46848480@N00","secret":"489ae65b84","server":"65535","farm":66,"title":"20190427-1DX21360","ispublic":1,"isfriend":0,"isfamily":0},{"id":"33916768168","owner":"46848480@N00","secret":"388c853ddd","server":"65535","farm":66,"title":"20190427-1DX21362","ispublic":1,"isfriend":0,"isfamily":0},{"id":"33916767578","owner":"46848480@N00","secret":"45ef008489","server":"65535","farm":66,"title":"20190427-1DX21366","ispublic":1,"isfriend":0,"isfamily":0},{"id":"47734228502","owner":"46848480@N00","secret":"6a8733b821","server":"65535","farm":66,"title":"20190427-1DX21230","ispublic":1,"isfriend":0,"isfamily":0},{"id":"47734227592","owner":"46848480@N00","secret":"6b91c684a2","server":"65535","farm":66,"title":"20190427-1DX21231","ispublic":1,"isfriend":0,"isfamily":0},{"id":"40157085323","owner":"36137813@N06","secret":"1ca9934fd8","server":"7852","farm":8,"title":"Orange-breasted Trogon (Harpactes oreskios)","ispublic":1,"isfriend":0,"isfamily":0},{"id":"33235796758","owner":"33212211@N00","secret":"6f6cef19eb","server":"7892","farm":8,"title":"Harpactes oreskios (Orange-breasted Trogon)","ispublic":1,"isfriend":0,"isfamily":0},{"id":"47058694022","owner":"33212211@N00","secret":"2a18af3529","server":"7820","farm":8,"title":"Harpactes oreskios (Orange-breasted Trogon)","ispublic":1,"isfriend":0,"isfamily":0},{"id":"42504433390","owner":"32136583@N04","secret":"94f499237a","server":"1865","farm":2,"title":"Orange Breasted Trogon","ispublic":1,"isfriend":0,"isfamily":0},{"id":"43144999784","owner":"46848480@N00","secret":"8385063d4a","server":"939","farm":1,"title":"20180729-0I7A3571","ispublic":1,"isfriend":0,"isfamily":0},{"id":"42054002020","owner":"46848480@N00","secret":"6896ddf851","server":"931","farm":1,"title":"20180729-0I7A3707","ispublic":1,"isfriend":0,"isfamily":0},{"id":"51814419613","owner":"28786551@N04","secret":"ccc29ea3e4","server":"65535","farm":66,"title":"Orange-breasted Trogon","ispublic":1,"isfriend":0,"isfamily":0},{"id":"51120589726","owner":"85343868@N03","secret":"fdd4249c5a","server":"65535","farm":66,"title":"\u30e4\u30de\u30ad\u30cc\u30d0\u30cd\u30c9\u30ea\uff08Harpactes oreskios\u3001\u82f1\u540d\uff1aOrange\u2010breasted Trogon\uff09","ispublic":1,"isfriend":0,"isfamily":0},{"id":"51120589636","owner":"85343868@N03","secret":"93cb0da4d0","server":"65535","farm":66,"title":"\u30e4\u30de\u30ad\u30cc\u30d0\u30cd\u30c9\u30ea\uff08Harpactes oreskios\u3001\u82f1\u540d\uff1aOrange\u2010breasted Trogon\uff09","ispublic":1,"isfriend":0,"isfamily":0},{"id":"51120016307","owner":"85343868@N03","secret":"fc0664950a","server":"65535","farm":66,"title":"\u30e4\u30de\u30ad\u30cc\u30d0\u30cd\u30c9\u30ea\uff08Harpactes oreskios\u3001\u82f1\u540d\uff1aOrange\u2010breasted Trogon\uff09","ispublic":1,"isfriend":0,"isfamily":0},{"id":"51120016282","owner":"85343868@N03","secret":"764f478fcf","server":"65535","farm":66,"title":"\u30e4\u30de\u30ad\u30cc\u30d0\u30cd\u30c9\u30ea\uff08Harpactes oreskios\u3001\u82f1\u540d\uff1aOrange\u2010breasted Trogon\uff09","ispublic":1,"isfriend":0,"isfamily":0},{"id":"51120016272","owner":"85343868@N03","secret":"8d777ccc23","server":"65535","farm":66,"title":"\u30e4\u30de\u30ad\u30cc\u30d0\u30cd\u30c9\u30ea\uff08Harpactes oreskios\u3001\u82f1\u540d\uff1aOrange\u2010breasted Trogon\uff09","ispublic":1,"isfriend":0,"isfamily":0},{"id":"51120334359","owner":"85343868@N03","secret":"b88f4e687e","server":"65535","farm":66,"title":"\u30e4\u30de\u30ad\u30cc\u30d0\u30cd\u30c9\u30ea\uff08Harpactes oreskios\u3001\u82f1\u540d\uff1aOrange\u2010breasted Trogon\uff09","ispublic":1,"isfriend":0,"isfamily":0},{"id":"51120499643","owner":"85343868@N03","secret":"cbdd3c4849","server":"65535","farm":66,"title":"\u30e4\u30de\u30ad\u30cc\u30d0\u30cd\u30c9\u30ea\uff08Harpactes oreskios\u3001\u82f1\u540d\uff1aOrange\u2010breasted Trogon\uff09","ispublic":1,"isfriend":0,"isfamily":0},{"id":"51120499623","owner":"85343868@N03","secret":"cda57a0274","server":"65535","farm":66,"title":"\u30e4\u30de\u30ad\u30cc\u30d0\u30cd\u30c9\u30ea\uff08Harpactes oreskios\u3001\u82f1\u540d\uff1aOrange\u2010breasted Trogon\uff09","ispublic":1,"isfriend":0,"isfamily":0},{"id":"51120336784","owner":"85343868@N03","secret":"e0de6ef4ab","server":"65535","farm":66,"title":"\u30e4\u30de\u30ad\u30cc\u30d0\u30cd\u30c9\u30ea\uff08Harpactes oreskios\u3001\u82f1\u540d\uff1aOrange\u2010breasted Trogon\uff09","ispublic":1,"isfriend":0,"isfamily":0},{"id":"51120018502","owner":"85343868@N03","secret":"07836fd592","server":"65535","farm":66,"title":"\u30e4\u30de\u30ad\u30cc\u30d0\u30cd\u30c9\u30ea\uff08Harpactes oreskios\u3001\u82f1\u540d\uff1aOrange\u2010breasted Trogon\uff09","ispublic":1,"isfriend":0,"isfamily":0},{"id":"51120336759","owner":"85343868@N03","secret":"73eca798a3","server":"65535","farm":66,"title":"\u30e4\u30de\u30ad\u30cc\u30d0\u30cd\u30c9\u30ea\uff08Harpactes oreskios\u3001\u82f1\u540d\uff1aOrange\u2010breasted Trogon\uff09","ispublic":1,"isfriend":0,"isfamily":0},{"id":"51120018417","owner":"85343868@N03","secret":"f5376a33fc","server":"65535","farm":66,"title":"\u30e4\u30de\u30ad\u30cc\u30d0\u30cd\u30c9\u30ea\uff08Harpactes oreskios\u3001\u82f1\u540d\uff1aOrange\u2010breasted Trogon\uff09","ispublic":1,"isfriend":0,"isfamily":0},{"id":"51121382870","owner":"85343868@N03","secret":"a02e2f1722","server":"65535","farm":66,"title":"\u30e4\u30de\u30ad\u30cc\u30d0\u30cd\u30c9\u30ea\uff08Harpactes oreskios\u3001\u82f1\u540d\uff1aOrange\u2010breasted Trogon\uff09","ispublic":1,"isfriend":0,"isfamily":0},{"id":"51120499528","owner":"85343868@N03","secret":"560edb6c83","server":"65535","farm":66,"title":"\u30e4\u30de\u30ad\u30cc\u30d0\u30cd\u30c9\u30ea\uff08Harpactes oreskios\u3001\u82f1\u540d\uff1aOrange\u2010breasted Trogon\uff09","ispublic":1,"isfriend":0,"isfamily":0},{"id":"51120499508","owner":"85343868@N03","secret":"5d4f7d543c","server":"65535","farm":66,"title":"\u30e4\u30de\u30ad\u30cc\u30d0\u30cd\u30c9\u30ea\uff08Harpactes oreskios\u3001\u82f1\u540d\uff1aOrange\u2010breasted Trogon\uff09","ispublic":1,"isfriend":0,"isfamily":0},{"id":"51120499488","owner":"85343868@N03","secret":"4b56d189eb","server":"65535","farm":66,"title":"\u30e4\u30de\u30ad\u30cc\u30d0\u30cd\u30c9\u30ea\uff08Harpactes oreskios\u3001\u82f1\u540d\uff1aOrange\u2010breasted Trogon\uff09","ispublic":1,"isfriend":0,"isfamily":0},{"id":"50085532866","owner":"187469698@N05","secret":"92b8f4b114","server":"65535","farm":66,"title":"496 Orange-breasted Trogon - Andrew Walker 001","ispublic":1,"isfriend":0,"isfamily":0},{"id":"50052844552","owner":"55527686@N03","secret":"578f589530","server":"65535","farm":66,"title":"Orange-breasted Trogon (stellae) - harpactes oresklos stellae","ispublic":1,"isfriend":0,"isfamily":0},{"id":"49607528748","owner":"156459616@N07","secret":"166faa02cd","server":"65535","farm":66,"title":"Orange-Breasted Trogon Harpactes Oreskios","ispublic":1,"isfriend":0,"isfamily":0},{"id":"49311379917","owner":"186211059@N06","secret":"46937688a0","server":"65535","farm":66,"title":"Orange-breasted Trogon","ispublic":1,"isfriend":0,"isfamily":0},{"id":"48883067322","owner":"49876287@N04","secret":"0ea977907c","server":"65535","farm":66,"title":"Orange-breasted Trogon","ispublic":1,"isfriend":0,"isfamily":0},{"id":"48880762861","owner":"49876287@N04","secret":"ee3fac896a","server":"65535","farm":66,"title":"Orange-breasted Trogon","ispublic":1,"isfriend":0,"isfamily":0},{"id":"48879389293","owner":"49876287@N04","secret":"78cb598dab","server":"65535","farm":66,"title":"Orange-breasted Trogon","ispublic":1,"isfriend":0,"isfamily":0},{"id":"48021970783","owner":"90764954@N07","secret":"018402a1c4","server":"65535","farm":66,"title":"Orange-breasted Trogon (Harpactes oreskios) \u6a59\u80f8\u54ac\u9e43","ispublic":1,"isfriend":0,"isfamily":0},{"id":"33923609448","owner":"46848480@N00","secret":"d5b4b8e714","server":"65535","farm":66,"title":"20190427-1DX21403","ispublic":1,"isfriend":0,"isfamily":0},{"id":"32850318927","owner":"46848480@N00","secret":"c65e67411f","server":"65535","farm":66,"title":"20190427-1DX21372","ispublic":1,"isfriend":0,"isfamily":0},{"id":"40820146903","owner":"46848480@N00","secret":"97e8d8521a","server":"65535","farm":66,"title":"20190427-1DX21255","ispublic":1,"isfriend":0,"isfamily":0},{"id":"47734230332","owner":"46848480@N00","secret":"c70e2b90a8","server":"65535","farm":66,"title":"20190427-1DX21224","ispublic":1,"isfriend":0,"isfamily":0},{"id":"47734229322","owner":"46848480@N00","secret":"0da3b5ecdd","server":"65535","farm":66,"title":"20190427-1DX21229","ispublic":1,"isfriend":0,"isfamily":0},{"id":"47463189671","owner":"12639178@N07","secret":"7f9fbb54f9","server":"7875","farm":8,"title":"Orangebrusttrogon (Cat Tien, Vietnam)","ispublic":1,"isfriend":0,"isfamily":0},{"id":"44426158760","owner":"166602728@N03","secret":"9513ee458c","server":"4803","farm":5,"title":"Orange-breasted Trogon (Harpactes oreskios)","ispublic":1,"isfriend":0,"isfamily":0},{"id":"28928450467","owner":"46848480@N00","secret":"d557a3759b","server":"1775","farm":2,"title":"20180729-0I7A3721","ispublic":1,"isfriend":0,"isfamily":0},{"id":"43814223332","owner":"46848480@N00","secret":"b9e047fe57","server":"1791","farm":2,"title":"20180729-0I7A3592","ispublic":1,"isfriend":0,"isfamily":0},{"id":"42054008170","owner":"46848480@N00","secret":"5a191c98e4","server":"1819","farm":2,"title":"20180729-0I7A3629","ispublic":1,"isfriend":0,"isfamily":0},{"id":"43814221992","owner":"46848480@N00","secret":"c93c43e729","server":"855","farm":1,"title":"20180729-0I7A3643","ispublic":1,"isfriend":0,"isfamily":0},{"id":"43814220002","owner":"46848480@N00","secret":"685f43ac41","server":"858","farm":1,"title":"20180729-0I7A3648","ispublic":1,"isfriend":0,"isfamily":0}]},"stat":"ok"}