{"photos":{"page":1,"pages":29,"perpage":100,"total":2881,"photo":[{"id":"52722765820","owner":"98627816@N02","secret":"4077a7ea57","server":"65535","farm":66,"title":"Orchard Oriole (Icterus spurius)","ispublic":1,"isfriend":0,"isfamily":0},{"id":"52706207902","owner":"195537536@N03","secret":"3c1988a9e2","server":"65535","farm":66,"title":"Orchard Oriole (Icterus spurius): Male","ispublic":1,"isfriend":0,"isfamily":0},{"id":"52662138227","owner":"34368269@N04","secret":"265ac37a40","server":"65535","farm":66,"title":"Orchard Oriole","ispublic":1,"isfriend":0,"isfamily":0},{"id":"52643387391","owner":"8013969@N03","secret":"5efb765e6e","server":"65535","farm":66,"title":"Icterus spurius DFL btr22-1","ispublic":1,"isfriend":0,"isfamily":0},{"id":"52642882437","owner":"8013969@N03","secret":"f23cb38a8e","server":"65535","farm":66,"title":"Icterus spurius DFL btr22-2","ispublic":1,"isfriend":0,"isfamily":0},{"id":"52580416476","owner":"153973412@N04","secret":"a6a8cbbbd7","server":"65535","farm":66,"title":"Orchard Oriole-Icterus spurius, KS","ispublic":1,"isfriend":0,"isfamily":0},{"id":"52557270188","owner":"76288515@N07","secret":"219c63bfe7","server":"65535","farm":66,"title":"Orchard Oriole Icterus spurius","ispublic":1,"isfriend":0,"isfamily":0},{"id":"52556727601","owner":"76288515@N07","secret":"587337f4f7","server":"65535","farm":66,"title":"Orchard Oriole Icterus spurius","ispublic":1,"isfriend":0,"isfamily":0},{"id":"52556727496","owner":"76288515@N07","secret":"606741f8a2","server":"65535","farm":66,"title":"Orchard Oriole Icterus spurius","ispublic":1,"isfriend":0,"isfamily":0},{"id":"52557025609","owner":"76288515@N07","secret":"ae45b9944e","server":"65535","farm":66,"title":"Orchard Oriole Icterus spurius","ispublic":1,"isfriend":0,"isfamily":0},{"id":"52557196665","owner":"76288515@N07","secret":"9c42e436fa","server":"65535","farm":66,"title":"Orchard Oriole Icterus spurius","ispublic":1,"isfriend":0,"isfamily":0},{"id":"52539754328","owner":"10260434@N03","secret":"ff789fb01c","server":"65535","farm":66,"title":"Orchard Oriole male-24Apr22","ispublic":1,"isfriend":0,"isfamily":0},{"id":"52539715933","owner":"10260434@N03","secret":"0a1369ab48","server":"65535","farm":66,"title":"Orchard Oriole male-22Apr22","ispublic":1,"isfriend":0,"isfamily":0},{"id":"52539639455","owner":"10260434@N03","secret":"23da7943b1","server":"65535","farm":66,"title":"Orchard Oriole male-22Apr22","ispublic":1,"isfriend":0,"isfamily":0},{"id":"52539153281","owner":"10260434@N03","secret":"20c6501afe","server":"65535","farm":66,"title":"Orchard Oriole male-22Apr22","ispublic":1,"isfriend":0,"isfamily":0},{"id":"52538386607","owner":"33610210@N05","secret":"539fc6dc46","server":"65535","farm":66,"title":"Orchard Oriole, Icterus spurius","ispublic":1,"isfriend":0,"isfamily":0},{"id":"52534760621","owner":"33610210@N05","secret":"a237049225","server":"65535","farm":66,"title":"Orchard Oriole, Icterus spurius","ispublic":1,"isfriend":0,"isfamily":0},{"id":"52532302442","owner":"33610210@N05","secret":"6c9f435818","server":"65535","farm":66,"title":"Hooded Oriole, Icterus cucullatus (left) and Orchard Oriole, Icterus spurius (upper)","ispublic":1,"isfriend":0,"isfamily":0},{"id":"52533054804","owner":"33610210@N05","secret":"fb38fe83b7","server":"65535","farm":66,"title":"Orchard Oriole, Icterus spurius","ispublic":1,"isfriend":0,"isfamily":0},{"id":"52533245720","owner":"33610210@N05","secret":"ff743e6765","server":"65535","farm":66,"title":"Orchard Oriole, Icterus spurius","ispublic":1,"isfriend":0,"isfamily":0},{"id":"52533245555","owner":"33610210@N05","secret":"fbf8828013","server":"65535","farm":66,"title":"Orchard Oriole, Icterus spurius","ispublic":1,"isfriend":0,"isfamily":0},{"id":"52532847924","owner":"119095828@N03","secret":"3cb5d0d420","server":"65535","farm":66,"title":"Orchard Oriole (Icterus spurius)","ispublic":1,"isfriend":0,"isfamily":0},{"id":"52506472563","owner":"76617062@N08","secret":"9905a955cd","server":"65535","farm":66,"title":"1.30342 Oriole des vergers (m\u00e2le) \/ Icterus spurius \/ Orchard Oriole","ispublic":1,"isfriend":0,"isfamily":0},{"id":"52449822330","owner":"98627816@N02","secret":"23195ea1ec","server":"65535","farm":66,"title":"Orchard Oriole (Icterus spurius)","ispublic":1,"isfriend":0,"isfamily":0},{"id":"52442672844","owner":"71989271@N06","secret":"57e42f852a","server":"65535","farm":66,"title":"Orchard Oriole (Icterus spurius)","ispublic":1,"isfriend":0,"isfamily":0},{"id":"52441891317","owner":"71989271@N06","secret":"ff4f6fe7bb","server":"65535","farm":66,"title":"Orchard Oriole (Icterus spurius)","ispublic":1,"isfriend":0,"isfamily":0},{"id":"52373874330","owner":"103722035@N06","secret":"e3e6b00952","server":"0","farm":0,"title":"Orchard Oriole (Icterus spurius) \/ Hooded Oriole (Icterus cucullatus), Cayucos, CA","ispublic":1,"isfriend":0,"isfamily":0},{"id":"52336469390","owner":"56902740@N06","secret":"f8c8669158","server":"65535","farm":66,"title":"Orchard Oriole","ispublic":1,"isfriend":0,"isfamily":0},{"id":"52305483787","owner":"10260434@N03","secret":"1ca2dd4b16","server":"65535","farm":66,"title":"Orchard Oriole female-2May22","ispublic":1,"isfriend":0,"isfamily":0},{"id":"52295916180","owner":"28631427@N00","secret":"b1bc5c1cbf","server":"65535","farm":66,"title":"Orchard Oriole","ispublic":1,"isfriend":0,"isfamily":0},{"id":"52284828356","owner":"34368269@N04","secret":"ddf5fa112a","server":"65535","farm":66,"title":"Orchard Oriole - Before the rain","ispublic":1,"isfriend":0,"isfamily":0},{"id":"52281765751","owner":"49563725@N06","secret":"910f1b2cc4","server":"65535","farm":66,"title":"Orchard Oriole","ispublic":1,"isfriend":0,"isfamily":0},{"id":"52278161413","owner":"10260434@N03","secret":"d7732b6f97","server":"65535","farm":66,"title":"Orchard Oriole male-22Apr22","ispublic":1,"isfriend":0,"isfamily":0},{"id":"52278405689","owner":"10260434@N03","secret":"973a18f952","server":"65535","farm":66,"title":"Orchard Oriole imm_male-22Apr22","ispublic":1,"isfriend":0,"isfamily":0},{"id":"52278152883","owner":"10260434@N03","secret":"23efc75d02","server":"65535","farm":66,"title":"Orchard Oriole imm_male-22Apr22","ispublic":1,"isfriend":0,"isfamily":0},{"id":"52278675269","owner":"92361032@N05","secret":"8bc68790aa","server":"65535","farm":66,"title":"Orchard Oriole \/ Oriole des vergers ( Diane )","ispublic":1,"isfriend":0,"isfamily":0},{"id":"52242798482","owner":"86191812@N07","secret":"ecb6f497cf","server":"65535","farm":66,"title":"Orchard Orioles (Icterus spurius)","ispublic":1,"isfriend":0,"isfamily":0},{"id":"52244085610","owner":"76617062@N08","secret":"80d29810a7","server":"65535","farm":66,"title":"1.30342 Oriole des vergers (m\u00e2le) \/ Icterus spurius \/ Orchard Oriole","ispublic":1,"isfriend":0,"isfamily":0},{"id":"52162964212","owner":"49114357@N08","secret":"68f21415cf","server":"65535","farm":66,"title":"Orchard Oriole","ispublic":1,"isfriend":0,"isfamily":0},{"id":"52211141262","owner":"34368269@N04","secret":"933c1ec085","server":"65535","farm":66,"title":"Orchard Oriole","ispublic":1,"isfriend":0,"isfamily":0},{"id":"52198371900","owner":"34368269@N04","secret":"9ca72b1ab4","server":"65535","farm":66,"title":"Orchard Oriole","ispublic":1,"isfriend":0,"isfamily":0},{"id":"52180599309","owner":"145466593@N08","secret":"b2cc3c3638","server":"65535","farm":66,"title":"Orchard Oriole (f)","ispublic":1,"isfriend":0,"isfamily":0},{"id":"52177172871","owner":"39177293@N03","secret":"b77fe12987","server":"65535","farm":66,"title":"Orchard Oriole","ispublic":1,"isfriend":0,"isfamily":0},{"id":"52174526413","owner":"10260434@N03","secret":"eebbbda7e2","server":"65535","farm":66,"title":"Orchard Oriole imm_male-22Apr","ispublic":1,"isfriend":0,"isfamily":0},{"id":"52173300686","owner":"10260434@N03","secret":"b61d475dc6","server":"65535","farm":66,"title":"Orchard Oriole fem-25Apr22","ispublic":1,"isfriend":0,"isfamily":0},{"id":"52173528964","owner":"10260434@N03","secret":"6da21c69f5","server":"65535","farm":66,"title":"Orchard Oriole male-22Apr22","ispublic":1,"isfriend":0,"isfamily":0},{"id":"52151925802","owner":"39177293@N03","secret":"72efcd519e","server":"65535","farm":66,"title":"Orchard Oriole","ispublic":1,"isfriend":0,"isfamily":0},{"id":"52151925817","owner":"39177293@N03","secret":"66911d4111","server":"65535","farm":66,"title":"Orchard Oriole","ispublic":1,"isfriend":0,"isfamily":0},{"id":"52127391019","owner":"32599741@N03","secret":"f4272e768c","server":"65535","farm":66,"title":"backside","ispublic":1,"isfriend":0,"isfamily":0},{"id":"52112191536","owner":"165841515@N03","secret":"00584ec79b","server":"65535","farm":66,"title":"Oriole des vergers \/ Orchard Oriole \/ (Icterus spurius)","ispublic":1,"isfriend":0,"isfamily":0},{"id":"52112191361","owner":"165841515@N03","secret":"971fedc484","server":"65535","farm":66,"title":"Oriole des vergers \/ Orchard Oriole \/ (Icterus spurius)","ispublic":1,"isfriend":0,"isfamily":0},{"id":"52112696795","owner":"165841515@N03","secret":"94d937f61f","server":"65535","farm":66,"title":"Oriole des vergers \/ Orchard Oriole \/ (Icterus spurius)","ispublic":1,"isfriend":0,"isfamily":0},{"id":"52109799914","owner":"91064752@N03","secret":"499ac65903","server":"65535","farm":66,"title":"Orchard Oriole","ispublic":1,"isfriend":0,"isfamily":0},{"id":"52108472565","owner":"18739614@N00","secret":"3fc30a6966","server":"65535","farm":66,"title":"Orchard Oriole","ispublic":1,"isfriend":0,"isfamily":0},{"id":"52102480797","owner":"76288515@N07","secret":"8da328b1b0","server":"65535","farm":66,"title":"Orchard Oriole Icterus spurius","ispublic":1,"isfriend":0,"isfamily":0},{"id":"52100328301","owner":"69947563@N07","secret":"c060ebf312","server":"65535","farm":66,"title":"Orchard Oriole - Point Pelee National Park, Ontario, Canada","ispublic":1,"isfriend":0,"isfamily":0},{"id":"52094579541","owner":"18739614@N00","secret":"b2b1646891","server":"65535","farm":66,"title":"Orchard Oriole","ispublic":1,"isfriend":0,"isfamily":0},{"id":"52091126972","owner":"10105106@N07","secret":"3f3c59830b","server":"65535","farm":66,"title":"Orchard Oriole","ispublic":1,"isfriend":0,"isfamily":0},{"id":"52081878030","owner":"71418112@N00","secret":"351a578cae","server":"65535","farm":66,"title":"Orchard oriole.","ispublic":1,"isfriend":0,"isfamily":0},{"id":"52081078126","owner":"85277889@N08","secret":"8749260340","server":"65535","farm":66,"title":"Orchard Oriole (Icterus spurius) 2022-05-15 (2)","ispublic":1,"isfriend":0,"isfamily":0},{"id":"52078685365","owner":"18739614@N00","secret":"1f17eac74b","server":"65535","farm":66,"title":"Orchard Oriole","ispublic":1,"isfriend":0,"isfamily":0},{"id":"52076339217","owner":"8654297@N06","secret":"990af8b943","server":"65535","farm":66,"title":"Growing up","ispublic":1,"isfriend":0,"isfamily":0},{"id":"52073962319","owner":"132165466@N08","secret":"ce425b2426","server":"65535","farm":66,"title":"Orchard Oriole, mature male","ispublic":1,"isfriend":0,"isfamily":0},{"id":"52072688367","owner":"132165466@N08","secret":"c90079406b","server":"65535","farm":66,"title":"Orchard Oriole, mature male","ispublic":1,"isfriend":0,"isfamily":0},{"id":"52069464641","owner":"132165466@N08","secret":"f72f20d8eb","server":"65535","farm":66,"title":"Orchard Oriole, mature male","ispublic":1,"isfriend":0,"isfamily":0},{"id":"52064371068","owner":"18739614@N00","secret":"15e1786fc9","server":"65535","farm":66,"title":"Orchard Oriole","ispublic":1,"isfriend":0,"isfamily":0},{"id":"52059414923","owner":"18378985@N08","secret":"11b270e37c","server":"65535","farm":66,"title":"Orchard Oriole","ispublic":1,"isfriend":0,"isfamily":0},{"id":"52050253928","owner":"39177293@N03","secret":"1ca386b283","server":"65535","farm":66,"title":"Orchard Oriole","ispublic":1,"isfriend":0,"isfamily":0},{"id":"52049621366","owner":"8654297@N06","secret":"59aba3b431","server":"65535","farm":66,"title":"First timer","ispublic":1,"isfriend":0,"isfamily":0},{"id":"52046632473","owner":"13604536@N02","secret":"4991eeef43","server":"65535","farm":66,"title":"Orchard Oriole","ispublic":1,"isfriend":0,"isfamily":0},{"id":"52046810880","owner":"18739614@N00","secret":"255424b8e8","server":"65535","farm":66,"title":"Orchard Oriole","ispublic":1,"isfriend":0,"isfamily":0},{"id":"52557270218","owner":"76288515@N07","secret":"04fce84e4e","server":"65535","farm":66,"title":"Orchard Oriole Icterus spurius","ispublic":1,"isfriend":0,"isfamily":0},{"id":"52556275927","owner":"76288515@N07","secret":"5e1549252a","server":"65535","farm":66,"title":"Orchard Oriole Icterus spurius","ispublic":1,"isfriend":0,"isfamily":0},{"id":"52556727756","owner":"76288515@N07","secret":"ba559f77c8","server":"65535","farm":66,"title":"Orchard Oriole Icterus spurius","ispublic":1,"isfriend":0,"isfamily":0},{"id":"52556727711","owner":"76288515@N07","secret":"a7f563c27a","server":"65535","farm":66,"title":"Orchard Oriole Icterus spurius","ispublic":1,"isfriend":0,"isfamily":0},{"id":"52557197000","owner":"76288515@N07","secret":"28ee6033f1","server":"65535","farm":66,"title":"Orchard Oriole Icterus spurius","ispublic":1,"isfriend":0,"isfamily":0},{"id":"52557270038","owner":"76288515@N07","secret":"d4710627b5","server":"65535","farm":66,"title":"Orchard Oriole Icterus spurius","ispublic":1,"isfriend":0,"isfamily":0},{"id":"52556727626","owner":"76288515@N07","secret":"6731a0b3f8","server":"65535","farm":66,"title":"Orchard Oriole Icterus spurius","ispublic":1,"isfriend":0,"isfamily":0},{"id":"52557196855","owner":"76288515@N07","secret":"620f9e5afb","server":"65535","farm":66,"title":"Orchard Oriole Icterus spurius","ispublic":1,"isfriend":0,"isfamily":0},{"id":"52557025689","owner":"76288515@N07","secret":"43720c4997","server":"65535","farm":66,"title":"Orchard Oriole Icterus spurius","ispublic":1,"isfriend":0,"isfamily":0},{"id":"52538722122","owner":"10260434@N03","secret":"bf83b93e5d","server":"65535","farm":66,"title":"Orchard Oriole male-24Apr22*","ispublic":1,"isfriend":0,"isfamily":0},{"id":"52538687097","owner":"10260434@N03","secret":"742f56233e","server":"65535","farm":66,"title":"Orchard Oriole male-23Apr22","ispublic":1,"isfriend":0,"isfamily":0},{"id":"52534760606","owner":"33610210@N05","secret":"ce88af8139","server":"65535","farm":66,"title":"Orchard Oriole, Icterus spurius","ispublic":1,"isfriend":0,"isfamily":0},{"id":"52496522008","owner":"190274181@N03","secret":"8c1b06d0d9","server":"65535","farm":66,"title":"Oropendola de huerta o bolsero casta\u00f1o  Orchard Oriol  \ud83d\udd2cIcterus Spurius","ispublic":1,"isfriend":0,"isfamily":0},{"id":"52495963551","owner":"190274181@N03","secret":"c6b530aebb","server":"65535","farm":66,"title":"Oropendola de huerta o bolsero casta\u00f1o  Orchard Oriol  \ud83d\udd2cIcterus Spurius","ispublic":1,"isfriend":0,"isfamily":0},{"id":"52402788651","owner":"71989271@N06","secret":"be17702d3d","server":"65535","farm":66,"title":"Orchard Oriole (m)(Icterus spurius)","ispublic":1,"isfriend":0,"isfamily":0},{"id":"52402788631","owner":"71989271@N06","secret":"8860cd2dfd","server":"65535","farm":66,"title":"Orchard Oriole (m)(Icterus spurius)","ispublic":1,"isfriend":0,"isfamily":0},{"id":"52402788616","owner":"71989271@N06","secret":"a7f91064cf","server":"65535","farm":66,"title":"Orchard Oriole (m)(Icterus spurius)","ispublic":1,"isfriend":0,"isfamily":0},{"id":"52403287883","owner":"71989271@N06","secret":"589c4a0a1a","server":"65535","farm":66,"title":"Orchard Oriole (m)(Icterus spurius)","ispublic":1,"isfriend":0,"isfamily":0},{"id":"52199163565","owner":"184155060@N04","secret":"ed565af0b5","server":"65535","farm":66,"title":"32406 Oriole des vergers (m\u00e2le) \/Icterus spurius spurius \/ Orchard Oriole (Orchard)","ispublic":1,"isfriend":0,"isfamily":0},{"id":"52198661506","owner":"184155060@N04","secret":"c8a497f0a0","server":"65535","farm":66,"title":"32406 Oriole des vergers (m\u00e2le) \/Icterus spurius spurius \/ Orchard Oriole (Orchard)","ispublic":1,"isfriend":0,"isfamily":0},{"id":"52198934744","owner":"184155060@N04","secret":"dd3f870fce","server":"65535","farm":66,"title":"32406 Oriole des vergers (m\u00e2le immature) \/Icterus spurius spurius \/ Orchard Oriole (Orchard)","ispublic":1,"isfriend":0,"isfamily":0},{"id":"52151484221","owner":"18739614@N00","secret":"264b2b5a27","server":"65535","farm":66,"title":"Orchard Oriole","ispublic":1,"isfriend":0,"isfamily":0},{"id":"52143714880","owner":"128810613@N02","secret":"6f6833f940","server":"65535","farm":66,"title":"Orchard Oriole - Icterus spurius","ispublic":1,"isfriend":0,"isfamily":0},{"id":"52143247068","owner":"128810613@N02","secret":"a24fb74e03","server":"65535","farm":66,"title":"Orchard Oriole - Icterus spurius","ispublic":1,"isfriend":0,"isfamily":0},{"id":"52112191611","owner":"165841515@N03","secret":"abafe88c59","server":"65535","farm":66,"title":"Oriole des vergers \/ Orchard Oriole \/ (Icterus spurius)","ispublic":1,"isfriend":0,"isfamily":0},{"id":"52093365406","owner":"128537732@N06","secret":"24a7b45c55","server":"65535","farm":66,"title":"Orchard Oriole (Icterus spurius)","ispublic":1,"isfriend":0,"isfamily":0},{"id":"52069476873","owner":"132165466@N08","secret":"83b06375da","server":"65535","farm":66,"title":"Orchard Oriole (I think) female","ispublic":1,"isfriend":0,"isfamily":0},{"id":"52046551139","owner":"18739614@N00","secret":"02aaffb587","server":"65535","farm":66,"title":"Orchard Oriole","ispublic":1,"isfriend":0,"isfamily":0},{"id":"52043024136","owner":"36013467@N07","secret":"7674f11c59","server":"65535","farm":66,"title":"Orchard Oriole (Icterus spurius)","ispublic":1,"isfriend":0,"isfamily":0}]},"stat":"ok"}