{"photos":{"page":1,"pages":446,"perpage":100,"total":44503,"photo":[{"id":"52789028046","owner":"63678308@N05","secret":"7495e170cb","server":"65535","farm":66,"title":"Osprey-1271-j","ispublic":1,"isfriend":0,"isfamily":0},{"id":"52789028056","owner":"63678308@N05","secret":"9d3977e28c","server":"65535","farm":66,"title":"Osprey-815-j","ispublic":1,"isfriend":0,"isfamily":0},{"id":"52788234157","owner":"198024963@N07","secret":"feed11aff3","server":"65535","farm":66,"title":"Osprey","ispublic":1,"isfriend":0,"isfamily":0},{"id":"52788234062","owner":"198024963@N07","secret":"6fc798e023","server":"65535","farm":66,"title":"Osprey","ispublic":1,"isfriend":0,"isfamily":0},{"id":"52789180275","owner":"198024963@N07","secret":"5d91cf2228","server":"65535","farm":66,"title":"Osprey","ispublic":1,"isfriend":0,"isfamily":0},{"id":"52788787226","owner":"198024963@N07","secret":"6df1465e0a","server":"65535","farm":66,"title":"Osprey","ispublic":1,"isfriend":0,"isfamily":0},{"id":"52788787166","owner":"198024963@N07","secret":"c5274ae2a0","server":"65535","farm":66,"title":"Osprey","ispublic":1,"isfriend":0,"isfamily":0},{"id":"52788233762","owner":"198024963@N07","secret":"6c73edc454","server":"65535","farm":66,"title":"Osprey","ispublic":1,"isfriend":0,"isfamily":0},{"id":"52788233707","owner":"198024963@N07","secret":"0796bf76a0","server":"65535","farm":66,"title":"Osprey","ispublic":1,"isfriend":0,"isfamily":0},{"id":"52789239923","owner":"198024963@N07","secret":"1d2bce34ec","server":"65535","farm":66,"title":"Osprey","ispublic":1,"isfriend":0,"isfamily":0},{"id":"52787847257","owner":"57126723@N07","secret":"28129232e2","server":"65535","farm":66,"title":"Osprey over College Creek\u2014Pandion haliaetus-1758-Edit","ispublic":1,"isfriend":0,"isfamily":0},{"id":"52788303761","owner":"32998004@N04","secret":"8e1445236a","server":"65535","farm":66,"title":"Il molestatore - The molester","ispublic":1,"isfriend":0,"isfamily":0},{"id":"52787716157","owner":"135315828@N06","secret":"3ecc2ed3ef","server":"65535","farm":66,"title":"seashell decorating an osprey nest","ispublic":1,"isfriend":0,"isfamily":0},{"id":"52788500159","owner":"135315828@N06","secret":"c38bdafdec","server":"65535","farm":66,"title":"osprey on nest","ispublic":1,"isfriend":0,"isfamily":0},{"id":"52788661095","owner":"135315828@N06","secret":"45cfb939c7","server":"65535","farm":66,"title":"osprey on nest","ispublic":1,"isfriend":0,"isfamily":0},{"id":"52788265296","owner":"135315828@N06","secret":"2fe40b330f","server":"65535","farm":66,"title":"osprey on nest","ispublic":1,"isfriend":0,"isfamily":0},{"id":"52788668558","owner":"135315828@N06","secret":"026d45a4b0","server":"65535","farm":66,"title":"osprey","ispublic":1,"isfriend":0,"isfamily":0},{"id":"52788668448","owner":"135315828@N06","secret":"970fb09aa6","server":"65535","farm":66,"title":"osprey","ispublic":1,"isfriend":0,"isfamily":0},{"id":"52788668353","owner":"135315828@N06","secret":"66d1fdfc9e","server":"65535","farm":66,"title":"osprey","ispublic":1,"isfriend":0,"isfamily":0},{"id":"52787663537","owner":"135315828@N06","secret":"7c68456158","server":"65535","farm":66,"title":"osprey","ispublic":1,"isfriend":0,"isfamily":0},{"id":"52788448459","owner":"135315828@N06","secret":"7549c666f2","server":"65535","farm":66,"title":"osprey","ispublic":1,"isfriend":0,"isfamily":0},{"id":"52787663197","owner":"135315828@N06","secret":"39c53b76f9","server":"65535","farm":66,"title":"osprey","ispublic":1,"isfriend":0,"isfamily":0},{"id":"52788217816","owner":"135315828@N06","secret":"aaa6d6ed61","server":"65535","farm":66,"title":"osprey","ispublic":1,"isfriend":0,"isfamily":0},{"id":"52788613880","owner":"135315828@N06","secret":"4b525b4ffb","server":"65535","farm":66,"title":"osprey","ispublic":1,"isfriend":0,"isfamily":0},{"id":"52788448209","owner":"135315828@N06","secret":"7b91f24c93","server":"65535","farm":66,"title":"osprey","ispublic":1,"isfriend":0,"isfamily":0},{"id":"52787662977","owner":"135315828@N06","secret":"f12d11d667","server":"65535","farm":66,"title":"osprey","ispublic":1,"isfriend":0,"isfamily":0},{"id":"52788448124","owner":"135315828@N06","secret":"bb8e0e9358","server":"65535","farm":66,"title":"osprey","ispublic":1,"isfriend":0,"isfamily":0},{"id":"52788667828","owner":"135315828@N06","secret":"0a6d859a3a","server":"65535","farm":66,"title":"osprey","ispublic":1,"isfriend":0,"isfamily":0},{"id":"52788447914","owner":"135315828@N06","secret":"0316e6b6b4","server":"65535","farm":66,"title":"osprey with fish","ispublic":1,"isfriend":0,"isfamily":0},{"id":"52788667588","owner":"135315828@N06","secret":"26fd2f3508","server":"65535","farm":66,"title":"osprey with fish","ispublic":1,"isfriend":0,"isfamily":0},{"id":"52788203330","owner":"135315828@N06","secret":"d9a32a3f93","server":"65535","farm":66,"title":"osprey","ispublic":1,"isfriend":0,"isfamily":0},{"id":"52788199995","owner":"135315828@N06","secret":"b886130ae9","server":"65535","farm":66,"title":"osprey","ispublic":1,"isfriend":0,"isfamily":0},{"id":"52788199880","owner":"135315828@N06","secret":"792c54e094","server":"65535","farm":66,"title":"osprey","ispublic":1,"isfriend":0,"isfamily":0},{"id":"52788199825","owner":"135315828@N06","secret":"2e8a348be2","server":"65535","farm":66,"title":"osprey","ispublic":1,"isfriend":0,"isfamily":0},{"id":"52787800721","owner":"135315828@N06","secret":"1595e00d65","server":"65535","farm":66,"title":"osprey","ispublic":1,"isfriend":0,"isfamily":0},{"id":"52787798026","owner":"135315828@N06","secret":"187de80dfd","server":"65535","farm":66,"title":"osprey","ispublic":1,"isfriend":0,"isfamily":0},{"id":"52788196355","owner":"135315828@N06","secret":"c99120c893","server":"65535","farm":66,"title":"osprey","ispublic":1,"isfriend":0,"isfamily":0},{"id":"52788248208","owner":"135315828@N06","secret":"26b925a1f1","server":"65535","farm":66,"title":"osprey","ispublic":1,"isfriend":0,"isfamily":0},{"id":"52788196160","owner":"135315828@N06","secret":"45788ba69a","server":"65535","farm":66,"title":"osprey","ispublic":1,"isfriend":0,"isfamily":0},{"id":"52788027969","owner":"135315828@N06","secret":"93888000e3","server":"65535","farm":66,"title":"osprey","ispublic":1,"isfriend":0,"isfamily":0},{"id":"52787796846","owner":"135315828@N06","secret":"afe3d263af","server":"65535","farm":66,"title":"osprey","ispublic":1,"isfriend":0,"isfamily":0},{"id":"52788247768","owner":"135315828@N06","secret":"01d907eb7e","server":"65535","farm":66,"title":"osprey","ispublic":1,"isfriend":0,"isfamily":0},{"id":"52786851327","owner":"7856934@N03","secret":"e74512b24e","server":"65535","farm":66,"title":"Osprey mating","ispublic":1,"isfriend":0,"isfamily":0},{"id":"52787358198","owner":"143672058@N08","secret":"0e28212c4d","server":"65535","farm":66,"title":"Osprey (Pandion haliaetus) Beaver Island State Park 4\/1\/23","ispublic":1,"isfriend":0,"isfamily":0},{"id":"52787217053","owner":"25899079@N08","secret":"9956b114c4","server":"65535","farm":66,"title":"Osprey (0578)","ispublic":1,"isfriend":0,"isfamily":0},{"id":"52787183223","owner":"128537732@N06","secret":"e2a2f6e777","server":"65535","farm":66,"title":"Osprey (Pandion haliaetus)","ispublic":1,"isfriend":0,"isfamily":0},{"id":"52785921256","owner":"95355208@N04","secret":"54294596d3","server":"65535","farm":66,"title":"Osprey","ispublic":1,"isfriend":0,"isfamily":0},{"id":"52786316460","owner":"95355208@N04","secret":"87eac5ffb0","server":"65535","farm":66,"title":"Osprey","ispublic":1,"isfriend":0,"isfamily":0},{"id":"52785731490","owner":"97303805@N00","secret":"3b67ca6373","server":"65535","farm":66,"title":"Osprey | Pandion haliaetus | 2023 - 4","ispublic":1,"isfriend":0,"isfamily":0},{"id":"52785280969","owner":"123521075@N07","secret":"7f7410cf21","server":"65535","farm":66,"title":"Osprey with fish - Pandion haliaetus","ispublic":1,"isfriend":0,"isfamily":0},{"id":"52785276890","owner":"12639178@N07","secret":"343e35680e","server":"65535","farm":66,"title":"Fischadler","ispublic":1,"isfriend":0,"isfamily":0},{"id":"52783368666","owner":"12639178@N07","secret":"080ec83f8b","server":"65535","farm":66,"title":"Fischadler (Pandion haliaetus) (1)","ispublic":1,"isfriend":0,"isfamily":0},{"id":"52782861016","owner":"32998004@N04","secret":"d6a20e7443","server":"65535","farm":66,"title":"Bellezza statuaria - Statuesque beauty","ispublic":1,"isfriend":0,"isfamily":0},{"id":"52782152632","owner":"28879558@N04","secret":"ee94951529","server":"65535","farm":66,"title":"Osprey - Pandion Haliaetus 62","ispublic":1,"isfriend":0,"isfamily":0},{"id":"52783154063","owner":"28879558@N04","secret":"fbcda728c9","server":"65535","farm":66,"title":"Osprey - Pandion Haliaetus 63","ispublic":1,"isfriend":0,"isfamily":0},{"id":"52783096260","owner":"28879558@N04","secret":"d5fd253707","server":"65535","farm":66,"title":"Osprey - Pandion Haliaetus 61","ispublic":1,"isfriend":0,"isfamily":0},{"id":"52782692366","owner":"28879558@N04","secret":"0aa7de67ae","server":"65535","farm":66,"title":"Osprey - Pandion Haliaetus 57","ispublic":1,"isfriend":0,"isfamily":0},{"id":"52783153708","owner":"28879558@N04","secret":"d17847d93a","server":"65535","farm":66,"title":"Osprey - Pandion Haliaetus 50","ispublic":1,"isfriend":0,"isfamily":0},{"id":"52782935309","owner":"28879558@N04","secret":"1c01308a8b","server":"65535","farm":66,"title":"Osprey - Pandion Haliaetus 38","ispublic":1,"isfriend":0,"isfamily":0},{"id":"52782935199","owner":"28879558@N04","secret":"fcdfef12f7","server":"65535","farm":66,"title":"Osprey - Pandion Haliaetus 35","ispublic":1,"isfriend":0,"isfamily":0},{"id":"52782935134","owner":"28879558@N04","secret":"2c40206098","server":"65535","farm":66,"title":"Osprey - Pandion Haliaetus 34","ispublic":1,"isfriend":0,"isfamily":0},{"id":"52783095635","owner":"28879558@N04","secret":"5c8342b860","server":"65535","farm":66,"title":"Osprey - Pandion Haliaetus 32","ispublic":1,"isfriend":0,"isfamily":0},{"id":"52783153198","owner":"28879558@N04","secret":"9b1cc7ce11","server":"65535","farm":66,"title":"Osprey - Pandion Haliaetus 31","ispublic":1,"isfriend":0,"isfamily":0},{"id":"52783095430","owner":"28879558@N04","secret":"3a50dae605","server":"65535","farm":66,"title":"Osprey - Pandion Haliaetus 59","ispublic":1,"isfriend":0,"isfamily":0},{"id":"52782691496","owner":"28879558@N04","secret":"8e8078447c","server":"65535","farm":66,"title":"Osprey - Pandion Haliaetus 60","ispublic":1,"isfriend":0,"isfamily":0},{"id":"52782931039","owner":"28879558@N04","secret":"9e1c9fd2f2","server":"65535","farm":66,"title":"Osprey - Pandion Haliaetus 23","ispublic":1,"isfriend":0,"isfamily":0},{"id":"52782623110","owner":"97303805@N00","secret":"fe3e00f8f6","server":"65535","farm":66,"title":"Osprey | Pandion haliaetus | 2023 - 1","ispublic":1,"isfriend":0,"isfamily":0},{"id":"52781674792","owner":"97303805@N00","secret":"1c4fefc9b7","server":"65535","farm":66,"title":"Osprey | Pandion haliaetus | 2023 - 2","ispublic":1,"isfriend":0,"isfamily":0},{"id":"52782367798","owner":"164923563@N06","secret":"e9883687e6","server":"65535","farm":66,"title":"Osprey - Pandion haliaetus","ispublic":1,"isfriend":0,"isfamily":0},{"id":"52780714895","owner":"52450054@N04","secret":"bb57120534","server":"65535","farm":66,"title":"088\/365 - Osprey - Pandion haliaetus, Veteran's Memorial Park, Woodbridge, Virginia, March 29, 2023","ispublic":1,"isfriend":0,"isfamily":0},{"id":"52779017657","owner":"12639178@N07","secret":"b8c3a8d496","server":"65535","farm":66,"title":"Fischadler (Pandion haliaetus) (2)","ispublic":1,"isfriend":0,"isfamily":0},{"id":"52779967185","owner":"12639178@N07","secret":"039a73d11f","server":"65535","farm":66,"title":"Schwere Fracht","ispublic":1,"isfriend":0,"isfamily":0},{"id":"52779572974","owner":"78145652@N02","secret":"e16507891e","server":"65535","farm":66,"title":"Osprey - Pandion haliaetus","ispublic":1,"isfriend":0,"isfamily":0},{"id":"52779103586","owner":"32665930@N04","secret":"529d2743fc","server":"65535","farm":66,"title":"Osprey","ispublic":1,"isfriend":0,"isfamily":0},{"id":"52779582238","owner":"32665930@N04","secret":"f0ca083b21","server":"65535","farm":66,"title":"Osprey","ispublic":1,"isfriend":0,"isfamily":0},{"id":"52779103321","owner":"32665930@N04","secret":"e60f1e100c","server":"65535","farm":66,"title":"Osprey","ispublic":1,"isfriend":0,"isfamily":0},{"id":"52778863228","owner":"66857174@N04","secret":"7176a57f55","server":"65535","farm":66,"title":"Eastern Osprey (Pandion haliaetus cristatus) perched on the breakwall - Yamba, NSW","ispublic":1,"isfriend":0,"isfamily":0},{"id":"52778586894","owner":"28764859@N08","secret":"7be21b97cf","server":"65535","farm":66,"title":"osprey in flight","ispublic":1,"isfriend":0,"isfamily":0},{"id":"52778586769","owner":"28764859@N08","secret":"fb25a4886e","server":"65535","farm":66,"title":"osprey","ispublic":1,"isfriend":0,"isfamily":0},{"id":"52777854619","owner":"156500928@N02","secret":"62a66927ff","server":"65535","farm":66,"title":"Osprey - Pandion haliaetus","ispublic":1,"isfriend":0,"isfamily":0},{"id":"52778014300","owner":"156500928@N02","secret":"947064344e","server":"65535","farm":66,"title":"Osprey - Pandion haliaetus","ispublic":1,"isfriend":0,"isfamily":0},{"id":"52776775097","owner":"50459684@N08","secret":"8baa9029e1","server":"65535","farm":66,"title":"Pandion haliaetus - \u00c1guia-pesqueira","ispublic":1,"isfriend":0,"isfamily":0},{"id":"52777153619","owner":"39177293@N03","secret":"5742ec8b88","server":"65535","farm":66,"title":"Osprey","ispublic":1,"isfriend":0,"isfamily":0},{"id":"52772838270","owner":"185402584@N02","secret":"483678cf73","server":"65535","farm":66,"title":"Balbuzard p\u00eacheur (Pandion haliaetus & Grande aigrette (Ardea alba)","ispublic":1,"isfriend":0,"isfamily":0},{"id":"52772368079","owner":"21584095@N00","secret":"0891ab7ea3","server":"65535","farm":66,"title":"Osprey (Pandion haliaetus)","ispublic":1,"isfriend":0,"isfamily":0},{"id":"52770082757","owner":"57632817@N00","secret":"f73d82def3","server":"65535","farm":66,"title":"The Snowbirds Return 2","ispublic":1,"isfriend":0,"isfamily":0},{"id":"52770082697","owner":"57632817@N00","secret":"b9f8d0732e","server":"65535","farm":66,"title":"The Snow Birds Return","ispublic":1,"isfriend":0,"isfamily":0},{"id":"52770990705","owner":"73179441@N02","secret":"e7d31becb7","server":"65535","farm":66,"title":"Green","ispublic":1,"isfriend":0,"isfamily":0},{"id":"52769696672","owner":"163667952@N05","secret":"6bd7577302","server":"65535","farm":66,"title":"Osprey","ispublic":1,"isfriend":0,"isfamily":0},{"id":"52768303627","owner":"193893638@N04","secret":"c286909e83","server":"65535","farm":66,"title":"Osprey","ispublic":1,"isfriend":0,"isfamily":0},{"id":"52768768353","owner":"7856934@N03","secret":"c1c7d5baab","server":"65535","farm":66,"title":"Osprey","ispublic":1,"isfriend":0,"isfamily":0},{"id":"52766504047","owner":"187792860@N04","secret":"ae252773e1","server":"65535","farm":66,"title":"Western Osprey (Pandion haliaetus)","ispublic":1,"isfriend":0,"isfamily":0},{"id":"52766520855","owner":"7856934@N03","secret":"9884e48f35","server":"65535","farm":66,"title":"Ospreys","ispublic":1,"isfriend":0,"isfamily":0},{"id":"52766312575","owner":"49501800@N00","secret":"f209e2a308","server":"65535","farm":66,"title":"Osprey Fishing for Trout","ispublic":1,"isfriend":0,"isfamily":0},{"id":"52764386909","owner":"84547312@N00","secret":"b5cd94346e","server":"65535","farm":66,"title":"High Flying Bird","ispublic":1,"isfriend":0,"isfamily":0},{"id":"52770082867","owner":"57632817@N00","secret":"b06f4d7565","server":"65535","farm":66,"title":"The Next Generation Begins","ispublic":1,"isfriend":0,"isfamily":0},{"id":"52764366709","owner":"12639178@N07","secret":"53d87fa452","server":"65535","farm":66,"title":"Fischadler","ispublic":1,"isfriend":0,"isfamily":0},{"id":"52764124065","owner":"79722430@N04","secret":"026ae4e926","server":"65535","farm":66,"title":"Osprey (Pandion haliaetus)","ispublic":1,"isfriend":0,"isfamily":0},{"id":"52763176997","owner":"79722430@N04","secret":"a13c17d57b","server":"65535","farm":66,"title":"Osprey (Pandion haliaetus)","ispublic":1,"isfriend":0,"isfamily":0},{"id":"52763968814","owner":"79722430@N04","secret":"2307dfe18c","server":"65535","farm":66,"title":"Osprey (Pandion haliaetus)","ispublic":1,"isfriend":0,"isfamily":0}]},"stat":"ok"}