{"photos":{"page":1,"pages":14,"perpage":100,"total":1333,"photo":[{"id":"52724091844","owner":"12639178@N07","secret":"2bf6a90975","server":"65535","farm":66,"title":"Pieperwalds\u00e4nger","ispublic":1,"isfriend":0,"isfamily":0},{"id":"52706097485","owner":"65788177@N02","secret":"1ff5e54b18","server":"65535","farm":66,"title":"Ovenbird","ispublic":1,"isfriend":0,"isfamily":0},{"id":"52668364037","owner":"12639178@N07","secret":"3669cd3184","server":"65535","farm":66,"title":"Pieperwalds\u00e4nger, meist im Unterholz unterwegs","ispublic":1,"isfriend":0,"isfamily":0},{"id":"52666890887","owner":"54249623@N08","secret":"2256c8d099","server":"65535","farm":66,"title":"Reinita Hornera, Ovenbird (Seiurus aurocapilla)","ispublic":1,"isfriend":0,"isfamily":0},{"id":"52643871554","owner":"112608353@N02","secret":"42d0f3aa2f","server":"65535","farm":66,"title":"\"Baking\" In The Sun","ispublic":1,"isfriend":0,"isfamily":0},{"id":"52639300130","owner":"196786375@N03","secret":"290bb0b4c1","server":"65535","farm":66,"title":"Ovenbird","ispublic":1,"isfriend":0,"isfamily":0},{"id":"52638865921","owner":"196786375@N03","secret":"8662027e2f","server":"65535","farm":66,"title":"Ovenbird","ispublic":1,"isfriend":0,"isfamily":0},{"id":"52616005531","owner":"195041250@N03","secret":"91566e416f","server":"65535","farm":66,"title":"Ovenbird","ispublic":1,"isfriend":0,"isfamily":0},{"id":"52528329483","owner":"28499865@N07","secret":"e5be04847f","server":"65535","farm":66,"title":"Ovenbird - Seiurus aurocapilla","ispublic":1,"isfriend":0,"isfamily":0},{"id":"52402661829","owner":"10336659@N04","secret":"f90d7ab124","server":"65535","farm":66,"title":"Ovenbird (Seiurus aurocapilla) hidding in the pine tree at Green Cay Nature Preserve.","ispublic":1,"isfriend":0,"isfamily":0},{"id":"52399942359","owner":"76288515@N07","secret":"c5e0166bbb","server":"65535","farm":66,"title":"Ovenbird Seiurus aurocapilla","ispublic":1,"isfriend":0,"isfamily":0},{"id":"52388020008","owner":"61241315@N00","secret":"502ce615b0","server":"65535","farm":66,"title":"Ovenbird_N9350","ispublic":1,"isfriend":0,"isfamily":0},{"id":"52385999032","owner":"142902404@N08","secret":"d86d7bcc6a","server":"65535","farm":66,"title":"Ovenbird","ispublic":1,"isfriend":0,"isfamily":0},{"id":"52323659854","owner":"56900328@N05","secret":"19eb73bc48","server":"65535","farm":66,"title":"Ovenbird","ispublic":1,"isfriend":0,"isfamily":0},{"id":"52320092953","owner":"34674638@N05","secret":"491718e95f","server":"65535","farm":66,"title":"Ovenbird","ispublic":1,"isfriend":0,"isfamily":0},{"id":"52298622022","owner":"71418112@N00","secret":"39dd2d8f12","server":"65535","farm":66,"title":"ovenbird","ispublic":1,"isfriend":0,"isfamily":0},{"id":"52299462024","owner":"124995824@N08","secret":"2d9ff19f2c","server":"65535","farm":66,"title":"Ovenbird - Seiurus aurocapilla","ispublic":1,"isfriend":0,"isfamily":0},{"id":"52202509956","owner":"184155060@N04","secret":"52d4a9ec97","server":"65535","farm":66,"title":"32668 Paruline couronn\u00e9e \/ Seiurus aurocapilla aurocapilla \/ Ovenbird","ispublic":1,"isfriend":0,"isfamily":0},{"id":"52199340978","owner":"65148649@N04","secret":"063be1a621","server":"65535","farm":66,"title":"Ovenbird","ispublic":1,"isfriend":0,"isfamily":0},{"id":"52191726782","owner":"168495655@N07","secret":"f8eaeb9281","server":"65535","farm":66,"title":"Paruline couronn\u00e9e - Seiurus aurocapilla - Ovenbird","ispublic":1,"isfriend":0,"isfamily":0},{"id":"52147245555","owner":"49114357@N08","secret":"4b4b80d8ea","server":"65535","farm":66,"title":"Ovenbird","ispublic":1,"isfriend":0,"isfamily":0},{"id":"52164341301","owner":"65788177@N02","secret":"cda0b48e64","server":"65535","farm":66,"title":"Ovenbird","ispublic":1,"isfriend":0,"isfamily":0},{"id":"52163128346","owner":"59770980@N02","secret":"cb594fb32b","server":"65535","farm":66,"title":"Kollskr\u00edkja-Ovenbird-Seiurus aurocapilla","ispublic":1,"isfriend":0,"isfamily":0},{"id":"52138721932","owner":"84175980@N00","secret":"fa93207127","server":"65535","farm":66,"title":"20220412 overbird (Seiurus aurocapilla) (3)","ispublic":1,"isfriend":0,"isfamily":0},{"id":"52136819632","owner":"168495655@N07","secret":"7b350c6e24","server":"65535","farm":66,"title":"Paruline couronn\u00e9e - Seiurus aurocapilla - Ovenbird","ispublic":1,"isfriend":0,"isfamily":0},{"id":"52137773960","owner":"65632611@N00","secret":"cd6c0a2e11","server":"65535","farm":66,"title":"Central Park: Ovenbird by Great Hill (5020)","ispublic":1,"isfriend":0,"isfamily":0},{"id":"52133919711","owner":"65788177@N02","secret":"6a7164c99e","server":"65535","farm":66,"title":"Ovenbird","ispublic":1,"isfriend":0,"isfamily":0},{"id":"52111208685","owner":"39138537@N06","secret":"d8f56179e4","server":"65535","farm":66,"title":"Ovenbird (Seiurus aurocapilla)","ispublic":1,"isfriend":0,"isfamily":0},{"id":"52108686133","owner":"135315828@N06","secret":"db17af03e4","server":"65535","farm":66,"title":"ovenbird","ispublic":1,"isfriend":0,"isfamily":0},{"id":"52109163980","owner":"135315828@N06","secret":"dd85eaced9","server":"65535","farm":66,"title":"ovenbird","ispublic":1,"isfriend":0,"isfamily":0},{"id":"52103580623","owner":"84175980@N00","secret":"8da264bd84","server":"65535","farm":66,"title":"20220412 overbird (Seiurus aurocapilla) (2)","ispublic":1,"isfriend":0,"isfamily":0},{"id":"52090021923","owner":"65632611@N00","secret":"9e1977f7e6","server":"65535","farm":66,"title":"Alley Pond Park: Ovenbird  (3643)","ispublic":1,"isfriend":0,"isfamily":0},{"id":"52088559588","owner":"22475926@N08","secret":"ccfbc53ae8","server":"65535","farm":66,"title":"Ovenbird (Seiurus aurocapilla)","ispublic":1,"isfriend":0,"isfamily":0},{"id":"52087407143","owner":"22475926@N08","secret":"1b7105d966","server":"65535","farm":66,"title":"Ovenbird (Seiurus aurocapilla)","ispublic":1,"isfriend":0,"isfamily":0},{"id":"52085628619","owner":"111701633@N07","secret":"4227a53fac","server":"65535","farm":66,"title":"Ovenbird","ispublic":1,"isfriend":0,"isfamily":0},{"id":"52080584559","owner":"38514062@N03","secret":"ec80a7c9cb","server":"65535","farm":66,"title":"Ovenbird (Seiurus aurocapilla)","ispublic":1,"isfriend":0,"isfamily":0},{"id":"52078939463","owner":"33573751@N04","secret":"93b9a9269d","server":"65535","farm":66,"title":"Ovenbird (Seiurus aurocapilla) (EXPLORE, May 18, 2022) - Ridgefield, Connecticut","ispublic":1,"isfriend":0,"isfamily":0},{"id":"52066135862","owner":"190949917@N03","secret":"aaa89062b5","server":"65535","farm":66,"title":"Ovenbird","ispublic":1,"isfriend":0,"isfamily":0},{"id":"52064819967","owner":"128537732@N06","secret":"191e260f19","server":"65535","farm":66,"title":"Ovenbird (Seiurus aurocapilla)","ispublic":1,"isfriend":0,"isfamily":0},{"id":"52063681729","owner":"120449047@N06","secret":"959073c175","server":"65535","farm":66,"title":"Ovenbird (13\/35)","ispublic":1,"isfriend":0,"isfamily":0},{"id":"52061655359","owner":"28065330@N05","secret":"c5bc27660c","server":"65535","farm":66,"title":"Ovenbird","ispublic":1,"isfriend":0,"isfamily":0},{"id":"52058896411","owner":"73654511@N05","secret":"dbb952373d","server":"65535","farm":66,"title":"L0A8820-Ovenbird","ispublic":1,"isfriend":0,"isfamily":0},{"id":"52056919843","owner":"135315828@N06","secret":"0cab7af054","server":"65535","farm":66,"title":"ovenbird","ispublic":1,"isfriend":0,"isfamily":0},{"id":"52023756492","owner":"67164820@N06","secret":"6e04311194","server":"65535","farm":66,"title":"ovenbird 1","ispublic":1,"isfriend":0,"isfamily":0},{"id":"52023756222","owner":"67164820@N06","secret":"3bec7810b4","server":"65535","farm":66,"title":"ovenbird 2","ispublic":1,"isfriend":0,"isfamily":0},{"id":"52025042849","owner":"67164820@N06","secret":"5d8a431a92","server":"65535","farm":66,"title":"ovenbird 4","ispublic":1,"isfriend":0,"isfamily":0},{"id":"52024828643","owner":"67164820@N06","secret":"d94f46f9e5","server":"65535","farm":66,"title":"ovenbird 5","ispublic":1,"isfriend":0,"isfamily":0},{"id":"52025309185","owner":"67164820@N06","secret":"24c4de2ce8","server":"65535","farm":66,"title":"ovenbird 6","ispublic":1,"isfriend":0,"isfamily":0},{"id":"52024634983","owner":"13604536@N02","secret":"ec9997b1ed","server":"65535","farm":66,"title":"Ovenbird","ispublic":1,"isfriend":0,"isfamily":0},{"id":"52020856519","owner":"193693005@N02","secret":"2231f4044e","server":"65535","farm":66,"title":"Ovenbird","ispublic":1,"isfriend":0,"isfamily":0},{"id":"52009702715","owner":"39138537@N06","secret":"d94b391485","server":"65535","farm":66,"title":"Ovenbird (Seiurus aurocapilla)","ispublic":1,"isfriend":0,"isfamily":0},{"id":"51912085964","owner":"12639178@N07","secret":"2073cc9cff","server":"65535","farm":66,"title":"Pieperwalds\u00e4nger","ispublic":1,"isfriend":0,"isfamily":0},{"id":"51831901660","owner":"91620959@N08","secret":"9ffc0734ef","server":"65535","farm":66,"title":"Ovenbird (Seiurus aurocapilla)","ispublic":1,"isfriend":0,"isfamily":0},{"id":"51831173781","owner":"91620959@N08","secret":"fe5b6f35fe","server":"65535","farm":66,"title":"Ovenbird (Seiurus aurocapilla)","ispublic":1,"isfriend":0,"isfamily":0},{"id":"51750618785","owner":"79153825@N08","secret":"131cccb14d","server":"65535","farm":66,"title":"Aves de Rep\u00fablica Dominicana: Ciguita Saltarina.(Seiurus aurocapilla.) Ovenbird.","ispublic":1,"isfriend":0,"isfamily":0},{"id":"51750618740","owner":"79153825@N08","secret":"ac6a74435a","server":"65535","farm":66,"title":"Aves de Rep\u00fablica Dominicana: Ciguita Saltarina.(Seiurus aurocapilla.) Ovenbird.","ispublic":1,"isfriend":0,"isfamily":0},{"id":"51750385429","owner":"79153825@N08","secret":"f6bd0b8825","server":"65535","farm":66,"title":"Aves de Rep\u00fablica Dominicana: Ciguita Saltarina.(Seiurus aurocapilla.) Ovenbird.","ispublic":1,"isfriend":0,"isfamily":0},{"id":"51749986908","owner":"79153825@N08","secret":"c04ed193e7","server":"65535","farm":66,"title":"Aves de Rep\u00fablica Dominicana: Ciguita Saltarina.(Seiurus aurocapilla.) Ovenbird.","ispublic":1,"isfriend":0,"isfamily":0},{"id":"51750385349","owner":"79153825@N08","secret":"6ff34f17e2","server":"65535","farm":66,"title":"Aves de Rep\u00fablica Dominicana: Ciguita Saltarina.(Seiurus aurocapilla.) Ovenbird.","ispublic":1,"isfriend":0,"isfamily":0},{"id":"51748910052","owner":"79153825@N08","secret":"dfa9467192","server":"65535","farm":66,"title":"Aves de Rep\u00fablica Dominicana: Ciguita Saltarina.(Seiurus aurocapilla.) Ovenbird.","ispublic":1,"isfriend":0,"isfamily":0},{"id":"52681077145","owner":"12639178@N07","secret":"638f1ec23b","server":"65535","farm":66,"title":"H\u00fcbscher Wintergast aus dem Norden","ispublic":1,"isfriend":0,"isfamily":0},{"id":"52495537074","owner":"64557331@N04","secret":"2b77cd2e83","server":"65535","farm":66,"title":"Ovenbird - (Seiurus aurocapilla)_09052022_2","ispublic":1,"isfriend":0,"isfamily":0},{"id":"52495726025","owner":"64557331@N04","secret":"f04cbcee1f","server":"65535","farm":66,"title":"Ovenbird - (Seiurus aurocapilla)_09052022","ispublic":1,"isfriend":0,"isfamily":0},{"id":"52419648178","owner":"33005514@N04","secret":"6292af191c","server":"65535","farm":66,"title":"Ciguita Saltarina \/ Ovenbird \/ Seiurus aurocapilla","ispublic":1,"isfriend":0,"isfamily":0},{"id":"52419570325","owner":"33005514@N04","secret":"9b4cb71c29","server":"65535","farm":66,"title":"Ciguita Saltarina \/ Ovenbird \/ Seiurus aurocapilla","ispublic":1,"isfriend":0,"isfamily":0},{"id":"52399655811","owner":"76288515@N07","secret":"fcee41f3f8","server":"65535","farm":66,"title":"Ovenbird Seiurus aurocapilla","ispublic":1,"isfriend":0,"isfamily":0},{"id":"52399139577","owner":"76288515@N07","secret":"be4a0699d2","server":"65535","farm":66,"title":"Ovenbird Seiurus aurocapilla","ispublic":1,"isfriend":0,"isfamily":0},{"id":"52399942694","owner":"76288515@N07","secret":"19fbfa9591","server":"65535","farm":66,"title":"Ovenbird Seiurus aurocapilla","ispublic":1,"isfriend":0,"isfamily":0},{"id":"52400084255","owner":"76288515@N07","secret":"20b49133a2","server":"65535","farm":66,"title":"Ovenbird Seiurus aurocapilla","ispublic":1,"isfriend":0,"isfamily":0},{"id":"52400149448","owner":"76288515@N07","secret":"7f37e0053b","server":"65535","farm":66,"title":"Ovenbird Seiurus aurocapilla","ispublic":1,"isfriend":0,"isfamily":0},{"id":"52399655666","owner":"76288515@N07","secret":"a79a62edf5","server":"65535","farm":66,"title":"Ovenbird Seiurus aurocapilla","ispublic":1,"isfriend":0,"isfamily":0},{"id":"52400149363","owner":"76288515@N07","secret":"44838abf2d","server":"65535","farm":66,"title":"Ovenbird Seiurus aurocapilla","ispublic":1,"isfriend":0,"isfamily":0},{"id":"52400149278","owner":"76288515@N07","secret":"c443371522","server":"65535","farm":66,"title":"Ovenbird Seiurus aurocapilla","ispublic":1,"isfriend":0,"isfamily":0},{"id":"52399942394","owner":"76288515@N07","secret":"1d1db42e47","server":"65535","farm":66,"title":"Ovenbird Seiurus aurocapilla","ispublic":1,"isfriend":0,"isfamily":0},{"id":"52399655516","owner":"76288515@N07","secret":"98f9a7d74e","server":"65535","farm":66,"title":"Ovenbird Seiurus aurocapilla","ispublic":1,"isfriend":0,"isfamily":0},{"id":"52367863435","owner":"139237357@N06","secret":"4d37d03023","server":"65535","farm":66,"title":"Ovenbird","ispublic":1,"isfriend":0,"isfamily":0},{"id":"52253886821","owner":"67306066@N03","secret":"61f962d8e5","server":"65535","farm":66,"title":"Ovenbird (Seiurus aurocapilla)","ispublic":1,"isfriend":0,"isfamily":0},{"id":"52166932207","owner":"33106392@N08","secret":"35d6fb705f","server":"65535","farm":66,"title":"Ovenbrid","ispublic":1,"isfriend":0,"isfamily":0},{"id":"52166626642","owner":"131708321@N02","secret":"3f2bd4404c","server":"65535","farm":66,"title":"Ovenbird (Seiurus aurocapilla), Sutton, Quebec, Canada","ispublic":1,"isfriend":0,"isfamily":0},{"id":"52133957357","owner":"185959967@N05","secret":"c7728a499f","server":"65535","farm":66,"title":"Ovenbird Nest - Seiurus aurocapilla","ispublic":1,"isfriend":0,"isfamily":0},{"id":"52061247238","owner":"128537732@N06","secret":"f3d4dd6f6a","server":"65535","farm":66,"title":"Ovenbird (Seiurus aurocapilla)","ispublic":1,"isfriend":0,"isfamily":0},{"id":"52049749743","owner":"36013467@N07","secret":"aa9773e367","server":"65535","farm":66,"title":"Ovenbird (Seiurus aurocapilla)","ispublic":1,"isfriend":0,"isfamily":0},{"id":"52007174335","owner":"48938938@N04","secret":"4b825fcc6e","server":"65535","farm":66,"title":"Ovenbird_Seiurus aurocapilla_Ascanio_Bermeja_Cuba_DZ3A7191","ispublic":1,"isfriend":0,"isfamily":0},{"id":"52007173925","owner":"48938938@N04","secret":"d24f21f645","server":"65535","farm":66,"title":"Ovenbird_Seiurus aurocapilla_Ascanio_Bermeja_Cuba_DZ3A7097","ispublic":1,"isfriend":0,"isfamily":0},{"id":"52005633917","owner":"48938938@N04","secret":"d24e70465a","server":"65535","farm":66,"title":"Ovenbird_Seiurus aurocapilla_Ascanio_Bermeja_Cuba_DZ3A7039","ispublic":1,"isfriend":0,"isfamily":0},{"id":"52006908504","owner":"48938938@N04","secret":"77b68d26e9","server":"65535","farm":66,"title":"Ovenbird_Seiurus aurocapilla_Ascanio_Bermeja_Cuba_DZ3A7162","ispublic":1,"isfriend":0,"isfamily":0},{"id":"52006908029","owner":"48938938@N04","secret":"5480e3694d","server":"65535","farm":66,"title":"Ovenbird_Seiurus aurocapilla_Ascanio_Bermeja_Cuba_DZ3A7134","ispublic":1,"isfriend":0,"isfamily":0},{"id":"52006657341","owner":"48938938@N04","secret":"377daa8272","server":"65535","farm":66,"title":"Ovenbird_Seiurus aurocapilla_Ascanio_Bermeja_Cuba_DZ3A7183","ispublic":1,"isfriend":0,"isfamily":0},{"id":"52006907674","owner":"48938938@N04","secret":"b6f164df06","server":"65535","farm":66,"title":"Ovenbird_Seiurus aurocapilla_Ascanio_Bermeja_Cuba_DZ3A7117","ispublic":1,"isfriend":0,"isfamily":0},{"id":"52005632687","owner":"48938938@N04","secret":"e2513ecc39","server":"65535","farm":66,"title":"Ovenbird_Seiurus aurocapilla_Ascanio_Bermeja_Cuba_DZ3A7102","ispublic":1,"isfriend":0,"isfamily":0},{"id":"51924991401","owner":"42622112@N08","secret":"111c6a0e84","server":"65535","farm":66,"title":"Cigua Saltarina \/ Seiurus aurocapilla","ispublic":1,"isfriend":0,"isfamily":0},{"id":"51925075208","owner":"42622112@N08","secret":"2b736a3ab5","server":"65535","farm":66,"title":"Ciguita Saltarina \/ Seiurus aurocapilla","ispublic":1,"isfriend":0,"isfamily":0},{"id":"51919586666","owner":"42622112@N08","secret":"6c6e5ba8ba","server":"65535","farm":66,"title":"Ciguita Saltarina \/ Seiurus aurocapilla","ispublic":1,"isfriend":0,"isfamily":0},{"id":"51911865748","owner":"12639178@N07","secret":"2c6eb2c791","server":"65535","farm":66,"title":"Pieperwalds\u00e4nger","ispublic":1,"isfriend":0,"isfamily":0},{"id":"51912384445","owner":"12639178@N07","secret":"236b8142d8","server":"65535","farm":66,"title":"Pieperwalds\u00e4nger","ispublic":1,"isfriend":0,"isfamily":0},{"id":"51879873341","owner":"188773063@N05","secret":"ffdbc3cd7c","server":"65535","farm":66,"title":"DSCN5031 (Seiurus aurocapilla)","ispublic":1,"isfriend":0,"isfamily":0},{"id":"51850711434","owner":"95484108@N07","secret":"03283f1dc5","server":"65535","farm":66,"title":"Paruline couronn\u00e9e \/\/ Ovenbird","ispublic":1,"isfriend":0,"isfamily":0},{"id":"51849236319","owner":"42622112@N08","secret":"1bd9df0ddc","server":"65535","farm":66,"title":"Ciguita Saltarina \/ Seiurus aurocapilla","ispublic":1,"isfriend":0,"isfamily":0},{"id":"51847926597","owner":"42622112@N08","secret":"d5b8ec8eff","server":"65535","farm":66,"title":"Ciguita Saltarina \/ Seiurus aurocapilla","ispublic":1,"isfriend":0,"isfamily":0},{"id":"51843577121","owner":"57465751@N05","secret":"00c6185679","server":"65535","farm":66,"title":"Ovenbird (Seiurus aurocapilla), Stock Island, Monroe Co., FL","ispublic":1,"isfriend":0,"isfamily":0}]},"stat":"ok"}