{"photos":{"page":1,"pages":2,"perpage":100,"total":122,"photo":[{"id":"52785741044","owner":"140734051@N08","secret":"2dae12b14b","server":"65535","farm":66,"title":"\u041f\u043e\u043b\u044f\u0440\u043d\u0430\u044f \u043e\u0432\u0441\u044f\u043d\u043a\u0430, Emberiza pallasi pallasi, Pallas's Reed Bunting \u2642\ufe0f","ispublic":1,"isfriend":0,"isfamily":0},{"id":"52785740989","owner":"140734051@N08","secret":"a9f0d450ce","server":"65535","farm":66,"title":"\u041f\u043e\u043b\u044f\u0440\u043d\u0430\u044f \u043e\u0432\u0441\u044f\u043d\u043a\u0430, Emberiza pallasi pallasi, Pallas's Reed Bunting \u2642\ufe0f","ispublic":1,"isfriend":0,"isfamily":0},{"id":"52785505321","owner":"140734051@N08","secret":"ce32b23453","server":"65535","farm":66,"title":"\u041f\u043e\u043b\u044f\u0440\u043d\u0430\u044f \u043e\u0432\u0441\u044f\u043d\u043a\u0430, Emberiza pallasi pallasi, Pallas's Reed Bunting \u2642\ufe0f","ispublic":1,"isfriend":0,"isfamily":0},{"id":"52785957048","owner":"140734051@N08","secret":"a64af6be31","server":"65535","farm":66,"title":"\u041f\u043e\u043b\u044f\u0440\u043d\u0430\u044f \u043e\u0432\u0441\u044f\u043d\u043a\u0430, Emberiza pallasi pallasi, Pallas's Reed Bunting \u2642\ufe0f","ispublic":1,"isfriend":0,"isfamily":0},{"id":"52785740854","owner":"140734051@N08","secret":"e4f4007a27","server":"65535","farm":66,"title":"\u041f\u043e\u043b\u044f\u0440\u043d\u0430\u044f \u043e\u0432\u0441\u044f\u043d\u043a\u0430, Emberiza pallasi pallasi, Pallas's Reed Bunting \u2642\ufe0f","ispublic":1,"isfriend":0,"isfamily":0},{"id":"52785504856","owner":"140734051@N08","secret":"855393417f","server":"65535","farm":66,"title":"\u041f\u043e\u043b\u044f\u0440\u043d\u0430\u044f \u043e\u0432\u0441\u044f\u043d\u043a\u0430, Emberiza pallasi pallasi, Pallas's Reed Bunting \u2642\ufe0f","ispublic":1,"isfriend":0,"isfamily":0},{"id":"52785900815","owner":"140734051@N08","secret":"b96f3c768b","server":"65535","farm":66,"title":"\u041f\u043e\u043b\u044f\u0440\u043d\u0430\u044f \u043e\u0432\u0441\u044f\u043d\u043a\u0430, Emberiza pallasi pallasi, Pallas's Reed Bunting \u2642\ufe0f","ispublic":1,"isfriend":0,"isfamily":0},{"id":"52785900810","owner":"140734051@N08","secret":"c3062eee17","server":"65535","farm":66,"title":"\u041f\u043e\u043b\u044f\u0440\u043d\u0430\u044f \u043e\u0432\u0441\u044f\u043d\u043a\u0430, Emberiza pallasi pallasi, Pallas's Reed Bunting \u2642\ufe0f","ispublic":1,"isfriend":0,"isfamily":0},{"id":"52785504746","owner":"140734051@N08","secret":"115ca0c7fd","server":"65535","farm":66,"title":"\u041f\u043e\u043b\u044f\u0440\u043d\u0430\u044f \u043e\u0432\u0441\u044f\u043d\u043a\u0430, Emberiza pallasi pallasi, Pallas's Reed Bunting \u2642\ufe0f","ispublic":1,"isfriend":0,"isfamily":0},{"id":"52785900705","owner":"140734051@N08","secret":"ce5425a773","server":"65535","farm":66,"title":"\u041f\u043e\u043b\u044f\u0440\u043d\u0430\u044f \u043e\u0432\u0441\u044f\u043d\u043a\u0430, Emberiza pallasi pallasi, Pallas's Reed Bunting \u2642\ufe0f","ispublic":1,"isfriend":0,"isfamily":0},{"id":"52783917304","owner":"140734051@N08","secret":"1d5bfe2a00","server":"65535","farm":66,"title":"\u041f\u043e\u043b\u044f\u0440\u043d\u0430\u044f \u043e\u0432\u0441\u044f\u043d\u043a\u0430, Emberiza pallasi pallasi, Pallas's Reed Bunting \u2640\ufe0f","ispublic":1,"isfriend":0,"isfamily":0},{"id":"52783679636","owner":"140734051@N08","secret":"453e634d26","server":"65535","farm":66,"title":"\u041f\u043e\u043b\u044f\u0440\u043d\u0430\u044f \u043e\u0432\u0441\u044f\u043d\u043a\u0430, Emberiza pallasi pallasi, Pallas's Reed Bunting \u2640\ufe0f","ispublic":1,"isfriend":0,"isfamily":0},{"id":"52784136843","owner":"140734051@N08","secret":"2bc7bb2c64","server":"65535","farm":66,"title":"\u041f\u043e\u043b\u044f\u0440\u043d\u0430\u044f \u043e\u0432\u0441\u044f\u043d\u043a\u0430, Emberiza pallasi pallasi, Pallas's Reed Bunting \u2640\ufe0f","ispublic":1,"isfriend":0,"isfamily":0},{"id":"52783679526","owner":"140734051@N08","secret":"93aaf06488","server":"65535","farm":66,"title":"\u041f\u043e\u043b\u044f\u0440\u043d\u0430\u044f \u043e\u0432\u0441\u044f\u043d\u043a\u0430, Emberiza pallasi pallasi, Pallas's Reed Bunting \u2642\ufe0f","ispublic":1,"isfriend":0,"isfamily":0},{"id":"52783679506","owner":"140734051@N08","secret":"2a358be0b8","server":"65535","farm":66,"title":"\u041f\u043e\u043b\u044f\u0440\u043d\u0430\u044f \u043e\u0432\u0441\u044f\u043d\u043a\u0430, Emberiza pallasi pallasi, Pallas's Reed Bunting \u2642\ufe0f","ispublic":1,"isfriend":0,"isfamily":0},{"id":"52784136698","owner":"140734051@N08","secret":"5c49393167","server":"65535","farm":66,"title":"\u041f\u043e\u043b\u044f\u0440\u043d\u0430\u044f \u043e\u0432\u0441\u044f\u043d\u043a\u0430, Emberiza pallasi pallasi, Pallas's Reed Bunting \u2642\ufe0f","ispublic":1,"isfriend":0,"isfamily":0},{"id":"52783916939","owner":"140734051@N08","secret":"41ebfba7eb","server":"65535","farm":66,"title":"\u041f\u043e\u043b\u044f\u0440\u043d\u0430\u044f \u043e\u0432\u0441\u044f\u043d\u043a\u0430, Emberiza pallasi pallasi, Pallas's Reed Bunting \u2642\ufe0f","ispublic":1,"isfriend":0,"isfamily":0},{"id":"52783916904","owner":"140734051@N08","secret":"088f95b347","server":"65535","farm":66,"title":"\u041f\u043e\u043b\u044f\u0440\u043d\u0430\u044f \u043e\u0432\u0441\u044f\u043d\u043a\u0430, Emberiza pallasi pallasi, Pallas's Reed Bunting \u2642\ufe0f","ispublic":1,"isfriend":0,"isfamily":0},{"id":"52784136518","owner":"140734051@N08","secret":"d0d8b50b09","server":"65535","farm":66,"title":"\u041f\u043e\u043b\u044f\u0440\u043d\u0430\u044f \u043e\u0432\u0441\u044f\u043d\u043a\u0430, Emberiza pallasi pallasi, Pallas's Reed Bunting \u2642\ufe0f","ispublic":1,"isfriend":0,"isfamily":0},{"id":"52783916929","owner":"140734051@N08","secret":"3e784c22d6","server":"65535","farm":66,"title":"\u041f\u043e\u043b\u044f\u0440\u043d\u0430\u044f \u043e\u0432\u0441\u044f\u043d\u043a\u0430, Emberiza pallasi pallasi, Pallas's Reed Bunting \u2640\ufe0f","ispublic":1,"isfriend":0,"isfamily":0},{"id":"52102032412","owner":"69445801@N04","secret":"16ce412a23","server":"65535","farm":66,"title":"Pallas's reed bunting (Emberiza pallasi)","ispublic":1,"isfriend":0,"isfamily":0},{"id":"52028799992","owner":"120738878@N03","secret":"4c280c3dde","server":"65535","farm":66,"title":"Bruant des roseaux - Rohr Ammer - Reed Bunting - Emberiza pallasi","ispublic":1,"isfriend":0,"isfamily":0},{"id":"52029848271","owner":"120738878@N03","secret":"59eafc784d","server":"65535","farm":66,"title":"Bruant des roseaux - Rohr Ammer - Reed Bunting - Emberiza pallasi","ispublic":1,"isfriend":0,"isfamily":0},{"id":"52030096239","owner":"120738878@N03","secret":"222fc831b8","server":"65535","farm":66,"title":"Bruant des roseaux - Rohr Ammer - Reed Bunting - Emberiza pallasi","ispublic":1,"isfriend":0,"isfamily":0},{"id":"51742828346","owner":"127542576@N05","secret":"1c11a4162d","server":"65535","farm":66,"title":"\u8466\u9d50 (Emberiza pallasi#Pallas's Reed Bunting)","ispublic":1,"isfriend":0,"isfamily":0},{"id":"51743065338","owner":"127542576@N05","secret":"57ac83a941","server":"65535","farm":66,"title":"\u8466\u9d50 (Emberiza pallasi#Pallas's Reed Bunting)","ispublic":1,"isfriend":0,"isfamily":0},{"id":"51742828311","owner":"127542576@N05","secret":"1eb1df5884","server":"65535","farm":66,"title":"\u8466\u9d50 (Emberiza pallasi#Pallas's Reed Bunting)","ispublic":1,"isfriend":0,"isfamily":0},{"id":"51742828296","owner":"127542576@N05","secret":"1b57d5f0fa","server":"65535","farm":66,"title":"\u8466\u9d50 (Emberiza pallasi#Pallas's Reed Bunting)","ispublic":1,"isfriend":0,"isfamily":0},{"id":"51277655809","owner":"56686021@N04","secret":"67e7d63943","server":"65535","farm":66,"title":"Mongolian Reed Bunting","ispublic":1,"isfriend":0,"isfamily":0},{"id":"51277097438","owner":"56686021@N04","secret":"977d73e53d","server":"65535","farm":66,"title":"Mongolian Reed Bunting (female)","ispublic":1,"isfriend":0,"isfamily":0},{"id":"51276930536","owner":"56686021@N04","secret":"13e0174b1b","server":"65535","farm":66,"title":"Mongolian Reed Bunting","ispublic":1,"isfriend":0,"isfamily":0},{"id":"51276930476","owner":"56686021@N04","secret":"71c0ddf56e","server":"65535","farm":66,"title":"Mongolian Reed Bunting","ispublic":1,"isfriend":0,"isfamily":0},{"id":"51112656627","owner":"142083658@N05","secret":"ecd96a934d","server":"65535","farm":66,"title":"Pallas's Reed Bunting, Emberiza pallasi, \u041f\u043e\u043b\u044f\u0440\u043d\u0430\u044f \u043e\u0432\u0441\u044f\u043d\u043a\u0430","ispublic":1,"isfriend":0,"isfamily":0},{"id":"49868136898","owner":"142083658@N05","secret":"1522ec6372","server":"65535","farm":66,"title":"Pallas's Reed Bunting, Emberiza pallasi, \u041f\u043e\u043b\u044f\u0440\u043d\u0430\u044f \u043e\u0432\u0441\u044f\u043d\u043a\u0430","ispublic":1,"isfriend":0,"isfamily":0},{"id":"49146141998","owner":"127542576@N05","secret":"28632b8751","server":"65535","farm":66,"title":"\u8466\u9d50 (Emberiza pallasi#Pallas's Reed Bunting)","ispublic":1,"isfriend":0,"isfamily":0},{"id":"49146141928","owner":"127542576@N05","secret":"f2b8c0c51c","server":"65535","farm":66,"title":"\u8466\u9d50 (Emberiza pallasi#Pallas's Reed Bunting)","ispublic":1,"isfriend":0,"isfamily":0},{"id":"49146839017","owner":"127542576@N05","secret":"44ece4ac84","server":"65535","farm":66,"title":"\u8466\u9d50 (Emberiza pallasi#Pallas's Reed Bunting)","ispublic":1,"isfriend":0,"isfamily":0},{"id":"49146838947","owner":"127542576@N05","secret":"e2d2c9c86e","server":"65535","farm":66,"title":"\u8466\u9d50 (Emberiza pallasi#Pallas's Reed Bunting)","ispublic":1,"isfriend":0,"isfamily":0},{"id":"49146141723","owner":"127542576@N05","secret":"0e9da71be0","server":"65535","farm":66,"title":"\u8466\u9d50 (Emberiza pallasi#Pallas's Reed Bunting)","ispublic":1,"isfriend":0,"isfamily":0},{"id":"49044080576","owner":"167581694@N04","secret":"a450ebf681","server":"65535","farm":66,"title":"Pallas's Reed Bunting \uff08Emberiza pallasi\uff09","ispublic":1,"isfriend":0,"isfamily":0},{"id":"47929577786","owner":"69947563@N07","secret":"194322a149","server":"65535","farm":66,"title":"Pallas's Bunting - Jiangsu Province, China","ispublic":1,"isfriend":0,"isfamily":0},{"id":"32859125947","owner":"142083658@N05","secret":"17af5135f1","server":"65535","farm":66,"title":"Pallas's Reed Bunting, Emberiza pallasi, \u041f\u043e\u043b\u044f\u0440\u043d\u0430\u044f \u043e\u0432\u0441\u044f\u043d\u043a\u0430","ispublic":1,"isfriend":0,"isfamily":0},{"id":"40836239553","owner":"142083658@N05","secret":"5551e655cf","server":"65535","farm":66,"title":"Pallas's Reed Bunting, Emberiza pallasi, \u041f\u043e\u043b\u044f\u0440\u043d\u0430\u044f \u043e\u0432\u0441\u044f\u043d\u043a\u0430","ispublic":1,"isfriend":0,"isfamily":0},{"id":"47420345652","owner":"21606110@N08","secret":"e0fe6b9d7f","server":"7838","farm":8,"title":"Pallas's Reed Bunting","ispublic":1,"isfriend":0,"isfamily":0},{"id":"47473316251","owner":"21606110@N08","secret":"7ded56e81a","server":"7837","farm":8,"title":"Pallas's Reed Bunting","ispublic":1,"isfriend":0,"isfamily":0},{"id":"32496578048","owner":"75814310@N04","secret":"ccdbb028ac","server":"4869","farm":5,"title":"1O4A4285","ispublic":1,"isfriend":0,"isfamily":0},{"id":"35759401702","owner":"124200561@N04","secret":"9fc94d8f48","server":"4330","farm":5,"title":"Pallas's Reed Bunting (Emberiza pallasi) \u0426\u0430\u0433\u0430\u0430\u043d-\u0445\u044d\u0432\u044d\u043b\u0442 \u0445\u04e9\u043c\u0440\u04e9\u0433","ispublic":1,"isfriend":0,"isfamily":0},{"id":"30851940732","owner":"40195635@N03","secret":"0b73dba0d5","server":"65535","farm":66,"title":"Pallas's Bunting (Emberiza pallasi)","ispublic":1,"isfriend":0,"isfamily":0},{"id":"28834028946","owner":"65560444@N07","secret":"ecdfc2061c","server":"8892","farm":9,"title":"\"Pallas's Reed Bunting\" \"Emberiza pallasi\"","ispublic":1,"isfriend":0,"isfamily":0},{"id":"28760877406","owner":"33816646@N06","secret":"e880457fef","server":"8669","farm":9,"title":"Pallas's (Reed) Bunting (Emberiza pallasi), Xilinhot, Inner Mongolia, CN, 2016-07-30-118.jpg","ispublic":1,"isfriend":0,"isfamily":0},{"id":"27508436983","owner":"92211588@N08","secret":"89f4deded7","server":"7300","farm":8,"title":"Pallas Reed Bunting (Emberiza pallasi)","ispublic":1,"isfriend":0,"isfamily":0},{"id":"28045666591","owner":"92211588@N08","secret":"c6728d2a99","server":"7424","farm":8,"title":"Pallas Reed Bunting (Emberiza pallasi)","ispublic":1,"isfriend":0,"isfamily":0},{"id":"28089533936","owner":"92211588@N08","secret":"cdff89af0d","server":"7387","farm":8,"title":"Pallas Redd Bunting (Emberiza pallasi)","ispublic":1,"isfriend":0,"isfamily":0},{"id":"23508378809","owner":"40195635@N03","secret":"067bebfc00","server":"65535","farm":66,"title":"Pallas's Bunting (Emberiza pallasi)","ispublic":1,"isfriend":0,"isfamily":0},{"id":"21745926253","owner":"23836012@N02","secret":"77090d0164","server":"5626","farm":6,"title":"Pallas's Bunting (Emberiza pallasi)","ispublic":1,"isfriend":0,"isfamily":0},{"id":"20470986682","owner":"65560444@N07","secret":"87f84a7bba","server":"3827","farm":4,"title":"\"Pallas's Reed Bunting\" \"Emberiza pallasi\"","ispublic":1,"isfriend":0,"isfamily":0},{"id":"15136126213","owner":"36542741@N03","secret":"47b23107b2","server":"7563","farm":8,"title":"\u8466\u9d50  Pallas's Reed Bunting (Male)","ispublic":1,"isfriend":0,"isfamily":0},{"id":"14270211243","owner":"76358583@N04","secret":"a3ba122767","server":"5517","farm":6,"title":"\u0426\u0430\u0433\u0430\u0430\u043d \u0445\u044d\u0432\u044d\u043b\u0442 \u0445\u04e9\u043c\u0440\u04e9\u0433, (Emberiza pallasi) Pallas's Bunting","ispublic":1,"isfriend":0,"isfamily":0},{"id":"14250028905","owner":"76358583@N04","secret":"53fbc1d59d","server":"2916","farm":3,"title":"\u0426\u0430\u0433\u0430\u0430\u043d \u0445\u044d\u0432\u044d\u043b\u0442 \u0445\u04e9\u043c\u0440\u04e9\u0433, (Emberiza pallasi) Pallas's Bunting","ispublic":1,"isfriend":0,"isfamily":0},{"id":"52422310427","owner":"193032256@N07","secret":"a8ebd7cec4","server":"65535","farm":66,"title":"20211215 \u82c7\u9e40 Emberiza pallasi","ispublic":1,"isfriend":0,"isfamily":0},{"id":"51715780515","owner":"13861029@N00","secret":"522fdca137","server":"65535","farm":66,"title":"Pallas's Reed Bunting","ispublic":1,"isfriend":0,"isfamily":0},{"id":"49421437597","owner":"186211059@N06","secret":"45fbab6030","server":"65535","farm":66,"title":"Pallas's Reed Bunting","ispublic":1,"isfriend":0,"isfamily":0},{"id":"49421201856","owner":"186211059@N06","secret":"d562dc148a","server":"65535","farm":66,"title":"Pallas's Reed Bunting","ispublic":1,"isfriend":0,"isfamily":0},{"id":"49421418867","owner":"186211059@N06","secret":"29efce6056","server":"65535","farm":66,"title":"Pallas's Reed Bunting","ispublic":1,"isfriend":0,"isfamily":0},{"id":"49421190836","owner":"186211059@N06","secret":"f5227fc45e","server":"65535","farm":66,"title":"Pallas's Reed Bunting","ispublic":1,"isfriend":0,"isfamily":0},{"id":"49420721098","owner":"186211059@N06","secret":"57465427f7","server":"65535","farm":66,"title":"Pallas's Reed Bunting","ispublic":1,"isfriend":0,"isfamily":0},{"id":"49420713903","owner":"186211059@N06","secret":"ffa17d3762","server":"65535","farm":66,"title":"Pallas's Reed Bunting","ispublic":1,"isfriend":0,"isfamily":0},{"id":"49421223967","owner":"186211059@N06","secret":"71f4882f0e","server":"65535","farm":66,"title":"Pallas's Reed Bunting","ispublic":1,"isfriend":0,"isfamily":0},{"id":"49398271218","owner":"186211059@N06","secret":"66d5ffaa6b","server":"65535","farm":66,"title":"Pallas's Reed Bunting","ispublic":1,"isfriend":0,"isfamily":0},{"id":"48057849282","owner":"94706024@N07","secret":"4483c89336","server":"65535","farm":66,"title":"Pallas's Reed Bunting","ispublic":1,"isfriend":0,"isfamily":0},{"id":"47802386641","owner":"142083658@N05","secret":"0d30036f4f","server":"65535","farm":66,"title":"Pallas's Reed Bunting, Emberiza pallasi, \u041f\u043e\u043b\u044f\u0440\u043d\u0430\u044f \u043e\u0432\u0441\u044f\u043d\u043a\u0430","ispublic":1,"isfriend":0,"isfamily":0},{"id":"40836240693","owner":"142083658@N05","secret":"034208532b","server":"65535","farm":66,"title":"Pallas's Reed Bunting, Emberiza pallasi, \u041f\u043e\u043b\u044f\u0440\u043d\u0430\u044f \u043e\u0432\u0441\u044f\u043d\u043a\u0430","ispublic":1,"isfriend":0,"isfamily":0},{"id":"47473313891","owner":"21606110@N08","secret":"9f3c2f4589","server":"7926","farm":8,"title":"Pallas's Reed Bunting","ispublic":1,"isfriend":0,"isfamily":0},{"id":"32027007607","owner":"21606110@N08","secret":"6442cd4c53","server":"7873","farm":8,"title":"Pallas's Reed Bunting","ispublic":1,"isfriend":0,"isfamily":0},{"id":"46054124875","owner":"21606110@N08","secret":"57f23d63f2","server":"7813","farm":8,"title":"Pallas's Reed Bunting","ispublic":1,"isfriend":0,"isfamily":0},{"id":"32903799438","owner":"14513067@N00","secret":"f722d62e7a","server":"4855","farm":5,"title":"Pallas's Reed Bunting","ispublic":1,"isfriend":0,"isfamily":0},{"id":"45864516725","owner":"14513067@N00","secret":"b69da53d97","server":"4826","farm":5,"title":"Pallas's Reed Bunting","ispublic":1,"isfriend":0,"isfamily":0},{"id":"46054508884","owner":"14513067@N00","secret":"b3e951866e","server":"4872","farm":5,"title":"Pallas's Reed Bunting","ispublic":1,"isfriend":0,"isfamily":0},{"id":"44090632730","owner":"32156534@N02","secret":"dce75958be","server":"4857","farm":5,"title":"\u8466\u9d50 Emberiza pallasi\/Pallas's Bunting","ispublic":1,"isfriend":0,"isfamily":0},{"id":"29285185767","owner":"21686857@N06","secret":"9cfaec73c1","server":"1842","farm":2,"title":"Bruant de Pallas (Emberiza pallasi)","ispublic":1,"isfriend":0,"isfamily":0},{"id":"35672707723","owner":"149879983@N07","secret":"2b9aa3da7b","server":"4363","farm":5,"title":"Pallas's Bunting","ispublic":1,"isfriend":0,"isfamily":0},{"id":"35645774771","owner":"156320246@N05","secret":"05395a7483","server":"4082","farm":5,"title":"Emberiza_pallasi \u82c7\u9e40 Pallas's reed bunting, Pallas's bunting","ispublic":1,"isfriend":0,"isfamily":0},{"id":"34557971320","owner":"149879983@N07","secret":"7da5848805","server":"4220","farm":5,"title":"Pallas's Bunting","ispublic":1,"isfriend":0,"isfamily":0},{"id":"30612396586","owner":"79985280@N06","secret":"a533560aa4","server":"5740","farm":6,"title":"Dv\u00e4rgs\u00e4vsparv, Pallas's Reed Bunting, emberiza pallasi","ispublic":1,"isfriend":0,"isfamily":0},{"id":"30016960004","owner":"79985280@N06","secret":"c6c7ef7c3b","server":"5677","farm":6,"title":"Dv\u00e4rgs\u00e4vsparv, Pallas's Reed Bunting, emberiza pallasi","ispublic":1,"isfriend":0,"isfamily":0},{"id":"28045663851","owner":"92211588@N08","secret":"f5a6921e3e","server":"7304","farm":8,"title":"Pallas Reed Bunting (Emberiza pallasi)","ispublic":1,"isfriend":0,"isfamily":0},{"id":"26913994000","owner":"40195635@N03","secret":"2d38d41e87","server":"7297","farm":8,"title":"Pallas's Bunting (Emberiza pallasi)","ispublic":1,"isfriend":0,"isfamily":0},{"id":"22179003650","owner":"23836012@N02","secret":"845c9f83a4","server":"5653","farm":6,"title":"Pallas's Bunting (Emberiza pallasi)","ispublic":1,"isfriend":0,"isfamily":0},{"id":"22341007146","owner":"23836012@N02","secret":"fec830fc1d","server":"663","farm":1,"title":"Pallas's Bunting (Emberiza pallasi)","ispublic":1,"isfriend":0,"isfamily":0},{"id":"21745926263","owner":"23836012@N02","secret":"ccb9c0a7a6","server":"5669","farm":6,"title":"Pallas's Bunting (Emberiza pallasi)","ispublic":1,"isfriend":0,"isfamily":0},{"id":"17057541939","owner":"91544025@N05","secret":"879a5bca66","server":"7668","farm":8,"title":"Emberiza pallasi","ispublic":1,"isfriend":0,"isfamily":0},{"id":"10725050653","owner":"91691474@N05","secret":"95844b8031","server":"3709","farm":4,"title":"Common Reed Bunting (Emberiza schoeniclus) or  Pallas's reed bunting (Emberiza pallasi)","ispublic":1,"isfriend":0,"isfamily":0},{"id":"10725049433","owner":"91691474@N05","secret":"c28d95c82c","server":"3706","farm":4,"title":"Common Reed Bunting (Emberiza schoeniclus) or  Pallas's reed bunting (Emberiza pallasi)","ispublic":1,"isfriend":0,"isfamily":0},{"id":"10725049293","owner":"91691474@N05","secret":"586aeeb77c","server":"3755","farm":4,"title":"Common Reed Bunting (Emberiza schoeniclus) or  Pallas's reed bunting (Emberiza pallasi)","ispublic":1,"isfriend":0,"isfamily":0},{"id":"10724849796","owner":"91691474@N05","secret":"a37dd863f1","server":"3742","farm":4,"title":"Common Reed Bunting (Emberiza schoeniclus) or  Pallas's reed bunting (Emberiza pallasi)","ispublic":1,"isfriend":0,"isfamily":0},{"id":"10724843604","owner":"91691474@N05","secret":"a804584d9e","server":"7363","farm":8,"title":"Common Reed Bunting (Emberiza schoeniclus) or  Pallas's reed bunting (Emberiza pallasi)","ispublic":1,"isfriend":0,"isfamily":0},{"id":"10724753555","owner":"91691474@N05","secret":"0f0f62e5fc","server":"7330","farm":8,"title":"Common Reed Bunting (Emberiza schoeniclus) or  Pallas's reed bunting (Emberiza pallasi)","ispublic":1,"isfriend":0,"isfamily":0},{"id":"10724848996","owner":"91691474@N05","secret":"907c4f043f","server":"2839","farm":3,"title":"Common Reed Bunting (Emberiza schoeniclus) or  Pallas's reed bunting (Emberiza pallasi)","ispublic":1,"isfriend":0,"isfamily":0},{"id":"10724842724","owner":"91691474@N05","secret":"cecbfbdb63","server":"7303","farm":8,"title":"Common Reed Bunting (Emberiza schoeniclus)  Pallas's reed bunting (Emberiza pallasi)","ispublic":1,"isfriend":0,"isfamily":0},{"id":"10723651965","owner":"91691474@N05","secret":"0b7220bccb","server":"5506","farm":6,"title":"Pallas's Reed Bunting (Emberiza pallasi)","ispublic":1,"isfriend":0,"isfamily":0}]},"stat":"ok"}