{"photos":{"page":1,"pages":2,"perpage":100,"total":118,"photo":[{"id":"51070125022","owner":"124200561@N04","secret":"8738140917","server":"65535","farm":66,"title":"Pallas's Rosefinch | Carpodacus roseus","ispublic":1,"isfriend":0,"isfamily":0},{"id":"50993427482","owner":"153529379@N03","secret":"6e8bed4451","server":"65535","farm":66,"title":"Pallas's rosefinch \u2640","ispublic":1,"isfriend":0,"isfamily":0},{"id":"50949297368","owner":"91421350@N02","secret":"9c968e1641","server":"65535","farm":66,"title":"a female Pallas's Rosefinch - Carpodacus roseus","ispublic":1,"isfriend":0,"isfamily":0},{"id":"50696254753","owner":"142083658@N05","secret":"6f3af50517","server":"65535","farm":66,"title":"Pallas's Rosefinch, Carpodacus roseus, \u0421\u0438\u0431\u0438\u0440\u0441\u043a\u0430\u044f \u0447\u0435\u0447\u0435\u0432\u0438\u0446\u0430 (female)","ispublic":1,"isfriend":0,"isfamily":0},{"id":"50696254343","owner":"142083658@N05","secret":"26cd2c91d0","server":"65535","farm":66,"title":"Pallas's Rosefinch, Carpodacus roseus, \u0421\u0438\u0431\u0438\u0440\u0441\u043a\u0430\u044f \u0447\u0435\u0447\u0435\u0432\u0438\u0446\u0430 (male)","ispublic":1,"isfriend":0,"isfamily":0},{"id":"50680433683","owner":"142083658@N05","secret":"b05fc0722b","server":"65535","farm":66,"title":"Pallas's Rosefinch, Carpodacus roseus, \u0421\u0438\u0431\u0438\u0440\u0441\u043a\u0430\u044f \u0447\u0435\u0447\u0435\u0432\u0438\u0446\u0430","ispublic":1,"isfriend":0,"isfamily":0},{"id":"50674951862","owner":"142083658@N05","secret":"68a0df1217","server":"65535","farm":66,"title":"Pallas's Rosefinch, Carpodacus roseus, \u0421\u0438\u0431\u0438\u0440\u0441\u043a\u0430\u044f \u0447\u0435\u0447\u0435\u0432\u0438\u0446\u0430","ispublic":1,"isfriend":0,"isfamily":0},{"id":"50674120643","owner":"142083658@N05","secret":"61b1fa42ed","server":"65535","farm":66,"title":"Pallas's Rosefinch, Carpodacus roseus, \u0421\u0438\u0431\u0438\u0440\u0441\u043a\u0430\u044f \u0447\u0435\u0447\u0435\u0432\u0438\u0446\u0430 (female)","ispublic":1,"isfriend":0,"isfamily":0},{"id":"50647563762","owner":"9851294@N07","secret":"4f0bcc8a4a","server":"65535","farm":66,"title":"Pallas's Rosefinch","ispublic":1,"isfriend":0,"isfamily":0},{"id":"50241148298","owner":"61021753@N02","secret":"35f0a1a14e","server":"65535","farm":66,"title":"n126_w1150","ispublic":1,"isfriend":0,"isfamily":0},{"id":"49639494957","owner":"153529379@N03","secret":"53c537fd88","server":"65535","farm":66,"title":"Rozen","ispublic":1,"isfriend":0,"isfamily":0},{"id":"49639217291","owner":"153529379@N03","secret":"90997eb6fb","server":"65535","farm":66,"title":"Rozen","ispublic":1,"isfriend":0,"isfamily":0},{"id":"49638692813","owner":"153529379@N03","secret":"579dfaa5f0","server":"65535","farm":66,"title":"Rozen","ispublic":1,"isfriend":0,"isfamily":0},{"id":"49533863141","owner":"9851294@N07","secret":"c6578eca83","server":"65535","farm":66,"title":"Pallas's Rosefinch - female","ispublic":1,"isfriend":0,"isfamily":0},{"id":"49534088687","owner":"9851294@N07","secret":"6745f8282c","server":"65535","farm":66,"title":"Pallas's Rosefinch - male","ispublic":1,"isfriend":0,"isfamily":0},{"id":"49500952093","owner":"50480446@N03","secret":"d298ea73d5","server":"65535","farm":66,"title":"Long-tailed rosefinch (Carpodacus roseus, \u30d9\u30cb\u30de\u30b7\u30b3)","ispublic":1,"isfriend":0,"isfamily":0},{"id":"49417176632","owner":"186211059@N06","secret":"d62810e9e5","server":"65535","farm":66,"title":"Pallas's Rosefinch","ispublic":1,"isfriend":0,"isfamily":0},{"id":"49393658622","owner":"186211059@N06","secret":"2651ab97ff","server":"65535","farm":66,"title":"Pallas's Rosefinch","ispublic":1,"isfriend":0,"isfamily":0},{"id":"43824428374","owner":"142083658@N05","secret":"2cba94d7f6","server":"1874","farm":2,"title":"Pallas's Rosefinch, Carpodacus roseus, \u0421\u0438\u0431\u0438\u0440\u0441\u043a\u0430\u044f \u0447\u0435\u0447\u0435\u0432\u0438\u0446\u0430","ispublic":1,"isfriend":0,"isfamily":0},{"id":"44505313011","owner":"142083658@N05","secret":"a35173ec7a","server":"1843","farm":2,"title":"Pallas's Rosefinch, Carpodacus roseus, \u0421\u0438\u0431\u0438\u0440\u0441\u043a\u0430\u044f \u0447\u0435\u0447\u0435\u0432\u0438\u0446\u0430","ispublic":1,"isfriend":0,"isfamily":0},{"id":"29567877987","owner":"142083658@N05","secret":"9893cede53","server":"1867","farm":2,"title":"Pallas's Rosefinch, Carpodacus roseus, \u0421\u0438\u0431\u0438\u0440\u0441\u043a\u0430\u044f \u0447\u0435\u0447\u0435\u0432\u0438\u0446\u0430","ispublic":1,"isfriend":0,"isfamily":0},{"id":"43595866275","owner":"142083658@N05","secret":"ee1ff20336","server":"1842","farm":2,"title":"Pallas's Rosefinch, Carpodacus roseus, \u0421\u0438\u0431\u0438\u0440\u0441\u043a\u0430\u044f \u0447\u0435\u0447\u0435\u0432\u0438\u0446\u0430","ispublic":1,"isfriend":0,"isfamily":0},{"id":"43787401854","owner":"142083658@N05","secret":"96f503187b","server":"1853","farm":2,"title":"Pallas's Rosefinch, Carpodacus roseus, \u0421\u0438\u0431\u0438\u0440\u0441\u043a\u0430\u044f \u0447\u0435\u0447\u0435\u0432\u0438\u0446\u0430","ispublic":1,"isfriend":0,"isfamily":0},{"id":"24801408257","owner":"98682992@N00","secret":"4614d3218e","server":"4623","farm":5,"title":"9S3A1209","ispublic":1,"isfriend":0,"isfamily":0},{"id":"39639272862","owner":"98682992@N00","secret":"174b664d1f","server":"4749","farm":5,"title":"9S3A8267","ispublic":1,"isfriend":0,"isfamily":0},{"id":"39403551071","owner":"9851294@N07","secret":"b60bcda4d3","server":"4638","farm":5,"title":"Pallas's Rosefinch","ispublic":1,"isfriend":0,"isfamily":0},{"id":"39403550771","owner":"9851294@N07","secret":"591faff992","server":"4635","farm":5,"title":"Pallas's Pickings","ispublic":1,"isfriend":0,"isfamily":0},{"id":"31469860860","owner":"130113460@N03","secret":"42998437e9","server":"469","farm":1,"title":"Pallas's rosefinch Carpodacus roseus","ispublic":1,"isfriend":0,"isfamily":0},{"id":"30877560925","owner":"91544025@N05","secret":"d0ced4811e","server":"5449","farm":6,"title":"Carpodacus roseus","ispublic":1,"isfriend":0,"isfamily":0},{"id":"30877560785","owner":"91544025@N05","secret":"fd692f9dcb","server":"5507","farm":6,"title":"Carpodacus roseus","ispublic":1,"isfriend":0,"isfamily":0},{"id":"24422267512","owner":"65560444@N07","secret":"6269df54cb","server":"1601","farm":2,"title":"\"Pallas's Rosefinch\" \"Carpodacus roseus\"","ispublic":1,"isfriend":0,"isfamily":0},{"id":"21999895038","owner":"65560444@N07","secret":"37ac9c804b","server":"737","farm":1,"title":"\"Pallas's Rosefinch\" \"Carpodacus roseus\"","ispublic":1,"isfriend":0,"isfamily":0},{"id":"21260975864","owner":"71582613@N00","secret":"8e006a7702","server":"773","farm":1,"title":"","ispublic":1,"isfriend":0,"isfamily":0},{"id":"21323967675","owner":"61021753@N02","secret":"c92f5c43ed","server":"744","farm":1,"title":"n594_w1150","ispublic":1,"isfriend":0,"isfamily":0},{"id":"16397912561","owner":"128916054@N05","secret":"2ecaaca7a0","server":"7344","farm":8,"title":"\u30aa\u30aa\u30de\u30b7\u30b3[Carpodacus roseus]","ispublic":1,"isfriend":0,"isfamily":0},{"id":"13574825925","owner":"76115718@N04","secret":"73c931c982","server":"3742","farm":4,"title":"\u5317\u6731\u96c01","ispublic":1,"isfriend":0,"isfamily":0},{"id":"11994922534","owner":"9851294@N07","secret":"5c73cb0537","server":"7374","farm":8,"title":"Pallas's Rosefinch","ispublic":1,"isfriend":0,"isfamily":0},{"id":"11994921734","owner":"9851294@N07","secret":"df26df5976","server":"5547","farm":6,"title":"Pallas's Rosefinch","ispublic":1,"isfriend":0,"isfamily":0},{"id":"11994561665","owner":"9851294@N07","secret":"31461e3cbf","server":"2883","farm":3,"title":"Pallas's Rosefinch","ispublic":1,"isfriend":0,"isfamily":0},{"id":"11727491303","owner":"9851294@N07","secret":"0a82bf2746","server":"3710","farm":4,"title":"Pallas's Rosefinch (female)","ispublic":1,"isfriend":0,"isfamily":0},{"id":"10564397085","owner":"40195635@N03","secret":"d332b2d065","server":"65535","farm":66,"title":"Pallas's Rosefinch (Carpodacus roseus)","ispublic":1,"isfriend":0,"isfamily":0},{"id":"8690100117","owner":"50169565@N06","secret":"3958c30b98","server":"7043","farm":8,"title":"2013.3.2  \u5317\u6731\u96c0 \uff08Pallas's Rosefinch\uff09Carpodacus roseus","ispublic":1,"isfriend":0,"isfamily":0},{"id":"7472790980","owner":"56686021@N04","secret":"67a5a43f75","server":"8021","farm":9,"title":"Pallas's Rosefinch","ispublic":1,"isfriend":0,"isfamily":0},{"id":"7472790806","owner":"56686021@N04","secret":"0319a524c1","server":"8018","farm":9,"title":"Pallas's Rosefinch","ispublic":1,"isfriend":0,"isfamily":0},{"id":"51049057313","owner":"61021753@N02","secret":"bc7e9f35bb","server":"65535","farm":66,"title":"n320_w1150","ispublic":1,"isfriend":0,"isfamily":0},{"id":"49500952083","owner":"50480446@N03","secret":"d2f85071e6","server":"65535","farm":66,"title":"Long-tailed rosefinch (Carpodacus roseus, \u30d9\u30cb\u30de\u30b7\u30b3)","ispublic":1,"isfriend":0,"isfamily":0},{"id":"49416503258","owner":"186211059@N06","secret":"c46921c3d1","server":"65535","farm":66,"title":"Pallas's Rosefinch","ispublic":1,"isfriend":0,"isfamily":0},{"id":"49416973576","owner":"186211059@N06","secret":"0b4fb62da7","server":"65535","farm":66,"title":"Pallas's Rosefinch","ispublic":1,"isfriend":0,"isfamily":0},{"id":"49416077078","owner":"186211059@N06","secret":"8936a07eeb","server":"65535","farm":66,"title":"Pallas's Rosefinch","ispublic":1,"isfriend":0,"isfamily":0},{"id":"49416071968","owner":"186211059@N06","secret":"1dba71f6fc","server":"65535","farm":66,"title":"Pallas's Rosefinch","ispublic":1,"isfriend":0,"isfamily":0},{"id":"49416542261","owner":"186211059@N06","secret":"8a12a687d0","server":"65535","farm":66,"title":"Pallas's Rosefinch","ispublic":1,"isfriend":0,"isfamily":0},{"id":"49211694088","owner":"12639178@N07","secret":"0bd5af29b2","server":"65535","farm":66,"title":"Rosengimpel Paar","ispublic":1,"isfriend":0,"isfamily":0},{"id":"49211693878","owner":"12639178@N07","secret":"993152a51a","server":"65535","farm":66,"title":"Rosengimpel Junges M\u00e4nnchen 2","ispublic":1,"isfriend":0,"isfamily":0},{"id":"49211693673","owner":"12639178@N07","secret":"2fd2abf600","server":"65535","farm":66,"title":"Rosengimpel Junges M\u00e4nnchen","ispublic":1,"isfriend":0,"isfamily":0},{"id":"49211688658","owner":"12639178@N07","secret":"94651f3369","server":"65535","farm":66,"title":"Rosengimpel w.","ispublic":1,"isfriend":0,"isfamily":0},{"id":"49212396877","owner":"12639178@N07","secret":"483529667b","server":"65535","farm":66,"title":"Herr Rosengimpel","ispublic":1,"isfriend":0,"isfamily":0},{"id":"49212170771","owner":"12639178@N07","secret":"ea12066df2","server":"65535","farm":66,"title":"Rosengimpel","ispublic":1,"isfriend":0,"isfamily":0},{"id":"49212170606","owner":"12639178@N07","secret":"0c805dd27d","server":"65535","farm":66,"title":"Rosengimpel-M\u00e4nnchen","ispublic":1,"isfriend":0,"isfamily":0},{"id":"49212396397","owner":"12639178@N07","secret":"b72a9d2b45","server":"65535","farm":66,"title":"Rosengimpel m\u00e4nnlich","ispublic":1,"isfriend":0,"isfamily":0},{"id":"49209138923","owner":"98682992@N00","secret":"04de7b62a9","server":"65535","farm":66,"title":"9S3A7951-2","ispublic":1,"isfriend":0,"isfamily":0},{"id":"43824561644","owner":"142083658@N05","secret":"57a6b3fe46","server":"1863","farm":2,"title":"Pallas's Rosefinch, Carpodacus roseus, \u0421\u0438\u0431\u0438\u0440\u0441\u043a\u0430\u044f \u0447\u0435\u0447\u0435\u0432\u0438\u0446\u0430","ispublic":1,"isfriend":0,"isfamily":0},{"id":"44492968212","owner":"142083658@N05","secret":"2f91aae065","server":"1844","farm":2,"title":"Pallas's Rosefinch, Carpodacus roseus, \u0421\u0438\u0431\u0438\u0440\u0441\u043a\u0430\u044f \u0447\u0435\u0447\u0435\u0432\u0438\u0446\u0430","ispublic":1,"isfriend":0,"isfamily":0},{"id":"30672457468","owner":"142083658@N05","secret":"45119778f5","server":"1889","farm":2,"title":"Pallas's Rosefinch, Carpodacus roseus, \u0421\u0438\u0431\u0438\u0440\u0441\u043a\u0430\u044f \u0447\u0435\u0447\u0435\u0432\u0438\u0446\u0430","ispublic":1,"isfriend":0,"isfamily":0},{"id":"43824426674","owner":"142083658@N05","secret":"b4e24c88a2","server":"1879","farm":2,"title":"Pallas's Rosefinch, Carpodacus roseus, \u0421\u0438\u0431\u0438\u0440\u0441\u043a\u0430\u044f \u0447\u0435\u0447\u0435\u0432\u0438\u0446\u0430","ispublic":1,"isfriend":0,"isfamily":0},{"id":"30576325660","owner":"91544025@N05","secret":"68d5cb1003","server":"5596","farm":6,"title":"Carpodacus roseus","ispublic":1,"isfriend":0,"isfamily":0},{"id":"30877559925","owner":"91544025@N05","secret":"edbc284319","server":"5617","farm":6,"title":"Carpodacus roseus","ispublic":1,"isfriend":0,"isfamily":0},{"id":"30877559335","owner":"91544025@N05","secret":"ec1468ac96","server":"5797","farm":6,"title":"Carpodacus roseus","ispublic":1,"isfriend":0,"isfamily":0},{"id":"30241989913","owner":"91544025@N05","secret":"8a0aff824e","server":"5512","farm":6,"title":"Carpodacus roseus","ispublic":1,"isfriend":0,"isfamily":0},{"id":"30241989663","owner":"91544025@N05","secret":"d0b72a0bfe","server":"5621","farm":6,"title":"Carpodacus roseus","ispublic":1,"isfriend":0,"isfamily":0},{"id":"30576324170","owner":"91544025@N05","secret":"970711e990","server":"5775","farm":6,"title":"Carpodacus roseus","ispublic":1,"isfriend":0,"isfamily":0},{"id":"30788986281","owner":"91544025@N05","secret":"60cb002832","server":"5770","farm":6,"title":"Carpodacus roseus","ispublic":1,"isfriend":0,"isfamily":0},{"id":"30877560725","owner":"91544025@N05","secret":"c30618e6dc","server":"5619","farm":6,"title":"Carpodacus roseus","ispublic":1,"isfriend":0,"isfamily":0},{"id":"25956783396","owner":"124535480@N07","secret":"beee36cd31","server":"1611","farm":2,"title":"Rosefinch \uff08Carpodacus roseus\uff09 4586","ispublic":1,"isfriend":0,"isfamily":0},{"id":"21871736152","owner":"71582613@N00","secret":"d6a3629d55","server":"724","farm":1,"title":"","ispublic":1,"isfriend":0,"isfamily":0},{"id":"21883635445","owner":"71582613@N00","secret":"6de49a818b","server":"591","farm":1,"title":"","ispublic":1,"isfriend":0,"isfamily":0},{"id":"21445697739","owner":"23836012@N02","secret":"98c2c7e6b2","server":"654","farm":1,"title":"Pallas's Rosefinch (Carpodacus roseus)","ispublic":1,"isfriend":0,"isfamily":0},{"id":"21445690379","owner":"23836012@N02","secret":"05583f87da","server":"721","farm":1,"title":"Pallas's Rosefinch (Carpodacus roseus)","ispublic":1,"isfriend":0,"isfamily":0},{"id":"19345514154","owner":"135099518@N08","secret":"59de58c421","server":"515","farm":1,"title":"CARPODACUS ROSEUS - Carpodacus roseus","ispublic":1,"isfriend":0,"isfamily":0},{"id":"16623615373","owner":"91544025@N05","secret":"893033c8d0","server":"8714","farm":9,"title":"Carpodacus roseus","ispublic":1,"isfriend":0,"isfamily":0},{"id":"17057623629","owner":"91544025@N05","secret":"11facbb68a","server":"7682","farm":8,"title":"Carpodacus roseus","ispublic":1,"isfriend":0,"isfamily":0},{"id":"17036312607","owner":"91544025@N05","secret":"458e5d7ca4","server":"8781","farm":9,"title":"Carpodacus roseus","ispublic":1,"isfriend":0,"isfamily":0},{"id":"15648162634","owner":"9851294@N07","secret":"09eaf8db64","server":"8658","farm":9,"title":"Pallas's Rosefinch","ispublic":1,"isfriend":0,"isfamily":0},{"id":"16108671052","owner":"9851294@N07","secret":"cc60082a42","server":"7537","farm":8,"title":"Pallas's Rosefinch","ispublic":1,"isfriend":0,"isfamily":0},{"id":"10524449136","owner":"40195635@N03","secret":"1e94dcdbb6","server":"7338","farm":8,"title":"Pallas's Rosefinch (Carpodacus roseus)","ispublic":1,"isfriend":0,"isfamily":0},{"id":"8677945590","owner":"50169565@N06","secret":"07d0051c78","server":"8404","farm":9,"title":"2013.2.28 \u5317\u6731\u96c0\uff08Pallas's Rosefinch\uff09Carpodacus roseus","ispublic":1,"isfriend":0,"isfamily":0},{"id":"8497810804","owner":"50550409@N06","secret":"9fc3a9890f","server":"8231","farm":9,"title":"Carpodacus roseus 0222002","ispublic":1,"isfriend":0,"isfamily":0},{"id":"8408355380","owner":"50550409@N06","secret":"a893947fee","server":"8044","farm":9,"title":"Carpodacus roseus 0121006","ispublic":1,"isfriend":0,"isfamily":0},{"id":"8408353220","owner":"50550409@N06","secret":"28c1d9ebbd","server":"8186","farm":9,"title":"Carpodacus roseus 0121005","ispublic":1,"isfriend":0,"isfamily":0},{"id":"8407256015","owner":"50550409@N06","secret":"e6e56894aa","server":"8497","farm":9,"title":"Carpodacus roseus 0121004","ispublic":1,"isfriend":0,"isfamily":0},{"id":"8408229352","owner":"50550409@N06","secret":"ea2489dac5","server":"8051","farm":9,"title":"Carpodacus roseus 0121001","ispublic":1,"isfriend":0,"isfamily":0},{"id":"8310381084","owner":"9851294@N07","secret":"3ca1e5e349","server":"8353","farm":9,"title":"Pallas's Rosefinch","ispublic":1,"isfriend":0,"isfamily":0},{"id":"8282950579","owner":"9851294@N07","secret":"81dcd3e57a","server":"8081","farm":9,"title":"Pallas's Rosefinch","ispublic":1,"isfriend":0,"isfamily":0},{"id":"8270779887","owner":"45348296@N05","secret":"76886e4c69","server":"8350","farm":9,"title":"\u30aa\u30aa\u30de\u30b7\u30b3\u306e\u98df\u4e8b","ispublic":1,"isfriend":0,"isfamily":0},{"id":"8219117124","owner":"45348296@N05","secret":"a478d5ae61","server":"8200","farm":9,"title":"2012-11-25\u4f50\u4e45\u30aa\u30aa\u30de\u30b7\u30b3","ispublic":1,"isfriend":0,"isfamily":0},{"id":"7611016880","owner":"56686021@N04","secret":"88308ea8be","server":"8002","farm":9,"title":"Pallas's Rosefinch","ispublic":1,"isfriend":0,"isfamily":0},{"id":"7611016666","owner":"56686021@N04","secret":"30ea9bc573","server":"7261","farm":8,"title":"Pallas's Rosefinch","ispublic":1,"isfriend":0,"isfamily":0},{"id":"7472790628","owner":"56686021@N04","secret":"7178763c81","server":"8010","farm":9,"title":"Pallas's Rosefinch","ispublic":1,"isfriend":0,"isfamily":0},{"id":"7472790416","owner":"56686021@N04","secret":"1e8ab888b8","server":"7277","farm":8,"title":"Pallas's Rosefinch","ispublic":1,"isfriend":0,"isfamily":0},{"id":"7472790156","owner":"56686021@N04","secret":"25315f2664","server":"7115","farm":8,"title":"Pallas's Rosefinch","ispublic":1,"isfriend":0,"isfamily":0},{"id":"7472789980","owner":"56686021@N04","secret":"d006286608","server":"8141","farm":9,"title":"Pallas's Rosefinch","ispublic":1,"isfriend":0,"isfamily":0}]},"stat":"ok"}