{"photos":{"page":1,"pages":55,"perpage":100,"total":5436,"photo":[{"id":"52790410238","owner":"123529713@N08","secret":"d23b6660a1","server":"65535","farm":66,"title":"Gavina capnegra mediterrania - Gaviota cabecinegra - Medtiterranean gull - Mouette m\u00e9l\u00e0nocephale - Ichthyaetus melanocephalus","ispublic":1,"isfriend":0,"isfamily":0},{"id":"52788030542","owner":"76454790@N02","secret":"c999d44858","server":"65535","farm":66,"title":"Mediterranean Gull (Ichthyaetus melanocephalus)","ispublic":1,"isfriend":0,"isfamily":0},{"id":"52789036463","owner":"76454790@N02","secret":"90d01853be","server":"65535","farm":66,"title":"Mediterranean Gull (Ichthyaetus melanocephalus)","ispublic":1,"isfriend":0,"isfamily":0},{"id":"52787613354","owner":"101409655@N07","secret":"106e9b0fff","server":"65535","farm":66,"title":"Sooty Gull","ispublic":1,"isfriend":0,"isfamily":0},{"id":"52779272147","owner":"127058286@N04","secret":"3d26cb40f3","server":"65535","farm":66,"title":"Mouette m\u00e9lanoc\u00e9phale - Mediterranean Gull (Ichthyaetus melanocephalus) - Lyon - Pont Mazaryk (Rh\u00f4ne) France, le 24 novembre 2022","ispublic":1,"isfriend":0,"isfamily":0},{"id":"52769721172","owner":"123529713@N08","secret":"4f7cb1043b","server":"65535","farm":66,"title":"Gavina capnegra mediterrania - Gaviota cabecinegra - Mediterranean gull - Mouette m\u00e9lanoc\u00e9phale - Ichthyaetus melanocephalus","ispublic":1,"isfriend":0,"isfamily":0},{"id":"52759954632","owner":"84151258@N00","secret":"36269d0f55","server":"65535","farm":66,"title":"Mediterranean Gull\/Sl\u00e9ibh\u00edn me\u00e1nmhuir\u00ed (Larus melanocephalus)","ispublic":1,"isfriend":0,"isfamily":0},{"id":"52757305243","owner":"12291792@N05","secret":"96475e83f2","server":"65535","farm":66,"title":"Audouin's Gull","ispublic":1,"isfriend":0,"isfamily":0},{"id":"52754658251","owner":"145489125@N03","secret":"857ca0edc4","server":"65535","farm":66,"title":"Audouin's Gull ( Ichthyaetus audouinii ) ... Southern Morocco","ispublic":1,"isfriend":0,"isfamily":0},{"id":"52747944369","owner":"121021311@N02","secret":"05d9ff1259","server":"65535","farm":66,"title":"Mouette m\u00e9lanoc\u00e9phale (Ichthyaetus melanocephalus) Mediterranean Gull","ispublic":1,"isfriend":0,"isfamily":0},{"id":"52745721263","owner":"121021311@N02","secret":"01001df329","server":"65535","farm":66,"title":"Mouette m\u00e9lanoc\u00e9phale (Ichthyaetus melanocephalus) Mediterranean Gull","ispublic":1,"isfriend":0,"isfamily":0},{"id":"52745640120","owner":"121021311@N02","secret":"e838be1b16","server":"65535","farm":66,"title":"Mouette m\u00e9lanoc\u00e9phale (Ichthyaetus melanocephalus) Mediterranean Gull","ispublic":1,"isfriend":0,"isfamily":0},{"id":"52744706357","owner":"121021311@N02","secret":"c0f5280405","server":"65535","farm":66,"title":"Mouette m\u00e9lanoc\u00e9phale (Ichthyaetus melanocephalus) Mediterranean Gull","ispublic":1,"isfriend":0,"isfamily":0},{"id":"52745478669","owner":"121021311@N02","secret":"f9fc642902","server":"65535","farm":66,"title":"Mouette m\u00e9lanoc\u00e9phale (Ichthyaetus melanocephalus) Mediterranean Gull","ispublic":1,"isfriend":0,"isfamily":0},{"id":"52745223756","owner":"121021311@N02","secret":"49c372b45b","server":"65535","farm":66,"title":"Mouette m\u00e9lanoc\u00e9phale (Ichthyaetus melanocephalus) Mediterranean Gull","ispublic":1,"isfriend":0,"isfamily":0},{"id":"52745639565","owner":"121021311@N02","secret":"772761f100","server":"65535","farm":66,"title":"Mouette m\u00e9lanoc\u00e9phale (Ichthyaetus melanocephalus) Mediterranean Gull","ispublic":1,"isfriend":0,"isfamily":0},{"id":"52745639435","owner":"121021311@N02","secret":"5b15f49dda","server":"65535","farm":66,"title":"Mouette m\u00e9lanoc\u00e9phale (Ichthyaetus melanocephalus) Mediterranean Gull","ispublic":1,"isfriend":0,"isfamily":0},{"id":"52745223456","owner":"121021311@N02","secret":"098cc56f0c","server":"65535","farm":66,"title":"Mouette m\u00e9lanoc\u00e9phale (Ichthyaetus melanocephalus) Mediterranean Gull","ispublic":1,"isfriend":0,"isfamily":0},{"id":"52745639175","owner":"121021311@N02","secret":"d70ae55e47","server":"65535","farm":66,"title":"Mouette m\u00e9lanoc\u00e9phale (Ichthyaetus melanocephalus) Mediterranean Gull","ispublic":1,"isfriend":0,"isfamily":0},{"id":"52745719483","owner":"121021311@N02","secret":"e8f7cb0f79","server":"65535","farm":66,"title":"Mouette m\u00e9lanoc\u00e9phale (Ichthyaetus melanocephalus) Mediterranean Gull","ispublic":1,"isfriend":0,"isfamily":0},{"id":"52741912392","owner":"37974559@N08","secret":"aa0b1e35b0","server":"65535","farm":66,"title":"DSC07468","ispublic":1,"isfriend":0,"isfamily":0},{"id":"52740569622","owner":"67057396@N02","secret":"725fae359f","server":"65535","farm":66,"title":"Ichthyaetus audouinii","ispublic":1,"isfriend":0,"isfamily":0},{"id":"52739402805","owner":"145489125@N03","secret":"6bd18facd6","server":"65535","farm":66,"title":"Audouin's Gull ( Ichthyaetus audouinii ) ... Southern Morocco","ispublic":1,"isfriend":0,"isfamily":0},{"id":"52729718087","owner":"121021311@N02","secret":"efa98f24ef","server":"65535","farm":66,"title":"Mouette m\u00e9lanoc\u00e9phale (Ichthyaetus melanocephalus) Mediterranean Gull","ispublic":1,"isfriend":0,"isfamily":0},{"id":"52729716737","owner":"121021311@N02","secret":"f9cdc57e48","server":"65535","farm":66,"title":"Mouette m\u00e9lanoc\u00e9phale (Ichthyaetus melanocephalus) Mediterranean Gull","ispublic":1,"isfriend":0,"isfamily":0},{"id":"52724196635","owner":"136420653@N03","secret":"6519b7ed3f","server":"65535","farm":66,"title":"Korallenm\u00f6we (Audouin's gull)","ispublic":1,"isfriend":0,"isfamily":0},{"id":"52720060385","owner":"127058286@N04","secret":"eed4a19137","server":"65535","farm":66,"title":"Mouette m\u00e9lanoc\u00e9phale - Mediterranean Gull (Ichthyaetus melanocephalus) - Lyon - Pont Mazaryk (Rh\u00f4ne) France, le 19 janvier 2023","ispublic":1,"isfriend":0,"isfamily":0},{"id":"52713459813","owner":"28092414@N03","secret":"18d0530115","server":"65535","farm":66,"title":"Sooty Gull at Taqah S24A0819","ispublic":1,"isfriend":0,"isfamily":0},{"id":"52713459783","owner":"28092414@N03","secret":"94a0ea1c0b","server":"65535","farm":66,"title":"Sooty Gull at Taqah S24A0831","ispublic":1,"isfriend":0,"isfamily":0},{"id":"52713400930","owner":"28092414@N03","secret":"543c4cf2d2","server":"65535","farm":66,"title":"Sooty Gull at Taqah S24A0833","ispublic":1,"isfriend":0,"isfamily":0},{"id":"52712981461","owner":"28092414@N03","secret":"140327c2f3","server":"65535","farm":66,"title":"Sooty Gull at Taqah S24A0854","ispublic":1,"isfriend":0,"isfamily":0},{"id":"52712981426","owner":"28092414@N03","secret":"2f80e4814c","server":"65535","farm":66,"title":"Sooty Gull at Taqah S24A2976","ispublic":1,"isfriend":0,"isfamily":0},{"id":"52713400825","owner":"28092414@N03","secret":"52e1166faa","server":"65535","farm":66,"title":"Sooty Gull at Salalah S24A2998","ispublic":1,"isfriend":0,"isfamily":0},{"id":"52709719081","owner":"88972033@N05","secret":"cd68304f4b","server":"65535","farm":66,"title":"Pallas's Gull","ispublic":1,"isfriend":0,"isfamily":0},{"id":"52707599382","owner":"88972033@N05","secret":"2287263085","server":"65535","farm":66,"title":"Pallas's Gull","ispublic":1,"isfriend":0,"isfamily":0},{"id":"52708381075","owner":"193259650@N02","secret":"bbda10e2db","server":"65535","farm":66,"title":"Mediterranean Gull - Ichthyaetus melanocephalus","ispublic":1,"isfriend":0,"isfamily":0},{"id":"52707699406","owner":"88972033@N05","secret":"324a5fc3f1","server":"65535","farm":66,"title":"Pallas's Gull","ispublic":1,"isfriend":0,"isfamily":0},{"id":"52700112256","owner":"195353428@N06","secret":"c95a3a1403","server":"65535","farm":66,"title":"Mediterranean gull (Ichthyaetus melanocephalus) portrait","ispublic":1,"isfriend":0,"isfamily":0},{"id":"52698488613","owner":"12639178@N07","secret":"2ffb71b842","server":"65535","farm":66,"title":"Ichthyaetus melanocephalus, Schwarzkopfm\u00f6we,dj.","ispublic":1,"isfriend":0,"isfamily":0},{"id":"52697482032","owner":"12639178@N07","secret":"b95f16ee04","server":"65535","farm":66,"title":"Ichthyaetus melanocephalus, Schwarzkopfm\u00f6we,dj.","ispublic":1,"isfriend":0,"isfamily":0},{"id":"52697481872","owner":"12639178@N07","secret":"06285d05d5","server":"65535","farm":66,"title":"Ichthyaetus melanocephalus, Schwarzkopfm\u00f6we,dj.","ispublic":1,"isfriend":0,"isfamily":0},{"id":"52697481712","owner":"12639178@N07","secret":"54a66f89af","server":"65535","farm":66,"title":"Ichthyaetus melanocephalus, Schwarzkopfm\u00f6we,dj.","ispublic":1,"isfriend":0,"isfamily":0},{"id":"52698256509","owner":"12639178@N07","secret":"2ecaf3ddea","server":"65535","farm":66,"title":"Ichthyaetus melanocephalus, Schwarzkopfm\u00f6we,dj.","ispublic":1,"isfriend":0,"isfamily":0},{"id":"52696556418","owner":"88972033@N05","secret":"c05dd7b537","server":"65535","farm":66,"title":"Pallas's Gull","ispublic":1,"isfriend":0,"isfamily":0},{"id":"52690656883","owner":"193443384@N07","secret":"38fc14cd5b","server":"65535","farm":66,"title":"Audouin's Gull (Ichthyaetus audouinii) & Mediterranean Gull (Ichthyaetus melanocephalus)","ispublic":1,"isfriend":0,"isfamily":0},{"id":"52690583925","owner":"193443384@N07","secret":"9bc2fe641e","server":"65535","farm":66,"title":"Mediterranean Gull (Ichthyaetus melanocephalus)","ispublic":1,"isfriend":0,"isfamily":0},{"id":"52689647422","owner":"193443384@N07","secret":"8a124d3c3d","server":"65535","farm":66,"title":"Audouin's Gull (Ichthyaetus audouinii)","ispublic":1,"isfriend":0,"isfamily":0},{"id":"52686464083","owner":"88972033@N05","secret":"52f1d2ee7f","server":"65535","farm":66,"title":"Pallas's Gull","ispublic":1,"isfriend":0,"isfamily":0},{"id":"52659253269","owner":"51926183@N07","secret":"e90fb9ae97","server":"65535","farm":66,"title":"Mouette m\u00e9lanoc\u00e9phale","ispublic":1,"isfriend":0,"isfamily":0},{"id":"52656464777","owner":"154261763@N05","secret":"54cb54c988","server":"65535","farm":66,"title":"Grey-headed fish eagle (Haliaeetus ichthyaetus) - Graukopfseeadler","ispublic":1,"isfriend":0,"isfamily":0},{"id":"52656463937","owner":"154261763@N05","secret":"2f4e9a7071","server":"65535","farm":66,"title":"Grey-headed fish eagle (Haliaeetus ichthyaetus) - Graukopfseeadler","ispublic":1,"isfriend":0,"isfamily":0},{"id":"52650010614","owner":"193492169@N05","secret":"a3346183b3","server":"65535","farm":66,"title":"Gaviota cabecinegra - Mediterranean Gull - Ichthyaetus melanocephalus","ispublic":1,"isfriend":0,"isfamily":0},{"id":"52646101923","owner":"90764954@N07","secret":"e8da4cf6b8","server":"65535","farm":66,"title":"Grey-headed Fish Eagle (Ichthyophaga ichthyaetus) \u7070\u5934\u6e14\u96d5","ispublic":1,"isfriend":0,"isfamily":0},{"id":"52645119432","owner":"90764954@N07","secret":"aae5ce518b","server":"65535","farm":66,"title":"Grey-headed Fish Eagle (Ichthyophaga ichthyaetus) \u7070\u5934\u6e14\u96d5","ispublic":1,"isfriend":0,"isfamily":0},{"id":"52645630876","owner":"90764954@N07","secret":"83d2ff490e","server":"65535","farm":66,"title":"Grey-headed Fish Eagle (Ichthyophaga ichthyaetus) \u7070\u5934\u6e14\u96d5","ispublic":1,"isfriend":0,"isfamily":0},{"id":"52645883999","owner":"90764954@N07","secret":"be882f9513","server":"65535","farm":66,"title":"Grey-headed Fish Eagle (Ichthyophaga ichthyaetus) \u7070\u5934\u6e14\u96d5","ispublic":1,"isfriend":0,"isfamily":0},{"id":"52642048148","owner":"49272932@N00","secret":"d746dbd097","server":"65535","farm":66,"title":"Gray-headed Fish-Eagle (Haliaeetus ichthyaetus), Melagiri Hills, Hosur","ispublic":1,"isfriend":0,"isfamily":0},{"id":"52638369089","owner":"43684069@N05","secret":"eafd95c581","server":"65535","farm":66,"title":"Grey.headed Fish-Eagle","ispublic":1,"isfriend":0,"isfamily":0},{"id":"52633711921","owner":"134610359@N02","secret":"c325801845","server":"65535","farm":66,"title":"Gaivota-de-cabe\u00e7a-preta - DSCF3236","ispublic":1,"isfriend":0,"isfamily":0},{"id":"52633900743","owner":"84151258@N00","secret":"564841311f","server":"65535","farm":66,"title":"Audouin's gull (Ichthyaetus audouinii)","ispublic":1,"isfriend":0,"isfamily":0},{"id":"52623575520","owner":"127058286@N04","secret":"41e4fdb422","server":"65535","farm":66,"title":"Mouette m\u00e9lanoc\u00e9phale - Mediterranean Gull (Ichthyaetus melanocephalus) - Lyon - Pont Mazaryk (Rh\u00f4ne) France, le 12 janvier 2023","ispublic":1,"isfriend":0,"isfamily":0},{"id":"52621027243","owner":"99817330@N02","secret":"81e6b85ba5","server":"65535","farm":66,"title":"Mediterranean Gulls","ispublic":1,"isfriend":0,"isfamily":0},{"id":"52618459112","owner":"29894834@N05","secret":"4599fc7763","server":"65535","farm":66,"title":"Eurasian spoonbills, yellow-legged gull and Audouin's gulls","ispublic":1,"isfriend":0,"isfamily":0},{"id":"52618230277","owner":"131708321@N02","secret":"2e1059c5aa","server":"65535","farm":66,"title":"Audouin's Gull (Ichthyaetus audouinii), Mallorca, Spain","ispublic":1,"isfriend":0,"isfamily":0},{"id":"52617635505","owner":"45967589@N03","secret":"e054f7f0d6","server":"65535","farm":66,"title":"Mediterranean Gull","ispublic":1,"isfriend":0,"isfamily":0},{"id":"52616314822","owner":"95579115@N03","secret":"879e4c200a","server":"65535","farm":66,"title":"Sooty Gull (Ichthyaetus hemprichii) \u0410\u0434\u0435\u043d\u0441\u043a\u0430\u044f \u0447\u0430\u0439\u043a\u0430","ispublic":1,"isfriend":0,"isfamily":0},{"id":"52610647307","owner":"197308848@N05","secret":"e0c4617183","server":"65535","farm":66,"title":"White-Eyed Gull","ispublic":1,"isfriend":0,"isfamily":0},{"id":"52602008997","owner":"127058286@N04","secret":"a1f7dc5ab2","server":"65535","farm":66,"title":"Mouette m\u00e9lanoc\u00e9phale - Mediterranean Gull (Ichthyaetus melanocephalus) - Lyon - Pont Mazaryk (Rh\u00f4ne) France, le 2 janvier 2023","ispublic":1,"isfriend":0,"isfamily":0},{"id":"52591959160","owner":"92374457@N07","secret":"23a7dd2e94","server":"65535","farm":66,"title":"Audouin's gull (Ichthyaetus audouinii)","ispublic":1,"isfriend":0,"isfamily":0},{"id":"52592052628","owner":"92374457@N07","secret":"3a3b356c82","server":"65535","farm":66,"title":"Audouin's gull (Ichthyaetus audouinii)","ispublic":1,"isfriend":0,"isfamily":0},{"id":"52745639850","owner":"121021311@N02","secret":"9ff3094e98","server":"65535","farm":66,"title":"Mouette m\u00e9lanoc\u00e9phale (Ichthyaetus melanocephalus) Mediterranean Gull \/ Go\u00e9land railleur (Chroicocephalus genei) Slender-billed Gull \/ Mouette rieuse (Chroicocephalus ridibundus) Black-headed Gull","ispublic":1,"isfriend":0,"isfamily":0},{"id":"52745478619","owner":"121021311@N02","secret":"76cec710cc","server":"65535","farm":66,"title":"Mouette m\u00e9lanoc\u00e9phale (Ichthyaetus melanocephalus) Mediterranean Gull","ispublic":1,"isfriend":0,"isfamily":0},{"id":"52745720463","owner":"121021311@N02","secret":"57ee7dfda7","server":"65535","farm":66,"title":"Mouette m\u00e9lanoc\u00e9phale (Ichthyaetus melanocephalus) Mediterranean Gull","ispublic":1,"isfriend":0,"isfamily":0},{"id":"52745478124","owner":"121021311@N02","secret":"11f38f0064","server":"65535","farm":66,"title":"Mouette m\u00e9lanoc\u00e9phale (Ichthyaetus melanocephalus) Mediterranean Gull","ispublic":1,"isfriend":0,"isfamily":0},{"id":"52689758114","owner":"65609388@N07","secret":"c71389f089","server":"65535","farm":66,"title":"gull Pallas's Gull Ichthyaetus ichthyaetus Reuzenzwartkopmeeuw  8-2","ispublic":1,"isfriend":0,"isfamily":0},{"id":"52684813108","owner":"121021311@N02","secret":"99779de8d2","server":"65535","farm":66,"title":"Mouette m\u00e9lanoc\u00e9phale (Ichthyaetus melanocephalus) Mediterranean Gull","ispublic":1,"isfriend":0,"isfamily":0},{"id":"52684813063","owner":"121021311@N02","secret":"dc282d5c4f","server":"65535","farm":66,"title":"Mouette m\u00e9lanoc\u00e9phale (Ichthyaetus melanocephalus) Mediterranean Gull","ispublic":1,"isfriend":0,"isfamily":0},{"id":"52684596794","owner":"121021311@N02","secret":"c72ce74544","server":"65535","farm":66,"title":"Mouette m\u00e9lanoc\u00e9phale (Ichthyaetus melanocephalus) Mediterranean Gull","ispublic":1,"isfriend":0,"isfamily":0},{"id":"52645884204","owner":"90764954@N07","secret":"ca935a20d6","server":"65535","farm":66,"title":"Grey-headed Fish Eagle (Ichthyophaga ichthyaetus) \u7070\u5934\u6e14\u96d5","ispublic":1,"isfriend":0,"isfamily":0},{"id":"52646067855","owner":"90764954@N07","secret":"2f4d95be90","server":"65535","farm":66,"title":"Grey-headed Fish Eagle (Ichthyophaga ichthyaetus) \u7070\u5934\u6e14\u96d5","ispublic":1,"isfriend":0,"isfamily":0},{"id":"52645884099","owner":"90764954@N07","secret":"83e5dde322","server":"65535","farm":66,"title":"Grey-headed Fish Eagle (Ichthyophaga ichthyaetus) \u7070\u5934\u6e14\u96d5","ispublic":1,"isfriend":0,"isfamily":0},{"id":"52645884084","owner":"90764954@N07","secret":"9917a988b0","server":"65535","farm":66,"title":"Grey-headed Fish Eagle (Ichthyophaga ichthyaetus) \u7070\u5934\u6e14\u96d5","ispublic":1,"isfriend":0,"isfamily":0},{"id":"52646067745","owner":"90764954@N07","secret":"3d046e21fc","server":"65535","farm":66,"title":"Grey-headed Fish Eagle (Ichthyophaga ichthyaetus) \u7070\u5934\u6e14\u96d5","ispublic":1,"isfriend":0,"isfamily":0},{"id":"52646101783","owner":"90764954@N07","secret":"39505a096b","server":"65535","farm":66,"title":"Grey-headed Fish Eagle (Ichthyophaga ichthyaetus) \u7070\u5934\u6e14\u96d5","ispublic":1,"isfriend":0,"isfamily":0},{"id":"52646101758","owner":"90764954@N07","secret":"8131582b14","server":"65535","farm":66,"title":"Grey-headed Fish Eagle (Ichthyophaga ichthyaetus) \u7070\u5934\u6e14\u96d5","ispublic":1,"isfriend":0,"isfamily":0},{"id":"52645630571","owner":"90764954@N07","secret":"b9dda8e42e","server":"65535","farm":66,"title":"Grey-headed Fish Eagle (Ichthyophaga ichthyaetus) \u7070\u5934\u6e14\u96d5","ispublic":1,"isfriend":0,"isfamily":0},{"id":"52646101678","owner":"90764954@N07","secret":"6989755b71","server":"65535","farm":66,"title":"Grey-headed Fish Eagle (Ichthyophaga ichthyaetus) \u7070\u5934\u6e14\u96d5","ispublic":1,"isfriend":0,"isfamily":0},{"id":"52646067540","owner":"90764954@N07","secret":"51a8fcb0ce","server":"65535","farm":66,"title":"Grey-headed Fish Eagle (Ichthyophaga ichthyaetus) \u7070\u5934\u6e14\u96d5","ispublic":1,"isfriend":0,"isfamily":0},{"id":"52645119097","owner":"90764954@N07","secret":"9b5fcb3382","server":"65535","farm":66,"title":"Grey-headed Fish Eagle (Ichthyophaga ichthyaetus) \u7070\u5934\u6e14\u96d5","ispublic":1,"isfriend":0,"isfamily":0},{"id":"52646067420","owner":"90764954@N07","secret":"af7e62c06b","server":"65535","farm":66,"title":"Grey-headed Fish Eagle (Ichthyophaga ichthyaetus) \u7070\u5934\u6e14\u96d5","ispublic":1,"isfriend":0,"isfamily":0},{"id":"52645119037","owner":"90764954@N07","secret":"ddef0fae71","server":"65535","farm":66,"title":"Grey-headed Fish Eagle (Ichthyophaga ichthyaetus) \u7070\u5934\u6e14\u96d5","ispublic":1,"isfriend":0,"isfamily":0},{"id":"52646101458","owner":"90764954@N07","secret":"3748fea0a6","server":"65535","farm":66,"title":"Grey-headed Fish Eagle (Ichthyophaga ichthyaetus) \u7070\u5934\u6e14\u96d5","ispublic":1,"isfriend":0,"isfamily":0},{"id":"52636631024","owner":"171333438@N08","secret":"1b1ecf3634","server":"65535","farm":66,"title":"Go\u00e9land ichthya\u00e8te (Ichthyaetus ichthyaetus)","ispublic":1,"isfriend":0,"isfamily":0},{"id":"52634163735","owner":"171333438@N08","secret":"a0ae701832","server":"65535","farm":66,"title":"Go\u00e9land ichthya\u00e8te (Ichthyaetus ichthyaetus)","ispublic":1,"isfriend":0,"isfamily":0},{"id":"52633817680","owner":"171333438@N08","secret":"eaca3be039","server":"65535","farm":66,"title":"Go\u00e9land ichthya\u00e8te (Ichthyaetus ichthyaetus)","ispublic":1,"isfriend":0,"isfamily":0},{"id":"52633633739","owner":"171333438@N08","secret":"5d2e4d83b8","server":"65535","farm":66,"title":"Go\u00e9land ichthya\u00e8te (Ichthyaetus ichthyaetus)","ispublic":1,"isfriend":0,"isfamily":0},{"id":"52633633039","owner":"171333438@N08","secret":"d56ae50212","server":"65535","farm":66,"title":"Go\u00e9land ichthya\u00e8te (Ichthyaetus ichthyaetus)","ispublic":1,"isfriend":0,"isfamily":0},{"id":"52633816125","owner":"171333438@N08","secret":"e0ba2de080","server":"65535","farm":66,"title":"Go\u00e9land ichthya\u00e8te (Ichthyaetus ichthyaetus)","ispublic":1,"isfriend":0,"isfamily":0},{"id":"52632864037","owner":"171333438@N08","secret":"78655b426f","server":"65535","farm":66,"title":"Go\u00e9land ichthya\u00e8te (Ichthyaetus ichthyaetus)","ispublic":1,"isfriend":0,"isfamily":0},{"id":"52633862208","owner":"171333438@N08","secret":"40ee75a3d7","server":"65535","farm":66,"title":"Go\u00e9land ichthya\u00e8te (Ichthyaetus ichthyaetus)","ispublic":1,"isfriend":0,"isfamily":0}]},"stat":"ok"}