{"photos":{"page":1,"pages":7,"perpage":100,"total":636,"photo":[{"id":"52705856578","owner":"31704662@N08","secret":"04e7bb1e75","server":"65535","farm":66,"title":"Paradise Tanager (Tangara chilensis)","ispublic":1,"isfriend":0,"isfamily":0},{"id":"52428349347","owner":"77128742@N06","secret":"6030f2a6d0","server":"65535","farm":66,"title":"Siebenfarbentangare_Tangara chilensis-16","ispublic":1,"isfriend":0,"isfamily":0},{"id":"52428850916","owner":"77128742@N06","secret":"cdb7ecbe90","server":"65535","farm":66,"title":"Siebenfarbentangare_Tangara chilensis-23","ispublic":1,"isfriend":0,"isfamily":0},{"id":"52183463658","owner":"129593667@N03","secret":"5f466c9166","server":"65535","farm":66,"title":"Paradise Tanager","ispublic":1,"isfriend":0,"isfamily":0},{"id":"52157835405","owner":"137365533@N05","secret":"3609625c2f","server":"65535","farm":66,"title":"Calliste septicolore (Tangara chilensis)","ispublic":1,"isfriend":0,"isfamily":0},{"id":"52151894385","owner":"36083098@N02","secret":"efbd518031","server":"65535","farm":66,"title":"Tangara chilensis","ispublic":1,"isfriend":0,"isfamily":0},{"id":"52151402766","owner":"36083098@N02","secret":"f2e9542657","server":"65535","farm":66,"title":"Tangara chilensis","ispublic":1,"isfriend":0,"isfamily":0},{"id":"52149399274","owner":"36083098@N02","secret":"d93cea8113","server":"65535","farm":66,"title":"Tangara chilensis","ispublic":1,"isfriend":0,"isfamily":0},{"id":"52117296985","owner":"14299517@N05","secret":"910679279a","server":"65535","farm":66,"title":"Birds of Panama - 8\/14","ispublic":1,"isfriend":0,"isfamily":0},{"id":"52117296955","owner":"14299517@N05","secret":"4e6cc10257","server":"65535","farm":66,"title":"Birds of Panama - 7\/14","ispublic":1,"isfriend":0,"isfamily":0},{"id":"52117038159","owner":"14299517@N05","secret":"dfe8823cb8","server":"65535","farm":66,"title":"Birds of Panama - 5\/14","ispublic":1,"isfriend":0,"isfamily":0},{"id":"52116787351","owner":"14299517@N05","secret":"ec302502b7","server":"65535","farm":66,"title":"Birds of Panama - 4\/14","ispublic":1,"isfriend":0,"isfamily":0},{"id":"52116826608","owner":"14299517@N05","secret":"92341722aa","server":"65535","farm":66,"title":"Birds of Panama - 4\/14","ispublic":1,"isfriend":0,"isfamily":0},{"id":"52115760997","owner":"14299517@N05","secret":"4b070dc0f6","server":"65535","farm":66,"title":"Birds of Panama - 2\/14","ispublic":1,"isfriend":0,"isfamily":0},{"id":"52115760962","owner":"14299517@N05","secret":"a3c6fdf9da","server":"65535","farm":66,"title":"Birds of Panama - 1\/14","ispublic":1,"isfriend":0,"isfamily":0},{"id":"52115760982","owner":"14299517@N05","secret":"bae9f02206","server":"65535","farm":66,"title":"Birds of Panama - 1\/14","ispublic":1,"isfriend":0,"isfamily":0},{"id":"52117038054","owner":"14299517@N05","secret":"a855a09aa9","server":"65535","farm":66,"title":"Birds of Panama - 9\/14","ispublic":1,"isfriend":0,"isfamily":0},{"id":"52117296775","owner":"14299517@N05","secret":"40497d1fbe","server":"65535","farm":66,"title":"Birds of Panama - 9\/14","ispublic":1,"isfriend":0,"isfamily":0},{"id":"52116787236","owner":"14299517@N05","secret":"661f9ce440","server":"65535","farm":66,"title":"Birds of Panama - 10\/14","ispublic":1,"isfriend":0,"isfamily":0},{"id":"52115760872","owner":"14299517@N05","secret":"4770840055","server":"65535","farm":66,"title":"Birds of Panama - 10\/14","ispublic":1,"isfriend":0,"isfamily":0},{"id":"52117037974","owner":"14299517@N05","secret":"6c8ff418d2","server":"65535","farm":66,"title":"Birds of Panama - 10\/14","ispublic":1,"isfriend":0,"isfamily":0},{"id":"52115760792","owner":"14299517@N05","secret":"79787c604d","server":"65535","farm":66,"title":"Birds of Panama - 13\/14","ispublic":1,"isfriend":0,"isfamily":0},{"id":"52099057378","owner":"129593667@N03","secret":"dd69fd668b","server":"65535","farm":66,"title":"Paradise Tanager","ispublic":1,"isfriend":0,"isfamily":0},{"id":"52058767015","owner":"76695351@N06","secret":"c63343554e","server":"65535","farm":66,"title":"Paradijstangare - Paradise Tanager","ispublic":1,"isfriend":0,"isfamily":0},{"id":"52049900379","owner":"48084395@N03","secret":"7746eb8c80","server":"65535","farm":66,"title":"Paradise Tanager (Tangara chilensis) _5AC6932","ispublic":1,"isfriend":0,"isfamily":0},{"id":"52028738257","owner":"53102904@N08","secret":"f6dfd41dd8","server":"65535","farm":66,"title":"Paradise Tanager \/ Paradijstangare","ispublic":1,"isfriend":0,"isfamily":0},{"id":"51984224501","owner":"123597211@N03","secret":"bf624543dc","server":"65535","farm":66,"title":"Siebenfarbentangare (Tangara chilensis)","ispublic":1,"isfriend":0,"isfamily":0},{"id":"51981597447","owner":"189898841@N03","secret":"96efb20a1f","server":"65535","farm":66,"title":"Paradise tanager (Tangara chilensis)","ispublic":1,"isfriend":0,"isfamily":0},{"id":"51952776256","owner":"20127130@N02","secret":"735dbb3499","server":"65535","farm":66,"title":"Parenting II","ispublic":1,"isfriend":0,"isfamily":0},{"id":"51912244971","owner":"79410107@N08","secret":"9253d33972","server":"65535","farm":66,"title":"Tangara chilensis - Paradise Tanager - Tangara del Para\u00edso - T\u00e1ngara Sietecolores 07","ispublic":1,"isfriend":0,"isfamily":0},{"id":"51912342918","owner":"79410107@N08","secret":"72af78b096","server":"65535","farm":66,"title":"Tangara chilensis - Paradise Tanager - Tangara del Para\u00edso - T\u00e1ngara Sietecolores 10","ispublic":1,"isfriend":0,"isfamily":0},{"id":"51912244781","owner":"79410107@N08","secret":"f44ff806ab","server":"65535","farm":66,"title":"Tangara chilensis - Paradise Tanager - Tangara del Para\u00edso - T\u00e1ngara Sietecolores 08","ispublic":1,"isfriend":0,"isfamily":0},{"id":"51905767756","owner":"129593667@N03","secret":"67e4a7fccd","server":"65535","farm":66,"title":"Paradise Tanager","ispublic":1,"isfriend":0,"isfamily":0},{"id":"51879084967","owner":"20127130@N02","secret":"c81e497edf","server":"65535","farm":66,"title":"Parenting","ispublic":1,"isfriend":0,"isfamily":0},{"id":"51836589434","owner":"48938938@N04","secret":"9540a5ba42","server":"65535","farm":66,"title":"Paradise Tanager_Tangara chilensis_Ascanio_Inirida_DZ3A5758","ispublic":1,"isfriend":0,"isfamily":0},{"id":"51724274331","owner":"129593667@N03","secret":"2efb591920","server":"65535","farm":66,"title":"Paradise Tanager","ispublic":1,"isfriend":0,"isfamily":0},{"id":"51720267289","owner":"79410107@N08","secret":"d662f10c5e","server":"65535","farm":66,"title":"Tangara chilensis - Paradise Tanager - Tangara del Para\u00edso - T\u00e1ngara Sietecolores 06","ispublic":1,"isfriend":0,"isfamily":0},{"id":"51395557411","owner":"68320803@N07","secret":"a45b2d9ef0","server":"65535","farm":66,"title":"Paradise Tanager","ispublic":1,"isfriend":0,"isfamily":0},{"id":"51392877066","owner":"119787485@N07","secret":"489e01572e","server":"65535","farm":66,"title":"Paradise Tanager (Tangara chilensis chilensis) - 20100203-03","ispublic":1,"isfriend":0,"isfamily":0},{"id":"51307558084","owner":"96894687@N06","secret":"0a8507eb32","server":"65535","farm":66,"title":"Paradise Tanager\/Sete-cores-da amaz\u00f4nia\/Tangara del para\u00edso (Tangara chilensis)","ispublic":1,"isfriend":0,"isfamily":0},{"id":"51274852992","owner":"12530381@N07","secret":"4c0f569565","server":"65535","farm":66,"title":"Paradise Tanager (Tangara chilensis) in the Hummingbird  Habitat at the San Diego Zoo (6\/27\/2021)","ispublic":1,"isfriend":0,"isfamily":0},{"id":"51220510412","owner":"68320803@N07","secret":"5dc213e73a","server":"65535","farm":66,"title":"Pardise Tanager","ispublic":1,"isfriend":0,"isfamily":0},{"id":"50845047933","owner":"137112098@N05","secret":"cc3101bc88","server":"65535","farm":66,"title":"Calliste septicolore ( Tangara chilensis )","ispublic":1,"isfriend":0,"isfamily":0},{"id":"50823717291","owner":"12530381@N07","secret":"589585ccf1","server":"65535","farm":66,"title":"Paradise Tanager (Tangara chilensis) in the Hummingbird House at the San Diego Zoo (11-16-2014)","ispublic":1,"isfriend":0,"isfamily":0},{"id":"50724095651","owner":"187682764@N06","secret":"e5f0982243","server":"65535","farm":66,"title":"Tropical Paradise","ispublic":1,"isfriend":0,"isfamily":0},{"id":"50541326958","owner":"83457042@N00","secret":"a216cc07f3","server":"65535","farm":66,"title":"Fauna: Paradise tanager (Tangara chilensis)","ispublic":1,"isfriend":0,"isfamily":0},{"id":"50398700706","owner":"133755874@N03","secret":"18ebc800d5","server":"65535","farm":66,"title":"Small and colourful birds 5\/5","ispublic":1,"isfriend":0,"isfamily":0},{"id":"50376009581","owner":"61021753@N02","secret":"459ccb82e6","server":"65535","farm":66,"title":"n110_w1150","ispublic":1,"isfriend":0,"isfamily":0},{"id":"52329365453","owner":"123597211@N03","secret":"9f03b54ae4","server":"65535","farm":66,"title":"Siebenfarbentangare (Tangara chilensis)","ispublic":1,"isfriend":0,"isfamily":0},{"id":"52329416844","owner":"123597211@N03","secret":"b3b9f4e5e2","server":"65535","farm":66,"title":"Siebenfarbentangare (Tangara chilensis)","ispublic":1,"isfriend":0,"isfamily":0},{"id":"52329542625","owner":"123597211@N03","secret":"b801e142d6","server":"65535","farm":66,"title":"Siebenfarbentangare (Tangara chilensis)","ispublic":1,"isfriend":0,"isfamily":0},{"id":"52329113281","owner":"123597211@N03","secret":"c842b1a836","server":"65535","farm":66,"title":"Siebenfarbentangare (Tangara chilensis)","ispublic":1,"isfriend":0,"isfamily":0},{"id":"52328159212","owner":"123597211@N03","secret":"5850b3d358","server":"65535","farm":66,"title":"Siebenfarbentangare (Tangara chilensis)","ispublic":1,"isfriend":0,"isfamily":0},{"id":"52329112706","owner":"123597211@N03","secret":"9f2e59801c","server":"65535","farm":66,"title":"Siebenfarbentangare (Tangara chilensis)","ispublic":1,"isfriend":0,"isfamily":0},{"id":"52329541505","owner":"123597211@N03","secret":"4fec5a5aa0","server":"65535","farm":66,"title":"Siebenfarbentangare (Tangara chilensis)","ispublic":1,"isfriend":0,"isfamily":0},{"id":"52329112016","owner":"123597211@N03","secret":"7976fd28c6","server":"65535","farm":66,"title":"Siebenfarbentangare (Tangara chilensis)","ispublic":1,"isfriend":0,"isfamily":0},{"id":"52328122047","owner":"123597211@N03","secret":"0749346f59","server":"65535","farm":66,"title":"Siebenfarbentangare (Tangara chilensis)","ispublic":1,"isfriend":0,"isfamily":0},{"id":"52329074666","owner":"123597211@N03","secret":"993b4592a2","server":"65535","farm":66,"title":"Siebenfarbentangare (Tangara chilensis)","ispublic":1,"isfriend":0,"isfamily":0},{"id":"52329326183","owner":"123597211@N03","secret":"3efd54b3b3","server":"65535","farm":66,"title":"Siebenfarbentangare (Tangara chilensis)","ispublic":1,"isfriend":0,"isfamily":0},{"id":"52329325803","owner":"123597211@N03","secret":"17a71fd967","server":"65535","farm":66,"title":"Siebenfarbentangare (Tangara chilensis)","ispublic":1,"isfriend":0,"isfamily":0},{"id":"52329502740","owner":"123597211@N03","secret":"21c6df3fbb","server":"65535","farm":66,"title":"Siebenfarbentangare (Tangara chilensis)","ispublic":1,"isfriend":0,"isfamily":0},{"id":"52329325013","owner":"123597211@N03","secret":"0e6b68fb42","server":"65535","farm":66,"title":"Siebenfarbentangare (Tangara chilensis)","ispublic":1,"isfriend":0,"isfamily":0},{"id":"52329376164","owner":"123597211@N03","secret":"fd7475d7c0","server":"65535","farm":66,"title":"Siebenfarbentangare (Tangara chilensis)","ispublic":1,"isfriend":0,"isfamily":0},{"id":"52329324328","owner":"123597211@N03","secret":"99f21151cc","server":"65535","farm":66,"title":"Siebenfarbentangare (Tangara chilensis)","ispublic":1,"isfriend":0,"isfamily":0},{"id":"52329501185","owner":"123597211@N03","secret":"3ec2219a75","server":"65535","farm":66,"title":"Siebenfarbentangare (Tangara chilensis)","ispublic":1,"isfriend":0,"isfamily":0},{"id":"52329500765","owner":"123597211@N03","secret":"a0a0f855c5","server":"65535","farm":66,"title":"Siebenfarbentangare (Tangara chilensis)","ispublic":1,"isfriend":0,"isfamily":0},{"id":"52329070911","owner":"123597211@N03","secret":"9e3d156271","server":"65535","farm":66,"title":"Siebenfarbentangare (Tangara chilensis)","ispublic":1,"isfriend":0,"isfamily":0},{"id":"52329500025","owner":"123597211@N03","secret":"aecfd5ea40","server":"65535","farm":66,"title":"Siebenfarbentangare (Tangara chilensis)","ispublic":1,"isfriend":0,"isfamily":0},{"id":"52329499665","owner":"123597211@N03","secret":"e0ac4c7bf0","server":"65535","farm":66,"title":"Siebenfarbentangare (Tangara chilensis)","ispublic":1,"isfriend":0,"isfamily":0},{"id":"52329499210","owner":"123597211@N03","secret":"13580153e0","server":"65535","farm":66,"title":"Siebenfarbentangare (Tangara chilensis)","ispublic":1,"isfriend":0,"isfamily":0},{"id":"52329321268","owner":"123597211@N03","secret":"779d9eb3b8","server":"65535","farm":66,"title":"Siebenfarbentangare (Tangara chilensis)","ispublic":1,"isfriend":0,"isfamily":0},{"id":"52329068876","owner":"123597211@N03","secret":"2abaffe817","server":"65535","farm":66,"title":"Siebenfarbentangare (Tangara chilensis)","ispublic":1,"isfriend":0,"isfamily":0},{"id":"52329371629","owner":"123597211@N03","secret":"abff21246b","server":"65535","farm":66,"title":"Siebenfarbentangare (Tangara chilensis)","ispublic":1,"isfriend":0,"isfamily":0},{"id":"52227927779","owner":"45109166@N00","secret":"43731dd54c","server":"65535","farm":66,"title":"Tangara chilensis","ispublic":1,"isfriend":0,"isfamily":0},{"id":"52156328277","owner":"137365533@N05","secret":"a953296941","server":"65535","farm":66,"title":"Calliste septicolore (Tangara chilensis)","ispublic":1,"isfriend":0,"isfamily":0},{"id":"52117038214","owner":"14299517@N05","secret":"671f8599c2","server":"65535","farm":66,"title":"Birds of Panama - 8\/14","ispublic":1,"isfriend":0,"isfamily":0},{"id":"52116787386","owner":"14299517@N05","secret":"a313beaebd","server":"65535","farm":66,"title":"Birds of Panama - 6\/14","ispublic":1,"isfriend":0,"isfamily":0},{"id":"52115760797","owner":"14299517@N05","secret":"dc5ba7b999","server":"65535","farm":66,"title":"Birds of Panama - 12\/14","ispublic":1,"isfriend":0,"isfamily":0},{"id":"52117037959","owner":"14299517@N05","secret":"f8aaf6c2c5","server":"65535","farm":66,"title":"Birds of Panama - 11\/14","ispublic":1,"isfriend":0,"isfamily":0},{"id":"52116787076","owner":"14299517@N05","secret":"d33892d0c5","server":"65535","farm":66,"title":"Birds of Panama - 3\/14","ispublic":1,"isfriend":0,"isfamily":0},{"id":"52116787056","owner":"14299517@N05","secret":"6b0b179894","server":"65535","farm":66,"title":"Birds of Panama - 14\/14","ispublic":1,"isfriend":0,"isfamily":0},{"id":"52117037859","owner":"14299517@N05","secret":"6a44010884","server":"65535","farm":66,"title":"Birds of Panama - 9\/14","ispublic":1,"isfriend":0,"isfamily":0},{"id":"52047107255","owner":"49895863@N00","secret":"825b70c0b2","server":"65535","farm":66,"title":"Paradise Tanager (Tangara chilensis)","ispublic":1,"isfriend":0,"isfamily":0},{"id":"52047107195","owner":"49895863@N00","secret":"531fdbbc67","server":"65535","farm":66,"title":"Paradise Tanager (Tangara chilensis)","ispublic":1,"isfriend":0,"isfamily":0},{"id":"52046598051","owner":"49895863@N00","secret":"a109f8b63f","server":"65535","farm":66,"title":"Paradise Tanager (Tangara chilensis)","ispublic":1,"isfriend":0,"isfamily":0},{"id":"52046849924","owner":"49895863@N00","secret":"432af3d25c","server":"65535","farm":66,"title":"Paradise Tanager (Tangara chilensis)","ispublic":1,"isfriend":0,"isfamily":0},{"id":"51984500714","owner":"123597211@N03","secret":"97f0bdc965","server":"65535","farm":66,"title":"Siebenfarbentangare (Tangara chilensis)","ispublic":1,"isfriend":0,"isfamily":0},{"id":"51833666854","owner":"145824323@N05","secret":"ca8554ff36","server":"65535","farm":66,"title":"Paradise tanager (Tangara chilensis)","ispublic":1,"isfriend":0,"isfamily":0},{"id":"51834043710","owner":"145824323@N05","secret":"bce8e49ea0","server":"65535","farm":66,"title":"Paradise tanager (Tangara chilensis paradisea)","ispublic":1,"isfriend":0,"isfamily":0},{"id":"51833661334","owner":"145824323@N05","secret":"bbdaa9d7bf","server":"65535","farm":66,"title":"Paradise tanager (Tangara chilensis paradisea)","ispublic":1,"isfriend":0,"isfamily":0},{"id":"51584694462","owner":"145824323@N05","secret":"4d8c682e8b","server":"65535","farm":66,"title":"Paradise tanager (Tangara chilensis paradisea)","ispublic":1,"isfriend":0,"isfamily":0},{"id":"51584691532","owner":"145824323@N05","secret":"90dfa77374","server":"65535","farm":66,"title":"Paradise tanager (Tangara chilensis paradisea)","ispublic":1,"isfriend":0,"isfamily":0},{"id":"51585448521","owner":"145824323@N05","secret":"cb6c6d976a","server":"65535","farm":66,"title":"Paradise tanager (Tangara chilensis paradisea)","ispublic":1,"isfriend":0,"isfamily":0},{"id":"51584618382","owner":"145824323@N05","secret":"65836ac183","server":"65535","farm":66,"title":"Paradise tanager (Tangara chilensis paradisea)","ispublic":1,"isfriend":0,"isfamily":0},{"id":"51312562645","owner":"182492939@N08","secret":"77fd1cbc67","server":"65535","farm":66,"title":"_5ML1264-1_Tangara chilensis_Paradise Tanager_Tangara del Paraiso","ispublic":1,"isfriend":0,"isfamily":0},{"id":"50546148653","owner":"187917085@N02","secret":"48b78e41d2","server":"65535","farm":66,"title":"Tangara chilensis","ispublic":1,"isfriend":0,"isfamily":0},{"id":"50546878711","owner":"187917085@N02","secret":"0416988572","server":"65535","farm":66,"title":"Tangara chilensis","ispublic":1,"isfriend":0,"isfamily":0},{"id":"50341152156","owner":"145824323@N05","secret":"78a6a40152","server":"65535","farm":66,"title":"Paradise tanager (Tangara chilensis paradisea)","ispublic":1,"isfriend":0,"isfamily":0},{"id":"50340466288","owner":"145824323@N05","secret":"faa8228f52","server":"65535","farm":66,"title":"Paradise tanager (Tangara chilensis paradisea)","ispublic":1,"isfriend":0,"isfamily":0},{"id":"50340466038","owner":"145824323@N05","secret":"e12e346810","server":"65535","farm":66,"title":"Paradise tanager (Tangara chilensis paradisea)","ispublic":1,"isfriend":0,"isfamily":0}]},"stat":"ok"}