{"photos":{"page":1,"pages":400,"perpage":100,"total":39921,"photo":[{"id":"52746419737","owner":"27441280@N06","secret":"9f12e1f6f4","server":"65535","farm":66,"title":"Tolypocladium ophioglossoides (J.F. Gmel. : Fr.) C.A. Quandt et al. (A) \/ Cordyceps langue-de-serpent","ispublic":1,"isfriend":0,"isfamily":0},{"id":"52747192084","owner":"27441280@N06","secret":"e1c0b6c530","server":"65535","farm":66,"title":"Tolypocladium ophioglossoides (J.F. Gmel. : Fr.) C.A. Quandt et al. (B) \/ Cordyceps langue-de-serpent","ispublic":1,"isfriend":0,"isfamily":0},{"id":"52745801201","owner":"18337409@N03","secret":"516c027cf3","server":"65535","farm":66,"title":"SP X8554E A8 WALONG LOOP 4-17-83 V2","ispublic":1,"isfriend":0,"isfamily":0},{"id":"52745058262","owner":"18337409@N03","secret":"f874506066","server":"65535","farm":66,"title":"SF X8077E MOJAVE CA 2-20-83 CROP","ispublic":1,"isfriend":0,"isfamily":0},{"id":"52745010957","owner":"18337409@N03","secret":"251225f16e","server":"65535","farm":66,"title":"SF X5332E N OF MOJAVE CA 2-20-83","ispublic":1,"isfriend":0,"isfamily":0},{"id":"52741372607","owner":"54436738@N04","secret":"08243a76ba","server":"65535","farm":66,"title":"Verso il rifugio Passo Selle","ispublic":1,"isfriend":0,"isfamily":0},{"id":"52741625626","owner":"39383176@N03","secret":"33a28d14a5","server":"65535","farm":66,"title":"Blue Banded Eggfly - Hypolimnas alimena","ispublic":1,"isfriend":0,"isfamily":0},{"id":"52741625611","owner":"39383176@N03","secret":"8155035f48","server":"65535","farm":66,"title":"Blue Banded Eggfly - Hypolimnas alimena","ispublic":1,"isfriend":0,"isfamily":0},{"id":"52736970710","owner":"111574386@N06","secret":"b252357be0","server":"65535","farm":66,"title":"Arrhenes sp   80820","ispublic":1,"isfriend":0,"isfamily":0},{"id":"52735540685","owner":"39836272@N07","secret":"db779d7061","server":"65535","farm":66,"title":"Pounding up to Pando","ispublic":1,"isfriend":0,"isfamily":0},{"id":"52734511412","owner":"193573032@N04","secret":"612bda8f44","server":"65535","farm":66,"title":"Rails to blackberry bushes","ispublic":1,"isfriend":0,"isfamily":0},{"id":"52734228382","owner":"68466173@N02","secret":"4d67166cf8","server":"65535","farm":66,"title":"Eurasian Tree Sparrow (Passer montanus)","ispublic":1,"isfriend":0,"isfamily":0},{"id":"52732684022","owner":"12846252@N07","secret":"659556a1f5","server":"65535","farm":66,"title":"Item last","ispublic":1,"isfriend":0,"isfamily":0},{"id":"52732251699","owner":"33177258@N06","secret":"3ab57743a4","server":"65535","farm":66,"title":"SP, Keene CA Dec 1966","ispublic":1,"isfriend":0,"isfamily":0},{"id":"52731309496","owner":"12846252@N07","secret":"021a8f6423","server":"65535","farm":66,"title":"Eastbound Siskiyou Cab Hop","ispublic":1,"isfriend":0,"isfamily":0},{"id":"52726281211","owner":"67697126@N07","secret":"47ae5284de","server":"65535","farm":66,"title":"SPMW 4034 Gold Run, California 2","ispublic":1,"isfriend":0,"isfamily":0},{"id":"52726695635","owner":"67697126@N07","secret":"51a8bf3021","server":"65535","farm":66,"title":"SPMW 4034 Gold Run, California","ispublic":1,"isfriend":0,"isfamily":0},{"id":"52726695575","owner":"67697126@N07","secret":"1bf3d0b1a4","server":"65535","farm":66,"title":"SPMW 4034 Gold Run, California 3","ispublic":1,"isfriend":0,"isfamily":0},{"id":"52726695415","owner":"67697126@N07","secret":"dce60d424f","server":"65535","farm":66,"title":"SPMW 4030 Gold Run, California","ispublic":1,"isfriend":0,"isfamily":0},{"id":"52725759487","owner":"67697126@N07","secret":"77d55e9fa9","server":"65535","farm":66,"title":"SPMW 4030 Magra, California  3","ispublic":1,"isfriend":0,"isfamily":0},{"id":"52718308347","owner":"54436738@N04","secret":"03717a8e45","server":"65535","farm":66,"title":"Costabella e Cima Uomo","ispublic":1,"isfriend":0,"isfamily":0},{"id":"52717227251","owner":"82777798@N03","secret":"5faf9c369a","server":"65535","farm":66,"title":"Wet Snow","ispublic":1,"isfriend":0,"isfamily":0},{"id":"52715669907","owner":"94881763@N00","secret":"a473092b55","server":"65535","farm":66,"title":"SP E9 in Sacramento, CA","ispublic":1,"isfriend":0,"isfamily":0},{"id":"52710214546","owner":"41480692@N03","secret":"74cdb6cfa8","server":"65535","farm":66,"title":"PG_106389 | {Arcotis sp} flowers after rain against the sun","ispublic":1,"isfriend":0,"isfamily":0},{"id":"52709523759","owner":"151111185@N04","secret":"74ae5b624c","server":"65535","farm":66,"title":"Rotary Day Eve","ispublic":1,"isfriend":0,"isfamily":0},{"id":"52702844755","owner":"33177258@N06","secret":"a37aab1150","server":"65535","farm":66,"title":"SP, Santa Susana Pass Dec 1966","ispublic":1,"isfriend":0,"isfamily":0},{"id":"52702628049","owner":"33177258@N06","secret":"a8d6476d06","server":"65535","farm":66,"title":"SP, Santa Susana Pass Dec 1966","ispublic":1,"isfriend":0,"isfamily":0},{"id":"52701427796","owner":"149239290@N05","secret":"21223d1afb","server":"65535","farm":66,"title":"rodovia rio-santos - BR 101 - paraty-rj","ispublic":1,"isfriend":0,"isfamily":0},{"id":"52696172101","owner":"189420811@N04","secret":"dd48b18205","server":"65535","farm":66,"title":"Conserva\u00e7\u00e3o da biodiversidade: Mais 20 mutuns s\u00e3o reintegrados \u00e0 natureza em iniciativa da AUREN Energia na divisa entre MS e SP","ispublic":1,"isfriend":0,"isfamily":0},{"id":"52695321598","owner":"68466173@N02","secret":"3561729572","server":"65535","farm":66,"title":"Eurasian Tree Sparrow (Passer montanus)","ispublic":1,"isfriend":0,"isfamily":0},{"id":"52694586988","owner":"19369983@N06","secret":"f4befbd116","server":"65535","farm":66,"title":"Russula sp. - JML02243","ispublic":1,"isfriend":0,"isfamily":0},{"id":"52694288353","owner":"133876835@N08","secret":"18db977bb0","server":"65535","farm":66,"title":"Italy \/ Lombardy - Passo Nota","ispublic":1,"isfriend":0,"isfamily":0},{"id":"52691836284","owner":"197011482@N08","secret":"461f717402","server":"65535","farm":66,"title":"EX SP on the old CNW","ispublic":1,"isfriend":0,"isfamily":0},{"id":"52689695205","owner":"54100598@N08","secret":"26f3a32e73","server":"65535","farm":66,"title":"Green Sandpiper (Tringa ochropus)  & Greenshank (Tringa nebularia)","ispublic":1,"isfriend":0,"isfamily":0},{"id":"52688750637","owner":"54100598@N08","secret":"34fffb4d8d","server":"65535","farm":66,"title":"Green Sandpiper (Tringa ochropus)  & Greenshank (Tringa nebularia)","ispublic":1,"isfriend":0,"isfamily":0},{"id":"52688307714","owner":"71393709@N06","secret":"0d375365ef","server":"65535","farm":66,"title":"The watering hole for Sheryl, a resident adult Carrion crow (Corvus corone)  -  (Published by GETTY IMAGES)","ispublic":1,"isfriend":0,"isfamily":0},{"id":"52687840304","owner":"18337409@N03","secret":"b320f825b8","server":"65535","farm":66,"title":"SP XB&O4131E 4 EL CASCO BEAUMONT PASS 2-12-78","ispublic":1,"isfriend":0,"isfamily":0},{"id":"52687968570","owner":"18337409@N03","secret":"f31bcc4edf","server":"65535","farm":66,"title":"SP XB&O4131E 2 BEAUMONT PASS 2-12-78","ispublic":1,"isfriend":0,"isfamily":0},{"id":"52683961184","owner":"54436738@N04","secret":"426fbce0ee","server":"65535","farm":66,"title":"Creste rocciose","ispublic":1,"isfriend":0,"isfamily":0},{"id":"52682315735","owner":"127936451@N02","secret":"163eac56f3","server":"65535","farm":66,"title":"Passer montanus","ispublic":1,"isfriend":0,"isfamily":0},{"id":"52677906177","owner":"42541928@N03","secret":"b3b6c69bdc","server":"65535","farm":66,"title":"Jornal de Neg\u00f3cios - Empreendedorismo Feminino - Bruna Campos","ispublic":1,"isfriend":0,"isfamily":0},{"id":"52678704589","owner":"42541928@N03","secret":"2861591296","server":"65535","farm":66,"title":"Jornal de Neg\u00f3cios - Empreendedorismo Feminino - Bruna Campos","ispublic":1,"isfriend":0,"isfamily":0},{"id":"52678854085","owner":"42541928@N03","secret":"27bb13c4be","server":"65535","farm":66,"title":"Jornal de Neg\u00f3cios - Empreendedorismo Feminino - Bruna Campos","ispublic":1,"isfriend":0,"isfamily":0},{"id":"52678914378","owner":"42541928@N03","secret":"48648e4cd6","server":"65535","farm":66,"title":"Jornal de Neg\u00f3cios - Empreendedorismo Feminino - Bruna Campos","ispublic":1,"isfriend":0,"isfamily":0},{"id":"52678704444","owner":"42541928@N03","secret":"7bf2968fb0","server":"65535","farm":66,"title":"Jornal de Neg\u00f3cios - Empreendedorismo Feminino - Bruna Campos","ispublic":1,"isfriend":0,"isfamily":0},{"id":"52678704424","owner":"42541928@N03","secret":"54a77de007","server":"65535","farm":66,"title":"Jornal de Neg\u00f3cios - Empreendedorismo Feminino - Bruna Campos","ispublic":1,"isfriend":0,"isfamily":0},{"id":"52678914253","owner":"42541928@N03","secret":"c27db4819c","server":"65535","farm":66,"title":"Jornal de Neg\u00f3cios - Empreendedorismo Feminino - Bruna Campos","ispublic":1,"isfriend":0,"isfamily":0},{"id":"52678914223","owner":"42541928@N03","secret":"5058b18709","server":"65535","farm":66,"title":"Jornal de Neg\u00f3cios - Empreendedorismo Feminino - Bruna Campos","ispublic":1,"isfriend":0,"isfamily":0},{"id":"52678914183","owner":"42541928@N03","secret":"eeef2504d9","server":"65535","farm":66,"title":"Jornal de Neg\u00f3cios - Empreendedorismo Feminino - Bruna Campos","ispublic":1,"isfriend":0,"isfamily":0},{"id":"52677698769","owner":"39383176@N03","secret":"fb290948a6","server":"65535","farm":66,"title":"Blue Banded Eggfly - Hypolimnas alimena","ispublic":1,"isfriend":0,"isfamily":0},{"id":"52676975745","owner":"163254550@N04","secret":"afbc00739e","server":"65535","farm":66,"title":"MIDR investe mais de R$ 4,7 milh\u00f5es para recupera\u00e7\u00e3o de pontes em Araraquara (SP)","ispublic":1,"isfriend":0,"isfamily":0},{"id":"52677036623","owner":"163254550@N04","secret":"f5b888be8b","server":"65535","farm":66,"title":"MIDR investe mais de R$ 4,7 milh\u00f5es para recupera\u00e7\u00e3o de pontes em Araraquara (SP)","ispublic":1,"isfriend":0,"isfamily":0},{"id":"52676546321","owner":"163254550@N04","secret":"7f55e1d4ae","server":"65535","farm":66,"title":"MIDR investe mais de R$ 4,7 milh\u00f5es para recupera\u00e7\u00e3o de pontes em Araraquara (SP)","ispublic":1,"isfriend":0,"isfamily":0},{"id":"52676546236","owner":"163254550@N04","secret":"d8d8921fb9","server":"65535","farm":66,"title":"MIDR investe mais de R$ 4,7 milh\u00f5es para recupera\u00e7\u00e3o de pontes em Araraquara (SP)","ispublic":1,"isfriend":0,"isfamily":0},{"id":"52676975405","owner":"163254550@N04","secret":"2455ea0bcd","server":"65535","farm":66,"title":"MIDR investe mais de R$ 4,7 milh\u00f5es para recupera\u00e7\u00e3o de pontes em Araraquara (SP)","ispublic":1,"isfriend":0,"isfamily":0},{"id":"52676826379","owner":"163254550@N04","secret":"dcdb5909c8","server":"65535","farm":66,"title":"MIDR investe mais de R$ 4,7 milh\u00f5es para recupera\u00e7\u00e3o de pontes em Araraquara (SP)","ispublic":1,"isfriend":0,"isfamily":0},{"id":"52676975280","owner":"163254550@N04","secret":"972d59aa2e","server":"65535","farm":66,"title":"MIDR investe mais de R$ 4,7 milh\u00f5es para recupera\u00e7\u00e3o de pontes em Araraquara (SP)","ispublic":1,"isfriend":0,"isfamily":0},{"id":"52676975180","owner":"163254550@N04","secret":"e1b0404995","server":"65535","farm":66,"title":"MIDR investe mais de R$ 4,7 milh\u00f5es para recupera\u00e7\u00e3o de pontes em Araraquara (SP)","ispublic":1,"isfriend":0,"isfamily":0},{"id":"52676975120","owner":"163254550@N04","secret":"60ff342c96","server":"65535","farm":66,"title":"MIDR investe mais de R$ 4,7 milh\u00f5es para recupera\u00e7\u00e3o de pontes em Araraquara (SP)","ispublic":1,"isfriend":0,"isfamily":0},{"id":"52677036033","owner":"163254550@N04","secret":"45fb61ee88","server":"65535","farm":66,"title":"MIDR investe mais de R$ 4,7 milh\u00f5es para recupera\u00e7\u00e3o de pontes em Araraquara (SP)","ispublic":1,"isfriend":0,"isfamily":0},{"id":"52676826139","owner":"163254550@N04","secret":"1330acf100","server":"65535","farm":66,"title":"MIDR investe mais de R$ 4,7 milh\u00f5es para recupera\u00e7\u00e3o de pontes em Araraquara (SP)","ispublic":1,"isfriend":0,"isfamily":0},{"id":"52676545721","owner":"163254550@N04","secret":"c55094ecf5","server":"65535","farm":66,"title":"MIDR investe mais de R$ 4,7 milh\u00f5es para recupera\u00e7\u00e3o de pontes em Araraquara (SP)","ispublic":1,"isfriend":0,"isfamily":0},{"id":"52677035733","owner":"163254550@N04","secret":"0a99299cf3","server":"65535","farm":66,"title":"MIDR investe mais de R$ 4,7 milh\u00f5es para recupera\u00e7\u00e3o de pontes em Araraquara (SP)","ispublic":1,"isfriend":0,"isfamily":0},{"id":"52676035257","owner":"163254550@N04","secret":"08231d8ef1","server":"65535","farm":66,"title":"MIDR investe mais de R$ 4,7 milh\u00f5es para recupera\u00e7\u00e3o de pontes em Araraquara (SP)","ispublic":1,"isfriend":0,"isfamily":0},{"id":"52677038228","owner":"163254550@N04","secret":"10114da47d","server":"65535","farm":66,"title":"MIDR investe mais de R$ 4,7 milh\u00f5es para recupera\u00e7\u00e3o de pontes em Araraquara (SP)","ispublic":1,"isfriend":0,"isfamily":0},{"id":"52676977055","owner":"163254550@N04","secret":"a381b7d52c","server":"65535","farm":66,"title":"MIDR investe mais de R$ 4,7 milh\u00f5es para recupera\u00e7\u00e3o de pontes em Araraquara (SP)","ispublic":1,"isfriend":0,"isfamily":0},{"id":"52676976900","owner":"163254550@N04","secret":"10d5c71a7b","server":"65535","farm":66,"title":"MIDR investe mais de R$ 4,7 milh\u00f5es para recupera\u00e7\u00e3o de pontes em Araraquara (SP)","ispublic":1,"isfriend":0,"isfamily":0},{"id":"52677037993","owner":"163254550@N04","secret":"d7da0dc8ae","server":"65535","farm":66,"title":"MIDR investe mais de R$ 4,7 milh\u00f5es para recupera\u00e7\u00e3o de pontes em Araraquara (SP)","ispublic":1,"isfriend":0,"isfamily":0},{"id":"52676827894","owner":"163254550@N04","secret":"8135eae5b8","server":"65535","farm":66,"title":"MIDR investe mais de R$ 4,7 milh\u00f5es para recupera\u00e7\u00e3o de pontes em Araraquara (SP)","ispublic":1,"isfriend":0,"isfamily":0},{"id":"52677037843","owner":"163254550@N04","secret":"32836f4c08","server":"65535","farm":66,"title":"MIDR investe mais de R$ 4,7 milh\u00f5es para recupera\u00e7\u00e3o de pontes em Araraquara (SP)","ispublic":1,"isfriend":0,"isfamily":0},{"id":"52676547376","owner":"163254550@N04","secret":"9b9d2fb464","server":"65535","farm":66,"title":"MIDR investe mais de R$ 4,7 milh\u00f5es para recupera\u00e7\u00e3o de pontes em Araraquara (SP)","ispublic":1,"isfriend":0,"isfamily":0},{"id":"52676827569","owner":"163254550@N04","secret":"bb0d4480cf","server":"65535","farm":66,"title":"MIDR investe mais de R$ 4,7 milh\u00f5es para recupera\u00e7\u00e3o de pontes em Araraquara (SP)","ispublic":1,"isfriend":0,"isfamily":0},{"id":"52677037538","owner":"163254550@N04","secret":"59ec6e4a9b","server":"65535","farm":66,"title":"MIDR investe mais de R$ 4,7 milh\u00f5es para recupera\u00e7\u00e3o de pontes em Araraquara (SP)","ispublic":1,"isfriend":0,"isfamily":0},{"id":"52676547201","owner":"163254550@N04","secret":"e64bc3bc4d","server":"65535","farm":66,"title":"MIDR investe mais de R$ 4,7 milh\u00f5es para recupera\u00e7\u00e3o de pontes em Araraquara (SP)","ispublic":1,"isfriend":0,"isfamily":0},{"id":"52677037463","owner":"163254550@N04","secret":"c89d0a00f9","server":"65535","farm":66,"title":"MIDR investe mais de R$ 4,7 milh\u00f5es para recupera\u00e7\u00e3o de pontes em Araraquara (SP)","ispublic":1,"isfriend":0,"isfamily":0},{"id":"52734693598","owner":"193411376@N08","secret":"158f2aa5c3","server":"65535","farm":66,"title":"Voc\u00ea j\u00e1 tinha visto como \u00e9 a antiga fazenda Vassoural ela fica em em It\u00fa - SP - simplesmente umas das maravilhosas fazendas que visitei! ATEN\u00c7\u00c3O: O \u00faltimo post \u00e9 uma propaganda do novo e exclusivo Hotel Fazenda. Se quiser fazer parte de um de nossos passe","ispublic":1,"isfriend":0,"isfamily":0},{"id":"52676033982","owner":"163254550@N04","secret":"f337111ec4","server":"65535","farm":66,"title":"MIDR investe mais de R$ 4,7 milh\u00f5es para recupera\u00e7\u00e3o de pontes em Araraquara (SP)","ispublic":1,"isfriend":0,"isfamily":0},{"id":"52677036703","owner":"163254550@N04","secret":"9f39b6527a","server":"65535","farm":66,"title":"MIDR investe mais de R$ 4,7 milh\u00f5es para recupera\u00e7\u00e3o de pontes em Araraquara (SP)","ispublic":1,"isfriend":0,"isfamily":0},{"id":"52676826709","owner":"163254550@N04","secret":"4eda907dda","server":"65535","farm":66,"title":"MIDR investe mais de R$ 4,7 milh\u00f5es para recupera\u00e7\u00e3o de pontes em Araraquara (SP)","ispublic":1,"isfriend":0,"isfamily":0},{"id":"52676033797","owner":"163254550@N04","secret":"9371660f0f","server":"65535","farm":66,"title":"MIDR investe mais de R$ 4,7 milh\u00f5es para recupera\u00e7\u00e3o de pontes em Araraquara (SP)","ispublic":1,"isfriend":0,"isfamily":0},{"id":"52676975380","owner":"163254550@N04","secret":"1c7c49e250","server":"65535","farm":66,"title":"MIDR investe mais de R$ 4,7 milh\u00f5es para recupera\u00e7\u00e3o de pontes em Araraquara (SP)","ispublic":1,"isfriend":0,"isfamily":0},{"id":"52676033482","owner":"163254550@N04","secret":"0d0847387e","server":"65535","farm":66,"title":"MIDR investe mais de R$ 4,7 milh\u00f5es para recupera\u00e7\u00e3o de pontes em Araraquara (SP)","ispublic":1,"isfriend":0,"isfamily":0},{"id":"52676975215","owner":"163254550@N04","secret":"64a47a2f7f","server":"65535","farm":66,"title":"MIDR investe mais de R$ 4,7 milh\u00f5es para recupera\u00e7\u00e3o de pontes em Araraquara (SP)","ispublic":1,"isfriend":0,"isfamily":0},{"id":"52677036128","owner":"163254550@N04","secret":"b2605c761f","server":"65535","farm":66,"title":"MIDR investe mais de R$ 4,7 milh\u00f5es para recupera\u00e7\u00e3o de pontes em Araraquara (SP)","ispublic":1,"isfriend":0,"isfamily":0},{"id":"52676033157","owner":"163254550@N04","secret":"20ca78b5c8","server":"65535","farm":66,"title":"MIDR investe mais de R$ 4,7 milh\u00f5es para recupera\u00e7\u00e3o de pontes em Araraquara (SP)","ispublic":1,"isfriend":0,"isfamily":0},{"id":"52676545736","owner":"163254550@N04","secret":"0989a6d1f9","server":"65535","farm":66,"title":"MIDR investe mais de R$ 4,7 milh\u00f5es para recupera\u00e7\u00e3o de pontes em Araraquara (SP)","ispublic":1,"isfriend":0,"isfamily":0},{"id":"52676825974","owner":"163254550@N04","secret":"7c574f5413","server":"65535","farm":66,"title":"MIDR investe mais de R$ 4,7 milh\u00f5es para recupera\u00e7\u00e3o de pontes em Araraquara (SP)","ispublic":1,"isfriend":0,"isfamily":0},{"id":"52676974850","owner":"163254550@N04","secret":"cfafb910c0","server":"65535","farm":66,"title":"MIDR investe mais de R$ 4,7 milh\u00f5es para recupera\u00e7\u00e3o de pontes em Araraquara (SP)","ispublic":1,"isfriend":0,"isfamily":0},{"id":"52676545546","owner":"163254550@N04","secret":"8acd3afdba","server":"65535","farm":66,"title":"MIDR investe mais de R$ 4,7 milh\u00f5es para recupera\u00e7\u00e3o de pontes em Araraquara (SP)","ispublic":1,"isfriend":0,"isfamily":0},{"id":"52676545316","owner":"163254550@N04","secret":"dfceee0775","server":"65535","farm":66,"title":"MIDR investe mais de R$ 4,7 milh\u00f5es para recupera\u00e7\u00e3o de pontes em Araraquara (SP)","ispublic":1,"isfriend":0,"isfamily":0},{"id":"52677035438","owner":"163254550@N04","secret":"413504cf33","server":"65535","farm":66,"title":"MIDR investe mais de R$ 4,7 milh\u00f5es para recupera\u00e7\u00e3o de pontes em Araraquara (SP)","ispublic":1,"isfriend":0,"isfamily":0},{"id":"52677035478","owner":"163254550@N04","secret":"4b4d321671","server":"65535","farm":66,"title":"MIDR investe mais de R$ 4,7 milh\u00f5es para recupera\u00e7\u00e3o de pontes em Araraquara (SP)","ispublic":1,"isfriend":0,"isfamily":0},{"id":"52676974510","owner":"163254550@N04","secret":"66782df5fa","server":"65535","farm":66,"title":"MIDR investe mais de R$ 4,7 milh\u00f5es para recupera\u00e7\u00e3o de pontes em Araraquara (SP)","ispublic":1,"isfriend":0,"isfamily":0},{"id":"52677038308","owner":"163254550@N04","secret":"bf8ca6d246","server":"65535","farm":66,"title":"MIDR investe mais de R$ 4,7 milh\u00f5es para recupera\u00e7\u00e3o de pontes em Araraquara (SP)","ispublic":1,"isfriend":0,"isfamily":0},{"id":"52676977155","owner":"163254550@N04","secret":"b7ce33d444","server":"65535","farm":66,"title":"MIDR investe mais de R$ 4,7 milh\u00f5es para recupera\u00e7\u00e3o de pontes em Araraquara (SP)","ispublic":1,"isfriend":0,"isfamily":0},{"id":"52676828269","owner":"163254550@N04","secret":"d8b441fba7","server":"65535","farm":66,"title":"MIDR investe mais de R$ 4,7 milh\u00f5es para recupera\u00e7\u00e3o de pontes em Araraquara (SP)","ispublic":1,"isfriend":0,"isfamily":0},{"id":"52676827604","owner":"163254550@N04","secret":"e6ec1f068c","server":"65535","farm":66,"title":"MIDR investe mais de R$ 4,7 milh\u00f5es para recupera\u00e7\u00e3o de pontes em Araraquara (SP)","ispublic":1,"isfriend":0,"isfamily":0},{"id":"52676976435","owner":"163254550@N04","secret":"417305cd44","server":"65535","farm":66,"title":"MIDR investe mais de R$ 4,7 milh\u00f5es para recupera\u00e7\u00e3o de pontes em Araraquara (SP)","ispublic":1,"isfriend":0,"isfamily":0},{"id":"52677037503","owner":"163254550@N04","secret":"388465c44b","server":"65535","farm":66,"title":"MIDR investe mais de R$ 4,7 milh\u00f5es para recupera\u00e7\u00e3o de pontes em Araraquara (SP)","ispublic":1,"isfriend":0,"isfamily":0},{"id":"52676827374","owner":"163254550@N04","secret":"2e5a2abc52","server":"65535","farm":66,"title":"MIDR investe mais de R$ 4,7 milh\u00f5es para recupera\u00e7\u00e3o de pontes em Araraquara (SP)","ispublic":1,"isfriend":0,"isfamily":0}]},"stat":"ok"}