{"photos":{"page":1,"pages":2,"perpage":100,"total":104,"photo":[{"id":"52782869623","owner":"62043870@N05","secret":"89b4bc7b9b","server":"65535","farm":66,"title":"Pelagic Cormorant, Urile pelagicus","ispublic":1,"isfriend":0,"isfamily":0},{"id":"52771139318","owner":"40006638@N06","secret":"bd83591f53","server":"65535","farm":66,"title":"Pelagic Cormorants - 094A6171a3c3","ispublic":1,"isfriend":0,"isfamily":0},{"id":"52734432614","owner":"62043870@N05","secret":"24392b8e07","server":"65535","farm":66,"title":"Pelagic Cormorant, Urile pelagicus","ispublic":1,"isfriend":0,"isfamily":0},{"id":"52707410566","owner":"61396634@N07","secret":"2dc1f49703","server":"65535","farm":66,"title":"Pelagic Cormorant","ispublic":1,"isfriend":0,"isfamily":0},{"id":"52701734936","owner":"62043870@N05","secret":"eba86edf10","server":"65535","farm":66,"title":"Pelagic Cormorant, Urile pelagicus","ispublic":1,"isfriend":0,"isfamily":0},{"id":"52648019320","owner":"62043870@N05","secret":"9dcc97da7f","server":"65535","farm":66,"title":"Pelagic Cormorant, Urile pelagicus","ispublic":1,"isfriend":0,"isfamily":0},{"id":"52590276274","owner":"23859768@N04","secret":"641afc978a","server":"65535","farm":66,"title":"pelagic cormorant (Urile pelagicus)","ispublic":1,"isfriend":0,"isfamily":0},{"id":"52568484904","owner":"62043870@N05","secret":"eec4a609ba","server":"65535","farm":66,"title":"Pelagic Cormorant, Urile pelagicus","ispublic":1,"isfriend":0,"isfamily":0},{"id":"52445634422","owner":"196264892@N08","secret":"3fe6f6d794","server":"65535","farm":66,"title":"Pacific Loons","ispublic":1,"isfriend":0,"isfamily":0},{"id":"52274436477","owner":"196264892@N08","secret":"609f67a49a","server":"65535","farm":66,"title":"Pelagic Cormorant","ispublic":1,"isfriend":0,"isfamily":0},{"id":"52275429333","owner":"196264892@N08","secret":"ec0378b35e","server":"65535","farm":66,"title":"Pelagic Cormorant","ispublic":1,"isfriend":0,"isfamily":0},{"id":"52250327128","owner":"190923251@N05","secret":"cd0c097673","server":"65535","farm":66,"title":"Pelagic Cormorant","ispublic":1,"isfriend":0,"isfamily":0},{"id":"52244270135","owner":"144194136@N08","secret":"d3a44aa36d","server":"65535","farm":66,"title":"When It's Time to Relax","ispublic":1,"isfriend":0,"isfamily":0},{"id":"52131026074","owner":"67277069@N06","secret":"14830d245b","server":"65535","farm":66,"title":"Pelagic Cormorant---Urile pelagicus","ispublic":1,"isfriend":0,"isfamily":0},{"id":"52121573823","owner":"9638954@N07","secret":"4e7394987c","server":"65535","farm":66,"title":"Pelagic Cormorant","ispublic":1,"isfriend":0,"isfamily":0},{"id":"52120509137","owner":"9638954@N07","secret":"4afb6667e4","server":"65535","farm":66,"title":"Pelagic Cormorant","ispublic":1,"isfriend":0,"isfamily":0},{"id":"52105569387","owner":"67277069@N06","secret":"7675990420","server":"65535","farm":66,"title":"Pelagic Cormorant---Urile pelagicus","ispublic":1,"isfriend":0,"isfamily":0},{"id":"52067630733","owner":"131779834@N08","secret":"b4a827da75","server":"65535","farm":66,"title":"Flying to the nest","ispublic":1,"isfriend":0,"isfamily":0},{"id":"52045203189","owner":"28867468@N08","secret":"779ed1c3df","server":"65535","farm":66,"title":"Pelagic Cormorants Checking the Eggs","ispublic":1,"isfriend":0,"isfamily":0},{"id":"52014430524","owner":"67277069@N06","secret":"6d0a5aeb59","server":"65535","farm":66,"title":"Pelagic Cormorant---Urile pelagicus","ispublic":1,"isfriend":0,"isfamily":0},{"id":"51972725598","owner":"67277069@N06","secret":"9989920e12","server":"65535","farm":66,"title":"Pelagic Cormorant---Urile pelagicu","ispublic":1,"isfriend":0,"isfamily":0},{"id":"51873618680","owner":"36611483@N03","secret":"924fdfe3c5","server":"65535","farm":66,"title":"Red-faced Cormorant","ispublic":1,"isfriend":0,"isfamily":0},{"id":"51856354102","owner":"40006638@N06","secret":"10da19a7ec","server":"65535","farm":66,"title":"Pelagic Cormorant - 094A2290a1cb","ispublic":1,"isfriend":0,"isfamily":0},{"id":"51857393798","owner":"40006638@N06","secret":"b0d26c71c0","server":"65535","farm":66,"title":"Pelagic Cormorant - 094A2293a1cb","ispublic":1,"isfriend":0,"isfamily":0},{"id":"51857311276","owner":"40006638@N06","secret":"6667dbd52b","server":"65535","farm":66,"title":"Pelagic Cormorant - 094A2366a1cb","ispublic":1,"isfriend":0,"isfamily":0},{"id":"48412354266","owner":"54249623@N08","secret":"4b9e645e27","server":"65535","farm":66,"title":"Pelagic Cormorant (Phalacrocorax pelagicus) (Urile pelagicus)","ispublic":1,"isfriend":0,"isfamily":0},{"id":"48412338632","owner":"54249623@N08","secret":"d4959e2b46","server":"65535","farm":66,"title":"Pelagic Cormorant (Phalacrocorax pelagicus) (Urile pelagicus)","ispublic":1,"isfriend":0,"isfamily":0},{"id":"47953131823","owner":"9638954@N07","secret":"52931739dd","server":"65535","farm":66,"title":"Pelagic Cormorant","ispublic":1,"isfriend":0,"isfamily":0},{"id":"26705546099","owner":"34238008@N02","secret":"539fd7c023","server":"4526","farm":5,"title":"Red-faced Cormorant (Phalacrocorax urile) and Pelagic Cormorant (Phalacrocorax pelagicus)","ispublic":1,"isfriend":0,"isfamily":0},{"id":"26705543529","owner":"34238008@N02","secret":"967ba845fa","server":"4525","farm":5,"title":"Red-faced Cormorant (Phalacrocorax urile) and Pelagic Cormorant (Phalacrocorax pelagicus)","ispublic":1,"isfriend":0,"isfamily":0},{"id":"26705541209","owner":"34238008@N02","secret":"9841702bb5","server":"4552","farm":5,"title":"Red-faced Cormorant (Phalacrocorax urile) and Pelagic Cormorant (Phalacrocorax pelagicus)","ispublic":1,"isfriend":0,"isfamily":0},{"id":"27853668566","owner":"23326361@N04","secret":"d82e767a88","server":"7654","farm":8,"title":"Urile pelagicus Pelagic Cormorant","ispublic":1,"isfriend":0,"isfamily":0},{"id":"25056135873","owner":"23326361@N04","secret":"e77190c920","server":"1526","farm":2,"title":"Urile pelagicus Pelagic Cormorant","ispublic":1,"isfriend":0,"isfamily":0},{"id":"23090677419","owner":"23326361@N04","secret":"bbcb31193e","server":"663","farm":1,"title":"Urile pelagicus Pelagic Cormorant","ispublic":1,"isfriend":0,"isfamily":0},{"id":"23432489976","owner":"23326361@N04","secret":"770fe60b48","server":"5753","farm":6,"title":"Urile pelagicus Pelagic Cormorant","ispublic":1,"isfriend":0,"isfamily":0},{"id":"20192218671","owner":"23326361@N04","secret":"2c54d6646f","server":"324","farm":1,"title":"Urile pelagicus Pelagic Cormorant","ispublic":1,"isfriend":0,"isfamily":0},{"id":"20178414912","owner":"23326361@N04","secret":"d4d039eda6","server":"501","farm":1,"title":"Urile pelagicus Pelagic Cormorant on nest with nestlings","ispublic":1,"isfriend":0,"isfamily":0},{"id":"19484483256","owner":"23326361@N04","secret":"67939befc9","server":"491","farm":1,"title":"Urile pelagicus Pelagic Cormorant on nest with 3 eggs","ispublic":1,"isfriend":0,"isfamily":0},{"id":"18624021664","owner":"23326361@N04","secret":"311909a590","server":"559","farm":1,"title":"Urile pelagicus Pelagic Cormorant  on nest with an egg","ispublic":1,"isfriend":0,"isfamily":0},{"id":"17528660553","owner":"77659213@N02","secret":"a1140f5213","server":"7756","farm":8,"title":"Immature Red-faced Cormorant (Phalacrocorax urile)","ispublic":1,"isfriend":0,"isfamily":0},{"id":"12181981714","owner":"11815777@N07","secret":"94f7663596","server":"7422","farm":8,"title":"Hanging onto a cliffside","ispublic":1,"isfriend":0,"isfamily":0},{"id":"11030604995","owner":"9638954@N07","secret":"2e9638b381","server":"2883","farm":3,"title":"Pelagic Cormorant","ispublic":1,"isfriend":0,"isfamily":0},{"id":"10712551624","owner":"107784905@N04","secret":"ce9a0c5713","server":"3703","farm":4,"title":"Cormoran p\u00e9lagique - Monterey\/CA\/USA_20100407_003-1","ispublic":1,"isfriend":0,"isfamily":0},{"id":"6850236876","owner":"89053568@N00","secret":"8ce2d92b9e","server":"7231","farm":8,"title":"Pelagic Cormorants","ispublic":1,"isfriend":0,"isfamily":0},{"id":"6022169887","owner":"61021753@N02","secret":"91e48414e3","server":"6209","farm":7,"title":"n442_w1150","ispublic":1,"isfriend":0,"isfamily":0},{"id":"5674258140","owner":"11815777@N07","secret":"22333214cf","server":"5068","farm":6,"title":"Pelagic cormorant next to nest","ispublic":1,"isfriend":0,"isfamily":0},{"id":"3724763906","owner":"72153941@N00","secret":"ff2974eaeb","server":"2544","farm":3,"title":"Red-faced Cormorant, Seward, Alaska","ispublic":1,"isfriend":0,"isfamily":0},{"id":"52696076953","owner":"62043870@N05","secret":"81353f5f48","server":"65535","farm":66,"title":"Pelagic Cormorant, Urile pelagicus","ispublic":1,"isfriend":0,"isfamily":0},{"id":"52589528382","owner":"23859768@N04","secret":"1f07c3b011","server":"65535","farm":66,"title":"pelagic cormorant (Urile pelagicus)","ispublic":1,"isfriend":0,"isfamily":0},{"id":"52589528312","owner":"23859768@N04","secret":"85b374167b","server":"65535","farm":66,"title":"pelagic cormorant (Urile pelagicus)","ispublic":1,"isfriend":0,"isfamily":0},{"id":"52590276489","owner":"23859768@N04","secret":"7ca97c103b","server":"65535","farm":66,"title":"pelagic cormorant (Urile pelagicus)","ispublic":1,"isfriend":0,"isfamily":0},{"id":"52590276434","owner":"23859768@N04","secret":"7f019c92fa","server":"65535","farm":66,"title":"pelagic cormorant (Urile pelagicus)","ispublic":1,"isfriend":0,"isfamily":0},{"id":"52590441370","owner":"23859768@N04","secret":"066204c22f","server":"65535","farm":66,"title":"pelagic cormorant (Urile pelagicus)","ispublic":1,"isfriend":0,"isfamily":0},{"id":"52590441300","owner":"23859768@N04","secret":"af85634df8","server":"65535","farm":66,"title":"pelagic cormorant (Urile pelagicus)","ispublic":1,"isfriend":0,"isfamily":0},{"id":"52590013061","owner":"23859768@N04","secret":"48d351a988","server":"65535","farm":66,"title":"pelagic cormorant (Urile pelagicus)","ispublic":1,"isfriend":0,"isfamily":0},{"id":"52590276314","owner":"23859768@N04","secret":"13243542eb","server":"65535","farm":66,"title":"pelagic cormorant (Urile pelagicus)","ispublic":1,"isfriend":0,"isfamily":0},{"id":"52589528157","owner":"23859768@N04","secret":"2499ac8eb9","server":"65535","farm":66,"title":"pelagic cormorant (Urile pelagicus)","ispublic":1,"isfriend":0,"isfamily":0},{"id":"52590268614","owner":"23859768@N04","secret":"27057e717e","server":"65535","farm":66,"title":"pelagic cormorant (Urile pelagicus)","ispublic":1,"isfriend":0,"isfamily":0},{"id":"52590268584","owner":"23859768@N04","secret":"afe4b8ca54","server":"65535","farm":66,"title":"pelagic cormorant (Urile pelagicus)","ispublic":1,"isfriend":0,"isfamily":0},{"id":"52589502617","owner":"23859768@N04","secret":"2f913ac062","server":"65535","farm":66,"title":"paelagic cormorant (Urile pelagicus)","ispublic":1,"isfriend":0,"isfamily":0},{"id":"52590247389","owner":"23859768@N04","secret":"942b3efc67","server":"65535","farm":66,"title":"pelagic cormorant (Urile pelagicus), with fish prey - Icy Strait Pointe, Alaska","ispublic":1,"isfriend":0,"isfamily":0},{"id":"52590412195","owner":"23859768@N04","secret":"5e773c0098","server":"65535","farm":66,"title":"pelagic cormorant (Urile pelagicus), with fish prey - Icy Strait Pointe, Alaska","ispublic":1,"isfriend":0,"isfamily":0},{"id":"52590412150","owner":"23859768@N04","secret":"cfa3359db4","server":"65535","farm":66,"title":"pelagic cormorant (Urile pelagicus), with fish prey - Icy Strait Pointe, Alaska","ispublic":1,"isfriend":0,"isfamily":0},{"id":"52590247209","owner":"23859768@N04","secret":"4203dc61fe","server":"65535","farm":66,"title":"pelagic cormorant (Urile pelagicus), with fish prey - Icy Strait Pointe, Alaska","ispublic":1,"isfriend":0,"isfamily":0},{"id":"52590500043","owner":"23859768@N04","secret":"04c83d35d7","server":"65535","farm":66,"title":"pelagic cormorant (Urile pelagicus), with fish prey (swallowed) - Icy Strait Pointe, Alaska","ispublic":1,"isfriend":0,"isfamily":0},{"id":"52589498432","owner":"23859768@N04","secret":"fc180d4c7c","server":"65535","farm":66,"title":"pelagic cormorant (Urile pelagicus), with fish prey (swallowed) - Icy Strait Pointe, Alaska","ispublic":1,"isfriend":0,"isfamily":0},{"id":"52589446152","owner":"23859768@N04","secret":"69603fed3e","server":"65535","farm":66,"title":"pelagic cormorant (Urile pelagicus)","ispublic":1,"isfriend":0,"isfamily":0},{"id":"52580676909","owner":"153973412@N04","secret":"6ee3540cd3","server":"65535","farm":66,"title":"Pelagic Cormorant-Urile pelagicus, Monterey, CA","ispublic":1,"isfriend":0,"isfamily":0},{"id":"52555352336","owner":"109544413@N05","secret":"f8a85a6f7a","server":"65535","farm":66,"title":"Pelagic Cormorant","ispublic":1,"isfriend":0,"isfamily":0},{"id":"52554893157","owner":"109544413@N05","secret":"f6d86c3890","server":"65535","farm":66,"title":"Pelagic Cormorants","ispublic":1,"isfriend":0,"isfamily":0},{"id":"52391944135","owner":"196264892@N08","secret":"6073fbf60e","server":"65535","farm":66,"title":"Pelagic Cormorant swallowing fish","ispublic":1,"isfriend":0,"isfamily":0},{"id":"52353813974","owner":"196264892@N08","secret":"488d69a04a","server":"65535","farm":66,"title":"Pelagic and DC Cormorants","ispublic":1,"isfriend":0,"isfamily":0},{"id":"52258676182","owner":"123979267@N05","secret":"7bc7671f54","server":"65535","farm":66,"title":"Chris rescues a Pelagic Cormorant","ispublic":1,"isfriend":0,"isfamily":0},{"id":"52219547395","owner":"62043870@N05","secret":"b0994f75e8","server":"65535","farm":66,"title":"Pelagic Cormorant, Urile pelagicus","ispublic":1,"isfriend":0,"isfamily":0},{"id":"52112881176","owner":"193330215@N06","secret":"018a429540","server":"65535","farm":66,"title":"Pelagic Cormorant","ispublic":1,"isfriend":0,"isfamily":0},{"id":"51537608819","owner":"186116188@N07","secret":"535ff61564","server":"65535","farm":66,"title":"Pelagic cormorant, Urile pelagicus, with a Goby fish","ispublic":1,"isfriend":0,"isfamily":0},{"id":"51537805670","owner":"186116188@N07","secret":"127b1fe2c9","server":"65535","farm":66,"title":"Pelagic cormorant, Urile pelagicus, with a Goby fish","ispublic":1,"isfriend":0,"isfamily":0},{"id":"51537546304","owner":"186116188@N07","secret":"f26b49032d","server":"65535","farm":66,"title":"Pelagic cormorant, Urile pelagicus, with a Goby fish","ispublic":1,"isfriend":0,"isfamily":0},{"id":"51537747250","owner":"186116188@N07","secret":"e725fe5d1b","server":"65535","farm":66,"title":"Pelagic cormorant, Urile pelagicus, with a Goby fish","ispublic":1,"isfriend":0,"isfamily":0},{"id":"51537064008","owner":"186116188@N07","secret":"0a41a5961d","server":"65535","farm":66,"title":"Pelagic cormorant, Urile pelagicus, with a Goby fish","ispublic":1,"isfriend":0,"isfamily":0},{"id":"51534257281","owner":"186116188@N07","secret":"8f444cc04f","server":"65535","farm":66,"title":"Pelagic cormorant, Urile pelagicus, with a Goby fish","ispublic":1,"isfriend":0,"isfamily":0},{"id":"51444762984","owner":"49465440@N07","secret":"703553951f","server":"65535","farm":66,"title":"Pelagic Cormorant","ispublic":1,"isfriend":0,"isfamily":0},{"id":"47990995658","owner":"80746425@N00","secret":"9a29f83c00","server":"65535","farm":66,"title":"Pelagic Cormorant - Urile pelagicus pelagicus","ispublic":1,"isfriend":0,"isfamily":0},{"id":"47991045391","owner":"80746425@N00","secret":"b622651a3e","server":"65535","farm":66,"title":"Pelagic Cormorant - Urile pelagicus pelagicus","ispublic":1,"isfriend":0,"isfamily":0},{"id":"47991045281","owner":"80746425@N00","secret":"0c14fc6e42","server":"65535","farm":66,"title":"Pelagic Cormorant - Urile pelagicus pelagicus","ispublic":1,"isfriend":0,"isfamily":0},{"id":"47958879477","owner":"80746425@N00","secret":"62276f68b6","server":"65535","farm":66,"title":"Pelagic Cormorant - Urile pelagicus pelagicus","ispublic":1,"isfriend":0,"isfamily":0},{"id":"27793446657","owner":"12639178@N07","secret":"3eef07d7b5","server":"1722","farm":2,"title":"Gruppenbild mit Meerscharben und einer Ohrenscharbe (Mitte)","ispublic":1,"isfriend":0,"isfamily":0},{"id":"34500227575","owner":"9638954@N07","secret":"63f572b8ca","server":"4176","farm":5,"title":"Pelagic Cormorant","ispublic":1,"isfriend":0,"isfamily":0},{"id":"26791073003","owner":"23326361@N04","secret":"a86c6559e1","server":"7192","farm":8,"title":"Urile pelagicus Pelagic Cormorant","ispublic":1,"isfriend":0,"isfamily":0},{"id":"26370914063","owner":"32752434@N07","secret":"5213014aa7","server":"65535","farm":66,"title":"Pelagic Cormorant (Urile pelagicus)","ispublic":1,"isfriend":0,"isfamily":0},{"id":"16367143972","owner":"9638954@N07","secret":"129df8b674","server":"7312","farm":8,"title":"Pelagic Cormorant","ispublic":1,"isfriend":0,"isfamily":0},{"id":"10712569316","owner":"107784905@N04","secret":"7decce51f8","server":"5548","farm":6,"title":"Cormoran p\u00e9lagique - Marina del Rey\/CA\/USA_20100410_002-1","ispublic":1,"isfriend":0,"isfamily":0},{"id":"10712563786","owner":"107784905@N04","secret":"095e9eb9b9","server":"2862","farm":3,"title":"Cormoran p\u00e9lagique - Monterey\/CA\/USA_20100407_006-1_hum","ispublic":1,"isfriend":0,"isfamily":0},{"id":"9488379528","owner":"80746425@N00","secret":"aac5ab6eca","server":"5496","farm":6,"title":"181_Pelagic Cormorant - breeding - Urile pelagicus resplendens","ispublic":1,"isfriend":0,"isfamily":0},{"id":"7634794738","owner":"9638954@N07","secret":"323ac8f5b7","server":"8153","farm":9,"title":"Pelagic Cormorant","ispublic":1,"isfriend":0,"isfamily":0},{"id":"7281531402","owner":"28011712@N07","secret":"6f1905db9f","server":"8167","farm":9,"title":"Red-faced and Pelagic Cormorants","ispublic":1,"isfriend":0,"isfamily":0},{"id":"7222326098","owner":"68672476@N00","secret":"ab17ea7416","server":"7087","farm":8,"title":"Red-faced Cormorant with Pelagic Cormorants","ispublic":1,"isfriend":0,"isfamily":0},{"id":"4214733664","owner":"11815777@N07","secret":"c139feb5c3","server":"2751","farm":3,"title":"Juvenile Pelagic cormorant,Phalacrocorax pelagicus","ispublic":1,"isfriend":0,"isfamily":0},{"id":"4207617680","owner":"11815777@N07","secret":"0abb5511f0","server":"2549","farm":3,"title":"Pelagic cormorant, Phalacrocorax pelagicus","ispublic":1,"isfriend":0,"isfamily":0},{"id":"3825845945","owner":"9217109@N04","secret":"b9da875977","server":"2428","farm":3,"title":"Red-faced Cormorant","ispublic":1,"isfriend":0,"isfamily":0}]},"stat":"ok"}