{"photos":{"page":1,"pages":311,"perpage":100,"total":31035,"photo":[{"id":"52724241405","owner":"116208073@N07","secret":"870036705c","server":"65535","farm":66,"title":"Slechtvalk - Peregrine Falcon - Falco peregrinus - 1571","ispublic":1,"isfriend":0,"isfamily":0},{"id":"52721178091","owner":"138455529@N07","secret":"45e631b9e9","server":"65535","farm":66,"title":"Falco peregrinus \/ Peregrine \/ Slechtvalk","ispublic":1,"isfriend":0,"isfamily":0},{"id":"52720848883","owner":"23939795@N04","secret":"3d8b95f00e","server":"65535","farm":66,"title":"Peregrine Pair 5118","ispublic":1,"isfriend":0,"isfamily":0},{"id":"52717764548","owner":"183210910@N04","secret":"b7dd477ff0","server":"65535","farm":66,"title":"Peregrine Falcon - Falco peregrinus","ispublic":1,"isfriend":0,"isfamily":0},{"id":"52717707135","owner":"183210910@N04","secret":"a1d8ef2084","server":"65535","farm":66,"title":"Peregrine Falcon - Falco peregrinus","ispublic":1,"isfriend":0,"isfamily":0},{"id":"52716822474","owner":"33319209@N02","secret":"60e20d2b5f","server":"65535","farm":66,"title":"","ispublic":1,"isfriend":0,"isfamily":0},{"id":"52716701743","owner":"12639178@N07","secret":"80781e36df","server":"65535","farm":66,"title":"Gefahr vorerst vorbei ..","ispublic":1,"isfriend":0,"isfamily":0},{"id":"52715655812","owner":"12639178@N07","secret":"627e5495b2","server":"65535","farm":66,"title":"Anwartender Wanderfalkenterzel, bereit zum Steilsto\u00df","ispublic":1,"isfriend":0,"isfamily":0},{"id":"52716604305","owner":"12639178@N07","secret":"bc0536e4a9","server":"65535","farm":66,"title":"Ein schrecklicher Anblick (f\u00fcr einen Vogel im Luftraum)","ispublic":1,"isfriend":0,"isfamily":0},{"id":"52716064951","owner":"183210910@N04","secret":"6606d03f15","server":"65535","farm":66,"title":"Peregrine Falcon - Falco peregrinus","ispublic":1,"isfriend":0,"isfamily":0},{"id":"52715396077","owner":"183210910@N04","secret":"db65319a50","server":"65535","farm":66,"title":"Peregrine Falcon - Falco peregrinus","ispublic":1,"isfriend":0,"isfamily":0},{"id":"52716175139","owner":"183210910@N04","secret":"27a40d2f13","server":"65535","farm":66,"title":"Peregrine Falcon - Falco peregrinus","ispublic":1,"isfriend":0,"isfamily":0},{"id":"52716281843","owner":"46837385@N03","secret":"64986c49d2","server":"65535","farm":66,"title":"Peregrine Falcon Glare","ispublic":1,"isfriend":0,"isfamily":0},{"id":"52715756839","owner":"12639178@N07","secret":"ea4224272e","server":"65535","farm":66,"title":"evtl. Wanderfalke?","ispublic":1,"isfriend":0,"isfamily":0},{"id":"52715978083","owner":"12639178@N07","secret":"79ab4d6fc5","server":"65535","farm":66,"title":"evtl. Wanderfalke?","ispublic":1,"isfriend":0,"isfamily":0},{"id":"52715717769","owner":"183210910@N04","secret":"ed45f16706","server":"65535","farm":66,"title":"Peregrine Falcon - Falco peregrinus","ispublic":1,"isfriend":0,"isfamily":0},{"id":"52715883280","owner":"183210910@N04","secret":"4d1e4d7c42","server":"65535","farm":66,"title":"Peregrine Falcon - Falco peregrinus","ispublic":1,"isfriend":0,"isfamily":0},{"id":"52715882735","owner":"183210910@N04","secret":"299dc59b25","server":"65535","farm":66,"title":"Peregrine Falcon - Falco peregrinus","ispublic":1,"isfriend":0,"isfamily":0},{"id":"52715779808","owner":"28845654@N08","secret":"9728abd675","server":"65535","farm":66,"title":"PEREGRINE FALCON 10","ispublic":1,"isfriend":0,"isfamily":0},{"id":"52714420692","owner":"135328172@N06","secret":"38319a97ae","server":"65535","farm":66,"title":"Falco peregrinus - Peregrine Falcon","ispublic":1,"isfriend":0,"isfamily":0},{"id":"52715201909","owner":"135328172@N06","secret":"669c93544a","server":"65535","farm":66,"title":"Falco peregrinus - Peregrine Falcon","ispublic":1,"isfriend":0,"isfamily":0},{"id":"52714941111","owner":"135328172@N06","secret":"f7eee57f5e","server":"65535","farm":66,"title":"Falco peregrinus - Peregrine Falcon","ispublic":1,"isfriend":0,"isfamily":0},{"id":"52714419387","owner":"135328172@N06","secret":"55bdf73770","server":"65535","farm":66,"title":"Falco peregrinus - Peregrine Falcon","ispublic":1,"isfriend":0,"isfamily":0},{"id":"52714419177","owner":"135328172@N06","secret":"838d10e1e5","server":"65535","farm":66,"title":"Falco peregrinus - Peregrine Falcon","ispublic":1,"isfriend":0,"isfamily":0},{"id":"52714418927","owner":"135328172@N06","secret":"b8fb6ccbb4","server":"65535","farm":66,"title":"Falco peregrinus - Peregrine Falcon","ispublic":1,"isfriend":0,"isfamily":0},{"id":"52715193004","owner":"131301995@N02","secret":"8f6f9efc9b","server":"65535","farm":66,"title":"Halc\u00f3n peregrino (Falco peregrinus)","ispublic":1,"isfriend":0,"isfamily":0},{"id":"52714046181","owner":"14829919@N00","secret":"7d990613b9","server":"65535","farm":66,"title":"2023-02-10_FauconPelerin_1944","ispublic":1,"isfriend":0,"isfamily":0},{"id":"52713430504","owner":"36685968@N00","secret":"0835766d79","server":"65535","farm":66,"title":"Peregrine Falcon (Falco peregrinus)","ispublic":1,"isfriend":0,"isfamily":0},{"id":"52713169431","owner":"36685968@N00","secret":"fc1c9ee34b","server":"65535","farm":66,"title":"Peregrine Falcon (Falco peregrinus)","ispublic":1,"isfriend":0,"isfamily":0},{"id":"52712647717","owner":"36685968@N00","secret":"1a2a60142b","server":"65535","farm":66,"title":"Peregrine Falcon (Falco peregrinus)","ispublic":1,"isfriend":0,"isfamily":0},{"id":"52713428959","owner":"36685968@N00","secret":"318604edda","server":"65535","farm":66,"title":"Peregrine Falcon (Falco peregrinus)","ispublic":1,"isfriend":0,"isfamily":0},{"id":"52712741893","owner":"58280154@N07","secret":"94ba4b1f21","server":"65535","farm":66,"title":"Peregrine nestbox, nichoir \u00e0 Faucons p\u00e8lerins (Falco peregrinus), Aubel, BELGIUM - 12\/02\/2023","ispublic":1,"isfriend":0,"isfamily":0},{"id":"52712741828","owner":"58280154@N07","secret":"6fff63dbfb","server":"65535","farm":66,"title":"Peregrine nestbox, nichoir \u00e0 Faucons p\u00e8lerins (Falco peregrinus), Aubel, BELGIUM - 12\/02\/2023","ispublic":1,"isfriend":0,"isfamily":0},{"id":"52712264111","owner":"58280154@N07","secret":"59ec4d5fb1","server":"65535","farm":66,"title":"Peregrine nestbox, nichoir \u00e0 Faucons p\u00e8lerins (Falco peregrinus), Aubel, BELGIUM - 12\/02\/2023","ispublic":1,"isfriend":0,"isfamily":0},{"id":"52711648200","owner":"12639178@N07","secret":"ff9d4ccf6e","server":"65535","farm":66,"title":"Adulter Wanderfalke","ispublic":1,"isfriend":0,"isfamily":0},{"id":"52711648035","owner":"12639178@N07","secret":"1dcfb96634","server":"65535","farm":66,"title":"Adulter Wanderfalke","ispublic":1,"isfriend":0,"isfamily":0},{"id":"52711706003","owner":"12639178@N07","secret":"afc57abcc7","server":"65535","farm":66,"title":"Adulter Wanderfalke","ispublic":1,"isfriend":0,"isfamily":0},{"id":"52711227476","owner":"12639178@N07","secret":"cb23131367","server":"65535","farm":66,"title":"Adulter Wanderfalke","ispublic":1,"isfriend":0,"isfamily":0},{"id":"52710789493","owner":"92374457@N07","secret":"40d0114bea","server":"65535","farm":66,"title":"Peregrine Falcon (Falco peregrinus brookei)","ispublic":1,"isfriend":0,"isfamily":0},{"id":"52707601257","owner":"107784905@N04","secret":"471b136d08","server":"65535","farm":66,"title":"Faucon p\u00e8lerin - Saint-Aubin\/Fribourg\/CH_20230121_032-1","ispublic":1,"isfriend":0,"isfamily":0},{"id":"52707659319","owner":"61396634@N07","secret":"cd5db5c8a0","server":"65535","farm":66,"title":"Peregrine Falcon","ispublic":1,"isfriend":0,"isfamily":0},{"id":"52706361568","owner":"95795254@N02","secret":"fc0ee4fd4a","server":"65535","farm":66,"title":"Peregrine Falcon 503_6643.jpg","ispublic":1,"isfriend":0,"isfamily":0},{"id":"52705026375","owner":"146359542@N05","secret":"48f8e4c924","server":"65535","farm":66,"title":"Faucon p\u00e8lerin vol 230222-02-RS","ispublic":1,"isfriend":0,"isfamily":0},{"id":"52704955980","owner":"146359542@N05","secret":"89fe753f2f","server":"65535","farm":66,"title":"Faucon p\u00e8lerin 230222-03-RS","ispublic":1,"isfriend":0,"isfamily":0},{"id":"52705019898","owner":"146359542@N05","secret":"2c6c78301f","server":"65535","farm":66,"title":"Faucon p\u00e8lerin 230222-01","ispublic":1,"isfriend":0,"isfamily":0},{"id":"52704007477","owner":"146359542@N05","secret":"9187b58150","server":"65535","farm":66,"title":"Faucon p\u00e8lerin 230222-02-RS","ispublic":1,"isfriend":0,"isfamily":0},{"id":"52703808351","owner":"67277069@N06","secret":"007dd1c046","server":"65535","farm":66,"title":"Peregrine Falcon---Falco peregrinus","ispublic":1,"isfriend":0,"isfamily":0},{"id":"52703923460","owner":"12639178@N07","secret":"1dea57a55b","server":"65535","farm":66,"title":"Belgfoto: Wanderfalkenpaar","ispublic":1,"isfriend":0,"isfamily":0},{"id":"52703923350","owner":"12639178@N07","secret":"d6499cf8dc","server":"65535","farm":66,"title":"Adulte Wanderfalkendame","ispublic":1,"isfriend":0,"isfamily":0},{"id":"52702968752","owner":"12639178@N07","secret":"5f47eaa1d4","server":"65535","farm":66,"title":"Adulte Wanderfalkendame","ispublic":1,"isfriend":0,"isfamily":0},{"id":"52703975488","owner":"12639178@N07","secret":"b477529831","server":"65535","farm":66,"title":"Adulte Wanderfalkendame","ispublic":1,"isfriend":0,"isfamily":0},{"id":"52702255712","owner":"74056977@N07","secret":"56a75ed5cc","server":"65535","farm":66,"title":"Peregrine Falcon (Falco peregrinus)","ispublic":1,"isfriend":0,"isfamily":0},{"id":"52700608873","owner":"29858032@N05","secret":"5af397a5a4","server":"65535","farm":66,"title":"Peregrin Falcon - Falco peregrinus","ispublic":1,"isfriend":0,"isfamily":0},{"id":"52700096745","owner":"167692045@N07","secret":"d6883e71e5","server":"65535","farm":66,"title":"faucon p\u00e8lerin \/ Falco peregrinus 23C_6867","ispublic":1,"isfriend":0,"isfamily":0},{"id":"52698596721","owner":"49788393@N05","secret":"dd1e9fa71d","server":"65535","farm":66,"title":"Peregrine Falcon \/ Faucon p\u00e8lerin \/ Falco peregrinus","ispublic":1,"isfriend":0,"isfamily":0},{"id":"52699017508","owner":"16582147@N07","secret":"d950bd822e","server":"65535","farm":66,"title":"peregrine 6616","ispublic":1,"isfriend":0,"isfamily":0},{"id":"52698730329","owner":"16582147@N07","secret":"0795bd122e","server":"65535","farm":66,"title":"peregrine 6614","ispublic":1,"isfriend":0,"isfamily":0},{"id":"52697937017","owner":"16582147@N07","secret":"e99efd12c1","server":"65535","farm":66,"title":"peregrine 6613","ispublic":1,"isfriend":0,"isfamily":0},{"id":"52697917647","owner":"16582147@N07","secret":"a7fa3eb9c4","server":"65535","farm":66,"title":"peregrine 6611","ispublic":1,"isfriend":0,"isfamily":0},{"id":"52698070679","owner":"184523789@N08","secret":"0f1c090d44","server":"65535","farm":66,"title":"Faucon p\u00e8lerin - Peregrine Falcon - Falco peregrinus","ispublic":1,"isfriend":0,"isfamily":0},{"id":"52698302798","owner":"184523789@N08","secret":"9a70058a12","server":"65535","farm":66,"title":"Faucon p\u00e8lerin - Peregrine Falcon - Falco peregrinus","ispublic":1,"isfriend":0,"isfamily":0},{"id":"52698302703","owner":"184523789@N08","secret":"a1d30abe23","server":"65535","farm":66,"title":"Faucon p\u00e8lerin - Peregrine Falcon - Falco peregrinus","ispublic":1,"isfriend":0,"isfamily":0},{"id":"52697293932","owner":"184523789@N08","secret":"00ebe55482","server":"65535","farm":66,"title":"Faucon p\u00e8lerin - Peregrine Falcon - Falco peregrinus","ispublic":1,"isfriend":0,"isfamily":0},{"id":"52697809501","owner":"184523789@N08","secret":"23ae27fc99","server":"65535","farm":66,"title":"Faucon p\u00e8lerin - Peregrine Falcon - Falco peregrinus","ispublic":1,"isfriend":0,"isfamily":0},{"id":"52697293682","owner":"184523789@N08","secret":"5ce861234a","server":"65535","farm":66,"title":"Faucon p\u00e8lerin - Peregrine Falcon - Falco peregrinus","ispublic":1,"isfriend":0,"isfamily":0},{"id":"52698227415","owner":"184523789@N08","secret":"a7287d0812","server":"65535","farm":66,"title":"Faucon p\u00e8lerin - Peregrine Falcon - Falco peregrinus","ispublic":1,"isfriend":0,"isfamily":0},{"id":"52697918823","owner":"7200351@N08","secret":"2fb6802e1f","server":"65535","farm":66,"title":"Falco peregrinus ernesti","ispublic":1,"isfriend":0,"isfamily":0},{"id":"52696910252","owner":"7200351@N08","secret":"8226cfe6ca","server":"65535","farm":66,"title":"Falco peregrinus ernesti","ispublic":1,"isfriend":0,"isfamily":0},{"id":"52697686349","owner":"7200351@N08","secret":"dae6a614d9","server":"65535","farm":66,"title":"Falco peregrinus ernesti","ispublic":1,"isfriend":0,"isfamily":0},{"id":"52694952603","owner":"75992994@N05","secret":"70967dd71f","server":"65535","farm":66,"title":"Peregrine Falcon","ispublic":1,"isfriend":0,"isfamily":0},{"id":"52692408898","owner":"12639178@N07","secret":"a402810f20","server":"65535","farm":66,"title":"Wanderfalke II","ispublic":1,"isfriend":0,"isfamily":0},{"id":"52691400372","owner":"12639178@N07","secret":"378d2d47bd","server":"65535","farm":66,"title":"Belegfoto: Wanderfalke kreist \u00fcber dem Maichinger Waldfriedhof","ispublic":1,"isfriend":0,"isfamily":0},{"id":"52690509032","owner":"191391950@N02","secret":"74b86b9b1c","server":"65535","farm":66,"title":"Faucon p\u00e8lerin - Falco peregrinus","ispublic":1,"isfriend":0,"isfamily":0},{"id":"52691083159","owner":"146359542@N05","secret":"15786f7829","server":"65535","farm":66,"title":"Faucon p\u00e8lerin vol 230215-01-RS","ispublic":1,"isfriend":0,"isfamily":0},{"id":"52688854881","owner":"146359542@N05","secret":"4d93fc22ea","server":"65535","farm":66,"title":"Faucon p\u00e8lerin 230214-01-RS","ispublic":1,"isfriend":0,"isfamily":0},{"id":"52687434615","owner":"195198703@N04","secret":"d66e1ae41e","server":"65535","farm":66,"title":"Faucon p\u00e8lerin (Falco peregrinus)","ispublic":1,"isfriend":0,"isfamily":0},{"id":"52687420405","owner":"195198703@N04","secret":"90b5dd38d0","server":"65535","farm":66,"title":"Faucon p\u00e8lerin (Falco peregrinus)","ispublic":1,"isfriend":0,"isfamily":0},{"id":"52686235107","owner":"26135972@N05","secret":"0a66b2d42c","server":"65535","farm":66,"title":"_J5A2154 Peregrine Falcon (Falco peregrinus)","ispublic":1,"isfriend":0,"isfamily":0},{"id":"52686639439","owner":"182101349@N08","secret":"a2ae061881","server":"65535","farm":66,"title":"Z9D_8639","ispublic":1,"isfriend":0,"isfamily":0},{"id":"52685843197","owner":"182101349@N08","secret":"69a2de2a2f","server":"65535","farm":66,"title":"Z9D_8059","ispublic":1,"isfriend":0,"isfamily":0},{"id":"52685842902","owner":"182101349@N08","secret":"9035e7b174","server":"65535","farm":66,"title":"Z9D_7632","ispublic":1,"isfriend":0,"isfamily":0},{"id":"52685049482","owner":"187366669@N06","secret":"6eed2308b4","server":"65535","farm":66,"title":"Falco Peregrinus","ispublic":1,"isfriend":0,"isfamily":0},{"id":"52682747961","owner":"39445433@N02","secret":"a6ffa75762","server":"65535","farm":66,"title":"(Blurry) Peregrine Falcon","ispublic":1,"isfriend":0,"isfamily":0},{"id":"52681070004","owner":"49788393@N05","secret":"fb38423056","server":"65535","farm":66,"title":"Peregrine Falcon \/ Faucon p\u00e8lerin \/ Falco peregrinus","ispublic":1,"isfriend":0,"isfamily":0},{"id":"52681285708","owner":"49788393@N05","secret":"d589c05e73","server":"65535","farm":66,"title":"Peregrine Falcon \/ Faucon p\u00e8lerin \/ Falco peregrinus","ispublic":1,"isfriend":0,"isfamily":0},{"id":"52680269857","owner":"49788393@N05","secret":"23f1903e5c","server":"65535","farm":66,"title":"Peregrine Falcon \/ Faucon p\u00e8lerin \/ Falco peregrinus","ispublic":1,"isfriend":0,"isfamily":0},{"id":"52679925505","owner":"79722430@N04","secret":"767ab7c04b","server":"65535","farm":66,"title":"Peregrine falcon (Falco peregrinus)","ispublic":1,"isfriend":0,"isfamily":0},{"id":"52678241543","owner":"33610210@N05","secret":"d6c524ba72","server":"65535","farm":66,"title":"Peregrine Falcon, Falco peregrinus","ispublic":1,"isfriend":0,"isfamily":0},{"id":"52677507834","owner":"36685968@N00","secret":"55441531cc","server":"65535","farm":66,"title":"Peregrine Falcon (Falco peregrinus)","ispublic":1,"isfriend":0,"isfamily":0},{"id":"52677658245","owner":"36685968@N00","secret":"292d0b8ed7","server":"65535","farm":66,"title":"Peregrine Falcon (Falco peregrinus)","ispublic":1,"isfriend":0,"isfamily":0},{"id":"52674017736","owner":"39652177@N04","secret":"262d6e1110","server":"65535","farm":66,"title":"Peregrine falcon-07517","ispublic":1,"isfriend":0,"isfamily":0},{"id":"52673352494","owner":"9731845@N02","secret":"9a87c4ec91","server":"65535","farm":66,"title":"Peregrine Falcon (Falco peregrinus)","ispublic":1,"isfriend":0,"isfamily":0},{"id":"52673061356","owner":"9731845@N02","secret":"e96f93e47d","server":"65535","farm":66,"title":"Peregrine Falcon (Falco peregrinus)","ispublic":1,"isfriend":0,"isfamily":0},{"id":"52671495395","owner":"8904060@N06","secret":"e0bccbee55","server":"65535","farm":66,"title":"Ready, willing, and able","ispublic":1,"isfriend":0,"isfamily":0},{"id":"52691120794","owner":"12639178@N07","secret":"b611485774","server":"65535","farm":66,"title":"p\u00fcnktlich zur Stelle","ispublic":1,"isfriend":0,"isfamily":0},{"id":"52681219031","owner":"12639178@N07","secret":"20988d6f69","server":"65535","farm":66,"title":"Wanderfalke","ispublic":1,"isfriend":0,"isfamily":0},{"id":"52679774464","owner":"79722430@N04","secret":"66abd2361f","server":"65535","farm":66,"title":"Peregrine falcon (Falco peregrinus)","ispublic":1,"isfriend":0,"isfamily":0},{"id":"52679774454","owner":"79722430@N04","secret":"72e3088802","server":"65535","farm":66,"title":"Peregrine falcon (Falco peregrinus)","ispublic":1,"isfriend":0,"isfamily":0},{"id":"52679925490","owner":"79722430@N04","secret":"8682dd596b","server":"65535","farm":66,"title":"Peregrine falcon (Falco peregrinus)","ispublic":1,"isfriend":0,"isfamily":0},{"id":"52678976517","owner":"79722430@N04","secret":"d40e3c99da","server":"65535","farm":66,"title":"Peregrine falcon (Falco peregrinus)","ispublic":1,"isfriend":0,"isfamily":0}]},"stat":"ok"}