{"photos":{"page":1,"pages":18,"perpage":100,"total":1763,"photo":[{"id":"52778756407","owner":"120699091@N02","secret":"651691f533","server":"65535","farm":66,"title":"Phainopepla","ispublic":1,"isfriend":0,"isfamily":0},{"id":"52769251201","owner":"140318147@N08","secret":"a12e1f0914","server":"65535","farm":66,"title":"phainopepla (Phainopepla nitens) L4A7307","ispublic":1,"isfriend":0,"isfamily":0},{"id":"52769739698","owner":"140318147@N08","secret":"b4b08032cf","server":"65535","farm":66,"title":"phainopepla (Phainopepla nitens) L4A7259","ispublic":1,"isfriend":0,"isfamily":0},{"id":"52765064275","owner":"93621454@N03","secret":"3a97dbed14","server":"65535","farm":66,"title":"11.2.2016 - Chanate - Capulinero Negro - Phainopepla - Phainopepla nitens - BackYard Birding","ispublic":1,"isfriend":0,"isfamily":0},{"id":"52764784289","owner":"93621454@N03","secret":"6a123d013c","server":"65535","farm":66,"title":"30.01.2016 - Chanate - Capulinero Negro - Phainopepla - Phainopepla nitens - BackYard Birding","ispublic":1,"isfriend":0,"isfamily":0},{"id":"52763437814","owner":"64606186@N00","secret":"a0cb402939","server":"65535","farm":66,"title":"Phainopepla","ispublic":1,"isfriend":0,"isfamily":0},{"id":"52763174151","owner":"64606186@N00","secret":"d55bdf7f3b","server":"65535","farm":66,"title":"Phainopepla","ispublic":1,"isfriend":0,"isfamily":0},{"id":"52760598693","owner":"185659367@N04","secret":"c7cf8dac6b","server":"65535","farm":66,"title":"Phainopepla","ispublic":1,"isfriend":0,"isfamily":0},{"id":"52714437857","owner":"47533293@N04","secret":"7077e1a0bb","server":"65535","farm":66,"title":"Phainopepla, Phainopepla nitens","ispublic":1,"isfriend":0,"isfamily":0},{"id":"52705618041","owner":"33610210@N05","secret":"3c5f01f88a","server":"65535","farm":66,"title":"Phainopepla, Phainopepla nitens","ispublic":1,"isfriend":0,"isfamily":0},{"id":"52705092782","owner":"33610210@N05","secret":"d2d7986bc2","server":"65535","farm":66,"title":"Phainopepla, Phainopepla nitens","ispublic":1,"isfriend":0,"isfamily":0},{"id":"52705870254","owner":"33610210@N05","secret":"ea5d2de3dd","server":"65535","farm":66,"title":"Phainopepla, Phainopepla nitens","ispublic":1,"isfriend":0,"isfamily":0},{"id":"52705813573","owner":"80454089@N00","secret":"1492537f2d","server":"65535","farm":66,"title":"","ispublic":1,"isfriend":0,"isfamily":0},{"id":"52679123152","owner":"33610210@N05","secret":"a95d4afde5","server":"65535","farm":66,"title":"Phainopepla, Phainopepla nitens","ispublic":1,"isfriend":0,"isfamily":0},{"id":"52679635426","owner":"33610210@N05","secret":"97c52f320d","server":"65535","farm":66,"title":"Phainopepla, Phainopepla nitens","ispublic":1,"isfriend":0,"isfamily":0},{"id":"52679635396","owner":"33610210@N05","secret":"a4c944ed62","server":"65535","farm":66,"title":"Phainopepla, Phainopepla nitens","ispublic":1,"isfriend":0,"isfamily":0},{"id":"52679123047","owner":"33610210@N05","secret":"2fa929ecde","server":"65535","farm":66,"title":"Phainopepla, Phainopepla nitens","ispublic":1,"isfriend":0,"isfamily":0},{"id":"52680133588","owner":"33610210@N05","secret":"f896843294","server":"65535","farm":66,"title":"Phainopepla, Phainopepla nitens","ispublic":1,"isfriend":0,"isfamily":0},{"id":"52680072595","owner":"33610210@N05","secret":"9e88f92342","server":"65535","farm":66,"title":"Phainopepla, Phainopepla nitens","ispublic":1,"isfriend":0,"isfamily":0},{"id":"52680133528","owner":"33610210@N05","secret":"9921cce0d6","server":"65535","farm":66,"title":"Phainopepla, Phainopepla nitens","ispublic":1,"isfriend":0,"isfamily":0},{"id":"52680133473","owner":"33610210@N05","secret":"eafef57a5f","server":"65535","farm":66,"title":"Phainopepla, Phainopepla nitens","ispublic":1,"isfriend":0,"isfamily":0},{"id":"52680133413","owner":"33610210@N05","secret":"d6da9490be","server":"65535","farm":66,"title":"Phainopepla, Phainopepla nitens","ispublic":1,"isfriend":0,"isfamily":0},{"id":"52680072465","owner":"33610210@N05","secret":"f5cafc8812","server":"65535","farm":66,"title":"Phainopepla, Phainopepla nitens","ispublic":1,"isfriend":0,"isfamily":0},{"id":"52679122797","owner":"33610210@N05","secret":"68b8d07de4","server":"65535","farm":66,"title":"Phainopepla, Phainopepla nitens","ispublic":1,"isfriend":0,"isfamily":0},{"id":"52679920469","owner":"33610210@N05","secret":"35e76b02e1","server":"65535","farm":66,"title":"Phainopepla, Phainopepla nitens","ispublic":1,"isfriend":0,"isfamily":0},{"id":"52680133203","owner":"33610210@N05","secret":"bb3726a442","server":"65535","farm":66,"title":"Phainopepla, Phainopepla nitens","ispublic":1,"isfriend":0,"isfamily":0},{"id":"52677290382","owner":"33610210@N05","secret":"77e1935f62","server":"65535","farm":66,"title":"Phainopepla, Phainopepla nitens","ispublic":1,"isfriend":0,"isfamily":0},{"id":"52678237610","owner":"33610210@N05","secret":"72064d9925","server":"65535","farm":66,"title":"Phainopepla, Phainopepla nitens","ispublic":1,"isfriend":0,"isfamily":0},{"id":"52677290327","owner":"33610210@N05","secret":"9f6887186d","server":"65535","farm":66,"title":"Phainopepla, Phainopepla nitens","ispublic":1,"isfriend":0,"isfamily":0},{"id":"52677290277","owner":"33610210@N05","secret":"65be653a96","server":"65535","farm":66,"title":"Phainopepla, Phainopepla nitens","ispublic":1,"isfriend":0,"isfamily":0},{"id":"52678087639","owner":"33610210@N05","secret":"3cf7fc1062","server":"65535","farm":66,"title":"Phainopepla, Phainopepla nitens","ispublic":1,"isfriend":0,"isfamily":0},{"id":"52677801206","owner":"33610210@N05","secret":"09dbb8b1ce","server":"65535","farm":66,"title":"Phainopepla, Phainopepla nitens","ispublic":1,"isfriend":0,"isfamily":0},{"id":"52666226810","owner":"76648020@N00","secret":"202c6e1c33","server":"65535","farm":66,"title":"DSC_5036","ispublic":1,"isfriend":0,"isfamily":0},{"id":"52666029024","owner":"76648020@N00","secret":"cac9ddbe28","server":"65535","farm":66,"title":"DSC_5062","ispublic":1,"isfriend":0,"isfamily":0},{"id":"52665734566","owner":"76648020@N00","secret":"df84a939e0","server":"65535","farm":66,"title":"DSC_5063","ispublic":1,"isfriend":0,"isfamily":0},{"id":"52665732996","owner":"76648020@N00","secret":"f6ce80db4e","server":"65535","farm":66,"title":"DSC_5064","ispublic":1,"isfriend":0,"isfamily":0},{"id":"52666166295","owner":"76648020@N00","secret":"6a083257e5","server":"65535","farm":66,"title":"DSC_5065","ispublic":1,"isfriend":0,"isfamily":0},{"id":"52653494199","owner":"52170431@N04","secret":"790027d4f9","server":"65535","farm":66,"title":"Phainopepla (Phainopepla nitens), adult male DSD_8998","ispublic":1,"isfriend":0,"isfamily":0},{"id":"52647110082","owner":"32752434@N07","secret":"0d58fc3cd5","server":"65535","farm":66,"title":"Phainopepla (Phainopepla nitens)","ispublic":1,"isfriend":0,"isfamily":0},{"id":"52634010551","owner":"39935474@N03","secret":"866ab9fc07","server":"65535","farm":66,"title":"Phainopepla male","ispublic":1,"isfriend":0,"isfamily":0},{"id":"52624288774","owner":"51928691@N04","secret":"c8d2c295aa","server":"65535","farm":66,"title":"Phainopepla (Phainopepla nitens) 4 122422","ispublic":1,"isfriend":0,"isfamily":0},{"id":"52596924765","owner":"9638954@N07","secret":"799c2e3380","server":"65535","farm":66,"title":"Phainopepla","ispublic":1,"isfriend":0,"isfamily":0},{"id":"52594606172","owner":"8065544@N08","secret":"2ef5af56eb","server":"65535","farm":66,"title":"Phainopepla (Phainopepla nitens)","ispublic":1,"isfriend":0,"isfamily":0},{"id":"52570764262","owner":"185659367@N04","secret":"94a0266fe9","server":"65535","farm":66,"title":"Phainopepla","ispublic":1,"isfriend":0,"isfamily":0},{"id":"52567908108","owner":"33982546@N05","secret":"b1a35cd932","server":"65535","farm":66,"title":"Phainopepla Aggression (1 of 1)","ispublic":1,"isfriend":0,"isfamily":0},{"id":"52564740070","owner":"185659367@N04","secret":"787889f3eb","server":"65535","farm":66,"title":"Phainopepla","ispublic":1,"isfriend":0,"isfamily":0},{"id":"52551862245","owner":"185659367@N04","secret":"7f76eb5b4f","server":"65535","farm":66,"title":"She's all that","ispublic":1,"isfriend":0,"isfamily":0},{"id":"52539434495","owner":"67306066@N03","secret":"fe41c7bdff","server":"65535","farm":66,"title":"Phainopepla (Phainopepla nitens)","ispublic":1,"isfriend":0,"isfamily":0},{"id":"52538544863","owner":"79254232@N08","secret":"07967495b5","server":"65535","farm":66,"title":"Phainopepla Female","ispublic":1,"isfriend":0,"isfamily":0},{"id":"52516190042","owner":"29170368@N03","secret":"0c068ea3a1","server":"65535","farm":66,"title":"Phainopepla","ispublic":1,"isfriend":0,"isfamily":0},{"id":"52477675523","owner":"48014585@N00","secret":"82a94e11ed","server":"65535","farm":66,"title":"Phainopepla","ispublic":1,"isfriend":0,"isfamily":0},{"id":"52476623847","owner":"48014585@N00","secret":"8110ec90db","server":"65535","farm":66,"title":"Phainopepla","ispublic":1,"isfriend":0,"isfamily":0},{"id":"52477582570","owner":"48014585@N00","secret":"3896f1cc5b","server":"65535","farm":66,"title":"Phainopepla","ispublic":1,"isfriend":0,"isfamily":0},{"id":"52477582440","owner":"48014585@N00","secret":"e38df47321","server":"65535","farm":66,"title":"Phainopepla","ispublic":1,"isfriend":0,"isfamily":0},{"id":"52477665433","owner":"48014585@N00","secret":"ed200aeffb","server":"65535","farm":66,"title":"Phainopepla","ispublic":1,"isfriend":0,"isfamily":0},{"id":"52476165847","owner":"48014585@N00","secret":"921336e813","server":"65535","farm":66,"title":"Phainopepla","ispublic":1,"isfriend":0,"isfamily":0},{"id":"52476941689","owner":"48014585@N00","secret":"8801b5761a","server":"65535","farm":66,"title":"Phainopepla","ispublic":1,"isfriend":0,"isfamily":0},{"id":"52477208468","owner":"48014585@N00","secret":"b71e64b854","server":"65535","farm":66,"title":"Phainopepla","ispublic":1,"isfriend":0,"isfamily":0},{"id":"52476665786","owner":"48014585@N00","secret":"0e4ddb8218","server":"65535","farm":66,"title":"Phainopepla","ispublic":1,"isfriend":0,"isfamily":0},{"id":"52476662491","owner":"48014585@N00","secret":"78ea4dd68c","server":"65535","farm":66,"title":"Phainopepla","ispublic":1,"isfriend":0,"isfamily":0},{"id":"52476632661","owner":"48014585@N00","secret":"8c296ea809","server":"65535","farm":66,"title":"Phainopepla","ispublic":1,"isfriend":0,"isfamily":0},{"id":"52476132242","owner":"48014585@N00","secret":"f99c1d5e87","server":"65535","farm":66,"title":"Phainopepla","ispublic":1,"isfriend":0,"isfamily":0},{"id":"52476632116","owner":"48014585@N00","secret":"e53aac8920","server":"65535","farm":66,"title":"Phainopepla","ispublic":1,"isfriend":0,"isfamily":0},{"id":"52477095185","owner":"48014585@N00","secret":"93c2378539","server":"65535","farm":66,"title":"Phainopepla","ispublic":1,"isfriend":0,"isfamily":0},{"id":"52476631806","owner":"48014585@N00","secret":"6c2115f530","server":"65535","farm":66,"title":"Phainopepla","ispublic":1,"isfriend":0,"isfamily":0},{"id":"52476907954","owner":"48014585@N00","secret":"fc53bc509d","server":"65535","farm":66,"title":"Phainopepla","ispublic":1,"isfriend":0,"isfamily":0},{"id":"52476631566","owner":"48014585@N00","secret":"ae993e2713","server":"65535","farm":66,"title":"Phainopepla","ispublic":1,"isfriend":0,"isfamily":0},{"id":"52476907629","owner":"48014585@N00","secret":"2635926e4a","server":"65535","farm":66,"title":"Phainopepla","ispublic":1,"isfriend":0,"isfamily":0},{"id":"52477174653","owner":"48014585@N00","secret":"98b3e33523","server":"65535","farm":66,"title":"Phainopepla","ispublic":1,"isfriend":0,"isfamily":0},{"id":"52476130792","owner":"48014585@N00","secret":"031da8b14f","server":"65535","farm":66,"title":"Phainopepla","ispublic":1,"isfriend":0,"isfamily":0},{"id":"52463071464","owner":"48014585@N00","secret":"61bbf19ac7","server":"65535","farm":66,"title":"Phainopepla","ispublic":1,"isfriend":0,"isfamily":0},{"id":"52463335033","owner":"48014585@N00","secret":"4a63906871","server":"65535","farm":66,"title":"Phainopepla","ispublic":1,"isfriend":0,"isfamily":0},{"id":"52462286302","owner":"48014585@N00","secret":"13df1ffbfd","server":"65535","farm":66,"title":"Phainopepla","ispublic":1,"isfriend":0,"isfamily":0},{"id":"52462284162","owner":"48014585@N00","secret":"7a84405d1d","server":"65535","farm":66,"title":"Phainopepla","ispublic":1,"isfriend":0,"isfamily":0},{"id":"52764667491","owner":"93621454@N03","secret":"3a21ca9e5f","server":"65535","farm":66,"title":"13.02.2016 - Chanate - Capulinero Negro - Phainopepla - Phainopepla nitens - BackYard Birding","ispublic":1,"isfriend":0,"isfamily":0},{"id":"52738325662","owner":"197766205@N03","secret":"7e64e80900","server":"65535","farm":66,"title":"Phainopepla (Phainopepla nitens)","ispublic":1,"isfriend":0,"isfamily":0},{"id":"52706108108","owner":"33610210@N05","secret":"6728c4a334","server":"65535","farm":66,"title":"Phainopepla, Phainopepla nitens","ispublic":1,"isfriend":0,"isfamily":0},{"id":"52705870599","owner":"33610210@N05","secret":"334da73e96","server":"65535","farm":66,"title":"Phainopepla, Phainopepla nitens","ispublic":1,"isfriend":0,"isfamily":0},{"id":"52705870484","owner":"33610210@N05","secret":"a2e898c4a2","server":"65535","farm":66,"title":"Phainopepla, Phainopepla nitens","ispublic":1,"isfriend":0,"isfamily":0},{"id":"52680133278","owner":"33610210@N05","secret":"8503acd4f6","server":"65535","farm":66,"title":"Phainopepla, Phainopepla nitens","ispublic":1,"isfriend":0,"isfamily":0},{"id":"52665801239","owner":"143326780@N02","secret":"ac323f46c4","server":"65535","farm":66,"title":"DSCN2974","ispublic":1,"isfriend":0,"isfamily":0},{"id":"52665801014","owner":"143326780@N02","secret":"5e3e849ae0","server":"65535","farm":66,"title":"DSCN3219","ispublic":1,"isfriend":0,"isfamily":0},{"id":"52665800894","owner":"143326780@N02","secret":"2b439393ba","server":"65535","farm":66,"title":"DSCN3222","ispublic":1,"isfriend":0,"isfamily":0},{"id":"52665800694","owner":"143326780@N02","secret":"66dc18a200","server":"65535","farm":66,"title":"DSCN3223","ispublic":1,"isfriend":0,"isfamily":0},{"id":"52665008002","owner":"143326780@N02","secret":"3a401a22f6","server":"65535","farm":66,"title":"DSCN3238","ispublic":1,"isfriend":0,"isfamily":0},{"id":"52665506291","owner":"143326780@N02","secret":"cfeddb9a00","server":"65535","farm":66,"title":"DSCN3239","ispublic":1,"isfriend":0,"isfamily":0},{"id":"52665796884","owner":"143326780@N02","secret":"d6e013bc5f","server":"65535","farm":66,"title":"DSCN3242","ispublic":1,"isfriend":0,"isfamily":0},{"id":"52585024036","owner":"140318147@N08","secret":"24a4759df6","server":"65535","farm":66,"title":"phainopepla (Phainopepla nitens) L4A9480","ispublic":1,"isfriend":0,"isfamily":0},{"id":"52580782253","owner":"153973412@N04","secret":"13643dbd9b","server":"65535","farm":66,"title":"Phainopepla-Phainopepla nitens, Paton Center, AZ","ispublic":1,"isfriend":0,"isfamily":0},{"id":"52511599835","owner":"150163656@N06","secret":"161de50909","server":"65535","farm":66,"title":"Phainopepla","ispublic":1,"isfriend":0,"isfamily":0},{"id":"52477126686","owner":"48014585@N00","secret":"d95ce411a6","server":"65535","farm":66,"title":"Phainopepla","ispublic":1,"isfriend":0,"isfamily":0},{"id":"52477126566","owner":"48014585@N00","secret":"7bb91d8f4f","server":"65535","farm":66,"title":"_G7A2053.jpg","ispublic":1,"isfriend":0,"isfamily":0},{"id":"52477589330","owner":"48014585@N00","secret":"a2726e214c","server":"65535","farm":66,"title":"Phainopepla","ispublic":1,"isfriend":0,"isfamily":0},{"id":"52477669943","owner":"48014585@N00","secret":"db147a9af2","server":"65535","farm":66,"title":"Phainopepla","ispublic":1,"isfriend":0,"isfamily":0},{"id":"52477123681","owner":"48014585@N00","secret":"2cf0fa2554","server":"65535","farm":66,"title":"Phainopepla","ispublic":1,"isfriend":0,"isfamily":0},{"id":"52477582700","owner":"48014585@N00","secret":"fc7b3fe83a","server":"65535","farm":66,"title":"Phainopepla","ispublic":1,"isfriend":0,"isfamily":0},{"id":"52463245950","owner":"48014585@N00","secret":"cda33e4d23","server":"65535","farm":66,"title":"Phainopepla","ispublic":1,"isfriend":0,"isfamily":0},{"id":"52462274557","owner":"48014585@N00","secret":"841a50f3c1","server":"65535","farm":66,"title":"Phainopepla","ispublic":1,"isfriend":0,"isfamily":0},{"id":"52463322778","owner":"48014585@N00","secret":"6ec5614c0a","server":"65535","farm":66,"title":"Phainopepla","ispublic":1,"isfriend":0,"isfamily":0},{"id":"52463242955","owner":"48014585@N00","secret":"b66207939a","server":"65535","farm":66,"title":"Phainopepla","ispublic":1,"isfriend":0,"isfamily":0}]},"stat":"ok"}