{"photos":{"page":1,"pages":5,"perpage":100,"total":441,"photo":[{"id":"52712272678","owner":"26822473@N06","secret":"bb5d1070a1","server":"65535","farm":66,"title":"female Pied Triller (Lalage nigra)","ispublic":1,"isfriend":0,"isfamily":0},{"id":"52712211290","owner":"26822473@N06","secret":"1b3defe6f8","server":"65535","farm":66,"title":"male Pied Triller (Lalage nigra)","ispublic":1,"isfriend":0,"isfamily":0},{"id":"52643652442","owner":"9495138@N08","secret":"425482aac7","server":"65535","farm":66,"title":"21 Jan 2023","ispublic":1,"isfriend":0,"isfamily":0},{"id":"52634614256","owner":"197100377@N05","secret":"0fd84fd793","server":"65535","farm":66,"title":"Pied triller (Lalage nigra) in Del Carmen, Siargao","ispublic":1,"isfriend":0,"isfamily":0},{"id":"52612790704","owner":"9495138@N08","secret":"aa89d92a7f","server":"65535","farm":66,"title":"7 Jan 2023","ispublic":1,"isfriend":0,"isfamily":0},{"id":"52392121132","owner":"192131778@N07","secret":"fc7da5b3e0","server":"65535","farm":66,"title":"Pied Triller","ispublic":1,"isfriend":0,"isfamily":0},{"id":"52287121898","owner":"26822473@N06","secret":"29d114c5fd","server":"65535","farm":66,"title":"Pied Triller (Lalage nigra)","ispublic":1,"isfriend":0,"isfamily":0},{"id":"52247002174","owner":"191720538@N06","secret":"2fa288c66f","server":"65535","farm":66,"title":"","ispublic":1,"isfriend":0,"isfamily":0},{"id":"52151159179","owner":"26822473@N06","secret":"7bac6bd035","server":"65535","farm":66,"title":"Pied Triller (Lalage nigra)","ispublic":1,"isfriend":0,"isfamily":0},{"id":"52017049745","owner":"56891930@N05","secret":"f6f0935668","server":"65535","farm":66,"title":"Male Pied Triller (Lalage nigra) \u9ed1\u9e23\u9e43\u9d59 \/ \u9ed1\u539f\u9e43\u9d59 (\u96c4) - Malim Nawar Wetland, Daerah Kampar \u91d1\u5b9d\u53bf, Perak \u9739\u96f3\u5dde, Malaysia \u9a6c\u6765\u897f\u4e9a (4K)","ispublic":1,"isfriend":0,"isfamily":0},{"id":"52008664299","owner":"56891930@N05","secret":"9cea682ab5","server":"65535","farm":66,"title":"Female Pied Triller (Lalage nigra) \u9ed1\u9e23\u9e43\u9d59 \/ \u9ed1\u539f\u9e43\u9d59 (\u96cc) - Malim Nawar Wetland, Daerah Kampar \u91d1\u5b9d\u53bf, Perak \u9739\u96f3\u5dde, Malaysia \u9a6c\u6765\u897f\u4e9a (4K)","ispublic":1,"isfriend":0,"isfamily":0},{"id":"51992430434","owner":"26822473@N06","secret":"32cfd1bcaa","server":"65535","farm":66,"title":"Pied Triller (Lalage nigra)","ispublic":1,"isfriend":0,"isfamily":0},{"id":"51719132472","owner":"56891930@N05","secret":"ba8b41a905","server":"65535","farm":66,"title":"Pied Triller Lalage nigra \u9ed1\u9e23\u9e43\u9d59 - Jalan Sejati Suria 4, Taman Sejati Suria, Sitiawan \u5b9e\u5146\u8fdc\u5e02, Daerah Manjung \u66fc\u7ed2\u53bf, Perak \u9739\u96f3\u5dde, Malaysia \u9a6c\u6765\u897f\u4e9a (4K)","ispublic":1,"isfriend":0,"isfamily":0},{"id":"51665805051","owner":"152247055@N03","secret":"a49552da9b","server":"65535","farm":66,"title":"Pied Triller\uff0c(Lalage nigra) \u9ed1\u9cf4\u9d51\u9d59 (Olympus EM5MK3 PL 100-400mm)","ispublic":1,"isfriend":0,"isfamily":0},{"id":"51429509449","owner":"193573283@N04","secret":"2b38515f70","server":"65535","farm":66,"title":"Pied Triller","ispublic":1,"isfriend":0,"isfamily":0},{"id":"51365300785","owner":"39711612@N05","secret":"0313394306","server":"65535","farm":66,"title":"Pied Triller","ispublic":1,"isfriend":0,"isfamily":0},{"id":"51341568601","owner":"86585370@N00","secret":"38206ab839","server":"65535","farm":66,"title":"Pied Triller","ispublic":1,"isfriend":0,"isfamily":0},{"id":"51289450525","owner":"90764954@N07","secret":"142b704259","server":"65535","farm":66,"title":"Pied Triller (Lalage nigra) \u9ed1\u9e23\u9e43\u9d59","ispublic":1,"isfriend":0,"isfamily":0},{"id":"51289157199","owner":"90764954@N07","secret":"b7f628bdde","server":"65535","farm":66,"title":"Pied Triller (Lalage nigra) \u9ed1\u9e23\u9e43\u9d59","ispublic":1,"isfriend":0,"isfamily":0},{"id":"51289450320","owner":"90764954@N07","secret":"ea6d508185","server":"65535","farm":66,"title":"Pied Triller (Lalage nigra) \u9ed1\u9e23\u9e43\u9d59","ispublic":1,"isfriend":0,"isfamily":0},{"id":"51182692416","owner":"14926440@N08","secret":"1b73062a6f","server":"65535","farm":66,"title":"Pied triller","ispublic":1,"isfriend":0,"isfamily":0},{"id":"51124766352","owner":"21155756@N07","secret":"61b3a577d5","server":"65535","farm":66,"title":"Pied Triller.","ispublic":1,"isfriend":0,"isfamily":0},{"id":"50903663143","owner":"61485851@N06","secret":"17051bc1aa","server":"65535","farm":66,"title":"Pied triller","ispublic":1,"isfriend":0,"isfamily":0},{"id":"50903484353","owner":"61485851@N06","secret":"77a0e9b5b9","server":"65535","farm":66,"title":"Pied triller","ispublic":1,"isfriend":0,"isfamily":0},{"id":"50903451848","owner":"61485851@N06","secret":"d046d185b3","server":"65535","farm":66,"title":"Pied triller","ispublic":1,"isfriend":0,"isfamily":0},{"id":"50643764948","owner":"26812240@N08","secret":"33be3e21d0","server":"65535","farm":66,"title":"Pied Triller (Lalage nigra)","ispublic":1,"isfriend":0,"isfamily":0},{"id":"50291937788","owner":"43535764@N02","secret":"58bc83215d","server":"65535","farm":66,"title":"Pied Triller (Lalage Nigra)","ispublic":1,"isfriend":0,"isfamily":0},{"id":"50292614726","owner":"43535764@N02","secret":"a82835ff30","server":"65535","farm":66,"title":"Pied Triller (Lalage Nigra)","ispublic":1,"isfriend":0,"isfamily":0},{"id":"50292614681","owner":"43535764@N02","secret":"d3e7297f26","server":"65535","farm":66,"title":"Pied Triller (Lalage Nigra)","ispublic":1,"isfriend":0,"isfamily":0},{"id":"50292614621","owner":"43535764@N02","secret":"402f24eeea","server":"65535","farm":66,"title":"Pied Triller (Lalage Nigra)","ispublic":1,"isfriend":0,"isfamily":0},{"id":"50292614566","owner":"43535764@N02","secret":"be66b5eff4","server":"65535","farm":66,"title":"Pied Triller (Lalage Nigra)","ispublic":1,"isfriend":0,"isfamily":0},{"id":"50262207152","owner":"14888671@N02","secret":"08b7037180","server":"65535","farm":66,"title":"Pied Triller","ispublic":1,"isfriend":0,"isfamily":0},{"id":"50221355706","owner":"14888671@N02","secret":"9e6a6bd965","server":"65535","farm":66,"title":"Pied Triller","ispublic":1,"isfriend":0,"isfamily":0},{"id":"50134315182","owner":"61485851@N06","secret":"82acdf5636","server":"65535","farm":66,"title":"Pied triller","ispublic":1,"isfriend":0,"isfamily":0},{"id":"49912700922","owner":"90764954@N07","secret":"57e55c283d","server":"65535","farm":66,"title":"Pied Triller (Lalage nigra) \u9ed1\u9e23\u9e43\u9d59","ispublic":1,"isfriend":0,"isfamily":0},{"id":"49912700807","owner":"90764954@N07","secret":"93305e3730","server":"65535","farm":66,"title":"Pied Triller (Lalage nigra) \u9ed1\u9e23\u9e43\u9d59","ispublic":1,"isfriend":0,"isfamily":0},{"id":"49897708692","owner":"90764954@N07","secret":"d052f56c83","server":"65535","farm":66,"title":"Pied Triller (Lalage nigra) \u9ed1\u9e23\u9e43\u9d59","ispublic":1,"isfriend":0,"isfamily":0},{"id":"49896880378","owner":"90764954@N07","secret":"a14f54b2d0","server":"65535","farm":66,"title":"Pied Triller (Lalage nigra) \u9ed1\u9e23\u9e43\u9d59","ispublic":1,"isfriend":0,"isfamily":0},{"id":"49639931837","owner":"61485851@N06","secret":"4debf84c64","server":"65535","farm":66,"title":"Pied triller (Lifer #137)","ispublic":1,"isfriend":0,"isfamily":0},{"id":"49561178896","owner":"56891930@N05","secret":"085e8b6cff","server":"65535","farm":66,"title":"Male Pied Triller (Lalage nigra) \u9ed1\u9e23\u9e43\u9d59 (\u96c4) - Malim Nawar Wetland, Daerah Kampar \u91d1\u5b9d\u53bf, Perak \u9739\u96f3\u5dde, Malaysia \u9a6c\u6765\u897f\u4e9a","ispublic":1,"isfriend":0,"isfamily":0},{"id":"49150494588","owner":"16351082@N03","secret":"dec4cd81c6","server":"65535","farm":66,"title":"DSC 5098 PiedTriller ( Lalage Nigra)","ispublic":1,"isfriend":0,"isfamily":0},{"id":"49151185427","owner":"16351082@N03","secret":"2dc78028bc","server":"65535","farm":66,"title":"DSC 5031 Pied Triller (Lalage Nigra)","ispublic":1,"isfriend":0,"isfamily":0},{"id":"49064600407","owner":"14888671@N02","secret":"d0589ce8b5","server":"65535","farm":66,"title":"Pied Triller","ispublic":1,"isfriend":0,"isfamily":0},{"id":"48973828277","owner":"8085408@N04","secret":"f56f8b5190","server":"65535","farm":66,"title":"Pied triller (Lalage nigra)","ispublic":1,"isfriend":0,"isfamily":0},{"id":"49159198661","owner":"101709991@N06","secret":"224439581a","server":"65535","farm":66,"title":"Bukit Lawang, Pied Triller - Lalage nigra, Sumatra","ispublic":1,"isfriend":0,"isfamily":0},{"id":"48805911148","owner":"137111202@N08","secret":"2e1af2b285","server":"65535","farm":66,"title":"\u9ed1\u539f\u9d51\u9d59, Pied Triller, Lalage nigra,","ispublic":1,"isfriend":0,"isfamily":0},{"id":"48806267481","owner":"137111202@N08","secret":"91b7878c98","server":"65535","farm":66,"title":"\u9ed1\u539f\u9d51\u9d59, Pied Triller, Lalage nigra,","ispublic":1,"isfriend":0,"isfamily":0},{"id":"48806405057","owner":"137111202@N08","secret":"745b2a149d","server":"65535","farm":66,"title":"\u9ed1\u539f\u9d51\u9d59, Pied Triller, Lalage nigra,","ispublic":1,"isfriend":0,"isfamily":0},{"id":"48806267461","owner":"137111202@N08","secret":"00672e114e","server":"65535","farm":66,"title":"\u9ed1\u539f\u9d51\u9d59, Pied Triller, Lalage nigra,","ispublic":1,"isfriend":0,"isfamily":0},{"id":"48805911053","owner":"137111202@N08","secret":"bbb2bb3430","server":"65535","farm":66,"title":"\u9ed1\u539f\u9d51\u9d59, Pied Triller, Lalage nigra,","ispublic":1,"isfriend":0,"isfamily":0},{"id":"48355833436","owner":"90764954@N07","secret":"92ece8f8bb","server":"65535","farm":66,"title":"Pied Triller (Lalage nigra) \u9ed1\u9e23\u9e43\u9d59","ispublic":1,"isfriend":0,"isfamily":0},{"id":"48355963127","owner":"90764954@N07","secret":"160023fc7a","server":"65535","farm":66,"title":"Pied Triller (Lalage nigra) \u9ed1\u9e23\u9e43\u9d59","ispublic":1,"isfriend":0,"isfamily":0},{"id":"48079240238","owner":"90764954@N07","secret":"1b13be260c","server":"65535","farm":66,"title":"Pied Triller (Lalage nigra) \u9ed1\u9e23\u9e43\u9d59","ispublic":1,"isfriend":0,"isfamily":0},{"id":"52023412400","owner":"141819052@N08","secret":"f3bfb5acc0","server":"65535","farm":66,"title":"Pied Triller (Lalage nigra).","ispublic":1,"isfriend":0,"isfamily":0},{"id":"52020872232","owner":"185402911@N05","secret":"b76c4b9ce0","server":"65535","farm":66,"title":"Pied Triller sn: Lalage nigra","ispublic":1,"isfriend":0,"isfamily":0},{"id":"51727338632","owner":"141819052@N08","secret":"3eb9cd0f2b","server":"65535","farm":66,"title":"Pied Triller (Lalage nigra).","ispublic":1,"isfriend":0,"isfamily":0},{"id":"51719247192","owner":"56891930@N05","secret":"9d790b295a","server":"65535","farm":66,"title":"Pied Triller (Lalage nigra) \u9ed1\u9e23\u9e43\u9d59 - Jalan Sejati Suria 4, Taman Sejati Suria, Sitiawan \u5b9e\u5146\u8fdc\u5e02, Daerah Manjung \u66fc\u7ed2\u53bf, Perak \u9739\u96f3\u5dde, Malaysia \u9a6c\u6765\u897f\u4e9a (4K)","ispublic":1,"isfriend":0,"isfamily":0},{"id":"51687202027","owner":"90764954@N07","secret":"696838beae","server":"65535","farm":66,"title":"Pied Triller (Lalage nigra) \u9ed1\u9e23\u9e43\u9d59","ispublic":1,"isfriend":0,"isfamily":0},{"id":"51613008353","owner":"141819052@N08","secret":"c58e356ba7","server":"65535","farm":66,"title":"Pied Triller (Lalage nigra).","ispublic":1,"isfriend":0,"isfamily":0},{"id":"51564506370","owner":"141819052@N08","secret":"61f904ca83","server":"65535","farm":66,"title":"Female Pied Triller (Lalage nigra)","ispublic":1,"isfriend":0,"isfamily":0},{"id":"51323245518","owner":"21155756@N07","secret":"bb14103a6f","server":"65535","farm":66,"title":"Pied triller","ispublic":1,"isfriend":0,"isfamily":0},{"id":"51103529780","owner":"90764954@N07","secret":"61c6959abf","server":"65535","farm":66,"title":"Pied Triller (Lalage nigra) \u9ed1\u9e23\u9e43\u9d59","ispublic":1,"isfriend":0,"isfamily":0},{"id":"51102661803","owner":"90764954@N07","secret":"6f3675a26d","server":"65535","farm":66,"title":"Pied Triller (Lalage nigra) \u9ed1\u9e23\u9e43\u9d59","ispublic":1,"isfriend":0,"isfamily":0},{"id":"51102421971","owner":"90764954@N07","secret":"eb480a26d0","server":"65535","farm":66,"title":"Pied Triller (Lalage nigra) \u9ed1\u9e23\u9e43\u9d59","ispublic":1,"isfriend":0,"isfamily":0},{"id":"51102524057","owner":"90764954@N07","secret":"6fda680e56","server":"65535","farm":66,"title":"Pied Triller (Lalage nigra) \u9ed1\u9e23\u9e43\u9d59","ispublic":1,"isfriend":0,"isfamily":0},{"id":"51103529700","owner":"90764954@N07","secret":"ef5d30a7cb","server":"65535","farm":66,"title":"Pied Triller (Lalage nigra) \u9ed1\u9e23\u9e43\u9d59","ispublic":1,"isfriend":0,"isfamily":0},{"id":"51089954179","owner":"21852074@N07","secret":"571cc81d25","server":"65535","farm":66,"title":"210330 - Pied Triller (\u9ed1\u9e23\u9e43\u9d59)","ispublic":1,"isfriend":0,"isfamily":0},{"id":"51068145977","owner":"90764954@N07","secret":"86176cd618","server":"65535","farm":66,"title":"Pied Triller (Lalage nigra) \u9ed1\u9e23\u9e43\u9d59","ispublic":1,"isfriend":0,"isfamily":0},{"id":"51068145927","owner":"90764954@N07","secret":"8b175f605c","server":"65535","farm":66,"title":"Pied Triller (Lalage nigra) \u9ed1\u9e23\u9e43\u9d59","ispublic":1,"isfriend":0,"isfamily":0},{"id":"51068145902","owner":"90764954@N07","secret":"8c8a813b05","server":"65535","farm":66,"title":"Pied Triller (Lalage nigra) \u9ed1\u9e23\u9e43\u9d59","ispublic":1,"isfriend":0,"isfamily":0},{"id":"51068145847","owner":"90764954@N07","secret":"458dee89a6","server":"65535","farm":66,"title":"Pied Triller (Lalage nigra) \u9ed1\u9e23\u9e43\u9d59","ispublic":1,"isfriend":0,"isfamily":0},{"id":"50998866725","owner":"90764954@N07","secret":"f93a42fb2f","server":"65535","farm":66,"title":"Pied Triller (Lalage nigra) \u9ed1\u9e23\u9e43\u9d59","ispublic":1,"isfriend":0,"isfamily":0},{"id":"50850506868","owner":"141819052@N08","secret":"1da56775a9","server":"65535","farm":66,"title":"Female Pied Triller (Lalage nigra).","ispublic":1,"isfriend":0,"isfamily":0},{"id":"50851200277","owner":"141819052@N08","secret":"01591326e3","server":"65535","farm":66,"title":"Male Pied Triller (Lalage nigra).","ispublic":1,"isfriend":0,"isfamily":0},{"id":"50693475827","owner":"90764954@N07","secret":"d7d7a1b858","server":"65535","farm":66,"title":"Pied Triller (Lalage nigra) \u9ed1\u9e23\u9e43\u9d59","ispublic":1,"isfriend":0,"isfamily":0},{"id":"50656381018","owner":"148072293@N05","secret":"c50bb40834","server":"65535","farm":66,"title":"DSC_1080 Pied triller, Lalage nigra, Broget triller.","ispublic":1,"isfriend":0,"isfamily":0},{"id":"50442921446","owner":"90764954@N07","secret":"5919f878bc","server":"65535","farm":66,"title":"Pied Triller (Lalage nigra) \u9ed1\u9e23\u9e43\u9d59","ispublic":1,"isfriend":0,"isfamily":0},{"id":"50370579998","owner":"21852074@N07","secret":"cb71b26eee","server":"65535","farm":66,"title":"200922 - Pied Triller (\u9ed1\u9e23\u9e43\u9d59)","ispublic":1,"isfriend":0,"isfamily":0},{"id":"50018295686","owner":"14888671@N02","secret":"df37e55a79","server":"65535","farm":66,"title":"Pied Triller","ispublic":1,"isfriend":0,"isfamily":0},{"id":"49817374713","owner":"55968524@N04","secret":"fa94d8f7b5","server":"65535","farm":66,"title":"C16V2399 - Pied Triller (j) - Lalage nigra.jpg","ispublic":1,"isfriend":0,"isfamily":0},{"id":"49767991468","owner":"99668973@N03","secret":"c52b98bc11","server":"65535","farm":66,"title":"Pied Triller (juvenile) (Lalage nigra)","ispublic":1,"isfriend":0,"isfamily":0},{"id":"49660333283","owner":"186915896@N05","secret":"903533888d","server":"65535","farm":66,"title":"Bonte Triller (Pied Triller, Lalage nigra)","ispublic":1,"isfriend":0,"isfamily":0},{"id":"49544937983","owner":"14888671@N02","secret":"a3036855cf","server":"65535","farm":66,"title":"Pied Triller","ispublic":1,"isfriend":0,"isfamily":0},{"id":"48355833381","owner":"90764954@N07","secret":"2623cd9e11","server":"65535","farm":66,"title":"Pied Triller (Lalage nigra) \u9ed1\u9e23\u9e43\u9d59","ispublic":1,"isfriend":0,"isfamily":0},{"id":"48355833296","owner":"90764954@N07","secret":"0d6f6405d7","server":"65535","farm":66,"title":"Pied Triller (Lalage nigra) \u9ed1\u9e23\u9e43\u9d59","ispublic":1,"isfriend":0,"isfamily":0},{"id":"48355963257","owner":"90764954@N07","secret":"23f65cf445","server":"65535","farm":66,"title":"Pied Triller (Lalage nigra) \u9ed1\u9e23\u9e43\u9d59","ispublic":1,"isfriend":0,"isfamily":0},{"id":"48314127912","owner":"90764954@N07","secret":"ef003d4eda","server":"65535","farm":66,"title":"Pied Triller (Lalage nigra) \u9ed1\u9e23\u9e43\u9d59","ispublic":1,"isfriend":0,"isfamily":0},{"id":"48314006571","owner":"90764954@N07","secret":"b6951f2787","server":"65535","farm":66,"title":"Pied Triller (Lalage nigra) \u9ed1\u9e23\u9e43\u9d59","ispublic":1,"isfriend":0,"isfamily":0},{"id":"48314127722","owner":"90764954@N07","secret":"420f36a0a4","server":"65535","farm":66,"title":"Pied Triller (Lalage nigra) \u9ed1\u9e23\u9e43\u9d59","ispublic":1,"isfriend":0,"isfamily":0},{"id":"48079209271","owner":"90764954@N07","secret":"081ce1a829","server":"65535","farm":66,"title":"Pied Triller (Lalage nigra) \u9ed1\u9e23\u9e43\u9d59","ispublic":1,"isfriend":0,"isfamily":0},{"id":"48079310772","owner":"90764954@N07","secret":"af99850955","server":"65535","farm":66,"title":"Pied Triller (Lalage nigra) \u9ed1\u9e23\u9e43\u9d59","ispublic":1,"isfriend":0,"isfamily":0},{"id":"48079310637","owner":"90764954@N07","secret":"1e4f12a5b9","server":"65535","farm":66,"title":"Pied Triller (Lalage nigra) \u9ed1\u9e23\u9e43\u9d59","ispublic":1,"isfriend":0,"isfamily":0},{"id":"48079310547","owner":"90764954@N07","secret":"b48cd91bd6","server":"65535","farm":66,"title":"Pied Triller (Lalage nigra) \u9ed1\u9e23\u9e43\u9d59","ispublic":1,"isfriend":0,"isfamily":0},{"id":"48079240658","owner":"90764954@N07","secret":"8b4dd2008a","server":"65535","farm":66,"title":"Pied Triller (Lalage nigra) \u9ed1\u9e23\u9e43\u9d59","ispublic":1,"isfriend":0,"isfamily":0},{"id":"48079208461","owner":"90764954@N07","secret":"cbcd656972","server":"65535","farm":66,"title":"Pied Triller (Lalage nigra) \u9ed1\u9e23\u9e43\u9d59","ispublic":1,"isfriend":0,"isfamily":0},{"id":"48079208301","owner":"90764954@N07","secret":"7442d2db21","server":"65535","farm":66,"title":"Pied Triller (Lalage nigra) \u9ed1\u9e23\u9e43\u9d59","ispublic":1,"isfriend":0,"isfamily":0},{"id":"48079310187","owner":"90764954@N07","secret":"89a8e343b4","server":"65535","farm":66,"title":"Pied Triller (Lalage nigra) \u9ed1\u9e23\u9e43\u9d59","ispublic":1,"isfriend":0,"isfamily":0},{"id":"48079240053","owner":"90764954@N07","secret":"76dccba16f","server":"65535","farm":66,"title":"Pied Triller (Lalage nigra) \u9ed1\u9e23\u9e43\u9d59","ispublic":1,"isfriend":0,"isfamily":0},{"id":"48079309992","owner":"90764954@N07","secret":"13c80606db","server":"65535","farm":66,"title":"Pied Triller (Lalage nigra) \u9ed1\u9e23\u9e43\u9d59","ispublic":1,"isfriend":0,"isfamily":0},{"id":"48079207966","owner":"90764954@N07","secret":"a2b38febd3","server":"65535","farm":66,"title":"Pied Triller (Lalage nigra) \u9ed1\u9e23\u9e43\u9d59","ispublic":1,"isfriend":0,"isfamily":0}]},"stat":"ok"}