{"photos":{"page":1,"pages":80,"perpage":100,"total":7989,"photo":[{"id":"52723689078","owner":"181824639@N02","secret":"81e022c84a","server":"65535","farm":66,"title":"Grand pic ( Dryocopus pileatus )","ispublic":1,"isfriend":0,"isfamily":0},{"id":"52719029685","owner":"188156748@N07","secret":"eedb98d729","server":"65535","farm":66,"title":"Pileated Woodpecker (F) - Grand Pic (F) - Dryocopus pileatus 5990 (10)-SharpenAI-Standard copy.jpgS","ispublic":1,"isfriend":0,"isfamily":0},{"id":"52718898040","owner":"85277889@N08","secret":"36f9b785b6","server":"65535","farm":66,"title":"Pileated Woodpecker (Dryocopus pileatus) 2023-02-14 (1)","ispublic":1,"isfriend":0,"isfamily":0},{"id":"52716665523","owner":"145466593@N08","secret":"95111f4625","server":"65535","farm":66,"title":"Pileated Woodpecker  (m)","ispublic":1,"isfriend":0,"isfamily":0},{"id":"52716099266","owner":"68635735@N02","secret":"9b9cccf113","server":"65535","farm":66,"title":"Pileated Woodpecker (Dryocopus pileatus)","ispublic":1,"isfriend":0,"isfamily":0},{"id":"52712727107","owner":"68635735@N02","secret":"2211afe875","server":"65535","farm":66,"title":"Pileated Woodpecker (Dryocopus pileatus)","ispublic":1,"isfriend":0,"isfamily":0},{"id":"52713668195","owner":"68635735@N02","secret":"f66a90af1a","server":"65535","farm":66,"title":"Pileated Woodpecker (Dryocopus pileatus)","ispublic":1,"isfriend":0,"isfamily":0},{"id":"52713030005","owner":"37566919@N02","secret":"1d2c8e572d","server":"65535","farm":66,"title":"Pileated Woodpecker, female","ispublic":1,"isfriend":0,"isfamily":0},{"id":"52710221458","owner":"165841515@N03","secret":"893c495dc2","server":"65535","farm":66,"title":"Grand Pic \/ Pileated Woodpecker \/ (Dryocopus pileatus)","ispublic":1,"isfriend":0,"isfamily":0},{"id":"52709740381","owner":"165841515@N03","secret":"a831d26d77","server":"65535","farm":66,"title":"Grand Pic \/ Pileated Woodpecker \/ (Dryocopus pileatus)","ispublic":1,"isfriend":0,"isfamily":0},{"id":"52710219338","owner":"165841515@N03","secret":"c38cbe9c18","server":"65535","farm":66,"title":"Grand Pic \/ Pileated Woodpecker \/ (Dryocopus pileatus)","ispublic":1,"isfriend":0,"isfamily":0},{"id":"52710000704","owner":"165841515@N03","secret":"b65da10e87","server":"65535","farm":66,"title":"Grand Pic \/ Pileated Woodpecker \/ (Dryocopus pileatus)","ispublic":1,"isfriend":0,"isfamily":0},{"id":"52704917425","owner":"196786375@N03","secret":"5042cf6442","server":"65535","farm":66,"title":"Pileated Woodpeckers","ispublic":1,"isfriend":0,"isfamily":0},{"id":"52703973167","owner":"196786375@N03","secret":"cd2f2dc064","server":"65535","farm":66,"title":"Pileated Woodpeckers","ispublic":1,"isfriend":0,"isfamily":0},{"id":"52703603969","owner":"37566919@N02","secret":"8cdec6be92","server":"65535","farm":66,"title":"Pileated Woodpecker, male","ispublic":1,"isfriend":0,"isfamily":0},{"id":"52702217421","owner":"169771858@N03","secret":"2048711e79","server":"65535","farm":66,"title":"Pileated Woodpecker - 2022-04-03","ispublic":1,"isfriend":0,"isfamily":0},{"id":"52695180460","owner":"44034115@N08","secret":"c49b059416","server":"65535","farm":66,"title":"Meet the Pileated Woodpecker at Ashland Nature Center","ispublic":1,"isfriend":0,"isfamily":0},{"id":"52683116857","owner":"144980256@N07","secret":"2b119d4eeb","server":"65535","farm":66,"title":"Pileated Woodpecker (Dryocopus pileatus)","ispublic":1,"isfriend":0,"isfamily":0},{"id":"52683360531","owner":"144980256@N07","secret":"33169b797b","server":"65535","farm":66,"title":"Pileated Woodpecker (Dryocopus pileatus)","ispublic":1,"isfriend":0,"isfamily":0},{"id":"52683782760","owner":"144980256@N07","secret":"b1cd62efc6","server":"65535","farm":66,"title":"Pileated Woodpecker (Dryocopus pileatus)","ispublic":1,"isfriend":0,"isfamily":0},{"id":"52682391817","owner":"37566919@N02","secret":"fb2ab93417","server":"65535","farm":66,"title":"Pileated Woodpecker, male & female","ispublic":1,"isfriend":0,"isfamily":0},{"id":"52681793283","owner":"52170431@N04","secret":"92e4bb18e2","server":"65535","farm":66,"title":"Northern Pileated Woodpecker (Dryocopus pileatus abieticola), adult male, feeding DSD_6349a","ispublic":1,"isfriend":0,"isfamily":0},{"id":"52679912644","owner":"31379783@N02","secret":"d88c6eaf17","server":"65535","farm":66,"title":"Bois Papineau (CANOP\u00c9E)","ispublic":1,"isfriend":0,"isfamily":0},{"id":"52680125043","owner":"31379783@N02","secret":"3678f6529e","server":"65535","farm":66,"title":"Bois Papineau (CANOP\u00c9E)","ispublic":1,"isfriend":0,"isfamily":0},{"id":"52680064655","owner":"31379783@N02","secret":"e75053769c","server":"65535","farm":66,"title":"Bois Papineau (CANOP\u00c9E)","ispublic":1,"isfriend":0,"isfamily":0},{"id":"52679626891","owner":"31379783@N02","secret":"6e99a32ccd","server":"65535","farm":66,"title":"Bois Papineau (CANOP\u00c9E)","ispublic":1,"isfriend":0,"isfamily":0},{"id":"52679346508","owner":"8654297@N06","secret":"5526191d4c","server":"65535","farm":66,"title":"Home building","ispublic":1,"isfriend":0,"isfamily":0},{"id":"52673932184","owner":"197628215@N07","secret":"6192b0fd96","server":"65535","farm":66,"title":"Pileated Woodpecker (Dryocopus pileatus) 01\/27\/2023 - 01\/28\/2023 #pileatedwoodpecker #pileated #woodpecker #bestbackroad #bestbackroads #natgeoyourshots #natgeo100contest #rutlandcountyvermont #rutlandcountyvt #washingtoncountynewyork #washingtoncountyny","ispublic":1,"isfriend":0,"isfamily":0},{"id":"52673643819","owner":"197628215@N07","secret":"3bd734e6e7","server":"65535","farm":66,"title":"Pileated Woodpecker (Dryocopus pileatus) 01\/27\/2023 - 01\/28\/2023 #pileatedwoodpecker #pileated #woodpecker #bestbackroad #bestbackroads #natgeoyourshots #natgeo100contest #rutlandcountyvermont #rutlandcountyvt #washingtoncountynewyork #washingtoncountyny","ispublic":1,"isfriend":0,"isfamily":0},{"id":"52672347890","owner":"7640100@N02","secret":"6493e46bbc","server":"65535","farm":66,"title":"Trou d'un Grand-pic dans un \u00c9rable rouge","ispublic":1,"isfriend":0,"isfamily":0},{"id":"52671370262","owner":"7640100@N02","secret":"ecee13061e","server":"65535","farm":66,"title":"Grand Pic \/ Pileated woodpecker [Dryocopus pileatus]","ispublic":1,"isfriend":0,"isfamily":0},{"id":"52671372601","owner":"78919200@N08","secret":"863697792a","server":"65535","farm":66,"title":"Pileated Woodpecker (Dryocopus pileatus)","ispublic":1,"isfriend":0,"isfamily":0},{"id":"52671005020","owner":"74787113@N05","secret":"c2f3d58a08","server":"65535","farm":66,"title":"PILEATED WOODPECKER","ispublic":1,"isfriend":0,"isfamily":0},{"id":"52670151598","owner":"44034115@N08","secret":"c01cc55c35","server":"65535","farm":66,"title":"Pileated Woodpecker Consolation Prize","ispublic":1,"isfriend":0,"isfamily":0},{"id":"52666541111","owner":"86191812@N07","secret":"f6d123cc01","server":"65535","farm":66,"title":"Pileated Woodpecker (Dryocopus pileatus)","ispublic":1,"isfriend":0,"isfamily":0},{"id":"52665908921","owner":"52170431@N04","secret":"90961fcbaa","server":"65535","farm":66,"title":"Northern Pileated Woodpecker (Dryocopus pileatus abieticola), adult male DSD_6432","ispublic":1,"isfriend":0,"isfamily":0},{"id":"52662451952","owner":"188156748@N07","secret":"410ecd293f","server":"65535","farm":66,"title":"Pileated Woodpecker (M) - Grand Pic (M) - Dryocopus pileatus 3114 (11)-SharpenAI-Standard copy.jpgS","ispublic":1,"isfriend":0,"isfamily":0},{"id":"52663446558","owner":"188156748@N07","secret":"7acbb97691","server":"65535","farm":66,"title":"Pileated Woodpecker (M) - Grand Pic (M) - Dryocopus pileatus 3114 (12)-SharpenAI-Standard copy.jpgS","ispublic":1,"isfriend":0,"isfamily":0},{"id":"52662451877","owner":"188156748@N07","secret":"9ce34a7fc6","server":"65535","farm":66,"title":"Pileated Woodpecker (M) - Grand Pic (M) - Dryocopus pileatus 3114 (13)-SharpenAI-Standard copy.jpgS","ispublic":1,"isfriend":0,"isfamily":0},{"id":"52662950826","owner":"188156748@N07","secret":"ca466a390b","server":"65535","farm":66,"title":"Pileated Woodpecker (M) - Grand Pic (M) - Dryocopus pileatus 3114 (17)-SharpenAI-Standard copy.jpgS","ispublic":1,"isfriend":0,"isfamily":0},{"id":"52663234774","owner":"188156748@N07","secret":"a6ef1fcdd8","server":"65535","farm":66,"title":"Pileated Woodpecker (S) - Grand Pic (S) - Dryocopus pileatus 3140 (3)-SharpenAI-Standard copy.jpgS","ispublic":1,"isfriend":0,"isfamily":0},{"id":"52663234784","owner":"188156748@N07","secret":"7262d97a83","server":"65535","farm":66,"title":"Pileated Woodpecker (M) - Grand Pic (M) - Dryocopus pileatus 3140 (7)-SharpenAI-Standard copy.jpgS","ispublic":1,"isfriend":0,"isfamily":0},{"id":"52659537718","owner":"136180232@N08","secret":"f2c73d000d","server":"65535","farm":66,"title":"Pileated Woodpecker (Dryocopus pileatus) JTE_0336","ispublic":1,"isfriend":0,"isfamily":0},{"id":"52659491540","owner":"136180232@N08","secret":"3af9626bb6","server":"65535","farm":66,"title":"Pileated Woodpecker (Dryocopus pileatus) JTE_0334","ispublic":1,"isfriend":0,"isfamily":0},{"id":"52655697203","owner":"52170431@N04","secret":"4a000d5071","server":"65535","farm":66,"title":"Northern Pileated Woodpecker (Dryocopus pileatus abieticola), adult male DSD_6183","ispublic":1,"isfriend":0,"isfamily":0},{"id":"52655522980","owner":"71418112@N00","secret":"a991d769dd","server":"65535","farm":66,"title":"Pileated woodpecker with a snack.","ispublic":1,"isfriend":0,"isfamily":0},{"id":"52653537159","owner":"61241315@N00","secret":"2628d31032","server":"0","farm":0,"title":"Pileated Woodpecker_6552,53.MP4","ispublic":1,"isfriend":0,"isfamily":0},{"id":"52652558672","owner":"168495655@N07","secret":"81745536eb","server":"65535","farm":66,"title":"Grand Pic - Dryocopus pileatus - Pileated Woodpecker","ispublic":1,"isfriend":0,"isfamily":0},{"id":"52653152135","owner":"188156748@N07","secret":"04c53b9441","server":"65535","farm":66,"title":"Pileated Woodpecker - Grand Pic - Dryocopus pileatus 2396 (188)-SharpenAI-Standard copy.jpgS","ispublic":1,"isfriend":0,"isfamily":0},{"id":"52653068175","owner":"188156748@N07","secret":"ee14010745","server":"65535","farm":66,"title":"Pileated Woodpecker - Grand Pic - Dryocopus pileatus 2396 (149)-SharpenAI-Standard copy.jpgS","ispublic":1,"isfriend":0,"isfamily":0},{"id":"52652901719","owner":"188156748@N07","secret":"9befe2aa9a","server":"65535","farm":66,"title":"Pileated Woodpecker - Grand Pic - Dryocopus pileatus 2396 (150)-SharpenAI-Standard copy.jpgS","ispublic":1,"isfriend":0,"isfamily":0},{"id":"52653111268","owner":"188156748@N07","secret":"c18bb801f5","server":"65535","farm":66,"title":"Pileated Woodpecker - Grand Pic - Dryocopus pileatus 2396 (148)-SharpenAI-Standard copy.jpgS","ispublic":1,"isfriend":0,"isfamily":0},{"id":"52651766513","owner":"40723658@N05","secret":"bf4f6a1b67","server":"65535","farm":66,"title":"Pileated Woodpecker","ispublic":1,"isfriend":0,"isfamily":0},{"id":"52651199546","owner":"128537732@N06","secret":"4304804e50","server":"65535","farm":66,"title":"Pileated Woodpecker pair (Dryocopus pileatus)","ispublic":1,"isfriend":0,"isfamily":0},{"id":"52651470854","owner":"128537732@N06","secret":"ef416a7658","server":"65535","farm":66,"title":"male Pileated Woodpecker (Dryocopus pileatus)","ispublic":1,"isfriend":0,"isfamily":0},{"id":"52650622018","owner":"145086457@N04","secret":"811a196282","server":"65535","farm":66,"title":"Male Pileated 2","ispublic":1,"isfriend":0,"isfamily":0},{"id":"52649645537","owner":"145086457@N04","secret":"8b8d5ab58b","server":"65535","farm":66,"title":"Male Pileated 1","ispublic":1,"isfriend":0,"isfamily":0},{"id":"52648244976","owner":"61241315@N00","secret":"95491f9f1a","server":"0","farm":0,"title":"Pileated Woodpecker_6173.MP4","ispublic":1,"isfriend":0,"isfamily":0},{"id":"52648513424","owner":"61241315@N00","secret":"d44499121c","server":"0","farm":0,"title":"Pileated Woodpecker_6170.MP4","ispublic":1,"isfriend":0,"isfamily":0},{"id":"52648513444","owner":"61241315@N00","secret":"284ba81b66","server":"65535","farm":66,"title":"Female Pileated Woodpecker_N6172","ispublic":1,"isfriend":0,"isfamily":0},{"id":"52648726023","owner":"61241315@N00","secret":"b13ab5a473","server":"65535","farm":66,"title":"Pileated Woodpecker_N6391","ispublic":1,"isfriend":0,"isfamily":0},{"id":"52648684475","owner":"61241315@N00","secret":"f277fb9c54","server":"65535","farm":66,"title":"Pileated Woodpecker_N6388","ispublic":1,"isfriend":0,"isfamily":0},{"id":"52648240236","owner":"61241315@N00","secret":"12029b3fd8","server":"65535","farm":66,"title":"Male Pileated Woodpecker_N6396","ispublic":1,"isfriend":0,"isfamily":0},{"id":"52647741397","owner":"61241315@N00","secret":"08efe29cef","server":"65535","farm":66,"title":"Male Pileated Woodpecker_N6398","ispublic":1,"isfriend":0,"isfamily":0},{"id":"52648725928","owner":"61241315@N00","secret":"9da729fef0","server":"65535","farm":66,"title":"Male Pileated Woodpecker_N6400","ispublic":1,"isfriend":0,"isfamily":0},{"id":"52645012422","owner":"52170431@N04","secret":"02ce430e55","server":"65535","farm":66,"title":"Northern Pileated Woodpecker (Dryocopus pileatus abieticola), adult male DSD_6048","ispublic":1,"isfriend":0,"isfamily":0},{"id":"52644070210","owner":"62043870@N05","secret":"7463313f1e","server":"65535","farm":66,"title":"Pileated Woodpecker, Dryocopus pileatus","ispublic":1,"isfriend":0,"isfamily":0},{"id":"52644103353","owner":"62043870@N05","secret":"bcc532c8bd","server":"65535","farm":66,"title":"Pileated Woodpecker, Dryocopus pileatus","ispublic":1,"isfriend":0,"isfamily":0},{"id":"52629214049","owner":"49114357@N08","secret":"2276eaae8d","server":"65535","farm":66,"title":"Pileated Woodpecker","ispublic":1,"isfriend":0,"isfamily":0},{"id":"52639545905","owner":"48985578@N03","secret":"c2b8df403f","server":"65535","farm":66,"title":"Intense Pileated","ispublic":1,"isfriend":0,"isfamily":0},{"id":"52636447890","owner":"10289395@N05","secret":"4666073c7a","server":"65535","farm":66,"title":"Bon app\u00e9tit!","ispublic":1,"isfriend":0,"isfamily":0},{"id":"52636374728","owner":"14904436@N00","secret":"b0ef94fd21","server":"65535","farm":66,"title":"Woody the Woodpecker in a tree","ispublic":1,"isfriend":0,"isfamily":0},{"id":"52634806878","owner":"52170431@N04","secret":"7383d02e2b","server":"65535","farm":66,"title":"Northern Pileated Woodpecker (Dryocopus pileatus abieticola), adult male DSD_6420","ispublic":1,"isfriend":0,"isfamily":0},{"id":"52631768248","owner":"162163713@N06","secret":"389df2ffb3","server":"65535","farm":66,"title":"Grand Pic- Dryocopus pileatus - Pileated Woodpecker","ispublic":1,"isfriend":0,"isfamily":0},{"id":"52622689095","owner":"10289395@N05","secret":"8571443f85","server":"65535","farm":66,"title":"Castor volant","ispublic":1,"isfriend":0,"isfamily":0},{"id":"52620321261","owner":"10289395@N05","secret":"188f2dee49","server":"65535","farm":66,"title":"Impact","ispublic":1,"isfriend":0,"isfamily":0},{"id":"52620540670","owner":"52170431@N04","secret":"d0796d516b","server":"65535","farm":66,"title":"Northern Pileated Woodpecker (Dryocopus pileatus abieticola), adult male DSD_5673","ispublic":1,"isfriend":0,"isfamily":0},{"id":"52617772393","owner":"66855284@N03","secret":"2c269a8ecb","server":"65535","farm":66,"title":"Pileated Woodpecker 01","ispublic":1,"isfriend":0,"isfamily":0},{"id":"52614237673","owner":"188156748@N07","secret":"543820142c","server":"65535","farm":66,"title":"Pileated Woodpecker (M) - Grand Pic  (M) - Dryocopus pileatus 0111 (3)-SharpenAI-Standard copy.jpgS","ispublic":1,"isfriend":0,"isfamily":0},{"id":"52613748386","owner":"188156748@N07","secret":"b429fbf69e","server":"65535","farm":66,"title":"Pileated Woodpecker (M) - Grand Pic  (M) - Dryocopus pileatus 0111 (4)-SharpenAI-Standard copy.jpgS","ispublic":1,"isfriend":0,"isfamily":0},{"id":"52614007079","owner":"188156748@N07","secret":"241477e409","server":"65535","farm":66,"title":"Pileated Woodpecker (M) - Grand Pic  (M) - Dryocopus pileatus 0111 (5)-SharpenAI-Standard copy.jpgS","ispublic":1,"isfriend":0,"isfamily":0},{"id":"52614237568","owner":"188156748@N07","secret":"bdfc258667","server":"65535","farm":66,"title":"Pileated Woodpecker (M) - Grand Pic  (M) - Dryocopus pileatus 0111 (6)-SharpenAI-Standard copy.jpgS","ispublic":1,"isfriend":0,"isfamily":0},{"id":"52614007019","owner":"188156748@N07","secret":"977775b14c","server":"65535","farm":66,"title":"Pileated Woodpecker (M) - Grand Pic  (M) - Dryocopus pileatus 0111 (7)-SharpenAI-Standard copy.jpgS","ispublic":1,"isfriend":0,"isfamily":0},{"id":"52613239482","owner":"188156748@N07","secret":"51c2b4a7fd","server":"65535","farm":66,"title":"Pileated Woodpecker (M) - Grand Pic  (M) - Dryocopus pileatus 0111 (8)-SharpenAI-Standard copy.jpgS","ispublic":1,"isfriend":0,"isfamily":0},{"id":"52614237518","owner":"188156748@N07","secret":"c37dc71f98","server":"65535","farm":66,"title":"Pileated Woodpecker (M) - Grand Pic  (M) - Dryocopus pileatus 0111 (9)-SharpenAI-Standard copy.jpgS","ispublic":1,"isfriend":0,"isfamily":0},{"id":"52614176040","owner":"188156748@N07","secret":"907f9a0170","server":"65535","farm":66,"title":"Pileated Woodpecker (M) - Grand Pic  (M) - Dryocopus pileatus 0111 (13)-SharpenAI-Standard-SharpenAI-Standard copy.jpgS","ispublic":1,"isfriend":0,"isfamily":0},{"id":"52613239412","owner":"188156748@N07","secret":"521591cea6","server":"65535","farm":66,"title":"Pileated Woodpecker (M) - Grand Pic  (M) - Dryocopus pileatus 0111 (13)-SharpenAI-Standard (1) copy.jpgS","ispublic":1,"isfriend":0,"isfamily":0},{"id":"52614176020","owner":"188156748@N07","secret":"d22f4d99e1","server":"65535","farm":66,"title":"Pileated Woodpecker (M) - Grand Pic  (M) - Dryocopus pileatus 0111 (14)-SharpenAI-Standard copy.jpgS","ispublic":1,"isfriend":0,"isfamily":0},{"id":"52614006894","owner":"188156748@N07","secret":"f620a716de","server":"65535","farm":66,"title":"Pileated Woodpecker (M) - Grand Pic  (M) - Dryocopus pileatus 0111 (15)-SharpenAI-Standard copy.jpgS","ispublic":1,"isfriend":0,"isfamily":0},{"id":"52613239252","owner":"188156748@N07","secret":"d32ef921a8","server":"65535","farm":66,"title":"Pileated Woodpecker (M) - Grand Pic  (M) - Dryocopus pileatus 0111 (22)-SharpenAI-Standard copy.jpgS","ispublic":1,"isfriend":0,"isfamily":0},{"id":"52610170397","owner":"76617062@N08","secret":"68e7107dd3","server":"65535","farm":66,"title":"1.10087 Grand Pic (femelle) \/ Dryocopus pileatus abieticola \/ Pileated Woodpecker","ispublic":1,"isfriend":0,"isfamily":0},{"id":"52610224681","owner":"10336659@N04","secret":"a75f499a31","server":"65535","farm":66,"title":"Pileated Woodpecker (Dryocopus pileatus), Green Cay Nature Preserve.","ispublic":1,"isfriend":0,"isfamily":0},{"id":"52605177286","owner":"54059915@N07","secret":"03b0d512cf","server":"65535","farm":66,"title":"Got the hammer pulled back","ispublic":1,"isfriend":0,"isfamily":0},{"id":"52605653598","owner":"66709001@N00","secret":"bdba2c5828","server":"65535","farm":66,"title":"Pileated Woodpecker (Dryocopus pileatus)","ispublic":1,"isfriend":0,"isfamily":0},{"id":"52604650262","owner":"66709001@N00","secret":"c50f0c544e","server":"65535","farm":66,"title":"Pileated Woodpecker (Dryocopus pileatus)","ispublic":1,"isfriend":0,"isfamily":0},{"id":"52604650157","owner":"66709001@N00","secret":"fc8b699ae6","server":"65535","farm":66,"title":"Pileated Woodpecker (Dryocopus pileatus)","ispublic":1,"isfriend":0,"isfamily":0},{"id":"52605401769","owner":"66709001@N00","secret":"995a81f3d5","server":"65535","farm":66,"title":"Pileated Woodpecker (Dryocopus pileatus)","ispublic":1,"isfriend":0,"isfamily":0},{"id":"52605151146","owner":"66709001@N00","secret":"8f33310cf0","server":"65535","farm":66,"title":"Pileated Woodpecker (Dryocopus pileatus)","ispublic":1,"isfriend":0,"isfamily":0},{"id":"52603769764","owner":"52170431@N04","secret":"789061eefd","server":"65535","farm":66,"title":"Northern Pileated Woodpecker (Dryocopus pileatus abieticola), adult male DSD_5465","ispublic":1,"isfriend":0,"isfamily":0},{"id":"52601058471","owner":"188214336@N08","secret":"554489ab3d","server":"65535","farm":66,"title":"IMG_4871-2R1 Pileated Woodpecker","ispublic":1,"isfriend":0,"isfamily":0}]},"stat":"ok"}