{"photos":{"page":1,"pages":2,"perpage":100,"total":182,"photo":[{"id":"52767407379","owner":"68466173@N02","secret":"cd207537ca","server":"65535","farm":66,"title":"Pine Bunting (Emberiza leucocephalos)","ispublic":1,"isfriend":0,"isfamily":0},{"id":"52694314137","owner":"68466173@N02","secret":"311c819b3b","server":"65535","farm":66,"title":"Pine Bunting (Emberiza leucocephalos)","ispublic":1,"isfriend":0,"isfamily":0},{"id":"52620944154","owner":"68466173@N02","secret":"7fbd9139ea","server":"65535","farm":66,"title":"Pine Bunting (Emberiza leucocephalos)","ispublic":1,"isfriend":0,"isfamily":0},{"id":"52592133878","owner":"68466173@N02","secret":"38957336f8","server":"65535","farm":66,"title":"Pine Bunting (Emberiza leucocephalos)","ispublic":1,"isfriend":0,"isfamily":0},{"id":"52555288171","owner":"68466173@N02","secret":"cc77c5d576","server":"65535","farm":66,"title":"Pine Bunting (Emberiza leucocephalos)","ispublic":1,"isfriend":0,"isfamily":0},{"id":"52550860959","owner":"68466173@N02","secret":"c82c2b5d36","server":"65535","farm":66,"title":"Pine Bunting (Emberiza leucocephalos)","ispublic":1,"isfriend":0,"isfamily":0},{"id":"52534057779","owner":"68466173@N02","secret":"e8b154922b","server":"65535","farm":66,"title":"Pine Bunting (Emberiza leucocephalos)","ispublic":1,"isfriend":0,"isfamily":0},{"id":"52520172086","owner":"44721074@N08","secret":"67f71ba0c7","server":"65535","farm":66,"title":"Rock Bunting (Male)","ispublic":1,"isfriend":0,"isfamily":0},{"id":"52517185243","owner":"68466173@N02","secret":"2486b844bd","server":"65535","farm":66,"title":"Pine Bunting (Emberiza leucocephalos)","ispublic":1,"isfriend":0,"isfamily":0},{"id":"52499463941","owner":"68466173@N02","secret":"916ef92dd5","server":"65535","farm":66,"title":"Pine Bunting (Emberiza leucocephalos)","ispublic":1,"isfriend":0,"isfamily":0},{"id":"52299983693","owner":"145824323@N05","secret":"8f6edd618e","server":"65535","farm":66,"title":"Pine bunting (Emberiza leucocephalos)","ispublic":1,"isfriend":0,"isfamily":0},{"id":"52270304903","owner":"68466173@N02","secret":"d8e36b7976","server":"65535","farm":66,"title":"Pine Bunting (Emberiza leucocephalos)","ispublic":1,"isfriend":0,"isfamily":0},{"id":"52227765159","owner":"12639178@N07","secret":"ab693169ec","server":"65535","farm":66,"title":"singende Fichtenammer (m) (Emberiza leucocephalos)","ispublic":1,"isfriend":0,"isfamily":0},{"id":"52115859220","owner":"68466173@N02","secret":"43e2916f05","server":"65535","farm":66,"title":"Pine Bunting (Emberiza leucocephalos)","ispublic":1,"isfriend":0,"isfamily":0},{"id":"52031621207","owner":"68466173@N02","secret":"09e9f2d25e","server":"65535","farm":66,"title":"Pine Bunting (Emberiza leucocephalos)","ispublic":1,"isfriend":0,"isfamily":0},{"id":"51998700353","owner":"68466173@N02","secret":"b035694aa0","server":"65535","farm":66,"title":"Pine Bunting (Emberiza leucocephalos)","ispublic":1,"isfriend":0,"isfamily":0},{"id":"51977216662","owner":"68466173@N02","secret":"d300192273","server":"65535","farm":66,"title":"Pine Bunting (Emberiza leucocephalos)","ispublic":1,"isfriend":0,"isfamily":0},{"id":"51971494861","owner":"29991886@N06","secret":"d56535c86c","server":"65535","farm":66,"title":"\u00a9Mark Kras-Witkopgors-IMG_2209.jpg","ispublic":1,"isfriend":0,"isfamily":0},{"id":"51963695157","owner":"68466173@N02","secret":"1dd2de28fc","server":"65535","farm":66,"title":"Pine Bunting (Emberiza leucocephalos)","ispublic":1,"isfriend":0,"isfamily":0},{"id":"51933974099","owner":"68466173@N02","secret":"644fe0f960","server":"65535","farm":66,"title":"Pine Bunting (Emberiza leucocephalos)","ispublic":1,"isfriend":0,"isfamily":0},{"id":"51916363271","owner":"68466173@N02","secret":"96dd74fbfa","server":"65535","farm":66,"title":"Pine Bunting (Emberiza leucocephalos)","ispublic":1,"isfriend":0,"isfamily":0},{"id":"51891908262","owner":"68466173@N02","secret":"45ac39e0a6","server":"65535","farm":66,"title":"Pine Bunting (Emberiza leucocephalos)","ispublic":1,"isfriend":0,"isfamily":0},{"id":"51868268189","owner":"68466173@N02","secret":"70ae268c62","server":"65535","farm":66,"title":"Pine Bunting (Emberiza leucocephalos)","ispublic":1,"isfriend":0,"isfamily":0},{"id":"51832895399","owner":"68466173@N02","secret":"e5c4dd2eeb","server":"65535","farm":66,"title":"Pine Bunting (Emberiza leucocephalos)","ispublic":1,"isfriend":0,"isfamily":0},{"id":"51829591830","owner":"68466173@N02","secret":"99fdccbc60","server":"65535","farm":66,"title":"Pine Bunting (Emberiza leucocephalos)","ispublic":1,"isfriend":0,"isfamily":0},{"id":"51814342837","owner":"68466173@N02","secret":"cb8f5c61a2","server":"65535","farm":66,"title":"Pine Bunting (Emberiza leucocephalos)","ispublic":1,"isfriend":0,"isfamily":0},{"id":"51707004231","owner":"68466173@N02","secret":"d0578f69e5","server":"65535","farm":66,"title":"Pine Bunting (Emberiza leucocephalos)","ispublic":1,"isfriend":0,"isfamily":0},{"id":"51673537374","owner":"68466173@N02","secret":"4ea78fc6e4","server":"65535","farm":66,"title":"Pine Bunting (Emberiza leucocephalos)","ispublic":1,"isfriend":0,"isfamily":0},{"id":"51670232870","owner":"68466173@N02","secret":"b5fd77a59d","server":"65535","farm":66,"title":"Pine Bunting (Emberiza leucocephalos)","ispublic":1,"isfriend":0,"isfamily":0},{"id":"51339017837","owner":"68466173@N02","secret":"56d810e4a3","server":"65535","farm":66,"title":"Pine Bunting (Emberiza leucocephalos)","ispublic":1,"isfriend":0,"isfamily":0},{"id":"51281625523","owner":"56686021@N04","secret":"72f6c1d787","server":"65535","farm":66,"title":"Pine Bunting (female)","ispublic":1,"isfriend":0,"isfamily":0},{"id":"51282471495","owner":"56686021@N04","secret":"375c66388a","server":"65535","farm":66,"title":"Pine Bunting (female)","ispublic":1,"isfriend":0,"isfamily":0},{"id":"51282177774","owner":"56686021@N04","secret":"0260148d03","server":"65535","farm":66,"title":"Pine Bunting (male)","ispublic":1,"isfriend":0,"isfamily":0},{"id":"51282471440","owner":"56686021@N04","secret":"2bd0ce4140","server":"65535","farm":66,"title":"Pine Bunting (male)","ispublic":1,"isfriend":0,"isfamily":0},{"id":"51282177749","owner":"56686021@N04","secret":"0f1e529d7d","server":"65535","farm":66,"title":"Pine Bunting (male)","ispublic":1,"isfriend":0,"isfamily":0},{"id":"51118096411","owner":"68466173@N02","secret":"f1a2da0bec","server":"65535","farm":66,"title":"Pine Bunting (Emberiza leucocephalos)","ispublic":1,"isfriend":0,"isfamily":0},{"id":"51102859400","owner":"68466173@N02","secret":"08d08e889b","server":"65535","farm":66,"title":"Pine Bunting (Emberiza leucocephalos)","ispublic":1,"isfriend":0,"isfamily":0},{"id":"50801060476","owner":"68466173@N02","secret":"c3d13f4bc0","server":"65535","farm":66,"title":"Pine Bunting (Emberiza leucocephalos)","ispublic":1,"isfriend":0,"isfamily":0},{"id":"50776985323","owner":"190773540@N03","secret":"37af74d2bb","server":"65535","farm":66,"title":"Pine Bunting","ispublic":1,"isfriend":0,"isfamily":0},{"id":"50734131137","owner":"68466173@N02","secret":"f61a9de1b6","server":"65535","farm":66,"title":"Pine Bunting (Emberiza leucocephalos)","ispublic":1,"isfriend":0,"isfamily":0},{"id":"50691639308","owner":"68466173@N02","secret":"030508eb11","server":"65535","farm":66,"title":"Pine Bunting (Emberiza leucocephalos)","ispublic":1,"isfriend":0,"isfamily":0},{"id":"50633326626","owner":"147738232@N04","secret":"289083d688","server":"0","farm":0,"title":"MVI_1847 zigologolarossa (Emberiza leucocephalos)","ispublic":1,"isfriend":0,"isfamily":0},{"id":"50621750881","owner":"68466173@N02","secret":"c4a1fc2925","server":"65535","farm":66,"title":"Pine Bunting (Emberiza leucocephalos)","ispublic":1,"isfriend":0,"isfamily":0},{"id":"50591424002","owner":"68466173@N02","secret":"1bdfcd7826","server":"65535","farm":66,"title":"Pine Bunting (Emberiza leucocephalos)","ispublic":1,"isfriend":0,"isfamily":0},{"id":"50241786966","owner":"61021753@N02","secret":"2b9473004a","server":"65535","farm":66,"title":"n63_w1150","ispublic":1,"isfriend":0,"isfamily":0},{"id":"49492641068","owner":"68466173@N02","secret":"bfe5de3f74","server":"65535","farm":66,"title":"Pine Bunting (Emberiza leucocephalos)","ispublic":1,"isfriend":0,"isfamily":0},{"id":"49397981136","owner":"142083658@N05","secret":"1a090fd83b","server":"65535","farm":66,"title":"Pine Bunting, Emberiza leucocephalos, \u0411\u0435\u043b\u043e\u0448\u0430\u043f\u043e\u0447\u043d\u0430\u044f \u043e\u0432\u0441\u044f\u043d\u043a\u0430","ispublic":1,"isfriend":0,"isfamily":0},{"id":"49345974736","owner":"147738232@N04","secret":"eca5745e2a","server":"65535","farm":66,"title":"IMG_2366  zigolo golarossa (Emberiza leucocephalos)","ispublic":1,"isfriend":0,"isfamily":0},{"id":"49304793183","owner":"68466173@N02","secret":"a2a9b5dc21","server":"65535","farm":66,"title":"Pine Bunting (Emberiza leucocephalos)","ispublic":1,"isfriend":0,"isfamily":0},{"id":"49061073781","owner":"68466173@N02","secret":"651f7200fa","server":"65535","farm":66,"title":"Pine Bunting (Emberiza leucocephalos)","ispublic":1,"isfriend":0,"isfamily":0},{"id":"49061287077","owner":"68466173@N02","secret":"2bccb92cf1","server":"65535","farm":66,"title":"Pine Bunting (Emberiza leucocephalos)","ispublic":1,"isfriend":0,"isfamily":0},{"id":"49029783067","owner":"68466173@N02","secret":"84ef77a866","server":"65535","farm":66,"title":"Pine Bunting (Emberiza leucocephalos)","ispublic":1,"isfriend":0,"isfamily":0},{"id":"48988525441","owner":"68466173@N02","secret":"75382ac9f3","server":"65535","farm":66,"title":"Pine Bunting (Emberiza leucocephalos)","ispublic":1,"isfriend":0,"isfamily":0},{"id":"48953634888","owner":"68466173@N02","secret":"dd441d96b5","server":"65535","farm":66,"title":"Pine Bunting (Emberiza leucocephalos)","ispublic":1,"isfriend":0,"isfamily":0},{"id":"48545076412","owner":"62501256@N05","secret":"46786bf713","server":"65535","farm":66,"title":"Tree Pipit and Pine Bunting","ispublic":1,"isfriend":0,"isfamily":0},{"id":"48332242051","owner":"68466173@N02","secret":"3fe1ed5746","server":"65535","farm":66,"title":"Pine Bunting (Emberiza leucocephalos)","ispublic":1,"isfriend":0,"isfamily":0},{"id":"48241183152","owner":"62501256@N05","secret":"f2acffddb3","server":"65535","farm":66,"title":"Pine Bunting (Emberiza leucocephalos)","ispublic":1,"isfriend":0,"isfamily":0},{"id":"48240264962","owner":"62501256@N05","secret":"2e87f41e51","server":"65535","farm":66,"title":"Pine Bunting (Emberiza leucocephalos)","ispublic":1,"isfriend":0,"isfamily":0},{"id":"40921444413","owner":"68466173@N02","secret":"4b9d6eda4c","server":"65535","farm":66,"title":"Pine Bunting (Emberiza leucocephalos)","ispublic":1,"isfriend":0,"isfamily":0},{"id":"47039134034","owner":"142083658@N05","secret":"95a22a7da9","server":"65535","farm":66,"title":"Pine Bunting, Emberiza leucocephalos, \u0411\u0435\u043b\u043e\u0448\u0430\u043f\u043e\u0447\u043d\u0430\u044f \u043e\u0432\u0441\u044f\u043d\u043a\u0430","ispublic":1,"isfriend":0,"isfamily":0},{"id":"32870960917","owner":"142083658@N05","secret":"8c69c77175","server":"65535","farm":66,"title":"Pine Bunting, Emberiza leucocephalos, \u0411\u0435\u043b\u043e\u0448\u0430\u043f\u043e\u0447\u043d\u0430\u044f \u043e\u0432\u0441\u044f\u043d\u043a\u0430","ispublic":1,"isfriend":0,"isfamily":0},{"id":"46850274745","owner":"68466173@N02","secret":"7cd11f12d6","server":"65535","farm":66,"title":"Pine Bunting (Emberiza leucocephalos)","ispublic":1,"isfriend":0,"isfamily":0},{"id":"46701640485","owner":"68466173@N02","secret":"38c755d2eb","server":"65535","farm":66,"title":"Pine Bunting (Emberiza leucocephalos)","ispublic":1,"isfriend":0,"isfamily":0},{"id":"47484625152","owner":"68466173@N02","secret":"fe0f1cf42e","server":"7914","farm":8,"title":"Pine Bunting (Emberiza leucocephalos)","ispublic":1,"isfriend":0,"isfamily":0},{"id":"40260846743","owner":"23307082@N07","secret":"afedfc1f59","server":"7836","farm":8,"title":"Pine Bunting: Emberiza leucocephalos","ispublic":1,"isfriend":0,"isfamily":0},{"id":"32106049457","owner":"68466173@N02","secret":"01d35bba08","server":"7900","farm":8,"title":"Pine Bunting (Emberiza leucocephalos)","ispublic":1,"isfriend":0,"isfamily":0},{"id":"33031305708","owner":"147738232@N04","secret":"cb82a15a78","server":"4811","farm":5,"title":"IMG_3871  zigologolarossa (Emberiza leucocephalos)","ispublic":1,"isfriend":0,"isfamily":0},{"id":"31827280237","owner":"68466173@N02","secret":"1c928740f4","server":"7889","farm":8,"title":"Pine Bunting (Emberiza leucocephalos)","ispublic":1,"isfriend":0,"isfamily":0},{"id":"46211840671","owner":"68466173@N02","secret":"5d47520f85","server":"4875","farm":5,"title":"Pine Bunting (Emberiza leucocephalos)","ispublic":1,"isfriend":0,"isfamily":0},{"id":"45711994585","owner":"68466173@N02","secret":"eef0f407ac","server":"4916","farm":5,"title":"Pine Bunting (Emberiza leucocephalos)","ispublic":1,"isfriend":0,"isfamily":0},{"id":"44775783570","owner":"68466173@N02","secret":"6ae978e7e5","server":"7874","farm":8,"title":"Pine Bunting (Emberiza leucocephalos)","ispublic":1,"isfriend":0,"isfamily":0},{"id":"33035241278","owner":"68466173@N02","secret":"249cdf986b","server":"7809","farm":8,"title":"Pine Bunting (Emberiza leucocephalos)","ispublic":1,"isfriend":0,"isfamily":0},{"id":"44487725410","owner":"68466173@N02","secret":"d85efbf2cf","server":"4860","farm":5,"title":"Pine Bunting (Emberiza leucocephalos)","ispublic":1,"isfriend":0,"isfamily":0},{"id":"44432833490","owner":"68466173@N02","secret":"0091d77a1a","server":"1964","farm":2,"title":"Pine Bunting (Emberiza leucocephalos)","ispublic":1,"isfriend":0,"isfamily":0},{"id":"44144352520","owner":"68466173@N02","secret":"6f55599e95","server":"4909","farm":5,"title":"Pine Bunting (Emberiza leucocephalos)","ispublic":1,"isfriend":0,"isfamily":0},{"id":"40995692924","owner":"68466173@N02","secret":"26bd3c8192","server":"944","farm":1,"title":"Pine Bunting (Emberiza leucocephalos)","ispublic":1,"isfriend":0,"isfamily":0},{"id":"40156207564","owner":"50622698@N02","secret":"912de30406","server":"786","farm":1,"title":"Coucou toi !","ispublic":1,"isfriend":0,"isfamily":0},{"id":"40796310572","owner":"29991886@N06","secret":"ca328d025f","server":"794","farm":1,"title":"\u00a9Mark Kras-Witkopgors-IMG_2209.jpg","ispublic":1,"isfriend":0,"isfamily":0},{"id":"24940332877","owner":"68466173@N02","secret":"00fc5824bf","server":"4612","farm":5,"title":"Pine Bunting (Emberiza leucocephalos)","ispublic":1,"isfriend":0,"isfamily":0},{"id":"39637596331","owner":"68466173@N02","secret":"1ea799b52d","server":"4648","farm":5,"title":"Pine Bunting (Emberiza leucocephalos)","ispublic":1,"isfriend":0,"isfamily":0},{"id":"39589235491","owner":"68466173@N02","secret":"04bbe0ecbb","server":"4724","farm":5,"title":"Pine Bunting (Emberiza leucocephalos)","ispublic":1,"isfriend":0,"isfamily":0},{"id":"39417684592","owner":"91544025@N05","secret":"49364bc900","server":"4589","farm":5,"title":"Emberiza leucocephalos","ispublic":1,"isfriend":0,"isfamily":0},{"id":"38658059741","owner":"47449605@N07","secret":"59779fec2d","server":"4569","farm":5,"title":"Emberiza leucocephalos: Bruant \u00e0 calotte blanche (Pine Bunting)","ispublic":1,"isfriend":0,"isfamily":0},{"id":"26881915989","owner":"47449605@N07","secret":"c43b5c9bc2","server":"4580","farm":5,"title":"Emberiza leucocephalos: Bruant \u00e0 calotte blanche (Pine Bunting)","ispublic":1,"isfriend":0,"isfamily":0},{"id":"37907177074","owner":"68466173@N02","secret":"44d3ddd186","server":"4572","farm":5,"title":"Pine Bunting (Emberiza leucocephalos)","ispublic":1,"isfriend":0,"isfamily":0},{"id":"38481782161","owner":"68466173@N02","secret":"c083886051","server":"4516","farm":5,"title":"Pine Bunting (Emberiza leucocephalos)","ispublic":1,"isfriend":0,"isfamily":0},{"id":"26510081399","owner":"68466173@N02","secret":"395fb8d139","server":"4563","farm":5,"title":"Pine Bunting (Emberiza leucocephalos)","ispublic":1,"isfriend":0,"isfamily":0},{"id":"38212975691","owner":"68466173@N02","secret":"5be3861799","server":"4515","farm":5,"title":"Pine Bunting (Emberiza leucocephalos)","ispublic":1,"isfriend":0,"isfamily":0},{"id":"38115150741","owner":"68466173@N02","secret":"db539f27bf","server":"4448","farm":5,"title":"Pine Bunting (Emberiza leucocephalos)","ispublic":1,"isfriend":0,"isfamily":0},{"id":"37210990264","owner":"67786283@N07","secret":"f69d50baf3","server":"65535","farm":66,"title":"Witkopgors","ispublic":1,"isfriend":0,"isfamily":0},{"id":"52339082180","owner":"12639178@N07","secret":"6371296a8d","server":"65535","farm":66,"title":"Fichtenammer singt auf einem Draht in der N\u00e4he von Karakol in Kirgistan","ispublic":1,"isfriend":0,"isfamily":0},{"id":"52227494366","owner":"12639178@N07","secret":"03037d1c93","server":"65535","farm":66,"title":"Fichtenammer (m) (Emberiza leucocephalos)","ispublic":1,"isfriend":0,"isfamily":0},{"id":"52227494206","owner":"12639178@N07","secret":"3851e34314","server":"65535","farm":66,"title":"Fichtenammer (m) (Emberiza leucocephalos)","ispublic":1,"isfriend":0,"isfamily":0},{"id":"52227977380","owner":"12639178@N07","secret":"36dc1a51bc","server":"65535","farm":66,"title":"singende Fichtenammer (m) (Emberiza leucocephalos)","ispublic":1,"isfriend":0,"isfamily":0},{"id":"52226487332","owner":"12639178@N07","secret":"8447b93602","server":"65535","farm":66,"title":"singende Fichtenammer (m) (Emberiza leucocephalos)","ispublic":1,"isfriend":0,"isfamily":0},{"id":"51973606343","owner":"29991886@N06","secret":"30ef1c6247","server":"65535","farm":66,"title":"\u00a9Mark Kras-Witkopgors-IMG_2209.jpg","ispublic":1,"isfriend":0,"isfamily":0},{"id":"51856652774","owner":"147738232@N04","secret":"d1a33d3720","server":"65535","farm":66,"title":"IMG_1835  zigolo golarossa (Emberiza leucocephalos)","ispublic":1,"isfriend":0,"isfamily":0},{"id":"51049869367","owner":"61021753@N02","secret":"ae06ae2774","server":"65535","farm":66,"title":"n256_w1150","ispublic":1,"isfriend":0,"isfamily":0},{"id":"50743170437","owner":"145240108@N02","secret":"fdc9c3b229","server":"65535","farm":66,"title":"Pine bunting","ispublic":1,"isfriend":0,"isfamily":0},{"id":"46687777035","owner":"27818542@N06","secret":"6a94fd5d77","server":"7922","farm":8,"title":"Pine Bunting (Emberiza leucocephalos)","ispublic":1,"isfriend":0,"isfamily":0}]},"stat":"ok"}