{"photos":{"page":1,"pages":29,"perpage":100,"total":2855,"photo":[{"id":"52710023776","owner":"14734088@N02","secret":"4d6bca570f","server":"65535","farm":66,"title":"Tarin des pins  220312Va","ispublic":1,"isfriend":0,"isfamily":0},{"id":"52704586204","owner":"14734088@N02","secret":"3e4e3c3878","server":"65535","farm":66,"title":"Tarin des pins 230212H","ispublic":1,"isfriend":0,"isfamily":0},{"id":"52702562629","owner":"48014585@N00","secret":"81dde01c4c","server":"65535","farm":66,"title":"Pine Siskin","ispublic":1,"isfriend":0,"isfamily":0},{"id":"52702794633","owner":"48014585@N00","secret":"eff8a1d43d","server":"65535","farm":66,"title":"Pine Siskin","ispublic":1,"isfriend":0,"isfamily":0},{"id":"52694724918","owner":"14734088@N02","secret":"dd533e15dc","server":"65535","farm":66,"title":"Tarin des pins 230208H1","ispublic":1,"isfriend":0,"isfamily":0},{"id":"52690986838","owner":"34238008@N02","secret":"0dbaf60065","server":"65535","farm":66,"title":"Pine Siskin (Spinus pinus)","ispublic":1,"isfriend":0,"isfamily":0},{"id":"52689935721","owner":"33610210@N05","secret":"227eaf95b6","server":"65535","farm":66,"title":"Pine Siskin, Spinus pinus","ispublic":1,"isfriend":0,"isfamily":0},{"id":"52690203359","owner":"33610210@N05","secret":"293f8d2c16","server":"65535","farm":66,"title":"Pine Siskin, Spinus pinus","ispublic":1,"isfriend":0,"isfamily":0},{"id":"52689078743","owner":"14734088@N02","secret":"2668cc47fa","server":"65535","farm":66,"title":"Tarin des pins 230208H4","ispublic":1,"isfriend":0,"isfamily":0},{"id":"52685323021","owner":"48014585@N00","secret":"ff976e7f41","server":"65535","farm":66,"title":"Pine Siskin","ispublic":1,"isfriend":0,"isfamily":0},{"id":"52685821238","owner":"48014585@N00","secret":"939dc7ac15","server":"65535","farm":66,"title":"Pine Siskin","ispublic":1,"isfriend":0,"isfamily":0},{"id":"52665545893","owner":"68935859@N00","secret":"f278aefbc7","server":"65535","farm":66,"title":"Pine siskin (Spinus pinus)","ispublic":1,"isfriend":0,"isfamily":0},{"id":"52665545778","owner":"68935859@N00","secret":"6f60cc9d25","server":"65535","farm":66,"title":"Pine siskin (Spinus pinus)","ispublic":1,"isfriend":0,"isfamily":0},{"id":"52636431906","owner":"92361032@N05","secret":"e5bfa8ba04","server":"65535","farm":66,"title":"Pine Siskin Green Morph \/ Tarin des pins forme verte ( Richard )","ispublic":1,"isfriend":0,"isfamily":0},{"id":"52635055302","owner":"39138537@N06","secret":"03b8e39bb4","server":"65535","farm":66,"title":"Pine Siskin (Spinus pinus)","ispublic":1,"isfriend":0,"isfamily":0},{"id":"52635055297","owner":"39138537@N06","secret":"89dd24fdb6","server":"65535","farm":66,"title":"Pine Siskin (Spinus pinus)","ispublic":1,"isfriend":0,"isfamily":0},{"id":"52625777865","owner":"128537732@N06","secret":"99a32377f5","server":"65535","farm":66,"title":"Pine Siskin (Spinus pinus)","ispublic":1,"isfriend":0,"isfamily":0},{"id":"52624976433","owner":"188156748@N07","secret":"4fa0d12a4e","server":"65535","farm":66,"title":"Pine Siskin \u2013 Tarin des Pins \u2013 Spinus Pinus 1752 (1)-SharpenAI-Standard copy.jpgS","ispublic":1,"isfriend":0,"isfamily":0},{"id":"52624927685","owner":"188156748@N07","secret":"d77ff8c34c","server":"65535","farm":66,"title":"Pine Siskin \u2013 Tarin des Pins \u2013 Spinus Pinus 1752 (2)-SharpenAI-Standard copy.jpgS","ispublic":1,"isfriend":0,"isfamily":0},{"id":"52624927665","owner":"188156748@N07","secret":"a9f013ee40","server":"65535","farm":66,"title":"Pine Siskin \u2013 Tarin des Pins \u2013 Spinus Pinus 1752 (5)-SharpenAI-Standard copy.jpgS","ispublic":1,"isfriend":0,"isfamily":0},{"id":"52624976333","owner":"188156748@N07","secret":"a367f461a6","server":"65535","farm":66,"title":"Pine Siskin \u2013 Tarin des Pins \u2013 Spinus Pinus 1752 (8)-SharpenAI-Standard copy.jpgS","ispublic":1,"isfriend":0,"isfamily":0},{"id":"52624927585","owner":"188156748@N07","secret":"8c36d61bcd","server":"65535","farm":66,"title":"Pine Siskin \u2013 Tarin des Pins \u2013 Spinus Pinus 1752 (9)-SharpenAI-Standard copy.jpgS","ispublic":1,"isfriend":0,"isfamily":0},{"id":"52623002641","owner":"66855284@N03","secret":"e03471daf1","server":"65535","farm":66,"title":"Pine Suskin 2021 01 09 05","ispublic":1,"isfriend":0,"isfamily":0},{"id":"52623001521","owner":"66855284@N03","secret":"16e3c22b42","server":"65535","farm":66,"title":"Pine Suskin 2021 01 09 04","ispublic":1,"isfriend":0,"isfamily":0},{"id":"52623482948","owner":"66855284@N03","secret":"7498035351","server":"65535","farm":66,"title":"Pine Suskin 2021 01 09 06","ispublic":1,"isfriend":0,"isfamily":0},{"id":"52623243649","owner":"66855284@N03","secret":"2e9ffa4a56","server":"65535","farm":66,"title":"Pine Suskin 2021 01 03 01","ispublic":1,"isfriend":0,"isfamily":0},{"id":"52623242449","owner":"66855284@N03","secret":"931fc8d669","server":"65535","farm":66,"title":"Pine Suskin 2021 01 03 03","ispublic":1,"isfriend":0,"isfamily":0},{"id":"52582340554","owner":"8378957@N02","secret":"052cd3b15a","server":"65535","farm":66,"title":"Pine Siskin","ispublic":1,"isfriend":0,"isfamily":0},{"id":"52580696710","owner":"153973412@N04","secret":"3b01857dd3","server":"65535","farm":66,"title":"Pine Siskin-Spinus pinus, Iowa City, IA","ispublic":1,"isfriend":0,"isfamily":0},{"id":"52573951428","owner":"100108154@N02","secret":"ceb42414a3","server":"65535","farm":66,"title":"Pine Siskin","ispublic":1,"isfriend":0,"isfamily":0},{"id":"52566982723","owner":"103722035@N06","secret":"eaee8c67fe","server":"0","farm":0,"title":"Pine Siskin (Spinus pinus), Los Osos, CA","ispublic":1,"isfriend":0,"isfamily":0},{"id":"52564642954","owner":"188156748@N07","secret":"0da77ff588","server":"65535","farm":66,"title":"Pine Siskin - Tarin des Pins - Spinus Pinus  8637 (5) copy.jpgS","ispublic":1,"isfriend":0,"isfamily":0},{"id":"52564642899","owner":"188156748@N07","secret":"4b0b47b639","server":"65535","farm":66,"title":"Pine Siskin - Tarin des Pins - Spinus Pinus  8637 (10) copy.jpgS","ispublic":1,"isfriend":0,"isfamily":0},{"id":"52563904447","owner":"188156748@N07","secret":"36b3b61e3e","server":"65535","farm":66,"title":"Pine Siskin - Tarin des Pins - Spinus Pinus 8676 (1)-SharpenAI-Standard copy.jpgS","ispublic":1,"isfriend":0,"isfamily":0},{"id":"52555528735","owner":"188156748@N07","secret":"e2182cffc5","server":"65535","farm":66,"title":"Pine Siskin -   Tarin Des Pins  -  Spinus pinus 8293 (7)-SharpenAI-Standard copy.jpgS","ispublic":1,"isfriend":0,"isfamily":0},{"id":"52554601347","owner":"188156748@N07","secret":"2ffae78302","server":"65535","farm":66,"title":"Pine Siskin -   Tarin Des Pins  -  Spinus pinus 8293 (5)-SharpenAI-Standard copy.jpgS","ispublic":1,"isfriend":0,"isfamily":0},{"id":"52555528705","owner":"188156748@N07","secret":"2bc52d0c31","server":"65535","farm":66,"title":"Pine Siskin -   Tarin Des Pins  -  Spinus pinus 8293 (8)-SharpenAI-Standard copy.jpgS","ispublic":1,"isfriend":0,"isfamily":0},{"id":"52549679665","owner":"41544941@N00","secret":"28b0eff207","server":"65535","farm":66,"title":"Pine Siskin (Spinus pinus)","ispublic":1,"isfriend":0,"isfamily":0},{"id":"52530968665","owner":"33610210@N05","secret":"3ce70410d4","server":"65535","farm":66,"title":"Pine Siskin, Spinus pinus","ispublic":1,"isfriend":0,"isfamily":0},{"id":"52524994237","owner":"145466593@N08","secret":"3719025064","server":"65535","farm":66,"title":"Pine Siskin","ispublic":1,"isfriend":0,"isfamily":0},{"id":"52524994197","owner":"145466593@N08","secret":"3b48c49be8","server":"65535","farm":66,"title":"Pine Siskin","ispublic":1,"isfriend":0,"isfamily":0},{"id":"52525741093","owner":"57126723@N07","secret":"f93b720fdd","server":"65535","farm":66,"title":"Pine Siskin\u2014Spinus pinus\u2014Fringillidae\u2014New Quarter Park\u2014Williamsburg Virginia-5711","ispublic":1,"isfriend":0,"isfamily":0},{"id":"52525740838","owner":"57126723@N07","secret":"4077e45cf1","server":"65535","farm":66,"title":"Spinus pinus\u2014Pine siskin\u2014Fringillidae\u2014New Quarter Park\u2014Williamsburg Virginia-5712","ispublic":1,"isfriend":0,"isfamily":0},{"id":"52519518148","owner":"39617069@N08","secret":"5a9396e5fb","server":"65535","farm":66,"title":"Pine Siskin","ispublic":1,"isfriend":0,"isfamily":0},{"id":"52486962756","owner":"76617062@N08","secret":"c50cc50350","server":"65535","farm":66,"title":"1.30825 Tarin des pins \/ Spinus pinus pinus \/ Pine Siskin","ispublic":1,"isfriend":0,"isfamily":0},{"id":"52482033588","owner":"188156748@N07","secret":"998be14930","server":"65535","farm":66,"title":"Pine Siskin -   Tarin Des Pins  -  Spinus pinus  4507 (1)-SharpenAI-Standard copy.jpgS","ispublic":1,"isfriend":0,"isfamily":0},{"id":"52481490466","owner":"188156748@N07","secret":"b2a80b60e0","server":"65535","farm":66,"title":"Pine Siskin -   Tarin Des Pins  -  Spinus pinus 3528 (2) copy.jpgS","ispublic":1,"isfriend":0,"isfamily":0},{"id":"52481759029","owner":"188156748@N07","secret":"eb72c532b6","server":"65535","farm":66,"title":"Pine Siskin -   Tarin Des Pins  -  Spinus pinus 3528 (4) copy.jpgS","ispublic":1,"isfriend":0,"isfamily":0},{"id":"52452881825","owner":"62043870@N05","secret":"cfd05cf2f8","server":"65535","farm":66,"title":"Pine Siskin, Spinus pinus","ispublic":1,"isfriend":0,"isfamily":0},{"id":"52445187525","owner":"187792860@N04","secret":"dd16a08c64","server":"65535","farm":66,"title":"Pine Siskin (Spinus pinus)","ispublic":1,"isfriend":0,"isfamily":0},{"id":"52427739576","owner":"196264892@N08","secret":"e563e433dd","server":"65535","farm":66,"title":"Pine Siskins drinking","ispublic":1,"isfriend":0,"isfamily":0},{"id":"52423124302","owner":"187792860@N04","secret":"3a9cf5365b","server":"65535","farm":66,"title":"Pine Siskin (Spinus pinus)","ispublic":1,"isfriend":0,"isfamily":0},{"id":"52398127259","owner":"187792860@N04","secret":"b7a3dbc325","server":"65535","farm":66,"title":"Pine Siskin (Spinus pinus)","ispublic":1,"isfriend":0,"isfamily":0},{"id":"52385565067","owner":"64534310@N07","secret":"c9c1e590bf","server":"65535","farm":66,"title":"DSC9613  Siskin...","ispublic":1,"isfriend":0,"isfamily":0},{"id":"52379656816","owner":"187792860@N04","secret":"cd7be4ec53","server":"65535","farm":66,"title":"Pine Siskin (Spinus pinus)","ispublic":1,"isfriend":0,"isfamily":0},{"id":"52378573691","owner":"187792860@N04","secret":"e37c39f88c","server":"65535","farm":66,"title":"Pine Siskin (Spinus pinus)","ispublic":1,"isfriend":0,"isfamily":0},{"id":"52353736273","owner":"196264892@N08","secret":"9b0ed08988","server":"65535","farm":66,"title":"Pine Siskin","ispublic":1,"isfriend":0,"isfamily":0},{"id":"52322210570","owner":"187792860@N04","secret":"9c11e0a975","server":"65535","farm":66,"title":"Pine Siskin (Spinus pinus)","ispublic":1,"isfriend":0,"isfamily":0},{"id":"52312172352","owner":"196264892@N08","secret":"cdeb8de923","server":"65535","farm":66,"title":"Pine Siskin","ispublic":1,"isfriend":0,"isfamily":0},{"id":"52312968061","owner":"196264892@N08","secret":"84d2663453","server":"65535","farm":66,"title":"Pine Siskin","ispublic":1,"isfriend":0,"isfamily":0},{"id":"52310287155","owner":"131037795@N03","secret":"e117957d52","server":"65535","farm":66,"title":"Pine Siskin (Spinus pinus)","ispublic":1,"isfriend":0,"isfamily":0},{"id":"52308756423","owner":"196264892@N08","secret":"e99ab582dd","server":"65535","farm":66,"title":"Pine Siskin (1)","ispublic":1,"isfriend":0,"isfamily":0},{"id":"52307566087","owner":"196264892@N08","secret":"1885e6fecc","server":"65535","farm":66,"title":"Pine Siskin (2)","ispublic":1,"isfriend":0,"isfamily":0},{"id":"52288931244","owner":"196226977@N03","secret":"447d5521ce","server":"65535","farm":66,"title":"Pine Siskin","ispublic":1,"isfriend":0,"isfamily":0},{"id":"52289148925","owner":"196226977@N03","secret":"f7198f1dc8","server":"65535","farm":66,"title":"Pine Siskin","ispublic":1,"isfriend":0,"isfamily":0},{"id":"52289148840","owner":"196226977@N03","secret":"bda6fee247","server":"65535","farm":66,"title":"Pine Siskin","ispublic":1,"isfriend":0,"isfamily":0},{"id":"52289148715","owner":"196226977@N03","secret":"6d6d872f1f","server":"65535","farm":66,"title":"Pine Siskin","ispublic":1,"isfriend":0,"isfamily":0},{"id":"52288190486","owner":"196264892@N08","secret":"534e2e2a67","server":"65535","farm":66,"title":"Pine Siskins (1)","ispublic":1,"isfriend":0,"isfamily":0},{"id":"52288676710","owner":"196264892@N08","secret":"569a9b2663","server":"65535","farm":66,"title":"Pine Siskins (2)","ispublic":1,"isfriend":0,"isfamily":0},{"id":"52282862582","owner":"187792860@N04","secret":"aebc9238b7","server":"65535","farm":66,"title":"Pine Siskin (Spinus pinus)","ispublic":1,"isfriend":0,"isfamily":0},{"id":"52275428498","owner":"196264892@N08","secret":"00eb262e02","server":"65535","farm":66,"title":"Pine Siskin 3","ispublic":1,"isfriend":0,"isfamily":0},{"id":"52269198722","owner":"196264892@N08","secret":"a5590ba431","server":"65535","farm":66,"title":"Pine Siskin 1","ispublic":1,"isfriend":0,"isfamily":0},{"id":"52270654815","owner":"196264892@N08","secret":"3a14a76a5e","server":"65535","farm":66,"title":"Pine Siskin 2","ispublic":1,"isfriend":0,"isfamily":0},{"id":"52269197687","owner":"196264892@N08","secret":"0d2c15af59","server":"65535","farm":66,"title":"Pine Siskin winter flock 3","ispublic":1,"isfriend":0,"isfamily":0},{"id":"52270160601","owner":"196264892@N08","secret":"83c9a6fbda","server":"65535","farm":66,"title":"Pine Siskins winter flock 1","ispublic":1,"isfriend":0,"isfamily":0},{"id":"52270159006","owner":"196264892@N08","secret":"09f03ae533","server":"65535","farm":66,"title":"Pine Siskins winter flock 2","ispublic":1,"isfriend":0,"isfamily":0},{"id":"52253875069","owner":"34238008@N02","secret":"f29769279b","server":"65535","farm":66,"title":"Pine Siskin (Spinus pinus)","ispublic":1,"isfriend":0,"isfamily":0},{"id":"52252035169","owner":"64534310@N07","secret":"aff1a83607","server":"65535","farm":66,"title":"DSC6356  Siskin....","ispublic":1,"isfriend":0,"isfamily":0},{"id":"52248798196","owner":"187792860@N04","secret":"5406910c3e","server":"65535","farm":66,"title":"Pine Siskin (Spinus pinus)","ispublic":1,"isfriend":0,"isfamily":0},{"id":"52228022117","owner":"92361032@N05","secret":"86a330d2fb","server":"65535","farm":66,"title":"Pine Siskin \/ Tarin des pins ( Richard )","ispublic":1,"isfriend":0,"isfamily":0},{"id":"52219788467","owner":"144898534@N04","secret":"3339535afa","server":"65535","farm":66,"title":"Anna's","ispublic":1,"isfriend":0,"isfamily":0},{"id":"52220785706","owner":"144898534@N04","secret":"6588f719b4","server":"65535","farm":66,"title":"Pine Siskin","ispublic":1,"isfriend":0,"isfamily":0},{"id":"52216045224","owner":"119787485@N07","secret":"bd0be590ab","server":"65535","farm":66,"title":"Pine Siskin (Spinus pinus pinus) - 20220528-02","ispublic":1,"isfriend":0,"isfamily":0},{"id":"52193950456","owner":"15682617@N00","secret":"a16b34ab3c","server":"65535","farm":66,"title":"Camouflage 735","ispublic":1,"isfriend":0,"isfamily":0},{"id":"52189782300","owner":"15682617@N00","secret":"229f12f937","server":"65535","farm":66,"title":"Pine Siskin 717","ispublic":1,"isfriend":0,"isfamily":0},{"id":"52189551554","owner":"15682617@N00","secret":"2582d94ffd","server":"65535","farm":66,"title":"Pine Siskin 718","ispublic":1,"isfriend":0,"isfamily":0},{"id":"52188281422","owner":"15682617@N00","secret":"0ff2a726f3","server":"65535","farm":66,"title":"Pine Siskin 719","ispublic":1,"isfriend":0,"isfamily":0},{"id":"52188280707","owner":"15682617@N00","secret":"23b9f8c520","server":"65535","farm":66,"title":"Pine Siskin 721","ispublic":1,"isfriend":0,"isfamily":0},{"id":"52189780515","owner":"15682617@N00","secret":"0b8fcfdc0d","server":"65535","farm":66,"title":"Pine Siskin 724","ispublic":1,"isfriend":0,"isfamily":0},{"id":"52189549454","owner":"15682617@N00","secret":"b2f9401b25","server":"65535","farm":66,"title":"Pine Siskin 725","ispublic":1,"isfriend":0,"isfamily":0},{"id":"52189549199","owner":"15682617@N00","secret":"bcddb453a0","server":"65535","farm":66,"title":"Pine Siskin 727","ispublic":1,"isfriend":0,"isfamily":0},{"id":"52188279117","owner":"15682617@N00","secret":"b47dc2bd69","server":"65535","farm":66,"title":"Pine Siskin 729","ispublic":1,"isfriend":0,"isfamily":0},{"id":"52653315779","owner":"50264295@N06","secret":"f936a7792e","server":"65535","farm":66,"title":"Pine Siskin (Spinus pinus)- SY, FCF female","ispublic":1,"isfriend":0,"isfamily":0},{"id":"52653473190","owner":"50264295@N06","secret":"405f26077b","server":"65535","farm":66,"title":"Pine Siskin (Spinus pinus)- ASY, DCB male","ispublic":1,"isfriend":0,"isfamily":0},{"id":"52653303294","owner":"50264295@N06","secret":"058b5440b3","server":"65535","farm":66,"title":"Pine Siskin (Spinus pinus)- ASY, DCB male","ispublic":1,"isfriend":0,"isfamily":0},{"id":"52530497661","owner":"33610210@N05","secret":"7ac74d1473","server":"65535","farm":66,"title":"Pine Siskin, Spinus pinus","ispublic":1,"isfriend":0,"isfamily":0},{"id":"52522111902","owner":"23016207@N05","secret":"96dcbcb72a","server":"65535","farm":66,"title":"plenty to eat","ispublic":1,"isfriend":0,"isfamily":0},{"id":"52480188060","owner":"30638967@N03","secret":"e6f0abaed3","server":"65535","farm":66,"title":"Pine Siskin DSC_9613","ispublic":1,"isfriend":0,"isfamily":0},{"id":"52239038265","owner":"67306066@N03","secret":"2194dcb2b1","server":"65535","farm":66,"title":"Pine Siskin (Spinus pinus)","ispublic":1,"isfriend":0,"isfamily":0},{"id":"52207512980","owner":"48014585@N00","secret":"67e14eeac6","server":"65535","farm":66,"title":"Pine Siskin","ispublic":1,"isfriend":0,"isfamily":0}]},"stat":"ok"}