{"photos":{"page":1,"pages":4,"perpage":100,"total":380,"photo":[{"id":"52752903818","owner":"123979267@N05","secret":"d45d9f151c","server":"65535","farm":66,"title":"Piratic Flycatcher","ispublic":1,"isfriend":0,"isfamily":0},{"id":"52572003850","owner":"53247049@N07","secret":"634a04b292","server":"65535","farm":66,"title":"PIRATIC FLYCATCHER Legatus leucophaius in a Pico Pico Tree in Mindo in Northwestern ECUADOR. Photo by Peter Wendelken.","ispublic":1,"isfriend":0,"isfamily":0},{"id":"52543089777","owner":"197032735@N05","secret":"980abbc541","server":"65535","farm":66,"title":"legatus leucophaius","ispublic":1,"isfriend":0,"isfamily":0},{"id":"52421786779","owner":"69537243@N07","secret":"a126f1b803","server":"65535","farm":66,"title":"Piratic Flycatcher - Papa-moscas pirata - Legatus leucophaius","ispublic":1,"isfriend":0,"isfamily":0},{"id":"52419628006","owner":"32805478@N03","secret":"d50ee6c5ab","server":"65535","farm":66,"title":"Mosquero pirata, Legatus leucophaius, Piratic flycatcher","ispublic":1,"isfriend":0,"isfamily":0},{"id":"52416347456","owner":"69537243@N07","secret":"82e90f97db","server":"0","farm":0,"title":"Piratic flycatcher singing - Papa-moscas pirata - Legatus leucophaius","ispublic":1,"isfriend":0,"isfamily":0},{"id":"52416369325","owner":"69537243@N07","secret":"53b16afd82","server":"65535","farm":66,"title":"Piratic Flycatcher - Papa-moscas pirata - Legatus leucophaius","ispublic":1,"isfriend":0,"isfamily":0},{"id":"52309645090","owner":"131708321@N02","secret":"0e1ef34193","server":"65535","farm":66,"title":"Piratic Flycatcher (Legatus leucophaius), Felipe Carillo Puerto, Quintana Roo, Mexico","ispublic":1,"isfriend":0,"isfamily":0},{"id":"52304232163","owner":"186193378@N07","secret":"238d826ea1","server":"65535","farm":66,"title":"Bem-te-vi-pirata (Legatus leucophaius) Piratic Flycatcher","ispublic":1,"isfriend":0,"isfamily":0},{"id":"52261541044","owner":"131708321@N02","secret":"2775dcf489","server":"65535","farm":66,"title":"Piratic Flycatcher (Legatus leucophaius), Felipe Carillo Puerto, Quintana Roo, Mexico","ispublic":1,"isfriend":0,"isfamily":0},{"id":"52152313340","owner":"79383179@N03","secret":"6beb89c93d","server":"65535","farm":66,"title":"Piratic Flycatcher (Legatus leucophaius)","ispublic":1,"isfriend":0,"isfamily":0},{"id":"52089443893","owner":"56686021@N04","secret":"62fd27e72e","server":"65535","farm":66,"title":"Piratic Flycatcher","ispublic":1,"isfriend":0,"isfamily":0},{"id":"52089668124","owner":"56686021@N04","secret":"629a12c313","server":"65535","farm":66,"title":"Piratic Flycatcher","ispublic":1,"isfriend":0,"isfamily":0},{"id":"52019083570","owner":"12278268@N08","secret":"522a55bc79","server":"65535","farm":66,"title":"Piratic Flycatcher (Legatus leucophaius)","ispublic":1,"isfriend":0,"isfamily":0},{"id":"51942124567","owner":"126993030@N06","secret":"636a736a57","server":"65535","farm":66,"title":"Costa Rica (120)","ispublic":1,"isfriend":0,"isfamily":0},{"id":"51680816017","owner":"52363379@N07","secret":"9f30084c48","server":"65535","farm":66,"title":"Legatus leucophaius","ispublic":1,"isfriend":0,"isfamily":0},{"id":"51625252729","owner":"54249623@N08","secret":"eacd0a848c","server":"65535","farm":66,"title":"Atrapamoscas Pirata, Piratic Flycatcher (Legatus leucophaius)","ispublic":1,"isfriend":0,"isfamily":0},{"id":"51623775897","owner":"54249623@N08","secret":"cab52c4c0f","server":"65535","farm":66,"title":"Atrapamoscas Pirata, Piratic Flycatcher (Legatus leucophaius)","ispublic":1,"isfriend":0,"isfamily":0},{"id":"51524675108","owner":"48014585@N00","secret":"346293630d","server":"65535","farm":66,"title":"Piratic Flycatcher","ispublic":1,"isfriend":0,"isfamily":0},{"id":"51523624607","owner":"48014585@N00","secret":"4a57948fa9","server":"65535","farm":66,"title":"Piratic Flycatcher","ispublic":1,"isfriend":0,"isfamily":0},{"id":"51524414583","owner":"48014585@N00","secret":"b1a5a9a49c","server":"65535","farm":66,"title":"Piratic Flycatcher","ispublic":1,"isfriend":0,"isfamily":0},{"id":"51239746127","owner":"37493716@N02","secret":"c1e8194dc3","server":"65535","farm":66,"title":"Piratic Flycatcher - Legatus leucophaius - Reserva ProAves El Jaguar - Foto: Daniel Villar","ispublic":1,"isfriend":0,"isfamily":0},{"id":"51241225124","owner":"37493716@N02","secret":"12df7cf372","server":"65535","farm":66,"title":"Piratic Flycatcher - Legatus leucophaius - Reserva ProAves El Jaguar - Foto: Daniel Villar","ispublic":1,"isfriend":0,"isfamily":0},{"id":"51238632036","owner":"99208129@N08","secret":"e74c451520","server":"65535","farm":66,"title":"Legatus leucophaius \/ Piratic Flycatcher","ispublic":1,"isfriend":0,"isfamily":0},{"id":"51239687550","owner":"99208129@N08","secret":"203c7492d2","server":"65535","farm":66,"title":"Legatus leucophaius \/ Piratic Flycatcher","ispublic":1,"isfriend":0,"isfamily":0},{"id":"51221240939","owner":"12185056@N02","secret":"df281b3c8c","server":"65535","farm":66,"title":"Piratic Flycatcher (Legatus leucophaius)","ispublic":1,"isfriend":0,"isfamily":0},{"id":"51171583433","owner":"37493716@N02","secret":"ba6fc954f4","server":"0","farm":0,"title":"Piratic Flycatcher - Legatus leucophaius - El Jaguar ProAves Reserve - Foto: Luisa Fernanda Ch\u00e1vez Paz","ispublic":1,"isfriend":0,"isfamily":0},{"id":"51145163575","owner":"147283349@N08","secret":"fa3e57643f","server":"65535","farm":66,"title":"Legatus leucophaius","ispublic":1,"isfriend":0,"isfamily":0},{"id":"50889627663","owner":"32805478@N03","secret":"42bb6ce121","server":"65535","farm":66,"title":"Mosquero pirata, Legatus leucophaius, Piratic flycatcher","ispublic":1,"isfriend":0,"isfamily":0},{"id":"50303768612","owner":"189542651@N03","secret":"1e6bbb7f63","server":"65535","farm":66,"title":"piratic flycatcher (Legatus leucophaius)","ispublic":1,"isfriend":0,"isfamily":0},{"id":"50157710747","owner":"99208129@N08","secret":"a3561ebef5","server":"65535","farm":66,"title":"Legatus leucophaius \/ Piratic Flycatcher","ispublic":1,"isfriend":0,"isfamily":0},{"id":"50104050158","owner":"155928864@N08","secret":"722b1aa982","server":"65535","farm":66,"title":"Mosquero pirata, Legatus leucophaius, Piratic Flycatcher. Lita, Imbabura, Ecuador","ispublic":1,"isfriend":0,"isfamily":0},{"id":"22383402263","owner":"53247049@N07","secret":"828531f2e8","server":"5721","farm":6,"title":"PIRATIC FLYCATCHER Legatus leucophaius Eating a Pico Pico Fruit in Mindo in Northwestern ECUADOR. Photo by Peter Wendelken.","ispublic":1,"isfriend":0,"isfamily":0},{"id":"49847019482","owner":"47517413@N05","secret":"b6a71f33c3","server":"65535","farm":66,"title":"DSC_5651","ispublic":1,"isfriend":0,"isfamily":0},{"id":"49820188593","owner":"54249623@N08","secret":"51602e7d12","server":"65535","farm":66,"title":"Atrapamoscas Pirata, Piratic Flycatcher (Legatus leucophaius)","ispublic":1,"isfriend":0,"isfamily":0},{"id":"49820732561","owner":"54249623@N08","secret":"93e9f2b0a0","server":"65535","farm":66,"title":"Atrapamoscas Pirata, Piratic Flycatcher (Legatus leucophaius)","ispublic":1,"isfriend":0,"isfamily":0},{"id":"49729152733","owner":"147801026@N07","secret":"36f092cf52","server":"65535","farm":66,"title":"Piratic Flycatcher","ispublic":1,"isfriend":0,"isfamily":0},{"id":"49294373556","owner":"56686021@N04","secret":"97cf3607e2","server":"65535","farm":66,"title":"Piratic Flycatcher and Fork-tailed Flycatcher","ispublic":1,"isfriend":0,"isfamily":0},{"id":"49101553881","owner":"100887988@N03","secret":"df7ec0e86c","server":"65535","farm":66,"title":"Legatus leucophaius","ispublic":1,"isfriend":0,"isfamily":0},{"id":"48810147722","owner":"38048846@N07","secret":"b01376090c","server":"65535","farm":66,"title":"Bem-te-vi-pirata - Legatus leucophaius   - Piratic Flycatcher.","ispublic":1,"isfriend":0,"isfamily":0},{"id":"48369609357","owner":"48014585@N00","secret":"49d071af9c","server":"65535","farm":66,"title":"Piratic Flycatcher","ispublic":1,"isfriend":0,"isfamily":0},{"id":"48369472896","owner":"48014585@N00","secret":"c3ce88bf5b","server":"65535","farm":66,"title":"Piratic Flycatcher","ispublic":1,"isfriend":0,"isfamily":0},{"id":"48298551147","owner":"41643989@N04","secret":"50834c4230","server":"65535","farm":66,"title":"Piratic Flycatcher - Legatus leucophaius - Aguirre, Puntarenas, Costa Rica - June 19, 2019","ispublic":1,"isfriend":0,"isfamily":0},{"id":"48281889817","owner":"33820263@N07","secret":"5a7b17be3f","server":"65535","farm":66,"title":"Piratic Flycatcher","ispublic":1,"isfriend":0,"isfamily":0},{"id":"48184541382","owner":"95747238@N07","secret":"21fba54edd","server":"65535","farm":66,"title":"Legatus leucophaius o Atrapamoscas pirata 2","ispublic":1,"isfriend":0,"isfamily":0},{"id":"48184477316","owner":"95747238@N07","secret":"5d8deb997d","server":"65535","farm":66,"title":"Legatus leucophaius o Atrapamoscas pirata","ispublic":1,"isfriend":0,"isfamily":0},{"id":"40656411233","owner":"45340210@N05","secret":"e0985da691","server":"65535","farm":66,"title":"Piratic Flycatcher II","ispublic":1,"isfriend":0,"isfamily":0},{"id":"32554563067","owner":"147614971@N08","secret":"95b54d4405","server":"7875","farm":8,"title":"Piratic Flycatcher - Legatus leucophaius","ispublic":1,"isfriend":0,"isfamily":0},{"id":"46773042304","owner":"147614971@N08","secret":"2ac177c436","server":"7804","farm":8,"title":"Piratic Flycatcher - Legatus leucophaius","ispublic":1,"isfriend":0,"isfamily":0},{"id":"40254307103","owner":"130406067@N03","secret":"be891dfa11","server":"7834","farm":8,"title":"Piratic Flycatcher_28A1027","ispublic":1,"isfriend":0,"isfamily":0},{"id":"45405641115","owner":"21182099@N05","secret":"f92236faa9","server":"4856","farm":5,"title":"Piratic Flycatcher (Legatus leucophaius)","ispublic":1,"isfriend":0,"isfamily":0},{"id":"43143172530","owner":"144083559@N03","secret":"2131687549","server":"1955","farm":2,"title":"Bem te vi pirata","ispublic":1,"isfriend":0,"isfamily":0},{"id":"42494723585","owner":"72271115@N02","secret":"4a6bee3fc0","server":"1825","farm":2,"title":"Piratic Flycatcher --- Legatus leucophaius","ispublic":1,"isfriend":0,"isfamily":0},{"id":"28951657088","owner":"150197687@N08","secret":"e05559a2df","server":"887","farm":1,"title":"_MG_1932-2","ispublic":1,"isfriend":0,"isfamily":0},{"id":"40970726470","owner":"93959689@N07","secret":"fe20b591ef","server":"1753","farm":2,"title":"Piratic Flycatcher - Legatus leucophaius","ispublic":1,"isfriend":0,"isfamily":0},{"id":"41721236375","owner":"76973714@N06","secret":"d7cee71d80","server":"1743","farm":2,"title":"Piratic Flycatcher","ispublic":1,"isfriend":0,"isfamily":0},{"id":"52097964617","owner":"45681418@N03","secret":"3178e2832b","server":"65535","farm":66,"title":"Piratic Flycatcher (Legatus leucophaius)","ispublic":1,"isfriend":0,"isfamily":0},{"id":"51998274650","owner":"126271444@N08","secret":"913f77e796","server":"65535","farm":66,"title":"Piratic Flycatcher (Legatus leucophaius)","ispublic":1,"isfriend":0,"isfamily":0},{"id":"51904532596","owner":"95747238@N07","secret":"0d84733d28","server":"65535","farm":66,"title":"Legatus leucophaius","ispublic":1,"isfriend":0,"isfamily":0},{"id":"51706700604","owner":"193617639@N07","secret":"db667219c5","server":"65535","farm":66,"title":"Bem-te-vi-pirata (Legatus leucophaius)","ispublic":1,"isfriend":0,"isfamily":0},{"id":"51599895427","owner":"32752434@N07","secret":"8703e9331b","server":"65535","farm":66,"title":"Piratic Flycatcher (Legatus leucophaius)","ispublic":1,"isfriend":0,"isfamily":0},{"id":"51083006206","owner":"37493716@N02","secret":"61ec0e3fe8","server":"65535","farm":66,"title":"Piratic Flycatcher - Legatus leucophaius - El Jaguar ProAves Reserve - Foto: Daniel Villar","ispublic":1,"isfriend":0,"isfamily":0},{"id":"50383981858","owner":"141178418@N05","secret":"184389bd8a","server":"65535","farm":66,"title":"Atrapamoscas Pirata - Legatus leucophaius","ispublic":1,"isfriend":0,"isfamily":0},{"id":"50173675586","owner":"37493716@N02","secret":"641826b1aa","server":"65535","farm":66,"title":"Legatus leucophaius","ispublic":1,"isfriend":0,"isfamily":0},{"id":"49930039661","owner":"129081014@N03","secret":"97d8ab6be2","server":"65535","farm":66,"title":"Piratic Flycatcher (Legatus leucophaius)","ispublic":1,"isfriend":0,"isfamily":0},{"id":"49733642432","owner":"147801026@N07","secret":"1c48c782cb","server":"65535","farm":66,"title":"Piratic Flycatcher","ispublic":1,"isfriend":0,"isfamily":0},{"id":"49709423761","owner":"125723802@N05","secret":"4d2bc2f417","server":"65535","farm":66,"title":"Legatus leucophaius - Piratic Flycatcher","ispublic":1,"isfriend":0,"isfamily":0},{"id":"49688855258","owner":"158227412@N05","secret":"212089d12f","server":"65535","farm":66,"title":"Piratic Flycatcher","ispublic":1,"isfriend":0,"isfamily":0},{"id":"49688855013","owner":"158227412@N05","secret":"8e1c25855c","server":"65535","farm":66,"title":"Piratic Flycatcher","ispublic":1,"isfriend":0,"isfamily":0},{"id":"49674287537","owner":"56902740@N06","secret":"e7e8b62a42","server":"65535","farm":66,"title":"Piratic Flycatcher","ispublic":1,"isfriend":0,"isfamily":0},{"id":"49636582386","owner":"87325282@N00","secret":"dbb9a68a30","server":"65535","farm":66,"title":"Legatus leucophaius","ispublic":1,"isfriend":0,"isfamily":0},{"id":"49425156477","owner":"185604737@N04","secret":"7d883c4f16","server":"65535","farm":66,"title":"Legatus leucophaius_DSC2644","ispublic":1,"isfriend":0,"isfamily":0},{"id":"49424928071","owner":"185604737@N04","secret":"03d4d355fc","server":"65535","farm":66,"title":"Legatus leucophaius_DSC2650","ispublic":1,"isfriend":0,"isfamily":0},{"id":"49385413897","owner":"56686021@N04","secret":"7304161cda","server":"65535","farm":66,"title":"Piratic Flycatcher","ispublic":1,"isfriend":0,"isfamily":0},{"id":"49222384491","owner":"56686021@N04","secret":"9105ce1c9a","server":"65535","farm":66,"title":"Piratic Flycatcher","ispublic":1,"isfriend":0,"isfamily":0},{"id":"49222384466","owner":"56686021@N04","secret":"dbcbc45f7d","server":"65535","farm":66,"title":"Piratic Flycatcher","ispublic":1,"isfriend":0,"isfamily":0},{"id":"49125425587","owner":"46788536@N05","secret":"e921bbba3a","server":"65535","farm":66,"title":"Legatus leucophaius \/\/ Piratic Flycatcher","ispublic":1,"isfriend":0,"isfamily":0},{"id":"48601336716","owner":"87325282@N00","secret":"e359fd7ed2","server":"65535","farm":66,"title":"Legatus leucophaius","ispublic":1,"isfriend":0,"isfamily":0},{"id":"48601469012","owner":"87325282@N00","secret":"a13bd941f2","server":"65535","farm":66,"title":"Legatus leucophaius","ispublic":1,"isfriend":0,"isfamily":0},{"id":"48501650871","owner":"33820263@N07","secret":"4e62f3d35a","server":"65535","farm":66,"title":"Piratic Flycatcher","ispublic":1,"isfriend":0,"isfamily":0},{"id":"47892490241","owner":"136558434@N02","secret":"32fa4c96ff","server":"65535","farm":66,"title":"Flycatcher, Piratic","ispublic":1,"isfriend":0,"isfamily":0},{"id":"47882217621","owner":"26803925@N05","secret":"649365ea04","server":"65535","farm":66,"title":"Piratic Flycatcher (Legatus leucophaius) 03-13-2019 Casa Jorge Luis Soto Obando, Bijagua, Guanacaste, CR 4","ispublic":1,"isfriend":0,"isfamily":0},{"id":"47882217541","owner":"26803925@N05","secret":"3bb65d7911","server":"65535","farm":66,"title":"Piratic Flycatcher (Legatus leucophaius) 03-13-2019 Casa Jorge Luis Soto Obando, Bijagua, Guanacaste, CR 2","ispublic":1,"isfriend":0,"isfamily":0},{"id":"46946342454","owner":"47835705@N04","secret":"692fa20c74","server":"65535","farm":66,"title":"Piratic Flycatcher (Legatus leucophaius) Tico Rainforest, Costa Rica","ispublic":1,"isfriend":0,"isfamily":0},{"id":"32660003687","owner":"51928691@N04","secret":"39ec0063d8","server":"7849","farm":8,"title":"Piratic Flycatcher (Legatus leucophaius) 1 031119","ispublic":1,"isfriend":0,"isfamily":0},{"id":"46591556635","owner":"26803925@N05","secret":"8c9be7398f","server":"7830","farm":8,"title":"Piratic Flycatcher (Legatus leucophaius) 03-07-2019 PN Santa Rosa--Bosque Siempreverde, Guanacaste, CR 1","ispublic":1,"isfriend":0,"isfamily":0},{"id":"40537004673","owner":"147614971@N08","secret":"02b2763fbb","server":"7850","farm":8,"title":"Piratic Flycatcher - Legatus leucophaius","ispublic":1,"isfriend":0,"isfamily":0},{"id":"47449697072","owner":"147614971@N08","secret":"05b0b67cac","server":"7830","farm":8,"title":"Piratic Flycatcher - Legatus leucophaius","ispublic":1,"isfriend":0,"isfamily":0},{"id":"46778831874","owner":"147614971@N08","secret":"f966df003b","server":"7847","farm":8,"title":"Piratic Flycatcher - Legatus leucophaius","ispublic":1,"isfriend":0,"isfamily":0},{"id":"46515919725","owner":"147614971@N08","secret":"c144e9fb00","server":"7907","farm":8,"title":"Piratic Flycatcher - Legatus leucophaius","ispublic":1,"isfriend":0,"isfamily":0},{"id":"32349666067","owner":"17654080@N08","secret":"e26b594fe6","server":"7858","farm":8,"title":"Piratic Flycatcher in Poro Tree","ispublic":1,"isfriend":0,"isfamily":0},{"id":"46744243881","owner":"130481626@N02","secret":"d4d8b32880","server":"4871","farm":5,"title":"Atrapamoscas Pirata (LEgatus leucophaius)","ispublic":1,"isfriend":0,"isfamily":0},{"id":"44726401800","owner":"46788536@N05","secret":"53330f4a84","server":"4908","farm":5,"title":"Legatus leucophaius \/\/ Piratic Flycatcher","ispublic":1,"isfriend":0,"isfamily":0},{"id":"44935691605","owner":"87325282@N00","secret":"35cc348d2b","server":"1979","farm":2,"title":"Legatus leucophaius","ispublic":1,"isfriend":0,"isfamily":0},{"id":"45664573052","owner":"52363379@N07","secret":"d5f417343f","server":"1979","farm":2,"title":"Legatus leucophaius","ispublic":1,"isfriend":0,"isfamily":0},{"id":"43470588944","owner":"160265539@N02","secret":"e0e2cffc42","server":"1846","farm":2,"title":"legatus leucophaius 0571","ispublic":1,"isfriend":0,"isfamily":0},{"id":"43470588264","owner":"160265539@N02","secret":"43b4dcd631","server":"1851","farm":2,"title":"legatus leucophaius 0570","ispublic":1,"isfriend":0,"isfamily":0},{"id":"42889655405","owner":"153199674@N07","secret":"54c5de6399","server":"938","farm":1,"title":"Tyrannidae: Legatus leucophaius - Piratic Flycatcher","ispublic":1,"isfriend":0,"isfamily":0},{"id":"28748239548","owner":"76973714@N06","secret":"1528a60c30","server":"1758","farm":2,"title":"Piratic Flycatchers","ispublic":1,"isfriend":0,"isfamily":0},{"id":"40800349830","owner":"93959689@N07","secret":"dc37dde40f","server":"1725","farm":2,"title":"Piratic Flycatcher  - Legatus leucophaius","ispublic":1,"isfriend":0,"isfamily":0}]},"stat":"ok"}