{"photos":{"page":1,"pages":20,"perpage":100,"total":1925,"photo":[{"id":"52723948979","owner":"145466593@N08","secret":"fab9c817aa","server":"65535","farm":66,"title":"Prarie warbler","ispublic":1,"isfriend":0,"isfamily":0},{"id":"52719486106","owner":"12639178@N07","secret":"799a55dfa2","server":"65535","farm":66,"title":"Er sucht schon den Schlafbaum auf","ispublic":1,"isfriend":0,"isfamily":0},{"id":"52719485981","owner":"12639178@N07","secret":"a17c268b39","server":"65535","farm":66,"title":"Rotmantel-Walds\u00e4nger, ein Wintergast","ispublic":1,"isfriend":0,"isfamily":0},{"id":"52681047595","owner":"12639178@N07","secret":"a9ff6ec0bb","server":"65535","farm":66,"title":"Meist im dichten Bl\u00e4tterwald unterwegs","ispublic":1,"isfriend":0,"isfamily":0},{"id":"52680096202","owner":"12639178@N07","secret":"6875407119","server":"65535","farm":66,"title":"Auf Nahrungssuche","ispublic":1,"isfriend":0,"isfamily":0},{"id":"52680895794","owner":"12639178@N07","secret":"7f4887fdd0","server":"65535","farm":66,"title":"Rostscheitel-Walds\u00e4nger, ein h\u00e4ufiger Wintergast aus Nordamerika","ispublic":1,"isfriend":0,"isfamily":0},{"id":"52673133423","owner":"128369733@N04","secret":"cd8b40b5f4","server":"65535","farm":66,"title":"Prairie Warbler (1)","ispublic":1,"isfriend":0,"isfamily":0},{"id":"52673069930","owner":"128369733@N04","secret":"a52c229cc6","server":"65535","farm":66,"title":"Prairie Warbler (2)","ispublic":1,"isfriend":0,"isfamily":0},{"id":"52658921640","owner":"35170601@N06","secret":"b5482212bf","server":"65535","farm":66,"title":"Prairie warbler (Setophaga discolor)","ispublic":1,"isfriend":0,"isfamily":0},{"id":"52651544092","owner":"38514062@N03","secret":"e8d1bc0c9a","server":"65535","farm":66,"title":"Prairie Warbler (Setophaga discolor)","ispublic":1,"isfriend":0,"isfamily":0},{"id":"52604630560","owner":"17719035@N00","secret":"a3010f8431","server":"65535","farm":66,"title":"Prairie warbler (Setophaga discolor)","ispublic":1,"isfriend":0,"isfamily":0},{"id":"52580256436","owner":"153973412@N04","secret":"9d79b1d6b9","server":"65535","farm":66,"title":"Prairie Warbler-Setophaga discolor, Shimek Forest, IA","ispublic":1,"isfriend":0,"isfamily":0},{"id":"52493855333","owner":"39445433@N02","secret":"196b6029a6","server":"65535","farm":66,"title":"Prairie Warbler","ispublic":1,"isfriend":0,"isfamily":0},{"id":"52492819137","owner":"39445433@N02","secret":"1238d01f43","server":"65535","farm":66,"title":"Prairie Warbler","ispublic":1,"isfriend":0,"isfamily":0},{"id":"52479013592","owner":"88932760@N08","secret":"6249ec9596","server":"65535","farm":66,"title":"Pensive Prairie","ispublic":1,"isfriend":0,"isfamily":0},{"id":"52473838248","owner":"34674638@N05","secret":"9e36a61a67","server":"65535","farm":66,"title":"Prairie Warbler","ispublic":1,"isfriend":0,"isfamily":0},{"id":"52459196089","owner":"34674638@N05","secret":"7fc0949419","server":"65535","farm":66,"title":"Prairie Warbler","ispublic":1,"isfriend":0,"isfamily":0},{"id":"52453917811","owner":"91451359@N07","secret":"c01bf3fed7","server":"65535","farm":66,"title":"Prairie Warbler","ispublic":1,"isfriend":0,"isfamily":0},{"id":"52427582924","owner":"40723658@N05","secret":"0949d4a504","server":"65535","farm":66,"title":"Prairie Warbler","ispublic":1,"isfriend":0,"isfamily":0},{"id":"52381776767","owner":"88932760@N08","secret":"1f76094b64","server":"65535","farm":66,"title":"Lightest Touch","ispublic":1,"isfriend":0,"isfamily":0},{"id":"52382008089","owner":"54799211@N02","secret":"7becd5d4a0","server":"65535","farm":66,"title":"Prairie Warbler on Branch","ispublic":1,"isfriend":0,"isfamily":0},{"id":"52381145924","owner":"39511843@N07","secret":"d7a1da66c4","server":"65535","farm":66,"title":"Prairie Warbler (Setophaga discolor)-1-","ispublic":1,"isfriend":0,"isfamily":0},{"id":"52370263298","owner":"54799211@N02","secret":"54267e27d8","server":"65535","farm":66,"title":"Prairie Warbler in Flight","ispublic":1,"isfriend":0,"isfamily":0},{"id":"52369685171","owner":"54799211@N02","secret":"3b99363d1d","server":"65535","farm":66,"title":"Prairie Warbler","ispublic":1,"isfriend":0,"isfamily":0},{"id":"52365398204","owner":"128537732@N06","secret":"2285b6af5a","server":"65535","farm":66,"title":"Prairie Warbler (Setophaga discolor)","ispublic":1,"isfriend":0,"isfamily":0},{"id":"52365397824","owner":"128537732@N06","secret":"3a4872483b","server":"65535","farm":66,"title":"Prairie Warbler (Setophaga discolor)","ispublic":1,"isfriend":0,"isfamily":0},{"id":"52364507725","owner":"39511843@N07","secret":"3fdb504a73","server":"65535","farm":66,"title":"Prairie Warbler (Setophaga discolor) adult male-","ispublic":1,"isfriend":0,"isfamily":0},{"id":"52364507700","owner":"39511843@N07","secret":"4577d30eaa","server":"65535","farm":66,"title":"Prairie Warbler (Setophaga discolor) adult male-2-","ispublic":1,"isfriend":0,"isfamily":0},{"id":"52343638904","owner":"10336659@N04","secret":"9f113c0c9b","server":"65535","farm":66,"title":"Prairie Warbler in flight, Setophaga discolor, Green Cay Nature Preserve.","ispublic":1,"isfriend":0,"isfamily":0},{"id":"52339930830","owner":"10336659@N04","secret":"578afef634","server":"65535","farm":66,"title":"Prairie Warbler Setophaga discolor, Green Cay Nature Preserve.","ispublic":1,"isfriend":0,"isfamily":0},{"id":"52335070705","owner":"49114357@N08","secret":"5337f23e4c","server":"65535","farm":66,"title":"Prairie Warbler","ispublic":1,"isfriend":0,"isfamily":0},{"id":"52285192834","owner":"26371261@N00","secret":"5d55b0a0e1","server":"65535","farm":66,"title":"Prairie Warbler, Setophaga discolor","ispublic":1,"isfriend":0,"isfamily":0},{"id":"52261450322","owner":"23836012@N02","secret":"716bf7038c","server":"65535","farm":66,"title":"Prairie Warbler (Setophaga discolor)","ispublic":1,"isfriend":0,"isfamily":0},{"id":"52192052041","owner":"31057805@N02","secret":"aee6d9204f","server":"65535","farm":66,"title":"Yellow on a tree","ispublic":1,"isfriend":0,"isfamily":0},{"id":"52192537810","owner":"31057805@N02","secret":"df2cd4b7be","server":"65535","farm":66,"title":"Warbler with leaves","ispublic":1,"isfriend":0,"isfamily":0},{"id":"52192309974","owner":"31057805@N02","secret":"d117fdb611","server":"65535","farm":66,"title":"Warbler in the corner","ispublic":1,"isfriend":0,"isfamily":0},{"id":"52191038737","owner":"31057805@N02","secret":"f55a344696","server":"65535","farm":66,"title":"Warbler and the leaves","ispublic":1,"isfriend":0,"isfamily":0},{"id":"52181687012","owner":"129803374@N05","secret":"f70c86c52d","server":"65535","farm":66,"title":"Prairie Warbler (Setophaga discolor)","ispublic":1,"isfriend":0,"isfamily":0},{"id":"52180208085","owner":"7546739@N08","secret":"e9af0dbc22","server":"65535","farm":66,"title":"Prairie Warbler","ispublic":1,"isfriend":0,"isfamily":0},{"id":"52164469979","owner":"39445433@N02","secret":"2fdd237fd8","server":"65535","farm":66,"title":"Prairie Warbler","ispublic":1,"isfriend":0,"isfamily":0},{"id":"52164468699","owner":"39445433@N02","secret":"f6902ca365","server":"65535","farm":66,"title":"Prairie Warbler","ispublic":1,"isfriend":0,"isfamily":0},{"id":"52148135571","owner":"120449047@N06","secret":"473621d0e3","server":"65535","farm":66,"title":"Guys, Guys, guys, That's the dude with the hat","ispublic":1,"isfriend":0,"isfamily":0},{"id":"52144000312","owner":"57465751@N05","secret":"cfe0b20356","server":"65535","farm":66,"title":"Prairie Warbler (Setophaga discolor), Cabo Rojo, Pedernales, Dominican Republic","ispublic":1,"isfriend":0,"isfamily":0},{"id":"52137543724","owner":"31057805@N02","secret":"d52dc524e3","server":"65535","farm":66,"title":"Evening prairie warbler","ispublic":1,"isfriend":0,"isfamily":0},{"id":"52137327863","owner":"31057805@N02","secret":"b8f6a06fa3","server":"65535","farm":66,"title":"Bright yellow","ispublic":1,"isfriend":0,"isfamily":0},{"id":"52137327773","owner":"31057805@N02","secret":"d1e229dba8","server":"65535","farm":66,"title":"Looking up","ispublic":1,"isfriend":0,"isfamily":0},{"id":"52136278357","owner":"31057805@N02","secret":"f071d6a1a4","server":"65535","farm":66,"title":"From the side","ispublic":1,"isfriend":0,"isfamily":0},{"id":"52136278067","owner":"31057805@N02","secret":"8341903399","server":"65535","farm":66,"title":"A look from the perch","ispublic":1,"isfriend":0,"isfamily":0},{"id":"52116121138","owner":"54546220@N00","secret":"213c8cdf93","server":"65535","farm":66,"title":"Cig\u00fcita de los Prados, Prairie Warbler (Setophaga discolor) - prairie_MntCrti_IMG-2436","ispublic":1,"isfriend":0,"isfamily":0},{"id":"52100865742","owner":"185659367@N04","secret":"f6a8580004","server":"65535","farm":66,"title":"Prairie Warbler","ispublic":1,"isfriend":0,"isfamily":0},{"id":"52089463923","owner":"67164820@N06","secret":"65366eb274","server":"65535","farm":66,"title":"prairie 1","ispublic":1,"isfriend":0,"isfamily":0},{"id":"52089439451","owner":"67164820@N06","secret":"b1450372fd","server":"65535","farm":66,"title":"prairie 2","ispublic":1,"isfriend":0,"isfamily":0},{"id":"52088409972","owner":"67164820@N06","secret":"5635e5cbfc","server":"65535","farm":66,"title":"prairie 3","ispublic":1,"isfriend":0,"isfamily":0},{"id":"52089439166","owner":"67164820@N06","secret":"03d4928ce1","server":"65535","farm":66,"title":"yellow feathers","ispublic":1,"isfriend":0,"isfamily":0},{"id":"52081002828","owner":"145466593@N08","secret":"9f14133f16","server":"65535","farm":66,"title":"Prairie Warbler","ispublic":1,"isfriend":0,"isfamily":0},{"id":"52070996272","owner":"190773540@N03","secret":"e0182826e2","server":"65535","farm":66,"title":"Prairie Warbler","ispublic":1,"isfriend":0,"isfamily":0},{"id":"52069462533","owner":"18731552@N00","secret":"127258d836","server":"65535","farm":66,"title":"Prairie Warbler 16A6429.jpg","ispublic":1,"isfriend":0,"isfamily":0},{"id":"52065928584","owner":"120449047@N06","secret":"3b4d48f9a1","server":"65535","farm":66,"title":"Prairie Warbler (14\/35)","ispublic":1,"isfriend":0,"isfamily":0},{"id":"52055910157","owner":"22475926@N08","secret":"4a95df892a","server":"65535","farm":66,"title":"Prairie Warbler (Setophaga discolor)","ispublic":1,"isfriend":0,"isfamily":0},{"id":"52052833703","owner":"36685968@N00","secret":"ce68f425a3","server":"65535","farm":66,"title":"Prairie Warbler (Setophaga discolor)","ispublic":1,"isfriend":0,"isfamily":0},{"id":"52052801841","owner":"36685968@N00","secret":"e8a992aa49","server":"65535","farm":66,"title":"Prairie Warbler (Setophaga discolor)","ispublic":1,"isfriend":0,"isfamily":0},{"id":"52051548755","owner":"67164820@N06","secret":"b40f0483df","server":"65535","farm":66,"title":"prairie warbler b","ispublic":1,"isfriend":0,"isfamily":0},{"id":"52049999432","owner":"67164820@N06","secret":"f1f627934a","server":"65535","farm":66,"title":"prairie warbler c","ispublic":1,"isfriend":0,"isfamily":0},{"id":"52051544985","owner":"67164820@N06","secret":"a439360fc3","server":"65535","farm":66,"title":"prairie warbler d","ispublic":1,"isfriend":0,"isfamily":0},{"id":"52051289869","owner":"67164820@N06","secret":"87d7a0a2f5","server":"65535","farm":66,"title":"prairie warbler e","ispublic":1,"isfriend":0,"isfamily":0},{"id":"52049998912","owner":"67164820@N06","secret":"4fbe114501","server":"65535","farm":66,"title":"prairie warbler f","ispublic":1,"isfriend":0,"isfamily":0},{"id":"52042270402","owner":"22475926@N08","secret":"e2f42c03aa","server":"65535","farm":66,"title":"Prairie Warbler (Setophaga discolor)","ispublic":1,"isfriend":0,"isfamily":0},{"id":"52039377119","owner":"73654511@N05","secret":"d3bc5c3067","server":"65535","farm":66,"title":"L0A4966-Prairie Warbler","ispublic":1,"isfriend":0,"isfamily":0},{"id":"52019857487","owner":"65788177@N02","secret":"06186a43e3","server":"65535","farm":66,"title":"Prairie Warbler","ispublic":1,"isfriend":0,"isfamily":0},{"id":"52010868195","owner":"61241315@N00","secret":"0da76a421f","server":"0","farm":0,"title":"Prairie Warbler_0788.MP4","ispublic":1,"isfriend":0,"isfamily":0},{"id":"52010869505","owner":"61241315@N00","secret":"d4290f3576","server":"0","farm":0,"title":"Prairie Warbler_0787.MP4","ispublic":1,"isfriend":0,"isfamily":0},{"id":"52010355936","owner":"61241315@N00","secret":"98418ff28a","server":"65535","farm":66,"title":"Prairie Warbler_N0808","ispublic":1,"isfriend":0,"isfamily":0},{"id":"52010355911","owner":"61241315@N00","secret":"21da792a02","server":"65535","farm":66,"title":"Prairie Warbler_N0809","ispublic":1,"isfriend":0,"isfamily":0},{"id":"52009330042","owner":"61241315@N00","secret":"8f961f55e1","server":"65535","farm":66,"title":"Prairie Warbler_N0817","ispublic":1,"isfriend":0,"isfamily":0},{"id":"52010406738","owner":"61241315@N00","secret":"5168dd35a6","server":"65535","farm":66,"title":"Prairie Warbler_N0820","ispublic":1,"isfriend":0,"isfamily":0},{"id":"52010599789","owner":"61241315@N00","secret":"cc27214ff1","server":"65535","farm":66,"title":"Prairie Warbler_N0992","ispublic":1,"isfriend":0,"isfamily":0},{"id":"52457100716","owner":"42622112@N08","secret":"622e61783c","server":"65535","farm":66,"title":"Cig\u00fcita de los Prados \/ Prairie Warbler \/ Setophaga discolor","ispublic":1,"isfriend":0,"isfamily":0},{"id":"52457607968","owner":"42622112@N08","secret":"7881105b1d","server":"65535","farm":66,"title":"Cig\u00fcita de los Prados \/ Prairie Warbler \/ Setophaga discolor","ispublic":1,"isfriend":0,"isfamily":0},{"id":"52457316769","owner":"42622112@N08","secret":"94c519322a","server":"65535","farm":66,"title":"Cig\u00fcita de los Prados \/ Prairie Warbler \/ Setophaga discolor","ispublic":1,"isfriend":0,"isfamily":0},{"id":"52379486899","owner":"39511843@N07","secret":"2c8f91b642","server":"65535","farm":66,"title":"Prairie Warbler (Setophaga discolor)-2-","ispublic":1,"isfriend":0,"isfamily":0},{"id":"52379486889","owner":"39511843@N07","secret":"7968338dc3","server":"65535","farm":66,"title":"Prairie Warbler (Setophaga discolor)-5528-Edit","ispublic":1,"isfriend":0,"isfamily":0},{"id":"52376543606","owner":"39511843@N07","secret":"f1096f9552","server":"65535","farm":66,"title":"Prairie Warbler (Setophaga discolor)--2","ispublic":1,"isfriend":0,"isfamily":0},{"id":"52255772507","owner":"71989271@N06","secret":"acf9ec018c","server":"65535","farm":66,"title":"Prairie Warbler (m)(Setophaga discolor)","ispublic":1,"isfriend":0,"isfamily":0},{"id":"52256738291","owner":"71989271@N06","secret":"995ca0278d","server":"65535","farm":66,"title":"Prairie Warbler (m)(Setophaga discolor)","ispublic":1,"isfriend":0,"isfamily":0},{"id":"52168665795","owner":"14233971@N04","secret":"463cc3f04e","server":"65535","farm":66,"title":"Prairie Warbler","ispublic":1,"isfriend":0,"isfamily":0},{"id":"52160907260","owner":"71649471@N02","secret":"decde3c699","server":"65535","farm":66,"title":"Prairie Warbler","ispublic":1,"isfriend":0,"isfamily":0},{"id":"52020599764","owner":"66716461@N04","secret":"82e8b1290c","server":"65535","farm":66,"title":"prairie warbler (Setophaga discolor)","ispublic":1,"isfriend":0,"isfamily":0},{"id":"52052801921","owner":"36685968@N00","secret":"b4bebe7a13","server":"65535","farm":66,"title":"Prairie Warbler (Setophaga discolor)","ispublic":1,"isfriend":0,"isfamily":0},{"id":"52023343482","owner":"59619528@N04","secret":"ab91fb92bd","server":"65535","farm":66,"title":"Prairie Warbler (Setophaga discolor)","ispublic":1,"isfriend":0,"isfamily":0},{"id":"52024417963","owner":"59619528@N04","secret":"07c605447c","server":"65535","farm":66,"title":"Prairie Warbler (Setophaga discolor)","ispublic":1,"isfriend":0,"isfamily":0},{"id":"52024897145","owner":"59619528@N04","secret":"3c3e7300cd","server":"65535","farm":66,"title":"Prairie Warbler (Setophaga discolor)","ispublic":1,"isfriend":0,"isfamily":0},{"id":"52010869595","owner":"61241315@N00","secret":"69d1e4cc16","server":"65535","farm":66,"title":"Prairie Warbler_N0988","ispublic":1,"isfriend":0,"isfamily":0},{"id":"52010869545","owner":"61241315@N00","secret":"44f755acdb","server":"65535","farm":66,"title":"Prairie Warbler_N0998","ispublic":1,"isfriend":0,"isfamily":0},{"id":"52009329967","owner":"61241315@N00","secret":"c5e00179ff","server":"65535","farm":66,"title":"Prairie Warbler_N0994","ispublic":1,"isfriend":0,"isfamily":0},{"id":"52009329927","owner":"61241315@N00","secret":"e069754764","server":"65535","farm":66,"title":"Prairie Warbler_N1052","ispublic":1,"isfriend":0,"isfamily":0},{"id":"52010355811","owner":"61241315@N00","secret":"05a79cf71a","server":"65535","farm":66,"title":"Prairie Warbler_N1001","ispublic":1,"isfriend":0,"isfamily":0},{"id":"52005625932","owner":"48938938@N04","secret":"745bbc4650","server":"65535","farm":66,"title":"Prairie Warbler_Setophaga discolor_Ascanio-cuba_DZ3A5915","ispublic":1,"isfriend":0,"isfamily":0},{"id":"52007165725","owner":"48938938@N04","secret":"d114ec37c4","server":"65535","farm":66,"title":"Prairie Warbler_Setophaga discolor_Ascanio-cuba_DZ3A5909","ispublic":1,"isfriend":0,"isfamily":0},{"id":"52006649911","owner":"48938938@N04","secret":"5eb661fb4b","server":"65535","farm":66,"title":"Prairie Warbler_Setophaga discolor_Ascanio-cuba_DZ3A5913","ispublic":1,"isfriend":0,"isfamily":0},{"id":"52007164410","owner":"48938938@N04","secret":"b633fab1cf","server":"65535","farm":66,"title":"Prairie Warbler_Setophaga discolor_Ascanio-cuba_DZ3A6558","ispublic":1,"isfriend":0,"isfamily":0}]},"stat":"ok"}