{"photos":{"page":1,"pages":29,"perpage":100,"total":2898,"photo":[{"id":"52653858107","owner":"196786375@N03","secret":"7e33816078","server":"65535","farm":66,"title":"Prothonotary Warbler","ispublic":1,"isfriend":0,"isfamily":0},{"id":"52654830613","owner":"196786375@N03","secret":"c6ff31fa59","server":"65535","farm":66,"title":"Prothonotary Warbler","ispublic":1,"isfriend":0,"isfamily":0},{"id":"52653215436","owner":"132165466@N08","secret":"0cc194b7aa","server":"65535","farm":66,"title":"Prothonatary Warbler","ispublic":1,"isfriend":0,"isfamily":0},{"id":"52653200115","owner":"196786375@N03","secret":"e7855e7c67","server":"65535","farm":66,"title":"Prothonotary Warbler","ispublic":1,"isfriend":0,"isfamily":0},{"id":"52653198005","owner":"196786375@N03","secret":"fb7eafd9d7","server":"65535","farm":66,"title":"Prothonotary Warbler","ispublic":1,"isfriend":0,"isfamily":0},{"id":"52650708192","owner":"132165466@N08","secret":"1969646286","server":"65535","farm":66,"title":"Prothonatary Warbler","ispublic":1,"isfriend":0,"isfamily":0},{"id":"52651642925","owner":"132165466@N08","secret":"6f8167a0f4","server":"65535","farm":66,"title":"Prothonatary Warbler","ispublic":1,"isfriend":0,"isfamily":0},{"id":"52619105696","owner":"71649471@N02","secret":"df813ed091","server":"65535","farm":66,"title":"Prothonotary Warbler","ispublic":1,"isfriend":0,"isfamily":0},{"id":"52593539014","owner":"76288515@N07","secret":"35fef51805","server":"65535","farm":66,"title":"Prothonotary Warbler Protonotaria citrea","ispublic":1,"isfriend":0,"isfamily":0},{"id":"52593538984","owner":"76288515@N07","secret":"d5510802b8","server":"65535","farm":66,"title":"Prothonotary Warbler Protonotaria citrea","ispublic":1,"isfriend":0,"isfamily":0},{"id":"52592795812","owner":"76288515@N07","secret":"5c850934c3","server":"65535","farm":66,"title":"Prothonotary Warbler Protonotaria citrea","ispublic":1,"isfriend":0,"isfamily":0},{"id":"52593277656","owner":"76288515@N07","secret":"db47f7aa38","server":"65535","farm":66,"title":"Prothonotary Warbler Protonotaria citrea","ispublic":1,"isfriend":0,"isfamily":0},{"id":"52593538894","owner":"76288515@N07","secret":"367bd0621e","server":"65535","farm":66,"title":"Prothonotary Warbler Protonotaria citrea","ispublic":1,"isfriend":0,"isfamily":0},{"id":"52592795767","owner":"76288515@N07","secret":"6111f2ddfd","server":"65535","farm":66,"title":"Prothonotary Warbler Protonotaria citrea","ispublic":1,"isfriend":0,"isfamily":0},{"id":"52593705430","owner":"76288515@N07","secret":"448b6b90ce","server":"65535","farm":66,"title":"Prothonotary Warbler Protonotaria citrea","ispublic":1,"isfriend":0,"isfamily":0},{"id":"52593538834","owner":"76288515@N07","secret":"32d0d8a5f2","server":"65535","farm":66,"title":"Prothonotary Warbler Protonotaria citrea","ispublic":1,"isfriend":0,"isfamily":0},{"id":"52592795642","owner":"76288515@N07","secret":"15d914b216","server":"65535","farm":66,"title":"Prothonotary Warbler Protonotaria citrea","ispublic":1,"isfriend":0,"isfamily":0},{"id":"52593798493","owner":"76288515@N07","secret":"a122fc81b9","server":"65535","farm":66,"title":"Prothonotary Warbler Protonotaria citrea","ispublic":1,"isfriend":0,"isfamily":0},{"id":"52592795597","owner":"76288515@N07","secret":"d3aed406ba","server":"65535","farm":66,"title":"Prothonotary Warbler Protonotaria citrea","ispublic":1,"isfriend":0,"isfamily":0},{"id":"52580523374","owner":"153973412@N04","secret":"16d71abe27","server":"65535","farm":66,"title":"Prothonotary Warbler-Protonotaria citrea, Iowa City, IA","ispublic":1,"isfriend":0,"isfamily":0},{"id":"52540396061","owner":"32320154@N05","secret":"a49dc1a983","server":"65535","farm":66,"title":"Prothonotary warbler","ispublic":1,"isfriend":0,"isfamily":0},{"id":"52538702199","owner":"32320154@N05","secret":"f1c17c5cd2","server":"65535","farm":66,"title":"Prothonotary warbler","ispublic":1,"isfriend":0,"isfamily":0},{"id":"52538957123","owner":"32320154@N05","secret":"bf570fd90c","server":"65535","farm":66,"title":"Prothonotary warbler","ispublic":1,"isfriend":0,"isfamily":0},{"id":"52537946677","owner":"32320154@N05","secret":"8f6240afe7","server":"65535","farm":66,"title":"Prothonotary warbler","ispublic":1,"isfriend":0,"isfamily":0},{"id":"52538956783","owner":"32320154@N05","secret":"4566251948","server":"65535","farm":66,"title":"Prothonotary warbler","ispublic":1,"isfriend":0,"isfamily":0},{"id":"52537946247","owner":"32320154@N05","secret":"f65aa08d73","server":"65535","farm":66,"title":"Prothonotary warbler","ispublic":1,"isfriend":0,"isfamily":0},{"id":"52536378156","owner":"126805965@N03","secret":"2512231fde","server":"65535","farm":66,"title":"Prothonotary Warbler (Protonotaria citrea) - Vancouver, BC","ispublic":1,"isfriend":0,"isfamily":0},{"id":"52536924613","owner":"126805965@N03","secret":"bbe2f67d94","server":"65535","farm":66,"title":"Prothonotary Warbler (Protonotaria citrea) - Vancouver, BC","ispublic":1,"isfriend":0,"isfamily":0},{"id":"52492989367","owner":"39445433@N02","secret":"67cefd3e8f","server":"65535","farm":66,"title":"Prothonotary Warbler","ispublic":1,"isfriend":0,"isfamily":0},{"id":"52493940055","owner":"39445433@N02","secret":"3bc51888e8","server":"65535","farm":66,"title":"Prothonotary Warbler","ispublic":1,"isfriend":0,"isfamily":0},{"id":"52493472861","owner":"39445433@N02","secret":"bd28105fca","server":"65535","farm":66,"title":"Prothonotary Warbler","ispublic":1,"isfriend":0,"isfamily":0},{"id":"52493472351","owner":"39445433@N02","secret":"8e38a470f7","server":"65535","farm":66,"title":"Prothonotary Warbler","ispublic":1,"isfriend":0,"isfamily":0},{"id":"52493471666","owner":"39445433@N02","secret":"3b083df988","server":"65535","farm":66,"title":"Prothonotary Warbler","ispublic":1,"isfriend":0,"isfamily":0},{"id":"52454738106","owner":"35079936@N07","secret":"156e23b2ff","server":"65535","farm":66,"title":"9I2A3256E Cigu\u00edta Cabeza Amarilla - Prothonotary Warbler - Protonotaria citrea","ispublic":1,"isfriend":0,"isfamily":0},{"id":"52435281593","owner":"76288515@N07","secret":"a0391c94cd","server":"65535","farm":66,"title":"Prothonotary Warbler Protonotaria citrea","ispublic":1,"isfriend":0,"isfamily":0},{"id":"52435214865","owner":"76288515@N07","secret":"25e1e1b78c","server":"65535","farm":66,"title":"Prothonotary Warbler Protonotaria citrea","ispublic":1,"isfriend":0,"isfamily":0},{"id":"52435041069","owner":"76288515@N07","secret":"0ca279605d","server":"65535","farm":66,"title":"Prothonotary Warbler Protonotaria citrea","ispublic":1,"isfriend":0,"isfamily":0},{"id":"52435214710","owner":"76288515@N07","secret":"85381032cd","server":"65535","farm":66,"title":"Prothonotary Warbler Protonotaria citrea","ispublic":1,"isfriend":0,"isfamily":0},{"id":"52435214680","owner":"76288515@N07","secret":"1a3a46a239","server":"65535","farm":66,"title":"Prothonotary Warbler Protonotaria citrea","ispublic":1,"isfriend":0,"isfamily":0},{"id":"52434253267","owner":"76288515@N07","secret":"40140816c1","server":"65535","farm":66,"title":"Prothonotary Warbler Protonotaria citrea","ispublic":1,"isfriend":0,"isfamily":0},{"id":"52435214545","owner":"76288515@N07","secret":"b88e5e987c","server":"65535","farm":66,"title":"Prothonotary Warbler Protonotaria citrea","ispublic":1,"isfriend":0,"isfamily":0},{"id":"52404832834","owner":"140318147@N08","secret":"5e74ccd493","server":"65535","farm":66,"title":"prothonotary warbler (Protonotaria citrea) L4A4070","ispublic":1,"isfriend":0,"isfamily":0},{"id":"52405047543","owner":"140318147@N08","secret":"4a440a748b","server":"65535","farm":66,"title":"prothonotary warbler (Protonotaria citrea) L4A4086","ispublic":1,"isfriend":0,"isfamily":0},{"id":"52334308153","owner":"71649471@N02","secret":"5362b16535","server":"65535","farm":66,"title":"Prothonotary Warbler","ispublic":1,"isfriend":0,"isfamily":0},{"id":"52306795973","owner":"154417921@N04","secret":"a32236dc6e","server":"65535","farm":66,"title":"DSC05450 kopi\u00ebren 2","ispublic":1,"isfriend":0,"isfamily":0},{"id":"52290337468","owner":"88932760@N08","secret":"4631d728fa","server":"65535","farm":66,"title":"Stately Prothonotary","ispublic":1,"isfriend":0,"isfamily":0},{"id":"52257246310","owner":"42264328@N00","secret":"94731c279d","server":"65535","farm":66,"title":"Orange on orange","ispublic":1,"isfriend":0,"isfamily":0},{"id":"52253973339","owner":"71649471@N02","secret":"589ee08b61","server":"65535","farm":66,"title":"Lunch in the Canopy","ispublic":1,"isfriend":0,"isfamily":0},{"id":"52244085690","owner":"76617062@N08","secret":"6b4ef6b724","server":"65535","farm":66,"title":"1.27648 Paruline orang\u00e9e \/ Protonotaria citrea \/ Prothonotary Warbler","ispublic":1,"isfriend":0,"isfamily":0},{"id":"52237346287","owner":"93273765@N05","secret":"3828d7e002","server":"65535","farm":66,"title":"Prothonotary Warbler (Protonotaria citrea)","ispublic":1,"isfriend":0,"isfamily":0},{"id":"52228418133","owner":"39652177@N04","secret":"bca6662a0a","server":"65535","farm":66,"title":"Love notes","ispublic":1,"isfriend":0,"isfamily":0},{"id":"52202537773","owner":"184155060@N04","secret":"4d211132cb","server":"65535","farm":66,"title":"32683 Paruline orang\u00e9e \/ Protonotaria citrea \/ Prothonotary Warbler","ispublic":1,"isfriend":0,"isfamily":0},{"id":"52202537768","owner":"184155060@N04","secret":"ff525c99f7","server":"65535","farm":66,"title":"32683 Paruline orang\u00e9e \/ Protonotaria citrea \/ Prothonotary Warbler","ispublic":1,"isfriend":0,"isfamily":0},{"id":"52202509726","owner":"184155060@N04","secret":"39e78ec966","server":"65535","farm":66,"title":"32683 Paruline orang\u00e9e \/ Protonotaria citrea \/ Prothonotary Warbler","ispublic":1,"isfriend":0,"isfamily":0},{"id":"52203015255","owner":"184155060@N04","secret":"0786e1a850","server":"65535","farm":66,"title":"32683 Paruline orang\u00e9e \/ Protonotaria citrea \/ Prothonotary Warbler","ispublic":1,"isfriend":0,"isfamily":0},{"id":"52194198556","owner":"76617062@N08","secret":"7c24643375","server":"65535","farm":66,"title":"1.27648 Paruline orang\u00e9e \/ Protonotaria citrea \/ Prothonotary Warbler","ispublic":1,"isfriend":0,"isfamily":0},{"id":"52168388183","owner":"8065544@N08","secret":"304b705e3f","server":"65535","farm":66,"title":"Prothonotary Warbler (Protonotaria citrea)","ispublic":1,"isfriend":0,"isfamily":0},{"id":"52163177168","owner":"39289133@N07","secret":"734dbbe20b","server":"65535","farm":66,"title":"Prothonotary Warbler","ispublic":1,"isfriend":0,"isfamily":0},{"id":"52163176893","owner":"39289133@N07","secret":"9e923f24fd","server":"65535","farm":66,"title":"Prothonotary Warbler","ispublic":1,"isfriend":0,"isfamily":0},{"id":"52162410158","owner":"92361032@N05","secret":"f4a062a1e4","server":"65535","farm":66,"title":"Prothonotary Warbler \/ Paruline orang\u00e9e ( Diane )","ispublic":1,"isfriend":0,"isfamily":0},{"id":"52155904558","owner":"93273765@N05","secret":"9bf812f663","server":"65535","farm":66,"title":"Prothonotary Warbler (Protonotaria citrea)","ispublic":1,"isfriend":0,"isfamily":0},{"id":"52155470833","owner":"86191812@N07","secret":"dfaa900465","server":"65535","farm":66,"title":"Prothonotary Warbler (Protonotaria citrea)","ispublic":1,"isfriend":0,"isfamily":0},{"id":"52153913153","owner":"28499865@N07","secret":"5b112903d3","server":"65535","farm":66,"title":"Prothonotary Warbler - Protonotaria citrea","ispublic":1,"isfriend":0,"isfamily":0},{"id":"52153913138","owner":"28499865@N07","secret":"d9cee62a44","server":"65535","farm":66,"title":"Prothonotary Warbler - Protonotaria citrea","ispublic":1,"isfriend":0,"isfamily":0},{"id":"52152896592","owner":"28499865@N07","secret":"396cc9eba4","server":"65535","farm":66,"title":"Prothonotary Warbler - Protonotaria citrea","ispublic":1,"isfriend":0,"isfamily":0},{"id":"52145873898","owner":"8654297@N06","secret":"e6295ea741","server":"65535","farm":66,"title":"Stepping","ispublic":1,"isfriend":0,"isfamily":0},{"id":"52143806150","owner":"71649471@N02","secret":"f1261805a8","server":"65535","farm":66,"title":"Swamp Song","ispublic":1,"isfriend":0,"isfamily":0},{"id":"52140037172","owner":"37242840@N07","secret":"dd74639337","server":"65535","farm":66,"title":"Prothonotary Warbler, Protonotaria citrea","ispublic":1,"isfriend":0,"isfamily":0},{"id":"52139388550","owner":"62848917@N07","secret":"2c36780f63","server":"65535","farm":66,"title":"Prothonotary Warbler - Protonotaria citrea","ispublic":1,"isfriend":0,"isfamily":0},{"id":"52137783403","owner":"120449047@N06","secret":"5c4202396a","server":"65535","farm":66,"title":"Prothonotary Warbler","ispublic":1,"isfriend":0,"isfamily":0},{"id":"52133351872","owner":"86191812@N07","secret":"330cbe29a2","server":"65535","farm":66,"title":"Prothonotary Warbler (Protonotaria citrea)","ispublic":1,"isfriend":0,"isfamily":0},{"id":"52134100154","owner":"54514385@N06","secret":"c9032f53b0","server":"65535","farm":66,"title":"Prothonotary Warbler -- Protonotaria citrea","ispublic":1,"isfriend":0,"isfamily":0},{"id":"52128385105","owner":"54514385@N06","secret":"73d4df21c7","server":"65535","farm":66,"title":"Prothonotary Warbler -- Protonotaria citrea","ispublic":1,"isfriend":0,"isfamily":0},{"id":"52124244316","owner":"41710899@N08","secret":"7920b5306d","server":"65535","farm":66,"title":"Prothonotary Warbler","ispublic":1,"isfriend":0,"isfamily":0},{"id":"52124250054","owner":"54514385@N06","secret":"71ebe6714b","server":"65535","farm":66,"title":"Prothonotary Warbler -- Protonotaria citrea","ispublic":1,"isfriend":0,"isfamily":0},{"id":"52118665034","owner":"42264328@N00","secret":"8056e9b713","server":"65535","farm":66,"title":"More Magee birds","ispublic":1,"isfriend":0,"isfamily":0},{"id":"52116787658","owner":"76617062@N08","secret":"17dce14e21","server":"65535","farm":66,"title":"1.27648 Paruline orang\u00e9e \/ Protonotaria citrea \/ Prothonotary Warbler","ispublic":1,"isfriend":0,"isfamily":0},{"id":"52115743525","owner":"59770980@N02","secret":"270e98544c","server":"65535","farm":66,"title":"Logaskr\u00edkja-Prothonotary Warbler-Protonotaria citrea","ispublic":1,"isfriend":0,"isfamily":0},{"id":"52653697533","owner":"132165466@N08","secret":"2dffa2ff99","server":"65535","farm":66,"title":"Prothonatary Warbler","ispublic":1,"isfriend":0,"isfamily":0},{"id":"52645564519","owner":"8013969@N03","secret":"9f7a374362","server":"65535","farm":66,"title":"Protonotaria citrea DFL la22-1","ispublic":1,"isfriend":0,"isfamily":0},{"id":"52613142030","owner":"154417921@N04","secret":"9b4cd3fac1","server":"65535","farm":66,"title":"DSC05449 kopi\u00ebren1","ispublic":1,"isfriend":0,"isfamily":0},{"id":"52593705650","owner":"76288515@N07","secret":"336d6b7063","server":"65535","farm":66,"title":"Prothonotary Warbler Protonotaria citrea","ispublic":1,"isfriend":0,"isfamily":0},{"id":"52593539044","owner":"76288515@N07","secret":"1d134873cd","server":"65535","farm":66,"title":"Prothonotary Warbler Protonotaria citrea","ispublic":1,"isfriend":0,"isfamily":0},{"id":"52593277726","owner":"76288515@N07","secret":"be5d3c790a","server":"65535","farm":66,"title":"Prothonotary Warbler Protonotaria citrea","ispublic":1,"isfriend":0,"isfamily":0},{"id":"52593798793","owner":"76288515@N07","secret":"afe5652f6f","server":"65535","farm":66,"title":"Prothonotary Warbler Protonotaria citrea","ispublic":1,"isfriend":0,"isfamily":0},{"id":"52592795712","owner":"76288515@N07","secret":"590178f3d2","server":"65535","farm":66,"title":"Prothonotary Warbler Protonotaria citrea","ispublic":1,"isfriend":0,"isfamily":0},{"id":"52435041034","owner":"76288515@N07","secret":"5182848219","server":"65535","farm":66,"title":"Prothonotary Warbler Protonotaria citrea","ispublic":1,"isfriend":0,"isfamily":0},{"id":"52434253452","owner":"76288515@N07","secret":"a04e7031f2","server":"65535","farm":66,"title":"Prothonotary Warbler Protonotaria citrea","ispublic":1,"isfriend":0,"isfamily":0},{"id":"52427267652","owner":"140318147@N08","secret":"c20232dfb9","server":"65535","farm":66,"title":"prothonotary warbler (Protonotaria citrea)  L4A4767","ispublic":1,"isfriend":0,"isfamily":0},{"id":"52367698410","owner":"163930705@N05","secret":"b94bc5818a","server":"65535","farm":66,"title":"Prothonotary Warbler \/ Logaskr\u00edkja (Protonotaria citrea)","ispublic":1,"isfriend":0,"isfamily":0},{"id":"52355528759","owner":"59770980@N02","secret":"68eb753475","server":"65535","farm":66,"title":"Logaskr\u00edkja-Prothonotary Warbler-Protonotaria citrea","ispublic":1,"isfriend":0,"isfamily":0},{"id":"52220890951","owner":"74418101@N02","secret":"5a3b09c038","server":"65535","farm":66,"title":"Prothonotary Warbler (Protonotaria citrea)","ispublic":1,"isfriend":0,"isfamily":0},{"id":"52221160029","owner":"74418101@N02","secret":"e892de616c","server":"65535","farm":66,"title":"Prothonotary Warbler (Protonotaria citrea)","ispublic":1,"isfriend":0,"isfamily":0},{"id":"52220890701","owner":"74418101@N02","secret":"8e8649c39a","server":"65535","farm":66,"title":"Prothonotary Warbler (Protonotaria citrea)","ispublic":1,"isfriend":0,"isfamily":0},{"id":"52201509997","owner":"184155060@N04","secret":"064a61ba18","server":"65535","farm":66,"title":"32683 Paruline orang\u00e9e \/ Protonotaria citrea \/ Prothonotary Warbler","ispublic":1,"isfriend":0,"isfamily":0},{"id":"52168624319","owner":"8065544@N08","secret":"f99a6807d5","server":"65535","farm":66,"title":"Prothonotary Warbler (Protonotaria citrea)","ispublic":1,"isfriend":0,"isfamily":0},{"id":"52154296323","owner":"93273765@N05","secret":"a470048a78","server":"65535","farm":66,"title":"Prothonotary Warbler","ispublic":1,"isfriend":0,"isfamily":0},{"id":"52139765358","owner":"36685968@N00","secret":"8d6039f53e","server":"65535","farm":66,"title":"Prothonotary Warbler (Protonotaria citrea)","ispublic":1,"isfriend":0,"isfamily":0},{"id":"52134372739","owner":"25268283@N06","secret":"135140d9ce","server":"65535","farm":66,"title":"Morning Snack!","ispublic":1,"isfriend":0,"isfamily":0},{"id":"52124506970","owner":"54514385@N06","secret":"7fa9b0c8ca","server":"65535","farm":66,"title":"Prothonotary Warbler -- Protonotaria citrea","ispublic":1,"isfriend":0,"isfamily":0}]},"stat":"ok"}