{"photos":{"page":1,"pages":75,"perpage":100,"total":7427,"photo":[{"id":"52791397399","owner":"64534310@N07","secret":"b86804c604","server":"65535","farm":66,"title":"DSC7812  Purple Sandpiper...","ispublic":1,"isfriend":0,"isfamily":0},{"id":"52788095504","owner":"12639178@N07","secret":"a1e22e570d","server":"65535","farm":66,"title":"Meerstarndl\u00e4ufer","ispublic":1,"isfriend":0,"isfamily":0},{"id":"52787697663","owner":"130021529@N02","secret":"eb611da6f2","server":"65535","farm":66,"title":"Calidris maritima | Purple Sandpiper | sk\u00e4rsn\u00e4ppa","ispublic":1,"isfriend":0,"isfamily":0},{"id":"52787644515","owner":"130021529@N02","secret":"d7d470b8f7","server":"65535","farm":66,"title":"Calidris maritima | Purple Sandpiper | sk\u00e4rsn\u00e4ppa","ispublic":1,"isfriend":0,"isfamily":0},{"id":"52787247641","owner":"130021529@N02","secret":"e5d08df193","server":"65535","farm":66,"title":"Calidris maritima | Purple Sandpiper | sk\u00e4rsn\u00e4ppa","ispublic":1,"isfriend":0,"isfamily":0},{"id":"52787697598","owner":"130021529@N02","secret":"98a0ab7b39","server":"65535","farm":66,"title":"Calidris maritima | Purple Sandpiper | sk\u00e4rsn\u00e4ppa","ispublic":1,"isfriend":0,"isfamily":0},{"id":"52787697578","owner":"130021529@N02","secret":"19f8ba7b34","server":"65535","farm":66,"title":"Calidris maritima | Purple Sandpiper | sk\u00e4rsn\u00e4ppa","ispublic":1,"isfriend":0,"isfamily":0},{"id":"52782314084","owner":"12384974@N00","secret":"4fb2471cfa","server":"65535","farm":66,"title":"Pilrito-escuro - Purple Sandpiper - Calidris maritima (P\u00f3voa de Varzim, Portugal)","ispublic":1,"isfriend":0,"isfamily":0},{"id":"52776368362","owner":"39177293@N03","secret":"7ec6f9d240","server":"65535","farm":66,"title":"Purple Sandpipers","ispublic":1,"isfriend":0,"isfamily":0},{"id":"52776635456","owner":"39627107@N07","secret":"a9b6747068","server":"65535","farm":66,"title":"Purple Sandpiper","ispublic":1,"isfriend":0,"isfamily":0},{"id":"52772336052","owner":"145489125@N03","secret":"37aef50b89","server":"65535","farm":66,"title":"Purple Sandpiper ( Calidris maritima ) ... Bridlington , Yorkshire","ispublic":1,"isfriend":0,"isfamily":0},{"id":"52771391275","owner":"12240837@N08","secret":"8e261ff38d","server":"65535","farm":66,"title":"Purple Sandpiper (calidris maritima)","ispublic":1,"isfriend":0,"isfamily":0},{"id":"52760646034","owner":"145489125@N03","secret":"3a633b3c1f","server":"65535","farm":66,"title":"Purple Sandpiper ( Calidris maritima ) ... Bridlington , Yorkshire","ispublic":1,"isfriend":0,"isfamily":0},{"id":"52760636834","owner":"145489125@N03","secret":"5701757c5f","server":"65535","farm":66,"title":"Purple Sandpiper ( Calidris maritima ) ... Bridlington , Yorkshire","ispublic":1,"isfriend":0,"isfamily":0},{"id":"52760629624","owner":"145489125@N03","secret":"4181f2a4fb","server":"65535","farm":66,"title":"Purple Sandpiper ( Calidris maritima ) ... Bridlington , Yorkshire","ispublic":1,"isfriend":0,"isfamily":0},{"id":"52760116628","owner":"131301995@N02","secret":"e63f4c95e3","server":"65535","farm":66,"title":"Correlimos oscuro (Calidris maritima)","ispublic":1,"isfriend":0,"isfamily":0},{"id":"52757442339","owner":"12639178@N07","secret":"d4248dac66","server":"65535","farm":66,"title":"Meerstrandl\u00e4ufer","ispublic":1,"isfriend":0,"isfamily":0},{"id":"52755974657","owner":"145489125@N03","secret":"923f560b62","server":"65535","farm":66,"title":"Purple Sandpiper ( Calidris maritima ) ... Bridlington , Yorkshire","ispublic":1,"isfriend":0,"isfamily":0},{"id":"52755339607","owner":"39177293@N03","secret":"2f117f3e3d","server":"65535","farm":66,"title":"Purple Sandpiper","ispublic":1,"isfriend":0,"isfamily":0},{"id":"52756365103","owner":"39177293@N03","secret":"7299c46242","server":"65535","farm":66,"title":"Purple Sandpiper","ispublic":1,"isfriend":0,"isfamily":0},{"id":"52749783625","owner":"90223029@N06","secret":"02accafb67","server":"65535","farm":66,"title":"Purple Sandpiper","ispublic":1,"isfriend":0,"isfamily":0},{"id":"52749868133","owner":"90223029@N06","secret":"a2d43f58cd","server":"65535","farm":66,"title":"Purple Sandpiper","ispublic":1,"isfriend":0,"isfamily":0},{"id":"52748555571","owner":"44991043@N06","secret":"d45b35bf63","server":"65535","farm":66,"title":"Purple Sandpiper","ispublic":1,"isfriend":0,"isfamily":0},{"id":"52744923771","owner":"191391950@N02","secret":"4c89cf10da","server":"65535","farm":66,"title":"B\u00e9casseau violet - Calidris maritima","ispublic":1,"isfriend":0,"isfamily":0},{"id":"52740642611","owner":"63223331@N05","secret":"11bf48d376","server":"65535","farm":66,"title":"Purple Sandpiper (Calidris maritima)","ispublic":1,"isfriend":0,"isfamily":0},{"id":"52741054070","owner":"63223331@N05","secret":"87b2d1ea52","server":"65535","farm":66,"title":"Purple Sandpiper (Calidris maritima)","ispublic":1,"isfriend":0,"isfamily":0},{"id":"52740893809","owner":"63223331@N05","secret":"3a83df48fa","server":"65535","farm":66,"title":"Purple Sandpiper (Calidris maritima)","ispublic":1,"isfriend":0,"isfamily":0},{"id":"52738532735","owner":"7509597@N03","secret":"fbd03132ef","server":"65535","farm":66,"title":"sur le port","ispublic":1,"isfriend":0,"isfamily":0},{"id":"52738163934","owner":"18217058@N04","secret":"75a92af8b6","server":"65535","farm":66,"title":"Purple sandpiper \/ Sendlingur (Calidris maritima)","ispublic":1,"isfriend":0,"isfamily":0},{"id":"52738163879","owner":"18217058@N04","secret":"a3de19d1fb","server":"65535","farm":66,"title":"Purple sandpiper \/ Sendlingur (Calidris maritima)","ispublic":1,"isfriend":0,"isfamily":0},{"id":"52738163849","owner":"18217058@N04","secret":"ea97d43687","server":"65535","farm":66,"title":"Purple sandpiper \/ Sendlingur (Calidris maritima)","ispublic":1,"isfriend":0,"isfamily":0},{"id":"52737912886","owner":"18217058@N04","secret":"c63e4a344b","server":"65535","farm":66,"title":"Purple sandpiper \/ Sendlingur (Calidris maritima)","ispublic":1,"isfriend":0,"isfamily":0},{"id":"52737912861","owner":"18217058@N04","secret":"6bf77228bb","server":"65535","farm":66,"title":"Purple sandpiper \/ Sendlingur (Calidris maritima)","ispublic":1,"isfriend":0,"isfamily":0},{"id":"52737912831","owner":"18217058@N04","secret":"bbe2e3d5e7","server":"65535","farm":66,"title":"Purple sandpiper \/ Sendlingur (Calidris maritima)","ispublic":1,"isfriend":0,"isfamily":0},{"id":"52737692473","owner":"64534310@N07","secret":"e821117257","server":"65535","farm":66,"title":"7863  Purple Sandpiper...","ispublic":1,"isfriend":0,"isfamily":0},{"id":"52736082215","owner":"72579404@N00","secret":"cc13d6bd24","server":"65535","farm":66,"title":"b\u00e9casseau violet","ispublic":1,"isfriend":0,"isfamily":0},{"id":"52735888379","owner":"72579404@N00","secret":"dab23a47b2","server":"65535","farm":66,"title":"b\u00e9casseaux violets","ispublic":1,"isfriend":0,"isfamily":0},{"id":"52735160218","owner":"12639178@N07","secret":"73b967e111","server":"65535","farm":66,"title":"Meerstrandl\u00e4ufer, 230303","ispublic":1,"isfriend":0,"isfamily":0},{"id":"52727701978","owner":"39177293@N03","secret":"f473115a02","server":"65535","farm":66,"title":"Purple Sandpiper","ispublic":1,"isfriend":0,"isfamily":0},{"id":"52727701973","owner":"39177293@N03","secret":"0fe6550e4d","server":"65535","farm":66,"title":"Purple Sandpiper","ispublic":1,"isfriend":0,"isfamily":0},{"id":"52725933954","owner":"145907835@N07","secret":"cc3db3e2d5","server":"65535","farm":66,"title":"Eider - Somateria mollissima en Paarse Strandloper - Calidris maritima","ispublic":1,"isfriend":0,"isfamily":0},{"id":"52725677216","owner":"145907835@N07","secret":"85cd4e4fc9","server":"65535","farm":66,"title":"Paarse Strandloper - Calidris maritima","ispublic":1,"isfriend":0,"isfamily":0},{"id":"52725932019","owner":"145907835@N07","secret":"528290de5f","server":"65535","farm":66,"title":"Paarse Strandloper - Calidris maritima","ispublic":1,"isfriend":0,"isfamily":0},{"id":"52726091015","owner":"145907835@N07","secret":"3d00459773","server":"65535","farm":66,"title":"Paarse Strandloper - Calidris maritima","ispublic":1,"isfriend":0,"isfamily":0},{"id":"52725852804","owner":"19538227@N00","secret":"9497fff0d6","server":"65535","farm":66,"title":"Purple Sandpipers","ispublic":1,"isfriend":0,"isfamily":0},{"id":"52723015072","owner":"159311349@N08","secret":"72f0f43e82","server":"65535","farm":66,"title":"Purple Sandpiper","ispublic":1,"isfriend":0,"isfamily":0},{"id":"52720968431","owner":"123846040@N05","secret":"4400528dba","server":"65535","farm":66,"title":"Sortgr\u00e5 Ryle, Calidris maritima","ispublic":1,"isfriend":0,"isfamily":0},{"id":"52720968391","owner":"123846040@N05","secret":"0ae096a604","server":"65535","farm":66,"title":"Sortgr\u00e5 Ryle, Calidris maritima","ispublic":1,"isfriend":0,"isfamily":0},{"id":"52720447037","owner":"123846040@N05","secret":"1049f25b2d","server":"65535","farm":66,"title":"Sortgr\u00e5 Ryle, Calidris maritima","ispublic":1,"isfriend":0,"isfamily":0},{"id":"52721232134","owner":"123846040@N05","secret":"3a61358986","server":"65535","farm":66,"title":"Sortgr\u00e5 Ryle, Calidris maritima","ispublic":1,"isfriend":0,"isfamily":0},{"id":"52721456043","owner":"123846040@N05","secret":"1ae5bd97cb","server":"65535","farm":66,"title":"Sortgr\u00e5 Ryle, Calidris maritima","ispublic":1,"isfriend":0,"isfamily":0},{"id":"52721218833","owner":"163623837@N06","secret":"526045881c","server":"65535","farm":66,"title":"purple_sandpiper_MGL3202","ispublic":1,"isfriend":0,"isfamily":0},{"id":"52720211097","owner":"163623837@N06","secret":"882fd92d16","server":"65535","farm":66,"title":"purple_sandpiper_MGL3262","ispublic":1,"isfriend":0,"isfamily":0},{"id":"52719315927","owner":"149839633@N05","secret":"5396cbfa9d","server":"65535","farm":66,"title":"Pilrito-escuro (Calidris maritima)","ispublic":1,"isfriend":0,"isfamily":0},{"id":"52716741583","owner":"135315828@N06","secret":"b0690b557e","server":"65535","farm":66,"title":"dunlin and purple sandpiper","ispublic":1,"isfriend":0,"isfamily":0},{"id":"52716259756","owner":"135315828@N06","secret":"914a2ef27f","server":"65535","farm":66,"title":"ruddy turnstone","ispublic":1,"isfriend":0,"isfamily":0},{"id":"52716740748","owner":"135315828@N06","secret":"4d637ea073","server":"65535","farm":66,"title":"ruddy turnstone and purple sandpiper","ispublic":1,"isfriend":0,"isfamily":0},{"id":"52716258861","owner":"135315828@N06","secret":"8dea4c4312","server":"65535","farm":66,"title":"purple sandpiper","ispublic":1,"isfriend":0,"isfamily":0},{"id":"52716258876","owner":"135315828@N06","secret":"9e298aea1d","server":"65535","farm":66,"title":"purple sandpiper","ispublic":1,"isfriend":0,"isfamily":0},{"id":"52715736437","owner":"135315828@N06","secret":"68119065b5","server":"65535","farm":66,"title":"ruddy turnstone and purple sandpiper","ispublic":1,"isfriend":0,"isfamily":0},{"id":"52716740688","owner":"135315828@N06","secret":"3d9c5d4128","server":"65535","farm":66,"title":"purple sandpiper","ispublic":1,"isfriend":0,"isfamily":0},{"id":"52716518009","owner":"135315828@N06","secret":"bbaaa1f3b6","server":"65535","farm":66,"title":"ruddy turnstone and purple sandpiper","ispublic":1,"isfriend":0,"isfamily":0},{"id":"52716517969","owner":"135315828@N06","secret":"94622b0bbb","server":"65535","farm":66,"title":"purple sandpiper","ispublic":1,"isfriend":0,"isfamily":0},{"id":"52716685635","owner":"135315828@N06","secret":"87027f62c2","server":"65535","farm":66,"title":"purple sandpiper","ispublic":1,"isfriend":0,"isfamily":0},{"id":"52716685625","owner":"135315828@N06","secret":"e722c7ecc2","server":"65535","farm":66,"title":"purple sandpiper","ispublic":1,"isfriend":0,"isfamily":0},{"id":"52715736367","owner":"135315828@N06","secret":"1073292608","server":"65535","farm":66,"title":"purple sandpiper","ispublic":1,"isfriend":0,"isfamily":0},{"id":"52716685550","owner":"135315828@N06","secret":"5c526f8896","server":"65535","farm":66,"title":"ruddy turnstone and purple sandpiper","ispublic":1,"isfriend":0,"isfamily":0},{"id":"52716740623","owner":"135315828@N06","secret":"127b463d7e","server":"65535","farm":66,"title":"purple sandpiper","ispublic":1,"isfriend":0,"isfamily":0},{"id":"52716517949","owner":"135315828@N06","secret":"b874a1da04","server":"65535","farm":66,"title":"purple sandpiper","ispublic":1,"isfriend":0,"isfamily":0},{"id":"52716517909","owner":"135315828@N06","secret":"a02fc841f9","server":"65535","farm":66,"title":"purple sandpiper","ispublic":1,"isfriend":0,"isfamily":0},{"id":"52715902569","owner":"163623837@N06","secret":"028e0dcc8f","server":"65535","farm":66,"title":"purple_sandpiper_MGL0776","ispublic":1,"isfriend":0,"isfamily":0},{"id":"52716123738","owner":"163623837@N06","secret":"3d7d7021c0","server":"65535","farm":66,"title":"purple_sandpiper_MGL0782","ispublic":1,"isfriend":0,"isfamily":0},{"id":"52715644191","owner":"163623837@N06","secret":"eaaeaa19dc","server":"65535","farm":66,"title":"purple_sandpiper_MGL0783","ispublic":1,"isfriend":0,"isfamily":0},{"id":"52716066875","owner":"163623837@N06","secret":"d58c99649e","server":"65535","farm":66,"title":"purple_sandpiper_MGL0817","ispublic":1,"isfriend":0,"isfamily":0},{"id":"52716066760","owner":"163623837@N06","secret":"2b0360f2ef","server":"65535","farm":66,"title":"purple_sandpiper_MGL0867","ispublic":1,"isfriend":0,"isfamily":0},{"id":"52715901814","owner":"163623837@N06","secret":"978ff66d4b","server":"65535","farm":66,"title":"purple_sandpiper_MGL0907","ispublic":1,"isfriend":0,"isfamily":0},{"id":"52715643666","owner":"163623837@N06","secret":"a0c0efe6bb","server":"65535","farm":66,"title":"purple_sandpiper_MGL0922","ispublic":1,"isfriend":0,"isfamily":0},{"id":"52716122913","owner":"163623837@N06","secret":"87662c4b41","server":"65535","farm":66,"title":"purple_sandpiper_MGL0942","ispublic":1,"isfriend":0,"isfamily":0},{"id":"52709934229","owner":"12639178@N07","secret":"1d3ce08287","server":"65535","farm":66,"title":"Auf der Buhne","ispublic":1,"isfriend":0,"isfamily":0},{"id":"52709671881","owner":"12639178@N07","secret":"ca16a98d10","server":"65535","farm":66,"title":"\u00dcber der Brandung","ispublic":1,"isfriend":0,"isfamily":0},{"id":"52709934044","owner":"12639178@N07","secret":"1c6c475958","server":"65535","farm":66,"title":"Unterwegs mit Steinw\u00e4lzern","ispublic":1,"isfriend":0,"isfamily":0},{"id":"52709151697","owner":"12639178@N07","secret":"f85df453bb","server":"65535","farm":66,"title":"Zwei Meerstrandl\u00e4ufer auf Nahrungssuche","ispublic":1,"isfriend":0,"isfamily":0},{"id":"52709315898","owner":"116208073@N07","secret":"39e41d19bc","server":"65535","farm":66,"title":"Purple Sandpiper - Paarse Strandloper - Calidris maritima - 6326","ispublic":1,"isfriend":0,"isfamily":0},{"id":"52706962824","owner":"12639178@N07","secret":"ebb007308d","server":"65535","farm":66,"title":"Meerstrandl\u00e4ufe Eierlandse Dam 2023-02-22","ispublic":1,"isfriend":0,"isfamily":0},{"id":"52696096972","owner":"84151258@N00","secret":"153642f2c6","server":"65535","farm":66,"title":"Purple Sandpiper\/Gobad\u00e1n cosbhu\u00ed (Calidris maritima)","ispublic":1,"isfriend":0,"isfamily":0},{"id":"52696400496","owner":"145907835@N07","secret":"6bd24faea7","server":"65535","farm":66,"title":"Paarse Strandloper - Calidris maritima","ispublic":1,"isfriend":0,"isfamily":0},{"id":"52695887372","owner":"145907835@N07","secret":"916ed58e01","server":"65535","farm":66,"title":"Paarse Strandloper - Calidris maritima","ispublic":1,"isfriend":0,"isfamily":0},{"id":"52695887292","owner":"145907835@N07","secret":"e656320659","server":"65535","farm":66,"title":"Paarse Strandloper - Calidris maritima","ispublic":1,"isfriend":0,"isfamily":0},{"id":"52696139508","owner":"64144421@N05","secret":"a55e3faacd","server":"65535","farm":66,"title":"Purple Sandpiper","ispublic":1,"isfriend":0,"isfamily":0},{"id":"52695134052","owner":"64144421@N05","secret":"7978651360","server":"65535","farm":66,"title":"Purple Sandpiper","ispublic":1,"isfriend":0,"isfamily":0},{"id":"52695123024","owner":"21606110@N08","secret":"308162b28a","server":"65535","farm":66,"title":"Purple Sandpiper","ispublic":1,"isfriend":0,"isfamily":0},{"id":"52695122314","owner":"21606110@N08","secret":"8af8e98b9b","server":"65535","farm":66,"title":"Purple Sandpiper","ispublic":1,"isfriend":0,"isfamily":0},{"id":"52694855521","owner":"21606110@N08","secret":"2018365e63","server":"65535","farm":66,"title":"Purple Sandpiper","ispublic":1,"isfriend":0,"isfamily":0},{"id":"52716066280","owner":"163623837@N06","secret":"0c4f37363e","server":"65535","farm":66,"title":"purple_sandpiper_MGL0968","ispublic":1,"isfriend":0,"isfamily":0},{"id":"52715120077","owner":"163623837@N06","secret":"435617cd84","server":"65535","farm":66,"title":"purple_sandpiper_MGL0974","ispublic":1,"isfriend":0,"isfamily":0},{"id":"52715120007","owner":"163623837@N06","secret":"f348d75000","server":"65535","farm":66,"title":"purple_sandpiper_MGL0988","ispublic":1,"isfriend":0,"isfamily":0},{"id":"52715643011","owner":"163623837@N06","secret":"3e85389e06","server":"65535","farm":66,"title":"purple_sandpiper_MGL0994","ispublic":1,"isfriend":0,"isfamily":0},{"id":"52715642921","owner":"163623837@N06","secret":"c5db7e6cbd","server":"65535","farm":66,"title":"purple_sandpiper_MGL1027","ispublic":1,"isfriend":0,"isfamily":0},{"id":"52715900894","owner":"163623837@N06","secret":"48014123cf","server":"65535","farm":66,"title":"purple_sandpiper_MGL1040","ispublic":1,"isfriend":0,"isfamily":0},{"id":"52696480165","owner":"197745515@N06","secret":"69cc73e2a2","server":"65535","farm":66,"title":"Calidris maritima","ispublic":1,"isfriend":0,"isfamily":0}]},"stat":"ok"}