{"photos":{"page":1,"pages":23,"perpage":100,"total":2225,"photo":[{"id":"52715091675","owner":"88978913@N08","secret":"ae1d4a1e89","server":"65535","farm":66,"title":"Purple Finch, Haemorhous purpureus","ispublic":1,"isfriend":0,"isfamily":0},{"id":"52698377345","owner":"88978913@N08","secret":"ec3c58e677","server":"65535","farm":66,"title":"Purple Finch, Haemorhous purpureus","ispublic":1,"isfriend":0,"isfamily":0},{"id":"52695069388","owner":"88978913@N08","secret":"d0ff224304","server":"65535","farm":66,"title":"Purple Finch, Haemorhous purpureus","ispublic":1,"isfriend":0,"isfamily":0},{"id":"52694990325","owner":"88978913@N08","secret":"88758c0ed4","server":"65535","farm":66,"title":"Female Purple Finch, Haemorhous purpureus","ispublic":1,"isfriend":0,"isfamily":0},{"id":"52676639907","owner":"32752434@N07","secret":"9532249ec7","server":"65535","farm":66,"title":"Purple Finch (Haemorhous purpureus)","ispublic":1,"isfriend":0,"isfamily":0},{"id":"52675254885","owner":"14908898@N08","secret":"c9a964aab9","server":"65535","farm":66,"title":"Purple Finch 1-2-23","ispublic":1,"isfriend":0,"isfamily":0},{"id":"52655843577","owner":"188156748@N07","secret":"acf97c676f","server":"65535","farm":66,"title":"Purple Finch (F) - Roselin Pourpr\u00e9 (F) - Haemorhous purpureus 8891 (19)-SharpenAI-Standard copy.jpgS","ispublic":1,"isfriend":0,"isfamily":0},{"id":"52656614299","owner":"188156748@N07","secret":"242010d303","server":"65535","farm":66,"title":"Purple Finch (F) - Roselin Pourpr\u00e9 (F) - Haemorhous purpureus 8891 (20)-SharpenAI-Standard copy.jpgS","ispublic":1,"isfriend":0,"isfamily":0},{"id":"52655843507","owner":"188156748@N07","secret":"5d53795dbc","server":"65535","farm":66,"title":"Purple Finch (M) - Roselin Pourpr\u00e9 (M - Haemorhous purpureus 9921 (6)-SharpenAI-Standard copy.jpgS","ispublic":1,"isfriend":0,"isfamily":0},{"id":"52655843532","owner":"188156748@N07","secret":"2c062fd20c","server":"65535","farm":66,"title":"Purple Finch (M) - Roselin Pourpr\u00e9 (M - Haemorhous purpureus 9921 (3)-SharpenAI-Standard copy.jpgS","ispublic":1,"isfriend":0,"isfamily":0},{"id":"52656776100","owner":"188156748@N07","secret":"b38201ae69","server":"65535","farm":66,"title":"Purple Finch (M) - Roselin Pourpr\u00e9 (M - Haemorhous purpureus 9921 (10)-SharpenAI-Standard copy.jpgS","ispublic":1,"isfriend":0,"isfamily":0},{"id":"52656457768","owner":"61241315@N00","secret":"8c6b1ecefc","server":"65535","farm":66,"title":"Purple Finch_N6788","ispublic":1,"isfriend":0,"isfamily":0},{"id":"52656457803","owner":"61241315@N00","secret":"2a53e13503","server":"65535","farm":66,"title":"Purple Finch_N6773","ispublic":1,"isfriend":0,"isfamily":0},{"id":"52656457738","owner":"61241315@N00","secret":"eb8a4bc5d1","server":"65535","farm":66,"title":"Purple Finch_N6805","ispublic":1,"isfriend":0,"isfamily":0},{"id":"52655968476","owner":"61241315@N00","secret":"d322a35848","server":"65535","farm":66,"title":"Purple Finch_N6788-001","ispublic":1,"isfriend":0,"isfamily":0},{"id":"52656457703","owner":"61241315@N00","secret":"cfd10f7e00","server":"65535","farm":66,"title":"Purple Finch_N6818","ispublic":1,"isfriend":0,"isfamily":0},{"id":"52655478827","owner":"61241315@N00","secret":"c766c4a041","server":"65535","farm":66,"title":"Purple Finch_N6850","ispublic":1,"isfriend":0,"isfamily":0},{"id":"52656411055","owner":"61241315@N00","secret":"8d1461608b","server":"65535","farm":66,"title":"Purple Finch_N6857","ispublic":1,"isfriend":0,"isfamily":0},{"id":"52655478807","owner":"61241315@N00","secret":"911c36769e","server":"65535","farm":66,"title":"Purple Finch_N6855","ispublic":1,"isfriend":0,"isfamily":0},{"id":"52656457548","owner":"61241315@N00","secret":"b349e0d360","server":"65535","farm":66,"title":"Purple Finch_N6865","ispublic":1,"isfriend":0,"isfamily":0},{"id":"52655968381","owner":"61241315@N00","secret":"08d544ac64","server":"65535","farm":66,"title":"Purple Finch_N6859","ispublic":1,"isfriend":0,"isfamily":0},{"id":"52656249009","owner":"61241315@N00","secret":"4ee000ebd5","server":"65535","farm":66,"title":"Purple Finch_N6866","ispublic":1,"isfriend":0,"isfamily":0},{"id":"52656457473","owner":"61241315@N00","secret":"93fd772aa4","server":"65535","farm":66,"title":"Purple Finch_N6777","ispublic":1,"isfriend":0,"isfamily":0},{"id":"52655478647","owner":"61241315@N00","secret":"8a5231b85c","server":"65535","farm":66,"title":"Purple Finch_N6863","ispublic":1,"isfriend":0,"isfamily":0},{"id":"52651360021","owner":"72765183@N07","secret":"3fb75cd595","server":"65535","farm":66,"title":"Purple Finch (Haemorhous purpureus), Williamson County, Tennessee","ispublic":1,"isfriend":0,"isfamily":0},{"id":"52644205811","owner":"196840457@N07","secret":"268185745d","server":"65535","farm":66,"title":"Finch, Purple, Male","ispublic":1,"isfriend":0,"isfamily":0},{"id":"52639228127","owner":"10260434@N03","secret":"6743a2bc23","server":"65535","farm":66,"title":"Purple Finch fem-22Nov22","ispublic":1,"isfriend":0,"isfamily":0},{"id":"52639742966","owner":"10260434@N03","secret":"0550b39cc7","server":"65535","farm":66,"title":"Purple Finch fem-22Nov22","ispublic":1,"isfriend":0,"isfamily":0},{"id":"52637271250","owner":"8605287@N03","secret":"b7ee88e686","server":"65535","farm":66,"title":"Fringillidae: Carpodacus purpureus - male Purple Finch","ispublic":1,"isfriend":0,"isfamily":0},{"id":"52636792876","owner":"34238008@N02","secret":"77186c3c70","server":"65535","farm":66,"title":"Purple Finch (Haemorhous purpureus)","ispublic":1,"isfriend":0,"isfamily":0},{"id":"52637235690","owner":"34238008@N02","secret":"d4f7e6b122","server":"65535","farm":66,"title":"Purple Finch (Haemorhous purpureus)","ispublic":1,"isfriend":0,"isfamily":0},{"id":"52637052844","owner":"34238008@N02","secret":"b07baedbb9","server":"65535","farm":66,"title":"Purple Finch (Haemorhous purpureus)","ispublic":1,"isfriend":0,"isfamily":0},{"id":"52637275073","owner":"34238008@N02","secret":"8b655c401c","server":"65535","farm":66,"title":"Purple Finch (Haemorhous purpureus)","ispublic":1,"isfriend":0,"isfamily":0},{"id":"52625258629","owner":"196840457@N07","secret":"afc854d323","server":"65535","farm":66,"title":"Finch, Purple, Female","ispublic":1,"isfriend":0,"isfamily":0},{"id":"52619397849","owner":"48985578@N03","secret":"b47a9969dd","server":"65535","farm":66,"title":"Handsome male","ispublic":1,"isfriend":0,"isfamily":0},{"id":"52616425909","owner":"36685968@N00","secret":"e324f14172","server":"65535","farm":66,"title":"Purple Finch (Haemorhous purpureus)","ispublic":1,"isfriend":0,"isfamily":0},{"id":"52609862397","owner":"61241315@N00","secret":"39d4af3b89","server":"0","farm":0,"title":"Purple Finch_3787.MP4","ispublic":1,"isfriend":0,"isfamily":0},{"id":"52609862467","owner":"61241315@N00","secret":"5cdde94e26","server":"0","farm":0,"title":"Purple Finch_3784.MP4","ispublic":1,"isfriend":0,"isfamily":0},{"id":"52610364541","owner":"61241315@N00","secret":"e2b2f468d5","server":"65535","farm":66,"title":"Purple Finch_N3786","ispublic":1,"isfriend":0,"isfamily":0},{"id":"52609862567","owner":"61241315@N00","secret":"cffe0266ee","server":"65535","farm":66,"title":"Purple Finch_N3781","ispublic":1,"isfriend":0,"isfamily":0},{"id":"52609862532","owner":"61241315@N00","secret":"2f2c49c877","server":"65535","farm":66,"title":"Purple Finch_N3788","ispublic":1,"isfriend":0,"isfamily":0},{"id":"52609862512","owner":"61241315@N00","secret":"5f9f6fe1c0","server":"65535","farm":66,"title":"Purple Finch_N3793","ispublic":1,"isfriend":0,"isfamily":0},{"id":"52610787670","owner":"61241315@N00","secret":"e4847383c5","server":"65535","farm":66,"title":"Purple Finch_N3795","ispublic":1,"isfriend":0,"isfamily":0},{"id":"52608043798","owner":"196264892@N08","secret":"d6c43b9882","server":"65535","farm":66,"title":"Purple Finch","ispublic":1,"isfriend":0,"isfamily":0},{"id":"52607970470","owner":"196264892@N08","secret":"13fbe6e9e1","server":"65535","farm":66,"title":"Purple Finch","ispublic":1,"isfriend":0,"isfamily":0},{"id":"52607045392","owner":"196264892@N08","secret":"a93e2011f8","server":"65535","farm":66,"title":"Purple Finch","ispublic":1,"isfriend":0,"isfamily":0},{"id":"52594709871","owner":"128537732@N06","secret":"1fb5e090fb","server":"65535","farm":66,"title":"Purple Finch (Haemorhous purpureus)","ispublic":1,"isfriend":0,"isfamily":0},{"id":"52590740480","owner":"128537732@N06","secret":"2a5443c00c","server":"65535","farm":66,"title":"Purple Finch (Haemorhous purpureus)","ispublic":1,"isfriend":0,"isfamily":0},{"id":"52590574639","owner":"128537732@N06","secret":"55f85651d8","server":"65535","farm":66,"title":"female Purple Finch (Haemorhous purpureus)","ispublic":1,"isfriend":0,"isfamily":0},{"id":"52580523109","owner":"153973412@N04","secret":"791a330297","server":"65535","farm":66,"title":"Purple Finch-Haemorhous purpureus, Marengo, IA","ispublic":1,"isfriend":0,"isfamily":0},{"id":"52576686099","owner":"40724294@N04","secret":"6da2de3cca","server":"65535","farm":66,"title":"Purple Finch","ispublic":1,"isfriend":0,"isfamily":0},{"id":"52561067604","owner":"188156748@N07","secret":"6bf33f531a","server":"65535","farm":66,"title":"Purple Finch (F) - Roselin Pourpr\u00e9 (F) - Haemorhous purpureus 8477 (1)-SharpenAI-Standard copy.jpgS","ispublic":1,"isfriend":0,"isfamily":0},{"id":"52553952031","owner":"103722035@N06","secret":"75a269690e","server":"0","farm":0,"title":"Purple Finch (Haemorhous purpureus), male, Avila Beach, CA","ispublic":1,"isfriend":0,"isfamily":0},{"id":"52541813281","owner":"49114357@N08","secret":"b1d50736be","server":"65535","farm":66,"title":"Purple Finch","ispublic":1,"isfriend":0,"isfamily":0},{"id":"52544753863","owner":"196840457@N07","secret":"54853db6f7","server":"65535","farm":66,"title":"Finch, Purple, Male","ispublic":1,"isfriend":0,"isfamily":0},{"id":"52541443224","owner":"144980256@N07","secret":"ff67f8c530","server":"65535","farm":66,"title":"Purple Finch (Haemorhous purpureus) - female","ispublic":1,"isfriend":0,"isfamily":0},{"id":"52539229509","owner":"10260434@N03","secret":"89998786e5","server":"65535","farm":66,"title":"Purple Finch fem-4Nov22","ispublic":1,"isfriend":0,"isfamily":0},{"id":"52538905936","owner":"10260434@N03","secret":"32919eeb9b","server":"65535","farm":66,"title":"Purple Finches-5Nov22","ispublic":1,"isfriend":0,"isfamily":0},{"id":"52539376675","owner":"10260434@N03","secret":"664b85e1a3","server":"65535","farm":66,"title":"Purple Finch males-5Nov22","ispublic":1,"isfriend":0,"isfamily":0},{"id":"52531623653","owner":"45340210@N05","secret":"2c12a9a0c0","server":"65535","farm":66,"title":"Purple Finch Eating Berries 1 11_28_22","ispublic":1,"isfriend":0,"isfamily":0},{"id":"52528002802","owner":"62043870@N05","secret":"a8413bae2b","server":"65535","farm":66,"title":"Purple Finch, Haemorhous purpureus","ispublic":1,"isfriend":0,"isfamily":0},{"id":"52528002742","owner":"62043870@N05","secret":"6551e97350","server":"65535","farm":66,"title":"Purple Finch, Haemorhous purpureus","ispublic":1,"isfriend":0,"isfamily":0},{"id":"52526029974","owner":"78145652@N02","secret":"ae9b68c812","server":"65535","farm":66,"title":"Purple Finch - Haemorhous purpureus","ispublic":1,"isfriend":0,"isfamily":0},{"id":"52510865283","owner":"139237357@N06","secret":"1620d099b7","server":"65535","farm":66,"title":"Purple Finch","ispublic":1,"isfriend":0,"isfamily":0},{"id":"52510858248","owner":"7261670@N03","secret":"15e7061902","server":"65535","farm":66,"title":"Purple Finch","ispublic":1,"isfriend":0,"isfamily":0},{"id":"52434951323","owner":"49114357@N08","secret":"6d1e3f9e5f","server":"65535","farm":66,"title":"Purple Finch","ispublic":1,"isfriend":0,"isfamily":0},{"id":"52502937753","owner":"14233971@N04","secret":"9c539e9e02","server":"65535","farm":66,"title":"Purple Finch","ispublic":1,"isfriend":0,"isfamily":0},{"id":"52495424745","owner":"72765183@N07","secret":"e3ddcb5be6","server":"65535","farm":66,"title":"Purple Finch (Haemorhous purpureus), FOS, Williamson County, Tennessee","ispublic":1,"isfriend":0,"isfamily":0},{"id":"52492434521","owner":"126297346@N07","secret":"a3303e6841","server":"65535","farm":66,"title":"Roselin pourpr\u00e9 | Saint-Armand, Qu\u00e9bec","ispublic":1,"isfriend":0,"isfamily":0},{"id":"52491514699","owner":"98675522@N06","secret":"7a0f37035e","server":"65535","farm":66,"title":"Any Port in a Storm","ispublic":1,"isfriend":0,"isfamily":0},{"id":"52486984372","owner":"39445433@N02","secret":"2aa203e7ef","server":"65535","farm":66,"title":"Purple Finch","ispublic":1,"isfriend":0,"isfamily":0},{"id":"52482454286","owner":"36685968@N00","secret":"fc956533a7","server":"65535","farm":66,"title":"Purple Finch (Haemorhous purpureus)","ispublic":1,"isfriend":0,"isfamily":0},{"id":"52477897263","owner":"36685968@N00","secret":"6e9c1494e3","server":"65535","farm":66,"title":"Purple Finch (Haemorhous purpureus)","ispublic":1,"isfriend":0,"isfamily":0},{"id":"52475870959","owner":"36685968@N00","secret":"e291774f6b","server":"65535","farm":66,"title":"Purple Finch (Haemorhous purpureus)","ispublic":1,"isfriend":0,"isfamily":0},{"id":"52475046832","owner":"36685968@N00","secret":"d70d473209","server":"65535","farm":66,"title":"Purple Finch (Haemorhous purpureus)","ispublic":1,"isfriend":0,"isfamily":0},{"id":"52474093768","owner":"57729348@N02","secret":"8293ddd380","server":"65535","farm":66,"title":"Male Purple Finch (Haemorhous purpureus)","ispublic":1,"isfriend":0,"isfamily":0},{"id":"52472442726","owner":"188156748@N07","secret":"274771753d","server":"65535","farm":66,"title":"Purple Finch (F) - Roselin Pourpr\u00e9 (F) - Haemorhous purpureus  1798 (105) copy.jpgS","ispublic":1,"isfriend":0,"isfamily":0},{"id":"52472721899","owner":"188156748@N07","secret":"241d40b9b1","server":"65535","farm":66,"title":"Purple Finch (F) - Roselin Pourpr\u00e9 (F) - Haemorhous purpureus 1798 (107) copy.jpgS","ispublic":1,"isfriend":0,"isfamily":0},{"id":"52472902170","owner":"188156748@N07","secret":"911c7054fd","server":"65535","farm":66,"title":"Purple Finch (F) - Roselin Pourpr\u00e9 (F) - Haemorhous purpureus 1798 (12) copy.jpgS","ispublic":1,"isfriend":0,"isfamily":0},{"id":"52470291019","owner":"41086578@N00","secret":"dc308c32dd","server":"65535","farm":66,"title":"Purple Finch Pair \/ Paire de Roselin pourpre\u0301 (Haemorhous purpureus)","ispublic":1,"isfriend":0,"isfamily":0},{"id":"52469377216","owner":"120449047@N06","secret":"75ebc9b0af","server":"65535","farm":66,"title":"Purple Finch (f)","ispublic":1,"isfriend":0,"isfamily":0},{"id":"52467639873","owner":"91064752@N03","secret":"2c9fb057d2","server":"65535","farm":66,"title":"Purple Finch Female","ispublic":1,"isfriend":0,"isfamily":0},{"id":"52465063803","owner":"41086578@N00","secret":"85e7cfb5a4","server":"65535","farm":66,"title":"Male Purple Finch : Roselin pourpre\u0301 (Haemorhous purpureus) 2","ispublic":1,"isfriend":0,"isfamily":0},{"id":"52460307154","owner":"91064752@N03","secret":"1b4b28e9b1","server":"65535","farm":66,"title":"Purple Finch Female in the Autumn Leaves","ispublic":1,"isfriend":0,"isfamily":0},{"id":"52458318327","owner":"69812270@N00","secret":"2c8dfa8f36","server":"65535","farm":66,"title":"Purple Finch, Antonelli's Pond","ispublic":1,"isfriend":0,"isfamily":0},{"id":"52452910456","owner":"61241315@N00","secret":"c925666e43","server":"65535","farm":66,"title":"Female Purple Finch_N5452","ispublic":1,"isfriend":0,"isfamily":0},{"id":"52453429493","owner":"61241315@N00","secret":"2cf8f75646","server":"65535","farm":66,"title":"Female Purple Finch_N5395","ispublic":1,"isfriend":0,"isfamily":0},{"id":"52452910051","owner":"61241315@N00","secret":"31c4d26a01","server":"65535","farm":66,"title":"Female Purple Finch_N5397","ispublic":1,"isfriend":0,"isfamily":0},{"id":"52452910011","owner":"61241315@N00","secret":"786fab26d3","server":"65535","farm":66,"title":"Female Purple Finch_N5422","ispublic":1,"isfriend":0,"isfamily":0},{"id":"52453429463","owner":"61241315@N00","secret":"5bb87c359f","server":"65535","farm":66,"title":"Female Purple Finch_N5418","ispublic":1,"isfriend":0,"isfamily":0},{"id":"52452909986","owner":"61241315@N00","secret":"f946c36310","server":"65535","farm":66,"title":"Female Purple Finch_N5426","ispublic":1,"isfriend":0,"isfamily":0},{"id":"52453429423","owner":"61241315@N00","secret":"a1de1448f6","server":"65535","farm":66,"title":"Purple Finch_N5451","ispublic":1,"isfriend":0,"isfamily":0},{"id":"52453179939","owner":"61241315@N00","secret":"dfb6082a7e","server":"65535","farm":66,"title":"Purple Finch_N5450","ispublic":1,"isfriend":0,"isfamily":0},{"id":"52447404303","owner":"36685968@N00","secret":"a670f3ef78","server":"65535","farm":66,"title":"Purple Finch (Haemorhous purpureus)","ispublic":1,"isfriend":0,"isfamily":0},{"id":"52701781992","owner":"48014585@N00","secret":"f5e268873a","server":"65535","farm":66,"title":"Purple Finch","ispublic":1,"isfriend":0,"isfamily":0},{"id":"52644679918","owner":"196840457@N07","secret":"93fb420423","server":"65535","farm":66,"title":"Finch, Purple, Male","ispublic":1,"isfriend":0,"isfamily":0},{"id":"52595230543","owner":"128537732@N06","secret":"614b3fdd41","server":"65535","farm":66,"title":"Purple Finch (Haemorhous purpureus)","ispublic":1,"isfriend":0,"isfamily":0},{"id":"52567636367","owner":"67306066@N03","secret":"a0df41d859","server":"65535","farm":66,"title":"Purple Finch (Western) (Haemorhous purpureus californicus)","ispublic":1,"isfriend":0,"isfamily":0},{"id":"52568627543","owner":"67306066@N03","secret":"e73e784ed9","server":"65535","farm":66,"title":"Purple Finch (Western) (Haemorhous purpureus californicus)","ispublic":1,"isfriend":0,"isfamily":0},{"id":"52473957238","owner":"84175980@N00","secret":"1f78a75a22","server":"65535","farm":66,"title":"20220808 Haemorhous purpureus (Purple Finch) maybe","ispublic":1,"isfriend":0,"isfamily":0}]},"stat":"ok"}