{"photos":{"page":1,"pages":8,"perpage":100,"total":766,"photo":[{"id":"52733586868","owner":"71833159@N00","secret":"7fdd69950a","server":"65535","farm":66,"title":"Purple Honeycreeper \/ Cyanerpes caeruleus, female, Asa Wright Nature Centre, Trinidad, 2017","ispublic":1,"isfriend":0,"isfamily":0},{"id":"52726936097","owner":"71833159@N00","secret":"7d0dd2655f","server":"65535","farm":66,"title":"Purple Honeycreeper \/ Cyanerpes caeruleus, Asa Wright Nature Centre, Trinidad, 2017","ispublic":1,"isfriend":0,"isfamily":0},{"id":"52724880774","owner":"71833159@N00","secret":"c867bd84b1","server":"65535","farm":66,"title":"Purple Honeycreeper \/ Cyanerpes caeruleus, juvenile, Asa Wright Nature Centre, Trinidad","ispublic":1,"isfriend":0,"isfamily":0},{"id":"52680179254","owner":"71833159@N00","secret":"d6bccd239a","server":"65535","farm":66,"title":"Purple Honeycreeper \/ Cyanerpes caeruleus, female","ispublic":1,"isfriend":0,"isfamily":0},{"id":"52680390978","owner":"71833159@N00","secret":"9933255eee","server":"65535","farm":66,"title":"Purple Honeycreeper \/ Cyanerpes caeruleus, male","ispublic":1,"isfriend":0,"isfamily":0},{"id":"52678077751","owner":"71833159@N00","secret":"13e114b904","server":"65535","farm":66,"title":"Bananaquits & Purple Honeycreepers (male & Female), Asa Wright Nature Centre","ispublic":1,"isfriend":0,"isfamily":0},{"id":"52511679333","owner":"167323674@N05","secret":"77cca18913","server":"65535","farm":66,"title":"Sai de perna amarela f\u00eamea - Cyanerpes caeruleus - Purple Honeycreeper female","ispublic":1,"isfriend":0,"isfamily":0},{"id":"52511128666","owner":"167323674@N05","secret":"ee6566e6bd","server":"65535","farm":66,"title":"Sai de perna amarela f\u00eamea - Cyanerpes caeruleus - Purple Honeycreeper female","ispublic":1,"isfriend":0,"isfamily":0},{"id":"52451340345","owner":"79410107@N08","secret":"d915173bf7","server":"65535","farm":66,"title":"Cyanerpes caeruleus - Purple Honeycreeper - Mielerito Cer\u00faleo male 07","ispublic":1,"isfriend":0,"isfamily":0},{"id":"52139525944","owner":"123597211@N03","secret":"a4e3dbecbf","server":"65535","farm":66,"title":"Kobaltnaschvogel (Cyanerpes caeruleus)","ispublic":1,"isfriend":0,"isfamily":0},{"id":"52138263557","owner":"123597211@N03","secret":"c482a69565","server":"65535","farm":66,"title":"Kobaltnaschvogel (Cyanerpes caeruleus)","ispublic":1,"isfriend":0,"isfamily":0},{"id":"52139525239","owner":"123597211@N03","secret":"7bd601fb93","server":"65535","farm":66,"title":"Kobaltnaschvogel (Cyanerpes caeruleus)","ispublic":1,"isfriend":0,"isfamily":0},{"id":"52139772980","owner":"123597211@N03","secret":"df49725c4d","server":"65535","farm":66,"title":"Kobaltnaschvogel (Cyanerpes caeruleus)","ispublic":1,"isfriend":0,"isfamily":0},{"id":"52139286686","owner":"123597211@N03","secret":"ff4fdd299d","server":"65535","farm":66,"title":"Kobaltnaschvogel (Cyanerpes caeruleus)","ispublic":1,"isfriend":0,"isfamily":0},{"id":"52139286246","owner":"123597211@N03","secret":"42a8e5f707","server":"65535","farm":66,"title":"Kobaltnaschvogel (Cyanerpes caeruleus)","ispublic":1,"isfriend":0,"isfamily":0},{"id":"52138261662","owner":"123597211@N03","secret":"4337ee4cf6","server":"65535","farm":66,"title":"Kobaltnaschvogel (Cyanerpes caeruleus)","ispublic":1,"isfriend":0,"isfamily":0},{"id":"52139285401","owner":"123597211@N03","secret":"1b7c498722","server":"65535","farm":66,"title":"Kobaltnaschvogel (Cyanerpes caeruleus)","ispublic":1,"isfriend":0,"isfamily":0},{"id":"52139771110","owner":"123597211@N03","secret":"c863841170","server":"65535","farm":66,"title":"Kobaltnaschvogel (Cyanerpes caeruleus)","ispublic":1,"isfriend":0,"isfamily":0},{"id":"52120382635","owner":"36083098@N02","secret":"d80bb7bc64","server":"65535","farm":66,"title":"Cyanerpes caeruleus","ispublic":1,"isfriend":0,"isfamily":0},{"id":"52120381825","owner":"36083098@N02","secret":"d783855011","server":"65535","farm":66,"title":"Cyanerpes caeruleus","ispublic":1,"isfriend":0,"isfamily":0},{"id":"52120378470","owner":"36083098@N02","secret":"5fcabf21db","server":"65535","farm":66,"title":"Cyanerpes caeruleus","ispublic":1,"isfriend":0,"isfamily":0},{"id":"52050169380","owner":"48084395@N03","secret":"e26488e851","server":"65535","farm":66,"title":"Purple Honeycreeper (Cyanerpes caeruleus) _5AC8818","ispublic":1,"isfriend":0,"isfamily":0},{"id":"51708279069","owner":"194480666@N08","secret":"4a96a19c49","server":"65535","farm":66,"title":"Purple Honeycreeper","ispublic":1,"isfriend":0,"isfamily":0},{"id":"51683913735","owner":"52321838@N05","secret":"5e5227edae","server":"65535","farm":66,"title":"Shining Honeycreeper","ispublic":1,"isfriend":0,"isfamily":0},{"id":"51539594038","owner":"37493716@N02","secret":"e890050888","server":"0","farm":0,"title":"Cyanerpes caeruleus","ispublic":1,"isfriend":0,"isfamily":0},{"id":"51443808514","owner":"37493716@N02","secret":"83543d33fb","server":"0","farm":0,"title":"Cyanerpes caeruleus","ispublic":1,"isfriend":0,"isfamily":0},{"id":"51395348696","owner":"119787485@N07","secret":"1064c868a6","server":"65535","farm":66,"title":"Purple Honeycreeper (Cyanerpes caeruleus longirostris) - 20160202-05","ispublic":1,"isfriend":0,"isfamily":0},{"id":"51395326341","owner":"119787485@N07","secret":"1566b004f5","server":"65535","farm":66,"title":"Purple Honeycreeper (Cyanerpes caeruleus longirostris) - 20160204-01","ispublic":1,"isfriend":0,"isfamily":0},{"id":"51321937982","owner":"68320803@N07","secret":"18be0da265","server":"65535","farm":66,"title":"Ladybird","ispublic":1,"isfriend":0,"isfamily":0},{"id":"51190020709","owner":"74787113@N05","secret":"1ca7808c74","server":"65535","farm":66,"title":"PURPLE HONEYCREEPER INMATURE","ispublic":1,"isfriend":0,"isfamily":0},{"id":"50862483638","owner":"52363379@N07","secret":"a2feda0b1d","server":"65535","farm":66,"title":"Cyanerpes caeruleus","ispublic":1,"isfriend":0,"isfamily":0},{"id":"50663599427","owner":"190923251@N05","secret":"baff066cfb","server":"65535","farm":66,"title":"Purple Honeycreeper male in the rain","ispublic":1,"isfriend":0,"isfamily":0},{"id":"50662749743","owner":"190923251@N05","secret":"400ce171f7","server":"65535","farm":66,"title":"Purple Honeycreeper female","ispublic":1,"isfriend":0,"isfamily":0},{"id":"50663490606","owner":"190923251@N05","secret":"e699af2fcf","server":"65535","farm":66,"title":"Purple Honeycreeper female (and male out-of-focus)","ispublic":1,"isfriend":0,"isfamily":0},{"id":"50663497352","owner":"190923251@N05","secret":"769b2ab067","server":"65535","farm":66,"title":"Green Honeycreeper and Purple Honeycreeper together","ispublic":1,"isfriend":0,"isfamily":0},{"id":"50662066633","owner":"190923251@N05","secret":"fc9033d828","server":"65535","farm":66,"title":"Purple Honeycreeper male","ispublic":1,"isfriend":0,"isfamily":0},{"id":"50640976502","owner":"61827574@N03","secret":"c866968868","server":"65535","farm":66,"title":"Purple Honey Creeper (f) Cyanerpes caeruleus","ispublic":1,"isfriend":0,"isfamily":0},{"id":"50563989356","owner":"61021753@N02","secret":"12450cb81e","server":"65535","farm":66,"title":"n39_w1150","ispublic":1,"isfriend":0,"isfamily":0},{"id":"50544345836","owner":"27480477@N07","secret":"a8e6a973f9","server":"65535","farm":66,"title":"D38K39363936 Purple Honeycreeper (f), Cyanerpes caeruleus longirostris.","ispublic":1,"isfriend":0,"isfamily":0},{"id":"50359573361","owner":"10336659@N04","secret":"afb3f899f4","server":"65535","farm":66,"title":"Purple Honey Creeper, (Cyanerpes caeruleus), Yerette, Trinidad.","ispublic":1,"isfriend":0,"isfamily":0},{"id":"50105158306","owner":"83287919@N00","secret":"ffc8f85b7b","server":"65535","farm":66,"title":"Cyanerpes caeruleus pK 75 090720 AV-30rc","ispublic":1,"isfriend":0,"isfamily":0},{"id":"50088248598","owner":"33573751@N04","secret":"0400b2d515","server":"65535","farm":66,"title":"Purple Honeycreeper (Cyanerpes caeruleus) - Tobago","ispublic":1,"isfriend":0,"isfamily":0},{"id":"50061762213","owner":"33573751@N04","secret":"fd8d31eca7","server":"65535","farm":66,"title":"Purple Honeycreeper (Cyanerpes caeruleus) - Trinidad","ispublic":1,"isfriend":0,"isfamily":0},{"id":"50041476092","owner":"74787113@N05","secret":"05ef1352dd","server":"65535","farm":66,"title":"PURPLE HONEYCREEPER LOVE SONG","ispublic":1,"isfriend":0,"isfamily":0},{"id":"49754230283","owner":"49563725@N06","secret":"f4092131eb","server":"65535","farm":66,"title":"Purple Honeycreeper","ispublic":1,"isfriend":0,"isfamily":0},{"id":"52700232255","owner":"71833159@N00","secret":"c882f34552","server":"65535","farm":66,"title":"Purple Honeycreeper \/ Cyanerpes caeruleus, Asa Wright Nature Centre, Trinidad, 2017","ispublic":1,"isfriend":0,"isfamily":0},{"id":"52329067366","owner":"123597211@N03","secret":"16842dd398","server":"65535","farm":66,"title":"Kobaltnaschvogel (Cyanerpes caeruleus)","ispublic":1,"isfriend":0,"isfamily":0},{"id":"52329066921","owner":"123597211@N03","secret":"e47eb67341","server":"65535","farm":66,"title":"Kobaltnaschvogel (Cyanerpes caeruleus)","ispublic":1,"isfriend":0,"isfamily":0},{"id":"52329369874","owner":"123597211@N03","secret":"7942c2872b","server":"65535","farm":66,"title":"Kobaltnaschvogel (Cyanerpes caeruleus)","ispublic":1,"isfriend":0,"isfamily":0},{"id":"52329495615","owner":"123597211@N03","secret":"2cd0ca2e21","server":"65535","farm":66,"title":"Kobaltnaschvogel (Cyanerpes caeruleus)","ispublic":1,"isfriend":0,"isfamily":0},{"id":"52329495140","owner":"123597211@N03","secret":"2a6a9662ae","server":"65535","farm":66,"title":"Kobaltnaschvogel (Cyanerpes caeruleus)","ispublic":1,"isfriend":0,"isfamily":0},{"id":"52328112082","owner":"123597211@N03","secret":"005b20c134","server":"65535","farm":66,"title":"Kobaltnaschvogel (Cyanerpes caeruleus)","ispublic":1,"isfriend":0,"isfamily":0},{"id":"52329494115","owner":"123597211@N03","secret":"7faba84387","server":"65535","farm":66,"title":"Kobaltnaschvogel (Cyanerpes caeruleus)","ispublic":1,"isfriend":0,"isfamily":0},{"id":"52329493305","owner":"123597211@N03","secret":"200b53a25c","server":"65535","farm":66,"title":"Kobaltnaschvogel (Cyanerpes caeruleus)","ispublic":1,"isfriend":0,"isfamily":0},{"id":"52328110122","owner":"123597211@N03","secret":"1a82358fd6","server":"65535","farm":66,"title":"Kobaltnaschvogel (Cyanerpes caeruleus)","ispublic":1,"isfriend":0,"isfamily":0},{"id":"52328109602","owner":"123597211@N03","secret":"5589c2c884","server":"65535","farm":66,"title":"Kobaltnaschvogel (Cyanerpes caeruleus)","ispublic":1,"isfriend":0,"isfamily":0},{"id":"52329314458","owner":"123597211@N03","secret":"2ffb538651","server":"65535","farm":66,"title":"Kobaltnaschvogel (Cyanerpes caeruleus)","ispublic":1,"isfriend":0,"isfamily":0},{"id":"52329365289","owner":"123597211@N03","secret":"d0c4c6b174","server":"65535","farm":66,"title":"Kobaltnaschvogel (Cyanerpes caeruleus)","ispublic":1,"isfriend":0,"isfamily":0},{"id":"52329364374","owner":"123597211@N03","secret":"b9f396b4a8","server":"65535","farm":66,"title":"Kobaltnaschvogel (Cyanerpes caeruleus)","ispublic":1,"isfriend":0,"isfamily":0},{"id":"52329060781","owner":"123597211@N03","secret":"f913833603","server":"65535","farm":66,"title":"Kobaltnaschvogel (Cyanerpes caeruleus)","ispublic":1,"isfriend":0,"isfamily":0},{"id":"52328107192","owner":"123597211@N03","secret":"0a057cd9e5","server":"65535","farm":66,"title":"Kobaltnaschvogel (Cyanerpes caeruleus)","ispublic":1,"isfriend":0,"isfamily":0},{"id":"52328106752","owner":"123597211@N03","secret":"c15ac1c0fe","server":"65535","farm":66,"title":"Kobaltnaschvogel (Cyanerpes caeruleus)","ispublic":1,"isfriend":0,"isfamily":0},{"id":"52329311523","owner":"123597211@N03","secret":"5dbea81d70","server":"65535","farm":66,"title":"Kobaltnaschvogel (Cyanerpes caeruleus)","ispublic":1,"isfriend":0,"isfamily":0},{"id":"52329059126","owner":"123597211@N03","secret":"c57447b522","server":"65535","farm":66,"title":"Kobaltnaschvogel (Cyanerpes caeruleus)","ispublic":1,"isfriend":0,"isfamily":0},{"id":"52329058676","owner":"123597211@N03","secret":"5490fac21b","server":"65535","farm":66,"title":"Kobaltnaschvogel (Cyanerpes caeruleus)","ispublic":1,"isfriend":0,"isfamily":0},{"id":"52329361759","owner":"123597211@N03","secret":"863db1128c","server":"65535","farm":66,"title":"Kobaltnaschvogel (Cyanerpes caeruleus)","ispublic":1,"isfriend":0,"isfamily":0},{"id":"52328104737","owner":"123597211@N03","secret":"19a2407fd4","server":"65535","farm":66,"title":"Kobaltnaschvogel (Cyanerpes caeruleus)","ispublic":1,"isfriend":0,"isfamily":0},{"id":"52328104437","owner":"123597211@N03","secret":"e1b4db269f","server":"65535","farm":66,"title":"Kobaltnaschvogel (Cyanerpes caeruleus)","ispublic":1,"isfriend":0,"isfamily":0},{"id":"52329057136","owner":"123597211@N03","secret":"e0105c0be5","server":"65535","farm":66,"title":"Kobaltnaschvogel (Cyanerpes caeruleus)","ispublic":1,"isfriend":0,"isfamily":0},{"id":"52329359954","owner":"123597211@N03","secret":"25c16baf43","server":"65535","farm":66,"title":"Kobaltnaschvogel (Cyanerpes caeruleus)","ispublic":1,"isfriend":0,"isfamily":0},{"id":"52329485435","owner":"123597211@N03","secret":"25d33456a6","server":"65535","farm":66,"title":"Kobaltnaschvogel (Cyanerpes caeruleus)","ispublic":1,"isfriend":0,"isfamily":0},{"id":"52329055541","owner":"123597211@N03","secret":"f059762c8d","server":"65535","farm":66,"title":"Kobaltnaschvogel (Cyanerpes caeruleus)","ispublic":1,"isfriend":0,"isfamily":0},{"id":"52288083481","owner":"123597211@N03","secret":"a36b1b617a","server":"65535","farm":66,"title":"Kobaltnaschvogel (Cyanerpes caeruleus)","ispublic":1,"isfriend":0,"isfamily":0},{"id":"51983224962","owner":"123597211@N03","secret":"3935164b9f","server":"65535","farm":66,"title":"Kobaltnaschvogel (Cyanerpes caeruleus)","ispublic":1,"isfriend":0,"isfamily":0},{"id":"51984516114","owner":"123597211@N03","secret":"af085b7e5b","server":"65535","farm":66,"title":"Kobaltnaschvogel (Cyanerpes caeruleus)","ispublic":1,"isfriend":0,"isfamily":0},{"id":"51983224272","owner":"123597211@N03","secret":"be0301f27e","server":"65535","farm":66,"title":"Kobaltnaschvogel (Cyanerpes caeruleus)","ispublic":1,"isfriend":0,"isfamily":0},{"id":"51984238506","owner":"123597211@N03","secret":"089e818586","server":"65535","farm":66,"title":"Kobaltnaschvogel (Cyanerpes caeruleus)","ispublic":1,"isfriend":0,"isfamily":0},{"id":"51984238206","owner":"123597211@N03","secret":"b286e2019d","server":"65535","farm":66,"title":"Kobaltnaschvogel (Cyanerpes caeruleus)","ispublic":1,"isfriend":0,"isfamily":0},{"id":"51984298028","owner":"123597211@N03","secret":"ab45be6c97","server":"65535","farm":66,"title":"Kobaltnaschvogel (Cyanerpes caeruleus)","ispublic":1,"isfriend":0,"isfamily":0},{"id":"51984297708","owner":"123597211@N03","secret":"32bacdb25a","server":"65535","farm":66,"title":"Kobaltnaschvogel (Cyanerpes caeruleus)","ispublic":1,"isfriend":0,"isfamily":0},{"id":"51984513664","owner":"123597211@N03","secret":"a081c18212","server":"65535","farm":66,"title":"Kobaltnaschvogel (Cyanerpes caeruleus)","ispublic":1,"isfriend":0,"isfamily":0},{"id":"51983222002","owner":"123597211@N03","secret":"6501c2da0e","server":"65535","farm":66,"title":"Kobaltnaschvogel (Cyanerpes caeruleus)","ispublic":1,"isfriend":0,"isfamily":0},{"id":"51847507468","owner":"93639794@N03","secret":"373a11e483","server":"0","farm":0,"title":"cyanerpes-caeruleus_51539594038","ispublic":1,"isfriend":0,"isfamily":0},{"id":"51784535161","owner":"12639178@N07","secret":"a9e14e34f1","server":"65535","farm":66,"title":"Kobaltnaschvogel, Weibchen","ispublic":1,"isfriend":0,"isfamily":0},{"id":"51783164474","owner":"74787113@N05","secret":"d175935681","server":"65535","farm":66,"title":"PURPLE HONEYCREEPER COUPLE","ispublic":1,"isfriend":0,"isfamily":0},{"id":"51585528341","owner":"145824323@N05","secret":"e2822565c7","server":"65535","farm":66,"title":"Purple honeycreeper (Cyanerpes caeruleus)","ispublic":1,"isfriend":0,"isfamily":0},{"id":"51586186119","owner":"145824323@N05","secret":"6ce0d04fc8","server":"65535","farm":66,"title":"Purple honeycreeper (Cyanerpes caeruleus)","ispublic":1,"isfriend":0,"isfamily":0},{"id":"51584697472","owner":"145824323@N05","secret":"041409b8a4","server":"65535","farm":66,"title":"Purple honeycreeper (Cyanerpes caeruleus)","ispublic":1,"isfriend":0,"isfamily":0},{"id":"51584697282","owner":"145824323@N05","secret":"13d0026dcd","server":"65535","farm":66,"title":"Purple honeycreeper (Cyanerpes caeruleus)","ispublic":1,"isfriend":0,"isfamily":0},{"id":"51584695152","owner":"145824323@N05","secret":"454e29c87b","server":"65535","farm":66,"title":"Purple honeycreeper (Cyanerpes caeruleus)","ispublic":1,"isfriend":0,"isfamily":0},{"id":"51311776533","owner":"182492939@N08","secret":"8937e81d3f","server":"65535","farm":66,"title":"_5ML0551-1_Cyanerpes caeruleus_Purple Honeycreeper_Mielero P\u00farpura (Hembra)","ispublic":1,"isfriend":0,"isfamily":0},{"id":"51312297634","owner":"182492939@N08","secret":"99d472798d","server":"65535","farm":66,"title":"_5ML0555-1_Cyanerpes caeruleus_Purple Honeycreeper_Mielero P\u00farpura (Hembra)","ispublic":1,"isfriend":0,"isfamily":0},{"id":"51083212757","owner":"37493716@N02","secret":"d605731870","server":"65535","farm":66,"title":"Purple Honeycreeper - Cyanerpes caeruleus - El Jaguar ProAves Reserve  - Foto Daniel Villar","ispublic":1,"isfriend":0,"isfamily":0},{"id":"50905078398","owner":"37493716@N02","secret":"a56290e075","server":"65535","farm":66,"title":"Cyanerpes caeruleus","ispublic":1,"isfriend":0,"isfamily":0},{"id":"50173952412","owner":"153736526@N06","secret":"6e932729f3","server":"65535","farm":66,"title":"Purple Honeycreeper - female (Cyanerpes caeruleus)","ispublic":1,"isfriend":0,"isfamily":0},{"id":"50062349613","owner":"33573751@N04","secret":"7b52d946da","server":"65535","farm":66,"title":"Purple Honeycreeper (Cyanerpes caeruleus) - Trinidad","ispublic":1,"isfriend":0,"isfamily":0},{"id":"49998445452","owner":"129081014@N03","secret":"633c891194","server":"65535","farm":66,"title":"Purple Honeycreeper (Cyanerpes caeruleus) (female)","ispublic":1,"isfriend":0,"isfamily":0},{"id":"49998194341","owner":"129081014@N03","secret":"0b50013537","server":"65535","farm":66,"title":"Purple Honeycreeper (Cyanerpes caeruleus) (male)","ispublic":1,"isfriend":0,"isfamily":0},{"id":"49998433627","owner":"129081014@N03","secret":"c93f7af5a0","server":"65535","farm":66,"title":"Green Honeycreeper (Cyanerpes caeruleus) (male)","ispublic":1,"isfriend":0,"isfamily":0},{"id":"49702266781","owner":"27305106@N06","secret":"d3405c0f97","server":"65535","farm":66,"title":"Purple Honeycreeper","ispublic":1,"isfriend":0,"isfamily":0}]},"stat":"ok"}