{"photos":{"page":1,"pages":29,"perpage":100,"total":2841,"photo":[{"id":"52705617361","owner":"33610210@N05","secret":"cb86d3698b","server":"65535","farm":66,"title":"Purple Martin, Progne subis","ispublic":1,"isfriend":0,"isfamily":0},{"id":"52706029970","owner":"33610210@N05","secret":"2acc3af634","server":"65535","farm":66,"title":"Purple Martin, Progne subis","ispublic":1,"isfriend":0,"isfamily":0},{"id":"52706029890","owner":"33610210@N05","secret":"74a357ffd4","server":"65535","farm":66,"title":"Purple Martin, Progne subis","ispublic":1,"isfriend":0,"isfamily":0},{"id":"52695308921","owner":"145466593@N08","secret":"ac70f27d27","server":"65535","farm":66,"title":"Purple Martin  (f)","ispublic":1,"isfriend":0,"isfamily":0},{"id":"52674860344","owner":"145466593@N08","secret":"830fb47bbe","server":"65535","farm":66,"title":"Purple Martin","ispublic":1,"isfriend":0,"isfamily":0},{"id":"52580678829","owner":"153973412@N04","secret":"f76e3e7f66","server":"65535","farm":66,"title":"Purple Martin-Progne subis, Plum Island, MA","ispublic":1,"isfriend":0,"isfamily":0},{"id":"52538966831","owner":"33610210@N05","secret":"0b62eb0821","server":"65535","farm":66,"title":"Purple Martin, Progne subis","ispublic":1,"isfriend":0,"isfamily":0},{"id":"52425407333","owner":"54059915@N07","secret":"f5b4e3cb43","server":"65535","farm":66,"title":"Who's a pretty bird?","ispublic":1,"isfriend":0,"isfamily":0},{"id":"52396663438","owner":"8065544@N08","secret":"5771a1f005","server":"65535","farm":66,"title":"Purple Martin (Progne subis) female","ispublic":1,"isfriend":0,"isfamily":0},{"id":"52396162486","owner":"8065544@N08","secret":"1fba9314ec","server":"65535","farm":66,"title":"Purple Martin (Progne subis) fledgling","ispublic":1,"isfriend":0,"isfamily":0},{"id":"52396459009","owner":"8065544@N08","secret":"bd176e4f9b","server":"65535","farm":66,"title":"Purple Martin (Progne subis) fledglings","ispublic":1,"isfriend":0,"isfamily":0},{"id":"52396663273","owner":"8065544@N08","secret":"8f7bed21c7","server":"65535","farm":66,"title":"Purple Martin (Progne subis) nestlings","ispublic":1,"isfriend":0,"isfamily":0},{"id":"52394230809","owner":"8065544@N08","secret":"988dfb4ce9","server":"65535","farm":66,"title":"Purple Martin (Progne subis) female","ispublic":1,"isfriend":0,"isfamily":0},{"id":"52394230784","owner":"8065544@N08","secret":"17e4da76ea","server":"65535","farm":66,"title":"Purple Martin (Progne subis) female","ispublic":1,"isfriend":0,"isfamily":0},{"id":"52393426967","owner":"8065544@N08","secret":"6d3d26ba35","server":"65535","farm":66,"title":"Purple Martin (Progne subis) female","ispublic":1,"isfriend":0,"isfamily":0},{"id":"52393426952","owner":"8065544@N08","secret":"94df0abbaa","server":"65535","farm":66,"title":"Purple Martin (Progne subis) female","ispublic":1,"isfriend":0,"isfamily":0},{"id":"52379877536","owner":"8065544@N08","secret":"ae2bca8a10","server":"65535","farm":66,"title":"Purple Martin (Progne subis) in her nest","ispublic":1,"isfriend":0,"isfamily":0},{"id":"52380111658","owner":"8065544@N08","secret":"8e7ce568bd","server":"65535","farm":66,"title":"Purple Martin (Progne subis)","ispublic":1,"isfriend":0,"isfamily":0},{"id":"52375498850","owner":"196264892@N08","secret":"81b8a10620","server":"65535","farm":66,"title":"Purple Martin","ispublic":1,"isfriend":0,"isfamily":0},{"id":"52375498240","owner":"196264892@N08","secret":"4bef70491e","server":"65535","farm":66,"title":"Purple Martin","ispublic":1,"isfriend":0,"isfamily":0},{"id":"52375497835","owner":"196264892@N08","secret":"cc11bc5f49","server":"65535","farm":66,"title":"Purple Martin","ispublic":1,"isfriend":0,"isfamily":0},{"id":"52375392209","owner":"196264892@N08","secret":"3eb97a1676","server":"65535","farm":66,"title":"Purple Martin","ispublic":1,"isfriend":0,"isfamily":0},{"id":"52375497020","owner":"196264892@N08","secret":"061820c43e","server":"65535","farm":66,"title":"Purple Martin pair","ispublic":1,"isfriend":0,"isfamily":0},{"id":"52375304013","owner":"196264892@N08","secret":"959ef4c2f4","server":"65535","farm":66,"title":"Purple Martin (9)","ispublic":1,"isfriend":0,"isfamily":0},{"id":"52375080471","owner":"196264892@N08","secret":"0f7a1d22cc","server":"65535","farm":66,"title":"Purple Martin","ispublic":1,"isfriend":0,"isfamily":0},{"id":"52357352530","owner":"32599741@N03","secret":"5c94950121","server":"65535","farm":66,"title":"2022 - Day 226:  a gulp of martins","ispublic":1,"isfriend":0,"isfamily":0},{"id":"52317987024","owner":"196264892@N08","secret":"461ea4ec82","server":"65535","farm":66,"title":"Purple Martins","ispublic":1,"isfriend":0,"isfamily":0},{"id":"52317563921","owner":"196264892@N08","secret":"00089f0512","server":"65535","farm":66,"title":"Purple Martins","ispublic":1,"isfriend":0,"isfamily":0},{"id":"52307374009","owner":"195239167@N07","secret":"9b12a3cdce","server":"65535","farm":66,"title":"Purple Martin","ispublic":1,"isfriend":0,"isfamily":0},{"id":"52289619432","owner":"68635735@N02","secret":"fe73f2c945","server":"65535","farm":66,"title":"Purple Martin (Progne subis)","ispublic":1,"isfriend":0,"isfamily":0},{"id":"52288468393","owner":"68635735@N02","secret":"f933120b4a","server":"65535","farm":66,"title":"Purple Martin (Progne subis)","ispublic":1,"isfriend":0,"isfamily":0},{"id":"52288733749","owner":"68635735@N02","secret":"e8df1a203d","server":"65535","farm":66,"title":"Purple Martin (Progne subis)","ispublic":1,"isfriend":0,"isfamily":0},{"id":"52286636583","owner":"62043870@N05","secret":"69ccc50fdc","server":"65535","farm":66,"title":"Purple Martin, Progne subis","ispublic":1,"isfriend":0,"isfamily":0},{"id":"52286341945","owner":"68635735@N02","secret":"263f4e538a","server":"65535","farm":66,"title":"Purple Martin (Progne subis)","ispublic":1,"isfriend":0,"isfamily":0},{"id":"52286119179","owner":"68635735@N02","secret":"c1b4e0d097","server":"65535","farm":66,"title":"Purple Martin (Progne subis)","ispublic":1,"isfriend":0,"isfamily":0},{"id":"52283724669","owner":"68635735@N02","secret":"539a9beb47","server":"65535","farm":66,"title":"Purple Martin (Progne subis)","ispublic":1,"isfriend":0,"isfamily":0},{"id":"52283939725","owner":"68635735@N02","secret":"b3b4bee2bd","server":"65535","farm":66,"title":"Purple Martin (Progne subis)","ispublic":1,"isfriend":0,"isfamily":0},{"id":"52271774166","owner":"61396634@N07","secret":"860edaeffc","server":"65535","farm":66,"title":"Purple Martins","ispublic":1,"isfriend":0,"isfamily":0},{"id":"52264087381","owner":"17654080@N08","secret":"f12d923cef","server":"65535","farm":66,"title":"Purple Martin (Progne subis)","ispublic":1,"isfriend":0,"isfamily":0},{"id":"52256333527","owner":"31057805@N02","secret":"71859fd3b8","server":"65535","farm":66,"title":"Flying martin","ispublic":1,"isfriend":0,"isfamily":0},{"id":"52257578179","owner":"31057805@N02","secret":"a54daa3ec4","server":"65535","farm":66,"title":"Spreading martin","ispublic":1,"isfriend":0,"isfamily":0},{"id":"52257578119","owner":"31057805@N02","secret":"6a358a03ec","server":"65535","farm":66,"title":"Martin lands","ispublic":1,"isfriend":0,"isfamily":0},{"id":"52289485250","owner":"134270033@N06","secret":"ce0310a05b","server":"65535","farm":66,"title":"HTT :: Happy Twosday Tuesday","ispublic":1,"isfriend":0,"isfamily":0},{"id":"52252015416","owner":"124995824@N08","secret":"a34c0e9ef6","server":"65535","farm":66,"title":"Purple Martin - Progne subis","ispublic":1,"isfriend":0,"isfamily":0},{"id":"52252301584","owner":"124995824@N08","secret":"4caac4d18a","server":"65535","farm":66,"title":"Purple Martin - Progne subis","ispublic":1,"isfriend":0,"isfamily":0},{"id":"52250096359","owner":"194196140@N08","secret":"ff3e8e0979","server":"65535","farm":66,"title":"Purple Martin (Progne subis)","ispublic":1,"isfriend":0,"isfamily":0},{"id":"52240680395","owner":"39177293@N03","secret":"8eb634fefa","server":"65535","farm":66,"title":"Purple Martin","ispublic":1,"isfriend":0,"isfamily":0},{"id":"52229123258","owner":"168495655@N07","secret":"abffc0ddc9","server":"65535","farm":66,"title":"Hirondelle noire - Progne subis - Purple Martin","ispublic":1,"isfriend":0,"isfamily":0},{"id":"52229122803","owner":"168495655@N07","secret":"f41fc96d3e","server":"65535","farm":66,"title":"Hirondelle noire - Progne subis - Purple Martin","ispublic":1,"isfriend":0,"isfamily":0},{"id":"52212494487","owner":"17654080@N08","secret":"b00356c38f","server":"65535","farm":66,"title":"Purple Martin hatchling with eggs","ispublic":1,"isfriend":0,"isfamily":0},{"id":"52198346816","owner":"184155060@N04","secret":"e67f033d42","server":"65535","farm":66,"title":"23053 Hirondelle noire (femelle) \/ Progne subis subis \/ Purple Martin (subis\/arboricola)","ispublic":1,"isfriend":0,"isfamily":0},{"id":"52197506141","owner":"120449047@N06","secret":"82b5fc6747","server":"65535","farm":66,"title":"Purple Martin (m)","ispublic":1,"isfriend":0,"isfamily":0},{"id":"52197238498","owner":"131708321@N02","secret":"0652fc8fcc","server":"65535","farm":66,"title":"Purple Martin (Progne subis), Calgary, Alberta, Canada","ispublic":1,"isfriend":0,"isfamily":0},{"id":"52188822278","owner":"129803374@N05","secret":"25eac6093a","server":"65535","farm":66,"title":"Purple Martin (Progne subis)","ispublic":1,"isfriend":0,"isfamily":0},{"id":"52182184833","owner":"63093099@N02","secret":"7a5800a249","server":"65535","farm":66,"title":"Purple Martins; 20220629; USA-OH-Cleveland","ispublic":1,"isfriend":0,"isfamily":0},{"id":"52182184778","owner":"63093099@N02","secret":"b3002af61d","server":"65535","farm":66,"title":"Purple Martin (male); 20220629; USA-OH-Cleveland","ispublic":1,"isfriend":0,"isfamily":0},{"id":"52182184763","owner":"63093099@N02","secret":"ba9eef651d","server":"65535","farm":66,"title":"Purple Martin; 20220629; USA-OH-Cleveland","ispublic":1,"isfriend":0,"isfamily":0},{"id":"52181160132","owner":"63093099@N02","secret":"d70131cfb5","server":"65535","farm":66,"title":"Purple Martins; 20220629; USA-OH-Cleveland","ispublic":1,"isfriend":0,"isfamily":0},{"id":"52182667710","owner":"63093099@N02","secret":"11ec891280","server":"65535","farm":66,"title":"Purple Martin (male); 20220629; USA-OH-Cleveland","ispublic":1,"isfriend":0,"isfamily":0},{"id":"52182667615","owner":"63093099@N02","secret":"b85607e4c9","server":"65535","farm":66,"title":"Purple Martin (male); 20220629; USA-OH-Cleveland","ispublic":1,"isfriend":0,"isfamily":0},{"id":"52181509524","owner":"120449047@N06","secret":"89ff8b149d","server":"65535","farm":66,"title":"Purple Martin","ispublic":1,"isfriend":0,"isfamily":0},{"id":"52177776010","owner":"11815777@N07","secret":"6feee688c9","server":"65535","farm":66,"title":"Purple Martin","ispublic":1,"isfriend":0,"isfamily":0},{"id":"52168500216","owner":"68635735@N02","secret":"7b7e77b9c8","server":"65535","farm":66,"title":"Purple Martin (Progne subis) male & female","ispublic":1,"isfriend":0,"isfamily":0},{"id":"52168499976","owner":"68635735@N02","secret":"c9f2efc805","server":"65535","farm":66,"title":"Purple Martin (Progne subis) male","ispublic":1,"isfriend":0,"isfamily":0},{"id":"52166544164","owner":"68635735@N02","secret":"947fd0c71a","server":"65535","farm":66,"title":"Purple Martin (Progne subis) male & female","ispublic":1,"isfriend":0,"isfamily":0},{"id":"52166789310","owner":"68635735@N02","secret":"31d8f509dc","server":"65535","farm":66,"title":"Purple Martin (Progne subis) male","ispublic":1,"isfriend":0,"isfamily":0},{"id":"52127150026","owner":"32599741@N03","secret":"4e237d512b","server":"65535","farm":66,"title":"at home","ispublic":1,"isfriend":0,"isfamily":0},{"id":"52116374224","owner":"8783241@N08","secret":"52913d72b8","server":"65535","farm":66,"title":"Progne subis - Purple Martin","ispublic":1,"isfriend":0,"isfamily":0},{"id":"52115743119","owner":"133218059@N02","secret":"9c89d262d1","server":"65535","farm":66,"title":"Progne subis --  Purple Martins at their birdhouses 1356 (2)","ispublic":1,"isfriend":0,"isfamily":0},{"id":"52113190441","owner":"133218059@N02","secret":"c1cdaa9112","server":"65535","farm":66,"title":"Progne subis --  Purple Martins at their birdhouse 1361","ispublic":1,"isfriend":0,"isfamily":0},{"id":"52642783297","owner":"8013969@N03","secret":"d2f418fb9b","server":"65535","farm":66,"title":"Progne subis DFL btr22-1","ispublic":1,"isfriend":0,"isfamily":0},{"id":"52643279696","owner":"8013969@N03","secret":"76f18197e7","server":"65535","farm":66,"title":"Progne subis DFL btr22-3","ispublic":1,"isfriend":0,"isfamily":0},{"id":"52642773457","owner":"8013969@N03","secret":"8b0a50def9","server":"65535","farm":66,"title":"Progne subis DFL btr22-4","ispublic":1,"isfriend":0,"isfamily":0},{"id":"52643746648","owner":"8013969@N03","secret":"795b7ca9aa","server":"65535","farm":66,"title":"Progne subis DFL btr22-5","ispublic":1,"isfriend":0,"isfamily":0},{"id":"52634632135","owner":"47533293@N04","secret":"6e8f1fe8cb","server":"65535","farm":66,"title":"Purple martin, Progne subis","ispublic":1,"isfriend":0,"isfamily":0},{"id":"52483848994","owner":"59777454@N02","secret":"f29761343f","server":"65535","farm":66,"title":"Purple Martin female with dragonfly Tekiela TEK7658","ispublic":1,"isfriend":0,"isfamily":0},{"id":"52380296635","owner":"8065544@N08","secret":"c315870d18","server":"65535","farm":66,"title":"Purple Martin (Progne subis)","ispublic":1,"isfriend":0,"isfamily":0},{"id":"52375082456","owner":"196264892@N08","secret":"fb513e6b99","server":"65535","farm":66,"title":"Purple Martin","ispublic":1,"isfriend":0,"isfamily":0},{"id":"52358417285","owner":"196264892@N08","secret":"7dc57fdb81","server":"65535","farm":66,"title":"Purple Martins","ispublic":1,"isfriend":0,"isfamily":0},{"id":"52357043202","owner":"196264892@N08","secret":"ff932853df","server":"65535","farm":66,"title":"Purple Martins","ispublic":1,"isfriend":0,"isfamily":0},{"id":"52328067150","owner":"196264892@N08","secret":"edb24156dd","server":"65535","farm":66,"title":"Purple Martin","ispublic":1,"isfriend":0,"isfamily":0},{"id":"52270153006","owner":"196264892@N08","secret":"9b75055670","server":"65535","farm":66,"title":"Purple Martin","ispublic":1,"isfriend":0,"isfamily":0},{"id":"52269188867","owner":"196264892@N08","secret":"c8f839769d","server":"65535","farm":66,"title":"Purple Martin","ispublic":1,"isfriend":0,"isfamily":0},{"id":"52270421469","owner":"196264892@N08","secret":"dfb6a30630","server":"65535","farm":66,"title":"Purple Martins at Lummi Island ferry dock","ispublic":1,"isfriend":0,"isfamily":0},{"id":"52252301609","owner":"124995824@N08","secret":"e2bb736e45","server":"65535","farm":66,"title":"Purple Martin - Progne subis","ispublic":1,"isfriend":0,"isfamily":0},{"id":"52252519400","owner":"124995824@N08","secret":"09fd2d7e53","server":"65535","farm":66,"title":"Purple Martin - Progne subis","ispublic":1,"isfriend":0,"isfamily":0},{"id":"52241514480","owner":"39177293@N03","secret":"322e39ef4a","server":"65535","farm":66,"title":"Purple Martin","ispublic":1,"isfriend":0,"isfamily":0},{"id":"52231494503","owner":"12639178@N07","secret":"f5183e774a","server":"65535","farm":66,"title":"Hinweis am Seeufer","ispublic":1,"isfriend":0,"isfamily":0},{"id":"52231763839","owner":"12639178@N07","secret":"139d2d9d19","server":"65535","farm":66,"title":"Purpurschwalbe \u2640 am Nistkasten","ispublic":1,"isfriend":0,"isfamily":0},{"id":"52213517788","owner":"17654080@N08","secret":"048e9b5687","server":"65535","farm":66,"title":"Purple Martin, female in flight (Progne subis)","ispublic":1,"isfriend":0,"isfamily":0},{"id":"52212248867","owner":"144980256@N07","secret":"45dce7674f","server":"65535","farm":66,"title":"Purple Martin (Progne subis)","ispublic":1,"isfriend":0,"isfamily":0},{"id":"52197344722","owner":"184155060@N04","secret":"d8ce9aaa6d","server":"65535","farm":66,"title":"23053 Hirondelle noire (couple) \/ Progne subis subis \/ Purple Martin (subis\/arboricola)","ispublic":1,"isfriend":0,"isfamily":0},{"id":"52198616839","owner":"184155060@N04","secret":"16b148d1f6","server":"65535","farm":66,"title":"23053 Hirondelle noire (m\u00e2le) \/ Progne subis subis \/ Purple Martin (subis\/arboricola)","ispublic":1,"isfriend":0,"isfamily":0},{"id":"52190706148","owner":"20984644@N05","secret":"12cfa4ae52","server":"65535","farm":66,"title":"Baby Purple Martins","ispublic":1,"isfriend":0,"isfamily":0},{"id":"52188507417","owner":"183132100@N02","secret":"e29d570a06","server":"65535","farm":66,"title":"Purple Martin 6-4-2022","ispublic":1,"isfriend":0,"isfamily":0},{"id":"52163469521","owner":"39445433@N02","secret":"b2b699c2f1","server":"65535","farm":66,"title":"Purple Martin","ispublic":1,"isfriend":0,"isfamily":0},{"id":"52135265431","owner":"57465751@N05","secret":"2d39286782","server":"65535","farm":66,"title":"Purple Martin (Progne subis), Green Cay Wetlands, Palm Beach Co., FL","ispublic":1,"isfriend":0,"isfamily":0},{"id":"52127581814","owner":"61241315@N00","secret":"16cbebec0f","server":"65535","farm":66,"title":"Purple Martin_N1718","ispublic":1,"isfriend":0,"isfamily":0},{"id":"52100485309","owner":"165841515@N03","secret":"97a2d88dda","server":"65535","farm":66,"title":"Hirondelle noire \/ Purple Martin \/ (Progne subis)","ispublic":1,"isfriend":0,"isfamily":0},{"id":"52100485264","owner":"165841515@N03","secret":"2b66cc0a90","server":"65535","farm":66,"title":"Hirondelle noire \/ Purple Martin \/ (Progne subis)","ispublic":1,"isfriend":0,"isfamily":0}]},"stat":"ok"}