{"photos":{"page":1,"pages":5,"perpage":100,"total":483,"photo":[{"id":"52730846024","owner":"190923251@N05","secret":"4ce1885cb4","server":"65535","farm":66,"title":"Red-capped Cardinal on nest","ispublic":1,"isfriend":0,"isfamily":0},{"id":"52705862023","owner":"31704662@N08","secret":"0250736169","server":"65535","farm":66,"title":"Red-capped Cardinal (Paroaria gularis)","ispublic":1,"isfriend":0,"isfamily":0},{"id":"52569360604","owner":"61827574@N03","secret":"17804b5797","server":"65535","farm":66,"title":"Red-capped Cardinal - Paroaria gularis","ispublic":1,"isfriend":0,"isfamily":0},{"id":"52555521284","owner":"50124355@N02","secret":"98cbd69928","server":"65535","farm":66,"title":"Red-capped cardinal | Schwarzkehlkardinal (Paroaria gularis), Tambo Blanquillo Nature reserve,  Man\u00fa, Peru","ispublic":1,"isfriend":0,"isfamily":0},{"id":"52469008754","owner":"167323674@N05","secret":"df31e8981c","server":"65535","farm":66,"title":"Cardeal da Amaz\u00f4nia - Paroaria gularis- Red-capped Cardinal","ispublic":1,"isfriend":0,"isfamily":0},{"id":"52428851266","owner":"77128742@N06","secret":"e6c4839883","server":"65535","farm":66,"title":"Schwarzkehlkardinal_Paroaria gularis-9","ispublic":1,"isfriend":0,"isfamily":0},{"id":"52429370743","owner":"77128742@N06","secret":"6a866d3ddd","server":"65535","farm":66,"title":"Schwarzkehlkardinal_Paroaria gularis-1","ispublic":1,"isfriend":0,"isfamily":0},{"id":"52428851246","owner":"77128742@N06","secret":"029045b57c","server":"65535","farm":66,"title":"Schwarzkehlkardinal_Paroaria gularis-13","ispublic":1,"isfriend":0,"isfamily":0},{"id":"52429307375","owner":"77128742@N06","secret":"5f9bf05262","server":"65535","farm":66,"title":"Schwarzkehlkardinal_Paroaria gularis-18","ispublic":1,"isfriend":0,"isfamily":0},{"id":"52429307365","owner":"77128742@N06","secret":"778c21760b","server":"65535","farm":66,"title":"Schwarzkehlkardinal_Paroaria gularis-19","ispublic":1,"isfriend":0,"isfamily":0},{"id":"52429133694","owner":"77128742@N06","secret":"09cc819c0f","server":"65535","farm":66,"title":"Schwarzkehlkardinal_Paroaria gularis-21","ispublic":1,"isfriend":0,"isfamily":0},{"id":"52428851196","owner":"77128742@N06","secret":"07a79e73a2","server":"65535","farm":66,"title":"Schwarzkehlkardinal_Paroaria gularis-20","ispublic":1,"isfriend":0,"isfamily":0},{"id":"52369631045","owner":"44096805@N07","secret":"77eee850ee","server":"65535","farm":66,"title":"Red-capped Cardinal (Paroaria g. gularis)","ispublic":1,"isfriend":0,"isfamily":0},{"id":"52369345418","owner":"44096805@N07","secret":"3456467f67","server":"65535","farm":66,"title":"Red-capped Cardinal (Paroaria g. gularis)","ispublic":1,"isfriend":0,"isfamily":0},{"id":"52320424854","owner":"9144222@N06","secret":"4ca6ee684b","server":"65535","farm":66,"title":"Red-capped cardinal","ispublic":1,"isfriend":0,"isfamily":0},{"id":"52303940618","owner":"186193378@N07","secret":"ce042ae2f0","server":"65535","farm":66,"title":"Cardeal-da-amaz\u00f4nia (Paroaria gularis) Red-capped Cardinal","ispublic":1,"isfriend":0,"isfamily":0},{"id":"52300626065","owner":"42758436@N05","secret":"0704842a2c","server":"65535","farm":66,"title":"Red-capped Cardinal (Paroaria gularis) - P6100904","ispublic":1,"isfriend":0,"isfamily":0},{"id":"52288781016","owner":"80648919@N08","secret":"e0189827fe","server":"65535","farm":66,"title":"Red-capped Cardinal","ispublic":1,"isfriend":0,"isfamily":0},{"id":"52054890533","owner":"57465751@N05","secret":"8bf67b0907","server":"65535","farm":66,"title":"Red-capped Cardinal (Paroaria gularis), Hope Beach, Guyana","ispublic":1,"isfriend":0,"isfamily":0},{"id":"51992621766","owner":"76695351@N06","secret":"8dc81d5d6b","server":"65535","farm":66,"title":"Zwartkeelkardinaal - Red-capped Cardinal","ispublic":1,"isfriend":0,"isfamily":0},{"id":"51975941656","owner":"32674493@N04","secret":"7586b7eaf0","server":"65535","farm":66,"title":"Cardeal-da-amaz\u00f4nia (Paroaria gularis)","ispublic":1,"isfriend":0,"isfamily":0},{"id":"51955018391","owner":"53102904@N08","secret":"df938c2d06","server":"65535","farm":66,"title":"Red-capped Cardinal \/ Zwartkeelkardinaal","ispublic":1,"isfriend":0,"isfamily":0},{"id":"51891330403","owner":"48938938@N04","secret":"b019dbe14c","server":"65535","farm":66,"title":"Red-capped Cardinal_Paroaria gularis_Ascanio_Amazon Cruise_DZ3A8375","ispublic":1,"isfriend":0,"isfamily":0},{"id":"51891574014","owner":"48938938@N04","secret":"cc93ea173f","server":"65535","farm":66,"title":"Red-capped Cardinal_Paroaria gularis_Ascanio_Amazon Cruise_DZ3A8359","ispublic":1,"isfriend":0,"isfamily":0},{"id":"51702241287","owner":"31137609@N08","secret":"f827ae03a7","server":"65535","farm":66,"title":"Red-capped cardinal (Paroaria gularis)","ispublic":1,"isfriend":0,"isfamily":0},{"id":"51366041040","owner":"119787485@N07","secret":"49f014aace","server":"65535","farm":66,"title":"Red-capped Cardinal (Paroaria gularis gularis) - 20181018-02","ispublic":1,"isfriend":0,"isfamily":0},{"id":"51281701458","owner":"187510707@N05","secret":"f519da0a47","server":"65535","farm":66,"title":"cardenilla capirroja\u200b (Paroaria gularis)-3","ispublic":1,"isfriend":0,"isfamily":0},{"id":"51281701388","owner":"187510707@N05","secret":"5eb873754f","server":"65535","farm":66,"title":"cardenilla capirroja\u200b (Paroaria gularis)-Edit-Edit","ispublic":1,"isfriend":0,"isfamily":0},{"id":"51248685750","owner":"37493716@N02","secret":"4bfdd77469","server":"65535","farm":66,"title":"Red-capped Cardinal - Paroaria gularis - Reserva ProAves El Jaguar - Foto: Leonel Silva","ispublic":1,"isfriend":0,"isfamily":0},{"id":"51243649844","owner":"190931891@N05","secret":"332da6a17f","server":"65535","farm":66,"title":"Cardeal-da-amazonia (Paroaria gularis)","ispublic":1,"isfriend":0,"isfamily":0},{"id":"51197955857","owner":"69947563@N07","secret":"169d27e9f9","server":"65535","farm":66,"title":"Red-capped Cardinal - Sucumb\u00edos Province, Ecuador","ispublic":1,"isfriend":0,"isfamily":0},{"id":"51053768797","owner":"92802221@N05","secret":"9985834c20","server":"65535","farm":66,"title":"2018-05-15_ECU_Cuyabeno River (Inside Reserve), Sucumbios Province_Red-capped Cardinal (Paroaria gularis)_ByHugoArnal (1)","ispublic":1,"isfriend":0,"isfamily":0},{"id":"51053768627","owner":"92802221@N05","secret":"60cf06a0f7","server":"65535","farm":66,"title":"2018-05-15_ECU_Cuyabeno River (Inside Reserve), Sucumbios Province_Red-capped Cardinal (Paroaria gularis)_ByHugoArnal (3)","ispublic":1,"isfriend":0,"isfamily":0},{"id":"51047003387","owner":"60200868@N05","secret":"6640c3e39b","server":"65535","farm":66,"title":"Red-capped Cardinal - Paroaria gularis - Cardenal Pantanero - Vichada - Bogota Birding","ispublic":1,"isfriend":0,"isfamily":0},{"id":"51046998817","owner":"60200868@N05","secret":"be0f2e22e7","server":"65535","farm":66,"title":"Red-capped Cardinal - Paroaria gularis - Cardenal Pantanero - Vichada - Bogota Birding2","ispublic":1,"isfriend":0,"isfamily":0},{"id":"51020052273","owner":"182381287@N07","secret":"60a08453da","server":"65535","farm":66,"title":"Cardeal-da-amaz\u00f4nia (Paroaria gularis)","ispublic":1,"isfriend":0,"isfamily":0},{"id":"50979394198","owner":"43935391694@N01","secret":"d023cb60f2","server":"65535","farm":66,"title":"Red Capped Cardinal Leticia Amazonas Colombia","ispublic":1,"isfriend":0,"isfamily":0},{"id":"50905897227","owner":"37493716@N02","secret":"811d9d7236","server":"65535","farm":66,"title":"Paroaria gularis","ispublic":1,"isfriend":0,"isfamily":0},{"id":"50701838813","owner":"187682764@N06","secret":"fc9d70f3a4","server":"65535","farm":66,"title":"Cardinal Rain","ispublic":1,"isfriend":0,"isfamily":0},{"id":"50513734868","owner":"37493716@N02","secret":"d0ef05aa79","server":"65535","farm":66,"title":"Paroaria gularis","ispublic":1,"isfriend":0,"isfamily":0},{"id":"50409585566","owner":"89983334@N00","secret":"34b6dc4858","server":"65535","farm":66,"title":"Red-capped Cardinal","ispublic":1,"isfriend":0,"isfamily":0},{"id":"50376178987","owner":"61021753@N02","secret":"f265db878f","server":"65535","farm":66,"title":"n112_w1150","ispublic":1,"isfriend":0,"isfamily":0},{"id":"50344761438","owner":"187682764@N06","secret":"bc15617ba8","server":"65535","farm":66,"title":"Amazonian Rains","ispublic":1,"isfriend":0,"isfamily":0},{"id":"50250578037","owner":"12639178@N07","secret":"a289ba99e9","server":"65535","farm":66,"title":"Juvenile Schwarzkehltangare","ispublic":1,"isfriend":0,"isfamily":0},{"id":"50200106052","owner":"146922391@N04","secret":"3a6d12219f","server":"65535","farm":66,"title":"Cardenal pantanero \/ paroaria gularis \/ Red-capped Cardinal","ispublic":1,"isfriend":0,"isfamily":0},{"id":"50165063893","owner":"124523841@N04","secret":"3007c14fa9","server":"65535","farm":66,"title":"Red-capped cardinal (Paroaria gularis)","ispublic":1,"isfriend":0,"isfamily":0},{"id":"49916138241","owner":"55968524@N04","secret":"162fd315c4","server":"65535","farm":66,"title":"IMG_1452 - Red-capped Cardinal - Paroaria gularis.jpg","ispublic":1,"isfriend":0,"isfamily":0},{"id":"49884026463","owner":"128066722@N08","secret":"c7bb5f7f9f","server":"65535","farm":66,"title":"Cardeal-da-amaz\u00f4nia (paroaria gularis) ou galo-de-campina-da-amaz\u00f4nia ou tangar\u00e1_Monte Dourado-Par\u00e1-PA","ispublic":1,"isfriend":0,"isfamily":0},{"id":"49471178896","owner":"132638863@N04","secret":"921b28af73","server":"65535","farm":66,"title":"Red-capped Cardinal \/ Paroare rougecap","ispublic":1,"isfriend":0,"isfamily":0},{"id":"49449342437","owner":"108527485@N06","secret":"02f91acf21","server":"65535","farm":66,"title":"Paroaria gularis - Paroare rougecap","ispublic":1,"isfriend":0,"isfamily":0},{"id":"49405648083","owner":"128066722@N08","secret":"5cc5331baa","server":"65535","farm":66,"title":"Cardeal-da-amaz\u00f4nia (paroaria gularis)_Monte Dourado-Par\u00e1-PA","ispublic":1,"isfriend":0,"isfamily":0},{"id":"49293822046","owner":"130641506@N04","secret":"6f25704a1a","server":"65535","farm":66,"title":"Red-capped Cardinal  -  Paroaria gularis","ispublic":1,"isfriend":0,"isfamily":0},{"id":"49230013768","owner":"126268391@N03","secret":"14f22dcfa2","server":"65535","farm":66,"title":"Paroaria gularis_Cardenal Pantanero_YarI_ASPP@CPR_ALS","ispublic":1,"isfriend":0,"isfamily":0},{"id":"49208189123","owner":"12264467@N00","secret":"d5d15df56b","server":"65535","farm":66,"title":"Red-capped Cardinals bathing in a Pantanal Puddle, Brazil.","ispublic":1,"isfriend":0,"isfamily":0},{"id":"49208188243","owner":"12264467@N00","secret":"9fb440531f","server":"65535","farm":66,"title":"Red-capped Cardinals bathing in a Pantanal Puddle, Brazil.","ispublic":1,"isfriend":0,"isfamily":0},{"id":"49208671736","owner":"12264467@N00","secret":"5b3f98a6e9","server":"65535","farm":66,"title":"Red-capped Cardinals bathing in a Pantanal Puddle, Brazil.","ispublic":1,"isfriend":0,"isfamily":0},{"id":"49208186123","owner":"12264467@N00","secret":"0afe7c3da2","server":"65535","farm":66,"title":"Red-capped Cardinals bathing in a Pantanal Puddle, Brazil.","ispublic":1,"isfriend":0,"isfamily":0},{"id":"49208885892","owner":"12264467@N00","secret":"20385b93a0","server":"65535","farm":66,"title":"Red-capped Cardinals bathing in a Pantanal Puddle, Brazil.","ispublic":1,"isfriend":0,"isfamily":0},{"id":"49164768911","owner":"45505361@N08","secret":"6d03b525d5","server":"65535","farm":66,"title":"Paroaria gularis","ispublic":1,"isfriend":0,"isfamily":0},{"id":"49141144153","owner":"12264467@N00","secret":"3a9abac02b","server":"65535","farm":66,"title":"Red-capped Cardinals - northern Pantanal region of Brazil.","ispublic":1,"isfriend":0,"isfamily":0},{"id":"49141638776","owner":"12264467@N00","secret":"4163d7448a","server":"65535","farm":66,"title":"Red-capped Cardinals - northern Pantanal region of Brazil.","ispublic":1,"isfriend":0,"isfamily":0},{"id":"49141142998","owner":"12264467@N00","secret":"ba35e30239","server":"65535","farm":66,"title":"Red-capped Cardinals - northern Pantanal region of Brazil.","ispublic":1,"isfriend":0,"isfamily":0},{"id":"49141142163","owner":"12264467@N00","secret":"9e47701fa6","server":"65535","farm":66,"title":"Red-capped Cardinals - northern Pantanal region of Brazil.","ispublic":1,"isfriend":0,"isfamily":0},{"id":"48979350231","owner":"7389964@N02","secret":"f588212be5","server":"65535","farm":66,"title":"OUT_07_2019_Lodge_5D_700_M - Cardeal-da-amaz\u00f4nia (Paroaria gularis)","ispublic":1,"isfriend":0,"isfamily":0},{"id":"48925439541","owner":"32485770@N02","secret":"9d93502f6c","server":"65535","farm":66,"title":"Red-capped Cardinal  (paroaria gularis)","ispublic":1,"isfriend":0,"isfamily":0},{"id":"48701383526","owner":"54249623@N08","secret":"8eef13cca1","server":"65535","farm":66,"title":"Cardenal Enmascarado, Masked Cardinal (Paroaria gularis nigrogenis) (Paroaria nigrogenis)","ispublic":1,"isfriend":0,"isfamily":0},{"id":"48662911021","owner":"167323674@N05","secret":"b6c7b1ab34","server":"65535","farm":66,"title":"Cardeal da Amaz\u00f4nia -Paroaria gularis-Red-capped Cardinal","ispublic":1,"isfriend":0,"isfamily":0},{"id":"48662547418","owner":"167323674@N05","secret":"39cd465088","server":"65535","farm":66,"title":"Cardeal da Amaz\u00f4nia-Paroaria gularis-Red-capped Cardinal","ispublic":1,"isfriend":0,"isfamily":0},{"id":"48662891406","owner":"167323674@N05","secret":"aa3fb54936","server":"65535","farm":66,"title":"Cardeal da Amaz\u00f4nia -Paroaria gularis-Red-capped Cardinal","ispublic":1,"isfriend":0,"isfamily":0},{"id":"48427590177","owner":"98169970@N00","secret":"3290730848","server":"65535","farm":66,"title":"red-capped cardinal (paroaria gularis)","ispublic":1,"isfriend":0,"isfamily":0},{"id":"48427451971","owner":"98169970@N00","secret":"eaffeeca97","server":"65535","farm":66,"title":"red-capped cardinal (paroaria gularis)","ispublic":1,"isfriend":0,"isfamily":0},{"id":"48427588482","owner":"98169970@N00","secret":"6d925cea63","server":"65535","farm":66,"title":"red-capped cardinal (paroaria gularis)","ispublic":1,"isfriend":0,"isfamily":0},{"id":"48427450376","owner":"98169970@N00","secret":"2ae6ff25d6","server":"65535","farm":66,"title":"red-capped cardinal (paroaria gularis)","ispublic":1,"isfriend":0,"isfamily":0},{"id":"48246019431","owner":"141506644@N06","secret":"307c79b715","server":"65535","farm":66,"title":"Cardenal pantanero, Masked Cardinal, Paroaria nigrogenis, Paroaria gularis","ispublic":1,"isfriend":0,"isfamily":0},{"id":"48242325187","owner":"167323674@N05","secret":"025de74b1a","server":"65535","farm":66,"title":"Cardeal da Amaz\u00f4nia   Paroaria gularis   Red-capped Cardinal","ispublic":1,"isfriend":0,"isfamily":0},{"id":"48242204272","owner":"167323674@N05","secret":"88c1be6a2c","server":"65535","farm":66,"title":"Cardeal da Amaz\u00f4nia - Paroaria gularis - Red-capped Cardinal","ispublic":1,"isfriend":0,"isfamily":0},{"id":"48106234668","owner":"95747238@N07","secret":"b16031414d","server":"65535","farm":66,"title":"Paroaria gularis","ispublic":1,"isfriend":0,"isfamily":0},{"id":"48044733876","owner":"33820263@N07","secret":"112682024b","server":"65535","farm":66,"title":"Red-capped Cardinal","ispublic":1,"isfriend":0,"isfamily":0},{"id":"48044733636","owner":"33820263@N07","secret":"ee60992678","server":"65535","farm":66,"title":"Red-capped Cardinal","ispublic":1,"isfriend":0,"isfamily":0},{"id":"47510960981","owner":"169699085@N05","secret":"971c35792d","server":"7802","farm":8,"title":"Aves-SaniLodge-12","ispublic":1,"isfriend":0,"isfamily":0},{"id":"32559892427","owner":"11014423@N07","secret":"8fd618fbc5","server":"7911","farm":8,"title":"Red-capped cardinal","ispublic":1,"isfriend":0,"isfamily":0},{"id":"47352950671","owner":"146006711@N02","secret":"120164fb8f","server":"7820","farm":8,"title":"Cardenal de cabeza roja \/Red-capped Cardinal\/ Paroaria gularis","ispublic":1,"isfriend":0,"isfamily":0},{"id":"47280080702","owner":"78145652@N02","secret":"c1132bca0e","server":"7800","farm":8,"title":"Red-capped Cardinal - Paroaria gularis","ispublic":1,"isfriend":0,"isfamily":0},{"id":"47254788221","owner":"60681888@N06","secret":"e547c216e9","server":"7864","farm":8,"title":"Red -Capped Cardinal - Paroaria gularis nigrogenis","ispublic":1,"isfriend":0,"isfamily":0},{"id":"46851256902","owner":"163686939@N02","secret":"59c0b9af3f","server":"4905","farm":5,"title":"paroaria-gularis-1920x1080-south-america-red-capped-cardinal-bird-1307_26471507947_o","ispublic":1,"isfriend":0,"isfamily":0},{"id":"39737025713","owner":"169173705@N07","secret":"7f97b112e3","server":"7923","farm":8,"title":"\u7d05\u9802\u7d05\u81d8\u5634\u96c0 or \u7d05\u9802\u8721\u5634\u9d50    \"Paroaria gularis\"  \"Red-capped Cardinal\"","ispublic":1,"isfriend":0,"isfamily":0},{"id":"46609263971","owner":"27756038@N00","secret":"87b01e8d4a","server":"4808","farm":5,"title":"2019.0105 \u5de6\u71df \u7d05\u9802\u7d05\u81d8\u5634\u96c0 (Paroaria gularis#Red-capped Cardinal)","ispublic":1,"isfriend":0,"isfamily":0},{"id":"39644055953","owner":"27756038@N00","secret":"300cd3c4d1","server":"4892","farm":5,"title":"2019.0105 \u5de6\u71df \u7d05\u9802\u7d05\u81d8\u5634\u96c0 (Paroaria gularis#Red-capped Cardinal)","ispublic":1,"isfriend":0,"isfamily":0},{"id":"45593042375","owner":"45528818@N07","secret":"9d08eda876","server":"7851","farm":8,"title":"DSC_1561 Red-capped cardinal","ispublic":1,"isfriend":0,"isfamily":0},{"id":"46158508942","owner":"155928864@N08","secret":"dd5bfc5ce9","server":"65535","farm":66,"title":"Cardenal Gorrirrojo. Paroaria gularis. Red-capped Cardinal, Limoncocha, Ecuador","ispublic":1,"isfriend":0,"isfamily":0},{"id":"44367233555","owner":"146006711@N02","secret":"db0ff51813","server":"1918","farm":2,"title":"Cardenal Capucha Roja - Red-capped Cardinal                   ( Paroaria gularis)","ispublic":1,"isfriend":0,"isfamily":0},{"id":"42598118570","owner":"14113765@N00","secret":"b638c2bfa9","server":"1899","farm":2,"title":"Red-capped Cardinal","ispublic":1,"isfriend":0,"isfamily":0},{"id":"29469817707","owner":"14113765@N00","secret":"8a92bfe1a5","server":"1894","farm":2,"title":"Red-capped Cardinal","ispublic":1,"isfriend":0,"isfamily":0},{"id":"44306211262","owner":"14888671@N02","secret":"2a27b55f75","server":"1850","farm":2,"title":"Red-capped Cardinal","ispublic":1,"isfriend":0,"isfamily":0},{"id":"42381027490","owner":"160265539@N02","secret":"92e46c0eba","server":"1895","farm":2,"title":"Paroaria gularis 0586","ispublic":1,"isfriend":0,"isfamily":0},{"id":"44113159382","owner":"46689459@N02","secret":"204276c482","server":"1839","farm":2,"title":"Cardenal de Gorro Rojo","ispublic":1,"isfriend":0,"isfamily":0},{"id":"41706745440","owner":"29438896@N04","secret":"3ae63f1d24","server":"1785","farm":2,"title":"Paroaria gularis ( Cadeal da Amazonia ) A I Alta Floresta Jun\/2018","ispublic":1,"isfriend":0,"isfamily":0},{"id":"43305932751","owner":"156459616@N07","secret":"c0132a54e2","server":"926","farm":1,"title":"Red-Capped Cardinal Paroaria Gularis","ispublic":1,"isfriend":0,"isfamily":0},{"id":"42713484402","owner":"120741004@N04","secret":"ff90f7d17e","server":"1722","farm":2,"title":"Paroaria gularis y Turdus ignobilis ba\u00f1o","ispublic":1,"isfriend":0,"isfamily":0},{"id":"40822369910","owner":"131377598@N05","secret":"9fc959b06d","server":"1749","farm":2,"title":"Red-Capped Cardinal (Paroaria gularis)","ispublic":1,"isfriend":0,"isfamily":0}]},"stat":"ok"}