{"photos":{"page":1,"pages":27,"perpage":100,"total":2679,"photo":[{"id":"52683142840","owner":"141256983@N04","secret":"79ec1be93a","server":"65535","farm":66,"title":"Red-eyed Vireo (Vireo olivaceus)","ispublic":1,"isfriend":0,"isfamily":0},{"id":"52665268241","owner":"136180232@N08","secret":"a6b0e46dc6","server":"65535","farm":66,"title":"Red-eyed Vireo (Vireo olivaceus) JTE_1729","ispublic":1,"isfriend":0,"isfamily":0},{"id":"52652994412","owner":"29494346@N03","secret":"09fbf6a9d6","server":"65535","farm":66,"title":"Red-eyed Vireo (Vireo olivaceus)","ispublic":1,"isfriend":0,"isfamily":0},{"id":"52644798791","owner":"8013969@N03","secret":"32a1684efb","server":"65535","farm":66,"title":"Vireo olivaceus DFL lanc22-1","ispublic":1,"isfriend":0,"isfamily":0},{"id":"52644797711","owner":"8013969@N03","secret":"6752a046c0","server":"65535","farm":66,"title":"Vireo olivaceus DFL lanc22-2","ispublic":1,"isfriend":0,"isfamily":0},{"id":"52645052279","owner":"8013969@N03","secret":"70b10f83af","server":"65535","farm":66,"title":"Vireo olivaceus DFL lanc22-3","ispublic":1,"isfriend":0,"isfamily":0},{"id":"52644795916","owner":"8013969@N03","secret":"8f84de09dc","server":"65535","farm":66,"title":"Vireo olivaceus DFL lanc22-4","ispublic":1,"isfriend":0,"isfamily":0},{"id":"52645264103","owner":"8013969@N03","secret":"cbef132a16","server":"65535","farm":66,"title":"Vireo olivaceus DFL lanc22-5","ispublic":1,"isfriend":0,"isfamily":0},{"id":"52580694485","owner":"153973412@N04","secret":"f95af656a1","server":"65535","farm":66,"title":"Red-eyed Vireo-Vireo olivaceus, Iowa City, IA","ispublic":1,"isfriend":0,"isfamily":0},{"id":"52574146767","owner":"189697862@N03","secret":"fb6876082d","server":"65535","farm":66,"title":"Vir\u00e9o \u00e0 oeil rouge - Vireo olivaceus - Red-eyed Vireo \u00e0 Cost ar reun.","ispublic":1,"isfriend":0,"isfamily":0},{"id":"52532993049","owner":"33610210@N05","secret":"d0af0315d7","server":"65535","farm":66,"title":"Red-eyed Vireo, Vireo olivaceus","ispublic":1,"isfriend":0,"isfamily":0},{"id":"52533184825","owner":"33610210@N05","secret":"0d0e86934b","server":"65535","farm":66,"title":"Red-eyed Vireo, Vireo olivaceus","ispublic":1,"isfriend":0,"isfamily":0},{"id":"52530901349","owner":"23020855@N03","secret":"f7e1f4bde8","server":"65535","farm":66,"title":"Red-eyed Vireo - Catbird Slough, BC","ispublic":1,"isfriend":0,"isfamily":0},{"id":"52519689563","owner":"39445433@N02","secret":"788e662bef","server":"65535","farm":66,"title":"Red-Eyed Vireo","ispublic":1,"isfriend":0,"isfamily":0},{"id":"52495256536","owner":"64557331@N04","secret":"45dd825afd","server":"65535","farm":66,"title":"Red-Eyed Vireo  - (Vireo olivaceus)_05042021","ispublic":1,"isfriend":0,"isfamily":0},{"id":"52495252591","owner":"64557331@N04","secret":"78729a2c6d","server":"65535","farm":66,"title":"Red-Eyed Vireo - (Vireo olivaceus)_08312022_2","ispublic":1,"isfriend":0,"isfamily":0},{"id":"52495252556","owner":"64557331@N04","secret":"c3751b1517","server":"65535","farm":66,"title":"Red-Eyed Vireo - (Vireo olivaceus)_08312022","ispublic":1,"isfriend":0,"isfamily":0},{"id":"52495512920","owner":"86666094@N00","secret":"84a96bd02f","server":"65535","farm":66,"title":"Red-eyed Vireo","ispublic":1,"isfriend":0,"isfamily":0},{"id":"52491820425","owner":"39445433@N02","secret":"299dddc73b","server":"65535","farm":66,"title":"Red-Eyed Vireo","ispublic":1,"isfriend":0,"isfamily":0},{"id":"52490868917","owner":"39445433@N02","secret":"4a4cd567c7","server":"65535","farm":66,"title":"Red-Eyed Vireo","ispublic":1,"isfriend":0,"isfamily":0},{"id":"52491633614","owner":"39445433@N02","secret":"d23ff6a711","server":"65535","farm":66,"title":"Red-Eyed Vireo","ispublic":1,"isfriend":0,"isfamily":0},{"id":"52487478486","owner":"39445433@N02","secret":"5607ede040","server":"65535","farm":66,"title":"Red-Eyed Vireo","ispublic":1,"isfriend":0,"isfamily":0},{"id":"52487947905","owner":"39445433@N02","secret":"1f5203c7d5","server":"65535","farm":66,"title":"Red-Eyed Vireo","ispublic":1,"isfriend":0,"isfamily":0},{"id":"52485532726","owner":"48639952@N04","secret":"e2d6359022","server":"65535","farm":66,"title":"Vir\u00e9o aux yeux rouges - Vireo olivaceus - Red-eyed Vireo","ispublic":1,"isfriend":0,"isfamily":0},{"id":"52466720716","owner":"37493716@N02","secret":"4954b29852","server":"65535","farm":66,"title":"Vireo olivaceus - Red Eyed Vireo - San Andres Isla - Octubre 5 2022 - Juan Carlos Luna (1)","ispublic":1,"isfriend":0,"isfamily":0},{"id":"52464911835","owner":"18217058@N04","secret":"ebe3ae8fd7","server":"65535","farm":66,"title":"Red-eyed Vireo \/ Gr\u00e6ningi (Vireo olivaceus)","ispublic":1,"isfriend":0,"isfamily":0},{"id":"52464911810","owner":"18217058@N04","secret":"ff41f6e9a5","server":"65535","farm":66,"title":"Red-eyed Vireo \/ Gr\u00e6ningi (Vireo olivaceus)","ispublic":1,"isfriend":0,"isfamily":0},{"id":"52463946392","owner":"18217058@N04","secret":"6e2c9de2ab","server":"65535","farm":66,"title":"Red-eyed Vireo \/ Gr\u00e6ningi (Vireo olivaceus)","ispublic":1,"isfriend":0,"isfamily":0},{"id":"52464446956","owner":"18217058@N04","secret":"5f1d2493fb","server":"65535","farm":66,"title":"Red-eyed Vireo \/ Gr\u00e6ningi (Vireo olivaceus)","ispublic":1,"isfriend":0,"isfamily":0},{"id":"52464996243","owner":"18217058@N04","secret":"7365618185","server":"65535","farm":66,"title":"Red-eyed Vireo \/ Gr\u00e6ningi (Vireo olivaceus)","ispublic":1,"isfriend":0,"isfamily":0},{"id":"52464446886","owner":"18217058@N04","secret":"7ae911a2f7","server":"65535","farm":66,"title":"Red-eyed Vireo \/ Gr\u00e6ningi (Vireo olivaceus)","ispublic":1,"isfriend":0,"isfamily":0},{"id":"52464996188","owner":"18217058@N04","secret":"3e5ebbb436","server":"65535","farm":66,"title":"Red-eyed Vireo \/ Gr\u00e6ningi (Vireo olivaceus)","ispublic":1,"isfriend":0,"isfamily":0},{"id":"52463936997","owner":"18217058@N04","secret":"4d998032c3","server":"65535","farm":66,"title":"Red-eyed Vireo \/ Gr\u00e6ningi (Vireo olivaceus)","ispublic":1,"isfriend":0,"isfamily":0},{"id":"52464902140","owner":"18217058@N04","secret":"5d84854d42","server":"65535","farm":66,"title":"Red-eyed Vireo \/ Gr\u00e6ningi (Vireo olivaceus)","ispublic":1,"isfriend":0,"isfamily":0},{"id":"52464902130","owner":"18217058@N04","secret":"d9b62224f4","server":"65535","farm":66,"title":"Red-eyed Vireo \/ Gr\u00e6ningi (Vireo olivaceus)","ispublic":1,"isfriend":0,"isfamily":0},{"id":"52463930707","owner":"18217058@N04","secret":"0d908c2f6f","server":"65535","farm":66,"title":"Red-eyed Vireo \/ Gr\u00e6ningi (Vireo olivaceus)","ispublic":1,"isfriend":0,"isfamily":0},{"id":"52464714124","owner":"18217058@N04","secret":"2193fa236c","server":"65535","farm":66,"title":"Red-eyed Vireo \/ Gr\u00e6ningi (Vireo olivaceus)","ispublic":1,"isfriend":0,"isfamily":0},{"id":"52464714084","owner":"18217058@N04","secret":"06651089d5","server":"65535","farm":66,"title":"Red-eyed Vireo \/ Gr\u00e6ningi (Vireo olivaceus)","ispublic":1,"isfriend":0,"isfamily":0},{"id":"52462758763","owner":"18217058@N04","secret":"92c4a9432b","server":"65535","farm":66,"title":"Red-eyed Vireo \/ Gr\u00e6ningi (Vireo olivaceus)","ispublic":1,"isfriend":0,"isfamily":0},{"id":"52462492609","owner":"18217058@N04","secret":"5ca24649e9","server":"65535","farm":66,"title":"Red-eyed Vireo \/ Gr\u00e6ningi (Vireo olivaceus)","ispublic":1,"isfriend":0,"isfamily":0},{"id":"52461697442","owner":"18217058@N04","secret":"d98f7a6865","server":"65535","farm":66,"title":"Red-eyed Vireo \/ Gr\u00e6ningi (Vireo olivaceus)","ispublic":1,"isfriend":0,"isfamily":0},{"id":"52462212376","owner":"18217058@N04","secret":"2828a534a5","server":"65535","farm":66,"title":"Red-eyed Vireo \/ Gr\u00e6ningi (Vireo olivaceus)","ispublic":1,"isfriend":0,"isfamily":0},{"id":"52461693022","owner":"18217058@N04","secret":"bdd576b9db","server":"65535","farm":66,"title":"Red-eyed Vireo \/ Gr\u00e6ningi (Vireo olivaceus)","ispublic":1,"isfriend":0,"isfamily":0},{"id":"52462207821","owner":"18217058@N04","secret":"110e503543","server":"65535","farm":66,"title":"Red-eyed Vireo \/ Gr\u00e6ningi (Vireo olivaceus)","ispublic":1,"isfriend":0,"isfamily":0},{"id":"52462742863","owner":"18217058@N04","secret":"7042d52eb8","server":"65535","farm":66,"title":"Red-eyed Vireo \/ Gr\u00e6ningi (Vireo olivaceus)","ispublic":1,"isfriend":0,"isfamily":0},{"id":"52461995355","owner":"99208129@N08","secret":"8c8393ff58","server":"65535","farm":66,"title":"Vireo olivaceus \/ Red-eyed Vireo","ispublic":1,"isfriend":0,"isfamily":0},{"id":"52453133968","owner":"48639952@N04","secret":"e542936477","server":"65535","farm":66,"title":"Vir\u00e9o aux yeux rouges - Vireo olivaceus - Red-eyed Vireo","ispublic":1,"isfriend":0,"isfamily":0},{"id":"52452093292","owner":"48639952@N04","secret":"10a2b200d0","server":"65535","farm":66,"title":"Vir\u00e9o aux yeux rouges - Vireo olivaceus - Red-eyed Vireo","ispublic":1,"isfriend":0,"isfamily":0},{"id":"52445360077","owner":"96252811@N02","secret":"811b125a52","server":"65535","farm":66,"title":"Vir\u00e9o aux yeux rouges - Vireo olivaceus - Red-eyed Vireo","ispublic":1,"isfriend":0,"isfamily":0},{"id":"52444169998","owner":"96252811@N02","secret":"6aea3d1808","server":"65535","farm":66,"title":"Vir\u00e9o aux yeux rouges - Vireo olivaceus - Red-eyed Vireo","ispublic":1,"isfriend":0,"isfamily":0},{"id":"52393904051","owner":"65695019@N07","secret":"ef7dbdf141","server":"65535","farm":66,"title":"Red-eyed Vireo (Vireo olivaceus) on fruits of Melastomataceae (Miconia longifolia) ...","ispublic":1,"isfriend":0,"isfamily":0},{"id":"52393873931","owner":"65695019@N07","secret":"b2a4e35ea7","server":"65535","farm":66,"title":"Red-eyed Vireo (Vireo olivaceus) holding a small red fruit ...","ispublic":1,"isfriend":0,"isfamily":0},{"id":"52427926513","owner":"39177293@N03","secret":"6624c23211","server":"65535","farm":66,"title":"Red-eyed Vireo","ispublic":1,"isfriend":0,"isfamily":0},{"id":"52426649615","owner":"97599611@N04","secret":"9f59ee8a12","server":"65535","farm":66,"title":"0P7A8500   Red-eyed Vireo, Canada","ispublic":1,"isfriend":0,"isfamily":0},{"id":"52423423358","owner":"76288515@N07","secret":"b1432115e3","server":"65535","farm":66,"title":"Red-eyed Vireo Vireo olivaceus","ispublic":1,"isfriend":0,"isfamily":0},{"id":"52422397182","owner":"76288515@N07","secret":"fec7e124df","server":"65535","farm":66,"title":"Red-eyed Vireo Vireo olivaceus","ispublic":1,"isfriend":0,"isfamily":0},{"id":"52422397147","owner":"76288515@N07","secret":"7fd8611c70","server":"65535","farm":66,"title":"Red-eyed Vireo Vireo olivaceus","ispublic":1,"isfriend":0,"isfamily":0},{"id":"52422904811","owner":"76288515@N07","secret":"6e6e89bce9","server":"65535","farm":66,"title":"Red-eyed Vireo Vireo olivaceus","ispublic":1,"isfriend":0,"isfamily":0},{"id":"52422396957","owner":"76288515@N07","secret":"ebd96626c4","server":"65535","farm":66,"title":"Red-eyed Vireo Vireo olivaceus","ispublic":1,"isfriend":0,"isfamily":0},{"id":"52423359470","owner":"76288515@N07","secret":"6f58261ef5","server":"65535","farm":66,"title":"Red-eyed Vireo Vireo olivaceus","ispublic":1,"isfriend":0,"isfamily":0},{"id":"52423359380","owner":"76288515@N07","secret":"1261ff947f","server":"65535","farm":66,"title":"Red-eyed Vireo Vireo olivaceus","ispublic":1,"isfriend":0,"isfamily":0},{"id":"52423359335","owner":"76288515@N07","secret":"a76612782d","server":"65535","farm":66,"title":"Red-eyed Vireo Vireo olivaceus","ispublic":1,"isfriend":0,"isfamily":0},{"id":"52422396807","owner":"76288515@N07","secret":"e7fc605bcf","server":"65535","farm":66,"title":"Red-eyed Vireo Vireo olivaceus","ispublic":1,"isfriend":0,"isfamily":0},{"id":"52422904571","owner":"76288515@N07","secret":"ff66c0b5d5","server":"65535","farm":66,"title":"Red-eyed Vireo Vireo olivaceus","ispublic":1,"isfriend":0,"isfamily":0},{"id":"52420428594","owner":"71418112@N00","secret":"dfc8aa1381","server":"65535","farm":66,"title":"Red-eyed vireo","ispublic":1,"isfriend":0,"isfamily":0},{"id":"52419704491","owner":"193264646@N06","secret":"59547f65ba","server":"65535","farm":66,"title":"Red-eyed Vireo","ispublic":1,"isfriend":0,"isfamily":0},{"id":"52419187727","owner":"193264646@N06","secret":"fba1437ddd","server":"65535","farm":66,"title":"Red-eyed Vireo","ispublic":1,"isfriend":0,"isfamily":0},{"id":"52419186102","owner":"193264646@N06","secret":"e273178788","server":"65535","farm":66,"title":"Red-eyed Vireo","ispublic":1,"isfriend":0,"isfamily":0},{"id":"52416618848","owner":"139237357@N06","secret":"53ba37a913","server":"65535","farm":66,"title":"Red-eyed Vireo","ispublic":1,"isfriend":0,"isfamily":0},{"id":"52410823617","owner":"39511843@N07","secret":"3a9b2acbd3","server":"65535","farm":66,"title":"Red-eyed Vireo (Vireo olivaceus)-","ispublic":1,"isfriend":0,"isfamily":0},{"id":"52411550500","owner":"38514062@N03","secret":"ab69e3a18a","server":"65535","farm":66,"title":"Red-eyed Vireo (Vireo olivaceus)","ispublic":1,"isfriend":0,"isfamily":0},{"id":"52409638774","owner":"29170368@N03","secret":"79ae50d8f0","server":"65535","farm":66,"title":"Red-eyed Vireo","ispublic":1,"isfriend":0,"isfamily":0},{"id":"52409638579","owner":"29170368@N03","secret":"eb990ff69a","server":"65535","farm":66,"title":"Tropical Gnatcatcher","ispublic":1,"isfriend":0,"isfamily":0},{"id":"52395417001","owner":"49563725@N06","secret":"5ee331360f","server":"65535","farm":66,"title":"Red-eyed Vireo","ispublic":1,"isfriend":0,"isfamily":0},{"id":"52381991655","owner":"97599611@N04","secret":"ab10a0fe7e","server":"65535","farm":66,"title":"0P7A8505   Red-eyed Vireo, Canada","ispublic":1,"isfriend":0,"isfamily":0},{"id":"52373919978","owner":"45340210@N05","secret":"47d7cb2af9","server":"65535","farm":66,"title":"Red-eyed Vireo 5 9_20_22","ispublic":1,"isfriend":0,"isfamily":0},{"id":"52369071848","owner":"92361032@N05","secret":"87aec7a436","server":"65535","farm":66,"title":"Red-eyed Vireo \/ Vir\u00e9o aux yeux rouges ( Richard )","ispublic":1,"isfriend":0,"isfamily":0},{"id":"52360657760","owner":"61241315@N00","secret":"953471686f","server":"65535","farm":66,"title":"Yellow-throated Vireo_Red-eyed Vireo_N7092","ispublic":1,"isfriend":0,"isfamily":0},{"id":"52347836943","owner":"85391626@N07","secret":"b18a217eac","server":"65535","farm":66,"title":"Red-eyed Vireo","ispublic":1,"isfriend":0,"isfamily":0},{"id":"52340181995","owner":"49114357@N08","secret":"4708b70165","server":"65535","farm":66,"title":"Red-eyed Vireo","ispublic":1,"isfriend":0,"isfamily":0},{"id":"52346563618","owner":"38514062@N03","secret":"c625439c04","server":"65535","farm":66,"title":"Red-eyed Vireo (Vireo olivaceus)","ispublic":1,"isfriend":0,"isfamily":0},{"id":"52339392537","owner":"139237357@N06","secret":"8d7ac4b1de","server":"65535","farm":66,"title":"Red-eyed Vireo","ispublic":1,"isfriend":0,"isfamily":0},{"id":"52336042066","owner":"56902740@N06","secret":"89e505054b","server":"65535","farm":66,"title":"Red-eyed Vireo","ispublic":1,"isfriend":0,"isfamily":0},{"id":"52335974961","owner":"135315828@N06","secret":"7a59130ea8","server":"65535","farm":66,"title":"red-eyed vireo","ispublic":1,"isfriend":0,"isfamily":0},{"id":"52335970321","owner":"135315828@N06","secret":"74b41358a4","server":"65535","farm":66,"title":"red-eyed vireo","ispublic":1,"isfriend":0,"isfamily":0},{"id":"52333918302","owner":"74113421@N03","secret":"c6bbdcb4fb","server":"65535","farm":66,"title":"Red-eyed Vireo (Vireo olivaceus)","ispublic":1,"isfriend":0,"isfamily":0},{"id":"52333754472","owner":"190122705@N03","secret":"7348893ce8","server":"65535","farm":66,"title":"Red-eyed Vireo","ispublic":1,"isfriend":0,"isfamily":0},{"id":"52332358037","owner":"129803374@N05","secret":"0047e66ff0","server":"65535","farm":66,"title":"Red-eyed Vireo (Vireo olivaceus)","ispublic":1,"isfriend":0,"isfamily":0},{"id":"52309312475","owner":"7261670@N03","secret":"f531925a6c","server":"65535","farm":66,"title":"Red-eyed Vireo","ispublic":1,"isfriend":0,"isfamily":0},{"id":"52302430103","owner":"71418112@N00","secret":"e1121a26af","server":"65535","farm":66,"title":"Red-eyed vireo.","ispublic":1,"isfriend":0,"isfamily":0},{"id":"52302406526","owner":"48014585@N00","secret":"983804030c","server":"65535","farm":66,"title":"Red-eyed Vireo","ispublic":1,"isfriend":0,"isfamily":0},{"id":"52302392451","owner":"48014585@N00","secret":"92c92a6d6d","server":"65535","farm":66,"title":"Red-eyed Vireo","ispublic":1,"isfriend":0,"isfamily":0},{"id":"52293690122","owner":"162016724@N08","secret":"6d05736e22","server":"65535","farm":66,"title":"Vireo olivaceus - Red-Eyed Vireo","ispublic":1,"isfriend":0,"isfamily":0},{"id":"52268189332","owner":"144980256@N07","secret":"caf24decd2","server":"65535","farm":66,"title":"Red-eyed Vireo (Vireo olivaceus)","ispublic":1,"isfriend":0,"isfamily":0},{"id":"52269145146","owner":"144980256@N07","secret":"6f434d152a","server":"65535","farm":66,"title":"Red-eyed Vireo (Vireo olivaceus)","ispublic":1,"isfriend":0,"isfamily":0},{"id":"52266738490","owner":"128810613@N02","secret":"b545dc8e7d","server":"65535","farm":66,"title":"Red-eyed Vireo - Vireo olivaceus nest","ispublic":1,"isfriend":0,"isfamily":0},{"id":"52223734889","owner":"46367607@N06","secret":"d29a9a2a72","server":"65535","farm":66,"title":"Red-eyed vireo--Vireo olivaceus _D6A2722","ispublic":1,"isfriend":0,"isfamily":0},{"id":"52204509609","owner":"119787485@N07","secret":"1de2c31cbb","server":"65535","farm":66,"title":"Red-eyed Vireo (Vireo olivaceus) - 20220526-01","ispublic":1,"isfriend":0,"isfamily":0},{"id":"52198347026","owner":"184155060@N04","secret":"78f2b1d5ef","server":"65535","farm":66,"title":"18416 Vir\u00e9o aux yeux rouges \/ Vireo olivaceus \/ Red-eyed Vireo","ispublic":1,"isfriend":0,"isfamily":0},{"id":"52198363003","owner":"184155060@N04","secret":"12b992f080","server":"65535","farm":66,"title":"18416 Vir\u00e9o aux yeux rouges \/ Vireo olivaceus \/ Red-eyed Vireo","ispublic":1,"isfriend":0,"isfamily":0}]},"stat":"ok"}