{"photos":{"page":1,"pages":421,"perpage":100,"total":42015,"photo":[{"id":"52790977439","owner":"90886369@N06","secret":"d20c3d6e34","server":"65535","farm":66,"title":"Red-tailed Hawk (Buteo jamaicensis)","ispublic":1,"isfriend":0,"isfamily":0},{"id":"52790920594","owner":"161505078@N03","secret":"6df04c523b","server":"65535","farm":66,"title":"Red-Tailed Hawk (Buteo jamaicensis)","ispublic":1,"isfriend":0,"isfamily":0},{"id":"52785229865","owner":"62043870@N05","secret":"16ee45fe4d","server":"65535","farm":66,"title":"Red-tailed Hawk, Buteo jamaicensis","ispublic":1,"isfriend":0,"isfamily":0},{"id":"52782800195","owner":"62043870@N05","secret":"499647cedd","server":"65535","farm":66,"title":"Red-tailed Hawks, Buteo jamaicensis","ispublic":1,"isfriend":0,"isfamily":0},{"id":"52781838781","owner":"52356199@N00","secret":"e9305b6d90","server":"65535","farm":66,"title":"Buse \u00e0 queue rousse - Buteo jamaicensis - Red-tailed hawk DSC_8438 copie","ispublic":1,"isfriend":0,"isfamily":0},{"id":"52781838751","owner":"52356199@N00","secret":"e01168ab84","server":"65535","farm":66,"title":"Buse \u00e0 queue rousse - Buteo jamaicensis - Red-tailed hawk DSC_8452 copie","ispublic":1,"isfriend":0,"isfamily":0},{"id":"52782243290","owner":"52356199@N00","secret":"58d9935eef","server":"65535","farm":66,"title":"Buse \u00e0 queue rousse - Buteo jamaicensis - Red-tailed hawk DSC_8459 copie","ispublic":1,"isfriend":0,"isfamily":0},{"id":"52782082019","owner":"52356199@N00","secret":"85733d3eb7","server":"65535","farm":66,"title":"Buse \u00e0 queue rousse - Buteo jamaicensis - Red-tailed hawk DSC_8464 copie","ispublic":1,"isfriend":0,"isfamily":0},{"id":"52781169883","owner":"62043870@N05","secret":"2bfb53418c","server":"65535","farm":66,"title":"Red-tailed Hawk, Buteo jamaicensis","ispublic":1,"isfriend":0,"isfamily":0},{"id":"52781088560","owner":"77671375@N04","secret":"a15ed19519","server":"65535","farm":66,"title":"Red-tailed Hawk","ispublic":1,"isfriend":0,"isfamily":0},{"id":"52780674711","owner":"77671375@N04","secret":"0d9eaeebe9","server":"65535","farm":66,"title":"Red-tailed Hawk","ispublic":1,"isfriend":0,"isfamily":0},{"id":"52780674651","owner":"77671375@N04","secret":"2dd06395d6","server":"65535","farm":66,"title":"Red-tailed Hawk","ispublic":1,"isfriend":0,"isfamily":0},{"id":"52780737628","owner":"75473329@N00","secret":"0aaa5405fc","server":"65535","farm":66,"title":"Red-tailed hawk (Buteo jamaicensis)","ispublic":1,"isfriend":0,"isfamily":0},{"id":"52780466345","owner":"188156748@N07","secret":"6fa55ee602","server":"65535","farm":66,"title":"Red-tailed Hawk-Buse \u00e0 queue rousse-Buteo jamaicensis 0009 (13)-SharpenAI-Standard copy.jpgS","ispublic":1,"isfriend":0,"isfamily":0},{"id":"52780299134","owner":"188156748@N07","secret":"bf4eda07f8","server":"65535","farm":66,"title":"Red-tailed Hawk-Buse \u00e0 queue rousse-Buteo jamaicensis 0009 (3)-SharpenAI-Standard copy.jpgS","ispublic":1,"isfriend":0,"isfamily":0},{"id":"52780048376","owner":"188156748@N07","secret":"4550b39c79","server":"65535","farm":66,"title":"Red-tailed Hawk-Buse \u00e0 queue rousse-Buteo jamaicensis 0009 (27)-SharpenAI-Standard copy.jpgS","ispublic":1,"isfriend":0,"isfamily":0},{"id":"52779515287","owner":"188156748@N07","secret":"d15ff8299d","server":"65535","farm":66,"title":"Red-tailed Hawk-Buse \u00e0 queue rousse-Buteo jamaicensis 0046 (14)-SharpenAI-Standard copy.jpgS","ispublic":1,"isfriend":0,"isfamily":0},{"id":"52779515282","owner":"188156748@N07","secret":"ec3c3116d7","server":"65535","farm":66,"title":"Red-tailed Hawk-Buse \u00e0 queue rousse-Buteo jamaicensis 0046 (16)-SharpenAI-Standard copy.jpgS","ispublic":1,"isfriend":0,"isfamily":0},{"id":"52780519543","owner":"188156748@N07","secret":"92a556f72f","server":"65535","farm":66,"title":"Red-tailed Hawk-Buse \u00e0 queue rousse-Buteo jamaicensis 0009 (25)-SharpenAI-Standard copy.jpgS","ispublic":1,"isfriend":0,"isfamily":0},{"id":"52778243489","owner":"45340210@N05","secret":"7fedfd8c8d","server":"65535","farm":66,"title":"Red-tail 3_28_23","ispublic":1,"isfriend":0,"isfamily":0},{"id":"52774987313","owner":"22836340@N02","secret":"ec3e1de322","server":"65535","farm":66,"title":"F'","ispublic":1,"isfriend":0,"isfamily":0},{"id":"52773786120","owner":"125173583@N07","secret":"6095abb1b3","server":"65535","farm":66,"title":"Eagle at Conowingo Dam 2023 08h","ispublic":1,"isfriend":0,"isfamily":0},{"id":"52772835827","owner":"125173583@N07","secret":"24a5c395fc","server":"65535","farm":66,"title":"Eagle at Conowingo Dam 2023 08f","ispublic":1,"isfriend":0,"isfamily":0},{"id":"52772793007","owner":"125173583@N07","secret":"576d47928d","server":"65535","farm":66,"title":"Eagle at Conowingo Dam 2023 08i","ispublic":1,"isfriend":0,"isfamily":0},{"id":"52773833878","owner":"37566919@N02","secret":"0b28cdeab4","server":"65535","farm":66,"title":"Red-tailed Hawk","ispublic":1,"isfriend":0,"isfamily":0},{"id":"52772730626","owner":"48232993@N00","secret":"1a2489a41d","server":"65535","farm":66,"title":"juvenile redtail in cottonwood","ispublic":1,"isfriend":0,"isfamily":0},{"id":"52772730341","owner":"48232993@N00","secret":"4c856dc8ec","server":"65535","farm":66,"title":"did this bird just poop a pair of white earbuds?","ispublic":1,"isfriend":0,"isfamily":0},{"id":"52772033507","owner":"75473329@N00","secret":"582a5ca5aa","server":"65535","farm":66,"title":"Red-tailed hawk (Buteo jamaicensis)","ispublic":1,"isfriend":0,"isfamily":0},{"id":"52770712950","owner":"161505078@N03","secret":"672f863123","server":"65535","farm":66,"title":"Red-Tailed Hawk (Buteo jamaicensis)","ispublic":1,"isfriend":0,"isfamily":0},{"id":"52769913140","owner":"10983301@N06","secret":"188656b043","server":"65535","farm":66,"title":"Liberty's Owl Raptor and Reptile Centre","ispublic":1,"isfriend":0,"isfamily":0},{"id":"52768393950","owner":"34238008@N02","secret":"c0cdd4af22","server":"65535","farm":66,"title":"Red-tailed Hawk (Buteo jamaicensis)","ispublic":1,"isfriend":0,"isfamily":0},{"id":"52766738628","owner":"51433704@N06","secret":"0d40f50e79","server":"65535","farm":66,"title":"Red-Tailed Hawk","ispublic":1,"isfriend":0,"isfamily":0},{"id":"52766470245","owner":"161505078@N03","secret":"a3e0885270","server":"65535","farm":66,"title":"Red-Tailed Hawk (Buteo jamaicensis)","ispublic":1,"isfriend":0,"isfamily":0},{"id":"52763531974","owner":"193893638@N04","secret":"f44fde641e","server":"65535","farm":66,"title":"Red-Tailed Hawk","ispublic":1,"isfriend":0,"isfamily":0},{"id":"52763139126","owner":"161505078@N03","secret":"755f97c5e2","server":"65535","farm":66,"title":"Red-Tailed Hawk (Buteo jamaicensis)","ispublic":1,"isfriend":0,"isfamily":0},{"id":"52763496750","owner":"161505078@N03","secret":"90a0868fcb","server":"65535","farm":66,"title":"Red-Tailed Hawk (Buteo jamaicensis)","ispublic":1,"isfriend":0,"isfamily":0},{"id":"52763407405","owner":"161505078@N03","secret":"4c08d67bdb","server":"65535","farm":66,"title":"Red-Tailed Hawk (Buteo jamaicensis)","ispublic":1,"isfriend":0,"isfamily":0},{"id":"52762877341","owner":"161505078@N03","secret":"825f2503fb","server":"65535","farm":66,"title":"Red-Tailed Hawk (Buteo jamaicensis)","ispublic":1,"isfriend":0,"isfamily":0},{"id":"52763272250","owner":"161505078@N03","secret":"0a491584f7","server":"65535","farm":66,"title":"Red-Tailed Hawk (Buteo jamaicensis)","ispublic":1,"isfriend":0,"isfamily":0},{"id":"52763336438","owner":"161505078@N03","secret":"af2f4fe4a8","server":"65535","farm":66,"title":"Red-Tailed Hawk (Buteo jamaicensis)","ispublic":1,"isfriend":0,"isfamily":0},{"id":"52762155829","owner":"125605310@N07","secret":"7c68b375aa","server":"65535","farm":66,"title":"Red-tailed Hawk, Buteo jamaicensis","ispublic":1,"isfriend":0,"isfamily":0},{"id":"52761858911","owner":"62043870@N05","secret":"d6f2c610a2","server":"65535","farm":66,"title":"Red-tailed Hawk, Buteo jamaicensis","ispublic":1,"isfriend":0,"isfamily":0},{"id":"52763138782","owner":"73431753@N00","secret":"466a0ba15a","server":"65535","farm":66,"title":"First Winter Red-tailed hawk","ispublic":1,"isfriend":0,"isfamily":0},{"id":"52761388746","owner":"73431753@N00","secret":"20420a0aa9","server":"65535","farm":66,"title":"First Winter Red-tailed Hawk","ispublic":1,"isfriend":0,"isfamily":0},{"id":"52760306629","owner":"12240837@N08","secret":"7db260e79d","server":"65535","farm":66,"title":"Red-tailed Hawk (buteo jamaicensis)","ispublic":1,"isfriend":0,"isfamily":0},{"id":"52760186391","owner":"188156748@N07","secret":"7f10cffb75","server":"65535","farm":66,"title":"Red-tailed Hawk-Buse \u00e0 queue rousse-Buteo jamaicensis 8381 (4)-SharpenAI-Standard copy.jpgS","ispublic":1,"isfriend":0,"isfamily":0},{"id":"52760434054","owner":"188156748@N07","secret":"be16ca5aa6","server":"65535","farm":66,"title":"Red-tailed Hawk-Buse \u00e0 queue rousse-Buteo jamaicensis 8381 (2)-SharpenAI-Standard copy.jpgS2","ispublic":1,"isfriend":0,"isfamily":0},{"id":"52760434024","owner":"188156748@N07","secret":"21e9a54ac5","server":"65535","farm":66,"title":"Red-tailed Hawk-Buse \u00e0 queue rousse-Buteo jamaicensis 8381 (9)-SharpenAI-Standard copy.jpgS","ispublic":1,"isfriend":0,"isfamily":0},{"id":"52760672618","owner":"188156748@N07","secret":"862a3de503","server":"65535","farm":66,"title":"Red-tailed Hawk-Buse \u00e0 queue rousse-Buteo jamaicensis 8381 (3)-SharpenAI-Standard copy.jpgS","ispublic":1,"isfriend":0,"isfamily":0},{"id":"52760433979","owner":"188156748@N07","secret":"d33fa0becd","server":"65535","farm":66,"title":"Red-tailed Hawk-Buse \u00e0 queue rousse-Buteo jamaicensis 8381 (9)-SharpenAI-Standard copy.jpgCENLGS","ispublic":1,"isfriend":0,"isfamily":0},{"id":"52760433959","owner":"188156748@N07","secret":"b9abe02fd5","server":"65535","farm":66,"title":"Red-tailed Hawk-Buse \u00e0 queue rousse-Buteo jamaicensis 8381 (16)-SharpenAI-Standard copy.jpgS","ispublic":1,"isfriend":0,"isfamily":0},{"id":"52758716869","owner":"145434291@N08","secret":"16e6528f75","server":"65535","farm":66,"title":"Red Tail Hawk Glare 246","ispublic":1,"isfriend":0,"isfamily":0},{"id":"52758874335","owner":"145434291@N08","secret":"026b7a56e1","server":"65535","farm":66,"title":"Red Tail Hawk Staredown","ispublic":1,"isfriend":0,"isfamily":0},{"id":"52757876397","owner":"145434291@N08","secret":"b382bfcbeb","server":"65535","farm":66,"title":"Red Tail Hawk Glare 246","ispublic":1,"isfriend":0,"isfamily":0},{"id":"52758824315","owner":"145434291@N08","secret":"e6ef15276c","server":"65535","farm":66,"title":"Red Tail Hawk Staredown","ispublic":1,"isfriend":0,"isfamily":0},{"id":"52758388096","owner":"169771858@N03","secret":"0280bebdb1","server":"65535","farm":66,"title":"Red-Tailed Hawk #2 - 2019-11-02","ispublic":1,"isfriend":0,"isfamily":0},{"id":"52757570789","owner":"8654297@N06","secret":"2f3638ebb0","server":"65535","farm":66,"title":"Too close for comfort","ispublic":1,"isfriend":0,"isfamily":0},{"id":"52756803970","owner":"62043870@N05","secret":"b7f8270c53","server":"65535","farm":66,"title":"Red-tailed Hawk, Buteo jamaicensis","ispublic":1,"isfriend":0,"isfamily":0},{"id":"52755923581","owner":"197628215@N07","secret":"9cf3dcc0a1","server":"65535","farm":66,"title":"Red-tailed Hawk (Buteo jamaicensis) with Lunch 02\/27\/2023 #redtailedhawk #hawk #redtail #bestbackroad #bestbackroads #natgeoyourshots #natgeo100contest #natgeo #rutlandcountyvt #washingtoncountyny #whitehallny #wildphotography #naturephotography #adventur","ispublic":1,"isfriend":0,"isfamily":0},{"id":"52755745958","owner":"24379925@N08","secret":"d68bec1cc6","server":"65535","farm":66,"title":"RED-TAILED HAWK","ispublic":1,"isfriend":0,"isfamily":0},{"id":"52753449082","owner":"161505078@N03","secret":"8e74f2752e","server":"65535","farm":66,"title":"Red-Tailed Hawk (Buteo jamaicensis)","ispublic":1,"isfriend":0,"isfamily":0},{"id":"52754349695","owner":"161505078@N03","secret":"d72b0c12cd","server":"65535","farm":66,"title":"Red-Tailed Hawk (Buteo jamaicensis)","ispublic":1,"isfriend":0,"isfamily":0},{"id":"52754151394","owner":"161505078@N03","secret":"f9738b0a65","server":"65535","farm":66,"title":"Red-Tailed Hawk (Buteo jamaicensis)","ispublic":1,"isfriend":0,"isfamily":0},{"id":"52752517107","owner":"163667952@N05","secret":"8dc2bdbc20","server":"65535","farm":66,"title":"Red-tailed Hawk","ispublic":1,"isfriend":0,"isfamily":0},{"id":"52751510191","owner":"191008649@N08","secret":"cd02a8cf5e","server":"65535","farm":66,"title":"Buse \u00e0 queue rousse \/ Red-tailed Hawk - Buteo jamaicensis","ispublic":1,"isfriend":0,"isfamily":0},{"id":"52750295689","owner":"98627816@N02","secret":"14eff2c93a","server":"65535","farm":66,"title":"Red Tailed Hawk","ispublic":1,"isfriend":0,"isfamily":0},{"id":"52750527763","owner":"197628215@N07","secret":"4f1ba32230","server":"65535","farm":66,"title":"Red-tailed Hawk (Buteo jamaicensis) with Lunch 02\/27\/2023 #redtailedhawk #hawk #redtail #bestbackroad #bestbackroads #natgeoyourshots #natgeo100contest #natgeo #rutlandcountyvt #washingtoncountyny #whitehallny #wildphotography #naturephotography #adventur","ispublic":1,"isfriend":0,"isfamily":0},{"id":"52750273015","owner":"197628215@N07","secret":"8df0b5819f","server":"65535","farm":66,"title":"Red-tailed Hawk (Buteo jamaicensis) with Lunch 02\/27\/2023 #redtailedhawk #hawk #redtail #bestbackroad #bestbackroads #natgeoyourshots #natgeo100contest #natgeo #rutlandcountyvt #washingtoncountyny #whitehallny #wildphotography #naturephotography #adventur","ispublic":1,"isfriend":0,"isfamily":0},{"id":"52748457781","owner":"65148649@N04","secret":"3c7cfb1786","server":"65535","farm":66,"title":"Red-Tailed Hawk 2 03.04.23 Frye","ispublic":1,"isfriend":0,"isfamily":0},{"id":"52748703169","owner":"65148649@N04","secret":"38fec0ce1f","server":"65535","farm":66,"title":"Red-Tailed Hawk 03.04.23 Frye","ispublic":1,"isfriend":0,"isfamily":0},{"id":"52748714275","owner":"99849996@N00","secret":"32f9288e3b","server":"65535","farm":66,"title":"Red-tailed Hawk 20220222_1360","ispublic":1,"isfriend":0,"isfamily":0},{"id":"52747217947","owner":"197628215@N07","secret":"5d167ef813","server":"65535","farm":66,"title":"Red-tailed Hawk (Buteo jamaicensis)  02\/20\/2023 #redtailedhawk #redtail #hawk #bestbackroad #bestbackroads #natgeoyourshots #natgeo100contest #natgeo #rutlandcountyvt #washingtoncountyny #whitehallny #wildphotography #naturephotography #adventurephotograp","ispublic":1,"isfriend":0,"isfamily":0},{"id":"52747043814","owner":"161505078@N03","secret":"4dfab1394f","server":"65535","farm":66,"title":"Red-Tailed Hawk (Buteo jamaicensis)","ispublic":1,"isfriend":0,"isfamily":0},{"id":"52746621061","owner":"161505078@N03","secret":"13f67a21cd","server":"65535","farm":66,"title":"Red-Tailed Hawk (Buteo jamaicensis)","ispublic":1,"isfriend":0,"isfamily":0},{"id":"52746208861","owner":"32121198@N00","secret":"2f5c4b3468","server":"65535","farm":66,"title":"Tifft Nature Preserve Hike - Red Tailed Hawk Mar 2023","ispublic":1,"isfriend":0,"isfamily":0},{"id":"52745683937","owner":"32121198@N00","secret":"acb1a05e89","server":"65535","farm":66,"title":"Tifft Nature Preserve Hike - Red Tailed Hawk Mar 2023","ispublic":1,"isfriend":0,"isfamily":0},{"id":"52746703623","owner":"32121198@N00","secret":"53b27c9b55","server":"65535","farm":66,"title":"Tifft Nature Preserve Hike - Red Tailed Hawk Mar 2023","ispublic":1,"isfriend":0,"isfamily":0},{"id":"52744679301","owner":"22836340@N02","secret":"7603e98790","server":"65535","farm":66,"title":"T''","ispublic":1,"isfriend":0,"isfamily":0},{"id":"52744906814","owner":"161505078@N03","secret":"dcd886cee3","server":"65535","farm":66,"title":"Red-Tailed Hawk (Buteo jamaicensis)","ispublic":1,"isfriend":0,"isfamily":0},{"id":"52744735483","owner":"161505078@N03","secret":"36b4c2f31c","server":"65535","farm":66,"title":"Red-Tailed Hawk (Buteo jamaicensis)","ispublic":1,"isfriend":0,"isfamily":0},{"id":"52743166052","owner":"62043870@N05","secret":"7835cb1c00","server":"65535","farm":66,"title":"Red-tailed Hawk, Buteo jamaicensis","ispublic":1,"isfriend":0,"isfamily":0},{"id":"52769806230","owner":"62043870@N05","secret":"b505b7c248","server":"65535","farm":66,"title":"Red-tailed Hawk, Buteo jamaicensis","ispublic":1,"isfriend":0,"isfamily":0},{"id":"52765758198","owner":"22293205@N05","secret":"706e1572f1","server":"65535","farm":66,"title":"Red-tailed Hawk \u7d05\u5c3e\u9d5f 2","ispublic":1,"isfriend":0,"isfamily":0},{"id":"52756062494","owner":"197628215@N07","secret":"48ff4260ea","server":"65535","farm":66,"title":"Red-tailed Hawk (Buteo jamaicensis) with Lunch 02\/27\/2023 #redtailedhawk #hawk #redtail #bestbackroad #bestbackroads #natgeoyourshots #natgeo100contest #natgeo #rutlandcountyvt #washingtoncountyny #whitehallny #wildphotography #naturephotography #adventur","ispublic":1,"isfriend":0,"isfamily":0},{"id":"52746208631","owner":"32121198@N00","secret":"7e1f94e62a","server":"65535","farm":66,"title":"Tifft Nature Preserve Hike - Red Tailed Hawk Mar 2023","ispublic":1,"isfriend":0,"isfamily":0},{"id":"52746625785","owner":"32121198@N00","secret":"d1aeddd2db","server":"65535","farm":66,"title":"Tifft Nature Preserve Hike - Red Tailed Hawk Mar 2023","ispublic":1,"isfriend":0,"isfamily":0},{"id":"52746704603","owner":"32121198@N00","secret":"ed578e90b3","server":"65535","farm":66,"title":"Tifft Nature Preserve Hike - Red Tailed Hawk Mar 2023","ispublic":1,"isfriend":0,"isfamily":0},{"id":"52746208031","owner":"32121198@N00","secret":"d826e4a4c9","server":"65535","farm":66,"title":"Tifft Nature Preserve Hike - Red Tailed Hawk Mar 2023","ispublic":1,"isfriend":0,"isfamily":0},{"id":"52746460114","owner":"32121198@N00","secret":"89bccdfbde","server":"65535","farm":66,"title":"Tifft Nature Preserve Hike - Red Tailed Hawk Mar 2023","ispublic":1,"isfriend":0,"isfamily":0},{"id":"52745683557","owner":"32121198@N00","secret":"98b416fb9c","server":"65535","farm":66,"title":"Tifft Nature Preserve Hike - Red Tailed Hawk Mar 2023","ispublic":1,"isfriend":0,"isfamily":0},{"id":"52745683467","owner":"32121198@N00","secret":"827a8e0860","server":"65535","farm":66,"title":"Tifft Nature Preserve Hike - Red Tailed Hawk Mar 2023","ispublic":1,"isfriend":0,"isfamily":0},{"id":"52746207326","owner":"32121198@N00","secret":"dc9b0d26f8","server":"65535","farm":66,"title":"Tifft Nature Preserve Hike - Red Tailed Hawk Mar 2023","ispublic":1,"isfriend":0,"isfamily":0},{"id":"52746703503","owner":"32121198@N00","secret":"4b25697296","server":"65535","farm":66,"title":"Tifft Nature Preserve Hike - Red Tailed Hawk Mar 2023","ispublic":1,"isfriend":0,"isfamily":0},{"id":"52746703358","owner":"32121198@N00","secret":"6b6083568d","server":"65535","farm":66,"title":"Tifft Nature Preserve Hike - Red Tailed Hawk Mar 2023","ispublic":1,"isfriend":0,"isfamily":0},{"id":"52746703153","owner":"32121198@N00","secret":"22c4c6c913","server":"65535","farm":66,"title":"Tifft Nature Preserve Hike - Red Tailed Hawk Mar 2023","ispublic":1,"isfriend":0,"isfamily":0},{"id":"52745682552","owner":"32121198@N00","secret":"5f7bd16628","server":"65535","farm":66,"title":"Tifft Nature Preserve Hike - Red Tailed Hawk Mar 2023","ispublic":1,"isfriend":0,"isfamily":0},{"id":"52746702843","owner":"32121198@N00","secret":"52d2ed15f4","server":"65535","farm":66,"title":"Tifft Nature Preserve Hike - Red Tailed Hawk Mar 2023","ispublic":1,"isfriend":0,"isfamily":0},{"id":"52746702583","owner":"32121198@N00","secret":"30c69da1aa","server":"65535","farm":66,"title":"Tifft Nature Preserve Hike - Red Tailed Hawk Mar 2023","ispublic":1,"isfriend":0,"isfamily":0},{"id":"52745050557","owner":"197628215@N07","secret":"99f9fb752f","server":"65535","farm":66,"title":"Red-tailed Hawk (Buteo jamaicensis)  02\/20\/2023 #redtailedhawk #redtail #hawk #bestbackroad #bestbackroads #natgeoyourshots #natgeo100contest #natgeo #rutlandcountyvt #washingtoncountyny #whitehallny #wildphotography #naturephotography #adventurephotograp","ispublic":1,"isfriend":0,"isfamily":0},{"id":"52744051065","owner":"197628215@N07","secret":"bcb09e9669","server":"65535","farm":66,"title":"Red-tailed Hawk (Buteo jamaicensis) with Lunch 02\/27\/2023 #redtailedhawk #hawk #redtail #bestbackroad #bestbackroads #natgeoyourshots #natgeo100contest #natgeo #rutlandcountyvt #washingtoncountyny #whitehallny #wildphotography #naturephotography #adventur","ispublic":1,"isfriend":0,"isfamily":0}]},"stat":"ok"}