{"photos":{"page":1,"pages":136,"perpage":100,"total":13502,"photo":[{"id":"52792961971","owner":"161505078@N03","secret":"4a9833f82d","server":"65535","farm":66,"title":"Red-Shouldered Hawk (Buteo lineatus)","ispublic":1,"isfriend":0,"isfamily":0},{"id":"52793299610","owner":"161505078@N03","secret":"a32929b852","server":"65535","farm":66,"title":"Red-Shouldered Hawk (Buteo lineatus)","ispublic":1,"isfriend":0,"isfamily":0},{"id":"52789351446","owner":"23859768@N04","secret":"51d380d3f4","server":"65535","farm":66,"title":"red-shouldered hawk (Buteo lineatus)","ispublic":1,"isfriend":0,"isfamily":0},{"id":"52789799338","owner":"23859768@N04","secret":"c14efbca9b","server":"65535","farm":66,"title":"red-shouldered hawk (Buteo lineatus)","ispublic":1,"isfriend":0,"isfamily":0},{"id":"52789581264","owner":"23859768@N04","secret":"7ef2a3bb90","server":"65535","farm":66,"title":"red-shouldered hawk (Buteo lineatus)","ispublic":1,"isfriend":0,"isfamily":0},{"id":"52789742710","owner":"23859768@N04","secret":"16bc7d082c","server":"65535","farm":66,"title":"red-shouldered hawk (Buteo lineatus)","ispublic":1,"isfriend":0,"isfamily":0},{"id":"52789580949","owner":"23859768@N04","secret":"fc5e8b7f35","server":"65535","farm":66,"title":"red-shouldered hawk (Buteo lineatus)","ispublic":1,"isfriend":0,"isfamily":0},{"id":"52789742330","owner":"23859768@N04","secret":"c2535de23e","server":"65535","farm":66,"title":"red-shouldered hawk (Buteo lineatus)","ispublic":1,"isfriend":0,"isfamily":0},{"id":"52789278193","owner":"198024963@N07","secret":"a9c066e953","server":"65535","farm":66,"title":"Red-Shouldered Hawk","ispublic":1,"isfriend":0,"isfamily":0},{"id":"52788467554","owner":"135315828@N06","secret":"90161b2cc2","server":"65535","farm":66,"title":"red-shouldered hawk (extimus)","ispublic":1,"isfriend":0,"isfamily":0},{"id":"52788467479","owner":"135315828@N06","secret":"3c71f1c23e","server":"65535","farm":66,"title":"red-shouldered hawk (extimus)","ispublic":1,"isfriend":0,"isfamily":0},{"id":"52787179957","owner":"135315828@N06","secret":"91740d3001","server":"65535","farm":66,"title":"red-shoulded hawk","ispublic":1,"isfriend":0,"isfamily":0},{"id":"52784756464","owner":"68948578@N00","secret":"d5c809dc40","server":"65535","farm":66,"title":"Liquidambar Tree","ispublic":1,"isfriend":0,"isfamily":0},{"id":"52784971428","owner":"68948578@N00","secret":"6b3642018f","server":"65535","farm":66,"title":"Sweetgum Tree","ispublic":1,"isfriend":0,"isfamily":0},{"id":"52784639174","owner":"69812270@N00","secret":"d0159353cc","server":"65535","farm":66,"title":"Red Shouldered Hawk, Upper Harbor","ispublic":1,"isfriend":0,"isfamily":0},{"id":"52783728388","owner":"161505078@N03","secret":"c6f26234d3","server":"65535","farm":66,"title":"Red-Shouldered Hawk (Buteo lineatus)","ispublic":1,"isfriend":0,"isfamily":0},{"id":"52783639445","owner":"161505078@N03","secret":"f4ce21bd1b","server":"65535","farm":66,"title":"Red-Shouldered Hawk (Buteo lineatus)","ispublic":1,"isfriend":0,"isfamily":0},{"id":"52783626690","owner":"161505078@N03","secret":"54d95b1ec1","server":"65535","farm":66,"title":"Red-Shouldered Hawk (Buteo lineatus)","ispublic":1,"isfriend":0,"isfamily":0},{"id":"52782432503","owner":"128537732@N06","secret":"cf139029a1","server":"65535","farm":66,"title":"Red-shouldered Hawk (Buteo lineatus)","ispublic":1,"isfriend":0,"isfamily":0},{"id":"52780489827","owner":"78145652@N02","secret":"0e7011474f","server":"65535","farm":66,"title":"Red-shouldered Hawk - Buteo lineatus","ispublic":1,"isfriend":0,"isfamily":0},{"id":"52779627194","owner":"32665930@N04","secret":"3c6dd9a273","server":"65535","farm":66,"title":"Red-shouldered Hawk","ispublic":1,"isfriend":0,"isfamily":0},{"id":"52779849898","owner":"32665930@N04","secret":"89c1580b45","server":"65535","farm":66,"title":"Red-shouldered Hawk","ispublic":1,"isfriend":0,"isfamily":0},{"id":"52779371141","owner":"32665930@N04","secret":"7a253cdd2c","server":"65535","farm":66,"title":"Red-shouldered Hawk","ispublic":1,"isfriend":0,"isfamily":0},{"id":"52779626429","owner":"32665930@N04","secret":"04668b71bc","server":"65535","farm":66,"title":"Red-shouldered Hawk","ispublic":1,"isfriend":0,"isfamily":0},{"id":"52779790160","owner":"32665930@N04","secret":"2a7bece719","server":"65535","farm":66,"title":"Red-shouldered Hawk","ispublic":1,"isfriend":0,"isfamily":0},{"id":"52777057242","owner":"78145652@N02","secret":"2853e6d83d","server":"65535","farm":66,"title":"Red-shouldered Hawk - Buteo lineatus","ispublic":1,"isfriend":0,"isfamily":0},{"id":"52775544695","owner":"78145652@N02","secret":"5dab5291ed","server":"65535","farm":66,"title":"Red-shouldered Hawk - Buteo lineatus","ispublic":1,"isfriend":0,"isfamily":0},{"id":"52775319823","owner":"36611483@N03","secret":"6858a35fc3","server":"65535","farm":66,"title":"Red-shouldered Hawk","ispublic":1,"isfriend":0,"isfamily":0},{"id":"52771887229","owner":"49503118795@N01","secret":"463ac1161c","server":"0","farm":0,"title":"Video: Red-Shouldered Hawk Hunting Worms","ispublic":1,"isfriend":0,"isfamily":0},{"id":"52770771734","owner":"161505078@N03","secret":"06cb95b77e","server":"65535","farm":66,"title":"Red-Shouldered Hawk (Buteo lineatus)","ispublic":1,"isfriend":0,"isfamily":0},{"id":"52769360026","owner":"112608353@N02","secret":"e8e7a85590","server":"65535","farm":66,"title":"Surveillance","ispublic":1,"isfriend":0,"isfamily":0},{"id":"52763662312","owner":"161505078@N03","secret":"6736cbfccc","server":"65535","farm":66,"title":"Red-Shouldered Hawk (Buteo lineatus)","ispublic":1,"isfriend":0,"isfamily":0},{"id":"52764227559","owner":"168495655@N07","secret":"f9ec9730ea","server":"65535","farm":66,"title":"Buse \u00e0 \u00e9paulettes - Buteo lineatus - Red-shouldered Hawk","ispublic":1,"isfriend":0,"isfamily":0},{"id":"52764227384","owner":"168495655@N07","secret":"886cd1f2a5","server":"65535","farm":66,"title":"Buse \u00e0 \u00e9paulettes - Buteo lineatus - Red-shouldered Hawk","ispublic":1,"isfriend":0,"isfamily":0},{"id":"52762965956","owner":"150163656@N06","secret":"783acd249b","server":"65535","farm":66,"title":"Red-shouldered hawk","ispublic":1,"isfriend":0,"isfamily":0},{"id":"52762084866","owner":"42264328@N00","secret":"bcf8f813d1","server":"65535","farm":66,"title":"Hawk and mob","ispublic":1,"isfriend":0,"isfamily":0},{"id":"52762335714","owner":"42264328@N00","secret":"4a029d1647","server":"65535","farm":66,"title":"Hawk and mob","ispublic":1,"isfriend":0,"isfamily":0},{"id":"52761309932","owner":"62043870@N05","secret":"7a7eda39fb","server":"65535","farm":66,"title":"Red-shouldered Hawk, Buteo lineatus","ispublic":1,"isfriend":0,"isfamily":0},{"id":"52761968740","owner":"168495655@N07","secret":"d7daab09c7","server":"65535","farm":66,"title":"Buse \u00e0 \u00e9paulettes - Buteo lineatus - Red-shouldered Hawk","ispublic":1,"isfriend":0,"isfamily":0},{"id":"52760542736","owner":"161505078@N03","secret":"648b9ff895","server":"65535","farm":66,"title":"Red-Shouldered Hawk (Buteo lineatus)","ispublic":1,"isfriend":0,"isfamily":0},{"id":"52760138596","owner":"128537732@N06","secret":"e4e0e70d17","server":"65535","farm":66,"title":"Red-shouldered Hawk (Buteo lineatus)","ispublic":1,"isfriend":0,"isfamily":0},{"id":"52757792317","owner":"100108154@N02","secret":"835ba9e135","server":"65535","farm":66,"title":"All I Could See Of Her","ispublic":1,"isfriend":0,"isfamily":0},{"id":"52755795980","owner":"78441846@N03","secret":"c797d1f610","server":"65535","farm":66,"title":"Red-shouldered Hawk, Buteo lineatus","ispublic":1,"isfriend":0,"isfamily":0},{"id":"52755632599","owner":"78441846@N03","secret":"55f82fbc37","server":"65535","farm":66,"title":"Red-shouldered Hawk, Buteo lineatus","ispublic":1,"isfriend":0,"isfamily":0},{"id":"52755875198","owner":"78441846@N03","secret":"8ac411f9cf","server":"65535","farm":66,"title":"Red-shouldered Hawk, Buteo lineatus","ispublic":1,"isfriend":0,"isfamily":0},{"id":"52753644809","owner":"161505078@N03","secret":"d887835dd9","server":"65535","farm":66,"title":"Red-Shouldered Hawk (Buteo lineatus)","ispublic":1,"isfriend":0,"isfamily":0},{"id":"52753571090","owner":"161505078@N03","secret":"db918a12ee","server":"65535","farm":66,"title":"Red-Shouldered Hawk (Buteo lineatus)","ispublic":1,"isfriend":0,"isfamily":0},{"id":"52753461023","owner":"161505078@N03","secret":"543c01f526","server":"65535","farm":66,"title":"Red-Shouldered Hawk (Buteo lineatus)","ispublic":1,"isfriend":0,"isfamily":0},{"id":"52752115066","owner":"66550674@N06","secret":"b71af62e9d","server":"65535","farm":66,"title":"Red-shouldered Hawk","ispublic":1,"isfriend":0,"isfamily":0},{"id":"52751463086","owner":"161505078@N03","secret":"d8dde40417","server":"65535","farm":66,"title":"Red-Shouldered Hawk (Buteo lineatus)","ispublic":1,"isfriend":0,"isfamily":0},{"id":"52757292419","owner":"18331229@N03","secret":"98f46b1cd3","server":"65535","farm":66,"title":"Hawk on a Branch","ispublic":1,"isfriend":0,"isfamily":0},{"id":"52757450965","owner":"18331229@N03","secret":"574457a05d","server":"65535","farm":66,"title":"Hawk Out to Launch","ispublic":1,"isfriend":0,"isfamily":0},{"id":"52750785287","owner":"161505078@N03","secret":"45b5d24760","server":"65535","farm":66,"title":"Red-Shouldered Hawk (Buteo lineatus)","ispublic":1,"isfriend":0,"isfamily":0},{"id":"52751300561","owner":"161505078@N03","secret":"011ccc26b9","server":"65535","farm":66,"title":"Red-Shouldered Hawk (Buteo lineatus)","ispublic":1,"isfriend":0,"isfamily":0},{"id":"52749930821","owner":"38513698@N07","secret":"76deb545d4","server":"65535","farm":66,"title":"Red-shouldered Hawk","ispublic":1,"isfriend":0,"isfamily":0},{"id":"52748590870","owner":"31379783@N02","secret":"9ab0c5c57d","server":"65535","farm":66,"title":"Domaine Saint-Paul","ispublic":1,"isfriend":0,"isfamily":0},{"id":"52747652832","owner":"31379783@N02","secret":"6e79e4a150","server":"65535","farm":66,"title":"Domaine Saint-Paul","ispublic":1,"isfriend":0,"isfamily":0},{"id":"52748361545","owner":"132508209@N08","secret":"57cd096466","server":"65535","farm":66,"title":"Red-shouldered Hawk (Buteo lineatus)","ispublic":1,"isfriend":0,"isfamily":0},{"id":"52748194494","owner":"132508209@N08","secret":"f097492786","server":"65535","farm":66,"title":"Red-shouldered Hawk (Buteo lineatus)","ispublic":1,"isfriend":0,"isfamily":0},{"id":"52748443483","owner":"132508209@N08","secret":"ea5fb15362","server":"65535","farm":66,"title":"Red-shouldered Hawk (Buteo lineatus)","ispublic":1,"isfriend":0,"isfamily":0},{"id":"52748194439","owner":"132508209@N08","secret":"0e6667faaf","server":"65535","farm":66,"title":"Red-shouldered Hawk (Buteo lineatus)","ispublic":1,"isfriend":0,"isfamily":0},{"id":"52747948521","owner":"132508209@N08","secret":"99e1b37c1e","server":"65535","farm":66,"title":"Red-shouldered Hawk (Buteo lineatus)","ispublic":1,"isfriend":0,"isfamily":0},{"id":"52748361245","owner":"132508209@N08","secret":"8291ca9f58","server":"65535","farm":66,"title":"Red-shouldered Hawk (Buteo lineatus)","ispublic":1,"isfriend":0,"isfamily":0},{"id":"52748194309","owner":"132508209@N08","secret":"488f5e03a5","server":"65535","farm":66,"title":"Red-shouldered Hawk (Buteo lineatus)","ispublic":1,"isfriend":0,"isfamily":0},{"id":"52748361205","owner":"132508209@N08","secret":"fca89f50a8","server":"65535","farm":66,"title":"Red-shouldered Hawk (Buteo lineatus)","ispublic":1,"isfriend":0,"isfamily":0},{"id":"52746481102","owner":"161505078@N03","secret":"705cd34132","server":"65535","farm":66,"title":"Red-Shouldered Hawk (Buteo lineatus)","ispublic":1,"isfriend":0,"isfamily":0},{"id":"52743023822","owner":"128537732@N06","secret":"d1af13f977","server":"65535","farm":66,"title":"Red-shouldered Hawk (Buteo lineatus)","ispublic":1,"isfriend":0,"isfamily":0},{"id":"52743023572","owner":"128537732@N06","secret":"011baf135d","server":"65535","farm":66,"title":"Red-shouldered Hawk (Buteo lineatus)","ispublic":1,"isfriend":0,"isfamily":0},{"id":"52742890304","owner":"74787113@N05","secret":"aecff20879","server":"65535","farm":66,"title":"RED SHOULDERED HAWK","ispublic":1,"isfriend":0,"isfamily":0},{"id":"52742009007","owner":"161505078@N03","secret":"756a1634d5","server":"65535","farm":66,"title":"Red-Shouldered Hawk (Buteo lineatus)","ispublic":1,"isfriend":0,"isfamily":0},{"id":"52742715518","owner":"161505078@N03","secret":"91165efaa8","server":"65535","farm":66,"title":"Red-Shouldered Hawk (Buteo lineatus)","ispublic":1,"isfriend":0,"isfamily":0},{"id":"52742457729","owner":"161505078@N03","secret":"004a210ef0","server":"65535","farm":66,"title":"Red-Shouldered Hawk (Buteo lineatus)","ispublic":1,"isfriend":0,"isfamily":0},{"id":"52741121075","owner":"161505078@N03","secret":"83a5d6796c","server":"65535","farm":66,"title":"Red-Shouldered Hawk (Buteo lineatus)","ispublic":1,"isfriend":0,"isfamily":0},{"id":"52739899327","owner":"161505078@N03","secret":"0606e9a849","server":"65535","farm":66,"title":"Red-Shouldered Hawk (Buteo lineatus)","ispublic":1,"isfriend":0,"isfamily":0},{"id":"52740868403","owner":"161505078@N03","secret":"979d812550","server":"65535","farm":66,"title":"Red-Shouldered Hawk (Buteo lineatus)","ispublic":1,"isfriend":0,"isfamily":0},{"id":"52740776273","owner":"62043870@N05","secret":"8d276f9503","server":"65535","farm":66,"title":"Red-shouldered Hawks, Buteo lineatus","ispublic":1,"isfriend":0,"isfamily":0},{"id":"52739699010","owner":"128537732@N06","secret":"3a7b9cc5e9","server":"65535","farm":66,"title":"Red-shouldered Hawk (Buteo lineatus)","ispublic":1,"isfriend":0,"isfamily":0},{"id":"52738765962","owner":"128537732@N06","secret":"e182ba4344","server":"65535","farm":66,"title":"Red-shouldered Hawk (Buteo lineatus)","ispublic":1,"isfriend":0,"isfamily":0},{"id":"52738696629","owner":"161505078@N03","secret":"25786af316","server":"65535","farm":66,"title":"Red-Shouldered Hawk (Buteo lineatus)","ispublic":1,"isfriend":0,"isfamily":0},{"id":"52736686032","owner":"128537732@N06","secret":"12fe1afd54","server":"65535","farm":66,"title":"Red-shouldered Hawk (Buteo lineatus)","ispublic":1,"isfriend":0,"isfamily":0},{"id":"52735942322","owner":"161505078@N03","secret":"307c4b502b","server":"65535","farm":66,"title":"Red-Shouldered Hawk (Buteo lineatus)","ispublic":1,"isfriend":0,"isfamily":0},{"id":"52736659359","owner":"161505078@N03","secret":"d043bc77aa","server":"65535","farm":66,"title":"Red-Shouldered Hawk (Buteo lineatus)","ispublic":1,"isfriend":0,"isfamily":0},{"id":"52735691313","owner":"45340210@N05","secret":"bfb2e4833f","server":"65535","farm":66,"title":"Red-shouldered Hawk 2 3_6_23","ispublic":1,"isfriend":0,"isfamily":0},{"id":"52735579763","owner":"35137392@N05","secret":"f23a46d76e","server":"65535","farm":66,"title":"Red-Shouldered Hawk - Buteo lineatus","ispublic":1,"isfriend":0,"isfamily":0},{"id":"52734931333","owner":"184781347@N05","secret":"5256886bd5","server":"65535","farm":66,"title":"unruly feathers","ispublic":1,"isfriend":0,"isfamily":0},{"id":"52734482504","owner":"161505078@N03","secret":"6484f8b4d1","server":"65535","farm":66,"title":"Red-Shouldered Hawk (Buteo lineatus)","ispublic":1,"isfriend":0,"isfamily":0},{"id":"52734595015","owner":"161505078@N03","secret":"29ca817385","server":"65535","farm":66,"title":"Red-Shouldered Hawk (Buteo lineatus)","ispublic":1,"isfriend":0,"isfamily":0},{"id":"52734047826","owner":"161505078@N03","secret":"c636eb7b30","server":"65535","farm":66,"title":"Red-Shouldered Hawk (Buteo lineatus)","ispublic":1,"isfriend":0,"isfamily":0},{"id":"52732605967","owner":"132508209@N08","secret":"76f8338ac8","server":"65535","farm":66,"title":"Red-shouldered Hawk (Buteo lineatus)","ispublic":1,"isfriend":0,"isfamily":0},{"id":"52733380909","owner":"132508209@N08","secret":"408477f7a4","server":"65535","farm":66,"title":"Red-shouldered Hawk (Buteo lineatus)","ispublic":1,"isfriend":0,"isfamily":0},{"id":"52733542315","owner":"132508209@N08","secret":"0c26e7bf0d","server":"65535","farm":66,"title":"Red-shouldered Hawk (Buteo lineatus)","ispublic":1,"isfriend":0,"isfamily":0},{"id":"52733542300","owner":"132508209@N08","secret":"59e80854c7","server":"65535","farm":66,"title":"Red-shouldered Hawk (Buteo lineatus)","ispublic":1,"isfriend":0,"isfamily":0},{"id":"52732605837","owner":"132508209@N08","secret":"d880c35bb0","server":"65535","farm":66,"title":"Red-shouldered Hawk (Buteo lineatus)","ispublic":1,"isfriend":0,"isfamily":0},{"id":"52733380769","owner":"132508209@N08","secret":"745ff49908","server":"65535","farm":66,"title":"Red-shouldered Hawk (Buteo lineatus)","ispublic":1,"isfriend":0,"isfamily":0},{"id":"52733612863","owner":"132508209@N08","secret":"c90140e19d","server":"65535","farm":66,"title":"Red-shouldered Hawk (Buteo lineatus)","ispublic":1,"isfriend":0,"isfamily":0},{"id":"52733128966","owner":"132508209@N08","secret":"708f9ea866","server":"65535","farm":66,"title":"Red-shouldered Hawk (Buteo lineatus)","ispublic":1,"isfriend":0,"isfamily":0},{"id":"52732605642","owner":"132508209@N08","secret":"4112c0ce1c","server":"65535","farm":66,"title":"Red-shouldered Hawk (Buteo lineatus)","ispublic":1,"isfriend":0,"isfamily":0},{"id":"52732605607","owner":"132508209@N08","secret":"b286955745","server":"65535","farm":66,"title":"Red-shouldered Hawk (Buteo lineatus)","ispublic":1,"isfriend":0,"isfamily":0},{"id":"52733508460","owner":"128537732@N06","secret":"45c57b1b46","server":"65535","farm":66,"title":"Red-shouldered Hawk (Buteo lineatus)","ispublic":1,"isfriend":0,"isfamily":0},{"id":"52732218347","owner":"136620261@N06","secret":"c906d822ab","server":"65535","farm":66,"title":"Buse \u00e0 \u00e9paulettes, Buteo lineatus, Red-shouldered Hawk-4982-Edit.jpg","ispublic":1,"isfriend":0,"isfamily":0}]},"stat":"ok"}