{"photos":{"page":1,"pages":26,"perpage":100,"total":2600,"photo":[{"id":"52792369691","owner":"95610786@N07","secret":"3d6520cb31","server":"65535","farm":66,"title":"Red-legged Honeycreeper Cyanerpes cyaneus - Guit-guit sa\u00ef  1739_DxO-1","ispublic":1,"isfriend":0,"isfamily":0},{"id":"52782211543","owner":"12639178@N07","secret":"b5d89f432f","server":"65535","farm":66,"title":"Zorro pers\u00f6nlich","ispublic":1,"isfriend":0,"isfamily":0},{"id":"52781991509","owner":"12639178@N07","secret":"b10cde203b","server":"65535","farm":66,"title":"T\u00fcrkisnaschvogel","ispublic":1,"isfriend":0,"isfamily":0},{"id":"52775842110","owner":"32752434@N07","secret":"0ec26532e2","server":"65535","farm":66,"title":"Red-legged Honeycreeper (Cyanerpes cyaneus)","ispublic":1,"isfriend":0,"isfamily":0},{"id":"52753989811","owner":"97599611@N04","secret":"4cc422137a","server":"65535","farm":66,"title":"0P7A9582   Red-legged Honeycreeper, Panama","ispublic":1,"isfriend":0,"isfamily":0},{"id":"52749954246","owner":"12639178@N07","secret":"c1b5bbfe8d","server":"65535","farm":66,"title":"resolute Dame","ispublic":1,"isfriend":0,"isfamily":0},{"id":"52749952096","owner":"12639178@N07","secret":"7b0cf36de5","server":"65535","farm":66,"title":"Ehestreit an der Futterstelle","ispublic":1,"isfriend":0,"isfamily":0},{"id":"52749690471","owner":"12639178@N07","secret":"65654c5e93","server":"65535","farm":66,"title":"\"Das ist meine Banane\"","ispublic":1,"isfriend":0,"isfamily":0},{"id":"52749939444","owner":"12639178@N07","secret":"b7f15b458e","server":"65535","farm":66,"title":"T\u00fcrkisnaschvogel","ispublic":1,"isfriend":0,"isfamily":0},{"id":"52739350005","owner":"186193378@N07","secret":"e0874442eb","server":"65535","farm":66,"title":"Sa\u00edra-beija-flor macho (Cyanerpes cyaneus) Red-legged Honeycreeper male","ispublic":1,"isfriend":0,"isfamily":0},{"id":"52737757181","owner":"7413414@N02","secret":"f3fedd893b","server":"65535","farm":66,"title":"Mirror, Mirror on the wall - who is the prettiest Honeycreeper of them all?","ispublic":1,"isfriend":0,"isfamily":0},{"id":"52719821537","owner":"8987884@N07","secret":"15670b52d6","server":"65535","farm":66,"title":"Red-legged Honeycreeper (Cyanerpes cyaneus)_DSC_4906","ispublic":1,"isfriend":0,"isfamily":0},{"id":"52714045863","owner":"8987884@N07","secret":"02e29a6105","server":"65535","farm":66,"title":"Red-legged Honeycreeper (Cyanerpes cyaneus)_DSC_2960","ispublic":1,"isfriend":0,"isfamily":0},{"id":"52713230605","owner":"132001260@N04","secret":"3db6092acd","server":"65535","farm":66,"title":"Guit-guit sa\u00ef sur sa branche","ispublic":1,"isfriend":0,"isfamily":0},{"id":"52703907194","owner":"9240063@N02","secret":"9fc56337f0","server":"65535","farm":66,"title":"Cyanerpes cyaneus carneipes","ispublic":1,"isfriend":0,"isfamily":0},{"id":"52701603929","owner":"132165466@N08","secret":"d37f80c676","server":"65535","farm":66,"title":"Plain-colored Tanager","ispublic":1,"isfriend":0,"isfamily":0},{"id":"52693308484","owner":"8987884@N07","secret":"bae1db4c1b","server":"65535","farm":66,"title":"Red-legged Honeycreeper (Cyanerpes cyaneus)_DSC_0736","ispublic":1,"isfriend":0,"isfamily":0},{"id":"52693306355","owner":"12639178@N07","secret":"667aac6a0b","server":"65535","farm":66,"title":"am Buffet","ispublic":1,"isfriend":0,"isfamily":0},{"id":"52692375672","owner":"12639178@N07","secret":"29dee47b6e","server":"65535","farm":66,"title":"T\u00fcrkisnaschvogel","ispublic":1,"isfriend":0,"isfamily":0},{"id":"52691023864","owner":"132165466@N08","secret":"05f3d2b12f","server":"65535","farm":66,"title":"Red-legged Honeycreeper (male)","ispublic":1,"isfriend":0,"isfamily":0},{"id":"52691171400","owner":"132165466@N08","secret":"fd707a38f5","server":"65535","farm":66,"title":"Red-legged Honeycreeper","ispublic":1,"isfriend":0,"isfamily":0},{"id":"52689254832","owner":"132165466@N08","secret":"5215702f5d","server":"65535","farm":66,"title":"Red-legged Honeycreeper","ispublic":1,"isfriend":0,"isfamily":0},{"id":"52689776221","owner":"132165466@N08","secret":"600337829d","server":"65535","farm":66,"title":"Red-legged Honeycreeper","ispublic":1,"isfriend":0,"isfamily":0},{"id":"52690044764","owner":"132165466@N08","secret":"2d54c6c78e","server":"65535","farm":66,"title":"Red-legged Honeycreeper","ispublic":1,"isfriend":0,"isfamily":0},{"id":"52687559811","owner":"132165466@N08","secret":"f4a0516a9f","server":"65535","farm":66,"title":"Red-legged Honeycreeper (male) and friends","ispublic":1,"isfriend":0,"isfamily":0},{"id":"52687041237","owner":"132165466@N08","secret":"1b53362608","server":"65535","farm":66,"title":"Red-legged Honeycreeper (male)","ispublic":1,"isfriend":0,"isfamily":0},{"id":"52687559786","owner":"132165466@N08","secret":"6bd599e8e5","server":"65535","farm":66,"title":"Red-legged Honeycreeper (male) and friends","ispublic":1,"isfriend":0,"isfamily":0},{"id":"52687296991","owner":"12639178@N07","secret":"0eafde9854","server":"65535","farm":66,"title":"weiblicher T\u00fcrkisnaschvogel im Morgengrauen","ispublic":1,"isfriend":0,"isfamily":0},{"id":"52687128779","owner":"132165466@N08","secret":"8d8c05cc06","server":"65535","farm":66,"title":"Red-legged Honeycreeper (male) and friends","ispublic":1,"isfriend":0,"isfamily":0},{"id":"52687273945","owner":"132165466@N08","secret":"68044993be","server":"65535","farm":66,"title":"Red-legged Honeycreeper (male)","ispublic":1,"isfriend":0,"isfamily":0},{"id":"52687343933","owner":"132165466@N08","secret":"2e30437a55","server":"65535","farm":66,"title":"Red-legged Honeycreeper (male)","ispublic":1,"isfriend":0,"isfamily":0},{"id":"52685909830","owner":"132165466@N08","secret":"7eb3c7e779","server":"65535","farm":66,"title":"Red-legged Honeycreeper (male)","ispublic":1,"isfriend":0,"isfamily":0},{"id":"52685983258","owner":"132165466@N08","secret":"057a1d9448","server":"65535","farm":66,"title":"Red-legged Honeycreeper (male)","ispublic":1,"isfriend":0,"isfamily":0},{"id":"52684969682","owner":"132165466@N08","secret":"18237e461c","server":"65535","farm":66,"title":"Red-legged Honeycreeper and friends","ispublic":1,"isfriend":0,"isfamily":0},{"id":"52685090410","owner":"132165466@N08","secret":"a65cf55a5e","server":"65535","farm":66,"title":"Red-legged Honeycreeper female and friends","ispublic":1,"isfriend":0,"isfamily":0},{"id":"52685164023","owner":"132165466@N08","secret":"51abf3f7e2","server":"65535","farm":66,"title":"Red-legged Honeycreeper (male)","ispublic":1,"isfriend":0,"isfamily":0},{"id":"52684949634","owner":"132165466@N08","secret":"9af2800308","server":"65535","farm":66,"title":"Red-legged Honeycreeper (male) and friends","ispublic":1,"isfriend":0,"isfamily":0},{"id":"52684658016","owner":"132165466@N08","secret":"e03778175f","server":"65535","farm":66,"title":"Red-legged Honeycreeper (male)","ispublic":1,"isfriend":0,"isfamily":0},{"id":"52684143102","owner":"132165466@N08","secret":"4f6d5e2ed1","server":"65535","farm":66,"title":"Red-legged Honeycreeper (male) and friends","ispublic":1,"isfriend":0,"isfamily":0},{"id":"52684143107","owner":"132165466@N08","secret":"b5b0892107","server":"65535","farm":66,"title":"Red-legged Honeycreeper female and friends","ispublic":1,"isfriend":0,"isfamily":0},{"id":"52683286934","owner":"132165466@N08","secret":"52aa1a6ccc","server":"65535","farm":66,"title":"Red-legged Honeycreeper female and friends","ispublic":1,"isfriend":0,"isfamily":0},{"id":"52683286954","owner":"132165466@N08","secret":"0d13fe262e","server":"65535","farm":66,"title":"Red-legged Honeycreeper (male) and friends","ispublic":1,"isfriend":0,"isfamily":0},{"id":"52683434985","owner":"132165466@N08","secret":"bef10d4827","server":"65535","farm":66,"title":"Red-legged Honeycreeper (male)","ispublic":1,"isfriend":0,"isfamily":0},{"id":"52681851242","owner":"132165466@N08","secret":"782e9a1840","server":"65535","farm":66,"title":"Red-legged Honeycreeper female and friends","ispublic":1,"isfriend":0,"isfamily":0},{"id":"52682797595","owner":"132165466@N08","secret":"c8ea91601b","server":"65535","farm":66,"title":"Red-legged Honeycreeper (male) and friends","ispublic":1,"isfriend":0,"isfamily":0},{"id":"52681838523","owner":"132165466@N08","secret":"2b265ce004","server":"65535","farm":66,"title":"Red-legged Honeycreepers and friends and friends","ispublic":1,"isfriend":0,"isfamily":0},{"id":"52681623364","owner":"132165466@N08","secret":"356ef9e15a","server":"65535","farm":66,"title":"Red-legged Honeycreeper (male)","ispublic":1,"isfriend":0,"isfamily":0},{"id":"52681341071","owner":"132165466@N08","secret":"83dde2353b","server":"65535","farm":66,"title":"Red-legged Honeycreeper female and friends","ispublic":1,"isfriend":0,"isfamily":0},{"id":"52681074331","owner":"32674493@N04","secret":"c6ee4c79a7","server":"65535","farm":66,"title":"Sa\u00edra-beija-flor (Cyanerpes cyaneus holti) macho jovem","ispublic":1,"isfriend":0,"isfamily":0},{"id":"52680245882","owner":"132165466@N08","secret":"2754c0140e","server":"65535","farm":66,"title":"Red-legged Honeycreeper and friends","ispublic":1,"isfriend":0,"isfamily":0},{"id":"52680763226","owner":"132165466@N08","secret":"65dbcefacf","server":"65535","farm":66,"title":"Red-legged Honeycreeper (male)","ispublic":1,"isfriend":0,"isfamily":0},{"id":"52681253118","owner":"132165466@N08","secret":"9df637bb20","server":"65535","farm":66,"title":"Red-legged Honeycreeper female and friends","ispublic":1,"isfriend":0,"isfamily":0},{"id":"52681187450","owner":"132165466@N08","secret":"05ce144354","server":"65535","farm":66,"title":"Red-legged Honeycreeper (male)","ispublic":1,"isfriend":0,"isfamily":0},{"id":"52679448358","owner":"132165466@N08","secret":"74518d5913","server":"65535","farm":66,"title":"Red-legged Honeycreeper (male)","ispublic":1,"isfriend":0,"isfamily":0},{"id":"52679448363","owner":"132165466@N08","secret":"bb375d03e0","server":"65535","farm":66,"title":"Red-legged Honeycreeper (male)","ispublic":1,"isfriend":0,"isfamily":0},{"id":"52675182559","owner":"110459348@N03","secret":"828c16211c","server":"65535","farm":66,"title":"Guit-guit en plumage de transition","ispublic":1,"isfriend":0,"isfamily":0},{"id":"52672858781","owner":"132165466@N08","secret":"713813b5c0","server":"65535","farm":66,"title":"Red-legged Honeycreeper female and friends","ispublic":1,"isfriend":0,"isfamily":0},{"id":"52673145684","owner":"132165466@N08","secret":"3f79b17f02","server":"65535","farm":66,"title":"Red-legged Honeycreepers","ispublic":1,"isfriend":0,"isfamily":0},{"id":"52672852961","owner":"132165466@N08","secret":"be3afb3b67","server":"65535","farm":66,"title":"Red-legged Honeycreeper (male)","ispublic":1,"isfriend":0,"isfamily":0},{"id":"52673350923","owner":"132165466@N08","secret":"90312f8284","server":"65535","farm":66,"title":"Red-legged Honeycreeper (young male)","ispublic":1,"isfriend":0,"isfamily":0},{"id":"52673350918","owner":"132165466@N08","secret":"d60d175233","server":"65535","farm":66,"title":"Red-legged Honeycreeper (male)","ispublic":1,"isfriend":0,"isfamily":0},{"id":"52672337782","owner":"132165466@N08","secret":"706b3a353a","server":"65535","farm":66,"title":"Red-legged Honeycreeper female and friends","ispublic":1,"isfriend":0,"isfamily":0},{"id":"52671506556","owner":"132165466@N08","secret":"93724251f1","server":"65535","farm":66,"title":"Summer Tanager, female","ispublic":1,"isfriend":0,"isfamily":0},{"id":"52671098859","owner":"132165466@N08","secret":"2d9613886b","server":"65535","farm":66,"title":"Red-legged Honeycreeper, mature males","ispublic":1,"isfriend":0,"isfamily":0},{"id":"52670805791","owner":"132165466@N08","secret":"df02212bf5","server":"65535","farm":66,"title":"Red-legged Honeycreeper","ispublic":1,"isfriend":0,"isfamily":0},{"id":"52670169542","owner":"132165466@N08","secret":"839152c0c8","server":"65535","farm":66,"title":"Red-legged Honeycreeper, female and male","ispublic":1,"isfriend":0,"isfamily":0},{"id":"52670956519","owner":"132165466@N08","secret":"98d6ea4b94","server":"65535","farm":66,"title":"Red-legged Honeycreeper, young male","ispublic":1,"isfriend":0,"isfamily":0},{"id":"52670956529","owner":"132165466@N08","secret":"60e5337c7b","server":"65535","farm":66,"title":"Red-legged Honeycreeper, mature male","ispublic":1,"isfriend":0,"isfamily":0},{"id":"52668684887","owner":"132165466@N08","secret":"644af05361","server":"65535","farm":66,"title":"Red-legged Honeycreeper, male","ispublic":1,"isfriend":0,"isfamily":0},{"id":"52667847876","owner":"132001260@N04","secret":"0883399718","server":"65535","farm":66,"title":"Femelle Guit-guit sa\u00ef","ispublic":1,"isfriend":0,"isfamily":0},{"id":"52661767516","owner":"132165466@N08","secret":"990044cc05","server":"65535","farm":66,"title":"Red-legged Honeycreeper","ispublic":1,"isfriend":0,"isfamily":0},{"id":"52659726291","owner":"132165466@N08","secret":"a9215489b5","server":"65535","farm":66,"title":"Red-legged Honeycreeper","ispublic":1,"isfriend":0,"isfamily":0},{"id":"52659232882","owner":"132165466@N08","secret":"64ce6cbcbe","server":"65535","farm":66,"title":"Red-legged Honeycreeper","ispublic":1,"isfriend":0,"isfamily":0},{"id":"52659726276","owner":"132165466@N08","secret":"7be45e70a1","server":"65535","farm":66,"title":"Red-legged Honeycreeper","ispublic":1,"isfriend":0,"isfamily":0},{"id":"52654454941","owner":"126974857@N08","secret":"52570a3bb5","server":"65535","farm":66,"title":"Guit-guit sa\u00ef - Cyanerpes cyaneus - Red-legged Honeycreeper","ispublic":1,"isfriend":0,"isfamily":0},{"id":"52647033775","owner":"7413414@N02","secret":"49e48cc333","server":"65535","farm":66,"title":"And now for something a bit more exotic...","ispublic":1,"isfriend":0,"isfamily":0},{"id":"52634307028","owner":"132165466@N08","secret":"d1c0f779be","server":"65535","farm":66,"title":"Red-legged Honeycreeper","ispublic":1,"isfriend":0,"isfamily":0},{"id":"52634307018","owner":"132165466@N08","secret":"03a94af302","server":"65535","farm":66,"title":"Red-legged Honeycreeper","ispublic":1,"isfriend":0,"isfamily":0},{"id":"52633552220","owner":"132165466@N08","secret":"6cc101e948","server":"65535","farm":66,"title":"Red-legged Honeycreeper","ispublic":1,"isfriend":0,"isfamily":0},{"id":"52630621496","owner":"132001260@N04","secret":"0ee046e575","server":"65535","farm":66,"title":"Couple de Guit-guit sa\u00ef","ispublic":1,"isfriend":0,"isfamily":0},{"id":"52627663898","owner":"79383179@N03","secret":"f04427e0d8","server":"65535","farm":66,"title":"Red-legged Honeycreeper (Cyanerpes cyaneus)","ispublic":1,"isfriend":0,"isfamily":0},{"id":"52623689470","owner":"182003928@N07","secret":"e83f0ba95d","server":"65535","farm":66,"title":"Buscando m\u00e1s miel \ud83c\udf6f Mielero patas rojas - red-legged honeycreeper (Cyanerpes cyaneus).  #CostaRica #costaricabirds #Birds #Aves #WildBirds #Nature #Naturaleza #NatureCapture #NatureBeauty #BirdLife #BirdsOfInstagram #BirdLovers #Ornithology #Bir","ispublic":1,"isfriend":0,"isfamily":0},{"id":"52622716105","owner":"132001260@N04","secret":"b8b6453b96","server":"65535","farm":66,"title":"Guit-guit sa\u00ef en \u00e9tendard","ispublic":1,"isfriend":0,"isfamily":0},{"id":"52621805918","owner":"7413414@N02","secret":"d42e7dfe5b","server":"65535","farm":66,"title":"Green on Green","ispublic":1,"isfriend":0,"isfamily":0},{"id":"52620072022","owner":"110459348@N03","secret":"289cba98a1","server":"65535","farm":66,"title":"Guit-guit sa\u00ef femelle","ispublic":1,"isfriend":0,"isfamily":0},{"id":"52608483581","owner":"132001260@N04","secret":"cd824ec04c","server":"65535","farm":66,"title":"Guit-guit sa\u00ef en plumage de transition","ispublic":1,"isfriend":0,"isfamily":0},{"id":"52681046174","owner":"132165466@N08","secret":"0a0e7ccde0","server":"65535","farm":66,"title":"Red-legged Honeycreeper female and friends","ispublic":1,"isfriend":0,"isfamily":0},{"id":"52680237507","owner":"132165466@N08","secret":"5441e2323b","server":"65535","farm":66,"title":"Red-legged Honeycreeper (male)","ispublic":1,"isfriend":0,"isfamily":0},{"id":"52679236794","owner":"132165466@N08","secret":"21a3caf424","server":"65535","farm":66,"title":"Red-legged Honeycreeper female and friends","ispublic":1,"isfriend":0,"isfamily":0},{"id":"52673128584","owner":"132165466@N08","secret":"50543876ae","server":"65535","farm":66,"title":"Red-legged Honeycreeper female and friends","ispublic":1,"isfriend":0,"isfamily":0},{"id":"52670799796","owner":"132165466@N08","secret":"f5bdf8ca7c","server":"65535","farm":66,"title":"Red-legged Honeycreeper","ispublic":1,"isfriend":0,"isfamily":0},{"id":"52670296777","owner":"132165466@N08","secret":"5f31df2f71","server":"65535","farm":66,"title":"Red-legged Honeycreeper","ispublic":1,"isfriend":0,"isfamily":0},{"id":"52671300953","owner":"132165466@N08","secret":"19f8ea5d8d","server":"65535","farm":66,"title":"Red-legged Honeycreeper, mature male","ispublic":1,"isfriend":0,"isfamily":0},{"id":"52657639109","owner":"132165466@N08","secret":"13950dc82d","server":"65535","farm":66,"title":"Red-legged Honeycreeper","ispublic":1,"isfriend":0,"isfamily":0},{"id":"52657639119","owner":"132165466@N08","secret":"3a6c6b854b","server":"65535","farm":66,"title":"Red-legged Honeycreeper","ispublic":1,"isfriend":0,"isfamily":0},{"id":"52657803655","owner":"132165466@N08","secret":"effa47491c","server":"65535","farm":66,"title":"Red-legged Honeycreeper","ispublic":1,"isfriend":0,"isfamily":0},{"id":"52633420347","owner":"132165466@N08","secret":"dd071c5402","server":"65535","farm":66,"title":"Red-legged Honeycreeper","ispublic":1,"isfriend":0,"isfamily":0},{"id":"52633420337","owner":"132165466@N08","secret":"dfeac7c537","server":"65535","farm":66,"title":"Red-legged Honeycreeper","ispublic":1,"isfriend":0,"isfamily":0},{"id":"52633552240","owner":"132165466@N08","secret":"0afcf52f5e","server":"65535","farm":66,"title":"Red-legged Honeycreeper","ispublic":1,"isfriend":0,"isfamily":0},{"id":"52633369594","owner":"132165466@N08","secret":"307c782bd7","server":"65535","farm":66,"title":"Red-legged Honeycreeper","ispublic":1,"isfriend":0,"isfamily":0}]},"stat":"ok"}