{"photos":{"page":1,"pages":185,"perpage":100,"total":18417,"photo":[{"id":"52720708700","owner":"49114357@N08","secret":"3d7254528f","server":"65535","farm":66,"title":"Hot Pursuit","ispublic":1,"isfriend":0,"isfamily":0},{"id":"52723207984","owner":"165841515@N03","secret":"8c4a31820f","server":"65535","farm":66,"title":"Carouge \u00e0 \u00e9paulettes \/ Red-winged Blackbird \/ (Agelaius phoeniceus)","ispublic":1,"isfriend":0,"isfamily":0},{"id":"52723203484","owner":"165841515@N03","secret":"f0104e5204","server":"65535","farm":66,"title":"Carouge \u00e0 \u00e9paulettes \/ Red-winged Blackbird \/ (Agelaius phoeniceus)","ispublic":1,"isfriend":0,"isfamily":0},{"id":"52723422118","owner":"165841515@N03","secret":"2ce2bd3e89","server":"65535","farm":66,"title":"Carouge \u00e0 \u00e9paulettes \/ Red-winged Blackbird \/ (Agelaius phoeniceus)","ispublic":1,"isfriend":0,"isfamily":0},{"id":"52720931885","owner":"32599741@N03","secret":"b560b172c4","server":"65535","farm":66,"title":"sentinel","ispublic":1,"isfriend":0,"isfamily":0},{"id":"52718962353","owner":"85277889@N08","secret":"8c2391e111","server":"65535","farm":66,"title":"Red-winged Blackbird (Agelaius phoeniceus) 2023-02-28 (2)","ispublic":1,"isfriend":0,"isfamily":0},{"id":"52718962278","owner":"85277889@N08","secret":"eb031d6c3e","server":"65535","farm":66,"title":"Red-winged Blackbird (Agelaius phoeniceus) 2023-02-28 (6)","ispublic":1,"isfriend":0,"isfamily":0},{"id":"52718509169","owner":"42415395@N07","secret":"93741185df","server":"65535","farm":66,"title":"Red-winged Blackbird -- Juvenile Female (Agelaius phoeniceus); Santa Fe National Forest, NM, Thompson Ridge [Lou Feltz]","ispublic":1,"isfriend":0,"isfamily":0},{"id":"52718226839","owner":"130140749@N05","secret":"29119c66ab","server":"65535","farm":66,"title":"Queen of the Marsh","ispublic":1,"isfriend":0,"isfamily":0},{"id":"52713779259","owner":"34368269@N04","secret":"7baa2bceba","server":"65535","farm":66,"title":"Red-winged Blackbird","ispublic":1,"isfriend":0,"isfamily":0},{"id":"52712317646","owner":"34368269@N04","secret":"e8860fd23c","server":"65535","farm":66,"title":"Red-winged Blackbird","ispublic":1,"isfriend":0,"isfamily":0},{"id":"52710978294","owner":"47533293@N04","secret":"c610242a34","server":"65535","farm":66,"title":"Red-winged blackbird, Agelaius phoeniceus","ispublic":1,"isfriend":0,"isfamily":0},{"id":"52710305133","owner":"169771858@N03","secret":"a42c8e5fb1","server":"65535","farm":66,"title":"Red-Winged Blackbird #7 - 2019-07-04","ispublic":1,"isfriend":0,"isfamily":0},{"id":"52708853808","owner":"62907378@N07","secret":"b399cf8953","server":"65535","farm":66,"title":"Delta Nats sporting feathered hats - Red-winged Blackbird m. (Agelaius phoeniceus)","ispublic":1,"isfriend":0,"isfamily":0},{"id":"52708622249","owner":"62907378@N07","secret":"895b7cdc81","server":"65535","farm":66,"title":"Red-winged Blackbird m. (Agelaius phoeniceus)","ispublic":1,"isfriend":0,"isfamily":0},{"id":"52708779990","owner":"62907378@N07","secret":"33ce5fe2f3","server":"65535","farm":66,"title":"Delta Nats sporting feathered hats - Red-winged Blackbird m. (Agelaius phoeniceus)","ispublic":1,"isfriend":0,"isfamily":0},{"id":"52707844322","owner":"62907378@N07","secret":"01684abe1a","server":"65535","farm":66,"title":"Delta Nats sporting feathered hats - Red-winged Blackbird m. (Agelaius phoeniceus)","ispublic":1,"isfriend":0,"isfamily":0},{"id":"52708622024","owner":"62907378@N07","secret":"e68984a7c3","server":"65535","farm":66,"title":"Red-winged Blackbird m. (Agelaius phoeniceus)","ispublic":1,"isfriend":0,"isfamily":0},{"id":"52708621954","owner":"62907378@N07","secret":"5fa1b78e06","server":"65535","farm":66,"title":"Red-winged Blackbird m. (Agelaius phoeniceus)","ispublic":1,"isfriend":0,"isfamily":0},{"id":"52708779595","owner":"62907378@N07","secret":"25b5dd6b8d","server":"65535","farm":66,"title":"Delta Nats sporting feathered hats - Red-winged Blackbird m. (Agelaius phoeniceus)","ispublic":1,"isfriend":0,"isfamily":0},{"id":"52708779505","owner":"62907378@N07","secret":"bf3bb141ae","server":"65535","farm":66,"title":"Delta Nats sporting feathered hats - Red-winged Blackbird m. (Agelaius phoeniceus)","ispublic":1,"isfriend":0,"isfamily":0},{"id":"52708779270","owner":"62907378@N07","secret":"7e5b08a372","server":"65535","farm":66,"title":"Red-winged Blackbird m. (Agelaius phoeniceus)","ispublic":1,"isfriend":0,"isfamily":0},{"id":"52707769287","owner":"36142084@N05","secret":"c4983bffce","server":"65535","farm":66,"title":"R5_007831","ispublic":1,"isfriend":0,"isfamily":0},{"id":"52708705340","owner":"36142084@N05","secret":"12e22aa4bf","server":"65535","farm":66,"title":"R5_008001","ispublic":1,"isfriend":0,"isfamily":0},{"id":"52706610244","owner":"100108154@N02","secret":"35f4289514","server":"65535","farm":66,"title":"Well, There Goes The Neighborhood","ispublic":1,"isfriend":0,"isfamily":0},{"id":"52704974235","owner":"42415395@N07","secret":"f0bd174fab","server":"65535","farm":66,"title":"Red-winged Blackbird -- Juvenile Female (Agelaius phoeniceus); Santa Fe National Forest, NM, Thompson Ridge [Lou Feltz]","ispublic":1,"isfriend":0,"isfamily":0},{"id":"52703656289","owner":"68635735@N02","secret":"8c6bdcc088","server":"65535","farm":66,"title":"Red-winged Blackbird (Agelaius phoeniceus) male","ispublic":1,"isfriend":0,"isfamily":0},{"id":"52702471469","owner":"169771858@N03","secret":"32e54cba30","server":"65535","farm":66,"title":"Red-Winged Blackbird #1 - 2020-06-13","ispublic":1,"isfriend":0,"isfamily":0},{"id":"52701191687","owner":"62043870@N05","secret":"4a73d8a754","server":"65535","farm":66,"title":"Red-winged Blackbirds, Agelaius phoeniceus","ispublic":1,"isfriend":0,"isfamily":0},{"id":"52700586567","owner":"52450054@N04","secret":"e81145c155","server":"65535","farm":66,"title":"Red-winged Blackbird - Agelaius phoeniceus, Big Cypress National Preserve, Ochopee, Florida, February 6, 2022","ispublic":1,"isfriend":0,"isfamily":0},{"id":"52697716741","owner":"169771858@N03","secret":"e0a46dfd15","server":"65535","farm":66,"title":"Red-Breasted Woodpecker #3 - 2020-06-13","ispublic":1,"isfriend":0,"isfamily":0},{"id":"52697716576","owner":"169771858@N03","secret":"e304d71d4a","server":"65535","farm":66,"title":"Red-Winged Blackbird #2 - 2020-06-13","ispublic":1,"isfriend":0,"isfamily":0},{"id":"52696870842","owner":"65148649@N04","secret":"331d144106","server":"65535","farm":66,"title":"Red-Winged Blackbirds 02.11.23 Frye","ispublic":1,"isfriend":0,"isfamily":0},{"id":"52697389686","owner":"65148649@N04","secret":"512315da62","server":"65535","farm":66,"title":"Red-Winged Blackbird 02.11.23 Anderson","ispublic":1,"isfriend":0,"isfamily":0},{"id":"52697807900","owner":"65148649@N04","secret":"d01e5340ca","server":"65535","farm":66,"title":"Red-Winged Blackbirds 02.11.23 Anderson","ispublic":1,"isfriend":0,"isfamily":0},{"id":"52697450473","owner":"40941741@N03","secret":"432bccbec8","server":"65535","farm":66,"title":"In te Marsh","ispublic":1,"isfriend":0,"isfamily":0},{"id":"52696128534","owner":"70295563@N00","secret":"992569b292","server":"65535","farm":66,"title":"Showing his colors","ispublic":1,"isfriend":0,"isfamily":0},{"id":"52692870817","owner":"42034882@N00","secret":"eafd554258","server":"65535","farm":66,"title":"Epaulettes","ispublic":1,"isfriend":0,"isfamily":0},{"id":"52693268095","owner":"44904157@N04","secret":"42ef990e43","server":"65535","farm":66,"title":"The Odd Couple","ispublic":1,"isfriend":0,"isfamily":0},{"id":"52690453201","owner":"24608578@N00","secret":"f531e2ef2b","server":"65535","farm":66,"title":"Red-winged blackbird (Agelaius phoeniceus), male","ispublic":1,"isfriend":0,"isfamily":0},{"id":"52683319543","owner":"169771858@N03","secret":"af58554ede","server":"65535","farm":66,"title":"Red-Winged Blackbird #6 - 2019-07-04","ispublic":1,"isfriend":0,"isfamily":0},{"id":"52682470909","owner":"81058247@N08","secret":"cbae9527d2","server":"65535","farm":66,"title":"Red-winged Blackbirds (Agelaius phoeniceus)","ispublic":1,"isfriend":0,"isfamily":0},{"id":"52682187176","owner":"81058247@N08","secret":"39b0cf9168","server":"65535","farm":66,"title":"Red-winged Blackbirds (Agelaius phoeniceus)","ispublic":1,"isfriend":0,"isfamily":0},{"id":"52682470619","owner":"81058247@N08","secret":"0d2eb92946","server":"65535","farm":66,"title":"Red-winged Blackbirds (Agelaius phoeniceus)","ispublic":1,"isfriend":0,"isfamily":0},{"id":"52680102926","owner":"165841515@N03","secret":"1f74c06833","server":"65535","farm":66,"title":"Carouge \u00e0 \u00e9paulettes \/ Red-winged Blackbird \/ (Agelaius phoeniceus)","ispublic":1,"isfriend":0,"isfamily":0},{"id":"52679585067","owner":"165841515@N03","secret":"ba35992c21","server":"65535","farm":66,"title":"Carouge \u00e0 \u00e9paulettes \/ Red-winged Blackbird \/ (Agelaius phoeniceus)","ispublic":1,"isfriend":0,"isfamily":0},{"id":"52679584802","owner":"165841515@N03","secret":"693ca0e434","server":"65535","farm":66,"title":"Carouge \u00e0 \u00e9paulettes \/ Red-winged Blackbird \/ (Agelaius phoeniceus)","ispublic":1,"isfriend":0,"isfamily":0},{"id":"52679243772","owner":"65148649@N04","secret":"089c4beed0","server":"65535","farm":66,"title":"Red-Winged Blackbirds 02.04.23 Frye","ispublic":1,"isfriend":0,"isfamily":0},{"id":"52679672308","owner":"62907378@N07","secret":"dd87a1f1f4","server":"65535","farm":66,"title":"Pussywillow catkins and a male Red-winged Blackbird (Agelaius phoeniceus)","ispublic":1,"isfriend":0,"isfamily":0},{"id":"52679672328","owner":"62907378@N07","secret":"d91a66b61e","server":"65535","farm":66,"title":"Red-winged Blackbird (Agelaius phoeniceus)","ispublic":1,"isfriend":0,"isfamily":0},{"id":"52677451297","owner":"188352054@N08","secret":"309dc00f79","server":"65535","farm":66,"title":"IMG_6989","ispublic":1,"isfriend":0,"isfamily":0},{"id":"52678184025","owner":"129849840@N08","secret":"07e77a53d0","server":"65535","farm":66,"title":"Danger.... Hazard lights on...","ispublic":1,"isfriend":0,"isfamily":0},{"id":"52676833422","owner":"143326780@N02","secret":"b821a32665","server":"65535","farm":66,"title":"DSCN3532","ispublic":1,"isfriend":0,"isfamily":0},{"id":"52676833062","owner":"143326780@N02","secret":"0e4b69244e","server":"65535","farm":66,"title":"DSCN3533","ispublic":1,"isfriend":0,"isfamily":0},{"id":"52677344801","owner":"143326780@N02","secret":"a545d89ac8","server":"65535","farm":66,"title":"DSCN3593","ispublic":1,"isfriend":0,"isfamily":0},{"id":"52676335622","owner":"88932760@N08","secret":"0eb02438eb","server":"65535","farm":66,"title":"The Yell","ispublic":1,"isfriend":0,"isfamily":0},{"id":"52676638788","owner":"195041250@N03","secret":"4f92ac7627","server":"65535","farm":66,"title":"Red-winged Blackbird","ispublic":1,"isfriend":0,"isfamily":0},{"id":"52676145391","owner":"195041250@N03","secret":"751a982b39","server":"65535","farm":66,"title":"Red-winged Blackbird","ispublic":1,"isfriend":0,"isfamily":0},{"id":"52671455254","owner":"169771858@N03","secret":"54a1e008b9","server":"65535","farm":66,"title":"Red-Winged Blackbird #4 - 2019-07-04","ispublic":1,"isfriend":0,"isfamily":0},{"id":"52668353759","owner":"169771858@N03","secret":"3b4afeb942","server":"65535","farm":66,"title":"Red-Winged Blackbird - 2022-10-22","ispublic":1,"isfriend":0,"isfamily":0},{"id":"52667651325","owner":"169771858@N03","secret":"472b9603eb","server":"65535","farm":66,"title":"Red-Winged Blackbird #2 - 2019-07-04","ispublic":1,"isfriend":0,"isfamily":0},{"id":"52667582578","owner":"39177293@N03","secret":"8fb238893d","server":"65535","farm":66,"title":"Red-winged Blackbird","ispublic":1,"isfriend":0,"isfamily":0},{"id":"52666020308","owner":"143326780@N02","secret":"64dbab6bd6","server":"65535","farm":66,"title":"DSCN2908","ispublic":1,"isfriend":0,"isfamily":0},{"id":"52662861241","owner":"130605131@N08","secret":"eb28b258ff","server":"65535","farm":66,"title":"IMG_3722","ispublic":1,"isfriend":0,"isfamily":0},{"id":"52662861181","owner":"130605131@N08","secret":"bf2e4e58bc","server":"65535","farm":66,"title":"IMG_3726","ispublic":1,"isfriend":0,"isfamily":0},{"id":"52662861151","owner":"130605131@N08","secret":"9b99a54841","server":"65535","farm":66,"title":"IMG_3732","ispublic":1,"isfriend":0,"isfamily":0},{"id":"52663145674","owner":"130605131@N08","secret":"c00df7c520","server":"65535","farm":66,"title":"IMG_3734","ispublic":1,"isfriend":0,"isfamily":0},{"id":"52656977099","owner":"136180232@N08","secret":"33735be94f","server":"65535","farm":66,"title":"Red-winged Blackbird (Agelaius phoeniceus) JTD_9922","ispublic":1,"isfriend":0,"isfamily":0},{"id":"52656610101","owner":"8378957@N02","secret":"b3e93ed99e","server":"65535","farm":66,"title":"Red-winged Blackbird","ispublic":1,"isfriend":0,"isfamily":0},{"id":"52656952960","owner":"96136859@N05","secret":"4468d6c7c1","server":"65535","farm":66,"title":"P1250365","ispublic":1,"isfriend":0,"isfamily":0},{"id":"52655763655","owner":"187792860@N04","secret":"ffdc59c542","server":"65535","farm":66,"title":"Red-winged Blackbird (Agelaius phoeniceus)","ispublic":1,"isfriend":0,"isfamily":0},{"id":"52655278001","owner":"44904157@N04","secret":"d11aeb3c01","server":"65535","farm":66,"title":"Female Red-winged Blackbird","ispublic":1,"isfriend":0,"isfamily":0},{"id":"52654480044","owner":"163667952@N05","secret":"c205613972","server":"65535","farm":66,"title":"Red-winged Blackbird","ispublic":1,"isfriend":0,"isfamily":0},{"id":"52652734987","owner":"62043870@N05","secret":"e092abf1a6","server":"65535","farm":66,"title":"Red-winged Blackbird, Agelaius phoeniceus","ispublic":1,"isfriend":0,"isfamily":0},{"id":"52652652351","owner":"51433704@N06","secret":"0dc257362f","server":"65535","farm":66,"title":"Red-winged Blackbird (female)","ispublic":1,"isfriend":0,"isfamily":0},{"id":"52644992312","owner":"151381692@N04","secret":"0c6d582385","server":"65535","farm":66,"title":"Mixed Flock (Agelaius phoeniceus, Molothrus ater, Sturnus vulgaris, and Quiscalus quiscula)","ispublic":1,"isfriend":0,"isfamily":0},{"id":"52645174629","owner":"146455226@N02","secret":"0e4269c4f2","server":"65535","farm":66,"title":"Red-winged Blackbird","ispublic":1,"isfriend":0,"isfamily":0},{"id":"52642700952","owner":"8013969@N03","secret":"65f297689f","server":"65535","farm":66,"title":"Agelaius phoeniceus DFL btr22-1","ispublic":1,"isfriend":0,"isfamily":0},{"id":"52643549904","owner":"188352054@N08","secret":"5d5bb33423","server":"65535","farm":66,"title":"IMG_5615","ispublic":1,"isfriend":0,"isfamily":0},{"id":"52642815144","owner":"40941741@N03","secret":"df723e7364","server":"65535","farm":66,"title":"Red-winged Blackbird","ispublic":1,"isfriend":0,"isfamily":0},{"id":"52642552428","owner":"45246060@N03","secret":"8f263bb007","server":"65535","farm":66,"title":"Red-winged blackbird female","ispublic":1,"isfriend":0,"isfamily":0},{"id":"52642515125","owner":"45246060@N03","secret":"d62b881ef1","server":"65535","farm":66,"title":"Red-winged blackbird is singing out loud","ispublic":1,"isfriend":0,"isfamily":0},{"id":"52641217711","owner":"190067360@N08","secret":"1faafcf0cc","server":"65535","farm":66,"title":"Blackbird Swarm 4","ispublic":1,"isfriend":0,"isfamily":0},{"id":"52638688297","owner":"44034115@N08","secret":"de274f514e","server":"65535","farm":66,"title":"There Can Be Only One RWB","ispublic":1,"isfriend":0,"isfamily":0},{"id":"52637786274","owner":"65148649@N04","secret":"be73cda9cd","server":"65535","farm":66,"title":"Red-Winged Blackbird 01.07.23 Sheets","ispublic":1,"isfriend":0,"isfamily":0},{"id":"52637529296","owner":"65148649@N04","secret":"459a7e53b3","server":"65535","farm":66,"title":"Red-Winged Blackbird 01.07.23 Baryames","ispublic":1,"isfriend":0,"isfamily":0},{"id":"52636794045","owner":"182515684@N02","secret":"54c7e0fc5b","server":"65535","farm":66,"title":"Female \u2026 5415-201","ispublic":1,"isfriend":0,"isfamily":0},{"id":"52632949666","owner":"169771858@N03","secret":"268daee364","server":"65535","farm":66,"title":"Red-Winged Blackbird #1 - 2022-04-02","ispublic":1,"isfriend":0,"isfamily":0},{"id":"52632987349","owner":"163667952@N05","secret":"31f2a3c912","server":"65535","farm":66,"title":"Red-winged Blackbird","ispublic":1,"isfriend":0,"isfamily":0},{"id":"52631189956","owner":"47020313@N08","secret":"49edaf12bd","server":"65535","farm":66,"title":"Red winged Blackbird_MG_9319edtsg","ispublic":1,"isfriend":0,"isfamily":0},{"id":"52631228278","owner":"29380771@N06","secret":"e785435d3e","server":"65535","farm":66,"title":"Feeding Time - Red-winged Blackbirds","ispublic":1,"isfriend":0,"isfamily":0},{"id":"52623707671","owner":"90355165@N03","secret":"0f42e3fca1","server":"65535","farm":66,"title":"red-winged blackbird","ispublic":1,"isfriend":0,"isfamily":0},{"id":"52707769307","owner":"36142084@N05","secret":"a8bb47e3cf","server":"65535","farm":66,"title":"R5_007792","ispublic":1,"isfriend":0,"isfamily":0},{"id":"52708291201","owner":"36142084@N05","secret":"88e2e2f378","server":"65535","farm":66,"title":"R5_008220","ispublic":1,"isfriend":0,"isfamily":0},{"id":"52707769282","owner":"36142084@N05","secret":"fffa9458fe","server":"65535","farm":66,"title":"R5_007904","ispublic":1,"isfriend":0,"isfamily":0},{"id":"52708291186","owner":"36142084@N05","secret":"3896e7154f","server":"65535","farm":66,"title":"R5_007803","ispublic":1,"isfriend":0,"isfamily":0},{"id":"52708291181","owner":"36142084@N05","secret":"f6c996710d","server":"65535","farm":66,"title":"R5_007805","ispublic":1,"isfriend":0,"isfamily":0},{"id":"52679610670","owner":"62907378@N07","secret":"97d8de2c3f","server":"65535","farm":66,"title":"Red-winged Blackbird (Agelaius phoeniceus)","ispublic":1,"isfriend":0,"isfamily":0},{"id":"52665020667","owner":"143326780@N02","secret":"dfab5a4316","server":"65535","farm":66,"title":"DSCN2909","ispublic":1,"isfriend":0,"isfamily":0},{"id":"52663356488","owner":"130605131@N08","secret":"32b4f47e91","server":"65535","farm":66,"title":"IMG_3723","ispublic":1,"isfriend":0,"isfamily":0}]},"stat":"ok"}