{"photos":{"page":1,"pages":22,"perpage":100,"total":2184,"photo":[{"id":"52789645747","owner":"163443082@N02","secret":"964bfb614d","server":"65535","farm":66,"title":"Cardenal copete rojo","ispublic":1,"isfriend":0,"isfamily":0},{"id":"52788505306","owner":"163443082@N02","secret":"a0b6fb55f8","server":"65535","farm":66,"title":"Cardenal copete rojo","ispublic":1,"isfriend":0,"isfamily":0},{"id":"52782366026","owner":"190911304@N02","secret":"a6488c1fa2","server":"65535","farm":66,"title":"Cardenal copete colorado (Paroaria coronata).jpg","ispublic":1,"isfriend":0,"isfamily":0},{"id":"52731835738","owner":"48882304@N04","secret":"c9708a28b0","server":"65535","farm":66,"title":"5IMG6679 Red-Crested Cardinal","ispublic":1,"isfriend":0,"isfamily":0},{"id":"52711336826","owner":"67306066@N03","secret":"b880199a5a","server":"65535","farm":66,"title":"Red-crested Cardinal (Paroaria coronata)","ispublic":1,"isfriend":0,"isfamily":0},{"id":"52711336801","owner":"67306066@N03","secret":"fd8b0d4027","server":"65535","farm":66,"title":"Red-crested Cardinal (Paroaria coronata)","ispublic":1,"isfriend":0,"isfamily":0},{"id":"52690318936","owner":"27651543@N08","secret":"d44ca13b0e","server":"65535","farm":66,"title":"Red-crested Cardinal","ispublic":1,"isfriend":0,"isfamily":0},{"id":"52634825756","owner":"22224184@N00","secret":"a0397650a9","server":"65535","farm":66,"title":"Red-Crested Cardinal","ispublic":1,"isfriend":0,"isfamily":0},{"id":"52605908677","owner":"154657265@N08","secret":"cb708291ec","server":"65535","farm":66,"title":"Red-crested Cardinal - Paroaria coronata","ispublic":1,"isfriend":0,"isfamily":0},{"id":"52603473266","owner":"62953254@N04","secret":"a178f515da","server":"65535","farm":66,"title":"Cardeal\/Red-crested Cardinal","ispublic":1,"isfriend":0,"isfamily":0},{"id":"52553742647","owner":"193014445@N07","secret":"ea0f6e3541","server":"65535","farm":66,"title":"Grau-Kardinal, Paroaria coronata","ispublic":1,"isfriend":0,"isfamily":0},{"id":"52487169611","owner":"130819719@N05","secret":"4fc5dc5ea0","server":"65535","farm":66,"title":"Red-crested Cardinal (Juvenile)","ispublic":1,"isfriend":0,"isfamily":0},{"id":"52465533322","owner":"62953254@N04","secret":"f0c6b41255","server":"65535","farm":66,"title":"Cardeal\/Red-crested Cardinal","ispublic":1,"isfriend":0,"isfamily":0},{"id":"52459868137","owner":"27480477@N07","secret":"ba3c79482a","server":"65535","farm":66,"title":"9K0A5881 Red-Crested Cardinal, Paroaria coronata.","ispublic":1,"isfriend":0,"isfamily":0},{"id":"52456335770","owner":"190734746@N07","secret":"ee7ca4a8e4","server":"65535","farm":66,"title":"Cardenal com\u00fan (Paroaria coronata)","ispublic":1,"isfriend":0,"isfamily":0},{"id":"52401468225","owner":"52321838@N05","secret":"9b5f949369","server":"65535","farm":66,"title":"Red-crested Cardinal","ispublic":1,"isfriend":0,"isfamily":0},{"id":"52367870709","owner":"127954172@N03","secret":"9651d10a9d","server":"65535","farm":66,"title":"cardenal_NGR4259","ispublic":1,"isfriend":0,"isfamily":0},{"id":"52351443633","owner":"189304108@N05","secret":"2156dbf1dd","server":"65535","farm":66,"title":"Ojitos esp\u00eda","ispublic":1,"isfriend":0,"isfamily":0},{"id":"52296947950","owner":"195164158@N04","secret":"052f5ed05a","server":"65535","farm":66,"title":"DSC_9543-2022-08-13-Nikon Z9-Nikkor 400mm F2.8-Ching Wei Chang \u5f35\u6176\u7dad \u7dad\u54e5","ispublic":1,"isfriend":0,"isfamily":0},{"id":"52292548336","owner":"8904060@N06","secret":"f0bc9718d9","server":"65535","farm":66,"title":"Red-crested cardinal","ispublic":1,"isfriend":0,"isfamily":0},{"id":"52290814973","owner":"196264892@N08","secret":"7686220c1b","server":"65535","farm":66,"title":"Red-crested Cardinal","ispublic":1,"isfriend":0,"isfamily":0},{"id":"52259017078","owner":"93140244@N02","secret":"aae32afa29","server":"65535","farm":66,"title":"Red-crested Cardinal","ispublic":1,"isfriend":0,"isfamily":0},{"id":"52200303317","owner":"26128697@N07","secret":"2de2c56515","server":"65535","farm":66,"title":"cardeal (Paroaria coronata)","ispublic":1,"isfriend":0,"isfamily":0},{"id":"52182177282","owner":"190911304@N02","secret":"8e1b7442f3","server":"65535","farm":66,"title":"Cardenal copete colorado - Paroaria coronata","ispublic":1,"isfriend":0,"isfamily":0},{"id":"52158287425","owner":"158010417@N08","secret":"05414e451b","server":"65535","farm":66,"title":"Cardenal copete rojo - Paroaria coronata","ispublic":1,"isfriend":0,"isfamily":0},{"id":"52140206834","owner":"93140244@N02","secret":"9135e16931","server":"65535","farm":66,"title":"Red-crested Cardinal","ispublic":1,"isfriend":0,"isfamily":0},{"id":"52113210429","owner":"155018023@N05","secret":"6026bff03e","server":"65535","farm":66,"title":"Red-crested Cardinal","ispublic":1,"isfriend":0,"isfamily":0},{"id":"52105932060","owner":"7574394@N02","secret":"c00a57f575","server":"65535","farm":66,"title":"Cardenal \/ Red-crested Cardinal","ispublic":1,"isfriend":0,"isfamily":0},{"id":"52088357787","owner":"28963016@N04","secret":"8af35d0ddb","server":"65535","farm":66,"title":"Red-crested Cardinal","ispublic":1,"isfriend":0,"isfamily":0},{"id":"52078761706","owner":"195164158@N04","secret":"49d629bbf8","server":"65535","farm":66,"title":"DSC_0100-2022-03-26-Nikon Z9-Nikkor 600mm F4-Ching Wei Chang-\u5f35\u6176\u7dad-\u7dad\u54e5","ispublic":1,"isfriend":0,"isfamily":0},{"id":"52055334236","owner":"62953254@N04","secret":"9dd9f77273","server":"65535","farm":66,"title":"Cardeal\/Red-crested Cardinal","ispublic":1,"isfriend":0,"isfamily":0},{"id":"52035017131","owner":"195164158@N04","secret":"ac096a2b47","server":"65535","farm":66,"title":"DSC_0135-2022-03-26-Nikon Z9-Nikkor 600mm F4-Ching Wei Chang \u5f35\u6176\u7dad \u7dad\u54e5","ispublic":1,"isfriend":0,"isfamily":0},{"id":"52035512485","owner":"195164158@N04","secret":"b32c87366c","server":"65535","farm":66,"title":"DSC_0063-2022-03-26-Nikon Z9-Nikkor 600mm F4-Ching Wei Chang \u5f35\u6176\u7dad \u7dad\u54e5","ispublic":1,"isfriend":0,"isfamily":0},{"id":"52031733257","owner":"84237742@N00","secret":"3606f156ee","server":"65535","farm":66,"title":"- CARDENAL CRESTADO (Paroaria coronata- Red crested Cardina )  - toma  en Reserva COSTANERA SUR .RECS. Buenos Aires Argentina.","ispublic":1,"isfriend":0,"isfamily":0},{"id":"52032811243","owner":"84237742@N00","secret":"1769600653","server":"65535","farm":66,"title":"- CARDENAL CRESTADO (Paroaria coronata- Red crested Cardina )  - toma  en Reserva COSTANERA SUR .RECS. Buenos Aires Argentina.","ispublic":1,"isfriend":0,"isfamily":0},{"id":"52030585528","owner":"195164158@N04","secret":"3a3f25006b","server":"65535","farm":66,"title":"DSC_1006-2022-03-26-Nikon Z9-Nikkor 600mm F4-Ching Wei Chang \u5f35\u6176\u7dad \u7dad\u54e5","ispublic":1,"isfriend":0,"isfamily":0},{"id":"52030548286","owner":"195164158@N04","secret":"6e782b893b","server":"65535","farm":66,"title":"DSC_0427-2022-03-26-Nikon Z9-Nikkor 600mm F4-Ching Wei Chang \u5f35\u6176\u7dad \u7dad\u54e5","ispublic":1,"isfriend":0,"isfamily":0},{"id":"52030797064","owner":"195164158@N04","secret":"a672fe9090","server":"65535","farm":66,"title":"DSC_0406-2022-03-26-Nikon Z9-Nikkor 600mm F4-Ching Wei Chang \u5f35\u6176\u7dad \u7dad\u54e5","ispublic":1,"isfriend":0,"isfamily":0},{"id":"52030580273","owner":"195164158@N04","secret":"fd1091623c","server":"65535","farm":66,"title":"DSC_029-2022-03-26-Nikon Z9-Nikkor 600mm F4-Ching Wei Chang \u5f35\u6176\u7dad \u7dad\u54e5","ispublic":1,"isfriend":0,"isfamily":0},{"id":"52030544011","owner":"195164158@N04","secret":"ae95d69918","server":"65535","farm":66,"title":"DSC_060-2022-03-26-Nikon Z9-Nikkor 600mm F4-Ching Wei Chang \u5f35\u6176\u7dad \u7dad\u54e5","ispublic":1,"isfriend":0,"isfamily":0},{"id":"52029809675","owner":"195164158@N04","secret":"160284c351","server":"65535","farm":66,"title":"DSC_0370-2022-03-26-Nikon Z9-Nikkor 600mm F4-Ching Wei Chang \u5f35\u6176\u7dad \u7dad\u54e5","ispublic":1,"isfriend":0,"isfamily":0},{"id":"52029329153","owner":"195164158@N04","secret":"4f84c5dd64","server":"65535","farm":66,"title":"DSC_0614-2022-03-26-Nikon Z9-Nikkor 600mm F4-Ching Wei Chang \u5f35\u6176\u7dad \u7dad\u54e5","ispublic":1,"isfriend":0,"isfamily":0},{"id":"52029548265","owner":"195164158@N04","secret":"40387b0139","server":"65535","farm":66,"title":"DSC_XXX1-2022-03-26-Nikon Z9-Nikkor 600mm F4-Ching Wei Chang \u5f35\u6176\u7dad \u7dad\u54e5","ispublic":1,"isfriend":0,"isfamily":0},{"id":"52004505007","owner":"126805965@N03","secret":"5b1b1444e4","server":"65535","farm":66,"title":"Record shot of Red-crested Cardinal (Paroaria coronata) - Kauai, HI","ispublic":1,"isfriend":0,"isfamily":0},{"id":"52000029394","owner":"75814310@N04","secret":"1abac4e960","server":"65535","farm":66,"title":"1O4A3798","ispublic":1,"isfriend":0,"isfamily":0},{"id":"51995405164","owner":"57465751@N05","secret":"32694ae153","server":"65535","farm":66,"title":"Red-crested Cardinal (Paroaria coronata), Kapiolani Park, Honolulu, Oahu, HI","ispublic":1,"isfriend":0,"isfamily":0},{"id":"51995330864","owner":"75941387@N02","secret":"0c92fd2d37","server":"65535","farm":66,"title":"DSC_7112","ispublic":1,"isfriend":0,"isfamily":0},{"id":"51995265164","owner":"75941387@N02","secret":"241e288c9f","server":"65535","farm":66,"title":"DSC_7113","ispublic":1,"isfriend":0,"isfamily":0},{"id":"51991824473","owner":"75814310@N04","secret":"a3606bfafe","server":"65535","farm":66,"title":"1O4A3965","ispublic":1,"isfriend":0,"isfamily":0},{"id":"51984155078","owner":"26128697@N07","secret":"c50ec94d10","server":"65535","farm":66,"title":"cardeal (Paroaria coronata)","ispublic":1,"isfriend":0,"isfamily":0},{"id":"51984155003","owner":"26128697@N07","secret":"c6c6927268","server":"65535","farm":66,"title":"cardeal (Paroaria coronata)","ispublic":1,"isfriend":0,"isfamily":0},{"id":"51984095031","owner":"26128697@N07","secret":"7fd89b81f3","server":"65535","farm":66,"title":"cardeal (Paroaria coronata)","ispublic":1,"isfriend":0,"isfamily":0},{"id":"51978814129","owner":"84237742@N00","secret":"86bef05bf5","server":"65535","farm":66,"title":"- CARDENAL CRESTADO (Paroaria coronata- Red crested Cardina )  - toma  en Reserva LAGO DE REGATAS .. Buenos Aires Argentina.","ispublic":1,"isfriend":0,"isfamily":0},{"id":"51969513945","owner":"48203277@N03","secret":"48886f83cc","server":"65535","farm":66,"title":"\u51a0\u7d05\u881f\u5634\u96c0","ispublic":1,"isfriend":0,"isfamily":0},{"id":"51967539644","owner":"65418324@N06","secret":"f89a77166a","server":"65535","farm":66,"title":"Cardenal copete rojo","ispublic":1,"isfriend":0,"isfamily":0},{"id":"51966251667","owner":"65418324@N06","secret":"44685816db","server":"65535","farm":66,"title":"Cardenal copete rojo","ispublic":1,"isfriend":0,"isfamily":0},{"id":"51967319498","owner":"65418324@N06","secret":"8725197784","server":"65535","farm":66,"title":"Cardenal copete rojo","ispublic":1,"isfriend":0,"isfamily":0},{"id":"51963514270","owner":"85679050@N06","secret":"c798ed1b6b","server":"65535","farm":66,"title":"\u51a0\u7d05\u881f\u5634\u96c0 Paroaria coronata","ispublic":1,"isfriend":0,"isfamily":0},{"id":"51963514250","owner":"85679050@N06","secret":"b8b59479ee","server":"65535","farm":66,"title":"\u51a0\u7d05\u881f\u5634\u96c0 Paroaria coronata","ispublic":1,"isfriend":0,"isfamily":0},{"id":"51963237644","owner":"85679050@N06","secret":"80da00761d","server":"65535","farm":66,"title":"\u51a0\u7d05\u881f\u5634\u96c0 Paroaria coronata","ispublic":1,"isfriend":0,"isfamily":0},{"id":"51963020113","owner":"85679050@N06","secret":"2b4cb1e495","server":"65535","farm":66,"title":"\u51a0\u7d05\u881f\u5634\u96c0 Paroaria coronata","ispublic":1,"isfriend":0,"isfamily":0},{"id":"51961956452","owner":"85679050@N06","secret":"53d6eb3c85","server":"65535","farm":66,"title":"\u51a0\u7d05\u881f\u5634\u96c0 Paroaria coronata\u51a0\u7d05\u881f\u5634\u96c0 Paroaria coronata","ispublic":1,"isfriend":0,"isfamily":0},{"id":"51962954856","owner":"85679050@N06","secret":"584e875974","server":"65535","farm":66,"title":"DSC_5355","ispublic":1,"isfriend":0,"isfamily":0},{"id":"51963020063","owner":"85679050@N06","secret":"39cd9d12ec","server":"65535","farm":66,"title":"\u51a0\u7d05\u881f\u5634\u96c0 Paroaria coronata","ispublic":1,"isfriend":0,"isfamily":0},{"id":"51961956372","owner":"85679050@N06","secret":"8bbb562ed1","server":"65535","farm":66,"title":"\u51a0\u7d05\u881f\u5634\u96c0 Paroaria coronata","ispublic":1,"isfriend":0,"isfamily":0},{"id":"51961956412","owner":"85679050@N06","secret":"0bce2bfa9b","server":"65535","farm":66,"title":"\u51a0\u7d05\u881f\u5634\u96c0 Paroaria coronata","ispublic":1,"isfriend":0,"isfamily":0},{"id":"51961727576","owner":"191213614@N06","secret":"7778895d50","server":"65535","farm":66,"title":"Cardenal copete rojo -Paroaria coronata-","ispublic":1,"isfriend":0,"isfamily":0},{"id":"51959628671","owner":"34019920@N06","secret":"3b508c5b10","server":"65535","farm":66,"title":"Red-Crested Cardinal","ispublic":1,"isfriend":0,"isfamily":0},{"id":"52580779088","owner":"153973412@N04","secret":"bca83a175d","server":"65535","farm":66,"title":"Red-crested Cardinal-Paroaria coronata, Oahu, HI","ispublic":1,"isfriend":0,"isfamily":0},{"id":"52520107887","owner":"196974501@N05","secret":"2463101491","server":"65535","farm":66,"title":"Cardenal Com\u00fan","ispublic":1,"isfriend":0,"isfamily":0},{"id":"52507154558","owner":"182381287@N07","secret":"e01cc9f66b","server":"65535","farm":66,"title":"Cardeal (Paroaria coronata)","ispublic":1,"isfriend":0,"isfamily":0},{"id":"52493808612","owner":"171333438@N08","secret":"8b21f085be","server":"65535","farm":66,"title":"Paroare hupp\u00e9 (Paroaria coronata)","ispublic":1,"isfriend":0,"isfamily":0},{"id":"52435650675","owner":"126210667@N05","secret":"bd2d0eae63","server":"65535","farm":66,"title":"RDB04792","ispublic":1,"isfriend":0,"isfamily":0},{"id":"52434691157","owner":"126210667@N05","secret":"d3fd652f17","server":"65535","farm":66,"title":"RDB04793","ispublic":1,"isfriend":0,"isfamily":0},{"id":"52420933529","owner":"124732887@N02","secret":"f8c959760d","server":"65535","farm":66,"title":"Red-crested Cardinal","ispublic":1,"isfriend":0,"isfamily":0},{"id":"52420137732","owner":"124732887@N02","secret":"50b7a4b428","server":"65535","farm":66,"title":"Red-crested Cardinal","ispublic":1,"isfriend":0,"isfamily":0},{"id":"52418878597","owner":"124732887@N02","secret":"7235ddeab4","server":"65535","farm":66,"title":"Red-crested Cardinal","ispublic":1,"isfriend":0,"isfamily":0},{"id":"52419830590","owner":"124732887@N02","secret":"36a09612ea","server":"65535","farm":66,"title":"Red-crested Cardinal","ispublic":1,"isfriend":0,"isfamily":0},{"id":"52405569639","owner":"21584095@N00","secret":"e0630e19b9","server":"65535","farm":66,"title":"Red-crested Cardinal (Paroaria coronata)","ispublic":1,"isfriend":0,"isfamily":0},{"id":"52399042950","owner":"48938938@N04","secret":"4376a90534","server":"65535","farm":66,"title":"Red-crested Cardinal and Grayish Baywing_Paroaria coronata_Agelaioides badius_Ascanio_Pantanal_Brazil_DZ3A6026","ispublic":1,"isfriend":0,"isfamily":0},{"id":"52321922382","owner":"136354582@N02","secret":"bda2ba781a","server":"65535","farm":66,"title":"Paroaria coronata","ispublic":1,"isfriend":0,"isfamily":0},{"id":"52311892805","owner":"8065544@N08","secret":"0436375a98","server":"65535","farm":66,"title":"Red-crested Cardinal (Paroaria coronata)","ispublic":1,"isfriend":0,"isfamily":0},{"id":"52232454933","owner":"136354582@N02","secret":"0535534ff2","server":"65535","farm":66,"title":"Paroaria coronata","ispublic":1,"isfriend":0,"isfamily":0},{"id":"52226721653","owner":"127542576@N05","secret":"0829448f5d","server":"65535","farm":66,"title":"\u7d05\u51a0\u81d8\u5634\u96c0\u3014\u7d05\u51a0\u81d8\u5634\u9d50\u3015 (Paroaria coronata#Red-crested Cardinal)","ispublic":1,"isfriend":0,"isfamily":0},{"id":"52225707492","owner":"127542576@N05","secret":"f5744a9fe6","server":"65535","farm":66,"title":"\u7d05\u51a0\u81d8\u5634\u96c0\u3014\u7d05\u51a0\u81d8\u5634\u9d50\u3015 (Paroaria coronata#Red-crested Cardinal)","ispublic":1,"isfriend":0,"isfamily":0},{"id":"52227195930","owner":"127542576@N05","secret":"1ff9c3b9a3","server":"65535","farm":66,"title":"\u7d05\u51a0\u81d8\u5634\u96c0\u3014\u7d05\u51a0\u81d8\u5634\u9d50\u3015 (Paroaria coronata#Red-crested Cardinal)","ispublic":1,"isfriend":0,"isfamily":0},{"id":"52225707407","owner":"127542576@N05","secret":"4d49759fa1","server":"65535","farm":66,"title":"\u7d05\u51a0\u81d8\u5634\u96c0\u3014\u7d05\u51a0\u81d8\u5634\u9d50\u3015 (Paroaria coronata#Red-crested Cardinal)","ispublic":1,"isfriend":0,"isfamily":0},{"id":"52200303647","owner":"26128697@N07","secret":"577ba94c9a","server":"65535","farm":66,"title":"cardeal (Paroaria coronata)","ispublic":1,"isfriend":0,"isfamily":0},{"id":"52196684317","owner":"26128697@N07","secret":"a722bc456d","server":"65535","farm":66,"title":"cardeal (Paroaria coronata)","ispublic":1,"isfriend":0,"isfamily":0},{"id":"52196684282","owner":"26128697@N07","secret":"ba37970b93","server":"65535","farm":66,"title":"cardeal (Paroaria coronata)","ispublic":1,"isfriend":0,"isfamily":0},{"id":"52197704928","owner":"26128697@N07","secret":"040f6afe9b","server":"65535","farm":66,"title":"cardeal (Paroaria coronata)","ispublic":1,"isfriend":0,"isfamily":0},{"id":"52198181525","owner":"26128697@N07","secret":"3ffc0461ed","server":"65535","farm":66,"title":"cardeal (Paroaria coronata)","ispublic":1,"isfriend":0,"isfamily":0},{"id":"52101730656","owner":"187346531@N05","secret":"621c9bc6fc","server":"65535","farm":66,"title":"cardeal (Paroaria coronata)","ispublic":1,"isfriend":0,"isfamily":0},{"id":"52004269517","owner":"187346531@N05","secret":"7da348ed1c","server":"65535","farm":66,"title":"cardeal (Paroaria coronata)","ispublic":1,"isfriend":0,"isfamily":0},{"id":"51992407059","owner":"12639178@N07","secret":"dc32ef858d","server":"65535","farm":66,"title":"Rotschopftangare, Rio Taquari","ispublic":1,"isfriend":0,"isfamily":0},{"id":"51983079307","owner":"26128697@N07","secret":"f36dfae16d","server":"65535","farm":66,"title":"cardeal (Paroaria coronata)","ispublic":1,"isfriend":0,"isfamily":0},{"id":"51967539539","owner":"65418324@N06","secret":"ab0a4241a7","server":"65535","farm":66,"title":"Cardenal copete rojo","ispublic":1,"isfriend":0,"isfamily":0},{"id":"51963312219","owner":"187346531@N05","secret":"9697bf4d28","server":"65535","farm":66,"title":"cardeal (Paroaria coronata)","ispublic":1,"isfriend":0,"isfamily":0},{"id":"51961432489","owner":"96574825@N03","secret":"38458a9f3c","server":"65535","farm":66,"title":"Paroaria coronata","ispublic":1,"isfriend":0,"isfamily":0},{"id":"51958054862","owner":"187346531@N05","secret":"c087ba3fec","server":"65535","farm":66,"title":"cardeal (Paroaria coronata)","ispublic":1,"isfriend":0,"isfamily":0}]},"stat":"ok"}