{"photos":{"page":1,"pages":91,"perpage":100,"total":9098,"photo":[{"id":"52787283331","owner":"91064752@N03","secret":"1d98409c0f","server":"65535","farm":66,"title":"Red-breasted Merganser - The Wet Head","ispublic":1,"isfriend":0,"isfamily":0},{"id":"52784243599","owner":"61241315@N00","secret":"1d1cd7485d","server":"0","farm":0,"title":"Red-breasted Merganser_3316.MP4","ispublic":1,"isfriend":0,"isfamily":0},{"id":"52783449032","owner":"61241315@N00","secret":"9680628887","server":"0","farm":0,"title":"Red-breasted Merganser_3409.MP4","ispublic":1,"isfriend":0,"isfamily":0},{"id":"52783997356","owner":"61241315@N00","secret":"8d4417e1ce","server":"0","farm":0,"title":"Red-breasted Merganser_3410.MP4","ispublic":1,"isfriend":0,"isfamily":0},{"id":"52784006076","owner":"61241315@N00","secret":"a3d2eb47ec","server":"0","farm":0,"title":"Red-breasted Merganser_3304.MP4","ispublic":1,"isfriend":0,"isfamily":0},{"id":"52784399185","owner":"61241315@N00","secret":"f7328a77ed","server":"0","farm":0,"title":"Red-breasted Merganser_3329.MP4","ispublic":1,"isfriend":0,"isfamily":0},{"id":"52784010491","owner":"61241315@N00","secret":"c803c49df2","server":"0","farm":0,"title":"Red-breasted Merganser_3261.MP4","ispublic":1,"isfriend":0,"isfamily":0},{"id":"52784000096","owner":"61241315@N00","secret":"82acca758c","server":"0","farm":0,"title":"Red-breasted Merganser_3405.MP4","ispublic":1,"isfriend":0,"isfamily":0},{"id":"52783995416","owner":"61241315@N00","secret":"f4698ac7a4","server":"0","farm":0,"title":"Red-breasted Merganser_3519.MP4","ispublic":1,"isfriend":0,"isfamily":0},{"id":"52784403785","owner":"61241315@N00","secret":"8cb87b56e3","server":"0","farm":0,"title":"Red-breasted Merganser_3302,05.MP4","ispublic":1,"isfriend":0,"isfamily":0},{"id":"52784010896","owner":"61241315@N00","secret":"5f2302f4f5","server":"65535","farm":66,"title":"Red-breasted Merganser_N3308","ispublic":1,"isfriend":0,"isfamily":0},{"id":"52784010846","owner":"61241315@N00","secret":"b77a02f2da","server":"65535","farm":66,"title":"Red-breasted Merganser_N3326","ispublic":1,"isfriend":0,"isfamily":0},{"id":"52783461022","owner":"61241315@N00","secret":"61ddd0425a","server":"65535","farm":66,"title":"Red-breasted Merganser_N3315","ispublic":1,"isfriend":0,"isfamily":0},{"id":"52784407320","owner":"61241315@N00","secret":"c799d3dac4","server":"65535","farm":66,"title":"Red-breasted Merganser_N3327","ispublic":1,"isfriend":0,"isfamily":0},{"id":"52784249749","owner":"61241315@N00","secret":"fb16f61057","server":"65535","farm":66,"title":"Red-breasted Merganser_N3330","ispublic":1,"isfriend":0,"isfamily":0},{"id":"52784010791","owner":"61241315@N00","secret":"7f1f6f61f9","server":"65535","farm":66,"title":"Red-breasted Merganser_N3333","ispublic":1,"isfriend":0,"isfamily":0},{"id":"52784407260","owner":"61241315@N00","secret":"6362d89dbc","server":"65535","farm":66,"title":"Red-breasted Merganser_N3336","ispublic":1,"isfriend":0,"isfamily":0},{"id":"52784407240","owner":"61241315@N00","secret":"dea50c1d08","server":"65535","farm":66,"title":"Red-breasted Merganser_N3338","ispublic":1,"isfriend":0,"isfamily":0},{"id":"52784407225","owner":"61241315@N00","secret":"f02469d4da","server":"65535","farm":66,"title":"Red-breasted Merganser_N3339","ispublic":1,"isfriend":0,"isfamily":0},{"id":"52784010701","owner":"61241315@N00","secret":"70d4306d01","server":"65535","farm":66,"title":"Red-breasted Merganser_N3360","ispublic":1,"isfriend":0,"isfamily":0},{"id":"52784467813","owner":"61241315@N00","secret":"f977f7b127","server":"65535","farm":66,"title":"Red-breasted Merganser_N3350","ispublic":1,"isfriend":0,"isfamily":0},{"id":"52784467778","owner":"61241315@N00","secret":"51f2e162b2","server":"65535","farm":66,"title":"Red-breasted Merganser_N3362","ispublic":1,"isfriend":0,"isfamily":0},{"id":"52783460847","owner":"61241315@N00","secret":"ec6c01b484","server":"65535","farm":66,"title":"Red-breasted Merganser_N3368","ispublic":1,"isfriend":0,"isfamily":0},{"id":"52784249549","owner":"61241315@N00","secret":"ba530b4434","server":"65535","farm":66,"title":"Red-breasted Merganser_N3364","ispublic":1,"isfriend":0,"isfamily":0},{"id":"52784407075","owner":"61241315@N00","secret":"ba866f7fb4","server":"65535","farm":66,"title":"Red-breasted Merganser_N3374","ispublic":1,"isfriend":0,"isfamily":0},{"id":"52784407110","owner":"61241315@N00","secret":"4e7166795f","server":"65535","farm":66,"title":"Red-breasted Merganser_N3370","ispublic":1,"isfriend":0,"isfamily":0},{"id":"52784467668","owner":"61241315@N00","secret":"1f88369837","server":"65535","farm":66,"title":"Red-breasted Merganser_N3386","ispublic":1,"isfriend":0,"isfamily":0},{"id":"52784249434","owner":"61241315@N00","secret":"2f50fe6fee","server":"65535","farm":66,"title":"DSCN3397","ispublic":1,"isfriend":0,"isfamily":0},{"id":"52784467663","owner":"61241315@N00","secret":"1c812e14cd","server":"65535","farm":66,"title":"Red-breasted Merganser_N3393","ispublic":1,"isfriend":0,"isfamily":0},{"id":"52783460747","owner":"61241315@N00","secret":"62c505fa0c","server":"65535","farm":66,"title":"Red-breasted Merganser_N3403","ispublic":1,"isfriend":0,"isfamily":0},{"id":"52784010481","owner":"61241315@N00","secret":"dc48a2e739","server":"65535","farm":66,"title":"Red-breasted Merganser_N3404","ispublic":1,"isfriend":0,"isfamily":0},{"id":"52783460702","owner":"61241315@N00","secret":"8631ea4419","server":"65535","farm":66,"title":"Red-breasted Merganser_N3408","ispublic":1,"isfriend":0,"isfamily":0},{"id":"52784350600","owner":"36685968@N00","secret":"6a43d988c8","server":"65535","farm":66,"title":"Red-breasted Merganser (Mergus serrator)","ispublic":1,"isfriend":0,"isfamily":0},{"id":"52783814576","owner":"12639178@N07","secret":"55c29f1e9f","server":"65535","farm":66,"title":"Mittels\u00e4ger, leider sehr weit draussen","ispublic":1,"isfriend":0,"isfamily":0},{"id":"52782701405","owner":"37242840@N07","secret":"2290d0e600","server":"65535","farm":66,"title":"Red-breasted Merganser, Mergus serrator, female (1)","ispublic":1,"isfriend":0,"isfamily":0},{"id":"52782759298","owner":"37242840@N07","secret":"d082fb18af","server":"65535","farm":66,"title":"Red-breasted Merganser, Mergus serrator, female (4)","ispublic":1,"isfriend":0,"isfamily":0},{"id":"52782759258","owner":"37242840@N07","secret":"3b047c74e2","server":"65535","farm":66,"title":"Red-breasted Merganser, Mergus serrator, female (6)","ispublic":1,"isfriend":0,"isfamily":0},{"id":"52782701310","owner":"37242840@N07","secret":"3a2d1bca18","server":"65535","farm":66,"title":"Red-breasted Merganser, Mergus serrator, male (1)","ispublic":1,"isfriend":0,"isfamily":0},{"id":"52782701275","owner":"37242840@N07","secret":"9bb154c4c6","server":"65535","farm":66,"title":"Red-breasted Merganser, Mergus serrator, male (5)","ispublic":1,"isfriend":0,"isfamily":0},{"id":"52782296546","owner":"37242840@N07","secret":"805ac3b692","server":"65535","farm":66,"title":"Red-breasted Merganser, Mergus serrator, male (6)","ispublic":1,"isfriend":0,"isfamily":0},{"id":"52782676805","owner":"37242840@N07","secret":"35689ee55a","server":"65535","farm":66,"title":"Red-breasted Merganser, Mergus serrator, male (1)","ispublic":1,"isfriend":0,"isfamily":0},{"id":"52782676765","owner":"37242840@N07","secret":"39d33eb97d","server":"65535","farm":66,"title":"Red-breasted Merganser, Mergus serrator, male (7)","ispublic":1,"isfriend":0,"isfamily":0},{"id":"52782271046","owner":"37242840@N07","secret":"7df5fe71b1","server":"65535","farm":66,"title":"Red-breasted Mergansers, Mergus serrator (2)","ispublic":1,"isfriend":0,"isfamily":0},{"id":"52780509706","owner":"195041250@N03","secret":"9c22ff5187","server":"65535","farm":66,"title":"Red-breasted Merganser","ispublic":1,"isfriend":0,"isfamily":0},{"id":"52779960369","owner":"139237357@N06","secret":"04026fe1e1","server":"65535","farm":66,"title":"Red-breasted Merganser","ispublic":1,"isfriend":0,"isfamily":0},{"id":"52779599501","owner":"7261670@N03","secret":"28098ee7af","server":"65535","farm":66,"title":"Red-breasted Merganser","ispublic":1,"isfriend":0,"isfamily":0},{"id":"52780073918","owner":"7261670@N03","secret":"3edea78517","server":"65535","farm":66,"title":"Red-breasted Merganser","ispublic":1,"isfriend":0,"isfamily":0},{"id":"52777090760","owner":"12639178@N07","secret":"a0baa7fd42","server":"65535","farm":66,"title":"Mittels\u00e4ger","ispublic":1,"isfriend":0,"isfamily":0},{"id":"52776678076","owner":"12639178@N07","secret":"39fbfc6b3d","server":"65535","farm":66,"title":"Mittels\u00e4ger","ispublic":1,"isfriend":0,"isfamily":0},{"id":"52773190544","owner":"91064752@N03","secret":"75846ea3fb","server":"65535","farm":66,"title":"Wow, This Gal's Really Tall","ispublic":1,"isfriend":0,"isfamily":0},{"id":"52770284523","owner":"39138537@N06","secret":"5f89eaf706","server":"65535","farm":66,"title":"Red-breasted Merganser \/ Topp\u00f6nd (Mergus serrator)","ispublic":1,"isfriend":0,"isfamily":0},{"id":"52767197456","owner":"39445433@N02","secret":"12c4a11148","server":"65535","farm":66,"title":"Red-Breasted Merganser","ispublic":1,"isfriend":0,"isfamily":0},{"id":"52767449584","owner":"39445433@N02","secret":"790af3c87b","server":"65535","farm":66,"title":"Red-Breasted Merganser","ispublic":1,"isfriend":0,"isfamily":0},{"id":"52766658867","owner":"39445433@N02","secret":"0bfb537c0f","server":"65535","farm":66,"title":"Red-Breasted Merganser","ispublic":1,"isfriend":0,"isfamily":0},{"id":"52766892713","owner":"90886369@N06","secret":"d1151fbc4a","server":"65535","farm":66,"title":"Red-breasted Merganser (Mergus serrator)","ispublic":1,"isfriend":0,"isfamily":0},{"id":"52765565444","owner":"18378985@N08","secret":"da8235f905","server":"65535","farm":66,"title":"Red-breasted Merganser","ispublic":1,"isfriend":0,"isfamily":0},{"id":"52761430713","owner":"21875179@N06","secret":"c5a6a4b247","server":"65535","farm":66,"title":"RED-BREASTED MERGANSER","ispublic":1,"isfriend":0,"isfamily":0},{"id":"52760482808","owner":"41710899@N08","secret":"2ffd0be6c4","server":"65535","farm":66,"title":"Red-breasted Merganser","ispublic":1,"isfriend":0,"isfamily":0},{"id":"52760402410","owner":"41710899@N08","secret":"c653663889","server":"65535","farm":66,"title":"Red-breasted Mergansers","ispublic":1,"isfriend":0,"isfamily":0},{"id":"52760402365","owner":"41710899@N08","secret":"66e79bba6b","server":"65535","farm":66,"title":"Red-breasted Merganser","ispublic":1,"isfriend":0,"isfamily":0},{"id":"52760244449","owner":"41710899@N08","secret":"5fc16c82cc","server":"65535","farm":66,"title":"Red-breasted Merganser","ispublic":1,"isfriend":0,"isfamily":0},{"id":"52757615592","owner":"84169650@N07","secret":"cf89afa64e","server":"65535","farm":66,"title":"Red Breasted Merganser","ispublic":1,"isfriend":0,"isfamily":0},{"id":"52758638698","owner":"84169650@N07","secret":"e92191fa72","server":"65535","farm":66,"title":"Red Breasted Merganser","ispublic":1,"isfriend":0,"isfamily":0},{"id":"52757264113","owner":"12639178@N07","secret":"c6048ec737","server":"65535","farm":66,"title":"Mittels\u00e4ger, Geltinger Birk, Ostsee","ispublic":1,"isfriend":0,"isfamily":0},{"id":"52754951087","owner":"7608328@N04","secret":"b187770efe","server":"65535","farm":66,"title":"Mergus serrator L.","ispublic":1,"isfriend":0,"isfamily":0},{"id":"52752986944","owner":"18217058@N04","secret":"3b24ffe232","server":"65535","farm":66,"title":"Red-breasted mergansers \/ Toppendur (Mergus serrator)","ispublic":1,"isfriend":0,"isfamily":0},{"id":"52753157510","owner":"18217058@N04","secret":"36e2c51f22","server":"65535","farm":66,"title":"Red-breasted merganser \/ Topp\u00f6nd (Mergus serrator)","ispublic":1,"isfriend":0,"isfamily":0},{"id":"52748232459","owner":"89982680@N08","secret":"917a15814f","server":"65535","farm":66,"title":"Red-breasted Merganser \u2640\ufe0f","ispublic":1,"isfriend":0,"isfamily":0},{"id":"52747809616","owner":"48468275@N06","secret":"17455dd99b","server":"65535","farm":66,"title":"Mergus serrator","ispublic":1,"isfriend":0,"isfamily":0},{"id":"52746967887","owner":"48468275@N06","secret":"d1cec96894","server":"65535","farm":66,"title":"Mergus serrator","ispublic":1,"isfriend":0,"isfamily":0},{"id":"52746104815","owner":"48468275@N06","secret":"f96583245f","server":"65535","farm":66,"title":"Mergus serrator","ispublic":1,"isfriend":0,"isfamily":0},{"id":"52745397740","owner":"44904157@N04","secret":"e9c3857073","server":"65535","farm":66,"title":"Red-breasted Merganser","ispublic":1,"isfriend":0,"isfamily":0},{"id":"52744207400","owner":"145466593@N08","secret":"c6aae0fa90","server":"65535","farm":66,"title":"Red-breasted Merganser","ispublic":1,"isfriend":0,"isfamily":0},{"id":"52743342203","owner":"90886369@N06","secret":"7198c5dfde","server":"65535","farm":66,"title":"Red-breasted Merganser (Mergus serrator)","ispublic":1,"isfriend":0,"isfamily":0},{"id":"52740545649","owner":"67164820@N06","secret":"102be7b54d","server":"65535","farm":66,"title":"red-breasted merganser","ispublic":1,"isfriend":0,"isfamily":0},{"id":"52738872371","owner":"89982680@N08","secret":"9ecece1bbe","server":"65535","farm":66,"title":"Red-breasted Merganser \u2642\ufe0f","ispublic":1,"isfriend":0,"isfamily":0},{"id":"52738173239","owner":"165841515@N03","secret":"7616f3df6c","server":"65535","farm":66,"title":"Harle hupp\u00e9 \/ Red-breasted Merganser \/ (Mergus serrator)","ispublic":1,"isfriend":0,"isfamily":0},{"id":"52738332795","owner":"165841515@N03","secret":"9e2dcbd224","server":"65535","farm":66,"title":"Harle hupp\u00e9 \/ Red-breasted Merganser \/ (Mergus serrator)","ispublic":1,"isfriend":0,"isfamily":0},{"id":"52738332625","owner":"165841515@N03","secret":"659bbd1bd4","server":"65535","farm":66,"title":"Harle hupp\u00e9 \/ Red-breasted Merganser \/ (Mergus serrator)","ispublic":1,"isfriend":0,"isfamily":0},{"id":"52737922151","owner":"165841515@N03","secret":"f91d6c41cb","server":"65535","farm":66,"title":"Harle hupp\u00e9 \/ Red-breasted Merganser \/ (Mergus serrator)","ispublic":1,"isfriend":0,"isfamily":0},{"id":"52738150209","owner":"18217058@N04","secret":"e31b04fa8d","server":"65535","farm":66,"title":"Red-breasted merganser \/ Topp\u00f6nd (Mergus serrator)","ispublic":1,"isfriend":0,"isfamily":0},{"id":"52737899141","owner":"18217058@N04","secret":"3505e3ae16","server":"65535","farm":66,"title":"Red-breasted mergansers \/ Toppendur (Mergus serrator)","ispublic":1,"isfriend":0,"isfamily":0},{"id":"52737339693","owner":"39177293@N03","secret":"4da7e49725","server":"65535","farm":66,"title":"Red-breasted Merganser","ispublic":1,"isfriend":0,"isfamily":0},{"id":"52732231601","owner":"12639178@N07","secret":"fd1aeda141","server":"65535","farm":66,"title":"Mittels\u00e4ger","ispublic":1,"isfriend":0,"isfamily":0},{"id":"52731042659","owner":"64534310@N07","secret":"f695a8921b","server":"65535","farm":66,"title":"DSC0315  Red Breasted Mergansers","ispublic":1,"isfriend":0,"isfamily":0},{"id":"52730110401","owner":"112608353@N02","secret":"aa517f1e1a","server":"65535","farm":66,"title":"Jaw Dropping","ispublic":1,"isfriend":0,"isfamily":0},{"id":"52729088576","owner":"145890134@N05","secret":"87d588dc2d","server":"65535","farm":66,"title":"Middle merganser | Middelste Zaagbek | Mittlerer Merganser, (Mergus serrator)","ispublic":1,"isfriend":0,"isfamily":0},{"id":"52722139912","owner":"28867468@N08","secret":"b44ed5975f","server":"65535","farm":66,"title":"Red-breasted Merganser Jumping Up and In","ispublic":1,"isfriend":0,"isfamily":0},{"id":"52721444682","owner":"40941741@N03","secret":"126f1ce8ae","server":"65535","farm":66,"title":"Party Time","ispublic":1,"isfriend":0,"isfamily":0},{"id":"52722177935","owner":"54100598@N08","secret":"9aa8de47d0","server":"65535","farm":66,"title":"Red-breasted Merganser (Mergus serrator)","ispublic":1,"isfriend":0,"isfamily":0},{"id":"52722177915","owner":"54100598@N08","secret":"fbdb1e4a49","server":"65535","farm":66,"title":"Red-breasted Merganser (Mergus serrator)","ispublic":1,"isfriend":0,"isfamily":0},{"id":"52722250388","owner":"54100598@N08","secret":"8de5534a33","server":"65535","farm":66,"title":"Red-breasted Merganser (Mergus serrator)","ispublic":1,"isfriend":0,"isfamily":0},{"id":"52722250373","owner":"54100598@N08","secret":"e60af12a75","server":"65535","farm":66,"title":"Red-breasted Merganser (Mergus serrator)","ispublic":1,"isfriend":0,"isfamily":0},{"id":"52722150128","owner":"21606110@N08","secret":"3a4427b034","server":"65535","farm":66,"title":"Red-breasted Merganser","ispublic":1,"isfriend":0,"isfamily":0},{"id":"52719456874","owner":"61241315@N00","secret":"3b1c46ff77","server":"65535","farm":66,"title":"Greater Scaup_Lesser Scaup_Red-breasted Merganser_Ring-necked Duck_N0110","ispublic":1,"isfriend":0,"isfamily":0},{"id":"52717484168","owner":"61241315@N00","secret":"39ef17dc3c","server":"0","farm":0,"title":"Red-breasted Merganser_0131","ispublic":1,"isfriend":0,"isfamily":0},{"id":"52717260814","owner":"61241315@N00","secret":"4d2bc89356","server":"65535","farm":66,"title":"Red-breasted Merganser_N0128","ispublic":1,"isfriend":0,"isfamily":0},{"id":"52716462177","owner":"61241315@N00","secret":"ac847f26fe","server":"0","farm":0,"title":"Greater Scaup_Lesser Scaup_Redhead Duck_Red-breasted Merganser_Ring-necked Duck_0102.MP4","ispublic":1,"isfriend":0,"isfamily":0},{"id":"52716980001","owner":"61241315@N00","secret":"1d5acd21ac","server":"65535","farm":66,"title":"Greater Scaup_Red-breasted Merganser_Ring-necked Duck_N0108","ispublic":1,"isfriend":0,"isfamily":0},{"id":"52745350334","owner":"140318147@N08","secret":"e6221297c5","server":"65535","farm":66,"title":"red-breasted merganser (Mergus serrator) L4A6953","ispublic":1,"isfriend":0,"isfamily":0}]},"stat":"ok"}