{"photos":{"page":1,"pages":95,"perpage":100,"total":9474,"photo":[{"id":"52723665225","owner":"128369733@N04","secret":"81134f1f1a","server":"65535","farm":66,"title":"Woodpeckers Going Wild (1)","ispublic":1,"isfriend":0,"isfamily":0},{"id":"52723733073","owner":"128369733@N04","secret":"077623cc35","server":"65535","farm":66,"title":"Woodpeckers Going Wild (2)","ispublic":1,"isfriend":0,"isfamily":0},{"id":"52723257856","owner":"128369733@N04","secret":"b77783d6c6","server":"65535","farm":66,"title":"Woodpeckers Going Wild (3)","ispublic":1,"isfriend":0,"isfamily":0},{"id":"52723257511","owner":"128369733@N04","secret":"54c3d3872c","server":"65535","farm":66,"title":"Woodpeckers Going Wild (4)","ispublic":1,"isfriend":0,"isfamily":0},{"id":"52723730793","owner":"128369733@N04","secret":"ddde9683e4","server":"65535","farm":66,"title":"Woodpeckers Going Wild (5)","ispublic":1,"isfriend":0,"isfamily":0},{"id":"52723256106","owner":"128369733@N04","secret":"099d015053","server":"65535","farm":66,"title":"Woodpeckers Going Wild (6)","ispublic":1,"isfriend":0,"isfamily":0},{"id":"52722745804","owner":"69002026@N02","secret":"6e10c311b0","server":"65535","farm":66,"title":"Red-bellied Woodpecker (Melanerpes carolinus)","ispublic":1,"isfriend":0,"isfamily":0},{"id":"52722062476","owner":"169771858@N03","secret":"aeb5089c25","server":"65535","farm":66,"title":"Red-Breasted Woodpecker #1 - 2020-06-13","ispublic":1,"isfriend":0,"isfamily":0},{"id":"52717973289","owner":"188156748@N07","secret":"7b5884d7d2","server":"65535","farm":66,"title":"Red - Bellied Woodpecker (F)-Pic \u00e0 ventre roux (F) - Melanerpes carolinus  6015 (10)-SharpenAI-Standard copy.jpgS","ispublic":1,"isfriend":0,"isfamily":0},{"id":"52718195978","owner":"188156748@N07","secret":"bc8e2eea79","server":"65535","farm":66,"title":"Red - Bellied Woodpecker (F)-Pic \u00e0 ventre roux (F) - Melanerpes carolinus  6015 (14)-SharpenAI-Standard copy.jpgS","ispublic":1,"isfriend":0,"isfamily":0},{"id":"52718195933","owner":"188156748@N07","secret":"ae06aa2c7e","server":"65535","farm":66,"title":"Red - Bellied Woodpecker (F)-Pic \u00e0 ventre roux (F) - Melanerpes carolinus  6015 (21)-SharpenAI-Standard copy.jpgS","ispublic":1,"isfriend":0,"isfamily":0},{"id":"52718137010","owner":"188156748@N07","secret":"12914d6fe2","server":"65535","farm":66,"title":"Red - Bellied Woodpecker (F)-Pic \u00e0 ventre roux (F) - Melanerpes carolinus  6015 (24)-SharpenAI-Standard copy.jpgS","ispublic":1,"isfriend":0,"isfamily":0},{"id":"52717973134","owner":"188156748@N07","secret":"2e95803667","server":"65535","farm":66,"title":"Red - Bellied Woodpecker (F)-Pic \u00e0 ventre roux (F) - Melanerpes carolinus  6015 (25)-SharpenAI-Standard copy.jpgS","ispublic":1,"isfriend":0,"isfamily":0},{"id":"52717187397","owner":"188156748@N07","secret":"7d12309647","server":"65535","farm":66,"title":"Red - Bellied Woodpecker (F)-Pic \u00e0 ventre roux (F) - Melanerpes carolinus  6015 (35)-SharpenAI-Standard copy.jpgS","ispublic":1,"isfriend":0,"isfamily":0},{"id":"52717187352","owner":"188156748@N07","secret":"e2127b3cd8","server":"65535","farm":66,"title":"Red - Bellied Woodpecker (F)-Pic \u00e0 ventre roux (F) - Melanerpes carolinus  6015 (45)-SharpenAI-Standard copy.jpgS","ispublic":1,"isfriend":0,"isfamily":0},{"id":"52718136880","owner":"188156748@N07","secret":"8c6ffea9ce","server":"65535","farm":66,"title":"Red - Bellied Woodpecker (F)-Pic \u00e0 ventre roux (F) - Melanerpes carolinus  6015 (39)-SharpenAI-Standard copy.jpgS","ispublic":1,"isfriend":0,"isfamily":0},{"id":"52717707381","owner":"188156748@N07","secret":"7303a8ca50","server":"65535","farm":66,"title":"Red - Bellied Woodpecker (F)-Pic \u00e0 ventre roux (F) - Melanerpes carolinus  6015 (46)-SharpenAI-Standard copy.jpgS","ispublic":1,"isfriend":0,"isfamily":0},{"id":"52716254699","owner":"185851777@N04","secret":"7e7330b9c2","server":"65535","farm":66,"title":"Red-bellied Woodpecker-Melanerpes carolinus","ispublic":1,"isfriend":0,"isfamily":0},{"id":"52714986050","owner":"169771858@N03","secret":"cf08bb3846","server":"65535","farm":66,"title":"Red-Breasted Woodpecker #2 - 2020-06-13","ispublic":1,"isfriend":0,"isfamily":0},{"id":"52712509231","owner":"36142084@N05","secret":"6c4880f278","server":"65535","farm":66,"title":"R5_008759","ispublic":1,"isfriend":0,"isfamily":0},{"id":"52712013256","owner":"169771858@N03","secret":"d4448a346a","server":"65535","farm":66,"title":"Red-Breasted Woodpecker #4 - 2020-06-13","ispublic":1,"isfriend":0,"isfamily":0},{"id":"52711903715","owner":"53217733@N00","secret":"c5a1b13a0f","server":"65535","farm":66,"title":"Red-Bellied Woodpecker","ispublic":1,"isfriend":0,"isfamily":0},{"id":"52709340142","owner":"168495655@N07","secret":"79bbda0fe5","server":"65535","farm":66,"title":"Pic \u00e0 ventre roux - Melanerpes carolinus - Red-bellied Woodpeck","ispublic":1,"isfriend":0,"isfamily":0},{"id":"52709376654","owner":"196786375@N03","secret":"ce4efeed2c","server":"65535","farm":66,"title":"Red-bellied Woodpecker","ispublic":1,"isfriend":0,"isfamily":0},{"id":"52708595762","owner":"196786375@N03","secret":"8c3dec4ab6","server":"65535","farm":66,"title":"Red-bellied Woodpecker","ispublic":1,"isfriend":0,"isfamily":0},{"id":"52704858986","owner":"8654297@N06","secret":"22aee06fd2","server":"65535","farm":66,"title":"Dancing it up","ispublic":1,"isfriend":0,"isfamily":0},{"id":"52704953275","owner":"91064752@N03","secret":"11d9958632","server":"65535","farm":66,"title":"Red-bellied Woodpecker Eating Grape Jelly","ispublic":1,"isfriend":0,"isfamily":0},{"id":"52700142712","owner":"84169650@N07","secret":"2acaa2b2df","server":"65535","farm":66,"title":"Red Bellied Woodpecker","ispublic":1,"isfriend":0,"isfamily":0},{"id":"52695920985","owner":"10260434@N03","secret":"5c31e12821","server":"65535","farm":66,"title":"Red-bellied Woodpecker fem-19Dec22","ispublic":1,"isfriend":0,"isfamily":0},{"id":"52695958903","owner":"10260434@N03","secret":"4ed13b3ef6","server":"65535","farm":66,"title":"Red-belly fem close-up-20Dec22","ispublic":1,"isfriend":0,"isfamily":0},{"id":"52695000369","owner":"44034115@N08","secret":"16a4dd4d45","server":"65535","farm":66,"title":"Red-bellied Woodpecker Closing In","ispublic":1,"isfriend":0,"isfamily":0},{"id":"52693420651","owner":"57126723@N07","secret":"316f2b32f1","server":"65535","farm":66,"title":"Melanerpes carolinus\u2014Red-bellied woodpecker\u2014Dutch Gap-8776-Edit","ispublic":1,"isfriend":0,"isfamily":0},{"id":"52693808373","owner":"10336659@N04","secret":"6f7842e7e0","server":"65535","farm":66,"title":"Red-bellied Woodpecker (Melanerpes carolinus) flies in the forest at Green Cay Nature Preserve","ispublic":1,"isfriend":0,"isfamily":0},{"id":"52693608110","owner":"8904060@N06","secret":"d844515399","server":"65535","farm":66,"title":"Shy","ispublic":1,"isfriend":0,"isfamily":0},{"id":"52693510843","owner":"120699091@N02","secret":"8f5639130f","server":"65535","farm":66,"title":"Red-bellied Woodpecker","ispublic":1,"isfriend":0,"isfamily":0},{"id":"52692476147","owner":"195642998@N04","secret":"defa1c29c8","server":"65535","farm":66,"title":"Red-Bellied Woodpecker (Melanerpes carolinus)","ispublic":1,"isfriend":0,"isfamily":0},{"id":"52690257147","owner":"88932760@N08","secret":"8763c6140a","server":"65535","farm":66,"title":"Aggressive Stares","ispublic":1,"isfriend":0,"isfamily":0},{"id":"52687144032","owner":"10336659@N04","secret":"970470f082","server":"65535","farm":66,"title":"Red-bellied Woodpecker (Melanerpes carolinus) flies in the forest at Green Cay Nature Preserve","ispublic":1,"isfriend":0,"isfamily":0},{"id":"52687050860","owner":"44034115@N08","secret":"f8b6140132","server":"65535","farm":66,"title":"Red-bellied Woodpecker on the Prowl","ispublic":1,"isfriend":0,"isfamily":0},{"id":"52682551767","owner":"71418112@N00","secret":"7cf01ccd7b","server":"65535","farm":66,"title":"Red-bellied Woodpecker","ispublic":1,"isfriend":0,"isfamily":0},{"id":"52683244078","owner":"39445433@N02","secret":"59fd413dd4","server":"65535","farm":66,"title":"Red-Bellied Woodpecker","ispublic":1,"isfriend":0,"isfamily":0},{"id":"52682747401","owner":"39445433@N02","secret":"29c9093d00","server":"65535","farm":66,"title":"Red-Bellied Woodpecker","ispublic":1,"isfriend":0,"isfamily":0},{"id":"52679792335","owner":"44034115@N08","secret":"d39ee004e7","server":"65535","farm":66,"title":"Red-bellied Woodpecker on the Hunt","ispublic":1,"isfriend":0,"isfamily":0},{"id":"52679431128","owner":"47533293@N04","secret":"4e6ae7855c","server":"65535","farm":66,"title":"Red-bellied woodpecker, Melanerpes carolinus","ispublic":1,"isfriend":0,"isfamily":0},{"id":"52679098595","owner":"169771858@N03","secret":"ba4d816913","server":"65535","farm":66,"title":"Red-Breasted Woodpecker #5 - 2020-06-13","ispublic":1,"isfriend":0,"isfamily":0},{"id":"52677799857","owner":"158105449@N02","secret":"1175038fb3","server":"65535","farm":66,"title":"Curious","ispublic":1,"isfriend":0,"isfamily":0},{"id":"52677110327","owner":"158105449@N02","secret":"0bfaf40ff9","server":"65535","farm":66,"title":"Red-bellied Woodpecker (Melanerpes carolinus)","ispublic":1,"isfriend":0,"isfamily":0},{"id":"52677973563","owner":"57126723@N07","secret":"cb56931763","server":"65535","farm":66,"title":"Melanerpes carolinus\u2014Red-bellied woodpecer\u2014Picidae\u2014Jamestown Island-8355","ispublic":1,"isfriend":0,"isfamily":0},{"id":"52677973548","owner":"57126723@N07","secret":"d4ae26efdf","server":"65535","farm":66,"title":"Melanerpes carolinus\u2014Red-bellied woodpecer\u2014Picidae\u2014Jamestown Island-8356","ispublic":1,"isfriend":0,"isfamily":0},{"id":"52674797741","owner":"187996196@N05","secret":"95af015403","server":"65535","farm":66,"title":"Carolina-Specht \/ Red-bellied woodpecker \/ Melanerpes carolinus","ispublic":1,"isfriend":0,"isfamily":0},{"id":"52597991152","owner":"49114357@N08","secret":"fae378dabf","server":"65535","farm":66,"title":"Red-bellied Woodpecker","ispublic":1,"isfriend":0,"isfamily":0},{"id":"52670448665","owner":"169771858@N03","secret":"c8437fcf3c","server":"65535","farm":66,"title":"Red-Breasted Woodpecker - 2019-11-02","ispublic":1,"isfriend":0,"isfamily":0},{"id":"52667072580","owner":"39983970@N08","secret":"572a7a16c3","server":"65535","farm":66,"title":"Perseverance --- Beharrlichkeit","ispublic":1,"isfriend":0,"isfamily":0},{"id":"52665524290","owner":"78145652@N02","secret":"ffb0e480c0","server":"65535","farm":66,"title":"Red-bellied Woodpecker - Melanerpes carolinus","ispublic":1,"isfriend":0,"isfamily":0},{"id":"52661704566","owner":"196127020@N02","secret":"3edc9272dd","server":"65535","farm":66,"title":"Red-bellied Woodpecker","ispublic":1,"isfriend":0,"isfamily":0},{"id":"52661203427","owner":"196127020@N02","secret":"42022764d3","server":"65535","farm":66,"title":"Red-bellied Woodpecker","ispublic":1,"isfriend":0,"isfamily":0},{"id":"52661989294","owner":"196127020@N02","secret":"60d6a435e3","server":"65535","farm":66,"title":"Red-bellied Woodpecker","ispublic":1,"isfriend":0,"isfamily":0},{"id":"52662194268","owner":"196127020@N02","secret":"7b49da2b12","server":"65535","farm":66,"title":"Red-bellied Woodpecker","ispublic":1,"isfriend":0,"isfamily":0},{"id":"52661989254","owner":"196127020@N02","secret":"2269cce009","server":"65535","farm":66,"title":"Red-bellied Woodpecker","ispublic":1,"isfriend":0,"isfamily":0},{"id":"52661989099","owner":"196127020@N02","secret":"b0d3c0fa8f","server":"65535","farm":66,"title":"Red-bellied Woodpecker","ispublic":1,"isfriend":0,"isfamily":0},{"id":"52662193818","owner":"196127020@N02","secret":"f75b0608ce","server":"65535","farm":66,"title":"Red-bellied Woodpecker","ispublic":1,"isfriend":0,"isfamily":0},{"id":"52662193618","owner":"196127020@N02","secret":"ae2809862d","server":"65535","farm":66,"title":"Red-bellied Woodpecker","ispublic":1,"isfriend":0,"isfamily":0},{"id":"52662193493","owner":"196127020@N02","secret":"1c38d63997","server":"65535","farm":66,"title":"Red-bellied Woodpecker","ispublic":1,"isfriend":0,"isfamily":0},{"id":"52662193333","owner":"196127020@N02","secret":"cca313cd1c","server":"65535","farm":66,"title":"Red-bellied Woodpecker","ispublic":1,"isfriend":0,"isfamily":0},{"id":"52661703246","owner":"196127020@N02","secret":"a63a5e037a","server":"65535","farm":66,"title":"Red-bellied Woodpecker","ispublic":1,"isfriend":0,"isfamily":0},{"id":"52661988034","owner":"196127020@N02","secret":"1ab0c04d0b","server":"65535","farm":66,"title":"Red-bellied Woodpecker","ispublic":1,"isfriend":0,"isfamily":0},{"id":"52661201887","owner":"196127020@N02","secret":"abf0b9c9b2","server":"65535","farm":66,"title":"Red-bellied Woodpecker","ispublic":1,"isfriend":0,"isfamily":0},{"id":"52661987564","owner":"196127020@N02","secret":"d35ba5a543","server":"65535","farm":66,"title":"Red-bellied Woodpecker","ispublic":1,"isfriend":0,"isfamily":0},{"id":"52662143425","owner":"196127020@N02","secret":"95bc3be834","server":"65535","farm":66,"title":"Red-bellied Woodpecker","ispublic":1,"isfriend":0,"isfamily":0},{"id":"52661987129","owner":"196127020@N02","secret":"4006f13b57","server":"65535","farm":66,"title":"Red-bellied Woodpecker","ispublic":1,"isfriend":0,"isfamily":0},{"id":"52661701841","owner":"196127020@N02","secret":"6b1c3275b2","server":"65535","farm":66,"title":"Red-bellied Woodpecker","ispublic":1,"isfriend":0,"isfamily":0},{"id":"52661986719","owner":"196127020@N02","secret":"38e11f0bd6","server":"65535","farm":66,"title":"Red-bellied Woodpecker","ispublic":1,"isfriend":0,"isfamily":0},{"id":"52661200457","owner":"196127020@N02","secret":"528f499373","server":"65535","farm":66,"title":"Red-bellied Woodpecker","ispublic":1,"isfriend":0,"isfamily":0},{"id":"52661701056","owner":"196127020@N02","secret":"d95a69f6f0","server":"65535","farm":66,"title":"Red-bellied Woodpecker","ispublic":1,"isfriend":0,"isfamily":0},{"id":"52661985869","owner":"196127020@N02","secret":"e9ba91ca93","server":"65535","farm":66,"title":"Red-bellied Woodpecker","ispublic":1,"isfriend":0,"isfamily":0},{"id":"52661985634","owner":"196127020@N02","secret":"abb8fb4d87","server":"65535","farm":66,"title":"Red-bellied Woodpecker","ispublic":1,"isfriend":0,"isfamily":0},{"id":"52659611133","owner":"53020117@N05","secret":"3224a17b2a","server":"65535","farm":66,"title":"Red-bellied Woodpecker","ispublic":1,"isfriend":0,"isfamily":0},{"id":"52659118466","owner":"53020117@N05","secret":"5a964007a2","server":"65535","farm":66,"title":"Red-bellied Woodpecker","ispublic":1,"isfriend":0,"isfamily":0},{"id":"52654581152","owner":"37456450@N04","secret":"d7b111f736","server":"65535","farm":66,"title":"Red-bellied Woodpecker","ispublic":1,"isfriend":0,"isfamily":0},{"id":"52654715801","owner":"90886369@N06","secret":"d6cec9ca51","server":"65535","farm":66,"title":"Red-bellied Woodpecker (Melanerpes carolinus)","ispublic":1,"isfriend":0,"isfamily":0},{"id":"52654142424","owner":"91064752@N03","secret":"d3370095c8","server":"65535","farm":66,"title":"Red-bellied Woodpecker Portrait","ispublic":1,"isfriend":0,"isfamily":0},{"id":"52653434374","owner":"191038887@N04","secret":"af0112a491","server":"65535","farm":66,"title":"Pic \u00e0 ventre roux - Red-bellied woodpecker - Melanerpes carolinus","ispublic":1,"isfriend":0,"isfamily":0},{"id":"52653644838","owner":"191038887@N04","secret":"923297278e","server":"65535","farm":66,"title":"Pic \u00e0 ventre roux - Red-bellied woodpecker - Melanerpes carolinusPic \u00e0 ventre roux - Red-bellied woodpecker - Melanerpes carolinus","ispublic":1,"isfriend":0,"isfamily":0},{"id":"52653644693","owner":"191038887@N04","secret":"826a39aa39","server":"65535","farm":66,"title":"Pic \u00e0 ventre roux - Red-bellied woodpecker - Melanerpes carolinus","ispublic":1,"isfriend":0,"isfamily":0},{"id":"52653598920","owner":"191038887@N04","secret":"b4ff42d40b","server":"65535","farm":66,"title":"Pic \u00e0 ventre roux - Red-bellied woodpecker - Melanerpes carolinus","ispublic":1,"isfriend":0,"isfamily":0},{"id":"52653598840","owner":"191038887@N04","secret":"2f9d8451e2","server":"65535","farm":66,"title":"Pic \u00e0 ventre roux - Red-bellied woodpecker - Melanerpes carolinus","ispublic":1,"isfriend":0,"isfamily":0},{"id":"52653644318","owner":"191038887@N04","secret":"7c71dbc823","server":"65535","farm":66,"title":"Pic \u00e0 ventre roux - Red-bellied woodpecker - Melanerpes carolinus","ispublic":1,"isfriend":0,"isfamily":0},{"id":"52653644203","owner":"191038887@N04","secret":"0c6c970b15","server":"65535","farm":66,"title":"Pic \u00e0 ventre roux - Red-bellied woodpecker - Melanerpes carolinus","ispublic":1,"isfriend":0,"isfamily":0},{"id":"52652590438","owner":"163667952@N05","secret":"d738bcaa0c","server":"65535","farm":66,"title":"Red-bellied Woodpecker","ispublic":1,"isfriend":0,"isfamily":0},{"id":"52648908559","owner":"39511843@N07","secret":"0b45bba7ce","server":"65535","farm":66,"title":"20230121-Red-bellied Woodpecker (Melanerpes carolinus)","ispublic":1,"isfriend":0,"isfamily":0},{"id":"52647799002","owner":"36013467@N07","secret":"ac8db3c665","server":"65535","farm":66,"title":"Red-bellied Woodpecker (Melanerpes carolinus)","ispublic":1,"isfriend":0,"isfamily":0},{"id":"52642810444","owner":"195642998@N04","secret":"f7f0840b26","server":"65535","farm":66,"title":"Red-bellied Woodpecker (Melanerpes carolinus)","ispublic":1,"isfriend":0,"isfamily":0},{"id":"52641302264","owner":"71989271@N06","secret":"d053ef1000","server":"65535","farm":66,"title":"Red-bellied Woodpecker (m)(Melanerpes carolinus)","ispublic":1,"isfriend":0,"isfamily":0},{"id":"52641519798","owner":"71989271@N06","secret":"5b56c4b28c","server":"65535","farm":66,"title":"Red-bellied Woodpecker (m)(Melanerpes carolinus)","ispublic":1,"isfriend":0,"isfamily":0},{"id":"52640534832","owner":"71989271@N06","secret":"8b16fed717","server":"65535","farm":66,"title":"Red-bellied Woodpecker (m)(Melanerpes carolinus)","ispublic":1,"isfriend":0,"isfamily":0},{"id":"52640372815","owner":"10260434@N03","secret":"d048a1c220","server":"65535","farm":66,"title":"Red-bellied Woodpecker male-5Dec22","ispublic":1,"isfriend":0,"isfamily":0},{"id":"52639830086","owner":"10260434@N03","secret":"15b300b346","server":"65535","farm":66,"title":"Red-bellied Woodpecker female-19Dec22","ispublic":1,"isfriend":0,"isfamily":0},{"id":"52639756386","owner":"10260434@N03","secret":"78192b2d3e","server":"65535","farm":66,"title":"CU Red-bellied male-22Nov22","ispublic":1,"isfriend":0,"isfamily":0},{"id":"52640151845","owner":"10260434@N03","secret":"f9bd9be1a3","server":"65535","farm":66,"title":"Red-bellied Woodpecker male-20Nov22","ispublic":1,"isfriend":0,"isfamily":0},{"id":"52635505123","owner":"91827451@N06","secret":"ee2ce3af4f","server":"65535","farm":66,"title":"DSC_5359","ispublic":1,"isfriend":0,"isfamily":0}]},"stat":"ok"}