{"photos":{"page":1,"pages":16,"perpage":100,"total":1555,"photo":[{"id":"52763920798","owner":"194690473@N07","secret":"5f04756f69","server":"65535","farm":66,"title":"Red-rumped Parrot (m)","ispublic":1,"isfriend":0,"isfamily":0},{"id":"52759122339","owner":"78742710@N08","secret":"1fa902f000","server":"65535","farm":66,"title":"Red-rumped Parrot: Pool of Gold","ispublic":1,"isfriend":0,"isfamily":0},{"id":"52728486264","owner":"74822983@N02","secret":"17eaa131d5","server":"65535","farm":66,"title":"Rainbow Lorikeet 2023-03-01 (7D_182A4718)","ispublic":1,"isfriend":0,"isfamily":0},{"id":"52706548997","owner":"95482238@N02","secret":"123a1d5dc5","server":"65535","farm":66,"title":"red-rumped parrot (Psephotus haematonotus), Hookina Creek, Flinders Ranges, South Australia","ispublic":1,"isfriend":0,"isfamily":0},{"id":"52704056861","owner":"90408688@N02","secret":"ce1610bfd3","server":"65535","farm":66,"title":"Psephotus haematonotus haematonotus - South-eastern Red-rumped Parrot (m & f)","ispublic":1,"isfriend":0,"isfamily":0},{"id":"52704056781","owner":"90408688@N02","secret":"b78f89a537","server":"65535","farm":66,"title":"Psephotus haematonotus haematonotus - South-eastern Red-rumped Parrot (m & f)","ispublic":1,"isfriend":0,"isfamily":0},{"id":"52692133518","owner":"22424380@N05","secret":"0ddbabe24f","server":"65535","farm":66,"title":"Red-rumped parrot","ispublic":1,"isfriend":0,"isfamily":0},{"id":"52687618868","owner":"74822983@N02","secret":"f4fb0f7d70","server":"65535","farm":66,"title":"Red-rumped Parrot 2023-02-08 (7D_182A3375)","ispublic":1,"isfriend":0,"isfamily":0},{"id":"52673398956","owner":"76729899@N04","secret":"087f9a30e1","server":"65535","farm":66,"title":"Red-rumped Parrot (Psephotus haematonotus)_9005","ispublic":1,"isfriend":0,"isfamily":0},{"id":"52663932256","owner":"108755156@N05","secret":"2f387ed88b","server":"65535","farm":66,"title":"The Perfect Model","ispublic":1,"isfriend":0,"isfamily":0},{"id":"52654772626","owner":"74822983@N02","secret":"83eb621e46","server":"65535","farm":66,"title":"Male Red-rumped Parrot 2023-01-28 (7D_182A1866)","ispublic":1,"isfriend":0,"isfamily":0},{"id":"52613274422","owner":"94809589@N04","secret":"9d2da2f0c7","server":"65535","farm":66,"title":"Red Rumped Parrot.","ispublic":1,"isfriend":0,"isfamily":0},{"id":"52583328867","owner":"74822983@N02","secret":"4ebc005dab","server":"65535","farm":66,"title":"Male Red-rumped Parrot 2022-12-05 (R5182A0380)","ispublic":1,"isfriend":0,"isfamily":0},{"id":"52558070361","owner":"44024425@N00","secret":"bb6530116f","server":"65535","farm":66,"title":"Red-rumped Parrots","ispublic":1,"isfriend":0,"isfamily":0},{"id":"52544216588","owner":"134901639@N03","secret":"35e7f251d4","server":"65535","farm":66,"title":"Red-rumped Parrot","ispublic":1,"isfriend":0,"isfamily":0},{"id":"52511080349","owner":"44024425@N00","secret":"5542f41ab0","server":"65535","farm":66,"title":"Three Species Grazing","ispublic":1,"isfriend":0,"isfamily":0},{"id":"52511137038","owner":"74822983@N02","secret":"a2965bea77","server":"65535","farm":66,"title":"Red-rumped Parrot 2022-11-12 (7D_182A8002)","ispublic":1,"isfriend":0,"isfamily":0},{"id":"52482551813","owner":"74822983@N02","secret":"f16cd11ea6","server":"65535","farm":66,"title":"Red-rumped Parrot 2022-11-02 (7D_182A6594)","ispublic":1,"isfriend":0,"isfamily":0},{"id":"52474320091","owner":"163602656@N03","secret":"8de45e50b0","server":"65535","farm":66,"title":"Singsittich (Psephotus haematonotus)","ispublic":1,"isfriend":0,"isfamily":0},{"id":"52460252312","owner":"74822983@N02","secret":"bbda4a65c0","server":"65535","farm":66,"title":"Red-rumped Parrots 2022-10-21 (7D_182A4926,5003,5043)","ispublic":1,"isfriend":0,"isfamily":0},{"id":"52442083507","owner":"87615574@N08","secret":"fee789cb35","server":"65535","farm":66,"title":"Red-Rumped-Parrot(Psephotus-haematonotus)","ispublic":1,"isfriend":0,"isfamily":0},{"id":"52443114073","owner":"87615574@N08","secret":"c82fd36a57","server":"65535","farm":66,"title":"Red-Rumped-Parrot(Psephotus-haematonotus)","ispublic":1,"isfriend":0,"isfamily":0},{"id":"52442596881","owner":"87615574@N08","secret":"933b9a183e","server":"65535","farm":66,"title":"Red-Rumped-Parrot(Psephotus-haematonotus)","ispublic":1,"isfriend":0,"isfamily":0},{"id":"52441118455","owner":"194690473@N07","secret":"04a6d0c869","server":"65535","farm":66,"title":"Red-rumped Parrot (f)","ispublic":1,"isfriend":0,"isfamily":0},{"id":"52430963416","owner":"40195635@N03","secret":"32e2281685","server":"65535","farm":66,"title":"Red-rumped Parrot (Psephotus haematonotus)","ispublic":1,"isfriend":0,"isfamily":0},{"id":"52430963371","owner":"40195635@N03","secret":"00d7d84a90","server":"65535","farm":66,"title":"Red-rumped Parrot (Psephotus haematonotus)","ispublic":1,"isfriend":0,"isfamily":0},{"id":"52421903775","owner":"74822983@N02","secret":"de2916fe65","server":"65535","farm":66,"title":"Red-rumped Parrot 2022-10-08 (7D_182A2769)","ispublic":1,"isfriend":0,"isfamily":0},{"id":"52417592839","owner":"69947563@N07","secret":"12720c4d1f","server":"65535","farm":66,"title":"Red-rumped Parrot - Narrabri, New South Wales, Australia","ispublic":1,"isfriend":0,"isfamily":0},{"id":"52416785222","owner":"69947563@N07","secret":"201b1563d0","server":"65535","farm":66,"title":"Red-rumped Parrot (female) - Goondiwindi, Queensland, Australia","ispublic":1,"isfriend":0,"isfamily":0},{"id":"52407863148","owner":"162938309@N02","secret":"0ef826e5e2","server":"65535","farm":66,"title":"Red-rumped Parrots. Braeside.","ispublic":1,"isfriend":0,"isfamily":0},{"id":"52407839248","owner":"162938309@N02","secret":"1f79e718ba","server":"65535","farm":66,"title":"Red-rumped Parrots. Breaside.","ispublic":1,"isfriend":0,"isfamily":0},{"id":"52393801719","owner":"196618335@N08","secret":"c29f7857b8","server":"65535","farm":66,"title":"Red Rumped Parrots","ispublic":1,"isfriend":0,"isfamily":0},{"id":"52392379066","owner":"78742710@N08","secret":"58533dceef","server":"65535","farm":66,"title":"Red-rumped Parrot: Feather fluffing Time","ispublic":1,"isfriend":0,"isfamily":0},{"id":"52367731433","owner":"74822983@N02","secret":"e5facf7c4f","server":"65535","farm":66,"title":"Male Red-rumped Parrot 2022-09-16 (7D_182A1896)","ispublic":1,"isfriend":0,"isfamily":0},{"id":"52356747550","owner":"55310085@N06","secret":"1b2c09832c","server":"65535","farm":66,"title":"Psittaculidae - Red-rumped Parrot","ispublic":1,"isfriend":0,"isfamily":0},{"id":"52349082053","owner":"74822983@N02","secret":"41a6368648","server":"65535","farm":66,"title":"Male Red-Rumped Parrot 2022-09-09 (7D_182A1608)","ispublic":1,"isfriend":0,"isfamily":0},{"id":"52343227515","owner":"130281204@N06","secret":"a6b6edd314","server":"65535","farm":66,"title":"Pretty Parrot","ispublic":1,"isfriend":0,"isfamily":0},{"id":"52338094964","owner":"130281204@N06","secret":"4d2fc08b8b","server":"65535","farm":66,"title":"Red-rumped Parrot (Male)","ispublic":1,"isfriend":0,"isfamily":0},{"id":"52338218285","owner":"130281204@N06","secret":"2efab4ba86","server":"65535","farm":66,"title":"Red-rumped Parrot (Female)","ispublic":1,"isfriend":0,"isfamily":0},{"id":"52336403702","owner":"80648919@N08","secret":"8ef1293eaf","server":"65535","farm":66,"title":"Red-rumped Parrot","ispublic":1,"isfriend":0,"isfamily":0},{"id":"52336101874","owner":"130281204@N06","secret":"de65af6ede","server":"65535","farm":66,"title":"\"Plane Jane\" Red-rumped Parrot","ispublic":1,"isfriend":0,"isfamily":0},{"id":"52334114207","owner":"130281204@N06","secret":"163c195355","server":"65535","farm":66,"title":"Red-rumped Parrot pair","ispublic":1,"isfriend":0,"isfamily":0},{"id":"52334971153","owner":"74822983@N02","secret":"d498531125","server":"65535","farm":66,"title":"Female Red-rumped Parrot 2022-08-27 (7D_182A0561)","ispublic":1,"isfriend":0,"isfamily":0},{"id":"52321703953","owner":"137103568@N04","secret":"91c863bfa5","server":"65535","farm":66,"title":"Red-rumped Parrot (Psephotus haematonotus), male","ispublic":1,"isfriend":0,"isfamily":0},{"id":"52312561326","owner":"123597211@N03","secret":"663011661b","server":"65535","farm":66,"title":"Singsittich (Psephotus haematonotus)","ispublic":1,"isfriend":0,"isfamily":0},{"id":"52312560611","owner":"123597211@N03","secret":"7691a48c40","server":"65535","farm":66,"title":"Singsittich (Psephotus haematonotus)","ispublic":1,"isfriend":0,"isfamily":0},{"id":"52312988929","owner":"123597211@N03","secret":"88fdf16c38","server":"65535","farm":66,"title":"Singsittich (Psephotus haematonotus)","ispublic":1,"isfriend":0,"isfamily":0},{"id":"52312558421","owner":"123597211@N03","secret":"4197d09769","server":"65535","farm":66,"title":"Singsittich (Psephotus haematonotus)","ispublic":1,"isfriend":0,"isfamily":0},{"id":"52312557561","owner":"123597211@N03","secret":"77487704ec","server":"65535","farm":66,"title":"Singsittich (Psephotus haematonotus)","ispublic":1,"isfriend":0,"isfamily":0},{"id":"52312556721","owner":"123597211@N03","secret":"4f5498b181","server":"65535","farm":66,"title":"Singsittich (Psephotus haematonotus)","ispublic":1,"isfriend":0,"isfamily":0},{"id":"52312865988","owner":"123597211@N03","secret":"9b5c8abb85","server":"65535","farm":66,"title":"Singsittich (Psephotus haematonotus)","ispublic":1,"isfriend":0,"isfamily":0},{"id":"52312982994","owner":"123597211@N03","secret":"99c2e3407b","server":"65535","farm":66,"title":"Singsittich (Psephotus haematonotus)","ispublic":1,"isfriend":0,"isfamily":0},{"id":"52273365659","owner":"104632994@N05","secret":"2a8c928ebc","server":"65535","farm":66,"title":"GH6A11837cvm","ispublic":1,"isfriend":0,"isfamily":0},{"id":"52271651618","owner":"151789887@N03","secret":"3659e089b0","server":"65535","farm":66,"title":"Lou070822Ph1","ispublic":1,"isfriend":0,"isfamily":0},{"id":"52255755275","owner":"147630395@N03","secret":"c7e87ba4d1","server":"65535","farm":66,"title":"Male Red Rump Parrot (Explore)","ispublic":1,"isfriend":0,"isfamily":0},{"id":"52241700531","owner":"108755156@N05","secret":"6d13b82812","server":"65535","farm":66,"title":"Claimed","ispublic":1,"isfriend":0,"isfamily":0},{"id":"52208379259","owner":"108755156@N05","secret":"487ecb8d1c","server":"65535","farm":66,"title":"Hello There","ispublic":1,"isfriend":0,"isfamily":0},{"id":"52200678427","owner":"147630395@N03","secret":"954e3bf69e","server":"65535","farm":66,"title":"Female Red Rump Parrot (Grass Parrot)","ispublic":1,"isfriend":0,"isfamily":0},{"id":"52197412189","owner":"108755156@N05","secret":"86c34c1774","server":"65535","farm":66,"title":"Stretching - HWW","ispublic":1,"isfriend":0,"isfamily":0},{"id":"52186024785","owner":"108755156@N05","secret":"e678697499","server":"65535","farm":66,"title":"Evening Light","ispublic":1,"isfriend":0,"isfamily":0},{"id":"52152587914","owner":"40195635@N03","secret":"174bedeaf0","server":"65535","farm":66,"title":"Golden-shouldered Parrot (Psephotus chrysopterygius)","ispublic":1,"isfriend":0,"isfamily":0},{"id":"52152080606","owner":"40195635@N03","secret":"48a3d3561a","server":"65535","farm":66,"title":"Golden-shouldered Parrot (Psephotus chrysopterygius)","ispublic":1,"isfriend":0,"isfamily":0},{"id":"52121979017","owner":"108755156@N05","secret":"2cd57d2a0e","server":"65535","farm":66,"title":"Watching","ispublic":1,"isfriend":0,"isfamily":0},{"id":"52120688099","owner":"66857174@N04","secret":"904526324f","server":"65535","farm":66,"title":"Male Red-rumped Parrot (Psephotus haematonotus) - Charleville, QLD","ispublic":1,"isfriend":0,"isfamily":0},{"id":"52120937130","owner":"66857174@N04","secret":"1f3ddb3326","server":"65535","farm":66,"title":"Female Red-rumped Parrot (Psephotus haematonotus) - Charleville, QLD","ispublic":1,"isfriend":0,"isfamily":0},{"id":"52092369281","owner":"12742129@N07","secret":"bc9cd85c20","server":"65535","farm":66,"title":"Red-rumped Parrot","ispublic":1,"isfriend":0,"isfamily":0},{"id":"52092872925","owner":"12742129@N07","secret":"22d0fc008c","server":"65535","farm":66,"title":"Red-rumped Parrot","ispublic":1,"isfriend":0,"isfamily":0},{"id":"52086293810","owner":"108755156@N05","secret":"51ae531359","server":"65535","farm":66,"title":"Nom Nom Nom","ispublic":1,"isfriend":0,"isfamily":0},{"id":"52072701430","owner":"12742129@N07","secret":"5c1165c1c0","server":"65535","farm":66,"title":"Red-rumped Parrot","ispublic":1,"isfriend":0,"isfamily":0},{"id":"52072452419","owner":"12742129@N07","secret":"3d1095abe2","server":"65535","farm":66,"title":"Red-rumped Parrot","ispublic":1,"isfriend":0,"isfamily":0},{"id":"52012063743","owner":"108755156@N05","secret":"a4eefee220","server":"65535","farm":66,"title":"The Happy Couple","ispublic":1,"isfriend":0,"isfamily":0},{"id":"52001763470","owner":"108755156@N05","secret":"c00fa8a010","server":"65535","farm":66,"title":"Grazing","ispublic":1,"isfriend":0,"isfamily":0},{"id":"51978921154","owner":"108755156@N05","secret":"c3c346d52e","server":"65535","farm":66,"title":"Waiting","ispublic":1,"isfriend":0,"isfamily":0},{"id":"51939339850","owner":"74822983@N02","secret":"a5a5c2683a","server":"65535","farm":66,"title":"Red-rumped Parrot 2022-03-09 (7D_182A4949)","ispublic":1,"isfriend":0,"isfamily":0},{"id":"51913767525","owner":"31350467@N04","secret":"7d67ab5166","server":"65535","farm":66,"title":"Parrot, Red-rumped (Psephotus haematonotus haematonotus)","ispublic":1,"isfriend":0,"isfamily":0},{"id":"51908664833","owner":"37203410@N07","secret":"4af5406ab9","server":"65535","farm":66,"title":"El Periquito de Rabadilla Roja \/ psephotus haematonotus","ispublic":1,"isfriend":0,"isfamily":0},{"id":"51908663948","owner":"37203410@N07","secret":"c243442c08","server":"65535","farm":66,"title":"El Periquito de Rabadilla Roja \/ psephotus haematonotus","ispublic":1,"isfriend":0,"isfamily":0},{"id":"51898679443","owner":"79861098@N06","secret":"2e4268c713","server":"65535","farm":66,"title":"Red-rumped parrot","ispublic":1,"isfriend":0,"isfamily":0},{"id":"51891509146","owner":"191389292@N04","secret":"af04585266","server":"65535","farm":66,"title":"Red-rumped Parrot (Psephotus haematonotus)","ispublic":1,"isfriend":0,"isfamily":0},{"id":"51890162549","owner":"71589894@N00","secret":"0e8af261e0","server":"65535","farm":66,"title":"192A6435_1","ispublic":1,"isfriend":0,"isfamily":0},{"id":"51888529076","owner":"71589894@N00","secret":"69c273eddb","server":"65535","farm":66,"title":"192A6943_1","ispublic":1,"isfriend":0,"isfamily":0},{"id":"51856190010","owner":"194690473@N07","secret":"9ce8a2910e","server":"65535","farm":66,"title":"Red-rumped Parrot","ispublic":1,"isfriend":0,"isfamily":0},{"id":"51816225552","owner":"34655572@N06","secret":"d375b98eaa","server":"65535","farm":66,"title":"Wisteria Lane Revisited","ispublic":1,"isfriend":0,"isfamily":0},{"id":"51788964963","owner":"78063402@N00","secret":"782bd7c744","server":"65535","farm":66,"title":"New Year's Celebrations","ispublic":1,"isfriend":0,"isfamily":0},{"id":"51720061156","owner":"74822983@N02","secret":"8f856422b1","server":"65535","farm":66,"title":"Red-rumped Parrot 2021-12-01 (7D_182A1042)","ispublic":1,"isfriend":0,"isfamily":0},{"id":"51713659127","owner":"18901029@N00","secret":"9a3af9e7fa","server":"65535","farm":66,"title":"Redrump parrots in flight","ispublic":1,"isfriend":0,"isfamily":0},{"id":"51708984881","owner":"74822983@N02","secret":"98ba59e08f","server":"65535","farm":66,"title":"Red-rumped Parrot 2021-11-15 (7D_182A9257)","ispublic":1,"isfriend":0,"isfamily":0},{"id":"51706785896","owner":"74822983@N02","secret":"68e3baa0f2","server":"65535","farm":66,"title":"Red-rumped Parrot 2021-11-23 (7D_182A0091)","ispublic":1,"isfriend":0,"isfamily":0},{"id":"52657441105","owner":"197553197@N02","secret":"7ae548f999","server":"65535","farm":66,"title":"Red-rumped Parrot - Psephotus haematonotus","ispublic":1,"isfriend":0,"isfamily":0},{"id":"52628051499","owner":"189211701@N02","secret":"be2fbc0cb9","server":"65535","farm":66,"title":"Red-rumped Parrot (Psephotus haematonotus)","ispublic":1,"isfriend":0,"isfamily":0},{"id":"52393500241","owner":"196618335@N08","secret":"0444f3e86d","server":"65535","farm":66,"title":"Red Rumped Parrots","ispublic":1,"isfriend":0,"isfamily":0},{"id":"52334848662","owner":"130281204@N06","secret":"0510ba28df","server":"65535","farm":66,"title":"\"Pretty Boy\" Red-rumped Parrot","ispublic":1,"isfriend":0,"isfamily":0},{"id":"52313002450","owner":"123597211@N03","secret":"f268379d87","server":"65535","farm":66,"title":"Singsittich (Psephotus haematonotus)","ispublic":1,"isfriend":0,"isfamily":0},{"id":"52311756742","owner":"123597211@N03","secret":"2c8a81b154","server":"65535","farm":66,"title":"Singsittich (Psephotus haematonotus)","ispublic":1,"isfriend":0,"isfamily":0},{"id":"52190291760","owner":"108755156@N05","secret":"33ab7b2613","server":"65535","farm":66,"title":"The Lady On The Lawn","ispublic":1,"isfriend":0,"isfamily":0},{"id":"51953212353","owner":"31350467@N04","secret":"a11d43186b","server":"65535","farm":66,"title":"Parrot, Red-rumped (Psephotus haematonotus haematonotus)","ispublic":1,"isfriend":0,"isfamily":0},{"id":"51915823977","owner":"108755156@N05","secret":"4f900566cc","server":"65535","farm":66,"title":"The lovely Lady","ispublic":1,"isfriend":0,"isfamily":0},{"id":"51889651177","owner":"69610519@N08","secret":"4b2750a3be","server":"65535","farm":66,"title":"Psephotus haematonotus DSC_3254","ispublic":1,"isfriend":0,"isfamily":0},{"id":"51839115048","owner":"194860397@N03","secret":"c64fef6b5b","server":"65535","farm":66,"title":"DSC_2307","ispublic":1,"isfriend":0,"isfamily":0},{"id":"51709412261","owner":"66716461@N04","secret":"2b2f93e86a","server":"65535","farm":66,"title":"red-rumped parrot (Psephotus haematonotus)","ispublic":1,"isfriend":0,"isfamily":0}]},"stat":"ok"}