{"photos":{"page":1,"pages":3,"perpage":100,"total":276,"photo":[{"id":"52592777369","owner":"132165466@N08","secret":"c5a1e28d1a","server":"65535","farm":66,"title":"Red-crested Cotinga","ispublic":1,"isfriend":0,"isfamily":0},{"id":"52495696078","owner":"12639178@N07","secret":"206f8f80de","server":"65535","farm":66,"title":"35606_Red-crested Cotinga Ampelion rubrocristatus.jpg","ispublic":1,"isfriend":0,"isfamily":0},{"id":"52495615445","owner":"12639178@N07","secret":"988b5175ce","server":"65535","farm":66,"title":"35607_Red-crested Cotinga Ampelion rubrocristatus","ispublic":1,"isfriend":0,"isfamily":0},{"id":"52437013577","owner":"32805478@N03","secret":"6aca6024a7","server":"65535","farm":66,"title":"Cotinga crestirrojo, Ampelion rubrocristatus, Red-crested Cotinga","ispublic":1,"isfriend":0,"isfamily":0},{"id":"52318104916","owner":"186748160@N02","secret":"8c20de15ef","server":"65535","farm":66,"title":"Red-crested Cotinga (Ampelion rubrocristatus)","ispublic":1,"isfriend":0,"isfamily":0},{"id":"52317324791","owner":"53247049@N07","secret":"185a1db9a6","server":"65535","farm":66,"title":"RED-CRESTED COTINGA Ampelion rubrocristatus in Fruit Heaven at the Pasochoa Wildlife Refuge in Northern ECUADOR. Cotinga Photo by Peter Wendelken.","ispublic":1,"isfriend":0,"isfamily":0},{"id":"52242149510","owner":"37493716@N02","secret":"a5d3a5998e","server":"65535","farm":66,"title":"Ampelion rubrocristatus, Red-crested Cotinga","ispublic":1,"isfriend":0,"isfamily":0},{"id":"52228746257","owner":"56686021@N04","secret":"5904189a83","server":"65535","farm":66,"title":"Red-crested Cotinga","ispublic":1,"isfriend":0,"isfamily":0},{"id":"52147420329","owner":"53247049@N07","secret":"d4906e2241","server":"65535","farm":66,"title":"RED-CRESTED COTINGA Ampelion rubrocristatus on Fruit at the Pasochoa Wildlife Refuge in Northern ECUADOR. Cotinga Photo by Peter Wendelken.","ispublic":1,"isfriend":0,"isfamily":0},{"id":"52112125586","owner":"37493716@N02","secret":"62a146c8e2","server":"65535","farm":66,"title":"Ampelion rubrocristatus, Red-crested Cotinga","ispublic":1,"isfriend":0,"isfamily":0},{"id":"36817258234","owner":"53247049@N07","secret":"e8deaedf6c","server":"4471","farm":5,"title":"RED-CRESTED COTINGA Ampelion rubrocristatus Flying at the Pasochoa Wildlife Refuge in Northern ECUADOR. Cotinga Photo by Peter Wendelken.","ispublic":1,"isfriend":0,"isfamily":0},{"id":"51854344766","owner":"191534235@N04","secret":"e331af3844","server":"65535","farm":66,"title":"Ampelion rubrocristatus - Cotinga \u00e0 huppe rouge","ispublic":1,"isfriend":0,"isfamily":0},{"id":"51807743812","owner":"187678271@N07","secret":"a8493f503c","server":"65535","farm":66,"title":"Red-crested Cotinga \/ Ampelion rubrocristatus","ispublic":1,"isfriend":0,"isfamily":0},{"id":"51131074000","owner":"186728982@N04","secret":"a31e496b98","server":"65535","farm":66,"title":"Red-crested Cotinga(Ampelion rubrocristatus)","ispublic":1,"isfriend":0,"isfamily":0},{"id":"51130034739","owner":"186728982@N04","secret":"ca90d66791","server":"65535","farm":66,"title":"Red-crested Cotinga (Ampelion rubrocristatus)","ispublic":1,"isfriend":0,"isfamily":0},{"id":"50842585812","owner":"185281933@N07","secret":"1956ddaa37","server":"65535","farm":66,"title":"Red-crested cotinga (Ampelion rubrocristatus)","ispublic":1,"isfriend":0,"isfamily":0},{"id":"50744116052","owner":"56686021@N04","secret":"b57ef7446a","server":"65535","farm":66,"title":"Red-crested Cotinga","ispublic":1,"isfriend":0,"isfamily":0},{"id":"50744005601","owner":"56686021@N04","secret":"5b042e3f5d","server":"65535","farm":66,"title":"Red-crested Cotinga","ispublic":1,"isfriend":0,"isfamily":0},{"id":"50744115947","owner":"56686021@N04","secret":"87228c7296","server":"65535","farm":66,"title":"Red-crested Cotinga","ispublic":1,"isfriend":0,"isfamily":0},{"id":"50739056828","owner":"54249623@N08","secret":"90cd345137","server":"65535","farm":66,"title":"Cotinga Crestada, Red-crested Cotinga (Ampelion rubrocristatus)","ispublic":1,"isfriend":0,"isfamily":0},{"id":"23860249918","owner":"53247049@N07","secret":"c13c78295d","server":"4446","farm":5,"title":"RED-CRESTED COTINGA Ampelion rubrocristatus Perched on Fruit at the Pasochoa Wildlife Refuge in Northern ECUADOR. Cotinga Photo by Peter Wendelken.","ispublic":1,"isfriend":0,"isfamily":0},{"id":"50353145426","owner":"47835705@N04","secret":"aaaa850d48","server":"65535","farm":66,"title":"Cotinga de Cresta Roja - Red-crested Cotinga (Ampelion rubrocristatus) Cusco, Per\u00fa","ispublic":1,"isfriend":0,"isfamily":0},{"id":"49802987372","owner":"55968524@N04","secret":"0584853c2c","server":"65535","farm":66,"title":"3T9P5594 - Red-crested Cotinga - Ampelion rubrocristatus.jpg","ispublic":1,"isfriend":0,"isfamily":0},{"id":"49717895728","owner":"187678271@N07","secret":"0d5b273fd0","server":"65535","farm":66,"title":"Red-crested Cotinga \/ Ampelion rubrocristatus","ispublic":1,"isfriend":0,"isfamily":0},{"id":"49521375506","owner":"113235024@N05","secret":"4b5b19b850","server":"65535","farm":66,"title":"Ampelion rubrocristatus","ispublic":1,"isfriend":0,"isfamily":0},{"id":"49233937592","owner":"132638863@N04","secret":"7891bfd403","server":"65535","farm":66,"title":"Red-crested Cotinga \/ Cotinga \u00e0 huppe rouge","ispublic":1,"isfriend":0,"isfamily":0},{"id":"49088094851","owner":"146707527@N06","secret":"70ea270b4d","server":"65535","farm":66,"title":"Red-Crested Cotinga.. Ampelion Rubrocristatus.  Cotinga Crestada","ispublic":1,"isfriend":0,"isfamily":0},{"id":"48737936162","owner":"43935391694@N01","secret":"c76f78689c","server":"65535","farm":66,"title":"Red Crested Cotinga Murillo Tolima Colombia","ispublic":1,"isfriend":0,"isfamily":0},{"id":"40628918733","owner":"88593217@N04","secret":"167089bb10","server":"7891","farm":8,"title":"Red-crested Cotinga, San Lorenzo-Trail, La Florida, Amazonas, Peru October 2018","ispublic":1,"isfriend":0,"isfamily":0},{"id":"33472003158","owner":"147283349@N08","secret":"8a8a449b1e","server":"7848","farm":8,"title":"Ampelion rubrocristatus","ispublic":1,"isfriend":0,"isfamily":0},{"id":"47331538061","owner":"25486180@N07","secret":"4c50a4368f","server":"7918","farm":8,"title":"Ampelion Rubrocristatus, Red-Crested Cotinga","ispublic":1,"isfriend":0,"isfamily":0},{"id":"40348064223","owner":"147283349@N08","secret":"9cce3e20cb","server":"7860","farm":8,"title":"Ampelion rubrocristatus","ispublic":1,"isfriend":0,"isfamily":0},{"id":"45550663405","owner":"53247049@N07","secret":"ecfa0d3d16","server":"7895","farm":8,"title":"Juvenile RED-CRESTED COTINGA Ampelion rubrocristatus in the Yanacocha Reserve in Northwestern ECUADOR. Cotinga Photo by Peter Wendelken.","ispublic":1,"isfriend":0,"isfamily":0},{"id":"46291279012","owner":"33820263@N07","secret":"937f63ed63","server":"65535","farm":66,"title":"Red-crested Cotinga","ispublic":1,"isfriend":0,"isfamily":0},{"id":"45304744724","owner":"164514214@N05","secret":"182637b2b9","server":"4872","farm":5,"title":"Red-Crestes cotinga(Ampelion rubrocristatus)","ispublic":1,"isfriend":0,"isfamily":0},{"id":"45900367401","owner":"24309230@N03","secret":"3d997008d3","server":"4821","farm":5,"title":"Cotinga Crestirrojo","ispublic":1,"isfriend":0,"isfamily":0},{"id":"45850705672","owner":"24309230@N03","secret":"c6f63c6cb0","server":"4837","farm":5,"title":"Cotinga Crestirrojo","ispublic":1,"isfriend":0,"isfamily":0},{"id":"43795625870","owner":"77017456@N03","secret":"e206e3acb4","server":"1936","farm":2,"title":"Red-crested Cotinga (ampelion rubrocristatus) on mossy twig","ispublic":1,"isfriend":0,"isfamily":0},{"id":"44491915605","owner":"24309230@N03","secret":"e471f29238","server":"1925","farm":2,"title":"Cotinga Crestirrojo","ispublic":1,"isfriend":0,"isfamily":0},{"id":"44610872372","owner":"133729470@N06","secret":"6349b93158","server":"1868","farm":2,"title":"Ampelion rubrocristatus (Red-crested Cotinga)","ispublic":1,"isfriend":0,"isfamily":0},{"id":"30371495298","owner":"8035575@N06","secret":"110c09570f","server":"1874","farm":2,"title":"Ampelion Rubrocristatus","ispublic":1,"isfriend":0,"isfamily":0},{"id":"44189899372","owner":"8035575@N06","secret":"bcb401e2ba","server":"1895","farm":2,"title":"Ampelion Rubrocristatus","ispublic":1,"isfriend":0,"isfamily":0},{"id":"44189897182","owner":"8035575@N06","secret":"78ae2626c6","server":"1876","farm":2,"title":"Ampelion Rubrocristatus","ispublic":1,"isfriend":0,"isfamily":0},{"id":"43472737321","owner":"114923835@N05","secret":"44b54d3afc","server":"1761","farm":2,"title":"16","ispublic":1,"isfriend":0,"isfamily":0},{"id":"42883616872","owner":"95747238@N07","secret":"f16ab3ae79","server":"1764","farm":2,"title":"Ampelion rubrocristatus o Cotinga de cresta roja 7","ispublic":1,"isfriend":0,"isfamily":0},{"id":"28807097028","owner":"95747238@N07","secret":"cded8057bd","server":"1721","farm":2,"title":"Ampelion rubrocristatus o Cotinga de cresta roja","ispublic":1,"isfriend":0,"isfamily":0},{"id":"28044176458","owner":"155928864@N08","secret":"5302506e86","server":"65535","farm":66,"title":"Cotinga crestirroja, Ampelion rubrocristatus, Red-crested Cotinga. Rumiloma, Quito, Ecuador","ispublic":1,"isfriend":0,"isfamily":0},{"id":"40569086024","owner":"53247049@N07","secret":"cd767fc64d","server":"801","farm":1,"title":"RED-CRESTED COTINGA Ampelion rubrocristatus in Sunlight at the Pasochoa Wildlife Refuge in Northern ECUADOR. Cotinga Photo by Peter Wendelken.","ispublic":1,"isfriend":0,"isfamily":0},{"id":"26953724068","owner":"105024757@N08","secret":"5047e0a67f","server":"789","farm":1,"title":"Red-crested Cotinga  - Ampelion rubrocristatus - Cotinga crestada","ispublic":1,"isfriend":0,"isfamily":0},{"id":"25675738357","owner":"152821629@N02","secret":"3c316f198c","server":"4700","farm":5,"title":"Cotinga Crestada- Ampelion rubrocristatus| Red-crested Cotinga","ispublic":1,"isfriend":0,"isfamily":0},{"id":"38554983344","owner":"142952595@N08","secret":"28412c334b","server":"4636","farm":5,"title":"Red-crested Cotinga","ispublic":1,"isfriend":0,"isfamily":0},{"id":"27382757869","owner":"96142196@N05","secret":"e6ce25f28b","server":"65535","farm":66,"title":"Ampelion rubrocristatus","ispublic":1,"isfriend":0,"isfamily":0},{"id":"27141904709","owner":"53247049@N07","secret":"e5f8a13ee4","server":"4548","farm":5,"title":"RED-CRESTED COTINGA Ampelion rubrocristatus on Volc\u00e1n Pichincha in Northwestern ECUADOR. Cotinga Photo by Peter Wendelken.","ispublic":1,"isfriend":0,"isfamily":0},{"id":"26415965889","owner":"53247049@N07","secret":"a75d7953d2","server":"4534","farm":5,"title":"RED-CRESTED COTINGA Ampelion rubrocristatus on Aegiphila ferruginea Fruit at the Pasochoa Wildlife Refuge in ECUADOR. Cotinga Photo by Peter Wendelken.","ispublic":1,"isfriend":0,"isfamily":0},{"id":"26205699899","owner":"98169970@N00","secret":"8c500f80ec","server":"4511","farm":5,"title":"red-crested cotinga (ampelion rubrocristatus)","ispublic":1,"isfriend":0,"isfamily":0},{"id":"37134734124","owner":"48434622@N06","secret":"a32684f721","server":"4463","farm":5,"title":"Red-crested Cotinga Ampelion rubrocristatus","ispublic":1,"isfriend":0,"isfamily":0},{"id":"52665967617","owner":"190773540@N03","secret":"4e863c18a9","server":"65535","farm":66,"title":"Red-crested Cotinga","ispublic":1,"isfriend":0,"isfamily":0},{"id":"52629969539","owner":"190773540@N03","secret":"b606129979","server":"65535","farm":66,"title":"Red-crested Cotinga","ispublic":1,"isfriend":0,"isfamily":0},{"id":"52127597739","owner":"56686021@N04","secret":"6cf8f50e8a","server":"65535","farm":66,"title":"Red-crested Cotinga","ispublic":1,"isfriend":0,"isfamily":0},{"id":"52127851075","owner":"56686021@N04","secret":"e2f9c1c6c5","server":"65535","farm":66,"title":"Red-crested Cotinga","ispublic":1,"isfriend":0,"isfamily":0},{"id":"52127355961","owner":"56686021@N04","secret":"c6e9fea608","server":"65535","farm":66,"title":"Red-crested Cotinga","ispublic":1,"isfriend":0,"isfamily":0},{"id":"52048619152","owner":"48084395@N03","secret":"b030904636","server":"65535","farm":66,"title":"Red-crested Cotinga (Ampelion rubrocristatus) _5AC3466","ispublic":1,"isfriend":0,"isfamily":0},{"id":"51895015027","owner":"40744265@N05","secret":"fcb528e6dd","server":"65535","farm":66,"title":"Red-crested Cotinga (Ampelion rubrocristatus)","ispublic":1,"isfriend":0,"isfamily":0},{"id":"51830341044","owner":"129593667@N03","secret":"f66efcacbc","server":"65535","farm":66,"title":"Red-crested Cotinga - Cotinga \u00e0 huppe rouge","ispublic":1,"isfriend":0,"isfamily":0},{"id":"51708743744","owner":"47835705@N04","secret":"cba878cfa4","server":"65535","farm":66,"title":"Cotinga de Cresta Roja - Red-crested Cotinga (Ampelion rubrocristatus) Parque Nacional Manu, Per\u00fa","ispublic":1,"isfriend":0,"isfamily":0},{"id":"36282053652","owner":"29170368@N03","secret":"def7e65973","server":"65535","farm":66,"title":"Red-crested Cotinga","ispublic":1,"isfriend":0,"isfamily":0},{"id":"50195545353","owner":"119787485@N07","secret":"741b7d36da","server":"65535","farm":66,"title":"Red-crested Cotinga (Ampelion rubrocristatus) - 20181009-02","ispublic":1,"isfriend":0,"isfamily":0},{"id":"49979054503","owner":"129081014@N03","secret":"1d6603ae8a","server":"65535","farm":66,"title":"Red-crested Cotinga (Ampelion rubrocristatus)","ispublic":1,"isfriend":0,"isfamily":0},{"id":"49979054388","owner":"129081014@N03","secret":"2b98463187","server":"65535","farm":66,"title":"Red-crested Cotinga (Ampelion rubrocristatus)","ispublic":1,"isfriend":0,"isfamily":0},{"id":"49979054268","owner":"129081014@N03","secret":"bb4c7ec3e1","server":"65535","farm":66,"title":"Red-crested Cotinga (Ampelion rubrocristatus)","ispublic":1,"isfriend":0,"isfamily":0},{"id":"48932618071","owner":"46788536@N05","secret":"6b655db0f9","server":"65535","farm":66,"title":"Ampelion rubrocristatus \/\/ Red-crested Cotinga","ispublic":1,"isfriend":0,"isfamily":0},{"id":"48932805342","owner":"46788536@N05","secret":"f16098e843","server":"65535","farm":66,"title":"Ampelion rubrocristatus \/\/ Red-crested Cotinga","ispublic":1,"isfriend":0,"isfamily":0},{"id":"48932738412","owner":"46788536@N05","secret":"99f4027d1f","server":"65535","farm":66,"title":"Ampelion rubrocristatus \/\/ Red-crested Cotinga","ispublic":1,"isfriend":0,"isfamily":0},{"id":"48775316903","owner":"146006711@N02","secret":"d6c0de0bb8","server":"65535","farm":66,"title":"Cotinga Crestirroja \/Red-crested Cotinga\/ Ampelion rubrocristatus\/","ispublic":1,"isfriend":0,"isfamily":0},{"id":"48775203673","owner":"146006711@N02","secret":"ae24482936","server":"65535","farm":66,"title":"Cotinga Crestirroja \/Red-crested Cotinga\/ Ampelion rubrocristatus\/","ispublic":1,"isfriend":0,"isfamily":0},{"id":"48276971496","owner":"94523861@N04","secret":"a64bd00720","server":"65535","farm":66,"title":"Red-crested Cotinga","ispublic":1,"isfriend":0,"isfamily":0},{"id":"48103625533","owner":"33820263@N07","secret":"4453d438c0","server":"65535","farm":66,"title":"Red-crested Cotinga","ispublic":1,"isfriend":0,"isfamily":0},{"id":"48103625373","owner":"33820263@N07","secret":"1f56672ff2","server":"65535","farm":66,"title":"Red-crested Cotinga","ispublic":1,"isfriend":0,"isfamily":0},{"id":"48103576771","owner":"33820263@N07","secret":"97d792e16a","server":"65535","farm":66,"title":"Red-crested Cotinga","ispublic":1,"isfriend":0,"isfamily":0},{"id":"47587264042","owner":"165294361@N07","secret":"dbb2ee4675","server":"65535","farm":66,"title":"ampelion rubrocristatus DSC_6549","ispublic":1,"isfriend":0,"isfamily":0},{"id":"47269230022","owner":"170146945@N07","secret":"9ce69621e0","server":"7905","farm":8,"title":"Red Crested Cotinga  (Ampelion rubrocristatus)","ispublic":1,"isfriend":0,"isfamily":0},{"id":"47087355442","owner":"162321106@N03","secret":"1d705d5131","server":"7913","farm":8,"title":"Ampelion rubrocristatus - red-crested cotinga","ispublic":1,"isfriend":0,"isfamily":0},{"id":"47087355162","owner":"162321106@N03","secret":"a095c76006","server":"7886","farm":8,"title":"Ampelion rubrocristatus - red-crested cotinga","ispublic":1,"isfriend":0,"isfamily":0},{"id":"41122214240","owner":"95747238@N07","secret":"9049ed4baa","server":"876","farm":1,"title":"Ampelion rubrocristatus o Cotinga de cresta roja 4","ispublic":1,"isfriend":0,"isfamily":0},{"id":"41122213130","owner":"95747238@N07","secret":"eb25febac1","server":"1782","farm":2,"title":"Ampelion rubrocristatus o Cotinga de cresta roja 6","ispublic":1,"isfriend":0,"isfamily":0},{"id":"42883615672","owner":"95747238@N07","secret":"73572f3652","server":"1827","farm":2,"title":"Ampelion rubrocristatus o Cotinga de cresta roja 8","ispublic":1,"isfriend":0,"isfamily":0},{"id":"41122210230","owner":"95747238@N07","secret":"4b830ab9b8","server":"1830","farm":2,"title":"Ampelion rubrocristatus o Cotinga de cresta roja 9","ispublic":1,"isfriend":0,"isfamily":0},{"id":"42883614232","owner":"95747238@N07","secret":"10de3d7582","server":"1830","farm":2,"title":"Ampelion rubrocristatus o Cotinga de cresta roja 10","ispublic":1,"isfriend":0,"isfamily":0},{"id":"28040632677","owner":"95747238@N07","secret":"33d24db489","server":"1769","farm":2,"title":"Ampelion rubrocristatus o Cotinga de cresta roja 2","ispublic":1,"isfriend":0,"isfamily":0},{"id":"42909427341","owner":"95747238@N07","secret":"d4210e2b3e","server":"1783","farm":2,"title":"Ampelion rubrocristatus o Cotinga de cresta roja 3","ispublic":1,"isfriend":0,"isfamily":0},{"id":"28931251808","owner":"95747238@N07","secret":"a739d70008","server":"1724","farm":2,"title":"Ampelion rubrocristatus o Cotinga de cresta roja b","ispublic":1,"isfriend":0,"isfamily":0},{"id":"39782444705","owner":"45505361@N08","secret":"6875a0fd59","server":"4747","farm":5,"title":"Ampelion rubrocristatus","ispublic":1,"isfriend":0,"isfamily":0},{"id":"39949027801","owner":"60036776@N03","secret":"85a838c8a9","server":"4653","farm":5,"title":"Red-crested Cotinga_OWIphoto-9403.jpg","ispublic":1,"isfriend":0,"isfamily":0},{"id":"27486811659","owner":"142952595@N08","secret":"ac93c2fe8b","server":"4680","farm":5,"title":"Red-crested Cotinga","ispublic":1,"isfriend":0,"isfamily":0},{"id":"39171936542","owner":"120741004@N04","secret":"81939472a1","server":"4595","farm":5,"title":"Ampelion rubrocristatus juvenil y adulto","ispublic":1,"isfriend":0,"isfamily":0},{"id":"39171936022","owner":"120741004@N04","secret":"3258d152dd","server":"4728","farm":5,"title":"Ampelion rubrocristatus juvenil","ispublic":1,"isfriend":0,"isfamily":0},{"id":"27423638309","owner":"120741004@N04","secret":"a770f5c7f2","server":"4729","farm":5,"title":"Ampelion rubrocristatus alimentando juvenil","ispublic":1,"isfriend":0,"isfamily":0},{"id":"24338266947","owner":"120741004@N04","secret":"cff462058b","server":"4593","farm":5,"title":"Ampelion rubrocristatus juvenil","ispublic":1,"isfriend":0,"isfamily":0},{"id":"38260230606","owner":"141407785@N05","secret":"52f446a84d","server":"4543","farm":5,"title":"Ampelion rubrocristatus","ispublic":1,"isfriend":0,"isfamily":0},{"id":"37599176484","owner":"141407785@N05","secret":"7da91b290b","server":"4576","farm":5,"title":"Ampelion rubrocristatus","ispublic":1,"isfriend":0,"isfamily":0}]},"stat":"ok"}