{"photos":{"page":1,"pages":65,"perpage":100,"total":6428,"photo":[{"id":"52718298650","owner":"14572247@N07","secret":"823cc41300","server":"65535","farm":66,"title":"Red-necked Phararope (Phalaropus lobatus)","ispublic":1,"isfriend":0,"isfamily":0},{"id":"52688672549","owner":"76288515@N07","secret":"4b931ebf8c","server":"65535","farm":66,"title":"Red-necked Phalarope Phalaropus lobatus","ispublic":1,"isfriend":0,"isfamily":0},{"id":"52688672524","owner":"76288515@N07","secret":"43a6328c35","server":"65535","farm":66,"title":"Red-necked Phalarope Phalaropus lobatus","ispublic":1,"isfriend":0,"isfamily":0},{"id":"52688399856","owner":"76288515@N07","secret":"6754b9b115","server":"65535","farm":66,"title":"Red-necked Phalarope Phalaropus lobatus","ispublic":1,"isfriend":0,"isfamily":0},{"id":"52688672479","owner":"76288515@N07","secret":"981c349b1c","server":"65535","farm":66,"title":"Red-necked Phalarope Phalaropus lobatus","ispublic":1,"isfriend":0,"isfamily":0},{"id":"52688399816","owner":"76288515@N07","secret":"b70ebdcd11","server":"65535","farm":66,"title":"Red-necked Phalarope Phalaropus lobatus","ispublic":1,"isfriend":0,"isfamily":0},{"id":"52687877972","owner":"76288515@N07","secret":"4b6db4ca91","server":"65535","farm":66,"title":"Red-necked Phalarope Phalaropus lobatus","ispublic":1,"isfriend":0,"isfamily":0},{"id":"52688822595","owner":"76288515@N07","secret":"4ef69eef32","server":"65535","farm":66,"title":"Red-necked Phalarope Phalaropus lobatus","ispublic":1,"isfriend":0,"isfamily":0},{"id":"52687877882","owner":"76288515@N07","secret":"e3bfdae9f7","server":"65535","farm":66,"title":"Red-necked Phalarope Phalaropus lobatus","ispublic":1,"isfriend":0,"isfamily":0},{"id":"52688672439","owner":"76288515@N07","secret":"11b12dbeb2","server":"65535","farm":66,"title":"Red-necked Phalarope Phalaropus lobatus","ispublic":1,"isfriend":0,"isfamily":0},{"id":"52688672424","owner":"76288515@N07","secret":"f3cbb96d99","server":"65535","farm":66,"title":"Red-necked Phalarope Phalaropus lobatus","ispublic":1,"isfriend":0,"isfamily":0},{"id":"52688399716","owner":"76288515@N07","secret":"f2f98bbb18","server":"65535","farm":66,"title":"Red-necked Phalarope Phalaropus lobatus","ispublic":1,"isfriend":0,"isfamily":0},{"id":"52687877832","owner":"76288515@N07","secret":"3e180dde95","server":"65535","farm":66,"title":"Red-necked Phalarope Phalaropus lobatus","ispublic":1,"isfriend":0,"isfamily":0},{"id":"52654251288","owner":"151677249@N08","secret":"fc53625146","server":"65535","farm":66,"title":"Red-necked Phalarope (Phalaropus lobatus)","ispublic":1,"isfriend":0,"isfamily":0},{"id":"52654206990","owner":"151677249@N08","secret":"d658d1ef31","server":"65535","farm":66,"title":"Red-necked Phalarope (Phalaropus lobatus)","ispublic":1,"isfriend":0,"isfamily":0},{"id":"52654042309","owner":"151677249@N08","secret":"4e5caf30d7","server":"0","farm":0,"title":"Red-necked Phalarope (Phalaropus lobatus)","ispublic":1,"isfriend":0,"isfamily":0},{"id":"52634805339","owner":"92193497@N03","secret":"3716edcc5e","server":"65535","farm":66,"title":"Phalaropus lobatus","ispublic":1,"isfriend":0,"isfamily":0},{"id":"52631013465","owner":"62938898@N00","secret":"e41200ab56","server":"65535","farm":66,"title":"\u041a\u0440\u0443\u0433\u043b\u043e\u043d\u043e\u0441\u044b\u0439 \u043f\u043b\u0430\u0432\u0443\u043d\u0447\u0438\u043a (red-necked phalarope)","ispublic":1,"isfriend":0,"isfamily":0},{"id":"52614111697","owner":"70200234@N08","secret":"5d29893340","server":"65535","farm":66,"title":"Falaropo picofino (Phalaropus lobatus) Varanger 2022-06 (6)","ispublic":1,"isfriend":0,"isfamily":0},{"id":"52590068358","owner":"68466173@N02","secret":"0b921e5888","server":"65535","farm":66,"title":"Red-necked Phalarope (Phalaropus lobatus)","ispublic":1,"isfriend":0,"isfamily":0},{"id":"52583010646","owner":"8575520@N08","secret":"02921a1b4d","server":"65535","farm":66,"title":"Red-Necked Phalarope","ispublic":1,"isfriend":0,"isfamily":0},{"id":"52583525198","owner":"8575520@N08","secret":"2b8c64f9a4","server":"65535","farm":66,"title":"Red-Necked Phalarope","ispublic":1,"isfriend":0,"isfamily":0},{"id":"52583525103","owner":"8575520@N08","secret":"fac9f4996c","server":"65535","farm":66,"title":"Red-Necked Phalarope","ispublic":1,"isfriend":0,"isfamily":0},{"id":"52583270334","owner":"8575520@N08","secret":"4309021fe1","server":"65535","farm":66,"title":"Red-Necked Phalarope","ispublic":1,"isfriend":0,"isfamily":0},{"id":"52583447105","owner":"8575520@N08","secret":"f379fc3163","server":"65535","farm":66,"title":"Red-Necked Phalarope","ispublic":1,"isfriend":0,"isfamily":0},{"id":"52583267804","owner":"8575520@N08","secret":"105e07a541","server":"65535","farm":66,"title":"Red-Necked Phalarope","ispublic":1,"isfriend":0,"isfamily":0},{"id":"52583007641","owner":"8575520@N08","secret":"0d2d8037f5","server":"65535","farm":66,"title":"Red-Necked Phalarope","ispublic":1,"isfriend":0,"isfamily":0},{"id":"52573812972","owner":"32541690@N02","secret":"7b7075dfe6","server":"65535","farm":66,"title":"Non-breeding Red-necked Phalarope (Phalaropus lobatus)","ispublic":1,"isfriend":0,"isfamily":0},{"id":"52573123705","owner":"129787474@N06","secret":"5baced0229","server":"65535","farm":66,"title":"Red-necked phalarope (Phalaropus lobatus)","ispublic":1,"isfriend":0,"isfamily":0},{"id":"52572208442","owner":"129787474@N06","secret":"7d77182125","server":"65535","farm":66,"title":"Red-necked phalarope (Phalaropus lobatus)","ispublic":1,"isfriend":0,"isfamily":0},{"id":"52564382401","owner":"129787474@N06","secret":"007845d65a","server":"65535","farm":66,"title":"Red-necked phalaropes (Phalaropus lobatus)","ispublic":1,"isfriend":0,"isfamily":0},{"id":"52563922692","owner":"129787474@N06","secret":"776eb940cc","server":"65535","farm":66,"title":"Red-necked phalarope (Phalaropus lobatus)","ispublic":1,"isfriend":0,"isfamily":0},{"id":"52547953487","owner":"12639178@N07","secret":"08e9843f1e","server":"65535","farm":66,"title":"Alpenstrandl\u00e4ufer \/ Odinsh\u00fchnchen","ispublic":1,"isfriend":0,"isfamily":0},{"id":"52548413006","owner":"12639178@N07","secret":"99a703f9d6","server":"65535","farm":66,"title":"Bruchwasserl\u00e4ufer \/ Odinsh\u00fchnchen \/ Bekassine","ispublic":1,"isfriend":0,"isfamily":0},{"id":"52548958938","owner":"12639178@N07","secret":"72db0a5fcf","server":"65535","farm":66,"title":"Bekassinen\/ Odinsh\u00fchnchen","ispublic":1,"isfriend":0,"isfamily":0},{"id":"52537716865","owner":"129787474@N06","secret":"c54471a723","server":"65535","farm":66,"title":"Red-necked phalarope (Phalaropus lobatus)","ispublic":1,"isfriend":0,"isfamily":0},{"id":"52535317449","owner":"129787474@N06","secret":"67d63cb8db","server":"65535","farm":66,"title":"Red-necked phalarope (Phalaropus lobatus)","ispublic":1,"isfriend":0,"isfamily":0},{"id":"52533430798","owner":"129787474@N06","secret":"7ef811067f","server":"65535","farm":66,"title":"Red-necked phalaropes (Phalaropus lobatus)","ispublic":1,"isfriend":0,"isfamily":0},{"id":"52533363475","owner":"129787474@N06","secret":"c46bbc8b4f","server":"65535","farm":66,"title":"Red-necked phalarope (Phalaropus lobatus)","ispublic":1,"isfriend":0,"isfamily":0},{"id":"52531163436","owner":"43272765@N04","secret":"8c2a37ee08","server":"0","farm":0,"title":"Red-necked Phalarope - Phalaropus lobatus, washing","ispublic":1,"isfriend":0,"isfamily":0},{"id":"52531637765","owner":"43272765@N04","secret":"0d11cc854a","server":"0","farm":0,"title":"Red-necked Phalarope - Phalaropus lobatus, feeding","ispublic":1,"isfriend":0,"isfamily":0},{"id":"52531705733","owner":"43272765@N04","secret":"04e4dfe8d2","server":"65535","farm":66,"title":"Red-necked Phalarope - Phalaropus lobatus","ispublic":1,"isfriend":0,"isfamily":0},{"id":"52531443689","owner":"43272765@N04","secret":"d2d84eaf6a","server":"65535","farm":66,"title":"Red-necked Phalarope - Phalaropus lobatus","ispublic":1,"isfriend":0,"isfamily":0},{"id":"52530690217","owner":"43272765@N04","secret":"cda22187d3","server":"65535","farm":66,"title":"Red-necked Phalarope - Phalaropus lobatus","ispublic":1,"isfriend":0,"isfamily":0},{"id":"52531160981","owner":"43272765@N04","secret":"0f565ee65a","server":"65535","farm":66,"title":"Red-necked Phalarope - Phalaropus lobatus","ispublic":1,"isfriend":0,"isfamily":0},{"id":"52531160916","owner":"43272765@N04","secret":"c760a00516","server":"65535","farm":66,"title":"Red-necked Phalarope - Phalaropus lobatus","ispublic":1,"isfriend":0,"isfamily":0},{"id":"52531160906","owner":"43272765@N04","secret":"5a7130fac1","server":"65535","farm":66,"title":"Red-necked Phalarope - Phalaropus lobatus","ispublic":1,"isfriend":0,"isfamily":0},{"id":"52530822551","owner":"129787474@N06","secret":"bf23d83596","server":"65535","farm":66,"title":"Red-necked phalarope (Phalaropus lobatus)","ispublic":1,"isfriend":0,"isfamily":0},{"id":"52530822351","owner":"129787474@N06","secret":"60423f027f","server":"65535","farm":66,"title":"Red-necked phalarope (Phalaropus lobatus)","ispublic":1,"isfriend":0,"isfamily":0},{"id":"52528604461","owner":"129787474@N06","secret":"0b335c55c0","server":"65535","farm":66,"title":"Red-necked phalarope (Phalaropus lobatus)","ispublic":1,"isfriend":0,"isfamily":0},{"id":"52524136842","owner":"140734051@N08","secret":"bb36019df6","server":"65535","farm":66,"title":"\u041a\u0440\u0443\u0433\u043b\u043e\u043d\u043e\u0441\u044b\u0439 \u043f\u043b\u0430\u0432\u0443\u043d\u0447\u0438\u043a, Phalaropus lobatus, Red-necked Phalarope","ispublic":1,"isfriend":0,"isfamily":0},{"id":"52525081070","owner":"140734051@N08","secret":"f5464f711e","server":"65535","farm":66,"title":"\u041a\u0440\u0443\u0433\u043b\u043e\u043d\u043e\u0441\u044b\u0439 \u043f\u043b\u0430\u0432\u0443\u043d\u0447\u0438\u043a, Phalaropus lobatus, Red-necked Phalarope","ispublic":1,"isfriend":0,"isfamily":0},{"id":"52524133297","owner":"140734051@N08","secret":"410316f2ed","server":"65535","farm":66,"title":"\u041a\u0440\u0443\u0433\u043b\u043e\u043d\u043e\u0441\u044b\u0439 \u043f\u043b\u0430\u0432\u0443\u043d\u0447\u0438\u043a, Phalaropus lobatus, Red-necked Phalarope","ispublic":1,"isfriend":0,"isfamily":0},{"id":"52524133232","owner":"140734051@N08","secret":"f87791a86b","server":"65535","farm":66,"title":"\u041a\u0440\u0443\u0433\u043b\u043e\u043d\u043e\u0441\u044b\u0439 \u043f\u043b\u0430\u0432\u0443\u043d\u0447\u0438\u043a, Phalaropus lobatus, Red-necked Phalarope","ispublic":1,"isfriend":0,"isfamily":0},{"id":"52525152718","owner":"140734051@N08","secret":"8acf4eed3b","server":"65535","farm":66,"title":"\u041a\u0440\u0443\u0433\u043b\u043e\u043d\u043e\u0441\u044b\u0439 \u043f\u043b\u0430\u0432\u0443\u043d\u0447\u0438\u043a, Phalaropus lobatus, Red-necked Phalarope","ispublic":1,"isfriend":0,"isfamily":0},{"id":"52523617233","owner":"163930705@N05","secret":"5f578eaf42","server":"65535","farm":66,"title":"Red-necked Phalarope \/ \u00d3\u00f0inshani (Phalaropus lobatus)","ispublic":1,"isfriend":0,"isfamily":0},{"id":"52517184323","owner":"68466173@N02","secret":"2e245b2475","server":"65535","farm":66,"title":"Red-necked Phalarope (Phalaropus lobatus)","ispublic":1,"isfriend":0,"isfamily":0},{"id":"52516529081","owner":"92361032@N05","secret":"3091fd8b7f","server":"65535","farm":66,"title":"Red-necked Phalarope \/ Phalarope \u00e0 bec \u00e9troit ( Richard )","ispublic":1,"isfriend":0,"isfamily":0},{"id":"52514555740","owner":"96252811@N02","secret":"07beb63596","server":"65535","farm":66,"title":"Phalarope \u00e0 bec \u00e9troit - Phalaropus lobatus - Red-necked Phalarope","ispublic":1,"isfriend":0,"isfamily":0},{"id":"52514069031","owner":"96252811@N02","secret":"d6536dc684","server":"65535","farm":66,"title":"Phalarope \u00e0 bec \u00e9troit - Phalaropus lobatus - Red-necked Phalarope","ispublic":1,"isfriend":0,"isfamily":0},{"id":"52494947417","owner":"183378762@N05","secret":"952c0c410d","server":"65535","farm":66,"title":"0J9A0117 Grey Phalarope (Phalaropus lobatus)","ispublic":1,"isfriend":0,"isfamily":0},{"id":"52501803737","owner":"68466173@N02","secret":"10dacdb810","server":"65535","farm":66,"title":"Red-necked Phalarope (Phalaropus lobatus)","ispublic":1,"isfriend":0,"isfamily":0},{"id":"52475694894","owner":"35437652@N02","secret":"4e94a52105","server":"65535","farm":66,"title":"Red-necked Phalarope","ispublic":1,"isfriend":0,"isfamily":0},{"id":"52484122248","owner":"59777454@N02","secret":"205fac93a8","server":"65535","farm":66,"title":"Red-necked Phalarope juvenile Tekiela 7DM23994-2","ispublic":1,"isfriend":0,"isfamily":0},{"id":"52489786502","owner":"68466173@N02","secret":"8e14e2dc45","server":"65535","farm":66,"title":"Red-necked Phalarope (Phalaropus lobatus)","ispublic":1,"isfriend":0,"isfamily":0},{"id":"52384432055","owner":"35437652@N02","secret":"59e6c0a94f","server":"65535","farm":66,"title":"Red-necked Phalarope","ispublic":1,"isfriend":0,"isfamily":0},{"id":"52469195440","owner":"70006685@N02","secret":"8cb1e94a8c","server":"65535","farm":66,"title":"Red necked Phalarope 04","ispublic":1,"isfriend":0,"isfamily":0},{"id":"52468734756","owner":"70006685@N02","secret":"21bb16b66c","server":"65535","farm":66,"title":"Red necked Phalarope 01","ispublic":1,"isfriend":0,"isfamily":0},{"id":"52481589391","owner":"68466173@N02","secret":"a737df39d2","server":"65535","farm":66,"title":"Red-necked Phalarope (Phalaropus lobatus)","ispublic":1,"isfriend":0,"isfamily":0},{"id":"52457949928","owner":"96252811@N02","secret":"350d10193f","server":"65535","farm":66,"title":"Phalarope \u00e0 bec \u00e9troit - Phalaropus lobatus - Red-necked Phalarope","ispublic":1,"isfriend":0,"isfamily":0},{"id":"52443234981","owner":"152675955@N08","secret":"af8257caec","server":"65535","farm":66,"title":"Musicalit\u00e9 \/ Musicality","ispublic":1,"isfriend":0,"isfamily":0},{"id":"52455023203","owner":"51928691@N04","secret":"b6d8fb498a","server":"65535","farm":66,"title":"Red-necked Phalarope (Phalaropus lobatus) 4 093022.","ispublic":1,"isfriend":0,"isfamily":0},{"id":"52455023143","owner":"51928691@N04","secret":"46634285ed","server":"65535","farm":66,"title":"Red-necked Phalarope (Phalaropus lobatus) 5 093022.","ispublic":1,"isfriend":0,"isfamily":0},{"id":"52695534777","owner":"197745515@N06","secret":"819738376d","server":"65535","farm":66,"title":"Phalaropus lobatus","ispublic":1,"isfriend":0,"isfamily":0},{"id":"52580677859","owner":"153973412@N04","secret":"15b2db2936","server":"65535","farm":66,"title":"Red-necked Phalarope-Phalaropus lobatus, Sutliff, IA","ispublic":1,"isfriend":0,"isfamily":0},{"id":"52548958813","owner":"12639178@N07","secret":"8332f879e5","server":"65535","farm":66,"title":"Odinsh\u00fchnchen\/Bekassine","ispublic":1,"isfriend":0,"isfamily":0},{"id":"52537716785","owner":"129787474@N06","secret":"cc5e983d7d","server":"65535","farm":66,"title":"Red-necked phalaropes (Phalaropus lobatus)","ispublic":1,"isfriend":0,"isfamily":0},{"id":"52536831130","owner":"7836790@N07","secret":"09ca2dd76a","server":"65535","farm":66,"title":"Phalarope \u00e0 bec \u00e9troit - Phalaropus lobatus - Red-necked Phalarope","ispublic":1,"isfriend":0,"isfamily":0},{"id":"52536349471","owner":"7836790@N07","secret":"c6bfdaa129","server":"65535","farm":66,"title":"Phalarope \u00e0 bec \u00e9troit - Phalaropus lobatus - Red-necked Phalarope","ispublic":1,"isfriend":0,"isfamily":0},{"id":"52535882067","owner":"7836790@N07","secret":"666cf730d0","server":"65535","farm":66,"title":"Phalarope \u00e0 bec \u00e9troit - Phalaropus lobatus - Red-necked Phalarope","ispublic":1,"isfriend":0,"isfamily":0},{"id":"52536638304","owner":"7836790@N07","secret":"636a85258c","server":"65535","farm":66,"title":"Phalarope \u00e0 bec \u00e9troit - Phalaropus lobatus - Red-necked Phalarope","ispublic":1,"isfriend":0,"isfamily":0},{"id":"52536824895","owner":"7836790@N07","secret":"b504758edb","server":"65535","farm":66,"title":"Phalarope \u00e0 bec \u00e9troit - Phalaropus lobatus - Red-necked Phalarope","ispublic":1,"isfriend":0,"isfamily":0},{"id":"52536348856","owner":"7836790@N07","secret":"8b34efe668","server":"65535","farm":66,"title":"Phalarope \u00e0 bec \u00e9troit - Phalaropus lobatus - Red-necked Phalarope","ispublic":1,"isfriend":0,"isfamily":0},{"id":"52534565327","owner":"129787474@N06","secret":"e2b45ab50f","server":"65535","farm":66,"title":"Red-necked phalarope (Phalaropus lobatus)","ispublic":1,"isfriend":0,"isfamily":0},{"id":"52535508725","owner":"129787474@N06","secret":"fd4fb4109c","server":"65535","farm":66,"title":"Red-necked phalarope (Phalaropus lobatus)","ispublic":1,"isfriend":0,"isfamily":0},{"id":"52533430703","owner":"129787474@N06","secret":"f914e87ea9","server":"65535","farm":66,"title":"Red-necked phalaropes (Phalaropus lobatus)","ispublic":1,"isfriend":0,"isfamily":0},{"id":"52531602666","owner":"90068076@N00","secret":"8e3283c1ef","server":"65535","farm":66,"title":"SK5_0013-Edit","ispublic":1,"isfriend":0,"isfamily":0},{"id":"52531130022","owner":"90068076@N00","secret":"c409ee7341","server":"65535","farm":66,"title":"SK5_0033","ispublic":1,"isfriend":0,"isfamily":0},{"id":"52532073085","owner":"90068076@N00","secret":"6142a474b1","server":"65535","farm":66,"title":"SK5_0011","ispublic":1,"isfriend":0,"isfamily":0},{"id":"52528890229","owner":"129787474@N06","secret":"4957909c75","server":"65535","farm":66,"title":"Red-necked phalarope (Phalaropus lobatus)","ispublic":1,"isfriend":0,"isfamily":0},{"id":"52525154758","owner":"140734051@N08","secret":"e17de12e64","server":"65535","farm":66,"title":"\u041a\u0440\u0443\u0433\u043b\u043e\u043d\u043e\u0441\u044b\u0439 \u043f\u043b\u0430\u0432\u0443\u043d\u0447\u0438\u043a, Phalaropus lobatus, Red-necked Phalarope","ispublic":1,"isfriend":0,"isfamily":0},{"id":"52524600766","owner":"140734051@N08","secret":"7d247c55d0","server":"65535","farm":66,"title":"\u041a\u0440\u0443\u0433\u043b\u043e\u043d\u043e\u0441\u044b\u0439 \u043f\u043b\u0430\u0432\u0443\u043d\u0447\u0438\u043a, Phalaropus lobatus, Red-necked Phalarope","ispublic":1,"isfriend":0,"isfamily":0},{"id":"52494913926","owner":"186211059@N06","secret":"0774e93499","server":"65535","farm":66,"title":"Red-necked Phalarope","ispublic":1,"isfriend":0,"isfamily":0},{"id":"52494428717","owner":"186211059@N06","secret":"93fd84874d","server":"65535","farm":66,"title":"Red-necked Phalarope","ispublic":1,"isfriend":0,"isfamily":0},{"id":"52494424992","owner":"186211059@N06","secret":"31faba8433","server":"65535","farm":66,"title":"Red-necked Phalarope","ispublic":1,"isfriend":0,"isfamily":0},{"id":"52495459438","owner":"186211059@N06","secret":"797942bce4","server":"65535","farm":66,"title":"Red-necked Phalarope","ispublic":1,"isfriend":0,"isfamily":0},{"id":"52494900386","owner":"186211059@N06","secret":"590e894435","server":"65535","farm":66,"title":"Red-necked Phalarope","ispublic":1,"isfriend":0,"isfamily":0},{"id":"52494895536","owner":"186211059@N06","secret":"ea628d8a9a","server":"65535","farm":66,"title":"Red-necked Phalarope","ispublic":1,"isfriend":0,"isfamily":0},{"id":"52468234322","owner":"70006685@N02","secret":"f3b49eafeb","server":"65535","farm":66,"title":"Red necked Phalarope 03","ispublic":1,"isfriend":0,"isfamily":0},{"id":"52469195730","owner":"70006685@N02","secret":"c863b4bf85","server":"65535","farm":66,"title":"Red necked Phalarope 02","ispublic":1,"isfriend":0,"isfamily":0}]},"stat":"ok"}