{"photos":{"page":1,"pages":59,"perpage":100,"total":5888,"photo":[{"id":"52724151226","owner":"95506564@N02","secret":"7f36f6d84d","server":"65535","farm":66,"title":"Mud Dabbler","ispublic":1,"isfriend":0,"isfamily":0},{"id":"52720703482","owner":"14734088@N02","secret":"f40425aaaa","server":"65535","farm":66,"title":"Sittelle \u00e0 poitrine rousse 220315H","ispublic":1,"isfriend":0,"isfamily":0},{"id":"52711748887","owner":"14734088@N02","secret":"d7a3fb4d00","server":"65535","farm":66,"title":"Sittelle \u00e0 poitrine rousse 230214H3b","ispublic":1,"isfriend":0,"isfamily":0},{"id":"52708474282","owner":"182482490@N04","secret":"8b7ef19a65","server":"65535","farm":66,"title":"Red-breasted-Nuthatch (Sitta canadensis)_GM_020923 (1)-Edit","ispublic":1,"isfriend":0,"isfamily":0},{"id":"52706654908","owner":"14734088@N02","secret":"609f6ddc83","server":"65535","farm":66,"title":"Sittelle \u00e0 poitrine rousse 230214H3a","ispublic":1,"isfriend":0,"isfamily":0},{"id":"52702828683","owner":"48014585@N00","secret":"0976b441dc","server":"65535","farm":66,"title":"Red-breasted Nuthatch","ispublic":1,"isfriend":0,"isfamily":0},{"id":"52702827578","owner":"48014585@N00","secret":"8b57a2f79f","server":"65535","farm":66,"title":"Red-breasted Nuthatch","ispublic":1,"isfriend":0,"isfamily":0},{"id":"52702756015","owner":"48014585@N00","secret":"2ef9523bed","server":"65535","farm":66,"title":"Red-breasted Nuthatch","ispublic":1,"isfriend":0,"isfamily":0},{"id":"52701781232","owner":"14734088@N02","secret":"03c0ed09bd","server":"65535","farm":66,"title":"Sittelle \u00e0 poitrine rousse 230214H2","ispublic":1,"isfriend":0,"isfamily":0},{"id":"52701430361","owner":"61897811@N00","secret":"4895a57677","server":"65535","farm":66,"title":"Red-breasted Nuthatch female","ispublic":1,"isfriend":0,"isfamily":0},{"id":"52699432560","owner":"145086457@N04","secret":"a7b967499f","server":"65535","farm":66,"title":"Red-breasted Nuthatch","ispublic":1,"isfriend":0,"isfamily":0},{"id":"52697471242","owner":"14734088@N02","secret":"01a7871146","server":"65535","farm":66,"title":"Sittelle \u00e0 poitrine rousse 230214H1","ispublic":1,"isfriend":0,"isfamily":0},{"id":"52698157430","owner":"45340210@N05","secret":"95dd0c6ce0","server":"65535","farm":66,"title":"Full Frontal","ispublic":1,"isfriend":0,"isfamily":0},{"id":"52697010751","owner":"71418112@N00","secret":"444477e20d","server":"65535","farm":66,"title":"Red-breasted nuthatch","ispublic":1,"isfriend":0,"isfamily":0},{"id":"52693159040","owner":"45340210@N05","secret":"4b9a004eea","server":"65535","farm":66,"title":"Red-breasted Nuthatch 1 2_15_23","ispublic":1,"isfriend":0,"isfamily":0},{"id":"52692672145","owner":"70295563@N00","secret":"021caff456","server":"65535","farm":66,"title":"Hello there","ispublic":1,"isfriend":0,"isfamily":0},{"id":"52691569941","owner":"98675522@N06","secret":"3cb07ed59c","server":"65535","farm":66,"title":"Focussed","ispublic":1,"isfriend":0,"isfamily":0},{"id":"52691977245","owner":"168495655@N07","secret":"ce8b709855","server":"65535","farm":66,"title":"Sittelle \u00e0 poitrine rousse - Sitta canadensis - Red-breasted Nuthatch","ispublic":1,"isfriend":0,"isfamily":0},{"id":"52684193841","owner":"22798231@N00","secret":"64a6d855cc","server":"65535","farm":66,"title":"Sitta canadensis","ispublic":1,"isfriend":0,"isfamily":0},{"id":"52683181455","owner":"39445433@N02","secret":"c514e81561","server":"65535","farm":66,"title":"Red-Breasted Nuthatch","ispublic":1,"isfriend":0,"isfamily":0},{"id":"52675980925","owner":"50554329@N04","secret":"62939106b1","server":"65535","farm":66,"title":"Red-breasted Nuthatch","ispublic":1,"isfriend":0,"isfamily":0},{"id":"52670820393","owner":"24359172@N02","secret":"d0600f16e9","server":"65535","farm":66,"title":"Male Red-breasted Nuthatch and an Imposter","ispublic":1,"isfriend":0,"isfamily":0},{"id":"52669292053","owner":"136180232@N08","secret":"1890db8f08","server":"65535","farm":66,"title":"Red-breasted Nuthatch (Sitta canadensis) JTE_2519","ispublic":1,"isfriend":0,"isfamily":0},{"id":"52668052765","owner":"33610210@N05","secret":"0dc8feccc4","server":"65535","farm":66,"title":"Red-breasted Nuthatch, Sitta canadensis","ispublic":1,"isfriend":0,"isfamily":0},{"id":"52667614936","owner":"33610210@N05","secret":"4e682ac576","server":"65535","farm":66,"title":"Red-breasted Nuthatch, Sitta canadensis","ispublic":1,"isfriend":0,"isfamily":0},{"id":"52667118177","owner":"33610210@N05","secret":"d4ff4bf87d","server":"65535","farm":66,"title":"Red-breasted Nuthatch, Sitta canadensis","ispublic":1,"isfriend":0,"isfamily":0},{"id":"52668052655","owner":"33610210@N05","secret":"a8f4732266","server":"65535","farm":66,"title":"Red-breasted Nuthatch, Sitta canadensis","ispublic":1,"isfriend":0,"isfamily":0},{"id":"52663038097","owner":"41710899@N08","secret":"db7af5cb1c","server":"65535","farm":66,"title":"Red-breasted Nuthatch","ispublic":1,"isfriend":0,"isfamily":0},{"id":"52661728886","owner":"98627816@N02","secret":"503337c9d1","server":"65535","farm":66,"title":"Red-breasted nuthatch (Sitta canadensis)","ispublic":1,"isfriend":0,"isfamily":0},{"id":"52660715631","owner":"136180232@N08","secret":"fb7d5c185a","server":"65535","farm":66,"title":"Red-breasted Nuthatch (Sitta canadensis) JTE_0694","ispublic":1,"isfriend":0,"isfamily":0},{"id":"52660006309","owner":"133972384@N04","secret":"5d492929e6","server":"65535","farm":66,"title":"red-breasted nuthatch","ispublic":1,"isfriend":0,"isfamily":0},{"id":"52658797190","owner":"145086457@N04","secret":"2950b70486","server":"65535","farm":66,"title":"Red-breasted Nuthatch Closeup","ispublic":1,"isfriend":0,"isfamily":0},{"id":"52652476852","owner":"195239167@N07","secret":"7a049c28c5","server":"65535","farm":66,"title":"Red-breasted Nuthatch","ispublic":1,"isfriend":0,"isfamily":0},{"id":"52651627628","owner":"71418112@N00","secret":"3b62bcb710","server":"65535","farm":66,"title":"Red-breasted nuthatch","ispublic":1,"isfriend":0,"isfamily":0},{"id":"52647145811","owner":"95506564@N02","secret":"97537fac8d","server":"65535","farm":66,"title":"Nut","ispublic":1,"isfriend":0,"isfamily":0},{"id":"52644225121","owner":"64606186@N00","secret":"f52bcd52a8","server":"65535","farm":66,"title":"Red-breasted Nuthatch","ispublic":1,"isfriend":0,"isfamily":0},{"id":"52628072403","owner":"67164820@N06","secret":"7c15a8274d","server":"65535","farm":66,"title":"red-breasted nuthatch","ispublic":1,"isfriend":0,"isfamily":0},{"id":"52622173279","owner":"98627816@N02","secret":"f7f0894223","server":"65535","farm":66,"title":"Red-breasted Nuthatch (Sitta canadensis)","ispublic":1,"isfriend":0,"isfamily":0},{"id":"52619321560","owner":"128537732@N06","secret":"920bd28653","server":"65535","farm":66,"title":"Red-breasted Nuthatch (Sitta canadensis)","ispublic":1,"isfriend":0,"isfamily":0},{"id":"52616866856","owner":"52909585@N02","secret":"f2a6ee29a3","server":"65535","farm":66,"title":"#4, Ben's 2023 Bird Count, Weaselhead Natural Area, Calgary - Red-breaste Nuthatch","ispublic":1,"isfriend":0,"isfamily":0},{"id":"52615171521","owner":"95506564@N02","secret":"9658db5a76","server":"65535","farm":66,"title":"Nuthatch and Ice","ispublic":1,"isfriend":0,"isfamily":0},{"id":"52613670305","owner":"66855284@N03","secret":"053ae928fe","server":"65535","farm":66,"title":"Red-Breasted Nuthatch 2019 01 06 07","ispublic":1,"isfriend":0,"isfamily":0},{"id":"52612738692","owner":"66855284@N03","secret":"36d9b81147","server":"65535","farm":66,"title":"Red-Breasted Nuthatch 2019 01 06 09","ispublic":1,"isfriend":0,"isfamily":0},{"id":"52613666105","owner":"66855284@N03","secret":"bc4ca0fe77","server":"65535","farm":66,"title":"Red-Breasted Nuthatch 2019 01 06 10","ispublic":1,"isfriend":0,"isfamily":0},{"id":"52613729113","owner":"66855284@N03","secret":"a5552159ca","server":"65535","farm":66,"title":"Red-Breasted Nuthatch 2019 01 06 08","ispublic":1,"isfriend":0,"isfamily":0},{"id":"52613233076","owner":"66855284@N03","secret":"c303cc21fa","server":"65535","farm":66,"title":"Red-Breasted Nuthatch 2019 01 06 03","ispublic":1,"isfriend":0,"isfamily":0},{"id":"52613654340","owner":"66855284@N03","secret":"fe5c863f5e","server":"65535","farm":66,"title":"Red-Breasted Nuthatch 2019 01 06 06","ispublic":1,"isfriend":0,"isfamily":0},{"id":"52612723347","owner":"66855284@N03","secret":"c86d1673e0","server":"65535","farm":66,"title":"Red-Breasted Nuthatch 2019 01 06 01","ispublic":1,"isfriend":0,"isfamily":0},{"id":"52613651010","owner":"66855284@N03","secret":"43c7f667c0","server":"65535","farm":66,"title":"Red-Breasted Nuthatch 2019 01 06 05","ispublic":1,"isfriend":0,"isfamily":0},{"id":"52613649305","owner":"66855284@N03","secret":"5abcaa3bc9","server":"65535","farm":66,"title":"Red-Breasted Nuthatch 2019 01 06 04","ispublic":1,"isfriend":0,"isfamily":0},{"id":"52613695278","owner":"73654511@N05","secret":"841326e1e6","server":"65535","farm":66,"title":"L0A4017-Red-breasted Nuthatch","ispublic":1,"isfriend":0,"isfamily":0},{"id":"52606303570","owner":"144980256@N07","secret":"2432a44e22","server":"65535","farm":66,"title":"Red-breasted Nuthatch (Sitta canadensis)","ispublic":1,"isfriend":0,"isfamily":0},{"id":"52603843372","owner":"128537732@N06","secret":"1dd0761c70","server":"65535","farm":66,"title":"Red-breasted Nuthatch (Sitta canadensis)","ispublic":1,"isfriend":0,"isfamily":0},{"id":"52603694664","owner":"71418112@N00","secret":"64427fd305","server":"65535","farm":66,"title":"Red-breasted nuthatch","ispublic":1,"isfriend":0,"isfamily":0},{"id":"52602913326","owner":"36648230@N03","secret":"7fd1d18bc3","server":"65535","farm":66,"title":"Black-capped Chickadee","ispublic":1,"isfriend":0,"isfamily":0},{"id":"52603008328","owner":"125928695@N02","secret":"53d2a1c793","server":"65535","farm":66,"title":"Red Breasted Nuthatch","ispublic":1,"isfriend":0,"isfamily":0},{"id":"52599017953","owner":"195239167@N07","secret":"e1734eb04f","server":"65535","farm":66,"title":"Red-breasted Nuthatch","ispublic":1,"isfriend":0,"isfamily":0},{"id":"52597673992","owner":"125928695@N02","secret":"be441903d2","server":"65535","farm":66,"title":"Red Breasted Nuthatch","ispublic":1,"isfriend":0,"isfamily":0},{"id":"52596738826","owner":"45340210@N05","secret":"6a4a264c12","server":"65535","farm":66,"title":"Red-breasted Nuthatch 2 12_30_22","ispublic":1,"isfriend":0,"isfamily":0},{"id":"52580869125","owner":"128537732@N06","secret":"12cb2b56f5","server":"65535","farm":66,"title":"Red-breasted Nuthatch (Sitta canadensis)","ispublic":1,"isfriend":0,"isfamily":0},{"id":"52579964397","owner":"128537732@N06","secret":"0a6fa7ddfd","server":"65535","farm":66,"title":"Red-breasted Nuthatch (Sitta canadensis)","ispublic":1,"isfriend":0,"isfamily":0},{"id":"52579964222","owner":"128537732@N06","secret":"32314c9df3","server":"65535","farm":66,"title":"Red-breasted Nuthatch (Sitta canadensis)","ispublic":1,"isfriend":0,"isfamily":0},{"id":"52574164449","owner":"32320154@N05","secret":"1962d1a2b8","server":"65535","farm":66,"title":"Red-breasted nuthatch","ispublic":1,"isfriend":0,"isfamily":0},{"id":"52572483383","owner":"75473329@N00","secret":"6547ae3cec","server":"65535","farm":66,"title":"Red-breasted nuthatch (Sitta canadensis)","ispublic":1,"isfriend":0,"isfamily":0},{"id":"52571175637","owner":"29682228@N04","secret":"9c4e201b47","server":"65535","farm":66,"title":"Sitta canadensis_Red-breasted Nuthatch_RBarber_120822_IMG_0399_1","ispublic":1,"isfriend":0,"isfamily":0},{"id":"52565433925","owner":"144198875@N02","secret":"3c0d929048","server":"65535","farm":66,"title":"Red-breasted Nuthatch - Sitta canadensis","ispublic":1,"isfriend":0,"isfamily":0},{"id":"52563410122","owner":"48985578@N03","secret":"a3e397c9c5","server":"65535","farm":66,"title":"Mighty Mite","ispublic":1,"isfriend":0,"isfamily":0},{"id":"52562849228","owner":"33610210@N05","secret":"4caf981fcf","server":"65535","farm":66,"title":"Red-breasted Nuthatch, Sitta canadensis","ispublic":1,"isfriend":0,"isfamily":0},{"id":"52558176003","owner":"67121146@N00","secret":"9605428741","server":"65535","farm":66,"title":"Red-Breasted Nuthatch","ispublic":1,"isfriend":0,"isfamily":0},{"id":"52558175983","owner":"67121146@N00","secret":"a3b83ddf8f","server":"65535","farm":66,"title":"Red-Breasted Nuthatch","ispublic":1,"isfriend":0,"isfamily":0},{"id":"52551289690","owner":"24359172@N02","secret":"8ed654fc34","server":"65535","farm":66,"title":"Red-breasted Nuthatch","ispublic":1,"isfriend":0,"isfamily":0},{"id":"52550818216","owner":"24359172@N02","secret":"bcdf5c5576","server":"65535","farm":66,"title":"Profile, Red-breasted Nuthatch","ispublic":1,"isfriend":0,"isfamily":0},{"id":"52546412415","owner":"22420387@N07","secret":"a3df12de42","server":"65535","farm":66,"title":"Red-breasted Nuthatch - DEL_6902-LR","ispublic":1,"isfriend":0,"isfamily":0},{"id":"52545061887","owner":"101738578@N08","secret":"b022b895a9","server":"65535","farm":66,"title":"Red-breasted_Nuthatch","ispublic":1,"isfriend":0,"isfamily":0},{"id":"52542853937","owner":"128537732@N06","secret":"4abbbb953a","server":"65535","farm":66,"title":"Red-breasted Nuthatch (Sitta canadensis)","ispublic":1,"isfriend":0,"isfamily":0},{"id":"52543184171","owner":"71418112@N00","secret":"d10ecbd34e","server":"65535","farm":66,"title":"Good to the last drop.","ispublic":1,"isfriend":0,"isfamily":0},{"id":"52539351578","owner":"73654511@N05","secret":"dd1eb260a8","server":"65535","farm":66,"title":"L0A2501-Red-breasted Nuthatch","ispublic":1,"isfriend":0,"isfamily":0},{"id":"52530999402","owner":"166123535@N05","secret":"4a51d9201f","server":"65535","farm":66,"title":"Red-breasted Nuthatch, Sitta canadensis .. ..","ispublic":1,"isfriend":0,"isfamily":0},{"id":"52527316292","owner":"28499865@N07","secret":"47081f36a0","server":"65535","farm":66,"title":"Red-breasted Nuthatch - Sitta canadensis","ispublic":1,"isfriend":0,"isfamily":0},{"id":"52527316212","owner":"28499865@N07","secret":"351106883c","server":"65535","farm":66,"title":"Red-breasted Nuthatch - Sitta canadensis","ispublic":1,"isfriend":0,"isfamily":0},{"id":"52518973979","owner":"145466593@N08","secret":"bdb3640a01","server":"65535","farm":66,"title":"Red-breasted Nuthatch","ispublic":1,"isfriend":0,"isfamily":0},{"id":"52511459231","owner":"12639178@N07","secret":"f38529d979","server":"65535","farm":66,"title":"Kanadakleiber, 1.Sichtung in Deutschland !","ispublic":1,"isfriend":0,"isfamily":0},{"id":"52511193734","owner":"8783241@N08","secret":"de5583337c","server":"65535","farm":66,"title":"Sitta canadensis - Red-breasted Nuthatch","ispublic":1,"isfriend":0,"isfamily":0},{"id":"52509652306","owner":"70295563@N00","secret":"fb4f0cdc4e","server":"65535","farm":66,"title":"Northern visitor","ispublic":1,"isfriend":0,"isfamily":0},{"id":"52507773082","owner":"84169650@N07","secret":"a02cf5d975","server":"65535","farm":66,"title":"Red Breasted Nuthatch","ispublic":1,"isfriend":0,"isfamily":0},{"id":"52507484895","owner":"48311154@N02","secret":"d6b3787b1c","server":"65535","farm":66,"title":"Red-breasted Nuthatch","ispublic":1,"isfriend":0,"isfamily":0},{"id":"52504262703","owner":"71418112@N00","secret":"466335cb92","server":"65535","farm":66,"title":"Red-breasted nuthatch","ispublic":1,"isfriend":0,"isfamily":0},{"id":"52501761392","owner":"82967224@N06","secret":"ef42d9936a","server":"65535","farm":66,"title":"Vogelexkursion im Wald","ispublic":1,"isfriend":0,"isfamily":0},{"id":"52497620211","owner":"12639178@N07","secret":"2fc14ce93b","server":"65535","farm":66,"title":"Kanadakleiber (Rotbrustkleiber)","ispublic":1,"isfriend":0,"isfamily":0},{"id":"52498102220","owner":"12639178@N07","secret":"db7f241a8b","server":"65535","farm":66,"title":"Kanadakleiber (Rotbrustkleiber)","ispublic":1,"isfriend":0,"isfamily":0},{"id":"52494765647","owner":"64557331@N04","secret":"e8e6763501","server":"65535","farm":66,"title":"Red-Breasted Nuthatch - (Sitta canadensis)_10012022_2","ispublic":1,"isfriend":0,"isfamily":0},{"id":"52495238564","owner":"144648055@N05","secret":"9ab531f164","server":"65535","farm":66,"title":"Score: 9.5 9.5 8.5","ispublic":1,"isfriend":0,"isfamily":0},{"id":"52494963274","owner":"28922472@N08","secret":"b4f7d371ee","server":"65535","farm":66,"title":"Nuthatch on Icy Teasel","ispublic":1,"isfriend":0,"isfamily":0},{"id":"52494024603","owner":"39445433@N02","secret":"63ee2d348f","server":"65535","farm":66,"title":"Red-Breasted Nuthatch","ispublic":1,"isfriend":0,"isfamily":0},{"id":"52492510497","owner":"28922472@N08","secret":"62752ce0bd","server":"65535","farm":66,"title":"Nuthatch with seed","ispublic":1,"isfriend":0,"isfamily":0},{"id":"52492696543","owner":"92361032@N05","secret":"d9a440e4ee","server":"65535","farm":66,"title":"Red-breasted Nuthatch (M) Sittelle \u00e0 poitrine rousse (M) (Diane)","ispublic":1,"isfriend":0,"isfamily":0},{"id":"52491220946","owner":"37566919@N02","secret":"cde90eaca0","server":"65535","farm":66,"title":"Red-breasted Nuthatch, female","ispublic":1,"isfriend":0,"isfamily":0},{"id":"52487285206","owner":"98627816@N02","secret":"b4a374c6d5","server":"65535","farm":66,"title":"Red-breasted Nuthatch (Sitta canadensis)","ispublic":1,"isfriend":0,"isfamily":0},{"id":"52579791647","owner":"153973412@N04","secret":"aac2b67c4b","server":"65535","farm":66,"title":"Red-breasted Nuthatch-Sitta canadensis, North English, IA","ispublic":1,"isfriend":0,"isfamily":0},{"id":"52486980022","owner":"39445433@N02","secret":"771a746d75","server":"65535","farm":66,"title":"red-breasted nuthatch","ispublic":1,"isfriend":0,"isfamily":0}]},"stat":"ok"}