{"photos":{"page":1,"pages":63,"perpage":100,"total":6283,"photo":[{"id":"52724516630","owner":"47441959@N00","secret":"7acf39454c","server":"65535","farm":66,"title":"Red-throated Loon","ispublic":1,"isfriend":0,"isfamily":0},{"id":"52716740568","owner":"135315828@N06","secret":"80279fe665","server":"65535","farm":66,"title":"red-throated loon","ispublic":1,"isfriend":0,"isfamily":0},{"id":"52716739823","owner":"135315828@N06","secret":"4fc46e89ac","server":"65535","farm":66,"title":"red-throated loon","ispublic":1,"isfriend":0,"isfamily":0},{"id":"52696186617","owner":"165429513@N06","secret":"43ed15acfe","server":"65535","farm":66,"title":"Red Throated Diver (Gavia stellata)","ispublic":1,"isfriend":0,"isfamily":0},{"id":"52696821645","owner":"145907835@N07","secret":"3d93076bc8","server":"65535","farm":66,"title":"Roodkeelduiker - Gavia stellata","ispublic":1,"isfriend":0,"isfamily":0},{"id":"52695888612","owner":"145907835@N07","secret":"b019df3469","server":"65535","farm":66,"title":"Roodkeelduiker - Gavia stellata","ispublic":1,"isfriend":0,"isfamily":0},{"id":"52696821420","owner":"145907835@N07","secret":"c2c0f31d70","server":"65535","farm":66,"title":"Roodkeelduiker - Gavia stellata","ispublic":1,"isfriend":0,"isfamily":0},{"id":"52696401356","owner":"145907835@N07","secret":"649bdbe0d0","server":"65535","farm":66,"title":"Roodkeelduiker - Gavia stellata","ispublic":1,"isfriend":0,"isfamily":0},{"id":"52696821260","owner":"145907835@N07","secret":"ffc9e855ec","server":"65535","farm":66,"title":"Roodkeelduiker - Gavia stellata","ispublic":1,"isfriend":0,"isfamily":0},{"id":"52696821180","owner":"145907835@N07","secret":"1a60539ae3","server":"65535","farm":66,"title":"Roodkeelduiker - Gavia stellata","ispublic":1,"isfriend":0,"isfamily":0},{"id":"52688164719","owner":"103722035@N06","secret":"da9af250f6","server":"0","farm":0,"title":"Red-throated Loon (Gavia stellata), Avila Beach, CA","ispublic":1,"isfriend":0,"isfamily":0},{"id":"52672560591","owner":"14734088@N02","secret":"d7e511e5e2","server":"65535","farm":66,"title":"Plongeon catmarin 221027H3","ispublic":1,"isfriend":0,"isfamily":0},{"id":"52668109011","owner":"188318726@N02","secret":"a607208070","server":"65535","farm":66,"title":"Portrait of shy red-throated diver","ispublic":1,"isfriend":0,"isfamily":0},{"id":"52658607266","owner":"157220357@N08","secret":"0e8cd6815d","server":"65535","farm":66,"title":"Red Throated Diver Clogherhead","ispublic":1,"isfriend":0,"isfamily":0},{"id":"52656505948","owner":"128537732@N06","secret":"9abdbc633b","server":"65535","farm":66,"title":"Red-throated Loon (Gavia stellata)","ispublic":1,"isfriend":0,"isfamily":0},{"id":"52648708662","owner":"128537732@N06","secret":"5f13622c6b","server":"65535","farm":66,"title":"Red-throated Loon (Gavia stellata)","ispublic":1,"isfriend":0,"isfamily":0},{"id":"52647071652","owner":"62043870@N05","secret":"04abe4b258","server":"65535","farm":66,"title":"Red-throated Loon, Gavia stellata","ispublic":1,"isfriend":0,"isfamily":0},{"id":"52641390448","owner":"135315828@N06","secret":"e574642e27","server":"65535","farm":66,"title":"red-throated loon","ispublic":1,"isfriend":0,"isfamily":0},{"id":"52640404327","owner":"135315828@N06","secret":"66c55f84b8","server":"65535","farm":66,"title":"red-throated loon","ispublic":1,"isfriend":0,"isfamily":0},{"id":"52640404267","owner":"135315828@N06","secret":"61a9d4bc93","server":"65535","farm":66,"title":"red-throated loon","ispublic":1,"isfriend":0,"isfamily":0},{"id":"52641390223","owner":"135315828@N06","secret":"58b8de6922","server":"65535","farm":66,"title":"red-throated loon","ispublic":1,"isfriend":0,"isfamily":0},{"id":"52640527429","owner":"184523789@N08","secret":"f650b08c36","server":"65535","farm":66,"title":"Plongeon catmarin - Red-throated Loon - Gavia stellata","ispublic":1,"isfriend":0,"isfamily":0},{"id":"52626937711","owner":"12639178@N07","secret":"5b91ae6112","server":"65535","farm":66,"title":"Ich sehe dich auch!","ispublic":1,"isfriend":0,"isfamily":0},{"id":"52627374835","owner":"12639178@N07","secret":"e4f0a99b0e","server":"65535","farm":66,"title":"junger Sterntaucher","ispublic":1,"isfriend":0,"isfamily":0},{"id":"52626831193","owner":"14734088@N02","secret":"7726f50ff1","server":"65535","farm":66,"title":"Plongeon catmarin 221029H2b","ispublic":1,"isfriend":0,"isfamily":0},{"id":"52623634434","owner":"39177293@N03","secret":"94bb203b87","server":"65535","farm":66,"title":"Red-throated Loon","ispublic":1,"isfriend":0,"isfamily":0},{"id":"52623816710","owner":"39177293@N03","secret":"387bf1c524","server":"65535","farm":66,"title":"Red-throated Loon","ispublic":1,"isfriend":0,"isfamily":0},{"id":"52623634419","owner":"39177293@N03","secret":"c4d1f18201","server":"65535","farm":66,"title":"Red-throated Loon","ispublic":1,"isfriend":0,"isfamily":0},{"id":"52622761996","owner":"14734088@N02","secret":"1161185ac5","server":"65535","farm":66,"title":"Plongeon catmarin 221101H","ispublic":1,"isfriend":0,"isfamily":0},{"id":"52615447230","owner":"90886369@N06","secret":"cb6eccd077","server":"65535","farm":66,"title":"Red-throated Loon (Gavia stellata)","ispublic":1,"isfriend":0,"isfamily":0},{"id":"52614572506","owner":"23882583@N08","secret":"e7f09b96c7","server":"65535","farm":66,"title":"Red-throated Diver","ispublic":1,"isfriend":0,"isfamily":0},{"id":"52612553309","owner":"184523789@N08","secret":"fd51387455","server":"65535","farm":66,"title":"Plongeon catmarin - Red-throated Loon - Gavia stellata","ispublic":1,"isfriend":0,"isfamily":0},{"id":"52608298489","owner":"12639178@N07","secret":"4b93b0d1f1","server":"65535","farm":66,"title":"Sterntaucher (2)","ispublic":1,"isfriend":0,"isfamily":0},{"id":"52608533838","owner":"12639178@N07","secret":"ca08f39320","server":"65535","farm":66,"title":"Sterntaucher","ispublic":1,"isfriend":0,"isfamily":0},{"id":"52606858188","owner":"76782619@N04","secret":"569361919c","server":"65535","farm":66,"title":"Red-throated Loon","ispublic":1,"isfriend":0,"isfamily":0},{"id":"52606259695","owner":"67164820@N06","secret":"b7f8a36ccc","server":"65535","farm":66,"title":"red-throated loon","ispublic":1,"isfriend":0,"isfamily":0},{"id":"52605337362","owner":"67164820@N06","secret":"a138b1f945","server":"65535","farm":66,"title":"red-throated loon 3","ispublic":1,"isfriend":0,"isfamily":0},{"id":"52606095759","owner":"67164820@N06","secret":"df69647cba","server":"65535","farm":66,"title":"red-throated loon 4","ispublic":1,"isfriend":0,"isfamily":0},{"id":"52605874874","owner":"121348515@N07","secret":"c781b4c2c7","server":"65535","farm":66,"title":"R\u00f8dstrubet Lom - Red-throated Loon - Gavia stellata 3","ispublic":1,"isfriend":0,"isfamily":0},{"id":"52602765728","owner":"76288515@N07","secret":"dd751c1b8f","server":"65535","farm":66,"title":"Red-throated Diver Gavia stellata","ispublic":1,"isfriend":0,"isfamily":0},{"id":"52602765703","owner":"76288515@N07","secret":"0c7835f42d","server":"65535","farm":66,"title":"Red-throated Diver Gavia stellata","ispublic":1,"isfriend":0,"isfamily":0},{"id":"52602765678","owner":"76288515@N07","secret":"7ac74a9690","server":"65535","farm":66,"title":"Red-throated Diver Gavia stellata","ispublic":1,"isfriend":0,"isfamily":0},{"id":"52602251801","owner":"76288515@N07","secret":"13ace0554b","server":"65535","farm":66,"title":"Red-throated Diver Gavia stellata","ispublic":1,"isfriend":0,"isfamily":0},{"id":"52602681945","owner":"76288515@N07","secret":"be28bf4115","server":"65535","farm":66,"title":"Red-throated Diver Gavia stellata","ispublic":1,"isfriend":0,"isfamily":0},{"id":"52602251786","owner":"76288515@N07","secret":"5f4b41a52e","server":"65535","farm":66,"title":"Red-throated Diver Gavia stellata","ispublic":1,"isfriend":0,"isfamily":0},{"id":"52601761927","owner":"76288515@N07","secret":"3f4f9474f8","server":"65535","farm":66,"title":"Red-throated Diver Gavia stellata","ispublic":1,"isfriend":0,"isfamily":0},{"id":"52602513359","owner":"76288515@N07","secret":"44f5eebe5f","server":"65535","farm":66,"title":"Red-throated Diver Gavia stellata","ispublic":1,"isfriend":0,"isfamily":0},{"id":"52602681815","owner":"76288515@N07","secret":"3535433d15","server":"65535","farm":66,"title":"Red-throated Diver Gavia stellata","ispublic":1,"isfriend":0,"isfamily":0},{"id":"52602513244","owner":"76288515@N07","secret":"b1718ea54f","server":"65535","farm":66,"title":"Red-throated Diver Gavia stellata","ispublic":1,"isfriend":0,"isfamily":0},{"id":"52601761842","owner":"76288515@N07","secret":"7c40c645e0","server":"65535","farm":66,"title":"Red-throated Diver Gavia stellata","ispublic":1,"isfriend":0,"isfamily":0},{"id":"52601761817","owner":"76288515@N07","secret":"4c89aa0f80","server":"65535","farm":66,"title":"Red-throated Diver Gavia stellata","ispublic":1,"isfriend":0,"isfamily":0},{"id":"52602765323","owner":"76288515@N07","secret":"2d1966ee80","server":"65535","farm":66,"title":"Red-throated Diver Gavia stellata","ispublic":1,"isfriend":0,"isfamily":0},{"id":"52602681740","owner":"76288515@N07","secret":"8ae61697d7","server":"65535","farm":66,"title":"Red-throated Diver Gavia stellata","ispublic":1,"isfriend":0,"isfamily":0},{"id":"52600071321","owner":"12639178@N07","secret":"69845a645d","server":"65535","farm":66,"title":"und weg war er","ispublic":1,"isfriend":0,"isfamily":0},{"id":"52594999172","owner":"154093215@N07","secret":"ea82dcdf52","server":"65535","farm":66,"title":"Plongeon catmarin","ispublic":1,"isfriend":0,"isfamily":0},{"id":"52591619249","owner":"14734088@N02","secret":"451317337e","server":"65535","farm":66,"title":"Plongeon catmarin 221105H3b","ispublic":1,"isfriend":0,"isfamily":0},{"id":"52585181194","owner":"14734088@N02","secret":"40ac7f9dc5","server":"65535","farm":66,"title":"Plongeon catmarin 221105H5","ispublic":1,"isfriend":0,"isfamily":0},{"id":"52581836566","owner":"76740876@N07","secret":"320dfb9b6d","server":"65535","farm":66,"title":"20101121 S 1195 Lukovo_2 Prvi\u0107 (Krk) 7418 PhotosCROKrk","ispublic":1,"isfriend":0,"isfamily":0},{"id":"52582350873","owner":"76740876@N07","secret":"3ce21e0161","server":"65535","farm":66,"title":"20101121 S 1195 Lukovo_5 Prvi\u0107 (Krk)  7418 PhotosCROKrk","ispublic":1,"isfriend":0,"isfamily":0},{"id":"52579015391","owner":"129787474@N06","secret":"c63c1ec8fd","server":"65535","farm":66,"title":"Red-throated diver (Gavia stellata)","ispublic":1,"isfriend":0,"isfamily":0},{"id":"52574567661","owner":"62043870@N05","secret":"364edb92a6","server":"65535","farm":66,"title":"Red-throated Loon (Gavia stellata)","ispublic":1,"isfriend":0,"isfamily":0},{"id":"52567553636","owner":"53041612@N05","secret":"7b545d926a","server":"65535","farm":66,"title":"Red-throated diver","ispublic":1,"isfriend":0,"isfamily":0},{"id":"52567086375","owner":"112292182@N02","secret":"8529211e3c","server":"65535","farm":66,"title":"Red Throated Diver","ispublic":1,"isfriend":0,"isfamily":0},{"id":"52565254744","owner":"14734088@N02","secret":"009205e3dc","server":"65535","farm":66,"title":"Plongeon catmarin 221124H1","ispublic":1,"isfriend":0,"isfamily":0},{"id":"52562036768","owner":"56930596@N02","secret":"f617b8033b","server":"65535","farm":66,"title":"Cal\u00e0bria petita (Gavia stellata)","ispublic":1,"isfriend":0,"isfamily":0},{"id":"52561169004","owner":"14734088@N02","secret":"e97fee2fff","server":"65535","farm":66,"title":"Plongeon catmarin 221124H2","ispublic":1,"isfriend":0,"isfamily":0},{"id":"52560447816","owner":"129787474@N06","secret":"c4d8e7bdf7","server":"65535","farm":66,"title":"Red-throated diver (Gavia stellata)","ispublic":1,"isfriend":0,"isfamily":0},{"id":"52559996367","owner":"129787474@N06","secret":"0dfa393dcb","server":"65535","farm":66,"title":"Red-throated diver (Gavia stellata)","ispublic":1,"isfriend":0,"isfamily":0},{"id":"52560447706","owner":"129787474@N06","secret":"0c96cbdb55","server":"65535","farm":66,"title":"Red-throated diver (Gavia stellata)","ispublic":1,"isfriend":0,"isfamily":0},{"id":"52555356703","owner":"70006685@N02","secret":"d22fc2a625","server":"65535","farm":66,"title":"Red Throated Diver 01","ispublic":1,"isfriend":0,"isfamily":0},{"id":"52555289675","owner":"70006685@N02","secret":"9bf2fc918e","server":"65535","farm":66,"title":"Red Throated Diver 02","ispublic":1,"isfriend":0,"isfamily":0},{"id":"52554820726","owner":"70006685@N02","secret":"086ceae2c1","server":"65535","farm":66,"title":"Red Throated Diver 03","ispublic":1,"isfriend":0,"isfamily":0},{"id":"52554360342","owner":"70006685@N02","secret":"0db06f6729","server":"65535","farm":66,"title":"Red Throated Diver 04","ispublic":1,"isfriend":0,"isfamily":0},{"id":"52554111356","owner":"43272765@N04","secret":"dcfb584cac","server":"65535","farm":66,"title":"Red-throated Diver Gavia stellata","ispublic":1,"isfriend":0,"isfamily":0},{"id":"52554648933","owner":"43272765@N04","secret":"7f7d3141e4","server":"65535","farm":66,"title":"Red-throated Diver Gavia stellata","ispublic":1,"isfriend":0,"isfamily":0},{"id":"52550861458","owner":"68429649@N00","secret":"56729e3dd0","server":"65535","farm":66,"title":"Red-throated diver (juvenile)","ispublic":1,"isfriend":0,"isfamily":0},{"id":"52548691351","owner":"39177293@N03","secret":"2b1729ee39","server":"65535","farm":66,"title":"Red-throated Loon","ispublic":1,"isfriend":0,"isfamily":0},{"id":"52547980250","owner":"26135972@N05","secret":"541d9438b4","server":"65535","farm":66,"title":"_J5A5368 Red-throated diver (Gavia stellata)","ispublic":1,"isfriend":0,"isfamily":0},{"id":"52540969490","owner":"64509062@N08","secret":"32118ca60f","server":"65535","farm":66,"title":"Red throated diver","ispublic":1,"isfriend":0,"isfamily":0},{"id":"52538054810","owner":"14734088@N02","secret":"8d31126820","server":"65535","farm":66,"title":"Plongeon catmarin 221105H2","ispublic":1,"isfriend":0,"isfamily":0},{"id":"52673690748","owner":"84169650@N07","secret":"c0bb3e6c49","server":"65535","farm":66,"title":"Red Throated Loon","ispublic":1,"isfriend":0,"isfamily":0},{"id":"52644945524","owner":"112292182@N02","secret":"31f20dda2a","server":"65535","farm":66,"title":"Red Throated Diver","ispublic":1,"isfriend":0,"isfamily":0},{"id":"52643686026","owner":"103722035@N06","secret":"1ef2260f6a","server":"0","farm":0,"title":"Red-throated Loon (Gavia stellata), Shell Beach, CA","ispublic":1,"isfriend":0,"isfamily":0},{"id":"52638053854","owner":"47533293@N04","secret":"13f0eae90d","server":"65535","farm":66,"title":"Red-throated loon, Gavia stellata","ispublic":1,"isfriend":0,"isfamily":0},{"id":"52602877795","owner":"145489125@N03","secret":"4baecc62d9","server":"65535","farm":66,"title":"Red-Throated Diver ( Gavia stellata ) ... Scarborough Harbour , Yorkshire","ispublic":1,"isfriend":0,"isfamily":0},{"id":"52602941558","owner":"145489125@N03","secret":"8f3b7dd1b6","server":"65535","farm":66,"title":"Red-throated Diver ( Gavia stellata ) ... Scarborough Harbour","ispublic":1,"isfriend":0,"isfamily":0},{"id":"52600331899","owner":"12639178@N07","secret":"256c79ac02","server":"65535","farm":66,"title":"Sterntaucher verm. 1. Winter","ispublic":1,"isfriend":0,"isfamily":0},{"id":"52582949211","owner":"154130070@N04","secret":"72bda65cab","server":"65535","farm":66,"title":"Red-throated Diver, Gavia stellata","ispublic":1,"isfriend":0,"isfamily":0},{"id":"52579789442","owner":"153973412@N04","secret":"bf25923a8b","server":"65535","farm":66,"title":"Red-throated Loon-Gavia stellata, Lake MacBride, IA","ispublic":1,"isfriend":0,"isfamily":0},{"id":"52576453407","owner":"184523789@N08","secret":"76b3b68465","server":"65535","farm":66,"title":"Plongeon catmarin - Red-throated Loon - Gavia stellata","ispublic":1,"isfriend":0,"isfamily":0},{"id":"52576453362","owner":"184523789@N08","secret":"76f6516cbc","server":"65535","farm":66,"title":"Plongeon catmarin - Red-throated Loon - Gavia stellata","ispublic":1,"isfriend":0,"isfamily":0},{"id":"52577357245","owner":"184523789@N08","secret":"23e9718e56","server":"65535","farm":66,"title":"Plongeon catmarin - Red-throated Loon - Gavia stellata","ispublic":1,"isfriend":0,"isfamily":0},{"id":"52577357155","owner":"184523789@N08","secret":"a16cae18ee","server":"65535","farm":66,"title":"Plongeon catmarin - Red-throated Loon - Gavia stellata","ispublic":1,"isfriend":0,"isfamily":0},{"id":"52577189944","owner":"184523789@N08","secret":"3f471e5041","server":"65535","farm":66,"title":"Plongeon catmarin - Red-throated Loon - Gavia stellata","ispublic":1,"isfriend":0,"isfamily":0},{"id":"52576911291","owner":"184523789@N08","secret":"16380fe184","server":"65535","farm":66,"title":"Plongeon catmarin - Red-throated Loon - Gavia stellata","ispublic":1,"isfriend":0,"isfamily":0},{"id":"52576452872","owner":"184523789@N08","secret":"bdc7858622","server":"65535","farm":66,"title":"Plongeon catmarin - Red-throated Loon - Gavia stellata","ispublic":1,"isfriend":0,"isfamily":0},{"id":"52577356515","owner":"184523789@N08","secret":"dedbea5ed5","server":"65535","farm":66,"title":"Plongeon catmarin - Red-throated Loon - Gavia stellata","ispublic":1,"isfriend":0,"isfamily":0},{"id":"52551150348","owner":"184523789@N08","secret":"c304efc9ec","server":"65535","farm":66,"title":"Plongeon catmarin - Red-throated Loon - Gavia stellata","ispublic":1,"isfriend":0,"isfamily":0},{"id":"52550153477","owner":"184523789@N08","secret":"a1c8ceca21","server":"65535","farm":66,"title":"Plongeon catmarin - Red-throated Loon - Gavia stellata","ispublic":1,"isfriend":0,"isfamily":0},{"id":"52536829675","owner":"7836790@N07","secret":"b3d4881a31","server":"65535","farm":66,"title":"Plongeon catmarin - Gavia stellata - Red-throated Loon","ispublic":1,"isfriend":0,"isfamily":0}]},"stat":"ok"}