{"photos":{"page":1,"pages":73,"perpage":100,"total":7203,"photo":[{"id":"52723717436","owner":"144217344@N03","secret":"a5be6863c2","server":"65535","farm":66,"title":"Gisela_Nagel-Fl-2182-Knutt","ispublic":1,"isfriend":0,"isfamily":0},{"id":"52721148505","owner":"163623837@N06","secret":"c603ac3917","server":"65535","farm":66,"title":"knot_MGL2872","ispublic":1,"isfriend":0,"isfamily":0},{"id":"52721218953","owner":"163623837@N06","secret":"fb8450a891","server":"65535","farm":66,"title":"knot_MGL2901","ispublic":1,"isfriend":0,"isfamily":0},{"id":"52720211292","owner":"163623837@N06","secret":"eeb004ae5e","server":"65535","farm":66,"title":"knot_MGL2909","ispublic":1,"isfriend":0,"isfamily":0},{"id":"52720730076","owner":"163623837@N06","secret":"b8a5af136e","server":"65535","farm":66,"title":"knot_MGL2930","ispublic":1,"isfriend":0,"isfamily":0},{"id":"52720211212","owner":"163623837@N06","secret":"e4e1979c5d","server":"65535","farm":66,"title":"knot_MGL2930topaz","ispublic":1,"isfriend":0,"isfamily":0},{"id":"52704519868","owner":"99817330@N02","secret":"921ec67f2f","server":"65535","farm":66,"title":"Hoylake Waderfest","ispublic":1,"isfriend":0,"isfamily":0},{"id":"52702013477","owner":"127269605@N06","secret":"beb5c6fe68","server":"65535","farm":66,"title":"Red Knot","ispublic":1,"isfriend":0,"isfamily":0},{"id":"52698426347","owner":"12639178@N07","secret":"db391fe769","server":"65535","farm":66,"title":"Calidris canutus, Knutt,dj.","ispublic":1,"isfriend":0,"isfamily":0},{"id":"52699361590","owner":"12639178@N07","secret":"0e11cd0c22","server":"65535","farm":66,"title":"Calidris canutus, Knutt,dj.","ispublic":1,"isfriend":0,"isfamily":0},{"id":"52698425887","owner":"12639178@N07","secret":"0e70bdc39d","server":"65535","farm":66,"title":"Calidris canutus, Knutt,dj.","ispublic":1,"isfriend":0,"isfamily":0},{"id":"52698425602","owner":"12639178@N07","secret":"c9073c4761","server":"65535","farm":66,"title":"Calidris canutus, Knutt,dj.","ispublic":1,"isfriend":0,"isfamily":0},{"id":"52697467517","owner":"12639178@N07","secret":"2dc1ea4d1a","server":"65535","farm":66,"title":"Calidris canutus, Knutt,dj.","ispublic":1,"isfriend":0,"isfamily":0},{"id":"52697981656","owner":"12639178@N07","secret":"e61993bb30","server":"65535","farm":66,"title":"Calidris canutus, Knutt,ad.","ispublic":1,"isfriend":0,"isfamily":0},{"id":"52697467202","owner":"12639178@N07","secret":"8f06b0330c","server":"65535","farm":66,"title":"Calidris canutus, Knutt,ad.","ispublic":1,"isfriend":0,"isfamily":0},{"id":"52696929747","owner":"50264295@N06","secret":"79133aca23","server":"65535","farm":66,"title":"Red Knots (Calidris canutus)","ispublic":1,"isfriend":0,"isfamily":0},{"id":"52696891608","owner":"145907835@N07","secret":"797194bbe0","server":"65535","farm":66,"title":"Kanoet - Calidris canutus","ispublic":1,"isfriend":0,"isfamily":0},{"id":"52696665514","owner":"145907835@N07","secret":"f2f3f8d0e7","server":"65535","farm":66,"title":"Kanoet - Calidris canutus","ispublic":1,"isfriend":0,"isfamily":0},{"id":"52695887922","owner":"145907835@N07","secret":"ae6eed692d","server":"65535","farm":66,"title":"Kanoet - Calidris canutus","ispublic":1,"isfriend":0,"isfamily":0},{"id":"52696665229","owner":"145907835@N07","secret":"85bb426487","server":"65535","farm":66,"title":"Kanoet - Calidris canutus","ispublic":1,"isfriend":0,"isfamily":0},{"id":"52695887692","owner":"145907835@N07","secret":"bf3610e04a","server":"65535","farm":66,"title":"Kanoet - Calidris canutus","ispublic":1,"isfriend":0,"isfamily":0},{"id":"52690488947","owner":"191391950@N02","secret":"d2f79b8b55","server":"65535","farm":66,"title":"B\u00e9casseau maub\u00e8che - Calidris canutus","ispublic":1,"isfriend":0,"isfamily":0},{"id":"52689539583","owner":"28092414@N03","secret":"0ebd0ac146","server":"65535","farm":66,"title":"Red Knot at V\u00e6r\u00f8y S24A7703","ispublic":1,"isfriend":0,"isfamily":0},{"id":"52689539483","owner":"28092414@N03","secret":"faa83385a2","server":"65535","farm":66,"title":"Red Knot at V\u00e6r\u00f8y S24A7719","ispublic":1,"isfriend":0,"isfamily":0},{"id":"52689469085","owner":"28092414@N03","secret":"b87d51da45","server":"65535","farm":66,"title":"Red Knot at V\u00e6r\u00f8y S24A7712","ispublic":1,"isfriend":0,"isfamily":0},{"id":"52686730673","owner":"12639178@N07","secret":"c38cf32393","server":"65535","farm":66,"title":"Knutt ganz nah","ispublic":1,"isfriend":0,"isfamily":0},{"id":"52686232376","owner":"12639178@N07","secret":"1a857b693e","server":"65535","farm":66,"title":"Knutt ganz nah","ispublic":1,"isfriend":0,"isfamily":0},{"id":"52686730453","owner":"12639178@N07","secret":"7a16c105e2","server":"65535","farm":66,"title":"Knutt ganz nah","ispublic":1,"isfriend":0,"isfamily":0},{"id":"52685718547","owner":"12639178@N07","secret":"a8bf56415e","server":"65535","farm":66,"title":"Knutt ganz nah","ispublic":1,"isfriend":0,"isfamily":0},{"id":"52686232116","owner":"12639178@N07","secret":"2ce2bb6909","server":"65535","farm":66,"title":"Knutt ganz nah","ispublic":1,"isfriend":0,"isfamily":0},{"id":"52685444691","owner":"96060626@N03","secret":"2ec461f4d0","server":"65535","farm":66,"title":"20230205\u7d05\u8179\u6ff1\u9df8\u975e\u7e41\u6b96\u7fbd (4)","ispublic":1,"isfriend":0,"isfamily":0},{"id":"52678568854","owner":"12639178@N07","secret":"51fa331928","server":"65535","farm":66,"title":"Knutt","ispublic":1,"isfriend":0,"isfamily":0},{"id":"52678148636","owner":"99817330@N02","secret":"9a1e91edf3","server":"65535","farm":66,"title":"Knot","ispublic":1,"isfriend":0,"isfamily":0},{"id":"52671341583","owner":"99817330@N02","secret":"1a994a8c64","server":"65535","farm":66,"title":"Grey Plover","ispublic":1,"isfriend":0,"isfamily":0},{"id":"52666667103","owner":"130708126@N02","secret":"fe57cfe7a7","server":"65535","farm":66,"title":"Be\u0301casseau maube\u0301che ( Caldiris canutus ), Be\u0301casseau variable (Calidris alpina).jpg","ispublic":1,"isfriend":0,"isfamily":0},{"id":"52650673451","owner":"27450769@N06","secret":"fa1b65cbe3","server":"65535","farm":66,"title":"o\u2022 Lovely August Afternoon \u2022o","ispublic":1,"isfriend":0,"isfamily":0},{"id":"52649310097","owner":"99817330@N02","secret":"bf0c7efc72","server":"65535","farm":66,"title":"Incoming Knot","ispublic":1,"isfriend":0,"isfamily":0},{"id":"52648169779","owner":"99817330@N02","secret":"d95177a6ac","server":"65535","farm":66,"title":"Ringed Plover No-Mates","ispublic":1,"isfriend":0,"isfamily":0},{"id":"52646178299","owner":"99817330@N02","secret":"9219a45526","server":"65535","farm":66,"title":"Barwit No-mates","ispublic":1,"isfriend":0,"isfamily":0},{"id":"52645225213","owner":"8013969@N03","secret":"28e0e57bfd","server":"65535","farm":66,"title":"Calidris canutus DFL nj22-1","ispublic":1,"isfriend":0,"isfamily":0},{"id":"52642000197","owner":"12639178@N07","secret":"44ccca4878","server":"65535","farm":66,"title":"Belegfoto Knutt","ispublic":1,"isfriend":0,"isfamily":0},{"id":"52628417668","owner":"103722035@N06","secret":"873314e031","server":"0","farm":0,"title":"Red Knot (Calidris canutus), Morro Bay, CA","ispublic":1,"isfriend":0,"isfamily":0},{"id":"52610927041","owner":"144217344@N03","secret":"9f3b5d5408","server":"65535","farm":66,"title":"Gisela_Nagel.Fl-0746-Knutt","ispublic":1,"isfriend":0,"isfamily":0},{"id":"52606406502","owner":"38824602@N07","secret":"9df628dd96","server":"65535","farm":66,"title":"Foraging Knot","ispublic":1,"isfriend":0,"isfamily":0},{"id":"52602245710","owner":"99817330@N02","secret":"a8558987fe","server":"65535","farm":66,"title":"Knot","ispublic":1,"isfriend":0,"isfamily":0},{"id":"52595749734","owner":"165841515@N03","secret":"ab8c94b333","server":"65535","farm":66,"title":"B\u00e9casseau maub\u00e8che \/ Red Knot \/ (Calidris canutus)","ispublic":1,"isfriend":0,"isfamily":0},{"id":"52594258795","owner":"145907835@N07","secret":"52dbc2c4b3","server":"65535","farm":66,"title":"Kanoet - Calidris canutus","ispublic":1,"isfriend":0,"isfamily":0},{"id":"52593348642","owner":"145907835@N07","secret":"fd5a100d15","server":"65535","farm":66,"title":"Kanoet - Calidris canutus","ispublic":1,"isfriend":0,"isfamily":0},{"id":"52593831521","owner":"145907835@N07","secret":"004965da76","server":"65535","farm":66,"title":"Kanoet - Calidris canutus","ispublic":1,"isfriend":0,"isfamily":0},{"id":"52580522814","owner":"153973412@N04","secret":"4984f3cab1","server":"65535","farm":66,"title":"Red Knot-Calidris canutus, Bolivar Flats, TX","ispublic":1,"isfriend":0,"isfamily":0},{"id":"52573602326","owner":"145890134@N05","secret":"1bff9ffccf","server":"65535","farm":66,"title":"Knot | Kanoet | Knoten (Calidris canutus)","ispublic":1,"isfriend":0,"isfamily":0},{"id":"52573602316","owner":"145890134@N05","secret":"a760c1d6a3","server":"65535","farm":66,"title":"Knot | Kanoet | Knoten (Calidris canutus)","ispublic":1,"isfriend":0,"isfamily":0},{"id":"52568791687","owner":"187560275@N08","secret":"514464fe1f","server":"65535","farm":66,"title":"B\u00e9casseau maub\u00e8che -Calidris canutus - Red Knot","ispublic":1,"isfriend":0,"isfamily":0},{"id":"52558527249","owner":"127588226@N08","secret":"df9cdcf49b","server":"65535","farm":66,"title":"K33P2028c Knot, Titchwell Beach, March 2022","ispublic":1,"isfriend":0,"isfamily":0},{"id":"52558705465","owner":"127588226@N08","secret":"9a3cb2dff3","server":"65535","farm":66,"title":"K33P2877aa Knot, Titchwell Beach, March 2022","ispublic":1,"isfriend":0,"isfamily":0},{"id":"52549142010","owner":"12639178@N07","secret":"678afd2781","server":"65535","farm":66,"title":"verletzter Knutt","ispublic":1,"isfriend":0,"isfamily":0},{"id":"52548668526","owner":"12639178@N07","secret":"0ffc92e223","server":"65535","farm":66,"title":"verletzter Knutt","ispublic":1,"isfriend":0,"isfamily":0},{"id":"52548668361","owner":"12639178@N07","secret":"dd7e0c6982","server":"65535","farm":66,"title":"verletzer Knutt","ispublic":1,"isfriend":0,"isfamily":0},{"id":"52549212713","owner":"12639178@N07","secret":"abee657aef","server":"65535","farm":66,"title":"verletzer Knutt","ispublic":1,"isfriend":0,"isfamily":0},{"id":"52530219180","owner":"193483104@N04","secret":"0d55879ee1","server":"65535","farm":66,"title":"Red Knot (Calidris canutus)","ispublic":1,"isfriend":0,"isfamily":0},{"id":"52517608327","owner":"151677249@N08","secret":"7fb3a40864","server":"65535","farm":66,"title":"Red Knot (Calidris canutus)","ispublic":1,"isfriend":0,"isfamily":0},{"id":"52514622412","owner":"187674356@N05","secret":"87d2b54e06","server":"65535","farm":66,"title":"Knot","ispublic":1,"isfriend":0,"isfamily":0},{"id":"52515634318","owner":"12639178@N07","secret":"d0e52d2408","server":"65535","farm":66,"title":"Knutt (Calidris canutus) (1)","ispublic":1,"isfriend":0,"isfamily":0},{"id":"52511152855","owner":"134610359@N02","secret":"126592fd48","server":"65535","farm":66,"title":"Seixoeira - DSCF6641","ispublic":1,"isfriend":0,"isfamily":0},{"id":"52510671086","owner":"134610359@N02","secret":"8005f8cb64","server":"65535","farm":66,"title":"Seixoeira - DSCF6652","ispublic":1,"isfriend":0,"isfamily":0},{"id":"52511220243","owner":"134610359@N02","secret":"1c32623c20","server":"65535","farm":66,"title":"Seixoeira - DSCF6656","ispublic":1,"isfriend":0,"isfamily":0},{"id":"52510197057","owner":"134610359@N02","secret":"789e9cbab2","server":"65535","farm":66,"title":"Seixoeira - DSCF6658","ispublic":1,"isfriend":0,"isfamily":0},{"id":"52503817420","owner":"191209692@N05","secret":"03f28416f9","server":"65535","farm":66,"title":"Correlimos gordo - Red Knot - Calidris canutus","ispublic":1,"isfriend":0,"isfamily":0},{"id":"52502513656","owner":"71139289@N00","secret":"4050bf5496","server":"65535","farm":66,"title":"Piovanelli maggiori","ispublic":1,"isfriend":0,"isfamily":0},{"id":"52497881170","owner":"53041612@N05","secret":"f7a1297e31","server":"65535","farm":66,"title":"Knot","ispublic":1,"isfriend":0,"isfamily":0},{"id":"52497398431","owner":"53041612@N05","secret":"83fc7c1e70","server":"65535","farm":66,"title":"Knot","ispublic":1,"isfriend":0,"isfamily":0},{"id":"52494614992","owner":"53041612@N05","secret":"5315c2e5ca","server":"65535","farm":66,"title":"Knot","ispublic":1,"isfriend":0,"isfamily":0},{"id":"52669481265","owner":"79722430@N04","secret":"32fa2b61cc","server":"65535","farm":66,"title":"Red knot (Calidris canutus)","ispublic":1,"isfriend":0,"isfamily":0},{"id":"52656093089","owner":"48558356@N04","secret":"487f87b9ec","server":"65535","farm":66,"title":"Knot Calidris canutus with  Redshank Tringa totanus scolopacidae","ispublic":1,"isfriend":0,"isfamily":0},{"id":"52656092474","owner":"48558356@N04","secret":"9c2289d122","server":"65535","farm":66,"title":"Knot Calidris canutus with  Redshank Tringa totanus scolopacidae","ispublic":1,"isfriend":0,"isfamily":0},{"id":"52655321842","owner":"48558356@N04","secret":"52907a6619","server":"65535","farm":66,"title":"Knot Calidris canutus with  Redshank Tringa totanus scolopacidae","ispublic":1,"isfriend":0,"isfamily":0},{"id":"52656301068","owner":"48558356@N04","secret":"9a504ccdd9","server":"65535","farm":66,"title":"Knot Calidris canutus with  Redshank Tringa totanus scolopacidae","ispublic":1,"isfriend":0,"isfamily":0},{"id":"52652991321","owner":"79722430@N04","secret":"19f54c3cfd","server":"65535","farm":66,"title":"Knot (Calidris canutus)","ispublic":1,"isfriend":0,"isfamily":0},{"id":"52653428715","owner":"79722430@N04","secret":"1878a71b69","server":"65535","farm":66,"title":"Knot (Calidris canutus)","ispublic":1,"isfriend":0,"isfamily":0},{"id":"52653472463","owner":"79722430@N04","secret":"6b01092562","server":"65535","farm":66,"title":"Knot (Calidris canutus)","ispublic":1,"isfriend":0,"isfamily":0},{"id":"52653472443","owner":"79722430@N04","secret":"00c4363cee","server":"65535","farm":66,"title":"Knot (Calidris canutus)","ispublic":1,"isfriend":0,"isfamily":0},{"id":"52647584172","owner":"186211059@N06","secret":"2c68bcc062","server":"65535","farm":66,"title":"Red Knot","ispublic":1,"isfriend":0,"isfamily":0},{"id":"52598451558","owner":"112292182@N02","secret":"f2475e58aa","server":"65535","farm":66,"title":"Knot","ispublic":1,"isfriend":0,"isfamily":0},{"id":"52594256625","owner":"145907835@N07","secret":"5a49461d9d","server":"65535","farm":66,"title":"Kanoet - Calidris canutus","ispublic":1,"isfriend":0,"isfamily":0},{"id":"52591903730","owner":"79722430@N04","secret":"2415d73e21","server":"65535","farm":66,"title":"Knot (Calidris canutus)","ispublic":1,"isfriend":0,"isfamily":0},{"id":"52591739249","owner":"79722430@N04","secret":"3ea7cdc857","server":"65535","farm":66,"title":"Knot (Calidris canutus)","ispublic":1,"isfriend":0,"isfamily":0},{"id":"52590996057","owner":"79722430@N04","secret":"fe35192726","server":"65535","farm":66,"title":"Knot (Calidris canutus)","ispublic":1,"isfriend":0,"isfamily":0},{"id":"52591903275","owner":"79722430@N04","secret":"524e8e9332","server":"65535","farm":66,"title":"Knot (Calidris canutus)","ispublic":1,"isfriend":0,"isfamily":0},{"id":"52590996012","owner":"79722430@N04","secret":"fe4c4f217a","server":"65535","farm":66,"title":"Knot (Calidris canutus)","ispublic":1,"isfriend":0,"isfamily":0},{"id":"52591996378","owner":"79722430@N04","secret":"506fcdba34","server":"65535","farm":66,"title":"Knot (Calidris canutus)","ispublic":1,"isfriend":0,"isfamily":0},{"id":"52591480601","owner":"79722430@N04","secret":"711164327c","server":"65535","farm":66,"title":"Knot (Calidris canutus)","ispublic":1,"isfriend":0,"isfamily":0},{"id":"52591903125","owner":"79722430@N04","secret":"8ba8d090bf","server":"65535","farm":66,"title":"Knot (Calidris canutus)","ispublic":1,"isfriend":0,"isfamily":0},{"id":"52590983612","owner":"79722430@N04","secret":"3eef3220b1","server":"65535","farm":66,"title":"Knot (Calidris canutus)","ispublic":1,"isfriend":0,"isfamily":0},{"id":"52590983587","owner":"79722430@N04","secret":"44e11d7650","server":"65535","farm":66,"title":"Knot (Calidris canutus)","ispublic":1,"isfriend":0,"isfamily":0},{"id":"52590983577","owner":"79722430@N04","secret":"a287aebcdd","server":"65535","farm":66,"title":"Knot (Calidris canutus)","ispublic":1,"isfriend":0,"isfamily":0},{"id":"52591468396","owner":"79722430@N04","secret":"9f00684c51","server":"65535","farm":66,"title":"Knot (Calidris canutus)","ispublic":1,"isfriend":0,"isfamily":0},{"id":"52591468381","owner":"79722430@N04","secret":"aa30e361e5","server":"65535","farm":66,"title":"Knot (Calidris canutus)","ispublic":1,"isfriend":0,"isfamily":0},{"id":"52531258442","owner":"144217344@N03","secret":"345d4afd6d","server":"65535","farm":66,"title":"Gisela_Nagel-Fl-0793-Knutt","ispublic":1,"isfriend":0,"isfamily":0},{"id":"52498312352","owner":"112292182@N02","secret":"a161711f78","server":"65535","farm":66,"title":"Red Knot","ispublic":1,"isfriend":0,"isfamily":0},{"id":"52495655123","owner":"53041612@N05","secret":"cea168b889","server":"65535","farm":66,"title":"Knot","ispublic":1,"isfriend":0,"isfamily":0}]},"stat":"ok"}