{"photos":{"page":1,"pages":96,"perpage":100,"total":9597,"photo":[{"id":"52786764186","owner":"25899079@N08","secret":"0d8e73398a","server":"65535","farm":66,"title":"Red Crossbill (0179)","ispublic":1,"isfriend":0,"isfamily":0},{"id":"52786995844","owner":"25899079@N08","secret":"6d2c6f9fb8","server":"65535","farm":66,"title":"Red Crossbill (1314)","ispublic":1,"isfriend":0,"isfamily":0},{"id":"52785826583","owner":"39177293@N03","secret":"4d2cbf2c9e","server":"65535","farm":66,"title":"Red Crossbill","ispublic":1,"isfriend":0,"isfamily":0},{"id":"52785373146","owner":"39177293@N03","secret":"36513528e4","server":"65535","farm":66,"title":"Red Crossbill","ispublic":1,"isfriend":0,"isfamily":0},{"id":"52785769550","owner":"39177293@N03","secret":"95d1a87900","server":"65535","farm":66,"title":"Red Crossbill","ispublic":1,"isfriend":0,"isfamily":0},{"id":"52775002186","owner":"27450769@N06","secret":"c8272544a6","server":"65535","farm":66,"title":"The Beautiful Crossbills","ispublic":1,"isfriend":0,"isfamily":0},{"id":"52771896338","owner":"65148649@N04","secret":"2f028e921c","server":"65535","farm":66,"title":"Red Crossbill 3 03.11.23 Frye","ispublic":1,"isfriend":0,"isfamily":0},{"id":"52770875817","owner":"65148649@N04","secret":"465a71149f","server":"65535","farm":66,"title":"Red Crossbill 4 03.11.23 Frye","ispublic":1,"isfriend":0,"isfamily":0},{"id":"52770875767","owner":"65148649@N04","secret":"106b41e24d","server":"65535","farm":66,"title":"Red Crossbill 03.11.23 Rutherford E","ispublic":1,"isfriend":0,"isfamily":0},{"id":"52771896303","owner":"65148649@N04","secret":"1d48a8ed38","server":"65535","farm":66,"title":"Red Crossbill 03.11.23 Frye","ispublic":1,"isfriend":0,"isfamily":0},{"id":"52771822560","owner":"65148649@N04","secret":"4b3343f18f","server":"65535","farm":66,"title":"Red Crossbill 2 03.11.23 Rutherford K","ispublic":1,"isfriend":0,"isfamily":0},{"id":"52770875702","owner":"65148649@N04","secret":"33a6c66028","server":"65535","farm":66,"title":"Red Crossbill  03.11.23 Rutherford K","ispublic":1,"isfriend":0,"isfamily":0},{"id":"52771664639","owner":"65148649@N04","secret":"9443549f54","server":"65535","farm":66,"title":"Red Crossbill 2 03.11.23 Rutherford E","ispublic":1,"isfriend":0,"isfamily":0},{"id":"52771663999","owner":"65148649@N04","secret":"716b9f42cb","server":"65535","farm":66,"title":"Red Crossbill 03.11.23 Rutherford K","ispublic":1,"isfriend":0,"isfamily":0},{"id":"52771895708","owner":"65148649@N04","secret":"09e916a88b","server":"65535","farm":66,"title":"Red Crossbill 2 03.11.23 Frye","ispublic":1,"isfriend":0,"isfamily":0},{"id":"52771130785","owner":"142527207@N04","secret":"16cde8e42d","server":"65535","farm":66,"title":"IMG_2981","ispublic":1,"isfriend":0,"isfamily":0},{"id":"52770182237","owner":"142527207@N04","secret":"9dae3494fc","server":"65535","farm":66,"title":"IMG_2944","ispublic":1,"isfriend":0,"isfamily":0},{"id":"52769815759","owner":"78941013@N00","secret":"8c20fcb937","server":"65535","farm":66,"title":"male Red Crossbill (Loxia curvirostra) Kruisbek","ispublic":1,"isfriend":0,"isfamily":0},{"id":"52769560331","owner":"78941013@N00","secret":"f9abd3d9f8","server":"65535","farm":66,"title":"male Red Crossbill (Loxia curvirostra) Kruisbek","ispublic":1,"isfriend":0,"isfamily":0},{"id":"52769022177","owner":"78941013@N00","secret":"f61562a843","server":"65535","farm":66,"title":"male Red Crossbill (Loxia curvirostra) Kruisbek","ispublic":1,"isfriend":0,"isfamily":0},{"id":"52769545883","owner":"78919200@N08","secret":"cedb363774","server":"65535","farm":66,"title":"Red Crossbill (Loxia curvirostra)","ispublic":1,"isfriend":0,"isfamily":0},{"id":"52769137929","owner":"78941013@N00","secret":"1a14bcfdd7","server":"65535","farm":66,"title":"Female Red Crossbill (Loxia curvirostra) Kruisbek","ispublic":1,"isfriend":0,"isfamily":0},{"id":"52769297285","owner":"78941013@N00","secret":"e4182d1261","server":"65535","farm":66,"title":"Female Red Crossbill (Loxia curvirostra) Kruisbek","ispublic":1,"isfriend":0,"isfamily":0},{"id":"52769371543","owner":"78941013@N00","secret":"9b9c75f42e","server":"65535","farm":66,"title":"Female Red Crossbill (Loxia curvirostra) Kruisbek","ispublic":1,"isfriend":0,"isfamily":0},{"id":"52765024167","owner":"160954938@N08","secret":"12a4479a65","server":"65535","farm":66,"title":"Piquituerto com\u00fan (Loxia curvirostra)","ispublic":1,"isfriend":0,"isfamily":0},{"id":"52762840372","owner":"187792860@N04","secret":"227e1f7c49","server":"65535","farm":66,"title":"Red Crossbill (Loxia curvirostra)","ispublic":1,"isfriend":0,"isfamily":0},{"id":"52762419444","owner":"152849394@N05","secret":"4f4cb2c0b4","server":"65535","farm":66,"title":"Crossbill - Loxia curvirostra","ispublic":1,"isfriend":0,"isfamily":0},{"id":"52762419394","owner":"152849394@N05","secret":"b2d3e65d7a","server":"65535","farm":66,"title":"Crossbill - Loxia curvirostra","ispublic":1,"isfriend":0,"isfamily":0},{"id":"52762576050","owner":"152849394@N05","secret":"4360e7b355","server":"65535","farm":66,"title":"Crossbill - Loxia curvirostra","ispublic":1,"isfriend":0,"isfamily":0},{"id":"52762575960","owner":"152849394@N05","secret":"b97cf040fb","server":"65535","farm":66,"title":"Crossbill - Loxia curvirostra","ispublic":1,"isfriend":0,"isfamily":0},{"id":"52762659748","owner":"152849394@N05","secret":"ba21b9221e","server":"65535","farm":66,"title":"Crossbill - Loxia curvirostra","ispublic":1,"isfriend":0,"isfamily":0},{"id":"52762419239","owner":"152849394@N05","secret":"864b4ed689","server":"65535","farm":66,"title":"Crossbill - Loxia curvirostra","ispublic":1,"isfriend":0,"isfamily":0},{"id":"52762659603","owner":"152849394@N05","secret":"ba14d54401","server":"65535","farm":66,"title":"Crossbill - Loxia curvirostra","ispublic":1,"isfriend":0,"isfamily":0},{"id":"52748316633","owner":"129140315@N05","secret":"18c2618fc2","server":"65535","farm":66,"title":"Piquituerto Com\u00fan (Loxia Curvirostra)","ispublic":1,"isfriend":0,"isfamily":0},{"id":"52745642256","owner":"12639178@N07","secret":"4a6502c0dd","server":"65535","farm":66,"title":"Fichtenkreuzschnabel (Loxia curvirostra) (3)","ispublic":1,"isfriend":0,"isfamily":0},{"id":"52745122727","owner":"12639178@N07","secret":"d824a5d91a","server":"65535","farm":66,"title":"Fichtenkreuzschnabel (Loxia curvirostra) (2)","ispublic":1,"isfriend":0,"isfamily":0},{"id":"52745897459","owner":"12639178@N07","secret":"65e0b8ae9f","server":"65535","farm":66,"title":"Fichtenkreuzschnabel (Loxia curvirostra) (1)","ispublic":1,"isfriend":0,"isfamily":0},{"id":"52743608802","owner":"95005162@N08","secret":"311c0fbb7d","server":"65535","farm":66,"title":"Piquituerto com\u00fan","ispublic":1,"isfriend":0,"isfamily":0},{"id":"52740855240","owner":"145086457@N04","secret":"05d96bf134","server":"65535","farm":66,"title":"Red Crossbill in Snow","ispublic":1,"isfriend":0,"isfamily":0},{"id":"52740929063","owner":"145086457@N04","secret":"3ce946224e","server":"65535","farm":66,"title":"Red Crossbill Perched","ispublic":1,"isfriend":0,"isfamily":0},{"id":"52725247364","owner":"153117385@N07","secret":"e68dddbc56","server":"65535","farm":66,"title":"Common Crossbill","ispublic":1,"isfriend":0,"isfamily":0},{"id":"52723012722","owner":"159311349@N08","secret":"3a48b6a8a8","server":"65535","farm":66,"title":"Crossbill","ispublic":1,"isfriend":0,"isfamily":0},{"id":"52722115455","owner":"129140315@N05","secret":"130446000f","server":"65535","farm":66,"title":"Piquituerto Com\u00fan (Loxia Curvirostra)","ispublic":1,"isfriend":0,"isfamily":0},{"id":"52719275804","owner":"33319209@N02","secret":"a137de5a98","server":"65535","farm":66,"title":"Loxia curvirostra","ispublic":1,"isfriend":0,"isfamily":0},{"id":"52716702607","owner":"39177293@N03","secret":"3f6ae599db","server":"65535","farm":66,"title":"Red Crossbill","ispublic":1,"isfriend":0,"isfamily":0},{"id":"52717222201","owner":"39177293@N03","secret":"d3906ba834","server":"65535","farm":66,"title":"Red Crossbill","ispublic":1,"isfriend":0,"isfamily":0},{"id":"52717654425","owner":"39177293@N03","secret":"9c48a80b7b","server":"65535","farm":66,"title":"Red Crossbill","ispublic":1,"isfriend":0,"isfamily":0},{"id":"52717654410","owner":"39177293@N03","secret":"97204d4a6a","server":"65535","farm":66,"title":"Red Crossbill","ispublic":1,"isfriend":0,"isfamily":0},{"id":"52712846319","owner":"45853144@N02","secret":"6fdaaaa8d5","server":"65535","farm":66,"title":"Piquituerto com\u00fan (Loxia curvirostra) juvenil","ispublic":1,"isfriend":0,"isfamily":0},{"id":"52706732371","owner":"112292182@N02","secret":"a813af423e","server":"65535","farm":66,"title":"Crossbill","ispublic":1,"isfriend":0,"isfamily":0},{"id":"52704958950","owner":"45853144@N02","secret":"49492d8cb3","server":"65535","farm":66,"title":"Piquituerto com\u00fan (Loxia curvirostra) macho","ispublic":1,"isfriend":0,"isfamily":0},{"id":"52703991987","owner":"149545070@N07","secret":"39d2c2240d","server":"65535","farm":66,"title":"Crossbills (Loxia Curvirostra)","ispublic":1,"isfriend":0,"isfamily":0},{"id":"52702454276","owner":"39177293@N03","secret":"f0cfd92bbf","server":"65535","farm":66,"title":"Red Crossbill","ispublic":1,"isfriend":0,"isfamily":0},{"id":"52697940340","owner":"12639178@N07","secret":"56ea4a363c","server":"65535","farm":66,"title":"Fichtenkreuzschnabel (J01)","ispublic":1,"isfriend":0,"isfamily":0},{"id":"52693101001","owner":"192701427@N07","secret":"c8433a39bf","server":"65535","farm":66,"title":"Piquituerto com\u00fan  (Loxia curvirostra)","ispublic":1,"isfriend":0,"isfamily":0},{"id":"52692212092","owner":"196341853@N06","secret":"cc08e51cd2","server":"65535","farm":66,"title":"Loxia curvirostra","ispublic":1,"isfriend":0,"isfamily":0},{"id":"52691170584","owner":"123521075@N07","secret":"6bcfaf0a50","server":"65535","farm":66,"title":"Crossbill - Loxia curvirostra","ispublic":1,"isfriend":0,"isfamily":0},{"id":"52689605690","owner":"145489125@N03","secret":"41e1dfed35","server":"65535","farm":66,"title":"Crossbill ( Loxia curvirostra ) ... Wykeham VP, Yorkshire","ispublic":1,"isfriend":0,"isfamily":0},{"id":"52689663853","owner":"145489125@N03","secret":"a04bd6d4ae","server":"65535","farm":66,"title":"Crossbill ( Loxia curvirostra ) ... Wykeham VP , Yorkshire","ispublic":1,"isfriend":0,"isfamily":0},{"id":"52689109071","owner":"196341853@N06","secret":"55823800d7","server":"65535","farm":66,"title":"Loxia curvirostra","ispublic":1,"isfriend":0,"isfamily":0},{"id":"52689108846","owner":"196341853@N06","secret":"490f0af1c3","server":"65535","farm":66,"title":"Loxia curvirostra","ispublic":1,"isfriend":0,"isfamily":0},{"id":"52689597243","owner":"196341853@N06","secret":"042229378d","server":"65535","farm":66,"title":"Loxia curvirostra","ispublic":1,"isfriend":0,"isfamily":0},{"id":"52688922673","owner":"18217058@N04","secret":"e380ca8974","server":"65535","farm":66,"title":"Red crossbill \/ Krossnefur (Loxia curvirostra)","ispublic":1,"isfriend":0,"isfamily":0},{"id":"52688922648","owner":"18217058@N04","secret":"8ecc493062","server":"65535","farm":66,"title":"Red crossbill \/ Krossnefur (Loxia curvirostra)","ispublic":1,"isfriend":0,"isfamily":0},{"id":"52688853875","owner":"18217058@N04","secret":"2872f402bb","server":"65535","farm":66,"title":"Red crossbill \/ Krossnefur (Loxia curvirostra)","ispublic":1,"isfriend":0,"isfamily":0},{"id":"52687445547","owner":"12639178@N07","secret":"998970aef3","server":"65535","farm":66,"title":"Fichtenkreuzschnabel","ispublic":1,"isfriend":0,"isfamily":0},{"id":"52687342174","owner":"196341853@N06","secret":"b1e734b4a1","server":"65535","farm":66,"title":"Loxia curvirostra","ispublic":1,"isfriend":0,"isfamily":0},{"id":"52687051066","owner":"196341853@N06","secret":"435db96ac1","server":"65535","farm":66,"title":"Loxia curvirostra","ispublic":1,"isfriend":0,"isfamily":0},{"id":"52684388373","owner":"123521075@N07","secret":"a07f34aa9d","server":"65535","farm":66,"title":"Crossbill feeding signs on Birch bark - Loxia curvirostra","ispublic":1,"isfriend":0,"isfamily":0},{"id":"52683375592","owner":"123521075@N07","secret":"c5c63a4f63","server":"65535","farm":66,"title":"Crossbill feeding signs on Birch bark - Loxia curvirostra","ispublic":1,"isfriend":0,"isfamily":0},{"id":"52683375557","owner":"123521075@N07","secret":"e51c55bbd6","server":"65535","farm":66,"title":"Crossbill feeding signs on Birch bark - Loxia curvirostra","ispublic":1,"isfriend":0,"isfamily":0},{"id":"52684388273","owner":"123521075@N07","secret":"9445f482f3","server":"65535","farm":66,"title":"Crossbill feeding signs on Birch bark - Loxia curvirostra","ispublic":1,"isfriend":0,"isfamily":0},{"id":"52680722330","owner":"112292182@N02","secret":"ef503fd33c","server":"65535","farm":66,"title":"Crossbill","ispublic":1,"isfriend":0,"isfamily":0},{"id":"52679279584","owner":"66383434@N05","secret":"5374d2ba76","server":"65535","farm":66,"title":"Cruza bico (Loxia curvirostra)","ispublic":1,"isfriend":0,"isfamily":0},{"id":"52674938106","owner":"112292182@N02","secret":"fbf8c1f491","server":"65535","farm":66,"title":"Crossbill","ispublic":1,"isfriend":0,"isfamily":0},{"id":"52674430289","owner":"45853144@N02","secret":"96752d58b1","server":"65535","farm":66,"title":"Piquituerto com\u00fan (Loxia curvirostra) macho","ispublic":1,"isfriend":0,"isfamily":0},{"id":"52668586215","owner":"62766146@N07","secret":"16d51d5e03","server":"65535","farm":66,"title":"Krossnefur - Crossbill - Loxia curvirostra - jpg.1024","ispublic":1,"isfriend":0,"isfamily":0},{"id":"52668611683","owner":"62766146@N07","secret":"202ae6d7d2","server":"65535","farm":66,"title":"Krossnefur - Crossbill - Loxia curvirostra - jpg.440","ispublic":1,"isfriend":0,"isfamily":0},{"id":"52668545890","owner":"62766146@N07","secret":"69c9e7df57","server":"65535","farm":66,"title":"Krossnefur - Crossbill - Loxia curvirostra - jpg.443","ispublic":1,"isfriend":0,"isfamily":0},{"id":"52667613227","owner":"62766146@N07","secret":"0d60902157","server":"65535","farm":66,"title":"Krossnefur - Crossbill - Loxia curvirostra - jpg.537-2","ispublic":1,"isfriend":0,"isfamily":0},{"id":"52667612147","owner":"62766146@N07","secret":"2b199c9100","server":"65535","farm":66,"title":"Krossnefur - Crossbill - Loxia curvirostra - jpg.1083","ispublic":1,"isfriend":0,"isfamily":0},{"id":"52667611872","owner":"62766146@N07","secret":"67ff201394","server":"65535","farm":66,"title":"Krossnefur - Crossbill - Loxia curvirostra - jpg.1074","ispublic":1,"isfriend":0,"isfamily":0},{"id":"52668107706","owner":"62766146@N07","secret":"7545703e3b","server":"65535","farm":66,"title":"Krossnefur - Crossbill - Loxia curvirostra - jpg.1023","ispublic":1,"isfriend":0,"isfamily":0},{"id":"52668107526","owner":"62766146@N07","secret":"dfca5df675","server":"65535","farm":66,"title":"Krossnefur - Crossbill - Loxia curvirostra - jpg.1020","ispublic":1,"isfriend":0,"isfamily":0},{"id":"52668543730","owner":"62766146@N07","secret":"e805c2e3da","server":"65535","farm":66,"title":"Krossnefur - Crossbill - Loxia curvirostra - jpg.950","ispublic":1,"isfriend":0,"isfamily":0},{"id":"52668107231","owner":"62766146@N07","secret":"14710ed937","server":"65535","farm":66,"title":"Krossnefur - Crossbill - Loxia curvirostra - jpg.913","ispublic":1,"isfriend":0,"isfamily":0},{"id":"52667404930","owner":"192701427@N07","secret":"1da3e1bb86","server":"65535","farm":66,"title":"Piquituerto com\u00fan  (Loxia curvirostra)","ispublic":1,"isfriend":0,"isfamily":0},{"id":"52667404935","owner":"192701427@N07","secret":"554b3fed5c","server":"65535","farm":66,"title":"Piquituerto com\u00fan  (Loxia curvirostra)","ispublic":1,"isfriend":0,"isfamily":0},{"id":"52666473107","owner":"192701427@N07","secret":"9642ffa0ef","server":"65535","farm":66,"title":"Piquituerto com\u00fan  (Loxia curvirostra)","ispublic":1,"isfriend":0,"isfamily":0},{"id":"52665615951","owner":"18217058@N04","secret":"1a1383fe75","server":"65535","farm":66,"title":"Red crossbill \/ Krossnefur (Loxia curvirostra)","ispublic":1,"isfriend":0,"isfamily":0},{"id":"52666051315","owner":"18217058@N04","secret":"24b2e00fac","server":"65535","farm":66,"title":"Red crossbills \/ Krossnefir (Loxia curvirostra)","ispublic":1,"isfriend":0,"isfamily":0},{"id":"52665116812","owner":"18217058@N04","secret":"45e0284982","server":"65535","farm":66,"title":"Red crossbills \/ Krossnefir (Loxia curvirostra)","ispublic":1,"isfriend":0,"isfamily":0},{"id":"52666048590","owner":"18217058@N04","secret":"e93b61fbe4","server":"65535","farm":66,"title":"Red crossbills \/ Krossnefir (Loxia curvirostra)","ispublic":1,"isfriend":0,"isfamily":0},{"id":"52665114032","owner":"18217058@N04","secret":"aa600e66b1","server":"65535","farm":66,"title":"Red crossbill \/ Krossnefur (Loxia curvirostra)","ispublic":1,"isfriend":0,"isfamily":0},{"id":"52663155291","owner":"23515058@N05","secret":"47f7e0e54e","server":"65535","farm":66,"title":"Fichtenkreuzschnabel \/ Red Crossbill (Loxia curvirostra)","ispublic":1,"isfriend":0,"isfamily":0},{"id":"52658115375","owner":"12639178@N07","secret":"d1c4d9d498","server":"65535","farm":66,"title":"Fichtenkreuzschnabel","ispublic":1,"isfriend":0,"isfamily":0},{"id":"52657949569","owner":"12639178@N07","secret":"672f1ba73e","server":"65535","farm":66,"title":"Fichtenkreuzschnabel","ispublic":1,"isfriend":0,"isfamily":0},{"id":"52657327438","owner":"193852398@N04","secret":"3c1a27bc30","server":"65535","farm":66,"title":"51702007642","ispublic":1,"isfriend":0,"isfamily":0},{"id":"52655141090","owner":"23794796@N06","secret":"47ef36d719","server":"65535","farm":66,"title":"Cruza-bico","ispublic":1,"isfriend":0,"isfamily":0},{"id":"52694185169","owner":"112292182@N02","secret":"5a892054f2","server":"65535","farm":66,"title":"Crossbill","ispublic":1,"isfriend":0,"isfamily":0}]},"stat":"ok"}