{"photos":{"page":1,"pages":39,"perpage":100,"total":3855,"photo":[{"id":"52789342317","owner":"76782619@N04","secret":"28c6b157f1","server":"65535","farm":66,"title":"Redhead Drake","ispublic":1,"isfriend":0,"isfamily":0},{"id":"52786676517","owner":"76782619@N04","secret":"44cc9ce5b6","server":"65535","farm":66,"title":"Redhead Hen","ispublic":1,"isfriend":0,"isfamily":0},{"id":"52779286411","owner":"120699091@N02","secret":"8bb505dcbc","server":"65535","farm":66,"title":"Redhead","ispublic":1,"isfriend":0,"isfamily":0},{"id":"52764220196","owner":"8654297@N06","secret":"bb1d3ba9a1","server":"65535","farm":66,"title":"The bachelors three","ispublic":1,"isfriend":0,"isfamily":0},{"id":"52760179126","owner":"90886369@N06","secret":"f1513c0c97","server":"65535","farm":66,"title":"Redhead (Aythya americana)","ispublic":1,"isfriend":0,"isfamily":0},{"id":"52769115090","owner":"195656112@N04","secret":"6de8510cb9","server":"65535","farm":66,"title":"Redhead","ispublic":1,"isfriend":0,"isfamily":0},{"id":"52757441200","owner":"131037795@N03","secret":"a5f376dc7a","server":"65535","farm":66,"title":"Redhead (Aythya americana)","ispublic":1,"isfriend":0,"isfamily":0},{"id":"52749543858","owner":"34368269@N04","secret":"fcc9ac1d4d","server":"65535","farm":66,"title":"Redhead","ispublic":1,"isfriend":0,"isfamily":0},{"id":"52742945477","owner":"185605587@N03","secret":"7c30f4510d","server":"65535","farm":66,"title":"Redhead Duck (Aythya americana) observed at Shillapoo Wildlife Recreation Area in SW Washington June 27, 2020","ispublic":1,"isfriend":0,"isfamily":0},{"id":"52733415578","owner":"66762373@N04","secret":"8b51c5f1fb","server":"65535","farm":66,"title":"IMG_4667","ispublic":1,"isfriend":0,"isfamily":0},{"id":"52730650635","owner":"57356301@N06","secret":"cd62f0a1a5","server":"65535","farm":66,"title":"Redhead, Aythya americana","ispublic":1,"isfriend":0,"isfamily":0},{"id":"52730286574","owner":"66762373@N04","secret":"ef8736fb59","server":"65535","farm":66,"title":"Redheads","ispublic":1,"isfriend":0,"isfamily":0},{"id":"52728684151","owner":"85391626@N07","secret":"900a04d6d4","server":"65535","farm":66,"title":"Redheads","ispublic":1,"isfriend":0,"isfamily":0},{"id":"52725607667","owner":"9243885@N07","secret":"39e2967db4","server":"65535","farm":66,"title":"2023_03_04_095003","ispublic":1,"isfriend":0,"isfamily":0},{"id":"52725789831","owner":"9243885@N07","secret":"be3048bc34","server":"65535","farm":66,"title":"2023_03_04_095021","ispublic":1,"isfriend":0,"isfamily":0},{"id":"52724227326","owner":"78441846@N03","secret":"91fcff47a4","server":"65535","farm":66,"title":"Redhead, Aythya americana, male","ispublic":1,"isfriend":0,"isfamily":0},{"id":"52723702272","owner":"78441846@N03","secret":"e9b784cbb8","server":"65535","farm":66,"title":"Redhead, Aythya americana, male preening","ispublic":1,"isfriend":0,"isfamily":0},{"id":"52723702067","owner":"78441846@N03","secret":"24fa390c17","server":"65535","farm":66,"title":"Redheads, Aythya americana, male and female","ispublic":1,"isfriend":0,"isfamily":0},{"id":"52716462177","owner":"61241315@N00","secret":"ac847f26fe","server":"0","farm":0,"title":"Greater Scaup_Lesser Scaup_Redhead Duck_Red-breasted Merganser_Ring-necked Duck_0102.MP4","ispublic":1,"isfriend":0,"isfamily":0},{"id":"52716980001","owner":"61241315@N00","secret":"1d5acd21ac","server":"65535","farm":66,"title":"Greater Scaup_Red-breasted Merganser_Ring-necked Duck_N0108","ispublic":1,"isfriend":0,"isfamily":0},{"id":"52717468273","owner":"61241315@N00","secret":"ea34b7b962","server":"65535","farm":66,"title":"Greater Scaup_Red-breasted Merganser_Ring-necked Duck_N0107","ispublic":1,"isfriend":0,"isfamily":0},{"id":"52717245399","owner":"61241315@N00","secret":"a38be10090","server":"65535","farm":66,"title":"Greater Scaup_Lesser Scaup_Red-breasted Merganser_Ring-necked Duck_Redhead_N0109","ispublic":1,"isfriend":0,"isfamily":0},{"id":"52715411575","owner":"47533293@N04","secret":"1b1d391216","server":"65535","farm":66,"title":"Redhead, Aythya americana","ispublic":1,"isfriend":0,"isfamily":0},{"id":"52713027375","owner":"100108154@N02","secret":"a1c8536083","server":"65535","farm":66,"title":"The Two Dudes Found  A Female","ispublic":1,"isfriend":0,"isfamily":0},{"id":"52671529048","owner":"49114357@N08","secret":"265e063a5f","server":"65535","farm":66,"title":"Redhead","ispublic":1,"isfriend":0,"isfamily":0},{"id":"52699880359","owner":"54059915@N07","secret":"e48dddc7cd","server":"65535","farm":66,"title":"Busy beach day","ispublic":1,"isfriend":0,"isfamily":0},{"id":"52695350479","owner":"100108154@N02","secret":"f03813e4b4","server":"65535","farm":66,"title":"A Couple Of Handsome Dudes","ispublic":1,"isfriend":0,"isfamily":0},{"id":"52693802494","owner":"142902404@N08","secret":"ff68606462","server":"65535","farm":66,"title":"Redhead","ispublic":1,"isfriend":0,"isfamily":0},{"id":"52689667451","owner":"63093099@N02","secret":"8905745b71","server":"65535","farm":66,"title":"Canvasbacks (male and females) and American Coot; 20230214; USA-WA-King-Seattle-Union Bay Natural Area","ispublic":1,"isfriend":0,"isfamily":0},{"id":"52690157728","owner":"63093099@N02","secret":"f932100370","server":"65535","farm":66,"title":"Canvasbacks (male and females) and American Coots; 20230214; USA-WA-King-Seattle-Union Bay Natural Area","ispublic":1,"isfriend":0,"isfamily":0},{"id":"52687261962","owner":"18378985@N08","secret":"40ab0bd42b","server":"65535","farm":66,"title":"Redheads","ispublic":1,"isfriend":0,"isfamily":0},{"id":"52687036087","owner":"100108154@N02","secret":"50e19b11f1","server":"65535","farm":66,"title":"Two Redheads & A Gadwall","ispublic":1,"isfriend":0,"isfamily":0},{"id":"52683666152","owner":"131037795@N03","secret":"9d65c6eccd","server":"65535","farm":66,"title":"Mr. & Mrs. Redhead (Aythya americana)","ispublic":1,"isfriend":0,"isfamily":0},{"id":"52681193976","owner":"100108154@N02","secret":"1ae466785b","server":"65535","farm":66,"title":"I Feel Judged","ispublic":1,"isfriend":0,"isfamily":0},{"id":"52679033933","owner":"131037795@N03","secret":"1dd094f75b","server":"65535","farm":66,"title":"Redhead (Aythya americana)","ispublic":1,"isfriend":0,"isfamily":0},{"id":"52676142400","owner":"42034882@N00","secret":"fdc6403530","server":"65535","farm":66,"title":"Slipped the surly bonds of Earth","ispublic":1,"isfriend":0,"isfamily":0},{"id":"52674078599","owner":"187792860@N04","secret":"699ed8de7a","server":"65535","farm":66,"title":"Redhead Duck (Aythya americana)","ispublic":1,"isfriend":0,"isfamily":0},{"id":"52673355588","owner":"100108154@N02","secret":"913c30ae4c","server":"65535","farm":66,"title":"Male & Female Redhead Ducks","ispublic":1,"isfriend":0,"isfamily":0},{"id":"52671419246","owner":"42034882@N00","secret":"3df9c7a310","server":"65535","farm":66,"title":"Ready to Fly","ispublic":1,"isfriend":0,"isfamily":0},{"id":"52671411911","owner":"71418112@N00","secret":"091b427d6f","server":"65535","farm":66,"title":"Canvasback","ispublic":1,"isfriend":0,"isfamily":0},{"id":"52667717136","owner":"12530381@N07","secret":"4033401ff2","server":"65535","farm":66,"title":"Redhead (Aythya americana) at Glorietta Bay (2\/2\/2023)","ispublic":1,"isfriend":0,"isfamily":0},{"id":"52664383563","owner":"36845939@N03","secret":"101ce87d66","server":"65535","farm":66,"title":"Redhead (Aythya americana)","ispublic":1,"isfriend":0,"isfamily":0},{"id":"52664326235","owner":"36845939@N03","secret":"f44f5440ab","server":"65535","farm":66,"title":"Redhead (Aythya americana)","ispublic":1,"isfriend":0,"isfamily":0},{"id":"52663177154","owner":"110624976@N05","secret":"66d9da0e70","server":"65535","farm":66,"title":"Five Redhead ducks in flight","ispublic":1,"isfriend":0,"isfamily":0},{"id":"52662384952","owner":"110624976@N05","secret":"6b4db867dd","server":"65535","farm":66,"title":"Flight of three male Redhead ducks","ispublic":1,"isfriend":0,"isfamily":0},{"id":"52662040419","owner":"187792860@N04","secret":"1f0148ddb3","server":"65535","farm":66,"title":"Redhead Duck (Aythya americana)","ispublic":1,"isfriend":0,"isfamily":0},{"id":"52657572560","owner":"61135968@N00","secret":"cc09828422","server":"65535","farm":66,"title":"Redhead duck","ispublic":1,"isfriend":0,"isfamily":0},{"id":"52648548898","owner":"52450054@N04","secret":"733307b35b","server":"65535","farm":66,"title":"Redhead - Aythya americana, Cambridge, Maryland, March 8, 2021","ispublic":1,"isfriend":0,"isfamily":0},{"id":"52645150491","owner":"131314146@N08","secret":"5f11968677","server":"65535","farm":66,"title":"K. MacDonald, Redhead, Aythya americana and Greater Scaup,  Aythya marila","ispublic":1,"isfriend":0,"isfamily":0},{"id":"52645150476","owner":"131314146@N08","secret":"1fc105185e","server":"65535","farm":66,"title":"K. MacDonald, Redhead, Aythya americana and Greater Scaup,  Aythya marila","ispublic":1,"isfriend":0,"isfamily":0},{"id":"52645622623","owner":"131314146@N08","secret":"e9efc78f3f","server":"65535","farm":66,"title":"K. MacDonald, Ring-necked Duck, Aythya collaris, in the rear, Redhead, Aythya americana, foreground","ispublic":1,"isfriend":0,"isfamily":0},{"id":"52644236912","owner":"196840457@N07","secret":"0411bc2fa6","server":"65535","farm":66,"title":"Canvasback & Redhead Drakes","ispublic":1,"isfriend":0,"isfamily":0},{"id":"52629928070","owner":"151381692@N04","secret":"4a90514a7e","server":"65535","farm":66,"title":"Canvasback (Aythya valisineria) and Redhead (Aythya americana)","ispublic":1,"isfriend":0,"isfamily":0},{"id":"52626789246","owner":"145466593@N08","secret":"8690c82843","server":"65535","farm":66,"title":"Redheads galore","ispublic":1,"isfriend":0,"isfamily":0},{"id":"52627226590","owner":"145466593@N08","secret":"7496bca7b8","server":"65535","farm":66,"title":"Redhead","ispublic":1,"isfriend":0,"isfamily":0},{"id":"52620373538","owner":"32752434@N07","secret":"d3a66fc588","server":"65535","farm":66,"title":"Redhead (Aythya americana)","ispublic":1,"isfriend":0,"isfamily":0},{"id":"52609208004","owner":"61135968@N00","secret":"230d21fc60","server":"65535","farm":66,"title":"ducks","ispublic":1,"isfriend":0,"isfamily":0},{"id":"52608215388","owner":"84169650@N07","secret":"872feb7b59","server":"65535","farm":66,"title":"Redhead","ispublic":1,"isfriend":0,"isfamily":0},{"id":"52606164623","owner":"62043870@N05","secret":"b9489e008d","server":"65535","farm":66,"title":"Lesser Scaup (Aythya affinis), Redhead (Aythya americana) and Bufflehead (Bucephala albeola)","ispublic":1,"isfriend":0,"isfamily":0},{"id":"52602936774","owner":"7856934@N03","secret":"8146a40a93","server":"65535","farm":66,"title":"Redhead Duck","ispublic":1,"isfriend":0,"isfamily":0},{"id":"52598315960","owner":"131037795@N03","secret":"54fdc8d507","server":"65535","farm":66,"title":"Redhead (Aythya americana)","ispublic":1,"isfriend":0,"isfamily":0},{"id":"52597336782","owner":"129051288@N05","secret":"edb68cf16c","server":"65535","farm":66,"title":"Fuligule \u00e0 t\u00eate rouge, Aythya americana, Redhead","ispublic":1,"isfriend":0,"isfamily":0},{"id":"52586856384","owner":"120449047@N06","secret":"9e743a7b0f","server":"65535","farm":66,"title":"Redhead","ispublic":1,"isfriend":0,"isfamily":0},{"id":"52583603593","owner":"14734088@N02","secret":"7cc4c85015","server":"65535","farm":66,"title":"Fuligule \u00e0 t\u00eate rouge  221031H1a","ispublic":1,"isfriend":0,"isfamily":0},{"id":"52566154476","owner":"39445433@N02","secret":"67fbbf29fc","server":"65535","farm":66,"title":"Redhead","ispublic":1,"isfriend":0,"isfamily":0},{"id":"52566428734","owner":"39445433@N02","secret":"022efc3c22","server":"65535","farm":66,"title":"Redhead","ispublic":1,"isfriend":0,"isfamily":0},{"id":"52565685882","owner":"39445433@N02","secret":"d40a629a84","server":"65535","farm":66,"title":"Redhead","ispublic":1,"isfriend":0,"isfamily":0},{"id":"52566154231","owner":"39445433@N02","secret":"65a590c80c","server":"65535","farm":66,"title":"Redhead","ispublic":1,"isfriend":0,"isfamily":0},{"id":"52566678773","owner":"39445433@N02","secret":"f71c27c877","server":"65535","farm":66,"title":"Redhead","ispublic":1,"isfriend":0,"isfamily":0},{"id":"52566678678","owner":"39445433@N02","secret":"00d27255ed","server":"65535","farm":66,"title":"Redhead","ispublic":1,"isfriend":0,"isfamily":0},{"id":"52566678563","owner":"39445433@N02","secret":"97362c285a","server":"65535","farm":66,"title":"Redhead","ispublic":1,"isfriend":0,"isfamily":0},{"id":"52566600060","owner":"39445433@N02","secret":"667a179d58","server":"65535","farm":66,"title":"Redhead","ispublic":1,"isfriend":0,"isfamily":0},{"id":"52565681832","owner":"39445433@N02","secret":"e9fca6fdc2","server":"65535","farm":66,"title":"Redhead","ispublic":1,"isfriend":0,"isfamily":0},{"id":"52560194574","owner":"100108154@N02","secret":"f0b54ddf95","server":"65535","farm":66,"title":"Wigeons, Scaup & Pretty Water","ispublic":1,"isfriend":0,"isfamily":0},{"id":"52553847052","owner":"14734088@N02","secret":"e2b52fd786","server":"65535","farm":66,"title":"Fuligule \u00e0 t\u00eate rouge 221031H5b","ispublic":1,"isfriend":0,"isfamily":0},{"id":"52548960494","owner":"39177293@N03","secret":"c9630fdba2","server":"65535","farm":66,"title":"Redheads","ispublic":1,"isfriend":0,"isfamily":0},{"id":"52542183058","owner":"124995824@N08","secret":"5e1118cd35","server":"65535","farm":66,"title":"Lesser Scaup - Aythya affinis","ispublic":1,"isfriend":0,"isfamily":0},{"id":"52541282613","owner":"191038887@N04","secret":"0642c82648","server":"65535","farm":66,"title":"Fuligule \u00e0 t\u00eate rouge - Redhead - Aythya americana","ispublic":1,"isfriend":0,"isfamily":0},{"id":"52541215085","owner":"191038887@N04","secret":"0f83d85c6a","server":"65535","farm":66,"title":"Fuligule \u00e0 t\u00eate rouge - Redhead - Aythya americana","ispublic":1,"isfriend":0,"isfamily":0},{"id":"52541282208","owner":"191038887@N04","secret":"a9b6b58315","server":"65535","farm":66,"title":"Fuligule \u00e0 t\u00eate rouge - Redhead - Aythya americana","ispublic":1,"isfriend":0,"isfamily":0},{"id":"52539211344","owner":"62043870@N05","secret":"5d2b2045ef","server":"65535","farm":66,"title":"Canvasbacks (Aythya valisineria) with Green-winged Teal (Anas crecca), Northern Shovelers (Spatula clypeata) and American Avocet (Recurvirostra americana)","ispublic":1,"isfriend":0,"isfamily":0},{"id":"52535049722","owner":"145466593@N08","secret":"dc512a29ea","server":"65535","farm":66,"title":"Redhead","ispublic":1,"isfriend":0,"isfamily":0},{"id":"51894720354","owner":"134270033@N06","secret":"6e5c6506d7","server":"0","farm":0,"title":"Vid.Doc. :: Behaviour.Displays & Audio","ispublic":1,"isfriend":0,"isfamily":0},{"id":"52529550163","owner":"14734088@N02","secret":"e1895b11fd","server":"65535","farm":66,"title":"Fuligule \u00e0 t\u00eate rouge 221031H4c","ispublic":1,"isfriend":0,"isfamily":0},{"id":"52525929794","owner":"9731845@N02","secret":"c346388bf3","server":"65535","farm":66,"title":"Redhead (Aythya americana)","ispublic":1,"isfriend":0,"isfamily":0},{"id":"52523992668","owner":"38514062@N03","secret":"257e2d81fd","server":"65535","farm":66,"title":"Redhead (Aythya americana)","ispublic":1,"isfriend":0,"isfamily":0},{"id":"52519057863","owner":"187124972@N03","secret":"35af8976a2","server":"65535","farm":66,"title":"FULIGULE \u00c0 T\u00caTE ROUGE \/ REDHEAD (Aythya americana)","ispublic":1,"isfriend":0,"isfamily":0},{"id":"52514243400","owner":"144980256@N07","secret":"f024e84400","server":"65535","farm":66,"title":"Redhead (Aythya americana)","ispublic":1,"isfriend":0,"isfamily":0},{"id":"52512047377","owner":"195537536@N03","secret":"a8021e1c08","server":"65535","farm":66,"title":"Redhead (Aythya americana): Female","ispublic":1,"isfriend":0,"isfamily":0},{"id":"52512046917","owner":"195537536@N03","secret":"50c6c8d19a","server":"65535","farm":66,"title":"Redhead (Aythya americana): Male","ispublic":1,"isfriend":0,"isfamily":0},{"id":"52499477239","owner":"14734088@N02","secret":"012460770e","server":"65535","farm":66,"title":"Fuligule \u00e0 t\u00eate rouge 221031H3b","ispublic":1,"isfriend":0,"isfamily":0},{"id":"52679405168","owner":"47533293@N04","secret":"63b9b02e8e","server":"65535","farm":66,"title":"Redhead, Aythya americana","ispublic":1,"isfriend":0,"isfamily":0},{"id":"52676638413","owner":"195041250@N03","secret":"b690b2def8","server":"65535","farm":66,"title":"Redhead","ispublic":1,"isfriend":0,"isfamily":0},{"id":"52662399867","owner":"110624976@N05","secret":"8a6cf37117","server":"65535","farm":66,"title":"Male Canvasback duck showing off to indifferent American Coot","ispublic":1,"isfriend":0,"isfamily":0},{"id":"52652269797","owner":"13451078@N03","secret":"a4a8a7a137","server":"65535","farm":66,"title":"Redhead (Aythya americana)","ispublic":1,"isfriend":0,"isfamily":0},{"id":"52605917869","owner":"62043870@N05","secret":"b74dc602fc","server":"65535","farm":66,"title":"Lesser Scaup (Aythya affinis), Redhead (Aythya americana) and Bufflehead (Bucephala albeola)","ispublic":1,"isfriend":0,"isfamily":0},{"id":"52580252386","owner":"153973412@N04","secret":"9ba08b320f","server":"65535","farm":66,"title":"Redhead-Aythya americana, South Padre Island, TX","ispublic":1,"isfriend":0,"isfamily":0},{"id":"52565644041","owner":"140318147@N08","secret":"f896b94438","server":"65535","farm":66,"title":"redhead (Aythya americana) L4A7569","ispublic":1,"isfriend":0,"isfamily":0},{"id":"52562743153","owner":"65148649@N04","secret":"41cd802afb","server":"65535","farm":66,"title":"American Wigeon and Ring-Necked Duck","ispublic":1,"isfriend":0,"isfamily":0},{"id":"52515464712","owner":"65148649@N04","secret":"f3f849c86b","server":"65535","farm":66,"title":"American Wigeon and Ring-Necked Duck","ispublic":1,"isfriend":0,"isfamily":0}]},"stat":"ok"}