{"photos":{"page":1,"pages":79,"perpage":100,"total":7803,"photo":[{"id":"52787959706","owner":"12639178@N07","secret":"b9704cf411","server":"65535","farm":66,"title":"rotdrosseln im Park","ispublic":1,"isfriend":0,"isfamily":0},{"id":"52788410523","owner":"12639178@N07","secret":"df555b0327","server":"65535","farm":66,"title":"Eine von ca. zehn Rotdrosseln","ispublic":1,"isfriend":0,"isfamily":0},{"id":"52787385952","owner":"12639178@N07","secret":"51267e0004","server":"65535","farm":66,"title":"Rotdrossel im Park","ispublic":1,"isfriend":0,"isfamily":0},{"id":"52787651683","owner":"12639178@N07","secret":"901763193e","server":"65535","farm":66,"title":"Rotdrossel (Turdus iliacus) (1)","ispublic":1,"isfriend":0,"isfamily":0},{"id":"52786981906","owner":"12639178@N07","secret":"5134d07e3f","server":"65535","farm":66,"title":"Ebereschenbesucher: Rotdrossel","ispublic":1,"isfriend":0,"isfamily":0},{"id":"52787379155","owner":"12639178@N07","secret":"e83fcd315e","server":"65535","farm":66,"title":"Ebereschenbesucher: Rotdrossel","ispublic":1,"isfriend":0,"isfamily":0},{"id":"52787379015","owner":"12639178@N07","secret":"896f384834","server":"65535","farm":66,"title":"Ebereschenbesucher: Rotdrossel","ispublic":1,"isfriend":0,"isfamily":0},{"id":"52786426847","owner":"12639178@N07","secret":"a53f9d3ac9","server":"65535","farm":66,"title":"Ebereschenbesucher: Rotdrossel","ispublic":1,"isfriend":0,"isfamily":0},{"id":"52786954731","owner":"87051822@N06","secret":"0fa00bc760","server":"65535","farm":66,"title":"Redwing  Turdus Iliacus","ispublic":1,"isfriend":0,"isfamily":0},{"id":"52786330196","owner":"12639178@N07","secret":"8cfa330f6b","server":"65535","farm":66,"title":"Rotdrosseln","ispublic":1,"isfriend":0,"isfamily":0},{"id":"52786781128","owner":"12639178@N07","secret":"490906a699","server":"65535","farm":66,"title":"Rotdrossel","ispublic":1,"isfriend":0,"isfamily":0},{"id":"52786711905","owner":"12639178@N07","secret":"a0ec73c8d6","server":"65535","farm":66,"title":"Rotdrossel","ispublic":1,"isfriend":0,"isfamily":0},{"id":"52783271845","owner":"127588226@N08","secret":"09099021b7","server":"65535","farm":66,"title":"K33P6588c Redwing, Barnwell CP, Januray 2023","ispublic":1,"isfriend":0,"isfamily":0},{"id":"52782325762","owner":"127588226@N08","secret":"8601021515","server":"65535","farm":66,"title":"K33P6441c Redwing, Barnwell CP, Januray 2023","ispublic":1,"isfriend":0,"isfamily":0},{"id":"52780847387","owner":"12639178@N07","secret":"52415920c6","server":"65535","farm":66,"title":"Rotdrossel (Turdus iliacus)","ispublic":1,"isfriend":0,"isfamily":0},{"id":"52781853438","owner":"12639178@N07","secret":"2285944af8","server":"65535","farm":66,"title":"Rotdrossel (Turdus iliacus)","ispublic":1,"isfriend":0,"isfamily":0},{"id":"52781586409","owner":"27797245@N05","secret":"feeba54aba","server":"65535","farm":66,"title":"Evr\u00f3pskur meginlands sk\u00f3gar\u00fer\u00f6stur (Turdus iliacus iliacus).","ispublic":1,"isfriend":0,"isfamily":0},{"id":"52780798227","owner":"27797245@N05","secret":"7d213d87b2","server":"65535","farm":66,"title":"Sk\u00f3gar\u00fer\u00f6stur (Turdus iliacus coburni).","ispublic":1,"isfriend":0,"isfamily":0},{"id":"52779350654","owner":"39854996@N00","secret":"de1c1ef172","server":"65535","farm":66,"title":"Redwing \"Turdus iliacus\"","ispublic":1,"isfriend":0,"isfamily":0},{"id":"52778665861","owner":"7660999@N05","secret":"534092e84d","server":"65535","farm":66,"title":"Redwing (Turdus iliacus)","ispublic":1,"isfriend":0,"isfamily":0},{"id":"52777736106","owner":"186442680@N02","secret":"80b4093aa6","server":"65535","farm":66,"title":"Rotdrossel Rosswiesen 28.03.2023 HKO","ispublic":1,"isfriend":0,"isfamily":0},{"id":"52776873583","owner":"33319209@N02","secret":"8cf6cfd105","server":"65535","farm":66,"title":"Turdus iliacus","ispublic":1,"isfriend":0,"isfamily":0},{"id":"52774347112","owner":"39854996@N00","secret":"45e7cb2820","server":"65535","farm":66,"title":"Redwing \"Turdus iliacus\"","ispublic":1,"isfriend":0,"isfamily":0},{"id":"52770955893","owner":"12639178@N07","secret":"5016fbe4a7","server":"65535","farm":66,"title":"Rotdrossel, im Hintergrund Wacholderdrossel","ispublic":1,"isfriend":0,"isfamily":0},{"id":"52770720329","owner":"12639178@N07","secret":"d4ab4d0daf","server":"65535","farm":66,"title":"Rotdrossel","ispublic":1,"isfriend":0,"isfamily":0},{"id":"52770658194","owner":"12639178@N07","secret":"c2600098f9","server":"65535","farm":66,"title":"Rotdrossel am kalten Morgen","ispublic":1,"isfriend":0,"isfamily":0},{"id":"52769952646","owner":"118368938@N03","secret":"019c00223a","server":"65535","farm":66,"title":"Rotdrossel (Turdus iliacus)","ispublic":1,"isfriend":0,"isfamily":0},{"id":"52766110412","owner":"12639178@N07","secret":"99336b8ea6","server":"65535","farm":66,"title":"hoch oben, zwischen vielen Staren: Rotdrossel?","ispublic":1,"isfriend":0,"isfamily":0},{"id":"52766901924","owner":"12639178@N07","secret":"76f3f6eae9","server":"65535","farm":66,"title":"hoch oben, zwischen vielen Staren: Rotdrossel?","ispublic":1,"isfriend":0,"isfamily":0},{"id":"52766870483","owner":"31077542@N03","secret":"c9df0e5e7c","server":"65535","farm":66,"title":"Turdus iliacus","ispublic":1,"isfriend":0,"isfamily":0},{"id":"52766511633","owner":"39854996@N00","secret":"5bfd893244","server":"65535","farm":66,"title":"Redwing \"Turdus iliacus\"","ispublic":1,"isfriend":0,"isfamily":0},{"id":"52766037289","owner":"16582147@N07","secret":"1919e3846e","server":"65535","farm":66,"title":"rdw 8591","ispublic":1,"isfriend":0,"isfamily":0},{"id":"52766268433","owner":"16582147@N07","secret":"3d6dba94a7","server":"65535","farm":66,"title":"rdw 8586","ispublic":1,"isfriend":0,"isfamily":0},{"id":"52765862000","owner":"12639178@N07","secret":"7ba0a6b27c","server":"65535","farm":66,"title":"Rotdrossel im Baum versteckt","ispublic":1,"isfriend":0,"isfamily":0},{"id":"52764281476","owner":"169482563@N04","secret":"5cba76c66b","server":"65535","farm":66,"title":"Red Wing, Brampton Park, N.U.L UK","ispublic":1,"isfriend":0,"isfamily":0},{"id":"52763506802","owner":"110762674@N07","secret":"8a01b33300","server":"65535","farm":66,"title":"vindrossel-11","ispublic":1,"isfriend":0,"isfamily":0},{"id":"52762138165","owner":"18217058@N04","secret":"ac40e7630b","server":"65535","farm":66,"title":"Redwing \/ Sk\u00f3gar\u00fer\u00f6stur (Turdus iliacus)","ispublic":1,"isfriend":0,"isfamily":0},{"id":"52761566599","owner":"87051822@N06","secret":"48a9365503","server":"65535","farm":66,"title":"Redwing.  Turdus Iliacus","ispublic":1,"isfriend":0,"isfamily":0},{"id":"52757435675","owner":"77128742@N06","secret":"41cb78f2af","server":"65535","farm":66,"title":"Rotdrossel_Turdus iliacus-63","ispublic":1,"isfriend":0,"isfamily":0},{"id":"52756491127","owner":"77128742@N06","secret":"48320259bd","server":"65535","farm":66,"title":"Rotdrossel_Turdus iliacus-66","ispublic":1,"isfriend":0,"isfamily":0},{"id":"52757435655","owner":"77128742@N06","secret":"ae5756d6cd","server":"65535","farm":66,"title":"Rotdrossel_Turdus iliacus-69","ispublic":1,"isfriend":0,"isfamily":0},{"id":"52756491112","owner":"77128742@N06","secret":"02112dec5b","server":"65535","farm":66,"title":"Rotdrossel_Turdus iliacus-72","ispublic":1,"isfriend":0,"isfamily":0},{"id":"52756491097","owner":"77128742@N06","secret":"81380558d6","server":"65535","farm":66,"title":"Rotdrossel_Turdus iliacus-75","ispublic":1,"isfriend":0,"isfamily":0},{"id":"52757435590","owner":"77128742@N06","secret":"757ec05d3a","server":"65535","farm":66,"title":"Rotdrossel_Turdus iliacus-77","ispublic":1,"isfriend":0,"isfamily":0},{"id":"52757435580","owner":"77128742@N06","secret":"65f2a10765","server":"65535","farm":66,"title":"Rotdrossel_Turdus iliacus-79","ispublic":1,"isfriend":0,"isfamily":0},{"id":"52757511728","owner":"77128742@N06","secret":"dcea8f738a","server":"65535","farm":66,"title":"Rotdrossel_Turdus iliacus-81","ispublic":1,"isfriend":0,"isfamily":0},{"id":"52757347625","owner":"18217058@N04","secret":"0db65bc77e","server":"65535","farm":66,"title":"Redwings \/ Sk\u00f3gar\u00ferestir (Turdus iliacus)","ispublic":1,"isfriend":0,"isfamily":0},{"id":"52754257227","owner":"16582147@N07","secret":"19f7782020","server":"65535","farm":66,"title":"redwing 7948","ispublic":1,"isfriend":0,"isfamily":0},{"id":"52755283253","owner":"16582147@N07","secret":"db285e02d0","server":"65535","farm":66,"title":"redwing 7941","ispublic":1,"isfriend":0,"isfamily":0},{"id":"52755189765","owner":"16582147@N07","secret":"96df1b3f0e","server":"65535","farm":66,"title":"redwing 7926","ispublic":1,"isfriend":0,"isfamily":0},{"id":"52754780621","owner":"16582147@N07","secret":"796b680458","server":"65535","farm":66,"title":"redwing 7924","ispublic":1,"isfriend":0,"isfamily":0},{"id":"52755105485","owner":"12639178@N07","secret":"9fb9eebae6","server":"65535","farm":66,"title":"Rotdrossel (Turdus iliacus) (2)","ispublic":1,"isfriend":0,"isfamily":0},{"id":"52755017175","owner":"87051822@N06","secret":"d0fa40bc47","server":"65535","farm":66,"title":"Redwing  Turdus Iliacus","ispublic":1,"isfriend":0,"isfamily":0},{"id":"52751528064","owner":"18217058@N04","secret":"35b8038b46","server":"65535","farm":66,"title":"Redwing \/ Sk\u00f3gar\u00fer\u00f6stur (Turdus iliacus)","ispublic":1,"isfriend":0,"isfamily":0},{"id":"52749916169","owner":"191391950@N02","secret":"5548065a9d","server":"65535","farm":66,"title":"Grive mauvis - Turdus iliacus","ispublic":1,"isfriend":0,"isfamily":0},{"id":"52750080325","owner":"191391950@N02","secret":"f973d00dd6","server":"65535","farm":66,"title":"Grive mauvis - Turdus iliacus","ispublic":1,"isfriend":0,"isfamily":0},{"id":"52750080170","owner":"191391950@N02","secret":"67ba442724","server":"65535","farm":66,"title":"Grive mauvis - Turdus iliacus","ispublic":1,"isfriend":0,"isfamily":0},{"id":"52749666291","owner":"191391950@N02","secret":"f95c7de0e6","server":"65535","farm":66,"title":"Grive mauvis - Turdus iliacus","ispublic":1,"isfriend":0,"isfamily":0},{"id":"52749915254","owner":"191391950@N02","secret":"79033cdc6a","server":"65535","farm":66,"title":"Grive mauvis - Turdus iliacus","ispublic":1,"isfriend":0,"isfamily":0},{"id":"52748514517","owner":"16582147@N07","secret":"23329568e9","server":"65535","farm":66,"title":"redwing 7813","ispublic":1,"isfriend":0,"isfamily":0},{"id":"52749451310","owner":"16582147@N07","secret":"92f51336c4","server":"65535","farm":66,"title":"redwing 7812","ispublic":1,"isfriend":0,"isfamily":0},{"id":"52749021801","owner":"16582147@N07","secret":"d8efb0b67b","server":"65535","farm":66,"title":"Redwing 7796","ispublic":1,"isfriend":0,"isfamily":0},{"id":"52749255648","owner":"18217058@N04","secret":"a7cced5a8c","server":"65535","farm":66,"title":"Redwing \/ Sk\u00f3gar\u00fer\u00f6stur (Turdus iliacus)","ispublic":1,"isfriend":0,"isfamily":0},{"id":"52748637401","owner":"43308910@N02","secret":"df4698561e","server":"65535","farm":66,"title":"Redwing 1","ispublic":1,"isfriend":0,"isfamily":0},{"id":"52747225952","owner":"12639178@N07","secret":"29d9ee9fbf","server":"65535","farm":66,"title":"Rotdrossel (Turdus iliacus)","ispublic":1,"isfriend":0,"isfamily":0},{"id":"52747789814","owner":"27797245@N05","secret":"1f2ee666c8","server":"65535","farm":66,"title":"Evr\u00f3pskur meginlands sk\u00f3gar\u00fer\u00f6stur (Turdus iliacus iliacus).","ispublic":1,"isfriend":0,"isfamily":0},{"id":"52746494982","owner":"12639178@N07","secret":"9fd3833121","server":"65535","farm":66,"title":"Rotdrossel","ispublic":1,"isfriend":0,"isfamily":0},{"id":"52746474746","owner":"12639178@N07","secret":"97ce82f963","server":"65535","farm":66,"title":"Rotdrossel nur kurz da. Wenige Beeren vorhanden","ispublic":1,"isfriend":0,"isfamily":0},{"id":"52745046199","owner":"16582147@N07","secret":"2297ae299b","server":"65535","farm":66,"title":"redwing 7733","ispublic":1,"isfriend":0,"isfamily":0},{"id":"52745038269","owner":"16582147@N07","secret":"8651403403","server":"65535","farm":66,"title":"redwing 7731","ispublic":1,"isfriend":0,"isfamily":0},{"id":"52745036869","owner":"131301995@N02","secret":"f01967f12a","server":"65535","farm":66,"title":"Zorzal alirrojo (Turdus iliacus)","ispublic":1,"isfriend":0,"isfamily":0},{"id":"52742345301","owner":"12639178@N07","secret":"3f5730554b","server":"65535","farm":66,"title":"Einzelne Rotdrossel auf Parkwiese","ispublic":1,"isfriend":0,"isfamily":0},{"id":"52742572989","owner":"27797245@N05","secret":"d9a8729d45","server":"65535","farm":66,"title":"Evr\u00f3pskur meginlands sk\u00f3gar\u00fer\u00f6stur (Turdus iliacus iliacus)","ispublic":1,"isfriend":0,"isfamily":0},{"id":"52742109063","owner":"12639178@N07","secret":"709e821f7f","server":"65535","farm":66,"title":"Rotdrossel","ispublic":1,"isfriend":0,"isfamily":0},{"id":"52740829503","owner":"16582147@N07","secret":"cf3e11203c","server":"65535","farm":66,"title":"redwing 7700","ispublic":1,"isfriend":0,"isfamily":0},{"id":"52740333586","owner":"16582147@N07","secret":"c34e343570","server":"65535","farm":66,"title":"redwing 7698","ispublic":1,"isfriend":0,"isfamily":0},{"id":"52740329411","owner":"16582147@N07","secret":"bcd91a4ee2","server":"65535","farm":66,"title":"redwing 7695","ispublic":1,"isfriend":0,"isfamily":0},{"id":"52740815283","owner":"16582147@N07","secret":"502ab00e96","server":"65535","farm":66,"title":"redwing 7679","ispublic":1,"isfriend":0,"isfamily":0},{"id":"52740808258","owner":"16582147@N07","secret":"160dc98bdb","server":"65535","farm":66,"title":"redwing 7662","ispublic":1,"isfriend":0,"isfamily":0},{"id":"52740648340","owner":"16582147@N07","secret":"ee8cbae2df","server":"65535","farm":66,"title":"redwing 7669","ispublic":1,"isfriend":0,"isfamily":0},{"id":"52740226001","owner":"16582147@N07","secret":"b0b05cdb6b","server":"65535","farm":66,"title":"redwing 7702","ispublic":1,"isfriend":0,"isfamily":0},{"id":"52740219916","owner":"16582147@N07","secret":"33c1dd5e21","server":"65535","farm":66,"title":"redwing 7707","ispublic":1,"isfriend":0,"isfamily":0},{"id":"52739252697","owner":"184846830@N08","secret":"d32ee9527c","server":"65535","farm":66,"title":"Redwing","ispublic":1,"isfriend":0,"isfamily":0},{"id":"52739616596","owner":"12639178@N07","secret":"b98328d3c9","server":"65535","farm":66,"title":"Rotdrossel, gut getarnt","ispublic":1,"isfriend":0,"isfamily":0},{"id":"52738500295","owner":"39854996@N00","secret":"6aa12a1de3","server":"65535","farm":66,"title":"Redwing \"Turdus iliacus\"","ispublic":1,"isfriend":0,"isfamily":0},{"id":"52737543127","owner":"16582147@N07","secret":"cb720fc252","server":"65535","farm":66,"title":"redwing 7556","ispublic":1,"isfriend":0,"isfamily":0},{"id":"52738205008","owner":"12639178@N07","secret":"d42f56c5ed","server":"65535","farm":66,"title":"Als diese Zweite kam, ist sie abgeflogen","ispublic":1,"isfriend":0,"isfamily":0},{"id":"52737975819","owner":"12639178@N07","secret":"fbf621888a","server":"65535","farm":66,"title":"Dann aber doch noch eine Beere gefuttert","ispublic":1,"isfriend":0,"isfamily":0},{"id":"52738134730","owner":"12639178@N07","secret":"e3b8e158a5","server":"65535","farm":66,"title":"Ist da jemand, der mich st\u00f6rt?","ispublic":1,"isfriend":0,"isfamily":0},{"id":"52776662933","owner":"12639178@N07","secret":"88e61b9b23","server":"65535","farm":66,"title":"Rotdrossel","ispublic":1,"isfriend":0,"isfamily":0},{"id":"52770658314","owner":"12639178@N07","secret":"9ec5959479","server":"65535","farm":66,"title":"Auf Parkwiese unterwegs","ispublic":1,"isfriend":0,"isfamily":0},{"id":"52763861810","owner":"12639178@N07","secret":"5a6b7a2227","server":"65535","farm":66,"title":"Zwei ziemlich beste Freunde - Rotdrossel mit Goldammer","ispublic":1,"isfriend":0,"isfamily":0},{"id":"52761824577","owner":"12639178@N07","secret":"e959948e57","server":"65535","farm":66,"title":"Einzelexemplar Streuobstwiese","ispublic":1,"isfriend":0,"isfamily":0},{"id":"52762855018","owner":"12639178@N07","secret":"045e06df91","server":"65535","farm":66,"title":"Rotdrossel Vermutung nach Zeichnung hoch im Baum","ispublic":1,"isfriend":0,"isfamily":0},{"id":"52762167174","owner":"12639178@N07","secret":"63c23fdd6d","server":"65535","farm":66,"title":"Rotdrossel (Turdus iliacus) (1)","ispublic":1,"isfriend":0,"isfamily":0},{"id":"52761424024","owner":"12639178@N07","secret":"73265494f4","server":"65535","farm":66,"title":"Zur Zeit rastet ein Schwarm in den Feldern s\u00fcdlich der Haar - Rotdrossel","ispublic":1,"isfriend":0,"isfamily":0},{"id":"52760630827","owner":"12639178@N07","secret":"b54c9f5239","server":"65535","farm":66,"title":"Rotdrossel (Turdus iliacus)","ispublic":1,"isfriend":0,"isfamily":0},{"id":"52760630717","owner":"12639178@N07","secret":"7c92e1f93f","server":"65535","farm":66,"title":"Nahrungssuchende Rotdrossel","ispublic":1,"isfriend":0,"isfamily":0},{"id":"52761579280","owner":"12639178@N07","secret":"a874e66e7e","server":"65535","farm":66,"title":"Rotdrossel in der Feldflur (Turdus iliacus)","ispublic":1,"isfriend":0,"isfamily":0},{"id":"52755322080","owner":"12639178@N07","secret":"0a435b60ea","server":"65535","farm":66,"title":"Rotdrossel","ispublic":1,"isfriend":0,"isfamily":0}]},"stat":"ok"}