{"photos":{"page":1,"pages":142,"perpage":100,"total":14120,"photo":[{"id":"52792653963","owner":"28628934@N02","secret":"69a9428aa3","server":"65535","farm":66,"title":"Rietgors -Reed Bunting (Emberiza schoeniclus)","ispublic":1,"isfriend":0,"isfamily":0},{"id":"52791631922","owner":"127588226@N08","secret":"97bcc69dee","server":"65535","farm":66,"title":"K33P2208c Reed Bunting, Lakenheath Fen, January 2023","ispublic":1,"isfriend":0,"isfamily":0},{"id":"52792247719","owner":"152877605@N05","secret":"fc66eafcc9","server":"65535","farm":66,"title":"(Common) Reed Bunting; Emberiza schoeniclus","ispublic":1,"isfriend":0,"isfamily":0},{"id":"52790234437","owner":"136696317@N08","secret":"474d346c90","server":"65535","farm":66,"title":"N\u00e1di s\u00e1rm\u00e1ny toj\u00f3, Reed bunting female, Emberiza schoeniclus","ispublic":1,"isfriend":0,"isfamily":0},{"id":"52790540189","owner":"39854996@N00","secret":"3e7a3044c1","server":"65535","farm":66,"title":"Reed Bunting  \"Emberiza schoeniclus\"","ispublic":1,"isfriend":0,"isfamily":0},{"id":"52790537715","owner":"152877605@N05","secret":"24affd2815","server":"65535","farm":66,"title":"(Common) Reed Bunting; Emberiza schoeniclus","ispublic":1,"isfriend":0,"isfamily":0},{"id":"52785672194","owner":"115359498@N08","secret":"899ac836aa","server":"65535","farm":66,"title":"Bruant des roseaux (Emberiza schoeniclus)","ispublic":1,"isfriend":0,"isfamily":0},{"id":"52785238656","owner":"62173370@N03","secret":"855d945b36","server":"65535","farm":66,"title":"Bruant \"des herbes\"","ispublic":1,"isfriend":0,"isfamily":0},{"id":"52785273749","owner":"12639178@N07","secret":"07e5516ab5","server":"65535","farm":66,"title":"Rohrammer pr\u00e4sentiert sich","ispublic":1,"isfriend":0,"isfamily":0},{"id":"52785162314","owner":"146359542@N05","secret":"316813b2b5","server":"65535","farm":66,"title":"Bruant des roseaux 230328-05-RS","ispublic":1,"isfriend":0,"isfamily":0},{"id":"52782703707","owner":"76454790@N02","secret":"910aedebce","server":"65535","farm":66,"title":"Common Reed Bunting (Emberiza schoeniclus)","ispublic":1,"isfriend":0,"isfamily":0},{"id":"52782846549","owner":"183827496@N04","secret":"8137e4e478","server":"65535","farm":66,"title":"Rohrammer \u2642\/ common reed bunting\u2642 (Emberiza schoeniclus)","ispublic":1,"isfriend":0,"isfamily":0},{"id":"52783006355","owner":"183827496@N04","secret":"9c5a5f2fe1","server":"65535","farm":66,"title":"Rohrammer \u2642 \/ common reed bunting\u2642 (Emberiza schoeniclus)","ispublic":1,"isfriend":0,"isfamily":0},{"id":"52782367049","owner":"197303808@N03","secret":"bb3b3aa34b","server":"65535","farm":66,"title":"Reed Bunting (Male) (Breeding Plumage) (Emberiza schoeniclus)","ispublic":1,"isfriend":0,"isfamily":0},{"id":"52781589696","owner":"12639178@N07","secret":"050e8ff773","server":"65535","farm":66,"title":"Rohrammer","ispublic":1,"isfriend":0,"isfamily":0},{"id":"52781869153","owner":"191391950@N02","secret":"743d47e818","server":"65535","farm":66,"title":"Bruant des roseaux - Emberiza schoeniclus","ispublic":1,"isfriend":0,"isfamily":0},{"id":"52781868303","owner":"191391950@N02","secret":"533c775c52","server":"65535","farm":66,"title":"Bruant des roseaux - Emberiza schoeniclus","ispublic":1,"isfriend":0,"isfamily":0},{"id":"52780322852","owner":"12639178@N07","secret":"3e5591dc59","server":"65535","farm":66,"title":"Rohrspatz (Emberiza schoeniclus)","ispublic":1,"isfriend":0,"isfamily":0},{"id":"52779040052","owner":"146205383@N06","secret":"682fcdcc49","server":"65535","farm":66,"title":"Reed Bunting","ispublic":1,"isfriend":0,"isfamily":0},{"id":"52778919241","owner":"42388593@N04","secret":"a9b13a638a","server":"65535","farm":66,"title":"R\u00f8rspurv, Common reed bunting, Rohrammer (Emberiza schoeniclus)-0826","ispublic":1,"isfriend":0,"isfamily":0},{"id":"52778182706","owner":"196836949@N04","secret":"ca0a9beb81","server":"65535","farm":66,"title":"Bruant des roseaux (Emberiza schoeniclus)","ispublic":1,"isfriend":0,"isfamily":0},{"id":"52777656687","owner":"196836949@N04","secret":"bc0f980a14","server":"65535","farm":66,"title":"Bruant des roseaux (Emberiza schoeniclus)","ispublic":1,"isfriend":0,"isfamily":0},{"id":"52778666538","owner":"196836949@N04","secret":"5de6c6efd0","server":"65535","farm":66,"title":"Bruant des roseaux (Emberiza schoeniclus)","ispublic":1,"isfriend":0,"isfamily":0},{"id":"52778666513","owner":"196836949@N04","secret":"7220a2f760","server":"65535","farm":66,"title":"Bruant des roseaux (Emberiza schoeniclus)","ispublic":1,"isfriend":0,"isfamily":0},{"id":"52778550453","owner":"151365664@N08","secret":"1af42df4ab","server":"65535","farm":66,"title":"Rohrammer - Reed Bunting - Emberiza schoeniclus - 9","ispublic":1,"isfriend":0,"isfamily":0},{"id":"52777982104","owner":"12639178@N07","secret":"01c5886e73","server":"65535","farm":66,"title":"Rohrammer (Emberiza schoeniclus) (4)","ispublic":1,"isfriend":0,"isfamily":0},{"id":"52777199022","owner":"12639178@N07","secret":"37bdfcfb6b","server":"65535","farm":66,"title":"Rohrammer (Emberiza schoeniclus) (3)","ispublic":1,"isfriend":0,"isfamily":0},{"id":"52778210328","owner":"12639178@N07","secret":"3ca9a4ea27","server":"65535","farm":66,"title":"Rohrammer (Emberiza schoeniclus) (2)","ispublic":1,"isfriend":0,"isfamily":0},{"id":"52777616259","owner":"146359542@N05","secret":"b232201c1a","server":"65535","farm":66,"title":"Bruant des roseaux 230328-01-RS","ispublic":1,"isfriend":0,"isfamily":0},{"id":"52776894711","owner":"12639178@N07","secret":"3498702233","server":"65535","farm":66,"title":"Rohrammer (m), 230328","ispublic":1,"isfriend":0,"isfamily":0},{"id":"52775769720","owner":"29572786@N08","secret":"0e19fddc12","server":"65535","farm":66,"title":"Sing a song platform","ispublic":1,"isfriend":0,"isfamily":0},{"id":"52774348782","owner":"39854996@N00","secret":"f4b073d0cf","server":"65535","farm":66,"title":"Reed Bunting  \"Emberiza schoeniclus\"","ispublic":1,"isfriend":0,"isfamily":0},{"id":"52775047158","owner":"197972888@N06","secret":"2e0b90c1c0","server":"65535","farm":66,"title":"potrzos, potrzos zwyczajny, Common reed bunting","ispublic":1,"isfriend":0,"isfamily":0},{"id":"52773365453","owner":"197303808@N03","secret":"1a61b5d4ed","server":"65535","farm":66,"title":"Reed Bunting (Male) (Breeding Plumage) (Emberiza schoeniclus)","ispublic":1,"isfriend":0,"isfamily":0},{"id":"52772343342","owner":"145489125@N03","secret":"fdb0a9aefb","server":"65535","farm":66,"title":"Reed Bunting ( Emberiza schoeniclus ) ... Teesside","ispublic":1,"isfriend":0,"isfamily":0},{"id":"52772665751","owner":"12639178@N07","secret":"8a2105cfc0","server":"65535","farm":66,"title":"Rohrammer (Emberiza schoeniclus)","ispublic":1,"isfriend":0,"isfamily":0},{"id":"52772076122","owner":"12639178@N07","secret":"deaaae002b","server":"65535","farm":66,"title":"Rohrammer","ispublic":1,"isfriend":0,"isfamily":0},{"id":"52772052597","owner":"143853434@N08","secret":"a73d45d477","server":"65535","farm":66,"title":"Bruant des Roseaux - Emberiza Schoeniclus","ispublic":1,"isfriend":0,"isfamily":0},{"id":"52773065673","owner":"12639178@N07","secret":"9b4ec39334","server":"65535","farm":66,"title":"Rohrammer","ispublic":1,"isfriend":0,"isfamily":0},{"id":"52772995130","owner":"12639178@N07","secret":"9fe34c888d","server":"65535","farm":66,"title":"Rohrammer","ispublic":1,"isfriend":0,"isfamily":0},{"id":"52772781534","owner":"155262602@N05","secret":"6045b7cf66","server":"65535","farm":66,"title":"Common Reed Bunting (Emberiza schoeniclus)","ispublic":1,"isfriend":0,"isfamily":0},{"id":"52771332097","owner":"12639178@N07","secret":"427eb2d510","server":"65535","farm":66,"title":"Leider kamerascheu die Rohrammern","ispublic":1,"isfriend":0,"isfamily":0},{"id":"52771784689","owner":"12639178@N07","secret":"254ffdd7c3","server":"65535","farm":66,"title":"Rohrammern am Feldrand auf Nahrungssuche","ispublic":1,"isfriend":0,"isfamily":0},{"id":"52771942540","owner":"12639178@N07","secret":"318614c2bf","server":"65535","farm":66,"title":"Rohrammern am Feldrand auf Nahrungssuche","ispublic":1,"isfriend":0,"isfamily":0},{"id":"52771942465","owner":"12639178@N07","secret":"7d7797b80c","server":"65535","farm":66,"title":"Rohrammern am Feldrand auf Nahrungssuche","ispublic":1,"isfriend":0,"isfamily":0},{"id":"52770434662","owner":"70006685@N02","secret":"2cd37b929e","server":"65535","farm":66,"title":"Reed bunting 06","ispublic":1,"isfriend":0,"isfamily":0},{"id":"52771382365","owner":"70006685@N02","secret":"e5d77cfd43","server":"65535","farm":66,"title":"Reed bunting fem 02","ispublic":1,"isfriend":0,"isfamily":0},{"id":"52770945348","owner":"145489125@N03","secret":"3c4cf5b69b","server":"65535","farm":66,"title":"Reed Bunting ( Emberiza schoeniclus ) ... Alkborough , Linc","ispublic":1,"isfriend":0,"isfamily":0},{"id":"52770862425","owner":"12639178@N07","secret":"49d2414241","server":"65535","farm":66,"title":"Rohrammer (Emberiza schoeniclus) (1)","ispublic":1,"isfriend":0,"isfamily":0},{"id":"52770851665","owner":"145489125@N03","secret":"5124fa00c4","server":"65535","farm":66,"title":"Reed Bunting ( Emberiza schoeniclus ) ... Alkborough , Linc","ispublic":1,"isfriend":0,"isfamily":0},{"id":"52769815016","owner":"145907835@N07","secret":"b5420b2ff3","server":"65535","farm":66,"title":"Rietgors - Emberiza schoeniclus","ispublic":1,"isfriend":0,"isfamily":0},{"id":"52769204487","owner":"29882791@N02","secret":"cab5dbde19","server":"65535","farm":66,"title":"Emberizidae - Emberiza schoeniclus","ispublic":1,"isfriend":0,"isfamily":0},{"id":"52768047027","owner":"197303808@N03","secret":"b0273bda3c","server":"65535","farm":66,"title":"Reed Bunting (Male) (Breeding Plumage) (Emberiza schoeniclus)","ispublic":1,"isfriend":0,"isfamily":0},{"id":"52767833699","owner":"52674067@N03","secret":"3e168a360f","server":"65535","farm":66,"title":"Rohrammer","ispublic":1,"isfriend":0,"isfamily":0},{"id":"52766865862","owner":"12639178@N07","secret":"a23da570de","server":"65535","farm":66,"title":"Rohrammer - gut getarnt","ispublic":1,"isfriend":0,"isfamily":0},{"id":"52767846238","owner":"12639178@N07","secret":"f67ec12384","server":"65535","farm":66,"title":"Rohrammer","ispublic":1,"isfriend":0,"isfamily":0},{"id":"52764099897","owner":"145489125@N03","secret":"b1266da654","server":"65535","farm":66,"title":"Reed Bunting ( Emberiza schoeniclus ) ... Teesside","ispublic":1,"isfriend":0,"isfamily":0},{"id":"52765004870","owner":"12639178@N07","secret":"eb153fb392","server":"65535","farm":66,"title":"Rohrammern","ispublic":1,"isfriend":0,"isfamily":0},{"id":"52764849439","owner":"12639178@N07","secret":"de252bb355","server":"65535","farm":66,"title":"Rohrammer","ispublic":1,"isfriend":0,"isfamily":0},{"id":"52764771705","owner":"37264054@N05","secret":"e1b9354b81","server":"65535","farm":66,"title":"A Reedbunting On A Frosty Day - (Emberiza schoeniclus)","ispublic":1,"isfriend":0,"isfamily":0},{"id":"52764847003","owner":"157220357@N08","secret":"200d6e18fd","server":"65535","farm":66,"title":"Reed Bunting Dundalk","ispublic":1,"isfriend":0,"isfamily":0},{"id":"52763246952","owner":"191931250@N02","secret":"68843d3949","server":"65535","farm":66,"title":"Bruant des roseaux","ispublic":1,"isfriend":0,"isfamily":0},{"id":"52762496212","owner":"145489125@N03","secret":"a96f2acc5f","server":"65535","farm":66,"title":"Reed Bunting ( Emberiza schoeniclus ) ... Alkborough , Linc","ispublic":1,"isfriend":0,"isfamily":0},{"id":"52763374413","owner":"95506564@N02","secret":"50959d32c7","server":"65535","farm":66,"title":"Reed Sparrow","ispublic":1,"isfriend":0,"isfamily":0},{"id":"52762342827","owner":"144885570@N04","secret":"38e645f1e7","server":"65535","farm":66,"title":"Bruant des roseaux femelle \/ Emberiza schoeniclus","ispublic":1,"isfriend":0,"isfamily":0},{"id":"52761528191","owner":"12639178@N07","secret":"bacdca075f","server":"65535","farm":66,"title":"Rohrammern lassen sich auch wieder blicken","ispublic":1,"isfriend":0,"isfamily":0},{"id":"52761448749","owner":"12639178@N07","secret":"df20c70c41","server":"65535","farm":66,"title":"Rohrammer singt","ispublic":1,"isfriend":0,"isfamily":0},{"id":"52759726729","owner":"39854996@N00","secret":"40da862407","server":"65535","farm":66,"title":"Female Reed Bunting  \"Emberiza schoeniclus\"","ispublic":1,"isfriend":0,"isfamily":0},{"id":"52759808075","owner":"123529713@N08","secret":"94f8e0d58d","server":"65535","farm":66,"title":"Repicatalons - Escribano palustre - Common reed bunting - Bruant des roseaux - Emberiza schoeniclus","ispublic":1,"isfriend":0,"isfamily":0},{"id":"52759600869","owner":"145469490@N02","secret":"2b9bfe8cf6","server":"65535","farm":66,"title":"Reed Bunting (F) - Emberiza Schoeniclus","ispublic":1,"isfriend":0,"isfamily":0},{"id":"52758557417","owner":"87051822@N06","secret":"ff2da91fc4","server":"65535","farm":66,"title":"Reed Bunting. Emberiza. Schoeniclus","ispublic":1,"isfriend":0,"isfamily":0},{"id":"52758339528","owner":"63093099@N02","secret":"1e1b2c1730","server":"65535","farm":66,"title":"Reed Bunting (male); 20230319; UK-NFK-RSPB Titchwell Marsh","ispublic":1,"isfriend":0,"isfamily":0},{"id":"52757317827","owner":"63093099@N02","secret":"8c063b5476","server":"65535","farm":66,"title":"Reed Bunting (male); 20230319; UK-NFK-RSPB Titchwell Marsh","ispublic":1,"isfriend":0,"isfamily":0},{"id":"52757317802","owner":"63093099@N02","secret":"b47d0dfda2","server":"65535","farm":66,"title":"Reed Bunting (male); 20230319; UK-NFK-RSPB Titchwell Marsh","ispublic":1,"isfriend":0,"isfamily":0},{"id":"52758339438","owner":"63093099@N02","secret":"667dc2cb45","server":"65535","farm":66,"title":"Reed Bunting (male); 20230319; UK-NFK-RSPB Titchwell Marsh","ispublic":1,"isfriend":0,"isfamily":0},{"id":"52757317412","owner":"63093099@N02","secret":"58601b91e5","server":"65535","farm":66,"title":"Reed Bunting (male); 20230319; UK-NFK-RSPB Titchwell Marsh","ispublic":1,"isfriend":0,"isfamily":0},{"id":"52758073314","owner":"184900089@N02","secret":"f84e06def9","server":"65535","farm":66,"title":"Rohrammer (Emberiza schoeniclus)","ispublic":1,"isfriend":0,"isfamily":0},{"id":"52758173313","owner":"196341853@N06","secret":"d8b86c81bd","server":"65535","farm":66,"title":"Emberiza schoeniclus","ispublic":1,"isfriend":0,"isfamily":0},{"id":"52758018773","owner":"145489125@N03","secret":"d09bbefc6e","server":"65535","farm":66,"title":"Reed Bunting ( Emberiza schoeniclus ) ... Alkborough , Linc","ispublic":1,"isfriend":0,"isfamily":0},{"id":"52757729178","owner":"12639178@N07","secret":"5a0f484a79","server":"65535","farm":66,"title":"Rohrammer (m)","ispublic":1,"isfriend":0,"isfamily":0},{"id":"52757622575","owner":"12639178@N07","secret":"4d80cb26b1","server":"65535","farm":66,"title":"Rohrammer \u2640 inmitten einer Brache","ispublic":1,"isfriend":0,"isfamily":0},{"id":"52756477760","owner":"24899034@N07","secret":"acd5a88fdf","server":"65535","farm":66,"title":"Reed Bunting, Emberiza schoeniclus","ispublic":1,"isfriend":0,"isfamily":0},{"id":"52756477745","owner":"24899034@N07","secret":"97efe31c71","server":"65535","farm":66,"title":"Reed Bunting, Emberiza schoeniclus","ispublic":1,"isfriend":0,"isfamily":0},{"id":"52755851901","owner":"64696583@N02","secret":"2a71286b7c","server":"65535","farm":66,"title":"Reed bunting","ispublic":1,"isfriend":0,"isfamily":0},{"id":"52755960969","owner":"12639178@N07","secret":"14643b2325","server":"65535","farm":66,"title":"entwischt","ispublic":1,"isfriend":0,"isfamily":0},{"id":"52755947404","owner":"12639178@N07","secret":"ac9df975ef","server":"65535","farm":66,"title":"mausert vom Schlichtkleid ins Prachtkleid","ispublic":1,"isfriend":0,"isfamily":0},{"id":"52754710462","owner":"114700825@N07","secret":"c162984982","server":"65535","farm":66,"title":"536.2 Rietgors","ispublic":1,"isfriend":0,"isfamily":0},{"id":"52755115285","owner":"145945135@N06","secret":"fd691efc61","server":"65535","farm":66,"title":"Emberiza schoeniclus \/ Rietgors","ispublic":1,"isfriend":0,"isfamily":0},{"id":"52754066114","owner":"53041612@N05","secret":"8530b75434","server":"65535","farm":66,"title":"Reed bunting","ispublic":1,"isfriend":0,"isfamily":0},{"id":"52753225487","owner":"12639178@N07","secret":"a4e36a2862","server":"65535","farm":66,"title":"Rohrammer (Emberiza schoeniclus) (4)","ispublic":1,"isfriend":0,"isfamily":0},{"id":"52754250793","owner":"12639178@N07","secret":"8b4ea2d2a4","server":"65535","farm":66,"title":"Rohrammer (Emberiza schoeniclus) (3)","ispublic":1,"isfriend":0,"isfamily":0},{"id":"52753762321","owner":"12639178@N07","secret":"a6fa0f7c9e","server":"65535","farm":66,"title":"Rohrammer (m)","ispublic":1,"isfriend":0,"isfamily":0},{"id":"52754250443","owner":"12639178@N07","secret":"9baa5750d0","server":"65535","farm":66,"title":"Rohrammer (w)","ispublic":1,"isfriend":0,"isfamily":0},{"id":"52753661046","owner":"12639178@N07","secret":"d3dfe1ccb4","server":"65535","farm":66,"title":"Rohrammer (Emberiza schoeniclus)","ispublic":1,"isfriend":0,"isfamily":0},{"id":"52753459870","owner":"12639178@N07","secret":"6e8bcdc5ba","server":"65535","farm":66,"title":"Rohrammer","ispublic":1,"isfriend":0,"isfamily":0},{"id":"52752516037","owner":"12639178@N07","secret":"225c3737de","server":"65535","farm":66,"title":"Rohrammer","ispublic":1,"isfriend":0,"isfamily":0},{"id":"52753106058","owner":"12639178@N07","secret":"8c2d815c39","server":"65535","farm":66,"title":"Rohrammer (Emberiza schoeniclus) (1)","ispublic":1,"isfriend":0,"isfamily":0},{"id":"52752658754","owner":"123529713@N08","secret":"f9bc3662fc","server":"65535","farm":66,"title":"Repicatalons - Escribano palustre - Common reed bunting - Bruant des roseaux - Emberiza schoeniclus","ispublic":1,"isfriend":0,"isfamily":0},{"id":"52751479857","owner":"83641158@N03","secret":"0668d4ee2a","server":"65535","farm":66,"title":"Rohrammer","ispublic":1,"isfriend":0,"isfamily":0},{"id":"52752339340","owner":"53041612@N05","secret":"05e26c2c77","server":"65535","farm":66,"title":"Reed bunting","ispublic":1,"isfriend":0,"isfamily":0}]},"stat":"ok"}