{"photos":{"page":1,"pages":7,"perpage":100,"total":633,"photo":[{"id":"52704527933","owner":"90408688@N02","secret":"2223c49ea0","server":"65535","farm":66,"title":"Myiagra inquieta inquieta - Southern Restless Flycatcher (m)","ispublic":1,"isfriend":0,"isfamily":0},{"id":"52676893647","owner":"90500500@N08","secret":"a673e0a9eb","server":"65535","farm":66,"title":"Restless Flycatcher - Myiagra inquieta - Stirling Range Retreat - Western Australia","ispublic":1,"isfriend":0,"isfamily":0},{"id":"52676888937","owner":"90500500@N08","secret":"9b1c09bf29","server":"65535","farm":66,"title":"Restless Flycatcher - Myiagra inquieta - Stirling Range Retreat - Western Australia","ispublic":1,"isfriend":0,"isfamily":0},{"id":"52626607048","owner":"33277678@N03","secret":"c9cf13f361","server":"65535","farm":66,"title":"South West Australia '22","ispublic":1,"isfriend":0,"isfamily":0},{"id":"52626131256","owner":"33277678@N03","secret":"f244b0a3e0","server":"65535","farm":66,"title":"South West Australia '22","ispublic":1,"isfriend":0,"isfamily":0},{"id":"52382753087","owner":"42954644@N08","secret":"b3d236f0e0","server":"65535","farm":66,"title":"Myiagra inquieta","ispublic":1,"isfriend":0,"isfamily":0},{"id":"52379962430","owner":"129013862@N04","secret":"60f027d7bf","server":"65535","farm":66,"title":"Restless Flycatcher (Myiagra inquieta)","ispublic":1,"isfriend":0,"isfamily":0},{"id":"52375700224","owner":"137103568@N04","secret":"174e4784e3","server":"65535","farm":66,"title":"Restless Flycatcher (Myiagra inquieta)","ispublic":1,"isfriend":0,"isfamily":0},{"id":"52375805535","owner":"137103568@N04","secret":"21598554e4","server":"65535","farm":66,"title":"Restless Flycatcher (Myiagra inquieta)","ispublic":1,"isfriend":0,"isfamily":0},{"id":"52375804820","owner":"137103568@N04","secret":"3fc4210b13","server":"65535","farm":66,"title":"Restless Flycatcher (Myiagra inquieta)","ispublic":1,"isfriend":0,"isfamily":0},{"id":"52375804705","owner":"137103568@N04","secret":"5804a24df9","server":"65535","farm":66,"title":"Restless Flycatcher (Myiagra inquieta)","ispublic":1,"isfriend":0,"isfamily":0},{"id":"52299739203","owner":"40195635@N03","secret":"68248350a5","server":"65535","farm":66,"title":"Restless Flycatcher (Myiagra inquieta)","ispublic":1,"isfriend":0,"isfamily":0},{"id":"52171081004","owner":"87615574@N08","secret":"1095252cf8","server":"65535","farm":66,"title":"Restless-Flycatcher(Myiagra-inquieta)","ispublic":1,"isfriend":0,"isfamily":0},{"id":"52170836116","owner":"87615574@N08","secret":"7084f14078","server":"65535","farm":66,"title":"Restless-Flycatcher(Myiagra-inquieta)","ispublic":1,"isfriend":0,"isfamily":0},{"id":"52171080914","owner":"87615574@N08","secret":"ddf511526b","server":"65535","farm":66,"title":"Restless-Flycatcher(Myiagra-inquieta)","ispublic":1,"isfriend":0,"isfamily":0},{"id":"52170838593","owner":"87615574@N08","secret":"3de185701a","server":"65535","farm":66,"title":"Restless-Flycatcher(Myiagra-inquieta)","ispublic":1,"isfriend":0,"isfamily":0},{"id":"52097695556","owner":"66857174@N04","secret":"4200c300d0","server":"65535","farm":66,"title":"Restless Flycatcher (Myiagra inquieta) - Billa Billa, Queensland","ispublic":1,"isfriend":0,"isfamily":0},{"id":"52069595189","owner":"31350467@N04","secret":"3ee08034cc","server":"65535","farm":66,"title":"Flycatcher, Restless (Myiagra inquieta)","ispublic":1,"isfriend":0,"isfamily":0},{"id":"52031897982","owner":"151993772@N02","secret":"dfaa4c3f8e","server":"65535","farm":66,"title":"Restless Flycatcher (Myiagra inquieta)","ispublic":1,"isfriend":0,"isfamily":0},{"id":"52031315154","owner":"151993772@N02","secret":"6d0a22dfde","server":"65535","farm":66,"title":"Restless Flycatcher (Myiagra inquieta)","ispublic":1,"isfriend":0,"isfamily":0},{"id":"52031064876","owner":"151993772@N02","secret":"271a35aeea","server":"65535","farm":66,"title":"Restless Flycatcher (Myiagra inquieta)","ispublic":1,"isfriend":0,"isfamily":0},{"id":"51999470711","owner":"110716728@N03","secret":"21984ef144","server":"65535","farm":66,"title":"Restless Flycatcher (Myiagra inquieta)","ispublic":1,"isfriend":0,"isfamily":0},{"id":"51913417496","owner":"132431122@N05","secret":"af9a755603","server":"65535","farm":66,"title":"Restless Flycatcher","ispublic":1,"isfriend":0,"isfamily":0},{"id":"51913512183","owner":"132431122@N05","secret":"d405f94337","server":"65535","farm":66,"title":"Restless Flycatcher","ispublic":1,"isfriend":0,"isfamily":0},{"id":"51913417366","owner":"132431122@N05","secret":"c9f25919b4","server":"65535","farm":66,"title":"Restless Flycatcher","ispublic":1,"isfriend":0,"isfamily":0},{"id":"51861707627","owner":"194690473@N07","secret":"e48c6abd86","server":"65535","farm":66,"title":"Restless Flycatcher","ispublic":1,"isfriend":0,"isfamily":0},{"id":"51824981929","owner":"40195635@N03","secret":"c0940b9d75","server":"65535","farm":66,"title":"Restless Flycatcher (Myiagra inquieta)","ispublic":1,"isfriend":0,"isfamily":0},{"id":"51670218609","owner":"151677249@N08","secret":"92a72337b0","server":"65535","farm":66,"title":"Restless Flycatcher (Myiagra inquieta)","ispublic":1,"isfriend":0,"isfamily":0},{"id":"51620474117","owner":"76729899@N04","secret":"bcbf03dd5c","server":"65535","farm":66,"title":"Restless Flycatcher (Myiagra inquieta)_5949","ispublic":1,"isfriend":0,"isfamily":0},{"id":"51583182162","owner":"151677249@N08","secret":"aa1431c40d","server":"65535","farm":66,"title":"Restless Flycatcher (Myiagra inquieta)","ispublic":1,"isfriend":0,"isfamily":0},{"id":"51575121956","owner":"76729899@N04","secret":"430644e39a","server":"65535","farm":66,"title":"Restless Flycatcher (Myiagra inquieta)_5165","ispublic":1,"isfriend":0,"isfamily":0},{"id":"51461123365","owner":"182959673@N06","secret":"1c2d0354b1","server":"65535","farm":66,"title":"Restless Flycatcher - Woohlpooer Forest, Victoria","ispublic":1,"isfriend":0,"isfamily":0},{"id":"51394061774","owner":"31350467@N04","secret":"629f38f082","server":"65535","farm":66,"title":"Flycatcher, Restless (Myiagra inquieta)","ispublic":1,"isfriend":0,"isfamily":0},{"id":"51385922403","owner":"31350467@N04","secret":"73fd620874","server":"65535","farm":66,"title":"Flycatcher, Restless (Myiagra inquieta)","ispublic":1,"isfriend":0,"isfamily":0},{"id":"51285065105","owner":"189037423@N06","secret":"f89eb26a38","server":"65535","farm":66,"title":"Myiagra inquieta, Tharwa, ACT","ispublic":1,"isfriend":0,"isfamily":0},{"id":"51279203189","owner":"183815699@N08","secret":"a18976b357","server":"65535","farm":66,"title":"Restless Flycatcher","ispublic":1,"isfriend":0,"isfamily":0},{"id":"51275783428","owner":"31350467@N04","secret":"d29a4724d2","server":"65535","farm":66,"title":"Flycatcher, Restless (Myiagra inquieta)","ispublic":1,"isfriend":0,"isfamily":0},{"id":"51270005565","owner":"31350467@N04","secret":"1fd6cd67f3","server":"65535","farm":66,"title":"Flycatcher, Restless (Myiagra inquieta)","ispublic":1,"isfriend":0,"isfamily":0},{"id":"51111051409","owner":"191621302@N03","secret":"940c93f454","server":"65535","farm":66,"title":"Restless Flycatcher (Myiagra inquieta)","ispublic":1,"isfriend":0,"isfamily":0},{"id":"51053357503","owner":"66716461@N04","secret":"55b7fa756c","server":"65535","farm":66,"title":"restless flycatcher (Myiagra inquieta)","ispublic":1,"isfriend":0,"isfamily":0},{"id":"50819763483","owner":"191389292@N04","secret":"df1760efe9","server":"65535","farm":66,"title":"Restless Flycatcher, (Myiagra inquieta)","ispublic":1,"isfriend":0,"isfamily":0},{"id":"50797991983","owner":"31350467@N04","secret":"db8aaeeb23","server":"65535","farm":66,"title":"Flycatcher, Restless (Myiagra inquieta)","ispublic":1,"isfriend":0,"isfamily":0},{"id":"50777146273","owner":"129013862@N04","secret":"e1a685c669","server":"65535","farm":66,"title":"Restless Flycatcher (Myiagra inquieta)","ispublic":1,"isfriend":0,"isfamily":0},{"id":"50768851998","owner":"12742129@N07","secret":"04782356e1","server":"65535","farm":66,"title":"Restless Flycatcher (Myiagra inquieta)","ispublic":1,"isfriend":0,"isfamily":0},{"id":"50737855227","owner":"95482238@N02","secret":"ba1876c4c8","server":"65535","farm":66,"title":"restless flycatcher at Serendip Sanctuary, Victoria 4","ispublic":1,"isfriend":0,"isfamily":0},{"id":"50737747306","owner":"95482238@N02","secret":"0f86b88d8e","server":"65535","farm":66,"title":"restless flycatcher at Serendip Sanctuary, Victoria","ispublic":1,"isfriend":0,"isfamily":0},{"id":"50737747261","owner":"95482238@N02","secret":"13d720fb94","server":"65535","farm":66,"title":"restless flycatcher at Serendip Sanctuary, Victoria 2","ispublic":1,"isfriend":0,"isfamily":0},{"id":"50737009933","owner":"95482238@N02","secret":"e55afcc82f","server":"65535","farm":66,"title":"restless flycatcher at Serendip Sanctuary, Victoria 3","ispublic":1,"isfriend":0,"isfamily":0},{"id":"50647379702","owner":"39343449@N02","secret":"42bc287e51","server":"65535","farm":66,"title":"Restless Flycatcher at Stirling Range Retreat","ispublic":1,"isfriend":0,"isfamily":0},{"id":"50581205936","owner":"40195635@N03","secret":"a1147c926a","server":"65535","farm":66,"title":"Restless Flycatcher (Myiagra inquieta)","ispublic":1,"isfriend":0,"isfamily":0},{"id":"50566915608","owner":"143650114@N08","secret":"bf5a9e478e","server":"65535","farm":66,"title":"Restless Flycatcher","ispublic":1,"isfriend":0,"isfamily":0},{"id":"50554686502","owner":"137506587@N06","secret":"c2cf6c008f","server":"65535","farm":66,"title":"Satin Flycatcher (Myiagra cyanoleuca)","ispublic":1,"isfriend":0,"isfamily":0},{"id":"50529919888","owner":"46625272@N04","secret":"c6d17ba8e1","server":"65535","farm":66,"title":"Restless Flycatcher Stirlings 25Oct20 (6) res","ispublic":1,"isfriend":0,"isfamily":0},{"id":"50456013336","owner":"76664823@N02","secret":"9c33787cf7","server":"65535","farm":66,"title":"restless flycatcher (Myiagra inquieta)-0666","ispublic":1,"isfriend":0,"isfamily":0},{"id":"50455304158","owner":"76664823@N02","secret":"006a5ff33e","server":"65535","farm":66,"title":"restless flycatcher (Myiagra inquieta)-0711","ispublic":1,"isfriend":0,"isfamily":0},{"id":"50455303388","owner":"76664823@N02","secret":"905f960f42","server":"65535","farm":66,"title":"restless flycatcher (Myiagra inquieta)-0713","ispublic":1,"isfriend":0,"isfamily":0},{"id":"50392975101","owner":"16520061@N08","secret":"3d955a6b9c","server":"65535","farm":66,"title":"Restless Flycatcher (Myiagra inquieta)","ispublic":1,"isfriend":0,"isfamily":0},{"id":"50306855263","owner":"34877237@N06","secret":"6055586d9c","server":"65535","farm":66,"title":"Restless Flycatcher","ispublic":1,"isfriend":0,"isfamily":0},{"id":"50288321161","owner":"40195635@N03","secret":"546e43430b","server":"65535","farm":66,"title":"Restless Flycatcher (Myiagra inquieta)","ispublic":1,"isfriend":0,"isfamily":0},{"id":"50190293323","owner":"182959673@N06","secret":"2a4cd3321c","server":"65535","farm":66,"title":"Restless Flycatcher - Cunnamulla, Queensland","ispublic":1,"isfriend":0,"isfamily":0},{"id":"49969649312","owner":"182959673@N06","secret":"d03abc1b96","server":"65535","farm":66,"title":"Restless Flycatcher - Mt Pilot Chiltern National Park, Victoria","ispublic":1,"isfriend":0,"isfamily":0},{"id":"52337997415","owner":"50809355@N06","secret":"cf0b053f5b","server":"65535","farm":66,"title":"Restless Flycatcher Myiagra inquieta Monarchidae Focused On Making Sure Its Safe After The Failed GoshawkAttack Shoal Bay","ispublic":1,"isfriend":0,"isfamily":0},{"id":"52337806338","owner":"50809355@N06","secret":"cac6e06539","server":"65535","farm":66,"title":"Restless Flycatcher Myiagra inquieta Monarchidae Hunting In The Paperbarks Shoal Bay","ispublic":1,"isfriend":0,"isfamily":0},{"id":"52337997380","owner":"50809355@N06","secret":"4e9594c34e","server":"65535","farm":66,"title":"Restless Flycatcher Myiagra inquieta Monarchidae Hunting In The Paperbarks Shoal Bay01","ispublic":1,"isfriend":0,"isfamily":0},{"id":"52337806318","owner":"50809355@N06","secret":"044a52cc3d","server":"65535","farm":66,"title":"Restless Flycatcher Myiagra inquieta Monarchidae Shoal Bay.pg","ispublic":1,"isfriend":0,"isfamily":0},{"id":"52336615327","owner":"50809355@N06","secret":"005dcf9166","server":"65535","farm":66,"title":"Restless Flycatcher Myiagra inquieta Monarchidae Very Curious About All The Commotion From The Double-barred Finches Clucking Shoal Bay","ispublic":1,"isfriend":0,"isfamily":0},{"id":"52183379116","owner":"146833745@N04","secret":"79c23d8c90","server":"65535","farm":66,"title":"Restless Flycatcher (Myiagra inquieta)","ispublic":1,"isfriend":0,"isfamily":0},{"id":"52014561929","owner":"146833745@N04","secret":"1ed7a54c32","server":"65535","farm":66,"title":"Restless Flycatcher (Myiagra inquieta)","ispublic":1,"isfriend":0,"isfamily":0},{"id":"52000367572","owner":"195300965@N05","secret":"f32453268c","server":"65535","farm":66,"title":"\u5b09\u620f\u9614\u5634\u9e5f\uff08Restless Flycatcher (Myiagra inquieta)\uff09","ispublic":1,"isfriend":0,"isfamily":0},{"id":"52000367537","owner":"195300965@N05","secret":"4008c557b4","server":"65535","farm":66,"title":"\u5b09\u620f\u9614\u5634\u9e5f\uff08Restless Flycatcher (Myiagra inquieta)\uff09","ispublic":1,"isfriend":0,"isfamily":0},{"id":"52001637124","owner":"195300965@N05","secret":"76bd97c89a","server":"65535","farm":66,"title":"\u5b09\u620f\u9614\u5634\u9e5f\uff08Restless Flycatcher (Myiagra inquieta)\uff09","ispublic":1,"isfriend":0,"isfamily":0},{"id":"52001378161","owner":"195300965@N05","secret":"9cc5cfed28","server":"65535","farm":66,"title":"\u5b09\u620f\u9614\u5634\u9e5f\uff08Restless Flycatcher (Myiagra inquieta)\uff09","ispublic":1,"isfriend":0,"isfamily":0},{"id":"52001912900","owner":"195300965@N05","secret":"188f05e931","server":"65535","farm":66,"title":"\u5b09\u620f\u9614\u5634\u9e5f\uff08Restless Flycatcher (Myiagra inquieta)\uff09","ispublic":1,"isfriend":0,"isfamily":0},{"id":"52000367322","owner":"195300965@N05","secret":"0bd7942e23","server":"65535","farm":66,"title":"\u5b09\u620f\u9614\u5634\u9e5f\uff08Restless Flycatcher (Myiagra inquieta)\uff09","ispublic":1,"isfriend":0,"isfamily":0},{"id":"51998622687","owner":"195300965@N05","secret":"0145dcc4a1","server":"65535","farm":66,"title":"\u5b09\u620f\u9614\u5634\u9e5f\uff08Restless Flycatcher (Myiagra inquieta)\uff09","ispublic":1,"isfriend":0,"isfamily":0},{"id":"51998622597","owner":"195300965@N05","secret":"1a119f3085","server":"65535","farm":66,"title":"\u5b09\u620f\u9614\u5634\u9e5f\uff08Restless Flycatcher (Myiagra inquieta)\uff09","ispublic":1,"isfriend":0,"isfamily":0},{"id":"51999633721","owner":"195300965@N05","secret":"0bf0e79456","server":"65535","farm":66,"title":"\u5b09\u620f\u9614\u5634\u9e5f\uff08Restless Flycatcher (Myiagra inquieta)\uff09","ispublic":1,"isfriend":0,"isfamily":0},{"id":"51998622487","owner":"195300965@N05","secret":"38fede535d","server":"65535","farm":66,"title":"\u5b09\u620f\u9614\u5634\u9e5f\uff08Restless Flycatcher (Myiagra inquieta)\uff09","ispublic":1,"isfriend":0,"isfamily":0},{"id":"51998622452","owner":"195300965@N05","secret":"3fe1b7e41a","server":"65535","farm":66,"title":"\u5b09\u620f\u9614\u5634\u9e5f\uff08Restless Flycatcher (Myiagra inquieta)\uff09","ispublic":1,"isfriend":0,"isfamily":0},{"id":"51999893289","owner":"195300965@N05","secret":"a0b1f75810","server":"65535","farm":66,"title":"\u5b09\u620f\u9614\u5634\u9e5f\uff08Restless Flycatcher (Myiagra inquieta)\uff09","ispublic":1,"isfriend":0,"isfamily":0},{"id":"52000171010","owner":"195300965@N05","secret":"4539142df8","server":"65535","farm":66,"title":"\u5b09\u620f\u9614\u5634\u9e5f\uff08Restless Flycatcher (Myiagra inquieta)\uff09","ispublic":1,"isfriend":0,"isfamily":0},{"id":"52000170945","owner":"195300965@N05","secret":"711b0060e7","server":"65535","farm":66,"title":"\u5b09\u620f\u9614\u5634\u9e5f\uff08Restless Flycatcher (Myiagra inquieta)\uff09","ispublic":1,"isfriend":0,"isfamily":0},{"id":"52000170885","owner":"195300965@N05","secret":"34f422c74d","server":"65535","farm":66,"title":"\u5b09\u620f\u9614\u5634\u9e5f\uff08Restless Flycatcher (Myiagra inquieta)\uff09","ispublic":1,"isfriend":0,"isfamily":0},{"id":"52000170825","owner":"195300965@N05","secret":"fec1d31aab","server":"65535","farm":66,"title":"\u5b09\u620f\u9614\u5634\u9e5f\uff08Restless Flycatcher (Myiagra inquieta)\uff09","ispublic":1,"isfriend":0,"isfamily":0},{"id":"51848799407","owner":"137777647@N07","secret":"86b393226c","server":"65535","farm":66,"title":"Restless Flycatcher Myiagra inquieta","ispublic":1,"isfriend":0,"isfamily":0},{"id":"51744980170","owner":"8142488@N07","secret":"29b10bcc12","server":"65535","farm":66,"title":"1F0A4755","ispublic":1,"isfriend":0,"isfamily":0},{"id":"51666153196","owner":"191211373@N05","secret":"c869fd841f","server":"65535","farm":66,"title":"Restless Flycatcher (Myiagra inquieta) 0127 CT","ispublic":1,"isfriend":0,"isfamily":0},{"id":"51666382513","owner":"191211373@N05","secret":"9d288bb8e5","server":"65535","farm":66,"title":"Restless Flycatcher (Myiagra inquieta) 0127 CT","ispublic":1,"isfriend":0,"isfamily":0},{"id":"51646415016","owner":"76729899@N04","secret":"85f8cebaa9","server":"65535","farm":66,"title":"Restless Flycatcher (Myiagra inquieta)_6259","ispublic":1,"isfriend":0,"isfamily":0},{"id":"51223748938","owner":"40195635@N03","secret":"ab68bf8c21","server":"65535","farm":66,"title":"Paperbark Flycatcher (Myiagra nana)","ispublic":1,"isfriend":0,"isfamily":0},{"id":"51217406784","owner":"50809355@N06","secret":"cbc3dfeafd","server":"65535","farm":66,"title":"Restless Flycatcher Myiagra inquieta Monarchidae Hunting In The Grey Mangrove Upper Reach Buffalo Creek","ispublic":1,"isfriend":0,"isfamily":0},{"id":"51217715325","owner":"50809355@N06","secret":"e8b576b0c8","server":"65535","farm":66,"title":"Restless Flycatcher Myiagra inquieta Monarchidae I See You Upper Reach Buffalo Creek","ispublic":1,"isfriend":0,"isfamily":0},{"id":"51216648836","owner":"50809355@N06","secret":"f12830cfd1","server":"65535","farm":66,"title":"Restless Flycatcher Myiagra inquieta Monarchidae Keeping An Eye On Other Hunters Upper Reach Buffalo Creek","ispublic":1,"isfriend":0,"isfamily":0},{"id":"51216648796","owner":"50809355@N06","secret":"5881576641","server":"65535","farm":66,"title":"Restless Flycatcher Myiagra inquieta Monarchidae Upper Reach Buffalo Creek","ispublic":1,"isfriend":0,"isfamily":0},{"id":"51162331703","owner":"191389292@N04","secret":"d510ca7cba","server":"65535","farm":66,"title":"Restless Flycatcher (Myiagra inquieta)","ispublic":1,"isfriend":0,"isfamily":0},{"id":"51158461342","owner":"137103568@N04","secret":"9535fdb8b4","server":"65535","farm":66,"title":"Restless Flycatcher (Myiagra inquieta), female","ispublic":1,"isfriend":0,"isfamily":0},{"id":"50777146318","owner":"129013862@N04","secret":"5dec86970d","server":"65535","farm":66,"title":"Restless Flycatcher (Myiagra inquieta)","ispublic":1,"isfriend":0,"isfamily":0},{"id":"50636019611","owner":"131222116@N06","secret":"01f9de7375","server":"65535","farm":66,"title":"Restless Flycatcher","ispublic":1,"isfriend":0,"isfamily":0},{"id":"50004044292","owner":"187469698@N05","secret":"5bd8b01118","server":"65535","farm":66,"title":"1004 Restless Flycatcher - Andrew Walker 001","ispublic":1,"isfriend":0,"isfamily":0},{"id":"49959990756","owner":"110716728@N03","secret":"ee922c952f","server":"65535","farm":66,"title":"Restless Flycatcher (Myiagra inquieta)","ispublic":1,"isfriend":0,"isfamily":0}]},"stat":"ok"}