{"photos":{"page":1,"pages":7,"perpage":100,"total":671,"photo":[{"id":"52741073935","owner":"42914481@N00","secret":"3e18e07c5b","server":"65535","farm":66,"title":"Ridgeway Rail and its shadow","ispublic":1,"isfriend":0,"isfamily":0},{"id":"52590208609","owner":"34368269@N04","secret":"b077828450","server":"65535","farm":66,"title":"Ridgway's Rail leaving the marsh","ispublic":1,"isfriend":0,"isfamily":0},{"id":"52595605375","owner":"18244673@N00","secret":"bd57ab1fd1","server":"65535","farm":66,"title":"California Ridgway's rail (Rallus obsoletus)","ispublic":1,"isfriend":0,"isfamily":0},{"id":"52540177598","owner":"125605310@N07","secret":"cb3e7e594d","server":"65535","farm":66,"title":"Ridgway's Rail, Rallus obsoletus","ispublic":1,"isfriend":0,"isfamily":0},{"id":"52538908066","owner":"62043870@N05","secret":"8c178bae06","server":"65535","farm":66,"title":"Ridgway's Rail, Rallus obsoletus","ispublic":1,"isfriend":0,"isfamily":0},{"id":"52538904621","owner":"62043870@N05","secret":"cf8732eb45","server":"65535","farm":66,"title":"Ridgway's Rail, Rallus obsoletus","ispublic":1,"isfriend":0,"isfamily":0},{"id":"52525376027","owner":"18244673@N00","secret":"fefac06f3b","server":"65535","farm":66,"title":"California Ridgway's rail (Rallus obsoletus)","ispublic":1,"isfriend":0,"isfamily":0},{"id":"52207398953","owner":"10577082@N05","secret":"31a08f40a4","server":"65535","farm":66,"title":"Ridgeway Rail","ispublic":1,"isfriend":0,"isfamily":0},{"id":"52191916425","owner":"140318147@N08","secret":"c37cc6f124","server":"65535","farm":66,"title":"Ridgway\u2019s rail (Rallus obsoletus) L4A6647","ispublic":1,"isfriend":0,"isfamily":0},{"id":"52191915440","owner":"140318147@N08","secret":"d0ee87d887","server":"65535","farm":66,"title":"Ridgway\u2019s rail (Rallus obsoletus) L4A6701","ispublic":1,"isfriend":0,"isfamily":0},{"id":"52071064337","owner":"93244858@N00","secret":"ecff8f0477","server":"65535","farm":66,"title":"Ridgway's rail (Rallus obsoletus)","ispublic":1,"isfriend":0,"isfamily":0},{"id":"52072587970","owner":"93244858@N00","secret":"c0a8891619","server":"65535","farm":66,"title":"Ridgway's rails (Rallus obsoletus)","ispublic":1,"isfriend":0,"isfamily":0},{"id":"51931429542","owner":"48014585@N00","secret":"95a1c88cd8","server":"65535","farm":66,"title":"Ridgway's Rail","ispublic":1,"isfriend":0,"isfamily":0},{"id":"51932488073","owner":"48014585@N00","secret":"fd0f7345c9","server":"65535","farm":66,"title":"Ridgway's Rail","ispublic":1,"isfriend":0,"isfamily":0},{"id":"51857512605","owner":"123174353@N02","secret":"1dff7e2bd8","server":"65535","farm":66,"title":"Rallus obsoletus \/ Ridgway's Rail \/ Californische ral","ispublic":1,"isfriend":0,"isfamily":0},{"id":"51856855516","owner":"123174353@N02","secret":"2734d23d79","server":"65535","farm":66,"title":"Rallus obsoletus \/ Ridgway's Rail \/ Californische ral","ispublic":1,"isfriend":0,"isfamily":0},{"id":"51659838477","owner":"18244673@N00","secret":"75265da739","server":"65535","farm":66,"title":"Ridgway's Rail (Rallus obsoletus)","ispublic":1,"isfriend":0,"isfamily":0},{"id":"51661517565","owner":"18244673@N00","secret":"efab470599","server":"65535","farm":66,"title":"Ridgway's rail (Rallus obsoletus)","ispublic":1,"isfriend":0,"isfamily":0},{"id":"51599961661","owner":"63717937@N00","secret":"836ff884ea","server":"65535","farm":66,"title":"Ridgway's rail","ispublic":1,"isfriend":0,"isfamily":0},{"id":"51600617509","owner":"63717937@N00","secret":"db72b7989c","server":"65535","farm":66,"title":"Ridgway's rail","ispublic":1,"isfriend":0,"isfamily":0},{"id":"51293352516","owner":"33106392@N08","secret":"866113e7a9","server":"65535","farm":66,"title":"Ridgway's Rail - adult and chick","ispublic":1,"isfriend":0,"isfamily":0},{"id":"51212198654","owner":"60361833@N03","secret":"9645173a09","server":"65535","farm":66,"title":"Ridgway's Rail_4","ispublic":1,"isfriend":0,"isfamily":0},{"id":"50993573776","owner":"88886389@N02","secret":"8333bbd6e7","server":"65535","farm":66,"title":"3439 Ridgway's Rail","ispublic":1,"isfriend":0,"isfamily":0},{"id":"50914476003","owner":"130819719@N05","secret":"1a13d287a9","server":"65535","farm":66,"title":"Ridgway's Rail","ispublic":1,"isfriend":0,"isfamily":0},{"id":"50889828072","owner":"18731552@N00","secret":"25516c1c59","server":"65535","farm":66,"title":"Ridgway's Rail D16A2725.jpg","ispublic":1,"isfriend":0,"isfamily":0},{"id":"50863408577","owner":"130819719@N05","secret":"24b4f7daf2","server":"65535","farm":66,"title":"Ridgway's Rail","ispublic":1,"isfriend":0,"isfamily":0},{"id":"50843101941","owner":"60361833@N03","secret":"e8e7189c12","server":"65535","farm":66,"title":"Ridgway\u2019s Rail_3","ispublic":1,"isfriend":0,"isfamily":0},{"id":"50728712347","owner":"18244673@N00","secret":"15d9ff9c03","server":"65535","farm":66,"title":"Ridgway's Rail","ispublic":1,"isfriend":0,"isfamily":0},{"id":"50728712057","owner":"18244673@N00","secret":"53d65a0bd7","server":"65535","farm":66,"title":"Ridgway's Rail","ispublic":1,"isfriend":0,"isfamily":0},{"id":"50677986542","owner":"65632611@N00","secret":"5c9cacbbd6","server":"65535","farm":66,"title":"San Diego: Ridgway's Rail (654)","ispublic":1,"isfriend":0,"isfamily":0},{"id":"50677981767","owner":"65632611@N00","secret":"158c0de6a3","server":"65535","farm":66,"title":"San Diego: Ridgway's Rail (9619)","ispublic":1,"isfriend":0,"isfamily":0},{"id":"50677155618","owner":"65632611@N00","secret":"1efedcdf5e","server":"65535","farm":66,"title":"San Diego: Ridgway's Rail (9646)","ispublic":1,"isfriend":0,"isfamily":0},{"id":"50574067243","owner":"8425606@N04","secret":"c05fe94362","server":"65535","farm":66,"title":"Ridgway's Rail","ispublic":1,"isfriend":0,"isfamily":0},{"id":"50110253302","owner":"49503118795@N01","secret":"c20495c1bc","server":"65535","farm":66,"title":"The Ridgway's Report","ispublic":1,"isfriend":0,"isfamily":0},{"id":"49913714786","owner":"78736045@N03","secret":"9caa1a20c3","server":"65535","farm":66,"title":"Baby rail","ispublic":1,"isfriend":0,"isfamily":0},{"id":"49726289992","owner":"186116188@N07","secret":"58c8cab424","server":"65535","farm":66,"title":"California Ridgway's rail","ispublic":1,"isfriend":0,"isfamily":0},{"id":"49605555927","owner":"57060047@N04","secret":"20e7030ec1","server":"65535","farm":66,"title":"D50_3682","ispublic":1,"isfriend":0,"isfamily":0},{"id":"49526069301","owner":"89345196@N04","secret":"cafdc31163","server":"65535","farm":66,"title":"Ridgway's Rail | | Rallus obsoletus","ispublic":1,"isfriend":0,"isfamily":0},{"id":"49434811161","owner":"65431955@N08","secret":"b7fcb24058","server":"0","farm":0,"title":"Ridgway\u2019s Rail","ispublic":1,"isfriend":0,"isfamily":0},{"id":"49293988991","owner":"62174414@N04","secret":"1c3634ca89","server":"65535","farm":66,"title":"Light-footed Ridgway's Rail (Rallus obsoletus levipes)","ispublic":1,"isfriend":0,"isfamily":0},{"id":"49286085257","owner":"18244673@N00","secret":"15cacb10f7","server":"65535","farm":66,"title":"Ridgway's Rail","ispublic":1,"isfriend":0,"isfamily":0},{"id":"48481715982","owner":"150356410@N05","secret":"fd7b509f81","server":"65535","farm":66,"title":"Rail_20160313_031sm","ispublic":1,"isfriend":0,"isfamily":0},{"id":"48442874327","owner":"27145142@N00","secret":"4b8bf49071","server":"65535","farm":66,"title":"Arrowhead_RIRA-2595","ispublic":1,"isfriend":0,"isfamily":0},{"id":"48442721711","owner":"27145142@N00","secret":"675a76d667","server":"65535","farm":66,"title":"Arrowhead_RIRA-2603","ispublic":1,"isfriend":0,"isfamily":0},{"id":"48442874077","owner":"27145142@N00","secret":"ae21c784e3","server":"65535","farm":66,"title":"Arrowhead_RIRA-2611","ispublic":1,"isfriend":0,"isfamily":0},{"id":"48442721566","owner":"27145142@N00","secret":"44dfe238c7","server":"65535","farm":66,"title":"Arrowhead_RIRA-2629","ispublic":1,"isfriend":0,"isfamily":0},{"id":"48442873927","owner":"27145142@N00","secret":"f88371f3b1","server":"65535","farm":66,"title":"Arrowhead_RIRA-2631","ispublic":1,"isfriend":0,"isfamily":0},{"id":"52580691890","owner":"153973412@N04","secret":"1328f9fe81","server":"65535","farm":66,"title":"Ridgeway's Rail-Rallus obsoletus levipes, San Diego, CA","ispublic":1,"isfriend":0,"isfamily":0},{"id":"52539627676","owner":"125605310@N07","secret":"dcbba9fb41","server":"65535","farm":66,"title":"Ridgway's Rail, Rallus obsoletus","ispublic":1,"isfriend":0,"isfamily":0},{"id":"52539204149","owner":"62043870@N05","secret":"85687d1628","server":"65535","farm":66,"title":"Ridgway's Rail, Rallus obsoletus","ispublic":1,"isfriend":0,"isfamily":0},{"id":"52539383055","owner":"62043870@N05","secret":"75e33f0ff8","server":"65535","farm":66,"title":"Ridgway's Rail, Rallus obsoletus","ispublic":1,"isfriend":0,"isfamily":0},{"id":"52538905331","owner":"62043870@N05","secret":"7fcd74714f","server":"65535","farm":66,"title":"Ridgway's Rail, Rallus obsoletus","ispublic":1,"isfriend":0,"isfamily":0},{"id":"52538904976","owner":"62043870@N05","secret":"159edd978e","server":"65535","farm":66,"title":"Ridgway's Rail, Rallus obsoletus","ispublic":1,"isfriend":0,"isfamily":0},{"id":"52467398941","owner":"182379969@N08","secret":"6b77e19a9d","server":"65535","farm":66,"title":"California Ridgway\u2019s Rail - Rallus obsoletus obsoletus","ispublic":1,"isfriend":0,"isfamily":0},{"id":"51935994234","owner":"48014585@N00","secret":"d727eb9fd3","server":"65535","farm":66,"title":"Ridgley's Rail","ispublic":1,"isfriend":0,"isfamily":0},{"id":"51935990239","owner":"48014585@N00","secret":"12eafb9973","server":"65535","farm":66,"title":"Ridgley's Rail","ispublic":1,"isfriend":0,"isfamily":0},{"id":"51936265905","owner":"48014585@N00","secret":"37096bf15e","server":"65535","farm":66,"title":"Ridgley's Rail","ispublic":1,"isfriend":0,"isfamily":0},{"id":"51935725608","owner":"48014585@N00","secret":"fd5dcc9b2e","server":"65535","farm":66,"title":"Ridgley's Rail","ispublic":1,"isfriend":0,"isfamily":0},{"id":"51933054335","owner":"48014585@N00","secret":"19e2e68568","server":"65535","farm":66,"title":"Ridgway's Rail","ispublic":1,"isfriend":0,"isfamily":0},{"id":"51933013400","owner":"48014585@N00","secret":"0a5a780e00","server":"65535","farm":66,"title":"Ridgway's Rail","ispublic":1,"isfriend":0,"isfamily":0},{"id":"51932400573","owner":"48014585@N00","secret":"e1b6166207","server":"65535","farm":66,"title":"Ridgway's Rail","ispublic":1,"isfriend":0,"isfamily":0},{"id":"51931343592","owner":"48014585@N00","secret":"7e1e40f91d","server":"65535","farm":66,"title":"Ridgway's Rail","ispublic":1,"isfriend":0,"isfamily":0},{"id":"51932322736","owner":"48014585@N00","secret":"6d794fccf6","server":"65535","farm":66,"title":"Ridgway's Rail","ispublic":1,"isfriend":0,"isfamily":0},{"id":"51932941300","owner":"48014585@N00","secret":"f978f55e93","server":"65535","farm":66,"title":"Ridgway's Rail","ispublic":1,"isfriend":0,"isfamily":0},{"id":"51932322381","owner":"48014585@N00","secret":"6cee1e542d","server":"65535","farm":66,"title":"Ridgway's Rail","ispublic":1,"isfriend":0,"isfamily":0},{"id":"51930957852","owner":"48014585@N00","secret":"c7fb45077a","server":"65535","farm":66,"title":"Ridgway's Rail","ispublic":1,"isfriend":0,"isfamily":0},{"id":"51930954157","owner":"48014585@N00","secret":"8990308c60","server":"65535","farm":66,"title":"Ridgway's Rail","ispublic":1,"isfriend":0,"isfamily":0},{"id":"51793492356","owner":"194341957@N06","secret":"d4a73d250a","server":"65535","farm":66,"title":"ridgway's rail","ispublic":1,"isfriend":0,"isfamily":0},{"id":"51794229250","owner":"194341957@N06","secret":"127d5fd34d","server":"65535","farm":66,"title":"ridgway's rail","ispublic":1,"isfriend":0,"isfamily":0},{"id":"51419550940","owner":"51928691@N04","secret":"62229d7b76","server":"65535","farm":66,"title":"Ridgway's Rail (Rallus obsoletus) 1 083121","ispublic":1,"isfriend":0,"isfamily":0},{"id":"51419550825","owner":"51928691@N04","secret":"e240757931","server":"65535","farm":66,"title":"Ridgway's Rail (Rallus obsoletus) 2 083121","ispublic":1,"isfriend":0,"isfamily":0},{"id":"51418565606","owner":"51928691@N04","secret":"7388648c35","server":"65535","farm":66,"title":"Ridgway's Rail (Rallus obsoletus) 3 083121","ispublic":1,"isfriend":0,"isfamily":0},{"id":"51418825093","owner":"51928691@N04","secret":"d9bf836ca4","server":"65535","farm":66,"title":"Ridgway's Rail (Rallus obsoletus) 5 083121","ispublic":1,"isfriend":0,"isfamily":0},{"id":"51418564876","owner":"51928691@N04","secret":"c50ef4fc81","server":"65535","farm":66,"title":"Ridgway's Rail (Rallus obsoletus) 6 083121","ispublic":1,"isfriend":0,"isfamily":0},{"id":"51168242947","owner":"49246330@N00","secret":"e5e6323a53","server":"65535","farm":66,"title":"Ridgway's Rail","ispublic":1,"isfriend":0,"isfamily":0},{"id":"50944710557","owner":"89345196@N04","secret":"6ec1fcfb8e","server":"65535","farm":66,"title":"Feels great! | Ridgway's Rail | Rallus obsoletus","ispublic":1,"isfriend":0,"isfamily":0},{"id":"50603404433","owner":"186116188@N07","secret":"b935a7aac4","server":"65535","farm":66,"title":"California Ridgway's rail","ispublic":1,"isfriend":0,"isfamily":0},{"id":"50599440656","owner":"132508209@N08","secret":"94b2dc93d4","server":"65535","farm":66,"title":"Ridgway's Rail (Rallus obsoletus)","ispublic":1,"isfriend":0,"isfamily":0},{"id":"50599558047","owner":"132508209@N08","secret":"654f6200b1","server":"65535","farm":66,"title":"Ridgway's Rail (Rallus obsoletus)","ispublic":1,"isfriend":0,"isfamily":0},{"id":"50306602526","owner":"51928691@N04","secret":"e330390e98","server":"65535","farm":66,"title":"Ridgway's Rail (Rallus obsoletus) 2 090420","ispublic":1,"isfriend":0,"isfamily":0},{"id":"50306754247","owner":"51928691@N04","secret":"aa2bbca1ab","server":"65535","farm":66,"title":"Ridgway's Rail (Rallus obsoletus) 3 090420","ispublic":1,"isfriend":0,"isfamily":0},{"id":"50306754057","owner":"51928691@N04","secret":"e8c6dbcf0b","server":"65535","farm":66,"title":"Ridgway's Rail (Rallus obsoletus) 4 090420","ispublic":1,"isfriend":0,"isfamily":0},{"id":"50306601721","owner":"51928691@N04","secret":"cf0ee332dd","server":"65535","farm":66,"title":"Ridgway's Rail (Rallus obsoletus) 7 090420","ispublic":1,"isfriend":0,"isfamily":0},{"id":"50306601631","owner":"51928691@N04","secret":"6464f08fd2","server":"65535","farm":66,"title":"Ridgway's Rail (Rallus obsoletus) 9 090420","ispublic":1,"isfriend":0,"isfamily":0},{"id":"50305914508","owner":"51928691@N04","secret":"33cec21d36","server":"65535","farm":66,"title":"Ridgway's Rail (Rallus obsoletus) 11 090420","ispublic":1,"isfriend":0,"isfamily":0},{"id":"50306753572","owner":"51928691@N04","secret":"381bc498e7","server":"65535","farm":66,"title":"Ridgway's Rail (Rallus obsoletus) 17 090420","ispublic":1,"isfriend":0,"isfamily":0},{"id":"50305913928","owner":"51928691@N04","secret":"36a892857c","server":"65535","farm":66,"title":"Ridgway's Rail (Rallus obsoletus) 18 090420","ispublic":1,"isfriend":0,"isfamily":0},{"id":"49728409103","owner":"186116188@N07","secret":"e6fd50413f","server":"65535","farm":66,"title":"California Ridgway's rail","ispublic":1,"isfriend":0,"isfamily":0},{"id":"49728994487","owner":"186116188@N07","secret":"d06db7976b","server":"65535","farm":66,"title":"California Ridgway's rail","ispublic":1,"isfriend":0,"isfamily":0},{"id":"49556493883","owner":"186562541@N05","secret":"d89ebb7d19","server":"65535","farm":66,"title":"Yuma Ridgeway's Rail, Salton Sea, CA","ispublic":1,"isfriend":0,"isfamily":0},{"id":"49547801776","owner":"186562541@N05","secret":"9564d66ffd","server":"65535","farm":66,"title":"Yuma Ridgeway's Rail, Salton Sea, CA","ispublic":1,"isfriend":0,"isfamily":0},{"id":"49547800946","owner":"186562541@N05","secret":"703ce81bb0","server":"65535","farm":66,"title":"Yuma Ridgeway's Rail, Salton Sea, CA","ispublic":1,"isfriend":0,"isfamily":0},{"id":"49296036458","owner":"89345196@N04","secret":"33f8eb3198","server":"65535","farm":66,"title":"Ridgeway's Rail | Rallus obsoletus","ispublic":1,"isfriend":0,"isfamily":0},{"id":"49288911368","owner":"186099093@N05","secret":"fb2a6238ee","server":"65535","farm":66,"title":"DSC_2734","ispublic":1,"isfriend":0,"isfamily":0},{"id":"48830081971","owner":"123979267@N05","secret":"6110226c3a","server":"65535","farm":66,"title":"Ridgway's Rail","ispublic":1,"isfriend":0,"isfamily":0},{"id":"48796915376","owner":"123979267@N05","secret":"4372fc6799","server":"65535","farm":66,"title":"Ridgway's Rail","ispublic":1,"isfriend":0,"isfamily":0},{"id":"48597075737","owner":"61664846@N02","secret":"216f737e77","server":"65535","farm":66,"title":"Ridgeway's Rail","ispublic":1,"isfriend":0,"isfamily":0},{"id":"48442874657","owner":"27145142@N00","secret":"1e07c863cf","server":"65535","farm":66,"title":"Arrowhead_RIRA-2583","ispublic":1,"isfriend":0,"isfamily":0},{"id":"48442874562","owner":"27145142@N00","secret":"4f970c4a18","server":"65535","farm":66,"title":"Arrowhead_RIRA-2587","ispublic":1,"isfriend":0,"isfamily":0},{"id":"48442721891","owner":"27145142@N00","secret":"63d9b85b2b","server":"65535","farm":66,"title":"Arrowhead_RIRA-2591","ispublic":1,"isfriend":0,"isfamily":0}]},"stat":"ok"}