{"photos":{"page":1,"pages":146,"perpage":100,"total":14530,"photo":[{"id":"52722115273","owner":"90886369@N06","secret":"60e2e5e20f","server":"65535","farm":66,"title":"Ring-billed Gull (Larus delawarensis)","ispublic":1,"isfriend":0,"isfamily":0},{"id":"52721843789","owner":"135328172@N06","secret":"7e308b2d0b","server":"65535","farm":66,"title":"Larus delawarensis - Ring-billed Gull","ispublic":1,"isfriend":0,"isfamily":0},{"id":"52721993865","owner":"135328172@N06","secret":"04d0019054","server":"65535","farm":66,"title":"Larus delawarensis - Ring-billed Gull","ispublic":1,"isfriend":0,"isfamily":0},{"id":"52722067533","owner":"135328172@N06","secret":"14ac1f9dc8","server":"65535","farm":66,"title":"Larus delawarensis - Ring-billed Gull","ispublic":1,"isfriend":0,"isfamily":0},{"id":"52721993135","owner":"135328172@N06","secret":"db0c91cc28","server":"65535","farm":66,"title":"Larus delawarensis - Ring-billed Gull","ispublic":1,"isfriend":0,"isfamily":0},{"id":"52718056813","owner":"161505078@N03","secret":"15e93166b6","server":"65535","farm":66,"title":"ring-billed gull (Larus delawarensis)","ispublic":1,"isfriend":0,"isfamily":0},{"id":"52715494982","owner":"100108154@N02","secret":"5e076f8314","server":"65535","farm":66,"title":"This Is My Noble Gull Pose","ispublic":1,"isfriend":0,"isfamily":0},{"id":"52714518145","owner":"62043870@N05","secret":"5d92d16f0d","server":"65535","farm":66,"title":"Ring-billed Gull, Larus delawarensis","ispublic":1,"isfriend":0,"isfamily":0},{"id":"52712703127","owner":"161505078@N03","secret":"2c914b775e","server":"65535","farm":66,"title":"ring-billed gull (Larus delawarensis)","ispublic":1,"isfriend":0,"isfamily":0},{"id":"52712156380","owner":"103722035@N06","secret":"689f73cf62","server":"65535","farm":66,"title":"Ring-billed Gull (Larus delawarensis), Morro Bay, CA","ispublic":1,"isfriend":0,"isfamily":0},{"id":"52711216627","owner":"103722035@N06","secret":"5608efeef4","server":"65535","farm":66,"title":"Ring-billed Gull (Larus delawarensis), Morro Bay, CA","ispublic":1,"isfriend":0,"isfamily":0},{"id":"52710673480","owner":"51106497@N03","secret":"0ae86e957d","server":"65535","farm":66,"title":"Ring-billed Gull","ispublic":1,"isfriend":0,"isfamily":0},{"id":"52710045636","owner":"34238008@N02","secret":"a943e6fa6d","server":"65535","farm":66,"title":"Ring-billed Gull, alt (Larus delawarensis)","ispublic":1,"isfriend":0,"isfamily":0},{"id":"52710306349","owner":"34238008@N02","secret":"2ef410e38c","server":"65535","farm":66,"title":"Ring-billed Gull, alt (Larus delawarensis)","ispublic":1,"isfriend":0,"isfamily":0},{"id":"52709419439","owner":"42034882@N00","secret":"0458365afc","server":"65535","farm":66,"title":"Loitering","ispublic":1,"isfriend":0,"isfamily":0},{"id":"52708599401","owner":"18739614@N00","secret":"3ac14341e2","server":"65535","farm":66,"title":"Ring-billed Gull","ispublic":1,"isfriend":0,"isfamily":0},{"id":"52706773804","owner":"157220357@N08","secret":"6bd3923b37","server":"65535","farm":66,"title":"Blackrock Ring-billed Gull","ispublic":1,"isfriend":0,"isfamily":0},{"id":"52702699704","owner":"161505078@N03","secret":"a1291936c5","server":"65535","farm":66,"title":"ring-billed gull (Larus delawarensis)","ispublic":1,"isfriend":0,"isfamily":0},{"id":"52701591502","owner":"36013467@N07","secret":"b324964f9a","server":"65535","farm":66,"title":"Ring-billed Gull (Larus delawarensis)","ispublic":1,"isfriend":0,"isfamily":0},{"id":"52700830922","owner":"161505078@N03","secret":"d945822933","server":"65535","farm":66,"title":"ring-billed gull (Larus delawarensis)","ispublic":1,"isfriend":0,"isfamily":0},{"id":"52701341161","owner":"161505078@N03","secret":"5b33642932","server":"65535","farm":66,"title":"ring-billed gull (Larus delawarensis)","ispublic":1,"isfriend":0,"isfamily":0},{"id":"52700315842","owner":"161505078@N03","secret":"b85762c34d","server":"65535","farm":66,"title":"ring-billed gull (Larus delawarensis)","ispublic":1,"isfriend":0,"isfamily":0},{"id":"52700018872","owner":"161505078@N03","secret":"be0962359e","server":"65535","farm":66,"title":"ring-billed gull (Larus delawarensis)","ispublic":1,"isfriend":0,"isfamily":0},{"id":"52700698674","owner":"161505078@N03","secret":"d60122d9e2","server":"65535","farm":66,"title":"ring-billed gull (Larus delawarensis)","ispublic":1,"isfriend":0,"isfamily":0},{"id":"52700345566","owner":"161505078@N03","secret":"165f345db8","server":"65535","farm":66,"title":"ring-billed gull (Larus delawarensis)","ispublic":1,"isfriend":0,"isfamily":0},{"id":"52700273846","owner":"161505078@N03","secret":"c0d9ab0762","server":"65535","farm":66,"title":"ring-billed gull (Larus delawarensis)","ispublic":1,"isfriend":0,"isfamily":0},{"id":"52699554852","owner":"36013467@N07","secret":"7e671810f9","server":"65535","farm":66,"title":"Ring-billed Gull (Larus delawarensis)","ispublic":1,"isfriend":0,"isfamily":0},{"id":"52697825787","owner":"18739614@N00","secret":"a309db0e08","server":"65535","farm":66,"title":"Ring-billed Gull","ispublic":1,"isfriend":0,"isfamily":0},{"id":"52697830660","owner":"195041250@N03","secret":"d4d183f449","server":"65535","farm":66,"title":"Ring-billed Gull","ispublic":1,"isfriend":0,"isfamily":0},{"id":"52697489495","owner":"17654080@N08","secret":"81e514012e","server":"65535","farm":66,"title":"Ring-billed Gull, banded adult (Larus delawarensis)","ispublic":1,"isfriend":0,"isfamily":0},{"id":"52697072011","owner":"17654080@N08","secret":"65bdb8b8f0","server":"65535","farm":66,"title":"Ring-billed Gull, banded adult (Larus delawarensis)","ispublic":1,"isfriend":0,"isfamily":0},{"id":"52695531638","owner":"46197304@N04","secret":"093d2e6ba1","server":"65535","farm":66,"title":"Ring-billed Gull Portrait","ispublic":1,"isfriend":0,"isfamily":0},{"id":"52694857285","owner":"100108154@N02","secret":"c68f81a0ca","server":"65535","farm":66,"title":"I Got A Teeny Tiny Seed!","ispublic":1,"isfriend":0,"isfamily":0},{"id":"52691934179","owner":"33610210@N05","secret":"fcb1b1c9c3","server":"65535","farm":66,"title":"Ring-billed Gull, Larus delawarensis","ispublic":1,"isfriend":0,"isfamily":0},{"id":"52689845939","owner":"100108154@N02","secret":"5c197bda9a","server":"65535","farm":66,"title":"Tag! You're It!","ispublic":1,"isfriend":0,"isfamily":0},{"id":"52689997410","owner":"57126723@N07","secret":"cd722b4342","server":"65535","farm":66,"title":"Larus delawarensis\u2014Ring-billed gull\u2014New Quarter Park-8656-Edit-Edit","ispublic":1,"isfriend":0,"isfamily":0},{"id":"52688607291","owner":"53477149@N02","secret":"e692e6cfe3","server":"65535","farm":66,"title":"\"Hey, You're Not My Daddy!\"","ispublic":1,"isfriend":0,"isfamily":0},{"id":"52687188665","owner":"100108154@N02","secret":"9bde24d913","server":"65535","farm":66,"title":"I Don't Know George, What Do You Think It Is?","ispublic":1,"isfriend":0,"isfamily":0},{"id":"52681796599","owner":"23711298@N07","secret":"14e0fce5dc","server":"65535","farm":66,"title":"Gull- Ring-billed Gull, Florida, Volusia County- Ormond Beach","ispublic":1,"isfriend":0,"isfamily":0},{"id":"52681780564","owner":"61316002@N02","secret":"1ab2133082","server":"65535","farm":66,"title":"RINBILGUL Im 0112","ispublic":1,"isfriend":0,"isfamily":0},{"id":"52681178530","owner":"57126723@N07","secret":"149072e71c","server":"65535","farm":66,"title":"Ring-billed gull\u2014Larus delawarensis\u2014Newport News Park-8443","ispublic":1,"isfriend":0,"isfamily":0},{"id":"52681031588","owner":"100108154@N02","secret":"54f546e385","server":"65535","farm":66,"title":"Solitude","ispublic":1,"isfriend":0,"isfamily":0},{"id":"52680195470","owner":"65148649@N04","secret":"b9fbf8f147","server":"65535","farm":66,"title":"Ring-Billed Gulls 02.04.23 Anderson","ispublic":1,"isfriend":0,"isfamily":0},{"id":"52678367776","owner":"124995824@N08","secret":"c31f75fc01","server":"65535","farm":66,"title":"Ring-billed Gull - Larus delawarensis","ispublic":1,"isfriend":0,"isfamily":0},{"id":"52675636082","owner":"195041250@N03","secret":"ca1107ee57","server":"65535","farm":66,"title":"Ring-billed Gull","ispublic":1,"isfriend":0,"isfamily":0},{"id":"52675317379","owner":"188352054@N08","secret":"c36a3cd4d0","server":"65535","farm":66,"title":"IMG_6760","ispublic":1,"isfriend":0,"isfamily":0},{"id":"52674523837","owner":"188352054@N08","secret":"3b6132a9c8","server":"65535","farm":66,"title":"IMG_6886","ispublic":1,"isfriend":0,"isfamily":0},{"id":"52673986174","owner":"7713364@N08","secret":"f6ec843ba3","server":"65535","farm":66,"title":"Especie en proceso de identificaci\u00f3n.","ispublic":1,"isfriend":0,"isfamily":0},{"id":"52672027369","owner":"52450054@N04","secret":"2aaf172e9b","server":"65535","farm":66,"title":"036\/365 - Ring-billed Gull - Larus delawarensis, Leesylvania State Park, Woodbridge, Virginia, February 5, 2023","ispublic":1,"isfriend":0,"isfamily":0},{"id":"52671694015","owner":"7261670@N03","secret":"231c70ca19","server":"65535","farm":66,"title":"Ring-billed Gull","ispublic":1,"isfriend":0,"isfamily":0},{"id":"52670736735","owner":"7713364@N08","secret":"c5f7b62643","server":"65535","farm":66,"title":"Especie de Gaviota en proceso de Identificaci\u00f3n.","ispublic":1,"isfriend":0,"isfamily":0},{"id":"52670579914","owner":"7713364@N08","secret":"5cb6c5d5f0","server":"65535","farm":66,"title":"Especie de Gaviota en proceso de Identificaci\u00f3n.","ispublic":1,"isfriend":0,"isfamily":0},{"id":"52669168335","owner":"7713364@N08","secret":"d3f6467edc","server":"65535","farm":66,"title":"Especie de Gaviota en proceso de Identificaci\u00f3n.","ispublic":1,"isfriend":0,"isfamily":0},{"id":"52667929867","owner":"110624976@N05","secret":"5696fe43bf","server":"65535","farm":66,"title":"Flock of gulls reflected in still Waters","ispublic":1,"isfriend":0,"isfamily":0},{"id":"52668664969","owner":"110624976@N05","secret":"0acd804db1","server":"65535","farm":66,"title":"Ring-billed Gull at first light","ispublic":1,"isfriend":0,"isfamily":0},{"id":"52666125637","owner":"11295713@N00","secret":"4c297e8437","server":"65535","farm":66,"title":"Ring-billed Gull (Larus delawarensis) in mid-morning Light","ispublic":1,"isfriend":0,"isfamily":0},{"id":"52666596456","owner":"11295713@N00","secret":"a5e5642a61","server":"65535","farm":66,"title":"Ring-billed Gull (Larus delawarensis) on the Beach","ispublic":1,"isfriend":0,"isfamily":0},{"id":"52664180110","owner":"63093099@N02","secret":"ddbdd653e7","server":"65535","farm":66,"title":"Larus sp. (immature, probably Ring-billed or Short-billed Gull); 20230201; USA-WA-King-Green Lake","ispublic":1,"isfriend":0,"isfamily":0},{"id":"52664237438","owner":"63093099@N02","secret":"8d79737cb4","server":"65535","farm":66,"title":"Larus sp. (immature, probably Ring-billed or Short-billed Gull); 20230201; USA-WA-King-Green Lake","ispublic":1,"isfriend":0,"isfamily":0},{"id":"52662455337","owner":"52450054@N04","secret":"169b96e356","server":"65535","farm":66,"title":"Ring-billed Gull - Larus delawarensis, Leesylvania State Park, Woodbridge, Virginia, January 1, 2023","ispublic":1,"isfriend":0,"isfamily":0},{"id":"52662166755","owner":"8086030@N03","secret":"80f9a0c2fd","server":"65535","farm":66,"title":"Ring-billed Gull, Larus delawarensis","ispublic":1,"isfriend":0,"isfamily":0},{"id":"52660525873","owner":"136180232@N08","secret":"2f78acc79e","server":"65535","farm":66,"title":"Ring-billed Gull (Larus delawarensis) JTE_0643","ispublic":1,"isfriend":0,"isfamily":0},{"id":"52659593321","owner":"100108154@N02","secret":"ee43000cf3","server":"65535","farm":66,"title":"A Gull & Its Minions","ispublic":1,"isfriend":0,"isfamily":0},{"id":"52657307981","owner":"91064752@N03","secret":"d0f8a072eb","server":"65535","farm":66,"title":"Ring-billed Gull Standing on Icy Ground","ispublic":1,"isfriend":0,"isfamily":0},{"id":"52657316190","owner":"143326780@N02","secret":"df73188394","server":"65535","farm":66,"title":"DSCN2302","ispublic":1,"isfriend":0,"isfamily":0},{"id":"52655524459","owner":"63093099@N02","secret":"9b1b10d7eb","server":"65535","farm":66,"title":"Ring-billed Gull (front) and Glaucous-winged Gull (back); 20230128; USA-WA-Seattle-Green Lake","ispublic":1,"isfriend":0,"isfamily":0},{"id":"52654947849","owner":"135315828@N06","secret":"d69848920e","server":"65535","farm":66,"title":"ring-billed gull","ispublic":1,"isfriend":0,"isfamily":0},{"id":"52654180082","owner":"135315828@N06","secret":"89d2d55db5","server":"65535","farm":66,"title":"ring-billed gull","ispublic":1,"isfriend":0,"isfamily":0},{"id":"52655109850","owner":"135315828@N06","secret":"7b17492c00","server":"65535","farm":66,"title":"ring-billed gull","ispublic":1,"isfriend":0,"isfamily":0},{"id":"52654179917","owner":"135315828@N06","secret":"035bfe8b3d","server":"65535","farm":66,"title":"ring-billed gull","ispublic":1,"isfriend":0,"isfamily":0},{"id":"52651780178","owner":"62043870@N05","secret":"f704da2a76","server":"65535","farm":66,"title":"Black Skimmer (Rynchops niger) and Ring-billed Gull (Larus delawarensis) in front of the Santa Cruz Beach Boardwalk","ispublic":1,"isfriend":0,"isfamily":0},{"id":"52651738420","owner":"62043870@N05","secret":"b05ebfb8ef","server":"65535","farm":66,"title":"Ring-billed Gull, Larus delawarensis","ispublic":1,"isfriend":0,"isfamily":0},{"id":"52645075382","owner":"8013969@N03","secret":"5c9c5a491b","server":"65535","farm":66,"title":"Larus delawarensis DFL btr22-2","ispublic":1,"isfriend":0,"isfamily":0},{"id":"52645711740","owner":"14572247@N07","secret":"27855962c0","server":"65535","farm":66,"title":"Auf einem Bein","ispublic":1,"isfriend":0,"isfamily":0},{"id":"52645106919","owner":"146455226@N02","secret":"9aef90c616","server":"65535","farm":66,"title":"Ring-billed Gull","ispublic":1,"isfriend":0,"isfamily":0},{"id":"52642745331","owner":"8904060@N06","secret":"aa8eaf81f5","server":"65535","farm":66,"title":"Ring-billed Gull","ispublic":1,"isfriend":0,"isfamily":0},{"id":"52642415434","owner":"40941741@N03","secret":"ecdb1f00ba","server":"65535","farm":66,"title":"Willet and Sea Foam","ispublic":1,"isfriend":0,"isfamily":0},{"id":"52642415094","owner":"40941741@N03","secret":"5685daf01b","server":"65535","farm":66,"title":"Food Hunter","ispublic":1,"isfriend":0,"isfamily":0},{"id":"52641387548","owner":"135315828@N06","secret":"f77623a777","server":"65535","farm":66,"title":"ring-billed gull","ispublic":1,"isfriend":0,"isfamily":0},{"id":"52638275873","owner":"8065544@N08","secret":"b6f641b6f2","server":"65535","farm":66,"title":"Ring-billed Gull (Larus delawarensis)","ispublic":1,"isfriend":0,"isfamily":0},{"id":"52638238695","owner":"8065544@N08","secret":"66afd6f76f","server":"65535","farm":66,"title":"Ring-billed Gull (Larus delawarensis)","ispublic":1,"isfriend":0,"isfamily":0},{"id":"52638275763","owner":"8065544@N08","secret":"967da534f2","server":"65535","farm":66,"title":"Ring-billed Gull (Larus delawarensis)","ispublic":1,"isfriend":0,"isfamily":0},{"id":"52637853744","owner":"195990246@N03","secret":"69c0a7d1ca","server":"65535","farm":66,"title":"Ring-billed gulls (Larus delawarensis)","ispublic":1,"isfriend":0,"isfamily":0},{"id":"52638024478","owner":"65148649@N04","secret":"4ef8e68f13","server":"65535","farm":66,"title":"Common Mergansers Ring-Billed Gulls 2 01.07.23 Anderson","ispublic":1,"isfriend":0,"isfamily":0},{"id":"52637528876","owner":"65148649@N04","secret":"88231a3d5a","server":"65535","farm":66,"title":"Common Mergansers Ring-Billed Gulls 01.07.23 Rutherford E","ispublic":1,"isfriend":0,"isfamily":0},{"id":"52636046711","owner":"52450054@N04","secret":"bb7756ae9b","server":"65535","farm":66,"title":"018\/365 - Ring-billed Gull - Larus delawarensis, Leesylvania State Park, Woodbridge, Virginia, January 18, 2023","ispublic":1,"isfriend":0,"isfamily":0},{"id":"52634042461","owner":"28631427@N00","secret":"beb363ee7c","server":"65535","farm":66,"title":"Ring-billed Gulls","ispublic":1,"isfriend":0,"isfamily":0},{"id":"52634523838","owner":"28631427@N00","secret":"ba92baefb7","server":"65535","farm":66,"title":"Ring-billed Gull 2","ispublic":1,"isfriend":0,"isfamily":0},{"id":"52633525857","owner":"28631427@N00","secret":"c21c0206c9","server":"65535","farm":66,"title":"Ring-billed Gull 3","ispublic":1,"isfriend":0,"isfamily":0},{"id":"52634293304","owner":"28631427@N00","secret":"1a32de3d30","server":"65535","farm":66,"title":"Ring-billed Gull 4","ispublic":1,"isfriend":0,"isfamily":0},{"id":"52626875902","owner":"120699091@N02","secret":"c39ae2270b","server":"65535","farm":66,"title":"Ring-billed Gull","ispublic":1,"isfriend":0,"isfamily":0},{"id":"52626704542","owner":"182482490@N04","secret":"c6a62b3897","server":"65535","farm":66,"title":"Ring-billed_gull (Larus delawarensis)_Blmr_021622_WM","ispublic":1,"isfriend":0,"isfamily":0},{"id":"52681554822","owner":"34238008@N02","secret":"4b3eca7f07","server":"65535","farm":66,"title":"Ring-billed Gull (Larus delawarensis)","ispublic":1,"isfriend":0,"isfamily":0},{"id":"52682501100","owner":"34238008@N02","secret":"95144f57f7","server":"65535","farm":66,"title":"Ring-billed Gull (Larus delawarensis)","ispublic":1,"isfriend":0,"isfamily":0},{"id":"52657319060","owner":"57126723@N07","secret":"045e20801b","server":"65535","farm":66,"title":"Ring-billed gull\u2014Larus delawarensis\u2014Grandview Nature Preserve-8011","ispublic":1,"isfriend":0,"isfamily":0},{"id":"52637014042","owner":"65148649@N04","secret":"7a2df2d0e2","server":"65535","farm":66,"title":"Common Mergansers Ring-Billed Gulls 01.07.23 Rutherford K","ispublic":1,"isfriend":0,"isfamily":0},{"id":"52637969670","owner":"65148649@N04","secret":"ce9a296c7d","server":"65535","farm":66,"title":"Common Mergansers 01.07.23 Rutherford K","ispublic":1,"isfriend":0,"isfamily":0},{"id":"52635905523","owner":"71989271@N06","secret":"d3845c7028","server":"65535","farm":66,"title":"Ring-billed Gull (Larus delawarensis)","ispublic":1,"isfriend":0,"isfamily":0},{"id":"52634298559","owner":"28631427@N00","secret":"c2bc29d9b4","server":"65535","farm":66,"title":"Ring-billed Gull 1","ispublic":1,"isfriend":0,"isfamily":0},{"id":"52629581378","owner":"81058247@N08","secret":"45dd97e328","server":"65535","farm":66,"title":"Ring-billed Gull (Larus delawarensis)","ispublic":1,"isfriend":0,"isfamily":0}]},"stat":"ok"}