{"photos":{"page":1,"pages":74,"perpage":100,"total":7352,"photo":[{"id":"52792993460","owner":"14734088@N02","secret":"2e8c934b36","server":"65535","farm":66,"title":"Grand Harle 220430H3a","ispublic":1,"isfriend":0,"isfamily":0},{"id":"52791993240","owner":"42034882@N00","secret":"39f4363303","server":"65535","farm":66,"title":"Freeze Frame","ispublic":1,"isfriend":0,"isfamily":0},{"id":"52790907005","owner":"169771858@N03","secret":"16072e0f78","server":"65535","farm":66,"title":"Ring-Necked Duck #3 - 2022-04-09","ispublic":1,"isfriend":0,"isfamily":0},{"id":"52790894710","owner":"169771858@N03","secret":"bc308c0de2","server":"65535","farm":66,"title":"Ring-Necked Duck #3 - 2022-04-09","ispublic":1,"isfriend":0,"isfamily":0},{"id":"52789442453","owner":"37242840@N07","secret":"e96f0e950a","server":"65535","farm":66,"title":"Ring-necked Duck, Aythya collaris, male (1)","ispublic":1,"isfriend":0,"isfamily":0},{"id":"52789442358","owner":"37242840@N07","secret":"ab9bb6e6e3","server":"65535","farm":66,"title":"Ring-necked Duck, Aythya collaris, male (4)","ispublic":1,"isfriend":0,"isfamily":0},{"id":"52788436287","owner":"37242840@N07","secret":"359f406377","server":"65535","farm":66,"title":"Ring-necked Duck, Aythya collaris, male (9)","ispublic":1,"isfriend":0,"isfamily":0},{"id":"52787686621","owner":"128537732@N06","secret":"7e8a96cc4f","server":"65535","farm":66,"title":"Ring-necked Ducks (Aythya collaris)","ispublic":1,"isfriend":0,"isfamily":0},{"id":"52788108518","owner":"144980256@N07","secret":"d19c1d1d37","server":"65535","farm":66,"title":"Ring-necked Duck (Aythya collaris)","ispublic":1,"isfriend":0,"isfamily":0},{"id":"52786409652","owner":"144980256@N07","secret":"7239e633ae","server":"65535","farm":66,"title":"Ring-necked Duck (Aythya collaris)","ispublic":1,"isfriend":0,"isfamily":0},{"id":"52787194124","owner":"144980256@N07","secret":"2a7e8807d0","server":"65535","farm":66,"title":"Ring-necked Duck (Aythya collaris)","ispublic":1,"isfriend":0,"isfamily":0},{"id":"52787217148","owner":"25899079@N08","secret":"a7f826ee66","server":"65535","farm":66,"title":"Canvasback;Ring-necked Duck (9995)","ispublic":1,"isfriend":0,"isfamily":0},{"id":"52786086660","owner":"44904157@N04","secret":"e7332c79c2","server":"65535","farm":66,"title":"Ring-necked Duck","ispublic":1,"isfriend":0,"isfamily":0},{"id":"52784716461","owner":"67306066@N03","secret":"b702c5a120","server":"65535","farm":66,"title":"Ring-necked Duck (Aythya collaris)","ispublic":1,"isfriend":0,"isfamily":0},{"id":"52784165332","owner":"67306066@N03","secret":"6f0f9b58de","server":"65535","farm":66,"title":"Ring-necked Duck (Aythya collaris)","ispublic":1,"isfriend":0,"isfamily":0},{"id":"52784165062","owner":"67306066@N03","secret":"14b7dcb5e6","server":"65535","farm":66,"title":"Ring-necked Duck (Aythya collaris)","ispublic":1,"isfriend":0,"isfamily":0},{"id":"52782082587","owner":"36685968@N00","secret":"9fae1ca14d","server":"65535","farm":66,"title":"Ring-necked Duck (Aythya collaris)","ispublic":1,"isfriend":0,"isfamily":0},{"id":"52782627301","owner":"36685968@N00","secret":"4a09b47a25","server":"65535","farm":66,"title":"Ring-necked Duck (Aythya collaris)","ispublic":1,"isfriend":0,"isfamily":0},{"id":"52781797692","owner":"71933035@N00","secret":"397c5cce9d","server":"65535","farm":66,"title":"Ring-necked Ducks (Aythya collaris) and Greater Scaup (Aythya marila) at Bissett Lake, Dartmouth Nova Scotia","ispublic":1,"isfriend":0,"isfamily":0},{"id":"52781745412","owner":"183736567@N07","secret":"b8b35189eb","server":"65535","farm":66,"title":"Ring-necked Duck (Aythya collaris) with attitude","ispublic":1,"isfriend":0,"isfamily":0},{"id":"52781559119","owner":"61030434@N02","secret":"2d90c7d96b","server":"65535","farm":66,"title":"Aythya collaris","ispublic":1,"isfriend":0,"isfamily":0},{"id":"52779552975","owner":"42415395@N07","secret":"0aa18b5797","server":"65535","farm":66,"title":"Ring-necked Duck -- Female (Aythya collaris); Albuquerque, NM, Tingley Beach Park [Lou Feltz]","ispublic":1,"isfriend":0,"isfamily":0},{"id":"52779054164","owner":"48983733@N05","secret":"76dbeb2949","server":"65535","farm":66,"title":"Ring-necked duck ~ Aythya collaris","ispublic":1,"isfriend":0,"isfamily":0},{"id":"52777708839","owner":"7261670@N03","secret":"4d70d4eea6","server":"65535","farm":66,"title":"Ring-necked Duck","ispublic":1,"isfriend":0,"isfamily":0},{"id":"52777464954","owner":"54724497@N02","secret":"4bc9e6bd03","server":"65535","farm":66,"title":"Ringand, Aythya collaris, Ring-necked Duck","ispublic":1,"isfriend":0,"isfamily":0},{"id":"52777689563","owner":"54724497@N02","secret":"b719728400","server":"65535","farm":66,"title":"Ringand, Aythya collaris, Ring-necked Duck","ispublic":1,"isfriend":0,"isfamily":0},{"id":"52767980408","owner":"8666250@N02","secret":"d0cf5df8ff","server":"65535","farm":66,"title":"Ms Ring-necked Duck of the Fish Pond -06","ispublic":1,"isfriend":0,"isfamily":0},{"id":"52767904635","owner":"8666250@N02","secret":"ec375ebaf2","server":"65535","farm":66,"title":"Ms Ring-necked Duck of the Fish Pond -04","ispublic":1,"isfriend":0,"isfamily":0},{"id":"52765491822","owner":"195409487@N05","secret":"02f40bec1a","server":"65535","farm":66,"title":"Ringand-Ring-necked Duck-Aythya collaris","ispublic":1,"isfriend":0,"isfamily":0},{"id":"52766518093","owner":"195409487@N05","secret":"27499ec005","server":"65535","farm":66,"title":"Ringand-Ring-necked Duck-Aythya collaris","ispublic":1,"isfriend":0,"isfamily":0},{"id":"52763229182","owner":"169771858@N03","secret":"65974e79bf","server":"65535","farm":66,"title":"Ring-Necked Duck #2 - 2022-04-03","ispublic":1,"isfriend":0,"isfamily":0},{"id":"52763807129","owner":"8666250@N02","secret":"cc0ebc22ea","server":"65535","farm":66,"title":"Mr Ring-neck 230305 -06","ispublic":1,"isfriend":0,"isfamily":0},{"id":"52763962860","owner":"8666250@N02","secret":"e938ed50bf","server":"65535","farm":66,"title":"\"You. wanted to see my ring? Well...","ispublic":1,"isfriend":0,"isfamily":0},{"id":"52764044068","owner":"8666250@N02","secret":"6376682082","server":"65535","farm":66,"title":"Mr Ring-neck 230305 -07","ispublic":1,"isfriend":0,"isfamily":0},{"id":"52764044008","owner":"8666250@N02","secret":"e93b722a56","server":"65535","farm":66,"title":"Mr Ring-neck 230305 -10","ispublic":1,"isfriend":0,"isfamily":0},{"id":"52763013372","owner":"8666250@N02","secret":"a0d8866709","server":"65535","farm":66,"title":"\"Sometimes I forget...","ispublic":1,"isfriend":0,"isfamily":0},{"id":"52761936153","owner":"41798562@N07","secret":"9fc9a96951","server":"65535","farm":66,"title":"Ring-necked Duck (Aythya collaris) \u2640","ispublic":1,"isfriend":0,"isfamily":0},{"id":"52760901297","owner":"41798562@N07","secret":"57e8e3dac2","server":"65535","farm":66,"title":"Ring-necked Duck (Aythya collaris) \u2640","ispublic":1,"isfriend":0,"isfamily":0},{"id":"52761853510","owner":"41798562@N07","secret":"b41e0f15d1","server":"65535","farm":66,"title":"Ring-necked Duck (Aythya collaris) \u2640","ispublic":1,"isfriend":0,"isfamily":0},{"id":"52760901067","owner":"41798562@N07","secret":"c45d1417f2","server":"65535","farm":66,"title":"Ring-necked Duck (Aythya collaris) \u2640","ispublic":1,"isfriend":0,"isfamily":0},{"id":"52761853240","owner":"41798562@N07","secret":"35814bf359","server":"65535","farm":66,"title":"Ring-necked Duck (Aythya collaris) \u2640","ispublic":1,"isfriend":0,"isfamily":0},{"id":"52761935553","owner":"41798562@N07","secret":"1dbbe3394f","server":"65535","farm":66,"title":"Ring-necked Duck (Aythya collaris) \u2640","ispublic":1,"isfriend":0,"isfamily":0},{"id":"52761852950","owner":"41798562@N07","secret":"a1818b4eac","server":"65535","farm":66,"title":"Ring-necked Duck (Aythya collaris) \u2640","ispublic":1,"isfriend":0,"isfamily":0},{"id":"52760900677","owner":"41798562@N07","secret":"5a1e231182","server":"65535","farm":66,"title":"Ring-necked Duck (Aythya collaris) \u2640","ispublic":1,"isfriend":0,"isfamily":0},{"id":"52761033133","owner":"190764460@N06","secret":"c976a13b05","server":"65535","farm":66,"title":"RNDU#3","ispublic":1,"isfriend":0,"isfamily":0},{"id":"52757851631","owner":"25899079@N08","secret":"8819b42496","server":"65535","farm":66,"title":"Ring-necked Duck (9404)","ispublic":1,"isfriend":0,"isfamily":0},{"id":"52769116180","owner":"195656112@N04","secret":"cf96e86daf","server":"65535","farm":66,"title":"Ring-necked Duck","ispublic":1,"isfriend":0,"isfamily":0},{"id":"52755205394","owner":"42415395@N07","secret":"a795a5f6a2","server":"65535","farm":66,"title":"Ring-necked Duck -- Female (Aythya collaris); Albuquerque, NM, Tingley Beach Park [Lou Feltz]","ispublic":1,"isfriend":0,"isfamily":0},{"id":"52750179624","owner":"143191186@N04","secret":"bc11aa8aba","server":"65535","farm":66,"title":"Ring-Necked Duck (Aythya collaris)","ispublic":1,"isfriend":0,"isfamily":0},{"id":"52749400492","owner":"143191186@N04","secret":"6b3993908c","server":"65535","farm":66,"title":"Ring-Necked Duck (Aythya collaris)","ispublic":1,"isfriend":0,"isfamily":0},{"id":"52749931891","owner":"143191186@N04","secret":"b2966b14b3","server":"65535","farm":66,"title":"Ring-Necked Duck (Aythya collaris)","ispublic":1,"isfriend":0,"isfamily":0},{"id":"52746929817","owner":"48983733@N05","secret":"00af705636","server":"65535","farm":66,"title":"Ring-necked duck ~ Aythya collaris","ispublic":1,"isfriend":0,"isfamily":0},{"id":"52746493273","owner":"197628215@N07","secret":"fc6980021a","server":"65535","farm":66,"title":"Ring-necked Duck (Aythya collaris) Greater Scaup (Aythya marila) Ring-necked Duck (Aythya collaris)  Mallard (Anas platyrhynchos)  Northern Pintail (Anas acuta) 02\/27\/2023 #ducks #duck #bestbackroad #bestbackroads #natgeoyourshots #natgeo100contest #natge","ispublic":1,"isfriend":0,"isfamily":0},{"id":"52744193320","owner":"89318362@N05","secret":"ee3b93ea77","server":"65535","farm":66,"title":"Ring-necked Duck","ispublic":1,"isfriend":0,"isfamily":0},{"id":"52743630968","owner":"197880057@N07","secret":"18367d3202","server":"65535","farm":66,"title":"Fuligule \u00e0 bec cercl\u00e9","ispublic":1,"isfriend":0,"isfamily":0},{"id":"52743442135","owner":"8666250@N02","secret":"b0b5f8767c","server":"65535","farm":66,"title":"Ring-neck with snowflakes -02","ispublic":1,"isfriend":0,"isfamily":0},{"id":"52743279329","owner":"8666250@N02","secret":"665e0a88be","server":"65535","farm":66,"title":"Ring-necks with snowflakes -01","ispublic":1,"isfriend":0,"isfamily":0},{"id":"52743441790","owner":"8666250@N02","secret":"d6d0036fc1","server":"65535","farm":66,"title":"Ring-neck with snowflakes -01","ispublic":1,"isfriend":0,"isfamily":0},{"id":"52743441640","owner":"8666250@N02","secret":"fe7258211b","server":"65535","farm":66,"title":"Ring-neck with snowflakes -03","ispublic":1,"isfriend":0,"isfamily":0},{"id":"52742869879","owner":"47200218@N02","secret":"47f6acc071","server":"65535","farm":66,"title":"Ring-necked duck \"Aythya collaris\"","ispublic":1,"isfriend":0,"isfamily":0},{"id":"52742871004","owner":"81058247@N08","secret":"e6ec1f62da","server":"65535","farm":66,"title":"Ring-necked Duck (Aythya collaris)","ispublic":1,"isfriend":0,"isfamily":0},{"id":"52742564466","owner":"124995824@N08","secret":"2e252141e2","server":"65535","farm":66,"title":"Ring-necked Duck - Aythya collaris","ispublic":1,"isfriend":0,"isfamily":0},{"id":"52741760614","owner":"18378985@N08","secret":"6e5ae53faa","server":"65535","farm":66,"title":"Ring-necked duck","ispublic":1,"isfriend":0,"isfamily":0},{"id":"52740554878","owner":"145466593@N08","secret":"991ebbbe33","server":"65535","farm":66,"title":"Ring-necked Duck  (m)","ispublic":1,"isfriend":0,"isfamily":0},{"id":"52740151729","owner":"169771858@N03","secret":"95ab98eb3d","server":"65535","farm":66,"title":"Ring-Necked Duck #4 - 2022-04-02","ispublic":1,"isfriend":0,"isfamily":0},{"id":"52739070893","owner":"91782578@N00","secret":"e972aff8a8","server":"65535","farm":66,"title":"Ring-necked duck (female) (Aythya collaris)","ispublic":1,"isfriend":0,"isfamily":0},{"id":"52736008165","owner":"103722035@N06","secret":"86e3405f64","server":"65535","farm":66,"title":"Ring-necked Duck (Aythya collaris), Pismo Beach CA","ispublic":1,"isfriend":0,"isfamily":0},{"id":"52735070532","owner":"103722035@N06","secret":"ffa8d2999f","server":"65535","farm":66,"title":"Ring-necked Duck (Aythya collaris), Pismo Beach CA","ispublic":1,"isfriend":0,"isfamily":0},{"id":"52736007895","owner":"103722035@N06","secret":"398cc80cf0","server":"65535","farm":66,"title":"Ring-necked Duck (Aythya collaris), Pismo Beach CA","ispublic":1,"isfriend":0,"isfamily":0},{"id":"52735674503","owner":"169771858@N03","secret":"0a33697c60","server":"65535","farm":66,"title":"Ring-Necked Duck #6 - 2022-04-02","ispublic":1,"isfriend":0,"isfamily":0},{"id":"52735317979","owner":"12240837@N08","secret":"07f9cfc112","server":"65535","farm":66,"title":"Ring-necked Duck (aythya collaris)","ispublic":1,"isfriend":0,"isfamily":0},{"id":"52735317954","owner":"12240837@N08","secret":"864d6abd92","server":"65535","farm":66,"title":"Ring-necked Duck (aythya collaris)","ispublic":1,"isfriend":0,"isfamily":0},{"id":"52735064336","owner":"12240837@N08","secret":"db8b386d0b","server":"65535","farm":66,"title":"Ring-necked Duck (aythya collaris) and Pochard (aythya ferina)","ispublic":1,"isfriend":0,"isfamily":0},{"id":"52734476417","owner":"12240837@N08","secret":"e8cd7e2c9c","server":"65535","farm":66,"title":"Ring-necked Duck (aythya collaris)","ispublic":1,"isfriend":0,"isfamily":0},{"id":"52734787551","owner":"71933035@N00","secret":"f247327ef2","server":"65535","farm":66,"title":"Bathing Male Ring-necked Duck (Aythya collaris) at Sullivan's Pond Dartmouth Nova Scotia","ispublic":1,"isfriend":0,"isfamily":0},{"id":"52735266628","owner":"71933035@N00","secret":"acdb53211e","server":"65535","farm":66,"title":"Male Ring-necked Duck (Aythya collaris) at Sullivan's Pond Dartmouth Nova Scotia","ispublic":1,"isfriend":0,"isfamily":0},{"id":"52734263277","owner":"71933035@N00","secret":"8569d17bf5","server":"65535","farm":66,"title":"Male Ring-necked Duck (Aythya collaris) at Sullivan's Pond Dartmouth Nova Scotia","ispublic":1,"isfriend":0,"isfamily":0},{"id":"52732702247","owner":"21558080@N07","secret":"608565a7f7","server":"65535","farm":66,"title":"Ring-necked Duck (Aythya collaris)","ispublic":1,"isfriend":0,"isfamily":0},{"id":"52732679513","owner":"8666250@N02","secret":"1075c860b5","server":"65535","farm":66,"title":"\"Back in five minutes!\" they said....","ispublic":1,"isfriend":0,"isfamily":0},{"id":"52729714397","owner":"57356301@N06","secret":"2506d82145","server":"65535","farm":66,"title":"Ring-necked Duck, Aythya collaris","ispublic":1,"isfriend":0,"isfamily":0},{"id":"52729563655","owner":"8666250@N02","secret":"34ccfca37d","server":"65535","farm":66,"title":"Ring-necks at the Fish Pond -02","ispublic":1,"isfriend":0,"isfamily":0},{"id":"52729563560","owner":"8666250@N02","secret":"b5fe824160","server":"65535","farm":66,"title":"RNDU drake at the Fish Pond 230222 -08","ispublic":1,"isfriend":0,"isfamily":0},{"id":"52729631163","owner":"8666250@N02","secret":"63ba507979","server":"65535","farm":66,"title":"RNDU drake at the Fish Pond 230222 -10","ispublic":1,"isfriend":0,"isfamily":0},{"id":"52729151721","owner":"8666250@N02","secret":"ab96d26ccc","server":"65535","farm":66,"title":"RNDU drake at the Fish Pond 230222 -07","ispublic":1,"isfriend":0,"isfamily":0},{"id":"52728630407","owner":"8666250@N02","secret":"26aabc936e","server":"65535","farm":66,"title":"RNDU drake at the Fish Pond 230222 -12","ispublic":1,"isfriend":0,"isfamily":0},{"id":"52729385655","owner":"66855284@N03","secret":"132dbb3f08","server":"65535","farm":66,"title":"Ring-Necked Duck 2023 03 04 04","ispublic":1,"isfriend":0,"isfamily":0},{"id":"52728973766","owner":"66855284@N03","secret":"f25d6d62cf","server":"65535","farm":66,"title":"Ring-Necked Duck 2023 03 04 01","ispublic":1,"isfriend":0,"isfamily":0},{"id":"52728450177","owner":"66855284@N03","secret":"d661ca82ee","server":"65535","farm":66,"title":"Ring-Necked Duck 2023 03 04 02","ispublic":1,"isfriend":0,"isfamily":0},{"id":"52727651465","owner":"39177293@N03","secret":"35cfc53340","server":"65535","farm":66,"title":"Ring-necked Ducks","ispublic":1,"isfriend":0,"isfamily":0},{"id":"52726229449","owner":"169771858@N03","secret":"e43110ab4d","server":"65535","farm":66,"title":"Common Merganser #3 - 2022-04-02","ispublic":1,"isfriend":0,"isfamily":0},{"id":"52724325850","owner":"57126723@N07","secret":"d253b5c361","server":"65535","farm":66,"title":"Ring-necked duck\u2014Aythya collaris\u2014Greensprings trail-9294","ispublic":1,"isfriend":0,"isfamily":0},{"id":"52723655255","owner":"37242840@N07","secret":"3590eb115c","server":"65535","farm":66,"title":"Bufflehead Ducks, Bucephala albeola and Ring-necked Ducks, Aythya collaris","ispublic":1,"isfriend":0,"isfamily":0},{"id":"52723655125","owner":"37242840@N07","secret":"5ff2f6d3d5","server":"65535","farm":66,"title":"Ring-necked Duck, Aythya collaris, male (1)","ispublic":1,"isfriend":0,"isfamily":0},{"id":"52723655100","owner":"37242840@N07","secret":"69ebece1a4","server":"65535","farm":66,"title":"Ring-necked Duck, Aythya collaris, male (2)","ispublic":1,"isfriend":0,"isfamily":0},{"id":"52722722832","owner":"37242840@N07","secret":"0111feb07c","server":"65535","farm":66,"title":"Ring-necked Duck, Aythya collaris, male (5)","ispublic":1,"isfriend":0,"isfamily":0},{"id":"52723725078","owner":"37242840@N07","secret":"c933f6eeff","server":"65535","farm":66,"title":"Ring-necked Ducks, Aythya collaris (1)","ispublic":1,"isfriend":0,"isfamily":0},{"id":"52722722757","owner":"37242840@N07","secret":"4b7cf3fd11","server":"65535","farm":66,"title":"Ring-necked Ducks, Aythya collaris (4)","ispublic":1,"isfriend":0,"isfamily":0},{"id":"52723251146","owner":"37242840@N07","secret":"bbcf203f76","server":"65535","farm":66,"title":"Ring-necked Ducks, Aythya collaris (6)","ispublic":1,"isfriend":0,"isfamily":0},{"id":"52764044283","owner":"8666250@N02","secret":"f4ce8564b2","server":"65535","farm":66,"title":"Shattering the divide!","ispublic":1,"isfriend":0,"isfamily":0},{"id":"52728630737","owner":"8666250@N02","secret":"88cbb63cea","server":"65535","farm":66,"title":"RNDU drake at the Fish Pond 230222 -06","ispublic":1,"isfriend":0,"isfamily":0}]},"stat":"ok"}