{"photos":{"page":1,"pages":2,"perpage":100,"total":197,"photo":[{"id":"52457974264","owner":"182959673@N06","secret":"480ec70540","server":"65535","farm":66,"title":"Rockwarbler - Heathcote National Park, NSW","ispublic":1,"isfriend":0,"isfamily":0},{"id":"52392039889","owner":"195263598@N04","secret":"e782894ec3","server":"65535","farm":66,"title":"Rockwarbler","ispublic":1,"isfriend":0,"isfamily":0},{"id":"52391718231","owner":"195263598@N04","secret":"3fc3ea0edd","server":"65535","farm":66,"title":"Rockwarbler","ispublic":1,"isfriend":0,"isfamily":0},{"id":"52032737496","owner":"151677249@N08","secret":"89f013e95c","server":"65535","farm":66,"title":"Rockwarbler (Origma solitaria)","ispublic":1,"isfriend":0,"isfamily":0},{"id":"51878128668","owner":"37934762@N02","secret":"303c3072ea","server":"65535","farm":66,"title":"Rockwarbler - Origma solitaria","ispublic":1,"isfriend":0,"isfamily":0},{"id":"51361906498","owner":"125933031@N05","secret":"abb80e04a5","server":"65535","farm":66,"title":"Rock Rover","ispublic":1,"isfriend":0,"isfamily":0},{"id":"51227239545","owner":"181730277@N07","secret":"2ae0cfc60c","server":"65535","farm":66,"title":"Rockwarbler (Origma solitaria) Ben\u2019s Walk, Nowra, NSW, Australia","ispublic":1,"isfriend":0,"isfamily":0},{"id":"50802544153","owner":"31350467@N04","secret":"849598cc3c","server":"65535","farm":66,"title":"Rockwarbler (Origma solitaria)","ispublic":1,"isfriend":0,"isfamily":0},{"id":"49976546872","owner":"40195635@N03","secret":"20ba427180","server":"65535","farm":66,"title":"Rockwarbler (Origma solitaria)","ispublic":1,"isfriend":0,"isfamily":0},{"id":"49270802872","owner":"66716461@N04","secret":"cacca750cd","server":"65535","farm":66,"title":"rockwarbler (Origma solitaria)","ispublic":1,"isfriend":0,"isfamily":0},{"id":"48931711271","owner":"21331264@N04","secret":"b75c512268","server":"65535","farm":66,"title":"Origma solitaria 4","ispublic":1,"isfriend":0,"isfamily":0},{"id":"48931899677","owner":"21331264@N04","secret":"92b1ba6436","server":"65535","farm":66,"title":"Origma solitaria 5","ispublic":1,"isfriend":0,"isfamily":0},{"id":"48931885547","owner":"167067928@N03","secret":"8503aaa39d","server":"65535","farm":66,"title":"Origma solitaria 1","ispublic":1,"isfriend":0,"isfamily":0},{"id":"48931155463","owner":"167067928@N03","secret":"745163eae5","server":"65535","farm":66,"title":"Origma solitaria 2","ispublic":1,"isfriend":0,"isfamily":0},{"id":"48931695781","owner":"167067928@N03","secret":"6a2414e1ec","server":"65535","farm":66,"title":"Origma solitaria 3","ispublic":1,"isfriend":0,"isfamily":0},{"id":"48931695526","owner":"167067928@N03","secret":"fa4612389b","server":"65535","farm":66,"title":"Origma solitaria 4","ispublic":1,"isfriend":0,"isfamily":0},{"id":"48931884267","owner":"167067928@N03","secret":"610b935994","server":"65535","farm":66,"title":"Origma solitaria 5","ispublic":1,"isfriend":0,"isfamily":0},{"id":"48872173233","owner":"167067928@N03","secret":"b1575bb6a9","server":"65535","farm":66,"title":"Origma solitaria 7","ispublic":1,"isfriend":0,"isfamily":0},{"id":"47982953312","owner":"50562183@N00","secret":"59cc0d943d","server":"65535","farm":66,"title":"Rock warbler (Origma solitaria)","ispublic":1,"isfriend":0,"isfamily":0},{"id":"33632875978","owner":"74822983@N02","secret":"4db4a8d97a","server":"7892","farm":8,"title":"Rockwarbler 2019-03-31 (7D_182A7208)","ispublic":1,"isfriend":0,"isfamily":0},{"id":"46708403642","owner":"34326029@N08","secret":"2c2ea3e7b4","server":"7915","farm":8,"title":"Origma solitaria","ispublic":1,"isfriend":0,"isfamily":0},{"id":"39654872993","owner":"90886369@N06","secret":"94717231ba","server":"7822","farm":8,"title":"Rockwarbler (Origma solitaria)","ispublic":1,"isfriend":0,"isfamily":0},{"id":"44050049074","owner":"79861098@N06","secret":"77835fc231","server":"1858","farm":2,"title":"Rock Warbler","ispublic":1,"isfriend":0,"isfamily":0},{"id":"44718947842","owner":"79861098@N06","secret":"002afdf5a6","server":"1853","farm":2,"title":"Rock Warbler","ispublic":1,"isfriend":0,"isfamily":0},{"id":"43849494135","owner":"131222116@N06","secret":"98e7002aab","server":"1860","farm":2,"title":"Rockwarbler","ispublic":1,"isfriend":0,"isfamily":0},{"id":"42950425781","owner":"76664823@N02","secret":"e716f19bf7","server":"899","farm":1,"title":"rockwarbler  (Origma solitaria)-7613","ispublic":1,"isfriend":0,"isfamily":0},{"id":"41518092644","owner":"40195635@N03","secret":"2150810bcd","server":"65535","farm":66,"title":"Rockwarbler (Origma solitaria)","ispublic":1,"isfriend":0,"isfamily":0},{"id":"42100396281","owner":"76379182@N04","secret":"a2dbb8bfc3","server":"963","farm":1,"title":"Rockwarbler (Origma solitaria)","ispublic":1,"isfriend":0,"isfamily":0},{"id":"26846355477","owner":"34326029@N08","secret":"ed3c9b640e","server":"956","farm":1,"title":"Origma solitaria","ispublic":1,"isfriend":0,"isfamily":0},{"id":"26845581457","owner":"34326029@N08","secret":"79c9ba3661","server":"970","farm":1,"title":"Stats","ispublic":1,"isfriend":0,"isfamily":0},{"id":"41574294292","owner":"34326029@N08","secret":"3a298d08f3","server":"914","farm":1,"title":"Origma solitaria_1","ispublic":1,"isfriend":0,"isfamily":0},{"id":"39806486730","owner":"34326029@N08","secret":"6d798cba12","server":"849","farm":1,"title":"Origma solitaria_3","ispublic":1,"isfriend":0,"isfamily":0},{"id":"41574289742","owner":"34326029@N08","secret":"e4df68e364","server":"881","farm":1,"title":"Origma solitaria_4","ispublic":1,"isfriend":0,"isfamily":0},{"id":"41574288622","owner":"34326029@N08","secret":"53c9d5441e","server":"810","farm":1,"title":"Origma solitaria_5","ispublic":1,"isfriend":0,"isfamily":0},{"id":"26745937797","owner":"34326029@N08","secret":"066cdcf02d","server":"788","farm":1,"title":"Stats","ispublic":1,"isfriend":0,"isfamily":0},{"id":"26199441607","owner":"151789887@N03","secret":"454531f73b","server":"792","farm":1,"title":"lmp0108","ispublic":1,"isfriend":0,"isfamily":0},{"id":"40428641951","owner":"21331264@N04","secret":"1df832e81d","server":"4743","farm":5,"title":"Origma solitaria 6","ispublic":1,"isfriend":0,"isfamily":0},{"id":"26325907969","owner":"50562183@N00","secret":"d8c02a79f1","server":"4510","farm":5,"title":"Rock warbler (Origma solitaria)","ispublic":1,"isfriend":0,"isfamily":0},{"id":"37231239424","owner":"34326029@N08","secret":"1ee5123aef","server":"4498","farm":5,"title":"Origma solitaria nest_1","ispublic":1,"isfriend":0,"isfamily":0},{"id":"37940679321","owner":"34326029@N08","secret":"f5580b91db","server":"4447","farm":5,"title":"Origma solitaria nest_2","ispublic":1,"isfriend":0,"isfamily":0},{"id":"36117355724","owner":"61021753@N02","secret":"924d542bfb","server":"4333","farm":5,"title":"n283_w1150","ispublic":1,"isfriend":0,"isfamily":0},{"id":"35314000733","owner":"22517893@N00","secret":"1a0a973040","server":"4299","farm":5,"title":"Rockwarbler","ispublic":1,"isfriend":0,"isfamily":0},{"id":"35401416820","owner":"147335573@N02","secret":"2f960c573d","server":"4254","farm":5,"title":"Rock warbler (Origma solitaria)","ispublic":1,"isfriend":0,"isfamily":0},{"id":"33499750791","owner":"129013862@N04","secret":"2ce5789531","server":"2816","farm":3,"title":"Rockwarbler (Origma solitaria)","ispublic":1,"isfriend":0,"isfamily":0},{"id":"32247717320","owner":"31350467@N04","secret":"43c2b1e237","server":"433","farm":1,"title":"Rockwarbler (Origma solitaria)","ispublic":1,"isfriend":0,"isfamily":0},{"id":"31274295312","owner":"9765210@N03","secret":"7b05b6ec77","server":"5640","farm":6,"title":"Rockwarbler (Origma solitaria)","ispublic":1,"isfriend":0,"isfamily":0},{"id":"30172342351","owner":"14869355@N07","secret":"b278f20fdb","server":"8408","farm":9,"title":"Rockwarbler","ispublic":1,"isfriend":0,"isfamily":0},{"id":"29602876484","owner":"14869355@N07","secret":"83c30b9433","server":"5048","farm":6,"title":"Rockwarbler","ispublic":1,"isfriend":0,"isfamily":0},{"id":"30233128065","owner":"14869355@N07","secret":"2ff0259e2b","server":"5653","farm":6,"title":"Rockwarbler","ispublic":1,"isfriend":0,"isfamily":0},{"id":"29602870014","owner":"14869355@N07","secret":"8992c43f74","server":"5342","farm":6,"title":"Rockwarbler","ispublic":1,"isfriend":0,"isfamily":0},{"id":"29599515263","owner":"14869355@N07","secret":"ce32c42ba7","server":"8129","farm":9,"title":"Rockwarbler","ispublic":1,"isfriend":0,"isfamily":0},{"id":"26464849580","owner":"68750880@N06","secret":"c6acf56c00","server":"1475","farm":2,"title":"Rockwarbler (Origma solitaria)","ispublic":1,"isfriend":0,"isfamily":0},{"id":"26148540645","owner":"99998671@N06","secret":"0912caf99d","server":"1663","farm":2,"title":"Sydney Rock Warbler","ispublic":1,"isfriend":0,"isfamily":0},{"id":"51314071766","owner":"93794520@N05","secret":"043ba061da","server":"65535","farm":66,"title":"Rock Warbler 220 7660","ispublic":1,"isfriend":0,"isfamily":0},{"id":"49656832896","owner":"187449610@N06","secret":"d63a706b18","server":"65535","farm":66,"title":"Rockwarbler","ispublic":1,"isfriend":0,"isfamily":0},{"id":"49656832531","owner":"187449610@N06","secret":"b39c4b42ac","server":"65535","farm":66,"title":"Rockwarbler","ispublic":1,"isfriend":0,"isfamily":0},{"id":"48561955282","owner":"66716461@N04","secret":"309483417d","server":"65535","farm":66,"title":"rockwarbler (Origma solitaria)","ispublic":1,"isfriend":0,"isfamily":0},{"id":"48039819063","owner":"93794520@N05","secret":"d5fcdab049","server":"65535","farm":66,"title":"Rock Warbler 195 4580","ispublic":1,"isfriend":0,"isfamily":0},{"id":"48039782056","owner":"93794520@N05","secret":"47c3b3bfba","server":"65535","farm":66,"title":"Rock Warbler 195 4588","ispublic":1,"isfriend":0,"isfamily":0},{"id":"48039781886","owner":"93794520@N05","secret":"de585f3007","server":"65535","farm":66,"title":"Rock Warbler 195 4689","ispublic":1,"isfriend":0,"isfamily":0},{"id":"47436607772","owner":"131222116@N06","secret":"0899168c43","server":"7924","farm":8,"title":"Rockwarbler","ispublic":1,"isfriend":0,"isfamily":0},{"id":"32215688097","owner":"150891040@N04","secret":"abdbac78c3","server":"7809","farm":8,"title":"Rockwarbler","ispublic":1,"isfriend":0,"isfamily":0},{"id":"47014192622","owner":"169772468@N08","secret":"61acbff5b9","server":"7834","farm":8,"title":"Origma solitaria 2","ispublic":1,"isfriend":0,"isfamily":0},{"id":"32124638097","owner":"169772468@N08","secret":"8ff94fe9f5","server":"7916","farm":8,"title":"Origma solitaria 3","ispublic":1,"isfriend":0,"isfamily":0},{"id":"47014189462","owner":"169772468@N08","secret":"9f367d71a8","server":"7868","farm":8,"title":"Origma solitaria 4","ispublic":1,"isfriend":0,"isfamily":0},{"id":"32124632887","owner":"169772468@N08","secret":"1246a7cdcc","server":"7831","farm":8,"title":"Origma solitaria 5","ispublic":1,"isfriend":0,"isfamily":0},{"id":"33191208458","owner":"169772468@N08","secret":"193e643d81","server":"7818","farm":8,"title":"Origma solitaria 6","ispublic":1,"isfriend":0,"isfamily":0},{"id":"47014185342","owner":"169772468@N08","secret":"9cbc23d6d9","server":"7907","farm":8,"title":"Origma solitaria 7","ispublic":1,"isfriend":0,"isfamily":0},{"id":"40101334903","owner":"169772468@N08","secret":"a2d76e6d4a","server":"7819","farm":8,"title":"Origma solitaria 1","ispublic":1,"isfriend":0,"isfamily":0},{"id":"45857073391","owner":"93794520@N05","secret":"740b68aaec","server":"1978","farm":2,"title":"Rock Warbler 188 7611","ispublic":1,"isfriend":0,"isfamily":0},{"id":"45857073121","owner":"93794520@N05","secret":"e796e0947e","server":"4901","farm":5,"title":"Rock Warbler 188 7653","ispublic":1,"isfriend":0,"isfamily":0},{"id":"43909068425","owner":"79861098@N06","secret":"a9673aa3cc","server":"1868","farm":2,"title":"Rock Warbler","ispublic":1,"isfriend":0,"isfamily":0},{"id":"44758505501","owner":"131222116@N06","secret":"a3450bcafd","server":"1845","farm":2,"title":"Rockwarbler","ispublic":1,"isfriend":0,"isfamily":0},{"id":"30888247368","owner":"131222116@N06","secret":"ba6492edd7","server":"1858","farm":2,"title":"Rockwarbler","ispublic":1,"isfriend":0,"isfamily":0},{"id":"42948623630","owner":"131222116@N06","secret":"5f6b35b474","server":"1898","farm":2,"title":"Rockwarbler","ispublic":1,"isfriend":0,"isfamily":0},{"id":"43849472815","owner":"131222116@N06","secret":"26449c5937","server":"1848","farm":2,"title":"Rockwarbler","ispublic":1,"isfriend":0,"isfamily":0},{"id":"44758469031","owner":"131222116@N06","secret":"860918b98f","server":"1885","farm":2,"title":"Rockwarbler","ispublic":1,"isfriend":0,"isfamily":0},{"id":"44758463191","owner":"131222116@N06","secret":"abbfc17cb3","server":"1861","farm":2,"title":"Rockwarbler","ispublic":1,"isfriend":0,"isfamily":0},{"id":"28799507367","owner":"131222116@N06","secret":"9b4d09d720","server":"937","farm":1,"title":"Rockwarbler","ispublic":1,"isfriend":0,"isfamily":0},{"id":"28799506217","owner":"131222116@N06","secret":"6059623f52","server":"933","farm":1,"title":"Rockwarbler","ispublic":1,"isfriend":0,"isfamily":0},{"id":"28799504067","owner":"131222116@N06","secret":"4199e4d292","server":"861","farm":1,"title":"Rockwarbler","ispublic":1,"isfriend":0,"isfamily":0},{"id":"43623132472","owner":"93794520@N05","secret":"5d82808c46","server":"923","farm":1,"title":"Rock Warbler 184 5947","ispublic":1,"isfriend":0,"isfamily":0},{"id":"26199446217","owner":"151789887@N03","secret":"1cb0757414","server":"800","farm":1,"title":"lmp0106","ispublic":1,"isfriend":0,"isfamily":0},{"id":"40430968611","owner":"90408688@N02","secret":"6aa1c01e67","server":"4768","farm":5,"title":"Origma solitaria - Rockwarbler","ispublic":1,"isfriend":0,"isfamily":0},{"id":"37431390612","owner":"23031163@N03","secret":"468e7a077c","server":"4453","farm":5,"title":"Rock Warbler (Origma solitaria)","ispublic":1,"isfriend":0,"isfamily":0},{"id":"35856172035","owner":"146963312@N02","secret":"b1ee9f03dc","server":"4284","farm":5,"title":"Rock warbler","ispublic":1,"isfriend":0,"isfamily":0},{"id":"32974890183","owner":"90408688@N02","secret":"22954eea09","server":"2912","farm":3,"title":"Origma solitaria - Rockwarbler","ispublic":1,"isfriend":0,"isfamily":0},{"id":"33747098026","owner":"90408688@N02","secret":"e2161f173a","server":"3930","farm":4,"title":"Origma solitaria - Rockwarbler","ispublic":1,"isfriend":0,"isfamily":0},{"id":"33403395770","owner":"90408688@N02","secret":"3327e3b023","server":"2905","farm":3,"title":"Origma solitaria - Rockwarbler","ispublic":1,"isfriend":0,"isfamily":0},{"id":"33658458681","owner":"90408688@N02","secret":"02b6c5b283","server":"2861","farm":3,"title":"Origma solitaria - Rockwarbler","ispublic":1,"isfriend":0,"isfamily":0},{"id":"33658445281","owner":"90408688@N02","secret":"6425d0a5dc","server":"2833","farm":3,"title":"Origma solitaria - Rockwarbler","ispublic":1,"isfriend":0,"isfamily":0},{"id":"33747078366","owner":"90408688@N02","secret":"b8d572cbfa","server":"2948","farm":3,"title":"Origma solitaria - Rockwarbler","ispublic":1,"isfriend":0,"isfamily":0},{"id":"33658437861","owner":"90408688@N02","secret":"da74104144","server":"2834","farm":3,"title":"Origma solitaria - Rockwarbler","ispublic":1,"isfriend":0,"isfamily":0},{"id":"30221753943","owner":"93794520@N05","secret":"b80151d564","server":"5643","farm":6,"title":"Rockwarbler 164 8928","ispublic":1,"isfriend":0,"isfamily":0},{"id":"29616514642","owner":"76664823@N02","secret":"74c1fdf2d8","server":"8862","farm":9,"title":"rockwarbler  (Origma solitaria)-0598","ispublic":1,"isfriend":0,"isfamily":0},{"id":"28438243973","owner":"23031163@N03","secret":"300c6aea42","server":"8566","farm":9,"title":"Rock Warbler (Origma solitaria)","ispublic":1,"isfriend":0,"isfamily":0},{"id":"28921332691","owner":"66298823@N05","secret":"06792aa087","server":"8119","farm":9,"title":"Rock Warbler","ispublic":1,"isfriend":0,"isfamily":0},{"id":"26056045562","owner":"99998671@N06","secret":"3c8352954a","server":"1447","farm":2,"title":"Sydney Rock Warbler","ispublic":1,"isfriend":0,"isfamily":0},{"id":"25545848413","owner":"99998671@N06","secret":"7cf2f57896","server":"1707","farm":2,"title":"Sydney Rock Warbler","ispublic":1,"isfriend":0,"isfamily":0},{"id":"25655879462","owner":"14869355@N07","secret":"2e794da1d5","server":"1572","farm":2,"title":"Rockwarbler","ispublic":1,"isfriend":0,"isfamily":0}]},"stat":"ok"}