{"photos":{"page":1,"pages":9,"perpage":100,"total":883,"photo":[{"id":"52782280381","owner":"42034882@N00","secret":"a77c2d0e85","server":"65535","farm":66,"title":"Ross Migrate for Less","ispublic":1,"isfriend":0,"isfamily":0},{"id":"52780731385","owner":"25531047@N00","secret":"dd83cc75f5","server":"65535","farm":66,"title":"Ross's Geese with Snow Geese","ispublic":1,"isfriend":0,"isfamily":0},{"id":"52763199699","owner":"119468907@N03","secret":"e9ae1f77b9","server":"65535","farm":66,"title":"Oie de ross_R5DJ9062v2","ispublic":1,"isfriend":0,"isfamily":0},{"id":"52763372428","owner":"119468907@N03","secret":"160de31e9b","server":"65535","farm":66,"title":"Oie de ross_R5DJ9004","ispublic":1,"isfriend":0,"isfamily":0},{"id":"52762841636","owner":"119468907@N03","secret":"8970810b07","server":"65535","farm":66,"title":"Oie de ross_R5DJ8951","ispublic":1,"isfriend":0,"isfamily":0},{"id":"52763190025","owner":"119468907@N03","secret":"8d668b5b51","server":"65535","farm":66,"title":"Oie de ross_Oie des neiges_R5DJ8926","ispublic":1,"isfriend":0,"isfamily":0},{"id":"52762395336","owner":"119468907@N03","secret":"bba4797cb5","server":"65535","farm":66,"title":"Oie de ross_R5DJ8802","ispublic":1,"isfriend":0,"isfamily":0},{"id":"52762760405","owner":"119468907@N03","secret":"e9096c9a2e","server":"65535","farm":66,"title":"Oie de ross_R5DJ8701","ispublic":1,"isfriend":0,"isfamily":0},{"id":"52762009210","owner":"119468907@N03","secret":"a245f08ebf","server":"65535","farm":66,"title":"Oie de ross_R5DJ9033","ispublic":1,"isfriend":0,"isfamily":0},{"id":"52765234971","owner":"119468907@N03","secret":"8ba96d9611","server":"0","farm":0,"title":"Oie de Ross_9061","ispublic":1,"isfriend":0,"isfamily":0},{"id":"52765640160","owner":"119468907@N03","secret":"5d5e64e3c0","server":"0","farm":0,"title":"Oie de Ross_9135","ispublic":1,"isfriend":0,"isfamily":0},{"id":"52764602427","owner":"119468907@N03","secret":"d8ee1a9bb8","server":"0","farm":0,"title":"Oie de Ross_9083","ispublic":1,"isfriend":0,"isfamily":0},{"id":"52734514920","owner":"81058247@N08","secret":"5989569b08","server":"65535","farm":66,"title":"Ross's Goose (Anser rossii)","ispublic":1,"isfriend":0,"isfamily":0},{"id":"52734336563","owner":"39854996@N00","secret":"6b5ffb15d1","server":"65535","farm":66,"title":"Ross's goose  \"Anser rossii\"","ispublic":1,"isfriend":0,"isfamily":0},{"id":"52727970444","owner":"81058247@N08","secret":"2045cb3ab4","server":"65535","farm":66,"title":"Ross's Goose (Anser rossii) and Snow Geese (Anser caerulescens)","ispublic":1,"isfriend":0,"isfamily":0},{"id":"52727192832","owner":"81058247@N08","secret":"decacd319c","server":"65535","farm":66,"title":"Ross's Goose (Anser rossii)","ispublic":1,"isfriend":0,"isfamily":0},{"id":"52688160990","owner":"49114357@N08","secret":"cc4d9d4bf9","server":"65535","farm":66,"title":"Ross's Goose","ispublic":1,"isfriend":0,"isfamily":0},{"id":"52713885689","owner":"17654080@N08","secret":"22303ecd8d","server":"65535","farm":66,"title":"Ross's Goose, adult (Anser rossii)","ispublic":1,"isfriend":0,"isfamily":0},{"id":"52713104237","owner":"17654080@N08","secret":"0b7bd7102b","server":"65535","farm":66,"title":"Ross's Goose, adult (Anser rossii)","ispublic":1,"isfriend":0,"isfamily":0},{"id":"52714046465","owner":"17654080@N08","secret":"13eefeaa74","server":"65535","farm":66,"title":"Ross's Goose, adult (Anser rossii)","ispublic":1,"isfriend":0,"isfamily":0},{"id":"52714102373","owner":"17654080@N08","secret":"6b8338a5c2","server":"65535","farm":66,"title":"Ross's Goose, adult (Anser rossii)","ispublic":1,"isfriend":0,"isfamily":0},{"id":"52711135145","owner":"47533293@N04","secret":"a7f1ebd3e2","server":"65535","farm":66,"title":"Ross' goose, Anser rossii","ispublic":1,"isfriend":0,"isfamily":0},{"id":"52691934149","owner":"33610210@N05","secret":"98aac77dbb","server":"65535","farm":66,"title":"Snow Goose, Anser caerulescens and Ross's Goose, Anser rossii","ispublic":1,"isfriend":0,"isfamily":0},{"id":"52691893089","owner":"33610210@N05","secret":"cd66960d6e","server":"65535","farm":66,"title":"Ross's Goose, Anser rossii","ispublic":1,"isfriend":0,"isfamily":0},{"id":"52692039235","owner":"33610210@N05","secret":"b9d9642580","server":"65535","farm":66,"title":"Snow Goose, Anser caerulescens, and Ross's Goose, Anser rossii","ispublic":1,"isfriend":0,"isfamily":0},{"id":"52691623636","owner":"33610210@N05","secret":"fc918f3413","server":"65535","farm":66,"title":"Snow Goose, Anser caerulescens, and Ross's Goose, Anser rossii","ispublic":1,"isfriend":0,"isfamily":0},{"id":"52692039065","owner":"33610210@N05","secret":"bd8f0ac697","server":"65535","farm":66,"title":"Snow Goose, Anser caerulescens, and Ross's Goose, Anser rossii","ispublic":1,"isfriend":0,"isfamily":0},{"id":"52691103862","owner":"33610210@N05","secret":"8873f11902","server":"65535","farm":66,"title":"Snow Goose, Anser caerulescens, and Ross's Goose, Anser rossii","ispublic":1,"isfriend":0,"isfamily":0},{"id":"52691103527","owner":"33610210@N05","secret":"5f4c0bd9ce","server":"65535","farm":66,"title":"Snow Goose, Anser caerulescens, and Ross's Goose, Anser rossii","ispublic":1,"isfriend":0,"isfamily":0},{"id":"52686369385","owner":"145287509@N03","secret":"fe4ae88cbe","server":"65535","farm":66,"title":"The Great Fly-in","ispublic":1,"isfriend":0,"isfamily":0},{"id":"52680830229","owner":"194215136@N06","secret":"0bf204fff4","server":"65535","farm":66,"title":"I'm so sorry...","ispublic":1,"isfriend":0,"isfamily":0},{"id":"52666414083","owner":"39652177@N04","secret":"042cba93e0","server":"65535","farm":66,"title":"Ross's geese","ispublic":1,"isfriend":0,"isfamily":0},{"id":"52664938604","owner":"34238008@N02","secret":"15df241de4","server":"65535","farm":66,"title":"Ross's Goose (Anser rossii)","ispublic":1,"isfriend":0,"isfamily":0},{"id":"52664646406","owner":"34238008@N02","secret":"48565fd62d","server":"65535","farm":66,"title":"Ross's Goose (Anser rossii)","ispublic":1,"isfriend":0,"isfamily":0},{"id":"52652644802","owner":"32752434@N07","secret":"8ce1bd1bb3","server":"65535","farm":66,"title":"Ross's Goose (Anser rossii)","ispublic":1,"isfriend":0,"isfamily":0},{"id":"52646809728","owner":"163667952@N05","secret":"918f37bce1","server":"65535","farm":66,"title":"Ross's Goose","ispublic":1,"isfriend":0,"isfamily":0},{"id":"52640821611","owner":"8065544@N08","secret":"4362119653","server":"65535","farm":66,"title":"Snow Geese (Anser caerulescens)","ispublic":1,"isfriend":0,"isfamily":0},{"id":"52627634306","owner":"51928691@N04","secret":"ef3f06c79c","server":"65535","farm":66,"title":"Ross's Goose (Anser rossii) and American Coot (Fulica americana) 1 122722","ispublic":1,"isfriend":0,"isfamily":0},{"id":"52619330265","owner":"61241315@N00","secret":"28efce8bef","server":"0","farm":0,"title":"White Morph Snow Goose_4136.MP4","ispublic":1,"isfriend":0,"isfamily":0},{"id":"52619330275","owner":"61241315@N00","secret":"966407034a","server":"65535","farm":66,"title":"White Morph Snow Goose_N4211","ispublic":1,"isfriend":0,"isfamily":0},{"id":"52614888472","owner":"21584095@N00","secret":"0f9f296b72","server":"65535","farm":66,"title":"Ross's Goose (Anser rossii)","ispublic":1,"isfriend":0,"isfamily":0},{"id":"52615850288","owner":"61241315@N00","secret":"5bfedbce42","server":"65535","farm":66,"title":"White Morph Snow Goose_N4133","ispublic":1,"isfriend":0,"isfamily":0},{"id":"52607027297","owner":"18378985@N08","secret":"4902ca6441","server":"65535","farm":66,"title":"Ross's Goose late in the day","ispublic":1,"isfriend":0,"isfamily":0},{"id":"52592040497","owner":"140318147@N08","secret":"fe48223e3a","server":"65535","farm":66,"title":"Ross' goose (Anser rossii) L4A9933","ispublic":1,"isfriend":0,"isfamily":0},{"id":"52590954458","owner":"61241315@N00","secret":"ac7a946b3b","server":"0","farm":0,"title":"White Morph Snow Goose_2308.MP4","ispublic":1,"isfriend":0,"isfamily":0},{"id":"52590702224","owner":"61241315@N00","secret":"c89155c1a4","server":"0","farm":0,"title":"White Morph Snow Goose_2310.MP4","ispublic":1,"isfriend":0,"isfamily":0},{"id":"52590867245","owner":"61241315@N00","secret":"e7181448da","server":"65535","farm":66,"title":"White Morph Snow Goose_N2312","ispublic":1,"isfriend":0,"isfamily":0},{"id":"52590867270","owner":"61241315@N00","secret":"782cedb114","server":"65535","farm":66,"title":"White Morph Snow Goose_N2307","ispublic":1,"isfriend":0,"isfamily":0},{"id":"52519055745","owner":"61241315@N00","secret":"94134cd829","server":"0","farm":0,"title":"White Morph Snow Goose_9620.MP4","ispublic":1,"isfriend":0,"isfamily":0},{"id":"52518082557","owner":"61241315@N00","secret":"2a20e7a7ba","server":"65535","farm":66,"title":"White Morph Snow Goose_N9789","ispublic":1,"isfriend":0,"isfamily":0},{"id":"52498937345","owner":"36685968@N00","secret":"c3499b7852","server":"65535","farm":66,"title":"Ross's Goose (Anser rossii)","ispublic":1,"isfriend":0,"isfamily":0},{"id":"52499015523","owner":"36685968@N00","secret":"b207ebfa0a","server":"65535","farm":66,"title":"Ross's Goose (Anser rossii)","ispublic":1,"isfriend":0,"isfamily":0},{"id":"52498454156","owner":"36685968@N00","secret":"ae94b731b1","server":"65535","farm":66,"title":"Ross's Goose (Anser rossii)","ispublic":1,"isfriend":0,"isfamily":0},{"id":"52476598620","owner":"24580998@N08","secret":"a5ea363b2d","server":"65535","farm":66,"title":"Anser rossii - Oie de Ross - Ross's goose - 19\/09\/22","ispublic":1,"isfriend":0,"isfamily":0},{"id":"52464604121","owner":"159284114@N07","secret":"ee13b501d1","server":"65535","farm":66,"title":"Oie de Ross, Ross's Goose","ispublic":1,"isfriend":0,"isfamily":0},{"id":"52419302278","owner":"52200643@N02","secret":"f5d67afa9b","server":"65535","farm":66,"title":"Oie de Ross \/ Ross,s goose  153A8084 2600px","ispublic":1,"isfriend":0,"isfamily":0},{"id":"52419302298","owner":"52200643@N02","secret":"532451f199","server":"65535","farm":66,"title":"Oie de Ross \/ Ross,s goose l 153A8085 2000px","ispublic":1,"isfriend":0,"isfamily":0},{"id":"52419072399","owner":"52200643@N02","secret":"8f59f8b1cf","server":"65535","farm":66,"title":"Oie de Ross \/ Ross,s goose 153A8083B","ispublic":1,"isfriend":0,"isfamily":0},{"id":"52419302228","owner":"52200643@N02","secret":"4a5b211916","server":"65535","farm":66,"title":"Oie de Ross \/ Ross's goose  153A8077B","ispublic":1,"isfriend":0,"isfamily":0},{"id":"52410183721","owner":"194215136@N06","secret":"8913517d28","server":"65535","farm":66,"title":"Daisy Goose","ispublic":1,"isfriend":0,"isfamily":0},{"id":"52292879949","owner":"125057668@N02","secret":"8121b0ce62","server":"65535","farm":66,"title":"Oie de Ross (Anser rossii)","ispublic":1,"isfriend":0,"isfamily":0},{"id":"52288183031","owner":"196264892@N08","secret":"c3fdf00f01","server":"65535","farm":66,"title":"Ross' Goose, NM","ispublic":1,"isfriend":0,"isfamily":0},{"id":"52288664030","owner":"196264892@N08","secret":"18c1e8eb7f","server":"65535","farm":66,"title":"Snow Geese NM 2","ispublic":1,"isfriend":0,"isfamily":0},{"id":"52283577371","owner":"53280041@N04","secret":"9d1e9057b8","server":"65535","farm":66,"title":"Ross's goose","ispublic":1,"isfriend":0,"isfamily":0},{"id":"52283577306","owner":"53280041@N04","secret":"d0a96017c8","server":"65535","farm":66,"title":"Ross's goose","ispublic":1,"isfriend":0,"isfamily":0},{"id":"52284061330","owner":"53280041@N04","secret":"114301227f","server":"65535","farm":66,"title":"Ross's goose","ispublic":1,"isfriend":0,"isfamily":0},{"id":"52283587363","owner":"53280041@N04","secret":"d993e1ec0c","server":"65535","farm":66,"title":"Ross's goose","ispublic":1,"isfriend":0,"isfamily":0},{"id":"52284061195","owner":"53280041@N04","secret":"00e63a75a5","server":"65535","farm":66,"title":"Ross's goose","ispublic":1,"isfriend":0,"isfamily":0},{"id":"52280790758","owner":"39617069@N08","secret":"c815abee90","server":"65535","farm":66,"title":"Ross's Goose","ispublic":1,"isfriend":0,"isfamily":0},{"id":"52152357954","owner":"28631427@N00","secret":"0995060d0f","server":"65535","farm":66,"title":"Ross\u2019s Geese 1","ispublic":1,"isfriend":0,"isfamily":0},{"id":"52152608985","owner":"28631427@N00","secret":"126e8f199c","server":"65535","farm":66,"title":"Ross\u2019s Geese 2","ispublic":1,"isfriend":0,"isfamily":0},{"id":"52133230527","owner":"62445008@N00","secret":"d79a44ffe9","server":"65535","farm":66,"title":"Ross's Goose (Anser rossii)","ispublic":1,"isfriend":0,"isfamily":0},{"id":"52134273153","owner":"62445008@N00","secret":"cc65924ff4","server":"65535","farm":66,"title":"Ross's Goose (Anser rossii)","ispublic":1,"isfriend":0,"isfamily":0},{"id":"52072588971","owner":"14734088@N02","secret":"9d3d5ab7a9","server":"65535","farm":66,"title":"Oie des neiges 220503H2b","ispublic":1,"isfriend":0,"isfamily":0},{"id":"52056895940","owner":"194215136@N06","secret":"410f84bf72","server":"65535","farm":66,"title":"A trendy neck ruffle","ispublic":1,"isfriend":0,"isfamily":0},{"id":"52023519059","owner":"134270033@N06","secret":"79c95603e4","server":"0","farm":0,"title":"Distant Video Doc Failing Light","ispublic":1,"isfriend":0,"isfamily":0},{"id":"52021064195","owner":"134270033@N06","secret":"32b61ec50e","server":"65535","farm":66,"title":"CROPPED RECORD SHOTS : RBA bird for the Island","ispublic":1,"isfriend":0,"isfamily":0},{"id":"52020798184","owner":"134270033@N06","secret":"0dbf3d4d83","server":"65535","farm":66,"title":"CROPPED RECORD SHOTS : RBA bird for the Island","ispublic":1,"isfriend":0,"isfamily":0},{"id":"52021063775","owner":"134270033@N06","secret":"1500740d0a","server":"65535","farm":66,"title":"CROPPED RECORD SHOTS : RBA bird for the Island","ispublic":1,"isfriend":0,"isfamily":0},{"id":"51923133269","owner":"145287509@N03","secret":"245baa3c71","server":"65535","farm":66,"title":"It's An Eagle -- Haul Ass","ispublic":1,"isfriend":0,"isfamily":0},{"id":"51920746769","owner":"109544413@N05","secret":"c948988398","server":"65535","farm":66,"title":"Saturday Morning at the Bosque del Apache","ispublic":1,"isfriend":0,"isfamily":0},{"id":"51906253266","owner":"109544413@N05","secret":"064c092275","server":"0","farm":0,"title":"Fly in #2 Geese Arrive A7Riii 4K","ispublic":1,"isfriend":0,"isfamily":0},{"id":"51893672145","owner":"18378985@N08","secret":"f856b595bc","server":"65535","farm":66,"title":"Ross's Goose at South Shore Park","ispublic":1,"isfriend":0,"isfamily":0},{"id":"52695162484","owner":"143326780@N02","secret":"d69d292d11","server":"65535","farm":66,"title":"DSCN4690","ispublic":1,"isfriend":0,"isfamily":0},{"id":"52695386733","owner":"143326780@N02","secret":"118936482d","server":"65535","farm":66,"title":"DSCN4696","ispublic":1,"isfriend":0,"isfamily":0},{"id":"52695162339","owner":"143326780@N02","secret":"8c75823920","server":"65535","farm":66,"title":"DSCN4697","ispublic":1,"isfriend":0,"isfamily":0},{"id":"52657159046","owner":"52913721@N08","secret":"f7d04f3f86","server":"65535","farm":66,"title":"Ross's Goose (Anser rossii)","ispublic":1,"isfriend":0,"isfamily":0},{"id":"52619382103","owner":"61241315@N00","secret":"be76301a4f","server":"0","farm":0,"title":"White Morph Snow Goose_4124.MP4","ispublic":1,"isfriend":0,"isfamily":0},{"id":"52618384947","owner":"61241315@N00","secret":"1911cc538b","server":"65535","farm":66,"title":"White Morph Snow Goose_N4125","ispublic":1,"isfriend":0,"isfamily":0},{"id":"52619382293","owner":"61241315@N00","secret":"97f1c4fbba","server":"65535","farm":66,"title":"White Morph Snow Goose_N4129","ispublic":1,"isfriend":0,"isfamily":0},{"id":"52618898441","owner":"61241315@N00","secret":"db6cd4e503","server":"65535","farm":66,"title":"White Morph Snow Goose_N4208","ispublic":1,"isfriend":0,"isfamily":0},{"id":"52580690680","owner":"153973412@N04","secret":"e9c6bb97f1","server":"65535","farm":66,"title":"Ross's Goose-Anser rossii, North Liberty, IA","ispublic":1,"isfriend":0,"isfamily":0},{"id":"52511181891","owner":"151381692@N04","secret":"e0871a5d81","server":"65535","farm":66,"title":"Snow Goose (Anser caerulescens) and Ross's Goose (Anser rossii)","ispublic":1,"isfriend":0,"isfamily":0},{"id":"52458508270","owner":"125605310@N07","secret":"d409d50cb0","server":"65535","farm":66,"title":"Snow Geese (Anser caerulescens) and Ross's Goose (Anser rossii)","ispublic":1,"isfriend":0,"isfamily":0},{"id":"52454918261","owner":"62043870@N05","secret":"ea102c74e6","server":"65535","farm":66,"title":"Snow Geese (Anser caerulescens) and Ross's Goose (Anser rossii","ispublic":1,"isfriend":0,"isfamily":0},{"id":"52455368580","owner":"62043870@N05","secret":"37c161b859","server":"65535","farm":66,"title":"Snow Geese (Anser caerulescens) and Ross's Goose (Anser rossii)","ispublic":1,"isfriend":0,"isfamily":0},{"id":"52251309395","owner":"80648919@N08","secret":"cc9d50902d","server":"65535","farm":66,"title":"Ross's Goose","ispublic":1,"isfriend":0,"isfamily":0},{"id":"52200767767","owner":"183210910@N04","secret":"93e7742c6b","server":"65535","farm":66,"title":"Ross's Snow Goose - Anser rossii","ispublic":1,"isfriend":0,"isfamily":0},{"id":"52134479289","owner":"62445008@N00","secret":"8e74268e12","server":"65535","farm":66,"title":"Ross's Geese (Anser rossii)","ispublic":1,"isfriend":0,"isfamily":0},{"id":"52020549416","owner":"134270033@N06","secret":"1ddff631cb","server":"0","farm":0,"title":"Flight VID DOC","ispublic":1,"isfriend":0,"isfamily":0}]},"stat":"ok"}