{"photos":{"page":1,"pages":52,"perpage":100,"total":5122,"photo":[{"id":"52786764166","owner":"25899079@N08","secret":"f78c7caccc","server":"65535","farm":66,"title":"Ruddy Duck (0347)","ispublic":1,"isfriend":0,"isfamily":0},{"id":"52777803986","owner":"154261763@N05","secret":"cb774f9d9b","server":"65535","farm":66,"title":"Ruddy duck (Oxyura jamaicensis) - Schwarzkopfruderente","ispublic":1,"isfriend":0,"isfamily":0},{"id":"52772696250","owner":"62043870@N05","secret":"4215a649cf","server":"65535","farm":66,"title":"Ruddy Duck, Oxyura jamaicensis","ispublic":1,"isfriend":0,"isfamily":0},{"id":"52768804226","owner":"7331818@N02","secret":"4a594344b4","server":"65535","farm":66,"title":"Inside curve","ispublic":1,"isfriend":0,"isfamily":0},{"id":"52758605172","owner":"144980256@N07","secret":"c471f0a85b","server":"65535","farm":66,"title":"Ruddy Duck (Oxyura jamaicensis)","ispublic":1,"isfriend":0,"isfamily":0},{"id":"52756687265","owner":"26520320@N03","secret":"981ff70994","server":"65535","farm":66,"title":"_BAP1252","ispublic":1,"isfriend":0,"isfamily":0},{"id":"52756673345","owner":"26520320@N03","secret":"1a05990d0b","server":"65535","farm":66,"title":"_BAP1188","ispublic":1,"isfriend":0,"isfamily":0},{"id":"52756751033","owner":"26520320@N03","secret":"6cb155d859","server":"65535","farm":66,"title":"_BAP1187","ispublic":1,"isfriend":0,"isfamily":0},{"id":"52753436865","owner":"144980256@N07","secret":"4cd9b66052","server":"65535","farm":66,"title":"Ruddy Duck (Oxyura jamaicensis)","ispublic":1,"isfriend":0,"isfamily":0},{"id":"52752491947","owner":"144980256@N07","secret":"8a1bf0dc75","server":"65535","farm":66,"title":"Ruddy Duck (Oxyura jamaicensis)","ispublic":1,"isfriend":0,"isfamily":0},{"id":"52746682999","owner":"12639178@N07","secret":"418104f3ed","server":"65535","farm":66,"title":"Ruderenten-Dame ist noch da :-)","ispublic":1,"isfriend":0,"isfamily":0},{"id":"52744620277","owner":"145890134@N05","secret":"087e37f6c6","server":"65535","farm":66,"title":"Ruddy duck | Rosse Stekelstaart | Schwarzkopfruderente, (Oxyura jamaicensis)","ispublic":1,"isfriend":0,"isfamily":0},{"id":"52739010429","owner":"67164820@N06","secret":"ca1199ba94","server":"65535","farm":66,"title":"ruddy duck 2","ispublic":1,"isfriend":0,"isfamily":0},{"id":"52736625833","owner":"34238008@N02","secret":"3aa77aaf05","server":"65535","farm":66,"title":"Ruddy Duck (Oxyura jamaicensis)","ispublic":1,"isfriend":0,"isfamily":0},{"id":"52736068486","owner":"59206851@N00","secret":"66b32a78c8","server":"65535","farm":66,"title":"DSC_0364.jpg","ispublic":1,"isfriend":0,"isfamily":0},{"id":"52736320954","owner":"59206851@N00","secret":"ddfe7295cf","server":"65535","farm":66,"title":"DSC_0353.jpg","ispublic":1,"isfriend":0,"isfamily":0},{"id":"52735994061","owner":"59206851@N00","secret":"54427929b1","server":"65535","farm":66,"title":"DSC_5370-2.jpg","ispublic":1,"isfriend":0,"isfamily":0},{"id":"52735472317","owner":"59206851@N00","secret":"5a64a1d9e4","server":"65535","farm":66,"title":"DSC_5370.jpg","ispublic":1,"isfriend":0,"isfamily":0},{"id":"52736372840","owner":"59206851@N00","secret":"c06c66d8ca","server":"65535","farm":66,"title":"DSC_5370-3.jpg","ispublic":1,"isfriend":0,"isfamily":0},{"id":"52736437158","owner":"59206851@N00","secret":"f341c15669","server":"65535","farm":66,"title":"DSC_5370-2.jpg","ispublic":1,"isfriend":0,"isfamily":0},{"id":"52736372725","owner":"59206851@N00","secret":"498a92fed2","server":"65535","farm":66,"title":"DSC_5370.jpg","ispublic":1,"isfriend":0,"isfamily":0},{"id":"52734864847","owner":"42264328@N00","secret":"aa04ded50e","server":"65535","farm":66,"title":"Yates Mill duck","ispublic":1,"isfriend":0,"isfamily":0},{"id":"52734931556","owner":"12240837@N08","secret":"fa257b0172","server":"65535","farm":66,"title":"Ruddy Duck (oxyura jamaicensis)","ispublic":1,"isfriend":0,"isfamily":0},{"id":"52734525983","owner":"34238008@N02","secret":"0cfff3cd69","server":"65535","farm":66,"title":"Ruddy Duck (Oxyura jamaicensis)","ispublic":1,"isfriend":0,"isfamily":0},{"id":"52734297299","owner":"34238008@N02","secret":"8e84f7ddd2","server":"65535","farm":66,"title":"Ruddy Duck (Oxyura jamaicensis)","ispublic":1,"isfriend":0,"isfamily":0},{"id":"52733306912","owner":"59206851@N00","secret":"9747359d2f","server":"65535","farm":66,"title":"DSC_5478.jpg","ispublic":1,"isfriend":0,"isfamily":0},{"id":"52733831641","owner":"59206851@N00","secret":"def099fe5c","server":"65535","farm":66,"title":"DSC_5465.jpg","ispublic":1,"isfriend":0,"isfamily":0},{"id":"52733831526","owner":"59206851@N00","secret":"cc3154b8ee","server":"65535","farm":66,"title":"DSC_5458.jpg","ispublic":1,"isfriend":0,"isfamily":0},{"id":"52734314353","owner":"59206851@N00","secret":"3563aea38e","server":"65535","farm":66,"title":"DSC_5449.jpg","ispublic":1,"isfriend":0,"isfamily":0},{"id":"52734314233","owner":"59206851@N00","secret":"ab46f2f86b","server":"65535","farm":66,"title":"DSC_5446.jpg","ispublic":1,"isfriend":0,"isfamily":0},{"id":"52734084034","owner":"59206851@N00","secret":"efd9cb6839","server":"65535","farm":66,"title":"DSC_5371.jpg","ispublic":1,"isfriend":0,"isfamily":0},{"id":"52731550277","owner":"59206851@N00","secret":"6ffcfc34a7","server":"65535","farm":66,"title":"DSC_2316.jpg","ispublic":1,"isfriend":0,"isfamily":0},{"id":"52732557258","owner":"59206851@N00","secret":"69b0684b8f","server":"65535","farm":66,"title":"DSC_2298.jpg","ispublic":1,"isfriend":0,"isfamily":0},{"id":"52731531710","owner":"57126723@N07","secret":"732fa65589","server":"65535","farm":66,"title":"Ruddy Duck\u2014Oxyura jamaicensis\u2014Anatidae\u2014York River State Park-9626-Edit","ispublic":1,"isfriend":0,"isfamily":0},{"id":"52731014669","owner":"59206851@N00","secret":"e16403a2f9","server":"65535","farm":66,"title":"DSC_1616-2.jpg","ispublic":1,"isfriend":0,"isfamily":0},{"id":"52730237677","owner":"59206851@N00","secret":"041b9e22f8","server":"65535","farm":66,"title":"DSC_1616.jpg","ispublic":1,"isfriend":0,"isfamily":0},{"id":"52731168590","owner":"59206851@N00","secret":"df21f276cb","server":"65535","farm":66,"title":"DSC_1299.jpg","ispublic":1,"isfriend":0,"isfamily":0},{"id":"52731242238","owner":"59206851@N00","secret":"a270492f6d","server":"65535","farm":66,"title":"DSC_1297.jpg","ispublic":1,"isfriend":0,"isfamily":0},{"id":"52731011724","owner":"59206851@N00","secret":"9da6404e6d","server":"65535","farm":66,"title":"DSC_1271.jpg","ispublic":1,"isfriend":0,"isfamily":0},{"id":"52730760561","owner":"59206851@N00","secret":"68de6fec14","server":"65535","farm":66,"title":"DSC_1260.jpg","ispublic":1,"isfriend":0,"isfamily":0},{"id":"52730746976","owner":"59206851@N00","secret":"89242634db","server":"65535","farm":66,"title":"DSC_8877.jpg","ispublic":1,"isfriend":0,"isfamily":0},{"id":"52730997929","owner":"59206851@N00","secret":"cb076382e1","server":"65535","farm":66,"title":"DSC_8829.jpg","ispublic":1,"isfriend":0,"isfamily":0},{"id":"52731154710","owner":"59206851@N00","secret":"34e981a05f","server":"65535","farm":66,"title":"DSC_8814.jpg","ispublic":1,"isfriend":0,"isfamily":0},{"id":"52730221022","owner":"59206851@N00","secret":"3e5f4e2081","server":"65535","farm":66,"title":"DSC_8794.jpg","ispublic":1,"isfriend":0,"isfamily":0},{"id":"52730699901","owner":"59206851@N00","secret":"fb851e2d54","server":"65535","farm":66,"title":"DSC_3281.jpg","ispublic":1,"isfriend":0,"isfamily":0},{"id":"52730699806","owner":"59206851@N00","secret":"e67b297fe6","server":"65535","farm":66,"title":"DSC_3275.jpg","ispublic":1,"isfriend":0,"isfamily":0},{"id":"52731180933","owner":"59206851@N00","secret":"c2c3734eef","server":"65535","farm":66,"title":"DSC_3256.jpg","ispublic":1,"isfriend":0,"isfamily":0},{"id":"52731180828","owner":"59206851@N00","secret":"68d4e89da4","server":"65535","farm":66,"title":"DSC_3248.jpg","ispublic":1,"isfriend":0,"isfamily":0},{"id":"52731105163","owner":"59206851@N00","secret":"1a0ffdb19d","server":"65535","farm":66,"title":"DSC_7620.jpg","ispublic":1,"isfriend":0,"isfamily":0},{"id":"52730499404","owner":"59206851@N00","secret":"b6fc8b4b60","server":"65535","farm":66,"title":"DSC_8867.jpg","ispublic":1,"isfriend":0,"isfamily":0},{"id":"52729179134","owner":"21558080@N07","secret":"01db073cd2","server":"65535","farm":66,"title":"Ruddy Duck (Oxyura jamaicensis)","ispublic":1,"isfriend":0,"isfamily":0},{"id":"52727856840","owner":"62043870@N05","secret":"49ed7a0bc8","server":"65535","farm":66,"title":"Ruddy Duck, Oxyura jamaicensis","ispublic":1,"isfriend":0,"isfamily":0},{"id":"52724227321","owner":"78441846@N03","secret":"3f53e3e3da","server":"65535","farm":66,"title":"Ruddy Duck, Oxyura jamaicensis","ispublic":1,"isfriend":0,"isfamily":0},{"id":"52722680676","owner":"103722035@N06","secret":"fde4171549","server":"65535","farm":66,"title":"Ruddy Duck (Oxyura jamaicensis), Oso Flaco, CA","ispublic":1,"isfriend":0,"isfamily":0},{"id":"52722680686","owner":"103722035@N06","secret":"67ea9aed46","server":"65535","farm":66,"title":"Ruddy Duck (Oxyura jamaicensis), Oso Flaco, CA","ispublic":1,"isfriend":0,"isfamily":0},{"id":"52722680641","owner":"103722035@N06","secret":"b463d099d3","server":"65535","farm":66,"title":"Ruddy Duck (Oxyura jamaicensis), Oso Flaco, CA","ispublic":1,"isfriend":0,"isfamily":0},{"id":"52722936769","owner":"103722035@N06","secret":"4cf547c494","server":"65535","farm":66,"title":"Ruddy Duck (Oxyura jamaicensis), Oso Flaco, CA","ispublic":1,"isfriend":0,"isfamily":0},{"id":"52716553975","owner":"26520320@N03","secret":"a87aa77496","server":"65535","farm":66,"title":"_BAP0337","ispublic":1,"isfriend":0,"isfamily":0},{"id":"52716386489","owner":"26520320@N03","secret":"b501336127","server":"65535","farm":66,"title":"_BAP0336","ispublic":1,"isfriend":0,"isfamily":0},{"id":"52716609558","owner":"26520320@N03","secret":"274798a563","server":"65535","farm":66,"title":"_BAP0333","ispublic":1,"isfriend":0,"isfamily":0},{"id":"52716552625","owner":"26520320@N03","secret":"c8cc0ea895","server":"65535","farm":66,"title":"_BAP0332","ispublic":1,"isfriend":0,"isfamily":0},{"id":"52716608478","owner":"26520320@N03","secret":"245350d229","server":"65535","farm":66,"title":"_BAP0329","ispublic":1,"isfriend":0,"isfamily":0},{"id":"52714440132","owner":"47533293@N04","secret":"f4089e407a","server":"65535","farm":66,"title":"Ruddy duck, Oxyura jamaicensis","ispublic":1,"isfriend":0,"isfamily":0},{"id":"52705295157","owner":"12639178@N07","secret":"060d633ace","server":"65535","farm":66,"title":"Schwarzkopf-Ruderente (Oxyura jamaicensis) (3)","ispublic":1,"isfriend":0,"isfamily":0},{"id":"52706233115","owner":"12639178@N07","secret":"675f789fd2","server":"65535","farm":66,"title":"Schwarzkopf-Ruderente (Oxyura jamaicensis) (2)","ispublic":1,"isfriend":0,"isfamily":0},{"id":"52704614604","owner":"34238008@N02","secret":"1d8214490e","server":"65535","farm":66,"title":"Ruddy Duck (Oxyura jamaicensis)","ispublic":1,"isfriend":0,"isfamily":0},{"id":"52704360731","owner":"34238008@N02","secret":"a86951477a","server":"65535","farm":66,"title":"Ruddy Duck (Oxyura jamaicensis)","ispublic":1,"isfriend":0,"isfamily":0},{"id":"52704143414","owner":"12639178@N07","secret":"161196e2e6","server":"65535","farm":66,"title":"Gr\u00f6\u00dfenvergleich mit Bl\u00e4sshuhn und Reiherente","ispublic":1,"isfriend":0,"isfamily":0},{"id":"52703365702","owner":"12639178@N07","secret":"3c06c4266b","server":"65535","farm":66,"title":"Schwarzkopf-Ruderente, ein seltener Gast","ispublic":1,"isfriend":0,"isfamily":0},{"id":"52701191947","owner":"62043870@N05","secret":"f36c52d987","server":"65535","farm":66,"title":"Canvasback (Aythya valisineria) and  Ruddy Duck (Oxyura jamaicensis)","ispublic":1,"isfriend":0,"isfamily":0},{"id":"52699762037","owner":"131037795@N03","secret":"cf447e5f32","server":"65535","farm":66,"title":"Canvasback (Aythya valisineria)","ispublic":1,"isfriend":0,"isfamily":0},{"id":"52698730887","owner":"62043870@N05","secret":"db3f096672","server":"65535","farm":66,"title":"Ruddy Duck, Oxyura jamaicensis","ispublic":1,"isfriend":0,"isfamily":0},{"id":"52682562368","owner":"34368269@N04","secret":"fb254e7a97","server":"65535","farm":66,"title":"Ruddy Duck","ispublic":1,"isfriend":0,"isfamily":0},{"id":"52678967321","owner":"191391950@N02","secret":"4a2ca530a6","server":"65535","farm":66,"title":"Erismature rousse - Oxyura jamaicensis","ispublic":1,"isfriend":0,"isfamily":0},{"id":"52754353371","owner":"195656112@N04","secret":"ae7de65704","server":"65535","farm":66,"title":"Ruddy Duck","ispublic":1,"isfriend":0,"isfamily":0},{"id":"52668668149","owner":"39177293@N03","secret":"a9fff64b9d","server":"65535","farm":66,"title":"Ruddy Duck","ispublic":1,"isfriend":0,"isfamily":0},{"id":"52666143298","owner":"60216873@N05","secret":"4d096e4e0b","server":"65535","farm":66,"title":"Ruddy Duck","ispublic":1,"isfriend":0,"isfamily":0},{"id":"52662212664","owner":"33610210@N05","secret":"c65c946b7f","server":"65535","farm":66,"title":"Rudy Duck, Oxyura jamaicensis","ispublic":1,"isfriend":0,"isfamily":0},{"id":"52661926401","owner":"33610210@N05","secret":"4cc35a43e5","server":"65535","farm":66,"title":"Rudy Duck, Oxyura jamaicensis","ispublic":1,"isfriend":0,"isfamily":0},{"id":"52661144260","owner":"8783241@N08","secret":"72a57cbb7d","server":"65535","farm":66,"title":"Oxyura jamaicensis - Ruddy Duck","ispublic":1,"isfriend":0,"isfamily":0},{"id":"52725683455","owner":"7546739@N08","secret":"0a17fcc3a3","server":"65535","farm":66,"title":"Ruddy Duck","ispublic":1,"isfriend":0,"isfamily":0},{"id":"52714408754","owner":"12639178@N07","secret":"51b767ffe8","server":"65535","farm":66,"title":"sie ist noch da :-)","ispublic":1,"isfriend":0,"isfamily":0},{"id":"52714150111","owner":"12639178@N07","secret":"f30e0bb5d2","server":"65535","farm":66,"title":"Schwarzkopf-Ruderente","ispublic":1,"isfriend":0,"isfamily":0},{"id":"52706233060","owner":"12639178@N07","secret":"bab830b08e","server":"65535","farm":66,"title":"Schwarzkopf-Ruderente (Oxyura jamaicensis) (1)","ispublic":1,"isfriend":0,"isfamily":0},{"id":"52694379242","owner":"143326780@N02","secret":"04244524a1","server":"65535","farm":66,"title":"DSCN4779","ispublic":1,"isfriend":0,"isfamily":0},{"id":"52695307990","owner":"143326780@N02","secret":"97b8a18327","server":"65535","farm":66,"title":"DSCN4780","ispublic":1,"isfriend":0,"isfamily":0},{"id":"52694379102","owner":"143326780@N02","secret":"03eb3539a9","server":"65535","farm":66,"title":"DSCN4783","ispublic":1,"isfriend":0,"isfamily":0},{"id":"52694895231","owner":"143326780@N02","secret":"8f31847d4a","server":"65535","farm":66,"title":"DSCN4787","ispublic":1,"isfriend":0,"isfamily":0},{"id":"52690324735","owner":"33610210@N05","secret":"4d5f1b45b7","server":"65535","farm":66,"title":"Ruddy Duck, Oxyura jamaicensis","ispublic":1,"isfriend":0,"isfamily":0},{"id":"52690401333","owner":"33610210@N05","secret":"ba8bfff7c4","server":"65535","farm":66,"title":"Ruddy Duck, Oxyura jamaicensis","ispublic":1,"isfriend":0,"isfamily":0},{"id":"52684511557","owner":"12639178@N07","secret":"7ecf2f62d3","server":"65535","farm":66,"title":"Ruddy ist wirklich klein und versteckt sich zwischen den Tafelenten\u2026","ispublic":1,"isfriend":0,"isfamily":0},{"id":"52678437312","owner":"47533293@N04","secret":"69e039b703","server":"65535","farm":66,"title":"Ruddy duck, Oxyura jamaicensis","ispublic":1,"isfriend":0,"isfamily":0},{"id":"52677329611","owner":"143326780@N02","secret":"f9dd27d1e2","server":"65535","farm":66,"title":"DSCN3900","ispublic":1,"isfriend":0,"isfamily":0},{"id":"52677763275","owner":"143326780@N02","secret":"39ec8b965e","server":"65535","farm":66,"title":"DSCN3903","ispublic":1,"isfriend":0,"isfamily":0},{"id":"52677329071","owner":"143326780@N02","secret":"9058084c3d","server":"65535","farm":66,"title":"DSCN3909","ispublic":1,"isfriend":0,"isfamily":0},{"id":"52677613734","owner":"143326780@N02","secret":"0529514b28","server":"65535","farm":66,"title":"DSCN3931","ispublic":1,"isfriend":0,"isfamily":0},{"id":"52677328111","owner":"143326780@N02","secret":"d8a9f17d36","server":"65535","farm":66,"title":"DSCN3945","ispublic":1,"isfriend":0,"isfamily":0},{"id":"52676810677","owner":"143326780@N02","secret":"a12548aeef","server":"65535","farm":66,"title":"DSCN3934","ispublic":1,"isfriend":0,"isfamily":0},{"id":"52670130678","owner":"62043870@N05","secret":"42caa87477","server":"65535","farm":66,"title":"Ruddy Ducks, Oxyura jamaicensis","ispublic":1,"isfriend":0,"isfamily":0},{"id":"52662212689","owner":"33610210@N05","secret":"ea41cac67d","server":"65535","farm":66,"title":"Rudy Duck, Oxyura jamaicensis","ispublic":1,"isfriend":0,"isfamily":0}]},"stat":"ok"}