{"photos":{"page":1,"pages":3,"perpage":100,"total":217,"photo":[{"id":"52773586270","owner":"64606186@N00","secret":"3745fb35f8","server":"65535","farm":66,"title":"Rufous-winged sparrow","ispublic":1,"isfriend":0,"isfamily":0},{"id":"52764693517","owner":"67306066@N03","secret":"fdece9cbdc","server":"65535","farm":66,"title":"Rufous-winged Sparrow (Peucaea carpalis)","ispublic":1,"isfriend":0,"isfamily":0},{"id":"52749814358","owner":"11020019@N04","secret":"e9430a6175","server":"65535","farm":66,"title":"Rufous-winged Sparrow in Tucson, Arizona","ispublic":1,"isfriend":0,"isfamily":0},{"id":"52611497008","owner":"185659367@N04","secret":"ffe2d207be","server":"65535","farm":66,"title":"Rufous-winged Sparrow","ispublic":1,"isfriend":0,"isfamily":0},{"id":"52442281000","owner":"79254232@N08","secret":"08a90cc9b2","server":"65535","farm":66,"title":"Rufous-winged Sparrow","ispublic":1,"isfriend":0,"isfamily":0},{"id":"52231020845","owner":"195819210@N03","secret":"7af254eaf7","server":"0","farm":0,"title":"(201) Rufous-winged Sparrow Audio","ispublic":1,"isfriend":0,"isfamily":0},{"id":"52005481280","owner":"152175375@N08","secret":"e0546ef7e6","server":"65535","farm":66,"title":"Rufous-winged Sparrow (Peucaea carpalis)","ispublic":1,"isfriend":0,"isfamily":0},{"id":"51611569386","owner":"185659367@N04","secret":"6e95b47a01","server":"65535","farm":66,"title":"Rufous-winged Sparrow","ispublic":1,"isfriend":0,"isfamily":0},{"id":"51342290388","owner":"69947563@N07","secret":"1c7bfd3df5","server":"65535","farm":66,"title":"Rufous-winged Sparrow - Pima County, Arizona, United States","ispublic":1,"isfriend":0,"isfamily":0},{"id":"51231731542","owner":"36682266@N06","secret":"3e8366fc1b","server":"65535","farm":66,"title":"Rufous Winged Sparrow (Peucaea carpalis)","ispublic":1,"isfriend":0,"isfamily":0},{"id":"51209842642","owner":"33573751@N04","secret":"e1ff14c908","server":"65535","farm":66,"title":"Rufous-winged Sparrow (Peucaea carpalis) in pre-dawn light - Hereford, Arizona, USA","ispublic":1,"isfriend":0,"isfamily":0},{"id":"51066345188","owner":"33573751@N04","secret":"59824a21f1","server":"65535","farm":66,"title":"Rufous-winged Sparrow (Peucaea carpalis) -- Lower Sabino Canyon, Tucson, Arizona, USA","ispublic":1,"isfriend":0,"isfamily":0},{"id":"51050545496","owner":"185659367@N04","secret":"afaee3ce88","server":"65535","farm":66,"title":"Rufous-winged Sparrow","ispublic":1,"isfriend":0,"isfamily":0},{"id":"50984782488","owner":"29170368@N03","secret":"936a634fe5","server":"65535","farm":66,"title":"Rufous-winged Sparrow","ispublic":1,"isfriend":0,"isfamily":0},{"id":"50978149077","owner":"61316002@N02","secret":"86982a2f87","server":"65535","farm":66,"title":"RUFWINSPA 1940","ispublic":1,"isfriend":0,"isfamily":0},{"id":"50711873201","owner":"8086030@N03","secret":"488e509f38","server":"65535","farm":66,"title":"Rufous-winged Sparrow, Peucaea carpalis","ispublic":1,"isfriend":0,"isfamily":0},{"id":"50145157827","owner":"61021753@N02","secret":"8458826165","server":"65535","farm":66,"title":"n388_w1150","ispublic":1,"isfriend":0,"isfamily":0},{"id":"49891277341","owner":"30170234@N08","secret":"cbd5ecba31","server":"65535","farm":66,"title":"Rufous-winged Sparrow?","ispublic":1,"isfriend":0,"isfamily":0},{"id":"49888253263","owner":"99849996@N00","secret":"74007f491b","server":"65535","farm":66,"title":"Rufous-winged Sparrow 20190619_2996","ispublic":1,"isfriend":0,"isfamily":0},{"id":"49722191217","owner":"39177293@N03","secret":"38999411c8","server":"65535","farm":66,"title":"Rufous-winged Sparrow","ispublic":1,"isfriend":0,"isfamily":0},{"id":"49578242333","owner":"65788177@N02","secret":"837fca94ca","server":"65535","farm":66,"title":"Rufous-winged Sparrow","ispublic":1,"isfriend":0,"isfamily":0},{"id":"49434288351","owner":"34238008@N02","secret":"2f603d2dfa","server":"65535","farm":66,"title":"Rufous-winged Sparrow (Peucaea carpalis)","ispublic":1,"isfriend":0,"isfamily":0},{"id":"49434514232","owner":"34238008@N02","secret":"403fef605d","server":"65535","farm":66,"title":"Rufous-winged Sparrow (Peucaea carpalis)","ispublic":1,"isfriend":0,"isfamily":0},{"id":"49434287651","owner":"34238008@N02","secret":"763a3dc3e2","server":"65535","farm":66,"title":"Rufous-winged Sparrow (Peucaea carpalis)","ispublic":1,"isfriend":0,"isfamily":0},{"id":"49304338818","owner":"34238008@N02","secret":"5cdfa6a49b","server":"65535","farm":66,"title":"Rufous-winged Sparrow (Peucaea carpalis)","ispublic":1,"isfriend":0,"isfamily":0},{"id":"49305039917","owner":"34238008@N02","secret":"1101099f8c","server":"65535","farm":66,"title":"Rufous-winged Sparrow (Peucaea carpalis)","ispublic":1,"isfriend":0,"isfamily":0},{"id":"49280658958","owner":"34238008@N02","secret":"6cd45bb109","server":"65535","farm":66,"title":"Rufous-winged Sparrow (Peucaea carpalis)","ispublic":1,"isfriend":0,"isfamily":0},{"id":"48929056651","owner":"106773832@N02","secret":"978338be76","server":"65535","farm":66,"title":"Rufous-winged Sparrow (Peucaea carpalis)-2223","ispublic":1,"isfriend":0,"isfamily":0},{"id":"48929248067","owner":"106773832@N02","secret":"453b251773","server":"65535","farm":66,"title":"Rufous-winged Sparrow (Peucaea carpalis)-2205","ispublic":1,"isfriend":0,"isfamily":0},{"id":"48928518338","owner":"106773832@N02","secret":"7bc60074e8","server":"65535","farm":66,"title":"Rufous-winged Sparrow (Peucaea carpalis)-2199","ispublic":1,"isfriend":0,"isfamily":0},{"id":"48928518033","owner":"106773832@N02","secret":"1b011ab421","server":"65535","farm":66,"title":"Rufous-winged Sparrow (Peucaea carpalis)-2186","ispublic":1,"isfriend":0,"isfamily":0},{"id":"48929247237","owner":"106773832@N02","secret":"124069d4f5","server":"65535","farm":66,"title":"Rufous-winged Sparrow (Peucaea carpalis)-2182","ispublic":1,"isfriend":0,"isfamily":0},{"id":"47981013482","owner":"44880465@N02","secret":"41aeb2313e","server":"65535","farm":66,"title":"Chipping Sparrow","ispublic":1,"isfriend":0,"isfamily":0},{"id":"40841391693","owner":"65788177@N02","secret":"de05883686","server":"65535","farm":66,"title":"Rufous-winged Sparrow","ispublic":1,"isfriend":0,"isfamily":0},{"id":"40065057813","owner":"39177293@N03","secret":"4aeedd3f5e","server":"4889","farm":5,"title":"Rufous-winged Sparrow","ispublic":1,"isfriend":0,"isfamily":0},{"id":"40065057703","owner":"39177293@N03","secret":"06239aabb0","server":"7844","farm":8,"title":"Rufous-winged Sparrow","ispublic":1,"isfriend":0,"isfamily":0},{"id":"46729525171","owner":"63283725@N04","secret":"651e5aba0e","server":"4832","farm":5,"title":"Rufous-winged Sparrow (Peucaea carpalis)","ispublic":1,"isfriend":0,"isfamily":0},{"id":"46505979912","owner":"63283725@N04","secret":"4e8a06651d","server":"4845","farm":5,"title":"Juvenile Rufous-winged Sparrow (Peucaea carpalis)","ispublic":1,"isfriend":0,"isfamily":0},{"id":"43570452195","owner":"48912028@N05","secret":"a72dc61358","server":"1850","farm":2,"title":"Rufous-winged Sparrow, Peucaea carpalis","ispublic":1,"isfriend":0,"isfamily":0},{"id":"42981524274","owner":"48912028@N05","secret":"971e0f8c7f","server":"937","farm":1,"title":"Rufous-winged Sparrow, Peucaea carpalis","ispublic":1,"isfriend":0,"isfamily":0},{"id":"43146773162","owner":"40928097@N07","secret":"526a228783","server":"1828","farm":2,"title":"Rufous-winged Sparrow","ispublic":1,"isfriend":0,"isfamily":0},{"id":"40490920790","owner":"76617062@N08","secret":"62eb97c359","server":"959","farm":1,"title":"1.29452 Bruant \u00e0 \u00e9paulettes \/ Peucaea carpalis carpalis \/ Rufous-winged Sparrow","ispublic":1,"isfriend":0,"isfamily":0},{"id":"40046631510","owner":"126805965@N03","secret":"fb89604427","server":"871","farm":1,"title":"Rufous-winged Sparrow (Peucaea carpalis) on Ocotillo - Madera Canyon, AZ","ispublic":1,"isfriend":0,"isfamily":0},{"id":"39758860440","owner":"59946862@N07","secret":"9e85997736","server":"920","farm":1,"title":"Rufous-winged Sparrow -Peucaea carpalis rwsp","ispublic":1,"isfriend":0,"isfamily":0},{"id":"38679258150","owner":"9968045@N03","secret":"883280be2f","server":"4723","farm":5,"title":"Rufous-winged sparrow","ispublic":1,"isfriend":0,"isfamily":0},{"id":"25381913777","owner":"39177293@N03","secret":"f5760f7784","server":"4660","farm":5,"title":"Rufous-winged Sparrow","ispublic":1,"isfriend":0,"isfamily":0},{"id":"25381913597","owner":"39177293@N03","secret":"7bbc15c5c5","server":"4711","farm":5,"title":"Rufous-winged Sparrow","ispublic":1,"isfriend":0,"isfamily":0},{"id":"39681065892","owner":"36682266@N06","secret":"d80d493177","server":"4610","farm":5,"title":"Rufous-winged sparrow (Peucaea carpalis)","ispublic":1,"isfriend":0,"isfamily":0},{"id":"52579782627","owner":"153973412@N04","secret":"56f2549c6b","server":"65535","farm":66,"title":"Rufous-winged Sparrow-Peucaea carpalis, AZ","ispublic":1,"isfriend":0,"isfamily":0},{"id":"52306520541","owner":"196264892@N08","secret":"cbe4515afb","server":"65535","farm":66,"title":"Rufous-winged Sparrow (1)","ispublic":1,"isfriend":0,"isfamily":0},{"id":"52306520441","owner":"196264892@N08","secret":"afa5df783c","server":"65535","farm":66,"title":"Rufous-winged Sparrow (2)","ispublic":1,"isfriend":0,"isfamily":0},{"id":"51797157427","owner":"61301322@N08","secret":"e8c183bee0","server":"65535","farm":66,"title":"Rufous-winged Sparrow (Benson)","ispublic":1,"isfriend":0,"isfamily":0},{"id":"51409712675","owner":"186211059@N06","secret":"6962c7766f","server":"65535","farm":66,"title":"Rufous-winged Sparrow","ispublic":1,"isfriend":0,"isfamily":0},{"id":"51407986157","owner":"186211059@N06","secret":"f8e416c095","server":"65535","farm":66,"title":"Rufous-winged Sparrow","ispublic":1,"isfriend":0,"isfamily":0},{"id":"51384544816","owner":"186748160@N02","secret":"1777c717ab","server":"65535","farm":66,"title":"Rufous-winged sparrow (Peucaea carpalis)","ispublic":1,"isfriend":0,"isfamily":0},{"id":"51385289229","owner":"186748160@N02","secret":"472f30c163","server":"65535","farm":66,"title":"Rufous-winged sparrow (Peucaea carpalis)","ispublic":1,"isfriend":0,"isfamily":0},{"id":"51385289199","owner":"186748160@N02","secret":"e7d2a99999","server":"65535","farm":66,"title":"Rufous-winged sparrow (Peucaea carpalis)","ispublic":1,"isfriend":0,"isfamily":0},{"id":"51385289139","owner":"186748160@N02","secret":"d5b518e851","server":"65535","farm":66,"title":"Rufous-winged sparrow (Peucaea carpalis)","ispublic":1,"isfriend":0,"isfamily":0},{"id":"51384544496","owner":"186748160@N02","secret":"8df7faf2f3","server":"65535","farm":66,"title":"Rufous-winged sparrow (Peucaea carpalis)","ispublic":1,"isfriend":0,"isfamily":0},{"id":"51385556875","owner":"186748160@N02","secret":"cf8cd67b53","server":"65535","farm":66,"title":"Rufous-winged sparrow (Peucaea carpalis)","ispublic":1,"isfriend":0,"isfamily":0},{"id":"51384795653","owner":"186748160@N02","secret":"8151d10a3b","server":"65535","farm":66,"title":"Rufous-winged sparrow (Peucaea carpalis)","ispublic":1,"isfriend":0,"isfamily":0},{"id":"50897905366","owner":"48912028@N05","secret":"d594100cdd","server":"65535","farm":66,"title":"Rufous-winged Sparrow, Peucaea carpalis","ispublic":1,"isfriend":0,"isfamily":0},{"id":"50898019747","owner":"48912028@N05","secret":"11dee1c76b","server":"65535","farm":66,"title":"Rufous-winged Sparrow, Peucaea carpalis","ispublic":1,"isfriend":0,"isfamily":0},{"id":"50897904796","owner":"48912028@N05","secret":"22ed32291b","server":"65535","farm":66,"title":"Rufous-winged Sparrow, Peucaea carpalis","ispublic":1,"isfriend":0,"isfamily":0},{"id":"50829288488","owner":"185659367@N04","secret":"695bf81580","server":"65535","farm":66,"title":"Rufous-winged Sparrow","ispublic":1,"isfriend":0,"isfamily":0},{"id":"50711958642","owner":"8086030@N03","secret":"d8c852f4cf","server":"65535","farm":66,"title":"Rufous-winged Sparrow, Peucaea carpalis","ispublic":1,"isfriend":0,"isfamily":0},{"id":"50683315066","owner":"125723802@N05","secret":"46cacea8b6","server":"65535","farm":66,"title":"Peucaea carpalis - Rufous-winged Sparrow","ispublic":1,"isfriend":0,"isfamily":0},{"id":"50515430628","owner":"48912028@N05","secret":"8ef7337b60","server":"65535","farm":66,"title":"Rufous-winged Sparrow, Peucaea carpalis","ispublic":1,"isfriend":0,"isfamily":0},{"id":"49740386988","owner":"15078827@N05","secret":"0cb3c7224e","server":"65535","farm":66,"title":"Rufous-winged Sparrow (Peucaea carpalis)","ispublic":1,"isfriend":0,"isfamily":0},{"id":"49727142078","owner":"26803925@N05","secret":"fefe9433a0","server":"65535","farm":66,"title":"Rufous-winged Sparrow (Peucaea carpalis) 01-12-2020 De Anza Trail--Tubac, Pima Co. AZ 9","ispublic":1,"isfriend":0,"isfamily":0},{"id":"49727141993","owner":"26803925@N05","secret":"9845cb587a","server":"65535","farm":66,"title":"Rufous-winged Sparrow (Peucaea carpalis) 01-12-2020 De Anza Trail--Tubac, Pima Co. AZ 6","ispublic":1,"isfriend":0,"isfamily":0},{"id":"49727688496","owner":"26803925@N05","secret":"a5c90ba39c","server":"65535","farm":66,"title":"Rufous-winged Sparrow (Peucaea carpalis) 01-12-2020 De Anza Trail--Tubac, Pima Co. AZ 8","ispublic":1,"isfriend":0,"isfamily":0},{"id":"49727141888","owner":"26803925@N05","secret":"f3b512d8cb","server":"65535","farm":66,"title":"Rufous-winged Sparrow (Peucaea carpalis) 01-12-2020 De Anza Trail--Tubac, Pima Co. AZ 2","ispublic":1,"isfriend":0,"isfamily":0},{"id":"49727141948","owner":"26803925@N05","secret":"368638cab0","server":"65535","farm":66,"title":"Rufous-winged Sparrow (Peucaea carpalis) 01-12-2020 De Anza Trail--Tubac, Pima Co. AZ 3","ispublic":1,"isfriend":0,"isfamily":0},{"id":"49364226722","owner":"32752434@N07","secret":"ac914e66b3","server":"65535","farm":66,"title":"Rufous-winged Sparrow (Peucaea carpalis)","ispublic":1,"isfriend":0,"isfamily":0},{"id":"49342125312","owner":"186211059@N06","secret":"5f1cccfeaa","server":"65535","farm":66,"title":"Rufous-winged Sparrow","ispublic":1,"isfriend":0,"isfamily":0},{"id":"49342124952","owner":"186211059@N06","secret":"1312a455ae","server":"65535","farm":66,"title":"Rufous-winged Sparrow","ispublic":1,"isfriend":0,"isfamily":0},{"id":"48797075431","owner":"62043870@N05","secret":"894680df50","server":"65535","farm":66,"title":"Rufous-winged Sparrow, Peucaea carpalis","ispublic":1,"isfriend":0,"isfamily":0},{"id":"48140404283","owner":"69947563@N07","secret":"7536006059","server":"65535","farm":66,"title":"Rufous-winged Sparrow - Green Valley, Arizona","ispublic":1,"isfriend":0,"isfamily":0},{"id":"48140379982","owner":"69947563@N07","secret":"9c2c7801e6","server":"65535","farm":66,"title":"Rufous-winged Sparrow - Green Valley, Arizona","ispublic":1,"isfriend":0,"isfamily":0},{"id":"47960826953","owner":"92958335@N03","secret":"f31bbe471f","server":"65535","farm":66,"title":"Rufous-winged Sparrow Sabino Canyon 060519 (3)","ispublic":1,"isfriend":0,"isfamily":0},{"id":"47525092611","owner":"37699157@N00","secret":"7f28657e30","server":"7805","farm":8,"title":"Rufous-winged Sparrow (Peucaea carpalis)","ispublic":1,"isfriend":0,"isfamily":0},{"id":"46620086734","owner":"128912061@N06","secret":"bf80941ac1","server":"7926","farm":8,"title":"ruwspa Peucaea carpalis Rufous-winged Sparrow","ispublic":1,"isfriend":0,"isfamily":0},{"id":"40378169933","owner":"128912061@N06","secret":"a8ab40134c","server":"7884","farm":8,"title":"ruwspa Peucaea carpalis Rufous-winged Sparrow2","ispublic":1,"isfriend":0,"isfamily":0},{"id":"46642454182","owner":"152662785@N07","secret":"a61968c159","server":"7813","farm":8,"title":"Rufous-winged Sparrow (Peucaea carpalis) and Northern Cardinal (Cardinalis cardinalis)","ispublic":1,"isfriend":0,"isfamily":0},{"id":"45820303464","owner":"63283725@N04","secret":"25a7739cb0","server":"7922","farm":8,"title":"Rufous-winged Sparrow (Peucaea carpalis) and Lesser Goldfinch","ispublic":1,"isfriend":0,"isfamily":0},{"id":"45960036222","owner":"44211019@N05","secret":"86e5c7cec3","server":"4904","farm":5,"title":"Rufous-winged Sparrow","ispublic":1,"isfriend":0,"isfamily":0},{"id":"29905824517","owner":"62043870@N05","secret":"00f59fd723","server":"1954","farm":2,"title":"Rufous-winged Sparrow, Peucaea carpalis","ispublic":1,"isfriend":0,"isfamily":0},{"id":"29905824087","owner":"62043870@N05","secret":"ae53c3a35e","server":"1868","farm":2,"title":"Rufous-winged Sparrow, Peucaea carpalis","ispublic":1,"isfriend":0,"isfamily":0},{"id":"30807217618","owner":"26803925@N05","secret":"d9834d6a8c","server":"1854","farm":2,"title":"Rufous-winged Sparrow (Peucaea carpalis) 07-31-2018 Patagonia Lake Road, Santa Cruz Co. AZ 5","ispublic":1,"isfriend":0,"isfamily":0},{"id":"30807217718","owner":"26803925@N05","secret":"4b0af253e9","server":"1878","farm":2,"title":"Rufous-winged Sparrow (Peucaea carpalis) 07-31-2018 Patagonia Lake Road, Santa Cruz Co. AZ 7","ispublic":1,"isfriend":0,"isfamily":0},{"id":"30807217478","owner":"26803925@N05","secret":"da49088823","server":"1849","farm":2,"title":"Rufous-winged Sparrow (Peucaea carpalis) 07-31-2018 Patagonia Lake Road, Santa Cruz Co. AZ 3","ispublic":1,"isfriend":0,"isfamily":0},{"id":"29727926378","owner":"48912028@N05","secret":"b5636030a7","server":"857","farm":1,"title":"Rufous-winged Sparrow, Peucaea carpalis","ispublic":1,"isfriend":0,"isfamily":0},{"id":"43550909642","owner":"48912028@N05","secret":"ff8b2bb7cc","server":"833","farm":1,"title":"Rufous-winged Sparrow, Peucaea carpalis","ispublic":1,"isfriend":0,"isfamily":0},{"id":"28688101327","owner":"48912028@N05","secret":"eb6cc8ecb2","server":"1807","farm":2,"title":"Rufous-winged Sparrow, Peucaea carpalis","ispublic":1,"isfriend":0,"isfamily":0},{"id":"29704188928","owner":"48912028@N05","secret":"ce5c497958","server":"1790","farm":2,"title":"Rufous-winged Sparrow, Peucaea carpalis","ispublic":1,"isfriend":0,"isfamily":0},{"id":"41312854795","owner":"32406637@N06","secret":"bf20403d5d","server":"911","farm":1,"title":"sparrows... rufous-winged sparrow 2018.4.29 az coronado nat'l foreat california gulch","ispublic":1,"isfriend":0,"isfamily":0},{"id":"40698484785","owner":"157219025@N05","secret":"9d8ee404e1","server":"924","farm":1,"title":"Rufous-winged Sparrow (Peucaea carpalis), Sabino Canyon, Tucson Mar 25 2018","ispublic":1,"isfriend":0,"isfamily":0},{"id":"41550145212","owner":"157219025@N05","secret":"e1e4dfbb39","server":"909","farm":1,"title":"Rufous-winged Sparrow (Peucaea carpalis), Sabino Canyon, Tucson Mar 25 2018","ispublic":1,"isfriend":0,"isfamily":0},{"id":"39354859395","owner":"39177293@N03","secret":"6874a7f59e","server":"4761","farm":5,"title":"Rufous-winged Sparrow","ispublic":1,"isfriend":0,"isfamily":0}]},"stat":"ok"}