{"photos":{"page":1,"pages":4,"perpage":100,"total":374,"photo":[{"id":"52595150045","owner":"65788177@N02","secret":"5b4cde8f65","server":"65535","farm":66,"title":"Rufous-backed Robin","ispublic":1,"isfriend":0,"isfamily":0},{"id":"52561608232","owner":"98627816@N02","secret":"89c02146bb","server":"65535","farm":66,"title":"Rufus Backed Robin (Turdus rufopalliatus)","ispublic":1,"isfriend":0,"isfamily":0},{"id":"52466518285","owner":"98627816@N02","secret":"5ce26da55b","server":"65535","farm":66,"title":"Rufus backed Robin (Turdus rufopalliatus)","ispublic":1,"isfriend":0,"isfamily":0},{"id":"52403226276","owner":"8065544@N08","secret":"140dce82f3","server":"65535","farm":66,"title":"Rufous-backed Robin (Turdus rufopalliatus)","ispublic":1,"isfriend":0,"isfamily":0},{"id":"52249191778","owner":"76617062@N08","secret":"3a7efa0fcc","server":"65535","farm":66,"title":"1.26157 Merle \u00e0 dos roux \/ Turdus rufopalliatus rufopalliatus \/ Rufous-backed Thrush","ispublic":1,"isfriend":0,"isfamily":0},{"id":"52227713761","owner":"76617062@N08","secret":"f15f67556b","server":"65535","farm":66,"title":"1.26157 Merle \u00e0 dos roux \/ Turdus rufopalliatus rufopalliatus \/ Rufous-backed Thrush","ispublic":1,"isfriend":0,"isfamily":0},{"id":"52219437042","owner":"26371261@N00","secret":"2cf103ce84","server":"65535","farm":66,"title":"Rufous-backed Robin, Turdus rufopalliatus","ispublic":1,"isfriend":0,"isfamily":0},{"id":"52219436492","owner":"26371261@N00","secret":"925e0e6e15","server":"65535","farm":66,"title":"Rufous-backed Robin, Turdus rufopalliatus","ispublic":1,"isfriend":0,"isfamily":0},{"id":"52160441594","owner":"54249623@N08","secret":"a5b5fa2f6c","server":"65535","farm":66,"title":"Rufous-backed Thrush (Turdus rufopalliatus)","ispublic":1,"isfriend":0,"isfamily":0},{"id":"52134489789","owner":"62445008@N00","secret":"0df98bbfaf","server":"65535","farm":66,"title":"Rufous-backed Thrush (Turdus rufopalliatus)","ispublic":1,"isfriend":0,"isfamily":0},{"id":"52134249771","owner":"62445008@N00","secret":"f393897194","server":"65535","farm":66,"title":"Rufous-backed Thrush (Turdus rufopalliatus)","ispublic":1,"isfriend":0,"isfamily":0},{"id":"52133228487","owner":"62445008@N00","secret":"656c510223","server":"65535","farm":66,"title":"Rufous-backed Thrush (Turdus rufopalliatus)","ispublic":1,"isfriend":0,"isfamily":0},{"id":"52133228432","owner":"62445008@N00","secret":"dbe42847ae","server":"65535","farm":66,"title":"Rufous-backed Thrush (Turdus rufopalliatus)","ispublic":1,"isfriend":0,"isfamily":0},{"id":"52096806145","owner":"154974106@N07","secret":"52f5df16cb","server":"65535","farm":66,"title":"Turdus rufopalliatus","ispublic":1,"isfriend":0,"isfamily":0},{"id":"52069463106","owner":"74834643@N07","secret":"2243451a3e","server":"65535","farm":66,"title":"Rufous-backed Robin (Turdus rufopalliatus)","ispublic":1,"isfriend":0,"isfamily":0},{"id":"52069946555","owner":"74834643@N07","secret":"9f607ea0ea","server":"65535","farm":66,"title":"Rufous-backed Robin (Turdus rufopalliatus)","ispublic":1,"isfriend":0,"isfamily":0},{"id":"52069462991","owner":"74834643@N07","secret":"03de1b4fe2","server":"65535","farm":66,"title":"Rufous-backed Robin (Turdus rufopalliatus)","ispublic":1,"isfriend":0,"isfamily":0},{"id":"52040510460","owner":"76617062@N08","secret":"dec76a852e","server":"65535","farm":66,"title":"1.26157 Merle \u00e0 dos roux \/ Turdus rufopalliatus rufopalliatus \/ Rufous-backed Thrush","ispublic":1,"isfriend":0,"isfamily":0},{"id":"51929608030","owner":"67306066@N03","secret":"183c25568d","server":"65535","farm":66,"title":"Rufous-backed Robin (Turdus rufopalliatus)","ispublic":1,"isfriend":0,"isfamily":0},{"id":"51927044196","owner":"67306066@N03","secret":"14e79531e1","server":"65535","farm":66,"title":"Rufous-backed Robin (Turdus rufopalliatus)","ispublic":1,"isfriend":0,"isfamily":0},{"id":"51926073882","owner":"67306066@N03","secret":"12dbb5c736","server":"65535","farm":66,"title":"Rufous-backed Robin (Turdus rufopalliatus)","ispublic":1,"isfriend":0,"isfamily":0},{"id":"51690398167","owner":"193208965@N02","secret":"ccc4206753","server":"65535","farm":66,"title":"Rufous-backed thrush","ispublic":1,"isfriend":0,"isfamily":0},{"id":"51367500730","owner":"33106392@N08","secret":"d85927459f","server":"65535","farm":66,"title":"Rufous-backed Robin","ispublic":1,"isfriend":0,"isfamily":0},{"id":"51337895073","owner":"26371261@N00","secret":"3c04e4e72e","server":"65535","farm":66,"title":"Rufous-backed Robin, Turdus rufopalliatus","ispublic":1,"isfriend":0,"isfamily":0},{"id":"51320824673","owner":"77671375@N04","secret":"6aa7bec66b","server":"65535","farm":66,"title":"Rufous-backed Robin","ispublic":1,"isfriend":0,"isfamily":0},{"id":"51037739922","owner":"185659367@N04","secret":"1664a483ac","server":"65535","farm":66,"title":"Rufous-backed Robin","ispublic":1,"isfriend":0,"isfamily":0},{"id":"50912554361","owner":"119787485@N07","secret":"1336398988","server":"65535","farm":66,"title":"Rufous-backed Robin (Turdus rufopalliatus rufopalliatus) - 20120104-06","ispublic":1,"isfriend":0,"isfamily":0},{"id":"50876160747","owner":"61316002@N02","secret":"6197209340","server":"65535","farm":66,"title":"RUFBACROB 1119","ispublic":1,"isfriend":0,"isfamily":0},{"id":"50772655332","owner":"8065544@N08","secret":"f69dee30fc","server":"65535","farm":66,"title":"Rufous-backed Robin (Turdus rufopalliatus)","ispublic":1,"isfriend":0,"isfamily":0},{"id":"50615558922","owner":"148175456@N03","secret":"877550402b","server":"65535","farm":66,"title":"Mirlo Dorso Canela (Turdus rufopalliatus)","ispublic":1,"isfriend":0,"isfamily":0},{"id":"50540998353","owner":"48912028@N05","secret":"d0dc105e6d","server":"65535","farm":66,"title":"Rufous-backed Robin, Turdus rufopalliatus","ispublic":1,"isfriend":0,"isfamily":0},{"id":"50511942932","owner":"26096524@N03","secret":"b659aa2e5b","server":"65535","farm":66,"title":"Rufous-backed Robin (Turdus rufopalliatus)","ispublic":1,"isfriend":0,"isfamily":0},{"id":"49970367701","owner":"184155060@N04","secret":"0b3640103a","server":"65535","farm":66,"title":"27473 Merle \u00e0 dos roux a \/ Turdus rufopalliatus rufopalliatus \/ Rufous-backed Robin (Rufous-backed)","ispublic":1,"isfriend":0,"isfamily":0},{"id":"49970635522","owner":"184155060@N04","secret":"b8708a7406","server":"65535","farm":66,"title":"27473 Merle \u00e0 dos roux b \/ Turdus rufopalliatus rufopalliatus \/ Rufous-backed Robin (Rufous-backed)","ispublic":1,"isfriend":0,"isfamily":0},{"id":"49943669467","owner":"90816109@N04","secret":"3755bca721","server":"65535","farm":66,"title":"Rufous-backed Robin","ispublic":1,"isfriend":0,"isfamily":0},{"id":"46988530485","owner":"56983940@N06","secret":"2837fd3f1d","server":"65535","farm":66,"title":"Rufous-backed Robin","ispublic":1,"isfriend":0,"isfamily":0},{"id":"40665878483","owner":"76617062@N08","secret":"2b9aab2f1e","server":"65535","farm":66,"title":"1.26157 Merle \u00e0 dos roux \/ Turdus rufopalliatus rufopalliatus \/ Rufous-backed Thrush","ispublic":1,"isfriend":0,"isfamily":0},{"id":"33633196638","owner":"76617062@N08","secret":"2c1b32e97f","server":"7861","farm":8,"title":"1.26157 Merle \u00e0 dos roux \/ Turdus rufopalliatus rufopalliatus \/ Rufous-backed Thrush","ispublic":1,"isfriend":0,"isfamily":0},{"id":"32525261827","owner":"33573751@N04","secret":"07900671b3","server":"65535","farm":66,"title":"Rufous-backed Robin (Turdus rufopalliatus) - Oaxaca, Mexico","ispublic":1,"isfriend":0,"isfamily":0},{"id":"32525261787","owner":"33573751@N04","secret":"3a78b38595","server":"7868","farm":8,"title":"Rufous-backed Robin (Turdus rufopalliatus) - Oaxaca, Mexico","ispublic":1,"isfriend":0,"isfamily":0},{"id":"40240046703","owner":"41694014@N04","secret":"c75ab2e062","server":"7919","farm":8,"title":"Turdus rufopalliatus","ispublic":1,"isfriend":0,"isfamily":0},{"id":"33014616788","owner":"33610210@N05","secret":"48baabbc0d","server":"7811","farm":8,"title":"Rufous-backed Robin, Turdus rufopalliatus","ispublic":1,"isfriend":0,"isfamily":0},{"id":"33014613948","owner":"33610210@N05","secret":"223f26e38b","server":"7857","farm":8,"title":"Rufous-backed Robin, Turdus rufopalliatus","ispublic":1,"isfriend":0,"isfamily":0},{"id":"52240598165","owner":"196132149@N08","secret":"c46c9c2707","server":"65535","farm":66,"title":"Rufous-Backed Robin","ispublic":1,"isfriend":0,"isfamily":0},{"id":"52219075233","owner":"196132149@N08","secret":"724052ef69","server":"65535","farm":66,"title":"Rufous-Backed Robin","ispublic":1,"isfriend":0,"isfamily":0},{"id":"52196254487","owner":"41694014@N04","secret":"e33c963688","server":"65535","farm":66,"title":"Mirla dorso caf\u00e9","ispublic":1,"isfriend":0,"isfamily":0},{"id":"52186864239","owner":"41694014@N04","secret":"e9c5a1e4d8","server":"65535","farm":66,"title":"Turdus rufopalliatus","ispublic":1,"isfriend":0,"isfamily":0},{"id":"51939777745","owner":"41694014@N04","secret":"55783854ce","server":"65535","farm":66,"title":"Turdus rufopalliatus","ispublic":1,"isfriend":0,"isfamily":0},{"id":"51790057658","owner":"61301322@N08","secret":"fa5be45174","server":"65535","farm":66,"title":"Rufous-backed Robin (Boyce Thompson Arboretum)","ispublic":1,"isfriend":0,"isfamily":0},{"id":"51790677250","owner":"61301322@N08","secret":"000178f1c1","server":"65535","farm":66,"title":"Rufous-backed Robin (Boyce Thompson Arboretum)","ispublic":1,"isfriend":0,"isfamily":0},{"id":"51721344987","owner":"26371261@N00","secret":"5e4b2e72ca","server":"65535","farm":66,"title":"Rufous-backed Robin, Turdus rufopalliatus","ispublic":1,"isfriend":0,"isfamily":0},{"id":"51336949452","owner":"26371261@N00","secret":"82489ff745","server":"65535","farm":66,"title":"Rufous-backed Robin, Turdus rufopalliatus","ispublic":1,"isfriend":0,"isfamily":0},{"id":"51314667265","owner":"26371261@N00","secret":"f3ae3a22b5","server":"65535","farm":66,"title":"Rufous-backed Robin, Turdus rufopalliatus","ispublic":1,"isfriend":0,"isfamily":0},{"id":"51295431837","owner":"26371261@N00","secret":"b5f4101848","server":"65535","farm":66,"title":"Rufous-backed Robin, Turdus rufopalliatus","ispublic":1,"isfriend":0,"isfamily":0},{"id":"51296177341","owner":"26371261@N00","secret":"76f6a9642f","server":"65535","farm":66,"title":"Rufous-backed Robin, Turdus rufopalliatus","ispublic":1,"isfriend":0,"isfamily":0},{"id":"51057541486","owner":"89246322@N04","secret":"7b0a6d9ff1","server":"65535","farm":66,"title":"Rufous-backed Robin - Turdus rufopalliatus","ispublic":1,"isfriend":0,"isfamily":0},{"id":"50842836936","owner":"191797145@N04","secret":"a46873759b","server":"65535","farm":66,"title":"Mirlo dorso canela (Turdus rufopalliatus), Sierra de Guadalupe","ispublic":1,"isfriend":0,"isfamily":0},{"id":"50842921422","owner":"191797145@N04","secret":"aa94608461","server":"65535","farm":66,"title":"Mirlo dorso canela (Turdus rufopalliatus),Sierra de Guadalupe","ispublic":1,"isfriend":0,"isfamily":0},{"id":"50842920092","owner":"191797145@N04","secret":"58b70df3ee","server":"65535","farm":66,"title":"Mirlo dorso canela (Turdus rufopalliatus), Sierra de Guadalupe","ispublic":1,"isfriend":0,"isfamily":0},{"id":"50825479208","owner":"26371261@N00","secret":"7e926d194d","server":"65535","farm":66,"title":"Rufous-backed Robin, Turdus rufopalliatus","ispublic":1,"isfriend":0,"isfamily":0},{"id":"50825478868","owner":"26371261@N00","secret":"bb60f8ca43","server":"65535","farm":66,"title":"Rufous-backed Robin, Turdus rufopalliatus","ispublic":1,"isfriend":0,"isfamily":0},{"id":"50824468122","owner":"26371261@N00","secret":"0a6bf640de","server":"65535","farm":66,"title":"Rufous-backed Robin, Turdus rufopalliatus","ispublic":1,"isfriend":0,"isfamily":0},{"id":"50788033243","owner":"26371261@N00","secret":"d8807867c4","server":"65535","farm":66,"title":"Rufous-backed Robin, Turdus rufopalliatus","ispublic":1,"isfriend":0,"isfamily":0},{"id":"50788790286","owner":"26371261@N00","secret":"5a57307ac4","server":"65535","farm":66,"title":"Rufous-backed Robin, Turdus rufopalliatus","ispublic":1,"isfriend":0,"isfamily":0},{"id":"50682617172","owner":"15078827@N05","secret":"633f4aa555","server":"65535","farm":66,"title":"Rufous-backed Robin (Turdus rufopalliatus)","ispublic":1,"isfriend":0,"isfamily":0},{"id":"49817142948","owner":"12639178@N07","secret":"fa0d03eef9","server":"65535","farm":66,"title":"Rotmanteldrossel - M\u00e4rz 20","ispublic":1,"isfriend":0,"isfamily":0},{"id":"49789239626","owner":"12639178@N07","secret":"11125fe63f","server":"65535","farm":66,"title":"Rotmanteldrossel - M\u00e4rz 20","ispublic":1,"isfriend":0,"isfamily":0},{"id":"49750610381","owner":"155140901@N04","secret":"5067879136","server":"65535","farm":66,"title":"Turdus rufopalliatus","ispublic":1,"isfriend":0,"isfamily":0},{"id":"49789839408","owner":"165820255@N07","secret":"4bbfce1a87","server":"65535","farm":66,"title":"P6171778","ispublic":1,"isfriend":0,"isfamily":0},{"id":"49790698032","owner":"165820255@N07","secret":"40e7d17460","server":"65535","farm":66,"title":"P6171793","ispublic":1,"isfriend":0,"isfamily":0},{"id":"49573296103","owner":"12639178@N07","secret":"9b129ca743","server":"65535","farm":66,"title":"Turdus rufopalliatus 20180523 b","ispublic":1,"isfriend":0,"isfamily":0},{"id":"49573295738","owner":"12639178@N07","secret":"0ba612e460","server":"65535","farm":66,"title":"Turdus rufopalliatus 20180523 a","ispublic":1,"isfriend":0,"isfamily":0},{"id":"49337623911","owner":"33610210@N05","secret":"feac6ccf75","server":"65535","farm":66,"title":"Rufous-backed Robin, Turdus rufopalliatus","ispublic":1,"isfriend":0,"isfamily":0},{"id":"49337623856","owner":"33610210@N05","secret":"56ae0275c6","server":"65535","farm":66,"title":"Rufous-backed Robin, Turdus rufopalliatus","ispublic":1,"isfriend":0,"isfamily":0},{"id":"49337623751","owner":"33610210@N05","secret":"d2570c3168","server":"65535","farm":66,"title":"Rufous-backed Robin, Turdus rufopalliatus","ispublic":1,"isfriend":0,"isfamily":0},{"id":"49337843962","owner":"33610210@N05","secret":"ec126339f1","server":"65535","farm":66,"title":"Rufous-backed Robin, Turdus rufopalliatus","ispublic":1,"isfriend":0,"isfamily":0},{"id":"49337843877","owner":"33610210@N05","secret":"8596ed81b5","server":"65535","farm":66,"title":"Rufous-backed Robin, Turdus rufopalliatus","ispublic":1,"isfriend":0,"isfamily":0},{"id":"49337161268","owner":"33610210@N05","secret":"08b20cbae8","server":"65535","farm":66,"title":"Rufous-backed Robin, Turdus rufopalliatus","ispublic":1,"isfriend":0,"isfamily":0},{"id":"49337623436","owner":"33610210@N05","secret":"45808cd706","server":"65535","farm":66,"title":"Rufous-backed Robin, Turdus rufopalliatus","ispublic":1,"isfriend":0,"isfamily":0},{"id":"49337161098","owner":"33610210@N05","secret":"1db5a8aa10","server":"65535","farm":66,"title":"Rufous-backed Robin, Turdus rufopalliatus","ispublic":1,"isfriend":0,"isfamily":0},{"id":"49337843542","owner":"33610210@N05","secret":"76b613a5eb","server":"65535","farm":66,"title":"Rufous-backed Robin, Turdus rufopalliatus","ispublic":1,"isfriend":0,"isfamily":0},{"id":"49337843472","owner":"33610210@N05","secret":"395473f3a9","server":"65535","farm":66,"title":"Rufous-backed Robin, Turdus rufopalliatus","ispublic":1,"isfriend":0,"isfamily":0},{"id":"49337622951","owner":"33610210@N05","secret":"d06f430ab7","server":"65535","farm":66,"title":"Rufous-backed Robin, Turdus rufopalliatus","ispublic":1,"isfriend":0,"isfamily":0},{"id":"49337160563","owner":"33610210@N05","secret":"8edc920d0b","server":"65535","farm":66,"title":"Rufous-backed Robin, Turdus rufopalliatus","ispublic":1,"isfriend":0,"isfamily":0},{"id":"49337160488","owner":"33610210@N05","secret":"52ff46e711","server":"65535","farm":66,"title":"Rufous-backed Robin, Turdus rufopalliatus","ispublic":1,"isfriend":0,"isfamily":0},{"id":"49337160428","owner":"33610210@N05","secret":"04e401dbc5","server":"65535","farm":66,"title":"Rufous-backed Robin, Turdus rufopalliatus","ispublic":1,"isfriend":0,"isfamily":0},{"id":"49337160388","owner":"33610210@N05","secret":"3a38dc5db0","server":"65535","farm":66,"title":"Rufous-backed Robin, Turdus rufopalliatus","ispublic":1,"isfriend":0,"isfamily":0},{"id":"49337842917","owner":"33610210@N05","secret":"ae370da560","server":"65535","farm":66,"title":"Rufous-backed Robin, Turdus rufopalliatus","ispublic":1,"isfriend":0,"isfamily":0},{"id":"49337841392","owner":"33610210@N05","secret":"3378270282","server":"65535","farm":66,"title":"Rufous-backed Robin, Turdus rufopalliatus","ispublic":1,"isfriend":0,"isfamily":0},{"id":"48369497291","owner":"182878128@N06","secret":"9f2736b27f","server":"65535","farm":66,"title":"Turdus rufopalliatus","ispublic":1,"isfriend":0,"isfamily":0},{"id":"40576073783","owner":"26371261@N00","secret":"60b7fff54e","server":"7809","farm":8,"title":"Rufous-backed Robin, Turdus rufopalliatus","ispublic":1,"isfriend":0,"isfamily":0},{"id":"47310023442","owner":"26371261@N00","secret":"5cebaef1be","server":"7903","farm":8,"title":"Rufous-backed Robin, Turdus rufopalliatus. Puerto Escondido, Oaxaca, Mexico","ispublic":1,"isfriend":0,"isfamily":0},{"id":"40378171923","owner":"128912061@N06","secret":"ca3e737d67","server":"7906","farm":8,"title":"rubrob Turdus rufopalliatus Rufous-backed Robin","ispublic":1,"isfriend":0,"isfamily":0},{"id":"46996539301","owner":"156781822@N07","secret":"02cf2f2dca","server":"7899","farm":8,"title":"Rufous Backed Robin \/ Mirlo Dorso Rufo (Turdus rufopalliatus)","ispublic":1,"isfriend":0,"isfamily":0},{"id":"33014619788","owner":"33610210@N05","secret":"e3014453dd","server":"7898","farm":8,"title":"Rufous-backed Robin, Turdus rufopalliatus","ispublic":1,"isfriend":0,"isfamily":0},{"id":"33014618448","owner":"33610210@N05","secret":"8d46920f46","server":"4894","farm":5,"title":"Rufous-backed Robin, Turdus rufopalliatus","ispublic":1,"isfriend":0,"isfamily":0},{"id":"33014617388","owner":"33610210@N05","secret":"6ae3fa4433","server":"4826","farm":5,"title":"Rufous-backed Robin, Turdus rufopalliatus","ispublic":1,"isfriend":0,"isfamily":0},{"id":"33014614518","owner":"33610210@N05","secret":"49457ce849","server":"7850","farm":8,"title":"Rufous-backed Robin, Turdus rufopalliatus","ispublic":1,"isfriend":0,"isfamily":0},{"id":"33014614318","owner":"33610210@N05","secret":"9743a0bf56","server":"4820","farm":5,"title":"Rufous-backed Robin, Turdus rufopalliatus","ispublic":1,"isfriend":0,"isfamily":0},{"id":"32688026328","owner":"33610210@N05","secret":"d9ca6f1d87","server":"7846","farm":8,"title":"Rufous-backed Robin, Turdus rufopalliatus","ispublic":1,"isfriend":0,"isfamily":0}]},"stat":"ok"}