{"photos":{"page":1,"pages":3,"perpage":100,"total":231,"photo":[{"id":"52754547640","owner":"67306066@N03","secret":"544d266c9a","server":"65535","farm":66,"title":"Rufous-sided Crake (Laterallus melanophaius)","ispublic":1,"isfriend":0,"isfamily":0},{"id":"52754629348","owner":"67306066@N03","secret":"ac1d9de30a","server":"65535","farm":66,"title":"Rufous-sided Crake (Laterallus melanophaius)","ispublic":1,"isfriend":0,"isfamily":0},{"id":"52754628898","owner":"67306066@N03","secret":"9069ab5002","server":"65535","farm":66,"title":"Rufous-sided Crake (Laterallus melanophaius)","ispublic":1,"isfriend":0,"isfamily":0},{"id":"52754383334","owner":"67306066@N03","secret":"938c7f9a30","server":"65535","farm":66,"title":"Rufous-sided Crake (Laterallus melanophaius)","ispublic":1,"isfriend":0,"isfamily":0},{"id":"52754628293","owner":"67306066@N03","secret":"8c53d329b4","server":"65535","farm":66,"title":"Rufous-sided Crake (Laterallus melanophaius)","ispublic":1,"isfriend":0,"isfamily":0},{"id":"52754546400","owner":"67306066@N03","secret":"ce57a9a464","server":"65535","farm":66,"title":"Rufous-sided Crake (Laterallus melanophaius)","ispublic":1,"isfriend":0,"isfamily":0},{"id":"52744960513","owner":"53358437@N07","secret":"4140f8eb31","server":"65535","farm":66,"title":"Rufous-sided Crake (Laterallus melanophaius)","ispublic":1,"isfriend":0,"isfamily":0},{"id":"52698655877","owner":"119095828@N03","secret":"24444f69fa","server":"65535","farm":66,"title":"Rufous-sided Crake (Laterallus melanophaius)","ispublic":1,"isfriend":0,"isfamily":0},{"id":"52699434064","owner":"119095828@N03","secret":"0c0f9490dc","server":"65535","farm":66,"title":"Rufous-sided Crake (Laterallus melanophaius)","ispublic":1,"isfriend":0,"isfamily":0},{"id":"52587305944","owner":"190923251@N05","secret":"c4566cb944","server":"65535","farm":66,"title":"Rufous-sided Crake","ispublic":1,"isfriend":0,"isfamily":0},{"id":"52475620956","owner":"187346531@N05","secret":"0cf9aebb2c","server":"65535","farm":66,"title":"san\u00e3-parda (Laterallus melanophaius)","ispublic":1,"isfriend":0,"isfamily":0},{"id":"52470988701","owner":"127954172@N03","secret":"fe7e487cf7","server":"65535","farm":66,"title":"burrito-comun_NGR6508","ispublic":1,"isfriend":0,"isfamily":0},{"id":"52428855266","owner":"77128742@N06","secret":"6684c25375","server":"65535","farm":66,"title":"Kolumbianische Rothalsralle_Laterallus melanophaius oenops-3","ispublic":1,"isfriend":0,"isfamily":0},{"id":"52305814190","owner":"191213614@N06","secret":"6540a38b50","server":"65535","farm":66,"title":"Burrito canela.     -Laterallus melanophaius-","ispublic":1,"isfriend":0,"isfamily":0},{"id":"52290728757","owner":"13099645@N05","secret":"05f56a5671","server":"65535","farm":66,"title":"Rufous-sided Crake","ispublic":1,"isfriend":0,"isfamily":0},{"id":"52226310715","owner":"101563641@N03","secret":"26aec7dd31","server":"65535","farm":66,"title":"Laterallus melanophaius - CEG_8425","ispublic":1,"isfriend":0,"isfamily":0},{"id":"52119588992","owner":"185671185@N06","secret":"eeaa1c4e87","server":"65535","farm":66,"title":"Burrito Canela - Rufous-sided Crake","ispublic":1,"isfriend":0,"isfamily":0},{"id":"51989441248","owner":"21182099@N05","secret":"27a167ea5a","server":"65535","farm":66,"title":"Rufous-sided Crake (Laterallus melanophaius)","ispublic":1,"isfriend":0,"isfamily":0},{"id":"51817442631","owner":"193100863@N08","secret":"648c9c3321","server":"65535","farm":66,"title":"rsc_1","ispublic":1,"isfriend":0,"isfamily":0},{"id":"51795352830","owner":"103228733@N07","secret":"f9c76dd0cb","server":"65535","farm":66,"title":"_O3A8458.jpg","ispublic":1,"isfriend":0,"isfamily":0},{"id":"51793615467","owner":"61316002@N02","secret":"340f6b4921","server":"65535","farm":66,"title":"RUFSIDCRA melanophaius 4663","ispublic":1,"isfriend":0,"isfamily":0},{"id":"51590507145","owner":"136354582@N02","secret":"9d0fefe3e4","server":"65535","farm":66,"title":"Laterallus melanophaius","ispublic":1,"isfriend":0,"isfamily":0},{"id":"51178639390","owner":"185779820@N03","secret":"96d4ac454c","server":"65535","farm":66,"title":"Laterallus melanophaius","ispublic":1,"isfriend":0,"isfamily":0},{"id":"50282714991","owner":"188235382@N05","secret":"3679764fa9","server":"65535","farm":66,"title":"Burrito com\u00fan (Laterallus melanophaius) | Rufous-sided Crake | San\u00e3-parda","ispublic":1,"isfriend":0,"isfamily":0},{"id":"50211065801","owner":"186193378@N07","secret":"35cb92973c","server":"65535","farm":66,"title":"San\u00e3-parda (Laterallus melanophaius) Rufous-sided Crake","ispublic":1,"isfriend":0,"isfamily":0},{"id":"49883024046","owner":"21182099@N05","secret":"717c447344","server":"65535","farm":66,"title":"Rufous-sided Crake (Laterallus melanophaius)","ispublic":1,"isfriend":0,"isfamily":0},{"id":"49386430568","owner":"143189289@N02","secret":"7312314075","server":"65535","farm":66,"title":"Burrito Canela (Laterallus melanophaius)","ispublic":1,"isfriend":0,"isfamily":0},{"id":"48897202562","owner":"158010417@N08","secret":"ceca2d200c","server":"65535","farm":66,"title":"Burrito com\u00fan - Rufous-side crake","ispublic":1,"isfriend":0,"isfamily":0},{"id":"48723910091","owner":"32674493@N04","secret":"b2377c29f6","server":"65535","farm":66,"title":"San\u00e3-parda (Laterallus melanophaius melanophaius)","ispublic":1,"isfriend":0,"isfamily":0},{"id":"48682279321","owner":"29170368@N03","secret":"cb205e6853","server":"65535","farm":66,"title":"Rufous-sided Crake","ispublic":1,"isfriend":0,"isfamily":0},{"id":"40207106363","owner":"123534937@N08","secret":"50a3d09110","server":"7865","farm":8,"title":"Burrito Com\u00fan - Laterallus melanophaius - Rufous-sided Crake","ispublic":1,"isfriend":0,"isfamily":0},{"id":"31551359967","owner":"104031939@N08","secret":"1d15479229","server":"7853","farm":8,"title":"Burrito Com\u00fan","ispublic":1,"isfriend":0,"isfamily":0},{"id":"30061690948","owner":"120741004@N04","secret":"3ed3e73bbe","server":"1831","farm":2,"title":"Laterallus melanophaius","ispublic":1,"isfriend":0,"isfamily":0},{"id":"39006060752","owner":"96797555@N03","secret":"50693ab6b7","server":"4638","farm":5,"title":"Burrito Com\u00fan (Laterallus melanophaius)","ispublic":1,"isfriend":0,"isfamily":0},{"id":"26624917219","owner":"38249385@N02","secret":"cbc937f738","server":"4536","farm":5,"title":"San\u00e3-parda (Laterallus melanophaius) - Rufous-sided Crake","ispublic":1,"isfriend":0,"isfamily":0},{"id":"38032287596","owner":"112181416@N08","secret":"98abc888c6","server":"4460","farm":5,"title":"P\u00e1ssaros brasileiros","ispublic":1,"isfriend":0,"isfamily":0},{"id":"35467419853","owner":"144083559@N03","secret":"e7cdb993eb","server":"4304","farm":5,"title":"San\u00e3 parda","ispublic":1,"isfriend":0,"isfamily":0},{"id":"35873374002","owner":"29170368@N03","secret":"fb0f6785c3","server":"65535","farm":66,"title":"Rufous-sided Crake","ispublic":1,"isfriend":0,"isfamily":0},{"id":"34558700802","owner":"132463600@N02","secret":"7f9e6a6714","server":"4193","farm":5,"title":"Rufous-sided Crake\/\/san\u00e3-parda (Laterallus melanophaius)","ispublic":1,"isfriend":0,"isfamily":0},{"id":"34256054900","owner":"96797555@N03","secret":"f4ca797613","server":"4164","farm":5,"title":"Burrito Com\u00fan (Laterallus melanophaius)","ispublic":1,"isfriend":0,"isfamily":0},{"id":"34461496861","owner":"42685823@N06","secret":"b383d91814","server":"4174","farm":5,"title":"san\u00e3 parda - Laterallus melanophaius","ispublic":1,"isfriend":0,"isfamily":0},{"id":"33138691754","owner":"45813009@N08","secret":"83ba87209b","server":"2930","farm":3,"title":"San\u00e3 parda - Laterallus melanophaius","ispublic":1,"isfriend":0,"isfamily":0},{"id":"33941034706","owner":"45813009@N08","secret":"450b705169","server":"2890","farm":3,"title":"San\u00e3 parda -  Laterallus melanophaius","ispublic":1,"isfriend":0,"isfamily":0},{"id":"33150727680","owner":"128402808@N02","secret":"3a392c0f5b","server":"3727","farm":4,"title":"san\u00e3-parda (Laterallus melanophaius)","ispublic":1,"isfriend":0,"isfamily":0},{"id":"31546548971","owner":"87325282@N00","secret":"6d5e51aca9","server":"279","farm":1,"title":"San\u00e3 Parda \/ Rufous sided Crake (Laterallus melanophaius)","ispublic":1,"isfriend":0,"isfamily":0},{"id":"30820902964","owner":"87325282@N00","secret":"1651075057","server":"5567","farm":6,"title":"San\u00e3 Parda \/ Rufous sided Crake (Laterallus melanophaius)","ispublic":1,"isfriend":0,"isfamily":0},{"id":"31662312225","owner":"87325282@N00","secret":"642938a371","server":"609","farm":1,"title":"San\u00e3 Parda \/ Rufous sided Crake (Laterallus melanophaius)","ispublic":1,"isfriend":0,"isfamily":0},{"id":"31545258431","owner":"87325282@N00","secret":"3ef50f9a55","server":"581","farm":1,"title":"San\u00e3 Parda \/ Rufous sided Crake (Laterallus melanophaius)","ispublic":1,"isfriend":0,"isfamily":0},{"id":"29800497423","owner":"29180995@N05","secret":"7762975c16","server":"5692","farm":6,"title":"San\u00e3-parda (Laterallus melanophaius)","ispublic":1,"isfriend":0,"isfamily":0},{"id":"29073104515","owner":"25572396@N04","secret":"e93beed688","server":"8077","farm":9,"title":"San\u00e3-parda | Rufous-sided crake (Laterallus melanophaius)","ispublic":1,"isfriend":0,"isfamily":0},{"id":"28619697620","owner":"79153825@N08","secret":"67d8cb546a","server":"8685","farm":9,"title":"POLLUELA BURRITO.(Laterallus Melanophaius) RUFOUS-SIDED CRAAKE","ispublic":1,"isfriend":0,"isfamily":0},{"id":"52652673171","owner":"8013969@N03","secret":"140e38f6a5","server":"65535","farm":66,"title":"Laterallus melanophaius DFL pms22","ispublic":1,"isfriend":0,"isfamily":0},{"id":"52429137874","owner":"77128742@N06","secret":"2ec566463c","server":"65535","farm":66,"title":"Kolumbianische Rothalsralle_Laterallus melanophaius oenops-5","ispublic":1,"isfriend":0,"isfamily":0},{"id":"51871775592","owner":"187346531@N05","secret":"dd3b9c8ee6","server":"65535","farm":66,"title":"san\u00e3-parda (Laterallus melanophaius)","ispublic":1,"isfriend":0,"isfamily":0},{"id":"51590286679","owner":"136354582@N02","secret":"04f0bd83d1","server":"65535","farm":66,"title":"Laterallus melanophaius","ispublic":1,"isfriend":0,"isfamily":0},{"id":"51589836178","owner":"136354582@N02","secret":"4b7a487562","server":"65535","farm":66,"title":"Laterallus melanophaius","ispublic":1,"isfriend":0,"isfamily":0},{"id":"51441788566","owner":"61827574@N03","secret":"a5e0cc82e7","server":"65535","farm":66,"title":"Rufous-sided Crake - Laterallus melanophaius","ispublic":1,"isfriend":0,"isfamily":0},{"id":"51403652275","owner":"190051159@N08","secret":"f92901e039","server":"65535","farm":66,"title":"San\u00e3-parda (Laterallus melanophaiu)","ispublic":1,"isfriend":0,"isfamily":0},{"id":"50063629566","owner":"101701344@N02","secret":"6e9f282568","server":"65535","farm":66,"title":"Burrito canela (Laterallus melanophaius)","ispublic":1,"isfriend":0,"isfamily":0},{"id":"49774631281","owner":"9765210@N03","secret":"4fab1b6ae8","server":"65535","farm":66,"title":"Rufous-sided Crake (Laterallus melanophaius)","ispublic":1,"isfriend":0,"isfamily":0},{"id":"49502868057","owner":"75336751@N07","secret":"f0ffce3caa","server":"65535","farm":66,"title":"San\u00e3-parda","ispublic":1,"isfriend":0,"isfamily":0},{"id":"48514392317","owner":"142851877@N04","secret":"f09624e517","server":"65535","farm":66,"title":"Laterallus melanophaius","ispublic":1,"isfriend":0,"isfamily":0},{"id":"48434695662","owner":"183047776@N07","secret":"5658916a40","server":"65535","farm":66,"title":"Burrito com\u00fan -Laterallus melanophaius- (Rufous-sided crake)..Reserva Ecol\u00f3gica Vicente L\u00f3pez","ispublic":1,"isfriend":0,"isfamily":0},{"id":"48382758837","owner":"38048846@N07","secret":"ee8ce22e5b","server":"65535","farm":66,"title":"San\u00e3-parda - Laterallus melanophaius - Rufous-sided Crake.","ispublic":1,"isfriend":0,"isfamily":0},{"id":"48294787992","owner":"54507110@N00","secret":"37c78b26f8","server":"65535","farm":66,"title":"Rufous-sided Crake (Laterallus melanophaius)","ispublic":1,"isfriend":0,"isfamily":0},{"id":"48018988188","owner":"21061312@N07","secret":"13068339bd","server":"65535","farm":66,"title":"Costa-5","ispublic":1,"isfriend":0,"isfamily":0},{"id":"48018987878","owner":"21061312@N07","secret":"6758100ab3","server":"65535","farm":66,"title":"Costa-6","ispublic":1,"isfriend":0,"isfamily":0},{"id":"47187373082","owner":"7330431@N08","secret":"9297ff9e54","server":"7808","farm":8,"title":"Rufous-sided Crake Laterallus melanophaius","ispublic":1,"isfriend":0,"isfamily":0},{"id":"45806030425","owner":"76568533@N08","secret":"495c49edac","server":"7908","farm":8,"title":"Red-and-white Crake - Laterallus_melanophaius - Rallidae (Rails, Fallinules, Coots)","ispublic":1,"isfriend":0,"isfamily":0},{"id":"32294594218","owner":"148656926@N03","secret":"2cdb4d98a4","server":"4805","farm":5,"title":"Laterallus melanophaius PBVT","ispublic":1,"isfriend":0,"isfamily":0},{"id":"44467850664","owner":"56983940@N06","secret":"cf12d2c26a","server":"1933","farm":2,"title":"Rufous-sided Crake","ispublic":1,"isfriend":0,"isfamily":0},{"id":"44865423882","owner":"24349477@N08","secret":"38e889f547","server":"1924","farm":2,"title":"Red & White Crakes (Laterallus melanophaius)","ispublic":1,"isfriend":0,"isfamily":0},{"id":"30814284498","owner":"156072574@N04","secret":"b004bd7038","server":"1861","farm":2,"title":"Burrito comun  -  Rufous-sided Crake","ispublic":1,"isfriend":0,"isfamily":0},{"id":"43882402122","owner":"120741004@N04","secret":"25ba213f2f","server":"1816","farm":2,"title":"Laterallus melanophaius","ispublic":1,"isfriend":0,"isfamily":0},{"id":"43930665881","owner":"120741004@N04","secret":"cd355125f5","server":"1833","farm":2,"title":"Laterallus melanophaius","ispublic":1,"isfriend":0,"isfamily":0},{"id":"43930665371","owner":"120741004@N04","secret":"2fa17993d3","server":"857","farm":1,"title":"Laterallus melanophaius","ispublic":1,"isfriend":0,"isfamily":0},{"id":"43930664021","owner":"120741004@N04","secret":"5a439b50ff","server":"1838","farm":2,"title":"Nido de Laterallus melanophaius","ispublic":1,"isfriend":0,"isfamily":0},{"id":"39603730895","owner":"120741004@N04","secret":"be43c65694","server":"4659","farm":5,"title":"Laterallus melanophaius","ispublic":1,"isfriend":0,"isfamily":0},{"id":"39563088585","owner":"120741004@N04","secret":"64fbf8013a","server":"4628","farm":5,"title":"Laterallus melanophaius","ispublic":1,"isfriend":0,"isfamily":0},{"id":"39235029684","owner":"89414557@N03","secret":"2868d8c913","server":"4622","farm":5,"title":"San\u00e3-parda","ispublic":1,"isfriend":0,"isfamily":0},{"id":"39636469362","owner":"87325282@N00","secret":"458ec7576f","server":"4753","farm":5,"title":"Laterallus melanophaius","ispublic":1,"isfriend":0,"isfamily":0},{"id":"39667168821","owner":"87325282@N00","secret":"b66ca00a98","server":"4722","farm":5,"title":"Laterallus melanophaius","ispublic":1,"isfriend":0,"isfamily":0},{"id":"38839481642","owner":"7389964@N02","secret":"17c1384f7b","server":"4550","farm":5,"title":"NOV_03_2017_REGUA_MKII_TC_400_M - San\u00e3-parda (Laterallus melanophaius)","ispublic":1,"isfriend":0,"isfamily":0},{"id":"38839480712","owner":"7389964@N02","secret":"aa23995d2a","server":"4517","farm":5,"title":"NOV_03_2017_REGUA_MKII_TC_400_M - San\u00e3-parda (Laterallus melanophaius)","ispublic":1,"isfriend":0,"isfamily":0},{"id":"38839479892","owner":"7389964@N02","secret":"a18a7264c7","server":"4522","farm":5,"title":"NOV_03_2017_REGUA_MKII_TC_400_M - San\u00e3-parda (Laterallus melanophaius)","ispublic":1,"isfriend":0,"isfamily":0},{"id":"23985961748","owner":"87325282@N00","secret":"9897032a1b","server":"4496","farm":5,"title":"Laterallus melanophaius","ispublic":1,"isfriend":0,"isfamily":0},{"id":"37838162601","owner":"87325282@N00","secret":"8baea3e3f8","server":"4455","farm":5,"title":"Laterallus melanophaius","ispublic":1,"isfriend":0,"isfamily":0},{"id":"37716229186","owner":"75336751@N07","secret":"8af4bbd1c4","server":"4465","farm":5,"title":"San\u00e3-parda","ispublic":1,"isfriend":0,"isfamily":0},{"id":"23911483408","owner":"75336751@N07","secret":"80f500fe5f","server":"4509","farm":5,"title":"San\u00e3-parda","ispublic":1,"isfriend":0,"isfamily":0},{"id":"36631217166","owner":"52583971@N04","secret":"d2f46b28f6","server":"4381","farm":5,"title":"Burrito Com\u00fan-Laterallus melanophaius","ispublic":1,"isfriend":0,"isfamily":0},{"id":"32554166662","owner":"147234899@N04","secret":"62b68cc614","server":"368","farm":1,"title":"San\u00e3-parda - Laterallus melanophaius","ispublic":1,"isfriend":0,"isfamily":0},{"id":"31941433551","owner":"13052888@N05","secret":"a073492189","server":"391","farm":1,"title":"R\u00e2le brunoir","ispublic":1,"isfriend":0,"isfamily":0},{"id":"32059305655","owner":"13052888@N05","secret":"1542479790","server":"529","farm":1,"title":"R\u00e2le brunoir","ispublic":1,"isfriend":0,"isfamily":0},{"id":"31255869122","owner":"126563934@N02","secret":"d5722a3150","server":"5705","farm":6,"title":"San\u00e3-parda, Rufous-sided Crake (Laterallus melanophaius)","ispublic":1,"isfriend":0,"isfamily":0},{"id":"31039644802","owner":"129207646@N05","secret":"a710788352","server":"5471","farm":6,"title":"Burrito com\u00fan (Rufous-side Crake) Laterallus melanophaius","ispublic":1,"isfriend":0,"isfamily":0},{"id":"31039641992","owner":"129207646@N05","secret":"584d40294d","server":"5689","farm":6,"title":"Burrito com\u00fan (Rufous-side Crake) Laterallus melanophaius","ispublic":1,"isfriend":0,"isfamily":0},{"id":"31039638012","owner":"129207646@N05","secret":"2051409288","server":"5665","farm":6,"title":"Burrito com\u00fan (Rufous-side Crake) Laterallus melanophaius","ispublic":1,"isfriend":0,"isfamily":0},{"id":"30363134406","owner":"144838870@N04","secret":"4da0b4421a","server":"8140","farm":9,"title":"san\u00e3-parda - Laterallus melanophaius","ispublic":1,"isfriend":0,"isfamily":0},{"id":"29767549533","owner":"144838870@N04","secret":"0d47c5e785","server":"8549","farm":9,"title":"san\u00e3-parda - Laterallus melanophaius","ispublic":1,"isfriend":0,"isfamily":0},{"id":"29993227301","owner":"42300064@N03","secret":"e9bbe9d640","server":"8410","farm":9,"title":"Burritos-comunes-cantando-web","ispublic":1,"isfriend":0,"isfamily":0}]},"stat":"ok"}