{"photos":{"page":1,"pages":5,"perpage":100,"total":488,"photo":[{"id":"52733510513","owner":"9851294@N07","secret":"4de0cfc3e3","server":"65535","farm":66,"title":"Rustic Bunting","ispublic":1,"isfriend":0,"isfamily":0},{"id":"52718087709","owner":"23856345@N06","secret":"77a1718c44","server":"65535","farm":66,"title":"Rustic Bunting (Emberiza rustica)","ispublic":1,"isfriend":0,"isfamily":0},{"id":"52619977942","owner":"66045307@N06","secret":"d3a51fd78b","server":"65535","farm":66,"title":"Rustic Bunting (Emberiza rustica)","ispublic":1,"isfriend":0,"isfamily":0},{"id":"52541921288","owner":"137111202@N08","secret":"b81382020b","server":"65535","farm":66,"title":"\u7530\u9d50, Rustic Bunting, Emberiza rustica,","ispublic":1,"isfriend":0,"isfamily":0},{"id":"52541852700","owner":"137111202@N08","secret":"00c7f4d7c4","server":"65535","farm":66,"title":"\u7530\u9d50, Rustic Bunting, Emberiza rustica,","ispublic":1,"isfriend":0,"isfamily":0},{"id":"52520191921","owner":"140734051@N08","secret":"89cff9fc12","server":"65535","farm":66,"title":"\u041e\u0432\u0441\u044f\u043d\u043a\u0430-\u0440\u0435\u043c\u0435\u0437, Emberiza rustica rustica, Rustic Bunting","ispublic":1,"isfriend":0,"isfamily":0},{"id":"52520670155","owner":"140734051@N08","secret":"5d6fa20118","server":"65535","farm":66,"title":"\u041e\u0432\u0441\u044f\u043d\u043a\u0430-\u0440\u0435\u043c\u0435\u0437, Emberiza rustica rustica, Rustic Bunting","ispublic":1,"isfriend":0,"isfamily":0},{"id":"52475562371","owner":"142083658@N05","secret":"86bd517f4f","server":"65535","farm":66,"title":"Rustic Bunting, Emberiza rustica, \u041e\u0432\u0441\u044f\u043d\u043a\u0430-\u0440\u0435\u043c\u0435\u0437","ispublic":1,"isfriend":0,"isfamily":0},{"id":"52137792503","owner":"154261763@N05","secret":"fae6e947ae","server":"65535","farm":66,"title":"Rustic bunting (Emberiza rustica) - Waldammer","ispublic":1,"isfriend":0,"isfamily":0},{"id":"52104072194","owner":"34368269@N04","secret":"52cefe5dd2","server":"65535","farm":66,"title":"Rustic Bunting","ispublic":1,"isfriend":0,"isfamily":0},{"id":"51883268310","owner":"142083658@N05","secret":"755f727895","server":"65535","farm":66,"title":"Rustic Bunting, Emberiza rustica, \u041e\u0432\u0441\u044f\u043d\u043a\u0430-\u0440\u0435\u043c\u0435\u0437","ispublic":1,"isfriend":0,"isfamily":0},{"id":"51831917669","owner":"9851294@N07","secret":"d537deb8bd","server":"65535","farm":66,"title":"Rustic Bunting - male","ispublic":1,"isfriend":0,"isfamily":0},{"id":"51824472239","owner":"157220357@N08","secret":"a1b03b93cc","server":"0","farm":0,"title":"Rustic Bunting","ispublic":1,"isfriend":0,"isfamily":0},{"id":"51783790969","owner":"54100598@N08","secret":"916071e2cd","server":"0","farm":0,"title":"Rustic Bunting (Emberiza rustica)","ispublic":1,"isfriend":0,"isfamily":0},{"id":"51783430428","owner":"54100598@N08","secret":"e8b19aa8cb","server":"65535","farm":66,"title":"Rustic Bunting (Emberiza rustica)","ispublic":1,"isfriend":0,"isfamily":0},{"id":"51726428983","owner":"61184910@N06","secret":"9bbed561bd","server":"65535","farm":66,"title":"Bosgors - Emberiza rustica","ispublic":1,"isfriend":0,"isfamily":0},{"id":"51726168591","owner":"61184910@N06","secret":"aee997faa9","server":"65535","farm":66,"title":"Bosgors - Emberiza rustica","ispublic":1,"isfriend":0,"isfamily":0},{"id":"51626807133","owner":"142083658@N05","secret":"b327a861f1","server":"65535","farm":66,"title":"Rustic Bunting, Emberiza rustica, \u041e\u0432\u0441\u044f\u043d\u043a\u0430-\u0440\u0435\u043c\u0435\u0437","ispublic":1,"isfriend":0,"isfamily":0},{"id":"51611609545","owner":"132996946@N06","secret":"2c9467d7c5","server":"65535","farm":66,"title":"Waldammer - Emberiza rustica - Rustic Bunting","ispublic":1,"isfriend":0,"isfamily":0},{"id":"51587131797","owner":"134560762@N08","secret":"70cc51e453","server":"65535","farm":66,"title":"bosgors (Emberiza rustica)","ispublic":1,"isfriend":0,"isfamily":0},{"id":"51587970146","owner":"134560762@N08","secret":"7fe415f2d8","server":"65535","farm":66,"title":"bosgors (Emberiza rustica)","ispublic":1,"isfriend":0,"isfamily":0},{"id":"51581992164","owner":"128578170@N06","secret":"df697bf7d8","server":"65535","farm":66,"title":"Rustic Bunting Emberiza rustica","ispublic":1,"isfriend":0,"isfamily":0},{"id":"51567284459","owner":"142083658@N05","secret":"a26a0c140c","server":"65535","farm":66,"title":"Rustic Bunting, Emberiza rustica, \u041e\u0432\u0441\u044f\u043d\u043a\u0430-\u0440\u0435\u043c\u0435\u0437","ispublic":1,"isfriend":0,"isfamily":0},{"id":"51263684851","owner":"61021753@N02","secret":"bd2498787d","server":"65535","farm":66,"title":"n158_w1150","ispublic":1,"isfriend":0,"isfamily":0},{"id":"51263870618","owner":"61021753@N02","secret":"0ef0961f71","server":"65535","farm":66,"title":"n54_w1150","ispublic":1,"isfriend":0,"isfamily":0},{"id":"51183105450","owner":"52543079@N06","secret":"c2fc10658b","server":"65535","farm":66,"title":"Rustic Bunting \u7530\u9d50","ispublic":1,"isfriend":0,"isfamily":0},{"id":"51109567179","owner":"119787485@N07","secret":"4c315e7021","server":"65535","farm":66,"title":"Rustic Bunting (Emberiza rustica rustica) - 20190523-02","ispublic":1,"isfriend":0,"isfamily":0},{"id":"51075377448","owner":"21606110@N08","secret":"c95243ffa5","server":"65535","farm":66,"title":"Rustic  Bunting","ispublic":1,"isfriend":0,"isfamily":0},{"id":"51076173682","owner":"21606110@N08","secret":"83e9d2d574","server":"65535","farm":66,"title":"Rustic  Bunting","ispublic":1,"isfriend":0,"isfamily":0},{"id":"51075376413","owner":"21606110@N08","secret":"856cb79d5d","server":"65535","farm":66,"title":"Rustic  Bunting","ispublic":1,"isfriend":0,"isfamily":0},{"id":"51049784281","owner":"61021753@N02","secret":"38e5e4c0aa","server":"65535","farm":66,"title":"n264_w1150","ispublic":1,"isfriend":0,"isfamily":0},{"id":"51047219057","owner":"21606110@N08","secret":"1e926439eb","server":"65535","farm":66,"title":"Rustic  Bunting","ispublic":1,"isfriend":0,"isfamily":0},{"id":"51047218717","owner":"21606110@N08","secret":"59aa2203a4","server":"65535","farm":66,"title":"Rustic Bunting","ispublic":1,"isfriend":0,"isfamily":0},{"id":"51041663208","owner":"21606110@N08","secret":"0c810eecc0","server":"65535","farm":66,"title":"Rustic  Bunting","ispublic":1,"isfriend":0,"isfamily":0},{"id":"51042487557","owner":"21606110@N08","secret":"cbc2d25770","server":"65535","farm":66,"title":"Rustic Bunting","ispublic":1,"isfriend":0,"isfamily":0},{"id":"51040940451","owner":"21606110@N08","secret":"6e940e3696","server":"65535","farm":66,"title":"Rustic  Bunting","ispublic":1,"isfriend":0,"isfamily":0},{"id":"51006576767","owner":"21606110@N08","secret":"162b6c5a51","server":"65535","farm":66,"title":"Rustic Bunting","ispublic":1,"isfriend":0,"isfamily":0},{"id":"51006468941","owner":"21606110@N08","secret":"9662a9b8c9","server":"65535","farm":66,"title":"Rustic Bunting","ispublic":1,"isfriend":0,"isfamily":0},{"id":"51006468326","owner":"21606110@N08","secret":"08ba162e77","server":"65535","farm":66,"title":"Rustic Bunting","ispublic":1,"isfriend":0,"isfamily":0},{"id":"51005763228","owner":"21606110@N08","secret":"aaa227fd28","server":"65535","farm":66,"title":"Rustic Bunting","ispublic":1,"isfriend":0,"isfamily":0},{"id":"51002816592","owner":"21606110@N08","secret":"8793f2027b","server":"65535","farm":66,"title":"Rustic Bunting","ispublic":1,"isfriend":0,"isfamily":0},{"id":"51002697891","owner":"21606110@N08","secret":"60dca9b7ab","server":"65535","farm":66,"title":"Rustic Bunting","ispublic":1,"isfriend":0,"isfamily":0},{"id":"50959736036","owner":"21606110@N08","secret":"830d649383","server":"65535","farm":66,"title":"Rustic Bunting","ispublic":1,"isfriend":0,"isfamily":0},{"id":"50915130476","owner":"21606110@N08","secret":"8801d8f911","server":"65535","farm":66,"title":"Rustic  Bunting","ispublic":1,"isfriend":0,"isfamily":0},{"id":"50792992212","owner":"12240837@N08","secret":"0f2fee6b80","server":"65535","farm":66,"title":"Rustic Bunting (emberiza rustica)","ispublic":1,"isfriend":0,"isfamily":0},{"id":"50764161247","owner":"12240837@N08","secret":"537d5597fd","server":"65535","farm":66,"title":"Little Bunting and Rustic Bunting (emberiza pusilla, emberiza rustica)","ispublic":1,"isfriend":0,"isfamily":0},{"id":"50764048261","owner":"12240837@N08","secret":"37b6d7d8fe","server":"65535","farm":66,"title":"Little Bunting and Rustic Bunting (emberiza pusilla, emberiza rustica)","ispublic":1,"isfriend":0,"isfamily":0},{"id":"50764161097","owner":"12240837@N08","secret":"8b87491518","server":"65535","farm":66,"title":"Rustic Bunting (emberiza rustica)","ispublic":1,"isfriend":0,"isfamily":0},{"id":"50709299527","owner":"40574130@N07","secret":"b32b841b9c","server":"65535","farm":66,"title":"Rustic Bunting (Emberiza rustica)","ispublic":1,"isfriend":0,"isfamily":0},{"id":"50423436123","owner":"12240837@N08","secret":"82cec98401","server":"65535","farm":66,"title":"Rustic Bunting (emberiza rustica)","ispublic":1,"isfriend":0,"isfamily":0},{"id":"50424126061","owner":"12240837@N08","secret":"7852bba369","server":"65535","farm":66,"title":"Rustic Bunting (emberiza rustica)","ispublic":1,"isfriend":0,"isfamily":0},{"id":"50423424748","owner":"12240837@N08","secret":"7f423f0a87","server":"65535","farm":66,"title":"Rustic Bunting (emberiza rustica)","ispublic":1,"isfriend":0,"isfamily":0},{"id":"52419948394","owner":"193264646@N06","secret":"1fe7c17ac5","server":"65535","farm":66,"title":"Rustic Bunting","ispublic":1,"isfriend":0,"isfamily":0},{"id":"52419155127","owner":"193264646@N06","secret":"e5aee3ee41","server":"65535","farm":66,"title":"Rustic Bunting","ispublic":1,"isfriend":0,"isfamily":0},{"id":"52419669071","owner":"193264646@N06","secret":"9b595e7b69","server":"65535","farm":66,"title":"Rustic Bunting","ispublic":1,"isfriend":0,"isfamily":0},{"id":"52419152367","owner":"193264646@N06","secret":"06981fae4e","server":"65535","farm":66,"title":"Rustic Bunting","ispublic":1,"isfriend":0,"isfamily":0},{"id":"52420102845","owner":"193264646@N06","secret":"3c18c32516","server":"65535","farm":66,"title":"Rustic Bunting","ispublic":1,"isfriend":0,"isfamily":0},{"id":"52419942134","owner":"193264646@N06","secret":"55fbaa763d","server":"65535","farm":66,"title":"Rustic Bunting","ispublic":1,"isfriend":0,"isfamily":0},{"id":"52420100195","owner":"193264646@N06","secret":"6cae436360","server":"65535","farm":66,"title":"Rustic Bunting","ispublic":1,"isfriend":0,"isfamily":0},{"id":"52419147347","owner":"193264646@N06","secret":"6e5486e866","server":"65535","farm":66,"title":"Rustic Bunting","ispublic":1,"isfriend":0,"isfamily":0},{"id":"52171086477","owner":"100763406@N04","secret":"8d193d3a7d","server":"65535","farm":66,"title":"Rustic bunting (Emberiza rustica)","ispublic":1,"isfriend":0,"isfamily":0},{"id":"52171084177","owner":"100763406@N04","secret":"3f869659e6","server":"65535","farm":66,"title":"Rustic bunting (Emberiza rustica)","ispublic":1,"isfriend":0,"isfamily":0},{"id":"52171082452","owner":"100763406@N04","secret":"f1d59d57da","server":"65535","farm":66,"title":"Rustic bunting (Emberiza rustica)","ispublic":1,"isfriend":0,"isfamily":0},{"id":"52172584100","owner":"100763406@N04","secret":"a8940d7a72","server":"65535","farm":66,"title":"Rustic bunting (Emberiza rustica)","ispublic":1,"isfriend":0,"isfamily":0},{"id":"52171074197","owner":"100763406@N04","secret":"cb4715533a","server":"65535","farm":66,"title":"Rustic bunting (Emberiza rustica)","ispublic":1,"isfriend":0,"isfamily":0},{"id":"52172101568","owner":"100763406@N04","secret":"4c3d14edfa","server":"65535","farm":66,"title":"Rustic bunting (Emberiza rustica)","ispublic":1,"isfriend":0,"isfamily":0},{"id":"52172575210","owner":"100763406@N04","secret":"b2fcce7896","server":"65535","farm":66,"title":"Rustic bunting (Emberiza rustica)","ispublic":1,"isfriend":0,"isfamily":0},{"id":"52172326534","owner":"100763406@N04","secret":"7b3d1e9861","server":"65535","farm":66,"title":"Rustic bunting (Emberiza rustica)","ispublic":1,"isfriend":0,"isfamily":0},{"id":"52157501840","owner":"132996946@N06","secret":"9d781fd241","server":"65535","farm":66,"title":"Waldammer - Emberiza rustica - Rustic Bunting","ispublic":1,"isfriend":0,"isfamily":0},{"id":"51831917694","owner":"9851294@N07","secret":"534b131cf5","server":"65535","farm":66,"title":"Rustic Bunting - female","ispublic":1,"isfriend":0,"isfamily":0},{"id":"51824472609","owner":"157220357@N08","secret":"01c0c873ab","server":"65535","farm":66,"title":"Rustic Bunting","ispublic":1,"isfriend":0,"isfamily":0},{"id":"51793546933","owner":"12639178@N07","secret":"ed72a01071","server":"65535","farm":66,"title":"Waldammer","ispublic":1,"isfriend":0,"isfamily":0},{"id":"51645156618","owner":"12639178@N07","secret":"912c0e586d","server":"65535","farm":66,"title":"Waldammer","ispublic":1,"isfriend":0,"isfamily":0},{"id":"51631613509","owner":"121321155@N06","secret":"69ea1741fa","server":"65535","farm":66,"title":"20211009_MG_1610","ispublic":1,"isfriend":0,"isfamily":0},{"id":"51631189673","owner":"121321155@N06","secret":"b34da51dea","server":"65535","farm":66,"title":"20211009_MG_1622","ispublic":1,"isfriend":0,"isfamily":0},{"id":"51628789273","owner":"12639178@N07","secret":"dfc72a4a84","server":"65535","farm":66,"title":"Waldammer mit Spiegelbild","ispublic":1,"isfriend":0,"isfamily":0},{"id":"51622173423","owner":"12639178@N07","secret":"e66b6a6436","server":"65535","farm":66,"title":"Waldammer, seltener Gast .","ispublic":1,"isfriend":0,"isfamily":0},{"id":"51619542464","owner":"132634360@N06","secret":"b0a74ee3c3","server":"65535","farm":66,"title":"Rustic Bunting","ispublic":1,"isfriend":0,"isfamily":0},{"id":"51616667641","owner":"12639178@N07","secret":"8fdc4904d2","server":"65535","farm":66,"title":"Waldammer","ispublic":1,"isfriend":0,"isfamily":0},{"id":"51607631663","owner":"12639178@N07","secret":"c80454c058","server":"65535","farm":66,"title":"Waldammer frisst","ispublic":1,"isfriend":0,"isfamily":0},{"id":"51606585112","owner":"12639178@N07","secret":"fb6b0ab864","server":"65535","farm":66,"title":"Waldammer auf Helgoland","ispublic":1,"isfriend":0,"isfamily":0},{"id":"51576641125","owner":"94266411@N03","secret":"6f6a487466","server":"65535","farm":66,"title":"Pilev\u00e6rling - Rustic Bunting (Emberiza rustica)","ispublic":1,"isfriend":0,"isfamily":0},{"id":"51575718096","owner":"94266411@N03","secret":"b5c9cd86a7","server":"65535","farm":66,"title":"Pilev\u00e6rling - Rustic Bunting (Emberiza rustica)","ispublic":1,"isfriend":0,"isfamily":0},{"id":"51576641100","owner":"94266411@N03","secret":"3cdef11c21","server":"65535","farm":66,"title":"Pilev\u00e6rling - Rustic Bunting (Emberiza rustica)","ispublic":1,"isfriend":0,"isfamily":0},{"id":"51576397554","owner":"94266411@N03","secret":"e220e7333d","server":"65535","farm":66,"title":"Pilev\u00e6rling - Rustic Bunting (Emberiza rustica)","ispublic":1,"isfriend":0,"isfamily":0},{"id":"51272416272","owner":"12639178@N07","secret":"2e67681250","server":"65535","farm":66,"title":"Aus dem hohen Norden der Tundra - Waldammer zu Besuch","ispublic":1,"isfriend":0,"isfamily":0},{"id":"51189885085","owner":"193032256@N07","secret":"41020b4e43","server":"65535","farm":66,"title":"20210226 \u7530\u9e40 Emberiza rustica (4)","ispublic":1,"isfriend":0,"isfamily":0},{"id":"51092099829","owner":"21606110@N08","secret":"cdbafb30f3","server":"65535","farm":66,"title":"Rustic  Bunting","ispublic":1,"isfriend":0,"isfamily":0},{"id":"51081533561","owner":"127542576@N05","secret":"b6d19f5b34","server":"65535","farm":66,"title":"\u7530\u9d50 (Emberiza rustica#Rustic Bunting)","ispublic":1,"isfriend":0,"isfamily":0},{"id":"51012345740","owner":"127542576@N05","secret":"c3d6e22081","server":"65535","farm":66,"title":"\u7530\u9d50 (Emberiza rustica#Rustic Bunting)","ispublic":1,"isfriend":0,"isfamily":0},{"id":"51081533501","owner":"127542576@N05","secret":"f443846ee3","server":"65535","farm":66,"title":"\u7530\u9d50 (Emberiza rustica#Rustic Bunting)","ispublic":1,"isfriend":0,"isfamily":0},{"id":"51068582368","owner":"32752434@N07","secret":"d8af486353","server":"65535","farm":66,"title":"Rustic Bunting (Emberiza rustica)","ispublic":1,"isfriend":0,"isfamily":0},{"id":"51042392721","owner":"21606110@N08","secret":"b8080d60f2","server":"65535","farm":66,"title":"Rustic  Bunting","ispublic":1,"isfriend":0,"isfamily":0},{"id":"50959038308","owner":"21606110@N08","secret":"e483a5f92b","server":"65535","farm":66,"title":"Rustic Bunting","ispublic":1,"isfriend":0,"isfamily":0},{"id":"50959737336","owner":"21606110@N08","secret":"6a943a17b8","server":"65535","farm":66,"title":"Rustic Bunting","ispublic":1,"isfriend":0,"isfamily":0},{"id":"50914444818","owner":"21606110@N08","secret":"c09f025f3b","server":"65535","farm":66,"title":"Rustic  Bunting","ispublic":1,"isfriend":0,"isfamily":0},{"id":"50740163358","owner":"12639178@N07","secret":"cf7fa11957","server":"65535","farm":66,"title":"Waldammer (Emberiza rustica) (1)","ispublic":1,"isfriend":0,"isfamily":0},{"id":"50655687807","owner":"127542576@N05","secret":"463837c58b","server":"65535","farm":66,"title":"\u7530\u9d50 (Emberiza rustica#Rustic Bunting)","ispublic":1,"isfriend":0,"isfamily":0},{"id":"50655687802","owner":"127542576@N05","secret":"b6454cd13f","server":"65535","farm":66,"title":"\u7530\u9d50 (Emberiza rustica#Rustic Bunting)","ispublic":1,"isfriend":0,"isfamily":0},{"id":"50596008563","owner":"67238416@N04","secret":"e4da2266e9","server":"65535","farm":66,"title":"PA310067","ispublic":1,"isfriend":0,"isfamily":0}]},"stat":"ok"}