{"photos":{"page":1,"pages":16,"perpage":100,"total":1587,"photo":[{"id":"52706720584","owner":"21606110@N08","secret":"d9242080e7","server":"65535","farm":66,"title":"Sabine's Gull","ispublic":1,"isfriend":0,"isfamily":0},{"id":"52705943887","owner":"21606110@N08","secret":"17da8e431b","server":"65535","farm":66,"title":"Sabine's Gull","ispublic":1,"isfriend":0,"isfamily":0},{"id":"52706719994","owner":"21606110@N08","secret":"8bf0e43864","server":"65535","farm":66,"title":"Sabine's Gull","ispublic":1,"isfriend":0,"isfamily":0},{"id":"52706881810","owner":"21606110@N08","secret":"697bebbf1a","server":"65535","farm":66,"title":"Sabine's Gull","ispublic":1,"isfriend":0,"isfamily":0},{"id":"52675542654","owner":"183210910@N04","secret":"031c365495","server":"65535","farm":66,"title":"Sabine's Gull - Xema sabini","ispublic":1,"isfriend":0,"isfamily":0},{"id":"52675686620","owner":"183210910@N04","secret":"9a9a77ece8","server":"65535","farm":66,"title":"Sabine's Gull - Xema sabini","ispublic":1,"isfriend":0,"isfamily":0},{"id":"52675686170","owner":"183210910@N04","secret":"4f896ea69a","server":"65535","farm":66,"title":"Sabine's Gull - Xema sabini","ispublic":1,"isfriend":0,"isfamily":0},{"id":"52675541294","owner":"183210910@N04","secret":"f1115631d6","server":"65535","farm":66,"title":"Sabine's Gull - Xema sabini","ispublic":1,"isfriend":0,"isfamily":0},{"id":"52675250231","owner":"183210910@N04","secret":"d659d2bca7","server":"65535","farm":66,"title":"Sabine's Gull - Xema sabini","ispublic":1,"isfriend":0,"isfamily":0},{"id":"52675540074","owner":"183210910@N04","secret":"0ca880908e","server":"65535","farm":66,"title":"Sabine's Gull - Xema sabini","ispublic":1,"isfriend":0,"isfamily":0},{"id":"52675539734","owner":"183210910@N04","secret":"1153b5db58","server":"65535","farm":66,"title":"Sabine's Gull - Xema sabini","ispublic":1,"isfriend":0,"isfamily":0},{"id":"52675195768","owner":"134719435@N07","secret":"a694097b15","server":"65535","farm":66,"title":"Sabines Gull  (Xema sabini) Hampshire","ispublic":1,"isfriend":0,"isfamily":0},{"id":"52671436660","owner":"113457946@N06","secret":"4d09fb1a3c","server":"65535","farm":66,"title":"Sabines Gull  (Xema sabini)","ispublic":1,"isfriend":0,"isfamily":0},{"id":"52670495932","owner":"113457946@N06","secret":"2438bf4be5","server":"65535","farm":66,"title":"Sabines Gull  (Xema sabini)","ispublic":1,"isfriend":0,"isfamily":0},{"id":"52667447858","owner":"21606110@N08","secret":"d8c90dea1d","server":"65535","farm":66,"title":"Sabine's Gull","ispublic":1,"isfriend":0,"isfamily":0},{"id":"52667381160","owner":"21606110@N08","secret":"2263d0fd98","server":"65535","farm":66,"title":"Sabine's Gull","ispublic":1,"isfriend":0,"isfamily":0},{"id":"52667380845","owner":"21606110@N08","secret":"c018aa807d","server":"65535","farm":66,"title":"Sabine's Gull","ispublic":1,"isfriend":0,"isfamily":0},{"id":"52666448337","owner":"21606110@N08","secret":"5f9d017612","server":"65535","farm":66,"title":"Sabine's Gull","ispublic":1,"isfriend":0,"isfamily":0},{"id":"52665542244","owner":"48896022@N08","secret":"0b8a2d1479","server":"65535","farm":66,"title":"Sabine's Gull, Xema sabini","ispublic":1,"isfriend":0,"isfamily":0},{"id":"52643850741","owner":"58519338@N08","secret":"85fcd73a92","server":"65535","farm":66,"title":"Sabine's Gull - Xema sabini","ispublic":1,"isfriend":0,"isfamily":0},{"id":"52660517594","owner":"58519338@N08","secret":"7168e9ae74","server":"65535","farm":66,"title":"Sabine's Gull - Xema sabini","ispublic":1,"isfriend":0,"isfamily":0},{"id":"52650437436","owner":"48896022@N08","secret":"c9125a2a3b","server":"65535","farm":66,"title":"Sabine's Gull, Xema sabini","ispublic":1,"isfriend":0,"isfamily":0},{"id":"52635463410","owner":"58519338@N08","secret":"08d3d28726","server":"65535","farm":66,"title":"Sabine's Gull - Xema sabini","ispublic":1,"isfriend":0,"isfamily":0},{"id":"52646998254","owner":"48896022@N08","secret":"66de257b7f","server":"65535","farm":66,"title":"Sabine's Gull, Xema sabini","ispublic":1,"isfriend":0,"isfamily":0},{"id":"52642173409","owner":"59358991@N07","secret":"bc46e5b454","server":"65535","farm":66,"title":"Sabine\u2019s Gull","ispublic":1,"isfriend":0,"isfamily":0},{"id":"52640888319","owner":"97377331@N07","secret":"9408144d64","server":"65535","farm":66,"title":"Sabine\u2019s Gull Adult","ispublic":1,"isfriend":0,"isfamily":0},{"id":"52638901394","owner":"48896022@N08","secret":"0b91c1fc2b","server":"65535","farm":66,"title":"Sabine's Gull, Xema sabini","ispublic":1,"isfriend":0,"isfamily":0},{"id":"52638078927","owner":"33856622@N07","secret":"afd3f6e619","server":"65535","farm":66,"title":"Sabine's gull","ispublic":1,"isfriend":0,"isfamily":0},{"id":"52637320125","owner":"33856622@N07","secret":"a5b4293414","server":"65535","farm":66,"title":"Sabine's gull","ispublic":1,"isfriend":0,"isfamily":0},{"id":"52636288401","owner":"58519338@N08","secret":"e9c9f9217b","server":"65535","farm":66,"title":"Sabine's Gull - Xema sabini","ispublic":1,"isfriend":0,"isfamily":0},{"id":"52635292075","owner":"191391950@N02","secret":"305c79efb6","server":"65535","farm":66,"title":"Mouette de Sabine - Xema sabini","ispublic":1,"isfriend":0,"isfamily":0},{"id":"52634855551","owner":"191391950@N02","secret":"5908e2f0bd","server":"65535","farm":66,"title":"Mouette de Sabine - Xema sabini","ispublic":1,"isfriend":0,"isfamily":0},{"id":"52632770658","owner":"58519338@N08","secret":"ea37cf340b","server":"65535","farm":66,"title":"Sabine's Gull - Xema sabini","ispublic":1,"isfriend":0,"isfamily":0},{"id":"52632017910","owner":"52857623@N04","secret":"0b08e271a8","server":"65535","farm":66,"title":"Sabine's Gull","ispublic":1,"isfriend":0,"isfamily":0},{"id":"52631830559","owner":"52857623@N04","secret":"2dd74b4134","server":"65535","farm":66,"title":"Sabine's Gull","ispublic":1,"isfriend":0,"isfamily":0},{"id":"52629271513","owner":"48896022@N08","secret":"6d48714d44","server":"65535","farm":66,"title":"Sabine's Gull, Xema sabini","ispublic":1,"isfriend":0,"isfamily":0},{"id":"52628415616","owner":"42549095@N00","secret":"5b24278b71","server":"65535","farm":66,"title":"Sabine's Gull (Zema sabini) - 01","ispublic":1,"isfriend":0,"isfamily":0},{"id":"52628848235","owner":"42549095@N00","secret":"c8e06bb1de","server":"65535","farm":66,"title":"Sabine's Gull (Zema sabini) - 02","ispublic":1,"isfriend":0,"isfamily":0},{"id":"52627894762","owner":"42549095@N00","secret":"9798d6c48a","server":"65535","farm":66,"title":"Sabine's Gull (Zema sabini) - 03","ispublic":1,"isfriend":0,"isfamily":0},{"id":"52628765278","owner":"43898512@N07","secret":"9b22107378","server":"65535","farm":66,"title":"Sabine's Gull - Xema sabini","ispublic":1,"isfriend":0,"isfamily":0},{"id":"52628534119","owner":"43898512@N07","secret":"8f5d5e90d6","server":"65535","farm":66,"title":"Sabine's Gull - Xema sabini","ispublic":1,"isfriend":0,"isfamily":0},{"id":"52628283956","owner":"43898512@N07","secret":"7183a5ea35","server":"65535","farm":66,"title":"Sabine's Gull - Xema sabini","ispublic":1,"isfriend":0,"isfamily":0},{"id":"52628283866","owner":"43898512@N07","secret":"ede557ebd5","server":"65535","farm":66,"title":"Sabine's Gull - Xema sabini","ispublic":1,"isfriend":0,"isfamily":0},{"id":"52628283761","owner":"43898512@N07","secret":"e5da8cd179","server":"65535","farm":66,"title":"Sabine's Gull - Xema sabini","ispublic":1,"isfriend":0,"isfamily":0},{"id":"52617775143","owner":"46001792@N08","secret":"4c3af13e33","server":"65535","farm":66,"title":"Sabine's Gull","ispublic":1,"isfriend":0,"isfamily":0},{"id":"52575852960","owner":"141833872@N05","secret":"3c672c3e3e","server":"65535","farm":66,"title":"Sabine's Gull","ispublic":1,"isfriend":0,"isfamily":0},{"id":"52575399461","owner":"141833872@N05","secret":"e3f864b073","server":"65535","farm":66,"title":"Sabine's Gull","ispublic":1,"isfriend":0,"isfamily":0},{"id":"52575934658","owner":"141833872@N05","secret":"7c14f8ebbd","server":"65535","farm":66,"title":"Sabine's Gull","ispublic":1,"isfriend":0,"isfamily":0},{"id":"52564346329","owner":"78435122@N05","secret":"0d0479e473","server":"65535","farm":66,"title":"_F0A7202","ispublic":1,"isfriend":0,"isfamily":0},{"id":"52535779836","owner":"23794796@N06","secret":"bba47c20fe","server":"65535","farm":66,"title":"Gaivota-de-sabine","ispublic":1,"isfriend":0,"isfamily":0},{"id":"52536180010","owner":"23794796@N06","secret":"3fc24aa192","server":"65535","farm":66,"title":"Gaivota-de-sabine","ispublic":1,"isfriend":0,"isfamily":0},{"id":"52532356570","owner":"191829438@N07","secret":"5ab08795fb","server":"65535","farm":66,"title":"Xema sabini","ispublic":1,"isfriend":0,"isfamily":0},{"id":"52531883226","owner":"191829438@N07","secret":"a2526c70c5","server":"65535","farm":66,"title":"Xema sabini","ispublic":1,"isfriend":0,"isfamily":0},{"id":"52671292124","owner":"113457946@N06","secret":"7c517a1711","server":"65535","farm":66,"title":"Sabines Gull  (Xema sabini)","ispublic":1,"isfriend":0,"isfamily":0},{"id":"52628415586","owner":"42549095@N00","secret":"96845f9fac","server":"65535","farm":66,"title":"Sabine's Gull (Zema sabini) - 02","ispublic":1,"isfriend":0,"isfamily":0},{"id":"52580512944","owner":"153973412@N04","secret":"6db3a1c651","server":"65535","farm":66,"title":"Sabine's Gull-Xema sabini, Cedar Rapids, IA","ispublic":1,"isfriend":0,"isfamily":0},{"id":"52539067493","owner":"191717491@N03","secret":"a838e6c2d5","server":"65535","farm":66,"title":"Sabine's Gull","ispublic":1,"isfriend":0,"isfamily":0},{"id":"52530909088","owner":"79722430@N04","secret":"baf5606d34","server":"65535","farm":66,"title":"Sabine's gull (Xema sabini)","ispublic":1,"isfriend":0,"isfamily":0},{"id":"52530909073","owner":"79722430@N04","secret":"59b0a3a0e2","server":"65535","farm":66,"title":"Sabine's gull (Xema sabini)","ispublic":1,"isfriend":0,"isfamily":0},{"id":"52529898072","owner":"79722430@N04","secret":"381a4e9f57","server":"65535","farm":66,"title":"Sabine's gull (Xema sabini)","ispublic":1,"isfriend":0,"isfamily":0},{"id":"52530838460","owner":"79722430@N04","secret":"8e4d795c05","server":"65535","farm":66,"title":"Sabine's gull (Xema sabini)","ispublic":1,"isfriend":0,"isfamily":0},{"id":"52530838480","owner":"79722430@N04","secret":"3981cfaec7","server":"65535","farm":66,"title":"Sabine's gull (Xema sabini)","ispublic":1,"isfriend":0,"isfamily":0},{"id":"52529898022","owner":"79722430@N04","secret":"dd833ab6f4","server":"65535","farm":66,"title":"Sabine's gull (Xema sabini)","ispublic":1,"isfriend":0,"isfamily":0},{"id":"52530647929","owner":"79722430@N04","secret":"35f6d6b73f","server":"65535","farm":66,"title":"Sabine's gull (Xema sabini)","ispublic":1,"isfriend":0,"isfamily":0},{"id":"52529897967","owner":"79722430@N04","secret":"b550e90fea","server":"65535","farm":66,"title":"Sabine's gull (Xema sabini)","ispublic":1,"isfriend":0,"isfamily":0},{"id":"52530908918","owner":"79722430@N04","secret":"d528c19a8a","server":"65535","farm":66,"title":"Sabine's gull (Xema sabini)","ispublic":1,"isfriend":0,"isfamily":0},{"id":"52530838395","owner":"79722430@N04","secret":"9248ff3cb3","server":"65535","farm":66,"title":"Sabine's gull (Xema sabini)","ispublic":1,"isfriend":0,"isfamily":0},{"id":"52529883107","owner":"79722430@N04","secret":"338a3b157c","server":"65535","farm":66,"title":"Sabine's gull (Xema sabini)","ispublic":1,"isfriend":0,"isfamily":0},{"id":"52530633274","owner":"79722430@N04","secret":"a5f78b583d","server":"65535","farm":66,"title":"Sabine's gull (Xema sabini)","ispublic":1,"isfriend":0,"isfamily":0},{"id":"52530351611","owner":"79722430@N04","secret":"deb61e8593","server":"65535","farm":66,"title":"Sabine's gull (Xema sabini)","ispublic":1,"isfriend":0,"isfamily":0},{"id":"52530633244","owner":"79722430@N04","secret":"e34c2d1dea","server":"65535","farm":66,"title":"Sabine's gull (Xema sabini)","ispublic":1,"isfriend":0,"isfamily":0},{"id":"52530633264","owner":"79722430@N04","secret":"3ff100608a","server":"65535","farm":66,"title":"Sabine's gull (Xema sabini)","ispublic":1,"isfriend":0,"isfamily":0},{"id":"52530824240","owner":"79722430@N04","secret":"57df2d4948","server":"65535","farm":66,"title":"Sabine's gull (Xema sabini)","ispublic":1,"isfriend":0,"isfamily":0},{"id":"52529883047","owner":"79722430@N04","secret":"ce5d33e938","server":"65535","farm":66,"title":"Sabine's gull (Xema sabini)","ispublic":1,"isfriend":0,"isfamily":0},{"id":"52530351536","owner":"79722430@N04","secret":"4499583943","server":"65535","farm":66,"title":"Sabine's gull (Xema sabini)","ispublic":1,"isfriend":0,"isfamily":0},{"id":"52530894268","owner":"79722430@N04","secret":"0f31bcd504","server":"65535","farm":66,"title":"Sabine's gull (Xema sabini)","ispublic":1,"isfriend":0,"isfamily":0},{"id":"52529875342","owner":"79722430@N04","secret":"3630812fa5","server":"65535","farm":66,"title":"Sabine's gull (Xema sabini)","ispublic":1,"isfriend":0,"isfamily":0},{"id":"52529875357","owner":"79722430@N04","secret":"2e147efd9a","server":"65535","farm":66,"title":"Sabine's gull (Xema sabini)","ispublic":1,"isfriend":0,"isfamily":0},{"id":"52530886743","owner":"79722430@N04","secret":"248cc6e73d","server":"65535","farm":66,"title":"Sabine's gull (Xema sabini)","ispublic":1,"isfriend":0,"isfamily":0},{"id":"52530625389","owner":"79722430@N04","secret":"6c424949da","server":"65535","farm":66,"title":"Sabine's gull (Xema sabini)","ispublic":1,"isfriend":0,"isfamily":0},{"id":"52530886713","owner":"79722430@N04","secret":"12ffe5af10","server":"65535","farm":66,"title":"Sabine's gull (Xema sabini)","ispublic":1,"isfriend":0,"isfamily":0},{"id":"52530816445","owner":"79722430@N04","secret":"9b67ccb57a","server":"65535","farm":66,"title":"Sabine's gull (Xema sabini)","ispublic":1,"isfriend":0,"isfamily":0},{"id":"52529875167","owner":"79722430@N04","secret":"c2cbc4f0ab","server":"65535","farm":66,"title":"Sabine's gull (Xema sabini)","ispublic":1,"isfriend":0,"isfamily":0},{"id":"52530873883","owner":"79722430@N04","secret":"8137ab7640","server":"65535","farm":66,"title":"Sabine's gull (Xema sabini)","ispublic":1,"isfriend":0,"isfamily":0},{"id":"52530612209","owner":"79722430@N04","secret":"b593c9e1c3","server":"65535","farm":66,"title":"Sabine's gull (Xema sabini)","ispublic":1,"isfriend":0,"isfamily":0},{"id":"52530804100","owner":"79722430@N04","secret":"bda0d4ef84","server":"65535","farm":66,"title":"Sabine's gull (Xema sabini)","ispublic":1,"isfriend":0,"isfamily":0},{"id":"52530804085","owner":"79722430@N04","secret":"ae239601e8","server":"65535","farm":66,"title":"Sabine's gull (Xema sabini)","ispublic":1,"isfriend":0,"isfamily":0},{"id":"52530330426","owner":"79722430@N04","secret":"27b1437bd4","server":"65535","farm":66,"title":"Sabine's gull (Xema sabini)","ispublic":1,"isfriend":0,"isfamily":0},{"id":"52530804060","owner":"79722430@N04","secret":"2ecf444c52","server":"65535","farm":66,"title":"Sabine's gull (Xema sabini)","ispublic":1,"isfriend":0,"isfamily":0},{"id":"52530865053","owner":"79722430@N04","secret":"c7c5f92946","server":"65535","farm":66,"title":"Sabine's gull (Xema sabini)","ispublic":1,"isfriend":0,"isfamily":0},{"id":"52530865038","owner":"79722430@N04","secret":"2e5c082e35","server":"65535","farm":66,"title":"Sabine's gull (Xema sabini)","ispublic":1,"isfriend":0,"isfamily":0},{"id":"52529853352","owner":"79722430@N04","secret":"2ecfcdfb19","server":"65535","farm":66,"title":"Sabine's gull (Xema sabini)","ispublic":1,"isfriend":0,"isfamily":0},{"id":"52530865008","owner":"79722430@N04","secret":"773df4e68e","server":"65535","farm":66,"title":"Sabine's gull (Xema sabini)","ispublic":1,"isfriend":0,"isfamily":0},{"id":"52530795560","owner":"79722430@N04","secret":"182c241ed2","server":"65535","farm":66,"title":"Sabine's gull (Xema sabini)","ispublic":1,"isfriend":0,"isfamily":0},{"id":"52529853297","owner":"79722430@N04","secret":"244d057b77","server":"65535","farm":66,"title":"Sabine's gull (Xema sabini)","ispublic":1,"isfriend":0,"isfamily":0},{"id":"52530795535","owner":"79722430@N04","secret":"67e0166a8d","server":"65535","farm":66,"title":"Sabine's gull (Xema sabini)","ispublic":1,"isfriend":0,"isfamily":0},{"id":"52530594974","owner":"79722430@N04","secret":"23a07eb0a6","server":"65535","farm":66,"title":"Sabine's gull (Xema sabini)","ispublic":1,"isfriend":0,"isfamily":0},{"id":"52530856678","owner":"79722430@N04","secret":"a849283f89","server":"65535","farm":66,"title":"Sabine's gull (Xema sabini)","ispublic":1,"isfriend":0,"isfamily":0},{"id":"52530787320","owner":"79722430@N04","secret":"ea32cea4f2","server":"65535","farm":66,"title":"Sabine's gull (Xema sabini)","ispublic":1,"isfriend":0,"isfamily":0},{"id":"52530313071","owner":"79722430@N04","secret":"10b0642a11","server":"65535","farm":66,"title":"Sabine's gull (Xema sabini)","ispublic":1,"isfriend":0,"isfamily":0}]},"stat":"ok"}