{"photos":{"page":1,"pages":61,"perpage":100,"total":6042,"photo":[{"id":"52791640390","owner":"150719316@N03","secret":"861b3404c3","server":"65535","farm":66,"title":"Saffron Finch","ispublic":1,"isfriend":0,"isfamily":0},{"id":"52779183867","owner":"26128697@N07","secret":"e628c80f7d","server":"65535","farm":66,"title":"can\u00e1rio-da-terra","ispublic":1,"isfriend":0,"isfamily":0},{"id":"52780134285","owner":"26128697@N07","secret":"8e844df20b","server":"65535","farm":66,"title":"can\u00e1rio-da-terra","ispublic":1,"isfriend":0,"isfamily":0},{"id":"52779182702","owner":"26128697@N07","secret":"f0f6a9d378","server":"65535","farm":66,"title":"can\u00e1rio-da-terra","ispublic":1,"isfriend":0,"isfamily":0},{"id":"52770457159","owner":"189294439@N06","secret":"3ca3c8883c","server":"65535","farm":66,"title":"Can\u00e1rio-da-terra","ispublic":1,"isfriend":0,"isfamily":0},{"id":"52769823461","owner":"71330601@N06","secret":"666d1e0212","server":"65535","farm":66,"title":"Can\u00e1rio-da-terra \/ Saffron Finch","ispublic":1,"isfriend":0,"isfamily":0},{"id":"52770314088","owner":"71330601@N06","secret":"e90dc176f4","server":"65535","farm":66,"title":"Can\u00e1rio-da-terra \/ Saffron Finch","ispublic":1,"isfriend":0,"isfamily":0},{"id":"52763620138","owner":"67306066@N03","secret":"790fca342f","server":"65535","farm":66,"title":"Saffron Finch (Sicalis flaveola","ispublic":1,"isfriend":0,"isfamily":0},{"id":"52763537690","owner":"67306066@N03","secret":"0d6036366c","server":"65535","farm":66,"title":"Saffron Finch (Sicalis flaveola","ispublic":1,"isfriend":0,"isfamily":0},{"id":"52758321585","owner":"107915001@N02","secret":"712705b179","server":"65535","farm":66,"title":"Saffron Finch","ispublic":1,"isfriend":0,"isfamily":0},{"id":"52755335500","owner":"67306066@N03","secret":"0020a69c69","server":"65535","farm":66,"title":"Saffron Finch (Sicalis flaveola)","ispublic":1,"isfriend":0,"isfamily":0},{"id":"52754929461","owner":"67306066@N03","secret":"64bc5df148","server":"65535","farm":66,"title":"Saffron Finch (Sicalis flaveola)","ispublic":1,"isfriend":0,"isfamily":0},{"id":"52755173319","owner":"67306066@N03","secret":"6dc35d5ba7","server":"65535","farm":66,"title":"Saffron Finch (Sicalis flaveola)","ispublic":1,"isfriend":0,"isfamily":0},{"id":"52755418193","owner":"67306066@N03","secret":"75eff0137b","server":"65535","farm":66,"title":"Saffron Finch (Sicalis flaveola)","ispublic":1,"isfriend":0,"isfamily":0},{"id":"52754897106","owner":"67306066@N03","secret":"376891edb0","server":"65535","farm":66,"title":"Saffron Finch (Sicalis flaveola)","ispublic":1,"isfriend":0,"isfamily":0},{"id":"52753614622","owner":"88537019@N00","secret":"b3a72a93cc","server":"65535","farm":66,"title":"Saffron Finch (Sicalis flaveola)","ispublic":1,"isfriend":0,"isfamily":0},{"id":"52750161411","owner":"123979267@N05","secret":"c5b59e890b","server":"65535","farm":66,"title":"Saffron Finch","ispublic":1,"isfriend":0,"isfamily":0},{"id":"52748915233","owner":"123979267@N05","secret":"e81610345f","server":"65535","farm":66,"title":"Saffron Finch","ispublic":1,"isfriend":0,"isfamily":0},{"id":"52746369027","owner":"57729348@N02","secret":"9c35d7becf","server":"65535","farm":66,"title":"Saffron Finch (Sicalis flaveola)","ispublic":1,"isfriend":0,"isfamily":0},{"id":"52729378556","owner":"188233235@N06","secret":"2cc295765d","server":"65535","farm":66,"title":"The Saffron Finch","ispublic":1,"isfriend":0,"isfamily":0},{"id":"52711279513","owner":"67306066@N03","secret":"f36efb9c8b","server":"65535","farm":66,"title":"Saffron Finch (Sicalis flaveola)","ispublic":1,"isfriend":0,"isfamily":0},{"id":"52705212859","owner":"196426956@N04","secret":"ea84872c17","server":"65535","farm":66,"title":"Sicalis flaveola","ispublic":1,"isfriend":0,"isfamily":0},{"id":"52701744310","owner":"27794127@N07","secret":"4342250e37","server":"65535","farm":66,"title":"Sicalis flaveola","ispublic":1,"isfriend":0,"isfamily":0},{"id":"52696793785","owner":"67306066@N03","secret":"e327517f9f","server":"65535","farm":66,"title":"Saffron Finch (Sicalis flaveola)","ispublic":1,"isfriend":0,"isfamily":0},{"id":"52695860897","owner":"67306066@N03","secret":"b0406fca67","server":"65535","farm":66,"title":"Saffron Finch (Sicalis flaveola)","ispublic":1,"isfriend":0,"isfamily":0},{"id":"52695657388","owner":"67306066@N03","secret":"6c628c6c0c","server":"65535","farm":66,"title":"Saffron Finch (Sicalis flaveola)","ispublic":1,"isfriend":0,"isfamily":0},{"id":"52694800286","owner":"47835705@N04","secret":"4e9a305df3","server":"65535","farm":66,"title":"Chirihue Azafranado - Saffron Finch (Sicalis flaveola) Lima, Per\u00fa","ispublic":1,"isfriend":0,"isfamily":0},{"id":"52691621259","owner":"162501315@N05","secret":"137ac79540","server":"65535","farm":66,"title":"Can\u00e1rio-da-terra (Sicalis flaveola)","ispublic":1,"isfriend":0,"isfamily":0},{"id":"52691769015","owner":"162501315@N05","secret":"3d9c05b710","server":"65535","farm":66,"title":"Can\u00e1rio-da-terra (Sicalis flaveola)","ispublic":1,"isfriend":0,"isfamily":0},{"id":"52687859046","owner":"48014585@N00","secret":"2ba48275b3","server":"65535","farm":66,"title":"Saffron Finch","ispublic":1,"isfriend":0,"isfamily":0},{"id":"52679526068","owner":"11295713@N00","secret":"2e75aa4409","server":"65535","farm":66,"title":"Saffron Finch (Sicalis flaveola) Profile","ispublic":1,"isfriend":0,"isfamily":0},{"id":"52668997255","owner":"67306066@N03","secret":"6ecaf5dbb9","server":"65535","farm":66,"title":"Saffron Finch (Sicalis flaveola)","ispublic":1,"isfriend":0,"isfamily":0},{"id":"52668063567","owner":"67306066@N03","secret":"0286bf439b","server":"65535","farm":66,"title":"Saffron Finch (Sicalis flaveola)","ispublic":1,"isfriend":0,"isfamily":0},{"id":"52651956528","owner":"37203410@N07","secret":"725804b460","server":"65535","farm":66,"title":"Chirihue azafr\u00e1n \/ Sicalis flaveola","ispublic":1,"isfriend":0,"isfamily":0},{"id":"52645779967","owner":"26128697@N07","secret":"c9e0e58de7","server":"65535","farm":66,"title":"can\u00e1rio-da-terra (Sicalis flaveola)","ispublic":1,"isfriend":0,"isfamily":0},{"id":"52638575583","owner":"12442123@N00","secret":"08056fec11","server":"65535","farm":66,"title":"mellow yellow","ispublic":1,"isfriend":0,"isfamily":0},{"id":"52632334276","owner":"62043870@N05","secret":"042de3b494","server":"65535","farm":66,"title":"Saffron Finch, Sicalis flaveola","ispublic":1,"isfriend":0,"isfamily":0},{"id":"52628610170","owner":"162501315@N05","secret":"7165d1e408","server":"65535","farm":66,"title":"Can\u00e1rio-da-terra (Sicalis flaveola)","ispublic":1,"isfriend":0,"isfamily":0},{"id":"52617770022","owner":"88537019@N00","secret":"32a3cb7e00","server":"65535","farm":66,"title":"Saffron Finch (Sicalis flaveola)","ispublic":1,"isfriend":0,"isfamily":0},{"id":"52612857254","owner":"45376259@N04","secret":"0531aaea31","server":"65535","farm":66,"title":"Casal de can\u00e1rio-da-terrra (Sicalis flaveola), Vale da Neblina-PB, Brasil.","ispublic":1,"isfriend":0,"isfamily":0},{"id":"52611569895","owner":"141256983@N04","secret":"b4a4858245","server":"65535","farm":66,"title":"Saffron Finch (Sicalis flaveola)","ispublic":1,"isfriend":0,"isfamily":0},{"id":"52610482512","owner":"155018023@N05","secret":"2f55057fce","server":"65535","farm":66,"title":"Jilguero dorado","ispublic":1,"isfriend":0,"isfamily":0},{"id":"52607746033","owner":"196183149@N04","secret":"d42ea6d2bc","server":"65535","farm":66,"title":"Canario","ispublic":1,"isfriend":0,"isfamily":0},{"id":"52603594109","owner":"155018023@N05","secret":"da88072b14","server":"65535","farm":66,"title":"Jilguero dorado hembra","ispublic":1,"isfriend":0,"isfamily":0},{"id":"52601889167","owner":"26128697@N07","secret":"8581f8b071","server":"65535","farm":66,"title":"Can\u00e1rio-da-terra (Sicalis flaveola)","ispublic":1,"isfriend":0,"isfamily":0},{"id":"52599970987","owner":"27794127@N07","secret":"4c280d5860","server":"65535","farm":66,"title":"Sicalis flaveola","ispublic":1,"isfriend":0,"isfamily":0},{"id":"52598749024","owner":"132165466@N08","secret":"a2f65b2446","server":"65535","farm":66,"title":"Saffron Finch (actually a tanger)","ispublic":1,"isfriend":0,"isfamily":0},{"id":"52586775276","owner":"89884672@N03","secret":"f76ebba927","server":"65535","farm":66,"title":"Sicalis flaveola","ispublic":1,"isfriend":0,"isfamily":0},{"id":"52580407454","owner":"45376259@N04","secret":"ecf1364f70","server":"65535","farm":66,"title":"Can\u00e1rio-da-terra (Sicalis flaveola) Vale da Neblina-PB, Brasil","ispublic":1,"isfriend":0,"isfamily":0},{"id":"52575863753","owner":"45376259@N04","secret":"c135c8484a","server":"65535","farm":66,"title":"Can\u00e1rio-da-terra (Sicalis flaveola) Vale da Neblina-PB, Brasil","ispublic":1,"isfriend":0,"isfamily":0},{"id":"52572409470","owner":"147473680@N03","secret":"eb65d0d9f4","server":"0","farm":0,"title":"Saffron Finch","ispublic":1,"isfriend":0,"isfamily":0},{"id":"52558237866","owner":"95795254@N02","secret":"e6441a3a11","server":"65535","farm":66,"title":"Saffron Finch 502_3656.jpg","ispublic":1,"isfriend":0,"isfamily":0},{"id":"52557643615","owner":"23335641@N04","secret":"e19ab9a348","server":"65535","farm":66,"title":"_DSC8218.jpg","ispublic":1,"isfriend":0,"isfamily":0},{"id":"52542234200","owner":"69947563@N07","secret":"33a4b56b52","server":"65535","farm":66,"title":"Saffron Finch - La Vega, Cundinamarca, Colombia","ispublic":1,"isfriend":0,"isfamily":0},{"id":"52536554148","owner":"77125798@N06","secret":"111a3b1f94","server":"65535","farm":66,"title":"CAN\u00c1RIO-DA-TERRA-VERDADEIRO, Sicalis flaveola (Linnaeus, 1766)","ispublic":1,"isfriend":0,"isfamily":0},{"id":"52535159445","owner":"195899031@N06","secret":"0f629240d5","server":"65535","farm":66,"title":"Sicalis Flaveola","ispublic":1,"isfriend":0,"isfamily":0},{"id":"52532464886","owner":"32674493@N04","secret":"f00e8d233c","server":"65535","farm":66,"title":"Can\u00e1rio-da-terra (Sicalis flaveola pelzelni) f\u00eamea","ispublic":1,"isfriend":0,"isfamily":0},{"id":"52530801094","owner":"149673510@N03","secret":"993225d7a4","server":"65535","farm":66,"title":"Hidden","ispublic":1,"isfriend":0,"isfamily":0},{"id":"52525856297","owner":"146731257@N06","secret":"a8d227f36c","server":"65535","farm":66,"title":"Sicale bouton-d'or (Sicalis flaveola) - Kaua\u2018i - Hawai\u2018i","ispublic":1,"isfriend":0,"isfamily":0},{"id":"52512998017","owner":"196567058@N02","secret":"82f07eb2ee","server":"65535","farm":66,"title":"Sicalis flaveola - Canario coronado","ispublic":1,"isfriend":0,"isfamily":0},{"id":"52512997987","owner":"196567058@N02","secret":"53ec1ebe82","server":"65535","farm":66,"title":"Sicalis flaveola - Canario coronado","ispublic":1,"isfriend":0,"isfamily":0},{"id":"52512803607","owner":"99613800@N02","secret":"80415c9da5","server":"65535","farm":66,"title":"Sicalis flaveola (Saffron Finch) male - Thraupidae - Abraao, IIlha Grande, Rio de Janeiro, Brazil","ispublic":1,"isfriend":0,"isfamily":0},{"id":"52513471764","owner":"99613800@N02","secret":"bbd426226a","server":"65535","farm":66,"title":"Sicalis flaveola (Saffron Finch) male - Thraupidae - Abraao, IIlha Grande, Rio de Janeiro, Brazil-2","ispublic":1,"isfriend":0,"isfamily":0},{"id":"52508749528","owner":"75137207@N02","secret":"7dfa15922d","server":"65535","farm":66,"title":"Safranfink  \/ Saffron Finch \/ Sicalis flaveola DSCN3299","ispublic":1,"isfriend":0,"isfamily":0},{"id":"52500855949","owner":"62953254@N04","secret":"f28edecde7","server":"65535","farm":66,"title":"Can\u00e1rio-da-terra\/Saffron Finch","ispublic":1,"isfriend":0,"isfamily":0},{"id":"52480088224","owner":"188214336@N08","secret":"fcd89ed737","server":"65535","farm":66,"title":"DSC_2420-2R1 Saffron Finch (Sicalis flaveola)","ispublic":1,"isfriend":0,"isfamily":0},{"id":"52463532646","owner":"26128697@N07","secret":"baeb2f414a","server":"65535","farm":66,"title":"Can\u00e1rio-da-terra (Sicalis flaveola) - 2","ispublic":1,"isfriend":0,"isfamily":0},{"id":"52463026782","owner":"26128697@N07","secret":"cb94479c40","server":"65535","farm":66,"title":"Can\u00e1rio-da-terra (Sicalis flaveola) - 3","ispublic":1,"isfriend":0,"isfamily":0},{"id":"52463807404","owner":"26128697@N07","secret":"8497405c03","server":"65535","farm":66,"title":"Can\u00e1rio-da-terra (Sicalis flaveola) - 4","ispublic":1,"isfriend":0,"isfamily":0},{"id":"52702635371","owner":"27794127@N07","secret":"7490b39ed3","server":"65535","farm":66,"title":"Sicalis flaveola","ispublic":1,"isfriend":0,"isfamily":0},{"id":"52687341247","owner":"48014585@N00","secret":"d6ebd39444","server":"65535","farm":66,"title":"Saffron Finch","ispublic":1,"isfriend":0,"isfamily":0},{"id":"52625086608","owner":"154657265@N08","secret":"18056297a6","server":"65535","farm":66,"title":"Saffron Finch - Sicalis flaveola","ispublic":1,"isfriend":0,"isfamily":0},{"id":"52623925016","owner":"197491775@N08","secret":"9878cd6e46","server":"65535","farm":66,"title":"Sicalis flaveola","ispublic":1,"isfriend":0,"isfamily":0},{"id":"52623406477","owner":"197491775@N08","secret":"3200a3eb72","server":"65535","farm":66,"title":"Sicalis flaveola","ispublic":1,"isfriend":0,"isfamily":0},{"id":"52622462521","owner":"62043870@N05","secret":"d4544bdd3e","server":"65535","farm":66,"title":"Java Sparrow (Padda oryzivora) and  Saffron Finch (Sicalis flaveola)","ispublic":1,"isfriend":0,"isfamily":0},{"id":"52621207025","owner":"26128697@N07","secret":"d793e44d07","server":"65535","farm":66,"title":"can\u00e1rio-da-terra (Sicalis flaveola)","ispublic":1,"isfriend":0,"isfamily":0},{"id":"52621034534","owner":"26128697@N07","secret":"10d9b49353","server":"65535","farm":66,"title":"can\u00e1rio-da-terra (Sicalis flaveola)","ispublic":1,"isfriend":0,"isfamily":0},{"id":"52621034424","owner":"26128697@N07","secret":"4f435abd0d","server":"65535","farm":66,"title":"can\u00e1rio-da-terra (Sicalis flaveola)","ispublic":1,"isfriend":0,"isfamily":0},{"id":"52620867910","owner":"62043870@N05","secret":"ff709f67d6","server":"65535","farm":66,"title":"Saffron Finch, Sicalis flaveola","ispublic":1,"isfriend":0,"isfamily":0},{"id":"52619692015","owner":"125605310@N07","secret":"bf94b08c94","server":"65535","farm":66,"title":"Saffron Finch, Sicalis flaveola","ispublic":1,"isfriend":0,"isfamily":0},{"id":"52618852474","owner":"62043870@N05","secret":"ce2c7c8be1","server":"65535","farm":66,"title":"Saffron Finch, Sicalis flaveola","ispublic":1,"isfriend":0,"isfamily":0},{"id":"52583199619","owner":"26128697@N07","secret":"9d34ae0dbb","server":"65535","farm":66,"title":"can\u00e1rio-da-terra (f\u00eamea)","ispublic":1,"isfriend":0,"isfamily":0},{"id":"52580245936","owner":"153973412@N04","secret":"2625767d63","server":"65535","farm":66,"title":"Saffron Finch-Sicalis flaveola, Oahu, HI","ispublic":1,"isfriend":0,"isfamily":0},{"id":"52567168376","owner":"50241576@N03","secret":"f8e896d25a","server":"65535","farm":66,"title":"Saffron Finch (Sicalis flaveola) Male","ispublic":1,"isfriend":0,"isfamily":0},{"id":"52562693530","owner":"76913048@N02","secret":"d7c20dcf21","server":"65535","farm":66,"title":"Cana\u0301rio da terra - Sicalis flaveola","ispublic":1,"isfriend":0,"isfamily":0},{"id":"52557791051","owner":"195899031@N06","secret":"f160be5ce3","server":"65535","farm":66,"title":"Sicalis Flaveola","ispublic":1,"isfriend":0,"isfamily":0},{"id":"52557790411","owner":"195899031@N06","secret":"dc835da53f","server":"65535","farm":66,"title":"Sicalis Flaveola","ispublic":1,"isfriend":0,"isfamily":0},{"id":"52558084804","owner":"195899031@N06","secret":"584b8b0471","server":"65535","farm":66,"title":"Sicalis Flaveola y Columbina talpacoti","ispublic":1,"isfriend":0,"isfamily":0},{"id":"52534141457","owner":"195899031@N06","secret":"7993c14408","server":"65535","farm":66,"title":"Sicalis Flaveola","ispublic":1,"isfriend":0,"isfamily":0},{"id":"52529414057","owner":"26128697@N07","secret":"48e348ffe8","server":"65535","farm":66,"title":"can\u00e1rio-da-terra (Sicalis flaveola)","ispublic":1,"isfriend":0,"isfamily":0},{"id":"52529412712","owner":"26128697@N07","secret":"7655865239","server":"65535","farm":66,"title":"can\u00e1rio-da-terra (Sicalis flaveola)","ispublic":1,"isfriend":0,"isfamily":0},{"id":"52530424028","owner":"26128697@N07","secret":"a806190c68","server":"65535","farm":66,"title":"can\u00e1rio-da-terra f\u00eamea (Sicalis flaveola)","ispublic":1,"isfriend":0,"isfamily":0},{"id":"52530163549","owner":"26128697@N07","secret":"a461ce9c40","server":"65535","farm":66,"title":"can\u00e1rio-da-terra (Sicalis flaveola)","ispublic":1,"isfriend":0,"isfamily":0},{"id":"52530423778","owner":"26128697@N07","secret":"54487b6f02","server":"65535","farm":66,"title":"can\u00e1rio-da-terra (Sicalis flaveola)","ispublic":1,"isfriend":0,"isfamily":0},{"id":"52529876641","owner":"26128697@N07","secret":"bfede3eac7","server":"65535","farm":66,"title":"can\u00e1rio-da-terra (Sicalis flaveola)","ispublic":1,"isfriend":0,"isfamily":0},{"id":"52530163294","owner":"26128697@N07","secret":"6074a4fc82","server":"65535","farm":66,"title":"can\u00e1rio-da-terra (Sicalis flaveola)","ispublic":1,"isfriend":0,"isfamily":0},{"id":"52530163224","owner":"26128697@N07","secret":"4ff22bbe63","server":"65535","farm":66,"title":"can\u00e1rio-da-terra (Sicalis flaveola)","ispublic":1,"isfriend":0,"isfamily":0},{"id":"52528169623","owner":"100247776@N03","secret":"37c6411382","server":"65535","farm":66,"title":"CAN\u00c1RIO DA TERRA - Sicalis flaveola  - TEREZ\u00d3POLIS DE GOI\u00c1S","ispublic":1,"isfriend":0,"isfamily":0},{"id":"52494153301","owner":"38032433@N07","secret":"f97bb3eb1f","server":"65535","farm":66,"title":"BG4R1229.jpg","ispublic":1,"isfriend":0,"isfamily":0},{"id":"52493926815","owner":"190911304@N02","secret":"03f0a9af82","server":"65535","farm":66,"title":"Jilguero dorado (Sicalis flaveola)","ispublic":1,"isfriend":0,"isfamily":0}]},"stat":"ok"}