{"photos":{"page":1,"pages":5,"perpage":100,"total":449,"photo":[{"id":"52670987915","owner":"142119475@N06","secret":"13ab20679a","server":"65535","farm":66,"title":"20230205-_DSC0077","ispublic":1,"isfriend":0,"isfamily":0},{"id":"52670987630","owner":"142119475@N06","secret":"285922f0b0","server":"65535","farm":66,"title":"20230205-_DSC0083","ispublic":1,"isfriend":0,"isfamily":0},{"id":"52670552296","owner":"142119475@N06","secret":"b32b561755","server":"65535","farm":66,"title":"20230205-_DSC0085","ispublic":1,"isfriend":0,"isfamily":0},{"id":"52670048772","owner":"142119475@N06","secret":"0ac9250e5d","server":"65535","farm":66,"title":"20230205-_DSC0087","ispublic":1,"isfriend":0,"isfamily":0},{"id":"52670841254","owner":"142119475@N06","secret":"8287de183a","server":"65535","farm":66,"title":"20230205-_DSC0089","ispublic":1,"isfriend":0,"isfamily":0},{"id":"52670987050","owner":"142119475@N06","secret":"ba6666552a","server":"65535","farm":66,"title":"20230205-_DSC0090","ispublic":1,"isfriend":0,"isfamily":0},{"id":"52671051548","owner":"142119475@N06","secret":"b6230c5a92","server":"65535","farm":66,"title":"20230205-_DSC0096","ispublic":1,"isfriend":0,"isfamily":0},{"id":"52670047707","owner":"142119475@N06","secret":"024d86d6ab","server":"65535","farm":66,"title":"20230205-_DSC0107","ispublic":1,"isfriend":0,"isfamily":0},{"id":"52670550521","owner":"142119475@N06","secret":"12da0e058f","server":"65535","farm":66,"title":"20230205-_DSC0117","ispublic":1,"isfriend":0,"isfamily":0},{"id":"52670047087","owner":"142119475@N06","secret":"f1cfd13271","server":"65535","farm":66,"title":"20230205-_DSC0119","ispublic":1,"isfriend":0,"isfamily":0},{"id":"52670985380","owner":"142119475@N06","secret":"8ba9eb8293","server":"65535","farm":66,"title":"20230205-_DSC0125","ispublic":1,"isfriend":0,"isfamily":0},{"id":"52670839299","owner":"142119475@N06","secret":"b3bfae3a92","server":"65535","farm":66,"title":"20230205-_DSC0129","ispublic":1,"isfriend":0,"isfamily":0},{"id":"52670549331","owner":"142119475@N06","secret":"55a0969c35","server":"65535","farm":66,"title":"20230205-_DSC0139","ispublic":1,"isfriend":0,"isfamily":0},{"id":"52671049143","owner":"142119475@N06","secret":"4111e6f8d9","server":"65535","farm":66,"title":"20230205-_DSC0141","ispublic":1,"isfriend":0,"isfamily":0},{"id":"52670549116","owner":"142119475@N06","secret":"caf156835d","server":"65535","farm":66,"title":"20230205-_DSC0144","ispublic":1,"isfriend":0,"isfamily":0},{"id":"52670984540","owner":"142119475@N06","secret":"3a8a83ce27","server":"65535","farm":66,"title":"20230205-_DSC0152","ispublic":1,"isfriend":0,"isfamily":0},{"id":"52670548881","owner":"142119475@N06","secret":"b4e5cdc39a","server":"65535","farm":66,"title":"20230205-_DSC0154","ispublic":1,"isfriend":0,"isfamily":0},{"id":"52670984315","owner":"142119475@N06","secret":"0c3249ed53","server":"65535","farm":66,"title":"20230205-_DSC0156","ispublic":1,"isfriend":0,"isfamily":0},{"id":"52670984215","owner":"142119475@N06","secret":"de3aa9a551","server":"65535","farm":66,"title":"20230205-_DSC0157","ispublic":1,"isfriend":0,"isfamily":0},{"id":"52670838239","owner":"142119475@N06","secret":"b3f0459212","server":"65535","farm":66,"title":"20230205-_DSC0158","ispublic":1,"isfriend":0,"isfamily":0},{"id":"52670045202","owner":"142119475@N06","secret":"448380e301","server":"65535","farm":66,"title":"20230205-_DSC0168","ispublic":1,"isfriend":0,"isfamily":0},{"id":"52670545946","owner":"142119475@N06","secret":"f77d075fd3","server":"65535","farm":66,"title":"20230205-_DSC0175","ispublic":1,"isfriend":0,"isfamily":0},{"id":"52670835664","owner":"142119475@N06","secret":"3f5dd6db60","server":"65535","farm":66,"title":"20230205-_DSC0176","ispublic":1,"isfriend":0,"isfamily":0},{"id":"52670835559","owner":"142119475@N06","secret":"0d896f5582","server":"65535","farm":66,"title":"20230205-_DSC0178","ispublic":1,"isfriend":0,"isfamily":0},{"id":"52670835464","owner":"142119475@N06","secret":"35b95a8c99","server":"65535","farm":66,"title":"20230205-_DSC0180","ispublic":1,"isfriend":0,"isfamily":0},{"id":"52671045243","owner":"142119475@N06","secret":"632004782d","server":"65535","farm":66,"title":"20230205-_DSC0187","ispublic":1,"isfriend":0,"isfamily":0},{"id":"52587943767","owner":"16520061@N08","secret":"9c67a33702","server":"65535","farm":66,"title":"Salmon-crested Cockatoo (Cacatua moluccensis) - VULNERABLE","ispublic":1,"isfriend":0,"isfamily":0},{"id":"52588680080","owner":"16520061@N08","secret":"9ba8acc27f","server":"65535","farm":66,"title":"Salmon-crested Cockatoo (Cacatua moluccensis) - VULNERABLE","ispublic":1,"isfriend":0,"isfamily":0},{"id":"52530202805","owner":"29380771@N06","secret":"4e369bef27","server":"65535","farm":66,"title":"Salmon-crested Cockatoo Painterly Portrait - Vertical with ID","ispublic":1,"isfriend":0,"isfamily":0},{"id":"52372114797","owner":"11928454@N04","secret":"56cdc4d04d","server":"65535","farm":66,"title":"Salmon-crested cockatoo","ispublic":1,"isfriend":0,"isfamily":0},{"id":"51685102314","owner":"24580998@N08","secret":"9da50ca759","server":"65535","farm":66,"title":"Cacatua moluccensis - Cacato\u00e8s des Moluques ou Cacato\u00e8s \u00e0 huppe rouge - Salmon-crested Cockatoo - 23\/05\/17","ispublic":1,"isfriend":0,"isfamily":0},{"id":"51683629837","owner":"24580998@N08","secret":"bdbc0032d5","server":"65535","farm":66,"title":"Cacatua moluccensis - Cacato\u00e8s des Moluques ou Cacato\u00e8s \u00e0 huppe rouge - Salmon-crested Cockatoo - 23\/05\/17","ispublic":1,"isfriend":0,"isfamily":0},{"id":"51455819245","owner":"151002764@N08","secret":"fafd2312bb","server":"65535","farm":66,"title":"Cacatua moluccensis","ispublic":1,"isfriend":0,"isfamily":0},{"id":"51258258086","owner":"165579059@N02","secret":"f2f0a05de3","server":"65535","farm":66,"title":"Moluccan cockatoo (Cacatua moluccensis) pet bird, Luxus Hills Singapore 20 June 2021. Sony A6500\/Canon EF 70-300mm f4-5.6L IS USM.","ispublic":1,"isfriend":0,"isfamily":0},{"id":"51110389313","owner":"90355165@N03","secret":"f7b6e7cf3a","server":"65535","farm":66,"title":"Salmon-crested cockatoo","ispublic":1,"isfriend":0,"isfamily":0},{"id":"50912379197","owner":"61021753@N02","secret":"23e0ef5a41","server":"65535","farm":66,"title":"n21_w1150","ispublic":1,"isfriend":0,"isfamily":0},{"id":"50563719727","owner":"61021753@N02","secret":"197c173545","server":"65535","farm":66,"title":"n13_w1150","ispublic":1,"isfriend":0,"isfamily":0},{"id":"50137110412","owner":"84152923@N08","secret":"9b40837aba","server":"65535","farm":66,"title":"molukkenkaketoe - Cacatua moluccensis - Salmon-crested Cockatoo","ispublic":1,"isfriend":0,"isfamily":0},{"id":"49834815671","owner":"39269318@N00","secret":"fd7706ee13","server":"65535","farm":66,"title":"The Moluccan Cockatoo (Cacatua moluccensis)","ispublic":1,"isfriend":0,"isfamily":0},{"id":"49670929371","owner":"11939829@N00","secret":"6aa207ebf5","server":"65535","farm":66,"title":"One of the many birds at the Bloedel Conservatory","ispublic":1,"isfriend":0,"isfamily":0},{"id":"49670384728","owner":"11939829@N00","secret":"e9eccaf322","server":"65535","farm":66,"title":"One of the many birds at the Bloedel Conservatory","ispublic":1,"isfriend":0,"isfamily":0},{"id":"49671216057","owner":"11939829@N00","secret":"565f6efee5","server":"65535","farm":66,"title":"One of the many birds at the Bloedel Conservatory","ispublic":1,"isfriend":0,"isfamily":0},{"id":"49491847606","owner":"153442800@N07","secret":"fe5f2a7b65","server":"65535","farm":66,"title":"Cacatua moluccensis","ispublic":1,"isfriend":0,"isfamily":0},{"id":"49048236918","owner":"31448602@N02","secret":"9e818235cc","server":"65535","farm":66,"title":"Cacatua moluccensis sketch","ispublic":1,"isfriend":0,"isfamily":0},{"id":"48873583808","owner":"50054477@N06","secret":"c14045f5e5","server":"65535","farm":66,"title":"Cacato\u00e8s des moluques (Cacatua moluccensis)","ispublic":1,"isfriend":0,"isfamily":0},{"id":"48752265222","owner":"12361801@N05","secret":"15475a9f9e","server":"65535","farm":66,"title":"Salmon-crested Cockatoo - Cacatua moluccensis","ispublic":1,"isfriend":0,"isfamily":0},{"id":"47598470751","owner":"154417921@N04","secret":"ed35e9743e","server":"7858","farm":8,"title":"DSC_8719","ispublic":1,"isfriend":0,"isfamily":0},{"id":"47598470631","owner":"154417921@N04","secret":"c90d5faea1","server":"7859","farm":8,"title":"DSC_8714","ispublic":1,"isfriend":0,"isfamily":0},{"id":"29159383227","owner":"19538227@N00","secret":"46680d7fd6","server":"1811","farm":2,"title":"Longleat cockatoo","ispublic":1,"isfriend":0,"isfamily":0},{"id":"42947502854","owner":"52089757@N04","secret":"bd37359298","server":"924","farm":1,"title":"_DSC0121MCSmall","ispublic":1,"isfriend":0,"isfamily":0},{"id":"41262362974","owner":"156308558@N06","secret":"ab57f539d4","server":"973","farm":1,"title":"Molukken-Kakadu","ispublic":1,"isfriend":0,"isfamily":0},{"id":"39649968880","owner":"63394592@N08","secret":"44f4717fdf","server":"885","farm":1,"title":"Hamilton Zoo","ispublic":1,"isfriend":0,"isfamily":0},{"id":"39661155041","owner":"126576470@N07","secret":"c979ec87fc","server":"4744","farm":5,"title":"Molukkenkakadu (Cacatua moluccensis) P1130308","ispublic":1,"isfriend":0,"isfamily":0},{"id":"25768972668","owner":"105742995@N05","secret":"ebe790dc6c","server":"4607","farm":5,"title":"molu\u010dki kakadu (Cacatua moluccensis \/ Salmon-crested Cockatoo \/ Molukkenkakadu)","ispublic":1,"isfriend":0,"isfamily":0},{"id":"23937180277","owner":"21894839@N04","secret":"cfc09a39b3","server":"4522","farm":5,"title":"One Big Happy Family","ispublic":1,"isfriend":0,"isfamily":0},{"id":"38771531352","owner":"21894839@N04","secret":"1507336061","server":"4555","farm":5,"title":"Am I Interupting Something?","ispublic":1,"isfriend":0,"isfamily":0},{"id":"36911599480","owner":"150296743@N05","secret":"0e4546a97d","server":"4413","farm":5,"title":"Moluccan Cockatoo ( Cacatua moluccensis )","ispublic":1,"isfriend":0,"isfamily":0},{"id":"34507986983","owner":"149623849@N03","secret":"da4a6d93ba","server":"4229","farm":5,"title":"Kakatua aka Moluccan Cockatoo","ispublic":1,"isfriend":0,"isfamily":0},{"id":"35124834031","owner":"24580998@N08","secret":"f57b01601e","server":"4263","farm":5,"title":"Cacatua moluccensis - Cacato\u00e8s des Moluques ou Cacato\u00e8s \u00e0 huppe rouge - Salmon-crested Cockatoo - 23\/05\/17","ispublic":1,"isfriend":0,"isfamily":0},{"id":"35124691151","owner":"24580998@N08","secret":"699b7a9956","server":"4265","farm":5,"title":"Cacatua moluccensis - Cacato\u00e8s des Moluques ou Cacato\u00e8s \u00e0 huppe rouge - Salmon-crested Cockato - 23\/05\/17","ispublic":1,"isfriend":0,"isfamily":0},{"id":"34445218773","owner":"24580998@N08","secret":"22fae3cdeb","server":"4215","farm":5,"title":"Cacatua moluccensis - Cacato\u00e8s des Moluques ou Cacato\u00e8s \u00e0 huppe rouge - Salmon-crested Cockatoo - 23\/05\/17","ispublic":1,"isfriend":0,"isfamily":0},{"id":"33435614923","owner":"105742995@N05","secret":"a8c5073c8a","server":"2895","farm":3,"title":"molu\u010dki kakadu (Cacatua moluccensis \/ Salmon-crested Cockatoo \/ Molukkenkakadu)","ispublic":1,"isfriend":0,"isfamily":0},{"id":"33282502054","owner":"49224489@N05","secret":"a0925063b8","server":"2928","farm":3,"title":"Salmon-crested Cockatoo - Cacatua moluccensis - Cacato\u00e8s \u00e0 huppe rouge","ispublic":1,"isfriend":0,"isfamily":0},{"id":"32524413764","owner":"68635735@N02","secret":"c283f7f368","server":"3768","farm":4,"title":"Moluccan Cockatoo (Cacatua moluccensis) video","ispublic":1,"isfriend":0,"isfamily":0},{"id":"52670983725","owner":"142119475@N06","secret":"37b9d22db2","server":"0","farm":0,"title":"DSC_0165","ispublic":1,"isfriend":0,"isfamily":0},{"id":"52670842234","owner":"142119475@N06","secret":"b71cc5a84c","server":"65535","farm":66,"title":"20230205-_DSC0071","ispublic":1,"isfriend":0,"isfamily":0},{"id":"52671052803","owner":"142119475@N06","secret":"6c7521dd8f","server":"65535","farm":66,"title":"20230205-_DSC0073","ispublic":1,"isfriend":0,"isfamily":0},{"id":"52670049157","owner":"142119475@N06","secret":"8a23409c07","server":"65535","farm":66,"title":"20230205-_DSC0082","ispublic":1,"isfriend":0,"isfamily":0},{"id":"52670840849","owner":"142119475@N06","secret":"dd5ae51b52","server":"65535","farm":66,"title":"20230205-_DSC0097","ispublic":1,"isfriend":0,"isfamily":0},{"id":"52670840619","owner":"142119475@N06","secret":"e0231759e7","server":"65535","farm":66,"title":"20230205-_DSC0101","ispublic":1,"isfriend":0,"isfamily":0},{"id":"52670840444","owner":"142119475@N06","secret":"f86639118f","server":"65535","farm":66,"title":"20230205-_DSC0105","ispublic":1,"isfriend":0,"isfamily":0},{"id":"52670986120","owner":"142119475@N06","secret":"e808d6c6f9","server":"65535","farm":66,"title":"20230205-_DSC0110","ispublic":1,"isfriend":0,"isfamily":0},{"id":"52670047352","owner":"142119475@N06","secret":"767b42553b","server":"65535","farm":66,"title":"20230205-_DSC0114","ispublic":1,"isfriend":0,"isfamily":0},{"id":"52670046902","owner":"142119475@N06","secret":"8560ff0bb7","server":"65535","farm":66,"title":"20230205-_DSC0123","ispublic":1,"isfriend":0,"isfamily":0},{"id":"52670985130","owner":"142119475@N06","secret":"fd24b8a0e6","server":"65535","farm":66,"title":"20230205-_DSC0131","ispublic":1,"isfriend":0,"isfamily":0},{"id":"52671049478","owner":"142119475@N06","secret":"10a70a1f96","server":"65535","farm":66,"title":"20230205-_DSC0133","ispublic":1,"isfriend":0,"isfamily":0},{"id":"52670838154","owner":"142119475@N06","secret":"fd41f2c76f","server":"65535","farm":66,"title":"20230205-_DSC0163","ispublic":1,"isfriend":0,"isfamily":0},{"id":"52670545356","owner":"142119475@N06","secret":"3e38a02709","server":"65535","farm":66,"title":"20230205-_DSC0093","ispublic":1,"isfriend":0,"isfamily":0},{"id":"52244911004","owner":"194936841@N05","secret":"f1c0373a0e","server":"65535","farm":66,"title":"Cacato\u00e8s \u00e0 huppe rouge (cacatua moluccensis)","ispublic":1,"isfriend":0,"isfamily":0},{"id":"52156052424","owner":"149855022@N02","secret":"875082a7b0","server":"65535","farm":66,"title":"Eye of the Salmon-Crested Cockatoo - Cacatua Moluccensis","ispublic":1,"isfriend":0,"isfamily":0},{"id":"51802576410","owner":"52413877@N02","secret":"33f5f7fa85","server":"65535","farm":66,"title":"Red-crested Cockatoo - Cacatua moluccensis","ispublic":1,"isfriend":0,"isfamily":0},{"id":"51355331141","owner":"125057668@N02","secret":"3d4dc0ff9d","server":"65535","farm":66,"title":"Cacato\u00e8s \u00e0 huppe rouge (Cacatua moluccensis)","ispublic":1,"isfriend":0,"isfamily":0},{"id":"50578524483","owner":"15523409@N05","secret":"8fc9e5f5ab","server":"65535","farm":66,"title":"Moluccan Cockatoo","ispublic":1,"isfriend":0,"isfamily":0},{"id":"50578523873","owner":"15523409@N05","secret":"511e9be209","server":"65535","farm":66,"title":"Moluccan Cockatoo [Cacatua moluccensis]","ispublic":1,"isfriend":0,"isfamily":0},{"id":"50312676177","owner":"125057668@N02","secret":"c39e8274a1","server":"65535","farm":66,"title":"Cacato\u00e8s \u00e0 huppe rouge (Cacatua moluccensis)","ispublic":1,"isfriend":0,"isfamily":0},{"id":"50284299123","owner":"163513952@N07","secret":"f41c08c39b","server":"65535","farm":66,"title":"Salmon-Crested Cockatoo (Cacatua moluccensis)  - 300820_DSF1530j","ispublic":1,"isfriend":0,"isfamily":0},{"id":"48557606991","owner":"125057668@N02","secret":"5f18979aed","server":"65535","farm":66,"title":"Cacato\u00e8s \u00e0 huppe rouge (Cacatua moluccensis)","ispublic":1,"isfriend":0,"isfamily":0},{"id":"48104045091","owner":"125057668@N02","secret":"d588236a8b","server":"65535","farm":66,"title":"Cacato\u00e8s \u00e0 huppe rouge (Cacatua moluccensis)","ispublic":1,"isfriend":0,"isfamily":0},{"id":"48104044916","owner":"125057668@N02","secret":"d5516fc332","server":"65535","farm":66,"title":"Cacato\u00e8s \u00e0 huppe rouge (Cacatua moluccensis)","ispublic":1,"isfriend":0,"isfamily":0},{"id":"33744405368","owner":"147805053@N08","secret":"43dc52d5d6","server":"65535","farm":66,"title":"Cacatua moluccensis (Orange crested cacatoo ) D87-343 Lung mycotic foci P. Zwart kopie 2","ispublic":1,"isfriend":0,"isfamily":0},{"id":"47029006822","owner":"33277678@N03","secret":"d69877290b","server":"7806","farm":8,"title":"Seram '14","ispublic":1,"isfriend":0,"isfamily":0},{"id":"46993538522","owner":"112871683@N02","secret":"77d5eb38d0","server":"7840","farm":8,"title":"Salmon-crested Cockatoo (Cacatua moluccensis)","ispublic":1,"isfriend":0,"isfamily":0},{"id":"33170083298","owner":"112871683@N02","secret":"fc03dac225","server":"7809","farm":8,"title":"Salmon-crested Cockatoo (Cacatua moluccensis)","ispublic":1,"isfriend":0,"isfamily":0},{"id":"32103630467","owner":"112871683@N02","secret":"fa94450dd3","server":"7839","farm":8,"title":"Salmon-crested Cockatoo (Cacatua moluccensis)","ispublic":1,"isfriend":0,"isfamily":0},{"id":"40080444813","owner":"112871683@N02","secret":"b775bd247f","server":"7912","farm":8,"title":"Salmon-crested Cockatoo (Cacatua moluccensis)","ispublic":1,"isfriend":0,"isfamily":0},{"id":"47045291581","owner":"112871683@N02","secret":"8b21e8cf24","server":"7922","farm":8,"title":"Salmon-crested Cockatoo (Cacatua moluccensis)","ispublic":1,"isfriend":0,"isfamily":0},{"id":"46993354282","owner":"112871683@N02","secret":"2ca2bb00e7","server":"7906","farm":8,"title":"Salmon-crested Cockatoo (Cacatua moluccensis)","ispublic":1,"isfriend":0,"isfamily":0},{"id":"40381878815","owner":"151563229@N08","secret":"548ced5baf","server":"819","farm":1,"title":"Molukkenkakadu","ispublic":1,"isfriend":0,"isfamily":0},{"id":"34697152154","owner":"51973523@N07","secret":"078ac4ae16","server":"4213","farm":5,"title":"Salmon-crested cockatoo","ispublic":1,"isfriend":0,"isfamily":0},{"id":"32851853116","owner":"11131050@N03","secret":"b8cbe6006a","server":"2470","farm":3,"title":"Salmon-Crested Cockatoo - Cacatua moluccensis","ispublic":1,"isfriend":0,"isfamily":0}]},"stat":"ok"}