{"photos":{"page":1,"pages":199,"perpage":100,"total":19813,"photo":[{"id":"52722041367","owner":"23946780@N08","secret":"e21575408b","server":"65535","farm":66,"title":"Sanderling (Calidris alba)","ispublic":1,"isfriend":0,"isfamily":0},{"id":"52720418309","owner":"12639178@N07","secret":"eb4a7e9868","server":"65535","farm":66,"title":"Sanderling auf Nahrungssuche","ispublic":1,"isfriend":0,"isfamily":0},{"id":"52716185027","owner":"12639178@N07","secret":"f6d60f2152","server":"65535","farm":66,"title":"Sanderling Eierlandse Dam 2023-0-21","ispublic":1,"isfriend":0,"isfamily":0},{"id":"52716025365","owner":"29894834@N05","secret":"f1a1a8ff37","server":"65535","farm":66,"title":"Jumping around","ispublic":1,"isfriend":0,"isfamily":0},{"id":"52715074689","owner":"195306430@N05","secret":"b9ca52cd49","server":"65535","farm":66,"title":"Becasseau sanderling (Calidris alba)","ispublic":1,"isfriend":0,"isfamily":0},{"id":"52711421267","owner":"12639178@N07","secret":"90261afdec","server":"65535","farm":66,"title":"Sanderling","ispublic":1,"isfriend":0,"isfamily":0},{"id":"52712361685","owner":"12639178@N07","secret":"62c81a70c3","server":"65535","farm":66,"title":"... mit Alpenstrandl\u00e4ufer","ispublic":1,"isfriend":0,"isfamily":0},{"id":"52712422428","owner":"12639178@N07","secret":"dc6832d3d8","server":"65535","farm":66,"title":"Sanderlinge","ispublic":1,"isfriend":0,"isfamily":0},{"id":"52709626096","owner":"34573567@N06","secret":"8144761c6e","server":"65535","farm":66,"title":"Sanderling (Calidris alba)","ispublic":1,"isfriend":0,"isfamily":0},{"id":"52708024763","owner":"62043870@N05","secret":"4108521728","server":"65535","farm":66,"title":"Sanderling, Calidris alba","ispublic":1,"isfriend":0,"isfamily":0},{"id":"52705493857","owner":"184303926@N04","secret":"6f21cdfb91","server":"65535","farm":66,"title":"Sanderling","ispublic":1,"isfriend":0,"isfamily":0},{"id":"52705897121","owner":"127588226@N08","secret":"d1a154716f","server":"65535","farm":66,"title":"K33P2735c Sanderling, Titchwell Beach, Marsh 2022","ispublic":1,"isfriend":0,"isfamily":0},{"id":"52705333616","owner":"66550674@N06","secret":"5a07836680","server":"65535","farm":66,"title":"Sanderling","ispublic":1,"isfriend":0,"isfamily":0},{"id":"52704415404","owner":"193112621@N03","secret":"8f53b58052","server":"65535","farm":66,"title":"B\u00e9casseau Sanderling- Calidris alba-Sanderling","ispublic":1,"isfriend":0,"isfamily":0},{"id":"52704054338","owner":"62043870@N05","secret":"8e899046c0","server":"65535","farm":66,"title":"Sanderlings, Calidris alba","ispublic":1,"isfriend":0,"isfamily":0},{"id":"52701717556","owner":"62043870@N05","secret":"34361e1692","server":"65535","farm":66,"title":"Sanderling, Calidris alba","ispublic":1,"isfriend":0,"isfamily":0},{"id":"52699246371","owner":"62043870@N05","secret":"92bcb6cc8c","server":"65535","farm":66,"title":"Sanderling, Calidris alba","ispublic":1,"isfriend":0,"isfamily":0},{"id":"52698950023","owner":"63644335@N08","secret":"0628f1e5e7","server":"65535","farm":66,"title":"Territ tresdits\/Correlimos trid\u00e0ctilo\/Sanderling (Calidris alba)","ispublic":1,"isfriend":0,"isfamily":0},{"id":"52695061822","owner":"62043870@N05","secret":"2e4a5b7772","server":"65535","farm":66,"title":"Sanderlings, Calidris alba","ispublic":1,"isfriend":0,"isfamily":0},{"id":"52695317450","owner":"128537732@N06","secret":"0750b4714b","server":"65535","farm":66,"title":"Sanderling (Calidris alba)","ispublic":1,"isfriend":0,"isfamily":0},{"id":"52694480199","owner":"69662958@N07","secret":"3a43e88240","server":"65535","farm":66,"title":"Drieteenstrandloper, Calidris alba, Sanderling","ispublic":1,"isfriend":0,"isfamily":0},{"id":"52693324458","owner":"51433704@N06","secret":"345f4a0a46","server":"65535","farm":66,"title":"Sanderling","ispublic":1,"isfriend":0,"isfamily":0},{"id":"52692814041","owner":"194432698@N02","secret":"df308b22a3","server":"65535","farm":66,"title":"21HAUGOrkney619","ispublic":1,"isfriend":0,"isfamily":0},{"id":"52692295082","owner":"194432698@N02","secret":"505cb2c84c","server":"65535","farm":66,"title":"21HAUGOrkney587","ispublic":1,"isfriend":0,"isfamily":0},{"id":"52692294982","owner":"194432698@N02","secret":"4dac2cc98f","server":"65535","farm":66,"title":"21HAUGOrkney588","ispublic":1,"isfriend":0,"isfamily":0},{"id":"52693224815","owner":"194432698@N02","secret":"471ba92cca","server":"65535","farm":66,"title":"21HAUGOrkney599","ispublic":1,"isfriend":0,"isfamily":0},{"id":"52692294737","owner":"194432698@N02","secret":"a8293cbfdc","server":"65535","farm":66,"title":"21HAUGOrkney605","ispublic":1,"isfriend":0,"isfamily":0},{"id":"52693224730","owner":"194432698@N02","secret":"65f379f05c","server":"65535","farm":66,"title":"21HAUGOrkney607","ispublic":1,"isfriend":0,"isfamily":0},{"id":"52692294652","owner":"194432698@N02","secret":"27fa3db39d","server":"65535","farm":66,"title":"21HAUGOrkney611","ispublic":1,"isfriend":0,"isfamily":0},{"id":"52693304113","owner":"194432698@N02","secret":"40bbae49fa","server":"65535","farm":66,"title":"21HAUGOrkney618","ispublic":1,"isfriend":0,"isfamily":0},{"id":"52692032167","owner":"149545070@N07","secret":"50c43337e3","server":"65535","farm":66,"title":"Lapwing ( Vanellus Vanellus) Sanderling (Calidris Alba)","ispublic":1,"isfriend":0,"isfamily":0},{"id":"52690671872","owner":"149730384@N06","secret":"6006b99e08","server":"65535","farm":66,"title":"Sanderling Tai Chi","ispublic":1,"isfriend":0,"isfamily":0},{"id":"52691339784","owner":"149545070@N07","secret":"d40752c29e","server":"65535","farm":66,"title":"Sanderling (Calidris Alba)","ispublic":1,"isfriend":0,"isfamily":0},{"id":"52691560618","owner":"149545070@N07","secret":"47aedbcb0f","server":"65535","farm":66,"title":"Sanderling (Calidris Alba)","ispublic":1,"isfriend":0,"isfamily":0},{"id":"52691284903","owner":"45640758@N08","secret":"29cf2e5944","server":"65535","farm":66,"title":"Sanderling (Calidris alba)","ispublic":1,"isfriend":0,"isfamily":0},{"id":"52689920852","owner":"123529713@N08","secret":"d5a865d85c","server":"65535","farm":66,"title":"Territ de tres dits - Correlimos tridactilo - Sanderling - B\u00e9casseau sanderling - Calidris alba","ispublic":1,"isfriend":0,"isfamily":0},{"id":"52690415840","owner":"164735791@N07","secret":"4a8a93e19f","server":"65535","farm":66,"title":"B\u00e9casseau sanderling Calidris alba - Sanderling","ispublic":1,"isfriend":0,"isfamily":0},{"id":"52687630184","owner":"196264892@N08","secret":"e6b9cd14bb","server":"65535","farm":66,"title":"Sanderling","ispublic":1,"isfriend":0,"isfamily":0},{"id":"52687352166","owner":"196264892@N08","secret":"917d880e94","server":"65535","farm":66,"title":"Sanderling","ispublic":1,"isfriend":0,"isfamily":0},{"id":"52687628934","owner":"196264892@N08","secret":"e1492218a7","server":"65535","farm":66,"title":"Sanderling","ispublic":1,"isfriend":0,"isfamily":0},{"id":"52686833282","owner":"196264892@N08","secret":"d6f84c9ae2","server":"65535","farm":66,"title":"Sanderling","ispublic":1,"isfriend":0,"isfamily":0},{"id":"52687628524","owner":"196264892@N08","secret":"20cc572c60","server":"65535","farm":66,"title":"Sanderling","ispublic":1,"isfriend":0,"isfamily":0},{"id":"52687774660","owner":"196264892@N08","secret":"e8021d4989","server":"65535","farm":66,"title":"Sanderling","ispublic":1,"isfriend":0,"isfamily":0},{"id":"52687349771","owner":"196264892@N08","secret":"c7632238f1","server":"65535","farm":66,"title":"Sanderling and Dunlin","ispublic":1,"isfriend":0,"isfamily":0},{"id":"52687626844","owner":"196264892@N08","secret":"b68a029261","server":"65535","farm":66,"title":"Sanderling and Dunlin","ispublic":1,"isfriend":0,"isfamily":0},{"id":"52686830837","owner":"196264892@N08","secret":"57acded544","server":"65535","farm":66,"title":"Sanderling and Dunlin","ispublic":1,"isfriend":0,"isfamily":0},{"id":"52687844943","owner":"196264892@N08","secret":"6921d79d7b","server":"65535","farm":66,"title":"Sanderling and Dunlin","ispublic":1,"isfriend":0,"isfamily":0},{"id":"52687625529","owner":"196264892@N08","secret":"316459976e","server":"65535","farm":66,"title":"Sanderling and Dunlin","ispublic":1,"isfriend":0,"isfamily":0},{"id":"52687771640","owner":"196264892@N08","secret":"d1e8d6b67d","server":"65535","farm":66,"title":"Sanderling and Dunlin","ispublic":1,"isfriend":0,"isfamily":0},{"id":"52687624284","owner":"196264892@N08","secret":"cb8026e7a9","server":"65535","farm":66,"title":"Sanderling and Dunlin","ispublic":1,"isfriend":0,"isfamily":0},{"id":"52687346276","owner":"196264892@N08","secret":"cdaa6974cb","server":"65535","farm":66,"title":"Sanderling","ispublic":1,"isfriend":0,"isfamily":0},{"id":"52687000875","owner":"130708126@N02","secret":"0be08379d2","server":"65535","farm":66,"title":"Becasseau sanderling (Calidris alba).jpg","ispublic":1,"isfriend":0,"isfamily":0},{"id":"52686723139","owner":"34368269@N04","secret":"a950d07ea5","server":"65535","farm":66,"title":"Sanderling","ispublic":1,"isfriend":0,"isfamily":0},{"id":"52685335072","owner":"62043870@N05","secret":"2fa14567bc","server":"65535","farm":66,"title":"Sanderling, Calidris alba","ispublic":1,"isfriend":0,"isfamily":0},{"id":"52685464643","owner":"188988983@N05","secret":"a1c5cd86a8","server":"65535","farm":66,"title":"B\u00e9casseau sanderling (Calidris alba)","ispublic":1,"isfriend":0,"isfamily":0},{"id":"52684075282","owner":"19538227@N00","secret":"82f2b5504b","server":"65535","farm":66,"title":"Sanderling and Turnstone","ispublic":1,"isfriend":0,"isfamily":0},{"id":"52684529450","owner":"123529713@N08","secret":"98df9a69b7","server":"65535","farm":66,"title":"Territ de tres dits - Correlimos tridactilo - Sanderling - B\u00e9casseau sanderling - Calidris alba","ispublic":1,"isfriend":0,"isfamily":0},{"id":"52684424098","owner":"165841515@N03","secret":"4832e2570f","server":"65535","farm":66,"title":"B\u00e9casseau sanderling \/ Sanderling \/ (Calidris alba)","ispublic":1,"isfriend":0,"isfamily":0},{"id":"52683410987","owner":"165841515@N03","secret":"738884a7c1","server":"65535","farm":66,"title":"B\u00e9casseau sanderling \/ Sanderling \/ (Calidris alba)","ispublic":1,"isfriend":0,"isfamily":0},{"id":"52684423773","owner":"165841515@N03","secret":"ac7e19b0bd","server":"65535","farm":66,"title":"B\u00e9casseau sanderling \/ Sanderling \/ (Calidris alba)","ispublic":1,"isfriend":0,"isfamily":0},{"id":"52682028671","owner":"123529713@N08","secret":"a4c795d4cd","server":"65535","farm":66,"title":"Territ de tres dits - Correlimos tridactilo - Sanderling - B\u00e9casseau sanderling - Calidris alba","ispublic":1,"isfriend":0,"isfamily":0},{"id":"52681796694","owner":"23711298@N07","secret":"32f0fec7da","server":"65535","farm":66,"title":"Sanderling, Florida, Collier County- Marco Island","ispublic":1,"isfriend":0,"isfamily":0},{"id":"52681944285","owner":"23711298@N07","secret":"13b45be82a","server":"65535","farm":66,"title":"Sanderling, Florida, Collier County- Marco Island","ispublic":1,"isfriend":0,"isfamily":0},{"id":"52681335821","owner":"151677249@N08","secret":"b98457920e","server":"65535","farm":66,"title":"Sanderling (Calidris alba)","ispublic":1,"isfriend":0,"isfamily":0},{"id":"52679505023","owner":"63223331@N05","secret":"cf7da67286","server":"65535","farm":66,"title":"Sanderling (Calidris alba)","ispublic":1,"isfriend":0,"isfamily":0},{"id":"52678496207","owner":"63223331@N05","secret":"96735c31de","server":"65535","farm":66,"title":"Sanderling (Calidris alba)","ispublic":1,"isfriend":0,"isfamily":0},{"id":"52679504293","owner":"63223331@N05","secret":"bcb7e1464f","server":"65535","farm":66,"title":"Sanderling (Calidris alba)","ispublic":1,"isfriend":0,"isfamily":0},{"id":"52680101056","owner":"193264646@N06","secret":"fc34bd5d5c","server":"65535","farm":66,"title":"Sanderling","ispublic":1,"isfriend":0,"isfamily":0},{"id":"52680100401","owner":"193264646@N06","secret":"fbd2d12dbb","server":"65535","farm":66,"title":"Sanderling","ispublic":1,"isfriend":0,"isfamily":0},{"id":"52679183224","owner":"47533293@N04","secret":"8d7037b3ab","server":"65535","farm":66,"title":"Sanderling, Calidris alba","ispublic":1,"isfriend":0,"isfamily":0},{"id":"52679251195","owner":"87356108@N05","secret":"dc2b85ce6e","server":"65535","farm":66,"title":"CORRELIMOS TRIDACTILO (Calidris alba)","ispublic":1,"isfriend":0,"isfamily":0},{"id":"52678056282","owner":"12639178@N07","secret":"445aacdd9d","server":"65535","farm":66,"title":"Kleiner Strandflitzer","ispublic":1,"isfriend":0,"isfamily":0},{"id":"52678045607","owner":"129803374@N05","secret":"6908167ba9","server":"65535","farm":66,"title":"Sanderling (Calidris alba)","ispublic":1,"isfriend":0,"isfamily":0},{"id":"52676917052","owner":"27586264@N06","secret":"e596c4c0a6","server":"65535","farm":66,"title":"_2TX2074 B","ispublic":1,"isfriend":0,"isfamily":0},{"id":"52677773158","owner":"197653711@N02","secret":"0d5aff8e51","server":"65535","farm":66,"title":"correlimos trid\u00e1ctilo o playerito blanco \/ The sanderling (Calidris alba)","ispublic":1,"isfriend":0,"isfamily":0},{"id":"52677164449","owner":"145489125@N03","secret":"193782b7f3","server":"65535","farm":66,"title":"Sanderling ( Calidris alba ) ad.winter ... Redcar Rocks , Yorkshire","ispublic":1,"isfriend":0,"isfamily":0},{"id":"52677368843","owner":"145489125@N03","secret":"5b9f75874b","server":"65535","farm":66,"title":"Sanderling ( Calidris alba ) ad.winter ... Redcar Rocks , Yorkshire","ispublic":1,"isfriend":0,"isfamily":0},{"id":"52677356123","owner":"188559988@N06","secret":"35fe8d7201","server":"65535","farm":66,"title":"vol B\u00e9casseaux sanderling","ispublic":1,"isfriend":0,"isfamily":0},{"id":"52676864056","owner":"188559988@N06","secret":"5c40a514e2","server":"65535","farm":66,"title":"vol B\u00e9casseaux sanderling","ispublic":1,"isfriend":0,"isfamily":0},{"id":"52677295055","owner":"188559988@N06","secret":"e23161359a","server":"65535","farm":66,"title":"vol B\u00e9casseaux sanderling","ispublic":1,"isfriend":0,"isfamily":0},{"id":"52676351652","owner":"188559988@N06","secret":"4c180bc996","server":"65535","farm":66,"title":"vol B\u00e9casseaux sanderling","ispublic":1,"isfriend":0,"isfamily":0},{"id":"52676351552","owner":"188559988@N06","secret":"720d3ec359","server":"65535","farm":66,"title":"vol B\u00e9casseaux sanderling","ispublic":1,"isfriend":0,"isfamily":0},{"id":"52674917389","owner":"123529713@N08","secret":"c1bdb575d6","server":"65535","farm":66,"title":"Territ de tres dits - Correlimos tridactilo - Sanderling - B\u00e9casseau sanderling - Calidris alba","ispublic":1,"isfriend":0,"isfamily":0},{"id":"52674840918","owner":"61485851@N06","secret":"f5c353c528","server":"65535","farm":66,"title":"Sanderling","ispublic":1,"isfriend":0,"isfamily":0},{"id":"52701249776","owner":"12639178@N07","secret":"8a68a7c49a","server":"65535","farm":66,"title":"Sanderling (Calidris alba) (1)","ispublic":1,"isfriend":0,"isfamily":0},{"id":"52699424913","owner":"12639178@N07","secret":"3c74447fa3","server":"65535","farm":66,"title":"Calidris alba, Sanderling,dj.","ispublic":1,"isfriend":0,"isfamily":0},{"id":"52698929656","owner":"12639178@N07","secret":"360e583f3d","server":"65535","farm":66,"title":"Calidris alba, Sanderling,dj.","ispublic":1,"isfriend":0,"isfamily":0},{"id":"52699423508","owner":"12639178@N07","secret":"2205d89c9d","server":"65535","farm":66,"title":"Calidris alba, Sanderling,dj.","ispublic":1,"isfriend":0,"isfamily":0},{"id":"52699423263","owner":"12639178@N07","secret":"cb0c8d24fd","server":"65535","farm":66,"title":"Calidris alba, Sanderling,dj.","ispublic":1,"isfriend":0,"isfamily":0},{"id":"52698411337","owner":"12639178@N07","secret":"cb09e918a8","server":"65535","farm":66,"title":"Calidris alba, Sanderling,dj.","ispublic":1,"isfriend":0,"isfamily":0},{"id":"52698031461","owner":"197745515@N06","secret":"ffdbc3821a","server":"65535","farm":66,"title":"Calidris alba","ispublic":1,"isfriend":0,"isfamily":0},{"id":"52697476952","owner":"12639178@N07","secret":"dc6aede6af","server":"65535","farm":66,"title":"Sanderling","ispublic":1,"isfriend":0,"isfamily":0},{"id":"52696943094","owner":"12639178@N07","secret":"ce37ef1ea8","server":"65535","farm":66,"title":"Calidris alba, Sanderling,dj.","ispublic":1,"isfriend":0,"isfamily":0},{"id":"52697170638","owner":"12639178@N07","secret":"9dec3f3636","server":"65535","farm":66,"title":"Calidris alba, Sanderling,dj.","ispublic":1,"isfriend":0,"isfamily":0},{"id":"52688636875","owner":"193728923@N07","secret":"1d6f90136f","server":"65535","farm":66,"title":"B\u00e9casseau sanderling (Calidris alba)","ispublic":1,"isfriend":0,"isfamily":0},{"id":"52673706546","owner":"47078197@N04","secret":"fe35ca95ee","server":"65535","farm":66,"title":"Calidris alba (Sanderling)","ispublic":1,"isfriend":0,"isfamily":0},{"id":"52673996744","owner":"47078197@N04","secret":"73a80a9751","server":"65535","farm":66,"title":"Calidris alba (Sanderling)","ispublic":1,"isfriend":0,"isfamily":0},{"id":"52679498321","owner":"79722430@N04","secret":"7997c348e5","server":"65535","farm":66,"title":"Sanderling (Calidris alba)","ispublic":1,"isfriend":0,"isfamily":0},{"id":"52679995868","owner":"79722430@N04","secret":"9d137a28d5","server":"65535","farm":66,"title":"Sanderling (Calidris alba)","ispublic":1,"isfriend":0,"isfamily":0},{"id":"52679934805","owner":"79722430@N04","secret":"cbaa611c82","server":"65535","farm":66,"title":"Sanderling (Calidris alba)","ispublic":1,"isfriend":0,"isfamily":0}]},"stat":"ok"}