{"photos":{"page":1,"pages":38,"perpage":100,"total":3737,"photo":[{"id":"52721453732","owner":"25899079@N08","secret":"7d5320b2c9","server":"65535","farm":66,"title":"Sandhill Crane (8878)","ispublic":1,"isfriend":0,"isfamily":0},{"id":"52718870912","owner":"39456348@N08","secret":"92616f1791","server":"65535","farm":66,"title":"My first sandhill cranes of 2023","ispublic":1,"isfriend":0,"isfamily":0},{"id":"52717792094","owner":"18158503@N00","secret":"36173c2ba5","server":"65535","farm":66,"title":"Sandhill Cranes","ispublic":1,"isfriend":0,"isfamily":0},{"id":"52715342432","owner":"79791557@N02","secret":"9964046b97","server":"65535","farm":66,"title":"Sandhill Crane (Antigone canadensis)","ispublic":1,"isfriend":0,"isfamily":0},{"id":"52716120594","owner":"79791557@N02","secret":"771659ece8","server":"65535","farm":66,"title":"Sandhill Crane (Antigone canadensis)","ispublic":1,"isfriend":0,"isfamily":0},{"id":"52715859086","owner":"79791557@N02","secret":"176b3717fb","server":"65535","farm":66,"title":"Sandhill Crane (Antigone canadensis)","ispublic":1,"isfriend":0,"isfamily":0},{"id":"52716339578","owner":"79791557@N02","secret":"eee39252f1","server":"65535","farm":66,"title":"Sandhill Crane (Antigone canadensis)","ispublic":1,"isfriend":0,"isfamily":0},{"id":"52713823518","owner":"41315423@N00","secret":"1c03691492","server":"65535","farm":66,"title":"Sandhill Crane Enjoying Our Birdbath","ispublic":1,"isfriend":0,"isfamily":0},{"id":"52713367304","owner":"38514062@N03","secret":"7c3d974272","server":"65535","farm":66,"title":"Sandhill Crane (Antigone canadensis)","ispublic":1,"isfriend":0,"isfamily":0},{"id":"52710714176","owner":"47533293@N04","secret":"26b5a6f9cb","server":"65535","farm":66,"title":"Sandhill Crane, Antigone canadensis","ispublic":1,"isfriend":0,"isfamily":0},{"id":"52710191357","owner":"47533293@N04","secret":"9e6a844e6a","server":"65535","farm":66,"title":"Sandhill Cranes, Antigone canadensis","ispublic":1,"isfriend":0,"isfamily":0},{"id":"52708952891","owner":"61396634@N07","secret":"3c34dd8b55","server":"65535","farm":66,"title":"Sandhill Crane","ispublic":1,"isfriend":0,"isfamily":0},{"id":"52709435548","owner":"61396634@N07","secret":"e15513fc0a","server":"65535","farm":66,"title":"Sandhill Crane","ispublic":1,"isfriend":0,"isfamily":0},{"id":"52708675465","owner":"36142084@N05","secret":"29f9a61de2","server":"65535","farm":66,"title":"R5_008637","ispublic":1,"isfriend":0,"isfamily":0},{"id":"52707740037","owner":"36142084@N05","secret":"64fcd084e5","server":"65535","farm":66,"title":"R5_008005","ispublic":1,"isfriend":0,"isfamily":0},{"id":"52708675405","owner":"36142084@N05","secret":"2355dcd70e","server":"65535","farm":66,"title":"R5_008552","ispublic":1,"isfriend":0,"isfamily":0},{"id":"52708675380","owner":"36142084@N05","secret":"61b7d423bb","server":"65535","farm":66,"title":"R5_008614","ispublic":1,"isfriend":0,"isfamily":0},{"id":"52707675727","owner":"187996196@N05","secret":"b539bf57ed","server":"65535","farm":66,"title":"Kanadakranich \/ Sandhill crane \/ Antigone canadensis","ispublic":1,"isfriend":0,"isfamily":0},{"id":"52707410726","owner":"61396634@N07","secret":"07711fc325","server":"65535","farm":66,"title":"Sandhill Cranes","ispublic":1,"isfriend":0,"isfamily":0},{"id":"52707659654","owner":"61396634@N07","secret":"e91527b029","server":"65535","farm":66,"title":"Cranes","ispublic":1,"isfriend":0,"isfamily":0},{"id":"52707659609","owner":"61396634@N07","secret":"3af90c2846","server":"65535","farm":66,"title":"Cranes","ispublic":1,"isfriend":0,"isfamily":0},{"id":"52706604920","owner":"38514062@N03","secret":"03e9d92d42","server":"65535","farm":66,"title":"Sandhill Crane (Antigone canadensis)","ispublic":1,"isfriend":0,"isfamily":0},{"id":"52704042765","owner":"188214336@N08","secret":"ca5e40a840","server":"65535","farm":66,"title":"DSC_4147-2R1 Sandhill Cranes","ispublic":1,"isfriend":0,"isfamily":0},{"id":"52700107830","owner":"12530381@N07","secret":"30b0ae2a7d","server":"65535","farm":66,"title":"Lesser Sandhill Cranes (Antigone canadensis canadensis) at Merced National Wildlife Refuge (2\/11\/2023)","ispublic":1,"isfriend":0,"isfamily":0},{"id":"52700476705","owner":"76782619@N04","secret":"73318c743b","server":"65535","farm":66,"title":"Mr. and Mrs. Sandhill Crane","ispublic":1,"isfriend":0,"isfamily":0},{"id":"52697389350","owner":"90355165@N03","secret":"59daf0c87e","server":"65535","farm":66,"title":"sandhill crane","ispublic":1,"isfriend":0,"isfamily":0},{"id":"52697389320","owner":"90355165@N03","secret":"3fa13f71af","server":"65535","farm":66,"title":"sandhill crane","ispublic":1,"isfriend":0,"isfamily":0},{"id":"52696250315","owner":"91064752@N03","secret":"bb2b11788c","server":"65535","farm":66,"title":"Sandhill Crane on a Snowy Winter Flight","ispublic":1,"isfriend":0,"isfamily":0},{"id":"52692507857","owner":"34368269@N04","secret":"46a36bcd05","server":"65535","farm":66,"title":"Sandhill Cranes","ispublic":1,"isfriend":0,"isfamily":0},{"id":"52690996393","owner":"34368269@N04","secret":"8051233532","server":"65535","farm":66,"title":"Sandhill Cranes","ispublic":1,"isfriend":0,"isfamily":0},{"id":"52686369385","owner":"145287509@N03","secret":"fe4ae88cbe","server":"65535","farm":66,"title":"The Great Fly-in","ispublic":1,"isfriend":0,"isfamily":0},{"id":"52686120853","owner":"61241315@N00","secret":"b72c9481e9","server":"0","farm":0,"title":"Sandhill Crane_7862","ispublic":1,"isfriend":0,"isfamily":0},{"id":"52686115223","owner":"61241315@N00","secret":"9813ce660f","server":"0","farm":0,"title":"Sandhill Crane_7941.MP4","ispublic":1,"isfriend":0,"isfamily":0},{"id":"52686119638","owner":"61241315@N00","secret":"0dc73ce694","server":"0","farm":0,"title":"Sandhill Crane_7871.MP4","ispublic":1,"isfriend":0,"isfamily":0},{"id":"52685902679","owner":"61241315@N00","secret":"b39c90d0f0","server":"0","farm":0,"title":"Sandhill Crane_7882.MP4","ispublic":1,"isfriend":0,"isfamily":0},{"id":"52685610916","owner":"61241315@N00","secret":"123ec3b3e9","server":"65535","farm":66,"title":"Sandhill Crane_N7855","ispublic":1,"isfriend":0,"isfamily":0},{"id":"52685097172","owner":"61241315@N00","secret":"c4b1b1e7e0","server":"65535","farm":66,"title":"Sandhill Crane_N7857","ispublic":1,"isfriend":0,"isfamily":0},{"id":"52686109638","owner":"61241315@N00","secret":"2a2f26e472","server":"65535","farm":66,"title":"Sandhill Crane_N7894","ispublic":1,"isfriend":0,"isfamily":0},{"id":"52686109653","owner":"61241315@N00","secret":"576db79b20","server":"65535","farm":66,"title":"Sandhill Crane_N7879","ispublic":1,"isfriend":0,"isfamily":0},{"id":"52685893509","owner":"61241315@N00","secret":"5b775606f2","server":"65535","farm":66,"title":"Sandhill Crane_N7869","ispublic":1,"isfriend":0,"isfamily":0},{"id":"52686109623","owner":"61241315@N00","secret":"7e81d725a8","server":"65535","farm":66,"title":"Sandhill Crane_N7940","ispublic":1,"isfriend":0,"isfamily":0},{"id":"52686036695","owner":"61241315@N00","secret":"9a9af9791c","server":"65535","farm":66,"title":"Sandhill Crane_N7944","ispublic":1,"isfriend":0,"isfamily":0},{"id":"52684726063","owner":"54683012@N04","secret":"5109959352","server":"65535","farm":66,"title":"Protect those extremities","ispublic":1,"isfriend":0,"isfamily":0},{"id":"52683848143","owner":"40784173@N06","secret":"ee85713545","server":"65535","farm":66,"title":"Three's Company","ispublic":1,"isfriend":0,"isfamily":0},{"id":"52679864305","owner":"93984873@N00","secret":"53026e9a04","server":"65535","farm":66,"title":"A Gathering of Cranes","ispublic":1,"isfriend":0,"isfamily":0},{"id":"52678848164","owner":"38514062@N03","secret":"a4670146d0","server":"65535","farm":66,"title":"Sandhill Crane (Antigone canadensis) on nest","ispublic":1,"isfriend":0,"isfamily":0},{"id":"52676011361","owner":"48793602@N07","secret":"fabc9bec13","server":"65535","farm":66,"title":"Circle B Bar Reserve Sandhill Crane 01-17-2023","ispublic":1,"isfriend":0,"isfamily":0},{"id":"52673893720","owner":"8904060@N06","secret":"a6da00d3a0","server":"65535","farm":66,"title":"Synchronized Landing","ispublic":1,"isfriend":0,"isfamily":0},{"id":"52668037170","owner":"41710899@N08","secret":"4b056ea96b","server":"65535","farm":66,"title":"Sandhill Cranes, Muscatatuck National Wildlife Refuge","ispublic":1,"isfriend":0,"isfamily":0},{"id":"52668103868","owner":"41710899@N08","secret":"69933eecfa","server":"65535","farm":66,"title":"Sandhill Cranes, Muscatatuck National Wildlife Refuge","ispublic":1,"isfriend":0,"isfamily":0},{"id":"52667446081","owner":"38514062@N03","secret":"5167ce141f","server":"65535","farm":66,"title":"Sandhill Crane (Antigone canadensis) on nest","ispublic":1,"isfriend":0,"isfamily":0},{"id":"52667618243","owner":"41710899@N08","secret":"3cb5b60ff4","server":"65535","farm":66,"title":"Sandhill Cranes, Muscatatuck National Wildlife Refuge","ispublic":1,"isfriend":0,"isfamily":0},{"id":"52667551580","owner":"41710899@N08","secret":"5b33d74c1d","server":"65535","farm":66,"title":"Sandhill Cranes, Muscatatuck National Wildlife Refuge","ispublic":1,"isfriend":0,"isfamily":0},{"id":"52667255710","owner":"8904060@N06","secret":"d22d4aa313","server":"65535","farm":66,"title":"Solo","ispublic":1,"isfriend":0,"isfamily":0},{"id":"52667177658","owner":"8904060@N06","secret":"7d8cedb99c","server":"65535","farm":66,"title":"Tight Formation","ispublic":1,"isfriend":0,"isfamily":0},{"id":"52666914600","owner":"41658249@N02","secret":"486e7b353a","server":"65535","farm":66,"title":"Sandhill Crane","ispublic":1,"isfriend":0,"isfamily":0},{"id":"52666914585","owner":"41658249@N02","secret":"ff8fb05fdc","server":"65535","farm":66,"title":"Sandhill Crane","ispublic":1,"isfriend":0,"isfamily":0},{"id":"52665984722","owner":"41658249@N02","secret":"9327ea126a","server":"65535","farm":66,"title":"Sandhill Crane","ispublic":1,"isfriend":0,"isfamily":0},{"id":"52666979498","owner":"41658249@N02","secret":"02ba6a020f","server":"65535","farm":66,"title":"Sandhill Crane","ispublic":1,"isfriend":0,"isfamily":0},{"id":"52664637897","owner":"86191812@N07","secret":"133afea5b0","server":"65535","farm":66,"title":"Crane Calisthenics","ispublic":1,"isfriend":0,"isfamily":0},{"id":"52661717356","owner":"40784173@N06","secret":"c80dfb312e","server":"65535","farm":66,"title":"Greeting the Morning Sun","ispublic":1,"isfriend":0,"isfamily":0},{"id":"52660288663","owner":"16943730@N00","secret":"12ec1ac7bc","server":"65535","farm":66,"title":"A wedge of sandhill cranes","ispublic":1,"isfriend":0,"isfamily":0},{"id":"52659788344","owner":"131779834@N08","secret":"b84a31f5e3","server":"65535","farm":66,"title":"Solitary Crane","ispublic":1,"isfriend":0,"isfamily":0},{"id":"52654485109","owner":"41710899@N08","secret":"68053b23e4","server":"65535","farm":66,"title":"Sandhill Cranes","ispublic":1,"isfriend":0,"isfamily":0},{"id":"52654210721","owner":"41710899@N08","secret":"3206ff46bd","server":"65535","farm":66,"title":"Sandhill Cranes","ispublic":1,"isfriend":0,"isfamily":0},{"id":"52653716547","owner":"41710899@N08","secret":"4b1e23180b","server":"65535","farm":66,"title":"Sandhill Cranes","ispublic":1,"isfriend":0,"isfamily":0},{"id":"52654602295","owner":"182515684@N02","secret":"69a1b9949c","server":"65535","farm":66,"title":"Cranes In Flight, #1 of 4 \u2026 OM4544-316","ispublic":1,"isfriend":0,"isfamily":0},{"id":"52654440139","owner":"182515684@N02","secret":"81aa661a9e","server":"65535","farm":66,"title":"Cranes In Flight, #2 of 4 \u2026 OM4609-316","ispublic":1,"isfriend":0,"isfamily":0},{"id":"52653672037","owner":"182515684@N02","secret":"0f910c00ae","server":"65535","farm":66,"title":"Cranes In Flight, #3 of 4 \u2026 OM6735-203","ispublic":1,"isfriend":0,"isfamily":0},{"id":"52654600985","owner":"182515684@N02","secret":"2e18f9a354","server":"65535","farm":66,"title":"Cranes In Flight, #4 of 4 \u2026 OM4671-316","ispublic":1,"isfriend":0,"isfamily":0},{"id":"52646179352","owner":"185659367@N04","secret":"325bcb0f84","server":"65535","farm":66,"title":"Sandhill Cranes","ispublic":1,"isfriend":0,"isfamily":0},{"id":"52644797082","owner":"40784173@N06","secret":"697d6cc1fd","server":"65535","farm":66,"title":"Flight at Sunset","ispublic":1,"isfriend":0,"isfamily":0},{"id":"52645422038","owner":"61241315@N00","secret":"a05f49e342","server":"0","farm":0,"title":"Sandhill Crane_5956.MP4","ispublic":1,"isfriend":0,"isfamily":0},{"id":"52645393205","owner":"61241315@N00","secret":"32c4dfec9b","server":"0","farm":0,"title":"Sandhill Crane_5919 COMPLETE.MP4","ispublic":1,"isfriend":0,"isfamily":0},{"id":"52644442527","owner":"61241315@N00","secret":"ab38383334","server":"0","farm":0,"title":"Sandhill Crane_5949.MP4","ispublic":1,"isfriend":0,"isfamily":0},{"id":"52645427628","owner":"61241315@N00","secret":"fde440e18b","server":"0","farm":0,"title":"Sandhill Crane_5920.MP4","ispublic":1,"isfriend":0,"isfamily":0},{"id":"52645202679","owner":"61241315@N00","secret":"40683316d5","server":"0","farm":0,"title":"Sandhill Crane_5960 COMPLETE.MP4","ispublic":1,"isfriend":0,"isfamily":0},{"id":"52645391115","owner":"61241315@N00","secret":"5867d900ce","server":"0","farm":0,"title":"Sandhill Crane_5948.MP4","ispublic":1,"isfriend":0,"isfamily":0},{"id":"52644948506","owner":"61241315@N00","secret":"a0a1d2369a","server":"0","farm":0,"title":"Sandhill Crane_5958 COMPLETE.MP4","ispublic":1,"isfriend":0,"isfamily":0},{"id":"52645205584","owner":"61241315@N00","secret":"5a28bfb739","server":"0","farm":0,"title":"Sandhill Crane_5954.MP4","ispublic":1,"isfriend":0,"isfamily":0},{"id":"52645210354","owner":"61241315@N00","secret":"004e516f87","server":"65535","farm":66,"title":"Sandhill Crane_N5906","ispublic":1,"isfriend":0,"isfamily":0},{"id":"52645393270","owner":"61241315@N00","secret":"f8ba2c17e5","server":"65535","farm":66,"title":"Sandhill Crane_N5953","ispublic":1,"isfriend":0,"isfamily":0},{"id":"52645393215","owner":"61241315@N00","secret":"e0989d8f13","server":"65535","farm":66,"title":"Sandhill Crane_N5970","ispublic":1,"isfriend":0,"isfamily":0},{"id":"52644122639","owner":"49246330@N00","secret":"98cdf62e57","server":"65535","farm":66,"title":"Lesser Sandhill Crane","ispublic":1,"isfriend":0,"isfamily":0},{"id":"52642272085","owner":"61241315@N00","secret":"0d4544ee92","server":"0","farm":0,"title":"Sandhill Crane_5813.MP4","ispublic":1,"isfriend":0,"isfamily":0},{"id":"52642093749","owner":"61241315@N00","secret":"06d5b750fc","server":"0","farm":0,"title":"Sandhill Crane_5812.MP4","ispublic":1,"isfriend":0,"isfamily":0},{"id":"52642095499","owner":"61241315@N00","secret":"7f57447fc6","server":"0","farm":0,"title":"Sandhill Crane_5808.MP4","ispublic":1,"isfriend":0,"isfamily":0},{"id":"52642269830","owner":"61241315@N00","secret":"121ed87645","server":"0","farm":0,"title":"Sandhill Crane_5824.MP4","ispublic":1,"isfriend":0,"isfamily":0},{"id":"52641832666","owner":"61241315@N00","secret":"ed4a9e96ac","server":"0","farm":0,"title":"Sandhill Crane_5831.MP4","ispublic":1,"isfriend":0,"isfamily":0},{"id":"52642313563","owner":"61241315@N00","secret":"dc73c60fb3","server":"65535","farm":66,"title":"Sandhill Crane_N5826","ispublic":1,"isfriend":0,"isfamily":0},{"id":"52642095669","owner":"61241315@N00","secret":"4ff1fa3505","server":"65535","farm":66,"title":"Sandhill Crane_N5828","ispublic":1,"isfriend":0,"isfamily":0},{"id":"52711197058","owner":"47533293@N04","secret":"0b258383bc","server":"65535","farm":66,"title":"Sandhill Cranes, Antigone canadensis","ispublic":1,"isfriend":0,"isfamily":0},{"id":"52710973174","owner":"47533293@N04","secret":"9109903a0c","server":"65535","farm":66,"title":"Sandhill Cranes, Antigone canadensis","ispublic":1,"isfriend":0,"isfamily":0},{"id":"52708269816","owner":"36142084@N05","secret":"e28e6efd8f","server":"65535","farm":66,"title":"R5_008479","ispublic":1,"isfriend":0,"isfamily":0},{"id":"52708675440","owner":"36142084@N05","secret":"c38c412312","server":"65535","farm":66,"title":"R5_008386","ispublic":1,"isfriend":0,"isfamily":0},{"id":"52708262046","owner":"36142084@N05","secret":"66d34a8a3f","server":"65535","farm":66,"title":"R5_008387","ispublic":1,"isfriend":0,"isfamily":0},{"id":"52708747033","owner":"36142084@N05","secret":"a8dde18a13","server":"65535","farm":66,"title":"R5_008555","ispublic":1,"isfriend":0,"isfamily":0},{"id":"52678922591","owner":"47533293@N04","secret":"3ceefba605","server":"65535","farm":66,"title":"Sandhill cranes, Antigone canadensis","ispublic":1,"isfriend":0,"isfamily":0},{"id":"52645199684","owner":"61241315@N00","secret":"a2d7c8fcfa","server":"0","farm":0,"title":"Sandhill Crane_5966 COMPLETE.MP4","ispublic":1,"isfriend":0,"isfamily":0},{"id":"52641841551","owner":"61241315@N00","secret":"afb7463685","server":"65535","farm":66,"title":"Sandhill Crane_N5833","ispublic":1,"isfriend":0,"isfamily":0}]},"stat":"ok"}