{"photos":{"page":1,"pages":67,"perpage":100,"total":6683,"photo":[{"id":"52716517524","owner":"135315828@N06","secret":"4633afb9e3","server":"65535","farm":66,"title":"savannah sparrow (ipswich)","ispublic":1,"isfriend":0,"isfamily":0},{"id":"52715735977","owner":"135315828@N06","secret":"78cfd0de1c","server":"65535","farm":66,"title":"savannah sparrow (ipswich)","ispublic":1,"isfriend":0,"isfamily":0},{"id":"52716740148","owner":"135315828@N06","secret":"93aa10a06d","server":"65535","farm":66,"title":"savannah sparrow (ipswich)","ispublic":1,"isfriend":0,"isfamily":0},{"id":"52716740133","owner":"135315828@N06","secret":"5423e0cd0c","server":"65535","farm":66,"title":"savannah sparrow (ipswich)","ispublic":1,"isfriend":0,"isfamily":0},{"id":"52715735937","owner":"135315828@N06","secret":"e6daebb5b1","server":"65535","farm":66,"title":"savannah sparrow (ipswich)","ispublic":1,"isfriend":0,"isfamily":0},{"id":"52716739103","owner":"135315828@N06","secret":"d6e7deb21f","server":"65535","farm":66,"title":"savannah sparrow (ipswich)","ispublic":1,"isfriend":0,"isfamily":0},{"id":"52716605918","owner":"26520320@N03","secret":"57615458fa","server":"65535","farm":66,"title":"_BAP0312","ispublic":1,"isfriend":0,"isfamily":0},{"id":"52714331579","owner":"123979267@N05","secret":"1a6c382a27","server":"65535","farm":66,"title":"Savannah Sparrow","ispublic":1,"isfriend":0,"isfamily":0},{"id":"52712037343","owner":"33610210@N05","secret":"ff31cc2d79","server":"65535","farm":66,"title":"Vesper Sparrow, Passerculus sandwichensis","ispublic":1,"isfriend":0,"isfamily":0},{"id":"52706030410","owner":"33610210@N05","secret":"e030bd1fc9","server":"65535","farm":66,"title":"Savannah Sparrow, Passerculus sandwichensis","ispublic":1,"isfriend":0,"isfamily":0},{"id":"52705648093","owner":"68635735@N02","secret":"0a46a4e689","server":"65535","farm":66,"title":"Savannah Sparrow (Passerculus sandwichensis)","ispublic":1,"isfriend":0,"isfamily":0},{"id":"52699756031","owner":"103722035@N06","secret":"6490f67cce","server":"0","farm":0,"title":"Savannah Sparrow (Passerculus sandwichensis), Shandon, CA","ispublic":1,"isfriend":0,"isfamily":0},{"id":"52694491561","owner":"39177293@N03","secret":"37165e4174","server":"65535","farm":66,"title":"Savannah Sparrow","ispublic":1,"isfriend":0,"isfamily":0},{"id":"52692024832","owner":"38514062@N03","secret":"48a007f30c","server":"65535","farm":66,"title":"Savannah Sparrow (Passerculus sandwichensis)","ispublic":1,"isfriend":0,"isfamily":0},{"id":"52691104457","owner":"33610210@N05","secret":"a7e2e7e17e","server":"65535","farm":66,"title":"Savannah Sparrow, Passerculus sandwichensis","ispublic":1,"isfriend":0,"isfamily":0},{"id":"52691624031","owner":"33610210@N05","secret":"208a5fed5a","server":"65535","farm":66,"title":"Savannah Sparrow, Passerculus sandwichensis","ispublic":1,"isfriend":0,"isfamily":0},{"id":"52691893019","owner":"33610210@N05","secret":"6875c23cfd","server":"65535","farm":66,"title":"Savannah Sparrow, Passerculus sandwichensis","ispublic":1,"isfriend":0,"isfamily":0},{"id":"52691893039","owner":"33610210@N05","secret":"d043b5a225","server":"65535","farm":66,"title":"Savannah Sparrow, Passerculus sandwichensis","ispublic":1,"isfriend":0,"isfamily":0},{"id":"52692039575","owner":"33610210@N05","secret":"cba7bac794","server":"65535","farm":66,"title":"Savannah Sparrow, Passerculus sandwichensis","ispublic":1,"isfriend":0,"isfamily":0},{"id":"52692111808","owner":"33610210@N05","secret":"2b8b55c712","server":"65535","farm":66,"title":"Savannah Sparrow, Passerculus sandwichensis","ispublic":1,"isfriend":0,"isfamily":0},{"id":"52690381820","owner":"131779834@N08","secret":"2eb33b508a","server":"65535","farm":66,"title":"Sloped Perch","ispublic":1,"isfriend":0,"isfamily":0},{"id":"52680845461","owner":"8654297@N06","secret":"361308c343","server":"65535","farm":66,"title":"Sunny Savannah sparrow","ispublic":1,"isfriend":0,"isfamily":0},{"id":"52667905759","owner":"33610210@N05","secret":"ffa117e2ed","server":"65535","farm":66,"title":"Savannah Sparrow, Passerculus sandwichensis","ispublic":1,"isfriend":0,"isfamily":0},{"id":"52668119878","owner":"33610210@N05","secret":"c0c7ac7167","server":"65535","farm":66,"title":"Savannah Sparrow, Passerculus sandwichensis","ispublic":1,"isfriend":0,"isfamily":0},{"id":"52668053060","owner":"33610210@N05","secret":"c9d9226198","server":"65535","farm":66,"title":"Savannah Sparrow, Passerculus sandwichensis","ispublic":1,"isfriend":0,"isfamily":0},{"id":"52667615386","owner":"33610210@N05","secret":"201622960c","server":"65535","farm":66,"title":"Savannah Sparrow, Passerculus sandwichensis","ispublic":1,"isfriend":0,"isfamily":0},{"id":"52667116732","owner":"33610210@N05","secret":"40b7be3e01","server":"65535","farm":66,"title":"Savannah Sparrow, Passerculus sandwichensis","ispublic":1,"isfriend":0,"isfamily":0},{"id":"52667795944","owner":"22163926@N05","secret":"c03f9323c2","server":"65535","farm":66,"title":"Shy Peasant","ispublic":1,"isfriend":0,"isfamily":0},{"id":"52666950177","owner":"38514062@N03","secret":"a82d7246f0","server":"65535","farm":66,"title":"Savannah Sparrow (Passerculus sandwichensis)","ispublic":1,"isfriend":0,"isfamily":0},{"id":"52664495548","owner":"33610210@N05","secret":"6732f5f1d7","server":"65535","farm":66,"title":"Savannah Sparrow, Passerculus sandwichensis","ispublic":1,"isfriend":0,"isfamily":0},{"id":"52664289449","owner":"33610210@N05","secret":"43d6068773","server":"65535","farm":66,"title":"Savannah Sparrow, Passerculus sandwichensis","ispublic":1,"isfriend":0,"isfamily":0},{"id":"52664416150","owner":"33610210@N05","secret":"d530ff977e","server":"65535","farm":66,"title":"Savannah Sparrow, Passerculus sandwichensis","ispublic":1,"isfriend":0,"isfamily":0},{"id":"52662212574","owner":"33610210@N05","secret":"5ea5340b92","server":"65535","farm":66,"title":"Savannah Sparrow, Passerculus sandwichensis","ispublic":1,"isfriend":0,"isfamily":0},{"id":"52653970253","owner":"103722035@N06","secret":"1518991661","server":"0","farm":0,"title":"Vesper Sparrow (Pooecetes gramineus) & Savannah Sparrow (Passerculus sandwichensis), Shandon, CA","ispublic":1,"isfriend":0,"isfamily":0},{"id":"52647958738","owner":"128537732@N06","secret":"b826455c1b","server":"65535","farm":66,"title":"Ipswich Savannah Sparrow (Passerculus sandwichensis princeps)","ispublic":1,"isfriend":0,"isfamily":0},{"id":"52646973277","owner":"128537732@N06","secret":"ea812f60f0","server":"65535","farm":66,"title":"Ipswich Savannah Sparrow (Passerculus sandwichensis princeps)","ispublic":1,"isfriend":0,"isfamily":0},{"id":"52644509939","owner":"25501001@N08","secret":"56117e30bc","server":"65535","farm":66,"title":"Large-billed Savannah Sparrow","ispublic":1,"isfriend":0,"isfamily":0},{"id":"52644253246","owner":"25501001@N08","secret":"d2ed35fd5c","server":"65535","farm":66,"title":"Large-billed Savannah Sparrow","ispublic":1,"isfriend":0,"isfamily":0},{"id":"52644508104","owner":"25501001@N08","secret":"346600fbe2","server":"65535","farm":66,"title":"Savannah Sparrow","ispublic":1,"isfriend":0,"isfamily":0},{"id":"52637795851","owner":"47533293@N04","secret":"4ecf241dab","server":"65535","farm":66,"title":"Savannah sparrow, Passerculus sandwichensis","ispublic":1,"isfriend":0,"isfamily":0},{"id":"52635258717","owner":"187792860@N04","secret":"998a599eb5","server":"65535","farm":66,"title":"Savannah sparrow (Passerculus sandwichensis)","ispublic":1,"isfriend":0,"isfamily":0},{"id":"52630296688","owner":"73179441@N02","secret":"7d91cbb157","server":"65535","farm":66,"title":"Beauty in the Gloom","ispublic":1,"isfriend":0,"isfamily":0},{"id":"52630036840","owner":"131779834@N08","secret":"05a6bc0d2a","server":"65535","farm":66,"title":"Driftwood Perch","ispublic":1,"isfriend":0,"isfamily":0},{"id":"52629047542","owner":"131779834@N08","secret":"c6766e794b","server":"65535","farm":66,"title":"Chick Needs Food","ispublic":1,"isfriend":0,"isfamily":0},{"id":"52629381113","owner":"21875179@N06","secret":"b92b7c3324","server":"65535","farm":66,"title":"SAVANNAH SPARROW","ispublic":1,"isfriend":0,"isfamily":0},{"id":"52627608799","owner":"146378564@N07","secret":"e1754f36e1","server":"65535","farm":66,"title":"Savannah Sparrow (Passerculus sandwichensis)","ispublic":1,"isfriend":0,"isfamily":0},{"id":"52618804842","owner":"38514062@N03","secret":"2395418884","server":"65535","farm":66,"title":"Savannah Sparrow (Passerculus sandwichensis)","ispublic":1,"isfriend":0,"isfamily":0},{"id":"52613292364","owner":"18378985@N08","secret":"9fee3d0a41","server":"65535","farm":66,"title":"Savannah Sparrow in the parking lot","ispublic":1,"isfriend":0,"isfamily":0},{"id":"52612524892","owner":"18378985@N08","secret":"d66afa8a58","server":"65535","farm":66,"title":"Savannah Sparrow at South Shore Park","ispublic":1,"isfriend":0,"isfamily":0},{"id":"52611804826","owner":"62043870@N05","secret":"b7c4490cbc","server":"65535","farm":66,"title":"Savannah Sparrow, Passerculus sandwichensis","ispublic":1,"isfriend":0,"isfamily":0},{"id":"52606084365","owner":"62043870@N05","secret":"fbaa9efbd6","server":"65535","farm":66,"title":"Savannah Sparrow, Passerculus sandwichensis","ispublic":1,"isfriend":0,"isfamily":0},{"id":"52602860577","owner":"197039631@N05","secret":"4103280fe1","server":"65535","farm":66,"title":"Savannah Sparrow at Quivira Point","ispublic":1,"isfriend":0,"isfamily":0},{"id":"33691575968","owner":"134270033@N06","secret":"db22ec02a9","server":"7912","farm":8,"title":"Attentively Perched","ispublic":1,"isfriend":0,"isfamily":0},{"id":"52596540897","owner":"33610210@N05","secret":"3fc5473705","server":"65535","farm":66,"title":"Savannah Sparrow, Passerculus sandwichensis","ispublic":1,"isfriend":0,"isfamily":0},{"id":"52595115220","owner":"20448187@N04","secret":"9491d5d6d3","server":"65535","farm":66,"title":"IMG_6898","ispublic":1,"isfriend":0,"isfamily":0},{"id":"52593853880","owner":"88932760@N08","secret":"d9fc574308","server":"65535","farm":66,"title":"Standing Down","ispublic":1,"isfriend":0,"isfamily":0},{"id":"52592713071","owner":"30979614@N07","secret":"98c71bac18","server":"65535","farm":66,"title":"2022-05-10 Montrose Point 1","ispublic":1,"isfriend":0,"isfamily":0},{"id":"52589119952","owner":"128537732@N06","secret":"7a5fcec03f","server":"65535","farm":66,"title":"Savannah Sparrow (Passerculus sandwichensis)","ispublic":1,"isfriend":0,"isfamily":0},{"id":"52586364621","owner":"103722035@N06","secret":"01441b7d95","server":"65535","farm":66,"title":"Savannah Sparrow (Passerculus sandwichensis), Shandon, CA","ispublic":1,"isfriend":0,"isfamily":0},{"id":"52585888997","owner":"103722035@N06","secret":"829ee02797","server":"65535","farm":66,"title":"Savannah Sparrow (Passerculus sandwichensis), Shandon, CA","ispublic":1,"isfriend":0,"isfamily":0},{"id":"52585828898","owner":"84169650@N07","secret":"9cc6c85723","server":"65535","farm":66,"title":"Savannah Sparrow","ispublic":1,"isfriend":0,"isfamily":0},{"id":"52585045003","owner":"103722035@N06","secret":"19178157b7","server":"65535","farm":66,"title":"Savannah Sparrow (Large-billed) (Passerculus sandwichensis rostratus\/atratus), Morro Bay, CA","ispublic":1,"isfriend":0,"isfamily":0},{"id":"52584962165","owner":"103722035@N06","secret":"aae04d536b","server":"65535","farm":66,"title":"Savannah Sparrow (Large-billed) (Passerculus sandwichensis rostratus\/atratus), Morro Bay, CA","ispublic":1,"isfriend":0,"isfamily":0},{"id":"52585044868","owner":"103722035@N06","secret":"1e12e48cb9","server":"65535","farm":66,"title":"Savannah Sparrow (Large-billed) (Passerculus sandwichensis rostratus\/atratus), Morro Bay, CA","ispublic":1,"isfriend":0,"isfamily":0},{"id":"52584527446","owner":"103722035@N06","secret":"5967545544","server":"65535","farm":66,"title":"Savannah Sparrow (Large-billed) (Passerculus sandwichensis rostratus\/atratus), Morro Bay, CA","ispublic":1,"isfriend":0,"isfamily":0},{"id":"52585042938","owner":"103722035@N06","secret":"7b2b09af87","server":"0","farm":0,"title":"Savannah Sparrow (Large-billed) (Passerculus sandwichensis rostratus\/atratus), Morro Bay, CA","ispublic":1,"isfriend":0,"isfamily":0},{"id":"52583607827","owner":"109544413@N05","secret":"463e8f9d72","server":"65535","farm":66,"title":"Savannah Sparrow","ispublic":1,"isfriend":0,"isfamily":0},{"id":"52583661495","owner":"76288515@N07","secret":"a115b3a4f1","server":"65535","farm":66,"title":"Savannah Sparrow Passerculus sandwichensis","ispublic":1,"isfriend":0,"isfamily":0},{"id":"52582758337","owner":"76288515@N07","secret":"8ac450ac6a","server":"65535","farm":66,"title":"Savannah Sparrow Passerculus sandwichensis","ispublic":1,"isfriend":0,"isfamily":0},{"id":"52582758297","owner":"76288515@N07","secret":"126f9330d5","server":"65535","farm":66,"title":"Savannah Sparrow Passerculus sandwichensis","ispublic":1,"isfriend":0,"isfamily":0},{"id":"52583222601","owner":"76288515@N07","secret":"e027254ec1","server":"65535","farm":66,"title":"Savannah Sparrow Passerculus sandwichensis","ispublic":1,"isfriend":0,"isfamily":0},{"id":"52583222591","owner":"76288515@N07","secret":"8d519d47a4","server":"65535","farm":66,"title":"Savannah Sparrow Passerculus sandwichensis","ispublic":1,"isfriend":0,"isfamily":0},{"id":"52583736903","owner":"76288515@N07","secret":"23fcff09e1","server":"65535","farm":66,"title":"Savannah Sparrow Passerculus sandwichensis","ispublic":1,"isfriend":0,"isfamily":0},{"id":"52582838360","owner":"26520320@N03","secret":"4c8465f3ae","server":"65535","farm":66,"title":"DSC04422","ispublic":1,"isfriend":0,"isfamily":0},{"id":"52582405346","owner":"26520320@N03","secret":"16c6491bf1","server":"65535","farm":66,"title":"DSC04419","ispublic":1,"isfriend":0,"isfamily":0},{"id":"52582639834","owner":"26520320@N03","secret":"db64009e90","server":"65535","farm":66,"title":"DSC04164","ispublic":1,"isfriend":0,"isfamily":0},{"id":"52582382351","owner":"26520320@N03","secret":"c3b7383cae","server":"65535","farm":66,"title":"DSC04163","ispublic":1,"isfriend":0,"isfamily":0},{"id":"52580982474","owner":"103722035@N06","secret":"eef3a59d3f","server":"0","farm":0,"title":"Savannah Sparrow (Passerculus sandwichensis), Morro Bay, CA","ispublic":1,"isfriend":0,"isfamily":0},{"id":"52579781247","owner":"153973412@N04","secret":"d2c8962837","server":"65535","farm":66,"title":"Savannah Sparrow-Passerculus sandwichensis, Hawkeye WMA, IA","ispublic":1,"isfriend":0,"isfamily":0},{"id":"52576901493","owner":"9638954@N07","secret":"a51af9ccb9","server":"65535","farm":66,"title":"Savannah Sparrow","ispublic":1,"isfriend":0,"isfamily":0},{"id":"52575021470","owner":"51928691@N04","secret":"a0c316b963","server":"65535","farm":66,"title":"Belding's Savannah Sparrow (Passerculus sandwichensis) 1 121922","ispublic":1,"isfriend":0,"isfamily":0},{"id":"52573674322","owner":"38514062@N03","secret":"d31d90af95","server":"65535","farm":66,"title":"Savannah Sparrow (Passerculus sandwichensis)-IMG_2266-resized","ispublic":1,"isfriend":0,"isfamily":0},{"id":"52574415684","owner":"38514062@N03","secret":"5fd57e4764","server":"65535","farm":66,"title":"Savannah Sparrow (Passerculus sandwichensis)-IMG_2269-resized","ispublic":1,"isfriend":0,"isfamily":0},{"id":"52572645000","owner":"33610210@N05","secret":"86bcd610f0","server":"65535","farm":66,"title":"Savannah Sparrow, Passerculus sandwichensis","ispublic":1,"isfriend":0,"isfamily":0},{"id":"52563943014","owner":"44801995@N02","secret":"3448a9767d","server":"65535","farm":66,"title":"Savannah Sparrow Passerculus sandwichensis","ispublic":1,"isfriend":0,"isfamily":0},{"id":"52564193478","owner":"44801995@N02","secret":"ecf622ecd9","server":"65535","farm":66,"title":"Savannah Sparrow Passerculus sandwichensis","ispublic":1,"isfriend":0,"isfamily":0},{"id":"52554359743","owner":"187999217@N04","secret":"9ea56689d9","server":"65535","farm":66,"title":"Savannah Sparrow (Passerculus sandwichensis)","ispublic":1,"isfriend":0,"isfamily":0},{"id":"52543650650","owner":"23711298@N07","secret":"f205e06df1","server":"65535","farm":66,"title":"Sparrow, Minnesota, Minnesota, Anoka County- Fridley, Springbrook Nature Center","ispublic":1,"isfriend":0,"isfamily":0},{"id":"52540810569","owner":"73431753@N00","secret":"55fca89e76","server":"65535","farm":66,"title":"Ballona Creek estuary foraging Belding's Savannah Sparrow","ispublic":1,"isfriend":0,"isfamily":0},{"id":"52537772651","owner":"39617069@N08","secret":"02d47b4d11","server":"65535","farm":66,"title":"Savannah Sparrow","ispublic":1,"isfriend":0,"isfamily":0},{"id":"52525710824","owner":"144648055@N05","secret":"e1a16fd442","server":"65535","farm":66,"title":"Sleepy","ispublic":1,"isfriend":0,"isfamily":0},{"id":"52523989211","owner":"103722035@N06","secret":"0d66cd65f5","server":"65535","farm":66,"title":"Savannah Sparrow (Large-billed) (Passerculus sandwichensis rostratus\/atratus), Morro Bay, CA","ispublic":1,"isfriend":0,"isfamily":0},{"id":"52524539378","owner":"103722035@N06","secret":"3cb4b1e722","server":"65535","farm":66,"title":"Savannah Sparrow (Large-billed) (Passerculus sandwichensis rostratus\/atratus), Morro Bay, CA","ispublic":1,"isfriend":0,"isfamily":0},{"id":"52524271264","owner":"103722035@N06","secret":"670759dab6","server":"65535","farm":66,"title":"Savannah Sparrow (Large-billed) (Passerculus sandwichensis rostratus\/atratus), Morro Bay, CA","ispublic":1,"isfriend":0,"isfamily":0},{"id":"52523982336","owner":"103722035@N06","secret":"0174b3b8d1","server":"0","farm":0,"title":"Savannah Sparrow (Large-billed) (Passerculus sandwichensis rostratus\/atratus), Morro Bay, CA","ispublic":1,"isfriend":0,"isfamily":0},{"id":"52670503630","owner":"124995824@N08","secret":"3587d9eddd","server":"65535","farm":66,"title":"Savannah Sparrow - Passerculus sandwichensis","ispublic":1,"isfriend":0,"isfamily":0},{"id":"52670503605","owner":"124995824@N08","secret":"8be10cab3b","server":"65535","farm":66,"title":"Savannah Sparrow - Passerculus sandwichensis","ispublic":1,"isfriend":0,"isfamily":0},{"id":"52597337960","owner":"62043870@N05","secret":"5a6a4b250f","server":"65535","farm":66,"title":"Savannah Sparrow, Passerculus sandwichensis","ispublic":1,"isfriend":0,"isfamily":0},{"id":"52542578642","owner":"67306066@N03","secret":"72cc4107a7","server":"65535","farm":66,"title":"Savannah Sparrow (Savannah) (Passerculus sandwichensis)","ispublic":1,"isfriend":0,"isfamily":0},{"id":"52539980843","owner":"36013467@N07","secret":"6f4a64e43c","server":"65535","farm":66,"title":"Savannah Sparrow (Passerculus sandwichensis)","ispublic":1,"isfriend":0,"isfamily":0}]},"stat":"ok"}