{"photos":{"page":1,"pages":31,"perpage":100,"total":3058,"photo":[{"id":"52500745864","owner":"97599611@N04","secret":"cf8b040463","server":"65535","farm":66,"title":"0P7A3574   juvenile  Scarlet Tanager, Canada","ispublic":1,"isfriend":0,"isfamily":0},{"id":"52499594704","owner":"69347399@N08","secret":"60f716e222","server":"65535","farm":66,"title":"Piranga olivacea - Scarlet tanager - t\u00e1ngara rojinegra migratoria","ispublic":1,"isfriend":0,"isfamily":0},{"id":"52495038196","owner":"86666094@N00","secret":"8f20b81b70","server":"65535","farm":66,"title":"Scarlet Tanager","ispublic":1,"isfriend":0,"isfamily":0},{"id":"52493962329","owner":"39445433@N02","secret":"b862209bda","server":"65535","farm":66,"title":"Scarlet Tanager","ispublic":1,"isfriend":0,"isfamily":0},{"id":"52493962289","owner":"39445433@N02","secret":"3b930a1418","server":"65535","farm":66,"title":"Scarlet Tanager","ispublic":1,"isfriend":0,"isfamily":0},{"id":"52486981187","owner":"39445433@N02","secret":"e49a09f5d6","server":"65535","farm":66,"title":"Scarlet Tanager","ispublic":1,"isfriend":0,"isfamily":0},{"id":"52458543103","owner":"38514062@N03","secret":"e808ac494e","server":"65535","farm":66,"title":"Scarlet Tanager (Piranga olivacea)","ispublic":1,"isfriend":0,"isfamily":0},{"id":"52427933635","owner":"39177293@N03","secret":"ed08c957b8","server":"65535","farm":66,"title":"Scarlet Tanager","ispublic":1,"isfriend":0,"isfamily":0},{"id":"52391731722","owner":"74787113@N05","secret":"09249c0c26","server":"65535","farm":66,"title":"SCARLET TANAGER","ispublic":1,"isfriend":0,"isfamily":0},{"id":"52389540058","owner":"38514062@N03","secret":"fb985fc8ff","server":"65535","farm":66,"title":"Scarlet Tanager (Piranga olivacea)","ispublic":1,"isfriend":0,"isfamily":0},{"id":"52389721165","owner":"38514062@N03","secret":"320f8a930f","server":"65535","farm":66,"title":"Scarlet Tanager (Piranga olivacea)","ispublic":1,"isfriend":0,"isfamily":0},{"id":"52389720885","owner":"38514062@N03","secret":"f879e1acb0","server":"65535","farm":66,"title":"Scarlet Tanager (Piranga olivacea)","ispublic":1,"isfriend":0,"isfamily":0},{"id":"52346108238","owner":"24359172@N02","secret":"2464e6d94f","server":"65535","farm":66,"title":"Scarlet Tanager","ispublic":1,"isfriend":0,"isfamily":0},{"id":"52323866139","owner":"28631427@N00","secret":"9f17c4314e","server":"65535","farm":66,"title":"Scarlet Tanager","ispublic":1,"isfriend":0,"isfamily":0},{"id":"52302667124","owner":"48014585@N00","secret":"62d708d31a","server":"65535","farm":66,"title":"Scarlet Tanager","ispublic":1,"isfriend":0,"isfamily":0},{"id":"52299926981","owner":"28631427@N00","secret":"a90046d561","server":"65535","farm":66,"title":"Scarlet Tanager","ispublic":1,"isfriend":0,"isfamily":0},{"id":"52271304091","owner":"92361032@N05","secret":"441c39545c","server":"65535","farm":66,"title":"Scarlet Tanager \/ Piranga \u00e9carlate ( Richard )","ispublic":1,"isfriend":0,"isfamily":0},{"id":"52265712626","owner":"184155060@N04","secret":"cccb9de675","server":"65535","farm":66,"title":"33116 Piranga \u00e9carlate (m\u00e2le) \/ Piranga olivacea \/ Scarlet Tanager","ispublic":1,"isfriend":0,"isfamily":0},{"id":"52265976174","owner":"184155060@N04","secret":"d461ec13ef","server":"65535","farm":66,"title":"33116 Piranga \u00e9carlate (m\u00e2le) \/ Piranga olivacea \/ Scarlet Tanager","ispublic":1,"isfriend":0,"isfamily":0},{"id":"52227483413","owner":"49114357@N08","secret":"b3bcba2e45","server":"65535","farm":66,"title":"Scarlet Tanager","ispublic":1,"isfriend":0,"isfamily":0},{"id":"52226559212","owner":"36685968@N00","secret":"4f5620b032","server":"65535","farm":66,"title":"Scarlet Tanager (Piranga olivacea)","ispublic":1,"isfriend":0,"isfamily":0},{"id":"52227835374","owner":"36685968@N00","secret":"df52cf5d41","server":"65535","farm":66,"title":"Scarlet Tanager (Piranga olivacea)","ispublic":1,"isfriend":0,"isfamily":0},{"id":"52227564256","owner":"36685968@N00","secret":"33aa02ffca","server":"65535","farm":66,"title":"Scarlet Tanager (Piranga olivacea)","ispublic":1,"isfriend":0,"isfamily":0},{"id":"52212669713","owner":"120699091@N02","secret":"d9bb7aa438","server":"65535","farm":66,"title":"Scarlet Tanager","ispublic":1,"isfriend":0,"isfamily":0},{"id":"52211646682","owner":"120699091@N02","secret":"09aa65ee67","server":"65535","farm":66,"title":"Scarlet Tanager","ispublic":1,"isfriend":0,"isfamily":0},{"id":"52207687083","owner":"184155060@N04","secret":"57492f7c16","server":"65535","farm":66,"title":"33116 Piranga \u00e9carlate (m\u00e2le) \/ Piranga olivacea \/ Scarlet Tanager","ispublic":1,"isfriend":0,"isfamily":0},{"id":"52207935019","owner":"184155060@N04","secret":"700830f8bc","server":"65535","farm":66,"title":"33116 Piranga \u00e9carlate (m\u00e2le) \/ Piranga olivacea \/ Scarlet Tanager","ispublic":1,"isfriend":0,"isfamily":0},{"id":"52207687018","owner":"184155060@N04","secret":"13a560ba50","server":"65535","farm":66,"title":"33116 Piranga \u00e9carlate (m\u00e2le) \/ Piranga olivacea \/ Scarlet Tanager","ispublic":1,"isfriend":0,"isfamily":0},{"id":"52201375752","owner":"76617062@N08","secret":"458a316757","server":"65535","farm":66,"title":"1.29973 Piranga \u00e9carlate \/ Piranga olivacea \/ Scarlet Tanager","ispublic":1,"isfriend":0,"isfamily":0},{"id":"52191359186","owner":"59770980@N02","secret":"b989686a09","server":"65535","farm":66,"title":"Skarlatst\u00e1ni-Scarlet Tanager-Piranga olivacea","ispublic":1,"isfriend":0,"isfamily":0},{"id":"52187055594","owner":"120699091@N02","secret":"64823d44d1","server":"65535","farm":66,"title":"Scarlet Tanager","ispublic":1,"isfriend":0,"isfamily":0},{"id":"52187288855","owner":"120699091@N02","secret":"97c30b8427","server":"65535","farm":66,"title":"Scarlet Tanager","ispublic":1,"isfriend":0,"isfamily":0},{"id":"52186814928","owner":"120699091@N02","secret":"0995e1f544","server":"65535","farm":66,"title":"Scarlet Tanager","ispublic":1,"isfriend":0,"isfamily":0},{"id":"52177282736","owner":"120699091@N02","secret":"f418016321","server":"65535","farm":66,"title":"Scarlet Tanager","ispublic":1,"isfriend":0,"isfamily":0},{"id":"52176253902","owner":"120699091@N02","secret":"6a08e0105d","server":"65535","farm":66,"title":"Scarlet Tanager","ispublic":1,"isfriend":0,"isfamily":0},{"id":"52177772660","owner":"120699091@N02","secret":"4f6fb815ee","server":"65535","farm":66,"title":"Scarlet Tanager","ispublic":1,"isfriend":0,"isfamily":0},{"id":"52177772600","owner":"120699091@N02","secret":"8ea127f7da","server":"65535","farm":66,"title":"Scarlet Tanager","ispublic":1,"isfriend":0,"isfamily":0},{"id":"52151925687","owner":"39177293@N03","secret":"8a3ee84db8","server":"65535","farm":66,"title":"Scarlet Tanager","ispublic":1,"isfriend":0,"isfamily":0},{"id":"52152941918","owner":"39177293@N03","secret":"b5ccc0ace9","server":"65535","farm":66,"title":"Scarlet Tanager","ispublic":1,"isfriend":0,"isfamily":0},{"id":"52149439921","owner":"120699091@N02","secret":"924cb6f915","server":"65535","farm":66,"title":"Scarlet Tanager","ispublic":1,"isfriend":0,"isfamily":0},{"id":"52148421542","owner":"120699091@N02","secret":"9a7a09d93a","server":"65535","farm":66,"title":"Scarlet Tanager","ispublic":1,"isfriend":0,"isfamily":0},{"id":"52149452548","owner":"120699091@N02","secret":"0de96e039b","server":"65535","farm":66,"title":"Scarlet Tanager","ispublic":1,"isfriend":0,"isfamily":0},{"id":"52149675619","owner":"120699091@N02","secret":"8be369e8dc","server":"65535","farm":66,"title":"Scarlet Tanager","ispublic":1,"isfriend":0,"isfamily":0},{"id":"52148417512","owner":"120699091@N02","secret":"fece77715b","server":"65535","farm":66,"title":"Scarlet Tanager","ispublic":1,"isfriend":0,"isfamily":0},{"id":"52148731649","owner":"76617062@N08","secret":"5ee94cb0e7","server":"65535","farm":66,"title":"1.29973 Piranga \u00e9carlate \/ Piranga olivacea \/ Scarlet Tanager","ispublic":1,"isfriend":0,"isfamily":0},{"id":"52146040593","owner":"119787485@N07","secret":"6d68625d33","server":"65535","farm":66,"title":"Scarlet Tanager (Piranga olivacea) - 20220514-02","ispublic":1,"isfriend":0,"isfamily":0},{"id":"52145667365","owner":"40003624@N06","secret":"27934a449a","server":"65535","farm":66,"title":"Scarlet Tanager","ispublic":1,"isfriend":0,"isfamily":0},{"id":"52144107506","owner":"68635735@N02","secret":"21e54ec0b3","server":"65535","farm":66,"title":"Scarlet Tanager (Piranga olivacea) male","ispublic":1,"isfriend":0,"isfamily":0},{"id":"52136648576","owner":"32599741@N03","secret":"7ca8353d1d","server":"65535","farm":66,"title":"2022 - Day 115:  red bird","ispublic":1,"isfriend":0,"isfamily":0},{"id":"52133465378","owner":"120449047@N06","secret":"885eee7d49","server":"65535","farm":66,"title":"Scarlet Tanager (explored 6\/10\/22)","ispublic":1,"isfriend":0,"isfamily":0},{"id":"52126007932","owner":"82143856@N00","secret":"1fbc891847","server":"65535","farm":66,"title":"Scarlet Tanager","ispublic":1,"isfriend":0,"isfamily":0},{"id":"52124778885","owner":"132638863@N04","secret":"fd0d168d8e","server":"65535","farm":66,"title":"Scarlet Tanager \/ Piranga \u00e9carlate","ispublic":1,"isfriend":0,"isfamily":0},{"id":"52121125752","owner":"32599741@N03","secret":"d3f650a597","server":"65535","farm":66,"title":"checking us out","ispublic":1,"isfriend":0,"isfamily":0},{"id":"52121504284","owner":"191038887@N04","secret":"5166757078","server":"65535","farm":66,"title":"Piranga \u00e9carlate - Scarlet tanager - Piranga olivacea","ispublic":1,"isfriend":0,"isfamily":0},{"id":"52119576693","owner":"76617062@N08","secret":"d46dabc38e","server":"65535","farm":66,"title":"1.29973 Piranga \u00e9carlate \/ Piranga olivacea \/ Scarlet Tanager","ispublic":1,"isfriend":0,"isfamily":0},{"id":"52117902804","owner":"85391626@N07","secret":"da878c249b","server":"65535","farm":66,"title":"Scarlet Tanager","ispublic":1,"isfriend":0,"isfamily":0},{"id":"52112210691","owner":"165841515@N03","secret":"bc42e9ffc8","server":"65535","farm":66,"title":"Piranga \u00e9carlate \/ Scarlet Tanager \/ (Piranga olivacea)","ispublic":1,"isfriend":0,"isfamily":0},{"id":"52112716040","owner":"165841515@N03","secret":"2b244520f4","server":"65535","farm":66,"title":"Piranga \u00e9carlate \/ Scarlet Tanager \/ (Piranga olivacea)","ispublic":1,"isfriend":0,"isfamily":0},{"id":"52112715835","owner":"165841515@N03","secret":"6130c032b9","server":"65535","farm":66,"title":"Piranga \u00e9carlate \/ Scarlet Tanager \/ (Piranga olivacea)","ispublic":1,"isfriend":0,"isfamily":0},{"id":"52112715730","owner":"165841515@N03","secret":"9c88a987e5","server":"65535","farm":66,"title":"Piranga \u00e9carlate \/ Scarlet Tanager \/ (Piranga olivacea)","ispublic":1,"isfriend":0,"isfamily":0},{"id":"52106515200","owner":"168495655@N07","secret":"e75fb0a376","server":"65535","farm":66,"title":"Piranga \u00e9carlate - Piranga olivacea - Scarlet Tanager","ispublic":1,"isfriend":0,"isfamily":0},{"id":"52106001931","owner":"168495655@N07","secret":"9cd6c9b972","server":"65535","farm":66,"title":"Piranga \u00e9carlate - Piranga olivacea - Scarlet Tanager","ispublic":1,"isfriend":0,"isfamily":0},{"id":"52105457054","owner":"76288515@N07","secret":"dd04f6134e","server":"65535","farm":66,"title":"Scarlet Tanager Piranga olivacea","ispublic":1,"isfriend":0,"isfamily":0},{"id":"52101850246","owner":"8561740@N08","secret":"492a19b1d9","server":"65535","farm":66,"title":"scarlet tanager","ispublic":1,"isfriend":0,"isfamily":0},{"id":"52098424722","owner":"38983646@N06","secret":"06e1858bb6","server":"65535","farm":66,"title":"DSC_0077 (12)","ispublic":1,"isfriend":0,"isfamily":0},{"id":"52094721076","owner":"135315828@N06","secret":"09216f3d89","server":"65535","farm":66,"title":"scarlet tanager","ispublic":1,"isfriend":0,"isfamily":0},{"id":"52094720801","owner":"135315828@N06","secret":"97f661f7d8","server":"65535","farm":66,"title":"scarlet tanager","ispublic":1,"isfriend":0,"isfamily":0},{"id":"52090946438","owner":"181920661@N03","secret":"9f22527528","server":"65535","farm":66,"title":"Scarlet Tanager in Naperville, IL","ispublic":1,"isfriend":0,"isfamily":0},{"id":"52087894009","owner":"48014585@N00","secret":"dcb099b623","server":"65535","farm":66,"title":"Scarlet Tanager","ispublic":1,"isfriend":0,"isfamily":0},{"id":"52088146265","owner":"48014585@N00","secret":"841bc6134e","server":"65535","farm":66,"title":"Scarlet Tanager","ispublic":1,"isfriend":0,"isfamily":0},{"id":"52580684670","owner":"153973412@N04","secret":"edc8642a98","server":"65535","farm":66,"title":"Scarlet Tanager-Piranga olivacea, Iowa City, IA","ispublic":1,"isfriend":0,"isfamily":0},{"id":"52552277052","owner":"76288515@N07","secret":"08cfd050af","server":"65535","farm":66,"title":"Scarlet Tanager Piranga olivacea","ispublic":1,"isfriend":0,"isfamily":0},{"id":"52552740386","owner":"76288515@N07","secret":"430a91e5ff","server":"65535","farm":66,"title":"Scarlet Tanager Piranga olivacea","ispublic":1,"isfriend":0,"isfamily":0},{"id":"52553032509","owner":"76288515@N07","secret":"bd92f79b44","server":"65535","farm":66,"title":"Scarlet Tanager Piranga olivacea","ispublic":1,"isfriend":0,"isfamily":0},{"id":"52552740326","owner":"76288515@N07","secret":"9ea9db4c41","server":"65535","farm":66,"title":"Scarlet Tanager Piranga olivacea","ispublic":1,"isfriend":0,"isfamily":0},{"id":"52552740316","owner":"76288515@N07","secret":"89d106c0c9","server":"65535","farm":66,"title":"Scarlet Tanager Piranga olivacea","ispublic":1,"isfriend":0,"isfamily":0},{"id":"52552276927","owner":"76288515@N07","secret":"bfbbe9ce7d","server":"65535","farm":66,"title":"Scarlet Tanager Piranga olivacea","ispublic":1,"isfriend":0,"isfamily":0},{"id":"52553032454","owner":"76288515@N07","secret":"eed8be1193","server":"65535","farm":66,"title":"Scarlet Tanager Piranga olivacea","ispublic":1,"isfriend":0,"isfamily":0},{"id":"52553277678","owner":"76288515@N07","secret":"5a76af39d0","server":"65535","farm":66,"title":"Scarlet Tanager Piranga olivacea","ispublic":1,"isfriend":0,"isfamily":0},{"id":"52553032439","owner":"76288515@N07","secret":"156f9beb2a","server":"65535","farm":66,"title":"Scarlet Tanager Piranga olivacea","ispublic":1,"isfriend":0,"isfamily":0},{"id":"52553277663","owner":"76288515@N07","secret":"c672ec795e","server":"65535","farm":66,"title":"Scarlet Tanager Piranga olivacea","ispublic":1,"isfriend":0,"isfamily":0},{"id":"52553032384","owner":"76288515@N07","secret":"c59cae0594","server":"65535","farm":66,"title":"Scarlet Tanager Piranga olivacea","ispublic":1,"isfriend":0,"isfamily":0},{"id":"52302666904","owner":"48014585@N00","secret":"61cb45b791","server":"65535","farm":66,"title":"Scarlet Tanager","ispublic":1,"isfriend":0,"isfamily":0},{"id":"52236873385","owner":"67306066@N03","secret":"1d78ee79dc","server":"65535","farm":66,"title":"Scarlet Tanager, Female (Piranga olivacea)","ispublic":1,"isfriend":0,"isfamily":0},{"id":"52236395433","owner":"67306066@N03","secret":"c9c8c3f788","server":"65535","farm":66,"title":"Scarlet Tanager, Female (Piranga olivacea)","ispublic":1,"isfriend":0,"isfamily":0},{"id":"52236382346","owner":"67306066@N03","secret":"3620812c3b","server":"65535","farm":66,"title":"Scarlet Tanager, Female (Piranga olivacea)","ispublic":1,"isfriend":0,"isfamily":0},{"id":"52236381801","owner":"67306066@N03","secret":"0ca2ccd822","server":"65535","farm":66,"title":"Scarlet Tanager, Female (Piranga olivacea)","ispublic":1,"isfriend":0,"isfamily":0},{"id":"52128566798","owner":"94222177@N06","secret":"7ac27a5bb6","server":"65535","farm":66,"title":"Tanager Tuesday-Scarlet Tanager (rarity)","ispublic":1,"isfriend":0,"isfamily":0},{"id":"52123758074","owner":"165841515@N03","secret":"3080ac3a92","server":"65535","farm":66,"title":"Piranga \u00e9carlate \/ Scarlet Tanager \/ (Piranga olivacea)","ispublic":1,"isfriend":0,"isfamily":0},{"id":"52120264447","owner":"191038887@N04","secret":"149659c14a","server":"65535","farm":66,"title":"Piranga \u00e9carlate - Scarlet tanager - Piranga olivacea","ispublic":1,"isfriend":0,"isfamily":0},{"id":"52121295846","owner":"191038887@N04","secret":"3952d2a1a3","server":"65535","farm":66,"title":"Piranga \u00e9carlate - Scarlet tanager - Piranga olivacea","ispublic":1,"isfriend":0,"isfamily":0},{"id":"52121295731","owner":"191038887@N04","secret":"954a25672d","server":"65535","farm":66,"title":"Piranga \u00e9carlate - Scarlet tanager - Piranga olivacea","ispublic":1,"isfriend":0,"isfamily":0},{"id":"52121504209","owner":"191038887@N04","secret":"abbbeb4cc6","server":"65535","farm":66,"title":"Piranga \u00e9carlate - Scarlet tanager - Piranga olivacea","ispublic":1,"isfriend":0,"isfamily":0},{"id":"52118649125","owner":"67306066@N03","secret":"136ba1f64e","server":"65535","farm":66,"title":"Scarlet Tanager (Piranga olivacea)","ispublic":1,"isfriend":0,"isfamily":0},{"id":"52112210541","owner":"165841515@N03","secret":"863880621f","server":"65535","farm":66,"title":"Piranga \u00e9carlate \/ Scarlet Tanager \/ (Piranga olivacea)","ispublic":1,"isfriend":0,"isfamily":0},{"id":"52105456999","owner":"76288515@N07","secret":"852330f9ce","server":"65535","farm":66,"title":"Scarlet Tanager Piranga olivacea","ispublic":1,"isfriend":0,"isfamily":0},{"id":"52098900115","owner":"32752434@N07","secret":"fef3bbb01f","server":"65535","farm":66,"title":"Scarlet Tanager (Piranga olivacea)","ispublic":1,"isfriend":0,"isfamily":0},{"id":"52088147425","owner":"48014585@N00","secret":"9328000fc2","server":"65535","farm":66,"title":"Scarlet Tanager","ispublic":1,"isfriend":0,"isfamily":0},{"id":"52086615977","owner":"48014585@N00","secret":"f44b997fc3","server":"65535","farm":66,"title":"Scarlet Tanager","ispublic":1,"isfriend":0,"isfamily":0},{"id":"52087646571","owner":"48014585@N00","secret":"115c40fd10","server":"65535","farm":66,"title":"Scarlet Tanager","ispublic":1,"isfriend":0,"isfamily":0}]},"stat":"ok"}