{"photos":{"page":1,"pages":24,"perpage":100,"total":2375,"photo":[{"id":"52720807347","owner":"52450054@N04","secret":"fdae31012d","server":"65535","farm":66,"title":"Scissor-tailed Flycatcher - Tyrannus forficatus, Southern Glades Wildlife Management Area, Homestead, Florida, December 3, 2021","ispublic":1,"isfriend":0,"isfamily":0},{"id":"52689759879","owner":"123979267@N05","secret":"808567166b","server":"65535","farm":66,"title":"Scissor-tailed Flycatcher on a rainy spring morning.","ispublic":1,"isfriend":0,"isfamily":0},{"id":"52606688304","owner":"61062164@N08","secret":"38e13c1fec","server":"65535","farm":66,"title":"850_6326-NEF_DxO_DeepPRIME","ispublic":1,"isfriend":0,"isfamily":0},{"id":"52581108423","owner":"80355852@N00","secret":"a24154ec18","server":"65535","farm":66,"title":"Sissor-tailed Flycatcher","ispublic":1,"isfriend":0,"isfamily":0},{"id":"52580684545","owner":"153973412@N04","secret":"f91d423fe1","server":"65535","farm":66,"title":"Scissor-tailed Flycatcher-Tyrannus forficatus, Galveston  Island, TX","ispublic":1,"isfriend":0,"isfamily":0},{"id":"52573165495","owner":"30679992@N06","secret":"e2f5bcf11f","server":"65535","farm":66,"title":"Scissor-Tailed Flycatcher","ispublic":1,"isfriend":0,"isfamily":0},{"id":"52565650341","owner":"140318147@N08","secret":"5b7f8343e7","server":"65535","farm":66,"title":"scissor-tailed flycatcher (Tyrannus forficatus) L4A9204","ispublic":1,"isfriend":0,"isfamily":0},{"id":"52564382290","owner":"140318147@N08","secret":"f3e24483a4","server":"65535","farm":66,"title":"scissor-tailed flycatcher (Tyrannus forficatus) L4A9193","ispublic":1,"isfriend":0,"isfamily":0},{"id":"52553863690","owner":"62759448@N05","secret":"b4ca5099d6","server":"65535","farm":66,"title":"Scissor-tailed Flycatcher Tyrannus forficatus","ispublic":1,"isfriend":0,"isfamily":0},{"id":"52553684834","owner":"62759448@N05","secret":"1e75cf9388","server":"65535","farm":66,"title":"Scissor-tailed Flycatcher Tyrannus forficatus","ispublic":1,"isfriend":0,"isfamily":0},{"id":"52553684804","owner":"62759448@N05","secret":"0844c9dda8","server":"65535","farm":66,"title":"Scissor-tailed Flycatcher Tyrannus forficatus","ispublic":1,"isfriend":0,"isfamily":0},{"id":"52551849041","owner":"190773540@N03","secret":"6fcce160d0","server":"65535","farm":66,"title":"Scissor-tailed Flycatcher","ispublic":1,"isfriend":0,"isfamily":0},{"id":"52532208852","owner":"52450054@N04","secret":"8880285a03","server":"65535","farm":66,"title":"Scissor-tailed Flycatcher - Tyrannus forficatus with Wasp, Southern Glades Wildlife Management Area, Homestead, Florida, December 1, 2021","ispublic":1,"isfriend":0,"isfamily":0},{"id":"52517662721","owner":"97599611@N04","secret":"c985e6ecbf","server":"65535","farm":66,"title":"0P7A9680   Scissor-tailed Flycatcher, Canada. Outside of its normal range","ispublic":1,"isfriend":0,"isfamily":0},{"id":"52503676901","owner":"188016893@N05","secret":"fc0399d351","server":"65535","farm":66,"title":"Scissor-tailed flycatcher","ispublic":1,"isfriend":0,"isfamily":0},{"id":"52469832121","owner":"43440320@N04","secret":"26209bc540","server":"65535","farm":66,"title":"Scissor-tailed Flycatcher","ispublic":1,"isfriend":0,"isfamily":0},{"id":"52422815586","owner":"78441846@N03","secret":"745b10f618","server":"65535","farm":66,"title":"Scissor-tailed Flycatcher, Tyrannus forficatus","ispublic":1,"isfriend":0,"isfamily":0},{"id":"52422306767","owner":"78441846@N03","secret":"2562b89351","server":"65535","farm":66,"title":"Scissor-tailed Flycatchers, Tyrannus forficatus","ispublic":1,"isfriend":0,"isfamily":0},{"id":"52411362224","owner":"90355165@N03","secret":"674b426595","server":"65535","farm":66,"title":"scissor-tailed flycatcher","ispublic":1,"isfriend":0,"isfamily":0},{"id":"52362846793","owner":"34689777@N08","secret":"c568d57292","server":"65535","farm":66,"title":"Scissor-tailed Flycatchers (Tyrannus forficatus).  Eastern New Mexico, USA.","ispublic":1,"isfriend":0,"isfamily":0},{"id":"52348195640","owner":"145650218@N03","secret":"07680740ae","server":"65535","farm":66,"title":"Scissor-tailed flycatcher (Tyrannus forficatus)","ispublic":1,"isfriend":0,"isfamily":0},{"id":"52330589259","owner":"123979267@N05","secret":"250b1b4529","server":"65535","farm":66,"title":"Scissor-tailed Flycatcher","ispublic":1,"isfriend":0,"isfamily":0},{"id":"52302516682","owner":"78441846@N03","secret":"e664c9014c","server":"65535","farm":66,"title":"Scissor-tailed Flycatcher, Tyrannus forficatus","ispublic":1,"isfriend":0,"isfamily":0},{"id":"52302516602","owner":"78441846@N03","secret":"6bd776c606","server":"65535","farm":66,"title":"Scissor-tailed Flycatcher, Tyrannus forficatus, shaking off excess water","ispublic":1,"isfriend":0,"isfamily":0},{"id":"52286109345","owner":"124995824@N08","secret":"23d69831d2","server":"65535","farm":66,"title":"Scissor-tailed Flycatcher - Tyrannus forficatus","ispublic":1,"isfriend":0,"isfamily":0},{"id":"52280256629","owner":"30418455@N00","secret":"96bb9dd585","server":"65535","farm":66,"title":"SCISSOR-TAILED FLYCATCHER 24","ispublic":1,"isfriend":0,"isfamily":0},{"id":"52280007243","owner":"30418455@N00","secret":"551424df76","server":"65535","farm":66,"title":"SCISSOR-TAILED FLYCATCHER 25","ispublic":1,"isfriend":0,"isfamily":0},{"id":"52276783181","owner":"59770980@N02","secret":"db5e617839","server":"65535","farm":66,"title":"Sv\u00f6luhersir-Scissor tailed Flycatcher-Tyrannus forficatus","ispublic":1,"isfriend":0,"isfamily":0},{"id":"52259667314","owner":"49114357@N08","secret":"d2a310ba87","server":"65535","farm":66,"title":"Scissor-tailed Flycatchers","ispublic":1,"isfriend":0,"isfamily":0},{"id":"52249335049","owner":"28511931@N07","secret":"bd108cc4df","server":"65535","farm":66,"title":"Scissor-tailed Flycatcher","ispublic":1,"isfriend":0,"isfamily":0},{"id":"52233853330","owner":"52450054@N04","secret":"159b47cd0b","server":"65535","farm":66,"title":"Scissor-tailed Flycatcher - Tyrannus forficatus, Frog Pond Wildlife Management Area, Homestead, Florida, December 1, 2021","ispublic":1,"isfriend":0,"isfamily":0},{"id":"52226298265","owner":"8177037@N06","secret":"8731d61ff9","server":"65535","farm":66,"title":"Scissor-tailed Flycatcher","ispublic":1,"isfriend":0,"isfamily":0},{"id":"52224808852","owner":"8177037@N06","secret":"1d44f0d559","server":"65535","farm":66,"title":"Scissor-tailed Flycatcher","ispublic":1,"isfriend":0,"isfamily":0},{"id":"52225826898","owner":"8177037@N06","secret":"2e16befede","server":"65535","farm":66,"title":"Scissor-tailed Flycatcher","ispublic":1,"isfriend":0,"isfamily":0},{"id":"52196705481","owner":"22420387@N07","secret":"f6e7c2f6eb","server":"65535","farm":66,"title":"Scissor-tailed Flycatcher - DEL_3972-LRwm","ispublic":1,"isfriend":0,"isfamily":0},{"id":"52197193185","owner":"22420387@N07","secret":"96eea72509","server":"65535","farm":66,"title":"Scissor-tailed Flycatcher - DEL_3973-LRwm","ispublic":1,"isfriend":0,"isfamily":0},{"id":"52189531119","owner":"119095828@N03","secret":"6df13cd5d8","server":"65535","farm":66,"title":"Scissor-tailed Flycatcher (Tyrannus forficatus)","ispublic":1,"isfriend":0,"isfamily":0},{"id":"52189289573","owner":"119095828@N03","secret":"14c6b53f49","server":"65535","farm":66,"title":"Scissor-tailed Flycatcher (Tyrannus forficatus)","ispublic":1,"isfriend":0,"isfamily":0},{"id":"52189530294","owner":"119095828@N03","secret":"3ec3c08642","server":"65535","farm":66,"title":"Scissor-tailed Flycatcher (Tyrannus forficatus)","ispublic":1,"isfriend":0,"isfamily":0},{"id":"52180548006","owner":"86191812@N07","secret":"5eb4cec522","server":"65535","farm":66,"title":"Scissor-tailed Flycatcher (Tyrannus forficatus)","ispublic":1,"isfriend":0,"isfamily":0},{"id":"52153514459","owner":"39177293@N03","secret":"10fcd06277","server":"65535","farm":66,"title":"Scissor-tailed Flycatcher","ispublic":1,"isfriend":0,"isfamily":0},{"id":"52153514449","owner":"39177293@N03","secret":"7a8fd80d87","server":"65535","farm":66,"title":"Scissor-tailed Flycatcher","ispublic":1,"isfriend":0,"isfamily":0},{"id":"52151218209","owner":"32752434@N07","secret":"8b210504af","server":"65535","farm":66,"title":"Scissor-tailed Flycatcher (Tyrannus forficatus)","ispublic":1,"isfriend":0,"isfamily":0},{"id":"52147489089","owner":"132165466@N08","secret":"32c1451e6d","server":"65535","farm":66,"title":"Scissor-tailed Flycatcher","ispublic":1,"isfriend":0,"isfamily":0},{"id":"52146231432","owner":"132165466@N08","secret":"2826017d02","server":"65535","farm":66,"title":"Scissor-tailed Flycatcher","ispublic":1,"isfriend":0,"isfamily":0},{"id":"52146231437","owner":"132165466@N08","secret":"4d0fbe0d79","server":"65535","farm":66,"title":"Scissor-tailed Flycatcher","ispublic":1,"isfriend":0,"isfamily":0},{"id":"52115597529","owner":"65632611@N00","secret":"32e358373b","server":"65535","farm":66,"title":"Rettilon Road, TX: Scissor-tailed Flycatcher 2b  (1806)","ispublic":1,"isfriend":0,"isfamily":0},{"id":"52115597504","owner":"65632611@N00","secret":"44b6924903","server":"65535","farm":66,"title":"Rettilon Road, TX: Scissor-tailed Flycatcher 3  (1816)","ispublic":1,"isfriend":0,"isfamily":0},{"id":"52115597469","owner":"65632611@N00","secret":"63809f2fa9","server":"65535","farm":66,"title":"Rettilon Road, TX: Scissor-tailed Flycatcher 1  (1800)","ispublic":1,"isfriend":0,"isfamily":0},{"id":"52115596059","owner":"65632611@N00","secret":"4f20400b18","server":"65535","farm":66,"title":"Rettilon Road, TX: Scissor-tailed Flycatcher 2a  (1806)","ispublic":1,"isfriend":0,"isfamily":0},{"id":"52106015519","owner":"16069488@N00","secret":"42179482cc","server":"65535","farm":66,"title":"Lineman","ispublic":1,"isfriend":0,"isfamily":0},{"id":"52097558456","owner":"69740770@N05","secret":"7175ea6eee","server":"65535","farm":66,"title":"Scissor-tailed Flycatcher - Tyrannus forficatus","ispublic":1,"isfriend":0,"isfamily":0},{"id":"52097588683","owner":"69740770@N05","secret":"9764d5af45","server":"65535","farm":66,"title":"Scissor-tailed Flycatcher - Tyrannus forficatus","ispublic":1,"isfriend":0,"isfamily":0},{"id":"52095271748","owner":"10665268@N04","secret":"8346431caf","server":"65535","farm":66,"title":"Scissor-tailed Flycatcher, Multnomah Co., OR_6694(5)","ispublic":1,"isfriend":0,"isfamily":0},{"id":"52094223172","owner":"10665268@N04","secret":"f47db1c029","server":"65535","farm":66,"title":"Scissor-tailed Flycatcher, Multnomah Co., OR_6862(1)","ispublic":1,"isfriend":0,"isfamily":0},{"id":"52095748310","owner":"10665268@N04","secret":"0d44ed8997","server":"65535","farm":66,"title":"Scissor-tailed Flycatcher, Multnomah Co., OR_7003(1)","ispublic":1,"isfriend":0,"isfamily":0},{"id":"52095486684","owner":"10665268@N04","secret":"fb889e6ea0","server":"65535","farm":66,"title":"Scissor-tailed Flycatcher, Multnomah Co., OR_6928(1)","ispublic":1,"isfriend":0,"isfamily":0},{"id":"52087923544","owner":"185659367@N04","secret":"0b18e27f93","server":"65535","farm":66,"title":"Scissor-tailed Flycatcher","ispublic":1,"isfriend":0,"isfamily":0},{"id":"52082115290","owner":"69812270@N00","secret":"fb15e8de09","server":"65535","farm":66,"title":"No ordinary flycatcher!","ispublic":1,"isfriend":0,"isfamily":0},{"id":"52078315892","owner":"62043870@N05","secret":"4d1aef7944","server":"65535","farm":66,"title":"Scissor-tailed Flycatcher, Tyrannus forficatus","ispublic":1,"isfriend":0,"isfamily":0},{"id":"52079362693","owner":"62043870@N05","secret":"ec9d89059b","server":"65535","farm":66,"title":"Scissor-tailed Flycatcher, Tyrannus forficatus","ispublic":1,"isfriend":0,"isfamily":0},{"id":"52079350846","owner":"62043870@N05","secret":"43a7d371d3","server":"65535","farm":66,"title":"Scissor-tailed Flycatcher, Tyrannus forficatus","ispublic":1,"isfriend":0,"isfamily":0},{"id":"52079350161","owner":"69812270@N00","secret":"589fc779d4","server":"65535","farm":66,"title":"Scissor-tailed Flycatcher, Davenport California","ispublic":1,"isfriend":0,"isfamily":0},{"id":"52072060036","owner":"190773540@N03","secret":"88cfa0bed1","server":"65535","farm":66,"title":"Scissor-tailed Flycatcher (USA)","ispublic":1,"isfriend":0,"isfamily":0},{"id":"52059055116","owner":"52450054@N04","secret":"4a35949437","server":"65535","farm":66,"title":"Scissor-tailed Flycatcher - Tyrannus forficatus, Frog Pond Wildife Management Area, Homestead, Florida, December 1, 2021","ispublic":1,"isfriend":0,"isfamily":0},{"id":"52054873834","owner":"86191812@N07","secret":"b187aab62c","server":"65535","farm":66,"title":"Scissor-tailed Flycatcher (Tyrannus forficatus)","ispublic":1,"isfriend":0,"isfamily":0},{"id":"52041327786","owner":"33814246@N00","secret":"2e53790d9d","server":"65535","farm":66,"title":"IMG_4532-1","ispublic":1,"isfriend":0,"isfamily":0},{"id":"52040635764","owner":"22420387@N07","secret":"05dd98ab2f","server":"65535","farm":66,"title":"Scissor-tailed Flycatcher - DEL_1817-LR","ispublic":1,"isfriend":0,"isfamily":0},{"id":"52040047148","owner":"119787485@N07","secret":"6a844bf08f","server":"65535","farm":66,"title":"Scissor-tailed Flycatcher (Tyrannus forficatus) - 20220429-05","ispublic":1,"isfriend":0,"isfamily":0},{"id":"52024698828","owner":"59619528@N04","secret":"41aefcc77c","server":"65535","farm":66,"title":"Scissortail Flycatcher (Tyrannus forficatus)","ispublic":1,"isfriend":0,"isfamily":0},{"id":"52024698518","owner":"59619528@N04","secret":"b3bd8d54d9","server":"65535","farm":66,"title":"Scissortail Flycatcher (Tyrannus forficatus)","ispublic":1,"isfriend":0,"isfamily":0},{"id":"52023396915","owner":"188773063@N05","secret":"03c2d68bab","server":"65535","farm":66,"title":"DSCN2216-1","ispublic":1,"isfriend":0,"isfamily":0},{"id":"52023396040","owner":"188773063@N05","secret":"f959d910fe","server":"65535","farm":66,"title":"DSCN2222","ispublic":1,"isfriend":0,"isfamily":0},{"id":"52022885261","owner":"188773063@N05","secret":"d35331275e","server":"65535","farm":66,"title":"DSCN2900","ispublic":1,"isfriend":0,"isfamily":0},{"id":"52018526681","owner":"100108154@N02","secret":"121e107c59","server":"65535","farm":66,"title":"Spring Brings Scissor-tails","ispublic":1,"isfriend":0,"isfamily":0},{"id":"52005298234","owner":"90355165@N03","secret":"db79e7ea5e","server":"65535","farm":66,"title":"scissor-tailed flycatcher","ispublic":1,"isfriend":0,"isfamily":0},{"id":"52000105847","owner":"33610210@N05","secret":"aa9a5d96ed","server":"65535","farm":66,"title":"Scissor-tailed Flycatcher, Tyrannus forficatus","ispublic":1,"isfriend":0,"isfamily":0},{"id":"52000096047","owner":"33610210@N05","secret":"3502c36d41","server":"65535","farm":66,"title":"Scissor-tailed Flycatcher, Tyrannus forficatus","ispublic":1,"isfriend":0,"isfamily":0},{"id":"51985335752","owner":"71649471@N02","secret":"9e70d99cf1","server":"65535","farm":66,"title":"Scissor-tailed Flycatcher","ispublic":1,"isfriend":0,"isfamily":0},{"id":"51971976839","owner":"88932760@N08","secret":"9391d7e413","server":"65535","farm":66,"title":"Scissor-tailed Flycatcher","ispublic":1,"isfriend":0,"isfamily":0},{"id":"51971656499","owner":"24110087@N05","secret":"007839e7ae","server":"65535","farm":66,"title":"Scissor-tailed Flycatcher - Tyrannus forficatus","ispublic":1,"isfriend":0,"isfamily":0},{"id":"51965695338","owner":"48793602@N07","secret":"2e768dfeeb","server":"65535","farm":66,"title":"Male Scissor-tailed Flycatcher 03-25-2022","ispublic":1,"isfriend":0,"isfamily":0},{"id":"51902365150","owner":"39617069@N08","secret":"23dff122e9","server":"65535","farm":66,"title":"Scissor-tailed Flycatcher","ispublic":1,"isfriend":0,"isfamily":0},{"id":"51829770895","owner":"52450054@N04","secret":"f15d2d4360","server":"65535","farm":66,"title":"Scissor-tailed Flycatcher - Tyrannus forficatus, Frog Pond Wildlife Management Area, Homestead, Florida, December 1, 2021","ispublic":1,"isfriend":0,"isfamily":0},{"id":"51756472405","owner":"35041397@N00","secret":"5c5f712fa4","server":"65535","farm":66,"title":"Scissor-tailed Flycatcher","ispublic":1,"isfriend":0,"isfamily":0},{"id":"51752511519","owner":"97599611@N04","secret":"67f5d4cf6b","server":"65535","farm":66,"title":"0P7A9760   Scissor-tailed Flycatcher, outside of it normal range","ispublic":1,"isfriend":0,"isfamily":0},{"id":"51752336009","owner":"33706397@N03","secret":"cd507362af","server":"65535","farm":66,"title":"IMG_3999","ispublic":1,"isfriend":0,"isfamily":0},{"id":"51746719637","owner":"33610210@N05","secret":"96d1b17fec","server":"65535","farm":66,"title":"Scissor-tailed Flycatcher, Tyrannus forficatus","ispublic":1,"isfriend":0,"isfamily":0},{"id":"51747547031","owner":"33610210@N05","secret":"9e834c51b1","server":"65535","farm":66,"title":"Scissor-tailed Flycatcher, Tyrannus forficatus","ispublic":1,"isfriend":0,"isfamily":0},{"id":"51746719507","owner":"33610210@N05","secret":"b3ab325ab7","server":"65535","farm":66,"title":"Scissor-tailed Flycatcher, Tyrannus forficatus","ispublic":1,"isfriend":0,"isfamily":0},{"id":"51736876498","owner":"33610210@N05","secret":"b9c40561a6","server":"65535","farm":66,"title":"Scissor-tailed Flycatcher, Tyrannus forficatus","ispublic":1,"isfriend":0,"isfamily":0},{"id":"51718299669","owner":"59631194@N06","secret":"95c28750b5","server":"65535","farm":66,"title":"Scissor-tailed flycatcher \/ Tirano tijereta rosado (Tyrannus forficatus)","ispublic":1,"isfriend":0,"isfamily":0},{"id":"51702436667","owner":"97599611@N04","secret":"471668769f","server":"65535","farm":66,"title":"0P7A9707   Scissor-tailed Flycatcher, outside of normal range, taken in Canada","ispublic":1,"isfriend":0,"isfamily":0},{"id":"51689853845","owner":"194341957@N06","secret":"7ed04eaef1","server":"65535","farm":66,"title":"scissor-tailed flycatcher","ispublic":1,"isfriend":0,"isfamily":0},{"id":"51689228708","owner":"194341957@N06","secret":"e96088a9eb","server":"65535","farm":66,"title":"scissor-tailed flycatcher","ispublic":1,"isfriend":0,"isfamily":0},{"id":"51677081961","owner":"136620261@N06","secret":"d3e57e20b1","server":"65535","farm":66,"title":"Tyran \u00e0 longue queue, Tyrannus forficatus, Scissor-tailed Flycatcher-8205.jpg","ispublic":1,"isfriend":0,"isfamily":0},{"id":"51676276927","owner":"136620261@N06","secret":"72c5cd77d8","server":"65535","farm":66,"title":"Tyran \u00e0 longue queue, Tyrannus forficatus, Scissor-tailed Flycatcher-8389-Edit.jpg","ispublic":1,"isfriend":0,"isfamily":0},{"id":"51677592294","owner":"129051288@N05","secret":"e74ca98c05","server":"65535","farm":66,"title":"Tyran \u00e0 longue queue, Tyrannus forficatus, Scissor-tailed Flycatcher","ispublic":1,"isfriend":0,"isfamily":0},{"id":"51672960823","owner":"129051288@N05","secret":"5ac0e30217","server":"65535","farm":66,"title":"Tyran \u00e0 longue queue, Tyrannus forficatus, Scissor-tailed Flycatcher","ispublic":1,"isfriend":0,"isfamily":0},{"id":"51668999458","owner":"97599611@N04","secret":"ec9da84a55","server":"65535","farm":66,"title":"0P7A9316   Scissor-tailed Flycatcher,  outside of its normal range","ispublic":1,"isfriend":0,"isfamily":0}]},"stat":"ok"}