{"photos":{"page":1,"pages":50,"perpage":100,"total":4962,"photo":[{"id":"52721826121","owner":"54100598@N08","secret":"014532347c","server":"65535","farm":66,"title":"Ringed Plover (Charadrius hiaticula)","ispublic":1,"isfriend":0,"isfamily":0},{"id":"52721826101","owner":"54100598@N08","secret":"d321854488","server":"65535","farm":66,"title":"Ringed Plover (Charadrius hiaticula)","ispublic":1,"isfriend":0,"isfamily":0},{"id":"52710865876","owner":"197742102@N05","secret":"2c606c4db6","server":"65535","farm":66,"title":"Gravelot (Pluvier) semipalm\u00e9 - Charadrius semipalmatus","ispublic":1,"isfriend":0,"isfamily":0},{"id":"52668690993","owner":"54100598@N08","secret":"fc657e8005","server":"65535","farm":66,"title":"Dunlin (Calidris alpina) & Ringed Plover (Charadrius hiaticula)","ispublic":1,"isfriend":0,"isfamily":0},{"id":"52668478124","owner":"54100598@N08","secret":"8a5fffe422","server":"65535","farm":66,"title":"Dunlin (Calidris alpina) & Ringed Plover (Charadrius hiaticula)","ispublic":1,"isfriend":0,"isfamily":0},{"id":"52661399220","owner":"12639178@N07","secret":"fe18c93cd3","server":"65535","farm":66,"title":"Der Zement der Mole ist schon warm","ispublic":1,"isfriend":0,"isfamily":0},{"id":"52660452962","owner":"12639178@N07","secret":"0e5ef0730c","server":"65535","farm":66,"title":"Sandregenpfeifer am Morgen","ispublic":1,"isfriend":0,"isfamily":0},{"id":"52661444953","owner":"12639178@N07","secret":"d720f73f9a","server":"65535","farm":66,"title":"Amerikanischer Sandregenpfeifer","ispublic":1,"isfriend":0,"isfamily":0},{"id":"52661444783","owner":"12639178@N07","secret":"14c376c054","server":"65535","farm":66,"title":"Einfliegende Sandregenpfeifer","ispublic":1,"isfriend":0,"isfamily":0},{"id":"52651605337","owner":"14734088@N02","secret":"929c202a32","server":"65535","farm":66,"title":"Pluvier semipalm\u00e9 210905H","ispublic":1,"isfriend":0,"isfamily":0},{"id":"52646078413","owner":"8013969@N03","secret":"4745938fca","server":"65535","farm":66,"title":"Charadrius semipalmatus DFL btr22-1","ispublic":1,"isfriend":0,"isfamily":0},{"id":"52645606306","owner":"8013969@N03","secret":"e65756a002","server":"65535","farm":66,"title":"Charadrius semipalmatus DFL btr22-2","ispublic":1,"isfriend":0,"isfamily":0},{"id":"52642579831","owner":"29494346@N03","secret":"542e5c8946","server":"65535","farm":66,"title":"Semipalmated Plover (Charadrius semipalmatus)","ispublic":1,"isfriend":0,"isfamily":0},{"id":"52639607845","owner":"47533293@N04","secret":"0ddb4a601c","server":"65535","farm":66,"title":"Semipalmated plover, Charadrius semipalmatus","ispublic":1,"isfriend":0,"isfamily":0},{"id":"52639257870","owner":"67164820@N06","secret":"32594be877","server":"65535","farm":66,"title":"semipalmated plover","ispublic":1,"isfriend":0,"isfamily":0},{"id":"52638596669","owner":"34238008@N02","secret":"3021771c54","server":"65535","farm":66,"title":"Semipalmated Plover (Charadrius semipalmatus)","ispublic":1,"isfriend":0,"isfamily":0},{"id":"52637827032","owner":"34238008@N02","secret":"e0b8f03e73","server":"65535","farm":66,"title":"Semipalmated Plover (Charadrius semipalmatus)","ispublic":1,"isfriend":0,"isfamily":0},{"id":"52638777665","owner":"34238008@N02","secret":"a5aeb1ce2b","server":"65535","farm":66,"title":"Semipalmated Plover (Charadrius semipalmatus)","ispublic":1,"isfriend":0,"isfamily":0},{"id":"52638339846","owner":"34238008@N02","secret":"b45cb3365f","server":"65535","farm":66,"title":"Semipalmated Plover (Charadrius semipalmatus)","ispublic":1,"isfriend":0,"isfamily":0},{"id":"52638596269","owner":"34238008@N02","secret":"8a0e3b6a63","server":"65535","farm":66,"title":"Semipalmated Plover (Charadrius semipalmatus)","ispublic":1,"isfriend":0,"isfamily":0},{"id":"52638777415","owner":"34238008@N02","secret":"9629680cdf","server":"65535","farm":66,"title":"Semipalmated Plover (Charadrius semipalmatus)","ispublic":1,"isfriend":0,"isfamily":0},{"id":"52637826607","owner":"34238008@N02","secret":"810f5fde86","server":"65535","farm":66,"title":"Semipalmated Plover (Charadrius semipalmatus)","ispublic":1,"isfriend":0,"isfamily":0},{"id":"52638817618","owner":"34238008@N02","secret":"251e91ba1a","server":"65535","farm":66,"title":"Semipalmated Plover (Charadrius semipalmatus)","ispublic":1,"isfriend":0,"isfamily":0},{"id":"52638595799","owner":"34238008@N02","secret":"3c2d620f6e","server":"65535","farm":66,"title":"Semipalmated Plover (Charadrius semipalmatus)","ispublic":1,"isfriend":0,"isfamily":0},{"id":"52638275743","owner":"8065544@N08","secret":"818dc9b8f6","server":"65535","farm":66,"title":"Semipalmated Plover (Charadrius semipalmatus)","ispublic":1,"isfriend":0,"isfamily":0},{"id":"52634769996","owner":"51433704@N06","secret":"3221892fb2","server":"65535","farm":66,"title":"Semipalmated Plover","ispublic":1,"isfriend":0,"isfamily":0},{"id":"52631296376","owner":"47533293@N04","secret":"2111564d85","server":"65535","farm":66,"title":"Semipalmated plover, Charadrius semipalmatus","ispublic":1,"isfriend":0,"isfamily":0},{"id":"52599809339","owner":"28845654@N08","secret":"7200899d4f","server":"65535","farm":66,"title":"SEMIPALMATED PLOVER 3","ispublic":1,"isfriend":0,"isfamily":0},{"id":"52586001292","owner":"28845654@N08","secret":"f02e0d67b1","server":"65535","farm":66,"title":"SEMIPALMATED PLOVER 2","ispublic":1,"isfriend":0,"isfamily":0},{"id":"52580684145","owner":"153973412@N04","secret":"62b80fa9cb","server":"65535","farm":66,"title":"Semipalmated Plover-Charadrius semipalmatus, Plum Island, MA","ispublic":1,"isfriend":0,"isfamily":0},{"id":"52573115838","owner":"28845654@N08","secret":"605f93e7c3","server":"65535","farm":66,"title":"SEMIPALMATED PLOVER 1","ispublic":1,"isfriend":0,"isfamily":0},{"id":"52565002812","owner":"28867468@N08","secret":"c5abf0bd36","server":"65535","farm":66,"title":"Semipalmated Plovers Hunkering Amid the Kelp","ispublic":1,"isfriend":0,"isfamily":0},{"id":"52544265546","owner":"125328245@N08","secret":"1336cf9464","server":"65535","farm":66,"title":"Borrelho-semipalmado; Semipalmated Plover (Charadrius semipalmatus)","ispublic":1,"isfriend":0,"isfamily":0},{"id":"52540350861","owner":"62501256@N05","secret":"22553d9f3c","server":"65535","farm":66,"title":"Semipalmated Plover (Charadrius semipalmatus) winter.","ispublic":1,"isfriend":0,"isfamily":0},{"id":"52529740126","owner":"193483104@N04","secret":"ca0cf41d05","server":"65535","farm":66,"title":"Semipalmated Plover (Charadrius semipalmatus)","ispublic":1,"isfriend":0,"isfamily":0},{"id":"52529118479","owner":"92361032@N05","secret":"db8cf301ec","server":"65535","farm":66,"title":"Semipalmated Plover","ispublic":1,"isfriend":0,"isfamily":0},{"id":"52525739690","owner":"11803211@N06","secret":"88d4480ef0","server":"65535","farm":66,"title":"Semipalmated plover (Charadrius semipalmatus), Fort DeSoto, Florida","ispublic":1,"isfriend":0,"isfamily":0},{"id":"52508870096","owner":"62501256@N05","secret":"da5b134331","server":"65535","farm":66,"title":"Semipalmated Plover (Charadrius semipalmatus) winter.","ispublic":1,"isfriend":0,"isfamily":0},{"id":"52509134094","owner":"62501256@N05","secret":"88ee51b19c","server":"65535","farm":66,"title":"Semipalmated Plover (Charadrius semipalmatus) winter","ispublic":1,"isfriend":0,"isfamily":0},{"id":"52508858156","owner":"62501256@N05","secret":"6d080ab24a","server":"65535","farm":66,"title":"Semipalmated Plover (Charadrius semipalmatus) winter","ispublic":1,"isfriend":0,"isfamily":0},{"id":"52488972704","owner":"140734051@N08","secret":"677d2c36c0","server":"65535","farm":66,"title":"\u041f\u0435\u0440\u0435\u043f\u043e\u043d\u0447\u0430\u0442\u043e\u043f\u0430\u043b\u044b\u0439 \u0433\u0430\u043b\u0441\u0442\u0443\u0447\u043d\u0438\u043a, Charadrius semipalmatus, Semipalmated Plover","ispublic":1,"isfriend":0,"isfamily":0},{"id":"52488200907","owner":"140734051@N08","secret":"6e3ac57384","server":"65535","farm":66,"title":"\u041f\u0435\u0440\u0435\u043f\u043e\u043d\u0447\u0430\u0442\u043e\u043f\u0430\u043b\u044b\u0439 \u0433\u0430\u043b\u0441\u0442\u0443\u0447\u043d\u0438\u043a, Charadrius semipalmatus, Semipalmated Plover","ispublic":1,"isfriend":0,"isfamily":0},{"id":"52489162920","owner":"140734051@N08","secret":"001037453d","server":"65535","farm":66,"title":"\u041f\u0435\u0440\u0435\u043f\u043e\u043d\u0447\u0430\u0442\u043e\u043f\u0430\u043b\u044b\u0439 \u0433\u0430\u043b\u0441\u0442\u0443\u0447\u043d\u0438\u043a, Charadrius semipalmatus, Semipalmated Plover","ispublic":1,"isfriend":0,"isfamily":0},{"id":"52488972374","owner":"140734051@N08","secret":"0245403084","server":"65535","farm":66,"title":"\u041f\u0435\u0440\u0435\u043f\u043e\u043d\u0447\u0430\u0442\u043e\u043f\u0430\u043b\u044b\u0439 \u0433\u0430\u043b\u0441\u0442\u0443\u0447\u043d\u0438\u043a, Charadrius semipalmatus, Semipalmated Plover","ispublic":1,"isfriend":0,"isfamily":0},{"id":"52489162160","owner":"140734051@N08","secret":"36af455272","server":"65535","farm":66,"title":"\u041f\u0435\u0440\u0435\u043f\u043e\u043d\u0447\u0430\u0442\u043e\u043f\u0430\u043b\u044b\u0439 \u0433\u0430\u043b\u0441\u0442\u0443\u0447\u043d\u0438\u043a, Charadrius semipalmatus, Semipalmated Plover","ispublic":1,"isfriend":0,"isfamily":0},{"id":"52488691091","owner":"140734051@N08","secret":"f965475380","server":"65535","farm":66,"title":"\u041f\u0435\u0440\u0435\u043f\u043e\u043d\u0447\u0430\u0442\u043e\u043f\u0430\u043b\u044b\u0439 \u0433\u0430\u043b\u0441\u0442\u0443\u0447\u043d\u0438\u043a, Charadrius semipalmatus, Semipalmated Plover","ispublic":1,"isfriend":0,"isfamily":0},{"id":"52488690911","owner":"140734051@N08","secret":"cafb3c58de","server":"65535","farm":66,"title":"\u041f\u0435\u0440\u0435\u043f\u043e\u043d\u0447\u0430\u0442\u043e\u043f\u0430\u043b\u044b\u0439 \u0433\u0430\u043b\u0441\u0442\u0443\u0447\u043d\u0438\u043a, Charadrius semipalmatus, Semipalmated Plover","ispublic":1,"isfriend":0,"isfamily":0},{"id":"52489161235","owner":"140734051@N08","secret":"0eac094172","server":"65535","farm":66,"title":"\u041f\u0435\u0440\u0435\u043f\u043e\u043d\u0447\u0430\u0442\u043e\u043f\u0430\u043b\u044b\u0439 \u0433\u0430\u043b\u0441\u0442\u0443\u0447\u043d\u0438\u043a, Charadrius semipalmatus, Semipalmated Plover","ispublic":1,"isfriend":0,"isfamily":0},{"id":"52489243808","owner":"140734051@N08","secret":"21a21e1485","server":"65535","farm":66,"title":"\u041f\u0435\u0440\u0435\u043f\u043e\u043d\u0447\u0430\u0442\u043e\u043f\u0430\u043b\u044b\u0439 \u0433\u0430\u043b\u0441\u0442\u0443\u0447\u043d\u0438\u043a, Charadrius semipalmatus, Semipalmated Plover","ispublic":1,"isfriend":0,"isfamily":0},{"id":"52488199117","owner":"140734051@N08","secret":"c3afe4483b","server":"65535","farm":66,"title":"\u041f\u0435\u0440\u0435\u043f\u043e\u043d\u0447\u0430\u0442\u043e\u043f\u0430\u043b\u044b\u0439 \u0433\u0430\u043b\u0441\u0442\u0443\u0447\u043d\u0438\u043a, Charadrius semipalmatus, Semipalmated Plover","ispublic":1,"isfriend":0,"isfamily":0},{"id":"52488198887","owner":"140734051@N08","secret":"281ae38793","server":"65535","farm":66,"title":"\u041f\u0435\u0440\u0435\u043f\u043e\u043d\u0447\u0430\u0442\u043e\u043f\u0430\u043b\u044b\u0439 \u0433\u0430\u043b\u0441\u0442\u0443\u0447\u043d\u0438\u043a, Charadrius semipalmatus, Semipalmated Plover","ispublic":1,"isfriend":0,"isfamily":0},{"id":"52489242878","owner":"140734051@N08","secret":"2017368370","server":"65535","farm":66,"title":"\u041f\u0435\u0440\u0435\u043f\u043e\u043d\u0447\u0430\u0442\u043e\u043f\u0430\u043b\u044b\u0439 \u0433\u0430\u043b\u0441\u0442\u0443\u0447\u043d\u0438\u043a, Charadrius semipalmatus, Semipalmated Plover","ispublic":1,"isfriend":0,"isfamily":0},{"id":"52488198207","owner":"140734051@N08","secret":"6835bb2d72","server":"65535","farm":66,"title":"\u041f\u0435\u0440\u0435\u043f\u043e\u043d\u0447\u0430\u0442\u043e\u043f\u0430\u043b\u044b\u0439 \u0433\u0430\u043b\u0441\u0442\u0443\u0447\u043d\u0438\u043a, Charadrius semipalmatus, Semipalmated Plover","ispublic":1,"isfriend":0,"isfamily":0},{"id":"52484873971","owner":"190923251@N05","secret":"d68ee929e0","server":"65535","farm":66,"title":"Snowy Plover with food","ispublic":1,"isfriend":0,"isfamily":0},{"id":"52473474644","owner":"77931884@N00","secret":"1cd403355a","server":"65535","farm":66,"title":"Semipalmated Plovers","ispublic":1,"isfriend":0,"isfamily":0},{"id":"52469931014","owner":"124995824@N08","secret":"3b717a2555","server":"65535","farm":66,"title":"Semipalmated Plover - Charadrius semipalmatus","ispublic":1,"isfriend":0,"isfamily":0},{"id":"52451296389","owner":"32665930@N04","secret":"1b7f266e09","server":"65535","farm":66,"title":"Semipalmated Plover","ispublic":1,"isfriend":0,"isfamily":0},{"id":"52438036045","owner":"127461478@N08","secret":"2f7295f3a8","server":"65535","farm":66,"title":"IMG_6142 Pluvier semipalm\u00e9, Les Escoumins","ispublic":1,"isfriend":0,"isfamily":0},{"id":"52438035045","owner":"127461478@N08","secret":"2070b8a224","server":"65535","farm":66,"title":"IMG_6135 Pluvier semipalm\u00e9, Les Escoumins","ispublic":1,"isfriend":0,"isfamily":0},{"id":"52437072562","owner":"127461478@N08","secret":"670f1e1e91","server":"65535","farm":66,"title":"IMG_6121 Pluvier semipalm\u00e9, Les Escoumins","ispublic":1,"isfriend":0,"isfamily":0},{"id":"52437575936","owner":"127461478@N08","secret":"aebc777a2f","server":"65535","farm":66,"title":"IMG_6091 Pluvier semipalm\u00e9, Les Escoumins","ispublic":1,"isfriend":0,"isfamily":0},{"id":"52437070282","owner":"127461478@N08","secret":"c9a603681e","server":"65535","farm":66,"title":"IMG_6090 Pluvier semipalm\u00e9, Les Escoumins","ispublic":1,"isfriend":0,"isfamily":0},{"id":"52431091417","owner":"129051288@N05","secret":"0ae4c222d6","server":"65535","farm":66,"title":"Pluvier semipalm\u00e9, Charadrius semipalmatus, Semipalmated Plover","ispublic":1,"isfriend":0,"isfamily":0},{"id":"52430360261","owner":"62119764@N08","secret":"56621e2e48","server":"65535","farm":66,"title":"Semipalmated Plover | Charadrius semipalmatus | Pluvier semipalm\u00e9","ispublic":1,"isfriend":0,"isfamily":0},{"id":"52427729031","owner":"196264892@N08","secret":"6e8355dcf4","server":"65535","farm":66,"title":"Semipalmated Plover","ispublic":1,"isfriend":0,"isfamily":0},{"id":"52428182940","owner":"196264892@N08","secret":"6f266507af","server":"65535","farm":66,"title":"Semipalmated Plover","ispublic":1,"isfriend":0,"isfamily":0},{"id":"52427224382","owner":"196264892@N08","secret":"aa867f20fc","server":"65535","farm":66,"title":"Semipalmated Plover","ispublic":1,"isfriend":0,"isfamily":0},{"id":"52427728321","owner":"196264892@N08","secret":"dacfcf2cc0","server":"65535","farm":66,"title":"Semipalmated Plover","ispublic":1,"isfriend":0,"isfamily":0},{"id":"52428246128","owner":"196264892@N08","secret":"d9102823e7","server":"65535","farm":66,"title":"Semipalmated Plover","ispublic":1,"isfriend":0,"isfamily":0},{"id":"52428181970","owner":"196264892@N08","secret":"5cb276ffde","server":"65535","farm":66,"title":"Semipalmated Plover","ispublic":1,"isfriend":0,"isfamily":0},{"id":"52401101612","owner":"96713629@N03","secret":"278c648d81","server":"65535","farm":66,"title":"Amerikaanse bontbekplevier - Semipalmated Plover (Charadrius semipalmatus Bonaparte)-250_3020","ispublic":1,"isfriend":0,"isfamily":0},{"id":"52397116757","owner":"188906290@N06","secret":"4f0b6eb7e1","server":"65535","farm":66,"title":"Pluvier semipalm\u00e9  (Semipalmated plover - Charadrius semipalmatus)","ispublic":1,"isfriend":0,"isfamily":0},{"id":"52396852080","owner":"168495655@N07","secret":"c3b441deea","server":"65535","farm":66,"title":"Pluvier semipalm\u00e9 - Charadrius semipalmatus - Semipalmated Plover","ispublic":1,"isfriend":0,"isfamily":0},{"id":"52389444614","owner":"90886369@N06","secret":"446feebdbf","server":"65535","farm":66,"title":"Semipalmated Plover (Charadrius semipalmatus)","ispublic":1,"isfriend":0,"isfamily":0},{"id":"52386549963","owner":"67951746@N02","secret":"ba3f587bf1","server":"65535","farm":66,"title":"Charadrius semipalmatus  | Batu\u00edra-de-bando | Semipalmated Plover","ispublic":1,"isfriend":0,"isfamily":0},{"id":"52386037815","owner":"145466593@N08","secret":"ab031afa20","server":"65535","farm":66,"title":"Semipalmated Plover","ispublic":1,"isfriend":0,"isfamily":0},{"id":"52382999137","owner":"131708321@N02","secret":"401079bd4d","server":"65535","farm":66,"title":"Semipalmated Plover (Charadrius semipalmatus), Bocas del Toro, Panama","ispublic":1,"isfriend":0,"isfamily":0},{"id":"52381042247","owner":"150919437@N06","secret":"611eed481f","server":"65535","farm":66,"title":"Semipalmated Plover (Charadrius semipalmatus), Black Island, RI","ispublic":1,"isfriend":0,"isfamily":0},{"id":"52381393088","owner":"150374485@N05","secret":"cd352fa98c","server":"65535","farm":66,"title":"Pluvier semipalm\u00e9 plumage hivernal--Semipalmated Plover in winter plumage(Charadrius semipalmatus)","ispublic":1,"isfriend":0,"isfamily":0},{"id":"52644211997","owner":"8013969@N03","secret":"b3fd091926","server":"65535","farm":66,"title":"Charadrius semipalmatus DFL nj22-1","ispublic":1,"isfriend":0,"isfamily":0},{"id":"52640897225","owner":"47533293@N04","secret":"5e7b91af66","server":"65535","farm":66,"title":"Semipalmated plover, Charadrius semipalmatus","ispublic":1,"isfriend":0,"isfamily":0},{"id":"52488198517","owner":"140734051@N08","secret":"24a4daa438","server":"65535","farm":66,"title":"\u041f\u0435\u0440\u0435\u043f\u043e\u043d\u0447\u0430\u0442\u043e\u043f\u0430\u043b\u044b\u0439 \u0433\u0430\u043b\u0441\u0442\u0443\u0447\u043d\u0438\u043a, Charadrius semipalmatus, Semipalmated Plover","ispublic":1,"isfriend":0,"isfamily":0},{"id":"52487161917","owner":"44034115@N08","secret":"d11a88db85","server":"65535","farm":66,"title":"Passing Semipalmated Plovers","ispublic":1,"isfriend":0,"isfamily":0},{"id":"52482073342","owner":"41694014@N04","secret":"7d7024b1c6","server":"65535","farm":66,"title":"Charadrius semipalmatus","ispublic":1,"isfriend":0,"isfamily":0},{"id":"52465606767","owner":"37493716@N02","secret":"cf6d182ea7","server":"65535","farm":66,"title":"Semipalmated Plover - Charadrius semipalmatus . Octubre 5 -2022 . Juan Calos Luna  (2)","ispublic":1,"isfriend":0,"isfamily":0},{"id":"52466568340","owner":"37493716@N02","secret":"69d8a8514d","server":"65535","farm":66,"title":"Semipalmated Plover - Charadrius semipalmatus . Octubre 5 -2022 . Juan Calos Luna  (3)","ispublic":1,"isfriend":0,"isfamily":0},{"id":"52466388504","owner":"37493716@N02","secret":"588a643102","server":"65535","farm":66,"title":"Semipalmated Plover - Charadrius semipalmatus . Octubre 5 -2022 . Juan Calos Luna  (4)","ispublic":1,"isfriend":0,"isfamily":0},{"id":"52466568095","owner":"37493716@N02","secret":"e0cdd123dd","server":"65535","farm":66,"title":"Semipalmated Plover - Charadrius semipalmatus . Octubre 5 -2022 . Juan Calos Luna  (5)","ispublic":1,"isfriend":0,"isfamily":0},{"id":"52437854414","owner":"127461478@N08","secret":"3795bb693e","server":"65535","farm":66,"title":"IMG_6127 Pluvier semipalm\u00e9, Les Escoumins","ispublic":1,"isfriend":0,"isfamily":0},{"id":"52437851534","owner":"127461478@N08","secret":"28a2a43a0c","server":"65535","farm":66,"title":"IMG_6086 Pluvier semipalm\u00e9, Les Escoumins","ispublic":1,"isfriend":0,"isfamily":0},{"id":"52434851541","owner":"51433704@N06","secret":"14d845f2aa","server":"65535","farm":66,"title":"Semipalmated Plover","ispublic":1,"isfriend":0,"isfamily":0},{"id":"52428353547","owner":"77128742@N06","secret":"cf9731fe49","server":"65535","farm":66,"title":"Amerikanischer Sandregenpfeifer_Charadrius semipalmatus-33","ispublic":1,"isfriend":0,"isfamily":0},{"id":"52429374853","owner":"77128742@N06","secret":"f57040879d","server":"65535","farm":66,"title":"Amerikanischer Sandregenpfeifer_Charadrius semipalmatus-36","ispublic":1,"isfriend":0,"isfamily":0},{"id":"52427245467","owner":"196264892@N08","secret":"f5a801ff8b","server":"65535","farm":66,"title":"Least Sandpiper and Semipalmated Plover","ispublic":1,"isfriend":0,"isfamily":0},{"id":"52428267788","owner":"196264892@N08","secret":"9d940871c6","server":"65535","farm":66,"title":"Least Sandpiper and Semipalmated Plover","ispublic":1,"isfriend":0,"isfamily":0},{"id":"52417946252","owner":"150919437@N06","secret":"9ff594be5e","server":"65535","farm":66,"title":"Semipalmated Plover (Charadrius semipalmatus), Little Compton, RI","ispublic":1,"isfriend":0,"isfamily":0},{"id":"52418897490","owner":"150919437@N06","secret":"740df29b86","server":"65535","farm":66,"title":"Semipalmated Plover (Charadrius semipalmatus), Little Compton, RI","ispublic":1,"isfriend":0,"isfamily":0},{"id":"52415511485","owner":"84169650@N07","secret":"57317d799b","server":"65535","farm":66,"title":"Semipalmated Plover","ispublic":1,"isfriend":0,"isfamily":0},{"id":"52399640995","owner":"196602226@N05","secret":"fc38fd4117","server":"65535","farm":66,"title":"Gravelot semipalm\u00e9 (Charadrius semipalmatus)","ispublic":1,"isfriend":0,"isfamily":0},{"id":"52380020296","owner":"62043870@N05","secret":"61519e21fa","server":"65535","farm":66,"title":"Semipalmated Plover, Charadrius semipalmatus","ispublic":1,"isfriend":0,"isfamily":0}]},"stat":"ok"}