{"photos":{"page":1,"pages":39,"perpage":100,"total":3821,"photo":[{"id":"52791356777","owner":"47020313@N08","secret":"658811fddb","server":"65535","farm":66,"title":"Sharp shinned Hawk_MG_6585 edtsg","ispublic":1,"isfriend":0,"isfamily":0},{"id":"52786163873","owner":"187124972@N03","secret":"7f1a0c96e6","server":"65535","farm":66,"title":"\u00c9PERVIER BRUN \/ SHARP-SHINNED HAWK (Accipiter striatus)","ispublic":1,"isfriend":0,"isfamily":0},{"id":"52786109970","owner":"187124972@N03","secret":"8f80c3b77b","server":"65535","farm":66,"title":"\u00c9PERVIER BRUN \/ SHARP-SHINNED HAWK (Accipiter striatus)","ispublic":1,"isfriend":0,"isfamily":0},{"id":"52785073394","owner":"62043870@N05","secret":"092d8dcdc9","server":"65535","farm":66,"title":"Sharp-shinned Hawk, Accipiter striatus","ispublic":1,"isfriend":0,"isfamily":0},{"id":"52782762128","owner":"40445678@N00","secret":"b393e49a93","server":"65535","farm":66,"title":"Blue Rare","ispublic":1,"isfriend":0,"isfamily":0},{"id":"52782496574","owner":"40445678@N00","secret":"fa4d0dac9b","server":"65535","farm":66,"title":"Murder Most Foul","ispublic":1,"isfriend":0,"isfamily":0},{"id":"52781381516","owner":"35237098346@N01","secret":"ae2c977cf8","server":"65535","farm":66,"title":"Sharp-shinned Hawk (Accipiter striatus)","ispublic":1,"isfriend":0,"isfamily":0},{"id":"52772621460","owner":"34238008@N02","secret":"be99cd0529","server":"65535","farm":66,"title":"Sharp-shinned Hawk (Accipiter striatus)","ispublic":1,"isfriend":0,"isfamily":0},{"id":"52772621250","owner":"34238008@N02","secret":"5e96e6177b","server":"65535","farm":66,"title":"Sharp-shinned Hawk (Accipiter striatus)","ispublic":1,"isfriend":0,"isfamily":0},{"id":"52772464519","owner":"34238008@N02","secret":"00ded658c0","server":"65535","farm":66,"title":"Sharp-shinned Hawk (Accipiter striatus)","ispublic":1,"isfriend":0,"isfamily":0},{"id":"52772620795","owner":"34238008@N02","secret":"b638d614d0","server":"65535","farm":66,"title":"Sharp-shinned Hawk (Accipiter striatus)","ispublic":1,"isfriend":0,"isfamily":0},{"id":"52772692213","owner":"34238008@N02","secret":"9a07c57905","server":"65535","farm":66,"title":"Sharp-shinned Hawk (Accipiter striatus)","ispublic":1,"isfriend":0,"isfamily":0},{"id":"52764245668","owner":"165841515@N03","secret":"5b23a74cdb","server":"65535","farm":66,"title":"\u00c9pervier brun \/ Sharp-shinned Hawk) \/ (Accipiter striatus)","ispublic":1,"isfriend":0,"isfamily":0},{"id":"52763758456","owner":"165841515@N03","secret":"fb56cfd534","server":"65535","farm":66,"title":"\u00c9pervier brun \/ Sharp-shinned Hawk) \/ (Accipiter striatus)","ispublic":1,"isfriend":0,"isfamily":0},{"id":"52757558290","owner":"24608578@N00","secret":"5846ac577d","server":"65535","farm":66,"title":"Sharp-shinned hawk (Accipiter striatus)","ispublic":1,"isfriend":0,"isfamily":0},{"id":"52757398724","owner":"24608578@N00","secret":"58bd4554a7","server":"65535","farm":66,"title":"Sharp-shinned hawk (Accipiter striatus)","ispublic":1,"isfriend":0,"isfamily":0},{"id":"52757151151","owner":"24608578@N00","secret":"2525f40f94","server":"65535","farm":66,"title":"Sharp-shinned hawk (Accipiter striatus)","ispublic":1,"isfriend":0,"isfamily":0},{"id":"52757398569","owner":"24608578@N00","secret":"a687600293","server":"65535","farm":66,"title":"Sharp-shinned hawk (Accipiter striatus)","ispublic":1,"isfriend":0,"isfamily":0},{"id":"52757398454","owner":"24608578@N00","secret":"5306040484","server":"65535","farm":66,"title":"Sharp-shinned hawk (Accipiter striatus)","ispublic":1,"isfriend":0,"isfamily":0},{"id":"52749224347","owner":"194898457@N02","secret":"d1d7274634","server":"65535","farm":66,"title":"Hawk","ispublic":1,"isfriend":0,"isfamily":0},{"id":"52748099820","owner":"11295713@N00","secret":"b6757097ec","server":"65535","farm":66,"title":"Sharp-shinned Hawk (Accipiter striatus) on Dogwood Limb","ispublic":1,"isfriend":0,"isfamily":0},{"id":"52745233117","owner":"11295713@N00","secret":"4314b072b7","server":"65535","farm":66,"title":"The Eyes: Sharp-shinned Hawk (Accipiter striatus)","ispublic":1,"isfriend":0,"isfamily":0},{"id":"52736813932","owner":"31137609@N08","secret":"f95c7cbd29","server":"65535","farm":66,"title":"Sharp-shinned hawk (Accipiter striatus)","ispublic":1,"isfriend":0,"isfamily":0},{"id":"52728290897","owner":"28631427@N00","secret":"7e93e209be","server":"65535","farm":66,"title":"Sharp-shinned Hawk","ispublic":1,"isfriend":0,"isfamily":0},{"id":"52722836728","owner":"99849996@N00","secret":"cfd1d156f0","server":"65535","farm":66,"title":"Sharp-shinned Hawk 20220212_0482","ispublic":1,"isfriend":0,"isfamily":0},{"id":"52719645840","owner":"45340210@N05","secret":"15396caeb7","server":"65535","farm":66,"title":"Sharpie 2_28_23","ispublic":1,"isfriend":0,"isfamily":0},{"id":"52714627201","owner":"80454089@N00","secret":"140db69551","server":"65535","farm":66,"title":"Cooper\u2019s Hawk","ispublic":1,"isfriend":0,"isfamily":0},{"id":"52712795343","owner":"127461478@N08","secret":"cf7c687ea9","server":"65535","farm":66,"title":"IMG_8629 \u00c9pervier brun, Roberval","ispublic":1,"isfriend":0,"isfamily":0},{"id":"52711797062","owner":"127461478@N08","secret":"d735f00d84","server":"65535","farm":66,"title":"IMG_8625 \u00c9pervier brun, Roberval","ispublic":1,"isfriend":0,"isfamily":0},{"id":"52712578979","owner":"127461478@N08","secret":"4e959ba443","server":"65535","farm":66,"title":"IMG_8619 \u00c9pervier brun, Roberval","ispublic":1,"isfriend":0,"isfamily":0},{"id":"52711744331","owner":"103722035@N06","secret":"75d10f0bc9","server":"0","farm":0,"title":"Sharp-shinned Hawk (Accipiter striatus), San Simeon, CA","ispublic":1,"isfriend":0,"isfamily":0},{"id":"52707237107","owner":"139237357@N06","secret":"3a874f707a","server":"65535","farm":66,"title":"Sharp-shinned Hawk","ispublic":1,"isfriend":0,"isfamily":0},{"id":"52707236992","owner":"139237357@N06","secret":"5e1d9cacda","server":"65535","farm":66,"title":"Sharp-shinned Hawk","ispublic":1,"isfriend":0,"isfamily":0},{"id":"52691948509","owner":"88144811@N03","secret":"bdf4d60e33","server":"65535","farm":66,"title":"Sharp-shinned Hawk (Accipiter striatus)","ispublic":1,"isfriend":0,"isfamily":0},{"id":"52691948039","owner":"88144811@N03","secret":"d9209686da","server":"65535","farm":66,"title":"Sharp-shinned Hawk (Accipiter striatus)","ispublic":1,"isfriend":0,"isfamily":0},{"id":"52687531856","owner":"127461478@N08","secret":"16af3fec05","server":"65535","farm":66,"title":"IMG_8564 \u00c9pervier brun, Roberval","ispublic":1,"isfriend":0,"isfamily":0},{"id":"52687809094","owner":"127461478@N08","secret":"75f8d4d24d","server":"65535","farm":66,"title":"IMG_8561 \u00c9pervier brun, Roberval","ispublic":1,"isfriend":0,"isfamily":0},{"id":"52682888525","owner":"89536386@N08","secret":"6fda964f39","server":"65535","farm":66,"title":"Sharp-shinned Hawk with lunch","ispublic":1,"isfriend":0,"isfamily":0},{"id":"52680495207","owner":"45340210@N05","secret":"576edfd423","server":"65535","farm":66,"title":"Sharpie 1 2_9-23","ispublic":1,"isfriend":0,"isfamily":0},{"id":"52676861531","owner":"10665268@N04","secret":"41d33d031b","server":"65535","farm":66,"title":"Sharp-shinned Hawk, Multnomah Co., OR_7665(1)","ispublic":1,"isfriend":0,"isfamily":0},{"id":"52676349217","owner":"10665268@N04","secret":"8988663f6c","server":"65535","farm":66,"title":"Sharp-shinned Hawk, Multnomah Co., OR_7689(1)","ispublic":1,"isfriend":0,"isfamily":0},{"id":"52674088039","owner":"69947563@N07","secret":"bfce9bd023","server":"65535","farm":66,"title":"Sharp-shinned (Plain-breasted) Hawk - San Vicente de Chucur\u00ed, Santander, Colombia","ispublic":1,"isfriend":0,"isfamily":0},{"id":"52669629176","owner":"62043870@N05","secret":"15edee4ccf","server":"65535","farm":66,"title":"Sharp-shinned Hawk, Accipiter striatus","ispublic":1,"isfriend":0,"isfamily":0},{"id":"52669917824","owner":"62043870@N05","secret":"399e79cbd8","server":"65535","farm":66,"title":"Sharp-shinned Hawk, Accipiter striatus","ispublic":1,"isfriend":0,"isfamily":0},{"id":"52668965123","owner":"139237357@N06","secret":"04ceac7157","server":"65535","farm":66,"title":"Sharp-shinned Hawk","ispublic":1,"isfriend":0,"isfamily":0},{"id":"52668736093","owner":"34238008@N02","secret":"f91515e7ba","server":"65535","farm":66,"title":"Sharp-shinned Hawk (Accipiter striatus)","ispublic":1,"isfriend":0,"isfamily":0},{"id":"52668522199","owner":"34238008@N02","secret":"ff338dd5bd","server":"65535","farm":66,"title":"Sharp-shinned Hawk (Accipiter striatus)","ispublic":1,"isfriend":0,"isfamily":0},{"id":"52668735818","owner":"34238008@N02","secret":"98d137b148","server":"65535","farm":66,"title":"Sharp-shinned Hawk (Accipiter striatus)","ispublic":1,"isfriend":0,"isfamily":0},{"id":"52667781494","owner":"119468907@N03","secret":"3150472e63","server":"65535","farm":66,"title":"E\u0301pervier brun_R5DJ5589","ispublic":1,"isfriend":0,"isfamily":0},{"id":"52671444403","owner":"119468907@N03","secret":"0150699200","server":"0","farm":0,"title":"E\u0301pervier brun_5519","ispublic":1,"isfriend":0,"isfamily":0},{"id":"52664339013","owner":"99849996@N00","secret":"19c1a8b3b0","server":"65535","farm":66,"title":"Sharp-shinned Hawk 20211214_3902","ispublic":1,"isfriend":0,"isfamily":0},{"id":"52658757537","owner":"79262651@N00","secret":"6a714ba5c1","server":"65535","farm":66,"title":"Sharp-shinned Hawk","ispublic":1,"isfriend":0,"isfamily":0},{"id":"52653424400","owner":"89536386@N08","secret":"c7b6f2238c","server":"65535","farm":66,"title":"Sharpie with Prey","ispublic":1,"isfriend":0,"isfamily":0},{"id":"52645867074","owner":"194898457@N02","secret":"2663da12d0","server":"65535","farm":66,"title":"Juvenile Sharp-shinned Hawk (Accipiter striatus)","ispublic":1,"isfriend":0,"isfamily":0},{"id":"52643646885","owner":"8013969@N03","secret":"61785bfc82","server":"65535","farm":66,"title":"Accipiter striatus DFL btr22-2","ispublic":1,"isfriend":0,"isfamily":0},{"id":"52643206916","owner":"8013969@N03","secret":"2a90d6153c","server":"65535","farm":66,"title":"Accipiter striatus DFL btr22-3","ispublic":1,"isfriend":0,"isfamily":0},{"id":"52643646340","owner":"8013969@N03","secret":"10ee81c124","server":"65535","farm":66,"title":"Accipiter striatus DFL btr22-4","ispublic":1,"isfriend":0,"isfamily":0},{"id":"52643645735","owner":"8013969@N03","secret":"12e12d3571","server":"65535","farm":66,"title":"Accipiter striatus DFL btr22-6","ispublic":1,"isfriend":0,"isfamily":0},{"id":"52643678723","owner":"8013969@N03","secret":"13926e3199","server":"65535","farm":66,"title":"Accipiter striatus DFL btr22-7","ispublic":1,"isfriend":0,"isfamily":0},{"id":"52639444513","owner":"187792860@N04","secret":"75542eac99","server":"65535","farm":66,"title":"Sharp-shinned Hawk (Accipiter striatus),","ispublic":1,"isfriend":0,"isfamily":0},{"id":"52612857952","owner":"139237357@N06","secret":"63eb9a400d","server":"65535","farm":66,"title":"Sharp-shinned Hawk","ispublic":1,"isfriend":0,"isfamily":0},{"id":"52613790010","owner":"139237357@N06","secret":"6d9ec1eb3d","server":"65535","farm":66,"title":"Sharp-shinned Hawk","ispublic":1,"isfriend":0,"isfamily":0},{"id":"52613625139","owner":"139237357@N06","secret":"7d3120a7ce","server":"65535","farm":66,"title":"Sharp-shinned Hawk","ispublic":1,"isfriend":0,"isfamily":0},{"id":"52596806169","owner":"128537732@N06","secret":"534d4f13d0","server":"65535","farm":66,"title":"Sharp-shinned Hawk (Accipiter striatus)","ispublic":1,"isfriend":0,"isfamily":0},{"id":"52595927582","owner":"37242840@N07","secret":"9d0cf2318b","server":"65535","farm":66,"title":"Sharp-shinned Hawk, Accipiter striatus","ispublic":1,"isfriend":0,"isfamily":0},{"id":"52591509556","owner":"79097894@N04","secret":"950394d9b8","server":"65535","farm":66,"title":"Sharp-shinned Hawk","ispublic":1,"isfriend":0,"isfamily":0},{"id":"52589466002","owner":"59779711@N05","secret":"009b8d7f56","server":"65535","farm":66,"title":"Portrait of a Sharp-shinned","ispublic":1,"isfriend":0,"isfamily":0},{"id":"52587675172","owner":"136620261@N06","secret":"c01c3bfd6f","server":"65535","farm":66,"title":"\u00c9pervier brun, Accipiter striatus, Sharp-shinned Hawk-2864.jpg","ispublic":1,"isfriend":0,"isfamily":0},{"id":"52578835140","owner":"59631194@N06","secret":"5d5eee8d78","server":"65535","farm":66,"title":"Sharp-shinned hawk (Accipiter striatus)","ispublic":1,"isfriend":0,"isfamily":0},{"id":"52551775392","owner":"120449047@N06","secret":"9e16f5193d","server":"65535","farm":66,"title":"Sharp-shinned Hawk","ispublic":1,"isfriend":0,"isfamily":0},{"id":"52544632194","owner":"34238008@N02","secret":"0386663979","server":"65535","farm":66,"title":"Sharp-shinned Hawk (Accipiter striatus)","ispublic":1,"isfriend":0,"isfamily":0},{"id":"52544632029","owner":"34238008@N02","secret":"29935a7f29","server":"65535","farm":66,"title":"Sharp-shinned Hawk (Accipiter striatus)","ispublic":1,"isfriend":0,"isfamily":0},{"id":"52544336121","owner":"34238008@N02","secret":"f29341df77","server":"65535","farm":66,"title":"Sharp-shinned Hawk (Accipiter striatus)","ispublic":1,"isfriend":0,"isfamily":0},{"id":"52544884423","owner":"34238008@N02","secret":"12f4c3e12a","server":"65535","farm":66,"title":"Sharp-shinned Hawk (Accipiter striatus)","ispublic":1,"isfriend":0,"isfamily":0},{"id":"52544816835","owner":"34238008@N02","secret":"29b2b7a258","server":"65535","farm":66,"title":"Sharp-shinned Hawk (Accipiter striatus)","ispublic":1,"isfriend":0,"isfamily":0},{"id":"52543873932","owner":"34238008@N02","secret":"3c61531982","server":"65535","farm":66,"title":"Sharp-shinned Hawk (Accipiter striatus)","ispublic":1,"isfriend":0,"isfamily":0},{"id":"52544883703","owner":"34238008@N02","secret":"27c946aac4","server":"65535","farm":66,"title":"Sharp-shinned Hawk (Accipiter striatus)","ispublic":1,"isfriend":0,"isfamily":0},{"id":"52542998847","owner":"33610210@N05","secret":"53c4fccd68","server":"65535","farm":66,"title":"Sharp-shinned Hawk, Accipiter striatus","ispublic":1,"isfriend":0,"isfamily":0},{"id":"52543943870","owner":"33610210@N05","secret":"057597ee8e","server":"65535","farm":66,"title":"Sharp-shinned Hawk, Accipiter striatus","ispublic":1,"isfriend":0,"isfamily":0},{"id":"52542998762","owner":"33610210@N05","secret":"a98c078410","server":"65535","farm":66,"title":"Sharp-shinned Hawk, Accipiter striatus","ispublic":1,"isfriend":0,"isfamily":0},{"id":"52542998722","owner":"33610210@N05","secret":"3103e65285","server":"65535","farm":66,"title":"Sharp-shinned Hawk, Accipiter striatus","ispublic":1,"isfriend":0,"isfamily":0},{"id":"52543585938","owner":"79153825@N08","secret":"293747ece8","server":"65535","farm":66,"title":"Fotos de aves de Rep\u00fablica Domincana:Guaraguaito de sierra.(Accipiter striatus.).Sharp shinned striatus.","ispublic":1,"isfriend":0,"isfamily":0},{"id":"52543522080","owner":"79153825@N08","secret":"fb518d8b08","server":"65535","farm":66,"title":"Fotos de aves de Rep\u00fablica Domincana:Guaraguaito de sierra.(Accipiter striatus.).Sharp shinned striatus.","ispublic":1,"isfriend":0,"isfamily":0},{"id":"52542580492","owner":"79153825@N08","secret":"ca0b19d5f1","server":"65535","farm":66,"title":"Fotos de aves de Rep\u00fablica Domincana:Guaraguaito de sierra.(Accipiter striatus.).Sharp shinned striatus.","ispublic":1,"isfriend":0,"isfamily":0},{"id":"52543334069","owner":"79153825@N08","secret":"682263e345","server":"65535","farm":66,"title":"Fotos de aves de Rep\u00fablica Domincana:Guaraguaito de sierra.(Accipiter striatus.).Sharp shinned striatus.","ispublic":1,"isfriend":0,"isfamily":0},{"id":"52543039191","owner":"79153825@N08","secret":"0ba8ff48ff","server":"65535","farm":66,"title":"Fotos de aves de Rep\u00fablica Domincana:Guaraguaito de sierra.(Accipiter striatus.).Sharp shinned striatus.","ispublic":1,"isfriend":0,"isfamily":0},{"id":"52542969801","owner":"67306066@N03","secret":"667fb577f1","server":"65535","farm":66,"title":"Sharp-shinned Hawk (Accipiter striatus)","ispublic":1,"isfriend":0,"isfamily":0},{"id":"52543263854","owner":"67306066@N03","secret":"454da4c739","server":"65535","farm":66,"title":"Sharp-shinned Hawk, juvenile (Accipiter striatus)","ispublic":1,"isfriend":0,"isfamily":0},{"id":"52543516493","owner":"67306066@N03","secret":"4e1c92d25e","server":"65535","farm":66,"title":"Sharp-shinned Hawk (Accipiter striatus)","ispublic":1,"isfriend":0,"isfamily":0},{"id":"52494681124","owner":"98675522@N06","secret":"9e4e0c570d","server":"65535","farm":66,"title":"The Disruptor","ispublic":1,"isfriend":0,"isfamily":0},{"id":"52519444885","owner":"54683012@N04","secret":"5533de66a4","server":"65535","farm":66,"title":"Sharpie","ispublic":1,"isfriend":0,"isfamily":0},{"id":"52642703242","owner":"8013969@N03","secret":"17b3e67b9f","server":"65535","farm":66,"title":"Accipiter striatus DFL btr22-1","ispublic":1,"isfriend":0,"isfamily":0},{"id":"52596543586","owner":"128537732@N06","secret":"5601484e7f","server":"65535","farm":66,"title":"Sharp-shinned Hawk (Accipiter striatus)","ispublic":1,"isfriend":0,"isfamily":0},{"id":"52596845220","owner":"37242840@N07","secret":"bce6fbbb8a","server":"65535","farm":66,"title":"Sharp-shinned Hawk, Accipiter striatus","ispublic":1,"isfriend":0,"isfamily":0},{"id":"52596938488","owner":"37242840@N07","secret":"ee81e2719a","server":"65535","farm":66,"title":"Sharp-shinned Hawk, Accipiter striatus","ispublic":1,"isfriend":0,"isfamily":0},{"id":"52596416856","owner":"37242840@N07","secret":"370f92dfbc","server":"65535","farm":66,"title":"Sharp-shinned Hawk, Accipiter striatus","ispublic":1,"isfriend":0,"isfamily":0},{"id":"52596678289","owner":"37242840@N07","secret":"f7631d53f8","server":"65535","farm":66,"title":"Sharp-shinned Hawk, Accipiter striatus","ispublic":1,"isfriend":0,"isfamily":0},{"id":"52580767748","owner":"153973412@N04","secret":"10c3da8eef","server":"65535","farm":66,"title":"Sharp-shinned Hawk-Accipiter striatus, Iowa City, IA","ispublic":1,"isfriend":0,"isfamily":0},{"id":"52543039391","owner":"79153825@N08","secret":"ea4b6f9c99","server":"65535","farm":66,"title":"Fotos de aves de Rep\u00fablica Domincana:Guaraguaito de sierra.(Accipiter striatus.).Sharp shinned striatus.","ispublic":1,"isfriend":0,"isfamily":0},{"id":"52518495933","owner":"28631427@N00","secret":"7f525616b4","server":"65535","farm":66,"title":"Broad-winged Hawks 1","ispublic":1,"isfriend":0,"isfamily":0}]},"stat":"ok"}