{"photos":{"page":1,"pages":5,"perpage":100,"total":431,"photo":[{"id":"52669878593","owner":"83509246@N06","secret":"746cd027d4","server":"65535","farm":66,"title":"3W5A2878","ispublic":1,"isfriend":0,"isfamily":0},{"id":"52668879132","owner":"83509246@N06","secret":"cbe5a6d827","server":"65535","farm":66,"title":"3W5A2918","ispublic":1,"isfriend":0,"isfamily":0},{"id":"52658143451","owner":"117755141@N02","secret":"440bd3dd4b","server":"65535","farm":66,"title":"Shining Flycatcher (Myiagra alecto Ssp melvillensis) male","ispublic":1,"isfriend":0,"isfamily":0},{"id":"52643967389","owner":"117755141@N02","secret":"4755352659","server":"65535","farm":66,"title":"Shining Flycatcher 2 (Myiagra alecto Ssp melvillensis) female","ispublic":1,"isfriend":0,"isfamily":0},{"id":"52631973262","owner":"117755141@N02","secret":"f9cb5fc564","server":"65535","farm":66,"title":"Shining Flycatcher 1 (Myiagra alecto Ssp melvillensis) female","ispublic":1,"isfriend":0,"isfamily":0},{"id":"52603733739","owner":"16520061@N08","secret":"6313e8fa26","server":"65535","farm":66,"title":"Shining Flycatcher (Myiagra alecto chalybeocephala)","ispublic":1,"isfriend":0,"isfamily":0},{"id":"52575889753","owner":"119787485@N07","secret":"6e6aae9b53","server":"65535","farm":66,"title":"Shining Flycatcher (Myiagra alecto melvillensis) - 20221005-05","ispublic":1,"isfriend":0,"isfamily":0},{"id":"52573209494","owner":"119787485@N07","secret":"4c93e70b04","server":"65535","farm":66,"title":"Shining Flycatcher (Myiagra alecto melvillensis) - 20221005-04","ispublic":1,"isfriend":0,"isfamily":0},{"id":"52302842133","owner":"16520061@N08","secret":"156198f9ef","server":"65535","farm":66,"title":"Shining Flycatcher (Myiagra alecto wardelli)","ispublic":1,"isfriend":0,"isfamily":0},{"id":"52303086709","owner":"16520061@N08","secret":"a9fef3080a","server":"65535","farm":66,"title":"Shining Flycatcher (Myiagra alecto wardelli)","ispublic":1,"isfriend":0,"isfamily":0},{"id":"52155644650","owner":"132431122@N05","secret":"1f635a8748","server":"65535","farm":66,"title":"Shining Flycatcher M","ispublic":1,"isfriend":0,"isfamily":0},{"id":"52155154266","owner":"132431122@N05","secret":"d52b73e986","server":"65535","farm":66,"title":"Shining Flycatcher F","ispublic":1,"isfriend":0,"isfamily":0},{"id":"52154141787","owner":"132431122@N05","secret":"4c22c0b922","server":"65535","farm":66,"title":"Shining Flycatcher M","ispublic":1,"isfriend":0,"isfamily":0},{"id":"52155159433","owner":"132431122@N05","secret":"71008b9069","server":"65535","farm":66,"title":"Shining Flycatcher F","ispublic":1,"isfriend":0,"isfamily":0},{"id":"52144596179","owner":"71589894@N00","secret":"05919beedc","server":"65535","farm":66,"title":"_92A4379_1","ispublic":1,"isfriend":0,"isfamily":0},{"id":"52143337017","owner":"71589894@N00","secret":"c0592d1bdc","server":"65535","farm":66,"title":"_92A4394_1","ispublic":1,"isfriend":0,"isfamily":0},{"id":"52071187437","owner":"117755141@N02","secret":"f17f6687aa","server":"65535","farm":66,"title":"Shining Flycatcher (Myiagra alecto Ssp wardelli) female","ispublic":1,"isfriend":0,"isfamily":0},{"id":"51855990608","owner":"193033095@N05","secret":"7f371f82fe","server":"65535","farm":66,"title":"Shining Flycatcher (Myiagra alecto) building a nest at Rapid Creek 3","ispublic":1,"isfriend":0,"isfamily":0},{"id":"51684042263","owner":"117755141@N02","secret":"6a0c446d4e","server":"65535","farm":66,"title":"Shining Flycatcher (Myiagra alecto Ssp melvillensis) female","ispublic":1,"isfriend":0,"isfamily":0},{"id":"49270622123","owner":"25572396@N04","secret":"5264457fb1","server":"65535","farm":66,"title":"Shining Flycatcher (Myiagra alecto)","ispublic":1,"isfriend":0,"isfamily":0},{"id":"49270542887","owner":"25572396@N04","secret":"9a831f6d16","server":"65535","farm":66,"title":"Shining Flycatcher (Myiagra alecto)","ispublic":1,"isfriend":0,"isfamily":0},{"id":"51583791268","owner":"79081908@N02","secret":"6df31a18fc","server":"65535","farm":66,"title":"Shining Flycatcher (Myiagra alecto) male","ispublic":1,"isfriend":0,"isfamily":0},{"id":"51496532905","owner":"117755141@N02","secret":"297d9dff42","server":"65535","farm":66,"title":"Shining Flycatcher (Myiagra alecto) female","ispublic":1,"isfriend":0,"isfamily":0},{"id":"52190595433","owner":"151993772@N02","secret":"445a37147f","server":"65535","farm":66,"title":"Shining Flycatcher Myiagra alecto)","ispublic":1,"isfriend":0,"isfamily":0},{"id":"52191063425","owner":"151993772@N02","secret":"0a13ea5dc1","server":"65535","farm":66,"title":"Shining Flycatcher Myiagra alecto)","ispublic":1,"isfriend":0,"isfamily":0},{"id":"52191046435","owner":"151993772@N02","secret":"5e29d2a32a","server":"65535","farm":66,"title":"Shining Flycatcher (Myiagra alecto)","ispublic":1,"isfriend":0,"isfamily":0},{"id":"52189550092","owner":"151993772@N02","secret":"53bab2777d","server":"65535","farm":66,"title":"Shining Flycatcher (Myiagra alecto)","ispublic":1,"isfriend":0,"isfamily":0},{"id":"52190559846","owner":"151993772@N02","secret":"f51c167b9e","server":"65535","farm":66,"title":"Shining Flycatcher (Myiagra alecto)","ispublic":1,"isfriend":0,"isfamily":0},{"id":"52081364166","owner":"195156299@N04","secret":"5c3a91aa69","server":"65535","farm":66,"title":"Myiagra alecto","ispublic":1,"isfriend":0,"isfamily":0},{"id":"51985972815","owner":"63872681@N03","secret":"3cc08fddf0","server":"65535","farm":66,"title":"Shining Flycatcher(Myiagra alecto)","ispublic":1,"isfriend":0,"isfamily":0},{"id":"51925095926","owner":"80648919@N08","secret":"dfd45678d2","server":"65535","farm":66,"title":"Shining Flycatcher","ispublic":1,"isfriend":0,"isfamily":0},{"id":"51911213150","owner":"50809355@N06","secret":"6e5ddff49e","server":"65535","farm":66,"title":"Shining Flycatcher Myiagra alecto Monarchidae Male Keeping In The Shadows Heading Back To Its Territory Shoal Bay","ispublic":1,"isfriend":0,"isfamily":0},{"id":"51856015503","owner":"193033095@N05","secret":"c601bb5266","server":"65535","farm":66,"title":"Shining Flycatcher (Myiagra alecto) with chick in nest at Rapid Creek 1","ispublic":1,"isfriend":0,"isfamily":0},{"id":"51856263269","owner":"193033095@N05","secret":"a0bb6f2667","server":"65535","farm":66,"title":"Female Shining Flycatcher (Myiagra alecto) sat on a nest at Rapid Creek","ispublic":1,"isfriend":0,"isfamily":0},{"id":"51855934886","owner":"193033095@N05","secret":"9b97e3a975","server":"65535","farm":66,"title":"Female Shining Flycatcher (Myiagra alecto) sat on a nest at Rapid Creek cropped","ispublic":1,"isfriend":0,"isfamily":0},{"id":"51854951942","owner":"193033095@N05","secret":"3cd1c479bb","server":"65535","farm":66,"title":"Shining Flycatcher (Myiagra alecto) building a nest at Rapid Creek 3 cropped","ispublic":1,"isfriend":0,"isfamily":0},{"id":"51856542745","owner":"193033095@N05","secret":"6162d6cfe8","server":"65535","farm":66,"title":"Shining Flycatcher (Myiagra alecto) on the Night Stalk around Florence Falls","ispublic":1,"isfriend":0,"isfamily":0},{"id":"51718793018","owner":"50809355@N06","secret":"9020eaccd7","server":"65535","farm":66,"title":"Shining Flycatcher Myiagra alecto Monarchidae Female Checking Above Before Climbing Into Her Nest Shoal Bay","ispublic":1,"isfriend":0,"isfamily":0},{"id":"51719407805","owner":"50809355@N06","secret":"1532d3c94f","server":"65535","farm":66,"title":"Shining Flycatcher Myiagra alecto Monarchidae Female Last Check Before Climbing In Her Nest Shoal Bay","ispublic":1,"isfriend":0,"isfamily":0},{"id":"51719407795","owner":"50809355@N06","secret":"f284941302","server":"65535","farm":66,"title":"Shining Flycatcher Myiagra alecto Monarchidae Female Less Concerned By My Attention Shoal Bay","ispublic":1,"isfriend":0,"isfamily":0},{"id":"51717732202","owner":"50809355@N06","secret":"f3e01a7f5c","server":"65535","farm":66,"title":"Shining Flycatcher Myiagra alecto Monarchidae Male Coastal She-Oaks Shoal Bay","ispublic":1,"isfriend":0,"isfamily":0},{"id":"51717732177","owner":"50809355@N06","secret":"806ef865ef","server":"65535","farm":66,"title":"Shining Flycatcher Myiagra alecto Monarchidae Male Near His New Nest Shoal Bay","ispublic":1,"isfriend":0,"isfamily":0},{"id":"51718536331","owner":"50809355@N06","secret":"4de563f0ec","server":"65535","farm":66,"title":"Shining Flycatcher Myiagra alecto Monarchidae Male Showing Some Concern Shoal Bay","ispublic":1,"isfriend":0,"isfamily":0},{"id":"51718535146","owner":"50809355@N06","secret":"ef99147486","server":"65535","farm":66,"title":"Shining Flycatcher Myiagra alecto Monarchidae Male Midday Bathing In The Shallow Warm Water Brackish Mangrove Swamp Shoal Bay","ispublic":1,"isfriend":0,"isfamily":0},{"id":"51684451009","owner":"117755141@N02","secret":"5522799420","server":"65535","farm":66,"title":"Shining Flycatcher (Myiagra alecto Ssp melvillensis) male","ispublic":1,"isfriend":0,"isfamily":0},{"id":"51669587175","owner":"121917432@N02","secret":"605c4120c2","server":"65535","farm":66,"title":"Shining Flycatcher (Myiagra alecto)","ispublic":1,"isfriend":0,"isfamily":0},{"id":"51669587115","owner":"121917432@N02","secret":"45d531f0a5","server":"65535","farm":66,"title":"Shining Flycatcher (Myiagra alecto)","ispublic":1,"isfriend":0,"isfamily":0},{"id":"51651241269","owner":"50809355@N06","secret":"ca853bf424","server":"65535","farm":66,"title":"Shining Flycatcher Myiagra alecto Monarchidae Looking For A Companion Open Woodland Adjacent Coastal Vine Forest","ispublic":1,"isfriend":0,"isfamily":0},{"id":"51649750182","owner":"50809355@N06","secret":"245cef533d","server":"65535","farm":66,"title":"Shining Flycatcher Myiagra alecto Monarchidae Male A Long Way From The Mangroves Lee Point","ispublic":1,"isfriend":0,"isfamily":0},{"id":"51545210174","owner":"50809355@N06","secret":"5c83bda22f","server":"65535","farm":66,"title":"Shining Flycatcher Myiagra alecto Monarchidae Female Hunting Amongst Fallen Timber Of Xylocarpus moluccensis Shoal Bay","ispublic":1,"isfriend":0,"isfamily":0},{"id":"51544723373","owner":"50809355@N06","secret":"2d279582cf","server":"65535","farm":66,"title":"Shining Flycatcher Myiagra alecto Monarchidae Male Answering The Call Grey Mangrove Buffalo Creek","ispublic":1,"isfriend":0,"isfamily":0},{"id":"51544479126","owner":"50809355@N06","secret":"c3de08c18c","server":"65535","farm":66,"title":"Shining Flycatcher Myiagra alecto Monarchidae Male Answering The Call Grey Mangrove Buffalo Creek 01","ispublic":1,"isfriend":0,"isfamily":0},{"id":"51543686647","owner":"50809355@N06","secret":"72567bfe2f","server":"65535","farm":66,"title":"Shining Flycatcher Myiagra alecto Monarchidae Male Answering The Call Mangroves Shoal Bay","ispublic":1,"isfriend":0,"isfamily":0},{"id":"51543686612","owner":"50809355@N06","secret":"38721d9c00","server":"65535","farm":66,"title":"Shining Flycatcher Myiagra alecto Monarchidae Male Grey Mangrove Buffalo Creek 01","ispublic":1,"isfriend":0,"isfamily":0},{"id":"51545408705","owner":"50809355@N06","secret":"e1e5be057c","server":"65535","farm":66,"title":"Shining Flycatcher Myiagra alecto Monarchidae Male Hunting In The Grey Mangroves Buffalo Creek","ispublic":1,"isfriend":0,"isfamily":0},{"id":"51543686582","owner":"50809355@N06","secret":"3df2d06129","server":"65535","farm":66,"title":"Shining Flycatcher Myiagra alecto Monarchidae Male Grey Mangrove Buffalo Creek","ispublic":1,"isfriend":0,"isfamily":0},{"id":"51418713418","owner":"50809355@N06","secret":"f066936739","server":"65535","farm":66,"title":"Shining Flycatcher Myiagra alecto Monarchidae Female Hunting In The Coastal She-Oaks Shoal Bay","ispublic":1,"isfriend":0,"isfamily":0},{"id":"51418452266","owner":"50809355@N06","secret":"313d90b9e7","server":"65535","farm":66,"title":"Shining Flycatcher Myiagra alecto Monarchidae Juv. Male Changing Colour In The Vine Forest Shoal Bay 01","ispublic":1,"isfriend":0,"isfamily":0},{"id":"51419218109","owner":"50809355@N06","secret":"23a54cd192","server":"65535","farm":66,"title":"Shining Flycatcher Myiagra alecto Monarchidae Juv. Male Changing Colour In The Vine Forest Shoal Bay","ispublic":1,"isfriend":0,"isfamily":0},{"id":"51419437015","owner":"50809355@N06","secret":"2de5148ba8","server":"65535","farm":66,"title":"Shining Flycatcher Myiagra alecto Monarchidae Male Answering The Call In The Vine Forest Shoal Bay","ispublic":1,"isfriend":0,"isfamily":0},{"id":"51419436995","owner":"50809355@N06","secret":"671c92b102","server":"65535","farm":66,"title":"Shining Flycatcher Myiagra alecto Monarchidae Male Hunting In The Coastal She-Oaks Shoal Bay","ispublic":1,"isfriend":0,"isfamily":0},{"id":"51419436975","owner":"50809355@N06","secret":"19322b20ac","server":"65535","farm":66,"title":"Shining Flycatcher Myiagra alecto Monarchidae Male Keeping Track Of His Partner Upper Reaches Buffalo Creek","ispublic":1,"isfriend":0,"isfamily":0},{"id":"51350534937","owner":"50809355@N06","secret":"f161001f12","server":"65535","farm":66,"title":"Shining Flycatcher Myiagra alecto Monarchidae Female Checking Every Crack InThe Grey Mangroves Upper Reaches Buffalo Creek","ispublic":1,"isfriend":0,"isfamily":0},{"id":"51352286255","owner":"50809355@N06","secret":"50eb4b3ef3","server":"65535","farm":66,"title":"Shining Flycatcher Myiagra alecto Monarchidae Female Answering The Call Upper Reaches Buffalo Creek","ispublic":1,"isfriend":0,"isfamily":0},{"id":"51351494783","owner":"50809355@N06","secret":"2427716231","server":"65535","farm":66,"title":"Shining Flycatcher Myiagra alecto Monarchidae Female Hunting Amongst The Grey Mangroves Upper Reaches Buffalo Creek 02","ispublic":1,"isfriend":0,"isfamily":0},{"id":"51352286150","owner":"50809355@N06","secret":"7e1bf66007","server":"65535","farm":66,"title":"Shining Flycatcher Myiagra alecto Monarchidae Female Hunting Amongst The Grey Mangroves Upper Reaches Buffalo Creek 03","ispublic":1,"isfriend":0,"isfamily":0},{"id":"51352286125","owner":"50809355@N06","secret":"549413abeb","server":"65535","farm":66,"title":"Shining Flycatcher Myiagra alecto Monarchidae Female Hunting Amongst The Grey Mangroves Upper Reaches Buffalo Creek 04","ispublic":1,"isfriend":0,"isfamily":0},{"id":"51350534852","owner":"50809355@N06","secret":"75e61533e3","server":"65535","farm":66,"title":"Shining Flycatcher Myiagra alecto Monarchidae Female Hunting Amongst The Grey Mangroves Upper Reaches Buffalo Creek","ispublic":1,"isfriend":0,"isfamily":0},{"id":"51352286040","owner":"50809355@N06","secret":"98d2fa7df3","server":"65535","farm":66,"title":"Shining Flycatcher Myiagra alecto Monarchidae Male Answering The Call Mangroves Darwin Harbour","ispublic":1,"isfriend":0,"isfamily":0},{"id":"51352009129","owner":"50809355@N06","secret":"52cc43c1d9","server":"65535","farm":66,"title":"Shining Flycatcher Myiagra alecto Monarchidae Male Answering The Call Lee Point","ispublic":1,"isfriend":0,"isfamily":0},{"id":"51351268411","owner":"50809355@N06","secret":"ded39afff8","server":"65535","farm":66,"title":"Shining Flycatcher Myiagra alecto Monarchidae Male Answering The Call Upper Reach Buffalo Creek","ispublic":1,"isfriend":0,"isfamily":0},{"id":"51352285970","owner":"50809355@N06","secret":"292c40e8bf","server":"65535","farm":66,"title":"Shining Flycatcher Myiagra alecto Monarchidae Male I See You Mangroves Darwin Harbour","ispublic":1,"isfriend":0,"isfamily":0},{"id":"51352008149","owner":"50809355@N06","secret":"66e664aa1f","server":"65535","farm":66,"title":"Shining Flycatcher Myiagra alecto Monarchidae Female Hunting Amongst The Grey Mangroves Upper Reaches Buffalo Creek 01","ispublic":1,"isfriend":0,"isfamily":0},{"id":"51284379533","owner":"50809355@N06","secret":"6794cb7ee7","server":"65535","farm":66,"title":"Shining Flycatcher Myiagra alecto Monarchidae Female Hunting Amongst The Mangroves Prop Roots Ludmilla Creek","ispublic":1,"isfriend":0,"isfamily":0},{"id":"51285227635","owner":"50809355@N06","secret":"329cf78c67","server":"65535","farm":66,"title":"Shining Flycatcher Myiagra alecto Monarchidae Female Hunting Amongst The Prop Roots Mangroves Ludmilla Creek","ispublic":1,"isfriend":0,"isfamily":0},{"id":"51284204611","owner":"50809355@N06","secret":"8b2346afee","server":"65535","farm":66,"title":"Shining Flycatcher Myiagra alecto Monarchidae Female Preening Ludmilla Creek","ispublic":1,"isfriend":0,"isfamily":0},{"id":"51285227595","owner":"50809355@N06","secret":"262f40a53f","server":"65535","farm":66,"title":"Shining Flycatcher Myiagra alecto Monarchidae Male Feather Shine Mangroves East Point","ispublic":1,"isfriend":0,"isfamily":0},{"id":"51283456937","owner":"50809355@N06","secret":"dbd29cbcf1","server":"65535","farm":66,"title":"Shining Flycatcher Myiagra alecto Monarchidae Male Hunting Amongst The Sonneratia alba Pneumatophores Intertidal Shoreline East Point 01","ispublic":1,"isfriend":0,"isfamily":0},{"id":"51285227555","owner":"50809355@N06","secret":"a77b5e632e","server":"65535","farm":66,"title":"Shining Flycatcher Myiagra alecto Monarchidae Male Hunting Amongst The Sonneratia alba Pneumatophores Intertidal Shoreline East Point 02","ispublic":1,"isfriend":0,"isfamily":0},{"id":"51284379413","owner":"50809355@N06","secret":"facf5c01b7","server":"65535","farm":66,"title":"Shining Flycatcher Myiagra alecto Monarchidae Male Hunting Amongst The Sonneratia alba Pneumatophores Intertidal Shoreline East Point 03","ispublic":1,"isfriend":0,"isfamily":0},{"id":"51284204511","owner":"50809355@N06","secret":"5372fa2985","server":"65535","farm":66,"title":"Shining Flycatcher Myiagra alecto Monarchidae Male Hunting Amongst The Sonneratia alba Pneumatophores Intertidal Shoreline East Point","ispublic":1,"isfriend":0,"isfamily":0},{"id":"51284928154","owner":"50809355@N06","secret":"a974dd9df5","server":"65535","farm":66,"title":"Shining Flycatcher Myiagra alecto Monarchidae Male Hunting As High Tide Approached Mangroves East Point 01","ispublic":1,"isfriend":0,"isfamily":0},{"id":"51284928139","owner":"50809355@N06","secret":"9ee9ec7e63","server":"65535","farm":66,"title":"Shining Flycatcher Myiagra alecto Monarchidae Male Hunting As High Tide Approached Mangroves East Point 02","ispublic":1,"isfriend":0,"isfamily":0},{"id":"51284928124","owner":"50809355@N06","secret":"73a0885269","server":"65535","farm":66,"title":"Shining Flycatcher Myiagra alecto Monarchidae Male I See You  Mangroves East Point","ispublic":1,"isfriend":0,"isfamily":0},{"id":"51283456822","owner":"50809355@N06","secret":"553993dd41","server":"65535","farm":66,"title":"Shining Flycatcher Myiagra alecto Monarchidae Male Hunting As High Tide Approached Mangroves East Point","ispublic":1,"isfriend":0,"isfamily":0},{"id":"51275622163","owner":"40195635@N03","secret":"13caf20f7a","server":"65535","farm":66,"title":"Shining Flycatcher (Myiagra alecto melvillensis)","ispublic":1,"isfriend":0,"isfamily":0},{"id":"51238996383","owner":"185399167@N07","secret":"9affd45f4a","server":"65535","farm":66,"title":"Myiagra alecto","ispublic":1,"isfriend":0,"isfamily":0},{"id":"51239851250","owner":"185399167@N07","secret":"3ef2d0647d","server":"65535","farm":66,"title":"Shining flycatcher (Female) Myiagra alecto","ispublic":1,"isfriend":0,"isfamily":0},{"id":"51217714780","owner":"50809355@N06","secret":"202ca862ce","server":"65535","farm":66,"title":"Shining Flycatcher Myiagra alecto Monarchidae Female Answering The Call Upper Reach Buffalo Creek","ispublic":1,"isfriend":0,"isfamily":0},{"id":"51215933597","owner":"50809355@N06","secret":"42f81260dd","server":"65535","farm":66,"title":"Shining Flycatcher Myiagra alecto Monarchidae Female Hunting Amongst Fallen Grey Mangrove Branches Upper Reach Buffalo Creek","ispublic":1,"isfriend":0,"isfamily":0},{"id":"51215933552","owner":"50809355@N06","secret":"60b414a840","server":"65535","farm":66,"title":"Shining Flycatcher Myiagra alecto Monarchidae Female Hunting Amongst Grey Mangrove Upper Reach Buffalo Creek 01","ispublic":1,"isfriend":0,"isfamily":0},{"id":"51215933507","owner":"50809355@N06","secret":"f7a096bf80","server":"65535","farm":66,"title":"Shining Flycatcher Myiagra alecto Monarchidae Female Hunting Amongst Grey Mangrove Upper Reach Buffalo Creek","ispublic":1,"isfriend":0,"isfamily":0},{"id":"51216648216","owner":"50809355@N06","secret":"980d0e3b84","server":"65535","farm":66,"title":"Shining Flycatcher Myiagra alecto Monarchidae Female Hunting In The Dried Vine Forest Rain Depressions Shoal Bay","ispublic":1,"isfriend":0,"isfamily":0},{"id":"51216857473","owner":"50809355@N06","secret":"da7987cf58","server":"65535","farm":66,"title":"Shining Flycatcher Myiagra alecto Monarchidae Female Hunting On The Floor Of The Grey Mangrove Pneumatophores Upper Reach Buffalo Creek 01","ispublic":1,"isfriend":0,"isfamily":0},{"id":"51217406079","owner":"50809355@N06","secret":"f14e97e04f","server":"65535","farm":66,"title":"Shining Flycatcher Myiagra alecto Monarchidae Female Hunting On The Floor Of The Grey Mangrove Pneumatophores Upper Reach Buffalo Creek","ispublic":1,"isfriend":0,"isfamily":0},{"id":"51217406039","owner":"50809355@N06","secret":"98c77e256a","server":"65535","farm":66,"title":"Shining Flycatcher Myiagra alecto Monarchidae Male Answering The Call Upper Reach Buffalo Creek 03","ispublic":1,"isfriend":0,"isfamily":0},{"id":"51216857348","owner":"50809355@N06","secret":"3ff7135ea5","server":"65535","farm":66,"title":"Shining Flycatcher Myiagra alecto Monarchidae Male Defending His Territory Upper Reach Buffalo Creek 01","ispublic":1,"isfriend":0,"isfamily":0},{"id":"51217405979","owner":"50809355@N06","secret":"d9ce2df541","server":"65535","farm":66,"title":"Shining Flycatcher Myiagra alecto Monarchidae Male Defending His Territory Upper Reach Buffalo Creek 02","ispublic":1,"isfriend":0,"isfamily":0},{"id":"51217405934","owner":"50809355@N06","secret":"67f8e16b49","server":"65535","farm":66,"title":"Shining Flycatcher Myiagra alecto Monarchidae Male Defending His Territory Upper Reach Buffalo Creek","ispublic":1,"isfriend":0,"isfamily":0},{"id":"51212477713","owner":"68921296@N06","secret":"0102fd5097","server":"65535","farm":66,"title":"Male Shining Flycatcher (Myiagra alecto) on its nest.","ispublic":1,"isfriend":0,"isfamily":0}]},"stat":"ok"}