{"photos":{"page":1,"pages":33,"perpage":100,"total":3224,"photo":[{"id":"52711731537","owner":"184303926@N04","secret":"7a99c3d159","server":"65535","farm":66,"title":"Short-Billed Dowitcher","ispublic":1,"isfriend":0,"isfamily":0},{"id":"52703389531","owner":"103722035@N06","secret":"4f33f2c7e1","server":"0","farm":0,"title":"Short-billed\/Long-billed Dowitcher (Limnodromus griseus\/scolopaceus), San Luis Obispo, CA","ispublic":1,"isfriend":0,"isfamily":0},{"id":"52703684885","owner":"59206851@N00","secret":"834ce03066","server":"65535","farm":66,"title":"DSC_1473.jpg","ispublic":1,"isfriend":0,"isfamily":0},{"id":"52703265631","owner":"59206851@N00","secret":"7f50b4a902","server":"65535","farm":66,"title":"DSC_1466.jpg","ispublic":1,"isfriend":0,"isfamily":0},{"id":"52697038294","owner":"130021529@N02","secret":"a7a0b9b3fe","server":"65535","farm":66,"title":"Limnodromus griseus | Short-billed Dowitcher | mindre beckasinsn\u00e4ppa","ispublic":1,"isfriend":0,"isfamily":0},{"id":"52697160463","owner":"130021529@N02","secret":"1b70d08123","server":"65535","farm":66,"title":"Limnodromus griseus | Short-billed Dowitcher | mindre beckasinsn\u00e4ppa","ispublic":1,"isfriend":0,"isfamily":0},{"id":"52686767129","owner":"33005514@N04","secret":"1fa023382b","server":"65535","farm":66,"title":"Agujetas piquicortas\/short-billed dowitchers- Limnodromus griseus. Playeritos zancudos\/stilt sandpipers (Calidris himantopus)","ispublic":1,"isfriend":0,"isfamily":0},{"id":"52668096122","owner":"145466593@N08","secret":"5428075d62","server":"65535","farm":66,"title":"Long-billed Dowitcher","ispublic":1,"isfriend":0,"isfamily":0},{"id":"52647516560","owner":"67164820@N06","secret":"6c860ef01c","server":"65535","farm":66,"title":"short-billed dowitcher","ispublic":1,"isfriend":0,"isfamily":0},{"id":"52645143708","owner":"8013969@N03","secret":"5b2e49dd8f","server":"65535","farm":66,"title":"Limnodromus griseus DFL nj22-2","ispublic":1,"isfriend":0,"isfamily":0},{"id":"52644162257","owner":"8013969@N03","secret":"ef784ae40f","server":"65535","farm":66,"title":"Limnodromus griseus DFL nj22-3","ispublic":1,"isfriend":0,"isfamily":0},{"id":"52629052906","owner":"145466593@N08","secret":"ca01ee5b1d","server":"65535","farm":66,"title":"Short-billed Dowitcher","ispublic":1,"isfriend":0,"isfamily":0},{"id":"52624071076","owner":"8065544@N08","secret":"5b011cfc4d","server":"65535","farm":66,"title":"Short-billed Dowitchers (Limnodromus griseus)","ispublic":1,"isfriend":0,"isfamily":0},{"id":"52596008248","owner":"165841515@N03","secret":"a491965cfd","server":"65535","farm":66,"title":"B\u00e9cassin roux \/ Shorted-billed Dowitcher \/ (Limnodromus griseus)","ispublic":1,"isfriend":0,"isfamily":0},{"id":"52595912490","owner":"165841515@N03","secret":"3bb5e4f70b","server":"65535","farm":66,"title":"B\u00e9cassin roux \/ Shorted-billed Dowitcher \/ (Limnodromus griseus)","ispublic":1,"isfriend":0,"isfamily":0},{"id":"52583554926","owner":"65632611@N00","secret":"0f5da03479","server":"65535","farm":66,"title":"Mecox: Short-billed Dowitcher on Take-off (0314)","ispublic":1,"isfriend":0,"isfamily":0},{"id":"52566991541","owner":"195041250@N03","secret":"8e6ec7f25d","server":"65535","farm":66,"title":"Short-billed Dowticher","ispublic":1,"isfriend":0,"isfamily":0},{"id":"52565921344","owner":"140318147@N08","secret":"10f0456ef5","server":"65535","farm":66,"title":"short-billed dowitcher (Limnodromus griseus) L4A7847","ispublic":1,"isfriend":0,"isfamily":0},{"id":"52556146700","owner":"103722035@N06","secret":"a920b38524","server":"65535","farm":66,"title":"Short-billed Dowitcher (Limnodromus griseus), Los Osos, CA","ispublic":1,"isfriend":0,"isfamily":0},{"id":"52556214203","owner":"103722035@N06","secret":"b344e1d79d","server":"65535","farm":66,"title":"Short-billed Dowitcher (Limnodromus griseus), Los Osos, CA","ispublic":1,"isfriend":0,"isfamily":0},{"id":"52555633286","owner":"103722035@N06","secret":"f095285668","server":"0","farm":0,"title":"Short-billed Dowitcher (Limnodromus griseus), Los Osos, CA","ispublic":1,"isfriend":0,"isfamily":0},{"id":"52522642576","owner":"140734051@N08","secret":"b04ed86c3f","server":"65535","farm":66,"title":"\u041a\u043e\u0440\u043e\u0442\u043a\u043e\u043a\u043b\u044e\u0432\u044b\u0439 \u0431\u0435\u043a\u0430\u0441\u043e\u0432\u0438\u0434\u043d\u044b\u0439 \u0432\u0435\u0440\u0435\u0442\u0435\u043d\u043d\u0438\u043a, Limnodromus griseus caurinus, Short-billed Dowitcher","ispublic":1,"isfriend":0,"isfamily":0},{"id":"52522642366","owner":"140734051@N08","secret":"7df7719ba2","server":"65535","farm":66,"title":"\u041a\u043e\u0440\u043e\u0442\u043a\u043e\u043a\u043b\u044e\u0432\u044b\u0439 \u0431\u0435\u043a\u0430\u0441\u043e\u0432\u0438\u0434\u043d\u044b\u0439 \u0432\u0435\u0440\u0435\u0442\u0435\u043d\u043d\u0438\u043a, Limnodromus griseus caurinus, Short-billed Dowitcher","ispublic":1,"isfriend":0,"isfamily":0},{"id":"52523190793","owner":"140734051@N08","secret":"9b56a5f4d2","server":"65535","farm":66,"title":"\u041a\u043e\u0440\u043e\u0442\u043a\u043e\u043a\u043b\u044e\u0432\u044b\u0439 \u0431\u0435\u043a\u0430\u0441\u043e\u0432\u0438\u0434\u043d\u044b\u0439 \u0432\u0435\u0440\u0435\u0442\u0435\u043d\u043d\u0438\u043a, Limnodromus griseus caurinus, Short-billed Dowitcher","ispublic":1,"isfriend":0,"isfamily":0},{"id":"52522174367","owner":"140734051@N08","secret":"b709a797b2","server":"65535","farm":66,"title":"\u041a\u043e\u0440\u043e\u0442\u043a\u043e\u043a\u043b\u044e\u0432\u044b\u0439 \u0431\u0435\u043a\u0430\u0441\u043e\u0432\u0438\u0434\u043d\u044b\u0439 \u0432\u0435\u0440\u0435\u0442\u0435\u043d\u043d\u0438\u043a, Limnodromus griseus caurinus, Short-billed Dowitcher","ispublic":1,"isfriend":0,"isfamily":0},{"id":"52522173942","owner":"140734051@N08","secret":"50e58c707d","server":"65535","farm":66,"title":"\u041a\u043e\u0440\u043e\u0442\u043a\u043e\u043a\u043b\u044e\u0432\u044b\u0439 \u0431\u0435\u043a\u0430\u0441\u043e\u0432\u0438\u0434\u043d\u044b\u0439 \u0432\u0435\u0440\u0435\u0442\u0435\u043d\u043d\u0438\u043a, Limnodromus griseus caurinus, Short-billed Dowitcher","ispublic":1,"isfriend":0,"isfamily":0},{"id":"52522917819","owner":"140734051@N08","secret":"5064ce2ddd","server":"65535","farm":66,"title":"\u041a\u043e\u0440\u043e\u0442\u043a\u043e\u043a\u043b\u044e\u0432\u044b\u0439 \u0431\u0435\u043a\u0430\u0441\u043e\u0432\u0438\u0434\u043d\u044b\u0439 \u0432\u0435\u0440\u0435\u0442\u0435\u043d\u043d\u0438\u043a, Limnodromus griseus caurinus, Short-billed Dowitcher","ispublic":1,"isfriend":0,"isfamily":0},{"id":"52522625526","owner":"140734051@N08","secret":"c050822f65","server":"65535","farm":66,"title":"\u041a\u043e\u0440\u043e\u0442\u043a\u043e\u043a\u043b\u044e\u0432\u044b\u0439 \u0431\u0435\u043a\u0430\u0441\u043e\u0432\u0438\u0434\u043d\u044b\u0439 \u0432\u0435\u0440\u0435\u0442\u0435\u043d\u043d\u0438\u043a, Limnodromus griseus caurinus, Short-billed Dowitcher","ispublic":1,"isfriend":0,"isfamily":0},{"id":"52523171528","owner":"140734051@N08","secret":"e673998d99","server":"65535","farm":66,"title":"\u041a\u043e\u0440\u043e\u0442\u043a\u043e\u043a\u043b\u044e\u0432\u044b\u0439 \u0431\u0435\u043a\u0430\u0441\u043e\u0432\u0438\u0434\u043d\u044b\u0439 \u0432\u0435\u0440\u0435\u0442\u0435\u043d\u043d\u0438\u043a, Limnodromus griseus caurinus, Short-billed Dowitcher","ispublic":1,"isfriend":0,"isfamily":0},{"id":"52522621516","owner":"140734051@N08","secret":"5e4ea03fd0","server":"65535","farm":66,"title":"\u041a\u043e\u0440\u043e\u0442\u043a\u043e\u043a\u043b\u044e\u0432\u044b\u0439 \u0431\u0435\u043a\u0430\u0441\u043e\u0432\u0438\u0434\u043d\u044b\u0439 \u0432\u0435\u0440\u0435\u0442\u0435\u043d\u043d\u0438\u043a, Limnodromus griseus caurinus, Short-billed Dowitcher","ispublic":1,"isfriend":0,"isfamily":0},{"id":"52523168823","owner":"140734051@N08","secret":"3f61db1337","server":"65535","farm":66,"title":"\u041a\u043e\u0440\u043e\u0442\u043a\u043e\u043a\u043b\u044e\u0432\u044b\u0439 \u0431\u0435\u043a\u0430\u0441\u043e\u0432\u0438\u0434\u043d\u044b\u0439 \u0432\u0435\u0440\u0435\u0442\u0435\u043d\u043d\u0438\u043a, Limnodromus griseus caurinus, Short-billed Dowitcher","ispublic":1,"isfriend":0,"isfamily":0},{"id":"52517391448","owner":"140734051@N08","secret":"1ec4bd69f3","server":"65535","farm":66,"title":"\u041a\u043e\u0440\u043e\u0442\u043a\u043e\u043a\u043b\u044e\u0432\u044b\u0439 \u0431\u0435\u043a\u0430\u0441\u043e\u0432\u0438\u0434\u043d\u044b\u0439 \u0432\u0435\u0440\u0435\u0442\u0435\u043d\u043d\u0438\u043a, Limnodromus griseus caurinus, Short-billed Dowitcher","ispublic":1,"isfriend":0,"isfamily":0},{"id":"52517322755","owner":"140734051@N08","secret":"52de976058","server":"65535","farm":66,"title":"\u041a\u043e\u0440\u043e\u0442\u043a\u043e\u043a\u043b\u044e\u0432\u044b\u0439 \u0431\u0435\u043a\u0430\u0441\u043e\u0432\u0438\u0434\u043d\u044b\u0439 \u0432\u0435\u0440\u0435\u0442\u0435\u043d\u043d\u0438\u043a, Limnodromus griseus caurinus, Short-billed Dowitcher","ispublic":1,"isfriend":0,"isfamily":0},{"id":"52517387963","owner":"140734051@N08","secret":"1e071255e2","server":"65535","farm":66,"title":"\u041a\u043e\u0440\u043e\u0442\u043a\u043e\u043a\u043b\u044e\u0432\u044b\u0439 \u0431\u0435\u043a\u0430\u0441\u043e\u0432\u0438\u0434\u043d\u044b\u0439 \u0432\u0435\u0440\u0435\u0442\u0435\u043d\u043d\u0438\u043a, Limnodromus griseus caurinus, Short-billed Dowitcher","ispublic":1,"isfriend":0,"isfamily":0},{"id":"52490700103","owner":"14734088@N02","secret":"09b6a3230a","server":"65535","farm":66,"title":"B\u00e9cassin roux 220909H2b","ispublic":1,"isfriend":0,"isfamily":0},{"id":"52452534487","owner":"14734088@N02","secret":"09c3a0ffd6","server":"65535","farm":66,"title":"B\u00e9cassin roux 220909H2a","ispublic":1,"isfriend":0,"isfamily":0},{"id":"52441130588","owner":"28631427@N00","secret":"f1a1b71ea1","server":"65535","farm":66,"title":"Short-billed Dowitcher","ispublic":1,"isfriend":0,"isfamily":0},{"id":"52427876951","owner":"196264892@N08","secret":"3c139edb9c","server":"65535","farm":66,"title":"Dowitcher spp.","ispublic":1,"isfriend":0,"isfamily":0},{"id":"52420096611","owner":"152675955@N08","secret":"15cc38d158","server":"65535","farm":66,"title":"La qu\u00eate incessante de la nourriture pour poursuivre la migration \/ Food quest to continue migration","ispublic":1,"isfriend":0,"isfamily":0},{"id":"52412949419","owner":"14734088@N02","secret":"01c452b9f3","server":"65535","farm":66,"title":"B\u00e9cassin roux220909H1b","ispublic":1,"isfriend":0,"isfamily":0},{"id":"52401082999","owner":"62037969@N08","secret":"3f8428ff3c","server":"65535","farm":66,"title":"As It Flies, A Short-billed Dowitcher Wing Tip Skims The Water Surface","ispublic":1,"isfriend":0,"isfamily":0},{"id":"52400257219","owner":"34238008@N02","secret":"021fd2bd54","server":"65535","farm":66,"title":"Short-billed Dowitcher, basic (Limnodromus griseus)","ispublic":1,"isfriend":0,"isfamily":0},{"id":"52400399550","owner":"34238008@N02","secret":"a8b0b07b54","server":"65535","farm":66,"title":"Short-billed Dowitcher, basic adult (Limnodromus griseus)","ispublic":1,"isfriend":0,"isfamily":0},{"id":"52380433722","owner":"145287509@N03","secret":"1ae470eb9d","server":"65535","farm":66,"title":"Short-billed Dowitcher (Limnodromus griseu)","ispublic":1,"isfriend":0,"isfamily":0},{"id":"52374707579","owner":"125645386@N04","secret":"642361dc14","server":"65535","farm":66,"title":"B\u00e9cassin roux -  Short-billed Dowitcher - Limnodromus griseus","ispublic":1,"isfriend":0,"isfamily":0},{"id":"52373058361","owner":"32320154@N05","secret":"b250147e1a","server":"65535","farm":66,"title":"Short-billed Dowitcher","ispublic":1,"isfriend":0,"isfamily":0},{"id":"52373290019","owner":"33005514@N04","secret":"884e4f8fd2","server":"65535","farm":66,"title":"Short-billed dowitcher \/ Limnodromus griseus","ispublic":1,"isfriend":0,"isfamily":0},{"id":"52371621208","owner":"14734088@N02","secret":"374ae24b4b","server":"65535","farm":66,"title":"B\u00e9cassin roux 220909H1a","ispublic":1,"isfriend":0,"isfamily":0},{"id":"52363729371","owner":"14734088@N02","secret":"3a550066d9","server":"65535","farm":66,"title":"B\u00e9cassin roux 200901H4","ispublic":1,"isfriend":0,"isfamily":0},{"id":"52361945773","owner":"126297346@N07","secret":"09cb4964a7","server":"65535","farm":66,"title":"B\u00e9cassin roux | Baie Missisquoi | Saint-Armand, Qu\u00e9bec","ispublic":1,"isfriend":0,"isfamily":0},{"id":"52358356959","owner":"196264892@N08","secret":"7f148d2c29","server":"65535","farm":66,"title":"Short-billed Dowitcher","ispublic":1,"isfriend":0,"isfamily":0},{"id":"52358276843","owner":"196264892@N08","secret":"5251ccd0e7","server":"65535","farm":66,"title":"Short-billed Dowitcher","ispublic":1,"isfriend":0,"isfamily":0},{"id":"52354474677","owner":"78250819@N07","secret":"f19bd43807","server":"65535","farm":66,"title":"Costurera- Agujeta Piquicorta- Limnodromus griseus- Short-billed Dowitcher","ispublic":1,"isfriend":0,"isfamily":0},{"id":"52353101707","owner":"126297346@N07","secret":"c04970c2b6","server":"65535","farm":66,"title":"B\u00e9cassin roux | Baie Missisquoi | Saint-Armand, Qu\u00e9bec","ispublic":1,"isfriend":0,"isfamily":0},{"id":"52349711026","owner":"78250819@N07","secret":"021d6bab27","server":"65535","farm":66,"title":"Costurera- Agujeta Piquicorta- Limnodromus griseus- Short-billed Dowitcher","ispublic":1,"isfriend":0,"isfamily":0},{"id":"52344336754","owner":"39177293@N03","secret":"a6b3c8b3bf","server":"65535","farm":66,"title":"Great Black-backed Gull and Short-billed Dowitcher","ispublic":1,"isfriend":0,"isfamily":0},{"id":"52343927554","owner":"129803374@N05","secret":"e2db8b28de","server":"65535","farm":66,"title":"Short-billed Dowitcher (Limnodromus griseus)","ispublic":1,"isfriend":0,"isfamily":0},{"id":"52340854818","owner":"165841515@N03","secret":"039df262d8","server":"65535","farm":66,"title":"B\u00e9cassin roux \/ Shorted-billed Dowitcher \/ (Limnodromus griseus)","ispublic":1,"isfriend":0,"isfamily":0},{"id":"52330125279","owner":"165841515@N03","secret":"c554dbcb3a","server":"65535","farm":66,"title":"B\u00e9cassin roux \/ Shorted-billed Dowitcher \/ (Limnodromus griseus)","ispublic":1,"isfriend":0,"isfamily":0},{"id":"52326721518","owner":"152675955@N08","secret":"44256e60db","server":"65535","farm":66,"title":"Beaut\u00e9 de rivage \/  Shoreline beauty","ispublic":1,"isfriend":0,"isfamily":0},{"id":"52325053088","owner":"54546220@N00","secret":"7e2bb2c5db","server":"65535","farm":66,"title":"Agujeta Piquicorta, Short-billed Dowitcher (Limnodromus","ispublic":1,"isfriend":0,"isfamily":0},{"id":"52324733221","owner":"54546220@N00","secret":"89ace0e0d0","server":"65535","farm":66,"title":"Agujeta Piquicorta, Short-billed Dowitcher (Limnodromus","ispublic":1,"isfriend":0,"isfamily":0},{"id":"52325160149","owner":"54546220@N00","secret":"59129ef0a2","server":"65535","farm":66,"title":"Agujeta Piquicorta, Short-billed Dowitcher (Limnodromus","ispublic":1,"isfriend":0,"isfamily":0},{"id":"52325173175","owner":"54546220@N00","secret":"ff9ca08743","server":"65535","farm":66,"title":"Agujeta Piquicorta, Short-billed Dowitcher (Limnodromus","ispublic":1,"isfriend":0,"isfamily":0},{"id":"52324730556","owner":"54546220@N00","secret":"babab14537","server":"65535","farm":66,"title":"Agujeta Piquicorta, Short-billed Dowitcher (Limnodromus","ispublic":1,"isfriend":0,"isfamily":0},{"id":"52324729541","owner":"54546220@N00","secret":"9703d958ef","server":"65535","farm":66,"title":"Agujeta Piquicorta, Short-billed Dowitcher (Limnodromus","ispublic":1,"isfriend":0,"isfamily":0},{"id":"52325156089","owner":"54546220@N00","secret":"13e5284bc7","server":"65535","farm":66,"title":"Agujeta Piquicorta, Short-billed Dowitcher (Limnodromus","ispublic":1,"isfriend":0,"isfamily":0},{"id":"52323923442","owner":"54546220@N00","secret":"551675c268","server":"65535","farm":66,"title":"Agujeta Piquicorta, Short-billed Dowitcher (Limnodromus","ispublic":1,"isfriend":0,"isfamily":0},{"id":"52645144903","owner":"8013969@N03","secret":"6cea3c64b4","server":"65535","farm":66,"title":"Limnodromus griseus DFL nj22-1","ispublic":1,"isfriend":0,"isfamily":0},{"id":"52579779322","owner":"153973412@N04","secret":"3c055d6150","server":"65535","farm":66,"title":"Short-billed Dowitcher-Limnodromus griseus, Iowa City, IA","ispublic":1,"isfriend":0,"isfamily":0},{"id":"52555677026","owner":"103722035@N06","secret":"2b92035ffc","server":"65535","farm":66,"title":"Short-billed Dowitcher (Limnodromus griseus), Los Osos, CA","ispublic":1,"isfriend":0,"isfamily":0},{"id":"52533182441","owner":"189423275@N04","secret":"2851be4b92","server":"65535","farm":66,"title":"Short-billed Dowitcher Walking in Surf","ispublic":1,"isfriend":0,"isfamily":0},{"id":"52521333543","owner":"140734051@N08","secret":"07e2d474c9","server":"65535","farm":66,"title":"\u041a\u043e\u0440\u043e\u0442\u043a\u043e\u043a\u043b\u044e\u0432\u044b\u0439 \u0431\u0435\u043a\u0430\u0441\u043e\u0432\u0438\u0434\u043d\u044b\u0439 \u0432\u0435\u0440\u0435\u0442\u0435\u043d\u043d\u0438\u043a, Limnodromus griseus caurinus, Short-billed Dowitcher","ispublic":1,"isfriend":0,"isfamily":0},{"id":"52520315222","owner":"140734051@N08","secret":"981345e5ab","server":"65535","farm":66,"title":"\u041a\u043e\u0440\u043e\u0442\u043a\u043e\u043a\u043b\u044e\u0432\u044b\u0439 \u0431\u0435\u043a\u0430\u0441\u043e\u0432\u0438\u0434\u043d\u044b\u0439 \u0432\u0435\u0440\u0435\u0442\u0435\u043d\u043d\u0438\u043a, Limnodromus griseus caurinus, Short-billed Dowitcher","ispublic":1,"isfriend":0,"isfamily":0},{"id":"52521064234","owner":"140734051@N08","secret":"f3cd5c7f05","server":"65535","farm":66,"title":"\u041a\u043e\u0440\u043e\u0442\u043a\u043e\u043a\u043b\u044e\u0432\u044b\u0439 \u0431\u0435\u043a\u0430\u0441\u043e\u0432\u0438\u0434\u043d\u044b\u0439 \u0432\u0435\u0440\u0435\u0442\u0435\u043d\u043d\u0438\u043a, Limnodromus griseus caurinus, Short-billed Dowitcher","ispublic":1,"isfriend":0,"isfamily":0},{"id":"52521266920","owner":"140734051@N08","secret":"2951d009b7","server":"65535","farm":66,"title":"\u041a\u043e\u0440\u043e\u0442\u043a\u043e\u043a\u043b\u044e\u0432\u044b\u0439 \u0431\u0435\u043a\u0430\u0441\u043e\u0432\u0438\u0434\u043d\u044b\u0439 \u0432\u0435\u0440\u0435\u0442\u0435\u043d\u043d\u0438\u043a, Limnodromus griseus caurinus, Short-billed Dowitcher","ispublic":1,"isfriend":0,"isfamily":0},{"id":"52521063884","owner":"140734051@N08","secret":"f45d451d82","server":"65535","farm":66,"title":"\u041a\u043e\u0440\u043e\u0442\u043a\u043e\u043a\u043b\u044e\u0432\u044b\u0439 \u0431\u0435\u043a\u0430\u0441\u043e\u0432\u0438\u0434\u043d\u044b\u0439 \u0432\u0435\u0440\u0435\u0442\u0435\u043d\u043d\u0438\u043a, Limnodromus griseus caurinus, Short-billed Dowitcher","ispublic":1,"isfriend":0,"isfamily":0},{"id":"52521265910","owner":"140734051@N08","secret":"0208f1707f","server":"65535","farm":66,"title":"\u041a\u043e\u0440\u043e\u0442\u043a\u043e\u043a\u043b\u044e\u0432\u044b\u0439 \u0431\u0435\u043a\u0430\u0441\u043e\u0432\u0438\u0434\u043d\u044b\u0439 \u0432\u0435\u0440\u0435\u0442\u0435\u043d\u043d\u0438\u043a, Limnodromus griseus caurinus, Short-billed Dowitcher","ispublic":1,"isfriend":0,"isfamily":0},{"id":"52521332238","owner":"140734051@N08","secret":"a5847229c2","server":"65535","farm":66,"title":"\u041a\u043e\u0440\u043e\u0442\u043a\u043e\u043a\u043b\u044e\u0432\u044b\u0439 \u0431\u0435\u043a\u0430\u0441\u043e\u0432\u0438\u0434\u043d\u044b\u0439 \u0432\u0435\u0440\u0435\u0442\u0435\u043d\u043d\u0438\u043a, Limnodromus griseus caurinus, Short-billed Dowitcher","ispublic":1,"isfriend":0,"isfamily":0},{"id":"52521332103","owner":"140734051@N08","secret":"ccfcf750b5","server":"65535","farm":66,"title":"\u041a\u043e\u0440\u043e\u0442\u043a\u043e\u043a\u043b\u044e\u0432\u044b\u0439 \u0431\u0435\u043a\u0430\u0441\u043e\u0432\u0438\u0434\u043d\u044b\u0439 \u0432\u0435\u0440\u0435\u0442\u0435\u043d\u043d\u0438\u043a, Limnodromus griseus caurinus, Short-billed Dowitcher","ispublic":1,"isfriend":0,"isfamily":0},{"id":"52521062604","owner":"140734051@N08","secret":"480abc22c7","server":"65535","farm":66,"title":"\u041a\u043e\u0440\u043e\u0442\u043a\u043e\u043a\u043b\u044e\u0432\u044b\u0439 \u0431\u0435\u043a\u0430\u0441\u043e\u0432\u0438\u0434\u043d\u044b\u0439 \u0432\u0435\u0440\u0435\u0442\u0435\u043d\u043d\u0438\u043a, Limnodromus griseus caurinus, Short-billed Dowitcher","ispublic":1,"isfriend":0,"isfamily":0},{"id":"52517322425","owner":"140734051@N08","secret":"a7b01b740e","server":"65535","farm":66,"title":"\u041a\u043e\u0440\u043e\u0442\u043a\u043e\u043a\u043b\u044e\u0432\u044b\u0439 \u0431\u0435\u043a\u0430\u0441\u043e\u0432\u0438\u0434\u043d\u044b\u0439 \u0432\u0435\u0440\u0435\u0442\u0435\u043d\u043d\u0438\u043a, Limnodromus griseus caurinus, Short-billed Dowitcher","ispublic":1,"isfriend":0,"isfamily":0},{"id":"52516367662","owner":"140734051@N08","secret":"cfdd1e2537","server":"65535","farm":66,"title":"\u041a\u043e\u0440\u043e\u0442\u043a\u043e\u043a\u043b\u044e\u0432\u044b\u0439 \u0431\u0435\u043a\u0430\u0441\u043e\u0432\u0438\u0434\u043d\u044b\u0439 \u0432\u0435\u0440\u0435\u0442\u0435\u043d\u043d\u0438\u043a, Limnodromus griseus caurinus, Short-billed Dowitcher","ispublic":1,"isfriend":0,"isfamily":0},{"id":"52517111504","owner":"140734051@N08","secret":"67923c3b23","server":"65535","farm":66,"title":"\u041a\u043e\u0440\u043e\u0442\u043a\u043e\u043a\u043b\u044e\u0432\u044b\u0439 \u0431\u0435\u043a\u0430\u0441\u043e\u0432\u0438\u0434\u043d\u044b\u0439 \u0432\u0435\u0440\u0435\u0442\u0435\u043d\u043d\u0438\u043a, Limnodromus griseus caurinus, Short-billed Dowitcher","ispublic":1,"isfriend":0,"isfamily":0},{"id":"52516841926","owner":"140734051@N08","secret":"b3c257044a","server":"65535","farm":66,"title":"\u041a\u043e\u0440\u043e\u0442\u043a\u043e\u043a\u043b\u044e\u0432\u044b\u0439 \u0431\u0435\u043a\u0430\u0441\u043e\u0432\u0438\u0434\u043d\u044b\u0439 \u0432\u0435\u0440\u0435\u0442\u0435\u043d\u043d\u0438\u043a, Limnodromus griseus caurinus, Short-billed Dowitcher","ispublic":1,"isfriend":0,"isfamily":0},{"id":"52517321145","owner":"140734051@N08","secret":"0d2480f0c9","server":"65535","farm":66,"title":"\u041a\u043e\u0440\u043e\u0442\u043a\u043e\u043a\u043b\u044e\u0432\u044b\u0439 \u0431\u0435\u043a\u0430\u0441\u043e\u0432\u0438\u0434\u043d\u044b\u0439 \u0432\u0435\u0440\u0435\u0442\u0435\u043d\u043d\u0438\u043a, Limnodromus griseus caurinus, Short-billed Dowitcher","ispublic":1,"isfriend":0,"isfamily":0},{"id":"52516841381","owner":"140734051@N08","secret":"6b39312239","server":"65535","farm":66,"title":"\u041a\u043e\u0440\u043e\u0442\u043a\u043e\u043a\u043b\u044e\u0432\u044b\u0439 \u0431\u0435\u043a\u0430\u0441\u043e\u0432\u0438\u0434\u043d\u044b\u0439 \u0432\u0435\u0440\u0435\u0442\u0435\u043d\u043d\u0438\u043a, Limnodromus griseus caurinus, Short-billed Dowitcher","ispublic":1,"isfriend":0,"isfamily":0},{"id":"52516839986","owner":"140734051@N08","secret":"77623bc4d3","server":"65535","farm":66,"title":"\u041a\u043e\u0440\u043e\u0442\u043a\u043e\u043a\u043b\u044e\u0432\u044b\u0439 \u0431\u0435\u043a\u0430\u0441\u043e\u0432\u0438\u0434\u043d\u044b\u0439 \u0432\u0435\u0440\u0435\u0442\u0435\u043d\u043d\u0438\u043a, Limnodromus griseus caurinus, Short-billed Dowitcher","ispublic":1,"isfriend":0,"isfamily":0},{"id":"52517387633","owner":"140734051@N08","secret":"e2b8e9ee8e","server":"65535","farm":66,"title":"\u041a\u043e\u0440\u043e\u0442\u043a\u043e\u043a\u043b\u044e\u0432\u044b\u0439 \u0431\u0435\u043a\u0430\u0441\u043e\u0432\u0438\u0434\u043d\u044b\u0439 \u0432\u0435\u0440\u0435\u0442\u0435\u043d\u043d\u0438\u043a, Limnodromus griseus caurinus, Short-billed Dowitcher","ispublic":1,"isfriend":0,"isfamily":0},{"id":"52517317965","owner":"140734051@N08","secret":"5ed516ca31","server":"65535","farm":66,"title":"\u041a\u043e\u0440\u043e\u0442\u043a\u043e\u043a\u043b\u044e\u0432\u044b\u0439 \u0431\u0435\u043a\u0430\u0441\u043e\u0432\u0438\u0434\u043d\u044b\u0439 \u0432\u0435\u0440\u0435\u0442\u0435\u043d\u043d\u0438\u043a, Limnodromus griseus caurinus, Short-billed Dowitcher","ispublic":1,"isfriend":0,"isfamily":0},{"id":"52399455002","owner":"34238008@N02","secret":"540594f6bb","server":"65535","farm":66,"title":"Short-billed Dowitcher (Limnodromus griseus)","ispublic":1,"isfriend":0,"isfamily":0},{"id":"52358530216","owner":"39445433@N02","secret":"f26b2e75f3","server":"65535","farm":66,"title":"Short-billed dowitcher","ispublic":1,"isfriend":0,"isfamily":0},{"id":"52358764553","owner":"39445433@N02","secret":"1fcd94ec12","server":"65535","farm":66,"title":"Short-billed dowitcher","ispublic":1,"isfriend":0,"isfamily":0},{"id":"52358042041","owner":"196264892@N08","secret":"016653bd79","server":"65535","farm":66,"title":"Short-billed Dowitcher","ispublic":1,"isfriend":0,"isfamily":0},{"id":"52358041296","owner":"196264892@N08","secret":"f37ddb8818","server":"65535","farm":66,"title":"Short-billed Dowitcher","ispublic":1,"isfriend":0,"isfamily":0},{"id":"52357090617","owner":"196264892@N08","secret":"480a5c46ee","server":"65535","farm":66,"title":"Short-billed Dowitchers","ispublic":1,"isfriend":0,"isfamily":0},{"id":"52358462955","owner":"196264892@N08","secret":"2ecb0aae48","server":"65535","farm":66,"title":"Short-billed Dowitcher","ispublic":1,"isfriend":0,"isfamily":0},{"id":"52350778244","owner":"159284114@N07","secret":"8ae7cc991e","server":"65535","farm":66,"title":"B\u00e9cassin roux","ispublic":1,"isfriend":0,"isfamily":0},{"id":"52344693660","owner":"11928454@N04","secret":"3f7e15da80","server":"65535","farm":66,"title":"IMG_1056.jpg","ispublic":1,"isfriend":0,"isfamily":0},{"id":"52329936320","owner":"39445433@N02","secret":"4988a96827","server":"65535","farm":66,"title":"Short-Billed Dowitcher","ispublic":1,"isfriend":0,"isfamily":0}]},"stat":"ok"}