{"photos":{"page":1,"pages":24,"perpage":100,"total":2348,"photo":[{"id":"52790520992","owner":"22357152@N02","secret":"1540e71e39","server":"65535","farm":66,"title":"Red-Billed Gull","ispublic":1,"isfriend":0,"isfamily":0},{"id":"52788699884","owner":"21998518@N08","secret":"a49efb8ed8","server":"65535","farm":66,"title":"Gull carrying seaweed","ispublic":1,"isfriend":0,"isfamily":0},{"id":"52788699829","owner":"21998518@N08","secret":"fd565996a6","server":"65535","farm":66,"title":"About to land","ispublic":1,"isfriend":0,"isfamily":0},{"id":"52788861055","owner":"21998518@N08","secret":"d175e7a420","server":"65535","farm":66,"title":"Red-billed Gull Portrait","ispublic":1,"isfriend":0,"isfamily":0},{"id":"52771235484","owner":"22357152@N02","secret":"6c16dd1318","server":"65535","farm":66,"title":"Watch Out Below...","ispublic":1,"isfriend":0,"isfamily":0},{"id":"52763573911","owner":"182379969@N08","secret":"331186cb7c","server":"65535","farm":66,"title":"Tar\u0101punga or Red-billed Gull - Chroicocephalus novaehollandiae","ispublic":1,"isfriend":0,"isfamily":0},{"id":"52757481865","owner":"23946780@N08","secret":"44075b5db2","server":"65535","farm":66,"title":"Silver Gull (Chroicocephalus novaehollandiae)","ispublic":1,"isfriend":0,"isfamily":0},{"id":"52756915408","owner":"37700962@N02","secret":"f7ed273ef8","server":"65535","farm":66,"title":"Flying High!","ispublic":1,"isfriend":0,"isfamily":0},{"id":"52746768523","owner":"18835161@N02","secret":"b69d70c290","server":"65535","farm":66,"title":"Red-Billed Gull (Chroicocephalus novaehollandiae scopulinus), K\u0101tiki Point, South Island, New Zealand","ispublic":1,"isfriend":0,"isfamily":0},{"id":"52746273131","owner":"81397674@N07","secret":"b75cb58245","server":"65535","farm":66,"title":"Red-Billed Gull (Chroicocephalus novaehollandiae scopulinus), K\u0101tiki Point, South Island, New Zealand","ispublic":1,"isfriend":0,"isfamily":0},{"id":"52737430911","owner":"108755156@N05","secret":"b31f34586e","server":"65535","farm":66,"title":"Catching The Breeze","ispublic":1,"isfriend":0,"isfamily":0},{"id":"52723598855","owner":"197300849@N07","secret":"b0caa0a7df","server":"65535","farm":66,"title":"Australian Silver Gull (Chroicocephalus novaehollandiae)","ispublic":1,"isfriend":0,"isfamily":0},{"id":"52722430936","owner":"37700962@N02","secret":"9fa99a7da9","server":"65535","farm":66,"title":"Silver Gull","ispublic":1,"isfriend":0,"isfamily":0},{"id":"52719956162","owner":"108755156@N05","secret":"e65985f8d3","server":"65535","farm":66,"title":"Incoming","ispublic":1,"isfriend":0,"isfamily":0},{"id":"52697772052","owner":"29826595@N06","secret":"7fced2b8e2","server":"65535","farm":66,"title":"Hurry up, then!","ispublic":1,"isfriend":0,"isfamily":0},{"id":"52697731487","owner":"29826595@N06","secret":"35f111ef8d","server":"65535","farm":66,"title":"Chips coming!","ispublic":1,"isfriend":0,"isfamily":0},{"id":"52693876368","owner":"37700962@N02","secret":"cca51ce168","server":"65535","farm":66,"title":"\"It's way too hot today!\"","ispublic":1,"isfriend":0,"isfamily":0},{"id":"52690934520","owner":"191763015@N02","secret":"62f5d1ce02","server":"65535","farm":66,"title":"SPIN-DRY","ispublic":1,"isfriend":0,"isfamily":0},{"id":"52679390237","owner":"151243583@N08","secret":"7d80ccc38b","server":"65535","farm":66,"title":"Silver Gull (Seagull)","ispublic":1,"isfriend":0,"isfamily":0},{"id":"52677415861","owner":"7807403@N08","secret":"4d1288054b","server":"65535","farm":66,"title":"Silver gulls, Rockingham (WA, AU), 1980","ispublic":1,"isfriend":0,"isfamily":0},{"id":"52676140853","owner":"40195635@N03","secret":"bb4387fc11","server":"65535","farm":66,"title":"Silver Gull (Chroicocephalus novaehollandiae)","ispublic":1,"isfriend":0,"isfamily":0},{"id":"52676122993","owner":"40195635@N03","secret":"da75611b8b","server":"65535","farm":66,"title":"Silver Gull (Chroicocephalus novaehollandiae)","ispublic":1,"isfriend":0,"isfamily":0},{"id":"52675614156","owner":"40195635@N03","secret":"a1f41c4a66","server":"65535","farm":66,"title":"Silver Gull (Chroicocephalus novaehollandiae)","ispublic":1,"isfriend":0,"isfamily":0},{"id":"52669144762","owner":"40195635@N03","secret":"0dc775c28f","server":"65535","farm":66,"title":"Silver Gull (Chroicocephalus novaehollandiae)","ispublic":1,"isfriend":0,"isfamily":0},{"id":"52661748191","owner":"79075007@N04","secret":"8d2ed3997c","server":"65535","farm":66,"title":"Tarapunga | Red-billed gulls","ispublic":1,"isfriend":0,"isfamily":0},{"id":"52640682903","owner":"119787485@N07","secret":"f686ae39ee","server":"65535","farm":66,"title":"Silver Gull (Chroicocephalus novaehollandiae novaehollandiae) - 20220926-09","ispublic":1,"isfriend":0,"isfamily":0},{"id":"52634504788","owner":"37700962@N02","secret":"1179471dae","server":"65535","farm":66,"title":"\"I'm hungry\"","ispublic":1,"isfriend":0,"isfamily":0},{"id":"52631976121","owner":"37700962@N02","secret":"846e0dcfbb","server":"65535","farm":66,"title":"Greeting the morning.","ispublic":1,"isfriend":0,"isfamily":0},{"id":"52627922674","owner":"21998518@N08","secret":"c8f4d73791","server":"65535","farm":66,"title":"20230114_8678_7D2-451 Red-billed Gull eating small barnacles","ispublic":1,"isfriend":0,"isfamily":0},{"id":"52624406073","owner":"40195635@N03","secret":"bc820d273b","server":"65535","farm":66,"title":"Silver Gull (Chroicocephalus novaehollandiae)","ispublic":1,"isfriend":0,"isfamily":0},{"id":"52612806817","owner":"197288397@N02","secret":"05f6079300","server":"65535","farm":66,"title":"Seagulls 1,000 kms from the sea","ispublic":1,"isfriend":0,"isfamily":0},{"id":"52607492846","owner":"197288397@N02","secret":"7b916b289a","server":"65535","farm":66,"title":"Three snoozing silver gulls - Chroicocephalus novaehollandiae","ispublic":1,"isfriend":0,"isfamily":0},{"id":"52583575223","owner":"26822473@N06","secret":"cc18eae457","server":"65535","farm":66,"title":"Silver Gull (Chroicocephalus novaehollandiae)","ispublic":1,"isfriend":0,"isfamily":0},{"id":"52583575068","owner":"26822473@N06","secret":"ace28c6497","server":"65535","farm":66,"title":"Silver Gull (Chroicocephalus novaehollandiae)","ispublic":1,"isfriend":0,"isfamily":0},{"id":"52570326517","owner":"23946780@N08","secret":"294e18c67a","server":"65535","farm":66,"title":"Alone","ispublic":1,"isfriend":0,"isfamily":0},{"id":"52569289146","owner":"21998518@N08","secret":"c79614a39b","server":"65535","farm":66,"title":"20221217_7109_7D2-435 Launch phase (351\/365)","ispublic":1,"isfriend":0,"isfamily":0},{"id":"52566171036","owner":"76729899@N04","secret":"6c402a959e","server":"65535","farm":66,"title":"Silver Gull (Chroicocephalus novaehollandiae)_6873","ispublic":1,"isfriend":0,"isfamily":0},{"id":"52537294978","owner":"22357152@N02","secret":"521cfd9d71","server":"65535","farm":66,"title":"Red-Billed Gull","ispublic":1,"isfriend":0,"isfamily":0},{"id":"52536241725","owner":"21606110@N08","secret":"c7452f6315","server":"65535","farm":66,"title":"Silver Gull","ispublic":1,"isfriend":0,"isfamily":0},{"id":"52532960281","owner":"90408688@N02","secret":"0c2f4f0b93","server":"65535","farm":66,"title":"Chroicocephalus novaehollandiae novaehollandiae - Australian Silver Gull","ispublic":1,"isfriend":0,"isfamily":0},{"id":"52525879094","owner":"57465751@N05","secret":"5e7aa13db9","server":"65535","farm":66,"title":"Silver Gull (Chroicocephalus novaehollandiae), Royal Botanic Gardens, Sydney, Australia","ispublic":1,"isfriend":0,"isfamily":0},{"id":"52516846395","owner":"66383090@N02","secret":"88cc1ab779","server":"65535","farm":66,"title":"Eyes on the prize","ispublic":1,"isfriend":0,"isfamily":0},{"id":"52501427664","owner":"15605437@N08","secret":"f50e280ef7","server":"65535","farm":66,"title":"Silver Gull","ispublic":1,"isfriend":0,"isfamily":0},{"id":"52496112845","owner":"183378154@N06","secret":"11da02d0f3","server":"65535","farm":66,"title":"Chroicocephalus novaehollandiae (Silver Gull)","ispublic":1,"isfriend":0,"isfamily":0},{"id":"52475075237","owner":"21998518@N08","secret":"f70d198005","server":"65535","farm":66,"title":"20221103_2328_7D2-150 Red-billed Gull","ispublic":1,"isfriend":0,"isfamily":0},{"id":"52474887190","owner":"119787485@N07","secret":"b451f7d80f","server":"65535","farm":66,"title":"Silver Gull (Chroicocephalus novaehollandiae novaehollandiae) - 20220925-06","ispublic":1,"isfriend":0,"isfamily":0},{"id":"52451126185","owner":"195295144@N03","secret":"eb036bdc62","server":"65535","farm":66,"title":"Chroicocephalus novaehollandiae","ispublic":1,"isfriend":0,"isfamily":0},{"id":"52433720148","owner":"29826595@N06","secret":"64725cafda","server":"65535","farm":66,"title":"Silver Gull","ispublic":1,"isfriend":0,"isfamily":0},{"id":"52424894858","owner":"21998518@N08","secret":"f1edfa0b7d","server":"65535","farm":66,"title":"20221013_4236_7D2-421 Nesting Material","ispublic":1,"isfriend":0,"isfamily":0},{"id":"52424832090","owner":"21998518@N08","secret":"c25e1b645b","server":"65535","farm":66,"title":"20221013_4562_7D2-324 Rooftop Altercation","ispublic":1,"isfriend":0,"isfamily":0},{"id":"52424832020","owner":"21998518@N08","secret":"db71f4c33e","server":"65535","farm":66,"title":"20221013_4579_7D2-468 I am talking to you! Don't turn your back to me!","ispublic":1,"isfriend":0,"isfamily":0},{"id":"52421660522","owner":"144209596@N08","secret":"6e50c414a5","server":"65535","farm":66,"title":"Two's Company","ispublic":1,"isfriend":0,"isfamily":0},{"id":"52421856555","owner":"69947563@N07","secret":"3771b02082","server":"65535","farm":66,"title":"Silver Gull - Kingborough, Tasmania, Australia","ispublic":1,"isfriend":0,"isfamily":0},{"id":"52379775523","owner":"129013862@N04","secret":"ff5e293308","server":"65535","farm":66,"title":"Silver Gull (Chroicocephalus novaehollandiae)","ispublic":1,"isfriend":0,"isfamily":0},{"id":"52379775478","owner":"129013862@N04","secret":"c2519ee145","server":"65535","farm":66,"title":"Silver Gull (Chroicocephalus novaehollandiae)","ispublic":1,"isfriend":0,"isfamily":0},{"id":"52375812556","owner":"28562920@N02","secret":"01cefda1c5","server":"65535","farm":66,"title":"Silver Gulls","ispublic":1,"isfriend":0,"isfamily":0},{"id":"52343041090","owner":"130281204@N06","secret":"e2154f4baf","server":"65535","farm":66,"title":"Here's looking' at you :)","ispublic":1,"isfriend":0,"isfamily":0},{"id":"52340446173","owner":"140838633@N08","secret":"30d9c0b336","server":"65535","farm":66,"title":"Seagull with Cuttlefish","ispublic":1,"isfriend":0,"isfamily":0},{"id":"52338637757","owner":"57541585@N05","secret":"936e4c1589","server":"65535","farm":66,"title":"Silver gull (Chroicocephalus novaehollandiae), Hobart, Tasmania","ispublic":1,"isfriend":0,"isfamily":0},{"id":"52338094884","owner":"130281204@N06","secret":"ed44821e33","server":"65535","farm":66,"title":"on our balcony","ispublic":1,"isfriend":0,"isfamily":0},{"id":"52335425861","owner":"130281204@N06","secret":"7842329b55","server":"65535","farm":66,"title":"Silver Gull","ispublic":1,"isfriend":0,"isfamily":0},{"id":"52321832160","owner":"137103568@N04","secret":"f6bf0eac3c","server":"65535","farm":66,"title":"Australian Pelican (Pelecanus conspicillatus) and Silver Gulls (Chroicocephalus novaehollandiae)","ispublic":1,"isfriend":0,"isfamily":0},{"id":"52320531727","owner":"137103568@N04","secret":"9bdb499129","server":"65535","farm":66,"title":"Silver Gull (Chroicocephalus novaehollandiae), adult with chick","ispublic":1,"isfriend":0,"isfamily":0},{"id":"52317017678","owner":"184611080@N06","secret":"0e30eb0538","server":"65535","farm":66,"title":"Seagull Photobomb","ispublic":1,"isfriend":0,"isfamily":0},{"id":"52305275691","owner":"27174440@N05","secret":"b498b17f98","server":"65535","farm":66,"title":"Silver Gull (Chroicocephalus novaehollandiae) in flight","ispublic":1,"isfriend":0,"isfamily":0},{"id":"52296458690","owner":"130281204@N06","secret":"95165f5347","server":"65535","farm":66,"title":"Silver Gulls","ispublic":1,"isfriend":0,"isfamily":0},{"id":"52291200398","owner":"57465751@N05","secret":"6ae92612c5","server":"65535","farm":66,"title":"Silver Gull (Chroicocephalus novaehollandiae), Cairns, QLD, Australia","ispublic":1,"isfriend":0,"isfamily":0},{"id":"52287426279","owner":"130281204@N06","secret":"fb37e3b968","server":"65535","farm":66,"title":"Silver Gull in green","ispublic":1,"isfriend":0,"isfamily":0},{"id":"52286917181","owner":"130281204@N06","secret":"2d8ab3f14f","server":"65535","farm":66,"title":"Silver Gulls","ispublic":1,"isfriend":0,"isfamily":0},{"id":"52284902375","owner":"28562920@N02","secret":"ab4bc77e11","server":"65535","farm":66,"title":"Silver Gull","ispublic":1,"isfriend":0,"isfamily":0},{"id":"52282483200","owner":"57465751@N05","secret":"9e8209506b","server":"65535","farm":66,"title":"Silver Gull (Chroicocephalus novaehollandiae), imm., Waikerie, SA, Australia","ispublic":1,"isfriend":0,"isfamily":0},{"id":"52281696988","owner":"57465751@N05","secret":"5a4eb17bdb","server":"65535","farm":66,"title":"Subadult Silver Gull (Chroicocephalus novaehollandiae), Port Wakefield, SA, Australia","ispublic":1,"isfriend":0,"isfamily":0},{"id":"52281696718","owner":"57465751@N05","secret":"6f127de796","server":"65535","farm":66,"title":"Adult Silver Gull (Chroicocephalus novaehollandiae), Port Wakefield, SA, Australia","ispublic":1,"isfriend":0,"isfamily":0},{"id":"52280546700","owner":"21998518@N08","secret":"5c8c0e8e7c","server":"65535","farm":66,"title":"20220812_9233_7D2-200 Red-billed Gull","ispublic":1,"isfriend":0,"isfamily":0},{"id":"52276810792","owner":"108755156@N05","secret":"35a65bee9e","server":"65535","farm":66,"title":"Should I Go?","ispublic":1,"isfriend":0,"isfamily":0},{"id":"52269284144","owner":"130281204@N06","secret":"389bdf7696","server":"65535","farm":66,"title":"Silver Gulls","ispublic":1,"isfriend":0,"isfamily":0},{"id":"52233091394","owner":"130281204@N06","secret":"1f16fd024e","server":"65535","farm":66,"title":"Silver Gull","ispublic":1,"isfriend":0,"isfamily":0},{"id":"52227032959","owner":"47558061@N03","secret":"1b596285da","server":"65535","farm":66,"title":"Waiting","ispublic":1,"isfriend":0,"isfamily":0},{"id":"52215756745","owner":"147407353@N06","secret":"92e41807cd","server":"65535","farm":66,"title":"Silver gull","ispublic":1,"isfriend":0,"isfamily":0},{"id":"52197496509","owner":"195041296@N07","secret":"382443aab1","server":"65535","farm":66,"title":"IMG_1005 Silver Gull","ispublic":1,"isfriend":0,"isfamily":0},{"id":"52195349603","owner":"40883175@N06","secret":"e627b209af","server":"65535","farm":66,"title":"Silver Gulls","ispublic":1,"isfriend":0,"isfamily":0},{"id":"52171466198","owner":"78247220@N08","secret":"1638b35f19","server":"65535","farm":66,"title":"Chroicocephalus novaehollandiae","ispublic":1,"isfriend":0,"isfamily":0},{"id":"52170442177","owner":"78247220@N08","secret":"853fcb2bca","server":"65535","farm":66,"title":"Chroicocephalus novaehollandiae","ispublic":1,"isfriend":0,"isfamily":0},{"id":"52611837267","owner":"196352161@N06","secret":"8efccd0aa6","server":"65535","farm":66,"title":"Silver Gull.","ispublic":1,"isfriend":0,"isfamily":0},{"id":"52536873956","owner":"57465751@N05","secret":"f2d216158e","server":"65535","farm":66,"title":"Silver Gull (Chroicocephalus novaehollandiae),  Hamelin Bay, Western Australia","ispublic":1,"isfriend":0,"isfamily":0},{"id":"52533278294","owner":"31864021@N08","secret":"da281da03f","server":"65535","farm":66,"title":"Tar\u0101punga - red-billed gull - Chroicocephalus novaehollandiae","ispublic":1,"isfriend":0,"isfamily":0},{"id":"52525016467","owner":"146833745@N04","secret":"80a3f95d90","server":"65535","farm":66,"title":"Silver Gulls (Chroicocephalus novaehollandiae)","ispublic":1,"isfriend":0,"isfamily":0},{"id":"52526022058","owner":"146833745@N04","secret":"feefa0b9fc","server":"65535","farm":66,"title":"Silver Gulls (chroicocephalus novaehollandiae) - Clever bird nesting under pile of nautical 'junk'.","ispublic":1,"isfriend":0,"isfamily":0},{"id":"52526021898","owner":"146833745@N04","secret":"219ab84123","server":"65535","farm":66,"title":"Silver Gulls (Chroicocephalus novaehollandiae) - adult with nest containing three eggs","ispublic":1,"isfriend":0,"isfamily":0},{"id":"52525747784","owner":"146833745@N04","secret":"50ba7200fa","server":"65535","farm":66,"title":"Silver Gulls (chroicocephalus novaehollandiae)","ispublic":1,"isfriend":0,"isfamily":0},{"id":"52458481855","owner":"53024483@N02","secret":"69164180ca","server":"65535","farm":66,"title":"Silver Gull (Chroicocephalus novaehollandiae)","ispublic":1,"isfriend":0,"isfamily":0},{"id":"52449972772","owner":"53024483@N02","secret":"0ba7764c9a","server":"65535","farm":66,"title":"Silver Gull (Chroicocephalus novaehollandiae)","ispublic":1,"isfriend":0,"isfamily":0},{"id":"52450753814","owner":"53024483@N02","secret":"3a9d0ecd74","server":"65535","farm":66,"title":"Silver Gull (Chroicocephalus novaehollandiae)","ispublic":1,"isfriend":0,"isfamily":0},{"id":"52441330094","owner":"158985915@N03","secret":"a9cd038f53","server":"65535","farm":66,"title":"Silver gull (juvenile)","ispublic":1,"isfriend":0,"isfamily":0},{"id":"52342781501","owner":"117755141@N02","secret":"239997b8ff","server":"65535","farm":66,"title":"Silver Gull (Chroicocephalus novaehollandiae)","ispublic":1,"isfriend":0,"isfamily":0},{"id":"52333037788","owner":"130281204@N06","secret":"48fb412edc","server":"65535","farm":66,"title":"Birds can't read\ud83d\ude01","ispublic":1,"isfriend":0,"isfamily":0},{"id":"52222180140","owner":"130281204@N06","secret":"77e960b530","server":"65535","farm":66,"title":"Silver Gulls","ispublic":1,"isfriend":0,"isfamily":0},{"id":"52189795654","owner":"122986762@N04","secret":"8dbb288d26","server":"65535","farm":66,"title":"Silver Gull (Chroicocephalus novaehollandiae) #bird","ispublic":1,"isfriend":0,"isfamily":0},{"id":"52187692733","owner":"130281204@N06","secret":"6a5dfb7830","server":"65535","farm":66,"title":"Silver Gull and Pelican","ispublic":1,"isfriend":0,"isfamily":0},{"id":"52171710829","owner":"78247220@N08","secret":"5922e25211","server":"65535","farm":66,"title":"Chroicocephalus novaehollandiae, Haematopus fuliginosus","ispublic":1,"isfriend":0,"isfamily":0}]},"stat":"ok"}