{"photos":{"page":1,"pages":13,"perpage":100,"total":1214,"photo":[{"id":"52734433976","owner":"197853457@N07","secret":"3b3ec377a8","server":"65535","farm":66,"title":"Pipira-vermelha (Ramphocelus carbo)","ispublic":1,"isfriend":0,"isfamily":0},{"id":"52728418294","owner":"32005048@N06","secret":"4cf7b59e83","server":"65535","farm":66,"title":"Ramphocelus carbo (Silver-beaked Tanager)","ispublic":1,"isfriend":0,"isfamily":0},{"id":"52723939643","owner":"33610758@N08","secret":"e483d904aa","server":"65535","farm":66,"title":"Silver-beaked Tanager (Ramphocelus carbo)","ispublic":1,"isfriend":0,"isfamily":0},{"id":"52720159407","owner":"71833159@N00","secret":"a8d7195af5","server":"65535","farm":66,"title":"Silver-beaked Tanager \/ Ramphocelus carbo, Asa Wright Nature Centre, Trinidad","ispublic":1,"isfriend":0,"isfamily":0},{"id":"52705622579","owner":"31704662@N08","secret":"80918b0e0d","server":"65535","farm":66,"title":"Silver-beaked Tanager (Ramphocelus carbo)","ispublic":1,"isfriend":0,"isfamily":0},{"id":"52694067202","owner":"141256983@N04","secret":"2e89cd7220","server":"65535","farm":66,"title":"Silver-beaked tanager (Ramphocelus carbo)","ispublic":1,"isfriend":0,"isfamily":0},{"id":"52680179834","owner":"71833159@N00","secret":"9810b1a888","server":"65535","farm":66,"title":"Silver-beaked Tanager \/ Ramphocelus carbo, Trinidad","ispublic":1,"isfriend":0,"isfamily":0},{"id":"52648978656","owner":"190923251@N05","secret":"1a5608db95","server":"65535","farm":66,"title":"Silver-beaked Tanager male","ispublic":1,"isfriend":0,"isfamily":0},{"id":"52627390248","owner":"123174353@N02","secret":"e489410484","server":"65535","farm":66,"title":"Ramphocelus carbo \/ Silver-beaked Tanager \/ fluweeltangare (female)","ispublic":1,"isfriend":0,"isfamily":0},{"id":"52618103459","owner":"123174353@N02","secret":"5fd0755b63","server":"65535","farm":66,"title":"Ramphocelus carbo \/ Silver-beaked Tanager \/ fluweeltangare","ispublic":1,"isfriend":0,"isfamily":0},{"id":"52580270990","owner":"123174353@N02","secret":"87f99ecb35","server":"65535","farm":66,"title":"Ramphocelus carbo \/ Silver-beaked Tanager \/ fluweeltangare","ispublic":1,"isfriend":0,"isfamily":0},{"id":"52549764368","owner":"8264176@N02","secret":"c2aa05c29a","server":"65535","farm":66,"title":"BirdsofColombia - Silver-beaked Tanager  \u00b7  Ramphocelus carbo - 200377","ispublic":1,"isfriend":0,"isfamily":0},{"id":"52494447764","owner":"38032433@N07","secret":"903bab19c1","server":"65535","farm":66,"title":"4Y4A2463.jpg","ispublic":1,"isfriend":0,"isfamily":0},{"id":"52494397279","owner":"38032433@N07","secret":"9265b60fc5","server":"65535","farm":66,"title":"BG4R9904.jpg","ispublic":1,"isfriend":0,"isfamily":0},{"id":"52402727901","owner":"134704052@N08","secret":"14dd7995dd","server":"65535","farm":66,"title":"Pipira-vermelha - Silver-beaked Tanager","ispublic":1,"isfriend":0,"isfamily":0},{"id":"52402726881","owner":"134704052@N08","secret":"d4785d5e50","server":"65535","farm":66,"title":"Pipira-vermelha - Silver-beaked Tanager","ispublic":1,"isfriend":0,"isfamily":0},{"id":"52399915202","owner":"134704052@N08","secret":"b224eabc01","server":"65535","farm":66,"title":"Pipira-vermelha - Silver-beaked Tanager","ispublic":1,"isfriend":0,"isfamily":0},{"id":"52349564703","owner":"45302763@N07","secret":"b706abfcf7","server":"65535","farm":66,"title":"_DSC9849","ispublic":1,"isfriend":0,"isfamily":0},{"id":"52349747325","owner":"45302763@N07","secret":"2a41444f26","server":"65535","farm":66,"title":"_DSC9863","ispublic":1,"isfriend":0,"isfamily":0},{"id":"52343036619","owner":"20127130@N02","secret":"7e7c1ed454","server":"65535","farm":66,"title":"Mr. and Mrs. Brazilian Tanagers","ispublic":1,"isfriend":0,"isfamily":0},{"id":"52062561810","owner":"56686021@N04","secret":"d78e06d41e","server":"65535","farm":66,"title":"Silver-beaked Tanager","ispublic":1,"isfriend":0,"isfamily":0},{"id":"52062561735","owner":"56686021@N04","secret":"cca00f6dfc","server":"65535","farm":66,"title":"Silver-beaked Tanager","ispublic":1,"isfriend":0,"isfamily":0},{"id":"52054890899","owner":"56686021@N04","secret":"67210e78cc","server":"65535","farm":66,"title":"Silver-beaked Tanager","ispublic":1,"isfriend":0,"isfamily":0},{"id":"52048642522","owner":"48084395@N03","secret":"4a5f044047","server":"65535","farm":66,"title":"Silver-beaked Tanager (Ramphocelus carbo) _5AC3631","ispublic":1,"isfriend":0,"isfamily":0},{"id":"52022093816","owner":"129593667@N03","secret":"6f36344e07","server":"65535","farm":66,"title":"Silver-beaked Tanager \u2640 nesting","ispublic":1,"isfriend":0,"isfamily":0},{"id":"52016943704","owner":"21147276@N03","secret":"2c1ff6d0f6","server":"65535","farm":66,"title":"Window of Opportunity","ispublic":1,"isfriend":0,"isfamily":0},{"id":"52015168054","owner":"191343261@N02","secret":"1e6a9e5a15","server":"65535","farm":66,"title":"Ramphocelus carbo","ispublic":1,"isfriend":0,"isfamily":0},{"id":"52011545913","owner":"53589480@N03","secret":"66731c11c7","server":"65535","farm":66,"title":"Ramphocelus carbo","ispublic":1,"isfriend":0,"isfamily":0},{"id":"51998224438","owner":"33573751@N04","secret":"d2c21a80f4","server":"65535","farm":66,"title":"Silver-beaked Tanager (Ramphocelus carbo) - Rio Quijos, Ecuador","ispublic":1,"isfriend":0,"isfamily":0},{"id":"51974247231","owner":"32674493@N04","secret":"a2924efb5a","server":"65535","farm":66,"title":"Pipira-vermelha (Ramphocelus carbo centralis) macho","ispublic":1,"isfriend":0,"isfamily":0},{"id":"51901469569","owner":"129593667@N03","secret":"df9ea7d84f","server":"65535","farm":66,"title":"Silver-beaked Tanager \u2640","ispublic":1,"isfriend":0,"isfamily":0},{"id":"51855621597","owner":"191534235@N04","secret":"f8b85a22d5","server":"65535","farm":66,"title":"Ramphocelus carbo - Tangara \u00e0 bec d'argent m\u00e2le","ispublic":1,"isfriend":0,"isfamily":0},{"id":"51806649082","owner":"52363379@N07","secret":"1a59e5146c","server":"65535","farm":66,"title":"Ramphocelus carbo","ispublic":1,"isfriend":0,"isfamily":0},{"id":"51804793582","owner":"187116702@N03","secret":"97d6c95d2e","server":"65535","farm":66,"title":"Tangara \u00e0 bec d'argent - Saint Laurent du Maroni, Guyane","ispublic":1,"isfriend":0,"isfamily":0},{"id":"51803544209","owner":"20127130@N02","secret":"39a1e90d9c","server":"65535","farm":66,"title":"The most beautiful","ispublic":1,"isfriend":0,"isfamily":0},{"id":"51786173137","owner":"53102904@N08","secret":"de26e152f4","server":"65535","farm":66,"title":"Silver-beaked Tanager \/ Fluweeltangare","ispublic":1,"isfriend":0,"isfamily":0},{"id":"51765236422","owner":"129593667@N03","secret":"07e91b2748","server":"65535","farm":66,"title":"Silver-beaked Tanager","ispublic":1,"isfriend":0,"isfamily":0},{"id":"51745736819","owner":"101244975@N08","secret":"8ab6a97c66","server":"65535","farm":66,"title":"Silver-beaked Tanager (Ramphocelus carbo)","ispublic":1,"isfriend":0,"isfamily":0},{"id":"51742168371","owner":"103228733@N07","secret":"39141818ab","server":"65535","farm":66,"title":"_O3A7210.jpg","ispublic":1,"isfriend":0,"isfamily":0},{"id":"51544401750","owner":"61316002@N02","secret":"523c90239a","server":"65535","farm":66,"title":"SILBEATAN M centralis 1508","ispublic":1,"isfriend":0,"isfamily":0},{"id":"51508946791","owner":"61316002@N02","secret":"733ffdd3a0","server":"65535","farm":66,"title":"SILBEATAN centralis 0635","ispublic":1,"isfriend":0,"isfamily":0},{"id":"51446137430","owner":"52363379@N07","secret":"ef849b19d5","server":"65535","farm":66,"title":"Ramphocelus carbo","ispublic":1,"isfriend":0,"isfamily":0},{"id":"51378493219","owner":"119787485@N07","secret":"a678790404","server":"65535","farm":66,"title":"Silver-beaked Tanager (Ramphocelus carbo connectens) - 20181017-06","ispublic":1,"isfriend":0,"isfamily":0},{"id":"51378468074","owner":"119787485@N07","secret":"27a3764335","server":"65535","farm":66,"title":"Silver-beaked Tanager (Ramphocelus carbo carbo) - 20100203-09","ispublic":1,"isfriend":0,"isfamily":0},{"id":"51311968988","owner":"48938938@N04","secret":"d17d928582","server":"65535","farm":66,"title":"Silver-beaked Tanager_Pico de Plata_RAmphocelus carbo_Ascanio_Parque del Este_DZ3A1230","ispublic":1,"isfriend":0,"isfamily":0},{"id":"51251281591","owner":"25268888@N07","secret":"94673f3eb5","server":"65535","farm":66,"title":"Tangara \u00e0 bec d'argent,  Ramphocelus carbo, Guyane Fran\u00e7aise","ispublic":1,"isfriend":0,"isfamily":0},{"id":"51175646858","owner":"164178514@N07","secret":"f95112bb1e","server":"65535","farm":66,"title":"Silver Beak Tanager","ispublic":1,"isfriend":0,"isfamily":0},{"id":"51129853762","owner":"78145652@N02","secret":"9db9dd2939","server":"65535","farm":66,"title":"Silver-beaked Tanager - Ramphocelus carbo Inat","ispublic":1,"isfriend":0,"isfamily":0},{"id":"51129811846","owner":"78145652@N02","secret":"5623400137","server":"65535","farm":66,"title":"Silver-beaked Tanager - Ramphocelus carbo","ispublic":1,"isfriend":0,"isfamily":0},{"id":"51002695329","owner":"32805478@N03","secret":"451559cdd0","server":"65535","farm":66,"title":"Tangara picoplata, Ramphocelus carbo, Silver-beaked Tanager","ispublic":1,"isfriend":0,"isfamily":0},{"id":"50731235037","owner":"37493716@N02","secret":"13b47c4024","server":"65535","farm":66,"title":"Ramphocelus carbo - Silver-beaked Tanager","ispublic":1,"isfriend":0,"isfamily":0},{"id":"50663599867","owner":"190923251@N05","secret":"6db2468e95","server":"65535","farm":66,"title":"Silver-beaked Tanager female-plumaged","ispublic":1,"isfriend":0,"isfamily":0},{"id":"50547383211","owner":"83457042@N00","secret":"cb723ea902","server":"65535","farm":66,"title":"Fauna:  Silver-beaked tanager (Ramphocelus carbo)","ispublic":1,"isfriend":0,"isfamily":0},{"id":"50529979073","owner":"87727332@N08","secret":"08744c2862","server":"65535","farm":66,"title":"Piperfeita (Ramphocelus carbo)","ispublic":1,"isfriend":0,"isfamily":0},{"id":"50513719682","owner":"164178514@N07","secret":"8af0418b83","server":"65535","farm":66,"title":"Silver-beaked Tanager","ispublic":1,"isfriend":0,"isfamily":0},{"id":"50500893813","owner":"145157152@N06","secret":"e22c55bdf5","server":"65535","farm":66,"title":"D50_8224.jpg","ispublic":1,"isfriend":0,"isfamily":0},{"id":"50473637393","owner":"187682764@N06","secret":"ec1d1a10df","server":"65535","farm":66,"title":"Silver Beaked Tanager","ispublic":1,"isfriend":0,"isfamily":0},{"id":"52723870270","owner":"33610758@N08","secret":"d14874317b","server":"65535","farm":66,"title":"Silver-beaked Tanager (Ramphocelus carbo) (3)","ispublic":1,"isfriend":0,"isfamily":0},{"id":"52527159612","owner":"100247776@N03","secret":"3996732442","server":"65535","farm":66,"title":"PIPIRA VERMELHA - Ramphocelus carbo - COCALZINHO DE GOI\u00c1S","ispublic":1,"isfriend":0,"isfamily":0},{"id":"52488981916","owner":"55592907@N06","secret":"8c68d8437e","server":"65535","farm":66,"title":"silver-beaked tanager (Ramphocelus carbo)","ispublic":1,"isfriend":0,"isfamily":0},{"id":"52429134829","owner":"77128742@N06","secret":"279d8f6b82","server":"65535","farm":66,"title":"Peru-Purpurtangare_Ramphocelus carbo connectens-17","ispublic":1,"isfriend":0,"isfamily":0},{"id":"52428350797","owner":"77128742@N06","secret":"39e7848cbc","server":"65535","farm":66,"title":"Peru-Purpurtangare_Ramphocelus carbo connectens-19","ispublic":1,"isfriend":0,"isfamily":0},{"id":"52429308560","owner":"77128742@N06","secret":"b975de8fb2","server":"65535","farm":66,"title":"Peru-Purpurtangare_Ramphocelus carbo connectens-14","ispublic":1,"isfriend":0,"isfamily":0},{"id":"52429134814","owner":"77128742@N06","secret":"167c35f448","server":"65535","farm":66,"title":"Peru-Purpurtangare_Ramphocelus carbo connectens-20","ispublic":1,"isfriend":0,"isfamily":0},{"id":"52428350772","owner":"77128742@N06","secret":"12ea3f8db1","server":"65535","farm":66,"title":"Peru-Purpurtangare_Ramphocelus carbo connectens-23","ispublic":1,"isfriend":0,"isfamily":0},{"id":"52429371878","owner":"77128742@N06","secret":"f80acca598","server":"65535","farm":66,"title":"Peru-Purpurtangare_Ramphocelus carbo connectens-29","ispublic":1,"isfriend":0,"isfamily":0},{"id":"52428350757","owner":"77128742@N06","secret":"0c5344c3c5","server":"65535","farm":66,"title":"Peru-Purpurtangare_Ramphocelus carbo connectens-33","ispublic":1,"isfriend":0,"isfamily":0},{"id":"52094982829","owner":"48938938@N04","secret":"9627a5d473","server":"65535","farm":66,"title":"Silver-beaked Tanager_Ramphocelus carbo_Ascanio_Casa Maria_DZ3A2237","ispublic":1,"isfriend":0,"isfamily":0},{"id":"52095241775","owner":"48938938@N04","secret":"68ca1e04e2","server":"65535","farm":66,"title":"Silver-beaked Tanager_Ramphocelus carbo_Ascanio_Casa Maria_DZ3A2239","ispublic":1,"isfriend":0,"isfamily":0},{"id":"52058556933","owner":"56686021@N04","secret":"4d5db4cf5d","server":"65535","farm":66,"title":"Silver-beaked Tanager","ispublic":1,"isfriend":0,"isfamily":0},{"id":"52046649453","owner":"49895863@N00","secret":"aa9bc970c1","server":"65535","farm":66,"title":"Silver-beaked Tanager (Ramphocelus carbo)","ispublic":1,"isfriend":0,"isfamily":0},{"id":"51925047414","owner":"37493716@N02","secret":"071432d393","server":"65535","farm":66,"title":"Silver-beaked Tanager - Ramphocelus carbo - Reserva ProAves El Jaguar - Foto: Eloy Silva","ispublic":1,"isfriend":0,"isfamily":0},{"id":"51856584661","owner":"191534235@N04","secret":"e319a5e3e1","server":"65535","farm":66,"title":"Ramphocelus carbo - Tangara \u00e0 bec d'argent femelle","ispublic":1,"isfriend":0,"isfamily":0},{"id":"51833408103","owner":"145824323@N05","secret":"7f314d0eb9","server":"65535","farm":66,"title":"Silver-beaked tanager (Ramphocelus carbo)","ispublic":1,"isfriend":0,"isfamily":0},{"id":"51818306297","owner":"95747238@N07","secret":"c232357e4e","server":"65535","farm":66,"title":"Ramphocelus carbo 1","ispublic":1,"isfriend":0,"isfamily":0},{"id":"51819369508","owner":"95747238@N07","secret":"2a05916ca5","server":"65535","farm":66,"title":"Ramphocelus carbo 2","ispublic":1,"isfriend":0,"isfamily":0},{"id":"51819255931","owner":"95747238@N07","secret":"53c853dce6","server":"65535","farm":66,"title":"Ramphocelus carbo 3","ispublic":1,"isfriend":0,"isfamily":0},{"id":"51819598154","owner":"95747238@N07","secret":"5cea7a1605","server":"65535","farm":66,"title":"Ramphocelus carbo 4","ispublic":1,"isfriend":0,"isfamily":0},{"id":"51819598134","owner":"95747238@N07","secret":"42cc2032bb","server":"65535","farm":66,"title":"Ramphocelus carbo 5","ispublic":1,"isfriend":0,"isfamily":0},{"id":"51818306072","owner":"95747238@N07","secret":"d88ecac4b0","server":"65535","farm":66,"title":"Ramphocelus carbo 6","ispublic":1,"isfriend":0,"isfamily":0},{"id":"51819969125","owner":"95747238@N07","secret":"f8b326a25f","server":"65535","farm":66,"title":"Ramphocelus carbo 7","ispublic":1,"isfriend":0,"isfamily":0},{"id":"51819255706","owner":"95747238@N07","secret":"28eeba62eb","server":"65535","farm":66,"title":"Ramphocelus carbo 8","ispublic":1,"isfriend":0,"isfamily":0},{"id":"51812734503","owner":"187116702@N03","secret":"7eee19011b","server":"65535","farm":66,"title":"Tangara \u00e0 bec d'argent - Saint Laurent du Maroni, Guyane","ispublic":1,"isfriend":0,"isfamily":0},{"id":"51812627471","owner":"187116702@N03","secret":"8c57d6fdd3","server":"65535","farm":66,"title":"Tangara \u00e0 bec d'argent - Saint Laurent du Maroni, Guyane","ispublic":1,"isfriend":0,"isfamily":0},{"id":"51717499990","owner":"95747238@N07","secret":"4603433541","server":"65535","farm":66,"title":"Ramphocelus carbo","ispublic":1,"isfriend":0,"isfamily":0},{"id":"51640484809","owner":"37493716@N02","secret":"acaea86ab9","server":"0","farm":0,"title":"Silver-beaked Tanager Ramphocelus carbo - Reserva ProAves Halc\u00f3n Colorado - Foto: Luisa Ch\u00e1vez","ispublic":1,"isfriend":0,"isfamily":0},{"id":"51640687615","owner":"37493716@N02","secret":"07ca0643ce","server":"65535","farm":66,"title":"Silver-beaked Tanager Ramphocelus carbo - Reserva ProAves Halc\u00f3n Colorado - Foto: Luisa Ch\u00e1vez","ispublic":1,"isfriend":0,"isfamily":0},{"id":"51585833633","owner":"145824323@N05","secret":"4f3ab6b0b5","server":"65535","farm":66,"title":"Silver-beaked tanager (Ramphocelus carbo)","ispublic":1,"isfriend":0,"isfamily":0},{"id":"51586430300","owner":"145824323@N05","secret":"4fbecaf05e","server":"65535","farm":66,"title":"Silver-beaked tanager (Ramphocelus carbo)","ispublic":1,"isfriend":0,"isfamily":0},{"id":"51586348105","owner":"145824323@N05","secret":"21c7289960","server":"65535","farm":66,"title":"Silver-beaked tanager (Ramphocelus carbo)","ispublic":1,"isfriend":0,"isfamily":0},{"id":"51340236064","owner":"37493716@N02","secret":"042f4dc26d","server":"65535","farm":66,"title":"Silver-beaked Tanager - Ramphocelus carbo - Reserva ProAves El Jaguar - Foto: Daniel Villar","ispublic":1,"isfriend":0,"isfamily":0},{"id":"51250074727","owner":"187682764@N06","secret":"ef923c2d69","server":"65535","farm":66,"title":"Summer Wine","ispublic":1,"isfriend":0,"isfamily":0},{"id":"51204059834","owner":"37493716@N02","secret":"c37f7cc52e","server":"65535","farm":66,"title":"Silver-beaked Tanager - Ramphocelus carbo - El Jaguar ProAves Reserve - Photo by: Daniel Villar","ispublic":1,"isfriend":0,"isfamily":0},{"id":"50905068473","owner":"37493716@N02","secret":"6e74f22478","server":"65535","farm":66,"title":"Ramphocelus carbo_1","ispublic":1,"isfriend":0,"isfamily":0},{"id":"50905893457","owner":"37493716@N02","secret":"5ffc490f0e","server":"65535","farm":66,"title":"Ramphocelus carbo_2","ispublic":1,"isfriend":0,"isfamily":0},{"id":"50780490996","owner":"37493716@N02","secret":"db66e1845d","server":"65535","farm":66,"title":"Ramphocelus carbo","ispublic":1,"isfriend":0,"isfamily":0},{"id":"50560832702","owner":"187917085@N02","secret":"86ee5d481c","server":"65535","farm":66,"title":"Ramphocelus carbo","ispublic":1,"isfriend":0,"isfamily":0},{"id":"50550968922","owner":"187917085@N02","secret":"5d4bdbddbb","server":"65535","farm":66,"title":"Ramphocelus carbo","ispublic":1,"isfriend":0,"isfamily":0},{"id":"50514445666","owner":"37493716@N02","secret":"cb0fd87a1f","server":"65535","farm":66,"title":"Ramphocelus carbo","ispublic":1,"isfriend":0,"isfamily":0},{"id":"50501604971","owner":"145157152@N06","secret":"6fdefb24f7","server":"65535","farm":66,"title":"D50_8220.jpg","ispublic":1,"isfriend":0,"isfamily":0}]},"stat":"ok"}