{"photos":{"page":1,"pages":2,"perpage":100,"total":190,"photo":[{"id":"52762499703","owner":"93293461@N03","secret":"1e7c791675","server":"65535","farm":66,"title":"Elaenia parvirostris","ispublic":1,"isfriend":0,"isfamily":0},{"id":"52692100173","owner":"67306066@N03","secret":"bd296e1bd8","server":"65535","farm":66,"title":"Small-billed Elaenia (Elaenia parvirostris)","ispublic":1,"isfriend":0,"isfamily":0},{"id":"52668989124","owner":"67306066@N03","secret":"e6b3457580","server":"65535","farm":66,"title":"Small-billed Elaenia (Elaenia parvirostris)","ispublic":1,"isfriend":0,"isfamily":0},{"id":"52668702086","owner":"67306066@N03","secret":"11ec39d1b3","server":"65535","farm":66,"title":"Small-billed Elaenia (Elaenia parvirostris)","ispublic":1,"isfriend":0,"isfamily":0},{"id":"52294878168","owner":"186193378@N07","secret":"13a4fe7023","server":"65535","farm":66,"title":"Tuque-pium (Elaenia parvirostris) Small-billed Elaenia","ispublic":1,"isfriend":0,"isfamily":0},{"id":"51873045279","owner":"187346531@N05","secret":"56068680ae","server":"65535","farm":66,"title":"tuque-pium (Elaenia parvirostris)","ispublic":1,"isfriend":0,"isfamily":0},{"id":"51612590653","owner":"190911304@N02","secret":"804a276fbc","server":"65535","farm":66,"title":"Fiof\u00edo pico corto (Elaenia parvirostris).jpg","ispublic":1,"isfriend":0,"isfamily":0},{"id":"51540740469","owner":"191213614@N06","secret":"fdb387f97f","server":"65535","farm":66,"title":"Fiofio pico corto -Elaenia parvirostris-","ispublic":1,"isfriend":0,"isfamily":0},{"id":"51277592766","owner":"155928864@N08","secret":"245bfaf232","server":"65535","farm":66,"title":"Elenia Piquichica (Piquicorta), Elaenia parvirostris, Small-billed Elaenia. Misahuall\u00ed, Napo, Ecuador.","ispublic":1,"isfriend":0,"isfamily":0},{"id":"51207136033","owner":"84237742@N00","secret":"a1184b5e39","server":"65535","farm":66,"title":"-  FIO - FIO ( White-crested elaenia  - Elaenia albiceps)  toma  en BOTANICO THAYS.! Buenos Aires.","ispublic":1,"isfriend":0,"isfamily":0},{"id":"51141077759","owner":"84237742@N00","secret":"55a0d2da28","server":"65535","farm":66,"title":"-  FIO - FIO ( White-crested elaenia  - Elaenia albiceps)  toma  en BOTANICO THAYS.! Buenos Aires.","ispublic":1,"isfriend":0,"isfamily":0},{"id":"51139617457","owner":"84237742@N00","secret":"5eea95557b","server":"65535","farm":66,"title":"-  FIO - FIO ( White-crested elaenia  - Elaenia albiceps)  toma  en BOTANICO THAYS.! Buenos Aires.","ispublic":1,"isfriend":0,"isfamily":0},{"id":"50997485419","owner":"37493716@N02","secret":"9f63413097","server":"65535","farm":66,"title":"Small-billed Elaenia - Elaenia parvirostris - El Jaguar ProAves Reserve  - Foto Daniel Villar","ispublic":1,"isfriend":0,"isfamily":0},{"id":"50853259038","owner":"185853379@N08","secret":"8c0fe8c809","server":"65535","farm":66,"title":"Elaenia parvirostris","ispublic":1,"isfriend":0,"isfamily":0},{"id":"49604851762","owner":"107784905@N04","secret":"bb9b21726a","server":"65535","farm":66,"title":"El\u00e9nie \u00e0 bec court - Reserva Ecol\u00f3gica Costanera Sur\/Buenos Aires\/Argentina_20171101_003-1","ispublic":1,"isfriend":0,"isfamily":0},{"id":"49235692276","owner":"101701344@N02","secret":"c4309fac80","server":"65535","farm":66,"title":"Fiof\u00edo pico corto \/ small-billed Elaenia (Elaenia parvirostris)","ispublic":1,"isfriend":0,"isfamily":0},{"id":"49235692091","owner":"101701344@N02","secret":"11b91570ae","server":"65535","farm":66,"title":"Fiof\u00edo pico corto \/ small-billed Elaenia (Elaenia parvirostris)","ispublic":1,"isfriend":0,"isfamily":0},{"id":"49112653886","owner":"32674493@N04","secret":"20fa3f7f15","server":"65535","farm":66,"title":"Guaracava-de-bico-curto (Elaenia parvirostris)","ispublic":1,"isfriend":0,"isfamily":0},{"id":"47820048671","owner":"45505361@N08","secret":"bd5cf645a7","server":"65535","farm":66,"title":"Elaenia parvirostris","ispublic":1,"isfriend":0,"isfamily":0},{"id":"46758983414","owner":"46788536@N05","secret":"a8db9164a1","server":"7920","farm":8,"title":"Elaenia parvirostris \/\/ Small billed Elaenia","ispublic":1,"isfriend":0,"isfamily":0},{"id":"46364824305","owner":"93293461@N03","secret":"f848174e52","server":"7897","farm":8,"title":"Elaenia sp.","ispublic":1,"isfriend":0,"isfamily":0},{"id":"46246417555","owner":"158010417@N08","secret":"4d4fb3449d","server":"7860","farm":8,"title":"Fiof\u00edo pico corto - Small-billed elaenia","ispublic":1,"isfriend":0,"isfamily":0},{"id":"39933888503","owner":"93293461@N03","secret":"a4e77254a4","server":"4862","farm":5,"title":"Elaenia sp.","ispublic":1,"isfriend":0,"isfamily":0},{"id":"45079533605","owner":"93293461@N03","secret":"f239cbc542","server":"4867","farm":5,"title":"Elaenia sp.","ispublic":1,"isfriend":0,"isfamily":0},{"id":"45376359671","owner":"100100182@N07","secret":"cf8f44f318","server":"1903","farm":2,"title":"Fiofio pico corto","ispublic":1,"isfriend":0,"isfamily":0},{"id":"44323770801","owner":"107784905@N04","secret":"6645abcd5b","server":"1866","farm":2,"title":"El\u00e9nie \u00e0 bec court - Ruta 6\/Jujuy\/Argentina_20171118_261","ispublic":1,"isfriend":0,"isfamily":0},{"id":"42677603154","owner":"21147276@N03","secret":"50525b5350","server":"1785","farm":2,"title":"Cloudy Day Flying","ispublic":1,"isfriend":0,"isfamily":0},{"id":"42190722924","owner":"123534937@N08","secret":"96731447af","server":"891","farm":1,"title":"Fiofio Pico Corto - Elaenia parvirostris - Small-billed Elaenia","ispublic":1,"isfriend":0,"isfamily":0},{"id":"24681023358","owner":"126302526@N04","secret":"1827cbe4a5","server":"4517","farm":5,"title":"Elaenia sp. ( Elaenia mesoleuca o Elaenia parvirostris)","ispublic":1,"isfriend":0,"isfamily":0},{"id":"37973427381","owner":"32674493@N04","secret":"24522f7d1a","server":"4495","farm":5,"title":"Guaracava-de-bico-curto (Elaenia parvirostris)","ispublic":1,"isfriend":0,"isfamily":0},{"id":"37860225386","owner":"68480943@N06","secret":"2e67c05d01","server":"4463","farm":5,"title":"Guaracava-de-bico-curto - Small-billed Elaenia (Elaenia parvirostris)","ispublic":1,"isfriend":0,"isfamily":0},{"id":"37378268821","owner":"144083559@N03","secret":"2c3a5eb955","server":"4451","farm":5,"title":"Guaracava de bico curto","ispublic":1,"isfriend":0,"isfamily":0},{"id":"36440543672","owner":"21147276@N03","secret":"c30ca2b98c","server":"4362","farm":5,"title":"Rare Visitors","ispublic":1,"isfriend":0,"isfamily":0},{"id":"36100293380","owner":"48369842@N07","secret":"a84a7ba5ac","server":"4440","farm":5,"title":"Small-billed Elaenia","ispublic":1,"isfriend":0,"isfamily":0},{"id":"36198906472","owner":"29170368@N03","secret":"a945101bd8","server":"65535","farm":66,"title":"Small-billed Elaenia","ispublic":1,"isfriend":0,"isfamily":0},{"id":"34744936991","owner":"21147276@N03","secret":"f77bd9995d","server":"4228","farm":5,"title":"Small-billed Elaenia","ispublic":1,"isfriend":0,"isfamily":0},{"id":"24089145289","owner":"87863466@N00","secret":"4215aa1a63","server":"1605","farm":2,"title":"Small-billed Elaenia","ispublic":1,"isfriend":0,"isfamily":0},{"id":"23129240284","owner":"126774666@N05","secret":"37c3fd23c0","server":"5638","farm":6,"title":"Fiof\u00edo Com\u00fan (Elaenia parvirostris)","ispublic":1,"isfriend":0,"isfamily":0},{"id":"22633916783","owner":"127112833@N05","secret":"83571990db","server":"667","farm":1,"title":"Elaenia parvirostris \/ F\u00edo f\u00edo \/ Small-billed Elaenia","ispublic":1,"isfriend":0,"isfamily":0},{"id":"23234899236","owner":"127112833@N05","secret":"b937211f16","server":"754","farm":1,"title":"\/\/Nest\/\/ Elaenia parvirostris \/ F\u00edo f\u00edo \/ Small-billed Elaenia","ispublic":1,"isfriend":0,"isfamily":0},{"id":"23234894486","owner":"127112833@N05","secret":"08c1071226","server":"619","farm":1,"title":"Elaenia parvirostris \/ F\u00edo f\u00edo \/ Small-billed Elaenia","ispublic":1,"isfriend":0,"isfamily":0},{"id":"23234891636","owner":"127112833@N05","secret":"a0890ddfb1","server":"5739","farm":6,"title":"Elaenia parvirostris \/ F\u00edo f\u00edo \/ Small-billed Elaenia","ispublic":1,"isfriend":0,"isfamily":0},{"id":"21647774531","owner":"79410107@N08","secret":"094950f23c","server":"5739","farm":6,"title":"Elaenia parvirostris - Small-billed Elaenia - Fiof\u00edo Piquicorto - Elaenia Piquicorta 02","ispublic":1,"isfriend":0,"isfamily":0},{"id":"16764188779","owner":"34327708@N05","secret":"18bbb1930f","server":"8694","farm":9,"title":"Fiof\u00edo pico corto (Small-billed Elaenia) Elaenia parvirostris","ispublic":1,"isfriend":0,"isfamily":0},{"id":"16042820510","owner":"98043489@N03","secret":"097628ae8a","server":"7566","farm":8,"title":"Elaenia parvirostris (guaracava-de-bico-curto \/ Small-billed Elaenia)","ispublic":1,"isfriend":0,"isfamily":0},{"id":"52429310760","owner":"77128742@N06","secret":"2262f04831","server":"65535","farm":66,"title":"Dreibinden-Olivtyrann_Elaenia parvirostris-11","ispublic":1,"isfriend":0,"isfamily":0},{"id":"52429310750","owner":"77128742@N06","secret":"78005cc439","server":"65535","farm":66,"title":"Dreibinden-Olivtyrann_Elaenia parvirostris-13","ispublic":1,"isfriend":0,"isfamily":0},{"id":"52424267412","owner":"182381287@N07","secret":"f82d60f532","server":"65535","farm":66,"title":"Chibum (Elaenia parvirostris)","ispublic":1,"isfriend":0,"isfamily":0},{"id":"51941222257","owner":"193617639@N07","secret":"50cb9ec762","server":"65535","farm":66,"title":"Tuque-pium | Guaracava-de-bico-curto (Elaenia parvirostris)","ispublic":1,"isfriend":0,"isfamily":0},{"id":"51918175733","owner":"195124911@N06","secret":"93d1a5e974","server":"65535","farm":66,"title":"fiofio comun","ispublic":1,"isfriend":0,"isfamily":0},{"id":"51897391812","owner":"190753246@N08","secret":"b7bb97ce31","server":"65535","farm":66,"title":"Fio fio (Elaenia parvirostris)","ispublic":1,"isfriend":0,"isfamily":0},{"id":"51390816902","owner":"193753998@N06","secret":"398763a630","server":"65535","farm":66,"title":"Elaenia parvirostris","ispublic":1,"isfriend":0,"isfamily":0},{"id":"51033438296","owner":"46788536@N05","secret":"83035bd68a","server":"65535","farm":66,"title":"Elaenia parvirostris \/\/ Small-billed Elaenia","ispublic":1,"isfriend":0,"isfamily":0},{"id":"51019403733","owner":"185718539@N08","secret":"a9959c8358","server":"65535","farm":66,"title":"Guaracava de bico-curto (Elaenia parvirostris)","ispublic":1,"isfriend":0,"isfamily":0},{"id":"50650554906","owner":"136354582@N02","secret":"5b75a74f33","server":"65535","farm":66,"title":"Elaenia parvirostris","ispublic":1,"isfriend":0,"isfamily":0},{"id":"50299431237","owner":"182381287@N07","secret":"82ce8d7f4c","server":"65535","farm":66,"title":"Tuque-pium (Elaenia parvirostris)","ispublic":1,"isfriend":0,"isfamily":0},{"id":"47973126272","owner":"46788536@N05","secret":"21d0d163a1","server":"65535","farm":66,"title":"Elaenia parvirostris \/\/ Small-billed Elaenia","ispublic":1,"isfriend":0,"isfamily":0},{"id":"47973132723","owner":"46788536@N05","secret":"98050c17a2","server":"65535","farm":66,"title":"Elaenia parvirostris \/\/ Small-billed Elaenia","ispublic":1,"isfriend":0,"isfamily":0},{"id":"31895664277","owner":"124594251@N05","secret":"10e1d6d03c","server":"4824","farm":5,"title":"Fio Fio Silbon - (Elaenia-parvirostris)","ispublic":1,"isfriend":0,"isfamily":0},{"id":"31728848367","owner":"62017291@N03","secret":"870dd56b42","server":"4908","farm":5,"title":"Fiof\u00edo Pico Corto (Elaenia parvirostris)","ispublic":1,"isfriend":0,"isfamily":0},{"id":"31562979527","owner":"57465751@N05","secret":"e51e3e0f5a","server":"7901","farm":8,"title":"Small-billed Elaenia (Elaenia parvirostris), Lomas de Arena, Santa Cruz, Bolivia","ispublic":1,"isfriend":0,"isfamily":0},{"id":"44196412280","owner":"132877456@N03","secret":"0a0bf91861","server":"4813","farm":5,"title":"Fiof\u00edo Pico Corto","ispublic":1,"isfriend":0,"isfamily":0},{"id":"46012020961","owner":"132877456@N03","secret":"9c8e3334e8","server":"4882","farm":5,"title":"Fiof\u00edo Pico Corto","ispublic":1,"isfriend":0,"isfamily":0},{"id":"31023820307","owner":"142574552@N04","secret":"3f5a8b90c5","server":"4807","farm":5,"title":"Guaracava de bico curto - Elaenia parvirostris","ispublic":1,"isfriend":0,"isfamily":0},{"id":"44962645924","owner":"87325282@N00","secret":"fae852be52","server":"1946","farm":2,"title":"Elaenia parvirostris","ispublic":1,"isfriend":0,"isfamily":0},{"id":"30746552447","owner":"87325282@N00","secret":"8cab14d34e","server":"1941","farm":2,"title":"Elaenia parvirostris","ispublic":1,"isfriend":0,"isfamily":0},{"id":"42889656905","owner":"153199674@N07","secret":"d6da80ccdb","server":"930","farm":1,"title":"Tyrannidae: Elaenia parvirostris - Small-billed Elaenia","ispublic":1,"isfriend":0,"isfamily":0},{"id":"40544522215","owner":"140705136@N02","secret":"93ee25303b","server":"902","farm":1,"title":"guaracava-de-bico-curto (Elaenia parvirostris)","ispublic":1,"isfriend":0,"isfamily":0},{"id":"27389018128","owner":"140705136@N02","secret":"889c4f5b48","server":"896","farm":1,"title":"guaracava-de-bico-curto (Elaenia parvirostris)","ispublic":1,"isfriend":0,"isfamily":0},{"id":"39867565582","owner":"158609227@N06","secret":"bf9895e928","server":"4651","farm":5,"title":"Elaenia parvirostris","ispublic":1,"isfriend":0,"isfamily":0},{"id":"38548294776","owner":"126774666@N05","secret":"8d7d56d910","server":"4582","farm":5,"title":"Fiof\u00edo Pico Corto (Elaenia parvirostris)","ispublic":1,"isfriend":0,"isfamily":0},{"id":"37887895124","owner":"126774666@N05","secret":"8c16168bc9","server":"4584","farm":5,"title":"Fiof\u00edo Pico Corto (Elaenia parvirostris)","ispublic":1,"isfriend":0,"isfamily":0},{"id":"24732949018","owner":"126774666@N05","secret":"0b7f908479","server":"4521","farm":5,"title":"Fiof\u00edo Pico Corto (Elaenia parvirostris)","ispublic":1,"isfriend":0,"isfamily":0},{"id":"24732916548","owner":"126774666@N05","secret":"631b5732ed","server":"4528","farm":5,"title":"Fiof\u00edo Pico Corto (Elaenia parvirostris)","ispublic":1,"isfriend":0,"isfamily":0},{"id":"37717119345","owner":"126774666@N05","secret":"1f54234103","server":"4574","farm":5,"title":"Fiof\u00edo Pico Corto (Elaenia parvirostris)","ispublic":1,"isfriend":0,"isfamily":0},{"id":"37717087135","owner":"126774666@N05","secret":"bf1c1d34fa","server":"4530","farm":5,"title":"Fiof\u00edo Pico Corto (Elaenia parvirostris)","ispublic":1,"isfriend":0,"isfamily":0},{"id":"37428840804","owner":"142173243@N02","secret":"bb43fabb27","server":"4476","farm":5,"title":"Guaracava-de-bico-curto (Elaenia parvirostris)","ispublic":1,"isfriend":0,"isfamily":0},{"id":"35717534735","owner":"120741004@N04","secret":"2f4546aca5","server":"4213","farm":5,"title":"Elaenia parvirostris","ispublic":1,"isfriend":0,"isfamily":0},{"id":"32058693622","owner":"105121517@N08","secret":"98915a6dba","server":"406","farm":1,"title":"guaracava-de-bico-curto","ispublic":1,"isfriend":0,"isfamily":0},{"id":"31819105670","owner":"105121517@N08","secret":"208ae2ac19","server":"553","farm":1,"title":"Guaracava-de-bico-curto  ( jovem)","ispublic":1,"isfriend":0,"isfamily":0},{"id":"31572054051","owner":"144838870@N04","secret":"439f5d61fd","server":"5552","farm":6,"title":"guaracava-de-bico-curto - Elaenia parvirostris","ispublic":1,"isfriend":0,"isfamily":0},{"id":"30796791442","owner":"46788536@N05","secret":"abbf339621","server":"5616","farm":6,"title":"Elaenia parvirostris \/\/ Small-billed elaenia \/\/ Guaracava-de-bico-curto","ispublic":1,"isfriend":0,"isfamily":0},{"id":"30912715895","owner":"46788536@N05","secret":"bff9255547","server":"5740","farm":6,"title":"Elaenia parvirostris \/\/ Small-billed elaenia \/\/ Guaracava-de-bico-curto","ispublic":1,"isfriend":0,"isfamily":0},{"id":"30912711785","owner":"46788536@N05","secret":"a8f2771071","server":"5565","farm":6,"title":"Elaenia parvirostris \/\/ Small-billed elaenia \/\/ Guaracava-de-bico-curto","ispublic":1,"isfriend":0,"isfamily":0},{"id":"26375434404","owner":"120741004@N04","secret":"f541cfc06a","server":"7710","farm":8,"title":"Elaenia parvirostris","ispublic":1,"isfriend":0,"isfamily":0},{"id":"26442195092","owner":"120741004@N04","secret":"81fe6ed7f5","server":"1573","farm":2,"title":"Elaenia parvirostris","ispublic":1,"isfriend":0,"isfamily":0},{"id":"25693209993","owner":"77128742@N06","secret":"da78e4ae75","server":"1617","farm":2,"title":"Dreibinden-Olivtyrann_Elaenia parvirostris-2","ispublic":1,"isfriend":0,"isfamily":0},{"id":"23518122630","owner":"127690184@N06","secret":"7bbe9b75c3","server":"5834","farm":6,"title":"Fiofio com\u00fan (Elaenia parvirostris) Small-billed Elaenia","ispublic":1,"isfriend":0,"isfamily":0},{"id":"21485946394","owner":"15932639@N04","secret":"53ae1b09b9","server":"590","farm":1,"title":"Elaenia parvirostris - Fiof\u00edo Pico Corto - Small-billed Elaenia","ispublic":1,"isfriend":0,"isfamily":0},{"id":"21841014169","owner":"135387851@N05","secret":"f1622d06ef","server":"5684","farm":6,"title":"IMG_6517","ispublic":1,"isfriend":0,"isfamily":0},{"id":"20602015424","owner":"94848047@N06","secret":"6b491c4d64","server":"771","farm":1,"title":"Guaracava-de-bico-curto (Elaenia parvirostris)","ispublic":1,"isfriend":0,"isfamily":0},{"id":"20581469755","owner":"56443907@N02","secret":"7c60e37feb","server":"599","farm":1,"title":"2015-1.31. Fiofio comun - Elaenia parvirostris","ispublic":1,"isfriend":0,"isfamily":0},{"id":"17151341961","owner":"71649753@N07","secret":"254f7e7d67","server":"7698","farm":8,"title":"Small-billed Elaenia (Elaenia parvirostris), Granja La Carreta, Luque, Paraguay, 4-2-15","ispublic":1,"isfriend":0,"isfamily":0},{"id":"16846285340","owner":"76282513@N02","secret":"b5cb1c81bb","server":"7623","farm":8,"title":"Fio fio com\u00fan (Elaenia parvirostris)","ispublic":1,"isfriend":0,"isfamily":0},{"id":"16762723128","owner":"34327708@N05","secret":"7424515c44","server":"8734","farm":9,"title":"Fiof\u00edo pico corto (Small-billed Elaenia) Elaenia parvirostris","ispublic":1,"isfriend":0,"isfamily":0},{"id":"16328024824","owner":"34327708@N05","secret":"3fbbd8bd1a","server":"7607","farm":8,"title":"Fiof\u00edo pico corto (Small-billed Elaenia) Elaenia parvirostris","ispublic":1,"isfriend":0,"isfamily":0},{"id":"16637109509","owner":"12639178@N07","secret":"86b10a16f3","server":"7644","farm":8,"title":"Die Kurzschnabel-Elaenie ist nur am Gesang von anderen Elaenien zu unterscheiden , NGID2042248006","ispublic":1,"isfriend":0,"isfamily":0},{"id":"16822106902","owner":"12639178@N07","secret":"8b68ce7887","server":"8742","farm":9,"title":"Die Kurzschnabel-Elaenie ist nur am Gesang von anderen Elaenien zu unterscheiden , NGID385175046","ispublic":1,"isfriend":0,"isfamily":0},{"id":"15983488338","owner":"122932933@N07","secret":"eafc5ab0e2","server":"8591","farm":9,"title":"Elaenia parvirostris 1","ispublic":1,"isfriend":0,"isfamily":0},{"id":"16170177322","owner":"122932933@N07","secret":"2180e060ed","server":"8591","farm":9,"title":"Elaenia parvirostris 2","ispublic":1,"isfriend":0,"isfamily":0}]},"stat":"ok"}