{"photos":{"page":1,"pages":129,"perpage":100,"total":12842,"photo":[{"id":"52724191533","owner":"73322872@N04","secret":"789bb38af2","server":"65535","farm":66,"title":"Harfang des neiges \/ Snowy owl \/ Bubo scandiacus","ispublic":1,"isfriend":0,"isfamily":0},{"id":"52722962657","owner":"188156748@N07","secret":"b55c204493","server":"65535","farm":66,"title":"Snowy Owl (F) - Harfang des Neiges (F) - Bubo scandiacus 6120 (5)-SharpenAI-Standard copy.jpgS","ispublic":1,"isfriend":0,"isfamily":0},{"id":"52722962672","owner":"188156748@N07","secret":"8b0904cec3","server":"65535","farm":66,"title":"Snowy Owl (F) - Harfang des Neiges (F) - Bubo scandiacus 6120 (2)-SharpenAI-Standard copy.jpgS","ispublic":1,"isfriend":0,"isfamily":0},{"id":"52723965293","owner":"188156748@N07","secret":"92f5cfeb72","server":"65535","farm":66,"title":"Snowy Owl (F) - Harfang des Neiges (F) - Bubo scandiacus 6120 (136)-SharpenAI-Standard copy.jpgS","ispublic":1,"isfriend":0,"isfamily":0},{"id":"52722962627","owner":"188156748@N07","secret":"69edf45a60","server":"65535","farm":66,"title":"Snowy Owl (F) - Harfang des Neiges (F) - Bubo scandiacus 6120 (10)-SharpenAI-Standard copy.jpgS","ispublic":1,"isfriend":0,"isfamily":0},{"id":"52723745854","owner":"188156748@N07","secret":"1664eb3e0c","server":"65535","farm":66,"title":"Snowy Owl (F) - Harfang des Neiges (F) - Bubo scandiacus 6120 (327)-SharpenAI-Standard copy.jpgS","ispublic":1,"isfriend":0,"isfamily":0},{"id":"52721917972","owner":"136620261@N06","secret":"d9522295f4","server":"65535","farm":66,"title":"Harfang des neiges, Bubo scandiacus, Snowy Owl-4635-Edit.jpg","ispublic":1,"isfriend":0,"isfamily":0},{"id":"52718672992","owner":"85633072@N06","secret":"a55741dff6","server":"65535","farm":66,"title":"Snowy owl","ispublic":1,"isfriend":0,"isfamily":0},{"id":"52715995663","owner":"11176374@N02","secret":"2a34226cbe","server":"65535","farm":66,"title":"IMG_8591","ispublic":1,"isfriend":0,"isfamily":0},{"id":"52714993177","owner":"11176374@N02","secret":"ac11c0495f","server":"65535","farm":66,"title":"IMG_8617","ispublic":1,"isfriend":0,"isfamily":0},{"id":"52707337781","owner":"193835300@N08","secret":"c88e488303","server":"65535","farm":66,"title":"Harfang des neiges (Bubo scandiacus) - Snowy Owl - SVA2","ispublic":1,"isfriend":0,"isfamily":0},{"id":"52706811327","owner":"193835300@N08","secret":"57f60deee2","server":"65535","farm":66,"title":"Harfang des neiges (Bubo scandiacus) - Snowy Owl - SVA1","ispublic":1,"isfriend":0,"isfamily":0},{"id":"52707587124","owner":"193835300@N08","secret":"2ee22168e1","server":"65535","farm":66,"title":"Harfang des neiges (Bubo scandiacus) - Snowy Owl - SVA3","ispublic":1,"isfriend":0,"isfamily":0},{"id":"52701210538","owner":"78067826@N03","secret":"834bfaf890","server":"65535","farm":66,"title":"Snowy Owl","ispublic":1,"isfriend":0,"isfamily":0},{"id":"52697884037","owner":"57256462@N07","secret":"8f9a1d7a5e","server":"65535","farm":66,"title":"Snowy owl","ispublic":1,"isfriend":0,"isfamily":0},{"id":"52697177906","owner":"78067826@N03","secret":"d176c4e6e6","server":"65535","farm":66,"title":"Snowy Owl","ispublic":1,"isfriend":0,"isfamily":0},{"id":"52696033661","owner":"129051288@N05","secret":"9470d5f4cb","server":"65535","farm":66,"title":"Harfang des neiges, Bubo scandiacus, Snowy Owl","ispublic":1,"isfriend":0,"isfamily":0},{"id":"52696280354","owner":"186432601@N04","secret":"52964e1cb1","server":"65535","farm":66,"title":"Snowy Owl","ispublic":1,"isfriend":0,"isfamily":0},{"id":"52694694972","owner":"32752434@N07","secret":"b354ce8f0a","server":"65535","farm":66,"title":"Snowy Owl (Bubo scandiacus)","ispublic":1,"isfriend":0,"isfamily":0},{"id":"52692702785","owner":"186604745@N03","secret":"3161449a67","server":"65535","farm":66,"title":"Harfang des neiges \\ Snowy Owl","ispublic":1,"isfriend":0,"isfamily":0},{"id":"52689671509","owner":"30638967@N03","secret":"d5d2fd4e69","server":"65535","farm":66,"title":"Snowy Owl DSC_8657","ispublic":1,"isfriend":0,"isfamily":0},{"id":"52688878917","owner":"30638967@N03","secret":"6a51434129","server":"65535","farm":66,"title":"Snowy Owl DSC_8667","ispublic":1,"isfriend":0,"isfamily":0},{"id":"52689820380","owner":"30638967@N03","secret":"a0fe10170b","server":"65535","farm":66,"title":"Snowy Owl DSC_8689","ispublic":1,"isfriend":0,"isfamily":0},{"id":"52682418831","owner":"52498474@N05","secret":"cc7033e3f6","server":"65535","farm":66,"title":"The Sentinel","ispublic":1,"isfriend":0,"isfamily":0},{"id":"52682085846","owner":"106611111@N02","secret":"8439fbb3ef","server":"65535","farm":66,"title":"Schnee-Eule im Wildpark Gangelt - Snow Owl","ispublic":1,"isfriend":0,"isfamily":0},{"id":"52680098856","owner":"25231350@N07","secret":"45fce43c90","server":"65535","farm":66,"title":"CORUJA-DAS-NEVES | SNOWY OWL (Bubo scandiacus)","ispublic":1,"isfriend":0,"isfamily":0},{"id":"52678893800","owner":"15656964@N03","secret":"301eb33cb0","server":"65535","farm":66,"title":"Snowy Owl (Bubo scandiacus)","ispublic":1,"isfriend":0,"isfamily":0},{"id":"52676460375","owner":"7640100@N02","secret":"19b4b957f4","server":"65535","farm":66,"title":"Harfang des neiges \/ Snowy Owl (Bubo scandiacus)","ispublic":1,"isfriend":0,"isfamily":0},{"id":"52673595210","owner":"168495655@N07","secret":"beaf260d92","server":"65535","farm":66,"title":"Harfang des neiges - Bubo scandiacus - Snowy Owl","ispublic":1,"isfriend":0,"isfamily":0},{"id":"52673159196","owner":"168495655@N07","secret":"cefaf56b93","server":"65535","farm":66,"title":"Harfang des neiges - Bubo scandiacus - Snowy Owl","ispublic":1,"isfriend":0,"isfamily":0},{"id":"52667577357","owner":"145086457@N04","secret":"a1a37fea97","server":"65535","farm":66,"title":"Winter Visitor","ispublic":1,"isfriend":0,"isfamily":0},{"id":"52665647704","owner":"126601468@N05","secret":"00de4c5790","server":"65535","farm":66,"title":"Harfang des neiges \/ Snowy owl","ispublic":1,"isfriend":0,"isfamily":0},{"id":"52665519500","owner":"44801995@N02","secret":"cab7cec0ca","server":"65535","farm":66,"title":"snowy owl Bubo scandiacus","ispublic":1,"isfriend":0,"isfamily":0},{"id":"52662002634","owner":"65632611@N00","secret":"b32304599b","server":"65535","farm":66,"title":"Cypress, CA: Snowy Owl on Rooftop   (8350)","ispublic":1,"isfriend":0,"isfamily":0},{"id":"52662207713","owner":"65632611@N00","secret":"db286c0258","server":"65535","farm":66,"title":"Cypress, CA: Snowy Owl on Rooftop (8961)","ispublic":1,"isfriend":0,"isfamily":0},{"id":"52661216247","owner":"65632611@N00","secret":"bbdd9d6121","server":"65535","farm":66,"title":"Cypress, CA: Snowy Owl on Rooftop  (8642)","ispublic":1,"isfriend":0,"isfamily":0},{"id":"52657848726","owner":"71833159@N00","secret":"d7d9f37395","server":"65535","farm":66,"title":"Snowy Owl \/ Bubo scandiacus, female","ispublic":1,"isfriend":0,"isfamily":0},{"id":"52657847746","owner":"71833159@N00","secret":"bd6f9fb4dd","server":"65535","farm":66,"title":"Snowy Owl \/ Bubo scandiacus, female","ispublic":1,"isfriend":0,"isfamily":0},{"id":"52656423353","owner":"188156748@N07","secret":"2a6696f924","server":"65535","farm":66,"title":"Snowy Owl (F) - Harfang des neiges (F) - Bubo scandiacus 2204 (82) copy.jpgS-SharpenAI-Standard","ispublic":1,"isfriend":0,"isfamily":0},{"id":"52656423338","owner":"188156748@N07","secret":"b21a579229","server":"65535","farm":66,"title":"Snowy Owl (F) - Harfang des neiges (F) - Bubo scandiacus 2445 (4)-SharpenAI-Standard copy.jpgS","ispublic":1,"isfriend":0,"isfamily":0},{"id":"52656423318","owner":"188156748@N07","secret":"1c9d6140b0","server":"65535","farm":66,"title":"Snowy Owl (F) - Harfang des neiges (F) - Bubo scandiacus 2204 (9)-SharpenAI-Standard copy.jpgS","ispublic":1,"isfriend":0,"isfamily":0},{"id":"52656376735","owner":"188156748@N07","secret":"f48311e041","server":"65535","farm":66,"title":"Snowy Owl (F) - Harfang des neiges (F) - Bubo scandiacus 2445 (17)-SharpenAI-Standard copy.jpgS","ispublic":1,"isfriend":0,"isfamily":0},{"id":"52656376750","owner":"188156748@N07","secret":"51809fe827","server":"65535","farm":66,"title":"Snowy Owl (F) - Harfang des neiges (F) - Bubo scandiacus 2204 (128)-SharpenAI-Standard copy.jpgS","ispublic":1,"isfriend":0,"isfamily":0},{"id":"52653784319","owner":"71833159@N00","secret":"bf56da37a1","server":"65535","farm":66,"title":"Snowy Owl \/ Bubo scandiacus, female","ispublic":1,"isfriend":0,"isfamily":0},{"id":"52653015692","owner":"71833159@N00","secret":"6b835feac3","server":"0","farm":0,"title":"Video: Snowy Owl \/ Bubo scandiacus, female","ispublic":1,"isfriend":0,"isfamily":0},{"id":"52653987618","owner":"71833159@N00","secret":"f4b7f94084","server":"65535","farm":66,"title":"Snowy Owl flying down from post","ispublic":1,"isfriend":0,"isfamily":0},{"id":"52653662883","owner":"193835300@N08","secret":"3712206845","server":"65535","farm":66,"title":"Harfang des neiges (Bubo scandiacus) - Snowy Owl - SV1","ispublic":1,"isfriend":0,"isfamily":0},{"id":"52653617080","owner":"193835300@N08","secret":"e9a44d0295","server":"65535","farm":66,"title":"Harfang des neiges (Bubo scandiacus) - Snowy Owl - SV3","ispublic":1,"isfriend":0,"isfamily":0},{"id":"52653181051","owner":"193835300@N08","secret":"a34a75e775","server":"65535","farm":66,"title":"Harfang des neiges (Bubo scandiacus) - Snowy Owl - SV2","ispublic":1,"isfriend":0,"isfamily":0},{"id":"52653428075","owner":"138658380@N04","secret":"3771ef63f2","server":"65535","farm":66,"title":"Snowyowl ( Female)","ispublic":1,"isfriend":0,"isfamily":0},{"id":"52651696873","owner":"71833159@N00","secret":"6df476de7a","server":"65535","farm":66,"title":"Snowy Owl \/ Bubo scandiacus, female","ispublic":1,"isfriend":0,"isfamily":0},{"id":"52651645065","owner":"71833159@N00","secret":"87c7c21ebb","server":"0","farm":0,"title":"Video: Snowy Owl female","ispublic":1,"isfriend":0,"isfamily":0},{"id":"52650403471","owner":"25231350@N07","secret":"c2b2441c18","server":"65535","farm":66,"title":"CORUJA-DAS-NEVES | SNOWY OWL (Bubo scandiacus)","ispublic":1,"isfriend":0,"isfamily":0},{"id":"52647488403","owner":"30638967@N03","secret":"c4921f20f3","server":"65535","farm":66,"title":"Snowy Owl DSC_4819","ispublic":1,"isfriend":0,"isfamily":0},{"id":"52647006106","owner":"30638967@N03","secret":"4d6b8ce90f","server":"65535","farm":66,"title":"Snowy Owl DSC_4855","ispublic":1,"isfriend":0,"isfamily":0},{"id":"52646500157","owner":"30638967@N03","secret":"235b27181b","server":"65535","farm":66,"title":"Snowy Owl DSC_4971","ispublic":1,"isfriend":0,"isfamily":0},{"id":"52647447085","owner":"30638967@N03","secret":"3210fe4602","server":"65535","farm":66,"title":"Snowy Owl DSC_5004","ispublic":1,"isfriend":0,"isfamily":0},{"id":"52647005481","owner":"30638967@N03","secret":"308140d55e","server":"65535","farm":66,"title":"Snowy Owl DSC_5013","ispublic":1,"isfriend":0,"isfamily":0},{"id":"52647446885","owner":"30638967@N03","secret":"9685e5164b","server":"65535","farm":66,"title":"Snowy Owl DSC_5022","ispublic":1,"isfriend":0,"isfamily":0},{"id":"52644278160","owner":"158005352@N07","secret":"9e8bbf4ffd","server":"65535","farm":66,"title":"Snow-White\u2026","ispublic":1,"isfriend":0,"isfamily":0},{"id":"52644163678","owner":"50779484@N03","secret":"9134f194b5","server":"65535","farm":66,"title":"Snowy 5","ispublic":1,"isfriend":0,"isfamily":0},{"id":"52644128100","owner":"50779484@N03","secret":"6096b21970","server":"65535","farm":66,"title":"Snowy 3","ispublic":1,"isfriend":0,"isfamily":0},{"id":"52644127145","owner":"50779484@N03","secret":"34461fd4e6","server":"65535","farm":66,"title":"Snowy 4","ispublic":1,"isfriend":0,"isfamily":0},{"id":"52643605676","owner":"78067826@N03","secret":"70b69ea5d4","server":"65535","farm":66,"title":"Snowy Owl","ispublic":1,"isfriend":0,"isfamily":0},{"id":"52643861049","owner":"78067826@N03","secret":"84e11235ed","server":"65535","farm":66,"title":"Snowy Owl","ispublic":1,"isfriend":0,"isfamily":0},{"id":"52640909732","owner":"52170431@N04","secret":"a6b0fa8431","server":"65535","farm":66,"title":"Snowy Owl (Bubo scandiacus), juvenile female DSD_7087a","ispublic":1,"isfriend":0,"isfamily":0},{"id":"52641254149","owner":"85277889@N08","secret":"415fdd42e7","server":"65535","farm":66,"title":"Snowy Owl (Bubo scandiacus) 2023-01-21 (3)","ispublic":1,"isfriend":0,"isfamily":0},{"id":"52641471593","owner":"85277889@N08","secret":"55d8020455","server":"65535","farm":66,"title":"Snowy Owl (Bubo scandiacus) 2023-01-21 (4)","ispublic":1,"isfriend":0,"isfamily":0},{"id":"52641471503","owner":"85277889@N08","secret":"1de0d2261a","server":"65535","farm":66,"title":"Snowy Owl (Bubo scandiacus) 2023-01-21 (8)","ispublic":1,"isfriend":0,"isfamily":0},{"id":"52641253754","owner":"85277889@N08","secret":"6723785c35","server":"65535","farm":66,"title":"Snowy Owl (Bubo scandiacus) 2023-01-21 (10)","ispublic":1,"isfriend":0,"isfamily":0},{"id":"52640486897","owner":"85277889@N08","secret":"b98cba0f4c","server":"65535","farm":66,"title":"Snowy Owl (Bubo scandiacus) 2023-01-21 (14)","ispublic":1,"isfriend":0,"isfamily":0},{"id":"52641253454","owner":"85277889@N08","secret":"2b63cba150","server":"65535","farm":66,"title":"Snowy Owl (Bubo scandiacus) 2023-01-21 (16)","ispublic":1,"isfriend":0,"isfamily":0},{"id":"52640169852","owner":"36685968@N00","secret":"830db15e21","server":"65535","farm":66,"title":"Snowy Owl (Bubo scandiacus)","ispublic":1,"isfriend":0,"isfamily":0},{"id":"52641102155","owner":"90886369@N06","secret":"2b2becfde1","server":"65535","farm":66,"title":"Snowy Owl (Bubo scandiacus)","ispublic":1,"isfriend":0,"isfamily":0},{"id":"52640000542","owner":"22802116@N08","secret":"cf68aa6eda","server":"65535","farm":66,"title":"\u96ea\u9d9a \/ Snowy Owl","ispublic":1,"isfriend":0,"isfamily":0},{"id":"52638968855","owner":"37566919@N02","secret":"dc4e0b8528","server":"65535","farm":66,"title":"Snowy Owl, immature female","ispublic":1,"isfriend":0,"isfamily":0},{"id":"52638484200","owner":"61934286@N04","secret":"919687beb1","server":"65535","farm":66,"title":"Snowy owl (Bubo scandiacus) - THREE MONTHS OLD CHICK","ispublic":1,"isfriend":0,"isfamily":0},{"id":"52638041131","owner":"61934286@N04","secret":"0160733841","server":"65535","farm":66,"title":"Snowy owl (Bubo scandiacus) - ONE MONTH OLD CHICK","ispublic":1,"isfriend":0,"isfamily":0},{"id":"52638284919","owner":"61934286@N04","secret":"64d88496a9","server":"65535","farm":66,"title":"Snowy owl (Bubo scandiacus)","ispublic":1,"isfriend":0,"isfamily":0},{"id":"52637126561","owner":"73654511@N05","secret":"116b1f2c8e","server":"65535","farm":66,"title":"L0A9561-Snowy Owl","ispublic":1,"isfriend":0,"isfamily":0},{"id":"52636527490","owner":"50779484@N03","secret":"aa91b30290","server":"65535","farm":66,"title":"Snowy 2","ispublic":1,"isfriend":0,"isfamily":0},{"id":"52635045925","owner":"187341427@N04","secret":"420092ae43","server":"65535","farm":66,"title":"Chillin Snowy","ispublic":1,"isfriend":0,"isfamily":0},{"id":"52634113229","owner":"168495655@N07","secret":"4273810cea","server":"65535","farm":66,"title":"Harfang des neiges - Bubo scandiacus - Snowy Owl","ispublic":1,"isfriend":0,"isfamily":0},{"id":"52633764065","owner":"37566919@N02","secret":"b875aa8f6b","server":"65535","farm":66,"title":"Snowy Owl, immature female","ispublic":1,"isfriend":0,"isfamily":0},{"id":"52631956594","owner":"168495655@N07","secret":"ca1cae5681","server":"65535","farm":66,"title":"Harfang des neiges - Bubo scandiacus - Snowy Owl","ispublic":1,"isfriend":0,"isfamily":0},{"id":"52631701471","owner":"168495655@N07","secret":"3a1c6a4470","server":"65535","farm":66,"title":"Harfang des neiges - Bubo scandiacus - Snowy Owl","ispublic":1,"isfriend":0,"isfamily":0},{"id":"52630668808","owner":"91906228@N05","secret":"00d4fbe842","server":"65535","farm":66,"title":"before she flew over my head","ispublic":1,"isfriend":0,"isfamily":0},{"id":"52629670487","owner":"91906228@N05","secret":"6472740109","server":"65535","farm":66,"title":"yawn","ispublic":1,"isfriend":0,"isfamily":0},{"id":"52629401356","owner":"25268283@N06","secret":"81e299c901","server":"65535","farm":66,"title":"Snowy Owl","ispublic":1,"isfriend":0,"isfamily":0},{"id":"52629167831","owner":"91906228@N05","secret":"8563285e50","server":"65535","farm":66,"title":"An omen came as a Snowy Owl","ispublic":1,"isfriend":0,"isfamily":0},{"id":"52629624943","owner":"154121229@N04","secret":"47b3861066","server":"65535","farm":66,"title":"Looking Back","ispublic":1,"isfriend":0,"isfamily":0},{"id":"52629342023","owner":"57256462@N07","secret":"83945d6b76","server":"65535","farm":66,"title":"Snowy owl","ispublic":1,"isfriend":0,"isfamily":0},{"id":"52628266128","owner":"50779484@N03","secret":"04919a3d46","server":"65535","farm":66,"title":"Snowy 1","ispublic":1,"isfriend":0,"isfamily":0},{"id":"52627902720","owner":"52170431@N04","secret":"bf62e82567","server":"65535","farm":66,"title":"Snowy Owl (Bubo scandiacus), juvenile female DSD_7711a","ispublic":1,"isfriend":0,"isfamily":0},{"id":"52626789732","owner":"30638967@N03","secret":"bd975de6b9","server":"65535","farm":66,"title":"Snowy Owl DSC_3605","ispublic":1,"isfriend":0,"isfamily":0},{"id":"52627781238","owner":"30638967@N03","secret":"71e83bd0ed","server":"65535","farm":66,"title":"Snowy Owl DSC_3635","ispublic":1,"isfriend":0,"isfamily":0},{"id":"52622656315","owner":"71833159@N00","secret":"fb77c34b7b","server":"65535","farm":66,"title":"Snowy Owl take-off, from 2014","ispublic":1,"isfriend":0,"isfamily":0},{"id":"52622372524","owner":"91906228@N05","secret":"86e703b077","server":"65535","farm":66,"title":"as you can see, my tail feathers are fine","ispublic":1,"isfriend":0,"isfamily":0},{"id":"52621174929","owner":"127247666@N05","secret":"38c351c3ec","server":"65535","farm":66,"title":"Snowy owl","ispublic":1,"isfriend":0,"isfamily":0},{"id":"52619080046","owner":"92361032@N05","secret":"69113d2029","server":"65535","farm":66,"title":"Snowy Owl \/ Harfang des neiges ( Richard )","ispublic":1,"isfriend":0,"isfamily":0}]},"stat":"ok"}