{"photos":{"page":1,"pages":31,"perpage":100,"total":3063,"photo":[{"id":"52790906094","owner":"64045479@N05","secret":"26e175599e","server":"65535","farm":66,"title":"Snow Goose - Anser caerulescens","ispublic":1,"isfriend":0,"isfamily":0},{"id":"52790544868","owner":"131037795@N03","secret":"0c7fbb2041","server":"65535","farm":66,"title":"Flock of Snow Gesse (Anser caerulescens)","ispublic":1,"isfriend":0,"isfamily":0},{"id":"52790544758","owner":"131037795@N03","secret":"17725ef0e2","server":"65535","farm":66,"title":"Flock of Snow Gesse (Anser caerulescens)","ispublic":1,"isfriend":0,"isfamily":0},{"id":"52788574362","owner":"77931884@N00","secret":"f7b0915a76","server":"65535","farm":66,"title":"Snow Geese","ispublic":1,"isfriend":0,"isfamily":0},{"id":"52787642658","owner":"39854996@N00","secret":"6d771737ac","server":"65535","farm":66,"title":"snow goose \"Anser caerulescens\"","ispublic":1,"isfriend":0,"isfamily":0},{"id":"52784434421","owner":"98675522@N06","secret":"f0f30340de","server":"65535","farm":66,"title":"Out With the Old","ispublic":1,"isfriend":0,"isfamily":0},{"id":"52780466570","owner":"137740297@N04","secret":"7bd503110d","server":"65535","farm":66,"title":"Oies des neiges \/ Snow Geese","ispublic":1,"isfriend":0,"isfamily":0},{"id":"52779515342","owner":"137740297@N04","secret":"a20ceb9253","server":"65535","farm":66,"title":"Oies des neiges \/ Snow Geese","ispublic":1,"isfriend":0,"isfamily":0},{"id":"52778824250","owner":"40784173@N06","secret":"3d0e2c199f","server":"65535","farm":66,"title":"Taking Flight","ispublic":1,"isfriend":0,"isfamily":0},{"id":"52772637477","owner":"64606186@N00","secret":"c2f05cbd72","server":"65535","farm":66,"title":"Snow Geese","ispublic":1,"isfriend":0,"isfamily":0},{"id":"52773583775","owner":"64606186@N00","secret":"98e83e79d3","server":"65535","farm":66,"title":"Snow Geese Flying Over Bosque del Apache","ispublic":1,"isfriend":0,"isfamily":0},{"id":"52773583110","owner":"64606186@N00","secret":"ded0141a9e","server":"65535","farm":66,"title":"Snow Geese","ispublic":1,"isfriend":0,"isfamily":0},{"id":"52773254245","owner":"194494353@N06","secret":"bd661ab273","server":"65535","farm":66,"title":"2023-03-25b Skagit Valley Daffodils-0357","ispublic":1,"isfriend":0,"isfamily":0},{"id":"52773320748","owner":"194494353@N06","secret":"198415febc","server":"65535","farm":66,"title":"2023-03-25b Skagit Valley Daffodils-0345","ispublic":1,"isfriend":0,"isfamily":0},{"id":"52773320678","owner":"194494353@N06","secret":"6f53bf2e43","server":"65535","farm":66,"title":"2023-03-25b Skagit Valley Daffodils-0391","ispublic":1,"isfriend":0,"isfamily":0},{"id":"52772306847","owner":"194494353@N06","secret":"9d8b92cab6","server":"65535","farm":66,"title":"2023-03-25b Skagit Valley Daffodils-0431","ispublic":1,"isfriend":0,"isfamily":0},{"id":"52773254045","owner":"194494353@N06","secret":"f65263de14","server":"65535","farm":66,"title":"2023-03-25b Skagit Valley Daffodils-0439","ispublic":1,"isfriend":0,"isfamily":0},{"id":"52772837331","owner":"194494353@N06","secret":"78587c8950","server":"65535","farm":66,"title":"2023-03-25b Skagit Valley Daffodils-0448","ispublic":1,"isfriend":0,"isfamily":0},{"id":"52773095064","owner":"194494353@N06","secret":"579e69903d","server":"65535","farm":66,"title":"2023-03-25b Skagit Valley Daffodils-0455","ispublic":1,"isfriend":0,"isfamily":0},{"id":"52772306587","owner":"194494353@N06","secret":"890e93afaf","server":"65535","farm":66,"title":"2023-03-25b Skagit Valley Daffodils-0375","ispublic":1,"isfriend":0,"isfamily":0},{"id":"52770845863","owner":"77931884@N00","secret":"2a8bd3e5f8","server":"65535","farm":66,"title":"Snow Geese","ispublic":1,"isfriend":0,"isfamily":0},{"id":"52755635978","owner":"125310260@N02","secret":"8fa95678f7","server":"65535","farm":66,"title":"The snow goose","ispublic":1,"isfriend":0,"isfamily":0},{"id":"52755329029","owner":"12639178@N07","secret":"0f6ddfcaa2","server":"65535","farm":66,"title":"Schneegans 2","ispublic":1,"isfriend":0,"isfamily":0},{"id":"52755329315","owner":"12639178@N07","secret":"c5dd152543","server":"65535","farm":66,"title":"Schneegans 5","ispublic":1,"isfriend":0,"isfamily":0},{"id":"52754383397","owner":"12639178@N07","secret":"fd6e6d4bc3","server":"65535","farm":66,"title":"Schneegans 4","ispublic":1,"isfriend":0,"isfamily":0},{"id":"52755411818","owner":"12639178@N07","secret":"51f1e376d9","server":"65535","farm":66,"title":"Meine erste Schneegans mit Bl\u00e4ssg\u00e4nse","ispublic":1,"isfriend":0,"isfamily":0},{"id":"52749569650","owner":"12639178@N07","secret":"643bf96800","server":"65535","farm":66,"title":"Schneegans \u00fcberwintert mit Saat- und Bl\u00e4ssg\u00e4nsen","ispublic":1,"isfriend":0,"isfamily":0},{"id":"52746888706","owner":"181824639@N02","secret":"70c42039f8","server":"65535","farm":66,"title":"Oies des neiges ( Anser caerulescens )","ispublic":1,"isfriend":0,"isfamily":0},{"id":"52746183063","owner":"68635735@N02","secret":"9b30eda341","server":"65535","farm":66,"title":"Greater White-fronted Goose (Anser albifrons) among Snow Geese (Chen caerulescens)","ispublic":1,"isfriend":0,"isfamily":0},{"id":"52743619911","owner":"123979267@N05","secret":"e4ac38ae79","server":"65535","farm":66,"title":"Snow Goose","ispublic":1,"isfriend":0,"isfamily":0},{"id":"52739710717","owner":"9638954@N07","secret":"e796c304fc","server":"65535","farm":66,"title":"Snow Goose","ispublic":1,"isfriend":0,"isfamily":0},{"id":"52740226256","owner":"9638954@N07","secret":"5a0de08b3d","server":"65535","farm":66,"title":"Snow Geese","ispublic":1,"isfriend":0,"isfamily":0},{"id":"52738149692","owner":"12639178@N07","secret":"fe1ab72d5b","server":"65535","farm":66,"title":"Schneegans","ispublic":1,"isfriend":0,"isfamily":0},{"id":"52739079290","owner":"12639178@N07","secret":"68bc644efa","server":"65535","farm":66,"title":"Schneegans","ispublic":1,"isfriend":0,"isfamily":0},{"id":"52739153413","owner":"12639178@N07","secret":"5eca3cf802","server":"65535","farm":66,"title":"Schneegans","ispublic":1,"isfriend":0,"isfamily":0},{"id":"52739153263","owner":"12639178@N07","secret":"30e485147c","server":"65535","farm":66,"title":"Schneegans","ispublic":1,"isfriend":0,"isfamily":0},{"id":"52737041267","owner":"40784173@N06","secret":"5a6a454184","server":"65535","farm":66,"title":"Wings in Motion","ispublic":1,"isfriend":0,"isfamily":0},{"id":"52736948737","owner":"8654297@N06","secret":"356debcbe1","server":"65535","farm":66,"title":"Dusk cacophony","ispublic":1,"isfriend":0,"isfamily":0},{"id":"52734937861","owner":"13451078@N03","secret":"9db1bb2771","server":"65535","farm":66,"title":"Snow Geese (Anser caerulescens)","ispublic":1,"isfriend":0,"isfamily":0},{"id":"52732945231","owner":"44128780@N08","secret":"d203d70864","server":"65535","farm":66,"title":"Snow Goose Closeup","ispublic":1,"isfriend":0,"isfamily":0},{"id":"52731939367","owner":"31432833@N02","secret":"f7b0648535","server":"65535","farm":66,"title":"Snow Geese Migration","ispublic":1,"isfriend":0,"isfamily":0},{"id":"52731602946","owner":"120449047@N06","secret":"e3e3332433","server":"65535","farm":66,"title":"Snow Goose","ispublic":1,"isfriend":0,"isfamily":0},{"id":"52731334464","owner":"8654297@N06","secret":"d5b0220e30","server":"65535","farm":66,"title":"Standing its ground","ispublic":1,"isfriend":0,"isfamily":0},{"id":"52727970444","owner":"81058247@N08","secret":"2045cb3ab4","server":"65535","farm":66,"title":"Ross's Goose (Anser rossii) and Snow Geese (Anser caerulescens)","ispublic":1,"isfriend":0,"isfamily":0},{"id":"52727259771","owner":"44128780@N08","secret":"5b674b20fc","server":"65535","farm":66,"title":"Snow Goose Landing","ispublic":1,"isfriend":0,"isfamily":0},{"id":"52726076006","owner":"44128780@N08","secret":"cd1b682fc1","server":"65535","farm":66,"title":"Snow Goose Honking","ispublic":1,"isfriend":0,"isfamily":0},{"id":"52726330824","owner":"44128780@N08","secret":"279e4b8bfa","server":"65535","farm":66,"title":"Snow Goose","ispublic":1,"isfriend":0,"isfamily":0},{"id":"52725866264","owner":"34238008@N02","secret":"285c5941ec","server":"65535","farm":66,"title":"Snow Goose (Anser caerulescens)","ispublic":1,"isfriend":0,"isfamily":0},{"id":"52725866129","owner":"34238008@N02","secret":"66794796d1","server":"65535","farm":66,"title":"Snow Goose (Anser caerulescens)","ispublic":1,"isfriend":0,"isfamily":0},{"id":"52725087052","owner":"34238008@N02","secret":"9fd76ae837","server":"65535","farm":66,"title":"Snow Goose (Anser caerulescens)","ispublic":1,"isfriend":0,"isfamily":0},{"id":"52726088963","owner":"34238008@N02","secret":"a30a9bb09b","server":"65535","farm":66,"title":"Snow Goose (Anser caerulescens)","ispublic":1,"isfriend":0,"isfamily":0},{"id":"52726088653","owner":"34238008@N02","secret":"c4f05a6d51","server":"65535","farm":66,"title":"Snow Goose (Anser caerulescens)","ispublic":1,"isfriend":0,"isfamily":0},{"id":"52723731793","owner":"34238008@N02","secret":"1357a72540","server":"65535","farm":66,"title":"Snow Goose (Anser caerulescens)","ispublic":1,"isfriend":0,"isfamily":0},{"id":"52723731613","owner":"34238008@N02","secret":"2b5eef4192","server":"65535","farm":66,"title":"Snow Goose (Anser caerulescens)","ispublic":1,"isfriend":0,"isfamily":0},{"id":"52723257686","owner":"34238008@N02","secret":"00c0c4c525","server":"65535","farm":66,"title":"Snow Goose (Anser caerulescens)","ispublic":1,"isfriend":0,"isfamily":0},{"id":"52723729968","owner":"34238008@N02","secret":"0cf2b1143a","server":"65535","farm":66,"title":"Snow Goose (Anser caerulescens)","ispublic":1,"isfriend":0,"isfamily":0},{"id":"52722727222","owner":"34238008@N02","secret":"bdea637f86","server":"65535","farm":66,"title":"Snow Goose (Anser caerulescens)","ispublic":1,"isfriend":0,"isfamily":0},{"id":"52720345716","owner":"76782619@N04","secret":"53694b3dfe","server":"65535","farm":66,"title":"Snow Storm","ispublic":1,"isfriend":0,"isfamily":0},{"id":"52717954585","owner":"18158503@N00","secret":"8b893a13cc","server":"65535","farm":66,"title":"Snow Geese","ispublic":1,"isfriend":0,"isfamily":0},{"id":"52716923184","owner":"30553002@N05","secret":"2fe9c9b411","server":"65535","farm":66,"title":"winter morning . . .","ispublic":1,"isfriend":0,"isfamily":0},{"id":"52713624681","owner":"17654080@N08","secret":"d749960c81","server":"65535","farm":66,"title":"Snow Goose, adult, white morph (Anser caerulescens)","ispublic":1,"isfriend":0,"isfamily":0},{"id":"52713102857","owner":"17654080@N08","secret":"3bdd75f5a1","server":"65535","farm":66,"title":"Snow Goose, adult, white morph (Anser caerulescens)","ispublic":1,"isfriend":0,"isfamily":0},{"id":"52713570588","owner":"61241315@N00","secret":"9d9982697b","server":"0","farm":0,"title":"Juvenile White Morph Snow Goose_9919.MP4","ispublic":1,"isfriend":0,"isfamily":0},{"id":"52713098356","owner":"61241315@N00","secret":"904f2faeda","server":"0","farm":0,"title":"Juvenile White Morph Snow Goose_0040.MP4","ispublic":1,"isfriend":0,"isfamily":0},{"id":"52712576327","owner":"61241315@N00","secret":"d671b5cdee","server":"65535","farm":66,"title":"Juvenile White Morph Snow Goose_N0032","ispublic":1,"isfriend":0,"isfamily":0},{"id":"52712576292","owner":"61241315@N00","secret":"7034a4f41e","server":"65535","farm":66,"title":"Juvenile White Morph Snow Goose_N9920","ispublic":1,"isfriend":0,"isfamily":0},{"id":"52713577123","owner":"61241315@N00","secret":"7b645f4073","server":"65535","farm":66,"title":"Juvenile White Morph Snow Goose_N9926","ispublic":1,"isfriend":0,"isfamily":0},{"id":"52713359504","owner":"61241315@N00","secret":"9b37168275","server":"65535","farm":66,"title":"Juvenile White Morph Snow Goose_N9923","ispublic":1,"isfriend":0,"isfamily":0},{"id":"52712576257","owner":"61241315@N00","secret":"22694e2e9e","server":"65535","farm":66,"title":"Juvenile White Morph Snow Goose_N9929","ispublic":1,"isfriend":0,"isfamily":0},{"id":"52711805203","owner":"61241315@N00","secret":"211fe399a5","server":"0","farm":0,"title":"Juvenile White Morph Snow Goose_9692.MP4","ispublic":1,"isfriend":0,"isfamily":0},{"id":"52710803867","owner":"61241315@N00","secret":"ba3907fc4e","server":"0","farm":0,"title":"Juvenile White Morph Snow Goose_9711.MP4","ispublic":1,"isfriend":0,"isfamily":0},{"id":"52711743235","owner":"61241315@N00","secret":"22f98e1c47","server":"65535","farm":66,"title":"Juvenile White Morph Snow Goose_N9686","ispublic":1,"isfriend":0,"isfamily":0},{"id":"52711327581","owner":"61241315@N00","secret":"f0e91fb600","server":"65535","farm":66,"title":"Juvenile White Morph Snow Goose_N9689","ispublic":1,"isfriend":0,"isfamily":0},{"id":"52711805298","owner":"61241315@N00","secret":"46d818788d","server":"65535","farm":66,"title":"Juvenile White Morph Snow Goose_N9705","ispublic":1,"isfriend":0,"isfamily":0},{"id":"52711743200","owner":"61241315@N00","secret":"ba9e76511a","server":"65535","farm":66,"title":"Juvenile White Morph Snow Goose_N9697","ispublic":1,"isfriend":0,"isfamily":0},{"id":"52710804322","owner":"61241315@N00","secret":"513f074d96","server":"65535","farm":66,"title":"Juvenile White Morph Snow Goose_N9707","ispublic":1,"isfriend":0,"isfamily":0},{"id":"52711743115","owner":"61241315@N00","secret":"8862cf2052","server":"65535","farm":66,"title":"Juvenile White Morph Snow Goose_N9710","ispublic":1,"isfriend":0,"isfamily":0},{"id":"52710978229","owner":"47533293@N04","secret":"7b72ef79f2","server":"65535","farm":66,"title":"Snow geese, Anser caerulescens","ispublic":1,"isfriend":0,"isfamily":0},{"id":"52711196883","owner":"47533293@N04","secret":"6430e4e11a","server":"65535","farm":66,"title":"Snow geese, Anser caerulescens","ispublic":1,"isfriend":0,"isfamily":0},{"id":"52710719066","owner":"47533293@N04","secret":"2423e9c728","server":"65535","farm":66,"title":"Snow geese, Anser caerulescens","ispublic":1,"isfriend":0,"isfamily":0},{"id":"52708551022","owner":"61396634@N07","secret":"7de47e6d0e","server":"65535","farm":66,"title":"Snow Geese","ispublic":1,"isfriend":0,"isfamily":0},{"id":"52709516233","owner":"44128780@N08","secret":"acd74d00e0","server":"65535","farm":66,"title":"Inside the Flock","ispublic":1,"isfriend":0,"isfamily":0},{"id":"52709440895","owner":"44128780@N08","secret":"24012f91f2","server":"65535","farm":66,"title":"Snow Goose in Field","ispublic":1,"isfriend":0,"isfamily":0},{"id":"52709207649","owner":"61396634@N07","secret":"c17efeebaf","server":"65535","farm":66,"title":"Sbow Goose","ispublic":1,"isfriend":0,"isfamily":0},{"id":"52709212400","owner":"44128780@N08","secret":"7f113253a5","server":"65535","farm":66,"title":"Huge Flock of Snow Geese","ispublic":1,"isfriend":0,"isfamily":0},{"id":"52709254568","owner":"44128780@N08","secret":"f8a5f938ea","server":"65535","farm":66,"title":"Snow Goose Walking along the Ridge","ispublic":1,"isfriend":0,"isfamily":0},{"id":"52708752266","owner":"44128780@N08","secret":"7000fac01d","server":"65535","farm":66,"title":"Snow Geese","ispublic":1,"isfriend":0,"isfamily":0},{"id":"52709238518","owner":"44128780@N08","secret":"b2b28149cb","server":"65535","farm":66,"title":"Snow Goose","ispublic":1,"isfriend":0,"isfamily":0},{"id":"52708653991","owner":"51433704@N06","secret":"ff0abcc561","server":"65535","farm":66,"title":"Snow Goose","ispublic":1,"isfriend":0,"isfamily":0},{"id":"52708587814","owner":"36142084@N05","secret":"fa7811ca31","server":"65535","farm":66,"title":"R5_007955","ispublic":1,"isfriend":0,"isfamily":0},{"id":"52708587784","owner":"36142084@N05","secret":"90112cea0a","server":"65535","farm":66,"title":"R5_008159","ispublic":1,"isfriend":0,"isfamily":0},{"id":"52708746160","owner":"36142084@N05","secret":"7c2d611563","server":"65535","farm":66,"title":"R5_008163","ispublic":1,"isfriend":0,"isfamily":0},{"id":"52708587759","owner":"36142084@N05","secret":"f163eb9e90","server":"65535","farm":66,"title":"R5_008185","ispublic":1,"isfriend":0,"isfamily":0},{"id":"52708587749","owner":"36142084@N05","secret":"9ac450cf9a","server":"65535","farm":66,"title":"R5_008152","ispublic":1,"isfriend":0,"isfamily":0},{"id":"52707809647","owner":"36142084@N05","secret":"2b7599e43f","server":"65535","farm":66,"title":"R5_008180","ispublic":1,"isfriend":0,"isfamily":0},{"id":"52706976637","owner":"44034115@N08","secret":"b25df1c636","server":"65535","farm":66,"title":"If You Land Here You'd Be Foraging By Now","ispublic":1,"isfriend":0,"isfamily":0},{"id":"52707985408","owner":"44034115@N08","secret":"f8979415af","server":"65535","farm":66,"title":"SnowStorm at Bombay Hook NWR","ispublic":1,"isfriend":0,"isfamily":0},{"id":"52707984643","owner":"44034115@N08","secret":"6ea9f2efb7","server":"65535","farm":66,"title":"Snow Going With the Flow","ispublic":1,"isfriend":0,"isfamily":0},{"id":"52773320503","owner":"194494353@N06","secret":"e74bbfcb24","server":"65535","farm":66,"title":"2023-03-25b Skagit Valley Daffodils-0464","ispublic":1,"isfriend":0,"isfamily":0},{"id":"52713350389","owner":"61241315@N00","secret":"747dc8fd10","server":"0","farm":0,"title":"Juvenile White Morph Snow Goose_9934.MP4","ispublic":1,"isfriend":0,"isfamily":0}]},"stat":"ok"}