{"photos":{"page":1,"pages":131,"perpage":100,"total":13004,"photo":[{"id":"52722240956","owner":"53977003@N00","secret":"3be7181abc","server":"65535","farm":66,"title":"Song Sparrow","ispublic":1,"isfriend":0,"isfamily":0},{"id":"52721831988","owner":"23016207@N05","secret":"71e5e62f0b","server":"65535","farm":66,"title":"spring water","ispublic":1,"isfriend":0,"isfamily":0},{"id":"52720760038","owner":"100108154@N02","secret":"db64a6455b","server":"65535","farm":66,"title":"Partially Hidden Song Sparrow","ispublic":1,"isfriend":0,"isfamily":0},{"id":"52719387326","owner":"82402390@N02","secret":"bc883a4225","server":"65535","farm":66,"title":"Bruant chanteur, Song Sparrow. (melospiza melodia)  DSC_9355-1.jpg","ispublic":1,"isfriend":0,"isfamily":0},{"id":"52712365941","owner":"78236359@N05","secret":"d86d40b7d7","server":"65535","farm":66,"title":"Song Sparrow \"Melospiza melodia\"","ispublic":1,"isfriend":0,"isfamily":0},{"id":"52711438207","owner":"36013467@N07","secret":"324c83f27f","server":"65535","farm":66,"title":"Song Sparrow (Melospiza melodia)","ispublic":1,"isfriend":0,"isfamily":0},{"id":"52711995730","owner":"144980256@N07","secret":"416662c3f4","server":"65535","farm":66,"title":"Song Sparrow (Melospiza melodia)","ispublic":1,"isfriend":0,"isfamily":0},{"id":"52614848417","owner":"49114357@N08","secret":"bd68930540","server":"65535","farm":66,"title":"Song Sparrow","ispublic":1,"isfriend":0,"isfamily":0},{"id":"52708621414","owner":"62907378@N07","secret":"0e6278c351","server":"65535","farm":66,"title":"Song Sparrow (Melospiza melodia)","ispublic":1,"isfriend":0,"isfamily":0},{"id":"52708737043","owner":"36142084@N05","secret":"35f1f10dcc","server":"65535","farm":66,"title":"R5_008258","ispublic":1,"isfriend":0,"isfamily":0},{"id":"52705218104","owner":"69015080@N00","secret":"ca8c4b2bf9","server":"65535","farm":66,"title":"Singing Sparrow","ispublic":1,"isfriend":0,"isfamily":0},{"id":"52697082646","owner":"91207548@N03","secret":"c45a9d3f6f","server":"65535","farm":66,"title":"Song Sparrow","ispublic":1,"isfriend":0,"isfamily":0},{"id":"52697225524","owner":"40941741@N03","secret":"40e230b720","server":"65535","farm":66,"title":"Song Sparrow","ispublic":1,"isfriend":0,"isfamily":0},{"id":"52696963836","owner":"40941741@N03","secret":"00cde3eaa3","server":"65535","farm":66,"title":"Song Sparrow","ispublic":1,"isfriend":0,"isfamily":0},{"id":"52694231047","owner":"31875835@N07","secret":"825c0ecb0b","server":"65535","farm":66,"title":"Song Sparrow rusty","ispublic":1,"isfriend":0,"isfamily":0},{"id":"52694579614","owner":"77798802@N05","secret":"5fdeed0b24","server":"65535","farm":66,"title":"Song Sparrow","ispublic":1,"isfriend":0,"isfamily":0},{"id":"52692908007","owner":"57126723@N07","secret":"676fae8edb","server":"65535","farm":66,"title":"Melospiza melodia\u2014Song sparrow\u2014Dutch Gap-","ispublic":1,"isfriend":0,"isfamily":0},{"id":"52693830150","owner":"57126723@N07","secret":"c1949ff658","server":"65535","farm":66,"title":"Melospiza melodia\u2014Song sparrow\u2014Dutch Gap-8773-Edit","ispublic":1,"isfriend":0,"isfamily":0},{"id":"52692902702","owner":"57126723@N07","secret":"8534afd1a9","server":"65535","farm":66,"title":"Melospiza melodia\u2014Song sparrow\u2014Passerellidae\u2014Dutch Gap-8781-Edit","ispublic":1,"isfriend":0,"isfamily":0},{"id":"52693119580","owner":"11159374@N04","secret":"bb2f6e2b31","server":"65535","farm":66,"title":"Song Sparrow","ispublic":1,"isfriend":0,"isfamily":0},{"id":"52692537491","owner":"45083607@N06","secret":"8079628c35","server":"65535","farm":66,"title":"IS IT SPRING?","ispublic":1,"isfriend":0,"isfamily":0},{"id":"52690684409","owner":"78941013@N00","secret":"edbe3007d6","server":"65535","farm":66,"title":"Song sparrow (Melospiza melodia) Zanggors","ispublic":1,"isfriend":0,"isfamily":0},{"id":"52690684374","owner":"78941013@N00","secret":"fb40eda1cd","server":"65535","farm":66,"title":"Song sparrow (Melospiza melodia) Zanggors","ispublic":1,"isfriend":0,"isfamily":0},{"id":"52690832190","owner":"78941013@N00","secret":"00d4d4e2ca","server":"65535","farm":66,"title":"Song sparrow (Melospiza melodia) Zanggors","ispublic":1,"isfriend":0,"isfamily":0},{"id":"52690907663","owner":"78941013@N00","secret":"b81110ce27","server":"65535","farm":66,"title":"Song sparrow (Melospiza melodia) Zanggors","ispublic":1,"isfriend":0,"isfamily":0},{"id":"52688141925","owner":"12530381@N07","secret":"41c31e166f","server":"65535","farm":66,"title":"Song Sparrow (Melospiza melodia) at Merced National Wildlife Refuge (2\/11\/2023)","ispublic":1,"isfriend":0,"isfamily":0},{"id":"52688400451","owner":"165841515@N03","secret":"989841a7c7","server":"65535","farm":66,"title":"Bruant chanteur \/ Song Sparrow \/ (Melospiza m\u00e9lodia)","ispublic":1,"isfriend":0,"isfamily":0},{"id":"52686909625","owner":"34238008@N02","secret":"0150897914","server":"65535","farm":66,"title":"Song Sparrow (Melospiza melodia)","ispublic":1,"isfriend":0,"isfamily":0},{"id":"52685856329","owner":"150919437@N06","secret":"627d6046ab","server":"65535","farm":66,"title":"Song Sparrow (Melospiza melodia), Barn Island Wildlife Management Area, Stonington, CT","ispublic":1,"isfriend":0,"isfamily":0},{"id":"52686072703","owner":"150919437@N06","secret":"9cd483abc8","server":"65535","farm":66,"title":"Song Sparrow (Melospiza melodia), Barn Island Wildlife Management Area, Stonington, CT","ispublic":1,"isfriend":0,"isfamily":0},{"id":"52682368985","owner":"91064752@N03","secret":"0256ee92f0","server":"65535","farm":66,"title":"Song Sparrow in the Snow","ispublic":1,"isfriend":0,"isfamily":0},{"id":"52681331747","owner":"165841515@N03","secret":"19485df1c6","server":"65535","farm":66,"title":"Bruant chanteur \/ Song Sparrow \/ (Melospiza m\u00e9lodia)","ispublic":1,"isfriend":0,"isfamily":0},{"id":"52681331427","owner":"165841515@N03","secret":"96a20253be","server":"65535","farm":66,"title":"Bruant chanteur \/ Song Sparrow \/ (Melospiza m\u00e9lodia)","ispublic":1,"isfriend":0,"isfamily":0},{"id":"52681414371","owner":"197200664@N05","secret":"35f11c7814","server":"65535","farm":66,"title":"\u269c\ufe0f Melospiza melodia \u269c\ufe0f","ispublic":1,"isfriend":0,"isfamily":0},{"id":"52681538595","owner":"68635735@N02","secret":"b161963f9b","server":"65535","farm":66,"title":"Song Sparrow (Melospiza melodia)","ispublic":1,"isfriend":0,"isfamily":0},{"id":"52681538475","owner":"68635735@N02","secret":"e682790b30","server":"65535","farm":66,"title":"Song Sparrow (Melospiza melodia)","ispublic":1,"isfriend":0,"isfamily":0},{"id":"52680988135","owner":"61135968@N00","secret":"014ca097a5","server":"65535","farm":66,"title":"Song sparrow","ispublic":1,"isfriend":0,"isfamily":0},{"id":"52679350395","owner":"47533293@N04","secret":"e50fd105e4","server":"65535","farm":66,"title":"Song sparrow, Melospiza melodia","ispublic":1,"isfriend":0,"isfamily":0},{"id":"52679112859","owner":"130140749@N05","secret":"a32e696bb8","server":"65535","farm":66,"title":"Song Sparrow (Melospiza melodia)   _DSC9005","ispublic":1,"isfriend":0,"isfamily":0},{"id":"52679055398","owner":"129803374@N05","secret":"f6321dc3b1","server":"65535","farm":66,"title":"Song Sparrow (Melospiza melodia)","ispublic":1,"isfriend":0,"isfamily":0},{"id":"52677234302","owner":"33610210@N05","secret":"0cb6a1e2a8","server":"65535","farm":66,"title":"Song Sparrow, Melospiza melodia","ispublic":1,"isfriend":0,"isfamily":0},{"id":"52672141808","owner":"44904157@N04","secret":"536c6f7aba","server":"65535","farm":66,"title":"Song Sparrow","ispublic":1,"isfriend":0,"isfamily":0},{"id":"52669926114","owner":"62043870@N05","secret":"40eaa32e1d","server":"65535","farm":66,"title":"Song Sparrow, Melospiza melodia","ispublic":1,"isfriend":0,"isfamily":0},{"id":"52642700244","owner":"49114357@N08","secret":"a7888dfb95","server":"65535","farm":66,"title":"Song Sparrow","ispublic":1,"isfriend":0,"isfamily":0},{"id":"52667761721","owner":"44034115@N08","secret":"9b803e57f6","server":"65535","farm":66,"title":"Come See the Song Sparrow at the Hook","ispublic":1,"isfriend":0,"isfamily":0},{"id":"52667627095","owner":"39511843@N07","secret":"7736c40d8c","server":"65535","farm":66,"title":"20230203-Song Sparrow (Melospiza melodia) -1","ispublic":1,"isfriend":0,"isfamily":0},{"id":"52667627060","owner":"39511843@N07","secret":"c013f3e3d3","server":"65535","farm":66,"title":"20230203-Song Sparrow (Melospiza melodia) -3","ispublic":1,"isfriend":0,"isfamily":0},{"id":"52666034262","owner":"34238008@N02","secret":"4c69b8f817","server":"65535","farm":66,"title":"Song Sparrow (Melospiza melodia)","ispublic":1,"isfriend":0,"isfamily":0},{"id":"52665810969","owner":"143326780@N02","secret":"588271714c","server":"65535","farm":66,"title":"DSCN3048","ispublic":1,"isfriend":0,"isfamily":0},{"id":"52663041598","owner":"48232993@N00","secret":"4858301035","server":"65535","farm":66,"title":"Japanese barberry with song sparrow","ispublic":1,"isfriend":0,"isfamily":0},{"id":"52658869132","owner":"169771858@N03","secret":"16705c0db9","server":"65535","farm":66,"title":"Song Sparrow #1 - 2020-06-13","ispublic":1,"isfriend":0,"isfamily":0},{"id":"52657152529","owner":"143326780@N02","secret":"9ae43b929c","server":"65535","farm":66,"title":"DSCN2419","ispublic":1,"isfriend":0,"isfamily":0},{"id":"52656867886","owner":"143326780@N02","secret":"a4b02e8a5b","server":"65535","farm":66,"title":"DSCN2420","ispublic":1,"isfriend":0,"isfamily":0},{"id":"52656694096","owner":"136180232@N08","secret":"34aa64862e","server":"65535","farm":66,"title":"Song Sparrow (Melospiza melodia) JTD_9982","ispublic":1,"isfriend":0,"isfamily":0},{"id":"52656976834","owner":"136180232@N08","secret":"2026fa32db","server":"65535","farm":66,"title":"Song Sparrow (Melospiza melodia) JTD_9907","ispublic":1,"isfriend":0,"isfamily":0},{"id":"52654728156","owner":"181920661@N03","secret":"f0f01b66d9","server":"65535","farm":66,"title":"Can you sparrow a walnut?","ispublic":1,"isfriend":0,"isfamily":0},{"id":"52654062212","owner":"84169650@N07","secret":"b562bab8b8","server":"65535","farm":66,"title":"Song Sparrow","ispublic":1,"isfriend":0,"isfamily":0},{"id":"52654990850","owner":"84169650@N07","secret":"16966dd597","server":"65535","farm":66,"title":"Song Sparrow","ispublic":1,"isfriend":0,"isfamily":0},{"id":"52654029395","owner":"103722035@N06","secret":"7e778d558e","server":"65535","farm":66,"title":"Song Sparrow (Melospiza melodia), Arroyo Grande, CA","ispublic":1,"isfriend":0,"isfamily":0},{"id":"52654002923","owner":"103722035@N06","secret":"5d4a3f4b47","server":"0","farm":0,"title":"Song Sparrow (Melospiza melodia), Arroyo Grande, CA","ispublic":1,"isfriend":0,"isfamily":0},{"id":"52652674893","owner":"34238008@N02","secret":"c05ff6d670","server":"65535","farm":66,"title":"Song Sparrow (Melospiza melodia)","ispublic":1,"isfriend":0,"isfamily":0},{"id":"52651703542","owner":"34238008@N02","secret":"0efa980c31","server":"65535","farm":66,"title":"Song Sparrow (Melospiza melodia)","ispublic":1,"isfriend":0,"isfamily":0},{"id":"52652634245","owner":"34238008@N02","secret":"3a8cbe5aa1","server":"65535","farm":66,"title":"Song Sparrow (Melospiza melodia)","ispublic":1,"isfriend":0,"isfamily":0},{"id":"52652674378","owner":"34238008@N02","secret":"9ebaac8ef7","server":"65535","farm":66,"title":"Song Sparrow (Melospiza melodia)","ispublic":1,"isfriend":0,"isfamily":0},{"id":"52652466749","owner":"34238008@N02","secret":"2756a47afb","server":"65535","farm":66,"title":"Song Sparrow (Melospiza melodia)","ispublic":1,"isfriend":0,"isfamily":0},{"id":"52652432585","owner":"128537732@N06","secret":"196d8aa5c7","server":"65535","farm":66,"title":"Song Sparrow (Melospiza melodia)","ispublic":1,"isfriend":0,"isfamily":0},{"id":"52651913575","owner":"84175980@N00","secret":"9bf3637c2c","server":"65535","farm":66,"title":"20221201 Melospiza melodia (Song Sparrow)","ispublic":1,"isfriend":0,"isfamily":0},{"id":"52648838667","owner":"33665418@N06","secret":"7d715b8ac0","server":"65535","farm":66,"title":"Song Sparrow Aria","ispublic":1,"isfriend":0,"isfamily":0},{"id":"52648801077","owner":"184781347@N05","secret":"e571056263","server":"65535","farm":66,"title":"an imperious looking song sparrow in the recent snow storm","ispublic":1,"isfriend":0,"isfamily":0},{"id":"52646922666","owner":"71185522@N00","secret":"e66a939aa9","server":"65535","farm":66,"title":"Song Sparrow","ispublic":1,"isfriend":0,"isfamily":0},{"id":"52646697525","owner":"24608578@N00","secret":"25dec9a3dc","server":"65535","farm":66,"title":"Song sparrow (Melospiza melodia)","ispublic":1,"isfriend":0,"isfamily":0},{"id":"52646737338","owner":"24608578@N00","secret":"4f39bff5b4","server":"65535","farm":66,"title":"Song sparrow (Melospiza melodia)","ispublic":1,"isfriend":0,"isfamily":0},{"id":"52646261951","owner":"24608578@N00","secret":"d76e0369e3","server":"65535","farm":66,"title":"Song sparrow (Melospiza melodia)","ispublic":1,"isfriend":0,"isfamily":0},{"id":"52646697425","owner":"24608578@N00","secret":"545e136528","server":"65535","farm":66,"title":"Song sparrow (Melospiza melodia)","ispublic":1,"isfriend":0,"isfamily":0},{"id":"52646005505","owner":"144980256@N07","secret":"fb34e767a6","server":"65535","farm":66,"title":"Song Sparrow (Melospiza melodia)","ispublic":1,"isfriend":0,"isfamily":0},{"id":"52644283207","owner":"188156748@N07","secret":"bebfc65a8d","server":"65535","farm":66,"title":"Song Sparrow \u2013 Bruant Chanteur  - Melospiza melodia 2640 (1).jpgR-SharpenAI-Standard copy.jpgS","ispublic":1,"isfriend":0,"isfamily":0},{"id":"52645047754","owner":"188156748@N07","secret":"6e5315d197","server":"65535","farm":66,"title":"Song Sparrow \u2013 Bruant Chanteur  - Melospiza melodia 6785 (24)-SharpenAI-Standard copy.jpgS","ispublic":1,"isfriend":0,"isfamily":0},{"id":"52645047789","owner":"188156748@N07","secret":"6ca757ae52","server":"65535","farm":66,"title":"Song Sparrow \u2013 Bruant Chanteur  - Melospiza melodia 6785 (22)-SharpenAI-Standard copy.jpgS","ispublic":1,"isfriend":0,"isfamily":0},{"id":"52645264403","owner":"188156748@N07","secret":"ac8cc77b2e","server":"65535","farm":66,"title":"Song Sparrow \u2013 Bruant Chanteur  - Melospiza melodia 6785 (25)-SharpenAI-Standard copy.jpgS","ispublic":1,"isfriend":0,"isfamily":0},{"id":"52645264383","owner":"188156748@N07","secret":"e257e102f0","server":"65535","farm":66,"title":"Song Sparrow \u2013 Bruant Chanteur  - Melospiza melodia 6785 (26)-SharpenAI-Standard copy.jpgS","ispublic":1,"isfriend":0,"isfamily":0},{"id":"52645047729","owner":"188156748@N07","secret":"d178efa3a2","server":"65535","farm":66,"title":"Song Sparrow \u2013 Bruant Chanteur  - Melospiza melodia 6785 (27)-SharpenAI-Standard copy.jpgS","ispublic":1,"isfriend":0,"isfamily":0},{"id":"52640457076","owner":"47533293@N04","secret":"5e04d0e708","server":"65535","farm":66,"title":"Song sparrow, Melospiza melodia","ispublic":1,"isfriend":0,"isfamily":0},{"id":"52640534812","owner":"71989271@N06","secret":"f66c31922b","server":"65535","farm":66,"title":"Song Sparrow (Melospiza m. melodia)","ispublic":1,"isfriend":0,"isfamily":0},{"id":"52638272398","owner":"47533293@N04","secret":"c5579dec11","server":"65535","farm":66,"title":"Song sparrow, Melospiza melodia","ispublic":1,"isfriend":0,"isfamily":0},{"id":"52637531444","owner":"71989271@N06","secret":"2d8a878157","server":"65535","farm":66,"title":"Song Sparrow (Melospiza m. melodia)","ispublic":1,"isfriend":0,"isfamily":0},{"id":"52637113416","owner":"39511843@N07","secret":"573bbe817b","server":"65535","farm":66,"title":"20230119-Song Sparrow (Melospiza melodia)-1","ispublic":1,"isfriend":0,"isfamily":0},{"id":"52636600882","owner":"39511843@N07","secret":"7b3b8ed5e5","server":"65535","farm":66,"title":"20230119-Song Sparrow (Melospiza melodia)-3","ispublic":1,"isfriend":0,"isfamily":0},{"id":"52633746606","owner":"57126723@N07","secret":"9afd084d64","server":"65535","farm":66,"title":"Song sparrow\u2014Melospiza melodia-7304","ispublic":1,"isfriend":0,"isfamily":0},{"id":"52633248798","owner":"34238008@N02","secret":"58f4d90391","server":"65535","farm":66,"title":"Song Sparrow (Melospiza melodia)","ispublic":1,"isfriend":0,"isfamily":0},{"id":"52633017269","owner":"34238008@N02","secret":"809cec10b7","server":"65535","farm":66,"title":"Song Sparrow (Melospiza melodia)","ispublic":1,"isfriend":0,"isfamily":0},{"id":"52630391495","owner":"12530381@N07","secret":"40a80258a0","server":"65535","farm":66,"title":"Song Sparrow (Melospiza melodia) at La Jolla Caves (1\/15\/2023)","ispublic":1,"isfriend":0,"isfamily":0},{"id":"52628895861","owner":"144980256@N07","secret":"bfaf5be5fe","server":"65535","farm":66,"title":"Song Sparrow (Melospiza melodia)","ispublic":1,"isfriend":0,"isfamily":0},{"id":"52707730227","owner":"36142084@N05","secret":"0a99884428","server":"65535","farm":66,"title":"R5_008254","ispublic":1,"isfriend":0,"isfamily":0},{"id":"52699283761","owner":"197456447@N07","secret":"4a13b71404","server":"65535","farm":66,"title":"Hungry Song Sparrow","ispublic":1,"isfriend":0,"isfamily":0},{"id":"52665953335","owner":"143326780@N02","secret":"eb3c887a4f","server":"65535","farm":66,"title":"DSCN3049","ispublic":1,"isfriend":0,"isfamily":0},{"id":"52661161020","owner":"136180232@N08","secret":"fce20b782c","server":"65535","farm":66,"title":"Song Sparrow (Melospiza melodia) JTE_1076","ispublic":1,"isfriend":0,"isfamily":0},{"id":"52660998814","owner":"136180232@N08","secret":"4aed7b4508","server":"65535","farm":66,"title":"Song Sparrow (Melospiza melodia) JTE_1061","ispublic":1,"isfriend":0,"isfamily":0},{"id":"52653007241","owner":"50264295@N06","secret":"0e233d44ce","server":"65535","farm":66,"title":"Song Sparrow (Melospiza melodia)- SY, FCA","ispublic":1,"isfriend":0,"isfamily":0},{"id":"52652758815","owner":"50264295@N06","secret":"ba6a94228e","server":"65535","farm":66,"title":"Song Sparrow (Melospiza melodia)- SY, FCA","ispublic":1,"isfriend":0,"isfamily":0},{"id":"52629332870","owner":"144980256@N07","secret":"f0955b73b0","server":"65535","farm":66,"title":"Song Sparrow (Melospiza melodia)","ispublic":1,"isfriend":0,"isfamily":0}]},"stat":"ok"}