{"photos":{"page":1,"pages":8,"perpage":100,"total":769,"photo":[{"id":"52691775781","owner":"90764954@N07","secret":"5a6d3007fe","server":"65535","farm":66,"title":"Sooty-headed Bulbul (Pycnonotus aurigaster) \u767d\u5589\u7ea2\u81c0\u9e4e","ispublic":1,"isfriend":0,"isfamily":0},{"id":"52692044429","owner":"90764954@N07","secret":"0c5c7e304e","server":"65535","farm":66,"title":"Sooty-headed Bulbul (Pycnonotus aurigaster) \u767d\u5589\u7ea2\u81c0\u9e4e","ispublic":1,"isfriend":0,"isfamily":0},{"id":"52687067613","owner":"7200351@N08","secret":"4b5ea442c0","server":"65535","farm":66,"title":"Pycnonotus aurigaster latouchei","ispublic":1,"isfriend":0,"isfamily":0},{"id":"52686571776","owner":"7200351@N08","secret":"96748f360a","server":"65535","farm":66,"title":"Pycnonotus aurigaster latouchei","ispublic":1,"isfriend":0,"isfamily":0},{"id":"52664945900","owner":"7200351@N08","secret":"75d45c0737","server":"65535","farm":66,"title":"Pycnonotus aurigaster latouchei","ispublic":1,"isfriend":0,"isfamily":0},{"id":"52631867961","owner":"57779000@N00","secret":"771f88e3e5","server":"65535","farm":66,"title":"Sooty-headed Bulbul","ispublic":1,"isfriend":0,"isfamily":0},{"id":"52614553835","owner":"57779000@N00","secret":"74097eca9d","server":"65535","farm":66,"title":"Sooty-headed Bulbul","ispublic":1,"isfriend":0,"isfamily":0},{"id":"52459685379","owner":"165579059@N02","secret":"a7a78fb015","server":"65535","farm":66,"title":"Sooty-headed bulbul (Pycnonotus aurigaster), Ang Mo Kio Linear Park Singapore 28 October 2022.  Sony RX10M4.","ispublic":1,"isfriend":0,"isfamily":0},{"id":"52459945503","owner":"165579059@N02","secret":"70505080ea","server":"65535","farm":66,"title":"Sooty-headed bulbuls (Pycnonotus aurigaster), Ang Mo Kio Linear Park Singapore 28 October 2022.  Sony RX10M4.","ispublic":1,"isfriend":0,"isfamily":0},{"id":"52458894477","owner":"165579059@N02","secret":"3786c61f02","server":"65535","farm":66,"title":"Sooty-headed bulbuls (Pycnonotus aurigaster), Ang Mo Kio Linear Park Singapore 28 October 2022.  Sony RX10M4.","ispublic":1,"isfriend":0,"isfamily":0},{"id":"52457856490","owner":"165579059@N02","secret":"51524277dc","server":"65535","farm":66,"title":"Sooty-headed bulbuls (Pycnonotus aurigaster), Ang Mo Kio Linear Park Singapore 27 October 2022.  Sony RX10M4.","ispublic":1,"isfriend":0,"isfamily":0},{"id":"52457405696","owner":"165579059@N02","secret":"f1b55be33f","server":"65535","farm":66,"title":"Sooty-headed bulbul (Pycnonotus aurigaster), Ang Mo Kio Linear Park Singapore 27 October 2022.  Sony RX10M4.","ispublic":1,"isfriend":0,"isfamily":0},{"id":"52456883017","owner":"165579059@N02","secret":"039fc9e3a0","server":"65535","farm":66,"title":"Sooty-headed bulbuls (Pycnonotus aurigaster), Ang Mo Kio Linear Park Singapore 27 October 2022.  Sony RX10M4.","ispublic":1,"isfriend":0,"isfamily":0},{"id":"52329019366","owner":"52061807@N04","secret":"bd35c0e872","server":"65535","farm":66,"title":"D5H_6597_43 \u767d\u5589\u7d05\u81c0\u9d6f Sooty-headed Bulbul","ispublic":1,"isfriend":0,"isfamily":0},{"id":"52315446867","owner":"52061807@N04","secret":"e62d63a732","server":"65535","farm":66,"title":"D5H_6798_23 \u767d\u5589\u7d05\u81c0\u9d6f Sooty-headed Bulbul","ispublic":1,"isfriend":0,"isfamily":0},{"id":"52245385817","owner":"165579059@N02","secret":"b48628a702","server":"65535","farm":66,"title":"Sooty-headed bulbul (Pycnonotus aurigaster), Luxus Hills Singapore 28 July 2022.  Canon 5DM4\/Tamron 28-300mm f3.5-6.3.","ispublic":1,"isfriend":0,"isfamily":0},{"id":"52205902661","owner":"10537200@N00","secret":"32de8e16aa","server":"65535","farm":66,"title":"sooty-headed bulbul","ispublic":1,"isfriend":0,"isfamily":0},{"id":"52204890217","owner":"10537200@N00","secret":"cf05457f8a","server":"65535","farm":66,"title":"sooty-headed bulbul","ispublic":1,"isfriend":0,"isfamily":0},{"id":"52204890032","owner":"10537200@N00","secret":"e19869d7ee","server":"65535","farm":66,"title":"sooty-headed bulbul","ispublic":1,"isfriend":0,"isfamily":0},{"id":"52206166939","owner":"10537200@N00","secret":"37f8eb7709","server":"65535","farm":66,"title":"sooty-headed bulbul","ispublic":1,"isfriend":0,"isfamily":0},{"id":"52118815010","owner":"90764954@N07","secret":"5834048f17","server":"65535","farm":66,"title":"Sooty-headed Bulbul (Pycnonotus aurigaster) \u767d\u5589\u7ea2\u81c0\u9e4e","ispublic":1,"isfriend":0,"isfamily":0},{"id":"52104820796","owner":"107784905@N04","secret":"f51721dfe5","server":"65535","farm":66,"title":"Bulbul cul-d'or - Ban Luang\/Chiang Mai\/TH_20191201_003-1","ispublic":1,"isfriend":0,"isfamily":0},{"id":"51986104404","owner":"165579059@N02","secret":"2e04fea891","server":"65535","farm":66,"title":"Sooty-headed bulbul (Pycnonotus aurigaster), Luxus Hills Singapore 6 April 2022.  Canon 5DM4\/Canon 70-200mm f4-5.6L IS USM\/Kenko Teleplus Pro 1.4.","ispublic":1,"isfriend":0,"isfamily":0},{"id":"51963444313","owner":"165579059@N02","secret":"dd02344ec7","server":"65535","farm":66,"title":"Sooty-headed bulbul (Pycnonotus aurigaster), Ang Mo Kio Linear Park Singapore 27 March 2022.  Sony A6500\/Canon 70-200mm f4-5.6L IS USM\/Kenko Teleplus Plus Pro 300 1.4.","ispublic":1,"isfriend":0,"isfamily":0},{"id":"51826521189","owner":"165579059@N02","secret":"fb5dea21ec","server":"65535","farm":66,"title":"Sooty-headed bulbul (Pycnonotus aurigaster), Luxus Hills Singapore 17 January 2022.  Sony RX10M4.","ispublic":1,"isfriend":0,"isfamily":0},{"id":"51777565031","owner":"165579059@N02","secret":"3dfb7daed3","server":"65535","farm":66,"title":"Sooty-headed bulbul (Pycnonotus aurigaster), Luxus Hills Singapore 27 December 2021.  Sony RX10M4.","ispublic":1,"isfriend":0,"isfamily":0},{"id":"51634422443","owner":"56891930@N05","secret":"1874a6d10a","server":"65535","farm":66,"title":"[ LIFER 2021 !!! ] Sooty-headed Bulbul (Pycnonotus aurigaster) \u767d\u5589\u7ea2\u81c2\u9e4e - Kolam Air Panas Kuala Kubu Bharu (Kuala Kubu Bharu Hotspring) \u65b0\u53e4\u6bdb\u6e29\u6cc9, Off Jalan Arif 12, Taman Arif Utama, Kuala Kubu Bharu \u65b0\u53e4\u6bdb\u9547, Daerah Hulu Selangor \u4e4c\u9c81\u96ea\u5170\u83aa\u53bf, Selangor \u96ea\u5170\u83aa\u5dde, Malaysia \u9a6c\u6765","ispublic":1,"isfriend":0,"isfamily":0},{"id":"51627358405","owner":"56891930@N05","secret":"118e97b297","server":"65535","farm":66,"title":"[ LIFER 2021 !!! ] Sooty-headed Bulbul (Pycnonotus aurigaster) \u767d\u5589\u7ea2\u81c2\u9e4e - Kolam Air Panas Kuala Kubu Bharu (Kuala Kubu Bharu Hotspring) \u65b0\u53e4\u6bdb\u6e29\u6cc9, Off Jalan Arif 12, Taman Arif Utama, Kuala Kubu Bharu \u65b0\u53e4\u6bdb\u9547, Daerah Hulu Selangor \u4e4c\u9c81\u96ea\u5170\u83aa\u53bf, Selangor \u96ea\u5170\u83aa\u5dde, Malaysia \u9a6c\u6765","ispublic":1,"isfriend":0,"isfamily":0},{"id":"51624726301","owner":"61485851@N06","secret":"5558b19073","server":"65535","farm":66,"title":"Sooty-headed bulbul","ispublic":1,"isfriend":0,"isfamily":0},{"id":"51596928662","owner":"165579059@N02","secret":"b18c79dac7","server":"65535","farm":66,"title":"Sooty-headed bulbul (Pycnonotus aurigaster), Luxus Hills Singapore 17 October 2021.  Sony RX10M4.","ispublic":1,"isfriend":0,"isfamily":0},{"id":"51528373642","owner":"32136583@N04","secret":"86f3094903","server":"65535","farm":66,"title":"Soothy Headed Bulbul","ispublic":1,"isfriend":0,"isfamily":0},{"id":"51518797894","owner":"107784905@N04","secret":"3a693e6d12","server":"65535","farm":66,"title":"Bulbul cul-d'or - Taksin Maharat\/Tak\/TH_20191130_008-1","ispublic":1,"isfriend":0,"isfamily":0},{"id":"51351419517","owner":"106773832@N02","secret":"010f3b2104","server":"65535","farm":66,"title":"Sooty-headed Bulbul (Pycnonotus aurigaster) -6850","ispublic":1,"isfriend":0,"isfamily":0},{"id":"51337189390","owner":"106773832@N02","secret":"0296b42ca8","server":"65535","farm":66,"title":"Sooty-headed Bulbul (Pycnonotus aurigaster)-6840","ispublic":1,"isfriend":0,"isfamily":0},{"id":"51336917004","owner":"106773832@N02","secret":"930077d27a","server":"65535","farm":66,"title":"Sooty-headed Bulbul (Pycnonotus aurigaster)-6766","ispublic":1,"isfriend":0,"isfamily":0},{"id":"51091381564","owner":"107784905@N04","secret":"3fdb3a5c73","server":"65535","farm":66,"title":"Bulbul cul-d'or - Doi Suthep\/Chian Mai\/TH_20191205_138","ispublic":1,"isfriend":0,"isfamily":0},{"id":"51051529682","owner":"61485851@N06","secret":"4660f09274","server":"65535","farm":66,"title":"Sooty-headed bulbul (Lifer #99)","ispublic":1,"isfriend":0,"isfamily":0},{"id":"50919758888","owner":"11159374@N04","secret":"41103471e4","server":"65535","farm":66,"title":"Sooty-headed Bulbul","ispublic":1,"isfriend":0,"isfamily":0},{"id":"50797945343","owner":"37180297@N08","secret":"d3f2ff856f","server":"65535","farm":66,"title":"_ESM9393 Pycnonotus aurigaster chrysorrhoides","ispublic":1,"isfriend":0,"isfamily":0},{"id":"50798694271","owner":"37180297@N08","secret":"ab259e7766","server":"65535","farm":66,"title":"_ESM9405 Pycnonotus aurigaster chrysorrhoides","ispublic":1,"isfriend":0,"isfamily":0},{"id":"50798810842","owner":"37180297@N08","secret":"539e4ce63d","server":"65535","farm":66,"title":"_ESM9419 Pycnonotus aurigaster chrysorrhoides","ispublic":1,"isfriend":0,"isfamily":0},{"id":"50798693376","owner":"37180297@N08","secret":"ba7ecc87d5","server":"65535","farm":66,"title":"_ESM9424 Pycnonotus aurigaster chrysorrhoides","ispublic":1,"isfriend":0,"isfamily":0},{"id":"50798809917","owner":"37180297@N08","secret":"9e0227b362","server":"65535","farm":66,"title":"_ESM9426 Pycnonotus aurigaster chrysorrhoides","ispublic":1,"isfriend":0,"isfamily":0},{"id":"50797944028","owner":"37180297@N08","secret":"287d5f8d19","server":"65535","farm":66,"title":"_ESM9429 Pycnonotus aurigaster chrysorrhoides","ispublic":1,"isfriend":0,"isfamily":0},{"id":"50798809702","owner":"37180297@N08","secret":"353e447c13","server":"65535","farm":66,"title":"_ESM9432 Pycnonotus aurigaster chrysorrhoides","ispublic":1,"isfriend":0,"isfamily":0},{"id":"50797943748","owner":"37180297@N08","secret":"810647581f","server":"65535","farm":66,"title":"_ESM9435 Pycnonotus aurigaster chrysorrhoides","ispublic":1,"isfriend":0,"isfamily":0},{"id":"50797943508","owner":"37180297@N08","secret":"cbfeeea6c1","server":"65535","farm":66,"title":"_ESM9439 Pycnonotus aurigaster chrysorrhoides","ispublic":1,"isfriend":0,"isfamily":0},{"id":"50580110651","owner":"107784905@N04","secret":"470d0a6e6f","server":"65535","farm":66,"title":"Bulbul cul-d'or - Doi Suthep\/Chian Mai\/TH_20191205_005-1","ispublic":1,"isfriend":0,"isfamily":0},{"id":"50190954107","owner":"45919374@N08","secret":"d0bccbd83c","server":"65535","farm":66,"title":"Sooty-headed bulbul","ispublic":1,"isfriend":0,"isfamily":0},{"id":"50129676232","owner":"189305611@N05","secret":"b2c32fb6d7","server":"65535","farm":66,"title":"Pycnonotus aurigaster","ispublic":1,"isfriend":0,"isfamily":0},{"id":"49962989902","owner":"58678815@N08","secret":"c088dfb9f1","server":"65535","farm":66,"title":"Pycnonotus aurigaster","ispublic":1,"isfriend":0,"isfamily":0},{"id":"52692265778","owner":"90764954@N07","secret":"5bc5b2644e","server":"65535","farm":66,"title":"Sooty-headed Bulbul (Pycnonotus aurigaster) \u767d\u5589\u7ea2\u81c0\u9e4e","ispublic":1,"isfriend":0,"isfamily":0},{"id":"52692190885","owner":"90764954@N07","secret":"3b71534ab3","server":"65535","farm":66,"title":"Sooty-headed Bulbul (Pycnonotus aurigaster) \u767d\u5589\u7ea2\u81c0\u9e4e","ispublic":1,"isfriend":0,"isfamily":0},{"id":"52691775761","owner":"90764954@N07","secret":"a3347ecf6e","server":"65535","farm":66,"title":"Sooty-headed Bulbul (Pycnonotus aurigaster) \u767d\u5589\u7ea2\u81c0\u9e4e","ispublic":1,"isfriend":0,"isfamily":0},{"id":"52533986225","owner":"90764954@N07","secret":"8a3dd10b8d","server":"65535","farm":66,"title":"Sooty-headed Bulbul (Pycnonotus aurigaster) \u767d\u5589\u7ea2\u81c0\u9e4e","ispublic":1,"isfriend":0,"isfamily":0},{"id":"52505827018","owner":"48977174@N06","secret":"a901aa7dd2","server":"65535","farm":66,"title":"10636_s","ispublic":1,"isfriend":0,"isfamily":0},{"id":"52496318965","owner":"186396050@N08","secret":"1ff7e427f9","server":"65535","farm":66,"title":"Pycnonotus Aurigaster Sooty-headed Bulbul","ispublic":1,"isfriend":0,"isfamily":0},{"id":"52492818995","owner":"7200351@N08","secret":"cb8cca1ab3","server":"65535","farm":66,"title":"Pycnonotus aurigaster aurigaster","ispublic":1,"isfriend":0,"isfamily":0},{"id":"52445197768","owner":"89246322@N04","secret":"f0fb2a9b16","server":"65535","farm":66,"title":"Sooty-headed Bulbul - Pycnonotus aurigaster","ispublic":1,"isfriend":0,"isfamily":0},{"id":"52444686301","owner":"89246322@N04","secret":"044c525ed9","server":"65535","farm":66,"title":"Sooty-headed Bulbul - Pycnonotus aurigaster","ispublic":1,"isfriend":0,"isfamily":0},{"id":"52322298856","owner":"89246322@N04","secret":"e2053a9963","server":"65535","farm":66,"title":"Sooty-headed Bulbul - Pycnonotus aurigaster","ispublic":1,"isfriend":0,"isfamily":0},{"id":"52322363955","owner":"52061807@N04","secret":"cc8008f3ca","server":"65535","farm":66,"title":"D5H_6737_23 \u767d\u5589\u7d05\u81c0\u9d6f Sooty-headed Bulbul","ispublic":1,"isfriend":0,"isfamily":0},{"id":"52218110231","owner":"80648919@N08","secret":"1c924cdbbf","server":"65535","farm":66,"title":"Sooty-headed Bulbul","ispublic":1,"isfriend":0,"isfamily":0},{"id":"52211969232","owner":"7200351@N08","secret":"d84290b16a","server":"65535","farm":66,"title":"Pycnonotus aurigaster aurigaster","ispublic":1,"isfriend":0,"isfamily":0},{"id":"52136308108","owner":"7200351@N08","secret":"ccddea25fb","server":"65535","farm":66,"title":"Pycnonotus aurigaster klossi","ispublic":1,"isfriend":0,"isfamily":0},{"id":"52028671778","owner":"191343261@N02","secret":"3ec4e3df05","server":"65535","farm":66,"title":"Pycnonotus aurigaster","ispublic":1,"isfriend":0,"isfamily":0},{"id":"51741251438","owner":"90764954@N07","secret":"3672466d88","server":"65535","farm":66,"title":"Sooty-headed Bulbul (Pycnonotus aurigaster) \u767d\u5589\u7ea2\u81c0\u9e4e","ispublic":1,"isfriend":0,"isfamily":0},{"id":"51741657319","owner":"90764954@N07","secret":"cb9052731a","server":"65535","farm":66,"title":"Sooty-headed Bulbul (Pycnonotus aurigaster) \u767d\u5589\u7ea2\u81c0\u9e4e","ispublic":1,"isfriend":0,"isfamily":0},{"id":"51732302738","owner":"194588435@N08","secret":"8eec658ce4","server":"65535","farm":66,"title":"Sooty-headed Bulbul","ispublic":1,"isfriend":0,"isfamily":0},{"id":"51704320155","owner":"142083658@N05","secret":"1c60a578ac","server":"65535","farm":66,"title":"Sooty-headed Bulbul, Pycnonotus aurigaster, \u0417\u043e\u043b\u043e\u0442\u043e\u0431\u0440\u044e\u0445\u0438\u0439 \u0431\u044e\u043b\u044c\u0431\u044e\u043b\u044c","ispublic":1,"isfriend":0,"isfamily":0},{"id":"51509784707","owner":"106773832@N02","secret":"1e62675c80","server":"65535","farm":66,"title":"Sooty-headed Bulbul (Pycnonotus aurigaster)-3330","ispublic":1,"isfriend":0,"isfamily":0},{"id":"51480253670","owner":"12639178@N07","secret":"b3477b32ec","server":"65535","farm":66,"title":"Ru\u00dfhauben-B\u00fclb\u00fcls auf dem Gartentisch","ispublic":1,"isfriend":0,"isfamily":0},{"id":"51479557348","owner":"12639178@N07","secret":"2e2d51e0d6","server":"65535","farm":66,"title":"Ru\u00dfhauben-B\u00fclb\u00fcls","ispublic":1,"isfriend":0,"isfamily":0},{"id":"51442541498","owner":"106773832@N02","secret":"a26f2f3e1f","server":"65535","farm":66,"title":"Sooty-headed Bulbul (Pycnonotus aurigaster)-1968","ispublic":1,"isfriend":0,"isfamily":0},{"id":"51401720953","owner":"106773832@N02","secret":"c672978f74","server":"65535","farm":66,"title":"Sooty-headed Bulbul (Pycnonotus aurigaster)-1001","ispublic":1,"isfriend":0,"isfamily":0},{"id":"51402216869","owner":"106773832@N02","secret":"d6cc0b0eba","server":"65535","farm":66,"title":"Sooty-headed Bulbul (Pycnonotus aurigaster)-1005","ispublic":1,"isfriend":0,"isfamily":0},{"id":"51402435260","owner":"106773832@N02","secret":"70c033dcaa","server":"65535","farm":66,"title":"Sooty-headed Bulbul (Pycnonotus aurigaster)-1013","ispublic":1,"isfriend":0,"isfamily":0},{"id":"51402435135","owner":"106773832@N02","secret":"68f1467346","server":"65535","farm":66,"title":"Sooty-headed Bulbul (Pycnonotus aurigaster)-1016","ispublic":1,"isfriend":0,"isfamily":0},{"id":"51401720353","owner":"106773832@N02","secret":"7a3b122d71","server":"65535","farm":66,"title":"Sooty-headed Bulbul (Pycnonotus aurigaster)-0997","ispublic":1,"isfriend":0,"isfamily":0},{"id":"51392410753","owner":"106773832@N02","secret":"1c61a8937e","server":"65535","farm":66,"title":"Sooty-headed Bulbul (Pycnonotus aurigaster) -0964","ispublic":1,"isfriend":0,"isfamily":0},{"id":"51392410608","owner":"106773832@N02","secret":"5ed3d48faa","server":"65535","farm":66,"title":"Sooty-headed Bulbul (Pycnonotus aurigaster) -0960","ispublic":1,"isfriend":0,"isfamily":0},{"id":"51392154221","owner":"106773832@N02","secret":"c26361b564","server":"65535","farm":66,"title":"Sooty-headed Bulbul (Pycnonotus aurigaster) -0957","ispublic":1,"isfriend":0,"isfamily":0},{"id":"51392154141","owner":"106773832@N02","secret":"b0b5c731fe","server":"65535","farm":66,"title":"Sooty-headed Bulbul (Pycnonotus aurigaster) -0955","ispublic":1,"isfriend":0,"isfamily":0},{"id":"51393167115","owner":"106773832@N02","secret":"61ea830060","server":"65535","farm":66,"title":"Sooty-headed Bulbul (Pycnonotus aurigaster) -0969","ispublic":1,"isfriend":0,"isfamily":0},{"id":"51328431829","owner":"106773832@N02","secret":"f90c503956","server":"65535","farm":66,"title":"Sooty-headed Bulbul (Pycnonotus aurigaster)-6837","ispublic":1,"isfriend":0,"isfamily":0},{"id":"51327712406","owner":"106773832@N02","secret":"7de92a04b8","server":"65535","farm":66,"title":"Sooty-headed Bulbul (Pycnonotus aurigaster)-6765","ispublic":1,"isfriend":0,"isfamily":0},{"id":"51321471213","owner":"106773832@N02","secret":"c1dae6ba3c","server":"65535","farm":66,"title":"Sooty-headed Bulbul (Pycnonotus aurigaster)-6568","ispublic":1,"isfriend":0,"isfamily":0},{"id":"50998867270","owner":"90764954@N07","secret":"51fe7fa45a","server":"65535","farm":66,"title":"Sooty-headed Bulbul (Pycnonotus aurigaster) \u767d\u5589\u7ea2\u81c0\u9e4e","ispublic":1,"isfriend":0,"isfamily":0},{"id":"51067350118","owner":"90764954@N07","secret":"3176b5d5d7","server":"65535","farm":66,"title":"Sooty-headed Bulbul (Pycnonotus aurigaster) \u767d\u5589\u7ea2\u81c0\u9e4e","ispublic":1,"isfriend":0,"isfamily":0},{"id":"50907448421","owner":"140734051@N08","secret":"a078d9f099","server":"65535","farm":66,"title":"\u0417\u043e\u043b\u043e\u0442\u043e\u0433\u0443\u0437\u044b\u0439 \u0431\u044e\u043b\u044c\u0431\u044e\u043b\u044c, Pycnonotus aurigaster schauenseei, Sooty-headed Bulbul","ispublic":1,"isfriend":0,"isfamily":0},{"id":"50906750133","owner":"140734051@N08","secret":"dff3f64ac3","server":"65535","farm":66,"title":"\u0417\u043e\u043b\u043e\u0442\u043e\u0433\u0443\u0437\u044b\u0439 \u0431\u044e\u043b\u044c\u0431\u044e\u043b\u044c, Pycnonotus aurigaster schauenseei, Sooty-headed Bulbul","ispublic":1,"isfriend":0,"isfamily":0},{"id":"50798810722","owner":"37180297@N08","secret":"12a74ca691","server":"65535","farm":66,"title":"_ESM9421 Pycnonotus aurigaster chrysorrhoides","ispublic":1,"isfriend":0,"isfamily":0},{"id":"50798810327","owner":"37180297@N08","secret":"01f7139df8","server":"65535","farm":66,"title":"_ESM9423 Pycnonotus aurigaster chrysorrhoides","ispublic":1,"isfriend":0,"isfamily":0},{"id":"50797943643","owner":"37180297@N08","secret":"af6381f594","server":"65535","farm":66,"title":"_ESM9436 Pycnonotus aurigaster chrysorrhoides","ispublic":1,"isfriend":0,"isfamily":0},{"id":"50798809132","owner":"37180297@N08","secret":"fff68ebbc1","server":"65535","farm":66,"title":"_ESM9440 Pycnonotus aurigaster chrysorrhoides","ispublic":1,"isfriend":0,"isfamily":0},{"id":"50712740663","owner":"137111202@N08","secret":"57a719588b","server":"65535","farm":66,"title":"\u767d\u5589\u7d05\u81c0\u9d6f, Sooty-headed Bulbul, Pycnonotus aurigaster,","ispublic":1,"isfriend":0,"isfamily":0},{"id":"50657545627","owner":"98682992@N00","secret":"09e34686f4","server":"65535","farm":66,"title":"HKR54425","ispublic":1,"isfriend":0,"isfamily":0},{"id":"50652657618","owner":"98682992@N00","secret":"d6f9256391","server":"65535","farm":66,"title":"HKR54439","ispublic":1,"isfriend":0,"isfamily":0},{"id":"50217090047","owner":"142083658@N05","secret":"785c14cc0c","server":"65535","farm":66,"title":"Sooty-headed Bulbul, Pycnonotus aurigaster, \u0417\u043e\u043b\u043e\u0442\u043e\u0431\u0440\u044e\u0445\u0438\u0439 \u0431\u044e\u043b\u044c\u0431\u044e\u043b\u044c","ispublic":1,"isfriend":0,"isfamily":0},{"id":"50085520181","owner":"187469698@N05","secret":"b46f91ff12","server":"65535","farm":66,"title":"793 Sooty-headed Bulbul - Andrew Walker 001","ispublic":1,"isfriend":0,"isfamily":0}]},"stat":"ok"}