{"photos":{"page":1,"pages":3,"perpage":100,"total":243,"photo":[{"id":"52750765802","owner":"26371261@N00","secret":"a505263e31","server":"65535","farm":66,"title":"Southern Gray-headed Sparrow, Passer diffusus","ispublic":1,"isfriend":0,"isfamily":0},{"id":"52708735783","owner":"26371261@N00","secret":"ac87578760","server":"65535","farm":66,"title":"Southern Gray-headed Sparrow, Passer diffusus","ispublic":1,"isfriend":0,"isfamily":0},{"id":"52589740223","owner":"26371261@N00","secret":"4c55c3338e","server":"65535","farm":66,"title":"Southern Gray-headed Sparrow, Passer diffusus","ispublic":1,"isfriend":0,"isfamily":0},{"id":"52561555877","owner":"61897811@N00","secret":"1770bd0982","server":"65535","farm":66,"title":"Southern Gray-headed Sparrow","ispublic":1,"isfriend":0,"isfamily":0},{"id":"52560484465","owner":"61897811@N00","secret":"68be2490e8","server":"65535","farm":66,"title":"Southern Gray-headed Sparrow","ispublic":1,"isfriend":0,"isfamily":0},{"id":"52536232403","owner":"26371261@N00","secret":"ac46b1276d","server":"65535","farm":66,"title":"Southern Gray-headed Sparrow, Passer diffusus","ispublic":1,"isfriend":0,"isfamily":0},{"id":"52422106054","owner":"61897811@N00","secret":"eb86b0d355","server":"65535","farm":66,"title":"Southern Gray-headed Sparrow","ispublic":1,"isfriend":0,"isfamily":0},{"id":"52364872227","owner":"7200351@N08","secret":"bbfaef2055","server":"65535","farm":66,"title":"Passer diffusus stygiceps","ispublic":1,"isfriend":0,"isfamily":0},{"id":"52309922878","owner":"77017456@N03","secret":"fbee35f620","server":"65535","farm":66,"title":"Southern Grey-headed Sparrow (passer diffusus)","ispublic":1,"isfriend":0,"isfamily":0},{"id":"52278037971","owner":"77017456@N03","secret":"02271b9331","server":"65535","farm":66,"title":"Southern Grey-headed Sparrow (passer diffusus)","ispublic":1,"isfriend":0,"isfamily":0},{"id":"51815339490","owner":"25572396@N04","secret":"62065337f9","server":"65535","farm":66,"title":"Southern Grey-headed Sparrow (Passer diffusus)","ispublic":1,"isfriend":0,"isfamily":0},{"id":"51643827933","owner":"78193635@N02","secret":"eb6a83859f","server":"65535","farm":66,"title":"Southern Grey-headed Sparrow","ispublic":1,"isfriend":0,"isfamily":0},{"id":"51644461280","owner":"78193635@N02","secret":"628f3b50d2","server":"65535","farm":66,"title":"Southern Grey-headed Sparrow","ispublic":1,"isfriend":0,"isfamily":0},{"id":"51240991959","owner":"107784905@N04","secret":"2653513eb4","server":"65535","farm":66,"title":"Moineau sud-africain - Wilderness\/Western Cape\/South Africa_20181128_012-1","ispublic":1,"isfriend":0,"isfamily":0},{"id":"50810712063","owner":"69947563@N07","secret":"819f869e02","server":"65535","farm":66,"title":"Southern Gray-headed Sparrow - Pienaarsriver, South Africa","ispublic":1,"isfriend":0,"isfamily":0},{"id":"50506460781","owner":"107784905@N04","secret":"951f03254c","server":"65535","farm":66,"title":"Moineau sud-africain - Wilderness\/Western Cape\/South Africa_20181128_016-1","ispublic":1,"isfriend":0,"isfamily":0},{"id":"50311129957","owner":"78193635@N02","secret":"d2b5b2e606","server":"65535","farm":66,"title":"Sparrow Southern Grey-headed","ispublic":1,"isfriend":0,"isfamily":0},{"id":"50310289258","owner":"78193635@N02","secret":"05bcd91c21","server":"65535","farm":66,"title":"Sparrow Southern Grey-headed","ispublic":1,"isfriend":0,"isfamily":0},{"id":"50173438526","owner":"24309230@N03","secret":"3e09dd67d6","server":"65535","farm":66,"title":"Southern Grey-headed Sparrow","ispublic":1,"isfriend":0,"isfamily":0},{"id":"50149947218","owner":"7482089@N04","secret":"a6a753e303","server":"65535","farm":66,"title":"Southern Grey-headed Sparrow, Passer diffusus","ispublic":1,"isfriend":0,"isfamily":0},{"id":"49470157737","owner":"107784905@N04","secret":"f06102ac6c","server":"65535","farm":66,"title":"Moineau sud-africain - Wilderness\/Western Cape\/South Africa_20181128_009-1","ispublic":1,"isfriend":0,"isfamily":0},{"id":"49459521776","owner":"24309230@N03","secret":"1f6f87bcb3","server":"65535","farm":66,"title":"Southern Grey-headed Sparrow","ispublic":1,"isfriend":0,"isfamily":0},{"id":"49402666157","owner":"58195583@N06","secret":"c51108bb0b","server":"65535","farm":66,"title":"Southern Grey-headed Sparrow, Passer diffusus, Msuna Fishing Resort, Zambezi River, Zimbabwe","ispublic":1,"isfriend":0,"isfamily":0},{"id":"48980824467","owner":"128578170@N06","secret":"55deb2eb01","server":"65535","farm":66,"title":"Southern Grey-headed Sparrow Passer diffusus mosambicus","ispublic":1,"isfriend":0,"isfamily":0},{"id":"48607435368","owner":"78193635@N02","secret":"973f4570f7","server":"65535","farm":66,"title":"Sparrow Southern Grey-headed","ispublic":1,"isfriend":0,"isfamily":0},{"id":"48099852078","owner":"140734051@N08","secret":"a3de67750a","server":"65535","farm":66,"title":"\u0414\u0430\u043c\u0430\u0440\u0441\u043a\u0438\u0439 \u0432\u043e\u0440\u043e\u0431\u0435\u0439, Passer diffusus luangwae, Southern Grey-headed Sparrow","ispublic":1,"isfriend":0,"isfamily":0},{"id":"32673910317","owner":"56686021@N04","secret":"6bd05918a7","server":"65535","farm":66,"title":"Southern Grey-headed Sparrow","ispublic":1,"isfriend":0,"isfamily":0},{"id":"46544034155","owner":"76695351@N06","secret":"a4ec6f5a4e","server":"65535","farm":66,"title":"Mozambiquemus - Southern grey-headed sparrow","ispublic":1,"isfriend":0,"isfamily":0},{"id":"33484268138","owner":"140734051@N08","secret":"5001cc757a","server":"7902","farm":8,"title":"\u0414\u0430\u043c\u0430\u0440\u0441\u043a\u0438\u0439 \u0432\u043e\u0440\u043e\u0431\u0435\u0439, Passer diffusus diffusus, Southern Grey-headed Sparrow","ispublic":1,"isfriend":0,"isfamily":0},{"id":"46315549055","owner":"107784905@N04","secret":"b2830f115f","server":"7915","farm":8,"title":"Moineau sud-africain - Wilderness\/Western Cape\/South Africa_20181128_e4126","ispublic":1,"isfriend":0,"isfamily":0},{"id":"46269122885","owner":"7482089@N04","secret":"bba8812eec","server":"7808","farm":8,"title":"Southern Grey-headed Sparrow, Passer diffusus","ispublic":1,"isfriend":0,"isfamily":0},{"id":"47100545641","owner":"65695019@N07","secret":"39c3a5982a","server":"7901","farm":8,"title":"Southern Grey-headed Sparrow (Passer diffusus)","ispublic":1,"isfriend":0,"isfamily":0},{"id":"45439319624","owner":"65695019@N07","secret":"ecdf45403f","server":"4873","farm":5,"title":"Southern Grey-headed Sparrow (Passer diffusus)","ispublic":1,"isfriend":0,"isfamily":0},{"id":"46370652804","owner":"65695019@N07","secret":"a49bb79970","server":"7872","farm":8,"title":"Southern Grey-headed Sparrow (Passer diffusus)","ispublic":1,"isfriend":0,"isfamily":0},{"id":"47038851971","owner":"56686021@N04","secret":"339e53731d","server":"7888","farm":8,"title":"Southern Grey-headed Sparrow","ispublic":1,"isfriend":0,"isfamily":0},{"id":"46974849061","owner":"116208073@N07","secret":"95055ab9c9","server":"4907","farm":5,"title":"Southern Grey-headed Sparrow -5455","ispublic":1,"isfriend":0,"isfamily":0},{"id":"39949912363","owner":"95579115@N03","secret":"aecb8de63f","server":"7862","farm":8,"title":"Southern Grey-headed Sparrow (Passer diffusus) \u042e\u0436\u043d\u044b\u0439 \u0441\u0435\u0440\u043e\u0433\u043e\u043b\u043e\u0432\u044b\u0439 \u0432\u043e\u0440\u043e\u0431\u0435\u0439","ispublic":1,"isfriend":0,"isfamily":0},{"id":"31438991307","owner":"99817330@N02","secret":"100558f1a7","server":"4851","farm":5,"title":"Southern Grey-headed Sparrow","ispublic":1,"isfriend":0,"isfamily":0},{"id":"44511766650","owner":"62037969@N08","secret":"28721bda0c","server":"4915","farm":5,"title":"Southern Grey-headed Sparrow On An Ugly Perch","ispublic":1,"isfriend":0,"isfamily":0},{"id":"45409114835","owner":"8264176@N02","secret":"11c6ccbb82","server":"4833","farm":5,"title":"Mozambiquemus, Grey-headed Sparrow, Passer Diffusus -80157","ispublic":1,"isfriend":0,"isfamily":0},{"id":"43477621151","owner":"32005048@N06","secret":"17596acc40","server":"838","farm":1,"title":"Passer diffusus (Southern Grey-headed Sparrow)","ispublic":1,"isfriend":0,"isfamily":0},{"id":"28590913257","owner":"32005048@N06","secret":"c7a4c80b4f","server":"1790","farm":2,"title":"Passer diffusus (Southern Grey-headed Sparrow)","ispublic":1,"isfriend":0,"isfamily":0},{"id":"40966790732","owner":"140734051@N08","secret":"6cbc9c6f9f","server":"4774","farm":5,"title":"\u0414\u0430\u043c\u0430\u0440\u0441\u043a\u0438\u0439 \u0432\u043e\u0440\u043e\u0431\u0435\u0439, Passer diffusus diffusus, Southern Grey-headed Sparrow","ispublic":1,"isfriend":0,"isfamily":0},{"id":"40313153042","owner":"24309230@N03","secret":"6c36ef4ef6","server":"4673","farm":5,"title":"Gorri\u00f3n Sudafricano","ispublic":1,"isfriend":0,"isfamily":0},{"id":"25483814308","owner":"76454790@N02","secret":"4f9208713b","server":"65535","farm":66,"title":"Southern Grey-headed Sparrow (Passer diffusus)","ispublic":1,"isfriend":0,"isfamily":0},{"id":"24331107478","owner":"14195020@N08","secret":"6e52baef9d","server":"4557","farm":5,"title":"strange South African sparrow","ispublic":1,"isfriend":0,"isfamily":0},{"id":"38066633106","owner":"50264295@N06","secret":"087eb44900","server":"4580","farm":5,"title":"Southern Gray-headed Sparrow (Passer diffusus)","ispublic":1,"isfriend":0,"isfamily":0},{"id":"36966634353","owner":"105733696@N05","secret":"69aa30da52","server":"4501","farm":5,"title":"Passer diffusus","ispublic":1,"isfriend":0,"isfamily":0},{"id":"35646936093","owner":"131829160@N06","secret":"e967cc700b","server":"4341","farm":5,"title":"Southern Grey-headed Sparrow (Passer diffusus)","ispublic":1,"isfriend":0,"isfamily":0},{"id":"35619178574","owner":"131829160@N06","secret":"19176a6672","server":"4353","farm":5,"title":"Southern Grey-headed Sparrow (Passer diffusus)","ispublic":1,"isfriend":0,"isfamily":0},{"id":"35878976570","owner":"131829160@N06","secret":"c526291904","server":"4294","farm":5,"title":"Southern Grey-headed Sparrow (Passer diffusus)","ispublic":1,"isfriend":0,"isfamily":0},{"id":"36086277826","owner":"145358833@N06","secret":"74150b3c11","server":"4308","farm":5,"title":"Southern grey-headed sparrow (Passer diffusus)","ispublic":1,"isfriend":0,"isfamily":0},{"id":"35510561330","owner":"131708321@N02","secret":"c9227e7b40","server":"4282","farm":5,"title":"Southern Grey-headed Sparrow (Passer diffusus), Kruger National Park, Mpumalanga, South Africa","ispublic":1,"isfriend":0,"isfamily":0},{"id":"52567094317","owner":"12639178@N07","secret":"6cf4abcec9","server":"65535","farm":66,"title":"Rostsperling und Damarasperling","ispublic":1,"isfriend":0,"isfamily":0},{"id":"52567094192","owner":"12639178@N07","secret":"006f05586e","server":"65535","farm":66,"title":"Damarasperling [Passer diffusus], Southern Grey-headed Sparrow","ispublic":1,"isfriend":0,"isfamily":0},{"id":"51693436952","owner":"30170234@N08","secret":"37f4bc8dac","server":"65535","farm":66,"title":"20211023.145613_012459i","ispublic":1,"isfriend":0,"isfamily":0},{"id":"51421415443","owner":"20984644@N05","secret":"c79bf67ae4","server":"65535","farm":66,"title":"Southern Gray-headed Sparrows","ispublic":1,"isfriend":0,"isfamily":0},{"id":"50978576206","owner":"65695019@N07","secret":"f4d041930e","server":"65535","farm":66,"title":"Southern Grey-headed Sparrow (Passer diffusus)","ispublic":1,"isfriend":0,"isfamily":0},{"id":"50905757691","owner":"65695019@N07","secret":"5daebf8709","server":"65535","farm":66,"title":"Southern Grey-headed Sparrows (Passer diffusus) and Red-headed Finch (Amadina erythrocephala) male drinking ...","ispublic":1,"isfriend":0,"isfamily":0},{"id":"50905874347","owner":"65695019@N07","secret":"28afcf3c00","server":"65535","farm":66,"title":"Southern Grey-headed Sparrows (Passer diffusus)","ispublic":1,"isfriend":0,"isfamily":0},{"id":"50905867337","owner":"65695019@N07","secret":"05bcbd592f","server":"65535","farm":66,"title":"Southern Grey-headed Sparrows (Passer diffusus) drinking ...","ispublic":1,"isfriend":0,"isfamily":0},{"id":"50905025473","owner":"65695019@N07","secret":"393fc86b40","server":"65535","farm":66,"title":"Sociable Weavers (Philetairus socius) and Southern Grey-headed Sparrows (Passer diffusus)","ispublic":1,"isfriend":0,"isfamily":0},{"id":"49985422833","owner":"61316002@N02","secret":"41e4954aa9","server":"65535","farm":66,"title":"SOUGRYHEASPA 0025","ispublic":1,"isfriend":0,"isfamily":0},{"id":"49887983427","owner":"55968524@N04","secret":"859d1ff011","server":"65535","farm":66,"title":"C16V9324 - Southern Grey-headed Sparrow - Passer diffusus.jpg","ispublic":1,"isfriend":0,"isfamily":0},{"id":"49705532177","owner":"120533227@N06","secret":"a822ca8442","server":"65535","farm":66,"title":"KV4A3019   Angolaspurv - Southern Grey-headed Sparrow - Passer diffusus,  Temba Safari - Marken - Limpopo - South-africa","ispublic":1,"isfriend":0,"isfamily":0},{"id":"49697497091","owner":"120533227@N06","secret":"338f1a7bb0","server":"65535","farm":66,"title":"KV4A2870  Angolaspurv - Southern Grey-headed Sparrow - Passer diffusus, Temba Safari - Marken - Limpopo - Southafrica","ispublic":1,"isfriend":0,"isfamily":0},{"id":"49696645493","owner":"120533227@N06","secret":"064c068fbd","server":"65535","farm":66,"title":"KV4A2878   R\u00f8dn\u00e6bbet Oksehakker - Red-billed Oxpecker - Buphagus erythrorhynchus, Temba Safari - Southafrica","ispublic":1,"isfriend":0,"isfamily":0},{"id":"49696645423","owner":"120533227@N06","secret":"b62433dcf1","server":"65535","farm":66,"title":"KV4A2881   R\u00f8dn\u00e6bbet Oksehakker - Red-billed Oxpecker - Buphagus erythrorhynchus, Temba Safari - Southafrica","ispublic":1,"isfriend":0,"isfamily":0},{"id":"49693133366","owner":"120533227@N06","secret":"7b33f86684","server":"65535","farm":66,"title":"KV4A2799  Angolaspurv - Southern Grey-headed Sparrow - Passer diffusus, Temba Safari - Southafrica","ispublic":1,"isfriend":0,"isfamily":0},{"id":"49372538066","owner":"27588142@N06","secret":"f1bd30aa96","server":"65535","farm":66,"title":"Southern Gray-headed Sparrow","ispublic":1,"isfriend":0,"isfamily":0},{"id":"49372740392","owner":"27588142@N06","secret":"dc42e7f47e","server":"65535","farm":66,"title":"Southern Gray-headed Sparrow","ispublic":1,"isfriend":0,"isfamily":0},{"id":"49208451372","owner":"48907812@N00","secret":"a3b1ee5e1c","server":"65535","farm":66,"title":"southern grey-headed sparrow (Passer diffusus)","ispublic":1,"isfriend":0,"isfamily":0},{"id":"48961453048","owner":"131256186@N04","secret":"953576e60d","server":"65535","farm":66,"title":"Southern Grey-headed Sparrow  Passer diffusus","ispublic":1,"isfriend":0,"isfamily":0},{"id":"48950448318","owner":"12639178@N07","secret":"0802b2b59c","server":"65535","farm":66,"title":"Southern Grey-headed Sparrow","ispublic":1,"isfriend":0,"isfamily":0},{"id":"48919313721","owner":"29991886@N06","secret":"beab5f1b83","server":"65535","farm":66,"title":"\u00a9Mark Kras-Mozambiquemus-_DWL3712.jpg","ispublic":1,"isfriend":0,"isfamily":0},{"id":"48462309862","owner":"40195635@N03","secret":"d15ef73343","server":"65535","farm":66,"title":"Southern Grey-headed Sparrow (Passer diffusus stygiceps)","ispublic":1,"isfriend":0,"isfamily":0},{"id":"48116255392","owner":"128578170@N06","secret":"e327b07dd7","server":"65535","farm":66,"title":"Southern Grey-headed Sparrow Passer diffusus mosambicus","ispublic":1,"isfriend":0,"isfamily":0},{"id":"48099906222","owner":"140734051@N08","secret":"ea469a6e48","server":"65535","farm":66,"title":"\u0414\u0430\u043c\u0430\u0440\u0441\u043a\u0438\u0439 \u0432\u043e\u0440\u043e\u0431\u0435\u0439, Passer diffusus luangwae, Southern Grey-headed Sparrow","ispublic":1,"isfriend":0,"isfamily":0},{"id":"47959914702","owner":"140734051@N08","secret":"36f59e1ca5","server":"65535","farm":66,"title":"\u0414\u0430\u043c\u0430\u0440\u0441\u043a\u0438\u0439 \u0432\u043e\u0440\u043e\u0431\u0435\u0439, Passer diffusus diffusus, Southern Grey-headed Sparrow","ispublic":1,"isfriend":0,"isfamily":0},{"id":"47959922258","owner":"140734051@N08","secret":"5cf5c734e6","server":"65535","farm":66,"title":"\u0414\u0430\u043c\u0430\u0440\u0441\u043a\u0438\u0439 \u0432\u043e\u0440\u043e\u0431\u0435\u0439, Passer diffusus diffusus, Southern Grey-headed Sparrow","ispublic":1,"isfriend":0,"isfamily":0},{"id":"47959921263","owner":"140734051@N08","secret":"86e9638913","server":"65535","farm":66,"title":"\u0414\u0430\u043c\u0430\u0440\u0441\u043a\u0438\u0439 \u0432\u043e\u0440\u043e\u0431\u0435\u0439, Passer diffusus diffusus, Southern Grey-headed Sparrow","ispublic":1,"isfriend":0,"isfamily":0},{"id":"47959921148","owner":"140734051@N08","secret":"6b9b4c1531","server":"65535","farm":66,"title":"\u0414\u0430\u043c\u0430\u0440\u0441\u043a\u0438\u0439 \u0432\u043e\u0440\u043e\u0431\u0435\u0439, Passer diffusus diffusus, Southern Grey-headed Sparrow","ispublic":1,"isfriend":0,"isfamily":0},{"id":"46601770595","owner":"56686021@N04","secret":"d63c662bc6","server":"7890","farm":8,"title":"Southern Grey-headed Sparrow","ispublic":1,"isfriend":0,"isfamily":0},{"id":"47461104102","owner":"89329412@N00","secret":"c44602c421","server":"7814","farm":8,"title":"Sparrow_SouthernGrayHeaded_Stellenbosch_2019","ispublic":1,"isfriend":0,"isfamily":0},{"id":"40395005753","owner":"140734051@N08","secret":"57723505f0","server":"7849","farm":8,"title":"\u0414\u0430\u043c\u0430\u0440\u0441\u043a\u0438\u0439 \u0432\u043e\u0440\u043e\u0431\u0435\u0439, Passer diffusus diffusus, Southern Grey-headed Sparrow","ispublic":1,"isfriend":0,"isfamily":0},{"id":"46986920872","owner":"56686021@N04","secret":"996a649ac0","server":"7889","farm":8,"title":"Southern Grey-headed Sparrow","ispublic":1,"isfriend":0,"isfamily":0},{"id":"46986920832","owner":"56686021@N04","secret":"940ae6e8b3","server":"7901","farm":8,"title":"Southern Grey-headed Sparrow","ispublic":1,"isfriend":0,"isfamily":0},{"id":"39988540013","owner":"67951746@N02","secret":"2e82a905ec","server":"7917","farm":8,"title":"Passer diffusus - Southern Grey head Sparrow","ispublic":1,"isfriend":0,"isfamily":0},{"id":"45229172804","owner":"121253091@N02","secret":"520558fd1d","server":"4868","farm":5,"title":"Ram\u00f3n Mu\u00f1oz DSC3522 Gorri\u00f3n sudafricano (Passer diffusus) en Damaraland, Namibia","ispublic":1,"isfriend":0,"isfamily":0},{"id":"45556437191","owner":"97367345@N00","secret":"7c4cf69bec","server":"1968","farm":2,"title":"Gryskopmossie","ispublic":1,"isfriend":0,"isfamily":0},{"id":"44015685965","owner":"106773832@N02","secret":"f80566e7d4","server":"1975","farm":2,"title":"Southern Gray-headed Sparrow (Passer diffusus)_DSC4135-editCC","ispublic":1,"isfriend":0,"isfamily":0},{"id":"44015683505","owner":"106773832@N02","secret":"e50bf73634","server":"1905","farm":2,"title":"Southern Gray-headed Sparrow (Passer diffusus)_DSC4135-editCC_DSC4139-editCC","ispublic":1,"isfriend":0,"isfamily":0},{"id":"27649578818","owner":"93882360@N07","secret":"bf6e77a6f2","server":"868","farm":1,"title":"Southern carmine bee-eater (Merops nubicoides) with southern grey-headed sparrow (Passer diffusus)","ispublic":1,"isfriend":0,"isfamily":0},{"id":"40373898674","owner":"106773832@N02","secret":"6a6d7b1c28","server":"883","farm":1,"title":"Southern Gray-headed Sparrow (Passer diffusus)_DSC8807-editCC","ispublic":1,"isfriend":0,"isfamily":0},{"id":"27293760649","owner":"26879836@N02","secret":"783dcc045a","server":"4737","farm":5,"title":"Southern Grey-Headed Sparrow  (Passer diffusus) Graukopfsperling","ispublic":1,"isfriend":0,"isfamily":0},{"id":"38164896394","owner":"88567126@N00","secret":"547c9ba87f","server":"4520","farm":5,"title":"IMG_0810","ispublic":1,"isfriend":0,"isfamily":0},{"id":"35443436772","owner":"12639178@N07","secret":"39d15420c2","server":"4002","farm":5,"title":"Damarasperling , NGIDn1161963958","ispublic":1,"isfriend":0,"isfamily":0},{"id":"35219645960","owner":"88593217@N04","secret":"b047a92ae4","server":"4274","farm":5,"title":"Southern Grey-headed Sparrow, Etosha National Park, Namibia October 2014","ispublic":1,"isfriend":0,"isfamily":0},{"id":"35219645800","owner":"88593217@N04","secret":"dcef5aef81","server":"4250","farm":5,"title":"Southern Grey-headed Sparrow, Etosha National Park, Namibia October 2014","ispublic":1,"isfriend":0,"isfamily":0},{"id":"35487372285","owner":"12639178@N07","secret":"43383263ff","server":"4241","farm":5,"title":"Badender Damarasperling, links daneben ein m\u00e4nnl. Maskenweber , NGIDn1106608396","ispublic":1,"isfriend":0,"isfamily":0}]},"stat":"ok"}