{"photos":{"page":1,"pages":2,"perpage":100,"total":167,"photo":[{"id":"52732071855","owner":"39087144@N04","secret":"9eaec2bc9c","server":"65535","farm":66,"title":"MRC_9627-AI","ispublic":1,"isfriend":0,"isfamily":0},{"id":"52705804232","owner":"22639527@N05","secret":"b72b37467e","server":"65535","farm":66,"title":"Levaillant's Cuckoo in flight, Chitwa Chitwa South Africa","ispublic":1,"isfriend":0,"isfamily":0},{"id":"52526063829","owner":"61897811@N00","secret":"9ef912bbdb","server":"65535","farm":66,"title":"Southern Pied Babbler","ispublic":1,"isfriend":0,"isfamily":0},{"id":"52224458567","owner":"27588142@N06","secret":"b6de64fa07","server":"65535","farm":66,"title":"Southern Pied-Babbler","ispublic":1,"isfriend":0,"isfamily":0},{"id":"52225947755","owner":"27588142@N06","secret":"919c13343d","server":"65535","farm":66,"title":"Southern Pied-Babbler","ispublic":1,"isfriend":0,"isfamily":0},{"id":"52189516168","owner":"100209004@N04","secret":"8547809140","server":"65535","farm":66,"title":"Southern Pied Babbler (Turdoides bicolor) @ Gabus Game Ranch, Otavi, Namibia-1231","ispublic":1,"isfriend":0,"isfamily":0},{"id":"51910956353","owner":"22594349@N08","secret":"ba137b7965","server":"65535","farm":66,"title":"Southern Pied Babbler (Turdoides bicolor)","ispublic":1,"isfriend":0,"isfamily":0},{"id":"51318548773","owner":"22594349@N08","secret":"7d1f29289a","server":"65535","farm":66,"title":"Southern Pied Babbler (Turdoides bicolor)","ispublic":1,"isfriend":0,"isfamily":0},{"id":"51250961789","owner":"22594349@N08","secret":"bf2a020d64","server":"65535","farm":66,"title":"Southern Pied Babbler (Turdoides bicolor)","ispublic":1,"isfriend":0,"isfamily":0},{"id":"49858777306","owner":"55968524@N04","secret":"9ba6bb3d49","server":"65535","farm":66,"title":"2M3A2620 - Southern Pied Babbler - Turdoides bicolor.jpg","ispublic":1,"isfriend":0,"isfamily":0},{"id":"49841672742","owner":"120533227@N06","secret":"1d7370f589","server":"65535","farm":66,"title":"KV4A6455     Sorthvid Larmdrossel - Southern Pied Babbler - Turdoides bicolor, Temba Safari  - Marken - Limpopo - South Africa","ispublic":1,"isfriend":0,"isfamily":0},{"id":"49828859551","owner":"120533227@N06","secret":"39a669fffa","server":"65535","farm":66,"title":"KV4A5846   Sorthvid Larmdrossel - Southern Pied Babbler - Turdoides bicolor, Temba Safari - Marken - Limpopo - South Africa","ispublic":1,"isfriend":0,"isfamily":0},{"id":"49828330053","owner":"120533227@N06","secret":"367e109083","server":"65535","farm":66,"title":"KV4A6055    Sorthvid Larmdrossel - Southern Pied Babbler - Turdoides bicolor, Temba Safari  - Marken - Limpopo - South Africa","ispublic":1,"isfriend":0,"isfamily":0},{"id":"49818605991","owner":"120533227@N06","secret":"d9fa4b167f","server":"65535","farm":66,"title":"KV4A5832   Sorthvid Larmdrossel - Southern Pied Babbler - Turdoides bicolor, Temba Safari - Marken - Limpopo - South Africa","ispublic":1,"isfriend":0,"isfamily":0},{"id":"49725409702","owner":"148881376@N06","secret":"e8e9847da8","server":"65535","farm":66,"title":"\"Babbler fighting the head\" by Sabrina Engesser, University of Zurich","ispublic":1,"isfriend":0,"isfamily":0},{"id":"49364218002","owner":"8264176@N02","secret":"6827bc59fa","server":"65535","farm":66,"title":"Eksterbabbelaar, Southern Pied Babbler, Turdoides Bicolor-6150766","ispublic":1,"isfriend":0,"isfamily":0},{"id":"48607436223","owner":"78193635@N02","secret":"cd17e1459c","server":"65535","farm":66,"title":"Babbler Southern Pied","ispublic":1,"isfriend":0,"isfamily":0},{"id":"48607797201","owner":"78193635@N02","secret":"1982ffdcc2","server":"65535","farm":66,"title":"Babbler Southern Pied","ispublic":1,"isfriend":0,"isfamily":0},{"id":"48510617427","owner":"145548564@N04","secret":"a85b4ce8c8","server":"65535","farm":66,"title":"NAMX0190 e1 DF LM","ispublic":1,"isfriend":0,"isfamily":0},{"id":"47923932287","owner":"58975350@N06","secret":"28a43f1c7c","server":"65535","farm":66,"title":"Southern Pied Babbler","ispublic":1,"isfriend":0,"isfamily":0},{"id":"46958860415","owner":"73374732@N00","secret":"2c8016fda2","server":"65535","farm":66,"title":"Etosha National Park","ispublic":1,"isfriend":0,"isfamily":0},{"id":"47074137394","owner":"140734051@N08","secret":"910f62d730","server":"65535","farm":66,"title":"\u041f\u0435\u0433\u0430\u044f \u0434\u0440\u043e\u0437\u0434\u043e\u0432\u043a\u0430, Turdoides bicolor, Southern Pied Babbler","ispublic":1,"isfriend":0,"isfamily":0},{"id":"33986334688","owner":"140734051@N08","secret":"230c6e9817","server":"65535","farm":66,"title":"\u041f\u0435\u0433\u0430\u044f \u0434\u0440\u043e\u0437\u0434\u043e\u0432\u043a\u0430, Turdoides bicolor, Southern Pied Babbler","ispublic":1,"isfriend":0,"isfamily":0},{"id":"47074136344","owner":"140734051@N08","secret":"09f88ce7af","server":"65535","farm":66,"title":"\u041f\u0435\u0433\u0430\u044f \u0434\u0440\u043e\u0437\u0434\u043e\u0432\u043a\u0430, Turdoides bicolor, Southern Pied Babbler","ispublic":1,"isfriend":0,"isfamily":0},{"id":"47811387172","owner":"140734051@N08","secret":"934bf090d3","server":"65535","farm":66,"title":"\u041f\u0435\u0433\u0430\u044f \u0434\u0440\u043e\u0437\u0434\u043e\u0432\u043a\u0430, Turdoides bicolor, Southern Pied Babbler","ispublic":1,"isfriend":0,"isfamily":0},{"id":"32919512977","owner":"140734051@N08","secret":"e146a9e60c","server":"65535","farm":66,"title":"\u041f\u0435\u0433\u0430\u044f \u0434\u0440\u043e\u0437\u0434\u043e\u0432\u043a\u0430, Turdoides bicolor, Southern Pied Babbler","ispublic":1,"isfriend":0,"isfamily":0},{"id":"46877765981","owner":"22594349@N08","secret":"7854867f78","server":"7857","farm":8,"title":"Southern Pied Babbler (Turdoides bicolor)","ispublic":1,"isfriend":0,"isfamily":0},{"id":"45737285201","owner":"78193635@N02","secret":"4817af1aba","server":"1906","farm":2,"title":"Cuckoo Levaillant's","ispublic":1,"isfriend":0,"isfamily":0},{"id":"31207305958","owner":"95579115@N03","secret":"e2026ef551","server":"1980","farm":2,"title":"Southern Pied Babbler (Turdoides bicolor) \u041f\u0435\u0433\u0430\u044f \u0434\u0440\u043e\u0437\u0434\u043e\u0432\u0430\u044f \u0442\u0438\u043c\u0435\u043b\u0438\u044f","ispublic":1,"isfriend":0,"isfamily":0},{"id":"43902390404","owner":"164303562@N02","secret":"5f971246c3","server":"1891","farm":2,"title":"Crat\u00e9rope bicolore","ispublic":1,"isfriend":0,"isfamily":0},{"id":"43888571212","owner":"12639178@N07","secret":"48bbd05b08","server":"938","farm":1,"title":"Elsterdrossling, Namibia","ispublic":1,"isfriend":0,"isfamily":0},{"id":"28999130047","owner":"12639178@N07","secret":"0847b9dbd0","server":"935","farm":1,"title":"Elsterdrossling, Namibia","ispublic":1,"isfriend":0,"isfamily":0},{"id":"42128030200","owner":"12639178@N07","secret":"a68e67da0e","server":"934","farm":1,"title":"Elsterdrossling, Namibia","ispublic":1,"isfriend":0,"isfamily":0},{"id":"27319309677","owner":"162782243@N02","secret":"5662f7a707","server":"948","farm":1,"title":"(Southern) Pied Babbler","ispublic":1,"isfriend":0,"isfamily":0},{"id":"24890632117","owner":"154657265@N08","secret":"7905cddc3f","server":"4632","farm":5,"title":"Southern Pied Babbler (Turdoides bicolor) - Ghanzi","ispublic":1,"isfriend":0,"isfamily":0},{"id":"24809913717","owner":"154657265@N08","secret":"f07c9d16d2","server":"4607","farm":5,"title":"Southern Pied Babbler (Turdoides bicolor) - Etosha","ispublic":1,"isfriend":0,"isfamily":0},{"id":"24324621077","owner":"50264295@N06","secret":"14f6914fce","server":"4647","farm":5,"title":"Southern Pied Babbler (Turdoides bicolor)","ispublic":1,"isfriend":0,"isfamily":0},{"id":"25220479728","owner":"76454790@N02","secret":"7429d08594","server":"65535","farm":66,"title":"Southern Pied Babbler (Turdoides bicolor)","ispublic":1,"isfriend":0,"isfamily":0},{"id":"37582802225","owner":"61140219@N08","secret":"f4fe628507","server":"4552","farm":5,"title":"Southern Pied Babbler (Turdoides bicolor), Namibia","ispublic":1,"isfriend":0,"isfamily":0},{"id":"38339093752","owner":"30555852@N02","secret":"794348a6bd","server":"4550","farm":5,"title":"Southern pied Babbler","ispublic":1,"isfriend":0,"isfamily":0},{"id":"33251607394","owner":"78193635@N02","secret":"c5d596b929","server":"2886","farm":3,"title":"Cuckoo Levaillant's","ispublic":1,"isfriend":0,"isfamily":0},{"id":"33251598154","owner":"78193635@N02","secret":"accfaab8af","server":"2912","farm":3,"title":"Cuckoo Levaillant's","ispublic":1,"isfriend":0,"isfamily":0},{"id":"33713869752","owner":"131256186@N04","secret":"605ac1df85","server":"2826","farm":3,"title":"Southern Pied Babbler  Turdoides Bicolor","ispublic":1,"isfriend":0,"isfamily":0},{"id":"32478942994","owner":"30722034@N02","secret":"b0b6c9a12e","server":"3692","farm":4,"title":"Southern Pied Barbler","ispublic":1,"isfriend":0,"isfamily":0},{"id":"32058584723","owner":"61504576@N06","secret":"4479b78eed","server":"286","farm":1,"title":"Southern Pied Babbler","ispublic":1,"isfriend":0,"isfamily":0},{"id":"30655109856","owner":"93140244@N02","secret":"aa1d14c2d2","server":"5470","farm":6,"title":"Southern Pied Babbler, Madikwe GR, South Africa","ispublic":1,"isfriend":0,"isfamily":0},{"id":"30423468751","owner":"58195583@N06","secret":"5a24f48309","server":"8573","farm":9,"title":"Southern Pied Babbler, Turdoides bicolor, Hwange National Park, Zimbabwe","ispublic":1,"isfriend":0,"isfamily":0},{"id":"26628374614","owner":"61504576@N06","secret":"1e11bda04b","server":"7338","farm":8,"title":"Southern pied babbler (Turdoides bicolor) searching for food in Rhino dung","ispublic":1,"isfriend":0,"isfamily":0},{"id":"52552889454","owner":"12639178@N07","secret":"372b7c17f5","server":"65535","farm":66,"title":"Elsterschwatzh\u00e4herling [Turdoides bicolor], Southern Pied Babbler","ispublic":1,"isfriend":0,"isfamily":0},{"id":"52552597436","owner":"12639178@N07","secret":"d18d610379","server":"65535","farm":66,"title":"Elsterschwatzh\u00e4herling [Turdoides bicolor], Southern Pied Babbler","ispublic":1,"isfriend":0,"isfamily":0},{"id":"52552889269","owner":"12639178@N07","secret":"c0e5cc836c","server":"65535","farm":66,"title":"Elsterschwatzh\u00e4herling [Turdoides bicolor], Southern Pied Babbler","ispublic":1,"isfriend":0,"isfamily":0},{"id":"52552135587","owner":"12639178@N07","secret":"6cd409ed16","server":"65535","farm":66,"title":"Elsterschwatzh\u00e4herling [Turdoides bicolor], Southern Pied Babbler","ispublic":1,"isfriend":0,"isfamily":0},{"id":"52225771789","owner":"27588142@N06","secret":"61b2b01096","server":"65535","farm":66,"title":"Southern Pied-Babbler","ispublic":1,"isfriend":0,"isfamily":0},{"id":"52225515913","owner":"27588142@N06","secret":"44327a8049","server":"65535","farm":66,"title":"Southern Pied-Babbler","ispublic":1,"isfriend":0,"isfamily":0},{"id":"50906754958","owner":"11555596@N02","secret":"439e0a084c","server":"65535","farm":66,"title":"Birds. Southern Pied Babbler. Marataba. Marakele National Park. South Africa. Dec\/2020","ispublic":1,"isfriend":0,"isfamily":0},{"id":"50906754883","owner":"11555596@N02","secret":"e7126e3568","server":"65535","farm":66,"title":"Birds. Southern Pied Babbler. Marataba. Marakele National Park. South Africa. Dec\/2020","ispublic":1,"isfriend":0,"isfamily":0},{"id":"49899562831","owner":"120533227@N06","secret":"95a9595633","server":"65535","farm":66,"title":"KV4A7585    Sorthvid Larmdrossel - Southern Pied Babbler - Turdoides bicolor, Temba Safari -  Limpopo - South Africa","ispublic":1,"isfriend":0,"isfamily":0},{"id":"49899045578","owner":"120533227@N06","secret":"893fa1f7cc","server":"65535","farm":66,"title":"KV4A7588    Sorthvid Larmdrossel - Southern Pied Babbler - Turdoides bicolor, Temba Safari -  Limpopo - South Africa","ispublic":1,"isfriend":0,"isfamily":0},{"id":"49899045513","owner":"120533227@N06","secret":"fa007ac9c4","server":"65535","farm":66,"title":"KV4A7592    Sorthvid Larmdrossel - Southern Pied Babbler - Turdoides bicolor, Temba Safari -  Limpopo - South Africa","ispublic":1,"isfriend":0,"isfamily":0},{"id":"49899870057","owner":"120533227@N06","secret":"d2f11af2fd","server":"65535","farm":66,"title":"KV4A7593    Sorthvid Larmdrossel - Southern Pied Babbler - Turdoides bicolor, Temba Safari -  Limpopo - South Africa","ispublic":1,"isfriend":0,"isfamily":0},{"id":"49899045408","owner":"120533227@N06","secret":"2b712f2326","server":"65535","farm":66,"title":"KV4A7606    Sorthvid Larmdrossel - Southern Pied Babbler - Turdoides bicolor, Temba Safari -  Limpopo - South Africa","ispublic":1,"isfriend":0,"isfamily":0},{"id":"49899562501","owner":"120533227@N06","secret":"ed350e1e19","server":"65535","farm":66,"title":"KV4A7619    Sorthvid Larmdrossel - Southern Pied Babbler - Turdoides bicolor, Temba Safari -  Limpopo - South Africa","ispublic":1,"isfriend":0,"isfamily":0},{"id":"49840832973","owner":"120533227@N06","secret":"d9fd08cd12","server":"65535","farm":66,"title":"KV4A6439     Sorthvid Larmdrossel - Southern Pied Babbler - Turdoides bicolor, Temba Safari  - Marken - Limpopo - South Africa","ispublic":1,"isfriend":0,"isfamily":0},{"id":"49818606071","owner":"120533227@N06","secret":"df5599c460","server":"65535","farm":66,"title":"KV4A5828   Sorthvid Larmdrossel - Southern Pied Babbler - Turdoides bicolor, Temba Safari - Marken - Limpopo - South Africa","ispublic":1,"isfriend":0,"isfamily":0},{"id":"49815977803","owner":"120533227@N06","secret":"bba4faa8aa","server":"65535","farm":66,"title":"KV4A5609  Sorthvid Larmdrossel - Southern Pied Babbler - Turdoides bicolor,  Temba Safari - Marken - Limpopo - Southafrica _","ispublic":1,"isfriend":0,"isfamily":0},{"id":"49816511801","owner":"120533227@N06","secret":"b101553d98","server":"65535","farm":66,"title":"KV4A5613  Sorthvid Larmdrossel - Southern Pied Babbler - Turdoides bicolor,  Temba Safari - Marken - Limpopo - Southafrica _","ispublic":1,"isfriend":0,"isfamily":0},{"id":"49725092456","owner":"148881376@N06","secret":"ee29234b26","server":"65535","farm":66,"title":"\"What\u2019s under this rock?\" by Sabrina Engesser, University of Zurich","ispublic":1,"isfriend":0,"isfamily":0},{"id":"49724552258","owner":"148881376@N06","secret":"d0858ccf47","server":"65535","farm":66,"title":"\"Babbler fledgling fighting the heat\" by Sabrina Engesser, University of Zurich","ispublic":1,"isfriend":0,"isfamily":0},{"id":"49724551483","owner":"148881376@N06","secret":"7c46f366d0","server":"65535","farm":66,"title":"\"Father-son quality time\" by Sabrina Engesser, University of Zurich","ispublic":1,"isfriend":0,"isfamily":0},{"id":"49725408922","owner":"148881376@N06","secret":"2b57a5f1f1","server":"65535","farm":66,"title":"\"Father-son quality time\" by Sabrina Engesser, University of Zurich","ispublic":1,"isfriend":0,"isfamily":0},{"id":"49177821578","owner":"76973714@N06","secret":"f0f3d6fe97","server":"65535","farm":66,"title":"Southern Pied Babbler","ispublic":1,"isfriend":0,"isfamily":0},{"id":"48317763406","owner":"77017456@N03","secret":"eef9c5bb84","server":"65535","farm":66,"title":"Southern Pied Babblers (turdoides bicolor) on the ground","ispublic":1,"isfriend":0,"isfamily":0},{"id":"32919514847","owner":"140734051@N08","secret":"163978e185","server":"65535","farm":66,"title":"\u041f\u0435\u0433\u0430\u044f \u0434\u0440\u043e\u0437\u0434\u043e\u0432\u043a\u0430, Turdoides bicolor, Southern Pied Babbler","ispublic":1,"isfriend":0,"isfamily":0},{"id":"47811388312","owner":"140734051@N08","secret":"2bb9b208e4","server":"65535","farm":66,"title":"\u041f\u0435\u0433\u0430\u044f \u0434\u0440\u043e\u0437\u0434\u043e\u0432\u043a\u0430, Turdoides bicolor, Southern Pied Babbler","ispublic":1,"isfriend":0,"isfamily":0},{"id":"33986333198","owner":"140734051@N08","secret":"2bc61e9477","server":"65535","farm":66,"title":"\u041f\u0435\u0433\u0430\u044f \u0434\u0440\u043e\u0437\u0434\u043e\u0432\u043a\u0430, Turdoides bicolor, Southern Pied Babbler","ispublic":1,"isfriend":0,"isfamily":0},{"id":"40424087750","owner":"109544413@N05","secret":"b27fc4bf71","server":"973","farm":1,"title":"Pied Babbler","ispublic":1,"isfriend":0,"isfamily":0},{"id":"39760764231","owner":"149870524@N05","secret":"60daae27cf","server":"4612","farm":5,"title":"Southern Pied Babbler (Turdoides bicolor)","ispublic":1,"isfriend":0,"isfamily":0},{"id":"39760741891","owner":"149870524@N05","secret":"13f9b383e6","server":"4656","farm":5,"title":"Southern Pied Babbler (Turdoides bicolor)","ispublic":1,"isfriend":0,"isfamily":0},{"id":"39375061871","owner":"69239666@N06","secret":"b34d9f5c53","server":"4597","farm":5,"title":"Southern Pied Babbler (Turdoides bicolor)","ispublic":1,"isfriend":0,"isfamily":0},{"id":"27298410109","owner":"61140219@N08","secret":"02ae6caa47","server":"4546","farm":5,"title":"Toxic Milkweed Grasshopper, On the way from Windhoek to Etosha in Namibia.","ispublic":1,"isfriend":0,"isfamily":0},{"id":"24187326487","owner":"12639178@N07","secret":"a91e623757","server":"4515","farm":5,"title":"Turdoides bicolor , NGID1566467669","ispublic":1,"isfriend":0,"isfamily":0},{"id":"27271980329","owner":"12639178@N07","secret":"2960c0bdc5","server":"4554","farm":5,"title":"Turdoides bicolor , NGIDn392317109","ispublic":1,"isfriend":0,"isfamily":0},{"id":"25181734158","owner":"12639178@N07","secret":"0faefd48e2","server":"4523","farm":5,"title":"Turdoides bicolor , NGID982713378","ispublic":1,"isfriend":0,"isfamily":0},{"id":"36376669503","owner":"30722034@N02","secret":"1fbcd025f8","server":"4422","farm":5,"title":"Southern Pied Barbler\/Turdoides bicolor","ispublic":1,"isfriend":0,"isfamily":0},{"id":"36333992093","owner":"30722034@N02","secret":"88ab4ac9fc","server":"4367","farm":5,"title":"Southern Pied Barbler\/Turdoides bicolor,","ispublic":1,"isfriend":0,"isfamily":0},{"id":"37147982125","owner":"30722034@N02","secret":"1273e6a239","server":"4403","farm":5,"title":"Southern Pied Barbler\/Turdoides bicolor,","ispublic":1,"isfriend":0,"isfamily":0},{"id":"34922010201","owner":"75529965@N05","secret":"8f457b3fb5","server":"4273","farm":5,"title":"SOUTHERN PIED BABBLER Turdoides bicolor","ispublic":1,"isfriend":0,"isfamily":0},{"id":"33485702790","owner":"131256186@N04","secret":"cfc9e75bec","server":"2848","farm":3,"title":"Southern Pied Babbler  Turdoides Bicolor","ispublic":1,"isfriend":0,"isfamily":0},{"id":"33056942413","owner":"131256186@N04","secret":"e5fe0f36a6","server":"2870","farm":3,"title":"Southern Pied Babbler  Turdoides Bicolor","ispublic":1,"isfriend":0,"isfamily":0},{"id":"33485701590","owner":"131256186@N04","secret":"4ed10cb358","server":"2834","farm":3,"title":"Southern Pied Babbler  Turdoides Bicolor","ispublic":1,"isfriend":0,"isfamily":0},{"id":"29200597615","owner":"40003624@N06","secret":"31b915817b","server":"8510","farm":9,"title":"Southern Pied Babbler","ispublic":1,"isfriend":0,"isfamily":0},{"id":"28494662240","owner":"131590020@N03","secret":"d23cfe6e1a","server":"8783","farm":9,"title":"Southern Pied-babbler","ispublic":1,"isfriend":0,"isfamily":0},{"id":"27351736690","owner":"47388660@N02","secret":"564d6ece66","server":"7647","farm":8,"title":"Southern Pied Babbler","ispublic":1,"isfriend":0,"isfamily":0},{"id":"25397956593","owner":"131590020@N03","secret":"15d5f18a7b","server":"1654","farm":2,"title":"Southern Pied-babbler","ispublic":1,"isfriend":0,"isfamily":0},{"id":"25553779345","owner":"126841123@N07","secret":"d9c6006227","server":"1702","farm":2,"title":"IMG_6441. Southern Pied Babbler","ispublic":1,"isfriend":0,"isfamily":0},{"id":"24923223134","owner":"126841123@N07","secret":"ecd8878b8f","server":"1509","farm":2,"title":"IMG_6442 Southern Pied Babbler","ispublic":1,"isfriend":0,"isfamily":0},{"id":"25186170449","owner":"126841123@N07","secret":"52d542d802","server":"1445","farm":2,"title":"IMG_6444 Southern Pied Babbler","ispublic":1,"isfriend":0,"isfamily":0},{"id":"24926745973","owner":"126841123@N07","secret":"e2feda4129","server":"1533","farm":2,"title":"IMG_6420. Southern Pied Babbler","ispublic":1,"isfriend":0,"isfamily":0},{"id":"24881050883","owner":"99469949@N04","secret":"5ca6963e42","server":"1471","farm":2,"title":"Southern Pied Babbler - Turdoides bicolor","ispublic":1,"isfriend":0,"isfamily":0},{"id":"24486088350","owner":"119468907@N03","secret":"b3e93c4c2e","server":"1651","farm":2,"title":"Crate\u0301rope bicolore_Imm_IMG_2184","ispublic":1,"isfriend":0,"isfamily":0}]},"stat":"ok"}