{"photos":{"page":1,"pages":7,"perpage":100,"total":687,"photo":[{"id":"52767530197","owner":"187510707@N05","secret":"b195a5a545","server":"65535","farm":66,"title":"carpintero moteado (Colaptes punctigula)-2","ispublic":1,"isfriend":0,"isfamily":0},{"id":"52763256159","owner":"145988764@N06","secret":"55f721a4b1","server":"65535","farm":66,"title":"Carpintero Moteado Colaptes punctigula","ispublic":1,"isfriend":0,"isfamily":0},{"id":"52705372126","owner":"31704662@N08","secret":"aaba813be9","server":"65535","farm":66,"title":"Spot-breasted Woodpecker (Colaptes punctigula)","ispublic":1,"isfriend":0,"isfamily":0},{"id":"52704060135","owner":"9240063@N02","secret":"d039652b12","server":"65535","farm":66,"title":"Colaptes punctigula","ispublic":1,"isfriend":0,"isfamily":0},{"id":"52704059785","owner":"9240063@N02","secret":"2f6da6c8e0","server":"65535","farm":66,"title":"Colaptes punctigula","ispublic":1,"isfriend":0,"isfamily":0},{"id":"52699138296","owner":"153849901@N07","secret":"55f1efe5a0","server":"65535","farm":66,"title":"Carpintero moteado (Colaptes punctigula) Cali.  Valle del Cauca. Colombia  Instagram: @pajariando_ando","ispublic":1,"isfriend":0,"isfamily":0},{"id":"52684786475","owner":"52363379@N07","secret":"a536263e7b","server":"65535","farm":66,"title":"Colaptes punctigula","ispublic":1,"isfriend":0,"isfamily":0},{"id":"52664696117","owner":"123174353@N02","secret":"8ffc6d853d","server":"65535","farm":66,"title":"Colaptes punctigula \/ Spot-breasted Woodpecker \/ vlekborstgrondspecht","ispublic":1,"isfriend":0,"isfamily":0},{"id":"52658860583","owner":"69347399@N08","secret":"e4c41a1014","server":"65535","farm":66,"title":"Colaptes punctigula - Spot-breasted woodpecker -Carpintero buchipecoso","ispublic":1,"isfriend":0,"isfamily":0},{"id":"52656362459","owner":"29170368@N03","secret":"01f97cbff5","server":"65535","farm":66,"title":"Spot-breasted Woodpecker","ispublic":1,"isfriend":0,"isfamily":0},{"id":"52651408752","owner":"147283349@N08","secret":"c1d744a7c0","server":"65535","farm":66,"title":"Colaptes punctigula  \u2642","ispublic":1,"isfriend":0,"isfamily":0},{"id":"52644833455","owner":"69347399@N08","secret":"fa22ba83ba","server":"65535","farm":66,"title":"Colaptes punctigula - Spot-breasted woodpecker -Carpintero buchipecoso","ispublic":1,"isfriend":0,"isfamily":0},{"id":"52627166719","owner":"190923251@N05","secret":"ebdf401890","server":"65535","farm":66,"title":"Spot-breasted Woodpecker","ispublic":1,"isfriend":0,"isfamily":0},{"id":"52621961181","owner":"12278268@N08","secret":"ac69af74d8","server":"65535","farm":66,"title":"Spot-breasted Woodpecker (Colaptes punctigula) (\u2640)","ispublic":1,"isfriend":0,"isfamily":0},{"id":"52595544781","owner":"147283349@N08","secret":"e29fa148eb","server":"65535","farm":66,"title":"Colaptes punctigula  \u2642","ispublic":1,"isfriend":0,"isfamily":0},{"id":"52532526586","owner":"148001454@N05","secret":"af94fbc5bc","server":"65535","farm":66,"title":"Colaptes punctigula","ispublic":1,"isfriend":0,"isfamily":0},{"id":"52460306669","owner":"147283349@N08","secret":"9becb32e86","server":"65535","farm":66,"title":"Colaptes punctigula  \u2640.","ispublic":1,"isfriend":0,"isfamily":0},{"id":"52455999020","owner":"147283349@N08","secret":"a122d82a24","server":"65535","farm":66,"title":"Colaptes punctigula   \u2640","ispublic":1,"isfriend":0,"isfamily":0},{"id":"52435319487","owner":"58604544@N06","secret":"cceaaefbf6","server":"65535","farm":66,"title":"Spot-breasted Woodpecker","ispublic":1,"isfriend":0,"isfamily":0},{"id":"52429137799","owner":"77128742@N06","secret":"7c7c252b04","server":"65535","farm":66,"title":"Amazonas-Tu\u0308pfelbrustspecht_Colaptes punctigula guttatus-8","ispublic":1,"isfriend":0,"isfamily":0},{"id":"52429374888","owner":"77128742@N06","secret":"b5b731d97a","server":"65535","farm":66,"title":"Amazonas-Tu\u0308pfelbrustspecht_Colaptes punctigula guttatus-12","ispublic":1,"isfriend":0,"isfamily":0},{"id":"52392273865","owner":"196567058@N02","secret":"05bef67390","server":"65535","farm":66,"title":"Colaptes punctigula - Carpintero buchipecoso","ispublic":1,"isfriend":0,"isfamily":0},{"id":"52355131790","owner":"147283349@N08","secret":"4eb34658ba","server":"65535","farm":66,"title":"colaptes punctigula \u2642","ispublic":1,"isfriend":0,"isfamily":0},{"id":"52304229658","owner":"186193378@N07","secret":"5f844c9b98","server":"65535","farm":66,"title":"Pica-pau-de-peito-pontilhado macho (Colaptes punctigula) Spot-breasted Woodpecker male","ispublic":1,"isfriend":0,"isfamily":0},{"id":"52304499419","owner":"186193378@N07","secret":"1e904f8f48","server":"65535","farm":66,"title":"Pica-pau-de-peito-pontilhado f\u00eamea (Colaptes punctigula) Spot-breasted Woodpecker female","ispublic":1,"isfriend":0,"isfamily":0},{"id":"52272868228","owner":"157552231@N07","secret":"a92442f6f8","server":"65535","farm":66,"title":"colaptes punctigula","ispublic":1,"isfriend":0,"isfamily":0},{"id":"52247442118","owner":"37493716@N02","secret":"06a649f318","server":"65535","farm":66,"title":"Aves Reserva Tit\u00ed Cabeciblanco","ispublic":1,"isfriend":0,"isfamily":0},{"id":"52211768170","owner":"69347399@N08","secret":"fd9039a5da","server":"65535","farm":66,"title":"Colaptes punctigula - Spot-breasted woodpecker - carpintero moteado","ispublic":1,"isfriend":0,"isfamily":0},{"id":"52208808651","owner":"69347399@N08","secret":"f4cd5e8dd9","server":"65535","farm":66,"title":"Colaptes punctigula - Spot-breasted woodpecker - carpintero moteado.","ispublic":1,"isfriend":0,"isfamily":0},{"id":"52199005276","owner":"32674493@N04","secret":"26d0b9b418","server":"65535","farm":66,"title":"Pica-pau-de-peito-pontilhado (Colaptes punctigula guttatus) f\u00eamea","ispublic":1,"isfriend":0,"isfamily":0},{"id":"52192897952","owner":"48938938@N04","secret":"9a0fab5cb8","server":"65535","farm":66,"title":"Spot-breasted Woodpecker_Colaptes punctigula_Ascanio_Parque del Este_DZ3A2073","ispublic":1,"isfriend":0,"isfamily":0},{"id":"52192887702","owner":"48938938@N04","secret":"9841147ebc","server":"65535","farm":66,"title":"Spot-breasted Woodpecker_Colaptes punctigula_Ascanio_Parque Bolivar_DZ3A2119","ispublic":1,"isfriend":0,"isfamily":0},{"id":"52171545593","owner":"161366754@N07","secret":"d47be987d8","server":"65535","farm":66,"title":"Spot-breasted Woodpecker (Colaptes punctigula)","ispublic":1,"isfriend":0,"isfamily":0},{"id":"52143645576","owner":"190773540@N03","secret":"fb0d22367f","server":"65535","farm":66,"title":"Spot-breasted Woodpecker","ispublic":1,"isfriend":0,"isfamily":0},{"id":"52141307571","owner":"43935391694@N01","secret":"b6d4acf8e3","server":"65535","farm":66,"title":"Spot Breasted Woodpecker Santander de Quilichao Cauca Colombia","ispublic":1,"isfriend":0,"isfamily":0},{"id":"52126641735","owner":"147283349@N08","secret":"02c43f4e73","server":"65535","farm":66,"title":"Colaptes punctigula. \u2642","ispublic":1,"isfriend":0,"isfamily":0},{"id":"52117933939","owner":"148001454@N05","secret":"bf7621ef8c","server":"65535","farm":66,"title":"Colaptes punctigula","ispublic":1,"isfriend":0,"isfamily":0},{"id":"52101022188","owner":"190773540@N03","secret":"923920e6ba","server":"65535","farm":66,"title":"Spot-breasted Woodpecker","ispublic":1,"isfriend":0,"isfamily":0},{"id":"52096428888","owner":"96568982@N06","secret":"587d508377","server":"65535","farm":66,"title":"WOODPECKER, Spot-breasted","ispublic":1,"isfriend":0,"isfamily":0},{"id":"52080758813","owner":"76695351@N06","secret":"7a44e87336","server":"65535","farm":66,"title":"Vlekborstgrondspecht - Spot-breasted Woodpecker","ispublic":1,"isfriend":0,"isfamily":0},{"id":"52077311993","owner":"69347399@N08","secret":"7274ac8e40","server":"65535","farm":66,"title":"Colaptes punctigula - Spot-breasted woodpecker - carpintero moteado","ispublic":1,"isfriend":0,"isfamily":0},{"id":"52072317502","owner":"56686021@N04","secret":"dc4b7cef09","server":"65535","farm":66,"title":"Spot-breasted Woodpecker","ispublic":1,"isfriend":0,"isfamily":0},{"id":"52073364813","owner":"56686021@N04","secret":"e183c69cbf","server":"65535","farm":66,"title":"Spot-breasted Woodpecker","ispublic":1,"isfriend":0,"isfamily":0},{"id":"52050208675","owner":"48084395@N03","secret":"43c070cd85","server":"65535","farm":66,"title":"Spot-breasted Woodpecker (Colaptes punctigula) _5AC9064","ispublic":1,"isfriend":0,"isfamily":0},{"id":"52030274618","owner":"48938938@N04","secret":"bbb9b6ec2f","server":"65535","farm":66,"title":"Spot-breasted Woodpecker_Colaptes punctigula_Ascanio_Parque del Este_DZ3A9726","ispublic":1,"isfriend":0,"isfamily":0},{"id":"52029141497","owner":"48938938@N04","secret":"1b805702ce","server":"65535","farm":66,"title":"Spot-breasted Woodpecker_Colaptes punctigula_Ascanio_Parque del Este_DZ3A5095","ispublic":1,"isfriend":0,"isfamily":0},{"id":"52030222928","owner":"48938938@N04","secret":"265fec22bf","server":"65535","farm":66,"title":"Spot-breasted Woodpecker_Colaptes punctigula_Ascanio_Parque del Este_DZ3A5098","ispublic":1,"isfriend":0,"isfamily":0},{"id":"52018828146","owner":"50264295@N06","secret":"3af85c569e","server":"65535","farm":66,"title":"Spot-breasted Woodpecker (Colaptes punctigula)","ispublic":1,"isfriend":0,"isfamily":0},{"id":"52017205132","owner":"56686021@N04","secret":"4d46349ce9","server":"65535","farm":66,"title":"Spot-breasted Woodpecker","ispublic":1,"isfriend":0,"isfamily":0},{"id":"51971158557","owner":"146922391@N04","secret":"5da6bab618","server":"65535","farm":66,"title":"Carpintero Buchipecoso \/ Colaptes punctigula \/ Spot-breasted Woodpecker","ispublic":1,"isfriend":0,"isfamily":0},{"id":"51961129509","owner":"32674493@N04","secret":"73ac99ca05","server":"65535","farm":66,"title":"Pica-pau-de-peito-pontilhado (Colaptes punctigula guttatus) f\u00eamea","ispublic":1,"isfriend":0,"isfamily":0},{"id":"51953745334","owner":"39652177@N04","secret":"9f1ce7d953","server":"65535","farm":66,"title":"Spot-breasted Woodpecker-01199-Edit","ispublic":1,"isfriend":0,"isfamily":0},{"id":"51875517787","owner":"190773540@N03","secret":"4510702b4c","server":"65535","farm":66,"title":"Spot-breasted Woodpecker","ispublic":1,"isfriend":0,"isfamily":0},{"id":"51876348635","owner":"12185056@N02","secret":"b0483b4c54","server":"65535","farm":66,"title":"Spot-breasted Woodpecker (Colaptes punctigula)","ispublic":1,"isfriend":0,"isfamily":0},{"id":"51871373025","owner":"187424217@N03","secret":"46fbaa5e27","server":"65535","farm":66,"title":"Carpintero Buchipecoso  (Colaptes punctigula)","ispublic":1,"isfriend":0,"isfamily":0},{"id":"51866581154","owner":"141506644@N06","secret":"189ac0c327","server":"65535","farm":66,"title":"Carpintero buchipecoso, Spot-breasted Woodpecker, Colaptes punctigula (Hembra)","ispublic":1,"isfriend":0,"isfamily":0},{"id":"51850936286","owner":"141506644@N06","secret":"66359eb607","server":"65535","farm":66,"title":"Carpintero buchipecoso, Spot-breasted Woodpecker, Colaptes punctigula (Macho)","ispublic":1,"isfriend":0,"isfamily":0},{"id":"51850936116","owner":"141506644@N06","secret":"aa19a1e98f","server":"65535","farm":66,"title":"Carpintero buchipecoso, Spot-breasted Woodpecker, Colaptes punctigula (Macho)","ispublic":1,"isfriend":0,"isfamily":0},{"id":"51844209968","owner":"156941179@N04","secret":"3399ae4886","server":"65535","farm":66,"title":"Carpintero Moteado \/ Colaptes Punctigula \/ spot-breasted woodpecker","ispublic":1,"isfriend":0,"isfamily":0},{"id":"51790697582","owner":"52363379@N07","secret":"8e09f84ebf","server":"65535","farm":66,"title":"Colaptes punctigula","ispublic":1,"isfriend":0,"isfamily":0},{"id":"51769465160","owner":"147283349@N08","secret":"e87ff0649f","server":"65535","farm":66,"title":"Colaptes punctigula  \u2640. - MERRY CHRISTMAS - FELIZ NAVIDAD","ispublic":1,"isfriend":0,"isfamily":0},{"id":"51670439584","owner":"147283349@N08","secret":"6b734fdc97","server":"65535","farm":66,"title":"Colaptes punctigula. \u2642","ispublic":1,"isfriend":0,"isfamily":0},{"id":"51647127252","owner":"37493716@N02","secret":"81eea17862","server":"65535","farm":66,"title":"Spot-breasted Woodpecker Colaptes punctigula - Reserva ProAves El Jaguar - Foto: Daniel Villar","ispublic":1,"isfriend":0,"isfamily":0},{"id":"51585247769","owner":"37493716@N02","secret":"d1c188a949","server":"65535","farm":66,"title":"Spot-breasted Woodpecker Colaptes punctigula - Reserva ProAves El Jaguar - Foto: Leonel Silva","ispublic":1,"isfriend":0,"isfamily":0},{"id":"51465044318","owner":"69347399@N08","secret":"cdf6b0ffd8","server":"65535","farm":66,"title":"Colaptes punctigula - Spot-breasted woodpecker - carpintero moteado","ispublic":1,"isfriend":0,"isfamily":0},{"id":"51421449142","owner":"141178418@N05","secret":"c72f75aa3b","server":"65535","farm":66,"title":"Carpintero Pechipunteado - Colaptes punctigula","ispublic":1,"isfriend":0,"isfamily":0},{"id":"51422192351","owner":"141178418@N05","secret":"06de3f41ca","server":"65535","farm":66,"title":"Carpintero Pechipunteado - Colaptes punctigula","ispublic":1,"isfriend":0,"isfamily":0},{"id":"51377005777","owner":"41643989@N04","secret":"186c242cff","server":"65535","farm":66,"title":"Spot-breasted Woodpecker - Colaptes punctigula - Meteti, Darien,, Panama - June 16, 2021","ispublic":1,"isfriend":0,"isfamily":0},{"id":"51340512285","owner":"37493716@N02","secret":"77397fd253","server":"65535","farm":66,"title":"Spot-breasted Woodpecker Colaptes punctigula - Reserva ProAves El Jaguar - Foto: Leonel Silva","ispublic":1,"isfriend":0,"isfamily":0},{"id":"51312466149","owner":"25486180@N07","secret":"4786e3139e","server":"65535","farm":66,"title":"Spot-breasted Woodpecker, Colaptes punctigula","ispublic":1,"isfriend":0,"isfamily":0},{"id":"51282546795","owner":"187510707@N05","secret":"fd042bcb92","server":"65535","farm":66,"title":"carpintero moteado (Colaptes punctigula)_","ispublic":1,"isfriend":0,"isfamily":0},{"id":"51275405597","owner":"147283349@N08","secret":"d23735b073","server":"65535","farm":66,"title":"Colaptes punctigula  \u2642","ispublic":1,"isfriend":0,"isfamily":0},{"id":"51225263701","owner":"190773540@N03","secret":"43b14c1a3c","server":"65535","farm":66,"title":"Spot-breasted Woodpecker","ispublic":1,"isfriend":0,"isfamily":0},{"id":"51208383120","owner":"141178418@N05","secret":"553debb39a","server":"0","farm":0,"title":"Carpintero Pechipunteado - Spot-breasted Woodpecker - Colaptes punctigula","ispublic":1,"isfriend":0,"isfamily":0},{"id":"51207312991","owner":"141178418@N05","secret":"3a680506a6","server":"0","farm":0,"title":"Carpintero Pechipunteado - Spot-breasted Woodpecker - Colaptes punctigula","ispublic":1,"isfriend":0,"isfamily":0},{"id":"51208098564","owner":"141178418@N05","secret":"7a2fc0f80d","server":"0","farm":0,"title":"Carpintero Pechipunteado - Spot-breasted Woodpecker - Colaptes punctigula","ispublic":1,"isfriend":0,"isfamily":0},{"id":"51208400815","owner":"141178418@N05","secret":"f6d24be0c3","server":"0","farm":0,"title":"Carpintero Pechipunteado - Spot-breasted Woodpecker - Colaptes punctigula","ispublic":1,"isfriend":0,"isfamily":0},{"id":"51206616932","owner":"141178418@N05","secret":"265ce2f621","server":"0","farm":0,"title":"Carpintero Pechipunteado - Spot-breasted Woodpecker - Colaptes punctigula","ispublic":1,"isfriend":0,"isfamily":0},{"id":"51179618452","owner":"12185056@N02","secret":"dffffa0ded","server":"65535","farm":66,"title":"Spot-breasted Woodpecker (Colaptes punctigula)","ispublic":1,"isfriend":0,"isfamily":0},{"id":"51147356175","owner":"147283349@N08","secret":"1b4ae616cc","server":"65535","farm":66,"title":"Colaptes punctigula. \u2642","ispublic":1,"isfriend":0,"isfamily":0},{"id":"51127904128","owner":"148001454@N05","secret":"e8487f7425","server":"65535","farm":66,"title":"Colaptes punctigula","ispublic":1,"isfriend":0,"isfamily":0},{"id":"51113751867","owner":"60482730@N07","secret":"fcacd5b77f","server":"65535","farm":66,"title":"Carpintero pechipunteado - Spot-breasted Woodpecker - Colaptes punctigula","ispublic":1,"isfriend":0,"isfamily":0},{"id":"51088764753","owner":"119787485@N07","secret":"ddc44873a6","server":"65535","farm":66,"title":"Spot-breasted Woodpecker (Colaptes punctigula ujhelyii) - 20140201-01","ispublic":1,"isfriend":0,"isfamily":0},{"id":"51000764526","owner":"187917085@N02","secret":"3b4b5bb0d4","server":"65535","farm":66,"title":"Colaptes punctigula","ispublic":1,"isfriend":0,"isfamily":0},{"id":"50964300747","owner":"105765827@N03","secret":"e926a25e36","server":"65535","farm":66,"title":"Tanto va el ave al tronco hasta que por fin entienden!!!","ispublic":1,"isfriend":0,"isfamily":0},{"id":"50963486763","owner":"105765827@N03","secret":"033fa027dc","server":"65535","farm":66,"title":"Tanto va el ave al tronco hasta que por fin entienden!!!","ispublic":1,"isfriend":0,"isfamily":0},{"id":"50964292587","owner":"105765827@N03","secret":"090293a11c","server":"65535","farm":66,"title":"Tanto va el ave al tronco hasta que por fin entienden!!!","ispublic":1,"isfriend":0,"isfamily":0},{"id":"50955114033","owner":"141178418@N05","secret":"8840094599","server":"0","farm":0,"title":"Carpintero Pechipunteado - Colaptes punctigula","ispublic":1,"isfriend":0,"isfamily":0},{"id":"50932988307","owner":"52363379@N07","secret":"61a882ee68","server":"65535","farm":66,"title":"Colaptes punctigula","ispublic":1,"isfriend":0,"isfamily":0},{"id":"50932988232","owner":"52363379@N07","secret":"1269a9dffb","server":"65535","farm":66,"title":"Colaptes punctigula","ispublic":1,"isfriend":0,"isfamily":0},{"id":"50905079073","owner":"37493716@N02","secret":"0aa5c8c12e","server":"65535","farm":66,"title":"Colaptes punctigula","ispublic":1,"isfriend":0,"isfamily":0},{"id":"50898428956","owner":"52363379@N07","secret":"6655923eb7","server":"65535","farm":66,"title":"Colaptes punctigula","ispublic":1,"isfriend":0,"isfamily":0},{"id":"50892236261","owner":"54249623@N08","secret":"b6c04fe6c1","server":"65535","farm":66,"title":"Carpintero Buchipecoso, Spot-breasted Woodpecker (Chrysoptilus punctigula) (Colaptes punctigula)","ispublic":1,"isfriend":0,"isfamily":0},{"id":"50862947217","owner":"187917085@N02","secret":"9f154fea47","server":"65535","farm":66,"title":"Colaptes punctigula","ispublic":1,"isfriend":0,"isfamily":0},{"id":"52057845665","owner":"145988764@N06","secret":"5f700cafb8","server":"65535","farm":66,"title":"Carpintero Buchipecoso Colaptes punctigula","ispublic":1,"isfriend":0,"isfamily":0},{"id":"51924805458","owner":"37493716@N02","secret":"ef4f8c4b4f","server":"65535","farm":66,"title":"Spot-breasted Woodpecker - Colaptes punctigula - Reserva ProAves El Jaguar - Foto: Eloy Silva","ispublic":1,"isfriend":0,"isfamily":0},{"id":"51835925376","owner":"52363379@N07","secret":"3f811873c6","server":"65535","farm":66,"title":"Colaptes punctigula","ispublic":1,"isfriend":0,"isfamily":0},{"id":"51832043220","owner":"95747238@N07","secret":"3319a92a5f","server":"65535","farm":66,"title":"Colaptes punctigula","ispublic":1,"isfriend":0,"isfamily":0},{"id":"51339509121","owner":"37493716@N02","secret":"a813f8654d","server":"65535","farm":66,"title":"Spot-breasted Woodpecker Colaptes punctigula - Reserva ProAves El Jaguar - Foto: Leonel Silva","ispublic":1,"isfriend":0,"isfamily":0},{"id":"50964295842","owner":"105765827@N03","secret":"b88de418cc","server":"65535","farm":66,"title":"Tanto va el ave al tronco hasta que por fin entienden!!!","ispublic":1,"isfriend":0,"isfamily":0}]},"stat":"ok"}