{"photos":{"page":1,"pages":52,"perpage":100,"total":5153,"photo":[{"id":"52723048219","owner":"62043870@N05","secret":"66c9484333","server":"65535","farm":66,"title":"Spotted Sandpiper, Actitis macularius","ispublic":1,"isfriend":0,"isfamily":0},{"id":"52723047939","owner":"62043870@N05","secret":"9530b71cfc","server":"65535","farm":66,"title":"Spotted Sandpiper, Actitis macularius","ispublic":1,"isfriend":0,"isfamily":0},{"id":"52717251948","owner":"124450184@N05","secret":"9bb53f2746","server":"65535","farm":66,"title":"Spotted Sandpiper","ispublic":1,"isfriend":0,"isfamily":0},{"id":"52715149456","owner":"12639178@N07","secret":"fc3976ba8a","server":"65535","farm":66,"title":"Einsamer Strandl\u00e4ufer vorn, Drosseluferl\u00e4ufer hinten","ispublic":1,"isfriend":0,"isfamily":0},{"id":"52715626373","owner":"12639178@N07","secret":"aa8a2c7e79","server":"65535","farm":66,"title":"Drosseluferl\u00e4ufer h\u00e4lt Abstand","ispublic":1,"isfriend":0,"isfamily":0},{"id":"52714437812","owner":"47533293@N04","secret":"ccfaba6728","server":"65535","farm":66,"title":"Spotted sandpiper, Actitis macularius","ispublic":1,"isfriend":0,"isfamily":0},{"id":"52708644616","owner":"143326780@N02","secret":"e12b412250","server":"65535","farm":66,"title":"DSCN5495","ispublic":1,"isfriend":0,"isfamily":0},{"id":"52706902165","owner":"195537536@N03","secret":"71e781acde","server":"65535","farm":66,"title":"Spotted Sandpiper (Actitis macularius)","ispublic":1,"isfriend":0,"isfamily":0},{"id":"52703048242","owner":"62043870@N05","secret":"aa30dccabb","server":"65535","farm":66,"title":"Spotted Sandpiper, Actitis macularius","ispublic":1,"isfriend":0,"isfamily":0},{"id":"52699223851","owner":"132165466@N08","secret":"361a9ba92e","server":"65535","farm":66,"title":"Spotted Sandpiper","ispublic":1,"isfriend":0,"isfamily":0},{"id":"52695035168","owner":"12639178@N07","secret":"73d660534a","server":"65535","farm":66,"title":"Beleg Drosseluferl\u00e4ufer","ispublic":1,"isfriend":0,"isfamily":0},{"id":"52686346673","owner":"62043870@N05","secret":"3896d3e3e4","server":"65535","farm":66,"title":"Spotted Sandpiper, Actitis macularius","ispublic":1,"isfriend":0,"isfamily":0},{"id":"52684650433","owner":"65788177@N02","secret":"2bfe68c2ca","server":"65535","farm":66,"title":"Spotted Sandpiper","ispublic":1,"isfriend":0,"isfamily":0},{"id":"52661452623","owner":"12639178@N07","secret":"4bc0ea1e67","server":"65535","farm":66,"title":"Drosseluferl\u00e4ufer ziemlich gelassen","ispublic":1,"isfriend":0,"isfamily":0},{"id":"52660960236","owner":"12639178@N07","secret":"007ac9db0b","server":"65535","farm":66,"title":"Drosseluferl\u00e4ufer sucht am Strand nach Nahrung","ispublic":1,"isfriend":0,"isfamily":0},{"id":"52655120287","owner":"8264176@N02","secret":"f83dd7f9f9","server":"65535","farm":66,"title":"BirdsofColombia - Spotted Sandpiper (immature,nonbreeding) \u00b7  Actitis macularius - 212990-","ispublic":1,"isfriend":0,"isfamily":0},{"id":"52648746517","owner":"54549270@N03","secret":"e997c29b1b","server":"65535","farm":66,"title":"Spotted Sandpiper ~ 'Actitis macularius'","ispublic":1,"isfriend":0,"isfamily":0},{"id":"52630781182","owner":"47533293@N04","secret":"1d5ab6c603","server":"65535","farm":66,"title":"Spotted sandpiper, Actitis macularius","ispublic":1,"isfriend":0,"isfamily":0},{"id":"52629866210","owner":"88886389@N02","secret":"2abe33f89a","server":"65535","farm":66,"title":"0577 On a Log","ispublic":1,"isfriend":0,"isfamily":0},{"id":"52623502308","owner":"9638954@N07","secret":"fa7d4743df","server":"65535","farm":66,"title":"Spotted Sandpiper","ispublic":1,"isfriend":0,"isfamily":0},{"id":"52619745071","owner":"135715507@N06","secret":"421366feee","server":"65535","farm":66,"title":"Spotted sandpiper","ispublic":1,"isfriend":0,"isfamily":0},{"id":"52612021645","owner":"23939795@N04","secret":"8708612aab","server":"65535","farm":66,"title":"Spotted Sandpiper 7631","ispublic":1,"isfriend":0,"isfamily":0},{"id":"52604964703","owner":"34368269@N04","secret":"53b4140d2e","server":"65535","farm":66,"title":"Spotted Sandpiper","ispublic":1,"isfriend":0,"isfamily":0},{"id":"52599251164","owner":"62043870@N05","secret":"0d6b95534a","server":"65535","farm":66,"title":"Spotted Sandpiper, Actitis macularius","ispublic":1,"isfriend":0,"isfamily":0},{"id":"52596698850","owner":"51312465@N07","secret":"030d7445cc","server":"65535","farm":66,"title":"Spotted Sandpiper","ispublic":1,"isfriend":0,"isfamily":0},{"id":"52580343906","owner":"153973412@N04","secret":"67678350c9","server":"65535","farm":66,"title":"Spotted Sandpiper-Actitis macularius, Iowa City, IA","ispublic":1,"isfriend":0,"isfamily":0},{"id":"52580541243","owner":"107784905@N04","secret":"00f715b750","server":"65535","farm":66,"title":"Chevalier grivel\u00e9 - Manuel Antonio\/Lim\u00f3n\/Costa Rica_20211115_001-1","ispublic":1,"isfriend":0,"isfamily":0},{"id":"52579365972","owner":"123174353@N02","secret":"ebc6515a6a","server":"65535","farm":66,"title":"Actitis macularius \/ Spotted Sandpiper \/ Amerikaanse oeverloper","ispublic":1,"isfriend":0,"isfamily":0},{"id":"52572643330","owner":"33610210@N05","secret":"6c45bf0275","server":"65535","farm":66,"title":"Spotted Sandpiper, Actitis macularius","ispublic":1,"isfriend":0,"isfamily":0},{"id":"52572725418","owner":"33610210@N05","secret":"a44af9b11a","server":"65535","farm":66,"title":"Spotted Sandpiper, Actitis macularius","ispublic":1,"isfriend":0,"isfamily":0},{"id":"52571871770","owner":"123174353@N02","secret":"fdb3816d74","server":"65535","farm":66,"title":"Actitis macularius \/ Spotted Sandpiper \/ Amerikaanse oeverloper","ispublic":1,"isfriend":0,"isfamily":0},{"id":"52565921589","owner":"140318147@N08","secret":"6d14c23f20","server":"65535","farm":66,"title":"spotted sandpiper (Actitis macularius) L4A7988","ispublic":1,"isfriend":0,"isfamily":0},{"id":"52559378009","owner":"88932760@N08","secret":"8a33debed8","server":"65535","farm":66,"title":"The Search","ispublic":1,"isfriend":0,"isfamily":0},{"id":"52552532108","owner":"39652177@N04","secret":"ec6440ccb7","server":"65535","farm":66,"title":"Spotted sandpiper-07116-Edit","ispublic":1,"isfriend":0,"isfamily":0},{"id":"52540492027","owner":"33610210@N05","secret":"6d7cb0c1eb","server":"65535","farm":66,"title":"Spotted Sandpiper, Actitis macularius","ispublic":1,"isfriend":0,"isfamily":0},{"id":"52532099927","owner":"119095828@N03","secret":"718f61b1a2","server":"65535","farm":66,"title":"Spotted Sandpiper (Actitis macularius)","ispublic":1,"isfriend":0,"isfamily":0},{"id":"52524946792","owner":"12240837@N08","secret":"72c6eb3215","server":"65535","farm":66,"title":"Spotted Sandpiper (actitis macularius)","ispublic":1,"isfriend":0,"isfamily":0},{"id":"52520805765","owner":"73431753@N00","secret":"0fa0b4b508","server":"65535","farm":66,"title":"Spotted Sandpiper along the Ballona Creek estuary","ispublic":1,"isfriend":0,"isfamily":0},{"id":"52510692637","owner":"62043870@N05","secret":"727d5f65ae","server":"65535","farm":66,"title":"Spotted Sandpiper, Actitis macularius","ispublic":1,"isfriend":0,"isfamily":0},{"id":"52486399659","owner":"54059915@N07","secret":"4a0a3254d5","server":"65535","farm":66,"title":"Smoky September","ispublic":1,"isfriend":0,"isfamily":0},{"id":"52477143777","owner":"84169650@N07","secret":"be8a449e85","server":"65535","farm":66,"title":"Spotted Sandpiper","ispublic":1,"isfriend":0,"isfamily":0},{"id":"52473999266","owner":"131708321@N02","secret":"d2fdcb19df","server":"65535","farm":66,"title":"Spotted Sandpiper (Actitis macularius), Bocas del Toro, Panama","ispublic":1,"isfriend":0,"isfamily":0},{"id":"52473226352","owner":"103722035@N06","secret":"3424a024fc","server":"0","farm":0,"title":"Spotted Sandpiper (Actitis macularius), Estero Bluffs State Park, Cayucos, CA","ispublic":1,"isfriend":0,"isfamily":0},{"id":"52466707747","owner":"76617062@N08","secret":"e23afe1e1b","server":"65535","farm":66,"title":"1.03654 Chevalier grivel\u00e9 \/ Actitis macularius \/ Spotted Sandpiper","ispublic":1,"isfriend":0,"isfamily":0},{"id":"52439289920","owner":"23020855@N03","secret":"60440a8d67","server":"65535","farm":66,"title":"Spotted Sandpiper - Oliver's Slough, BC","ispublic":1,"isfriend":0,"isfamily":0},{"id":"52419099816","owner":"111701633@N07","secret":"ec7fac0d3a","server":"65535","farm":66,"title":"Spotted_Sandpiper","ispublic":1,"isfriend":0,"isfamily":0},{"id":"52405481265","owner":"101563641@N03","secret":"c6de1cedce","server":"65535","farm":66,"title":"Actitis macularius - CEG_9674","ispublic":1,"isfriend":0,"isfamily":0},{"id":"52402113523","owner":"96713629@N03","secret":"101ac9d9e0","server":"65535","farm":66,"title":"Amerikaanse oeverloper - Spotted Sandpiper (Actitis macularius)-250_3052","ispublic":1,"isfriend":0,"isfamily":0},{"id":"52462657374","owner":"134270033@N06","secret":"0e1ec202ab","server":"65535","farm":66,"title":"\"Spottie\"","ispublic":1,"isfriend":0,"isfamily":0},{"id":"52394428723","owner":"62043870@N05","secret":"38eea167b6","server":"65535","farm":66,"title":"Spotted Sandpiper, Actitis macularius","ispublic":1,"isfriend":0,"isfamily":0},{"id":"52392090968","owner":"65148649@N04","secret":"ed1c3c2323","server":"65535","farm":66,"title":"Spotted Sandpiper","ispublic":1,"isfriend":0,"isfamily":0},{"id":"52388453395","owner":"34238008@N02","secret":"f5cfcf2146","server":"65535","farm":66,"title":"Spotted Sandpiper, basic (Actitis macularius)","ispublic":1,"isfriend":0,"isfamily":0},{"id":"52384876289","owner":"28631427@N00","secret":"e2c62fd80c","server":"65535","farm":66,"title":"Mallard and Spotted Sandpiper","ispublic":1,"isfriend":0,"isfamily":0},{"id":"52383933156","owner":"131708321@N02","secret":"12c47cc1b4","server":"65535","farm":66,"title":"Spotted Sandpiper (Actitis macularius), Bocas del Toro, Panama","ispublic":1,"isfriend":0,"isfamily":0},{"id":"52369753794","owner":"169335348@N08","secret":"ce20092d7b","server":"65535","farm":66,"title":"Spotted Sandpiper-2","ispublic":1,"isfriend":0,"isfamily":0},{"id":"52368501722","owner":"169335348@N08","secret":"82264dc75a","server":"65535","farm":66,"title":"Spotted Sandpiper-3","ispublic":1,"isfriend":0,"isfamily":0},{"id":"52368039494","owner":"39445433@N02","secret":"f40a9b892b","server":"65535","farm":66,"title":"Spotted Sandpiper","ispublic":1,"isfriend":0,"isfamily":0},{"id":"52367961463","owner":"39445433@N02","secret":"d194d24973","server":"65535","farm":66,"title":"Spotted Sandpiper","ispublic":1,"isfriend":0,"isfamily":0},{"id":"52362702171","owner":"196264892@N08","secret":"82f761da1e","server":"65535","farm":66,"title":"Spotted Sandpiper and Painted Turtles","ispublic":1,"isfriend":0,"isfamily":0},{"id":"52361761442","owner":"196264892@N08","secret":"d4bbae4287","server":"65535","farm":66,"title":"Spotted Sandpiper and Painted Turtles","ispublic":1,"isfriend":0,"isfamily":0},{"id":"52361761042","owner":"196264892@N08","secret":"0d50fca23c","server":"65535","farm":66,"title":"Spotted Sandpiper and Painted Turtles","ispublic":1,"isfriend":0,"isfamily":0},{"id":"52362932338","owner":"196264892@N08","secret":"115801840d","server":"65535","farm":66,"title":"Spotted Sandpiper, Sinlahekin","ispublic":1,"isfriend":0,"isfamily":0},{"id":"52363011019","owner":"196264892@N08","secret":"591b65f784","server":"65535","farm":66,"title":"Spotted Sandpiper, Sinlahekin","ispublic":1,"isfriend":0,"isfamily":0},{"id":"52363124665","owner":"196264892@N08","secret":"74f38bdec0","server":"65535","farm":66,"title":"Spotted Sandpiper, Sinlahekin","ispublic":1,"isfriend":0,"isfamily":0},{"id":"52361759722","owner":"196264892@N08","secret":"6e265bb4d9","server":"65535","farm":66,"title":"Spotted Sandpiper, Sinlahekin","ispublic":1,"isfriend":0,"isfamily":0},{"id":"52363010034","owner":"196264892@N08","secret":"3f2e412bb3","server":"65535","farm":66,"title":"Spotted Sandpiper, Sinlahekin","ispublic":1,"isfriend":0,"isfamily":0},{"id":"52362699576","owner":"196264892@N08","secret":"99a1847624","server":"65535","farm":66,"title":"Spotted Sandpiper, Sinlahekin","ispublic":1,"isfriend":0,"isfamily":0},{"id":"52363123435","owner":"196264892@N08","secret":"0e03da8def","server":"65535","farm":66,"title":"Spotted Sandpiper, Sinlahekin","ispublic":1,"isfriend":0,"isfamily":0},{"id":"52361758547","owner":"196264892@N08","secret":"58468a9c0f","server":"65535","farm":66,"title":"Spotted Sandpiper, Sinlahekin","ispublic":1,"isfriend":0,"isfamily":0},{"id":"52362930223","owner":"196264892@N08","secret":"ba69fb5af2","server":"65535","farm":66,"title":"Spotted Sandpiper, Sinlahekin","ispublic":1,"isfriend":0,"isfamily":0},{"id":"52363008769","owner":"196264892@N08","secret":"beb2d7d371","server":"65535","farm":66,"title":"Spotted Sandpiper, Whatcom Falls Park","ispublic":1,"isfriend":0,"isfamily":0},{"id":"52362929823","owner":"196264892@N08","secret":"8f0a661634","server":"65535","farm":66,"title":"Spotted Sandpiper, Whatcom Falls Park","ispublic":1,"isfriend":0,"isfamily":0},{"id":"52363008209","owner":"196264892@N08","secret":"1709d08b49","server":"65535","farm":66,"title":"Spotted Sandpiper, Whatcom Falls Park","ispublic":1,"isfriend":0,"isfamily":0},{"id":"52359684229","owner":"24359172@N02","secret":"da2fc156b2","server":"65535","farm":66,"title":"Piper Reflections","ispublic":1,"isfriend":0,"isfamily":0},{"id":"52358419712","owner":"24359172@N02","secret":"be0a6c3659","server":"65535","farm":66,"title":"Spotted Sandpiper Flushed Then Circling Back","ispublic":1,"isfriend":0,"isfamily":0},{"id":"52359791850","owner":"24359172@N02","secret":"fe43bebd6e","server":"65535","farm":66,"title":"Spotted Sandpiper Tail Bobbing","ispublic":1,"isfriend":0,"isfamily":0},{"id":"52353760767","owner":"188958062@N05","secret":"100a508104","server":"65535","farm":66,"title":"Spotted Sandpiper, Actitis macularius","ispublic":1,"isfriend":0,"isfamily":0},{"id":"52353828516","owner":"103722035@N06","secret":"419d1e2ea6","server":"0","farm":0,"title":"Caspian Tern (Hydroprogne caspia) & Spotted Sandpiper (Actitis macularius), Laguna Lake, San Luis Obispo, CA","ispublic":1,"isfriend":0,"isfamily":0},{"id":"52345206555","owner":"120449047@N06","secret":"cf0f3216c4","server":"65535","farm":66,"title":"Spotted Sandpiper","ispublic":1,"isfriend":0,"isfamily":0},{"id":"52338990108","owner":"8666250@N02","secret":"fef44a6453","server":"65535","farm":66,"title":"Shorelock on th' rocks! -01","ispublic":1,"isfriend":0,"isfamily":0},{"id":"52339058584","owner":"8666250@N02","secret":"5fdd9b0b30","server":"65535","farm":66,"title":"\"Shorelock Sposa gives a peep!\"","ispublic":1,"isfriend":0,"isfamily":0},{"id":"52645623106","owner":"8013969@N03","secret":"6a9a5c1262","server":"65535","farm":66,"title":"Actitis macularius DFL la22-1","ispublic":1,"isfriend":0,"isfamily":0},{"id":"52646060580","owner":"8013969@N03","secret":"53d620ea04","server":"65535","farm":66,"title":"Actitis macularius DFL la22-2","ispublic":1,"isfriend":0,"isfamily":0},{"id":"52618322053","owner":"123174353@N02","secret":"2a1f7e1208","server":"65535","farm":66,"title":"Actitis macularius \/ Spotted Sandpiper \/ Amerikaanse oeverloper","ispublic":1,"isfriend":0,"isfamily":0},{"id":"52580270715","owner":"123174353@N02","secret":"173dfececf","server":"65535","farm":66,"title":"Actitis macularius \/ Spotted Sandpiper \/ Amerikaanse oeverloper","ispublic":1,"isfriend":0,"isfamily":0},{"id":"52495235711","owner":"64557331@N04","secret":"a451a16a76","server":"65535","farm":66,"title":"Spotted Sandpiper - (Actitis macularius)_08072021","ispublic":1,"isfriend":0,"isfamily":0},{"id":"52482400097","owner":"62043870@N05","secret":"4d4be99a12","server":"65535","farm":66,"title":"Spotted Sandpiper, Actitis macularius","ispublic":1,"isfriend":0,"isfamily":0},{"id":"52414075288","owner":"8666250@N02","secret":"fd20ddc389","server":"65535","farm":66,"title":"Spotted on a log at MCreek -02","ispublic":1,"isfriend":0,"isfamily":0},{"id":"52397041704","owner":"62043870@N05","secret":"e19b16426e","server":"65535","farm":66,"title":"Spotted Sandpiper, Actitis macularius","ispublic":1,"isfriend":0,"isfamily":0},{"id":"52389392946","owner":"8666250@N02","secret":"eba2e88558","server":"65535","farm":66,"title":"Spotless of Munson -02","ispublic":1,"isfriend":0,"isfamily":0},{"id":"52361757832","owner":"196264892@N08","secret":"5464d6e678","server":"65535","farm":66,"title":"Spotted Sandpiper, Whatcom Falls Park","ispublic":1,"isfriend":0,"isfamily":0},{"id":"52339128989","owner":"8666250@N02","secret":"5e116a5ecd","server":"65535","farm":66,"title":"Three names for the same SPOSA","ispublic":1,"isfriend":0,"isfamily":0},{"id":"52337798107","owner":"8666250@N02","secret":"9958bd1006","server":"65535","farm":66,"title":"Shorelock on th' rocks! -02","ispublic":1,"isfriend":0,"isfamily":0},{"id":"52338758466","owner":"8666250@N02","secret":"5254b7d653","server":"65535","farm":66,"title":"\"Are you checkin' out my feet?\"","ispublic":1,"isfriend":0,"isfamily":0},{"id":"52338989608","owner":"8666250@N02","secret":"c352cda553","server":"65535","farm":66,"title":"Leaves; me alone....","ispublic":1,"isfriend":0,"isfamily":0},{"id":"52338756981","owner":"8666250@N02","secret":"45aec4141d","server":"65535","farm":66,"title":"Through the stones -01","ispublic":1,"isfriend":0,"isfamily":0},{"id":"52337796262","owner":"8666250@N02","secret":"dd00d72d02","server":"65535","farm":66,"title":"Through the stones -02","ispublic":1,"isfriend":0,"isfamily":0},{"id":"52339055019","owner":"8666250@N02","secret":"2244ab2ee8","server":"65535","farm":66,"title":"After you, hyoomin...","ispublic":1,"isfriend":0,"isfamily":0},{"id":"52339172820","owner":"8666250@N02","secret":"d01a781544","server":"65535","farm":66,"title":"Down by creekside -01. Thanks, SPOSAs, for another great season!","ispublic":1,"isfriend":0,"isfamily":0},{"id":"52338978923","owner":"8666250@N02","secret":"1ce1f067ca","server":"65535","farm":66,"title":"Maybe not!","ispublic":1,"isfriend":0,"isfamily":0}]},"stat":"ok"}