{"photos":{"page":1,"pages":17,"perpage":100,"total":1642,"photo":[{"id":"52777455005","owner":"88593217@N04","secret":"69cbeb1205","server":"65535","farm":66,"title":"Spur-winged Lapwing, Toubakouta, Senegal, January 2014","ispublic":1,"isfriend":0,"isfamily":0},{"id":"52776512967","owner":"88593217@N04","secret":"6d5c6a14a9","server":"65535","farm":66,"title":"Spur-winged Lapwing, Toubakouta, Senegal, January 2014","ispublic":1,"isfriend":0,"isfamily":0},{"id":"52751750819","owner":"28490798@N03","secret":"0740739e17","server":"65535","farm":66,"title":"Spur-winged Lapwing. Avefr\u00eda Espinosa. Vanellus spinosus","ispublic":1,"isfriend":0,"isfamily":0},{"id":"52752998572","owner":"62501256@N05","secret":"88748b0e55","server":"65535","farm":66,"title":"African Spur-winged Lapwing (Vanellus spinosus)","ispublic":1,"isfriend":0,"isfamily":0},{"id":"52751311841","owner":"12639178@N07","secret":"2a1afe1127","server":"65535","farm":66,"title":"Spornkiebitz","ispublic":1,"isfriend":0,"isfamily":0},{"id":"52743174841","owner":"12639178@N07","secret":"995e3db475","server":"65535","farm":66,"title":"Spornkiebitze","ispublic":1,"isfriend":0,"isfamily":0},{"id":"52743590935","owner":"12639178@N07","secret":"c411f987ca","server":"65535","farm":66,"title":"Spornkiebitz","ispublic":1,"isfriend":0,"isfamily":0},{"id":"52738006314","owner":"72434199@N02","secret":"01497af878","server":"65535","farm":66,"title":"SPUR-WINGED PLOVER \/\/ VANELLUS SPINOSUS (28cm)","ispublic":1,"isfriend":0,"isfamily":0},{"id":"52730114649","owner":"12639178@N07","secret":"8464ae6dc0","server":"65535","farm":66,"title":"Spornkiebitz","ispublic":1,"isfriend":0,"isfamily":0},{"id":"52727675518","owner":"87782155@N04","secret":"7ed3c110ab","server":"65535","farm":66,"title":"Spur-winged Lapwing with spurs showing","ispublic":1,"isfriend":0,"isfamily":0},{"id":"52721453482","owner":"128578170@N06","secret":"7a81c03389","server":"65535","farm":66,"title":"Spur-winged Lapwing Vanellus spinosus","ispublic":1,"isfriend":0,"isfamily":0},{"id":"52721980236","owner":"128578170@N06","secret":"da31473ea3","server":"65535","farm":66,"title":"Spur-winged Lapwing Vanellus spinosus","ispublic":1,"isfriend":0,"isfamily":0},{"id":"52708947100","owner":"154130070@N04","secret":"7fc05094c7","server":"65535","farm":66,"title":"Spur-winged Lapwing, Vanellus spinosus","ispublic":1,"isfriend":0,"isfamily":0},{"id":"52708946390","owner":"154130070@N04","secret":"66f7b01d29","server":"65535","farm":66,"title":"Spur-winged Lapwing, Vanellus spinosus","ispublic":1,"isfriend":0,"isfamily":0},{"id":"52709018088","owner":"154130070@N04","secret":"89a258de91","server":"65535","farm":66,"title":"Spur-winged Lapwing, Vanellus spinosus","ispublic":1,"isfriend":0,"isfamily":0},{"id":"52701410634","owner":"21657471@N04","secret":"b81de06c8c","server":"65535","farm":66,"title":"Vanellus spinosus (Linnaeus, 1758) - Spur-winged lapwing","ispublic":1,"isfriend":0,"isfamily":0},{"id":"52682898197","owner":"90072707@N03","secret":"ff099f90c8","server":"65535","farm":66,"title":"Spur-winged Lapwing (Vanellus spinosus) Semuliki Valley Uganda","ispublic":1,"isfriend":0,"isfamily":0},{"id":"52660172557","owner":"41730704@N03","secret":"7d0fe64045","server":"65535","farm":66,"title":"Plover  spur-winged plover (Vanellus spinosus) Tsiknias River Lesvos Greece 21\/04\/22","ispublic":1,"isfriend":0,"isfamily":0},{"id":"52600370785","owner":"47448228@N07","secret":"6158279e03","server":"65535","farm":66,"title":"DSC_0176","ispublic":1,"isfriend":0,"isfamily":0},{"id":"52600466328","owner":"47448228@N07","secret":"ce894f2bea","server":"65535","farm":66,"title":"DSC_0178","ispublic":1,"isfriend":0,"isfamily":0},{"id":"52599453757","owner":"47448228@N07","secret":"c86a5ca3a7","server":"65535","farm":66,"title":"DSC_0182","ispublic":1,"isfriend":0,"isfamily":0},{"id":"52600207629","owner":"47448228@N07","secret":"d1103c8eb2","server":"65535","farm":66,"title":"DSC_0184","ispublic":1,"isfriend":0,"isfamily":0},{"id":"52600207624","owner":"47448228@N07","secret":"2827ba659a","server":"65535","farm":66,"title":"DSC_0188","ispublic":1,"isfriend":0,"isfamily":0},{"id":"52600466303","owner":"47448228@N07","secret":"743b8c6f7a","server":"65535","farm":66,"title":"DSC_0191","ispublic":1,"isfriend":0,"isfamily":0},{"id":"52599946831","owner":"47448228@N07","secret":"915134f12a","server":"65535","farm":66,"title":"DSC_0173","ispublic":1,"isfriend":0,"isfamily":0},{"id":"52600370740","owner":"47448228@N07","secret":"f822156072","server":"65535","farm":66,"title":"DSC_0192","ispublic":1,"isfriend":0,"isfamily":0},{"id":"52588417232","owner":"24580998@N08","secret":"e0dd1d0fb1","server":"65535","farm":66,"title":"Vanellus spinosus - Vanneau \u00e0  \u00e9perons - Spur-winged Lapwing - 19\/02\/10","ispublic":1,"isfriend":0,"isfamily":0},{"id":"52577426910","owner":"168495655@N07","secret":"f5f5800e37","server":"65535","farm":66,"title":"Vanneau \u00e0 \u00e9perons - Vanellus spinosus - Spur-winged Lapwing","ispublic":1,"isfriend":0,"isfamily":0},{"id":"52569238120","owner":"12639178@N07","secret":"160c5484a3","server":"65535","farm":66,"title":"Kenia: Spornkiebitz - Spur-winged Lapwing","ispublic":1,"isfriend":0,"isfamily":0},{"id":"52534726833","owner":"96252811@N02","secret":"1e6651f639","server":"65535","farm":66,"title":"Vanneau \u00e0 \u00e9perons - Vanellus spinosus - Spur-winged Lapwing","ispublic":1,"isfriend":0,"isfamily":0},{"id":"52530854308","owner":"47448228@N07","secret":"df625264be","server":"65535","farm":66,"title":"DSC_0540","ispublic":1,"isfriend":0,"isfamily":0},{"id":"52529838912","owner":"47448228@N07","secret":"7f2bea8ee3","server":"65535","farm":66,"title":"DSC_0547","ispublic":1,"isfriend":0,"isfamily":0},{"id":"52530851163","owner":"47448228@N07","secret":"30c9394c57","server":"65535","farm":66,"title":"DSC_0546","ispublic":1,"isfriend":0,"isfamily":0},{"id":"52530851118","owner":"47448228@N07","secret":"41d3970cb9","server":"65535","farm":66,"title":"DSC_0550","ispublic":1,"isfriend":0,"isfamily":0},{"id":"52530307071","owner":"47448228@N07","secret":"d44a8f2351","server":"65535","farm":66,"title":"DSC_0548","ispublic":1,"isfriend":0,"isfamily":0},{"id":"52529838867","owner":"47448228@N07","secret":"38ac201530","server":"65535","farm":66,"title":"DSC_0553","ispublic":1,"isfriend":0,"isfamily":0},{"id":"52530307026","owner":"47448228@N07","secret":"5df1e61167","server":"65535","farm":66,"title":"DSC_0551","ispublic":1,"isfriend":0,"isfamily":0},{"id":"52530589134","owner":"47448228@N07","secret":"bf82da72dc","server":"65535","farm":66,"title":"DSC_0554","ispublic":1,"isfriend":0,"isfamily":0},{"id":"52530781510","owner":"47448228@N07","secret":"955e9ab7c4","server":"65535","farm":66,"title":"DSC_0557","ispublic":1,"isfriend":0,"isfamily":0},{"id":"52530306961","owner":"47448228@N07","secret":"35c231d353","server":"65535","farm":66,"title":"DSC_0529","ispublic":1,"isfriend":0,"isfamily":0},{"id":"52529838842","owner":"47448228@N07","secret":"cc3e770a1d","server":"65535","farm":66,"title":"DSC_0558","ispublic":1,"isfriend":0,"isfamily":0},{"id":"52530589059","owner":"47448228@N07","secret":"19b79bfd9b","server":"65535","farm":66,"title":"DSC_0538","ispublic":1,"isfriend":0,"isfamily":0},{"id":"52529838782","owner":"47448228@N07","secret":"16c7eecfdc","server":"65535","farm":66,"title":"DSC_0531","ispublic":1,"isfriend":0,"isfamily":0},{"id":"52529838752","owner":"47448228@N07","secret":"c0f20efa60","server":"65535","farm":66,"title":"DSC_0542","ispublic":1,"isfriend":0,"isfamily":0},{"id":"52530589039","owner":"47448228@N07","secret":"45c9118d69","server":"65535","farm":66,"title":"DSC_0539","ispublic":1,"isfriend":0,"isfamily":0},{"id":"52523277445","owner":"75137207@N02","secret":"87b52fc5bb","server":"65535","farm":66,"title":"MALAWI_7r_472 Spornkiebitz \/ Spur-winged Lapwing \/ Vanellus spinosus","ispublic":1,"isfriend":0,"isfamily":0},{"id":"52514886150","owner":"12639178@N07","secret":"39108126b9","server":"65535","farm":66,"title":"Kenia: Spornkiebitz Nachwuchs","ispublic":1,"isfriend":0,"isfamily":0},{"id":"52514398801","owner":"12639178@N07","secret":"3363c38b09","server":"65535","farm":66,"title":"Kenia: Spornkiebitz Portrait","ispublic":1,"isfriend":0,"isfamily":0},{"id":"52514947813","owner":"12639178@N07","secret":"c31969ace0","server":"65535","farm":66,"title":"Kenia: Spornkiebitz oder Spur-winged Lapwing","ispublic":1,"isfriend":0,"isfamily":0},{"id":"52513672307","owner":"27480477@N07","secret":"46cbbdd3e0","server":"65535","farm":66,"title":"D38K7177 Sporenkievit, Spur-Winged Plover, Vanellus spinosus.","ispublic":1,"isfriend":0,"isfamily":0},{"id":"52508238899","owner":"12639178@N07","secret":"e2941e6637","server":"65535","farm":66,"title":"wegfliegend","ispublic":1,"isfriend":0,"isfamily":0},{"id":"52507487617","owner":"12639178@N07","secret":"0b5a462807","server":"65535","farm":66,"title":"Spornkiebitze","ispublic":1,"isfriend":0,"isfamily":0},{"id":"52506639566","owner":"49895734@N05","secret":"df0dc20520","server":"65535","farm":66,"title":"Spur winged Lapwing. Avefr\u00eda Espinosa. Vanellus spinosus.","ispublic":1,"isfriend":0,"isfamily":0},{"id":"52494615936","owner":"12639178@N07","secret":"2d87f6181b","server":"65535","farm":66,"title":"an der Wasseraufbereitungsanlage","ispublic":1,"isfriend":0,"isfamily":0},{"id":"52494615776","owner":"12639178@N07","secret":"fbd9024333","server":"65535","farm":66,"title":"Spornkiebitz","ispublic":1,"isfriend":0,"isfamily":0},{"id":"52478908266","owner":"12639178@N07","secret":"15463bb14c","server":"65535","farm":66,"title":"Spornkiebitz (leider weit weg)","ispublic":1,"isfriend":0,"isfamily":0},{"id":"52435438046","owner":"49895863@N00","secret":"75504e966b","server":"65535","farm":66,"title":"Spur-winged Lapwing (Vanellus spinosus)","ispublic":1,"isfriend":0,"isfamily":0},{"id":"52426808917","owner":"150856173@N06","secret":"13952f7c74","server":"65535","farm":66,"title":"Spur-winged lapwing (Vanellus spinosus)-5668","ispublic":1,"isfriend":0,"isfamily":0},{"id":"52421305794","owner":"187560275@N08","secret":"354bcc2074","server":"65535","farm":66,"title":"Vanneau \u00e9peronn\u00e9 -Vanellus spinosus - Spur-winged Lapwing","ispublic":1,"isfriend":0,"isfamily":0},{"id":"52412170048","owner":"54249623@N08","secret":"6d88b6db6d","server":"65535","farm":66,"title":"Spur-winged Lapwing (Vanellus spinosus)","ispublic":1,"isfriend":0,"isfamily":0},{"id":"52399212520","owner":"96111650@N07","secret":"6605118112","server":"65535","farm":66,"title":"IMG_0386-Spur-winged Lapwing (Vanellus Spinosus)","ispublic":1,"isfriend":0,"isfamily":0},{"id":"52365048790","owner":"12639178@N07","secret":"e3bd519c38","server":"65535","farm":66,"title":"Spornkiebitz mit 2 Pulli","ispublic":1,"isfriend":0,"isfamily":0},{"id":"52354735852","owner":"128578170@N06","secret":"148f78bf6f","server":"65535","farm":66,"title":"Spur-winged Lapwing Vanellus spinosus","ispublic":1,"isfriend":0,"isfamily":0},{"id":"52355660079","owner":"128578170@N06","secret":"aff82f5001","server":"65535","farm":66,"title":"Spur-winged Lapwing Vanellus spinosus","ispublic":1,"isfriend":0,"isfamily":0},{"id":"52342972926","owner":"41730704@N03","secret":"08f2ea83ed","server":"65535","farm":66,"title":"Plover  spur-winged plover (Vanellus spinosus) Tsiknias River Lesvos 210422 1.1","ispublic":1,"isfriend":0,"isfamily":0},{"id":"52342018572","owner":"41730704@N03","secret":"a49560aa3c","server":"65535","farm":66,"title":"Plover spur-winged plover (Vanellus spinosus) Kalloni Salt Pans Lesvos 030522 1.1","ispublic":1,"isfriend":0,"isfamily":0},{"id":"52167313708","owner":"195904118@N02","secret":"4bc4213361","server":"65535","farm":66,"title":"Spur-winged Lapwing (Vanellus spinosus)","ispublic":1,"isfriend":0,"isfamily":0},{"id":"52143117544","owner":"77128742@N06","secret":"af98959cd4","server":"65535","farm":66,"title":"Spornkiebitz_Vanellus spinosus-58","ispublic":1,"isfriend":0,"isfamily":0},{"id":"52141857667","owner":"77128742@N06","secret":"408aa2ca7f","server":"65535","farm":66,"title":"Spornkiebitz_Vanellus spinosus-54","ispublic":1,"isfriend":0,"isfamily":0},{"id":"52142897258","owner":"77128742@N06","secret":"1c8f3926f0","server":"65535","farm":66,"title":"Spornkiebitz_Vanellus spinosus-45","ispublic":1,"isfriend":0,"isfamily":0},{"id":"52137266075","owner":"58280154@N07","secret":"d9fa2d91bd","server":"65535","farm":66,"title":"Spur-winged Lapwing, Vanneau \u00e9peronn\u00e9 (Vanellus spinosus) - La Somone, SENEGAL","ispublic":1,"isfriend":0,"isfamily":0},{"id":"52137013189","owner":"58280154@N07","secret":"b521e952a6","server":"65535","farm":66,"title":"Spur-winged Lapwing, Vanneau \u00e9peronn\u00e9 (Vanellus spinosus) - La Somone, SENEGAL","ispublic":1,"isfriend":0,"isfamily":0},{"id":"52114819810","owner":"41730704@N03","secret":"58f4acefb8","server":"65535","farm":66,"title":"Plover  spur-winged plover (Vanellus spinosus) Tsiknias River Lesvos 21\/04\/22","ispublic":1,"isfriend":0,"isfamily":0},{"id":"52095750807","owner":"35419517@N04","secret":"dae417a17b","server":"65535","farm":66,"title":"_DSC6905. Spur-winged Lapwing  (Plover)","ispublic":1,"isfriend":0,"isfamily":0},{"id":"52095610812","owner":"96568982@N06","secret":"91948980e9","server":"65535","farm":66,"title":"LAPWING, Spur-winged","ispublic":1,"isfriend":0,"isfamily":0},{"id":"52075901917","owner":"28845654@N08","secret":"e84ce1d8de","server":"65535","farm":66,"title":"SPUR-WINGED LAPWING 4","ispublic":1,"isfriend":0,"isfamily":0},{"id":"52076953283","owner":"28845654@N08","secret":"efdbc362a9","server":"65535","farm":66,"title":"SPUR-WINGED LAPWING 5","ispublic":1,"isfriend":0,"isfamily":0},{"id":"52054565433","owner":"76454790@N02","secret":"bf7e25d564","server":"65535","farm":66,"title":"Spur-winged Lapwing (Vanellus spinosus)","ispublic":1,"isfriend":0,"isfamily":0},{"id":"52054766354","owner":"76454790@N02","secret":"f413539b38","server":"65535","farm":66,"title":"Spur-winged Lapwing (Vanellus spinosus)","ispublic":1,"isfriend":0,"isfamily":0},{"id":"52054565338","owner":"76454790@N02","secret":"6d7807b2d7","server":"65535","farm":66,"title":"Spur-winged Lapwing (Vanellus spinosus)","ispublic":1,"isfriend":0,"isfamily":0},{"id":"52053087704","owner":"35968106@N03","secret":"e8f5725bd5","server":"65535","farm":66,"title":"Vanellus spinosus, \u0391\u03b3\u03ba\u03b1\u03b8\u03bf\u03ba\u03b1\u03bb\u03b7\u03bc\u03ac\u03bd\u03b1, Spur-winged lapwing","ispublic":1,"isfriend":0,"isfamily":0},{"id":"52050347227","owner":"28845654@N08","secret":"8d942df1c8","server":"65535","farm":66,"title":"SPUR-WINGED LAPWING 3","ispublic":1,"isfriend":0,"isfamily":0},{"id":"52035202825","owner":"99613800@N02","secret":"ba9df31760","server":"65535","farm":66,"title":"Vanellus spinosus (Spur-winged Lapwing) - Charadriidae  - Aqaba, Aqaba, Jordan","ispublic":1,"isfriend":0,"isfamily":0},{"id":"52034728998","owner":"99613800@N02","secret":"a6e2f742e8","server":"65535","farm":66,"title":"Vanellus spinosus (Spur-winged Lapwing) - Charadriidae  - Aqaba, Aqaba, Jordan-2","ispublic":1,"isfriend":0,"isfamily":0},{"id":"52684315547","owner":"143326780@N02","secret":"2c45a61522","server":"65535","farm":66,"title":"DSCN4123","ispublic":1,"isfriend":0,"isfamily":0},{"id":"52685252965","owner":"143326780@N02","secret":"52a14ab19e","server":"65535","farm":66,"title":"DSCN4126","ispublic":1,"isfriend":0,"isfamily":0},{"id":"52685111374","owner":"143326780@N02","secret":"17acc54e6e","server":"65535","farm":66,"title":"DSCN4127","ispublic":1,"isfriend":0,"isfamily":0},{"id":"52683415136","owner":"90072707@N03","secret":"34c71ec3ee","server":"65535","farm":66,"title":"Spur-winged Lapwing (Vanellus spinosus) Semuliki Valley Uganda","ispublic":1,"isfriend":0,"isfamily":0},{"id":"52632306922","owner":"114700825@N07","secret":"fbe67fbd33","server":"65535","farm":66,"title":"063.2 Sporenkievit","ispublic":1,"isfriend":0,"isfamily":0},{"id":"52523131800","owner":"75137207@N02","secret":"5af8499f63","server":"65535","farm":66,"title":"MALAWI_7r_452 Spornkiebitz \/ Spur-winged Lapwing \/ Vanellus spinosus","ispublic":1,"isfriend":0,"isfamily":0},{"id":"52448065574","owner":"104988466@N08","secret":"a51e009180","server":"65535","farm":66,"title":"18. Vanneau \u00e9peronn\u00e9 - Vanellus spinosus - Spur-winged Lapwing","ispublic":1,"isfriend":0,"isfamily":0},{"id":"52448306403","owner":"104988466@N08","secret":"2bf8c9250d","server":"65535","farm":66,"title":"19. Vanneau \u00e9peronn\u00e9 - Vanellus spinosus - Spur-winged Lapwing","ispublic":1,"isfriend":0,"isfamily":0},{"id":"52448065404","owner":"104988466@N08","secret":"583522f231","server":"65535","farm":66,"title":"20. Vanneau \u00e9peronn\u00e9 - Vanellus spinosus - Spur-winged Lapwing","ispublic":1,"isfriend":0,"isfamily":0},{"id":"52398277617","owner":"96111650@N07","secret":"c36389dc07","server":"65535","farm":66,"title":"IMG_3645-Spur-winged Lapwing (Vanellus Spinosus)","ispublic":1,"isfriend":0,"isfamily":0},{"id":"52398791861","owner":"96111650@N07","secret":"c52f1a32ec","server":"65535","farm":66,"title":"IMG_3649-Spur-winged Lapwing (Vanellus Spinosus)","ispublic":1,"isfriend":0,"isfamily":0},{"id":"52201947539","owner":"160629162@N02","secret":"85220839f3","server":"65535","farm":66,"title":"Spur-winged Lapwing - \u0428\u043f\u043e\u0440\u0446\u0435\u0432\u044b\u0439 \u0447\u0438\u0431\u0438\u0441 - \u05e1\u05d9\u05e7\u05e1\u05e7 (Vanellus spinosus)","ispublic":1,"isfriend":0,"isfamily":0},{"id":"52201947014","owner":"160629162@N02","secret":"219bf806b4","server":"65535","farm":66,"title":"Spur-winged Lapwing - \u0428\u043f\u043e\u0440\u0446\u0435\u0432\u044b\u0439 \u0447\u0438\u0431\u0438\u0441 - \u05e1\u05d9\u05e7\u05e1\u05e7 (Vanellus spinosus)","ispublic":1,"isfriend":0,"isfamily":0},{"id":"52137013249","owner":"58280154@N07","secret":"b42f618e68","server":"65535","farm":66,"title":"Spur-winged Lapwing, Vanneau \u00e9peronn\u00e9 (Vanellus spinosus) - La Somone, SENEGAL","ispublic":1,"isfriend":0,"isfamily":0},{"id":"52135750602","owner":"58280154@N07","secret":"3cd291a748","server":"65535","farm":66,"title":"Spur-winged Lapwing, Vanneau \u00e9peronn\u00e9 (Vanellus spinosus) - La Somone, SENEGAL","ispublic":1,"isfriend":0,"isfamily":0},{"id":"52046644743","owner":"49895863@N00","secret":"b87afeebfa","server":"65535","farm":66,"title":"Spur-winged Lapwing (Vanellus spinosus)","ispublic":1,"isfriend":0,"isfamily":0}]},"stat":"ok"}