{"photos":{"page":1,"pages":2,"perpage":100,"total":129,"photo":[{"id":"52717943298","owner":"7330431@N08","secret":"b47724e758","server":"65535","farm":66,"title":"Steely-vented Hummingbird Saucerottia saucerottei","ispublic":1,"isfriend":0,"isfamily":0},{"id":"52716112900","owner":"7330431@N08","secret":"9d35e76422","server":"65535","farm":66,"title":"Steely-vented Hummingbird Saucerottia saucerottei","ispublic":1,"isfriend":0,"isfamily":0},{"id":"52666473094","owner":"72271115@N02","secret":"449f1a81db","server":"65535","farm":66,"title":"Steely-vented Hummingbird --- Saucerottia saucerottei","ispublic":1,"isfriend":0,"isfamily":0},{"id":"52566321921","owner":"196567058@N02","secret":"bf5dd6d099","server":"65535","farm":66,"title":"Saucerottia saucerottei - Amazilia coliazul","ispublic":1,"isfriend":0,"isfamily":0},{"id":"52543543109","owner":"190773540@N03","secret":"0bc2e9c792","server":"65535","farm":66,"title":"Steely-vented Hummingbird (Colombia)","ispublic":1,"isfriend":0,"isfamily":0},{"id":"52520708492","owner":"56686021@N04","secret":"08d152b71e","server":"65535","farm":66,"title":"Steely-vented Hummingbird -","ispublic":1,"isfriend":0,"isfamily":0},{"id":"52521452264","owner":"56686021@N04","secret":"4af3e47c1a","server":"65535","farm":66,"title":"Steely-vented Hummingbird -","ispublic":1,"isfriend":0,"isfamily":0},{"id":"52501161857","owner":"56686021@N04","secret":"33f455efc1","server":"65535","farm":66,"title":"Steely-vented Hummingbird","ispublic":1,"isfriend":0,"isfamily":0},{"id":"52283957968","owner":"154797342@N04","secret":"233d64b01c","server":"65535","farm":66,"title":"Steely-vented Hummingbird","ispublic":1,"isfriend":0,"isfamily":0},{"id":"52167442196","owner":"55527686@N03","secret":"9d777ebbab","server":"65535","farm":66,"title":"Steely-vented Hummingbird (Saucerottia saucerottei)","ispublic":1,"isfriend":0,"isfamily":0},{"id":"52166236926","owner":"55527686@N03","secret":"1f8598b61b","server":"65535","farm":66,"title":"Steely-vented Hummingbird (Saucerottia saucerottei)","ispublic":1,"isfriend":0,"isfamily":0},{"id":"52148555443","owner":"55527686@N03","secret":"5065783ea6","server":"65535","farm":66,"title":"Steely-vented Hummingbird (Saucerottia saucerottei","ispublic":1,"isfriend":0,"isfamily":0},{"id":"52070816338","owner":"24309230@N03","secret":"6b0c21bf8e","server":"65535","farm":66,"title":"Steely-vented Hummingbird","ispublic":1,"isfriend":0,"isfamily":0},{"id":"52041361814","owner":"55527686@N03","secret":"89254394ee","server":"65535","farm":66,"title":"Steely-vented Hummingbird (Saucerottia saucerottei)","ispublic":1,"isfriend":0,"isfamily":0},{"id":"52008380987","owner":"55527686@N03","secret":"e494f1dbec","server":"65535","farm":66,"title":"Steely-vented Hummingbird (Saucerottia saucerottei)","ispublic":1,"isfriend":0,"isfamily":0},{"id":"52005126031","owner":"55527686@N03","secret":"0fb356c7c2","server":"65535","farm":66,"title":"Steely-vented Hummingbird (Saucerottia saucerottei)","ispublic":1,"isfriend":0,"isfamily":0},{"id":"52000968911","owner":"55527686@N03","secret":"8570d6400d","server":"65535","farm":66,"title":"Steely-vented Hummingbird (Saucerottia saucerottei)","ispublic":1,"isfriend":0,"isfamily":0},{"id":"51976226996","owner":"55527686@N03","secret":"8b3bf5460a","server":"65535","farm":66,"title":"Steely-vented Hummingbird (Saucerottia saucerottei)","ispublic":1,"isfriend":0,"isfamily":0},{"id":"51976298698","owner":"55527686@N03","secret":"37a5f772c9","server":"65535","farm":66,"title":"Steely-vented Hummingbird (Saucerottia saucerottei)","ispublic":1,"isfriend":0,"isfamily":0},{"id":"51974553628","owner":"55527686@N03","secret":"7d2a29e0b8","server":"65535","farm":66,"title":"Steely-vented Hummingbird (Saucerottia saucerottei)","ispublic":1,"isfriend":0,"isfamily":0},{"id":"51974477261","owner":"55527686@N03","secret":"41d8286a1d","server":"65535","farm":66,"title":"Steely-vented Hummingbird (Saucerottia saucerottei)","ispublic":1,"isfriend":0,"isfamily":0},{"id":"51972590574","owner":"55527686@N03","secret":"81597fd63c","server":"65535","farm":66,"title":"Steely-vented Hummingbird (Saucerottia saucerottei)","ispublic":1,"isfriend":0,"isfamily":0},{"id":"51945582420","owner":"55527686@N03","secret":"36868b529c","server":"65535","farm":66,"title":"Steely-vented Hummingbird bird (Saucerottia saucerottei)","ispublic":1,"isfriend":0,"isfamily":0},{"id":"51944287865","owner":"24309230@N03","secret":"02faa4165a","server":"65535","farm":66,"title":"Steely-vented Hummingbird","ispublic":1,"isfriend":0,"isfamily":0},{"id":"51913002492","owner":"37493716@N02","secret":"805d639658","server":"65535","farm":66,"title":"Saucerottia saucerottei_ -->Steely-vented Hummingbird.","ispublic":1,"isfriend":0,"isfamily":0},{"id":"51874592469","owner":"190923251@N05","secret":"3927d0c0d9","server":"65535","farm":66,"title":"Steely-vented Hummingbird","ispublic":1,"isfriend":0,"isfamily":0},{"id":"51859583341","owner":"147283349@N08","secret":"1c7c5d0356","server":"65535","farm":66,"title":"Saucerottia saucerottei","ispublic":1,"isfriend":0,"isfamily":0},{"id":"51799193734","owner":"140413390@N06","secret":"ef5670b9a1","server":"65535","farm":66,"title":"Saucerottia saucerottei (Steely-vented Hummingbird \/ Amazilia coliazul)","ispublic":1,"isfriend":0,"isfamily":0},{"id":"51653697664","owner":"52631592@N05","secret":"a8a7c1a24c","server":"65535","farm":66,"title":"Steely-vented hummingbird (Saucerottia saucerottei)","ispublic":1,"isfriend":0,"isfamily":0},{"id":"51583717792","owner":"141178418@N05","secret":"f6c47034dc","server":"65535","farm":66,"title":"Amazilia saucerottei - Saucerottia saucerottei - Amazilia Coliazul","ispublic":1,"isfriend":0,"isfamily":0},{"id":"51573216522","owner":"54249623@N08","secret":"125b91b4f6","server":"65535","farm":66,"title":"Amazilia Coliazul, Steely-vented Hummingbird (Amazilia saucerottei) (Saucerottia saucerottei)","ispublic":1,"isfriend":0,"isfamily":0},{"id":"51484219868","owner":"104268816@N06","secret":"c4582270d5","server":"65535","farm":66,"title":"Saucerottia saucerottei","ispublic":1,"isfriend":0,"isfamily":0},{"id":"51348756990","owner":"147283349@N08","secret":"66373288b7","server":"65535","farm":66,"title":"Saucerottia saucerrottei","ispublic":1,"isfriend":0,"isfamily":0},{"id":"51330685645","owner":"147283349@N08","secret":"543a657781","server":"65535","farm":66,"title":"Saucerottia saucerrottei","ispublic":1,"isfriend":0,"isfamily":0},{"id":"51306553648","owner":"147283349@N08","secret":"4b5ff25a12","server":"65535","farm":66,"title":"Saucerottia saucerrottei","ispublic":1,"isfriend":0,"isfamily":0},{"id":"51288198402","owner":"25486180@N07","secret":"c32eaeedee","server":"65535","farm":66,"title":"Steely-vented hummingbird, Saucerottia saucerottei","ispublic":1,"isfriend":0,"isfamily":0},{"id":"51287834111","owner":"54249623@N08","secret":"6cd59fd89f","server":"65535","farm":66,"title":"Amazilia Coliazul, Steely-vented Hummingbird (Amazilia saucerottei) (Saucerottia saucerottei)","ispublic":1,"isfriend":0,"isfamily":0},{"id":"50675506558","owner":"105765827@N03","secret":"aa7db05ebe","server":"65535","farm":66,"title":"Esta bella amazilia coliazul es reconocida por ser territorial. Suele intimidar a otros colibr\u00edes, mieleros o aves en general con enviones a gran velocidad tratando de defender las flores y fuentes de alimento de su preferencia.","ispublic":1,"isfriend":0,"isfamily":0},{"id":"50676328462","owner":"105765827@N03","secret":"9a65d0edf0","server":"65535","farm":66,"title":"Esta bella amazilia coliazul es reconocida por ser territorial. Suele intimidar a otros colibr\u00edes, mieleros o aves en general con enviones a gran velocidad tratando de defender las flores y fuentes de alimento de su preferencia.","ispublic":1,"isfriend":0,"isfamily":0},{"id":"50676208531","owner":"105765827@N03","secret":"f70990db34","server":"65535","farm":66,"title":"Esta bella amazilia coliazul es reconocida por ser territorial. Suele intimidar a otros colibr\u00edes, mieleros o aves en general con enviones a gran velocidad tratando de defender las flores y fuentes de alimento de su preferencia.","ispublic":1,"isfriend":0,"isfamily":0},{"id":"50383162578","owner":"105765827@N03","secret":"0112d11366","server":"65535","farm":66,"title":"Esta bella amazilia coliazul es reconocida por ser territorial. Suele intimidar a otros colibr\u00edes, mieleros o aves en general con enviones a gran velocidad tratando de defender las flores y fuentes de alimento de su preferencia.","ispublic":1,"isfriend":0,"isfamily":0},{"id":"50384034862","owner":"105765827@N03","secret":"e460a23768","server":"65535","farm":66,"title":"Esta bella amazilia coliazul es reconocida por ser territorial. Suele intimidar a otros colibr\u00edes, mieleros o aves en general con enviones a gran velocidad tratando de defender las flores y fuentes de alimento de su preferencia.","ispublic":1,"isfriend":0,"isfamily":0},{"id":"50383851851","owner":"105765827@N03","secret":"f897dbf4d1","server":"65535","farm":66,"title":"Esta bella amazilia coliazul es reconocida por ser territorial. Suele intimidar a otros colibr\u00edes, mieleros o aves en general con enviones a gran velocidad tratando de defender las flores y fuentes de alimento de su preferencia.","ispublic":1,"isfriend":0,"isfamily":0},{"id":"50081779362","owner":"105765827@N03","secret":"598a3c9750","server":"65535","farm":66,"title":"Lo dicho\u2026 a veces vas en b\u00fasqueda de un ave y esta siempre va un paso m\u00e1s all\u00e1 der tu alcance pero a veces te quedas quieto y ellas vienen y se posan ah\u00ed al alcance de tus manos.","ispublic":1,"isfriend":0,"isfamily":0},{"id":"50081776292","owner":"105765827@N03","secret":"603a687f5f","server":"65535","farm":66,"title":"Lo dicho\u2026 a veces vas en b\u00fasqueda de un ave y esta siempre va un paso m\u00e1s all\u00e1 der tu alcance pero a veces te quedas quieto y ellas vienen y se posan ah\u00ed al alcance de tus manos.","ispublic":1,"isfriend":0,"isfamily":0},{"id":"50080947188","owner":"105765827@N03","secret":"14e0ccb595","server":"65535","farm":66,"title":"Lo dicho\u2026 a veces vas en b\u00fasqueda de un ave y esta siempre va un paso m\u00e1s all\u00e1 der tu alcance pero a veces te quedas quieto y ellas vienen y se posan ah\u00ed al alcance de tus manos.","ispublic":1,"isfriend":0,"isfamily":0},{"id":"50081767652","owner":"105765827@N03","secret":"10d8983b69","server":"65535","farm":66,"title":"Lo dicho\u2026 a veces vas en b\u00fasqueda de un ave y esta siempre va un paso m\u00e1s all\u00e1 der tu alcance pero a veces te quedas quieto y ellas vienen y se posan ah\u00ed al alcance de tus manos.","ispublic":1,"isfriend":0,"isfamily":0},{"id":"50081517176","owner":"105765827@N03","secret":"1072477a6d","server":"65535","farm":66,"title":"Lo dicho\u2026 a veces vas en b\u00fasqueda de un ave y esta siempre va un paso m\u00e1s all\u00e1 der tu alcance pero a veces te quedas quieto y ellas vienen y se posan ah\u00ed al alcance de tus manos.","ispublic":1,"isfriend":0,"isfamily":0},{"id":"49892761962","owner":"105765827@N03","secret":"7745ff8bbd","server":"65535","farm":66,"title":"Esta bella amazilia coliazul es reconocida por ser territorial. Suele intimidar a otros colibr\u00edes o mieleros con enviones a gran velocidad tratando de defender las flores y fuentes de alimento de su preferencia.","ispublic":1,"isfriend":0,"isfamily":0},{"id":"49892760342","owner":"105765827@N03","secret":"414b755ee4","server":"65535","farm":66,"title":"Esta bella amazilia coliazul es reconocida por ser territorial. Suele intimidar a otros colibr\u00edes o mieleros con enviones a gran velocidad tratando de defender las flores y fuentes de alimento de su preferencia.","ispublic":1,"isfriend":0,"isfamily":0},{"id":"49892444511","owner":"105765827@N03","secret":"220def4e93","server":"65535","farm":66,"title":"Esta bella amazilia coliazul es reconocida por ser territorial. Suele intimidar a otros colibr\u00edes o mieleros con enviones a gran velocidad tratando de defender las flores y fuentes de alimento de su preferencia.","ispublic":1,"isfriend":0,"isfamily":0},{"id":"49891925963","owner":"105765827@N03","secret":"e069ae42c5","server":"65535","farm":66,"title":"Esta bella amazilia coliazul es reconocida por ser territorial. Suele intimidar a otros colibr\u00edes o mieleros con enviones a gran velocidad tratando de defender las flores y fuentes de alimento de su preferencia.","ispublic":1,"isfriend":0,"isfamily":0},{"id":"49801056031","owner":"54249623@N08","secret":"17a9def8ce","server":"65535","farm":66,"title":"Amazilia Coliazul, Steely-vented Hummingbird (Amazilia saucerottei) (Saucerottia saucerottei)","ispublic":1,"isfriend":0,"isfamily":0},{"id":"49739572923","owner":"105765827@N03","secret":"9d56d7913f","server":"65535","farm":66,"title":"Semana para esculcar memorias y desempolvar registros que ten\u00eda en lista de espera. Turno para esta Saucerottia coliazul. Week to check, select and uncover stored images.","ispublic":1,"isfriend":0,"isfamily":0},{"id":"49740439737","owner":"105765827@N03","secret":"1633438f52","server":"65535","farm":66,"title":"Semana para esculcar memorias y desempolvar registros que ten\u00eda en lista de espera. Turno para esta Saucerottia coliazul. Week to check, select and uncover stored images.","ispublic":1,"isfriend":0,"isfamily":0},{"id":"49739563418","owner":"105765827@N03","secret":"69653bd608","server":"65535","farm":66,"title":"Semana para esculcar memorias y desempolvar registros que ten\u00eda en lista de espera. Turno para esta Saucerottia coliazul. Week to check, select and uncover stored images.","ispublic":1,"isfriend":0,"isfamily":0},{"id":"49739544028","owner":"105765827@N03","secret":"c078948407","server":"65535","farm":66,"title":"Semana para esculcar memorias y desempolvar registros que ten\u00eda en lista de espera. Turno para esta Saucerottia coliazul. Week to check, select and uncover stored images.","ispublic":1,"isfriend":0,"isfamily":0},{"id":"49729823078","owner":"54249623@N08","secret":"64a7abc14d","server":"65535","farm":66,"title":"Amazilia Coliazul, Steely-vented Hummingbird (Amazilia saucerottei)","ispublic":1,"isfriend":0,"isfamily":0},{"id":"49576786933","owner":"105765827@N03","secret":"e5f6732c8d","server":"65535","farm":66,"title":"Esta bella amazilia saucerottei es reconocida por ser territorial. Suele intimidar a otros colibr\u00edes o mieleros con enviones a gran velocidad tratando de defender las flores y fuentes de alimento de su preferencia.","ispublic":1,"isfriend":0,"isfamily":0},{"id":"49577520007","owner":"105765827@N03","secret":"055c98db48","server":"65535","farm":66,"title":"Esta bella amazilia saucerottei es reconocida por ser territorial. Suele intimidar a otros colibr\u00edes o mieleros con enviones a gran velocidad tratando de defender las flores y fuentes de alimento de su preferencia.","ispublic":1,"isfriend":0,"isfamily":0},{"id":"49577510362","owner":"105765827@N03","secret":"d086f44b95","server":"65535","farm":66,"title":"Esta bella amazilia saucerottei es reconocida por ser territorial. Suele intimidar a otros colibr\u00edes o mieleros con enviones a gran velocidad tratando de defender las flores y fuentes de alimento de su preferencia.","ispublic":1,"isfriend":0,"isfamily":0},{"id":"49576769583","owner":"105765827@N03","secret":"54e12db625","server":"65535","farm":66,"title":"Esta bella amazilia saucerottei es reconocida por ser territorial. Suele intimidar a otros colibr\u00edes o mieleros con enviones a gran velocidad tratando de defender las flores y fuentes de alimento de su preferencia.","ispublic":1,"isfriend":0,"isfamily":0},{"id":"49576765843","owner":"105765827@N03","secret":"45caa02f93","server":"65535","farm":66,"title":"Esta bella amazilia saucerottei es reconocida por ser territorial. Suele intimidar a otros colibr\u00edes o mieleros con enviones a gran velocidad tratando de defender las flores y fuentes de alimento de su preferencia.","ispublic":1,"isfriend":0,"isfamily":0},{"id":"49211411336","owner":"132508209@N08","secret":"17f3a88224","server":"65535","farm":66,"title":"Steely-vented Hummingbird (Saucerottia saucerottei)","ispublic":1,"isfriend":0,"isfamily":0},{"id":"49211634552","owner":"132508209@N08","secret":"e03f9df219","server":"65535","farm":66,"title":"Steely-vented Hummingbird (Saucerottia saucerottei)","ispublic":1,"isfriend":0,"isfamily":0},{"id":"32595608147","owner":"86585370@N00","secret":"0975ed2c1e","server":"7925","farm":8,"title":"Steely-vented Hummingbird \/\/ Amazilia Culiazul","ispublic":1,"isfriend":0,"isfamily":0},{"id":"33649922408","owner":"52346729@N04","secret":"029387f9e4","server":"7924","farm":8,"title":"Saucerottia (formerly Amazilia) saucerottei - Amazilia coliazul - Steely-vented Hummingbird","ispublic":1,"isfriend":0,"isfamily":0},{"id":"33639943328","owner":"52346729@N04","secret":"f53e8aaacb","server":"7824","farm":8,"title":"Saucerottia (Amazilia) saucerottei - Amazilia coliazul - Steely-vented Hummingbird","ispublic":1,"isfriend":0,"isfamily":0},{"id":"28005954748","owner":"58604544@N06","secret":"fb166a007a","server":"973","farm":1,"title":"Steely-vented Hummingbird","ispublic":1,"isfriend":0,"isfamily":0},{"id":"37799772555","owner":"147283349@N08","secret":"bced8210c0","server":"4579","farm":5,"title":"Saucerottia saucerottei","ispublic":1,"isfriend":0,"isfamily":0},{"id":"35942383332","owner":"29170368@N03","secret":"3e37041747","server":"65535","farm":66,"title":"Steely-vented Hummingbird","ispublic":1,"isfriend":0,"isfamily":0},{"id":"35942381972","owner":"29170368@N03","secret":"62cffc4c9e","server":"65535","farm":66,"title":"Steely-vented Hummingbird","ispublic":1,"isfriend":0,"isfamily":0},{"id":"30479126943","owner":"12278268@N08","secret":"9d19f0842e","server":"5483","farm":6,"title":"Steely-vented Hummingbird (Saucerottia saucerottei)","ispublic":1,"isfriend":0,"isfamily":0},{"id":"31142600632","owner":"12278268@N08","secret":"21761331af","server":"5494","farm":6,"title":"Steely-vented Hummingbird (Saucerottia saucerottei)","ispublic":1,"isfriend":0,"isfamily":0},{"id":"30465069434","owner":"12278268@N08","secret":"de2fd538c3","server":"5740","farm":6,"title":"Steely-vented Hummingbird (Saucerottia saucerottei)","ispublic":1,"isfriend":0,"isfamily":0},{"id":"31286979875","owner":"12278268@N08","secret":"89a4731ffc","server":"5694","farm":6,"title":"Steely-vented Hummingbird (Saucerottia saucerottei)","ispublic":1,"isfriend":0,"isfamily":0},{"id":"31286976375","owner":"12278268@N08","secret":"cc35a0d04d","server":"5602","farm":6,"title":"Steely-vented Hummingbird (Saucerottia saucerottei)","ispublic":1,"isfriend":0,"isfamily":0},{"id":"29794665143","owner":"24201429@N04","secret":"f06aa662b4","server":"8558","farm":9,"title":"Amazilia saucerottei \/ Amazilia coliazul \/ Steely-vented Hummingbird","ispublic":1,"isfriend":0,"isfamily":0},{"id":"26383261421","owner":"24201429@N04","secret":"b9f4b9e732","server":"1570","farm":2,"title":"Amazilia saucerottei \/ Amazilia coliazul \/ Steely-vented Hummingbird","ispublic":1,"isfriend":0,"isfamily":0},{"id":"25115669662","owner":"12278268@N08","secret":"647e4579dd","server":"65535","farm":66,"title":"Steely-vented Hummingbird (Saucerottia saucerottei)","ispublic":1,"isfriend":0,"isfamily":0},{"id":"25115592852","owner":"12278268@N08","secret":"676e1df2bf","server":"1534","farm":2,"title":"Steely-vented Hummingbird (Saucerottia saucerottei)","ispublic":1,"isfriend":0,"isfamily":0},{"id":"24607045273","owner":"12278268@N08","secret":"ed02c27769","server":"1494","farm":2,"title":"Steely-vented Hummingbird (Saucerottia saucerottei)","ispublic":1,"isfriend":0,"isfamily":0},{"id":"23383246043","owner":"56686021@N04","secret":"b32f5e5d0e","server":"5718","farm":6,"title":"Blue-vented Hummingbird","ispublic":1,"isfriend":0,"isfamily":0},{"id":"24010046345","owner":"56686021@N04","secret":"58e1c66ce2","server":"5649","farm":6,"title":"Blue-vented Hummingbird","ispublic":1,"isfriend":0,"isfamily":0},{"id":"23343473963","owner":"56686021@N04","secret":"72d19777db","server":"1551","farm":2,"title":"Blue-vented Hummingbird","ispublic":1,"isfriend":0,"isfamily":0},{"id":"23589592710","owner":"12433263@N06","secret":"e920172261","server":"634","farm":1,"title":"Amazilia saucerottei (Steely-vented Hummingbird - Amazilia Verdiazul)","ispublic":1,"isfriend":0,"isfamily":0},{"id":"21635300685","owner":"12185056@N02","secret":"58a576c6f8","server":"569","farm":1,"title":"Another Steely-vented Hummingbird","ispublic":1,"isfriend":0,"isfamily":0},{"id":"17469293503","owner":"52799999@N06","secret":"78fd70685c","server":"7724","farm":8,"title":"Steely-vented Hummingbird. Saucerottia saucerottei","ispublic":1,"isfriend":0,"isfamily":0},{"id":"52515497738","owner":"56686021@N04","secret":"a20891c8e4","server":"65535","farm":66,"title":"Steely-vented Hummingbird","ispublic":1,"isfriend":0,"isfamily":0},{"id":"52244613679","owner":"45681418@N03","secret":"55523abe0e","server":"65535","farm":66,"title":"Steely-vented Hummingbird (Saucerottia saucerottei)","ispublic":1,"isfriend":0,"isfamily":0},{"id":"51754935597","owner":"37493716@N02","secret":"5c5dc19d7a","server":"65535","farm":66,"title":"Fauna RNA Arrierito Antioque\u00f1o","ispublic":1,"isfriend":0,"isfamily":0},{"id":"51584549126","owner":"141178418@N05","secret":"41a67170f5","server":"65535","farm":66,"title":"Amazilia saucerottei - Saucerottia saucerottei - Amazilia Coliazul","ispublic":1,"isfriend":0,"isfamily":0},{"id":"51288950661","owner":"25486180@N07","secret":"926de19432","server":"65535","farm":66,"title":"Steely-vented hummingbird, Saucerottia saucerottei","ispublic":1,"isfriend":0,"isfamily":0},{"id":"50081772797","owner":"105765827@N03","secret":"f346bec5bb","server":"65535","farm":66,"title":"Lo dicho\u2026 a veces vas en b\u00fasqueda de un ave y esta siempre va un paso m\u00e1s all\u00e1 der tu alcance pero a veces te quedas quieto y ellas vienen y se posan ah\u00ed al alcance de tus manos.","ispublic":1,"isfriend":0,"isfamily":0},{"id":"49577514937","owner":"105765827@N03","secret":"92621696b9","server":"65535","farm":66,"title":"Esta bella amazilia saucerottei es reconocida por ser territorial. Suele intimidar a otros colibr\u00edes o mieleros con enviones a gran velocidad tratando de defender las flores y fuentes de alimento de su preferencia.","ispublic":1,"isfriend":0,"isfamily":0},{"id":"33077991695","owner":"12278268@N08","secret":"e03c68515e","server":"349","farm":1,"title":"Steely-vented Hummingbird (Saucerottia saucerottei)","ispublic":1,"isfriend":0,"isfamily":0},{"id":"31286998955","owner":"12278268@N08","secret":"119272e7cd","server":"5328","farm":6,"title":"Steely-vented Hummingbird (Saucerottia saucerottei)","ispublic":1,"isfriend":0,"isfamily":0},{"id":"26422062786","owner":"24201429@N04","secret":"a59e1bf8e2","server":"1483","farm":2,"title":"Amazilia saucerottei \/ Amazilia coliazul \/ Steely-vented HummingbirdMG_6988","ispublic":1,"isfriend":0,"isfamily":0},{"id":"25842929254","owner":"24201429@N04","secret":"883a21be20","server":"1560","farm":2,"title":"Amazilia saucerottei \/ Amazilia coliazul \/ Steely-vented Hummingbird","ispublic":1,"isfriend":0,"isfamily":0},{"id":"19374309919","owner":"12433263@N06","secret":"608e869df8","server":"368","farm":1,"title":"Amazilia saucerrottei (Steely-vented Hummingbird)","ispublic":1,"isfriend":0,"isfamily":0}]},"stat":"ok"}