{"photos":{"page":1,"pages":4,"perpage":100,"total":397,"photo":[{"id":"52615016847","owner":"64862335@N02","secret":"4e528ebd03","server":"65535","farm":66,"title":"Stitchbird or Hihi","ispublic":1,"isfriend":0,"isfamily":0},{"id":"51691961336","owner":"48294953@N08","secret":"bb1d1e3475","server":"65535","farm":66,"title":"hihi bum","ispublic":1,"isfriend":0,"isfamily":0},{"id":"51692834765","owner":"48294953@N08","secret":"6667334278","server":"65535","farm":66,"title":"We were subject to a flurry of hihi at the RTL feeders yesterday","ispublic":1,"isfriend":0,"isfamily":0},{"id":"51692827495","owner":"48294953@N08","secret":"1ecddd67de","server":"65535","farm":66,"title":"the male hihi are busy feeding their nests","ispublic":1,"isfriend":0,"isfamily":0},{"id":"51692617969","owner":"48294953@N08","secret":"dce39f9dce","server":"65535","farm":66,"title":"IMG_7808","ispublic":1,"isfriend":0,"isfamily":0},{"id":"51691139352","owner":"48294953@N08","secret":"e3fffd26fa","server":"65535","farm":66,"title":"IMG_7823","ispublic":1,"isfriend":0,"isfamily":0},{"id":"51692825020","owner":"48294953@N08","secret":"b16613bca0","server":"65535","farm":66,"title":"IMG_7805","ispublic":1,"isfriend":0,"isfamily":0},{"id":"51276742347","owner":"125337794@N03","secret":"f2782aa145","server":"65535","farm":66,"title":"Stitchbird (Notiomystis cincta)","ispublic":1,"isfriend":0,"isfamily":0},{"id":"51220600327","owner":"125337794@N03","secret":"aa10ddaab6","server":"65535","farm":66,"title":"Stitchbird (Notiomystis cincta)","ispublic":1,"isfriend":0,"isfamily":0},{"id":"51067123867","owner":"191391950@N02","secret":"c1686e7e66","server":"65535","farm":66,"title":"Stitchbird (Notiomystis cincta)","ispublic":1,"isfriend":0,"isfamily":0},{"id":"50998677142","owner":"24517262@N06","secret":"370fb4dfec","server":"65535","farm":66,"title":"Hihi - Stitchbird (Male)","ispublic":1,"isfriend":0,"isfamily":0},{"id":"50669888813","owner":"24517262@N06","secret":"0b22369776","server":"65535","farm":66,"title":"Back from the Brink","ispublic":1,"isfriend":0,"isfamily":0},{"id":"50603086326","owner":"152088905@N05","secret":"ccf9353757","server":"65535","farm":66,"title":"Hihi  Stitchbird [male]","ispublic":1,"isfriend":0,"isfamily":0},{"id":"49902844561","owner":"53216976@N02","secret":"39a175fe5e","server":"65535","farm":66,"title":"1208665621","ispublic":1,"isfriend":0,"isfamily":0},{"id":"49813776653","owner":"188007943@N06","secret":"6a976783bc","server":"65535","farm":66,"title":"Stitchbird (Notiomystis cincta), Tiritiri-Matangi, New-Zealand","ispublic":1,"isfriend":0,"isfamily":0},{"id":"49811651983","owner":"83872341@N00","secret":"b6aeb4e7da","server":"65535","farm":66,"title":"Female Stitchbird","ispublic":1,"isfriend":0,"isfamily":0},{"id":"49693837561","owner":"117755141@N02","secret":"15fbe10d1f","server":"65535","farm":66,"title":"Stitchbird - hihi (Notiomystis cincta) female","ispublic":1,"isfriend":0,"isfamily":0},{"id":"49684682792","owner":"68608379@N00","secret":"1a1d976ddc","server":"65535","farm":66,"title":"Hihi (Female)","ispublic":1,"isfriend":0,"isfamily":0},{"id":"49484883808","owner":"90816109@N04","secret":"c648e560ae","server":"65535","farm":66,"title":"Stitchbird","ispublic":1,"isfriend":0,"isfamily":0},{"id":"49479994937","owner":"68608379@N00","secret":"aa713d2c38","server":"65535","farm":66,"title":"Fearless Male Hihi","ispublic":1,"isfriend":0,"isfamily":0},{"id":"49439929562","owner":"19731486@N07","secret":"74fc76edc3","server":"65535","farm":66,"title":"IMG_7868","ispublic":1,"isfriend":0,"isfamily":0},{"id":"49261694016","owner":"68608379@N00","secret":"d4180722f3","server":"65535","farm":66,"title":"Hihi (Green-Metal Yellow-Black)","ispublic":1,"isfriend":0,"isfamily":0},{"id":"49240495946","owner":"50136865@N00","secret":"ed5d8030d0","server":"65535","farm":66,"title":"Hihi - stitchbird - Notiomystis cincta","ispublic":1,"isfriend":0,"isfamily":0},{"id":"48802462188","owner":"87615810@N00","secret":"62969117c2","server":"65535","farm":66,"title":"Hihi \/ Stitchbird","ispublic":1,"isfriend":0,"isfamily":0},{"id":"48557913811","owner":"134849352@N05","secret":"1ebfb1a7f6","server":"65535","farm":66,"title":"Stitchbird","ispublic":1,"isfriend":0,"isfamily":0},{"id":"46494073604","owner":"38053299@N08","secret":"c294c3da25","server":"7834","farm":8,"title":"Stitchbird (Hihi)","ispublic":1,"isfriend":0,"isfamily":0},{"id":"47032029392","owner":"125602145@N06","secret":"05ed0d95f1","server":"7805","farm":8,"title":"Stitchbird or hihi - male (Notiomystis cincta)","ispublic":1,"isfriend":0,"isfamily":0},{"id":"32430735748","owner":"88972033@N05","secret":"b17d44b441","server":"4888","farm":5,"title":"Stitchbird (male)","ispublic":1,"isfriend":0,"isfamily":0},{"id":"32430731288","owner":"88972033@N05","secret":"018c9402b8","server":"4860","farm":5,"title":"Stitchbird (female)","ispublic":1,"isfriend":0,"isfamily":0},{"id":"31344258917","owner":"156667445@N07","secret":"e5d5529d74","server":"4819","farm":5,"title":"Stitchbird (Notiomystis cincta)","ispublic":1,"isfriend":0,"isfamily":0},{"id":"31169659938","owner":"164974922@N02","secret":"eb94fd2f44","server":"1913","farm":2,"title":"Stitchbird 1 (Notiomystis cincta)","ispublic":1,"isfriend":0,"isfamily":0},{"id":"28467798457","owner":"53358437@N07","secret":"ac11062a6b","server":"836","farm":1,"title":"Stitchbird (Notiomystis cincta)","ispublic":1,"isfriend":0,"isfamily":0},{"id":"40031801444","owner":"40195635@N03","secret":"c29d01f400","server":"65535","farm":66,"title":"Stitchbird (Notiomystis cincta)","ispublic":1,"isfriend":0,"isfamily":0},{"id":"40310138011","owner":"7272097@N08","secret":"6e25ab8c6d","server":"4649","farm":5,"title":"Stitchbird \/ Hihi","ispublic":1,"isfriend":0,"isfamily":0},{"id":"38886960325","owner":"28911175@N06","secret":"1421452402","server":"4602","farm":5,"title":"feederstitch","ispublic":1,"isfriend":0,"isfamily":0},{"id":"38099604394","owner":"68608379@N00","secret":"33b2e75819","server":"4563","farm":5,"title":"Hihi - classic pose","ispublic":1,"isfriend":0,"isfamily":0},{"id":"35796990340","owner":"68608379@N00","secret":"c977ee5dd1","server":"4303","farm":5,"title":"Hihi\/Stitchbird being curious","ispublic":1,"isfriend":0,"isfamily":0},{"id":"34904670884","owner":"68608379@N00","secret":"451596b9fc","server":"4241","farm":5,"title":"Hihi - female - unbanded","ispublic":1,"isfriend":0,"isfamily":0},{"id":"35563970832","owner":"68608379@N00","secret":"76a0f4998e","server":"4118","farm":5,"title":"Hihi - male - YO-Bm","ispublic":1,"isfriend":0,"isfamily":0},{"id":"35732490885","owner":"68608379@N00","secret":"8f11e41f42","server":"4237","farm":5,"title":"Hihi - female - Ym-BG","ispublic":1,"isfriend":0,"isfamily":0},{"id":"35692392716","owner":"68608379@N00","secret":"a0d616a2b1","server":"4040","farm":5,"title":"Hihi - female - OB-Bm","ispublic":1,"isfriend":0,"isfamily":0},{"id":"34890968324","owner":"68608379@N00","secret":"3c4b93b9fa","server":"4113","farm":5,"title":"Hihi - male - GG-??","ispublic":1,"isfriend":0,"isfamily":0},{"id":"35692264686","owner":"68608379@N00","secret":"3994dd0eff","server":"4241","farm":5,"title":"Hihi - female - RY-Ym","ispublic":1,"isfriend":0,"isfamily":0},{"id":"35517296816","owner":"125602145@N06","secret":"5af0306fc4","server":"4234","farm":5,"title":"Stitchbird (Notiomystis cincta)","ispublic":1,"isfriend":0,"isfamily":0},{"id":"51999678112","owner":"103286041@N02","secret":"a953005752","server":"65535","farm":66,"title":"hihi 45522","ispublic":1,"isfriend":0,"isfamily":0},{"id":"51905056368","owner":"121917432@N02","secret":"8f426206c2","server":"65535","farm":66,"title":"Stitchbird (Notiomystis cincta)","ispublic":1,"isfriend":0,"isfamily":0},{"id":"51904972641","owner":"121917432@N02","secret":"4e24b9da10","server":"65535","farm":66,"title":"Stitchbird (Notiomystis cincta)","ispublic":1,"isfriend":0,"isfamily":0},{"id":"51905609830","owner":"121917432@N02","secret":"381524fdba","server":"65535","farm":66,"title":"Stitchbird (Notiomystis cincta)","ispublic":1,"isfriend":0,"isfamily":0},{"id":"51905056138","owner":"121917432@N02","secret":"cc74d874d5","server":"65535","farm":66,"title":"Stitchbird (Notiomystis cincta)","ispublic":1,"isfriend":0,"isfamily":0},{"id":"51904004007","owner":"121917432@N02","secret":"4eca969dff","server":"65535","farm":66,"title":"Stitchbird (Notiomystis cincta)","ispublic":1,"isfriend":0,"isfamily":0},{"id":"51905292524","owner":"121917432@N02","secret":"a2d24a9198","server":"65535","farm":66,"title":"Stitchbird (Notiomystis cincta)","ispublic":1,"isfriend":0,"isfamily":0},{"id":"51905292459","owner":"121917432@N02","secret":"9e3f928d2d","server":"65535","farm":66,"title":"Stitchbird (Notiomystis cincta)","ispublic":1,"isfriend":0,"isfamily":0},{"id":"51905609500","owner":"121917432@N02","secret":"237d968b3f","server":"65535","farm":66,"title":"Stitchbird (Notiomystis cincta)","ispublic":1,"isfriend":0,"isfamily":0},{"id":"51905055758","owner":"121917432@N02","secret":"af9e314564","server":"65535","farm":66,"title":"Stitchbird (Notiomystis cincta)","ispublic":1,"isfriend":0,"isfamily":0},{"id":"51904003562","owner":"121917432@N02","secret":"6bc6b0da19","server":"65535","farm":66,"title":"Stitchbird (Notiomystis cincta)","ispublic":1,"isfriend":0,"isfamily":0},{"id":"51905292039","owner":"121917432@N02","secret":"4c4dc446f8","server":"65535","farm":66,"title":"Stitchbird (Notiomystis cincta)","ispublic":1,"isfriend":0,"isfamily":0},{"id":"51905291974","owner":"121917432@N02","secret":"636156a0d8","server":"65535","farm":66,"title":"Stitchbird (Notiomystis cincta)","ispublic":1,"isfriend":0,"isfamily":0},{"id":"51760500644","owner":"27727337@N04","secret":"c5e9a3411e","server":"65535","farm":66,"title":"Stitchbird (Notiomystis cincta)","ispublic":1,"isfriend":0,"isfamily":0},{"id":"50602346578","owner":"152088905@N05","secret":"bd836179d0","server":"65535","farm":66,"title":"Hihi  Stitchbird [male]","ispublic":1,"isfriend":0,"isfamily":0},{"id":"50603208557","owner":"152088905@N05","secret":"89ca450bb4","server":"65535","farm":66,"title":"Hihi  Stitchbird [male]","ispublic":1,"isfriend":0,"isfamily":0},{"id":"50603086076","owner":"152088905@N05","secret":"177430d341","server":"65535","farm":66,"title":"Hihi  Stitchbird","ispublic":1,"isfriend":0,"isfamily":0},{"id":"50602346343","owner":"152088905@N05","secret":"9177524a53","server":"65535","farm":66,"title":"Hihi  Stitchbird","ispublic":1,"isfriend":0,"isfamily":0},{"id":"50603208377","owner":"152088905@N05","secret":"8cd693e067","server":"65535","farm":66,"title":"Hihi  Stitchbird","ispublic":1,"isfriend":0,"isfamily":0},{"id":"50443678757","owner":"48294953@N08","secret":"c511629e94","server":"65535","farm":66,"title":"hihi","ispublic":1,"isfriend":0,"isfamily":0},{"id":"50155035711","owner":"187469698@N05","secret":"9aab88b6d9","server":"65535","farm":66,"title":"443 Stitchbird - Andrew Walker 002","ispublic":1,"isfriend":0,"isfamily":0},{"id":"49478352271","owner":"186748160@N02","secret":"5bf062bf68","server":"65535","farm":66,"title":"Stitchbird or hihi (Notiomystis cincta)","ispublic":1,"isfriend":0,"isfamily":0},{"id":"49435990063","owner":"129673089@N03","secret":"0420695dce","server":"65535","farm":66,"title":"Stitchbird (Hihi), Notiomystis cincta; it didn't disappoint us.","ispublic":1,"isfriend":0,"isfamily":0},{"id":"49135898518","owner":"16265291@N00","secret":"1ddeebe0c7","server":"65535","farm":66,"title":"Stitch-Bird or Hihi","ispublic":1,"isfriend":0,"isfamily":0},{"id":"49136387566","owner":"16265291@N00","secret":"cd0e95e980","server":"65535","farm":66,"title":"Stitch-Bird or Hihi","ispublic":1,"isfriend":0,"isfamily":0},{"id":"49135898228","owner":"16265291@N00","secret":"6453083c38","server":"65535","farm":66,"title":"Stitch-Bird or Hihi","ispublic":1,"isfriend":0,"isfamily":0},{"id":"49136583757","owner":"16265291@N00","secret":"ca26c3941c","server":"65535","farm":66,"title":"Stitch-Bird or Hihi","ispublic":1,"isfriend":0,"isfamily":0},{"id":"48802950927","owner":"87615810@N00","secret":"116b3b2a94","server":"65535","farm":66,"title":"Hihi \/ Stitchbird","ispublic":1,"isfriend":0,"isfamily":0},{"id":"48344012546","owner":"48294953@N08","secret":"621fe0168d","server":"65535","farm":66,"title":"hihi eyebrows","ispublic":1,"isfriend":0,"isfamily":0},{"id":"32902714147","owner":"48294953@N08","secret":"f72995a3c2","server":"65535","farm":66,"title":"Hihi","ispublic":1,"isfriend":0,"isfamily":0},{"id":"33476418018","owner":"129081014@N03","secret":"2e1d63cd5c","server":"7816","farm":8,"title":"Stitchbird (Notiomystis cincta)","ispublic":1,"isfriend":0,"isfamily":0},{"id":"46107367135","owner":"8786969@N02","secret":"5d5fc4d1c3","server":"7863","farm":8,"title":"Hihi","ispublic":1,"isfriend":0,"isfamily":0},{"id":"44323343874","owner":"164974922@N02","secret":"2dda704dd1","server":"1901","farm":2,"title":"Stitchbird 2 ( Notiomystis cincta)","ispublic":1,"isfriend":0,"isfamily":0},{"id":"42412927230","owner":"155999728@N08","secret":"51fa675f3b","server":"1873","farm":2,"title":"AP8801 Stitchbird, Notiomystis cincta","ispublic":1,"isfriend":0,"isfamily":0},{"id":"40156880722","owner":"66716461@N04","secret":"05d8446337","server":"4694","farm":5,"title":"stitchbird or hihi (Notiomystis cincta) yellow-blue-green-silver","ispublic":1,"isfriend":0,"isfamily":0},{"id":"39477663464","owner":"66716461@N04","secret":"e3f1008fef","server":"4674","farm":5,"title":"stitchbird or hihi (Notiomystis cincta) unbanded","ispublic":1,"isfriend":0,"isfamily":0},{"id":"39477757454","owner":"66716461@N04","secret":"6fbab44ce3","server":"4711","farm":5,"title":"stitchbird or hihi (Notiomystis cincta) white-silver-black-green","ispublic":1,"isfriend":0,"isfamily":0},{"id":"39198921524","owner":"45285320@N05","secret":"e93f10bd66","server":"4724","farm":5,"title":"Me\u0301liphage hihi (Notiomystis cincta)_1","ispublic":1,"isfriend":0,"isfamily":0},{"id":"28007751789","owner":"28911175@N06","secret":"e70074bbbd","server":"4760","farm":5,"title":"puffy stitchbird","ispublic":1,"isfriend":0,"isfamily":0},{"id":"39754487062","owner":"28911175@N06","secret":"f5524dbcd9","server":"4620","farm":5,"title":"stitch on a twig","ispublic":1,"isfriend":0,"isfamily":0},{"id":"36280024254","owner":"150123829@N02","secret":"2f9f6438ee","server":"4369","farm":5,"title":"Stitchbird (Notiomystis cincta)","ispublic":1,"isfriend":0,"isfamily":0},{"id":"35350766864","owner":"68608379@N00","secret":"db2381b240","server":"4308","farm":5,"title":"Hihi - Claws of steel","ispublic":1,"isfriend":0,"isfamily":0},{"id":"35645996251","owner":"156320246@N05","secret":"be2dec4bce","server":"4211","farm":5,"title":"Notiomystis_cincta 15 Hihi or stitchbird Notiomystidae","ispublic":1,"isfriend":0,"isfamily":0},{"id":"35737140116","owner":"156320246@N05","secret":"2aa8ece288","server":"4012","farm":5,"title":"Notiomystis_cincta 128 Male Stitchbird or Hihi","ispublic":1,"isfriend":0,"isfamily":0},{"id":"35577033712","owner":"68608379@N00","secret":"0fdcd14237","server":"4083","farm":5,"title":"Hihi - male - unbanded","ispublic":1,"isfriend":0,"isfamily":0},{"id":"35613856111","owner":"68608379@N00","secret":"8108ec244c","server":"4099","farm":5,"title":"Hihi - female - Ym-OW","ispublic":1,"isfriend":0,"isfamily":0},{"id":"34714718574","owner":"125602145@N06","secret":"5af1b357e1","server":"4214","farm":5,"title":"Stitchbird (Notiomystis cincta), Maori name:Hihi","ispublic":1,"isfriend":0,"isfamily":0},{"id":"34115100670","owner":"38583117@N07","secret":"d446b7d837","server":"4192","farm":5,"title":"Hihi","ispublic":1,"isfriend":0,"isfamily":0},{"id":"33124292875","owner":"132462193@N02","secret":"dcc1a70c31","server":"2945","farm":3,"title":"Stitchbird \/ hihi (Notiomystis cincta)","ispublic":1,"isfriend":0,"isfamily":0},{"id":"32055577646","owner":"38583117@N07","secret":"44b4d9a375","server":"747","farm":1,"title":"Hihi","ispublic":1,"isfriend":0,"isfamily":0},{"id":"31253343704","owner":"38583117@N07","secret":"c8b7d9f0df","server":"510","farm":1,"title":"Hihi","ispublic":1,"isfriend":0,"isfamily":0},{"id":"31827571061","owner":"121799499@N03","secret":"5e7f1dc055","server":"323","farm":1,"title":"IMG_8170","ispublic":1,"isfriend":0,"isfamily":0},{"id":"30960033682","owner":"89983334@N00","secret":"b7ca438cbe","server":"5693","farm":6,"title":"Stitchbird","ispublic":1,"isfriend":0,"isfamily":0},{"id":"30295719573","owner":"89983334@N00","secret":"2298e43962","server":"5833","farm":6,"title":"Stitchbird","ispublic":1,"isfriend":0,"isfamily":0},{"id":"30874716575","owner":"38583117@N07","secret":"4a493e8695","server":"5544","farm":6,"title":"Hihi","ispublic":1,"isfriend":0,"isfamily":0},{"id":"29193978734","owner":"72765183@N07","secret":"c0ef43f089","server":"8405","farm":9,"title":"Hihi (Notiomystis cincta), Tiritiri Matangi Island, New Zealand","ispublic":1,"isfriend":0,"isfamily":0}]},"stat":"ok"}