{"photos":{"page":1,"pages":2,"perpage":100,"total":187,"photo":[{"id":"52767261209","owner":"32136583@N04","secret":"553568938d","server":"65535","farm":66,"title":"Streak Eared Bulbul","ispublic":1,"isfriend":0,"isfamily":0},{"id":"52760730422","owner":"7482089@N04","secret":"3c1dfce80c","server":"65535","farm":66,"title":"Streak-eared Bulbul, Pycnonotus conradi","ispublic":1,"isfriend":0,"isfamily":0},{"id":"52711145553","owner":"12240837@N08","secret":"005a70d9ef","server":"65535","farm":66,"title":"Streak-eared Bulbul (pycnonotus conradi)","ispublic":1,"isfriend":0,"isfamily":0},{"id":"52711083795","owner":"12240837@N08","secret":"83c4a920e3","server":"65535","farm":66,"title":"Streak-eared Bulbul (pycnonotus conradi)","ispublic":1,"isfriend":0,"isfamily":0},{"id":"52711083780","owner":"12240837@N08","secret":"dbc5e6d6c9","server":"65535","farm":66,"title":"Streak-eared Bulbul (pycnonotus conradi)","ispublic":1,"isfriend":0,"isfamily":0},{"id":"52697686409","owner":"7200351@N08","secret":"66d46d5a26","server":"65535","farm":66,"title":"Pycnonotus conradi","ispublic":1,"isfriend":0,"isfamily":0},{"id":"52664945875","owner":"7200351@N08","secret":"55e8396e2e","server":"65535","farm":66,"title":"Pycnonotus conradi","ispublic":1,"isfriend":0,"isfamily":0},{"id":"52664802324","owner":"7200351@N08","secret":"ed4d1bb01a","server":"65535","farm":66,"title":"Pycnonotus conradi","ispublic":1,"isfriend":0,"isfamily":0},{"id":"52653867391","owner":"12240837@N08","secret":"a30f6190e1","server":"65535","farm":66,"title":"Streak-eared Bulbul (pycnonotus conradi)","ispublic":1,"isfriend":0,"isfamily":0},{"id":"52641701280","owner":"57779000@N00","secret":"a6a39b011d","server":"65535","farm":66,"title":"Streak-Eared Bulbul","ispublic":1,"isfriend":0,"isfamily":0},{"id":"52629884972","owner":"57779000@N00","secret":"511e14bedd","server":"65535","farm":66,"title":"Streak-eared bulbul","ispublic":1,"isfriend":0,"isfamily":0},{"id":"52610434482","owner":"45505361@N08","secret":"2d3f79d69d","server":"65535","farm":66,"title":"Pycnonotus conradi","ispublic":1,"isfriend":0,"isfamily":0},{"id":"52610434362","owner":"45505361@N08","secret":"8fc17355bd","server":"65535","farm":66,"title":"Pycnonotus conradi","ispublic":1,"isfriend":0,"isfamily":0},{"id":"52609147550","owner":"69620106@N05","secret":"cda23ccdaa","server":"65535","farm":66,"title":"Streak-eared bulbul (Pycnonotus conradi) \u00a9","ispublic":1,"isfriend":0,"isfamily":0},{"id":"52266014067","owner":"76617062@N08","secret":"68b9e36431","server":"65535","farm":66,"title":"1.21518 Bulbul de Blanford \/ Pycnonotus conradi \/ Streak-eared Bulbul","ispublic":1,"isfriend":0,"isfamily":0},{"id":"52189463162","owner":"107784905@N04","secret":"3eb25dabd6","server":"65535","farm":66,"title":"Bulbul de Conrad - Ban Song Nok\/Phetchaburi\/TH_20191125_009-1","ispublic":1,"isfriend":0,"isfamily":0},{"id":"51875632270","owner":"61485851@N06","secret":"1254442c96","server":"65535","farm":66,"title":"Streak-eared bulbul","ispublic":1,"isfriend":0,"isfamily":0},{"id":"51875626105","owner":"61485851@N06","secret":"de284b614a","server":"65535","farm":66,"title":"Streak-eared bulbul","ispublic":1,"isfriend":0,"isfamily":0},{"id":"51859806169","owner":"61485851@N06","secret":"a806934421","server":"65535","farm":66,"title":"Streak-eared bulbul (Lifer #361)","ispublic":1,"isfriend":0,"isfamily":0},{"id":"51654046349","owner":"11159374@N04","secret":"cc6a4cb3ae","server":"65535","farm":66,"title":"Streak-eared Bulbul","ispublic":1,"isfriend":0,"isfamily":0},{"id":"51564406227","owner":"107784905@N04","secret":"aeefb6ce6f","server":"65535","farm":66,"title":"Bulbul de Conrad - Ban Song Nok\/Phetchaburi\/TH_20191125_132","ispublic":1,"isfriend":0,"isfamily":0},{"id":"51400708112","owner":"106773832@N02","secret":"c75c868fff","server":"65535","farm":66,"title":"Streak-eared Bulbul (Pycnonotus conradi)-0975","ispublic":1,"isfriend":0,"isfamily":0},{"id":"51133260763","owner":"107784905@N04","secret":"2c25a9a5f7","server":"65535","farm":66,"title":"Bulbul de Conrad - Ban Luang\/Chiang Mai\/TH_20191201_005-1","ispublic":1,"isfriend":0,"isfamily":0},{"id":"50921406718","owner":"11159374@N04","secret":"ea2ca994ed","server":"65535","farm":66,"title":"Streak-eared Bulbul","ispublic":1,"isfriend":0,"isfamily":0},{"id":"50907448336","owner":"140734051@N08","secret":"4e02b9ecb8","server":"65535","farm":66,"title":"\u041f\u0435\u0441\u0442\u0440\u043e\u0449\u0451\u043a\u0438\u0439 \u0431\u044e\u043b\u044c\u0431\u044e\u043b\u044c, Pycnonotus conradi, Streak-eared Bulbul","ispublic":1,"isfriend":0,"isfamily":0},{"id":"50907448321","owner":"140734051@N08","secret":"04f65c4e01","server":"65535","farm":66,"title":"\u041f\u0435\u0441\u0442\u0440\u043e\u0449\u0451\u043a\u0438\u0439 \u0431\u044e\u043b\u044c\u0431\u044e\u043b\u044c, Pycnonotus conradi, Streak-eared Bulbul","ispublic":1,"isfriend":0,"isfamily":0},{"id":"50907577862","owner":"140734051@N08","secret":"2625e6a47d","server":"65535","farm":66,"title":"\u041f\u0435\u0441\u0442\u0440\u043e\u0449\u0451\u043a\u0438\u0439 \u0431\u044e\u043b\u044c\u0431\u044e\u043b\u044c, Pycnonotus conradi, Streak-eared Bulbul","ispublic":1,"isfriend":0,"isfamily":0},{"id":"50901453212","owner":"106773832@N02","secret":"8fd2636a26","server":"65535","farm":66,"title":"Streak-eared Bulbul (Pycnonotus conradi)-4858","ispublic":1,"isfriend":0,"isfamily":0},{"id":"50705989238","owner":"107784905@N04","secret":"67734221c2","server":"65535","farm":66,"title":"Bulbul de Conrad - Ban Song Nok\/Phetchaburi\/TH_20191125_008-1","ispublic":1,"isfriend":0,"isfamily":0},{"id":"50432080073","owner":"107784905@N04","secret":"de57a46b9b","server":"65535","farm":66,"title":"Bulbul de Conrad - Ban Song Nok\/Phetchaburi\/TH_20191125_006-1","ispublic":1,"isfriend":0,"isfamily":0},{"id":"50243711663","owner":"106773832@N02","secret":"af54e78592","server":"65535","farm":66,"title":"Streak-eared Bulbul (Pycnonotus conradi)-3609","ispublic":1,"isfriend":0,"isfamily":0},{"id":"49833015292","owner":"11159374@N04","secret":"35641cef98","server":"65535","farm":66,"title":"Streak-eared Bulbul","ispublic":1,"isfriend":0,"isfamily":0},{"id":"49774753097","owner":"184155060@N04","secret":"bb11f750f3","server":"65535","farm":66,"title":"23618 Bulbul de Conrad 1 \/ Pycnonotus conradi \/ Streak-eared Bulbul","ispublic":1,"isfriend":0,"isfamily":0},{"id":"49773891288","owner":"184155060@N04","secret":"7890053ef1","server":"65535","farm":66,"title":"23618 Bulbul de Conrad 2 \/ Pycnonotus conradi \/ Streak-eared Bulbul","ispublic":1,"isfriend":0,"isfamily":0},{"id":"49769494241","owner":"72271115@N02","secret":"8df3741e58","server":"65535","farm":66,"title":"Streak-eared Bulbul ---- Pycnonotus conradi","ispublic":1,"isfriend":0,"isfamily":0},{"id":"49731022497","owner":"76617062@N08","secret":"fdeb25c34f","server":"65535","farm":66,"title":"1.21518 Bulbul de Blanford \/ Pycnonotus blanfordi conradi \/ Streak-eared Bulbul","ispublic":1,"isfriend":0,"isfamily":0},{"id":"49669369587","owner":"72271115@N02","secret":"d796b51451","server":"65535","farm":66,"title":"Streak-eared Bulbul ---- Pycnonotus conradi","ispublic":1,"isfriend":0,"isfamily":0},{"id":"49633472731","owner":"8264176@N02","secret":"8c062b7889","server":"65535","farm":66,"title":"Conrads buulbuul, Streak-eared Bulbul, Pycnonotus conradi-2191577","ispublic":1,"isfriend":0,"isfamily":0},{"id":"49579270366","owner":"22639527@N05","secret":"6e25b0e95b","server":"65535","farm":66,"title":"Ayeyarwady Bulbul","ispublic":1,"isfriend":0,"isfamily":0},{"id":"49554956731","owner":"46848480@N00","secret":"02b96cc86f","server":"65535","farm":66,"title":"20190615-1DX28353","ispublic":1,"isfriend":0,"isfamily":0},{"id":"49554956631","owner":"46848480@N00","secret":"d77a5042ec","server":"65535","farm":66,"title":"20190615-1DX28359","ispublic":1,"isfriend":0,"isfamily":0},{"id":"49554462513","owner":"46848480@N00","secret":"1ed6d92a9a","server":"65535","farm":66,"title":"20190615-1DX28361","ispublic":1,"isfriend":0,"isfamily":0},{"id":"49555198702","owner":"46848480@N00","secret":"26dedf230c","server":"65535","farm":66,"title":"20190615-1DX28363","ispublic":1,"isfriend":0,"isfamily":0},{"id":"49473403371","owner":"107784905@N04","secret":"92101610e6","server":"65535","farm":66,"title":"Bulbul de Conrad - Bang Pu Recreation Area\/Samut Prakan\/TH_20191220_374","ispublic":1,"isfriend":0,"isfamily":0},{"id":"49320241276","owner":"90826845@N04","secret":"ce53a5a9dd","server":"65535","farm":66,"title":"Streak-eared Bulbul  (Pycnonotus conradi)","ispublic":1,"isfriend":0,"isfamily":0},{"id":"49309273923","owner":"186211059@N06","secret":"61da8893e5","server":"65535","farm":66,"title":"Streak-eared Bulbul","ispublic":1,"isfriend":0,"isfamily":0},{"id":"49159889748","owner":"37934762@N02","secret":"0d55c53d3d","server":"65535","farm":66,"title":"Streak-eared Bulbul - Pycnonotus conradi","ispublic":1,"isfriend":0,"isfamily":0},{"id":"49160603277","owner":"37934762@N02","secret":"a060301fd0","server":"65535","farm":66,"title":"Streak-eared Bulbul - Pycnonotus conradi","ispublic":1,"isfriend":0,"isfamily":0},{"id":"49159884118","owner":"37934762@N02","secret":"d303bdd840","server":"65535","farm":66,"title":"Streak-eared Bulbul - Pycnonotus conradi","ispublic":1,"isfriend":0,"isfamily":0},{"id":"49148512827","owner":"37934762@N02","secret":"d44cbeded3","server":"65535","farm":66,"title":"Streak-eared Bulbul - Pycnonotus conradi","ispublic":1,"isfriend":0,"isfamily":0},{"id":"49119587613","owner":"46848480@N00","secret":"b718dc5ebd","server":"65535","farm":66,"title":"20190615-1DX27700","ispublic":1,"isfriend":0,"isfamily":0},{"id":"49120282492","owner":"46848480@N00","secret":"9db646fcc9","server":"65535","farm":66,"title":"20190615-1DX27703","ispublic":1,"isfriend":0,"isfamily":0},{"id":"49101084497","owner":"37934762@N02","secret":"b6f4b330e5","server":"65535","farm":66,"title":"Streak-eared Bulbul - Pycnonotus conradi","ispublic":1,"isfriend":0,"isfamily":0},{"id":"49100370718","owner":"37934762@N02","secret":"34710c2da7","server":"65535","farm":66,"title":"Streak-eared Bulbul - Pycnonotus conradi","ispublic":1,"isfriend":0,"isfamily":0},{"id":"49064047387","owner":"46848480@N00","secret":"75f1aef397","server":"65535","farm":66,"title":"20190615-1DX27249","ispublic":1,"isfriend":0,"isfamily":0},{"id":"49046044388","owner":"46848480@N00","secret":"c4fc8e87c4","server":"65535","farm":66,"title":"20190615-1DX26892","ispublic":1,"isfriend":0,"isfamily":0},{"id":"49033360408","owner":"46848480@N00","secret":"ea11da8295","server":"65535","farm":66,"title":"20190615-1DX26825","ispublic":1,"isfriend":0,"isfamily":0},{"id":"52606725574","owner":"191343261@N02","secret":"0ca6c5ca49","server":"65535","farm":66,"title":"Pycnonotus conradi","ispublic":1,"isfriend":0,"isfamily":0},{"id":"52606725539","owner":"191343261@N02","secret":"d733329d43","server":"65535","farm":66,"title":"Pycnonotus conradi","ispublic":1,"isfriend":0,"isfamily":0},{"id":"52606471456","owner":"191343261@N02","secret":"e53328bcd0","server":"65535","farm":66,"title":"Pycnonotus conradi","ispublic":1,"isfriend":0,"isfamily":0},{"id":"52315536908","owner":"89246322@N04","secret":"69dd748598","server":"65535","farm":66,"title":"Streak-eared Bulbul - Pycnonotus conradi","ispublic":1,"isfriend":0,"isfamily":0},{"id":"52136405214","owner":"7200351@N08","secret":"1597fd5269","server":"65535","farm":66,"title":"Pycnonotus conradi","ispublic":1,"isfriend":0,"isfamily":0},{"id":"51947429869","owner":"61827574@N03","secret":"b19c99ba9f","server":"65535","farm":66,"title":"Streak-eared Bulbul - Pycnonotus conradi. .????.","ispublic":1,"isfriend":0,"isfamily":0},{"id":"51402434670","owner":"106773832@N02","secret":"6db0d14cf5","server":"65535","farm":66,"title":"Streak-eared Bulbul (Pycnonotus conradi)-0995","ispublic":1,"isfriend":0,"isfamily":0},{"id":"51401720153","owner":"106773832@N02","secret":"34957465f2","server":"65535","farm":66,"title":"Streak-eared Bulbul (Pycnonotus conradi)-0984","ispublic":1,"isfriend":0,"isfamily":0},{"id":"51401720068","owner":"106773832@N02","secret":"9899817b95","server":"65535","farm":66,"title":"Streak-eared Bulbul (Pycnonotus conradi)-0981","ispublic":1,"isfriend":0,"isfamily":0},{"id":"51268644765","owner":"184662465@N04","secret":"066b125f41","server":"65535","farm":66,"title":"\u0e19\u0e01\u0e1b\u0e23\u0e2d\u0e14\u0e2a\u0e27\u0e19 (Streak-eared Bulbul)","ispublic":1,"isfriend":0,"isfamily":0},{"id":"51098539421","owner":"135094751@N06","secret":"c5dd8a18fc","server":"65535","farm":66,"title":"Pycnonotus conradi","ispublic":1,"isfriend":0,"isfamily":0},{"id":"50907577912","owner":"140734051@N08","secret":"230775c003","server":"65535","farm":66,"title":"\u041f\u0435\u0441\u0442\u0440\u043e\u0449\u0451\u043a\u0438\u0439 \u0431\u044e\u043b\u044c\u0431\u044e\u043b\u044c, Pycnonotus conradi, Streak-eared Bulbul","ispublic":1,"isfriend":0,"isfamily":0},{"id":"50906749963","owner":"140734051@N08","secret":"58bc255dcd","server":"65535","farm":66,"title":"\u041f\u0435\u0441\u0442\u0440\u043e\u0449\u0451\u043a\u0438\u0439 \u0431\u044e\u043b\u044c\u0431\u044e\u043b\u044c, Pycnonotus conradi, Streak-eared Bulbul","ispublic":1,"isfriend":0,"isfamily":0},{"id":"50244345346","owner":"106773832@N02","secret":"569734ca80","server":"65535","farm":66,"title":"Oriental Magpie-robin (Pycnonotus conradi)-3626","ispublic":1,"isfriend":0,"isfamily":0},{"id":"50085753967","owner":"187469698@N05","secret":"6803b6b75d","server":"65535","farm":66,"title":"800 Streak-eared Bulbul - Andrew Walker 001","ispublic":1,"isfriend":0,"isfamily":0},{"id":"49972283167","owner":"55527686@N03","secret":"53539c125b","server":"65535","farm":66,"title":"Streak-eared Bulbul (conradi) - Pycnonotus blanfordi conradi","ispublic":1,"isfriend":0,"isfamily":0},{"id":"49968920992","owner":"55527686@N03","secret":"a216acd3ea","server":"65535","farm":66,"title":"Streak-eared Bulbul (conradi) - Pycnonotus blanfordi conradi","ispublic":1,"isfriend":0,"isfamily":0},{"id":"49953816321","owner":"55527686@N03","secret":"58f19065e9","server":"65535","farm":66,"title":"Streak-eared Bulbul (conradi) - Pycnonotus blanfordi conradi","ispublic":1,"isfriend":0,"isfamily":0},{"id":"49119586883","owner":"46848480@N00","secret":"65ebfa597f","server":"65535","farm":66,"title":"20190615-1DX27702","ispublic":1,"isfriend":0,"isfamily":0},{"id":"49046763092","owner":"46848480@N00","secret":"419006328c","server":"65535","farm":66,"title":"20190615-1DX26840","ispublic":1,"isfriend":0,"isfamily":0},{"id":"49046548336","owner":"46848480@N00","secret":"baef6fe660","server":"65535","farm":66,"title":"20190615-1DX26842","ispublic":1,"isfriend":0,"isfamily":0},{"id":"49046548111","owner":"46848480@N00","secret":"fdd7a2f6ae","server":"65535","farm":66,"title":"20190615-1DX26845","ispublic":1,"isfriend":0,"isfamily":0},{"id":"49046548051","owner":"46848480@N00","secret":"917242b625","server":"65535","farm":66,"title":"20190615-1DX26851","ispublic":1,"isfriend":0,"isfamily":0},{"id":"49046547871","owner":"46848480@N00","secret":"d582db105e","server":"65535","farm":66,"title":"20190615-1DX26856","ispublic":1,"isfriend":0,"isfamily":0},{"id":"49046045898","owner":"46848480@N00","secret":"d88c7bc72b","server":"65535","farm":66,"title":"20190615-1DX26857","ispublic":1,"isfriend":0,"isfamily":0},{"id":"49046762232","owner":"46848480@N00","secret":"d9d471bd24","server":"65535","farm":66,"title":"20190615-1DX26864","ispublic":1,"isfriend":0,"isfamily":0},{"id":"49046045673","owner":"46848480@N00","secret":"a5e01746f5","server":"65535","farm":66,"title":"20190615-1DX26866","ispublic":1,"isfriend":0,"isfamily":0},{"id":"49046547141","owner":"46848480@N00","secret":"854fe8858c","server":"65535","farm":66,"title":"20190615-1DX26873","ispublic":1,"isfriend":0,"isfamily":0},{"id":"49046546981","owner":"46848480@N00","secret":"b0f3c0a550","server":"65535","farm":66,"title":"20190615-1DX26875","ispublic":1,"isfriend":0,"isfamily":0},{"id":"49046546861","owner":"46848480@N00","secret":"8334410246","server":"65535","farm":66,"title":"20190615-1DX26878","ispublic":1,"isfriend":0,"isfamily":0},{"id":"49046546656","owner":"46848480@N00","secret":"47aa49994a","server":"65535","farm":66,"title":"20190615-1DX26880","ispublic":1,"isfriend":0,"isfamily":0},{"id":"49046761257","owner":"46848480@N00","secret":"86f6006a8e","server":"65535","farm":66,"title":"20190615-1DX26883","ispublic":1,"isfriend":0,"isfamily":0},{"id":"49046044588","owner":"46848480@N00","secret":"bd2d34e549","server":"65535","farm":66,"title":"20190615-1DX26891","ispublic":1,"isfriend":0,"isfamily":0},{"id":"49046760617","owner":"46848480@N00","secret":"346109b093","server":"65535","farm":66,"title":"20190615-1DX26898","ispublic":1,"isfriend":0,"isfamily":0},{"id":"49046760557","owner":"46848480@N00","secret":"5c47660d47","server":"65535","farm":66,"title":"20190615-1DX26900","ispublic":1,"isfriend":0,"isfamily":0},{"id":"49033860656","owner":"46848480@N00","secret":"0c69838ddf","server":"65535","farm":66,"title":"20190615-1DX26816","ispublic":1,"isfriend":0,"isfamily":0},{"id":"49033360838","owner":"46848480@N00","secret":"4b43370746","server":"65535","farm":66,"title":"20190615-1DX26819","ispublic":1,"isfriend":0,"isfamily":0},{"id":"49033860241","owner":"46848480@N00","secret":"43852e0358","server":"65535","farm":66,"title":"20190615-1DX26823","ispublic":1,"isfriend":0,"isfamily":0},{"id":"49033859771","owner":"46848480@N00","secret":"338045cdfb","server":"65535","farm":66,"title":"20190615-1DX26829","ispublic":1,"isfriend":0,"isfamily":0},{"id":"49033859551","owner":"46848480@N00","secret":"7135bd1d32","server":"65535","farm":66,"title":"20190615-1DX26836","ispublic":1,"isfriend":0,"isfamily":0},{"id":"49021803628","owner":"46848480@N00","secret":"9a921fccee","server":"65535","farm":66,"title":"20190615-1DX26574","ispublic":1,"isfriend":0,"isfamily":0},{"id":"49021803483","owner":"46848480@N00","secret":"c88b8c9a29","server":"65535","farm":66,"title":"20190615-1DX26577","ispublic":1,"isfriend":0,"isfamily":0},{"id":"49022325776","owner":"46848480@N00","secret":"ef80a6a6f1","server":"65535","farm":66,"title":"20190615-1DX26578","ispublic":1,"isfriend":0,"isfamily":0}]},"stat":"ok"}