{"photos":{"page":1,"pages":19,"perpage":100,"total":1829,"photo":[{"id":"52770232273","owner":"73431753@N00","secret":"6bf08b10d6","server":"65535","farm":66,"title":"Surf Scoters on the Ballona Creek estuary","ispublic":1,"isfriend":0,"isfamily":0},{"id":"52769190208","owner":"195656112@N04","secret":"0582d42603","server":"65535","farm":66,"title":"Surf Scoter","ispublic":1,"isfriend":0,"isfamily":0},{"id":"52753945333","owner":"61241315@N00","secret":"f538330baa","server":"0","farm":0,"title":"Surf Scoter Pair_1208,09","ispublic":1,"isfriend":0,"isfamily":0},{"id":"52753864145","owner":"61241315@N00","secret":"0d376961f7","server":"65535","farm":66,"title":"Surf Scoter Pair_N1212","ispublic":1,"isfriend":0,"isfamily":0},{"id":"52752918217","owner":"61241315@N00","secret":"7a4cd7deba","server":"65535","farm":66,"title":"Surf Scoter Pair_N1234","ispublic":1,"isfriend":0,"isfamily":0},{"id":"52751920929","owner":"61241315@N00","secret":"be138cb933","server":"0","farm":0,"title":"Surf Scoter_1308","ispublic":1,"isfriend":0,"isfamily":0},{"id":"52752176628","owner":"61241315@N00","secret":"e583515fbf","server":"0","farm":0,"title":"Surf Scoter_1276","ispublic":1,"isfriend":0,"isfamily":0},{"id":"52751681756","owner":"61241315@N00","secret":"6a3da171ca","server":"0","farm":0,"title":"Surf Scoter_1312","ispublic":1,"isfriend":0,"isfamily":0},{"id":"52751918079","owner":"61241315@N00","secret":"8c10b7eab9","server":"0","farm":0,"title":"Surf Scoter_1313","ispublic":1,"isfriend":0,"isfamily":0},{"id":"52752176698","owner":"61241315@N00","secret":"c4c0bd84c1","server":"65535","farm":66,"title":"Male Surf Scoter_N1272","ispublic":1,"isfriend":0,"isfamily":0},{"id":"52751922194","owner":"61241315@N00","secret":"3e17a10e4d","server":"65535","farm":66,"title":"Male Surf Scoter_N1283","ispublic":1,"isfriend":0,"isfamily":0},{"id":"52751147102","owner":"61241315@N00","secret":"9871f29f79","server":"65535","farm":66,"title":"Male Surf Scoter_N1305","ispublic":1,"isfriend":0,"isfamily":0},{"id":"52752093555","owner":"61241315@N00","secret":"4ea13587d5","server":"65535","farm":66,"title":"Surf Scoter Pair_N1293","ispublic":1,"isfriend":0,"isfamily":0},{"id":"52746905979","owner":"165841515@N03","secret":"7c4b3f0481","server":"65535","farm":66,"title":"Macreuse \u00e0 front blanc \/ Surf Scoter \/ (Melanitta perspicillata)","ispublic":1,"isfriend":0,"isfamily":0},{"id":"52746654851","owner":"165841515@N03","secret":"59df688066","server":"65535","farm":66,"title":"Macreuse \u00e0 front blanc \/ Surf Scoter \/ (Melanitta perspicillata)","ispublic":1,"isfriend":0,"isfamily":0},{"id":"52716159621","owner":"26520320@N03","secret":"630d58831d","server":"65535","farm":66,"title":"_BAP0636","ispublic":1,"isfriend":0,"isfamily":0},{"id":"52716641498","owner":"26520320@N03","secret":"46005d9417","server":"65535","farm":66,"title":"_BAP0633","ispublic":1,"isfriend":0,"isfamily":0},{"id":"52690463993","owner":"49503118795@N01","secret":"69cc15fff5","server":"65535","farm":66,"title":"Surf Scoter in the Surf","ispublic":1,"isfriend":0,"isfamily":0},{"id":"52683937940","owner":"63093099@N02","secret":"7726347d34","server":"65535","farm":66,"title":"Surf Scoter (male); 20230211; USA-WA-Skagit-Anacortes-Washington Park","ispublic":1,"isfriend":0,"isfamily":0},{"id":"52668978809","owner":"62907378@N07","secret":"3dc6514f75","server":"65535","farm":66,"title":"Surf Scoters (Melanitta perspicillata)","ispublic":1,"isfriend":0,"isfamily":0},{"id":"52668691736","owner":"62907378@N07","secret":"1f4284ee43","server":"65535","farm":66,"title":"Surf Scoters (Melanitta perspicillata)","ispublic":1,"isfriend":0,"isfamily":0},{"id":"52668691726","owner":"62907378@N07","secret":"a14fa651df","server":"65535","farm":66,"title":"Surf Scoters (Melanitta perspicillata)","ispublic":1,"isfriend":0,"isfamily":0},{"id":"52669190353","owner":"62907378@N07","secret":"4f79c0b02a","server":"65535","farm":66,"title":"Surf Scoter m (Melanitta perspicillata)","ispublic":1,"isfriend":0,"isfamily":0},{"id":"52669125680","owner":"62907378@N07","secret":"f5c1c26bb5","server":"65535","farm":66,"title":"Surf Scoter m (Melanitta perspicillata)","ispublic":1,"isfriend":0,"isfamily":0},{"id":"52669190173","owner":"62907378@N07","secret":"f5d9735e78","server":"65535","farm":66,"title":"A whole lot of talking going on -Surf Scoters (Melanitta perspicillata)","ispublic":1,"isfriend":0,"isfamily":0},{"id":"52656724984","owner":"62907378@N07","secret":"69f198b8af","server":"65535","farm":66,"title":"Surf Scoter m (Melanitta perspicillata)","ispublic":1,"isfriend":0,"isfamily":0},{"id":"52656932998","owner":"62907378@N07","secret":"a26a8bc0d9","server":"65535","farm":66,"title":"Surf Scoter m (Melanitta perspicillata)","ispublic":1,"isfriend":0,"isfamily":0},{"id":"52656440821","owner":"62907378@N07","secret":"5988be2d3c","server":"65535","farm":66,"title":"Surf Scoter m (Melanitta perspicillata)","ispublic":1,"isfriend":0,"isfamily":0},{"id":"52656440816","owner":"62907378@N07","secret":"4672e52e3e","server":"65535","farm":66,"title":"Surf Scoter m (Melanitta perspicillata)","ispublic":1,"isfriend":0,"isfamily":0},{"id":"52643679911","owner":"35495140@N04","secret":"9561210e76","server":"65535","farm":66,"title":"Surf Scoter","ispublic":1,"isfriend":0,"isfamily":0},{"id":"52628054630","owner":"51928691@N04","secret":"4fa88baa60","server":"65535","farm":66,"title":"Surf Scoter (Melanitta perspicillata) 1 122622","ispublic":1,"isfriend":0,"isfamily":0},{"id":"52607916614","owner":"26520320@N03","secret":"9da5030bce","server":"65535","farm":66,"title":"Bolsa_Chica_2023-01-02_DSC04690","ispublic":1,"isfriend":0,"isfamily":0},{"id":"52608151598","owner":"26520320@N03","secret":"a54d6e5095","server":"65535","farm":66,"title":"Bolsa_Chica_2023-01-02_DSC04686","ispublic":1,"isfriend":0,"isfamily":0},{"id":"52607916284","owner":"26520320@N03","secret":"0ce5d8e49e","server":"65535","farm":66,"title":"Bolsa_Chica_2023-01-02_DSC04682","ispublic":1,"isfriend":0,"isfamily":0},{"id":"52603870389","owner":"61396634@N07","secret":"547dd19c93","server":"65535","farm":66,"title":"Surf Scoter","ispublic":1,"isfriend":0,"isfamily":0},{"id":"52604045285","owner":"61396634@N07","secret":"8b49185a4e","server":"65535","farm":66,"title":"Surf Scoter","ispublic":1,"isfriend":0,"isfamily":0},{"id":"52571834551","owner":"26520320@N03","secret":"ef4b3d9363","server":"65535","farm":66,"title":"DSC03663","ispublic":1,"isfriend":0,"isfamily":0},{"id":"52572364988","owner":"26520320@N03","secret":"518edb9e41","server":"65535","farm":66,"title":"DSC03656","ispublic":1,"isfriend":0,"isfamily":0},{"id":"52571222167","owner":"26520320@N03","secret":"df052fdfee","server":"65535","farm":66,"title":"DSC02122","ispublic":1,"isfriend":0,"isfamily":0},{"id":"52571956639","owner":"26520320@N03","secret":"0706f314f0","server":"65535","farm":66,"title":"DSC02065","ispublic":1,"isfriend":0,"isfamily":0},{"id":"52572126885","owner":"26520320@N03","secret":"7a9cb2affc","server":"65535","farm":66,"title":"DSC02061","ispublic":1,"isfriend":0,"isfamily":0},{"id":"52565506143","owner":"181824639@N02","secret":"466dcf5ba6","server":"65535","farm":66,"title":"Macreuse \u00e0 front blanc ( Melanitta perspicillata )","ispublic":1,"isfriend":0,"isfamily":0},{"id":"52557826515","owner":"67164820@N06","secret":"94bde7fe04","server":"65535","farm":66,"title":"surf scoter","ispublic":1,"isfriend":0,"isfamily":0},{"id":"52549272822","owner":"196264892@N08","secret":"b944c32c9a","server":"65535","farm":66,"title":"Surf Scoters","ispublic":1,"isfriend":0,"isfamily":0},{"id":"52547472996","owner":"17654080@N08","secret":"7b6a5a4ce7","server":"65535","farm":66,"title":"Surf Scoters - Stratford, CT - 12\/06\/2022","ispublic":1,"isfriend":0,"isfamily":0},{"id":"52547014007","owner":"17654080@N08","secret":"580480c18f","server":"65535","farm":66,"title":"Surf Scoters - Stratford, CT - 12\/06\/2022","ispublic":1,"isfriend":0,"isfamily":0},{"id":"52547014017","owner":"17654080@N08","secret":"e7db5677ce","server":"65535","farm":66,"title":"Surf Scoters - Stratford, CT - 12\/06\/2022","ispublic":1,"isfriend":0,"isfamily":0},{"id":"52547948105","owner":"17654080@N08","secret":"b7b1b38c2a","server":"65535","farm":66,"title":"Surf Scoter, male - Stratford, CT - 12\/06\/2022","ispublic":1,"isfriend":0,"isfamily":0},{"id":"52548020033","owner":"17654080@N08","secret":"37ea23dc94","server":"65535","farm":66,"title":"Surf Scoters - Stratford, CT - 12\/06\/2022","ispublic":1,"isfriend":0,"isfamily":0},{"id":"52547948085","owner":"17654080@N08","secret":"e5e3fd2783","server":"65535","farm":66,"title":"Surf Scoters - Stratford, CT - 12\/06\/2022","ispublic":1,"isfriend":0,"isfamily":0},{"id":"52544111478","owner":"51928691@N04","secret":"3b92d76b0c","server":"65535","farm":66,"title":"Surf Scoter (Melnanitta perspicillata) 1 120422","ispublic":1,"isfriend":0,"isfamily":0},{"id":"52542429138","owner":"145466593@N08","secret":"06733e0400","server":"65535","farm":66,"title":"Surf Scoter (m)","ispublic":1,"isfriend":0,"isfamily":0},{"id":"52537202155","owner":"99849996@N00","secret":"26d45cc26f","server":"65535","farm":66,"title":"Surf Scoter 20211123_6391","ispublic":1,"isfriend":0,"isfamily":0},{"id":"52529926524","owner":"50525634@N00","secret":"7dd773964d","server":"65535","farm":66,"title":"Macreuse \u00e0 front blanc - Melanitta perspicillata - Surf Scoter DSB_2693 copie","ispublic":1,"isfriend":0,"isfamily":0},{"id":"52518631422","owner":"39617069@N08","secret":"5e68eda626","server":"65535","farm":66,"title":"Surf Scoter","ispublic":1,"isfriend":0,"isfamily":0},{"id":"52507064547","owner":"165841515@N03","secret":"ed35224fcb","server":"65535","farm":66,"title":"Macreuse \u00e0 front blanc \/ Surf Scoter \/ (Melanitta perspicillata)","ispublic":1,"isfriend":0,"isfamily":0},{"id":"52508097243","owner":"165841515@N03","secret":"793f002a10","server":"65535","farm":66,"title":"Macreuse \u00e0 front blanc \/ Surf Scoter \/ (Melanitta perspicillata)","ispublic":1,"isfriend":0,"isfamily":0},{"id":"52494995883","owner":"50525634@N00","secret":"2952b993bc","server":"65535","farm":66,"title":"Macreuse \u00e0 front blanc - Melanitta perspicillata - Surf Scoter  DSB_8701 copie","ispublic":1,"isfriend":0,"isfamily":0},{"id":"52493958202","owner":"50525634@N00","secret":"32ea0c5553","server":"65535","farm":66,"title":"Macreuse \u00e0 front blanc - Melanitta perspicillata - Surf Scoter DSB_8698 copie","ispublic":1,"isfriend":0,"isfamily":0},{"id":"52494995853","owner":"50525634@N00","secret":"4ea1a49a7f","server":"65535","farm":66,"title":"Macreuse \u00e0 front blanc - Melanitta perspicillata - Surf Scoter DSB_8695 copie","ispublic":1,"isfriend":0,"isfamily":0},{"id":"52494725004","owner":"50525634@N00","secret":"8b8ce92d4d","server":"65535","farm":66,"title":"Macreuse \u00e0 front blanc - Melanitta perspicillata - Surf Scoter DSB_8686 copie","ispublic":1,"isfriend":0,"isfamily":0},{"id":"52475059650","owner":"89367133@N00","secret":"3b9e71ae15","server":"65535","farm":66,"title":"Macreuse \u00e0 front blanc. (Melanitta perspicillata)","ispublic":1,"isfriend":0,"isfamily":0},{"id":"52470880698","owner":"50525634@N00","secret":"556e3fc2e1","server":"65535","farm":66,"title":"Macreuse \u00e0 front blanc - Melanitta perspicillata - Surf Scoter DSB_7618 copie","ispublic":1,"isfriend":0,"isfamily":0},{"id":"52462611811","owner":"36611483@N03","secret":"346c27a9bd","server":"65535","farm":66,"title":"Surf Scoters","ispublic":1,"isfriend":0,"isfamily":0},{"id":"52394085531","owner":"36611483@N03","secret":"e517204e9f","server":"65535","farm":66,"title":"Surf Scoter","ispublic":1,"isfriend":0,"isfamily":0},{"id":"52390160497","owner":"62907378@N07","secret":"58ae6d39e7","server":"65535","farm":66,"title":"Surf Scoters (Melanitta perspicillata)","ispublic":1,"isfriend":0,"isfamily":0},{"id":"52388273957","owner":"39138537@N06","secret":"a42b8ca25b","server":"65535","farm":66,"title":"Surf Scoter (Melanitta perspicillata)","ispublic":1,"isfriend":0,"isfamily":0},{"id":"52389196396","owner":"39138537@N06","secret":"f43d707de3","server":"65535","farm":66,"title":"Surf Scoter (Melanitta perspicillata)","ispublic":1,"isfriend":0,"isfamily":0},{"id":"52387235252","owner":"159284114@N07","secret":"7ab1bcbd1c","server":"65535","farm":66,"title":"Macreuses \u00e0 front blanc, Surf scoter","ispublic":1,"isfriend":0,"isfamily":0},{"id":"52382499522","owner":"43898512@N07","secret":"01e8bbe556","server":"65535","farm":66,"title":"Surf Scoter - Melanitta perspicillata","ispublic":1,"isfriend":0,"isfamily":0},{"id":"52378010745","owner":"99849996@N00","secret":"ca5b4f41d9","server":"65535","farm":66,"title":"Surf Scoter 20211021_5240","ispublic":1,"isfriend":0,"isfamily":0},{"id":"52353475936","owner":"196264892@N08","secret":"46d72ae9cf","server":"65535","farm":66,"title":"Surf Scoter","ispublic":1,"isfriend":0,"isfamily":0},{"id":"52352537137","owner":"196264892@N08","secret":"332774e5e1","server":"65535","farm":66,"title":"Surf Scoter","ispublic":1,"isfriend":0,"isfamily":0},{"id":"52353797929","owner":"196264892@N08","secret":"da7c13ac4c","server":"65535","farm":66,"title":"Surf Scoter","ispublic":1,"isfriend":0,"isfamily":0},{"id":"52327626366","owner":"196264892@N08","secret":"09af7d6fc7","server":"65535","farm":66,"title":"Surf Scoters","ispublic":1,"isfriend":0,"isfamily":0},{"id":"52326671477","owner":"196264892@N08","secret":"370685b59d","server":"65535","farm":66,"title":"Surf Scoters","ispublic":1,"isfriend":0,"isfamily":0},{"id":"52327921654","owner":"196264892@N08","secret":"3e39919f03","server":"65535","farm":66,"title":"Surf Scoters","ispublic":1,"isfriend":0,"isfamily":0},{"id":"52326671107","owner":"196264892@N08","secret":"de73d5332b","server":"65535","farm":66,"title":"Surf Scoters","ispublic":1,"isfriend":0,"isfamily":0},{"id":"52328046105","owner":"196264892@N08","secret":"83baa2520b","server":"65535","farm":66,"title":"Surf Scoters","ispublic":1,"isfriend":0,"isfamily":0},{"id":"52327625176","owner":"196264892@N08","secret":"8dddbab1c9","server":"65535","farm":66,"title":"Surf Scoters","ispublic":1,"isfriend":0,"isfamily":0},{"id":"52326670187","owner":"196264892@N08","secret":"aa5e4d801a","server":"65535","farm":66,"title":"Surf Scoters","ispublic":1,"isfriend":0,"isfamily":0},{"id":"52328045260","owner":"196264892@N08","secret":"43bb9b2217","server":"65535","farm":66,"title":"Surf Scoters","ispublic":1,"isfriend":0,"isfamily":0},{"id":"52326669837","owner":"196264892@N08","secret":"a0e96bf6b2","server":"65535","farm":66,"title":"Surf Scoters","ispublic":1,"isfriend":0,"isfamily":0},{"id":"52327624401","owner":"196264892@N08","secret":"2af99a0f65","server":"65535","farm":66,"title":"Surf Scoters","ispublic":1,"isfriend":0,"isfamily":0},{"id":"52328044105","owner":"196264892@N08","secret":"7778cd1872","server":"65535","farm":66,"title":"Surf Scoters","ispublic":1,"isfriend":0,"isfamily":0},{"id":"52327866138","owner":"196264892@N08","secret":"9eea1c0131","server":"65535","farm":66,"title":"Surf Scoters","ispublic":1,"isfriend":0,"isfamily":0},{"id":"52327918494","owner":"196264892@N08","secret":"83b6917874","server":"65535","farm":66,"title":"Surf Scoters, Harlequin Ducks","ispublic":1,"isfriend":0,"isfamily":0},{"id":"52326666617","owner":"196264892@N08","secret":"ff21284637","server":"65535","farm":66,"title":"Surf Scoters","ispublic":1,"isfriend":0,"isfamily":0},{"id":"52327976389","owner":"196264892@N08","secret":"e1ddba663b","server":"65535","farm":66,"title":"Surf Scoter","ispublic":1,"isfriend":0,"isfamily":0},{"id":"52327976299","owner":"196264892@N08","secret":"7460bc1c6e","server":"65535","farm":66,"title":"Surf Scoter","ispublic":1,"isfriend":0,"isfamily":0},{"id":"52326136031","owner":"54059915@N07","secret":"c28dd4fccb","server":"65535","farm":66,"title":"Cooperative scoter","ispublic":1,"isfriend":0,"isfamily":0},{"id":"52303907242","owner":"99613800@N02","secret":"f402ec78a2","server":"65535","farm":66,"title":"Melanitta perspicillata (Surf Scoter) - Anatidae - Pacheedaht Beach, Port Renfrew, Vancouver Island, British Columbia, Canada-2","ispublic":1,"isfriend":0,"isfamily":0},{"id":"52305139474","owner":"99613800@N02","secret":"7f73f24e78","server":"65535","farm":66,"title":"Melanitta perspicillata (Surf Scoter) - Anatidae - Pacheedaht Beach, Port Renfrew, Vancouver Island, British Columbia, Canada","ispublic":1,"isfriend":0,"isfamily":0},{"id":"52305149310","owner":"99613800@N02","secret":"13ec6504b2","server":"65535","farm":66,"title":"Melanitta perspicillata (Surf Scoter) pair - Anatidae - Pacheedaht Beach, Port Renfrew, Vancouver Island, British Columbia, Canada","ispublic":1,"isfriend":0,"isfamily":0},{"id":"52288169331","owner":"196264892@N08","secret":"f704745ee9","server":"65535","farm":66,"title":"Surf Scoter female","ispublic":1,"isfriend":0,"isfamily":0},{"id":"52275876987","owner":"99613800@N02","secret":"43f5efcca6","server":"65535","farm":66,"title":"Melanitta perspicillata (Surf Scoter) and Bucephala islandica (Barrow's Goldeneye) - Anatidae - English Bay Beach, Vancouver, British Columbia, Canada","ispublic":1,"isfriend":0,"isfamily":0},{"id":"52277333260","owner":"99613800@N02","secret":"3debfb41a5","server":"65535","farm":66,"title":"Melanitta perspicillata (Surf Scoter) and Bucephala islandica (Barrow's Goldeneye) - Anatidae - English Bay Beach, Vancouver, British Columbia, Canada-2","ispublic":1,"isfriend":0,"isfamily":0},{"id":"52277331425","owner":"99613800@N02","secret":"2874ccb162","server":"65535","farm":66,"title":"Melanitta perspicillata (Surf Scoter) pair - Anatidae - English Bay Beach, Vancouver, British Columbia, Canada","ispublic":1,"isfriend":0,"isfamily":0},{"id":"52275874957","owner":"99613800@N02","secret":"b69d940f97","server":"65535","farm":66,"title":"Melanitta perspicillata (Surf Scoter) male - Anatidae - English Bay Beach, Vancouver, British Columbia, Canada","ispublic":1,"isfriend":0,"isfamily":0},{"id":"52327866678","owner":"196264892@N08","secret":"5985636fa9","server":"65535","farm":66,"title":"Surf Scoters","ispublic":1,"isfriend":0,"isfamily":0}]},"stat":"ok"}