{"photos":{"page":1,"pages":24,"perpage":100,"total":2302,"photo":[{"id":"52658062971","owner":"72271115@N02","secret":"f0236d0b4e","server":"65535","farm":66,"title":"Swainson's Thrush --- Catharus ustulatus","ispublic":1,"isfriend":0,"isfamily":0},{"id":"52654666495","owner":"192563127@N05","secret":"51711bd902","server":"65535","farm":66,"title":"Swainson's Thrush_Catharus ustulatus_Zorzal de Swainson_22 Ene_2023    (5)","ispublic":1,"isfriend":0,"isfamily":0},{"id":"52654501919","owner":"192563127@N05","secret":"05edd8eb11","server":"65535","farm":66,"title":"Swainson's Thrush_Catharus ustulatus_Zorzal de Swainson_22 Ene_2023    (2)","ispublic":1,"isfriend":0,"isfamily":0},{"id":"52605105737","owner":"48938938@N04","secret":"4f1a2844d1","server":"65535","farm":66,"title":"Swainson's Thrush_Catharus ustulatus_Ascanio_Colombia_DZ3A0953","ispublic":1,"isfriend":0,"isfamily":0},{"id":"52592228842","owner":"30979614@N07","secret":"ee0d639054","server":"65535","farm":66,"title":"2022-05-10 Montrose Point 16","ispublic":1,"isfriend":0,"isfamily":0},{"id":"52592227452","owner":"30979614@N07","secret":"fe9fb76138","server":"65535","farm":66,"title":"2022-05-10 Montrose Point 6","ispublic":1,"isfriend":0,"isfamily":0},{"id":"52585346483","owner":"187792860@N04","secret":"68ac68edcf","server":"65535","farm":66,"title":"Swainson's thrush (Catharus ustulatus),","ispublic":1,"isfriend":0,"isfamily":0},{"id":"52580239656","owner":"153973412@N04","secret":"ebd478f862","server":"65535","farm":66,"title":"Swainson's Thrush-Catharus ustulatus, Iowa City, IA","ispublic":1,"isfriend":0,"isfamily":0},{"id":"52561325653","owner":"69347399@N08","secret":"b308a211fe","server":"65535","farm":66,"title":"Catharus ustulatus - Swainson's thrush -  zorzalito de Swainson","ispublic":1,"isfriend":0,"isfamily":0},{"id":"52537472013","owner":"8065544@N08","secret":"737729f58f","server":"65535","farm":66,"title":"Swainson's Thrush (Catharus ustulatus)","ispublic":1,"isfriend":0,"isfamily":0},{"id":"52519617075","owner":"39445433@N02","secret":"e566f52595","server":"65535","farm":66,"title":"Swainson's thrush","ispublic":1,"isfriend":0,"isfamily":0},{"id":"52519689758","owner":"39445433@N02","secret":"c04e345855","server":"65535","farm":66,"title":"Swainson's thrush","ispublic":1,"isfriend":0,"isfamily":0},{"id":"52510670702","owner":"35259356@N06","secret":"0ac7234b75","server":"65535","farm":66,"title":"Thrush: Swainson's Thrush","ispublic":1,"isfriend":0,"isfamily":0},{"id":"52510655901","owner":"124995824@N08","secret":"0493c187b5","server":"65535","farm":66,"title":"Swainson's Thrush - Catharus ustulatus","ispublic":1,"isfriend":0,"isfamily":0},{"id":"52502091217","owner":"30638967@N03","secret":"68e8077c82","server":"65535","farm":66,"title":"Swainson's Thrush DSC_3784","ispublic":1,"isfriend":0,"isfamily":0},{"id":"52495221541","owner":"12639178@N07","secret":"7c38f941d0","server":"65535","farm":66,"title":"35618_Swainson\u2019s Thrush Catharus ustulatus","ispublic":1,"isfriend":0,"isfamily":0},{"id":"52495512855","owner":"86666094@N00","secret":"107a4190e0","server":"65535","farm":66,"title":"Swainson's Thrush","ispublic":1,"isfriend":0,"isfamily":0},{"id":"52493585799","owner":"39445433@N02","secret":"dea3ee2894","server":"65535","farm":66,"title":"Swainson's Thrush","ispublic":1,"isfriend":0,"isfamily":0},{"id":"52493379083","owner":"86666094@N00","secret":"f3369ceae9","server":"65535","farm":66,"title":"Swainson's Thrush","ispublic":1,"isfriend":0,"isfamily":0},{"id":"52492081875","owner":"196567058@N02","secret":"0aed11be2c","server":"65535","farm":66,"title":"Catharus ustulatus - Zorzalito de Swainson","ispublic":1,"isfriend":0,"isfamily":0},{"id":"52491898754","owner":"196567058@N02","secret":"2e3850d9b8","server":"65535","farm":66,"title":"Catharus ustulatus - Zorzalito de Swainson","ispublic":1,"isfriend":0,"isfamily":0},{"id":"52492081855","owner":"196567058@N02","secret":"094e6ca338","server":"65535","farm":66,"title":"Catharus ustulatus - Zorzalito de Swainson","ispublic":1,"isfriend":0,"isfamily":0},{"id":"52480001464","owner":"30638967@N03","secret":"e16a8a5c9b","server":"65535","farm":66,"title":"Swainson's Thrush DSC_9528","ispublic":1,"isfriend":0,"isfamily":0},{"id":"52470795276","owner":"188156748@N07","secret":"25c00e14e1","server":"65535","farm":66,"title":"Swainson's Thrush - Grive \u00e0 dos olive (Catharus ustulatus)  2400 (3)-SharpenAI-Standard copy.jpgS","ispublic":1,"isfriend":0,"isfamily":0},{"id":"52470795291","owner":"188156748@N07","secret":"a5154ce56e","server":"65535","farm":66,"title":"Swainson's Thrush - Grive \u00e0 dos olive (Catharus ustulatus)  2400 (2)-SharpenAI-Standard copy.jpgS","ispublic":1,"isfriend":0,"isfamily":0},{"id":"52470295442","owner":"188156748@N07","secret":"6d66e398ac","server":"65535","farm":66,"title":"Swainson's Thrush - Grive \u00e0 dos olive (Catharus ustulatus)  2400 (5)-SharpenAI-Standard copy.jpgS","ispublic":1,"isfriend":0,"isfamily":0},{"id":"52461024597","owner":"99208129@N08","secret":"a42031570a","server":"65535","farm":66,"title":"Catharus ustulatus \/ Swainson's Thrush","ispublic":1,"isfriend":0,"isfamily":0},{"id":"52451330924","owner":"38242794@N02","secret":"07666d05d5","server":"65535","farm":66,"title":"Mold\u00fer\u00f6stur - Swainson's Thrush - Catharus ustulatus","ispublic":1,"isfriend":0,"isfamily":0},{"id":"52451029183","owner":"24608578@N00","secret":"63d46bb693","server":"65535","farm":66,"title":"Swainson's thrush (Catharus ustulatus)","ispublic":1,"isfriend":0,"isfamily":0},{"id":"52444029068","owner":"91827451@N06","secret":"141ffaf40e","server":"65535","farm":66,"title":"DSC_2392","ispublic":1,"isfriend":0,"isfamily":0},{"id":"52438844082","owner":"71418112@N00","secret":"231e919071","server":"65535","farm":66,"title":"Swainson's thrush","ispublic":1,"isfriend":0,"isfamily":0},{"id":"52439238414","owner":"18217058@N04","secret":"e40ce6aa00","server":"65535","farm":66,"title":"Swainson's thrush \/ Mold\u00fer\u00f6stur (Catharus ustulatus)","ispublic":1,"isfriend":0,"isfamily":0},{"id":"52438462437","owner":"18217058@N04","secret":"26643ae298","server":"65535","farm":66,"title":"Swainson's thrush \/ Mold\u00fer\u00f6stur (Catharus ustulatus)","ispublic":1,"isfriend":0,"isfamily":0},{"id":"52439234449","owner":"18217058@N04","secret":"c6eb028937","server":"65535","farm":66,"title":"Swainson's thrush \/ Mold\u00fer\u00f6stur (Catharus ustulatus)","ispublic":1,"isfriend":0,"isfamily":0},{"id":"52439234384","owner":"18217058@N04","secret":"e9f15a2513","server":"65535","farm":66,"title":"Swainson's thrush \/ Mold\u00fer\u00f6stur (Catharus ustulatus)","ispublic":1,"isfriend":0,"isfamily":0},{"id":"52439234339","owner":"18217058@N04","secret":"5f32326e95","server":"65535","farm":66,"title":"Swainson's thrush \/ Mold\u00fer\u00f6stur (Catharus ustulatus)","ispublic":1,"isfriend":0,"isfamily":0},{"id":"52439443713","owner":"18217058@N04","secret":"df7c69c0ec","server":"65535","farm":66,"title":"Swainson's thrush \/ Mold\u00fer\u00f6stur (Catharus ustulatus)","ispublic":1,"isfriend":0,"isfamily":0},{"id":"52439378475","owner":"18217058@N04","secret":"53d4818029","server":"65535","farm":66,"title":"Swainson's thrush \/ Mold\u00fer\u00f6stur (Catharus ustulatus)","ispublic":1,"isfriend":0,"isfamily":0},{"id":"52438420922","owner":"18217058@N04","secret":"74ae3b1b20","server":"65535","farm":66,"title":"Swainson's thrush \/ Mold\u00fer\u00f6stur (Catharus ustulatus)","ispublic":1,"isfriend":0,"isfamily":0},{"id":"52438415272","owner":"18217058@N04","secret":"a4be353da2","server":"65535","farm":66,"title":"Swainson's thrush \/ Mold\u00fer\u00f6stur (Catharus ustulatus)","ispublic":1,"isfriend":0,"isfamily":0},{"id":"52438415217","owner":"18217058@N04","secret":"696b421afc","server":"65535","farm":66,"title":"Swainson's thrush \/ Mold\u00fer\u00f6stur (Catharus ustulatus)","ispublic":1,"isfriend":0,"isfamily":0},{"id":"52439187589","owner":"18217058@N04","secret":"f296b45339","server":"65535","farm":66,"title":"Swainson's thrush \/ Mold\u00fer\u00f6stur (Catharus ustulatus)","ispublic":1,"isfriend":0,"isfamily":0},{"id":"52439368710","owner":"18217058@N04","secret":"7c9e3030ae","server":"65535","farm":66,"title":"Swainson's thrush \/ Mold\u00fer\u00f6stur (Catharus ustulatus)","ispublic":1,"isfriend":0,"isfamily":0},{"id":"52439368680","owner":"18217058@N04","secret":"1fa70e83b8","server":"65535","farm":66,"title":"Swainson's thrush \/ Mold\u00fer\u00f6stur (Catharus ustulatus)","ispublic":1,"isfriend":0,"isfamily":0},{"id":"52437178393","owner":"18217058@N04","secret":"03a699ccfb","server":"65535","farm":66,"title":"Swainson's thrush \/ Mold\u00fer\u00f6stur (Catharus ustulatus)","ispublic":1,"isfriend":0,"isfamily":0},{"id":"52436934729","owner":"18217058@N04","secret":"18f43297e5","server":"65535","farm":66,"title":"Swainson's thrush \/ Mold\u00fer\u00f6stur (Catharus ustulatus)","ispublic":1,"isfriend":0,"isfamily":0},{"id":"52436934664","owner":"18217058@N04","secret":"829a692466","server":"65535","farm":66,"title":"Swainson's thrush \/ Mold\u00fer\u00f6stur (Catharus ustulatus)","ispublic":1,"isfriend":0,"isfamily":0},{"id":"52436934604","owner":"18217058@N04","secret":"bafff01aeb","server":"65535","farm":66,"title":"Swainson's thrush \/ Mold\u00fer\u00f6stur (Catharus ustulatus)","ispublic":1,"isfriend":0,"isfamily":0},{"id":"52436156107","owner":"18217058@N04","secret":"36bac7ba79","server":"65535","farm":66,"title":"Swainson's thrush \/ Mold\u00fer\u00f6stur (Catharus ustulatus)","ispublic":1,"isfriend":0,"isfamily":0},{"id":"52436151047","owner":"18217058@N04","secret":"186c4f2334","server":"65535","farm":66,"title":"Swainson's thrush \/ Mold\u00fer\u00f6stur (Catharus ustulatus)","ispublic":1,"isfriend":0,"isfamily":0},{"id":"52437108810","owner":"18217058@N04","secret":"a47d67a153","server":"65535","farm":66,"title":"Swainson's thrush \/ Mold\u00fer\u00f6stur (Catharus ustulatus)","ispublic":1,"isfriend":0,"isfamily":0},{"id":"52436929514","owner":"18217058@N04","secret":"e507eaacef","server":"65535","farm":66,"title":"Swainson's thrush \/ Mold\u00fer\u00f6stur (Catharus ustulatus)","ispublic":1,"isfriend":0,"isfamily":0},{"id":"52436929454","owner":"18217058@N04","secret":"12494fe240","server":"65535","farm":66,"title":"Swainson's thrush \/ Mold\u00fer\u00f6stur (Catharus ustulatus)","ispublic":1,"isfriend":0,"isfamily":0},{"id":"52427763704","owner":"39177293@N03","secret":"e81c5a447a","server":"65535","farm":66,"title":"Swainson's Thrush","ispublic":1,"isfriend":0,"isfamily":0},{"id":"52421655435","owner":"128578170@N06","secret":"3b9eeb8d03","server":"65535","farm":66,"title":"Swainson's Thrush Catharus ustulatus","ispublic":1,"isfriend":0,"isfamily":0},{"id":"52421721998","owner":"128578170@N06","secret":"0bd08e8522","server":"65535","farm":66,"title":"Swainson's Thrush Catharus ustulatus","ispublic":1,"isfriend":0,"isfamily":0},{"id":"52415290022","owner":"56686021@N04","secret":"3e87be6337","server":"65535","farm":66,"title":"Swainson's Thrush","ispublic":1,"isfriend":0,"isfamily":0},{"id":"52416314398","owner":"56686021@N04","secret":"88c22ae2de","server":"65535","farm":66,"title":"Swainson's Thrush","ispublic":1,"isfriend":0,"isfamily":0},{"id":"52396439626","owner":"45340210@N05","secret":"1c6c198ff1","server":"65535","farm":66,"title":"Swainson's Thrush 9_30_22","ispublic":1,"isfriend":0,"isfamily":0},{"id":"52390570042","owner":"196264892@N08","secret":"ed0be5f143","server":"65535","farm":66,"title":"Swainson's Thrush","ispublic":1,"isfriend":0,"isfamily":0},{"id":"52390569977","owner":"196264892@N08","secret":"3af88778e4","server":"65535","farm":66,"title":"Swainson's Thrush","ispublic":1,"isfriend":0,"isfamily":0},{"id":"52391491321","owner":"196264892@N08","secret":"0cce951bbb","server":"65535","farm":66,"title":"Swainson's Thrush","ispublic":1,"isfriend":0,"isfamily":0},{"id":"52391803679","owner":"196264892@N08","secret":"c428eebb8d","server":"65535","farm":66,"title":"Swainson's Thrush","ispublic":1,"isfriend":0,"isfamily":0},{"id":"52391490836","owner":"196264892@N08","secret":"2b75289db7","server":"65535","farm":66,"title":"Swainson's Thrush","ispublic":1,"isfriend":0,"isfamily":0},{"id":"52391490601","owner":"196264892@N08","secret":"bd03d8a06c","server":"65535","farm":66,"title":"Swainson's Thrush","ispublic":1,"isfriend":0,"isfamily":0},{"id":"52389720565","owner":"38514062@N03","secret":"c32e9424a1","server":"65535","farm":66,"title":"Swainson's Thrush (Catharus ustulatus)","ispublic":1,"isfriend":0,"isfamily":0},{"id":"52389720350","owner":"38514062@N03","secret":"aa6c415efd","server":"65535","farm":66,"title":"Swainson's Thrush (Catharus ustulatus)","ispublic":1,"isfriend":0,"isfamily":0},{"id":"52387278454","owner":"156369634@N07","secret":"4312cbebdb","server":"65535","farm":66,"title":"Grive \u00e0 dos Olive-Swainson's Thrush-17092022","ispublic":1,"isfriend":0,"isfamily":0},{"id":"52384188719","owner":"129803374@N05","secret":"8c03abc575","server":"65535","farm":66,"title":"Swainson's Thrush (Catharus ustulatus)","ispublic":1,"isfriend":0,"isfamily":0},{"id":"52383553908","owner":"124995824@N08","secret":"ca7f3a9847","server":"65535","farm":66,"title":"Swainson's Thrush - Catharus ustulatus","ispublic":1,"isfriend":0,"isfamily":0},{"id":"52375298613","owner":"196264892@N08","secret":"1c87a2c0d7","server":"65535","farm":66,"title":"Swainson's Thrush","ispublic":1,"isfriend":0,"isfamily":0},{"id":"52375386279","owner":"196264892@N08","secret":"4f3aa2d06b","server":"65535","farm":66,"title":"Swainson's Thrush","ispublic":1,"isfriend":0,"isfamily":0},{"id":"52375490690","owner":"196264892@N08","secret":"0fd18aa113","server":"65535","farm":66,"title":"Swainson's Thrush","ispublic":1,"isfriend":0,"isfamily":0},{"id":"52375074831","owner":"196264892@N08","secret":"75bfa7ddb1","server":"65535","farm":66,"title":"Swainson's Thrush","ispublic":1,"isfriend":0,"isfamily":0},{"id":"52374126832","owner":"196264892@N08","secret":"eb88e50141","server":"65535","farm":66,"title":"Swainson's Thrush","ispublic":1,"isfriend":0,"isfamily":0},{"id":"52375074481","owner":"196264892@N08","secret":"02308a7966","server":"65535","farm":66,"title":"Swainsons Thrush","ispublic":1,"isfriend":0,"isfamily":0},{"id":"52371610405","owner":"61241315@N00","secret":"1666e8484e","server":"65535","farm":66,"title":"Swainson's Thrush_N7927","ispublic":1,"isfriend":0,"isfamily":0},{"id":"52371610355","owner":"61241315@N00","secret":"3d60f36d88","server":"65535","farm":66,"title":"Swainson's Thrush_N7929","ispublic":1,"isfriend":0,"isfamily":0},{"id":"52371417183","owner":"61241315@N00","secret":"eaf6ba09c4","server":"65535","farm":66,"title":"Swainson's Thrush_N7931","ispublic":1,"isfriend":0,"isfamily":0},{"id":"52371191916","owner":"61241315@N00","secret":"a7f34d44d2","server":"65535","farm":66,"title":"Swainson's Thrush_N7932","ispublic":1,"isfriend":0,"isfamily":0},{"id":"52371349614","owner":"120449047@N06","secret":"21c63aa85f","server":"65535","farm":66,"title":"Swainson's Thrush","ispublic":1,"isfriend":0,"isfamily":0},{"id":"52370116369","owner":"188156748@N07","secret":"667e03c29d","server":"65535","farm":66,"title":"Swainson's Thrush- Grive \u00e0 dos olive (Catharus ustulatus) 6947.jpgB-SharpenAI-Standard copy.jpgS","ispublic":1,"isfriend":0,"isfamily":0},{"id":"52364368662","owner":"24608578@N00","secret":"46e9860700","server":"65535","farm":66,"title":"Swainson's thrush (Catharus ustulatus)","ispublic":1,"isfriend":0,"isfamily":0},{"id":"52361969604","owner":"188156748@N07","secret":"df1a3de908","server":"65535","farm":66,"title":"Swainson's Thrush - Grive \u00e0 dos olive (Catharus ustulatus) 6264 (10)-SharpenAI-Standard copy.jpgS","ispublic":1,"isfriend":0,"isfamily":0},{"id":"52362080800","owner":"188156748@N07","secret":"c1a6a89032","server":"65535","farm":66,"title":"Swainson's Thrush - Grive \u00e0 dos olive (Catharus ustulatus) 6264 (11)-SharpenAI-Standard copy.jpgS","ispublic":1,"isfriend":0,"isfamily":0},{"id":"52361861558","owner":"76617062@N08","secret":"b276feaa95","server":"65535","farm":66,"title":"1.25861 Grive \u00e0 dos olive (immature) \/ Catharus ustulatus swainsoni \/ Swainson's Thrush","ispublic":1,"isfriend":0,"isfamily":0},{"id":"52353461100","owner":"195239167@N07","secret":"6848b8211c","server":"65535","farm":66,"title":"Swainson's Thrush","ispublic":1,"isfriend":0,"isfamily":0},{"id":"52352435588","owner":"92361032@N05","secret":"6a6a8bee30","server":"65535","farm":66,"title":"Swainson's Thrush \/ Grive \u00e0 dos olive ( Diane )","ispublic":1,"isfriend":0,"isfamily":0},{"id":"52348004143","owner":"140318147@N08","secret":"644871916a","server":"65535","farm":66,"title":"Swainson's thrush (Catharus ustulatus) L4A1336","ispublic":1,"isfriend":0,"isfamily":0},{"id":"52348073494","owner":"140318147@N08","secret":"65a86eac37","server":"65535","farm":66,"title":"Swainson's thrush (Catharus ustulatus) L4A1354","ispublic":1,"isfriend":0,"isfamily":0},{"id":"52340433246","owner":"76288515@N07","secret":"1d154362ce","server":"65535","farm":66,"title":"Swainson's Thrush Catharus ustulatus","ispublic":1,"isfriend":0,"isfamily":0},{"id":"52340673043","owner":"76288515@N07","secret":"ae108460f1","server":"65535","farm":66,"title":"Swainson's Thrush Catharus ustulatus","ispublic":1,"isfriend":0,"isfamily":0},{"id":"52340433206","owner":"76288515@N07","secret":"0e39c3ff16","server":"65535","farm":66,"title":"Swainson's Thrush Catharus ustulatus","ispublic":1,"isfriend":0,"isfamily":0},{"id":"52339474267","owner":"76288515@N07","secret":"846ca96be2","server":"65535","farm":66,"title":"Swainson's Thrush Catharus ustulatus","ispublic":1,"isfriend":0,"isfamily":0},{"id":"52340673028","owner":"76288515@N07","secret":"f6a44b0b4b","server":"65535","farm":66,"title":"Swainson's Thrush Catharus ustulatus","ispublic":1,"isfriend":0,"isfamily":0},{"id":"52340673008","owner":"76288515@N07","secret":"da7b2966c2","server":"65535","farm":66,"title":"Swainson's Thrush Catharus ustulatus","ispublic":1,"isfriend":0,"isfamily":0},{"id":"52340863405","owner":"76288515@N07","secret":"33c443713b","server":"65535","farm":66,"title":"Swainson's Thrush Catharus ustulatus","ispublic":1,"isfriend":0,"isfamily":0},{"id":"52340863435","owner":"76288515@N07","secret":"e68c07d77a","server":"65535","farm":66,"title":"Swainson's Thrush Catharus ustulatus","ispublic":1,"isfriend":0,"isfamily":0},{"id":"52654227441","owner":"192563127@N05","secret":"41620a1801","server":"65535","farm":66,"title":"Swainson's Thrush_Catharus ustulatus_Zorzal de Swainson_22 Ene_2023    (8)","ispublic":1,"isfriend":0,"isfamily":0},{"id":"52606027785","owner":"48938938@N04","secret":"132257b9a5","server":"65535","farm":66,"title":"Swainson's Thrush_Catharus ustulatus_Ascanio_Colombia_DZ3A0924","ispublic":1,"isfriend":0,"isfamily":0}]},"stat":"ok"}