{"photos":{"page":1,"pages":19,"perpage":100,"total":1804,"photo":[{"id":"52784163837","owner":"67306066@N03","secret":"d4c4e40c00","server":"65535","farm":66,"title":"Domestic Swan Goose (Anser cygnoides var. domesticus)","ispublic":1,"isfriend":0,"isfamily":0},{"id":"52779557028","owner":"194215136@N06","secret":"9c8de98786","server":"65535","farm":66,"title":"Don't get offended!","ispublic":1,"isfriend":0,"isfamily":0},{"id":"52745837185","owner":"12639178@N07","secret":"3de655b1a5","server":"65535","farm":66,"title":"H\u00f6ckergans Anser cygnoides f. domestica","ispublic":1,"isfriend":0,"isfamily":0},{"id":"52738328432","owner":"123597211@N03","secret":"4e8c6d5749","server":"65535","farm":66,"title":"Schwanengans (Anser cygnoides)","ispublic":1,"isfriend":0,"isfamily":0},{"id":"52738847016","owner":"123597211@N03","secret":"bb5efaae9e","server":"65535","farm":66,"title":"Schwanengans (Anser cygnoides)","ispublic":1,"isfriend":0,"isfamily":0},{"id":"52738327587","owner":"123597211@N03","secret":"8b4ee5a488","server":"65535","farm":66,"title":"Schwanengans (Anser cygnoides)","ispublic":1,"isfriend":0,"isfamily":0},{"id":"52739097419","owner":"123597211@N03","secret":"cbbb87fe35","server":"65535","farm":66,"title":"Schwanengans (Anser cygnoides)","ispublic":1,"isfriend":0,"isfamily":0},{"id":"52739259470","owner":"123597211@N03","secret":"62a00b4b90","server":"65535","farm":66,"title":"Schwanengans (Anser cygnoides)","ispublic":1,"isfriend":0,"isfamily":0},{"id":"52739096689","owner":"123597211@N03","secret":"d79c132b27","server":"65535","farm":66,"title":"Schwanengans (Anser cygnoides)","ispublic":1,"isfriend":0,"isfamily":0},{"id":"52715439884","owner":"12639178@N07","secret":"fa7a81d96e","server":"65535","farm":66,"title":"H\u00f6ckergans","ispublic":1,"isfriend":0,"isfamily":0},{"id":"52700383333","owner":"123597211@N03","secret":"408d5e6a5d","server":"65535","farm":66,"title":"Schwanengans (Anser cygnoides)","ispublic":1,"isfriend":0,"isfamily":0},{"id":"52700382068","owner":"123597211@N03","secret":"292a27c942","server":"65535","farm":66,"title":"Schwanengans (Anser cygnoides)","ispublic":1,"isfriend":0,"isfamily":0},{"id":"52700303965","owner":"123597211@N03","secret":"ef3d8e2405","server":"65535","farm":66,"title":"Schwanengans (Anser cygnoides)","ispublic":1,"isfriend":0,"isfamily":0},{"id":"52700381133","owner":"123597211@N03","secret":"fd0475c5e4","server":"65535","farm":66,"title":"Schwanengans (Anser cygnoides)","ispublic":1,"isfriend":0,"isfamily":0},{"id":"52696609260","owner":"75814310@N04","secret":"07f6341ae6","server":"0","farm":0,"title":"2023-02-06  \u9d3b\u96c1\u6c34\u7530\u8993\u98df..\u91d1\u5c71","ispublic":1,"isfriend":0,"isfamily":0},{"id":"52695658687","owner":"75814310@N04","secret":"f8859dbd39","server":"65535","farm":66,"title":"1O4A5772","ispublic":1,"isfriend":0,"isfamily":0},{"id":"52691640823","owner":"12127594@N00","secret":"b25cdd6d99","server":"65535","farm":66,"title":"African Goose","ispublic":1,"isfriend":0,"isfamily":0},{"id":"52683065731","owner":"100108154@N02","secret":"144595e2d6","server":"65535","farm":66,"title":"Friends","ispublic":1,"isfriend":0,"isfamily":0},{"id":"52668914834","owner":"134511766@N03","secret":"6441381e25","server":"65535","farm":66,"title":"Anser cygnoides","ispublic":1,"isfriend":0,"isfamily":0},{"id":"52668330505","owner":"96060626@N03","secret":"a9405bfb33","server":"65535","farm":66,"title":"20230129\u9d3b\u96c1 (40)","ispublic":1,"isfriend":0,"isfamily":0},{"id":"52668330490","owner":"96060626@N03","secret":"5c90710b56","server":"65535","farm":66,"title":"20230129\u9d3b\u96c1 (84)","ispublic":1,"isfriend":0,"isfamily":0},{"id":"52596440452","owner":"29287337@N02","secret":"a1b6f3bf37","server":"65535","farm":66,"title":"Chinese goose (Anser cygnoides domesticus) male portrait","ispublic":1,"isfriend":0,"isfamily":0},{"id":"52595190201","owner":"71833159@N00","secret":"217bdc22a0","server":"65535","farm":66,"title":"Domestic Goose \/ Anser anser domesticus or Anser cygnoides domesticus","ispublic":1,"isfriend":0,"isfamily":0},{"id":"52579984285","owner":"53696790@N06","secret":"c3df17e729","server":"65535","farm":66,"title":"Hausgans (Anser cygnoides) _DSC5022d23ucq","ispublic":1,"isfriend":0,"isfamily":0},{"id":"52526667769","owner":"132932913@N02","secret":"9010b94265","server":"65535","farm":66,"title":"Chinese geese","ispublic":1,"isfriend":0,"isfamily":0},{"id":"52495767270","owner":"134704052@N08","secret":"a43021cbde","server":"65535","farm":66,"title":"Ganso - Goose","ispublic":1,"isfriend":0,"isfamily":0},{"id":"52495767085","owner":"134704052@N08","secret":"4d8ab510d3","server":"65535","farm":66,"title":"Ganso - Goose","ispublic":1,"isfriend":0,"isfamily":0},{"id":"52494809317","owner":"134704052@N08","secret":"9030955a0b","server":"65535","farm":66,"title":"Ganso - Goose","ispublic":1,"isfriend":0,"isfamily":0},{"id":"52490813315","owner":"44093058@N06","secret":"10fb827872","server":"65535","farm":66,"title":"Swan goose, Anser cygnoides","ispublic":1,"isfriend":0,"isfamily":0},{"id":"52449172700","owner":"184706337@N05","secret":"0a7f2b1530","server":"65535","farm":66,"title":"Greylag x swan goose (Anser anser \u00d7 cygnoides)","ispublic":1,"isfriend":0,"isfamily":0},{"id":"52449246173","owner":"184706337@N05","secret":"50db2ddf41","server":"65535","farm":66,"title":"Greylag x swan goose (Anser anser \u00d7 cygnoides)","ispublic":1,"isfriend":0,"isfamily":0},{"id":"52447911909","owner":"184706337@N05","secret":"bbdc163bb9","server":"65535","farm":66,"title":"Greylag x swan goose (Anser anser \u00d7 cygnoides)","ispublic":1,"isfriend":0,"isfamily":0},{"id":"52448152723","owner":"184706337@N05","secret":"af28c3e900","server":"65535","farm":66,"title":"Greylag x swan goose (Anser anser \u00d7 cygnoides)","ispublic":1,"isfriend":0,"isfamily":0},{"id":"52263837647","owner":"12639178@N07","secret":"e4cd2439fe","server":"65535","farm":66,"title":"H\u00f6ckergans l\u00e4sst sich von einer k\u00fchlen Brise umwehen","ispublic":1,"isfriend":0,"isfamily":0},{"id":"52264402111","owner":"9453335@N02","secret":"a068911e28","server":"65535","farm":66,"title":"Goose and Toad (side)","ispublic":1,"isfriend":0,"isfamily":0},{"id":"52259532942","owner":"12639178@N07","secret":"57585b7d7a","server":"65535","farm":66,"title":"Erst rechts und links schauen bevor es ins Wasser geht","ispublic":1,"isfriend":0,"isfamily":0},{"id":"52187096111","owner":"61396634@N07","secret":"d1d9359e47","server":"65535","farm":66,"title":"Swan Goose","ispublic":1,"isfriend":0,"isfamily":0},{"id":"52173310890","owner":"70502856@N04","secret":"6b91f55f1a","server":"65535","farm":66,"title":"Amazing Grace","ispublic":1,"isfriend":0,"isfamily":0},{"id":"52156787387","owner":"145715962@N06","secret":"0d0c0edb93","server":"65535","farm":66,"title":"Vulnerable Species","ispublic":1,"isfriend":0,"isfamily":0},{"id":"52149602677","owner":"145715962@N06","secret":"a3daf883ac","server":"65535","farm":66,"title":"Anas cygnoides","ispublic":1,"isfriend":0,"isfamily":0},{"id":"52139997921","owner":"61220767@N03","secret":"cf67d13dab","server":"65535","farm":66,"title":"swan goose cz","ispublic":1,"isfriend":0,"isfamily":0},{"id":"52130278845","owner":"70502856@N04","secret":"6e712cde91","server":"65535","farm":66,"title":"Shy Bride","ispublic":1,"isfriend":0,"isfamily":0},{"id":"52119000107","owner":"70502856@N04","secret":"5efe6564bf","server":"65535","farm":66,"title":"C\u00e1ndido - Soul Limbo","ispublic":1,"isfriend":0,"isfamily":0},{"id":"52115075126","owner":"70502856@N04","secret":"76a7f6899e","server":"65535","farm":66,"title":"When I spread my wings","ispublic":1,"isfriend":0,"isfamily":0},{"id":"52082875173","owner":"90088021@N08","secret":"3cb63a7697","server":"65535","farm":66,"title":"Oca cignoide della Siberia.","ispublic":1,"isfriend":0,"isfamily":0},{"id":"52075916450","owner":"194178329@N04","secret":"03a9ca8696","server":"65535","farm":66,"title":"Unusual bird on the canal","ispublic":1,"isfriend":0,"isfamily":0},{"id":"52069037338","owner":"70502856@N04","secret":"4bda8e4d33","server":"65535","farm":66,"title":"Thinking","ispublic":1,"isfriend":0,"isfamily":0},{"id":"52061637410","owner":"194215136@N06","secret":"254752bb47","server":"65535","farm":66,"title":"Mommy... somebody is watching...","ispublic":1,"isfriend":0,"isfamily":0},{"id":"52041937600","owner":"12530381@N07","secret":"66706f478f","server":"65535","farm":66,"title":"Swan Goose (Anser cygnoides) at the Safari Park (4\/22\/2022)","ispublic":1,"isfriend":0,"isfamily":0},{"id":"52006894710","owner":"30418455@N00","secret":"d990439309","server":"65535","farm":66,"title":"CHINESE GOOSE 1","ispublic":1,"isfriend":0,"isfamily":0},{"id":"51974436365","owner":"98201865@N05","secret":"eaba08a6d2","server":"65535","farm":66,"title":"Oca cignoide","ispublic":1,"isfriend":0,"isfamily":0},{"id":"51952544909","owner":"37180297@N08","secret":"15d9e39c5c","server":"65535","farm":66,"title":"_RBC0095 Anser cygnoides \u9d3b\u96c1 \u9d5d","ispublic":1,"isfriend":0,"isfamily":0},{"id":"51952236176","owner":"37180297@N08","secret":"b1cec61854","server":"65535","farm":66,"title":"_RBC0096 Anser cygnoides \u9d3b\u96c1 \u9d5d","ispublic":1,"isfriend":0,"isfamily":0},{"id":"51952830605","owner":"37180297@N08","secret":"f3322cfb0d","server":"65535","farm":66,"title":"_RBC0114 Anser cygnoides \u9d3b\u96c1 \u9d5d","ispublic":1,"isfriend":0,"isfamily":0},{"id":"51951244852","owner":"37180297@N08","secret":"2abde7b681","server":"65535","farm":66,"title":"_RBC0115 Anser cygnoides \u9d3b\u96c1 \u9d5d","ispublic":1,"isfriend":0,"isfamily":0},{"id":"51940057170","owner":"149960743@N05","secret":"b214918735","server":"65535","farm":66,"title":"The gray geese on the beach in Rust\/on Lake Neusiedl","ispublic":1,"isfriend":0,"isfamily":0},{"id":"51936443668","owner":"194215136@N06","secret":"7e49ce2429","server":"65535","farm":66,"title":"HEY YOU! STOP IT!!","ispublic":1,"isfriend":0,"isfamily":0},{"id":"52781148109","owner":"12639178@N07","secret":"26629c6a37","server":"65535","farm":66,"title":"H\u00f6ckergans (Anser cygnoides f. domestica)","ispublic":1,"isfriend":0,"isfamily":0},{"id":"52781147994","owner":"12639178@N07","secret":"c64103106d","server":"65535","farm":66,"title":"H\u00f6ckergans (Anser cygnoides f. domestica)","ispublic":1,"isfriend":0,"isfamily":0},{"id":"52780348424","owner":"12639178@N07","secret":"22b8ce3be5","server":"65535","farm":66,"title":"H\u00f6ckergans (Anser cygnoides f. domestica)","ispublic":1,"isfriend":0,"isfamily":0},{"id":"52768356520","owner":"42415395@N07","secret":"0f67e8bbd9","server":"65535","farm":66,"title":"How does a Goose scratch an itchy neck? Chinese Goose (Anser cygnoides);","ispublic":1,"isfriend":0,"isfamily":0},{"id":"52687724572","owner":"12639178@N07","secret":"35c0a54826","server":"65535","farm":66,"title":"H\u00f6ckergans","ispublic":1,"isfriend":0,"isfamily":0},{"id":"52688245006","owner":"12639178@N07","secret":"4f4caeaf20","server":"65535","farm":66,"title":"H\u00f6ckergans","ispublic":1,"isfriend":0,"isfamily":0},{"id":"52687724417","owner":"12639178@N07","secret":"9490cd1702","server":"65535","farm":66,"title":"H\u00f6ckergans","ispublic":1,"isfriend":0,"isfamily":0},{"id":"52688737093","owner":"12639178@N07","secret":"cbfe260dcf","server":"65535","farm":66,"title":"H\u00f6ckergans","ispublic":1,"isfriend":0,"isfamily":0},{"id":"52687298354","owner":"12639178@N07","secret":"22ff7af94b","server":"65535","farm":66,"title":"H\u00f6ckergans","ispublic":1,"isfriend":0,"isfamily":0},{"id":"52683871242","owner":"12639178@N07","secret":"a79981036a","server":"65535","farm":66,"title":"H\u00f6ckergans am Teichufer","ispublic":1,"isfriend":0,"isfamily":0},{"id":"52679383415","owner":"47533293@N04","secret":"fc64919b6c","server":"65535","farm":66,"title":"Domestic swan goose, Anser cygnoides","ispublic":1,"isfriend":0,"isfamily":0},{"id":"52669014050","owner":"12639178@N07","secret":"48271737da","server":"65535","farm":66,"title":"H\u00f6ckergans auf kleinem Weiher","ispublic":1,"isfriend":0,"isfamily":0},{"id":"52579878032","owner":"153973412@N04","secret":"43b89f39d2","server":"65535","farm":66,"title":"Swan Goose-Anser cygnoides, Fort Morgan, CO","ispublic":1,"isfriend":0,"isfamily":0},{"id":"52548471456","owner":"11035345@N07","secret":"9dbf45e26b","server":"65535","farm":66,"title":"Anser cygnoides","ispublic":1,"isfriend":0,"isfamily":0},{"id":"52527878732","owner":"151381692@N04","secret":"2f8bb86672","server":"65535","farm":66,"title":"Domestic Swan Goose (Anser cygnoides var. domesticus)","ispublic":1,"isfriend":0,"isfamily":0},{"id":"52527540528","owner":"12639178@N07","secret":"94459cbc7b","server":"65535","farm":66,"title":"H\u00f6ckergans","ispublic":1,"isfriend":0,"isfamily":0},{"id":"52524230643","owner":"12639178@N07","secret":"fd321edea0","server":"65535","farm":66,"title":"H\u00f6ckergans unter Graug\u00e4nsen","ispublic":1,"isfriend":0,"isfamily":0},{"id":"52523684181","owner":"12639178@N07","secret":"3450f7ab26","server":"65535","farm":66,"title":"H\u00f6ckergans unter Graug\u00e4nsen","ispublic":1,"isfriend":0,"isfamily":0},{"id":"52523219272","owner":"12639178@N07","secret":"cc91332dd3","server":"65535","farm":66,"title":"H\u00f6ckergans unter Graug\u00e4nsen","ispublic":1,"isfriend":0,"isfamily":0},{"id":"52440296437","owner":"12639178@N07","secret":"4dd9522a3b","server":"65535","farm":66,"title":"1000stes! Bin ich nicht h\u00fcbsch?","ispublic":1,"isfriend":0,"isfamily":0},{"id":"52427246699","owner":"12639178@N07","secret":"818ded9e9e","server":"65535","farm":66,"title":"H\u00f6ckerganskreis um einen Schuh","ispublic":1,"isfriend":0,"isfamily":0},{"id":"52373785128","owner":"195315628@N03","secret":"f528811ed8","server":"65535","farm":66,"title":"\u0425\u043e\u0448\u0443\u0443 \u0433\u0430\u043b\u0443\u0443 (Anser cygnoides)","ispublic":1,"isfriend":0,"isfamily":0},{"id":"52369921546","owner":"12639178@N07","secret":"be1f01efa1","server":"65535","farm":66,"title":"haben Vater und Sohn sich etwas zu sagen?  :-))","ispublic":1,"isfriend":0,"isfamily":0},{"id":"52370231809","owner":"12639178@N07","secret":"4a0a52c25f","server":"65535","farm":66,"title":"f\u00fchlen sich wohl auf der Wiese","ispublic":1,"isfriend":0,"isfamily":0},{"id":"52370332935","owner":"12639178@N07","secret":"902e09c4c3","server":"65535","farm":66,"title":"sehen lustig aus mit ihrem Schnabelh\u00f6cker und der Kehlwamme","ispublic":1,"isfriend":0,"isfamily":0},{"id":"52370231354","owner":"12639178@N07","secret":"dece14e44f","server":"65535","farm":66,"title":"...laufen dort frei umher  :-))","ispublic":1,"isfriend":0,"isfamily":0},{"id":"52370231039","owner":"12639178@N07","secret":"6cfc5cd8c7","server":"65535","farm":66,"title":"H\u00f6ckerg\u00e4nse","ispublic":1,"isfriend":0,"isfamily":0},{"id":"52370332130","owner":"12639178@N07","secret":"de9f1d68bd","server":"65535","farm":66,"title":"ein G\u00e4nsepaar auf dem Gel\u00e4nde des \u00e4ltesten Freilichtmuseums Polens in den M","ispublic":1,"isfriend":0,"isfamily":0},{"id":"52347664884","owner":"12639178@N07","secret":"94ea776ff6","server":"65535","farm":66,"title":"Flucht aufs Wasser vor herannahendem Hund","ispublic":1,"isfriend":0,"isfamily":0},{"id":"52347348731","owner":"12639178@N07","secret":"bca6f2bba9","server":"65535","farm":66,"title":"Weitere 16 H\u00f6ckerg\u00e4nse mit Nilgans wachsam","ispublic":1,"isfriend":0,"isfamily":0},{"id":"52346394682","owner":"12639178@N07","secret":"e8f4f298a1","server":"65535","farm":66,"title":"Aufgeschreckte Kanada\/H\u00f6ckerg\u00e4nse. Im Hintergrund Kurzschnabelg\u00e4nse","ispublic":1,"isfriend":0,"isfamily":0},{"id":"52273979740","owner":"12639178@N07","secret":"71fc4435ef","server":"65535","farm":66,"title":"Grasende H\u00f6ckerg\u00e4nse beim Wintereinbruch vor genau 4 Monaten","ispublic":1,"isfriend":0,"isfamily":0},{"id":"52253924234","owner":"12639178@N07","secret":"9e6bf65c10","server":"65535","farm":66,"title":"H\u00f6ckergans auf Parkwiese","ispublic":1,"isfriend":0,"isfamily":0},{"id":"52241960997","owner":"123597211@N03","secret":"dc99fb56be","server":"65535","farm":66,"title":"Schwanengans (Anser cygnoides)","ispublic":1,"isfriend":0,"isfamily":0},{"id":"52242939256","owner":"123597211@N03","secret":"c8b60d0307","server":"65535","farm":66,"title":"Schwanengans (Anser cygnoides)","ispublic":1,"isfriend":0,"isfamily":0},{"id":"52241960122","owner":"123597211@N03","secret":"2db968b2ff","server":"65535","farm":66,"title":"Schwanengans (Anser cygnoides)","ispublic":1,"isfriend":0,"isfamily":0},{"id":"52146499883","owner":"194178329@N04","secret":"c2a41b05df","server":"65535","farm":66,"title":"Portrait of the unusual bird","ispublic":1,"isfriend":0,"isfamily":0},{"id":"52102677424","owner":"52413877@N02","secret":"69b7ed9826","server":"65535","farm":66,"title":"572_Anser cygnoides forma domestica","ispublic":1,"isfriend":0,"isfamily":0},{"id":"52024334995","owner":"12639178@N07","secret":"2e660831d5","server":"65535","farm":66,"title":"H\u00f6ckergans (Anser cygnoides f. domestica) (1)","ispublic":1,"isfriend":0,"isfamily":0},{"id":"52012249256","owner":"52413877@N02","secret":"4c4c404a24","server":"65535","farm":66,"title":"34_Anser cygnoides","ispublic":1,"isfriend":0,"isfamily":0},{"id":"51952231236","owner":"37180297@N08","secret":"0863bec36b","server":"65535","farm":66,"title":"_RBC0113 Anser cygnoides \u9d3b\u96c1 \u9d5d","ispublic":1,"isfriend":0,"isfamily":0},{"id":"51927765804","owner":"12639178@N07","secret":"b893a76440","server":"65535","farm":66,"title":"H\u00f6ckergans (Anser cygnoides f. domestica) (5)","ispublic":1,"isfriend":0,"isfamily":0},{"id":"51927517513","owner":"12639178@N07","secret":"3f01406dbf","server":"65535","farm":66,"title":"H\u00f6ckergans (Anser cygnoides f. domestica) (4)","ispublic":1,"isfriend":0,"isfamily":0}]},"stat":"ok"}