{"photos":{"page":1,"pages":2,"perpage":100,"total":171,"photo":[{"id":"52621496168","owner":"110148017@N06","secret":"7dcb925a88","server":"65535","farm":66,"title":"\u53f0\u7063\u7d2b\u562f\u9d87 Myophonus insularis","ispublic":1,"isfriend":0,"isfamily":0},{"id":"52281311624","owner":"195164158@N04","secret":"040a088e90","server":"65535","farm":66,"title":"DSC_1733-2022-08-08-Nikon Z9-Nikkor 400mm F2.8-Ching Wei Chang \u5f35\u6176\u7dad \u7dad\u54e5","ispublic":1,"isfriend":0,"isfamily":0},{"id":"52281527280","owner":"195164158@N04","secret":"2d9705c523","server":"65535","farm":66,"title":"DSC_1723-2022-08-08-Nikon Z9-Nikkor 400mm F2.8-Ching Wei Chang \u5f35\u6176\u7dad \u7dad\u54e5","ispublic":1,"isfriend":0,"isfamily":0},{"id":"52235473934","owner":"37180297@N08","secret":"c24755b29b","server":"65535","farm":66,"title":"_RBC6506 Myophonus insularis \u81fa\u7063\u7d2b\u562f\u9d87","ispublic":1,"isfriend":0,"isfamily":0},{"id":"52234214692","owner":"37180297@N08","secret":"97f84ae930","server":"65535","farm":66,"title":"_RBC6507 Myophonus insularis \u81fa\u7063\u7d2b\u562f\u9d87","ispublic":1,"isfriend":0,"isfamily":0},{"id":"52235681830","owner":"37180297@N08","secret":"bc41c1ffed","server":"65535","farm":66,"title":"_RBC6511 Myophonus insularis \u81fa\u7063\u7d2b\u562f\u9d87","ispublic":1,"isfriend":0,"isfamily":0},{"id":"52061465821","owner":"195164158@N04","secret":"d1e42df161","server":"65535","farm":66,"title":"DSC_8289-2022-01-05-Nikon D5-Nikkor 600mm F4-Ching Wei Chang-\u5f35\u6176\u7dad-\u7dad\u54e5","ispublic":1,"isfriend":0,"isfamily":0},{"id":"52055469904","owner":"195164158@N04","secret":"bee88a4508","server":"65535","farm":66,"title":"DSC_XXXX-2022-01-05-Nikon D5-Nikkor 600mm F4-Ching Wei Chang-\u5f35\u6176\u7dad-\u7dad\u54e5","ispublic":1,"isfriend":0,"isfamily":0},{"id":"51752347013","owner":"17438277@N00","secret":"744906e6a5","server":"0","farm":0,"title":"\u53ef\u80fd\u662f\u81fa\u7063\u7d2b\u562f\u9d87 Myophonus insularis \u53f0\u7063\u6700\u96e3\u807d\uff1f","ispublic":1,"isfriend":0,"isfamily":0},{"id":"50410177292","owner":"169173705@N07","secret":"3f8a1ba588","server":"65535","farm":66,"title":"\u7d2b\u562f\u9d87 \"Taiwan Whistling Thrush\" \"Myophonus insularis\"","ispublic":1,"isfriend":0,"isfamily":0},{"id":"50410177277","owner":"169173705@N07","secret":"65ff34abd2","server":"65535","farm":66,"title":"\u7d2b\u562f\u9d87 \"Taiwan Whistling Thrush\" \"Myophonus insularis\"","ispublic":1,"isfriend":0,"isfamily":0},{"id":"50410024546","owner":"169173705@N07","secret":"29a46ff7f1","server":"65535","farm":66,"title":"\u7d2b\u562f\u9d87 \"Taiwan Whistling Thrush\" \"Myophonus insularis\"","ispublic":1,"isfriend":0,"isfamily":0},{"id":"50050242883","owner":"127542576@N05","secret":"96f520f028","server":"65535","farm":66,"title":"\u53f0\u7063\u7d2b\u562f\u9d87(Myophonus insularis#Taiwan Whistling Thrush)","ispublic":1,"isfriend":0,"isfamily":0},{"id":"50050814246","owner":"127542576@N05","secret":"d36047db0c","server":"65535","farm":66,"title":"\u53f0\u7063\u7d2b\u562f\u9d87(Myophonus insularis#Taiwan Whistling Thrush)","ispublic":1,"isfriend":0,"isfamily":0},{"id":"49899506121","owner":"169173705@N07","secret":"88dac66460","server":"65535","farm":66,"title":"\u7d2b\u562f\u9d87 \"Taiwan Whistling Thrush\" \"Myophonus insularis\"","ispublic":1,"isfriend":0,"isfamily":0},{"id":"49801821327","owner":"37180297@N08","secret":"751c5956cf","server":"65535","farm":66,"title":"_ESL3736 Myophonus insularis","ispublic":1,"isfriend":0,"isfamily":0},{"id":"49801821037","owner":"37180297@N08","secret":"1175c91056","server":"65535","farm":66,"title":"_ESL3737 Myophonus insularis","ispublic":1,"isfriend":0,"isfamily":0},{"id":"49458677467","owner":"67989740@N04","secret":"33eb8647b2","server":"65535","farm":66,"title":"Myophonus insularis","ispublic":1,"isfriend":0,"isfamily":0},{"id":"49457969753","owner":"67989740@N04","secret":"9ba74e0d03","server":"65535","farm":66,"title":"Myophonus insularis","ispublic":1,"isfriend":0,"isfamily":0},{"id":"49319246688","owner":"164409345@N05","secret":"0d6a2892c7","server":"65535","farm":66,"title":"\u53f0\u7063\u7d2b\u562f\u9d87 Taiwan Whistling Thrush (Myophonus insularis)","ispublic":1,"isfriend":0,"isfamily":0},{"id":"48839620721","owner":"169173705@N07","secret":"f91486f5e7","server":"65535","farm":66,"title":"\u7d2b\u562f\u9d87 \"Taiwan Whistling Thrush\" \"Myophonus insularis\"","ispublic":1,"isfriend":0,"isfamily":0},{"id":"48839620746","owner":"169173705@N07","secret":"5558495bbc","server":"65535","farm":66,"title":"\u7d2b\u562f\u9d87 \"Taiwan Whistling Thrush\" \"Myophonus insularis\"","ispublic":1,"isfriend":0,"isfamily":0},{"id":"32844562567","owner":"26822473@N06","secret":"b77af8763e","server":"65535","farm":66,"title":"Taiwan Whistling-thrush (Myophonus insularis)","ispublic":1,"isfriend":0,"isfamily":0},{"id":"27204654407","owner":"161551737@N08","secret":"0725ff2c9b","server":"946","farm":1,"title":"TWN_2172","ispublic":1,"isfriend":0,"isfamily":0},{"id":"27204653917","owner":"161551737@N08","secret":"94f5d759a7","server":"962","farm":1,"title":"TWN_2166","ispublic":1,"isfriend":0,"isfamily":0},{"id":"41113615541","owner":"82018067@N04","secret":"20000fdf48","server":"869","farm":1,"title":"DSC03281 \u53f0\u7063\u7d2b\u562f\u9d87 Taiwan Whistling Thrush","ispublic":1,"isfriend":0,"isfamily":0},{"id":"40942830312","owner":"27756038@N00","secret":"50fef5c76f","server":"809","farm":1,"title":"2018.0324 \u596e\u8d77\u6e56 \u53f0\u7063\u7d2b\u562f\u9d87 Myophonus insularis","ispublic":1,"isfriend":0,"isfamily":0},{"id":"38265476821","owner":"96060626@N03","secret":"d204f16f3f","server":"4575","farm":5,"title":"20171105 (1)","ispublic":1,"isfriend":0,"isfamily":0},{"id":"38233598402","owner":"96060626@N03","secret":"9acc0486c3","server":"4586","farm":5,"title":"20171104 (61)","ispublic":1,"isfriend":0,"isfamily":0},{"id":"26489244649","owner":"96060626@N03","secret":"25628f6272","server":"4576","farm":5,"title":"20171104 (60)","ispublic":1,"isfriend":0,"isfamily":0},{"id":"38233596952","owner":"96060626@N03","secret":"fa3364ba6b","server":"4516","farm":5,"title":"20171104 (59)","ispublic":1,"isfriend":0,"isfamily":0},{"id":"26489242199","owner":"96060626@N03","secret":"7ca9f9cf87","server":"4516","farm":5,"title":"20171104 (58)","ispublic":1,"isfriend":0,"isfamily":0},{"id":"34312280854","owner":"60403812@N02","secret":"8b514c2564","server":"4252","farm":5,"title":"\u53f0\u7063\u7d2b\u562f\u9d87 Myophonus insularis\/Taiwan Whistling-thrush","ispublic":1,"isfriend":0,"isfamily":0},{"id":"35026282471","owner":"60403812@N02","secret":"8c0443c450","server":"4224","farm":5,"title":"\u53f0\u7063\u7d2b\u562f\u9d87 Myophonus insularis\/Taiwan Whistling-thrush","ispublic":1,"isfriend":0,"isfamily":0},{"id":"34676165432","owner":"40195635@N03","secret":"c8703fba67","server":"4268","farm":5,"title":"Formosan Whistling-Thrush (Myophonus insularis)","ispublic":1,"isfriend":0,"isfamily":0},{"id":"34659420265","owner":"57465751@N05","secret":"cf7acf5a85","server":"4174","farm":5,"title":"Taiwan Whistling Thrush (Myophonus insularis), Yangming Shan, Taipei, Taiwan","ispublic":1,"isfriend":0,"isfamily":0},{"id":"33817026154","owner":"57465751@N05","secret":"fe77367ebc","server":"4184","farm":5,"title":"Taiwan Whistling Thrush (Myophonus insularis), Yangming Shan, Taipei, Taiwan","ispublic":1,"isfriend":0,"isfamily":0},{"id":"32919541810","owner":"141316437@N03","secret":"543858243c","server":"3886","farm":4,"title":"\u81fa\u7063\u7d2b\u562f\u9d87 Myophonus insularis","ispublic":1,"isfriend":0,"isfamily":0},{"id":"32411899141","owner":"50563654@N07","secret":"c22da64637","server":"703","farm":1,"title":"\u864e\u6591\u5730\u9d87\uff08\u5c0f\u864e\u9d87\uff09","ispublic":1,"isfriend":0,"isfamily":0},{"id":"30656765631","owner":"40195635@N03","secret":"b3f3b5902c","server":"65535","farm":66,"title":"Formosan Whistling-Thrush (Myophonus insularis)","ispublic":1,"isfriend":0,"isfamily":0},{"id":"28642120750","owner":"22565491@N08","secret":"97a68e875e","server":"8785","farm":9,"title":"\u53f0\u7063\u7d2b\u562f\u9d87 Myophonus insularis","ispublic":1,"isfriend":0,"isfamily":0},{"id":"26837099240","owner":"118470001@N02","secret":"a3113412d8","server":"7668","farm":8,"title":"Last Import-27","ispublic":1,"isfriend":0,"isfamily":0},{"id":"23881649194","owner":"96060626@N03","secret":"aa0b0efe7f","server":"1648","farm":2,"title":"IMG_3566","ispublic":1,"isfriend":0,"isfamily":0},{"id":"24420473861","owner":"96060626@N03","secret":"d0fbde2372","server":"1669","farm":2,"title":"IMG_3516","ispublic":1,"isfriend":0,"isfamily":0},{"id":"24135093009","owner":"96060626@N03","secret":"de23d9f72c","server":"1549","farm":2,"title":"IMG_3518","ispublic":1,"isfriend":0,"isfamily":0},{"id":"24420473381","owner":"96060626@N03","secret":"064dcf2c44","server":"1583","farm":2,"title":"IMG_3528","ispublic":1,"isfriend":0,"isfamily":0},{"id":"24135092579","owner":"96060626@N03","secret":"8bcd7bcd30","server":"1627","farm":2,"title":"IMG_3529","ispublic":1,"isfriend":0,"isfamily":0},{"id":"18111421296","owner":"95482238@N02","secret":"4cdfa2e116","server":"7795","farm":8,"title":"taiwan whistling thrush - Taichung City, Heping District, Taiwan","ispublic":1,"isfriend":0,"isfamily":0},{"id":"18134261052","owner":"95482238@N02","secret":"9c3fb1d7b1","server":"8838","farm":9,"title":"taiwan whistling thrush - Taichung City, Heping District, Taiwan 3","ispublic":1,"isfriend":0,"isfamily":0},{"id":"17515091404","owner":"95482238@N02","secret":"f15318a621","server":"7761","farm":8,"title":"taiwan whistling thrush - Taichung City, Heping District, Taiwan","ispublic":1,"isfriend":0,"isfamily":0},{"id":"16647828349","owner":"127542576@N05","secret":"26e9ea9098","server":"7612","farm":8,"title":"\u53f0\u7063\u7d2b\u562f\u9d87(Myophonus insularis#Taiwan Whistling Thrush)","ispublic":1,"isfriend":0,"isfamily":0},{"id":"16832825342","owner":"127542576@N05","secret":"26b03b6b27","server":"7596","farm":8,"title":"\u53f0\u7063\u7d2b\u562f\u9d87(Myophonus insularis#Taiwan Whistling Thrush)","ispublic":1,"isfriend":0,"isfamily":0},{"id":"15666793463","owner":"61354240@N00","secret":"2574fe004b","server":"7549","farm":8,"title":"Taiwan Whistling Thrush \/ \u53f0\u7063\u7d2b\u562f\u9d87 (Myophonus insularis)","ispublic":1,"isfriend":0,"isfamily":0},{"id":"52621447420","owner":"110148017@N06","secret":"40ec053195","server":"65535","farm":66,"title":"\u53f0\u7063\u7d2b\u562f\u9d87 Myophonus insularis","ispublic":1,"isfriend":0,"isfamily":0},{"id":"52422072302","owner":"196426571@N03","secret":"2cee63f2f7","server":"65535","farm":66,"title":"\u81fa\u7063\u7d2b\u562f\u9d87 Myophonus insularis","ispublic":1,"isfriend":0,"isfamily":0},{"id":"52280064902","owner":"195164158@N04","secret":"e4e11c69dd","server":"65535","farm":66,"title":"DSC_1837-2022-08-08-Nikon Z9-Nikkor 400mm F2.8-Ching Wei Chang \u5f35\u6176\u7dad \u7dad\u54e5","ispublic":1,"isfriend":0,"isfamily":0},{"id":"51137695654","owner":"96060626@N03","secret":"d89bf8f5ed","server":"65535","farm":66,"title":"20210219\u7d2b\u562f\u9d87 (3)","ispublic":1,"isfriend":0,"isfamily":0},{"id":"51138026990","owner":"96060626@N03","secret":"2d5cfaa9ca","server":"65535","farm":66,"title":"20210219\u7d2b\u562f\u9d87 (2)","ispublic":1,"isfriend":0,"isfamily":0},{"id":"51137695389","owner":"96060626@N03","secret":"18eb7b9404","server":"65535","farm":66,"title":"20210219\u7d2b\u562f\u9d87 (1)","ispublic":1,"isfriend":0,"isfamily":0},{"id":"50961095713","owner":"191661732@N07","secret":"8b2db47a91","server":"65535","farm":66,"title":"DFC_0607\/1536p","ispublic":1,"isfriend":0,"isfamily":0},{"id":"50058814707","owner":"96060626@N03","secret":"8cac84b109","server":"0","farm":0,"title":"20200612\u7d2b\u562f\u9d87 (2)","ispublic":1,"isfriend":0,"isfamily":0},{"id":"50057998083","owner":"96060626@N03","secret":"71e58956dd","server":"0","farm":0,"title":"20200612\u7d2b\u562f\u9d87 (3)","ispublic":1,"isfriend":0,"isfamily":0},{"id":"50058007093","owner":"96060626@N03","secret":"96c0087ac9","server":"0","farm":0,"title":"20200612\u7d2b\u562f\u9d87 (1)","ispublic":1,"isfriend":0,"isfamily":0},{"id":"50058007443","owner":"96060626@N03","secret":"9cd89f1955","server":"65535","farm":66,"title":"20200612 (1)","ispublic":1,"isfriend":0,"isfamily":0},{"id":"50058577151","owner":"96060626@N03","secret":"c1458ac5c6","server":"65535","farm":66,"title":"20200612 (2)","ispublic":1,"isfriend":0,"isfamily":0},{"id":"50058819472","owner":"96060626@N03","secret":"9218f59d63","server":"65535","farm":66,"title":"20200612 (3)","ispublic":1,"isfriend":0,"isfamily":0},{"id":"49918034973","owner":"152305806@N08","secret":"4bdd1f9463","server":"65535","farm":66,"title":"DSCN3536 - #\u81fa\u7063\u7d2b\u562f\u9d87 Myophonus insularis","ispublic":1,"isfriend":0,"isfamily":0},{"id":"49458676582","owner":"67989740@N04","secret":"3bcd451d3f","server":"65535","farm":66,"title":"Myophonus insularis","ispublic":1,"isfriend":0,"isfamily":0},{"id":"49402156866","owner":"16863429@N00","secret":"a293137dec","server":"65535","farm":66,"title":"Taiwan Whistling Thrush (Myophonus insularis)","ispublic":1,"isfriend":0,"isfamily":0},{"id":"49257240043","owner":"16863429@N00","secret":"7f29627ede","server":"65535","farm":66,"title":"Taiwan Whistling-thrush (Myophonus insularis)","ispublic":1,"isfriend":0,"isfamily":0},{"id":"41536622934","owner":"33816646@N06","secret":"e7425d79d1","server":"967","farm":1,"title":"Taiwan Whistling Thrush (Myophonus insularis), Shin-Men, TW, 20180425-107.jpg","ispublic":1,"isfriend":0,"isfamily":0},{"id":"25909265087","owner":"16520061@N08","secret":"55ceca2e15","server":"4780","farm":5,"title":"Taiwan Whistling-thrush (Myophonus insularis)","ispublic":1,"isfriend":0,"isfamily":0},{"id":"39231971715","owner":"7200351@N08","secret":"eccf2e801d","server":"4770","farm":5,"title":"Myophonus insularis","ispublic":1,"isfriend":0,"isfamily":0},{"id":"39231971635","owner":"7200351@N08","secret":"a7b71f52b9","server":"4712","farm":5,"title":"Myophonus insularis","ispublic":1,"isfriend":0,"isfamily":0},{"id":"25259191387","owner":"7200351@N08","secret":"f32f235301","server":"4707","farm":5,"title":"Myophonus insularis","ispublic":1,"isfriend":0,"isfamily":0},{"id":"39231970595","owner":"7200351@N08","secret":"3bcb695a2e","server":"4698","farm":5,"title":"Myophonus insularis","ispublic":1,"isfriend":0,"isfamily":0},{"id":"39334498602","owner":"81700832@N03","secret":"af6fe6473b","server":"4684","farm":5,"title":"Myophonus insularis \u7d2b\u562f\u9d87","ispublic":1,"isfriend":0,"isfamily":0},{"id":"35157258005","owner":"60403812@N02","secret":"5675f8cf3f","server":"4240","farm":5,"title":"\u53f0\u7063\u7d2b\u562f\u9d87 Myophonus insularis\/Taiwan Whistling-thrush","ispublic":1,"isfriend":0,"isfamily":0},{"id":"35157256585","owner":"60403812@N02","secret":"65c7652f54","server":"4238","farm":5,"title":"\u53f0\u7063\u7d2b\u562f\u9d87 Myophonus insularis\/Taiwan Whistling-thrush","ispublic":1,"isfriend":0,"isfamily":0},{"id":"35157255235","owner":"60403812@N02","secret":"a3ac06d358","server":"4258","farm":5,"title":"\u53f0\u7063\u7d2b\u562f\u9d87 Myophonus insularis\/Taiwan Whistling-thrush","ispublic":1,"isfriend":0,"isfamily":0},{"id":"34684610580","owner":"99258967@N04","secret":"934697f56f","server":"4218","farm":5,"title":"Myophonus insularis","ispublic":1,"isfriend":0,"isfamily":0},{"id":"34215610353","owner":"99258967@N04","secret":"b95f2a36e0","server":"4227","farm":5,"title":"Myophonus insularis","ispublic":1,"isfriend":0,"isfamily":0},{"id":"30728107274","owner":"147856573@N02","secret":"2b0ba4f0e6","server":"134","farm":1,"title":"WHISTLING THRUSH","ispublic":1,"isfriend":0,"isfamily":0},{"id":"27933101181","owner":"15078827@N05","secret":"5ee9fac00e","server":"7421","farm":8,"title":"Taiwan Whistling Thrush (Myophonus insularis)","ispublic":1,"isfriend":0,"isfamily":0},{"id":"25262998674","owner":"98405408@N08","secret":"ca98b78672","server":"1608","farm":2,"title":"IMG_4719 \u7d2b\u562f\u9d87 Taiwan Whistling Thrush","ispublic":1,"isfriend":0,"isfamily":0},{"id":"24262009880","owner":"98405408@N08","secret":"54d0f4c866","server":"1444","farm":2,"title":"IMG_2558c \u7d2b\u562f\u9d87 Taiwan Whistling Thrush","ispublic":1,"isfriend":0,"isfamily":0},{"id":"23177189704","owner":"61860520@N07","secret":"4d12af07e2","server":"657","farm":1,"title":"_SYT3970_\u53f0\u6e7e\u7d2b\u5578\u9e2b","ispublic":1,"isfriend":0,"isfamily":0},{"id":"22641256305","owner":"82018067@N04","secret":"0460469e52","server":"5685","farm":6,"title":"510_9871 \u53f0\u7063\u7d2b\u562f\u9d87 Taiwan Whistling Thrush","ispublic":1,"isfriend":0,"isfamily":0},{"id":"22615229606","owner":"82018067@N04","secret":"b3c6bdcef2","server":"729","farm":1,"title":"510_9905 \u53f0\u7063\u7d2b\u562f\u9d87 Taiwan Whistling Thrush","ispublic":1,"isfriend":0,"isfamily":0},{"id":"22018469924","owner":"82018067@N04","secret":"672bc3a0be","server":"5627","farm":6,"title":"510_9914 \u53f0\u7063\u7d2b\u562f\u9d87 Taiwan Whistling Thrush","ispublic":1,"isfriend":0,"isfamily":0},{"id":"21707076463","owner":"82018067@N04","secret":"db38cfb642","server":"5638","farm":6,"title":"510_4978 \u53f0\u7063\u7d2b\u562f\u9d87 Taiwan Whistling Thrush","ispublic":1,"isfriend":0,"isfamily":0},{"id":"22338760951","owner":"82018067@N04","secret":"2eb9ca0d38","server":"666","farm":1,"title":"510_5142 \u53f0\u7063\u7d2b\u562f\u9d87 Taiwan Whistling Thrush","ispublic":1,"isfriend":0,"isfamily":0},{"id":"22328150475","owner":"82018067@N04","secret":"4d895fe1a5","server":"5753","farm":6,"title":"510_7328 \u53f0\u7063\u7d2b\u562f\u9d87 Taiwan Whistling Thrush","ispublic":1,"isfriend":0,"isfamily":0},{"id":"20216510018","owner":"134303983@N03","secret":"7042cd58b3","server":"378","farm":1,"title":"Myophonus insularis \u81fa\u7063\u7d2b\u562f\u9d87","ispublic":1,"isfriend":0,"isfamily":0},{"id":"20410668261","owner":"134303983@N03","secret":"0a968b55f8","server":"552","farm":1,"title":"Myophonus insularis \u81fa\u7063\u7d2b\u562f\u9d87","ispublic":1,"isfriend":0,"isfamily":0},{"id":"18728881055","owner":"77600294@N07","secret":"d2d2828651","server":"317","farm":1,"title":"Myophonus insularis (Endemic species in Taiwan) \u81fa\u7063\u7d2b\u562f\u9d87 (\u7279\u6709\u7a2e)","ispublic":1,"isfriend":0,"isfamily":0},{"id":"17129898667","owner":"98405408@N08","secret":"fb7accaf5b","server":"7748","farm":8,"title":"IMG_2014 \u53f0\u7063\u7d2b\u562f\u9d87 Taiwan Whistling Thrush","ispublic":1,"isfriend":0,"isfamily":0},{"id":"17335195662","owner":"98405408@N08","secret":"d0e817d19b","server":"7788","farm":8,"title":"IMG_1935 \u53f0\u7063\u7d2b\u562f\u9d87 Taiwan Whistling Thrush","ispublic":1,"isfriend":0,"isfamily":0},{"id":"15524854158","owner":"22774011@N07","secret":"0a00461c07","server":"8593","farm":9,"title":"\u7d2b\u562f\u9d87  \"Taiwan Whistling Thrush\"  \"Myophonus insularis\"","ispublic":1,"isfriend":0,"isfamily":0},{"id":"14951528418","owner":"22774011@N07","secret":"3b79b82e31","server":"5577","farm":6,"title":"\u7d2b\u562f\u9d87 \"Taiwan Whistling Thrush\" \"Myophonus insularis\"","ispublic":1,"isfriend":0,"isfamily":0}]},"stat":"ok"}