{"photos":{"page":1,"pages":2,"perpage":100,"total":104,"photo":[{"id":"52457554104","owner":"16520061@N08","secret":"3861a0480f","server":"65535","farm":66,"title":"Tasmanian Scrubwren (Sericornis humilis humilis)","ispublic":1,"isfriend":0,"isfamily":0},{"id":"51891990966","owner":"190014189@N06","secret":"4612abb465","server":"65535","farm":66,"title":"Tasmanian Scubwren \/ Sericornis humilis","ispublic":1,"isfriend":0,"isfamily":0},{"id":"51719184353","owner":"58356728@N07","secret":"5ee35033ae","server":"65535","farm":66,"title":"Tasmanian scrubwren - Sericornis humilis","ispublic":1,"isfriend":0,"isfamily":0},{"id":"51596113525","owner":"68719206@N06","secret":"6e2abe6b01","server":"65535","farm":66,"title":"IMG_8360 Tasmanian scrubwren - Sericornis humilis, feeding on open ground near the airstrip","ispublic":1,"isfriend":0,"isfamily":0},{"id":"51176873604","owner":"75299599@N00","secret":"9e1d8aef6a","server":"65535","farm":66,"title":"Tasmanian Scrubwren (Sericornis humilis)","ispublic":1,"isfriend":0,"isfamily":0},{"id":"50607169112","owner":"31350467@N04","secret":"3d2fdc30b6","server":"65535","farm":66,"title":"Scrubwren, Tasmanian (Sericornis humilis humilis)","ispublic":1,"isfriend":0,"isfamily":0},{"id":"49421649411","owner":"68750880@N06","secret":"4a760e72d9","server":"65535","farm":66,"title":"Tasmanian Scrubwren (Sericornis humilis)","ispublic":1,"isfriend":0,"isfamily":0},{"id":"44545796890","owner":"47388660@N02","secret":"2c93ea5b21","server":"4833","farm":5,"title":"Tasmanian Scrubwren","ispublic":1,"isfriend":0,"isfamily":0},{"id":"46344007181","owner":"23836012@N02","secret":"a116912686","server":"4902","farm":5,"title":"Tasmanian Scrubwren (Sericornis humilis)","ispublic":1,"isfriend":0,"isfamily":0},{"id":"46172490202","owner":"14888671@N02","secret":"8fa7b9a7b5","server":"4918","farm":5,"title":"Tasmanian Scrubwren","ispublic":1,"isfriend":0,"isfamily":0},{"id":"45310231765","owner":"14888671@N02","secret":"036fc57111","server":"4880","farm":5,"title":"Tasmanian Scrubwren","ispublic":1,"isfriend":0,"isfamily":0},{"id":"46164065272","owner":"14888671@N02","secret":"39ace08b25","server":"4904","farm":5,"title":"Tasmanian Scrubwren","ispublic":1,"isfriend":0,"isfamily":0},{"id":"32091033528","owner":"14888671@N02","secret":"8dd4c1f319","server":"4861","farm":5,"title":"Tasmanian Scrubwren","ispublic":1,"isfriend":0,"isfamily":0},{"id":"44852727344","owner":"79861098@N06","secret":"2ee96b8d63","server":"1929","farm":2,"title":"Tasmanian Scrubwren","ispublic":1,"isfriend":0,"isfamily":0},{"id":"25458508027","owner":"75299599@N00","secret":"e2e94ba942","server":"4656","farm":5,"title":"Tasmanian Scrubwren (Sericornis humilis)","ispublic":1,"isfriend":0,"isfamily":0},{"id":"38565820056","owner":"96568982@N06","secret":"332015f50b","server":"4564","farm":5,"title":"SCRUBWREN, Tasmanian","ispublic":1,"isfriend":0,"isfamily":0},{"id":"34935534004","owner":"156320246@N05","secret":"2370d9ab50","server":"4282","farm":5,"title":"Sericornis_humilis 12 Tasmanian scrubwren or brown scrubwren","ispublic":1,"isfriend":0,"isfamily":0},{"id":"34132894230","owner":"68750880@N06","secret":"b38e70ce60","server":"4162","farm":5,"title":"Tasmanian Scrubwren (Sericornis humilis)","ispublic":1,"isfriend":0,"isfamily":0},{"id":"34518550705","owner":"68750880@N06","secret":"861e1de4b2","server":"4188","farm":5,"title":"Tasmanian Scrubwren (Sericornis humilis)","ispublic":1,"isfriend":0,"isfamily":0},{"id":"31638948496","owner":"79861098@N06","secret":"1b98b45b4f","server":"528","farm":1,"title":"Tasmanian Scrubwren","ispublic":1,"isfriend":0,"isfamily":0},{"id":"31010873120","owner":"23836012@N02","secret":"8921865713","server":"5346","farm":6,"title":"Tasmanian Scrubwren (Sericornis humilis)","ispublic":1,"isfriend":0,"isfamily":0},{"id":"29280145143","owner":"68750880@N06","secret":"8a690bc6e5","server":"5669","farm":6,"title":"Tasmanian Scrubwren (Sericornis humilis)","ispublic":1,"isfriend":0,"isfamily":0},{"id":"25162388330","owner":"31350467@N04","secret":"9365af2643","server":"65535","farm":66,"title":"Scrubwren, Tasmanian (Sericornis humilis humilis)","ispublic":1,"isfriend":0,"isfamily":0},{"id":"24945095796","owner":"31350467@N04","secret":"16d38853e4","server":"65535","farm":66,"title":"Scrubwren, Tasmanian (Sericornis humilis humilis)","ispublic":1,"isfriend":0,"isfamily":0},{"id":"24219703243","owner":"31350467@N04","secret":"a002c8eda9","server":"1684","farm":2,"title":"Scrubwren, Tasmanian (Sericornis humilis humilis)","ispublic":1,"isfriend":0,"isfamily":0},{"id":"16994388112","owner":"31102843@N05","secret":"037cd45980","server":"7606","farm":8,"title":"Tasmanian Scrubwren (Sericornis humilis)","ispublic":1,"isfriend":0,"isfamily":0},{"id":"10097568446","owner":"43446422@N05","secret":"4cb5aa0d41","server":"3717","farm":4,"title":"Tasmanian Scrubwren","ispublic":1,"isfriend":0,"isfamily":0},{"id":"9704424424","owner":"76617062@N08","secret":"42a53da5d2","server":"7350","farm":8,"title":"1.16003 S\u00e9ricorne brun \/ Sericornis humilis humilis \/ Tasmanian Scrubwren","ispublic":1,"isfriend":0,"isfamily":0},{"id":"9499745453","owner":"26822473@N06","secret":"a858be2d7a","server":"7383","farm":8,"title":"Tasmanian Scrubwren Scrubwren (Sericornis humilis), endemic to Tasmania","ispublic":1,"isfriend":0,"isfamily":0},{"id":"8599552902","owner":"14573091@N03","secret":"0ba22ebd06","server":"8511","farm":9,"title":"Tasmanian Scrubwren","ispublic":1,"isfriend":0,"isfamily":0},{"id":"6888763286","owner":"27043746@N03","secret":"f4af4755c9","server":"7135","farm":8,"title":"Tasmanian Scrubwren","ispublic":1,"isfriend":0,"isfamily":0},{"id":"6533407107","owner":"55993969@N03","secret":"551b94a229","server":"7151","farm":8,"title":"Tasmanian Scrubwren (Sericornis humilis)","ispublic":1,"isfriend":0,"isfamily":0},{"id":"6477928779","owner":"71589894@N00","secret":"26b7d878a3","server":"7143","farm":8,"title":"Tasmanian Scrubwren","ispublic":1,"isfriend":0,"isfamily":0},{"id":"6473088357","owner":"71589894@N00","secret":"cef86907be","server":"7014","farm":8,"title":"Tasmanian Scrubwren","ispublic":1,"isfriend":0,"isfamily":0},{"id":"52639191940","owner":"12639178@N07","secret":"7f250245a2","server":"65535","farm":66,"title":"Tasmanian Scrubwren","ispublic":1,"isfriend":0,"isfamily":0},{"id":"52638432256","owner":"12639178@N07","secret":"dce1dab3c8","server":"65535","farm":66,"title":"Tasmanian scrubwren","ispublic":1,"isfriend":0,"isfamily":0},{"id":"52159580641","owner":"12833806@N07","secret":"2324661bdb","server":"65535","farm":66,"title":"P1740436 Tasmanian Scrubwren Sericornis humilis","ispublic":1,"isfriend":0,"isfamily":0},{"id":"52159583273","owner":"12833806@N07","secret":"fce3b1584b","server":"65535","farm":66,"title":"P1740434 Tasmanian scrubwren Sericornis humilis","ispublic":1,"isfriend":0,"isfamily":0},{"id":"52048541342","owner":"151677249@N08","secret":"a3aff311c4","server":"65535","farm":66,"title":"Atherton Scrubwren (Sericornis keri)","ispublic":1,"isfriend":0,"isfamily":0},{"id":"51719805960","owner":"58356728@N07","secret":"9a39c30013","server":"65535","farm":66,"title":"Female pink robin - Sericornis humilis","ispublic":1,"isfriend":0,"isfamily":0},{"id":"51719592419","owner":"58356728@N07","secret":"c38a56ae3a","server":"65535","farm":66,"title":"Pink robin - Sericornis humilis","ispublic":1,"isfriend":0,"isfamily":0},{"id":"51175191972","owner":"12833806@N07","secret":"5518687b28","server":"0","farm":0,"title":"DSCN1926scrubwren  blending in. Endemic to Tasmania","ispublic":1,"isfriend":0,"isfamily":0},{"id":"51176958575","owner":"12833806@N07","secret":"c4097f1920","server":"65535","farm":66,"title":"RSCN1977Tasmanian Scrubwren endemic to Tasmania Sericornis humilis at Ferntree","ispublic":1,"isfriend":0,"isfamily":0},{"id":"51175869201","owner":"12833806@N07","secret":"53e61d7898","server":"65535","farm":66,"title":"RSCN1978Tasmanian Scrubwren Sericornis humilis","ispublic":1,"isfriend":0,"isfamily":0},{"id":"51176957495","owner":"12833806@N07","secret":"7ee222ab7a","server":"65535","farm":66,"title":"DSCN1925ScrubWren endemic to Tasmania","ispublic":1,"isfriend":0,"isfamily":0},{"id":"51134592738","owner":"93794520@N05","secret":"6506f48571","server":"65535","farm":66,"title":"Tasmanian Scrubwren 97 1763","ispublic":1,"isfriend":0,"isfamily":0},{"id":"50003789206","owner":"187469698@N05","secret":"a03c85d2b0","server":"65535","farm":66,"title":"857 Tasmanian Scrubwren - Andrew Walker 001","ispublic":1,"isfriend":0,"isfamily":0},{"id":"49966169277","owner":"129013862@N04","secret":"6aa96976e6","server":"65535","farm":66,"title":"Tasmanian Scrubwren (Sericornis humilis)","ispublic":1,"isfriend":0,"isfamily":0},{"id":"49966169132","owner":"129013862@N04","secret":"b5065323c5","server":"65535","farm":66,"title":"Tasmanian Scrubwren (Sericornis humilis)","ispublic":1,"isfriend":0,"isfamily":0},{"id":"49660899956","owner":"187424653@N05","secret":"96e8f62663","server":"65535","farm":66,"title":"Tasmanian scrubwren","ispublic":1,"isfriend":0,"isfamily":0},{"id":"49590455542","owner":"151677249@N08","secret":"926b1384c2","server":"65535","farm":66,"title":"Southern Tasmanian Scrubwren (Sericornis humilis humilis)","ispublic":1,"isfriend":0,"isfamily":0},{"id":"48983073261","owner":"71490752@N04","secret":"f5a8e3ca8e","server":"65535","farm":66,"title":"Tasmanian Scrubwren (Sericornis humilis), The Tasmanian Arboretum, Eugenana, TAS, AUS","ispublic":1,"isfriend":0,"isfamily":0},{"id":"48877703128","owner":"12833806@N07","secret":"2c62782121","server":"65535","farm":66,"title":"RSCN0883Tasmanian scrubwren Sericornis humilis endemic  (1)","ispublic":1,"isfriend":0,"isfamily":0},{"id":"48878433232","owner":"12833806@N07","secret":"a8b0d9958d","server":"65535","farm":66,"title":"RSCN0883Tasmanian scrubwren Sericornis humilis endemic  (2)","ispublic":1,"isfriend":0,"isfamily":0},{"id":"48878433197","owner":"12833806@N07","secret":"3efd8ab569","server":"65535","farm":66,"title":"RSCN0883Tasmanian scrubwren Sericornis humilis endemic  (3)","ispublic":1,"isfriend":0,"isfamily":0},{"id":"48877702948","owner":"12833806@N07","secret":"96c73c89ed","server":"65535","farm":66,"title":"RSCN0883Tasmanian scrubwren Sericornis humilis endemic  (4)","ispublic":1,"isfriend":0,"isfamily":0},{"id":"48853212692","owner":"128520554@N03","secret":"5445850c44","server":"65535","farm":66,"title":"Tasmanian Scrubwren (Sericornis humilis)","ispublic":1,"isfriend":0,"isfamily":0},{"id":"48852660748","owner":"128520554@N03","secret":"df953f6c65","server":"65535","farm":66,"title":"Tasmanian Scrubwren (Sericornis humilis)","ispublic":1,"isfriend":0,"isfamily":0},{"id":"48853210302","owner":"128520554@N03","secret":"9a3973ce23","server":"65535","farm":66,"title":"Tasmanian Scrubwren (Sericornis humilis)","ispublic":1,"isfriend":0,"isfamily":0},{"id":"48853209362","owner":"128520554@N03","secret":"2994c2b95e","server":"65535","farm":66,"title":"Tasmanian Scrubwren (Sericornis humilis)","ispublic":1,"isfriend":0,"isfamily":0},{"id":"48178613316","owner":"163531038@N03","secret":"dbe6143d37","server":"65535","farm":66,"title":"Tasmanian Scrubwren","ispublic":1,"isfriend":0,"isfamily":0},{"id":"46311670822","owner":"47388660@N02","secret":"e3e4274b21","server":"4822","farm":5,"title":"Tasmanian Scrubwren","ispublic":1,"isfriend":0,"isfamily":0},{"id":"44545796980","owner":"47388660@N02","secret":"f67f1654ac","server":"4893","farm":5,"title":"Tasmanian Scrubwren","ispublic":1,"isfriend":0,"isfamily":0},{"id":"46311670442","owner":"47388660@N02","secret":"48b97fcc14","server":"4845","farm":5,"title":"Tasmanian Scrubwren","ispublic":1,"isfriend":0,"isfamily":0},{"id":"46362491881","owner":"47388660@N02","secret":"4be8fb1a03","server":"4887","farm":5,"title":"Tasmanian Scrubwren","ispublic":1,"isfriend":0,"isfamily":0},{"id":"45621193004","owner":"23836012@N02","secret":"c36bce2229","server":"4838","farm":5,"title":"Tasmanian Scrubwren (Sericornis humilis)","ispublic":1,"isfriend":0,"isfamily":0},{"id":"45620830244","owner":"23836012@N02","secret":"37b70f6bde","server":"4817","farm":5,"title":"Tasmanian Scrubwren (Sericornis humilis)","ispublic":1,"isfriend":0,"isfamily":0},{"id":"30738290957","owner":"77128742@N06","secret":"6172b7fcdc","server":"1959","farm":2,"title":"Tasmansericornis_Sericornis humilis-1","ispublic":1,"isfriend":0,"isfamily":0},{"id":"30738290817","owner":"77128742@N06","secret":"1f902354ef","server":"4857","farm":5,"title":"Tasmansericornis_Sericornis humilis-2","ispublic":1,"isfriend":0,"isfamily":0},{"id":"44618254365","owner":"79861098@N06","secret":"baabe33915","server":"1932","farm":2,"title":"Tasmanian Scrubwren","ispublic":1,"isfriend":0,"isfamily":0},{"id":"40053503574","owner":"117755141@N02","secret":"d4e5944333","server":"4782","farm":5,"title":"Tasmanian Scrubwren 2 (Sericornis humilis)","ispublic":1,"isfriend":0,"isfamily":0},{"id":"26357897198","owner":"117755141@N02","secret":"1c2028c1c3","server":"4626","farm":5,"title":"Tasmanian Scrubwren (Sericornis humilis)","ispublic":1,"isfriend":0,"isfamily":0},{"id":"39519363674","owner":"128578170@N06","secret":"242d84bf8b","server":"4617","farm":5,"title":"Tasmanian Scrubwren Sericornis h. humilis","ispublic":1,"isfriend":0,"isfamily":0},{"id":"40170984001","owner":"124811748@N06","secret":"8fe96c7532","server":"4654","farm":5,"title":"Scrubwren, Tasmanian - Sericornis humilis - Maria Island, TAS 2","ispublic":1,"isfriend":0,"isfamily":0},{"id":"36117327444","owner":"61021753@N02","secret":"717c0c570c","server":"4382","farm":5,"title":"n195_w1150","ispublic":1,"isfriend":0,"isfamily":0},{"id":"35240698905","owner":"90638772@N02","secret":"20b016bd04","server":"4229","farm":5,"title":"Tasmanian Scrubwren Sericornis humilis, Adventure Bay, South Bruny Island, Tasmania, Australian, 29 April 2017.","ispublic":1,"isfriend":0,"isfamily":0},{"id":"35075398962","owner":"90638772@N02","secret":"0abb38e2ae","server":"4256","farm":5,"title":"Tasmanian Scrubwren Sericornis humilis, Adventure Bay, South Bruny Island, Tasmania, Australian, 29 April 2017.","ispublic":1,"isfriend":0,"isfamily":0},{"id":"34086229045","owner":"40195635@N03","secret":"d3697c1a4c","server":"65535","farm":66,"title":"Tasmanian Scrubwren (Sericornis humilis humilis)","ispublic":1,"isfriend":0,"isfamily":0},{"id":"30874141284","owner":"52526646@N03","secret":"e7cc7571fe","server":"769","farm":1,"title":"Tas-0426_edited-1","ispublic":1,"isfriend":0,"isfamily":0},{"id":"23410507574","owner":"64074416@N06","secret":"6a59f3a383","server":"1470","farm":2,"title":"Tasmanian Scrubwren (Sericornis humilis)","ispublic":1,"isfriend":0,"isfamily":0},{"id":"23512987091","owner":"78247220@N08","secret":"cdd2a4ddb1","server":"676","farm":1,"title":"Sericornis humilis","ispublic":1,"isfriend":0,"isfamily":0},{"id":"23308238461","owner":"78247220@N08","secret":"a2ba51d2f5","server":"682","farm":1,"title":"Sericornis humilis","ispublic":1,"isfriend":0,"isfamily":0},{"id":"23390818195","owner":"78247220@N08","secret":"ed4c38c54e","server":"680","farm":1,"title":"Sericornis humilis","ispublic":1,"isfriend":0,"isfamily":0},{"id":"22954162779","owner":"43886809@N03","secret":"010f0d0498","server":"708","farm":1,"title":"Tasmanian Scrubwren_15-11-01_Sericornis humilis","ispublic":1,"isfriend":0,"isfamily":0},{"id":"23295966756","owner":"43886809@N03","secret":"9609e60f51","server":"5753","farm":6,"title":"Tasmanian Scrubwren_15-11-01_Sericornis humilis","ispublic":1,"isfriend":0,"isfamily":0},{"id":"22693716154","owner":"43886809@N03","secret":"40625929c1","server":"5807","farm":6,"title":"Tasmanian Scrubwren_15-11-01_Sericornis humilis","ispublic":1,"isfriend":0,"isfamily":0},{"id":"16989844401","owner":"61021753@N02","secret":"23a2f1e650","server":"8741","farm":9,"title":"n74_w1150","ispublic":1,"isfriend":0,"isfamily":0},{"id":"16713365895","owner":"124792033@N04","secret":"b5054047c0","server":"8582","farm":9,"title":"Sericornis humilis","ispublic":1,"isfriend":0,"isfamily":0},{"id":"12790361024","owner":"50295515@N08","secret":"5994dee1f4","server":"7390","farm":8,"title":"Tasmanian scrubwren","ispublic":1,"isfriend":0,"isfamily":0},{"id":"8429753688","owner":"49837331@N06","secret":"c56de196c6","server":"8355","farm":9,"title":"SD 114 Bruny Part 6 Labillardiere Peninsula 45","ispublic":1,"isfriend":0,"isfamily":0},{"id":"8309087291","owner":"38522590@N08","secret":"84f559a720","server":"8363","farm":9,"title":"Tasmanian Scrubwren (Sericornis humilis)","ispublic":1,"isfriend":0,"isfamily":0},{"id":"7125433397","owner":"76971187@N03","secret":"1ec2f5386d","server":"7273","farm":8,"title":"tasmanian scrub-wren","ispublic":1,"isfriend":0,"isfamily":0},{"id":"7040833251","owner":"12833806@N07","secret":"bdf521b6c5","server":"7264","farm":8,"title":"twitchy twitchy.........twitch","ispublic":1,"isfriend":0,"isfamily":0},{"id":"6991278579","owner":"75859801@N05","secret":"656477c079","server":"7038","farm":8,"title":"Tasmanian Scrubwren","ispublic":1,"isfriend":0,"isfamily":0},{"id":"6662912129","owner":"12833806@N07","secret":"e26e903c6b","server":"7019","farm":8,"title":"scrubwren (yellow eye) Sericornis humilis endemic Tasmanian bird makes a twitchy twitchy sound in the bushes","ispublic":1,"isfriend":0,"isfamily":0},{"id":"6335750174","owner":"55993969@N03","secret":"3a1fd4d3a9","server":"6053","farm":7,"title":"Tasmanian Scrubwren (Sericornis humilis)","ispublic":1,"isfriend":0,"isfamily":0},{"id":"6335740388","owner":"55993969@N03","secret":"21c4c702a8","server":"6104","farm":7,"title":"Tasmanian Scrubwren (Sericornis humilis)","ispublic":1,"isfriend":0,"isfamily":0},{"id":"6104299125","owner":"66740448@N04","secret":"e5139cdcca","server":"6069","farm":7,"title":"Tasmanian Scrubwren (White-browed Scrubwren)","ispublic":1,"isfriend":0,"isfamily":0},{"id":"5049887194","owner":"22825478@N02","secret":"8b6fd6f94f","server":"4150","farm":5,"title":"Juvenile Tasmanian Scrubwren","ispublic":1,"isfriend":0,"isfamily":0},{"id":"4928280989","owner":"26085887@N08","secret":"1107387f96","server":"4143","farm":5,"title":"Tasmanian Scrubwren - Sericornis humilis","ispublic":1,"isfriend":0,"isfamily":0}]},"stat":"ok"}