{"photos":{"page":1,"pages":7,"perpage":100,"total":640,"photo":[{"id":"52723415752","owner":"12639178@N07","secret":"f2276296f1","server":"65535","farm":66,"title":"Brauenwalds\u00e4nger (Leiothlypis peregrina) (2)","ispublic":1,"isfriend":0,"isfamily":0},{"id":"52724346485","owner":"12639178@N07","secret":"51178f2d0b","server":"65535","farm":66,"title":"Brauenwalds\u00e4nger","ispublic":1,"isfriend":0,"isfamily":0},{"id":"52657829693","owner":"132165466@N08","secret":"5f60066b59","server":"65535","farm":66,"title":"Tennessee Warbler","ispublic":1,"isfriend":0,"isfamily":0},{"id":"52653672315","owner":"125605310@N07","secret":"b10a27c8ab","server":"65535","farm":66,"title":"Tennessee Warbler, Leiothlypis peregrina","ispublic":1,"isfriend":0,"isfamily":0},{"id":"52653706893","owner":"62043870@N05","secret":"787e25ff07","server":"65535","farm":66,"title":"Tennessee Warbler, Leiothlypis peregrina","ispublic":1,"isfriend":0,"isfamily":0},{"id":"52653495759","owner":"62043870@N05","secret":"ec6f15dc0f","server":"65535","farm":66,"title":"Tennessee Warbler, Leiothlypis peregrina","ispublic":1,"isfriend":0,"isfamily":0},{"id":"52653658115","owner":"62043870@N05","secret":"de46c21813","server":"65535","farm":66,"title":"Tennessee Warbler, Leiothlypis peregrina","ispublic":1,"isfriend":0,"isfamily":0},{"id":"52653656235","owner":"62043870@N05","secret":"30da0474e6","server":"65535","farm":66,"title":"Tennessee Warbler, Leiothlypis peregrina","ispublic":1,"isfriend":0,"isfamily":0},{"id":"52653655855","owner":"62043870@N05","secret":"14a2062043","server":"65535","farm":66,"title":"Tennessee Warbler, Leiothlypis peregrina","ispublic":1,"isfriend":0,"isfamily":0},{"id":"52652726332","owner":"62043870@N05","secret":"c980cf43a1","server":"65535","farm":66,"title":"Tennessee Warbler, Leiothlypis peregrina","ispublic":1,"isfriend":0,"isfamily":0},{"id":"52604244239","owner":"107784905@N04","secret":"1309e42ea3","server":"65535","farm":66,"title":"Paruline obscure - Manuel Antonio\/Puntarenas\/Costa Rica_20211116_002-1","ispublic":1,"isfriend":0,"isfamily":0},{"id":"52533115958","owner":"119095828@N03","secret":"2b623c4f70","server":"65535","farm":66,"title":"Tennessee Warbler (Leiothlypis peregrina)","ispublic":1,"isfriend":0,"isfamily":0},{"id":"52529937000","owner":"28499865@N07","secret":"dd5894bbcf","server":"65535","farm":66,"title":"Tennessee Warbler - Leiothlypis peregrina","ispublic":1,"isfriend":0,"isfamily":0},{"id":"52519860899","owner":"118311568@N08","secret":"f301303dd7","server":"65535","farm":66,"title":"Tennessee Warber and Swamp Sparrow","ispublic":1,"isfriend":0,"isfamily":0},{"id":"52520133958","owner":"118311568@N08","secret":"feaa93611f","server":"65535","farm":66,"title":"Tennessee Warbler","ispublic":1,"isfriend":0,"isfamily":0},{"id":"52516118415","owner":"145466593@N08","secret":"c7a62c860b","server":"65535","farm":66,"title":"Tennessee Warbler","ispublic":1,"isfriend":0,"isfamily":0},{"id":"52503611286","owner":"145466593@N08","secret":"d6dd9e73c7","server":"65535","farm":66,"title":"Tennessee Warbler","ispublic":1,"isfriend":0,"isfamily":0},{"id":"52489816896","owner":"103722035@N06","secret":"051ca8a355","server":"65535","farm":66,"title":"Tennessee Warbler (Leiothlypis peregrina), Ragged Point, Highway One, San Luis Obispo County, CA","ispublic":1,"isfriend":0,"isfamily":0},{"id":"52490289470","owner":"103722035@N06","secret":"5d34020d5f","server":"65535","farm":66,"title":"Tennessee Warbler (Leiothlypis peregrina), Ragged Point, Highway One, San Luis Obispo County, CA","ispublic":1,"isfriend":0,"isfamily":0},{"id":"52490102074","owner":"103722035@N06","secret":"85196f59a1","server":"65535","farm":66,"title":"Tennessee Warbler (Leiothlypis peregrina), Ragged Point, Highway One, San Luis Obispo County, CA","ispublic":1,"isfriend":0,"isfamily":0},{"id":"52489816796","owner":"103722035@N06","secret":"365b1d98a1","server":"65535","farm":66,"title":"Tennessee Warbler (Leiothlypis peregrina), Ragged Point, Highway One, San Luis Obispo County, CA","ispublic":1,"isfriend":0,"isfamily":0},{"id":"52490289375","owner":"103722035@N06","secret":"e291369a95","server":"65535","farm":66,"title":"Tennessee Warbler (Leiothlypis peregrina), Ragged Point, Highway One, San Luis Obispo County, CA","ispublic":1,"isfriend":0,"isfamily":0},{"id":"52490100524","owner":"103722035@N06","secret":"135607bbe7","server":"65535","farm":66,"title":"Tennessee Warbler (Leiothlypis peregrina), Ragged Point, Highway One, San Luis Obispo County, CA","ispublic":1,"isfriend":0,"isfamily":0},{"id":"52490100469","owner":"103722035@N06","secret":"bcb0b252e2","server":"65535","farm":66,"title":"Tennessee Warbler (Leiothlypis peregrina), Ragged Point, Highway One, San Luis Obispo County, CA","ispublic":1,"isfriend":0,"isfamily":0},{"id":"52490287815","owner":"103722035@N06","secret":"f3eaacbfcb","server":"65535","farm":66,"title":"Tennessee Warbler (Leiothlypis peregrina), Ragged Point, Highway One, San Luis Obispo County, CA","ispublic":1,"isfriend":0,"isfamily":0},{"id":"52489803516","owner":"103722035@N06","secret":"1ca32549a9","server":"0","farm":0,"title":"Tennessee Warbler (Leiothlypis peregrina), Ragged Point, Highway One, San Luis Obispo County, CA","ispublic":1,"isfriend":0,"isfamily":0},{"id":"52486794800","owner":"38242794@N02","secret":"211c0b31f4","server":"65535","farm":66,"title":"Ormskr\u00edkja - Tennessee Warbler - Leiothlypis peregrina","ispublic":1,"isfriend":0,"isfamily":0},{"id":"52449482030","owner":"34674638@N05","secret":"1bf9ef9f4b","server":"65535","farm":66,"title":"Tennessee Warbler","ispublic":1,"isfriend":0,"isfamily":0},{"id":"52445759658","owner":"107784905@N04","secret":"627d7a1117","server":"65535","farm":66,"title":"Paruline obscure - Rancho Naturalista\/Cartago\/Costa Rica_20211127_007-1","ispublic":1,"isfriend":0,"isfamily":0},{"id":"52443785542","owner":"13451078@N03","secret":"77b274a372","server":"65535","farm":66,"title":"Tennessee Warbler (Leiothlypis peregrina)","ispublic":1,"isfriend":0,"isfamily":0},{"id":"52416095624","owner":"8654297@N06","secret":"1ef04f444f","server":"65535","farm":66,"title":"Jealous watcher","ispublic":1,"isfriend":0,"isfamily":0},{"id":"52408377059","owner":"120449047@N06","secret":"2480ab02ba","server":"65535","farm":66,"title":"Tennessee Warbler (1 of 2)","ispublic":1,"isfriend":0,"isfamily":0},{"id":"52394756034","owner":"168495655@N07","secret":"c0f3b7017e","server":"65535","farm":66,"title":"Paruline obscure - Leiothlypis peregrina - Tennessee Warbler","ispublic":1,"isfriend":0,"isfamily":0},{"id":"52390553917","owner":"40723658@N05","secret":"95caf04eea","server":"65535","farm":66,"title":"Tennessee Warbler","ispublic":1,"isfriend":0,"isfamily":0},{"id":"52390175116","owner":"168495655@N07","secret":"1ba56048f4","server":"65535","farm":66,"title":"Paruline obscure - Leiothlypis peregrina - Tennessee Warbler","ispublic":1,"isfriend":0,"isfamily":0},{"id":"52389181204","owner":"45340210@N05","secret":"a656a1ba59","server":"65535","farm":66,"title":"Tennessee Warbler 4 9_27_22","ispublic":1,"isfriend":0,"isfamily":0},{"id":"52385408577","owner":"49563725@N06","secret":"89331e1fd0","server":"65535","farm":66,"title":"Tennessee Warbler","ispublic":1,"isfriend":0,"isfamily":0},{"id":"52368653228","owner":"95795254@N02","secret":"2d39f1f94a","server":"65535","farm":66,"title":"Tennessee Warbler 851_0037.jpg","ispublic":1,"isfriend":0,"isfamily":0},{"id":"52365322168","owner":"128537732@N06","secret":"0bdf669a15","server":"65535","farm":66,"title":"Tennessee Warbler (Leiothlypis peregrina)","ispublic":1,"isfriend":0,"isfamily":0},{"id":"52362588542","owner":"120449047@N06","secret":"2db351d39a","server":"65535","farm":66,"title":"Tennessee Warbler 33\/35","ispublic":1,"isfriend":0,"isfamily":0},{"id":"52358810972","owner":"24309230@N03","secret":"95681f5b3b","server":"65535","farm":66,"title":"Tennessee Warbler","ispublic":1,"isfriend":0,"isfamily":0},{"id":"52330210675","owner":"85277889@N08","secret":"f5a65e565d","server":"65535","farm":66,"title":"Tennessee Warbler (Leiothlypis peregrina) 2022-09-01 (2a)","ispublic":1,"isfriend":0,"isfamily":0},{"id":"52325689200","owner":"36685968@N00","secret":"2159edb955","server":"65535","farm":66,"title":"Tennessee Warbler (Leiothlypis peregrina)","ispublic":1,"isfriend":0,"isfamily":0},{"id":"52295365675","owner":"165841515@N03","secret":"4e171580e2","server":"65535","farm":66,"title":"Paruline obscure \/ Tennessee Warbler \/ (Leiothlypis peregrina)","ispublic":1,"isfriend":0,"isfamily":0},{"id":"52239056242","owner":"134691658@N05","secret":"dcf367c8fa","server":"65535","farm":66,"title":"Paruline obscure \/ Tennessee Warbler","ispublic":1,"isfriend":0,"isfamily":0},{"id":"52167624368","owner":"126805965@N03","secret":"266b67340c","server":"65535","farm":66,"title":"Tennesse Warbler (Leiothlypis peregrina) - Clarenville, NFLD","ispublic":1,"isfriend":0,"isfamily":0},{"id":"52166590857","owner":"126805965@N03","secret":"7b81891541","server":"65535","farm":66,"title":"Tennesse Warbler (Leiothlypis peregrina) - Clarenville, NFLD","ispublic":1,"isfriend":0,"isfamily":0},{"id":"52167968350","owner":"92361032@N05","secret":"31fbaeee84","server":"65535","farm":66,"title":"Paruline obscure \/ Tennessee Warbler ( Diane )","ispublic":1,"isfriend":0,"isfamily":0},{"id":"52167214148","owner":"168495655@N07","secret":"93699a7f79","server":"65535","farm":66,"title":"Paruline obscure - Leiothlypis peregrina - Tennessee Warbler","ispublic":1,"isfriend":0,"isfamily":0},{"id":"52167445189","owner":"168495655@N07","secret":"699084d316","server":"65535","farm":66,"title":"Paruline obscure - Leiothlypis peregrina - Tennessee Warbler","ispublic":1,"isfriend":0,"isfamily":0},{"id":"52125214371","owner":"28631427@N00","secret":"01643a7480","server":"65535","farm":66,"title":"Nashville and Tennessee Warblers 1","ispublic":1,"isfriend":0,"isfamily":0},{"id":"52125244143","owner":"28631427@N00","secret":"dea996e657","server":"65535","farm":66,"title":"Nashville and Tennessee Warblers 2","ispublic":1,"isfriend":0,"isfamily":0},{"id":"52125242413","owner":"28631427@N00","secret":"94aaf0a8af","server":"65535","farm":66,"title":"Nashville and Tennessee Warblers 3","ispublic":1,"isfriend":0,"isfamily":0},{"id":"52117828813","owner":"53256251@N04","secret":"44be28e55c","server":"65535","farm":66,"title":"Tennessee Warbler contemplating a snack","ispublic":1,"isfriend":0,"isfamily":0},{"id":"52107649832","owner":"48311154@N02","secret":"860dca58af","server":"65535","farm":66,"title":"Tennessee Warbler in the apple tree","ispublic":1,"isfriend":0,"isfamily":0},{"id":"52103752000","owner":"32599741@N03","secret":"100a423f81","server":"65535","farm":66,"title":"maybe there's something to eat down there","ispublic":1,"isfriend":0,"isfamily":0},{"id":"52096403786","owner":"96568982@N06","secret":"857818c4c3","server":"65535","farm":66,"title":"WARBLER, Tennessee","ispublic":1,"isfriend":0,"isfamily":0},{"id":"52089243198","owner":"32599741@N03","secret":"5fb9c2dab1","server":"65535","farm":66,"title":"wet warbler","ispublic":1,"isfriend":0,"isfamily":0},{"id":"52085773389","owner":"48311154@N02","secret":"19a00a022c","server":"65535","farm":66,"title":"Tennessee Warbler in the apple tree","ispublic":1,"isfriend":0,"isfamily":0},{"id":"52083723512","owner":"195239167@N07","secret":"5e87a63143","server":"65535","farm":66,"title":"Tennessee Warbler","ispublic":1,"isfriend":0,"isfamily":0},{"id":"52072975247","owner":"48311154@N02","secret":"b8efa3077b","server":"65535","farm":66,"title":"Tennessee Warbler hunting for bugs","ispublic":1,"isfriend":0,"isfamily":0},{"id":"52064521005","owner":"8654297@N06","secret":"6e2a86603c","server":"65535","farm":66,"title":"Banana patrol","ispublic":1,"isfriend":0,"isfamily":0},{"id":"52062051636","owner":"90886369@N06","secret":"bd02177e2a","server":"65535","farm":66,"title":"Tennessee Warbler (Leiothlypis peregrina)","ispublic":1,"isfriend":0,"isfamily":0},{"id":"52054822307","owner":"95795254@N02","secret":"5c3249ee07","server":"65535","farm":66,"title":"Tennessee Warbler 851_0215.jpg","ispublic":1,"isfriend":0,"isfamily":0},{"id":"52693205784","owner":"12639178@N07","secret":"bb203ba80f","server":"65535","farm":66,"title":"Brauenwalds\u00e4nger","ispublic":1,"isfriend":0,"isfamily":0},{"id":"52657619889","owner":"132165466@N08","secret":"2689d5bf5e","server":"65535","farm":66,"title":"Tennessee Warbler","ispublic":1,"isfriend":0,"isfamily":0},{"id":"52584702451","owner":"76288515@N07","secret":"01dd566f04","server":"65535","farm":66,"title":"Tennesee Warbler Leiothlypis peregrina","ispublic":1,"isfriend":0,"isfamily":0},{"id":"52584702481","owner":"76288515@N07","secret":"b8069a5d14","server":"65535","farm":66,"title":"Tennesee Warbler Leiothlypis peregrina","ispublic":1,"isfriend":0,"isfamily":0},{"id":"52584702431","owner":"76288515@N07","secret":"8a02f06d38","server":"65535","farm":66,"title":"Tennesee Warbler Leiothlypis peregrina","ispublic":1,"isfriend":0,"isfamily":0},{"id":"52584966049","owner":"76288515@N07","secret":"3d190c4d94","server":"65535","farm":66,"title":"Tennesee Warbler Leiothlypis peregrina","ispublic":1,"isfriend":0,"isfamily":0},{"id":"52580679345","owner":"153973412@N04","secret":"25fe0f1c1a","server":"65535","farm":66,"title":"Tennessee Warbler-Leiothlypis peregrina, Iowa City, IA","ispublic":1,"isfriend":0,"isfamily":0},{"id":"52557539145","owner":"190274181@N03","secret":"06c24c28d8","server":"65535","farm":66,"title":"Reinita verdilla   Tennessee warbler  \ud83d\udd2cLeiothlypis peregrina","ispublic":1,"isfriend":0,"isfamily":0},{"id":"52538389632","owner":"67306066@N03","secret":"ed53495812","server":"65535","farm":66,"title":"Tennessee Warbler (Leiothlypis peregrina)","ispublic":1,"isfriend":0,"isfamily":0},{"id":"52495537949","owner":"64557331@N04","secret":"fdb87a51bf","server":"65535","farm":66,"title":"Tennessee Warbler - (Leiothlypis peregrina)_08312022","ispublic":1,"isfriend":0,"isfamily":0},{"id":"52495722805","owner":"64557331@N04","secret":"a796e6612c","server":"65535","farm":66,"title":"Tennessee Warbler -(Leiothlypis peregrina)_10012022_2","ispublic":1,"isfriend":0,"isfamily":0},{"id":"52495721935","owner":"64557331@N04","secret":"67e52da856","server":"65535","farm":66,"title":"Tennessee Warbler -(Leiothlypis peregrina)_10012022","ispublic":1,"isfriend":0,"isfamily":0},{"id":"52482463318","owner":"13451078@N03","secret":"ed676ed093","server":"65535","farm":66,"title":"Tennessee Warbler (Leiothlypis peregrina)","ispublic":1,"isfriend":0,"isfamily":0},{"id":"52444756900","owner":"13451078@N03","secret":"f08355aa20","server":"65535","farm":66,"title":"Tennessee Warbler 3  (Leiothlypis peregrina)","ispublic":1,"isfriend":0,"isfamily":0},{"id":"52400661485","owner":"59619528@N04","secret":"483a123543","server":"65535","farm":66,"title":"Tennessee Warbler (Leiothlypis peregrina","ispublic":1,"isfriend":0,"isfamily":0},{"id":"52400661370","owner":"59619528@N04","secret":"a7fc5417d5","server":"65535","farm":66,"title":"Tennessee Warbler (Leiothlypis peregrina)","ispublic":1,"isfriend":0,"isfamily":0},{"id":"52399903103","owner":"59619528@N04","secret":"d0ec877c51","server":"65535","farm":66,"title":"Tennessee Warbler (Leiothlypis peregrina)","ispublic":1,"isfriend":0,"isfamily":0},{"id":"52399411951","owner":"59619528@N04","secret":"5becf7871b","server":"65535","farm":66,"title":"Tennessee Warbler (Leiothlypis peregrina)","ispublic":1,"isfriend":0,"isfamily":0},{"id":"52382210730","owner":"44801995@N02","secret":"01ef9d16a3","server":"65535","farm":66,"title":"Tennessee Warbler Leiothlypis peregrina","ispublic":1,"isfriend":0,"isfamily":0},{"id":"52362252653","owner":"195239167@N07","secret":"878eba2b98","server":"65535","farm":66,"title":"Tennessee Warbler","ispublic":1,"isfriend":0,"isfamily":0},{"id":"52302178676","owner":"195239167@N07","secret":"a96f3e13c9","server":"65535","farm":66,"title":"Tenessee Warbler","ispublic":1,"isfriend":0,"isfamily":0},{"id":"52302192953","owner":"195239167@N07","secret":"669c72e74a","server":"65535","farm":66,"title":"Tenessee Warbler","ispublic":1,"isfriend":0,"isfamily":0},{"id":"52124684767","owner":"44801995@N02","secret":"9bc7af879d","server":"65535","farm":66,"title":"Tennessee Warbler Leiothlypis peregrina","ispublic":1,"isfriend":0,"isfamily":0},{"id":"52124681242","owner":"44801995@N02","secret":"d134a6c8e5","server":"65535","farm":66,"title":"Tennessee Warbler Leiothlypis peregrina","ispublic":1,"isfriend":0,"isfamily":0},{"id":"52110745000","owner":"45681418@N03","secret":"477516a25c","server":"65535","farm":66,"title":"Tennessee Warbler (Leiothlypis peregrina)","ispublic":1,"isfriend":0,"isfamily":0},{"id":"52110480524","owner":"45681418@N03","secret":"ddcfb35b01","server":"65535","farm":66,"title":"Tennessee Warbler (Leiothlypis peregrina)","ispublic":1,"isfriend":0,"isfamily":0},{"id":"52109208672","owner":"45681418@N03","secret":"94670293f3","server":"65535","farm":66,"title":"Tennessee Warbler (Leiothlypis peregrina)","ispublic":1,"isfriend":0,"isfamily":0},{"id":"52110271298","owner":"45681418@N03","secret":"4f33bd5d37","server":"65535","farm":66,"title":"Tennessee Warbler (Leiothlypis peregrina)","ispublic":1,"isfriend":0,"isfamily":0},{"id":"52069257017","owner":"61241315@N00","secret":"176b231f8f","server":"0","farm":0,"title":"TEWA_8046","ispublic":1,"isfriend":0,"isfamily":0},{"id":"52069257137","owner":"61241315@N00","secret":"0f559f9443","server":"65535","farm":66,"title":"DSCN8041","ispublic":1,"isfriend":0,"isfamily":0},{"id":"52070312763","owner":"61241315@N00","secret":"7cb596da3d","server":"65535","farm":66,"title":"DSCN8042","ispublic":1,"isfriend":0,"isfamily":0},{"id":"52070304911","owner":"61241315@N00","secret":"472f2dc36b","server":"65535","farm":66,"title":"DSCN8045","ispublic":1,"isfriend":0,"isfamily":0},{"id":"52069257097","owner":"61241315@N00","secret":"c265b7f36b","server":"65535","farm":66,"title":"DSCN8047","ispublic":1,"isfriend":0,"isfamily":0},{"id":"52070780625","owner":"61241315@N00","secret":"9c7505da74","server":"65535","farm":66,"title":"DSCN8105","ispublic":1,"isfriend":0,"isfamily":0},{"id":"52070304851","owner":"61241315@N00","secret":"271cb3590d","server":"65535","farm":66,"title":"DSCN8131","ispublic":1,"isfriend":0,"isfamily":0},{"id":"52062175538","owner":"13451078@N03","secret":"e7dd2eccc7","server":"65535","farm":66,"title":"Tennessee Warbler (Leiothlypis peregrina)","ispublic":1,"isfriend":0,"isfamily":0}]},"stat":"ok"}