{"photos":{"page":1,"pages":47,"perpage":100,"total":4668,"photo":[{"id":"52792384019","owner":"98627816@N02","secret":"bcf8b95a1b","server":"65535","farm":66,"title":"Tropical Kingbird (Tyrannus melancholicus)","ispublic":1,"isfriend":0,"isfamily":0},{"id":"52787643283","owner":"12639178@N07","secret":"1328fba136","server":"65535","farm":66,"title":"Was da oben wohl ist?","ispublic":1,"isfriend":0,"isfamily":0},{"id":"52785471491","owner":"85391626@N07","secret":"75c5b56e14","server":"65535","farm":66,"title":"Tropical Kingbird","ispublic":1,"isfriend":0,"isfamily":0},{"id":"52785706629","owner":"85391626@N07","secret":"38140c5f22","server":"65535","farm":66,"title":"Tropical Kingbird","ispublic":1,"isfriend":0,"isfamily":0},{"id":"52784863242","owner":"12639178@N07","secret":"aa8c91394e","server":"65535","farm":66,"title":"Trauerk\u00f6nigstyrann","ispublic":1,"isfriend":0,"isfamily":0},{"id":"52782401104","owner":"97599611@N04","secret":"e9738c195f","server":"65535","farm":66,"title":"0P7A0753   Tropical Kingbird, Panama","ispublic":1,"isfriend":0,"isfamily":0},{"id":"52773708658","owner":"27846878@N02","secret":"f1e1818c67","server":"65535","farm":66,"title":"suiriri-tropical (Tyrannus melancholicus)","ispublic":1,"isfriend":0,"isfamily":0},{"id":"52773149595","owner":"33886308@N03","secret":"5ca26d30ec","server":"65535","farm":66,"title":"Tropical Kingbird with something to say","ispublic":1,"isfriend":0,"isfamily":0},{"id":"52764182561","owner":"14586608@N08","secret":"a900f6f6e2","server":"65535","farm":66,"title":"EF7A1290_Tropical_Kingbird","ispublic":1,"isfriend":0,"isfamily":0},{"id":"52754448500","owner":"33573751@N04","secret":"0ebfca55e2","server":"65535","farm":66,"title":"Tropical Kingbird (Tyrannus melancholicus) - Costa Rica","ispublic":1,"isfriend":0,"isfamily":0},{"id":"52753997715","owner":"12639178@N07","secret":"22bdac13ac","server":"65535","farm":66,"title":"oder die Unschuld in Person","ispublic":1,"isfriend":0,"isfamily":0},{"id":"52754078288","owner":"12639178@N07","secret":"e15238a284","server":"65535","farm":66,"title":"Erntehelfer","ispublic":1,"isfriend":0,"isfamily":0},{"id":"52749598529","owner":"26128697@N07","secret":"24b978d7cc","server":"65535","farm":66,"title":"suiriri (Tyrannus melancholicus)","ispublic":1,"isfriend":0,"isfamily":0},{"id":"52749763110","owner":"26128697@N07","secret":"735eed473f","server":"65535","farm":66,"title":"suiriri (Tyrannus melancholicus)","ispublic":1,"isfriend":0,"isfamily":0},{"id":"52749847463","owner":"26128697@N07","secret":"a237fcfea7","server":"65535","farm":66,"title":"suiriri (Tyrannus melancholicus)","ispublic":1,"isfriend":0,"isfamily":0},{"id":"52749762960","owner":"26128697@N07","secret":"cf7df7ea7b","server":"65535","farm":66,"title":"suiriri (Tyrannus melancholicus)","ispublic":1,"isfriend":0,"isfamily":0},{"id":"52748823517","owner":"26128697@N07","secret":"6b00c12608","server":"65535","farm":66,"title":"suiriri (Tyrannus melancholicus)","ispublic":1,"isfriend":0,"isfamily":0},{"id":"52747910020","owner":"12639178@N07","secret":"a381b64801","server":"65535","farm":66,"title":"Trauerk\u00f6nigstyrann","ispublic":1,"isfriend":0,"isfamily":0},{"id":"52739845317","owner":"11803211@N06","secret":"36b3c73592","server":"65535","farm":66,"title":"Tropical kingbird (Tyrannus melancholicus), Cuffie River","ispublic":1,"isfriend":0,"isfamily":0},{"id":"52739515623","owner":"9638954@N07","secret":"35a65dcc05","server":"65535","farm":66,"title":"Tropical Kingbird","ispublic":1,"isfriend":0,"isfamily":0},{"id":"52739279494","owner":"9638954@N07","secret":"7e4629b22c","server":"65535","farm":66,"title":"Tropical Kingbird","ispublic":1,"isfriend":0,"isfamily":0},{"id":"52734985492","owner":"45681418@N03","secret":"187e7b0406","server":"65535","farm":66,"title":"Tropical Kingbird (Tyrannus melancholicus)","ispublic":1,"isfriend":0,"isfamily":0},{"id":"52735761149","owner":"45681418@N03","secret":"0556111306","server":"65535","farm":66,"title":"Tropical Kingbird (Tyrannus melancholicus)","ispublic":1,"isfriend":0,"isfamily":0},{"id":"52723155956","owner":"14586608@N08","secret":"7a7650b664","server":"65535","farm":66,"title":"EF7A2825_Flycatcher","ispublic":1,"isfriend":0,"isfamily":0},{"id":"52723559620","owner":"14586608@N08","secret":"849b1591da","server":"65535","farm":66,"title":"EF7A2826_Flycatcher","ispublic":1,"isfriend":0,"isfamily":0},{"id":"52716957814","owner":"84442428@N07","secret":"1a5b8094fb","server":"65535","farm":66,"title":"D\u00e9part en chasse","ispublic":1,"isfriend":0,"isfamily":0},{"id":"52716132342","owner":"103722035@N06","secret":"ddc73d0470","server":"0","farm":0,"title":"Tropical Kingbird (Tyrannus melancholicus), San Luis Obispo, CA","ispublic":1,"isfriend":0,"isfamily":0},{"id":"52715268855","owner":"42543804@N03","secret":"8fbdf64241","server":"65535","farm":66,"title":"Suiriri ( Tyrannus melancholicus )","ispublic":1,"isfriend":0,"isfamily":0},{"id":"52709218059","owner":"195537536@N03","secret":"69ef107547","server":"65535","farm":66,"title":"Tropical Kingbird (Tyrannus melancholicus)","ispublic":1,"isfriend":0,"isfamily":0},{"id":"52705624754","owner":"31704662@N08","secret":"eb6f864963","server":"65535","farm":66,"title":"Tropical Kingbird (Tyrannus melancholicus)","ispublic":1,"isfriend":0,"isfamily":0},{"id":"52701608599","owner":"132165466@N08","secret":"1b32886608","server":"65535","farm":66,"title":"Tropical Kingbird","ispublic":1,"isfriend":0,"isfamily":0},{"id":"52697568061","owner":"107784905@N04","secret":"0246087b37","server":"65535","farm":66,"title":"Tyran m\u00e9lancolique - Hortensias Lodge\/Heredia\/Costa Rica_20211113_009-1","ispublic":1,"isfriend":0,"isfamily":0},{"id":"52696506201","owner":"12639178@N07","secret":"4124f26232","server":"65535","farm":66,"title":"Trauerk\u00f6nigstyrann","ispublic":1,"isfriend":0,"isfamily":0},{"id":"52693742924","owner":"87128840@N02","secret":"8bdeff3da5","server":"65535","farm":66,"title":"Tropical kingbird","ispublic":1,"isfriend":0,"isfamily":0},{"id":"52690834618","owner":"69947563@N07","secret":"6b2f9a54b7","server":"65535","farm":66,"title":"Tropical Kingbird - Victoria, Caldas, Colombia","ispublic":1,"isfriend":0,"isfamily":0},{"id":"52689669279","owner":"48938938@N04","secret":"01b16d7265","server":"65535","farm":66,"title":"Tropical Kingbird_Tyrannus melancholicus and Yellow-headed Caracara_Daptrius chimachima_Ascanio_Inirida_DZ3A5684","ispublic":1,"isfriend":0,"isfamily":0},{"id":"52689324706","owner":"48938938@N04","secret":"070e294121","server":"65535","farm":66,"title":"Tropical Kingbird_Tyrannus melancholicus_Ascanio_Inirida_DZ3A4288","ispublic":1,"isfriend":0,"isfamily":0},{"id":"52689593609","owner":"48938938@N04","secret":"5388be1fd9","server":"65535","farm":66,"title":"Tropical Kingbird_Tyrannus melancholicus_Ascanio_Inirida_DZ3A4290","ispublic":1,"isfriend":0,"isfamily":0},{"id":"52689593554","owner":"48938938@N04","secret":"edc2795652","server":"65535","farm":66,"title":"Tropical Kingbird_Tyrannus melancholicus_Ascanio_Inirida_DZ3A4293","ispublic":1,"isfriend":0,"isfamily":0},{"id":"52688811053","owner":"52450054@N04","secret":"f5b61a7157","server":"65535","farm":66,"title":"Tropical Kingbird - Tyrannus melancholicus, Southern Glades Wildlife Management Area, Homestead, Florida, December 3, 2021","ispublic":1,"isfriend":0,"isfamily":0},{"id":"52686777382","owner":"12639178@N07","secret":"4acea3de52","server":"65535","farm":66,"title":"Trauerk\u00f6nigstyrann am fr\u00fchen Morgen","ispublic":1,"isfriend":0,"isfamily":0},{"id":"52685192163","owner":"132165466@N08","secret":"a2726c56fa","server":"65535","farm":66,"title":"Tropical Kingbird","ispublic":1,"isfriend":0,"isfamily":0},{"id":"52680891941","owner":"48014585@N00","secret":"47ec2d3b5f","server":"65535","farm":66,"title":"Tropical Kingbird","ispublic":1,"isfriend":0,"isfamily":0},{"id":"52680891801","owner":"48014585@N00","secret":"e037e2ecf3","server":"65535","farm":66,"title":"Tropical Kingbird","ispublic":1,"isfriend":0,"isfamily":0},{"id":"52680375997","owner":"48014585@N00","secret":"885635cdb6","server":"65535","farm":66,"title":"Tropical Kingbird","ispublic":1,"isfriend":0,"isfamily":0},{"id":"52667137171","owner":"39177293@N03","secret":"68c55aa713","server":"65535","farm":66,"title":"Tropical Kingbird","ispublic":1,"isfriend":0,"isfamily":0},{"id":"52667428849","owner":"39177293@N03","secret":"5c8d6aeed8","server":"65535","farm":66,"title":"Tropical Kingbird","ispublic":1,"isfriend":0,"isfamily":0},{"id":"52662911591","owner":"197546226@N05","secret":"dda8d31ff9","server":"65535","farm":66,"title":"Tyrannus melancholicus","ispublic":1,"isfriend":0,"isfamily":0},{"id":"52655629908","owner":"109544413@N05","secret":"973b07a707","server":"65535","farm":66,"title":"Yellow & Blue","ispublic":1,"isfriend":0,"isfamily":0},{"id":"52640086281","owner":"162501315@N05","secret":"e6f8dd617c","server":"65535","farm":66,"title":"Suiriri (Tyrannus melancholicus)","ispublic":1,"isfriend":0,"isfamily":0},{"id":"52637293376","owner":"61062164@N08","secret":"7e6e40df36","server":"65535","farm":66,"title":"850_6491-NEF_DxO DP2","ispublic":1,"isfriend":0,"isfamily":0},{"id":"52635940818","owner":"56747859@N02","secret":"0bf1d3d534","server":"65535","farm":66,"title":"Tropical Kingbird (Tyrannus melancholicus)","ispublic":1,"isfriend":0,"isfamily":0},{"id":"52634542442","owner":"141256983@N04","secret":"1f4bbfc41c","server":"65535","farm":66,"title":"Tropical Kingbird (tyrannus melancholicus)","ispublic":1,"isfriend":0,"isfamily":0},{"id":"52618322213","owner":"123174353@N02","secret":"192b34d9f9","server":"65535","farm":66,"title":"Tyrannus melancholicus \/ Tropical Kingbird \/ tropische koningstiran","ispublic":1,"isfriend":0,"isfamily":0},{"id":"52613984126","owner":"103722035@N06","secret":"900a86ec97","server":"0","farm":0,"title":"Tropical Kingbird (Tyrannus melancholicus), San Luis Obispo, CA","ispublic":1,"isfriend":0,"isfamily":0},{"id":"52606663627","owner":"11295713@N00","secret":"5ba2088231","server":"65535","farm":66,"title":"Another Tropical Kingbird (Tyrannus melancholicus) on Wire","ispublic":1,"isfriend":0,"isfamily":0},{"id":"52607311944","owner":"132734449@N05","secret":"0afb9db4bd","server":"65535","farm":66,"title":"Tropical kingbird","ispublic":1,"isfriend":0,"isfamily":0},{"id":"52606475069","owner":"153426373@N07","secret":"40c583d0ae","server":"65535","farm":66,"title":"Tropical Kingbird","ispublic":1,"isfriend":0,"isfamily":0},{"id":"52602215492","owner":"92802221@N05","secret":"829e281690","server":"65535","farm":66,"title":"2022-12-26_ECU_Manabi Province, Ayampe river estuary_Tropical Kingbird (Tyrannus melancholicus)_ByHugoArnal (1)","ispublic":1,"isfriend":0,"isfamily":0},{"id":"52602709771","owner":"92802221@N05","secret":"5f580e7022","server":"65535","farm":66,"title":"2022-12-26_ECU_Manabi Province, Ayampe river estuary_Tropical Kingbird (Tyrannus melancholicus)_ByHugoArnal (3)","ispublic":1,"isfriend":0,"isfamily":0},{"id":"52597987856","owner":"27794127@N07","secret":"81103ce373","server":"65535","farm":66,"title":"Tyrannus melancholicus","ispublic":1,"isfriend":0,"isfamily":0},{"id":"52598434753","owner":"12185056@N02","secret":"b6f57e2965","server":"65535","farm":66,"title":"Tropical Kingbird (Tyrannus melancholicus)","ispublic":1,"isfriend":0,"isfamily":0},{"id":"52596485201","owner":"68635735@N02","secret":"eb5b6b64d3","server":"65535","farm":66,"title":"Tropical Kingbird (Tyrannus melancholicus)","ispublic":1,"isfriend":0,"isfamily":0},{"id":"52595995457","owner":"68635735@N02","secret":"e6ddc76bd6","server":"65535","farm":66,"title":"Tropical Kingbird (Tyrannus melancholicus)","ispublic":1,"isfriend":0,"isfamily":0},{"id":"52588001647","owner":"130674121@N08","secret":"5d27b04cb1","server":"65535","farm":66,"title":"Kingbird (Tropical) - Porto Jofre, Pantanal, Brazil - 24","ispublic":1,"isfriend":0,"isfamily":0},{"id":"52584125019","owner":"69812270@N00","secret":"2537f2cf93","server":"65535","farm":66,"title":"Tropical Kingbird, San Lorenzo River (Sorry MBB!)","ispublic":1,"isfriend":0,"isfamily":0},{"id":"52582553330","owner":"27794127@N07","secret":"afea51d513","server":"65535","farm":66,"title":"Tyrannus melancholicus","ispublic":1,"isfriend":0,"isfamily":0},{"id":"52581568002","owner":"27794127@N07","secret":"cba9b0675f","server":"65535","farm":66,"title":"Tyrannus melancholicus","ispublic":1,"isfriend":0,"isfamily":0},{"id":"52582467360","owner":"27794127@N07","secret":"fc45beed74","server":"65535","farm":66,"title":"Tyrannus melancholicus","ispublic":1,"isfriend":0,"isfamily":0},{"id":"52577642245","owner":"11295713@N00","secret":"867516c037","server":"65535","farm":66,"title":"Tropical Kingbird (Tyrannus melancholicus) on Wire","ispublic":1,"isfriend":0,"isfamily":0},{"id":"52576517868","owner":"11295713@N00","secret":"b340eb1f7d","server":"65535","farm":66,"title":"Tropical Kingbird (Tyrannus melancholicus) Profile 2","ispublic":1,"isfriend":0,"isfamily":0},{"id":"52576420105","owner":"11295713@N00","secret":"d93507b4c0","server":"65535","farm":66,"title":"Tropical Kingbird (Tyrannus melancholicus) Profile","ispublic":1,"isfriend":0,"isfamily":0},{"id":"52576085143","owner":"195899031@N06","secret":"deb28bb6dc","server":"65535","farm":66,"title":"Tyrannus melancholicus","ispublic":1,"isfriend":0,"isfamily":0},{"id":"52575093372","owner":"195899031@N06","secret":"41c6c6d748","server":"65535","farm":66,"title":"Tyrannus melancholicus","ispublic":1,"isfriend":0,"isfamily":0},{"id":"52573323651","owner":"107784905@N04","secret":"21990c5b80","server":"65535","farm":66,"title":"Tyran m\u00e9lancolique - Villa Bali\/Puntarenas\/Costa Rica_20211120_006-1","ispublic":1,"isfriend":0,"isfamily":0},{"id":"52563485462","owner":"140318147@N08","secret":"016efc2c03","server":"65535","farm":66,"title":"tropical kingbird (Tyrannus melancholicus) L4A7791","ispublic":1,"isfriend":0,"isfamily":0},{"id":"52549532496","owner":"132165466@N08","secret":"b8d1fd1807","server":"65535","farm":66,"title":"Tropical Kingbird","ispublic":1,"isfriend":0,"isfamily":0},{"id":"52537249115","owner":"62953254@N04","secret":"34313669c7","server":"65535","farm":66,"title":"Suiriri\/Tropical Kingbird","ispublic":1,"isfriend":0,"isfamily":0},{"id":"52556043210","owner":"134270033@N06","secret":"36cb506cb2","server":"0","farm":0,"title":"Vid Doc for Audio","ispublic":1,"isfriend":0,"isfamily":0},{"id":"52535226913","owner":"195899031@N06","secret":"b842123e16","server":"65535","farm":66,"title":"Tyrannus melancholicus","ispublic":1,"isfriend":0,"isfamily":0},{"id":"52532096072","owner":"119095828@N03","secret":"ae40a15581","server":"65535","farm":66,"title":"Tropical Kingbird (Tyrannus melancholicus)","ispublic":1,"isfriend":0,"isfamily":0},{"id":"52527160942","owner":"100247776@N03","secret":"d379c3747a","server":"65535","farm":66,"title":"SUIRIRI - Tyrannus melancholicus - GOI\u00c2NIA","ispublic":1,"isfriend":0,"isfamily":0},{"id":"52494794637","owner":"86666094@N00","secret":"99a60b28f6","server":"65535","farm":66,"title":"Tropical Kingbird 1","ispublic":1,"isfriend":0,"isfamily":0},{"id":"52495557989","owner":"86666094@N00","secret":"d9fa596cd1","server":"65535","farm":66,"title":"Tropical Kingbird","ispublic":1,"isfriend":0,"isfamily":0},{"id":"52493680072","owner":"38032433@N07","secret":"b94dfa09e5","server":"65535","farm":66,"title":"4Y4A2850.jpg","ispublic":1,"isfriend":0,"isfamily":0},{"id":"52477725961","owner":"36667121@N06","secret":"e7c7ac136e","server":"65535","farm":66,"title":"Tropical kingbird  \/ Tyrannus melancholicus","ispublic":1,"isfriend":0,"isfamily":0},{"id":"52470802912","owner":"23020855@N03","secret":"162c820ba6","server":"65535","farm":66,"title":"Tropical Kingbird - Westham Island, BC","ispublic":1,"isfriend":0,"isfamily":0},{"id":"52481671960","owner":"134270033@N06","secret":"7fcffa1298","server":"65535","farm":66,"title":"that time of year","ispublic":1,"isfriend":0,"isfamily":0},{"id":"52699668628","owner":"119095828@N03","secret":"a5b11926b5","server":"65535","farm":66,"title":"Tropical Kingbird (Tyrannus melancholicus)","ispublic":1,"isfriend":0,"isfamily":0},{"id":"52681176119","owner":"48014585@N00","secret":"a474364eeb","server":"65535","farm":66,"title":"Tropical Kingbird","ispublic":1,"isfriend":0,"isfamily":0},{"id":"52624401813","owner":"197491775@N08","secret":"d5c34507f5","server":"65535","farm":66,"title":"Tyrannus melancholicus","ispublic":1,"isfriend":0,"isfamily":0},{"id":"52579773817","owner":"153973412@N04","secret":"f7702f5d43","server":"65535","farm":66,"title":"Tropical Kingbird-Tyrannus melancholicus, Cozumel, MX","ispublic":1,"isfriend":0,"isfamily":0},{"id":"52576252449","owner":"11295713@N00","secret":"55bc4d6c86","server":"65535","farm":66,"title":"Tropical Kingbird (Tyrannus melancholicus) Portrait","ispublic":1,"isfriend":0,"isfamily":0},{"id":"52575833414","owner":"195899031@N06","secret":"63fd255cd1","server":"65535","farm":66,"title":"Tyrannus melancholicus","ispublic":1,"isfriend":0,"isfamily":0},{"id":"52575093407","owner":"195899031@N06","secret":"5e4a6b55a1","server":"65535","farm":66,"title":"Tyrannus melancholicus","ispublic":1,"isfriend":0,"isfamily":0},{"id":"52534685266","owner":"195899031@N06","secret":"d8764a9c8a","server":"65535","farm":66,"title":"Tyrannus melancholicus","ispublic":1,"isfriend":0,"isfamily":0},{"id":"52535226873","owner":"195899031@N06","secret":"5508646ffe","server":"65535","farm":66,"title":"Tyrannus melancholicus","ispublic":1,"isfriend":0,"isfamily":0},{"id":"52490231390","owner":"103722035@N06","secret":"9d4e9b976b","server":"0","farm":0,"title":"Tropical Kingbird (Tyrannus melancholicus), Laguna Lake, San Luis Obispo, CA","ispublic":1,"isfriend":0,"isfamily":0},{"id":"52456002329","owner":"166784833@N04","secret":"3e15a00256","server":"65535","farm":66,"title":"Just dropping by","ispublic":1,"isfriend":0,"isfamily":0},{"id":"52455632023","owner":"103722035@N06","secret":"37fb625cf6","server":"0","farm":0,"title":"Tropical Kingbird (Tyrannus melancholicus), Laguna Lake, San Luis Obispo, CA","ispublic":1,"isfriend":0,"isfamily":0}]},"stat":"ok"}