{"photos":{"page":1,"pages":195,"perpage":100,"total":19415,"photo":[{"id":"52792531220","owner":"42388593@N04","secret":"e668907f02","server":"65535","farm":66,"title":"Troldand, Tufted duck, Reiherente (Aythya fuligula)-0812","ispublic":1,"isfriend":0,"isfamily":0},{"id":"52790806227","owner":"68466173@N02","secret":"6d6e1e6bf8","server":"65535","farm":66,"title":"Tufted Duck (Aythya fuligula)","ispublic":1,"isfriend":0,"isfamily":0},{"id":"52791210440","owner":"134759303@N04","secret":"09eea5df86","server":"65535","farm":66,"title":"Troldand han Eg\u00e5 engs\u00f8 2","ispublic":1,"isfriend":0,"isfamily":0},{"id":"52789586191","owner":"12639178@N07","secret":"0afc1b68d6","server":"65535","farm":66,"title":"Reiherente (Aythya fuligula)","ispublic":1,"isfriend":0,"isfamily":0},{"id":"52789029877","owner":"12639178@N07","secret":"38b867207b","server":"65535","farm":66,"title":"Reiherente (Aythya fuligula)","ispublic":1,"isfriend":0,"isfamily":0},{"id":"52789817454","owner":"12639178@N07","secret":"357e751ecc","server":"65535","farm":66,"title":"Reiherente (Aythya fuligula)","ispublic":1,"isfriend":0,"isfamily":0},{"id":"52789029517","owner":"12639178@N07","secret":"e82841c47a","server":"65535","farm":66,"title":"Reiherente (Aythya fuligula)","ispublic":1,"isfriend":0,"isfamily":0},{"id":"52789726959","owner":"14191740@N08","secret":"6d8f6273c7","server":"65535","farm":66,"title":"Tufted Duck (Aythya fuligula), Kirkcaldy, Fife","ispublic":1,"isfriend":0,"isfamily":0},{"id":"52787882064","owner":"12639178@N07","secret":"8dd13c7339","server":"65535","farm":66,"title":"Reiherente (Aythya fuligula)","ispublic":1,"isfriend":0,"isfamily":0},{"id":"52788064513","owner":"12639178@N07","secret":"51ed4a02e4","server":"65535","farm":66,"title":"..jetzt muss ich mir auch noch alleine den R\u00fccken kraulen..","ispublic":1,"isfriend":0,"isfamily":0},{"id":"52787567951","owner":"12639178@N07","secret":"60d8209c10","server":"65535","farm":66,"title":"..Reiherentendreiergesellschaft","ispublic":1,"isfriend":0,"isfamily":0},{"id":"52786555702","owner":"12639178@N07","secret":"5120f48b00","server":"65535","farm":66,"title":"Reiherenten-M\u00e4nnchen","ispublic":1,"isfriend":0,"isfamily":0},{"id":"52785815746","owner":"44093058@N06","secret":"eb080b09e3","server":"65535","farm":66,"title":"Tufted duck, Aythya fuligula, Vigg","ispublic":1,"isfriend":0,"isfamily":0},{"id":"52786049884","owner":"44093058@N06","secret":"e0b9c54291","server":"65535","farm":66,"title":"Common merganser, Mergus merganser, Storskrake","ispublic":1,"isfriend":0,"isfamily":0},{"id":"52786047754","owner":"44093058@N06","secret":"790fe68fab","server":"65535","farm":66,"title":"Great cormorant, Phalacrocorax carbo, Storskarv","ispublic":1,"isfriend":0,"isfamily":0},{"id":"52786168258","owner":"115212372@N04","secret":"ffa6fd5fbd","server":"65535","farm":66,"title":"Tufted Duck (Aythya fuligula)","ispublic":1,"isfriend":0,"isfamily":0},{"id":"52784836602","owner":"193569705@N08","secret":"af0d82dd3d","server":"65535","farm":66,"title":"BQ8A7729","ispublic":1,"isfriend":0,"isfamily":0},{"id":"52785529953","owner":"75420755@N08","secret":"925ba49c86","server":"65535","farm":66,"title":"Going somewhere","ispublic":1,"isfriend":0,"isfamily":0},{"id":"52783843732","owner":"21182820@N04","secret":"3892a39db1","server":"65535","farm":66,"title":"\u099f\u09bf\u0995\u09bf \u09b9\u09be\u0981\u09b8   |   Tufted duck","ispublic":1,"isfriend":0,"isfamily":0},{"id":"52782850462","owner":"183120103@N06","secret":"75058ce0f5","server":"65535","farm":66,"title":"Tufted Duck","ispublic":1,"isfriend":0,"isfamily":0},{"id":"52782177162","owner":"12639178@N07","secret":"b95e542957","server":"65535","farm":66,"title":"Reiherenten mit Kolbenenten","ispublic":1,"isfriend":0,"isfamily":0},{"id":"52783182198","owner":"12639178@N07","secret":"8bbbcae75c","server":"65535","farm":66,"title":"Herrisch - Reiherente Erpel und Ente","ispublic":1,"isfriend":0,"isfamily":0},{"id":"52781351926","owner":"116257779@N08","secret":"11093e481e","server":"65535","farm":66,"title":"Fuligule Morillon","ispublic":1,"isfriend":0,"isfamily":0},{"id":"52779653665","owner":"137111955@N06","secret":"06766b6f19","server":"65535","farm":66,"title":"TuftedDuck_06","ispublic":1,"isfriend":0,"isfamily":0},{"id":"52778704967","owner":"137111955@N06","secret":"61957ebf00","server":"65535","farm":66,"title":"TuftedDuck_07","ispublic":1,"isfriend":0,"isfamily":0},{"id":"52779493255","owner":"129108168@N08","secret":"b084355997","server":"65535","farm":66,"title":"Aythya fuligula \u2640","ispublic":1,"isfriend":0,"isfamily":0},{"id":"52779328104","owner":"129108168@N08","secret":"4abb2f424e","server":"65535","farm":66,"title":"Aythya fuligula \u2642","ispublic":1,"isfriend":0,"isfamily":0},{"id":"52778946261","owner":"42388593@N04","secret":"7d1d7a0427","server":"65535","farm":66,"title":"Troldand, Tufted duck, Reiherente (Aythya fuligula)-0813","ispublic":1,"isfriend":0,"isfamily":0},{"id":"52776532987","owner":"188730998@N07","secret":"1730ae6dc9","server":"65535","farm":66,"title":"Tufted Duck","ispublic":1,"isfriend":0,"isfamily":0},{"id":"52777540748","owner":"188730998@N07","secret":"8b8ee05573","server":"65535","farm":66,"title":"Tufted Duck","ispublic":1,"isfriend":0,"isfamily":0},{"id":"52777316369","owner":"188730998@N07","secret":"e832421dc5","server":"65535","farm":66,"title":"Tufted Duck","ispublic":1,"isfriend":0,"isfamily":0},{"id":"52777249928","owner":"18217058@N04","secret":"09b796a65b","server":"65535","farm":66,"title":"Tufted ducks \/ Sk\u00fafendur (Aythya fuligula) and one Lesser Scaup \/ K\u00faf\u00f6nd (Aythya affinis)","ispublic":1,"isfriend":0,"isfamily":0},{"id":"52776240042","owner":"18217058@N04","secret":"64f199499e","server":"65535","farm":66,"title":"Tufted ducks \/ Sk\u00fafendur (Aythya fuligula) and one Lesser Scaup \/ K\u00faf\u00f6nd (Aythya affinis)","ispublic":1,"isfriend":0,"isfamily":0},{"id":"52777132728","owner":"92193497@N03","secret":"34c64c814c","server":"65535","farm":66,"title":"Aythya fuligula","ispublic":1,"isfriend":0,"isfamily":0},{"id":"52776966533","owner":"75420755@N08","secret":"671aedb019","server":"65535","farm":66,"title":"Heading home","ispublic":1,"isfriend":0,"isfamily":0},{"id":"52776662544","owner":"186793662@N03","secret":"6ac432403c","server":"65535","farm":66,"title":"fotoselectie 70235","ispublic":1,"isfriend":0,"isfamily":0},{"id":"52776818175","owner":"186793662@N03","secret":"9682b669cd","server":"65535","farm":66,"title":"fotoselectie 70238","ispublic":1,"isfriend":0,"isfamily":0},{"id":"52776597643","owner":"12639178@N07","secret":"a4fd302b18","server":"65535","farm":66,"title":"Reiherente, weiblich  (Aythya fuligula)","ispublic":1,"isfriend":0,"isfamily":0},{"id":"52775768981","owner":"95975006@N08","secret":"79e1fd0fb0","server":"65535","farm":66,"title":"Aythya fuligula","ispublic":1,"isfriend":0,"isfamily":0},{"id":"52776024649","owner":"95975006@N08","secret":"cd6001eaa5","server":"65535","farm":66,"title":"Aythya fuligula","ispublic":1,"isfriend":0,"isfamily":0},{"id":"52776179465","owner":"95975006@N08","secret":"f0670987a1","server":"65535","farm":66,"title":"Aythya fuligula","ispublic":1,"isfriend":0,"isfamily":0},{"id":"52775481621","owner":"88636507@N05","secret":"7c9a6f73e3","server":"65535","farm":66,"title":"Image-10892.jpg","ispublic":1,"isfriend":0,"isfamily":0},{"id":"52775962643","owner":"88636507@N05","secret":"011ecefdd0","server":"65535","farm":66,"title":"Image-10884.jpg","ispublic":1,"isfriend":0,"isfamily":0},{"id":"52775564119","owner":"75439979@N08","secret":"99e2438657","server":"65535","farm":66,"title":"Tufted Duck - Aythya fuligula","ispublic":1,"isfriend":0,"isfamily":0},{"id":"52775791093","owner":"75439979@N08","secret":"35e043f5fb","server":"65535","farm":66,"title":"Tufted Duck - Aythya fuligula","ispublic":1,"isfriend":0,"isfamily":0},{"id":"52775562168","owner":"12639178@N07","secret":"4f26521fc9","server":"65535","farm":66,"title":"Reihererpel","ispublic":1,"isfriend":0,"isfamily":0},{"id":"52775208190","owner":"43898512@N07","secret":"67595c481e","server":"65535","farm":66,"title":"Tufted Duck - Aythya fuligula","ispublic":1,"isfriend":0,"isfamily":0},{"id":"52775043629","owner":"43898512@N07","secret":"9c67b87c19","server":"65535","farm":66,"title":"Tufted Duck - Aythya fuligula","ispublic":1,"isfriend":0,"isfamily":0},{"id":"52775043489","owner":"43898512@N07","secret":"964a935e76","server":"65535","farm":66,"title":"Tufted Duck - Aythya fuligula","ispublic":1,"isfriend":0,"isfamily":0},{"id":"52774785181","owner":"43898512@N07","secret":"91ec03d547","server":"65535","farm":66,"title":"Tufted Duck - Aythya fuligula","ispublic":1,"isfriend":0,"isfamily":0},{"id":"52775063965","owner":"12639178@N07","secret":"eae1926c18","server":"65535","farm":66,"title":"Reiherenten","ispublic":1,"isfriend":0,"isfamily":0},{"id":"52773403325","owner":"12639178@N07","secret":"a01182dec5","server":"65535","farm":66,"title":"Reiherenten","ispublic":1,"isfriend":0,"isfamily":0},{"id":"52773206149","owner":"95975006@N08","secret":"315f13153b","server":"65535","farm":66,"title":"Aythya fuligula","ispublic":1,"isfriend":0,"isfamily":0},{"id":"52773075404","owner":"77597999@N02","secret":"554cc90514","server":"65535","farm":66,"title":"Aythya fuligula \/ Moretta \/Tufted duck","ispublic":1,"isfriend":0,"isfamily":0},{"id":"52771339784","owner":"53280041@N04","secret":"8cf8f3d447","server":"65535","farm":66,"title":"Tufted duck","ispublic":1,"isfriend":0,"isfamily":0},{"id":"52771571978","owner":"53280041@N04","secret":"096687829c","server":"65535","farm":66,"title":"Tufted duck","ispublic":1,"isfriend":0,"isfamily":0},{"id":"52771571923","owner":"53280041@N04","secret":"315e69d6f1","server":"65535","farm":66,"title":"Tufted duck","ispublic":1,"isfriend":0,"isfamily":0},{"id":"52770322651","owner":"12639178@N07","secret":"bbec435d55","server":"65535","farm":66,"title":"Regnerischer Morgen am See","ispublic":1,"isfriend":0,"isfamily":0},{"id":"52770209910","owner":"39138537@N06","secret":"cd422e3dbe","server":"65535","farm":66,"title":"Tufted Duck \/ Sk\u00faf\u00f6nd (Aythya fuligula)","ispublic":1,"isfriend":0,"isfamily":0},{"id":"52769198647","owner":"189697862@N03","secret":"e8d8957e9e","server":"65535","farm":66,"title":"Fuligule morillon Aythya fuligula - Tufted Duck","ispublic":1,"isfriend":0,"isfamily":0},{"id":"52767855412","owner":"75439979@N08","secret":"8e703d46f9","server":"65535","farm":66,"title":"Tufted Duck - Aythya fuligula","ispublic":1,"isfriend":0,"isfamily":0},{"id":"52768881498","owner":"75439979@N08","secret":"c56f356430","server":"65535","farm":66,"title":"Tufted Duck - Aythya fuligula","ispublic":1,"isfriend":0,"isfamily":0},{"id":"52768647814","owner":"75439979@N08","secret":"ef86b9a51f","server":"65535","farm":66,"title":"Tufted Duck - Aythya fuligula","ispublic":1,"isfriend":0,"isfamily":0},{"id":"52768808090","owner":"75439979@N08","secret":"2d8815652d","server":"65535","farm":66,"title":"Tufted Duck - Aythya fuligula","ispublic":1,"isfriend":0,"isfamily":0},{"id":"52765210992","owner":"158366976@N05","secret":"4e7f117761","server":"65535","farm":66,"title":"Tufted Duck - Female (Aythya fuligula) 2022-04-01. Parc Slip, Aberkenfig, South Wales","ispublic":1,"isfriend":0,"isfamily":0},{"id":"52765736536","owner":"158366976@N05","secret":"899ebbe8b3","server":"65535","farm":66,"title":"Tufted Duck - Male (Aythya fuligula) 2022-04-01. Parc Slip, Aberkenfig, South Wales","ispublic":1,"isfriend":0,"isfamily":0},{"id":"52765329103","owner":"53041612@N05","secret":"6d5cc085c1","server":"65535","farm":66,"title":"Tufted duck","ispublic":1,"isfriend":0,"isfamily":0},{"id":"52764824878","owner":"41798562@N07","secret":"5faa982b83","server":"65535","farm":66,"title":"Tufted Duck (Aythya fuligula) \u2640","ispublic":1,"isfriend":0,"isfamily":0},{"id":"52763506337","owner":"75439979@N08","secret":"1da0d9275a","server":"65535","farm":66,"title":"Tufted Duck - Aythya fuligula","ispublic":1,"isfriend":0,"isfamily":0},{"id":"52763585696","owner":"12639178@N07","secret":"21db3b727f","server":"65535","farm":66,"title":"Badefreuden","ispublic":1,"isfriend":0,"isfamily":0},{"id":"52763271368","owner":"53041612@N05","secret":"4df872540d","server":"65535","farm":66,"title":"Tufted duck","ispublic":1,"isfriend":0,"isfamily":0},{"id":"52762776666","owner":"88636507@N05","secret":"7f5e07c5fc","server":"65535","farm":66,"title":"Image-10480.jpg","ispublic":1,"isfriend":0,"isfamily":0},{"id":"52762231492","owner":"88636507@N05","secret":"da27d6579a","server":"65535","farm":66,"title":"Image-10433.jpg","ispublic":1,"isfriend":0,"isfamily":0},{"id":"52762776296","owner":"88636507@N05","secret":"08647dc402","server":"65535","farm":66,"title":"Image-10429.jpg","ispublic":1,"isfriend":0,"isfamily":0},{"id":"52762231077","owner":"88636507@N05","secret":"c30f349645","server":"65535","farm":66,"title":"Image-10415.jpg","ispublic":1,"isfriend":0,"isfamily":0},{"id":"52763178075","owner":"88636507@N05","secret":"08e92fc11c","server":"65535","farm":66,"title":"Image-10394.jpg","ispublic":1,"isfriend":0,"isfamily":0},{"id":"52762230572","owner":"88636507@N05","secret":"0f46863627","server":"65535","farm":66,"title":"Image-10382.jpg","ispublic":1,"isfriend":0,"isfamily":0},{"id":"52763021214","owner":"88636507@N05","secret":"af1e75a00b","server":"65535","farm":66,"title":"Image-10337.jpg","ispublic":1,"isfriend":0,"isfamily":0},{"id":"52762229312","owner":"88636507@N05","secret":"56407a16a9","server":"65535","farm":66,"title":"Image-10333.jpg","ispublic":1,"isfriend":0,"isfamily":0},{"id":"52763259453","owner":"88636507@N05","secret":"aab0335b14","server":"65535","farm":66,"title":"Image-10277.jpg","ispublic":1,"isfriend":0,"isfamily":0},{"id":"52762228942","owner":"88636507@N05","secret":"084e472688","server":"65535","farm":66,"title":"Image-10254.jpg","ispublic":1,"isfriend":0,"isfamily":0},{"id":"52763259078","owner":"88636507@N05","secret":"165a379712","server":"65535","farm":66,"title":"Image-10230.jpg","ispublic":1,"isfriend":0,"isfamily":0},{"id":"52763020124","owner":"88636507@N05","secret":"ff1ae4875b","server":"65535","farm":66,"title":"Image-10217.jpg","ispublic":1,"isfriend":0,"isfamily":0},{"id":"52763175550","owner":"88636507@N05","secret":"4f4b6824a6","server":"65535","farm":66,"title":"Image-10172.jpg","ispublic":1,"isfriend":0,"isfamily":0},{"id":"52763258443","owner":"88636507@N05","secret":"af2481c034","server":"65535","farm":66,"title":"Image-10142.jpg","ispublic":1,"isfriend":0,"isfamily":0},{"id":"52762227902","owner":"88636507@N05","secret":"096a6d1548","server":"65535","farm":66,"title":"Image-1.jpg","ispublic":1,"isfriend":0,"isfamily":0},{"id":"52762227687","owner":"88636507@N05","secret":"f203cd773a","server":"65535","farm":66,"title":"Image-10117.jpg","ispublic":1,"isfriend":0,"isfamily":0},{"id":"52763174505","owner":"88636507@N05","secret":"060ccf98d3","server":"65535","farm":66,"title":"Image-10102.jpg","ispublic":1,"isfriend":0,"isfamily":0},{"id":"52763018249","owner":"88636507@N05","secret":"135381e717","server":"65535","farm":66,"title":"Image-10077.jpg","ispublic":1,"isfriend":0,"isfamily":0},{"id":"52759489202","owner":"194215136@N06","secret":"b980587fac","server":"65535","farm":66,"title":"Modern look","ispublic":1,"isfriend":0,"isfamily":0},{"id":"52760322408","owner":"12639178@N07","secret":"de51ffc9a5","server":"65535","farm":66,"title":"Reiherenten","ispublic":1,"isfriend":0,"isfamily":0},{"id":"52758124656","owner":"12639178@N07","secret":"52c85ffbfb","server":"65535","farm":66,"title":"Reiherenten (Aythya fuligula)","ispublic":1,"isfriend":0,"isfamily":0},{"id":"52757455307","owner":"12639178@N07","secret":"ecb68eb575","server":"65535","farm":66,"title":"Reiherente","ispublic":1,"isfriend":0,"isfamily":0},{"id":"52757056242","owner":"12639178@N07","secret":"95ca6fcd61","server":"65535","farm":66,"title":"Reiherente","ispublic":1,"isfriend":0,"isfamily":0},{"id":"52757491684","owner":"194163709@N08","secret":"fe04b70735","server":"65535","farm":66,"title":"PORR\u00d3N COM\u00daN Y MO\u00d1UDO","ispublic":1,"isfriend":0,"isfamily":0},{"id":"52783182058","owner":"12639178@N07","secret":"0625e1f897","server":"65535","farm":66,"title":"Reiherente abends an der Pegnitz","ispublic":1,"isfriend":0,"isfamily":0},{"id":"52778606862","owner":"12639178@N07","secret":"8fa7d535fc","server":"65535","farm":66,"title":"Reiherente","ispublic":1,"isfriend":0,"isfamily":0},{"id":"52776609864","owner":"12639178@N07","secret":"e982bf01c9","server":"65535","farm":66,"title":"Junggesellen-Abschied","ispublic":1,"isfriend":0,"isfamily":0},{"id":"52776116811","owner":"12639178@N07","secret":"bf40715627","server":"65535","farm":66,"title":"Reiherente, m\u00e4nnlich  (Aythya fuligula)","ispublic":1,"isfriend":0,"isfamily":0},{"id":"52757212471","owner":"12639178@N07","secret":"59f99a0bff","server":"65535","farm":66,"title":"Reiherenten eingetroffen","ispublic":1,"isfriend":0,"isfamily":0}]},"stat":"ok"}