{"photos":{"page":1,"pages":58,"perpage":100,"total":5795,"photo":[{"id":"52792130219","owner":"85277889@N08","secret":"2a83e49653","server":"65535","farm":66,"title":"Tundra Swan (Cygnus columbianus) 2023-04-01 (9)","ispublic":1,"isfriend":0,"isfamily":0},{"id":"52789023927","owner":"8666250@N02","secret":"a50233bfca","server":"65535","farm":66,"title":"Trumpeter Swan distribution map - Post-breeding Migration eBird","ispublic":1,"isfriend":0,"isfamily":0},{"id":"52789934090","owner":"8666250@N02","secret":"aa721cf58c","server":"65535","farm":66,"title":"Trumpeter Swan 4 distribution maps combined \u2014 (Best viewed by pressing L, then using forward & back keys)","ispublic":1,"isfriend":0,"isfamily":0},{"id":"52789990773","owner":"8666250@N02","secret":"1e27b7ba3c","server":"65535","farm":66,"title":"Trumpeter Swan distribution map - Non-breeding- eBird","ispublic":1,"isfriend":0,"isfamily":0},{"id":"52789990618","owner":"8666250@N02","secret":"abfcd199fd","server":"65535","farm":66,"title":"Trumpeter Swan distribution map - Pre-breeding Migration - eBird.","ispublic":1,"isfriend":0,"isfamily":0},{"id":"52789933890","owner":"8666250@N02","secret":"9ff195267b","server":"65535","farm":66,"title":"Trumpeter Swan distribution map - Post-breeding Migration eBird","ispublic":1,"isfriend":0,"isfamily":0},{"id":"52788933272","owner":"8666250@N02","secret":"c984ca39c8","server":"65535","farm":66,"title":"The five...","ispublic":1,"isfriend":0,"isfamily":0},{"id":"52789466596","owner":"8666250@N02","secret":"ba424bf4d1","server":"65535","farm":66,"title":"Benediction -05","ispublic":1,"isfriend":0,"isfamily":0},{"id":"52788909757","owner":"8666250@N02","secret":"f9e65db346","server":"65535","farm":66,"title":"Benediction -04","ispublic":1,"isfriend":0,"isfamily":0},{"id":"52789466301","owner":"8666250@N02","secret":"4ab2a37461","server":"65535","farm":66,"title":"Benediction -03","ispublic":1,"isfriend":0,"isfamily":0},{"id":"52788909422","owner":"8666250@N02","secret":"3af22fd632","server":"65535","farm":66,"title":"Benediction -02","ispublic":1,"isfriend":0,"isfamily":0},{"id":"52788909267","owner":"8666250@N02","secret":"fe32c5cb8b","server":"65535","farm":66,"title":"Benediction -01","ispublic":1,"isfriend":0,"isfamily":0},{"id":"52786063590","owner":"93179781@N06","secret":"3c1b5cb434","server":"65535","farm":66,"title":"Tundra Swans - Cygnus columbianus (Anatidae) 122y-181437","ispublic":1,"isfriend":0,"isfamily":0},{"id":"52780680143","owner":"70006685@N02","secret":"5cd8e2ef51","server":"65535","farm":66,"title":"Bewick swan 01","ispublic":1,"isfriend":0,"isfamily":0},{"id":"52778281044","owner":"49114357@N08","secret":"e845867d38","server":"65535","farm":66,"title":"Tundra Swans","ispublic":1,"isfriend":0,"isfamily":0},{"id":"52757577593","owner":"49114357@N08","secret":"25e40f1bc5","server":"65535","farm":66,"title":"Tundra Swan","ispublic":1,"isfriend":0,"isfamily":0},{"id":"52777719851","owner":"8666250@N02","secret":"ca71f8d6f8","server":"65535","farm":66,"title":"Mr Cogo escorts the Tundras....","ispublic":1,"isfriend":0,"isfamily":0},{"id":"52778204608","owner":"8666250@N02","secret":"6dd6f4e0be","server":"65535","farm":66,"title":"Combined Trundra families with eacorts....","ispublic":1,"isfriend":0,"isfamily":0},{"id":"52778204288","owner":"8666250@N02","secret":"1d6ce97386","server":"65535","farm":66,"title":"Seven swans a swimming....","ispublic":1,"isfriend":0,"isfamily":0},{"id":"52777719241","owner":"8666250@N02","secret":"22bc744837","server":"65535","farm":66,"title":"Two Tundra Families","ispublic":1,"isfriend":0,"isfamily":0},{"id":"52778203853","owner":"8666250@N02","secret":"6f6885b81d","server":"65535","farm":66,"title":"Family of Four","ispublic":1,"isfriend":0,"isfamily":0},{"id":"52778203648","owner":"8666250@N02","secret":"90d987b746","server":"65535","farm":66,"title":"Family of three","ispublic":1,"isfriend":0,"isfamily":0},{"id":"52778135280","owner":"8666250@N02","secret":"f3746ffb0e","server":"65535","farm":66,"title":"The family of three....","ispublic":1,"isfriend":0,"isfamily":0},{"id":"52778203268","owner":"8666250@N02","secret":"d054708603","server":"65535","farm":66,"title":"Tundra pair","ispublic":1,"isfriend":0,"isfamily":0},{"id":"52778203168","owner":"8666250@N02","secret":"9e4d154618","server":"65535","farm":66,"title":"Individual differences....","ispublic":1,"isfriend":0,"isfamily":0},{"id":"52772065571","owner":"39854996@N00","secret":"e557786876","server":"65535","farm":66,"title":"Bewick's Swan \"Cygnus columbianus\"","ispublic":1,"isfriend":0,"isfamily":0},{"id":"52769971426","owner":"39854996@N00","secret":"3a53b1b0e1","server":"65535","farm":66,"title":"Bewick's Swan \"Cygnus columbianus\"","ispublic":1,"isfriend":0,"isfamily":0},{"id":"52769089971","owner":"59678053@N08","secret":"ae4c60c9c8","server":"65535","farm":66,"title":"Bewick's  Swan","ispublic":1,"isfriend":0,"isfamily":0},{"id":"52769058578","owner":"185605587@N03","secret":"1514de567e","server":"65535","farm":66,"title":"Tundra Swan (Cygnus columbianus) Ridgefield NWR -January 12, 2022","ispublic":1,"isfriend":0,"isfamily":0},{"id":"52768017775","owner":"59678053@N08","secret":"6969ff1a7b","server":"65535","farm":66,"title":"Coming Right At You !","ispublic":1,"isfriend":0,"isfamily":0},{"id":"52764450984","owner":"187792860@N04","secret":"e7645990e5","server":"65535","farm":66,"title":"Tundra Swan (cygnus columbianus)","ispublic":1,"isfriend":0,"isfamily":0},{"id":"52763483035","owner":"71418112@N00","secret":"cd190f9e1c","server":"65535","farm":66,"title":"Tundra swans","ispublic":1,"isfriend":0,"isfamily":0},{"id":"52761038283","owner":"95713135@N04","secret":"9eba7baee9","server":"65535","farm":66,"title":"Bewick Swan - Cygnus columbianus bewickii 090223 (7) (Explored)","ispublic":1,"isfriend":0,"isfamily":0},{"id":"52760169833","owner":"54724497@N02","secret":"e9ef240b09","server":"65535","farm":66,"title":"Mindre s\u00e5ngsvan, Cygnus columbianus, Tundra Swan","ispublic":1,"isfriend":0,"isfamily":0},{"id":"52756928857","owner":"8666250@N02","secret":"32b32e5c2d","server":"65535","farm":66,"title":"Tundras, Trumpeters, and a Wannabe stand-in...","ispublic":1,"isfriend":0,"isfamily":0},{"id":"52756679053","owner":"187792860@N04","secret":"696765ccea","server":"65535","farm":66,"title":"Tundra Swan (cygnus columbianus)","ispublic":1,"isfriend":0,"isfamily":0},{"id":"52754550626","owner":"96140584@N04","secret":"5728ed2356","server":"65535","farm":66,"title":"Bewick's swan-Cygnus columbianus bewickii -Slimbridge WWT Gloucestershire-241222 (4)","ispublic":1,"isfriend":0,"isfamily":0},{"id":"52754790315","owner":"52450054@N04","secret":"ca746f2444","server":"65535","farm":66,"title":"Tundra Swan - Cygnus columbianus, Chincoteague National Wildlife Refuge, Chincoteague, Virginia, November 26, 2022","ispublic":1,"isfriend":0,"isfamily":0},{"id":"52748446552","owner":"39854996@N00","secret":"447b70dbd8","server":"65535","farm":66,"title":"Bewick's Swan \"Cygnus columbianus\"","ispublic":1,"isfriend":0,"isfamily":0},{"id":"52749085189","owner":"35968106@N03","secret":"faa5f9069a","server":"65535","farm":66,"title":"Cygnus columbianus, \u039d\u03b1\u03bd\u03cc\u03ba\u03c5\u03ba\u03bd\u03bf\u03c2, Tundra swan","ispublic":1,"isfriend":0,"isfamily":0},{"id":"52746516941","owner":"59678053@N08","secret":"330c671ed9","server":"65535","farm":66,"title":"Bewick's Swan","ispublic":1,"isfriend":0,"isfamily":0},{"id":"52745353510","owner":"42388593@N04","secret":"bc07a3480e","server":"65535","farm":66,"title":"Pibesvane, Tundra swan, Pfeifschwan (Cygnus columbianus)-0230","ispublic":1,"isfriend":0,"isfamily":0},{"id":"52743355435","owner":"37242840@N07","secret":"fcaf5fde90","server":"65535","farm":66,"title":"Tundra Swans, Cygnus columbianus (9)","ispublic":1,"isfriend":0,"isfamily":0},{"id":"52743428403","owner":"37242840@N07","secret":"35821bb320","server":"65535","farm":66,"title":"Tundra Swans, Cygnus columbianus (13)","ispublic":1,"isfriend":0,"isfamily":0},{"id":"52742937771","owner":"37242840@N07","secret":"583fb86078","server":"65535","farm":66,"title":"Tundra Swans, Cygnus columbianus (15)","ispublic":1,"isfriend":0,"isfamily":0},{"id":"52743192749","owner":"37242840@N07","secret":"db9d1039db","server":"65535","farm":66,"title":"Tundra Swans, Cygnus columbianus (16)","ispublic":1,"isfriend":0,"isfamily":0},{"id":"52743192649","owner":"37242840@N07","secret":"3177edd813","server":"65535","farm":66,"title":"Tundra Swans, Cygnus columbianus (19)","ispublic":1,"isfriend":0,"isfamily":0},{"id":"52742937461","owner":"37242840@N07","secret":"4815f5ac46","server":"65535","farm":66,"title":"Tundra Swans, Cygnus columbianus (21)","ispublic":1,"isfriend":0,"isfamily":0},{"id":"52742937376","owner":"37242840@N07","secret":"438c70a666","server":"65535","farm":66,"title":"Tundra Swans, Cygnus columbianus (24)","ispublic":1,"isfriend":0,"isfamily":0},{"id":"52742424442","owner":"37242840@N07","secret":"0cfa3323b6","server":"65535","farm":66,"title":"Tundra Swans, Cygnus columbianus (22)","ispublic":1,"isfriend":0,"isfamily":0},{"id":"52742424357","owner":"37242840@N07","secret":"2b656a3418","server":"65535","farm":66,"title":"Tundra Swans, Cygnus columbianus (25)","ispublic":1,"isfriend":0,"isfamily":0},{"id":"52742424342","owner":"37242840@N07","secret":"9ebc97d9dc","server":"65535","farm":66,"title":"Tundra Swans, Cygnus columbianus (28)","ispublic":1,"isfriend":0,"isfamily":0},{"id":"52743427913","owner":"37242840@N07","secret":"09408cb9ab","server":"65535","farm":66,"title":"Tundra Swans, Cygnus columbianus (34)","ispublic":1,"isfriend":0,"isfamily":0},{"id":"52742937191","owner":"37242840@N07","secret":"d9e47a9b27","server":"65535","farm":66,"title":"Tundra Swans, Cygnus columbianus (37)","ispublic":1,"isfriend":0,"isfamily":0},{"id":"52742937056","owner":"37242840@N07","secret":"fda9464f46","server":"65535","farm":66,"title":"Tundra Swans, Cygnus columbianus (38)","ispublic":1,"isfriend":0,"isfamily":0},{"id":"52743427548","owner":"37242840@N07","secret":"057fa21b7e","server":"65535","farm":66,"title":"Tundra Swans, Cygnus columbianus (40)","ispublic":1,"isfriend":0,"isfamily":0},{"id":"52742423962","owner":"37242840@N07","secret":"37f161b741","server":"65535","farm":66,"title":"Tundra Swans, Cygnus columbianus (41)","ispublic":1,"isfriend":0,"isfamily":0},{"id":"52742423922","owner":"37242840@N07","secret":"b85251b35d","server":"65535","farm":66,"title":"Tundra Swans, Cygnus columbianus (43)","ispublic":1,"isfriend":0,"isfamily":0},{"id":"52742936826","owner":"37242840@N07","secret":"a2264948a9","server":"65535","farm":66,"title":"Tundra Swans, Cygnus columbianus (44)","ispublic":1,"isfriend":0,"isfamily":0},{"id":"52742423857","owner":"37242840@N07","secret":"05c17ba809","server":"65535","farm":66,"title":"Tundra Swans, Cygnus columbianus (46)","ispublic":1,"isfriend":0,"isfamily":0},{"id":"52743427193","owner":"37242840@N07","secret":"f73901571e","server":"65535","farm":66,"title":"Tundra Swans, Cygnus columbianus (52)","ispublic":1,"isfriend":0,"isfamily":0},{"id":"52742423592","owner":"37242840@N07","secret":"af1ae417f9","server":"65535","farm":66,"title":"Tundra Swans, Cygnus columbianus (53)","ispublic":1,"isfriend":0,"isfamily":0},{"id":"52742936421","owner":"37242840@N07","secret":"f977866433","server":"65535","farm":66,"title":"Tundra Swans, Cygnus columbianus (60)","ispublic":1,"isfriend":0,"isfamily":0},{"id":"52743191534","owner":"37242840@N07","secret":"17d1d52171","server":"65535","farm":66,"title":"Tundra Swans, Cygnus columbianus (65)","ispublic":1,"isfriend":0,"isfamily":0},{"id":"52743191489","owner":"37242840@N07","secret":"35d819a970","server":"65535","farm":66,"title":"Tundra Swans, Cygnus columbianus (67)","ispublic":1,"isfriend":0,"isfamily":0},{"id":"52743191499","owner":"37242840@N07","secret":"cb11bae0cf","server":"65535","farm":66,"title":"Tundra Swans, Cygnus columbianus (66)","ispublic":1,"isfriend":0,"isfamily":0},{"id":"52742423362","owner":"37242840@N07","secret":"f9ca810f55","server":"65535","farm":66,"title":"Tundra Swans, Cygnus columbianus (8)","ispublic":1,"isfriend":0,"isfamily":0},{"id":"52742936116","owner":"37242840@N07","secret":"67ef81973b","server":"65535","farm":66,"title":"Tundra Swans, Cygnus columbianus (54)","ispublic":1,"isfriend":0,"isfamily":0},{"id":"52742423237","owner":"37242840@N07","secret":"97083ced14","server":"65535","farm":66,"title":"Tundra Swans, Cygnus columbianus (68)","ispublic":1,"isfriend":0,"isfamily":0},{"id":"52742085427","owner":"39854996@N00","secret":"f85a109eca","server":"65535","farm":66,"title":"Bewick's Swan \"Cygnus columbianus\"","ispublic":1,"isfriend":0,"isfamily":0},{"id":"52742291550","owner":"42388593@N04","secret":"02d65f246d","server":"65535","farm":66,"title":"Pibesvane, Tundra swan, Pfeifschwan (Cygnus columbianus)-0231","ispublic":1,"isfriend":0,"isfamily":0},{"id":"52742110439","owner":"59678053@N08","secret":"8ba21fc0f2","server":"65535","farm":66,"title":"Bewick's Swan","ispublic":1,"isfriend":0,"isfamily":0},{"id":"52740122911","owner":"131037795@N03","secret":"ff4dab9c58","server":"65535","farm":66,"title":"Pelicans & Swans","ispublic":1,"isfriend":0,"isfamily":0},{"id":"52738355048","owner":"126355457@N02","secret":"33474c4467","server":"65535","farm":66,"title":"Bewick's Swan","ispublic":1,"isfriend":0,"isfamily":0},{"id":"52738134599","owner":"197883809@N06","secret":"d22b8bc8d3","server":"65535","farm":66,"title":"Cygne de Bewick - Tundra Swan - Cygnus columbianus","ispublic":1,"isfriend":0,"isfamily":0},{"id":"52738365523","owner":"197883809@N06","secret":"3a4b78bd0a","server":"65535","farm":66,"title":"Cygne de Bewick - Tundra Swan - Cygnus columbianus","ispublic":1,"isfriend":0,"isfamily":0},{"id":"52738128814","owner":"197883809@N06","secret":"bd2b20258c","server":"65535","farm":66,"title":"Cygne de Bewick - Tundra Swan - Cygnus columbianus","ispublic":1,"isfriend":0,"isfamily":0},{"id":"52738123404","owner":"197883809@N06","secret":"295971aa09","server":"65535","farm":66,"title":"Cygne de Bewick - Tundra Swan - Cygnus columbianus","ispublic":1,"isfriend":0,"isfamily":0},{"id":"52737866866","owner":"197883809@N06","secret":"5d4d0282eb","server":"65535","farm":66,"title":"Cygne de Bewick - Tundra Swan - Cygnus columbianus","ispublic":1,"isfriend":0,"isfamily":0},{"id":"52735214567","owner":"59678053@N08","secret":"74f808bc14","server":"65535","farm":66,"title":"Bewick'  Swans","ispublic":1,"isfriend":0,"isfamily":0},{"id":"52734811756","owner":"53041612@N05","secret":"eb39bdf6b0","server":"65535","farm":66,"title":"Bewick's swan","ispublic":1,"isfriend":0,"isfamily":0},{"id":"52734811596","owner":"53041612@N05","secret":"39c601afb0","server":"65535","farm":66,"title":"Bewick's swan","ispublic":1,"isfriend":0,"isfamily":0},{"id":"52734049120","owner":"102755543@N02","secret":"0e3fb20d75","server":"65535","farm":66,"title":"Cygnus columbianus bewickii Yarrell, 1830","ispublic":1,"isfriend":0,"isfamily":0},{"id":"52734120093","owner":"102755543@N02","secret":"6fd75345d5","server":"65535","farm":66,"title":"Cygnus columbianus bewickii Yarrell, 1830","ispublic":1,"isfriend":0,"isfamily":0},{"id":"52734120003","owner":"102755543@N02","secret":"7caa45abc9","server":"65535","farm":66,"title":"Cygnus columbianus bewickii Yarrell, 1830","ispublic":1,"isfriend":0,"isfamily":0},{"id":"52733890089","owner":"102755543@N02","secret":"7c9f7fd4be","server":"65535","farm":66,"title":"Cygnus columbianus bewickii Yarrell, 1830","ispublic":1,"isfriend":0,"isfamily":0},{"id":"52733112192","owner":"102755543@N02","secret":"7f7ca28de8","server":"65535","farm":66,"title":"Cygnus columbianus bewickii Yarrell, 1830","ispublic":1,"isfriend":0,"isfamily":0},{"id":"52733112152","owner":"102755543@N02","secret":"f03988ab90","server":"65535","farm":66,"title":"Cygnus columbianus bewickii Yarrell, 1830","ispublic":1,"isfriend":0,"isfamily":0},{"id":"52733960043","owner":"12639178@N07","secret":"4b35075772","server":"65535","farm":66,"title":"im Flug","ispublic":1,"isfriend":0,"isfamily":0},{"id":"52733727214","owner":"12639178@N07","secret":"31ebea0333","server":"65535","farm":66,"title":"mit seinen gro\u00dfen Freunden","ispublic":1,"isfriend":0,"isfamily":0},{"id":"52733959878","owner":"12639178@N07","secret":"0750c5d35f","server":"65535","farm":66,"title":"Zwergschwan","ispublic":1,"isfriend":0,"isfamily":0},{"id":"52733050353","owner":"53041612@N05","secret":"1c3ff3de58","server":"65535","farm":66,"title":"Bewick's swan","ispublic":1,"isfriend":0,"isfamily":0},{"id":"52732927225","owner":"12639178@N07","secret":"4db806ddc7","server":"65535","farm":66,"title":"Zwergschwan (Cygnus columbianus subsp. bewickii) (2)","ispublic":1,"isfriend":0,"isfamily":0},{"id":"52731993617","owner":"12639178@N07","secret":"dec300eaa0","server":"65535","farm":66,"title":"Trupp von Zwergschw\u00e4nen auf w\u00e4hrend des Heimzuges","ispublic":1,"isfriend":0,"isfamily":0},{"id":"52732020124","owner":"39854996@N00","secret":"1461ffc775","server":"65535","farm":66,"title":"Bewick's Swan \"Cygnus columbianus\"","ispublic":1,"isfriend":0,"isfamily":0},{"id":"52731995978","owner":"72271115@N02","secret":"9a148063aa","server":"65535","farm":66,"title":"Bewick's Swan --- Cygnus columbianus","ispublic":1,"isfriend":0,"isfamily":0},{"id":"52731976908","owner":"59678053@N08","secret":"42d7a09069","server":"65535","farm":66,"title":"Bewick's  Swan","ispublic":1,"isfriend":0,"isfamily":0},{"id":"52731215824","owner":"187792860@N04","secret":"4b1050bd69","server":"65535","farm":66,"title":"Tundra Swan (cygnus columbianus)","ispublic":1,"isfriend":0,"isfamily":0},{"id":"52730109256","owner":"8666250@N02","secret":"84cfd1806d","server":"65535","farm":66,"title":"There's always one!","ispublic":1,"isfriend":0,"isfamily":0},{"id":"52762893247","owner":"12639178@N07","secret":"e6ce6b86ee","server":"65535","farm":66,"title":"Junger Zwergschwan","ispublic":1,"isfriend":0,"isfamily":0}]},"stat":"ok"}