{"photos":{"page":1,"pages":162,"perpage":100,"total":16186,"photo":[{"id":"52723888016","owner":"12639178@N07","secret":"e0dc1613a0","server":"65535","farm":66,"title":"Truthahngeier","ispublic":1,"isfriend":0,"isfamily":0},{"id":"52723540498","owner":"12639178@N07","secret":"fdc77f026e","server":"65535","farm":66,"title":"Truthahngeier","ispublic":1,"isfriend":0,"isfamily":0},{"id":"52722365162","owner":"12639178@N07","secret":"5f666d5ff8","server":"65535","farm":66,"title":"Truthahngeier","ispublic":1,"isfriend":0,"isfamily":0},{"id":"52720930822","owner":"125605310@N07","secret":"ecacbf127d","server":"65535","farm":66,"title":"Turkey Vulture, Cathartes aura","ispublic":1,"isfriend":0,"isfamily":0},{"id":"52721861258","owner":"62043870@N05","secret":"3b343707a6","server":"65535","farm":66,"title":"Turkey Vulture, Cathartes aura","ispublic":1,"isfriend":0,"isfamily":0},{"id":"52719922586","owner":"12639178@N07","secret":"31fcb1833a","server":"65535","farm":66,"title":"Truthahngeier","ispublic":1,"isfriend":0,"isfamily":0},{"id":"52716133221","owner":"26520320@N03","secret":"fcb4242769","server":"65535","farm":66,"title":"_BAP0372","ispublic":1,"isfriend":0,"isfamily":0},{"id":"52716250004","owner":"12639178@N07","secret":"6f9f2a5b25","server":"65535","farm":66,"title":"Truthahngeier (Cathartes aura) (1)","ispublic":1,"isfriend":0,"isfamily":0},{"id":"52714145895","owner":"26641558@N06","secret":"d6da59c6b2","server":"65535","farm":66,"title":"Vultures resting on one of our trees","ispublic":1,"isfriend":0,"isfamily":0},{"id":"52708388973","owner":"78236359@N05","secret":"b5fb370e02","server":"65535","farm":66,"title":"Turkey Vulture \"Cathartes aura\"","ispublic":1,"isfriend":0,"isfamily":0},{"id":"52707951415","owner":"62043870@N05","secret":"13760d9062","server":"65535","farm":66,"title":"Turkey Vulture, Cathartes aura","ispublic":1,"isfriend":0,"isfamily":0},{"id":"52702352227","owner":"32599741@N03","secret":"765e472ea3","server":"65535","farm":66,"title":"soaring","ispublic":1,"isfriend":0,"isfamily":0},{"id":"52702801313","owner":"38157382@N04","secret":"215f74de72","server":"65535","farm":66,"title":"Jote de Cabeza Colorada (Cathartes aura)","ispublic":1,"isfriend":0,"isfamily":0},{"id":"52701736806","owner":"62043870@N05","secret":"fa7b99528f","server":"65535","farm":66,"title":"Turkey Vulture, Cathartes aura","ispublic":1,"isfriend":0,"isfamily":0},{"id":"52700922139","owner":"84169650@N07","secret":"d45c8266c2","server":"65535","farm":66,"title":"Turkey Vulture","ispublic":1,"isfriend":0,"isfamily":0},{"id":"52700472625","owner":"20127130@N02","secret":"e32f26c644","server":"65535","farm":66,"title":"Lesser Yellow-headed Vulture - Wild","ispublic":1,"isfriend":0,"isfamily":0},{"id":"52693063936","owner":"118311568@N08","secret":"0416c8bb87","server":"65535","farm":66,"title":"Leucistic Turkey Vulture","ispublic":1,"isfriend":0,"isfamily":0},{"id":"52692545097","owner":"118311568@N08","secret":"6906510683","server":"65535","farm":66,"title":"Leucistic Turkey Vulture","ispublic":1,"isfriend":0,"isfamily":0},{"id":"52692544547","owner":"118311568@N08","secret":"dae53e7d10","server":"65535","farm":66,"title":"Leucistic Turkey Vulture","ispublic":1,"isfriend":0,"isfamily":0},{"id":"52688742697","owner":"42786943@N07","secret":"d9d9a1d693","server":"65535","farm":66,"title":"Cathartes aura","ispublic":1,"isfriend":0,"isfamily":0},{"id":"52688115069","owner":"91906228@N05","secret":"3b5d221bc4","server":"65535","farm":66,"title":"Turkey Vulture","ispublic":1,"isfriend":0,"isfamily":0},{"id":"52687578809","owner":"12639178@N07","secret":"0623b2520c","server":"65535","farm":66,"title":"\u00fcberfliegender Truthahngeier","ispublic":1,"isfriend":0,"isfamily":0},{"id":"52685250900","owner":"46091369@N02","secret":"357521d835","server":"65535","farm":66,"title":"Aura gallipavo, Pen\u00ednsula Vald\u00e9s.","ispublic":1,"isfriend":0,"isfamily":0},{"id":"52684826561","owner":"46091369@N02","secret":"f555c719ca","server":"65535","farm":66,"title":"Roodkopgier, Pen\u00ednsula Vald\u00e9s","ispublic":1,"isfriend":0,"isfamily":0},{"id":"52685076803","owner":"123597211@N03","secret":"744806b188","server":"65535","farm":66,"title":"Truthangeier (Cathartes aura)","ispublic":1,"isfriend":0,"isfamily":0},{"id":"52685002855","owner":"123597211@N03","secret":"cb5cfc0e07","server":"65535","farm":66,"title":"Truthangeier (Cathartes aura)","ispublic":1,"isfriend":0,"isfamily":0},{"id":"52684062342","owner":"123597211@N03","secret":"0f875bccc7","server":"65535","farm":66,"title":"Truthangeier (Cathartes aura)","ispublic":1,"isfriend":0,"isfamily":0},{"id":"52685074833","owner":"123597211@N03","secret":"afb8ab6fd9","server":"65535","farm":66,"title":"Truthangeier (Cathartes aura)","ispublic":1,"isfriend":0,"isfamily":0},{"id":"52684061152","owner":"123597211@N03","secret":"b28d681bcd","server":"65535","farm":66,"title":"Truthangeier (Cathartes aura)","ispublic":1,"isfriend":0,"isfamily":0},{"id":"52684060487","owner":"123597211@N03","secret":"0cec2f70f1","server":"65535","farm":66,"title":"Truthangeier (Cathartes aura)","ispublic":1,"isfriend":0,"isfamily":0},{"id":"52684858039","owner":"123597211@N03","secret":"bcdc1ac776","server":"65535","farm":66,"title":"Truthangeier (Cathartes aura)","ispublic":1,"isfriend":0,"isfamily":0},{"id":"52684857344","owner":"123597211@N03","secret":"63cf6dc778","server":"65535","farm":66,"title":"Truthangeier (Cathartes aura)","ispublic":1,"isfriend":0,"isfamily":0},{"id":"52684856779","owner":"123597211@N03","secret":"e982b8ea2c","server":"65535","farm":66,"title":"Truthangeier (Cathartes aura)","ispublic":1,"isfriend":0,"isfamily":0},{"id":"52685071058","owner":"123597211@N03","secret":"752d6c51a9","server":"65535","farm":66,"title":"Truthangeier (Cathartes aura)","ispublic":1,"isfriend":0,"isfamily":0},{"id":"52684572691","owner":"123597211@N03","secret":"0e920f7b99","server":"65535","farm":66,"title":"Truthangeier (Cathartes aura)","ispublic":1,"isfriend":0,"isfamily":0},{"id":"52684854544","owner":"123597211@N03","secret":"d275edff6b","server":"65535","farm":66,"title":"Truthangeier (Cathartes aura)","ispublic":1,"isfriend":0,"isfamily":0},{"id":"52684853924","owner":"123597211@N03","secret":"a6d813f4d5","server":"65535","farm":66,"title":"Truthangeier (Cathartes aura)","ispublic":1,"isfriend":0,"isfamily":0},{"id":"52684055282","owner":"123597211@N03","secret":"bea95b793f","server":"65535","farm":66,"title":"Truthangeier (Cathartes aura)","ispublic":1,"isfriend":0,"isfamily":0},{"id":"52684570011","owner":"123597211@N03","secret":"8ac0183980","server":"65535","farm":66,"title":"Truthangeier (Cathartes aura)","ispublic":1,"isfriend":0,"isfamily":0},{"id":"52684496763","owner":"123597211@N03","secret":"bf8c365f6b","server":"65535","farm":66,"title":"Truthangeier (Cathartes aura)","ispublic":1,"isfriend":0,"isfamily":0},{"id":"52684423045","owner":"123597211@N03","secret":"7790f43da7","server":"65535","farm":66,"title":"Truthangeier (Cathartes aura)","ispublic":1,"isfriend":0,"isfamily":0},{"id":"52683482182","owner":"123597211@N03","secret":"0e103af6b5","server":"65535","farm":66,"title":"Truthangeier (Cathartes aura)","ispublic":1,"isfriend":0,"isfamily":0},{"id":"52684382695","owner":"123597211@N03","secret":"9e75d0a3ba","server":"65535","farm":66,"title":"Truthangeier (Cathartes aura)","ispublic":1,"isfriend":0,"isfamily":0},{"id":"52683957281","owner":"123597211@N03","secret":"8f3eb62960","server":"65535","farm":66,"title":"Truthangeier (Cathartes aura)","ispublic":1,"isfriend":0,"isfamily":0},{"id":"52684379980","owner":"123597211@N03","secret":"e5e2a3ccb9","server":"65535","farm":66,"title":"Truthangeier (Cathartes aura)","ispublic":1,"isfriend":0,"isfamily":0},{"id":"52684452313","owner":"123597211@N03","secret":"541054173f","server":"65535","farm":66,"title":"Truthangeier (Cathartes aura)","ispublic":1,"isfriend":0,"isfamily":0},{"id":"52680951777","owner":"23711298@N07","secret":"2b4cbb34f7","server":"65535","farm":66,"title":"Vulture- Turkey Vulture, Florida, Brevard County, Merritt National Wildlife Refuge","ispublic":1,"isfriend":0,"isfamily":0},{"id":"52681752859","owner":"23711298@N07","secret":"d1b0d8f184","server":"65535","farm":66,"title":"Vulture- Turkey Vulture, Florida, Brevard County, Merritt National Wildlife Refuge","ispublic":1,"isfriend":0,"isfamily":0},{"id":"52680258411","owner":"24608578@N00","secret":"4df495d32d","server":"65535","farm":66,"title":"Turkey vulture (Cathartes aura)","ispublic":1,"isfriend":0,"isfamily":0},{"id":"52678967997","owner":"21182099@N05","secret":"e01e7e6f6d","server":"65535","farm":66,"title":"Turkey Vulture (Cathartes aura)","ispublic":1,"isfriend":0,"isfamily":0},{"id":"52678416597","owner":"47533293@N04","secret":"b77ba2ac5e","server":"65535","farm":66,"title":"Turkey vulture, Cathartes aura","ispublic":1,"isfriend":0,"isfamily":0},{"id":"52677134197","owner":"14028010@N00","secret":"0d2b5e97c4","server":"65535","farm":66,"title":"Turkey Vulture","ispublic":1,"isfriend":0,"isfamily":0},{"id":"52677645526","owner":"14028010@N00","secret":"3523bdd9a6","server":"65535","farm":66,"title":"Turkey Vultures jostling","ispublic":1,"isfriend":0,"isfamily":0},{"id":"52671176885","owner":"17612257@N00","secret":"b8d2b0d19b","server":"65535","farm":66,"title":"Turkey vulture - Cathartes aura","ispublic":1,"isfriend":0,"isfamily":0},{"id":"52669917992","owner":"36267333@N05","secret":"9ef4abe849","server":"65535","farm":66,"title":"Turkey Vulture (Cathartes aura)","ispublic":1,"isfriend":0,"isfamily":0},{"id":"52668290803","owner":"44034115@N08","secret":"a1142f6230","server":"65535","farm":66,"title":"Fortune Favors the Bold Buzzard","ispublic":1,"isfriend":0,"isfamily":0},{"id":"52664967607","owner":"75714412@N00","secret":"90cae84c90","server":"65535","farm":66,"title":"Arabia buzzards","ispublic":1,"isfriend":0,"isfamily":0},{"id":"52661342010","owner":"12639178@N07","secret":"60769e014c","server":"65535","farm":66,"title":"Truthahngeier kreisen \u00fcber dem Ort","ispublic":1,"isfriend":0,"isfamily":0},{"id":"52661177364","owner":"12639178@N07","secret":"68a5697ea2","server":"65535","farm":66,"title":"Sechs von sieben Truthahngeier am Morgen","ispublic":1,"isfriend":0,"isfamily":0},{"id":"52661385433","owner":"12639178@N07","secret":"45a51af381","server":"65535","farm":66,"title":"Er schaut ganz gelassen","ispublic":1,"isfriend":0,"isfamily":0},{"id":"52660893361","owner":"12639178@N07","secret":"f804842fe6","server":"65535","farm":66,"title":"Treff auf der Bauruine","ispublic":1,"isfriend":0,"isfamily":0},{"id":"52661337810","owner":"12639178@N07","secret":"69e10f21fe","server":"65535","farm":66,"title":"Truthahngeier tankt Sonne","ispublic":1,"isfriend":0,"isfamily":0},{"id":"52659539847","owner":"136180232@N08","secret":"cdd91f00fd","server":"65535","farm":66,"title":"Turkey Vulture (Cathartes aura) JTE_0562","ispublic":1,"isfriend":0,"isfamily":0},{"id":"52659139232","owner":"145988764@N06","secret":"cacd133fef","server":"65535","farm":66,"title":"Aura Gallipavo- Cathartes aura y Caracara plancus cheriway","ispublic":1,"isfriend":0,"isfamily":0},{"id":"52651888565","owner":"37203410@N07","secret":"e82110028e","server":"65535","farm":66,"title":"Jote de cabeza colorada \/ Cathartes aura","ispublic":1,"isfriend":0,"isfamily":0},{"id":"52644464817","owner":"188156748@N07","secret":"62fef51369","server":"65535","farm":66,"title":"Turkey Vulture - Urubu \u00e0 t\u00eate rouge - Cathartes aura 0565 (4)-SharpenAI-Standard copy.jpgS","ispublic":1,"isfriend":0,"isfamily":0},{"id":"52645229694","owner":"188156748@N07","secret":"411b8f3abc","server":"65535","farm":66,"title":"Turkey Vulture - Urubu \u00e0 t\u00eate rouge - Cathartes aura 6765 (1)-SharpenAI-Standard copy.jpgS","ispublic":1,"isfriend":0,"isfamily":0},{"id":"52645229679","owner":"188156748@N07","secret":"552d8aa459","server":"65535","farm":66,"title":"Turkey Vulture - Urubu \u00e0 t\u00eate rouge -Cathartes aura 0565 (2)-SharpenAI-Standard copy.jpgS","ispublic":1,"isfriend":0,"isfamily":0},{"id":"52643413567","owner":"36013467@N07","secret":"6a335ec7c3","server":"65535","farm":66,"title":"Turkey Vulture (Cathartes aura)","ispublic":1,"isfriend":0,"isfamily":0},{"id":"52643908600","owner":"44034115@N08","secret":"19603fe49e","server":"65535","farm":66,"title":"Turkey Vulture Roadkill Table for Two","ispublic":1,"isfriend":0,"isfamily":0},{"id":"52643653263","owner":"8013969@N03","secret":"58fb3f5a30","server":"65535","farm":66,"title":"Cathartes aura DFL btr22-1","ispublic":1,"isfriend":0,"isfamily":0},{"id":"52642046777","owner":"14020964@N02","secret":"101227959b","server":"65535","farm":66,"title":"On route to Camajuan\u00ed city with stops at La Minerva village to vitis El Guajiro restaurant and the lake. Santa Clara, Cuba, 2022","ispublic":1,"isfriend":0,"isfamily":0},{"id":"52639492632","owner":"46091369@N02","secret":"b2535fb4d4","server":"65535","farm":66,"title":"Roodkopgier","ispublic":1,"isfriend":0,"isfamily":0},{"id":"52638410667","owner":"67164820@N06","secret":"9caabfdecb","server":"65535","farm":66,"title":"turkey vulture","ispublic":1,"isfriend":0,"isfamily":0},{"id":"52638832840","owner":"54249623@N08","secret":"daebe21910","server":"65535","farm":66,"title":"Guala Com\u00fan, Turkey Vulture (Cathartes aura)","ispublic":1,"isfriend":0,"isfamily":0},{"id":"52638873168","owner":"54249623@N08","secret":"8469403aa6","server":"65535","farm":66,"title":"Guala Com\u00fan, Turkey Vulture (Cathartes aura)","ispublic":1,"isfriend":0,"isfamily":0},{"id":"52636780682","owner":"61062164@N08","secret":"294c87da51","server":"65535","farm":66,"title":"850_6561-NEF_DxO DP2","ispublic":1,"isfriend":0,"isfamily":0},{"id":"52636967960","owner":"37203410@N07","secret":"39473bed21","server":"65535","farm":66,"title":"Jote de cabeza colorada \/ Cathartes aura","ispublic":1,"isfriend":0,"isfamily":0},{"id":"52627817690","owner":"90355165@N03","secret":"92c0784494","server":"65535","farm":66,"title":"turkey vulture","ispublic":1,"isfriend":0,"isfamily":0},{"id":"52626543646","owner":"78193635@N02","secret":"3ebc2af8a9","server":"65535","farm":66,"title":"Turkey Vulture","ispublic":1,"isfriend":0,"isfamily":0},{"id":"52626008788","owner":"23939795@N04","secret":"09f8fc1367","server":"65535","farm":66,"title":"Turkey Vulture on Carrion 4590","ispublic":1,"isfriend":0,"isfamily":0},{"id":"52621153420","owner":"124995824@N08","secret":"83d4089bbb","server":"65535","farm":66,"title":"Turkey Vulture - Cathartes aura","ispublic":1,"isfriend":0,"isfamily":0},{"id":"52620059376","owner":"62953254@N04","secret":"e57728c61d","server":"65535","farm":66,"title":"Urubu-de-cabe\u00e7a-vermelha\/Turkey Vulture","ispublic":1,"isfriend":0,"isfamily":0},{"id":"52618046197","owner":"107784905@N04","secret":"ec185907f3","server":"65535","farm":66,"title":"Urubu \u00e0 t\u00eate rouge - Savegre\/San Jos\u00e9\/Costa Rica_20211202_002-1","ispublic":1,"isfriend":0,"isfamily":0},{"id":"52611610648","owner":"12639178@N07","secret":"4c6ec870d3","server":"65535","farm":66,"title":"Truthahngeier (Cathartes aura) (1)","ispublic":1,"isfriend":0,"isfamily":0},{"id":"52610534498","owner":"17719035@N00","secret":"02e21229c0","server":"65535","farm":66,"title":"Turkey vulture (Cathartes aura)","ispublic":1,"isfriend":0,"isfamily":0},{"id":"52609406009","owner":"26563976@N07","secret":"1ea23f4103","server":"65535","farm":66,"title":"Turkey Vulture #2 2022; @ Lake Woodruff NWR","ispublic":1,"isfriend":0,"isfamily":0},{"id":"52608423198","owner":"42964440@N08","secret":"2bd3630d08","server":"65535","farm":66,"title":"Turkey Vulture (Cathartes aura)","ispublic":1,"isfriend":0,"isfamily":0},{"id":"52608180715","owner":"26520320@N03","secret":"d3c11dc914","server":"65535","farm":66,"title":"Bolsa_Chica_2023-01-02_DSC05732","ispublic":1,"isfriend":0,"isfamily":0},{"id":"52608180380","owner":"26520320@N03","secret":"db41ce135e","server":"65535","farm":66,"title":"Bolsa_Chica_2023-01-02_DSC05726","ispublic":1,"isfriend":0,"isfamily":0},{"id":"52607256512","owner":"26520320@N03","secret":"2d3b270244","server":"65535","farm":66,"title":"Bolsa_Chica_2023-01-02_DSC05712","ispublic":1,"isfriend":0,"isfamily":0},{"id":"52608179285","owner":"26520320@N03","secret":"5fdc669366","server":"65535","farm":66,"title":"Bolsa_Chica_2023-01-02_DSC05703","ispublic":1,"isfriend":0,"isfamily":0},{"id":"52607249952","owner":"26520320@N03","secret":"4dec839eeb","server":"65535","farm":66,"title":"Bolsa_Chica_2023-01-02_DSC05550","ispublic":1,"isfriend":0,"isfamily":0},{"id":"52684001016","owner":"123597211@N03","secret":"1e11c6a12d","server":"65535","farm":66,"title":"Truthangeier (Cathartes aura)","ispublic":1,"isfriend":0,"isfamily":0},{"id":"52683999646","owner":"123597211@N03","secret":"9913fd4a29","server":"65535","farm":66,"title":"Truthangeier (Cathartes aura)","ispublic":1,"isfriend":0,"isfamily":0},{"id":"52683960056","owner":"123597211@N03","secret":"624aef94b8","server":"65535","farm":66,"title":"Truthangeier (Cathartes aura)","ispublic":1,"isfriend":0,"isfamily":0},{"id":"52683442197","owner":"123597211@N03","secret":"d501b0e6aa","server":"65535","farm":66,"title":"Truthangeier (Cathartes aura)","ispublic":1,"isfriend":0,"isfamily":0},{"id":"52660396462","owner":"12639178@N07","secret":"6cea7362d4","server":"65535","farm":66,"title":"Exzellenter Flieger","ispublic":1,"isfriend":0,"isfamily":0},{"id":"52660893051","owner":"12639178@N07","secret":"2a3bdd1c3b","server":"65535","farm":66,"title":"In der Morgensonne","ispublic":1,"isfriend":0,"isfamily":0},{"id":"52608192260","owner":"196914694@N04","secret":"2fc48f4577","server":"65535","farm":66,"title":"Buitre americano cabecirrojo (Cathartes aura)","ispublic":1,"isfriend":0,"isfamily":0}]},"stat":"ok"}