{"photos":{"page":1,"pages":3,"perpage":100,"total":227,"photo":[{"id":"52787645765","owner":"12639178@N07","secret":"7c4c5d3feb","server":"65535","farm":66,"title":"Mongolenbussard","ispublic":1,"isfriend":0,"isfamily":0},{"id":"52787698753","owner":"12639178@N07","secret":"540c0c6349","server":"65535","farm":66,"title":"Mongolenbussard","ispublic":1,"isfriend":0,"isfamily":0},{"id":"52787645400","owner":"12639178@N07","secret":"3620bf46ab","server":"65535","farm":66,"title":"Mongolenbussard","ispublic":1,"isfriend":0,"isfamily":0},{"id":"52786461799","owner":"12639178@N07","secret":"2b0cb65e3a","server":"65535","farm":66,"title":"Mongolenbussard","ispublic":1,"isfriend":0,"isfamily":0},{"id":"52784475450","owner":"12639178@N07","secret":"6d756e8a8b","server":"65535","farm":66,"title":"Mongolenbussard","ispublic":1,"isfriend":0,"isfamily":0},{"id":"52772626406","owner":"12639178@N07","secret":"52e679d80a","server":"65535","farm":66,"title":"Mongolenbussard","ispublic":1,"isfriend":0,"isfamily":0},{"id":"52566023252","owner":"140734051@N08","secret":"f469d91d72","server":"65535","farm":66,"title":"\u041c\u043e\u0445\u043d\u043e\u043d\u043e\u0433\u0438\u0439 \u043a\u0443\u0440\u0433\u0430\u043d\u043d\u0438\u043a, Buteo hemilasius, Upland Buzzard","ispublic":1,"isfriend":0,"isfamily":0},{"id":"52566492401","owner":"140734051@N08","secret":"c6964b488d","server":"65535","farm":66,"title":"\u041c\u043e\u0445\u043d\u043e\u043d\u043e\u0433\u0438\u0439 \u043a\u0443\u0440\u0433\u0430\u043d\u043d\u0438\u043a, Buteo hemilasius, Upland Buzzard","ispublic":1,"isfriend":0,"isfamily":0},{"id":"52566763054","owner":"140734051@N08","secret":"a00dfa108b","server":"65535","farm":66,"title":"\u041c\u043e\u0445\u043d\u043e\u043d\u043e\u0433\u0438\u0439 \u043a\u0443\u0440\u0433\u0430\u043d\u043d\u0438\u043a, Buteo hemilasius, Upland Buzzard","ispublic":1,"isfriend":0,"isfamily":0},{"id":"52566933855","owner":"140734051@N08","secret":"ed61919ba8","server":"65535","farm":66,"title":"\u041c\u043e\u0445\u043d\u043e\u043d\u043e\u0433\u0438\u0439 \u043a\u0443\u0440\u0433\u0430\u043d\u043d\u0438\u043a, Buteo hemilasius, Upland Buzzard","ispublic":1,"isfriend":0,"isfamily":0},{"id":"52566933860","owner":"140734051@N08","secret":"fb713966b0","server":"65535","farm":66,"title":"\u041c\u043e\u0445\u043d\u043e\u043d\u043e\u0433\u0438\u0439 \u043a\u0443\u0440\u0433\u0430\u043d\u043d\u0438\u043a, Buteo hemilasius, Upland Buzzard","ispublic":1,"isfriend":0,"isfamily":0},{"id":"52567013283","owner":"140734051@N08","secret":"593719878f","server":"65535","farm":66,"title":"\u041c\u043e\u0445\u043d\u043e\u043d\u043e\u0433\u0438\u0439 \u043a\u0443\u0440\u0433\u0430\u043d\u043d\u0438\u043a, Buteo hemilasius, Upland Buzzard","ispublic":1,"isfriend":0,"isfamily":0},{"id":"52566023202","owner":"140734051@N08","secret":"944779f904","server":"65535","farm":66,"title":"\u041c\u043e\u0445\u043d\u043e\u043d\u043e\u0433\u0438\u0439 \u043a\u0443\u0440\u0433\u0430\u043d\u043d\u0438\u043a, Buteo hemilasius, Upland Buzzard","ispublic":1,"isfriend":0,"isfamily":0},{"id":"52566023167","owner":"140734051@N08","secret":"82c87b38fc","server":"65535","farm":66,"title":"\u041c\u043e\u0445\u043d\u043e\u043d\u043e\u0433\u0438\u0439 \u043a\u0443\u0440\u0433\u0430\u043d\u043d\u0438\u043a, Buteo hemilasius, Upland Buzzard","ispublic":1,"isfriend":0,"isfamily":0},{"id":"52467648698","owner":"30120110@N02","secret":"3ae6f92d56","server":"65535","farm":66,"title":"Upland Buzzard Juv","ispublic":1,"isfriend":0,"isfamily":0},{"id":"52467562305","owner":"30120110@N02","secret":"2e1f06de14","server":"65535","farm":66,"title":"Upland Buzzard Adult","ispublic":1,"isfriend":0,"isfamily":0},{"id":"52466599827","owner":"30120110@N02","secret":"cb46f3fc07","server":"65535","farm":66,"title":"Upland Buzzard Juv","ispublic":1,"isfriend":0,"isfamily":0},{"id":"52467099261","owner":"30120110@N02","secret":"b77abaafb1","server":"65535","farm":66,"title":"Upland Buzzard foraging","ispublic":1,"isfriend":0,"isfamily":0},{"id":"52467376704","owner":"30120110@N02","secret":"31004b2605","server":"65535","farm":66,"title":"Upland Buzzard Adult","ispublic":1,"isfriend":0,"isfamily":0},{"id":"52176841248","owner":"125057668@N02","secret":"124209eb55","server":"65535","farm":66,"title":"Buse de Chine (Buteo hemilasius)","ispublic":1,"isfriend":0,"isfamily":0},{"id":"52177087659","owner":"125057668@N02","secret":"2b2601fcbe","server":"65535","farm":66,"title":"Buse de Chine (Buteo hemilasius)","ispublic":1,"isfriend":0,"isfamily":0},{"id":"51557648810","owner":"68598378@N08","secret":"4699a5bb06","server":"65535","farm":66,"title":"Upland buzzard","ispublic":1,"isfriend":0,"isfamily":0},{"id":"51310732852","owner":"15470975@N03","secret":"5c254c1cd0","server":"65535","farm":66,"title":"There is a Upland Buzzard in this landscape, Tibet 2019,","ispublic":1,"isfriend":0,"isfamily":0},{"id":"50174045776","owner":"15470975@N03","secret":"be7a6dcf17","server":"65535","farm":66,"title":"The Upland Buzzard called Oser, Tibet 2019","ispublic":1,"isfriend":0,"isfamily":0},{"id":"50169398597","owner":"27566485@N02","secret":"eeaa1fe4b0","server":"65535","farm":66,"title":"The upland buzzard (Buteo hemilasius) Visit https:\/\/www.instagram.com\/incrediblebirding\/ for more images","ispublic":1,"isfriend":0,"isfamily":0},{"id":"49886495101","owner":"27566485@N02","secret":"866abf7b54","server":"65535","farm":66,"title":"The upland buzzard (Buteo hemilasius)","ispublic":1,"isfriend":0,"isfamily":0},{"id":"49816267011","owner":"91544025@N05","secret":"499f7a7d3d","server":"65535","farm":66,"title":"Buteo hemilasius \u043c\u043e\u0445\u043d\u043e\u043d\u043e\u0433\u0438\u0439 \u043a\u0443\u0440\u0433\u0430\u043d\u043d\u0438\u043a","ispublic":1,"isfriend":0,"isfamily":0},{"id":"49816578087","owner":"91544025@N05","secret":"5e103e0dd7","server":"65535","farm":66,"title":"Buteo hemilasius \u043c\u043e\u0445\u043d\u043e\u043d\u043e\u0433\u0438\u0439 \u043a\u0443\u0440\u0433\u0430\u043d\u0438\u043a","ispublic":1,"isfriend":0,"isfamily":0},{"id":"49815732213","owner":"91544025@N05","secret":"fc1bd4d3b2","server":"65535","farm":66,"title":"Buteo hemilasius \u043c\u043e\u0445\u043d\u043e\u043d\u043e\u0433\u0438\u0439 \u043a\u0443\u0440\u0433\u0430\u043d\u0438\u043a","ispublic":1,"isfriend":0,"isfamily":0},{"id":"49816577967","owner":"91544025@N05","secret":"d86763990e","server":"65535","farm":66,"title":"Buteo hemilasius \u043c\u043e\u0445\u043d\u043e\u043d\u043e\u0433\u0438\u0439 \u043a\u0443\u0440\u0433\u0430\u043d\u0438\u043a","ispublic":1,"isfriend":0,"isfamily":0},{"id":"49708463366","owner":"77017456@N03","secret":"de30fbb656","server":"65535","farm":66,"title":"Upland Buzzard (Buteo hemilasius) feeding on the ground","ispublic":1,"isfriend":0,"isfamily":0},{"id":"49450486103","owner":"93268738@N04","secret":"569f7f55d2","server":"65535","farm":66,"title":"Buse de Chine - Buteo hemilasius - Upland Buzzard","ispublic":1,"isfriend":0,"isfamily":0},{"id":"49451196327","owner":"93268738@N04","secret":"80548805a9","server":"65535","farm":66,"title":"Buse de Chine - Buteo hemilasius - Upland Buzzard","ispublic":1,"isfriend":0,"isfamily":0},{"id":"49450485778","owner":"93268738@N04","secret":"56b2f4716c","server":"65535","farm":66,"title":"Buse de Chine - Buteo hemilasius - Upland Buzzard","ispublic":1,"isfriend":0,"isfamily":0},{"id":"49442315563","owner":"36611483@N03","secret":"59d5897975","server":"65535","farm":66,"title":"Upland Buzzard","ispublic":1,"isfriend":0,"isfamily":0},{"id":"49343954502","owner":"36611483@N03","secret":"73a4f9e50d","server":"65535","farm":66,"title":"Upland Buzzard","ispublic":1,"isfriend":0,"isfamily":0},{"id":"49024118757","owner":"20984644@N05","secret":"3a20b115f8","server":"65535","farm":66,"title":"Upland Buzzard","ispublic":1,"isfriend":0,"isfamily":0},{"id":"49000460752","owner":"76868228@N08","secret":"af8c4dc514","server":"65535","farm":66,"title":"Upland Buzzard (Buteo hemilasius)","ispublic":1,"isfriend":0,"isfamily":0},{"id":"48942660138","owner":"15470975@N03","secret":"2c4ae10040","server":"65535","farm":66,"title":"The Upland Buzzard called Oser, Tibet 2019","ispublic":1,"isfriend":0,"isfamily":0},{"id":"48884302742","owner":"9487855@N05","secret":"e76297f221","server":"65535","farm":66,"title":"20190415-_SNG0786","ispublic":1,"isfriend":0,"isfamily":0},{"id":"47713884562","owner":"90437998@N05","secret":"9afd63189d","server":"65535","farm":66,"title":"Buteo hemilasius","ispublic":1,"isfriend":0,"isfamily":0},{"id":"40799773793","owner":"90437998@N05","secret":"1416840b37","server":"65535","farm":66,"title":"Buteo hemilasius","ispublic":1,"isfriend":0,"isfamily":0},{"id":"40799760823","owner":"90437998@N05","secret":"0b26d3980b","server":"65535","farm":66,"title":"Buteo hemilasius","ispublic":1,"isfriend":0,"isfamily":0},{"id":"32822518137","owner":"90437998@N05","secret":"289714b0bb","server":"65535","farm":66,"title":"Buteo hemilasius","ispublic":1,"isfriend":0,"isfamily":0},{"id":"46515998022","owner":"9851294@N07","secret":"218deda727","server":"4842","farm":5,"title":"Upland Buzzard 3","ispublic":1,"isfriend":0,"isfamily":0},{"id":"46515997242","owner":"9851294@N07","secret":"8e139e5c50","server":"4887","farm":5,"title":"Upland Buzzard 2","ispublic":1,"isfriend":0,"isfamily":0},{"id":"45036560174","owner":"159830675@N05","secret":"499d6c5811","server":"1929","farm":2,"title":"Upland Buzzard (Buteo hemilasius) - \u0428\u0438\u043b\u0438\u0439\u043d \u0441\u0430\u0440","ispublic":1,"isfriend":0,"isfamily":0},{"id":"43824876470","owner":"138278527@N07","secret":"e9da1d74e2","server":"1902","farm":2,"title":"Upland Buzzard!","ispublic":1,"isfriend":0,"isfamily":0},{"id":"44034329694","owner":"27566485@N02","secret":"2588bf76d4","server":"1859","farm":2,"title":"The upland buzzard (Buteo hemilasius)","ispublic":1,"isfriend":0,"isfamily":0},{"id":"44639123912","owner":"27566485@N02","secret":"aa06564d53","server":"1852","farm":2,"title":"The upland buzzard (Buteo hemilasius)","ispublic":1,"isfriend":0,"isfamily":0},{"id":"42441242010","owner":"27566485@N02","secret":"42d0a6ae6a","server":"1896","farm":2,"title":"The upland buzzard (Buteo hemilasius)","ispublic":1,"isfriend":0,"isfamily":0},{"id":"29606781648","owner":"27566485@N02","secret":"4cdec1fa05","server":"917","farm":1,"title":"The upland buzzard (Buteo hemilasius)","ispublic":1,"isfriend":0,"isfamily":0},{"id":"28507361887","owner":"54330726@N08","secret":"ec8820936e","server":"1810","farm":2,"title":"Buteo hemilasius... ?","ispublic":1,"isfriend":0,"isfamily":0},{"id":"42291672935","owner":"27566485@N02","secret":"32b0cbdb5b","server":"1765","farm":2,"title":"The upland buzzard (Buteo hemilasius)","ispublic":1,"isfriend":0,"isfamily":0},{"id":"42006121444","owner":"159830675@N05","secret":"0b1a4f9209","server":"1742","farm":2,"title":"Upland Buzzard (Buteo hemilasius) - \u0428\u0438\u043b\u0438\u0439\u043d \u0441\u0430\u0440","ispublic":1,"isfriend":0,"isfamily":0},{"id":"25957337997","owner":"15470975@N03","secret":"199b0fb097","server":"4784","farm":5,"title":"Upland Buzzard eye to eye, Tibet 2017","ispublic":1,"isfriend":0,"isfamily":0},{"id":"39690011255","owner":"151109375@N08","secret":"66f56ba60a","server":"4652","farm":5,"title":"Ferruginous Hawk (Buteo regalis) doing a vertical flyby","ispublic":1,"isfriend":0,"isfamily":0},{"id":"37765244395","owner":"38766439@N04","secret":"3f74a106bf","server":"4578","farm":5,"title":"Upland Buzzard WB9_3534","ispublic":1,"isfriend":0,"isfamily":0},{"id":"24780501478","owner":"38766439@N04","secret":"bf1aef9266","server":"4583","farm":5,"title":"Upland Buzzard WB9_3536","ispublic":1,"isfriend":0,"isfamily":0},{"id":"38621815601","owner":"15470975@N03","secret":"5684ca6000","server":"4519","farm":5,"title":"Upland Buzzard eye to eye, Tibet 2017","ispublic":1,"isfriend":0,"isfamily":0},{"id":"26696765939","owner":"124200561@N04","secret":"3a187c3060","server":"4548","farm":5,"title":"Upland Buzzard (Buteo hemilasius) \u0428\u0438\u043b\u0438\u0439\u043d \u0441\u0430\u0440","ispublic":1,"isfriend":0,"isfamily":0},{"id":"38104943512","owner":"130113460@N03","secret":"8044400a26","server":"4579","farm":5,"title":"Upland Buzzard Buteo hemilasius \u0428\u0438\u043b\u0438\u0439\u043d \u0441\u0430\u0440","ispublic":1,"isfriend":0,"isfamily":0},{"id":"37600103221","owner":"67590306@N03","secret":"004da3a670","server":"4443","farm":5,"title":"Upland buzzard (Buteo hemilasius)","ispublic":1,"isfriend":0,"isfamily":0},{"id":"36588735405","owner":"149879983@N07","secret":"d5f2140a20","server":"4367","farm":5,"title":"Upland Buzzard","ispublic":1,"isfriend":0,"isfamily":0},{"id":"52177328670","owner":"125057668@N02","secret":"fbc9a3cfbd","server":"65535","farm":66,"title":"Buse de Chine (Buteo hemilasius)","ispublic":1,"isfriend":0,"isfamily":0},{"id":"51817284994","owner":"141670526@N04","secret":"1a1d0b0f36","server":"65535","farm":66,"title":"Buteo hemilasius - Uppland Buzzard","ispublic":1,"isfriend":0,"isfamily":0},{"id":"51630350768","owner":"121917432@N02","secret":"241c8c8357","server":"65535","farm":66,"title":"\u5927\u9d5fUpland Buzzard (Buteo hemilasius)","ispublic":1,"isfriend":0,"isfamily":0},{"id":"51630739694","owner":"121917432@N02","secret":"94bece263f","server":"65535","farm":66,"title":"\u5927\u9d5fUpland Buzzard (Buteo hemilasius)","ispublic":1,"isfriend":0,"isfamily":0},{"id":"51630785294","owner":"121917432@N02","secret":"4c0ec620b3","server":"65535","farm":66,"title":"\u5927\u9d5fUpland Buzzard (Buteo hemilasius)","ispublic":1,"isfriend":0,"isfamily":0},{"id":"51630135701","owner":"121917432@N02","secret":"a657fdd6f3","server":"65535","farm":66,"title":"\u5927\u9d5fUpland Buzzard (Buteo hemilasius)","ispublic":1,"isfriend":0,"isfamily":0},{"id":"51630135666","owner":"121917432@N02","secret":"4fd8506f60","server":"65535","farm":66,"title":"\u5927\u9d5fUpland Buzzard (Buteo hemilasius)","ispublic":1,"isfriend":0,"isfamily":0},{"id":"51629310652","owner":"121917432@N02","secret":"a98f94eafb","server":"65535","farm":66,"title":"\u5927\u9d5fUpland Buzzard (Buteo hemilasius)","ispublic":1,"isfriend":0,"isfamily":0},{"id":"51630352668","owner":"121917432@N02","secret":"9bef9a9399","server":"65535","farm":66,"title":"\u5927\u9d5fUpland Buzzard (Buteo hemilasius)","ispublic":1,"isfriend":0,"isfamily":0},{"id":"51630981315","owner":"121917432@N02","secret":"5b3aac6ea6","server":"65535","farm":66,"title":"\u5927\u9d5fUpland Buzzard (Buteo hemilasius)","ispublic":1,"isfriend":0,"isfamily":0},{"id":"51630778044","owner":"121917432@N02","secret":"b2ea8fc963","server":"65535","farm":66,"title":"\u5927\u9d5fUpland Buzzard (Buteo hemilasius)","ispublic":1,"isfriend":0,"isfamily":0},{"id":"51630090526","owner":"121917432@N02","secret":"2a6c954e41","server":"65535","farm":66,"title":"\u5927\u9d5fUpland Buzzard (Buteo hemilasius)","ispublic":1,"isfriend":0,"isfamily":0},{"id":"51630739564","owner":"121917432@N02","secret":"92d6b79918","server":"65535","farm":66,"title":"\u5927\u9d5fUpland Buzzard (Buteo hemilasius)","ispublic":1,"isfriend":0,"isfamily":0},{"id":"51390028148","owner":"27566485@N02","secret":"d695cc757a","server":"65535","farm":66,"title":"The upland buzzard (Buteo hemilasius)","ispublic":1,"isfriend":0,"isfamily":0},{"id":"51273426630","owner":"56686021@N04","secret":"c6d232f970","server":"65535","farm":66,"title":"Upland Buzzard","ispublic":1,"isfriend":0,"isfamily":0},{"id":"51188822591","owner":"193032256@N07","secret":"9647e83754","server":"65535","farm":66,"title":"20200924 \u5927\u9d5f Buteo hemilasius","ispublic":1,"isfriend":0,"isfamily":0},{"id":"51188820361","owner":"193032256@N07","secret":"d027f9bc9c","server":"65535","farm":66,"title":"20210322 \u5927\u9d5f Buteo hemilasius","ispublic":1,"isfriend":0,"isfamily":0},{"id":"51053567466","owner":"69947563@N07","secret":"defcf600c9","server":"65535","farm":66,"title":"Upland Buzzard - Sichuan Province, China","ispublic":1,"isfriend":0,"isfamily":0},{"id":"51053567276","owner":"69947563@N07","secret":"0ce69d7a6b","server":"65535","farm":66,"title":"Upland Buzzard - Sichuan Province, China","ispublic":1,"isfriend":0,"isfamily":0},{"id":"50869247261","owner":"97195487@N00","secret":"79398bfb80","server":"65535","farm":66,"title":"\u5927\u9d5f Buteo hemilasius","ispublic":1,"isfriend":0,"isfamily":0},{"id":"50190817701","owner":"27566485@N02","secret":"e355a0d729","server":"65535","farm":66,"title":"The upland buzzard (Buteo hemilasius)","ispublic":1,"isfriend":0,"isfamily":0},{"id":"49816267046","owner":"91544025@N05","secret":"61904cedc7","server":"65535","farm":66,"title":"Buteo hemilasius \u043c\u043e\u0445\u043d\u043e\u043d\u043e\u0433\u0438\u0439 \u043a\u0443\u0440\u0433\u0430\u043d\u043d\u0438\u043a","ispublic":1,"isfriend":0,"isfamily":0},{"id":"49816266986","owner":"91544025@N05","secret":"bcbb13bd3f","server":"65535","farm":66,"title":"Buteo hemilasius \u043c\u043e\u0445\u043d\u043e\u043d\u043e\u0433\u0438\u0439 \u043a\u0443\u0440\u0433\u0430\u043d\u0438\u043a","ispublic":1,"isfriend":0,"isfamily":0},{"id":"49815732283","owner":"91544025@N05","secret":"5753615f83","server":"65535","farm":66,"title":"Buteo hemilasius \u043c\u043e\u0445\u043d\u043e\u043d\u043e\u0433\u0438\u0439 \u043a\u0443\u0440\u0433\u0430\u043d\u0438\u043a","ispublic":1,"isfriend":0,"isfamily":0},{"id":"49816578012","owner":"91544025@N05","secret":"c263b84430","server":"65535","farm":66,"title":"Buteo hemilasius \u043c\u043e\u0445\u043d\u043e\u043d\u043e\u0433\u0438\u0439 \u043a\u0443\u0440\u0433\u0430\u043d\u0438\u043a","ispublic":1,"isfriend":0,"isfamily":0},{"id":"49362605687","owner":"34098328@N07","secret":"7be2e93d2c","server":"65535","farm":66,"title":"Upland Buzzard","ispublic":1,"isfriend":0,"isfamily":0},{"id":"49234746852","owner":"15470975@N03","secret":"b12b2a3313","server":"65535","farm":66,"title":"The Upland Buzzard called Oser, Tibet 2019","ispublic":1,"isfriend":0,"isfamily":0},{"id":"48082333448","owner":"94706024@N07","secret":"67a76f1099","server":"65535","farm":66,"title":"Upland Buzzard","ispublic":1,"isfriend":0,"isfamily":0},{"id":"46164993162","owner":"121917432@N02","secret":"217f394822","server":"4904","farm":5,"title":"\u5927\u9d5fUpland Buzzard (Buteo hemilasius)","ispublic":1,"isfriend":0,"isfamily":0},{"id":"27695047729","owner":"91544025@N05","secret":"44b4c39407","server":"4685","farm":5,"title":"Buteo hemilasius","ispublic":1,"isfriend":0,"isfamily":0},{"id":"27695047199","owner":"91544025@N05","secret":"0783a9523f","server":"4728","farm":5,"title":"Buteo hemilasius","ispublic":1,"isfriend":0,"isfamily":0},{"id":"26799702879","owner":"159830675@N05","secret":"02154eb4b7","server":"4565","farm":5,"title":"\u0428\u0438\u043b\u0438\u0439\u043d \u0441\u0430\u0440 (Buteo hemilasius) Upland Buzzard","ispublic":1,"isfriend":0,"isfamily":0},{"id":"38157798886","owner":"153864115@N04","secret":"ddf3ef6a77","server":"4541","farm":5,"title":"G710_064925 upland buzzard (Buteo hemilasius)","ispublic":1,"isfriend":0,"isfamily":0},{"id":"37600090591","owner":"67590306@N03","secret":"e980e3335c","server":"4460","farm":5,"title":"Upland buzzard (Buteo hemilasius)","ispublic":1,"isfriend":0,"isfamily":0},{"id":"23736657108","owner":"67590306@N03","secret":"b50c1fb592","server":"4508","farm":5,"title":"Upland Buzzard","ispublic":1,"isfriend":0,"isfamily":0},{"id":"36086996673","owner":"142952595@N08","secret":"c079c7d4eb","server":"4396","farm":5,"title":"Upland Buzzard","ispublic":1,"isfriend":0,"isfamily":0}]},"stat":"ok"}