{"photos":{"page":1,"pages":10,"perpage":100,"total":982,"photo":[{"id":"52689763599","owner":"123979267@N05","secret":"78a38e76ac","server":"65535","farm":66,"title":"Upland Sandpiper","ispublic":1,"isfriend":0,"isfamily":0},{"id":"52689763144","owner":"123979267@N05","secret":"481943444c","server":"65535","farm":66,"title":"Upland Sandpiper","ispublic":1,"isfriend":0,"isfamily":0},{"id":"52689983763","owner":"123979267@N05","secret":"05f7af04b3","server":"65535","farm":66,"title":"Upland Sandpiper","ispublic":1,"isfriend":0,"isfamily":0},{"id":"52643462299","owner":"8013969@N03","secret":"408532e442","server":"65535","farm":66,"title":"Bartramia longicauda DFL calcaseiu22-1","ispublic":1,"isfriend":0,"isfamily":0},{"id":"52642694652","owner":"8013969@N03","secret":"483cab3b17","server":"65535","farm":66,"title":"Bartramia longicauda DFL calcaseiu22-2","ispublic":1,"isfriend":0,"isfamily":0},{"id":"52642690372","owner":"8013969@N03","secret":"3ac2bf426d","server":"65535","farm":66,"title":"Bartramia longicauda DFL calcaseiu22-3","ispublic":1,"isfriend":0,"isfamily":0},{"id":"52643663848","owner":"8013969@N03","secret":"1131ddaafa","server":"65535","farm":66,"title":"Bartramia longicauda DFL calcaseiu22-4","ispublic":1,"isfriend":0,"isfamily":0},{"id":"52627754737","owner":"76617062@N08","secret":"a65079cc0d","server":"65535","farm":66,"title":"1.03680  Maub\u00e8che des champs \/ Bartramia longicauda \/ Upland Sandpiper","ispublic":1,"isfriend":0,"isfamily":0},{"id":"52580503284","owner":"153973412@N04","secret":"be0c646402","server":"65535","farm":66,"title":"Upland Sandpiper-Bartramia longicauda, Hills, IA","ispublic":1,"isfriend":0,"isfamily":0},{"id":"52492398859","owner":"150374485@N05","secret":"0fa7a81a42","server":"65535","farm":66,"title":"Maub\u00e8che des champs--Upland Sandpiper(Bartramia longicauda)","ispublic":1,"isfriend":0,"isfamily":0},{"id":"52435592647","owner":"24608578@N00","secret":"c0f5ff3afc","server":"65535","farm":66,"title":"Upland sandpiper (Bartramia longicauda)","ispublic":1,"isfriend":0,"isfamily":0},{"id":"52436550830","owner":"24608578@N00","secret":"aa141ea804","server":"65535","farm":66,"title":"Upland sandpiper (Bartramia longicauda)","ispublic":1,"isfriend":0,"isfamily":0},{"id":"52436374244","owner":"24608578@N00","secret":"ecf14c3eca","server":"65535","farm":66,"title":"Upland sandpiper (Bartramia longicauda)","ispublic":1,"isfriend":0,"isfamily":0},{"id":"52436615278","owner":"24608578@N00","secret":"36c0eb1232","server":"65535","farm":66,"title":"Upland sandpiper (Bartramia longicauda)","ispublic":1,"isfriend":0,"isfamily":0},{"id":"52421161163","owner":"124732887@N02","secret":"44f8af5def","server":"65535","farm":66,"title":"Upland Sandpiper","ispublic":1,"isfriend":0,"isfamily":0},{"id":"52386813980","owner":"51986662@N05","secret":"4b32e17999","server":"65535","farm":66,"title":"Upland Sandpiper on Grasslands Lake Andes Wetland Management District South Dakota","ispublic":1,"isfriend":0,"isfamily":0},{"id":"52378948514","owner":"51986662@N05","secret":"b6e0508f69","server":"65535","farm":66,"title":"Upland Sandpiper in Grassland Lake Andes Wetland Management District South Dakota","ispublic":1,"isfriend":0,"isfamily":0},{"id":"52377695977","owner":"51986662@N05","secret":"da179cf6b8","server":"65535","farm":66,"title":"Upland Sandpiper in Grassland Lake Andes Wetland Management District South Dakota","ispublic":1,"isfriend":0,"isfamily":0},{"id":"52378867108","owner":"51986662@N05","secret":"6c484e5552","server":"65535","farm":66,"title":"Upland Sandpiper in Grassland Lake Andes Wetland Management District South Dakota","ispublic":1,"isfriend":0,"isfamily":0},{"id":"52378948459","owner":"51986662@N05","secret":"f7096d7659","server":"65535","farm":66,"title":"Upland Sandpiper Lake Andes Wetland Management District in South Dakota","ispublic":1,"isfriend":0,"isfamily":0},{"id":"52365489189","owner":"28631427@N00","secret":"c9bd8a8637","server":"0","farm":0,"title":"Upland Sandpiper Flying Away","ispublic":1,"isfriend":0,"isfamily":0},{"id":"52337577103","owner":"21147276@N03","secret":"08845acbd8","server":"65535","farm":66,"title":"Going Up Again?","ispublic":1,"isfriend":0,"isfamily":0},{"id":"52329974674","owner":"21147276@N03","secret":"f29963798d","server":"65535","farm":66,"title":"Things are on the Upland","ispublic":1,"isfriend":0,"isfamily":0},{"id":"52326719348","owner":"150374485@N05","secret":"8c59cc974e","server":"65535","farm":66,"title":"Maub\u00e8che des champs--Upland Sandpiper(Bartramia longicauda)","ispublic":1,"isfriend":0,"isfamily":0},{"id":"52326825939","owner":"150374485@N05","secret":"1583deb81c","server":"65535","farm":66,"title":"Maub\u00e8che des champs--Upland Sandpiper(Bartramia longicauda)","ispublic":1,"isfriend":0,"isfamily":0},{"id":"52275414013","owner":"196264892@N08","secret":"af05550b72","server":"65535","farm":66,"title":"Upland Sandpiper 2","ispublic":1,"isfriend":0,"isfamily":0},{"id":"52274420742","owner":"196264892@N08","secret":"55ed0d2485","server":"65535","farm":66,"title":"Upland Sandpiper 3","ispublic":1,"isfriend":0,"isfamily":0},{"id":"52274420517","owner":"196264892@N08","secret":"f744bc9bc1","server":"65535","farm":66,"title":"Upland Sanpiper 1","ispublic":1,"isfriend":0,"isfamily":0},{"id":"52273078514","owner":"39652177@N04","secret":"77f5fc6cc3","server":"65535","farm":66,"title":"Upland Sandpiper","ispublic":1,"isfriend":0,"isfamily":0},{"id":"52240987445","owner":"39177293@N03","secret":"6d923a8dbf","server":"65535","farm":66,"title":"Upland Sandpiper","ispublic":1,"isfriend":0,"isfamily":0},{"id":"52203911194","owner":"134270033@N06","secret":"450c698ca9","server":"65535","farm":66,"title":"HFF :: Happy Fence Friday","ispublic":1,"isfriend":0,"isfamily":0},{"id":"52183506234","owner":"18581013@N04","secret":"ef86e56b03","server":"65535","farm":66,"title":"Upland Sandpiper","ispublic":1,"isfriend":0,"isfamily":0},{"id":"52154900950","owner":"195506649@N05","secret":"2fbaf08ca2","server":"65535","farm":66,"title":"Bartramia longicauda","ispublic":1,"isfriend":0,"isfamily":0},{"id":"52090466879","owner":"124995824@N08","secret":"359b75041c","server":"65535","farm":66,"title":"Upland Sandpiper - Bartramia longicauda","ispublic":1,"isfriend":0,"isfamily":0},{"id":"51857891912","owner":"123465157@N05","secret":"282d70e692","server":"65535","farm":66,"title":"Batit\u00fa (Bartramia longicauda)","ispublic":1,"isfriend":0,"isfamily":0},{"id":"51784164155","owner":"78441721@N03","secret":"3f4121a2c2","server":"65535","farm":66,"title":"Maub\u00e8che des Champs","ispublic":1,"isfriend":0,"isfamily":0},{"id":"51604430980","owner":"36648230@N03","secret":"861ebc44b3","server":"65535","farm":66,"title":"Upland Flight","ispublic":1,"isfriend":0,"isfamily":0},{"id":"51325344453","owner":"32752434@N07","secret":"2d8774da26","server":"65535","farm":66,"title":"Upland Sandpiper (Bartramia longicauda)","ispublic":1,"isfriend":0,"isfamily":0},{"id":"51284853019","owner":"61301322@N08","secret":"5e78834c68","server":"65535","farm":66,"title":"Upland Sandpiper (Pulaski)","ispublic":1,"isfriend":0,"isfamily":0},{"id":"51266608864","owner":"61021753@N02","secret":"c0dfe8e667","server":"65535","farm":66,"title":"n202_w1150","ispublic":1,"isfriend":0,"isfamily":0},{"id":"51263925486","owner":"61021753@N02","secret":"70fd030c72","server":"65535","farm":66,"title":"n360_w1150","ispublic":1,"isfriend":0,"isfamily":0},{"id":"51262948257","owner":"61021753@N02","secret":"f441d65877","server":"65535","farm":66,"title":"n88_w1150","ispublic":1,"isfriend":0,"isfamily":0},{"id":"51256823897","owner":"9448211@N04","secret":"5b0b920df4","server":"65535","farm":66,"title":"Upland Sandpiper (Bartramia longicauda)","ispublic":1,"isfriend":0,"isfamily":0},{"id":"51256823837","owner":"9448211@N04","secret":"97486297f2","server":"65535","farm":66,"title":"Upland Sandpiper (Bartramia longicauda)","ispublic":1,"isfriend":0,"isfamily":0},{"id":"51254976267","owner":"9448211@N04","secret":"c32092225f","server":"65535","farm":66,"title":"Upland Sandpiper (Bartramia longicauda)","ispublic":1,"isfriend":0,"isfamily":0},{"id":"51253601273","owner":"61021753@N02","secret":"124e9d913d","server":"65535","farm":66,"title":"n522_w1150","ispublic":1,"isfriend":0,"isfamily":0},{"id":"51238360252","owner":"22883988@N08","secret":"bca7846388","server":"65535","farm":66,"title":"Upland Sandpiper in Wind Cave National Park","ispublic":1,"isfriend":0,"isfamily":0},{"id":"51239073261","owner":"22883988@N08","secret":"5e93cb5281","server":"65535","farm":66,"title":"Upland Sandpiper in Wind Cave National Park","ispublic":1,"isfriend":0,"isfamily":0},{"id":"51239273603","owner":"22883988@N08","secret":"267ec17cce","server":"65535","farm":66,"title":"Upland Sandpiper in Wind Cave National Park","ispublic":1,"isfriend":0,"isfamily":0},{"id":"51239273393","owner":"22883988@N08","secret":"72aacc6b0b","server":"65535","farm":66,"title":"Upland Sandpiper in Wind Cave National Park","ispublic":1,"isfriend":0,"isfamily":0},{"id":"51240129730","owner":"22883988@N08","secret":"a6b1f7cbea","server":"65535","farm":66,"title":"Upland Sandpiper in Wind Cave National Park","ispublic":1,"isfriend":0,"isfamily":0},{"id":"51203357929","owner":"62501682@N00","secret":"8586aff7dd","server":"65535","farm":66,"title":"An Upland Sandpiper landingo on a fencepost in Fort Niobrara National Wildlife Refuge near Valentine, Nebraska","ispublic":1,"isfriend":0,"isfamily":0},{"id":"51171375814","owner":"181920661@N03","secret":"01c6be8e11","server":"65535","farm":66,"title":"A6306644-101","ispublic":1,"isfriend":0,"isfamily":0},{"id":"51169919907","owner":"181920661@N03","secret":"f5f6f434d6","server":"65535","farm":66,"title":"A6306645-102","ispublic":1,"isfriend":0,"isfamily":0},{"id":"51171375644","owner":"181920661@N03","secret":"a8e3f35f40","server":"65535","farm":66,"title":"A6306646-103","ispublic":1,"isfriend":0,"isfamily":0},{"id":"51089596416","owner":"61021753@N02","secret":"94915b6e83","server":"65535","farm":66,"title":"n36_w1150","ispublic":1,"isfriend":0,"isfamily":0},{"id":"51090137613","owner":"61021753@N02","secret":"5e7fcae056","server":"65535","farm":66,"title":"n32_w1150","ispublic":1,"isfriend":0,"isfamily":0},{"id":"51048424773","owner":"156072574@N04","secret":"ddacb31c71","server":"65535","farm":66,"title":"Batit\u00fa  -  Upland Sandpiper","ispublic":1,"isfriend":0,"isfamily":0},{"id":"51023307367","owner":"61021753@N02","secret":"2585f00542","server":"65535","farm":66,"title":"n132_w1150","ispublic":1,"isfriend":0,"isfamily":0},{"id":"51001053666","owner":"134974399@N08","secret":"aff3e82967","server":"65535","farm":66,"title":"Bartramie des champs (Bartramia longicauda)","ispublic":1,"isfriend":0,"isfamily":0},{"id":"50826532756","owner":"61021753@N02","secret":"1575313b8b","server":"65535","farm":66,"title":"n137_w1150","ispublic":1,"isfriend":0,"isfamily":0},{"id":"50692558182","owner":"190923251@N05","secret":"c5639c01c7","server":"65535","farm":66,"title":"Upland Sandpiper","ispublic":1,"isfriend":0,"isfamily":0},{"id":"50600854202","owner":"189697862@N03","secret":"e7bbf6dd9c","server":"65535","farm":66,"title":"Bartramie des champs, Bartramia longicauda, \u00eele d'Ouessant, Finist\u00e8re.","ispublic":1,"isfriend":0,"isfamily":0},{"id":"50223140853","owner":"68635735@N02","secret":"d8ac285285","server":"65535","farm":66,"title":"39l Sandpiper - Upland Sandpiper (Bartramia longicauda)","ispublic":1,"isfriend":0,"isfamily":0},{"id":"52695365834","owner":"74056977@N07","secret":"2083b93b2a","server":"65535","farm":66,"title":"Upland Sandpiper (Bartramia longicauda)","ispublic":1,"isfriend":0,"isfamily":0},{"id":"52643659523","owner":"8013969@N03","secret":"f8e2b16883","server":"65535","farm":66,"title":"Bartramia longicauda DFL calcaseiu22-5","ispublic":1,"isfriend":0,"isfamily":0},{"id":"52534346237","owner":"33610210@N05","secret":"80cf10b308","server":"65535","farm":66,"title":"Upland Sandpiper, Bartramia longicauda","ispublic":1,"isfriend":0,"isfamily":0},{"id":"52455124545","owner":"30638967@N03","secret":"aee0287fdd","server":"65535","farm":66,"title":"Upland Sandpiper DSC_2302","ispublic":1,"isfriend":0,"isfamily":0},{"id":"52455124485","owner":"30638967@N03","secret":"d32af3ca57","server":"65535","farm":66,"title":"Upland Sandpiper DSC_2329","ispublic":1,"isfriend":0,"isfamily":0},{"id":"52238857733","owner":"67306066@N03","secret":"86b1d6aba0","server":"65535","farm":66,"title":"Upland Sandpiper (Bartramia longicauda)","ispublic":1,"isfriend":0,"isfamily":0},{"id":"51996426063","owner":"59631194@N06","secret":"e318cb0007","server":"65535","farm":66,"title":"Upland Sandpiper (Bartramia longicauda)","ispublic":1,"isfriend":0,"isfamily":0},{"id":"51972218343","owner":"13451078@N03","secret":"51ca94014c","server":"65535","farm":66,"title":"Upland Sandpiper (Bartramia longicauda)","ispublic":1,"isfriend":0,"isfamily":0},{"id":"51406387112","owner":"67306066@N03","secret":"1ea1877f70","server":"65535","farm":66,"title":"Upland Sandpiper (Bartramia longicauda)","ispublic":1,"isfriend":0,"isfamily":0},{"id":"51376377041","owner":"71833159@N00","secret":"f828e5007e","server":"65535","farm":66,"title":"Upland Sandpiper \/ Bartramia longicauda","ispublic":1,"isfriend":0,"isfamily":0},{"id":"51326083020","owner":"32752434@N07","secret":"53a55e66af","server":"65535","farm":66,"title":"Upland Sandpiper (Bartramia longicauda)","ispublic":1,"isfriend":0,"isfamily":0},{"id":"51318974803","owner":"66235191@N08","secret":"cf80735c84","server":"65535","farm":66,"title":"Upland Sandpiper","ispublic":1,"isfriend":0,"isfamily":0},{"id":"51270466337","owner":"193196961@N03","secret":"7526678d4c","server":"0","farm":0,"title":"upland sandpiper-Bartramia longicauda","ispublic":1,"isfriend":0,"isfamily":0},{"id":"51195310867","owner":"37493716@N02","secret":"66c6cf11c5","server":"65535","farm":66,"title":"Upland sanpiper- Bartramia Longicauda . Timbiqui Cauca . Juan Carlos Luna...","ispublic":1,"isfriend":0,"isfamily":0},{"id":"51196020816","owner":"37493716@N02","secret":"1f619ab165","server":"65535","farm":66,"title":"Bartramia longicauda Upland sandpiper. Ranita Terribilis ProAves Reserve. Timbiqui Cauca Juan Carlos Luna.","ispublic":1,"isfriend":0,"isfamily":0},{"id":"51178293174","owner":"8378957@N02","secret":"76e2b6773d","server":"65535","farm":66,"title":"Upland Sandpiper","ispublic":1,"isfriend":0,"isfamily":0},{"id":"51174560771","owner":"192872069@N08","secret":"85483ee84e","server":"65535","farm":66,"title":"Bartramie des champs","ispublic":1,"isfriend":0,"isfamily":0},{"id":"51153801644","owner":"8378957@N02","secret":"458343c9e0","server":"65535","farm":66,"title":"Upland Sandpiper","ispublic":1,"isfriend":0,"isfamily":0},{"id":"51126149954","owner":"39177293@N03","secret":"19ed39efbe","server":"65535","farm":66,"title":"Upland Sandpiper","ispublic":1,"isfriend":0,"isfamily":0},{"id":"51001053871","owner":"134974399@N08","secret":"e213bf39b5","server":"65535","farm":66,"title":"Bartramie des champs (Bartramia longicauda)","ispublic":1,"isfriend":0,"isfamily":0},{"id":"50931585877","owner":"123979267@N05","secret":"84d6648902","server":"65535","farm":66,"title":"Upland Sandpiper","ispublic":1,"isfriend":0,"isfamily":0},{"id":"50692479031","owner":"190923251@N05","secret":"ba1cc49538","server":"65535","farm":66,"title":"Upland Sandpiper","ispublic":1,"isfriend":0,"isfamily":0},{"id":"50666320507","owner":"190773540@N03","secret":"3e2fe4e40d","server":"65535","farm":66,"title":"Upland Sandpiper","ispublic":1,"isfriend":0,"isfamily":0},{"id":"50666213411","owner":"190773540@N03","secret":"9caa9b95d2","server":"65535","farm":66,"title":"Upland Sandpiper","ispublic":1,"isfriend":0,"isfamily":0},{"id":"50650225353","owner":"21702714@N06","secret":"6cbc5d5eba","server":"65535","farm":66,"title":"Upland Sandpiper","ispublic":1,"isfriend":0,"isfamily":0},{"id":"50600854337","owner":"189697862@N03","secret":"c735cffd34","server":"65535","farm":66,"title":"Bartramie des champs, Bartramia longicauda, \u00eele d'Ouessant, Finist\u00e8re.","ispublic":1,"isfriend":0,"isfamily":0},{"id":"50600854102","owner":"189697862@N03","secret":"9bcdf35b59","server":"65535","farm":66,"title":"Bartramie des champs, Bartramia longicauda, \u00eele d'Ouessant, Finist\u00e8re.","ispublic":1,"isfriend":0,"isfamily":0},{"id":"50490406142","owner":"50264295@N06","secret":"1e4e814810","server":"65535","farm":66,"title":"Upland Sandpiper (Bartramia longicauda)","ispublic":1,"isfriend":0,"isfamily":0},{"id":"50489362438","owner":"50264295@N06","secret":"e7e6ea59aa","server":"65535","farm":66,"title":"Upland Sandpiper (Bartramia longicauda)","ispublic":1,"isfriend":0,"isfamily":0},{"id":"50490037827","owner":"50264295@N06","secret":"24d9281803","server":"65535","farm":66,"title":"Upland Sandpiper (Bartramia longicauda)","ispublic":1,"isfriend":0,"isfamily":0},{"id":"50489871026","owner":"50264295@N06","secret":"fff7512c16","server":"65535","farm":66,"title":"Upland Sandpiper (Bartramia longicauda)","ispublic":1,"isfriend":0,"isfamily":0},{"id":"50470639373","owner":"50264295@N06","secret":"d45318b39e","server":"65535","farm":66,"title":"Upland Sandpiper (Bartramia longicauda)","ispublic":1,"isfriend":0,"isfamily":0},{"id":"50440608166","owner":"50264295@N06","secret":"1da9c0eed9","server":"65535","farm":66,"title":"Upland Sandpiper (Bartramia longicauda)","ispublic":1,"isfriend":0,"isfamily":0},{"id":"50437022593","owner":"50264295@N06","secret":"647eae35b0","server":"65535","farm":66,"title":"Upland Sandpiper (Bartramia longicauda)","ispublic":1,"isfriend":0,"isfamily":0},{"id":"50285625171","owner":"134082513@N05","secret":"1050ff1039","server":"65535","farm":66,"title":"039","ispublic":1,"isfriend":0,"isfamily":0},{"id":"50165289098","owner":"134082513@N05","secret":"88ab00eeec","server":"65535","farm":66,"title":"203","ispublic":1,"isfriend":0,"isfamily":0}]},"stat":"ok"}