{"photos":{"page":1,"pages":13,"perpage":100,"total":1271,"photo":[{"id":"52791627377","owner":"39652177@N04","secret":"4d67cc3e96","server":"65535","farm":66,"title":"Verdin","ispublic":1,"isfriend":0,"isfamily":0},{"id":"52780861308","owner":"196302635@N05","secret":"4986f8d354","server":"65535","farm":66,"title":"Verdin","ispublic":1,"isfriend":0,"isfamily":0},{"id":"52779283906","owner":"120699091@N02","secret":"0c0618d213","server":"65535","farm":66,"title":"Verdin","ispublic":1,"isfriend":0,"isfamily":0},{"id":"52779705035","owner":"120699091@N02","secret":"f3576f953c","server":"65535","farm":66,"title":"Verdin","ispublic":1,"isfriend":0,"isfamily":0},{"id":"52779704920","owner":"120699091@N02","secret":"c64efb1b61","server":"65535","farm":66,"title":"Verdin","ispublic":1,"isfriend":0,"isfamily":0},{"id":"52779704470","owner":"120699091@N02","secret":"8c994bb672","server":"65535","farm":66,"title":"Verdin","ispublic":1,"isfriend":0,"isfamily":0},{"id":"52779761333","owner":"120699091@N02","secret":"8cf2aec8b3","server":"65535","farm":66,"title":"Verdin","ispublic":1,"isfriend":0,"isfamily":0},{"id":"52779281871","owner":"120699091@N02","secret":"d1e118d7aa","server":"65535","farm":66,"title":"Verdin","ispublic":1,"isfriend":0,"isfamily":0},{"id":"52756048218","owner":"26438012@N08","secret":"74944d86b8","server":"65535","farm":66,"title":"Verdin","ispublic":1,"isfriend":0,"isfamily":0},{"id":"52743146679","owner":"47020313@N08","secret":"8eceea12aa","server":"65535","farm":66,"title":"Verdin IMG_0274 edtsg","ispublic":1,"isfriend":0,"isfamily":0},{"id":"52715218994","owner":"47533293@N04","secret":"6a674c57a9","server":"65535","farm":66,"title":"Verdin, Auriparus flaviceps","ispublic":1,"isfriend":0,"isfamily":0},{"id":"52715246075","owner":"47533293@N04","secret":"a5c8e253ca","server":"65535","farm":66,"title":"Verdin, Auriparus flaviceps","ispublic":1,"isfriend":0,"isfamily":0},{"id":"52678180530","owner":"33610210@N05","secret":"4ecf1f8f4e","server":"65535","farm":66,"title":"Verdin, Auriparus flaviceps","ispublic":1,"isfriend":0,"isfamily":0},{"id":"52672223754","owner":"54059915@N07","secret":"eb9a77c7c4","server":"65535","farm":66,"title":"Palm Springs","ispublic":1,"isfriend":0,"isfamily":0},{"id":"52667546796","owner":"33610210@N05","secret":"3a61dd15c1","server":"65535","farm":66,"title":"Verdin, Auriparus flaviceps","ispublic":1,"isfriend":0,"isfamily":0},{"id":"52667546771","owner":"33610210@N05","secret":"8b68635f7f","server":"65535","farm":66,"title":"Verdin, Auriparus flaviceps","ispublic":1,"isfriend":0,"isfamily":0},{"id":"52630775772","owner":"47533293@N04","secret":"d9c4527ac8","server":"65535","farm":66,"title":"Verdin, Auriparus flaviceps","ispublic":1,"isfriend":0,"isfamily":0},{"id":"52621199818","owner":"124995824@N08","secret":"bb8ee795a4","server":"65535","farm":66,"title":"Verdin - Auriparus flaviceps","ispublic":1,"isfriend":0,"isfamily":0},{"id":"52566098625","owner":"140318147@N08","secret":"5cdb979265","server":"65535","farm":66,"title":"verdin (Auriparus flaviceps) L4A8981","ispublic":1,"isfriend":0,"isfamily":0},{"id":"52562778425","owner":"33610210@N05","secret":"9658e5bddd","server":"65535","farm":66,"title":"Verdin, Auriparus flaviceps","ispublic":1,"isfriend":0,"isfamily":0},{"id":"52520953321","owner":"65788177@N02","secret":"df361ac406","server":"65535","farm":66,"title":"Verdin","ispublic":1,"isfriend":0,"isfamily":0},{"id":"52504690379","owner":"93084222@N00","secret":"ab512f98c3","server":"65535","farm":66,"title":"20221115 Verdin -- Auriparus flaviceps","ispublic":1,"isfriend":0,"isfamily":0},{"id":"52504421866","owner":"93084222@N00","secret":"9a1c1fc8aa","server":"65535","farm":66,"title":"20221115 Verdin -- Auriparus flaviceps","ispublic":1,"isfriend":0,"isfamily":0},{"id":"52497769520","owner":"47020313@N08","secret":"6f287688ed","server":"65535","farm":66,"title":"Verdin_MG_8623 edtvg","ispublic":1,"isfriend":0,"isfamily":0},{"id":"52446297888","owner":"79254232@N08","secret":"da81207a5c","server":"65535","farm":66,"title":"Verdin","ispublic":1,"isfriend":0,"isfamily":0},{"id":"52433539755","owner":"79254232@N08","secret":"f7d3043597","server":"65535","farm":66,"title":"Verdin","ispublic":1,"isfriend":0,"isfamily":0},{"id":"52414555042","owner":"84169650@N07","secret":"1698f3e0dc","server":"65535","farm":66,"title":"Verdin","ispublic":1,"isfriend":0,"isfamily":0},{"id":"52407559010","owner":"156457454@N02","secret":"cd013aaa9c","server":"65535","farm":66,"title":"Auriparus flaviceps 5 (Verdin)","ispublic":1,"isfriend":0,"isfamily":0},{"id":"52228981827","owner":"195819210@N03","secret":"acb7633811","server":"0","farm":0,"title":"(177) Verdin Audio","ispublic":1,"isfriend":0,"isfamily":0},{"id":"52214956829","owner":"89345196@N04","secret":"abf4a31436","server":"65535","farm":66,"title":"Verdin | Auriparus flaviceps","ispublic":1,"isfriend":0,"isfamily":0},{"id":"52147808370","owner":"54249623@N08","secret":"cb67f91fcc","server":"65535","farm":66,"title":"Verdin (Auriparus flaviceps)","ispublic":1,"isfriend":0,"isfamily":0},{"id":"52142683089","owner":"50779484@N03","secret":"1dfbaa94be","server":"65535","farm":66,"title":"Verdin on Bush 1","ispublic":1,"isfriend":0,"isfamily":0},{"id":"52139391966","owner":"109544413@N05","secret":"fdd5e2fb38","server":"65535","farm":66,"title":"Verdin on the Bells","ispublic":1,"isfriend":0,"isfamily":0},{"id":"52112899981","owner":"164178514@N07","secret":"6f3aab9b12","server":"65535","farm":66,"title":"Verdin in Palo Verde","ispublic":1,"isfriend":0,"isfamily":0},{"id":"52108083051","owner":"164178514@N07","secret":"3f11ef27ea","server":"65535","farm":66,"title":"Verdin","ispublic":1,"isfriend":0,"isfamily":0},{"id":"52037555939","owner":"8065544@N08","secret":"ce44e1c60d","server":"65535","farm":66,"title":"Verdin (Auriparus flaviceps)","ispublic":1,"isfriend":0,"isfamily":0},{"id":"52030070966","owner":"189109845@N04","secret":"b2c2b0e96d","server":"65535","farm":66,"title":"Verdin","ispublic":1,"isfriend":0,"isfamily":0},{"id":"52024807193","owner":"59779711@N05","secret":"5b30f1c396","server":"65535","farm":66,"title":"Female(?) Verdin with nest material","ispublic":1,"isfriend":0,"isfamily":0},{"id":"52015850577","owner":"132508209@N08","secret":"e390cb294d","server":"65535","farm":66,"title":"Verdin (Auriparus flaviceps)","ispublic":1,"isfriend":0,"isfamily":0},{"id":"51978867902","owner":"39935474@N03","secret":"8393a90dbc","server":"65535","farm":66,"title":"Verdin in Ocotillo","ispublic":1,"isfriend":0,"isfamily":0},{"id":"51980431400","owner":"39935474@N03","secret":"28d4cdbbab","server":"65535","farm":66,"title":"Verdin in Ocotillo","ispublic":1,"isfriend":0,"isfamily":0},{"id":"51976586638","owner":"85512596@N00","secret":"4f9f06341a","server":"65535","farm":66,"title":"IMG_4184","ispublic":1,"isfriend":0,"isfamily":0},{"id":"51957425346","owner":"48014585@N00","secret":"26d6538640","server":"65535","farm":66,"title":"Verdin","ispublic":1,"isfriend":0,"isfamily":0},{"id":"51953503346","owner":"48014585@N00","secret":"61ab73f051","server":"65535","farm":66,"title":"Verdin","ispublic":1,"isfriend":0,"isfamily":0},{"id":"51953572953","owner":"48014585@N00","secret":"72dd995e2c","server":"65535","farm":66,"title":"Verdin","ispublic":1,"isfriend":0,"isfamily":0},{"id":"51931996927","owner":"25531047@N00","secret":"630e8a3869","server":"65535","farm":66,"title":"Verdin","ispublic":1,"isfriend":0,"isfamily":0},{"id":"51897638062","owner":"51928691@N04","secret":"a588273300","server":"65535","farm":66,"title":"Verdin (Auriparus flaviceps) 7 022022","ispublic":1,"isfriend":0,"isfamily":0},{"id":"51898930644","owner":"51928691@N04","secret":"084dcd5c61","server":"65535","farm":66,"title":"Verdin (Auriparus flaviceps) 8 022022","ispublic":1,"isfriend":0,"isfamily":0},{"id":"51883842782","owner":"21558080@N07","secret":"e22b9890cf","server":"65535","farm":66,"title":"Verdin (Auriparus flaviceps)","ispublic":1,"isfriend":0,"isfamily":0},{"id":"51880178750","owner":"36682266@N06","secret":"1c2465fdfc","server":"65535","farm":66,"title":"Verdin Singing (Auriparus flaviceps)","ispublic":1,"isfriend":0,"isfamily":0},{"id":"51879652160","owner":"123174353@N02","secret":"7a0778fe99","server":"65535","farm":66,"title":"Auriparus flaviceps \/ Verdin \/ goudmees","ispublic":1,"isfriend":0,"isfamily":0},{"id":"51820260967","owner":"48014585@N00","secret":"ae5f57fd9d","server":"65535","farm":66,"title":"Verdin","ispublic":1,"isfriend":0,"isfamily":0},{"id":"51821781755","owner":"48014585@N00","secret":"05aaf8dac7","server":"65535","farm":66,"title":"Verdin","ispublic":1,"isfriend":0,"isfamily":0},{"id":"51821008196","owner":"48014585@N00","secret":"37f6e9dd9e","server":"65535","farm":66,"title":"Verdin","ispublic":1,"isfriend":0,"isfamily":0},{"id":"51821350394","owner":"48014585@N00","secret":"7ae92413e1","server":"65535","farm":66,"title":"Verdin","ispublic":1,"isfriend":0,"isfamily":0},{"id":"51819013052","owner":"48014585@N00","secret":"8915665d58","server":"65535","farm":66,"title":"Verdin","ispublic":1,"isfriend":0,"isfamily":0},{"id":"51820299769","owner":"48014585@N00","secret":"9d11529f6f","server":"65535","farm":66,"title":"Verdin","ispublic":1,"isfriend":0,"isfamily":0},{"id":"51820299514","owner":"48014585@N00","secret":"86e102317c","server":"65535","farm":66,"title":"Verdin","ispublic":1,"isfriend":0,"isfamily":0},{"id":"51804378883","owner":"9191876@N04","secret":"395db4dedd","server":"65535","farm":66,"title":"Verdin","ispublic":1,"isfriend":0,"isfamily":0},{"id":"51778701073","owner":"48912028@N05","secret":"962251f915","server":"65535","farm":66,"title":"Verdin, Auriparus flaviceps","ispublic":1,"isfriend":0,"isfamily":0},{"id":"51739843032","owner":"33610210@N05","secret":"60ab1cabcc","server":"65535","farm":66,"title":"Verdin, Auriparus flaviceps","ispublic":1,"isfriend":0,"isfamily":0},{"id":"51697765001","owner":"164178514@N07","secret":"de9d2a579c","server":"65535","farm":66,"title":"Verdin at thePark","ispublic":1,"isfriend":0,"isfamily":0},{"id":"51696995830","owner":"47020313@N08","secret":"6e01a2db8c","server":"65535","farm":66,"title":"Verdin_MG_8619 edtvg","ispublic":1,"isfriend":0,"isfamily":0},{"id":"51683523225","owner":"185659367@N04","secret":"07887f6c95","server":"65535","farm":66,"title":"Verdin in the Rose Garden","ispublic":1,"isfriend":0,"isfamily":0},{"id":"51673333505","owner":"185659367@N04","secret":"5cb351b45b","server":"65535","farm":66,"title":"Verdin","ispublic":1,"isfriend":0,"isfamily":0},{"id":"51440268478","owner":"8754822@N06","secret":"83eab48920","server":"65535","farm":66,"title":"IMG_0981-Verdin-Auriparus flaviceps","ispublic":1,"isfriend":0,"isfamily":0},{"id":"51390178839","owner":"47020313@N08","secret":"ff0a5dc2d6","server":"65535","farm":66,"title":"Verdin_MG_3359edtsg2","ispublic":1,"isfriend":0,"isfamily":0},{"id":"51380062237","owner":"65632611@N00","secret":"8467b3186a","server":"65535","farm":66,"title":"Veterans Oasis Park, AZ: Verdin 2","ispublic":1,"isfriend":0,"isfamily":0},{"id":"51371302752","owner":"35041397@N00","secret":"63a5ef55a1","server":"65535","farm":66,"title":"Verdin","ispublic":1,"isfriend":0,"isfamily":0},{"id":"52641460153","owner":"109544413@N05","secret":"7eebc9af93","server":"65535","farm":66,"title":"Stopping for a drink","ispublic":1,"isfriend":0,"isfamily":0},{"id":"52580502434","owner":"153973412@N04","secret":"401ea8b8f6","server":"65535","farm":66,"title":"Verdin-Auriparus flaviceps, Norias, TX","ispublic":1,"isfriend":0,"isfamily":0},{"id":"52564203704","owner":"140318147@N08","secret":"5731321bd4","server":"65535","farm":66,"title":"verdin (Auriparus flaviceps) L4A8895","ispublic":1,"isfriend":0,"isfamily":0},{"id":"52562313446","owner":"33610210@N05","secret":"c80a6d63a7","server":"65535","farm":66,"title":"Verdin, Auriparus flaviceps","ispublic":1,"isfriend":0,"isfamily":0},{"id":"52504896600","owner":"93084222@N00","secret":"84d94424ea","server":"65535","farm":66,"title":"20221115 Verdin -- Auriparus flaviceps","ispublic":1,"isfriend":0,"isfamily":0},{"id":"52391554574","owner":"156457454@N02","secret":"22b7fd05de","server":"65535","farm":66,"title":"Auriparus flaviceps 3 (Verdin)","ispublic":1,"isfriend":0,"isfamily":0},{"id":"52391243141","owner":"156457454@N02","secret":"2d490b71a2","server":"65535","farm":66,"title":"Auriparus flaviceps 4 (Verdin)","ispublic":1,"isfriend":0,"isfamily":0},{"id":"52391186141","owner":"156457454@N02","secret":"2423bc6f48","server":"65535","farm":66,"title":"Auriparus flaviceps 1 (Verdin)","ispublic":1,"isfriend":0,"isfamily":0},{"id":"52391614875","owner":"156457454@N02","secret":"e533c09b7a","server":"65535","farm":66,"title":"Auriparus flaviceps 2 (Verdin)","ispublic":1,"isfriend":0,"isfamily":0},{"id":"52305787327","owner":"196264892@N08","secret":"28453aefc1","server":"65535","farm":66,"title":"Verdin","ispublic":1,"isfriend":0,"isfamily":0},{"id":"52155574437","owner":"41694014@N04","secret":"f02b91c9e4","server":"65535","farm":66,"title":"Baloncillo","ispublic":1,"isfriend":0,"isfamily":0},{"id":"52157080235","owner":"41694014@N04","secret":"432ca5ceb8","server":"65535","farm":66,"title":"Auriparus flaviceps","ispublic":1,"isfriend":0,"isfamily":0},{"id":"52151346908","owner":"39177293@N03","secret":"f6b4829bba","server":"65535","farm":66,"title":"Verdin","ispublic":1,"isfriend":0,"isfamily":0},{"id":"52145795657","owner":"195819210@N03","secret":"58bf9e1440","server":"65535","farm":66,"title":"(15) Verdin","ispublic":1,"isfriend":0,"isfamily":0},{"id":"52146729629","owner":"195697553@N06","secret":"b376c5f5dd","server":"65535","farm":66,"title":"(86) Verdin","ispublic":1,"isfriend":0,"isfamily":0},{"id":"52142437433","owner":"195753655@N08","secret":"3c9f26381c","server":"65535","farm":66,"title":"120. Verdins(Auriparus flaviceps) nest","ispublic":1,"isfriend":0,"isfamily":0},{"id":"52141351000","owner":"193250255@N08","secret":"dba216643d","server":"65535","farm":66,"title":"115 Verdin","ispublic":1,"isfriend":0,"isfamily":0},{"id":"52139410888","owner":"109544413@N05","secret":"ec479853b1","server":"65535","farm":66,"title":"Verdin Portrait #1","ispublic":1,"isfriend":0,"isfamily":0},{"id":"52070530633","owner":"62043870@N05","secret":"8508176e55","server":"65535","farm":66,"title":"Verdin, Auriparus flaviceps","ispublic":1,"isfriend":0,"isfamily":0},{"id":"52009839931","owner":"103722035@N06","secret":"7b640b3070","server":"0","farm":0,"title":"Verdin (Auriparus flaviceps), Anza-Borrego Desert State Park, San Diego County, CA","ispublic":1,"isfriend":0,"isfamily":0},{"id":"51969424392","owner":"164178514@N07","secret":"946e980883","server":"65535","farm":66,"title":"Verdin","ispublic":1,"isfriend":0,"isfamily":0},{"id":"51957608835","owner":"120699091@N02","secret":"2639601840","server":"65535","farm":66,"title":"Verdin","ispublic":1,"isfriend":0,"isfamily":0},{"id":"51951143786","owner":"120699091@N02","secret":"73facca9ef","server":"65535","farm":66,"title":"Verdin","ispublic":1,"isfriend":0,"isfamily":0},{"id":"51898595511","owner":"51928691@N04","secret":"ed6b11f6cd","server":"65535","farm":66,"title":"Verdin (Auriparus flaviceps) 2 022022","ispublic":1,"isfriend":0,"isfamily":0},{"id":"51899249000","owner":"51928691@N04","secret":"3030d11a28","server":"65535","farm":66,"title":"Verdin (Auriparus flaviceps) 6 022022","ispublic":1,"isfriend":0,"isfamily":0},{"id":"51879534481","owner":"36682266@N06","secret":"0ee04cce90","server":"65535","farm":66,"title":"Verdin Singing (Auriparus flaviceps)","ispublic":1,"isfriend":0,"isfamily":0},{"id":"51822898798","owner":"32752434@N07","secret":"9a4ce58b3d","server":"65535","farm":66,"title":"Verdin (Auriparus flaviceps)","ispublic":1,"isfriend":0,"isfamily":0},{"id":"51821809337","owner":"32752434@N07","secret":"1b833cc02e","server":"65535","farm":66,"title":"Verdin (Auriparus flaviceps)","ispublic":1,"isfriend":0,"isfamily":0},{"id":"51820074008","owner":"48014585@N00","secret":"fe22760384","server":"65535","farm":66,"title":"Verdin","ispublic":1,"isfriend":0,"isfamily":0},{"id":"51381837015","owner":"65632611@N00","secret":"268a9fb853","server":"65535","farm":66,"title":"Veteran's Oasis Park, AZ: Verdin (4394)","ispublic":1,"isfriend":0,"isfamily":0},{"id":"51360072518","owner":"39445433@N02","secret":"8c3148393b","server":"65535","farm":66,"title":"Verdin","ispublic":1,"isfriend":0,"isfamily":0}]},"stat":"ok"}