{"photos":{"page":1,"pages":2,"perpage":100,"total":195,"photo":[{"id":"52772865057","owner":"51928691@N04","secret":"410213e0e9","server":"65535","farm":66,"title":"Village Indigobird (Vidua chalybeata) 2 012323.","ispublic":1,"isfriend":0,"isfamily":0},{"id":"52772865082","owner":"51928691@N04","secret":"96f52e8672","server":"65535","farm":66,"title":"Village Indigobird (Vidua chalybeata) 1 012323","ispublic":1,"isfriend":0,"isfamily":0},{"id":"52753014873","owner":"26371261@N00","secret":"2d5c4e7428","server":"65535","farm":66,"title":"Village Indigobird, Vidua chalybeata","ispublic":1,"isfriend":0,"isfamily":0},{"id":"52751539519","owner":"26371261@N00","secret":"aa145ce9df","server":"65535","farm":66,"title":"Village Indigobird, Vidua chalybeata","ispublic":1,"isfriend":0,"isfamily":0},{"id":"52724482437","owner":"26371261@N00","secret":"9a9998d983","server":"65535","farm":66,"title":"Village Indigobird, Vidua chalybeata","ispublic":1,"isfriend":0,"isfamily":0},{"id":"52695153449","owner":"128578170@N06","secret":"b96ae10430","server":"65535","farm":66,"title":"Village Indigobird Vidua c. chalybeata","ispublic":1,"isfriend":0,"isfamily":0},{"id":"52695300985","owner":"128578170@N06","secret":"65cc102286","server":"65535","farm":66,"title":"Village Indigobird Vidua c. chalybeata","ispublic":1,"isfriend":0,"isfamily":0},{"id":"52683649154","owner":"140318147@N08","secret":"768eb1db3a","server":"65535","farm":66,"title":"village indigobird (Vidua chalybeata) L4A6520","ispublic":1,"isfriend":0,"isfamily":0},{"id":"52683654630","owner":"140318147@N08","secret":"662e65aa24","server":"65535","farm":66,"title":"village indigobird (Vidua chalybeata okavangoensis) L4A2691","ispublic":1,"isfriend":0,"isfamily":0},{"id":"52682387816","owner":"64045479@N05","secret":"b986f15c2b","server":"65535","farm":66,"title":"Village Indigobird \u2642 Vidua chalybeata","ispublic":1,"isfriend":0,"isfamily":0},{"id":"52387361632","owner":"13861029@N00","secret":"c0ec54688f","server":"65535","farm":66,"title":"Village Indigobird","ispublic":1,"isfriend":0,"isfamily":0},{"id":"52266128502","owner":"42388593@N04","secret":"9dd26d29fa","server":"65535","farm":66,"title":"Atlaskfinke, Village Indigobird, Rotfu\u00dfwitwe (Vidua chalybeata)-6-DeNoiseAI-clear","ispublic":1,"isfriend":0,"isfamily":0},{"id":"51889985745","owner":"65695019@N07","secret":"0dc1d7ff11","server":"65535","farm":66,"title":"Village Indigobird (Vidua chalybeata) female eating grass seeds ...","ispublic":1,"isfriend":0,"isfamily":0},{"id":"51889987685","owner":"65695019@N07","secret":"ce585664aa","server":"65535","farm":66,"title":"Village Indigobird (Vidua chalybeata) male eating grass seeds ...","ispublic":1,"isfriend":0,"isfamily":0},{"id":"52176498229","owner":"65695019@N07","secret":"9b525ca250","server":"65535","farm":66,"title":"Village Indigobird (Vidua chalybeata) female looking for seeds ...","ispublic":1,"isfriend":0,"isfamily":0},{"id":"51944748574","owner":"128578170@N06","secret":"283540c83c","server":"65535","farm":66,"title":"Village Indigobird Vidua c. chalybeata","ispublic":1,"isfriend":0,"isfamily":0},{"id":"51900743633","owner":"22594349@N08","secret":"a8faf9c623","server":"65535","farm":66,"title":"Village Indigobird  (Vidua chalybeata)","ispublic":1,"isfriend":0,"isfamily":0},{"id":"51597603697","owner":"12639178@N07","secret":"288538a805","server":"65535","farm":66,"title":"Rotfu\u00df-Atlaswitwe","ispublic":1,"isfriend":0,"isfamily":0},{"id":"51560899104","owner":"32805478@N03","secret":"39cac502de","server":"65535","farm":66,"title":"Viuda senegalesa, Vidua chalybeata, Village Indigobird","ispublic":1,"isfriend":0,"isfamily":0},{"id":"51560898834","owner":"32805478@N03","secret":"7d1be31b8f","server":"65535","farm":66,"title":"Viuda senegalesa, Vidua chalybeata, Village Indigobird","ispublic":1,"isfriend":0,"isfamily":0},{"id":"51436700742","owner":"10795927@N03","secret":"ee08092097","server":"65535","farm":66,"title":"Village indigo bird - Vidua chalybeata - Staalvink","ispublic":1,"isfriend":0,"isfamily":0},{"id":"51438199864","owner":"10795927@N03","secret":"0c0e60c3e5","server":"65535","farm":66,"title":"Village indigo bird - Vidua chalybeata - Staalvink","ispublic":1,"isfriend":0,"isfamily":0},{"id":"51436695072","owner":"10795927@N03","secret":"44f73f9168","server":"65535","farm":66,"title":"Village indigo bird - Vidua chalybeata - Staalvink","ispublic":1,"isfriend":0,"isfamily":0},{"id":"51437688243","owner":"10795927@N03","secret":"41e7ab210f","server":"65535","farm":66,"title":"Village indigo bird - Vidua chalybeata - Staalvink","ispublic":1,"isfriend":0,"isfamily":0},{"id":"51249644258","owner":"129593667@N03","secret":"0a66c4b56a","server":"65535","farm":66,"title":"Village Indigobird - Combassou (Centralis form)","ispublic":1,"isfriend":0,"isfamily":0},{"id":"51219444732","owner":"73091266@N00","secret":"f09d27330d","server":"65535","farm":66,"title":"Village Indigobird","ispublic":1,"isfriend":0,"isfamily":0},{"id":"51218323223","owner":"73091266@N00","secret":"213bda4853","server":"65535","farm":66,"title":"Village Indigobird","ispublic":1,"isfriend":0,"isfamily":0},{"id":"51209943017","owner":"73091266@N00","secret":"4ac082a3c5","server":"65535","farm":66,"title":"Village Indigobird","ispublic":1,"isfriend":0,"isfamily":0},{"id":"51006092632","owner":"29882791@N02","secret":"6027298271","server":"65535","farm":66,"title":"Viduidae - Vidua chalybeata","ispublic":1,"isfriend":0,"isfamily":0},{"id":"50988910948","owner":"36611483@N03","secret":"3091d76461","server":"65535","farm":66,"title":"Village Indigobird","ispublic":1,"isfriend":0,"isfamily":0},{"id":"50976863396","owner":"101709991@N06","secret":"78f410d1d6","server":"65535","farm":66,"title":"Alupe, Busia County, Village Indigobird - Vidua chalybeata201223","ispublic":1,"isfriend":0,"isfamily":0},{"id":"50381847321","owner":"10795927@N03","secret":"e9f25537e1","server":"65535","farm":66,"title":"Village indigobird - Vidua chalybeata - Staalvink","ispublic":1,"isfriend":0,"isfamily":0},{"id":"49993796116","owner":"22594349@N08","secret":"86763be3d8","server":"65535","farm":66,"title":"Village Indigobird  (Vidua chalybeata) Juv","ispublic":1,"isfriend":0,"isfamily":0},{"id":"49963323116","owner":"73091266@N00","secret":"5eb1769b1f","server":"65535","farm":66,"title":"Village Indigobird","ispublic":1,"isfriend":0,"isfamily":0},{"id":"49963284097","owner":"73091266@N00","secret":"3d98606bc1","server":"65535","farm":66,"title":"Village Indigobird","ispublic":1,"isfriend":0,"isfamily":0},{"id":"49873815161","owner":"21109199@N03","secret":"9bc08b46b3","server":"65535","farm":66,"title":"Village Indigobird","ispublic":1,"isfriend":0,"isfamily":0},{"id":"49730077888","owner":"114700825@N07","secret":"3cebfbcac6","server":"65535","farm":66,"title":"281.2  Staalvink","ispublic":1,"isfriend":0,"isfamily":0},{"id":"49634150726","owner":"78193635@N02","secret":"8a3109acfa","server":"65535","farm":66,"title":"Indigobird Village","ispublic":1,"isfriend":0,"isfamily":0},{"id":"49622266287","owner":"186915896@N05","secret":"297a85f6f3","server":"65535","farm":66,"title":"Staalvink (Village Indigobird, Vidua chalybeata)","ispublic":1,"isfriend":0,"isfamily":0},{"id":"49599688846","owner":"90764954@N07","secret":"a3a9871867","server":"65535","farm":66,"title":"Village indigobird or steelblue widowfinch (Vidua chalybeata) \u975b\u84dd\u7ef4\u8fbe\u96c0","ispublic":1,"isfriend":0,"isfamily":0},{"id":"49561551222","owner":"21606110@N08","secret":"9ddca82d8a","server":"65535","farm":66,"title":"Village Indigobird","ispublic":1,"isfriend":0,"isfamily":0},{"id":"47922716957","owner":"22594349@N08","secret":"2584c895c5","server":"65535","farm":66,"title":"Village Indigobird  (Vidua chalybeata) Imm","ispublic":1,"isfriend":0,"isfamily":0},{"id":"47158893502","owner":"20984644@N05","secret":"8e78b69a64","server":"7815","farm":8,"title":"Village Indigobird","ispublic":1,"isfriend":0,"isfamily":0},{"id":"39890941733","owner":"23856345@N06","secret":"5440638260","server":"7838","farm":8,"title":"Village Indigobird","ispublic":1,"isfriend":0,"isfamily":0},{"id":"45411006121","owner":"97367345@N00","secret":"e582f1931c","server":"1956","farm":2,"title":"Staalblouvinkie","ispublic":1,"isfriend":0,"isfamily":0},{"id":"42088148520","owner":"57465751@N05","secret":"0cf298c3e4","server":"1814","farm":2,"title":"Village Indigobird (Vidua chalybeata), Queen Elizabeth II NP, Uganda","ispublic":1,"isfriend":0,"isfamily":0},{"id":"43088283101","owner":"120198067@N08","secret":"1517eedc8b","server":"1823","farm":2,"title":"Village Indigobird, Vidua chalybeata amauropteryx","ispublic":1,"isfriend":0,"isfamily":0},{"id":"41810599761","owner":"32674493@N04","secret":"c4a91a2967","server":"65535","farm":66,"title":"Bico-de-prata-do-senegal (Vidua chalybeata centralis) macho","ispublic":1,"isfriend":0,"isfamily":0},{"id":"39711521360","owner":"93882360@N07","secret":"598b794ea3","server":"935","farm":1,"title":"Village indigobird (Vidua chalybeata okavangoensis) male Zimbabwe","ispublic":1,"isfriend":0,"isfamily":0},{"id":"27066382508","owner":"82690818@N05","secret":"5dba38ce5a","server":"795","farm":1,"title":"Village Indigobird","ispublic":1,"isfriend":0,"isfamily":0},{"id":"25896622037","owner":"12639178@N07","secret":"b3e1a8b0cd","server":"4795","farm":5,"title":"Rotfu\u00df-Atlaswitwe , NGIDn1919887294","ispublic":1,"isfriend":0,"isfamily":0},{"id":"39872536145","owner":"12639178@N07","secret":"f527d4d60e","server":"4773","farm":5,"title":"Rotfu\u00df-Atlaswitwe , NGIDn589191469","ispublic":1,"isfriend":0,"isfamily":0},{"id":"39527719754","owner":"12639178@N07","secret":"71c891be86","server":"4664","farm":5,"title":"Rotfu\u00df-Atlaswitwe (m), Village Indigobird (Vidua chalybeata) , NGID1399251074","ispublic":1,"isfriend":0,"isfamily":0},{"id":"25358935467","owner":"131256186@N04","secret":"ac4dc311aa","server":"4752","farm":5,"title":"Village Indigobird  Vidua chalybeata","ispublic":1,"isfriend":0,"isfamily":0},{"id":"25358934517","owner":"131256186@N04","secret":"b0225808fb","server":"4659","farm":5,"title":"Village Indigobird  Vidua chalybeata","ispublic":1,"isfriend":0,"isfamily":0},{"id":"34325614222","owner":"78193635@N02","secret":"5a866c498c","server":"4189","farm":5,"title":"Indigobird Village","ispublic":1,"isfriend":0,"isfamily":0},{"id":"34355232721","owner":"78193635@N02","secret":"f1b6f6fdca","server":"4160","farm":5,"title":"Indigobird Village","ispublic":1,"isfriend":0,"isfamily":0},{"id":"29225915113","owner":"12639178@N07","secret":"ee00b50f94","server":"8383","farm":9,"title":"Rotfu\u00df-Atlaswitwe (Djoudj) , NGID793556528","ispublic":1,"isfriend":0,"isfamily":0},{"id":"29679956522","owner":"62877922@N08","secret":"5c6c65223c","server":"8792","farm":9,"title":"Village Indigobird (Vidua chalybeata)","ispublic":1,"isfriend":0,"isfamily":0},{"id":"28315674426","owner":"56686021@N04","secret":"eb647b0c56","server":"7617","farm":8,"title":"Village Indigobird","ispublic":1,"isfriend":0,"isfamily":0},{"id":"27680928924","owner":"130819719@N05","secret":"30288db013","server":"8653","farm":9,"title":"Village Indigobird (f)","ispublic":1,"isfriend":0,"isfamily":0},{"id":"27681386603","owner":"130819719@N05","secret":"680db3bb83","server":"8684","farm":9,"title":"Village Indigobird (m)","ispublic":1,"isfriend":0,"isfamily":0},{"id":"52562319647","owner":"189406540@N02","secret":"48d99014e5","server":"65535","farm":66,"title":"PB186083 Village Indigobird. Vidua chalybeata","ispublic":1,"isfriend":0,"isfamily":0},{"id":"52195888074","owner":"65695019@N07","secret":"cde0fcaa42","server":"65535","farm":66,"title":"Village Indigobird (Vidua chalybeata) female eating grass seeds ...","ispublic":1,"isfriend":0,"isfamily":0},{"id":"52196110640","owner":"65695019@N07","secret":"cb0d9e82f5","server":"65535","farm":66,"title":"Village Indigobird (Vidua chalybeata) male eating grass seeds ...","ispublic":1,"isfriend":0,"isfamily":0},{"id":"52195626533","owner":"65695019@N07","secret":"287b5d9ff0","server":"65535","farm":66,"title":"Village Indigobird (Vidua chalybeata) male ...","ispublic":1,"isfriend":0,"isfamily":0},{"id":"52176252808","owner":"65695019@N07","secret":"e5c7b804ee","server":"65535","farm":66,"title":"Village Indigobird (Vidua chalybeata) male looking for seeds ...","ispublic":1,"isfriend":0,"isfamily":0},{"id":"51878582779","owner":"65695019@N07","secret":"e7f792395f","server":"65535","farm":66,"title":"Village Indigobird (Vidua chalybeata) male looking for seeds ...","ispublic":1,"isfriend":0,"isfamily":0},{"id":"51159270123","owner":"65695019@N07","secret":"31a2030340","server":"65535","farm":66,"title":"Village Indigobird (Vidua chalybeata) female ...","ispublic":1,"isfriend":0,"isfamily":0},{"id":"51090794190","owner":"11555596@N02","secret":"cb9e673d39","server":"65535","farm":66,"title":"Birds. Village Indigobird . Welgevonden Game Reserve. South Africa. Feb\/2021","ispublic":1,"isfriend":0,"isfamily":0},{"id":"50382026022","owner":"10795927@N03","secret":"980b29c593","server":"65535","farm":66,"title":"Village indigobird - Vidua chalybeata - Staalvink","ispublic":1,"isfriend":0,"isfamily":0},{"id":"49634151121","owner":"78193635@N02","secret":"d5d2625aab","server":"65535","farm":66,"title":"Indigobird Village","ispublic":1,"isfriend":0,"isfamily":0},{"id":"49599192678","owner":"90764954@N07","secret":"83959039dd","server":"65535","farm":66,"title":"Village indigobird or steelblue widowfinch (Vidua chalybeata) \u975b\u84dd\u7ef4\u8fbe\u96c0","ispublic":1,"isfriend":0,"isfamily":0},{"id":"49339037558","owner":"48907812@N00","secret":"6d394979cc","server":"65535","farm":66,"title":"Village indigobird or steelblue widowfinch (Vidua chalybeata)","ispublic":1,"isfriend":0,"isfamily":0},{"id":"49323522947","owner":"96568982@N06","secret":"f128b4d809","server":"65535","farm":66,"title":"INDIGOBIRD, Village","ispublic":1,"isfriend":0,"isfamily":0},{"id":"49234213238","owner":"152486732@N07","secret":"600f38f5ba","server":"65535","farm":66,"title":"Gambia [Region Soma) Rotfu\u00df-Atlaswitwe Engl. village indigobird (Vidua chalybeata) [male]","ispublic":1,"isfriend":0,"isfamily":0},{"id":"49091849493","owner":"126271444@N08","secret":"116585536f","server":"65535","farm":66,"title":"Village Indigobird (Vidua chalybeata)","ispublic":1,"isfriend":0,"isfamily":0},{"id":"48953532272","owner":"131256186@N04","secret":"1c15de8662","server":"65535","farm":66,"title":"Village Indigobird Vidua chalybeata","ispublic":1,"isfriend":0,"isfamily":0},{"id":"48703581263","owner":"137474703@N02","secret":"4401f0fd94","server":"65535","farm":66,"title":"Village Indigo bird (Vidua chalybeata), Beli, Guinea Bissau","ispublic":1,"isfriend":0,"isfamily":0},{"id":"46637053555","owner":"11555596@N02","secret":"41bc468585","server":"7905","farm":8,"title":"Village Indigobird. Vi\u00favo-de-bico-azulado (femea). Kruger Park. South Africa. Jan\/2019","ispublic":1,"isfriend":0,"isfamily":0},{"id":"47552567841","owner":"11555596@N02","secret":"63329aa896","server":"7865","farm":8,"title":"Village Indigobird. Vi\u00favo-de-bico-azulado (femea). Kruger Park. South Africa. Jan\/2019","ispublic":1,"isfriend":0,"isfamily":0},{"id":"44107713491","owner":"11590393@N05","secret":"0b785b6c54","server":"1883","farm":2,"title":"Village Indigobird (Vidua chalybeata neumanni)","ispublic":1,"isfriend":0,"isfamily":0},{"id":"39711530870","owner":"93882360@N07","secret":"385dafa19e","server":"849","farm":1,"title":"Village indigobird (Vidua chalybeata okavangoensis) male Botswana","ispublic":1,"isfriend":0,"isfamily":0},{"id":"25921664957","owner":"61079970@N06","secret":"8608c0b478","server":"4782","farm":5,"title":"Vidua chalybeata-Village Indigobird","ispublic":1,"isfriend":0,"isfamily":0},{"id":"40750839912","owner":"61079970@N06","secret":"a6347a07b2","server":"4782","farm":5,"title":"Vidua chalybeata-Village Indigobird","ispublic":1,"isfriend":0,"isfamily":0},{"id":"38827338160","owner":"12639178@N07","secret":"979c5f888f","server":"4744","farm":5,"title":"Rotfu\u00df-Atlaswitwe, Kotu und Fajara Area, Gambia , NGID1520917814","ispublic":1,"isfriend":0,"isfamily":0},{"id":"40634586421","owner":"12639178@N07","secret":"f61743d489","server":"4701","farm":5,"title":"Rotfu\u00df-Atlaswitwe, Kotu und Fajara Area, Gambia , NGID596304947","ispublic":1,"isfriend":0,"isfamily":0},{"id":"38649255210","owner":"12639178@N07","secret":"e35e8caaf7","server":"4701","farm":5,"title":"Rotfu\u00df-Atlaswitwe (w), Village Indigobird (female) (Vidua chalybeata) , NGID1487569355","ispublic":1,"isfriend":0,"isfamily":0},{"id":"39104391924","owner":"26241206@N05","secret":"00d87de160","server":"4755","farm":5,"title":"Steel-blue Widow Finch","ispublic":1,"isfriend":0,"isfamily":0},{"id":"25758179738","owner":"137644945@N07","secret":"4c4c68ed8b","server":"4722","farm":5,"title":"Vidua chalybeata, Village Indigobird, Staalvink","ispublic":1,"isfriend":0,"isfamily":0},{"id":"38180421254","owner":"51435649@N05","secret":"b0cd2929e3","server":"4520","farm":5,"title":"2062 Village Indiogobird","ispublic":1,"isfriend":0,"isfamily":0},{"id":"37122036950","owner":"36338063@N00","secret":"75b5d13f8c","server":"4413","farm":5,"title":"VIDUA CHALYBEATA CHALYBEATA FEMALE_DSC0142","ispublic":1,"isfriend":0,"isfamily":0},{"id":"36767308631","owner":"33608381@N00","secret":"75716ab6c0","server":"4435","farm":5,"title":"Vilage indigobird fem (Vidua chalybeata)","ispublic":1,"isfriend":0,"isfamily":0},{"id":"34596368383","owner":"86743793@N04","secret":"7f1c289531","server":"4233","farm":5,"title":"Village Indigobird - Vidua chalybeata","ispublic":1,"isfriend":0,"isfamily":0},{"id":"34124934453","owner":"25061636@N05","secret":"25f16e307b","server":"4244","farm":5,"title":"Vidua chalybeata - Village Indigobird","ispublic":1,"isfriend":0,"isfamily":0},{"id":"34355238231","owner":"78193635@N02","secret":"06d5af26e5","server":"4158","farm":5,"title":"Indigobird Village","ispublic":1,"isfriend":0,"isfamily":0},{"id":"33288583115","owner":"57465751@N05","secret":"16ee6217d3","server":"633","farm":1,"title":"Village Indigobird (Vidua chalybeata), M, Zaagkuildrift Rd., Limpopo, South Africa 1\/15\/17","ispublic":1,"isfriend":0,"isfamily":0},{"id":"32030723671","owner":"99613800@N02","secret":"fdce9cdedf","server":"484","farm":1,"title":"Village Indigobird (Vidua chalybeata ssp. chalybeata) - Viduidae - Mandina Ba, Kuloro, The Gambia","ispublic":1,"isfriend":0,"isfamily":0},{"id":"31012961383","owner":"130793142@N07","secret":"545c1c291b","server":"5575","farm":6,"title":"Village Indigobird (Vidua chalybeata) (1)","ispublic":1,"isfriend":0,"isfamily":0},{"id":"31449934520","owner":"130793142@N07","secret":"c050d6bd3a","server":"639","farm":1,"title":"Village Indigobird (Vidua chalybeata) (2)","ispublic":1,"isfriend":0,"isfamily":0}]},"stat":"ok"}