{"photos":{"page":1,"pages":3,"perpage":100,"total":272,"photo":[{"id":"52704149054","owner":"154841955@N04","secret":"6107bb1845","server":"65535","farm":66,"title":"Mirlona","ispublic":1,"isfriend":0,"isfamily":0},{"id":"52613237933","owner":"65695019@N07","secret":"4a44f829f3","server":"65535","farm":66,"title":"Western Orphean Warbler (Curruca hortensis)","ispublic":1,"isfriend":0,"isfamily":0},{"id":"52561422258","owner":"29882791@N02","secret":"3ea152d90c","server":"65535","farm":66,"title":"Sylviidae - Curruca hortensis","ispublic":1,"isfriend":0,"isfamily":0},{"id":"52476401445","owner":"186686756@N02","secret":"05b2165e40","server":"65535","farm":66,"title":"Curruca mirlona (Sylvia hortensis)","ispublic":1,"isfriend":0,"isfamily":0},{"id":"52476482938","owner":"186686756@N02","secret":"1a5ac4ee89","server":"65535","farm":66,"title":"Curruca mirlona (Sylvia hortensis)","ispublic":1,"isfriend":0,"isfamily":0},{"id":"52475428182","owner":"186686756@N02","secret":"65c66faca4","server":"65535","farm":66,"title":"Curruca mirlona (Sylvia hortensis)","ispublic":1,"isfriend":0,"isfamily":0},{"id":"52476208239","owner":"186686756@N02","secret":"8f7a3a0a82","server":"65535","farm":66,"title":"Curruca mirlona (Sylvia hortensis)","ispublic":1,"isfriend":0,"isfamily":0},{"id":"52476474423","owner":"186686756@N02","secret":"92eb366b28","server":"65535","farm":66,"title":"Curruca mirlona (Sylvia hortensis)","ispublic":1,"isfriend":0,"isfamily":0},{"id":"52476392505","owner":"186686756@N02","secret":"c6526020f5","server":"65535","farm":66,"title":"Curruca mirlona (Sylvia hortensis)","ispublic":1,"isfriend":0,"isfamily":0},{"id":"52474315075","owner":"186686756@N02","secret":"99aa7a960f","server":"65535","farm":66,"title":"Curruca mirlona (Sylvia hortensis)","ispublic":1,"isfriend":0,"isfamily":0},{"id":"52473842721","owner":"186686756@N02","secret":"8f448f2297","server":"65535","farm":66,"title":"Curruca mirlona (Sylvia hortensis)","ispublic":1,"isfriend":0,"isfamily":0},{"id":"52351794137","owner":"111753457@N03","secret":"49ae1cb843","server":"65535","farm":66,"title":"_MG_1455    Curruca mirlona, Sylvia hortensis","ispublic":1,"isfriend":0,"isfamily":0},{"id":"52348253764","owner":"37206078@N04","secret":"cdb4a0963f","server":"65535","farm":66,"title":"Curruca mirlona  200822-3956","ispublic":1,"isfriend":0,"isfamily":0},{"id":"52320135394","owner":"132387940@N05","secret":"1d1b35dacb","server":"65535","farm":66,"title":"Curruca hortensis","ispublic":1,"isfriend":0,"isfamily":0},{"id":"52307962567","owner":"37206078@N04","secret":"7e2e897292","server":"65535","farm":66,"title":"Curruca mirlona  200822-3959","ispublic":1,"isfriend":0,"isfamily":0},{"id":"52301813359","owner":"37206078@N04","secret":"00a4ddae31","server":"65535","farm":66,"title":"Curruca mirlona  200822-3944","ispublic":1,"isfriend":0,"isfamily":0},{"id":"52300090190","owner":"30793779@N04","secret":"01eb8f6995","server":"65535","farm":66,"title":"CURRUCA MIRLONA * Sylvia hortensis 14 cm","ispublic":1,"isfriend":0,"isfamily":0},{"id":"52274127510","owner":"146299377@N03","secret":"ee9d8cb3c3","server":"65535","farm":66,"title":"Sylvia hortensis ( curruca mirlona )","ispublic":1,"isfriend":0,"isfamily":0},{"id":"52191125751","owner":"134562141@N06","secret":"eb0a72d958","server":"65535","farm":66,"title":"Mestersanger, Western Orphean Warbler, Cala Montjoi","ispublic":1,"isfriend":0,"isfamily":0},{"id":"52189214702","owner":"8957439@N03","secret":"5881934d7f","server":"65535","farm":66,"title":"Toutinegra-real \/ Curruca mirlona occidental \/ Western Orphean Warbler","ispublic":1,"isfriend":0,"isfamily":0},{"id":"52173977808","owner":"111753457@N03","secret":"3687ccfe4b","server":"65535","farm":66,"title":"_09A7258   Curruca mirlona, Sylvia hortensis","ispublic":1,"isfriend":0,"isfamily":0},{"id":"52068847203","owner":"62501256@N05","secret":"acbddd5893","server":"65535","farm":66,"title":"Western Orphean Warbler (Curruca hortensis)","ispublic":1,"isfriend":0,"isfamily":0},{"id":"51921411998","owner":"32805478@N03","secret":"cd0e772362","server":"65535","farm":66,"title":"Curruca mirlona occidental, Curruca hortensis, Western Orphean Warbler","ispublic":1,"isfriend":0,"isfamily":0},{"id":"51902757501","owner":"193655885@N06","secret":"45a0bb6d4a","server":"65535","farm":66,"title":"Curruca mirlona (Sylvia hortensis)","ispublic":1,"isfriend":0,"isfamily":0},{"id":"51902726741","owner":"33319209@N02","secret":"d358599417","server":"65535","farm":66,"title":"Sylvia hortensis","ispublic":1,"isfriend":0,"isfamily":0},{"id":"51695064179","owner":"33319209@N02","secret":"65b9f8493a","server":"65535","farm":66,"title":"Sylvia hortensis","ispublic":1,"isfriend":0,"isfamily":0},{"id":"51575220392","owner":"111753457@N03","secret":"26fb2c8158","server":"65535","farm":66,"title":"IMG_5233 Curruca mirlona ( adulta ),Sylvia hortensi","ispublic":1,"isfriend":0,"isfamily":0},{"id":"51563640119","owner":"93144813@N06","secret":"0d5f708b1c","server":"65535","farm":66,"title":"Curruca Mirlona, Orphean Warbler ( Sylvia hortensis ).","ispublic":1,"isfriend":0,"isfamily":0},{"id":"51326865938","owner":"193492169@N05","secret":"68a102654f","server":"65535","farm":66,"title":"Curruca mirlona occidental - Western Orphean Warbler - Curruca hortensis","ispublic":1,"isfriend":0,"isfamily":0},{"id":"51322979500","owner":"129288636@N02","secret":"6c53288712","server":"65535","farm":66,"title":"western orphean warbler (Curruca hortensis)","ispublic":1,"isfriend":0,"isfamily":0},{"id":"51322471250","owner":"131301995@N02","secret":"123eb14ae1","server":"65535","farm":66,"title":"Curruca mirlona occidental (Sylvia hortensis)","ispublic":1,"isfriend":0,"isfamily":0},{"id":"51315404543","owner":"28325150@N04","secret":"ae5912804a","server":"65535","farm":66,"title":"Curruca mirlona (Sylvia hortensis)","ispublic":1,"isfriend":0,"isfamily":0},{"id":"51276960609","owner":"61021753@N02","secret":"42cd7e242f","server":"65535","farm":66,"title":"n90_w1150","ispublic":1,"isfriend":0,"isfamily":0},{"id":"51276960469","owner":"61021753@N02","secret":"62621c74d4","server":"65535","farm":66,"title":"n88_w1150","ispublic":1,"isfriend":0,"isfamily":0},{"id":"51262944352","owner":"61021753@N02","secret":"6917f890d4","server":"65535","farm":66,"title":"n44_w1150","ispublic":1,"isfriend":0,"isfamily":0},{"id":"51221747314","owner":"86585370@N00","secret":"7cc6407e2a","server":"65535","farm":66,"title":"Western orphean warbler \/\/ Toutinegra-real","ispublic":1,"isfriend":0,"isfamily":0},{"id":"51206206229","owner":"86585370@N00","secret":"a5d005cba7","server":"65535","farm":66,"title":"Western orphean warbler \/\/ Toutinegra-real","ispublic":1,"isfriend":0,"isfamily":0},{"id":"51203289322","owner":"86585370@N00","secret":"098b950e1e","server":"65535","farm":66,"title":"Western orphean warbler \/\/ Toutinegra-real","ispublic":1,"isfriend":0,"isfamily":0},{"id":"51200880196","owner":"181746748@N05","secret":"ceff8263cc","server":"65535","farm":66,"title":"Fauvette orph\u00e9e","ispublic":1,"isfriend":0,"isfamily":0},{"id":"51188541740","owner":"78205930@N08","secret":"f1ddd8c8ff","server":"65535","farm":66,"title":"Curruca Mirlona Occidental, Sylvia hortensis, Western Orphean Warbler","ispublic":1,"isfriend":0,"isfamily":0},{"id":"51131155463","owner":"164807442@N02","secret":"df9e73e7f5","server":"65535","farm":66,"title":"Curruca mirlona ( Sylvia hortensis)","ispublic":1,"isfriend":0,"isfamily":0},{"id":"51113707804","owner":"61021753@N02","secret":"4541e8afd8","server":"65535","farm":66,"title":"n167_w1150","ispublic":1,"isfriend":0,"isfamily":0},{"id":"50642369221","owner":"149149924@N05","secret":"efd6d97bdb","server":"65535","farm":66,"title":"Tema diagonal -Tallarol emmascarat, Curruca mirlona (Syvia hortensis)","ispublic":1,"isfriend":0,"isfamily":0},{"id":"50631455618","owner":"33319209@N02","secret":"928c2a97cd","server":"65535","farm":66,"title":"Sylvia hortensis","ispublic":1,"isfriend":0,"isfamily":0},{"id":"50589525777","owner":"111753457@N03","secret":"cb56a974ac","server":"65535","farm":66,"title":"IMG_6557    Curruca mirlona , Sylvia hortensis","ispublic":1,"isfriend":0,"isfamily":0},{"id":"50512013171","owner":"33319209@N02","secret":"775260dc9f","server":"65535","farm":66,"title":"Sylvia hortensis","ispublic":1,"isfriend":0,"isfamily":0},{"id":"50368626846","owner":"88382172@N02","secret":"e589dbfd0a","server":"65535","farm":66,"title":"Curruca mirlona occidental. Sylvia hortensis","ispublic":1,"isfriend":0,"isfamily":0},{"id":"50339044862","owner":"168000747@N06","secret":"23cb9624a2","server":"65535","farm":66,"title":"CURRUCA MIRLONA 03","ispublic":1,"isfriend":0,"isfamily":0},{"id":"50199394842","owner":"7901656@N05","secret":"20cd052b0f","server":"65535","farm":66,"title":"Curruca mirlona-Sylvia hortensis-Western Orphean warbler","ispublic":1,"isfriend":0,"isfamily":0},{"id":"50120420848","owner":"52633361@N06","secret":"bed0592a3b","server":"65535","farm":66,"title":"Curruca mirlona (Sylvia hortensis. Gmelin, 1789, Francia)","ispublic":1,"isfriend":0,"isfamily":0},{"id":"49727138342","owner":"33319209@N02","secret":"c46c0c967a","server":"65535","farm":66,"title":"Sylvia hortensis","ispublic":1,"isfriend":0,"isfamily":0},{"id":"49463099452","owner":"33319209@N02","secret":"bcfc7c276a","server":"65535","farm":66,"title":"Sylvia hortensis","ispublic":1,"isfriend":0,"isfamily":0},{"id":"49280475201","owner":"33319209@N02","secret":"8ca5da7fa1","server":"65535","farm":66,"title":"Sylvia hortensis","ispublic":1,"isfriend":0,"isfamily":0},{"id":"49079984171","owner":"33319209@N02","secret":"328c383f9a","server":"65535","farm":66,"title":"Sylvia hortensis","ispublic":1,"isfriend":0,"isfamily":0},{"id":"48956613962","owner":"33319209@N02","secret":"6caf0b4cf3","server":"65535","farm":66,"title":"Sylvia hortensis","ispublic":1,"isfriend":0,"isfamily":0},{"id":"48875027272","owner":"164807442@N02","secret":"a00f2baff0","server":"65535","farm":66,"title":"Adulto de curruca mirlona (Sylvia hortensis)","ispublic":1,"isfriend":0,"isfamily":0},{"id":"48828352533","owner":"164807442@N02","secret":"75f028d72c","server":"65535","farm":66,"title":"Curruca Mirlona (Sylvia hortensis)","ispublic":1,"isfriend":0,"isfamily":0},{"id":"48722257767","owner":"131301995@N02","secret":"c6fd310624","server":"65535","farm":66,"title":"Curruca mirlona occidental (Sylvia hortensis)","ispublic":1,"isfriend":0,"isfamily":0},{"id":"48688808471","owner":"67137291@N06","secret":"3859703046","server":"65535","farm":66,"title":"Toutinegra-real Sylvia hortensis","ispublic":1,"isfriend":0,"isfamily":0},{"id":"48688471583","owner":"67137291@N06","secret":"9a0c4827bf","server":"65535","farm":66,"title":"Toutinegra-real Sylvia hortensis","ispublic":1,"isfriend":0,"isfamily":0},{"id":"48542153996","owner":"111753457@N03","secret":"a8952d85d3","server":"65535","farm":66,"title":"_09A7262   Curruca mirlona , Sylvia hortensis","ispublic":1,"isfriend":0,"isfamily":0},{"id":"48353926791","owner":"33319209@N02","secret":"1381986159","server":"65535","farm":66,"title":"Sylvia hortensis","ispublic":1,"isfriend":0,"isfamily":0},{"id":"48202839796","owner":"120559894@N05","secret":"31eca8245e","server":"65535","farm":66,"title":"Curruca mirlona (Sylvia hortensis)","ispublic":1,"isfriend":0,"isfamily":0},{"id":"48044858143","owner":"123752266@N02","secret":"840c3b6085","server":"65535","farm":66,"title":"Curruca mirlona (Sylvia hortensis)","ispublic":1,"isfriend":0,"isfamily":0},{"id":"48044844643","owner":"123752266@N02","secret":"cc68806e45","server":"65535","farm":66,"title":"Curruca mirlona macho (Sylvia hortensis) VS Verder\u00f3n com\u00fan macho ( Chloris chloris)","ispublic":1,"isfriend":0,"isfamily":0},{"id":"47505310832","owner":"139000794@N02","secret":"59b171e773","server":"7801","farm":8,"title":"Curruca mirlona (Sylvia hortensis)","ispublic":1,"isfriend":0,"isfamily":0},{"id":"46132360545","owner":"33319209@N02","secret":"0302b4590d","server":"7922","farm":8,"title":"Sylvia hortensis","ispublic":1,"isfriend":0,"isfamily":0},{"id":"44275588202","owner":"30743941@N04","secret":"8e017943bf","server":"1842","farm":2,"title":"Tallarol enmascarat","ispublic":1,"isfriend":0,"isfamily":0},{"id":"44195416262","owner":"33319209@N02","secret":"16af11809b","server":"1885","farm":2,"title":"Sylvia hortensis, _DSC4571_NKD500_Vallbona M","ispublic":1,"isfriend":0,"isfamily":0},{"id":"28983672177","owner":"33319209@N02","secret":"fbb8ba6156","server":"1811","farm":2,"title":"Sylvia hortensis, _DSC4435_NKD500_Vallbona M_Sentits","ispublic":1,"isfriend":0,"isfamily":0},{"id":"43815971542","owner":"77818542@N04","secret":"e80d8be039","server":"1780","farm":2,"title":"Curruca Mirlona Hembra","ispublic":1,"isfriend":0,"isfamily":0},{"id":"43625648751","owner":"33319209@N02","secret":"3d37726bed","server":"937","farm":1,"title":"Sylvia hortensis, _DSC4575_NKD500_Vallbona M_Sentits","ispublic":1,"isfriend":0,"isfamily":0},{"id":"52475927401","owner":"186686756@N02","secret":"138ccbcc55","server":"65535","farm":66,"title":"Curruca mirlona (Sylvia hortensis)","ispublic":1,"isfriend":0,"isfamily":0},{"id":"52189215047","owner":"8957439@N03","secret":"e4425f8e5a","server":"65535","farm":66,"title":"Toutinegra-real \/ Curruca mirlona occidental \/ Western Orphean Warbler","ispublic":1,"isfriend":0,"isfamily":0},{"id":"52115124901","owner":"66383434@N05","secret":"54a58331bd","server":"65535","farm":66,"title":"Toutinegra real ocidental (Curruca hortensis)","ispublic":1,"isfriend":0,"isfamily":0},{"id":"52068836286","owner":"62501256@N05","secret":"562d7e2e20","server":"65535","farm":66,"title":"Western Orphean Warbler (Curruca hortensis)","ispublic":1,"isfriend":0,"isfamily":0},{"id":"51817688626","owner":"33319209@N02","secret":"a27ed6f7c0","server":"65535","farm":66,"title":"Sylvia hortensis","ispublic":1,"isfriend":0,"isfamily":0},{"id":"51652943034","owner":"99613800@N02","secret":"6f7178a8cf","server":"65535","farm":66,"title":"Curruca hortensis (Western Orphean Warbler) - Sylviidae - Canal de Aragon, Zaragoza, Aragon, Spain-2","ispublic":1,"isfriend":0,"isfamily":0},{"id":"51652941869","owner":"99613800@N02","secret":"651e7be551","server":"65535","farm":66,"title":"Curruca hortensis (Western Orphean Warbler) - Sylviidae - Canal de Aragon, Zaragoza, Aragon, Spain","ispublic":1,"isfriend":0,"isfamily":0},{"id":"51634185469","owner":"56930596@N02","secret":"50dbb776ff","server":"65535","farm":66,"title":"Tallarol emmascarat (Curruca hortensis)","ispublic":1,"isfriend":0,"isfamily":0},{"id":"51525763917","owner":"30793779@N04","secret":"6c66044955","server":"65535","farm":66,"title":"CURRUCA MIRLONA * Sylvia hortensis 14 cm","ispublic":1,"isfriend":0,"isfamily":0},{"id":"51209296307","owner":"66537439@N05","secret":"8b0c556ce1","server":"65535","farm":66,"title":"Curruca mirlona (Sylvia hortensis)","ispublic":1,"isfriend":0,"isfamily":0},{"id":"50338202803","owner":"168000747@N06","secret":"b072c4fae8","server":"65535","farm":66,"title":"CURRUCA MIRLONA 01","ispublic":1,"isfriend":0,"isfamily":0},{"id":"50339044987","owner":"168000747@N06","secret":"1dea443cc5","server":"65535","farm":66,"title":"CURRUCA MIRLONA 02","ispublic":1,"isfriend":0,"isfamily":0},{"id":"50338887546","owner":"168000747@N06","secret":"94e694f14b","server":"65535","farm":66,"title":"CURRUCA MIRLONA 04","ispublic":1,"isfriend":0,"isfamily":0},{"id":"50338887426","owner":"168000747@N06","secret":"3882f72b54","server":"65535","farm":66,"title":"CURRUCA MIRLONA 05","ispublic":1,"isfriend":0,"isfamily":0},{"id":"50338887336","owner":"168000747@N06","secret":"a46636f740","server":"65535","farm":66,"title":"CURRUCA MIRLONA 06","ispublic":1,"isfriend":0,"isfamily":0},{"id":"50338887166","owner":"168000747@N06","secret":"6569c0ed7d","server":"65535","farm":66,"title":"CURRUCA MIRLONA 07","ispublic":1,"isfriend":0,"isfamily":0},{"id":"50082862581","owner":"78205930@N08","secret":"1e038da838","server":"65535","farm":66,"title":"Curruca mirlona Occidental, (Sylvia hortensis), Western Orphean Warbler","ispublic":1,"isfriend":0,"isfamily":0},{"id":"50008573923","owner":"61021753@N02","secret":"f2d97710ed","server":"65535","farm":66,"title":"n159_w1150","ispublic":1,"isfriend":0,"isfamily":0},{"id":"49905149376","owner":"149149924@N05","secret":"7384b0b3a1","server":"65535","farm":66,"title":"Tallarol emmascarat, Curruca mirlona, Orphean Warbler (Sylvia hortensis)","ispublic":1,"isfriend":0,"isfamily":0},{"id":"49737976492","owner":"123752266@N02","secret":"348df1f0b9","server":"65535","farm":66,"title":"Curruca Mirlona Macho (Sylvia hortensis)","ispublic":1,"isfriend":0,"isfamily":0},{"id":"48990288392","owner":"123752266@N02","secret":"eb4e745ac2","server":"65535","farm":66,"title":"Curruca Mirlona (Sylvia Hortensis)","ispublic":1,"isfriend":0,"isfamily":0},{"id":"48504683761","owner":"21210714@N03","secret":"acedd26977","server":"65535","farm":66,"title":"CURRUCA MIRLONA","ispublic":1,"isfriend":0,"isfamily":0},{"id":"47995769662","owner":"149149924@N05","secret":"9450cd9087","server":"65535","farm":66,"title":"Tallarol emmascarat, Curruca mirlona, Orphean Warbler (Sylvia hortensis)","ispublic":1,"isfriend":0,"isfamily":0},{"id":"40871858903","owner":"152052125@N07","secret":"cd72c61dea","server":"65535","farm":66,"title":"Curruca. Mirlona  Silvia Hortensis  Tallarol. Emmascarat","ispublic":1,"isfriend":0,"isfamily":0},{"id":"43318286895","owner":"30743941@N04","secret":"11f74dc017","server":"1816","farm":2,"title":"Tallarol enmascarat","ispublic":1,"isfriend":0,"isfamily":0},{"id":"43863915331","owner":"77818542@N04","secret":"1a80e68b67","server":"1836","farm":2,"title":"Curruca Mirlona","ispublic":1,"isfriend":0,"isfamily":0},{"id":"41144820124","owner":"144435673@N04","secret":"77f202d080","server":"966","farm":1,"title":"D5F_5054-Western orphean warbler-Tallarol emmascarat-Sylvia hortensis-Curruca mirlona","ispublic":1,"isfriend":0,"isfamily":0},{"id":"40863430105","owner":"67137291@N06","secret":"2cfc1139b5","server":"948","farm":1,"title":"Toutinegra-de-barrete-preto Sylvia atricapilla","ispublic":1,"isfriend":0,"isfamily":0}]},"stat":"ok"}