{"photos":{"page":1,"pages":38,"perpage":100,"total":3779,"photo":[{"id":"52706772066","owner":"195537536@N03","secret":"066f085ed5","server":"65535","farm":66,"title":"Western Tanager (Piranga ludoviciana): Female","ispublic":1,"isfriend":0,"isfamily":0},{"id":"52704979395","owner":"42415395@N07","secret":"c3286d7b0f","server":"65535","farm":66,"title":"Western Tanager -- Juvenile Female (Piranga ludoviciana); Santa Fe National Forest, NM, Thompson Ridge [Lou Feltz]","ispublic":1,"isfriend":0,"isfamily":0},{"id":"52694683444","owner":"42415395@N07","secret":"07c6923dd2","server":"65535","farm":66,"title":"Western Tanager -- Male (Piranga ludoviciana); Santa FE National Forest, NM, Thompson Ridge [Lou Feltz]","ispublic":1,"isfriend":0,"isfamily":0},{"id":"52685021673","owner":"38514062@N03","secret":"3a0184f7e4","server":"65535","farm":66,"title":"Western Tanager (Piranga ludoviciana)","ispublic":1,"isfriend":0,"isfamily":0},{"id":"52611276479","owner":"12639178@N07","secret":"f3336e3978","server":"65535","farm":66,"title":"Kieferntangare (Piranga ludoviciana) (1)","ispublic":1,"isfriend":0,"isfamily":0},{"id":"52575924508","owner":"39617069@N08","secret":"21547a82e5","server":"65535","farm":66,"title":"Western Tanager","ispublic":1,"isfriend":0,"isfamily":0},{"id":"52568210144","owner":"72044107@N00","secret":"692731cf91","server":"65535","farm":66,"title":"Western Tanager","ispublic":1,"isfriend":0,"isfamily":0},{"id":"52567471877","owner":"72044107@N00","secret":"18722b7582","server":"65535","farm":66,"title":"Western tanager","ispublic":1,"isfriend":0,"isfamily":0},{"id":"52552725707","owner":"34368269@N04","secret":"2133b16b5b","server":"65535","farm":66,"title":"Western Tanager finds a sunny spot","ispublic":1,"isfriend":0,"isfamily":0},{"id":"52545331743","owner":"42415395@N07","secret":"fbd5edb727","server":"65535","farm":66,"title":"Western Tanager -- Juvenile Female (Piranga ludoviciana); Santa Fe National Forest, NM, Thompson Ridge [Lou Feltz]","ispublic":1,"isfriend":0,"isfamily":0},{"id":"52532576421","owner":"119095828@N03","secret":"910ddb21e7","server":"65535","farm":66,"title":"Western Tanager (Piranga ludoviciana)","ispublic":1,"isfriend":0,"isfamily":0},{"id":"52533047610","owner":"119095828@N03","secret":"477d3a5fd6","server":"65535","farm":66,"title":"Western Tanager (Piranga ludoviciana)","ispublic":1,"isfriend":0,"isfamily":0},{"id":"52511283858","owner":"38514062@N03","secret":"e3cb3f47ea","server":"65535","farm":66,"title":"Western Tanager (Piranga ludoviciana)","ispublic":1,"isfriend":0,"isfamily":0},{"id":"52510734031","owner":"38514062@N03","secret":"cdfff27156","server":"65535","farm":66,"title":"Western Tanager (Piranga ludoviciana)","ispublic":1,"isfriend":0,"isfamily":0},{"id":"52490311476","owner":"42415395@N07","secret":"d80103f060","server":"65535","farm":66,"title":"Western Tanager -- Male (Piranga ludoviciana); Santa FE National Forest, NM, Thompson Ridge [Lou Feltz]","ispublic":1,"isfriend":0,"isfamily":0},{"id":"52454477214","owner":"51928691@N04","secret":"8e136a2aed","server":"65535","farm":66,"title":"Western tanager (Piranga ludoviciana) 1 092822","ispublic":1,"isfriend":0,"isfamily":0},{"id":"52454298853","owner":"42415395@N07","secret":"cc9e2cf8fe","server":"65535","farm":66,"title":"Western Tanager -- Female (Piranga ludoviciana); Santa Fe National Forest, NM, Thompson Ridge [Lou Feltz]","ispublic":1,"isfriend":0,"isfamily":0},{"id":"52438809677","owner":"42415395@N07","secret":"695ef4d946","server":"65535","farm":66,"title":"Western Tanager -- Female (Piranga ludoviciana); Santa Fe National Forest, NM, Thompson Ridge [Lou Feltz]","ispublic":1,"isfriend":0,"isfamily":0},{"id":"52428980371","owner":"34368269@N04","secret":"dd9b826e92","server":"65535","farm":66,"title":"Western Tanager","ispublic":1,"isfriend":0,"isfamily":0},{"id":"52412826186","owner":"42415395@N07","secret":"be179db7e2","server":"65535","farm":66,"title":"Western Tanager -- Juvenile Female (Piranga ludoviciana); Santa Fe National Forest, NM, Thompson Ridge [Lou Feltz]","ispublic":1,"isfriend":0,"isfamily":0},{"id":"52399371564","owner":"42415395@N07","secret":"ef95c274c9","server":"65535","farm":66,"title":"Western Tanager -- Male (Piranga ludoviciana); Santa Fe National Forest, NM, Thompson Ridge [Lou Feltz]","ispublic":1,"isfriend":0,"isfamily":0},{"id":"52398711684","owner":"103722035@N06","secret":"285cd41a6a","server":"65535","farm":66,"title":"Western Tanager (Piranga ludoviciana), Monta\u00f1a de Oro State Park, Los Osos, CA","ispublic":1,"isfriend":0,"isfamily":0},{"id":"52398423196","owner":"103722035@N06","secret":"e13a77b8af","server":"65535","farm":66,"title":"Western Tanager (Piranga ludoviciana), Monta\u00f1a de Oro State Park, Los Osos, CA","ispublic":1,"isfriend":0,"isfamily":0},{"id":"52396980442","owner":"34368269@N04","secret":"5c5ffd02c9","server":"65535","farm":66,"title":"Western Tanager","ispublic":1,"isfriend":0,"isfamily":0},{"id":"52391487696","owner":"196264892@N08","secret":"0502a775e3","server":"65535","farm":66,"title":"Western Tanager","ispublic":1,"isfriend":0,"isfamily":0},{"id":"52391487611","owner":"196264892@N08","secret":"fe7771b81c","server":"65535","farm":66,"title":"Western Tanager","ispublic":1,"isfriend":0,"isfamily":0},{"id":"52391487531","owner":"196264892@N08","secret":"6fe815015a","server":"65535","farm":66,"title":"Western Tanager","ispublic":1,"isfriend":0,"isfamily":0},{"id":"52391487406","owner":"196264892@N08","secret":"74d2a93b75","server":"65535","farm":66,"title":"Western Tanager","ispublic":1,"isfriend":0,"isfamily":0},{"id":"52391915620","owner":"196264892@N08","secret":"ca88ff9f7b","server":"65535","farm":66,"title":"Western Tanager (5)","ispublic":1,"isfriend":0,"isfamily":0},{"id":"52390565787","owner":"196264892@N08","secret":"037488c02c","server":"65535","farm":66,"title":"Western Tanager..","ispublic":1,"isfriend":0,"isfamily":0},{"id":"52391799274","owner":"196264892@N08","secret":"45682647b1","server":"65535","farm":66,"title":"Western Tanager.","ispublic":1,"isfriend":0,"isfamily":0},{"id":"52391915205","owner":"196264892@N08","secret":"757f1382e2","server":"65535","farm":66,"title":"Western Tanager","ispublic":1,"isfriend":0,"isfamily":0},{"id":"52389225449","owner":"34368269@N04","secret":"52ef6921fb","server":"65535","farm":66,"title":"Western Tanager","ispublic":1,"isfriend":0,"isfamily":0},{"id":"52385193704","owner":"103722035@N06","secret":"fd52c1b95a","server":"0","farm":0,"title":"Western Tanager (Piranga ludoviciana), female, San Luis Obispo, CA","ispublic":1,"isfriend":0,"isfamily":0},{"id":"52383853396","owner":"34368269@N04","secret":"2118b3335a","server":"65535","farm":66,"title":"Western Tanager","ispublic":1,"isfriend":0,"isfamily":0},{"id":"52380766474","owner":"34368269@N04","secret":"7a97f05166","server":"65535","farm":66,"title":"Western Tanager","ispublic":1,"isfriend":0,"isfamily":0},{"id":"52375485195","owner":"196264892@N08","secret":"fd463b1408","server":"65535","farm":66,"title":"Western Tanager","ispublic":1,"isfriend":0,"isfamily":0},{"id":"52375485100","owner":"196264892@N08","secret":"394b1a653a","server":"65535","farm":66,"title":"Western Tanager","ispublic":1,"isfriend":0,"isfamily":0},{"id":"52374121667","owner":"196264892@N08","secret":"339ccb933f","server":"65535","farm":66,"title":"Western Tanager","ispublic":1,"isfriend":0,"isfamily":0},{"id":"52372167260","owner":"95355208@N04","secret":"99a802ffae","server":"65535","farm":66,"title":"Western Tanager","ispublic":1,"isfriend":0,"isfamily":0},{"id":"52364419874","owner":"42415395@N07","secret":"32680c3c36","server":"65535","farm":66,"title":"Western Tanager -- Male (Piranga ludoviciana); Santa Fe National Forest, NM, Thompson Ridge [Lou Feltz]","ispublic":1,"isfriend":0,"isfamily":0},{"id":"52363445838","owner":"65148649@N04","secret":"eb230ef634","server":"65535","farm":66,"title":"Western Tanager","ispublic":1,"isfriend":0,"isfamily":0},{"id":"52363639655","owner":"65148649@N04","secret":"1eefaa508f","server":"65535","farm":66,"title":"Western Tanager, female, with chokecherry","ispublic":1,"isfriend":0,"isfamily":0},{"id":"52363214096","owner":"65148649@N04","secret":"8d3bdbd98a","server":"65535","farm":66,"title":"Western Tanager, female","ispublic":1,"isfriend":0,"isfamily":0},{"id":"52362273822","owner":"65148649@N04","secret":"f0261d7920","server":"65535","farm":66,"title":"Western Tanager","ispublic":1,"isfriend":0,"isfamily":0},{"id":"52362273737","owner":"65148649@N04","secret":"3c1e02cb02","server":"65535","farm":66,"title":"Western Tanager","ispublic":1,"isfriend":0,"isfamily":0},{"id":"52363525389","owner":"65148649@N04","secret":"cd3207b592","server":"65535","farm":66,"title":"Western Tanager","ispublic":1,"isfriend":0,"isfamily":0},{"id":"52363445373","owner":"65148649@N04","secret":"0e2df08547","server":"65535","farm":66,"title":"Western Tanager","ispublic":1,"isfriend":0,"isfamily":0},{"id":"52363525214","owner":"65148649@N04","secret":"1533f56d8f","server":"65535","farm":66,"title":"Western Tanager","ispublic":1,"isfriend":0,"isfamily":0},{"id":"52363639005","owner":"65148649@N04","secret":"fa002a765f","server":"65535","farm":66,"title":"Western Tanager","ispublic":1,"isfriend":0,"isfamily":0},{"id":"52362270442","owner":"65148649@N04","secret":"f31348f536","server":"65535","farm":66,"title":"Western Tanager","ispublic":1,"isfriend":0,"isfamily":0},{"id":"52362692061","owner":"196264892@N08","secret":"808ec6850e","server":"65535","farm":66,"title":"Western Tanager","ispublic":1,"isfriend":0,"isfamily":0},{"id":"52361751197","owner":"196264892@N08","secret":"fd8286b9b3","server":"65535","farm":66,"title":"Western Tanager","ispublic":1,"isfriend":0,"isfamily":0},{"id":"52363115795","owner":"196264892@N08","secret":"6c76665884","server":"65535","farm":66,"title":"Western Tanager","ispublic":1,"isfriend":0,"isfamily":0},{"id":"52355386398","owner":"42415395@N07","secret":"35453b6552","server":"65535","farm":66,"title":"Western Tanager -- Male (Piranga ludoviciana); Santa Fe National Forest, NM, Thompson Ridge [Lou Feltz]","ispublic":1,"isfriend":0,"isfamily":0},{"id":"52353934283","owner":"95355208@N04","secret":"40573240ae","server":"65535","farm":66,"title":"Western Tanager","ispublic":1,"isfriend":0,"isfamily":0},{"id":"52335494422","owner":"42415395@N07","secret":"e44d565675","server":"65535","farm":66,"title":"Western Tanager, Juvenile Female (Piranga ludoviciana); Santa Fe National Forest, NM, Thompson Ridge [Lou Feltz]","ispublic":1,"isfriend":0,"isfamily":0},{"id":"52317866323","owner":"196264892@N08","secret":"ef1b37ae6a","server":"65535","farm":66,"title":"Western Tanager","ispublic":1,"isfriend":0,"isfamily":0},{"id":"52317995865","owner":"196264892@N08","secret":"4757b9675a","server":"65535","farm":66,"title":"Western Tanager","ispublic":1,"isfriend":0,"isfamily":0},{"id":"52317080674","owner":"34238008@N02","secret":"f683128abe","server":"65535","farm":66,"title":"Western Tanager (Piranga ludoviciana)","ispublic":1,"isfriend":0,"isfamily":0},{"id":"52311630150","owner":"65148649@N04","secret":"873bfc68c8","server":"65535","farm":66,"title":"Western Tanager","ispublic":1,"isfriend":0,"isfamily":0},{"id":"52308795664","owner":"196264892@N08","secret":"7d88760283","server":"65535","farm":66,"title":"Western Tanager","ispublic":1,"isfriend":0,"isfamily":0},{"id":"52308750618","owner":"196264892@N08","secret":"f17aeeb3a2","server":"65535","farm":66,"title":"Western Tanager","ispublic":1,"isfriend":0,"isfamily":0},{"id":"52299712544","owner":"187792860@N04","secret":"ef62bcdf75","server":"65535","farm":66,"title":"Western Tanager (Piranga ludoviciana)","ispublic":1,"isfriend":0,"isfamily":0},{"id":"52291605769","owner":"21558080@N07","secret":"4f556922b2","server":"65535","farm":66,"title":"Western Tanager (Piranga ludoviciana)","ispublic":1,"isfriend":0,"isfamily":0},{"id":"52283069434","owner":"42415395@N07","secret":"b1716c102b","server":"65535","farm":66,"title":"Western Tanager -- Male (Piranga ludoviciana); Santa Fe National Forest, NM, Thompson Ridge [Lou Feltz]","ispublic":1,"isfriend":0,"isfamily":0},{"id":"52280235400","owner":"187792860@N04","secret":"83a252252f","server":"65535","farm":66,"title":"Western Tanager (Piranga ludoviciana)","ispublic":1,"isfriend":0,"isfamily":0},{"id":"52278649469","owner":"124995824@N08","secret":"cc9812a579","server":"65535","farm":66,"title":"Western Tanager - Piranga ludoviciana","ispublic":1,"isfriend":0,"isfamily":0},{"id":"52272792175","owner":"18581013@N04","secret":"56c45538c3","server":"65535","farm":66,"title":"Western Tanager","ispublic":1,"isfriend":0,"isfamily":0},{"id":"52271778996","owner":"42415395@N07","secret":"c096e3316c","server":"65535","farm":66,"title":"Western Tanager, Juvenile Female (Piranga ludoviciana); Santa Fe National Forest, NM, Thompson Ridge [Lou Feltz]","ispublic":1,"isfriend":0,"isfamily":0},{"id":"52270115193","owner":"196264892@N08","secret":"9955d31769","server":"65535","farm":66,"title":"Western Tanager","ispublic":1,"isfriend":0,"isfamily":0},{"id":"52269364153","owner":"42415395@N07","secret":"0515a4bde9","server":"65535","farm":66,"title":"Western Tanager -- Male (Piranga ludoviciana); Santa Fe National Forest, NM, Thompson Ridge [Lou Feltz]","ispublic":1,"isfriend":0,"isfamily":0},{"id":"52595970216","owner":"42415395@N07","secret":"ceaf18369a","server":"65535","farm":66,"title":"Western Tanager -- Juvenile Female (Piranga ludoviciana); Santa Fe National Forest, NM, Thompson Ridge [Lou Feltz]","ispublic":1,"isfriend":0,"isfamily":0},{"id":"52580499454","owner":"153973412@N04","secret":"07e9553edd","server":"65535","farm":66,"title":"Western Tanager-Piranga ludoviciana, Arches NP, UT","ispublic":1,"isfriend":0,"isfamily":0},{"id":"52539961985","owner":"159284114@N07","secret":"4b4b056528","server":"65535","farm":66,"title":"Piranga \u00e0 t\u00eate rouge, Western tanager","ispublic":1,"isfriend":0,"isfamily":0},{"id":"52532576251","owner":"119095828@N03","secret":"6d0429a093","server":"65535","farm":66,"title":"Western Tanager (Piranga ludoviciana)","ispublic":1,"isfriend":0,"isfamily":0},{"id":"52516662083","owner":"62043870@N05","secret":"11cde22dfc","server":"65535","farm":66,"title":"Western Tanager, Piranga ludoviciana","ispublic":1,"isfriend":0,"isfamily":0},{"id":"52503037760","owner":"187792860@N04","secret":"0029e13994","server":"65535","farm":66,"title":"Western Tanager (Piranga ludoviciana)","ispublic":1,"isfriend":0,"isfamily":0},{"id":"52478902596","owner":"187792860@N04","secret":"6f8f38d291","server":"65535","farm":66,"title":"Western Tanager (Piranga ludoviciana)","ispublic":1,"isfriend":0,"isfamily":0},{"id":"52445207150","owner":"187792860@N04","secret":"36095a9d05","server":"65535","farm":66,"title":"Western Tanager (Piranga ludoviciana)","ispublic":1,"isfriend":0,"isfamily":0},{"id":"52437901474","owner":"187792860@N04","secret":"f091289292","server":"65535","farm":66,"title":"Western Tanager (Piranga ludoviciana)","ispublic":1,"isfriend":0,"isfamily":0},{"id":"52427879166","owner":"187792860@N04","secret":"cc8b733bf9","server":"65535","farm":66,"title":"Western Tanager (Piranga ludoviciana)","ispublic":1,"isfriend":0,"isfamily":0},{"id":"52427642576","owner":"42415395@N07","secret":"bba1b45129","server":"65535","farm":66,"title":"Western Tanager -- Male (Piranga ludoviciana); Santa FE National Forest, NM, Thompson Ridge [Lou Feltz]","ispublic":1,"isfriend":0,"isfamily":0},{"id":"52411368712","owner":"140318147@N08","secret":"e1210d0dd1","server":"65535","farm":66,"title":"western tanager (Piranga ludoviciana) L4A4238","ispublic":1,"isfriend":0,"isfamily":0},{"id":"52407622758","owner":"156457454@N02","secret":"17645c0b2b","server":"65535","farm":66,"title":"Piranga ludoviciana 5 (Western Tanager)","ispublic":1,"isfriend":0,"isfamily":0},{"id":"52407109526","owner":"156457454@N02","secret":"0820b791c6","server":"65535","farm":66,"title":"Piranga ludoviciana 7 (Western Tanager)","ispublic":1,"isfriend":0,"isfamily":0},{"id":"52407109386","owner":"156457454@N02","secret":"87b2d2f887","server":"65535","farm":66,"title":"Piranga ludoviciana 6 (Western Tanager)","ispublic":1,"isfriend":0,"isfamily":0},{"id":"52393810334","owner":"156457454@N02","secret":"4008ac3b4e","server":"65535","farm":66,"title":"Piranga ludoviciana 1 (Western Tanager)","ispublic":1,"isfriend":0,"isfamily":0},{"id":"52393508651","owner":"156457454@N02","secret":"085184b81b","server":"65535","farm":66,"title":"Piranga ludoviciana 4 (Western Tanager)","ispublic":1,"isfriend":0,"isfamily":0},{"id":"52393001132","owner":"156457454@N02","secret":"6fbbab159f","server":"65535","farm":66,"title":"Piranga ludoviciana 3 (Western Tanager)","ispublic":1,"isfriend":0,"isfamily":0},{"id":"52393947290","owner":"156457454@N02","secret":"ff21e0cc9b","server":"65535","farm":66,"title":"Piranga ludoviciana 2 (Western Tanager)","ispublic":1,"isfriend":0,"isfamily":0},{"id":"52387749558","owner":"62043870@N05","secret":"d24c6dd651","server":"65535","farm":66,"title":"Western Tanager, Piranga ludoviciana","ispublic":1,"isfriend":0,"isfamily":0},{"id":"52387815879","owner":"62043870@N05","secret":"6742102c02","server":"65535","farm":66,"title":"Western Tanager, Piranga ludoviciana","ispublic":1,"isfriend":0,"isfamily":0},{"id":"52378050423","owner":"62043870@N05","secret":"fe5c20d7da","server":"65535","farm":66,"title":"Western Tanager, Piranga ludoviciana","ispublic":1,"isfriend":0,"isfamily":0},{"id":"52373799609","owner":"146479766@N08","secret":"892a2d26de","server":"65535","farm":66,"title":"Piranga \u00e0 T\u00eate Rouge \u2013 Western Tanager \u2013 Piranga ludoviciana (female)","ispublic":1,"isfriend":0,"isfamily":0},{"id":"52371380402","owner":"146479766@N08","secret":"abb5d6d889","server":"65535","farm":66,"title":"Piranga \u00e0 T\u00eate Rouge \u2013 Western Tanager \u2013 Piranga ludoviciana (male)","ispublic":1,"isfriend":0,"isfamily":0},{"id":"52362951285","owner":"34368269@N04","secret":"84a02688a5","server":"65535","farm":66,"title":"Western Tanager","ispublic":1,"isfriend":0,"isfamily":0},{"id":"52352470847","owner":"140318147@N08","secret":"513b228b22","server":"65535","farm":66,"title":"western tanager (Piranga ludoviciana) L4A1794","ispublic":1,"isfriend":0,"isfamily":0},{"id":"52270365504","owner":"196264892@N08","secret":"bdcb45904b","server":"65535","farm":66,"title":"Western Tanager","ispublic":1,"isfriend":0,"isfamily":0},{"id":"52270365174","owner":"196264892@N08","secret":"afa594ff47","server":"65535","farm":66,"title":"Western Tanager","ispublic":1,"isfriend":0,"isfamily":0}]},"stat":"ok"}