{"photos":{"page":1,"pages":33,"perpage":100,"total":3295,"photo":[{"id":"52787785167","owner":"143326780@N02","secret":"c594dcdaed","server":"65535","farm":66,"title":"DSCN7800","ispublic":1,"isfriend":0,"isfamily":0},{"id":"52772622465","owner":"34238008@N02","secret":"d525927fe9","server":"65535","farm":66,"title":"Western Meadowlark (Sturnella neglecta)","ispublic":1,"isfriend":0,"isfamily":0},{"id":"52772465949","owner":"34238008@N02","secret":"fdbeec38f0","server":"65535","farm":66,"title":"Western Meadowlark (Sturnella neglecta)","ispublic":1,"isfriend":0,"isfamily":0},{"id":"52756710535","owner":"62037969@N08","secret":"5e27b669a5","server":"65535","farm":66,"title":"An Alert Western Meadowlark Pauses In Its Feeding To Check For Danger","ispublic":1,"isfriend":0,"isfamily":0},{"id":"52755812764","owner":"89318362@N05","secret":"b03c925031","server":"65535","farm":66,"title":"Western Meadowlark","ispublic":1,"isfriend":0,"isfamily":0},{"id":"52752007336","owner":"140318147@N08","secret":"ba73f1b74a","server":"65535","farm":66,"title":"western meadowlark (Sturnella neglecta) L4A7068","ispublic":1,"isfriend":0,"isfamily":0},{"id":"52751439141","owner":"41978378@N08","secret":"98d72a0952","server":"65535","farm":66,"title":"Western meadowlark (Sturnella neglecta)","ispublic":1,"isfriend":0,"isfamily":0},{"id":"52748703309","owner":"65148649@N04","secret":"b358369038","server":"65535","farm":66,"title":"Western Meadowlark 03.04.23 Frye","ispublic":1,"isfriend":0,"isfamily":0},{"id":"52739476726","owner":"73179441@N02","secret":"0b7a2371b4","server":"65535","farm":66,"title":"Calm Before the Storm","ispublic":1,"isfriend":0,"isfamily":0},{"id":"52728295037","owner":"28631427@N00","secret":"658f05aec2","server":"65535","farm":66,"title":"Western Meadowlark 1","ispublic":1,"isfriend":0,"isfamily":0},{"id":"52729226525","owner":"28631427@N00","secret":"43ec2fff31","server":"65535","farm":66,"title":"Western Meadowlark 2","ispublic":1,"isfriend":0,"isfamily":0},{"id":"52727460596","owner":"62043870@N05","secret":"b0a9679402","server":"65535","farm":66,"title":"Western Meadowlark, Sturnella neglecta","ispublic":1,"isfriend":0,"isfamily":0},{"id":"52724025242","owner":"61343741@N00","secret":"62e83cbcf2","server":"65535","farm":66,"title":"Announcing Spring","ispublic":1,"isfriend":0,"isfamily":0},{"id":"52725026708","owner":"61343741@N00","secret":"375010774e","server":"65535","farm":66,"title":"Frazzled","ispublic":1,"isfriend":0,"isfamily":0},{"id":"52714494849","owner":"144980256@N07","secret":"3e910753ef","server":"65535","farm":66,"title":"Western Meadowlark (Sturnella neglecta)","ispublic":1,"isfriend":0,"isfamily":0},{"id":"52709921388","owner":"44988233@N05","secret":"cb5562ff6c","server":"65535","farm":66,"title":"Western Meadowlark2-","ispublic":1,"isfriend":0,"isfamily":0},{"id":"52709850865","owner":"44988233@N05","secret":"f2fe306aae","server":"65535","farm":66,"title":"Western Meadowlark4--5","ispublic":1,"isfriend":0,"isfamily":0},{"id":"52709330809","owner":"61396634@N07","secret":"23bba12aec","server":"65535","farm":66,"title":"Western Meadowlark","ispublic":1,"isfriend":0,"isfamily":0},{"id":"52705870239","owner":"33610210@N05","secret":"b61d9757e7","server":"65535","farm":66,"title":"Western Meadowlark, Sturnella neglecta","ispublic":1,"isfriend":0,"isfamily":0},{"id":"52705870114","owner":"33610210@N05","secret":"71ce3b097c","server":"65535","farm":66,"title":"Western Meadowlark, Sturnella neglecta","ispublic":1,"isfriend":0,"isfamily":0},{"id":"52701876886","owner":"46513276@N06","secret":"755c8dba6f","server":"65535","farm":66,"title":"DSC_5042","ispublic":1,"isfriend":0,"isfamily":0},{"id":"52688259427","owner":"124995824@N08","secret":"0c2622c21a","server":"65535","farm":66,"title":"Western Meadowlark - Sturnella neglecta","ispublic":1,"isfriend":0,"isfamily":0},{"id":"52680825177","owner":"12530381@N07","secret":"70d71ed883","server":"65535","farm":66,"title":"Western Meadowlark (Sturnella neglecta) at San Luis National Wildlife Refuge (2\/10\/2023)","ispublic":1,"isfriend":0,"isfamily":0},{"id":"52679213296","owner":"63093099@N02","secret":"d5990f8d56","server":"65535","farm":66,"title":"Western Meadowlark; 20230209; USA-WA-King-Seattle","ispublic":1,"isfriend":0,"isfamily":0},{"id":"52679213246","owner":"63093099@N02","secret":"b2bfa19e91","server":"65535","farm":66,"title":"Western Meadowlark; 20230209; USA-WA-King-Seattle","ispublic":1,"isfriend":0,"isfamily":0},{"id":"52679712088","owner":"63093099@N02","secret":"c360fe7d9f","server":"65535","farm":66,"title":"Western Meadowlark; 20230209; USA-WA-King-Seattle","ispublic":1,"isfriend":0,"isfamily":0},{"id":"52679499899","owner":"63093099@N02","secret":"9262193e4f","server":"65535","farm":66,"title":"Western Meadowlark; 20230209; USA-WA-King-Seattle","ispublic":1,"isfriend":0,"isfamily":0},{"id":"52679213171","owner":"63093099@N02","secret":"01ca3e14d0","server":"65535","farm":66,"title":"Western Meadowlark; 20230209; USA-WA-King-Seattle","ispublic":1,"isfriend":0,"isfamily":0},{"id":"52679213116","owner":"63093099@N02","secret":"97032facfb","server":"65535","farm":66,"title":"Western Meadowlark; 20230209; USA-WA-King-Seattle","ispublic":1,"isfriend":0,"isfamily":0},{"id":"52679649665","owner":"63093099@N02","secret":"b5938025c4","server":"65535","farm":66,"title":"Western Meadowlark; 20230209; USA-WA-King-Seattle","ispublic":1,"isfriend":0,"isfamily":0},{"id":"52677786795","owner":"143326780@N02","secret":"60feca4bf3","server":"65535","farm":66,"title":"DSCN3374","ispublic":1,"isfriend":0,"isfamily":0},{"id":"52677638539","owner":"143326780@N02","secret":"0bac82a3fa","server":"65535","farm":66,"title":"DSCN3379_Moment(2)","ispublic":1,"isfriend":0,"isfamily":0},{"id":"52676840892","owner":"143326780@N02","secret":"0e706eeb31","server":"65535","farm":66,"title":"DSCN3379_Moment(4)","ispublic":1,"isfriend":0,"isfamily":0},{"id":"52677786670","owner":"143326780@N02","secret":"7496811afa","server":"65535","farm":66,"title":"DSCN3379_Moment(5)","ispublic":1,"isfriend":0,"isfamily":0},{"id":"52677353171","owner":"143326780@N02","secret":"749a459bcd","server":"65535","farm":66,"title":"DSCN3379_Moment(6)","ispublic":1,"isfriend":0,"isfamily":0},{"id":"52676840772","owner":"143326780@N02","secret":"a572ba5511","server":"65535","farm":66,"title":"DSCN3379_Moment(7)","ispublic":1,"isfriend":0,"isfamily":0},{"id":"52677786570","owner":"143326780@N02","secret":"deabb853e6","server":"65535","farm":66,"title":"DSCN3379_Moment(8)","ispublic":1,"isfriend":0,"isfamily":0},{"id":"52676840702","owner":"143326780@N02","secret":"eb6f2becdf","server":"65535","farm":66,"title":"DSCN3379_Moment(9)","ispublic":1,"isfriend":0,"isfamily":0},{"id":"52677638334","owner":"143326780@N02","secret":"4ff4be1149","server":"65535","farm":66,"title":"DSCN3379_Moment(10)","ispublic":1,"isfriend":0,"isfamily":0},{"id":"52677848838","owner":"143326780@N02","secret":"2c2f869a04","server":"65535","farm":66,"title":"DSCN3379_Moment(11)","ispublic":1,"isfriend":0,"isfamily":0},{"id":"52677758505","owner":"143326780@N02","secret":"95ebb93705","server":"65535","farm":66,"title":"DSCN3379_Moment(3)","ispublic":1,"isfriend":0,"isfamily":0},{"id":"52676600730","owner":"62043870@N05","secret":"5f6fc09062","server":"65535","farm":66,"title":"Western Meadowlark, Sturnella neglecta","ispublic":1,"isfriend":0,"isfamily":0},{"id":"52674113719","owner":"36685968@N00","secret":"e3be06992c","server":"65535","farm":66,"title":"Western Meadowlark (Sturnella neglecta)","ispublic":1,"isfriend":0,"isfamily":0},{"id":"52673479896","owner":"36685968@N00","secret":"871e2eab5d","server":"65535","farm":66,"title":"Western Meadowlark (Sturnella neglecta)","ispublic":1,"isfriend":0,"isfamily":0},{"id":"52672983117","owner":"36685968@N00","secret":"6dea8aab5a","server":"65535","farm":66,"title":"Western Meadowlark (Sturnella neglecta)","ispublic":1,"isfriend":0,"isfamily":0},{"id":"52672983042","owner":"36685968@N00","secret":"97612d31c3","server":"65535","farm":66,"title":"Western Meadowlark (Sturnella neglecta)","ispublic":1,"isfriend":0,"isfamily":0},{"id":"52671267281","owner":"139237357@N06","secret":"a910e71da1","server":"65535","farm":66,"title":"Western Meadowlark","ispublic":1,"isfriend":0,"isfamily":0},{"id":"52671267276","owner":"139237357@N06","secret":"c35b2a5e5f","server":"65535","farm":66,"title":"Western Meadowlark","ispublic":1,"isfriend":0,"isfamily":0},{"id":"52671267256","owner":"139237357@N06","secret":"0099979aa3","server":"65535","farm":66,"title":"Western Meadowlark","ispublic":1,"isfriend":0,"isfamily":0},{"id":"52671253846","owner":"7261670@N03","secret":"da2a631f32","server":"65535","farm":66,"title":"Western Meadowlark","ispublic":1,"isfriend":0,"isfamily":0},{"id":"52671253866","owner":"7261670@N03","secret":"f0c17714f9","server":"65535","farm":66,"title":"Western Meadowlark","ispublic":1,"isfriend":0,"isfamily":0},{"id":"52671550564","owner":"7261670@N03","secret":"799beb6e8f","server":"65535","farm":66,"title":"Western Meadowlark","ispublic":1,"isfriend":0,"isfamily":0},{"id":"52670754592","owner":"7261670@N03","secret":"8848644b7c","server":"65535","farm":66,"title":"Western Meadowlark","ispublic":1,"isfriend":0,"isfamily":0},{"id":"52670754602","owner":"7261670@N03","secret":"4e482f306f","server":"65535","farm":66,"title":"Western Meadowlark","ispublic":1,"isfriend":0,"isfamily":0},{"id":"52669607009","owner":"24608578@N00","secret":"66826d847d","server":"65535","farm":66,"title":"Western meadowlark (Sturnella neglecta)","ispublic":1,"isfriend":0,"isfamily":0},{"id":"52662287985","owner":"187792860@N04","secret":"eaec9a15ca","server":"65535","farm":66,"title":"Western Meadowlark (Sturnella neglecta)","ispublic":1,"isfriend":0,"isfamily":0},{"id":"52658698709","owner":"34238008@N02","secret":"5bbe7bb76f","server":"65535","farm":66,"title":"Western Meadowlark (Sturnella neglecta)","ispublic":1,"isfriend":0,"isfamily":0},{"id":"52654040071","owner":"34238008@N02","secret":"585962f105","server":"65535","farm":66,"title":"Western Meadowlark (Sturnella neglecta)","ispublic":1,"isfriend":0,"isfamily":0},{"id":"52653545592","owner":"34238008@N02","secret":"f263aab29c","server":"65535","farm":66,"title":"Western Meadowlark (Sturnella neglecta)","ispublic":1,"isfriend":0,"isfamily":0},{"id":"52653545487","owner":"34238008@N02","secret":"9658cb31db","server":"65535","farm":66,"title":"Western Meadowlark (Sturnella neglecta)","ispublic":1,"isfriend":0,"isfamily":0},{"id":"52654475240","owner":"34238008@N02","secret":"4f01b12a02","server":"65535","farm":66,"title":"Western Meadowlark (Sturnella neglecta)","ispublic":1,"isfriend":0,"isfamily":0},{"id":"52652224062","owner":"73179441@N02","secret":"c8d4fc51cc","server":"65535","farm":66,"title":"Hidden Beauty","ispublic":1,"isfriend":0,"isfamily":0},{"id":"52643360197","owner":"49246330@N00","secret":"e42f2ecb60","server":"65535","farm":66,"title":"Western Meadowlark","ispublic":1,"isfriend":0,"isfamily":0},{"id":"52612297883","owner":"62043870@N05","secret":"8bb5e1cb7a","server":"65535","farm":66,"title":"Western Meadowlark, Sturnella neglecta","ispublic":1,"isfriend":0,"isfamily":0},{"id":"52626147900","owner":"134270033@N06","secret":"561c9ffa63","server":"65535","farm":66,"title":"HFF :: Happy Fence Friday","ispublic":1,"isfriend":0,"isfamily":0},{"id":"52595610463","owner":"8065544@N08","secret":"0a1f901239","server":"65535","farm":66,"title":"Western Meadowlark (Sturnella neglecta)","ispublic":1,"isfriend":0,"isfamily":0},{"id":"52564312343","owner":"34368269@N04","secret":"c9478d4e26","server":"65535","farm":66,"title":"Western Meadowlark","ispublic":1,"isfriend":0,"isfamily":0},{"id":"52562675459","owner":"9731845@N02","secret":"7d8d5342d4","server":"65535","farm":66,"title":"Western Meadowlark (Sturnella neglecta)","ispublic":1,"isfriend":0,"isfamily":0},{"id":"52562205921","owner":"65148649@N04","secret":"5c05ec71cb","server":"65535","farm":66,"title":"Western Meadowlark","ispublic":1,"isfriend":0,"isfamily":0},{"id":"52554222313","owner":"182225716@N07","secret":"5a06546c83","server":"65535","farm":66,"title":"DSC_0784_00001 Western Meadowlark - Sturnelle de l'Ouest (Sturnella neglecta)","ispublic":1,"isfriend":0,"isfamily":0},{"id":"52545714804","owner":"146455226@N02","secret":"dc1372a230","server":"65535","farm":66,"title":"Western Meadowlark #2","ispublic":1,"isfriend":0,"isfamily":0},{"id":"52545735940","owner":"146455226@N02","secret":"20ba824bb4","server":"65535","farm":66,"title":"Western Meadowlark #1","ispublic":1,"isfriend":0,"isfamily":0},{"id":"52544841383","owner":"131037795@N03","secret":"6eddcf8a02","server":"65535","farm":66,"title":"Western Meadowlark (Sturnella neglecta)","ispublic":1,"isfriend":0,"isfamily":0},{"id":"52543777724","owner":"33610210@N05","secret":"2f93f5b22b","server":"65535","farm":66,"title":"Western Meadowlark, Sturnella neglecta","ispublic":1,"isfriend":0,"isfamily":0},{"id":"52541303145","owner":"144980256@N07","secret":"995bc05692","server":"65535","farm":66,"title":"Western Meadowlark (Sturnella neglecta)","ispublic":1,"isfriend":0,"isfamily":0},{"id":"52512051090","owner":"69812270@N00","secret":"aaac2ae647","server":"65535","farm":66,"title":"I Am No Chicken!","ispublic":1,"isfriend":0,"isfamily":0},{"id":"52510302887","owner":"59619528@N04","secret":"9e20db65e6","server":"65535","farm":66,"title":"Western Meadowlark (Sturnella neglecta)","ispublic":1,"isfriend":0,"isfamily":0},{"id":"52511326708","owner":"59619528@N04","secret":"68875a2c30","server":"65535","farm":66,"title":"Western Meadowlark (Sturnella neglecta)","ispublic":1,"isfriend":0,"isfamily":0},{"id":"52488230026","owner":"131037795@N03","secret":"ec91d2e87e","server":"65535","farm":66,"title":"Western Meadowlark (Sturnella neglecta)","ispublic":1,"isfriend":0,"isfamily":0},{"id":"52479535917","owner":"30638967@N03","secret":"22dccfc2de","server":"65535","farm":66,"title":"Western Meadowlark DSC_2133","ispublic":1,"isfriend":0,"isfamily":0},{"id":"52465876717","owner":"73654511@N05","secret":"b541264af7","server":"65535","farm":66,"title":"L0A9283-Western Meadowlark","ispublic":1,"isfriend":0,"isfamily":0},{"id":"52465456382","owner":"62907378@N07","secret":"54f951c23d","server":"65535","farm":66,"title":"Centenial Beach, Boundary Bay Regional Park, Delta BC.","ispublic":1,"isfriend":0,"isfamily":0},{"id":"52465123037","owner":"14908898@N08","secret":"6bdb6c73ac","server":"65535","farm":66,"title":"Western Meadowlark 10-26-22","ispublic":1,"isfriend":0,"isfamily":0},{"id":"52461831666","owner":"54059915@N07","secret":"827f93c65b","server":"65535","farm":66,"title":"Young'un","ispublic":1,"isfriend":0,"isfamily":0},{"id":"52460638115","owner":"34368269@N04","secret":"d15d161c42","server":"65535","farm":66,"title":"Western Meadowlark","ispublic":1,"isfriend":0,"isfamily":0},{"id":"52709698984","owner":"44988233@N05","secret":"289bb33f37","server":"65535","farm":66,"title":"Western Meadowlark3-","ispublic":1,"isfriend":0,"isfamily":0},{"id":"52695161339","owner":"143326780@N02","secret":"efdc770a8f","server":"65535","farm":66,"title":"DSCN4745","ispublic":1,"isfriend":0,"isfamily":0},{"id":"52695308395","owner":"143326780@N02","secret":"d72800debb","server":"65535","farm":66,"title":"DSCN4747","ispublic":1,"isfriend":0,"isfamily":0},{"id":"52679213266","owner":"63093099@N02","secret":"0c8490c9f4","server":"65535","farm":66,"title":"Western Meadowlark; 20230209; USA-WA-King-Seattle","ispublic":1,"isfriend":0,"isfamily":0},{"id":"52664289289","owner":"33610210@N05","secret":"1cec8a57e7","server":"65535","farm":66,"title":"Western Meadowlark, Sturnella neglecta","ispublic":1,"isfriend":0,"isfamily":0},{"id":"52656867361","owner":"143326780@N02","secret":"a1704f6fa3","server":"65535","farm":66,"title":"DSCN2434","ispublic":1,"isfriend":0,"isfamily":0},{"id":"52657360338","owner":"143326780@N02","secret":"5c88c8034b","server":"65535","farm":66,"title":"DSCN2442","ispublic":1,"isfriend":0,"isfamily":0},{"id":"52655316480","owner":"68462817@N05","secret":"df6cbd2ee4","server":"65535","farm":66,"title":"Western Meadowlark, Sturnella neglecta","ispublic":1,"isfriend":0,"isfamily":0},{"id":"52597292189","owner":"33610210@N05","secret":"71332dd76b","server":"65535","farm":66,"title":"Western Meadowlark, Sturnella neglecta","ispublic":1,"isfriend":0,"isfamily":0},{"id":"52580757543","owner":"153973412@N04","secret":"22816d154a","server":"65535","farm":66,"title":"Western Meadowlark-Sturnella neglecta","ispublic":1,"isfriend":0,"isfamily":0},{"id":"52572197021","owner":"33610210@N05","secret":"d7c733eac4","server":"65535","farm":66,"title":"Western Meadowlark, Sturnella neglecta","ispublic":1,"isfriend":0,"isfamily":0},{"id":"52543777714","owner":"33610210@N05","secret":"7099909da6","server":"65535","farm":66,"title":"Western Meadowlark, Sturnella neglecta","ispublic":1,"isfriend":0,"isfamily":0},{"id":"52531297919","owner":"196678387@N03","secret":"8ac6b75134","server":"65535","farm":66,"title":"Great Plains Prairie, Western Meadowlark, Sturnella neglecta, USA","ispublic":1,"isfriend":0,"isfamily":0},{"id":"52494761557","owner":"64557331@N04","secret":"d78e12175b","server":"65535","farm":66,"title":"Western Meadowlark - (Sturnella neglecta)_06072021","ispublic":1,"isfriend":0,"isfamily":0},{"id":"52466506978","owner":"62907378@N07","secret":"9db4928fdf","server":"65535","farm":66,"title":"Centenial Beach, Boundary Bay Regional Park, Delta BC.","ispublic":1,"isfriend":0,"isfamily":0}]},"stat":"ok"}