{"photos":{"page":1,"pages":4,"perpage":100,"total":314,"photo":[{"id":"52773851718","owner":"47078197@N04","secret":"bf979cf59f","server":"65535","farm":66,"title":"Spindalis zena pretrei (Western Spindalis)","ispublic":1,"isfriend":0,"isfamily":0},{"id":"52773365206","owner":"47078197@N04","secret":"d99996aeeb","server":"65535","farm":66,"title":"Spindalis zena pretrei (Western Spindalis)","ispublic":1,"isfriend":0,"isfamily":0},{"id":"52775610717","owner":"32752434@N07","secret":"999f0f406f","server":"65535","farm":66,"title":"Western Spindalis (Spindalis zena)","ispublic":1,"isfriend":0,"isfamily":0},{"id":"52772994002","owner":"32752434@N07","secret":"2c3120c974","server":"65535","farm":66,"title":"Western Spindalis (Spindalis zena)","ispublic":1,"isfriend":0,"isfamily":0},{"id":"52719463377","owner":"12639178@N07","secret":"c481e90305","server":"65535","farm":66,"title":"Kuba-Streifenkopftangare","ispublic":1,"isfriend":0,"isfamily":0},{"id":"52662108405","owner":"54249623@N08","secret":"c06a615cd0","server":"65535","farm":66,"title":"Western Spindalis (Spindalis zena) (Spindalis zena pretrei)","ispublic":1,"isfriend":0,"isfamily":0},{"id":"52662153128","owner":"54249623@N08","secret":"a115492cf9","server":"65535","farm":66,"title":"Western Spindalis (Spindalis zena) (Spindalis zena pretrei)","ispublic":1,"isfriend":0,"isfamily":0},{"id":"52283142004","owner":"26371261@N00","secret":"0e247624a6","server":"65535","farm":66,"title":"Western Spindalis, Spindalis zena","ispublic":1,"isfriend":0,"isfamily":0},{"id":"52283141809","owner":"26371261@N00","secret":"79207621c5","server":"65535","farm":66,"title":"Western Spindalis, Spindalis zena","ispublic":1,"isfriend":0,"isfamily":0},{"id":"52282886168","owner":"26371261@N00","secret":"9ea872d171","server":"65535","farm":66,"title":"Western Spindalis, Spindalis zena","ispublic":1,"isfriend":0,"isfamily":0},{"id":"52281893787","owner":"26371261@N00","secret":"aab0d5dd9c","server":"65535","farm":66,"title":"Western Spindalis, Spindalis zena","ispublic":1,"isfriend":0,"isfamily":0},{"id":"52283355945","owner":"26371261@N00","secret":"794d6e4e8c","server":"65535","farm":66,"title":"Western Spindalis, Spindalis zena","ispublic":1,"isfriend":0,"isfamily":0},{"id":"52283139669","owner":"26371261@N00","secret":"17e0d23562","server":"65535","farm":66,"title":"Western Spindalis, Spindalis zena","ispublic":1,"isfriend":0,"isfamily":0},{"id":"52144971070","owner":"31704662@N08","secret":"9847e0dc6e","server":"65535","farm":66,"title":"Western Spindalis (Spindalis zena)","ispublic":1,"isfriend":0,"isfamily":0},{"id":"51973262056","owner":"24110087@N05","secret":"6730ae21f9","server":"65535","farm":66,"title":"Western Spindalis (Cozumel I.) - Spindalis zena benedicti","ispublic":1,"isfriend":0,"isfamily":0},{"id":"51859325109","owner":"137680150@N06","secret":"0f14a1569d","server":"65535","farm":66,"title":"Spindalis Western 'Zena' Markham Park Weston S FL 12-2015 060","ispublic":1,"isfriend":0,"isfamily":0},{"id":"51251800255","owner":"61021753@N02","secret":"c0c2db728c","server":"65535","farm":66,"title":"n118_w1150","ispublic":1,"isfriend":0,"isfamily":0},{"id":"51172585163","owner":"119787485@N07","secret":"a5fe792f5b","server":"65535","farm":66,"title":"Western Spindalis (Spindalis zena pretrei) - 20161225-03","ispublic":1,"isfriend":0,"isfamily":0},{"id":"51113715764","owner":"33573751@N04","secret":"9729dcb216","server":"65535","farm":66,"title":"Western Spindalis, (Bahamas Black-backed subsp.)  (Spindalis zena zena) -  Vero Beach, Florida","ispublic":1,"isfriend":0,"isfamily":0},{"id":"51081804958","owner":"33573751@N04","secret":"2c9a88fae8","server":"65535","farm":66,"title":"Western Spindalis, Black-backed form (Spindalis zena zena) - Pelican Island NWR, Vero Beach, Florida, USA","ispublic":1,"isfriend":0,"isfamily":0},{"id":"51081774518","owner":"33573751@N04","secret":"6005397d51","server":"65535","farm":66,"title":"Western Spindalis, Black-backed form (Spindalis zena zena) - Pelican Island NWR, Vero Beach, Florida, USA","ispublic":1,"isfriend":0,"isfamily":0},{"id":"51009940850","owner":"33573751@N04","secret":"7805582505","server":"65535","farm":66,"title":"Western Spindalis, Black-backed form (Spindalis zena zena) - Pelican Island NWR, Vero Beach, Florida, USA","ispublic":1,"isfriend":0,"isfamily":0},{"id":"51079220927","owner":"33573751@N04","secret":"7af0f452f2","server":"65535","farm":66,"title":"Western Spindalis, Black-backed form (Spindalis zena zena) - Pelican Island NWR, Vero Beach, Florida, USA","ispublic":1,"isfriend":0,"isfamily":0},{"id":"51079220917","owner":"33573751@N04","secret":"8ba8bc71cf","server":"65535","farm":66,"title":"Western Spindalis, Black-backed form (Spindalis zena zena) - Pelican Island NWR, Vero Beach, Florida, USA","ispublic":1,"isfriend":0,"isfamily":0},{"id":"50842017772","owner":"190923251@N05","secret":"1f9f025623","server":"65535","farm":66,"title":"Western Spindalis male","ispublic":1,"isfriend":0,"isfamily":0},{"id":"50562590228","owner":"61021753@N02","secret":"574375a7f2","server":"65535","farm":66,"title":"n108_w1150","ispublic":1,"isfriend":0,"isfamily":0},{"id":"50230697761","owner":"188674693@N07","secret":"95ede57a66","server":"65535","farm":66,"title":"Western Spindalis","ispublic":1,"isfriend":0,"isfamily":0},{"id":"50154067003","owner":"136621171@N08","secret":"967b1c1529","server":"65535","farm":66,"title":"Western Spindalis (formerly the Western Stripe-Headed Tanager), Z\u00e9na \u00e0 T\u00eate Ray\u00e9e, Tangara Cabeza Rayada \/ Spindalis zena","ispublic":1,"isfriend":0,"isfamily":0},{"id":"49601801376","owner":"94717094@N00","secret":"6ac822eb26","server":"65535","farm":66,"title":"\"Z\u00e9na de Jama\u00efque \/ Spindalis nigricephala \/ Jamaican Spindalis\"","ispublic":1,"isfriend":0,"isfamily":0},{"id":"49591224171","owner":"29170368@N03","secret":"f4b62c5fd9","server":"65535","farm":66,"title":"Western Spindalis","ispublic":1,"isfriend":0,"isfamily":0},{"id":"49456394273","owner":"61021753@N02","secret":"602d9e7c41","server":"65535","farm":66,"title":"n184_w1150","ispublic":1,"isfriend":0,"isfamily":0},{"id":"49242512976","owner":"92361032@N05","secret":"3b546ec24c","server":"65535","farm":66,"title":"Western Spindalis \/ Z\u00e9na \u00e0 t\u00eate ray\u00e9e m\u00e2le ( Diane )","ispublic":1,"isfriend":0,"isfamily":0},{"id":"49084438617","owner":"92361032@N05","secret":"cbccd96c15","server":"65535","farm":66,"title":"Western Spindalis Male- Z\u00e9na \u00e0 t\u00eate ray\u00e9e m\u00e2le - S\u00e9rie 1 \/ 2 ( Richard )","ispublic":1,"isfriend":0,"isfamily":0},{"id":"48119145551","owner":"147450357@N08","secret":"f7fae55f0c","server":"65535","farm":66,"title":"_DSC1845_DxO","ispublic":1,"isfriend":0,"isfamily":0},{"id":"48119142336","owner":"147450357@N08","secret":"fcfcdb2d81","server":"65535","farm":66,"title":"_DSC1731_DxO","ispublic":1,"isfriend":0,"isfamily":0},{"id":"40623377463","owner":"61518891@N02","secret":"b3aee1f55e","server":"7903","farm":8,"title":"Western Spindalis, Crandon Park, Miami Dade, Florida 3\/15\/2019","ispublic":1,"isfriend":0,"isfamily":0},{"id":"46667739555","owner":"61518891@N02","secret":"11840a93a8","server":"7915","farm":8,"title":"Western Spindalis, Crandon Park, Miami Dade, Florida 3\/11\/2019","ispublic":1,"isfriend":0,"isfamily":0},{"id":"40498571453","owner":"43886809@N03","secret":"23ef6dcaf0","server":"7826","farm":8,"title":"Western Spindalis_19-03-01_Spindalis zena","ispublic":1,"isfriend":0,"isfamily":0},{"id":"40498571323","owner":"43886809@N03","secret":"b92a286487","server":"7813","farm":8,"title":"Western Spindalis_19-03-01_Spindalis zena","ispublic":1,"isfriend":0,"isfamily":0},{"id":"40443144983","owner":"74787113@N05","secret":"0524efd29c","server":"4815","farm":5,"title":"WESTERN SPINDALIS FEMALE","ispublic":1,"isfriend":0,"isfamily":0},{"id":"40428327563","owner":"114016722@N02","secret":"7826aee2a5","server":"7803","farm":8,"title":"Western Spindalis - Spindalis zena","ispublic":1,"isfriend":0,"isfamily":0},{"id":"39902228773","owner":"90826845@N04","secret":"355fa261ea","server":"7855","farm":8,"title":"Western Spindalis - Spindalis zena","ispublic":1,"isfriend":0,"isfamily":0},{"id":"39902228593","owner":"90826845@N04","secret":"29c6cf5731","server":"4884","farm":5,"title":"Western Spindalis - Spindalis zena face forward","ispublic":1,"isfriend":0,"isfamily":0},{"id":"45805056434","owner":"55851736@N07","secret":"aa7c1ab918","server":"4806","farm":5,"title":"394 - WESTERN SPINDALIS - Spindalis zena - Male and Female","ispublic":1,"isfriend":0,"isfamily":0},{"id":"40974546090","owner":"75884721@N04","secret":"8e651fcdc0","server":"1755","farm":2,"title":"_DSC1651 Z\u00e9na \u00e0 t\u00eate ray\u00e9e (Spindalis zena)","ispublic":1,"isfriend":0,"isfamily":0},{"id":"26831505047","owner":"132165466@N08","secret":"4d6285bba3","server":"827","farm":1,"title":"Western Spindalis","ispublic":1,"isfriend":0,"isfamily":0},{"id":"40981081934","owner":"132165466@N08","secret":"9ff56f07c8","server":"948","farm":1,"title":"Western Spindalis","ispublic":1,"isfriend":0,"isfamily":0},{"id":"26831504437","owner":"132165466@N08","secret":"17468d50c3","server":"910","farm":1,"title":"Western Spindalis","ispublic":1,"isfriend":0,"isfamily":0},{"id":"27121880578","owner":"94717094@N00","secret":"5de8ae7f6a","server":"4776","farm":5,"title":"Z\u00e9na \u00e0 t\u00eate ray\u00e9e \/ Spindalis zena \/ Western Spindalis","ispublic":1,"isfriend":0,"isfamily":0},{"id":"40951103132","owner":"94717094@N00","secret":"f977b1cf43","server":"4778","farm":5,"title":"Ze\u0301na a tete raye\u0301e 0W6A0181.jpg","ispublic":1,"isfriend":0,"isfamily":0},{"id":"39707648715","owner":"22859749@N07","secret":"407d895653","server":"4710","farm":5,"title":"western spindalis","ispublic":1,"isfriend":0,"isfamily":0},{"id":"24912976897","owner":"18087257@N00","secret":"12ae6a76b2","server":"4648","farm":5,"title":"Beaucarnea recurvata - beheaded by Maria","ispublic":1,"isfriend":0,"isfamily":0},{"id":"34531119670","owner":"65632611@N00","secret":"9e360df04d","server":"4222","farm":5,"title":"Cuba: Western Spindalis","ispublic":1,"isfriend":0,"isfamily":0},{"id":"34376081626","owner":"56983940@N06","secret":"9271292d0c","server":"4179","farm":5,"title":"Western Spindalis","ispublic":1,"isfriend":0,"isfamily":0},{"id":"34376081806","owner":"56983940@N06","secret":"0eb36ecd88","server":"4180","farm":5,"title":"Western Spindalis","ispublic":1,"isfriend":0,"isfamily":0},{"id":"34376081316","owner":"56983940@N06","secret":"eba98a05c6","server":"4176","farm":5,"title":"Western Spindalis","ispublic":1,"isfriend":0,"isfamily":0},{"id":"33310889783","owner":"18731552@N00","secret":"f8b65a5572","server":"2867","farm":3,"title":"Western Spindalis D4A8463.jpg","ispublic":1,"isfriend":0,"isfamily":0},{"id":"52279432897","owner":"131708321@N02","secret":"e1b353ba1b","server":"65535","farm":66,"title":"Western Spindalis (Spindalis zena), Cozumel, Quintana Roo, Mexico","ispublic":1,"isfriend":0,"isfamily":0},{"id":"52005627827","owner":"48938938@N04","secret":"62ffa0fa56","server":"65535","farm":66,"title":"Western Spindalis_Spindalis zena_Ascanio_Cayo Coco_DZ3A5841","ispublic":1,"isfriend":0,"isfamily":0},{"id":"52006702948","owner":"48938938@N04","secret":"9037d44e79","server":"65535","farm":66,"title":"Western Spindalis_Spindalis zena_Ascanio_Cayo Coco_DZ3A5835","ispublic":1,"isfriend":0,"isfamily":0},{"id":"51914357807","owner":"12639178@N07","secret":"8549dcc8de","server":"65535","farm":66,"title":"Kuba-Streifenkopftangare","ispublic":1,"isfriend":0,"isfamily":0},{"id":"50230912157","owner":"188674693@N07","secret":"59c99eb24d","server":"65535","farm":66,"title":"Western Spindalis","ispublic":1,"isfriend":0,"isfamily":0},{"id":"50173811371","owner":"125057668@N02","secret":"63cfd3a088","server":"65535","farm":66,"title":"Tangara \u00e0 t\u00eate ray\u00e9e de Cuba (Spindalis zena pretrei)*","ispublic":1,"isfriend":0,"isfamily":0},{"id":"50084215482","owner":"10695587@N02","secret":"c9cc121950","server":"65535","farm":66,"title":"Western Spindalis (Spindalis zena) eating flower petals in Abaco","ispublic":1,"isfriend":0,"isfamily":0},{"id":"49277782198","owner":"186211059@N06","secret":"4f1c373d96","server":"65535","farm":66,"title":"Western Spindalis","ispublic":1,"isfriend":0,"isfamily":0},{"id":"49084438212","owner":"92361032@N05","secret":"f0943169e3","server":"65535","farm":66,"title":"Western Spindalis female -Z\u00e9na \u00e0 t\u00eate ray\u00e9e femelle- S\u00e9rie 2 \/ 2 ( Richard )","ispublic":1,"isfriend":0,"isfamily":0},{"id":"49019389701","owner":"27950735@N08","secret":"ec938576d6","server":"65535","farm":66,"title":"Western Spindalis - Spindalis zena (click for info)","ispublic":1,"isfriend":0,"isfamily":0},{"id":"48948305323","owner":"10695587@N02","secret":"4b88b9e122","server":"65535","farm":66,"title":"Western Spindalis (Spindalis zena) feeding on Lovevine fruit","ispublic":1,"isfriend":0,"isfamily":0},{"id":"40377974783","owner":"13451078@N03","secret":"37dfd0972e","server":"7808","farm":8,"title":"Western spindalis (Spindalis zena)","ispublic":1,"isfriend":0,"isfamily":0},{"id":"46618401384","owner":"13451078@N03","secret":"e08a851b86","server":"7828","farm":8,"title":"Western Spindalis (Spindalis zena)","ispublic":1,"isfriend":0,"isfamily":0},{"id":"46454415554","owner":"89084793@N04","secret":"2896dd6b4e","server":"7882","farm":8,"title":"P1210921  Western Spindalis--Spindalis zena pretrei","ispublic":1,"isfriend":0,"isfamily":0},{"id":"40185082413","owner":"48938938@N04","secret":"1e36f74515","server":"7860","farm":8,"title":"Western Spindalis, Spindalis zena Ascanio_Cuba 199A4705","ispublic":1,"isfriend":0,"isfamily":0},{"id":"40185079923","owner":"48938938@N04","secret":"8baf198c32","server":"7867","farm":8,"title":"Western Spindalis, Spindalis zena Ascanio_Cuba 199A4750","ispublic":1,"isfriend":0,"isfamily":0},{"id":"40185076633","owner":"48938938@N04","secret":"dc6b6ee01e","server":"7842","farm":8,"title":"Western Spindalis, Spindalis zena Ascanio_Cuba 199A4761","ispublic":1,"isfriend":0,"isfamily":0},{"id":"44514443862","owner":"10038520@N03","secret":"29d4110ca2","server":"1879","farm":2,"title":"Western Spindalis","ispublic":1,"isfriend":0,"isfamily":0},{"id":"29093031527","owner":"142952595@N08","secret":"855c764c9b","server":"1839","farm":2,"title":"Western Spindalis male","ispublic":1,"isfriend":0,"isfamily":0},{"id":"41703916590","owner":"155943839@N08","secret":"d1a576e9a6","server":"849","farm":1,"title":"Streifenkopftangare, Western spindalis, Spindalis zena, Vi\u00f1ales, Cuba","ispublic":1,"isfriend":0,"isfamily":0},{"id":"43084740652","owner":"129787474@N06","secret":"6c6d724f76","server":"916","farm":1,"title":"Western spindalis (Spindalis zena)","ispublic":1,"isfriend":0,"isfamily":0},{"id":"42972372432","owner":"12639178@N07","secret":"21691fe415","server":"1838","farm":2,"title":"Streifenkopf-Tangare","ispublic":1,"isfriend":0,"isfamily":0},{"id":"41425053214","owner":"159259705@N07","secret":"bff62b8926","server":"947","farm":1,"title":"DSC_7859","ispublic":1,"isfriend":0,"isfamily":0},{"id":"28054242228","owner":"23859768@N04","secret":"ca2020e726","server":"955","farm":1,"title":"DSC_5413","ispublic":1,"isfriend":0,"isfamily":0},{"id":"41206073824","owner":"23859768@N04","secret":"e62e0e8d30","server":"974","farm":1,"title":"DSC_6636","ispublic":1,"isfriend":0,"isfamily":0},{"id":"26673920137","owner":"132165466@N08","secret":"83ce72e28e","server":"869","farm":1,"title":"Western Spindalis, male","ispublic":1,"isfriend":0,"isfamily":0},{"id":"40789802282","owner":"17845726@N06","secret":"89d5888103","server":"4784","farm":5,"title":"Stripe-headed tanager","ispublic":1,"isfriend":0,"isfamily":0},{"id":"26586946348","owner":"48938938@N04","secret":"004ba4e6f3","server":"4604","farm":5,"title":"Western Spindalis, Spindalis zena_199A3009","ispublic":1,"isfriend":0,"isfamily":0},{"id":"26460627088","owner":"23859768@N04","secret":"db014abc2a","server":"4615","farm":5,"title":"western spindalis (formerly stripe-headed tanager)","ispublic":1,"isfriend":0,"isfamily":0},{"id":"25819028468","owner":"34327708@N05","secret":"79fc98fcac","server":"4610","farm":5,"title":"Cigua Cubana - Western Spindalis  \/ Spindalis zena (Linnaeus, 1766)","ispublic":1,"isfriend":0,"isfamily":0},{"id":"25819026998","owner":"34327708@N05","secret":"c22aee1400","server":"4618","farm":5,"title":"Cigua Cubana - Western Spindalis  \/ Spindalis zena (Linnaeus, 1766)","ispublic":1,"isfriend":0,"isfamily":0},{"id":"38690311931","owner":"58781382@N02","secret":"9ab2efcf5b","server":"4530","farm":5,"title":"DSC_0103 Western Spindalus (Spindalis zena)  Cueva Jabbili Cayo Coco CU Nov 11 2017 Day8 MJGood","ispublic":1,"isfriend":0,"isfamily":0},{"id":"38657792372","owner":"58781382@N02","secret":"8e65b4d4af","server":"4550","farm":5,"title":"DSC_0123 Western Spindalus (Spindalis zena)  Cueva Jabbili Cayo Coco CU Nov 11 2017 Day8 MJGood","ispublic":1,"isfriend":0,"isfamily":0},{"id":"26911260109","owner":"58781382@N02","secret":"d3ce17ed2b","server":"4539","farm":5,"title":"DSC_0471 Western Spindalus (Spindalis zena) female  Caleta Buena Playa Giron CU Nov 7 2017 Day 4 MJGood","ispublic":1,"isfriend":0,"isfamily":0},{"id":"36101355481","owner":"73319287@N02","secret":"3e60091ea4","server":"4314","farm":5,"title":"07042017 005a Western Spindalis - Spindalis zena","ispublic":1,"isfriend":0,"isfamily":0},{"id":"35179247924","owner":"73319287@N02","secret":"8ca7fafefe","server":"4310","farm":5,"title":"07032017 089a Western Spindalis - Spindalis zena","ispublic":1,"isfriend":0,"isfamily":0},{"id":"35753949965","owner":"90562965@N02","secret":"0ea98e74ff","server":"4215","farm":5,"title":"Western Spindalis (Spindalis zena) - sirkkutangara","ispublic":1,"isfriend":0,"isfamily":0},{"id":"34363174792","owner":"69856927@N00","secret":"8269afdcfb","server":"2875","farm":3,"title":"Western Spindalis (Cuban) - Spindalis zena pretrei","ispublic":1,"isfriend":0,"isfamily":0},{"id":"34482715716","owner":"69856927@N00","secret":"4c833b6ec5","server":"4159","farm":5,"title":"Western Spindalis (Cuban) - Spindalis zena pretrei","ispublic":1,"isfriend":0,"isfamily":0},{"id":"34333935132","owner":"48938938@N04","secret":"0c010ab4c0","server":"4180","farm":5,"title":"Western Spindalis, Spindalis zena","ispublic":1,"isfriend":0,"isfamily":0},{"id":"34260837381","owner":"53293011@N06","secret":"df9cb22f38","server":"4176","farm":5,"title":"DSC_1222 Western Spindalis \u2642","ispublic":1,"isfriend":0,"isfamily":0},{"id":"34255721821","owner":"69856927@N00","secret":"c8d6f77e9f","server":"4194","farm":5,"title":"Western Spindalis - Spindalis zena male","ispublic":1,"isfriend":0,"isfamily":0},{"id":"34339847295","owner":"14069588@N07","secret":"8626f41d7d","server":"2919","farm":3,"title":"Western Spindalis (Black-backed) - Spindalis zena","ispublic":1,"isfriend":0,"isfamily":0}]},"stat":"ok"}