{"photos":{"page":1,"pages":32,"perpage":100,"total":3161,"photo":[{"id":"52698356391","owner":"81058247@N08","secret":"048f202751","server":"65535","farm":66,"title":"Western Kingbird (Tyrannus verticalis)","ispublic":1,"isfriend":0,"isfamily":0},{"id":"52698845088","owner":"81058247@N08","secret":"8f17056fbf","server":"65535","farm":66,"title":"Western Kingbird (Tyrannus verticalis)","ispublic":1,"isfriend":0,"isfamily":0},{"id":"52698771370","owner":"81058247@N08","secret":"561a72df55","server":"65535","farm":66,"title":"Western Kingbird (Tyrannus verticalis)","ispublic":1,"isfriend":0,"isfamily":0},{"id":"52667341310","owner":"50264295@N06","secret":"b2030401a8","server":"65535","farm":66,"title":"Western Kingbird (Tyrannus verticalis), ASY, DCA male","ispublic":1,"isfriend":0,"isfamily":0},{"id":"52667338885","owner":"50264295@N06","secret":"81abe87ebf","server":"65535","farm":66,"title":"Western Kingbird (Tyrannus verticalis), ASY, DCA male","ispublic":1,"isfriend":0,"isfamily":0},{"id":"52666898461","owner":"50264295@N06","secret":"7e2af4e26f","server":"65535","farm":66,"title":"Western Kingbird (Tyrannus verticalis), ASY, DCA male","ispublic":1,"isfriend":0,"isfamily":0},{"id":"52667328940","owner":"50264295@N06","secret":"b5aeacdeb2","server":"65535","farm":66,"title":"Western Kingbird (Tyrannus verticalis), ASY, DCA male","ispublic":1,"isfriend":0,"isfamily":0},{"id":"52629485220","owner":"81058247@N08","secret":"f00a8e8591","server":"65535","farm":66,"title":"Western Kingbird (Tyrannus verticalis)","ispublic":1,"isfriend":0,"isfamily":0},{"id":"52580500144","owner":"153973412@N04","secret":"8a2da07d5f","server":"65535","farm":66,"title":"Western Kingbird-Tyrannus verticalis, Kansas","ispublic":1,"isfriend":0,"isfamily":0},{"id":"52537828471","owner":"39617069@N08","secret":"45b0398a93","server":"65535","farm":66,"title":"Western Kingbird","ispublic":1,"isfriend":0,"isfamily":0},{"id":"52534760221","owner":"33610210@N05","secret":"d357cdff07","server":"65535","farm":66,"title":"Western Kingbird, Tyrannus verticalis","ispublic":1,"isfriend":0,"isfamily":0},{"id":"52532053570","owner":"8904060@N06","secret":"7083d33031","server":"65535","farm":66,"title":"Proud","ispublic":1,"isfriend":0,"isfamily":0},{"id":"52511179179","owner":"109544413@N05","secret":"294f4dbb29","server":"65535","farm":66,"title":"\"You are not welcome here!\"","ispublic":1,"isfriend":0,"isfamily":0},{"id":"52511386025","owner":"109544413@N05","secret":"11caa6765b","server":"65535","farm":66,"title":"Dive Bomb","ispublic":1,"isfriend":0,"isfamily":0},{"id":"52511454853","owner":"109544413@N05","secret":"cc10b890a1","server":"65535","farm":66,"title":"Show of Force","ispublic":1,"isfriend":0,"isfamily":0},{"id":"52510432462","owner":"109544413@N05","secret":"3df821973c","server":"65535","farm":66,"title":"Chasing the raven","ispublic":1,"isfriend":0,"isfamily":0},{"id":"52511178584","owner":"109544413@N05","secret":"55a7b26997","server":"65535","farm":66,"title":"\"Hang ten!\"","ispublic":1,"isfriend":0,"isfamily":0},{"id":"52511178549","owner":"109544413@N05","secret":"e528cd0696","server":"65535","farm":66,"title":"Yank a feather or two","ispublic":1,"isfriend":0,"isfamily":0},{"id":"52511178519","owner":"109544413@N05","secret":"08f86b28b9","server":"65535","farm":66,"title":"Two on One","ispublic":1,"isfriend":0,"isfamily":0},{"id":"52510181892","owner":"124995824@N08","secret":"e28cfdb92c","server":"65535","farm":66,"title":"Western Kingbird - Tyrannus verticalis","ispublic":1,"isfriend":0,"isfamily":0},{"id":"52502435971","owner":"13451078@N03","secret":"4c35c05fcd","server":"65535","farm":66,"title":"Western Kingbird  (Tyrannus verticalis)","ispublic":1,"isfriend":0,"isfamily":0},{"id":"52482036489","owner":"13451078@N03","secret":"b27690812f","server":"65535","farm":66,"title":"Western Kingbird  (Tyrannus verticalis)","ispublic":1,"isfriend":0,"isfamily":0},{"id":"52470117224","owner":"43440320@N04","secret":"241645dac2","server":"65535","farm":66,"title":"Western Kingbird","ispublic":1,"isfriend":0,"isfamily":0},{"id":"52413242190","owner":"187792860@N04","secret":"c755d0366c","server":"65535","farm":66,"title":"Western Kingbird (Tyrannus verticalis)","ispublic":1,"isfriend":0,"isfamily":0},{"id":"52393803448","owner":"156457454@N02","secret":"1b2b0a1fd5","server":"65535","farm":66,"title":"Tyrannus verticalis 2 (Western Kingbird)","ispublic":1,"isfriend":0,"isfamily":0},{"id":"52392787287","owner":"156457454@N02","secret":"e39408a6b2","server":"65535","farm":66,"title":"Tyrannus verticalis 1 (Western Kingbird)","ispublic":1,"isfriend":0,"isfamily":0},{"id":"52376639857","owner":"124995824@N08","secret":"616966c6ef","server":"65535","farm":66,"title":"Western Kingbird","ispublic":1,"isfriend":0,"isfamily":0},{"id":"52372549105","owner":"43440320@N04","secret":"8aa178cb2b","server":"65535","farm":66,"title":"Western Kingbird in Maryland","ispublic":1,"isfriend":0,"isfamily":0},{"id":"52365721740","owner":"24608578@N00","secret":"b40ff7159c","server":"65535","farm":66,"title":"Western kingbird (Tyrannus verticalis)","ispublic":1,"isfriend":0,"isfamily":0},{"id":"52365721700","owner":"24608578@N00","secret":"411cd5c33e","server":"65535","farm":66,"title":"Western kingbird (Tyrannus verticalis)","ispublic":1,"isfriend":0,"isfamily":0},{"id":"52365721630","owner":"24608578@N00","secret":"3ebc26ab02","server":"65535","farm":66,"title":"Western kingbird (Tyrannus verticalis)","ispublic":1,"isfriend":0,"isfamily":0},{"id":"52365610269","owner":"24608578@N00","secret":"5eee1a044b","server":"65535","farm":66,"title":"Western kingbird (Tyrannus verticalis)","ispublic":1,"isfriend":0,"isfamily":0},{"id":"52361752112","owner":"196264892@N08","secret":"30668998d2","server":"65535","farm":66,"title":"Western Kingbird","ispublic":1,"isfriend":0,"isfamily":0},{"id":"52361751942","owner":"196264892@N08","secret":"f1343a3324","server":"65535","farm":66,"title":"Western Kingbird","ispublic":1,"isfriend":0,"isfamily":0},{"id":"52339354506","owner":"169335348@N08","secret":"0d92df4cf6","server":"65535","farm":66,"title":"Western Kingbird-15","ispublic":1,"isfriend":0,"isfamily":0},{"id":"52339354461","owner":"169335348@N08","secret":"eaee846ca9","server":"65535","farm":66,"title":"Western Kingbird-16","ispublic":1,"isfriend":0,"isfamily":0},{"id":"52327858318","owner":"196264892@N08","secret":"cf6c60a537","server":"65535","farm":66,"title":"Western Kingbird","ispublic":1,"isfriend":0,"isfamily":0},{"id":"52322173745","owner":"34238008@N02","secret":"a24bf26c60","server":"65535","farm":66,"title":"Western Kingbird (Tyrannus verticalis)","ispublic":1,"isfriend":0,"isfamily":0},{"id":"52322153979","owner":"34238008@N02","secret":"36fdb0293d","server":"65535","farm":66,"title":"Western Kingbird (Tyrannus verticalis)","ispublic":1,"isfriend":0,"isfamily":0},{"id":"52320929512","owner":"34238008@N02","secret":"125ea2e8de","server":"65535","farm":66,"title":"Western Kingbird (Tyrannus verticalis)","ispublic":1,"isfriend":0,"isfamily":0},{"id":"52320929342","owner":"34238008@N02","secret":"d8ec7e1831","server":"65535","farm":66,"title":"Western Kingbird (Tyrannus verticalis)","ispublic":1,"isfriend":0,"isfamily":0},{"id":"52322173330","owner":"34238008@N02","secret":"339a89c432","server":"65535","farm":66,"title":"Western Kingbird (Tyrannus verticalis)","ispublic":1,"isfriend":0,"isfamily":0},{"id":"52322046318","owner":"34238008@N02","secret":"16d71aac31","server":"65535","farm":66,"title":"Western Kingbird (Tyrannus verticalis)","ispublic":1,"isfriend":0,"isfamily":0},{"id":"52317996565","owner":"196264892@N08","secret":"e9c50e1f81","server":"65535","farm":66,"title":"Western Kingbird","ispublic":1,"isfriend":0,"isfamily":0},{"id":"52317346123","owner":"132165466@N08","secret":"2b77216794","server":"65535","farm":66,"title":"Western Kingbird","ispublic":1,"isfriend":0,"isfamily":0},{"id":"52317028361","owner":"132165466@N08","secret":"a095cc8428","server":"65535","farm":66,"title":"Western Kingbird","ispublic":1,"isfriend":0,"isfamily":0},{"id":"52316022361","owner":"84152923@N08","secret":"c8302dc062","server":"65535","farm":66,"title":"Arkansaskoningstiran - Tyrannus verticalis - Western Kingbird","ispublic":1,"isfriend":0,"isfamily":0},{"id":"52316466000","owner":"84152923@N08","secret":"2e6a2e58d9","server":"65535","farm":66,"title":"Arkansaskoningstiran - Tyrannus verticalis - Western Kingbird","ispublic":1,"isfriend":0,"isfamily":0},{"id":"52316021891","owner":"84152923@N08","secret":"77c99f10a3","server":"65535","farm":66,"title":"Arkansaskoningstiran - Tyrannus verticalis - Western Kingbird","ispublic":1,"isfriend":0,"isfamily":0},{"id":"52316465405","owner":"84152923@N08","secret":"d548c13bff","server":"65535","farm":66,"title":"Arkansaskoningstiran - Tyrannus verticalis - Western Kingbird","ispublic":1,"isfriend":0,"isfamily":0},{"id":"52314317187","owner":"95355208@N04","secret":"4064e2d5c9","server":"65535","farm":66,"title":"Western Kingbird","ispublic":1,"isfriend":0,"isfamily":0},{"id":"52315540889","owner":"95355208@N04","secret":"96fc1722e4","server":"65535","farm":66,"title":"Western Kingbird","ispublic":1,"isfriend":0,"isfamily":0},{"id":"52310384572","owner":"65148649@N04","secret":"be9fbdb7dc","server":"65535","farm":66,"title":"Western Kingbird","ispublic":1,"isfriend":0,"isfamily":0},{"id":"52302837639","owner":"71833159@N00","secret":"db0f16b3cf","server":"65535","farm":66,"title":"Western Kingbird \/ Tyrannus verticalis","ispublic":1,"isfriend":0,"isfamily":0},{"id":"52299626097","owner":"130482037@N02","secret":"daefa126b5","server":"65535","farm":66,"title":"Western Kingbird (Tyrannus verticalis) - - Travis County, TX\/05","ispublic":1,"isfriend":0,"isfamily":0},{"id":"52285420466","owner":"14908898@N08","secret":"3c41d0e8d7","server":"65535","farm":66,"title":"Western Kingbird 8-12-22","ispublic":1,"isfriend":0,"isfamily":0},{"id":"52278999222","owner":"30418455@N00","secret":"994cd47cd1","server":"65535","farm":66,"title":"WESTERN KINGBIRD 11","ispublic":1,"isfriend":0,"isfamily":0},{"id":"52276595614","owner":"34238008@N02","secret":"34039de6a0","server":"65535","farm":66,"title":"Western Kingbird (Tyrannus verticalis)","ispublic":1,"isfriend":0,"isfamily":0},{"id":"52276162435","owner":"57465751@N05","secret":"43aa8d190e","server":"65535","farm":66,"title":"Western Kingbird (Tyrannus verticalis), Meiss Rd., Sacramento Co., CA","ispublic":1,"isfriend":0,"isfamily":0},{"id":"52275550723","owner":"65148649@N04","secret":"6a831e6311","server":"65535","farm":66,"title":"Western Kingbird Nest","ispublic":1,"isfriend":0,"isfamily":0},{"id":"52270377221","owner":"34368269@N04","secret":"66b0381293","server":"65535","farm":66,"title":"Western Kingbird","ispublic":1,"isfriend":0,"isfamily":0},{"id":"52268496603","owner":"30418455@N00","secret":"69d03f9122","server":"65535","farm":66,"title":"WESTERN KINGBIRD 10","ispublic":1,"isfriend":0,"isfamily":0},{"id":"52262075013","owner":"25531047@N00","secret":"2d38b8ec83","server":"65535","farm":66,"title":"Western Kingbird","ispublic":1,"isfriend":0,"isfamily":0},{"id":"52260602870","owner":"168495655@N07","secret":"8a750101d5","server":"65535","farm":66,"title":"Tyran de l'Ouest - Tyrannus verticalis - Western Kingbird","ispublic":1,"isfriend":0,"isfamily":0},{"id":"52252617808","owner":"187792860@N04","secret":"1df25f8bd3","server":"65535","farm":66,"title":"Western Kingbird (Tyrannus verticalis)","ispublic":1,"isfriend":0,"isfamily":0},{"id":"52249761437","owner":"54551481@N08","secret":"eebef9210c","server":"65535","farm":66,"title":"Western Kingbird","ispublic":1,"isfriend":0,"isfamily":0},{"id":"52237683606","owner":"34238008@N02","secret":"908418904e","server":"65535","farm":66,"title":"Western Kingbird (Tyrannus verticalis)","ispublic":1,"isfriend":0,"isfamily":0},{"id":"52238174525","owner":"34238008@N02","secret":"d27e5d3395","server":"65535","farm":66,"title":"Western Kingbird, adult (Tyrannus verticalis)","ispublic":1,"isfriend":0,"isfamily":0},{"id":"52237965004","owner":"34238008@N02","secret":"b47b6e0ab8","server":"65535","farm":66,"title":"Western Kingbird (Tyrannus verticalis)","ispublic":1,"isfriend":0,"isfamily":0},{"id":"52237062811","owner":"65148649@N04","secret":"67eb4eb69a","server":"65535","farm":66,"title":"Western Kingbird","ispublic":1,"isfriend":0,"isfamily":0},{"id":"52236083652","owner":"65148649@N04","secret":"be090a75ac","server":"65535","farm":66,"title":"Western Kingbird","ispublic":1,"isfriend":0,"isfamily":0},{"id":"52237553620","owner":"65148649@N04","secret":"d92bb408ca","server":"65535","farm":66,"title":"Western Kingbird","ispublic":1,"isfriend":0,"isfamily":0},{"id":"52231489569","owner":"34238008@N02","secret":"47ba1d8469","server":"65535","farm":66,"title":"Western Kingbird (Tyrannus verticalis)","ispublic":1,"isfriend":0,"isfamily":0},{"id":"52230496681","owner":"195819210@N03","secret":"49e662974d","server":"0","farm":0,"title":"(192) Western Kingbird Audio","ispublic":1,"isfriend":0,"isfamily":0},{"id":"52207163427","owner":"65148649@N04","secret":"2036ee8e39","server":"65535","farm":66,"title":"Western Kingbird","ispublic":1,"isfriend":0,"isfamily":0},{"id":"52205037115","owner":"143326780@N02","secret":"a00ec7699b","server":"65535","farm":66,"title":"DSCN6353","ispublic":1,"isfriend":0,"isfamily":0},{"id":"52204553073","owner":"143326780@N02","secret":"f5d4d015cd","server":"65535","farm":66,"title":"DSCN6354","ispublic":1,"isfriend":0,"isfamily":0},{"id":"52202127498","owner":"131037795@N03","secret":"ab18b31248","server":"65535","farm":66,"title":"Western Kingbird (Tyrannus verticalis)","ispublic":1,"isfriend":0,"isfamily":0},{"id":"52199819385","owner":"65148649@N04","secret":"4b6b2059c2","server":"65535","farm":66,"title":"Western Kingbird","ispublic":1,"isfriend":0,"isfamily":0},{"id":"52199320411","owner":"65148649@N04","secret":"e10f5767a3","server":"65535","farm":66,"title":"Western Kingbird","ispublic":1,"isfriend":0,"isfamily":0},{"id":"52197871383","owner":"34238008@N02","secret":"25a8fe5f9e","server":"65535","farm":66,"title":"Western Kingbird (Tyrannus verticalis)","ispublic":1,"isfriend":0,"isfamily":0},{"id":"52197871198","owner":"34238008@N02","secret":"2c579d92d7","server":"65535","farm":66,"title":"Western Kingbird, adult (Tyrannus verticalis)","ispublic":1,"isfriend":0,"isfamily":0},{"id":"52195284944","owner":"103722035@N06","secret":"a3fc472c71","server":"65535","farm":66,"title":"Western Kingbird (Tyrannus verticalis), Cal Poly, San Luis Obispo, CA","ispublic":1,"isfriend":0,"isfamily":0},{"id":"52194016202","owner":"103722035@N06","secret":"401be8149e","server":"65535","farm":66,"title":"Western Kingbird (Tyrannus verticalis), Cal Poly, San Luis Obispo, CA","ispublic":1,"isfriend":0,"isfamily":0},{"id":"52195037813","owner":"103722035@N06","secret":"0b65a348c2","server":"65535","farm":66,"title":"Western Kingbird (Tyrannus verticalis), Cal Poly, San Luis Obispo, CA","ispublic":1,"isfriend":0,"isfamily":0},{"id":"52195281529","owner":"103722035@N06","secret":"938e62923d","server":"65535","farm":66,"title":"Western Kingbird (Tyrannus verticalis), Cal Poly, San Luis Obispo, CA","ispublic":1,"isfriend":0,"isfamily":0},{"id":"52195037528","owner":"103722035@N06","secret":"40cc3d2f6f","server":"65535","farm":66,"title":"Western Kingbird (Tyrannus verticalis), Cal Poly, San Luis Obispo, CA","ispublic":1,"isfriend":0,"isfamily":0},{"id":"52195018726","owner":"103722035@N06","secret":"92933b32c9","server":"65535","farm":66,"title":"Western Kingbird (Tyrannus verticalis), Cal Poly, San Luis Obispo, CA","ispublic":1,"isfriend":0,"isfamily":0},{"id":"52195421460","owner":"103722035@N06","secret":"d1f87c8457","server":"0","farm":0,"title":"Western Kingbird (Tyrannus verticalis), Cal Poly, San Luis Obispo, CA","ispublic":1,"isfriend":0,"isfamily":0},{"id":"52194505729","owner":"143326780@N02","secret":"dc73ba0872","server":"65535","farm":66,"title":"DSCN5368","ispublic":1,"isfriend":0,"isfamily":0},{"id":"52192257412","owner":"143326780@N02","secret":"e8442b05de","server":"65535","farm":66,"title":"DSCN5283","ispublic":1,"isfriend":0,"isfamily":0},{"id":"52189767672","owner":"54059915@N07","secret":"01d349163d","server":"65535","farm":66,"title":"Sitting pretty","ispublic":1,"isfriend":0,"isfamily":0},{"id":"52189755090","owner":"140318147@N08","secret":"dac24df371","server":"65535","farm":66,"title":"western kingbird (Tyrannus verticalis) L4A3016","ispublic":1,"isfriend":0,"isfamily":0},{"id":"52188254257","owner":"140318147@N08","secret":"facec7516f","server":"65535","farm":66,"title":"western kingbird (Tyrannus verticalis) L4A3009","ispublic":1,"isfriend":0,"isfamily":0},{"id":"52186548334","owner":"54059915@N07","secret":"8a25da36b3","server":"65535","farm":66,"title":"Western Kingbird","ispublic":1,"isfriend":0,"isfamily":0},{"id":"52186785365","owner":"54059915@N07","secret":"6bf67c0e81","server":"65535","farm":66,"title":"Western Kingbird","ispublic":1,"isfriend":0,"isfamily":0},{"id":"52186310668","owner":"54059915@N07","secret":"f73795888a","server":"65535","farm":66,"title":"Western Kingbird","ispublic":1,"isfriend":0,"isfamily":0},{"id":"52239116207","owner":"134270033@N06","secret":"3cc81bcb01","server":"65535","farm":66,"title":"HTT :: Happy Tuesday Twosday","ispublic":1,"isfriend":0,"isfamily":0},{"id":"52185686108","owner":"103722035@N06","secret":"f88cf15a26","server":"0","farm":0,"title":"Western Kingbird (Tyrannus verticalis), Laguna Lake, San Luis Obispo, CA","ispublic":1,"isfriend":0,"isfamily":0},{"id":"52186163475","owner":"103722035@N06","secret":"1670b27471","server":"65535","farm":66,"title":"Western Kingbird (Tyrannus verticalis), Laguna Lake, San Luis Obispo, CA","ispublic":1,"isfriend":0,"isfamily":0}]},"stat":"ok"}