{"photos":{"page":1,"pages":93,"perpage":100,"total":9264,"photo":[{"id":"52787216958","owner":"62043870@N05","secret":"2cafa8da89","server":"65535","farm":66,"title":"Western Gull, Larus occidentalis","ispublic":1,"isfriend":0,"isfamily":0},{"id":"52785352408","owner":"52413877@N02","secret":"7ee89b9a79","server":"65535","farm":66,"title":"94_Larus occidentalis","ispublic":1,"isfriend":0,"isfamily":0},{"id":"52784345762","owner":"52413877@N02","secret":"8f748177ef","server":"65535","farm":66,"title":"95_Larus occidentalis JUVENILE","ispublic":1,"isfriend":0,"isfamily":0},{"id":"52784896771","owner":"52413877@N02","secret":"93486841db","server":"65535","farm":66,"title":"102_Larus occidentalis","ispublic":1,"isfriend":0,"isfamily":0},{"id":"52781865167","owner":"62043870@N05","secret":"77f255bfb5","server":"65535","farm":66,"title":"Western Gull, Larus occidentalis","ispublic":1,"isfriend":0,"isfamily":0},{"id":"52779633148","owner":"89367133@N00","secret":"ed9c089e99","server":"65535","farm":66,"title":"Go\u00e9land d'Audubon (Larus occidentalis).","ispublic":1,"isfriend":0,"isfamily":0},{"id":"52778571930","owner":"62043870@N05","secret":"7dcb6ea7b0","server":"65535","farm":66,"title":"Western Gulls (Larus occidentalis) and California Gulls (Larus californicus), with a Herring Gull (Larus argentatus), Glaucous-winged Gull (Larus glaucescens) and Iceland Gull (Larus glaucoides thayeri)","ispublic":1,"isfriend":0,"isfamily":0},{"id":"52777660821","owner":"62043870@N05","secret":"0d08bafd39","server":"65535","farm":66,"title":"Western Gull (Larus occidentalis) Eating a Surfperch (Family Embiotocidae)","ispublic":1,"isfriend":0,"isfamily":0},{"id":"52769416026","owner":"62043870@N05","secret":"928eb2d9f9","server":"65535","farm":66,"title":"Western Gulls, Larus occidentalis","ispublic":1,"isfriend":0,"isfamily":0},{"id":"52760463725","owner":"12240837@N08","secret":"b821426f63","server":"65535","farm":66,"title":"Western Gull (larus occidentalis)","ispublic":1,"isfriend":0,"isfamily":0},{"id":"52759079654","owner":"62043870@N05","secret":"55b20b0227","server":"65535","farm":66,"title":"Ring-billed Gulls (Larus delawarensis) and  Western Gull (Larus occidentalis)","ispublic":1,"isfriend":0,"isfamily":0},{"id":"52752338129","owner":"99849996@N00","secret":"4b5315e698","server":"65535","farm":66,"title":"Western Gull 20220223_2291","ispublic":1,"isfriend":0,"isfamily":0},{"id":"52739613076","owner":"103722035@N06","secret":"2180900166","server":"0","farm":0,"title":"Western Gull (Larus occidentalis), Avila Beach, CA","ispublic":1,"isfriend":0,"isfamily":0},{"id":"52734666238","owner":"62043870@N05","secret":"e56a000959","server":"65535","farm":66,"title":"Western Gull, Larus occidentalis","ispublic":1,"isfriend":0,"isfamily":0},{"id":"52713576117","owner":"62043870@N05","secret":"7273381ded","server":"65535","farm":66,"title":"Western Gull, Larus occidentalis","ispublic":1,"isfriend":0,"isfamily":0},{"id":"52712147421","owner":"70295563@N00","secret":"7f02bf0843","server":"65535","farm":66,"title":"On the beach","ispublic":1,"isfriend":0,"isfamily":0},{"id":"52706743218","owner":"34238008@N02","secret":"1a449fcd8d","server":"65535","farm":66,"title":"Western x Glaucous-winged Gull, hybrid (Larus occidentalis x glaucescens)","ispublic":1,"isfriend":0,"isfamily":0},{"id":"52706665680","owner":"34238008@N02","secret":"5f45e88c78","server":"65535","farm":66,"title":"Western x Glaucous-winged Gull, hybrid (Larus occidentalis x glaucescens)","ispublic":1,"isfriend":0,"isfamily":0},{"id":"52703473551","owner":"22883988@N08","secret":"fc89ccace2","server":"65535","farm":66,"title":"Western Gull on Shi Shi Beach In Olympic National Park","ispublic":1,"isfriend":0,"isfamily":0},{"id":"52703727184","owner":"22883988@N08","secret":"2c3829a166","server":"65535","farm":66,"title":"Western Gull on Shi Shi Beach In Olympic National Park","ispublic":1,"isfriend":0,"isfamily":0},{"id":"52703484383","owner":"8735619@N06","secret":"0d02f05b71","server":"65535","farm":66,"title":"gull3Feb18-23","ispublic":1,"isfriend":0,"isfamily":0},{"id":"52703416020","owner":"8735619@N06","secret":"63009ff1b7","server":"65535","farm":66,"title":"gull2Feb18-23","ispublic":1,"isfriend":0,"isfamily":0},{"id":"52703483568","owner":"8735619@N06","secret":"bd89d06f0d","server":"65535","farm":66,"title":"gull1Feb18-23","ispublic":1,"isfriend":0,"isfamily":0},{"id":"52701193282","owner":"62043870@N05","secret":"466c8c2792","server":"65535","farm":66,"title":"Western Gull, Larus occidentalis","ispublic":1,"isfriend":0,"isfamily":0},{"id":"52697021011","owner":"23939795@N04","secret":"0b3727494d","server":"65535","farm":66,"title":"Gull with Octopus 0774","ispublic":1,"isfriend":0,"isfamily":0},{"id":"52687337026","owner":"196264892@N08","secret":"cc9a8bcb80","server":"65535","farm":66,"title":"Western Gull","ispublic":1,"isfriend":0,"isfamily":0},{"id":"52687833418","owner":"196264892@N08","secret":"c13f2c7b58","server":"65535","farm":66,"title":"Western Gull","ispublic":1,"isfriend":0,"isfamily":0},{"id":"52664179325","owner":"63093099@N02","secret":"41ba83e2fe","server":"65535","farm":66,"title":"Larus sp. (probably Glaucous-winged Gull x Western Gull); 20230201; USA-WA-King-Green Lake","ispublic":1,"isfriend":0,"isfamily":0},{"id":"52657015907","owner":"7331818@N02","secret":"2f54b35c65","server":"65535","farm":66,"title":"Danger Gull","ispublic":1,"isfriend":0,"isfamily":0},{"id":"52647084842","owner":"62043870@N05","secret":"8547501510","server":"65535","farm":66,"title":"Western Gull, Larus occidentalis","ispublic":1,"isfriend":0,"isfamily":0},{"id":"52645349502","owner":"103722035@N06","secret":"0ea1f3a105","server":"65535","farm":66,"title":"Western Gull (Larus occidentalis), Morro Bay, CA","ispublic":1,"isfriend":0,"isfamily":0},{"id":"52645862741","owner":"103722035@N06","secret":"9f62c46a80","server":"65535","farm":66,"title":"Western Gull (Larus occidentalis), Morro Bay, CA","ispublic":1,"isfriend":0,"isfamily":0},{"id":"52645862751","owner":"103722035@N06","secret":"7caf3254b6","server":"65535","farm":66,"title":"Western Gull (Larus occidentalis), Morro Bay, CA","ispublic":1,"isfriend":0,"isfamily":0},{"id":"52646334323","owner":"103722035@N06","secret":"3cdd73c1fc","server":"65535","farm":66,"title":"Western Gull (Larus occidentalis), Morro Bay, CA","ispublic":1,"isfriend":0,"isfamily":0},{"id":"52645349477","owner":"103722035@N06","secret":"cf72d82cb8","server":"65535","farm":66,"title":"Western Gull (Larus occidentalis), Morro Bay, CA","ispublic":1,"isfriend":0,"isfamily":0},{"id":"52646297065","owner":"103722035@N06","secret":"379bf95193","server":"65535","farm":66,"title":"Western Gull (Larus occidentalis), Morro Bay, CA","ispublic":1,"isfriend":0,"isfamily":0},{"id":"52642366009","owner":"8547178@N05","secret":"9aa65faee1","server":"65535","farm":66,"title":"Western Gull - Larus occidentalis","ispublic":1,"isfriend":0,"isfamily":0},{"id":"52640492970","owner":"34238008@N02","secret":"0cc8516fb6","server":"65535","farm":66,"title":"Western x Glaucous-winged Gull, hybrid (Larus occidentalis x glaucescens)","ispublic":1,"isfriend":0,"isfamily":0},{"id":"52639543062","owner":"34238008@N02","secret":"402c5e533c","server":"65535","farm":66,"title":"Western x Glaucous-winged Gull, hybrid (Larus occidentalis x glaucescens)","ispublic":1,"isfriend":0,"isfamily":0},{"id":"52640492645","owner":"34238008@N02","secret":"ffdc8035e1","server":"65535","farm":66,"title":"Western x Glaucous-winged Gull, hybrid (Larus occidentalis x glaucescens)","ispublic":1,"isfriend":0,"isfamily":0},{"id":"52634651055","owner":"103722035@N06","secret":"29469dcfbe","server":"65535","farm":66,"title":"Western Gull (Larus occidentalis) & Herring Gull (Larus argentatus), Northern Elephant Seal Colony, Piedras Blancas, Highway One, CA","ispublic":1,"isfriend":0,"isfamily":0},{"id":"52633551894","owner":"63093099@N02","secret":"81737619e0","server":"65535","farm":66,"title":"Western x Glaucous-Winged Gull (hybrid); 20230116; USA-WA-Seattle-Union Bay Natural Area (Montlake Fill)","ispublic":1,"isfriend":0,"isfamily":0},{"id":"52633782328","owner":"63093099@N02","secret":"1b85a822c8","server":"65535","farm":66,"title":"Western x Glaucous-Winged Gull (hybrid); 20230116; USA-WA-Seattle-Union Bay Natural Area (Montlake Fill)","ispublic":1,"isfriend":0,"isfamily":0},{"id":"52633294456","owner":"63093099@N02","secret":"1227ee2225","server":"65535","farm":66,"title":"Western x Glaucous-Winged Gull (hybrid); 20230116; USA-WA-Seattle-Union Bay Natural Area (Montlake Fill)","ispublic":1,"isfriend":0,"isfamily":0},{"id":"52615777177","owner":"10665268@N04","secret":"e1cc886227","server":"65535","farm":66,"title":"Western Gull, Tillamook Co., OR_5163(1)","ispublic":1,"isfriend":0,"isfamily":0},{"id":"52616554454","owner":"10665268@N04","secret":"31b0721eb9","server":"65535","farm":66,"title":"Western Gull, Tillamook Co., OR_5164(1)","ispublic":1,"isfriend":0,"isfamily":0},{"id":"52610388080","owner":"71393709@N06","secret":"f51f28376f","server":"65535","farm":66,"title":"Young  western gull (Larus occidentalis)  -  (Published by GETTY IMAGES)","ispublic":1,"isfriend":0,"isfamily":0},{"id":"52605663141","owner":"62043870@N05","secret":"4298178d15","server":"65535","farm":66,"title":"Western Gulls (Larus occidentalis) and Double-crested Cormorants (Phalacrocorax auritus)","ispublic":1,"isfriend":0,"isfamily":0},{"id":"52660486795","owner":"134270033@N06","secret":"ae8232e1d8","server":"0","farm":0,"title":"Nice End of Day  Collection \"Along the Strand\"","ispublic":1,"isfriend":0,"isfamily":0},{"id":"52599266698","owner":"39935474@N03","secret":"b908ab8655","server":"65535","farm":66,"title":"Western Gull immature begging","ispublic":1,"isfriend":0,"isfamily":0},{"id":"52598252582","owner":"39935474@N03","secret":"a08e0c2255","server":"65535","farm":66,"title":"Western Gull immature begging","ispublic":1,"isfriend":0,"isfamily":0},{"id":"52594530616","owner":"44082511@N08","secret":"ac06b7b942","server":"65535","farm":66,"title":"Western Seagull","ispublic":1,"isfriend":0,"isfamily":0},{"id":"52582497981","owner":"132508209@N08","secret":"205904dbf9","server":"65535","farm":66,"title":"Western Gull (Larus occidentalis)","ispublic":1,"isfriend":0,"isfamily":0},{"id":"52579291923","owner":"62043870@N05","secret":"d13cfbac22","server":"65535","farm":66,"title":"Western Gull, Larus occidentalis","ispublic":1,"isfriend":0,"isfamily":0},{"id":"52574965882","owner":"141833872@N05","secret":"2a2e08a281","server":"65535","farm":66,"title":"Western Gull","ispublic":1,"isfriend":0,"isfamily":0},{"id":"52574965687","owner":"141833872@N05","secret":"06c66d6934","server":"65535","farm":66,"title":"Western Gull","ispublic":1,"isfriend":0,"isfamily":0},{"id":"52567767017","owner":"62043870@N05","secret":"14a0ba67b2","server":"65535","farm":66,"title":"Northern Fulmar (Fulmarus glacialis) and Western Gull (Larus occidentalis)","ispublic":1,"isfriend":0,"isfamily":0},{"id":"52535201870","owner":"7633518@N08","secret":"071747110c","server":"65535","farm":66,"title":"Western Gull (Larus occidentalis)","ispublic":1,"isfriend":0,"isfamily":0},{"id":"52535269323","owner":"7633518@N08","secret":"8d1c28c3e8","server":"65535","farm":66,"title":"Western Gull (Larus occidentalis)","ispublic":1,"isfriend":0,"isfamily":0},{"id":"52533042825","owner":"119095828@N03","secret":"a4a0598c2d","server":"65535","farm":66,"title":"Western Gull (Larus occidentalis)","ispublic":1,"isfriend":0,"isfamily":0},{"id":"52532098702","owner":"119095828@N03","secret":"fa99a355cf","server":"65535","farm":66,"title":"Western Gull (Larus occidentalis)","ispublic":1,"isfriend":0,"isfamily":0},{"id":"52532097622","owner":"119095828@N03","secret":"eb91a8def3","server":"65535","farm":66,"title":"Western Gull (Larus occidentalis)","ispublic":1,"isfriend":0,"isfamily":0},{"id":"52515909260","owner":"119095828@N03","secret":"ba7fff4500","server":"65535","farm":66,"title":"Western Gull (Larus occidentalis)","ispublic":1,"isfriend":0,"isfamily":0},{"id":"52515909095","owner":"119095828@N03","secret":"7e22ffcd57","server":"65535","farm":66,"title":"Western Gull (Larus occidentalis)","ispublic":1,"isfriend":0,"isfamily":0},{"id":"52515431346","owner":"119095828@N03","secret":"cfa5632b5d","server":"65535","farm":66,"title":"Western Gull (Larus occidentalis)","ispublic":1,"isfriend":0,"isfamily":0},{"id":"52515431126","owner":"119095828@N03","secret":"74065278a5","server":"65535","farm":66,"title":"Western Gull (Larus occidentalis)","ispublic":1,"isfriend":0,"isfamily":0},{"id":"52515700294","owner":"119095828@N03","secret":"5f4e91cd2c","server":"65535","farm":66,"title":"Western Gull (Larus occidentalis)","ispublic":1,"isfriend":0,"isfamily":0},{"id":"52515700124","owner":"119095828@N03","secret":"b16e144d1e","server":"65535","farm":66,"title":"Western Gull (Larus occidentalis)","ispublic":1,"isfriend":0,"isfamily":0},{"id":"52515908280","owner":"119095828@N03","secret":"b7c3f5d6ab","server":"65535","farm":66,"title":"Western Gull (Larus occidentalis)","ispublic":1,"isfriend":0,"isfamily":0},{"id":"52515699764","owner":"119095828@N03","secret":"5ddf0ff1dd","server":"65535","farm":66,"title":"Western Gull (Larus occidentalis)","ispublic":1,"isfriend":0,"isfamily":0},{"id":"52515907830","owner":"119095828@N03","secret":"92389ace67","server":"65535","farm":66,"title":"Western Gull (Larus occidentalis)","ispublic":1,"isfriend":0,"isfamily":0},{"id":"52514956097","owner":"119095828@N03","secret":"a1856c477c","server":"65535","farm":66,"title":"Western Gull (Larus occidentalis)","ispublic":1,"isfriend":0,"isfamily":0},{"id":"52515429696","owner":"119095828@N03","secret":"7346292439","server":"65535","farm":66,"title":"Western Gull (Larus occidentalis)","ispublic":1,"isfriend":0,"isfamily":0},{"id":"52495690424","owner":"89367133@N00","secret":"6ac769b6cb","server":"65535","farm":66,"title":"Go\u00e9land d'Audubon (Larus occidentalis).","ispublic":1,"isfriend":0,"isfamily":0},{"id":"52490668814","owner":"28867468@N08","secret":"d0f657234e","server":"65535","farm":66,"title":"Western Gull Harassing Eared Grebe","ispublic":1,"isfriend":0,"isfamily":0},{"id":"52473646148","owner":"53977003@N00","secret":"3e818a4201","server":"65535","farm":66,"title":"Glaucous-Winged x Western Gull","ispublic":1,"isfriend":0,"isfamily":0},{"id":"52695580741","owner":"62043870@N05","secret":"449f587dd0","server":"65535","farm":66,"title":"Western Gull, Larus occidentalis","ispublic":1,"isfriend":0,"isfamily":0},{"id":"52679279518","owner":"11295713@N00","secret":"e537c3cea2","server":"65535","farm":66,"title":"Western Gull (Larus occidentalis) on the Rocks","ispublic":1,"isfriend":0,"isfamily":0},{"id":"52676920844","owner":"34238008@N02","secret":"1b697672a9","server":"65535","farm":66,"title":"Western x Glaucous-winged Gull, hybrid (Larus occidentalis x glaucescens)","ispublic":1,"isfriend":0,"isfamily":0},{"id":"52669629506","owner":"62043870@N05","secret":"07163238f0","server":"65535","farm":66,"title":"Western Gull (Larus occidentalis) and Sanderlings (Calidris alba)","ispublic":1,"isfriend":0,"isfamily":0},{"id":"52631296441","owner":"47533293@N04","secret":"1fdd56918d","server":"65535","farm":66,"title":"Western gull, Larus occidentalis","ispublic":1,"isfriend":0,"isfamily":0},{"id":"52629090789","owner":"150163656@N06","secret":"3ea9d2e35a","server":"65535","farm":66,"title":"Western gull","ispublic":1,"isfriend":0,"isfamily":0},{"id":"52599248814","owner":"62043870@N05","secret":"5d9739ca11","server":"65535","farm":66,"title":"Western Gulls (Larus occidentalis) with  Double-crested Cormorant (Phalacrocorax auritus) and  Brandt's Cormorant (Urile penicillatus)","ispublic":1,"isfriend":0,"isfamily":0},{"id":"52597337325","owner":"62043870@N05","secret":"5789d432de","server":"65535","farm":66,"title":"Northern Gannet (Morus bassanus) with a  Western Gull (Larus occidentalis) and  Double-crested Cormorant (Phalacrocorax auritus)","ispublic":1,"isfriend":0,"isfamily":0},{"id":"52575877135","owner":"141833872@N05","secret":"5a1ed41563","server":"65535","farm":66,"title":"Western Gull","ispublic":1,"isfriend":0,"isfamily":0},{"id":"52575423636","owner":"141833872@N05","secret":"2fbc8929cd","server":"65535","farm":66,"title":"Western Gull","ispublic":1,"isfriend":0,"isfamily":0},{"id":"52575958358","owner":"141833872@N05","secret":"bb2f902ab2","server":"65535","farm":66,"title":"Western Gull","ispublic":1,"isfriend":0,"isfamily":0},{"id":"52575958258","owner":"141833872@N05","secret":"f1f6c93d23","server":"65535","farm":66,"title":"Western Gull","ispublic":1,"isfriend":0,"isfamily":0},{"id":"52574965647","owner":"141833872@N05","secret":"92345a52ec","server":"65535","farm":66,"title":"Western Gull","ispublic":1,"isfriend":0,"isfamily":0},{"id":"52575423506","owner":"141833872@N05","secret":"35b9a16e1a","server":"65535","farm":66,"title":"Western Gull","ispublic":1,"isfriend":0,"isfamily":0},{"id":"52574965572","owner":"141833872@N05","secret":"58ff3c2259","server":"65535","farm":66,"title":"Western Gull","ispublic":1,"isfriend":0,"isfamily":0},{"id":"52571105166","owner":"7331818@N02","secret":"90216cd16c","server":"65535","farm":66,"title":"Gull","ispublic":1,"isfriend":0,"isfamily":0},{"id":"52569621408","owner":"125605310@N07","secret":"d343a1ba08","server":"65535","farm":66,"title":"Northern Fulmar (Fulmarus glacialis) Charging a Western Gull (Larus occidentalis)","ispublic":1,"isfriend":0,"isfamily":0},{"id":"52568673805","owner":"62043870@N05","secret":"aa8a478f6a","server":"65535","farm":66,"title":"Northern Fulmar (Fulmarus glacialis) and Western Gull (Larus occidentalis)","ispublic":1,"isfriend":0,"isfamily":0},{"id":"52532569501","owner":"119095828@N03","secret":"a802540b08","server":"65535","farm":66,"title":"Western Gull (Larus occidentalis)","ispublic":1,"isfriend":0,"isfamily":0},{"id":"52519382819","owner":"39617069@N08","secret":"fa696e937f","server":"65535","farm":66,"title":"\"Olympic\" Gull","ispublic":1,"isfriend":0,"isfamily":0},{"id":"52515976123","owner":"119095828@N03","secret":"131606f598","server":"65535","farm":66,"title":"Western Gull (Larus occidentalis)","ispublic":1,"isfriend":0,"isfamily":0},{"id":"52515975788","owner":"119095828@N03","secret":"f9bbd2c0e2","server":"65535","farm":66,"title":"Western Gull (Larus occidentalis)","ispublic":1,"isfriend":0,"isfamily":0},{"id":"52496151513","owner":"53977003@N00","secret":"933bd61303","server":"65535","farm":66,"title":"Glaucous-Winged x Western Gull (\"Olympic Gull\")","ispublic":1,"isfriend":0,"isfamily":0},{"id":"52478026926","owner":"62043870@N05","secret":"ca03a2426c","server":"65535","farm":66,"title":"Western Gull, Larus occidentalis","ispublic":1,"isfriend":0,"isfamily":0}]},"stat":"ok"}