{"photos":{"page":1,"pages":2,"perpage":100,"total":139,"photo":[{"id":"52656901832","owner":"31350467@N04","secret":"c582e19660","server":"65535","farm":66,"title":"Gerygone, Western (Gerygone fusca exsul)","ispublic":1,"isfriend":0,"isfamily":0},{"id":"52636590325","owner":"31350467@N04","secret":"496e525089","server":"65535","farm":66,"title":"Gerygone, Western (Gerygone fusca exsul)","ispublic":1,"isfriend":0,"isfamily":0},{"id":"52490872542","owner":"58356728@N07","secret":"acdddb18d8","server":"65535","farm":66,"title":"Western gerygone - Gerygone fusca","ispublic":1,"isfriend":0,"isfamily":0},{"id":"51653748761","owner":"151677249@N08","secret":"1251177d79","server":"65535","farm":66,"title":"Western Gerygone (Gerygone fusca fusca)","ispublic":1,"isfriend":0,"isfamily":0},{"id":"51576576303","owner":"132431122@N05","secret":"c62de89007","server":"65535","farm":66,"title":"Western Gerygone","ispublic":1,"isfriend":0,"isfamily":0},{"id":"51576576098","owner":"132431122@N05","secret":"26c772b70f","server":"65535","farm":66,"title":"Western Gerygone","ispublic":1,"isfriend":0,"isfamily":0},{"id":"51495715900","owner":"108755156@N05","secret":"a30e1d5061","server":"65535","farm":66,"title":"Got One!","ispublic":1,"isfriend":0,"isfamily":0},{"id":"51093990061","owner":"191389292@N04","secret":"9babef532d","server":"65535","farm":66,"title":"Western Gerygone (Gerygone fusca)","ispublic":1,"isfriend":0,"isfamily":0},{"id":"50886050938","owner":"117755141@N02","secret":"87fd59f068","server":"65535","farm":66,"title":"Western Gerygone (Gerygone fusca Ssp fusca)","ispublic":1,"isfriend":0,"isfamily":0},{"id":"50857686041","owner":"25928547@N08","secret":"4b90022e2c","server":"65535","farm":66,"title":"Western Gerygone","ispublic":1,"isfriend":0,"isfamily":0},{"id":"50261583341","owner":"40195635@N03","secret":"6ce28c8c08","server":"65535","farm":66,"title":"Western Gerygone (Gerygone fusca)","ispublic":1,"isfriend":0,"isfamily":0},{"id":"49481344116","owner":"76664823@N02","secret":"85d015500a","server":"65535","farm":66,"title":"western gerygone (Gerygone fusca)-4054","ispublic":1,"isfriend":0,"isfamily":0},{"id":"49480859733","owner":"76664823@N02","secret":"d53dc9c748","server":"65535","farm":66,"title":"western gerygone (Gerygone fusca)-4057","ispublic":1,"isfriend":0,"isfamily":0},{"id":"49413942352","owner":"117755141@N02","secret":"4acb67d5c9","server":"65535","farm":66,"title":"Western Gerygone (Gerygone fusca)","ispublic":1,"isfriend":0,"isfamily":0},{"id":"48878465123","owner":"16520061@N08","secret":"27ef8d5b9d","server":"65535","farm":66,"title":"Western Gerygone (Gerygone fusca)","ispublic":1,"isfriend":0,"isfamily":0},{"id":"48054809617","owner":"117755141@N02","secret":"48811a8849","server":"65535","farm":66,"title":"Western Gerygone (Gerygone fusca)","ispublic":1,"isfriend":0,"isfamily":0},{"id":"47504365221","owner":"14888671@N02","secret":"589f9e9637","server":"7800","farm":8,"title":"Zebra Finch","ispublic":1,"isfriend":0,"isfamily":0},{"id":"47504365061","owner":"14888671@N02","secret":"16fe0dfeca","server":"7877","farm":8,"title":"Western Gerygone","ispublic":1,"isfriend":0,"isfamily":0},{"id":"46702197564","owner":"14888671@N02","secret":"4d1ff375d7","server":"7808","farm":8,"title":"Western Gerygone","ispublic":1,"isfriend":0,"isfamily":0},{"id":"46572109454","owner":"14888671@N02","secret":"b15bd58132","server":"7804","farm":8,"title":"Western Gerygone","ispublic":1,"isfriend":0,"isfamily":0},{"id":"45583463155","owner":"151677249@N08","secret":"e8ef2379a9","server":"4907","farm":5,"title":"Western Gerygone (Gerygone fusca)","ispublic":1,"isfriend":0,"isfamily":0},{"id":"31198431047","owner":"159495711@N04","secret":"a6663b235c","server":"4886","farm":5,"title":"Gerygone-fusca","ispublic":1,"isfriend":0,"isfamily":0},{"id":"44348018875","owner":"31350467@N04","secret":"acb3e8fd1e","server":"1980","farm":2,"title":"Gerygone, Western (Gerygone fusca fusca)","ispublic":1,"isfriend":0,"isfamily":0},{"id":"39369353180","owner":"125454333@N02","secret":"48956043c3","server":"817","farm":1,"title":"Western Gerygone (Gerygone fusca).","ispublic":1,"isfriend":0,"isfamily":0},{"id":"26432176528","owner":"107784905@N04","secret":"1bbe448cf9","server":"4662","farm":5,"title":"G\u00e9rygone \u00e0 queue blanche - Bibra Lake Reserve\/Perth\/WA\/Australia_20170328_009-1","ispublic":1,"isfriend":0,"isfamily":0},{"id":"25719969548","owner":"46625272@N04","secret":"53fdd15665","server":"4604","farm":5,"title":"Western Gerygone Hallowell 8Jan18 (9) res","ispublic":1,"isfriend":0,"isfamily":0},{"id":"25719965428","owner":"46625272@N04","secret":"531202d366","server":"4719","farm":5,"title":"Western Gerygone Hallowell 8Jan18 (4) res","ispublic":1,"isfriend":0,"isfamily":0},{"id":"25719960898","owner":"46625272@N04","secret":"21235d86fc","server":"4724","farm":5,"title":"Western Gerygone Hallowell 8Jan18 (2) res","ispublic":1,"isfriend":0,"isfamily":0},{"id":"24619297878","owner":"75299599@N00","secret":"5b000db7cb","server":"4561","farm":5,"title":"Western Gerygone (Gerygone fusca)","ispublic":1,"isfriend":0,"isfamily":0},{"id":"38247173952","owner":"75299599@N00","secret":"34d386c914","server":"4555","farm":5,"title":"Western Gerygone (Gerygone fusca)","ispublic":1,"isfriend":0,"isfamily":0},{"id":"37984048962","owner":"128578170@N06","secret":"463e6de564","server":"4509","farm":5,"title":"Western Gerygone Gerygone fusca exsul","ispublic":1,"isfriend":0,"isfamily":0},{"id":"37091041000","owner":"113679267@N08","secret":"b00f3b5ac9","server":"4340","farm":5,"title":"Western Gerygone (Gerygone fusca)","ispublic":1,"isfriend":0,"isfamily":0},{"id":"36117077674","owner":"61021753@N02","secret":"b6516e60e7","server":"4420","farm":5,"title":"n403_w1150","ispublic":1,"isfriend":0,"isfamily":0},{"id":"36117076794","owner":"61021753@N02","secret":"aff5bef4bb","server":"4412","farm":5,"title":"n399_w1150","ispublic":1,"isfriend":0,"isfamily":0},{"id":"35595507164","owner":"134815842@N03","secret":"d41ec94d9d","server":"4342","farm":5,"title":"Western Gerygone (Gerygone fusca) Paluma, Queensland, Australia 2016","ispublic":1,"isfriend":0,"isfamily":0},{"id":"35150609532","owner":"107784905@N04","secret":"2b9ed01b8d","server":"4224","farm":5,"title":"G\u00e9rygone \u00e0 queue blanche - Bibra Lake Reserve\/Perth\/WA\/Australia_20170328_396","ispublic":1,"isfriend":0,"isfamily":0},{"id":"34681979841","owner":"40195635@N03","secret":"01bc66abcb","server":"4175","farm":5,"title":"Western Gerygone (Gerygone fusca fusca)","ispublic":1,"isfriend":0,"isfamily":0},{"id":"33295525763","owner":"40195635@N03","secret":"474e1c3ab2","server":"2807","farm":3,"title":"Western Gerygone (Gerygone fusca fusca)","ispublic":1,"isfriend":0,"isfamily":0},{"id":"30773846420","owner":"31350467@N04","secret":"ccdb921d72","server":"5773","farm":6,"title":"Gerygone, Western (Gerygone fusca fusca)","ispublic":1,"isfriend":0,"isfamily":0},{"id":"30932956205","owner":"14867000@N00","secret":"9a2ceb0888","server":"5503","farm":6,"title":"Western Gerygone","ispublic":1,"isfriend":0,"isfamily":0},{"id":"30026344216","owner":"117755141@N02","secret":"4a02f195bc","server":"8137","farm":9,"title":"Western Gerygone (Gerygone fusca)","ispublic":1,"isfriend":0,"isfamily":0},{"id":"29634136750","owner":"68750880@N06","secret":"3efabe11b6","server":"8085","farm":9,"title":"Western Gerygone (Gerygone fusca)","ispublic":1,"isfriend":0,"isfamily":0},{"id":"29448108100","owner":"58975350@N06","secret":"487ecc5378","server":"8524","farm":9,"title":"Western gerygone","ispublic":1,"isfriend":0,"isfamily":0},{"id":"28686954423","owner":"61021753@N02","secret":"9f05263510","server":"7645","farm":8,"title":"n255_w1150","ispublic":1,"isfriend":0,"isfamily":0},{"id":"27397618984","owner":"117755141@N02","secret":"53eb9b2d89","server":"7042","farm":8,"title":"Western Gerygone (Gerygone fusca)","ispublic":1,"isfriend":0,"isfamily":0},{"id":"23923318616","owner":"43886809@N03","secret":"8c731591bf","server":"5775","farm":6,"title":"Western Gerygone_15-11-09_Gerygone fusca","ispublic":1,"isfriend":0,"isfamily":0},{"id":"23841134672","owner":"43886809@N03","secret":"eac3176873","server":"5760","farm":6,"title":"Western Gerygone_15-11-09_Gerygone fusca","ispublic":1,"isfriend":0,"isfamily":0},{"id":"22765592989","owner":"76664823@N02","secret":"ec9a7f5083","server":"5794","farm":6,"title":"western gerygone (Gerygone fusca)-8858","ispublic":1,"isfriend":0,"isfamily":0},{"id":"23133546885","owner":"76664823@N02","secret":"17649190fe","server":"640","farm":1,"title":"western gerygone (Gerygone fusca)-8868","ispublic":1,"isfriend":0,"isfamily":0},{"id":"23107431456","owner":"76664823@N02","secret":"902963f75d","server":"618","farm":1,"title":"western gerygone (Gerygone fusca)-8871","ispublic":1,"isfriend":0,"isfamily":0},{"id":"23107424856","owner":"76664823@N02","secret":"8fe5cf2d0c","server":"618","farm":1,"title":"western gerygone (Gerygone fusca)-8880","ispublic":1,"isfriend":0,"isfamily":0},{"id":"22765570639","owner":"76664823@N02","secret":"f09614005e","server":"5702","farm":6,"title":"western gerygone (Gerygone fusca)-8886","ispublic":1,"isfriend":0,"isfamily":0},{"id":"23028991806","owner":"76664823@N02","secret":"87d4a0c700","server":"5675","farm":6,"title":"western gerygone (Gerygone fusca) -8673","ispublic":1,"isfriend":0,"isfamily":0},{"id":"21646245483","owner":"76664823@N02","secret":"2910512861","server":"5702","farm":6,"title":"western gerygone (Gerygone fusca)","ispublic":1,"isfriend":0,"isfamily":0},{"id":"21090692683","owner":"76664823@N02","secret":"81892d4066","server":"5798","farm":6,"title":"western gerygone (Gerygone fusca)-7775","ispublic":1,"isfriend":0,"isfamily":0},{"id":"21524840369","owner":"76664823@N02","secret":"ea49ef2cb8","server":"724","farm":1,"title":"western gerygone (Gerygone fusca)-7801","ispublic":1,"isfriend":0,"isfamily":0},{"id":"20897800224","owner":"76664823@N02","secret":"bb72bce600","server":"671","farm":1,"title":"western gerygone (Gerygone fusca)-0742","ispublic":1,"isfriend":0,"isfamily":0},{"id":"20218363143","owner":"46625272@N04","secret":"65396ba233","server":"622","farm":1,"title":"Western Gerygone WOS 23Aug15 (2) res","ispublic":1,"isfriend":0,"isfamily":0},{"id":"17087530358","owner":"39343449@N02","secret":"8148b95c44","server":"8715","farm":9,"title":"Western Gerygone at Garvey Park","ispublic":1,"isfriend":0,"isfamily":0},{"id":"16990771835","owner":"61021753@N02","secret":"40b69cd8f5","server":"8717","farm":9,"title":"n164_w1150","ispublic":1,"isfriend":0,"isfamily":0},{"id":"51813797461","owner":"151993772@N02","secret":"1de4da3518","server":"65535","farm":66,"title":"Western Gerygone (Gerygone fusca)","ispublic":1,"isfriend":0,"isfamily":0},{"id":"51814517635","owner":"151993772@N02","secret":"162128ddfb","server":"65535","farm":66,"title":"Western Gerygone (Gerygone fusca)","ispublic":1,"isfriend":0,"isfamily":0},{"id":"51304468974","owner":"146833745@N04","secret":"95c225f048","server":"65535","farm":66,"title":"Western Gerygone (Gerygone fusca)","ispublic":1,"isfriend":0,"isfamily":0},{"id":"51304468684","owner":"146833745@N04","secret":"f0e9dc033d","server":"65535","farm":66,"title":"Western Gerygone (Gerygone fusca)","ispublic":1,"isfriend":0,"isfamily":0},{"id":"51153009199","owner":"116829024@N07","secret":"30a58a6f3e","server":"65535","farm":66,"title":"Western Gerygone (Gerygone fusca)","ispublic":1,"isfriend":0,"isfamily":0},{"id":"51112363046","owner":"40195635@N03","secret":"693d0da035","server":"65535","farm":66,"title":"Western Gerygone (Gerygone fusca)","ispublic":1,"isfriend":0,"isfamily":0},{"id":"50504267202","owner":"90408688@N02","secret":"8a20b4a2e1","server":"65535","farm":66,"title":"Gerygone fusca exsul - Eastern Woodlands Western Gerygone","ispublic":1,"isfriend":0,"isfamily":0},{"id":"50503392628","owner":"90408688@N02","secret":"2a7ed960fb","server":"65535","farm":66,"title":"Gerygone fusca exsul - Eastern Woodlands Western Gerygone","ispublic":1,"isfriend":0,"isfamily":0},{"id":"50504109116","owner":"90408688@N02","secret":"34bd5868e7","server":"65535","farm":66,"title":"Gerygone fusca exsul - Eastern Woodlands Western Gerygone","ispublic":1,"isfriend":0,"isfamily":0},{"id":"50504108431","owner":"90408688@N02","secret":"2013554f62","server":"65535","farm":66,"title":"Gerygone fusca exsul - Eastern Woodlands Western Gerygone","ispublic":1,"isfriend":0,"isfamily":0},{"id":"50240394246","owner":"40195635@N03","secret":"de2b174f68","server":"65535","farm":66,"title":"Western Gerygone (Gerygone fusca)","ispublic":1,"isfriend":0,"isfamily":0},{"id":"50052442108","owner":"16520061@N08","secret":"07c6e0d5d9","server":"65535","farm":66,"title":"Western Gerygone (Gerygone fusca exsul)","ispublic":1,"isfriend":0,"isfamily":0},{"id":"50033107467","owner":"23946780@N08","secret":"790f24d8a9","server":"65535","farm":66,"title":"Western Gerygone (Gerygone fusca)","ispublic":1,"isfriend":0,"isfamily":0},{"id":"49758938881","owner":"164980878@N03","secret":"a57f5bd358","server":"65535","farm":66,"title":"IMG_4250 copy","ispublic":1,"isfriend":0,"isfamily":0},{"id":"48730345322","owner":"146833745@N04","secret":"e294c0c4ef","server":"65535","farm":66,"title":"Western Gerygone (Gerygone fusca)","ispublic":1,"isfriend":0,"isfamily":0},{"id":"48730165606","owner":"146833745@N04","secret":"a8e43edf7a","server":"65535","farm":66,"title":"Western Gerygone (Gerygone fusca)","ispublic":1,"isfriend":0,"isfamily":0},{"id":"46430757545","owner":"146264908@N07","secret":"3b96547d1b","server":"7905","farm":8,"title":"Gerygone fusca","ispublic":1,"isfriend":0,"isfamily":0},{"id":"47235131392","owner":"151677249@N08","secret":"0a885f876b","server":"7903","farm":8,"title":"Western Gerygone (Gerygone fusca)","ispublic":1,"isfriend":0,"isfamily":0},{"id":"43253628274","owner":"66716461@N04","secret":"d2bc25e920","server":"1814","farm":2,"title":"western gerygone (Gerygone fusca)","ispublic":1,"isfriend":0,"isfamily":0},{"id":"43218289062","owner":"151677249@N08","secret":"dd06fee6b4","server":"1806","farm":2,"title":"Western Gerygone (Gerygone fusca)","ispublic":1,"isfriend":0,"isfamily":0},{"id":"40352717134","owner":"63872681@N03","secret":"569940af95","server":"895","farm":1,"title":"Western Gerygone(Gerygone fusca)","ispublic":1,"isfriend":0,"isfamily":0},{"id":"40735078931","owner":"94646695@N07","secret":"3af9df6f3e","server":"4792","farm":5,"title":"Western Gerygone (Gerygone fusca)","ispublic":1,"isfriend":0,"isfamily":0},{"id":"35050921373","owner":"40337605@N04","secret":"588d3907e7","server":"4235","farm":5,"title":"Western gerygone (Gerygone fusca)","ispublic":1,"isfriend":0,"isfamily":0},{"id":"31364989766","owner":"9765210@N03","secret":"5134d9e12c","server":"5566","farm":6,"title":"Western Gerygone (Gerygone fusca)","ispublic":1,"isfriend":0,"isfamily":0},{"id":"30962431851","owner":"129013862@N04","secret":"fd9aef886a","server":"5695","farm":6,"title":"Western Gerygone (Gerygone fusca)","ispublic":1,"isfriend":0,"isfamily":0},{"id":"30253862914","owner":"31177562@N07","secret":"664ec58d73","server":"5464","farm":6,"title":"Western Gerygone","ispublic":1,"isfriend":0,"isfamily":0},{"id":"30362481426","owner":"78247220@N08","secret":"6c35bb5ba4","server":"7771","farm":8,"title":"Gerygone fusca","ispublic":1,"isfriend":0,"isfamily":0},{"id":"29768237044","owner":"78247220@N08","secret":"b8c7496277","server":"5598","farm":6,"title":"Gerygone fusca","ispublic":1,"isfriend":0,"isfamily":0},{"id":"30362479486","owner":"78247220@N08","secret":"76af2e71c6","server":"8557","farm":9,"title":"Gerygone fusca","ispublic":1,"isfriend":0,"isfamily":0},{"id":"30362477996","owner":"78247220@N08","secret":"a06e0c76ee","server":"8136","farm":9,"title":"Gerygone fusca","ispublic":1,"isfriend":0,"isfamily":0},{"id":"27196948061","owner":"7942071@N02","secret":"4347e3e7d8","server":"7481","farm":8,"title":"Western Gerygone","ispublic":1,"isfriend":0,"isfamily":0},{"id":"25462650226","owner":"14867000@N00","secret":"e588da903e","server":"1662","farm":2,"title":"Western Gerygone Nest","ispublic":1,"isfriend":0,"isfamily":0},{"id":"25162297465","owner":"78247220@N08","secret":"fed2ebe4c6","server":"1604","farm":2,"title":"Gerygone fusca","ispublic":1,"isfriend":0,"isfamily":0},{"id":"22563726265","owner":"63872681@N03","secret":"bd491eeb1b","server":"694","farm":1,"title":"Western Gerygone (Gerygone fusca)","ispublic":1,"isfriend":0,"isfamily":0},{"id":"22563726275","owner":"63872681@N03","secret":"e959f54387","server":"5736","farm":6,"title":"Western Gerygone (Gerygone fusca)","ispublic":1,"isfriend":0,"isfamily":0},{"id":"22161141620","owner":"63872681@N03","secret":"f4a37e0f6a","server":"5785","farm":6,"title":"Western Gerygone (Gerygone fusca","ispublic":1,"isfriend":0,"isfamily":0},{"id":"16979615387","owner":"40090747@N05","secret":"886c907304","server":"8700","farm":9,"title":"Western Gerygone, Gerygone fusca","ispublic":1,"isfriend":0,"isfamily":0},{"id":"14133935130","owner":"66733228@N03","secret":"cdaf2481f9","server":"5031","farm":6,"title":"IMG_7697(E) Western Gerygone (Gerygone fusca)","ispublic":1,"isfriend":0,"isfamily":0},{"id":"14317191221","owner":"66733228@N03","secret":"f0cf03cbd4","server":"2897","farm":3,"title":"IMG_7701(E) Western Gerygone (Gerygone fusca)","ispublic":1,"isfriend":0,"isfamily":0},{"id":"14320507195","owner":"66733228@N03","secret":"c4f088cb86","server":"2903","farm":3,"title":"IMG_7702(E) Western Gerygone (Gerygone fusca)","ispublic":1,"isfriend":0,"isfamily":0}]},"stat":"ok"}