{"photos":{"page":1,"pages":108,"perpage":100,"total":10773,"photo":[{"id":"52721239506","owner":"77128742@N06","secret":"c9754f7785","server":"65535","farm":66,"title":"Sibirischer Brachvogel_Numenius phaeopus variegatus-1","ispublic":1,"isfriend":0,"isfamily":0},{"id":"52715600883","owner":"38242794@N02","secret":"161177ed4d","server":"65535","farm":66,"title":"Sp\u00f3i - Whimbrel - Numenius phaeopus","ispublic":1,"isfriend":0,"isfamily":0},{"id":"52712691959","owner":"110762674@N07","secret":"ea57f803dc","server":"65535","farm":66,"title":"sm\u00e5spove-27","ispublic":1,"isfriend":0,"isfamily":0},{"id":"52712691839","owner":"110762674@N07","secret":"45285e29a9","server":"65535","farm":66,"title":"sm\u00e5spove-28","ispublic":1,"isfriend":0,"isfamily":0},{"id":"52712691654","owner":"110762674@N07","secret":"09c3b580a2","server":"65535","farm":66,"title":"sm\u00e5spove-29","ispublic":1,"isfriend":0,"isfamily":0},{"id":"52706030192","owner":"12127594@N00","secret":"730ede910b","server":"65535","farm":66,"title":"Common Whimbrel","ispublic":1,"isfriend":0,"isfamily":0},{"id":"52701604413","owner":"88593217@N04","secret":"cb40c73e30","server":"65535","farm":66,"title":"Whimbrel, Toubakouta, Senegal, January 2014","ispublic":1,"isfriend":0,"isfamily":0},{"id":"52700203644","owner":"42388593@N04","secret":"02bd7f62b9","server":"65535","farm":66,"title":"Lille regnspove, Whimbrel, Regenbrachvogel (Numenius phaeopus)-9914","ispublic":1,"isfriend":0,"isfamily":0},{"id":"52699487709","owner":"132165466@N08","secret":"ba2b29a9a1","server":"65535","farm":66,"title":"Whimbrel","ispublic":1,"isfriend":0,"isfamily":0},{"id":"52697967082","owner":"89367133@N00","secret":"13220a049e","server":"65535","farm":66,"title":"Courlis corlieu hudsonicus (Numenius phaeopus).","ispublic":1,"isfriend":0,"isfamily":0},{"id":"52695064467","owner":"62043870@N05","secret":"77cf99c034","server":"65535","farm":66,"title":"Whimbrel, Numenius phaeopus","ispublic":1,"isfriend":0,"isfamily":0},{"id":"52694701708","owner":"47835705@N04","secret":"00d6a34080","server":"65535","farm":66,"title":"Zarapito Trinador - Whimbrel (Numenius phaeopus hudsonicus) Lima, Per\u00fa","ispublic":1,"isfriend":0,"isfamily":0},{"id":"52686267750","owner":"62043870@N05","secret":"c936a5e5fd","server":"65535","farm":66,"title":"Whimbrel, Numenius phaeopus","ispublic":1,"isfriend":0,"isfamily":0},{"id":"52679261819","owner":"191391950@N02","secret":"f2f640ec76","server":"65535","farm":66,"title":"Courlis corlieu - Numenius phaeopus","ispublic":1,"isfriend":0,"isfamily":0},{"id":"52679151914","owner":"191391950@N02","secret":"0c5ce934ec","server":"65535","farm":66,"title":"Courlis corlieu - Numenius phaeopus","ispublic":1,"isfriend":0,"isfamily":0},{"id":"52677853425","owner":"197653711@N02","secret":"b60dde0d3f","server":"65535","farm":66,"title":"Zarapito trinador\u200b \/ The Eurasian or common whimbrel (Numenius phaeopus)","ispublic":1,"isfriend":0,"isfamily":0},{"id":"52667728447","owner":"14734088@N02","secret":"4286d52134","server":"65535","farm":66,"title":"Courlis corlieu 210909H6a","ispublic":1,"isfriend":0,"isfamily":0},{"id":"52668468429","owner":"54100598@N08","secret":"3e65b6b26a","server":"65535","farm":66,"title":"Curlew (Numenius arquata) & Whimbrel (Numenius phaeopus)","ispublic":1,"isfriend":0,"isfamily":0},{"id":"52668616080","owner":"54100598@N08","secret":"dd5d0bb94f","server":"65535","farm":66,"title":"Curlew (Numenius arquata) & Whimbrel (Numenius phaeopus)","ispublic":1,"isfriend":0,"isfamily":0},{"id":"52668179951","owner":"54100598@N08","secret":"3cceb232e3","server":"65535","farm":66,"title":"Curlew (Numenius arquata) & Whimbrel (Numenius phaeopus)","ispublic":1,"isfriend":0,"isfamily":0},{"id":"52668468379","owner":"54100598@N08","secret":"985772221e","server":"65535","farm":66,"title":"Curlew (Numenius arquata) & Whimbrel (Numenius phaeopus)","ispublic":1,"isfriend":0,"isfamily":0},{"id":"52668680903","owner":"54100598@N08","secret":"245cf5fef2","server":"65535","farm":66,"title":"Curlew (Numenius arquata) & Whimbrel (Numenius phaeopus)","ispublic":1,"isfriend":0,"isfamily":0},{"id":"52668616030","owner":"54100598@N08","secret":"7a63802474","server":"65535","farm":66,"title":"Curlew (Numenius arquata) & Whimbrel (Numenius phaeopus)","ispublic":1,"isfriend":0,"isfamily":0},{"id":"52668179911","owner":"54100598@N08","secret":"feeabce895","server":"65535","farm":66,"title":"Curlew (Numenius arquata) & Whimbrel (Numenius phaeopus)","ispublic":1,"isfriend":0,"isfamily":0},{"id":"52663984000","owner":"12639178@N07","secret":"67554dba14","server":"65535","farm":66,"title":"Regenbrachvogel c","ispublic":1,"isfriend":0,"isfamily":0},{"id":"52663546991","owner":"12639178@N07","secret":"ceb3888c81","server":"65535","farm":66,"title":"Regenbrachvogel b","ispublic":1,"isfriend":0,"isfamily":0},{"id":"52663044067","owner":"12639178@N07","secret":"aa98ef856e","server":"65535","farm":66,"title":"Regenbrachvogel","ispublic":1,"isfriend":0,"isfamily":0},{"id":"52662701245","owner":"107784905@N04","secret":"c930b81648","server":"65535","farm":66,"title":"Courlis corlieu - Tortuguero\/Lim\u00f3n\/Costa Rica_20211124_111","ispublic":1,"isfriend":0,"isfamily":0},{"id":"52656605399","owner":"12639178@N07","secret":"e3c0a0b07d","server":"65535","farm":66,"title":"Regenbrachvogel,El Medano, Teneriffa","ispublic":1,"isfriend":0,"isfamily":0},{"id":"52656758200","owner":"12639178@N07","secret":"80fe1dab6f","server":"65535","farm":66,"title":"Regenbrachvogel, El Medano, Teneriffa","ispublic":1,"isfriend":0,"isfamily":0},{"id":"52653216691","owner":"132165466@N08","secret":"acd85a60c2","server":"65535","farm":66,"title":"Whimbrel","ispublic":1,"isfriend":0,"isfamily":0},{"id":"52651592439","owner":"62043870@N05","secret":"5e99d9d8af","server":"65535","farm":66,"title":"Whimbrel, Numenius phaeopus","ispublic":1,"isfriend":0,"isfamily":0},{"id":"52651684223","owner":"132165466@N08","secret":"df9a808d11","server":"65535","farm":66,"title":"Whimbrel","ispublic":1,"isfriend":0,"isfamily":0},{"id":"52650234862","owner":"134610359@N02","secret":"66ff704b0b","server":"65535","farm":66,"title":"Ma\u00e7arico-galego - DSCF3566","ispublic":1,"isfriend":0,"isfamily":0},{"id":"52650234732","owner":"134610359@N02","secret":"9641768042","server":"65535","farm":66,"title":"Ma\u00e7arico-galego - DSCF3574","ispublic":1,"isfriend":0,"isfamily":0},{"id":"52650234597","owner":"134610359@N02","secret":"22a6c4d00c","server":"65535","farm":66,"title":"Ma\u00e7arico-galego - DSCF3584","ispublic":1,"isfriend":0,"isfamily":0},{"id":"52651171995","owner":"134610359@N02","secret":"bee240d6f7","server":"65535","farm":66,"title":"Ma\u00e7arico-galego - DSCF3591","ispublic":1,"isfriend":0,"isfamily":0},{"id":"52650234252","owner":"134610359@N02","secret":"b98d69d079","server":"65535","farm":66,"title":"Ma\u00e7arico-galego - DSCF3609","ispublic":1,"isfriend":0,"isfamily":0},{"id":"52650472301","owner":"37203410@N07","secret":"9ae9a704d5","server":"65535","farm":66,"title":"Zarapito com\u00fan \/ Numenius phaeopus","ispublic":1,"isfriend":0,"isfamily":0},{"id":"52650742539","owner":"37203410@N07","secret":"b54c089c42","server":"65535","farm":66,"title":"Zarapito com\u00fan \/ Numenius phaeopus","ispublic":1,"isfriend":0,"isfamily":0},{"id":"52650199764","owner":"132001260@N04","secret":"d96913e094","server":"65535","farm":66,"title":"Courlis corlieu sur la plage","ispublic":1,"isfriend":0,"isfamily":0},{"id":"52648367217","owner":"14865557@N04","secret":"9c5c812265","server":"65535","farm":66,"title":"Whimbrel_5077","ispublic":1,"isfriend":0,"isfamily":0},{"id":"52648702679","owner":"76288515@N07","secret":"4a373d5fe1","server":"65535","farm":66,"title":"Whimbrel Numenius phaeopus","ispublic":1,"isfriend":0,"isfamily":0},{"id":"52648880180","owner":"76288515@N07","secret":"de90fa381f","server":"65535","farm":66,"title":"Whimbrel Numenius phaeopus","ispublic":1,"isfriend":0,"isfamily":0},{"id":"52648880155","owner":"76288515@N07","secret":"67eae4ac25","server":"65535","farm":66,"title":"Whimbrel Numenius phaeopus","ispublic":1,"isfriend":0,"isfamily":0},{"id":"52648436501","owner":"76288515@N07","secret":"eef3f7a6b1","server":"65535","farm":66,"title":"Whimbrel Numenius phaeopus","ispublic":1,"isfriend":0,"isfamily":0},{"id":"52648922198","owner":"76288515@N07","secret":"7691c222f0","server":"65535","farm":66,"title":"Whimbrel Numenius phaeopus","ispublic":1,"isfriend":0,"isfamily":0},{"id":"52647938392","owner":"76288515@N07","secret":"daa6b5ee8c","server":"65535","farm":66,"title":"Whimbrel Numenius phaeopus","ispublic":1,"isfriend":0,"isfamily":0},{"id":"52648922108","owner":"76288515@N07","secret":"5d007429cd","server":"65535","farm":66,"title":"Whimbrel Numenius phaeopus","ispublic":1,"isfriend":0,"isfamily":0},{"id":"52647938312","owner":"76288515@N07","secret":"f6dca177cd","server":"65535","farm":66,"title":"Whimbrel Numenius phaeopus","ispublic":1,"isfriend":0,"isfamily":0},{"id":"52648702079","owner":"76288515@N07","secret":"936bbfcfb9","server":"65535","farm":66,"title":"Whimbrel Numenius phaeopus","ispublic":1,"isfriend":0,"isfamily":0},{"id":"52647938212","owner":"76288515@N07","secret":"d8366b4f5b","server":"65535","farm":66,"title":"Whimbrel Numenius phaeopus","ispublic":1,"isfriend":0,"isfamily":0},{"id":"52648921933","owner":"76288515@N07","secret":"50e608e8c0","server":"65535","farm":66,"title":"Whimbrel Numenius phaeopus","ispublic":1,"isfriend":0,"isfamily":0},{"id":"52648879515","owner":"76288515@N07","secret":"d177effc56","server":"65535","farm":66,"title":"Whimbrel Numenius phaeopus","ispublic":1,"isfriend":0,"isfamily":0},{"id":"52648705353","owner":"163667952@N05","secret":"5af01a9e88","server":"65535","farm":66,"title":"Whimbrel","ispublic":1,"isfriend":0,"isfamily":0},{"id":"52647580276","owner":"62043870@N05","secret":"5f4472d110","server":"65535","farm":66,"title":"Whimbrel, Numenius phaeopus","ispublic":1,"isfriend":0,"isfamily":0},{"id":"52646747251","owner":"65921121@N03","secret":"49881c6e40","server":"65535","farm":66,"title":"zarapito trinador","ispublic":1,"isfriend":0,"isfamily":0},{"id":"52644922804","owner":"8013969@N03","secret":"4e2d8d0021","server":"65535","farm":66,"title":"Numenius phaeopus DFL nj22-1","ispublic":1,"isfriend":0,"isfamily":0},{"id":"52642433190","owner":"14734088@N02","secret":"d5601e23ba","server":"65535","farm":66,"title":"Courlis corlieu 210909H3a","ispublic":1,"isfriend":0,"isfamily":0},{"id":"52639447690","owner":"21203649@N04","secret":"5531cc4c4c","server":"65535","farm":66,"title":"IMG_0917 Numenius phaeopus zarapito trinador","ispublic":1,"isfriend":0,"isfamily":0},{"id":"52637800886","owner":"8065544@N08","secret":"607e7f0786","server":"65535","farm":66,"title":"Whimbrel (Numenius phaeops)","ispublic":1,"isfriend":0,"isfamily":0},{"id":"52636538001","owner":"37203410@N07","secret":"3760a68830","server":"65535","farm":66,"title":"Zarapito com\u00fan \/ Numenius phaeopus","ispublic":1,"isfriend":0,"isfamily":0},{"id":"52636974700","owner":"37203410@N07","secret":"a94ea6a043","server":"65535","farm":66,"title":"Zarapito com\u00fan \/ Numenius phaeopus","ispublic":1,"isfriend":0,"isfamily":0},{"id":"52635095113","owner":"151677249@N08","secret":"0813db934b","server":"65535","farm":66,"title":"Whimbrel (Numenius phaeopus)","ispublic":1,"isfriend":0,"isfamily":0},{"id":"52630759092","owner":"191209692@N05","secret":"638fe916fc","server":"65535","farm":66,"title":"Zarapito Trinador - Wimbrel - Numenius phaeopus","ispublic":1,"isfriend":0,"isfamily":0},{"id":"52630759012","owner":"191209692@N05","secret":"e1d2b95807","server":"65535","farm":66,"title":"Zarapito Trinador - Wimbrel - Numenius phaeopus","ispublic":1,"isfriend":0,"isfamily":0},{"id":"52693546577","owner":"17452778@N00","secret":"0d40b2aee8","server":"65535","farm":66,"title":"266A9217dh","ispublic":1,"isfriend":0,"isfamily":0},{"id":"52688640898","owner":"193728923@N07","secret":"0325b64d44","server":"65535","farm":66,"title":"Courlis corlieu (Numenius phaeopus)","ispublic":1,"isfriend":0,"isfamily":0},{"id":"52652723877","owner":"132165466@N08","secret":"a8c873e235","server":"65535","farm":66,"title":"Whimbrel","ispublic":1,"isfriend":0,"isfamily":0},{"id":"52650224528","owner":"21203649@N04","secret":"c9f6fa2705","server":"65535","farm":66,"title":"IMG_1807 Numenius phaeopus zarapito trinador","ispublic":1,"isfriend":0,"isfamily":0},{"id":"52650224493","owner":"21203649@N04","secret":"13c5abed16","server":"65535","farm":66,"title":"IMG_1810 Numenius phaeopus zarapito trinador","ispublic":1,"isfriend":0,"isfamily":0},{"id":"52650015089","owner":"21203649@N04","secret":"99f9f46bb5","server":"65535","farm":66,"title":"IMG_1808 Numenius phaeopus zarapito trinador","ispublic":1,"isfriend":0,"isfamily":0},{"id":"52650224518","owner":"21203649@N04","secret":"d16d9a4d8f","server":"65535","farm":66,"title":"IMG_1809 Numenius phaeopus zarapito trinador","ispublic":1,"isfriend":0,"isfamily":0},{"id":"52650188055","owner":"21203649@N04","secret":"c0541a9860","server":"65535","farm":66,"title":"IMG_1811 Numenius phaeopus zarapito trinador","ispublic":1,"isfriend":0,"isfamily":0},{"id":"52650015059","owner":"21203649@N04","secret":"e5be13d213","server":"65535","farm":66,"title":"IMG_1812 Numenius phaeopus zarapito trinador","ispublic":1,"isfriend":0,"isfamily":0},{"id":"52649745336","owner":"21203649@N04","secret":"5037756647","server":"65535","farm":66,"title":"IMG_1813 Numenius phaeopus zarapito trinador","ispublic":1,"isfriend":0,"isfamily":0},{"id":"52650188035","owner":"21203649@N04","secret":"55f3263286","server":"65535","farm":66,"title":"IMG_1815 Numenius phaeopus zarapito trinador","ispublic":1,"isfriend":0,"isfamily":0},{"id":"52649250472","owner":"21203649@N04","secret":"40aa3075c0","server":"65535","farm":66,"title":"IMG_1816 Numenius phaeopus zarapito trinador","ispublic":1,"isfriend":0,"isfamily":0},{"id":"52650224233","owner":"21203649@N04","secret":"d5619c2f89","server":"65535","farm":66,"title":"IMG_1814 Numenius phaeopus zarapito trinador","ispublic":1,"isfriend":0,"isfamily":0},{"id":"52644158977","owner":"8013969@N03","secret":"07ba4c61bf","server":"65535","farm":66,"title":"Numenius phaeopus DFL nj22-2","ispublic":1,"isfriend":0,"isfamily":0},{"id":"52638498612","owner":"21203649@N04","secret":"abdbe29191","server":"65535","farm":66,"title":"IMG_0856 Arenaria interpres vuelvepiedras comun Numenius phaeopus zarapito trinador","ispublic":1,"isfriend":0,"isfamily":0},{"id":"52639014576","owner":"21203649@N04","secret":"3de77a59c6","server":"65535","farm":66,"title":"IMG_0895 Numenius phaeopus zarapito trinador","ispublic":1,"isfriend":0,"isfamily":0},{"id":"52639269934","owner":"21203649@N04","secret":"b795f14823","server":"65535","farm":66,"title":"IMG_0899 Numenius phaeopus zarapito trinador","ispublic":1,"isfriend":0,"isfamily":0},{"id":"52639269829","owner":"21203649@N04","secret":"5416522525","server":"65535","farm":66,"title":"IMG_0901 Numenius phaeopus zarapito trinador","ispublic":1,"isfriend":0,"isfamily":0},{"id":"52639014301","owner":"21203649@N04","secret":"d979318479","server":"65535","farm":66,"title":"IMG_0905 Numenius phaeopus zarapito trinador","ispublic":1,"isfriend":0,"isfamily":0},{"id":"52639014261","owner":"21203649@N04","secret":"99c57957cb","server":"65535","farm":66,"title":"IMG_0906 Numenius phaeopus zarapito trinador","ispublic":1,"isfriend":0,"isfamily":0},{"id":"52639269729","owner":"21203649@N04","secret":"725df93175","server":"65535","farm":66,"title":"IMG_0907 Numenius phaeopus zarapito trinador","ispublic":1,"isfriend":0,"isfamily":0},{"id":"52639489948","owner":"21203649@N04","secret":"6d59ebf068","server":"65535","farm":66,"title":"IMG_0908 Numenius phaeopus zarapito trinador","ispublic":1,"isfriend":0,"isfamily":0},{"id":"52639014206","owner":"21203649@N04","secret":"5e6fb0345c","server":"65535","farm":66,"title":"IMG_0910 Numenius phaeopus zarapito trinador","ispublic":1,"isfriend":0,"isfamily":0},{"id":"52639489903","owner":"21203649@N04","secret":"51bc4c159b","server":"65535","farm":66,"title":"IMG_0911 Numenius phaeopus zarapito trinador","ispublic":1,"isfriend":0,"isfamily":0},{"id":"52639489888","owner":"21203649@N04","secret":"56c2684730","server":"65535","farm":66,"title":"IMG_0912 Numenius phaeopus zarapito trinador","ispublic":1,"isfriend":0,"isfamily":0},{"id":"52639269624","owner":"21203649@N04","secret":"a45e695ccb","server":"65535","farm":66,"title":"IMG_0914 Numenius phaeopus zarapito trinador","ispublic":1,"isfriend":0,"isfamily":0},{"id":"52639447670","owner":"21203649@N04","secret":"915139de19","server":"65535","farm":66,"title":"IMG_0918 Numenius phaeopus zarapito trinador","ispublic":1,"isfriend":0,"isfamily":0},{"id":"52639489763","owner":"21203649@N04","secret":"a36d7d301a","server":"65535","farm":66,"title":"IMG_0920 Numenius phaeopus zarapito trinador","ispublic":1,"isfriend":0,"isfamily":0},{"id":"52639269549","owner":"21203649@N04","secret":"fa65c0f269","server":"65535","farm":66,"title":"IMG_0921 Numenius phaeopus zarapito trinador","ispublic":1,"isfriend":0,"isfamily":0},{"id":"52639447630","owner":"21203649@N04","secret":"4cd61ee2c2","server":"65535","farm":66,"title":"IMG_0922 Numenius phaeopus zarapito trinador","ispublic":1,"isfriend":0,"isfamily":0},{"id":"52639013981","owner":"21203649@N04","secret":"05ef2ed227","server":"65535","farm":66,"title":"IMG_0926 Numenius phaeopus zarapito trinador","ispublic":1,"isfriend":0,"isfamily":0},{"id":"52639269489","owner":"21203649@N04","secret":"85cce94245","server":"65535","farm":66,"title":"IMG_0926-2 Numenius phaeopus zarapito trinador","ispublic":1,"isfriend":0,"isfamily":0},{"id":"52639447325","owner":"21203649@N04","secret":"433014f42a","server":"65535","farm":66,"title":"IMG_0902 Numenius phaeopus zarapito trinador","ispublic":1,"isfriend":0,"isfamily":0},{"id":"52639447315","owner":"21203649@N04","secret":"b4dd6cfe49","server":"65535","farm":66,"title":"IMG_0913 Numenius phaeopus zarapito trinador","ispublic":1,"isfriend":0,"isfamily":0}]},"stat":"ok"}