{"photos":{"page":1,"pages":4,"perpage":100,"total":361,"photo":[{"id":"52673760076","owner":"185671185@N06","secret":"6b9fecd594","server":"65535","farm":66,"title":"Piojito Com\u00fan Serpophaga subcristata - White-crested Tyrannulet","ispublic":1,"isfriend":0,"isfamily":0},{"id":"52669865755","owner":"67306066@N03","secret":"200a9a787d","server":"65535","farm":66,"title":"White-crested Tyrannulet (Serpophaga subcristata)","ispublic":1,"isfriend":0,"isfamily":0},{"id":"52669865540","owner":"67306066@N03","secret":"c872ef5f1b","server":"65535","farm":66,"title":"White-crested Tyrannulet (Serpophaga subcristata)","ispublic":1,"isfriend":0,"isfamily":0},{"id":"52669926408","owner":"67306066@N03","secret":"0acf64d31a","server":"65535","farm":66,"title":"White-crested Tyrannulet (Serpophaga subcristata)","ispublic":1,"isfriend":0,"isfamily":0},{"id":"52338714136","owner":"87727332@N08","secret":"e00b316095","server":"65535","farm":66,"title":"Alegria (Serpophaga subcristata)","ispublic":1,"isfriend":0,"isfamily":0},{"id":"52336351347","owner":"80648919@N08","secret":"fa8f143575","server":"65535","farm":66,"title":"White-crested Tyrannulet","ispublic":1,"isfriend":0,"isfamily":0},{"id":"52265066678","owner":"129593667@N03","secret":"f97a51f53d","server":"65535","farm":66,"title":"White-crested Tyrannulet - Alegrinho","ispublic":1,"isfriend":0,"isfamily":0},{"id":"51879629449","owner":"47835705@N04","secret":"5c7465a374","server":"65535","farm":66,"title":"Tiquitiqui Comu\u0301n - White-crtested Tyrannulet (Serpophaga subcristata) San Jos\u00e9, Uruguay","ispublic":1,"isfriend":0,"isfamily":0},{"id":"51335332824","owner":"84237742@N00","secret":"68d0b23af8","server":"65535","farm":66,"title":"PIOJITO COMUN (Serpophaga subcristata- White-crested tyrannulet ) toma en reserva ecologica costanera sur .recs. Argentina.","ispublic":1,"isfriend":0,"isfamily":0},{"id":"51255882391","owner":"190911304@N02","secret":"d05b851d66","server":"65535","farm":66,"title":"Piojito com\u00fan (Serpophaga subcristata).jpg","ispublic":1,"isfriend":0,"isfamily":0},{"id":"50947462376","owner":"143807275@N04","secret":"268f21e151","server":"65535","farm":66,"title":"Piojito Com\u00fan - Serpophaga subcristata","ispublic":1,"isfriend":0,"isfamily":0},{"id":"50347375703","owner":"37934762@N02","secret":"29fddb3ee1","server":"65535","farm":66,"title":"White-crested Tyrannulet - Serpophaga subcristata","ispublic":1,"isfriend":0,"isfamily":0},{"id":"50182588893","owner":"188451439@N02","secret":"64b925e941","server":"65535","farm":66,"title":"White-crested Tyrannulet (Serpophaga subcristata)","ispublic":1,"isfriend":0,"isfamily":0},{"id":"50183131941","owner":"188451439@N02","secret":"31a18fba44","server":"65535","farm":66,"title":"White-crested Tyrannulet (Serpophaga subcristata)","ispublic":1,"isfriend":0,"isfamily":0},{"id":"50087776323","owner":"185853379@N08","secret":"9763cef9a7","server":"65535","farm":66,"title":"Alegrinho - Serpophaga subcristata","ispublic":1,"isfriend":0,"isfamily":0},{"id":"50050652051","owner":"86585370@N00","secret":"95dcbee550","server":"65535","farm":66,"title":"White-crested Tyrannulet \/\/ Alegrinho","ispublic":1,"isfriend":0,"isfamily":0},{"id":"49957879007","owner":"132463600@N02","secret":"cc5d5f68f7","server":"65535","farm":66,"title":"White-crested Tyrannulet - alegrinho (Serpophaga subcristata)","ispublic":1,"isfriend":0,"isfamily":0},{"id":"49709254558","owner":"132463600@N02","secret":"8d67805bc7","server":"65535","farm":66,"title":"White-crested Tyrannulet - alegrinho (Serpophaga subcristata)","ispublic":1,"isfriend":0,"isfamily":0},{"id":"49510921981","owner":"81124164@N00","secret":"ede424250c","server":"65535","farm":66,"title":"alegrinho (Serpophaga subcristata)  (Vieillot, 1817) Nome em Ingl\u00eas White-crested Tyrannulet","ispublic":1,"isfriend":0,"isfamily":0},{"id":"49465411811","owner":"148760644@N08","secret":"23ffd686cf","server":"65535","farm":66,"title":"Alegrinho (Serpophaga subcristata) - White-crested Tyrannulet","ispublic":1,"isfriend":0,"isfamily":0},{"id":"49420883772","owner":"81126336@N00","secret":"1a255867cc","server":"65535","farm":66,"title":"Alegrinho \/ White-crested Tyrannulet","ispublic":1,"isfriend":0,"isfamily":0},{"id":"48848941251","owner":"84237742@N00","secret":"c3c9099c38","server":"65535","farm":66,"title":"PIOJITO COMUN (Serpophaga subcristata- White-crested tyrannulet ) toma en reserva costanera sur .recs. Argentina.","ispublic":1,"isfriend":0,"isfamily":0},{"id":"48807324021","owner":"8957439@N03","secret":"b48eb1b6de","server":"65535","farm":66,"title":"Alegrinho \/ White-crested Tyrannulet","ispublic":1,"isfriend":0,"isfamily":0},{"id":"48769208077","owner":"183862955@N08","secret":"d46b1d663b","server":"65535","farm":66,"title":"\"Serpophaga subcristata subcristata\" - White-crested Tyrannulet, Wei\u00dfscheitel-Kleintyrann","ispublic":1,"isfriend":0,"isfamily":0},{"id":"48738413586","owner":"44096805@N07","secret":"46c45d9a97","server":"65535","farm":66,"title":"White-crested Tyrannulet (Serpophaga subcristata)","ispublic":1,"isfriend":0,"isfamily":0},{"id":"48733936606","owner":"86585370@N00","secret":"73452f4b56","server":"65535","farm":66,"title":"White-crested Tyrannulet \/\/ Alegrinho","ispublic":1,"isfriend":0,"isfamily":0},{"id":"48018969766","owner":"21061312@N07","secret":"e9122f75d3","server":"65535","farm":66,"title":"Costa-1","ispublic":1,"isfriend":0,"isfamily":0},{"id":"47829035911","owner":"132463600@N02","secret":"2e75b7e8b9","server":"65535","farm":66,"title":"White-crested Tyrannulet - alegrinho (Serpophaga subcristata)","ispublic":1,"isfriend":0,"isfamily":0},{"id":"46743434935","owner":"21182099@N05","secret":"1a076c29f2","server":"65535","farm":66,"title":"White-crested Tyrannulet (Serpophaga subcristata)","ispublic":1,"isfriend":0,"isfamily":0},{"id":"33230899298","owner":"81124164@N00","secret":"12a2c9b39b","server":"7825","farm":8,"title":"alegrinho (Serpophaga subcristata) (Vieillot, 1817) Nome em Ingl\u00eas White-crested Tyrannulet","ispublic":1,"isfriend":0,"isfamily":0},{"id":"47018601892","owner":"132877456@N03","secret":"8375fd1217","server":"7815","farm":8,"title":"Piojito Com\u00fan","ispublic":1,"isfriend":0,"isfamily":0},{"id":"31057526688","owner":"68480943@N06","secret":"0976e65011","server":"1963","farm":2,"title":"Alegrinho (Serpophaga subcristata) White-crested Tyrannulet","ispublic":1,"isfriend":0,"isfamily":0},{"id":"42145330540","owner":"97087315@N03","secret":"34de097619","server":"855","farm":1,"title":"White-crested Tyrannulet (Serpophaga subcristata)","ispublic":1,"isfriend":0,"isfamily":0},{"id":"29769962378","owner":"9202160@N07","secret":"3101bc46ed","server":"854","farm":1,"title":"Piojito comun (Serpophaga subcristata) fondo","ispublic":1,"isfriend":0,"isfamily":0},{"id":"41473394580","owner":"84237742@N00","secret":"c3fec3d365","server":"1767","farm":2,"title":"PIOJITO COMUN (Serpophaga subcristata) toma en reserva costanera sur .recs. Argentina.","ispublic":1,"isfriend":0,"isfamily":0},{"id":"43283144691","owner":"84237742@N00","secret":"5fe564d14d","server":"835","farm":1,"title":"PIOJITO COMUN (Serpophaga subcristata) toma en reserva costanera sur .recs. Argentina.","ispublic":1,"isfriend":0,"isfamily":0},{"id":"29279699938","owner":"144083559@N03","secret":"8bd0eff0f4","server":"1782","farm":2,"title":"Alegrinho","ispublic":1,"isfriend":0,"isfamily":0},{"id":"42503402771","owner":"34327708@N05","secret":"0a5c500b37","server":"1748","farm":2,"title":"Piojito com\u00fan (White-crested tyrannulet) Serpophaga subcristata","ispublic":1,"isfriend":0,"isfamily":0},{"id":"42503401291","owner":"34327708@N05","secret":"545de2ab5c","server":"1724","farm":2,"title":"Piojito com\u00fan (White-crested tyrannulet) Serpophaga subcristata","ispublic":1,"isfriend":0,"isfamily":0},{"id":"42503400601","owner":"34327708@N05","secret":"6cf0a0f7db","server":"1722","farm":2,"title":"Piojito com\u00fan (White-crested tyrannulet) Serpophaga subcristata","ispublic":1,"isfriend":0,"isfamily":0},{"id":"41725834611","owner":"96797555@N03","secret":"ffeda996f3","server":"827","farm":1,"title":"Piojito Com\u00fan (Serpophaga subcristata)","ispublic":1,"isfriend":0,"isfamily":0},{"id":"39145193300","owner":"47835705@N04","secret":"e94a93b0f3","server":"797","farm":1,"title":"Tiqui Tiqui Com\u00fan - White-crested Tyrannulet (Serpophaga subcristata) Montevideo, Uruguay","ispublic":1,"isfriend":0,"isfamily":0},{"id":"39565855132","owner":"127690184@N06","secret":"e30a34eb0b","server":"4762","farm":5,"title":"White-crested Tyrannulet (Serpophaga subcristata) Tiquitiqui com\u00fan","ispublic":1,"isfriend":0,"isfamily":0},{"id":"24934997968","owner":"111026033@N07","secret":"20911f7fed","server":"4551","farm":5,"title":"ALEGRINHO (Serpophaga Subcristata)  12 17 3","ispublic":1,"isfriend":0,"isfamily":0},{"id":"24934990628","owner":"111026033@N07","secret":"a4e88a15ce","server":"4574","farm":5,"title":"ALEGRINHO (Serpophaga Subcristata)  12 17 2","ispublic":1,"isfriend":0,"isfamily":0},{"id":"24934972888","owner":"111026033@N07","secret":"41b29e086c","server":"4546","farm":5,"title":"ALEGRINHO (Serpophaga Subcristata)  12 17 1","ispublic":1,"isfriend":0,"isfamily":0},{"id":"24695655678","owner":"108014784@N04","secret":"89e9b78e0a","server":"4536","farm":5,"title":"Serpophaga subcristata","ispublic":1,"isfriend":0,"isfamily":0},{"id":"52402943436","owner":"195320374@N04","secret":"4056d6905d","server":"65535","farm":66,"title":"PIOJITO TIQUITIQUI o com\u00fan (Serpophaga subcristata) 020_6249-3","ispublic":1,"isfriend":0,"isfamily":0},{"id":"52230349138","owner":"187346531@N05","secret":"f29f79bfee","server":"65535","farm":66,"title":"alegrinho (Serpophaga subcristata)","ispublic":1,"isfriend":0,"isfamily":0},{"id":"52222376278","owner":"77125798@N06","secret":"12220961df","server":"65535","farm":66,"title":"ALEGRINHO, Serpophaga subcristata (Vieillot, 1817)","ispublic":1,"isfriend":0,"isfamily":0},{"id":"52000115105","owner":"195300965@N05","secret":"19d87f4172","server":"65535","farm":66,"title":"\u767d\u51a0\u59ec\u9738\u9e5f(White-crested Tyrannulet (Serpophaga subcristata))","ispublic":1,"isfriend":0,"isfamily":0},{"id":"51999837449","owner":"195300965@N05","secret":"905f6d93d1","server":"65535","farm":66,"title":"\u767d\u51a0\u59ec\u9738\u9e5f(White-crested Tyrannulet (Serpophaga subcristata))","ispublic":1,"isfriend":0,"isfamily":0},{"id":"52000115020","owner":"195300965@N05","secret":"a77550a7d9","server":"65535","farm":66,"title":"\u767d\u51a0\u59ec\u9738\u9e5f(White-crested Tyrannulet (Serpophaga subcristata))","ispublic":1,"isfriend":0,"isfamily":0},{"id":"51999638178","owner":"195300965@N05","secret":"18ce3b7d39","server":"65535","farm":66,"title":"\u767d\u51a0\u59ec\u9738\u9e5f(White-crested Tyrannulet (Serpophaga subcristata))","ispublic":1,"isfriend":0,"isfamily":0},{"id":"51967709571","owner":"187346531@N05","secret":"510427102c","server":"65535","farm":66,"title":"alegrinho (Serpophaga subcristata)","ispublic":1,"isfriend":0,"isfamily":0},{"id":"51918238246","owner":"195124911@N06","secret":"1f8f2f352c","server":"65535","farm":66,"title":"tiquitiqui com\u00fan","ispublic":1,"isfriend":0,"isfamily":0},{"id":"51330601271","owner":"186193378@N07","secret":"c8bd8fc41c","server":"65535","farm":66,"title":"Alegrinho (Serpophaga subcristata) White-crested Tyrannulet","ispublic":1,"isfriend":0,"isfamily":0},{"id":"51281285331","owner":"190051159@N08","secret":"9c2643f45b","server":"65535","farm":66,"title":"Alegrinho","ispublic":1,"isfriend":0,"isfamily":0},{"id":"51140997106","owner":"138967000@N06","secret":"082752bf20","server":"65535","farm":66,"title":"9820","ispublic":1,"isfriend":0,"isfamily":0},{"id":"50806882477","owner":"129812379@N07","secret":"a3f68c9e25","server":"65535","farm":66,"title":"alegrinho (Serpophaga subcristata)","ispublic":1,"isfriend":0,"isfamily":0},{"id":"50406461047","owner":"21182099@N05","secret":"fa98969406","server":"65535","farm":66,"title":"White-crested Tyrannulet (Serpophaga subcristata)","ispublic":1,"isfriend":0,"isfamily":0},{"id":"50052202196","owner":"85949510@N05","secret":"69a58e26a7","server":"65535","farm":66,"title":"Piojito Com\u00fan (Serpophaga subcristata)","ispublic":1,"isfriend":0,"isfamily":0},{"id":"49920838801","owner":"136354582@N02","secret":"e5e8c90170","server":"65535","farm":66,"title":"Serpophaga subcristata","ispublic":1,"isfriend":0,"isfamily":0},{"id":"49902141098","owner":"136354582@N02","secret":"a9c7cf3a11","server":"65535","farm":66,"title":"Serpophaga subcristata","ispublic":1,"isfriend":0,"isfamily":0},{"id":"49549303341","owner":"185671185@N06","secret":"8e043f7b43","server":"65535","farm":66,"title":"Piojito Com\u00fan- White-crested Tyrannulet","ispublic":1,"isfriend":0,"isfamily":0},{"id":"49217750111","owner":"142952595@N08","secret":"e473b8c789","server":"65535","farm":66,"title":"White-crested Tyrannulet","ispublic":1,"isfriend":0,"isfamily":0},{"id":"49172656696","owner":"182381287@N07","secret":"8536abb876","server":"65535","farm":66,"title":"Alegrinho (Serpophaga subcristata)","ispublic":1,"isfriend":0,"isfamily":0},{"id":"48775151652","owner":"158010417@N08","secret":"ac2f51cf48","server":"65535","farm":66,"title":"Piojito com\u00fan - White-crested tyrannulet","ispublic":1,"isfriend":0,"isfamily":0},{"id":"48706697117","owner":"183862955@N08","secret":"eb9fe0057a","server":"65535","farm":66,"title":"\"Serpophaga subcristata subcristata\" - White-crested Tyrannulet, Wei\u00dfscheitel-Kleintyrann","ispublic":1,"isfriend":0,"isfamily":0},{"id":"48692894978","owner":"28440115@N08","secret":"974c063f44","server":"65535","farm":66,"title":"Tempus Fugit","ispublic":1,"isfriend":0,"isfamily":0},{"id":"48688258862","owner":"29170368@N03","secret":"5e89cea40d","server":"65535","farm":66,"title":"White-crested Tyrannulet","ispublic":1,"isfriend":0,"isfamily":0},{"id":"48551505577","owner":"21061312@N07","secret":"4904c57b52","server":"65535","farm":66,"title":"Chiq-2","ispublic":1,"isfriend":0,"isfamily":0},{"id":"48513156797","owner":"28440115@N08","secret":"8f54e20cb3","server":"65535","farm":66,"title":"Shade","ispublic":1,"isfriend":0,"isfamily":0},{"id":"48430313137","owner":"183047776@N07","secret":"594ce9de6c","server":"65535","farm":66,"title":"Piojito com\u00fan -Serpophaga subcristata- (White-crested tyrannulet)","ispublic":1,"isfriend":0,"isfamily":0},{"id":"46398750204","owner":"81124164@N00","secret":"b81fe0e267","server":"7853","farm":8,"title":"alegrinho (Serpophaga subcristata) (Vieillot, 1817) Nome em Ingl\u00eas White-crested Tyrannulet","ispublic":1,"isfriend":0,"isfamily":0},{"id":"46721297421","owner":"76568533@N08","secret":"8367e1ec2b","server":"4849","farm":5,"title":"White-crested Tyranulet - Serpophaga_subcristata - Tyrannidae","ispublic":1,"isfriend":0,"isfamily":0},{"id":"45029801175","owner":"38048846@N07","secret":"cf4f5e89c7","server":"4815","farm":5,"title":"Alegrinho - Serpophaga subcristata - White-crested Tyrannulet.","ispublic":1,"isfriend":0,"isfamily":0},{"id":"45103413701","owner":"131639547@N07","secret":"50f50ed09b","server":"1958","farm":2,"title":"alegrinho (Serpophaga subcristata) - White-crested Tyrannulet","ispublic":1,"isfriend":0,"isfamily":0},{"id":"42217323740","owner":"84237742@N00","secret":"daa42bafe8","server":"1775","farm":2,"title":"- PIOJITO...(Serpophaga subcristata) toma RESERVA COSTANERA NORTE ,BUENOS AIRES","ispublic":1,"isfriend":0,"isfamily":0},{"id":"42217307440","owner":"84237742@N00","secret":"60e50b6c25","server":"1796","farm":2,"title":"- PIOJITO...(Serpophaga subcristata) toma RESERVA COSTANERA NORTE  ,BUENOS AIRES","ispublic":1,"isfriend":0,"isfamily":0},{"id":"41748499270","owner":"156783878@N08","secret":"a354b5c831","server":"930","farm":1,"title":"Piojito com\u00fan","ispublic":1,"isfriend":0,"isfamily":0},{"id":"29634935518","owner":"95758886@N06","secret":"d43920d0eb","server":"1761","farm":2,"title":"Alegrinho (Serpophaga subcristata)_3466 FF","ispublic":1,"isfriend":0,"isfamily":0},{"id":"42732016084","owner":"107784905@N04","secret":"5d0eeb730c","server":"916","farm":1,"title":"Tyranneau \u00e0 toupet - San Sebastian de la Selva\/Misiones\/Argentina_20171107_006-1","ispublic":1,"isfriend":0,"isfamily":0},{"id":"42379512085","owner":"84237742@N00","secret":"6a670b3476","server":"844","farm":1,"title":"PIOJITO COMUN (Serpophaga subcristata) toma en reserva costanera sur .recs. Argentina.","ispublic":1,"isfriend":0,"isfamily":0},{"id":"27951099217","owner":"143881830@N03","secret":"0efae6633d","server":"879","farm":1,"title":"Alegrinho_White-crested Tyrannulet_Serpophaga subcristata","ispublic":1,"isfriend":0,"isfamily":0},{"id":"42503403341","owner":"34327708@N05","secret":"af7ab8d5e3","server":"1760","farm":2,"title":"Piojito com\u00fan (White-crested tyrannulet) Serpophaga subcristata","ispublic":1,"isfriend":0,"isfamily":0},{"id":"40148087792","owner":"159484195@N07","secret":"0bc2655c54","server":"4672","farm":5,"title":"Alegrinho - Serpophaga subcristata - Tyrannidae - Casa - 01-10-2017","ispublic":1,"isfriend":0,"isfamily":0},{"id":"39978741722","owner":"136354582@N02","secret":"78858e782b","server":"4714","farm":5,"title":"Serpophaga subcristata","ispublic":1,"isfriend":0,"isfamily":0},{"id":"39091100285","owner":"10238868@N06","secret":"a7df98f00e","server":"4740","farm":5,"title":"Piojito Com\u00fan (Serpophaga subcristata) White-crested Tyrannulet","ispublic":1,"isfriend":0,"isfamily":0},{"id":"39091098795","owner":"10238868@N06","secret":"27d2e369d6","server":"4656","farm":5,"title":"Piojito Com\u00fan (Serpophaga subcristata) White-crested Tyrannulet","ispublic":1,"isfriend":0,"isfamily":0},{"id":"26060403968","owner":"108014784@N04","secret":"4fe9aa1214","server":"4753","farm":5,"title":"Serpophaga subcristata","ispublic":1,"isfriend":0,"isfamily":0},{"id":"39851391762","owner":"108014784@N04","secret":"5e13a1d1d7","server":"4672","farm":5,"title":"Serpophaga subcristata","ispublic":1,"isfriend":0,"isfamily":0},{"id":"25012010577","owner":"108014784@N04","secret":"1812276df8","server":"4708","farm":5,"title":"Serpophaga subcristata","ispublic":1,"isfriend":0,"isfamily":0},{"id":"39851281132","owner":"108014784@N04","secret":"48bcb1bea9","server":"4761","farm":5,"title":"Serpophaga subcristata","ispublic":1,"isfriend":0,"isfamily":0},{"id":"37861307035","owner":"156072574@N04","secret":"1a06d7ab96","server":"4548","farm":5,"title":"Piojito com\u00fan","ispublic":1,"isfriend":0,"isfamily":0},{"id":"38536061142","owner":"108014784@N04","secret":"14fddf83bc","server":"4580","farm":5,"title":"Serpophaga subcristata","ispublic":1,"isfriend":0,"isfamily":0},{"id":"37731757054","owner":"108014784@N04","secret":"2cc196ee93","server":"4575","farm":5,"title":"Serpophaga subcristata o griseicapilla - PIOJITO COM\u00daN O TRINADOR","ispublic":1,"isfriend":0,"isfamily":0},{"id":"37731754144","owner":"108014784@N04","secret":"fb6671faa3","server":"4553","farm":5,"title":"Serpophaga subcristata o griseicapilla - PIOJITO COM\u00daN O TRINADOR","ispublic":1,"isfriend":0,"isfamily":0},{"id":"26637305639","owner":"140901259@N05","secret":"c519b7d073","server":"4527","farm":5,"title":"Alegrinho","ispublic":1,"isfriend":0,"isfamily":0},{"id":"38083749106","owner":"142173243@N02","secret":"b8152c1199","server":"4532","farm":5,"title":"Alegrinho (Serpophaga subcristata)","ispublic":1,"isfriend":0,"isfamily":0}]},"stat":"ok"}