{"photos":{"page":1,"pages":12,"perpage":100,"total":1168,"photo":[{"id":"52740210885","owner":"183840266@N08","secret":"7fcf3d7614","server":"65535","farm":66,"title":"White-rumped Munia (Lonchura striata swinhoei)","ispublic":1,"isfriend":0,"isfamily":0},{"id":"52740286068","owner":"183840266@N08","secret":"d3e851b735","server":"65535","farm":66,"title":"White-rumped Munia (Lonchura striata swinhoei)","ispublic":1,"isfriend":0,"isfamily":0},{"id":"52740049929","owner":"183840266@N08","secret":"ae61202cf2","server":"65535","farm":66,"title":"White-rumped Munia (Lonchura striata swinhoei)","ispublic":1,"isfriend":0,"isfamily":0},{"id":"52739281727","owner":"183840266@N08","secret":"014094c33b","server":"65535","farm":66,"title":"White-rumped Munia (Lonchura striata swinhoei)","ispublic":1,"isfriend":0,"isfamily":0},{"id":"52739281702","owner":"183840266@N08","secret":"1d42bddd15","server":"65535","farm":66,"title":"White-rumped Munia (Lonchura striata swinhoei)","ispublic":1,"isfriend":0,"isfamily":0},{"id":"52739799526","owner":"183840266@N08","secret":"df8c77bb35","server":"65535","farm":66,"title":"White-rumped Munia (Lonchura striata swinhoei)","ispublic":1,"isfriend":0,"isfamily":0},{"id":"52740210580","owner":"183840266@N08","secret":"68b0610001","server":"65535","farm":66,"title":"White-rumped Munia (Lonchura striata swinhoei)","ispublic":1,"isfriend":0,"isfamily":0},{"id":"52739799421","owner":"183840266@N08","secret":"c8c7d38d20","server":"65535","farm":66,"title":"White-rumped Munia (Lonchura striata swinhoei)","ispublic":1,"isfriend":0,"isfamily":0},{"id":"52739799271","owner":"183840266@N08","secret":"2401fac5b0","server":"65535","farm":66,"title":"White-rumped Munia (Lonchura striata swinhoei)","ispublic":1,"isfriend":0,"isfamily":0},{"id":"52739281387","owner":"183840266@N08","secret":"58708c2aa2","server":"65535","farm":66,"title":"White-rumped Munia (Lonchura striata swinhoei)","ispublic":1,"isfriend":0,"isfamily":0},{"id":"52739281362","owner":"183840266@N08","secret":"664f817d88","server":"65535","farm":66,"title":"White-rumped Munia (Lonchura striata swinhoei)","ispublic":1,"isfriend":0,"isfamily":0},{"id":"52739799171","owner":"183840266@N08","secret":"44d39eef26","server":"65535","farm":66,"title":"White-rumped Munia (Lonchura striata swinhoei)","ispublic":1,"isfriend":0,"isfamily":0},{"id":"52740049399","owner":"183840266@N08","secret":"615d2cfd30","server":"65535","farm":66,"title":"White-rumped Munia (Lonchura striata swinhoei)","ispublic":1,"isfriend":0,"isfamily":0},{"id":"52739798961","owner":"183840266@N08","secret":"439648dbbb","server":"65535","farm":66,"title":"White-rumped Munia (Lonchura striata swinhoei)","ispublic":1,"isfriend":0,"isfamily":0},{"id":"52740285418","owner":"183840266@N08","secret":"904262bc59","server":"65535","farm":66,"title":"White-rumped Munia (Lonchura striata swinhoei)","ispublic":1,"isfriend":0,"isfamily":0},{"id":"52740285368","owner":"183840266@N08","secret":"84c515fb66","server":"65535","farm":66,"title":"White-rumped Munia (Lonchura striata swinhoei)","ispublic":1,"isfriend":0,"isfamily":0},{"id":"52739795021","owner":"183840266@N08","secret":"4cf4007688","server":"65535","farm":66,"title":"White-rumped Munia (Lonchura striata swinhoei)","ispublic":1,"isfriend":0,"isfamily":0},{"id":"52725291449","owner":"67951746@N02","secret":"640671e03a","server":"65535","farm":66,"title":"Lonchura striata | White-rumped munia","ispublic":1,"isfriend":0,"isfamily":0},{"id":"52705569929","owner":"81126336@N00","secret":"1a41d2e062","server":"65535","farm":66,"title":"White-rumped Munia","ispublic":1,"isfriend":0,"isfamily":0},{"id":"52665657596","owner":"169408738@N08","secret":"2c2113fdc1","server":"65535","farm":66,"title":"White-rumped Munia (Lonchura striata) \u767d\u8170\u6587\u9ce5 - 020223_R7C9699x","ispublic":1,"isfriend":0,"isfamily":0},{"id":"52662885330","owner":"192131778@N07","secret":"912bd3bcb2","server":"65535","farm":66,"title":"White-rumped Munia","ispublic":1,"isfriend":0,"isfamily":0},{"id":"52646154161","owner":"96060626@N03","secret":"4ccb119e49","server":"65535","farm":66,"title":"20230109\u767d\u8170\u6587\u9ce5 (34)","ispublic":1,"isfriend":0,"isfamily":0},{"id":"52600224598","owner":"30120110@N02","secret":"98dd293269","server":"65535","farm":66,"title":"White-rumped Munia","ispublic":1,"isfriend":0,"isfamily":0},{"id":"52599703551","owner":"30120110@N02","secret":"1cb00f1cb4","server":"65535","farm":66,"title":"White-rumped Munia","ispublic":1,"isfriend":0,"isfamily":0},{"id":"52544715209","owner":"50307457@N08","secret":"23799cf294","server":"65535","farm":66,"title":"Tansen Birds-35 - Lonchura striata","ispublic":1,"isfriend":0,"isfamily":0},{"id":"52544715174","owner":"50307457@N08","secret":"8a0774fd40","server":"65535","farm":66,"title":"Tansen Birds-36 - Lonchura striata","ispublic":1,"isfriend":0,"isfamily":0},{"id":"52544967933","owner":"50307457@N08","secret":"23f3e8ec3d","server":"65535","farm":66,"title":"Tansen Birds-38 - Lonchura striata","ispublic":1,"isfriend":0,"isfamily":0},{"id":"52543958347","owner":"50307457@N08","secret":"b0c6590b34","server":"65535","farm":66,"title":"Tansen Birds-37 - Lonchura striata","ispublic":1,"isfriend":0,"isfamily":0},{"id":"52481239384","owner":"49272932@N00","secret":"b4e90b163a","server":"65535","farm":66,"title":"White-rumped Munia (Lonchura striata), Nenmeni, Wyanad, Kerala","ispublic":1,"isfriend":0,"isfamily":0},{"id":"52479137497","owner":"50809355@N06","secret":"fc581781ae","server":"65535","farm":66,"title":"Peaceful Dove Geopelia striata Columbidae Surounds The Chestnut-breasted Mannikin Lonchura castaneothorax Urban Darwin","ispublic":1,"isfriend":0,"isfamily":0},{"id":"52422785609","owner":"196426571@N03","secret":"9196bfc621","server":"65535","farm":66,"title":"\u767d\u8170\u6587\u9ce5 Lonchura striata swinhoei","ispublic":1,"isfriend":0,"isfamily":0},{"id":"52331379564","owner":"137111202@N08","secret":"7db598906a","server":"65535","farm":66,"title":"\u767d\u8170\u6587\u9ce5, White-rumped Munia, White-backed Munia, Lonchura striata,","ispublic":1,"isfriend":0,"isfamily":0},{"id":"52193611269","owner":"139959281@N02","secret":"6a5352598c","server":"65535","farm":66,"title":"White-rumped Munia","ispublic":1,"isfriend":0,"isfamily":0},{"id":"52165556565","owner":"7200351@N08","secret":"c8cc657eb9","server":"65535","farm":66,"title":"Lonchura striata subsquamicollis","ispublic":1,"isfriend":0,"isfamily":0},{"id":"52064243123","owner":"195565309@N08","secret":"5952d280b9","server":"65535","farm":66,"title":"White-rumped Munia","ispublic":1,"isfriend":0,"isfamily":0},{"id":"52049920246","owner":"22639527@N05","secret":"20f43348bd","server":"65535","farm":66,"title":"White-rumped Munia,Kandy, Sri Lanka","ispublic":1,"isfriend":0,"isfamily":0},{"id":"52023879010","owner":"29954808@N00","secret":"e90fa4605a","server":"65535","farm":66,"title":"Lonchura striata","ispublic":1,"isfriend":0,"isfamily":0},{"id":"51949348445","owner":"124848818@N07","secret":"5766cf09bc","server":"65535","farm":66,"title":"The white-rumped munia (Lonchura striata)","ispublic":1,"isfriend":0,"isfamily":0},{"id":"51942716814","owner":"188987235@N04","secret":"0a67c1585f","server":"65535","farm":66,"title":"White-rumped munia (Lonchura striata)","ispublic":1,"isfriend":0,"isfamily":0},{"id":"51871625070","owner":"95110413@N03","secret":"786b8c5303","server":"65535","farm":66,"title":"DSC_9410 (White rumped Munia)","ispublic":1,"isfriend":0,"isfamily":0},{"id":"51855569434","owner":"95110413@N03","secret":"bd3b898de7","server":"65535","farm":66,"title":"DSC_9401 (White rumped Munia)","ispublic":1,"isfriend":0,"isfamily":0},{"id":"51854167815","owner":"193443384@N07","secret":"500b77aeac","server":"65535","farm":66,"title":"White-rumped Munia (Lonchura striata)","ispublic":1,"isfriend":0,"isfamily":0},{"id":"51810071750","owner":"30120110@N02","secret":"5033da9ce0","server":"65535","farm":66,"title":"White-rumped Munia","ispublic":1,"isfriend":0,"isfamily":0},{"id":"51808379637","owner":"30120110@N02","secret":"244834835c","server":"65535","farm":66,"title":"White-rumped Munia","ispublic":1,"isfriend":0,"isfamily":0},{"id":"51809689784","owner":"30120110@N02","secret":"a9dc5575b5","server":"65535","farm":66,"title":"White-rumped Munia","ispublic":1,"isfriend":0,"isfamily":0},{"id":"51809289306","owner":"101409655@N07","secret":"2be4b45892","server":"65535","farm":66,"title":"White-rumped Munia - Dec 2021 - 2","ispublic":1,"isfriend":0,"isfamily":0},{"id":"51792507295","owner":"101409655@N07","secret":"3f0b6367ba","server":"65535","farm":66,"title":"White-rumped Munia - Dec 2021","ispublic":1,"isfriend":0,"isfamily":0},{"id":"51785690736","owner":"12639178@N07","secret":"5e73fa3fc9","server":"65535","farm":66,"title":"White-rumped Munia (juvenile) (Lonchura striata)","ispublic":1,"isfriend":0,"isfamily":0},{"id":"51784876052","owner":"12639178@N07","secret":"5ef7e3c508","server":"65535","farm":66,"title":"White-rumped Munia (juvenile) (Lonchura striata)","ispublic":1,"isfriend":0,"isfamily":0},{"id":"51724641232","owner":"102281407@N08","secret":"39dae4e81c","server":"65535","farm":66,"title":"Whire-rumped Munia (Lonchura striata)","ispublic":1,"isfriend":0,"isfamily":0},{"id":"51717511627","owner":"56891930@N05","secret":"c6df2559fc","server":"65535","farm":66,"title":"White-rumped Munia (Lonchura striata) \u767d\u8170\u6587\u9e1f - Kampung Chui Chak Paddyfield \u6c34\u95f8\u7a3b\u7530\u533a, Langkap \u51b7\u7532\u5e02, Daerah Hilir Perak \u4e0b\u9739\u96f3\u53bf, Perak \u9739\u96f3\u5dde, Malaysia \u9a6c\u6765\u897f\u4e9a (4K)","ispublic":1,"isfriend":0,"isfamily":0},{"id":"51418737251","owner":"16863429@N00","secret":"645eec41ab","server":"65535","farm":66,"title":"White-rumped Munia (Lonchura striata) \u767d\u8170\u6587\u9ce5","ispublic":1,"isfriend":0,"isfamily":0},{"id":"51418737201","owner":"16863429@N00","secret":"8a4a1e1bfa","server":"65535","farm":66,"title":"White-rumped Munia (Lonchura striata) \u767d\u8170\u6587\u9ce5","ispublic":1,"isfriend":0,"isfamily":0},{"id":"51417995302","owner":"16863429@N00","secret":"22329bca76","server":"65535","farm":66,"title":"White-rumped Munia (Lonchura striata) \u767d\u8170\u6587\u9ce5","ispublic":1,"isfriend":0,"isfamily":0},{"id":"51399042301","owner":"49272932@N00","secret":"f45042ecb5","server":"65535","farm":66,"title":"White-rumped munia (Lonchura striata), Anjanapura, Bangalore","ispublic":1,"isfriend":0,"isfamily":0},{"id":"51387302287","owner":"14888671@N02","secret":"f5bed486e0","server":"65535","farm":66,"title":"White-rumped Munia","ispublic":1,"isfriend":0,"isfamily":0},{"id":"51333005482","owner":"106773832@N02","secret":"91ae3289af","server":"65535","farm":66,"title":"White-rumped Munia (Lonchura striata)-7639","ispublic":1,"isfriend":0,"isfamily":0},{"id":"51332899930","owner":"31444725@N05","secret":"a0eef70ffe","server":"65535","farm":66,"title":"\u767d\u8170\u6587\u9ce5","ispublic":1,"isfriend":0,"isfamily":0},{"id":"51316188122","owner":"137111202@N08","secret":"378474ca87","server":"65535","farm":66,"title":"\u767d\u8170\u6587\u9ce5, White-rumped Munia, White-backed Munia, Lonchura striata,","ispublic":1,"isfriend":0,"isfamily":0},{"id":"51304504574","owner":"191343261@N02","secret":"678f22d2f6","server":"65535","farm":66,"title":"Lonchura striata","ispublic":1,"isfriend":0,"isfamily":0},{"id":"51267832269","owner":"137111202@N08","secret":"8af491fa01","server":"65535","farm":66,"title":"\u767d\u8170\u6587\u9ce5, White-rumped Munia, White-backed Munia, Lonchura striata,","ispublic":1,"isfriend":0,"isfamily":0},{"id":"51249116419","owner":"95110413@N03","secret":"d59c8acbf7","server":"65535","farm":66,"title":"DSC_6726 (White rumped Munia)","ispublic":1,"isfriend":0,"isfamily":0},{"id":"51238229004","owner":"37180297@N08","secret":"2a2a36b261","server":"0","farm":0,"title":"ESN_2551_x264 (2) Lonchura striata swinhoei","ispublic":1,"isfriend":0,"isfamily":0},{"id":"51237454706","owner":"37180297@N08","secret":"52f8ec5b56","server":"0","farm":0,"title":"ESN_2551_x264 Lonchura striata swinhoei","ispublic":1,"isfriend":0,"isfamily":0},{"id":"51237660458","owner":"37180297@N08","secret":"9063199093","server":"0","farm":0,"title":"ESN_2550_x264 Lonchura striata swinhoei","ispublic":1,"isfriend":0,"isfamily":0},{"id":"51238511725","owner":"37180297@N08","secret":"fa444d8dd3","server":"0","farm":0,"title":"ESN_2570_x264 Lonchura striata swinhoei","ispublic":1,"isfriend":0,"isfamily":0},{"id":"51238244864","owner":"37180297@N08","secret":"1793383906","server":"65535","farm":66,"title":"_ESP2641 Lonchura striata swinhoei","ispublic":1,"isfriend":0,"isfamily":0},{"id":"51237674863","owner":"37180297@N08","secret":"4f17b82c21","server":"65535","farm":66,"title":"_ESP2642 Lonchura striata swinhoei","ispublic":1,"isfriend":0,"isfamily":0},{"id":"51238530920","owner":"37180297@N08","secret":"34363e6ab9","server":"65535","farm":66,"title":"_ESP2651 Lonchura striata swinhoei","ispublic":1,"isfriend":0,"isfamily":0},{"id":"51237674388","owner":"37180297@N08","secret":"c1ac49241f","server":"65535","farm":66,"title":"_ESP2654 Lonchura striata swinhoei","ispublic":1,"isfriend":0,"isfamily":0},{"id":"51237470366","owner":"37180297@N08","secret":"0a7121e775","server":"65535","farm":66,"title":"_ESP2411 Lonchura striata swinhoei","ispublic":1,"isfriend":0,"isfamily":0},{"id":"51238530270","owner":"37180297@N08","secret":"284cb784d1","server":"65535","farm":66,"title":"_ESP2412 Lonchura striata swinhoei","ispublic":1,"isfriend":0,"isfamily":0},{"id":"51236757342","owner":"37180297@N08","secret":"1bddffc09a","server":"65535","farm":66,"title":"_ESP2425 Lonchura striata swinhoei","ispublic":1,"isfriend":0,"isfamily":0},{"id":"51237672688","owner":"37180297@N08","secret":"2beee70306","server":"65535","farm":66,"title":"_ESP2430 Lonchura striata swinhoei","ispublic":1,"isfriend":0,"isfamily":0},{"id":"51236756397","owner":"37180297@N08","secret":"fb9b5d066e","server":"65535","farm":66,"title":"_ESP2431 Lonchura striata swinhoei","ispublic":1,"isfriend":0,"isfamily":0},{"id":"51238528405","owner":"37180297@N08","secret":"4866cd4dce","server":"65535","farm":66,"title":"_ESP2436 Lonchura striata swinhoei","ispublic":1,"isfriend":0,"isfamily":0},{"id":"51238241654","owner":"37180297@N08","secret":"e081fbaccf","server":"65535","farm":66,"title":"_ESP2437 Lonchura striata swinhoei","ispublic":1,"isfriend":0,"isfamily":0},{"id":"51236755592","owner":"37180297@N08","secret":"700aaa7bd6","server":"65535","farm":66,"title":"_ESP2438 Lonchura striata swinhoei","ispublic":1,"isfriend":0,"isfamily":0},{"id":"51236755257","owner":"37180297@N08","secret":"89a2e98d58","server":"65535","farm":66,"title":"_ESP2443 Lonchura striata swinhoei","ispublic":1,"isfriend":0,"isfamily":0},{"id":"52739281677","owner":"183840266@N08","secret":"b66f44a3b4","server":"65535","farm":66,"title":"White-rumped Munia (Lonchura striata swinhoei)","ispublic":1,"isfriend":0,"isfamily":0},{"id":"52740285623","owner":"183840266@N08","secret":"7841794878","server":"65535","farm":66,"title":"White-rumped Munia (Lonchura striata swinhoei)","ispublic":1,"isfriend":0,"isfamily":0},{"id":"52212778483","owner":"45473917@N07","secret":"70aee6f55a","server":"65535","farm":66,"title":"White-rumped Munia (Lonchura striata) @ Taichung, Taiwan_20200112_0198","ispublic":1,"isfriend":0,"isfamily":0},{"id":"52165074148","owner":"7200351@N08","secret":"f77552cb67","server":"65535","farm":66,"title":"Lonchura striata subsquamicollis","ispublic":1,"isfriend":0,"isfamily":0},{"id":"52165069516","owner":"7200351@N08","secret":"2951b9c5e6","server":"65535","farm":66,"title":"Lonchura striata subsquamicollis","ispublic":1,"isfriend":0,"isfamily":0},{"id":"51707690061","owner":"14888671@N02","secret":"00f0404b1a","server":"65535","farm":66,"title":"White-rumped Munia","ispublic":1,"isfriend":0,"isfamily":0},{"id":"51238835367","owner":"184662465@N04","secret":"7744a83097","server":"65535","farm":66,"title":"\u0e19\u0e01\u0e01\u0e23\u0e30\u0e15\u0e34\u0e4a\u0e14\u0e15\u0e30\u0e42\u0e1e\u0e01\u0e02\u0e32\u0e27 ( White-rumped Munia)","ispublic":1,"isfriend":0,"isfamily":0},{"id":"51237658773","owner":"37180297@N08","secret":"a32e3bd4c6","server":"0","farm":0,"title":"ESN_2552_x264 Lonchura striata swinhoei","ispublic":1,"isfriend":0,"isfamily":0},{"id":"51238227939","owner":"37180297@N08","secret":"d77c875947","server":"0","farm":0,"title":"ESN_2570_x264 (2) Lonchura striata swinhoei","ispublic":1,"isfriend":0,"isfamily":0},{"id":"51237660188","owner":"37180297@N08","secret":"fdf8ce92be","server":"0","farm":0,"title":"ESN_2550_x264_001 Lonchura striata swinhoei","ispublic":1,"isfriend":0,"isfamily":0},{"id":"51236742627","owner":"37180297@N08","secret":"f061bc0944","server":"0","farm":0,"title":"ESN_2552_x264 (2) Lonchura striata swinhoei","ispublic":1,"isfriend":0,"isfamily":0},{"id":"51238244704","owner":"37180297@N08","secret":"8b166dece1","server":"65535","farm":66,"title":"_ESP2645 Lonchura striata swinhoei","ispublic":1,"isfriend":0,"isfamily":0},{"id":"51237470961","owner":"37180297@N08","secret":"c45240c3d4","server":"65535","farm":66,"title":"_ESP2646 Lonchura striata swinhoei","ispublic":1,"isfriend":0,"isfamily":0},{"id":"51238530855","owner":"37180297@N08","secret":"f93a53af81","server":"65535","farm":66,"title":"_ESP2652 Lonchura striata swinhoei","ispublic":1,"isfriend":0,"isfamily":0},{"id":"51238244104","owner":"37180297@N08","secret":"bb626e5e7c","server":"65535","farm":66,"title":"_ESP2665 Lonchura striata swinhoei","ispublic":1,"isfriend":0,"isfamily":0},{"id":"51238530170","owner":"37180297@N08","secret":"94389dc855","server":"65535","farm":66,"title":"_ESP2415 Lonchura striata swinhoei","ispublic":1,"isfriend":0,"isfamily":0},{"id":"51237673803","owner":"37180297@N08","secret":"ef27b50235","server":"65535","farm":66,"title":"_ESP2416 Lonchura striata swinhoei","ispublic":1,"isfriend":0,"isfamily":0},{"id":"51238529820","owner":"37180297@N08","secret":"a07bdbd1b1","server":"65535","farm":66,"title":"_ESP2422 Lonchura striata swinhoei","ispublic":1,"isfriend":0,"isfamily":0},{"id":"51237469696","owner":"37180297@N08","secret":"96441eb8f2","server":"65535","farm":66,"title":"_ESP2424 Lonchura striata swinhoei","ispublic":1,"isfriend":0,"isfamily":0},{"id":"51237469261","owner":"37180297@N08","secret":"ef66ba8748","server":"65535","farm":66,"title":"_ESP2427 Lonchura striata swinhoei","ispublic":1,"isfriend":0,"isfamily":0},{"id":"51238528490","owner":"37180297@N08","secret":"b7c0924331","server":"65535","farm":66,"title":"_ESP2435 Lonchura striata swinhoei","ispublic":1,"isfriend":0,"isfamily":0}]},"stat":"ok"}