{"photos":{"page":1,"pages":17,"perpage":100,"total":1606,"photo":[{"id":"52689387772","owner":"33610210@N05","secret":"51d0f4951b","server":"65535","farm":66,"title":"White-eyed Vireo, Vireo griseus","ispublic":1,"isfriend":0,"isfamily":0},{"id":"52678241333","owner":"33610210@N05","secret":"5bdb617042","server":"65535","farm":66,"title":"White-eyed Vireo, Vireo griseus","ispublic":1,"isfriend":0,"isfamily":0},{"id":"52668052210","owner":"33610210@N05","secret":"c2649f132d","server":"65535","farm":66,"title":"White-eyed Vireo, Vireo griseus","ispublic":1,"isfriend":0,"isfamily":0},{"id":"52662369710","owner":"33610210@N05","secret":"341bd3d47c","server":"65535","farm":66,"title":"White-eyed Vireo, Vireo griseus","ispublic":1,"isfriend":0,"isfamily":0},{"id":"52653526218","owner":"78145652@N02","secret":"4f12e750be","server":"65535","farm":66,"title":"White-eyed Vireo - Vireo griseus","ispublic":1,"isfriend":0,"isfamily":0},{"id":"52645286561","owner":"8013969@N03","secret":"08b94d4a57","server":"65535","farm":66,"title":"Vireo griseus DFL la22-1","ispublic":1,"isfriend":0,"isfamily":0},{"id":"52637832998","owner":"33573751@N04","secret":"1518e39f71","server":"65535","farm":66,"title":"White-eyed Vireo (Vireo griseus) - Yeehaw Junction, Florida","ispublic":1,"isfriend":0,"isfamily":0},{"id":"52637774198","owner":"33573751@N04","secret":"588133ea98","server":"65535","farm":66,"title":"White-eyed Vireo (Vireo griseus) - Yeehaw Junction, Florida","ispublic":1,"isfriend":0,"isfamily":0},{"id":"52637425505","owner":"33573751@N04","secret":"50340a65e4","server":"65535","farm":66,"title":"White-eyed Vireo (Vireo griseus) - Yeehaw Junction, Florida","ispublic":1,"isfriend":0,"isfamily":0},{"id":"52582399901","owner":"33610210@N05","secret":"0b083ddd8d","server":"65535","farm":66,"title":"White-eyed Vireo, Vireo griseus","ispublic":1,"isfriend":0,"isfamily":0},{"id":"52579876557","owner":"153973412@N04","secret":"1a410c301e","server":"65535","farm":66,"title":"White-eyed Vireo-Vireo griseus, Everglades, FL","ispublic":1,"isfriend":0,"isfamily":0},{"id":"52573433602","owner":"88932760@N08","secret":"28945c47d2","server":"65535","farm":66,"title":"A Little Wonky","ispublic":1,"isfriend":0,"isfamily":0},{"id":"52572468184","owner":"33610210@N05","secret":"7ef71573e2","server":"65535","farm":66,"title":"White-eyed Vireo, Vireo griseus","ispublic":1,"isfriend":0,"isfamily":0},{"id":"52572195366","owner":"33610210@N05","secret":"e2ce2e25cd","server":"65535","farm":66,"title":"White-eyed Vireo, Vireo griseus","ispublic":1,"isfriend":0,"isfamily":0},{"id":"52572054859","owner":"88932760@N08","secret":"afc68d3e3a","server":"65535","farm":66,"title":"Determination","ispublic":1,"isfriend":0,"isfamily":0},{"id":"52571451646","owner":"34674638@N05","secret":"6ae7062237","server":"65535","farm":66,"title":"White-eyed Vireo","ispublic":1,"isfriend":0,"isfamily":0},{"id":"52541308409","owner":"42964440@N08","secret":"a0dcb53efc","server":"65535","farm":66,"title":"White-eyed Vireo (Vireo griseus)","ispublic":1,"isfriend":0,"isfamily":0},{"id":"52539102839","owner":"33610210@N05","secret":"773f04e793","server":"65535","farm":66,"title":"White-eyed Vireo, Vireo griseus","ispublic":1,"isfriend":0,"isfamily":0},{"id":"52539310508","owner":"33610210@N05","secret":"1568b6ebe0","server":"65535","farm":66,"title":"White-eyed Vireo, Vireo griseus","ispublic":1,"isfriend":0,"isfamily":0},{"id":"52495250221","owner":"64557331@N04","secret":"c174989056","server":"65535","farm":66,"title":"White-Eyed Vireo - (Vireo griseus)_09172022_3","ispublic":1,"isfriend":0,"isfamily":0},{"id":"52495724645","owner":"64557331@N04","secret":"293faafe9a","server":"65535","farm":66,"title":"White-Eyed Vireo - (Vireo griseus)_09172022_2","ispublic":1,"isfriend":0,"isfamily":0},{"id":"52489114933","owner":"7546739@N08","secret":"ee1ee9c680","server":"65535","farm":66,"title":"White-eyed Vireo","ispublic":1,"isfriend":0,"isfamily":0},{"id":"52489032235","owner":"7546739@N08","secret":"c51b982a23","server":"65535","farm":66,"title":"White-eyed Vireo","ispublic":1,"isfriend":0,"isfamily":0},{"id":"52482764388","owner":"64606186@N00","secret":"fe60de065d","server":"65535","farm":66,"title":"White-eyed vireo","ispublic":1,"isfriend":0,"isfamily":0},{"id":"52482388548","owner":"64606186@N00","secret":"4dc63c3bcd","server":"65535","farm":66,"title":"White-eyed vireo","ispublic":1,"isfriend":0,"isfamily":0},{"id":"52481344097","owner":"64606186@N00","secret":"8dc6dd63ba","server":"65535","farm":66,"title":"White-eyed vireo","ispublic":1,"isfriend":0,"isfamily":0},{"id":"52482319193","owner":"13451078@N03","secret":"2a9f4ae59b","server":"65535","farm":66,"title":"White-eyed Vireo  (Vireo griseus)","ispublic":1,"isfriend":0,"isfamily":0},{"id":"52461021607","owner":"99208129@N08","secret":"ca5e48a37e","server":"65535","farm":66,"title":"Vireo griseus \/ White-eyed Vireo","ispublic":1,"isfriend":0,"isfamily":0},{"id":"52461806034","owner":"99208129@N08","secret":"da820a7e08","server":"65535","farm":66,"title":"Vireo griseus \/ White-eyed Vireo","ispublic":1,"isfriend":0,"isfamily":0},{"id":"52459721581","owner":"7261670@N03","secret":"ba86519445","server":"65535","farm":66,"title":"White-eyed Vireo","ispublic":1,"isfriend":0,"isfamily":0},{"id":"52454856439","owner":"67306066@N03","secret":"8fe7cb16b1","server":"65535","farm":66,"title":"White-eyed Vireo (Vireo griseus)","ispublic":1,"isfriend":0,"isfamily":0},{"id":"52449784009","owner":"67306066@N03","secret":"ccd8140b3c","server":"65535","farm":66,"title":"White-eyed Vireo (Vireo griseus)","ispublic":1,"isfriend":0,"isfamily":0},{"id":"52446195182","owner":"67306066@N03","secret":"78d380dec1","server":"65535","farm":66,"title":"White-eyed Vireo (Vireo griseus)","ispublic":1,"isfriend":0,"isfamily":0},{"id":"52446430991","owner":"67306066@N03","secret":"6afef3ae33","server":"65535","farm":66,"title":"White-eyed Vireo (Vireo griseus)","ispublic":1,"isfriend":0,"isfamily":0},{"id":"52444510669","owner":"139237357@N06","secret":"a946c27d4b","server":"65535","farm":66,"title":"White-eyed Vireo","ispublic":1,"isfriend":0,"isfamily":0},{"id":"52443719552","owner":"139237357@N06","secret":"cd1fa726e9","server":"65535","farm":66,"title":"White-eyed Vireo","ispublic":1,"isfriend":0,"isfamily":0},{"id":"52444510624","owner":"139237357@N06","secret":"d14c70c8a2","server":"65535","farm":66,"title":"White-eyed Vireo","ispublic":1,"isfriend":0,"isfamily":0},{"id":"52444184868","owner":"7261670@N03","secret":"701fc4941b","server":"65535","farm":66,"title":"White-eyed Vireo","ispublic":1,"isfriend":0,"isfamily":0},{"id":"52443667411","owner":"7261670@N03","secret":"790bf40d0b","server":"65535","farm":66,"title":"White-eyed Vireo","ispublic":1,"isfriend":0,"isfamily":0},{"id":"52443943314","owner":"7261670@N03","secret":"8b11ca93df","server":"65535","farm":66,"title":"White-eyed Vireo","ispublic":1,"isfriend":0,"isfamily":0},{"id":"52434031217","owner":"39177293@N03","secret":"b4151a4834","server":"65535","farm":66,"title":"White-eyed Vireo","ispublic":1,"isfriend":0,"isfamily":0},{"id":"52429810285","owner":"76288515@N07","secret":"565420dce4","server":"65535","farm":66,"title":"White-eyed Vireo Vireo griseus","ispublic":1,"isfriend":0,"isfamily":0},{"id":"52429872693","owner":"76288515@N07","secret":"5ac8290a32","server":"65535","farm":66,"title":"White-eyed Vireo Vireo griseus","ispublic":1,"isfriend":0,"isfamily":0},{"id":"52428853397","owner":"76288515@N07","secret":"437d05fbf6","server":"65535","farm":66,"title":"White-eyed Vireo Vireo griseus","ispublic":1,"isfriend":0,"isfamily":0},{"id":"52429355681","owner":"76288515@N07","secret":"5d639c3638","server":"65535","farm":66,"title":"White-eyed Vireo Vireo griseus","ispublic":1,"isfriend":0,"isfamily":0},{"id":"52429636909","owner":"76288515@N07","secret":"eaec0dd8e2","server":"65535","farm":66,"title":"White-eyed Vireo Vireo griseus","ispublic":1,"isfriend":0,"isfamily":0},{"id":"52428853302","owner":"76288515@N07","secret":"bd206c52a7","server":"65535","farm":66,"title":"White-eyed Vireo Vireo griseus","ispublic":1,"isfriend":0,"isfamily":0},{"id":"52383138920","owner":"88932760@N08","secret":"0b3d22f103","server":"65535","farm":66,"title":"Pull-ups","ispublic":1,"isfriend":0,"isfamily":0},{"id":"52374643578","owner":"39511843@N07","secret":"e4b160b959","server":"65535","farm":66,"title":"White-eyed Vireo (Vireo griseus)-1-","ispublic":1,"isfriend":0,"isfamily":0},{"id":"52361297549","owner":"36685968@N00","secret":"4e035cbbcb","server":"65535","farm":66,"title":"White-eyed Vireo (Vireo griseus)","ispublic":1,"isfriend":0,"isfamily":0},{"id":"52334451274","owner":"124995824@N08","secret":"2a85c39cae","server":"65535","farm":66,"title":"White-eyed Vireo - Vireo griseus","ispublic":1,"isfriend":0,"isfamily":0},{"id":"52323586414","owner":"80648919@N08","secret":"a504afab61","server":"65535","farm":66,"title":"White-eyed Vireo","ispublic":1,"isfriend":0,"isfamily":0},{"id":"52305152457","owner":"30418455@N00","secret":"de89e3a477","server":"65535","farm":66,"title":"WHITE-EYED VIREO 1","ispublic":1,"isfriend":0,"isfamily":0},{"id":"52301792640","owner":"39511843@N07","secret":"ba21478560","server":"65535","farm":66,"title":"White-eyed Vireo (Vireo griseus)-2-","ispublic":1,"isfriend":0,"isfamily":0},{"id":"52298787474","owner":"39511843@N07","secret":"e065b98a6c","server":"65535","farm":66,"title":"White-eyed Vireo (Vireo griseus)-","ispublic":1,"isfriend":0,"isfamily":0},{"id":"52240080336","owner":"76617062@N08","secret":"ab80665328","server":"65535","farm":66,"title":"1.17586 Vir\u00e9o aux yeux blancs \/ Vireo griseus griseus \/ White-eyed Vireo","ispublic":1,"isfriend":0,"isfamily":0},{"id":"52237217877","owner":"76617062@N08","secret":"0255bff740","server":"65535","farm":66,"title":"1.17586 Vir\u00e9o aux yeux blancs \/ Vireo griseus griseus \/ White-eyed Vireo","ispublic":1,"isfriend":0,"isfamily":0},{"id":"52222427270","owner":"124995824@N08","secret":"4d2459bf8c","server":"65535","farm":66,"title":"White-eyed Vireo - Vireo griseus","ispublic":1,"isfriend":0,"isfamily":0},{"id":"52217576955","owner":"33277678@N03","secret":"b5ce49ffd4","server":"65535","farm":66,"title":"St Marks '22","ispublic":1,"isfriend":0,"isfamily":0},{"id":"52198179244","owner":"184155060@N04","secret":"96bec7deb6","server":"65535","farm":66,"title":"18326 Vir\u00e9o aux yeux blancs \/ Vireo griseus noveboracensis \/ White-eyed Vireo (White-eyed)","ispublic":1,"isfriend":0,"isfamily":0},{"id":"52197910176","owner":"184155060@N04","secret":"19d64daa0a","server":"65535","farm":66,"title":"18326 Vir\u00e9o aux yeux blancs \/ Vireo griseus noveboracensis \/ White-eyed Vireo (White-eyed)","ispublic":1,"isfriend":0,"isfamily":0},{"id":"52197925773","owner":"184155060@N04","secret":"29b035d0f7","server":"65535","farm":66,"title":"18326 Vir\u00e9o aux yeux blancs \/ Vireo griseus noveboracensis \/ White-eyed Vireo (White-eyed)","ispublic":1,"isfriend":0,"isfamily":0},{"id":"52152588907","owner":"28499865@N07","secret":"9e8cb8b9b6","server":"65535","farm":66,"title":"White-eyed Vireo - Vireo griseus","ispublic":1,"isfriend":0,"isfamily":0},{"id":"52153602508","owner":"28499865@N07","secret":"e0c0e2c0c8","server":"65535","farm":66,"title":"White-eyed Vireo - Vireo griseus","ispublic":1,"isfriend":0,"isfamily":0},{"id":"52107995634","owner":"88932760@N08","secret":"6a988b0a4d","server":"65535","farm":66,"title":"The Song of the Vireo","ispublic":1,"isfriend":0,"isfamily":0},{"id":"52100386528","owner":"124995824@N08","secret":"afa229cd34","server":"65535","farm":66,"title":"White-eyed Vireo - Vireo griseus","ispublic":1,"isfriend":0,"isfamily":0},{"id":"52093841799","owner":"48084395@N03","secret":"5b1c3f78d7","server":"65535","farm":66,"title":"White-eyed Vireo (Vireo griseus) - _5AC7295","ispublic":1,"isfriend":0,"isfamily":0},{"id":"52088001532","owner":"62422428@N00","secret":"95a90fcdcb","server":"65535","farm":66,"title":"White-eyed Vireo","ispublic":1,"isfriend":0,"isfamily":0},{"id":"52082779168","owner":"99117454@N00","secret":"577c6cd819","server":"65535","farm":66,"title":"White-eyed Vero","ispublic":1,"isfriend":0,"isfamily":0},{"id":"52080564434","owner":"38514062@N03","secret":"75793a45b9","server":"65535","farm":66,"title":"White-eyed Vireo (Vireo griseus) nest with young","ispublic":1,"isfriend":0,"isfamily":0},{"id":"52080339658","owner":"38514062@N03","secret":"07dc4cc3bf","server":"65535","farm":66,"title":"White-eyed Vireo (Vireo griseus) Nestlings","ispublic":1,"isfriend":0,"isfamily":0},{"id":"52066038436","owner":"112608353@N02","secret":"7e44675bee","server":"65535","farm":66,"title":"Shrug","ispublic":1,"isfriend":0,"isfamily":0},{"id":"52056183757","owner":"40723658@N05","secret":"3b55b7a780","server":"65535","farm":66,"title":"White-eyed Vireo","ispublic":1,"isfriend":0,"isfamily":0},{"id":"52046620515","owner":"13451078@N03","secret":"408a2f7ee8","server":"65535","farm":66,"title":"White-eyed Vireo (Vireo griseus)","ispublic":1,"isfriend":0,"isfamily":0},{"id":"52042531542","owner":"182534679@N02","secret":"e322b715e9","server":"65535","farm":66,"title":"Vireo griseus - White-eyed Vireo","ispublic":1,"isfriend":0,"isfamily":0},{"id":"52035866830","owner":"120449047@N06","secret":"c79110c2c5","server":"65535","farm":66,"title":"White-Eyed Vireo (5\/35)","ispublic":1,"isfriend":0,"isfamily":0},{"id":"52034115779","owner":"18739614@N00","secret":"efbe0a7e8c","server":"65535","farm":66,"title":"White-eyed Vireo","ispublic":1,"isfriend":0,"isfamily":0},{"id":"52031989031","owner":"39177293@N03","secret":"b4eee6848a","server":"65535","farm":66,"title":"White-eyed Vireo","ispublic":1,"isfriend":0,"isfamily":0},{"id":"52022709001","owner":"13604536@N02","secret":"6329484b4f","server":"65535","farm":66,"title":"White-eyed Vireo","ispublic":1,"isfriend":0,"isfamily":0},{"id":"52016558384","owner":"40003624@N06","secret":"a7814e4679","server":"65535","farm":66,"title":"White-eyed Vireo","ispublic":1,"isfriend":0,"isfamily":0},{"id":"52012786545","owner":"128003162@N08","secret":"95d743e348","server":"65535","farm":66,"title":"Vireo griseus","ispublic":1,"isfriend":0,"isfamily":0},{"id":"52000487915","owner":"25486180@N07","secret":"748bc57ea1","server":"65535","farm":66,"title":"White-eyed Vireo, Vireo Griseus","ispublic":1,"isfriend":0,"isfamily":0},{"id":"51982951101","owner":"156457454@N02","secret":"e841b3ca29","server":"65535","farm":66,"title":"White-eyed Vireo","ispublic":1,"isfriend":0,"isfamily":0},{"id":"51967011692","owner":"33610210@N05","secret":"acef3098a7","server":"65535","farm":66,"title":"White-eyed Vireo, Vireo griseus","ispublic":1,"isfriend":0,"isfamily":0},{"id":"51967011612","owner":"33610210@N05","secret":"64ca4482fe","server":"65535","farm":66,"title":"White-eyed Vireo, Vireo griseus","ispublic":1,"isfriend":0,"isfamily":0},{"id":"51968080013","owner":"33610210@N05","secret":"835c8f88c2","server":"65535","farm":66,"title":"White-eyed Vireo, Vireo griseus","ispublic":1,"isfriend":0,"isfamily":0},{"id":"51968015266","owner":"33610210@N05","secret":"63d0e53c55","server":"65535","farm":66,"title":"White-eyed Vireo, Vireo griseus","ispublic":1,"isfriend":0,"isfamily":0},{"id":"51940849597","owner":"39617069@N08","secret":"73ca2acc4c","server":"65535","farm":66,"title":"White-eyed Vireo","ispublic":1,"isfriend":0,"isfamily":0},{"id":"51923160907","owner":"88932760@N08","secret":"e51f688ee2","server":"65535","farm":66,"title":"Hopeful Vireo","ispublic":1,"isfriend":0,"isfamily":0},{"id":"51918529563","owner":"39511843@N07","secret":"bb99b4c202","server":"65535","farm":66,"title":"White-eyed Vireo (Vireo griseus)-","ispublic":1,"isfriend":0,"isfamily":0},{"id":"51893040322","owner":"8301398@N02","secret":"0fc6408319","server":"65535","farm":66,"title":"White Eyed Vireo","ispublic":1,"isfriend":0,"isfamily":0},{"id":"51891639665","owner":"77056186@N00","secret":"0c0d7600cb","server":"65535","farm":66,"title":"White-eyed vireo","ispublic":1,"isfriend":0,"isfamily":0},{"id":"51890610309","owner":"183736567@N07","secret":"4625665a91","server":"65535","farm":66,"title":"White-eyed Vireo ((Vireo griseus)","ispublic":1,"isfriend":0,"isfamily":0},{"id":"51884721757","owner":"91620959@N08","secret":"94957c279e","server":"65535","farm":66,"title":"White-eyed vireo (Vireo griseus)","ispublic":1,"isfriend":0,"isfamily":0},{"id":"51886340910","owner":"91620959@N08","secret":"3cf158129d","server":"65535","farm":66,"title":"White-eyed vireo (Vireo griseus)","ispublic":1,"isfriend":0,"isfamily":0},{"id":"51876046415","owner":"76617062@N08","secret":"c0dbd3c2f7","server":"65535","farm":66,"title":"1.17586 Vir\u00e9o aux yeux blancs \/ Vireo griseus griseus \/ White-eyed Vireo","ispublic":1,"isfriend":0,"isfamily":0},{"id":"51869325179","owner":"77056186@N00","secret":"a6ab446e78","server":"65535","farm":66,"title":"White-eyed vireo","ispublic":1,"isfriend":0,"isfamily":0},{"id":"51842950989","owner":"59770980@N02","secret":"effe2d459e","server":"65535","farm":66,"title":"Silfurgr\u00e6ningi-White eyed Vireo-Vireo griseus","ispublic":1,"isfriend":0,"isfamily":0},{"id":"51870128552","owner":"194341957@N06","secret":"c2861d4c94","server":"65535","farm":66,"title":"white-eyed vireo","ispublic":1,"isfriend":0,"isfamily":0},{"id":"51870128532","owner":"194341957@N06","secret":"ae9bb7e3cd","server":"65535","farm":66,"title":"white-eyed vireo","ispublic":1,"isfriend":0,"isfamily":0}]},"stat":"ok"}