{"photos":{"page":1,"pages":112,"perpage":100,"total":11171,"photo":[{"id":"52724587238","owner":"140318147@N08","secret":"26d7625ed5","server":"65535","farm":66,"title":"white-crowned sparrow (Zonotrichia leucophrys) L4A6776","ispublic":1,"isfriend":0,"isfamily":0},{"id":"52722207221","owner":"143326780@N02","secret":"dab424a492","server":"65535","farm":66,"title":"DSCN5809","ispublic":1,"isfriend":0,"isfamily":0},{"id":"52721980711","owner":"25899079@N08","secret":"b236877d07","server":"65535","farm":66,"title":"Gambel's White-crowned Sparrow (9886)","ispublic":1,"isfriend":0,"isfamily":0},{"id":"52717487774","owner":"34238008@N02","secret":"052a81e66e","server":"65535","farm":66,"title":"White-crowned Sparrow (Zonotrichia leucophrys)","ispublic":1,"isfriend":0,"isfamily":0},{"id":"52717219976","owner":"34238008@N02","secret":"cd3df8370f","server":"65535","farm":66,"title":"White-crowned Sparrow (Zonotrichia leucophrys)","ispublic":1,"isfriend":0,"isfamily":0},{"id":"52714663005","owner":"144980256@N07","secret":"1087972db8","server":"65535","farm":66,"title":"White-crowned Sparrow (Zonotrichia leucophrys)","ispublic":1,"isfriend":0,"isfamily":0},{"id":"52709057582","owner":"103722035@N06","secret":"62e0688608","server":"65535","farm":66,"title":"White-crowned Sparrow (Zonotrichia leucophrys), Morro Bay, CA","ispublic":1,"isfriend":0,"isfamily":0},{"id":"52709578921","owner":"103722035@N06","secret":"f34409cec8","server":"65535","farm":66,"title":"White-crowned Sparrow (Zonotrichia leucophrys), Morro Bay, CA","ispublic":1,"isfriend":0,"isfamily":0},{"id":"52709838394","owner":"103722035@N06","secret":"0ea540675b","server":"65535","farm":66,"title":"White-crowned Sparrow (Zonotrichia leucophrys), Morro Bay, CA","ispublic":1,"isfriend":0,"isfamily":0},{"id":"52709988795","owner":"103722035@N06","secret":"a4c03f52eb","server":"0","farm":0,"title":"White-crowned Sparrow (Zonotrichia leucophrys), Morro Bay, CA","ispublic":1,"isfriend":0,"isfamily":0},{"id":"52709982415","owner":"103722035@N06","secret":"be0a9fe9a9","server":"0","farm":0,"title":"White-crowned Sparrow (Zonotrichia leucophrys), Los Osos, CA","ispublic":1,"isfriend":0,"isfamily":0},{"id":"52705617566","owner":"33610210@N05","secret":"4da9546373","server":"65535","farm":66,"title":"White-crowned Sparrow, Zonotrichia leucophrys","ispublic":1,"isfriend":0,"isfamily":0},{"id":"52703184995","owner":"197039631@N05","secret":"59390fc739","server":"65535","farm":66,"title":"White-Crowned Sparrow","ispublic":1,"isfriend":0,"isfamily":0},{"id":"52701834267","owner":"196685683@N08","secret":"29e179aba0","server":"65535","farm":66,"title":"00481302","ispublic":1,"isfriend":0,"isfamily":0},{"id":"52692062525","owner":"142605906@N06","secret":"9e38bf8b05","server":"65535","farm":66,"title":"Hanging on by a Talon","ispublic":1,"isfriend":0,"isfamily":0},{"id":"52690323980","owner":"33610210@N05","secret":"88ccb7e97e","server":"65535","farm":66,"title":"White-crowned Sparrow, Zonotrichia leucophrys","ispublic":1,"isfriend":0,"isfamily":0},{"id":"52684766154","owner":"8666250@N02","secret":"aa2cc74c6c","server":"65535","farm":66,"title":"WC Sparrow MPark 230128 -08","ispublic":1,"isfriend":0,"isfamily":0},{"id":"52680043159","owner":"65148649@N04","secret":"26fe20d21b","server":"65535","farm":66,"title":"White-Crowned Sparrow 2 02.04.23 Frye","ispublic":1,"isfriend":0,"isfamily":0},{"id":"52680043149","owner":"65148649@N04","secret":"cb48287f75","server":"65535","farm":66,"title":"White-Crowned Sparrow 02.04.23 Frye","ispublic":1,"isfriend":0,"isfamily":0},{"id":"52679243462","owner":"65148649@N04","secret":"c30395bbca","server":"65535","farm":66,"title":"White-Crowned Sparrow 02.04.23 Anderson","ispublic":1,"isfriend":0,"isfamily":0},{"id":"52677773546","owner":"12530381@N07","secret":"600cc63c49","server":"65535","farm":66,"title":"White-crowned Sparrow (Zonotrichia leucophrys) (2\/2\/2023)","ispublic":1,"isfriend":0,"isfamily":0},{"id":"52677786145","owner":"143326780@N02","secret":"f010977e34","server":"65535","farm":66,"title":"DSCN3412","ispublic":1,"isfriend":0,"isfamily":0},{"id":"52677637824","owner":"143326780@N02","secret":"9c4863c3bd","server":"65535","farm":66,"title":"DSCN3688","ispublic":1,"isfriend":0,"isfamily":0},{"id":"52676850866","owner":"8666250@N02","secret":"5f2b0ae106","server":"65535","farm":66,"title":"Munson WC Sparrow 230123 -22","ispublic":1,"isfriend":0,"isfamily":0},{"id":"52676338347","owner":"8666250@N02","secret":"33f3bce4fc","server":"65535","farm":66,"title":"Munson WC Sparrow 230123 -18","ispublic":1,"isfriend":0,"isfamily":0},{"id":"52676850396","owner":"8666250@N02","secret":"bc9430230a","server":"65535","farm":66,"title":"Munson WC Sparrow 230123 -15","ispublic":1,"isfriend":0,"isfamily":0},{"id":"52677131549","owner":"8666250@N02","secret":"eeba33153c","server":"65535","farm":66,"title":"Munson WC Sparrow 230123 -08","ispublic":1,"isfriend":0,"isfamily":0},{"id":"52677131329","owner":"8666250@N02","secret":"abdf59175a","server":"65535","farm":66,"title":"Munson WC Sparrow 230123 -07","ispublic":1,"isfriend":0,"isfamily":0},{"id":"52676337357","owner":"8666250@N02","secret":"c4c460b939","server":"65535","farm":66,"title":"Munson WC Sparrow 230123 -03","ispublic":1,"isfriend":0,"isfamily":0},{"id":"52676337112","owner":"8666250@N02","secret":"5e6810b5ab","server":"65535","farm":66,"title":"Munson WC Sparrow 230123 -02","ispublic":1,"isfriend":0,"isfamily":0},{"id":"52676992379","owner":"42415395@N07","secret":"900d041e40","server":"65535","farm":66,"title":"White-crowned Sparrow (Zonotrichia leucophrys); Ladd Gordon Waterfowl Complex, Bernado. NM [Lou Feltz]","ispublic":1,"isfriend":0,"isfamily":0},{"id":"52676638723","owner":"195041250@N03","secret":"2de06d1a34","server":"65535","farm":66,"title":"White-crowned Sparrow","ispublic":1,"isfriend":0,"isfamily":0},{"id":"52672317046","owner":"36013467@N07","secret":"b10ce29831","server":"65535","farm":66,"title":"White-crowned Sparrow (Zonotrichia leucophrys)","ispublic":1,"isfriend":0,"isfamily":0},{"id":"52672329799","owner":"144980256@N07","secret":"cc33c7b12f","server":"65535","farm":66,"title":"White-crowned Sparrow (Zonotrichia leucophrys)","ispublic":1,"isfriend":0,"isfamily":0},{"id":"52670139973","owner":"62043870@N05","secret":"d7e7d1f6f4","server":"65535","farm":66,"title":"White-crowned Sparrow, Zonotrichia leucophrys","ispublic":1,"isfriend":0,"isfamily":0},{"id":"52668473765","owner":"36013467@N07","secret":"072fc5bdb1","server":"65535","farm":66,"title":"White-crowned Sparrow (Zonotrichia leucophrys)","ispublic":1,"isfriend":0,"isfamily":0},{"id":"52668052180","owner":"33610210@N05","secret":"3caef4998d","server":"65535","farm":66,"title":"White-crowned Sparrow, Zonotrichia leucophrys","ispublic":1,"isfriend":0,"isfamily":0},{"id":"52667613701","owner":"33610210@N05","secret":"5509ca673d","server":"65535","farm":66,"title":"White-crowned Sparrow (Gambell's), Zonotrichia leucophrys gambellii","ispublic":1,"isfriend":0,"isfamily":0},{"id":"52667613646","owner":"33610210@N05","secret":"15ea2c94f2","server":"65535","farm":66,"title":"White-crowned Sparrow (Gambell's), Zonotrichia leucophrys gambellii","ispublic":1,"isfriend":0,"isfamily":0},{"id":"52668118243","owner":"33610210@N05","secret":"ba49be9a78","server":"65535","farm":66,"title":"White-crowned Sparrow (Gambell's), Zonotrichia leucophrys gambellii","ispublic":1,"isfriend":0,"isfamily":0},{"id":"52667106007","owner":"9731845@N02","secret":"7cc942a453","server":"65535","farm":66,"title":"White-crowned Sparrow (Zonotrichia leucophrys)","ispublic":1,"isfriend":0,"isfamily":0},{"id":"52668051438","owner":"33610210@N05","secret":"d4143472d3","server":"65535","farm":66,"title":"Gambell's White-crowned Sparrow, Zonotrichia leucophrys gambelii","ispublic":1,"isfriend":0,"isfamily":0},{"id":"52665702689","owner":"188156748@N07","secret":"46e66dc334","server":"65535","farm":66,"title":"White-crowned Sparrow-Bruant \u00e0 couronne blanche - Zonotrichia leucophrys  1798 (266)-SharpenAI-Standard copy.jpgS","ispublic":1,"isfriend":0,"isfamily":0},{"id":"52664002151","owner":"33610210@N05","secret":"889c5846cc","server":"65535","farm":66,"title":"White-crowned Sparrow, Zonotrichia leucophrys","ispublic":1,"isfriend":0,"isfamily":0},{"id":"52664368883","owner":"88144811@N03","secret":"1c17a9e8f7","server":"65535","farm":66,"title":"Immature White-crowned Sparrow (Zonotrichia leucophrys)","ispublic":1,"isfriend":0,"isfamily":0},{"id":"52664366938","owner":"88144811@N03","secret":"4ff63cc1cf","server":"65535","farm":66,"title":"White-crowned Sparrow (Zonotrichia leucophrys)","ispublic":1,"isfriend":0,"isfamily":0},{"id":"52662905424","owner":"11159374@N04","secret":"a351c040b2","server":"65535","farm":66,"title":"White-crowned Sparrow","ispublic":1,"isfriend":0,"isfamily":0},{"id":"52656867556","owner":"143326780@N02","secret":"8a491ab53f","server":"65535","farm":66,"title":"DSCN2429","ispublic":1,"isfriend":0,"isfamily":0},{"id":"52657314720","owner":"143326780@N02","secret":"4995a5bcd8","server":"65535","farm":66,"title":"DSCN2441","ispublic":1,"isfriend":0,"isfamily":0},{"id":"52656856201","owner":"143326780@N02","secret":"d0725ca881","server":"65535","farm":66,"title":"DSCN2439","ispublic":1,"isfriend":0,"isfamily":0},{"id":"52656541121","owner":"8666250@N02","secret":"03836db992","server":"65535","farm":66,"title":"WC Sparrow 230117 -02","ispublic":1,"isfriend":0,"isfamily":0},{"id":"52656984935","owner":"8666250@N02","secret":"f74a919f24","server":"65535","farm":66,"title":"WC Sparrow 230117 -01","ispublic":1,"isfriend":0,"isfamily":0},{"id":"52651609803","owner":"98627816@N02","secret":"f72370b9ea","server":"65535","farm":66,"title":"White Crowned sparrow (Zonotrichia leucophrys) juvenile","ispublic":1,"isfriend":0,"isfamily":0},{"id":"52649826806","owner":"120449047@N06","secret":"b60be02e28","server":"65535","farm":66,"title":"White-crowned Sparrow","ispublic":1,"isfriend":0,"isfamily":0},{"id":"52647837844","owner":"48311154@N02","secret":"e4abbd3aa0","server":"65535","farm":66,"title":"Advice to a White-crowned Sparrow","ispublic":1,"isfriend":0,"isfamily":0},{"id":"52646627756","owner":"44904157@N04","secret":"d2994b3613","server":"65535","farm":66,"title":"Immature White-crowned Sparrow","ispublic":1,"isfriend":0,"isfamily":0},{"id":"52644748341","owner":"44904157@N04","secret":"222d9d0b39","server":"65535","farm":66,"title":"White-crowned Sparrow","ispublic":1,"isfriend":0,"isfamily":0},{"id":"52643221676","owner":"8013969@N03","secret":"0c02e8972e","server":"65535","farm":66,"title":"Zonotrichia leucophrys DFL btr22-6","ispublic":1,"isfriend":0,"isfamily":0},{"id":"52643659940","owner":"8013969@N03","secret":"231a6c8cb4","server":"65535","farm":66,"title":"Zonotrichia leucophrys DFL btr22-8","ispublic":1,"isfriend":0,"isfamily":0},{"id":"52643085054","owner":"9243885@N07","secret":"008330e2f0","server":"65535","farm":66,"title":"2023_01_21_5DMk4_90424","ispublic":1,"isfriend":0,"isfamily":0},{"id":"52643184700","owner":"9243885@N07","secret":"ba423ff5a0","server":"65535","farm":66,"title":"2023_01_21_5DMk4_90407","ispublic":1,"isfriend":0,"isfamily":0},{"id":"52638872571","owner":"34368269@N04","secret":"0a89ea775f","server":"65535","farm":66,"title":"White-crowned Sparrow","ispublic":1,"isfriend":0,"isfamily":0},{"id":"52637031827","owner":"65148649@N04","secret":"4dd3b66dc5","server":"65535","farm":66,"title":"White-Crowned Sparrow 01.07.23 Anderson","ispublic":1,"isfriend":0,"isfamily":0},{"id":"52637529556","owner":"65148649@N04","secret":"7a9a4869f7","server":"65535","farm":66,"title":"White-Crowned Sparrows 01.07.23 Sheets","ispublic":1,"isfriend":0,"isfamily":0},{"id":"52637529541","owner":"65148649@N04","secret":"810b8e35a8","server":"65535","farm":66,"title":"White-Crowned Sparrows 01.07.23 Rutherford E","ispublic":1,"isfriend":0,"isfamily":0},{"id":"52637529536","owner":"65148649@N04","secret":"3fee0f3f12","server":"65535","farm":66,"title":"White-Crowned Sparrow 3 01.07.23 Frye","ispublic":1,"isfriend":0,"isfamily":0},{"id":"52637014427","owner":"65148649@N04","secret":"802d36fd77","server":"65535","farm":66,"title":"White-Crowned Sparrow 3 01.07.23 Baryames","ispublic":1,"isfriend":0,"isfamily":0},{"id":"52638006538","owner":"65148649@N04","secret":"44d2efc82e","server":"65535","farm":66,"title":"White-Crowned Sparrow 2 01.07.23 Sheets","ispublic":1,"isfriend":0,"isfamily":0},{"id":"52637529476","owner":"65148649@N04","secret":"4014fd6238","server":"65535","farm":66,"title":"White-Crowned Sparrow 2 01.07.23 Frye","ispublic":1,"isfriend":0,"isfamily":0},{"id":"52638006523","owner":"65148649@N04","secret":"cf88df6432","server":"65535","farm":66,"title":"White-Crowned Sparrow 2 01.07.23 Baryames","ispublic":1,"isfriend":0,"isfamily":0},{"id":"52637786424","owner":"65148649@N04","secret":"ac909b636f","server":"65535","farm":66,"title":"White-Crowned Sparrow 01.07.23 Rutherford K","ispublic":1,"isfriend":0,"isfamily":0},{"id":"52637014342","owner":"65148649@N04","secret":"f6131b3cef","server":"65535","farm":66,"title":"White-Crowned Sparrow 01.07.23 Rutherford E","ispublic":1,"isfriend":0,"isfamily":0},{"id":"52637786439","owner":"65148649@N04","secret":"ccc5099f5c","server":"65535","farm":66,"title":"White-Crowned Sparrow 01.07.23 Sheets","ispublic":1,"isfriend":0,"isfamily":0},{"id":"52637786414","owner":"65148649@N04","secret":"f0c26d2465","server":"65535","farm":66,"title":"White-Crowned Sparrow 01.07.23 Frye","ispublic":1,"isfriend":0,"isfamily":0},{"id":"52637969580","owner":"65148649@N04","secret":"2cea4b245a","server":"65535","farm":66,"title":"White-Crowned Sparrow 2 01.07.23 Anderson","ispublic":1,"isfriend":0,"isfamily":0},{"id":"52632755323","owner":"87484925@N00","secret":"d93c799778","server":"65535","farm":66,"title":"2023.01.08 - white-crowned sparrow","ispublic":1,"isfriend":0,"isfamily":0},{"id":"52632077859","owner":"48311154@N02","secret":"245f131094","server":"65535","farm":66,"title":"Look who stayed around for winter","ispublic":1,"isfriend":0,"isfamily":0},{"id":"52611299637","owner":"123979267@N05","secret":"a2f81c29af","server":"65535","farm":66,"title":"White-crowned Sparrow","ispublic":1,"isfriend":0,"isfamily":0},{"id":"52610643972","owner":"12639178@N07","secret":"29d9e7dbb4","server":"65535","farm":66,"title":"Dachsammer (Zonotrichia leucophrys) (1)","ispublic":1,"isfriend":0,"isfamily":0},{"id":"52610632756","owner":"88978913@N08","secret":"de81d295ca","server":"65535","farm":66,"title":"White-crowned Sparrow, Zonotrichia leucophrys","ispublic":1,"isfriend":0,"isfamily":0},{"id":"52609044317","owner":"132165466@N08","secret":"d630f03eff","server":"65535","farm":66,"title":"White-crowned Sparrow","ispublic":1,"isfriend":0,"isfamily":0},{"id":"52608172485","owner":"11799527@N08","secret":"8864209997","server":"65535","farm":66,"title":"White-crowned Sparrow","ispublic":1,"isfriend":0,"isfamily":0},{"id":"52607224047","owner":"26520320@N03","secret":"22aa003187","server":"65535","farm":66,"title":"Bolsa_Chica_2023-01-02_DSC05130","ispublic":1,"isfriend":0,"isfamily":0},{"id":"52608219088","owner":"26520320@N03","secret":"cc335faf25","server":"65535","farm":66,"title":"Bolsa_Chica_2023-01-02_DSC05128","ispublic":1,"isfriend":0,"isfamily":0},{"id":"52606166368","owner":"62043870@N05","secret":"bcb4237d9d","server":"65535","farm":66,"title":"White-crowned Sparrow, Zonotrichia leucophrys","ispublic":1,"isfriend":0,"isfamily":0},{"id":"52604230383","owner":"65148649@N04","secret":"18b6ccc3fb","server":"65535","farm":66,"title":"White-Crowned Sparrow 12.17.22 Frye","ispublic":1,"isfriend":0,"isfamily":0},{"id":"52603604366","owner":"62043870@N05","secret":"867b0b97c5","server":"65535","farm":66,"title":"White-crowned Sparrows, Zonotrichia leucophrys","ispublic":1,"isfriend":0,"isfamily":0},{"id":"52695465359","owner":"97697339@N05","secret":"1b2213742d","server":"65535","farm":66,"title":"White-crowned Sparrow (Zonotrichia leucophrys)","ispublic":1,"isfriend":0,"isfamily":0},{"id":"52684767299","owner":"8666250@N02","secret":"df8e6f2c3b","server":"65535","farm":66,"title":"WC Sparrow MPark 230128 -11","ispublic":1,"isfriend":0,"isfamily":0},{"id":"52683968657","owner":"8666250@N02","secret":"a52e811276","server":"65535","farm":66,"title":"WC Sparrow MPark 230128 -10","ispublic":1,"isfriend":0,"isfamily":0},{"id":"52684906760","owner":"8666250@N02","secret":"70dcbe6cd4","server":"65535","farm":66,"title":"WC Sparrow MPark 230128 -04","ispublic":1,"isfriend":0,"isfamily":0},{"id":"52684482126","owner":"8666250@N02","secret":"d15514ece3","server":"65535","farm":66,"title":"WC Sparrow MPark 230128 -01","ispublic":1,"isfriend":0,"isfamily":0},{"id":"52677281850","owner":"8666250@N02","secret":"920e067936","server":"65535","farm":66,"title":"Munson WC Sparrow 230123 -23","ispublic":1,"isfriend":0,"isfamily":0},{"id":"52667904219","owner":"33610210@N05","secret":"596e8711e2","server":"65535","farm":66,"title":"White-crowned Sparrow (dark-lored eastern race), Zonotrichia leucophrys leucophrys","ispublic":1,"isfriend":0,"isfamily":0},{"id":"52668051610","owner":"33610210@N05","secret":"a5b44f79cf","server":"65535","farm":66,"title":"White-crowned Sparrow (Gambell's), Zonotrichia leucophrys gambellii","ispublic":1,"isfriend":0,"isfamily":0},{"id":"52667903684","owner":"33610210@N05","secret":"5d1e581c96","server":"65535","farm":66,"title":"White-crowned Sparrow (dark-lored eastern race), Zonotrichia leucophrys leucophrys","ispublic":1,"isfriend":0,"isfamily":0},{"id":"52656539746","owner":"8666250@N02","secret":"411e6d7446","server":"65535","farm":66,"title":"WC Sparrow 230117 -06","ispublic":1,"isfriend":0,"isfamily":0},{"id":"52642718142","owner":"8013969@N03","secret":"d1d302a5e5","server":"65535","farm":66,"title":"Zonotrichia leucophrys DFL btr22-5","ispublic":1,"isfriend":0,"isfamily":0},{"id":"52643479974","owner":"8013969@N03","secret":"f0255cfc6b","server":"65535","farm":66,"title":"Zonotrichia leucophrys DFL btr22-7","ispublic":1,"isfriend":0,"isfamily":0},{"id":"52633316571","owner":"129803374@N05","secret":"cab43c5d5e","server":"65535","farm":66,"title":"White-crowned Sparrow (Zonotrichia leucophrys) - Gambel\u2019s subspecies","ispublic":1,"isfriend":0,"isfamily":0}]},"stat":"ok"}