{"photos":{"page":1,"pages":3,"perpage":100,"total":268,"photo":[{"id":"52638700602","owner":"191213614@N06","secret":"25285b5146","server":"65535","farm":66,"title":"Golondrina ceja blanca.        White-rumped swallow.         -Tachycineta leucorrhoa-","ispublic":1,"isfriend":0,"isfamily":0},{"id":"52575711778","owner":"93293461@N03","secret":"3212ca302f","server":"65535","farm":66,"title":"Tachycineta leucorrhoa","ispublic":1,"isfriend":0,"isfamily":0},{"id":"52405493325","owner":"101563641@N03","secret":"8d64e942d8","server":"65535","farm":66,"title":"Tachycineta leucorrhoa_DSC0288","ispublic":1,"isfriend":0,"isfamily":0},{"id":"52327832008","owner":"129553350@N02","secret":"a9c9de2c5b","server":"65535","farm":66,"title":"Golondrina Ceja Blanca","ispublic":1,"isfriend":0,"isfamily":0},{"id":"52006328868","owner":"93293461@N03","secret":"235a10264e","server":"65535","farm":66,"title":"Tachycineta leucorrhoa","ispublic":1,"isfriend":0,"isfamily":0},{"id":"51783618378","owner":"127954172@N03","secret":"c4f00da36b","server":"65535","farm":66,"title":"golondrina-ceja-blanca_NGR9914-3187","ispublic":1,"isfriend":0,"isfamily":0},{"id":"51583666142","owner":"87727332@N08","secret":"b447964a6c","server":"65535","farm":66,"title":"Sobre branco (Tachycineta leucorrhoa)","ispublic":1,"isfriend":0,"isfamily":0},{"id":"51195608917","owner":"143189289@N02","secret":"1de5d27037","server":"65535","farm":66,"title":"Golondrina Ceja Blanca, White-rumped Swallow (Tachycineta leucorrhoa)","ispublic":1,"isfriend":0,"isfamily":0},{"id":"50606698286","owner":"189304108@N05","secret":"b626540dec","server":"65535","farm":66,"title":"Golondrina ceja blanca","ispublic":1,"isfriend":0,"isfamily":0},{"id":"50371450981","owner":"38249385@N02","secret":"087219128c","server":"65535","farm":66,"title":"Andorinha-de-sobre-branco  (Tachycineta leucorrhoa) - White-rumped Swallow","ispublic":1,"isfriend":0,"isfamily":0},{"id":"49334868121","owner":"163443082@N02","secret":"5d2120dcbc","server":"65535","farm":66,"title":"Golondrina ceja blanca","ispublic":1,"isfriend":0,"isfamily":0},{"id":"49294570777","owner":"56686021@N04","secret":"1953cebd1d","server":"65535","farm":66,"title":"White-rumped Swallow","ispublic":1,"isfriend":0,"isfamily":0},{"id":"48620691408","owner":"93293461@N03","secret":"2e8a43afd5","server":"65535","farm":66,"title":"Tachycineta leucorrhoa","ispublic":1,"isfriend":0,"isfamily":0},{"id":"31816493297","owner":"32674493@N04","secret":"f635aff957","server":"4811","farm":5,"title":"Andorinha-de-testa-branca (Tachycineta leucorrhoa)","ispublic":1,"isfriend":0,"isfamily":0},{"id":"46449177431","owner":"32278141@N06","secret":"cb2ff7fc37","server":"7927","farm":8,"title":"Tachycineta leucorrhoa","ispublic":1,"isfriend":0,"isfamily":0},{"id":"45325795004","owner":"25061636@N05","secret":"0fde8230d9","server":"4872","farm":5,"title":"andorinha-de-sobre-branco - White-rumped Swallow \/ Tachycineta leucorrhoa - Campinas - 23-11-18","ispublic":1,"isfriend":0,"isfamily":0},{"id":"45127977705","owner":"13668899@N00","secret":"1cea32023d","server":"4866","farm":5,"title":"Andorinha-de-sobre-branco","ispublic":1,"isfriend":0,"isfamily":0},{"id":"31035320027","owner":"38048846@N07","secret":"c77278ff8a","server":"4904","farm":5,"title":"Andorinha-de-sobre-branco - Tachycineta leucorrhoa - White-rumped Swallow.","ispublic":1,"isfriend":0,"isfamily":0},{"id":"45551632842","owner":"155653124@N03","secret":"4f2947aaa1","server":"1966","farm":2,"title":"Golondrina ceja blanca (Tachycineta leucorrhoa)","ispublic":1,"isfriend":0,"isfamily":0},{"id":"43617189450","owner":"66766585@N05","secret":"2fb41e97a5","server":"1933","farm":2,"title":"Andorinha de sobre branco-(nome cient\u00edfico-Tachycineta leucorrhoa)","ispublic":1,"isfriend":0,"isfamily":0},{"id":"45020800021","owner":"156072574@N04","secret":"a00edaf607","server":"1912","farm":2,"title":"Golondrina ceja blanca  -  White-rumped Swallow","ispublic":1,"isfriend":0,"isfamily":0},{"id":"44509305182","owner":"71529853@N02","secret":"2111e7fa33","server":"1861","farm":2,"title":"andorinha-de-sobre-branco (Tachycineta leucorrhoa)","ispublic":1,"isfriend":0,"isfamily":0},{"id":"28789733697","owner":"123534937@N08","secret":"4826b6493a","server":"933","farm":1,"title":"Golondrina Ceja Blanca - Tachycineta leucorrhoa - White-rumped Swallow","ispublic":1,"isfriend":0,"isfamily":0},{"id":"42758670771","owner":"107784905@N04","secret":"62e26c13d9","server":"880","farm":1,"title":"Hirondelle \u00e0 diad\u00e8me - Ba\u00f1ado La Estrella\/Formosa\/Argentina_20171114_017-1","ispublic":1,"isfriend":0,"isfamily":0},{"id":"41215568292","owner":"134815842@N03","secret":"63130b9654","server":"786","farm":1,"title":"White-rumped Swallow juvenile (Tachycineta leucorrhoa) Pantanal, Mato Grosso, Brazil 2013","ispublic":1,"isfriend":0,"isfamily":0},{"id":"39912030525","owner":"146010301@N07","secret":"23735795bf","server":"4783","farm":5,"title":"Tachycineta leucorrhoa","ispublic":1,"isfriend":0,"isfamily":0},{"id":"26647217898","owner":"146010301@N07","secret":"f1370f4c71","server":"4722","farm":5,"title":"Tachycineta leucorrhoa","ispublic":1,"isfriend":0,"isfamily":0},{"id":"25742418618","owner":"105403599@N03","secret":"aca41217b0","server":"4605","farm":5,"title":"Tachycineta leucorrhoa","ispublic":1,"isfriend":0,"isfamily":0},{"id":"39319568012","owner":"9202160@N07","secret":"0acc3e735f","server":"4726","farm":5,"title":"Tachycineta leucorrhoa (Golondrina Ceja Blanca) y Poospiza nigrorufa (Sietevestidos)","ispublic":1,"isfriend":0,"isfamily":0},{"id":"38239197134","owner":"20418319@N07","secret":"a8302bcff9","server":"4528","farm":5,"title":"Tachycineta leucorrhoa (Vieillot, 1817)","ispublic":1,"isfriend":0,"isfamily":0},{"id":"38515789766","owner":"132463600@N02","secret":"fa75f8e48c","server":"4575","farm":5,"title":"White-rumped Swallow - andorinha-de-sobre-branco (Tachycineta leucorrhoa)","ispublic":1,"isfriend":0,"isfamily":0},{"id":"37642097445","owner":"131639547@N07","secret":"f59d95d6c1","server":"4537","farm":5,"title":"andorinha-de-sobre-branco (Tachycineta leucorrhoa) - White-rumped Swallow","ispublic":1,"isfriend":0,"isfamily":0},{"id":"37703257726","owner":"148316581@N02","secret":"d8b2e0a8d2","server":"4468","farm":5,"title":"Golondrina ceja blanca - White-rumped Swallow - Tachycineta leucorrhoa","ispublic":1,"isfriend":0,"isfamily":0},{"id":"36916438153","owner":"97760435@N02","secret":"ff76da6413","server":"4476","farm":5,"title":"andorinha-de-sobre-branco (Tachycineta leucorrhoa)","ispublic":1,"isfriend":0,"isfamily":0},{"id":"37258999812","owner":"117136392@N04","secret":"d154dcb2c9","server":"4399","farm":5,"title":"Golondrina ceja blanca (Tachycineta leucorrhoa)","ispublic":1,"isfriend":0,"isfamily":0},{"id":"37256973111","owner":"84237742@N00","secret":"58bfee9503","server":"4422","farm":5,"title":"GOLONDRINA CEJA BLANCA..White-rumped Swallow ,Tachycineta leucorrhoa,.toma PUNTA INDIO -BUENOS AIRES.","ispublic":1,"isfriend":0,"isfamily":0},{"id":"36671625110","owner":"156072574@N04","secret":"75f0bf0591","server":"4425","farm":5,"title":"Golondrina ceja blanca","ispublic":1,"isfriend":0,"isfamily":0},{"id":"36170591134","owner":"93293461@N03","secret":"22f17c56d3","server":"4429","farm":5,"title":"Tachycineta leucorrhoa","ispublic":1,"isfriend":0,"isfamily":0},{"id":"34691599854","owner":"76275777@N07","secret":"acb25792aa","server":"4290","farm":5,"title":"Golondrina Ceja Blanca || White-Rumped Swallow","ispublic":1,"isfriend":0,"isfamily":0},{"id":"35043568230","owner":"134815842@N03","secret":"d6d37360f2","server":"4252","farm":5,"title":"White-rumped Swallow (Tachycineta leucorrhoa) Pantanal, Mato Grosso, Brazil 2017","ispublic":1,"isfriend":0,"isfamily":0},{"id":"31049818936","owner":"84237742@N00","secret":"a3a3ffdee5","server":"5444","farm":6,"title":"GOLONDRINA CEJA BLANCA.White-rumped Swallow ,Tachycineta leucorrhoa,..toma PUNTA INDIO -BUENOS AIRES.","ispublic":1,"isfriend":0,"isfamily":0},{"id":"30187264743","owner":"76275777@N07","secret":"0f52fd4f51","server":"5667","farm":6,"title":"Golondrina Ceja Blanca || White - Rumped Swallow","ispublic":1,"isfriend":0,"isfamily":0},{"id":"30276107112","owner":"87325282@N00","secret":"bd474ca804","server":"8410","farm":9,"title":"Andorinha de Sobre Branco \/ White-rumped Swift (Tachycineta leucorrhoa)","ispublic":1,"isfriend":0,"isfamily":0},{"id":"29658964180","owner":"136695268@N03","secret":"2de16cdc08","server":"5004","farm":6,"title":"Golondrina Ceja Blanca (Tachycineta leucorrhoa)","ispublic":1,"isfriend":0,"isfamily":0},{"id":"28285759494","owner":"76275777@N07","secret":"dfe06cb934","server":"8694","farm":9,"title":"Golondrina Ceja Blanca || White - Rumped Swallow","ispublic":1,"isfriend":0,"isfamily":0},{"id":"23573019303","owner":"129207646@N05","secret":"a3f16ed089","server":"1554","farm":2,"title":"Golondrina ceja blanca (White-rumped Swallow) Tachycineta leucorrhoa","ispublic":1,"isfriend":0,"isfamily":0},{"id":"52419830120","owner":"124732887@N02","secret":"47695af1b7","server":"65535","farm":66,"title":"White-rumped Swallow","ispublic":1,"isfriend":0,"isfamily":0},{"id":"52247566758","owner":"193617639@N07","secret":"aba39130cc","server":"65535","farm":66,"title":"Andorinha-de-sobre-branco (Tachycineta leucorrhoa)","ispublic":1,"isfriend":0,"isfamily":0},{"id":"51874860519","owner":"187346531@N05","secret":"069f56f4bf","server":"65535","farm":66,"title":"andorinha-de-sobre-branco (Tachycineta leucorrhoa)","ispublic":1,"isfriend":0,"isfamily":0},{"id":"51784676370","owner":"193617639@N07","secret":"55d73c8796","server":"65535","farm":66,"title":"Andorinha-de-sobre-branco (Tachycineta leucorrhoa)","ispublic":1,"isfriend":0,"isfamily":0},{"id":"51700108406","owner":"185671185@N06","secret":"55cef630f3","server":"65535","farm":66,"title":"Golondrina Ceja Blanca - White-rumped Swallow","ispublic":1,"isfriend":0,"isfamily":0},{"id":"51100418505","owner":"192688018@N07","secret":"000eb3e702","server":"65535","farm":66,"title":"Tachycineta leucorrhoa","ispublic":1,"isfriend":0,"isfamily":0},{"id":"50249406832","owner":"136354582@N02","secret":"4ec3bf578a","server":"65535","farm":66,"title":"Tachycineta leucorrhoa","ispublic":1,"isfriend":0,"isfamily":0},{"id":"50249202186","owner":"136354582@N02","secret":"f70fb61da8","server":"65535","farm":66,"title":"Tachycineta leucorrhoa","ispublic":1,"isfriend":0,"isfamily":0},{"id":"49438561478","owner":"12639178@N07","secret":"162b3b5def","server":"65535","farm":66,"title":"Wei\u00dfb\u00fcrzelschwalbe - Arroio do Sal","ispublic":1,"isfriend":0,"isfamily":0},{"id":"49359710722","owner":"186193378@N07","secret":"ce4ae740c9","server":"65535","farm":66,"title":"Andorinha-de-sobre-branco (Tachycineta leucorrhoa) White-rumped Swallow","ispublic":1,"isfriend":0,"isfamily":0},{"id":"49267282842","owner":"182381287@N07","secret":"21a345f6ea","server":"65535","farm":66,"title":"Andorinha-de-sobre-branco (Tachycineta leucorrhoa)","ispublic":1,"isfriend":0,"isfamily":0},{"id":"49266631751","owner":"185853379@N08","secret":"04891a421f","server":"65535","farm":66,"title":"Andorinha-de-sobre-branco - Tachycineta leucorrhoa","ispublic":1,"isfriend":0,"isfamily":0},{"id":"49112267137","owner":"103371754@N07","secret":"c9303df1ea","server":"65535","farm":66,"title":"Andorinha-de-sobre-branca","ispublic":1,"isfriend":0,"isfamily":0},{"id":"49105442838","owner":"29170368@N03","secret":"de625fa4fa","server":"65535","farm":66,"title":"White-rumped Swallow","ispublic":1,"isfriend":0,"isfamily":0},{"id":"48271166752","owner":"107784905@N04","secret":"94af83e726","server":"65535","farm":66,"title":"Hirondelle \u00e0 diad\u00e8me - Ba\u00f1ado La Estrella\/Formosa\/Argentina_20171114_019-1","ispublic":1,"isfriend":0,"isfamily":0},{"id":"47978823778","owner":"171605199@N03","secret":"6065958a62","server":"65535","farm":66,"title":"andorinha de sobre branco (Tachycineta leucorrhoa)  White-rumped Swallow","ispublic":1,"isfriend":0,"isfamily":0},{"id":"45655439085","owner":"132877456@N03","secret":"c9a611974b","server":"4868","farm":5,"title":"Golondrina Ceja Blanca","ispublic":1,"isfriend":0,"isfamily":0},{"id":"31535799678","owner":"140901259@N05","secret":"8387869f79","server":"1909","farm":2,"title":"Andorinha-de-sobre-branco","ispublic":1,"isfriend":0,"isfamily":0},{"id":"45359941102","owner":"140901259@N05","secret":"ccc6aedcfa","server":"1930","farm":2,"title":"Andorinha-de-sobre-branco","ispublic":1,"isfriend":0,"isfamily":0},{"id":"45359940852","owner":"140901259@N05","secret":"b3f2417ca3","server":"1973","farm":2,"title":"Andorinha-de-sobre-branco","ispublic":1,"isfriend":0,"isfamily":0},{"id":"44686624824","owner":"140901259@N05","secret":"a48a01ba08","server":"1940","farm":2,"title":"Andorinha-de-sobre-branco","ispublic":1,"isfriend":0,"isfamily":0},{"id":"44509300522","owner":"71529853@N02","secret":"2d04eefe6a","server":"1893","farm":2,"title":"andorinha-de-sobre-branco (Tachycineta leucorrhoa)","ispublic":1,"isfriend":0,"isfamily":0},{"id":"40966477584","owner":"141463532@N03","secret":"b8ce59d14c","server":"952","farm":1,"title":"Andorinha de sobre branco (Tachycineta leucorrhoa)","ispublic":1,"isfriend":0,"isfamily":0},{"id":"41630748551","owner":"159484195@N07","secret":"1b335c8c9a","server":"871","farm":1,"title":"Andorinha de spbre branco - Tachycineta leucorrhoa - Hirundinidae -  S Sebastia\u0303o Parai\u0301so - 08-11-2017","ispublic":1,"isfriend":0,"isfamily":0},{"id":"40591585644","owner":"140705136@N02","secret":"289efe1a5a","server":"895","farm":1,"title":"andorinha-de-sobre-branco (Tachycineta leucorrhoa)","ispublic":1,"isfriend":0,"isfamily":0},{"id":"39918950245","owner":"140705136@N02","secret":"edfd98e0f9","server":"804","farm":1,"title":"andorinha-de-sobre-branco (Tachycineta leucorrhoa)","ispublic":1,"isfriend":0,"isfamily":0},{"id":"38843917080","owner":"95758886@N06","secret":"46e6a72687","server":"4713","farm":5,"title":"Andorinha-de-sobre-branco (Tachycineta leucorrhoa)_0236 FF","ispublic":1,"isfriend":0,"isfamily":0},{"id":"38809691840","owner":"156072574@N04","secret":"fc37f4b77b","server":"4743","farm":5,"title":"Golondrina ceja blanca","ispublic":1,"isfriend":0,"isfamily":0},{"id":"38534035120","owner":"144083559@N03","secret":"14d9723d2a","server":"4608","farm":5,"title":"Andorinha de sobre branco","ispublic":1,"isfriend":0,"isfamily":0},{"id":"37746321145","owner":"66766585@N05","secret":"fe1dd16be1","server":"4517","farm":5,"title":"Andorinha-de-sobre-branco   -   (tachycineta leucorrhoa)","ispublic":1,"isfriend":0,"isfamily":0},{"id":"37886327774","owner":"132463600@N02","secret":"d23a589897","server":"4515","farm":5,"title":"White-rumped Swallow - andorinha-de-sobre-branco (Tachycineta leucorrhoa)","ispublic":1,"isfriend":0,"isfamily":0},{"id":"38474878756","owner":"132463600@N02","secret":"8e312f7f7d","server":"4530","farm":5,"title":"White-rumped Swallow - andorinha-de-sobre-branco (Tachycineta leucorrhoa)","ispublic":1,"isfriend":0,"isfamily":0},{"id":"38031834786","owner":"112181416@N08","secret":"8e8c5b7eab","server":"4456","farm":5,"title":"P\u00e1ssaros do Brasil","ispublic":1,"isfriend":0,"isfamily":0},{"id":"36610199212","owner":"12639178@N07","secret":"c36f9e005e","server":"4411","farm":5,"title":"Wei\u00dfb\u00fcrzelschwalbe , NGID1828828295","ispublic":1,"isfriend":0,"isfamily":0},{"id":"35659909910","owner":"87325282@N00","secret":"b2afe36367","server":"4314","farm":5,"title":"Tachycineta leucorrhoa","ispublic":1,"isfriend":0,"isfamily":0},{"id":"32844328263","owner":"23467217@N08","secret":"9263cfedd7","server":"2908","farm":3,"title":"Yelling to the top of my little lungs","ispublic":1,"isfriend":0,"isfamily":0},{"id":"32314299266","owner":"144314963@N04","secret":"c2a2a0c0e9","server":"673","farm":1,"title":"andorinha-de-sobre-branco (Tachycineta leucorrhoa)","ispublic":1,"isfriend":0,"isfamily":0},{"id":"30874707722","owner":"146010301@N07","secret":"a49469218b","server":"5744","farm":6,"title":"Tachycineta leucorrhoa","ispublic":1,"isfriend":0,"isfamily":0},{"id":"30100694460","owner":"144838870@N04","secret":"5267a112c8","server":"5644","farm":6,"title":"andorinha-de-sobre-branco - Tachycineta leucorrhoa","ispublic":1,"isfriend":0,"isfamily":0},{"id":"30276096482","owner":"87325282@N00","secret":"fd7769a518","server":"8553","farm":9,"title":"Andorinha de Sobre Branco \/ White-rumped Swift (Tachycineta leucorrhoa)","ispublic":1,"isfriend":0,"isfamily":0},{"id":"29993351280","owner":"105121517@N08","secret":"e7efec6a93","server":"7578","farm":8,"title":"Tachycineta leucorrhoa","ispublic":1,"isfriend":0,"isfamily":0},{"id":"29918501346","owner":"136695268@N03","secret":"9593db1a34","server":"5801","farm":6,"title":"Golondrina Ceja Blanca (Tachycineta leucorrhoa)","ispublic":1,"isfriend":0,"isfamily":0},{"id":"29120204634","owner":"42381934@N02","secret":"4f1af214af","server":"8024","farm":9,"title":"Golondrina Ceja Blanca (Tachycineta leucorrhoa)","ispublic":1,"isfriend":0,"isfamily":0},{"id":"29711650546","owner":"42381934@N02","secret":"4b621a44d3","server":"8092","farm":9,"title":"Golondrina Ceja Blanca (Tachycineta leucorrhoa)","ispublic":1,"isfriend":0,"isfamily":0},{"id":"29122252153","owner":"42381934@N02","secret":"191e7f7a3f","server":"8048","farm":9,"title":"Golondrina Ceja Blanca (Tachycineta leucorrhoa)","ispublic":1,"isfriend":0,"isfamily":0},{"id":"29635274812","owner":"42381934@N02","secret":"60cd94fc03","server":"8112","farm":9,"title":"Golondrina Ceja Blanca (Tachycineta leucorrhoa)","ispublic":1,"isfriend":0,"isfamily":0},{"id":"28996456514","owner":"144838870@N04","secret":"c30ae9a168","server":"8327","farm":9,"title":"andorinha-de-sobre-branco - Tachycineta leucorrhoa","ispublic":1,"isfriend":0,"isfamily":0},{"id":"29463393226","owner":"141234211@N07","secret":"327a5aabf7","server":"8428","farm":9,"title":"Andorinha-de-sobre-branco (Tachycineta leucorrhoa).","ispublic":1,"isfriend":0,"isfamily":0},{"id":"28543239532","owner":"145099498@N06","secret":"8dc8212990","server":"8110","farm":9,"title":"Tachycineta leucorrhoa","ispublic":1,"isfriend":0,"isfamily":0},{"id":"26960047073","owner":"29438896@N04","secret":"c6d868dfa1","server":"7646","farm":8,"title":"Tachycineta leucorrhoa ( Andorinha do sobre branco) AI Tavavres 2016","ispublic":1,"isfriend":0,"isfamily":0},{"id":"26486441344","owner":"45813009@N08","secret":"e569e4552c","server":"7577","farm":8,"title":"Andorinha de sobre branco - Tachycineta leucorrhoa","ispublic":1,"isfriend":0,"isfamily":0},{"id":"26234380224","owner":"105403599@N03","secret":"6a78873eb0","server":"7265","farm":8,"title":"Tachycineta leucorrhoa","ispublic":1,"isfriend":0,"isfamily":0},{"id":"26129066704","owner":"71529853@N02","secret":"704ca3b979","server":"1707","farm":2,"title":"andorinha-de-sobre-branco (Tachycineta leucorrhoa)","ispublic":1,"isfriend":0,"isfamily":0},{"id":"24117238701","owner":"129207646@N05","secret":"7128866d95","server":"1676","farm":2,"title":"Golondrina ceja blanca (White-rumped Swallow) Tachycineta leucorrhoa","ispublic":1,"isfriend":0,"isfamily":0}]},"stat":"ok"}