{"photos":{"page":1,"pages":10,"perpage":100,"total":992,"photo":[{"id":"52766656767","owner":"39445433@N02","secret":"e3d7c3be0b","server":"65535","farm":66,"title":"White-Winged Scoter","ispublic":1,"isfriend":0,"isfamily":0},{"id":"52761681742","owner":"195537536@N03","secret":"2f0c8cf293","server":"65535","farm":66,"title":"White-winged Scoter (Melanitta deglandi) Female","ispublic":1,"isfriend":0,"isfamily":0},{"id":"52762110041","owner":"195537536@N03","secret":"4d5bbebe0b","server":"65535","farm":66,"title":"White-winged Scoter (Melanitta deglandi) Male","ispublic":1,"isfriend":0,"isfamily":0},{"id":"52741918381","owner":"22270452@N03","secret":"b2b48b547b","server":"65535","farm":66,"title":"White-winged Scoter - Melanitta deglandi - Kol\u00f6nd","ispublic":1,"isfriend":0,"isfamily":0},{"id":"52735975691","owner":"18217058@N04","secret":"32a6bf0a44","server":"65535","farm":66,"title":"White-winged Scoter \/ Kol\u00f6nd (Melanitta deglandi)","ispublic":1,"isfriend":0,"isfamily":0},{"id":"52754842948","owner":"195656112@N04","secret":"2006d25341","server":"65535","farm":66,"title":"White-winged Scoter","ispublic":1,"isfriend":0,"isfamily":0},{"id":"52675108390","owner":"14734088@N02","secret":"f995aaf9cf","server":"65535","farm":66,"title":"Macreuse \u00e0 ailes blanches 211011H1","ispublic":1,"isfriend":0,"isfamily":0},{"id":"52669190433","owner":"62907378@N07","secret":"bb96ae2442","server":"65535","farm":66,"title":"White-winged Scoters splashing down (Melanitta deglandi),","ispublic":1,"isfriend":0,"isfamily":0},{"id":"52668978864","owner":"62907378@N07","secret":"5046276c6c","server":"65535","farm":66,"title":"White-winged Scoters splashing down (Melanitta deglandi),","ispublic":1,"isfriend":0,"isfamily":0},{"id":"52669190413","owner":"62907378@N07","secret":"c444e5ecc0","server":"65535","farm":66,"title":"White-winged Scoters splashing down (Melanitta deglandi),","ispublic":1,"isfriend":0,"isfamily":0},{"id":"52668191587","owner":"62907378@N07","secret":"f6ca474f58","server":"65535","farm":66,"title":"White-winged Scoter im. (Melanitta deglandi)","ispublic":1,"isfriend":0,"isfamily":0},{"id":"52656440586","owner":"62907378@N07","secret":"7d088cc380","server":"65535","farm":66,"title":"White-winged Scoter m (Melanitta deglandi)","ispublic":1,"isfriend":0,"isfamily":0},{"id":"52656932393","owner":"62907378@N07","secret":"747ca8c0b7","server":"65535","farm":66,"title":"White-winged Scoter m (Melanitta deglandi)","ispublic":1,"isfriend":0,"isfamily":0},{"id":"52653595341","owner":"103722035@N06","secret":"d22b9a17b9","server":"0","farm":0,"title":"White-winged Scoter (Melanitta deglandi), Port San Luis Avila Beach, CA","ispublic":1,"isfriend":0,"isfamily":0},{"id":"52645092187","owner":"59779711@N05","secret":"babc0c6961","server":"65535","farm":66,"title":"Male White-winged Scoter","ispublic":1,"isfriend":0,"isfamily":0},{"id":"52645091167","owner":"59779711@N05","secret":"4900614231","server":"65535","farm":66,"title":"Male White-winged Scoter","ispublic":1,"isfriend":0,"isfamily":0},{"id":"52645601011","owner":"59779711@N05","secret":"0aaef830db","server":"65535","farm":66,"title":"Female White-winged Scoter","ispublic":1,"isfriend":0,"isfamily":0},{"id":"52645853774","owner":"59779711@N05","secret":"517d5806a9","server":"65535","farm":66,"title":"Female White-winged Scoter","ispublic":1,"isfriend":0,"isfamily":0},{"id":"52640407592","owner":"135315828@N06","secret":"0186b16095","server":"65535","farm":66,"title":"white-winged scoter","ispublic":1,"isfriend":0,"isfamily":0},{"id":"52641357305","owner":"135315828@N06","secret":"324cf48967","server":"65535","farm":66,"title":"white-winged scoter","ispublic":1,"isfriend":0,"isfamily":0},{"id":"52640918631","owner":"135315828@N06","secret":"9283eec3c4","server":"65535","farm":66,"title":"white-winged scoter","ispublic":1,"isfriend":0,"isfamily":0},{"id":"52641393273","owner":"135315828@N06","secret":"b7c2a75800","server":"65535","farm":66,"title":"white-winged scoter","ispublic":1,"isfriend":0,"isfamily":0},{"id":"52641357170","owner":"135315828@N06","secret":"1b16862b8b","server":"65535","farm":66,"title":"white-winged scoter","ispublic":1,"isfriend":0,"isfamily":0},{"id":"52641176989","owner":"135315828@N06","secret":"1d4634f23c","server":"65535","farm":66,"title":"white-winged scoter","ispublic":1,"isfriend":0,"isfamily":0},{"id":"52631816713","owner":"54100598@N08","secret":"99734b267e","server":"0","farm":0,"title":"White-winged Scoter - American - (Melanitta deglandi) Achill Co.Sligo 15-01-2023","ispublic":1,"isfriend":0,"isfamily":0},{"id":"52627393531","owner":"120699091@N02","secret":"f39e9e29ff","server":"65535","farm":66,"title":"White-winged Scoter","ispublic":1,"isfriend":0,"isfamily":0},{"id":"52610904956","owner":"59770980@N02","secret":"44142f9a2c","server":"65535","farm":66,"title":"Kol\u00f6nd-White winged Scoter-Melanitta deglandi","ispublic":1,"isfriend":0,"isfamily":0},{"id":"52609229807","owner":"191038887@N04","secret":"8b4a100319","server":"65535","farm":66,"title":"Macreuse \u00e0 ailes blanches - White-winged Scote - Melanitta deglandi","ispublic":1,"isfriend":0,"isfamily":0},{"id":"52609229717","owner":"191038887@N04","secret":"6b045f1b3d","server":"65535","farm":66,"title":"Macreuse \u00e0 ailes blanches - White-winged Scote - Melanitta deglandi","ispublic":1,"isfriend":0,"isfamily":0},{"id":"52609229607","owner":"191038887@N04","secret":"30800af44f","server":"65535","farm":66,"title":"Macreuse \u00e0 ailes blanches - White-winged Scote - Melanitta deglandi","ispublic":1,"isfriend":0,"isfamily":0},{"id":"52610224658","owner":"191038887@N04","secret":"a9412684bd","server":"65535","farm":66,"title":"Macreuse \u00e0 ailes blanches - White-winged Scote - Melanitta deglandi","ispublic":1,"isfriend":0,"isfamily":0},{"id":"52609732731","owner":"191038887@N04","secret":"560a0d5783","server":"65535","farm":66,"title":"Macreuse \u00e0 ailes blanches - White-winged Scote - Melanitta deglandi","ispublic":1,"isfriend":0,"isfamily":0},{"id":"52609732646","owner":"191038887@N04","secret":"e15cff3a9d","server":"65535","farm":66,"title":"Macreuse \u00e0 ailes blanches - White-winged Scote - Melanitta deglandi","ispublic":1,"isfriend":0,"isfamily":0},{"id":"52609992504","owner":"191038887@N04","secret":"783e10752c","server":"65535","farm":66,"title":"Macreuse \u00e0 ailes blanches - White-winged Scote - Melanitta deglandi","ispublic":1,"isfriend":0,"isfamily":0},{"id":"52576264293","owner":"34238008@N02","secret":"1e3c4145d5","server":"65535","farm":66,"title":"White-winged Scoter (Melanitta deglandi)","ispublic":1,"isfriend":0,"isfamily":0},{"id":"52576263963","owner":"34238008@N02","secret":"2c32b366df","server":"65535","farm":66,"title":"White-winged Scoter (Melanitta deglandi)","ispublic":1,"isfriend":0,"isfamily":0},{"id":"52576012454","owner":"34238008@N02","secret":"da4802b5bb","server":"65535","farm":66,"title":"White-winged Scoter (Melanitta deglandi)","ispublic":1,"isfriend":0,"isfamily":0},{"id":"52576012304","owner":"34238008@N02","secret":"5824b84f17","server":"65535","farm":66,"title":"White-winged Scoter (Melanitta deglandi)","ispublic":1,"isfriend":0,"isfamily":0},{"id":"52576263368","owner":"34238008@N02","secret":"672c373bd4","server":"65535","farm":66,"title":"White-winged Scoter (Melanitta deglandi)","ispublic":1,"isfriend":0,"isfamily":0},{"id":"52576263223","owner":"34238008@N02","secret":"f9562747be","server":"65535","farm":66,"title":"White-winged Scoter (Melanitta deglandi)","ispublic":1,"isfriend":0,"isfamily":0},{"id":"52576011759","owner":"34238008@N02","secret":"315e355ab5","server":"65535","farm":66,"title":"White-winged Scoter (Melanitta deglandi)","ispublic":1,"isfriend":0,"isfamily":0},{"id":"52575730611","owner":"34238008@N02","secret":"d43595c6c3","server":"65535","farm":66,"title":"White-winged Scoter (Melanitta deglandi)","ispublic":1,"isfriend":0,"isfamily":0},{"id":"52573168606","owner":"18217058@N04","secret":"9ba69da2b5","server":"65535","farm":66,"title":"White-winged Scoter \/ Kol\u00f6nd (Melanitta deglandi)","ispublic":1,"isfriend":0,"isfamily":0},{"id":"52560749119","owner":"140734051@N08","secret":"44a2810cc5","server":"65535","farm":66,"title":"\u0413\u043e\u0440\u0431\u043e\u043d\u043e\u0441\u044b\u0439 \u0442\u0443\u0440\u043f\u0430\u043d, Melanitta deglandi stejnegeri, White-winged Scoter","ispublic":1,"isfriend":0,"isfamily":0},{"id":"52560999143","owner":"140734051@N08","secret":"336bb1b53b","server":"65535","farm":66,"title":"\u0413\u043e\u0440\u0431\u043e\u043d\u043e\u0441\u044b\u0439 \u0442\u0443\u0440\u043f\u0430\u043d, Melanitta deglandi stejnegeri, White-winged Scoter","ispublic":1,"isfriend":0,"isfamily":0},{"id":"52560455841","owner":"140734051@N08","secret":"bb5b7b6a6a","server":"65535","farm":66,"title":"\u0413\u043e\u0440\u0431\u043e\u043d\u043e\u0441\u044b\u0439 \u0442\u0443\u0440\u043f\u0430\u043d, Melanitta deglandi stejnegeri, White-winged Scoter \u2642\ufe0f \u2640\ufe0f","ispublic":1,"isfriend":0,"isfamily":0},{"id":"52560455826","owner":"140734051@N08","secret":"210647399e","server":"65535","farm":66,"title":"\u0413\u043e\u0440\u0431\u043e\u043d\u043e\u0441\u044b\u0439 \u0442\u0443\u0440\u043f\u0430\u043d, Melanitta deglandi stejnegeri, White-winged Scoter \u2642\ufe0f \u2640\ufe0f","ispublic":1,"isfriend":0,"isfamily":0},{"id":"52560004192","owner":"140734051@N08","secret":"4f3c1d3372","server":"65535","farm":66,"title":"\u0413\u043e\u0440\u0431\u043e\u043d\u043e\u0441\u044b\u0439 \u0442\u0443\u0440\u043f\u0430\u043d, Melanitta deglandi stejnegeri, White-winged Scoter \u2642\ufe0f \u2640\ufe0f","ispublic":1,"isfriend":0,"isfamily":0},{"id":"52560004157","owner":"140734051@N08","secret":"6e2a835756","server":"65535","farm":66,"title":"\u0413\u043e\u0440\u0431\u043e\u043d\u043e\u0441\u044b\u0439 \u0442\u0443\u0440\u043f\u0430\u043d, Melanitta deglandi stejnegeri, White-winged Scoter \u2642\ufe0f","ispublic":1,"isfriend":0,"isfamily":0},{"id":"52560455811","owner":"140734051@N08","secret":"1e56db166c","server":"65535","farm":66,"title":"\u0413\u043e\u0440\u0431\u043e\u043d\u043e\u0441\u044b\u0439 \u0442\u0443\u0440\u043f\u0430\u043d, Melanitta deglandi stejnegeri, White-winged Scoter \u2642\ufe0f","ispublic":1,"isfriend":0,"isfamily":0},{"id":"52560749024","owner":"140734051@N08","secret":"016ef68426","server":"65535","farm":66,"title":"\u0413\u043e\u0440\u0431\u043e\u043d\u043e\u0441\u044b\u0439 \u0442\u0443\u0440\u043f\u0430\u043d, Melanitta deglandi stejnegeri, White-winged Scoter \u2640\ufe0f","ispublic":1,"isfriend":0,"isfamily":0},{"id":"52560004127","owner":"140734051@N08","secret":"e2644eefc0","server":"65535","farm":66,"title":"\u0413\u043e\u0440\u0431\u043e\u043d\u043e\u0441\u044b\u0439 \u0442\u0443\u0440\u043f\u0430\u043d, Melanitta deglandi stejnegeri, White-winged Scoter \u2642\ufe0f \u2640\ufe0f","ispublic":1,"isfriend":0,"isfamily":0},{"id":"52560928485","owner":"140734051@N08","secret":"c347cdc7c5","server":"65535","farm":66,"title":"\u0413\u043e\u0440\u0431\u043e\u043d\u043e\u0441\u044b\u0439 \u0442\u0443\u0440\u043f\u0430\u043d, Melanitta deglandi stejnegeri, White-winged Scoter \u2642\ufe0f \u2640\ufe0f","ispublic":1,"isfriend":0,"isfamily":0},{"id":"52560455761","owner":"140734051@N08","secret":"b0637aeca8","server":"65535","farm":66,"title":"\u0413\u043e\u0440\u0431\u043e\u043d\u043e\u0441\u044b\u0439 \u0442\u0443\u0440\u043f\u0430\u043d, Melanitta deglandi stejnegeri, White-winged Scoter \u2642\ufe0f \u2640\ufe0f","ispublic":1,"isfriend":0,"isfamily":0},{"id":"52552595058","owner":"36611483@N03","secret":"0e94e44c48","server":"65535","farm":66,"title":"Velvet Scoter","ispublic":1,"isfriend":0,"isfamily":0},{"id":"52535287550","owner":"129849840@N08","secret":"32d032e3cd","server":"65535","farm":66,"title":"Sitting around on life's ocean","ispublic":1,"isfriend":0,"isfamily":0},{"id":"52490424689","owner":"73654511@N05","secret":"d7e951d91a","server":"65535","farm":66,"title":"CA3I4273-White-winged Scoter","ispublic":1,"isfriend":0,"isfamily":0},{"id":"52466259312","owner":"30553002@N05","secret":"b6c4997674","server":"65535","farm":66,"title":"the beachcombers . . .","ispublic":1,"isfriend":0,"isfamily":0},{"id":"52467644118","owner":"168495655@N07","secret":"d27727c24e","server":"65535","farm":66,"title":"Macreuse \u00e0 ailes blanches - Melanitta deglandi - White-winged Scoter","ispublic":1,"isfriend":0,"isfamily":0},{"id":"52467643908","owner":"168495655@N07","secret":"03bc69d030","server":"65535","farm":66,"title":"Macreuse \u00e0 ailes blanches - Melanitta deglandi - White-winged Scoter","ispublic":1,"isfriend":0,"isfamily":0},{"id":"52392887114","owner":"14734088@N02","secret":"82071ca199","server":"65535","farm":66,"title":"Macreuse \u00e0 ailes blanches 220924H","ispublic":1,"isfriend":0,"isfamily":0},{"id":"52390062938","owner":"36611483@N03","secret":"c564e07b0c","server":"65535","farm":66,"title":"White-winged Scoters","ispublic":1,"isfriend":0,"isfamily":0},{"id":"52363477490","owner":"66709001@N00","secret":"f72bff5359","server":"65535","farm":66,"title":"White-winged Scoter (Melanitta deglandi)","ispublic":1,"isfriend":0,"isfamily":0},{"id":"52353953760","owner":"196264892@N08","secret":"1cf89fbf48","server":"65535","farm":66,"title":"Black and White-winged Scoter Males","ispublic":1,"isfriend":0,"isfamily":0},{"id":"52351669970","owner":"40006638@N06","secret":"6c763438dd","server":"65535","farm":66,"title":"White-winged Scoter - 094A2817a6c","ispublic":1,"isfriend":0,"isfamily":0},{"id":"52258747824","owner":"184155060@N04","secret":"0ed4bffc0f","server":"65535","farm":66,"title":"00630 Macreuse \u00e0 ailes blanches \/ Melanitta deglandi \/ White-winged Scoter","ispublic":1,"isfriend":0,"isfamily":0},{"id":"52220183299","owner":"77931884@N00","secret":"211969ec14","server":"65535","farm":66,"title":"White-Winged Scoter","ispublic":1,"isfriend":0,"isfamily":0},{"id":"52210470713","owner":"65788177@N02","secret":"12810bfb05","server":"65535","farm":66,"title":"White-winged Scoter","ispublic":1,"isfriend":0,"isfamily":0},{"id":"52187298079","owner":"168495655@N07","secret":"d72cfb43cc","server":"65535","farm":66,"title":"Macreuse \u00e0 ailes blanches - Melanitta deglandi - White-winged Scoter","ispublic":1,"isfriend":0,"isfamily":0},{"id":"52187056553","owner":"168495655@N07","secret":"6d1d15833b","server":"65535","farm":66,"title":"Macreuse \u00e0 ailes blanches - Melanitta deglandi - White-winged Scoter","ispublic":1,"isfriend":0,"isfamily":0},{"id":"52160265390","owner":"165841515@N03","secret":"f1bc115414","server":"65535","farm":66,"title":"Macreuse \u00e0 ailes blanches \/ White-winged Scoter \/ (Melanitta deglandi)","ispublic":1,"isfriend":0,"isfamily":0},{"id":"52159777328","owner":"165841515@N03","secret":"234b8674e4","server":"65535","farm":66,"title":"Macreuse \u00e0 ailes blanches \/ White-winged Scoter \/ (Melanitta deglandi)","ispublic":1,"isfriend":0,"isfamily":0},{"id":"52160013404","owner":"165841515@N03","secret":"da460ea311","server":"65535","farm":66,"title":"Macreuse \u00e0 ailes blanches \/ White-winged Scoter \/ (Melanitta deglandi)","ispublic":1,"isfriend":0,"isfamily":0},{"id":"52158751507","owner":"165841515@N03","secret":"66093fe9a8","server":"65535","farm":66,"title":"Macreuse \u00e0 ailes blanches \/ White-winged Scoter \/ (Melanitta deglandi)","ispublic":1,"isfriend":0,"isfamily":0},{"id":"52160013314","owner":"165841515@N03","secret":"76512a9e85","server":"65535","farm":66,"title":"Macreuse \u00e0 ailes blanches \/ White-winged Scoter \/ (Melanitta deglandi)","ispublic":1,"isfriend":0,"isfamily":0},{"id":"52159777118","owner":"165841515@N03","secret":"39463822db","server":"65535","farm":66,"title":"Macreuse \u00e0 ailes blanches \/ White-winged Scoter \/ (Melanitta deglandi)","ispublic":1,"isfriend":0,"isfamily":0},{"id":"52159773421","owner":"165841515@N03","secret":"47620f9b18","server":"65535","farm":66,"title":"Macreuse \u00e0 ailes blanches \/ White-winged Scoter \/ (Melanitta deglandi)","ispublic":1,"isfriend":0,"isfamily":0},{"id":"52160013119","owner":"165841515@N03","secret":"0f13a762d1","server":"65535","farm":66,"title":"Macreuse \u00e0 ailes blanches \/ White-winged Scoter \/ (Melanitta deglandi)","ispublic":1,"isfriend":0,"isfamily":0},{"id":"52159776883","owner":"165841515@N03","secret":"2120fae113","server":"65535","farm":66,"title":"Macreuse \u00e0 ailes blanches \/ White-winged Scoter \/ (Melanitta deglandi)","ispublic":1,"isfriend":0,"isfamily":0},{"id":"52148510608","owner":"76617062@N08","secret":"db82079a28","server":"65535","farm":66,"title":"1.00477 Macreuse \u00e0 ailes blanches \/ Melanitta deglandi deglandi  \/ White-winged Scoter (North American)","ispublic":1,"isfriend":0,"isfamily":0},{"id":"52148731609","owner":"76617062@N08","secret":"d254a3c41a","server":"65535","farm":66,"title":"1.00477 Macreuse \u00e0 ailes blanches \/ Melanitta deglandi deglandi  \/ White-winged Scoter (North American)","ispublic":1,"isfriend":0,"isfamily":0},{"id":"52668191687","owner":"62907378@N07","secret":"3409bf1f67","server":"65535","farm":66,"title":"White-winged Scoters splashing down (Melanitta deglandi),","ispublic":1,"isfriend":0,"isfamily":0},{"id":"52668691581","owner":"62907378@N07","secret":"92a075ec4c","server":"65535","farm":66,"title":"White-winged Scoter (Melanitta deglandi)","ispublic":1,"isfriend":0,"isfamily":0},{"id":"52656886240","owner":"62907378@N07","secret":"ecf2d7c0ae","server":"65535","farm":66,"title":"White-winged Scoter m (Melanitta deglandi)","ispublic":1,"isfriend":0,"isfamily":0},{"id":"52656724374","owner":"62907378@N07","secret":"3b0f822f51","server":"65535","farm":66,"title":"White-winged Scoter m (Melanitta deglandi)","ispublic":1,"isfriend":0,"isfamily":0},{"id":"52641393508","owner":"135315828@N06","secret":"fc6df40170","server":"65535","farm":66,"title":"white-winged scoter","ispublic":1,"isfriend":0,"isfamily":0},{"id":"52641393393","owner":"135315828@N06","secret":"74e2e02ed6","server":"65535","farm":66,"title":"white-winged scoter","ispublic":1,"isfriend":0,"isfamily":0},{"id":"52580229351","owner":"153973412@N04","secret":"6018c0fd58","server":"65535","farm":66,"title":"White-winged Scoter-Melanitta deglandi, Neddick Point, ME","ispublic":1,"isfriend":0,"isfamily":0},{"id":"52513475678","owner":"39445433@N02","secret":"5e20196f7b","server":"65535","farm":66,"title":"White-Winged Scoter","ispublic":1,"isfriend":0,"isfamily":0},{"id":"52513475468","owner":"39445433@N02","secret":"a7041ec3cc","server":"65535","farm":66,"title":"White-Winged Scoter","ispublic":1,"isfriend":0,"isfamily":0},{"id":"52513407735","owner":"39445433@N02","secret":"4b6ba7c9ef","server":"65535","farm":66,"title":"White-Winged Scoter","ispublic":1,"isfriend":0,"isfamily":0},{"id":"52513211245","owner":"84169650@N07","secret":"07effb51cc","server":"65535","farm":66,"title":"White Winged Scoter","ispublic":1,"isfriend":0,"isfamily":0},{"id":"52492738876","owner":"32752434@N07","secret":"2ea0735de3","server":"65535","farm":66,"title":"White-winged Scoter (Melanitta deglandi)","ispublic":1,"isfriend":0,"isfamily":0},{"id":"52352532877","owner":"196264892@N08","secret":"6dec062495","server":"65535","farm":66,"title":"White-winged Scoter","ispublic":1,"isfriend":0,"isfamily":0},{"id":"52353793889","owner":"196264892@N08","secret":"f8f03a51f4","server":"65535","farm":66,"title":"White-winged Scoter","ispublic":1,"isfriend":0,"isfamily":0},{"id":"52353715493","owner":"196264892@N08","secret":"9325732635","server":"65535","farm":66,"title":"White-winged Scoters","ispublic":1,"isfriend":0,"isfamily":0},{"id":"52351568459","owner":"40006638@N06","secret":"3c1ed01b3f","server":"65535","farm":66,"title":"White-winged Scoter - 094A2632a5c1","ispublic":1,"isfriend":0,"isfamily":0},{"id":"52329933455","owner":"39445433@N02","secret":"0ff8306f28","server":"65535","farm":66,"title":"White-Winged Scoter","ispublic":1,"isfriend":0,"isfamily":0},{"id":"52270089626","owner":"196264892@N08","secret":"39c37f2c16","server":"65535","farm":66,"title":"White-winged Scoter","ispublic":1,"isfriend":0,"isfamily":0},{"id":"52035758222","owner":"190764460@N06","secret":"bee8c8b12b","server":"65535","farm":66,"title":"WWSC#5","ispublic":1,"isfriend":0,"isfamily":0}]},"stat":"ok"}