{"photos":{"page":1,"pages":2,"perpage":100,"total":173,"photo":[{"id":"52723871990","owner":"33610758@N08","secret":"4b7b336313","server":"65535","farm":66,"title":"White-capped Tanager (Sericossypha albocristata)","ispublic":1,"isfriend":0,"isfamily":0},{"id":"52365860357","owner":"56686021@N04","secret":"c452f59f97","server":"65535","farm":66,"title":"White-capped Tanagers","ispublic":1,"isfriend":0,"isfamily":0},{"id":"52009988204","owner":"129593667@N03","secret":"b5cf5083f6","server":"65535","farm":66,"title":"White-capped Tanager","ispublic":1,"isfriend":0,"isfamily":0},{"id":"51964039756","owner":"12185056@N02","secret":"30029c2e77","server":"65535","farm":66,"title":"White-capped Tanager (Sericossypha albocristata)","ispublic":1,"isfriend":0,"isfamily":0},{"id":"51951478799","owner":"37493716@N02","secret":"ec73fdd0ab","server":"65535","farm":66,"title":"Fauna Reserva Colibr\u00ed del sol","ispublic":1,"isfriend":0,"isfamily":0},{"id":"51951242628","owner":"37493716@N02","secret":"5454147ac4","server":"65535","farm":66,"title":"Fauna Reserva Colibr\u00ed del sol","ispublic":1,"isfriend":0,"isfamily":0},{"id":"51951151756","owner":"37493716@N02","secret":"90d98b2361","server":"65535","farm":66,"title":"Fauna Reserva Colibr\u00ed del sol","ispublic":1,"isfriend":0,"isfamily":0},{"id":"51951520548","owner":"26590455@N05","secret":"8dd350b02b","server":"65535","farm":66,"title":"Rey del Quindio-White-capped Tanager-Sericossypha albocristata.","ispublic":1,"isfriend":0,"isfamily":0},{"id":"51939017622","owner":"25486180@N07","secret":"7db83ed2e8","server":"65535","farm":66,"title":"White-capped Tanager, Sericossypha albocristata","ispublic":1,"isfriend":0,"isfamily":0},{"id":"51709653072","owner":"79410107@N08","secret":"f7636c6ab6","server":"65535","farm":66,"title":"Sericossypha albocristata - White-capped Tanager - Tangara Coroniblanca - Pollo de Monte 14","ispublic":1,"isfriend":0,"isfamily":0},{"id":"51709653007","owner":"79410107@N08","secret":"879961247a","server":"65535","farm":66,"title":"Sericossypha albocristata - White-capped Tanager - Tangara Coroniblanca - Pollo de Monte 15","ispublic":1,"isfriend":0,"isfamily":0},{"id":"51268673365","owner":"61021753@N02","secret":"d38df18fe0","server":"65535","farm":66,"title":"n45_w1150","ispublic":1,"isfriend":0,"isfamily":0},{"id":"51102065959","owner":"90410489@N02","secret":"ee15233fe6","server":"65535","farm":66,"title":"White-capped Tanager (Sericossypha albocristata)","ispublic":1,"isfriend":0,"isfamily":0},{"id":"51016650606","owner":"40003624@N06","secret":"4cebf39e4e","server":"65535","farm":66,"title":"White-capped Tanager","ispublic":1,"isfriend":0,"isfamily":0},{"id":"50667854571","owner":"147283349@N08","secret":"2274cc02b3","server":"65535","farm":66,"title":"Sericossypha albocristata -VU-","ispublic":1,"isfriend":0,"isfamily":0},{"id":"49785322147","owner":"29170368@N03","secret":"bd53788431","server":"65535","farm":66,"title":"White-capped Tanager","ispublic":1,"isfriend":0,"isfamily":0},{"id":"48986948836","owner":"90886369@N06","secret":"172d338a3e","server":"65535","farm":66,"title":"White-capped Tanager (Sericossypha albocristata)","ispublic":1,"isfriend":0,"isfamily":0},{"id":"48954119007","owner":"36847319@N07","secret":"2e3336cefc","server":"65535","farm":66,"title":"Rey del Quind\u00edo - White-capped Tanager (Sericossypha albocristata)","ispublic":1,"isfriend":0,"isfamily":0},{"id":"48360286732","owner":"155928864@N08","secret":"3c3296177e","server":"65535","farm":66,"title":"Tangara Coroniblanca, Sericossypha albocristata, White-capped Tanager. Cuyuga, Napo, Ecuador","ispublic":1,"isfriend":0,"isfamily":0},{"id":"33861474698","owner":"148001454@N05","secret":"af32740600","server":"65535","farm":66,"title":"Sericossypha albocristata","ispublic":1,"isfriend":0,"isfamily":0},{"id":"32648236427","owner":"59345530@N06","secret":"7e9a3f12ab","server":"7818","farm":8,"title":"Sericossypha albocristata - White-capped Tanager","ispublic":1,"isfriend":0,"isfamily":0},{"id":"33202471008","owner":"29170368@N03","secret":"4c9bbd8dce","server":"7857","farm":8,"title":"White-capped Tanager","ispublic":1,"isfriend":0,"isfamily":0},{"id":"42714589674","owner":"56686021@N04","secret":"ff9120f969","server":"1822","farm":2,"title":"White-capped Tanager","ispublic":1,"isfriend":0,"isfamily":0},{"id":"40133105904","owner":"38744803@N06","secret":"d74805757e","server":"791","farm":1,"title":"White-capped Tanager (Sericossypha albocristata)","ispublic":1,"isfriend":0,"isfamily":0},{"id":"38900486881","owner":"12966396@N04","secret":"7122fbf997","server":"4515","farm":5,"title":"Sericossypha albocristata - Tangara coroniblanca - White-capped Tanager","ispublic":1,"isfriend":0,"isfamily":0},{"id":"37393784675","owner":"29170368@N03","secret":"86a5d2a328","server":"65535","farm":66,"title":"White-capped Tanager","ispublic":1,"isfriend":0,"isfamily":0},{"id":"30985412663","owner":"21902062@N06","secret":"ef99969fb7","server":"751","farm":1,"title":"White-capped Tanager (male) \/ Sericossypha albocristata \/ Pollo de Monte, Rey del Quind\u00edo (macho)","ispublic":1,"isfriend":0,"isfamily":0},{"id":"31754901806","owner":"76617062@N08","secret":"0a4d65b327","server":"633","farm":1,"title":"1.28037 Tangara \u00e0 coiffe blanche \/ Sericossypha albocristata \/ White-capped Tanager","ispublic":1,"isfriend":0,"isfamily":0},{"id":"31305994380","owner":"76617062@N08","secret":"aae4c44ccb","server":"731","farm":1,"title":"1.28037 Tangara \u00e0 coiffe blanche \/ Sericossypha albocristata \/ White-capped Tanager","ispublic":1,"isfriend":0,"isfamily":0},{"id":"28656939086","owner":"10345314@N08","secret":"f021de2eca","server":"8657","farm":9,"title":"White-capped Tanager - Sericossypha albocristata","ispublic":1,"isfriend":0,"isfamily":0},{"id":"28359655622","owner":"87436727@N08","secret":"d1d2369902","server":"8249","farm":9,"title":"White-capped Tanager","ispublic":1,"isfriend":0,"isfamily":0},{"id":"25084101236","owner":"79410107@N08","secret":"2ed43a6aa6","server":"1645","farm":2,"title":"Sericossypha albocristata - White-capped Tanager - Tangara Coroniblanca - Pollo de Monte 05","ispublic":1,"isfriend":0,"isfamily":0},{"id":"25017145271","owner":"79410107@N08","secret":"fc43cbbb58","server":"1697","farm":2,"title":"Sericossypha albocristata - White-capped Tanager - Tangara Coroniblanca - Pollo de Monte 13","ispublic":1,"isfriend":0,"isfamily":0},{"id":"25110418615","owner":"79410107@N08","secret":"eb8a100232","server":"1640","farm":2,"title":"Sericossypha albocristata - White-capped Tanager - Tangara Coroniblanca - Pollo de Monte 06","ispublic":1,"isfriend":0,"isfamily":0},{"id":"25017139611","owner":"79410107@N08","secret":"c870299f4f","server":"1600","farm":2,"title":"Sericossypha albocristata - White-capped Tanager - Tangara Coroniblanca - Pollo de Monte 08","ispublic":1,"isfriend":0,"isfamily":0},{"id":"25017135541","owner":"79410107@N08","secret":"fa13e23c65","server":"1587","farm":2,"title":"Sericossypha albocristata - White-capped Tanager - Tangara Coroniblanca - Pollo de Monte 09","ispublic":1,"isfriend":0,"isfamily":0},{"id":"24629916956","owner":"37493716@N02","secret":"4251bbde3b","server":"1714","farm":2,"title":"WHITE CAPPED- TANAGER Sericossypha albocristata RNA El Mirador  (61)","ispublic":1,"isfriend":0,"isfamily":0},{"id":"24656125045","owner":"37493716@N02","secret":"ee67cd16e4","server":"1497","farm":2,"title":"WHITE CAPPED- TANAGER Sericossypha albocristata RNA El Mirador  (62)","ispublic":1,"isfriend":0,"isfamily":0},{"id":"20990341201","owner":"22837563@N08","secret":"5f1c8d995e","server":"591","farm":1,"title":"WHITE-CAPPED TANAGER","ispublic":1,"isfriend":0,"isfamily":0},{"id":"20796040359","owner":"22837563@N08","secret":"6faa23308f","server":"5833","farm":6,"title":"WHITE-CAPPED TANAGER","ispublic":1,"isfriend":0,"isfamily":0},{"id":"20315886528","owner":"53108288@N08","secret":"9392fd4fcd","server":"494","farm":1,"title":"POLLO DE MONTE\/ The white-capped tanager (Sericossypha albocristata)","ispublic":1,"isfriend":0,"isfamily":0},{"id":"51951770315","owner":"37493716@N02","secret":"3ce86d69fa","server":"65535","farm":66,"title":"Fauna Reserva Colibr\u00ed del sol","ispublic":1,"isfriend":0,"isfamily":0},{"id":"50300594172","owner":"37493716@N02","secret":"90f5245ca0","server":"65535","farm":66,"title":"Sericossypha albocristata","ispublic":1,"isfriend":0,"isfamily":0},{"id":"49315876576","owner":"185604737@N04","secret":"e5989b4076","server":"65535","farm":66,"title":"Sericossypha albocristata_DSC0158","ispublic":1,"isfriend":0,"isfamily":0},{"id":"49315876246","owner":"185604737@N04","secret":"e6a4c2f6ac","server":"65535","farm":66,"title":"Sericossypha albocristata_DSC0170","ispublic":1,"isfriend":0,"isfamily":0},{"id":"49316085732","owner":"185604737@N04","secret":"82d10486f3","server":"65535","farm":66,"title":"Sericossypha albocristata_DSC0175","ispublic":1,"isfriend":0,"isfamily":0},{"id":"49316085417","owner":"185604737@N04","secret":"ebd0091915","server":"65535","farm":66,"title":"Sericossypha albocristata_DSC0176","ispublic":1,"isfriend":0,"isfamily":0},{"id":"49315380623","owner":"185604737@N04","secret":"7a3dce4d83","server":"65535","farm":66,"title":"Sericossypha albocristata_DSC0182","ispublic":1,"isfriend":0,"isfamily":0},{"id":"49315380353","owner":"185604737@N04","secret":"803dcba47e","server":"65535","farm":66,"title":"Sericossypha albocristata_DSC0199","ispublic":1,"isfriend":0,"isfamily":0},{"id":"49315380148","owner":"185604737@N04","secret":"a21cc3ff3f","server":"65535","farm":66,"title":"Sericossypha albocristata_DSC0200","ispublic":1,"isfriend":0,"isfamily":0},{"id":"49315379768","owner":"185604737@N04","secret":"dd002d5f00","server":"65535","farm":66,"title":"Sericossypha albocristata_DSC0206","ispublic":1,"isfriend":0,"isfamily":0},{"id":"49316083802","owner":"185604737@N04","secret":"9bda727297","server":"65535","farm":66,"title":"Sericossypha albocristata_DSC0208","ispublic":1,"isfriend":0,"isfamily":0},{"id":"48573559312","owner":"83287919@N00","secret":"ee5e7b64e2","server":"65535","farm":66,"title":"Sericossypha albocristata La Ventana 230719 AV-37rc","ispublic":1,"isfriend":0,"isfamily":0},{"id":"48573401401","owner":"83287919@N00","secret":"eac003e04f","server":"65535","farm":66,"title":"Sericossypha albocristata La Ventana 230719 AV-39rc","ispublic":1,"isfriend":0,"isfamily":0},{"id":"48573399631","owner":"83287919@N00","secret":"c3aa354591","server":"65535","farm":66,"title":"Sericossypha albocristata La Ventana 230719 AV-59rc","ispublic":1,"isfriend":0,"isfamily":0},{"id":"31026859908","owner":"48943348@N04","secret":"bcf367d53a","server":"1952","farm":2,"title":"Rey del Quindio \/ White-capped Tanager (Sericossypha albocristata)","ispublic":1,"isfriend":0,"isfamily":0},{"id":"29648003987","owner":"162348704@N05","secret":"3a8ede8134","server":"1887","farm":2,"title":"Sericossypha albocristata (6)","ispublic":1,"isfriend":0,"isfamily":0},{"id":"43676506995","owner":"162348704@N05","secret":"6373d53290","server":"1848","farm":2,"title":"Sericossypha albocristata (7)","ispublic":1,"isfriend":0,"isfamily":0},{"id":"44267861091","owner":"36847319@N07","secret":"4f1dd3a28b","server":"1867","farm":2,"title":"White-capped Tanager (Sericossypha albocristata)","ispublic":1,"isfriend":0,"isfamily":0},{"id":"42714589454","owner":"56686021@N04","secret":"19604e7c7d","server":"915","farm":1,"title":"White-capped Tanager","ispublic":1,"isfriend":0,"isfamily":0},{"id":"40133106474","owner":"38744803@N06","secret":"76049de30a","server":"4780","farm":5,"title":"White-capped Tanager (Sericossypha albocristata)","ispublic":1,"isfriend":0,"isfamily":0},{"id":"26971717498","owner":"38744803@N06","secret":"e4fb3337ba","server":"806","farm":1,"title":"White-capped Tanager (Sericossypha albocristata)","ispublic":1,"isfriend":0,"isfamily":0},{"id":"39284157574","owner":"63925062@N05","secret":"03440d0de5","server":"4677","farm":5,"title":"Pollo de Monte, Sericossypha albocristata (37)","ispublic":1,"isfriend":0,"isfamily":0},{"id":"37191256041","owner":"120741004@N04","secret":"b2ab651e3b","server":"4341","farm":5,"title":"Sericossypha albocristata grupo","ispublic":1,"isfriend":0,"isfamily":0},{"id":"36409690713","owner":"120741004@N04","secret":"3118211747","server":"4359","farm":5,"title":"Sericossypha albocristata","ispublic":1,"isfriend":0,"isfamily":0},{"id":"37052395112","owner":"120741004@N04","secret":"54050d1558","server":"4440","farm":5,"title":"Sericossypha albocristata","ispublic":1,"isfriend":0,"isfamily":0},{"id":"36409689843","owner":"120741004@N04","secret":"f12fc74411","server":"4364","farm":5,"title":"Sericossypha albocristata","ispublic":1,"isfriend":0,"isfamily":0},{"id":"35470474365","owner":"48925041@N08","secret":"eb737a817f","server":"4284","farm":5,"title":"Sericossypha albocristata \/ White-capped Tanager","ispublic":1,"isfriend":0,"isfamily":0},{"id":"34541544300","owner":"125236336@N05","secret":"da329c8238","server":"4268","farm":5,"title":"Sericossypha albocristata, White-capped Tanager","ispublic":1,"isfriend":0,"isfamily":0},{"id":"31692923875","owner":"120741004@N04","secret":"0c229d99f4","server":"515","farm":1,"title":"Sericossypha albocristata","ispublic":1,"isfriend":0,"isfamily":0},{"id":"31320399310","owner":"120741004@N04","secret":"3a2bc5c3d4","server":"676","farm":1,"title":"Sericossypha albocristata","ispublic":1,"isfriend":0,"isfamily":0},{"id":"31320383290","owner":"120741004@N04","secret":"b5ab1e5835","server":"656","farm":1,"title":"Sericossypha albocristata","ispublic":1,"isfriend":0,"isfamily":0},{"id":"31577333271","owner":"120741004@N04","secret":"f92833d243","server":"293","farm":1,"title":"Sericossypha albocristata","ispublic":1,"isfriend":0,"isfamily":0},{"id":"31655948106","owner":"120741004@N04","secret":"10bf2f5c73","server":"267","farm":1,"title":"Sericossypha albocristata","ispublic":1,"isfriend":0,"isfamily":0},{"id":"31692812435","owner":"120741004@N04","secret":"ddcba953a4","server":"534","farm":1,"title":"Sericossypha albocristata","ispublic":1,"isfriend":0,"isfamily":0},{"id":"30766994434","owner":"135134997@N06","secret":"c4abaee8a9","server":"5580","farm":6,"title":"Sericossypha albocristata (White-capped Tanager)","ispublic":1,"isfriend":0,"isfamily":0},{"id":"27993159144","owner":"65854762@N06","secret":"5092bda28a","server":"8618","farm":9,"title":"Sericossypha albocristata (1)","ispublic":1,"isfriend":0,"isfamily":0},{"id":"28503514212","owner":"65854762@N06","secret":"ffc82ca142","server":"8124","farm":9,"title":"Sericossypha albocristata (3)","ispublic":1,"isfriend":0,"isfamily":0},{"id":"28325851430","owner":"65854762@N06","secret":"d0371f4d2a","server":"8793","farm":9,"title":"Sericossypha albocristata (4)","ispublic":1,"isfriend":0,"isfamily":0},{"id":"28325837910","owner":"65854762@N06","secret":"262ba2149e","server":"8017","farm":9,"title":"Sericossypha albocristata (5)","ispublic":1,"isfriend":0,"isfamily":0},{"id":"28514678431","owner":"120741004@N04","secret":"623e7c9f5e","server":"8812","farm":9,"title":"Sericossypha albocristata","ispublic":1,"isfriend":0,"isfamily":0},{"id":"28308722540","owner":"120741004@N04","secret":"e762b9fb21","server":"8727","farm":9,"title":"Sericossypha albocristata","ispublic":1,"isfriend":0,"isfamily":0},{"id":"28592954675","owner":"120741004@N04","secret":"07c13c425b","server":"8601","farm":9,"title":"Sericossypha albocristata grupo","ispublic":1,"isfriend":0,"isfamily":0},{"id":"28514661791","owner":"120741004@N04","secret":"8e9b7d523a","server":"8663","farm":9,"title":"Sericossypha albocristata grupo","ispublic":1,"isfriend":0,"isfamily":0},{"id":"28514656831","owner":"120741004@N04","secret":"ccb1b48fcf","server":"8669","farm":9,"title":"Sericossypha albocristata grupo","ispublic":1,"isfriend":0,"isfamily":0},{"id":"28514653541","owner":"120741004@N04","secret":"a6329358f0","server":"8293","farm":9,"title":"Sericossypha albocristata grupo","ispublic":1,"isfriend":0,"isfamily":0},{"id":"28514629481","owner":"120741004@N04","secret":"c6ac3a0e36","server":"8880","farm":9,"title":"Sericossypha albocristata","ispublic":1,"isfriend":0,"isfamily":0},{"id":"28486100122","owner":"120741004@N04","secret":"34b80b2af2","server":"8623","farm":9,"title":"Sericossypha albocristata","ispublic":1,"isfriend":0,"isfamily":0},{"id":"28514622171","owner":"120741004@N04","secret":"64a585b972","server":"8596","farm":9,"title":"Sericossypha albocristata","ispublic":1,"isfriend":0,"isfamily":0},{"id":"27977187333","owner":"120741004@N04","secret":"a3185bc397","server":"8632","farm":9,"title":"Sericossypha albocristata","ispublic":1,"isfriend":0,"isfamily":0},{"id":"28529024055","owner":"143238396@N03","secret":"faf1aa8606","server":"8738","farm":9,"title":"WHITE CAPPED- TANAGER Sericossypha albocristata","ispublic":1,"isfriend":0,"isfamily":0},{"id":"28423022702","owner":"143238396@N03","secret":"aa7cc46201","server":"8711","farm":9,"title":"WHITE-CAPPED TANAGER (Sericossypha albocristata)","ispublic":1,"isfriend":0,"isfamily":0},{"id":"27659541753","owner":"133996040@N03","secret":"4557d30fe1","server":"8662","farm":9,"title":"T\u00e1ngara coroniblanca, Rey del Quind\u00edo","ispublic":1,"isfriend":0,"isfamily":0},{"id":"28240603246","owner":"133996040@N03","secret":"91bac83936","server":"8571","farm":9,"title":"T\u00e1ngara coroniblanca, Rey del Quind\u00edo","ispublic":1,"isfriend":0,"isfamily":0},{"id":"26603706072","owner":"51950484@N03","secret":"4a6cd285c3","server":"1619","farm":2,"title":"Sericossypha albocristata","ispublic":1,"isfriend":0,"isfamily":0},{"id":"25968388062","owner":"128426916@N07","secret":"8d4ce4f395","server":"1569","farm":2,"title":"Sericossypha albocristata","ispublic":1,"isfriend":0,"isfamily":0},{"id":"21272178813","owner":"120741004@N04","secret":"1dea3bfaf0","server":"5664","farm":6,"title":"Sericossypha albocristata","ispublic":1,"isfriend":0,"isfamily":0},{"id":"21881318952","owner":"120741004@N04","secret":"ea2f9bc480","server":"625","farm":1,"title":"Sericossypha albocristata pareja","ispublic":1,"isfriend":0,"isfamily":0},{"id":"21881363812","owner":"120741004@N04","secret":"a473a891c2","server":"606","farm":1,"title":"Sericossypha albocristata","ispublic":1,"isfriend":0,"isfamily":0},{"id":"20041086198","owner":"8327478@N03","secret":"5e50d26980","server":"322","farm":1,"title":"White-capped Tanager (Sericossypha albocristata)","ispublic":1,"isfriend":0,"isfamily":0}]},"stat":"ok"}