{"photos":{"page":1,"pages":309,"perpage":100,"total":30835,"photo":[{"id":"52792675465","owner":"183827496@N04","secret":"606a8afa24","server":"65535","farm":66,"title":"Seeadler - White-tailed eagle (Haliaeetus albicilla)","ispublic":1,"isfriend":0,"isfamily":0},{"id":"52790773774","owner":"12639178@N07","secret":"9a135b14be","server":"65535","farm":66,"title":"Seeadler kreist hoch \u00fcber der Aller","ispublic":1,"isfriend":0,"isfamily":0},{"id":"52790104911","owner":"12639178@N07","secret":"8ea26ec496","server":"65535","farm":66,"title":"Seeadler im Flug","ispublic":1,"isfriend":0,"isfamily":0},{"id":"52789545037","owner":"12639178@N07","secret":"537b6b449a","server":"65535","farm":66,"title":"Seeadler mit Beute (2)","ispublic":1,"isfriend":0,"isfamily":0},{"id":"52790104396","owner":"12639178@N07","secret":"75c81b6112","server":"65535","farm":66,"title":"Seeadler hebt ab","ispublic":1,"isfriend":0,"isfamily":0},{"id":"52789544477","owner":"12639178@N07","secret":"c341fa0c76","server":"65535","farm":66,"title":"Seeadler mit Beute (1)","ispublic":1,"isfriend":0,"isfamily":0},{"id":"52789544237","owner":"12639178@N07","secret":"cea297392c","server":"65535","farm":66,"title":"Seeadler mit Beute","ispublic":1,"isfriend":0,"isfamily":0},{"id":"52789236837","owner":"12639178@N07","secret":"ef919ebb34","server":"65535","farm":66,"title":"Beleg Seeadler","ispublic":1,"isfriend":0,"isfamily":0},{"id":"52788311549","owner":"12639178@N07","secret":"a59f6a51d2","server":"65535","farm":66,"title":"Seeadler","ispublic":1,"isfriend":0,"isfamily":0},{"id":"52788531158","owner":"12639178@N07","secret":"81dbb4411c","server":"65535","farm":66,"title":"Seeadler","ispublic":1,"isfriend":0,"isfamily":0},{"id":"52787524667","owner":"12639178@N07","secret":"8d10e47e47","server":"65535","farm":66,"title":"Seeadler","ispublic":1,"isfriend":0,"isfamily":0},{"id":"52788310844","owner":"12639178@N07","secret":"29ab85c592","server":"65535","farm":66,"title":"Seeadler","ispublic":1,"isfriend":0,"isfamily":0},{"id":"52788530438","owner":"12639178@N07","secret":"f3c3c80de1","server":"65535","farm":66,"title":"Seeadler","ispublic":1,"isfriend":0,"isfamily":0},{"id":"52779412480","owner":"182124861@N08","secret":"8d08bd9d24","server":"65535","farm":66,"title":"White-tailed Eagle, Haliaeetus albicilla, Isle of Islay, Scottishh Hebrides. .","ispublic":1,"isfriend":0,"isfamily":0},{"id":"52787874899","owner":"141633483@N05","secret":"36bc35db93","server":"65535","farm":66,"title":"Seeadler - Haliaeetus albicilla","ispublic":1,"isfriend":0,"isfamily":0},{"id":"52787812873","owner":"12639178@N07","secret":"31edc2ecc1","server":"65535","farm":66,"title":"junger Seeadler \u00fcber die Schleuse hoch oben geflogen","ispublic":1,"isfriend":0,"isfamily":0},{"id":"52785400096","owner":"75116064@N04","secret":"6ecc4812b8","server":"65535","farm":66,"title":"Bald eagle","ispublic":1,"isfriend":0,"isfamily":0},{"id":"52785175864","owner":"95795254@N02","secret":"0d564a090a","server":"65535","farm":66,"title":"White-tailed Eagle - Dive, dive, dive 720_1717.jpg","ispublic":1,"isfriend":0,"isfamily":0},{"id":"52784083698","owner":"19034378@N05","secret":"9acd9693fe","server":"65535","farm":66,"title":"A White Tailed Eagle in the skies above Lambar Bay in Lake M\u00e4laren, Stockholm","ispublic":1,"isfriend":0,"isfamily":0},{"id":"52784083663","owner":"19034378@N05","secret":"2e686f5544","server":"65535","farm":66,"title":"A White Tailed Eagle in the skies above Lambar Bay in Lake M\u00e4laren, Stockholm","ispublic":1,"isfriend":0,"isfamily":0},{"id":"52784023585","owner":"19034378@N05","secret":"77b4a0e67e","server":"65535","farm":66,"title":"A White Tailed Eagle in the skies above Lambar Bay in Lake M\u00e4laren, Stockholm","ispublic":1,"isfriend":0,"isfamily":0},{"id":"52784083558","owner":"19034378@N05","secret":"19e07e84b6","server":"65535","farm":66,"title":"A White Tailed Eagle in the skies above Lambar Bay in Lake M\u00e4laren, Stockholm","ispublic":1,"isfriend":0,"isfamily":0},{"id":"52783626586","owner":"19034378@N05","secret":"28b511e6b7","server":"65535","farm":66,"title":"A White Tailed Eagle in the skies above Lambar Bay in Lake M\u00e4laren, Stockholm","ispublic":1,"isfriend":0,"isfamily":0},{"id":"52783233630","owner":"106691137@N06","secret":"927ac51c97","server":"65535","farm":66,"title":"On The Navigation Leading Mark","ispublic":1,"isfriend":0,"isfamily":0},{"id":"52779283917","owner":"12639178@N07","secret":"ffdb46d49e","server":"65535","farm":66,"title":"Seeadler (Haliaeetus albicilla) (1)","ispublic":1,"isfriend":0,"isfamily":0},{"id":"52778831722","owner":"12639178@N07","secret":"036a4f5e24","server":"65535","farm":66,"title":"Tsch\u00fc\u00df, Seeadler","ispublic":1,"isfriend":0,"isfamily":0},{"id":"52779616544","owner":"12639178@N07","secret":"5cba3bcde3","server":"65535","farm":66,"title":"leider etwas zu schnell f\u00fcr meine Kamera","ispublic":1,"isfriend":0,"isfamily":0},{"id":"52779360386","owner":"12639178@N07","secret":"dd6c850a58","server":"65535","farm":66,"title":"er kreiste \u00fcber den H\u00e4usern","ispublic":1,"isfriend":0,"isfamily":0},{"id":"52779779755","owner":"12639178@N07","secret":"f51aa2233e","server":"65535","farm":66,"title":"ein Seeadler direkt \u00fcber mir - was f\u00fcr ein Erlebnis!","ispublic":1,"isfriend":0,"isfamily":0},{"id":"52778631487","owner":"143177362@N06","secret":"1e24d8839e","server":"65535","farm":66,"title":"Pygargue \u00e0 queue blanche - White tailed eagle - Haliaeetus albicilla","ispublic":1,"isfriend":0,"isfamily":0},{"id":"52779427810","owner":"42388593@N04","secret":"a58267bb32","server":"65535","farm":66,"title":"Hav\u00f8rn, White-tailed eagle, Seeadler (Haliaeetus albicilla)-0575","ispublic":1,"isfriend":0,"isfamily":0},{"id":"52778470557","owner":"42388593@N04","secret":"f1d42c1678","server":"65535","farm":66,"title":"Hav\u00f8rn, White-tailed eagle, Seeadler (Haliaeetus albicilla)-0578","ispublic":1,"isfriend":0,"isfamily":0},{"id":"52777796593","owner":"12639178@N07","secret":"c1a691fd5d","server":"65535","farm":66,"title":"Rotmilan immer wieder in der N\u00e4he","ispublic":1,"isfriend":0,"isfamily":0},{"id":"52777725120","owner":"12639178@N07","secret":"2406ff7b2e","server":"65535","farm":66,"title":"Seeadler und Rotmilan..interessanter Gr\u00f6ssenvergleich","ispublic":1,"isfriend":0,"isfamily":0},{"id":"52777791838","owner":"12639178@N07","secret":"4d08130761","server":"65535","farm":66,"title":"Seeadler und Rotmilan..interessanter Gr\u00f6ssenvergleich","ispublic":1,"isfriend":0,"isfamily":0},{"id":"52775607533","owner":"12639178@N07","secret":"4c366ddf82","server":"65535","farm":66,"title":"Seeadler (Haliaeetus albicilla) (1)","ispublic":1,"isfriend":0,"isfamily":0},{"id":"52775343704","owner":"42388593@N04","secret":"9a9831f588","server":"65535","farm":66,"title":"Hav\u00f8rn, White-tailed eagle, Seeadler (Haliaeetus albicilla)-0546","ispublic":1,"isfriend":0,"isfamily":0},{"id":"52771656592","owner":"8177037@N06","secret":"3832a8f558","server":"65535","farm":66,"title":"White-tailed eagle","ispublic":1,"isfriend":0,"isfamily":0},{"id":"52772177161","owner":"8177037@N06","secret":"4f6fbd437c","server":"65535","farm":66,"title":"White-tailed eagle","ispublic":1,"isfriend":0,"isfamily":0},{"id":"52772435269","owner":"8177037@N06","secret":"719878f9c5","server":"65535","farm":66,"title":"White-tailed eagle","ispublic":1,"isfriend":0,"isfamily":0},{"id":"52771645232","owner":"8177037@N06","secret":"1e4de5ae0b","server":"65535","farm":66,"title":"White-tailed eagle","ispublic":1,"isfriend":0,"isfamily":0},{"id":"52771653826","owner":"129461956@N02","secret":"3f4d87a141","server":"65535","farm":66,"title":"Seeadler ( Haliaeetus albicilla ) White-tailed Eagle","ispublic":1,"isfriend":0,"isfamily":0},{"id":"52771483021","owner":"42388593@N04","secret":"3f9a2236d1","server":"65535","farm":66,"title":"Hav\u00f8rn, White-tailed eagle, Seeadler (Haliaeetus albicilla)-2","ispublic":1,"isfriend":0,"isfamily":0},{"id":"52769789241","owner":"27480477@N07","secret":"0c6d25a270","server":"65535","farm":66,"title":"DSC02366 Zeearend, White-Tailed Eagle, Haliaeetus albicilla.","ispublic":1,"isfriend":0,"isfamily":0},{"id":"52730904905","owner":"157759258@N03","secret":"c79b05654a","server":"65535","farm":66,"title":"Bielik, orze\u0142 bielik, White-tailed Eagle (Haliaeetus albicilla)","ispublic":1,"isfriend":0,"isfamily":0},{"id":"52730345846","owner":"157759258@N03","secret":"0370e124d6","server":"65535","farm":66,"title":"Bielik, orze\u0142 bielik, White-tailed Eagle (Haliaeetus albicilla)","ispublic":1,"isfriend":0,"isfamily":0},{"id":"52768181769","owner":"42388593@N04","secret":"afaaea1d07","server":"65535","farm":66,"title":"Hav\u00f8rn, White-tailed eagle, Seeadler (Haliaeetus albicilla)-0528","ispublic":1,"isfriend":0,"isfamily":0},{"id":"52767077648","owner":"12639178@N07","secret":"b78c9b7cb2","server":"65535","farm":66,"title":"\u00fcber dem \u00fcberschwemmten Laascher See","ispublic":1,"isfriend":0,"isfamily":0},{"id":"52766843094","owner":"12639178@N07","secret":"e85b5bf68e","server":"65535","farm":66,"title":"auf der Jagd","ispublic":1,"isfriend":0,"isfamily":0},{"id":"52766588711","owner":"12639178@N07","secret":"ff7910a609","server":"65535","farm":66,"title":"Seeadler","ispublic":1,"isfriend":0,"isfamily":0},{"id":"52766621370","owner":"42388593@N04","secret":"e6b087a8ce","server":"65535","farm":66,"title":"Hav\u00f8rn, White-tailed eagle, Seeadler (Haliaeetus albicilla)-0545","ispublic":1,"isfriend":0,"isfamily":0},{"id":"52765124553","owner":"140507227@N08","secret":"039e882912","server":"65535","farm":66,"title":"Eurasian sea eagle (Haliaeetus albicilla)","ispublic":1,"isfriend":0,"isfamily":0},{"id":"52764069692","owner":"12639178@N07","secret":"264b715c79","server":"65535","farm":66,"title":"Beleg Seeadler","ispublic":1,"isfriend":0,"isfamily":0},{"id":"52760661870","owner":"192234655@N08","secret":"27422734e3","server":"65535","farm":66,"title":"Bielik, White Tailed Eagle  (Haliaeetus albicilla)","ispublic":1,"isfriend":0,"isfamily":0},{"id":"52757007767","owner":"61220767@N03","secret":"1f46722912","server":"65535","farm":66,"title":"white-tailed eagle hu","ispublic":1,"isfriend":0,"isfamily":0},{"id":"52757766988","owner":"12639178@N07","secret":"4e983fce43","server":"65535","farm":66,"title":"Seeadler","ispublic":1,"isfriend":0,"isfamily":0},{"id":"52757173355","owner":"12639178@N07","secret":"b53564b9ff","server":"65535","farm":66,"title":"Seeadler, Geltinger Birk","ispublic":1,"isfriend":0,"isfamily":0},{"id":"52754008332","owner":"14191740@N08","secret":"59b2137e3d","server":"65535","farm":66,"title":"White-tailed Eagle (Haliaeetus albicilla), Loch Tuath, Isle of Mull","ispublic":1,"isfriend":0,"isfamily":0},{"id":"52753725767","owner":"97303805@N00","secret":"c0c1ea1c98","server":"65535","farm":66,"title":"American Bald Eagle | Haliaeetus leucocephalus | 2022 - 21","ispublic":1,"isfriend":0,"isfamily":0},{"id":"52754266436","owner":"97303805@N00","secret":"b411242bb8","server":"65535","farm":66,"title":"American Bald Eagle | Haliaeetus leucocephalus | 2022 - 20","ispublic":1,"isfriend":0,"isfamily":0},{"id":"52752185853","owner":"27450769@N06","secret":"4ebbf32fe0","server":"65535","farm":66,"title":"Wings are freedom only when they are wide open in flight. On one's back they are a heavy weight.","ispublic":1,"isfriend":0,"isfamily":0},{"id":"52751400941","owner":"54724497@N02","secret":"ab9cb5ca1f","server":"65535","farm":66,"title":"Havs\u00f6rn, Haliaeetus albicilla, White-tailed Eagle","ispublic":1,"isfriend":0,"isfamily":0},{"id":"52750384247","owner":"192234655@N08","secret":"49d4a52de5","server":"65535","farm":66,"title":"Bielik, White Tailed Eagle  (Haliaeetus albicilla)","ispublic":1,"isfriend":0,"isfamily":0},{"id":"52751216610","owner":"62815486@N07","secret":"b58da4d300","server":"65535","farm":66,"title":"\u767d\u5c3e\u6d77\u96d5 Haliaeetus albicilla","ispublic":1,"isfriend":0,"isfamily":0},{"id":"52751212890","owner":"62815486@N07","secret":"278dea2ce6","server":"65535","farm":66,"title":"\u767d\u5c3e\u6d77\u96d5 Haliaeetus albicilla","ispublic":1,"isfriend":0,"isfamily":0},{"id":"52750800576","owner":"62815486@N07","secret":"60078a28bd","server":"65535","farm":66,"title":"\u767d\u5c3e\u6d77\u96d5 Haliaeetus albicilla","ispublic":1,"isfriend":0,"isfamily":0},{"id":"52750651311","owner":"95795254@N02","secret":"e4f603b0cc","server":"65535","farm":66,"title":"Checking his catch 504_7837.jpg","ispublic":1,"isfriend":0,"isfamily":0},{"id":"52749711455","owner":"184960040@N02","secret":"7b446cc855","server":"65535","farm":66,"title":"Seeadler \/ White-tailed eagle","ispublic":1,"isfriend":0,"isfamily":0},{"id":"52749794643","owner":"184960040@N02","secret":"1cde7f52d1","server":"65535","farm":66,"title":"Seeadler \/ White-tailed eagle","ispublic":1,"isfriend":0,"isfamily":0},{"id":"52747231912","owner":"160662839@N03","secret":"c4e299da36","server":"65535","farm":66,"title":"J\u016brinis erelis(Haliaeetus albicilla) (1 of 1)-3","ispublic":1,"isfriend":0,"isfamily":0},{"id":"52746965002","owner":"12639178@N07","secret":"ee3f5192bf","server":"65535","farm":66,"title":"Seeadler (Haliaeetus albicilla)","ispublic":1,"isfriend":0,"isfamily":0},{"id":"52746223807","owner":"54724497@N02","secret":"e074509cda","server":"65535","farm":66,"title":"Havs\u00f6rn, Haliaeetus albicilla, White-tailed Eagle","ispublic":1,"isfriend":0,"isfamily":0},{"id":"52745829359","owner":"22794096@N04","secret":"becdebcb56","server":"65535","farm":66,"title":"Eagle against Buzzard","ispublic":1,"isfriend":0,"isfamily":0},{"id":"52746055673","owner":"12639178@N07","secret":"941b85c49e","server":"65535","farm":66,"title":"als er hier im W\u00e4ldchen landete, gab es lautes Geschrei...","ispublic":1,"isfriend":0,"isfamily":0},{"id":"52745039707","owner":"12639178@N07","secret":"32178a8480","server":"65535","farm":66,"title":"ein Seeadler verjagte andere V\u00f6gel","ispublic":1,"isfriend":0,"isfamily":0},{"id":"52746054233","owner":"12639178@N07","secret":"c4301d21e1","server":"65535","farm":66,"title":"ein Seeadler","ispublic":1,"isfriend":0,"isfamily":0},{"id":"52746054058","owner":"12639178@N07","secret":"ed64b9811d","server":"65535","farm":66,"title":"Belegfotos vom Seeadler","ispublic":1,"isfriend":0,"isfamily":0},{"id":"52745628464","owner":"12639178@N07","secret":"14b1153790","server":"65535","farm":66,"title":"Beleg Seeadler","ispublic":1,"isfriend":0,"isfamily":0},{"id":"52743078546","owner":"22392439@N04","secret":"496fbb1124","server":"65535","farm":66,"title":"Hitchhiker","ispublic":1,"isfriend":0,"isfamily":0},{"id":"52742076234","owner":"184960040@N02","secret":"39a80e4e3e","server":"65535","farm":66,"title":"Seeadler \/ White-tailed eagle","ispublic":1,"isfriend":0,"isfamily":0},{"id":"52742076169","owner":"184960040@N02","secret":"3e549e10f6","server":"65535","farm":66,"title":"Seeadler \/ White-tailed eagle","ispublic":1,"isfriend":0,"isfamily":0},{"id":"52740862026","owner":"142276524@N03","secret":"0e92928ec4","server":"65535","farm":66,"title":"White-tailed eagle Haliaeetus albicilla pair","ispublic":1,"isfriend":0,"isfamily":0},{"id":"52740344367","owner":"142276524@N03","secret":"06a909ac75","server":"65535","farm":66,"title":"White-tailed eagle Haliaeetus albicilla pair","ispublic":1,"isfriend":0,"isfamily":0},{"id":"52741267040","owner":"142276524@N03","secret":"4904093bc1","server":"65535","farm":66,"title":"White-tailed eagle Haliaeetus albicilla pair","ispublic":1,"isfriend":0,"isfamily":0},{"id":"52741097464","owner":"142276524@N03","secret":"aa7fb64e81","server":"65535","farm":66,"title":"White-tailed eagle Haliaeetus albicilla pair","ispublic":1,"isfriend":0,"isfamily":0},{"id":"52740305487","owner":"142276524@N03","secret":"8fefcfe4a4","server":"65535","farm":66,"title":"White-tailed eagle Haliaeetus albicilla pair","ispublic":1,"isfriend":0,"isfamily":0},{"id":"52741014894","owner":"22392439@N04","secret":"50ab159102","server":"65535","farm":66,"title":"Grab and Go","ispublic":1,"isfriend":0,"isfamily":0},{"id":"52740522474","owner":"145907835@N07","secret":"1367219b93","server":"65535","farm":66,"title":"Zeearend - Haliaeetus albicilla","ispublic":1,"isfriend":0,"isfamily":0},{"id":"52740676750","owner":"22392439@N04","secret":"612d887b0e","server":"65535","farm":66,"title":"Gliding","ispublic":1,"isfriend":0,"isfamily":0},{"id":"52738164883","owner":"12639178@N07","secret":"ff537609e7","server":"65535","farm":66,"title":"er kreist \u00fcber den See","ispublic":1,"isfriend":0,"isfamily":0},{"id":"52737683586","owner":"12639178@N07","secret":"665bdb47cc","server":"65535","farm":66,"title":"ein toller Anblick","ispublic":1,"isfriend":0,"isfamily":0},{"id":"52737683441","owner":"12639178@N07","secret":"a81e8e775d","server":"65535","farm":66,"title":"Seeadler","ispublic":1,"isfriend":0,"isfamily":0},{"id":"52736238208","owner":"95795254@N02","secret":"c4dbf768bf","server":"65535","farm":66,"title":"White-tailed Eagle 851_2674.jpg","ispublic":1,"isfriend":0,"isfamily":0},{"id":"52735860024","owner":"129044672@N02","secret":"772e92b9b5","server":"65535","farm":66,"title":"Seeadler (Haliaeetus albicilla)\u00a9Arne Flemke","ispublic":1,"isfriend":0,"isfamily":0},{"id":"52733893152","owner":"62815486@N07","secret":"0708a78322","server":"65535","farm":66,"title":"\u767d\u5c3e\u6d77\u96d5 Haliaeetus albicilla","ispublic":1,"isfriend":0,"isfamily":0},{"id":"52733729412","owner":"62815486@N07","secret":"bfc174bda9","server":"65535","farm":66,"title":"\u767d\u5c3e\u6d77\u96d5 Haliaeetus albicilla","ispublic":1,"isfriend":0,"isfamily":0},{"id":"52734646405","owner":"62815486@N07","secret":"302346ed5d","server":"65535","farm":66,"title":"\u767d\u5c3e\u6d77\u96d5 Haliaeetus albicilla","ispublic":1,"isfriend":0,"isfamily":0},{"id":"52734674068","owner":"62815486@N07","secret":"b240d26be2","server":"65535","farm":66,"title":"\u767d\u5c3e\u6d77\u96d5 Haliaeetus albicilla","ispublic":1,"isfriend":0,"isfamily":0},{"id":"52734443429","owner":"62815486@N07","secret":"2041ab6846","server":"65535","farm":66,"title":"\u767d\u5c3e\u6d77\u96d5 Haliaeetus albicilla","ispublic":1,"isfriend":0,"isfamily":0},{"id":"52734069059","owner":"62815486@N07","secret":"a81f3bfe9c","server":"65535","farm":66,"title":"\u767d\u5c3e\u6d77\u96d5 Haliaeetus albicilla","ispublic":1,"isfriend":0,"isfamily":0}]},"stat":"ok"}