{"photos":{"page":1,"pages":2,"perpage":100,"total":146,"photo":[{"id":"51348062831","owner":"41643989@N04","secret":"f7b55f43a7","server":"65535","farm":66,"title":"White-flanked Antwren - Myrmotherula axillaris - Reserva San Francisco, Panam\u00e1, Panama - June 15, 2021","ispublic":1,"isfriend":0,"isfamily":0},{"id":"51348289393","owner":"41643989@N04","secret":"dea6dda684","server":"65535","farm":66,"title":"White-flanked Antwren - Myrmotherula axillaris - Reserva San Francisco, Panam\u00e1, Panama - June 15, 2021","ispublic":1,"isfriend":0,"isfamily":0},{"id":"51237996146","owner":"61021753@N02","secret":"68485a93f7","server":"65535","farm":66,"title":"n750_w1150","ispublic":1,"isfriend":0,"isfamily":0},{"id":"51236499436","owner":"182381287@N07","secret":"65fa5be9cb","server":"65535","farm":66,"title":"Choquinha-de-flanco-branco (Myrmotherula axillaris)","ispublic":1,"isfriend":0,"isfamily":0},{"id":"50438726117","owner":"79410107@N08","secret":"79d49476d5","server":"65535","farm":66,"title":"Myrmotherula axillaris - White-flanked Antwren - Hormiguerito Flanquialbo 03","ispublic":1,"isfriend":0,"isfamily":0},{"id":"50173777112","owner":"37493716@N02","secret":"8a661cd76e","server":"65535","farm":66,"title":"Myrmotherula axillaris","ispublic":1,"isfriend":0,"isfamily":0},{"id":"49312554871","owner":"83287919@N00","secret":"ed06dcfc8a","server":"65535","farm":66,"title":"Myrmotherula axillaris F Mgne des Pe\u0300res 010120 AV-21rc","ispublic":1,"isfriend":0,"isfamily":0},{"id":"48719083606","owner":"33820263@N07","secret":"c07f5eebff","server":"65535","farm":66,"title":"White-flanked Antwren","ispublic":1,"isfriend":0,"isfamily":0},{"id":"40193975013","owner":"33820263@N07","secret":"8cbfce4970","server":"65535","farm":66,"title":"White-flanked Antwren","ispublic":1,"isfriend":0,"isfamily":0},{"id":"33283715178","owner":"33820263@N07","secret":"cd477e8cb9","server":"65535","farm":66,"title":"White-flanked Antwren","ispublic":1,"isfriend":0,"isfamily":0},{"id":"45977914121","owner":"21147276@N03","secret":"08f92ff8ac","server":"4876","farm":5,"title":"Spots","ispublic":1,"isfriend":0,"isfamily":0},{"id":"30416341118","owner":"26371261@N00","secret":"5eff210f7e","server":"1872","farm":2,"title":"White-flanked Antwren, Myrmotherula axillaris","ispublic":1,"isfriend":0,"isfamily":0},{"id":"42140961944","owner":"26371261@N00","secret":"39e320b9c5","server":"1757","farm":2,"title":"White-flanked Antwren, Myrmotherula axillaris","ispublic":1,"isfriend":0,"isfamily":0},{"id":"41072201312","owner":"63093099@N02","secret":"4aab40b949","server":"791","farm":1,"title":"White-flanked Antwren (fledgling); 20180317; PA-Col\u00f3n-Gamboa","ispublic":1,"isfriend":0,"isfamily":0},{"id":"41072199952","owner":"63093099@N02","secret":"eb89eac8b1","server":"807","farm":1,"title":"White-flanked Antwren (female); 20180317; PA-Col\u00f3n-Gamboa","ispublic":1,"isfriend":0,"isfamily":0},{"id":"27242568498","owner":"63093099@N02","secret":"6fd8f8fbf3","server":"881","farm":1,"title":"White-flanked Antwren (female); 20180317; PA-Col\u00f3n-Gamboa","ispublic":1,"isfriend":0,"isfamily":0},{"id":"26961737838","owner":"153199674@N07","secret":"8d26c68aa3","server":"4772","farm":5,"title":"Thamnophilidae: Myrmotherula axillaris - White-flanked Antwren","ispublic":1,"isfriend":0,"isfamily":0},{"id":"38439429330","owner":"127581961@N08","secret":"7e852c073f","server":"4651","farm":5,"title":"Myrmidon \u00e0 flancs blancs (Myrmotherula axillaris)","ispublic":1,"isfriend":0,"isfamily":0},{"id":"25328055128","owner":"76617062@N08","secret":"45c3d24bfc","server":"4646","farm":5,"title":"1.11847 Myrmidon \u00e0 flancs blancs  \/ Myrmotherula axillaris albigula \/ White-flanked Antwren","ispublic":1,"isfriend":0,"isfamily":0},{"id":"37994893505","owner":"65788177@N02","secret":"eb4284dd87","server":"4551","farm":5,"title":"White-flanked Antwren","ispublic":1,"isfriend":0,"isfamily":0},{"id":"36944093543","owner":"54249623@N08","secret":"bc009cb138","server":"4489","farm":5,"title":"Silvery-flanked Antwren, White-flanked Antwren (Myrmotherula luctuosa) (Myrmotherula axillaris luctuosa)","ispublic":1,"isfriend":0,"isfamily":0},{"id":"35921337990","owner":"29170368@N03","secret":"9341c8b706","server":"4302","farm":5,"title":"White-flanked Antwren","ispublic":1,"isfriend":0,"isfamily":0},{"id":"35921337510","owner":"29170368@N03","secret":"4230421533","server":"65535","farm":66,"title":"White-flanked Antwren","ispublic":1,"isfriend":0,"isfamily":0},{"id":"35921337320","owner":"29170368@N03","secret":"e7b01a8693","server":"4296","farm":5,"title":"White-flanked Antwren","ispublic":1,"isfriend":0,"isfamily":0},{"id":"34876113944","owner":"120741004@N04","secret":"cd215ecff6","server":"4232","farm":5,"title":"Myrmotherula axillaris","ispublic":1,"isfriend":0,"isfamily":0},{"id":"35134013576","owner":"48369842@N07","secret":"cf7d9ca9ea","server":"4238","farm":5,"title":"Myrmotherula axillaris","ispublic":1,"isfriend":0,"isfamily":0},{"id":"33216413085","owner":"21147276@N03","secret":"3fb16cf831","server":"3872","farm":4,"title":"Perch","ispublic":1,"isfriend":0,"isfamily":0},{"id":"32735748322","owner":"21147276@N03","secret":"8402aa3f17","server":"3696","farm":4,"title":"Breakfast","ispublic":1,"isfriend":0,"isfamily":0},{"id":"32103787190","owner":"63334460@N05","secret":"b9b76367a7","server":"459","farm":1,"title":"White-flanked Antwren \/ Hormiguerito de flanco blanco","ispublic":1,"isfriend":0,"isfamily":0},{"id":"31545936961","owner":"87325282@N00","secret":"17b3687e08","server":"480","farm":1,"title":"Choquinha de Flanco Branco \/ White-flanked Antwren (Myrmotherula axillaris)","ispublic":1,"isfriend":0,"isfamily":0},{"id":"31545907201","owner":"87325282@N00","secret":"14f23b356d","server":"332","farm":1,"title":"Choquinha de Flanco Branco \/ White-flanked Antwren (Myrmotherula axillaris)","ispublic":1,"isfriend":0,"isfamily":0},{"id":"30720190684","owner":"29367844@N03","secret":"6b96a382f1","server":"709","farm":1,"title":"White-Flanked Antwren - 2","ispublic":1,"isfriend":0,"isfamily":0},{"id":"30643811904","owner":"87325282@N00","secret":"7acf4b18bf","server":"5617","farm":6,"title":"Choquinha de Flanco Branco \/ White-flanked Antwren (Myrmotherula axillaris) female","ispublic":1,"isfriend":0,"isfamily":0},{"id":"29535510716","owner":"41247557@N05","secret":"bc674d91b0","server":"8067","farm":9,"title":"Myrmotherula axillaris","ispublic":1,"isfriend":0,"isfamily":0},{"id":"29479554245","owner":"33859460@N02","secret":"98174e2097","server":"8157","farm":9,"title":"Choquinha-de-flanco-branco Myrmotherula axillaris","ispublic":1,"isfriend":0,"isfamily":0},{"id":"28603060766","owner":"126761410@N03","secret":"9c9f5cc591","server":"8868","farm":9,"title":"White-flanked Antbird \/ Hormiguerito Flanquiblanco - \u2642","ispublic":1,"isfriend":0,"isfamily":0},{"id":"28346867926","owner":"95526805@N07","secret":"2f9126c4e2","server":"8347","farm":9,"title":"HORMIGUERITO FLANQUIALBO \/ WHITE-FLANKED ANTWREN","ispublic":1,"isfriend":0,"isfamily":0},{"id":"27594904010","owner":"127581961@N08","secret":"abe4f3c285","server":"7518","farm":8,"title":"Myrmidon \u00e0 flancs blancs (Myrmotherula axillaris )","ispublic":1,"isfriend":0,"isfamily":0},{"id":"26254255345","owner":"33816646@N06","secret":"1589b753f6","server":"1684","farm":2,"title":"White-flanked Antwren (Silvery-flanked) (Myrmotherula axillaris luctuosa), Crasto, Sergipe, BR, 20160116-101.jpg","ispublic":1,"isfriend":0,"isfamily":0},{"id":"23504524135","owner":"32674493@N04","secret":"805a94b220","server":"738","farm":1,"title":"Choquinha-de-flanco-branco (Myrmotherula axillaris luctuosa) macho","ispublic":1,"isfriend":0,"isfamily":0},{"id":"23019790626","owner":"22859749@N07","secret":"271a59fd33","server":"680","farm":1,"title":"white-flanked antwren starting a nest","ispublic":1,"isfriend":0,"isfamily":0},{"id":"22368245800","owner":"48938938@N04","secret":"3c2e90296c","server":"664","farm":1,"title":"White-flanked Antwren, Myrmotherula axillaris. Female","ispublic":1,"isfriend":0,"isfamily":0},{"id":"21762201406","owner":"58747226@N02","secret":"baf62a1a80","server":"652","farm":1,"title":"Choquinha-de-flanco-branco - Myrmotherula axillaris - White-flanked Antwren -","ispublic":1,"isfriend":0,"isfamily":0},{"id":"21351019579","owner":"58747226@N02","secret":"947597a42d","server":"5665","farm":6,"title":"Choquinha-de-flanco-branco - Myrmotherula axillaris - White-flanked Antwren -","ispublic":1,"isfriend":0,"isfamily":0},{"id":"21093074566","owner":"10140657@N02","secret":"117c151254","server":"5669","farm":6,"title":"3941-Choquinha-de-flanco-branco (Myrmotherula axillaris)-macho","ispublic":1,"isfriend":0,"isfamily":0},{"id":"17279275551","owner":"10140657@N02","secret":"247a7bdde6","server":"7704","farm":8,"title":"3799-Choquinha-de-flanco-branco (Myrmotherula axillaris)-macho","ispublic":1,"isfriend":0,"isfamily":0},{"id":"17190066835","owner":"98861805@N08","secret":"5df98246d9","server":"7697","farm":8,"title":"choquinha-de flanco-branco (Myrmotherula axillaris)","ispublic":1,"isfriend":0,"isfamily":0},{"id":"52497779733","owner":"36274920@N05","secret":"1d1cffea17","server":"65535","farm":66,"title":"Panam\u00e1 - Novembre 2022","ispublic":1,"isfriend":0,"isfamily":0},{"id":"52428854771","owner":"77128742@N06","secret":"4382ed12d6","server":"65535","farm":66,"title":"Brasilien-Wei\u00dfflanken-Ameisenschlu\u0308pfer_Myrmotherula axillaris heterozyga-3","ispublic":1,"isfriend":0,"isfamily":0},{"id":"51153656671","owner":"186193378@N07","secret":"8a5ef79627","server":"65535","farm":66,"title":"Choquinha-de-flanco-branco (f\u00eamea) (Myrmotherula axillaris) White-flanked Antwren","ispublic":1,"isfriend":0,"isfamily":0},{"id":"49369200042","owner":"87325282@N00","secret":"193439c376","server":"65535","farm":66,"title":"Myrmotherula axillaris","ispublic":1,"isfriend":0,"isfamily":0},{"id":"49368984681","owner":"87325282@N00","secret":"62a79312dd","server":"65535","farm":66,"title":"Myrmotherula axillaris","ispublic":1,"isfriend":0,"isfamily":0},{"id":"49328196817","owner":"186193378@N07","secret":"faa245ecbb","server":"65535","farm":66,"title":"Choquinha-de-flanco-branco (macho) (Myrmotherula axillaris) White-flanked Antwren","ispublic":1,"isfriend":0,"isfamily":0},{"id":"48756640946","owner":"38048846@N07","secret":"9181e0f1ed","server":"65535","farm":66,"title":"Choquinha-de-flanco-branco macho -  Myrmotherula axillaris - White-flanked Antwren.","ispublic":1,"isfriend":0,"isfamily":0},{"id":"48754604897","owner":"46788536@N05","secret":"1d50bb8291","server":"65535","farm":66,"title":"Myrmotherula axillaris \/\/ White-flanked Antwren","ispublic":1,"isfriend":0,"isfamily":0},{"id":"48388478001","owner":"38048846@N07","secret":"266f540dae","server":"65535","farm":66,"title":"Choquinha-de-flanco-branco - Myrmotherula axillaris - White-flanked Antwren.","ispublic":1,"isfriend":0,"isfamily":0},{"id":"48123257951","owner":"38048846@N07","secret":"b0bb4cfa59","server":"65535","farm":66,"title":"Choquinha-de-flanco-branco - Myrmotherula axillaris - White-flanked Antwren.","ispublic":1,"isfriend":0,"isfamily":0},{"id":"40257684723","owner":"7330431@N08","secret":"3b58f4e9a3","server":"7833","farm":8,"title":"White-flanked Antwren Myrmotherula axillaris (m)","ispublic":1,"isfriend":0,"isfamily":0},{"id":"40257684663","owner":"7330431@N08","secret":"b9e1efe592","server":"7859","farm":8,"title":"White-flanked Antwren Myrmotherula axillaris (m)","ispublic":1,"isfriend":0,"isfamily":0},{"id":"47210586041","owner":"151731548@N08","secret":"f9713749bd","server":"7820","farm":8,"title":"Smith et al. 2014 - Myrmotherula axillaris","ispublic":1,"isfriend":0,"isfamily":0},{"id":"45389866915","owner":"87325282@N00","secret":"2ca97be08c","server":"4884","farm":5,"title":"Myrmotherula axillaris","ispublic":1,"isfriend":0,"isfamily":0},{"id":"45380322364","owner":"140667048@N05","secret":"bcdfb42cc9","server":"4834","farm":5,"title":"Myrmotherula axillaris","ispublic":1,"isfriend":0,"isfamily":0},{"id":"45966673712","owner":"120741004@N04","secret":"0217013c4a","server":"4834","farm":5,"title":"Myrmotherula axillaris","ispublic":1,"isfriend":0,"isfamily":0},{"id":"45966671962","owner":"120741004@N04","secret":"71b82a105c","server":"4843","farm":5,"title":"Myrmotherula axillaris","ispublic":1,"isfriend":0,"isfamily":0},{"id":"45966670932","owner":"120741004@N04","secret":"d6fb512d9a","server":"4917","farm":5,"title":"Myrmotherula axillaris","ispublic":1,"isfriend":0,"isfamily":0},{"id":"45085700815","owner":"131522364@N08","secret":"c264c8d47c","server":"4887","farm":5,"title":"#063 White-flanked Antwren (Myrmotherula axillaris luctuosa) #2","ispublic":1,"isfriend":0,"isfamily":0},{"id":"43597904070","owner":"87325282@N00","secret":"475efe582b","server":"1918","farm":2,"title":"Myrmotherula axillaris","ispublic":1,"isfriend":0,"isfamily":0},{"id":"43597869530","owner":"87325282@N00","secret":"65da01b54c","server":"1964","farm":2,"title":"Myrmotherula axillaris","ispublic":1,"isfriend":0,"isfamily":0},{"id":"31539143178","owner":"87325282@N00","secret":"f5d7bb9db0","server":"1908","farm":2,"title":"Myrmotherula axillaris","ispublic":1,"isfriend":0,"isfamily":0},{"id":"30353513937","owner":"87325282@N00","secret":"7018ff3735","server":"1945","farm":2,"title":"Myrmotherula axillaris","ispublic":1,"isfriend":0,"isfamily":0},{"id":"31418193048","owner":"87325282@N00","secret":"eff0638ab2","server":"1907","farm":2,"title":"Myrmotherula axillaris","ispublic":1,"isfriend":0,"isfamily":0},{"id":"44380160435","owner":"87325282@N00","secret":"987c79aa16","server":"1931","farm":2,"title":"Myrmotherula axillaris female","ispublic":1,"isfriend":0,"isfamily":0},{"id":"43670317464","owner":"87325282@N00","secret":"dd76fd178d","server":"1898","farm":2,"title":"Myrmotherula axillaris","ispublic":1,"isfriend":0,"isfamily":0},{"id":"43670308554","owner":"87325282@N00","secret":"05e51b922d","server":"1898","farm":2,"title":"Myrmotherula axillaris","ispublic":1,"isfriend":0,"isfamily":0},{"id":"41533356722","owner":"33106392@N08","secret":"8707cf4f2f","server":"820","farm":1,"title":"White-flanked Antwren","ispublic":1,"isfriend":0,"isfamily":0},{"id":"34908004253","owner":"120741004@N04","secret":"1fe84dc12a","server":"4278","farm":5,"title":"Myrmotherula axillaris","ispublic":1,"isfriend":0,"isfamily":0},{"id":"34908001873","owner":"120741004@N04","secret":"02696e7ca3","server":"4230","farm":5,"title":"Myrmotherula axillaris","ispublic":1,"isfriend":0,"isfamily":0},{"id":"34876112294","owner":"120741004@N04","secret":"8f6b03882b","server":"4288","farm":5,"title":"Myrmotherula axillaris","ispublic":1,"isfriend":0,"isfamily":0},{"id":"35717376075","owner":"120741004@N04","secret":"0491b57caf","server":"4091","farm":5,"title":"Myrmotherula axillaris","ispublic":1,"isfriend":0,"isfamily":0},{"id":"33117416524","owner":"87325282@N00","secret":"f93be69745","server":"3947","farm":4,"title":"Myrmotherula axillaris","ispublic":1,"isfriend":0,"isfamily":0},{"id":"33919716416","owner":"87325282@N00","secret":"49976d4798","server":"2837","farm":3,"title":"Myrmotherula axillaris","ispublic":1,"isfriend":0,"isfamily":0},{"id":"31005792084","owner":"66973379@N04","secret":"fec0d934b4","server":"5563","farm":6,"title":"Choquinha-de-flanco-branco (Myrmotherula axillaris)","ispublic":1,"isfriend":0,"isfamily":0},{"id":"30947615715","owner":"48938938@N04","secret":"a9f72e504d","server":"5650","farm":6,"title":"White-flanked Antwren, Myrmotherula axillaris","ispublic":1,"isfriend":0,"isfamily":0},{"id":"29459841612","owner":"41247557@N05","secret":"c954c605c6","server":"8129","farm":9,"title":"Myrmotherula axillaris","ispublic":1,"isfriend":0,"isfamily":0},{"id":"29279509810","owner":"41247557@N05","secret":"25ef1d0165","server":"8407","farm":9,"title":"Myrmotherula axillaris","ispublic":1,"isfriend":0,"isfamily":0},{"id":"28902057534","owner":"87325282@N00","secret":"463bbd2acd","server":"8079","farm":9,"title":"Choquinha de flanco branco \/ White-flanked antwren (Myrmotherula axillaris) female","ispublic":1,"isfriend":0,"isfamily":0},{"id":"28489725563","owner":"87325282@N00","secret":"477989fddd","server":"8190","farm":9,"title":"Choquinha de Flanco Branco \/ White-flanked Antwren (Myrmotherula axillaris)","ispublic":1,"isfriend":0,"isfamily":0},{"id":"28603272412","owner":"28937016@N08","secret":"9d0d3f877e","server":"8718","farm":9,"title":"White-flanked Antwren   (Myrmotherula axillaris)","ispublic":1,"isfriend":0,"isfamily":0},{"id":"24651836924","owner":"67951746@N02","secret":"975b67cc6e","server":"1632","farm":2,"title":"Myrmotherula axillaris - White-flanked Antwren (PAN)","ispublic":1,"isfriend":0,"isfamily":0},{"id":"24355784460","owner":"23856345@N06","secret":"38c3da1ae6","server":"1616","farm":2,"title":"White-flanked Antwren (m)","ispublic":1,"isfriend":0,"isfamily":0},{"id":"22777353370","owner":"87325282@N00","secret":"c61e758f66","server":"5647","farm":6,"title":"Myrmotherula axillaris","ispublic":1,"isfriend":0,"isfamily":0},{"id":"22368495058","owner":"48938938@N04","secret":"ebe0da85d5","server":"737","farm":1,"title":"White-flanked Antwren, Myrmotherula axillaris. Male","ispublic":1,"isfriend":0,"isfamily":0},{"id":"22542630382","owner":"48938938@N04","secret":"fd2d641a7f","server":"591","farm":1,"title":"White-flanked Antwren, Myrmotherula axillaris. Male","ispublic":1,"isfriend":0,"isfamily":0},{"id":"21187867424","owner":"134455890@N04","secret":"1bbfd66420","server":"685","farm":1,"title":"Choquinha-de-flanco-branco (Myrmotherula axillaris)","ispublic":1,"isfriend":0,"isfamily":0},{"id":"21174839001","owner":"27600575@N03","secret":"4d84c96ff6","server":"742","farm":1,"title":"Hormiguerito de Flanco Blanco \/ White-flanked Antwren (Myrmotherula axillaris) en la estaci\u00f3n La Novia - MABOSINFRON, Pur\u00fas, Ucayali","ispublic":1,"isfriend":0,"isfamily":0},{"id":"17804823566","owner":"131263530@N04","secret":"ed5b811a21","server":"8756","farm":9,"title":"Myrmotherula axillaris (H)","ispublic":1,"isfriend":0,"isfamily":0},{"id":"17644867519","owner":"131263530@N04","secret":"7fc4103cc3","server":"7743","farm":8,"title":"Myrmotherula axillaris (M)","ispublic":1,"isfriend":0,"isfamily":0},{"id":"16678997510","owner":"58747226@N02","secret":"6fea416567","server":"7599","farm":8,"title":"Choquinha-de-flanco-branco","ispublic":1,"isfriend":0,"isfamily":0},{"id":"15069248164","owner":"15244353@N08","secret":"78de62186b","server":"8621","farm":9,"title":"Myrmotherula axillaris","ispublic":1,"isfriend":0,"isfamily":0},{"id":"15227257480","owner":"127518570@N05","secret":"4f1a713d2d","server":"3928","farm":4,"title":"C96814_MYRMOTHERULA AXILLARIS_FCF_M_JUN282014_2303_AHERNANDEZ","ispublic":1,"isfriend":0,"isfamily":0}]},"stat":"ok"}