{"photos":{"page":1,"pages":3,"perpage":100,"total":222,"photo":[{"id":"52590145257","owner":"65788177@N02","secret":"ac93795972","server":"65535","farm":66,"title":"White-throated Thrush","ispublic":1,"isfriend":0,"isfamily":0},{"id":"52518704227","owner":"41694014@N04","secret":"b27b76411e","server":"65535","farm":66,"title":"Turdus assimilis","ispublic":1,"isfriend":0,"isfamily":0},{"id":"52160439689","owner":"54249623@N08","secret":"6a0a9e3f0a","server":"65535","farm":66,"title":"Mirla del Pac\u00edfico, White-throated Thrush (Turdus assimilis)","ispublic":1,"isfriend":0,"isfamily":0},{"id":"52058290824","owner":"132508209@N08","secret":"60795f5107","server":"65535","farm":66,"title":"White-throated Thrush (Turdus assimilis)","ispublic":1,"isfriend":0,"isfamily":0},{"id":"51410713687","owner":"33106392@N08","secret":"c84dba75a1","server":"65535","farm":66,"title":"White-throated Thrush","ispublic":1,"isfriend":0,"isfamily":0},{"id":"51320825098","owner":"77671375@N04","secret":"5385700089","server":"65535","farm":66,"title":"White-throated Thrush","ispublic":1,"isfriend":0,"isfamily":0},{"id":"51146286970","owner":"148175456@N03","secret":"986727661b","server":"65535","farm":66,"title":"Mirlo Garganta Blanca (Turdus assimilis).","ispublic":1,"isfriend":0,"isfamily":0},{"id":"51072983787","owner":"45759259@N06","secret":"42ba26a413","server":"65535","farm":66,"title":"Merle \u00e0 gorge blanche Turdus assimilis White-throated Thrush","ispublic":1,"isfriend":0,"isfamily":0},{"id":"50995385386","owner":"31755594@N04","secret":"b9ddd037ee","server":"65535","farm":66,"title":"1- \"UN ZORZAL ES UN ZORZAL Y LO DEMAS ES MONTE Y CULEBRA C.M.P\"","ispublic":1,"isfriend":0,"isfamily":0},{"id":"50995493407","owner":"31755594@N04","secret":"c06c4d6229","server":"65535","farm":66,"title":"8- \"UN ZORZAL ES UN ZORZAL Y LO DEMAS ES MONTE Y CULEBRA C.M.P\"","ispublic":1,"isfriend":0,"isfamily":0},{"id":"50994682008","owner":"31755594@N04","secret":"6b64862264","server":"65535","farm":66,"title":"7- \"UN ZORZAL ES UN ZORZAL Y LO DEMAS ES MONTE Y CULEBRA C.M.P\"","ispublic":1,"isfriend":0,"isfamily":0},{"id":"50995490082","owner":"31755594@N04","secret":"4a5c240a1c","server":"65535","farm":66,"title":"6- \"UN ZORZAL ES UN ZORZAL Y LO DEMAS ES MONTE Y CULEBRA C.M.P\"","ispublic":1,"isfriend":0,"isfamily":0},{"id":"50994678658","owner":"31755594@N04","secret":"747d780fcf","server":"65535","farm":66,"title":"5- \"UN ZORZAL ES UN ZORZAL Y LO DEMAS ES MONTE Y CULEBRA C.M.P\"","ispublic":1,"isfriend":0,"isfamily":0},{"id":"50995368321","owner":"31755594@N04","secret":"a3e3e077fb","server":"65535","farm":66,"title":"2- \"UN ZORZAL ES UN ZORZAL Y LO DEMAS ES MONTE Y CULEBRA C.M.P\"","ispublic":1,"isfriend":0,"isfamily":0},{"id":"50775330838","owner":"32805478@N03","secret":"e3ce461a48","server":"65535","farm":66,"title":"Zorzal cuelliblanco norte\u00f1o, Turdus assimilis, White-throated Thrush","ispublic":1,"isfriend":0,"isfamily":0},{"id":"50775330433","owner":"32805478@N03","secret":"6d6b730646","server":"65535","farm":66,"title":"Zorzal cuelliblanco norte\u00f1o, Turdus assimilis, White-throated Thrush","ispublic":1,"isfriend":0,"isfamily":0},{"id":"50761500228","owner":"32805478@N03","secret":"81be22cfaa","server":"65535","farm":66,"title":"Zorzal cuelliblanco norte\u00f1o, Turdus assimilis, White-throated Thrush","ispublic":1,"isfriend":0,"isfamily":0},{"id":"49970364506","owner":"184155060@N04","secret":"cc92363d5b","server":"65535","farm":66,"title":"27389 Merle \u00e0 gorge blanche \/ Turdus assimilis lygrus \/ White-throated Thrush (White-throated)","ispublic":1,"isfriend":0,"isfamily":0},{"id":"49731496267","owner":"101106007@N04","secret":"752f20311c","server":"65535","farm":66,"title":"015A3035 White-throated Thrush","ispublic":1,"isfriend":0,"isfamily":0},{"id":"49396564942","owner":"186466053@N05","secret":"8b6623db2c","server":"65535","farm":66,"title":"Turdus assimilis","ispublic":1,"isfriend":0,"isfamily":0},{"id":"49210928883","owner":"132508209@N08","secret":"5763a5fa55","server":"65535","farm":66,"title":"White-throated Robin (Turdus assimilis)","ispublic":1,"isfriend":0,"isfamily":0},{"id":"49210928843","owner":"132508209@N08","secret":"be3a59ff3a","server":"65535","farm":66,"title":"White-throated Robin (Turdus assimilis)","ispublic":1,"isfriend":0,"isfamily":0},{"id":"47948204111","owner":"56983940@N06","secret":"e5621742d8","server":"65535","farm":66,"title":"White-throated Thrush","ispublic":1,"isfriend":0,"isfamily":0},{"id":"46964613355","owner":"76617062@N08","secret":"ed7ea0be91","server":"65535","farm":66,"title":"1.26138 Merle \u00e0 gorge blanche \/ Turdus assimilis lygrus \/ White-throated Thrush","ispublic":1,"isfriend":0,"isfamily":0},{"id":"32841741707","owner":"61316002@N02","secret":"2521327be6","server":"65535","farm":66,"title":"WHITHRTHR 0084","ispublic":1,"isfriend":0,"isfamily":0},{"id":"32702494867","owner":"130764811@N03","secret":"8bd5345b56","server":"65535","farm":66,"title":"White-throated Thrush | Turdus assimilis","ispublic":1,"isfriend":0,"isfamily":0},{"id":"46900798064","owner":"76617062@N08","secret":"687d60bee9","server":"65535","farm":66,"title":"1.26138 Merle \u00e0 gorge blanche \/ Turdus assimilis lygrus \/ White-throated Thrush","ispublic":1,"isfriend":0,"isfamily":0},{"id":"40163793133","owner":"23713672@N05","secret":"8a2f9a9ce7","server":"7918","farm":8,"title":"White-throated Thrush Turdus assimilis","ispublic":1,"isfriend":0,"isfamily":0},{"id":"46977795322","owner":"36682266@N06","secret":"2e50100a99","server":"7905","farm":8,"title":"White-throated Thrush (Turdus assimilis)","ispublic":1,"isfriend":0,"isfamily":0},{"id":"46263520344","owner":"36682266@N06","secret":"2f77f0b97f","server":"4900","farm":5,"title":"White-throated Thrush (Turdus assimilis)","ispublic":1,"isfriend":0,"isfamily":0},{"id":"39880698403","owner":"8065544@N08","secret":"809c4fb642","server":"4841","farm":5,"title":"White-throated Thrush (Turdus assimilis)","ispublic":1,"isfriend":0,"isfamily":0},{"id":"46010709694","owner":"61316002@N02","secret":"be2ddb5301","server":"4851","farm":5,"title":"WHITHRTHR 0088","ispublic":1,"isfriend":0,"isfamily":0},{"id":"45809175095","owner":"48912028@N05","secret":"7837f6a37b","server":"7868","farm":8,"title":"White-throated Thrush, Turdus assimilis","ispublic":1,"isfriend":0,"isfamily":0},{"id":"46724659761","owner":"48912028@N05","secret":"c6b7bf8011","server":"4903","farm":5,"title":"White-throated Thrush, Turdus assimilis","ispublic":1,"isfriend":0,"isfamily":0},{"id":"32256572328","owner":"43184676@N08","secret":"930176e5bd","server":"4821","farm":5,"title":"White-throated Thrush","ispublic":1,"isfriend":0,"isfamily":0},{"id":"44973516345","owner":"22915448@N05","secret":"bdb1db04ea","server":"4855","farm":5,"title":"Mirlo garganta blanca - Turdus assimilis","ispublic":1,"isfriend":0,"isfamily":0},{"id":"43416338675","owner":"16037309@N05","secret":"82463b5160","server":"1847","farm":2,"title":"IMG_E2283 White-throated Thrush","ispublic":1,"isfriend":0,"isfamily":0},{"id":"41190770075","owner":"40928097@N07","secret":"0545544fe7","server":"829","farm":1,"title":"White-throated Thrush","ispublic":1,"isfriend":0,"isfamily":0},{"id":"27151197677","owner":"36299322@N07","secret":"fc54d4ce70","server":"952","farm":1,"title":"White-throated Thrush","ispublic":1,"isfriend":0,"isfamily":0},{"id":"41983871631","owner":"120741004@N04","secret":"0e0d876990","server":"830","farm":1,"title":"Turdus assimilis","ispublic":1,"isfriend":0,"isfamily":0},{"id":"41976193281","owner":"38179496@N05","secret":"f1c67b5820","server":"909","farm":1,"title":"Mirlo Gorgiblanco (Yig\u00fcirro Collarejo, Yig\u00fcirro de Monta\u00f1a) - (Turdus assimilis)","ispublic":1,"isfriend":0,"isfamily":0},{"id":"26576777387","owner":"136621171@N08","secret":"3fed394e3d","server":"65535","farm":66,"title":"White-throated Thrush,  Merle \u00e0 Gorge Blanche, Mirlo Garganta Blanca, Turdus Assimilis.","ispublic":1,"isfriend":0,"isfamily":0},{"id":"40994967742","owner":"119095828@N03","secret":"3d88929b22","server":"863","farm":1,"title":"White-throated Thrush (Turdus assimilis)","ispublic":1,"isfriend":0,"isfamily":0},{"id":"40045230552","owner":"95103016@N04","secret":"2e3026840f","server":"4752","farm":5,"title":"Turdus assimilis","ispublic":1,"isfriend":0,"isfamily":0},{"id":"40078253431","owner":"95103016@N04","secret":"75de046381","server":"4629","farm":5,"title":"Turdus assimilis","ispublic":1,"isfriend":0,"isfamily":0},{"id":"37133199034","owner":"48014585@N00","secret":"c4090e9e3a","server":"4493","farm":5,"title":"White-throated Thrush","ispublic":1,"isfriend":0,"isfamily":0},{"id":"37133198364","owner":"48014585@N00","secret":"8be8d57451","server":"4448","farm":5,"title":"White-throated Thrush","ispublic":1,"isfriend":0,"isfamily":0},{"id":"37223237201","owner":"29170368@N03","secret":"67960c0180","server":"65535","farm":66,"title":"White-throated Thrush","ispublic":1,"isfriend":0,"isfamily":0},{"id":"36278134371","owner":"143189289@N02","secret":"0d1b989831","server":"65535","farm":66,"title":"Mirlo garganta blanca, White-throated Thrush (Turdus assimilis)","ispublic":1,"isfriend":0,"isfamily":0},{"id":"35452677761","owner":"102629446@N07","secret":"d718e996e8","server":"4262","farm":5,"title":"White-throated Thrush\/ Mirlo garganta blanca (Turdus assimilis)","ispublic":1,"isfriend":0,"isfamily":0},{"id":"35582751825","owner":"102629446@N07","secret":"43be442494","server":"4286","farm":5,"title":"White-throated Thrush\/ Mirlo garganta blanca (Turdus assimilis)","ispublic":1,"isfriend":0,"isfamily":0},{"id":"35176649032","owner":"126761410@N03","secret":"51f4928c7c","server":"4251","farm":5,"title":"White-throated Thrush \/ Mirlo Gorguiblanco","ispublic":1,"isfriend":0,"isfamily":0},{"id":"34229794105","owner":"123681428@N02","secret":"02ed7a9392","server":"2947","farm":3,"title":"Turdus assimilis (Mirlo de gorguera blanca, Yiguirro collarejo), White - throated Robin","ispublic":1,"isfriend":0,"isfamily":0},{"id":"33845726280","owner":"123681428@N02","secret":"a1bf298bc4","server":"2942","farm":3,"title":"Turdus assimilis (Mirlo de gorguera blanca, Yiguirro collarejo), White - throated Robin","ispublic":1,"isfriend":0,"isfamily":0},{"id":"33388168384","owner":"123681428@N02","secret":"e4b4f25a85","server":"2888","farm":3,"title":"Turdus assimilis (Mirlo de gorguera blanca, Yiguirro collarejo), White - throated Robin","ispublic":1,"isfriend":0,"isfamily":0},{"id":"32583496844","owner":"61140219@N08","secret":"0122502777","server":"649","farm":1,"title":"White-throated Trush (Turdus assimilis), Costa Rica","ispublic":1,"isfriend":0,"isfamily":0},{"id":"32691547776","owner":"34318245@N08","secret":"46da16133a","server":"65535","farm":66,"title":"0121601","ispublic":1,"isfriend":0,"isfamily":0},{"id":"32693728755","owner":"54249623@N08","secret":"eb139032fd","server":"65535","farm":66,"title":"White-throated Thrush (Turdus albicollis) (Turdus assimilis)","ispublic":1,"isfriend":0,"isfamily":0},{"id":"27944260970","owner":"41694014@N04","secret":"5c26461e82","server":"8753","farm":9,"title":"Turdus assimilis","ispublic":1,"isfriend":0,"isfamily":0},{"id":"27117333466","owner":"124352908@N08","secret":"ffe236cd8e","server":"7742","farm":8,"title":"White-throated Thrush + Rufous-backed Robin","ispublic":1,"isfriend":0,"isfamily":0},{"id":"27081798311","owner":"124352908@N08","secret":"82c512bf0a","server":"7372","farm":8,"title":"White-throated Thrush","ispublic":1,"isfriend":0,"isfamily":0},{"id":"51985120870","owner":"126271444@N08","secret":"a6c7313cef","server":"65535","farm":66,"title":"White-throated Thrush (Turdus assimilis)","ispublic":1,"isfriend":0,"isfamily":0},{"id":"51715557914","owner":"12639178@N07","secret":"4c2bb84162","server":"65535","farm":66,"title":"Wei\u00dfkehldrossel","ispublic":1,"isfriend":0,"isfamily":0},{"id":"51683341198","owner":"41694014@N04","secret":"20c9c5a755","server":"65535","farm":66,"title":"Turdus assimilis","ispublic":1,"isfriend":0,"isfamily":0},{"id":"51424413876","owner":"12639178@N07","secret":"b1fee6c1fd","server":"65535","farm":66,"title":"8211_White-throated Robin Turdus assimilis","ispublic":1,"isfriend":0,"isfamily":0},{"id":"51320624516","owner":"77671375@N04","secret":"49728194c3","server":"65535","farm":66,"title":"White-throated Thrush","ispublic":1,"isfriend":0,"isfamily":0},{"id":"51232524286","owner":"146357337@N08","secret":"a3cb65367a","server":"65535","farm":66,"title":"Mirlo gorgiblanco [Turdus assimilis] Panam\u00e1","ispublic":1,"isfriend":0,"isfamily":0},{"id":"51092011341","owner":"142134964@N04","secret":"aab2f5d37c","server":"65535","farm":66,"title":"199- Yiguirro collarejo (Turdus assimilis)","ispublic":1,"isfriend":0,"isfamily":0},{"id":"50995484142","owner":"31755594@N04","secret":"26ff83dcfc","server":"65535","farm":66,"title":"4- \"UN ZORZAL ES UN ZORZAL Y LO DEMAS ES MONTE Y CULEBRA C.M.P\"","ispublic":1,"isfriend":0,"isfamily":0},{"id":"50994672813","owner":"31755594@N04","secret":"a8bba69f2b","server":"65535","farm":66,"title":"3- \"UN ZORZAL ES UN ZORZAL Y LO DEMAS ES MONTE Y CULEBRA C.M.P\"","ispublic":1,"isfriend":0,"isfamily":0},{"id":"49879850802","owner":"55968524@N04","secret":"0e87a9cbe2","server":"65535","farm":66,"title":"3T9P5866 - White-throated Thrush - Turdus assimilis.jpg","ispublic":1,"isfriend":0,"isfamily":0},{"id":"49709367321","owner":"125723802@N05","secret":"7d11611578","server":"65535","farm":66,"title":"Turdus assimilis - White-throated Thrush","ispublic":1,"isfriend":0,"isfamily":0},{"id":"49500084678","owner":"43184676@N08","secret":"2099c7dd9e","server":"65535","farm":66,"title":"White-throated Thrush","ispublic":1,"isfriend":0,"isfamily":0},{"id":"49223543251","owner":"12639178@N07","secret":"a848b6aaa2","server":"65535","farm":66,"title":"White-throated Thrush juvenile - Panama (Belegbild)","ispublic":1,"isfriend":0,"isfamily":0},{"id":"48654531958","owner":"26803925@N05","secret":"f9413104b7","server":"65535","farm":66,"title":"White-throated Thrush (Turdus assimilis) 01-27-2005 Frontera Audubon Center, Hidalgo Co. TX 5","ispublic":1,"isfriend":0,"isfamily":0},{"id":"48654890036","owner":"26803925@N05","secret":"0726580d90","server":"65535","farm":66,"title":"White-throated Thrush (Turdus assimilis) 01-27-2005 Frontera Audubon Center, Hidalgo Co. TX 2","ispublic":1,"isfriend":0,"isfamily":0},{"id":"46992830324","owner":"99208129@N08","secret":"cbafa697dd","server":"65535","farm":66,"title":"Turdus assimilis \/ White-throated Thrush","ispublic":1,"isfriend":0,"isfamily":0},{"id":"32266767197","owner":"96568982@N06","secret":"5a66c5ebf3","server":"7825","farm":8,"title":"THRUSH, White-throated","ispublic":1,"isfriend":0,"isfamily":0},{"id":"39837039523","owner":"129803374@N05","secret":"38f3f558a2","server":"7877","farm":8,"title":"White-throated Thrush (Turdus assimilis)","ispublic":1,"isfriend":0,"isfamily":0},{"id":"42003718470","owner":"99613800@N02","secret":"dc070d5cfd","server":"1799","farm":2,"title":"Turdus assimilis (White-throated Thrush) - Turdidae - Pipeline Trail, Bajo Mono, Boquete, Chiriqui, Panama","ispublic":1,"isfriend":0,"isfamily":0},{"id":"42908994785","owner":"99613800@N02","secret":"49d315b3e9","server":"857","farm":1,"title":"Turdus assimilis (White-throated Thrush) - Turdidae - Pipeline Trail, Bajo Mono, Boquete, Chiriqui, Panama-2 (2)","ispublic":1,"isfriend":0,"isfamily":0},{"id":"43812574851","owner":"99613800@N02","secret":"cb8c90e094","server":"1840","farm":2,"title":"Turdus assimilis (White-throated Thrush) - Turdidae - Pipeline Trail, Bajo Mono, Boquete, Chiriqui, Panama-2","ispublic":1,"isfriend":0,"isfamily":0},{"id":"41083694135","owner":"120741004@N04","secret":"933818d2c7","server":"980","farm":1,"title":"Turdus assimilis","ispublic":1,"isfriend":0,"isfamily":0},{"id":"41983871131","owner":"120741004@N04","secret":"85fa9bae92","server":"830","farm":1,"title":"Turdus assimilis","ispublic":1,"isfriend":0,"isfamily":0},{"id":"41976191181","owner":"38179496@N05","secret":"48e5914699","server":"905","farm":1,"title":"Mirlo Gorgiblanco (Yig\u00fcirro Collarejo, Yig\u00fcirro de Monta\u00f1a) - (Turdus assimilis)","ispublic":1,"isfriend":0,"isfamily":0},{"id":"40592938155","owner":"41694014@N04","secret":"5c2904552a","server":"880","farm":1,"title":"Turdus assimilis","ispublic":1,"isfriend":0,"isfamily":0},{"id":"27165828488","owner":"119095828@N03","secret":"7a6052b2e7","server":"891","farm":1,"title":"White-throated Thrush (Turdus assimilis)","ispublic":1,"isfriend":0,"isfamily":0},{"id":"39228224080","owner":"119095828@N03","secret":"beafc60a7b","server":"883","farm":1,"title":"White-throated Thrush (Turdus assimilis)","ispublic":1,"isfriend":0,"isfamily":0},{"id":"39412941534","owner":"39277887@N07","secret":"480f2f5066","server":"4712","farm":5,"title":"Costa Rican White-throated Thrush","ispublic":1,"isfriend":0,"isfamily":0},{"id":"39412930734","owner":"39277887@N07","secret":"6ce79a3d7a","server":"4697","farm":5,"title":"Amazing Eye Ring of the White-throated Thrush","ispublic":1,"isfriend":0,"isfamily":0},{"id":"37310610482","owner":"72340495@N06","secret":"deaafdb1c0","server":"4369","farm":5,"title":"White-throated Thrush","ispublic":1,"isfriend":0,"isfamily":0},{"id":"36557338685","owner":"152410663@N05","secret":"775a266589","server":"4424","farm":5,"title":"White-throated thrush (Turdus assimilis)","ispublic":1,"isfriend":0,"isfamily":0},{"id":"36535647305","owner":"80288319@N02","secret":"a42b2cbd8f","server":"4395","farm":5,"title":"Turdus assimilis","ispublic":1,"isfriend":0,"isfamily":0},{"id":"33897125250","owner":"102541808@N06","secret":"96129c0d55","server":"2840","farm":3,"title":"Turdus assimilis","ispublic":1,"isfriend":0,"isfamily":0},{"id":"33125712951","owner":"100682706@N06","secret":"f3d4b0e017","server":"570","farm":1,"title":"White-throated Thrush - Turdus assimilis","ispublic":1,"isfriend":0,"isfamily":0},{"id":"27636295711","owner":"12639178@N07","secret":"e24f50dd14","server":"7426","farm":8,"title":"turdus, NGID565854711","ispublic":1,"isfriend":0,"isfamily":0},{"id":"25695803174","owner":"33610210@N05","secret":"ff62a2f136","server":"1693","farm":2,"title":"White-throated Thrush,Turdus assimilis","ispublic":1,"isfriend":0,"isfamily":0},{"id":"26274717406","owner":"33610210@N05","secret":"15bc26f9df","server":"1520","farm":2,"title":"White-throated Thrush,Turdus assimilis","ispublic":1,"isfriend":0,"isfamily":0},{"id":"25697924193","owner":"33610210@N05","secret":"338ddba510","server":"1496","farm":2,"title":"White-throated Thrush,Turdus assimilis","ispublic":1,"isfriend":0,"isfamily":0},{"id":"25695799794","owner":"33610210@N05","secret":"c9539677a2","server":"1630","farm":2,"title":"White-throated Thrush,Turdus assimilis","ispublic":1,"isfriend":0,"isfamily":0}]},"stat":"ok"}