{"photos":{"page":1,"pages":11,"perpage":100,"total":1043,"photo":[{"id":"52778748152","owner":"29287337@N02","secret":"cfe9d2b6b3","server":"65535","farm":66,"title":"Bermuda - 25 Cents - Elizabeth II 4th portrait - 1970","ispublic":1,"isfriend":0,"isfamily":0},{"id":"52775757310","owner":"46837385@N03","secret":"ca36258cf4","server":"65535","farm":66,"title":"White-tailed Tropicbird (1)","ispublic":1,"isfriend":0,"isfamily":0},{"id":"52775599784","owner":"46837385@N03","secret":"963be3b655","server":"65535","farm":66,"title":"White-tailed Tropicbird (2)","ispublic":1,"isfriend":0,"isfamily":0},{"id":"52775826833","owner":"46837385@N03","secret":"61605e1cca","server":"65535","farm":66,"title":"White-tailed Tropicbird (3)","ispublic":1,"isfriend":0,"isfamily":0},{"id":"52775826818","owner":"46837385@N03","secret":"a72b0c7b14","server":"65535","farm":66,"title":"White-tailed Tropicbird (4)","ispublic":1,"isfriend":0,"isfamily":0},{"id":"52775599724","owner":"46837385@N03","secret":"a1b676255e","server":"65535","farm":66,"title":"White-tailed Tropicbird (5)","ispublic":1,"isfriend":0,"isfamily":0},{"id":"52750115390","owner":"74757737@N02","secret":"61c11f5d83","server":"65535","farm":66,"title":"White-tailed Tropicbird","ispublic":1,"isfriend":0,"isfamily":0},{"id":"52750109375","owner":"74757737@N02","secret":"f9990f48c4","server":"65535","farm":66,"title":"White-tailed Tropicbird","ispublic":1,"isfriend":0,"isfamily":0},{"id":"52749160142","owner":"74757737@N02","secret":"f1637dcef6","server":"65535","farm":66,"title":"White-tailed Tropicbird","ispublic":1,"isfriend":0,"isfamily":0},{"id":"52749930569","owner":"74757737@N02","secret":"d25817ccb1","server":"65535","farm":66,"title":"White-tailed Tropicbirds","ispublic":1,"isfriend":0,"isfamily":0},{"id":"52750172178","owner":"74757737@N02","secret":"6cfd266a6c","server":"65535","farm":66,"title":"White-tailed Tropicbird","ispublic":1,"isfriend":0,"isfamily":0},{"id":"52750083280","owner":"74757737@N02","secret":"a2ef63ceb5","server":"65535","farm":66,"title":"White-tailed Tropicbird","ispublic":1,"isfriend":0,"isfamily":0},{"id":"52743572744","owner":"74757737@N02","secret":"59c7fb2495","server":"65535","farm":66,"title":"White-tailed Tropicbird","ispublic":1,"isfriend":0,"isfamily":0},{"id":"52740557812","owner":"8677091@N08","secret":"2a40ffa5e7","server":"65535","farm":66,"title":"Rabijunco 5","ispublic":1,"isfriend":0,"isfamily":0},{"id":"52740557467","owner":"8677091@N08","secret":"b7f51bbfe7","server":"65535","farm":66,"title":"Rabijunco 4","ispublic":1,"isfriend":0,"isfamily":0},{"id":"52741485305","owner":"8677091@N08","secret":"056e866aa8","server":"65535","farm":66,"title":"Rabijunco 3","ispublic":1,"isfriend":0,"isfamily":0},{"id":"52741485020","owner":"8677091@N08","secret":"566c6953e6","server":"65535","farm":66,"title":"Rabijunco 2","ispublic":1,"isfriend":0,"isfamily":0},{"id":"52740556237","owner":"8677091@N08","secret":"913582b32d","server":"65535","farm":66,"title":"Rabijunco 1","ispublic":1,"isfriend":0,"isfamily":0},{"id":"52741070946","owner":"8677091@N08","secret":"3c00175273","server":"65535","farm":66,"title":"Los tres Rabijuncos","ispublic":1,"isfriend":0,"isfamily":0},{"id":"52741070371","owner":"8677091@N08","secret":"c96ced07f1","server":"65535","farm":66,"title":"Los  Dos Rabijuncos","ispublic":1,"isfriend":0,"isfamily":0},{"id":"52741482985","owner":"8677091@N08","secret":"53ba105b07","server":"65535","farm":66,"title":"Los Rabijuncos","ispublic":1,"isfriend":0,"isfamily":0},{"id":"52741560203","owner":"8677091@N08","secret":"447a9b2b08","server":"65535","farm":66,"title":"Dos Rabijuncos","ispublic":1,"isfriend":0,"isfamily":0},{"id":"52741322344","owner":"8677091@N08","secret":"f86cee514d","server":"65535","farm":66,"title":"Pasan dos Rabijuncos","ispublic":1,"isfriend":0,"isfamily":0},{"id":"52741559098","owner":"8677091@N08","secret":"c755aa7370","server":"65535","farm":66,"title":"Tres Rabijuncos","ispublic":1,"isfriend":0,"isfamily":0},{"id":"52740551537","owner":"8677091@N08","secret":"9e0f94ae45","server":"65535","farm":66,"title":"Rabijunco 6","ispublic":1,"isfriend":0,"isfamily":0},{"id":"52735445279","owner":"21182099@N05","secret":"5a1b408fb7","server":"65535","farm":66,"title":"White-tailed Tropicbird (Phaethon lepturus ascensionis)","ispublic":1,"isfriend":0,"isfamily":0},{"id":"52726706498","owner":"36996580@N07","secret":"63173e47d5","server":"65535","farm":66,"title":"Phaethon lepturus 5","ispublic":1,"isfriend":0,"isfamily":0},{"id":"52675051135","owner":"195302818@N02","secret":"5a197c9724","server":"65535","farm":66,"title":"White-tailed Tropicbird (Phaethon lepturus) - Nesting in a stump","ispublic":1,"isfriend":0,"isfamily":0},{"id":"52675051105","owner":"195302818@N02","secret":"54df6330cd","server":"65535","farm":66,"title":"White-tailed Tropicbird (Phaethon lepturus) - In floor nest with an hiding chick","ispublic":1,"isfriend":0,"isfamily":0},{"id":"52675115283","owner":"195302818@N02","secret":"e1bb050462","server":"65535","farm":66,"title":"White-tailed Tropicbird (Phaethon lepturus) - Lonely fly","ispublic":1,"isfriend":0,"isfamily":0},{"id":"52674904554","owner":"195302818@N02","secret":"3d0bb6a3d5","server":"65535","farm":66,"title":"White-tailed Tropicbird (Phaethon lepturus) - Two adults in floor nest","ispublic":1,"isfriend":0,"isfamily":0},{"id":"52652169228","owner":"12639178@N07","secret":"7dd18e92fa","server":"65535","farm":66,"title":"Wei\u00dfschwanz-Tropikvogel","ispublic":1,"isfriend":0,"isfamily":0},{"id":"52651195137","owner":"12639178@N07","secret":"2335378d82","server":"65535","farm":66,"title":"Wei\u00dfschwanz-Tropikvogel","ispublic":1,"isfriend":0,"isfamily":0},{"id":"52652128820","owner":"12639178@N07","secret":"7086750405","server":"65535","farm":66,"title":"Wei\u00dfschwanz-Tropikvogel","ispublic":1,"isfriend":0,"isfamily":0},{"id":"52651957489","owner":"12639178@N07","secret":"3449f6f5f5","server":"65535","farm":66,"title":"Wei\u00dfschwanz-Tropikvogel","ispublic":1,"isfriend":0,"isfamily":0},{"id":"52651684161","owner":"12639178@N07","secret":"64b7af9816","server":"65535","farm":66,"title":"Wei\u00dfschwanz-Tropikvogel","ispublic":1,"isfriend":0,"isfamily":0},{"id":"52644978160","owner":"12639178@N07","secret":"986af54413","server":"65535","farm":66,"title":"Belegbild Wei\u00dfschwanz-Tropikvogel","ispublic":1,"isfriend":0,"isfamily":0},{"id":"52643810409","owner":"12639178@N07","secret":"807969593d","server":"65535","farm":66,"title":"Wei\u00dfschwanz-Tropikvogel (Phaethon lepturus) (3)","ispublic":1,"isfriend":0,"isfamily":0},{"id":"52643993770","owner":"12639178@N07","secret":"1084878b58","server":"65535","farm":66,"title":"Wei\u00dfschwanz-Tropikvogel (Phaethon lepturus) (2)","ispublic":1,"isfriend":0,"isfamily":0},{"id":"52643553256","owner":"12639178@N07","secret":"1862ebb603","server":"65535","farm":66,"title":"Wei\u00dfschwanz-Tropikvogel (Phaethon lepturus) (1)","ispublic":1,"isfriend":0,"isfamily":0},{"id":"52634229985","owner":"29494346@N03","secret":"167f460332","server":"65535","farm":66,"title":"White-tailed Tropicbird (Phaethon lepturus)","ispublic":1,"isfriend":0,"isfamily":0},{"id":"52631456808","owner":"142952595@N08","secret":"99c498a99c","server":"65535","farm":66,"title":"White-tailed Tropicbird","ispublic":1,"isfriend":0,"isfamily":0},{"id":"52615225196","owner":"22224184@N00","secret":"3bc3755c9a","server":"65535","farm":66,"title":"White-Tailed Tropicbird","ispublic":1,"isfriend":0,"isfamily":0},{"id":"52615225176","owner":"22224184@N00","secret":"b7fc6cd18f","server":"65535","farm":66,"title":"White-Tailed Tropicbird","ispublic":1,"isfriend":0,"isfamily":0},{"id":"52614717407","owner":"22224184@N00","secret":"936e52bc47","server":"65535","farm":66,"title":"White-Tailed Tropicbird","ispublic":1,"isfriend":0,"isfamily":0},{"id":"52605908857","owner":"154657265@N08","secret":"07f5114153","server":"65535","farm":66,"title":"White-tailed Tropicbird - Koa'e'kea - Phaethon lepturus dorotheae","ispublic":1,"isfriend":0,"isfamily":0},{"id":"52606662829","owner":"154657265@N08","secret":"e2ef0e53dd","server":"65535","farm":66,"title":"White-tailed Tropicbird - Koa'e'kea - Phaethon lepturus dorotheae","ispublic":1,"isfriend":0,"isfamily":0},{"id":"52606409116","owner":"154657265@N08","secret":"6fb5387e98","server":"65535","farm":66,"title":"White-tailed Tropicbird - Koa'e'kea - Phaethon lepturus dorotheae","ispublic":1,"isfriend":0,"isfamily":0},{"id":"52739270067","owner":"58519338@N08","secret":"86ec3cf60e","server":"65535","farm":66,"title":"White-tailed Tropicbird - Phaethon lepturus","ispublic":1,"isfriend":0,"isfamily":0},{"id":"52675081011","owner":"58519338@N08","secret":"5ba8e4846d","server":"65535","farm":66,"title":"White-tailed Tropicbird - Phaethon lepturus","ispublic":1,"isfriend":0,"isfamily":0},{"id":"52616901901","owner":"58519338@N08","secret":"f6260a5dc5","server":"65535","farm":66,"title":"White-tailed Tropicbird - Phaethon lepturus","ispublic":1,"isfriend":0,"isfamily":0},{"id":"52684126464","owner":"58519338@N08","secret":"4f6715d029","server":"65535","farm":66,"title":"White-tailed Tropicbird - Phaethon lepturus","ispublic":1,"isfriend":0,"isfamily":0},{"id":"52680417373","owner":"58519338@N08","secret":"e58c2a5923","server":"65535","farm":66,"title":"White-tailed Tropicbird - Phaethon lepturus","ispublic":1,"isfriend":0,"isfamily":0},{"id":"52631217558","owner":"58519338@N08","secret":"60c240ea0b","server":"65535","farm":66,"title":"White-tailed Tropicbird - Phaethon lepturus","ispublic":1,"isfriend":0,"isfamily":0},{"id":"52541303241","owner":"58519338@N08","secret":"c827ae783a","server":"65535","farm":66,"title":"White-tailed Tropicbird - Phaethon lepturus","ispublic":1,"isfriend":0,"isfamily":0},{"id":"52540153426","owner":"62501256@N05","secret":"7f1d466be7","server":"65535","farm":66,"title":"White-tailed Tropicbird (Phaethon lepturus)","ispublic":1,"isfriend":0,"isfamily":0},{"id":"52534393364","owner":"58519338@N08","secret":"4ed64d8c70","server":"65535","farm":66,"title":"White-tailed Tropicbird - Phaethon lepturus","ispublic":1,"isfriend":0,"isfamily":0},{"id":"52532422513","owner":"58519338@N08","secret":"6a27d518d1","server":"65535","farm":66,"title":"White-tailed Tropicbird - Phaethon lepturus","ispublic":1,"isfriend":0,"isfamily":0},{"id":"52521633759","owner":"58519338@N08","secret":"8d2d62a87f","server":"65535","farm":66,"title":"White-tailed Tropicbird - Phaethon lepturus","ispublic":1,"isfriend":0,"isfamily":0},{"id":"52510229974","owner":"58519338@N08","secret":"4638893f49","server":"65535","farm":66,"title":"White-tailed Tropicbirds - Phaethon lepturus","ispublic":1,"isfriend":0,"isfamily":0},{"id":"52504300583","owner":"58519338@N08","secret":"6f156dc4a1","server":"65535","farm":66,"title":"White-tailed Tropicbird - Phaethon lepturus","ispublic":1,"isfriend":0,"isfamily":0},{"id":"52493092765","owner":"58519338@N08","secret":"e2f9f1d46f","server":"65535","farm":66,"title":"White-tailed Tropicbird - Phaethon lepturus","ispublic":1,"isfriend":0,"isfamily":0},{"id":"52482519652","owner":"58519338@N08","secret":"b043c9d8ac","server":"65535","farm":66,"title":"White-tailed Tropicbird - Phaethon lepturus","ispublic":1,"isfriend":0,"isfamily":0},{"id":"52456002447","owner":"62877922@N08","secret":"299373e330","server":"65535","farm":66,"title":"White-tailed Tropicbird (Phaethon lepturus)","ispublic":1,"isfriend":0,"isfamily":0},{"id":"52456506941","owner":"62877922@N08","secret":"6fa56c482a","server":"65535","farm":66,"title":"White-tailed Tropicbird (Phaethon lepturus)","ispublic":1,"isfriend":0,"isfamily":0},{"id":"52363130543","owner":"52170431@N04","secret":"1cb92bccae","server":"65535","farm":66,"title":"White-tailed Tropicbird (Phaethon lepturus lepturus) DSC_2253","ispublic":1,"isfriend":0,"isfamily":0},{"id":"52341318267","owner":"8065544@N08","secret":"aacbc116a7","server":"65535","farm":66,"title":"White-tailed Tropicbird (Phaethon lepturus)","ispublic":1,"isfriend":0,"isfamily":0},{"id":"52310646271","owner":"46837385@N03","secret":"4c5b16c634","server":"65535","farm":66,"title":"White-tailed Tropicbird in Flight (2)","ispublic":1,"isfriend":0,"isfamily":0},{"id":"52311108844","owner":"46837385@N03","secret":"5f2fc406fe","server":"65535","farm":66,"title":"White-tailed Tropicbirds in Flight (1)","ispublic":1,"isfriend":0,"isfamily":0},{"id":"52310646126","owner":"46837385@N03","secret":"19a2483af3","server":"65535","farm":66,"title":"White-tailed Tropicbird in Flight (3)","ispublic":1,"isfriend":0,"isfamily":0},{"id":"52303100147","owner":"35406904@N07","secret":"50d1076e55","server":"0","farm":0,"title":"Sesel - La Digue","ispublic":1,"isfriend":0,"isfamily":0},{"id":"52304355759","owner":"35406904@N07","secret":"0108c1e63f","server":"65535","farm":66,"title":"Sesel - La Digue","ispublic":1,"isfriend":0,"isfamily":0},{"id":"52304067398","owner":"35406904@N07","secret":"c256a8ba40","server":"65535","farm":66,"title":"Sesel - La Digue","ispublic":1,"isfriend":0,"isfamily":0},{"id":"52304354304","owner":"35406904@N07","secret":"a1707490f0","server":"65535","farm":66,"title":"Sesel - La Digue","ispublic":1,"isfriend":0,"isfamily":0},{"id":"52199500060","owner":"30418455@N00","secret":"49c5303a97","server":"65535","farm":66,"title":"WHITE-TAILED TROPICBIRD 6","ispublic":1,"isfriend":0,"isfamily":0},{"id":"52199017598","owner":"30418455@N00","secret":"228486bbbb","server":"65535","farm":66,"title":"WHITE-TAILED TROPICBIRD 4","ispublic":1,"isfriend":0,"isfamily":0},{"id":"52199270904","owner":"30418455@N00","secret":"2d84f6fc69","server":"65535","farm":66,"title":"WHITE-TAILED TROPICBIRD 5","ispublic":1,"isfriend":0,"isfamily":0},{"id":"52198995898","owner":"30418455@N00","secret":"f79c57d752","server":"65535","farm":66,"title":"WHITE-TAILED TROPICBIRD 3","ispublic":1,"isfriend":0,"isfamily":0},{"id":"52199249264","owner":"30418455@N00","secret":"a9f8c4c4b1","server":"65535","farm":66,"title":"WHITE-TAILED TROPICBIRD 2","ispublic":1,"isfriend":0,"isfamily":0},{"id":"52195954597","owner":"30418455@N00","secret":"75b74e4474","server":"65535","farm":66,"title":"WHITE-TAILED TROPICBIRD 1","ispublic":1,"isfriend":0,"isfamily":0},{"id":"52121534935","owner":"129108168@N08","secret":"8a1fa0be45","server":"65535","farm":66,"title":"Phaethon lepturus","ispublic":1,"isfriend":0,"isfamily":0},{"id":"52047865657","owner":"114553537@N03","secret":"922c2b1371","server":"65535","farm":66,"title":"White-tailed Tropicbird (Phaethon lepturus)","ispublic":1,"isfriend":0,"isfamily":0},{"id":"52021486535","owner":"14233971@N04","secret":"9d2f5abe35","server":"65535","farm":66,"title":"White-tailed Tropicbird","ispublic":1,"isfriend":0,"isfamily":0},{"id":"52004504722","owner":"126805965@N03","secret":"c5fa8b8ba2","server":"65535","farm":66,"title":"Record shot of White-tailed Tropicbird (Phaethon lepturus) - Kauai, Hawaii","ispublic":1,"isfriend":0,"isfamily":0},{"id":"51968409634","owner":"14233971@N04","secret":"d14bd704a6","server":"65535","farm":66,"title":"White-tailed Tropicbird","ispublic":1,"isfriend":0,"isfamily":0},{"id":"51890654079","owner":"186939992@N03","secret":"3881903579","server":"65535","farm":66,"title":"B1082569_abOrf_k","ispublic":1,"isfriend":0,"isfamily":0},{"id":"51889430390","owner":"186939992@N03","secret":"cb1b3c85a4","server":"65535","farm":66,"title":"Wei\u00dfschwanz-Tropikvogel  - White-tailed Tropicbird - Phaethon lepturus lepturus","ispublic":1,"isfriend":0,"isfamily":0},{"id":"51869289504","owner":"30314434@N06","secret":"abc8f92914","server":"65535","farm":66,"title":"Pacific White-tailed Tropicbird (Phaethon lepturus ssp. dorotheae)","ispublic":1,"isfriend":0,"isfamily":0},{"id":"51863692431","owner":"186939992@N03","secret":"9e98c41eb4","server":"65535","farm":66,"title":"Wei\u00dfschwanz-Tropikvogel  - White-tailed Tropicbird - Phaethon lepturus lepturus","ispublic":1,"isfriend":0,"isfamily":0},{"id":"51864018034","owner":"186939992@N03","secret":"3b95a1ff11","server":"65535","farm":66,"title":"Wei\u00dfschwanz-Tropikvogel  - White-tailed Tropicbird - Phaethon lepturus lepturus","ispublic":1,"isfriend":0,"isfamily":0},{"id":"52726227081","owner":"36996580@N07","secret":"25e591bdf8","server":"65535","farm":66,"title":"Phaethon lepturus 1","ispublic":1,"isfriend":0,"isfamily":0},{"id":"52629183994","owner":"154261763@N05","secret":"93dca8257a","server":"65535","farm":66,"title":"White-tailed tropicbird (Phaethon lepturus) - Wei\u00dfschwanz-Tropikvogel","ispublic":1,"isfriend":0,"isfamily":0},{"id":"52628411087","owner":"154261763@N05","secret":"a2d3258a2a","server":"65535","farm":66,"title":"White-tailed tropicbird (Phaethon lepturus) - Wei\u00dfschwanz-Tropikvogel","ispublic":1,"isfriend":0,"isfamily":0},{"id":"52434466219","owner":"196561915@N06","secret":"6b00a415cd","server":"65535","farm":66,"title":"Bermuda - 50 Dollars (2009)","ispublic":1,"isfriend":0,"isfamily":0},{"id":"52379562116","owner":"21584095@N00","secret":"0cfa50e204","server":"65535","farm":66,"title":"White-tailed Tropicbird \"Koa'e Kea\" (Phaethon Lepturus Dorotheae)","ispublic":1,"isfriend":0,"isfamily":0},{"id":"52304355284","owner":"35406904@N07","secret":"2f3676e268","server":"65535","farm":66,"title":"Sesel - La Digue","ispublic":1,"isfriend":0,"isfamily":0},{"id":"51885343567","owner":"18581013@N04","secret":"4c4b28f50c","server":"65535","farm":66,"title":"White-tailed Tropicbird","ispublic":1,"isfriend":0,"isfamily":0},{"id":"51869289679","owner":"30314434@N06","secret":"bd5f31d9fc","server":"65535","farm":66,"title":"Pacific White-tailed Tropicbird (Phaethon lepturus ssp. dorotheae)","ispublic":1,"isfriend":0,"isfamily":0},{"id":"51869626305","owner":"30314434@N06","secret":"bd7ab4d691","server":"65535","farm":66,"title":"Pacific White-tailed Tropicbird (Phaethon lepturus ssp. dorotheae)","ispublic":1,"isfriend":0,"isfamily":0},{"id":"51869055603","owner":"30314434@N06","secret":"ba8dec0bd2","server":"65535","farm":66,"title":"Pacific White-tailed Tropicbird (Phaethon lepturus ssp. dorotheae)","ispublic":1,"isfriend":0,"isfamily":0}]},"stat":"ok"}