{"photos":{"page":1,"pages":2,"perpage":100,"total":183,"photo":[{"id":"52379812704","owner":"24214896@N02","secret":"03061cfdbe","server":"65535","farm":66,"title":"A white bellied parrot.","ispublic":1,"isfriend":0,"isfamily":0},{"id":"52209460619","owner":"80648919@N08","secret":"137a895702","server":"65535","farm":66,"title":"White-bellied Parrot","ispublic":1,"isfriend":0,"isfamily":0},{"id":"52131299686","owner":"129593667@N03","secret":"db4c97dfe8","server":"65535","farm":66,"title":"White-bellied Parrot (Lifer)","ispublic":1,"isfriend":0,"isfamily":0},{"id":"51686830846","owner":"84152923@N08","secret":"c5f020d4f1","server":"65535","farm":66,"title":"witbuikcaique - Pionites leucogaster -  white-bellied caique","ispublic":1,"isfriend":0,"isfamily":0},{"id":"51277744144","owner":"96894687@N06","secret":"6235368ef8","server":"65535","farm":66,"title":"White-bellied Parrot\/Marianinha-de-cabe\u00e7a-amarela\/Lorito rubio (Pionites leucogaster)","ispublic":1,"isfriend":0,"isfamily":0},{"id":"51277018781","owner":"96894687@N06","secret":"1f90e7c8ae","server":"65535","farm":66,"title":"White-bellied Parrot\/Marianinha-de-cabe\u00e7a-amarela\/Lorito rubio (Pionites leucogaster)","ispublic":1,"isfriend":0,"isfamily":0},{"id":"51213830227","owner":"50459684@N08","secret":"4ef9b8aa44","server":"65535","farm":66,"title":"Pionites Leucogaster","ispublic":1,"isfriend":0,"isfamily":0},{"id":"51194329082","owner":"21987104@N05","secret":"cf7774354f","server":"65535","farm":66,"title":"Pionites Leucogaster, de mes y medio,","ispublic":1,"isfriend":0,"isfamily":0},{"id":"51010625587","owner":"50459684@N08","secret":"3cf87e0182","server":"65535","farm":66,"title":"Pionites Leucogaster","ispublic":1,"isfriend":0,"isfamily":0},{"id":"50967320661","owner":"189355383@N05","secret":"f594647f61","server":"65535","farm":66,"title":"White-bellied caique (Pionites leucogaster)","ispublic":1,"isfriend":0,"isfamily":0},{"id":"50202976731","owner":"189355383@N05","secret":"abde9cb2a3","server":"65535","farm":66,"title":"Ginger","ispublic":1,"isfriend":0,"isfamily":0},{"id":"50108942923","owner":"151172426@N06","secret":"4aea932dd8","server":"65535","farm":66,"title":"Marianinha-de-cabe\u00e7a-amarela","ispublic":1,"isfriend":0,"isfamily":0},{"id":"49768375417","owner":"31137609@N08","secret":"7959d602e3","server":"65535","farm":66,"title":"White-bellied Parrots (Pionites leucogaster) feeding on palm fruit","ispublic":1,"isfriend":0,"isfamily":0},{"id":"49734977637","owner":"55968524@N04","secret":"fd0f0639c5","server":"65535","farm":66,"title":"3T9P2701 - White-bellied Parrot - Pionites leucogaster.jpg","ispublic":1,"isfriend":0,"isfamily":0},{"id":"49696945273","owner":"182381287@N07","secret":"6aa7c9c8fb","server":"65535","farm":66,"title":"Marianinha-de-cabe\u00e7a-amarela (Pionites leucogaster)","ispublic":1,"isfriend":0,"isfamily":0},{"id":"48623613711","owner":"147805053@N08","secret":"1f279cfa37","server":"65535","farm":66,"title":"Pionites leucogaster Green-thighed Parrot D90-916 Lung Parabronchitis HE Obj 25 P Zwart kopie","ispublic":1,"isfriend":0,"isfamily":0},{"id":"48273313471","owner":"148414202@N04","secret":"cb606f968c","server":"65535","farm":66,"title":"Gelbschenkel-Rostkappenpapagei","ispublic":1,"isfriend":0,"isfamily":0},{"id":"33593917128","owner":"145824323@N05","secret":"4ebb66c945","server":"7881","farm":8,"title":"Green-thighed parrot (Pionites leucogaster leucogaster)","ispublic":1,"isfriend":0,"isfamily":0},{"id":"33212126378","owner":"33820263@N07","secret":"c0becc561b","server":"65535","farm":66,"title":"White-bellied Parrots","ispublic":1,"isfriend":0,"isfamily":0},{"id":"45168829552","owner":"88846037@N08","secret":"1e469fddc6","server":"1943","farm":2,"title":"Pionites leucogaster","ispublic":1,"isfriend":0,"isfamily":0},{"id":"43783772355","owner":"148414202@N04","secret":"489a111842","server":"1861","farm":2,"title":"Pionites leucogaster xanthomerius","ispublic":1,"isfriend":0,"isfamily":0},{"id":"43717309641","owner":"51928691@N04","secret":"221c544cf5","server":"941","farm":1,"title":"White-bellied Parrot (Pionites leucogaster) 1 072118","ispublic":1,"isfriend":0,"isfamily":0},{"id":"25261040907","owner":"24067417@N03","secret":"e7f0d417b6","server":"4608","farm":5,"title":"Pionites leucogaster xanthomeria - Black-legged Parrot","ispublic":1,"isfriend":0,"isfamily":0},{"id":"38958890394","owner":"27600575@N03","secret":"00af9da119","server":"4654","farm":5,"title":"White-bellied Parrot \/ Loro de Vientre Blanco (Pionites leucogaster) en Manu Birding Lodge, Madre de Dios","ispublic":1,"isfriend":0,"isfamily":0},{"id":"36620090640","owner":"56446000@N04","secret":"e290e47ddc","server":"4343","farm":5,"title":"Caique Love","ispublic":1,"isfriend":0,"isfamily":0},{"id":"37000502145","owner":"127247666@N05","secret":"c493be5e7f","server":"4409","farm":5,"title":"Manuka, florist\u2019s chrysanthemum, budgerigar, white-bellied parrot and blue-fronted parrot","ispublic":1,"isfriend":0,"isfamily":0},{"id":"36728864631","owner":"7389964@N02","secret":"cb9afc9aaf","server":"4391","farm":5,"title":"Marianinha-de-cabe\u00e7a-amarela (Pionites leucogaster)","ispublic":1,"isfriend":0,"isfamily":0},{"id":"36728067096","owner":"38249385@N02","secret":"2eb66c415b","server":"4394","farm":5,"title":"Marianinha-de-cabe\u00e7a-amarela (Pionites leucogaster) - White-bellied Parrot","ispublic":1,"isfriend":0,"isfamily":0},{"id":"36728065086","owner":"38249385@N02","secret":"ac81d17d15","server":"4362","farm":5,"title":"Marianinha-de-cabe\u00e7a-amarela (Pionites leucogaster) - White-bellied Parrot","ispublic":1,"isfriend":0,"isfamily":0},{"id":"36345002522","owner":"38378446@N05","secret":"0b724e9145","server":"4411","farm":5,"title":"Marianinha-de-cabe\u00e7a-amarela (Pionites leucogaster) - White-bellied Parrot","ispublic":1,"isfriend":0,"isfamily":0},{"id":"36307868185","owner":"29170368@N03","secret":"9b7f1d2c4d","server":"65535","farm":66,"title":"White-bellied Parrot","ispublic":1,"isfriend":0,"isfamily":0},{"id":"33482069083","owner":"142550108@N08","secret":"5f4fc51c37","server":"2868","farm":3,"title":"Green Thighed Parrot at Tropical Birdland (free flyer)","ispublic":1,"isfriend":0,"isfamily":0},{"id":"33357090672","owner":"151563229@N08","secret":"5e628304f2","server":"744","farm":1,"title":"Rostkappenpapagei","ispublic":1,"isfriend":0,"isfamily":0},{"id":"31667894205","owner":"61584071@N03","secret":"83933d30b5","server":"602","farm":1,"title":"White-bellied Parrot (Marianinha-de-cabe\u00e7a-amarela)","ispublic":1,"isfriend":0,"isfamily":0},{"id":"29481455954","owner":"70325100@N00","secret":"bf445a66ef","server":"7509","farm":8,"title":"White-bellied caiques","ispublic":1,"isfriend":0,"isfamily":0},{"id":"28435172995","owner":"61584071@N03","secret":"3ed0fcc840","server":"8693","farm":9,"title":"White-bellied Parrot (Marianinha-de-cabe\u00e7a-amarela)","ispublic":1,"isfriend":0,"isfamily":0},{"id":"28234499896","owner":"12639178@N07","secret":"0bc86efe90","server":"7773","farm":8,"title":"Pionites leucogaster , NGID2141238610","ispublic":1,"isfriend":0,"isfamily":0},{"id":"26416351944","owner":"28754568@N02","secret":"cd79172a01","server":"7790","farm":8,"title":"Caique de vientre blanco","ispublic":1,"isfriend":0,"isfamily":0},{"id":"24743630106","owner":"91994044@N00","secret":"35d0249a78","server":"1689","farm":2,"title":"White-bellied Caique 2","ispublic":1,"isfriend":0,"isfamily":0},{"id":"24384571019","owner":"91994044@N00","secret":"a221071289","server":"1694","farm":2,"title":"White-bellied Caique","ispublic":1,"isfriend":0,"isfamily":0},{"id":"24240727309","owner":"56446000@N04","secret":"e94b2eee04","server":"1593","farm":2,"title":"Caique Niekope","ispublic":1,"isfriend":0,"isfamily":0},{"id":"24498749635","owner":"12624630@N02","secret":"a92e64fbec","server":"1561","farm":2,"title":"Colourful character (White bellied Parrot - Pionites Leucogaster)","ispublic":1,"isfriend":0,"isfamily":0},{"id":"23248440345","owner":"130819462@N04","secret":"ba31b9c410","server":"635","farm":1,"title":"Little showoff","ispublic":1,"isfriend":0,"isfamily":0},{"id":"21381608223","owner":"25243916@N02","secret":"376f6cc373","server":"5771","farm":6,"title":"Chirricles","ispublic":1,"isfriend":0,"isfamily":0},{"id":"20442890874","owner":"129768519@N04","secret":"09060439b8","server":"727","farm":1,"title":"Loud Leuco","ispublic":1,"isfriend":0,"isfamily":0},{"id":"20736952298","owner":"131532887@N04","secret":"6db44b55bd","server":"5714","farm":6,"title":"Green-thighed parrot (Pionites leucogaster), Marianinha-de-cabe\u00e7a-amarela","ispublic":1,"isfriend":0,"isfamily":0},{"id":"20523122011","owner":"134590413@N03","secret":"854bace9b4","server":"567","farm":1,"title":"Psittacidae_Pionites leucogaster (2)","ispublic":1,"isfriend":0,"isfamily":0},{"id":"15799200328","owner":"54422928@N00","secret":"a9a10a6ede","server":"7569","farm":8,"title":"Pionites leucogaster","ispublic":1,"isfriend":0,"isfamily":0},{"id":"15518777560","owner":"53589480@N03","secret":"2c14870e4d","server":"3953","farm":4,"title":"Pionites leucogaster","ispublic":1,"isfriend":0,"isfamily":0},{"id":"14511883881","owner":"29438896@N04","secret":"5b9e481de4","server":"3901","farm":4,"title":"Pionites leucogaster ( Marianinha) A I Cristalino 2014","ispublic":1,"isfriend":0,"isfamily":0},{"id":"13970830152","owner":"77128742@N06","secret":"ec9332618c","server":"7076","farm":8,"title":"Rostkappenpapagei_Pionites leucogaster-2","ispublic":1,"isfriend":0,"isfamily":0},{"id":"13994012623","owner":"77128742@N06","secret":"75a5e343d5","server":"7234","farm":8,"title":"Rostkappenpapagei_Pionites leucogaster-3","ispublic":1,"isfriend":0,"isfamily":0},{"id":"13970838171","owner":"77128742@N06","secret":"d1a162f2e2","server":"7011","farm":8,"title":"Rostkappenpapagei_Pionites leucogaster-4","ispublic":1,"isfriend":0,"isfamily":0},{"id":"13010264764","owner":"8286221@N08","secret":"988a2a7ca8","server":"2664","farm":3,"title":"Bird Cafe Asakusa 22","ispublic":1,"isfriend":0,"isfamily":0},{"id":"13010263094","owner":"8286221@N08","secret":"97dfdc45d4","server":"2732","farm":3,"title":"Bird Cafe Asakusa 21","ispublic":1,"isfriend":0,"isfamily":0},{"id":"12665229545","owner":"77098593@N07","secret":"5be4c8ecfc","server":"3791","farm":4,"title":"Pionites_leucogaster_-Parque_das_Aves,_Foz_do_Iguacu,_Brazil_-five-8a","ispublic":1,"isfriend":0,"isfamily":0},{"id":"12665050025","owner":"77098593@N07","secret":"0b3a52ed68","server":"7348","farm":8,"title":"Pionites_leucogaster_-_pet_perching_near_books","ispublic":1,"isfriend":0,"isfamily":0},{"id":"12665163843","owner":"77098593@N07","secret":"8946bf778b","server":"7388","farm":8,"title":"Lorito_Rubio_Pionites_leucogaster_Tambopata_Peru_c_Formenti_002","ispublic":1,"isfriend":0,"isfamily":0},{"id":"12611231943","owner":"116911682@N04","secret":"05f0d5b6c5","server":"3819","farm":4,"title":"Pionites_leucogaster_-_pet_perching_near_books","ispublic":1,"isfriend":0,"isfamily":0},{"id":"12610920363","owner":"116911682@N04","secret":"b777b9431d","server":"7361","farm":8,"title":"Pionites_leucogaster_-pet_in_USA-8a","ispublic":1,"isfriend":0,"isfamily":0},{"id":"12610515045","owner":"116911682@N04","secret":"b01f6830e3","server":"7355","farm":8,"title":"Pionites_leucogaster_-Parque_das_Aves,_Foz_do_Iguacu,_Brazil_-five-8a","ispublic":1,"isfriend":0,"isfamily":0},{"id":"11092307734","owner":"54253129@N07","secret":"6eeddfafb9","server":"3783","farm":4,"title":"Pionites leucogaster | White-bellied Parrot","ispublic":1,"isfriend":0,"isfamily":0},{"id":"10477684465","owner":"54422928@N00","secret":"e40c602de0","server":"7449","farm":8,"title":"Pionites leucogaster","ispublic":1,"isfriend":0,"isfamily":0},{"id":"9572449373","owner":"95088668@N08","secret":"a4b7e13c87","server":"7362","farm":8,"title":"Pionites leucogaster","ispublic":1,"isfriend":0,"isfamily":0},{"id":"9325973233","owner":"47024491@N06","secret":"cd6a4dff60","server":"3771","farm":4,"title":"White-bellied Parrot (Pionites leucogaster) Marianinha-de-cabe\u00e7a-amarela","ispublic":1,"isfriend":0,"isfamily":0},{"id":"8533853849","owner":"67175584@N00","secret":"42b2356998","server":"8388","farm":9,"title":"White-bellied caiques","ispublic":1,"isfriend":0,"isfamily":0},{"id":"8483768444","owner":"47024491@N06","secret":"47ee01bbb4","server":"8102","farm":9,"title":"White-bellied Parrot (Pionites leucogaster) Marianinha-de-cabe\u00e7a-amarela","ispublic":1,"isfriend":0,"isfamily":0},{"id":"8262636202","owner":"62445008@N00","secret":"0115fdf8ee","server":"8504","farm":9,"title":"White-bellied Parrots (Pionites leucogaster)","ispublic":1,"isfriend":0,"isfamily":0},{"id":"8261566649","owner":"62445008@N00","secret":"c92f74ea16","server":"8477","farm":9,"title":"White-bellied Parrots (Pionites leucogaster)","ispublic":1,"isfriend":0,"isfamily":0},{"id":"8262635032","owner":"62445008@N00","secret":"c9e7044fe5","server":"8062","farm":9,"title":"White-bellied Parrot (Pionites leucogaster)","ispublic":1,"isfriend":0,"isfamily":0},{"id":"8261565495","owner":"62445008@N00","secret":"7fcac02eb0","server":"8347","farm":9,"title":"White-bellied Parrot (Pionites leucogaster)","ispublic":1,"isfriend":0,"isfamily":0},{"id":"47771487292","owner":"145824323@N05","secret":"cd45798bd2","server":"65535","farm":66,"title":"Black-legged parrot (Pionites leucogaster xanthomeria)","ispublic":1,"isfriend":0,"isfamily":0},{"id":"47742554341","owner":"153883428@N08","secret":"e3e872639d","server":"65535","farm":66,"title":"Pionites leucogaster","ispublic":1,"isfriend":0,"isfamily":0},{"id":"33212124988","owner":"33820263@N07","secret":"05dd5e060b","server":"65535","farm":66,"title":"White-bellied Parrot","ispublic":1,"isfriend":0,"isfamily":0},{"id":"30107852778","owner":"29170368@N03","secret":"8edf930511","server":"65535","farm":66,"title":"White-bellied Parrot","ispublic":1,"isfriend":0,"isfamily":0},{"id":"29695615878","owner":"64074416@N06","secret":"31f9d6104d","server":"1763","farm":2,"title":"A pet White-bellied Caique (Pionites leucogaster)","ispublic":1,"isfriend":0,"isfamily":0},{"id":"40429311071","owner":"63283725@N04","secret":"4d42a77aac","server":"4708","farm":5,"title":"White-bellied Parrot (Pionites leucogaster)","ispublic":1,"isfriend":0,"isfamily":0},{"id":"27889153739","owner":"27600575@N03","secret":"a5cf97861c","server":"4653","farm":5,"title":"White-bellied Parrot \/ Loro de Vientre Blanco (Pionites leucogaster) en Manu Birding Lodge, Madre de Dios","ispublic":1,"isfriend":0,"isfamily":0},{"id":"36624214920","owner":"127247666@N05","secret":"67f8583449","server":"4440","farm":5,"title":"Pineapple, calla-lily, canary Senegal parrot and white-bellied parrot","ispublic":1,"isfriend":0,"isfamily":0},{"id":"36624214090","owner":"127247666@N05","secret":"08520b9d3f","server":"4344","farm":5,"title":"Five-leaf cork azalea, bigleaf hydrangea, white-bellied parrot, dusky parrot and monk parakeet","ispublic":1,"isfriend":0,"isfamily":0},{"id":"37021468575","owner":"127247666@N05","secret":"60be3df4a6","server":"4396","farm":5,"title":"Lily, rose-of-sharon, white-crowned parrot, blue-fronted parrot and white-bellied parrot","ispublic":1,"isfriend":0,"isfamily":0},{"id":"36472290570","owner":"7389964@N02","secret":"55f0e2b20d","server":"4353","farm":5,"title":"Marianinha-de-cabe\u00e7a-amarela (Pionites leucogaster)","ispublic":1,"isfriend":0,"isfamily":0},{"id":"36472287840","owner":"7389964@N02","secret":"0f3d205993","server":"4438","farm":5,"title":"Marianinha-de-cabe\u00e7a-amarela (Pionites leucogaster)","ispublic":1,"isfriend":0,"isfamily":0},{"id":"36034280754","owner":"7389964@N02","secret":"6dcbd81347","server":"4412","farm":5,"title":"Marianinha-de-cabe\u00e7a-amarela (Pionites leucogaster)","ispublic":1,"isfriend":0,"isfamily":0},{"id":"31106942860","owner":"12361801@N05","secret":"d0957b4ca7","server":"5606","farm":6,"title":"White-bellied Parrot - Pionites leucogaster","ispublic":1,"isfriend":0,"isfamily":0},{"id":"29118432453","owner":"16037309@N05","secret":"5dbe9c5ea3","server":"8473","farm":9,"title":"IMG_0841 White-bellied Parrot","ispublic":1,"isfriend":0,"isfamily":0},{"id":"20519146995","owner":"134590413@N03","secret":"e3e814f3e3","server":"724","farm":1,"title":"Psittacidae_Pionites leucogaster","ispublic":1,"isfriend":0,"isfamily":0},{"id":"16593631493","owner":"69570948@N04","secret":"5417776fa7","server":"8731","farm":9,"title":"134 Rostkappenpapagei (Walsrode 1982)","ispublic":1,"isfriend":0,"isfamily":0},{"id":"15399581029","owner":"10765786@N00","secret":"3a7923a5e5","server":"3944","farm":4,"title":"White-bellied Parrot (Pionites leucogaster)","ispublic":1,"isfriend":0,"isfamily":0},{"id":"15107069860","owner":"127858540@N03","secret":"7e74da3915","server":"3851","farm":4,"title":"Pionites leucogaster","ispublic":1,"isfriend":0,"isfamily":0},{"id":"15179165195","owner":"125057668@N02","secret":"759397943d","server":"5583","farm":6,"title":"Ca\u00efque \u00e0 ventre blanc (Pionites leucogaster xanthomerius)","ispublic":1,"isfriend":0,"isfamily":0},{"id":"13973978415","owner":"77128742@N06","secret":"b1b7244b0d","server":"7137","farm":8,"title":"Rostkappenpapagei_Pionites leucogaster-5","ispublic":1,"isfriend":0,"isfamily":0},{"id":"13033005073","owner":"54422928@N00","secret":"d8cf88cf1f","server":"3588","farm":4,"title":"marianinhas","ispublic":1,"isfriend":0,"isfamily":0},{"id":"12665156993","owner":"77098593@N07","secret":"7394cdf11e","server":"3813","farm":4,"title":"Pionites_leucogaster_-pet_in_USA-8a","ispublic":1,"isfriend":0,"isfamily":0},{"id":"12665156963","owner":"77098593@N07","secret":"f67a7a8a00","server":"3797","farm":4,"title":"800px-Pionites_leucogaster_-two_perching-8a","ispublic":1,"isfriend":0,"isfamily":0},{"id":"12611234584","owner":"116911682@N04","secret":"38e6167cd1","server":"3771","farm":4,"title":"800px-Pionites_leucogaster_-two_perching-8a","ispublic":1,"isfriend":0,"isfamily":0},{"id":"9948836914","owner":"28550929@N05","secret":"2a4ea548a7","server":"2847","farm":3,"title":"Manu Wildlife Center, Paucartambo-Manu, Peru","ispublic":1,"isfriend":0,"isfamily":0},{"id":"9743722682","owner":"101784223@N08","secret":"0d6bf9fcb4","server":"7354","farm":8,"title":"Pionites leucogaster","ispublic":1,"isfriend":0,"isfamily":0},{"id":"9670202129","owner":"98867753@N07","secret":"26794dbc1a","server":"5478","farm":6,"title":"White Bellied Parrots, Pionites leucogaster","ispublic":1,"isfriend":0,"isfamily":0},{"id":"8262635138","owner":"62445008@N00","secret":"13abd1939a","server":"8071","farm":9,"title":"White-bellied Parrot (Pionites leucogaster)","ispublic":1,"isfriend":0,"isfamily":0}]},"stat":"ok"}