{"photos":{"page":1,"pages":14,"perpage":100,"total":1392,"photo":[{"id":"52763930199","owner":"107784905@N04","secret":"f6be28ba10","server":"65535","farm":66,"title":"Tangara \u00e0 galons blancs - Rancho Naturalista\/Cartago\/Costa Rica_20211127_006-1","ispublic":1,"isfriend":0,"isfamily":0},{"id":"52739883362","owner":"11803211@N06","secret":"67d0121328","server":"65535","farm":66,"title":"Male white-lined tanager (Tachyphonus rufus), Cuffie River","ispublic":1,"isfriend":0,"isfamily":0},{"id":"52726488275","owner":"192563127@N05","secret":"b7ea4c277d","server":"65535","farm":66,"title":"White-lined Tanager_Female_Tachyphonus Rufus_Tangara Filiblanca_26 Feb 2023  (1)","ispublic":1,"isfriend":0,"isfamily":0},{"id":"52726487920","owner":"192563127@N05","secret":"7177e9b5c7","server":"65535","farm":66,"title":"White-lined Tanager_Male_Tachyphonus Rufus_Tangara Filiblanca_26 Feb 2023  (3)","ispublic":1,"isfriend":0,"isfamily":0},{"id":"52716754085","owner":"54249623@N08","secret":"49b289c161","server":"65535","farm":66,"title":"Parlotero Malcasado, White-lined Tanager (Tachyphonus rufus)","ispublic":1,"isfriend":0,"isfamily":0},{"id":"52715166497","owner":"7330431@N08","secret":"65990797d7","server":"65535","farm":66,"title":"White-lined Tanager Tachyphonus rufus (m)","ispublic":1,"isfriend":0,"isfamily":0},{"id":"52713220108","owner":"71833159@N00","secret":"06e90e3410","server":"65535","farm":66,"title":"White-lined Tanager female, Asa Wright, Trinidad","ispublic":1,"isfriend":0,"isfamily":0},{"id":"52706938321","owner":"21182099@N05","secret":"e7e2d0d4bb","server":"65535","farm":66,"title":"White-lined Tanager (Tachyphonus rufus), juvenile male","ispublic":1,"isfriend":0,"isfamily":0},{"id":"52674706774","owner":"72271115@N02","secret":"d27b42d605","server":"65535","farm":66,"title":"White-lined Tanager --- Tachyphonus rufus","ispublic":1,"isfriend":0,"isfamily":0},{"id":"52639011028","owner":"107784905@N04","secret":"6084404d8e","server":"65535","farm":66,"title":"Tangara \u00e0 galons blancs - Rancho Naturalista\/Cartago\/Costa Rica_20211127_004-1","ispublic":1,"isfriend":0,"isfamily":0},{"id":"52593353980","owner":"8065544@N08","secret":"ee9208d383","server":"65535","farm":66,"title":"White-lined Tanager (Tachyphonus rufus)","ispublic":1,"isfriend":0,"isfamily":0},{"id":"52571569093","owner":"52363379@N07","secret":"d6bd080acc","server":"65535","farm":66,"title":"Tachyphonus rufus","ispublic":1,"isfriend":0,"isfamily":0},{"id":"52550291189","owner":"53358437@N07","secret":"05231cfed4","server":"65535","farm":66,"title":"White-lined Tanager (Tachyphonus rufus)","ispublic":1,"isfriend":0,"isfamily":0},{"id":"52550469210","owner":"53358437@N07","secret":"c0fd34355a","server":"65535","farm":66,"title":"White-lined Tanager (Tachyphonus rufus)","ispublic":1,"isfriend":0,"isfamily":0},{"id":"52539131358","owner":"69947563@N07","secret":"b0ac007f50","server":"65535","farm":66,"title":"White-lined Tanager (female) - Minca, Santa Marta, Magdalena, Colombia","ispublic":1,"isfriend":0,"isfamily":0},{"id":"52538581231","owner":"69947563@N07","secret":"7fafa3faa4","server":"65535","farm":66,"title":"White-lined Tanager - Minca, Santa Marta, Magdalena, Colombia","ispublic":1,"isfriend":0,"isfamily":0},{"id":"52523645230","owner":"32674493@N04","secret":"d8428d6d99","server":"65535","farm":66,"title":"Pipira-preta (Tachyphonus rufus)  macho jovem","ispublic":1,"isfriend":0,"isfamily":0},{"id":"52508900182","owner":"107784905@N04","secret":"730af801ea","server":"65535","farm":66,"title":"Tangara \u00e0 galons blancs - Rancho Naturalista\/Cartago\/Costa Rica_20211127_012-1","ispublic":1,"isfriend":0,"isfamily":0},{"id":"52454115234","owner":"43935391694@N01","secret":"c92023b688","server":"65535","farm":66,"title":"Female White Lined Tanager Munchique Santander de Quilichao Cauca Colombia","ispublic":1,"isfriend":0,"isfamily":0},{"id":"52450999345","owner":"69347399@N08","secret":"0b5dfb8ca3","server":"65535","farm":66,"title":"Tachyphonus rufus -White-lined tanager - parlotero malcasado hembra","ispublic":1,"isfriend":0,"isfamily":0},{"id":"52432010419","owner":"29170368@N03","secret":"ddbeb324c2","server":"65535","farm":66,"title":"White-lined Tanager","ispublic":1,"isfriend":0,"isfamily":0},{"id":"52429484202","owner":"12639178@N07","secret":"63e81c8900","server":"65535","farm":66,"title":"35175_Tanager Tachyphonus rufus Weibchen","ispublic":1,"isfriend":0,"isfamily":0},{"id":"52430259839","owner":"12639178@N07","secret":"49f669c582","server":"65535","farm":66,"title":"35174_Tanager Tachyphonus rufus Weibchen","ispublic":1,"isfriend":0,"isfamily":0},{"id":"52430485463","owner":"12639178@N07","secret":"a18f39cb19","server":"65535","farm":66,"title":"35170_Tanager Tachyphonus rufus Weibchen","ispublic":1,"isfriend":0,"isfamily":0},{"id":"52430365020","owner":"12639178@N07","secret":"9886e6f530","server":"65535","farm":66,"title":"35162_Tanager Tachyphonus rufus M\u00e4nnchen","ispublic":1,"isfriend":0,"isfamily":0},{"id":"52429910556","owner":"12639178@N07","secret":"e3c497b8ca","server":"65535","farm":66,"title":"35166_Tanager Tachyphonus rufus M\u00e4nnchen","ispublic":1,"isfriend":0,"isfamily":0},{"id":"52429889196","owner":"12639178@N07","secret":"2b4fcaed19","server":"65535","farm":66,"title":"Tanager Tachyphonus rufus M\u00e4nnchen","ispublic":1,"isfriend":0,"isfamily":0},{"id":"52419905304","owner":"32805478@N03","secret":"eb445b407d","server":"65535","farm":66,"title":"Tangara negra, Tachyphonus rufus, White-lined tanager","ispublic":1,"isfriend":0,"isfamily":0},{"id":"52379378404","owner":"52363379@N07","secret":"1e2cfffd70","server":"65535","farm":66,"title":"Tachyphonus rufus","ispublic":1,"isfriend":0,"isfamily":0},{"id":"52365950043","owner":"107784905@N04","secret":"ba37530c6e","server":"65535","farm":66,"title":"Tangara \u00e0 galons blancs - Rancho Naturalista\/Cartago\/Costa Rica_20211127_003-1","ispublic":1,"isfriend":0,"isfamily":0},{"id":"52336363722","owner":"190911304@N02","secret":"74555719be","server":"65535","farm":66,"title":"Frutero negro \u2640 - Tachyphonus rufus.jpg","ispublic":1,"isfriend":0,"isfamily":0},{"id":"52337620739","owner":"190911304@N02","secret":"e29dbe3055","server":"65535","farm":66,"title":"Frutero negro \u2642 - Tachyphonus rufus.jpg","ispublic":1,"isfriend":0,"isfamily":0},{"id":"52329437839","owner":"123597211@N03","secret":"2d76dae583","server":"65535","farm":66,"title":"Schwarztangare (Tachyphonus rufus)","ispublic":1,"isfriend":0,"isfamily":0},{"id":"52266272337","owner":"140734051@N08","secret":"7bb6912450","server":"65535","farm":66,"title":"\u0427\u0451\u0440\u043d\u0430\u044f \u0442\u0430\u043d\u0430\u0433\u0440\u0430, Tachyphonus rufus, White-lined Tanager \u2642\ufe0f","ispublic":1,"isfriend":0,"isfamily":0},{"id":"52267727555","owner":"140734051@N08","secret":"2e679e98e0","server":"65535","farm":66,"title":"\u0427\u0451\u0440\u043d\u0430\u044f \u0442\u0430\u043d\u0430\u0433\u0440\u0430, Tachyphonus rufus, White-lined Tanager \u2640\ufe0f","ispublic":1,"isfriend":0,"isfamily":0},{"id":"52267241011","owner":"140734051@N08","secret":"72f106a5a0","server":"65535","farm":66,"title":"\u0427\u0451\u0440\u043d\u0430\u044f \u0442\u0430\u043d\u0430\u0433\u0440\u0430, Tachyphonus rufus, White-lined Tanager \u2640\ufe0f","ispublic":1,"isfriend":0,"isfamily":0},{"id":"52267502844","owner":"140734051@N08","secret":"9cda0fd99e","server":"65535","farm":66,"title":"\u0427\u0451\u0440\u043d\u0430\u044f \u0442\u0430\u043d\u0430\u0433\u0440\u0430, Tachyphonus rufus, White-lined Tanager \u2640\ufe0f","ispublic":1,"isfriend":0,"isfamily":0},{"id":"52267727160","owner":"140734051@N08","secret":"e2c3d6bdeb","server":"65535","farm":66,"title":"\u0427\u0451\u0440\u043d\u0430\u044f \u0442\u0430\u043d\u0430\u0433\u0440\u0430, Tachyphonus rufus, White-lined Tanager \u2642\ufe0f","ispublic":1,"isfriend":0,"isfamily":0},{"id":"52240451360","owner":"193010058@N08","secret":"efa39f25e1","server":"65535","farm":66,"title":"White-lined Tanager (Tachyphonus rufus) and Blue-grey Tanager (Thraupis episcopus)","ispublic":1,"isfriend":0,"isfamily":0},{"id":"52219821878","owner":"191213614@N06","secret":"33a01b658b","server":"65535","farm":66,"title":"Frutero negro.   -Tachyphonus rufus-","ispublic":1,"isfriend":0,"isfamily":0},{"id":"52207179215","owner":"52363379@N07","secret":"9f0334ebd6","server":"65535","farm":66,"title":"Tachyphonus rufus","ispublic":1,"isfriend":0,"isfamily":0},{"id":"52194156129","owner":"48938938@N04","secret":"0a4116984e","server":"65535","farm":66,"title":"White-lined Tanager_Tachyphonus rufus_Ascanio_Altos Mirandinos_DZ3A3172","ispublic":1,"isfriend":0,"isfamily":0},{"id":"52183201336","owner":"190911304@N02","secret":"f4e62eb6ec","server":"65535","farm":66,"title":"Frutero negro - Tachyphonus rufus","ispublic":1,"isfriend":0,"isfamily":0},{"id":"52116565518","owner":"32805478@N03","secret":"b08f74d67a","server":"65535","farm":66,"title":"Tangara negra, Tachyphonus rufus, White-lined tanager","ispublic":1,"isfriend":0,"isfamily":0},{"id":"52115823993","owner":"29452402@N07","secret":"81deeb5927","server":"65535","farm":66,"title":"White Lined Tanager","ispublic":1,"isfriend":0,"isfamily":0},{"id":"52095380532","owner":"96568982@N06","secret":"6fc2a7479d","server":"65535","farm":66,"title":"TANAGER, White-lined","ispublic":1,"isfriend":0,"isfamily":0},{"id":"52049762886","owner":"48084395@N03","secret":"dcfee38b05","server":"65535","farm":66,"title":"White-lined Tanager (Tachyphonus rufus) _5AC7383","ispublic":1,"isfriend":0,"isfamily":0},{"id":"52050257480","owner":"48084395@N03","secret":"79170a5e3f","server":"65535","farm":66,"title":"White-lined Tanager (Tachyphonus rufus) _5AC8212","ispublic":1,"isfriend":0,"isfamily":0},{"id":"52039671260","owner":"95747238@N07","secret":"c7e982d936","server":"65535","farm":66,"title":"Tachyphonus rufus hembra 1","ispublic":1,"isfriend":0,"isfamily":0},{"id":"52038112272","owner":"95747238@N07","secret":"cfd322806d","server":"65535","farm":66,"title":"Tachyphonus rufus hembra 2","ispublic":1,"isfriend":0,"isfamily":0},{"id":"52003431499","owner":"141506644@N06","secret":"bf9422d6d2","server":"65535","farm":66,"title":"Parlotero malcasado, White-lined Tanager, Tachyphonus rufus (hembra)","ispublic":1,"isfriend":0,"isfamily":0},{"id":"51996456253","owner":"95747238@N07","secret":"0dfed05292","server":"65535","farm":66,"title":"Tachyphonus rufus 1","ispublic":1,"isfriend":0,"isfamily":0},{"id":"51967598715","owner":"11803211@N06","secret":"e1178930de","server":"65535","farm":66,"title":"Female white-lined tanager (Tachyphonus rufus), Adventure, Tobago","ispublic":1,"isfriend":0,"isfamily":0},{"id":"51913968036","owner":"37493716@N02","secret":"b65a6c696d","server":"65535","farm":66,"title":"Tachyphonus rufus_ --> White-lined Tanager.","ispublic":1,"isfriend":0,"isfamily":0},{"id":"51902398074","owner":"146922391@N04","secret":"c8760fb6e6","server":"65535","farm":66,"title":"Parlotero Malcasado \/ White-lined Tanager \/ Tachyphonus rufus \/ Hembra","ispublic":1,"isfriend":0,"isfamily":0},{"id":"51902362624","owner":"146922391@N04","secret":"b8832ffd69","server":"65535","farm":66,"title":"Parlotero Malcasado \/ White-lined Tanager \/ Tachyphonus rufus \/ Macho","ispublic":1,"isfriend":0,"isfamily":0},{"id":"51895892555","owner":"40113101@N06","secret":"6d8e870fcc","server":"65535","farm":66,"title":"White-lined tanager","ispublic":1,"isfriend":0,"isfamily":0},{"id":"51874059144","owner":"37493716@N02","secret":"3761446d77","server":"65535","farm":66,"title":"Tachyphonus rufus (juvenil) - White-lined tanager","ispublic":1,"isfriend":0,"isfamily":0},{"id":"51859607948","owner":"61827574@N03","secret":"09a610d2df","server":"65535","farm":66,"title":"White-lined Tanager (f) - Tachyphonus rufus","ispublic":1,"isfriend":0,"isfamily":0},{"id":"51806631880","owner":"12639178@N07","secret":"0c33ca195a","server":"65535","farm":66,"title":"Schwarztangare, Weibchen","ispublic":1,"isfriend":0,"isfamily":0},{"id":"51803825328","owner":"12639178@N07","secret":"2df0c73112","server":"65535","farm":66,"title":"Schwarztangare, Weibchen","ispublic":1,"isfriend":0,"isfamily":0},{"id":"51802751567","owner":"12639178@N07","secret":"b8a49c9913","server":"65535","farm":66,"title":"Schwarztangare, Weibchen","ispublic":1,"isfriend":0,"isfamily":0},{"id":"51803708971","owner":"12639178@N07","secret":"9f8026e980","server":"65535","farm":66,"title":"Schwarztangare, Weibchen","ispublic":1,"isfriend":0,"isfamily":0},{"id":"51803264958","owner":"12639178@N07","secret":"6dd15a4331","server":"65535","farm":66,"title":"Schwarztangare, M\u00e4nnchen","ispublic":1,"isfriend":0,"isfamily":0},{"id":"51803846680","owner":"12639178@N07","secret":"75a4ba00ec","server":"65535","farm":66,"title":"Belegbild Schwarztangare, M\u00e4nnchen","ispublic":1,"isfriend":0,"isfamily":0},{"id":"51797240819","owner":"107784905@N04","secret":"cb5d2382e9","server":"65535","farm":66,"title":"Tangara \u00e0 galons blancs - Rancho Naturalista\/Cartago\/Costa Rica_20211127_005-1","ispublic":1,"isfriend":0,"isfamily":0},{"id":"51797282300","owner":"12639178@N07","secret":"e8b227cea8","server":"65535","farm":66,"title":"Schwarztangare, Weibchen","ispublic":1,"isfriend":0,"isfamily":0},{"id":"51796674058","owner":"12639178@N07","secret":"99cffd51fa","server":"65535","farm":66,"title":"Schwarztangare, Weibchen","ispublic":1,"isfriend":0,"isfamily":0},{"id":"51796923449","owner":"12639178@N07","secret":"6cf1b37fab","server":"65535","farm":66,"title":"Schwarztangare, Weibchen","ispublic":1,"isfriend":0,"isfamily":0},{"id":"52726553803","owner":"192563127@N05","secret":"294676cd94","server":"65535","farm":66,"title":"White-lined Tanager_Male_Tachyphonus Rufus_Tangara Filiblanca_26 Feb 2023  (5)","ispublic":1,"isfriend":0,"isfamily":0},{"id":"52723466561","owner":"33610758@N08","secret":"36f04d82c0","server":"65535","farm":66,"title":"White-lined Tanager (Tachyphonus rufus) (3)","ispublic":1,"isfriend":0,"isfamily":0},{"id":"52723722879","owner":"33610758@N08","secret":"efda6cb4f6","server":"65535","farm":66,"title":"White-lined Tanager (Tachyphonus rufus) (2)","ispublic":1,"isfriend":0,"isfamily":0},{"id":"52605492826","owner":"48938938@N04","secret":"aa68692d3f","server":"65535","farm":66,"title":"White-lined Tanager-Tachyphonus rufus_Ascanio_Colombia_DZ3A1941","ispublic":1,"isfriend":0,"isfamily":0},{"id":"52581651862","owner":"27794127@N07","secret":"cccda9e38a","server":"65535","farm":66,"title":"Tachyphonus rufus","ispublic":1,"isfriend":0,"isfamily":0},{"id":"52489278814","owner":"55592907@N06","secret":"2cb691027f","server":"65535","farm":66,"title":"white-lined tanager (Tachyphonus rufus)","ispublic":1,"isfriend":0,"isfamily":0},{"id":"52430371390","owner":"12639178@N07","secret":"20cc559cc7","server":"65535","farm":66,"title":"25164_Tanager Tachyphonus rufus M\u00e4nnchen","ispublic":1,"isfriend":0,"isfamily":0},{"id":"52346551754","owner":"196392459@N07","secret":"3b41d18694","server":"65535","farm":66,"title":"DSC06453_1","ispublic":1,"isfriend":0,"isfamily":0},{"id":"52346491013","owner":"196392459@N07","secret":"7492b2a40b","server":"65535","farm":66,"title":"DSC06455_1","ispublic":1,"isfriend":0,"isfamily":0},{"id":"52329386763","owner":"123597211@N03","secret":"af0fa433b5","server":"65535","farm":66,"title":"Schwarztangare (Tachyphonus rufus)","ispublic":1,"isfriend":0,"isfamily":0},{"id":"52329386448","owner":"123597211@N03","secret":"640b894ddb","server":"65535","farm":66,"title":"Schwarztangare (Tachyphonus rufus)","ispublic":1,"isfriend":0,"isfamily":0},{"id":"52329135931","owner":"123597211@N03","secret":"66932dbbd9","server":"65535","farm":66,"title":"Schwarztangare (Tachyphonus rufus)","ispublic":1,"isfriend":0,"isfamily":0},{"id":"52329564520","owner":"123597211@N03","secret":"087892be60","server":"65535","farm":66,"title":"Schwarztangare (Tachyphonus rufus)","ispublic":1,"isfriend":0,"isfamily":0},{"id":"52329563800","owner":"123597211@N03","secret":"6ffd3dc3d2","server":"65535","farm":66,"title":"Schwarztangare (Tachyphonus rufus)","ispublic":1,"isfriend":0,"isfamily":0},{"id":"52328180592","owner":"123597211@N03","secret":"040d199b77","server":"65535","farm":66,"title":"Schwarztangare (Tachyphonus rufus)","ispublic":1,"isfriend":0,"isfamily":0},{"id":"52329384518","owner":"123597211@N03","secret":"92b9b22ba5","server":"65535","farm":66,"title":"Schwarztangare (Tachyphonus rufus)","ispublic":1,"isfriend":0,"isfamily":0},{"id":"52329562665","owner":"123597211@N03","secret":"504e607054","server":"65535","farm":66,"title":"Schwarztangare (Tachyphonus rufus)","ispublic":1,"isfriend":0,"isfamily":0},{"id":"52328179287","owner":"123597211@N03","secret":"210e390983","server":"65535","farm":66,"title":"Schwarztangare (Tachyphonus rufus)","ispublic":1,"isfriend":0,"isfamily":0},{"id":"52266272587","owner":"140734051@N08","secret":"ac37c34f83","server":"65535","farm":66,"title":"\u0427\u0451\u0440\u043d\u0430\u044f \u0442\u0430\u043d\u0430\u0433\u0440\u0430, Tachyphonus rufus, White-lined Tanager \u2640\ufe0f","ispublic":1,"isfriend":0,"isfamily":0},{"id":"52267503834","owner":"140734051@N08","secret":"abbf8a5d28","server":"65535","farm":66,"title":"\u0427\u0451\u0440\u043d\u0430\u044f \u0442\u0430\u043d\u0430\u0433\u0440\u0430, Tachyphonus rufus, White-lined Tanager \u2640\ufe0f","ispublic":1,"isfriend":0,"isfamily":0},{"id":"52243327797","owner":"45681418@N03","secret":"41cda9f276","server":"65535","farm":66,"title":"Male White-lined Tanager (Tachyphonus rufus)","ispublic":1,"isfriend":0,"isfamily":0},{"id":"52244794750","owner":"45681418@N03","secret":"81e03d8118","server":"65535","farm":66,"title":"Female White-lined Tanager (Tachyphonus rufus)","ispublic":1,"isfriend":0,"isfamily":0},{"id":"52095410630","owner":"48938938@N04","secret":"957347c1b0","server":"65535","farm":66,"title":"White-lined Tanager_Tachyphonus rufus_Ascanio_Parque Tamayo_DZ3A3704","ispublic":1,"isfriend":0,"isfamily":0},{"id":"52093882912","owner":"48938938@N04","secret":"1c3dfd1aa8","server":"65535","farm":66,"title":"White-lined Tanager_Tachyphonus rufus_Ascanio_Parque Tamayo_DZ3A3713","ispublic":1,"isfriend":0,"isfamily":0},{"id":"52093921383","owner":"48938938@N04","secret":"86bcbd965f","server":"65535","farm":66,"title":"White-lined Tanager_Tachyphonus rufus_Ascanio_GBD_DZ3A7510","ispublic":1,"isfriend":0,"isfamily":0},{"id":"52094115389","owner":"48938938@N04","secret":"2dc97faa88","server":"65535","farm":66,"title":"White-lined Tanager_Tachyphonus rufus_Ascanio_GBD_DZ3A7511","ispublic":1,"isfriend":0,"isfamily":0},{"id":"51996398011","owner":"95747238@N07","secret":"4ba5f75183","server":"65535","farm":66,"title":"Tachyphonus rufus 2","ispublic":1,"isfriend":0,"isfamily":0},{"id":"51856646613","owner":"191534235@N04","secret":"76cdd25c11","server":"65535","farm":66,"title":"Tachyphonus rufus - Tangara \u00e0 galons blancs","ispublic":1,"isfriend":0,"isfamily":0},{"id":"51853835984","owner":"103263246@N06","secret":"54eea5a0b5","server":"65535","farm":66,"title":"Tachyphonus rufus - White-lined Tanager - Tangara Negra","ispublic":1,"isfriend":0,"isfamily":0},{"id":"51804449835","owner":"12639178@N07","secret":"8e9561b201","server":"65535","farm":66,"title":"Schwarztangare","ispublic":1,"isfriend":0,"isfamily":0},{"id":"51804082039","owner":"12639178@N07","secret":"cd882890ee","server":"65535","farm":66,"title":"Schwarztangare","ispublic":1,"isfriend":0,"isfamily":0}]},"stat":"ok"}