{"photos":{"page":1,"pages":84,"perpage":100,"total":8362,"photo":[{"id":"52722809481","owner":"51433704@N06","secret":"93156cd4f4","server":"65535","farm":66,"title":"American White Ibis","ispublic":1,"isfriend":0,"isfamily":0},{"id":"52723071518","owner":"112608353@N02","secret":"b5172476ff","server":"65535","farm":66,"title":"Golden Hour Portrait","ispublic":1,"isfriend":0,"isfamily":0},{"id":"52709873787","owner":"7856934@N03","secret":"a9a2af8533","server":"65535","farm":66,"title":"White Ibis juvenile","ispublic":1,"isfriend":0,"isfamily":0},{"id":"52709976481","owner":"45246060@N03","secret":"b2b8320a09","server":"65535","farm":66,"title":"White ibis","ispublic":1,"isfriend":0,"isfamily":0},{"id":"52710392455","owner":"45246060@N03","secret":"0bd840fa6d","server":"65535","farm":66,"title":"White ibis","ispublic":1,"isfriend":0,"isfamily":0},{"id":"52709125511","owner":"90355165@N03","secret":"fccceffd1e","server":"65535","farm":66,"title":"American white ibis","ispublic":1,"isfriend":0,"isfamily":0},{"id":"52706804529","owner":"185443397@N07","secret":"ec1ab230c0","server":"65535","farm":66,"title":"White Ibis (Eudocimus albus)","ispublic":1,"isfriend":0,"isfamily":0},{"id":"52707042778","owner":"185443397@N07","secret":"6ddb13e9f1","server":"65535","farm":66,"title":"White Ibis (Eudocimus albus)","ispublic":1,"isfriend":0,"isfamily":0},{"id":"52706481406","owner":"195537536@N03","secret":"d5663b0a81","server":"65535","farm":66,"title":"White Ibis (Eudocimus albus)","ispublic":1,"isfriend":0,"isfamily":0},{"id":"52706285416","owner":"74787113@N05","secret":"db5da32153","server":"65535","farm":66,"title":"WHITE IBIS INMATURE","ispublic":1,"isfriend":0,"isfamily":0},{"id":"52706234898","owner":"51433704@N06","secret":"5358114a4c","server":"65535","farm":66,"title":"American White Ibis's Sunset Catch","ispublic":1,"isfriend":0,"isfamily":0},{"id":"52704672795","owner":"93273765@N05","secret":"92ea170de0","server":"65535","farm":66,"title":"American white ibis (Eudocimus albus)","ispublic":1,"isfriend":0,"isfamily":0},{"id":"52704263994","owner":"95795254@N02","secret":"46eb96324a","server":"65535","farm":66,"title":"American White Ibis 502_4018.jpg","ispublic":1,"isfriend":0,"isfamily":0},{"id":"52700833567","owner":"132165466@N08","secret":"a37645aa79","server":"65535","farm":66,"title":"White Ibis, young","ispublic":1,"isfriend":0,"isfamily":0},{"id":"52701773850","owner":"132165466@N08","secret":"447b21a489","server":"65535","farm":66,"title":"White Ibis, young","ispublic":1,"isfriend":0,"isfamily":0},{"id":"52701773835","owner":"132165466@N08","secret":"1c5dfa5e97","server":"65535","farm":66,"title":"White Ibis, young","ispublic":1,"isfriend":0,"isfamily":0},{"id":"52700215312","owner":"51433704@N06","secret":"ea3bf7fbb3","server":"65535","farm":66,"title":"American White Ibis - Immature","ispublic":1,"isfriend":0,"isfamily":0},{"id":"52697520687","owner":"128369733@N04","secret":"94deecdff1","server":"65535","farm":66,"title":"On A Sunday Morning Walk (1)","ispublic":1,"isfriend":0,"isfamily":0},{"id":"52697520162","owner":"128369733@N04","secret":"08446bac8a","server":"65535","farm":66,"title":"On A Sunday Morning Walk (2)","ispublic":1,"isfriend":0,"isfamily":0},{"id":"52698035066","owner":"128369733@N04","secret":"8cc1e5b0b0","server":"65535","farm":66,"title":"On A Sunday Morning Walk (3)","ispublic":1,"isfriend":0,"isfamily":0},{"id":"52696212906","owner":"124995824@N08","secret":"bd8577e51d","server":"65535","farm":66,"title":"White Ibis - Eudocimus albus","ispublic":1,"isfriend":0,"isfamily":0},{"id":"52694210141","owner":"93273765@N05","secret":"295839207f","server":"65535","farm":66,"title":"American white ibis (Eudocimus albus)","ispublic":1,"isfriend":0,"isfamily":0},{"id":"52689072576","owner":"52450054@N04","secret":"52f10afa9d","server":"65535","farm":66,"title":"White Ibis - Eudocimus albus, Big Cypress National Preserve, Ochopee, Florida, December 4, 2021","ispublic":1,"isfriend":0,"isfamily":0},{"id":"52686378746","owner":"93273765@N05","secret":"b66464c6a9","server":"65535","farm":66,"title":"Immature American white ibis (Eudocimus albus)","ispublic":1,"isfriend":0,"isfamily":0},{"id":"52684108836","owner":"93273765@N05","secret":"c46cd89816","server":"65535","farm":66,"title":"American white ibis (Eudocimus albus)","ispublic":1,"isfriend":0,"isfamily":0},{"id":"52684391779","owner":"93273765@N05","secret":"c088c62362","server":"65535","farm":66,"title":"American white ibis (Eudocimus albus)","ispublic":1,"isfriend":0,"isfamily":0},{"id":"52681758219","owner":"36616854@N02","secret":"fabbafb811","server":"65535","farm":66,"title":"Grazing the Grass","ispublic":1,"isfriend":0,"isfamily":0},{"id":"52672989766","owner":"7856934@N03","secret":"79b6eb2ac1","server":"65535","farm":66,"title":"White Ibis","ispublic":1,"isfriend":0,"isfamily":0},{"id":"52671519384","owner":"145466593@N08","secret":"a286c7c28c","server":"65535","farm":66,"title":"White Ibis","ispublic":1,"isfriend":0,"isfamily":0},{"id":"52671663615","owner":"145466593@N08","secret":"fe1bafe3fe","server":"65535","farm":66,"title":"White Ibis  (juvenile)","ispublic":1,"isfriend":0,"isfamily":0},{"id":"52668976496","owner":"50846495@N04","secret":"8fef79d00b","server":"65535","farm":66,"title":"White ibis \/ Ibis blanc \/ Eudocimus albus","ispublic":1,"isfriend":0,"isfamily":0},{"id":"52668655123","owner":"86191812@N07","secret":"c9db86d237","server":"65535","farm":66,"title":"White Ibis (Eudocimus albus)","ispublic":1,"isfriend":0,"isfamily":0},{"id":"52666642432","owner":"39177293@N03","secret":"eb2744346d","server":"65535","farm":66,"title":"White Ibis","ispublic":1,"isfriend":0,"isfamily":0},{"id":"52667573770","owner":"39177293@N03","secret":"3293627070","server":"65535","farm":66,"title":"White Ibises","ispublic":1,"isfriend":0,"isfamily":0},{"id":"52667080331","owner":"161505078@N03","secret":"5ba9c88a0e","server":"65535","farm":66,"title":"White Ibis adult (Eudocimus albus)","ispublic":1,"isfriend":0,"isfamily":0},{"id":"52667348878","owner":"7856934@N03","secret":"fcb3973f46","server":"65535","farm":66,"title":"White Ibis","ispublic":1,"isfriend":0,"isfamily":0},{"id":"52666727694","owner":"93273765@N05","secret":"ae2db6ce10","server":"65535","farm":66,"title":"Juvenile American white ibis (Eudocimus albus)","ispublic":1,"isfriend":0,"isfamily":0},{"id":"52659814848","owner":"50846495@N04","secret":"d08256e2d0","server":"65535","farm":66,"title":"White ibis \/ Ibis blanc \/ Eudocimus albus","ispublic":1,"isfriend":0,"isfamily":0},{"id":"52657894278","owner":"124995824@N08","secret":"e3fae28590","server":"65535","farm":66,"title":"White Ibis - Eudocimus albus","ispublic":1,"isfriend":0,"isfamily":0},{"id":"52657239551","owner":"66550674@N06","secret":"5c330d4891","server":"65535","farm":66,"title":"White Ibis","ispublic":1,"isfriend":0,"isfamily":0},{"id":"52657153515","owner":"51433704@N06","secret":"777f3aacdc","server":"65535","farm":66,"title":"American White Ibis","ispublic":1,"isfriend":0,"isfamily":0},{"id":"52656704895","owner":"29170368@N03","secret":"3d5d3f2852","server":"65535","farm":66,"title":"White Ibis","ispublic":1,"isfriend":0,"isfamily":0},{"id":"52650899714","owner":"78145652@N02","secret":"6ab1ed2f59","server":"65535","farm":66,"title":"White Ibis - Eudocimus albus 1","ispublic":1,"isfriend":0,"isfamily":0},{"id":"52651038365","owner":"78145652@N02","secret":"40f8f8ac68","server":"65535","farm":66,"title":"White Ibis - Eudocimus albus","ispublic":1,"isfriend":0,"isfamily":0},{"id":"52649402060","owner":"52450054@N04","secret":"82ca8e87fe","server":"65535","farm":66,"title":"White Ibis - Eudocimus albus, Big Cypress National Preserve, Ochopee, Florida, December 7, 2021","ispublic":1,"isfriend":0,"isfamily":0},{"id":"52647267274","owner":"67164820@N06","secret":"2ca947d2d9","server":"65535","farm":66,"title":"white ibis 2","ispublic":1,"isfriend":0,"isfamily":0},{"id":"52647003541","owner":"67164820@N06","secret":"0302e1ea94","server":"65535","farm":66,"title":"white ibis 3","ispublic":1,"isfriend":0,"isfamily":0},{"id":"52643838207","owner":"125114464@N04","secret":"07489affff","server":"65535","farm":66,"title":"American White Ibis (Eudocimus albus)","ispublic":1,"isfriend":0,"isfamily":0},{"id":"52639362810","owner":"67164820@N06","secret":"308488dfda","server":"65535","farm":66,"title":"heron and ibis","ispublic":1,"isfriend":0,"isfamily":0},{"id":"52638411672","owner":"67164820@N06","secret":"36588e0d0b","server":"65535","farm":66,"title":"heron and ibis 2","ispublic":1,"isfriend":0,"isfamily":0},{"id":"52639403888","owner":"67164820@N06","secret":"29e3879efe","server":"65535","farm":66,"title":"heron and ibis 3","ispublic":1,"isfriend":0,"isfamily":0},{"id":"52636809844","owner":"8654297@N06","secret":"d504346930","server":"65535","farm":66,"title":"Preening moment","ispublic":1,"isfriend":0,"isfamily":0},{"id":"52632779741","owner":"128369733@N04","secret":"f15f3d203d","server":"65535","farm":66,"title":"In The Front Yard (1)","ispublic":1,"isfriend":0,"isfamily":0},{"id":"52632779286","owner":"128369733@N04","secret":"7daab99d77","server":"65535","farm":66,"title":"In The Front Yard (2)","ispublic":1,"isfriend":0,"isfamily":0},{"id":"52633033489","owner":"128369733@N04","secret":"444fcf14bd","server":"65535","farm":66,"title":"In The Front Yard (3)","ispublic":1,"isfriend":0,"isfamily":0},{"id":"52632173084","owner":"47533293@N04","secret":"484f94bf64","server":"65535","farm":66,"title":"White ibis, Eudocimus albus","ispublic":1,"isfriend":0,"isfamily":0},{"id":"52632309965","owner":"22163926@N05","secret":"97ce5d5495","server":"65535","farm":66,"title":"Putting His Foot Down","ispublic":1,"isfriend":0,"isfamily":0},{"id":"52628763806","owner":"26631347@N05","secret":"26d38fc765","server":"65535","farm":66,"title":"P1140064-OM300F4.5EXT1.4SC","ispublic":1,"isfriend":0,"isfamily":0},{"id":"52626360080","owner":"51433704@N06","secret":"de5e54ca4c","server":"65535","farm":66,"title":"American White Ibis","ispublic":1,"isfriend":0,"isfamily":0},{"id":"52625047969","owner":"33814246@N00","secret":"7540eb6741","server":"65535","farm":66,"title":"IMG_9798-1","ispublic":1,"isfriend":0,"isfamily":0},{"id":"52624501595","owner":"8065544@N08","secret":"8f80e1d233","server":"65535","farm":66,"title":"White Ibis (Eudocimus albus)","ispublic":1,"isfriend":0,"isfamily":0},{"id":"52624071101","owner":"8065544@N08","secret":"2a39d15ffc","server":"65535","farm":66,"title":"White Ibis (Eudocimus albus)","ispublic":1,"isfriend":0,"isfamily":0},{"id":"52624547703","owner":"8065544@N08","secret":"3d48195ab4","server":"65535","farm":66,"title":"White Ibis (Eudocimus albus)","ispublic":1,"isfriend":0,"isfamily":0},{"id":"52623551797","owner":"8065544@N08","secret":"f7664e21da","server":"65535","farm":66,"title":"White Ibis (Eudocimus albus)","ispublic":1,"isfriend":0,"isfamily":0},{"id":"52623613048","owner":"161505078@N03","secret":"5661f5d301","server":"65535","farm":66,"title":"American white ibis adult (Eudocimus albus)","ispublic":1,"isfriend":0,"isfamily":0},{"id":"52621104851","owner":"161505078@N03","secret":"bb1dea62a4","server":"65535","farm":66,"title":"American white ibis adult (Eudocimus albus)","ispublic":1,"isfriend":0,"isfamily":0},{"id":"52618970097","owner":"161505078@N03","secret":"37ab2d631d","server":"65535","farm":66,"title":"American white ibis adult (Eudocimus albus)","ispublic":1,"isfriend":0,"isfamily":0},{"id":"52618803797","owner":"38514062@N03","secret":"68a2626a01","server":"65535","farm":66,"title":"White Ibis (Eudocimus albus)","ispublic":1,"isfriend":0,"isfamily":0},{"id":"52619331809","owner":"161505078@N03","secret":"f47e91754d","server":"65535","farm":66,"title":"American white ibis adult (Eudocimus albus) and snowy egret (Egretta thula)","ispublic":1,"isfriend":0,"isfamily":0},{"id":"52619027981","owner":"161505078@N03","secret":"82dfd308c0","server":"65535","farm":66,"title":"American white ibis adult (Eudocimus albus)","ispublic":1,"isfriend":0,"isfamily":0},{"id":"52619444615","owner":"161505078@N03","secret":"7719cf0b49","server":"65535","farm":66,"title":"American white ibis adult (Eudocimus albus)","ispublic":1,"isfriend":0,"isfamily":0},{"id":"52612492746","owner":"128369733@N04","secret":"f33ed6bbe5","server":"65535","farm":66,"title":"Ibis In Flight","ispublic":1,"isfriend":0,"isfamily":0},{"id":"52610111462","owner":"43272765@N04","secret":"43aa649c0a","server":"65535","farm":66,"title":"American White Ibis (Eudocimus albus)","ispublic":1,"isfriend":0,"isfamily":0},{"id":"52609603014","owner":"38514062@N03","secret":"0f39356808","server":"65535","farm":66,"title":"White Ibis (Eudocimus albus)","ispublic":1,"isfriend":0,"isfamily":0},{"id":"52608173108","owner":"85352038@N00","secret":"d7f2c987aa","server":"65535","farm":66,"title":"American White Ibis   (2013)","ispublic":1,"isfriend":0,"isfamily":0},{"id":"52606392588","owner":"62425933@N04","secret":"fe6cf1a8ee","server":"65535","farm":66,"title":"Wetlands Dweller","ispublic":1,"isfriend":0,"isfamily":0},{"id":"52603853102","owner":"88932760@N08","secret":"7ba0530af9","server":"65535","farm":66,"title":"Dappled Profile #1","ispublic":1,"isfriend":0,"isfamily":0},{"id":"52603104210","owner":"7856934@N03","secret":"38ec9c9721","server":"65535","farm":66,"title":"Whte Ibis","ispublic":1,"isfriend":0,"isfamily":0},{"id":"52602231544","owner":"124995824@N08","secret":"e35df3183d","server":"65535","farm":66,"title":"White Ibis - Eudocimus albus","ispublic":1,"isfriend":0,"isfamily":0},{"id":"52601479792","owner":"124995824@N08","secret":"eea68c3633","server":"65535","farm":66,"title":"White Ibis - Eudocimus albus","ispublic":1,"isfriend":0,"isfamily":0},{"id":"52601511168","owner":"196209131@N02","secret":"54469a3628","server":"65535","farm":66,"title":"American White Ibis (Eudocimus albus)","ispublic":1,"isfriend":0,"isfamily":0},{"id":"52601375420","owner":"40941741@N03","secret":"70f2a1d691","server":"65535","farm":66,"title":"Hanging Around","ispublic":1,"isfriend":0,"isfamily":0},{"id":"52599184283","owner":"40941741@N03","secret":"2ddcf8bab0","server":"65535","farm":66,"title":"White Ibis in the Fog","ispublic":1,"isfriend":0,"isfamily":0},{"id":"52597450267","owner":"52450054@N04","secret":"76ee54160a","server":"65535","farm":66,"title":"Great Egret - Ardea alba and White Ibis - Eudocimus albus, Big Cypress National Preserve, Ochopee, Florida, December 4, 2021","ispublic":1,"isfriend":0,"isfamily":0},{"id":"52597175787","owner":"11561957@N06","secret":"f2c59324cf","server":"65535","farm":66,"title":"American White Ibis","ispublic":1,"isfriend":0,"isfamily":0},{"id":"52598183128","owner":"11561957@N06","secret":"e0d121c69d","server":"65535","farm":66,"title":"American White Ibis","ispublic":1,"isfriend":0,"isfamily":0},{"id":"52597927234","owner":"11561957@N06","secret":"9568b8f811","server":"65535","farm":66,"title":"American White Ibis","ispublic":1,"isfriend":0,"isfamily":0},{"id":"52587741850","owner":"183004597@N05","secret":"d48727d414","server":"65535","farm":66,"title":"White Ibis (Eudocimus albus)","ispublic":1,"isfriend":0,"isfamily":0},{"id":"52580498904","owner":"153973412@N04","secret":"91883ecea7","server":"65535","farm":66,"title":"White Ibis-Eudocimus albus, Fort Myers, FL","ispublic":1,"isfriend":0,"isfamily":0},{"id":"52579723619","owner":"128369733@N04","secret":"8499e7b1f1","server":"65535","farm":66,"title":"Searching The Grass Roots (1)","ispublic":1,"isfriend":0,"isfamily":0},{"id":"52579895605","owner":"128369733@N04","secret":"93c1038f75","server":"65535","farm":66,"title":"Searching The Grass Roots (2)","ispublic":1,"isfriend":0,"isfamily":0},{"id":"52579634319","owner":"161505078@N03","secret":"dbf91a7f78","server":"65535","farm":66,"title":"American white ibis immature (Eudocimus albus)","ispublic":1,"isfriend":0,"isfamily":0},{"id":"52579345834","owner":"51433704@N06","secret":"46b14df1fd","server":"65535","farm":66,"title":"American White Ibis","ispublic":1,"isfriend":0,"isfamily":0},{"id":"52578192065","owner":"7856934@N03","secret":"8fd00682e7","server":"65535","farm":66,"title":"White Ibis flyover","ispublic":1,"isfriend":0,"isfamily":0},{"id":"52570588380","owner":"90355165@N03","secret":"c2f68b652f","server":"65535","farm":66,"title":"American white ibis","ispublic":1,"isfriend":0,"isfamily":0},{"id":"52567136041","owner":"161505078@N03","secret":"a83a34628c","server":"65535","farm":66,"title":"American white ibis immature (Eudocimus albus)","ispublic":1,"isfriend":0,"isfamily":0},{"id":"52566453767","owner":"161505078@N03","secret":"547fe3c8f4","server":"65535","farm":66,"title":"American white ibis adult (Eudocimus albus)","ispublic":1,"isfriend":0,"isfamily":0},{"id":"52563946936","owner":"140318147@N08","secret":"815bf398db","server":"65535","farm":66,"title":"white ibis (Eudocimus albus) L4A7794","ispublic":1,"isfriend":0,"isfamily":0},{"id":"52563694259","owner":"161505078@N03","secret":"9e99925b25","server":"65535","farm":66,"title":"American white ibis adult (Eudocimus albus)","ispublic":1,"isfriend":0,"isfamily":0},{"id":"52563419409","owner":"161505078@N03","secret":"7971d096d8","server":"65535","farm":66,"title":"American white ibis adult (Eudocimus albus)","ispublic":1,"isfriend":0,"isfamily":0}]},"stat":"ok"}