{"photos":{"page":1,"pages":16,"perpage":100,"total":1583,"photo":[{"id":"52726457665","owner":"12240837@N08","secret":"46985c43e3","server":"65535","farm":66,"title":"White-winged Black Tern (chlidonias leucopterus)","ispublic":1,"isfriend":0,"isfamily":0},{"id":"52725243553","owner":"21186555@N07","secret":"882324fd9f","server":"65535","farm":66,"title":"Whiskered Tern, Luzon, Philippines","ispublic":1,"isfriend":0,"isfamily":0},{"id":"52693936499","owner":"78742710@N08","secret":"793b2b33c6","server":"65535","farm":66,"title":"Welcome Swallow, White-winged Tern","ispublic":1,"isfriend":0,"isfamily":0},{"id":"52689597840","owner":"49895734@N05","secret":"046b8d667e","server":"65535","farm":66,"title":"White-winged Tern. Fumarel aliblanco. Chlidonias leucopterus","ispublic":1,"isfriend":0,"isfamily":0},{"id":"52692292003","owner":"78742710@N08","secret":"504a34b4b2","server":"65535","farm":66,"title":"White-winged Tern, Welcome Swallow: Sic 'em Rex","ispublic":1,"isfriend":0,"isfamily":0},{"id":"52691180571","owner":"78742710@N08","secret":"a47bd3e259","server":"65535","farm":66,"title":"White-winged Tern, Welcome Swallow: Territory Dispute","ispublic":1,"isfriend":0,"isfamily":0},{"id":"52678809977","owner":"75129988@N00","secret":"6819d90eac","server":"65535","farm":66,"title":"White-winged Tern (7602)","ispublic":1,"isfriend":0,"isfamily":0},{"id":"52676551774","owner":"78742710@N08","secret":"d134f42acc","server":"65535","farm":66,"title":"White-winged Tern: On Target","ispublic":1,"isfriend":0,"isfamily":0},{"id":"52671434172","owner":"78742710@N08","secret":"eb97180649","server":"65535","farm":66,"title":"White-winged Tern: Colouring Up","ispublic":1,"isfriend":0,"isfamily":0},{"id":"52669164768","owner":"90072707@N03","secret":"27db05af32","server":"65535","farm":66,"title":"White-winged Tern (Chlidonias leucopterus) Queen Elizabeth NP Uganda","ispublic":1,"isfriend":0,"isfamily":0},{"id":"52668165002","owner":"90072707@N03","secret":"79192bddb7","server":"65535","farm":66,"title":"White-winged Tern (Chlidonias leucopterus) Queen Elizabeth NP Uganda","ispublic":1,"isfriend":0,"isfamily":0},{"id":"52668164167","owner":"90072707@N03","secret":"9e46acaaca","server":"65535","farm":66,"title":"White-winged Tern (Chlidonias leucopterus) Queen Elizabeth NP Uganda","ispublic":1,"isfriend":0,"isfamily":0},{"id":"52669096755","owner":"90072707@N03","secret":"a65f734a8c","server":"65535","farm":66,"title":"White-winged Tern (Chlidonias leucopterus) Queen Elizabeth NP Uganda","ispublic":1,"isfriend":0,"isfamily":0},{"id":"52669161728","owner":"90072707@N03","secret":"9b9b899228","server":"65535","farm":66,"title":"White-winged Tern (Chlidonias leucopterus) Queen Elizabeth NP Uganda","ispublic":1,"isfriend":0,"isfamily":0},{"id":"52668161697","owner":"90072707@N03","secret":"d932120038","server":"65535","farm":66,"title":"White-winged Tern (Chlidonias leucopterus) Queen Elizabeth NP Uganda","ispublic":1,"isfriend":0,"isfamily":0},{"id":"52668161077","owner":"90072707@N03","secret":"3bb6de5e8b","server":"65535","farm":66,"title":"White-winged Tern (Chlidonias leucopterus) Queen Elizabeth NP Uganda","ispublic":1,"isfriend":0,"isfamily":0},{"id":"52669094215","owner":"90072707@N03","secret":"c47ab2e674","server":"65535","farm":66,"title":"White-winged Tern (Chlidonias leucopterus) Queen Elizabeth NP Uganda","ispublic":1,"isfriend":0,"isfamily":0},{"id":"52669159098","owner":"90072707@N03","secret":"a1ab7a6fab","server":"65535","farm":66,"title":"White-winged Tern (Chlidonias leucopterus) Queen Elizabeth NP Uganda","ispublic":1,"isfriend":0,"isfamily":0},{"id":"52667769007","owner":"37180297@N08","secret":"0c9f771593","server":"65535","farm":66,"title":"_RBD6792 Chlidonias leucopterus \u767d\u7fc5\u9ed1\u71d5\u9dd7","ispublic":1,"isfriend":0,"isfamily":0},{"id":"52666057199","owner":"16520061@N08","secret":"36dd542a2b","server":"65535","farm":66,"title":"White-winged Tern (Chlidonias leucopterus)","ispublic":1,"isfriend":0,"isfamily":0},{"id":"52654865884","owner":"12240837@N08","secret":"b3b3175fb8","server":"65535","farm":66,"title":"White-winged Black Tern (chlidonias leucopterus)","ispublic":1,"isfriend":0,"isfamily":0},{"id":"52637640460","owner":"78742710@N08","secret":"1743eda62f","server":"65535","farm":66,"title":"White-winged Tern: Spiral Force","ispublic":1,"isfriend":0,"isfamily":0},{"id":"52630930672","owner":"78742710@N08","secret":"81dc0df565","server":"65535","farm":66,"title":"Whtie-winged Tern: Stretched Out","ispublic":1,"isfriend":0,"isfamily":0},{"id":"52610499484","owner":"78742710@N08","secret":"f2321a45c2","server":"65535","farm":66,"title":"White-winged Tern: Welcome Visitors","ispublic":1,"isfriend":0,"isfamily":0},{"id":"52609626350","owner":"78742710@N08","secret":"366dd150f7","server":"65535","farm":66,"title":"White-winged Tern: Blacks are Back!","ispublic":1,"isfriend":0,"isfamily":0},{"id":"52532675359","owner":"48014585@N00","secret":"8d962ab86e","server":"65535","farm":66,"title":"African Skimmers, White-winged Tern, and Gray-hooded Gull","ispublic":1,"isfriend":0,"isfamily":0},{"id":"52532675229","owner":"48014585@N00","secret":"0b22c60855","server":"65535","farm":66,"title":"White-winged Terns, African Skimmer, and Common Greenshank","ispublic":1,"isfriend":0,"isfamily":0},{"id":"52518653943","owner":"151677249@N08","secret":"8f88b6a28f","server":"65535","farm":66,"title":"White-winged Black Tern (Chlidonias leucopterus)","ispublic":1,"isfriend":0,"isfamily":0},{"id":"52507113519","owner":"28786551@N04","secret":"1005799db0","server":"65535","farm":66,"title":"White-winged Tern","ispublic":1,"isfriend":0,"isfamily":0},{"id":"52503660805","owner":"28786551@N04","secret":"f100b82d80","server":"65535","farm":66,"title":"White-winged Tern","ispublic":1,"isfriend":0,"isfamily":0},{"id":"52491567661","owner":"49828152@N00","secret":"5c763a67f6","server":"65535","farm":66,"title":"White-winged Black Tern","ispublic":1,"isfriend":0,"isfamily":0},{"id":"52453366020","owner":"77469100@N04","secret":"2c310096d1","server":"65535","farm":66,"title":"White-winged Tern_6851","ispublic":1,"isfriend":0,"isfamily":0},{"id":"52425177900","owner":"29882791@N02","secret":"02ee9536b8","server":"65535","farm":66,"title":"Laridae - Chlidonias leucopterus","ispublic":1,"isfriend":0,"isfamily":0},{"id":"52364473764","owner":"134719435@N07","secret":"be8a34e5a9","server":"65535","farm":66,"title":"White-winged Tern     (Chlidonias leucopterus)","ispublic":1,"isfriend":0,"isfamily":0},{"id":"52338558172","owner":"148287921@N02","secret":"10b7de0869","server":"65535","farm":66,"title":"Juvenile white-winged tern","ispublic":1,"isfriend":0,"isfamily":0},{"id":"52324892325","owner":"158967056@N07","secret":"c15f7645ce","server":"65535","farm":66,"title":"Gaivina-d'asa-branca \/\/ Chlidonias leucopterus","ispublic":1,"isfriend":0,"isfamily":0},{"id":"52263235344","owner":"149351113@N04","secret":"a64744418c","server":"65535","farm":66,"title":"A multispecies flock of terns over the Narew River bank (North eastern Poland).","ispublic":1,"isfriend":0,"isfamily":0},{"id":"52247590090","owner":"134560762@N08","secret":"a4fbb67c89","server":"65535","farm":66,"title":"witvleugelstern (Chlidonias leucopterus) (stacking 1700 images), Arisvi Lesbos","ispublic":1,"isfriend":0,"isfamily":0},{"id":"52244854776","owner":"134560762@N08","secret":"86034c75a2","server":"65535","farm":66,"title":"witvleugelstern (Chlidonias leucopterus) (stacking 900 images), Arisvi Lesbos","ispublic":1,"isfriend":0,"isfamily":0},{"id":"52232975471","owner":"140734051@N08","secret":"3a3975793b","server":"65535","farm":66,"title":"\u0411\u0435\u043b\u043e\u043a\u0440\u044b\u043b\u0430\u044f \u043a\u0440\u0430\u0447\u043a\u0430, Chlidonias leucopterus, White-winged Tern","ispublic":1,"isfriend":0,"isfamily":0},{"id":"52221580141","owner":"120449047@N06","secret":"8e985a3705","server":"65535","farm":66,"title":"White-winged Tern (mega lifer)","ispublic":1,"isfriend":0,"isfamily":0},{"id":"52195561814","owner":"53998285@N07","secret":"652d31e677","server":"65535","farm":66,"title":"White-winged tern","ispublic":1,"isfriend":0,"isfamily":0},{"id":"52157441819","owner":"96060626@N03","secret":"0cdd75fb8b","server":"65535","farm":66,"title":"20200516\u767d\u7fc5\u9ed1\u71d5\u9dd7 (65)","ispublic":1,"isfriend":0,"isfamily":0},{"id":"52078250048","owner":"188590690@N04","secret":"3b0a5c993c","server":"65535","farm":66,"title":"Witvleugelstern, White-winged Tern, Chlidonias leucopterus","ispublic":1,"isfriend":0,"isfamily":0},{"id":"52078322874","owner":"188590690@N04","secret":"bde0d89e90","server":"65535","farm":66,"title":"Witvleugelstern, White-winged Tern, Chlidonias leucopterus","ispublic":1,"isfriend":0,"isfamily":0},{"id":"52077242856","owner":"92193497@N03","secret":"fca16de8d3","server":"65535","farm":66,"title":"Chlidonias leucopterus","ispublic":1,"isfriend":0,"isfamily":0},{"id":"52067009507","owner":"191829438@N07","secret":"79b3b57149","server":"65535","farm":66,"title":"Chlidonias leucopterus","ispublic":1,"isfriend":0,"isfamily":0},{"id":"52059289273","owner":"150856173@N06","secret":"2c7177ba09","server":"65535","farm":66,"title":"Whiskered tern (Chlidonias hybrida)-4776","ispublic":1,"isfriend":0,"isfamily":0},{"id":"52200587441","owner":"101709991@N06","secret":"7af723006e","server":"65535","farm":66,"title":"Tukana County, White-winged Tern - Chlidonias leucopterus220508","ispublic":1,"isfriend":0,"isfamily":0},{"id":"52052206086","owner":"62296695@N07","secret":"eaec5cce1f","server":"65535","farm":66,"title":"Chlidonias leucopterus","ispublic":1,"isfriend":0,"isfamily":0},{"id":"52050139166","owner":"150856173@N06","secret":"73d864a84a","server":"65535","farm":66,"title":"Whiskered tern (Chlidonias hybrida)-3859","ispublic":1,"isfriend":0,"isfamily":0},{"id":"52049192048","owner":"162733442@N02","secret":"db7bd737f2","server":"65535","farm":66,"title":"\u017derjavi in Martinci","ispublic":1,"isfriend":0,"isfamily":0},{"id":"52200823909","owner":"101709991@N06","secret":"80e5e0c6e4","server":"65535","farm":66,"title":"Tukana County, White-winged Tern - Chlidonias leucopterus220430-5","ispublic":1,"isfriend":0,"isfamily":0},{"id":"52200548401","owner":"101709991@N06","secret":"0243342bb8","server":"65535","farm":66,"title":"Tukana County, White-winged Tern - Chlidonias leucopterus220430-4","ispublic":1,"isfriend":0,"isfamily":0},{"id":"52200568743","owner":"101709991@N06","secret":"2899f7b86f","server":"65535","farm":66,"title":"Tukana County, White-winged Tern - Chlidonias leucopterus220430-3","ispublic":1,"isfriend":0,"isfamily":0},{"id":"52200820514","owner":"101709991@N06","secret":"bde3020098","server":"65535","farm":66,"title":"Tukana County, White-winged Tern - Chlidonias leucopterus220430-2","ispublic":1,"isfriend":0,"isfamily":0},{"id":"52199548857","owner":"101709991@N06","secret":"95ebe96dff","server":"65535","farm":66,"title":"Tukana County, White-winged Tern - Chlidonias leucopterus220430","ispublic":1,"isfriend":0,"isfamily":0},{"id":"52019430016","owner":"14888671@N02","secret":"0ff68e0799","server":"65535","farm":66,"title":"White-winged Tern","ispublic":1,"isfriend":0,"isfamily":0},{"id":"51990649242","owner":"191389292@N04","secret":"4b9625dc3d","server":"65535","farm":66,"title":"White-winged Black Tern (Chlidonias leucopterus)","ispublic":1,"isfriend":0,"isfamily":0},{"id":"51986034968","owner":"59967518@N04","secret":"aed2f971e7","server":"65535","farm":66,"title":"0S8A2650. White-winged Tern (Chlidonias leucopterus) 1w","ispublic":1,"isfriend":0,"isfamily":0},{"id":"51986528925","owner":"59967518@N04","secret":"cfa1c49aa9","server":"65535","farm":66,"title":"0S8A2664. White-winged Tern (Chlidonias leucopterus) 1w","ispublic":1,"isfriend":0,"isfamily":0},{"id":"51986034883","owner":"59967518@N04","secret":"7ea7306249","server":"65535","farm":66,"title":"0S8A2665. White-winged Tern (Chlidonias leucopterus) 1w","ispublic":1,"isfriend":0,"isfamily":0},{"id":"51986528785","owner":"59967518@N04","secret":"6ffae5a46b","server":"65535","farm":66,"title":"0S8A2668. White-winged Tern (Chlidonias leucopterus) 1w","ispublic":1,"isfriend":0,"isfamily":0},{"id":"51984968857","owner":"59967518@N04","secret":"92e5848e09","server":"65535","farm":66,"title":"0S8A2674X. White-winged Tern (Chlidonias leucopterus) 1w","ispublic":1,"isfriend":0,"isfamily":0},{"id":"51986528700","owner":"59967518@N04","secret":"9618b8d9ee","server":"65535","farm":66,"title":"0S8A2675. White-winged Tern (Chlidonias leucopterus) 1w","ispublic":1,"isfriend":0,"isfamily":0},{"id":"51982745397","owner":"59967518@N04","secret":"16403833f3","server":"65535","farm":66,"title":"0S8A2609. White-winged Tern (Chlidonias leucopterus) 1w","ispublic":1,"isfriend":0,"isfamily":0},{"id":"51984308665","owner":"59967518@N04","secret":"a4ef9d676c","server":"65535","farm":66,"title":"0S8A2616. White-winged Tern (Chlidonias leucopterus) 1w","ispublic":1,"isfriend":0,"isfamily":0},{"id":"51983822563","owner":"59967518@N04","secret":"2d9117842a","server":"65535","farm":66,"title":"0S8A2617. White-winged Tern (Chlidonias leucopterus) 1w","ispublic":1,"isfriend":0,"isfamily":0},{"id":"51981277263","owner":"37180297@N08","secret":"a0c48a53c8","server":"65535","farm":66,"title":"_RBC1296 Chlidonias leucopterus \u767d\u7fc5\u9ed1\u71d5\u9dd7","ispublic":1,"isfriend":0,"isfamily":0},{"id":"51981206276","owner":"37180297@N08","secret":"9f20e36bb1","server":"65535","farm":66,"title":"_RBC1299 Chlidonias leucopterus \u767d\u7fc5\u9ed1\u71d5\u9dd7","ispublic":1,"isfriend":0,"isfamily":0},{"id":"51979005833","owner":"59967518@N04","secret":"c0bdf8f5b5","server":"65535","farm":66,"title":"0S8A2540X. White-winged Tern (Chlidonias leucopterus) 1w","ispublic":1,"isfriend":0,"isfamily":0},{"id":"51978934171","owner":"59967518@N04","secret":"56ed296d60","server":"65535","farm":66,"title":"0S8A2571. White-winged Tern (Chlidonias leucopterus) 1w","ispublic":1,"isfriend":0,"isfamily":0},{"id":"51978934131","owner":"59967518@N04","secret":"cfdbe30a93","server":"65535","farm":66,"title":"0S8A2572. White-winged Tern (Chlidonias leucopterus) 1w","ispublic":1,"isfriend":0,"isfamily":0},{"id":"51979000488","owner":"59967518@N04","secret":"6815555d30","server":"65535","farm":66,"title":"0S8A2600X. White-winged Tern (Chlidonias leucopterus) 1w","ispublic":1,"isfriend":0,"isfamily":0},{"id":"51977921897","owner":"59967518@N04","secret":"757a380a93","server":"65535","farm":66,"title":"0S8A2603. White-winged Tern (Chlidonias leucopterus) 1w","ispublic":1,"isfriend":0,"isfamily":0},{"id":"51978928991","owner":"59967518@N04","secret":"c6675958ea","server":"65535","farm":66,"title":"0S8A2608. White-winged Tern (Chlidonias leucopterus) 1w","ispublic":1,"isfriend":0,"isfamily":0},{"id":"51977393310","owner":"59967518@N04","secret":"fae5a10513","server":"65535","farm":66,"title":"0S8A2474. White-winged Tern (Chlidonias leucopterus) 1w","ispublic":1,"isfriend":0,"isfamily":0},{"id":"51976831271","owner":"59967518@N04","secret":"1491f50350","server":"65535","farm":66,"title":"0S8A2512. White-winged Tern (Chlidonias leucopterus) 1w","ispublic":1,"isfriend":0,"isfamily":0},{"id":"51967413533","owner":"150856173@N06","secret":"92812e313e","server":"65535","farm":66,"title":"Whiskered tern (Chlidonias hybrida)-1797","ispublic":1,"isfriend":0,"isfamily":0},{"id":"51944913905","owner":"78941013@N00","secret":"a35fb117b1","server":"65535","farm":66,"title":"White-winged tern (Chlidonias leucopterus) Witvleugelstern","ispublic":1,"isfriend":0,"isfamily":0},{"id":"51944299786","owner":"78941013@N00","secret":"086965acef","server":"65535","farm":66,"title":"White-winged tern (Chlidonias leucopterus) Witvleugelstern","ispublic":1,"isfriend":0,"isfamily":0},{"id":"51944622909","owner":"78941013@N00","secret":"1c1602bee7","server":"65535","farm":66,"title":"White-winged tern (Chlidonias leucopterus) Witvleugelstern","ispublic":1,"isfriend":0,"isfamily":0},{"id":"51942077154","owner":"78941013@N00","secret":"c4ac226284","server":"65535","farm":66,"title":"White-winged tern (Chlidonias leucopterus) Witvleugelstern","ispublic":1,"isfriend":0,"isfamily":0},{"id":"51941754786","owner":"78941013@N00","secret":"8e0060a650","server":"65535","farm":66,"title":"White-winged tern (Chlidonias leucopterus) Witvleugelstern","ispublic":1,"isfriend":0,"isfamily":0},{"id":"51940415471","owner":"78941013@N00","secret":"40f36faa1b","server":"65535","farm":66,"title":"White-winged tern (Chlidonias leucopterus) Witvleugelstern","ispublic":1,"isfriend":0,"isfamily":0},{"id":"51940494973","owner":"78941013@N00","secret":"d5a72b951a","server":"65535","farm":66,"title":"White-winged tern (Chlidonias leucopterus) Witvleugelstern","ispublic":1,"isfriend":0,"isfamily":0},{"id":"51933548254","owner":"37180297@N08","secret":"f957d764f7","server":"65535","farm":66,"title":"_RBB9776 Chlidonias leucopterus \u767d\u7fc5\u9ed1\u71d5\u9dd7","ispublic":1,"isfriend":0,"isfamily":0},{"id":"51933221111","owner":"37180297@N08","secret":"006f6f113b","server":"65535","farm":66,"title":"_RBB9777 Chlidonias leucopterus \u767d\u7fc5\u9ed1\u71d5\u9dd7","ispublic":1,"isfriend":0,"isfamily":0},{"id":"51932238987","owner":"37180297@N08","secret":"e4663352ed","server":"65535","farm":66,"title":"_RBB9778 Chlidonias leucopterus \u767d\u7fc5\u9ed1\u71d5\u9dd7","ispublic":1,"isfriend":0,"isfamily":0},{"id":"51903133234","owner":"32805478@N03","secret":"595c0cef3b","server":"65535","farm":66,"title":"Fumarel aliblanco, Chlidonias leucopterus, White-winged Black Tern","ispublic":1,"isfriend":0,"isfamily":0},{"id":"52232982538","owner":"140734051@N08","secret":"b7111ff1a5","server":"65535","farm":66,"title":"\u0411\u0435\u043b\u043e\u043a\u0440\u044b\u043b\u0430\u044f \u043a\u0440\u0430\u0447\u043a\u0430, Chlidonias leucopterus, White-winged Tern","ispublic":1,"isfriend":0,"isfamily":0},{"id":"52172152585","owner":"183840266@N08","secret":"e7f6afa623","server":"65535","farm":66,"title":"White-winged Tern (Chlidonias leucopterus leucopterus)","ispublic":1,"isfriend":0,"isfamily":0},{"id":"52129260394","owner":"195801783@N04","secret":"76dc040e68","server":"65535","farm":66,"title":"Fumarel aliblanco, white-winged black tern (Chlidonias leucopterus).","ispublic":1,"isfriend":0,"isfamily":0},{"id":"51981276693","owner":"37180297@N08","secret":"9eb7b502bf","server":"65535","farm":66,"title":"_RBC1297 Chlidonias leucopterus \u767d\u7fc5\u9ed1\u71d5\u9dd7","ispublic":1,"isfriend":0,"isfamily":0},{"id":"51980201462","owner":"37180297@N08","secret":"69ebd3b892","server":"65535","farm":66,"title":"_RBC1298 Chlidonias leucopterus \u767d\u7fc5\u9ed1\u71d5\u9dd7","ispublic":1,"isfriend":0,"isfamily":0},{"id":"51933542734","owner":"37180297@N08","secret":"ab7e506d0d","server":"65535","farm":66,"title":"_RBB9791 Chlidonias leucopterus \u767d\u7fc5\u9ed1\u71d5\u9dd7","ispublic":1,"isfriend":0,"isfamily":0},{"id":"51913641862","owner":"193443384@N07","secret":"0e99dd1c89","server":"65535","farm":66,"title":"White-winged Black Tern (Chlidonias leucopterus)","ispublic":1,"isfriend":0,"isfamily":0},{"id":"51914703733","owner":"193443384@N07","secret":"4d151e2d73","server":"65535","farm":66,"title":"White-winged Black Tern (Chlidonias leucopterus)","ispublic":1,"isfriend":0,"isfamily":0},{"id":"51914703723","owner":"193443384@N07","secret":"8c5c43d116","server":"65535","farm":66,"title":"White-winged Black Tern (Chlidonias leucopterus)","ispublic":1,"isfriend":0,"isfamily":0},{"id":"51901842537","owner":"32805478@N03","secret":"3535c48f54","server":"65535","farm":66,"title":"Fumarel aliblanco, Chlidonias leucopterus, White-winged Black Tern","ispublic":1,"isfriend":0,"isfamily":0}]},"stat":"ok"}