{"photos":{"page":1,"pages":2,"perpage":100,"total":198,"photo":[{"id":"52763980823","owner":"187560275@N08","secret":"0c970459dd","server":"65535","farm":66,"title":"Gobemouche de Fischer -Melaenornis fischeri - White-eyed Slaty Flycatcher","ispublic":1,"isfriend":0,"isfamily":0},{"id":"52738490286","owner":"12639178@N07","secret":"fcb662ef15","server":"65535","farm":66,"title":"Bergdrongoschn\u00e4pper","ispublic":1,"isfriend":0,"isfamily":0},{"id":"52738490056","owner":"12639178@N07","secret":"acdaa47ec6","server":"65535","farm":66,"title":"Bergdrongoschn\u00e4pper","ispublic":1,"isfriend":0,"isfamily":0},{"id":"52735832497","owner":"12639178@N07","secret":"6e18bcbd28","server":"65535","farm":66,"title":"Bergdrongoschn\u00e4pper","ispublic":1,"isfriend":0,"isfamily":0},{"id":"52736607684","owner":"12639178@N07","secret":"37d3a79c6a","server":"65535","farm":66,"title":"Bergdrongoschn\u00e4pper","ispublic":1,"isfriend":0,"isfamily":0},{"id":"52736768350","owner":"12639178@N07","secret":"30e85d1bab","server":"65535","farm":66,"title":"Bergdrongoschn\u00e4pper","ispublic":1,"isfriend":0,"isfamily":0},{"id":"52736354071","owner":"12639178@N07","secret":"4c2dacba08","server":"65535","farm":66,"title":"Bergdrongoschn\u00e4pper","ispublic":1,"isfriend":0,"isfamily":0},{"id":"52500899733","owner":"54249623@N08","secret":"5cd3914984","server":"65535","farm":66,"title":"White-eyed Slaty-Flycatcher (Melaenornis fischeri)","ispublic":1,"isfriend":0,"isfamily":0},{"id":"52381433337","owner":"13861029@N00","secret":"c979d87081","server":"65535","farm":66,"title":"White-eyed Slaty Flycatcher","ispublic":1,"isfriend":0,"isfamily":0},{"id":"52341503292","owner":"104988466@N08","secret":"480cc390ed","server":"65535","farm":66,"title":"03. Gobemouche de Fischer - Melaenornis fischeri - White-eyed Slaty Flycatcher","ispublic":1,"isfriend":0,"isfamily":0},{"id":"52342704338","owner":"104988466@N08","secret":"6a63b47ddc","server":"65535","farm":66,"title":"04. Gobemouche de Fischer - Melaenornis fischeri - White-eyed Slaty Flycatcher","ispublic":1,"isfriend":0,"isfamily":0},{"id":"52342892425","owner":"104988466@N08","secret":"14868c5224","server":"65535","farm":66,"title":"05. Gobemouche de Fischer - Melaenornis fischeri - White-eyed Slaty Flycatcher","ispublic":1,"isfriend":0,"isfamily":0},{"id":"52342892335","owner":"104988466@N08","secret":"eae5bee44a","server":"65535","farm":66,"title":"06. Gobemouche de Fischer - Melaenornis fischeri - White-eyed Slaty Flycatcher","ispublic":1,"isfriend":0,"isfamily":0},{"id":"51739625785","owner":"73091266@N00","secret":"71c59f55fe","server":"65535","farm":66,"title":"White-Eyed Slaty-Flycatcher (Immature)","ispublic":1,"isfriend":0,"isfamily":0},{"id":"51713567389","owner":"73091266@N00","secret":"cb481afdc6","server":"65535","farm":66,"title":"White-Eyed Slaty-Flycatcher","ispublic":1,"isfriend":0,"isfamily":0},{"id":"51713563084","owner":"73091266@N00","secret":"588f781e8e","server":"65535","farm":66,"title":"White-Eyed Slaty-Flycatcher","ispublic":1,"isfriend":0,"isfamily":0},{"id":"51439845391","owner":"10795927@N03","secret":"d916984f4f","server":"65535","farm":66,"title":"White-eyed slaty flycatcher - Melaenornis fischeri - Bergdrongovliegenvanger","ispublic":1,"isfriend":0,"isfamily":0},{"id":"51391637237","owner":"12941907@N03","secret":"9e767f8a1a","server":"65535","farm":66,"title":"White-eyed Slaty-Flycatcher","ispublic":1,"isfriend":0,"isfamily":0},{"id":"51203618670","owner":"73091266@N00","secret":"84b2be9c94","server":"65535","farm":66,"title":"White-Eyed Slaty-Flycatcher","ispublic":1,"isfriend":0,"isfamily":0},{"id":"51023396412","owner":"128578170@N06","secret":"d24c9c5d30","server":"65535","farm":66,"title":"White-eyed Slaty Flycatcher Melaenornis f. fischeri","ispublic":1,"isfriend":0,"isfamily":0},{"id":"50996161186","owner":"73091266@N00","secret":"8d4963e641","server":"65535","farm":66,"title":"White-Eyed Slaty-Flycatcher","ispublic":1,"isfriend":0,"isfamily":0},{"id":"50995466908","owner":"73091266@N00","secret":"e579055754","server":"65535","farm":66,"title":"White-Eyed Slaty-Flycatcher","ispublic":1,"isfriend":0,"isfamily":0},{"id":"50993169177","owner":"73091266@N00","secret":"6d5e170336","server":"65535","farm":66,"title":"White-Eyed Slaty-Flycatcher","ispublic":1,"isfriend":0,"isfamily":0},{"id":"50959349112","owner":"100123196@N05","secret":"2b6287b44d","server":"65535","farm":66,"title":"White Eyed Slaty Fly Catcher","ispublic":1,"isfriend":0,"isfamily":0},{"id":"50952801362","owner":"129593667@N03","secret":"2b3e13b151","server":"65535","farm":66,"title":"White-eyed Flycatcher","ispublic":1,"isfriend":0,"isfamily":0},{"id":"50943091888","owner":"129593667@N03","secret":"aec000cf7b","server":"65535","farm":66,"title":"White-eyed Flycatcher","ispublic":1,"isfriend":0,"isfamily":0},{"id":"50927970107","owner":"59946862@N07","secret":"7358e202ce","server":"65535","farm":66,"title":"White-eyed Slaty-Flycatcher - Melaenornis fischeri","ispublic":1,"isfriend":0,"isfamily":0},{"id":"50643224633","owner":"129593667@N03","secret":"35fd858999","server":"65535","farm":66,"title":"White-eyed Flycatcher","ispublic":1,"isfriend":0,"isfamily":0},{"id":"50623818123","owner":"73091266@N00","secret":"591b9fdb23","server":"65535","farm":66,"title":"White-eyed Slaty-Flycatcher (Immature)","ispublic":1,"isfriend":0,"isfamily":0},{"id":"50624559991","owner":"73091266@N00","secret":"af58f9e3cc","server":"65535","farm":66,"title":"White-eyed Slaty-Flycatcher","ispublic":1,"isfriend":0,"isfamily":0},{"id":"50502164606","owner":"63019250@N03","secret":"a1f0bce87c","server":"65535","farm":66,"title":"White-eyed slaty flycatcher (Melaenornis fischeri) , Lake Naivasha, Kenya","ispublic":1,"isfriend":0,"isfamily":0},{"id":"50124765147","owner":"187469698@N05","secret":"99b2875bc8","server":"65535","farm":66,"title":"1039 White-eyed Slaty Flycatcher - Andrew Walker 001","ispublic":1,"isfriend":0,"isfamily":0},{"id":"49716799938","owner":"79666906@N05","secret":"fdaebcbce0","server":"65535","farm":66,"title":"White-eyed Slaty-Flycatcher","ispublic":1,"isfriend":0,"isfamily":0},{"id":"49430712126","owner":"67951746@N02","secret":"169ea20b05","server":"65535","farm":66,"title":"Melaenornis fischeri -White eye slaty flycatcher","ispublic":1,"isfriend":0,"isfamily":0},{"id":"48765641456","owner":"125845699@N07","secret":"11016bfedd","server":"65535","farm":66,"title":"\"Great Apes\" - Amazing Gorillas and Birds in Bwindi Impenetrable Forest, Uganda 2019","ispublic":1,"isfriend":0,"isfamily":0},{"id":"48765612916","owner":"98218491@N03","secret":"489dddab95","server":"65535","farm":66,"title":"\"Great Apes\" - Amazing Gorillas and Birds in Bwindi Impenetrable Forest, Uganda 2019","ispublic":1,"isfriend":0,"isfamily":0},{"id":"48618893246","owner":"159989074@N07","secret":"301c6e41b7","server":"65535","farm":66,"title":"Melaenornis fischeri\/White-eyed Slaty Flycatcher\/Gobemouche de Fischer","ispublic":1,"isfriend":0,"isfamily":0},{"id":"48618893126","owner":"159989074@N07","secret":"12c93c9a2b","server":"65535","farm":66,"title":"Melaenornis fischeri\/White-eyed Slaty Flycatcher\/Gobemouche de Fischer","ispublic":1,"isfriend":0,"isfamily":0},{"id":"49472882676","owner":"101709991@N06","secret":"10a77daca3","server":"65535","farm":66,"title":"Broadbill Camp, Bwindi NP, Ruhija, Uganda, White-eyed Slaty Flycatcher - Melaenornis fischeri","ispublic":1,"isfriend":0,"isfamily":0},{"id":"47957494581","owner":"44096805@N07","secret":"489b81421d","server":"65535","farm":66,"title":"White-eyed Slaty-Flycatcher (Melaenornis fischeri), adult","ispublic":1,"isfriend":0,"isfamily":0},{"id":"46899792955","owner":"61443311@N06","secret":"978c10eddd","server":"65535","farm":66,"title":"White-eyed slaty flycatcher (Kenya)","ispublic":1,"isfriend":0,"isfamily":0},{"id":"31692246567","owner":"50264295@N06","secret":"077951634a","server":"4876","farm":5,"title":"White-eyed Slaty-flycatcher (Melaenornis f. fischeri)","ispublic":1,"isfriend":0,"isfamily":0},{"id":"46549607942","owner":"50264295@N06","secret":"7084d1d819","server":"4888","farm":5,"title":"White-eyed Slaty-flycatcher (Melaenornis f. fischeri)","ispublic":1,"isfriend":0,"isfamily":0},{"id":"45649324245","owner":"9765210@N03","secret":"00893b617a","server":"4912","farm":5,"title":"White-eyed Slaty Flycatcher (Melaenornis fischeri)","ispublic":1,"isfriend":0,"isfamily":0},{"id":"41870231190","owner":"29170368@N03","secret":"35ac12b5cd","server":"65535","farm":66,"title":"White-eyed Slaty-Flycatcher","ispublic":1,"isfriend":0,"isfamily":0},{"id":"43410204172","owner":"40003624@N06","secret":"83652dc797","server":"840","farm":1,"title":"White-eyed Slaty Flycatcher","ispublic":1,"isfriend":0,"isfamily":0},{"id":"27340840057","owner":"87227356@N06","secret":"2c878d1aea","server":"967","farm":1,"title":"white-eyed slaty flycatcher","ispublic":1,"isfriend":0,"isfamily":0},{"id":"41218514294","owner":"32674493@N04","secret":"c0ee289d71","server":"65535","farm":66,"title":"Papa-moscas-de-olho-branco (Melaenornis fischeri fischeri)","ispublic":1,"isfriend":0,"isfamily":0},{"id":"41588911251","owner":"62501256@N05","secret":"282c7bd2fb","server":"849","farm":1,"title":"White-eyed Slaty Flycatcher (Melaenornis fischeri toruensis)","ispublic":1,"isfriend":0,"isfamily":0},{"id":"40997217482","owner":"47388660@N02","secret":"c217200555","server":"898","farm":1,"title":"White-eyed Slaty Flycatcher","ispublic":1,"isfriend":0,"isfamily":0},{"id":"41000969741","owner":"140734051@N08","secret":"aba0f8192d","server":"811","farm":1,"title":"\u041c\u0443\u0445\u043e\u043b\u043e\u0432\u043a\u0430-\u0431\u0435\u043b\u043e\u0433\u043b\u0430\u0437\u043a\u0430, Melaenornis fischeri fischeri, White-eyed Slaty Flycatcher","ispublic":1,"isfriend":0,"isfamily":0},{"id":"27130139208","owner":"140734051@N08","secret":"b3914675c8","server":"4773","farm":5,"title":"\u041c\u0443\u0445\u043e\u043b\u043e\u0432\u043a\u0430-\u0431\u0435\u043b\u043e\u0433\u043b\u0430\u0437\u043a\u0430, Melaenornis fischeri fischeri, White-eyed Slaty Flycatcher","ispublic":1,"isfriend":0,"isfamily":0},{"id":"40108001725","owner":"140734051@N08","secret":"a4f8882ac8","server":"788","farm":1,"title":"\u041c\u0443\u0445\u043e\u043b\u043e\u0432\u043a\u0430-\u0431\u0435\u043b\u043e\u0433\u043b\u0430\u0437\u043a\u0430, Melaenornis fischeri fischeri, White-eyed Slaty Flycatcher","ispublic":1,"isfriend":0,"isfamily":0},{"id":"40959200402","owner":"140734051@N08","secret":"a913a9d320","server":"784","farm":1,"title":"\u041c\u0443\u0445\u043e\u043b\u043e\u0432\u043a\u0430-\u0431\u0435\u043b\u043e\u0433\u043b\u0430\u0437\u043a\u0430, Melaenornis fischeri fischeri, White-eyed Slaty Flycatcher","ispublic":1,"isfriend":0,"isfamily":0},{"id":"36708348343","owner":"56686021@N04","secret":"5e6de8c581","server":"4476","farm":5,"title":"White-eyed Slaty Flycatcher","ispublic":1,"isfriend":0,"isfamily":0},{"id":"33982771815","owner":"128578170@N06","secret":"b2af98359d","server":"2848","farm":3,"title":"White-eyed Slaty Flycatcher Melaenornis fischeri nyikensis","ispublic":1,"isfriend":0,"isfamily":0},{"id":"33120865320","owner":"14191740@N08","secret":"c373b80780","server":"2915","farm":3,"title":"White-eyed Slaty Flycatcher, Ngorongoro, Tanzania","ispublic":1,"isfriend":0,"isfamily":0},{"id":"32795797820","owner":"68961563@N02","secret":"6c136da276","server":"580","farm":1,"title":"White-eyed Slaty Flycatcher","ispublic":1,"isfriend":0,"isfamily":0},{"id":"32242452286","owner":"98060993@N06","secret":"a64831d050","server":"410","farm":1,"title":"(Species# 959a) WHITE-EYED SLATY FLYCATCHER - [ Aberdare National Park, Kenya ]","ispublic":1,"isfriend":0,"isfamily":0},{"id":"52735363702","owner":"12639178@N07","secret":"bc656e2e3f","server":"65535","farm":66,"title":"Bergdrongoschn\u00e4pper","ispublic":1,"isfriend":0,"isfamily":0},{"id":"52735884691","owner":"12639178@N07","secret":"d0b67cb079","server":"65535","farm":66,"title":"Bergdrongoschn\u00e4pper","ispublic":1,"isfriend":0,"isfamily":0},{"id":"52688958726","owner":"103806413@N07","secret":"f67801f344","server":"65535","farm":66,"title":"20221027_1975_Bwindi_Gobemouche de Fischer","ispublic":1,"isfriend":0,"isfamily":0},{"id":"52351006473","owner":"12639178@N07","secret":"76c2120d43","server":"65535","farm":66,"title":"Bergdrongoschn\u00e4pper, (Melaenornis fischeri)","ispublic":1,"isfriend":0,"isfamily":0},{"id":"52324948733","owner":"12639178@N07","secret":"397e558aed","server":"65535","farm":66,"title":"Bergdrongoschn\u00e4pper, (Melaenornis fischeri)","ispublic":1,"isfriend":0,"isfamily":0},{"id":"52240143514","owner":"154130070@N04","secret":"43db3f998d","server":"65535","farm":66,"title":"White-eyed Slaty Flycatcher, Melaenornis fischeri","ispublic":1,"isfriend":0,"isfamily":0},{"id":"51885842143","owner":"12639178@N07","secret":"f09b9e3577","server":"65535","farm":66,"title":"32568_Flycatcher Dioptrornis fischeri juv","ispublic":1,"isfriend":0,"isfamily":0},{"id":"51885813978","owner":"12639178@N07","secret":"f0b7e43689","server":"65535","farm":66,"title":"32543_Flycatcher Dioptrornis fischeri","ispublic":1,"isfriend":0,"isfamily":0},{"id":"51886380875","owner":"12639178@N07","secret":"7989c838e6","server":"65535","farm":66,"title":"32532_Flycatcher Dioptrornis fischeri","ispublic":1,"isfriend":0,"isfamily":0},{"id":"51886044354","owner":"12639178@N07","secret":"396f132f18","server":"65535","farm":66,"title":"32531_Flycatcher Dioptrornis fischeri","ispublic":1,"isfriend":0,"isfamily":0},{"id":"51886040364","owner":"12639178@N07","secret":"d7e6d6cc3e","server":"65535","farm":66,"title":"32525_Flycatcher Dioptronis fischeri","ispublic":1,"isfriend":0,"isfamily":0},{"id":"51440820320","owner":"10795927@N03","secret":"b91db4ceb2","server":"65535","farm":66,"title":"White-eyed slaty flycatcher - Melaenornis fischeri - Bergdrongovliegenvanger","ispublic":1,"isfriend":0,"isfamily":0},{"id":"51439102077","owner":"10795927@N03","secret":"ffbc69d0fd","server":"65535","farm":66,"title":"White-eyed slaty flycatcher - Melaenornis fischeri - Bergdrongovliegenvanger","ispublic":1,"isfriend":0,"isfamily":0},{"id":"51333938211","owner":"12639178@N07","secret":"11be1c595c","server":"65535","farm":66,"title":"Melaenornis fischeri (2)","ispublic":1,"isfriend":0,"isfamily":0},{"id":"51334660314","owner":"12639178@N07","secret":"95838cc51b","server":"65535","farm":66,"title":"Melaenornis fischeri (1)","ispublic":1,"isfriend":0,"isfamily":0},{"id":"50874747618","owner":"191534235@N04","secret":"d806c1d197","server":"65535","farm":66,"title":"Naivasha - Gobemouche de Fischer - Melaenornis fischeri","ispublic":1,"isfriend":0,"isfamily":0},{"id":"49898305728","owner":"128578170@N06","secret":"8a779c615b","server":"65535","farm":66,"title":"White-eyed Slaty Flycatcher Melaenornis f. fischeri","ispublic":1,"isfriend":0,"isfamily":0},{"id":"49717523127","owner":"48084395@N03","secret":"c86d3c235f","server":"65535","farm":66,"title":"White-eyed Slaty Flycatcher - Melaenornis fischeri MK2_7602_resize","ispublic":1,"isfriend":0,"isfamily":0},{"id":"49694601688","owner":"8773601@N03","secret":"b24c8b4508","server":"65535","farm":66,"title":"P2230110 White-eyed Slaty-flycatcher (Melaenornis fischeri)","ispublic":1,"isfriend":0,"isfamily":0},{"id":"49695091856","owner":"8773601@N03","secret":"e3edbe0fcd","server":"65535","farm":66,"title":"P2210055  White-eyed Slaty-flycatcher (Melaenornis fischeri)","ispublic":1,"isfriend":0,"isfamily":0},{"id":"49673720121","owner":"8773601@N03","secret":"ae206683e2","server":"65535","farm":66,"title":"P2200242 White-eyed Slaty-flycatcher (Melaenornis fischeri)","ispublic":1,"isfriend":0,"isfamily":0},{"id":"49673711036","owner":"8773601@N03","secret":"5d269b63e2","server":"65535","farm":66,"title":"P2180441 white-eyed slaty flycatcher (Melaenornis fischeri)","ispublic":1,"isfriend":0,"isfamily":0},{"id":"49621999391","owner":"186915896@N05","secret":"ce66d8700a","server":"65535","farm":66,"title":"Bergdrongovliegenvanger (White-eyed Slaty Flycatcher, Melaenornis fischeri)","ispublic":1,"isfriend":0,"isfamily":0},{"id":"49622270147","owner":"186915896@N05","secret":"2d452ab90c","server":"65535","farm":66,"title":"Bergdrongovliegenvanger (White-eyed Slaty Flycatcher, Melaenornis fischeri)","ispublic":1,"isfriend":0,"isfamily":0},{"id":"49311202791","owner":"96568982@N06","secret":"fbd0fda471","server":"65535","farm":66,"title":"SLATY-FLYCATCHER, White-eyed","ispublic":1,"isfriend":0,"isfamily":0},{"id":"49164988523","owner":"12639178@N07","secret":"bbe7193e5a","server":"65535","farm":66,"title":"26121_Dioptornis fischeri toruensis juv","ispublic":1,"isfriend":0,"isfamily":0},{"id":"49165701682","owner":"12639178@N07","secret":"3fea89b1d9","server":"65535","farm":66,"title":"26119_Dioptornis fischeri toruensis","ispublic":1,"isfriend":0,"isfamily":0},{"id":"49164985903","owner":"12639178@N07","secret":"7639a7514a","server":"65535","farm":66,"title":"26110_Dioptornis fischeri toruensis","ispublic":1,"isfriend":0,"isfamily":0},{"id":"49165464981","owner":"12639178@N07","secret":"c8e22dc288","server":"65535","farm":66,"title":"26105_Dioptornis fischeri toruensis","ispublic":1,"isfriend":0,"isfamily":0},{"id":"48806705248","owner":"12639178@N07","secret":"82dbcd00eb","server":"65535","farm":66,"title":"White-eyed Slaty-Flycatcher","ispublic":1,"isfriend":0,"isfamily":0},{"id":"48806692938","owner":"12639178@N07","secret":"d5797bec8f","server":"65535","farm":66,"title":"White-eyed Slaty Flycatcher","ispublic":1,"isfriend":0,"isfamily":0},{"id":"29469884827","owner":"128578170@N06","secret":"6df0ba918f","server":"1863","farm":2,"title":"White-eyed Slaty Flycatcher Melaenornis fischeri toruensis","ispublic":1,"isfriend":0,"isfamily":0},{"id":"42217860060","owner":"83287919@N00","secret":"52e879b0c6","server":"1818","farm":2,"title":"Melaenornis fischeri Bwindi 260718 AV-35rc","ispublic":1,"isfriend":0,"isfamily":0},{"id":"43474715541","owner":"12639178@N07","secret":"06a99c05bf","server":"1767","farm":2,"title":"22725_Melaenornis fischeri nykensis","ispublic":1,"isfriend":0,"isfamily":0},{"id":"42758029594","owner":"12639178@N07","secret":"00faeac975","server":"1830","farm":2,"title":"22726_Melaenornis fischeri nykensis","ispublic":1,"isfriend":0,"isfamily":0},{"id":"27121648617","owner":"128578170@N06","secret":"eff711b0a3","server":"971","farm":1,"title":"White-eyed Slaty Flycatcher Melaenornis f. fischeri","ispublic":1,"isfriend":0,"isfamily":0},{"id":"27130140458","owner":"140734051@N08","secret":"54eb1e622a","server":"4776","farm":5,"title":"\u041c\u0443\u0445\u043e\u043b\u043e\u0432\u043a\u0430-\u0431\u0435\u043b\u043e\u0433\u043b\u0430\u0437\u043a\u0430, Melaenornis fischeri fischeri, White-eyed Slaty Flycatcher","ispublic":1,"isfriend":0,"isfamily":0},{"id":"40108002355","owner":"140734051@N08","secret":"3d5d0fde87","server":"822","farm":1,"title":"\u041c\u0443\u0445\u043e\u043b\u043e\u0432\u043a\u0430-\u0431\u0435\u043b\u043e\u0433\u043b\u0430\u0437\u043a\u0430, Melaenornis fischeri fischeri, White-eyed Slaty Flycatcher","ispublic":1,"isfriend":0,"isfamily":0},{"id":"27130138838","owner":"140734051@N08","secret":"1c6eab1bd1","server":"4781","farm":5,"title":"\u041c\u0443\u0445\u043e\u043b\u043e\u0432\u043a\u0430-\u0431\u0435\u043b\u043e\u0433\u043b\u0430\u0437\u043a\u0430, Melaenornis fischeri fischeri, White-eyed Slaty Flycatcher","ispublic":1,"isfriend":0,"isfamily":0},{"id":"36072785814","owner":"33608381@N00","secret":"37b4da31ae","server":"4442","farm":5,"title":"white eyed slaty flycatcher (Melaenornis fischeri)","ispublic":1,"isfriend":0,"isfamily":0},{"id":"32081984020","owner":"144482112@N04","secret":"519346b09c","server":"549","farm":1,"title":"White-Eyed Slaty Flycatcher (Melaenornis fischeri)","ispublic":1,"isfriend":0,"isfamily":0}]},"stat":"ok"}