{"photos":{"page":1,"pages":64,"perpage":100,"total":6326,"photo":[{"id":"52719796664","owner":"51433704@N06","secret":"04be9d597a","server":"65535","farm":66,"title":"Willet","ispublic":1,"isfriend":0,"isfamily":0},{"id":"52718001982","owner":"86191812@N07","secret":"c1d4380e1a","server":"65535","farm":66,"title":"Willet (Tringa semipalmata)","ispublic":1,"isfriend":0,"isfamily":0},{"id":"52716235236","owner":"7640100@N02","secret":"f2f2223fe6","server":"65535","farm":66,"title":"Chevalier semipalm\u00e9 \/ Willet [Tringa semipalmata]","ispublic":1,"isfriend":0,"isfamily":0},{"id":"52716375619","owner":"26520320@N03","secret":"665a92ceec","server":"65535","farm":66,"title":"_BAP0273","ispublic":1,"isfriend":0,"isfamily":0},{"id":"52714095241","owner":"62043870@N05","secret":"5f4b6bf7bc","server":"65535","farm":66,"title":"Willet, Tringa semipalmata","ispublic":1,"isfriend":0,"isfamily":0},{"id":"52706196707","owner":"51433704@N06","secret":"055184c91c","server":"65535","farm":66,"title":"Willet","ispublic":1,"isfriend":0,"isfamily":0},{"id":"52706486271","owner":"195537536@N03","secret":"6cc78b7fbe","server":"65535","farm":66,"title":"Willet (Tringa semipalmata)","ispublic":1,"isfriend":0,"isfamily":0},{"id":"52705878711","owner":"107784905@N04","secret":"d3e82d72c7","server":"65535","farm":66,"title":"Chevalier semipalm\u00e9 - Tortuguero\/Lim\u00f3n\/Costa Rica_20211124_015-1","ispublic":1,"isfriend":0,"isfamily":0},{"id":"52704452318","owner":"54059915@N07","secret":"bdb06d2101","server":"65535","farm":66,"title":"Willet will when nobody will","ispublic":1,"isfriend":0,"isfamily":0},{"id":"52702711443","owner":"76782619@N04","secret":"d83c96e6b7","server":"65535","farm":66,"title":"Flying Willet","ispublic":1,"isfriend":0,"isfamily":0},{"id":"52701122132","owner":"65632611@N00","secret":"0949696ff6","server":"65535","farm":66,"title":"Southampton, N.Y.: Willet shaking it out (2324)","ispublic":1,"isfriend":0,"isfamily":0},{"id":"52702061675","owner":"65632611@N00","secret":"a68d7b7127","server":"65535","farm":66,"title":"Southampton, N.Y.: Willet in flight (2336)","ispublic":1,"isfriend":0,"isfamily":0},{"id":"52699665370","owner":"62043870@N05","secret":"05d7fb7df8","server":"65535","farm":66,"title":"Willet, Tringa semipalmata","ispublic":1,"isfriend":0,"isfamily":0},{"id":"52696975671","owner":"60361833@N03","secret":"a5d94e5a44","server":"65535","farm":66,"title":"Willet_1","ispublic":1,"isfriend":0,"isfamily":0},{"id":"52697273235","owner":"124995824@N08","secret":"b8b68215ae","server":"65535","farm":66,"title":"Willet - Tringa semipalmata","ispublic":1,"isfriend":0,"isfamily":0},{"id":"52695573986","owner":"62043870@N05","secret":"d60bd75090","server":"65535","farm":66,"title":"Willet, Tringa semipalmata","ispublic":1,"isfriend":0,"isfamily":0},{"id":"52686275745","owner":"62043870@N05","secret":"4df2d3ddeb","server":"65535","farm":66,"title":"Willet, Tringa semipalmata","ispublic":1,"isfriend":0,"isfamily":0},{"id":"52682727048","owner":"187996196@N05","secret":"9487f29860","server":"65535","farm":66,"title":"Schlammtreter \/ Willet \/ Tringa semipalmata","ispublic":1,"isfriend":0,"isfamily":0},{"id":"52678861808","owner":"124995824@N08","secret":"e75c513935","server":"65535","farm":66,"title":"Willet - Tringa semipalmata","ispublic":1,"isfriend":0,"isfamily":0},{"id":"52670177021","owner":"14734088@N02","secret":"8d1497a8a3","server":"65535","farm":66,"title":"Chevalier semipalm\u00e9 191029H9a","ispublic":1,"isfriend":0,"isfamily":0},{"id":"52669635021","owner":"62043870@N05","secret":"ec67473fd1","server":"65535","farm":66,"title":"Willets, Tringa semipalmata","ispublic":1,"isfriend":0,"isfamily":0},{"id":"52667008054","owner":"88932760@N08","secret":"38aed90e12","server":"65535","farm":66,"title":"Deploy Landing Gear! #2","ispublic":1,"isfriend":0,"isfamily":0},{"id":"52666398149","owner":"62043870@N05","secret":"6f835d3285","server":"65535","farm":66,"title":"Willets, Tringa semipalmata","ispublic":1,"isfriend":0,"isfamily":0},{"id":"52666133925","owner":"8086030@N03","secret":"9c8fbd927f","server":"65535","farm":66,"title":"Willet, Tringa semipalmata","ispublic":1,"isfriend":0,"isfamily":0},{"id":"52663272681","owner":"196127020@N02","secret":"2405c51564","server":"65535","farm":66,"title":"Willet","ispublic":1,"isfriend":0,"isfamily":0},{"id":"52661725701","owner":"8086030@N03","secret":"6951a81b5c","server":"65535","farm":66,"title":"Willet, Tringa semipalmata","ispublic":1,"isfriend":0,"isfamily":0},{"id":"52656406581","owner":"130021529@N02","secret":"bc64bc0264","server":"65535","farm":66,"title":"Tringa semipalmata | Willet | willet","ispublic":1,"isfriend":0,"isfamily":0},{"id":"52656406591","owner":"130021529@N02","secret":"8c4bf0d00b","server":"65535","farm":66,"title":"Tringa semipalmata | Willet | willet","ispublic":1,"isfriend":0,"isfamily":0},{"id":"52655922602","owner":"130021529@N02","secret":"e8e2662dcd","server":"65535","farm":66,"title":"Tringa semipalmata | Willet | willet","ispublic":1,"isfriend":0,"isfamily":0},{"id":"52656898728","owner":"130021529@N02","secret":"d90201060a","server":"65535","farm":66,"title":"Tringa semipalmata | Willet | willet","ispublic":1,"isfriend":0,"isfamily":0},{"id":"52653036273","owner":"88932760@N08","secret":"c0d95a478a","server":"65535","farm":66,"title":"Swooping Willet","ispublic":1,"isfriend":0,"isfamily":0},{"id":"52648065248","owner":"62043870@N05","secret":"efaee35549","server":"65535","farm":66,"title":"Willet, Tringa semipalmata","ispublic":1,"isfriend":0,"isfamily":0},{"id":"52642415434","owner":"40941741@N03","secret":"ecdb1f00ba","server":"65535","farm":66,"title":"Willet and Sea Foam","ispublic":1,"isfriend":0,"isfamily":0},{"id":"52642415094","owner":"40941741@N03","secret":"5685daf01b","server":"65535","farm":66,"title":"Food Hunter","ispublic":1,"isfriend":0,"isfamily":0},{"id":"52638387032","owner":"67164820@N06","secret":"b16244d067","server":"65535","farm":66,"title":"willet 3","ispublic":1,"isfriend":0,"isfamily":0},{"id":"52639337440","owner":"67164820@N06","secret":"0f10a089c7","server":"65535","farm":66,"title":"willet 4","ispublic":1,"isfriend":0,"isfamily":0},{"id":"52639379278","owner":"67164820@N06","secret":"6033ac4f75","server":"65535","farm":66,"title":"willet 5","ispublic":1,"isfriend":0,"isfamily":0},{"id":"52639378763","owner":"67164820@N06","secret":"30ffe7e4e0","server":"65535","farm":66,"title":"willet","ispublic":1,"isfriend":0,"isfamily":0},{"id":"52638385157","owner":"67164820@N06","secret":"676f4d616e","server":"65535","farm":66,"title":"willets 2","ispublic":1,"isfriend":0,"isfamily":0},{"id":"52638384487","owner":"67164820@N06","secret":"013a3d6a74","server":"65535","farm":66,"title":"willets 3","ispublic":1,"isfriend":0,"isfamily":0},{"id":"52638381137","owner":"67164820@N06","secret":"b944e2f653","server":"65535","farm":66,"title":"willets 4","ispublic":1,"isfriend":0,"isfamily":0},{"id":"52638043189","owner":"47533293@N04","secret":"2989a56da6","server":"65535","farm":66,"title":"Willet, Tringa semipalmata","ispublic":1,"isfriend":0,"isfamily":0},{"id":"52638043149","owner":"47533293@N04","secret":"1fc9afea51","server":"65535","farm":66,"title":"Willet, Tringa semipalmata","ispublic":1,"isfriend":0,"isfamily":0},{"id":"52630780802","owner":"47533293@N04","secret":"604c619ba7","server":"65535","farm":66,"title":"Willet, Tringa semipalmata","ispublic":1,"isfriend":0,"isfamily":0},{"id":"52626788080","owner":"14734088@N02","secret":"ba86a58c55","server":"65535","farm":66,"title":"Chevalier semipalm\u00e9 191103H1b","ispublic":1,"isfriend":0,"isfamily":0},{"id":"52624321614","owner":"8065544@N08","secret":"8876ca20d8","server":"65535","farm":66,"title":"Willet (Tringa semipalmata)","ispublic":1,"isfriend":0,"isfamily":0},{"id":"52623957483","owner":"130021529@N02","secret":"2205b0de58","server":"65535","farm":66,"title":"Tringa semipalmata | Willet | willet","ispublic":1,"isfriend":0,"isfamily":0},{"id":"52613137482","owner":"40941741@N03","secret":"cc2f93baa1","server":"65535","farm":66,"title":"Twilight Silhouette","ispublic":1,"isfriend":0,"isfamily":0},{"id":"52613702488","owner":"60361833@N03","secret":"09706ba722","server":"65535","farm":66,"title":"Willet_21","ispublic":1,"isfriend":0,"isfamily":0},{"id":"52612762323","owner":"124995824@N08","secret":"24c3bf7780","server":"65535","farm":66,"title":"Willet - Tringa semipalmata","ispublic":1,"isfriend":0,"isfamily":0},{"id":"52595629408","owner":"62043870@N05","secret":"5cbb51b7c3","server":"65535","farm":66,"title":"Willet, Tringa semipalmata","ispublic":1,"isfriend":0,"isfamily":0},{"id":"52581456514","owner":"107784905@N04","secret":"4bab1d037e","server":"65535","farm":66,"title":"Chevalier semipalm\u00e9 - Tortuguero\/Lim\u00f3n\/Costa Rica_20211124_046-1","ispublic":1,"isfriend":0,"isfamily":0},{"id":"52580578589","owner":"153973412@N04","secret":"c02a82e353","server":"65535","farm":66,"title":"Eastern Willet-Tringa semipalmata semipalmata, Scarborough Marsh, MA","ispublic":1,"isfriend":0,"isfamily":0},{"id":"52579475312","owner":"144217344@N03","secret":"8aec2200be","server":"65535","farm":66,"title":"Gisela_Nagel-Fl-4180-Schlammtreter","ispublic":1,"isfriend":0,"isfamily":0},{"id":"52575590227","owner":"129553350@N02","secret":"4392e59e62","server":"65535","farm":66,"title":"Willet","ispublic":1,"isfriend":0,"isfamily":0},{"id":"52576047596","owner":"129553350@N02","secret":"6f1aee8ee6","server":"65535","farm":66,"title":"Willet","ispublic":1,"isfriend":0,"isfamily":0},{"id":"52574780199","owner":"28867468@N08","secret":"f3750575c7","server":"65535","farm":66,"title":"Willet Bathing and a Critic","ispublic":1,"isfriend":0,"isfamily":0},{"id":"52574677759","owner":"52450054@N04","secret":"b5ff11117d","server":"65535","farm":66,"title":"Willet - Tringa semipalmata, Edisto Beach State Park, Edisto Island, South Carolina, November 4, 2019","ispublic":1,"isfriend":0,"isfamily":0},{"id":"52573933801","owner":"39511843@N07","secret":"c52e36891a","server":"65535","farm":66,"title":"20221219-Willet (Tringa semipalmata)-","ispublic":1,"isfriend":0,"isfamily":0},{"id":"52574378405","owner":"39511843@N07","secret":"e46fffaa48","server":"65535","farm":66,"title":"20221219-Willet (Tringa semipalmata)-2-","ispublic":1,"isfriend":0,"isfamily":0},{"id":"52574463643","owner":"39511843@N07","secret":"125a457447","server":"65535","farm":66,"title":"20221219-Willet (Tringa semipalmata)-5-","ispublic":1,"isfriend":0,"isfamily":0},{"id":"52573465782","owner":"39511843@N07","secret":"7cd5875afe","server":"65535","farm":66,"title":"20221219-Willet (Tringa semipalmata)-6-","ispublic":1,"isfriend":0,"isfamily":0},{"id":"52574378400","owner":"39511843@N07","secret":"3a89354501","server":"65535","farm":66,"title":"20221219-Willet (Tringa semipalmata)-3-","ispublic":1,"isfriend":0,"isfamily":0},{"id":"52573465772","owner":"39511843@N07","secret":"aa76cf92b3","server":"65535","farm":66,"title":"20221219-Willet (Tringa semipalmata)-7-","ispublic":1,"isfriend":0,"isfamily":0},{"id":"52574463633","owner":"39511843@N07","secret":"0e122cf092","server":"65535","farm":66,"title":"20221219-Willet (Tringa semipalmata)-8-","ispublic":1,"isfriend":0,"isfamily":0},{"id":"52574378335","owner":"39511843@N07","secret":"ff6bd66c32","server":"65535","farm":66,"title":"20221219-Willet (Tringa semipalmata)-9-","ispublic":1,"isfriend":0,"isfamily":0},{"id":"52574378320","owner":"39511843@N07","secret":"1de7c8af41","server":"65535","farm":66,"title":"20221219-Willet (Tringa semipalmata)-10-","ispublic":1,"isfriend":0,"isfamily":0},{"id":"52572945216","owner":"14734088@N02","secret":"a87559fd0f","server":"65535","farm":66,"title":"Chevalier semipalm\u00e9 191029H9d","ispublic":1,"isfriend":0,"isfamily":0},{"id":"52570963475","owner":"24379925@N08","secret":"771270357c","server":"65535","farm":66,"title":"WILLET","ispublic":1,"isfriend":0,"isfamily":0},{"id":"52568872231","owner":"14734088@N02","secret":"599a864610","server":"65535","farm":66,"title":"Chevalier semipalm\u00e9 191104H3","ispublic":1,"isfriend":0,"isfamily":0},{"id":"52569066708","owner":"120449047@N06","secret":"cebd75166a","server":"65535","farm":66,"title":"Willet","ispublic":1,"isfriend":0,"isfamily":0},{"id":"52568257684","owner":"32541690@N02","secret":"7c41a49c80","server":"65535","farm":66,"title":"Willet with shellfish","ispublic":1,"isfriend":0,"isfamily":0},{"id":"52557712580","owner":"9731845@N02","secret":"e2ac50fe40","server":"65535","farm":66,"title":"Willet (Tringa semipalmata)","ispublic":1,"isfriend":0,"isfamily":0},{"id":"52533788116","owner":"140734051@N08","secret":"321847caf6","server":"65535","farm":66,"title":"\u041f\u0435\u0440\u0435\u043f\u043e\u043d\u0447\u0430\u0442\u043e\u043f\u0430\u043b\u044b\u0439 \u0443\u043b\u0438\u0442, Tringa semipalmata inornata, Willet","ispublic":1,"isfriend":0,"isfamily":0},{"id":"52534331728","owner":"140734051@N08","secret":"8f674658cf","server":"65535","farm":66,"title":"\u041f\u0435\u0440\u0435\u043f\u043e\u043d\u0447\u0430\u0442\u043e\u043f\u0430\u043b\u044b\u0439 \u0443\u043b\u0438\u0442, Tringa semipalmata inornata, Willet","ispublic":1,"isfriend":0,"isfamily":0},{"id":"52534264680","owner":"140734051@N08","secret":"cd72c463ce","server":"65535","farm":66,"title":"\u041f\u0435\u0440\u0435\u043f\u043e\u043d\u0447\u0430\u0442\u043e\u043f\u0430\u043b\u044b\u0439 \u0443\u043b\u0438\u0442, Tringa semipalmata inornata, Willet","ispublic":1,"isfriend":0,"isfamily":0},{"id":"52534069694","owner":"140734051@N08","secret":"5ce35beee2","server":"65535","farm":66,"title":"\u041f\u0435\u0440\u0435\u043f\u043e\u043d\u0447\u0430\u0442\u043e\u043f\u0430\u043b\u044b\u0439 \u0443\u043b\u0438\u0442, Tringa semipalmata inornata, Willet","ispublic":1,"isfriend":0,"isfamily":0},{"id":"52533319812","owner":"140734051@N08","secret":"ce91b17cbd","server":"65535","farm":66,"title":"\u041f\u0435\u0440\u0435\u043f\u043e\u043d\u0447\u0430\u0442\u043e\u043f\u0430\u043b\u044b\u0439 \u0443\u043b\u0438\u0442, Tringa semipalmata inornata, Willet","ispublic":1,"isfriend":0,"isfamily":0},{"id":"52534331178","owner":"140734051@N08","secret":"9454d49a99","server":"65535","farm":66,"title":"\u041f\u0435\u0440\u0435\u043f\u043e\u043d\u0447\u0430\u0442\u043e\u043f\u0430\u043b\u044b\u0439 \u0443\u043b\u0438\u0442, Tringa semipalmata inornata, Willet","ispublic":1,"isfriend":0,"isfamily":0},{"id":"52534264120","owner":"140734051@N08","secret":"ba766a725e","server":"65535","farm":66,"title":"\u041f\u0435\u0440\u0435\u043f\u043e\u043d\u0447\u0430\u0442\u043e\u043f\u0430\u043b\u044b\u0439 \u0443\u043b\u0438\u0442, Tringa semipalmata inornata, Willet","ispublic":1,"isfriend":0,"isfamily":0},{"id":"52533786941","owner":"140734051@N08","secret":"2526f51337","server":"65535","farm":66,"title":"\u041f\u0435\u0440\u0435\u043f\u043e\u043d\u0447\u0430\u0442\u043e\u043f\u0430\u043b\u044b\u0439 \u0443\u043b\u0438\u0442, Tringa semipalmata inornata, Willet","ispublic":1,"isfriend":0,"isfamily":0},{"id":"52532552350","owner":"140734051@N08","secret":"183d1c6c3b","server":"65535","farm":66,"title":"\u041f\u0435\u0440\u0435\u043f\u043e\u043d\u0447\u0430\u0442\u043e\u043f\u0430\u043b\u044b\u0439 \u0443\u043b\u0438\u0442, Tringa semipalmata inornata, Willet","ispublic":1,"isfriend":0,"isfamily":0},{"id":"52532359474","owner":"140734051@N08","secret":"4ed7d3f912","server":"65535","farm":66,"title":"\u041f\u0435\u0440\u0435\u043f\u043e\u043d\u0447\u0430\u0442\u043e\u043f\u0430\u043b\u044b\u0439 \u0443\u043b\u0438\u0442, Tringa semipalmata inornata, Willet","ispublic":1,"isfriend":0,"isfamily":0},{"id":"52532079721","owner":"140734051@N08","secret":"e5e97d7336","server":"65535","farm":66,"title":"\u041f\u0435\u0440\u0435\u043f\u043e\u043d\u0447\u0430\u0442\u043e\u043f\u0430\u043b\u044b\u0439 \u0443\u043b\u0438\u0442, Tringa semipalmata inornata, Willet","ispublic":1,"isfriend":0,"isfamily":0},{"id":"52532079676","owner":"140734051@N08","secret":"003b2d96e7","server":"65535","farm":66,"title":"\u041f\u0435\u0440\u0435\u043f\u043e\u043d\u0447\u0430\u0442\u043e\u043f\u0430\u043b\u044b\u0439 \u0443\u043b\u0438\u0442, Tringa semipalmata inornata, Willet","ispublic":1,"isfriend":0,"isfamily":0},{"id":"52532079631","owner":"140734051@N08","secret":"916b2c50a2","server":"65535","farm":66,"title":"\u041f\u0435\u0440\u0435\u043f\u043e\u043d\u0447\u0430\u0442\u043e\u043f\u0430\u043b\u044b\u0439 \u0443\u043b\u0438\u0442, Tringa semipalmata inornata, Willet","ispublic":1,"isfriend":0,"isfamily":0},{"id":"52532359074","owner":"140734051@N08","secret":"f1f9d3913d","server":"65535","farm":66,"title":"\u041f\u0435\u0440\u0435\u043f\u043e\u043d\u0447\u0430\u0442\u043e\u043f\u0430\u043b\u044b\u0439 \u0443\u043b\u0438\u0442, Tringa semipalmata inornata, Willet","ispublic":1,"isfriend":0,"isfamily":0},{"id":"52532079311","owner":"140734051@N08","secret":"aab506a6bf","server":"65535","farm":66,"title":"\u041f\u0435\u0440\u0435\u043f\u043e\u043d\u0447\u0430\u0442\u043e\u043f\u0430\u043b\u044b\u0439 \u0443\u043b\u0438\u0442, Tringa semipalmata inornata, Willet","ispublic":1,"isfriend":0,"isfamily":0},{"id":"52532551945","owner":"140734051@N08","secret":"3f2d0489c0","server":"65535","farm":66,"title":"\u041f\u0435\u0440\u0435\u043f\u043e\u043d\u0447\u0430\u0442\u043e\u043f\u0430\u043b\u044b\u0439 \u0443\u043b\u0438\u0442, Tringa semipalmata inornata, Willet","ispublic":1,"isfriend":0,"isfamily":0},{"id":"52532079261","owner":"140734051@N08","secret":"4c0fc82119","server":"65535","farm":66,"title":"\u041f\u0435\u0440\u0435\u043f\u043e\u043d\u0447\u0430\u0442\u043e\u043f\u0430\u043b\u044b\u0439 \u0443\u043b\u0438\u0442, Tringa semipalmata inornata, Willet","ispublic":1,"isfriend":0,"isfamily":0},{"id":"52529833887","owner":"138125336@N04","secret":"b0a80d962a","server":"65535","farm":66,"title":"Walk the Line","ispublic":1,"isfriend":0,"isfamily":0},{"id":"52527073002","owner":"14489732@N00","secret":"2eba5a0c30","server":"65535","farm":66,"title":"Willet","ispublic":1,"isfriend":0,"isfamily":0},{"id":"52527226471","owner":"9243885@N07","secret":"d65d540467","server":"65535","farm":66,"title":"2022_01_12_5DMk4_52970","ispublic":1,"isfriend":0,"isfamily":0},{"id":"52526204613","owner":"9731845@N02","secret":"8ff18d0300","server":"65535","farm":66,"title":"Willet (Tringa semipalmata)","ispublic":1,"isfriend":0,"isfamily":0},{"id":"52680825939","owner":"124995824@N08","secret":"2a8a73d70c","server":"65535","farm":66,"title":"Willet - Tringa semipalmata","ispublic":1,"isfriend":0,"isfamily":0},{"id":"52681041023","owner":"124995824@N08","secret":"d9542c5f49","server":"65535","farm":66,"title":"Willet - Tringa semipalmata","ispublic":1,"isfriend":0,"isfamily":0},{"id":"52680543976","owner":"124995824@N08","secret":"8fb405ddd6","server":"65535","farm":66,"title":"Willet - Tringa semipalmata","ispublic":1,"isfriend":0,"isfamily":0},{"id":"52678861788","owner":"124995824@N08","secret":"d7cb926b8e","server":"65535","farm":66,"title":"Willet - Tringa semipalmata","ispublic":1,"isfriend":0,"isfamily":0},{"id":"52601674073","owner":"62043870@N05","secret":"4653c4af88","server":"65535","farm":66,"title":"Willet, Tringa semipalmata","ispublic":1,"isfriend":0,"isfamily":0},{"id":"52580342656","owner":"153973412@N04","secret":"7099618e38","server":"65535","farm":66,"title":"Western Willet-Tringa semipalmata inornata, San Diego, CA","ispublic":1,"isfriend":0,"isfamily":0}]},"stat":"ok"}