{"photos":{"page":1,"pages":17,"perpage":100,"total":1651,"photo":[{"id":"52652401572","owner":"187792860@N04","secret":"81524c61f3","server":"65535","farm":66,"title":"Willow Flycatcher (Empidonax traillii)","ispublic":1,"isfriend":0,"isfamily":0},{"id":"52580228361","owner":"153973412@N04","secret":"f526047634","server":"65535","farm":66,"title":"Willow Flycatcher-Empidonax traillii, Hawkeye WMA, IA","ispublic":1,"isfriend":0,"isfamily":0},{"id":"52516029030","owner":"35259356@N06","secret":"06fb1993fb","server":"65535","farm":66,"title":"Flycatcher: Willow Flycatcher","ispublic":1,"isfriend":0,"isfamily":0},{"id":"52504205928","owner":"187792860@N04","secret":"f0f58bbd0f","server":"65535","farm":66,"title":"Willow Flycatcher (Empidonax traillii)","ispublic":1,"isfriend":0,"isfamily":0},{"id":"52495730415","owner":"64557331@N04","secret":"ab227bf829","server":"65535","farm":66,"title":"Willow Flycatcher - (Empidonax traillii)_08202022","ispublic":1,"isfriend":0,"isfamily":0},{"id":"52466283503","owner":"68635735@N02","secret":"3d43ec0441","server":"65535","farm":66,"title":"Willow Flycatcher (Empidonax traillii)","ispublic":1,"isfriend":0,"isfamily":0},{"id":"52465232862","owner":"68635735@N02","secret":"cfb416ea5e","server":"65535","farm":66,"title":"Willow Flycatcher (Empidonax traillii)","ispublic":1,"isfriend":0,"isfamily":0},{"id":"52447076381","owner":"187792860@N04","secret":"488009a7bb","server":"65535","farm":66,"title":"Willow Flycatcher (Empidonax traillii)","ispublic":1,"isfriend":0,"isfamily":0},{"id":"52445118624","owner":"36424218@N00","secret":"117f25748c","server":"65535","farm":66,"title":"Willow Flycatcher","ispublic":1,"isfriend":0,"isfamily":0},{"id":"52420422477","owner":"196567058@N02","secret":"c5c5d5d280","server":"65535","farm":66,"title":"Empidonax traillii - Atrapamoscas\u2026","ispublic":1,"isfriend":0,"isfamily":0},{"id":"52412150154","owner":"187792860@N04","secret":"893afee44f","server":"65535","farm":66,"title":"Willow Flycatcher (Empidonax traillii)","ispublic":1,"isfriend":0,"isfamily":0},{"id":"52396617126","owner":"34368269@N04","secret":"51febbd8c9","server":"65535","farm":66,"title":"Willow Flycatcher","ispublic":1,"isfriend":0,"isfamily":0},{"id":"52394803646","owner":"187792860@N04","secret":"fe2425876f","server":"65535","farm":66,"title":"Willow Flycatcher (Empidonax traillii)","ispublic":1,"isfriend":0,"isfamily":0},{"id":"52391914200","owner":"196264892@N08","secret":"48548fbe90","server":"65535","farm":66,"title":"Willow Flycatcher","ispublic":1,"isfriend":0,"isfamily":0},{"id":"52391797989","owner":"196264892@N08","secret":"e9384c5527","server":"65535","farm":66,"title":"Willow Flycatcher","ispublic":1,"isfriend":0,"isfamily":0},{"id":"52391914045","owner":"196264892@N08","secret":"96393fdf93","server":"65535","farm":66,"title":"Willow Flycatcher","ispublic":1,"isfriend":0,"isfamily":0},{"id":"52383088409","owner":"34368269@N04","secret":"ee20cb9e34","server":"65535","farm":66,"title":"Willow Flycatcher","ispublic":1,"isfriend":0,"isfamily":0},{"id":"52375289473","owner":"196264892@N08","secret":"e032bc5807","server":"65535","farm":66,"title":"Willow Flycatcher","ispublic":1,"isfriend":0,"isfamily":0},{"id":"52375066191","owner":"196264892@N08","secret":"2f79e04a00","server":"65535","farm":66,"title":"Willow Flycatcher","ispublic":1,"isfriend":0,"isfamily":0},{"id":"52366836132","owner":"190122705@N03","secret":"9b3613fd50","server":"65535","farm":66,"title":"Willow Flycatcher","ispublic":1,"isfriend":0,"isfamily":0},{"id":"52365144509","owner":"13451078@N03","secret":"7f8eeab0c6","server":"65535","farm":66,"title":"Willow Flycatcher (Empidonax traillii)","ispublic":1,"isfriend":0,"isfamily":0},{"id":"52361756597","owner":"196264892@N08","secret":"1d31c2f8cb","server":"65535","farm":66,"title":"Willow Flycatcher","ispublic":1,"isfriend":0,"isfamily":0},{"id":"52362920233","owner":"196264892@N08","secret":"da8dd895c2","server":"65535","farm":66,"title":"Willow Flycatcher","ispublic":1,"isfriend":0,"isfamily":0},{"id":"52362698456","owner":"23711298@N07","secret":"b1b12d4a31","server":"65535","farm":66,"title":"Flycatcher- Minnesota, Anoka County- Fridley, Springbrook Nature Center","ispublic":1,"isfriend":0,"isfamily":0},{"id":"52362603180","owner":"143326780@N02","secret":"2ac48abb43","server":"65535","farm":66,"title":"DSCN9698","ispublic":1,"isfriend":0,"isfamily":0},{"id":"52362603120","owner":"143326780@N02","secret":"f1b1cab55c","server":"65535","farm":66,"title":"DSCN9699","ispublic":1,"isfriend":0,"isfamily":0},{"id":"52356248598","owner":"8666250@N02","secret":"3245628560","server":"65535","farm":66,"title":"Wilf the swivelneck...","ispublic":1,"isfriend":0,"isfamily":0},{"id":"52356003931","owner":"8666250@N02","secret":"ee3b035532","server":"65535","farm":66,"title":"Young Wilf among the Hawthorns -03","ispublic":1,"isfriend":0,"isfamily":0},{"id":"52356248423","owner":"8666250@N02","secret":"9ff11af00e","server":"65535","farm":66,"title":"Young Wilf among the Hawthorns -02","ispublic":1,"isfriend":0,"isfamily":0},{"id":"52347845793","owner":"8666250@N02","secret":"b05bda7513","server":"65535","farm":66,"title":"Wilf on the edge of the light -02","ispublic":1,"isfriend":0,"isfamily":0},{"id":"52343694207","owner":"69812270@N00","secret":"9eeaa032d0","server":"65535","farm":66,"title":"Willow Flycatcher?  Lighthouse Community Garden","ispublic":1,"isfriend":0,"isfamily":0},{"id":"52345040750","owner":"8666250@N02","secret":"8e605c0d00","server":"65535","farm":66,"title":"Willow Flycatcher -06","ispublic":1,"isfriend":0,"isfamily":0},{"id":"52344920124","owner":"8666250@N02","secret":"63bcbcb980","server":"65535","farm":66,"title":"Willow Flycatcher -05","ispublic":1,"isfriend":0,"isfamily":0},{"id":"52344613741","owner":"8666250@N02","secret":"4c67ff5249","server":"65535","farm":66,"title":"Willow Flycatcher -03","ispublic":1,"isfriend":0,"isfamily":0},{"id":"52345040665","owner":"8666250@N02","secret":"e1c86cc955","server":"65535","farm":66,"title":"Willow Flycatcher -01","ispublic":1,"isfriend":0,"isfamily":0},{"id":"52345040650","owner":"8666250@N02","secret":"5fff726df4","server":"65535","farm":66,"title":"Wilf perches low! -02","ispublic":1,"isfriend":0,"isfamily":0},{"id":"52345040585","owner":"8666250@N02","secret":"b376d4f557","server":"65535","farm":66,"title":"Wilf perches low! -01","ispublic":1,"isfriend":0,"isfamily":0},{"id":"52338343717","owner":"68635735@N02","secret":"fbc547f63a","server":"65535","farm":66,"title":"Willow Flycatcher (Empidonax traillii)","ispublic":1,"isfriend":0,"isfamily":0},{"id":"52338343692","owner":"68635735@N02","secret":"7b90f8b551","server":"65535","farm":66,"title":"Willow Flycatcher (Empidonax traillii)","ispublic":1,"isfriend":0,"isfamily":0},{"id":"52329809839","owner":"39445433@N02","secret":"62aafb5467","server":"65535","farm":66,"title":"Willow Flycatcher","ispublic":1,"isfriend":0,"isfamily":0},{"id":"52329936650","owner":"39445433@N02","secret":"bd68ff9776","server":"65535","farm":66,"title":"Willow Flycatcher","ispublic":1,"isfriend":0,"isfamily":0},{"id":"52308749513","owner":"196264892@N08","secret":"367521e7f8","server":"65535","farm":66,"title":"Willow Flycatcher (1)","ispublic":1,"isfriend":0,"isfamily":0},{"id":"52307559202","owner":"196264892@N08","secret":"19b3c5343b","server":"65535","farm":66,"title":"Willow Flycatcher (2)","ispublic":1,"isfriend":0,"isfamily":0},{"id":"52308793084","owner":"196264892@N08","secret":"cc3aab179e","server":"65535","farm":66,"title":"Willow Flycatcher (3)","ispublic":1,"isfriend":0,"isfamily":0},{"id":"52296443218","owner":"8666250@N02","secret":"c5a8b9c7d4","server":"65535","farm":66,"title":"Will. Flycatcher near Raptor Tree Pond (L to enLarge, then right arrow to  move through the set.)","ispublic":1,"isfriend":0,"isfamily":0},{"id":"52296929615","owner":"8666250@N02","secret":"e09fb813e7","server":"65535","farm":66,"title":"Willow Flycatcher near Raptor Tree Pond","ispublic":1,"isfriend":0,"isfamily":0},{"id":"52296442973","owner":"8666250@N02","secret":"07da533209","server":"65535","farm":66,"title":"Willow Flycatcher near Raptor Tree Pond","ispublic":1,"isfriend":0,"isfamily":0},{"id":"52296442873","owner":"8666250@N02","secret":"d98b27e04f","server":"65535","farm":66,"title":"Juvenile Willow Flycatcher","ispublic":1,"isfriend":0,"isfamily":0},{"id":"52291745001","owner":"119787485@N07","secret":"1bf87e5737","server":"65535","farm":66,"title":"Willow Flycatcher (Empidonax traillii brewsteri) - 20220608-04","ispublic":1,"isfriend":0,"isfamily":0},{"id":"52288159798","owner":"196264892@N08","secret":"6640e375b6","server":"65535","farm":66,"title":"Willow Flycatcher 1","ispublic":1,"isfriend":0,"isfamily":0},{"id":"52287971839","owner":"8666250@N02","secret":"7a10c3e359","server":"65535","farm":66,"title":"\"I thought this was an Alder, but it's a Birch!\"","ispublic":1,"isfriend":0,"isfamily":0},{"id":"52287706611","owner":"8666250@N02","secret":"ce5dc08b9c","server":"65535","farm":66,"title":"\"Gotta keep an eye out for trouble these days; ...","ispublic":1,"isfriend":0,"isfamily":0},{"id":"52284289936","owner":"8666250@N02","secret":"8b01eabbcf","server":"65535","farm":66,"title":"Willow Flycatcher 220705","ispublic":1,"isfriend":0,"isfamily":0},{"id":"52283477935","owner":"23020855@N03","secret":"fc033f37fa","server":"65535","farm":66,"title":"Willow Flycatcher - Capilano Dam, BC","ispublic":1,"isfriend":0,"isfamily":0},{"id":"52271557835","owner":"8666250@N02","secret":"588e7cea31","server":"65535","farm":66,"title":"Wilf of Golden Pond -08","ispublic":1,"isfriend":0,"isfamily":0},{"id":"52271086188","owner":"8666250@N02","secret":"7ae38785ee","server":"65535","farm":66,"title":"Wilf of Golden Pond -04","ispublic":1,"isfriend":0,"isfamily":0},{"id":"52271557760","owner":"8666250@N02","secret":"418e55cc78","server":"65535","farm":66,"title":"Wilf of Golden Pond -05","ispublic":1,"isfriend":0,"isfamily":0},{"id":"52271328109","owner":"8666250@N02","secret":"02f3a14d88","server":"65535","farm":66,"title":"Wilf of Golden Pond -02","ispublic":1,"isfriend":0,"isfamily":0},{"id":"52271328074","owner":"8666250@N02","secret":"4541d81506","server":"65535","farm":66,"title":"Wilf of Golden Pond -01","ispublic":1,"isfriend":0,"isfamily":0},{"id":"52270359184","owner":"196264892@N08","secret":"4d533b0a50","server":"65535","farm":66,"title":"Willow Flycatcher 1","ispublic":1,"isfriend":0,"isfamily":0},{"id":"52270089146","owner":"196264892@N08","secret":"f1bf742a24","server":"65535","farm":66,"title":"Willow Flycatcher 2","ispublic":1,"isfriend":0,"isfamily":0},{"id":"52270108818","owner":"196264892@N08","secret":"04c326bc99","server":"65535","farm":66,"title":"Willow Flycatcher 3","ispublic":1,"isfriend":0,"isfamily":0},{"id":"52263903718","owner":"99849996@N00","secret":"d634eee6a3","server":"65535","farm":66,"title":"Willow Flycatcher 20210920_2526","ispublic":1,"isfriend":0,"isfamily":0},{"id":"52251696804","owner":"8666250@N02","secret":"064444278d","server":"65535","farm":66,"title":"Wilf in the Roses 220614 -04","ispublic":1,"isfriend":0,"isfamily":0},{"id":"52251429498","owner":"8666250@N02","secret":"fde282a231","server":"65535","farm":66,"title":"Wilf in the Roses 220614 -01","ispublic":1,"isfriend":0,"isfamily":0},{"id":"52251912765","owner":"8666250@N02","secret":"d3e7d5d198","server":"65535","farm":66,"title":"Wilf in the Roses 220614 -02","ispublic":1,"isfriend":0,"isfamily":0},{"id":"52251429148","owner":"8666250@N02","secret":"47e6afb390","server":"65535","farm":66,"title":"Life is good...","ispublic":1,"isfriend":0,"isfamily":0},{"id":"52244169644","owner":"8666250@N02","secret":"6d16a813a6","server":"65535","farm":66,"title":"\"La Vie en Roses\"","ispublic":1,"isfriend":0,"isfamily":0},{"id":"52238537602","owner":"8666250@N02","secret":"67ed4bda40","server":"65535","farm":66,"title":"Wilf in the woods.... 220605 -04","ispublic":1,"isfriend":0,"isfamily":0},{"id":"52239524283","owner":"8666250@N02","secret":"8282674ffc","server":"65535","farm":66,"title":"Wilf in the woods.... 220605 -03","ispublic":1,"isfriend":0,"isfamily":0},{"id":"52238537392","owner":"8666250@N02","secret":"505dca670a","server":"65535","farm":66,"title":"Wilf in the woods.... 220605 -02","ispublic":1,"isfriend":0,"isfamily":0},{"id":"52239515366","owner":"8666250@N02","secret":"377ac17066","server":"65535","farm":66,"title":"Wilf in the woods.... 220605 -05 (worth enlarging?)","ispublic":1,"isfriend":0,"isfamily":0},{"id":"52229672814","owner":"42264328@N00","secret":"115f8742b6","server":"0","farm":0,"title":"Empid video","ispublic":1,"isfriend":0,"isfamily":0},{"id":"52229731810","owner":"42264328@N00","secret":"b663f9e0fd","server":"65535","farm":66,"title":"Empid series","ispublic":1,"isfriend":0,"isfamily":0},{"id":"52228247822","owner":"42264328@N00","secret":"399a5a45f9","server":"65535","farm":66,"title":"Empid series","ispublic":1,"isfriend":0,"isfamily":0},{"id":"52229731760","owner":"42264328@N00","secret":"6e4fb4f489","server":"65535","farm":66,"title":"Empid series","ispublic":1,"isfriend":0,"isfamily":0},{"id":"52229251846","owner":"42264328@N00","secret":"2d1d23abbb","server":"65535","farm":66,"title":"Empid series","ispublic":1,"isfriend":0,"isfamily":0},{"id":"52222043869","owner":"70295563@N00","secret":"22c3d17cf8","server":"65535","farm":66,"title":"Sing it loud","ispublic":1,"isfriend":0,"isfamily":0},{"id":"52210240282","owner":"39177293@N03","secret":"cfca6bbe8e","server":"65535","farm":66,"title":"Willow Flycatcher","ispublic":1,"isfriend":0,"isfamily":0},{"id":"52211458709","owner":"37566919@N02","secret":"51bd86d8b3","server":"65535","farm":66,"title":"Willow Flycatcher","ispublic":1,"isfriend":0,"isfamily":0},{"id":"52210527671","owner":"8666250@N02","secret":"a7f90653ae","server":"65535","farm":66,"title":"Wilf on a Hawthorn branch -08","ispublic":1,"isfriend":0,"isfamily":0},{"id":"52210550688","owner":"8666250@N02","secret":"e99c824709","server":"65535","farm":66,"title":"Wilf on a Hawthorn branch -06","ispublic":1,"isfriend":0,"isfamily":0},{"id":"52210800504","owner":"8666250@N02","secret":"23827b81d5","server":"65535","farm":66,"title":"Wilf on a Hawthorn branch -01 (Press L to enlarge for this whole series)","ispublic":1,"isfriend":0,"isfamily":0},{"id":"52210524981","owner":"8666250@N02","secret":"e5317a51a7","server":"65535","farm":66,"title":"Wilf series 2 220605 -07","ispublic":1,"isfriend":0,"isfamily":0},{"id":"52211013625","owner":"8666250@N02","secret":"bffcc398ee","server":"65535","farm":66,"title":"Wilf series 2 220605 -03","ispublic":1,"isfriend":0,"isfamily":0},{"id":"52210547893","owner":"8666250@N02","secret":"e2d567c53e","server":"65535","farm":66,"title":"Wilf series 2 220605 -02","ispublic":1,"isfriend":0,"isfamily":0},{"id":"52211009745","owner":"8666250@N02","secret":"3c3220e5e4","server":"65535","farm":66,"title":"Wilf series 3 220605 -06","ispublic":1,"isfriend":0,"isfamily":0},{"id":"52210543773","owner":"8666250@N02","secret":"4a4bd14cbb","server":"65535","farm":66,"title":"Wilf series 3 220605 -05 (Press L to enlarge)","ispublic":1,"isfriend":0,"isfamily":0},{"id":"52209517427","owner":"8666250@N02","secret":"fe64d69a07","server":"65535","farm":66,"title":"Wilf series 3 220605 -02","ispublic":1,"isfriend":0,"isfamily":0},{"id":"52202542131","owner":"26096524@N03","secret":"dc3b265de3","server":"65535","farm":66,"title":"Willow Flycatcher (Empidonax traillii)","ispublic":1,"isfriend":0,"isfamily":0},{"id":"52202568073","owner":"26096524@N03","secret":"391efa9cfc","server":"65535","farm":66,"title":"Willow Flycatcher (Empidonax traillii)","ispublic":1,"isfriend":0,"isfamily":0},{"id":"52199680454","owner":"48311154@N02","secret":"42265471c2","server":"65535","farm":66,"title":"The only way to tell Willow Flycatcher apart from Alder Flycatcher is by voice","ispublic":1,"isfriend":0,"isfamily":0},{"id":"52198425970","owner":"187792860@N04","secret":"941d59d112","server":"65535","farm":66,"title":"Willow Flycatcher (Empidonax traillii)","ispublic":1,"isfriend":0,"isfamily":0},{"id":"52197819953","owner":"131037795@N03","secret":"b31cd5686b","server":"65535","farm":66,"title":"Willow Flycatcher (Empidonax traillii)","ispublic":1,"isfriend":0,"isfamily":0},{"id":"52196797452","owner":"131037795@N03","secret":"09c3e46c3f","server":"65535","farm":66,"title":"Willow Flycatcher (Empidonax traillii)","ispublic":1,"isfriend":0,"isfamily":0},{"id":"52192526305","owner":"48311154@N02","secret":"b5a612dcde","server":"65535","farm":66,"title":"Lots of activity at the pond these summer days","ispublic":1,"isfriend":0,"isfamily":0},{"id":"52189396457","owner":"166123535@N05","secret":"f6c610b448","server":"65535","farm":66,"title":"Willow Flycatcher","ispublic":1,"isfriend":0,"isfamily":0},{"id":"52189730143","owner":"32320154@N05","secret":"5763878272","server":"65535","farm":66,"title":"Willow Flycatcher","ispublic":1,"isfriend":0,"isfamily":0},{"id":"52630312392","owner":"76617062@N08","secret":"ffaae21aa5","server":"65535","farm":66,"title":"1.14390  Moucherolle des saules \/ Empidonax traillii traillii \/ Willow Flycatcher","ispublic":1,"isfriend":0,"isfamily":0},{"id":"52356248553","owner":"8666250@N02","secret":"7848f08826","server":"65535","farm":66,"title":"Wilf says 'Farewell' for this year....","ispublic":1,"isfriend":0,"isfamily":0}]},"stat":"ok"}