{"photos":{"page":1,"pages":80,"perpage":100,"total":7929,"photo":[{"id":"52790387555","owner":"162980211@N07","secret":"ceb7b5f753","server":"65535","farm":66,"title":"Fitis, Phylloscopus trochilus","ispublic":1,"isfriend":0,"isfamily":0},{"id":"52787677509","owner":"151744155@N07","secret":"7ebcb18836","server":"65535","farm":66,"title":"Wilow Warbler - Pouillot Fitis (phylloscopus trochilus)","ispublic":1,"isfriend":0,"isfamily":0},{"id":"52785973321","owner":"198000077@N04","secret":"4e1f0cbc28","server":"65535","farm":66,"title":"Willow warbler\/ Phylloscopus trochilus","ispublic":1,"isfriend":0,"isfamily":0},{"id":"52781811615","owner":"191391950@N02","secret":"92bfa0265e","server":"65535","farm":66,"title":"Pouillot fitis - Phylloscopus trochilus","ispublic":1,"isfriend":0,"isfamily":0},{"id":"52778169548","owner":"12639178@N07","secret":"9302a51ba5","server":"65535","farm":66,"title":"Zilpzalp oder Fitis ??","ispublic":1,"isfriend":0,"isfamily":0},{"id":"52772253892","owner":"141256983@N04","secret":"2502eb2b37","server":"65535","farm":66,"title":"Pouillot fitis (Phylloscopus trochilus) Willow Warbler","ispublic":1,"isfriend":0,"isfamily":0},{"id":"52772635691","owner":"141256983@N04","secret":"2ff6b21f57","server":"65535","farm":66,"title":"Pouillot Fitis (Phylloscopus trochilus)","ispublic":1,"isfriend":0,"isfamily":0},{"id":"52771194355","owner":"116208073@N07","secret":"f902646a42","server":"65535","farm":66,"title":"Fitis - Willow Warbler - Phylloscopus trochilus - 4686","ispublic":1,"isfriend":0,"isfamily":0},{"id":"52768540039","owner":"195513126@N05","secret":"48627d0a35","server":"65535","farm":66,"title":"Piecuszek - Fitis","ispublic":1,"isfriend":0,"isfamily":0},{"id":"52760686328","owner":"196367725@N07","secret":"bdc76e5858","server":"65535","farm":66,"title":"Pouillot Fitis","ispublic":1,"isfriend":0,"isfamily":0},{"id":"52755399801","owner":"12639178@N07","secret":"3ec4d20f9c","server":"65535","farm":66,"title":"..den Zweiflern..","ispublic":1,"isfriend":0,"isfamily":0},{"id":"52755554985","owner":"12639178@N07","secret":"86bc32859f","server":"65535","farm":66,"title":".3 s Fitis waren im Geb\u00fcsch..","ispublic":1,"isfriend":0,"isfamily":0},{"id":"52754485018","owner":"12639178@N07","secret":"c9c82a6e85","server":"65535","farm":66,"title":"Fitis (Phylloscopus trochilus) (1)","ispublic":1,"isfriend":0,"isfamily":0},{"id":"52747433604","owner":"12639178@N07","secret":"6f84dd074d","server":"65535","farm":66,"title":"Fitis","ispublic":1,"isfriend":0,"isfamily":0},{"id":"52740921345","owner":"127058286@N04","secret":"fb0821171e","server":"65535","farm":66,"title":"Pouillot fitis - Willow Warbler (Phylloscopus trochilus) - Saint-Priest - La C\u00f4te (Rh\u00f4ne) France, 15 septembre 2017","ispublic":1,"isfriend":0,"isfamily":0},{"id":"52728800677","owner":"140575723@N07","secret":"ec5e1243a4","server":"65535","farm":66,"title":"Felosa Musical (Phylloscopus Trochilus)","ispublic":1,"isfriend":0,"isfamily":0},{"id":"52721239466","owner":"77128742@N06","secret":"10c64a4929","server":"65535","farm":66,"title":"Sibirischer Fitis_Phylloscopus trochilus yakutensis-11","ispublic":1,"isfriend":0,"isfamily":0},{"id":"52709961818","owner":"12639178@N07","secret":"c326ded2cd","server":"65535","farm":66,"title":"Fitis","ispublic":1,"isfriend":0,"isfamily":0},{"id":"52704682811","owner":"82352887@N04","secret":"e4d91121cd","server":"65535","farm":66,"title":"Pouillot fitis (Phylloscopus trochilus)","ispublic":1,"isfriend":0,"isfamily":0},{"id":"52699165358","owner":"12639178@N07","secret":"fb8c3902ae","server":"65535","farm":66,"title":"Fitis, (Phylloscopus trochilus)","ispublic":1,"isfriend":0,"isfamily":0},{"id":"52691618152","owner":"191391950@N02","secret":"5e2cb7061a","server":"65535","farm":66,"title":"Pouillot fitis - Phylloscopus trochilus","ispublic":1,"isfriend":0,"isfamily":0},{"id":"52682573612","owner":"140318147@N08","secret":"3491d93eb2","server":"65535","farm":66,"title":"willow warbler (Phylloscopus trochilus) L4A2173","ispublic":1,"isfriend":0,"isfamily":0},{"id":"52678983291","owner":"189217732@N03","secret":"11c8dfa0f6","server":"65535","farm":66,"title":"Pouillot fitis - Phylloscopus trochilus - Willow Warbler","ispublic":1,"isfriend":0,"isfamily":0},{"id":"52666598761","owner":"26371261@N00","secret":"65177f408f","server":"65535","farm":66,"title":"Willow Warbler, Phylloscopus trochilus","ispublic":1,"isfriend":0,"isfamily":0},{"id":"52666888974","owner":"26371261@N00","secret":"5255d9139c","server":"65535","farm":66,"title":"Willow Warbler, Phylloscopus trochilus","ispublic":1,"isfriend":0,"isfamily":0},{"id":"52665442328","owner":"56446000@N04","secret":"43c5aef80d","server":"65535","farm":66,"title":"Making Willows Weep...","ispublic":1,"isfriend":0,"isfamily":0},{"id":"52651711307","owner":"38351597@N07","secret":"1fc1e9de9c","server":"65535","farm":66,"title":"Willow Warbler","ispublic":1,"isfriend":0,"isfamily":0},{"id":"52644988895","owner":"23515058@N05","secret":"697687016c","server":"65535","farm":66,"title":"Fitis \/ Willow warbler (Phylloscopus trochilus)","ispublic":1,"isfriend":0,"isfamily":0},{"id":"52636048854","owner":"191391950@N02","secret":"fcde592230","server":"65535","farm":66,"title":"Pouillot fitis - Phylloscopus trochilus acredula","ispublic":1,"isfriend":0,"isfamily":0},{"id":"52635233674","owner":"141558918@N02","secret":"36319161cf","server":"65535","farm":66,"title":"Lu\u00ec grosso - Phylloscopus trochilus","ispublic":1,"isfriend":0,"isfamily":0},{"id":"52614749313","owner":"12639178@N07","secret":"222b419a7b","server":"65535","farm":66,"title":"Fitis (Phylloscopus trochilus)","ispublic":1,"isfriend":0,"isfamily":0},{"id":"52600304051","owner":"197303808@N03","secret":"a90718fa91","server":"65535","farm":66,"title":"Willow Warbler (Phylloscopus trochilus)","ispublic":1,"isfriend":0,"isfamily":0},{"id":"52600233761","owner":"197303808@N03","secret":"0ba35eb7a0","server":"65535","farm":66,"title":"Willow Warbler (Phylloscopus trochilus)","ispublic":1,"isfriend":0,"isfamily":0},{"id":"52587029449","owner":"144814095@N03","secret":"2ebe282e18","server":"65535","farm":66,"title":"Phylloscopus trochilus","ispublic":1,"isfriend":0,"isfamily":0},{"id":"52586988268","owner":"193492169@N05","secret":"ecd0e4e096","server":"65535","farm":66,"title":"Mosquitero musical - Willow Warbler - Phylloscopus trochilus","ispublic":1,"isfriend":0,"isfamily":0},{"id":"52581688751","owner":"32119184@N06","secret":"a4c933a491","server":"65535","farm":66,"title":"FELIZ NAVIDAD \/ MERRY CHRISTMAS","ispublic":1,"isfriend":0,"isfamily":0},{"id":"52576752878","owner":"157888340@N04","secret":"7bbf456258","server":"65535","farm":66,"title":"Phylloscopus trochilus","ispublic":1,"isfriend":0,"isfamily":0},{"id":"52576503314","owner":"157888340@N04","secret":"3337042212","server":"65535","farm":66,"title":"Phylloscopus trochilus","ispublic":1,"isfriend":0,"isfamily":0},{"id":"52556392596","owner":"58280154@N07","secret":"52aeba9dc4","server":"65535","farm":66,"title":"Willow Warbler - Pouillot fitis - Phylloscopus trochilus","ispublic":1,"isfriend":0,"isfamily":0},{"id":"52556862735","owner":"58280154@N07","secret":"3fa1cfe49c","server":"65535","farm":66,"title":"Willow Warbler - Pouillot fitis - Phylloscopus trochilus","ispublic":1,"isfriend":0,"isfamily":0},{"id":"52554014286","owner":"30793779@N04","secret":"2b371d7a6a","server":"65535","farm":66,"title":"MOSQUITERO MUSICAL * Phylloscopus trochilus \u2642\u2640 12 cm","ispublic":1,"isfriend":0,"isfamily":0},{"id":"52544284573","owner":"48639952@N04","secret":"8f2bca33b5","server":"65535","farm":66,"title":"Pouillot fitis - Phylloscopus trochilus - Willow Warbler","ispublic":1,"isfriend":0,"isfamily":0},{"id":"52538164351","owner":"24489029@N07","secret":"98c5f6847a","server":"65535","farm":66,"title":"Mosquiter de Passa, Phylloscopus trochilus","ispublic":1,"isfriend":0,"isfamily":0},{"id":"52529053468","owner":"186686756@N02","secret":"4d3ae0756f","server":"65535","farm":66,"title":"Mosquitero musical (Phylloscopus trochilus)","ispublic":1,"isfriend":0,"isfamily":0},{"id":"52527297625","owner":"148258021@N05","secret":"ccbc45024f","server":"65535","farm":66,"title":"Pouillot fitis ..Phylloscopus trochilus","ispublic":1,"isfriend":0,"isfamily":0},{"id":"52527097684","owner":"148258021@N05","secret":"fc60e002da","server":"65535","farm":66,"title":"Pouillot fitis ..Phylloscopus trochilus","ispublic":1,"isfriend":0,"isfamily":0},{"id":"52527369113","owner":"148258021@N05","secret":"3f9a577194","server":"65535","farm":66,"title":"Pouillot fitis ..Phylloscopus trochilus","ispublic":1,"isfriend":0,"isfamily":0},{"id":"52523640132","owner":"80986433@N04","secret":"3b11650d0d","server":"65535","farm":66,"title":"Willow warbler","ispublic":1,"isfriend":0,"isfamily":0},{"id":"52523005496","owner":"140840987@N03","secret":"7d0a7263ca","server":"65535","farm":66,"title":"Mosquitero musical. (Phylloscopus trochilus).","ispublic":1,"isfriend":0,"isfamily":0},{"id":"52505630021","owner":"139000794@N02","secret":"30a96073d8","server":"65535","farm":66,"title":"Mosquitero musical (Phylloscopus trochilus)","ispublic":1,"isfriend":0,"isfamily":0},{"id":"52503311782","owner":"38448717@N04","secret":"9481d66c16","server":"65535","farm":66,"title":"L\u00f8vsanger -Willow Warbler (Phylloscopus trochilus)","ispublic":1,"isfriend":0,"isfamily":0},{"id":"52500661697","owner":"7901656@N05","secret":"5aa3b1ec78","server":"65535","farm":66,"title":"Mosquitero musical-Phylloscopus trochilus-Willow warbler","ispublic":1,"isfriend":0,"isfamily":0},{"id":"52499458812","owner":"8103700@N04","secret":"4436303271","server":"65535","farm":66,"title":"Felosa-musical","ispublic":1,"isfriend":0,"isfamily":0},{"id":"52495110915","owner":"129081014@N03","secret":"e05f144a50","server":"65535","farm":66,"title":"Willow Warbler (juvenile) (Phylloscopus trochilus)","ispublic":1,"isfriend":0,"isfamily":0},{"id":"52494414285","owner":"93140244@N02","secret":"37068bbe7f","server":"65535","farm":66,"title":"Willow Warbler","ispublic":1,"isfriend":0,"isfamily":0},{"id":"52483798620","owner":"121152695@N06","secret":"60e881b2f1","server":"65535","farm":66,"title":"mosquitero musical (phylloscopus trochilus) - Willow Warbler","ispublic":1,"isfriend":0,"isfamily":0},{"id":"52479677540","owner":"27480477@N07","secret":"2b85c4dd38","server":"65535","farm":66,"title":"262A3012 Fitis, Willow Warbler, Phylloscopus trochilus.","ispublic":1,"isfriend":0,"isfamily":0},{"id":"52473700706","owner":"12639178@N07","secret":"6071af64fd","server":"65535","farm":66,"title":"Fitis","ispublic":1,"isfriend":0,"isfamily":0},{"id":"52473043585","owner":"130708126@N02","secret":"253f3331f5","server":"65535","farm":66,"title":"Pouillot fitis (Phylloscopus trochilus).jpg","ispublic":1,"isfriend":0,"isfamily":0},{"id":"52469956573","owner":"193593478@N02","secret":"66b6f095ee","server":"65535","farm":66,"title":"Ull de bou gros","ispublic":1,"isfriend":0,"isfamily":0},{"id":"52469686309","owner":"193593478@N02","secret":"7ddca2a463","server":"65535","farm":66,"title":"Ull de bou gros","ispublic":1,"isfriend":0,"isfamily":0},{"id":"52469407636","owner":"193593478@N02","secret":"6f7517c1f4","server":"65535","farm":66,"title":"Ull de bou gros","ispublic":1,"isfriend":0,"isfamily":0},{"id":"52466455567","owner":"168897955@N05","secret":"b574251d68","server":"65535","farm":66,"title":"Pouillot fitis (Phylloscopus trochilus) (85)","ispublic":1,"isfriend":0,"isfamily":0},{"id":"52454600782","owner":"167692045@N07","secret":"0477dd85ef","server":"65535","farm":66,"title":"pouillot fitis \/ Phylloscopus trochilus 22G_1160","ispublic":1,"isfriend":0,"isfamily":0},{"id":"52695393971","owner":"12639178@N07","secret":"13c7e2ccb8","server":"65535","farm":66,"title":"Fitis","ispublic":1,"isfriend":0,"isfamily":0},{"id":"52666889109","owner":"26371261@N00","secret":"0895b71791","server":"65535","farm":66,"title":"Willow Warbler, Phylloscopus trochilus","ispublic":1,"isfriend":0,"isfamily":0},{"id":"52656249608","owner":"12639178@N07","secret":"a1ab803060","server":"65535","farm":66,"title":"Nordischer gr\u00e4ulichbrauner Fitis *","ispublic":1,"isfriend":0,"isfamily":0},{"id":"52646755066","owner":"12639178@N07","secret":"c4055bdab9","server":"65535","farm":66,"title":"Fitis am Linne-Pfad","ispublic":1,"isfriend":0,"isfamily":0},{"id":"52642736323","owner":"12639178@N07","secret":"4d216b260a","server":"65535","farm":66,"title":"Jungfitis: oh, gibt es da viele saftige Blattl\u00e4use!","ispublic":1,"isfriend":0,"isfamily":0},{"id":"52628914114","owner":"12639178@N07","secret":"ab96f69cb2","server":"65535","farm":66,"title":"noch ein Fitis","ispublic":1,"isfriend":0,"isfamily":0},{"id":"52629135663","owner":"12639178@N07","secret":"37f822464e","server":"65535","farm":66,"title":"Fitis auf Nahrungssuche","ispublic":1,"isfriend":0,"isfamily":0},{"id":"52628085902","owner":"12639178@N07","secret":"e788ec2a71","server":"65535","farm":66,"title":"Fitis im Geb\u00fcsch","ispublic":1,"isfriend":0,"isfamily":0},{"id":"52621772185","owner":"12639178@N07","secret":"95026afcd8","server":"65535","farm":66,"title":"Fitis (Phylloscopus trochilus)","ispublic":1,"isfriend":0,"isfamily":0},{"id":"52619683013","owner":"50783922@N06","secret":"06b744c5e5","server":"65535","farm":66,"title":"Willow Warbler (Phylloscopus trochilus)","ispublic":1,"isfriend":0,"isfamily":0},{"id":"52600514794","owner":"12639178@N07","secret":"56662b1933","server":"65535","farm":66,"title":"Fitis unterm Bl\u00fctenschirm","ispublic":1,"isfriend":0,"isfamily":0},{"id":"52597911829","owner":"12639178@N07","secret":"4a43488c2f","server":"65535","farm":66,"title":"Fitis (Phylloscopus trochilus) (3)","ispublic":1,"isfriend":0,"isfamily":0},{"id":"52597647351","owner":"12639178@N07","secret":"556d1fef5e","server":"65535","farm":66,"title":"Fitis (Phylloscopus trochilus) (2)","ispublic":1,"isfriend":0,"isfamily":0},{"id":"52597159952","owner":"12639178@N07","secret":"60bf21294f","server":"65535","farm":66,"title":"Fitis (Phylloscopus trochilus) (1)","ispublic":1,"isfriend":0,"isfamily":0},{"id":"52581548116","owner":"12639178@N07","secret":"0aa81cbd07","server":"65535","farm":66,"title":"Phylloscopus trochilus, Fitis,ad.","ispublic":1,"isfriend":0,"isfamily":0},{"id":"52577225917","owner":"12639178@N07","secret":"8ea6864c19","server":"65535","farm":66,"title":"Fitis? Waldlaubs\u00e4nger? (5)","ispublic":1,"isfriend":0,"isfamily":0},{"id":"52577962774","owner":"12639178@N07","secret":"561b48972e","server":"65535","farm":66,"title":"Abgehoben! Fitis? Waldlaubs\u00e4nger? (4)","ispublic":1,"isfriend":0,"isfamily":0},{"id":"52578217198","owner":"12639178@N07","secret":"290f16f828","server":"65535","farm":66,"title":"Fitis? Waldlaubs\u00e4nger? (3)","ispublic":1,"isfriend":0,"isfamily":0},{"id":"52577689916","owner":"12639178@N07","secret":"f6741fab0a","server":"65535","farm":66,"title":"Fitis? Waldlaubs\u00e4nger? (2)","ispublic":1,"isfriend":0,"isfamily":0},{"id":"52577962224","owner":"12639178@N07","secret":"47f00fb6a0","server":"65535","farm":66,"title":"Fitis? Waldlaubs\u00e4nger? (1)","ispublic":1,"isfriend":0,"isfamily":0},{"id":"52566917998","owner":"12639178@N07","secret":"824a4381a7","server":"65535","farm":66,"title":"Fitis Ewiges Meer","ispublic":1,"isfriend":0,"isfamily":0},{"id":"52555941842","owner":"58280154@N07","secret":"c56632ea29","server":"65535","farm":66,"title":"Willow Warbler - Pouillot fitis - Phylloscopus trochilus","ispublic":1,"isfriend":0,"isfamily":0},{"id":"52556391051","owner":"58280154@N07","secret":"6997fc0acc","server":"65535","farm":66,"title":"Willow Warbler - Pouillot fitis - Phylloscopus trochilus","ispublic":1,"isfriend":0,"isfamily":0},{"id":"52556862655","owner":"58280154@N07","secret":"0bd13ef679","server":"65535","farm":66,"title":"Willow Warbler - Pouillot fitis - Phylloscopus trochilus","ispublic":1,"isfriend":0,"isfamily":0},{"id":"52556390971","owner":"58280154@N07","secret":"590cb148a9","server":"65535","farm":66,"title":"Willow Warbler - Pouillot fitis - Phylloscopus trochilus","ispublic":1,"isfriend":0,"isfamily":0},{"id":"52546424410","owner":"12639178@N07","secret":"2d86a8336e","server":"65535","farm":66,"title":"Fitis","ispublic":1,"isfriend":0,"isfamily":0},{"id":"52538014826","owner":"12639178@N07","secret":"52afa55f9d","server":"65535","farm":66,"title":"Fitis","ispublic":1,"isfriend":0,"isfamily":0},{"id":"52529053613","owner":"186686756@N02","secret":"a503dbfc7d","server":"65535","farm":66,"title":"Mosquitero musical (Phylloscopus trochilus)","ispublic":1,"isfriend":0,"isfamily":0},{"id":"52509593639","owner":"12639178@N07","secret":"12cfd73e78","server":"65535","farm":66,"title":"Fitis (Phylloscopus trochilus)","ispublic":1,"isfriend":0,"isfamily":0},{"id":"52509320311","owner":"12639178@N07","secret":"6a4a888909","server":"65535","farm":66,"title":"Nahrungssuchender Fitis (Phylloscopus trochilus)","ispublic":1,"isfriend":0,"isfamily":0},{"id":"52508839787","owner":"12639178@N07","secret":"74bc1377ac","server":"65535","farm":66,"title":"R\u00fcckenansicht Fitis (Phylloscopus trochilus)","ispublic":1,"isfriend":0,"isfamily":0},{"id":"52509593329","owner":"12639178@N07","secret":"ef98ac68c3","server":"65535","farm":66,"title":"Fitis (Phylloscopus trochilus)","ispublic":1,"isfriend":0,"isfamily":0},{"id":"52508839647","owner":"12639178@N07","secret":"c031af0d87","server":"65535","farm":66,"title":"Da guckt was - Fitis an Rosengew\u00e4chs (Phylloscopus trochilus)","ispublic":1,"isfriend":0,"isfamily":0},{"id":"52509593219","owner":"12639178@N07","secret":"21b696317f","server":"65535","farm":66,"title":"Fitis an Rosengew\u00e4chs (Phylloscopus trochilus)","ispublic":1,"isfriend":0,"isfamily":0},{"id":"52506618701","owner":"45109166@N00","secret":"649c944145","server":"65535","farm":66,"title":"Phylloscopus trochilus","ispublic":1,"isfriend":0,"isfamily":0},{"id":"52458722999","owner":"187414945@N08","secret":"d063ff2ebc","server":"65535","farm":66,"title":"","ispublic":1,"isfriend":0,"isfamily":0}]},"stat":"ok"}