{"photos":{"page":1,"pages":24,"perpage":100,"total":2374,"photo":[{"id":"52720705913","owner":"14572247@N07","secret":"1a06cf943d","server":"65535","farm":66,"title":"Wilson's Warbler (Cardellina pusilla)","ispublic":1,"isfriend":0,"isfamily":0},{"id":"52711822034","owner":"33610210@N05","secret":"7b0c82da90","server":"65535","farm":66,"title":"Wilson's Warbler, Cardellina pusilla","ispublic":1,"isfriend":0,"isfamily":0},{"id":"52712037173","owner":"33610210@N05","secret":"78c01d7e95","server":"65535","farm":66,"title":"Wilson's Warbler, Cardellina pusilla","ispublic":1,"isfriend":0,"isfamily":0},{"id":"52698648061","owner":"34674638@N05","secret":"d7e99233c0","server":"65535","farm":66,"title":"Wilson's Warbler","ispublic":1,"isfriend":0,"isfamily":0},{"id":"52687778108","owner":"196786375@N03","secret":"0ddc2a1985","server":"65535","farm":66,"title":"Wilson's Warbler","ispublic":1,"isfriend":0,"isfamily":0},{"id":"52680133798","owner":"33610210@N05","secret":"d7f7153d3b","server":"65535","farm":66,"title":"Wilson's Warbler, Cardellina pusilla","ispublic":1,"isfriend":0,"isfamily":0},{"id":"52680133783","owner":"33610210@N05","secret":"02b90e8631","server":"65535","farm":66,"title":"Wilson's Warbler, Cardellina pusilla","ispublic":1,"isfriend":0,"isfamily":0},{"id":"52680072795","owner":"33610210@N05","secret":"ff99928aa9","server":"65535","farm":66,"title":"Wilson's Warbler, Cardellina pusilla","ispublic":1,"isfriend":0,"isfamily":0},{"id":"52679920554","owner":"33610210@N05","secret":"02646f8229","server":"65535","farm":66,"title":"Wilson's Warbler, Cardellina pusilla","ispublic":1,"isfriend":0,"isfamily":0},{"id":"52679122862","owner":"33610210@N05","secret":"014cf96b87","server":"65535","farm":66,"title":"Wilson's Warbler, Cardellina pusilla","ispublic":1,"isfriend":0,"isfamily":0},{"id":"52676001628","owner":"34674638@N05","secret":"22aabb592c","server":"65535","farm":66,"title":"Wilson's Warbler","ispublic":1,"isfriend":0,"isfamily":0},{"id":"52656794508","owner":"187792860@N04","secret":"0713c35d3d","server":"65535","farm":66,"title":"Wilson's Warbler (Cardellina pusilla)","ispublic":1,"isfriend":0,"isfamily":0},{"id":"52562358481","owner":"51928691@N04","secret":"dcce9b14d1","server":"65535","farm":66,"title":"Wilson's Warbler (Cardellina pusilla) 1 121322","ispublic":1,"isfriend":0,"isfamily":0},{"id":"52562822955","owner":"51928691@N04","secret":"66b22f1ded","server":"65535","farm":66,"title":"Wilson's Warbler (Cardellina pusilla) 2 121322","ispublic":1,"isfriend":0,"isfamily":0},{"id":"52562894143","owner":"51928691@N04","secret":"090e1b2a84","server":"65535","farm":66,"title":"Wilson's Warbler (Cardellina pusilla) 3 121322","ispublic":1,"isfriend":0,"isfamily":0},{"id":"52552941969","owner":"24916137@N07","secret":"8cbef59f30","server":"65535","farm":66,"title":"Wilson's Warbler_May_2022","ispublic":1,"isfriend":0,"isfamily":0},{"id":"52550715796","owner":"30979614@N07","secret":"34412d785a","server":"65535","farm":66,"title":"2022-05-13 Montrose Point 5","ispublic":1,"isfriend":0,"isfamily":0},{"id":"52534760206","owner":"33610210@N05","secret":"6d8b7ebf20","server":"65535","farm":66,"title":"Wilson's Warbler, Cardellina pusilla (2)","ispublic":1,"isfriend":0,"isfamily":0},{"id":"52534760191","owner":"33610210@N05","secret":"938c133f4c","server":"65535","farm":66,"title":"Wilson's Warbler, Cardellina pusilla (3)","ispublic":1,"isfriend":0,"isfamily":0},{"id":"52534760156","owner":"33610210@N05","secret":"1ab19a1b36","server":"65535","farm":66,"title":"Wilson's Warbler, Cardellina pusilla (4)","ispublic":1,"isfriend":0,"isfamily":0},{"id":"52534760051","owner":"33610210@N05","secret":"ea4a00d797","server":"65535","farm":66,"title":"Wilson's Warbler, Cardellina pusilla","ispublic":1,"isfriend":0,"isfamily":0},{"id":"52519609847","owner":"103263246@N06","secret":"fbfbae7c31","server":"65535","farm":66,"title":"Cardellina pusilla. Reinita Gorrinegra. Curruquita. Wilson\u00b4s Warbler","ispublic":1,"isfriend":0,"isfamily":0},{"id":"52511144151","owner":"35259356@N06","secret":"f82cdca338","server":"65535","farm":66,"title":"Warbler: Wilson's Warbler","ispublic":1,"isfriend":0,"isfamily":0},{"id":"52507176793","owner":"71418112@N00","secret":"488edc3d98","server":"65535","farm":66,"title":"Wilson's warbler","ispublic":1,"isfriend":0,"isfamily":0},{"id":"52467726350","owner":"187792860@N04","secret":"0eb352c1c4","server":"65535","farm":66,"title":"Wilson's Warbler (Cardellina pusilla)","ispublic":1,"isfriend":0,"isfamily":0},{"id":"52464269032","owner":"192907438@N06","secret":"c31cbcd123","server":"65535","farm":66,"title":"Cardellina pusilla","ispublic":1,"isfriend":0,"isfamily":0},{"id":"52454122570","owner":"130811605@N02","secret":"7f1ebafde5","server":"65535","farm":66,"title":"Wilson's Warbler (Cardellina pusilla)","ispublic":1,"isfriend":0,"isfamily":0},{"id":"52443949890","owner":"91827451@N06","secret":"0ae9248726","server":"65535","farm":66,"title":"DSC_2510","ispublic":1,"isfriend":0,"isfamily":0},{"id":"52403093789","owner":"187792860@N04","secret":"81c9691f58","server":"65535","farm":66,"title":"Wilson's Warbler (Cardellina pusilla)","ispublic":1,"isfriend":0,"isfamily":0},{"id":"52398858565","owner":"103722035@N06","secret":"075430d181","server":"0","farm":0,"title":"Wilson\u2019s Warbler (Cardellina pusilla), Cayucos, CA","ispublic":1,"isfriend":0,"isfamily":0},{"id":"52391913890","owner":"196264892@N08","secret":"7c7fb22ba1","server":"65535","farm":66,"title":"Wilson's Warbler","ispublic":1,"isfriend":0,"isfamily":0},{"id":"52390564197","owner":"196264892@N08","secret":"942c89a260","server":"65535","farm":66,"title":"Wilson's Warbler","ispublic":1,"isfriend":0,"isfamily":0},{"id":"52391797549","owner":"196264892@N08","secret":"4b62428f5a","server":"65535","farm":66,"title":"Wilson's Warbler","ispublic":1,"isfriend":0,"isfamily":0},{"id":"52382039903","owner":"187792860@N04","secret":"aef6c20b27","server":"65535","farm":66,"title":"Wilson's Warbler (Cardellina pusilla)","ispublic":1,"isfriend":0,"isfamily":0},{"id":"52379303732","owner":"43898512@N07","secret":"ce7bb0ec3c","server":"65535","farm":66,"title":"Wilson's Warbler - Cardellina pusilla","ispublic":1,"isfriend":0,"isfamily":0},{"id":"52374118297","owner":"196264892@N08","secret":"bccb091741","server":"65535","farm":66,"title":"Wilson's Warbler","ispublic":1,"isfriend":0,"isfamily":0},{"id":"52372724278","owner":"65788177@N02","secret":"5bd114b5e8","server":"65535","farm":66,"title":"Wilson's Warbler","ispublic":1,"isfriend":0,"isfamily":0},{"id":"52372271108","owner":"65788177@N02","secret":"6840770595","server":"65535","farm":66,"title":"Wilson's Warbler","ispublic":1,"isfriend":0,"isfamily":0},{"id":"52370883590","owner":"54549270@N03","secret":"937557de1d","server":"65535","farm":66,"title":"Wilson's Warbler (Cardellina pusilla)","ispublic":1,"isfriend":0,"isfamily":0},{"id":"52369329570","owner":"34368269@N04","secret":"786d8710a1","server":"65535","farm":66,"title":"Wilson's Warbler","ispublic":1,"isfriend":0,"isfamily":0},{"id":"52366735437","owner":"59619528@N04","secret":"19565de0b5","server":"65535","farm":66,"title":"Wilson's Warbler (Cardellina pusilla) male","ispublic":1,"isfriend":0,"isfamily":0},{"id":"52368099560","owner":"59619528@N04","secret":"07abca4375","server":"65535","farm":66,"title":"Wilson's Warbler (Cardellina pusilla) male","ispublic":1,"isfriend":0,"isfamily":0},{"id":"52366085884","owner":"120449047@N06","secret":"b5fbd39696","server":"65535","farm":66,"title":"Wilson's Warbler #34&35 of 35","ispublic":1,"isfriend":0,"isfamily":0},{"id":"52365399834","owner":"187792860@N04","secret":"129f38601a","server":"65535","farm":66,"title":"Wilson's Warbler (Cardellina pusilla)","ispublic":1,"isfriend":0,"isfamily":0},{"id":"52365353384","owner":"187792860@N04","secret":"a289b96c10","server":"65535","farm":66,"title":"Wilson's Warbler (Cardellina pusilla)","ispublic":1,"isfriend":0,"isfamily":0},{"id":"52363236561","owner":"98053979@N00","secret":"63b1339768","server":"65535","farm":66,"title":"Posing Wilson's Warbler","ispublic":1,"isfriend":0,"isfamily":0},{"id":"52362688941","owner":"196264892@N08","secret":"3999fbb740","server":"65535","farm":66,"title":"Wilson's Warbler","ispublic":1,"isfriend":0,"isfamily":0},{"id":"52361748122","owner":"196264892@N08","secret":"db538d80a0","server":"65535","farm":66,"title":"Wilson's Warbler","ispublic":1,"isfriend":0,"isfamily":0},{"id":"52362688771","owner":"196264892@N08","secret":"061b9e3935","server":"65535","farm":66,"title":"Wilson's Warbler","ispublic":1,"isfriend":0,"isfamily":0},{"id":"52356035686","owner":"48311154@N02","secret":"7b4c8c1f88","server":"65535","farm":66,"title":"What you see is what you get","ispublic":1,"isfriend":0,"isfamily":0},{"id":"52355829201","owner":"196212229@N04","secret":"1141f409f0","server":"65535","farm":66,"title":"Wilson\u2019s Warbler","ispublic":1,"isfriend":0,"isfamily":0},{"id":"52355358461","owner":"184155060@N04","secret":"c4a7da8b7c","server":"65535","farm":66,"title":"33031 Paruline \u00e0 calotte noire (m\u00e2le) \/ Cardellina pusilla pusilla \/ Wilson's Warbler (pusilla)","ispublic":1,"isfriend":0,"isfamily":0},{"id":"52350516752","owner":"48311154@N02","secret":"7cf5d2eae0","server":"65535","farm":66,"title":"Look who turned up in my apple tree today","ispublic":1,"isfriend":0,"isfamily":0},{"id":"52351467971","owner":"48311154@N02","secret":"35479965e6","server":"65535","farm":66,"title":"Suddenly the warbler realizes a human is standing there","ispublic":1,"isfriend":0,"isfamily":0},{"id":"52350490397","owner":"65788177@N02","secret":"9c8bb1d118","server":"65535","farm":66,"title":"Wilson's Warbler","ispublic":1,"isfriend":0,"isfamily":0},{"id":"52349078157","owner":"187792860@N04","secret":"47e756ff5c","server":"65535","farm":66,"title":"Wilson's Warbler (Cardellina pusilla)","ispublic":1,"isfriend":0,"isfamily":0},{"id":"52350241788","owner":"187792860@N04","secret":"fca2a8e86c","server":"65535","farm":66,"title":"Wilson's Warbler (Cardellina pusilla)","ispublic":1,"isfriend":0,"isfamily":0},{"id":"52349010357","owner":"187792860@N04","secret":"a8d91f9c37","server":"65535","farm":66,"title":"Wilson's Warbler (Cardellina pusilla)","ispublic":1,"isfriend":0,"isfamily":0},{"id":"52344627390","owner":"187792860@N04","secret":"5944987d58","server":"65535","farm":66,"title":"Wilson's Warbler (Cardellina pusilla) female","ispublic":1,"isfriend":0,"isfamily":0},{"id":"52331572147","owner":"62043870@N05","secret":"ba7908f874","server":"65535","farm":66,"title":"Wilson's Warbler, Cardellina pusilla","ispublic":1,"isfriend":0,"isfamily":0},{"id":"52330283869","owner":"140318147@N08","secret":"a4413d2b8d","server":"65535","farm":66,"title":"Wilson's warbler (Cardellina pusilla) L4A0640","ispublic":1,"isfriend":0,"isfamily":0},{"id":"52329656521","owner":"187792860@N04","secret":"6551d7bf06","server":"65535","farm":66,"title":"Wilson's Warbler (Cardellina pusilla)","ispublic":1,"isfriend":0,"isfamily":0},{"id":"52329239219","owner":"77931884@N00","secret":"1f71f3beea","server":"65535","farm":66,"title":"Wilson's Warbler","ispublic":1,"isfriend":0,"isfamily":0},{"id":"52324284027","owner":"34368269@N04","secret":"9c1f466bc9","server":"65535","farm":66,"title":"Wilson's Warbler","ispublic":1,"isfriend":0,"isfamily":0},{"id":"52312957851","owner":"196264892@N08","secret":"7dc35afce1","server":"65535","farm":66,"title":"Wilsons Warbler feeds baby","ispublic":1,"isfriend":0,"isfamily":0},{"id":"52313400625","owner":"196264892@N08","secret":"c82790a901","server":"65535","farm":66,"title":"Wilson's Warbler","ispublic":1,"isfriend":0,"isfamily":0},{"id":"52298650985","owner":"187792860@N04","secret":"e3e7af000a","server":"65535","farm":66,"title":"Wilson's Warbler (Cardellina pusilla)","ispublic":1,"isfriend":0,"isfamily":0},{"id":"52270088606","owner":"196264892@N08","secret":"5ed7bebb75","server":"65535","farm":66,"title":"Wilson's Warbler","ispublic":1,"isfriend":0,"isfamily":0},{"id":"52270580485","owner":"196264892@N08","secret":"2f6a5634cc","server":"65535","farm":66,"title":"Wilson's Warbler","ispublic":1,"isfriend":0,"isfamily":0},{"id":"52270107943","owner":"196264892@N08","secret":"3ee6474cef","server":"65535","farm":66,"title":"Wilson's Warbler","ispublic":1,"isfriend":0,"isfamily":0},{"id":"52679635526","owner":"33610210@N05","secret":"b89a8abb02","server":"65535","farm":66,"title":"Wilson's Warbler, Cardellina pusilla","ispublic":1,"isfriend":0,"isfamily":0},{"id":"52582656224","owner":"33610210@N05","secret":"9f2e0d7876","server":"65535","farm":66,"title":"Wilson's warbler, Cardellina pusilla","ispublic":1,"isfriend":0,"isfamily":0},{"id":"52581931032","owner":"33610210@N05","secret":"045ef640a7","server":"65535","farm":66,"title":"Wilson's warbler, Cardellina pusilla","ispublic":1,"isfriend":0,"isfamily":0},{"id":"52582908718","owner":"33610210@N05","secret":"fa9056efbf","server":"65535","farm":66,"title":"Wilson's warbler, Cardellina pusilla","ispublic":1,"isfriend":0,"isfamily":0},{"id":"52580751923","owner":"153973412@N04","secret":"ef0e458c4e","server":"65535","farm":66,"title":"Wilson's Warbler-Cardellina pusilla, Iowa City, IA","ispublic":1,"isfriend":0,"isfamily":0},{"id":"52538853841","owner":"67306066@N03","secret":"0c1b5fd93e","server":"65535","farm":66,"title":"Wilson's Warbler (Cardellina pusilla)","ispublic":1,"isfriend":0,"isfamily":0},{"id":"52530723054","owner":"33610210@N05","secret":"b8694e0162","server":"65535","farm":66,"title":"Wilson's Warbler, Cardellina pusilla","ispublic":1,"isfriend":0,"isfamily":0},{"id":"52530441286","owner":"33610210@N05","secret":"8b77869cfd","server":"65535","farm":66,"title":"Wilson's Warbler, Cardellina pusilla","ispublic":1,"isfriend":0,"isfamily":0},{"id":"52481330197","owner":"13451078@N03","secret":"2f8e8b0c8b","server":"65535","farm":66,"title":"Wilson's Warbler (Cardellina pusilla)","ispublic":1,"isfriend":0,"isfamily":0},{"id":"52443000737","owner":"91827451@N06","secret":"cd6975ec74","server":"65535","farm":66,"title":"DSC_2360","ispublic":1,"isfriend":0,"isfamily":0},{"id":"52444029628","owner":"91827451@N06","secret":"fb0627eaf5","server":"65535","farm":66,"title":"DSC_2366","ispublic":1,"isfriend":0,"isfamily":0},{"id":"52426712012","owner":"139237357@N06","secret":"1ac488fd74","server":"65535","farm":66,"title":"Wilson's Warbler","ispublic":1,"isfriend":0,"isfamily":0},{"id":"52427662380","owner":"7261670@N03","secret":"4ece929cc6","server":"65535","farm":66,"title":"Wilson's Warbler","ispublic":1,"isfriend":0,"isfamily":0},{"id":"52417111162","owner":"13451078@N03","secret":"77dfa18af3","server":"65535","farm":66,"title":"Wilson's Warbler (Cardellina pusilla)","ispublic":1,"isfriend":0,"isfamily":0},{"id":"52405092981","owner":"59619528@N04","secret":"5f64a7bd5f","server":"65535","farm":66,"title":"Wilson's Warbler (Cardellina pusilla)","ispublic":1,"isfriend":0,"isfamily":0},{"id":"52405599513","owner":"59619528@N04","secret":"3287188118","server":"65535","farm":66,"title":"Wilson's Warbler (Cardellina pusilla)","ispublic":1,"isfriend":0,"isfamily":0},{"id":"52405599153","owner":"59619528@N04","secret":"80994fd6f4","server":"65535","farm":66,"title":"Wilson's Warbler (Cardellina pusilla)","ispublic":1,"isfriend":0,"isfamily":0},{"id":"52403898808","owner":"44801995@N02","secret":"ce43325588","server":"65535","farm":66,"title":"Wilson's Warbler Cardellina pusilla","ispublic":1,"isfriend":0,"isfamily":0},{"id":"52400621618","owner":"65148649@N04","secret":"03fb8d07b5","server":"65535","farm":66,"title":"Wilson's Warbler","ispublic":1,"isfriend":0,"isfamily":0},{"id":"52400621623","owner":"65148649@N04","secret":"7d41cd9d32","server":"65535","farm":66,"title":"Wilson's Warbler","ispublic":1,"isfriend":0,"isfamily":0},{"id":"52391913950","owner":"196264892@N08","secret":"2ec4d6bcb9","server":"65535","farm":66,"title":"Wilson's Warbler","ispublic":1,"isfriend":0,"isfamily":0},{"id":"52391731288","owner":"196264892@N08","secret":"165de380c7","server":"65535","farm":66,"title":"Wilson's Warbler","ispublic":1,"isfriend":0,"isfamily":0},{"id":"52391185766","owner":"156457454@N02","secret":"84d819c64a","server":"65535","farm":66,"title":"Cardellina pusilla 2 (Wilson's Warbler)","ispublic":1,"isfriend":0,"isfamily":0},{"id":"52375065871","owner":"196264892@N08","secret":"341ce5b844","server":"65535","farm":66,"title":"Wilson's Warbler.","ispublic":1,"isfriend":0,"isfamily":0},{"id":"52351788394","owner":"48311154@N02","secret":"7e6ed71ee2","server":"65535","farm":66,"title":"What does the warbler see?","ispublic":1,"isfriend":0,"isfamily":0},{"id":"52350128266","owner":"169335348@N08","secret":"48fa496c5e","server":"65535","farm":66,"title":"Wilson's Warbler-4","ispublic":1,"isfriend":0,"isfamily":0},{"id":"52328517805","owner":"193835300@N08","secret":"4ec8bd8846","server":"65535","farm":66,"title":"Paruline \u00e0 calotte noire - Wilson's warbler (Cardellina pusilla)1","ispublic":1,"isfriend":0,"isfamily":0},{"id":"52317549136","owner":"196264892@N08","secret":"78dcf0c652","server":"65535","farm":66,"title":"Wilson's Warbler","ispublic":1,"isfriend":0,"isfamily":0},{"id":"52273072832","owner":"34238008@N02","secret":"f14d27ac78","server":"65535","farm":66,"title":"Wilson's Warbler (Cardellina pusilla)","ispublic":1,"isfriend":0,"isfamily":0},{"id":"52273072732","owner":"34238008@N02","secret":"1ec1fc24aa","server":"65535","farm":66,"title":"Wilson's Warbler (Cardellina pusilla)","ispublic":1,"isfriend":0,"isfamily":0}]},"stat":"ok"}