{"photos":{"page":1,"pages":11,"perpage":100,"total":1029,"photo":[{"id":"52681525779","owner":"13451078@N03","secret":"27dded450f","server":"65535","farm":66,"title":"Winter Wren (Troglodytes hiemalis)","ispublic":1,"isfriend":0,"isfamily":0},{"id":"52680096492","owner":"194196140@N08","secret":"fbfc9f7da7","server":"65535","farm":66,"title":"Winter Wren (Troglodytes hiemalis)","ispublic":1,"isfriend":0,"isfamily":0},{"id":"52678423052","owner":"47533293@N04","secret":"a97c81c5e1","server":"65535","farm":66,"title":"Winter wren, Troglodytes hiemalis","ispublic":1,"isfriend":0,"isfamily":0},{"id":"52669452290","owner":"132165466@N08","secret":"6ea7e7ab22","server":"65535","farm":66,"title":"House Wren","ispublic":1,"isfriend":0,"isfamily":0},{"id":"52668518767","owner":"132165466@N08","secret":"ea9d4042a9","server":"65535","farm":66,"title":"House Wren","ispublic":1,"isfriend":0,"isfamily":0},{"id":"52658026839","owner":"136180232@N08","secret":"d0e9400d17","server":"65535","farm":66,"title":"Winter Wren (Troglodytes hiemalis) JTE_0108","ispublic":1,"isfriend":0,"isfamily":0},{"id":"52656662082","owner":"28631427@N00","secret":"15cc9605f3","server":"65535","farm":66,"title":"Winter Wren","ispublic":1,"isfriend":0,"isfamily":0},{"id":"52651199106","owner":"128537732@N06","secret":"743f6d3b64","server":"65535","farm":66,"title":"Winter Wren (Troglodytes hiemalis)","ispublic":1,"isfriend":0,"isfamily":0},{"id":"52644225761","owner":"64606186@N00","secret":"5bd190b719","server":"65535","farm":66,"title":"Winter Wren","ispublic":1,"isfriend":0,"isfamily":0},{"id":"52644698458","owner":"64606186@N00","secret":"c90a655d9b","server":"65535","farm":66,"title":"Winter Wren","ispublic":1,"isfriend":0,"isfamily":0},{"id":"52643451005","owner":"128537732@N06","secret":"81cc4f06cd","server":"65535","farm":66,"title":"Winter Wren (Troglodytes hiemalis)","ispublic":1,"isfriend":0,"isfamily":0},{"id":"52643450765","owner":"128537732@N06","secret":"202b313bb3","server":"65535","farm":66,"title":"Winter Wren (Troglodytes hiemalis)","ispublic":1,"isfriend":0,"isfamily":0},{"id":"52643012091","owner":"128537732@N06","secret":"2a9bc6f5d4","server":"65535","farm":66,"title":"Winter Wren (Troglodytes hiemalis)","ispublic":1,"isfriend":0,"isfamily":0},{"id":"52635676230","owner":"61241315@N00","secret":"1d4d13f553","server":"0","farm":0,"title":"Winter Wren_5644.MP4","ispublic":1,"isfriend":0,"isfamily":0},{"id":"52635498334","owner":"61241315@N00","secret":"c9c021faa7","server":"0","farm":0,"title":"Winter Wren_5644 COMPLETE.MP4","ispublic":1,"isfriend":0,"isfamily":0},{"id":"52635498484","owner":"61241315@N00","secret":"4693946f29","server":"65535","farm":66,"title":"Winter Wren_N5615","ispublic":1,"isfriend":0,"isfamily":0},{"id":"52635722768","owner":"61241315@N00","secret":"08f8ae7443","server":"65535","farm":66,"title":"Winter Wren_N5619","ispublic":1,"isfriend":0,"isfamily":0},{"id":"52635498434","owner":"61241315@N00","secret":"f52d423c6f","server":"65535","farm":66,"title":"Winter Wren_N5635","ispublic":1,"isfriend":0,"isfamily":0},{"id":"52634728537","owner":"61241315@N00","secret":"ce3f4a4b92","server":"65535","farm":66,"title":"Winter Wren_N5625","ispublic":1,"isfriend":0,"isfamily":0},{"id":"52635498399","owner":"61241315@N00","secret":"9ee20fb6f8","server":"65535","farm":66,"title":"Winter Wren_N5641","ispublic":1,"isfriend":0,"isfamily":0},{"id":"52635722728","owner":"61241315@N00","secret":"b67855276e","server":"65535","farm":66,"title":"Winter Wren_N5639","ispublic":1,"isfriend":0,"isfamily":0},{"id":"52634728497","owner":"61241315@N00","secret":"8ba21d5958","server":"65535","farm":66,"title":"Winter Wren_N5646","ispublic":1,"isfriend":0,"isfamily":0},{"id":"52635238556","owner":"61241315@N00","secret":"05770e7a57","server":"65535","farm":66,"title":"Winter Wren_N5651","ispublic":1,"isfriend":0,"isfamily":0},{"id":"52632997599","owner":"65788177@N02","secret":"d52000a136","server":"65535","farm":66,"title":"Winter Wren","ispublic":1,"isfriend":0,"isfamily":0},{"id":"52620185738","owner":"73654511@N05","secret":"78333e87de","server":"65535","farm":66,"title":"L0A1847-Winter Wren","ispublic":1,"isfriend":0,"isfamily":0},{"id":"52599469275","owner":"128537732@N06","secret":"7b705fc216","server":"65535","farm":66,"title":"Winter Wren (Troglodytes hiemalis)","ispublic":1,"isfriend":0,"isfamily":0},{"id":"52598503567","owner":"151381692@N04","secret":"d170bec718","server":"65535","farm":66,"title":"Winter Wren (Troglodytes hiemalis)","ispublic":1,"isfriend":0,"isfamily":0},{"id":"52599515518","owner":"151381692@N04","secret":"ff0db59fee","server":"65535","farm":66,"title":"Winter Wren (Troglodytes hiemalis)","ispublic":1,"isfriend":0,"isfamily":0},{"id":"52575788689","owner":"49114357@N08","secret":"c69e4e8554","server":"65535","farm":66,"title":"Winter Wren","ispublic":1,"isfriend":0,"isfamily":0},{"id":"52575812703","owner":"23016207@N05","secret":"b4d79472d6","server":"65535","farm":66,"title":"faster than a speeding bullet...","ispublic":1,"isfriend":0,"isfamily":0},{"id":"52566765454","owner":"36611483@N03","secret":"16b99a90c9","server":"65535","farm":66,"title":"Winter Wren?","ispublic":1,"isfriend":0,"isfamily":0},{"id":"52566147879","owner":"44034115@N08","secret":"92b30c6a1f","server":"65535","farm":66,"title":"Enter the Winter Wren on the Wildflower Trail","ispublic":1,"isfriend":0,"isfamily":0},{"id":"52566241615","owner":"130605131@N08","secret":"74e1e9c00a","server":"0","farm":0,"title":"MVI_3159","ispublic":1,"isfriend":0,"isfamily":0},{"id":"52565815061","owner":"130605131@N08","secret":"3805945423","server":"65535","farm":66,"title":"IMG_3168","ispublic":1,"isfriend":0,"isfamily":0},{"id":"52566243545","owner":"130605131@N08","secret":"431e918877","server":"65535","farm":66,"title":"IMG_3131","ispublic":1,"isfriend":0,"isfamily":0},{"id":"52565328802","owner":"130605131@N08","secret":"1d473c6efb","server":"65535","farm":66,"title":"IMG_3133","ispublic":1,"isfriend":0,"isfamily":0},{"id":"52565796201","owner":"130605131@N08","secret":"83c17d64fe","server":"65535","farm":66,"title":"IMG_3134","ispublic":1,"isfriend":0,"isfamily":0},{"id":"52566070719","owner":"130605131@N08","secret":"c0fdaaa33a","server":"65535","farm":66,"title":"IMG_3135","ispublic":1,"isfriend":0,"isfamily":0},{"id":"52566321913","owner":"130605131@N08","secret":"637bec6225","server":"65535","farm":66,"title":"IMG_3136","ispublic":1,"isfriend":0,"isfamily":0},{"id":"52565796066","owner":"130605131@N08","secret":"4e71ea0cce","server":"65535","farm":66,"title":"IMG_3138","ispublic":1,"isfriend":0,"isfamily":0},{"id":"52566243405","owner":"130605131@N08","secret":"9b67311076","server":"65535","farm":66,"title":"IMG_3137","ispublic":1,"isfriend":0,"isfamily":0},{"id":"52566070614","owner":"130605131@N08","secret":"04bccfdd1c","server":"65535","farm":66,"title":"IMG_3139","ispublic":1,"isfriend":0,"isfamily":0},{"id":"52565795991","owner":"130605131@N08","secret":"12332f7855","server":"65535","farm":66,"title":"IMG_3140","ispublic":1,"isfriend":0,"isfamily":0},{"id":"52565795961","owner":"130605131@N08","secret":"70d5219c7d","server":"65535","farm":66,"title":"IMG_3141","ispublic":1,"isfriend":0,"isfamily":0},{"id":"52565795926","owner":"130605131@N08","secret":"df996e6023","server":"65535","farm":66,"title":"IMG_3142","ispublic":1,"isfriend":0,"isfamily":0},{"id":"52565328472","owner":"130605131@N08","secret":"c03f1e2777","server":"65535","farm":66,"title":"IMG_3143","ispublic":1,"isfriend":0,"isfamily":0},{"id":"52566243220","owner":"130605131@N08","secret":"b5a9fbb720","server":"65535","farm":66,"title":"IMG_3144","ispublic":1,"isfriend":0,"isfamily":0},{"id":"52566243205","owner":"130605131@N08","secret":"a010989bc7","server":"65535","farm":66,"title":"IMG_3145","ispublic":1,"isfriend":0,"isfamily":0},{"id":"52565795766","owner":"130605131@N08","secret":"bcb8f6ab32","server":"65535","farm":66,"title":"IMG_3150","ispublic":1,"isfriend":0,"isfamily":0},{"id":"52566070464","owner":"130605131@N08","secret":"f3f35b0b03","server":"65535","farm":66,"title":"IMG_3146","ispublic":1,"isfriend":0,"isfamily":0},{"id":"52566321603","owner":"130605131@N08","secret":"00c408779d","server":"65535","farm":66,"title":"IMG_3151","ispublic":1,"isfriend":0,"isfamily":0},{"id":"52566070404","owner":"130605131@N08","secret":"2f57e89c92","server":"65535","farm":66,"title":"IMG_3152","ispublic":1,"isfriend":0,"isfamily":0},{"id":"52565795641","owner":"130605131@N08","secret":"88d5828fff","server":"65535","farm":66,"title":"IMG_3154","ispublic":1,"isfriend":0,"isfamily":0},{"id":"52565795696","owner":"130605131@N08","secret":"8cbc315257","server":"65535","farm":66,"title":"IMG_3153","ispublic":1,"isfriend":0,"isfamily":0},{"id":"52565795626","owner":"130605131@N08","secret":"970cefd8b0","server":"65535","farm":66,"title":"IMG_3155","ispublic":1,"isfriend":0,"isfamily":0},{"id":"52565795616","owner":"130605131@N08","secret":"929c5f98aa","server":"65535","farm":66,"title":"IMG_3158","ispublic":1,"isfriend":0,"isfamily":0},{"id":"52566070279","owner":"130605131@N08","secret":"0d81e3d9e9","server":"65535","farm":66,"title":"IMG_3160","ispublic":1,"isfriend":0,"isfamily":0},{"id":"52565328182","owner":"130605131@N08","secret":"72e47ee31a","server":"65535","farm":66,"title":"IMG_3161","ispublic":1,"isfriend":0,"isfamily":0},{"id":"52566321408","owner":"130605131@N08","secret":"51ac2989ec","server":"65535","farm":66,"title":"IMG_3162","ispublic":1,"isfriend":0,"isfamily":0},{"id":"52566321388","owner":"130605131@N08","secret":"e8027135c9","server":"65535","farm":66,"title":"IMG_3163","ispublic":1,"isfriend":0,"isfamily":0},{"id":"52566242850","owner":"130605131@N08","secret":"efb6fbdf00","server":"65535","farm":66,"title":"IMG_3165","ispublic":1,"isfriend":0,"isfamily":0},{"id":"52566321328","owner":"130605131@N08","secret":"04f8498ee9","server":"65535","farm":66,"title":"IMG_3166","ispublic":1,"isfriend":0,"isfamily":0},{"id":"52566242895","owner":"130605131@N08","secret":"e6122903b8","server":"65535","farm":66,"title":"IMG_3164","ispublic":1,"isfriend":0,"isfamily":0},{"id":"52566242825","owner":"130605131@N08","secret":"b827a8a505","server":"65535","farm":66,"title":"IMG_3167","ispublic":1,"isfriend":0,"isfamily":0},{"id":"52566321263","owner":"130605131@N08","secret":"06731359fd","server":"65535","farm":66,"title":"IMG_3169","ispublic":1,"isfriend":0,"isfamily":0},{"id":"52565327967","owner":"130605131@N08","secret":"5e5baa2630","server":"65535","farm":66,"title":"IMG_3170","ispublic":1,"isfriend":0,"isfamily":0},{"id":"52565795356","owner":"130605131@N08","secret":"208e266167","server":"65535","farm":66,"title":"IMG_3171","ispublic":1,"isfriend":0,"isfamily":0},{"id":"52566070004","owner":"130605131@N08","secret":"558f2ded17","server":"65535","farm":66,"title":"IMG_3172","ispublic":1,"isfriend":0,"isfamily":0},{"id":"52566242675","owner":"130605131@N08","secret":"3fdeddebfa","server":"65535","farm":66,"title":"IMG_3180","ispublic":1,"isfriend":0,"isfamily":0},{"id":"52566069909","owner":"130605131@N08","secret":"52d85f845a","server":"65535","farm":66,"title":"IMG_3195","ispublic":1,"isfriend":0,"isfamily":0},{"id":"52566321098","owner":"130605131@N08","secret":"5e565dbfee","server":"65535","farm":66,"title":"IMG_3196","ispublic":1,"isfriend":0,"isfamily":0},{"id":"52566069859","owner":"130605131@N08","secret":"08f0e67733","server":"65535","farm":66,"title":"IMG_3199","ispublic":1,"isfriend":0,"isfamily":0},{"id":"52566242610","owner":"130605131@N08","secret":"dd5f56ccc2","server":"65535","farm":66,"title":"IMG_3202","ispublic":1,"isfriend":0,"isfamily":0},{"id":"52566242570","owner":"130605131@N08","secret":"085ba4eaca","server":"65535","farm":66,"title":"IMG_3204","ispublic":1,"isfriend":0,"isfamily":0},{"id":"52566321003","owner":"130605131@N08","secret":"8d55a0ca18","server":"65535","farm":66,"title":"IMG_3207","ispublic":1,"isfriend":0,"isfamily":0},{"id":"52566242545","owner":"130605131@N08","secret":"54f8f9338f","server":"65535","farm":66,"title":"IMG_3211","ispublic":1,"isfriend":0,"isfamily":0},{"id":"52565794526","owner":"130605131@N08","secret":"680de9d8ea","server":"65535","farm":66,"title":"IMG_3121","ispublic":1,"isfriend":0,"isfamily":0},{"id":"52565327092","owner":"130605131@N08","secret":"410c9a5d5b","server":"65535","farm":66,"title":"IMG_3123","ispublic":1,"isfriend":0,"isfamily":0},{"id":"52566068909","owner":"130605131@N08","secret":"9a3a741f21","server":"65535","farm":66,"title":"IMG_3124","ispublic":1,"isfriend":0,"isfamily":0},{"id":"52565794371","owner":"130605131@N08","secret":"6d48a5afc0","server":"65535","farm":66,"title":"IMG_3132","ispublic":1,"isfriend":0,"isfamily":0},{"id":"52565327007","owner":"130605131@N08","secret":"2c3e8f919b","server":"65535","farm":66,"title":"IMG_3129","ispublic":1,"isfriend":0,"isfamily":0},{"id":"52566320133","owner":"130605131@N08","secret":"de7f36f27a","server":"65535","farm":66,"title":"Winter-Wren1","ispublic":1,"isfriend":0,"isfamily":0},{"id":"52566068729","owner":"130605131@N08","secret":"66bd0cf24a","server":"65535","farm":66,"title":"Winter-Wren2","ispublic":1,"isfriend":0,"isfamily":0},{"id":"52566320103","owner":"130605131@N08","secret":"015f0c332a","server":"65535","farm":66,"title":"Winter-Wren3","ispublic":1,"isfriend":0,"isfamily":0},{"id":"52566068674","owner":"130605131@N08","secret":"ef1cd9ccac","server":"65535","farm":66,"title":"Winter-Wren4","ispublic":1,"isfriend":0,"isfamily":0},{"id":"52565794191","owner":"130605131@N08","secret":"f9ef8835cb","server":"65535","farm":66,"title":"Winter-Wren5","ispublic":1,"isfriend":0,"isfamily":0},{"id":"52566320028","owner":"130605131@N08","secret":"3f47b0a44e","server":"65535","farm":66,"title":"Winter-Wren6","ispublic":1,"isfriend":0,"isfamily":0},{"id":"52566320003","owner":"130605131@N08","secret":"97e02d3e25","server":"65535","farm":66,"title":"Winter-Wren7","ispublic":1,"isfriend":0,"isfamily":0},{"id":"52566319973","owner":"130605131@N08","secret":"90c398fef9","server":"65535","farm":66,"title":"Winter-Wren8","ispublic":1,"isfriend":0,"isfamily":0},{"id":"52566241405","owner":"130605131@N08","secret":"66c0fd77cf","server":"65535","farm":66,"title":"Winter-Wren9","ispublic":1,"isfriend":0,"isfamily":0},{"id":"52566068564","owner":"130605131@N08","secret":"379293944a","server":"65535","farm":66,"title":"Winter-Wren10","ispublic":1,"isfriend":0,"isfamily":0},{"id":"52565794016","owner":"130605131@N08","secret":"e446ecd7d2","server":"65535","farm":66,"title":"IMG_3130","ispublic":1,"isfriend":0,"isfamily":0},{"id":"52563512356","owner":"64028051@N02","secret":"cf008bb46a","server":"65535","farm":66,"title":"Wren Winter Wren Dancing on Iceon ice","ispublic":1,"isfriend":0,"isfamily":0},{"id":"52562778105","owner":"33610210@N05","secret":"f815ddf57e","server":"65535","farm":66,"title":"Winter Wren, Troglodytes hiemalis","ispublic":1,"isfriend":0,"isfamily":0},{"id":"52561856407","owner":"33610210@N05","secret":"8f3babfc1f","server":"65535","farm":66,"title":"Winter Wren, Troglodytes hiemalis","ispublic":1,"isfriend":0,"isfamily":0},{"id":"52601177046","owner":"128537732@N06","secret":"00e56e146f","server":"65535","farm":66,"title":"Winter Wren (Troglodytes hiemalis)","ispublic":1,"isfriend":0,"isfamily":0},{"id":"52580227506","owner":"153973412@N04","secret":"715804d6eb","server":"65535","farm":66,"title":"Winter Wren-Troglodytes hiemalis, Hawkeye WMA, IA","ispublic":1,"isfriend":0,"isfamily":0},{"id":"52580692399","owner":"128537732@N06","secret":"8c21edb275","server":"65535","farm":66,"title":"Winter Wren (Troglodytes hiemalis)","ispublic":1,"isfriend":0,"isfamily":0},{"id":"52565817656","owner":"130605131@N08","secret":"b883c961c2","server":"65535","farm":66,"title":"IMG_3177","ispublic":1,"isfriend":0,"isfamily":0},{"id":"52565794436","owner":"130605131@N08","secret":"81e68fdb39","server":"65535","farm":66,"title":"IMG_3125","ispublic":1,"isfriend":0,"isfamily":0}]},"stat":"ok"}