{"photos":{"page":1,"pages":209,"perpage":100,"total":20880,"photo":[{"id":"52793028345","owner":"62043870@N05","secret":"35bcc5627c","server":"65535","farm":66,"title":"Wood Ducks, Aix sponsa","ispublic":1,"isfriend":0,"isfamily":0},{"id":"52792304840","owner":"128537732@N06","secret":"16f59fab81","server":"65535","farm":66,"title":"Wood Duck (Aix sponsa)","ispublic":1,"isfriend":0,"isfamily":0},{"id":"52791208726","owner":"22304442@N00","secret":"b910f1285c","server":"65535","farm":66,"title":"canard branchu (wood duck)","ispublic":1,"isfriend":0,"isfamily":0},{"id":"52790856034","owner":"44904157@N04","secret":"947ccdfc80","server":"65535","farm":66,"title":"Wood Duck","ispublic":1,"isfriend":0,"isfamily":0},{"id":"52790597040","owner":"42415395@N07","secret":"a11859768f","server":"65535","farm":66,"title":"Wood Duck -- Male (Aix sponsa); Albuquerque, NM, Tingley Beach Park [Lou Feltz]","ispublic":1,"isfriend":0,"isfamily":0},{"id":"52788312087","owner":"198024963@N07","secret":"b561b72938","server":"65535","farm":66,"title":"Wood Duck","ispublic":1,"isfriend":0,"isfamily":0},{"id":"52787669281","owner":"144980256@N07","secret":"9475c02da1","server":"65535","farm":66,"title":"Wood Duck (Aix sponsa)","ispublic":1,"isfriend":0,"isfamily":0},{"id":"52788112598","owner":"144980256@N07","secret":"2982f0e5ff","server":"65535","farm":66,"title":"Wood Duck (Aix sponsa)","ispublic":1,"isfriend":0,"isfamily":0},{"id":"52786960819","owner":"128537732@N06","secret":"88881c0ca9","server":"65535","farm":66,"title":"Wood Duck (Aix sponsa)","ispublic":1,"isfriend":0,"isfamily":0},{"id":"52785565569","owner":"23882583@N08","secret":"c2d7ebac98","server":"65535","farm":66,"title":"Wood Duck","ispublic":1,"isfriend":0,"isfamily":0},{"id":"52784201606","owner":"34368269@N04","secret":"11f13a056d","server":"65535","farm":66,"title":"Wood Duck Drake","ispublic":1,"isfriend":0,"isfamily":0},{"id":"52783761003","owner":"57126723@N07","secret":"327c792fe4","server":"65535","farm":66,"title":"Wood Duck\u2014Aix sponsa\u2014Greensprings--3","ispublic":1,"isfriend":0,"isfamily":0},{"id":"52783541944","owner":"57126723@N07","secret":"fcbba3ffce","server":"65535","farm":66,"title":"Wood Duck\u2014Aix sponsa\u2014Greensprings--4","ispublic":1,"isfriend":0,"isfamily":0},{"id":"52783541914","owner":"57126723@N07","secret":"8b40af5388","server":"65535","farm":66,"title":"Wood Duck\u2014Aix sponsa\u2014Greensprings-","ispublic":1,"isfriend":0,"isfamily":0},{"id":"52782754232","owner":"57126723@N07","secret":"5631e7f798","server":"65535","farm":66,"title":"Wood Ducks\u2014Aix sponsa\u2014Greensprings-","ispublic":1,"isfriend":0,"isfamily":0},{"id":"52782736267","owner":"181824639@N02","secret":"967ffa2f44","server":"65535","farm":66,"title":"Canard branchu ( Aix sponsa )","ispublic":1,"isfriend":0,"isfamily":0},{"id":"52781896450","owner":"100108154@N02","secret":"da5a274037","server":"65535","farm":66,"title":"Come Here Often?","ispublic":1,"isfriend":0,"isfamily":0},{"id":"52779676766","owner":"37242840@N07","secret":"e0e79e0199","server":"65535","farm":66,"title":"Wood Duck, Aix sponsa, female (2)","ispublic":1,"isfriend":0,"isfamily":0},{"id":"52780150468","owner":"37242840@N07","secret":"159be752f0","server":"65535","farm":66,"title":"Wood Duck, Aix sponsa, male (2)","ispublic":1,"isfriend":0,"isfamily":0},{"id":"52779144877","owner":"37242840@N07","secret":"5c3a996d11","server":"65535","farm":66,"title":"Wood Duck, Aix sponsa, male (9)","ispublic":1,"isfriend":0,"isfamily":0},{"id":"52779676486","owner":"37242840@N07","secret":"690b430d42","server":"65535","farm":66,"title":"Wood Ducks, Aix sponsa (5)","ispublic":1,"isfriend":0,"isfamily":0},{"id":"52779676341","owner":"37242840@N07","secret":"3317bcf44e","server":"65535","farm":66,"title":"Wood Ducks, Aix sponsa, male (4)","ispublic":1,"isfriend":0,"isfamily":0},{"id":"52779611388","owner":"42415395@N07","secret":"a114120d5b","server":"65535","farm":66,"title":"Wood Ducks -- Mated Pair (Aix sponsa); Albuquerque, NM, Tingley Beach Park [Lou Feltz]","ispublic":1,"isfriend":0,"isfamily":0},{"id":"52778156711","owner":"96854611@N02","secret":"97820db32e","server":"65535","farm":66,"title":"Wood Duck Pair","ispublic":1,"isfriend":0,"isfamily":0},{"id":"52778639528","owner":"98627816@N02","secret":"811d757ff1","server":"65535","farm":66,"title":"Wood Duck (Aix sponsa)","ispublic":1,"isfriend":0,"isfamily":0},{"id":"52777475392","owner":"197125371@N02","secret":"ce6fdf9a93","server":"65535","farm":66,"title":"Wood Duck Posing","ispublic":1,"isfriend":0,"isfamily":0},{"id":"52776488882","owner":"77931884@N00","secret":"29fbf681e5","server":"65535","farm":66,"title":"Mr. Wood Duck","ispublic":1,"isfriend":0,"isfamily":0},{"id":"52776279932","owner":"110185924@N07","secret":"67ba7eca16","server":"65535","farm":66,"title":"L'Anatra Sposa (Aix Sponsa)","ispublic":1,"isfriend":0,"isfamily":0},{"id":"52775589211","owner":"77798802@N05","secret":"cb4b627cba","server":"65535","farm":66,"title":"Wood duck","ispublic":1,"isfriend":0,"isfamily":0},{"id":"52775544826","owner":"169771858@N03","secret":"5429b48161","server":"65535","farm":66,"title":"Wood Duck #1 - 2021-05-08","ispublic":1,"isfriend":0,"isfamily":0},{"id":"52775087316","owner":"61069501@N00","secret":"0123150e4c","server":"65535","farm":66,"title":"wood ducks","ispublic":1,"isfriend":0,"isfamily":0},{"id":"52772334112","owner":"197628215@N07","secret":"56cbd63c9e","server":"65535","farm":66,"title":"Wood Duck (Aix sponsa)  03\/20\/2023 - 03\/22\/2023 #woodduck #duck #woodie #bestbackroad #bestbackroads #natgeoyourshots #natgeo100contest #natgeo #rutlandcountyvt #washingtoncountyny #whitehallny #wildphotography #naturephotography #adventurephotography #wi","ispublic":1,"isfriend":0,"isfamily":0},{"id":"52772736481","owner":"197125371@N02","secret":"dde57b84f1","server":"65535","farm":66,"title":"Wood Duck Pair","ispublic":1,"isfriend":0,"isfamily":0},{"id":"52772730011","owner":"197628215@N07","secret":"32d1cee397","server":"65535","farm":66,"title":"Wood Duck (Aix sponsa)  03\/20\/2023 - 03\/22\/2023 #woodduck #duck #woodie #bestbackroad #bestbackroads #natgeoyourshots #natgeo100contest #natgeo #rutlandcountyvt #washingtoncountyny #whitehallny #wildphotography #naturephotography #adventurephotography #wi","ispublic":1,"isfriend":0,"isfamily":0},{"id":"52772075932","owner":"197628215@N07","secret":"bfe331874b","server":"65535","farm":66,"title":"Wood Duck (Aix sponsa)  03\/20\/2023 - 03\/22\/2023 #woodduck #duck #woodie #bestbackroad #bestbackroads #natgeoyourshots #natgeo100contest #natgeo #rutlandcountyvt #washingtoncountyny #whitehallny #wildphotography #naturephotography #adventurephotography #wi","ispublic":1,"isfriend":0,"isfamily":0},{"id":"52772960163","owner":"197628215@N07","secret":"6f1c4e3c5c","server":"65535","farm":66,"title":"Wood Duck (Aix sponsa)  03\/20\/2023 - 03\/22\/2023 #woodduck #duck #woodie #bestbackroad #bestbackroads #natgeoyourshots #natgeo100contest #natgeo #rutlandcountyvt #washingtoncountyny #whitehallny #wildphotography #naturephotography #adventurephotography #wi","ispublic":1,"isfriend":0,"isfamily":0},{"id":"52772680804","owner":"100108154@N02","secret":"45a1831136","server":"65535","farm":66,"title":"Incoming!","ispublic":1,"isfriend":0,"isfamily":0},{"id":"52771330415","owner":"31334354@N04","secret":"0ce41b7008","server":"65535","farm":66,"title":"224A1045","ispublic":1,"isfriend":0,"isfamily":0},{"id":"52770900961","owner":"31334354@N04","secret":"f56e2d2a69","server":"65535","farm":66,"title":"224A0590","ispublic":1,"isfriend":0,"isfamily":0},{"id":"52770890021","owner":"9243885@N07","secret":"f3005f1fa7","server":"65535","farm":66,"title":"2023_03_25_097615","ispublic":1,"isfriend":0,"isfamily":0},{"id":"52770889976","owner":"9243885@N07","secret":"b72095260e","server":"65535","farm":66,"title":"2023_03_25_097646","ispublic":1,"isfriend":0,"isfamily":0},{"id":"52770889891","owner":"9243885@N07","secret":"c20ef4a840","server":"65535","farm":66,"title":"2023_03_25_097714","ispublic":1,"isfriend":0,"isfamily":0},{"id":"52770355017","owner":"9243885@N07","secret":"4293925e0e","server":"65535","farm":66,"title":"2023_03_25_097751","ispublic":1,"isfriend":0,"isfamily":0},{"id":"52770567456","owner":"44128780@N08","secret":"934bf43859","server":"65535","farm":66,"title":"Wood Duck","ispublic":1,"isfriend":0,"isfamily":0},{"id":"52771056518","owner":"197628215@N07","secret":"9f5a2e9c4f","server":"65535","farm":66,"title":"Wood Duck (Aix sponsa)  03\/20\/2023 - 03\/22\/2023 #woodduck #duck #woodie #bestbackroad #bestbackroads #natgeoyourshots #natgeo100contest #natgeo #rutlandcountyvt #washingtoncountyny #whitehallny #wildphotography #naturephotography #adventurephotography #wi","ispublic":1,"isfriend":0,"isfamily":0},{"id":"52770451686","owner":"197628215@N07","secret":"0381d9a0cb","server":"65535","farm":66,"title":"Wood Duck (Aix sponsa)  03\/20\/2023 - 03\/22\/2023 #woodduck #duck #woodie #bestbackroad #bestbackroads #natgeoyourshots #natgeo100contest #natgeo #rutlandcountyvt #washingtoncountyny #whitehallny #wildphotography #naturephotography #adventurephotography #wi","ispublic":1,"isfriend":0,"isfamily":0},{"id":"52770758685","owner":"197628215@N07","secret":"97563bf58d","server":"65535","farm":66,"title":"Wood Duck (Aix sponsa)  03\/20\/2023 - 03\/22\/2023 #woodduck #duck #woodie #bestbackroad #bestbackroads #natgeoyourshots #natgeo100contest #natgeo #rutlandcountyvt #washingtoncountyny #whitehallny #wildphotography #naturephotography #adventurephotography #wi","ispublic":1,"isfriend":0,"isfamily":0},{"id":"52770735888","owner":"197628215@N07","secret":"41313e80e7","server":"65535","farm":66,"title":"Wood Duck (Aix sponsa)  03\/20\/2023 - 03\/22\/2023 #woodduck #duck #woodie #bestbackroad #bestbackroads #natgeoyourshots #natgeo100contest #natgeo #rutlandcountyvt #washingtoncountyny #whitehallny #wildphotography #naturephotography #adventurephotography #wi","ispublic":1,"isfriend":0,"isfamily":0},{"id":"52770394179","owner":"197628215@N07","secret":"0efe1e54f7","server":"65535","farm":66,"title":"Wood Duck (Aix sponsa)  03\/20\/2023 - 03\/22\/2023 #woodduck #duck #woodie #bestbackroad #bestbackroads #natgeoyourshots #natgeo100contest #natgeo #rutlandcountyvt #washingtoncountyny #whitehallny #wildphotography #naturephotography #adventurephotography #wi","ispublic":1,"isfriend":0,"isfamily":0},{"id":"52770519960","owner":"125310260@N02","secret":"5cc7498196","server":"65535","farm":66,"title":"A Wood Duck at the Reifel Sanctuary","ispublic":1,"isfriend":0,"isfamily":0},{"id":"52769411372","owner":"197628215@N07","secret":"751d08fb3a","server":"65535","farm":66,"title":"Wood Duck (Aix sponsa)  03\/20\/2023 - 03\/22\/2023 #woodduck #duck #woodie #bestbackroad #bestbackroads #natgeoyourshots #natgeo100contest #natgeo #rutlandcountyvt #washingtoncountyny #whitehallny #wildphotography #naturephotography #adventurephotography #wi","ispublic":1,"isfriend":0,"isfamily":0},{"id":"51998272854","owner":"21456355@N04","secret":"77847116ff","server":"65535","farm":66,"title":"Wood Duck Pair","ispublic":1,"isfriend":0,"isfamily":0},{"id":"52769183539","owner":"197628215@N07","secret":"91d3420859","server":"65535","farm":66,"title":"Wood Duck (Aix sponsa)  03\/06\/2023 #woodduck #woody #woodies #duck #bestbackroad #bestbackroads #natgeoyourshots #natgeo100contest #natgeo #rutlandcountyvt #washingtoncountyny #whitehallny #wildphotography #naturephotography #adventurephotography #wildlif","ispublic":1,"isfriend":0,"isfamily":0},{"id":"52769078275","owner":"81058247@N08","secret":"c0e57edde3","server":"65535","farm":66,"title":"Wood Duck (Aix sponsa)","ispublic":1,"isfriend":0,"isfamily":0},{"id":"52769152723","owner":"81058247@N08","secret":"32d97356fc","server":"65535","farm":66,"title":"Wood Duck (Aix sponsa)","ispublic":1,"isfriend":0,"isfamily":0},{"id":"52768124912","owner":"81058247@N08","secret":"ff9b2969dd","server":"65535","farm":66,"title":"Wood Duck (Aix sponsa)","ispublic":1,"isfriend":0,"isfamily":0},{"id":"52768360045","owner":"42415395@N07","secret":"d50a00a81b","server":"65535","farm":66,"title":"Wood Duck -- Male (Aix sponsa); Albuquerque, NM, Tingley Beach Park [Lou Feltz","ispublic":1,"isfriend":0,"isfamily":0},{"id":"52767370575","owner":"67164820@N06","secret":"c8f5082389","server":"65535","farm":66,"title":"wood duck 1","ispublic":1,"isfriend":0,"isfamily":0},{"id":"52767446698","owner":"67164820@N06","secret":"50d33fe71a","server":"65535","farm":66,"title":"wood duck 2","ispublic":1,"isfriend":0,"isfamily":0},{"id":"52766419322","owner":"67164820@N06","secret":"f49d4d98cd","server":"65535","farm":66,"title":"wood duck 4","ispublic":1,"isfriend":0,"isfamily":0},{"id":"52767349610","owner":"197628215@N07","secret":"60fe6ccf46","server":"65535","farm":66,"title":"Wood Duck (Aix sponsa)  03\/06\/2023 #woodduck #woody #woodies #duck #bestbackroad #bestbackroads #natgeoyourshots #natgeo100contest #natgeo #rutlandcountyvt #washingtoncountyny #whitehallny #wildphotography #naturephotography #adventurephotography #wildlif","ispublic":1,"isfriend":0,"isfamily":0},{"id":"52765421463","owner":"197628215@N07","secret":"d6f0e5c066","server":"65535","farm":66,"title":"Wood Duck (Aix sponsa)  03\/06\/2023 #woodduck #woody #woodies #duck #bestbackroad #bestbackroads #natgeoyourshots #natgeo100contest #natgeo #rutlandcountyvt #washingtoncountyny #whitehallny #wildphotography #naturephotography #adventurephotography #wildlif","ispublic":1,"isfriend":0,"isfamily":0},{"id":"52764847091","owner":"197628215@N07","secret":"664d1aee0c","server":"65535","farm":66,"title":"Wood Duck (Aix sponsa)  03\/06\/2023 #woodduck #woody #woodies #duck #bestbackroad #bestbackroads #natgeoyourshots #natgeo100contest #natgeo #rutlandcountyvt #washingtoncountyny #whitehallny #wildphotography #naturephotography #adventurephotography #wildlif","ispublic":1,"isfriend":0,"isfamily":0},{"id":"52763934049","owner":"120449047@N06","secret":"a826ee8fe8","server":"65535","farm":66,"title":"Mrs. Woody (explored 3\/23\/23)","ispublic":1,"isfriend":0,"isfamily":0},{"id":"52763448103","owner":"100108154@N02","secret":"6350fd512c","server":"65535","farm":66,"title":"Breathtaking","ispublic":1,"isfriend":0,"isfamily":0},{"id":"52762949133","owner":"169771858@N03","secret":"e4facb8d62","server":"65535","farm":66,"title":"Wood Duck #1 - 2019-10-26","ispublic":1,"isfriend":0,"isfamily":0},{"id":"52762426279","owner":"169771858@N03","secret":"ac8635756f","server":"65535","farm":66,"title":"Wood Duck - 2020-10-10","ispublic":1,"isfriend":0,"isfamily":0},{"id":"52761806635","owner":"120449047@N06","secret":"14b397e357","server":"65535","farm":66,"title":"Wood Duck","ispublic":1,"isfriend":0,"isfamily":0},{"id":"52760870796","owner":"81058247@N08","secret":"db2b02b444","server":"65535","farm":66,"title":"Wood Duck (Aix sponsa)","ispublic":1,"isfriend":0,"isfamily":0},{"id":"52761277755","owner":"81058247@N08","secret":"e668e00b6e","server":"65535","farm":66,"title":"Wood Duck (Aix sponsa)","ispublic":1,"isfriend":0,"isfamily":0},{"id":"52757724837","owner":"197628215@N07","secret":"7053dbac29","server":"65535","farm":66,"title":"Wood Duck (Aix sponsa)  03\/06\/2023 #woodduck #woody #woodies #duck #bestbackroad #bestbackroads #natgeoyourshots #natgeo100contest #natgeo #rutlandcountyvt #washingtoncountyny #whitehallny #wildphotography #naturephotography #adventurephotography #wildlif","ispublic":1,"isfriend":0,"isfamily":0},{"id":"52757696175","owner":"81058247@N08","secret":"9e255bc793","server":"65535","farm":66,"title":"Wood Duck (Aix sponsa)","ispublic":1,"isfriend":0,"isfamily":0},{"id":"52755322542","owner":"52495017@N00","secret":"3fa9b0a9d9","server":"65535","farm":66,"title":"A pair of wood ducks along the Ottawa River near Mud Lake in Ottawa, Ontario","ispublic":1,"isfriend":0,"isfamily":0},{"id":"52755322422","owner":"52495017@N00","secret":"82de880d23","server":"65535","farm":66,"title":"A male wood duck along the Ottawa River near Mud Lake in Ottawa, Ontario","ispublic":1,"isfriend":0,"isfamily":0},{"id":"52756109454","owner":"52495017@N00","secret":"9202d40019","server":"65535","farm":66,"title":"A female wood duck along the Ottawa River near Mud Lake in Ottawa, Ontario","ispublic":1,"isfriend":0,"isfamily":0},{"id":"52756271990","owner":"52495017@N00","secret":"709c357053","server":"65535","farm":66,"title":"A female wood duck along the Ottawa River near Mud Lake in Ottawa, Ontario","ispublic":1,"isfriend":0,"isfamily":0},{"id":"52755862716","owner":"52495017@N00","secret":"6970fc4e83","server":"65535","farm":66,"title":"A male wood duck along the Ottawa River near Mud Lake in Ottawa, Ontario","ispublic":1,"isfriend":0,"isfamily":0},{"id":"52755866754","owner":"188209789@N06","secret":"e46e070fe3","server":"65535","farm":66,"title":"Paired Up","ispublic":1,"isfriend":0,"isfamily":0},{"id":"52755866714","owner":"188209789@N06","secret":"fb6e8379df","server":"65535","farm":66,"title":"Proud Wood Duck","ispublic":1,"isfriend":0,"isfamily":0},{"id":"52754719205","owner":"195656112@N04","secret":"086b27d148","server":"65535","farm":66,"title":"Wood Duck","ispublic":1,"isfriend":0,"isfamily":0},{"id":"52752586741","owner":"28314792@N05","secret":"4d07b79d20","server":"65535","farm":66,"title":"Aix sponsa - Canard carolin ou branchu (FR) - Wood duck (UK) - Pato joyuyo (ES) - Anatra sposa (IT) - Carolina-eend (NL) - Brautente (DE) - morsiosorsa (FI) - karolinka (PL) - kisasszonyr\u00e9ce (HU)","ispublic":1,"isfriend":0,"isfamily":0},{"id":"52751334192","owner":"182515684@N02","secret":"604ba27986","server":"65535","farm":66,"title":"Wood Duck Couple \u2026 OM7722-419","ispublic":1,"isfriend":0,"isfamily":0},{"id":"52746647202","owner":"195537536@N03","secret":"2098f24da1","server":"65535","farm":66,"title":"Wood Duck (Aix sponsa) Male","ispublic":1,"isfriend":0,"isfamily":0},{"id":"52746490580","owner":"197628215@N07","secret":"cacdb22019","server":"65535","farm":66,"title":"Wood Duck (Aix sponsa)  03\/05\/2023 #woodduck #woodie #woody #duck #bestbackroad #bestbackroads #natgeoyourshots #natgeo100contest #natgeo #rutlandcountyvt #washingtoncountyny #whitehallny #wildphotography #naturephotography #adventurephotography #wildlife","ispublic":1,"isfriend":0,"isfamily":0},{"id":"52745848668","owner":"71649471@N02","secret":"ed1f0dce41","server":"65535","farm":66,"title":"A Duck out of Water","ispublic":1,"isfriend":0,"isfamily":0},{"id":"52743959145","owner":"128537732@N06","secret":"51152a74fe","server":"65535","farm":66,"title":"Wood Duck (Aix sponsa)","ispublic":1,"isfriend":0,"isfamily":0},{"id":"52743757483","owner":"68635735@N02","secret":"eeb687d7a5","server":"65535","farm":66,"title":"Wood Duck (Aix sponsa) female","ispublic":1,"isfriend":0,"isfamily":0},{"id":"52743682935","owner":"68635735@N02","secret":"541637da33","server":"65535","farm":66,"title":"Wood Duck (Aix sponsa) male","ispublic":1,"isfriend":0,"isfamily":0},{"id":"52743402678","owner":"69778505@N02","secret":"8d8679bdc7","server":"65535","farm":66,"title":"Wood Duck ( Aix sponsa )","ispublic":1,"isfriend":0,"isfamily":0},{"id":"52743126429","owner":"143326780@N02","secret":"758283edde","server":"65535","farm":66,"title":"DSCN6443","ispublic":1,"isfriend":0,"isfamily":0},{"id":"52743106098","owner":"81058247@N08","secret":"4852c95891","server":"65535","farm":66,"title":"Wood Duck (Aix sponsa)","ispublic":1,"isfriend":0,"isfamily":0},{"id":"52743030780","owner":"81058247@N08","secret":"8da14d34a1","server":"65535","farm":66,"title":"Wood Duck (Aix sponsa)","ispublic":1,"isfriend":0,"isfamily":0},{"id":"52766957666","owner":"67164820@N06","secret":"74a1697c6b","server":"65535","farm":66,"title":"wood duck 5","ispublic":1,"isfriend":0,"isfamily":0},{"id":"52742871181","owner":"143326780@N02","secret":"8a15d1f662","server":"65535","farm":66,"title":"DSCN6446","ispublic":1,"isfriend":0,"isfamily":0},{"id":"52743287545","owner":"143326780@N02","secret":"2e72b356d1","server":"65535","farm":66,"title":"DSCN6452","ispublic":1,"isfriend":0,"isfamily":0},{"id":"52742871056","owner":"143326780@N02","secret":"120b48ea36","server":"65535","farm":66,"title":"DSCN6458","ispublic":1,"isfriend":0,"isfamily":0},{"id":"52743287350","owner":"143326780@N02","secret":"2fda0f07f3","server":"65535","farm":66,"title":"DSCN6462","ispublic":1,"isfriend":0,"isfamily":0},{"id":"52742356987","owner":"143326780@N02","secret":"7ab286886a","server":"65535","farm":66,"title":"DSCN6478","ispublic":1,"isfriend":0,"isfamily":0},{"id":"52743360478","owner":"143326780@N02","secret":"fd4e63bbea","server":"65535","farm":66,"title":"DSCN6568","ispublic":1,"isfriend":0,"isfamily":0},{"id":"52743287135","owner":"143326780@N02","secret":"9c618d9c93","server":"65535","farm":66,"title":"DSCN6573","ispublic":1,"isfriend":0,"isfamily":0}]},"stat":"ok"}