{"photos":{"page":1,"pages":12,"perpage":100,"total":1119,"photo":[{"id":"52707993207","owner":"77798802@N05","secret":"ba974c9d0d","server":"65535","farm":66,"title":"Wood Thrush","ispublic":1,"isfriend":0,"isfamily":0},{"id":"52707989186","owner":"169771858@N03","secret":"b16223b6e7","server":"65535","farm":66,"title":"Wood Thrush - 2020-06-13","ispublic":1,"isfriend":0,"isfamily":0},{"id":"52691954880","owner":"142134964@N04","secret":"7aafef0d40","server":"65535","farm":66,"title":"239- Zorzal de bosque (Hylocichla mustelina)","ispublic":1,"isfriend":0,"isfamily":0},{"id":"52592229382","owner":"30979614@N07","secret":"62512efc4d","server":"65535","farm":66,"title":"2022-05-10 Montrose Point 14","ispublic":1,"isfriend":0,"isfamily":0},{"id":"52580227131","owner":"153973412@N04","secret":"0873919cca","server":"65535","farm":66,"title":"Wood Thrush-Hylocichla mustelina, Iowa City, IA","ispublic":1,"isfriend":0,"isfamily":0},{"id":"52561312114","owner":"196840457@N07","secret":"bf3e4c9944","server":"65535","farm":66,"title":"Wood Thrush","ispublic":1,"isfriend":0,"isfamily":0},{"id":"52497024656","owner":"169771858@N03","secret":"df603bbdd5","server":"65535","farm":66,"title":"Wood Thrush - 2022-07-09","ispublic":1,"isfriend":0,"isfamily":0},{"id":"52451522773","owner":"76288515@N07","secret":"16dd97dcbd","server":"65535","farm":66,"title":"Wood Thrush  Hylocichla mustelina","ispublic":1,"isfriend":0,"isfamily":0},{"id":"52451273404","owner":"76288515@N07","secret":"38efab053f","server":"65535","farm":66,"title":"Wood Thrush  Hylocichla mustelina","ispublic":1,"isfriend":0,"isfamily":0},{"id":"52451449115","owner":"76288515@N07","secret":"8632fb5c2f","server":"65535","farm":66,"title":"Wood Thrush  Hylocichla mustelina","ispublic":1,"isfriend":0,"isfamily":0},{"id":"52451273304","owner":"76288515@N07","secret":"c16d0838f4","server":"65535","farm":66,"title":"Wood Thrush  Hylocichla mustelina","ispublic":1,"isfriend":0,"isfamily":0},{"id":"52451522578","owner":"76288515@N07","secret":"b37a29e3c8","server":"65535","farm":66,"title":"Wood Thrush  Hylocichla mustelina","ispublic":1,"isfriend":0,"isfamily":0},{"id":"52450479932","owner":"76288515@N07","secret":"c1aefa0b7c","server":"65535","farm":66,"title":"Wood Thrush  Hylocichla mustelina","ispublic":1,"isfriend":0,"isfamily":0},{"id":"52451001056","owner":"76288515@N07","secret":"4cf5f39730","server":"65535","farm":66,"title":"Wood Thrush  Hylocichla mustelina","ispublic":1,"isfriend":0,"isfamily":0},{"id":"52451448700","owner":"76288515@N07","secret":"e0f5c74efa","server":"65535","farm":66,"title":"Wood Thrush  Hylocichla mustelina","ispublic":1,"isfriend":0,"isfamily":0},{"id":"52450479652","owner":"76288515@N07","secret":"81fca0187a","server":"65535","farm":66,"title":"Wood Thrush  Hylocichla mustelina","ispublic":1,"isfriend":0,"isfamily":0},{"id":"52450479517","owner":"76288515@N07","secret":"6f829f63d5","server":"65535","farm":66,"title":"Wood Thrush  Hylocichla mustelina","ispublic":1,"isfriend":0,"isfamily":0},{"id":"52451272784","owner":"76288515@N07","secret":"80eaba7562","server":"65535","farm":66,"title":"Wood Thrush  Hylocichla mustelina","ispublic":1,"isfriend":0,"isfamily":0},{"id":"52449416507","owner":"21558080@N07","secret":"0777d7c46e","server":"65535","farm":66,"title":"Wood Thrush (Hylocichla mustelina) (sp. # 402)","ispublic":1,"isfriend":0,"isfamily":0},{"id":"52449240396","owner":"56983940@N06","secret":"ff547eac24","server":"65535","farm":66,"title":"Wood Thrush","ispublic":1,"isfriend":0,"isfamily":0},{"id":"52448716242","owner":"56983940@N06","secret":"b19737f7cb","server":"65535","farm":66,"title":"Wood Thrush","ispublic":1,"isfriend":0,"isfamily":0},{"id":"52426418833","owner":"169771858@N03","secret":"b800dfc2c3","server":"65535","farm":66,"title":"Wood Thrush - 2019-06-23","ispublic":1,"isfriend":0,"isfamily":0},{"id":"52377618681","owner":"190122705@N03","secret":"ec206ef556","server":"65535","farm":66,"title":"Wood Thrush","ispublic":1,"isfriend":0,"isfamily":0},{"id":"52362658012","owner":"169771858@N03","secret":"4797f19b22","server":"65535","farm":66,"title":"Wood Thrush - 2022-05-12","ispublic":1,"isfriend":0,"isfamily":0},{"id":"52352391125","owner":"120449047@N06","secret":"4736fce31a","server":"65535","farm":66,"title":"Wood Thrush (1 of 2)","ispublic":1,"isfriend":0,"isfamily":0},{"id":"52350000448","owner":"129803374@N05","secret":"6670e340bf","server":"65535","farm":66,"title":"Wood Thrush (Hylocichla mustelina)","ispublic":1,"isfriend":0,"isfamily":0},{"id":"52329957354","owner":"62848917@N07","secret":"60e0fd32fb","server":"65535","farm":66,"title":"Wood Thrush sunbathing - Hylocichla mustelina","ispublic":1,"isfriend":0,"isfamily":0},{"id":"52272123091","owner":"194548976@N05","secret":"5b1bc4d03e","server":"65535","farm":66,"title":"Wood Thrush","ispublic":1,"isfriend":0,"isfamily":0},{"id":"52248847753","owner":"92361032@N05","secret":"6c32c311c4","server":"65535","farm":66,"title":"Wood Thrush \/ Grive des bois ( Diane )","ispublic":1,"isfriend":0,"isfamily":0},{"id":"52198450713","owner":"184155060@N04","secret":"dfbd96d568","server":"65535","farm":66,"title":"27249 Grive des bois \/ Hylocichla mustelina \/ Wood Thrush","ispublic":1,"isfriend":0,"isfamily":0},{"id":"52198450603","owner":"184155060@N04","secret":"7858cdcfeb","server":"65535","farm":66,"title":"27249 Grive des bois \/ Hylocichla mustelina \/ Wood Thrush","ispublic":1,"isfriend":0,"isfamily":0},{"id":"52198450498","owner":"184155060@N04","secret":"e51f947dc2","server":"65535","farm":66,"title":"27249 Grive des bois \/ Hylocichla mustelina \/ Wood Thrush","ispublic":1,"isfriend":0,"isfamily":0},{"id":"52170494908","owner":"39445433@N02","secret":"89b9eae3a6","server":"65535","farm":66,"title":"Wood Thrush","ispublic":1,"isfriend":0,"isfamily":0},{"id":"52165068261","owner":"76617062@N08","secret":"7896bb4a94","server":"65535","farm":66,"title":"1.25875 Grive des bois \/ Hylocichla mustelina \/ Wood Thrush","ispublic":1,"isfriend":0,"isfamily":0},{"id":"52122369328","owner":"77056186@N00","secret":"7150cd67c4","server":"65535","farm":66,"title":"Wood thrush","ispublic":1,"isfriend":0,"isfamily":0},{"id":"52106888998","owner":"165841515@N03","secret":"d4a1d3d8f8","server":"65535","farm":66,"title":"Grive des bois \/ Wood Trush \/ (Hylocichla mustelina)","ispublic":1,"isfriend":0,"isfamily":0},{"id":"52105829162","owner":"165841515@N03","secret":"d0a818c67b","server":"65535","farm":66,"title":"Grive des bois \/ Wood Trush \/ (Hylocichla mustelina)","ispublic":1,"isfriend":0,"isfamily":0},{"id":"52101014339","owner":"21584095@N00","secret":"20f2a5b295","server":"65535","farm":66,"title":"Wood Thrush (Hylocichla mustelina)","ispublic":1,"isfriend":0,"isfamily":0},{"id":"52092265095","owner":"156369634@N07","secret":"a0369a2271","server":"65535","farm":66,"title":"Grive des Bois-Wood Thrush-18052022","ispublic":1,"isfriend":0,"isfamily":0},{"id":"52090730537","owner":"156369634@N07","secret":"146b64fab2","server":"65535","farm":66,"title":"Grive des Bois-Wood Thrush-18052022","ispublic":1,"isfriend":0,"isfamily":0},{"id":"52083503228","owner":"69947563@N07","secret":"fd508ea409","server":"65535","farm":66,"title":"Wood Thrush - Rondeau Provincial Park, Ontario, Canada","ispublic":1,"isfriend":0,"isfamily":0},{"id":"52083451036","owner":"13604536@N02","secret":"591a696b9b","server":"65535","farm":66,"title":"Wood Thrush Singing","ispublic":1,"isfriend":0,"isfamily":0},{"id":"52076665115","owner":"135315828@N06","secret":"697f8f3cd5","server":"65535","farm":66,"title":"wood thrush","ispublic":1,"isfriend":0,"isfamily":0},{"id":"52073937895","owner":"152894743@N08","secret":"56aeb6c390","server":"65535","farm":66,"title":"Wood Thrush","ispublic":1,"isfriend":0,"isfamily":0},{"id":"52073151574","owner":"145466593@N08","secret":"bf2d194bc6","server":"65535","farm":66,"title":"Wood Thrush","ispublic":1,"isfriend":0,"isfamily":0},{"id":"52072894761","owner":"24249459@N03","secret":"12fd77cf33","server":"65535","farm":66,"title":"wood thrush","ispublic":1,"isfriend":0,"isfamily":0},{"id":"52069214385","owner":"69387367@N05","secret":"15927eec12","server":"65535","farm":66,"title":"Wood_Thrush_8557od","ispublic":1,"isfriend":0,"isfamily":0},{"id":"52066177078","owner":"126271444@N08","secret":"ccb0feda46","server":"65535","farm":66,"title":"Wood Thrush (Hylocichla mustelina)","ispublic":1,"isfriend":0,"isfamily":0},{"id":"52066162441","owner":"126271444@N08","secret":"72a939362b","server":"65535","farm":66,"title":"Wood Thrush (Hylocichla mustelina)","ispublic":1,"isfriend":0,"isfamily":0},{"id":"52066176913","owner":"126271444@N08","secret":"ed16136ace","server":"65535","farm":66,"title":"Wood Thrush (Hylocichla mustelina)","ispublic":1,"isfriend":0,"isfamily":0},{"id":"52057603289","owner":"140985130@N07","secret":"e535793a97","server":"65535","farm":66,"title":"Wood Thrush","ispublic":1,"isfriend":0,"isfamily":0},{"id":"52055884420","owner":"49114357@N08","secret":"50e212d58c","server":"65535","farm":66,"title":"Wood Thrush","ispublic":1,"isfriend":0,"isfamily":0},{"id":"52053362456","owner":"13604536@N02","secret":"f2fac4b6e9","server":"65535","farm":66,"title":"Wood thrush","ispublic":1,"isfriend":0,"isfamily":0},{"id":"52053015451","owner":"182534679@N02","secret":"68043b38c2","server":"65535","farm":66,"title":"Hylocichla mustelina - Wood Thrush","ispublic":1,"isfriend":0,"isfamily":0},{"id":"52049748348","owner":"36013467@N07","secret":"71fb2b90fc","server":"65535","farm":66,"title":"Wood Thrush (Hylocichla mustelina)","ispublic":1,"isfriend":0,"isfamily":0},{"id":"52046368654","owner":"13451078@N03","secret":"1c530e37f0","server":"65535","farm":66,"title":"Wood Thrush (Hylocichla mustelina)","ispublic":1,"isfriend":0,"isfamily":0},{"id":"52043171861","owner":"93369624@N03","secret":"584ed243e5","server":"65535","farm":66,"title":"Wood Thrush, Hylocichla mustelina","ispublic":1,"isfriend":0,"isfamily":0},{"id":"51950553834","owner":"142134964@N04","secret":"8334bdc150","server":"65535","farm":66,"title":"239- Zorzal de bosque (Hylocichla mustelina)","ispublic":1,"isfriend":0,"isfamily":0},{"id":"51860803894","owner":"39138537@N06","secret":"eac736d33a","server":"65535","farm":66,"title":"Wood Thrush (Hylocichla mustelina)","ispublic":1,"isfriend":0,"isfamily":0},{"id":"51860468421","owner":"39138537@N06","secret":"2269177f0e","server":"65535","farm":66,"title":"Wood Thrush (Hylocichla mustelina)","ispublic":1,"isfriend":0,"isfamily":0},{"id":"51860551798","owner":"39138537@N06","secret":"16aa83af47","server":"65535","farm":66,"title":"Wood Thrush (Hylocichla mustelina)","ispublic":1,"isfriend":0,"isfamily":0},{"id":"51764835206","owner":"42415395@N07","secret":"278d2cfe48","server":"65535","farm":66,"title":"Hermit Thrush (Hylocichla mustelina); Santa Fe National Forest, NM, Thompson Ridge [Lou Feltz]","ispublic":1,"isfriend":0,"isfamily":0},{"id":"51757248339","owner":"42415395@N07","secret":"1c9029e80f","server":"65535","farm":66,"title":"Hermit Thrush -- Juvenile (Hylocichla mustelina); Santa Fe National Forest, NM, Thompson Ridge [Lou Feltz]","ispublic":1,"isfriend":0,"isfamily":0},{"id":"51749629005","owner":"42415395@N07","secret":"1b0d6a32e0","server":"65535","farm":66,"title":"Hermit Thrush -- Juvenile (Hylocichla mustelina); Santa Fe National Forest, NM, Thompson Ridge [Lou Feltz]","ispublic":1,"isfriend":0,"isfamily":0},{"id":"51737174301","owner":"119468907@N03","secret":"5fd95e1aef","server":"0","farm":0,"title":"Grive des bois","ispublic":1,"isfriend":0,"isfamily":0},{"id":"51733198393","owner":"12639178@N07","secret":"5d5910d1a0","server":"65535","farm":66,"title":"Walddrossel (Wood Thrush)","ispublic":1,"isfriend":0,"isfamily":0},{"id":"51716510772","owner":"42415395@N07","secret":"7e0569ab84","server":"65535","farm":66,"title":"Hermit Thrush (Hylocichla mustelina); Santa Fe National Forest, NM, Thompson Ridge [Lou Feltz]","ispublic":1,"isfriend":0,"isfamily":0},{"id":"51710985486","owner":"56686021@N04","secret":"6df0889644","server":"65535","farm":66,"title":"Wood Thrush","ispublic":1,"isfriend":0,"isfamily":0},{"id":"51674184616","owner":"42415395@N07","secret":"92c8679706","server":"65535","farm":66,"title":"Hermit Thrush -- Juvenile (Hylocichla mustelina); Santa Fe National Forest, NM, Thompson Ridge [Lou Feltz]","ispublic":1,"isfriend":0,"isfamily":0},{"id":"51635236854","owner":"36437800@N02","secret":"343f0c596e","server":"65535","farm":66,"title":"Willow Tree songbird 2; Wood Thrush (hylocichla mustelina)","ispublic":1,"isfriend":0,"isfamily":0},{"id":"51634581906","owner":"36437800@N02","secret":"aa438da92c","server":"65535","farm":66,"title":"Willow Tree songbird 3; Wood Thrush (hylocichla mustelina)","ispublic":1,"isfriend":0,"isfamily":0},{"id":"51635227939","owner":"36437800@N02","secret":"8f66787eb8","server":"65535","farm":66,"title":"Willow Tree songbird 4; Wood Thrush (hylocichla mustelina)","ispublic":1,"isfriend":0,"isfamily":0},{"id":"51634581751","owner":"36437800@N02","secret":"a9f1a3298f","server":"65535","farm":66,"title":"Willow Tree songbird 5; Wood Thrush (hylocichla mustelina)","ispublic":1,"isfriend":0,"isfamily":0},{"id":"51556113068","owner":"84175980@N00","secret":"2a764d955c","server":"65535","farm":66,"title":"20210808 Wood Thrush (Hylocichla mustelina) (3)","ispublic":1,"isfriend":0,"isfamily":0},{"id":"51513036683","owner":"84175980@N00","secret":"67c0d4dfdc","server":"65535","farm":66,"title":"20210808 Wood Thrush (Hylocichla mustelina) (2)","ispublic":1,"isfriend":0,"isfamily":0},{"id":"51461021849","owner":"156927669@N08","secret":"c105fd015e","server":"65535","farm":66,"title":"Zorzal del Bosque","ispublic":1,"isfriend":0,"isfamily":0},{"id":"51445448747","owner":"84175980@N00","secret":"934f60d114","server":"65535","farm":66,"title":"20210808 Wood Thrush (Hylocichla mustelina) (1)","ispublic":1,"isfriend":0,"isfamily":0},{"id":"51418096945","owner":"42415395@N07","secret":"6f26f14313","server":"65535","farm":66,"title":"Hermit Thrush -- Juvenile (Hylocichla mustelina); Santa Fe National Forest, NM, Thompson Ridge [Lou Feltz]","ispublic":1,"isfriend":0,"isfamily":0},{"id":"51383849822","owner":"32406637@N06","secret":"74e685b030","server":"65535","farm":66,"title":"wood thrush juvenile 2020.7.8 ny rye marshlands-","ispublic":1,"isfriend":0,"isfamily":0},{"id":"51384848819","owner":"42415395@N07","secret":"09c3afed76","server":"65535","farm":66,"title":"Hermit Thrush -- Juvenile (Hylocichla mustelina); Santa Fe National Forest, NM, Thompson Ridge [Lou Feltz]","ispublic":1,"isfriend":0,"isfamily":0},{"id":"51380302719","owner":"42415395@N07","secret":"7f755de3f3","server":"65535","farm":66,"title":"Bath Time -- Hermit Thrush, Juvenile (Hylocichla mustelina); Santa Fe National Forest, NM, Thompson Ridge [Lou Feltz]","ispublic":1,"isfriend":0,"isfamily":0},{"id":"51365321123","owner":"42415395@N07","secret":"3c8e182672","server":"65535","farm":66,"title":"Hermit Thrush -- Juvenile (Hylocichla mustelina); Santa Fe National Forest, NM, Thompson Ridge [Lou Feltz]","ispublic":1,"isfriend":0,"isfamily":0},{"id":"51351394388","owner":"191038887@N04","secret":"691afdf073","server":"65535","farm":66,"title":"Grive des bois (Hylocichla mustelina)","ispublic":1,"isfriend":0,"isfamily":0},{"id":"51339670078","owner":"42415395@N07","secret":"bb8cf48ef9","server":"65535","farm":66,"title":"Hermit Thrush -- Juvenile (Hylocichla mustelina); Santa Fe National Forest, NM, Thompson Ridge [Lou Feltz]","ispublic":1,"isfriend":0,"isfamily":0},{"id":"51320963259","owner":"10105106@N07","secret":"fdbfa42086","server":"65535","farm":66,"title":"Wood Thrush","ispublic":1,"isfriend":0,"isfamily":0},{"id":"51314029955","owner":"42415395@N07","secret":"04371f68f9","server":"65535","farm":66,"title":"Hermit Thrush -- Juvenile (Hylocichla mustelina); Santa Fe National Forest, NM, Thompson Ridge [Lou Feltz]","ispublic":1,"isfriend":0,"isfamily":0},{"id":"51289372482","owner":"39138537@N06","secret":"3d45139d2f","server":"0","farm":0,"title":"Wood Thrush (Hylocichla mustelina)","ispublic":1,"isfriend":0,"isfamily":0},{"id":"51289371112","owner":"39138537@N06","secret":"aa86a6ecf9","server":"0","farm":0,"title":"Wood Thrush (Hylocichla mustelina)","ispublic":1,"isfriend":0,"isfamily":0},{"id":"51285588054","owner":"25899079@N08","secret":"2e7a23b102","server":"65535","farm":66,"title":"Wood Thrush (8229)","ispublic":1,"isfriend":0,"isfamily":0},{"id":"51282632916","owner":"92361032@N05","secret":"26ffe47e11","server":"65535","farm":66,"title":"Wood Thrush \/ Grive des bois ( Diane )","ispublic":1,"isfriend":0,"isfamily":0},{"id":"51281434546","owner":"61021753@N02","secret":"3f8414dbdd","server":"65535","farm":66,"title":"n278_w1150","ispublic":1,"isfriend":0,"isfamily":0},{"id":"51281601508","owner":"61021753@N02","secret":"a9e5363a35","server":"65535","farm":66,"title":"n26_w1150","ispublic":1,"isfriend":0,"isfamily":0},{"id":"51280034067","owner":"42415395@N07","secret":"435878a985","server":"65535","farm":66,"title":"Hermit Thrush (Hylocichla mustelina); Santa Fe National Forest, NM, Thompson Ridge [Lou Feltz]","ispublic":1,"isfriend":0,"isfamily":0},{"id":"51278709538","owner":"61021753@N02","secret":"5c20b5550d","server":"65535","farm":66,"title":"n256_w1150","ispublic":1,"isfriend":0,"isfamily":0},{"id":"51277362948","owner":"61021753@N02","secret":"eaacb87c26","server":"65535","farm":66,"title":"n41_w1150","ispublic":1,"isfriend":0,"isfamily":0},{"id":"51266126031","owner":"61021753@N02","secret":"d7a48f38e8","server":"65535","farm":66,"title":"n278_w1150","ispublic":1,"isfriend":0,"isfamily":0},{"id":"52221644263","owner":"80648919@N08","secret":"462425e406","server":"65535","farm":66,"title":"Wood Thrush","ispublic":1,"isfriend":0,"isfamily":0},{"id":"51880988999","owner":"146080804@N02","secret":"fe7583420e","server":"65535","farm":66,"title":"Wood Thrush (Hylocichla mustelina)","ispublic":1,"isfriend":0,"isfamily":0},{"id":"51830789177","owner":"12639178@N07","secret":"86929217cf","server":"65535","farm":66,"title":"Walddrossel im New York Botanical Garden","ispublic":1,"isfriend":0,"isfamily":0},{"id":"51634808703","owner":"36437800@N02","secret":"a3b5d009f5","server":"65535","farm":66,"title":"Willow Tree songbird 1; Wood Thrush (hylocichla mustelina)","ispublic":1,"isfriend":0,"isfamily":0}]},"stat":"ok"}