{"photos":{"page":1,"pages":5,"perpage":100,"total":494,"photo":[{"id":"52580667605","owner":"153973412@N04","secret":"b3629914d0","server":"65535","farm":66,"title":"Worm-eating Warbler-Helmitheros vermivorum, GSM, TN","ispublic":1,"isfriend":0,"isfamily":0},{"id":"52426337306","owner":"125605310@N07","secret":"66b3ac6748","server":"65535","farm":66,"title":"Worm-eating Warbler, Helmitheros vermivorum","ispublic":1,"isfriend":0,"isfamily":0},{"id":"52426781255","owner":"62043870@N05","secret":"daf22a6476","server":"65535","farm":66,"title":"Worm-eating Warbler, Helmitheros vermivorum","ispublic":1,"isfriend":0,"isfamily":0},{"id":"52426781235","owner":"62043870@N05","secret":"d3010ac8cf","server":"65535","farm":66,"title":"Worm-eating Warbler, Helmitheros vermivorum","ispublic":1,"isfriend":0,"isfamily":0},{"id":"52424047390","owner":"62043870@N05","secret":"e1faec997f","server":"65535","farm":66,"title":"Worm-eating Warbler, Helmitheros vermivorum","ispublic":1,"isfriend":0,"isfamily":0},{"id":"52217683362","owner":"10577082@N05","secret":"bf519575bc","server":"65535","farm":66,"title":"Worm-eating Warbler","ispublic":1,"isfriend":0,"isfamily":0},{"id":"52140986018","owner":"32599741@N03","secret":"480b397e96","server":"65535","farm":66,"title":"meal time","ispublic":1,"isfriend":0,"isfamily":0},{"id":"52125217940","owner":"135315828@N06","secret":"79acea2ea1","server":"65535","farm":66,"title":"worm-eating warbler","ispublic":1,"isfriend":0,"isfamily":0},{"id":"52124961484","owner":"135315828@N06","secret":"30dbfd4914","server":"65535","farm":66,"title":"worm-eating warbler","ispublic":1,"isfriend":0,"isfamily":0},{"id":"52057234870","owner":"49114357@N08","secret":"cf2438f302","server":"65535","farm":66,"title":"Worm-eating Warbler","ispublic":1,"isfriend":0,"isfamily":0},{"id":"52092523954","owner":"33573751@N04","secret":"924f94461d","server":"65535","farm":66,"title":"Worm-eating Warbler (Helmitheros vermivorum) - Weston, Connecticut","ispublic":1,"isfriend":0,"isfamily":0},{"id":"52085385876","owner":"111701633@N07","secret":"38a928bb36","server":"65535","farm":66,"title":"Worm-eating_Warbler","ispublic":1,"isfriend":0,"isfamily":0},{"id":"52084103207","owner":"33573751@N04","secret":"67a786f27e","server":"65535","farm":66,"title":"Worm-eating Warbler (Helmitheros vermivorum) - Weston, Connecticut","ispublic":1,"isfriend":0,"isfamily":0},{"id":"52079138399","owner":"33573751@N04","secret":"d94dfc81bb","server":"65535","farm":66,"title":"Worm-eating Warbler (Helmitheros vermivorum) - Weston, Connecticut","ispublic":1,"isfriend":0,"isfamily":0},{"id":"52052316994","owner":"9765210@N03","secret":"b34cb740a7","server":"65535","farm":66,"title":"Worm-eating Warbler (Helmitheros vermivorum)","ispublic":1,"isfriend":0,"isfamily":0},{"id":"52039530553","owner":"120449047@N06","secret":"5b4a8ca6d1","server":"65535","farm":66,"title":"Worm-Eating Warbler (7\/35)","ispublic":1,"isfriend":0,"isfamily":0},{"id":"52006723553","owner":"38514062@N03","secret":"f87792f2dc","server":"65535","farm":66,"title":"Worm-eating Warbler (Helmitheros vermivorum)","ispublic":1,"isfriend":0,"isfamily":0},{"id":"52006666601","owner":"38514062@N03","secret":"aef16a650e","server":"65535","farm":66,"title":"Worm-eating Warbler (Helmitheros vermivorum)","ispublic":1,"isfriend":0,"isfamily":0},{"id":"51932167658","owner":"34674638@N05","secret":"272ea35280","server":"65535","farm":66,"title":"Worm-eating warbler","ispublic":1,"isfriend":0,"isfamily":0},{"id":"51710074724","owner":"194341957@N06","secret":"8934c28d64","server":"65535","farm":66,"title":"worm-eating warbler","ispublic":1,"isfriend":0,"isfamily":0},{"id":"51436578658","owner":"12941907@N03","secret":"067fb98d6f","server":"65535","farm":66,"title":"Worm-eating Warbler","ispublic":1,"isfriend":0,"isfamily":0},{"id":"51316711097","owner":"49114357@N08","secret":"8ac076d8d7","server":"65535","farm":66,"title":"Worm-eating Warbler","ispublic":1,"isfriend":0,"isfamily":0},{"id":"51316504693","owner":"48014585@N00","secret":"d033e45cc9","server":"65535","farm":66,"title":"Worm-eating Warbler","ispublic":1,"isfriend":0,"isfamily":0},{"id":"51280691897","owner":"61021753@N02","secret":"597f92f80d","server":"65535","farm":66,"title":"n114_w1150","ispublic":1,"isfriend":0,"isfamily":0},{"id":"51276444997","owner":"61021753@N02","secret":"6112752937","server":"65535","farm":66,"title":"n200_w1150","ispublic":1,"isfriend":0,"isfamily":0},{"id":"51247347560","owner":"61021753@N02","secret":"9c5a02888c","server":"65535","farm":66,"title":"n21_w1150","ispublic":1,"isfriend":0,"isfamily":0},{"id":"51224079674","owner":"49114357@N08","secret":"7a4d6a23a7","server":"65535","farm":66,"title":"Worm-eating Warbler","ispublic":1,"isfriend":0,"isfamily":0},{"id":"51224105787","owner":"33573751@N04","secret":"4fd353c713","server":"65535","farm":66,"title":"Worm-eating Warbler (Helmitheros vermivorum) - Waterloo Valley, New Jersey, USA","ispublic":1,"isfriend":0,"isfamily":0},{"id":"51224774301","owner":"33573751@N04","secret":"2317575704","server":"65535","farm":66,"title":"Worm-eating Warbler (Helmitheros vermivorum) - Kent, Connecticut","ispublic":1,"isfriend":0,"isfamily":0},{"id":"51209183451","owner":"40928097@N07","secret":"3c87acda5b","server":"65535","farm":66,"title":"Worm-eating Warbler","ispublic":1,"isfriend":0,"isfamily":0},{"id":"51203793583","owner":"135315828@N06","secret":"81c55c1bfb","server":"65535","farm":66,"title":"IMG_7352","ispublic":1,"isfriend":0,"isfamily":0},{"id":"51203588336","owner":"135315828@N06","secret":"ca2e6186c7","server":"65535","farm":66,"title":"IMG_7381","ispublic":1,"isfriend":0,"isfamily":0},{"id":"51172833772","owner":"40003624@N06","secret":"0455d1365c","server":"65535","farm":66,"title":"Worm-eating Warbler","ispublic":1,"isfriend":0,"isfamily":0},{"id":"51158801752","owner":"32599741@N03","secret":"8578c5f6da","server":"65535","farm":66,"title":"2021 - Day 107:  not currently eating worms","ispublic":1,"isfriend":0,"isfamily":0},{"id":"51158940230","owner":"60408271@N08","secret":"66020c29f0","server":"65535","farm":66,"title":"Worm-eating Warbler","ispublic":1,"isfriend":0,"isfamily":0},{"id":"51138776812","owner":"120449047@N06","secret":"f261dd5442","server":"65535","farm":66,"title":"Worm-Eating Warbler (lifer)","ispublic":1,"isfriend":0,"isfamily":0},{"id":"51131861598","owner":"190923251@N05","secret":"a5bbd1b7c1","server":"65535","farm":66,"title":"Worm-eating Warbler","ispublic":1,"isfriend":0,"isfamily":0},{"id":"51120773925","owner":"23438144@N04","secret":"5bd7d5f54d","server":"0","farm":0,"title":"Worm-eating Warbler singing","ispublic":1,"isfriend":0,"isfamily":0},{"id":"51117933273","owner":"60408271@N08","secret":"d5fdcb79c4","server":"65535","farm":66,"title":"Worm-eating Warbler","ispublic":1,"isfriend":0,"isfamily":0},{"id":"51102902735","owner":"23438144@N04","secret":"d61036fc03","server":"65535","farm":66,"title":"Worm-eating Warbler singing","ispublic":1,"isfriend":0,"isfamily":0},{"id":"51048231848","owner":"38200099@N07","secret":"de0ab5973c","server":"65535","farm":66,"title":"Worm-eating warbler in the leafs","ispublic":1,"isfriend":0,"isfamily":0},{"id":"51025670247","owner":"38200099@N07","secret":"2520854425","server":"65535","farm":66,"title":"An ant in the bill with worm-eating warbler","ispublic":1,"isfriend":0,"isfamily":0},{"id":"51022484473","owner":"61021753@N02","secret":"8368e7aca9","server":"65535","farm":66,"title":"n540_w1150","ispublic":1,"isfriend":0,"isfamily":0},{"id":"51023215581","owner":"61021753@N02","secret":"0b974eb531","server":"65535","farm":66,"title":"n535_w1150","ispublic":1,"isfriend":0,"isfamily":0},{"id":"50844554531","owner":"54100598@N08","secret":"d4f73161d4","server":"65535","farm":66,"title":"Worm-eating Warbler (Helmitheros vermivorum)","ispublic":1,"isfriend":0,"isfamily":0},{"id":"50827044967","owner":"25899079@N08","secret":"c38829a97f","server":"65535","farm":66,"title":"Worm-eating Warbler (4837)","ispublic":1,"isfriend":0,"isfamily":0},{"id":"50732081537","owner":"54655970@N06","secret":"5615030676","server":"65535","farm":66,"title":"WARB-...-Helmitheros-vermivorum-..","ispublic":1,"isfriend":0,"isfamily":0},{"id":"50708598201","owner":"190773540@N03","secret":"110b85f46d","server":"65535","farm":66,"title":"Worm-eating Warbler in Nearctic Summer Deciduous Forest, USA","ispublic":1,"isfriend":0,"isfamily":0},{"id":"50584987771","owner":"34674638@N05","secret":"923ebc730d","server":"65535","farm":66,"title":"Worm-eating Warbler","ispublic":1,"isfriend":0,"isfamily":0},{"id":"50563999486","owner":"61021753@N02","secret":"9ffdd02b3a","server":"65535","farm":66,"title":"n159_w1150","ispublic":1,"isfriend":0,"isfamily":0},{"id":"50432457066","owner":"12185056@N02","secret":"cf36f9d53b","server":"65535","farm":66,"title":"Worm-eating Warbler (Helmitheros vermivorum)","ispublic":1,"isfriend":0,"isfamily":0},{"id":"50269124258","owner":"187945117@N04","secret":"cc9d3c3c1c","server":"65535","farm":66,"title":"Worm-Eating Warbler (Helmitheros vermivorum)","ispublic":1,"isfriend":0,"isfamily":0},{"id":"50062327623","owner":"18581013@N04","secret":"7fd2a10c4c","server":"65535","farm":66,"title":"Worm-eating Warbler","ispublic":1,"isfriend":0,"isfamily":0},{"id":"50018679058","owner":"131708321@N02","secret":"7323af240c","server":"65535","farm":66,"title":"Worm-eating Warbler (Helmitheros vermivorum), New Haven, Connecticut, United States","ispublic":1,"isfriend":0,"isfamily":0},{"id":"49907242212","owner":"67164820@N06","secret":"39800e732f","server":"65535","farm":66,"title":"worm-eating warbler","ispublic":1,"isfriend":0,"isfamily":0},{"id":"49906937656","owner":"67164820@N06","secret":"2ff698316c","server":"65535","farm":66,"title":"worm-eating warbler 2","ispublic":1,"isfriend":0,"isfamily":0},{"id":"49907241107","owner":"67164820@N06","secret":"8f21861649","server":"65535","farm":66,"title":"worm-eating warbler 3","ispublic":1,"isfriend":0,"isfamily":0},{"id":"52137510709","owner":"65632611@N00","secret":"bb6a90672b","server":"65535","farm":66,"title":"Forest Park: Worm-eating Warbler B (4130)","ispublic":1,"isfriend":0,"isfamily":0},{"id":"52136245742","owner":"65632611@N00","secret":"ab4fecbd47","server":"65535","farm":66,"title":"Forest Park: Worm-eating Warbler (4126)","ispublic":1,"isfriend":0,"isfamily":0},{"id":"52137510674","owner":"65632611@N00","secret":"8dd4ca5a50","server":"65535","farm":66,"title":"Forest Park: Worm-eating Warbler (4130)","ispublic":1,"isfriend":0,"isfamily":0},{"id":"52125217920","owner":"135315828@N06","secret":"25ac011451","server":"65535","farm":66,"title":"worm-eating warbler","ispublic":1,"isfriend":0,"isfamily":0},{"id":"51905917654","owner":"39617069@N08","secret":"3678fe858c","server":"65535","farm":66,"title":"Worm-eating Warbler","ispublic":1,"isfriend":0,"isfamily":0},{"id":"51736791900","owner":"56686021@N04","secret":"5840ae0d8d","server":"65535","farm":66,"title":"Worm-eating Warbler","ispublic":1,"isfriend":0,"isfamily":0},{"id":"51736791925","owner":"56686021@N04","secret":"686d717e9d","server":"65535","farm":66,"title":"Worm-eating Warbler","ispublic":1,"isfriend":0,"isfamily":0},{"id":"51735078207","owner":"56686021@N04","secret":"0ff849c276","server":"65535","farm":66,"title":"Worm-eating Warbler","ispublic":1,"isfriend":0,"isfamily":0},{"id":"51440212012","owner":"13451078@N03","secret":"5e9013c500","server":"65535","farm":66,"title":"Worm-eating Warbler (Helmitheros vermivorum)","ispublic":1,"isfriend":0,"isfamily":0},{"id":"51315558297","owner":"48014585@N00","secret":"f70d0d133f","server":"65535","farm":66,"title":"Worm-eating Warbler","ispublic":1,"isfriend":0,"isfamily":0},{"id":"51214246601","owner":"50264295@N06","secret":"8a0a3b4e67","server":"65535","farm":66,"title":"Worm-eating Warbler (Helmitheros vermivorum)","ispublic":1,"isfriend":0,"isfamily":0},{"id":"51214453018","owner":"50264295@N06","secret":"47014a39b5","server":"65535","farm":66,"title":"Worm-eating Warbler (Helmitheros vermivorum)","ispublic":1,"isfriend":0,"isfamily":0},{"id":"51213513062","owner":"50264295@N06","secret":"8f2f6c3ce1","server":"65535","farm":66,"title":"Worm-eating Warbler (Helmitheros vermivorum)","ispublic":1,"isfriend":0,"isfamily":0},{"id":"51214973089","owner":"50264295@N06","secret":"38ce69cc6a","server":"65535","farm":66,"title":"Worm-eating Warbler (Helmitheros vermivorum)","ispublic":1,"isfriend":0,"isfamily":0},{"id":"51181766475","owner":"132165466@N08","secret":"8cfc05176a","server":"65535","farm":66,"title":"Worm-eating Warbler","ispublic":1,"isfriend":0,"isfamily":0},{"id":"51181766460","owner":"132165466@N08","secret":"88ea0ea011","server":"65535","farm":66,"title":"Worm-eating Warbler","ispublic":1,"isfriend":0,"isfamily":0},{"id":"51178661132","owner":"132165466@N08","secret":"4bc5d5494c","server":"65535","farm":66,"title":"Worm-eating Warbler","ispublic":1,"isfriend":0,"isfamily":0},{"id":"51180137174","owner":"132165466@N08","secret":"809fc04368","server":"65535","farm":66,"title":"Worm-eating Warbler","ispublic":1,"isfriend":0,"isfamily":0},{"id":"51178661127","owner":"132165466@N08","secret":"719875d808","server":"65535","farm":66,"title":"Worm-eating Warbler","ispublic":1,"isfriend":0,"isfamily":0},{"id":"51179447238","owner":"132165466@N08","secret":"926587ff2c","server":"65535","farm":66,"title":"Worm-eating Warbler","ispublic":1,"isfriend":0,"isfamily":0},{"id":"51178543607","owner":"132165466@N08","secret":"e7c09964b4","server":"65535","farm":66,"title":"Worm-eating Warbler","ispublic":1,"isfriend":0,"isfamily":0},{"id":"51179447223","owner":"132165466@N08","secret":"71639de1d7","server":"65535","farm":66,"title":"Worm-eating Warbler","ispublic":1,"isfriend":0,"isfamily":0},{"id":"51180312370","owner":"132165466@N08","secret":"437d565c5c","server":"65535","farm":66,"title":"Worm-eating Warbler","ispublic":1,"isfriend":0,"isfamily":0},{"id":"51180312365","owner":"132165466@N08","secret":"99dfdb609e","server":"65535","farm":66,"title":"Worm-eating Warbler","ispublic":1,"isfriend":0,"isfamily":0},{"id":"51180312360","owner":"132165466@N08","secret":"48a5dea226","server":"65535","farm":66,"title":"Worm-eating Warbler","ispublic":1,"isfriend":0,"isfamily":0},{"id":"51179127201","owner":"132165466@N08","secret":"1db394ee09","server":"65535","farm":66,"title":"Worm-eating Warbler","ispublic":1,"isfriend":0,"isfamily":0},{"id":"51179921294","owner":"132165466@N08","secret":"7085e3bede","server":"65535","farm":66,"title":"Worm-eating Warbler","ispublic":1,"isfriend":0,"isfamily":0},{"id":"51178445182","owner":"132165466@N08","secret":"958465179e","server":"65535","farm":66,"title":"Worm-eating Warbler","ispublic":1,"isfriend":0,"isfamily":0},{"id":"51176458195","owner":"19623720@N00","secret":"6ca0cf8211","server":"65535","farm":66,"title":"Worm-eating Warbler","ispublic":1,"isfriend":0,"isfamily":0},{"id":"51176155489","owner":"19623720@N00","secret":"15f51e750c","server":"65535","farm":66,"title":"Insect or Bird?","ispublic":1,"isfriend":0,"isfamily":0},{"id":"51161220215","owner":"91620959@N08","secret":"135499d270","server":"65535","farm":66,"title":"Worm-eating warbler (Helmitheros vermivorum)","ispublic":1,"isfriend":0,"isfamily":0},{"id":"50867197223","owner":"21702714@N06","secret":"be16f46215","server":"65535","farm":66,"title":"Worm-eating Warbler","ispublic":1,"isfriend":0,"isfamily":0},{"id":"50843822848","owner":"54100598@N08","secret":"bc30f6b145","server":"65535","farm":66,"title":"Worm-eating Warbler (Helmitheros vermivorum)","ispublic":1,"isfriend":0,"isfamily":0},{"id":"50720876407","owner":"54799211@N02","secret":"7a62e12975","server":"65535","farm":66,"title":"Worm-Eating Warbler","ispublic":1,"isfriend":0,"isfamily":0},{"id":"50708708046","owner":"190773540@N03","secret":"4b56ccd269","server":"65535","farm":66,"title":"Worm-eating Warbler","ispublic":1,"isfriend":0,"isfamily":0},{"id":"50386330262","owner":"25486180@N07","secret":"2320f8432d","server":"65535","farm":66,"title":"Worm-eating Warbler, Helmitheros vermivorum","ispublic":1,"isfriend":0,"isfamily":0},{"id":"50385458088","owner":"25486180@N07","secret":"5195b22204","server":"65535","farm":66,"title":"Worm-eating Warbler, Helmitheros vermivorum","ispublic":1,"isfriend":0,"isfamily":0},{"id":"50355630063","owner":"25486180@N07","secret":"69b6861ebc","server":"65535","farm":66,"title":"Worm-eating Warbler, Helmitheros vermivorum","ispublic":1,"isfriend":0,"isfamily":0},{"id":"50045516821","owner":"26803925@N05","secret":"1cbaefc2d9","server":"65535","farm":66,"title":"Worm-eating Warbler (Helmitheros vermivorum) 05-31-2020 Sideling Hill WMA--Old Rt. 40, Washington Co. MD 3","ispublic":1,"isfriend":0,"isfamily":0},{"id":"50044951318","owner":"26803925@N05","secret":"ba4286f192","server":"65535","farm":66,"title":"Worm-eating Warbler (Helmitheros vermivorum) 05-31-2020 Sideling Hill WMA--Old Rt. 40, Washington Co. MD 1","ispublic":1,"isfriend":0,"isfamily":0},{"id":"50013583548","owner":"26803925@N05","secret":"e4e577bd01","server":"65535","farm":66,"title":"Worm-eating Warbler (Helmitheros vermivorum) 05-19-2020 Pocomoke SF--Old Beech Road, Worcester Co. MD 2","ispublic":1,"isfriend":0,"isfamily":0},{"id":"50014113696","owner":"26803925@N05","secret":"cd67457195","server":"65535","farm":66,"title":"Worm-eating Warbler (Helmitheros vermivorum) 05-19-2020 Pocomoke SF--Old Beech Road, Worcester Co. MD 4","ispublic":1,"isfriend":0,"isfamily":0},{"id":"50013583533","owner":"26803925@N05","secret":"d709e76c99","server":"65535","farm":66,"title":"Worm-eating Warbler (Helmitheros vermivorum) 05-19-2020 Pocomoke SF--Old Beech Road, Worcester Co. MD 1","ispublic":1,"isfriend":0,"isfamily":0}]},"stat":"ok"}