{"photos":{"page":1,"pages":11,"perpage":100,"total":1080,"photo":[{"id":"52778191216","owner":"190773540@N03","secret":"8d3190071c","server":"65535","farm":66,"title":"Yellow-faced Grassquit (Costa Rica)","ispublic":1,"isfriend":0,"isfamily":0},{"id":"52722838116","owner":"12639178@N07","secret":"4eb9378eda","server":"65535","farm":66,"title":"Goldbrauen-Gimpeltangare","ispublic":1,"isfriend":0,"isfamily":0},{"id":"52721060847","owner":"12639178@N07","secret":"5509b1fbdc","server":"65535","farm":66,"title":"Goldbrauen-Gimpeltangare","ispublic":1,"isfriend":0,"isfamily":0},{"id":"52714267803","owner":"190773540@N03","secret":"f7aa1ccf99","server":"65535","farm":66,"title":"Yellow-faced Grassquit (Costa Rica)","ispublic":1,"isfriend":0,"isfamily":0},{"id":"52710661837","owner":"190773540@N03","secret":"d237db9acf","server":"65535","farm":66,"title":"Yellow-faced Grassquit (Costa Rica)","ispublic":1,"isfriend":0,"isfamily":0},{"id":"52705450473","owner":"196426956@N04","secret":"8a0ef78035","server":"65535","farm":66,"title":"Tiaris olivaceus","ispublic":1,"isfriend":0,"isfamily":0},{"id":"52694704745","owner":"12639178@N07","secret":"d0b976fd66","server":"65535","farm":66,"title":"Weibchen, auf einer Gartenterrasse","ispublic":1,"isfriend":0,"isfamily":0},{"id":"52694784758","owner":"12639178@N07","secret":"a1ce3ef24f","server":"65535","farm":66,"title":"Goldbrauen-Gimpeltangare \u2642 im Hausgarten","ispublic":1,"isfriend":0,"isfamily":0},{"id":"52680145062","owner":"12639178@N07","secret":"8ea14d4bc7","server":"65535","farm":66,"title":"Das M\u00e4nnchen schaut ganz aufmerksam","ispublic":1,"isfriend":0,"isfamily":0},{"id":"52681160493","owner":"12639178@N07","secret":"5e1bdbaf5f","server":"65535","farm":66,"title":"Goldbrauen-Gimpeltangare singt ihr einfaches Liedchen","ispublic":1,"isfriend":0,"isfamily":0},{"id":"52671658056","owner":"54249623@N08","secret":"07ff0f815c","server":"65535","farm":66,"title":"Semillero Cariamarillo, Yellow-faced Grassquit (Tiaris olivaceus) (Tiaris olivaceus olivaceus)","ispublic":1,"isfriend":0,"isfamily":0},{"id":"52671657636","owner":"54249623@N08","secret":"01624904aa","server":"65535","farm":66,"title":"Semillero Cariamarillo, Yellow-faced Grassquit (Tiaris olivaceus) (Tiaris olivaceus olivaceus)","ispublic":1,"isfriend":0,"isfamily":0},{"id":"52655435475","owner":"68635735@N02","secret":"18930359a1","server":"65535","farm":66,"title":"Yellow-faced Grassquit (Tiaris olivaceus)","ispublic":1,"isfriend":0,"isfamily":0},{"id":"52607572534","owner":"194934901@N05","secret":"5f02cb5e99","server":"65535","farm":66,"title":"Tiaris olivaceus","ispublic":1,"isfriend":0,"isfamily":0},{"id":"52598464780","owner":"107784905@N04","secret":"60844629f1","server":"65535","farm":66,"title":"Tiaris grand-chanteur - Nauyaca\/San Jos\u00e9\/Costa Rica_20211116_020-1","ispublic":1,"isfriend":0,"isfamily":0},{"id":"52580852291","owner":"17719035@N00","secret":"ba37fe2bf8","server":"65535","farm":66,"title":"Ciguita de Hierba - Yellow-faced grassquit - Tiaris olivaceus","ispublic":1,"isfriend":0,"isfamily":0},{"id":"52580641530","owner":"8264176@N02","secret":"bc8e760fe1","server":"65535","farm":66,"title":"BirdsOfColombia - Yellow-faced Grassquit  \u00b7  Tiaris olivaceus  -  266281","ispublic":1,"isfriend":0,"isfamily":0},{"id":"52580466814","owner":"8264176@N02","secret":"db5a242e18","server":"65535","farm":66,"title":"BirdsOfColombia - Yellow-faced Grassquit (\u2640) \u00b7  Tiaris olivaceus  - 266304","ispublic":1,"isfriend":0,"isfamily":0},{"id":"52547882789","owner":"54249623@N08","secret":"e345ae1e02","server":"65535","farm":66,"title":"Semillero Cariamarillo, Yellow-faced Grassquit (Tiaris olivaceus) (Tiaris olivacea)","ispublic":1,"isfriend":0,"isfamily":0},{"id":"52522408867","owner":"56983940@N06","secret":"c38314fdde","server":"65535","farm":66,"title":"Yellow-faced Grassquit","ispublic":1,"isfriend":0,"isfamily":0},{"id":"52440361606","owner":"33005514@N04","secret":"ace902584e","server":"65535","farm":66,"title":"Ciguita de Hierba \/ Yellow-faced grassquit \/Tiaris olivaceus (Macho \/ Male)","ispublic":1,"isfriend":0,"isfamily":0},{"id":"52434788141","owner":"107784905@N04","secret":"26640fde09","server":"65535","farm":66,"title":"Tiaris grand-chanteur - Nauyaca\/San Jos\u00e9\/Costa Rica_20211116_017-1","ispublic":1,"isfriend":0,"isfamily":0},{"id":"52362536820","owner":"65695019@N07","secret":"66c07120fa","server":"65535","farm":66,"title":"Yellow-faced Grassquit (Tiaris olivaceus) female ...","ispublic":1,"isfriend":0,"isfamily":0},{"id":"52323043306","owner":"26371261@N00","secret":"e6c9f07b4f","server":"65535","farm":66,"title":"Yellow-faced Grassquit, Tiaris olivaceus","ispublic":1,"isfriend":0,"isfamily":0},{"id":"52297980154","owner":"47078197@N04","secret":"ebdbe0c90c","server":"65535","farm":66,"title":"Tiaris olivaceus (Yellow-faced Grassquit)","ispublic":1,"isfriend":0,"isfamily":0},{"id":"52297712153","owner":"47078197@N04","secret":"2de7543737","server":"65535","farm":66,"title":"Tiaris olivaceus (Yellow-faced Grassquit)","ispublic":1,"isfriend":0,"isfamily":0},{"id":"52306795734","owner":"154417921@N04","secret":"e9e60b98f5","server":"65535","farm":66,"title":"DSC02946 kopi\u00ebren 2","ispublic":1,"isfriend":0,"isfamily":0},{"id":"52277516579","owner":"26371261@N00","secret":"1a70bc2f97","server":"65535","farm":66,"title":"Yellow-faced Grassquit, Tiaris olivaceus","ispublic":1,"isfriend":0,"isfamily":0},{"id":"52261390088","owner":"26371261@N00","secret":"694c0c88f0","server":"65535","farm":66,"title":"Yellow-faced Grassquit, Tiaris olivaceus","ispublic":1,"isfriend":0,"isfamily":0},{"id":"52259580969","owner":"26371261@N00","secret":"d5e821ac6c","server":"65535","farm":66,"title":"Yellow-faced Grassquit, Tiaris olivaceus","ispublic":1,"isfriend":0,"isfamily":0},{"id":"52259252240","owner":"194651343@N02","secret":"6cd5bb7f37","server":"65535","farm":66,"title":"Tiaris olivaceus","ispublic":1,"isfriend":0,"isfamily":0},{"id":"52241934705","owner":"26371261@N00","secret":"edfb4ab768","server":"65535","farm":66,"title":"Yellow-faced Grassquit, Tiaris olivaceus. Cozumel, Quintana Roo, MX","ispublic":1,"isfriend":0,"isfamily":0},{"id":"52239953711","owner":"193010058@N08","secret":"93b1b938e3","server":"65535","farm":66,"title":"Yellow-faced Grassquit (Tiaris olivaceus) ung han","ispublic":1,"isfriend":0,"isfamily":0},{"id":"52240240999","owner":"193010058@N08","secret":"33fa54141b","server":"65535","farm":66,"title":"Yellow-faced Grassquit (Tiaris olivaceus pusillus)","ispublic":1,"isfriend":0,"isfamily":0},{"id":"52205229521","owner":"194129769@N02","secret":"e13b2dc2ff","server":"65535","farm":66,"title":"Cig\u00fcita de Hierba (Tiaris olivaceus)","ispublic":1,"isfriend":0,"isfamily":0},{"id":"52205730685","owner":"194129769@N02","secret":"9595f527f2","server":"65535","farm":66,"title":"Cig\u00fcita de Hierba (Tiaris olivaceus)","ispublic":1,"isfriend":0,"isfamily":0},{"id":"52200765795","owner":"12639178@N07","secret":"95065a9ef6","server":"65535","farm":66,"title":"Goldbrauen-Gimpeltangare \u2642","ispublic":1,"isfriend":0,"isfamily":0},{"id":"52200765635","owner":"12639178@N07","secret":"42dc62ddf7","server":"65535","farm":66,"title":"Goldbrauen-Gimpeltangare \u2642 ruht kurz","ispublic":1,"isfriend":0,"isfamily":0},{"id":"52190516728","owner":"12639178@N07","secret":"6709840d77","server":"65535","farm":66,"title":"Goldbrauen-Gimpeltangare \u2640 im Gestr\u00fcpp","ispublic":1,"isfriend":0,"isfamily":0},{"id":"52144510328","owner":"31704662@N08","secret":"3f95e0ea85","server":"65535","farm":66,"title":"Yellow-faced Grassquit (Tiaris olivaceus)","ispublic":1,"isfriend":0,"isfamily":0},{"id":"52046083570","owner":"10318424@N07","secret":"1bddb7cdd0","server":"65535","farm":66,"title":"Yellow-faced Grassquit","ispublic":1,"isfriend":0,"isfamily":0},{"id":"52036989745","owner":"12639178@N07","secret":"9e260a50d1","server":"65535","farm":66,"title":"Goldbraue (Tiaris olivaceus), Dom. Rep.","ispublic":1,"isfriend":0,"isfamily":0},{"id":"52008031011","owner":"26371261@N00","secret":"7fa9d29987","server":"65535","farm":66,"title":"Yellow-faced Grassquit, Tiaris olivaceus","ispublic":1,"isfriend":0,"isfamily":0},{"id":"52008547720","owner":"26371261@N00","secret":"e5a747d6e6","server":"65535","farm":66,"title":"Yellow-faced Grassquit, Tiaris olivaceus","ispublic":1,"isfriend":0,"isfamily":0},{"id":"52008547735","owner":"26371261@N00","secret":"53e6cf1148","server":"65535","farm":66,"title":"Yellow-faced Grassquit, Tiaris olivaceus","ispublic":1,"isfriend":0,"isfamily":0},{"id":"52004946100","owner":"26371261@N00","secret":"643af29b72","server":"65535","farm":66,"title":"Yellow-faced Grassquit, Tiaris olivaceus","ispublic":1,"isfriend":0,"isfamily":0},{"id":"51996153070","owner":"26371261@N00","secret":"353e12840e","server":"65535","farm":66,"title":"Yellow-faced Grassquit, Tiaris olivaceus","ispublic":1,"isfriend":0,"isfamily":0},{"id":"51995668483","owner":"26371261@N00","secret":"ff710ca7cb","server":"65535","farm":66,"title":"Yellow-faced Grassquit, Tiaris olivaceus","ispublic":1,"isfriend":0,"isfamily":0},{"id":"51980922750","owner":"33005514@N04","secret":"04cf4f8dcf","server":"65535","farm":66,"title":"Ciguita de Hierba \/ Tiaris olivaceus (Macho - Male)","ispublic":1,"isfriend":0,"isfamily":0},{"id":"51980437463","owner":"33005514@N04","secret":"72cdd3e6dc","server":"65535","farm":66,"title":"Ciguita de Hierba \/ Tiaris olivaceus (Macho - Male)","ispublic":1,"isfriend":0,"isfamily":0},{"id":"51980367096","owner":"33005514@N04","secret":"c33ef1abd0","server":"65535","farm":66,"title":"Ciguita de Hierba \/ Tiaris olivaceus (Macho - Male)","ispublic":1,"isfriend":0,"isfamily":0},{"id":"51979361297","owner":"33005514@N04","secret":"d2e4a76b8b","server":"65535","farm":66,"title":"Ciguita de Hierba \/ Tiaris olivaceus (Macho - Male)","ispublic":1,"isfriend":0,"isfamily":0},{"id":"51973552329","owner":"24110087@N05","secret":"6fbd029d19","server":"65535","farm":66,"title":"Yellow-faced Grassquit - Tiaris olivaceus intermedius","ispublic":1,"isfriend":0,"isfamily":0},{"id":"51965511328","owner":"45528818@N07","secret":"40bfe92667","server":"65535","farm":66,"title":"DSC_3021 Chirripo area Yellow-faced grassquit","ispublic":1,"isfriend":0,"isfamily":0},{"id":"51953709690","owner":"33005514@N04","secret":"08f140862d","server":"65535","farm":66,"title":"Ciguita de Hirba \/ Tiaris olivaceus","ispublic":1,"isfriend":0,"isfamily":0},{"id":"51952126207","owner":"33005514@N04","secret":"dbc7b4cde5","server":"65535","farm":66,"title":"Ciguita de Hirba \/ Tiaris olivaceus","ispublic":1,"isfriend":0,"isfamily":0},{"id":"51945942993","owner":"12639178@N07","secret":"0ee706cf2e","server":"65535","farm":66,"title":"Goldbrauen-Gimpeltangare","ispublic":1,"isfriend":0,"isfamily":0},{"id":"51934171278","owner":"61062164@N08","secret":"7a1c07f8e3","server":"65535","farm":66,"title":"850_8125","ispublic":1,"isfriend":0,"isfamily":0},{"id":"51912162573","owner":"190923251@N05","secret":"4b7483a215","server":"65535","farm":66,"title":"Yellow-faced Grassquit male","ispublic":1,"isfriend":0,"isfamily":0},{"id":"51896512480","owner":"114700825@N07","secret":"9235ea004f","server":"65535","farm":66,"title":"188.03 Grote Cubavink","ispublic":1,"isfriend":0,"isfamily":0},{"id":"51893066723","owner":"65788177@N02","secret":"b5f02009e4","server":"65535","farm":66,"title":"Yellow-faced Grassquit","ispublic":1,"isfriend":0,"isfamily":0},{"id":"51884187138","owner":"12185056@N02","secret":"0532857154","server":"65535","farm":66,"title":"Yellow-faced Grassquit (Tiaris olivaceus)","ispublic":1,"isfriend":0,"isfamily":0},{"id":"51832196603","owner":"107784905@N04","secret":"8358172a8f","server":"65535","farm":66,"title":"Tiaris grand-chanteur - Nauyaca\/San Jos\u00e9\/Costa Rica_20211116_124","ispublic":1,"isfriend":0,"isfamily":0},{"id":"51813006529","owner":"12639178@N07","secret":"fd6e64ba09","server":"65535","farm":66,"title":"Goldbrauen-Gimpeltangaren auf Terrrasse","ispublic":1,"isfriend":0,"isfamily":0},{"id":"51812660236","owner":"12639178@N07","secret":"37afe4776c","server":"65535","farm":66,"title":"Goldbrauen-Gimpeltangare \u2640 im Garten","ispublic":1,"isfriend":0,"isfamily":0},{"id":"51813388670","owner":"12639178@N07","secret":"af1a22fda3","server":"65535","farm":66,"title":"Goldbrauen-Gimpeltangare \u2642 im Hausgarten","ispublic":1,"isfriend":0,"isfamily":0},{"id":"51810910830","owner":"94074753@N00","secret":"774f4d275a","server":"65535","farm":66,"title":"Cig\u00fcita de Hierba - Tiaris olivaceus","ispublic":1,"isfriend":0,"isfamily":0},{"id":"51797705068","owner":"163930705@N05","secret":"2c5ab17201","server":"65535","farm":66,"title":"Yellow-faced Grassquit \/ Gr\u00f3\u00f0urtittlingur (Tiaris olivaceus)","ispublic":1,"isfriend":0,"isfamily":0},{"id":"51783350955","owner":"117307568@N03","secret":"21844373bd","server":"65535","farm":66,"title":"Yellow-faced Grassquit (Tiaris olivaceus)","ispublic":1,"isfriend":0,"isfamily":0},{"id":"51744982121","owner":"48938938@N04","secret":"1e6e29b5db","server":"65535","farm":66,"title":"Yellow-faced Grassquit_Tiaris olivaceus_Ascanio_W Andes Colombia_DZ3A5806","ispublic":1,"isfriend":0,"isfamily":0},{"id":"51698017870","owner":"12639178@N07","secret":"8af14b29ce","server":"65535","farm":66,"title":"Yellow-faced Grassquit","ispublic":1,"isfriend":0,"isfamily":0},{"id":"51677530644","owner":"33005514@N04","secret":"3473e89d5b","server":"65535","farm":66,"title":"Ciguita de hierba \/  Yellow-faced grassquit \/ Tiaris olivaceus (Hembra \/ Female)","ispublic":1,"isfriend":0,"isfamily":0},{"id":"51677530614","owner":"33005514@N04","secret":"ab6b28b042","server":"65535","farm":66,"title":"Ciguita de hierba \/  Yellow-faced grassquit \/ Tiaris olivaceus (Macho \/ Male)","ispublic":1,"isfriend":0,"isfamily":0},{"id":"51636260931","owner":"33005514@N04","secret":"b9a8a7fc39","server":"65535","farm":66,"title":"Ciguita de hierba \/ Yellow-faced grassquit \/ Tiaris olivaceus (Macho \/Male)","ispublic":1,"isfriend":0,"isfamily":0},{"id":"52361549335","owner":"65695019@N07","secret":"55a8eb4a93","server":"65535","farm":66,"title":"Yellow-faced Grassquit (Tiaris olivaceus) male ...","ispublic":1,"isfriend":0,"isfamily":0},{"id":"52346063480","owner":"32752434@N07","secret":"7546eaee28","server":"65535","farm":66,"title":"Yellow-faced Grassquit (Tiaris olivaceus)","ispublic":1,"isfriend":0,"isfamily":0},{"id":"52271374152","owner":"150793791@N05","secret":"5920e23166","server":"65535","farm":66,"title":"Cig\u00fcita de la Hierba (Tiaris olivaceus)  Orden: paseriformes  Familia: Thraupide","ispublic":1,"isfriend":0,"isfamily":0},{"id":"52272829725","owner":"150793791@N05","secret":"a60c3587be","server":"65535","farm":66,"title":"Cig\u00fcita de la Hierba (Tiaris olivaceus)  Orden: paseriformes  Familia: Thraupide","ispublic":1,"isfriend":0,"isfamily":0},{"id":"52205248523","owner":"194129769@N02","secret":"97c51d1351","server":"65535","farm":66,"title":"Cig\u00fcita de Hierba (Tiaris olivaceus)","ispublic":1,"isfriend":0,"isfamily":0},{"id":"52205496524","owner":"194129769@N02","secret":"a7baa6701e","server":"65535","farm":66,"title":"Cig\u00fcita de Hierba (Tiaris olivaceus)","ispublic":1,"isfriend":0,"isfamily":0},{"id":"52153535793","owner":"190990171@N05","secret":"5f079e28a5","server":"65535","farm":66,"title":"Tiaris olivaceus #birds","ispublic":1,"isfriend":0,"isfamily":0},{"id":"51995882934","owner":"26371261@N00","secret":"09313b5854","server":"65535","farm":66,"title":"Yellow-faced Grassquit, Tiaris olivaceus","ispublic":1,"isfriend":0,"isfamily":0},{"id":"51995184671","owner":"62422428@N00","secret":"104fb679ce","server":"65535","farm":66,"title":"Yellow-faced Grassquit","ispublic":1,"isfriend":0,"isfamily":0},{"id":"51980922740","owner":"33005514@N04","secret":"031f8a603a","server":"65535","farm":66,"title":"Ciguita de Hierba \/ Tiaris olivaceus (Macho - Male)","ispublic":1,"isfriend":0,"isfamily":0},{"id":"51980366806","owner":"33005514@N04","secret":"b19851eecd","server":"65535","farm":66,"title":"Ciguita de Hierba \/ Tiaris olivaceus (Macho - Male)","ispublic":1,"isfriend":0,"isfamily":0},{"id":"51952126232","owner":"33005514@N04","secret":"573c4fffb3","server":"65535","farm":66,"title":"Ciguita de Hirba \/ Tiaris olivaceus","ispublic":1,"isfriend":0,"isfamily":0},{"id":"51921751332","owner":"183736567@N07","secret":"c8d0c09f69","server":"65535","farm":66,"title":"Yellow-faced Grassquit (Tiaris olivaceus)","ispublic":1,"isfriend":0,"isfamily":0},{"id":"51910863280","owner":"37493716@N02","secret":"5fe3c0e70f","server":"65535","farm":66,"title":"Tiaris olivaceus, Yellow-faced Grassquit","ispublic":1,"isfriend":0,"isfamily":0},{"id":"7754993186","owner":"53247049@N07","secret":"76330c7b8e","server":"7123","farm":8,"title":"YELLOW-FACED GRASSQUIT Tiaris olivacea MALE Close Up Eating Grass Seeds on the Ground in Mindo in Northwestern ECUADOR. Photo by Peter Wendelken.","ispublic":1,"isfriend":0,"isfamily":0},{"id":"51863523949","owner":"193010058@N08","secret":"1c038b3fda","server":"65535","farm":66,"title":"Yellow-faced Grassquit (Tiaris olivaceus)","ispublic":1,"isfriend":0,"isfamily":0},{"id":"51862235662","owner":"193010058@N08","secret":"d3219d1d4f","server":"65535","farm":66,"title":"Yellow-faced Grassquit (Tiaris olivaceus)","ispublic":1,"isfriend":0,"isfamily":0},{"id":"51857141461","owner":"189366364@N02","secret":"cb61e55b96","server":"65535","farm":66,"title":"Tiaris olivaceus","ispublic":1,"isfriend":0,"isfamily":0},{"id":"51847507893","owner":"93639794@N03","secret":"a378514243","server":"65535","farm":66,"title":"tiaris-olivaceus---yellow-faced-grassquit_51540275910_o","ispublic":1,"isfriend":0,"isfamily":0},{"id":"51810910605","owner":"94074753@N00","secret":"87d02150d9","server":"65535","farm":66,"title":"Cig\u00fcita de Hierba - Tiaris olivaceus","ispublic":1,"isfriend":0,"isfamily":0},{"id":"51745809775","owner":"48938938@N04","secret":"cdda7f4e2c","server":"65535","farm":66,"title":"Yellow-faced Grassquit_Tiaris olivaceus_Ascanio_W Andes Colombia_DZ3A5806","ispublic":1,"isfriend":0,"isfamily":0},{"id":"51693807803","owner":"33005514@N04","secret":"2361f14f42","server":"65535","farm":66,"title":"Ciguita de hierba \/  Yellow-faced grassquit \/ Tiaris olivaceus (Macho \/ Male)","ispublic":1,"isfriend":0,"isfamily":0},{"id":"51693536141","owner":"33005514@N04","secret":"d05db671b4","server":"65535","farm":66,"title":"Ciguita de hierba \/  Yellow-faced grassquit \/ Tiaris olivaceus (Macho \/ Male)","ispublic":1,"isfriend":0,"isfamily":0},{"id":"51692722437","owner":"33005514@N04","secret":"5d45977152","server":"65535","farm":66,"title":"Ciguita de hierba \/  Yellow-faced grassquit \/ Tiaris olivaceus (Macho \/ Male)","ispublic":1,"isfriend":0,"isfamily":0},{"id":"51649289324","owner":"132508209@N08","secret":"8bbdf1753b","server":"65535","farm":66,"title":"Yellow-faced Grassquit (Tiaris olivaceus)","ispublic":1,"isfriend":0,"isfamily":0},{"id":"51648627691","owner":"132508209@N08","secret":"5f7b11fb3d","server":"65535","farm":66,"title":"Yellow-faced Grassquit (Tiaris olivaceus)","ispublic":1,"isfriend":0,"isfamily":0}]},"stat":"ok"}