{"photos":{"page":1,"pages":14,"perpage":100,"total":1379,"photo":[{"id":"52708579780","owner":"24608578@N00","secret":"becac75fee","server":"65535","farm":66,"title":"Yellow-billed cuckoo (Coccyzus americanus)","ispublic":1,"isfriend":0,"isfamily":0},{"id":"52708652008","owner":"24608578@N00","secret":"0df497846d","server":"65535","farm":66,"title":"Yellow-billed cuckoo (Coccyzus americanus)","ispublic":1,"isfriend":0,"isfamily":0},{"id":"52708579680","owner":"24608578@N00","secret":"3105906557","server":"65535","farm":66,"title":"Yellow-billed cuckoo (Coccyzus americanus)","ispublic":1,"isfriend":0,"isfamily":0},{"id":"52680255006","owner":"24608578@N00","secret":"7e8959a59f","server":"65535","farm":66,"title":"Yellow-billed cuckoo (Coccyzus americanus)","ispublic":1,"isfriend":0,"isfamily":0},{"id":"52680751193","owner":"24608578@N00","secret":"a6e0f5b0d3","server":"65535","farm":66,"title":"Yellow-billed cuckoo (Coccyzus americanus)","ispublic":1,"isfriend":0,"isfamily":0},{"id":"52582670935","owner":"56902740@N06","secret":"d40192587e","server":"65535","farm":66,"title":"Yellow-billed Cuckoo","ispublic":1,"isfriend":0,"isfamily":0},{"id":"52580605929","owner":"153973412@N04","secret":"35e4359979","server":"65535","farm":66,"title":"Yellow-billed Cuckoo-Coccyzus americanus, Iowa City, IA","ispublic":1,"isfriend":0,"isfamily":0},{"id":"52478834353","owner":"124995824@N08","secret":"ff3b9779af","server":"65535","farm":66,"title":"Yellow-billed Cuckoo - Coccyzus americanus","ispublic":1,"isfriend":0,"isfamily":0},{"id":"52404321246","owner":"49114357@N08","secret":"3b01fb0bee","server":"65535","farm":66,"title":"Yellow-billed Cuckoo","ispublic":1,"isfriend":0,"isfamily":0},{"id":"52462896369","owner":"139237357@N06","secret":"90916a7402","server":"65535","farm":66,"title":"Yellow-billed Cuckoo","ispublic":1,"isfriend":0,"isfamily":0},{"id":"52463159643","owner":"139237357@N06","secret":"78fbc53706","server":"65535","farm":66,"title":"Yellow-billed Cuckoo","ispublic":1,"isfriend":0,"isfamily":0},{"id":"52451560429","owner":"150486191@N05","secret":"bee4aa9f78","server":"65535","farm":66,"title":"Coulicou a\u0300 bec jaune CT 2022.10.24-1B","ispublic":1,"isfriend":0,"isfamily":0},{"id":"52427996853","owner":"39177293@N03","secret":"542a520aff","server":"65535","farm":66,"title":"Yellow-billed Cuckoo","ispublic":1,"isfriend":0,"isfamily":0},{"id":"52407772541","owner":"8065544@N08","secret":"04c7424401","server":"65535","farm":66,"title":"Yellow-billed Cuckoo (Coccyzus americanus)","ispublic":1,"isfriend":0,"isfamily":0},{"id":"52405539003","owner":"21412620@N00","secret":"7cbe3e1fc0","server":"65535","farm":66,"title":"Yellow-billed Cuckoo","ispublic":1,"isfriend":0,"isfamily":0},{"id":"52403409590","owner":"61241315@N00","secret":"51a8f888a8","server":"0","farm":0,"title":"Yellow-billed Cuckoo_1451.MP4","ispublic":1,"isfriend":0,"isfamily":0},{"id":"52402467357","owner":"61241315@N00","secret":"5a1856d32f","server":"0","farm":0,"title":"Yellow-billed Cuckoo_1429.MP4","ispublic":1,"isfriend":0,"isfamily":0},{"id":"52403263279","owner":"61241315@N00","secret":"699f286321","server":"0","farm":0,"title":"Yellow-billed Cuckoo_1422 COMPLETE.MP4","ispublic":1,"isfriend":0,"isfamily":0},{"id":"52403263354","owner":"61241315@N00","secret":"8e77d1ff6e","server":"65535","farm":66,"title":"Yellow-billed Cuckoo_N1420","ispublic":1,"isfriend":0,"isfamily":0},{"id":"52402980981","owner":"61241315@N00","secret":"ffd97598ce","server":"65535","farm":66,"title":"Yellow-billed Cuckoo_N1450","ispublic":1,"isfriend":0,"isfamily":0},{"id":"52403263259","owner":"61241315@N00","secret":"9973658384","server":"65535","farm":66,"title":"Yellow-billed Cuckoo_N1441","ispublic":1,"isfriend":0,"isfamily":0},{"id":"52403479963","owner":"61241315@N00","secret":"4467cb6b61","server":"65535","farm":66,"title":"Yellow-billed Cuckoo_N1440","ispublic":1,"isfriend":0,"isfamily":0},{"id":"52403380928","owner":"55216637@N04","secret":"dd12701fb9","server":"65535","farm":66,"title":"Yellow-billed Cuckoo-22-020","ispublic":1,"isfriend":0,"isfamily":0},{"id":"52403380863","owner":"55216637@N04","secret":"0722bcef98","server":"65535","farm":66,"title":"Yellow-billed Cuckoo-22-019","ispublic":1,"isfriend":0,"isfamily":0},{"id":"52403380423","owner":"55216637@N04","secret":"abbce21ae5","server":"65535","farm":66,"title":"Yellow-billed CucKoo-22-017","ispublic":1,"isfriend":0,"isfamily":0},{"id":"52403380253","owner":"55216637@N04","secret":"8efec633d7","server":"65535","farm":66,"title":"Yellow-billed CucKoo-22-016","ispublic":1,"isfriend":0,"isfamily":0},{"id":"52368773079","owner":"120449047@N06","secret":"e09a295f37","server":"65535","farm":66,"title":"Yellow-billed Cuckoo","ispublic":1,"isfriend":0,"isfamily":0},{"id":"52331444217","owner":"78441846@N03","secret":"8f60bf7644","server":"65535","farm":66,"title":"Yellow-billed Cuckoo, Coccyzus americanus, pulling off sphinx moth caterpillar from leaf","ispublic":1,"isfriend":0,"isfamily":0},{"id":"52332702699","owner":"78441846@N03","secret":"9c1f5b36cb","server":"65535","farm":66,"title":"Yellow-billed Cuckoo, Coccyzus americanus, foraging in understory","ispublic":1,"isfriend":0,"isfamily":0},{"id":"52332702709","owner":"78441846@N03","secret":"7514fd045b","server":"65535","farm":66,"title":"Yellow-billed Cuckoo, Coccyzus americanus, foraging in understory","ispublic":1,"isfriend":0,"isfamily":0},{"id":"52332702714","owner":"78441846@N03","secret":"e23723508a","server":"65535","farm":66,"title":"Yellow-billed Cuckoo, Coccyzus americanus, foraging in understory","ispublic":1,"isfriend":0,"isfamily":0},{"id":"52332831355","owner":"78441846@N03","secret":"34792a51af","server":"65535","farm":66,"title":"Yellow-billed Cuckoo, Coccyzus americanus, pulling off sphinx moth caterpillar from leaf","ispublic":1,"isfriend":0,"isfamily":0},{"id":"52332409176","owner":"78441846@N03","secret":"215e18bf29","server":"65535","farm":66,"title":"Yellow-billed Cuckoo, Coccyzus americanus, pulling off sphinx moth caterpillar from leaf","ispublic":1,"isfriend":0,"isfamily":0},{"id":"52332642473","owner":"78441846@N03","secret":"a742bcdb62","server":"65535","farm":66,"title":"Yellow-billed Cuckoo, Coccyzus americanus, pulling off sphinx moth caterpillar from leaf","ispublic":1,"isfriend":0,"isfamily":0},{"id":"52331444147","owner":"78441846@N03","secret":"b4442847fe","server":"65535","farm":66,"title":"Yellow-billed Cuckoo, Coccyzus americanus, foraging in understory","ispublic":1,"isfriend":0,"isfamily":0},{"id":"52307857727","owner":"182534679@N02","secret":"138b5dfb35","server":"65535","farm":66,"title":"Coccyzus americanus - Yellow-billed Cuckoo","ispublic":1,"isfriend":0,"isfamily":0},{"id":"52309049273","owner":"182534679@N02","secret":"62287c8358","server":"65535","farm":66,"title":"Coccyzus americanus - Yellow-billed Cuckoo","ispublic":1,"isfriend":0,"isfamily":0},{"id":"52309108105","owner":"182534679@N02","secret":"06e14edf34","server":"65535","farm":66,"title":"Coccyzus americanus - Yellow-billed Cuckoo","ispublic":1,"isfriend":0,"isfamily":0},{"id":"52258656756","owner":"59770980@N02","secret":"e204ce8976","server":"65535","farm":66,"title":"Sp\u00e1gaukur-Yellow billed Cuckoo-Coccyzus americanus","ispublic":1,"isfriend":0,"isfamily":0},{"id":"52227705369","owner":"49114357@N08","secret":"77b72a68d7","server":"65535","farm":66,"title":"Yellow-billed Cuckoo","ispublic":1,"isfriend":0,"isfamily":0},{"id":"52256954355","owner":"149539959@N02","secret":"051ceba900","server":"65535","farm":66,"title":"Yellow-billed Cuckoo","ispublic":1,"isfriend":0,"isfamily":0},{"id":"52194058339","owner":"184155060@N04","secret":"d2f751b2fd","server":"65535","farm":66,"title":"03137 Coulicou \u00e0 bec jaune \/ Coccyzus americanus \/ Yellow-billed Cuckoo","ispublic":1,"isfriend":0,"isfamily":0},{"id":"52183556714","owner":"65632611@N00","secret":"8c736c9bc2","server":"65535","farm":66,"title":"High Island: Yellow-billed Cuckoo 2  (9231)","ispublic":1,"isfriend":0,"isfamily":0},{"id":"52153850121","owner":"28499865@N07","secret":"a5a16f0e7a","server":"65535","farm":66,"title":"Yellow-billed Cuckoo - Coccyzus americanus","ispublic":1,"isfriend":0,"isfamily":0},{"id":"52153856833","owner":"28499865@N07","secret":"502e4a0702","server":"65535","farm":66,"title":"Yellow-billed Cuckoo - Coccyzus americanus","ispublic":1,"isfriend":0,"isfamily":0},{"id":"52154260250","owner":"28499865@N07","secret":"dc2ed0fde1","server":"65535","farm":66,"title":"Yellow-billed Cuckoo - Coccyzus americanus","ispublic":1,"isfriend":0,"isfamily":0},{"id":"52153772483","owner":"28499865@N07","secret":"96fa845bdb","server":"65535","farm":66,"title":"Yellow-billed Cuckoo - Coccyzus americanus","ispublic":1,"isfriend":0,"isfamily":0},{"id":"52124718136","owner":"135315828@N06","secret":"8860d6f845","server":"65535","farm":66,"title":"yellow-billed cuckoo","ispublic":1,"isfriend":0,"isfamily":0},{"id":"52124718091","owner":"135315828@N06","secret":"51aa85a446","server":"65535","farm":66,"title":"yellow-billed cuckoo","ispublic":1,"isfriend":0,"isfamily":0},{"id":"52115186534","owner":"32599741@N03","secret":"7cfb39ec34","server":"65535","farm":66,"title":"cuckoo","ispublic":1,"isfriend":0,"isfamily":0},{"id":"52098301529","owner":"45340210@N05","secret":"479d368826","server":"65535","farm":66,"title":"Yellow-billed Cuckoo 5_24_22","ispublic":1,"isfriend":0,"isfamily":0},{"id":"52091049389","owner":"21584095@N00","secret":"4f3a35351f","server":"65535","farm":66,"title":"Yellow-billed Cuckoo (Coccyzus americanus)","ispublic":1,"isfriend":0,"isfamily":0},{"id":"52090335300","owner":"21584095@N00","secret":"fdd5233972","server":"65535","farm":66,"title":"Yellow-billed Cuckoo (Coccyzus americanus)","ispublic":1,"isfriend":0,"isfamily":0},{"id":"52089536393","owner":"49563725@N06","secret":"179b090df6","server":"65535","farm":66,"title":"Yellow-billed-Cuckoo","ispublic":1,"isfriend":0,"isfamily":0},{"id":"52066569069","owner":"61241315@N00","secret":"5a339dda60","server":"0","farm":0,"title":"Yellow-billed Cuckoo_7715.MP4","ispublic":1,"isfriend":0,"isfamily":0},{"id":"52066305130","owner":"61241315@N00","secret":"04e8785fa4","server":"0","farm":0,"title":"Yellow-billed Cuckoo_7718,20.MP4","ispublic":1,"isfriend":0,"isfamily":0},{"id":"52065814361","owner":"61241315@N00","secret":"1ba7db1c9b","server":"65535","farm":66,"title":"Yellow-billed Cuckoo_N7695","ispublic":1,"isfriend":0,"isfamily":0},{"id":"52065814341","owner":"61241315@N00","secret":"50bbc641d4","server":"65535","farm":66,"title":"Yellow-billed Cuckoo_N7716","ispublic":1,"isfriend":0,"isfamily":0},{"id":"52065814286","owner":"61241315@N00","secret":"bfbd0384f7","server":"65535","farm":66,"title":"Yellow-billed Cuckoo_N7722","ispublic":1,"isfriend":0,"isfamily":0},{"id":"52065830938","owner":"61241315@N00","secret":"d750a5dbfe","server":"65535","farm":66,"title":"Yellow-billed Cuckoo_N7723","ispublic":1,"isfriend":0,"isfamily":0},{"id":"52051058071","owner":"67164820@N06","secret":"70a7976aaf","server":"65535","farm":66,"title":"yellow-billed cuckoo 2","ispublic":1,"isfriend":0,"isfamily":0},{"id":"52050003237","owner":"67164820@N06","secret":"64eb7b2c3b","server":"65535","farm":66,"title":"yellow-billed cuckoo","ispublic":1,"isfriend":0,"isfamily":0},{"id":"51698717365","owner":"99208129@N08","secret":"b45c526bdb","server":"65535","farm":66,"title":"Coccyzus americanus \/ Yellow-billed Cuckoo","ispublic":1,"isfriend":0,"isfamily":0},{"id":"51652305532","owner":"37493716@N02","secret":"0fdd7a7f7d","server":"65535","farm":66,"title":"Yellow-billed Cuckoo Coccyzus americanus - Reserva ProAves El Jaguar - Foto: Leonel Silva","ispublic":1,"isfriend":0,"isfamily":0},{"id":"51640064636","owner":"142134964@N04","secret":"c052ef67b3","server":"65535","farm":66,"title":"33- Cucu (Coccyzus americanus)","ispublic":1,"isfriend":0,"isfamily":0},{"id":"51583759297","owner":"37493716@N02","secret":"cc14bf4615","server":"65535","farm":66,"title":"Yellow-billed Cuckoo Coccyzus americanus - Reserva ProAves El Jaguar - Foto: Leonel Silva","ispublic":1,"isfriend":0,"isfamily":0},{"id":"51562348296","owner":"69387367@N05","secret":"d77b56e041","server":"65535","farm":66,"title":"Yellow-billed_Cuckoo_5130oc","ispublic":1,"isfriend":0,"isfamily":0},{"id":"51558443372","owner":"39177293@N03","secret":"ac2738dd28","server":"65535","farm":66,"title":"Yellow-billed Cuckoo","ispublic":1,"isfriend":0,"isfamily":0},{"id":"51551666573","owner":"39177293@N03","secret":"5b12942f8b","server":"65535","farm":66,"title":"Yellow-billed Cuckoo","ispublic":1,"isfriend":0,"isfamily":0},{"id":"51550634337","owner":"39177293@N03","secret":"3c2cfce3b7","server":"65535","farm":66,"title":"Yellow-billed Cuckoo","ispublic":1,"isfriend":0,"isfamily":0},{"id":"51552147484","owner":"39177293@N03","secret":"ab30a5ff14","server":"65535","farm":66,"title":"Yellow-billed Cuckoo","ispublic":1,"isfriend":0,"isfamily":0},{"id":"51550380610","owner":"11295713@N00","secret":"8e695e2193","server":"65535","farm":66,"title":"Yellow-billed Cuckoo (Coccyzus americanus) with Insect 2","ispublic":1,"isfriend":0,"isfamily":0},{"id":"51549590953","owner":"11295713@N00","secret":"0d06e8ae47","server":"65535","farm":66,"title":"Yellow-billed Cuckoo (Coccyzus americanus) Profile","ispublic":1,"isfriend":0,"isfamily":0},{"id":"51540670525","owner":"53880078@N06","secret":"b0fa7078fe","server":"65535","farm":66,"title":"Yellow-billed Cuckoo (Coccyzus americanus) 9023.jpg","ispublic":1,"isfriend":0,"isfamily":0},{"id":"51532748848","owner":"11295713@N00","secret":"15e43ec61a","server":"65535","farm":66,"title":"Yellow-billed Cuckoo (Coccyzus americanus) in White-oak 3","ispublic":1,"isfriend":0,"isfamily":0},{"id":"51445259085","owner":"135315828@N06","secret":"debacf08a2","server":"65535","farm":66,"title":"IMG_7877","ispublic":1,"isfriend":0,"isfamily":0},{"id":"51435815486","owner":"120449047@N06","secret":"8cc7c6b026","server":"65535","farm":66,"title":"Yellow-Billed Cuckoo","ispublic":1,"isfriend":0,"isfamily":0},{"id":"51427935890","owner":"151381692@N04","secret":"14347d717d","server":"65535","farm":66,"title":"Yellow-billed Cuckoo (Coccyzus americanus)","ispublic":1,"isfriend":0,"isfamily":0},{"id":"52467887140","owner":"182379969@N08","secret":"9e1fba0d18","server":"65535","farm":66,"title":"Yellow-billed Cuckoo - Coccyzus americanus","ispublic":1,"isfriend":0,"isfamily":0},{"id":"52463150343","owner":"7261670@N03","secret":"e821bcfebb","server":"65535","farm":66,"title":"Yellow-billed Cuckoo","ispublic":1,"isfriend":0,"isfamily":0},{"id":"52402980986","owner":"61241315@N00","secret":"e8193042be","server":"65535","farm":66,"title":"Yellow-billed Cuckoo_N1443","ispublic":1,"isfriend":0,"isfamily":0},{"id":"52388784011","owner":"156457454@N02","secret":"6054912e05","server":"65535","farm":66,"title":"Coccyzus americanus 1 (Yellow-billed Cuckoo)","ispublic":1,"isfriend":0,"isfamily":0},{"id":"52388783371","owner":"156457454@N02","secret":"8a47161c93","server":"65535","farm":66,"title":"Coccyzus americanus 2 (Yellow-billed Cuckoo)","ispublic":1,"isfriend":0,"isfamily":0},{"id":"52342516050","owner":"39652177@N04","secret":"2460d3358a","server":"65535","farm":66,"title":"Yellow-billed cuckoo-08985","ispublic":1,"isfriend":0,"isfamily":0},{"id":"52247194483","owner":"37493716@N02","secret":"3da0921d01","server":"65535","farm":66,"title":"Aves Reserva Tit\u00ed Cabeciblanco","ispublic":1,"isfriend":0,"isfamily":0},{"id":"52247467694","owner":"37493716@N02","secret":"17991b034b","server":"65535","farm":66,"title":"Aves Reserva Tit\u00ed Cabeciblanco","ispublic":1,"isfriend":0,"isfamily":0},{"id":"52247194398","owner":"37493716@N02","secret":"f6cd0e33c5","server":"65535","farm":66,"title":"Aves Reserva Tit\u00ed Cabeciblanco","ispublic":1,"isfriend":0,"isfamily":0},{"id":"52153850086","owner":"28499865@N07","secret":"479987fa04","server":"65535","farm":66,"title":"Yellow-billed Cuckoo - Coccyzus americanus","ispublic":1,"isfriend":0,"isfamily":0},{"id":"52119955937","owner":"120449047@N06","secret":"c27f0ae8b7","server":"65535","farm":66,"title":"Yellow-billed Cuckoo","ispublic":1,"isfriend":0,"isfamily":0},{"id":"51813507425","owner":"96713629@N03","secret":"e790696397","server":"65535","farm":66,"title":"Geelsnavelkoekoek - Yellow-billed Cuckoo (Coccyzus americanus)-819_3419","ispublic":1,"isfriend":0,"isfamily":0},{"id":"51721714672","owner":"71989271@N06","secret":"7e75358da0","server":"65535","farm":66,"title":"Yellow-billed Cuckoo (Coccyzus americanus)","ispublic":1,"isfriend":0,"isfamily":0},{"id":"51723402020","owner":"71989271@N06","secret":"f01d43d6b8","server":"65535","farm":66,"title":"Yellow-billed Cuckoo (Coccyzus americanus)","ispublic":1,"isfriend":0,"isfamily":0},{"id":"51721714642","owner":"71989271@N06","secret":"25191dafb5","server":"65535","farm":66,"title":"Yellow-billed Cuckoo (Coccyzus americanus)","ispublic":1,"isfriend":0,"isfamily":0},{"id":"51722527216","owner":"71989271@N06","secret":"71a52e7429","server":"65535","farm":66,"title":"Yellow-billed Cuckoo (Coccyzus americanus)","ispublic":1,"isfriend":0,"isfamily":0},{"id":"51414346474","owner":"49114357@N08","secret":"c654f2930e","server":"65535","farm":66,"title":"Yellow-billed Cuckoo","ispublic":1,"isfriend":0,"isfamily":0},{"id":"51532748018","owner":"11295713@N00","secret":"49a8a450fc","server":"65535","farm":66,"title":"Yellow-billed Cuckoo (Coccyzus americanus) in White-oak","ispublic":1,"isfriend":0,"isfamily":0},{"id":"51516236142","owner":"71751551@N00","secret":"5533bfc8ec","server":"65535","farm":66,"title":"Yellow billed cuckoo","ispublic":1,"isfriend":0,"isfamily":0},{"id":"51516877313","owner":"183132100@N02","secret":"bb6c3dbf28","server":"65535","farm":66,"title":"Yellow-billed Cuckoo 9-19-2021","ispublic":1,"isfriend":0,"isfamily":0},{"id":"51439719812","owner":"130482037@N02","secret":"ab8824e920","server":"65535","farm":66,"title":"Yellow-billed Cuckoo (Coccyzus americanus) - - Galveston Co., TX\/04","ispublic":1,"isfriend":0,"isfamily":0},{"id":"51426224957","owner":"151381692@N04","secret":"0513928758","server":"65535","farm":66,"title":"Yellow-billed Cuckoo (Coccyzus americanus)","ispublic":1,"isfriend":0,"isfamily":0}]},"stat":"ok"}