{"photos":{"page":1,"pages":17,"perpage":100,"total":1601,"photo":[{"id":"52723826056","owner":"12639178@N07","secret":"4d047d3cf2","server":"65535","farm":66,"title":"Goldkehl-Walds\u00e4nger","ispublic":1,"isfriend":0,"isfamily":0},{"id":"52720518352","owner":"12639178@N07","secret":"db2d755b35","server":"65535","farm":66,"title":"Goldkehl-Walds\u00e4nger","ispublic":1,"isfriend":0,"isfamily":0},{"id":"52717594265","owner":"128369733@N04","secret":"f29df666ee","server":"65535","farm":66,"title":"Hot Afternoon (2)","ispublic":1,"isfriend":0,"isfamily":0},{"id":"52700145297","owner":"187996196@N05","secret":"22f8c39fff","server":"65535","farm":66,"title":"Goldkehl-Walds\u00e4nger \/ Yellow-throated warbler \/ Setophaga dominica","ispublic":1,"isfriend":0,"isfamily":0},{"id":"52681819104","owner":"112608353@N02","secret":"efcbb8e930","server":"65535","farm":66,"title":"Lifer!","ispublic":1,"isfriend":0,"isfamily":0},{"id":"52653417476","owner":"78145652@N02","secret":"50707408e1","server":"65535","farm":66,"title":"Yellow-throated Warbler - Setophaga dominica","ispublic":1,"isfriend":0,"isfamily":0},{"id":"52622591463","owner":"28631427@N00","secret":"4c6154ef87","server":"65535","farm":66,"title":"Yellow-throated Warbler 1","ispublic":1,"isfriend":0,"isfamily":0},{"id":"52617248481","owner":"71649471@N02","secret":"f80504e118","server":"65535","farm":66,"title":"Yellow-throated Warbler","ispublic":1,"isfriend":0,"isfamily":0},{"id":"52611252195","owner":"71649471@N02","secret":"6be4022b49","server":"65535","farm":66,"title":"Yellow-throated Warbler","ispublic":1,"isfriend":0,"isfamily":0},{"id":"52595291840","owner":"7327719@N06","secret":"8d8692ca82","server":"65535","farm":66,"title":"ONE YEAR AGO:  \"my little guy\" came to overwinter ...","ispublic":1,"isfriend":0,"isfamily":0},{"id":"52563469182","owner":"140318147@N08","secret":"e9de31ecd4","server":"65535","farm":66,"title":"yellow-throated warbler (Setophaga dominica) L4A6888","ispublic":1,"isfriend":0,"isfamily":0},{"id":"52563469082","owner":"140318147@N08","secret":"5b3a3a545e","server":"65535","farm":66,"title":"yellow-throated warbler (Setophaga dominica) L4A69001","ispublic":1,"isfriend":0,"isfamily":0},{"id":"52560562612","owner":"196840457@N07","secret":"52d404e59e","server":"65535","farm":66,"title":"Warbler, Yellow-throated","ispublic":1,"isfriend":0,"isfamily":0},{"id":"52561011976","owner":"196840457@N07","secret":"2297dc46f2","server":"65535","farm":66,"title":"Warbler, Yellow-throated","ispublic":1,"isfriend":0,"isfamily":0},{"id":"52544040330","owner":"75129988@N00","secret":"74891ff94c","server":"65535","farm":66,"title":"Yellow-throated Warbler (0624)","ispublic":1,"isfriend":0,"isfamily":0},{"id":"52543849084","owner":"75129988@N00","secret":"18d00e9caa","server":"65535","farm":66,"title":"Yellow-throated Warbler (0720)","ispublic":1,"isfriend":0,"isfamily":0},{"id":"52544040320","owner":"75129988@N00","secret":"32d4ac8e43","server":"65535","farm":66,"title":"Yellow-throated Warbler (0685)","ispublic":1,"isfriend":0,"isfamily":0},{"id":"52544090783","owner":"75129988@N00","secret":"3008f28c66","server":"65535","farm":66,"title":"Yellow-throated Warbler (0660)","ispublic":1,"isfriend":0,"isfamily":0},{"id":"52521320635","owner":"88932760@N08","secret":"d938831136","server":"65535","farm":66,"title":"Sideways Warbler","ispublic":1,"isfriend":0,"isfamily":0},{"id":"52517276590","owner":"88932760@N08","secret":"d2de9f6a1b","server":"65535","farm":66,"title":"Climbing the Curve","ispublic":1,"isfriend":0,"isfamily":0},{"id":"52515100368","owner":"35259356@N06","secret":"b41bb77686","server":"65535","farm":66,"title":"Warbler: Yellow-throated Warbler","ispublic":1,"isfriend":0,"isfamily":0},{"id":"52512852340","owner":"7546739@N08","secret":"15606a519c","server":"65535","farm":66,"title":"Yellow-throated Warbler","ispublic":1,"isfriend":0,"isfamily":0},{"id":"52505979326","owner":"88932760@N08","secret":"c318699a97","server":"65535","farm":66,"title":"What Are You Looking At?","ispublic":1,"isfriend":0,"isfamily":0},{"id":"52466216109","owner":"54799211@N02","secret":"8b9a915729","server":"65535","farm":66,"title":"Yellow-Throated Warbler","ispublic":1,"isfriend":0,"isfamily":0},{"id":"52455391128","owner":"42622112@N08","secret":"d7f699fb12","server":"65535","farm":66,"title":"Cigua Garganta Amarilla \/ Yellow-throated Warbler \/ Setophaga dominica","ispublic":1,"isfriend":0,"isfamily":0},{"id":"52454838536","owner":"42622112@N08","secret":"4272e64bf2","server":"65535","farm":66,"title":"Cigua Garganta Amarilla \/ Yellow-throated Warbler \/ Setophaga dominica","ispublic":1,"isfriend":0,"isfamily":0},{"id":"52454799306","owner":"42622112@N08","secret":"ae6c0cc3f5","server":"65535","farm":66,"title":"Cigua Garganta Amarilla \/ Yellow-throated Warbler \/ Setophaga dominica","ispublic":1,"isfriend":0,"isfamily":0},{"id":"52449310079","owner":"34674638@N05","secret":"2fd3982618","server":"65535","farm":66,"title":"Yellow Throated Warbler","ispublic":1,"isfriend":0,"isfamily":0},{"id":"52447334148","owner":"41694014@N04","secret":"d5626fe559","server":"65535","farm":66,"title":"setophaga dominica","ispublic":1,"isfriend":0,"isfamily":0},{"id":"52436185247","owner":"190185506@N04","secret":"3a06ebe5db","server":"65535","farm":66,"title":"Paruline \u00e0 gorge jaune (Setophaga dominica \/ Yellow-throated Warbler)","ispublic":1,"isfriend":0,"isfamily":0},{"id":"52431005217","owner":"34368269@N04","secret":"ae9af33858","server":"65535","farm":66,"title":"Yellow-throated Warbler","ispublic":1,"isfriend":0,"isfamily":0},{"id":"52428195238","owner":"34368269@N04","secret":"e99693c5d9","server":"65535","farm":66,"title":"Yellow-throated Warbler","ispublic":1,"isfriend":0,"isfamily":0},{"id":"52425804864","owner":"34368269@N04","secret":"12b4b10b48","server":"65535","farm":66,"title":"Yellow-throated Warbler","ispublic":1,"isfriend":0,"isfamily":0},{"id":"52425018209","owner":"34368269@N04","secret":"1ab23f398d","server":"65535","farm":66,"title":"Yellow-throated Warbler","ispublic":1,"isfriend":0,"isfamily":0},{"id":"52419622136","owner":"125605310@N07","secret":"34cff1d2dc","server":"65535","farm":66,"title":"Yellow-throated Warbler, Setophaga dominica","ispublic":1,"isfriend":0,"isfamily":0},{"id":"52419960693","owner":"62043870@N05","secret":"90a4032fd3","server":"65535","farm":66,"title":"Yellow-throated Warbler, Setophaga dominica","ispublic":1,"isfriend":0,"isfamily":0},{"id":"52418935572","owner":"62043870@N05","secret":"4bc4c973fc","server":"65535","farm":66,"title":"Yellow-throated Warbler, Setophaga dominica","ispublic":1,"isfriend":0,"isfamily":0},{"id":"52419449341","owner":"62043870@N05","secret":"8eab7376ab","server":"65535","farm":66,"title":"Yellow-throated Warbler, Setophaga dominica","ispublic":1,"isfriend":0,"isfamily":0},{"id":"52418932727","owner":"62043870@N05","secret":"1f40e3fc0b","server":"65535","farm":66,"title":"Yellow-throated Warbler, Setophaga dominica","ispublic":1,"isfriend":0,"isfamily":0},{"id":"52419443556","owner":"62043870@N05","secret":"3b567f9f4a","server":"65535","farm":66,"title":"Yellow-throated Warbler, Setophaga dominica","ispublic":1,"isfriend":0,"isfamily":0},{"id":"52419881960","owner":"62043870@N05","secret":"7561a5710c","server":"65535","farm":66,"title":"Yellow-throated Warbler, Setophaga dominica","ispublic":1,"isfriend":0,"isfamily":0},{"id":"52397937305","owner":"33573751@N04","secret":"fc98515717","server":"65535","farm":66,"title":"Yellow-throated Warbler (Setophaga dominica) - Vero Beach, Florida, USA","ispublic":1,"isfriend":0,"isfamily":0},{"id":"52394192827","owner":"39511843@N07","secret":"b97d340d6f","server":"65535","farm":66,"title":"Common Yellowthroat (Geothlypis trichas) 1st winter male--3","ispublic":1,"isfriend":0,"isfamily":0},{"id":"52395120843","owner":"39511843@N07","secret":"0cea0719f6","server":"65535","farm":66,"title":"Common Yellowthroat (Geothlypis trichas) 1st winter male,-","ispublic":1,"isfriend":0,"isfamily":0},{"id":"52393158299","owner":"39511843@N07","secret":"28185803ee","server":"65535","farm":66,"title":"Common Yellowthroat (Geothlypis trichas) 1st winter male--2","ispublic":1,"isfriend":0,"isfamily":0},{"id":"52392758401","owner":"39511843@N07","secret":"ec3b6a04c2","server":"65535","farm":66,"title":"Common Yellowthroat (Geothlypis trichas) 1st winter male-","ispublic":1,"isfriend":0,"isfamily":0},{"id":"52330219545","owner":"34674638@N05","secret":"e092a58f31","server":"65535","farm":66,"title":"Yellow Throated Warbler","ispublic":1,"isfriend":0,"isfamily":0},{"id":"52327252650","owner":"71649471@N02","secret":"877735b24c","server":"65535","farm":66,"title":"Yellow-throated Warbler","ispublic":1,"isfriend":0,"isfamily":0},{"id":"52308465342","owner":"124995824@N08","secret":"86c8292158","server":"65535","farm":66,"title":"Yellow-throated Warbler - Setophaga dominica","ispublic":1,"isfriend":0,"isfamily":0},{"id":"52292540773","owner":"39511843@N07","secret":"39de436a8f","server":"65535","farm":66,"title":"Yellow-throated Warbler (Setophaga dominica) male morning bath-1-","ispublic":1,"isfriend":0,"isfamily":0},{"id":"52293025300","owner":"39511843@N07","secret":"c72c643c15","server":"65535","farm":66,"title":"Yellow-throated Warbler (Setophaga dominica) male morning bath-2-","ispublic":1,"isfriend":0,"isfamily":0},{"id":"52272934606","owner":"34674638@N05","secret":"60cf3bd08a","server":"65535","farm":66,"title":"Yellow Throated Warbler","ispublic":1,"isfriend":0,"isfamily":0},{"id":"52258396828","owner":"71649471@N02","secret":"48e152488b","server":"65535","farm":66,"title":"Yellow-throated Warbler","ispublic":1,"isfriend":0,"isfamily":0},{"id":"52216982630","owner":"71649471@N02","secret":"f8d0fcb7d9","server":"65535","farm":66,"title":"Caterpillar Hunting","ispublic":1,"isfriend":0,"isfamily":0},{"id":"52213956490","owner":"71649471@N02","secret":"324d2b90ed","server":"65535","farm":66,"title":"Yellow-throated Warbler","ispublic":1,"isfriend":0,"isfamily":0},{"id":"52193040724","owner":"70295563@N00","secret":"4ae3c2f92c","server":"65535","farm":66,"title":"Handsome fellow","ispublic":1,"isfriend":0,"isfamily":0},{"id":"52176807839","owner":"70295563@N00","secret":"7ca67cbb95","server":"65535","farm":66,"title":"Surprise Visitor","ispublic":1,"isfriend":0,"isfamily":0},{"id":"52172193282","owner":"10260434@N03","secret":"3e49bb66d5","server":"65535","farm":66,"title":"Y-T_Warbler-11Apr22","ispublic":1,"isfriend":0,"isfamily":0},{"id":"52153906601","owner":"28499865@N07","secret":"68734ebc4f","server":"65535","farm":66,"title":"Yellow-throated Warbler - Setophaga dominica","ispublic":1,"isfriend":0,"isfamily":0},{"id":"52145933083","owner":"71649471@N02","secret":"41df9465e1","server":"65535","farm":66,"title":"Yellow-throated Warbler","ispublic":1,"isfriend":0,"isfamily":0},{"id":"52076483046","owner":"35079936@N07","secret":"a46dc3edfd","server":"65535","farm":66,"title":"9W0A8633 Cig\u00fcita Garganta Amarilla - Yellow-throated Warbler - Setophaga dominica","ispublic":1,"isfriend":0,"isfamily":0},{"id":"52070996877","owner":"190773540@N03","secret":"cc7350cefc","server":"65535","farm":66,"title":"Yellow-throated Warbler","ispublic":1,"isfriend":0,"isfamily":0},{"id":"52071499225","owner":"71649471@N02","secret":"6b97e4ffda","server":"65535","farm":66,"title":"Yellow-throated Warbler","ispublic":1,"isfriend":0,"isfamily":0},{"id":"52068420291","owner":"71649471@N02","secret":"72a04e304c","server":"65535","farm":66,"title":"Yellow-throated Warbler","ispublic":1,"isfriend":0,"isfamily":0},{"id":"52052107288","owner":"9765210@N03","secret":"3fa02dce58","server":"65535","farm":66,"title":"Yellow-throated Warbler (Setophaga dominica)","ispublic":1,"isfriend":0,"isfamily":0},{"id":"52037882023","owner":"40003624@N06","secret":"1ae41480c7","server":"65535","farm":66,"title":"Yellow-throated Warbler","ispublic":1,"isfriend":0,"isfamily":0},{"id":"52035710077","owner":"132165466@N08","secret":"ebab3b4d10","server":"65535","farm":66,"title":"Yellow-throated Warbler","ispublic":1,"isfriend":0,"isfamily":0},{"id":"52036747061","owner":"132165466@N08","secret":"7a43191e59","server":"65535","farm":66,"title":"Yellow-throated Warbler","ispublic":1,"isfriend":0,"isfamily":0},{"id":"52034970472","owner":"132165466@N08","secret":"7a09e2c539","server":"65535","farm":66,"title":"Yellow-throated Warbler","ispublic":1,"isfriend":0,"isfamily":0},{"id":"52029664509","owner":"69317752@N02","secret":"1f870444b5","server":"65535","farm":66,"title":"Yellow-throated Warbler","ispublic":1,"isfriend":0,"isfamily":0},{"id":"52027038793","owner":"41894177916@N01","secret":"b3456fce3b","server":"65535","farm":66,"title":"Yellow-Throated Warbler","ispublic":1,"isfriend":0,"isfamily":0},{"id":"52023735116","owner":"73654511@N05","secret":"1409b71cd0","server":"65535","farm":66,"title":"L0A0593-Yellow-throated Warbler","ispublic":1,"isfriend":0,"isfamily":0},{"id":"52621597027","owner":"28631427@N00","secret":"9f01697468","server":"65535","farm":66,"title":"Yellow-throated Warbler 2","ispublic":1,"isfriend":0,"isfamily":0},{"id":"52622106461","owner":"28631427@N00","secret":"f645004490","server":"65535","farm":66,"title":"Yellow-throated Warbler 3","ispublic":1,"isfriend":0,"isfamily":0},{"id":"52539102514","owner":"33610210@N05","secret":"3fb6805be3","server":"65535","farm":66,"title":"Yellow-throated Warbler, Setophaga dominica","ispublic":1,"isfriend":0,"isfamily":0},{"id":"52530124922","owner":"33610210@N05","secret":"0c3c029484","server":"65535","farm":66,"title":"Yellow-throated Warbler, Setophaga dominica","ispublic":1,"isfriend":0,"isfamily":0},{"id":"52531135498","owner":"33610210@N05","secret":"e9fabc920a","server":"65535","farm":66,"title":"Yellow-throated Warbler, Setophaga dominica","ispublic":1,"isfriend":0,"isfamily":0},{"id":"52512307517","owner":"32665930@N04","secret":"ba2364e336","server":"65535","farm":66,"title":"Yellow-throated Warbler","ispublic":1,"isfriend":0,"isfamily":0},{"id":"52512780961","owner":"32665930@N04","secret":"7517970be6","server":"65535","farm":66,"title":"Yellow-throated Warbler","ispublic":1,"isfriend":0,"isfamily":0},{"id":"52455037150","owner":"67306066@N03","secret":"770324e41c","server":"65535","farm":66,"title":"Yellow-throated Warbler (Setophaga dominica)","ispublic":1,"isfriend":0,"isfamily":0},{"id":"52426399287","owner":"193724050@N06","secret":"438e0556b8","server":"65535","farm":66,"title":"Yellow throated warbler name in Spanish: Reinita Gargantiamarilla Scientific name: Setophaga dominica. Taxonomic Family: Parulidae.","ispublic":1,"isfriend":0,"isfamily":0},{"id":"52426036708","owner":"34368269@N04","secret":"a20daac6f9","server":"65535","farm":66,"title":"Yellow-throated Warbler","ispublic":1,"isfriend":0,"isfamily":0},{"id":"52370246042","owner":"61241315@N00","secret":"7752f5ebc1","server":"65535","farm":66,"title":"Yellow-throated Warbler_N7954","ispublic":1,"isfriend":0,"isfamily":0},{"id":"52371500684","owner":"61241315@N00","secret":"a4bc1cb57a","server":"65535","farm":66,"title":"Yellow-throated Warbler_N7955","ispublic":1,"isfriend":0,"isfamily":0},{"id":"52362012146","owner":"195239167@N07","secret":"aacf10b496","server":"65535","farm":66,"title":"Yellow-throated Warbler","ispublic":1,"isfriend":0,"isfamily":0},{"id":"52362012041","owner":"195239167@N07","secret":"ff00e6d548","server":"65535","farm":66,"title":"Yellow-throated Warbler","ispublic":1,"isfriend":0,"isfamily":0},{"id":"52173459094","owner":"10260434@N03","secret":"da674a8973","server":"65535","farm":66,"title":"Y-T_Warbler-11Apr22","ispublic":1,"isfriend":0,"isfamily":0},{"id":"52171763582","owner":"10260434@N03","secret":"d0f886b796","server":"65535","farm":66,"title":"YT_Warbler-09Apr22","ispublic":1,"isfriend":0,"isfamily":0},{"id":"52143234396","owner":"128810613@N02","secret":"7667809079","server":"65535","farm":66,"title":"Yellow Throated Warbler - Setophaga dominica","ispublic":1,"isfriend":0,"isfamily":0},{"id":"52065541060","owner":"190764460@N06","secret":"2762db87e2","server":"65535","farm":66,"title":"YTWA#-2","ispublic":1,"isfriend":0,"isfamily":0},{"id":"52035866237","owner":"61241315@N00","secret":"acf1656e62","server":"65535","farm":66,"title":"Yellow-throated Warbler_N4042","ispublic":1,"isfriend":0,"isfamily":0},{"id":"52036955208","owner":"61241315@N00","secret":"b8384ae4ab","server":"65535","farm":66,"title":"Yellow-throated Warbler_N4039","ispublic":1,"isfriend":0,"isfamily":0},{"id":"52034970457","owner":"132165466@N08","secret":"2bbb290fe6","server":"65535","farm":66,"title":"Yellow-throated Warbler","ispublic":1,"isfriend":0,"isfamily":0},{"id":"52034553129","owner":"21154755@N03","secret":"fff1d2cd84","server":"65535","farm":66,"title":"_DSC9204-4KDCI","ispublic":1,"isfriend":0,"isfamily":0},{"id":"52034306671","owner":"21154755@N03","secret":"6941c6bec4","server":"65535","farm":66,"title":"_DSC9018-4KDCI","ispublic":1,"isfriend":0,"isfamily":0},{"id":"52034344433","owner":"21154755@N03","secret":"d88ee9cdec","server":"65535","farm":66,"title":"_DSC9514-4KDCI","ispublic":1,"isfriend":0,"isfamily":0},{"id":"52033262847","owner":"21154755@N03","secret":"e4831ba93b","server":"65535","farm":66,"title":"_DSC9307-4KDCI","ispublic":1,"isfriend":0,"isfamily":0},{"id":"52034344323","owner":"21154755@N03","secret":"132e3382af","server":"65535","farm":66,"title":"_DSC9333-4KDCI","ispublic":1,"isfriend":0,"isfamily":0},{"id":"52034553004","owner":"21154755@N03","secret":"d282d077c5","server":"65535","farm":66,"title":"_DSC9708-4KDCI","ispublic":1,"isfriend":0,"isfamily":0},{"id":"52024684939","owner":"195239167@N07","secret":"c109c4bf16","server":"65535","farm":66,"title":"Yellow-throated Warbler","ispublic":1,"isfriend":0,"isfamily":0}]},"stat":"ok"}