{"photos":{"page":1,"pages":17,"perpage":100,"total":1637,"photo":[{"id":"52681835427","owner":"24608578@N00","secret":"d6af99faa4","server":"65535","farm":66,"title":"Yellow-breasted chat (Icteria virens)","ispublic":1,"isfriend":0,"isfamily":0},{"id":"52677080103","owner":"24608578@N00","secret":"87ae7740f5","server":"65535","farm":66,"title":"Yellow-breasted chat (Icteria virens)","ispublic":1,"isfriend":0,"isfamily":0},{"id":"52676866554","owner":"24608578@N00","secret":"71d04ee66c","server":"65535","farm":66,"title":"Yellow-breasted chat (Icteria virens)","ispublic":1,"isfriend":0,"isfamily":0},{"id":"52677015795","owner":"24608578@N00","secret":"f4b389e142","server":"65535","farm":66,"title":"Yellow-breasted chat (Icteria virens)","ispublic":1,"isfriend":0,"isfamily":0},{"id":"52676587151","owner":"24608578@N00","secret":"c36127cfeb","server":"65535","farm":66,"title":"Yellow-breasted chat (Icteria virens)","ispublic":1,"isfriend":0,"isfamily":0},{"id":"52677015720","owner":"24608578@N00","secret":"6678c14126","server":"65535","farm":66,"title":"Yellow-breasted chat (Icteria virens)","ispublic":1,"isfriend":0,"isfamily":0},{"id":"52677015695","owner":"24608578@N00","secret":"bd4aa2ee5a","server":"65535","farm":66,"title":"Yellow-breasted chat (Icteria virens)","ispublic":1,"isfriend":0,"isfamily":0},{"id":"52676866429","owner":"24608578@N00","secret":"b5506075b5","server":"65535","farm":66,"title":"Yellow-breasted chat (Icteria virens)","ispublic":1,"isfriend":0,"isfamily":0},{"id":"52673496908","owner":"41694014@N04","secret":"cfa3e95bab","server":"65535","farm":66,"title":"Icteria virens","ispublic":1,"isfriend":0,"isfamily":0},{"id":"52656880204","owner":"12112994@N05","secret":"90e870c9ff","server":"65535","farm":66,"title":"Yellow-breasted Chat (Icteria virens) (DSB0232)","ispublic":1,"isfriend":0,"isfamily":0},{"id":"52657086943","owner":"12112994@N05","secret":"f9426027b7","server":"65535","farm":66,"title":"Yellow-breasted Chat (Icteria virens) (DSB0233)","ispublic":1,"isfriend":0,"isfamily":0},{"id":"52656879219","owner":"12112994@N05","secret":"a6b8e0b61c","server":"65535","farm":66,"title":"Yellow-breasted Chat (Icteria virens) (DSB0234)","ispublic":1,"isfriend":0,"isfamily":0},{"id":"52657039920","owner":"12112994@N05","secret":"959a2c2d3b","server":"65535","farm":66,"title":"Yellow-breasted Chat (Icteria virens) (DSB0235)","ispublic":1,"isfriend":0,"isfamily":0},{"id":"52657073458","owner":"12112994@N05","secret":"22d88efd9d","server":"65535","farm":66,"title":"Yellow-breasted Chat (Icteria virens) (DSB0402)","ispublic":1,"isfriend":0,"isfamily":0},{"id":"52657072818","owner":"12112994@N05","secret":"0351b8b91c","server":"65535","farm":66,"title":"Yellow-breasted Chat (Icteria virens) (DSB0403)","ispublic":1,"isfriend":0,"isfamily":0},{"id":"52645120955","owner":"8013969@N03","secret":"d6f1ff943a","server":"65535","farm":66,"title":"Icteria virens DFL tenn22-1","ispublic":1,"isfriend":0,"isfamily":0},{"id":"52644680146","owner":"8013969@N03","secret":"d4cb10223b","server":"65535","farm":66,"title":"Icteria virens DFL tenn22-2","ispublic":1,"isfriend":0,"isfamily":0},{"id":"52560044004","owner":"91620959@N08","secret":"be8c397cb8","server":"65535","farm":66,"title":"Yellow-breasted chat (Icteria virens)","ispublic":1,"isfriend":0,"isfamily":0},{"id":"52515021624","owner":"76288515@N07","secret":"f61b561ac4","server":"65535","farm":66,"title":"Yellow-breasted Chat Icteria virens","ispublic":1,"isfriend":0,"isfamily":0},{"id":"52514276717","owner":"76288515@N07","secret":"4f1fc5a501","server":"65535","farm":66,"title":"Yellow-breasted Chat Icteria virens","ispublic":1,"isfriend":0,"isfamily":0},{"id":"52515232175","owner":"76288515@N07","secret":"7ed6d8afdc","server":"65535","farm":66,"title":"Yellow-breasted Chat Icteria virens","ispublic":1,"isfriend":0,"isfamily":0},{"id":"52510320496","owner":"139237357@N06","secret":"759e71833e","server":"65535","farm":66,"title":"Yellow-breasted Chat","ispublic":1,"isfriend":0,"isfamily":0},{"id":"52510587279","owner":"7261670@N03","secret":"bac3bd7213","server":"65535","farm":66,"title":"Yellow-breasted Chat","ispublic":1,"isfriend":0,"isfamily":0},{"id":"52510587274","owner":"7261670@N03","secret":"ec55d64219","server":"65535","farm":66,"title":"Yellow-breasted Chat","ispublic":1,"isfriend":0,"isfamily":0},{"id":"52510313371","owner":"7261670@N03","secret":"5c34422296","server":"65535","farm":66,"title":"Yellow-breasted Chat","ispublic":1,"isfriend":0,"isfamily":0},{"id":"52469830891","owner":"39177293@N03","secret":"9af1ea5a9e","server":"65535","farm":66,"title":"Yellow-breasted Chat","ispublic":1,"isfriend":0,"isfamily":0},{"id":"52430747378","owner":"59631194@N06","secret":"5b121b7bb2","server":"65535","farm":66,"title":"Yellow-breasted chat (Icteria virens)","ispublic":1,"isfriend":0,"isfamily":0},{"id":"52403226136","owner":"8065544@N08","secret":"7ab53aa79c","server":"65535","farm":66,"title":"Yellow-breasted Chat (Icteria virens)","ispublic":1,"isfriend":0,"isfamily":0},{"id":"52361746202","owner":"196264892@N08","secret":"01df1af1ac","server":"65535","farm":66,"title":"Yellow-breasted Chat","ispublic":1,"isfriend":0,"isfamily":0},{"id":"52360981766","owner":"36685968@N00","secret":"4e53b6f241","server":"65535","farm":66,"title":"Yellow-breasted Chat (Icteria virens)","ispublic":1,"isfriend":0,"isfamily":0},{"id":"52357468467","owner":"103722035@N06","secret":"4dffaf4a19","server":"0","farm":0,"title":"Yellow-breasted Chat (Icteria virens), Santa Margarita, CA","ispublic":1,"isfriend":0,"isfamily":0},{"id":"52350863058","owner":"54549270@N03","secret":"ac1c454908","server":"65535","farm":66,"title":"Yellow-breasted Chat (Icteria virens)","ispublic":1,"isfriend":0,"isfamily":0},{"id":"52309544484","owner":"28631427@N00","secret":"26885c6cee","server":"65535","farm":66,"title":"Yellow-breasted Chat","ispublic":1,"isfriend":0,"isfamily":0},{"id":"52307036055","owner":"196264892@N08","secret":"b08b2263ce","server":"65535","farm":66,"title":"Yellow-breasted Chat","ispublic":1,"isfriend":0,"isfamily":0},{"id":"52301479547","owner":"36685968@N00","secret":"6a246fbf9c","server":"65535","farm":66,"title":"Yellow-breasted Chat (Icteria virens)","ispublic":1,"isfriend":0,"isfamily":0},{"id":"52302473263","owner":"36685968@N00","secret":"cf99c31f24","server":"65535","farm":66,"title":"Yellow-breasted Chat (Icteria virens)","ispublic":1,"isfriend":0,"isfamily":0},{"id":"52274693697","owner":"57465751@N05","secret":"b9cdee4ac1","server":"65535","farm":66,"title":"Yellow-breasted Chat (Icteria virens), American R. Pkwy., Fair Oaks, Sacramento Co., CA","ispublic":1,"isfriend":0,"isfamily":0},{"id":"52275870275","owner":"196264892@N08","secret":"c15b7ac0a3","server":"65535","farm":66,"title":"Yellow-breasted Chat 1","ispublic":1,"isfriend":0,"isfamily":0},{"id":"52275870060","owner":"196264892@N08","secret":"c2ef84689c","server":"65535","farm":66,"title":"Yellow-breasted Chat 2","ispublic":1,"isfriend":0,"isfamily":0},{"id":"52258010814","owner":"23020855@N03","secret":"24c54c199c","server":"65535","farm":66,"title":"Yellow-Breasted Chat - 10 Mile Pond, MO","ispublic":1,"isfriend":0,"isfamily":0},{"id":"52227387221","owner":"49114357@N08","secret":"143b19faf7","server":"65535","farm":66,"title":"Yellow-breasted Chat","ispublic":1,"isfriend":0,"isfamily":0},{"id":"52218799893","owner":"189723744@N02","secret":"3ddace83bf","server":"65535","farm":66,"title":"YELLOW BREASTED CHAT","ispublic":1,"isfriend":0,"isfamily":0},{"id":"52208668215","owner":"65148649@N04","secret":"8f6be9b803","server":"65535","farm":66,"title":"Yellow-Breasted Chat","ispublic":1,"isfriend":0,"isfamily":0},{"id":"52194407511","owner":"189426727@N07","secret":"cff04afe6b","server":"65535","farm":66,"title":"Yellow-breasted Chat","ispublic":1,"isfriend":0,"isfamily":0},{"id":"52185080498","owner":"29170368@N03","secret":"edb4caabb3","server":"65535","farm":66,"title":"Yellow-breasted Chat","ispublic":1,"isfriend":0,"isfamily":0},{"id":"52169328260","owner":"65148649@N04","secret":"10cfb716f2","server":"65535","farm":66,"title":"Yellow-breasted Chat","ispublic":1,"isfriend":0,"isfamily":0},{"id":"52151341766","owner":"39177293@N03","secret":"be345e9c58","server":"65535","farm":66,"title":"Yellow-breasted Chat","ispublic":1,"isfriend":0,"isfamily":0},{"id":"52148884052","owner":"69740770@N05","secret":"81e500f143","server":"65535","farm":66,"title":"Yellow-breasted Chat - Icteria virens","ispublic":1,"isfriend":0,"isfamily":0},{"id":"52147917682","owner":"195782057@N07","secret":"302a5a03c9","server":"0","farm":0,"title":"White-Winged Dove, Bell's Vireo, House Finch, Mourning Dove, Yellow-Breasted Chat, Lesser Goldfinch","ispublic":1,"isfriend":0,"isfamily":0},{"id":"52147606847","owner":"195787505@N02","secret":"cfe88806e4","server":"65535","farm":66,"title":"Yellow-breasted Chat","ispublic":1,"isfriend":0,"isfamily":0},{"id":"52143527987","owner":"77931884@N00","secret":"11b301f830","server":"65535","farm":66,"title":"Yellow-breasted Chat","ispublic":1,"isfriend":0,"isfamily":0},{"id":"52109060359","owner":"183736567@N07","secret":"a3f0c2d0c7","server":"65535","farm":66,"title":"Yellow-breasted Chat (Icteria virens) singing","ispublic":1,"isfriend":0,"isfamily":0},{"id":"52109293565","owner":"183736567@N07","secret":"d2473d0e89","server":"65535","farm":66,"title":"Yellow-breasted Chat (Icteria virens) displaying","ispublic":1,"isfriend":0,"isfamily":0},{"id":"52105325881","owner":"76288515@N07","secret":"95f7e7d7b2","server":"65535","farm":66,"title":"Yellow-breasted Chat Icteria virens","ispublic":1,"isfriend":0,"isfamily":0},{"id":"52105579134","owner":"76288515@N07","secret":"f12fde4ae8","server":"65535","farm":66,"title":"Yellow-breasted Chat Icteria virens","ispublic":1,"isfriend":0,"isfamily":0},{"id":"52100858279","owner":"77931884@N00","secret":"59306016fe","server":"0","farm":0,"title":"Yellow-Breasted Chat","ispublic":1,"isfriend":0,"isfamily":0},{"id":"52093550718","owner":"71649471@N02","secret":"537fc0b72b","server":"65535","farm":66,"title":"Yellow-breasted Chat","ispublic":1,"isfriend":0,"isfamily":0},{"id":"52092399144","owner":"10105106@N07","secret":"d910cec5ef","server":"65535","farm":66,"title":"Yellow-breasted Chat","ispublic":1,"isfriend":0,"isfamily":0},{"id":"52090128206","owner":"32320154@N05","secret":"cea4c78468","server":"65535","farm":66,"title":"Yellow-breasted chat","ispublic":1,"isfriend":0,"isfamily":0},{"id":"52612700085","owner":"124995824@N08","secret":"f2d8804498","server":"65535","farm":66,"title":"Yellow-breasted Chat - Icteria virens","ispublic":1,"isfriend":0,"isfamily":0},{"id":"52579762297","owner":"153973412@N04","secret":"ffaaff92c8","server":"65535","farm":66,"title":"Yellow-breasted Chat-Icteria virens, Canyonlands NP, UT","ispublic":1,"isfriend":0,"isfamily":0},{"id":"52539260684","owner":"33610210@N05","secret":"90975648f6","server":"65535","farm":66,"title":"Yellow-breasted Chat, Icteria virens","ispublic":1,"isfriend":0,"isfamily":0},{"id":"52538343212","owner":"33610210@N05","secret":"c0d7745f45","server":"65535","farm":66,"title":"Yellow-breasted Chat, Icteria virens","ispublic":1,"isfriend":0,"isfamily":0},{"id":"52514749116","owner":"76288515@N07","secret":"1f10bb051c","server":"65535","farm":66,"title":"Yellow-breasted Chat Icteria virens","ispublic":1,"isfriend":0,"isfamily":0},{"id":"52515021689","owner":"76288515@N07","secret":"ef2c4b3341","server":"65535","farm":66,"title":"Yellow-breasted Chat Icteria virens","ispublic":1,"isfriend":0,"isfamily":0},{"id":"52515232325","owner":"76288515@N07","secret":"1a7c0e87cc","server":"65535","farm":66,"title":"Yellow-breasted Chat Icteria virens","ispublic":1,"isfriend":0,"isfamily":0},{"id":"52515021499","owner":"76288515@N07","secret":"57f16a3d44","server":"65535","farm":66,"title":"Yellow-breasted Chat Icteria virens","ispublic":1,"isfriend":0,"isfamily":0},{"id":"52515021444","owner":"76288515@N07","secret":"f4057d3a38","server":"65535","farm":66,"title":"Yellow-breasted Chat Icteria virens","ispublic":1,"isfriend":0,"isfamily":0},{"id":"52515296513","owner":"76288515@N07","secret":"28561663e6","server":"65535","farm":66,"title":"Yellow-breasted Chat Icteria virens","ispublic":1,"isfriend":0,"isfamily":0},{"id":"52495230446","owner":"64557331@N04","secret":"9199918bcb","server":"65535","farm":66,"title":"Yellow-Breasted Chat - (Icteria virens)_07042022.jpg","ispublic":1,"isfriend":0,"isfamily":0},{"id":"52472228081","owner":"187792860@N04","secret":"eae257f046","server":"65535","farm":66,"title":"Yellow-breasted Chat (Icteria virens)","ispublic":1,"isfriend":0,"isfamily":0},{"id":"52430268251","owner":"187792860@N04","secret":"52fd4a9d71","server":"65535","farm":66,"title":"Yellow-breasted Chat (Icteria virens)","ispublic":1,"isfriend":0,"isfamily":0},{"id":"52425448151","owner":"187792860@N04","secret":"4ffa4c8d02","server":"65535","farm":66,"title":"Yellow-breasted Chat (Icteria virens)","ispublic":1,"isfriend":0,"isfamily":0},{"id":"52407109611","owner":"156457454@N02","secret":"83a0c12905","server":"65535","farm":66,"title":"Icteria virens 3 (Yellow-breasted Chat)","ispublic":1,"isfriend":0,"isfamily":0},{"id":"52389091514","owner":"156457454@N02","secret":"f37e373a5c","server":"65535","farm":66,"title":"Icteria virens 1 (Yellow-breasted Chat)","ispublic":1,"isfriend":0,"isfamily":0},{"id":"52387859392","owner":"156457454@N02","secret":"6d5be46473","server":"65535","farm":66,"title":"Icteria virens 2 (Yellow-breasted Chat)","ispublic":1,"isfriend":0,"isfamily":0},{"id":"52372007448","owner":"187792860@N04","secret":"0a7b6a3bde","server":"65535","farm":66,"title":"Yellow-breasted Chat (Icteria virens)","ispublic":1,"isfriend":0,"isfamily":0},{"id":"52263614318","owner":"185959967@N05","secret":"9c720decda","server":"65535","farm":66,"title":"Yellow-breasted Chat (Icteria virens)","ispublic":1,"isfriend":0,"isfamily":0},{"id":"52230051638","owner":"195819210@N03","secret":"1bbe2070b9","server":"0","farm":0,"title":"(185) Yellow-breasted Chat Audio","ispublic":1,"isfriend":0,"isfamily":0},{"id":"52168850001","owner":"65148649@N04","secret":"306648b7c8","server":"65535","farm":66,"title":"Yellow-breasted Chat","ispublic":1,"isfriend":0,"isfamily":0},{"id":"52169095484","owner":"65148649@N04","secret":"f513b41cc2","server":"65535","farm":66,"title":"Yellow-breasted Chat","ispublic":1,"isfriend":0,"isfamily":0},{"id":"52160421326","owner":"195819210@N03","secret":"136f078f96","server":"65535","farm":66,"title":"(58) Yellow-breasted Chat","ispublic":1,"isfriend":0,"isfamily":0},{"id":"52148937816","owner":"195782057@N07","secret":"1da3744ba6","server":"0","farm":0,"title":"White-Winged Dove, Yellow Breasted Chat, Wild Turkey, Cassin's Kingbird, Bell's Vireo","ispublic":1,"isfriend":0,"isfamily":0},{"id":"52149175469","owner":"195782057@N07","secret":"f257f403f1","server":"0","farm":0,"title":"Yellow-breasted Chat","ispublic":1,"isfriend":0,"isfamily":0},{"id":"52149175704","owner":"195782057@N07","secret":"0d838935ae","server":"0","farm":0,"title":"White-Winged Dove, Northern Cardinal, Northern Flicker, yellow-breasted chat","ispublic":1,"isfriend":0,"isfamily":0},{"id":"52147429187","owner":"131037795@N03","secret":"b66f3f426f","server":"65535","farm":66,"title":"Yellow-breasted Chat (Icteria virens)","ispublic":1,"isfriend":0,"isfamily":0},{"id":"52148462323","owner":"131037795@N03","secret":"73295b1c02","server":"65535","farm":66,"title":"Yellow-breasted Chat (Icteria virens)","ispublic":1,"isfriend":0,"isfamily":0},{"id":"52140864011","owner":"193250255@N08","secret":"ccb9edacdd","server":"65535","farm":66,"title":"132 Yellow-breasted Chat","ispublic":1,"isfriend":0,"isfamily":0},{"id":"52121971958","owner":"64606186@N00","secret":"0b42ae2e0c","server":"65535","farm":66,"title":"Yellow-breasted chat","ispublic":1,"isfriend":0,"isfamily":0},{"id":"52111136856","owner":"61241315@N00","secret":"261f1a176a","server":"0","farm":0,"title":"Yellow-breasted Chat_0373.mp4","ispublic":1,"isfriend":0,"isfamily":0},{"id":"52111136906","owner":"61241315@N00","secret":"f330c0080f","server":"65535","farm":66,"title":"Yellow-breasted Chat_N0372","ispublic":1,"isfriend":0,"isfamily":0},{"id":"52111645485","owner":"61241315@N00","secret":"25ca28f445","server":"65535","farm":66,"title":"Yellow-breasted Chat_00_00_10_777","ispublic":1,"isfriend":0,"isfamily":0},{"id":"52111172048","owner":"61241315@N00","secret":"3587068879","server":"65535","farm":66,"title":"Yellow-breasted Chat_00_00_15_549","ispublic":1,"isfriend":0,"isfamily":0},{"id":"52104219277","owner":"59770980@N02","secret":"429d3a1344","server":"65535","farm":66,"title":"Runnaskr\u00edkja-Yellow breasted Chat-Icteria virens","ispublic":1,"isfriend":0,"isfamily":0},{"id":"52100327170","owner":"187792860@N04","secret":"498f31aaa3","server":"65535","farm":66,"title":"Yellow-breasted Chat (Icteria virens)","ispublic":1,"isfriend":0,"isfamily":0},{"id":"52098338154","owner":"91064752@N03","secret":"f5ca3fd66e","server":"65535","farm":66,"title":"Yellow-breasted Chat","ispublic":1,"isfriend":0,"isfamily":0},{"id":"52097879084","owner":"65148649@N04","secret":"77209dcc64","server":"65535","farm":66,"title":"Yellow-breasted Chat","ispublic":1,"isfriend":0,"isfamily":0},{"id":"52097670628","owner":"65148649@N04","secret":"916f2bd8e8","server":"65535","farm":66,"title":"Yellow-Breasted Chat","ispublic":1,"isfriend":0,"isfamily":0},{"id":"52094169450","owner":"187792860@N04","secret":"e514dec11b","server":"65535","farm":66,"title":"Yellow-breasted Chat (Icteria virens)","ispublic":1,"isfriend":0,"isfamily":0},{"id":"52092708234","owner":"183736567@N07","secret":"5feb642925","server":"65535","farm":66,"title":"Yellow-breasted Chat (Icteria virens) displaying","ispublic":1,"isfriend":0,"isfamily":0}]},"stat":"ok"}