{"photos":{"page":1,"pages":10,"perpage":100,"total":903,"photo":[{"id":"52580143872","owner":"80355852@N00","secret":"4531683b27","server":"65535","farm":66,"title":"Yellow-throated Vireo","ispublic":1,"isfriend":0,"isfamily":0},{"id":"52580666265","owner":"153973412@N04","secret":"76f8508754","server":"65535","farm":66,"title":"Yellow-throated Vireo-Vireo flavifrons, Cone Marsh, IA","ispublic":1,"isfriend":0,"isfamily":0},{"id":"52539102659","owner":"33610210@N05","secret":"fcb816c2b4","server":"65535","farm":66,"title":"Yellow-throated Vireo, Vireo flavifrons","ispublic":1,"isfriend":0,"isfamily":0},{"id":"52539285075","owner":"33610210@N05","secret":"050a0f55f2","server":"65535","farm":66,"title":"Yellow-throated Vireo, Vireo flavifrons","ispublic":1,"isfriend":0,"isfamily":0},{"id":"52538807001","owner":"33610210@N05","secret":"2f90862c87","server":"65535","farm":66,"title":"Yellow-throated Vireo, Vireo flavifrons","ispublic":1,"isfriend":0,"isfamily":0},{"id":"52384760010","owner":"49114357@N08","secret":"29bf4ee07a","server":"65535","farm":66,"title":"Yellow-throated Vireo","ispublic":1,"isfriend":0,"isfamily":0},{"id":"52361405105","owner":"36685968@N00","secret":"0297fc94bd","server":"65535","farm":66,"title":"Yellow-throated Vireo (Vireo flavifrons)","ispublic":1,"isfriend":0,"isfamily":0},{"id":"52360235416","owner":"61241315@N00","secret":"d44521f635","server":"65535","farm":66,"title":"Yellow-throated Vireo_N7068","ispublic":1,"isfriend":0,"isfamily":0},{"id":"52360551999","owner":"61241315@N00","secret":"8afbae25ec","server":"65535","farm":66,"title":"Yellow-throated Vireo_N6913","ispublic":1,"isfriend":0,"isfamily":0},{"id":"52360235401","owner":"61241315@N00","secret":"0f57cc27c4","server":"65535","farm":66,"title":"Yellow-throated Vireo_N7070","ispublic":1,"isfriend":0,"isfamily":0},{"id":"52360657820","owner":"61241315@N00","secret":"dd14339402","server":"65535","farm":66,"title":"Yellow-throated Vireo_N7076","ispublic":1,"isfriend":0,"isfamily":0},{"id":"52359286657","owner":"61241315@N00","secret":"75ed52ce58","server":"65535","farm":66,"title":"Yellow-throated Vireo_N7082","ispublic":1,"isfriend":0,"isfamily":0},{"id":"52360235281","owner":"61241315@N00","secret":"87f4b73f4f","server":"65535","farm":66,"title":"Yellow-throated Vireo_N7087","ispublic":1,"isfriend":0,"isfamily":0},{"id":"52360657760","owner":"61241315@N00","secret":"953471686f","server":"65535","farm":66,"title":"Yellow-throated Vireo_Red-eyed Vireo_N7092","ispublic":1,"isfriend":0,"isfamily":0},{"id":"52360474003","owner":"61241315@N00","secret":"e621d3df3d","server":"65535","farm":66,"title":"Yellow-throated Vireo_N7130","ispublic":1,"isfriend":0,"isfamily":0},{"id":"52323876510","owner":"28631427@N00","secret":"f22a91cd78","server":"65535","farm":66,"title":"Yellow-throated Vireo 1","ispublic":1,"isfriend":0,"isfamily":0},{"id":"52323862699","owner":"28631427@N00","secret":"4a7b2dc20e","server":"65535","farm":66,"title":"Yellow-throated Vireo 2","ispublic":1,"isfriend":0,"isfamily":0},{"id":"52253339650","owner":"107784905@N04","secret":"47543cce26","server":"65535","farm":66,"title":"Vir\u00e9o \u00e0 gorge jaune - Rancho Naturalista\/Cartago\/Costa Rica_20211129_002-1","ispublic":1,"isfriend":0,"isfamily":0},{"id":"52152926137","owner":"28499865@N07","secret":"6a04f295a1","server":"65535","farm":66,"title":"Yellow-throated Vireo - Vireo flavifrons","ispublic":1,"isfriend":0,"isfamily":0},{"id":"52115105137","owner":"73654511@N05","secret":"da865a6283","server":"65535","farm":66,"title":"L0A4278-Yellow-throated Vireo","ispublic":1,"isfriend":0,"isfamily":0},{"id":"52105703204","owner":"70839498@N04","secret":"826c44a12f","server":"65535","farm":66,"title":"Vireo flavifrons Yellow-throated Vireo  NY MAY 220527 5W1A8621","ispublic":1,"isfriend":0,"isfamily":0},{"id":"52088521526","owner":"128537732@N06","secret":"2d3602b5e0","server":"65535","farm":66,"title":"Yellow-throated Vireo (Vireo flavifrons)","ispublic":1,"isfriend":0,"isfamily":0},{"id":"52083590201","owner":"32752434@N07","secret":"f19174d362","server":"65535","farm":66,"title":"Yellow-throated Vireo (Vireo flavifrons)","ispublic":1,"isfriend":0,"isfamily":0},{"id":"52081889323","owner":"120449047@N06","secret":"554263c927","server":"65535","farm":66,"title":"Yellow-throated Vireo (17\/35)","ispublic":1,"isfriend":0,"isfamily":0},{"id":"52079446712","owner":"73654511@N05","secret":"1ae7b36d86","server":"65535","farm":66,"title":"L0A4180-Yellow-throated Vireo","ispublic":1,"isfriend":0,"isfamily":0},{"id":"52080626540","owner":"71649471@N02","secret":"c6bcd9a357","server":"65535","farm":66,"title":"Yellow-throated Vireo","ispublic":1,"isfriend":0,"isfamily":0},{"id":"52076179881","owner":"135315828@N06","secret":"113a7b71fd","server":"65535","farm":66,"title":"yellow-throated vireo","ispublic":1,"isfriend":0,"isfamily":0},{"id":"52073167729","owner":"37242840@N07","secret":"9232cbecec","server":"65535","farm":66,"title":"Yellow-throated Vireo, Vireo flavifrons","ispublic":1,"isfriend":0,"isfamily":0},{"id":"52073167654","owner":"37242840@N07","secret":"d234c334d7","server":"65535","farm":66,"title":"Yellow-throated Vireo, Vireo flavifrons","ispublic":1,"isfriend":0,"isfamily":0},{"id":"52068187119","owner":"36013467@N07","secret":"f8be957b4f","server":"65535","farm":66,"title":"Yellow-throated Vireo (Vireo flavifrons)","ispublic":1,"isfriend":0,"isfamily":0},{"id":"52054211739","owner":"11020019@N04","secret":"4b0a55c5dc","server":"65535","farm":66,"title":"Yellow-throated vireo at Magee Marsh, Ohio","ispublic":1,"isfriend":0,"isfamily":0},{"id":"52054210869","owner":"11020019@N04","secret":"e621486c81","server":"65535","farm":66,"title":"Yellow-throated vireo at Magee Marsh, Ohio","ispublic":1,"isfriend":0,"isfamily":0},{"id":"52053976246","owner":"11020019@N04","secret":"e283b50414","server":"65535","farm":66,"title":"Yellow-throated vireo at Magee Marsh, Ohio","ispublic":1,"isfriend":0,"isfamily":0},{"id":"52054209099","owner":"11020019@N04","secret":"5828e1ac41","server":"65535","farm":66,"title":"Yellow-throated vireo at Magee Marsh, Ohio","ispublic":1,"isfriend":0,"isfamily":0},{"id":"52051030682","owner":"9765210@N03","secret":"5d4becf44b","server":"65535","farm":66,"title":"Yellow-throated Vireo (Vireo flavifrons)","ispublic":1,"isfriend":0,"isfamily":0},{"id":"52038855126","owner":"76617062@N08","secret":"29cb2352fd","server":"65535","farm":66,"title":"1.17623 Vir\u00e9o \u00e0 gorge jaune \/ Vireo flavifrons \/ Yellow-throated Vireo","ispublic":1,"isfriend":0,"isfamily":0},{"id":"52038038844","owner":"40003624@N06","secret":"e771c9010d","server":"65535","farm":66,"title":"Yellow-throated Vireo","ispublic":1,"isfriend":0,"isfamily":0},{"id":"52019655022","owner":"190949917@N03","secret":"6f0bcaab82","server":"65535","farm":66,"title":"Yellow-throated Vireo","ispublic":1,"isfriend":0,"isfamily":0},{"id":"52006702813","owner":"48938938@N04","secret":"1d3bfe907c","server":"65535","farm":66,"title":"Yellow-throated Vireo_Vireo flavifrons_Ascanio_Cuba_DZ3A5943","ispublic":1,"isfriend":0,"isfamily":0},{"id":"51991109866","owner":"156457454@N02","secret":"fce2a0b2f2","server":"65535","farm":66,"title":"Yellow-throated Vireo","ispublic":1,"isfriend":0,"isfamily":0},{"id":"51991670315","owner":"156457454@N02","secret":"9801c70662","server":"65535","farm":66,"title":"Yellow-throated Vireo","ispublic":1,"isfriend":0,"isfamily":0},{"id":"51974393343","owner":"24110087@N05","secret":"b0384d8d7b","server":"65535","farm":66,"title":"Yellow-throated Vireo - Vireo flavifrons","ispublic":1,"isfriend":0,"isfamily":0},{"id":"51965915209","owner":"48793602@N07","secret":"d32234a044","server":"65535","farm":66,"title":"Yellow-throated Vireo 03-25-2022","ispublic":1,"isfriend":0,"isfamily":0},{"id":"51965633221","owner":"48793602@N07","secret":"bdde241f97","server":"65535","farm":66,"title":"Yellow-throated Vireo 03-25-2022","ispublic":1,"isfriend":0,"isfamily":0},{"id":"51910364224","owner":"110624976@N05","secret":"8ea2097d02","server":"65535","farm":66,"title":"Yellow-throated Verio seen against Fall Colors","ispublic":1,"isfriend":0,"isfamily":0},{"id":"51837924150","owner":"28631427@N00","secret":"fc9318f65a","server":"65535","farm":66,"title":"Yellow-throated Vireo 1","ispublic":1,"isfriend":0,"isfamily":0},{"id":"51837298478","owner":"28631427@N00","secret":"46c29a8798","server":"65535","farm":66,"title":"Yellow-throated Vireo 2","ispublic":1,"isfriend":0,"isfamily":0},{"id":"51837187021","owner":"28631427@N00","secret":"2fb3fd0bea","server":"65535","farm":66,"title":"Yellow-throated Vireo 3","ispublic":1,"isfriend":0,"isfamily":0},{"id":"51775519145","owner":"154261763@N05","secret":"f33cebbc9e","server":"65535","farm":66,"title":"Yellow-throated vireo (Gelbkehlvireo) - Vireo flavifrons)","ispublic":1,"isfriend":0,"isfamily":0},{"id":"51734880118","owner":"123979267@N05","secret":"89df8fbef3","server":"65535","farm":66,"title":"Yellow-throated Vireo","ispublic":1,"isfriend":0,"isfamily":0},{"id":"51708688161","owner":"56686021@N04","secret":"52c3e8bd69","server":"65535","farm":66,"title":"Yellow-throated Vireo","ispublic":1,"isfriend":0,"isfamily":0},{"id":"51708688101","owner":"56686021@N04","secret":"6172e36454","server":"65535","farm":66,"title":"Yellow-throated Vireo","ispublic":1,"isfriend":0,"isfamily":0},{"id":"51672162980","owner":"8013969@N03","secret":"81840e2577","server":"65535","farm":66,"title":"Vireo flavifrons","ispublic":1,"isfriend":0,"isfamily":0},{"id":"51671528658","owner":"8013969@N03","secret":"64a6fc4209","server":"65535","farm":66,"title":"Vireo flavifrons","ispublic":1,"isfriend":0,"isfamily":0},{"id":"51671492695","owner":"8013969@N03","secret":"09522e9840","server":"65535","farm":66,"title":"Vireo flavifrons","ispublic":1,"isfriend":0,"isfamily":0},{"id":"51659389697","owner":"80355852@N00","secret":"f306d15e3f","server":"65535","farm":66,"title":"Yellow-throated Vireo","ispublic":1,"isfriend":0,"isfamily":0},{"id":"51647966429","owner":"99208129@N08","secret":"5f9743f0f2","server":"65535","farm":66,"title":"Vireo flavifrons \/ Yellow-throated Vireo","ispublic":1,"isfriend":0,"isfamily":0},{"id":"51647966104","owner":"99208129@N08","secret":"c931fe5d6b","server":"65535","farm":66,"title":"Vireo flavifrons \/ Yellow-throated Vireo","ispublic":1,"isfriend":0,"isfamily":0},{"id":"51647526803","owner":"99208129@N08","secret":"5f96a03f98","server":"65535","farm":66,"title":"Vireo flavifrons \/ Yellow-throated Vireo","ispublic":1,"isfriend":0,"isfamily":0},{"id":"51647526438","owner":"99208129@N08","secret":"9401a8b082","server":"65535","farm":66,"title":"Vireo flavifrons \/ Yellow-throated Vireo","ispublic":1,"isfriend":0,"isfamily":0},{"id":"51603780587","owner":"56902740@N06","secret":"b38b4feda9","server":"65535","farm":66,"title":"Yellow-throated Vireo","ispublic":1,"isfriend":0,"isfamily":0},{"id":"51413816303","owner":"49114357@N08","secret":"491983de2e","server":"65535","farm":66,"title":"Yellow-throated Vireo","ispublic":1,"isfriend":0,"isfamily":0},{"id":"51524406386","owner":"67306066@N03","secret":"9abe8de8f5","server":"65535","farm":66,"title":"Yellow-throated Vireo (Vireo flavifrons)","ispublic":1,"isfriend":0,"isfamily":0},{"id":"51524635268","owner":"67306066@N03","secret":"1954221ede","server":"65535","farm":66,"title":"Yellow-throated Vireo (Vireo flavifrons)","ispublic":1,"isfriend":0,"isfamily":0},{"id":"51525315160","owner":"67306066@N03","secret":"00b0e96c04","server":"65535","farm":66,"title":"Yellow-throated Vireo (Vireo flavifrons)","ispublic":1,"isfriend":0,"isfamily":0},{"id":"51424601508","owner":"49114357@N08","secret":"fa31a4a110","server":"65535","farm":66,"title":"Yellow-throated Vireo","ispublic":1,"isfriend":0,"isfamily":0},{"id":"51492283842","owner":"135315828@N06","secret":"6843cf413b","server":"65535","farm":66,"title":"IMG_0991","ispublic":1,"isfriend":0,"isfamily":0},{"id":"51493786714","owner":"135315828@N06","secret":"793c0909c6","server":"65535","farm":66,"title":"IMG_1000","ispublic":1,"isfriend":0,"isfamily":0},{"id":"51493077811","owner":"135315828@N06","secret":"ff8f4aa8c6","server":"65535","farm":66,"title":"IMG_1004","ispublic":1,"isfriend":0,"isfamily":0},{"id":"51493297268","owner":"135315828@N06","secret":"6a107f8769","server":"65535","farm":66,"title":"IMG_1005","ispublic":1,"isfriend":0,"isfamily":0},{"id":"51493786249","owner":"135315828@N06","secret":"fa7980dcf9","server":"65535","farm":66,"title":"IMG_1012","ispublic":1,"isfriend":0,"isfamily":0},{"id":"51493077536","owner":"135315828@N06","secret":"ef6f85f01b","server":"65535","farm":66,"title":"IMG_1023","ispublic":1,"isfriend":0,"isfamily":0},{"id":"51610914553","owner":"8770851@N02","secret":"f8675b83d3","server":"65535","farm":66,"title":"Yellow-throated Vireo","ispublic":1,"isfriend":0,"isfamily":0},{"id":"51589720563","owner":"8770851@N02","secret":"b6ca5c9480","server":"65535","farm":66,"title":"Yellow-throated Vireo in Locust Tree","ispublic":1,"isfriend":0,"isfamily":0},{"id":"51589719568","owner":"8770851@N02","secret":"1df8168184","server":"65535","farm":66,"title":"Yellow-throated Vireo in Understory","ispublic":1,"isfriend":0,"isfamily":0},{"id":"51322208751","owner":"129803374@N05","secret":"8089b0c782","server":"65535","farm":66,"title":"A face only a mother could love. Yellow-throated Vireo (Vireo flavifrons) - Fledgling","ispublic":1,"isfriend":0,"isfamily":0},{"id":"51313245430","owner":"33610210@N05","secret":"8a907a59e0","server":"65535","farm":66,"title":"Yellow-throated Vireo, Vireo flavifrons","ispublic":1,"isfriend":0,"isfamily":0},{"id":"51289164727","owner":"129803374@N05","secret":"97299c999e","server":"65535","farm":66,"title":"Yellow-throated Vireo (Vireo flavifrons)","ispublic":1,"isfriend":0,"isfamily":0},{"id":"51290534819","owner":"129803374@N05","secret":"a5c50a2df4","server":"65535","farm":66,"title":"Yellow-throated Vireo (Vireo flavifrons) - Fledgling","ispublic":1,"isfriend":0,"isfamily":0},{"id":"51278218890","owner":"61021753@N02","secret":"ef442841e2","server":"65535","farm":66,"title":"n308_w1150","ispublic":1,"isfriend":0,"isfamily":0},{"id":"51267159840","owner":"61021753@N02","secret":"e2df9d1b67","server":"65535","farm":66,"title":"n244_w1150","ispublic":1,"isfriend":0,"isfamily":0},{"id":"51264386313","owner":"33573751@N04","secret":"b88dba7f8d","server":"65535","farm":66,"title":"Yellow-throated Vireo (Vireo flavifrons) - Kent, Connecticut, USA","ispublic":1,"isfriend":0,"isfamily":0},{"id":"51252311040","owner":"137772040@N07","secret":"15e28cbccc","server":"65535","farm":66,"title":"Yellow-throated Vireo (Vireo flavifrons) by Allen Rand","ispublic":1,"isfriend":0,"isfamily":0},{"id":"51246293781","owner":"61021753@N02","secret":"56091250a5","server":"65535","farm":66,"title":"n17_w1150","ispublic":1,"isfriend":0,"isfamily":0},{"id":"51243304878","owner":"21154755@N03","secret":"82b8c9580d","server":"65535","farm":66,"title":"_DSC3085-4K","ispublic":1,"isfriend":0,"isfamily":0},{"id":"51243870134","owner":"21154755@N03","secret":"968a0d602f","server":"65535","farm":66,"title":"_DSC3119-4K","ispublic":1,"isfriend":0,"isfamily":0},{"id":"51242391512","owner":"21154755@N03","secret":"88018ed73d","server":"65535","farm":66,"title":"_DSC0222-4K","ispublic":1,"isfriend":0,"isfamily":0},{"id":"51221752827","owner":"49114357@N08","secret":"4ccd502b09","server":"65535","farm":66,"title":"Yellow-throated Vireo","ispublic":1,"isfriend":0,"isfamily":0},{"id":"51222226147","owner":"61021753@N02","secret":"30bf16704b","server":"65535","farm":66,"title":"n287_w1150","ispublic":1,"isfriend":0,"isfamily":0},{"id":"51217817141","owner":"61021753@N02","secret":"5da4b467c9","server":"65535","farm":66,"title":"n285_w1150","ispublic":1,"isfriend":0,"isfamily":0},{"id":"51214265042","owner":"70295563@N00","secret":"692aab5b52","server":"65535","farm":66,"title":"Shining bright","ispublic":1,"isfriend":0,"isfamily":0},{"id":"51211144609","owner":"145466593@N08","secret":"724a13134d","server":"65535","farm":66,"title":"Yellow-throated Vireo","ispublic":1,"isfriend":0,"isfamily":0},{"id":"51206753647","owner":"50264295@N06","secret":"71145289fc","server":"65535","farm":66,"title":"Yellow-throated Vireo (Vireo flavifrons)","ispublic":1,"isfriend":0,"isfamily":0},{"id":"51207658493","owner":"50264295@N06","secret":"a48635f0eb","server":"65535","farm":66,"title":"Yellow-throated Vireo (Vireo flavifrons)","ispublic":1,"isfriend":0,"isfamily":0},{"id":"51196587691","owner":"45759259@N06","secret":"8a081737db","server":"65535","farm":66,"title":"Vir\u00e9o \u00e0 gorge jaune Vireo flavifrons Yellow-throated Vireo","ispublic":1,"isfriend":0,"isfamily":0},{"id":"51195244602","owner":"48985578@N03","secret":"a0564c3edc","server":"65535","farm":66,"title":"Dancing Vireo","ispublic":1,"isfriend":0,"isfamily":0},{"id":"51189717324","owner":"120449047@N06","secret":"96c3fea07e","server":"65535","farm":66,"title":"Yellow-Throated Vireo","ispublic":1,"isfriend":0,"isfamily":0},{"id":"51181837203","owner":"32406637@N06","secret":"3dd326c17f","server":"65535","farm":66,"title":"yellow-throated vireo 2021.5.15 ny doodletown-   (4)","ispublic":1,"isfriend":0,"isfamily":0},{"id":"51182707105","owner":"32406637@N06","secret":"bdb79910fe","server":"65535","farm":66,"title":"yellow-throated vireo 2021.5.15 ny doodletown-   (2)","ispublic":1,"isfriend":0,"isfamily":0},{"id":"51181837153","owner":"32406637@N06","secret":"a5a1c2d982","server":"65535","farm":66,"title":"yellow-throated vireo 2021.5.15 ny doodletown-   (1)","ispublic":1,"isfriend":0,"isfamily":0}]},"stat":"ok"}