{"photos":{"page":1,"pages":3,"perpage":100,"total":229,"photo":[{"id":"52737793548","owner":"50307457@N08","secret":"cfaf8f5ea0","server":"65535","farm":66,"title":"Chittoor Birds-279 - Chrysomma sinense","ispublic":1,"isfriend":0,"isfamily":0},{"id":"52657398055","owner":"154261763@N05","secret":"0b04d5ea5a","server":"65535","farm":66,"title":"Yellow-eyed babbler (Chrysomma sinense) - Goldaugentimalie","ispublic":1,"isfriend":0,"isfamily":0},{"id":"52656864953","owner":"50307457@N08","secret":"6dbc61a582","server":"65535","farm":66,"title":"Chittoor Birds-219 - Chrysomma sinense","ispublic":1,"isfriend":0,"isfamily":0},{"id":"52643585417","owner":"50307457@N08","secret":"258af43f83","server":"65535","farm":66,"title":"Chittoor Birds-171 - Chrysomma sinense","ispublic":1,"isfriend":0,"isfamily":0},{"id":"52644348949","owner":"50307457@N08","secret":"ffce4e0586","server":"65535","farm":66,"title":"Chittoor Birds-172 - Chrysomma sinense","ispublic":1,"isfriend":0,"isfamily":0},{"id":"52644091986","owner":"50307457@N08","secret":"f5a1da0950","server":"65535","farm":66,"title":"Chittoor Birds-174 - Chrysomma sinense","ispublic":1,"isfriend":0,"isfamily":0},{"id":"52596071439","owner":"50307457@N08","secret":"684b0cb8a0","server":"65535","farm":66,"title":"Chittoor Birds-37 - Chrysomma sinense","ispublic":1,"isfriend":0,"isfamily":0},{"id":"52595320637","owner":"50307457@N08","secret":"ce55de8069","server":"65535","farm":66,"title":"Chittoor Birds-36 - Chrysomma sinense","ispublic":1,"isfriend":0,"isfamily":0},{"id":"52595811511","owner":"50307457@N08","secret":"872ef4e850","server":"65535","farm":66,"title":"Chittoor Birds-40 - Chrysomma sinense","ispublic":1,"isfriend":0,"isfamily":0},{"id":"52491089188","owner":"54780974@N06","secret":"a842f783dd","server":"65535","farm":66,"title":"Yellow eyed babbler","ispublic":1,"isfriend":0,"isfamily":0},{"id":"52467883039","owner":"194331039@N06","secret":"74d1b7359e","server":"65535","farm":66,"title":"Yellow-eyed babbler","ispublic":1,"isfriend":0,"isfamily":0},{"id":"52087203804","owner":"70804987@N00","secret":"5cabea5fd8","server":"65535","farm":66,"title":"Yellow-eyed Babbler","ispublic":1,"isfriend":0,"isfamily":0},{"id":"51984894770","owner":"36685968@N00","secret":"c6dfcc27fe","server":"65535","farm":66,"title":"Yellow-eyed Babbler (Chrysomma sinense)","ispublic":1,"isfriend":0,"isfamily":0},{"id":"51981717944","owner":"36685968@N00","secret":"62e9b4bfb5","server":"65535","farm":66,"title":"Yellow-eyed Babbler (Chrysomma sinense)","ispublic":1,"isfriend":0,"isfamily":0},{"id":"51754554002","owner":"49272932@N00","secret":"e37e9665c0","server":"65535","farm":66,"title":"Yellow-eyed Babbler (Chrysomma sinense), Gulakamale Lake, Bangalore","ispublic":1,"isfriend":0,"isfamily":0},{"id":"51398290292","owner":"49272932@N00","secret":"51e96d06d4","server":"65535","farm":66,"title":"Yellow-eyed babbler (Chrysomma sinense), Gulakamale","ispublic":1,"isfriend":0,"isfamily":0},{"id":"49730264241","owner":"43684069@N05","secret":"a03c09de44","server":"65535","farm":66,"title":"Yellow-eyed Babbler","ispublic":1,"isfriend":0,"isfamily":0},{"id":"49618165152","owner":"57465751@N05","secret":"12787675c7","server":"65535","farm":66,"title":"Yellow-eyed Babbler (Chrysomma sinense), Sawai, Rajasthan, India","ispublic":1,"isfriend":0,"isfamily":0},{"id":"49373604773","owner":"9237707@N05","secret":"9e6262b898","server":"65535","farm":66,"title":"Yellow Eyed Babbler","ispublic":1,"isfriend":0,"isfamily":0},{"id":"49325250337","owner":"126805965@N03","secret":"2528c28272","server":"65535","farm":66,"title":"Yellow-eyed Babbler (Chrysomma sinense) - Chiang Saen, TH","ispublic":1,"isfriend":0,"isfamily":0},{"id":"49247333732","owner":"126805965@N03","secret":"cf2cf6b76a","server":"65535","farm":66,"title":"Yellow-eyed Babbler (Chrysomma sinense) - Chiang Rai, TH","ispublic":1,"isfriend":0,"isfamily":0},{"id":"49049350407","owner":"68466173@N02","secret":"aec89ba5d8","server":"65535","farm":66,"title":"Yellow-eyed Babbler (Chrysomma sinense)","ispublic":1,"isfriend":0,"isfamily":0},{"id":"47695673882","owner":"64045479@N05","secret":"2dd4db1573","server":"65535","farm":66,"title":"Yellow-eyed Babbler - Chrysomma sinense","ispublic":1,"isfriend":0,"isfamily":0},{"id":"46682593544","owner":"64045479@N05","secret":"6384e1abcc","server":"7867","farm":8,"title":"Yellow-eyed Babbler - Chrysomma sinense nasale","ispublic":1,"isfriend":0,"isfamily":0},{"id":"46013819885","owner":"98682992@N00","secret":"43074d23aa","server":"4856","farm":5,"title":"HKOH8306","ispublic":1,"isfriend":0,"isfamily":0},{"id":"46574151022","owner":"68466173@N02","secret":"6d3611320e","server":"7867","farm":8,"title":"Yellow-eyed Babbler (Chrysomma sinense)","ispublic":1,"isfriend":0,"isfamily":0},{"id":"42589443751","owner":"28092414@N03","secret":"f232f577eb","server":"1724","farm":2,"title":"Yellow-eyed Babbler at Khajuraho IMG_8977","ispublic":1,"isfriend":0,"isfamily":0},{"id":"28031749049","owner":"68466173@N02","secret":"429340a5ba","server":"4722","farm":5,"title":"Yellow-eyed Babbler (Chrysomma sinense)","ispublic":1,"isfriend":0,"isfamily":0},{"id":"26639325579","owner":"70081115@N06","secret":"6a06176cd5","server":"4530","farm":5,"title":"Yellow Eyed Babbler","ispublic":1,"isfriend":0,"isfamily":0},{"id":"37649782402","owner":"54694910@N03","secret":"16795b02b9","server":"4484","farm":5,"title":"Yellow-eyed babbler","ispublic":1,"isfriend":0,"isfamily":0},{"id":"33875462041","owner":"54780974@N06","secret":"221586c4de","server":"3928","farm":4,"title":"Yellow Eyed Babbler (Chrysomma sinense)","ispublic":1,"isfriend":0,"isfamily":0},{"id":"32411803933","owner":"68466173@N02","secret":"3ff2c3cbd3","server":"636","farm":1,"title":"Yellow-eyed Babbler (Chrysomma sinense)","ispublic":1,"isfriend":0,"isfamily":0},{"id":"32072190063","owner":"68466173@N02","secret":"67fc0fb6c0","server":"2600","farm":3,"title":"Yellow-eyed Babbler (Chrysomma sinense)","ispublic":1,"isfriend":0,"isfamily":0},{"id":"32558911041","owner":"56017663@N03","secret":"b8503f7564","server":"606","farm":1,"title":"Yellow-eyed Babbler - Chrysomma sinense","ispublic":1,"isfriend":0,"isfamily":0},{"id":"31288601603","owner":"68466173@N02","secret":"361f756f44","server":"730","farm":1,"title":"Yellow-eyed Babbler (Chrysomma sinense)","ispublic":1,"isfriend":0,"isfamily":0},{"id":"30476467575","owner":"68466173@N02","secret":"a6e106cc06","server":"5488","farm":6,"title":"Yellow-eyed Babbler (Chrysomma sinense)","ispublic":1,"isfriend":0,"isfamily":0},{"id":"27144027216","owner":"76454790@N02","secret":"8b545deb83","server":"65535","farm":66,"title":"Yellow-eyed Babbler (Chrysomma sinense)","ispublic":1,"isfriend":0,"isfamily":0},{"id":"26960474591","owner":"109048996@N05","secret":"0cfd0f22e9","server":"7661","farm":8,"title":"yellow eyed babbler (Chrysomma sinense)","ispublic":1,"isfriend":0,"isfamily":0},{"id":"25909348942","owner":"24309230@N03","secret":"74b35ea495","server":"1599","farm":2,"title":"Timal\u00ed Ojigualdo","ispublic":1,"isfriend":0,"isfamily":0},{"id":"24445626331","owner":"68466173@N02","secret":"61cce53ff3","server":"1597","farm":2,"title":"Yellow-eyed Babbler (Chrysomma sinense)","ispublic":1,"isfriend":0,"isfamily":0},{"id":"22389410513","owner":"70081115@N06","secret":"0a2f8846fe","server":"5636","farm":6,"title":"Yellow Eyed Babbler","ispublic":1,"isfriend":0,"isfamily":0},{"id":"52737564929","owner":"50307457@N08","secret":"d1299f5cf8","server":"65535","farm":66,"title":"Chittoor Birds-280 - Chrysomma sinense","ispublic":1,"isfriend":0,"isfamily":0},{"id":"52596067569","owner":"50307457@N08","secret":"5dd1693256","server":"65535","farm":66,"title":"Chittoor Birds-41 - Chrysomma sinense","ispublic":1,"isfriend":0,"isfamily":0},{"id":"52496514189","owner":"126558841@N07","secret":"d42c4880a5","server":"65535","farm":66,"title":"Yellow-eyed Babbler (Chrysomma sinense)","ispublic":1,"isfriend":0,"isfamily":0},{"id":"52496511694","owner":"126558841@N07","secret":"31bccd081b","server":"65535","farm":66,"title":"Yellow-eyed Babbler (Chrysomma sinense)","ispublic":1,"isfriend":0,"isfamily":0},{"id":"52087204609","owner":"70804987@N00","secret":"697b1d5ea3","server":"65535","farm":66,"title":"Yellow-eyed Babbler","ispublic":1,"isfriend":0,"isfamily":0},{"id":"51810371390","owner":"30120110@N02","secret":"1231b9ffaf","server":"65535","farm":66,"title":"Yellow-eyed Babbler","ispublic":1,"isfriend":0,"isfamily":0},{"id":"51808165465","owner":"30120110@N02","secret":"9e4ed1408f","server":"65535","farm":66,"title":"Yellow-eyed Babbler","ispublic":1,"isfriend":0,"isfamily":0},{"id":"51795386929","owner":"12639178@N07","secret":"4a6ae70a13","server":"65535","farm":66,"title":"Goldaugen-Grasm\u00fccke, Yellow-eyed Babbler (Chrysomma sinense)","ispublic":1,"isfriend":0,"isfamily":0},{"id":"51208820633","owner":"192875860@N04","secret":"cdd5ab067b","server":"65535","farm":66,"title":"_N5D8162","ispublic":1,"isfriend":0,"isfamily":0},{"id":"51062384608","owner":"191182891@N02","secret":"0d68f45804","server":"65535","farm":66,"title":"Yellow Eyed Babbler","ispublic":1,"isfriend":0,"isfamily":0},{"id":"50751373878","owner":"119787485@N07","secret":"662894a9cc","server":"65535","farm":66,"title":"Yellow-eyed Babbler (Chrysomma sinense hypoleucum) - 20150129-03","ispublic":1,"isfriend":0,"isfamily":0},{"id":"49870689668","owner":"55968524@N04","secret":"c3d8b2ee82","server":"65535","farm":66,"title":"2M3A0099 - Yellow-eyed Babbler - Chrysomma sinense.jpg","ispublic":1,"isfriend":0,"isfamily":0},{"id":"49675116752","owner":"95110413@N03","secret":"01123d3521","server":"65535","farm":66,"title":"DSC_7530 ( Yellow billed Babbler)","ispublic":1,"isfriend":0,"isfamily":0},{"id":"49592593012","owner":"12639178@N07","secret":"beef73a542","server":"65535","farm":66,"title":"Goldaugen-Grasm\u00fccke","ispublic":1,"isfriend":0,"isfamily":0},{"id":"49592592747","owner":"12639178@N07","secret":"afd5ab627e","server":"65535","farm":66,"title":"Goldaugen-Grasm\u00fccke","ispublic":1,"isfriend":0,"isfamily":0},{"id":"49141995722","owner":"7200351@N08","secret":"3c12797525","server":"65535","farm":66,"title":"Chrysomma sinense sinense","ispublic":1,"isfriend":0,"isfamily":0},{"id":"49141919482","owner":"7200351@N08","secret":"3a8892716d","server":"65535","farm":66,"title":"Chrysomma sinense sinense","ispublic":1,"isfriend":0,"isfamily":0},{"id":"49141224008","owner":"7200351@N08","secret":"475bc5d852","server":"65535","farm":66,"title":"Chrysomma sinense sinense","ispublic":1,"isfriend":0,"isfamily":0},{"id":"49141223983","owner":"7200351@N08","secret":"1fdc727d3a","server":"65535","farm":66,"title":"Chrysomma sinense sinense","ispublic":1,"isfriend":0,"isfamily":0},{"id":"49141919322","owner":"7200351@N08","secret":"91158d8e32","server":"65535","farm":66,"title":"Chrysomma sinense sinense","ispublic":1,"isfriend":0,"isfamily":0},{"id":"49141223853","owner":"7200351@N08","secret":"e75d2c8aa9","server":"65535","farm":66,"title":"Chrysomma sinense sinense","ispublic":1,"isfriend":0,"isfamily":0},{"id":"49141223768","owner":"7200351@N08","secret":"f2418a0cd5","server":"65535","farm":66,"title":"Chrysomma sinense sinense","ispublic":1,"isfriend":0,"isfamily":0},{"id":"49141223638","owner":"7200351@N08","secret":"8d8171c517","server":"65535","farm":66,"title":"Chrysomma sinense sinense","ispublic":1,"isfriend":0,"isfamily":0},{"id":"49141194398","owner":"7200351@N08","secret":"3770a65cb4","server":"0","farm":0,"title":"Chrysomma sinense sinense","ispublic":1,"isfriend":0,"isfamily":0},{"id":"40717608233","owner":"54724497@N02","secret":"fec7a7fb55","server":"65535","farm":66,"title":"Yellow-eyed babbler, chrysomma sinense","ispublic":1,"isfriend":0,"isfamily":0},{"id":"32062334777","owner":"98682992@N00","secret":"9d094674ce","server":"4885","farm":5,"title":"HKOH8519","ispublic":1,"isfriend":0,"isfamily":0},{"id":"31576484668","owner":"96731871@N00","secret":"bfa7c53eb0","server":"1913","farm":2,"title":"Yellow-eyed Babbler Chrysomma sinense hypoleucum   - Adult   IMG_7732","ispublic":1,"isfriend":0,"isfamily":0},{"id":"45008877371","owner":"126558841@N07","secret":"47b4cdae1e","server":"1919","farm":2,"title":"Yellow-eyed Babbler (Chrysomma sinense)","ispublic":1,"isfriend":0,"isfamily":0},{"id":"42921107075","owner":"96731871@N00","secret":"0f5b04c63b","server":"1838","farm":2,"title":"Yellow-eyed babbler - Chrysomma sinense  IMG_0488","ispublic":1,"isfriend":0,"isfamily":0},{"id":"27475071158","owner":"20984644@N05","secret":"fa48489e83","server":"805","farm":1,"title":"Yellow-eyed Babbler","ispublic":1,"isfriend":0,"isfamily":0},{"id":"26856759768","owner":"46848480@N00","secret":"82956c619d","server":"4795","farm":5,"title":"20180310-0I7A5396","ispublic":1,"isfriend":0,"isfamily":0},{"id":"26469448578","owner":"54780974@N06","secret":"6f44d18b3e","server":"4617","farm":5,"title":"Yellow Eyed Babbler","ispublic":1,"isfriend":0,"isfamily":0},{"id":"25705991278","owner":"30120110@N02","secret":"53a20d0926","server":"4589","farm":5,"title":"Yellow-eyed babblers raiding a nest","ispublic":1,"isfriend":0,"isfamily":0},{"id":"24169511187","owner":"9726009@N05","secret":"2f80cdf932","server":"4635","farm":5,"title":"Yellow-eyed babbler (Chrysomma sinense)","ispublic":1,"isfriend":0,"isfamily":0},{"id":"38871648971","owner":"129310620@N03","secret":"6e5d5ffa11","server":"4573","farm":5,"title":"0842 ?Goldaugen-Grasm\u00fccke (juv) - Yellow-eyed Babbler - Chrysomma sinense","ispublic":1,"isfriend":0,"isfamily":0},{"id":"34874927194","owner":"14888671@N02","secret":"a46ab5a1ec","server":"4008","farm":5,"title":"Yellow-eyed Babbler","ispublic":1,"isfriend":0,"isfamily":0},{"id":"35214526396","owner":"91892472@N02","secret":"bdae16cbd9","server":"4282","farm":5,"title":"Chrysomma sinense (ho\u1ea1 mi m\u1eaft v\u00e0ng)","ispublic":1,"isfriend":0,"isfamily":0},{"id":"34025806302","owner":"126558841@N07","secret":"339c0bced2","server":"2869","farm":3,"title":"Yellow-eyed Babbler (Chrysomma sinense)","ispublic":1,"isfriend":0,"isfamily":0},{"id":"34025772402","owner":"126558841@N07","secret":"2b8658be5e","server":"2850","farm":3,"title":"Yellow-eyed Babbler (Chrysomma sinense)","ispublic":1,"isfriend":0,"isfamily":0},{"id":"33421636245","owner":"100700672@N03","secret":"0a12854c12","server":"600","farm":1,"title":"B.Species-66-Yellow eyed Babbler - Chrysomma sinense","ispublic":1,"isfriend":0,"isfamily":0},{"id":"31827646464","owner":"68466173@N02","secret":"8df73868fc","server":"515","farm":1,"title":"Yellow-eyed Babbler (Chrysomma sinense)","ispublic":1,"isfriend":0,"isfamily":0},{"id":"32216244710","owner":"29170368@N03","secret":"d468fab0f7","server":"65535","farm":66,"title":"Yellow-eyed Babbler","ispublic":1,"isfriend":0,"isfamily":0},{"id":"32229420456","owner":"54780974@N06","secret":"6ef43e596a","server":"666","farm":1,"title":"Yellow Eyed Babbler","ispublic":1,"isfriend":0,"isfamily":0},{"id":"31718571720","owner":"13514416@N04","secret":"944d052064","server":"382","farm":1,"title":"Yellow Eyed Babbler","ispublic":1,"isfriend":0,"isfamily":0},{"id":"31697965030","owner":"13514416@N04","secret":"34ac4c505a","server":"298","farm":1,"title":"Yellow Eyed Babbler","ispublic":1,"isfriend":0,"isfamily":0},{"id":"31104445343","owner":"68466173@N02","secret":"583fd0c7a0","server":"680","farm":1,"title":"Yellow-eyed Babbler (Chrysomma sinense)","ispublic":1,"isfriend":0,"isfamily":0},{"id":"30709116244","owner":"48907812@N00","secret":"2df8f02c8b","server":"483","farm":1,"title":"Yellow-eyed babbler (Chrysomma sinense)","ispublic":1,"isfriend":0,"isfamily":0},{"id":"31177616670","owner":"48907812@N00","secret":"32026b4776","server":"615","farm":1,"title":"Yellow-eyed babbler (Chrysomma sinense)","ispublic":1,"isfriend":0,"isfamily":0},{"id":"29908266824","owner":"92951546@N03","secret":"d6b2ef7025","server":"5759","farm":6,"title":"Yellow Eyed Babbler (Chrysomma sinense)","ispublic":1,"isfriend":0,"isfamily":0},{"id":"30476983386","owner":"92951546@N03","secret":"6e7d7d64fb","server":"5645","farm":6,"title":"Yellow Eyed Babbler (Chrysomma sinense)","ispublic":1,"isfriend":0,"isfamily":0},{"id":"29794041605","owner":"35761902@N00","secret":"14755b30a2","server":"8092","farm":9,"title":"\u91d1\u773c\u96c0\u9da5 Yellow-eyed Babbler (Chrysomma sinense nasale), Sri Lanka","ispublic":1,"isfriend":0,"isfamily":0},{"id":"29489293072","owner":"96495797@N05","secret":"f871559ce8","server":"8885","farm":9,"title":"Yellow-Eyed Babbler","ispublic":1,"isfriend":0,"isfamily":0},{"id":"27365097790","owner":"141737797@N08","secret":"7722699f25","server":"7672","farm":8,"title":"Yellow-eyed babbler","ispublic":1,"isfriend":0,"isfamily":0},{"id":"26367146016","owner":"126558841@N07","secret":"edd47c77da","server":"1659","farm":2,"title":"Yellow-eyed babbler (Chrysomma sinense)","ispublic":1,"isfriend":0,"isfamily":0},{"id":"24612040221","owner":"127049099@N04","secret":"35e069baf1","server":"1605","farm":2,"title":"yellow-eyed babbler (Chrysomma sinense)","ispublic":1,"isfriend":0,"isfamily":0},{"id":"24075780710","owner":"64361421@N03","secret":"8036656bc7","server":"1672","farm":2,"title":"yellow eyed babbler","ispublic":1,"isfriend":0,"isfamily":0},{"id":"24118364602","owner":"95110413@N03","secret":"24b0d2af45","server":"1518","farm":2,"title":"Yellow Eyed Babbler","ispublic":1,"isfriend":0,"isfamily":0},{"id":"21903956103","owner":"68466173@N02","secret":"0cff5babcb","server":"5618","farm":6,"title":"Yellow-eyed Babbler (Chrysomma sinense)","ispublic":1,"isfriend":0,"isfamily":0},{"id":"21102485084","owner":"127049099@N04","secret":"993796487e","server":"5757","farm":6,"title":"yellow-eyed babbler (Chrysomma sinense)","ispublic":1,"isfriend":0,"isfamily":0}]},"stat":"ok"}