{"photos":{"page":1,"pages":9,"perpage":100,"total":823,"photo":[{"id":"52729246188","owner":"108755156@N05","secret":"380e683354","server":"65535","farm":66,"title":"Butter Bum","ispublic":1,"isfriend":0,"isfamily":0},{"id":"52669223922","owner":"78742710@N08","secret":"5349ec6ca1","server":"65535","farm":66,"title":"Yellow-rumped Thornbill: On Display","ispublic":1,"isfriend":0,"isfamily":0},{"id":"52663995639","owner":"40195635@N03","secret":"c8d4d12bbb","server":"65535","farm":66,"title":"Yellow-rumped Thornbill (Acanthiza chrysorrhoa leighi)","ispublic":1,"isfriend":0,"isfamily":0},{"id":"52644453258","owner":"33277678@N03","secret":"6c4ea02c5c","server":"65535","farm":66,"title":"West Australia '22","ispublic":1,"isfriend":0,"isfamily":0},{"id":"52643912981","owner":"33277678@N03","secret":"bb85f5384b","server":"65535","farm":66,"title":"Porongurup '22","ispublic":1,"isfriend":0,"isfamily":0},{"id":"52595961543","owner":"47932052@N03","secret":"74a251d583","server":"65535","farm":66,"title":"Yellow-rumped Thornbill - Mount Penang, NSW","ispublic":1,"isfriend":0,"isfamily":0},{"id":"52570733068","owner":"58356728@N07","secret":"9c64cb448c","server":"65535","farm":66,"title":"Acanthiza chrysorrhoa - yellow-rumped thornbill","ispublic":1,"isfriend":0,"isfamily":0},{"id":"52488050709","owner":"58356728@N07","secret":"1689e95726","server":"65535","farm":66,"title":"Yellow-rumped thornbill - Acanthiza chrysorrhoa","ispublic":1,"isfriend":0,"isfamily":0},{"id":"52473156890","owner":"87615574@N08","secret":"d298287a9b","server":"65535","farm":66,"title":"Yellow-Rumped-Thornbill(Acanthiza-chrysorrhoa)","ispublic":1,"isfriend":0,"isfamily":0},{"id":"52457637940","owner":"152641185@N03","secret":"ebf79e3d54","server":"65535","farm":66,"title":"Yellow Rumped Thornbill (Acanthiza chrysorrhoa).","ispublic":1,"isfriend":0,"isfamily":0},{"id":"52431500898","owner":"182959673@N06","secret":"7df697c425","server":"65535","farm":66,"title":"Yellow-rumped Thornbill - Lake Linlithgow, Victoria","ispublic":1,"isfriend":0,"isfamily":0},{"id":"52350713182","owner":"151677249@N08","secret":"a39c6f5004","server":"65535","farm":66,"title":"Yellow-rumped Thornbill (Acanthiza chrysorrhoa chrysorrhoa)","ispublic":1,"isfriend":0,"isfamily":0},{"id":"52336000200","owner":"37423935@N00","secret":"64f189b798","server":"65535","farm":66,"title":"Yellow-rumped Thornbill","ispublic":1,"isfriend":0,"isfamily":0},{"id":"52318861699","owner":"136559856@N06","secret":"1b59103eda","server":"65535","farm":66,"title":"Yellow-rumped Thornbill [Acanthiza chrysorrhoa], Copeton Dam.","ispublic":1,"isfriend":0,"isfamily":0},{"id":"52297835796","owner":"90408688@N02","secret":"4b381d2e7a","server":"65535","farm":66,"title":"Acanthiza chrysorrhoa leighi - South-eastern Yellow-rumped Thornbill","ispublic":1,"isfriend":0,"isfamily":0},{"id":"52267346022","owner":"108755156@N05","secret":"ee6ab49b96","server":"65535","farm":66,"title":"Perfectly Posed","ispublic":1,"isfriend":0,"isfamily":0},{"id":"52135390023","owner":"151677249@N08","secret":"2b6504dd41","server":"65535","farm":66,"title":"Yellow-rumped Thornbill (Acanthiza chrysorrhoa chrysorrhoa)","ispublic":1,"isfriend":0,"isfamily":0},{"id":"52122966773","owner":"63479603@N00","secret":"93545b107e","server":"65535","farm":66,"title":"Yellow-rumped thornbill","ispublic":1,"isfriend":0,"isfamily":0},{"id":"52123177524","owner":"63479603@N00","secret":"19c5c523cb","server":"65535","farm":66,"title":"Yellow-rumped thornbill","ispublic":1,"isfriend":0,"isfamily":0},{"id":"52122966233","owner":"63479603@N00","secret":"cffb5b0356","server":"65535","farm":66,"title":"Yellow-rumped thornbill","ispublic":1,"isfriend":0,"isfamily":0},{"id":"52099393223","owner":"76729899@N04","secret":"6aafee7312","server":"65535","farm":66,"title":"Yellow-rumped Thornbill (Acanthiza chrysorrhoa leighi)_2659","ispublic":1,"isfriend":0,"isfamily":0},{"id":"52060435153","owner":"95622330@N04","secret":"7bedbbd157","server":"65535","farm":66,"title":"A good house keeper.","ispublic":1,"isfriend":0,"isfamily":0},{"id":"51976764385","owner":"113679267@N08","secret":"18285ae2ee","server":"65535","farm":66,"title":"Thornbills - Yellow-rumped (Acanthiza chrysorrhoa)","ispublic":1,"isfriend":0,"isfamily":0},{"id":"51948664021","owner":"20973373@N08","secret":"969cd255a0","server":"65535","farm":66,"title":"Yellow-rumped Thornbill","ispublic":1,"isfriend":0,"isfamily":0},{"id":"51931628345","owner":"78742710@N08","secret":"8d3ddbf44b","server":"65535","farm":66,"title":"Yelow-rumped Thornbill: Among the Thorns","ispublic":1,"isfriend":0,"isfamily":0},{"id":"51871741722","owner":"108755156@N05","secret":"fe10e791df","server":"65535","farm":66,"title":"Butter Bum","ispublic":1,"isfriend":0,"isfamily":0},{"id":"51837881290","owner":"194860397@N03","secret":"be243d7dc7","server":"65535","farm":66,"title":"DSC_1084","ispublic":1,"isfriend":0,"isfamily":0},{"id":"51752914279","owner":"46625272@N04","secret":"758b7138da","server":"65535","farm":66,"title":"Yellow-rumped Thornbill Garden 17Dec21 (2) nres","ispublic":1,"isfriend":0,"isfamily":0},{"id":"51678756619","owner":"148286771@N02","secret":"a4dd57b35c","server":"65535","farm":66,"title":"Yellow-rumped Thornbill","ispublic":1,"isfriend":0,"isfamily":0},{"id":"51678336718","owner":"148286771@N02","secret":"4f90fccc53","server":"65535","farm":66,"title":"Yellow-rumped Thornbill","ispublic":1,"isfriend":0,"isfamily":0},{"id":"51506083762","owner":"63479603@N00","secret":"12f78ea64d","server":"65535","farm":66,"title":"Acanthiza chrysorrhoa","ispublic":1,"isfriend":0,"isfamily":0},{"id":"51460778870","owner":"95482238@N02","secret":"bb07ae5891","server":"65535","farm":66,"title":"yellow-rumped thornbill at Woodlands Historic Park, Vic Australia 5","ispublic":1,"isfriend":0,"isfamily":0},{"id":"51459063167","owner":"95482238@N02","secret":"bc18af6a46","server":"65535","farm":66,"title":"yellow-rumped thornbill at Woodlands Historic Park, Vic Australia 4","ispublic":1,"isfriend":0,"isfamily":0},{"id":"51460559389","owner":"95482238@N02","secret":"24c5788f67","server":"65535","farm":66,"title":"yellow-rumped thornbill at Woodlands Historic Park, Vic Australia 3","ispublic":1,"isfriend":0,"isfamily":0},{"id":"51459830426","owner":"95482238@N02","secret":"ec7b6bf6dc","server":"65535","farm":66,"title":"yellow-rumped thornbill at Woodlands Historic Park, Vic Australia 25","ispublic":1,"isfriend":0,"isfamily":0},{"id":"51459059667","owner":"95482238@N02","secret":"1877b72de4","server":"65535","farm":66,"title":"yellow-rumped thornbill at Woodlands Historic Park, Vic Australia 24","ispublic":1,"isfriend":0,"isfamily":0},{"id":"51460775000","owner":"95482238@N02","secret":"dfe3acc55a","server":"65535","farm":66,"title":"yellow-rumped thornbill at Woodlands Historic Park, Vic Australia 13","ispublic":1,"isfriend":0,"isfamily":0},{"id":"51460774615","owner":"95482238@N02","secret":"bc2ca07148","server":"65535","farm":66,"title":"yellow-rumped thornbill at Woodlands Historic Park, Vic Australia 22","ispublic":1,"isfriend":0,"isfamily":0},{"id":"51391848536","owner":"113679267@N08","secret":"8458a5375c","server":"65535","farm":66,"title":"Yellow -rumped Thornbill (Acanthiza chrysorrhoa)","ispublic":1,"isfriend":0,"isfamily":0},{"id":"51362833275","owner":"74822983@N02","secret":"9f602e57d7","server":"65535","farm":66,"title":"Yellow-rumped Thornbill 2021-08-02 (7D_182A9837)","ispublic":1,"isfriend":0,"isfamily":0},{"id":"51312617948","owner":"90408688@N02","secret":"daf37b1cb7","server":"65535","farm":66,"title":"Acanthiza chrysorrhoa leighi - South-eastern Yellow - rumped Thornbill","ispublic":1,"isfriend":0,"isfamily":0},{"id":"51313381425","owner":"37423935@N00","secret":"334ab6c506","server":"65535","farm":66,"title":"Yellow-rumped thornbill","ispublic":1,"isfriend":0,"isfamily":0},{"id":"51291394120","owner":"186706781@N02","secret":"88dd1f0a1d","server":"65535","farm":66,"title":"Yellow Rumped Thornbill","ispublic":1,"isfriend":0,"isfamily":0},{"id":"51268248968","owner":"61021753@N02","secret":"c2bb093940","server":"65535","farm":66,"title":"n32_w1150","ispublic":1,"isfriend":0,"isfamily":0},{"id":"51241414251","owner":"55310085@N06","secret":"722217fbf0","server":"65535","farm":66,"title":"Acanthizidae - Yellow-rumped Thornbill","ispublic":1,"isfriend":0,"isfamily":0},{"id":"51195005736","owner":"29362286@N08","secret":"431d248907","server":"65535","farm":66,"title":"Yellow-rumped Thornbill","ispublic":1,"isfriend":0,"isfamily":0},{"id":"51186915526","owner":"132431122@N05","secret":"3bc4385fd3","server":"65535","farm":66,"title":"Yellow-rumped Thornbill","ispublic":1,"isfriend":0,"isfamily":0},{"id":"51167337496","owner":"37423935@N00","secret":"7a7ae0ea31","server":"65535","farm":66,"title":"Yellow-rumped thornbill","ispublic":1,"isfriend":0,"isfamily":0},{"id":"51099943147","owner":"108755156@N05","secret":"a3aec62cc7","server":"65535","farm":66,"title":"A Visitor","ispublic":1,"isfriend":0,"isfamily":0},{"id":"51098080526","owner":"39343449@N02","secret":"f0c0cb922f","server":"65535","farm":66,"title":"Yellow-rumped Thornbill at Yanchep","ispublic":1,"isfriend":0,"isfamily":0},{"id":"51059685763","owner":"58356728@N07","secret":"1cf75bc526","server":"65535","farm":66,"title":"Yellow rumped thornbill - Acanthiza chrysorrhoa","ispublic":1,"isfriend":0,"isfamily":0},{"id":"51002543972","owner":"113679267@N08","secret":"2eeca27ba0","server":"65535","farm":66,"title":"Thornbills - Yellow-rumped (Acanthiza chrysorrhoa)","ispublic":1,"isfriend":0,"isfamily":0},{"id":"50952468962","owner":"111590185@N05","secret":"8db47c5e48","server":"65535","farm":66,"title":"yellow-rumped thornbill (Acanthiza chrysorrhoa)","ispublic":1,"isfriend":0,"isfamily":0},{"id":"52606728438","owner":"151789887@N03","secret":"1262361a56","server":"65535","farm":66,"title":"LOu311222Ac1","ispublic":1,"isfriend":0,"isfamily":0},{"id":"52606482569","owner":"151789887@N03","secret":"1e717361f9","server":"65535","farm":66,"title":"LOu311222Ac3","ispublic":1,"isfriend":0,"isfamily":0},{"id":"52025013598","owner":"44024425@N00","secret":"2e8cbecffc","server":"65535","farm":66,"title":"Yellow-rumped Thornbills","ispublic":1,"isfriend":0,"isfamily":0},{"id":"51951306216","owner":"108755156@N05","secret":"a0eaa7e4ff","server":"65535","farm":66,"title":"The Thinker","ispublic":1,"isfriend":0,"isfamily":0},{"id":"51853680508","owner":"137777647@N07","secret":"1d3ed5d2f2","server":"65535","farm":66,"title":"Yellow-rumped Thornbill Acanthiza chrysorrhoa","ispublic":1,"isfriend":0,"isfamily":0},{"id":"51744743889","owner":"8142488@N07","secret":"63a9673fe0","server":"65535","farm":66,"title":"1F0A4028","ispublic":1,"isfriend":0,"isfamily":0},{"id":"51744099946","owner":"8142488@N07","secret":"4b7425c0a1","server":"65535","farm":66,"title":"1F0A4047","ispublic":1,"isfriend":0,"isfamily":0},{"id":"51731074327","owner":"31350467@N04","secret":"2af820fe59","server":"65535","farm":66,"title":"Thornbill, Yellow-rumped (Acanthiza chrysorrhoa leighi)","ispublic":1,"isfriend":0,"isfamily":0},{"id":"51615879427","owner":"189037423@N06","secret":"4cbb7ab214","server":"65535","farm":66,"title":"Acanthiza chrysorrhoa, Canberra, ACT","ispublic":1,"isfriend":0,"isfamily":0},{"id":"51459834516","owner":"95482238@N02","secret":"c0cc7587e7","server":"65535","farm":66,"title":"yellow-rumped thornbill at Woodlands Historic Park, Vic Australia 21","ispublic":1,"isfriend":0,"isfamily":0},{"id":"51459065272","owner":"95482238@N02","secret":"82d9383b59","server":"65535","farm":66,"title":"yellow-rumped thornbill at Woodlands Historic Park, Vic Australia 19","ispublic":1,"isfriend":0,"isfamily":0},{"id":"51459065117","owner":"95482238@N02","secret":"ba74518110","server":"65535","farm":66,"title":"yellow-rumped thornbill at Woodlands Historic Park, Vic Australia 16","ispublic":1,"isfriend":0,"isfamily":0},{"id":"51460780115","owner":"95482238@N02","secret":"5772e44d74","server":"65535","farm":66,"title":"yellow-rumped thornbill at Woodlands Historic Park, Vic Australia 15","ispublic":1,"isfriend":0,"isfamily":0},{"id":"51460073573","owner":"95482238@N02","secret":"66a53e2f24","server":"65535","farm":66,"title":"yellow-rumped thornbill at Woodlands Historic Park, Vic Australia","ispublic":1,"isfriend":0,"isfamily":0},{"id":"51460779000","owner":"95482238@N02","secret":"2f74d6e9b6","server":"65535","farm":66,"title":"yellow-rumped thornbill at Woodlands Historic Park, Vic Australia 7","ispublic":1,"isfriend":0,"isfamily":0},{"id":"51459063792","owner":"95482238@N02","secret":"327cae3204","server":"65535","farm":66,"title":"yellow-rumped thornbill at Woodlands Historic Park, Vic Australia 14","ispublic":1,"isfriend":0,"isfamily":0},{"id":"51460559029","owner":"95482238@N02","secret":"7577e61dc7","server":"65535","farm":66,"title":"yellow-rumped thornbill at Woodlands Historic Park, Vic Australia 23","ispublic":1,"isfriend":0,"isfamily":0},{"id":"51460777485","owner":"95482238@N02","secret":"eb1447e1a6","server":"65535","farm":66,"title":"yellow-rumped thornbill at Woodlands Historic Park, Vic Australia 17","ispublic":1,"isfriend":0,"isfamily":0},{"id":"51459831091","owner":"95482238@N02","secret":"1b9f20b511","server":"65535","farm":66,"title":"yellow-rumped thornbill at Woodlands Historic Park, Vic Australia 18","ispublic":1,"isfriend":0,"isfamily":0},{"id":"51459061357","owner":"95482238@N02","secret":"91e52c995c","server":"65535","farm":66,"title":"yellow-rumped thornbill at Woodlands Historic Park, Vic Australia 12","ispublic":1,"isfriend":0,"isfamily":0},{"id":"51460557814","owner":"95482238@N02","secret":"3ab7e61acd","server":"65535","farm":66,"title":"yellow-rumped thornbill at Woodlands Historic Park, Vic Australia 27","ispublic":1,"isfriend":0,"isfamily":0},{"id":"51460776215","owner":"95482238@N02","secret":"b636e4c3fd","server":"65535","farm":66,"title":"yellow-rumped thornbill at Woodlands Historic Park, Vic Australia 11","ispublic":1,"isfriend":0,"isfamily":0},{"id":"51460070023","owner":"95482238@N02","secret":"30990aa17d","server":"65535","farm":66,"title":"yellow-rumped thornbill at Woodlands Historic Park, Vic Australia 10","ispublic":1,"isfriend":0,"isfamily":0},{"id":"51460069888","owner":"95482238@N02","secret":"446556db59","server":"65535","farm":66,"title":"yellow-rumped thornbill at Woodlands Historic Park, Vic Australia 26","ispublic":1,"isfriend":0,"isfamily":0},{"id":"51459829646","owner":"95482238@N02","secret":"c51ba850a7","server":"65535","farm":66,"title":"yellow-rumped thornbill at Woodlands Historic Park, Vic Australia 9","ispublic":1,"isfriend":0,"isfamily":0},{"id":"51459060087","owner":"95482238@N02","secret":"bbb634e4c4","server":"65535","farm":66,"title":"yellow-rumped thornbill at Woodlands Historic Park, Vic Australia 8","ispublic":1,"isfriend":0,"isfamily":0},{"id":"51460556594","owner":"95482238@N02","secret":"5d3eba48d0","server":"65535","farm":66,"title":"yellow-rumped thornbill at Woodlands Historic Park, Vic Australia 20","ispublic":1,"isfriend":0,"isfamily":0},{"id":"51460555959","owner":"95482238@N02","secret":"6ac19e3092","server":"65535","farm":66,"title":"yellow-rumped thornbill at Woodlands Historic Park, Vic Australia 6","ispublic":1,"isfriend":0,"isfamily":0},{"id":"51449979248","owner":"193145186@N06","secret":"7f96153329","server":"65535","farm":66,"title":"Yellow-rumped Thornbill","ispublic":1,"isfriend":0,"isfamily":0},{"id":"51367026816","owner":"146833745@N04","secret":"9ce22d0748","server":"65535","farm":66,"title":"Yellow-rumped Thornbill (Acanthiza chrysorrhoa)","ispublic":1,"isfriend":0,"isfamily":0},{"id":"51350204493","owner":"191389292@N04","secret":"60c1a3096d","server":"65535","farm":66,"title":"Yellow-rumped Thornbill (Acanthiza chrysorrhoa)","ispublic":1,"isfriend":0,"isfamily":0},{"id":"51328331450","owner":"63872681@N03","secret":"c845eb5dd0","server":"65535","farm":66,"title":"Yellow-rumped Thornbill(Acanthiza chrysorrhoa)","ispublic":1,"isfriend":0,"isfamily":0},{"id":"51312420216","owner":"90408688@N02","secret":"61b40f8c1a","server":"65535","farm":66,"title":"Acanthiza chrysorrhoa leighi - South-eastern Yellow - rumped Thornbill","ispublic":1,"isfriend":0,"isfamily":0},{"id":"51253935327","owner":"146833745@N04","secret":"11bf1e3188","server":"65535","farm":66,"title":"Yellow-rumped Thornbill (Acanthiza chrysorrhoa)","ispublic":1,"isfriend":0,"isfamily":0},{"id":"51242908026","owner":"95482238@N02","secret":"702346fefd","server":"65535","farm":66,"title":"yellow-rumped thornbills - Jawbone Reserve, Williamstown, Vic, Australia","ispublic":1,"isfriend":0,"isfamily":0},{"id":"51243109478","owner":"95482238@N02","secret":"617a739115","server":"65535","farm":66,"title":"yellow-rumped thornbills - Jawbone Reserve, Williamstown, Vic, Australia","ispublic":1,"isfriend":0,"isfamily":0},{"id":"51243673494","owner":"95482238@N02","secret":"08b84f8246","server":"65535","farm":66,"title":"yellow-rumped thornbill - Jawbone Reserve, Williamstown, Vic, Australia","ispublic":1,"isfriend":0,"isfamily":0},{"id":"51153801786","owner":"95482238@N02","secret":"daa483ee92","server":"65535","farm":66,"title":"yellow-rumped thornbill - You Yangs, Vic, Australia 2","ispublic":1,"isfriend":0,"isfamily":0},{"id":"51153801746","owner":"95482238@N02","secret":"97920c01c0","server":"65535","farm":66,"title":"yellow-rumped thornbill - You Yangs, Vic, Australia","ispublic":1,"isfriend":0,"isfamily":0},{"id":"51154587129","owner":"95482238@N02","secret":"b589e08619","server":"65535","farm":66,"title":"yellow-rumped thornbill - You Yangs, Vic, Australia 6","ispublic":1,"isfriend":0,"isfamily":0},{"id":"51153130987","owner":"95482238@N02","secret":"219cb87a9c","server":"65535","farm":66,"title":"yellow-rumped thornbill - You Yangs, Vic, Australia 4","ispublic":1,"isfriend":0,"isfamily":0},{"id":"51154031763","owner":"95482238@N02","secret":"b132217cd6","server":"65535","farm":66,"title":"yellow-rumped thornbill - You Yangs, Vic, Australia 5","ispublic":1,"isfriend":0,"isfamily":0},{"id":"51154905280","owner":"95482238@N02","secret":"111b8c08b9","server":"65535","farm":66,"title":"yellow-rumped thornbill - You Yangs, Vic, Australia 3","ispublic":1,"isfriend":0,"isfamily":0},{"id":"51114436197","owner":"151677249@N08","secret":"03959febf5","server":"65535","farm":66,"title":"Yellow-rumped Thornbill (Acanthiza chrysorrhoa chrysorrhoa)","ispublic":1,"isfriend":0,"isfamily":0},{"id":"51098368701","owner":"36320080@N04","secret":"6fae34be75","server":"65535","farm":66,"title":"Yellow-rumped Thornbill","ispublic":1,"isfriend":0,"isfamily":0},{"id":"50964709016","owner":"35949907@N02","secret":"dd7d639ba3","server":"65535","farm":66,"title":"Yellow-rumped Thornbill","ispublic":1,"isfriend":0,"isfamily":0},{"id":"50857948418","owner":"191621302@N03","secret":"27e4ba584e","server":"65535","farm":66,"title":"Yellow-rumped Thornbill (Acanthiza chrysorrhoa)","ispublic":1,"isfriend":0,"isfamily":0}]},"stat":"ok"}