{"photos":{"page":1,"pages":4,"perpage":100,"total":333,"photo":[{"id":"52065464761","owner":"127542576@N05","secret":"42a6261ce1","server":"65535","farm":66,"title":"\u91d1\u9d50 (Emberiza aureola#Yellow-breasted Bunting)","ispublic":1,"isfriend":0,"isfamily":0},{"id":"52065464771","owner":"127542576@N05","secret":"ebaf72d51e","server":"65535","farm":66,"title":"\u91d1\u9d50 (Emberiza aureola#Yellow-breasted Bunting)","ispublic":1,"isfriend":0,"isfamily":0},{"id":"52065480318","owner":"127542576@N05","secret":"8b704e3e32","server":"65535","farm":66,"title":"\u91d1\u9d50 (Emberiza aureola#Yellow-breasted Bunting)","ispublic":1,"isfriend":0,"isfamily":0},{"id":"52031147144","owner":"142083658@N05","secret":"bcfe26773f","server":"65535","farm":66,"title":"Yellow-breasted Bunting, Emberiza aureola, \u0414\u0443\u0431\u0440\u043e\u0432\u043d\u0438\u043a","ispublic":1,"isfriend":0,"isfamily":0},{"id":"51529704720","owner":"12639178@N07","secret":"a2a99a265b","server":"65535","farm":66,"title":"Weidenammer?","ispublic":1,"isfriend":0,"isfamily":0},{"id":"51288896892","owner":"56686021@N04","secret":"7f9b25b622","server":"65535","farm":66,"title":"Yellow-breasted Bunting","ispublic":1,"isfriend":0,"isfamily":0},{"id":"51285579251","owner":"56686021@N04","secret":"842580d6cd","server":"65535","farm":66,"title":"Yellow-breasted Bunting","ispublic":1,"isfriend":0,"isfamily":0},{"id":"51221934068","owner":"142083658@N05","secret":"6e5410fc92","server":"65535","farm":66,"title":"Yellow-breasted Bunting, Emberiza aureola, \u0414\u0443\u0431\u0440\u043e\u0432\u043d\u0438\u043a","ispublic":1,"isfriend":0,"isfamily":0},{"id":"51221010162","owner":"142083658@N05","secret":"f5b9eb1bf2","server":"65535","farm":66,"title":"Yellow-breasted Bunting, Emberiza aureola, \u0414\u0443\u0431\u0440\u043e\u0432\u043d\u0438\u043a","ispublic":1,"isfriend":0,"isfamily":0},{"id":"51215494309","owner":"142083658@N05","secret":"c8640daa30","server":"65535","farm":66,"title":"Yellow-breasted Bunting, Emberiza aureola, \u0414\u0443\u0431\u0440\u043e\u0432\u043d\u0438\u043a","ispublic":1,"isfriend":0,"isfamily":0},{"id":"51209011520","owner":"142083658@N05","secret":"2e09c2d8ff","server":"65535","farm":66,"title":"Yellow-breasted Bunting, Emberiza aureola, \u0414\u0443\u0431\u0440\u043e\u0432\u043d\u0438\u043a","ispublic":1,"isfriend":0,"isfamily":0},{"id":"50981934291","owner":"29882791@N02","secret":"68ca865254","server":"65535","farm":66,"title":"Emberizidae - Emberiza aureola (Yellow-breasted bunting)","ispublic":1,"isfriend":0,"isfamily":0},{"id":"50644015291","owner":"124200561@N04","secret":"9f9207b74c","server":"65535","farm":66,"title":"Yellow-breasted Bunting | Emberiza aureola","ispublic":1,"isfriend":0,"isfamily":0},{"id":"50641560482","owner":"137111202@N08","secret":"3b3416586d","server":"65535","farm":66,"title":"\u9ec3\u80f8\u9d50, \u79be\u82b1\u96c0, \u91d1\u9d50, Yellow-breasted Bunting, Emberiza aureola,","ispublic":1,"isfriend":0,"isfamily":0},{"id":"50616796536","owner":"143943445@N02","secret":"6cae5de454","server":"65535","farm":66,"title":"Yellow-breasted Bunting (Emberiza aureola) \u9ec3\u80f8\u9d50","ispublic":1,"isfriend":0,"isfamily":0},{"id":"50582082136","owner":"137111202@N08","secret":"ddb6b434be","server":"65535","farm":66,"title":"\u9ec3\u80f8\u9d50, \u79be\u82b1\u96c0, \u91d1\u9d50, Yellow-breasted Bunting, Emberiza aureola,","ispublic":1,"isfriend":0,"isfamily":0},{"id":"50393152077","owner":"142083658@N05","secret":"7f31811605","server":"65535","farm":66,"title":"Yellow-breasted Bunting, Emberiza aureola, \u0414\u0443\u0431\u0440\u043e\u0432\u043d\u0438\u043a","ispublic":1,"isfriend":0,"isfamily":0},{"id":"50139004781","owner":"142083658@N05","secret":"d22226c6b2","server":"65535","farm":66,"title":"Yellow-breasted Bunting, Emberiza aureola, \u0414\u0443\u0431\u0440\u043e\u0432\u043d\u0438\u043a","ispublic":1,"isfriend":0,"isfamily":0},{"id":"50103050417","owner":"142083658@N05","secret":"8c4c3d5ff3","server":"65535","farm":66,"title":"Yellow-breasted Bunting, Emberiza aureola, \u0414\u0443\u0431\u0440\u043e\u0432\u043d\u0438\u043a","ispublic":1,"isfriend":0,"isfamily":0},{"id":"49922112292","owner":"40195635@N03","secret":"a86903367a","server":"65535","farm":66,"title":"Yellow-breasted Bunting (Emberiza aureola)","ispublic":1,"isfriend":0,"isfamily":0},{"id":"49857654572","owner":"127542576@N05","secret":"6ca88bd35d","server":"65535","farm":66,"title":"\u91d1\u9d50 (Emberiza aureola#Yellow-breasted Bunting)","ispublic":1,"isfriend":0,"isfamily":0},{"id":"49856808668","owner":"127542576@N05","secret":"de56811f64","server":"65535","farm":66,"title":"\u91d1\u9d50 (Emberiza aureola#Yellow-breasted Bunting)","ispublic":1,"isfriend":0,"isfamily":0},{"id":"49857352181","owner":"127542576@N05","secret":"d9e29d15a3","server":"65535","farm":66,"title":"\u91d1\u9d50 (Emberiza aureola#Yellow-breasted Bunting)","ispublic":1,"isfriend":0,"isfamily":0},{"id":"49850293512","owner":"96060626@N03","secret":"c5be6849bc","server":"0","farm":0,"title":"20200425 (1)\u91d1\u9d50","ispublic":1,"isfriend":0,"isfamily":0},{"id":"49849448943","owner":"96060626@N03","secret":"7f3a831f9a","server":"0","farm":0,"title":"20200425 (6)\u91d1\u9d50\u9ec3\u7709\u9d50","ispublic":1,"isfriend":0,"isfamily":0},{"id":"49849983176","owner":"96060626@N03","secret":"e0e420c5de","server":"65535","farm":66,"title":"20200425 (6)","ispublic":1,"isfriend":0,"isfamily":0},{"id":"49849446928","owner":"96060626@N03","secret":"494c6c9707","server":"65535","farm":66,"title":"20200425 (7)","ispublic":1,"isfriend":0,"isfamily":0},{"id":"49849981046","owner":"96060626@N03","secret":"41fc155152","server":"65535","farm":66,"title":"20200425 (10)","ispublic":1,"isfriend":0,"isfamily":0},{"id":"49849980931","owner":"96060626@N03","secret":"ef956c762e","server":"65535","farm":66,"title":"20200425 (13)","ispublic":1,"isfriend":0,"isfamily":0},{"id":"49850288367","owner":"96060626@N03","secret":"693a976413","server":"65535","farm":66,"title":"20200425 (20)","ispublic":1,"isfriend":0,"isfamily":0},{"id":"49850288307","owner":"96060626@N03","secret":"a31b3dc279","server":"65535","farm":66,"title":"20200425 (21)","ispublic":1,"isfriend":0,"isfamily":0},{"id":"49850288262","owner":"96060626@N03","secret":"dab21b6627","server":"65535","farm":66,"title":"20200425 (22)","ispublic":1,"isfriend":0,"isfamily":0},{"id":"49849980666","owner":"96060626@N03","secret":"54fbbf6598","server":"65535","farm":66,"title":"20200425 (23)","ispublic":1,"isfriend":0,"isfamily":0},{"id":"49850288157","owner":"96060626@N03","secret":"bbb2084b8c","server":"65535","farm":66,"title":"20200425 (27)","ispublic":1,"isfriend":0,"isfamily":0},{"id":"49850288012","owner":"96060626@N03","secret":"b61b64af5f","server":"65535","farm":66,"title":"20200425 (29)","ispublic":1,"isfriend":0,"isfamily":0},{"id":"49849980366","owner":"96060626@N03","secret":"4c64070928","server":"65535","farm":66,"title":"20200425 (30)","ispublic":1,"isfriend":0,"isfamily":0},{"id":"49850287912","owner":"96060626@N03","secret":"b4dceb36f6","server":"65535","farm":66,"title":"20200425 (31)","ispublic":1,"isfriend":0,"isfamily":0},{"id":"49850287852","owner":"96060626@N03","secret":"96b67192d4","server":"65535","farm":66,"title":"20200425 (32)","ispublic":1,"isfriend":0,"isfamily":0},{"id":"49849445978","owner":"96060626@N03","secret":"14464d38de","server":"65535","farm":66,"title":"20200425 (33)","ispublic":1,"isfriend":0,"isfamily":0},{"id":"49850287742","owner":"96060626@N03","secret":"1999963f16","server":"65535","farm":66,"title":"20200425 (34)","ispublic":1,"isfriend":0,"isfamily":0},{"id":"49849980071","owner":"96060626@N03","secret":"4191be7125","server":"65535","farm":66,"title":"20200425 (35)","ispublic":1,"isfriend":0,"isfamily":0},{"id":"49850287637","owner":"96060626@N03","secret":"9ddb8e5dc3","server":"65535","farm":66,"title":"20200425 (36)","ispublic":1,"isfriend":0,"isfamily":0},{"id":"49849979896","owner":"96060626@N03","secret":"99fa31b340","server":"65535","farm":66,"title":"20200425 (38)","ispublic":1,"isfriend":0,"isfamily":0},{"id":"49849979941","owner":"96060626@N03","secret":"9a5d8c68a5","server":"65535","farm":66,"title":"20200425 (37)\u91d1\u9d50","ispublic":1,"isfriend":0,"isfamily":0},{"id":"49850287487","owner":"96060626@N03","secret":"bb68f71e9c","server":"65535","farm":66,"title":"20200425 (39)","ispublic":1,"isfriend":0,"isfamily":0},{"id":"49849445558","owner":"96060626@N03","secret":"04cb08b3ec","server":"65535","farm":66,"title":"20200425 (42)","ispublic":1,"isfriend":0,"isfamily":0},{"id":"49849445508","owner":"96060626@N03","secret":"e22929b758","server":"65535","farm":66,"title":"20200425 (43)","ispublic":1,"isfriend":0,"isfamily":0},{"id":"49849445403","owner":"96060626@N03","secret":"3dae65d3e0","server":"65535","farm":66,"title":"20200425 (44)","ispublic":1,"isfriend":0,"isfamily":0},{"id":"49850287172","owner":"96060626@N03","secret":"152d273f04","server":"65535","farm":66,"title":"20200425 (45)","ispublic":1,"isfriend":0,"isfamily":0},{"id":"49849445128","owner":"96060626@N03","secret":"972134290c","server":"65535","farm":66,"title":"20200425 (61)","ispublic":1,"isfriend":0,"isfamily":0},{"id":"49850286962","owner":"96060626@N03","secret":"478f9c5c2f","server":"65535","farm":66,"title":"20200425 (62)","ispublic":1,"isfriend":0,"isfamily":0},{"id":"49850286867","owner":"96060626@N03","secret":"dd091817a4","server":"65535","farm":66,"title":"20200425 (70)","ispublic":1,"isfriend":0,"isfamily":0},{"id":"49850286717","owner":"96060626@N03","secret":"0d500c0814","server":"65535","farm":66,"title":"20200425 (77)","ispublic":1,"isfriend":0,"isfamily":0},{"id":"49849444823","owner":"96060626@N03","secret":"1be37d1ce0","server":"65535","farm":66,"title":"20200425 (78)","ispublic":1,"isfriend":0,"isfamily":0},{"id":"49850286562","owner":"96060626@N03","secret":"0a0264215f","server":"65535","farm":66,"title":"20200425 (79)","ispublic":1,"isfriend":0,"isfamily":0},{"id":"49849978861","owner":"96060626@N03","secret":"6a15c1e128","server":"65535","farm":66,"title":"20200425 (81)","ispublic":1,"isfriend":0,"isfamily":0},{"id":"49849978781","owner":"96060626@N03","secret":"443c5aa3e2","server":"65535","farm":66,"title":"20200425 (82)","ispublic":1,"isfriend":0,"isfamily":0},{"id":"49850286312","owner":"96060626@N03","secret":"1727e6f527","server":"65535","farm":66,"title":"20200425 (83)","ispublic":1,"isfriend":0,"isfamily":0},{"id":"49850286272","owner":"96060626@N03","secret":"03e9c32f7e","server":"65535","farm":66,"title":"20200425 (84)","ispublic":1,"isfriend":0,"isfamily":0},{"id":"49850286207","owner":"96060626@N03","secret":"013b6a1c0e","server":"65535","farm":66,"title":"20200425 (86)","ispublic":1,"isfriend":0,"isfamily":0},{"id":"49850285952","owner":"96060626@N03","secret":"3d8452aea6","server":"65535","farm":66,"title":"20200425 (100)","ispublic":1,"isfriend":0,"isfamily":0},{"id":"49849978296","owner":"96060626@N03","secret":"cfdee60ca7","server":"65535","farm":66,"title":"20200425 (101)","ispublic":1,"isfriend":0,"isfamily":0},{"id":"49849978196","owner":"96060626@N03","secret":"dcdb0fc794","server":"65535","farm":66,"title":"20200425 (103)","ispublic":1,"isfriend":0,"isfamily":0},{"id":"49849443853","owner":"96060626@N03","secret":"0bc845b3c1","server":"65535","farm":66,"title":"20200425 (105)","ispublic":1,"isfriend":0,"isfamily":0},{"id":"49850285632","owner":"96060626@N03","secret":"28f92f18c8","server":"65535","farm":66,"title":"20200425 (106)","ispublic":1,"isfriend":0,"isfamily":0},{"id":"49849443718","owner":"96060626@N03","secret":"4780d77fa9","server":"65535","farm":66,"title":"20200425 (107)","ispublic":1,"isfriend":0,"isfamily":0},{"id":"49849977686","owner":"96060626@N03","secret":"dd254e59e9","server":"65535","farm":66,"title":"20200425 (109)","ispublic":1,"isfriend":0,"isfamily":0},{"id":"49849977586","owner":"96060626@N03","secret":"987b096bfc","server":"65535","farm":66,"title":"20200425 (110)","ispublic":1,"isfriend":0,"isfamily":0},{"id":"49850285072","owner":"96060626@N03","secret":"95b0714c6f","server":"65535","farm":66,"title":"20200425 (112)","ispublic":1,"isfriend":0,"isfamily":0},{"id":"49849977341","owner":"96060626@N03","secret":"d635f8d575","server":"65535","farm":66,"title":"20200425 (113)","ispublic":1,"isfriend":0,"isfamily":0},{"id":"49849977216","owner":"96060626@N03","secret":"35ace61c03","server":"65535","farm":66,"title":"20200425 (114)","ispublic":1,"isfriend":0,"isfamily":0},{"id":"49850284662","owner":"96060626@N03","secret":"c47dc14630","server":"65535","farm":66,"title":"20200425 (115)","ispublic":1,"isfriend":0,"isfamily":0},{"id":"49850284522","owner":"96060626@N03","secret":"aff0d978c7","server":"65535","farm":66,"title":"20200425 (117)","ispublic":1,"isfriend":0,"isfamily":0},{"id":"49850284382","owner":"96060626@N03","secret":"e5d5f369fc","server":"65535","farm":66,"title":"20200425 (118)","ispublic":1,"isfriend":0,"isfamily":0},{"id":"49849976761","owner":"96060626@N03","secret":"e23622852b","server":"65535","farm":66,"title":"20200425 (119)","ispublic":1,"isfriend":0,"isfamily":0},{"id":"49849976651","owner":"96060626@N03","secret":"eb15ede95c","server":"65535","farm":66,"title":"20200425 (152)","ispublic":1,"isfriend":0,"isfamily":0},{"id":"49849439278","owner":"96060626@N03","secret":"b239c2c06b","server":"0","farm":0,"title":"20200425 (3)\u91d1\u9d50\u5c0f\u9d50","ispublic":1,"isfriend":0,"isfamily":0},{"id":"49850279162","owner":"96060626@N03","secret":"45d7723fc4","server":"0","farm":0,"title":"20200425 (5)\u5c0f\u9d50\u91d1\u9d50","ispublic":1,"isfriend":0,"isfamily":0},{"id":"49849434388","owner":"96060626@N03","secret":"bb784690c9","server":"65535","farm":66,"title":"20200425 (127)","ispublic":1,"isfriend":0,"isfamily":0},{"id":"51333335675","owner":"56686021@N04","secret":"7e79d934f5","server":"65535","farm":66,"title":"Yellow-breasted Bunting","ispublic":1,"isfriend":0,"isfamily":0},{"id":"51311642006","owner":"56686021@N04","secret":"7a3df0fda4","server":"65535","farm":66,"title":"Yellow-breasted Bunting","ispublic":1,"isfriend":0,"isfamily":0},{"id":"51268273710","owner":"142083658@N05","secret":"c07d82b778","server":"65535","farm":66,"title":"Yellow-breasted Bunting, Emberiza aureola, \u0414\u0443\u0431\u0440\u043e\u0432\u043d\u0438\u043a","ispublic":1,"isfriend":0,"isfamily":0},{"id":"51256179131","owner":"142083658@N05","secret":"6e4f9d3750","server":"65535","farm":66,"title":"Yellow-breasted Bunting, Emberiza aureola, \u0414\u0443\u0431\u0440\u043e\u0432\u043d\u0438\u043a","ispublic":1,"isfriend":0,"isfamily":0},{"id":"51238779697","owner":"142083658@N05","secret":"2e61223f2e","server":"65535","farm":66,"title":"Yellow-breasted Bunting, Emberiza aureola, \u0414\u0443\u0431\u0440\u043e\u0432\u043d\u0438\u043a","ispublic":1,"isfriend":0,"isfamily":0},{"id":"51240543330","owner":"142083658@N05","secret":"61440ba87c","server":"65535","farm":66,"title":"Yellow-breasted Bunting, Emberiza aureola, \u0414\u0443\u0431\u0440\u043e\u0432\u043d\u0438\u043a","ispublic":1,"isfriend":0,"isfamily":0},{"id":"51221933223","owner":"142083658@N05","secret":"2ebd707f33","server":"65535","farm":66,"title":"Yellow-breasted Bunting, Emberiza aureola, \u0414\u0443\u0431\u0440\u043e\u0432\u043d\u0438\u043a","ispublic":1,"isfriend":0,"isfamily":0},{"id":"51193593392","owner":"142083658@N05","secret":"1159f522ee","server":"65535","farm":66,"title":"Yellow-breasted Bunting, Emberiza aureola, \u0414\u0443\u0431\u0440\u043e\u0432\u043d\u0438\u043a","ispublic":1,"isfriend":0,"isfamily":0},{"id":"51170407840","owner":"142083658@N05","secret":"d1e31c7fff","server":"65535","farm":66,"title":"Yellow-breasted Bunting, Emberiza aureola, \u0414\u0443\u0431\u0440\u043e\u0432\u043d\u0438\u043a","ispublic":1,"isfriend":0,"isfamily":0},{"id":"50241788116","owner":"61021753@N02","secret":"0efb0a4de2","server":"65535","farm":66,"title":"n98_w1150","ispublic":1,"isfriend":0,"isfamily":0},{"id":"50241786776","owner":"61021753@N02","secret":"db55ae3bdb","server":"65535","farm":66,"title":"n56_w1150","ispublic":1,"isfriend":0,"isfamily":0},{"id":"50103080762","owner":"142083658@N05","secret":"f5c3e04bcd","server":"65535","farm":66,"title":"Yellow-breasted Bunting, Emberiza aureola, \u0414\u0443\u0431\u0440\u043e\u0432\u043d\u0438\u043a","ispublic":1,"isfriend":0,"isfamily":0},{"id":"50085457746","owner":"187469698@N05","secret":"c2f56184aa","server":"65535","farm":66,"title":"1289 Yellow-breasted Bunting - Andrew Walker 001","ispublic":1,"isfriend":0,"isfamily":0},{"id":"49925999666","owner":"55968524@N04","secret":"d8f4941030","server":"65535","farm":66,"title":"2M3A5765 - Yellow-breasted Bunting - Emberiza aureola.jpg","ispublic":1,"isfriend":0,"isfamily":0},{"id":"49921173093","owner":"40195635@N03","secret":"2c965b6eea","server":"65535","farm":66,"title":"Yellow-breasted Bunting (Emberiza aureola)","ispublic":1,"isfriend":0,"isfamily":0},{"id":"49856808718","owner":"127542576@N05","secret":"fcb3af80d2","server":"65535","farm":66,"title":"\u91d1\u9d50 (Emberiza aureola#Yellow-breasted Bunting)","ispublic":1,"isfriend":0,"isfamily":0},{"id":"49849449048","owner":"96060626@N03","secret":"aa4672679d","server":"65535","farm":66,"title":"20200425 (5)","ispublic":1,"isfriend":0,"isfamily":0},{"id":"49849981126","owner":"96060626@N03","secret":"6c47ec09a5","server":"65535","farm":66,"title":"20200425 (8)","ispublic":1,"isfriend":0,"isfamily":0},{"id":"49849979336","owner":"96060626@N03","secret":"0deb64d775","server":"65535","farm":66,"title":"20200425 (63)","ispublic":1,"isfriend":0,"isfamily":0},{"id":"49849978946","owner":"96060626@N03","secret":"d863103af2","server":"65535","farm":66,"title":"20200425 (80)","ispublic":1,"isfriend":0,"isfamily":0},{"id":"49849444228","owner":"96060626@N03","secret":"7b0d926db0","server":"65535","farm":66,"title":"20200425 (99)","ispublic":1,"isfriend":0,"isfamily":0}]},"stat":"ok"}