{"photos":{"page":1,"pages":90,"perpage":100,"total":8961,"photo":[{"id":"52724292124","owner":"143326780@N02","secret":"4e89bd8862","server":"65535","farm":66,"title":"DSCN6017","ispublic":1,"isfriend":0,"isfamily":0},{"id":"52724442310","owner":"143326780@N02","secret":"72b2f03275","server":"65535","farm":66,"title":"DSCN6020","ispublic":1,"isfriend":0,"isfamily":0},{"id":"52724510998","owner":"143326780@N02","secret":"251b83d52a","server":"65535","farm":66,"title":"DSCN6028","ispublic":1,"isfriend":0,"isfamily":0},{"id":"52724442195","owner":"143326780@N02","secret":"28c5e099cd","server":"65535","farm":66,"title":"DSCN6031","ispublic":1,"isfriend":0,"isfamily":0},{"id":"52723003125","owner":"39652177@N04","secret":"1003c86b76","server":"65535","farm":66,"title":"cumulonimbus clouds or 8 inches of snow?","ispublic":1,"isfriend":0,"isfamily":0},{"id":"52722690308","owner":"143326780@N02","secret":"e9912bf36f","server":"65535","farm":66,"title":"DSCN5692_Moment(3)","ispublic":1,"isfriend":0,"isfamily":0},{"id":"52722467899","owner":"143326780@N02","secret":"1d176cd52a","server":"65535","farm":66,"title":"DSCN5692_Moment(4)","ispublic":1,"isfriend":0,"isfamily":0},{"id":"52722210626","owner":"143326780@N02","secret":"a7e8843cbf","server":"65535","farm":66,"title":"DSCN5692_Moment(5)","ispublic":1,"isfriend":0,"isfamily":0},{"id":"52722210586","owner":"143326780@N02","secret":"ca5a87e303","server":"65535","farm":66,"title":"DSCN5692_Moment(6)","ispublic":1,"isfriend":0,"isfamily":0},{"id":"52722467789","owner":"143326780@N02","secret":"25ba422109","server":"65535","farm":66,"title":"DSCN5692_Moment(7)","ispublic":1,"isfriend":0,"isfamily":0},{"id":"52722690138","owner":"143326780@N02","secret":"7477f45a01","server":"65535","farm":66,"title":"DSCN5692_Moment","ispublic":1,"isfriend":0,"isfamily":0},{"id":"52722210461","owner":"143326780@N02","secret":"27495b442a","server":"65535","farm":66,"title":"DSCN5704","ispublic":1,"isfriend":0,"isfamily":0},{"id":"52722613770","owner":"143326780@N02","secret":"80db4f2b4f","server":"65535","farm":66,"title":"DSCN5692_Moment(2)","ispublic":1,"isfriend":0,"isfamily":0},{"id":"52721380331","owner":"62043870@N05","secret":"0df16c3129","server":"65535","farm":66,"title":"Yellow-rumped Warbler, Setophaga coronata","ispublic":1,"isfriend":0,"isfamily":0},{"id":"52719436830","owner":"165841515@N03","secret":"82864918d2","server":"65535","farm":66,"title":"Paruline \u00e0 croupion jaune \/ Yellow-rumped Warbler \/ (Setophaga coronata)","ispublic":1,"isfriend":0,"isfamily":0},{"id":"52719503108","owner":"165841515@N03","secret":"a6ef096df6","server":"65535","farm":66,"title":"Paruline \u00e0 croupion jaune \/ Yellow-rumped Warbler \/ (Setophaga coronata)","ispublic":1,"isfriend":0,"isfamily":0},{"id":"52718126721","owner":"38514062@N03","secret":"6b60f8986a","server":"65535","farm":66,"title":"Yellow-rumped Warbler (Setophaga coronata)","ispublic":1,"isfriend":0,"isfamily":0},{"id":"52714961771","owner":"47533293@N04","secret":"bb3ca630b8","server":"65535","farm":66,"title":"Yellow-rumped warbler, Setophaga coronata","ispublic":1,"isfriend":0,"isfamily":0},{"id":"52712729406","owner":"81058247@N08","secret":"80970a48a2","server":"65535","farm":66,"title":"Hermit Thrush (Catharus guttatus) and Myrtle Yellow-rumped Warblers (Setophaga coronata coronata)","ispublic":1,"isfriend":0,"isfamily":0},{"id":"52711741649","owner":"12530381@N07","secret":"94fa7b82c6","server":"65535","farm":66,"title":"Mad at the Rain Yellow-rumped Warbler (Setophaga coronata) (2\/25\/2023)","ispublic":1,"isfriend":0,"isfamily":0},{"id":"52708785702","owner":"62043870@N05","secret":"e0770892ff","server":"65535","farm":66,"title":"Yellow-rumped Warbler, Setophaga coronata","ispublic":1,"isfriend":0,"isfamily":0},{"id":"52708732216","owner":"40941741@N03","secret":"d7e4623537","server":"65535","farm":66,"title":"Yellow-rumped Warbler on a branch","ispublic":1,"isfriend":0,"isfamily":0},{"id":"52708910204","owner":"143326780@N02","secret":"55904f66bb","server":"65535","farm":66,"title":"DSCN5370","ispublic":1,"isfriend":0,"isfamily":0},{"id":"52708909934","owner":"143326780@N02","secret":"7edf8061c7","server":"65535","farm":66,"title":"DSCN5376","ispublic":1,"isfriend":0,"isfamily":0},{"id":"52708129442","owner":"143326780@N02","secret":"9fe7fb9575","server":"65535","farm":66,"title":"DSCN5377","ispublic":1,"isfriend":0,"isfamily":0},{"id":"52708909269","owner":"143326780@N02","secret":"f6e8e12c99","server":"65535","farm":66,"title":"DSCN5530","ispublic":1,"isfriend":0,"isfamily":0},{"id":"52709137953","owner":"143326780@N02","secret":"3f86f090b3","server":"65535","farm":66,"title":"DSCN5531","ispublic":1,"isfriend":0,"isfamily":0},{"id":"52709137728","owner":"143326780@N02","secret":"dfea1bdac9","server":"65535","farm":66,"title":"DSCN5378","ispublic":1,"isfriend":0,"isfamily":0},{"id":"52708651061","owner":"143326780@N02","secret":"fb293f0b09","server":"65535","farm":66,"title":"DSCN5380","ispublic":1,"isfriend":0,"isfamily":0},{"id":"52705092177","owner":"33610210@N05","secret":"a7d849c08f","server":"65535","farm":66,"title":"Yellow-rumped Warbler, Setophaga coronata","ispublic":1,"isfriend":0,"isfamily":0},{"id":"52705092102","owner":"33610210@N05","secret":"3f5be40371","server":"65535","farm":66,"title":"Yellow-rumped Warbler, Setophaga coronata","ispublic":1,"isfriend":0,"isfamily":0},{"id":"52702999562","owner":"22163926@N05","secret":"81a8bec7a1","server":"65535","farm":66,"title":"Golden Sunset","ispublic":1,"isfriend":0,"isfamily":0},{"id":"52699010527","owner":"77056186@N00","secret":"dfffc78b58","server":"65535","farm":66,"title":"Yellow-rumped warbler","ispublic":1,"isfriend":0,"isfamily":0},{"id":"52699010477","owner":"77056186@N00","secret":"f2741ccd67","server":"65535","farm":66,"title":"Yellow-rumped warbler","ispublic":1,"isfriend":0,"isfamily":0},{"id":"52696866637","owner":"62043870@N05","secret":"cb7ce398ba","server":"65535","farm":66,"title":"Yellow-rumped Warbler, Setophaga coronata","ispublic":1,"isfriend":0,"isfamily":0},{"id":"52695163334","owner":"143326780@N02","secret":"646120d614","server":"65535","farm":66,"title":"DSCN4642","ispublic":1,"isfriend":0,"isfamily":0},{"id":"52689910101","owner":"33610210@N05","secret":"925f1f1712","server":"65535","farm":66,"title":"Yellow-rumped Warbler, Setophaga coronata","ispublic":1,"isfriend":0,"isfamily":0},{"id":"52689805839","owner":"84175980@N00","secret":"4f2ed76025","server":"65535","farm":66,"title":"20221122 Setophaga coronata (Yellow-rumped Warbler) (1)","ispublic":1,"isfriend":0,"isfamily":0},{"id":"52688619577","owner":"81058247@N08","secret":"1fcbc7a7ce","server":"65535","farm":66,"title":"Myrtle Yellow-rumped Warbler (Setophaga coronata coronata)","ispublic":1,"isfriend":0,"isfamily":0},{"id":"52688619532","owner":"81058247@N08","secret":"20cf299198","server":"65535","farm":66,"title":"Myrtle Yellow-rumped Warbler (Setophaga coronata coronata)","ispublic":1,"isfriend":0,"isfamily":0},{"id":"52687980984","owner":"12829388@N04","secret":"37c0b88bda","server":"65535","farm":66,"title":"Yellow Rumped Warbler - Setophaga coronata","ispublic":1,"isfriend":0,"isfamily":0},{"id":"52687410008","owner":"8677091@N08","secret":"0599aa4ea5","server":"65535","farm":66,"title":"La Mirta en el Maguey","ispublic":1,"isfriend":0,"isfamily":0},{"id":"52687338990","owner":"8677091@N08","secret":"15749a641f","server":"65535","farm":66,"title":"La Mirta y el Maguey","ispublic":1,"isfriend":0,"isfamily":0},{"id":"52686391932","owner":"8677091@N08","secret":"7821cecdc7","server":"65535","farm":66,"title":"Las Mirtas","ispublic":1,"isfriend":0,"isfamily":0},{"id":"52682705578","owner":"128369733@N04","secret":"33e1f1a9b9","server":"65535","farm":66,"title":"A Little Thirsty Bird","ispublic":1,"isfriend":0,"isfamily":0},{"id":"52681090004","owner":"130819719@N05","secret":"26c354f2f7","server":"65535","farm":66,"title":"Yellow-rumped Warbler (Myrtle)","ispublic":1,"isfriend":0,"isfamily":0},{"id":"52678898056","owner":"47533293@N04","secret":"8ac87a45ed","server":"65535","farm":66,"title":"Yellow-rumped warbler, Setophaga coronata","ispublic":1,"isfriend":0,"isfamily":0},{"id":"52679067793","owner":"128369733@N04","secret":"49bab5cf12","server":"65535","farm":66,"title":"Sunny & Bright (1)","ispublic":1,"isfriend":0,"isfamily":0},{"id":"52677645877","owner":"197634383@N07","secret":"3520054179","server":"65535","farm":66,"title":"Yellow-Rumped Warbler","ispublic":1,"isfriend":0,"isfamily":0},{"id":"52677635659","owner":"143326780@N02","secret":"a41591db60","server":"65535","farm":66,"title":"DSCN3508","ispublic":1,"isfriend":0,"isfamily":0},{"id":"52677635604","owner":"143326780@N02","secret":"4550f4cc60","server":"65535","farm":66,"title":"DSCN3697","ispublic":1,"isfriend":0,"isfamily":0},{"id":"52676838187","owner":"143326780@N02","secret":"23854a8153","server":"65535","farm":66,"title":"DSCN3698","ispublic":1,"isfriend":0,"isfamily":0},{"id":"52677350211","owner":"143326780@N02","secret":"fe6476b86e","server":"65535","farm":66,"title":"DSCN3708","ispublic":1,"isfriend":0,"isfamily":0},{"id":"52677350161","owner":"143326780@N02","secret":"6b1436edf0","server":"65535","farm":66,"title":"DSCN3709","ispublic":1,"isfriend":0,"isfamily":0},{"id":"52677846143","owner":"143326780@N02","secret":"72c07f3037","server":"65535","farm":66,"title":"DSCN3710","ispublic":1,"isfriend":0,"isfamily":0},{"id":"52676838017","owner":"143326780@N02","secret":"914bdecf2e","server":"65535","farm":66,"title":"DSCN3696","ispublic":1,"isfriend":0,"isfamily":0},{"id":"52677819713","owner":"143326780@N02","secret":"593fd09598","server":"65535","farm":66,"title":"DSCN3728","ispublic":1,"isfriend":0,"isfamily":0},{"id":"52675194566","owner":"128369733@N04","secret":"15b701f5b7","server":"65535","farm":66,"title":"Bird On A Branch (1)","ispublic":1,"isfriend":0,"isfamily":0},{"id":"52674037532","owner":"93273765@N05","secret":"fef0d68287","server":"65535","farm":66,"title":"Myrtle Warbler or Yellow-rumped warbler (Setophaga coronata)","ispublic":1,"isfriend":0,"isfamily":0},{"id":"52673846686","owner":"61135968@N00","secret":"a11526f644","server":"65535","farm":66,"title":"Mrytle warbler","ispublic":1,"isfriend":0,"isfamily":0},{"id":"52671737310","owner":"57126723@N07","secret":"dcc36df85f","server":"65535","farm":66,"title":"Yellow-rumped warbler\u2014Setophaga coronata\u2014Greensprings trail-8311","ispublic":1,"isfriend":0,"isfamily":0},{"id":"52668870098","owner":"74787113@N05","secret":"e84163caea","server":"65535","farm":66,"title":"YELLOW-RUMPED WARBLER","ispublic":1,"isfriend":0,"isfamily":0},{"id":"52667141660","owner":"57356301@N06","secret":"b750e86ccc","server":"65535","farm":66,"title":"Yellow-rumped Warbler, Setophaga coronata","ispublic":1,"isfriend":0,"isfamily":0},{"id":"52666706726","owner":"57356301@N06","secret":"25d93cb1fd","server":"65535","farm":66,"title":"Yellow-rumped Warbler, Setophaga coronata","ispublic":1,"isfriend":0,"isfamily":0},{"id":"52667208493","owner":"57356301@N06","secret":"ce4ebbd1ff","server":"65535","farm":66,"title":"Yellow-rumped Warbler, Setophaga coronata","ispublic":1,"isfriend":0,"isfamily":0},{"id":"52666208309","owner":"62037969@N08","secret":"2cb6b91e8f","server":"65535","farm":66,"title":"Male Yellow-rumped Warbler In Winter Plumage Glances Down","ispublic":1,"isfriend":0,"isfamily":0},{"id":"52665512746","owner":"143326780@N02","secret":"a20bf638ae","server":"65535","farm":66,"title":"DSCN3193","ispublic":1,"isfriend":0,"isfamily":0},{"id":"52665013552","owner":"143326780@N02","secret":"b04a0216fe","server":"65535","farm":66,"title":"DSCN3194","ispublic":1,"isfriend":0,"isfamily":0},{"id":"52664171517","owner":"128369733@N04","secret":"34624a6a27","server":"65535","farm":66,"title":"At The Birdbath This Morning (1)","ispublic":1,"isfriend":0,"isfamily":0},{"id":"52664961514","owner":"128369733@N04","secret":"cdee38fcf2","server":"65535","farm":66,"title":"At The Birdbath This Morning (2)","ispublic":1,"isfriend":0,"isfamily":0},{"id":"52664116005","owner":"182515684@N02","secret":"9b0069938f","server":"65535","farm":66,"title":"Yellow-rumped Warbler  \u2026 OM5533-318b","ispublic":1,"isfriend":0,"isfamily":0},{"id":"52663925709","owner":"11815777@N07","secret":"d8e0eecaf4","server":"65535","farm":66,"title":"Hunting insects at the edge of a pond","ispublic":1,"isfriend":0,"isfamily":0},{"id":"52657149344","owner":"143326780@N02","secret":"91023d7bf9","server":"65535","farm":66,"title":"DSCN2542","ispublic":1,"isfriend":0,"isfamily":0},{"id":"52657312165","owner":"143326780@N02","secret":"205c7deb64","server":"65535","farm":66,"title":"DSCN2544","ispublic":1,"isfriend":0,"isfamily":0},{"id":"52657364808","owner":"57126723@N07","secret":"4577a414d2","server":"65535","farm":66,"title":"Setophaga coronata\u2014Yellow-rumped warbler\u2014Grandview Nature Preserve\u2014Hampton, Virginia-7838","ispublic":1,"isfriend":0,"isfamily":0},{"id":"52657156094","owner":"57126723@N07","secret":"a846558642","server":"65535","farm":66,"title":"Setophaga coronata\u2014Yellow-rumped warbler\u2014Grandview Nature Preserve\u2014Hampton, Virginia-7843","ispublic":1,"isfriend":0,"isfamily":0},{"id":"52657239773","owner":"35170601@N06","secret":"a1e62e056e","server":"65535","farm":66,"title":"Yellow-rumped [myrtle] warbler (Setophaga coronata spp coronata)","ispublic":1,"isfriend":0,"isfamily":0},{"id":"52656905454","owner":"197039631@N05","secret":"5f6d90b506","server":"65535","farm":66,"title":"Yellow-Rumped Warbler Taking off after a Bath","ispublic":1,"isfriend":0,"isfamily":0},{"id":"52654637202","owner":"23939795@N04","secret":"47fe6c2246","server":"65535","farm":66,"title":"Warbler in the Aloe 9764","ispublic":1,"isfriend":0,"isfamily":0},{"id":"52654877311","owner":"68462817@N05","secret":"bc124e0aa7","server":"65535","farm":66,"title":"Male Yellow-rumped Warbler, Setophaga coronata","ispublic":1,"isfriend":0,"isfamily":0},{"id":"52652127521","owner":"38514062@N03","secret":"2b5583faf1","server":"65535","farm":66,"title":"Yellow-rumped Warbler (Setophaga coronata)","ispublic":1,"isfriend":0,"isfamily":0},{"id":"52650929023","owner":"128369733@N04","secret":"a09077cf5e","server":"65535","farm":66,"title":"On A Dead Branch","ispublic":1,"isfriend":0,"isfamily":0},{"id":"52650928473","owner":"128369733@N04","secret":"62428620cc","server":"65535","farm":66,"title":"Tail Up","ispublic":1,"isfriend":0,"isfamily":0},{"id":"52650592870","owner":"128369733@N04","secret":"bdbe0c3e0c","server":"65535","farm":66,"title":"Little Visitor","ispublic":1,"isfriend":0,"isfamily":0},{"id":"52649377058","owner":"44034115@N08","secret":"c4867908e4","server":"65535","farm":66,"title":"Face to Face with the Yellow-rumped Warbler","ispublic":1,"isfriend":0,"isfamily":0},{"id":"52647905434","owner":"112608353@N02","secret":"a7d0406928","server":"65535","farm":66,"title":"Yellow-rumped Warbler","ispublic":1,"isfriend":0,"isfamily":0},{"id":"52646216626","owner":"187792860@N04","secret":"3ae032dc4e","server":"65535","farm":66,"title":"Yellow-rumped Warbler (Setophaga coronata)","ispublic":1,"isfriend":0,"isfamily":0},{"id":"52643779207","owner":"128369733@N04","secret":"e71882f1cb","server":"65535","farm":66,"title":"Wet Warbler (1)","ispublic":1,"isfriend":0,"isfamily":0},{"id":"52643778237","owner":"128369733@N04","secret":"bb29134bcf","server":"65535","farm":66,"title":"Wet Warbler (3)","ispublic":1,"isfriend":0,"isfamily":0},{"id":"52643088643","owner":"9243885@N07","secret":"103c67a435","server":"65535","farm":66,"title":"2023_01_21_5DMk4_90358","ispublic":1,"isfriend":0,"isfamily":0},{"id":"52640923633","owner":"47533293@N04","secret":"d688243f84","server":"65535","farm":66,"title":"Yellow-rumped warbler, Setophaga coronata","ispublic":1,"isfriend":0,"isfamily":0},{"id":"52639815759","owner":"67277069@N06","secret":"750aa5e04d","server":"65535","farm":66,"title":"Yellow-rumped Warbler---Setophaga coronata","ispublic":1,"isfriend":0,"isfamily":0},{"id":"52695163434","owner":"143326780@N02","secret":"88467f0a08","server":"65535","farm":66,"title":"DSCN4624","ispublic":1,"isfriend":0,"isfamily":0},{"id":"52694897911","owner":"143326780@N02","secret":"4e786f6360","server":"65535","farm":66,"title":"DSCN4625","ispublic":1,"isfriend":0,"isfamily":0},{"id":"52678031044","owner":"33610210@N05","secret":"289862953b","server":"65535","farm":66,"title":"Yellow-rumped Warbler, Setophaga coronata","ispublic":1,"isfriend":0,"isfamily":0},{"id":"52675082915","owner":"34238008@N02","secret":"59b55e4350","server":"65535","farm":66,"title":"Yellow-rumped Warbler (Setophaga coronata)","ispublic":1,"isfriend":0,"isfamily":0},{"id":"52665939750","owner":"143326780@N02","secret":"cbcf8611fa","server":"65535","farm":66,"title":"DSCN3197","ispublic":1,"isfriend":0,"isfamily":0},{"id":"52661426927","owner":"33610210@N05","secret":"598dea47e1","server":"65535","farm":66,"title":"Yellow-rumped Warbler, Setophaga coronata","ispublic":1,"isfriend":0,"isfamily":0},{"id":"52661426877","owner":"33610210@N05","secret":"81f2d319f3","server":"65535","farm":66,"title":"Yellow-rumped Warbler, Setophaga coronata","ispublic":1,"isfriend":0,"isfamily":0},{"id":"52644729150","owner":"128369733@N04","secret":"cc8454b073","server":"65535","farm":66,"title":"Wet Warbler (2)","ispublic":1,"isfriend":0,"isfamily":0}]},"stat":"ok"}