{"photos":{"page":1,"pages":5,"perpage":100,"total":469,"photo":[{"id":"52779769195","owner":"195164158@N04","secret":"6fc04dfa86","server":"65535","farm":66,"title":"DSC_1273","ispublic":1,"isfriend":0,"isfamily":0},{"id":"52779759695","owner":"195164158@N04","secret":"11a394a7c0","server":"65535","farm":66,"title":"DSC_1037","ispublic":1,"isfriend":0,"isfamily":0},{"id":"52755341083","owner":"44635421@N06","secret":"c70616e83a","server":"65535","farm":66,"title":"The Yellow-throated Bunting (Emberiza elegans)","ispublic":1,"isfriend":0,"isfamily":0},{"id":"52740162425","owner":"183840266@N08","secret":"e2ea6c8188","server":"65535","farm":66,"title":"Yellow-throated Bunting (Emberiza elegans elegans)","ispublic":1,"isfriend":0,"isfamily":0},{"id":"52739751111","owner":"183840266@N08","secret":"fb2485764a","server":"65535","farm":66,"title":"Yellow-throated Bunting (Emberiza elegans elegans)","ispublic":1,"isfriend":0,"isfamily":0},{"id":"52739751086","owner":"183840266@N08","secret":"94350e9f14","server":"65535","farm":66,"title":"Yellow-throated Bunting (Emberiza elegans elegans)","ispublic":1,"isfriend":0,"isfamily":0},{"id":"52717301537","owner":"23856345@N06","secret":"f268d86d69","server":"65535","farm":66,"title":"Yellow-throated Bunting (Emberiza elegans)","ispublic":1,"isfriend":0,"isfamily":0},{"id":"52673021488","owner":"127247666@N05","secret":"2f378809c0","server":"65535","farm":66,"title":"Japanese iris and yellow-throated bunting","ispublic":1,"isfriend":0,"isfamily":0},{"id":"52241579481","owner":"9638954@N07","secret":"ce37a91411","server":"65535","farm":66,"title":"Yellow-throated Bunting","ispublic":1,"isfriend":0,"isfamily":0},{"id":"52241579446","owner":"9638954@N07","secret":"ed50daedf0","server":"65535","farm":66,"title":"Yellow-throated Bunting with mantis","ispublic":1,"isfriend":0,"isfamily":0},{"id":"52241588868","owner":"9638954@N07","secret":"c70a81713a","server":"65535","farm":66,"title":"Yellow-throated Bunting","ispublic":1,"isfriend":0,"isfamily":0},{"id":"52242068865","owner":"9638954@N07","secret":"ccdd6348eb","server":"65535","farm":66,"title":"Yellow-throated Bunting","ispublic":1,"isfriend":0,"isfamily":0},{"id":"52240598977","owner":"9638954@N07","secret":"4989191a94","server":"65535","farm":66,"title":"Yellow-throated Bunting","ispublic":1,"isfriend":0,"isfamily":0},{"id":"52160940547","owner":"195164158@N04","secret":"ab5805dab0","server":"65535","farm":66,"title":"DSC_9760-2021-03-30-Nikon D5-Nikkor 400mm F2.8-Ching Wei Chang \u5f35\u6176\u7dad \u7dad\u54e5","ispublic":1,"isfriend":0,"isfamily":0},{"id":"52161926723","owner":"195164158@N04","secret":"76bdd50dc6","server":"65535","farm":66,"title":"DSC_9894-2021-03-30-Nikon D5-Nikkor 400mm F2.8-Ching Wei Chang \u5f35\u6176\u7dad \u7dad\u54e5","ispublic":1,"isfriend":0,"isfamily":0},{"id":"52161923471","owner":"195164158@N04","secret":"b9e267480f","server":"65535","farm":66,"title":"DSC_9884-2021-03-30-Nikon D5-Nikkor 400mm F2.8-Ching Wei Chang \u5f35\u6176\u7dad \u7dad\u54e5","ispublic":1,"isfriend":0,"isfamily":0},{"id":"52161910271","owner":"195164158@N04","secret":"4e73e9b1d0","server":"65535","farm":66,"title":"DSC_9879-2021-03-30-Nikon D5-Nikkor 400mm F2.8-Ching Wei Chang \u5f35\u6176\u7dad \u7dad\u54e5","ispublic":1,"isfriend":0,"isfamily":0},{"id":"51988872292","owner":"142083658@N05","secret":"472a888578","server":"65535","farm":66,"title":"Yellow-throated Bunting, Emberiza elegans, \u041e\u0432\u0441\u044f\u043d\u043a\u0430 \u0436\u0435\u043b\u0442\u043e\u0433\u043e\u0440\u043b\u0430\u044f","ispublic":1,"isfriend":0,"isfamily":0},{"id":"51907790632","owner":"51148533@N00","secret":"b2b19e95e9","server":"65535","farm":66,"title":"Yellow-throated bunting (Emberiza elegans)\u30df\u30e4\u30de\u30db\u30aa\u30b8\u30ed","ispublic":1,"isfriend":0,"isfamily":0},{"id":"51183104985","owner":"52543079@N06","secret":"3152418e8b","server":"65535","farm":66,"title":"Yellow-throated Bunting \u9ec3\u5589\u9d50","ispublic":1,"isfriend":0,"isfamily":0},{"id":"51182237583","owner":"52543079@N06","secret":"6d351ffafd","server":"65535","farm":66,"title":"Yellow-throated Bunting \u9ec3\u5589\u9d50","ispublic":1,"isfriend":0,"isfamily":0},{"id":"51120626836","owner":"147061930@N04","secret":"cc96e88898","server":"65535","farm":66,"title":"Yellow-throated bunting","ispublic":1,"isfriend":0,"isfamily":0},{"id":"51080877023","owner":"127542576@N05","secret":"671f826ed6","server":"65535","farm":66,"title":"\u9ec3\u5589\u9d50 (Emberiza elegans#Yellow-throated Bunting)","ispublic":1,"isfriend":0,"isfamily":0},{"id":"51078646191","owner":"127542576@N05","secret":"afacb101f3","server":"65535","farm":66,"title":"\u9ec3\u5589\u9d50 (Emberiza elegans#Yellow-throated Bunting)","ispublic":1,"isfriend":0,"isfamily":0},{"id":"51078745522","owner":"127542576@N05","secret":"bedcf53bf9","server":"65535","farm":66,"title":"\u9ec3\u5589\u9d50 (Emberiza elegans#Yellow-throated Bunting)","ispublic":1,"isfriend":0,"isfamily":0},{"id":"50820056103","owner":"26492028@N08","secret":"5725a14ca6","server":"65535","farm":66,"title":"Emberiza elegans","ispublic":1,"isfriend":0,"isfamily":0},{"id":"50819692213","owner":"78842503@N05","secret":"18e36fb60d","server":"65535","farm":66,"title":"Emberiza elegans","ispublic":1,"isfriend":0,"isfamily":0},{"id":"50817245476","owner":"127247666@N05","secret":"9bd328eeed","server":"65535","farm":66,"title":"Bigleaf hydrangea and yellow-throated bunting","ispublic":1,"isfriend":0,"isfamily":0},{"id":"49697096602","owner":"9851294@N07","secret":"1dab37289a","server":"65535","farm":66,"title":"Yellow-throated Bunting","ispublic":1,"isfriend":0,"isfamily":0},{"id":"49491280011","owner":"36611483@N03","secret":"43f1618050","server":"65535","farm":66,"title":"Elegant Bunting","ispublic":1,"isfriend":0,"isfamily":0},{"id":"49397718248","owner":"186211059@N06","secret":"3c8749bee8","server":"65535","farm":66,"title":"Yellow-throated Bunting","ispublic":1,"isfriend":0,"isfamily":0},{"id":"48884231432","owner":"9487855@N05","secret":"bc808712ba","server":"65535","farm":66,"title":"20190410-_SNG9146","ispublic":1,"isfriend":0,"isfamily":0},{"id":"48706278781","owner":"52799999@N06","secret":"99a89e6d82","server":"65535","farm":66,"title":"Yellow-throated Bunting (Emberiza elegans)","ispublic":1,"isfriend":0,"isfamily":0},{"id":"47003573844","owner":"142083658@N05","secret":"6a20bbb1d4","server":"65535","farm":66,"title":"Yellow-throated Bunting, Emberiza elegans, \u041e\u0432\u0441\u044f\u043d\u043a\u0430 \u0436\u0435\u043b\u0442\u043e\u0433\u043e\u0440\u043b\u0430\u044f","ispublic":1,"isfriend":0,"isfamily":0},{"id":"32849225037","owner":"142083658@N05","secret":"3a11a8db0f","server":"65535","farm":66,"title":"Yellow-throated Bunting, Emberiza elegans, \u041e\u0432\u0441\u044f\u043d\u043a\u0430 \u0436\u0435\u043b\u0442\u043e\u0433\u043e\u0440\u043b\u0430\u044f","ispublic":1,"isfriend":0,"isfamily":0},{"id":"46868413795","owner":"142083658@N05","secret":"0bddf51ecc","server":"65535","farm":66,"title":"Yellow-throated Bunting, Emberiza elegans, \u041e\u0432\u0441\u044f\u043d\u043a\u0430 \u0436\u0435\u043b\u0442\u043e\u0433\u043e\u0440\u043b\u0430\u044f","ispublic":1,"isfriend":0,"isfamily":0},{"id":"45859169465","owner":"14513067@N00","secret":"bfcf2467bf","server":"7885","farm":8,"title":"Yellow-throated Bunting","ispublic":1,"isfriend":0,"isfamily":0},{"id":"46040455931","owner":"9851294@N07","secret":"50e5d08344","server":"4853","farm":5,"title":"Yellow-throated Bunting","ispublic":1,"isfriend":0,"isfamily":0},{"id":"28524911338","owner":"128916054@N05","secret":"36f81b72c5","server":"1740","farm":2,"title":"Emberiza elegans","ispublic":1,"isfriend":0,"isfamily":0},{"id":"28524911258","owner":"128916054@N05","secret":"33323464dd","server":"1753","farm":2,"title":"Emberiza elegans","ispublic":1,"isfriend":0,"isfamily":0},{"id":"28275218608","owner":"127542576@N05","secret":"73e9b3fe88","server":"967","farm":1,"title":"\u9ec3\u5589\u9d50 (Emberiza elegans#Yellow-throated Bunting)","ispublic":1,"isfriend":0,"isfamily":0},{"id":"40340839820","owner":"127542576@N05","secret":"a5e202258d","server":"911","farm":1,"title":"\u9ec3\u5589\u9d50 (Emberiza elegans#Yellow-throated Bunting)","ispublic":1,"isfriend":0,"isfamily":0},{"id":"26456190198","owner":"112478164@N02","secret":"910005fe15","server":"4712","farm":5,"title":"\ub178\ub791\ud131\uba67\uc0c8 Yellow-throated Bunting [Emberiza elegans]","ispublic":1,"isfriend":0,"isfamily":0},{"id":"27996070299","owner":"9851294@N07","secret":"ce662291ed","server":"4655","farm":5,"title":"Yellow-throated Bunting","ispublic":1,"isfriend":0,"isfamily":0},{"id":"25734163878","owner":"96060626@N03","secret":"5a3806d95f","server":"4672","farm":5,"title":"20171228 (7)","ispublic":1,"isfriend":0,"isfamily":0},{"id":"27827654719","owner":"96060626@N03","secret":"7b7cb284ce","server":"4652","farm":5,"title":"20171228 (5)","ispublic":1,"isfriend":0,"isfamily":0},{"id":"38651388691","owner":"93091390@N00","secret":"e09f1c925d","server":"4524","farm":5,"title":"\u9ec3\u5589\u9d50(\u2640)Emberiza elegans","ispublic":1,"isfriend":0,"isfamily":0},{"id":"37913413584","owner":"7960724@N06","secret":"1d73ce8c9a","server":"4573","farm":5,"title":"1019","ispublic":1,"isfriend":0,"isfamily":0},{"id":"26696422329","owner":"77286520@N05","secret":"40dfcb9be2","server":"4542","farm":5,"title":"\u9ec3\u5589\u9d50  \"Emberiza elegans\"  \"Yellow-throated elegans\"","ispublic":1,"isfriend":0,"isfamily":0},{"id":"26696422369","owner":"77286520@N05","secret":"faf077d424","server":"4538","farm":5,"title":"\u9ec3\u5589\u9d50  \"Emberiza elegans\"  \"Yellow-throated elegans\"","ispublic":1,"isfriend":0,"isfamily":0},{"id":"24458179718","owner":"96060626@N03","secret":"e16c035785","server":"4578","farm":5,"title":"20171110 (16)","ispublic":1,"isfriend":0,"isfamily":0},{"id":"24458168328","owner":"96060626@N03","secret":"5dede15d9b","server":"4585","farm":5,"title":"20171110 (5)","ispublic":1,"isfriend":0,"isfamily":0},{"id":"24458163798","owner":"96060626@N03","secret":"11eece52f0","server":"4579","farm":5,"title":"20171109 (22)","ispublic":1,"isfriend":0,"isfamily":0},{"id":"24458158458","owner":"96060626@N03","secret":"07b8056595","server":"4525","farm":5,"title":"20171109 (32)","ispublic":1,"isfriend":0,"isfamily":0},{"id":"38328938911","owner":"96060626@N03","secret":"9d1205a370","server":"4556","farm":5,"title":"20171109 (28)","ispublic":1,"isfriend":0,"isfamily":0},{"id":"52618609649","owner":"90764954@N07","secret":"f32fa874c0","server":"65535","farm":66,"title":"Yellow-throated bunting or elegant bunting (Emberiza elegans) \u9ec4\u5589\u9e40","ispublic":1,"isfriend":0,"isfamily":0},{"id":"52395710992","owner":"183840266@N08","secret":"d0b634cd47","server":"65535","farm":66,"title":"Elegant Bunting (Emberiza elegans elegans)","ispublic":1,"isfriend":0,"isfamily":0},{"id":"52396514869","owner":"183840266@N08","secret":"f033c720bb","server":"65535","farm":66,"title":"Elegant Bunting (Emberiza elegans elegans)","ispublic":1,"isfriend":0,"isfamily":0},{"id":"52396216501","owner":"183840266@N08","secret":"ba27ea1279","server":"65535","farm":66,"title":"Elegant Bunting (Emberiza elegans elegans)","ispublic":1,"isfriend":0,"isfamily":0},{"id":"52396216416","owner":"183840266@N08","secret":"890b4e681a","server":"65535","farm":66,"title":"Elegant Bunting (Emberiza elegans elegans)","ispublic":1,"isfriend":0,"isfamily":0},{"id":"52396718213","owner":"183840266@N08","secret":"977d5341c5","server":"65535","farm":66,"title":"Elegant Bunting (Emberiza elegans elegans)","ispublic":1,"isfriend":0,"isfamily":0},{"id":"52261662252","owner":"127247666@N05","secret":"838b0f6202","server":"65535","farm":66,"title":"Yellow-throated bunting","ispublic":1,"isfriend":0,"isfamily":0},{"id":"52233898765","owner":"127247666@N05","secret":"6337a9673a","server":"65535","farm":66,"title":"Yellow-throated bunting","ispublic":1,"isfriend":0,"isfamily":0},{"id":"51921882187","owner":"72260887@N02","secret":"8286285f16","server":"65535","farm":66,"title":"Emberiza elegans","ispublic":1,"isfriend":0,"isfamily":0},{"id":"51128846326","owner":"16863429@N00","secret":"b12a570c76","server":"65535","farm":66,"title":"Yellow-throated Bunting (\u9ec3\u5589\u9d50) Emberiza elegans","ispublic":1,"isfriend":0,"isfamily":0},{"id":"51128843596","owner":"16863429@N00","secret":"d5b7fa147c","server":"65535","farm":66,"title":"Yellow-throated Bunting (\u9ec3\u5589\u9d50) Emberiza elegans","ispublic":1,"isfriend":0,"isfamily":0},{"id":"51081665882","owner":"127542576@N05","secret":"7768c45a25","server":"65535","farm":66,"title":"\u9ec3\u5589\u9d50 (Emberiza elegans#Yellow-throated Bunting)","ispublic":1,"isfriend":0,"isfamily":0},{"id":"51077949263","owner":"127542576@N05","secret":"c3ea5481bf","server":"65535","farm":66,"title":"\u9ec3\u5589\u9d50 (Emberiza elegans#Yellow-throated Bunting)","ispublic":1,"isfriend":0,"isfamily":0},{"id":"51077949213","owner":"127542576@N05","secret":"96f0a9e582","server":"65535","farm":66,"title":"\u9ec3\u5589\u9d50 (Emberiza elegans#Yellow-throated Bunting)","ispublic":1,"isfriend":0,"isfamily":0},{"id":"50729480867","owner":"9851294@N07","secret":"3a63ccc907","server":"65535","farm":66,"title":"in the thick of it","ispublic":1,"isfriend":0,"isfamily":0},{"id":"50639465236","owner":"190773540@N03","secret":"a0210ab684","server":"65535","farm":66,"title":"Yellow-throated Bunting","ispublic":1,"isfriend":0,"isfamily":0},{"id":"49763052806","owner":"134564983@N03","secret":"36e68d669f","server":"65535","farm":66,"title":"\u9ec3\u5589\u9d50 Emberiza elegans","ispublic":1,"isfriend":0,"isfamily":0},{"id":"49315456298","owner":"127247666@N05","secret":"3cd1427de5","server":"65535","farm":66,"title":"Great tit, yellow-throated bunting, unnamed bird, bull-headed shrike, Eurasian hoopoe, unknown bird, Eurasian jay and waxwing","ispublic":1,"isfriend":0,"isfamily":0},{"id":"49094838956","owner":"9851294@N07","secret":"8982f93ef8","server":"65535","farm":66,"title":"\"I'm not sure which is my good side\"","ispublic":1,"isfriend":0,"isfamily":0},{"id":"48795193457","owner":"52799999@N06","secret":"3a71a37ced","server":"65535","farm":66,"title":"Yellow-throated Bunting (Emberiza elegans)","ispublic":1,"isfriend":0,"isfamily":0},{"id":"48705946733","owner":"52799999@N06","secret":"4db52958d4","server":"65535","farm":66,"title":"Yellow-throated Bunting (Emberiza elegans)","ispublic":1,"isfriend":0,"isfamily":0},{"id":"48117921026","owner":"142083658@N05","secret":"64ac03cc9a","server":"65535","farm":66,"title":"Yellow-throated Bunting, Emberiza elegans, \u041e\u0432\u0441\u044f\u043d\u043a\u0430 \u0436\u0435\u043b\u0442\u043e\u0433\u043e\u0440\u043b\u0430\u044f","ispublic":1,"isfriend":0,"isfamily":0},{"id":"32849224107","owner":"142083658@N05","secret":"e4228911ca","server":"65535","farm":66,"title":"Yellow-throated Bunting, Emberiza elegans, \u041e\u0432\u0441\u044f\u043d\u043a\u0430 \u0436\u0435\u043b\u0442\u043e\u0433\u043e\u0440\u043b\u0430\u044f","ispublic":1,"isfriend":0,"isfamily":0},{"id":"32849223357","owner":"142083658@N05","secret":"8fde3d4cfd","server":"65535","farm":66,"title":"Yellow-throated Bunting, Emberiza elegans, \u041e\u0432\u0441\u044f\u043d\u043a\u0430 \u0436\u0435\u043b\u0442\u043e\u0433\u043e\u0440\u043b\u0430\u044f","ispublic":1,"isfriend":0,"isfamily":0},{"id":"47003443704","owner":"142083658@N05","secret":"f0a70298e9","server":"65535","farm":66,"title":"Yellow-throated Bunting, Emberiza elegans, \u041e\u0432\u0441\u044f\u043d\u043a\u0430 \u0436\u0435\u043b\u0442\u043e\u0433\u043e\u0440\u043b\u0430\u044f","ispublic":1,"isfriend":0,"isfamily":0},{"id":"47732748142","owner":"142083658@N05","secret":"3360a026af","server":"65535","farm":66,"title":"Yellow-throated Bunting, Emberiza elegans, \u041e\u0432\u0441\u044f\u043d\u043a\u0430 \u0436\u0435\u043b\u0442\u043e\u0433\u043e\u0440\u043b\u0430\u044f","ispublic":1,"isfriend":0,"isfamily":0},{"id":"47732744732","owner":"142083658@N05","secret":"0278deefb3","server":"65535","farm":66,"title":"Yellow-throated Bunting, Emberiza elegans, \u041e\u0432\u0441\u044f\u043d\u043a\u0430 \u0436\u0435\u043b\u0442\u043e\u0433\u043e\u0440\u043b\u0430\u044f","ispublic":1,"isfriend":0,"isfamily":0},{"id":"40818645523","owner":"142083658@N05","secret":"9d4aa43494","server":"65535","farm":66,"title":"Yellow-throated Bunting, Emberiza elegans, \u041e\u0432\u0441\u044f\u043d\u043a\u0430 \u0436\u0435\u043b\u0442\u043e\u0433\u043e\u0440\u043b\u0430\u044f","ispublic":1,"isfriend":0,"isfamily":0},{"id":"47784812381","owner":"142083658@N05","secret":"6d2f6e7444","server":"65535","farm":66,"title":"Yellow-throated Bunting, Emberiza elegans, \u041e\u0432\u0441\u044f\u043d\u043a\u0430 \u0436\u0435\u043b\u0442\u043e\u0433\u043e\u0440\u043b\u0430\u044f","ispublic":1,"isfriend":0,"isfamily":0},{"id":"47662068592","owner":"67102216@N00","secret":"3e1059edce","server":"65535","farm":66,"title":"JTH_3769_Emberiza_elegans","ispublic":1,"isfriend":0,"isfamily":0},{"id":"47662067932","owner":"67102216@N00","secret":"a3118fb911","server":"65535","farm":66,"title":"JTH_3761_Emberiza_elegans","ispublic":1,"isfriend":0,"isfamily":0},{"id":"46734194245","owner":"67102216@N00","secret":"a6fe879379","server":"65535","farm":66,"title":"JTH_3717_Emberiza_elegans","ispublic":1,"isfriend":0,"isfamily":0},{"id":"40683266143","owner":"67102216@N00","secret":"585b99ff4c","server":"65535","farm":66,"title":"JTH_3718_Emberiza_elegans","ispublic":1,"isfriend":0,"isfamily":0},{"id":"46866092442","owner":"21606110@N08","secret":"0a4a714869","server":"7849","farm":8,"title":"Elegant Bunting","ispublic":1,"isfriend":0,"isfamily":0},{"id":"42825815364","owner":"140014174@N07","secret":"7ee470ebb8","server":"917","farm":1,"title":"Yellow-throated bunting (Emberiza elegans)","ispublic":1,"isfriend":0,"isfamily":0},{"id":"41735110740","owner":"140014174@N07","secret":"66ea4d71a9","server":"921","farm":1,"title":"Yellow-throated bunting (Emberiza elegans)","ispublic":1,"isfriend":0,"isfamily":0},{"id":"41735110610","owner":"140014174@N07","secret":"b4f83ccc02","server":"1806","farm":2,"title":"Yellow-throated bunting (Emberiza elegans)","ispublic":1,"isfriend":0,"isfamily":0},{"id":"42638219155","owner":"140014174@N07","secret":"8fcf73bbc5","server":"1806","farm":2,"title":"Yellow-throated bunting (Emberiza elegans)","ispublic":1,"isfriend":0,"isfamily":0},{"id":"25754113147","owner":"161510587@N06","secret":"9262e16048","server":"4609","farm":5,"title":"P1250005 (3)","ispublic":1,"isfriend":0,"isfamily":0},{"id":"40280011641","owner":"30890130@N06","secret":"44eb64847d","server":"4627","farm":5,"title":"Emberiza elegans","ispublic":1,"isfriend":0,"isfamily":0},{"id":"25734166938","owner":"96060626@N03","secret":"0ecd80b39e","server":"4718","farm":5,"title":"20171228 (15)","ispublic":1,"isfriend":0,"isfamily":0},{"id":"27827655219","owner":"96060626@N03","secret":"024fc6b121","server":"4707","farm":5,"title":"20171228 (11)","ispublic":1,"isfriend":0,"isfamily":0},{"id":"39326699241","owner":"112478164@N02","secret":"1dfe3736dc","server":"4595","farm":5,"title":"\ub178\ub791\ud131\uba67\uc0c8 Yellow-throated Bunting [Emberiza elegans]","ispublic":1,"isfriend":0,"isfamily":0},{"id":"38297249922","owner":"96060626@N03","secret":"05089b2170","server":"4585","farm":5,"title":"20171110 (15)","ispublic":1,"isfriend":0,"isfamily":0},{"id":"38328944961","owner":"96060626@N03","secret":"2e9bb7a1fd","server":"4550","farm":5,"title":"20171110 (1)","ispublic":1,"isfriend":0,"isfamily":0}]},"stat":"ok"}