{"photos":{"page":1,"pages":166,"perpage":100,"total":16598,"photo":[{"id":"52792190582","owner":"12639178@N07","secret":"82457a7f35","server":"65535","farm":66,"title":"Goldammer (Emberiza citrinella)","ispublic":1,"isfriend":0,"isfamily":0},{"id":"52791044594","owner":"171333438@N08","secret":"1de64f7433","server":"65535","farm":66,"title":"Bruant jaune (Emberiza citrinella)","ispublic":1,"isfriend":0,"isfamily":0},{"id":"52791259058","owner":"171333438@N08","secret":"9fe7f2ebd9","server":"65535","farm":66,"title":"Bruant jaune (Emberiza citrinella)","ispublic":1,"isfriend":0,"isfamily":0},{"id":"52790390938","owner":"48558356@N04","secret":"8e96e27f7f","server":"65535","farm":66,"title":"Yellowhammer Emberiza citrinella","ispublic":1,"isfriend":0,"isfamily":0},{"id":"52790335405","owner":"48558356@N04","secret":"c5e5d551ea","server":"65535","farm":66,"title":"Yellowhammer Emberiza citrinella","ispublic":1,"isfriend":0,"isfamily":0},{"id":"52790131499","owner":"48558356@N04","secret":"bdc7e8c5c4","server":"65535","farm":66,"title":"male yellowhammer Emberiza citrinella","ispublic":1,"isfriend":0,"isfamily":0},{"id":"52790130809","owner":"48558356@N04","secret":"1bdea6f983","server":"65535","farm":66,"title":"male yellowhammer Emberiza citrinella","ispublic":1,"isfriend":0,"isfamily":0},{"id":"52790008124","owner":"12639178@N07","secret":"db9973e9a1","server":"65535","farm":66,"title":"Goldammer im PK","ispublic":1,"isfriend":0,"isfamily":0},{"id":"52790226153","owner":"12639178@N07","secret":"6baa025f4e","server":"65535","farm":66,"title":"Goldammer3","ispublic":1,"isfriend":0,"isfamily":0},{"id":"52790225943","owner":"12639178@N07","secret":"ec35138266","server":"65535","farm":66,"title":"Goldammer2","ispublic":1,"isfriend":0,"isfamily":0},{"id":"52790170455","owner":"12639178@N07","secret":"543e9b5793","server":"65535","farm":66,"title":"Goldammer1","ispublic":1,"isfriend":0,"isfamily":0},{"id":"52788348500","owner":"12639178@N07","secret":"e4afe6f0d3","server":"65535","farm":66,"title":"Goldammer (Emberiza citrinella) (1)","ispublic":1,"isfriend":0,"isfamily":0},{"id":"52786709772","owner":"27480477@N07","secret":"cc4c9290f9","server":"65535","farm":66,"title":"262A3042 Geelgors, Yellowhammer, Emberiza citrinella.","ispublic":1,"isfriend":0,"isfamily":0},{"id":"52785565912","owner":"12639178@N07","secret":"f1e1d715cd","server":"65535","farm":66,"title":"Goldammer","ispublic":1,"isfriend":0,"isfamily":0},{"id":"52786352569","owner":"12639178@N07","secret":"c8f5c10150","server":"65535","farm":66,"title":"ich mach mich ganz gro\u00df","ispublic":1,"isfriend":0,"isfamily":0},{"id":"52785533807","owner":"123174353@N02","secret":"82f00abdb6","server":"65535","farm":66,"title":"Emberiza citrinella \/ Yellowhammer \/ geelgors","ispublic":1,"isfriend":0,"isfamily":0},{"id":"52786387600","owner":"191962934@N02","secret":"8819c3f346","server":"65535","farm":66,"title":"Yellowhammer in Breeding Plumage - Goldammer im Prachtkleid","ispublic":1,"isfriend":0,"isfamily":0},{"id":"52786386743","owner":"198000077@N04","secret":"7e43a33bd1","server":"65535","farm":66,"title":"Yellowhammer\/ Emberiza citrinella","ispublic":1,"isfriend":0,"isfamily":0},{"id":"52785079777","owner":"12639178@N07","secret":"aeab1086f6","server":"65535","farm":66,"title":"Goldammer im Geb\u00fcsch","ispublic":1,"isfriend":0,"isfamily":0},{"id":"52785142861","owner":"64388527@N02","secret":"e896224f9a","server":"65535","farm":66,"title":"Goldammer (Emberiza citrinella) - Ruhend","ispublic":1,"isfriend":0,"isfamily":0},{"id":"52784559683","owner":"12639178@N07","secret":"dd7051f92f","server":"65535","farm":66,"title":"Goldammer","ispublic":1,"isfriend":0,"isfamily":0},{"id":"52784180519","owner":"12639178@N07","secret":"2442561cf0","server":"65535","farm":66,"title":"Goldammern","ispublic":1,"isfriend":0,"isfamily":0},{"id":"52782794169","owner":"12639178@N07","secret":"a5663a99c7","server":"65535","farm":66,"title":"Ruhendes Goldst\u00fcckchen  (Emberiza citrinella)","ispublic":1,"isfriend":0,"isfamily":0},{"id":"52781414045","owner":"185889755@N06","secret":"1751f8e016","server":"65535","farm":66,"title":"Yellowhammer (Emberiza citrinella)","ispublic":1,"isfriend":0,"isfamily":0},{"id":"52779885111","owner":"163316741@N07","secret":"c2e5834707","server":"65535","farm":66,"title":"Emberiza citrinella 16032023 (1)","ispublic":1,"isfriend":0,"isfamily":0},{"id":"52780333953","owner":"12639178@N07","secret":"e6c4fe9735","server":"65535","farm":66,"title":"Goldammer","ispublic":1,"isfriend":0,"isfamily":0},{"id":"52779860331","owner":"12639178@N07","secret":"511318db42","server":"65535","farm":66,"title":"Goldammer","ispublic":1,"isfriend":0,"isfamily":0},{"id":"52779156762","owner":"148158464@N08","secret":"fc3a99caf6","server":"65535","farm":66,"title":"22YOR573 Yellowhammer, above Stoupebrow Cottage Farm","ispublic":1,"isfriend":0,"isfamily":0},{"id":"52779006587","owner":"12639178@N07","secret":"2ecfb3048a","server":"65535","farm":66,"title":"Goldammer (Emberiza citrinella) (1)","ispublic":1,"isfriend":0,"isfamily":0},{"id":"52779390405","owner":"12639178@N07","secret":"fabd8e5766","server":"65535","farm":66,"title":"Goldammer (Emberiza citrinella)","ispublic":1,"isfriend":0,"isfamily":0},{"id":"52778389297","owner":"84166162@N00","secret":"26a0f0f595","server":"65535","farm":66,"title":"Singing in the rain","ispublic":1,"isfriend":0,"isfamily":0},{"id":"52778121952","owner":"12639178@N07","secret":"a4e23b684f","server":"65535","farm":66,"title":"Goldammer (Emberiza citrinella) (1)","ispublic":1,"isfriend":0,"isfamily":0},{"id":"52778512786","owner":"128329347@N04","secret":"ac1c94b882","server":"65535","farm":66,"title":"Emberiza citrinella - Yellowhammer","ispublic":1,"isfriend":0,"isfamily":0},{"id":"52777959334","owner":"12639178@N07","secret":"343296ace6","server":"65535","farm":66,"title":"Goldammer (Emberiza citrinella) (2)","ispublic":1,"isfriend":0,"isfamily":0},{"id":"52776362974","owner":"12639178@N07","secret":"6204d6d6bb","server":"65535","farm":66,"title":"Goldst\u00fcckchen frontal - (Emberiza citrinella)","ispublic":1,"isfriend":0,"isfamily":0},{"id":"52775165251","owner":"136420653@N03","secret":"c5263e719d","server":"65535","farm":66,"title":"Goldammer (Yellowhammer)","ispublic":1,"isfriend":0,"isfamily":0},{"id":"52772338462","owner":"12639178@N07","secret":"0c99ec5b80","server":"65535","farm":66,"title":"Goldammer und Kernbei\u00dfer","ispublic":1,"isfriend":0,"isfamily":0},{"id":"52773285415","owner":"12639178@N07","secret":"c521173076","server":"65535","farm":66,"title":"Goldammer","ispublic":1,"isfriend":0,"isfamily":0},{"id":"52772683179","owner":"12639178@N07","secret":"e494fde334","server":"65535","farm":66,"title":"Goldammer","ispublic":1,"isfriend":0,"isfamily":0},{"id":"52772682899","owner":"12639178@N07","secret":"dfb23c6fb9","server":"65535","farm":66,"title":"Goldammer","ispublic":1,"isfriend":0,"isfamily":0},{"id":"52770647764","owner":"12639178@N07","secret":"6cf73be76e","server":"65535","farm":66,"title":"Ziemlich entspannt","ispublic":1,"isfriend":0,"isfamily":0},{"id":"52769856237","owner":"12639178@N07","secret":"bbe2de0654","server":"65535","farm":66,"title":"Sie ruht in der w\u00e4rmenden Sonne","ispublic":1,"isfriend":0,"isfamily":0},{"id":"52769673277","owner":"72484280@N08","secret":"8e3b3c7248","server":"65535","farm":66,"title":"Yellowhammer","ispublic":1,"isfriend":0,"isfamily":0},{"id":"52769254544","owner":"48558356@N04","secret":"8a71203297","server":"65535","farm":66,"title":"Yellowhammer Emberiza citrinella","ispublic":1,"isfriend":0,"isfamily":0},{"id":"52768687919","owner":"12639178@N07","secret":"63a71366b1","server":"65535","farm":66,"title":"Goldammer im Unterholz","ispublic":1,"isfriend":0,"isfamily":0},{"id":"52765448786","owner":"12639178@N07","secret":"aa6244a489","server":"65535","farm":66,"title":"Ein ungleiches Paar bei der Nahrungssuche","ispublic":1,"isfriend":0,"isfamily":0},{"id":"52765700889","owner":"12639178@N07","secret":"b524fca1fa","server":"65535","farm":66,"title":"Ein ungleiches Paar macht gemeinsame Sache: Goldi und Bufi-M\u00e4dchen inspizie","ispublic":1,"isfriend":0,"isfamily":0},{"id":"52764234732","owner":"96895609@N02","secret":"9ab29d011e","server":"65535","farm":66,"title":"'tite pause","ispublic":1,"isfriend":0,"isfamily":0},{"id":"52765182765","owner":"96895609@N02","secret":"2360ae9be6","server":"65535","farm":66,"title":"A tue-t\u00eate","ispublic":1,"isfriend":0,"isfamily":0},{"id":"52765048653","owner":"12639178@N07","secret":"7b0f742f42","server":"65535","farm":66,"title":"Goldammer (Emberiza citrinella) (1)","ispublic":1,"isfriend":0,"isfamily":0},{"id":"52764862535","owner":"194653030@N04","secret":"7b22cae4a3","server":"65535","farm":66,"title":"\u041e\u0431\u044b\u043a\u043d\u043e\u0432\u0435\u043d\u043d\u0430\u044f \u043e\u0432\u0441\u044f\u043d\u043a\u0430\/Emberiza citrinella\/\u041e\u0431\u044b\u043a\u043d\u043e\u0432\u0435\u043d\u043d\u0430\u044f \u043e\u0432\u0441\u044f\u043d\u043a\u0430\/Emberiza citrinella\/bunting, yellowhammer","ispublic":1,"isfriend":0,"isfamily":0},{"id":"52764942533","owner":"194653030@N04","secret":"24988b2de1","server":"65535","farm":66,"title":"\u041e\u0431\u044b\u043a\u043d\u043e\u0432\u0435\u043d\u043d\u0430\u044f \u043e\u0432\u0441\u044f\u043d\u043a\u0430\/Emberiza citrinella\/bunting, yellowhammer","ispublic":1,"isfriend":0,"isfamily":0},{"id":"52763536317","owner":"12639178@N07","secret":"8b5aa4cf55","server":"65535","farm":66,"title":"Goldammer","ispublic":1,"isfriend":0,"isfamily":0},{"id":"52763323432","owner":"149045384@N07","secret":"77db60349f","server":"65535","farm":66,"title":"Yellowhammer _6129","ispublic":1,"isfriend":0,"isfamily":0},{"id":"52763940984","owner":"12639178@N07","secret":"fcdbbe9606","server":"65535","farm":66,"title":"Goldammer am Futterplatz des Nachbarn","ispublic":1,"isfriend":0,"isfamily":0},{"id":"52763364903","owner":"96895609@N02","secret":"65fd2004c9","server":"65535","farm":66,"title":"Bruant jaune","ispublic":1,"isfriend":0,"isfamily":0},{"id":"52762992584","owner":"12639178@N07","secret":"d4690e0245","server":"65535","farm":66,"title":"Goldammer (Emberiza citrinella) (2)","ispublic":1,"isfriend":0,"isfamily":0},{"id":"52762245546","owner":"12639178@N07","secret":"24324aaedb","server":"65535","farm":66,"title":"Goldammer sucht auf einer Kuhweide nach Futter","ispublic":1,"isfriend":0,"isfamily":0},{"id":"52761656987","owner":"12639178@N07","secret":"462bff0342","server":"65535","farm":66,"title":"Goldammer (weiblich)","ispublic":1,"isfriend":0,"isfamily":0},{"id":"52762448779","owner":"12639178@N07","secret":"90d8f2eecb","server":"65535","farm":66,"title":"Goldammer (m\u00e4nnlich) im Helfenberger Grund","ispublic":1,"isfriend":0,"isfamily":0},{"id":"52761621967","owner":"12639178@N07","secret":"5358775535","server":"65535","farm":66,"title":"Goldammer (weiblich) in Dresden-Pappritz","ispublic":1,"isfriend":0,"isfamily":0},{"id":"52762165091","owner":"12639178@N07","secret":"8a395e2bf7","server":"65535","farm":66,"title":"Goldammer (m\u00e4nnlich)","ispublic":1,"isfriend":0,"isfamily":0},{"id":"52762128474","owner":"12639178@N07","secret":"2398a933fc","server":"65535","farm":66,"title":"Goldammer (Emberiza citrinella) (2)","ispublic":1,"isfriend":0,"isfamily":0},{"id":"52762366768","owner":"12639178@N07","secret":"7be22eb0eb","server":"65535","farm":66,"title":"Goldammer (Emberiza citrinella) (1)","ispublic":1,"isfriend":0,"isfamily":0},{"id":"52761871953","owner":"190625994@N06","secret":"6aea487642","server":"65535","farm":66,"title":"Bruant jaune.Emberiza citrinella.","ispublic":1,"isfriend":0,"isfamily":0},{"id":"52761524809","owner":"16850442@N06","secret":"e85634ee5d","server":"65535","farm":66,"title":"Yellowhammer","ispublic":1,"isfriend":0,"isfamily":0},{"id":"52761427974","owner":"12639178@N07","secret":"6da706ffa6","server":"65535","farm":66,"title":"Ruhende Goldammer (Emberiza citrinella)","ispublic":1,"isfriend":0,"isfamily":0},{"id":"52760821088","owner":"35539131@N07","secret":"82638ea23f","server":"65535","farm":66,"title":"Yellowhammer (Emberiza citrinella)","ispublic":1,"isfriend":0,"isfamily":0},{"id":"52760469105","owner":"12639178@N07","secret":"5446486dc2","server":"65535","farm":66,"title":"Goldammer (Emberiza citrinella)","ispublic":1,"isfriend":0,"isfamily":0},{"id":"52760549368","owner":"12639178@N07","secret":"9841c3e007","server":"65535","farm":66,"title":"Goldammer (Emberiza citrinella)","ispublic":1,"isfriend":0,"isfamily":0},{"id":"52759753356","owner":"12639178@N07","secret":"5454142318","server":"65535","farm":66,"title":"Kleines St\u00e4ndchen gef\u00e4llig","ispublic":1,"isfriend":0,"isfamily":0},{"id":"52760159135","owner":"12639178@N07","secret":"c1dc508372","server":"65535","farm":66,"title":"Goldammer \u2642 im Feldgeh\u00f6lz","ispublic":1,"isfriend":0,"isfamily":0},{"id":"52759206737","owner":"12639178@N07","secret":"b535e5e513","server":"65535","farm":66,"title":"Goldammer r\u00e4umt das Feld","ispublic":1,"isfriend":0,"isfamily":0},{"id":"52759997744","owner":"12639178@N07","secret":"d41d30d25a","server":"65535","farm":66,"title":"Futterstreit! Und wer gibt hier nach?","ispublic":1,"isfriend":0,"isfamily":0},{"id":"52759036311","owner":"12639178@N07","secret":"32db9f74e9","server":"65535","farm":66,"title":"Goldammer - m\u00e4nnlich","ispublic":1,"isfriend":0,"isfamily":0},{"id":"52759312000","owner":"12639178@N07","secret":"fb7a9559cd","server":"65535","farm":66,"title":"Goldammer (Emberiza citrinella)","ispublic":1,"isfriend":0,"isfamily":0},{"id":"52758571370","owner":"12639178@N07","secret":"bb690fd8c0","server":"65535","farm":66,"title":"Goldammern","ispublic":1,"isfriend":0,"isfamily":0},{"id":"52757482844","owner":"12639178@N07","secret":"2495bf114f","server":"65535","farm":66,"title":"Goldammer - Beleg","ispublic":1,"isfriend":0,"isfamily":0},{"id":"52757348129","owner":"12639178@N07","secret":"aa1f337d2f","server":"65535","farm":66,"title":"Goldammer,weibchen","ispublic":1,"isfriend":0,"isfamily":0},{"id":"52786082328","owner":"12639178@N07","secret":"45c7414475","server":"65535","farm":66,"title":"Auf Nahrungssuche","ispublic":1,"isfriend":0,"isfamily":0},{"id":"52780677478","owner":"12639178@N07","secret":"ba699c882f","server":"65535","farm":66,"title":"Goldammer","ispublic":1,"isfriend":0,"isfamily":0},{"id":"52779697800","owner":"12639178@N07","secret":"aaf7d04c90","server":"65535","farm":66,"title":"Goldig...","ispublic":1,"isfriend":0,"isfamily":0},{"id":"52778461022","owner":"12639178@N07","secret":"d4cfe9f32c","server":"65535","farm":66,"title":"Goldammer (Emberiza citrinella)","ispublic":1,"isfriend":0,"isfamily":0},{"id":"52779425528","owner":"12639178@N07","secret":"a3ed8475c3","server":"65535","farm":66,"title":"Goldammer (Emberiza citrinella)","ispublic":1,"isfriend":0,"isfamily":0},{"id":"52777959644","owner":"12639178@N07","secret":"3266fe8208","server":"65535","farm":66,"title":"Goldammer (Emberiza citrinella) (3)","ispublic":1,"isfriend":0,"isfamily":0},{"id":"52777175487","owner":"12639178@N07","secret":"d4533f4b95","server":"65535","farm":66,"title":"Goldammer (Emberiza citrinella) (1)","ispublic":1,"isfriend":0,"isfamily":0},{"id":"52777656156","owner":"12639178@N07","secret":"cc96866627","server":"65535","farm":66,"title":"Goldammer II","ispublic":1,"isfriend":0,"isfamily":0},{"id":"52778071345","owner":"12639178@N07","secret":"1744d48321","server":"65535","farm":66,"title":"Goldammer I","ispublic":1,"isfriend":0,"isfamily":0},{"id":"52769254479","owner":"48558356@N04","secret":"4d706d2a03","server":"65535","farm":66,"title":"Yellowhammer Emberiza citrinella","ispublic":1,"isfriend":0,"isfamily":0},{"id":"52768461062","owner":"48558356@N04","secret":"4b7070f3a2","server":"65535","farm":66,"title":"Yellowhammer Emberiza citrinella","ispublic":1,"isfriend":0,"isfamily":0},{"id":"52768999221","owner":"48558356@N04","secret":"9d27c31fcf","server":"65535","farm":66,"title":"Yellowhammer Emberiza citrinella","ispublic":1,"isfriend":0,"isfamily":0},{"id":"52767089714","owner":"12639178@N07","secret":"505685ae4f","server":"65535","farm":66,"title":"Goldammer (Emberiza citrinella) (1)","ispublic":1,"isfriend":0,"isfamily":0},{"id":"52763938052","owner":"12639178@N07","secret":"bed5456a65","server":"65535","farm":66,"title":"Goldammer (P01)","ispublic":1,"isfriend":0,"isfamily":0},{"id":"52762199727","owner":"12639178@N07","secret":"6aecc6c378","server":"65535","farm":66,"title":"Goldammer (Emberiza citrinella) (3)","ispublic":1,"isfriend":0,"isfamily":0},{"id":"52762199402","owner":"12639178@N07","secret":"cf1b1a495a","server":"65535","farm":66,"title":"Goldammer singt hoch im Baum","ispublic":1,"isfriend":0,"isfamily":0},{"id":"52760311954","owner":"12639178@N07","secret":"116ea70c34","server":"65535","farm":66,"title":"Goldammer (Emberiza citrinella)","ispublic":1,"isfriend":0,"isfamily":0},{"id":"52759521642","owner":"12639178@N07","secret":"e4df8472c0","server":"65535","farm":66,"title":"Goldammer (Emberiza citrinella)","ispublic":1,"isfriend":0,"isfamily":0},{"id":"52757626082","owner":"12639178@N07","secret":"8b6058a7dc","server":"65535","farm":66,"title":"Goldammer","ispublic":1,"isfriend":0,"isfamily":0},{"id":"52758566665","owner":"12639178@N07","secret":"aac35a5a73","server":"65535","farm":66,"title":"Goldammer (Emberiza citrinella) (1)","ispublic":1,"isfriend":0,"isfamily":0},{"id":"52757460471","owner":"12639178@N07","secret":"17e19343b1","server":"65535","farm":66,"title":"Goldammer, m\u00e4nnchen,sitzend","ispublic":1,"isfriend":0,"isfamily":0}]},"stat":"ok"}