{"photos":{"page":1,"pages":7,"perpage":100,"total":693,"photo":[{"id":"52644701196","owner":"8013969@N03","secret":"dfd39b786c","server":"65535","farm":66,"title":"Empidonax flaviventris DFL lanc22-1","ispublic":1,"isfriend":0,"isfamily":0},{"id":"52645138410","owner":"8013969@N03","secret":"78b6a8a63a","server":"65535","farm":66,"title":"Empidonax flaviventris DFL lanc22-2","ispublic":1,"isfriend":0,"isfamily":0},{"id":"52644700201","owner":"8013969@N03","secret":"e823c90d42","server":"65535","farm":66,"title":"Empidonax flaviventris DFL lanc22-3","ispublic":1,"isfriend":0,"isfamily":0},{"id":"52645137140","owner":"8013969@N03","secret":"b3c996bacb","server":"65535","farm":66,"title":"Empidonax flaviventris DFL lanc22-4","ispublic":1,"isfriend":0,"isfamily":0},{"id":"52644699101","owner":"8013969@N03","secret":"283cbd0db8","server":"65535","farm":66,"title":"Empidonax flaviventris DFL lanc22-5","ispublic":1,"isfriend":0,"isfamily":0},{"id":"52645170788","owner":"8013969@N03","secret":"7fcaa00709","server":"65535","farm":66,"title":"Empidonax flaviventris DFL lanc22-6","ispublic":1,"isfriend":0,"isfamily":0},{"id":"52644188972","owner":"8013969@N03","secret":"81f4c2bdd5","server":"65535","farm":66,"title":"Empidonax flaviventris DFL lanc22-7","ispublic":1,"isfriend":0,"isfamily":0},{"id":"52645134015","owner":"8013969@N03","secret":"56bdafc422","server":"65535","farm":66,"title":"Empidonax flaviventris DFL lanc22-9","ispublic":1,"isfriend":0,"isfamily":0},{"id":"52644186707","owner":"8013969@N03","secret":"190e3967ac","server":"65535","farm":66,"title":"Empidonax flaviventris DFL lanc22-10","ispublic":1,"isfriend":0,"isfamily":0},{"id":"52579762877","owner":"153973412@N04","secret":"c6d0665163","server":"65535","farm":66,"title":"Yellow-bellied Flycatcher-Empidonax flaviventris, Iowa City, IA","ispublic":1,"isfriend":0,"isfamily":0},{"id":"52565530864","owner":"107784905@N04","secret":"99309cb8ca","server":"65535","farm":66,"title":"Moucherolle \u00e0 ventre jaune - Rancho Naturalista\/Cartago\/Costa Rica_20211128_011-1","ispublic":1,"isfriend":0,"isfamily":0},{"id":"52482817079","owner":"28631427@N00","secret":"9ecf5a934a","server":"65535","farm":66,"title":"Yellow-bellied Flycatcher","ispublic":1,"isfriend":0,"isfamily":0},{"id":"52413346969","owner":"9638954@N07","secret":"137b71d39b","server":"65535","farm":66,"title":"Yellow-bellied Flycatcher","ispublic":1,"isfriend":0,"isfamily":0},{"id":"52413346954","owner":"9638954@N07","secret":"9a49d822b2","server":"65535","farm":66,"title":"Yellow-bellied Flycatcher","ispublic":1,"isfriend":0,"isfamily":0},{"id":"52412553312","owner":"9638954@N07","secret":"0184cdb29a","server":"65535","farm":66,"title":"Yellow-bellied Flycatcher","ispublic":1,"isfriend":0,"isfamily":0},{"id":"52412553282","owner":"9638954@N07","secret":"774b28481b","server":"65535","farm":66,"title":"Yellow-bellied Flycatcher","ispublic":1,"isfriend":0,"isfamily":0},{"id":"52413062451","owner":"9638954@N07","secret":"e5b718841e","server":"65535","farm":66,"title":"Yellow-bellied Flycatcher","ispublic":1,"isfriend":0,"isfamily":0},{"id":"52413346914","owner":"9638954@N07","secret":"b72d5511da","server":"65535","farm":66,"title":"Yellow-bellied Flycatcher","ispublic":1,"isfriend":0,"isfamily":0},{"id":"52413506495","owner":"9638954@N07","secret":"0fc85d610b","server":"65535","farm":66,"title":"Yellow-bellied Flycatcher","ispublic":1,"isfriend":0,"isfamily":0},{"id":"52413506490","owner":"9638954@N07","secret":"3b7e6a4b7c","server":"65535","farm":66,"title":"Yellow-bellied Flycatcher","ispublic":1,"isfriend":0,"isfamily":0},{"id":"52371690131","owner":"32599741@N03","secret":"14a2dae6c3","server":"65535","farm":66,"title":"2022 - Day 247:  looking for flies","ispublic":1,"isfriend":0,"isfamily":0},{"id":"52369499356","owner":"91620959@N08","secret":"f5f59baff2","server":"65535","farm":66,"title":"Yellow-bellied flycatcher (Empidonax flaviventris)","ispublic":1,"isfriend":0,"isfamily":0},{"id":"52364540681","owner":"13451078@N03","secret":"059a6e1627","server":"65535","farm":66,"title":"Yellow-bellied Flycatcher 3 (Empidonax flaviventris)","ispublic":1,"isfriend":0,"isfamily":0},{"id":"52350007075","owner":"65788177@N02","secret":"8a45fd5f28","server":"65535","farm":66,"title":"Yellow-bellied Flycatcher","ispublic":1,"isfriend":0,"isfamily":0},{"id":"52325654329","owner":"48014585@N00","secret":"6e6ec60662","server":"65535","farm":66,"title":"Yellow-bellied Flycatcher","ispublic":1,"isfriend":0,"isfamily":0},{"id":"52324347237","owner":"48014585@N00","secret":"af9967b8a0","server":"65535","farm":66,"title":"Yellow-bellied Flycatcher","ispublic":1,"isfriend":0,"isfamily":0},{"id":"52325665925","owner":"48014585@N00","secret":"2c62ecd56d","server":"65535","farm":66,"title":"Yellow-bellied Flycatcher","ispublic":1,"isfriend":0,"isfamily":0},{"id":"52325665845","owner":"48014585@N00","secret":"3e3c3b9013","server":"65535","farm":66,"title":"Yellow-bellied Flycatcher","ispublic":1,"isfriend":0,"isfamily":0},{"id":"52309010714","owner":"59770980@N02","secret":"2cda5f0b1c","server":"65535","farm":66,"title":"Gulgreipur-Yellow bellied Flycatcher-Empidonax flaviventris","ispublic":1,"isfriend":0,"isfamily":0},{"id":"52285194512","owner":"71418112@N00","secret":"8a59011603","server":"65535","farm":66,"title":"Yellow-bellied flycatcher","ispublic":1,"isfriend":0,"isfamily":0},{"id":"52218442532","owner":"27588142@N06","secret":"de4f20064f","server":"65535","farm":66,"title":"Yellow-bellied Flycatcher","ispublic":1,"isfriend":0,"isfamily":0},{"id":"52219447846","owner":"27588142@N06","secret":"de1e1d6944","server":"65535","farm":66,"title":"Yellow-bellied Flycatcher","ispublic":1,"isfriend":0,"isfamily":0},{"id":"52219715614","owner":"27588142@N06","secret":"e4889ae152","server":"65535","farm":66,"title":"Yellow-bellied Flycatcher","ispublic":1,"isfriend":0,"isfamily":0},{"id":"52218442372","owner":"27588142@N06","secret":"7a22499487","server":"65535","farm":66,"title":"Yellow-bellied Flycatcher","ispublic":1,"isfriend":0,"isfamily":0},{"id":"52219715499","owner":"27588142@N06","secret":"8e89fb8526","server":"65535","farm":66,"title":"Yellow-bellied Flycatcher","ispublic":1,"isfriend":0,"isfamily":0},{"id":"52218442282","owner":"27588142@N06","secret":"008c6aa1e5","server":"65535","farm":66,"title":"Yellow-bellied Flycatcher","ispublic":1,"isfriend":0,"isfamily":0},{"id":"52219715379","owner":"27588142@N06","secret":"1a4e575bf9","server":"65535","farm":66,"title":"Yellow-bellied Flycatcher","ispublic":1,"isfriend":0,"isfamily":0},{"id":"52219482184","owner":"27588142@N06","secret":"cb4d7fedfd","server":"65535","farm":66,"title":"Yellow-bellied Flycatcher","ispublic":1,"isfriend":0,"isfamily":0},{"id":"52219696965","owner":"27588142@N06","secret":"d8921a1be4","server":"65535","farm":66,"title":"Yellow-bellied Flycatcher","ispublic":1,"isfriend":0,"isfamily":0},{"id":"52219226523","owner":"27588142@N06","secret":"3e75a2990a","server":"65535","farm":66,"title":"Yellow-bellied Flycatcher","ispublic":1,"isfriend":0,"isfamily":0},{"id":"52219696830","owner":"27588142@N06","secret":"4c0f00e7f2","server":"65535","farm":66,"title":"Yellow-bellied Flycatcher","ispublic":1,"isfriend":0,"isfamily":0},{"id":"52219696780","owner":"27588142@N06","secret":"b24588563e","server":"65535","farm":66,"title":"Yellow-bellied Flycatcher","ispublic":1,"isfriend":0,"isfamily":0},{"id":"52219481894","owner":"27588142@N06","secret":"72ff1d3e5a","server":"65535","farm":66,"title":"Yellow-bellied Flycatcher","ispublic":1,"isfriend":0,"isfamily":0},{"id":"52219677910","owner":"27588142@N06","secret":"be4bc313fe","server":"65535","farm":66,"title":"Yellow-bellied Flycatcher","ispublic":1,"isfriend":0,"isfamily":0},{"id":"52219194021","owner":"27588142@N06","secret":"c98692e5c2","server":"65535","farm":66,"title":"Yellow-bellied Flycatcher","ispublic":1,"isfriend":0,"isfamily":0},{"id":"52219677790","owner":"27588142@N06","secret":"0339be383f","server":"65535","farm":66,"title":"Yellow-bellied Flycatcher","ispublic":1,"isfriend":0,"isfamily":0},{"id":"52218187742","owner":"27588142@N06","secret":"bc77a977f7","server":"65535","farm":66,"title":"Yellow-bellied Flycatcher","ispublic":1,"isfriend":0,"isfamily":0},{"id":"52219207248","owner":"27588142@N06","secret":"2367fb20f9","server":"65535","farm":66,"title":"Yellow-bellied Flycatcher","ispublic":1,"isfriend":0,"isfamily":0},{"id":"52219207203","owner":"27588142@N06","secret":"1048b018d5","server":"65535","farm":66,"title":"Yellow-bellied Flycatcher","ispublic":1,"isfriend":0,"isfamily":0},{"id":"52196905582","owner":"184155060@N04","secret":"5a64e93477","server":"65535","farm":66,"title":"16176 Moucherolle \u00e0 ventre jaune \/ Empidonax flaviventris \/ Yellow-bellied Flycatcher","ispublic":1,"isfriend":0,"isfamily":0},{"id":"52152814327","owner":"28499865@N07","secret":"5d12fb7cbc","server":"65535","farm":66,"title":"Yellow-bellied Flycatcher - Empidonax flaviventris","ispublic":1,"isfriend":0,"isfamily":0},{"id":"52150109265","owner":"86191812@N07","secret":"bb020fa894","server":"65535","farm":66,"title":"Yellow-bellied Flycatcher (Empidonax flaviventris)","ispublic":1,"isfriend":0,"isfamily":0},{"id":"52135219798","owner":"126805965@N03","secret":"e856c37719","server":"65535","farm":66,"title":"Yellow-bellied Flycatcher (Empidonax flaviventris) - St. John's, NFLD","ispublic":1,"isfriend":0,"isfamily":0},{"id":"52111559325","owner":"48014585@N00","secret":"b6b3c9872c","server":"65535","farm":66,"title":"Yellow-bellied Flycatcher","ispublic":1,"isfriend":0,"isfamily":0},{"id":"52111085168","owner":"48014585@N00","secret":"3b8d514b3b","server":"65535","farm":66,"title":"Yellow-bellied Flycatcher","ispublic":1,"isfriend":0,"isfamily":0},{"id":"52111034706","owner":"48014585@N00","secret":"fce8c44df0","server":"65535","farm":66,"title":"Yellow-bellied Flycatcher","ispublic":1,"isfriend":0,"isfamily":0},{"id":"52107062622","owner":"26371261@N00","secret":"ae70657245","server":"65535","farm":66,"title":"Yellow-bellied Flycatcher, Empidonax flaviventris","ispublic":1,"isfriend":0,"isfamily":0},{"id":"52108334069","owner":"26371261@N00","secret":"50edba7580","server":"65535","farm":66,"title":"Yellow-bellied Flycatcher, Empidonax flaviventris","ispublic":1,"isfriend":0,"isfamily":0},{"id":"52108084756","owner":"26371261@N00","secret":"652fd696f1","server":"65535","farm":66,"title":"Yellow-bellied Flycatcher, Empidonax flaviventris","ispublic":1,"isfriend":0,"isfamily":0},{"id":"52108334014","owner":"26371261@N00","secret":"76b25bfd28","server":"65535","farm":66,"title":"Yellow-bellied Flycatcher, Empidonax flaviventris. Orizaba, Veracruz, MX","ispublic":1,"isfriend":0,"isfamily":0},{"id":"52087335889","owner":"61241315@N00","secret":"c554fe4d82","server":"0","farm":0,"title":"Yellow-bellied Flycatcher_3262 COMPLETE","ispublic":1,"isfriend":0,"isfamily":0},{"id":"52081350224","owner":"32752434@N07","secret":"81e604a03c","server":"65535","farm":66,"title":"Yellow-bellied Flycatcher (Empidonax flaviventris)","ispublic":1,"isfriend":0,"isfamily":0},{"id":"51914040893","owner":"107784905@N04","secret":"f8a7f0d918","server":"65535","farm":66,"title":"Moucherolle \u00e0 ventre jaune - Rancho Naturalista\/Cartago\/Costa Rica_20211128_122","ispublic":1,"isfriend":0,"isfamily":0},{"id":"51908792498","owner":"28631427@N00","secret":"7eb99e370c","server":"65535","farm":66,"title":"Yellow-bellied Flycatcher","ispublic":1,"isfriend":0,"isfamily":0},{"id":"51879544573","owner":"96568982@N06","secret":"a782f69652","server":"65535","farm":66,"title":"FLYCATCHER, Yellow-bellied","ispublic":1,"isfriend":0,"isfamily":0},{"id":"51855911136","owner":"193033095@N05","secret":"c17fd9af25","server":"65535","farm":66,"title":"Yellow-bellied Flycatcher (Empidonax flaviventris) at Rapid Creek 2","ispublic":1,"isfriend":0,"isfamily":0},{"id":"51819563842","owner":"56686021@N04","secret":"ecc0242385","server":"65535","farm":66,"title":"Yellow-bellied Flycatcher","ispublic":1,"isfriend":0,"isfamily":0},{"id":"51792557091","owner":"186498599@N02","secret":"6955e70b0d","server":"65535","farm":66,"title":"Yellow-bellied Flycatcher 2 - Empidonax Flaviventris","ispublic":1,"isfriend":0,"isfamily":0},{"id":"51701874365","owner":"48311154@N02","secret":"458ef94d00","server":"65535","farm":66,"title":"Memories of summer","ispublic":1,"isfriend":0,"isfamily":0},{"id":"51697753877","owner":"16289576@N00","secret":"92d0116f03","server":"65535","farm":66,"title":"YBFL_WiscPt-2.5_22May2021_PHS-6898","ispublic":1,"isfriend":0,"isfamily":0},{"id":"51698546411","owner":"16289576@N00","secret":"5dc13482b4","server":"65535","farm":66,"title":"YBFL_WiscPt-2.5_22May2021_PHS-6899","ispublic":1,"isfriend":0,"isfamily":0},{"id":"51698546341","owner":"16289576@N00","secret":"203897d86b","server":"65535","farm":66,"title":"YBFL_WiscPt-2.5_22May2021_PHS-6900","ispublic":1,"isfriend":0,"isfamily":0},{"id":"51698822988","owner":"16289576@N00","secret":"26d41a305d","server":"65535","farm":66,"title":"YBFL_WiscPt-2.5_22May2021_PHS-6902","ispublic":1,"isfriend":0,"isfamily":0},{"id":"51699219864","owner":"16289576@N00","secret":"2118ed1a6d","server":"65535","farm":66,"title":"YBFL_WiscPt-2.5_22May2021_PHS-6904","ispublic":1,"isfriend":0,"isfamily":0},{"id":"51699219339","owner":"16289576@N00","secret":"295c5733a2","server":"65535","farm":66,"title":"YBFL_WiscPt-2.5_22May2021_PHS-6907","ispublic":1,"isfriend":0,"isfamily":0},{"id":"51698821198","owner":"16289576@N00","secret":"30cf3b07a9","server":"65535","farm":66,"title":"YBFL_WiscPt-2.5_22May2021_PHS-6909","ispublic":1,"isfriend":0,"isfamily":0},{"id":"51699430305","owner":"16289576@N00","secret":"b137b28282","server":"65535","farm":66,"title":"YBFL_WiscPt-2.5_22May2021_PHS-6919","ispublic":1,"isfriend":0,"isfamily":0},{"id":"51699216224","owner":"16289576@N00","secret":"5acf802144","server":"65535","farm":66,"title":"YBFL_WiscPt-2.5_22May2021_PHS-6920","ispublic":1,"isfriend":0,"isfamily":0},{"id":"51499784517","owner":"49114357@N08","secret":"03e0724c12","server":"65535","farm":66,"title":"Yellow-bellied Flycatcher","ispublic":1,"isfriend":0,"isfamily":0},{"id":"51593942835","owner":"91827451@N06","secret":"8ba31ea63e","server":"65535","farm":66,"title":"DSC_4889_1","ispublic":1,"isfriend":0,"isfamily":0},{"id":"51593269473","owner":"91827451@N06","secret":"24fe286c39","server":"65535","farm":66,"title":"DSC_4892","ispublic":1,"isfriend":0,"isfamily":0},{"id":"51593709674","owner":"91827451@N06","secret":"25c57facf7","server":"65535","farm":66,"title":"DSC_4901_1","ispublic":1,"isfriend":0,"isfamily":0},{"id":"51564392000","owner":"65632611@N00","secret":"6546d2d110","server":"65535","farm":66,"title":"Alley Pond Park: Yellow-bellied Flycatcher (5798)","ispublic":1,"isfriend":0,"isfamily":0},{"id":"51564391930","owner":"65632611@N00","secret":"4af582b78e","server":"65535","farm":66,"title":"Alley Pond Park: Yellow-bellied Flycatcher (5842)","ispublic":1,"isfriend":0,"isfamily":0},{"id":"51470788729","owner":"135315828@N06","secret":"83d987e10f","server":"65535","farm":66,"title":"IMG_8874","ispublic":1,"isfriend":0,"isfamily":0},{"id":"51454863550","owner":"29367844@N03","secret":"8799a67aa7","server":"65535","farm":66,"title":"Yellow-Bellied Flycatcher at West Friendship Park - 2","ispublic":1,"isfriend":0,"isfamily":0},{"id":"51454646039","owner":"29367844@N03","secret":"8b0e14db66","server":"65535","farm":66,"title":"Yellow-Bellied Flycatcher at West Friendship Park - 1","ispublic":1,"isfriend":0,"isfamily":0},{"id":"51449012854","owner":"12639178@N07","secret":"408ec32c4e","server":"65535","farm":66,"title":"8275_Flycatcher Empidonax flaviventris","ispublic":1,"isfriend":0,"isfamily":0},{"id":"51444803785","owner":"39138537@N06","secret":"795c0ab22f","server":"65535","farm":66,"title":"Yellow-bellied Flycatcher (Empidonax flaviventris)","ispublic":1,"isfriend":0,"isfamily":0},{"id":"51444806125","owner":"39138537@N06","secret":"f738323a36","server":"65535","farm":66,"title":"Yellow-bellied Flycatcher (Empidonax flaviventris)","ispublic":1,"isfriend":0,"isfamily":0},{"id":"51443085437","owner":"39138537@N06","secret":"e84477c98e","server":"65535","farm":66,"title":"Yellow-bellied Flycatcher (Empidonax flaviventris)","ispublic":1,"isfriend":0,"isfamily":0},{"id":"51443085397","owner":"39138537@N06","secret":"1fd1d0d8be","server":"65535","farm":66,"title":"Yellow-bellied Flycatcher (Empidonax flaviventris)","ispublic":1,"isfriend":0,"isfamily":0},{"id":"51444091453","owner":"39138537@N06","secret":"8a717c2ed9","server":"65535","farm":66,"title":"Yellow-bellied Flycatcher (Empidonax flaviventris)","ispublic":1,"isfriend":0,"isfamily":0},{"id":"51444805975","owner":"39138537@N06","secret":"809dff8795","server":"65535","farm":66,"title":"Yellow-bellied Flycatcher (Empidonax flaviventris)","ispublic":1,"isfriend":0,"isfamily":0},{"id":"51440211977","owner":"13451078@N03","secret":"73daa78368","server":"65535","farm":66,"title":"Yellow-bellied Flycatcher (Empidonax flaviventris)","ispublic":1,"isfriend":0,"isfamily":0},{"id":"51425043756","owner":"48311154@N02","secret":"3d4010be1e","server":"65535","farm":66,"title":"Yellow-bellied Flycatcher running out of patience with the photographer","ispublic":1,"isfriend":0,"isfamily":0},{"id":"52645134770","owner":"8013969@N03","secret":"8e24ef9712","server":"65535","farm":66,"title":"Empidonax flaviventris DFL lanc22-8","ispublic":1,"isfriend":0,"isfamily":0},{"id":"52320362686","owner":"13451078@N03","secret":"f3de4a5cae","server":"65535","farm":66,"title":"Yellow-bellied Flycatcher 2 (Empidonax flaviventris)","ispublic":1,"isfriend":0,"isfamily":0},{"id":"51698546276","owner":"16289576@N00","secret":"b51815da97","server":"65535","farm":66,"title":"YBFL_WiscPt-2.5_22May2021_PHS-6901","ispublic":1,"isfriend":0,"isfamily":0},{"id":"51593047296","owner":"91827451@N06","secret":"b5889b7b0c","server":"65535","farm":66,"title":"DSC_4894_3","ispublic":1,"isfriend":0,"isfamily":0}]},"stat":"ok"}