{"photos":{"page":1,"pages":628,"perpage":100,"total":62712,"photo":[{"id":"52715033227","owner":"31608675@N00","secret":"daf02fb8c9","server":"65535","farm":66,"title":"2023-02-27 Mystic Lakes (192)","ispublic":1,"isfriend":0,"isfamily":0},{"id":"52715027072","owner":"31608675@N00","secret":"16d75fc5bb","server":"65535","farm":66,"title":"2023-02-27 Mystic Lakes (208)","ispublic":1,"isfriend":0,"isfamily":0},{"id":"52715264829","owner":"44149404@N03","secret":"c070120924","server":"65535","farm":66,"title":"Red-shouldered Hawk","ispublic":1,"isfriend":0,"isfamily":0},{"id":"52714273311","owner":"103722035@N06","secret":"3ae1cd8457","server":"65535","farm":66,"title":"Red-shouldered Hawk (Buteo lineatus), San Luis Obispo, CA","ispublic":1,"isfriend":0,"isfamily":0},{"id":"52714337054","owner":"197358840@N05","secret":"d4f90c3bac","server":"65535","farm":66,"title":"Red shouldered hawk","ispublic":1,"isfriend":0,"isfamily":0},{"id":"52714337034","owner":"197358840@N05","secret":"2e2465965a","server":"65535","farm":66,"title":"Red shouldered hawk","ispublic":1,"isfriend":0,"isfamily":0},{"id":"52713554862","owner":"197358840@N05","secret":"ca3c833d9d","server":"65535","farm":66,"title":"Red shouldered hawk","ispublic":1,"isfriend":0,"isfamily":0},{"id":"52714535993","owner":"197358840@N05","secret":"5b5f0c5f82","server":"65535","farm":66,"title":"Red shouldered hawk","ispublic":1,"isfriend":0,"isfamily":0},{"id":"52714320139","owner":"197358840@N05","secret":"48242a8074","server":"65535","farm":66,"title":"Red shouldered hawk","ispublic":1,"isfriend":0,"isfamily":0},{"id":"52713538377","owner":"197358840@N05","secret":"7168962879","server":"65535","farm":66,"title":"Red shouldered hawk","ispublic":1,"isfriend":0,"isfamily":0},{"id":"52714462685","owner":"135081788@N03","secret":"44d4042731","server":"65535","farm":66,"title":"Red-shouldered Hawk","ispublic":1,"isfriend":0,"isfamily":0},{"id":"52714404365","owner":"58008645@N00","secret":"ff9d728dea","server":"65535","farm":66,"title":"A couple of birds in the rain today","ispublic":1,"isfriend":0,"isfamily":0},{"id":"52714212720","owner":"93549366@N06","secret":"33bf26278d","server":"65535","farm":66,"title":"Red-shouldered Hawk","ispublic":1,"isfriend":0,"isfamily":0},{"id":"52713218437","owner":"93549366@N06","secret":"93da98549c","server":"65535","farm":66,"title":"Red-shouldered Hawk","ispublic":1,"isfriend":0,"isfamily":0},{"id":"52714047495","owner":"151817352@N04","secret":"6701da8ae6","server":"65535","farm":66,"title":"red-shouldered hawk monocacy river trail DSC_5804_1-topaz-denoiseraw-sharpen","ispublic":1,"isfriend":0,"isfamily":0},{"id":"52713626891","owner":"151817352@N04","secret":"9ff1c6c473","server":"65535","farm":66,"title":"red-shouldered hawk monocacy river trail DSC_5816_1-topaz-denoiseraw-sharpen","ispublic":1,"isfriend":0,"isfamily":0},{"id":"52713949968","owner":"40941741@N03","secret":"31598eda5c","server":"65535","farm":66,"title":"Hawk on a Dock","ispublic":1,"isfriend":0,"isfamily":0},{"id":"52713620150","owner":"79453007@N00","secret":"fcabb119e8","server":"65535","farm":66,"title":"Red-shouldered Hawk","ispublic":1,"isfriend":0,"isfamily":0},{"id":"52713651478","owner":"73233223@N07","secret":"bb43a3bbde","server":"65535","farm":66,"title":"Red-shouldered Hawk","ispublic":1,"isfriend":0,"isfamily":0},{"id":"52713386779","owner":"27481081@N03","secret":"1ca323cb9e","server":"65535","farm":66,"title":"Red-Shouldered Hawk Juvenile IF","ispublic":1,"isfriend":0,"isfamily":0},{"id":"52713043768","owner":"95814790@N06","secret":"4644515fa4","server":"65535","farm":66,"title":"Red-shouldered Hawk","ispublic":1,"isfriend":0,"isfamily":0},{"id":"52712045452","owner":"95814790@N06","secret":"d23d49deb8","server":"65535","farm":66,"title":"Red-shouldered Hawk","ispublic":1,"isfriend":0,"isfamily":0},{"id":"52712045012","owner":"95814790@N06","secret":"6a8e79018d","server":"65535","farm":66,"title":"Red-shouldered Hawk","ispublic":1,"isfriend":0,"isfamily":0},{"id":"52712829079","owner":"95814790@N06","secret":"0530d4c56b","server":"65535","farm":66,"title":"Red-shouldered Hawk","ispublic":1,"isfriend":0,"isfamily":0},{"id":"52712198481","owner":"184593309@N06","secret":"43074fdb04","server":"65535","farm":66,"title":"Red Shouldered Hawk","ispublic":1,"isfriend":0,"isfamily":0},{"id":"52711458305","owner":"145760092@N07","secret":"8b1272c052","server":"65535","farm":66,"title":"Red-Shouldered Hawk Takeoff","ispublic":1,"isfriend":0,"isfamily":0},{"id":"52711216010","owner":"188050739@N06","secret":"1a75d420a9","server":"65535","farm":66,"title":"red-shouldered hawk","ispublic":1,"isfriend":0,"isfamily":0},{"id":"52710798191","owner":"188050739@N06","secret":"3d099169ce","server":"65535","farm":66,"title":"red-shouldered hawk","ispublic":1,"isfriend":0,"isfamily":0},{"id":"52710659310","owner":"77457939@N04","secret":"630d0138c8","server":"65535","farm":66,"title":"IMG_4847.jpg","ispublic":1,"isfriend":0,"isfamily":0},{"id":"52710601138","owner":"95186219@N02","secret":"d820e3fe0b","server":"65535","farm":66,"title":"Raritan Estuary Chistmas Count - Oros Wildlife Preserve - 12\/26\/22","ispublic":1,"isfriend":0,"isfamily":0},{"id":"52710392945","owner":"45246060@N03","secret":"52a54042d8","server":"65535","farm":66,"title":"Red-shouldered hawk","ispublic":1,"isfriend":0,"isfamily":0},{"id":"52709456437","owner":"45246060@N03","secret":"e5fac9ca8f","server":"65535","farm":66,"title":"Red-shouldered hawk","ispublic":1,"isfriend":0,"isfamily":0},{"id":"52710457353","owner":"12813708@N08","secret":"c3d348ab92","server":"65535","farm":66,"title":"Red-shoulder Hawk","ispublic":1,"isfriend":0,"isfamily":0},{"id":"52709678529","owner":"50807678@N07","secret":"75dd7a05a9","server":"65535","farm":66,"title":"SanDeigo2-1","ispublic":1,"isfriend":0,"isfamily":0},{"id":"52708788947","owner":"62043870@N05","secret":"b5db0c4a27","server":"65535","farm":66,"title":"Red-shouldered Hawk, Buteo lineatus (OCA3 Albino)","ispublic":1,"isfriend":0,"isfamily":0},{"id":"52708787852","owner":"62043870@N05","secret":"28af103a82","server":"65535","farm":66,"title":"Red-shouldered Hawk, Buteo lineatus (OCA3 Albino)","ispublic":1,"isfriend":0,"isfamily":0},{"id":"52709108146","owner":"183506946@N03","secret":"486734d826","server":"65535","farm":66,"title":"Red-Shouldered Hawk","ispublic":1,"isfriend":0,"isfamily":0},{"id":"52708572692","owner":"90355165@N03","secret":"c0d206e992","server":"65535","farm":66,"title":"red-shouldered hawk","ispublic":1,"isfriend":0,"isfamily":0},{"id":"52709047994","owner":"8378957@N02","secret":"d4cdfaeec1","server":"65535","farm":66,"title":"Red-shouldered Hawk","ispublic":1,"isfriend":0,"isfamily":0},{"id":"52709046019","owner":"8378957@N02","secret":"f2da303911","server":"65535","farm":66,"title":"Red-shouldered Hawk","ispublic":1,"isfriend":0,"isfamily":0},{"id":"52709273623","owner":"8378957@N02","secret":"628ee8291f","server":"65535","farm":66,"title":"Red-shouldered Hawk","ispublic":1,"isfriend":0,"isfamily":0},{"id":"52709041809","owner":"8378957@N02","secret":"f384988c99","server":"65535","farm":66,"title":"Red-shouldered Hawk","ispublic":1,"isfriend":0,"isfamily":0},{"id":"52708787231","owner":"134640335@N04","secret":"efe4eef68e","server":"65535","farm":66,"title":"CNC_2023-02-23-27560-Edit","ispublic":1,"isfriend":0,"isfamily":0},{"id":"52709272868","owner":"134640335@N04","secret":"50d4fc3b3b","server":"65535","farm":66,"title":"CNC_2023-02-23-27554-Edit","ispublic":1,"isfriend":0,"isfamily":0},{"id":"52709042994","owner":"134640335@N04","secret":"cb044cb1bd","server":"65535","farm":66,"title":"CNC_2023-02-23-27548-Edit","ispublic":1,"isfriend":0,"isfamily":0},{"id":"52709200255","owner":"134640335@N04","secret":"8d5ba4a1de","server":"65535","farm":66,"title":"CNC_2023-02-23-27548-78Comp","ispublic":1,"isfriend":0,"isfamily":0},{"id":"52709272363","owner":"134640335@N04","secret":"6b7c317468","server":"65535","farm":66,"title":"CNC_2023-02-23-27627-Edit","ispublic":1,"isfriend":0,"isfamily":0},{"id":"52708262977","owner":"134640335@N04","secret":"c3e7d5924f","server":"65535","farm":66,"title":"CNC_2023-02-23-27647-Edit","ispublic":1,"isfriend":0,"isfamily":0},{"id":"52708262927","owner":"134640335@N04","secret":"918fa6976f","server":"65535","farm":66,"title":"CNC_2023-02-23-27597-Edit","ispublic":1,"isfriend":0,"isfamily":0},{"id":"52709042289","owner":"134640335@N04","secret":"96e06bb4f1","server":"65535","farm":66,"title":"CNC_2023-02-23-27593-Edit","ispublic":1,"isfriend":0,"isfamily":0},{"id":"52708262687","owner":"134640335@N04","secret":"2a7393fa63","server":"65535","farm":66,"title":"CNC_2023-02-23-27235-Edit","ispublic":1,"isfriend":0,"isfamily":0},{"id":"52709199160","owner":"134640335@N04","secret":"c6560aa3d4","server":"65535","farm":66,"title":"CNC_2023-02-23-27131-Edit","ispublic":1,"isfriend":0,"isfamily":0},{"id":"52708785036","owner":"134640335@N04","secret":"c25d26ce98","server":"65535","farm":66,"title":"CNC_2023-02-23-27548-619-Comp","ispublic":1,"isfriend":0,"isfamily":0},{"id":"52709198105","owner":"134640335@N04","secret":"9261ec2f1a","server":"65535","farm":66,"title":"CNC_2023-02-23-26736-Edit","ispublic":1,"isfriend":0,"isfamily":0},{"id":"52709270468","owner":"134640335@N04","secret":"6a1427fba9","server":"65535","farm":66,"title":"CNC_2023-02-23-26794-Edit","ispublic":1,"isfriend":0,"isfamily":0},{"id":"52709197635","owner":"134640335@N04","secret":"17ed03ca62","server":"65535","farm":66,"title":"CNC_2023-02-23-27001-Edit","ispublic":1,"isfriend":0,"isfamily":0},{"id":"52708260787","owner":"134640335@N04","secret":"61d53a4fe0","server":"65535","farm":66,"title":"CNC_2023-02-23-26951-Edit","ispublic":1,"isfriend":0,"isfamily":0},{"id":"52709197325","owner":"134640335@N04","secret":"fedbab9aec","server":"65535","farm":66,"title":"CNC_2023-02-23-26946-Edit","ispublic":1,"isfriend":0,"isfamily":0},{"id":"52709269873","owner":"134640335@N04","secret":"d61eae4075","server":"65535","farm":66,"title":"CNC_2023-02-23-26924-Edit","ispublic":1,"isfriend":0,"isfamily":0},{"id":"52708260152","owner":"134640335@N04","secret":"c763b94c88","server":"65535","farm":66,"title":"CNC_2023-02-23-26973-Edit","ispublic":1,"isfriend":0,"isfamily":0},{"id":"52708259657","owner":"134640335@N04","secret":"a1dfc1a6fc","server":"65535","farm":66,"title":"CNC_2023-02-23-26828-Edit","ispublic":1,"isfriend":0,"isfamily":0},{"id":"52709047030","owner":"143326780@N02","secret":"18aa63f97b","server":"65535","farm":66,"title":"DSCN5323","ispublic":1,"isfriend":0,"isfamily":0},{"id":"52708328501","owner":"50637523@N04","secret":"b495a92b46","server":"65535","farm":66,"title":"Red-shouldered Hawk","ispublic":1,"isfriend":0,"isfamily":0},{"id":"52707949308","owner":"134640335@N04","secret":"918b62b550","server":"65535","farm":66,"title":"CNC_2023-02-23-27294-Edit","ispublic":1,"isfriend":0,"isfamily":0},{"id":"52707783408","owner":"31647708@N06","secret":"23ae73936f","server":"65535","farm":66,"title":"Red-shouldered Hawk","ispublic":1,"isfriend":0,"isfamily":0},{"id":"52706547122","owner":"126290280@N07","secret":"b97f46a09e","server":"65535","farm":66,"title":"Red-shouldered Hawk","ispublic":1,"isfriend":0,"isfamily":0},{"id":"52707016896","owner":"39897599@N07","secret":"0f71367919","server":"65535","farm":66,"title":"Red-shouldered Hawk Portrait 267A2225","ispublic":1,"isfriend":0,"isfamily":0},{"id":"52707351760","owner":"77457939@N04","secret":"4ab40708d0","server":"65535","farm":66,"title":"IMG_3374.jpg","ispublic":1,"isfriend":0,"isfamily":0},{"id":"52706983710","owner":"185443397@N07","secret":"d17aeab395","server":"65535","farm":66,"title":"Red-shoulder Hawk (Buteo lineatus)","ispublic":1,"isfriend":0,"isfamily":0},{"id":"52706815774","owner":"185443397@N07","secret":"12d7063ea9","server":"65535","farm":66,"title":"Red-shouldered Hawk (Buteo lineatus)","ispublic":1,"isfriend":0,"isfamily":0},{"id":"52706608588","owner":"69877393@N03","secret":"9b926a8e58","server":"65535","farm":66,"title":"Red-shoulder Hawk - Sarasota Co, Florida","ispublic":1,"isfriend":0,"isfamily":0},{"id":"52706295679","owner":"68142425@N05","secret":"dd03ea0f69","server":"65535","farm":66,"title":"Red-shouldered Hawk - Florida","ispublic":1,"isfriend":0,"isfamily":0},{"id":"52705011542","owner":"40237340@N02","secret":"6b557007c0","server":"65535","farm":66,"title":"IMG_0644 Red Shouldered Hawk","ispublic":1,"isfriend":0,"isfamily":0},{"id":"52705747754","owner":"44034115@N08","secret":"9d995ed600","server":"65535","farm":66,"title":"Here Comes the Red-shouldered Hawk","ispublic":1,"isfriend":0,"isfamily":0},{"id":"52705737004","owner":"44034115@N08","secret":"f88b9f07ef","server":"65535","farm":66,"title":"Red-shouldered Ready to Fly","ispublic":1,"isfriend":0,"isfamily":0},{"id":"52705664790","owner":"30142646@N05","secret":"635dbc49a1","server":"65535","farm":66,"title":"Red-shouldered Hawk","ispublic":1,"isfriend":0,"isfamily":0},{"id":"52705622755","owner":"145223902@N02","secret":"a3db10e57b","server":"65535","farm":66,"title":"Red-shouldered Hawk","ispublic":1,"isfriend":0,"isfamily":0},{"id":"52704557172","owner":"74181952@N00","secret":"6668c484b4","server":"65535","farm":66,"title":"Red Shouldered Hawk","ispublic":1,"isfriend":0,"isfamily":0},{"id":"52705567998","owner":"74181952@N00","secret":"ca1ab68c7f","server":"65535","farm":66,"title":"Red Shouldered Hawk","ispublic":1,"isfriend":0,"isfamily":0},{"id":"52705080041","owner":"74181952@N00","secret":"ef53d538e1","server":"65535","farm":66,"title":"Red Shouldered Hawk","ispublic":1,"isfriend":0,"isfamily":0},{"id":"52705332569","owner":"74181952@N00","secret":"3b9028be04","server":"65535","farm":66,"title":"Red Shouldered Hawk","ispublic":1,"isfriend":0,"isfamily":0},{"id":"52705079721","owner":"74181952@N00","secret":"bc454298f3","server":"65535","farm":66,"title":"Red Shouldered Hawk","ispublic":1,"isfriend":0,"isfamily":0},{"id":"52704555792","owner":"74181952@N00","secret":"a1d7ed654a","server":"65535","farm":66,"title":"Red Shouldered Hawk","ispublic":1,"isfriend":0,"isfamily":0},{"id":"52705566883","owner":"74181952@N00","secret":"88c323aab7","server":"65535","farm":66,"title":"Red Shouldered Hawk","ispublic":1,"isfriend":0,"isfamily":0},{"id":"52705566738","owner":"74181952@N00","secret":"6c2fbcd7c6","server":"65535","farm":66,"title":"Red Shouldered Hawk","ispublic":1,"isfriend":0,"isfamily":0},{"id":"52705078846","owner":"74181952@N00","secret":"da791a3bf9","server":"65535","farm":66,"title":"Red Shouldered Hawk","ispublic":1,"isfriend":0,"isfamily":0},{"id":"52705496200","owner":"74181952@N00","secret":"2e4eb3633c","server":"65535","farm":66,"title":"Red Shouldered Hawk","ispublic":1,"isfriend":0,"isfamily":0},{"id":"52704554842","owner":"74181952@N00","secret":"9f2e3e2912","server":"65535","farm":66,"title":"Red Shouldered Hawk","ispublic":1,"isfriend":0,"isfamily":0},{"id":"52705330774","owner":"74181952@N00","secret":"c578664519","server":"65535","farm":66,"title":"Red Shouldered Hawk","ispublic":1,"isfriend":0,"isfamily":0},{"id":"52704554342","owner":"74181952@N00","secret":"d7b88d9734","server":"65535","farm":66,"title":"Red Shouldered Hawk","ispublic":1,"isfriend":0,"isfamily":0},{"id":"52705495215","owner":"74181952@N00","secret":"e5f5fbe04d","server":"65535","farm":66,"title":"Red Shouldered Hawk","ispublic":1,"isfriend":0,"isfamily":0},{"id":"52705077496","owner":"74181952@N00","secret":"36a82f8646","server":"65535","farm":66,"title":"Red Shouldered Hawk","ispublic":1,"isfriend":0,"isfamily":0},{"id":"52705494955","owner":"74181952@N00","secret":"898be360e4","server":"65535","farm":66,"title":"Red Shouldered Hawk","ispublic":1,"isfriend":0,"isfamily":0},{"id":"52704165066","owner":"41684493@N06","secret":"d8bd3fd253","server":"65535","farm":66,"title":"Red Shouldered Hawk","ispublic":1,"isfriend":0,"isfamily":0},{"id":"52703636581","owner":"168811364@N05","secret":"e292041347","server":"65535","farm":66,"title":"mating red-shouldered hawks","ispublic":1,"isfriend":0,"isfamily":0},{"id":"52704143483","owner":"195280903@N07","secret":"ee62585920","server":"65535","farm":66,"title":"Red-shouldered Hawk","ispublic":1,"isfriend":0,"isfamily":0},{"id":"52703137392","owner":"195280903@N07","secret":"2514efbc7c","server":"65535","farm":66,"title":"Red-shouldered Hawk","ispublic":1,"isfriend":0,"isfamily":0},{"id":"52703030132","owner":"149768393@N06","secret":"3f53fbb012","server":"65535","farm":66,"title":"red-shouldered hawk; lower hatchie nwr","ispublic":1,"isfriend":0,"isfamily":0},{"id":"52703437666","owner":"81515109@N00","secret":"a12ea1c390","server":"65535","farm":66,"title":"Red-shouldered Hawk","ispublic":1,"isfriend":0,"isfamily":0},{"id":"52703863748","owner":"15339304@N06","secret":"4dce3e1564","server":"65535","farm":66,"title":"_U7A5324","ispublic":1,"isfriend":0,"isfamily":0}]},"stat":"ok"}